0.000109
0.015933
0.005826
0.000279
0.000268
0.000283
0.000308
0.000251
0.000326
0.000284
0.000261
0.000336
0.000479
0.000552
0.000378
0.000332
0.000270
0.000363
0.000331
0.000412
0.000318
0.001926
0.000691
0.000249
0.000254
0.000317
0.000287
0.000338
0.000432
0.000369
0.000520
0.000289
0.000058
0.000203
0.000268
0.000269
0.000265
0.000316
0.000204
0.000280
0.000271
0.000265
0.000281
0.000433
0.000450
0.000308
0.000254
0.000415
0.000320
0.000345
0.000258
0.000245
0.001694
0.000321
0.000252
0.000457
0.000233
0.000284
0.000286
0.000283
0.000294
0.000286
0.000323
0.000444
0.000058
0.000227
0.000259
0.000259
0.000262
0.000254
0.000242
0.000263
0.000256
0.000287
0.001669
0.000221
0.000247
0.000265
0.000269
0.000280
0.000247
0.000266
0.000258
0.000360
0.001791
0.000236
0.000275
0.000450
0.000473
0.000349
0.000239
0.000248
0.000608
0.000453
0.000672
0.000196
0.000057
0.000223
0.000250
0.000248
0.000244
0.000303
0.000253
0.000413
0.000473
0.000359
0.000261
0.000245
0.000242
0.000243
0.000256
0.000260
0.000257
0.000296
0.000216
0.000296
0.000408
0.001587
0.000277
0.000255
0.000413
0.000635
0.000363
0.000623
0.000576
0.000350
0.000230
0.000183
0.000057
0.000237
0.000258
0.000261
0.000233
0.000279
0.000236
0.000313
0.000624
0.001257
0.000208
0.000260
0.000241
0.000256
0.000252
0.000268
0.000285
0.000282
0.000886
0.001302
0.000282
0.000456
0.000258
0.000206
0.000239
0.000255
0.000261
0.000258
0.000274
0.000259
0.000273
0.000199
0.000056
0.000199
0.000244
0.000245
0.000269
0.000239
0.000237
0.000246
0.000248
0.000238
0.000259
0.001627
0.000261
0.000244
0.000235
0.000255
0.000253
0.000240
0.000264
0.000241
0.000258
0.000267
0.001662
0.000285
0.000258
0.000434
0.000255
0.000275
0.000237
0.000265
0.000267
0.000195
0.000056
0.000205
0.000220
0.000252
0.000249
0.000253
0.000238
0.000261
0.000238
0.000260
0.000239
0.000319
0.000199
0.000262
0.000271
0.001650
0.000270
0.000293
0.000221
0.000246
0.000282
0.000297
0.000200
0.000246
0.000265
0.001785
0.000419
0.000324
0.000350
0.000254
0.000278
0.000195
0.000058
0.000232
0.000237
0.000243
0.000261
0.000259
0.000236
0.000282
0.000411
0.000444
0.000395
0.000211
0.000247
0.000254
0.000247
0.001576
0.000516
0.000347
0.000387
0.000326
0.000239
0.000248
0.000281
0.000278
0.001723
0.000641
0.000347
0.000236
0.000259
0.000236
0.000270
0.000182
0.000057
0.000196
0.000228
0.000251
0.000269
0.000410
0.000378
0.000452
0.000195
0.000214
0.000248
0.000259
0.000239
0.000254
0.001722
0.000477
0.000294
0.000218
0.000254
0.000274
0.000269
0.000250
0.000256
0.000277
0.001944
0.000250
0.000393
0.000261
0.000239
0.000263
0.000409
0.000327
0.000056
0.000213
0.000380
0.000361
0.000283
0.000242
0.000253
0.000244
0.000265
0.000256
0.000218
0.000244
0.000239
0.001556
0.000393
0.000269
0.000221
0.000266
0.000249
0.000248
0.000284
0.000279
0.000330
0.000240
0.001819
0.000239
0.000509
0.000242
0.000247
0.000265
0.000262
0.000260
0.000056
0.000419
0.000538
0.000582
0.000223
0.000223
0.000276
0.000229
0.000218
0.000263
0.000252
0.000256
0.001709
0.000246
0.000441
0.000373
0.000215
0.000237
0.000224
0.000253
0.000273
0.000243
0.001869
0.000226
0.000242
0.002087
0.000510
0.000366
0.000246
0.000258
0.000263
0.000185
0.000056
0.000210
0.000237
0.000247
0.000243
0.000254
0.001625
0.000245
0.000228
0.000260
0.000252
0.000247
0.000263
0.000236
0.000250
0.000264
0.000421
0.000630
0.000258
0.000226
0.000270
0.000262
0.000251
0.000245
0.000433
0.000462
0.000234
0.000441
0.000714
0.000209
0.000253
0.000192
0.000056
0.000217
0.000238
0.000252
0.000249
0.000233
0.000251
0.000240
0.000385
0.000469
0.001696
0.000214
0.000232
0.000243
0.000249
0.000255
0.000292
0.000413
0.000490
0.000348
0.000240
0.000245
0.000304
0.000289
0.000282
0.000253
0.000429
0.000344
0.000607
0.000556
0.000349
0.000172
0.000056
0.000203
0.000293
0.000217
0.000221
0.000248
0.000240
0.000246
0.000240
0.000248
0.000296
0.000339
0.000467
0.001348
0.000251
0.000234
0.000244
0.000261
0.000254
0.000241
0.000252
0.000282
0.000485
0.000404
0.000250
0.000254
0.000260
0.000261
0.000269
0.000264
0.000261
0.000393
0.000056
0.000224
0.000225
0.000229
0.000312
0.000623
0.000305
0.000236
0.000254
0.000236
0.000255
0.000249
0.000240
0.000295
0.000244
0.000270
0.000473
0.000413
0.001640
0.000284
0.000213
0.000256
0.000266
0.000259
0.000247
0.000252
0.000482
0.000457
0.000336
0.000416
0.000231
0.000196
0.000056
0.000219
0.000429
0.000241
0.000206
0.000268
0.000240
0.000259
0.000622
0.000326
0.000313
0.000212
0.000278
0.000263
0.000235
0.000523
0.000351
0.000238
0.000254
0.000501
0.001519
0.000275
0.000260
0.000495
0.000243
0.000279
0.000280
0.000251
0.000401
0.000496
0.000371
0.000284
0.000056
0.000207
0.000237
0.000236
0.000243
0.000423
0.000300
0.000292
0.000224
0.000408
0.000503
0.000335
0.000265
0.000224
0.000245
0.000255
0.000269
0.000257
0.000255
0.000221
0.000376
0.000273
0.000343
0.001840
0.000239
0.000250
0.000256
0.000300
0.000346
0.000414
0.000673
0.000502
0.000056
0.000240
0.000328
0.000283
0.000423
0.000391
0.000203
0.000285
0.000259
0.000530
0.000469
0.000203
0.000231
0.000233
0.000274
0.000264
0.000230
0.000268
0.000259
0.000267
0.000264
0.000267
0.000423
0.000735
0.001252
0.000333
0.000435
0.000422
0.000246
0.000348
0.000514
0.000342
0.000057
0.000245
0.000381
0.000277
0.000199
0.000227
0.000246
0.000419
0.000239
0.000227
0.000341
0.000434
0.000460
0.000241
0.000261
0.000263
0.000253
0.000362
0.000389
0.000349
0.000240
0.000241
0.000325
0.000749
0.001628
0.000221
0.000487
0.000269
0.000232
0.000249
0.000485
0.000267
0.000056
0.000235
0.000221
0.000245
0.000249
0.000248
0.000246
0.000248
0.000327
0.000468
0.000254
0.000455
0.000376
0.000288
0.000580
0.000248
0.000235
0.000275
0.000263
0.000228
0.000362
0.000222
0.000240
0.000268
0.000352
0.000595
0.001619
0.000270
0.000224
0.000245
0.000277
0.000187
0.000057
0.000326
0.000497
0.000320
0.000226
0.000232
0.000250
0.000259
0.000237
0.000263
0.000253
0.000224
0.000247
0.000437
0.000647
0.000249
0.000290
0.000251
0.000240
0.000355
0.000381
0.000381
0.000367
0.000386
0.000329
0.000248
0.000253
0.000270
0.000273
0.001791
0.000248
0.000211
0.000055
0.000202
0.000219
0.000255
0.000274
0.000365
0.000542
0.000315
0.000208
0.000262
0.000256
0.000248
0.000252
0.000525
0.000452
0.000476
0.000284
0.000267
0.000262
0.000426
0.000463
0.000356
0.000393
0.000514
0.000430
0.000241
0.000233
0.000268
0.000270
0.000245
0.001717
0.000367
0.000057
0.000336
0.000247
0.000216
0.000227
0.000254
0.000254
0.000240
0.000501
0.000370
0.000311
0.000294
0.000327
0.000280
0.000694
0.000314
0.000224
0.000247
0.000257
0.000254
0.000266
0.000267
0.000262
0.000244
0.000265
0.000314
0.000422
0.000356
0.000350
0.000246
0.000241
0.000185
0.000056
0.000465
0.000262
0.000542
0.000195
0.000204
0.000227
0.000271
0.000230
0.000241
0.000226
0.000250
0.000278
0.000294
0.000411
0.000505
0.000474
0.000287
0.000337
0.000368
0.000335
0.000295
0.000237
0.000248
0.000258
0.001754
0.000261
0.001722
0.000943
0.000477
0.000233
0.000169
0.000057
0.000211
0.000235
0.000224
0.000250
0.000259
0.000244
0.000257
0.000249
0.000243
0.000327
0.000353
0.000437
0.000356
0.000362
0.000252
0.000271
0.000256
0.000290
0.000204
0.000239
0.000263
0.000265
0.001808
0.000233
0.000289
0.000233
0.000278
0.000262
0.001887
0.000510
0.000302
0.000057
0.000230
0.000195
0.000247
0.000242
0.000253
0.000262
0.000229
0.000250
0.000255
0.000383
0.000621
0.000435
0.000235
0.000202
0.000233
0.000257
0.000331
0.000442
0.000375
0.000256
0.001766
0.000248
0.000250
0.000251
0.000262
0.000267
0.000243
0.000252
0.000335
0.000277
0.000398
0.000057
0.000195
0.000219
0.000232
0.000260
0.000248
0.000244
0.000252
0.000259
0.000242
0.000250
0.000240
0.000253
0.000437
0.000401
0.000301
0.000277
0.000467
0.000225
0.000255
0.000256
0.000267
0.000251
0.000276
0.000259
0.000275
0.001795
0.000242
0.000267
0.000246
0.000234
0.000206
0.000056
0.000326
0.000308
0.000227
0.000225
0.000238
0.000248
0.000223
0.000256
0.000244
0.000223
0.000239
0.000263
0.000253
0.000355
0.000404
0.000405
0.000251
0.000235
0.000251
0.000257
0.000268
0.000256
0.000250
0.000271
0.000254
0.000262
0.000308
0.001637
0.000270
0.000223
0.000198
0.000057
0.000197
0.000239
0.000255
0.000268
0.000373
0.000368
0.000395
0.000278
0.000220
0.000264
0.000246
0.000243
0.000266
0.000239
0.000252
0.000262
0.000247
0.000256
0.000252
0.000262
0.000270
0.000264
0.000252
0.000234
0.000249
0.000275
0.000273
0.000267
0.000253
0.000259
0.000202
0.000056
0.000193
0.000232
0.000255
0.000259
0.000236
0.000254
0.000241
0.000258
0.000285
0.000232
0.000230
0.000253
0.000252
0.000248
0.000270
0.000266
0.000246
0.000261
0.000299
0.000241
0.000276
0.000294
0.000272
0.000256
0.000269
0.000276
0.000266
0.000249
0.000299
0.000596
0.000506
0.000055
0.000229
0.000285
0.000221
0.000221
0.000237
0.000257
0.000240
0.000249
0.000254
0.000238
0.000268
0.000266
0.000527
0.000547
0.001459
0.000228
0.000491
0.000238
0.000327
0.000454
0.000469
0.000279
0.000221
0.000282
0.000254
0.000252
0.000283
0.000250
0.000314
0.000276
0.000163
0.000056
0.000318
0.000441
0.000324
0.000334
0.000196
0.000261
0.000251
0.000240
0.000239
0.000244
0.000253
0.000261
0.000226
0.000341
0.000274
0.000565
0.000332
0.001802
0.000229
0.000251
0.000333
0.000434
0.000494
0.000255
0.000316
0.000310
0.000304
0.000240
0.000221
0.000260
0.000187
0.000056
0.000191
0.000234
0.000240
0.000278
0.000367
0.000490
0.000294
0.000258
0.000254
0.000212
0.000250
0.000270
0.000263
0.000265
0.000245
0.000274
0.000275
0.000537
0.000323
0.000427
0.000228
0.001751
0.000332
0.000487
0.000600
0.000368
0.000331
0.000229
0.000243
0.000270
0.000449
0.000056
0.000219
0.000258
0.000227
0.000308
0.000480
0.000442
0.000334
0.000200
0.000249
0.000286
0.000246
0.000261
0.000253
0.000302
0.000299
0.000232
0.000250
0.000381
0.000541
0.000308
0.000449
0.001844
0.000259
0.000441
0.000488
0.000373
0.000223
0.000255
0.000291
0.000257
0.000211
0.000055
0.000216
0.000339
0.000361
0.000332
0.000382
0.000317
0.000345
0.000214
0.000237
0.000262
0.000279
0.000234
0.000239
0.000248
0.000250
0.000259
0.000323
0.000380
0.000533
0.000327
0.000305
0.000218
0.000271
0.001712
0.000413
0.000670
0.000533
0.000246
0.000254
0.000312
0.000156
0.000055
0.000190
0.000238
0.000336
0.000245
0.000248
0.000385
0.000432
0.000305
0.000234
0.000542
0.000225
0.000238
0.000256
0.000279
0.000271
0.000267
0.000215
0.000434
0.000450
0.000371
0.000269
0.000225
0.000274
0.000236
0.000263
0.000271
0.000225
0.000262
0.000265
0.000293
0.000192
0.000056
0.000324
0.000302
0.000229
0.000244
0.000249
0.000259
0.000235
0.000296
0.000244
0.000239
0.000264
0.000359
0.000446
0.000378
0.000371
0.000243
0.000217
0.000235
0.000260
0.000268
0.000301
0.000251
0.000236
0.000248
0.000286
0.000409
0.000361
0.000331
0.000365
0.000223
0.000176
0.000056
0.000183
0.000227
0.000284
0.000238
0.000244
0.000247
0.000263
0.000251
0.000489
0.000213
0.000258
0.000254
0.000247
0.000265
0.000274
0.000275
0.000262
0.000343
0.000230
0.000235
0.000256
0.000268
0.000254
0.000272
0.000273
0.000261
0.000262
0.000256
0.000520
0.000249
0.000142
0.000056
0.000203
0.000235
0.000255
0.000266
0.000219
0.000247
0.000360
0.000407
0.000255
0.000220
0.000251
0.000256
0.000238
0.000273
0.000373
0.001839
0.000231
0.000290
0.000264
0.000388
0.000370
0.000359
0.000359
0.000377
0.000387
0.000430
0.000232
0.000271
0.000263
0.000299
0.001372
0.000056
0.000391
0.000337
0.000232
0.000225
0.000232
0.000253
0.000228
0.000253
0.000246
0.000268
0.000247
0.000258
0.000253
0.000338
0.000477
0.001659
0.000237
0.000219
0.000246
0.000272
0.000236
0.000260
0.000522
0.000240
0.000292
0.000355
0.000216
0.000281
0.000265
0.000257
0.000192
0.000057
0.001244
0.000530
0.000300
0.000270
0.000211
0.000222
0.000245
0.000238
0.000486
0.000220
0.000247
0.000242
0.000397
0.000457
0.000434
0.000330
0.000246
0.000222
0.000353
0.000340
0.000272
0.000259
0.000271
0.000245
0.000267
0.000567
0.000527
0.000304
0.000248
0.000267
0.000167
0.000056
0.000195
0.000216
0.000245
0.000261
0.001544
0.000209
0.000223
0.000257
0.000235
0.000253
0.000250
0.000254
0.000239
0.000264
0.000276
0.000293
0.000450
0.000688
0.000206
0.001751
0.000266
0.000287
0.000290
0.000401
0.000588
0.000385
0.000229
0.000260
0.000276
0.000250
0.000242
0.000056
0.000188
0.000254
0.000238
0.000305
0.001269
0.000230
0.000253
0.000257
0.000243
0.000242
0.000233
0.000250
0.000280
0.000247
0.000287
0.000261
0.000469
0.000522
0.000216
0.000257
0.000264
0.000271
0.000250
0.000236
0.000294
0.000255
0.000242
0.000275
0.000280
0.000431
0.000551
0.000056
0.000219
0.000242
0.000236
0.000260
0.000264
0.000243
0.000232
0.000264
0.000268
0.000255
0.001434
0.000227
0.000235
0.000253
0.000241
0.000246
0.000270
0.000262
0.000260
0.000270
0.000275
0.000520
0.000397
0.000422
0.000219
0.000275
0.001765
0.000263
0.000269
0.000274
0.000497
0.000056
0.000221
0.000385
0.000457
0.000502
0.000513
0.000537
0.001493
0.000420
0.000526
0.000651
0.000558
0.000807
0.000416
0.000589
0.000583
0.001888
0.000474
0.000384
0.000372
0.000325
0.000227
0.000306
0.000255
0.000264
0.000265
0.000287
0.000288
0.000289
0.000258
0.000291
0.001358
0.000055
0.000224
0.000215
0.000243
0.000242
0.000259
0.000255
0.000231
0.000243
0.000257
0.000243
0.000236
0.000250
0.000252
0.000257
0.000271
0.000261
0.001820
0.000281
0.000249
0.000246
0.000251
0.000258
0.000273
0.000265
0.000466
0.000392
0.000322
0.000240
0.000255
0.000285
0.000201
0.000056
0.000209
0.001365
0.000329
0.000264
0.000255
0.000240
0.000245
0.000235
0.000229
0.000244
0.000219
0.000247
0.000260
0.000491
0.000366
0.000285
0.000265
0.000250
0.001933
0.000247
0.000222
0.000268
0.000261
0.000260
0.000273
0.000281
0.000270
0.000263
0.000257
0.000323
0.000206
0.000057
0.000200
0.000242
0.000248
0.001449
0.000223
0.000240
0.000247
0.000246
0.000242
0.000264
0.000254
0.000243
0.000242
0.000264
0.000256
0.000259
0.000255
0.000264
0.000278
0.000249
0.000258
0.001778
0.000280
0.001758
0.000264
0.000255
0.000253
0.000270
0.000280
0.000260
0.000201
0.000056
0.000196
0.000265
0.001376
0.000194
0.000243
0.000240
0.000263
0.000248
0.000240
0.000253
0.000246
0.000246
0.000266
0.000261
0.000259
0.000262
0.000259
0.000286
0.000293
0.000227
0.001897
0.000224
0.001840
0.000236
0.000252
0.000279
0.000234
0.000265
0.000234
0.000275
0.000203
0.000079
0.001463
0.000179
0.000226
0.000241
0.000238
0.000234
0.000374
0.000269
0.000252
0.000254
0.000281
0.000231
0.000243
0.000412
0.000407
0.000239
0.000236
0.000276
0.000251
0.000248
0.000266
0.000346
0.000223
0.000251
0.000269
0.000276
0.000273
0.000372
0.000603
0.000382
0.000195
0.000056
0.000225
0.000243
0.000278
0.000293
0.000360
0.000290
0.001659
0.000314
0.000285
0.000259
0.000263
0.000268
0.000260
0.000269
0.000297
0.000312
0.000423
0.000533
0.000334
0.000263
0.000292
0.000279
0.000265
0.000270
0.000322
0.000263
0.000269
0.000281
0.000216
0.000295
0.000446
0.000057
0.000220
0.000470
0.000269
0.000258
0.000248
0.000228
0.000224
0.000249
0.000259
0.000280
0.001497
0.000227
0.000224
0.000245
0.000243
0.000293
0.000260
0.000244
0.000272
0.000266
0.000268
0.000341
0.000603
0.000276
0.000270
0.000286
0.000272
0.000255
0.000233
0.000313
0.000165
0.000056
0.000204
0.000217
0.000321
0.000503
0.000287
0.000291
0.000223
0.000235
0.000249
0.000250
0.000236
0.000253
0.000259
0.000270
0.000233
0.000241
0.000546
0.001067
0.000248
0.000234
0.000288
0.000238
0.000366
0.000428
0.000238
0.000320
0.000626
0.000309
0.000380
0.000240
0.000166
0.000055
0.000223
0.000250
0.000260
0.000262
0.000250
0.000251
0.000364
0.000461
0.000417
0.000237
0.000350
0.000392
0.000392
0.000359
0.000259
0.000241
0.000236
0.000323
0.000402
0.000413
0.001260
0.000218
0.000271
0.000277
0.000229
0.000235
0.000266
0.000315
0.000443
0.000426
0.000250
0.000056
0.000181
0.000242
0.000253
0.000238
0.000252
0.000244
0.000237
0.000256
0.000317
0.000283
0.000456
0.000416
0.000245
0.000225
0.000250
0.000265
0.000243
0.000261
0.000269
0.000242
0.000443
0.000240
0.000427
0.000407
0.000320
0.000219
0.000270
0.000276
0.000246
0.000345
0.000157
0.000057
0.000304
0.000316
0.000294
0.000476
0.000346
0.000408
0.000214
0.000240
0.000250
0.000274
0.000257
0.000261
0.000235
0.000255
0.000241
0.000227
0.000270
0.000416
0.000424
0.000380
0.000226
0.000264
0.000230
0.000254
0.000264
0.000289
0.000255
0.000273
0.000273
0.000262
0.000309
0.000057
0.000383
0.000275
0.000217
0.000245
0.000245
0.000248
0.000251
0.000244
0.000268
0.000258
0.000254
0.000231
0.000294
0.000489
0.000438
0.000305
0.000229
0.000237
0.000264
0.000259
0.000254
0.000274
0.000254
0.000263
0.000295
0.000272
0.000526
0.000506
0.000421
0.000241
0.000169
0.000058
0.000370
0.000198
0.000226
0.000244
0.000253
0.000248
0.000238
0.000251
0.000258
0.000262
0.000215
0.000248
0.000273
0.000226
0.000240
0.000264
0.000254
0.000261
0.000276
0.000259
0.000267
0.000254
0.000263
0.000261
0.000269
0.000237
0.000273
0.000307
0.000221
0.000281
0.000193
0.000058
0.000207
0.000219
0.000244
0.000254
0.000232
0.000250
0.000262
0.000241
0.000257
0.000283
0.000223
0.000251
0.000246
0.000392
0.000260
0.000273
0.000268
0.000262
0.000256
0.000277
0.000270
0.000237
0.000252
0.000246
0.000272
0.000274
0.000266
0.000237
0.000267
0.000262
0.000200
0.000056
0.000198
0.000356
0.000369
0.000280
0.000299
0.000257
0.000258
0.000258
0.000221
0.000252
0.000249
0.000262
0.000247
0.000236
0.000257
0.000261
0.000265
0.000268
0.000249
0.000259
0.000275
0.000265
0.000276
0.000260
0.000285
0.000239
0.000251
0.000275
0.000271
0.000255
0.000200
0.000057
0.000200
0.000225
0.000266
0.000265
0.000484
0.000215
0.000205
0.000269
0.000301
0.000436
0.000470
0.000277
0.000231
0.000250
0.000266
0.000263
0.000239
0.000269
0.000259
0.000266
0.000272
0.000255
0.000260
0.000339
0.000499
0.000474
0.000267
0.000303
0.000265
0.000260
0.000185
0.000057
0.000213
0.000224
0.000248
0.000248
0.000377
0.000613
0.000305
0.000380
0.000204
0.000248
0.000251
0.000254
0.000272
0.000230
0.000255
0.000267
0.000260
0.000247
0.000737
0.000297
0.000294
0.000240
0.000258
0.000286
0.000282
0.000260
0.000261
0.000265
0.000251
0.000343
0.000361
0.000058
0.000270
0.000223
0.000240
0.000240
0.000258
0.000251
0.000229
0.000245
0.000246
0.000262
0.000245
0.000272
0.000221
0.000426
0.000603
0.000334
0.000237
0.000253
0.000266
0.000244
0.000265
0.000276
0.000483
0.000231
0.000259
0.000649
0.000342
0.000514
0.000241
0.000253
0.000183
0.000056
0.000202
0.000225
0.000242
0.000249
0.000253
0.000255
0.000361
0.000434
0.000534
0.000420
0.000218
0.000264
0.000274
0.000274
0.000260
0.000241
0.000240
0.000249
0.000260
0.000326
0.000434
0.000624
0.000365
0.000249
0.000365
0.000374
0.000472
0.000252
0.000274
0.000359
0.000464
0.000057
0.000256
0.000229
0.000432
0.000233
0.000223
0.000258
0.000262
0.000256
0.000234
0.000244
0.000262
0.000404
0.000371
0.000347
0.000213
0.000256
0.000258
0.000250
0.000263
0.000277
0.000277
0.000245
0.000255
0.000277
0.000329
0.000552
0.000396
0.000243
0.000257
0.000264
0.000200
0.000057
0.000225
0.000254
0.000228
0.000241
0.000251
0.000293
0.000460
0.000279
0.000432
0.000280
0.000372
0.000221
0.000242
0.000267
0.000255
0.000234
0.000261
0.000259
0.000342
0.000424
0.000433
0.000298
0.000478
0.000279
0.000387
0.000426
0.000376
0.000246
0.000244
0.000271
0.000401
0.000056
0.000235
0.000277
0.000219
0.000254
0.000263
0.000251
0.000251
0.000249
0.000248
0.000266
0.000244
0.000386
0.000430
0.000364
0.000369
0.000223
0.000270
0.000259
0.000267
0.000236
0.000248
0.000251
0.000266
0.000282
0.000275
0.000343
0.000476
0.000483
0.000240
0.000271
0.000190
0.000056
0.000210
0.000244
0.000268
0.000238
0.000260
0.000350
0.000527
0.000451
0.000340
0.000690
0.000260
0.000219
0.000237
0.000265
0.000248
0.000266
0.000299
0.000258
0.000477
0.000451
0.001476
0.000304
0.000263
0.000256
0.000298
0.000275
0.000369
0.000464
0.000320
0.000332
0.000158
0.000057
0.000212
0.000227
0.000245
0.000245
0.000239
0.000255
0.000276
0.000245
0.000254
0.000340
0.000344
0.000368
0.000267
0.000337
0.000393
0.000340
0.000238
0.000242
0.000281
0.000256
0.000243
0.000252
0.000278
0.000245
0.000326
0.000430
0.000435
0.000328
0.000215
0.000266
0.000185
0.000055
0.000220
0.000252
0.000257
0.000253
0.000246
0.000238
0.000463
0.000222
0.000227
0.000255
0.000245
0.000253
0.000257
0.000258
0.000246
0.000271
0.000265
0.000263
0.000278
0.000255
0.000263
0.000359
0.000221
0.000243
0.000264
0.000278
0.000269
0.000269
0.000258
0.000270
0.000175
0.000055
0.000237
0.000239
0.000310
0.000424
0.000422
0.000215
0.000218
0.000242
0.000263
0.000247
0.000247
0.000262
0.000259
0.000256
0.000240
0.000248
0.000243
0.000284
0.000341
0.000272
0.000459
0.000383
0.000220
0.000277
0.000252
0.000253
0.000267
0.000247
0.000276
0.000279
0.000196
0.000056
0.000287
0.000388
0.000432
0.000204
0.000248
0.000259
0.000407
0.000227
0.000227
0.000257
0.000259
0.000298
0.000349
0.000534
0.001761
0.000260
0.000243
0.000248
0.000274
0.000244
0.000387
0.000389
0.000684
0.000238
0.000217
0.000275
0.000270
0.000424
0.000276
0.000284
0.000162
0.000056
0.000239
0.000419
0.000300
0.000306
0.000490
0.000202
0.000239
0.000267
0.000241
0.000237
0.000262
0.000250
0.000260
0.000337
0.000430
0.000437
0.000220
0.000249
0.000259
0.000259
0.000263
0.000319
0.000225
0.000289
0.000276
0.000450
0.000563
0.000360
0.000453
0.000219
0.000202
0.000057
0.000181
0.000231
0.000262
0.000227
0.000251
0.000252
0.000267
0.000270
0.000356
0.000368
0.000457
0.000324
0.000211
0.000256
0.000266
0.000288
0.000301
0.000233
0.000281
0.000272
0.000236
0.000360
0.000433
0.000373
0.000278
0.000249
0.000260
0.000439
0.000413
0.000314
0.000170
0.000056
0.000201
0.000236
0.000340
0.000553
0.000250
0.000212
0.000235
0.000250
0.000262
0.000250
0.000265
0.000253
0.000229
0.000257
0.000259
0.000300
0.000445
0.000302
0.000335
0.000314
0.000486
0.000229
0.000281
0.000267
0.000301
0.000290
0.000249
0.000423
0.000320
0.000472
0.000244
0.000057
0.000199
0.000230
0.000251
0.000248
0.000239
0.000484
0.000214
0.000262
0.000261
0.000299
0.000502
0.000608
0.000223
0.000227
0.000247
0.000250
0.000251
0.000242
0.000266
0.000252
0.000258
0.000267
0.000410
0.000385
0.000366
0.000397
0.000308
0.000295
0.000320
0.000228
0.000187
0.000055
0.000199
0.000239
0.000275
0.000472
0.000327
0.000282
0.000274
0.000220
0.000265
0.000233
0.000257
0.000244
0.000259
0.000261
0.000244
0.000255
0.000257
0.000246
0.000253
0.000438
0.000500
0.000369
0.000221
0.000242
0.000281
0.000277
0.000260
0.000257
0.000269
0.000263
0.000192
0.000055
0.000271
0.000375
0.000475
0.000260
0.000215
0.000235
0.000329
0.000454
0.000280
0.000219
0.000234
0.000276
0.000287
0.000374
0.000493
0.000280
0.000234
0.000254
0.000233
0.000265
0.000269
0.000263
0.000261
0.000271
0.000261
0.000290
0.000376
0.000529
0.000245
0.000235
0.000175
0.000056
0.000178
0.000230
0.000247
0.000254
0.000252
0.000263
0.000230
0.000254
0.000249
0.000250
0.000267
0.000238
0.000262
0.001465
0.000221
0.000249
0.000264
0.000245
0.000276
0.000278
0.000261
0.000239
0.000279
0.000253
0.000263
0.000282
0.000262
0.000274
0.000251
0.000272
0.000185
0.000056
0.000215
0.000223
0.000255
0.000253
0.000231
0.000266
0.000245
0.000260
0.000226
0.000248
0.000248
0.000263
0.000256
0.000254
0.000255
0.000261
0.000248
0.000252
0.000281
0.000253
0.000252
0.000263
0.000249
0.000251
0.001291
0.000272
0.000642
0.000394
0.000310
0.000247
0.000192
0.000056
0.000201
0.000237
0.000244
0.000273
0.000395
0.000247
0.000224
0.000244
0.000256
0.000372
0.000515
0.000264
0.000238
0.000235
0.000259
0.000257
0.000258
0.000265
0.000245
0.000260
0.000261
0.000256
0.000255
0.000477
0.000466
0.000452
0.000222
0.000258
0.001380
0.000234
0.000183
0.000056
0.000340
0.000412
0.000325
0.000272
0.000224
0.000227
0.000229
0.000254
0.000257
0.000260
0.000243
0.000259
0.000274
0.000283
0.000581
0.000355
0.000350
0.000199
0.000248
0.000254
0.000271
0.000263
0.000290
0.000242
0.000271
0.000266
0.000325
0.000551
0.000370
0.000387
0.000148
0.000055
0.000203
0.000244
0.001265
0.000414
0.000273
0.000520
0.000382
0.000455
0.000274
0.000342
0.000226
0.000214
0.000282
0.000242
0.000254
0.000259
0.000399
0.000462
0.000371
0.000367
0.000256
0.000242
0.000270
0.000496
0.000238
0.000267
0.000251
0.000284
0.000348
0.000520
0.000296
0.000056
0.000389
0.000307
0.000235
0.000219
0.001635
0.000449
0.000249
0.000250
0.000239
0.000249
0.000229
0.000241
0.000242
0.000272
0.000252
0.000289
0.000208
0.000264
0.000428
0.000397
0.000437
0.000243
0.000247
0.000254
0.000263
0.000273
0.000270
0.000236
0.000266
0.000276
0.000201
0.000057
0.000376
0.000347
0.000231
0.000229
0.000245
0.000242
0.000255
0.000241
0.000227
0.000232
0.001397
0.000508
0.000253
0.000230
0.000242
0.000254
0.000278
0.000260
0.000227
0.000286
0.000265
0.000255
0.000320
0.000362
0.000427
0.000443
0.000232
0.000268
0.000276
0.000283
0.000171
0.000057
0.000207
0.000416
0.000222
0.000272
0.000430
0.000401
0.000312
0.000296
0.000467
0.000206
0.000232
0.000250
0.000265
0.000264
0.000259
0.001398
0.000372
0.000284
0.000244
0.000271
0.000288
0.000243
0.000255
0.000248
0.000264
0.000274
0.000492
0.000435
0.000266
0.000274
0.000149
0.000056
0.000194
0.000230
0.000256
0.000240
0.000222
0.000266
0.000235
0.000248
0.000294
0.000356
0.000427
0.000310
0.000252
0.000244
0.000236
0.000273
0.000275
0.000262
0.000270
0.000230
0.000249
0.000370
0.001205
0.000260
0.000257
0.000237
0.000265
0.000263
0.000262
0.000252
0.000189
0.000056
0.000222
0.000362
0.000414
0.000296
0.000240
0.000246
0.000260
0.000263
0.000253
0.000245
0.000264
0.000269
0.000236
0.000258
0.000265
0.000252
0.000266
0.000271
0.000263
0.000253
0.000245
0.000272
0.000267
0.000282
0.000288
0.000268
0.000263
0.000252
0.000272
0.000442
0.001370
0.000056
0.000216
0.000228
0.000241
0.000242
0.000261
0.000254
0.000245
0.000224
0.000246
0.000251
0.000276
0.000251
0.000252
0.000243
0.000252
0.000249
0.001734
0.000239
0.000247
0.000262
0.000246
0.000257
0.000271
0.000263
0.000272
0.000257
0.000275
0.000273
0.000270
0.000255
0.000215
0.000056
0.000296
0.000355
0.001270
0.000228
0.000218
0.000245
0.000257
0.000245
0.000264
0.000259
0.000227
0.000336
0.000467
0.000380
0.000296
0.000220
0.000243
0.000253
0.000258
0.000269
0.000238
0.000279
0.000259
0.000284
0.000256
0.000446
0.000343
0.000352
0.000309
0.000239
0.000192
0.000056
0.000196
0.000248
0.000245
0.000248
0.000257
0.000215
0.000241
0.000246
0.000467
0.001329
0.000250
0.000201
0.000248
0.000270
0.000258
0.000267
0.000260
0.000254
0.000298
0.000474
0.000347
0.000287
0.000210
0.000241
0.000277
0.000277
0.000265
0.000298
0.000268
0.000277
0.000195
0.000057
0.000229
0.000483
0.000348
0.000221
0.000234
0.000233
0.000242
0.000277
0.000269
0.000245
0.000227
0.000252
0.000458
0.000548
0.000442
0.001439
0.000243
0.000280
0.000325
0.000350
0.000484
0.000471
0.000404
0.000407
0.000243
0.000247
0.000263
0.000278
0.000261
0.000275
0.000189
0.000055
0.000206
0.000254
0.000456
0.000462
0.000363
0.000241
0.000255
0.000218
0.000253
0.000258
0.000247
0.000266
0.000265
0.000239
0.000266
0.000327
0.000368
0.000413
0.000355
0.001319
0.000263
0.000261
0.000252
0.000265
0.000447
0.000610
0.000247
0.000228
0.000272
0.000290
0.000176
0.000056
0.000184
0.000239
0.000244
0.000245
0.000248
0.000277
0.000454
0.000482
0.000279
0.000212
0.000241
0.000262
0.000268
0.000261
0.000260
0.000265
0.000264
0.000268
0.000259
0.000292
0.000462
0.000413
0.000324
0.001359
0.000391
0.000238
0.000286
0.000440
0.000477
0.000282
0.000320
0.000056
0.000195
0.000238
0.000262
0.000233
0.000247
0.000258
0.001680
0.000250
0.000201
0.000249
0.000257
0.000251
0.000254
0.000327
0.000326
0.000286
0.000291
0.000297
0.000471
0.000423
0.000315
0.000285
0.000221
0.000243
0.001510
0.000362
0.000393
0.000463
0.000337
0.000293
0.000159
0.000056
0.000201
0.000243
0.000254
0.000262
0.000241
0.000260
0.001716
0.000229
0.000241
0.000263
0.000337
0.000406
0.001450
0.000395
0.000354
0.000244
0.000255
0.000231
0.000272
0.000266
0.001565
0.000548
0.000391
0.000291
0.000231
0.000258
0.000257
0.000281
0.000250
0.000241
0.000202
0.000055
0.000187
0.000244
0.000269
0.000242
0.000265
0.000276
0.000277
0.000250
0.000255
0.000252
0.000251
0.000250
0.000264
0.000266
0.000258
0.001493
0.000279
0.000233
0.000262
0.000276
0.000271
0.000257
0.000437
0.001270
0.000272
0.000228
0.000276
0.000261
0.000389
0.000238
0.000205
0.000055
0.000210
0.000249
0.000222
0.000246
0.000227
0.000223
0.000232
0.001699
0.000256
0.000219
0.000252
0.000372
0.000227
0.000224
0.000253
0.001401
0.000215
0.000267
0.000265
0.000252
0.000254
0.000352
0.000282
0.001316
0.000263
0.000256
0.000261
0.000256
0.001393
0.000308
0.000189
0.000057
0.000210
0.000366
0.000211
0.000238
0.000253
0.000244
0.000259
0.000270
0.000269
0.000246
0.000267
0.000259
0.000252
0.000245
0.000306
0.001510
0.000243
0.000269
0.000254
0.000242
0.000289
0.000264
0.000246
0.001518
0.000356
0.000227
0.000254
0.001277
0.000277
0.000244
0.000210
0.000057
0.000208
0.000383
0.000366
0.000203
0.000232
0.000235
0.000263
0.000259
0.000266
0.000273
0.000245
0.000238
0.000265
0.000247
0.000437
0.001224
0.000232
0.000252
0.000267
0.000278
0.000225
0.000249
0.000245
0.000330
0.001270
0.000267
0.000229
0.000265
0.001349
0.000335
0.000218
0.000058
0.000281
0.000258
0.000217
0.000233
0.000239
0.000255
0.000248
0.000240
0.000282
0.000252
0.000239
0.000256
0.000239
0.000386
0.000376
0.001464
0.000213
0.000247
0.000300
0.000535
0.000260
0.000311
0.001434
0.000295
0.000240
0.000277
0.000244
0.001306
0.000269
0.000518
0.000348
0.000058
0.000217
0.000248
0.000256
0.000253
0.000256
0.000251
0.000271
0.000251
0.000261
0.000261
0.000332
0.000533
0.001257
0.000241
0.000268
0.000265
0.000279
0.000218
0.000241
0.000238
0.000345
0.001240
0.000260
0.000261
0.000234
0.000249
0.001525
0.000704
0.000195
0.000219
0.000185
0.000056
0.000207
0.000225
0.000249
0.000235
0.000259
0.000263
0.000231
0.000275
0.000424
0.000486
0.000299
0.001461
0.000212
0.000240
0.000267
0.000255
0.000262
0.000276
0.001713
0.000249
0.000393
0.000337
0.001311
0.000306
0.000343
0.000346
0.000218
0.000261
0.000261
0.000268
0.000192
0.000056
0.000188
0.000236
0.000332
0.000246
0.000410
0.000513
0.000208
0.000323
0.001447
0.000237
0.000392
0.000257
0.000214
0.000352
0.000390
0.001289
0.000268
0.000239
0.000238
0.000256
0.001522
0.000377
0.000280
0.000283
0.000274
0.000229
0.000478
0.000355
0.000220
0.000237
0.000253
0.000056
0.000293
0.000319
0.000320
0.000280
0.000218
0.001520
0.000204
0.000269
0.000258
0.000266
0.000277
0.000255
0.000298
0.001479
0.000251
0.000232
0.000423
0.001193
0.000361
0.000429
0.000405
0.000225
0.000238
0.000255
0.000277
0.000241
0.000461
0.000223
0.000263
0.000277
0.000196
0.000057
0.000196
0.000282
0.000337
0.000393
0.001266
0.000275
0.000312
0.000231
0.000238
0.000250
0.000251
0.000289
0.001522
0.000288
0.000206
0.000242
0.001381
0.000365
0.000373
0.000396
0.000399
0.000226
0.000238
0.000258
0.000268
0.000280
0.000276
0.000246
0.000268
0.000255
0.000190
0.000056
0.000291
0.000320
0.001463
0.000203
0.000280
0.000273
0.000243
0.000242
0.000282
0.000352
0.001413
0.000209
0.000269
0.000254
0.000251
0.001330
0.000671
0.000280
0.000310
0.000408
0.000298
0.000249
0.000261
0.000253
0.000276
0.000289
0.000270
0.000361
0.000365
0.000548
0.001276
0.000055
0.000201
0.000232
0.000255
0.000225
0.000248
0.000404
0.000515
0.001274
0.000254
0.000237
0.000249
0.001436
0.000362
0.000400
0.000212
0.000411
0.000242
0.000247
0.000269
0.000269
0.000248
0.000277
0.000277
0.000253
0.000253
0.000275
0.000558
0.000391
0.001485
0.000223
0.000186
0.000057
0.000202
0.000253
0.000486
0.000436
0.001209
0.000276
0.000253
0.000258
0.000246
0.000253
0.000249
0.000269
0.000383
0.000465
0.000349
0.000235
0.000250
0.000274
0.000246
0.000277
0.000249
0.000273
0.000252
0.000270
0.000256
0.000464
0.000451
0.000318
0.000321
0.001388
0.000195
0.000056
0.000205
0.000247
0.000309
0.000441
0.000350
0.000276
0.000318
0.000329
0.000267
0.000264
0.000255
0.000263
0.000252
0.000306
0.000238
0.000301
0.000570
0.000301
0.000289
0.000379
0.000275
0.000409
0.000237
0.000255
0.000243
0.000269
0.000251
0.000281
0.000419
0.000460
0.000278
0.000055
0.000229
0.001382
0.000234
0.000339
0.000410
0.000389
0.000463
0.000260
0.000217
0.000256
0.000242
0.000256
0.000255
0.000271
0.000268
0.000256
0.000254
0.001295
0.000321
0.000248
0.000262
0.000274
0.000267
0.000281
0.000270
0.000255
0.000273
0.000246
0.000352
0.000409
0.000326
0.000057
0.000217
0.000255
0.000223
0.001499
0.000324
0.000236
0.000226
0.000248
0.000237
0.000239
0.000252
0.000272
0.000255
0.000253
0.000261
0.000253
0.000251
0.000271
0.000264
0.000253
0.001435
0.000232
0.000235
0.000285
0.000246
0.000251
0.000271
0.000256
0.000280
0.000481
0.000354
0.000057
0.000193
0.000278
0.000375
0.000262
0.000248
0.000281
0.001505
0.000347
0.000297
0.000215
0.000256
0.000311
0.000337
0.000235
0.000226
0.000266
0.000227
0.000266
0.000260
0.000256
0.000492
0.000512
0.001114
0.000281
0.000226
0.000254
0.000274
0.000249
0.000277
0.000256
0.000327
0.000057
0.000309
0.000298
0.000205
0.000252
0.000247
0.000239
0.000242
0.000229
0.000292
0.001651
0.000379
0.000240
0.000226
0.000250
0.000261
0.000244
0.000259
0.000292
0.000248
0.000308
0.000312
0.000501
0.000431
0.001371
0.000227
0.000264
0.000291
0.000244
0.000269
0.000273
0.000445
0.000056
0.000222
0.000237
0.000238
0.000242
0.000221
0.000240
0.000264
0.000254
0.000286
0.001608
0.000299
0.000254
0.000264
0.000257
0.000455
0.000273
0.000535
0.000364
0.000302
0.000306
0.000460
0.000446
0.001286
0.000266
0.000225
0.000262
0.001735
0.000424
0.000624
0.000315
0.000134
0.000055
0.000190
0.000229
0.000243
0.000234
0.000258
0.000244
0.000242
0.000515
0.000514
0.000391
0.000290
0.000223
0.000236
0.000260
0.000268
0.000266
0.000241
0.000253
0.000257
0.000273
0.000358
0.000309
0.001372
0.000215
0.000248
0.000284
0.001934
0.000369
0.000374
0.000340
0.000154
0.000055
0.000209
0.000245
0.000248
0.001542
0.000457
0.000201
0.000239
0.000271
0.000238
0.000289
0.000382
0.000366
0.000368
0.000268
0.000311
0.000496
0.000396
0.001211
0.000263
0.000237
0.000254
0.000266
0.000273
0.000413
0.000732
0.000342
0.000232
0.000273
0.000270
0.000281
0.000189
0.000056
0.000193
0.000234
0.000246
0.001547
0.000241
0.000234
0.000248
0.000253
0.000239
0.000250
0.000263
0.000266
0.000298
0.000244
0.000243
0.000372
0.000551
0.000234
0.001402
0.000226
0.000264
0.000259
0.000257
0.000279
0.000409
0.000318
0.000569
0.000278
0.000285
0.000220
0.000440
0.000057
0.000203
0.000235
0.000254
0.001531
0.000321
0.000212
0.000270
0.000243
0.000249
0.000259
0.000256
0.000263
0.000255
0.000278
0.000324
0.000598
0.001351
0.000743
0.000257
0.000349
0.000251
0.000228
0.000245
0.000272
0.001686
0.000806
0.000225
0.000261
0.000280
0.000285
0.000180
0.000057
0.000202
0.000235
0.000252
0.000251
0.000255
0.000244
0.000238
0.000257
0.000241
0.000231
0.000295
0.000282
0.000247
0.000251
0.000263
0.000245
0.000274
0.001602
0.000698
0.000402
0.000312
0.000208
0.000245
0.000286
0.000259
0.000286
0.000251
0.000251
0.001457
0.000349
0.000358
0.000056
0.000181
0.000229
0.000251
0.000259
0.000259
0.000224
0.000257
0.000250
0.000253
0.000264
0.000257
0.000439
0.000489
0.000295
0.000208
0.000235
0.000262
0.001402
0.000682
0.000581
0.000233
0.000268
0.000230
0.000251
0.000278
0.000244
0.000257
0.000269
0.001520
0.000395
0.000201
0.000057
0.000198
0.000218
0.000246
0.000249
0.000248
0.000248
0.000237
0.000251
0.000271
0.000256
0.000391
0.000457
0.000231
0.000219
0.000246
0.000247
0.000266
0.000249
0.001600
0.000652
0.000419
0.000317
0.000220
0.000268
0.000257
0.000259
0.000268
0.000298
0.000249
0.001363
0.000352
0.000056
0.000209
0.000217
0.000239
0.000256
0.000255
0.000249
0.000261
0.000298
0.000365
0.000442
0.000343
0.000400
0.000365
0.000220
0.000246
0.000242
0.000272
0.000262
0.000271
0.001892
0.000365
0.000234
0.000444
0.000251
0.000238
0.000266
0.000271
0.000255
0.000273
0.000277
0.000322
0.000056
0.000296
0.000214
0.000227
0.000243
0.000305
0.000202
0.000228
0.000229
0.000269
0.000254
0.000250
0.000235
0.000316
0.000418
0.000541
0.000376
0.000212
0.000260
0.000262
0.000246
0.000255
0.000292
0.001471
0.001052
0.000215
0.000250
0.000271
0.000266
0.000269
0.000254
0.000200
0.000057
0.000176
0.001412
0.000232
0.000199
0.000240
0.000281
0.000227
0.000241
0.000229
0.000253
0.000265
0.000258
0.000238
0.000403
0.000391
0.000467
0.000234
0.000236
0.000265
0.000278
0.000257
0.000236
0.000250
0.000272
0.001332
0.000679
0.000309
0.000387
0.000382
0.000398
0.000294
0.000057
0.000195
0.000241
0.000365
0.001320
0.000199
0.000261
0.000229
0.000260
0.000263
0.000245
0.000251
0.000248
0.000296
0.000369
0.000557
0.000267
0.000218
0.000338
0.000291
0.000203
0.000275
0.000249
0.000230
0.000278
0.000265
0.001545
0.000735
0.000299
0.000281
0.000277
0.000175
0.000056
0.000206
0.000258
0.000465
0.000439
0.001185
0.000265
0.000210
0.000259
0.000215
0.000247
0.000246
0.000257
0.000233
0.000238
0.000258
0.000248
0.000272
0.000226
0.000263
0.000262
0.000259
0.000270
0.000312
0.000324
0.000224
0.000256
0.000267
0.001464
0.000269
0.000232
0.000171
0.000056
0.000196
0.000226
0.000277
0.000244
0.000355
0.000380
0.000392
0.000270
0.001564
0.000232
0.000271
0.000559
0.000333
0.000220
0.000431
0.000244
0.000225
0.000252
0.000288
0.000267
0.000278
0.000264
0.000258
0.000270
0.000273
0.000386
0.000394
0.000359
0.001565
0.000221
0.000184
0.000057
0.000168
0.000251
0.000245
0.000238
0.000240
0.000252
0.000260
0.000279
0.000438
0.002039
0.000231
0.000239
0.000257
0.000259
0.000261
0.000254
0.000283
0.000237
0.000264
0.000495
0.000365
0.000402
0.001452
0.000255
0.000522
0.000234
0.001768
0.000242
0.000258
0.001531
0.000154
0.000056
0.000405
0.000383
0.000426
0.000241
0.000268
0.000218
0.000257
0.000274
0.000261
0.000225
0.000258
0.000330
0.000422
0.000392
0.000382
0.000247
0.000227
0.001569
0.000223
0.000588
0.001897
0.000275
0.000223
0.001533
0.002041
0.000739
0.000276
0.000255
0.000310
0.000542
0.000243
0.000057
0.000192
0.000248
0.000244
0.000240
0.001434
0.002595
0.000243
0.000179
0.000228
0.001603
0.001963
0.000200
0.000247
0.000423
0.000276
0.000499
0.000305
0.000463
0.000225
0.000230
0.000265
0.000241
0.000279
0.001594
0.001198
0.001470
0.000257
0.000286
0.000247
0.000294
0.000401
0.000056
0.000232
0.000218
0.000245
0.000240
0.000225
0.000248
0.000243
0.000259
0.000253
0.000249
0.000238
0.000334
0.000455
0.000496
0.000227
0.000237
0.000249
0.000279
0.000264
0.000264
0.000258
0.000262
0.001542
0.000451
0.002109
0.000245
0.000248
0.000341
0.000442
0.000383
0.000198
0.000057
0.000201
0.000341
0.000511
0.000297
0.000200
0.000224
0.000252
0.000244
0.000243
0.000243
0.000244
0.000266
0.000261
0.001606
0.001353
0.001244
0.000269
0.000224
0.000255
0.000268
0.000278
0.000280
0.000255
0.000242
0.002219
0.000256
0.000244
0.000283
0.000323
0.000309
0.000220
0.000056
0.000231
0.000365
0.000598
0.000274
0.000230
0.000227
0.000251
0.000265
0.001898
0.001438
0.000213
0.000332
0.000383
0.000415
0.000267
0.000207
0.000265
0.000263
0.000260
0.000277
0.000244
0.000263
0.000477
0.000240
0.000270
0.000265
0.000253
0.000276
0.000283
0.000248
0.000198
0.000055
0.000194
0.000247
0.000252
0.000238
0.000253
0.000269
0.001553
0.001405
0.001341
0.000237
0.000218
0.000246
0.000264
0.000264
0.000245
0.000252
0.000248
0.002140
0.000228
0.000217
0.000277
0.000259
0.000255
0.000266
0.000268
0.000258
0.000275
0.000249
0.000282
0.000253
0.000172
0.000056
0.000196
0.002683
0.001402
0.000216
0.000303
0.000296
0.000228
0.000270
0.000255
0.000249
0.000248
0.000247
0.000234
0.000243
0.000268
0.000254
0.000275
0.000261
0.000267
0.000259
0.000263
0.000289
0.000271
0.000267
0.000244
0.000247
0.000264
0.000273
0.000261
0.000270
0.000367
0.000056
0.001541
0.000249
0.001247
0.000222
0.000219
0.000240
0.000264
0.000250
0.000243
0.000312
0.000382
0.000331
0.000357
0.000199
0.000245
0.002169
0.000238
0.000236
0.000409
0.000382
0.000380
0.000283
0.000215
0.000258
0.000281
0.000235
0.000266
0.000279
0.000270
0.001639
0.001250
0.000057
0.000196
0.000231
0.000262
0.000485
0.000339
0.000243
0.000207
0.000234
0.000250
0.000261
0.000265
0.000247
0.000224
0.000258
0.000261
0.000245
0.000308
0.000701
0.000288
0.000251
0.000215
0.000280
0.000280
0.000272
0.000229
0.000245
0.000267
0.000278
0.000246
0.000393
0.000274
0.000056
0.001126
0.000228
0.000373
0.000468
0.000243
0.000224
0.000225
0.000243
0.000248
0.002323
0.000363
0.000372
0.000214
0.000383
0.000278
0.000261
0.000261
0.000266
0.000260
0.000225
0.000251
0.000275
0.000590
0.000501
0.001887
0.001335
0.000546
0.000448
0.000229
0.000276
0.000194
0.000057
0.000353
0.000222
0.000247
0.000247
0.000236
0.000227
0.000255
0.000255
0.000254
0.000266
0.000243
0.000223
0.000246
0.000261
0.000438
0.000476
0.001824
0.001325
0.000441
0.000482
0.000421
0.000244
0.000231
0.000268
0.002165
0.000521
0.000392
0.000224
0.000274
0.000300
0.000175
0.000057
0.000188
0.000263
0.000235
0.000245
0.000263
0.000366
0.000381
0.000340
0.000264
0.000236
0.000254
0.000248
0.000260
0.002143
0.000353
0.000365
0.000206
0.000256
0.000271
0.000259
0.000253
0.002469
0.000329
0.000224
0.000253
0.000260
0.000256
0.000258
0.000287
0.000280
0.000194
0.000055
0.000244
0.000274
0.000561
0.000379
0.000253
0.000220
0.000225
0.000255
0.000278
0.000238
0.001965
0.000381
0.000344
0.000213
0.000224
0.000265
0.000274
0.000240
0.002222
0.000435
0.000220
0.000262
0.000271
0.000264
0.000250
0.000259
0.000280
0.000246
0.000275
0.000272
0.000165
0.000057
0.000194
0.000237
0.000248
0.000221
0.000244
0.000261
0.000235
0.000249
0.000232
0.002188
0.000221
0.000287
0.000211
0.000426
0.000241
0.000239
0.000280
0.000289
0.000242
0.000281
0.001946
0.000275
0.000347
0.000369
0.000430
0.000403
0.000318
0.000238
0.000251
0.000255
0.000201
0.000057
0.000199
0.000237
0.000240
0.000248
0.000278
0.000310
0.000205
0.002305
0.000244
0.000234
0.000263
0.000255
0.000234
0.000256
0.000308
0.002127
0.000584
0.000220
0.000257
0.000239
0.000272
0.000255
0.000293
0.000261
0.000277
0.000239
0.000289
0.000248
0.000267
0.000263
0.000191
0.000055
0.001823
0.001447
0.000194
0.000222
0.000244
0.000253
0.000249
0.000269
0.000418
0.000314
0.002200
0.000255
0.000233
0.000264
0.000285
0.000581
0.000337
0.000301
0.000226
0.000233
0.000254
0.000263
0.000266
0.000227
0.000259
0.000263
0.000270
0.000265
0.000303
0.000779
0.000221
0.000056
0.000204
0.000247
0.000249
0.000255
0.000270
0.000241
0.000257
0.000245
0.001484
0.002119
0.000574
0.000285
0.000396
0.000716
0.000329
0.000257
0.000233
0.000254
0.000261
0.000252
0.000273
0.000236
0.000247
0.001834
0.000355
0.001366
0.000293
0.000263
0.000295
0.000268
0.000423
0.000056
0.001959
0.000255
0.000201
0.000198
0.000302
0.000379
0.000425
0.000309
0.000289
0.000238
0.000208
0.000256
0.000260
0.000259
0.000280
0.000239
0.000256
0.000269
0.001847
0.000238
0.000233
0.000246
0.000277
0.000279
0.000272
0.000257
0.001523
0.000275
0.000245
0.000278
0.000156
0.000057
0.000199
0.000220
0.000248
0.000235
0.000252
0.000243
0.000289
0.000384
0.000396
0.000323
0.000214
0.000243
0.000269
0.000327
0.000432
0.000315
0.000215
0.000253
0.000254
0.000347
0.000491
0.000490
0.000201
0.000252
0.000252
0.000266
0.000244
0.000272
0.000277
0.000261
0.000210
0.000056
0.001449
0.000422
0.000225
0.001942
0.000317
0.000460
0.000383
0.000291
0.000219
0.000253
0.000284
0.000224
0.000252
0.000245
0.000263
0.000254
0.000457
0.000295
0.000428
0.000360
0.000342
0.000223
0.000251
0.000272
0.000276
0.000262
0.000273
0.000258
0.000387
0.000394
0.001433
0.000056
0.000196
0.000225
0.002079
0.000311
0.000300
0.000256
0.000255
0.000254
0.000264
0.000260
0.000217
0.000250
0.000248
0.000266
0.000255
0.000369
0.000713
0.001754
0.000214
0.000246
0.000259
0.000263
0.000376
0.000428
0.001590
0.000282
0.000381
0.001913
0.000266
0.000246
0.000192
0.000056
0.000207
0.000237
0.000231
0.000245
0.000236
0.000238
0.000257
0.000287
0.000334
0.000270
0.000379
0.000361
0.000338
0.000298
0.000233
0.000271
0.000264
0.000236
0.000271
0.000243
0.000303
0.000291
0.000265
0.000263
0.000275
0.001499
0.000297
0.000405
0.002058
0.000223
0.000176
0.000056
0.000216
0.000239
0.000237
0.000243
0.000485
0.000217
0.000254
0.000324
0.000415
0.000286
0.000294
0.000204
0.000261
0.000267
0.000269
0.000332
0.000392
0.000468
0.000252
0.000391
0.000539
0.000399
0.001619
0.000231
0.000256
0.001975
0.000340
0.000243
0.000247
0.000291
0.000185
0.000055
0.000200
0.000242
0.000223
0.000250
0.000242
0.000278
0.000245
0.000274
0.000250
0.000263
0.001804
0.000342
0.000371
0.000310
0.000431
0.000365
0.000325
0.001518
0.000252
0.000271
0.002122
0.000554
0.000282
0.000217
0.000269
0.000269
0.000499
0.000239
0.000246
0.000278
0.000195
0.000056
0.000269
0.000397
0.000340
0.000291
0.000215
0.000237
0.000253
0.000249
0.000314
0.000254
0.000224
0.000250
0.000253
0.000264
0.000312
0.001539
0.000326
0.000202
0.000443
0.001772
0.000399
0.000235
0.000249
0.000262
0.000243
0.000282
0.000274
0.000256
0.000246
0.000269
0.000201
0.000056
0.000256
0.000529
0.001919
0.000256
0.000258
0.000217
0.000244
0.000301
0.000433
0.000449
0.001302
0.000380
0.002102
0.000332
0.000208
0.000242
0.000273
0.000273
0.000253
0.000236
0.000285
0.000293
0.000260
0.000397
0.000422
0.000365
0.000393
0.002175
0.000487
0.000527
0.000347
0.000056
0.000219
0.000223
0.000237
0.001975
0.000229
0.000224
0.000242
0.000237
0.000249
0.000253
0.000246
0.000261
0.000243
0.000324
0.000378
0.001498
0.000251
0.000242
0.000267
0.000253
0.000233
0.000261
0.000261
0.000277
0.000345
0.000468
0.000434
0.000232
0.001594
0.000291
0.000152
0.000056
0.000204
0.000213
0.000249
0.000235
0.000253
0.000252
0.000247
0.000292
0.000216
0.000432
0.000326
0.001399
0.000239
0.000214
0.000249
0.000265
0.000254
0.000255
0.000491
0.000292
0.000462
0.000384
0.000223
0.001584
0.000225
0.000250
0.000298
0.000280
0.000258
0.000265
0.000193
0.000056
0.000211
0.000227
0.000264
0.000270
0.000247
0.000244
0.000234
0.000244
0.000260
0.000250
0.000241
0.000255
0.000262
0.001479
0.000366
0.000209
0.000249
0.000256
0.000295
0.000323
0.000364
0.000259
0.000242
0.000263
0.000266
0.000268
0.000257
0.001399
0.000285
0.000240
0.000170
0.000056
0.000192
0.000231
0.000261
0.000260
0.000256
0.000233
0.000250
0.000258
0.000219
0.000262
0.000252
0.000257
0.000231
0.000368
0.000319
0.000406
0.000220
0.000219
0.001637
0.000249
0.000229
0.000265
0.000268
0.000323
0.000338
0.000388
0.000451
0.000267
0.000248
0.001604
0.000170
0.000057
0.000321
0.000351
0.000376
0.000266
0.000241
0.000221
0.000244
0.000269
0.000259
0.000235
0.000252
0.000233
0.001472
0.000280
0.000322
0.000210
0.000253
0.000254
0.000269
0.000268
0.000250
0.000233
0.000267
0.000269
0.000333
0.000360
0.000419
0.000336
0.000275
0.000243
0.000182
0.000055
0.000237
0.000247
0.000368
0.000583
0.000202
0.000250
0.000241
0.000256
0.000251
0.000258
0.000242
0.000220
0.000257
0.000244
0.001269
0.000286
0.000244
0.000245
0.000269
0.000264
0.000241
0.000268
0.000247
0.000262
0.000259
0.000254
0.000366
0.000608
0.000488
0.000226
0.000179
0.000057
0.000195
0.001569
0.000271
0.000404
0.000370
0.000373
0.000212
0.000247
0.000272
0.000245
0.000246
0.000260
0.000273
0.000266
0.000261
0.001537
0.000247
0.000282
0.000265
0.000257
0.000255
0.000254
0.000262
0.000265
0.000262
0.000274
0.000489
0.000320
0.000339
0.000255
0.000168
0.000056
0.000202
0.000257
0.000232
0.001724
0.000325
0.000350
0.000216
0.000242
0.000248
0.000269
0.000283
0.000254
0.000241
0.000267
0.000256
0.000277
0.000387
0.001317
0.000236
0.000235
0.001503
0.000299
0.000575
0.000404
0.000351
0.000225
0.000263
0.000460
0.000247
0.000252
0.000190
0.000056
0.000290
0.000221
0.000240
0.000250
0.000245
0.000260
0.000241
0.000254
0.000256
0.000238
0.000250
0.000261
0.000330
0.000533
0.001620
0.001491
0.000354
0.000563
0.000316
0.000210
0.000249
0.000246
0.000253
0.000269
0.000248
0.000271
0.000251
0.000272
0.001529
0.000335
0.000159
0.000057
0.000241
0.000330
0.000352
0.000331
0.000230
0.000224
0.000245
0.000370
0.000522
0.000286
0.002141
0.000326
0.000717
0.000523
0.000427
0.000267
0.000330
0.000402
0.000320
0.000280
0.000394
0.000229
0.001564
0.000531
0.000221
0.000253
0.000254
0.000256
0.000259
0.000274
0.000188
0.000056
0.000225
0.000252
0.000252
0.000252
0.000246
0.001665
0.000875
0.001004
0.000206
0.000230
0.000259
0.000258
0.000260
0.000262
0.000256
0.000240
0.000260
0.000267
0.000264
0.000278
0.001431
0.000318
0.000255
0.000222
0.000232
0.000261
0.000255
0.000288
0.000263
0.000283
0.001902
0.000057
0.000197
0.000221
0.001556
0.000846
0.000579
0.000167
0.000234
0.000230
0.000266
0.000243
0.000250
0.000245
0.000242
0.002082
0.000387
0.000215
0.000257
0.000240
0.000266
0.000258
0.000191
