0.000206
0.020743
0.000910
0.000273
0.000216
0.000249
0.000311
0.000246
0.000327
0.000292
0.000244
0.000394
0.000506
0.000491
0.000353
0.000321
0.000295
0.000368
0.000392
0.000414
0.000299
0.001860
0.000516
0.000457
0.000229
0.000307
0.000306
0.000407
0.000412
0.000368
0.000524
0.000269
0.000056
0.000199
0.000244
0.000268
0.000261
0.000276
0.000251
0.000281
0.000254
0.000279
0.000290
0.000403
0.000490
0.000304
0.000274
0.000398
0.000361
0.000353
0.000252
0.000225
0.001718
0.000289
0.000231
0.000512
0.000238
0.000244
0.000249
0.000283
0.000298
0.000285
0.000304
0.000426
0.000056
0.000191
0.000216
0.000263
0.000260
0.000255
0.000247
0.000263
0.000259
0.000282
0.001663
0.000251
0.000237
0.000247
0.000271
0.000280
0.000245
0.000270
0.000258
0.000350
0.001801
0.000266
0.000244
0.000454
0.000459
0.000395
0.000242
0.000263
0.000484
0.000544
0.000722
0.000173
0.000056
0.000221
0.000215
0.000256
0.000241
0.000310
0.000255
0.000297
0.000548
0.000463
0.000262
0.000214
0.000220
0.000229
0.000261
0.000246
0.000262
0.000241
0.000267
0.000298
0.000319
0.001749
0.000250
0.000238
0.000450
0.000462
0.000505
0.000629
0.000517
0.000359
0.000251
0.000201
0.000056
0.000193
0.000223
0.000259
0.000252
0.000248
0.000258
0.000258
0.000542
0.001400
0.000243
0.000239
0.000221
0.000261
0.000255
0.000264
0.000283
0.000284
0.000871
0.001308
0.000282
0.000267
0.000417
0.000266
0.000224
0.000260
0.000255
0.000287
0.000246
0.000271
0.000256
0.000222
0.000056
0.000215
0.000214
0.000235
0.000251
0.000258
0.000243
0.000244
0.000248
0.000243
0.000250
0.001701
0.000239
0.000231
0.000236
0.000223
0.000257
0.000231
0.000251
0.000258
0.000255
0.000263
0.001739
0.000245
0.000263
0.000461
0.000244
0.000229
0.000241
0.000263
0.000260
0.000211
0.000055
0.000196
0.000207
0.000242
0.000242
0.000244
0.000245
0.000259
0.000238
0.000261
0.000253
0.000268
0.000243
0.000265
0.000268
0.001638
0.000281
0.000291
0.000222
0.000254
0.000265
0.000274
0.000247
0.000257
0.000253
0.000268
0.001847
0.000378
0.000357
0.000275
0.000267
0.000217
0.000055
0.000220
0.000187
0.000238
0.000278
0.000261
0.000225
0.000369
0.000312
0.000428
0.000438
0.000218
0.000229
0.000255
0.000260
0.001658
0.000485
0.000311
0.000396
0.000289
0.000227
0.000260
0.000280
0.000273
0.001805
0.000481
0.000492
0.000232
0.000214
0.000243
0.000255
0.000207
0.000057
0.000187
0.000228
0.000244
0.000255
0.000301
0.000468
0.000392
0.000297
0.000209
0.000219
0.000262
0.000240
0.000262
0.001696
0.000482
0.000321
0.000223
0.000242
0.000270
0.000280
0.000258
0.000262
0.000263
0.001876
0.000330
0.000385
0.000263
0.000232
0.000306
0.000402
0.000319
0.000055
0.000203
0.000399
0.000335
0.000273
0.000288
0.000214
0.000236
0.000255
0.000240
0.000240
0.000234
0.000244
0.001622
0.000346
0.000302
0.000201
0.000233
0.000246
0.000249
0.000282
0.000270
0.000329
0.001794
0.000358
0.000215
0.000517
0.000212
0.000233
0.000246
0.000268
0.000310
0.000057
0.000306
0.000580
0.000640
0.000210
0.000207
0.000258
0.000240
0.000220
0.000255
0.000249
0.000258
0.001700
0.000271
0.000409
0.000390
0.000220
0.000241
0.000221
0.000244
0.000262
0.000269
0.001846
0.000249
0.000226
0.002268
0.000435
0.000240
0.000258
0.000269
0.000261
0.000208
0.000055
0.000223
0.000217
0.000237
0.000241
0.000249
0.001692
0.000209
0.000204
0.000252
0.000257
0.000240
0.000248
0.000250
0.000254
0.000283
0.000494
0.000555
0.000238
0.000233
0.000269
0.000271
0.000249
0.000238
0.000502
0.000430
0.000272
0.000315
0.000605
0.000432
0.000211
0.000191
0.000056
0.000166
0.000213
0.000256
0.000247
0.000241
0.000241
0.000463
0.000261
0.000444
0.001594
0.000246
0.000236
0.000239
0.000250
0.000274
0.000260
0.000387
0.000575
0.000373
0.000239
0.000218
0.000272
0.000316
0.000279
0.000256
0.000403
0.000425
0.000615
0.000459
0.000418
0.000141
0.000056
0.000189
0.000238
0.000232
0.000220
0.000238
0.000236
0.000254
0.000244
0.000249
0.000360
0.000341
0.001567
0.000276
0.000210
0.000202
0.000219
0.000266
0.000249
0.000251
0.000255
0.000295
0.000430
0.000391
0.000352
0.000225
0.000232
0.000264
0.000257
0.000270
0.000271
0.000426
0.000056
0.000201
0.000227
0.000237
0.000270
0.000521
0.000480
0.000215
0.000232
0.000230
0.000262
0.000244
0.000246
0.000280
0.000258
0.000246
0.000571
0.000439
0.001531
0.000275
0.000242
0.000254
0.000263
0.000258
0.000246
0.000247
0.000493
0.000467
0.000360
0.000372
0.000231
0.000209
0.000056
0.000213
0.000229
0.000401
0.000234
0.000262
0.000240
0.000303
0.000556
0.000321
0.000329
0.000239
0.000264
0.000269
0.000241
0.000599
0.000289
0.000221
0.000223
0.000414
0.001704
0.000256
0.000211
0.000316
0.000412
0.000272
0.000290
0.000261
0.000330
0.000570
0.000384
0.000261
0.000056
0.000213
0.000208
0.000235
0.000241
0.000474
0.000269
0.000284
0.000213
0.000415
0.000564
0.000361
0.000230
0.000193
0.000215
0.000258
0.000273
0.000253
0.000263
0.000222
0.000373
0.000272
0.000318
0.001851
0.000271
0.000240
0.000249
0.000310
0.000354
0.000416
0.000739
0.000412
0.000056
0.000259
0.000313
0.000337
0.000413
0.000318
0.000205
0.000256
0.000263
0.000624
0.000352
0.000306
0.000202
0.000212
0.000265
0.000269
0.000241
0.000240
0.000273
0.000272
0.000256
0.000268
0.000384
0.001785
0.000292
0.000357
0.000423
0.000383
0.000242
0.000481
0.000320
0.000345
0.000056
0.000235
0.000384
0.000281
0.000217
0.000227
0.000217
0.000477
0.000207
0.000222
0.000386
0.000363
0.000407
0.000306
0.000259
0.000241
0.000296
0.000381
0.000456
0.000274
0.000212
0.000212
0.000304
0.000694
0.001697
0.000269
0.000383
0.000336
0.000250
0.000233
0.000457
0.000348
0.000057
0.000199
0.000196
0.000234
0.000255
0.000237
0.000255
0.000246
0.000357
0.000421
0.000264
0.000531
0.000361
0.000302
0.000193
0.000532
0.000265
0.000269
0.000270
0.000244
0.000342
0.000214
0.000245
0.000277
0.000355
0.000595
0.001676
0.000239
0.000223
0.000245
0.000244
0.000211
0.000056
0.000286
0.000458
0.000385
0.000204
0.000247
0.000225
0.000256
0.000236
0.000255
0.000249
0.000226
0.000488
0.000263
0.000496
0.000370
0.000323
0.000228
0.000245
0.000350
0.000354
0.000365
0.000363
0.000388
0.000379
0.000248
0.000215
0.000259
0.000273
0.001777
0.000272
0.000213
0.000056
0.000191
0.000209
0.000249
0.000261
0.000368
0.000547
0.000347
0.000202
0.000233
0.000266
0.000255
0.000243
0.000537
0.000445
0.000464
0.000310
0.000271
0.000251
0.000423
0.000488
0.000369
0.000546
0.000502
0.000296
0.000234
0.000243
0.000243
0.000225
0.000254
0.001783
0.000269
0.000056
0.000287
0.000327
0.000206
0.000221
0.000254
0.000242
0.000283
0.000450
0.000428
0.000303
0.000304
0.000344
0.000288
0.000708
0.000302
0.000206
0.000219
0.000252
0.000242
0.000262
0.000264
0.000285
0.000227
0.000264
0.000314
0.000356
0.000482
0.000351
0.000244
0.000213
0.000186
0.000056
0.000457
0.000294
0.000458
0.000238
0.000210
0.000223
0.000249
0.000256
0.000259
0.000206
0.000247
0.000267
0.000302
0.000393
0.000527
0.000422
0.000333
0.000361
0.000367
0.000394
0.000267
0.000219
0.000218
0.000255
0.001816
0.000233
0.001756
0.000926
0.000401
0.000319
0.000150
0.000056
0.000206
0.000202
0.000241
0.000230
0.000263
0.000249
0.000259
0.000245
0.000246
0.000301
0.000394
0.000435
0.000373
0.000403
0.000236
0.000236
0.000273
0.000288
0.000226
0.000219
0.000254
0.000231
0.001844
0.000234
0.000217
0.000266
0.000285
0.000264
0.001880
0.000513
0.000321
0.000056
0.000214
0.000203
0.000211
0.000246
0.000250
0.000243
0.000248
0.000252
0.000260
0.000318
0.000550
0.000369
0.000393
0.000246
0.000226
0.000279
0.000383
0.000384
0.000375
0.000257
0.001808
0.000238
0.000223
0.000228
0.000253
0.000274
0.000252
0.000256
0.000261
0.000347
0.000431
0.000056
0.000263
0.000197
0.000204
0.000261
0.000250
0.000238
0.000256
0.000255
0.000261
0.000243
0.000246
0.000327
0.000360
0.000377
0.000300
0.000330
0.000483
0.000203
0.000220
0.000256
0.000262
0.000259
0.000278
0.000258
0.000294
0.001762
0.000277
0.000235
0.000240
0.000247
0.000219
0.000056
0.000338
0.000270
0.000248
0.000207
0.000224
0.000243
0.000237
0.000248
0.000251
0.000232
0.000228
0.000257
0.000259
0.000291
0.000508
0.000304
0.000393
0.000203
0.000223
0.000237
0.000268
0.000253
0.000253
0.000272
0.000247
0.000265
0.000287
0.001716
0.000231
0.000233
0.000190
0.000056
0.000189
0.000220
0.000249
0.000239
0.000371
0.000493
0.000366
0.000231
0.000208
0.000250
0.000250
0.000234
0.000252
0.000253
0.000263
0.000259
0.000242
0.000263
0.000247
0.000259
0.000276
0.000264
0.000253
0.000234
0.000237
0.000286
0.000270
0.000264
0.000262
0.000260
0.000209
0.000056
0.000198
0.000203
0.000244
0.000254
0.000249
0.000248
0.000241
0.000257
0.000364
0.000209
0.000190
0.000245
0.000250
0.000252
0.000265
0.000280
0.000236
0.000256
0.000364
0.000212
0.000240
0.000285
0.000280
0.000249
0.000276
0.000285
0.000267
0.000251
0.000259
0.000389
0.000724
0.000056
0.000227
0.000299
0.000233
0.000194
0.000212
0.000254
0.000247
0.000242
0.000249
0.000247
0.000269
0.000306
0.000463
0.000508
0.001574
0.000216
0.000521
0.000198
0.000220
0.000446
0.000423
0.000396
0.000239
0.000265
0.000265
0.000251
0.000289
0.000250
0.000307
0.000255
0.000204
0.000056
0.000322
0.000411
0.000380
0.000322
0.000183
0.000238
0.000253
0.000242
0.000242
0.000247
0.000250
0.000253
0.000243
0.000261
0.000372
0.000492
0.000366
0.001785
0.000290
0.000214
0.000297
0.000463
0.000477
0.000282
0.000374
0.000306
0.000252
0.000229
0.000231
0.000240
0.000222
0.000056
0.000212
0.000202
0.000243
0.000286
0.000469
0.000407
0.000284
0.000244
0.000253
0.000213
0.000243
0.000267
0.000274
0.000256
0.000248
0.000262
0.000315
0.000468
0.000378
0.000419
0.001799
0.000276
0.000251
0.000550
0.000645
0.000296
0.000274
0.000238
0.000246
0.000266
0.000498
0.000056
0.000187
0.000233
0.000237
0.000361
0.000368
0.000446
0.000373
0.000268
0.000203
0.000332
0.000222
0.000229
0.000247
0.000303
0.000360
0.000201
0.000229
0.000417
0.000365
0.000397
0.000563
0.001821
0.000210
0.000492
0.000443
0.000356
0.000231
0.000382
0.000246
0.000212
0.000211
0.000057
0.000211
0.000334
0.000353
0.000328
0.000355
0.000292
0.000412
0.000210
0.000225
0.000259
0.000265
0.000238
0.000237
0.000261
0.000254
0.000248
0.000309
0.000363
0.000539
0.000372
0.000304
0.000212
0.000266
0.001772
0.000384
0.000496
0.000669
0.000279
0.000241
0.000299
0.000171
0.000056
0.000168
0.000224
0.000313
0.000257
0.000269
0.000360
0.000396
0.000343
0.000311
0.000532
0.000198
0.000241
0.000213
0.000278
0.000276
0.000273
0.000226
0.000382
0.000485
0.000363
0.000262
0.000249
0.000245
0.000254
0.000265
0.000268
0.000246
0.000248
0.000268
0.000357
0.000158
0.000056
0.000431
0.000220
0.000230
0.000240
0.000245
0.000254
0.000243
0.000360
0.000211
0.000215
0.000251
0.000339
0.000431
0.000372
0.000357
0.000311
0.000210
0.000267
0.000229
0.000264
0.000273
0.000293
0.000225
0.000248
0.000275
0.000314
0.000409
0.000416
0.000379
0.000205
0.000180
0.000071
0.000175
0.000220
0.000264
0.000250
0.000237
0.000254
0.000252
0.000261
0.000500
0.000217
0.000242
0.000255
0.000250
0.000251
0.000274
0.000271
0.000268
0.000375
0.000239
0.000218
0.000240
0.000262
0.000268
0.000250
0.000280
0.000263
0.000271
0.000259
0.000243
0.000509
0.000177
0.000056
0.000199
0.000218
0.000227
0.000271
0.000237
0.000237
0.000301
0.000455
0.000262
0.000227
0.000251
0.000255
0.000245
0.000272
0.000459
0.001745
0.000267
0.000232
0.000300
0.000380
0.000410
0.000345
0.000387
0.000333
0.000418
0.000365
0.000253
0.000265
0.000263
0.000275
0.001425
0.000056
0.000375
0.000302
0.000324
0.000196
0.000200
0.000242
0.000231
0.000249
0.000252
0.000264
0.000254
0.000251
0.000253
0.000229
0.000548
0.001755
0.000212
0.000205
0.000228
0.000262
0.000276
0.000222
0.000332
0.000480
0.000251
0.000350
0.000236
0.000242
0.000337
0.000200
0.000210
0.000056
0.001230
0.000536
0.000323
0.000290
0.000213
0.000207
0.000204
0.000246
0.000483
0.000244
0.000219
0.000247
0.000321
0.000526
0.000417
0.000332
0.000300
0.000244
0.000315
0.000393
0.000223
0.000232
0.000276
0.000243
0.000264
0.000646
0.000513
0.000258
0.000229
0.000281
0.000175
0.000056
0.000187
0.000196
0.000228
0.000250
0.001429
0.000362
0.000203
0.000249
0.000247
0.000242
0.000254
0.000251
0.000246
0.000264
0.000265
0.000274
0.000447
0.000682
0.000263
0.001795
0.000240
0.000295
0.000259
0.000419
0.000552
0.000428
0.000212
0.000239
0.000254
0.000266
0.000216
0.000056
0.000204
0.000253
0.000211
0.001330
0.000331
0.000187
0.000270
0.000209
0.000241
0.000232
0.000236
0.000254
0.000277
0.000246
0.000250
0.000344
0.000478
0.000416
0.000323
0.000204
0.000257
0.000273
0.000262
0.000228
0.000352
0.000218
0.000227
0.000262
0.000266
0.000303
0.000663
0.000056
0.000225
0.000216
0.000231
0.000262
0.000275
0.000240
0.000227
0.000263
0.000265
0.000252
0.001436
0.000238
0.000224
0.000256
0.000244
0.000244
0.000265
0.000261
0.000256
0.000283
0.000263
0.000606
0.000353
0.000363
0.000249
0.000262
0.001839
0.000226
0.000219
0.000340
0.000467
0.000056
0.000212
0.000429
0.000457
0.000503
0.000521
0.000562
0.001428
0.000446
0.000542
0.000648
0.000558
0.000637
0.000561
0.000622
0.000583
0.001719
0.000457
0.000453
0.000395
0.000307
0.000260
0.000285
0.000291
0.000261
0.000283
0.000265
0.000299
0.000280
0.000260
0.000295
0.001317
0.000055
0.000199
0.000244
0.000223
0.000234
0.000246
0.000248
0.000237
0.000242
0.000256
0.000273
0.000233
0.000264
0.000251
0.000258
0.000260
0.000254
0.001847
0.000254
0.000268
0.000247
0.000252
0.000282
0.000246
0.000280
0.000435
0.000403
0.000316
0.000248
0.000265
0.000289
0.000162
0.000056
0.000184
0.001409
0.000258
0.000275
0.000258
0.000228
0.000259
0.000236
0.000247
0.000253
0.000236
0.000237
0.000262
0.000440
0.000282
0.000360
0.000259
0.000289
0.001907
0.000263
0.000256
0.000256
0.000253
0.000275
0.000266
0.000257
0.000299
0.000240
0.000253
0.000299
0.000244
0.000055
0.000203
0.000236
0.000244
0.001427
0.000270
0.000262
0.000220
0.000225
0.000233
0.000264
0.000253
0.000267
0.000225
0.000257
0.000277
0.000249
0.000253
0.000272
0.000262
0.000254
0.000275
0.001827
0.000263
0.001767
0.000261
0.000245
0.000251
0.000227
0.000263
0.000297
0.000205
0.000056
0.000205
0.000229
0.001382
0.000248
0.000238
0.000228
0.000225
0.000246
0.000246
0.000245
0.000255
0.000248
0.000249
0.000267
0.000251
0.000265
0.000277
0.000256
0.000301
0.000246
0.001863
0.000275
0.001795
0.000286
0.000249
0.000243
0.000252
0.000264
0.000260
0.000260
0.000187
0.000056
0.001442
0.000234
0.000239
0.000216
0.000221
0.000218
0.000271
0.000366
0.000253
0.000255
0.000255
0.000256
0.000255
0.000339
0.000484
0.000269
0.000245
0.000265
0.000240
0.000223
0.000263
0.000331
0.000242
0.000253
0.000279
0.000279
0.000257
0.000334
0.000716
0.000344
0.000185
0.000056
0.000178
0.000296
0.000272
0.000306
0.000349
0.000287
0.001669
0.000274
0.000283
0.000247
0.000275
0.000308
0.000253
0.000263
0.000302
0.000312
0.000324
0.000507
0.000430
0.000263
0.000321
0.000286
0.000255
0.000261
0.000333
0.000267
0.000254
0.000250
0.000235
0.000294
0.000418
0.000056
0.000317
0.000373
0.000262
0.000265
0.000255
0.000223
0.000222
0.000253
0.000261
0.000249
0.001502
0.000243
0.000220
0.000255
0.000257
0.000273
0.000264
0.000265
0.000251
0.000263
0.000261
0.000356
0.000610
0.000332
0.000238
0.000277
0.000257
0.000238
0.000252
0.000231
0.000250
0.000056
0.000202
0.000196
0.000325
0.000418
0.000388
0.000270
0.000211
0.000264
0.000238
0.000281
0.000205
0.000255
0.000260
0.000258
0.000245
0.000232
0.000478
0.001213
0.000216
0.000229
0.000258
0.000242
0.000361
0.000484
0.000223
0.000250
0.000592
0.000367
0.000420
0.000224
0.000169
0.000056
0.000225
0.000217
0.000268
0.000261
0.000313
0.000199
0.000315
0.000486
0.000432
0.000300
0.000364
0.000398
0.000391
0.000354
0.000236
0.000231
0.000210
0.000241
0.000374
0.000579
0.001185
0.000230
0.000261
0.000272
0.000233
0.000240
0.000256
0.000303
0.000414
0.000507
0.000259
0.000056
0.000206
0.000217
0.000252
0.000241
0.000257
0.000236
0.000236
0.000265
0.000250
0.000372
0.000520
0.000387
0.000230
0.000211
0.000242
0.000238
0.000244
0.000263
0.000282
0.000218
0.000502
0.000212
0.000422
0.000334
0.000390
0.000215
0.000254
0.000273
0.000250
0.000296
0.000227
0.000055
0.000292
0.000296
0.000312
0.000370
0.000486
0.000345
0.000224
0.000262
0.000230
0.000264
0.000257
0.000265
0.000240
0.000253
0.000241
0.000230
0.000265
0.000405
0.000515
0.000331
0.000225
0.000261
0.000214
0.000251
0.000252
0.000279
0.000295
0.000244
0.000281
0.000262
0.000282
0.000056
0.000239
0.000363
0.000231
0.000225
0.000250
0.000256
0.000239
0.000243
0.000266
0.000263
0.000254
0.000234
0.000294
0.000546
0.000491
0.000252
0.000211
0.000199
0.000249
0.000272
0.000266
0.000243
0.000281
0.000248
0.000273
0.000279
0.000734
0.000324
0.000469
0.000227
0.000147
0.000056
0.000411
0.000202
0.000189
0.000236
0.000250
0.000255
0.000237
0.000247
0.000258
0.000256
0.000231
0.000239
0.000267
0.000235
0.000245
0.000249
0.000262
0.000258
0.000278
0.000266
0.000264
0.000248
0.000273
0.000263
0.000267
0.000264
0.000230
0.000288
0.000254
0.000281
0.000224
0.000056
0.000183
0.000207
0.000247
0.000259
0.000222
0.000250
0.000261
0.000246
0.000255
0.000284
0.000223
0.000238
0.000257
0.000404
0.000238
0.000282
0.000264
0.000283
0.000259
0.000264
0.000270
0.000239
0.000242
0.000256
0.000257
0.000287
0.000245
0.000257
0.000265
0.000268
0.000221
0.000056
0.000254
0.000381
0.000349
0.000281
0.000306
0.000232
0.000208
0.000261
0.000229
0.000238
0.000255
0.000253
0.000274
0.000218
0.000266
0.000252
0.000266
0.000271
0.000247
0.000264
0.000267
0.000268
0.000273
0.000263
0.000271
0.000276
0.000230
0.000304
0.000235
0.000270
0.000202
0.000055
0.000205
0.000220
0.000240
0.000268
0.000253
0.000447
0.000219
0.000237
0.000253
0.000421
0.000702
0.000174
0.000221
0.000207
0.000266
0.000268
0.000243
0.000263
0.000264
0.000273
0.000264
0.000258
0.000256
0.000260
0.000588
0.000510
0.000274
0.000243
0.000271
0.000259
0.000201
0.000056
0.000187
0.000199
0.000243
0.000247
0.000303
0.000760
0.000226
0.000378
0.000235
0.000245
0.000230
0.000253
0.000269
0.000233
0.000262
0.000269
0.000258
0.000266
0.000585
0.000482
0.000258
0.000214
0.000265
0.000282
0.000280
0.000264
0.000268
0.000256
0.000251
0.000331
0.000334
0.000056
0.000277
0.000237
0.000218
0.000231
0.000260
0.000252
0.000246
0.000228
0.000243
0.000253
0.000248
0.000255
0.000249
0.000395
0.000567
0.000447
0.000206
0.000232
0.000262
0.000255
0.000257
0.000273
0.000478
0.000247
0.000245
0.000655
0.000503
0.000335
0.000271
0.000258
0.000189
0.000056
0.000211
0.000217
0.000239
0.000243
0.000249
0.000257
0.000308
0.000501
0.000547
0.000398
0.000216
0.000257
0.000273
0.000279
0.000269
0.000244
0.000240
0.000245
0.000259
0.000283
0.000526
0.000513
0.000426
0.000264
0.000442
0.000345
0.000495
0.000201
0.000249
0.000354
0.000428
0.000057
0.000261
0.000215
0.000489
0.000199
0.000226
0.000234
0.000242
0.000261
0.000233
0.000241
0.000260
0.000449
0.000321
0.000388
0.000231
0.000209
0.000267
0.000241
0.000267
0.000270
0.000270
0.000270
0.000246
0.000263
0.000533
0.000316
0.000435
0.000248
0.000250
0.000284
0.000211
0.000056
0.000172
0.000242
0.000230
0.000243
0.000247
0.000243
0.000433
0.000338
0.000464
0.000276
0.000349
0.000260
0.000213
0.000266
0.000264
0.000234
0.000255
0.000258
0.000271
0.000450
0.000543
0.000260
0.000434
0.000343
0.000396
0.000394
0.000379
0.000260
0.000217
0.000335
0.000364
0.000055
0.000227
0.000290
0.000197
0.000244
0.000270
0.000261
0.000235
0.000247
0.000254
0.000278
0.000224
0.000361
0.000492
0.000318
0.000367
0.000260
0.000247
0.000253
0.000280
0.000225
0.000254
0.000258
0.000259
0.000274
0.000279
0.000416
0.000432
0.000445
0.000256
0.000263
0.000207
0.000055
0.000190
0.000221
0.000258
0.000252
0.000247
0.000310
0.000669
0.000363
0.000354
0.000664
0.000320
0.000201
0.000216
0.000258
0.000238
0.000265
0.000283
0.000266
0.000478
0.000577
0.001485
0.000252
0.000261
0.000254
0.000298
0.000239
0.000386
0.000398
0.000348
0.000335
0.000173
0.000056
0.000190
0.000213
0.000240
0.000252
0.000232
0.000252
0.000272
0.000259
0.000256
0.000365
0.000340
0.000356
0.000276
0.000388
0.000381
0.000331
0.000244
0.000197
0.000253
0.000270
0.000240
0.000245
0.000280
0.000249
0.000356
0.000548
0.000344
0.000270
0.000228
0.000258
0.000198
0.000056
0.000177
0.000231
0.000255
0.000254
0.000246
0.000236
0.000472
0.000214
0.000229
0.000249
0.000254
0.000250
0.000256
0.000258
0.000248
0.000263
0.000270
0.000259
0.000275
0.000257
0.000254
0.000287
0.000316
0.000230
0.000265
0.000279
0.000266
0.000269
0.000262
0.000272
0.000184
0.000056
0.000203
0.000216
0.000307
0.000469
0.000398
0.000208
0.000208
0.000240
0.000260
0.000243
0.000246
0.000261
0.000262
0.000256
0.000243
0.000243
0.000245
0.000265
0.000283
0.000319
0.000444
0.000435
0.000206
0.000268
0.000267
0.000258
0.000266
0.000249
0.000270
0.000279
0.000220
0.000056
0.000343
0.000418
0.000364
0.000236
0.000225
0.000254
0.000487
0.000192
0.000197
0.000249
0.000272
0.000337
0.000380
0.000438
0.001764
0.000265
0.000251
0.000240
0.000276
0.000247
0.000289
0.000516
0.000701
0.000215
0.000207
0.000256
0.000280
0.000423
0.000272
0.000288
0.000180
0.000056
0.000259
0.000340
0.000286
0.000332
0.000509
0.000216
0.000220
0.000243
0.000254
0.000264
0.000239
0.000250
0.000260
0.000294
0.000613
0.000307
0.000244
0.000216
0.000250
0.000294
0.000233
0.000299
0.000260
0.000272
0.000284
0.000436
0.000482
0.000430
0.000485
0.000214
0.000219
0.000073
0.000207
0.000204
0.000248
0.000228
0.000247
0.000249
0.000274
0.000266
0.000340
0.000507
0.000377
0.000315
0.000210
0.000223
0.000265
0.000284
0.000305
0.000248
0.000268
0.000273
0.000248
0.000277
0.000506
0.000389
0.000241
0.000288
0.000237
0.000545
0.000387
0.000284
0.000148
0.000056
0.000173
0.000205
0.000345
0.000428
0.000369
0.000232
0.000220
0.000255
0.000253
0.000244
0.000262
0.000255
0.000233
0.000253
0.000259
0.000279
0.000380
0.000406
0.000439
0.000220
0.000457
0.000231
0.000273
0.000269
0.000311
0.000282
0.000262
0.000259
0.000475
0.000558
0.000174
0.000056
0.000213
0.000207
0.000239
0.000271
0.000234
0.000484
0.000210
0.000236
0.000269
0.000337
0.000531
0.000535
0.000236
0.000231
0.000244
0.000250
0.000265
0.000237
0.000248
0.000264
0.000249
0.000273
0.000330
0.000499
0.000380
0.000335
0.000331
0.000343
0.000305
0.000218
0.000179
0.000057
0.000204
0.000220
0.000242
0.000502
0.000304
0.000385
0.000245
0.000210
0.000207
0.000252
0.000257
0.000245
0.000250
0.000255
0.000300
0.000223
0.000248
0.000250
0.000240
0.000394
0.000510
0.000434
0.000211
0.000238
0.000270
0.000304
0.000236
0.000265
0.000266
0.000271
0.000204
0.000056
0.000270
0.000404
0.000492
0.000215
0.000201
0.000210
0.000346
0.000481
0.000275
0.000206
0.000215
0.000271
0.000255
0.000445
0.000531
0.000262
0.000213
0.000224
0.000284
0.000207
0.000262
0.000271
0.000258
0.000270
0.000264
0.000322
0.000394
0.000408
0.000369
0.000220
0.000157
0.000056
0.000206
0.000214
0.000248
0.000274
0.000235
0.000257
0.000242
0.000247
0.000252
0.000250
0.000260
0.000252
0.000252
0.001448
0.000272
0.000226
0.000248
0.000257
0.000272
0.000272
0.000267
0.000245
0.000272
0.000253
0.000273
0.000262
0.000268
0.000268
0.000278
0.000268
0.000205
0.000056
0.000193
0.000221
0.000235
0.000244
0.000247
0.000233
0.000263
0.000250
0.000234
0.000250
0.000248
0.000261
0.000254
0.000258
0.000255
0.000262
0.000247
0.000249
0.000280
0.000259
0.000252
0.000258
0.000251
0.000246
0.001363
0.000278
0.000525
0.000462
0.000368
0.000211
0.000162
0.000056
0.000176
0.000202
0.000247
0.000246
0.000502
0.000224
0.000212
0.000201
0.000251
0.000340
0.000557
0.000331
0.000212
0.000195
0.000248
0.000254
0.000259
0.000264
0.000251
0.000259
0.000256
0.000257
0.000262
0.000424
0.000674
0.000270
0.000248
0.000252
0.001361
0.000308
0.000158
0.000056
0.000324
0.000398
0.000357
0.000248
0.000200
0.000201
0.000228
0.000249
0.000257
0.000256
0.000251
0.000255
0.000278
0.000267
0.000594
0.000400
0.000288
0.000225
0.000258
0.000233
0.000271
0.000263
0.000274
0.000259
0.000264
0.000261
0.000269
0.000610
0.000413
0.000383
0.000147
0.000055
0.000180
0.000261
0.001287
0.000356
0.000312
0.000438
0.000375
0.000316
0.000439
0.000393
0.000227
0.000203
0.000243
0.000254
0.000255
0.000265
0.000316
0.000562
0.000368
0.000342
0.000284
0.000226
0.000259
0.000517
0.000237
0.000252
0.000258
0.000280
0.000291
0.000583
0.000293
0.000056
0.000311
0.000390
0.000227
0.000209
0.001541
0.000521
0.000300
0.000225
0.000208
0.000245
0.000228
0.000239
0.000248
0.000258
0.000257
0.000268
0.000230
0.000305
0.000459
0.000598
0.000230
0.000208
0.000230
0.000239
0.000261
0.000278
0.000267
0.000236
0.000259
0.000282
0.000270
0.000055
0.000357
0.000335
0.000244
0.000209
0.000252
0.000238
0.000252
0.000250
0.000235
0.000236
0.001456
0.000492
0.000253
0.000207
0.000221
0.000247
0.000275
0.000261
0.000235
0.000276
0.000267
0.000259
0.000251
0.000400
0.000455
0.000459
0.000220
0.000261
0.000269
0.000282
0.000194
0.000055
0.000192
0.000468
0.000198
0.000195
0.000331
0.000514
0.000347
0.000284
0.000490
0.000183
0.000213
0.000252
0.000257
0.000264
0.000271
0.001448
0.000320
0.000279
0.000247
0.000274
0.000275
0.000249
0.000260
0.000263
0.000249
0.000276
0.000420
0.000484
0.000280
0.000281
0.000167
0.000056
0.000185
0.000241
0.000231
0.000240
0.000226
0.000264
0.000238
0.000251
0.000299
0.000434
0.000410
0.000327
0.000195
0.000195
0.000262
0.000258
0.000279
0.000264
0.000271
0.000227
0.000246
0.000303
0.001345
0.000222
0.000278
0.000209
0.000237
0.000277
0.000254
0.000256
0.000201
0.000056
0.000243
0.000345
0.000394
0.000325
0.000229
0.000210
0.000248
0.000251
0.000264
0.000249
0.000253
0.000273
0.000245
0.000253
0.000252
0.000262
0.000268
0.000270
0.000271
0.000249
0.000239
0.000290
0.000256
0.000282
0.000283
0.000269
0.000293
0.000232
0.000266
0.000507
0.001313
0.000055
0.000182
0.000211
0.000230
0.000241
0.000258
0.000258
0.000254
0.000216
0.000250
0.000250
0.000259
0.000262
0.000261
0.000242
0.000247
0.001707
0.000370
0.000214
0.000201
0.000238
0.000259
0.000250
0.000272
0.000260
0.000256
0.000294
0.000261
0.000266
0.000266
0.000276
0.000232
0.000055
0.000316
0.000275
0.001332
0.000213
0.000185
0.000232
0.000258
0.000254
0.000253
0.000266
0.000232
0.000364
0.000379
0.000534
0.000217
0.000219
0.000221
0.000252
0.000261
0.000260
0.000254
0.000258
0.000275
0.000280
0.000271
0.000411
0.000367
0.000375
0.000277
0.000248
0.000203
0.000071
0.000194
0.000238
0.000235
0.000250
0.000246
0.000239
0.000231
0.000242
0.000415
0.000509
0.001100
0.000239
0.000236
0.000263
0.000261
0.000262
0.000272
0.000245
0.000328
0.000378
0.000434
0.000241
0.000251
0.000226
0.000281
0.000270
0.000268
0.000294
0.000269
0.000276
0.000217
0.000055
0.000348
0.000308
0.000405
0.000227
0.000208
0.000197
0.000242
0.000283
0.000257
0.000257
0.000220
0.000259
0.000528
0.000490
0.000451
0.001470
0.000224
0.000275
0.000315
0.000361
0.000435
0.000475
0.000400
0.000402
0.000240
0.000264
0.000260
0.000281
0.000262
0.000278
0.000216
0.000055
0.000201
0.000206
0.000477
0.000412
0.000431
0.000216
0.000248
0.000243
0.000236
0.000254
0.000252
0.000260
0.000267
0.000238
0.000275
0.000323
0.000353
0.000487
0.000304
0.001304
0.000273
0.000257
0.000249
0.000265
0.000552
0.000394
0.000405
0.000215
0.000241
0.000274
0.000209
0.000055
0.000184
0.000233
0.000238
0.000236
0.000247
0.000313
0.000408
0.000401
0.000370
0.000236
0.000222
0.000250
0.000271
0.000260
0.000260
0.000286
0.000245
0.000258
0.000268
0.000288
0.000593
0.000365
0.000321
0.001335
0.000350
0.000240
0.000286
0.000419
0.000453
0.000338
0.000336
0.000056
0.000186
0.000213
0.000247
0.000246
0.000257
0.000246
0.001686
0.000262
0.000227
0.000216
0.000256
0.000249
0.000324
0.000321
0.000326
0.000301
0.000219
0.000422
0.000392
0.000441
0.000281
0.000271
0.000222
0.000221
0.001460
0.000436
0.000409
0.000463
0.000311
0.000299
0.000164
0.000056
0.000201
0.000235
0.000254
0.000266
0.000236
0.000257
0.001778
0.000219
0.000230
0.000253
0.000389
0.000411
0.001427
0.000342
0.000420
0.000206
0.000214
0.000231
0.000267
0.000268
0.001703
0.000516
0.000365
0.000271
0.000220
0.000228
0.000242
0.000284
0.000250
0.000248
0.000208
0.000055
0.000200
0.000224
0.000273
0.000240
0.000253
0.000275
0.000285
0.000250
0.000255
0.000254
0.000246
0.000253
0.000255
0.000268
0.000254
0.001498
0.000278
0.000236
0.000272
0.000269
0.000275
0.000261
0.000417
0.001275
0.000271
0.000247
0.000262
0.000254
0.000469
0.000211
0.000188
0.000056
0.000185
0.000221
0.000231
0.000239
0.000239
0.000230
0.000244
0.001756
0.000196
0.000214
0.000244
0.000371
0.000235
0.000217
0.001455
0.000250
0.000215
0.000215
0.000273
0.000240
0.000264
0.000308
0.000329
0.001368
0.000273
0.000218
0.000240
0.000248
0.001393
0.000260
0.000239
0.000056
0.000266
0.000341
0.000207
0.000207
0.000248
0.000242
0.000277
0.000248
0.000268
0.000244
0.000269
0.000260
0.000255
0.000243
0.000302
0.001496
0.000263
0.000260
0.000261
0.000248
0.000279
0.000263
0.000253
0.001558
0.000278
0.000254
0.000260
0.001355
0.000236
0.000220
0.000238
0.000056
0.000237
0.000345
0.000362
0.000227
0.000204
0.000247
0.000257
0.000260
0.000263
0.000267
0.000247
0.000249
0.000255
0.000255
0.000482
0.001244
0.000208
0.000220
0.000254
0.000277
0.000230
0.000242
0.000257
0.001289
0.000398
0.000212
0.000240
0.000219
0.000253
0.001352
0.000356
0.000056
0.000274
0.000265
0.000211
0.000205
0.000253
0.000231
0.000259
0.000242
0.000270
0.000256
0.000239
0.000249
0.000253
0.000309
0.000425
0.001485
0.000241
0.000228
0.000301
0.000496
0.000314
0.000445
0.001285
0.000289
0.000270
0.000237
0.001294
0.000344
0.000361
0.000397
0.000304
0.000057
0.000214
0.000225
0.000253
0.000259
0.000259
0.000241
0.000279
0.000246
0.000265
0.000264
0.000368
0.000437
0.001385
0.000221
0.000219
0.000250
0.000286
0.000264
0.000209
0.000227
0.000334
0.001317
0.000242
0.000231
0.000233
0.000236
0.001497
0.000451
0.000467
0.000247
0.000180
0.000073
0.000173
0.000220
0.000240
0.000236
0.000253
0.000262
0.000246
0.000259
0.000407
0.000506
0.000312
0.001444
0.000254
0.000208
0.000261
0.000250
0.000262
0.000284
0.001651
0.000319
0.000347
0.000363
0.001293
0.000425
0.000300
0.000343
0.000226
0.000215
0.000253
0.000268
0.000209
0.000055
0.000183
0.000222
0.000314
0.000221
0.000304
0.000606
0.000267
0.000351
0.001472
0.000278
0.000340
0.000260
0.000236
0.000280
0.000356
0.001372
0.000271
0.000205
0.000233
0.000235
0.000302
0.001611
0.000345
0.000276
0.000230
0.000235
0.000507
0.000314
0.000240
0.000210
0.000270
0.000056
0.000254
0.000372
0.000349
0.000279
0.000209
0.001459
0.000240
0.000233
0.000264
0.000270
0.000264
0.000252
0.000341
0.001436
0.000275
0.000222
0.000425
0.001286
0.000302
0.000409
0.000379
0.000232
0.000252
0.000239
0.000285
0.000253
0.000457
0.000232
0.000247
0.000284
0.000207
0.000055
0.000224
0.000201
0.000360
0.001475
0.000268
0.000200
0.000301
0.000249
0.000243
0.000251
0.000244
0.000261
0.001647
0.000204
0.000218
0.000218
0.001371
0.000311
0.000473
0.000507
0.000301
0.000237
0.000206
0.000239
0.000356
0.000259
0.000208
0.000260
0.000251
0.000252
0.000210
0.000056
0.000227
0.000381
0.001440
0.000223
0.000251
0.000270
0.000256
0.000247
0.000316
0.000379
0.001341
0.000242
0.000305
0.000246
0.000207
0.001342
0.000697
0.000265
0.000294
0.000406
0.000337
0.000244
0.000223
0.000239
0.000276
0.000287
0.000269
0.000289
0.000483
0.000444
0.001379
0.000056
0.000201
0.000242
0.000214
0.000224
0.000245
0.000441
0.001520
0.000292
0.000223
0.000206
0.000252
0.001433
0.000348
0.000419
0.000457
0.000243
0.000225
0.000198
0.000253
0.000285
0.000249
0.000253
0.000283
0.000267
0.000249
0.000258
0.000475
0.000514
0.001446
0.000269
0.000180
0.000056
0.000176
0.000226
0.000329
0.000713
0.001103
0.000263
0.000261
0.000266
0.000235
0.000250
0.000252
0.000265
0.000319
0.000622
0.000288
0.000213
0.000245
0.000275
0.000257
0.000255
0.000265
0.000263
0.000265
0.000260
0.000261
0.000418
0.000472
0.000329
0.000309
0.001480
0.000157
0.000057
0.000190
0.000212
0.000259
0.000466
0.000365
0.000302
0.000293
0.000329
0.000270
0.000277
0.000253
0.000260
0.000240
0.000314
0.000251
0.000269
0.000515
0.000366
0.000285
0.000384
0.000291
0.000471
0.000215
0.000243
0.000208
0.000278
0.000243
0.000277
0.000331
0.000528
0.000320
0.000056
0.000209
0.001359
0.000281
0.000326
0.000359
0.000427
0.000520
0.000207
0.000223
0.000207
0.000265
0.000247
0.000268
0.000268
0.000258
0.000262
0.000264
0.001383
0.000295
0.000215
0.000224
0.000275
0.000274
0.000279
0.000271
0.000256
0.000268
0.000259
0.000263
0.000474
0.000360
0.000056
0.000226
0.000240
0.000220
0.001535
0.000334
0.000214
0.000218
0.000206
0.000234
0.000238
0.000256
0.000277
0.000243
0.000248
0.000269
0.000270
0.000251
0.000248
0.000263
0.000263
0.001426
0.000281
0.000231
0.000319
0.000221
0.000221
0.000258
0.000273
0.000266
0.000502
0.000377
0.000056
0.000183
0.000214
0.000383
0.000289
0.000244
0.000260
0.001530
0.000346
0.000337
0.000203
0.000237
0.000362
0.000309
0.000219
0.000227
0.000241
0.000250
0.000265
0.000260
0.000245
0.000494
0.000534
0.001162
0.000261
0.000216
0.000221
0.000270
0.000261
0.000268
0.000271
0.000308
0.000057
0.000219
0.000355
0.000197
0.000211
0.000249
0.000239
0.000239
0.000232
0.001428
0.000531
0.000386
0.000270
0.000224
0.000206
0.000258
0.000238
0.000259
0.000278
0.000255
0.000311
0.000319
0.000497
0.000432
0.001365
0.000243
0.000259
0.000265
0.000268
0.000275
0.000274
0.000609
0.000057
0.000270
0.000215
0.000246
0.000233
0.000220
0.000236
0.000264
0.000247
0.000274
0.001556
0.000373
0.000254
0.000264
0.000256
0.000470
0.000287
0.000403
0.000470
0.000337
0.000311
0.000450
0.000445
0.001329
0.000232
0.000230
0.000214
0.001922
0.000277
0.000613
0.000302
0.000146
0.000056
0.000193
0.000204
0.000238
0.000238
0.000247
0.000248
0.000353
0.000437
0.000551
0.000342
0.000311
0.000215
0.000203
0.000262
0.000264
0.000263
0.000249
0.000254
0.000252
0.000275
0.000277
0.000396
0.001364
0.000255
0.000226
0.000264
0.001922
0.000363
0.000373
0.000366
0.000159
0.000056
0.000236
0.000219
0.000238
0.001620
0.000343
0.000251
0.000228
0.000271
0.000241
0.000329
0.000367
0.000374
0.000358
0.000304
0.000332
0.000483
0.000357
0.001250
0.000269
0.000197
0.000228
0.000263
0.000357
0.000430
0.000524
0.000519
0.000225
0.000212
0.000265
0.000278
0.000216
0.000055
0.000179
0.000209
0.001468
0.000408
0.000203
0.000202
0.000228
0.000248
0.000247
0.000255
0.000245
0.000277
0.000264
0.000273
0.000248
0.000337
0.000480
0.000358
0.001375
0.000283
0.000221
0.000253
0.000258
0.000270
0.000412
0.000445
0.000457
0.000281
0.000305
0.000241
0.000410
0.000055
0.000189
0.000210
0.000259
0.000263
0.001573
0.000256
0.000238
0.000246
0.000258
0.000254
0.000255
0.000262
0.000256
0.000249
0.000546
0.000402
0.001428
0.000735
0.000222
0.000348
0.000253
0.000205
0.000235
0.000273
0.001757
0.000718
0.000264
0.000239
0.000280
0.000285
0.000207
0.000056
0.000210
0.000192
0.000252
0.000247
0.000247
0.000246
0.000251
0.000251
0.000251
0.000221
0.000287
0.000285
0.000251
0.000257
0.000259
0.000260
0.000282
0.001573
0.000684
0.000399
0.000348
0.000225
0.000209
0.000284
0.000276
0.000258
0.000265
0.000271
0.001481
0.000352
0.000287
0.000056
0.000187
0.000215
0.000241
0.000250
0.000262
0.000231
0.000249
0.000254
0.000252
0.000274
0.000217
0.000464
0.000445
0.000354
0.000217
0.000220
0.000271
0.001450
0.000695
0.000381
0.000348
0.000322
0.000218
0.000227
0.000290
0.000246
0.000244
0.000272
0.001490
0.000470
0.000198
0.000056
0.000181
0.000200
0.000248
0.000252
0.000256
0.000227
0.000245
0.000258
0.000260
0.000263
0.000408
0.000385
0.000304
0.000207
0.000244
0.000242
0.000265
0.000268
0.001544
0.000614
0.000476
0.000357
0.000222
0.000253
0.000250
0.000278
0.000246
0.000284
0.000270
0.001435
0.000306
0.000055
0.000216
0.000210
0.000210
0.000259
0.000270
0.000225
0.000290
0.000343
0.000369
0.000430
0.000376
0.000376
0.000327
0.000215
0.000224
0.000247
0.000277
0.000270
0.001377
0.000946
0.000249
0.000203
0.000491
0.000202
0.000216
0.000250
0.000280
0.000262
0.000265
0.000270
0.000305
0.000057
0.000206
0.000302
0.000222
0.000225
0.000250
0.000256
0.000226
0.000240
0.000265
0.000244
0.000255
0.000245
0.000263
0.000471
0.000440
0.000452
0.000236
0.000255
0.000260
0.000248
0.000253
0.000365
0.001379
0.001060
0.000253
0.000222
0.000274
0.000254
0.000280
0.000270
0.000209
0.000056
0.000193
0.001377
0.000276
0.000199
0.000201
0.000257
0.000253
0.000245
0.000230
0.000251
0.000254
0.000258
0.000245
0.000415
0.000335
0.000510
0.000266
0.000204
0.000275
0.000262
0.000271
0.000233
0.000261
0.000261
0.001398
0.000671
0.000312
0.000394
0.000369
0.000400
0.000282
0.000057
0.000185
0.000206
0.000407
0.001272
0.000238
0.000261
0.000197
0.000267
0.000253
0.000252
0.000258
0.000241
0.000280
0.000338
0.000595
0.000330
0.000203
0.000312
0.000278
0.000215
0.000240
0.000269
0.000241
0.000271
0.000263
0.001548
0.000731
0.000301
0.000280
0.000272
0.000203
0.000056
0.000216
0.000221
0.000450
0.001491
0.000274
0.000185
0.000194
0.000197
0.000243
0.000241
0.000250
0.000272
0.000220
0.000234
0.000258
0.000251
0.000267
0.000236
0.000252
0.000267
0.000261
0.000268
0.000332
0.000306
0.000225
0.000244
0.000295
0.001497
0.000254
0.000218
0.000168
0.000056
0.000186
0.000208
0.000256
0.000332
0.000352
0.000334
0.000410
0.000244
0.001609
0.000209
0.000331
0.000426
0.000364
0.000257
0.000469
0.000226
0.000221
0.000233
0.000261
0.000274
0.000282
0.000262
0.000265
0.000263
0.000267
0.000430
0.000418
0.000339
0.001534
0.000243
0.000165
0.000056
0.000219
0.000212
0.000243
0.000271
0.000221
0.000243
0.000261
0.000335
0.000419
0.002070
0.000207
0.000197
0.000256
0.000261
0.000263
0.000326
0.000247
0.000215
0.000245
0.000428
0.000430
0.001755
0.000212
0.000188
0.000211
0.000502
0.001763
0.000286
0.000267
0.001483
0.000190
0.000062
0.000320
0.000363
0.000507
0.000225
0.000263
0.000232
0.000257
0.000260
0.000269
0.000233
0.000247
0.000318
0.000473
0.000291
0.000424
0.000304
0.000218
0.001615
0.000427
0.001999
0.000278
0.000265
0.000212
0.001635
0.001972
0.000721
0.000281
0.000216
0.000249
0.000478
0.000346
0.000056
0.000196
0.000224
0.000248
0.000255
0.001489
0.001654
0.001092
0.000225
0.000211
0.001584
0.001974
0.000233
0.000312
0.000403
0.000254
0.000460
0.000335
0.000399
0.000260
0.000224
0.000254
0.000258
0.000291
0.001537
0.001310
0.001424
0.000261
0.000243
0.000267
0.000301
0.000351
0.000059
0.000206
0.000239
0.000206
0.000240
0.000235
0.000229
0.000259
0.000253
0.000245
0.000253
0.000244
0.000324
0.000524
0.000418
0.000304
0.000205
0.000231
0.000265
0.000269
0.000266
0.000252
0.001369
0.000478
0.000441
0.002075
0.000266
0.000237
0.000389
0.000435
0.000415
0.000157
0.000056
0.000202
0.000346
0.000451
0.000315
0.000216
0.000212
0.000234
0.000264
0.000242
0.000248
0.000243
0.000265
0.000277
0.001591
0.001419
0.001232
0.000267
0.000236
0.000212
0.000243
0.000284
0.000280
0.000256
0.000240
0.002274
0.000227
0.000210
0.000283
0.000325
0.000301
0.000249
0.000055
0.000202
0.000391
0.000560
0.000365
0.000186
0.000192
0.000228
0.000270
0.001889
0.001436
0.000256
0.000377
0.000389
0.000356
0.000274
0.000208
0.000232
0.000264
0.000265
0.000259
0.000273
0.000254
0.000484
0.000215
0.000280
0.000280
0.000241
0.000272
0.000283
0.000242
0.000227
0.000056
0.000195
0.000216
0.000256
0.000251
0.000233
0.000271
0.001536
0.001494
0.001342
0.000210
0.000203
0.000219
0.000271
0.000262
0.000249
0.000250
0.000249
0.002171
0.000211
0.000220
0.000251
0.000264
0.000255
0.000264
0.000273
0.000261
0.000264
0.000251
0.000278
0.000263
0.000186
0.000056
0.001508
0.000319
0.002396
0.000249
0.000295
0.000295
0.000246
0.000257
0.000265
0.000245
0.000253
0.000245
0.000238
0.000238
0.000272
0.000250
0.000266
0.000275
0.000256
0.000269
0.000259
0.000281
0.000273
0.000278
0.000243
0.000240
0.000266
0.000274
0.000259
0.000263
0.000408
0.000075
0.000176
0.002558
0.000335
0.000206
0.000190
0.000208
0.000257
0.000262
0.000252
0.000272
0.000492
0.000267
0.000328
0.000261
0.000199
0.002245
0.000196
0.000230
0.000232
0.000527
0.000398
0.000283
0.000218
0.000242
0.000268
0.000246
0.000260
0.000276
0.000279
0.001682
0.001200
0.000058
0.000193
0.000207
0.000295
0.000406
0.000331
0.000277
0.000227
0.000225
0.000253
0.000257
0.000262
0.000249
0.000237
0.000260
0.000251
0.000237
0.000343
0.000581
0.000413
0.000250
0.000211
0.000236
0.000294
0.000265
0.000250
0.000233
0.000260
0.000283
0.000243
0.000290
0.000390
0.000056
0.001126
0.000206
0.000410
0.000402
0.000334
0.000194
0.000198
0.000233
0.002275
0.000366
0.000326
0.000377
0.000199
0.000288
0.000339
0.000270
0.000268
0.000252
0.000266
0.000238
0.000247
0.000266
0.000591
0.000547
0.001791
0.001348
0.000594
0.000466
0.000224
0.000252
0.000219
0.000056
0.000217
0.000363
0.000228
0.000250
0.000235
0.000243
0.000239
0.000244
0.000263
0.000250
0.000254
0.000230
0.000249
0.000244
0.000381
0.000557
0.001861
0.001325
0.000426
0.000426
0.000420
0.000254
0.000245
0.000255
0.002202
0.000485
0.000375
0.000242
0.000276
0.000279
0.000215
0.000055
0.000188
0.000226
0.000253
0.000242
0.000238
0.000341
0.000443
0.000304
0.000325
0.000244
0.000218
0.000288
0.000230
0.002124
0.000316
0.000424
0.000202
0.000245
0.000266
0.000261
0.000257
0.002447
0.000373
0.000206
0.000252
0.000262
0.000242
0.000267
0.000285
0.000289
0.000209
0.000055
0.000198
0.000371
0.000612
0.000329
0.000225
0.000214
0.000194
0.000254
0.000265
0.001946
0.000344
0.000384
0.000259
0.000254
0.000210
0.000246
0.000267
0.000249
0.002275
0.000370
0.000232
0.000266
0.000259
0.000267
0.000256
0.000247
0.000289
0.000248
0.000268
0.000259
0.000205
0.000056
0.000197
0.000222
0.000274
0.000203
0.000245
0.000256
0.000235
0.000251
0.000229
0.002179
0.000255
0.000266
0.000212
0.000489
0.000206
0.000219
0.000255
0.000284
0.000261
0.000266
0.002022
0.000270
0.000349
0.000367
0.000502
0.000334
0.000284
0.000247
0.000222
0.000271
0.000197
0.000056
0.000180
0.000219
0.000235
0.000245
0.000244
0.000387
0.000197
0.002347
0.000206
0.000229
0.000228
0.000252
0.000246
0.000242
0.000302
0.002213
0.000505
0.000228
0.000245
0.000245
0.000264
0.000260
0.000282
0.000267
0.000261
0.000259
0.000286
0.000256
0.000263
0.000307
0.000172
0.000056
0.000186
0.003020
0.000241
0.000218
0.000245
0.000241
0.000252
0.000281
0.000404
0.000373
0.002144
0.000250
0.000240
0.000270
0.000265
0.000609
0.000359
0.000300
0.000219
0.000207
0.000252
0.000262
0.000266
0.000229
0.000253
0.000272
0.000264
0.000266
0.000274
0.000802
0.000248
0.000055
0.000180
0.000275
0.000263
0.000238
0.000218
0.000251
0.000252
0.000245
0.001547
0.002120
0.000514
0.000271
0.000393
0.000789
0.000350
0.000211
0.000203
0.000243
0.000274
0.000258
0.000272
0.000229
0.000247
0.000278
0.001826
0.001443
0.000293
0.000273
0.000307
0.000309
0.000423
0.000057
0.001929
0.000228
0.000230
0.000204
0.000275
0.000357
0.000466
0.000327
0.000304
0.000234
0.000225
0.000217
0.000255
0.000246
0.000262
0.000269
0.000255
0.000259
0.001912
0.000210
0.000202
0.000245
0.000291
0.000262
0.000275
0.000258
0.001534
0.000340
0.000226
0.000211
0.000187
0.000057
0.000194
0.000214
0.000224
0.000241
0.000269
0.000228
0.000286
0.000387
0.000428
0.000354
0.000193
0.000198
0.000339
0.000325
0.000378
0.000331
0.000226
0.000216
0.000259
0.000359
0.000518
0.000449
0.000236
0.000224
0.000256
0.000251
0.000256
0.000259
0.000295
0.000251
0.000218
0.000057
0.001425
0.000410
0.000240
0.002001
0.000265
0.000411
0.000368
0.000386
0.000200
0.000216
0.000257
0.000247
0.000250
0.000246
0.000271
0.000269
0.000444
0.000371
0.000341
0.000324
0.000388
0.000231
0.000242
0.000265
0.000328
0.000236
0.000240
0.000277
0.000311
0.000560
0.001364
0.000056
0.000200
0.000193
0.002079
0.000284
0.000322
0.000263
0.000256
0.000250
0.000272
0.000244
0.000225
0.000245
0.000263
0.000259
0.000260
0.000341
0.000717
0.001743
0.000261
0.000246
0.000263
0.000275
0.000303
0.000606
0.001466
0.000270
0.000361
0.002010
0.000228
0.000240
0.000200
0.000056
0.000185
0.000220
0.000227
0.000242
0.000223
0.000256
0.000250
0.000271
0.000344
0.000296
0.000383
0.000369
0.000331
0.000306
0.000208
0.000261
0.000267
0.000237
0.000262
0.000262
0.000274
0.000330
0.000242
0.000261
0.000283
0.001566
0.000285
0.000400
0.001993
0.000268
0.000158
0.000056
0.000196
0.000223
0.000236
0.000251
0.000467
0.000234
0.000241
0.000337
0.000376
0.000365
0.000249
0.000213
0.000247
0.000269
0.000275
0.000324
0.000510
0.000335
0.000268
0.000371
0.000593
0.000421
0.001566
0.000255
0.000247
0.002025
0.000338
0.000230
0.000216
0.000268
0.000211
0.000056
0.000209
0.000222
0.000219
0.000243
0.000251
0.000281
0.000242
0.000264
0.000258
0.000275
0.001856
0.000353
0.000335
0.000318
0.000460
0.000360
0.001504
0.000346
0.000231
0.000297
0.002007
0.000631
0.000262
0.000229
0.000236
0.000268
0.000494
0.000230
0.000259
0.000288
0.000196
0.000056
0.000313
0.000301
0.000416
0.000258
0.000202
0.000232
0.000258
0.000245
0.000266
0.000296
0.000237
0.000247
0.000256
0.000258
0.000379
0.000394
0.001356
0.000257
0.000320
0.001942
0.000370
0.000264
0.000218
0.000248
0.000241
0.000281
0.000265
0.000266
0.000251
0.000260
0.000228
0.000057
0.000217
0.000412
0.002079
0.000221
0.000244
0.000224
0.000221
0.000319
0.000420
0.001566
0.000271
0.000362
0.000337
0.002000
0.000237
0.000248
0.000249
0.000275
0.000261
0.000229
0.000300
0.000277
0.000267
0.000332
0.000489
0.000386
0.000384
0.002161
0.000505
0.000449
0.000472
0.000057
0.000215
0.000211
0.000223
0.002036
0.000195
0.000212
0.000236
0.000273
0.000204
0.000249
0.000242
0.000288
0.000233
0.000285
0.000506
0.000343
0.001302
0.000239
0.000274
0.000264
0.000222
0.000255
0.000268
0.000262
0.000323
0.000452
0.000467
0.000251
0.001692
0.000221
0.000162
0.000056
0.000198
0.000205
0.000224
0.000234
0.000246
0.000253
0.000255
0.000248
0.000277
0.000335
0.000379
0.001485
0.000214
0.000198
0.000226
0.000265
0.000252
0.000258
0.000283
0.000482
0.000448
0.000445
0.000207
0.001565
0.000257
0.000234
0.000290
0.000274
0.000263
0.000279
0.000199
0.000056
0.000196
0.000216
0.000264
0.000265
0.000261
0.000232
0.000235
0.000249
0.000256
0.000240
0.000256
0.000251
0.000248
0.000257
0.001574
0.000240
0.000244
0.000269
0.000325
0.000331
0.000362
0.000270
0.000220
0.000234
0.000250
0.000287
0.001442
0.000303
0.000213
0.000228
0.000176
0.000056
0.000196
0.000227
0.000243
0.000263
0.000273
0.000220
0.000248
0.000268
0.000213
0.000267
0.000244
0.000258
0.000228
0.000312
0.000384
0.000321
0.000339
0.001555
0.000339
0.000218
0.000209
0.000238
0.000258
0.000297
0.000424
0.000459
0.000395
0.000242
0.000219
0.001594
0.000199
0.000055
0.000319
0.000391
0.000416
0.000212
0.000211
0.000206
0.000239
0.000272
0.000255
0.000245
0.000243
0.000241
0.001459
0.000342
0.000288
0.000220
0.000225
0.000252
0.000274
0.000257
0.000256
0.000244
0.000260
0.000270
0.000247
0.000350
0.000486
0.000399
0.000271
0.000223
0.000204
0.000056
0.000220
0.000257
0.000504
0.000294
0.000354
0.000258
0.000217
0.000252
0.000250
0.000251
0.000245
0.000236
0.000245
0.000250
0.001336
0.000282
0.000231
0.000199
0.000262
0.000266
0.000239
0.000265
0.000252
0.000263
0.000252
0.000267
0.000314
0.000723
0.000415
0.000270
0.000163
0.000056
0.000191
0.001530
0.000241
0.000369
0.000435
0.000403
0.000204
0.000234
0.000264
0.000250
0.000261
0.000244
0.000275
0.000269
0.000273
0.001515
0.000253
0.000283
0.000262
0.000262
0.000260
0.000246
0.000269
0.000263
0.000265
0.000256
0.000453
0.000402
0.000352
0.000228
0.000172
0.000056
0.000199
0.000215
0.000247
0.001698
0.000417
0.000328
0.000202
0.000202
0.000262
0.000254
0.000269
0.000266
0.000252
0.000261
0.000231
0.000268
0.000397
0.001401
0.000211
0.000240
0.001518
0.000404
0.000491
0.000399
0.000284
0.000217
0.000267
0.000460
0.000251
0.000239
0.000211
0.000055
0.000289
0.000221
0.000211
0.000250
0.000240
0.000272
0.000224
0.000263
0.000255
0.000234
0.000261
0.000251
0.000326
0.000473
0.001679
0.001482
0.000393
0.000510
0.000318
0.000242
0.000235
0.000256
0.000242
0.000276
0.000246
0.000266
0.000261
0.000273
0.001602
0.000309
0.000139
0.000056
0.000197
0.000340
0.000351
0.000331
0.000259
0.000212
0.000213
0.000328
0.000435
0.001433
0.000349
0.001543
0.000345
0.000447
0.000495
0.000263
0.000339
0.000336
0.000359
0.000266
0.000237
0.000363
0.001554
0.000538
0.000243
0.000232
0.000262
0.000244
0.000268
0.000263
0.000223
0.000056
0.000185
0.000228
0.000254
0.000256
0.000240
0.001654
0.000960
0.000898
0.000238
0.000240
0.000254
0.000263
0.000242
0.000271
0.000253
0.000251
0.000271
0.000247
0.000264
0.000293
0.001492
0.000276
0.000252
0.000217
0.000221
0.000255
0.000261
0.000292
0.000259
0.000278
0.000212
0.000056
0.000191
0.000190
0.001542
0.000992
0.000305
0.000395
0.000182
0.000195
0.000255
0.000256
0.000240
0.000255
0.000252
0.002041
0.000473
0.000205
0.000206
0.000248
0.000257
0.000264
0.000207
