0.000101
0.016932
0.004802
0.000282
0.000265
0.000283
0.000302
0.000244
0.000337
0.000278
0.000255
0.000351
0.000552
0.000416
0.000391
0.000351
0.000292
0.000348
0.000345
0.000409
0.000309
0.001941
0.000742
0.000205
0.000246
0.000308
0.000304
0.000321
0.000478
0.000324
0.000534
0.000278
0.000057
0.000214
0.000262
0.000272
0.000261
0.000276
0.000249
0.000278
0.000260
0.000271
0.000301
0.000420
0.000436
0.000313
0.000258
0.000413
0.000298
0.000364
0.000259
0.000254
0.001692
0.000319
0.000259
0.000470
0.000221
0.000288
0.000267
0.000291
0.000296
0.000278
0.000354
0.000352
0.000056
0.000251
0.000256
0.000257
0.000264
0.000249
0.000245
0.000258
0.000259
0.000285
0.001670
0.000234
0.000226
0.000271
0.000271
0.000277
0.000248
0.000263
0.000254
0.000358
0.001797
0.000238
0.000286
0.000430
0.000492
0.000349
0.000231
0.000295
0.000426
0.000524
0.000747
0.000187
0.000056
0.000223
0.000249
0.000251
0.000238
0.000311
0.000243
0.000342
0.000539
0.000368
0.000248
0.000253
0.000248
0.000243
0.000256
0.000252
0.000273
0.000228
0.000269
0.000299
0.000321
0.001670
0.000275
0.000254
0.000410
0.000259
0.000751
0.000684
0.000500
0.000350
0.000239
0.000186
0.000055
0.000225
0.000250
0.000263
0.000239
0.000255
0.000257
0.000269
0.000454
0.001465
0.000239
0.000235
0.000245
0.000258
0.000258
0.000259
0.000287
0.000322
0.000736
0.001409
0.000278
0.000450
0.000263
0.000231
0.000215
0.000277
0.000246
0.000265
0.000266
0.000262
0.000268
0.000195
0.000055
0.000204
0.000251
0.000239
0.000267
0.000239
0.000247
0.000240
0.000251
0.000246
0.000245
0.001622
0.000270
0.000239
0.000232
0.000258
0.000251
0.000243
0.000249
0.000253
0.000275
0.000251
0.001662
0.000289
0.000258
0.000424
0.000259
0.000260
0.000259
0.000257
0.000277
0.000193
0.000056
0.000183
0.000235
0.000247
0.000248
0.000237
0.000251
0.000261
0.000235
0.000264
0.000243
0.000262
0.000259
0.000259
0.000272
0.001632
0.000280
0.000301
0.000209
0.000257
0.000273
0.000270
0.000240
0.000240
0.000269
0.001790
0.000348
0.000385
0.000351
0.000255
0.000281
0.000191
0.000057
0.000195
0.000241
0.000243
0.000265
0.000255
0.000241
0.000266
0.000448
0.000369
0.000449
0.000206
0.000270
0.000235
0.000250
0.001552
0.000537
0.000332
0.000407
0.000301
0.000239
0.000261
0.000297
0.000263
0.001725
0.000507
0.000468
0.000260
0.000246
0.000253
0.000270
0.000173
0.000056
0.000199
0.000228
0.000260
0.000300
0.000276
0.000450
0.000378
0.000286
0.000219
0.000252
0.000261
0.000243
0.000251
0.001696
0.000510
0.000279
0.000232
0.000249
0.000274
0.000281
0.000248
0.000260
0.000275
0.001863
0.000333
0.000386
0.000253
0.000245
0.000268
0.000415
0.000325
0.000056
0.000212
0.000390
0.000328
0.000299
0.000253
0.000252
0.000252
0.000254
0.000242
0.000234
0.000237
0.000251
0.001543
0.000386
0.000281
0.000236
0.000253
0.000255
0.000241
0.000279
0.000282
0.000330
0.000238
0.001817
0.000250
0.000494
0.000253
0.000253
0.000255
0.000274
0.000248
0.000057
0.000428
0.000442
0.000612
0.000218
0.000220
0.000283
0.000227
0.000222
0.000256
0.000251
0.000259
0.001697
0.000251
0.000444
0.000368
0.000214
0.000240
0.000231
0.000259
0.000253
0.000253
0.001861
0.000233
0.000246
0.002081
0.000513
0.000364
0.000244
0.000254
0.000266
0.000182
0.000056
0.000210
0.000236
0.000248
0.000242
0.000256
0.001615
0.000250
0.000239
0.000256
0.000253
0.000245
0.000239
0.000251
0.000257
0.000300
0.000340
0.000663
0.000265
0.000235
0.000269
0.000264
0.000247
0.000245
0.000430
0.000435
0.000289
0.000336
0.000669
0.000306
0.000282
0.000198
0.000055
0.000219
0.000237
0.000256
0.000251
0.000231
0.000240
0.000242
0.000421
0.000400
0.001725
0.000219
0.000242
0.000241
0.000246
0.000261
0.000266
0.000465
0.000461
0.000350
0.000235
0.000250
0.000314
0.000272
0.000251
0.000272
0.000438
0.000341
0.000652
0.000446
0.000421
0.000172
0.000056
0.000190
0.000259
0.000238
0.000224
0.000241
0.000241
0.000252
0.000242
0.000246
0.000293
0.000354
0.000361
0.001449
0.000242
0.000244
0.000239
0.000260
0.000248
0.000264
0.000242
0.000305
0.000413
0.000431
0.000253
0.000270
0.000255
0.000252
0.000276
0.000262
0.000264
0.000382
0.000056
0.000213
0.000235
0.000230
0.000271
0.000527
0.000435
0.000236
0.000263
0.000237
0.000255
0.000245
0.000238
0.000299
0.000251
0.000236
0.000518
0.000485
0.001527
0.000290
0.000220
0.000261
0.000266
0.000256
0.000237
0.000271
0.000422
0.000448
0.000375
0.000429
0.000244
0.000182
0.000057
0.000234
0.000431
0.000242
0.000212
0.000270
0.000238
0.000272
0.000588
0.000359
0.000291
0.000228
0.000268
0.000271
0.000237
0.000516
0.000347
0.000218
0.000267
0.000407
0.001624
0.000270
0.000236
0.000520
0.000244
0.000278
0.000281
0.000273
0.000410
0.000458
0.000413
0.000233
0.000056
0.000215
0.000235
0.000237
0.000243
0.000407
0.000317
0.000292
0.000223
0.000497
0.000399
0.000347
0.000256
0.000241
0.000249
0.000254
0.000265
0.000258
0.000250
0.000234
0.000347
0.000289
0.000341
0.001837
0.000244
0.000258
0.000253
0.000284
0.000346
0.000417
0.000730
0.000399
0.000057
0.000246
0.000331
0.000280
0.000432
0.000393
0.000210
0.000248
0.000288
0.000570
0.000413
0.000211
0.000241
0.000238
0.000271
0.000257
0.000236
0.000255
0.000275
0.000263
0.000262
0.000312
0.000368
0.000668
0.001312
0.000338
0.000467
0.000386
0.000255
0.000320
0.000505
0.000412
0.000056
0.000254
0.000375
0.000276
0.000202
0.000224
0.000246
0.000413
0.000238
0.000242
0.000330
0.000476
0.000441
0.000227
0.000263
0.000265
0.000244
0.000376
0.000387
0.000337
0.000244
0.000240
0.000399
0.000627
0.001672
0.000224
0.000461
0.000285
0.000230
0.000259
0.000511
0.000205
0.000056
0.000187
0.000231
0.000245
0.000252
0.000239
0.000252
0.000251
0.000321
0.000450
0.000300
0.000414
0.000406
0.000267
0.000582
0.000240
0.000246
0.000270
0.000271
0.000230
0.000345
0.000222
0.000254
0.000267
0.000504
0.000505
0.001548
0.000264
0.000239
0.000253
0.000274
0.000185
0.000057
0.000308
0.000476
0.000319
0.000223
0.000256
0.000245
0.000257
0.000241
0.000258
0.000246
0.000225
0.000249
0.000418
0.000558
0.000362
0.000278
0.000253
0.000253
0.000346
0.000382
0.000383
0.000331
0.000422
0.000356
0.000219
0.000256
0.000270
0.000270
0.001780
0.000249
0.000210
0.000057
0.000206
0.000218
0.000257
0.000268
0.000367
0.000537
0.000299
0.000229
0.000260
0.000264
0.000246
0.000253
0.000513
0.000451
0.000479
0.000286
0.000273
0.000257
0.000414
0.000464
0.000407
0.000361
0.000428
0.000494
0.000229
0.000262
0.000270
0.000242
0.000262
0.001715
0.000311
0.000057
0.000285
0.000334
0.000209
0.000233
0.000272
0.000236
0.000245
0.000499
0.000373
0.000304
0.000293
0.000299
0.000339
0.000624
0.000341
0.000235
0.000261
0.000251
0.000252
0.000264
0.000266
0.000272
0.000245
0.000262
0.000347
0.000331
0.000388
0.000360
0.000252
0.000271
0.000169
0.000056
0.000438
0.000349
0.000437
0.000246
0.000196
0.000251
0.000247
0.000253
0.000235
0.000225
0.000253
0.000276
0.000293
0.000401
0.000465
0.000522
0.000288
0.000328
0.000373
0.000341
0.000284
0.000248
0.000250
0.000259
0.001740
0.000264
0.001720
0.000939
0.000371
0.000352
0.000178
0.000056
0.000214
0.000234
0.000232
0.000258
0.000247
0.000252
0.000250
0.000249
0.000243
0.000312
0.000354
0.000464
0.000318
0.000382
0.000258
0.000252
0.000243
0.000295
0.000226
0.000251
0.000254
0.000260
0.001802
0.000250
0.000253
0.000261
0.000293
0.000254
0.001934
0.000495
0.000248
0.000056
0.000214
0.000212
0.000240
0.000244
0.000253
0.000252
0.000240
0.000252
0.000257
0.000338
0.000638
0.000450
0.000241
0.000204
0.000234
0.000253
0.000330
0.000445
0.000380
0.000235
0.001771
0.000255
0.000249
0.000249
0.000278
0.000253
0.000243
0.000250
0.000331
0.000358
0.000311
0.000056
0.000252
0.000224
0.000236
0.000259
0.000244
0.000244
0.000254
0.000258
0.000236
0.000259
0.000242
0.000312
0.000291
0.000465
0.000310
0.000308
0.000437
0.000247
0.000242
0.000256
0.000282
0.000242
0.000274
0.000251
0.000281
0.001787
0.000249
0.000244
0.000264
0.000241
0.000196
0.000055
0.000313
0.000347
0.000206
0.000224
0.000239
0.000235
0.000238
0.000274
0.000226
0.000228
0.000234
0.000260
0.000258
0.000442
0.000340
0.000356
0.000275
0.000246
0.000251
0.000252
0.000263
0.000254
0.000250
0.000276
0.000245
0.000263
0.000303
0.001639
0.000267
0.000236
0.000191
0.000056
0.000215
0.000226
0.000251
0.000250
0.000355
0.000361
0.000378
0.000329
0.000223
0.000262
0.000247
0.000248
0.000248
0.000250
0.000275
0.000252
0.000239
0.000260
0.000254
0.000260
0.000266
0.000271
0.000246
0.000237
0.000242
0.000282
0.000276
0.000262
0.000252
0.000268
0.000185
0.000056
0.000213
0.000236
0.000255
0.000259
0.000234
0.000253
0.000245
0.000261
0.000298
0.000225
0.000228
0.000246
0.000258
0.000250
0.000269
0.000256
0.000259
0.000250
0.000288
0.000259
0.000276
0.000289
0.000270
0.000250
0.000276
0.000276
0.000267
0.000253
0.000279
0.000427
0.000552
0.000056
0.000229
0.000288
0.000213
0.000240
0.000235
0.000252
0.000236
0.000256
0.000249
0.000243
0.000279
0.000294
0.000479
0.000467
0.001548
0.000229
0.000486
0.000233
0.000278
0.000442
0.000440
0.000376
0.000228
0.000271
0.000249
0.000268
0.000279
0.000252
0.000306
0.000258
0.000186
0.000056
0.000311
0.000561
0.000318
0.000233
0.000225
0.000249
0.000249
0.000244
0.000236
0.000247
0.000252
0.000256
0.000229
0.000261
0.000384
0.000489
0.000385
0.001812
0.000219
0.000253
0.000346
0.000404
0.000461
0.000280
0.000324
0.000330
0.000299
0.000229
0.000230
0.000251
0.000194
0.000056
0.000227
0.000227
0.000237
0.000301
0.000380
0.000393
0.000357
0.000259
0.000253
0.000217
0.000246
0.000267
0.000270
0.000260
0.000246
0.000255
0.000406
0.000394
0.000342
0.000432
0.000229
0.001753
0.000328
0.000492
0.000479
0.000491
0.000318
0.000233
0.000258
0.000267
0.000444
0.000056
0.000212
0.000258
0.000231
0.000252
0.000429
0.000488
0.000369
0.000224
0.000238
0.000287
0.000250
0.000257
0.000252
0.000295
0.000313
0.000230
0.000235
0.000410
0.000471
0.000317
0.000491
0.001842
0.000254
0.000495
0.000443
0.000374
0.000220
0.000263
0.000284
0.000267
0.000198
0.000055
0.000219
0.000336
0.000359
0.000304
0.000425
0.000343
0.000305
0.000218
0.000244
0.000262
0.000269
0.000226
0.000248
0.000253
0.000250
0.000263
0.000315
0.000369
0.000525
0.000364
0.000278
0.000257
0.000248
0.001708
0.000440
0.000473
0.000712
0.000231
0.000268
0.000311
0.000162
0.000055
0.000199
0.000239
0.000322
0.000252
0.000254
0.000345
0.000460
0.000305
0.000230
0.000533
0.000237
0.000247
0.000263
0.000275
0.000274
0.000269
0.000212
0.000380
0.000426
0.000446
0.000266
0.000229
0.000258
0.000252
0.000263
0.000267
0.000238
0.000254
0.000266
0.000310
0.000153
0.000057
0.000311
0.000327
0.000223
0.000230
0.000249
0.000255
0.000245
0.000288
0.000242
0.000242
0.000255
0.000352
0.000424
0.000435
0.000365
0.000240
0.000217
0.000226
0.000262
0.000265
0.000290
0.000258
0.000237
0.000258
0.000279
0.000283
0.000415
0.000473
0.000270
0.000253
0.000174
0.000057
0.000207
0.000220
0.000279
0.000241
0.000241
0.000251
0.000253
0.000264
0.000482
0.000212
0.000265
0.000250
0.000249
0.000279
0.000257
0.000274
0.000265
0.000344
0.000227
0.000232
0.000263
0.000266
0.000275
0.000248
0.000272
0.000264
0.000263
0.000256
0.000516
0.000243
0.000151
0.000056
0.000212
0.000239
0.000246
0.000269
0.000221
0.000246
0.000366
0.000411
0.000239
0.000231
0.000254
0.000253
0.000236
0.000305
0.000441
0.001739
0.000236
0.000267
0.000281
0.000393
0.000362
0.000355
0.000356
0.000444
0.000330
0.000426
0.000239
0.000267
0.000270
0.000274
0.001388
0.000056
0.000299
0.000298
0.000274
0.000213
0.000239
0.000249
0.000234
0.000255
0.000244
0.000269
0.000257
0.000247
0.000253
0.000290
0.000560
0.001610
0.000244
0.000233
0.000263
0.000249
0.000229
0.000284
0.000462
0.000306
0.000384
0.000230
0.000227
0.000266
0.000274
0.000268
0.000196
0.000056
0.001194
0.000609
0.000251
0.000269
0.000245
0.000220
0.000234
0.000238
0.000486
0.000219
0.000241
0.000298
0.000286
0.000542
0.000380
0.000354
0.000241
0.000236
0.000340
0.000349
0.000279
0.000249
0.000269
0.000249
0.000279
0.000564
0.000588
0.000235
0.000252
0.000266
0.000164
0.000056
0.000236
0.000202
0.000240
0.000245
0.001535
0.000238
0.000220
0.000253
0.000234
0.000254
0.000254
0.000250
0.000249
0.000261
0.000269
0.000265
0.000926
0.000168
0.000273
0.001752
0.000272
0.000260
0.000310
0.000386
0.000604
0.000376
0.000259
0.000251
0.000254
0.000275
0.000194
0.000056
0.000224
0.000252
0.000233
0.000331
0.001249
0.000243
0.000241
0.000261
0.000241
0.000237
0.000237
0.000245
0.000278
0.000249
0.000256
0.000259
0.000545
0.000356
0.000330
0.000264
0.000262
0.000281
0.000244
0.000238
0.000284
0.000267
0.000241
0.000279
0.000265
0.000302
0.000604
0.000056
0.000221
0.000240
0.000243
0.000262
0.000261
0.000243
0.000245
0.000253
0.000269
0.000253
0.001438
0.000232
0.000233
0.000252
0.000244
0.000244
0.000269
0.000264
0.000259
0.000266
0.000266
0.000536
0.000391
0.000416
0.000226
0.000275
0.001761
0.000269
0.000249
0.000292
0.000468
0.000056
0.000199
0.000406
0.000432
0.000502
0.000515
0.000565
0.001475
0.000414
0.000520
0.000652
0.000555
0.000727
0.000485
0.000608
0.000580
0.001892
0.000362
0.000479
0.000405
0.000312
0.000224
0.000300
0.000255
0.000271
0.000254
0.000285
0.000295
0.000287
0.000259
0.000287
0.001375
0.000055
0.000204
0.000225
0.000253
0.000236
0.000250
0.000261
0.000230
0.000242
0.000251
0.000250
0.000242
0.000239
0.000258
0.000252
0.000268
0.000273
0.001808
0.000274
0.000241
0.000249
0.000277
0.000242
0.000288
0.000297
0.000368
0.000415
0.000366
0.000215
0.000273
0.000276
0.000205
0.000056
0.000197
0.001361
0.000334
0.000258
0.000256
0.000242
0.000244
0.000240
0.000232
0.000247
0.000212
0.000239
0.000248
0.000512
0.000353
0.000286
0.000265
0.000265
0.001920
0.000233
0.000239
0.000284
0.000238
0.000274
0.000267
0.000279
0.000273
0.000263
0.000257
0.000319
0.000201
0.000056
0.000221
0.000239
0.000251
0.001438
0.000211
0.000246
0.000262
0.000246
0.000232
0.000270
0.000250
0.000247
0.000247
0.000254
0.000265
0.000257
0.000259
0.000269
0.000267
0.000258
0.000258
0.001767
0.000283
0.001748
0.000263
0.000252
0.000265
0.000279
0.000264
0.000279
0.000200
0.000055
0.000205
0.000244
0.001341
0.000223
0.000258
0.000255
0.000252
0.000255
0.000239
0.000255
0.000247
0.000250
0.000257
0.000267
0.000271
0.000250
0.000261
0.000291
0.000288
0.000227
0.001884
0.000226
0.001837
0.000249
0.000259
0.000272
0.000225
0.000250
0.000259
0.000271
0.000192
0.000055
0.001452
0.000222
0.000227
0.000246
0.000242
0.000240
0.000368
0.000270
0.000253
0.000254
0.000253
0.000257
0.000280
0.000359
0.000350
0.000305
0.000235
0.000272
0.000265
0.000245
0.000267
0.000341
0.000234
0.000249
0.000273
0.000272
0.000279
0.000370
0.000614
0.000356
0.000190
0.000056
0.000215
0.000256
0.000245
0.000308
0.000373
0.000252
0.001722
0.000273
0.000280
0.000268
0.000260
0.000262
0.000292
0.000237
0.000301
0.000316
0.000347
0.000570
0.000370
0.000260
0.000297
0.000285
0.000249
0.000267
0.000344
0.000283
0.000233
0.000253
0.000258
0.000318
0.000446
0.000057
0.000255
0.000469
0.000270
0.000268
0.000244
0.000226
0.000230
0.000248
0.000255
0.000272
0.001499
0.000226
0.000226
0.000252
0.000243
0.000287
0.000280
0.000234
0.000261
0.000271
0.000268
0.000383
0.000498
0.000335
0.000269
0.000291
0.000268
0.000260
0.000235
0.000308
0.000169
0.000056
0.000199
0.000230
0.000479
0.000305
0.000359
0.000253
0.000218
0.000252
0.000250
0.000247
0.000239
0.000250
0.000260
0.000263
0.000240
0.000238
0.000467
0.001150
0.000243
0.000238
0.000282
0.000242
0.000356
0.000422
0.000251
0.000265
0.000638
0.000350
0.000379
0.000236
0.000180
0.000056
0.000218
0.000247
0.000258
0.000265
0.000256
0.000245
0.000303
0.000474
0.000401
0.000289
0.000363
0.000391
0.000386
0.000360
0.000253
0.000245
0.000248
0.000256
0.000411
0.001419
0.000293
0.000233
0.000265
0.000274
0.000237
0.000237
0.000268
0.000316
0.000400
0.000439
0.000261
0.000055
0.000214
0.000240
0.000258
0.000231
0.000250
0.000251
0.000233
0.000261
0.000308
0.000281
0.000477
0.000392
0.000258
0.000220
0.000254
0.000259
0.000250
0.000259
0.000265
0.000249
0.000438
0.000309
0.000352
0.000386
0.000323
0.000250
0.000287
0.000256
0.000244
0.000347
0.000152
0.000055
0.000305
0.000319
0.000287
0.000460
0.000386
0.000355
0.000252
0.000239
0.000249
0.000272
0.000252
0.000265
0.000234
0.000252
0.000248
0.000226
0.000289
0.000357
0.000442
0.000378
0.000232
0.000273
0.000245
0.000243
0.000267
0.000281
0.000270
0.000257
0.000278
0.000265
0.000265
0.000056
0.000403
0.000210
0.000232
0.000249
0.000242
0.000253
0.000241
0.000253
0.000267
0.000259
0.000253
0.000232
0.000278
0.000581
0.000361
0.000299
0.000230
0.000250
0.000258
0.000263
0.000256
0.000263
0.000260
0.000261
0.000274
0.000340
0.000414
0.000559
0.000416
0.000253
0.000169
0.000056
0.000371
0.000200
0.000235
0.000246
0.000252
0.000244
0.000245
0.000246
0.000255
0.000258
0.000218
0.000270
0.000254
0.000221
0.000260
0.000253
0.000251
0.000264
0.000272
0.000261
0.000262
0.000261
0.000265
0.000258
0.000271
0.000235
0.000267
0.000278
0.000256
0.000299
0.000184
0.000056
0.000194
0.000237
0.000247
0.000247
0.000231
0.000260
0.000259
0.000242
0.000257
0.000273
0.000235
0.000228
0.000265
0.000400
0.000249
0.000279
0.000257
0.000264
0.000259
0.000281
0.000274
0.000235
0.000241
0.000258
0.000273
0.000270
0.000253
0.000247
0.000295
0.000242
0.000202
0.000056
0.000196
0.000361
0.000364
0.000280
0.000296
0.000252
0.000279
0.000253
0.000227
0.000243
0.000252
0.000270
0.000240
0.000250
0.000247
0.000260
0.000260
0.000273
0.000239
0.000264
0.000278
0.000262
0.000274
0.000260
0.000271
0.000251
0.000276
0.000254
0.000269
0.000261
0.000195
0.000055
0.000208
0.000233
0.000261
0.000264
0.000484
0.000214
0.000209
0.000252
0.000254
0.000501
0.000496
0.000253
0.000219
0.000253
0.000266
0.000268
0.000242
0.000267
0.000259
0.000266
0.000269
0.000256
0.000260
0.000286
0.000516
0.000562
0.000214
0.000301
0.000259
0.000266
0.000190
0.000056
0.000214
0.000217
0.000249
0.000253
0.000321
0.000624
0.000342
0.000374
0.000212
0.000249
0.000249
0.000254
0.000250
0.000251
0.000257
0.000271
0.000255
0.000259
0.000602
0.000409
0.000300
0.000256
0.000252
0.000283
0.000285
0.000253
0.000265
0.000269
0.000244
0.000334
0.000305
0.000057
0.000305
0.000234
0.000239
0.000237
0.000255
0.000253
0.000228
0.000247
0.000247
0.000259
0.000245
0.000252
0.000246
0.000421
0.000533
0.000433
0.000202
0.000263
0.000258
0.000247
0.000267
0.000270
0.000487
0.000226
0.000261
0.000565
0.000433
0.000495
0.000256
0.000249
0.000184
0.000056
0.000207
0.000238
0.000243
0.000244
0.000252
0.000259
0.000308
0.000744
0.000290
0.000402
0.000218
0.000263
0.000273
0.000280
0.000253
0.000249
0.000235
0.000255
0.000252
0.000319
0.000423
0.000641
0.000362
0.000255
0.000360
0.000377
0.000493
0.000231
0.000277
0.000460
0.000308
0.000056
0.000259
0.000234
0.000435
0.000229
0.000227
0.000251
0.000265
0.000258
0.000230
0.000244
0.000257
0.000402
0.000391
0.000324
0.000234
0.000240
0.000261
0.000262
0.000251
0.000279
0.000274
0.000258
0.000247
0.000270
0.000297
0.000514
0.000473
0.000240
0.000256
0.000275
0.000190
0.000055
0.000208
0.000251
0.000231
0.000242
0.000249
0.000249
0.000409
0.000437
0.000358
0.000287
0.000367
0.000229
0.000243
0.000268
0.000250
0.000240
0.000258
0.000262
0.000292
0.000366
0.000525
0.000316
0.000474
0.000279
0.000425
0.000389
0.000378
0.000241
0.000248
0.000398
0.000318
0.000055
0.000240
0.000279
0.000222
0.000254
0.000257
0.000257
0.000261
0.000235
0.000282
0.000238
0.000237
0.000336
0.000487
0.000351
0.000381
0.000222
0.000267
0.000262
0.000266
0.000235
0.000247
0.000257
0.000263
0.000274
0.000278
0.000379
0.000512
0.000405
0.000240
0.000278
0.000191
0.000056
0.000208
0.000241
0.000262
0.000240
0.000257
0.000333
0.000500
0.000498
0.000350
0.000674
0.000273
0.000209
0.000247
0.000259
0.000248
0.000264
0.000277
0.000270
0.000487
0.000456
0.001467
0.000307
0.000258
0.000258
0.000296
0.000276
0.000390
0.000385
0.000403
0.000302
0.000167
0.000056
0.000195
0.000228
0.000250
0.000247
0.000239
0.000252
0.000276
0.000246
0.000250
0.000334
0.000326
0.000388
0.000271
0.000356
0.000366
0.000341
0.000249
0.000242
0.000277
0.000254
0.000248
0.000246
0.000284
0.000241
0.000321
0.000431
0.000438
0.000309
0.000237
0.000268
0.000190
0.000055
0.000215
0.000248
0.000256
0.000254
0.000241
0.000239
0.000468
0.000215
0.000250
0.000235
0.000248
0.000254
0.000261
0.000249
0.000266
0.000255
0.000261
0.000268
0.000271
0.000255
0.000260
0.000284
0.000296
0.000263
0.000251
0.000281
0.000265
0.000262
0.000263
0.000276
0.000169
0.000055
0.000223
0.000253
0.000367
0.000340
0.000370
0.000260
0.000234
0.000248
0.000260
0.000246
0.000249
0.000254
0.000266
0.000263
0.000235
0.000245
0.000245
0.000266
0.000281
0.000339
0.000468
0.000376
0.000227
0.000262
0.000265
0.000252
0.000265
0.000254
0.000275
0.000279
0.000195
0.000056
0.000312
0.000372
0.000428
0.000212
0.000256
0.000254
0.000409
0.000224
0.000230
0.000261
0.000251
0.000331
0.000312
0.000503
0.001807
0.000249
0.000248
0.000244
0.000278
0.000243
0.000373
0.000437
0.000689
0.000201
0.000225
0.000258
0.000274
0.000428
0.000274
0.000285
0.000159
0.000056
0.000248
0.000282
0.000354
0.000309
0.000495
0.000205
0.000249
0.000244
0.000250
0.000246
0.000253
0.000243
0.000264
0.000302
0.000492
0.000411
0.000224
0.000241
0.000265
0.000259
0.000259
0.000315
0.000236
0.000279
0.000285
0.000438
0.000545
0.000446
0.000382
0.000234
0.000214
0.000055
0.000216
0.000229
0.000258
0.000225
0.000250
0.000255
0.000266
0.000268
0.000348
0.000323
0.000475
0.000358
0.000240
0.000228
0.000268
0.000281
0.000300
0.000247
0.000273
0.000274
0.000236
0.000295
0.000438
0.000439
0.000253
0.000265
0.000262
0.000451
0.000394
0.000318
0.000180
0.000056
0.000210
0.000286
0.000277
0.000504
0.000300
0.000212
0.000241
0.000260
0.000249
0.000257
0.000258
0.000257
0.000231
0.000258
0.000254
0.000321
0.000367
0.000361
0.000378
0.000265
0.000505
0.000216
0.000278
0.000278
0.000298
0.000280
0.000258
0.000278
0.000458
0.000489
0.000223
0.000056
0.000209
0.000231
0.000252
0.000243
0.000244
0.000474
0.000217
0.000256
0.000261
0.000312
0.000493
0.000618
0.000205
0.000242
0.000244
0.000250
0.000255
0.000247
0.000258
0.000252
0.000260
0.000260
0.000379
0.000407
0.000371
0.000398
0.000289
0.000330
0.000294
0.000259
0.000179
0.000056
0.000215
0.000233
0.000258
0.000480
0.000385
0.000228
0.000275
0.000215
0.000244
0.000264
0.000266
0.000233
0.000255
0.000259
0.000254
0.000262
0.000246
0.000245
0.000266
0.000423
0.000506
0.000364
0.000221
0.000250
0.000295
0.000262
0.000261
0.000257
0.000263
0.000267
0.000198
0.000055
0.000265
0.000353
0.000487
0.000243
0.000215
0.000255
0.000342
0.000443
0.000274
0.000225
0.000239
0.000271
0.000430
0.000296
0.000404
0.000304
0.000215
0.000246
0.000254
0.000273
0.000267
0.000262
0.000262
0.000271
0.000265
0.000281
0.000383
0.000458
0.000293
0.000248
0.000186
0.000056
0.000239
0.000237
0.000245
0.000253
0.000252
0.000264
0.000230
0.000259
0.000246
0.000254
0.000266
0.000239
0.000263
0.001456
0.000227
0.000256
0.000259
0.000243
0.000273
0.000276
0.000263
0.000244
0.000274
0.000253
0.000272
0.000261
0.000274
0.000273
0.000268
0.000261
0.000194
0.000055
0.000179
0.000227
0.000256
0.000247
0.000232
0.000250
0.000260
0.000259
0.000229
0.000247
0.000247
0.000265
0.000270
0.000239
0.000252
0.000264
0.000238
0.000266
0.000279
0.000246
0.000253
0.000265
0.000246
0.000249
0.001303
0.000271
0.000625
0.000316
0.000397
0.000246
0.000191
0.000056
0.000215
0.000234
0.000242
0.000250
0.000426
0.000224
0.000246
0.000240
0.000253
0.000394
0.000413
0.000349
0.000229
0.000237
0.000260
0.000263
0.000254
0.000263
0.000249
0.000266
0.000253
0.000253
0.000259
0.000418
0.000522
0.000448
0.000222
0.000266
0.001392
0.000226
0.000180
0.000055
0.000347
0.000369
0.000322
0.000267
0.000224
0.000232
0.000234
0.000246
0.000260
0.000256
0.000260
0.000252
0.000264
0.000285
0.000608
0.000318
0.000342
0.000214
0.000256
0.000261
0.000265
0.000260
0.000268
0.000265
0.000288
0.000243
0.000301
0.000604
0.000434
0.000279
0.000156
0.000055
0.000205
0.000221
0.001280
0.000410
0.000426
0.000320
0.000384
0.000488
0.000279
0.000337
0.000219
0.000235
0.000260
0.000254
0.000249
0.000265
0.000377
0.000475
0.000360
0.000389
0.000252
0.000245
0.000271
0.000495
0.000234
0.000263
0.000259
0.000284
0.000300
0.000539
0.000302
0.000055
0.000384
0.000337
0.000196
0.000231
0.001543
0.000468
0.000309
0.000253
0.000246
0.000253
0.000226
0.000237
0.000249
0.000272
0.000246
0.000260
0.000234
0.000262
0.000378
0.000438
0.000460
0.000233
0.000250
0.000257
0.000258
0.000273
0.000271
0.000235
0.000264
0.000277
0.000206
0.000057
0.000373
0.000390
0.000180
0.000229
0.000252
0.000242
0.000262
0.000234
0.000228
0.000235
0.001396
0.000483
0.000263
0.000247
0.000239
0.000253
0.000275
0.000259
0.000240
0.000277
0.000266
0.000256
0.000254
0.000464
0.000397
0.000429
0.000231
0.000270
0.000279
0.000281
0.000172
0.000056
0.000205
0.000399
0.000224
0.000236
0.000354
0.000429
0.000371
0.000317
0.000464
0.000210
0.000231
0.000249
0.000259
0.000267
0.001338
0.000359
0.000338
0.000284
0.000243
0.000269
0.000279
0.000250
0.000250
0.000263
0.000260
0.000267
0.000456
0.000430
0.000300
0.000269
0.000163
0.000056
0.000226
0.000227
0.000258
0.000235
0.000229
0.000262
0.000240
0.000249
0.000320
0.000303
0.000434
0.000318
0.000250
0.000248
0.000247
0.000271
0.000271
0.000259
0.000268
0.000231
0.000261
0.000314
0.001250
0.000254
0.000256
0.000255
0.000259
0.000269
0.000250
0.000270
0.000184
0.000055
0.000216
0.000378
0.000343
0.000364
0.000246
0.000219
0.000260
0.000260
0.000262
0.000247
0.000256
0.000263
0.000246
0.000256
0.000255
0.000259
0.000268
0.000269
0.000261
0.000250
0.000256
0.000269
0.000264
0.000282
0.000291
0.000265
0.000266
0.000256
0.000262
0.000444
0.001362
0.000056
0.000208
0.000232
0.000237
0.000240
0.000254
0.000263
0.000243
0.000227
0.000246
0.000248
0.000278
0.000252
0.000255
0.000240
0.000269
0.000223
0.001730
0.000263
0.000239
0.000260
0.000247
0.000259
0.000272
0.000259
0.000270
0.000260
0.000267
0.000278
0.000268
0.000260
0.000218
0.000056
0.000286
0.000333
0.001304
0.000220
0.000232
0.000250
0.000249
0.000254
0.000275
0.000239
0.000231
0.000360
0.000391
0.000434
0.000288
0.000218
0.000261
0.000245
0.000260
0.000255
0.000251
0.000266
0.000264
0.000286
0.000270
0.000358
0.000406
0.000356
0.000322
0.000236
0.000204
0.000056
0.000215
0.000251
0.000241
0.000248
0.000250
0.000220
0.000244
0.000250
0.000431
0.001350
0.000250
0.000210
0.000250
0.000276
0.000243
0.000274
0.000256
0.000253
0.000308
0.000401
0.000410
0.000242
0.000252
0.000247
0.000280
0.000277
0.000267
0.000297
0.000266
0.000299
0.000168
0.000055
0.000184
0.000438
0.000410
0.000214
0.000234
0.000233
0.000266
0.000260
0.000269
0.000242
0.000227
0.000255
0.000444
0.000552
0.000425
0.001462
0.000244
0.000277
0.000324
0.000346
0.000474
0.000426
0.000481
0.000387
0.000228
0.000265
0.000268
0.000274
0.000264
0.000276
0.000194
0.000055
0.000196
0.000283
0.000466
0.000452
0.000334
0.000237
0.000244
0.000236
0.000264
0.000243
0.000249
0.000261
0.000265
0.000243
0.000272
0.000295
0.000347
0.000464
0.000339
0.001327
0.000267
0.000254
0.000254
0.000261
0.000461
0.000440
0.000387
0.000254
0.000269
0.000272
0.000187
0.000055
0.000204
0.000239
0.000246
0.000244
0.000246
0.000315
0.000419
0.000397
0.000347
0.000225
0.000242
0.000259
0.000276
0.000257
0.000260
0.000260
0.000269
0.000253
0.000264
0.000281
0.000457
0.000452
0.000307
0.001354
0.000403
0.000239
0.000270
0.000408
0.000476
0.000336
0.000302
0.000055
0.000204
0.000235
0.000245
0.000247
0.000265
0.000239
0.001696
0.000221
0.000218
0.000246
0.000255
0.000250
0.000252
0.000330
0.000333
0.000272
0.000334
0.000238
0.000506
0.000416
0.000299
0.000275
0.000246
0.001430
0.000305
0.000348
0.000489
0.000400
0.000321
0.000288
0.000167
0.000055
0.000227
0.000241
0.000258
0.000256
0.000246
0.000255
0.001710
0.000239
0.000244
0.000265
0.000326
0.000406
0.001441
0.000364
0.000381
0.000242
0.000261
0.000240
0.000269
0.000269
0.001541
0.000585
0.000365
0.000296
0.000245
0.000249
0.000263
0.000281
0.000248
0.000246
0.000194
0.000056
0.000207
0.000244
0.000268
0.000246
0.000253
0.000281
0.000279
0.000263
0.000245
0.000256
0.000248
0.000250
0.000263
0.000267
0.000251
0.001492
0.000286
0.000237
0.000270
0.000271
0.000271
0.000261
0.000428
0.001269
0.000280
0.000228
0.000275
0.000256
0.000409
0.000232
0.000200
0.000055
0.000211
0.000244
0.000223
0.000246
0.000234
0.000233
0.000236
0.001680
0.000261
0.000230
0.000251
0.000365
0.000230
0.000226
0.000256
0.001379
0.000245
0.000260
0.000265
0.000243
0.000261
0.000353
0.000271
0.001318
0.000274
0.000260
0.000248
0.000266
0.001378
0.000279
0.000210
0.000055
0.000330
0.000276
0.000200
0.000244
0.000250
0.000240
0.000267
0.000263
0.000271
0.000247
0.000257
0.000267
0.000253
0.000246
0.000327
0.001478
0.000246
0.000274
0.000252
0.000245
0.000287
0.000259
0.000251
0.001573
0.000279
0.000238
0.000264
0.001281
0.000270
0.000242
0.000215
0.000056
0.000222
0.000457
0.000282
0.000214
0.000236
0.000237
0.000262
0.000256
0.000263
0.000274
0.000238
0.000257
0.000258
0.000257
0.000420
0.001225
0.000239
0.000252
0.000267
0.000273
0.000227
0.000242
0.000251
0.000332
0.001275
0.000254
0.000250
0.000252
0.000251
0.001343
0.000317
0.000057
0.000356
0.000251
0.000203
0.000229
0.000238
0.000267
0.000233
0.000249
0.000278
0.000251
0.000239
0.000255
0.000243
0.000378
0.000366
0.001490
0.000207
0.000246
0.000308
0.000504
0.000291
0.000511
0.001224
0.000289
0.000255
0.000263
0.000253
0.001307
0.000323
0.000427
0.000407
0.000056
0.000202
0.000251
0.000254
0.000253
0.000253
0.000253
0.000276
0.000247
0.000263
0.000274
0.000299
0.000489
0.001318
0.000241
0.000256
0.000266
0.000280
0.000228
0.000242
0.000240
0.000337
0.001237
0.000255
0.000254
0.000256
0.000255
0.001501
0.000680
0.000227
0.000220
0.000207
0.000057
0.000215
0.000225
0.000246
0.000236
0.000253
0.000265
0.000238
0.000271
0.000437
0.000475
0.000270
0.001488
0.000211
0.000243
0.000263
0.000252
0.000270
0.000306
0.001669
0.000253
0.000398
0.000328
0.001288
0.000381
0.000277
0.000317
0.000267
0.000275
0.000247
0.000274
0.000188
0.000056
0.000218
0.000241
0.000331
0.000223
0.000308
0.000552
0.000297
0.000291
0.001468
0.000275
0.000351
0.000265
0.000219
0.000316
0.000413
0.001295
0.000262
0.000241
0.000239
0.000260
0.001519
0.000382
0.000267
0.000284
0.000277
0.000254
0.000449
0.000329
0.000225
0.000262
0.000270
0.000055
0.000255
0.000401
0.000304
0.000260
0.000218
0.001532
0.000209
0.000251
0.000265
0.000271
0.000269
0.000238
0.000305
0.001485
0.000256
0.000224
0.000432
0.001196
0.000328
0.000429
0.000423
0.000241
0.000252
0.000240
0.000273
0.000247
0.000452
0.000228
0.000264
0.000278
0.000201
0.000055
0.000225
0.000234
0.000376
0.000404
0.001250
0.000288
0.000310
0.000242
0.000242
0.000241
0.000249
0.000448
0.001367
0.000264
0.000230
0.000241
0.001379
0.000305
0.000397
0.000404
0.000417
0.000238
0.000253
0.000244
0.000269
0.000274
0.000276
0.000255
0.000272
0.000249
0.000207
0.000055
0.000235
0.000399
0.001425
0.000209
0.000278
0.000274
0.000243
0.000249
0.000264
0.000396
0.001380
0.000213
0.000248
0.000263
0.000263
0.001265
0.000678
0.000323
0.000325
0.000408
0.000291
0.000241
0.000275
0.000261
0.000268
0.000286
0.000274
0.000336
0.000403
0.000430
0.001374
0.000055
0.000193
0.000244
0.000247
0.000219
0.000315
0.000337
0.000564
0.001229
0.000242
0.000240
0.000247
0.001431
0.000468
0.000299
0.000221
0.000405
0.000252
0.000243
0.000267
0.000282
0.000234
0.000273
0.000280
0.000255
0.000254
0.000299
0.000452
0.000449
0.001494
0.000233
0.000189
0.000055
0.000219
0.000251
0.000338
0.000547
0.001240
0.000279
0.000253
0.000258
0.000242
0.000255
0.000252
0.000282
0.000368
0.000458
0.000357
0.000227
0.000254
0.000279
0.000239
0.000279
0.000254
0.000272
0.000253
0.000274
0.000252
0.000382
0.000499
0.000341
0.000316
0.001407
0.000180
0.000057
0.000200
0.000237
0.000299
0.000440
0.000326
0.000310
0.000313
0.000354
0.000249
0.000261
0.000254
0.000266
0.000253
0.000303
0.000238
0.000279
0.000599
0.000315
0.000265
0.000394
0.000264
0.000406
0.000235
0.000243
0.000266
0.000262
0.000248
0.000289
0.000324
0.000578
0.000250
0.000055
0.000206
0.001407
0.000243
0.000327
0.000405
0.000444
0.000338
0.000324
0.000223
0.000242
0.000265
0.000241
0.000263
0.000277
0.000260
0.000270
0.000247
0.001293
0.000316
0.000262
0.000255
0.000273
0.000270
0.000279
0.000270
0.000254
0.000277
0.000245
0.000309
0.000443
0.000398
0.000058
0.000208
0.000257
0.000224
0.001493
0.000323
0.000237
0.000231
0.000248
0.000229
0.000253
0.000247
0.000270
0.000252
0.000250
0.000266
0.000257
0.000250
0.000262
0.000261
0.000258
0.001439
0.000237
0.000236
0.000271
0.000261
0.000270
0.000248
0.000258
0.000286
0.000487
0.000344
0.000056
0.000211
0.000235
0.000390
0.000280
0.000247
0.000252
0.001533
0.000341
0.000300
0.000221
0.000261
0.000316
0.000331
0.000230
0.000227
0.000250
0.000243
0.000266
0.000258
0.000260
0.000482
0.000498
0.001137
0.000272
0.000231
0.000261
0.000265
0.000262
0.000270
0.000262
0.000466
0.000055
0.000284
0.000328
0.000220
0.000236
0.000253
0.000240
0.000241
0.000231
0.000289
0.001560
0.000426
0.000271
0.000244
0.000251
0.000258
0.000246
0.000257
0.000274
0.000282
0.000307
0.000288
0.000478
0.000449
0.001380
0.000231
0.000261
0.000272
0.000264
0.000265
0.000334
0.000446
0.000056
0.000271
0.000239
0.000237
0.000240
0.000229
0.000239
0.000259
0.000248
0.000273
0.001569
0.000352
0.000260
0.000263
0.000263
0.000457
0.000265
0.000524
0.000378
0.000298
0.000326
0.000435
0.000469
0.001275
0.000249
0.000245
0.000252
0.001726
0.000444
0.000608
0.000319
0.000149
0.000055
0.000205
0.000231
0.000240
0.000233
0.000269
0.000236
0.000256
0.000491
0.000487
0.000422
0.000290
0.000218
0.000240
0.000262
0.000262
0.000262
0.000250
0.000265
0.000240
0.000273
0.000272
0.000384
0.001379
0.000223
0.000248
0.000274
0.001925
0.000357
0.000372
0.000347
0.000159
0.000057
0.000250
0.000241
0.000240
0.001622
0.000372
0.000212
0.000236
0.000264
0.000254
0.000284
0.000377
0.000368
0.000365
0.000269
0.000389
0.000422
0.000396
0.001207
0.000278
0.000228
0.000249
0.000264
0.000275
0.000403
0.000595
0.000477
0.000265
0.000260
0.000265
0.000284
0.000188
0.000055
0.000199
0.000237
0.000237
0.001538
0.000259
0.000230
0.000236
0.000256
0.000243
0.000253
0.000249
0.000270
0.000268
0.000273
0.000322
0.000283
0.000454
0.000360
0.001396
0.000224
0.000257
0.000257
0.000266
0.000296
0.000431
0.000435
0.000400
0.000277
0.000283
0.000226
0.000446
0.000055
0.000222
0.000238
0.000250
0.001526
0.000317
0.000222
0.000267
0.000247
0.000251
0.000256
0.000255
0.000253
0.000258
0.000251
0.000383
0.000521
0.001395
0.000752
0.000252
0.000338
0.000257
0.000232
0.000247
0.000279
0.001671
0.000804
0.000237
0.000261
0.000281
0.000285
0.000186
0.000056
0.000182
0.000236
0.000248
0.000243
0.000262
0.000244
0.000240
0.000259
0.000238
0.000263
0.000257
0.000287
0.000248
0.000252
0.000260
0.000250
0.000268
0.001596
0.000711
0.000411
0.000283
0.000222
0.000246
0.000283
0.000262
0.000261
0.000293
0.000242
0.001384
0.000391
0.000323
0.000056
0.000215
0.000208
0.000254
0.000248
0.000262
0.000235
0.000254
0.000247
0.000255
0.000263
0.000294
0.000434
0.000400
0.000332
0.000222
0.000245
0.000265
0.001389
0.000693
0.000513
0.000291
0.000275
0.000236
0.000247
0.000269
0.000249
0.000262
0.000266
0.001480
0.000416
0.000214
0.000055
0.000211
0.000248
0.000229
0.000247
0.000250
0.000246
0.000239
0.000245
0.000273
0.000262
0.000397
0.000425
0.000259
0.000206
0.000244
0.000251
0.000271
0.000251
0.001559
0.000638
0.000456
0.000329
0.000229
0.000257
0.000259
0.000262
0.000264
0.000281
0.000269
0.001426
0.000290
0.000055
0.000219
0.000218
0.000236
0.000259
0.000248
0.000247
0.000263
0.000299
0.000360
0.000423
0.000369
0.000387
0.000373
0.000218
0.000250
0.000251
0.000296
0.000241
0.000270
0.001895
0.000353
0.000240
0.000440
0.000251
0.000255
0.000253
0.000281
0.000246
0.000268
0.000275
0.000455
0.000057
0.000260
0.000261
0.000226
0.000240
0.000256
0.000249
0.000222
0.000245
0.000268
0.000252
0.000243
0.000239
0.000333
0.000373
0.000481
0.000465
0.000219
0.000256
0.000251
0.000256
0.000265
0.000277
0.001464
0.001060
0.000220
0.000250
0.000266
0.000267
0.000270
0.000253
0.000201
0.000055
0.000200
0.001392
0.000283
0.000196
0.000211
0.000251
0.000252
0.000238
0.000242
0.000253
0.000253
0.000265
0.000243
0.000429
0.000308
0.000460
0.000278
0.000254
0.000260
0.000271
0.000272
0.000240
0.000240
0.000266
0.001318
0.000694
0.000306
0.000378
0.000383
0.000417
0.000282
0.000055
0.000191
0.000260
0.001439
0.000250
0.000192
0.000245
0.000229
0.000256
0.000256
0.000258
0.000249
0.000250
0.000261
0.000334
0.000601
0.000292
0.000224
0.000272
0.000336
0.000213
0.000249
0.000270
0.000252
0.000256
0.000265
0.001539
0.000737
0.000295
0.000281
0.000277
0.000186
0.000056
0.000185
0.000226
0.000480
0.000384
0.001272
0.000228
0.000220
0.000241
0.000230
0.000254
0.000243
0.000257
0.000225
0.000243
0.000256
0.000254
0.000267
0.000242
0.000254
0.000257
0.000268
0.000264
0.000301
0.000340
0.000212
0.000282
0.000253
0.001513
0.000205
0.000248
0.000170
0.000055
0.000215
0.000230
0.000249
0.000267
0.000357
0.000377
0.000387
0.000271
0.001568
0.000268
0.000247
0.000502
0.000360
0.000241
0.000431
0.000236
0.000242
0.000259
0.000271
0.000272
0.000275
0.000270
0.000259
0.000270
0.000245
0.000408
0.000389
0.001688
0.000241
0.000227
0.000190
0.000057
0.000234
0.000238
0.000252
0.000242
0.000242
0.000243
0.000266
0.000267
0.000435
0.002050
0.000235
0.000243
0.000256
0.000259
0.000260
0.000249
0.000279
0.000252
0.000271
0.000429
0.000410
0.000405
0.001450
0.000259
0.000521
0.000234
0.001761
0.000250
0.000255
0.001523
0.000169
0.000056
0.000194
0.000512
0.000389
0.000246
0.000264
0.000224
0.000260
0.000272
0.000261
0.000221
0.000257
0.000342
0.000404
0.000346
0.000482
0.000196
0.000227
0.001566
0.000228
0.000629
0.001837
0.000286
0.000243
0.001554
0.002002
0.000750
0.000276
0.000255
0.000275
0.000521
0.000308
0.000056
0.000233
0.000259
0.000229
0.000254
0.001410
0.001738
0.001074
0.000215
0.000229
0.001576
0.001986
0.000216
0.000232
0.000429
0.000324
0.000334
0.000395
0.000505
0.000209
0.000232
0.000257
0.000254
0.000273
0.001635
0.001163
0.001423
0.000272
0.000304
0.000256
0.000312
0.000346
0.000055
0.000218
0.000228
0.000237
0.000243
0.000233
0.000260
0.000230
0.000251
0.000261
0.000246
0.000239
0.000316
0.000400
0.000503
0.000265
0.000275
0.000246
0.000271
0.000270
0.000280
0.000243
0.000262
0.001620
0.000369
0.002109
0.000228
0.000282
0.000377
0.000400
0.000375
0.000190
0.000056
0.000261
0.000326
0.000463
0.000311
0.000196
0.000236
0.000248
0.000242
0.000243
0.000242
0.000262
0.000252
0.000261
0.001601
0.001362
0.001219
0.000273
0.000240
0.000247
0.000273
0.000284
0.000281
0.000236
0.000256
0.002205
0.000243
0.000253
0.000299
0.000324
0.000304
0.000218
0.000055
0.000207
0.000367
0.000540
0.000338
0.000231
0.000227
0.000244
0.000267
0.001898
0.001425
0.000220
0.000335
0.000383
0.000410
0.000256
0.000216
0.000269
0.000268
0.000267
0.000260
0.000261
0.000279
0.000447
0.000242
0.000269
0.000269
0.000250
0.000275
0.000282
0.000248
0.000206
0.000055
0.000214
0.000247
0.000253
0.000235
0.000267
0.000262
0.001540
0.001409
0.001332
0.000237
0.000237
0.000239
0.000262
0.000266
0.000245
0.000253
0.000262
0.002088
0.000256
0.000235
0.000257
0.000269
0.000249
0.000275
0.000263
0.000253
0.000272
0.000257
0.000278
0.000251
0.000187
0.000057
0.000192
0.002681
0.001389
0.000222
0.000306
0.000298
0.000231
0.000262
0.000261
0.000246
0.000254
0.000246
0.000232
0.000250
0.000266
0.000258
0.000269
0.000259
0.000262
0.000264
0.000281
0.000276
0.000272
0.000261
0.000245
0.000245
0.000267
0.000266
0.000267
0.000268
0.000388
0.000056
0.001548
0.000245
0.001244
0.000225
0.000230
0.000268
0.000233
0.000253
0.000247
0.000270
0.000415
0.000328
0.000345
0.000225
0.000244
0.002147
0.000241
0.000249
0.000257
0.000508
0.000393
0.000292
0.000224
0.000252
0.000269
0.000249
0.000279
0.000264
0.000275
0.001630
0.001229
0.000055
0.000197
0.000235
0.000315
0.000409
0.000323
0.000288
0.000222
0.000220
0.000253
0.000255
0.000270
0.000247
0.000230
0.000250
0.000264
0.000236
0.000362
0.000580
0.000365
0.000245
0.000225
0.000269
0.000281
0.000249
0.000251
0.000266
0.000249
0.000274
0.000244
0.000337
0.000341
0.000056
0.001123
0.000232
0.000402
0.000378
0.000306
0.000230
0.000225
0.000238
0.000249
0.002300
0.000365
0.000387
0.000225
0.000375
0.000275
0.000262
0.000261
0.000262
0.000267
0.000237
0.000240
0.000327
0.000661
0.000335
0.001873
0.001307
0.000537
0.000540
0.000221
0.000280
0.000194
0.000056
0.000324
0.000262
0.000246
0.000245
0.000243
0.000234
0.000253
0.000258
0.000252
0.000247
0.000254
0.000246
0.000238
0.000255
0.000416
0.000544
0.001771
0.001342
0.000424
0.000443
0.000452
0.000245
0.000243
0.000262
0.002163
0.000521
0.000388
0.000233
0.000275
0.000282
0.000194
0.000056
0.000214
0.000246
0.000252
0.000243
0.000243
0.000382
0.000373
0.000366
0.000242
0.000243
0.000247
0.000250
0.000264
0.002107
0.000407
0.000350
0.000216
0.000248
0.000265
0.000262
0.000247
0.002465
0.000333
0.000221
0.000260
0.000261
0.000249
0.000273
0.000284
0.000276
0.000192
0.000055
0.000254
0.000283
0.000564
0.000364
0.000264
0.000213
0.000236
0.000257
0.000261
0.000259
0.001938
0.000397
0.000271
0.000297
0.000223
0.000263
0.000272
0.000239
0.002209
0.000451
0.000218
0.000267
0.000268
0.000254
0.000278
0.000231
0.000282
0.000256
0.000266
0.000253
0.000185
0.000055
0.000224
0.000239
0.000248
0.000222
0.000246
0.000260
0.000235
0.000247
0.000230
0.002175
0.000232
0.000276
0.000228
0.000423
0.000232
0.000248
0.000278
0.000287
0.000244
0.000263
0.001964
0.000285
0.000376
0.000372
0.000393
0.000393
0.000310
0.000254
0.000257
0.000251
0.000196
0.000056
0.000214
0.000228
0.000242
0.000254
0.000382
0.000188
0.000232
0.002290
0.000243
0.000235
0.000260
0.000260
0.000236
0.000250
0.000306
0.002118
0.000593
0.000231
0.000252
0.000242
0.000258
0.000256
0.000289
0.000270
0.000259
0.000253
0.000300
0.000242
0.000264
0.000266
0.000194
0.000055
0.001819
0.001444
0.000192
0.000235
0.000248
0.000251
0.000250
0.000282
0.000414
0.000406
0.002095
0.000263
0.000229
0.000266
0.000278
0.000524
0.000383
0.000298
0.000234
0.000246
0.000248
0.000267
0.000266
0.000231
0.000255
0.000261
0.000269
0.000271
0.000318
0.000648
0.000318
0.000056
0.000197
0.000244
0.000262
0.000250
0.000263
0.000244
0.000255
0.000237
0.001526
0.002072
0.000582
0.000289
0.000395
0.000694
0.000351
0.000239
0.000253
0.000262
0.000252
0.000262
0.000256
0.000247
0.000250
0.000266
0.001824
0.001458
0.000292
0.000267
0.000284
0.000362
0.000343
0.000055
0.001939
0.000224
0.000232
0.000230
0.000305
0.000342
0.000447
0.000305
0.000291
0.000214
0.000252
0.000250
0.000257
0.000252
0.000266
0.000260
0.000255
0.000266
0.001846
0.000238
0.000231
0.000259
0.000272
0.000277
0.000273
0.000256
0.001458
0.000330
0.000257
0.000259
0.000173
0.000056
0.000197
0.000236
0.000265
0.000218
0.000253
0.000242
0.000363
0.000314
0.000472
0.000236
0.000242
0.000221
0.000259
0.000334
0.000431
0.000307
0.000226
0.000250
0.000268
0.000368
0.000407
0.000499
0.000250
0.000248
0.000261
0.000254
0.000265
0.000260
0.000272
0.000268
0.000198
0.000056
0.001432
0.000432
0.000226
0.001939
0.000265
0.000452
0.000414
0.000312
0.000231
0.000244
0.000268
0.000242
0.000247
0.000253
0.000259
0.000258
0.000451
0.000278
0.000470
0.000325
0.000352
0.000231
0.000252
0.000270
0.000271
0.000269
0.000264
0.000263
0.000386
0.000477
0.001330
0.000055
0.000212
0.000221
0.002073
0.000378
0.000239
0.000259
0.000270
0.000231
0.000267
0.000261
0.000217
0.000252
0.000269
0.000251
0.000257
0.000354
0.000714
0.001762
0.000224
0.000251
0.000255
0.000266
0.000403
0.000428
0.001570
0.000276
0.000364
0.001927
0.000259
0.000259
0.000192
0.000055
0.000213
0.000232
0.000231
0.000239
0.000233
0.000252
0.000267
0.000264
0.000329
0.000277
0.000380
0.000356
0.000335
0.000306
0.000230
0.000278
0.000258
0.000239
0.000268
0.000250
0.000303
0.000287
0.000268
0.000267
0.000267
0.001506
0.000292
0.000389
0.002067
0.000232
0.000175
0.000055
0.000232
0.000247
0.000232
0.000247
0.000484
0.000209
0.000260
0.000333
0.000329
0.000363
0.000280
0.000213
0.000269
0.000262
0.000273
0.000320
0.000390
0.000465
0.000263
0.000388
0.000528
0.000488
0.001543
0.000233
0.000250
0.001970
0.000346
0.000246
0.000246
0.000295
0.000186
0.000056
0.000215
0.000243
0.000226
0.000243
0.000254
0.000261
0.000261
0.000267
0.000253
0.000248
0.001821
0.000331
0.000375
0.000352
0.000388
0.000365
0.000343
0.001505
0.000247
0.000276
0.002097
0.000583
0.000258
0.000241
0.000267
0.000265
0.000503
0.000227
0.000251
0.000280
0.000195
0.000055
0.000284
0.000357
0.000358
0.000305
0.000204
0.000245
0.000256
0.000251
0.000269
0.000296
0.000219
0.000236
0.000258
0.000259
0.000338
0.001522
0.000319
0.000210
0.000280
0.002019
0.000243
0.000295
0.000250
0.000263
0.000250
0.000279
0.000267
0.000265
0.000243
0.000280
0.000195
0.000056
0.000283
0.000384
0.002014
0.000255
0.000257
0.000234
0.000240
0.000304
0.000441
0.000418
0.001309
0.000372
0.000347
0.002095
0.000199
0.000236
0.000275
0.000275
0.000252
0.000250
0.000274
0.000297
0.000255
0.000431
0.000419
0.000372
0.000306
0.002224
0.000491
0.000549
0.000338
0.000055
0.000204
0.000238
0.000246
0.001966
0.000249
0.000214
0.000235
0.000243
0.000245
0.000258
0.000243
0.000259
0.000250
0.000260
0.000440
0.001499
0.000236
0.000255
0.000268
0.000258
0.000229
0.000262
0.000257
0.000270
0.000460
0.000289
0.000504
0.000233
0.001598
0.000275
0.000165
0.000056
0.000193
0.000235
0.000245
0.000230
0.000252
0.000253
0.000250
0.000252
0.000257
0.000404
0.000387
0.001363
0.000241
0.000218
0.000248
0.000266
0.000255
0.000254
0.000496
0.000297
0.000485
0.000349
0.000229
0.001570
0.000230
0.000262
0.000289
0.000279
0.000266
0.000268
0.000194
0.000055
0.000210
0.000231
0.000267
0.000269
0.000247
0.000245
0.000240
0.000236
0.000263
0.000238
0.000252
0.000276
0.000234
0.001483
0.000366
0.000212
0.000250
0.000264
0.000301
0.000284
0.000447
0.000213
0.000237
0.000262
0.000258
0.000266
0.000260
0.001409
0.000278
0.000229
0.000182
0.000055
0.000225
0.000221
0.000254
0.000258
0.000256
0.000232
0.000251
0.000259
0.000220
0.000266
0.000246
0.000258
0.000228
0.000289
0.000378
0.000398
0.000232
0.000235
0.001634
0.000245
0.000239
0.000265
0.000263
0.000305
0.000364
0.000388
0.000452
0.000266
0.000242
0.001609
0.000161
0.000055
0.000310
0.000398
0.000293
0.000316
0.000233
0.000219
0.000241
0.000274
0.000257
0.000234
0.000245
0.000242
0.001480
0.000282
0.000305
0.000215
0.000252
0.000255
0.000268
0.000269
0.000251
0.000233
0.000263
0.000275
0.000248
0.000362
0.000463
0.000398
0.000235
0.000261
0.000185
0.000055
0.000198
0.000234
0.000466
0.000316
0.000376
0.000281
0.000250
0.000251
0.000248
0.000257
0.000243
0.000230
0.000256
0.000247
0.001250
0.000300
0.000242
0.000254
0.000261
0.000266
0.000240
0.000266
0.000252
0.000261
0.000253
0.000257
0.000383
0.000676
0.000395
0.000227
0.000186
0.000055
0.000194
0.001583
0.000227
0.000304
0.000484
0.000379
0.000217
0.000264
0.000255
0.000261
0.000233
0.000263
0.000271
0.000272
0.000260
0.001532
0.000243
0.000289
0.000261
0.000255
0.000264
0.000247
0.000272
0.000259
0.000259
0.000291
0.000437
0.000300
0.000392
0.000250
0.000189
0.000056
0.000193
0.000254
0.000239
0.001602
0.000420
0.000352
0.000237
0.000236
0.000248
0.000273
0.000275
0.000257
0.000245
0.000261
0.000230
0.000282
0.000445
0.001275
0.000257
0.000228
0.001497
0.000555
0.000303
0.000419
0.000336
0.000236
0.000284
0.000451
0.000235
0.000259
0.000185
0.000055
0.000284
0.000221
0.000249
0.000248
0.000259
0.000243
0.000239
0.000257
0.000258
0.000233
0.000255
0.000267
0.000367
0.000438
0.001667
0.001494
0.000357
0.000489
0.000377
0.000231
0.000229
0.000258
0.000263
0.000257
0.000248
0.000275
0.000250
0.000265
0.001522
0.000330
0.000172
0.000056
0.000217
0.000357
0.000353
0.000330
0.000225
0.000230
0.000251
0.000390
0.000394
0.000384
0.002144
0.000324
0.000699
0.000521
0.000446
0.000267
0.000331
0.000417
0.000306
0.000279
0.000391
0.000241
0.001560
0.000532
0.000216
0.000298
0.000237
0.000232
0.000278
0.000253
0.000199
0.000055
0.000203
0.000246
0.000260
0.000248
0.000243
0.001662
0.000878
0.000992
0.000206
0.000239
0.000257
0.000259
0.000261
0.000263
0.000250
0.000251
0.000254
0.000265
0.000263
0.000279
0.001429
0.000319
0.000253
0.000228
0.000235
0.000259
0.000265
0.000281
0.000264
0.000286
0.001889
0.000056
0.000195
0.000228
0.001550
0.000855
0.000365
0.000372
0.000248
0.000224
0.000250
0.000261
0.000250
0.000239
0.000248
0.001980
0.000479
0.000243
0.000222
0.000259
0.000265
0.000256
0.000191
