0.000414
0.019913
0.001323
0.000357
0.000256
0.000284
0.000308
0.000247
0.000333
0.000280
0.000250
0.000344
0.000593
0.000403
0.000387
0.000437
0.000191
0.000348
0.000349
0.000420
0.000307
0.001940
0.000679
0.000246
0.000257
0.000305
0.000299
0.000340
0.000427
0.000468
0.000395
0.000318
0.000058
0.000206
0.000268
0.000271
0.000261
0.000301
0.000222
0.000277
0.000260
0.000281
0.000304
0.000405
0.000467
0.000289
0.000264
0.000414
0.000301
0.000364
0.000254
0.000232
0.001748
0.000289
0.000241
0.000456
0.000244
0.000268
0.000275
0.000294
0.000298
0.000282
0.000315
0.000428
0.000057
0.000243
0.000254
0.000262
0.000264
0.000253
0.000242
0.000260
0.000260
0.000284
0.001667
0.000258
0.000251
0.000261
0.000250
0.000263
0.000260
0.000263
0.000357
0.000315
0.001731
0.000235
0.000279
0.000449
0.000469
0.000357
0.000240
0.000342
0.000365
0.000536
0.000724
0.000210
0.000056
0.000215
0.000248
0.000254
0.000244
0.000294
0.000260
0.000310
0.000558
0.000385
0.000255
0.000244
0.000237
0.000247
0.000252
0.000258
0.000250
0.000244
0.000266
0.000321
0.000305
0.001669
0.000280
0.000248
0.000421
0.000284
0.000711
0.000644
0.000561
0.000333
0.000236
0.000182
0.000056
0.000208
0.000250
0.000271
0.000236
0.000259
0.000253
0.000263
0.000536
0.001388
0.000215
0.000244
0.000244
0.000257
0.000260
0.000263
0.000278
0.000425
0.000745
0.001303
0.000275
0.000468
0.000258
0.000207
0.000237
0.000253
0.000262
0.000259
0.000274
0.000259
0.000271
0.000193
0.000056
0.000201
0.000246
0.000243
0.000268
0.000232
0.000247
0.000239
0.000255
0.000237
0.000259
0.001624
0.000262
0.000237
0.000237
0.000256
0.000252
0.000245
0.000244
0.000254
0.000274
0.000254
0.001667
0.000283
0.000246
0.000448
0.000250
0.000243
0.000266
0.000284
0.000257
0.000192
0.000056
0.000192
0.000228
0.000249
0.000247
0.000246
0.000244
0.000262
0.000234
0.000267
0.000242
0.000263
0.000258
0.000277
0.000250
0.001645
0.000275
0.000299
0.000210
0.000253
0.000275
0.000261
0.000244
0.000237
0.000272
0.001791
0.000348
0.000385
0.000341
0.000253
0.000284
0.000200
0.000057
0.000196
0.000234
0.000247
0.000265
0.000258
0.000238
0.000283
0.000415
0.000426
0.000407
0.000211
0.000251
0.000252
0.000255
0.001557
0.000527
0.000315
0.000468
0.000268
0.000229
0.000267
0.000298
0.000256
0.001732
0.000495
0.000487
0.000241
0.000239
0.000261
0.000278
0.000164
0.000058
0.000204
0.000228
0.000257
0.000306
0.000286
0.000480
0.000352
0.000284
0.000204
0.000251
0.000260
0.000237
0.000258
0.001742
0.000503
0.000245
0.000220
0.000256
0.000270
0.000279
0.000251
0.000261
0.000272
0.001929
0.000269
0.000384
0.000265
0.000238
0.000268
0.000411
0.000325
0.000057
0.000224
0.000412
0.000288
0.000301
0.000256
0.000242
0.000254
0.000257
0.000244
0.000229
0.000238
0.000248
0.001553
0.000436
0.000230
0.000218
0.000265
0.000256
0.000239
0.000285
0.000275
0.000328
0.000243
0.001815
0.000262
0.000491
0.000237
0.000256
0.000253
0.000275
0.000269
0.000057
0.000320
0.000549
0.000608
0.000217
0.000227
0.000277
0.000228
0.000219
0.000262
0.000252
0.000255
0.001701
0.000246
0.000446
0.000366
0.000217
0.000241
0.000228
0.000249
0.000275
0.000241
0.001868
0.000233
0.000243
0.002082
0.000515
0.000361
0.000241
0.000258
0.000262
0.000183
0.000056
0.000207
0.000230
0.000248
0.000239
0.000259
0.001625
0.000247
0.000234
0.000259
0.000248
0.000242
0.000243
0.000246
0.000255
0.000291
0.000378
0.000649
0.000254
0.000236
0.000265
0.000268
0.000247
0.000243
0.000439
0.000429
0.000277
0.000336
0.000654
0.000348
0.000261
0.000196
0.000056
0.000214
0.000237
0.000249
0.000252
0.000236
0.000239
0.000240
0.000363
0.000463
0.001733
0.000217
0.000231
0.000260
0.000236
0.000257
0.000267
0.000488
0.000448
0.000330
0.000239
0.000256
0.000301
0.000287
0.000269
0.000262
0.000435
0.000344
0.000581
0.000486
0.000466
0.000151
0.000056
0.000183
0.000282
0.000225
0.000226
0.000238
0.000241
0.000246
0.000250
0.000237
0.000304
0.000366
0.000424
0.001376
0.000241
0.000232
0.000243
0.000263
0.000248
0.000247
0.000267
0.000309
0.000408
0.000416
0.000271
0.000256
0.000260
0.000257
0.000269
0.000265
0.000263
0.000387
0.000056
0.000203
0.000242
0.000231
0.000292
0.000539
0.000441
0.000195
0.000259
0.000237
0.000260
0.000244
0.000241
0.000297
0.000247
0.000234
0.000491
0.000499
0.001562
0.000285
0.000216
0.000278
0.000254
0.000253
0.000239
0.000264
0.000484
0.000398
0.000369
0.000426
0.000225
0.000203
0.000056
0.000232
0.000437
0.000232
0.000219
0.000259
0.000248
0.000427
0.000468
0.000280
0.000335
0.000223
0.000272
0.000271
0.000235
0.000516
0.000353
0.000213
0.000243
0.000533
0.001520
0.000263
0.000237
0.000535
0.000240
0.000280
0.000270
0.000257
0.000468
0.000477
0.000380
0.000228
0.000056
0.000203
0.000239
0.000234
0.000238
0.000418
0.000303
0.000296
0.000246
0.000414
0.000443
0.000363
0.000264
0.000221
0.000257
0.000249
0.000270
0.000254
0.000257
0.000234
0.000343
0.000291
0.000311
0.001875
0.000233
0.000260
0.000254
0.000294
0.000349
0.000415
0.000716
0.000407
0.000057
0.000246
0.000332
0.000278
0.000422
0.000390
0.000203
0.000260
0.000243
0.000601
0.000380
0.000266
0.000232
0.000239
0.000268
0.000264
0.000231
0.000255
0.000269
0.000273
0.000260
0.000263
0.000502
0.000607
0.001298
0.000339
0.000437
0.000414
0.000248
0.000466
0.000417
0.000308
0.000056
0.000249
0.000380
0.000283
0.000199
0.000224
0.000245
0.000419
0.000232
0.000228
0.000386
0.000438
0.000429
0.000230
0.000261
0.000262
0.000250
0.000369
0.000391
0.000346
0.000236
0.000238
0.000504
0.000529
0.001667
0.000231
0.000472
0.000281
0.000227
0.000286
0.000461
0.000274
0.000057
0.000193
0.000225
0.000242
0.000245
0.000250
0.000246
0.000251
0.000324
0.000464
0.000289
0.000447
0.000368
0.000269
0.000578
0.000247
0.000239
0.000272
0.000266
0.000234
0.000356
0.000232
0.000225
0.000277
0.000372
0.000573
0.001611
0.000272
0.000241
0.000241
0.000266
0.000186
0.000056
0.000248
0.000545
0.000259
0.000222
0.000260
0.000232
0.000260
0.000239
0.000263
0.000245
0.000222
0.000250
0.000442
0.000678
0.000256
0.000250
0.000245
0.000246
0.000364
0.000378
0.000381
0.000373
0.000381
0.000328
0.000245
0.000250
0.000263
0.000279
0.001786
0.000253
0.000212
0.000057
0.000191
0.000226
0.000258
0.000271
0.000383
0.000530
0.000306
0.000214
0.000257
0.000259
0.000247
0.000254
0.000789
0.000214
0.000449
0.000285
0.000268
0.000258
0.000418
0.000467
0.000391
0.000449
0.000550
0.000306
0.000241
0.000238
0.000270
0.000240
0.000268
0.001717
0.000380
0.000056
0.000293
0.000328
0.000202
0.000232
0.000271
0.000236
0.000242
0.000506
0.000368
0.000311
0.000305
0.000286
0.000557
0.000402
0.000354
0.000227
0.000252
0.000248
0.000257
0.000271
0.000260
0.000264
0.000245
0.000268
0.000345
0.000342
0.000393
0.000358
0.000238
0.000244
0.000202
0.000056
0.000452
0.000312
0.000447
0.000250
0.000202
0.000246
0.000246
0.000254
0.000238
0.000222
0.000248
0.000282
0.000296
0.000391
0.000478
0.000526
0.000288
0.000316
0.000386
0.000338
0.000290
0.000231
0.000252
0.000257
0.001754
0.000257
0.001713
0.000939
0.000429
0.000294
0.000174
0.000057
0.000185
0.000242
0.000231
0.000259
0.000244
0.000247
0.000253
0.000255
0.000241
0.000320
0.000357
0.000433
0.000347
0.000382
0.000236
0.000266
0.000241
0.000300
0.000218
0.000244
0.000258
0.000259
0.001819
0.000237
0.000249
0.000264
0.000295
0.000245
0.001941
0.000469
0.000263
0.000056
0.000197
0.000216
0.000256
0.000227
0.000252
0.000248
0.000244
0.000252
0.000256
0.000486
0.000497
0.000460
0.000233
0.000200
0.000233
0.000252
0.000337
0.000440
0.000392
0.000235
0.001761
0.000253
0.000246
0.000260
0.000266
0.000254
0.000242
0.000251
0.000334
0.000345
0.000320
0.000057
0.000268
0.000199
0.000232
0.000263
0.000247
0.000241
0.000258
0.000259
0.000236
0.000257
0.000243
0.000285
0.000352
0.000436
0.000320
0.000268
0.000476
0.000231
0.000238
0.000263
0.000265
0.000251
0.000281
0.000252
0.000282
0.001794
0.000249
0.000226
0.000274
0.000247
0.000198
0.000056
0.000379
0.000253
0.000196
0.000199
0.000235
0.000237
0.000244
0.000269
0.000229
0.000230
0.000238
0.000252
0.000260
0.000415
0.000409
0.000358
0.000231
0.000240
0.000257
0.000247
0.000264
0.000260
0.000247
0.000276
0.000250
0.000261
0.000311
0.001636
0.000269
0.000235
0.000182
0.000057
0.000209
0.000225
0.000254
0.000265
0.000339
0.000360
0.000413
0.000302
0.000218
0.000262
0.000245
0.000244
0.000242
0.000261
0.000274
0.000243
0.000251
0.000252
0.000257
0.000255
0.000268
0.000267
0.000254
0.000229
0.000238
0.000287
0.000275
0.000260
0.000257
0.000263
0.000190
0.000062
0.000204
0.000228
0.000255
0.000259
0.000233
0.000254
0.000243
0.000264
0.000278
0.000235
0.000231
0.000248
0.000258
0.000251
0.000272
0.000279
0.000232
0.000251
0.000296
0.000253
0.000272
0.000295
0.000270
0.000242
0.000286
0.000274
0.000268
0.000246
0.000295
0.000403
0.000680
0.000058
0.000228
0.000290
0.000219
0.000221
0.000239
0.000257
0.000240
0.000248
0.000248
0.000242
0.000275
0.000314
0.000469
0.000617
0.001396
0.000235
0.000484
0.000226
0.000299
0.000449
0.000414
0.000378
0.000223
0.000279
0.000250
0.000261
0.000284
0.000252
0.000306
0.000259
0.000184
0.000073
0.000327
0.000409
0.000324
0.000328
0.000211
0.000265
0.000246
0.000239
0.000243
0.000236
0.000261
0.000254
0.000228
0.000293
0.000327
0.000687
0.000210
0.001808
0.000224
0.000257
0.000349
0.000422
0.000464
0.000270
0.000318
0.000316
0.000307
0.000226
0.000228
0.000256
0.000202
0.000056
0.000217
0.000228
0.000237
0.000323
0.000311
0.000503
0.000292
0.000259
0.000251
0.000211
0.000253
0.000269
0.000266
0.000261
0.000246
0.000253
0.000363
0.000468
0.000402
0.000353
0.000226
0.001752
0.000333
0.000493
0.000577
0.000381
0.000338
0.000222
0.000251
0.000268
0.000444
0.000056
0.000208
0.000262
0.000228
0.000406
0.000296
0.000471
0.000377
0.000217
0.000235
0.000292
0.000244
0.000262
0.000252
0.000314
0.000294
0.000241
0.000225
0.000432
0.000477
0.000295
0.000484
0.001849
0.000244
0.000507
0.000462
0.000345
0.000227
0.000243
0.000295
0.000257
0.000207
0.000056
0.000222
0.000333
0.000358
0.000308
0.000420
0.000347
0.000302
0.000216
0.000241
0.000254
0.000280
0.000234
0.000232
0.000252
0.000246
0.000285
0.000304
0.000351
0.000589
0.000326
0.000292
0.000210
0.000267
0.001713
0.000414
0.000515
0.000694
0.000237
0.000367
0.000203
0.000155
0.000056
0.000192
0.000238
0.000325
0.000255
0.000280
0.000367
0.000411
0.000307
0.000233
0.000525
0.000251
0.000232
0.000260
0.000279
0.000271
0.000264
0.000216
0.000340
0.000493
0.000427
0.000268
0.000222
0.000254
0.000259
0.000261
0.000272
0.000232
0.000252
0.000264
0.000295
0.000227
0.000056
0.000357
0.000277
0.000226
0.000229
0.000249
0.000256
0.000240
0.000300
0.000230
0.000244
0.000262
0.000370
0.000416
0.000414
0.000331
0.000270
0.000229
0.000229
0.000250
0.000264
0.000307
0.000251
0.000232
0.000257
0.000283
0.000299
0.000409
0.000370
0.000373
0.000238
0.000181
0.000057
0.000217
0.000211
0.000282
0.000242
0.000234
0.000252
0.000257
0.000261
0.000485
0.000215
0.000257
0.000255
0.000245
0.000271
0.000267
0.000279
0.000257
0.000343
0.000222
0.000241
0.000256
0.000268
0.000254
0.000273
0.000272
0.000259
0.000264
0.000256
0.000526
0.000242
0.000146
0.000057
0.000200
0.000237
0.000246
0.000269
0.000221
0.000250
0.000363
0.000416
0.000229
0.000236
0.000250
0.000256
0.000235
0.000274
0.000447
0.001769
0.000227
0.000269
0.000281
0.000398
0.000366
0.000356
0.000509
0.000320
0.000303
0.000420
0.000239
0.000259
0.000271
0.000272
0.001407
0.000057
0.000398
0.000281
0.000293
0.000214
0.000231
0.000252
0.000230
0.000256
0.000244
0.000266
0.000254
0.000255
0.000252
0.000258
0.000599
0.001612
0.000241
0.000225
0.000242
0.000266
0.000237
0.000268
0.000373
0.000407
0.000265
0.000356
0.000220
0.000267
0.000285
0.000255
0.000175
0.000056
0.001212
0.000563
0.000291
0.000255
0.000250
0.000205
0.000234
0.000243
0.000485
0.000227
0.000237
0.000260
0.000327
0.000562
0.000366
0.000351
0.000234
0.000235
0.000344
0.000343
0.000272
0.000253
0.000273
0.000248
0.000303
0.000533
0.000632
0.000202
0.000249
0.000263
0.000165
0.000057
0.000229
0.000200
0.000243
0.000248
0.001528
0.000238
0.000226
0.000253
0.000232
0.000255
0.000260
0.000246
0.000244
0.000263
0.000271
0.000278
0.000481
0.000612
0.000275
0.001746
0.000262
0.000281
0.000287
0.000414
0.000563
0.000403
0.000246
0.000246
0.000260
0.000269
0.000196
0.000056
0.000217
0.000249
0.000245
0.000290
0.001287
0.000224
0.000258
0.000261
0.000237
0.000238
0.000237
0.000246
0.000281
0.000251
0.000247
0.000261
0.000486
0.000430
0.000323
0.000255
0.000269
0.000275
0.000249
0.000230
0.000294
0.000260
0.000240
0.000275
0.000276
0.000319
0.000594
0.000056
0.000219
0.000244
0.000240
0.000264
0.000256
0.000244
0.000249
0.000251
0.000266
0.000254
0.001449
0.000220
0.000229
0.000250
0.000245
0.000244
0.000265
0.000265
0.000268
0.000258
0.000274
0.000481
0.000487
0.000363
0.000227
0.000271
0.001763
0.000261
0.000248
0.000346
0.000468
0.000056
0.000196
0.000392
0.000448
0.000502
0.000516
0.000547
0.001500
0.000413
0.000520
0.000651
0.000552
0.000704
0.000499
0.000618
0.000579
0.001880
0.000409
0.000433
0.000397
0.000319
0.000227
0.000305
0.000256
0.000266
0.000250
0.000298
0.000297
0.000283
0.000251
0.000291
0.001372
0.000056
0.000208
0.000218
0.000235
0.000245
0.000260
0.000259
0.000233
0.000237
0.000254
0.000250
0.000234
0.000251
0.000249
0.000258
0.000272
0.000267
0.001810
0.000286
0.000242
0.000252
0.000262
0.000259
0.000284
0.000308
0.000304
0.000487
0.000346
0.000217
0.000261
0.000300
0.000187
0.000056
0.000196
0.001372
0.000325
0.000262
0.000257
0.000234
0.000250
0.000231
0.000240
0.000247
0.000204
0.000251
0.000260
0.000488
0.000366
0.000282
0.000260
0.000262
0.001926
0.000237
0.000236
0.000286
0.000236
0.000271
0.000264
0.000279
0.000274
0.000253
0.000269
0.000319
0.000206
0.000055
0.000213
0.000237
0.000249
0.001457
0.000210
0.000245
0.000238
0.000253
0.000233
0.000268
0.000252
0.000249
0.000243
0.000258
0.000257
0.000258
0.000267
0.000287
0.000249
0.000249
0.000266
0.001771
0.000278
0.001759
0.000268
0.000247
0.000272
0.000257
0.000264
0.000277
0.000200
0.000056
0.000183
0.000241
0.001348
0.000233
0.000260
0.000227
0.000265
0.000254
0.000243
0.000248
0.000255
0.000245
0.000262
0.000260
0.000257
0.000264
0.000260
0.000298
0.000281
0.000231
0.001885
0.000230
0.001838
0.000252
0.000242
0.000276
0.000235
0.000243
0.000261
0.000264
0.000194
0.000056
0.001456
0.000218
0.000229
0.000238
0.000237
0.000240
0.000374
0.000270
0.000244
0.000256
0.000252
0.000265
0.000261
0.000374
0.000363
0.000305
0.000231
0.000273
0.000241
0.000260
0.000266
0.000355
0.000222
0.000241
0.000268
0.000279
0.000298
0.000288
0.000682
0.000359
0.000190
0.000058
0.000207
0.000249
0.000262
0.000301
0.000361
0.000258
0.001679
0.000325
0.000281
0.000262
0.000259
0.000272
0.000272
0.000257
0.000303
0.000310
0.000411
0.000484
0.000404
0.000250
0.000295
0.000275
0.000263
0.000269
0.000341
0.000251
0.000267
0.000242
0.000255
0.000313
0.000421
0.000057
0.000253
0.000469
0.000265
0.000266
0.000248
0.000228
0.000248
0.000224
0.000257
0.000258
0.001518
0.000233
0.000214
0.000252
0.000242
0.000292
0.000271
0.000241
0.000259
0.000267
0.000264
0.000373
0.000556
0.000298
0.000265
0.000295
0.000265
0.000257
0.000229
0.000319
0.000168
0.000058
0.000197
0.000217
0.000273
0.000508
0.000380
0.000240
0.000223
0.000236
0.000254
0.000249
0.000230
0.000257
0.000262
0.000261
0.000244
0.000228
0.000398
0.001233
0.000237
0.000236
0.000289
0.000242
0.000360
0.000416
0.000241
0.000411
0.000503
0.000463
0.000260
0.000245
0.000178
0.000058
0.000217
0.000245
0.000263
0.000261
0.000253
0.000246
0.000376
0.000350
0.000454
0.000297
0.000367
0.000390
0.000391
0.000366
0.000247
0.000231
0.000241
0.000262
0.000416
0.000461
0.001260
0.000218
0.000269
0.000271
0.000235
0.000240
0.000264
0.000383
0.000371
0.000428
0.000240
0.000057
0.000199
0.000237
0.000251
0.000246
0.000244
0.000248
0.000233
0.000260
0.000319
0.000440
0.000351
0.000362
0.000251
0.000214
0.000254
0.000255
0.000251
0.000264
0.000260
0.000253
0.000447
0.000281
0.000369
0.000399
0.000304
0.000257
0.000286
0.000254
0.000246
0.000355
0.000150
0.000056
0.000294
0.000315
0.000324
0.000427
0.000356
0.000399
0.000238
0.000245
0.000241
0.000277
0.000254
0.000264
0.000236
0.000245
0.000245
0.000230
0.000299
0.000323
0.000490
0.000360
0.000227
0.000268
0.000239
0.000248
0.000274
0.000270
0.000274
0.000266
0.000277
0.000260
0.000370
0.000056
0.000292
0.000279
0.000241
0.000242
0.000245
0.000247
0.000247
0.000247
0.000266
0.000263
0.000249
0.000236
0.000303
0.000537
0.000374
0.000300
0.000234
0.000243
0.000261
0.000270
0.000248
0.000271
0.000247
0.000268
0.000276
0.000318
0.000490
0.000518
0.000411
0.000243
0.000183
0.000056
0.000376
0.000207
0.000223
0.000240
0.000253
0.000254
0.000235
0.000252
0.000254
0.000265
0.000212
0.000252
0.000276
0.000217
0.000260
0.000248
0.000249
0.000264
0.000278
0.000256
0.000265
0.000259
0.000262
0.000261
0.000269
0.000234
0.000269
0.000275
0.000258
0.000303
0.000172
0.000057
0.000195
0.000226
0.000251
0.000253
0.000235
0.000248
0.000262
0.000243
0.000258
0.000282
0.000221
0.000238
0.000260
0.000399
0.000254
0.000275
0.000257
0.000268
0.000257
0.000275
0.000274
0.000235
0.000247
0.000254
0.000266
0.000273
0.000253
0.000248
0.000295
0.000242
0.000203
0.000056
0.000208
0.000356
0.000371
0.000276
0.000299
0.000251
0.000263
0.000255
0.000232
0.000237
0.000253
0.000268
0.000247
0.000246
0.000256
0.000245
0.000268
0.000269
0.000241
0.000264
0.000277
0.000263
0.000279
0.000254
0.000277
0.000247
0.000271
0.000256
0.000268
0.000263
0.000188
0.000057
0.000215
0.000224
0.000262
0.000260
0.000515
0.000188
0.000203
0.000253
0.000253
0.000470
0.000502
0.000279
0.000232
0.000242
0.000267
0.000267
0.000238
0.000272
0.000256
0.000267
0.000265
0.000257
0.000259
0.000381
0.000364
0.000549
0.000290
0.000299
0.000260
0.000263
0.000189
0.000056
0.000197
0.000225
0.000244
0.000253
0.000460
0.000493
0.000343
0.000373
0.000207
0.000252
0.000246
0.000251
0.000252
0.000250
0.000257
0.000265
0.000258
0.000270
0.000634
0.000387
0.000290
0.000236
0.000263
0.000282
0.000284
0.000255
0.000262
0.000267
0.000249
0.000343
0.000302
0.000057
0.000304
0.000231
0.000238
0.000236
0.000262
0.000244
0.000235
0.000243
0.000247
0.000257
0.000247
0.000253
0.000248
0.000380
0.000580
0.000425
0.000210
0.000250
0.000266
0.000241
0.000269
0.000269
0.000492
0.000232
0.000253
0.000564
0.000489
0.000445
0.000248
0.000251
0.000183
0.000056
0.000209
0.000227
0.000261
0.000226
0.000257
0.000257
0.000291
0.000506
0.000523
0.000423
0.000222
0.000261
0.000272
0.000280
0.000256
0.000248
0.000231
0.000252
0.000257
0.000436
0.000368
0.000603
0.000353
0.000245
0.000364
0.000377
0.000478
0.000242
0.000275
0.000447
0.000357
0.000055
0.000266
0.000234
0.000434
0.000231
0.000223
0.000258
0.000264
0.000258
0.000228
0.000243
0.000313
0.000392
0.000289
0.000389
0.000224
0.000244
0.000261
0.000258
0.000255
0.000275
0.000279
0.000253
0.000248
0.000273
0.000340
0.000497
0.000444
0.000244
0.000288
0.000237
0.000195
0.000055
0.000196
0.000261
0.000228
0.000244
0.000253
0.000279
0.000393
0.000409
0.000374
0.000284
0.000370
0.000228
0.000233
0.000269
0.000251
0.000240
0.000257
0.000263
0.000294
0.000392
0.000493
0.000315
0.000481
0.000278
0.000389
0.000423
0.000380
0.000238
0.000249
0.000373
0.000328
0.000056
0.000256
0.000277
0.000220
0.000254
0.000262
0.000255
0.000252
0.000244
0.000252
0.000263
0.000242
0.000361
0.000465
0.000355
0.000380
0.000211
0.000266
0.000267
0.000267
0.000234
0.000245
0.000253
0.000268
0.000277
0.000272
0.000330
0.000496
0.000479
0.000229
0.000283
0.000188
0.000055
0.000190
0.000245
0.000255
0.000246
0.000255
0.000344
0.000557
0.000417
0.000370
0.000671
0.000272
0.000212
0.000232
0.000268
0.000247
0.000267
0.000276
0.000283
0.000471
0.000455
0.001470
0.000302
0.000264
0.000260
0.000297
0.000267
0.000365
0.000466
0.000335
0.000325
0.000160
0.000056
0.000206
0.000230
0.000240
0.000246
0.000236
0.000260
0.000272
0.000250
0.000246
0.000342
0.000325
0.000391
0.000278
0.000322
0.000392
0.000343
0.000242
0.000244
0.000275
0.000251
0.000249
0.000243
0.000291
0.000243
0.000320
0.000451
0.000445
0.000277
0.000241
0.000264
0.000190
0.000055
0.000216
0.000248
0.000257
0.000256
0.000238
0.000241
0.000464
0.000214
0.000259
0.000228
0.000242
0.000256
0.000256
0.000258
0.000251
0.000265
0.000259
0.000272
0.000271
0.000256
0.000258
0.000291
0.000288
0.000264
0.000250
0.000279
0.000269
0.000267
0.000261
0.000273
0.000169
0.000056
0.000211
0.000257
0.000410
0.000300
0.000379
0.000251
0.000229
0.000247
0.000261
0.000249
0.000241
0.000259
0.000263
0.000261
0.000241
0.000241
0.000251
0.000265
0.000263
0.000371
0.000500
0.000335
0.000216
0.000267
0.000264
0.000253
0.000266
0.000253
0.000270
0.000283
0.000204
0.000055
0.000295
0.000352
0.000439
0.000205
0.000250
0.000257
0.000409
0.000223
0.000230
0.000255
0.000257
0.000297
0.000349
0.000532
0.001775
0.000245
0.000246
0.000250
0.000276
0.000238
0.000313
0.000602
0.000379
0.000414
0.000214
0.000266
0.000275
0.000423
0.000277
0.000284
0.000164
0.000056
0.000200
0.000337
0.000325
0.000334
0.000508
0.000192
0.000246
0.000246
0.000241
0.000241
0.000262
0.000247
0.000265
0.000364
0.000537
0.000307
0.000216
0.000243
0.000265
0.000254
0.000259
0.000333
0.000225
0.000275
0.000279
0.000547
0.000446
0.000377
0.000457
0.000216
0.000210
0.000057
0.000220
0.000221
0.000258
0.000222
0.000257
0.000250
0.000268
0.000281
0.000349
0.000441
0.000442
0.000260
0.000230
0.000238
0.000267
0.000290
0.000303
0.000231
0.000271
0.000276
0.000233
0.000325
0.000559
0.000311
0.000249
0.000251
0.000262
0.000443
0.000412
0.000307
0.000168
0.000056
0.000205
0.000251
0.000335
0.000409
0.000384
0.000205
0.000237
0.000265
0.000245
0.000257
0.000263
0.000254
0.000230
0.000256
0.000261
0.000313
0.000411
0.000329
0.000292
0.000344
0.000497
0.000219
0.000281
0.000275
0.000300
0.000289
0.000253
0.000275
0.000487
0.000469
0.000215
0.000055
0.000202
0.000228
0.000270
0.000224
0.000247
0.000478
0.000215
0.000256
0.000264
0.000320
0.000552
0.000544
0.000201
0.000243
0.000243
0.000254
0.000252
0.000256
0.000251
0.000249
0.000263
0.000264
0.000396
0.000471
0.000313
0.000376
0.000304
0.000314
0.000301
0.000249
0.000175
0.000056
0.000217
0.000233
0.000273
0.000473
0.000321
0.000288
0.000269
0.000226
0.000234
0.000261
0.000278
0.000224
0.000254
0.000267
0.000253
0.000254
0.000243
0.000245
0.000261
0.000426
0.000380
0.000491
0.000226
0.000246
0.000298
0.000261
0.000252
0.000260
0.000261
0.000262
0.000200
0.000056
0.000250
0.000364
0.000546
0.000182
0.000203
0.000254
0.000347
0.000437
0.000283
0.000218
0.000230
0.000278
0.000262
0.000422
0.000461
0.000291
0.000231
0.000231
0.000247
0.000286
0.000255
0.000261
0.000265
0.000269
0.000258
0.000335
0.000366
0.000433
0.000297
0.000247
0.000177
0.000055
0.000227
0.000242
0.000246
0.000254
0.000252
0.000263
0.000230
0.000255
0.000253
0.000251
0.000264
0.000236
0.000264
0.001474
0.000206
0.000253
0.000263
0.000243
0.000275
0.000281
0.000258
0.000243
0.000278
0.000253
0.000263
0.000268
0.000274
0.000272
0.000274
0.000256
0.000193
0.000056
0.000183
0.000228
0.000252
0.000250
0.000233
0.000246
0.000262
0.000260
0.000224
0.000249
0.000243
0.000265
0.000275
0.000236
0.000254
0.000259
0.000249
0.000260
0.000274
0.000248
0.000255
0.000266
0.000242
0.000256
0.001295
0.000281
0.000590
0.000363
0.000381
0.000239
0.000190
0.000056
0.000201
0.000237
0.000247
0.000250
0.000410
0.000254
0.000228
0.000242
0.000259
0.000374
0.000430
0.000343
0.000241
0.000236
0.000257
0.000253
0.000261
0.000262
0.000250
0.000271
0.000244
0.000254
0.000258
0.000435
0.000519
0.000441
0.000209
0.000272
0.001380
0.000234
0.000177
0.000056
0.000243
0.000458
0.000335
0.000212
0.000212
0.000235
0.000232
0.000245
0.000261
0.000259
0.000247
0.000259
0.000268
0.000280
0.000565
0.000478
0.000231
0.000223
0.000244
0.000255
0.000269
0.000263
0.000267
0.000267
0.000286
0.000243
0.000309
0.000569
0.000462
0.000289
0.000151
0.000056
0.000193
0.000254
0.001261
0.000403
0.000315
0.000537
0.000289
0.000489
0.000275
0.000343
0.000224
0.000222
0.000264
0.000248
0.000254
0.000263
0.000316
0.000517
0.000411
0.000365
0.000249
0.000248
0.000270
0.000497
0.000227
0.000264
0.000261
0.000283
0.000326
0.000548
0.000286
0.000056
0.000381
0.000310
0.000227
0.000221
0.001547
0.000493
0.000291
0.000253
0.000235
0.000251
0.000222
0.000243
0.000244
0.000274
0.000247
0.000264
0.000230
0.000264
0.000414
0.000432
0.000421
0.000227
0.000265
0.000249
0.000261
0.000277
0.000270
0.000240
0.000261
0.000274
0.000200
0.000057
0.000397
0.000312
0.000227
0.000222
0.000252
0.000244
0.000251
0.000240
0.000231
0.000236
0.001405
0.000510
0.000234
0.000247
0.000234
0.000251
0.000276
0.000259
0.000230
0.000286
0.000269
0.000253
0.000267
0.000480
0.000506
0.000302
0.000218
0.000274
0.000274
0.000278
0.000178
0.000056
0.000183
0.000417
0.000216
0.000246
0.000401
0.000392
0.000441
0.000235
0.000462
0.000205
0.000234
0.000253
0.000263
0.000263
0.000261
0.001535
0.000237
0.000279
0.000242
0.000275
0.000278
0.000250
0.000253
0.000251
0.000268
0.000269
0.000461
0.000431
0.000296
0.000277
0.000149
0.000057
0.000218
0.000233
0.000257
0.000234
0.000227
0.000263
0.000239
0.000258
0.000252
0.000352
0.000514
0.000258
0.000243
0.000252
0.000245
0.000267
0.000270
0.000262
0.000275
0.000224
0.000251
0.000305
0.001280
0.000254
0.000252
0.000242
0.000261
0.000262
0.000260
0.000264
0.000185
0.000056
0.000244
0.000320
0.000371
0.000355
0.000247
0.000214
0.000263
0.000265
0.000256
0.000247
0.000259
0.000262
0.000245
0.000250
0.000264
0.000269
0.000259
0.000269
0.000261
0.000252
0.000252
0.000267
0.000266
0.000286
0.000289
0.000266
0.000265
0.000248
0.000275
0.000443
0.001379
0.000058
0.000180
0.000231
0.000235
0.000244
0.000256
0.000259
0.000241
0.000228
0.000243
0.000266
0.000265
0.000253
0.000251
0.000243
0.000270
0.000226
0.001740
0.000256
0.000230
0.000270
0.000238
0.000257
0.000272
0.000262
0.000270
0.000264
0.000263
0.000277
0.000269
0.000257
0.000229
0.000056
0.000286
0.000337
0.001302
0.000216
0.000228
0.000250
0.000253
0.000251
0.000260
0.000256
0.000228
0.000360
0.000444
0.000389
0.000283
0.000226
0.000254
0.000240
0.000253
0.000271
0.000244
0.000262
0.000267
0.000293
0.000262
0.000411
0.000485
0.000241
0.000310
0.000230
0.000200
0.000057
0.000206
0.000253
0.000246
0.000248
0.000250
0.000221
0.000237
0.000269
0.000462
0.001312
0.000251
0.000200
0.000250
0.000280
0.000243
0.000270
0.000259
0.000247
0.000302
0.000417
0.000382
0.000277
0.000241
0.000239
0.000282
0.000278
0.000264
0.000298
0.000265
0.000281
0.000188
0.000055
0.000226
0.000449
0.000377
0.000212
0.000235
0.000239
0.000242
0.000277
0.000263
0.000250
0.000234
0.000247
0.000457
0.000547
0.000449
0.001440
0.000243
0.000294
0.000304
0.000351
0.000479
0.000452
0.000463
0.000369
0.000221
0.000268
0.000284
0.000260
0.000260
0.000275
0.000201
0.000056
0.000187
0.000302
0.000598
0.000433
0.000202
0.000238
0.000245
0.000238
0.000259
0.000241
0.000247
0.000266
0.000263
0.000241
0.000268
0.000295
0.000396
0.000434
0.000335
0.001323
0.000261
0.000252
0.000254
0.000265
0.000475
0.000459
0.000371
0.000225
0.000281
0.000270
0.000187
0.000056
0.000209
0.000234
0.000248
0.000247
0.000248
0.000269
0.000463
0.000428
0.000334
0.000212
0.000234
0.000261
0.000271
0.000260
0.000259
0.000259
0.000267
0.000251
0.000277
0.000382
0.000420
0.000379
0.000309
0.001370
0.000387
0.000235
0.000285
0.000383
0.000545
0.000271
0.000321
0.000056
0.000183
0.000237
0.000248
0.000252
0.000264
0.000235
0.001739
0.000199
0.000202
0.000244
0.000255
0.000245
0.000264
0.000333
0.000327
0.000280
0.000282
0.000262
0.000649
0.000330
0.000270
0.000284
0.000220
0.000243
0.001509
0.000368
0.000413
0.000450
0.000330
0.000281
0.000155
0.000056
0.000208
0.000255
0.000250
0.000259
0.000248
0.000251
0.001714
0.000251
0.000221
0.000266
0.000339
0.000407
0.001455
0.000340
0.000394
0.000247
0.000253
0.000230
0.000277
0.000269
0.001597
0.000567
0.000332
0.000294
0.000232
0.000252
0.000267
0.000278
0.000243
0.000251
0.000195
0.000056
0.000201
0.000239
0.000275
0.000242
0.000259
0.000273
0.000282
0.000257
0.000248
0.000254
0.000256
0.000247
0.000260
0.000273
0.000246
0.001504
0.000282
0.000226
0.000266
0.000275
0.000270
0.000260
0.000438
0.001266
0.000280
0.000218
0.000277
0.000254
0.000393
0.000251
0.000193
0.000056
0.000205
0.000248
0.000223
0.000243
0.000243
0.000227
0.000231
0.001705
0.000249
0.000227
0.000245
0.000367
0.000229
0.000226
0.000251
0.001400
0.000213
0.000274
0.000268
0.000247
0.000259
0.000354
0.000271
0.001330
0.000262
0.000253
0.000251
0.000265
0.001394
0.000272
0.000203
0.000056
0.000320
0.000282
0.000215
0.000229
0.000254
0.000240
0.000265
0.000265
0.000268
0.000247
0.000261
0.000265
0.000252
0.000260
0.000315
0.001487
0.000236
0.000277
0.000255
0.000247
0.000279
0.000264
0.000244
0.001527
0.000343
0.000227
0.000271
0.001277
0.000274
0.000234
0.000215
0.000055
0.000245
0.000396
0.000327
0.000210
0.000242
0.000224
0.000263
0.000257
0.000266
0.000270
0.000233
0.000256
0.000263
0.000307
0.000383
0.001229
0.000227
0.000251
0.000262
0.000282
0.000220
0.000235
0.000255
0.000335
0.001269
0.000270
0.000226
0.000267
0.001352
0.000392
0.000263
0.000056
0.000338
0.000267
0.000200
0.000229
0.000239
0.000263
0.000242
0.000241
0.000280
0.000248
0.000241
0.000253
0.000273
0.000340
0.000388
0.001471
0.000213
0.000247
0.000301
0.000514
0.000292
0.000446
0.001286
0.000288
0.000245
0.000266
0.000256
0.001312
0.000297
0.000491
0.000424
0.000056
0.000188
0.000252
0.000257
0.000255
0.000252
0.000250
0.000279
0.000249
0.000264
0.000259
0.000373
0.000439
0.001315
0.000233
0.000267
0.000266
0.000278
0.000220
0.000239
0.000238
0.000352
0.001234
0.000259
0.000255
0.000240
0.000249
0.001536
0.000430
0.000456
0.000220
0.000199
0.000056
0.000195
0.000232
0.000251
0.000232
0.000256
0.000265
0.000240
0.000275
0.000531
0.000374
0.000268
0.001492
0.000203
0.000245
0.000265
0.000252
0.000270
0.000457
0.001527
0.000246
0.000400
0.000331
0.001287
0.000411
0.000244
0.000319
0.000261
0.000269
0.000254
0.000265
0.000195
0.000057
0.000202
0.000234
0.000332
0.000248
0.000297
0.000593
0.000256
0.000284
0.001476
0.000239
0.000420
0.000214
0.000232
0.000316
0.000415
0.001294
0.000260
0.000235
0.000242
0.000261
0.001547
0.000354
0.000294
0.000283
0.000252
0.000239
0.000514
0.000307
0.000228
0.000234
0.000257
0.000056
0.000251
0.000384
0.000311
0.000271
0.000217
0.001533
0.000193
0.000258
0.000267
0.000270
0.000273
0.000236
0.000337
0.001465
0.000239
0.000240
0.000428
0.001198
0.000322
0.000466
0.000393
0.000237
0.000251
0.000229
0.000286
0.000239
0.000458
0.000234
0.000257
0.000275
0.000197
0.000056
0.000234
0.000213
0.000388
0.000342
0.001319
0.000273
0.000311
0.000231
0.000236
0.000251
0.000256
0.000368
0.001444
0.000252
0.000239
0.000244
0.001396
0.000279
0.000446
0.000364
0.000427
0.000227
0.000241
0.000260
0.000262
0.000290
0.000263
0.000250
0.000272
0.000249
0.000190
0.000057
0.000202
0.000407
0.001451
0.000207
0.000270
0.000279
0.000238
0.000248
0.000264
0.000449
0.001336
0.000207
0.000257
0.000264
0.000247
0.001320
0.000667
0.000298
0.000310
0.000411
0.000296
0.000246
0.000261
0.000254
0.000271
0.000287
0.000273
0.000323
0.000398
0.000451
0.001385
0.000056
0.000196
0.000235
0.000247
0.000224
0.000258
0.000400
0.000567
0.001224
0.000248
0.000240
0.000246
0.001419
0.000453
0.000326
0.000209
0.000423
0.000258
0.000222
0.000265
0.000298
0.000225
0.000271
0.000280
0.000254
0.000254
0.000321
0.000391
0.000500
0.001504
0.000221
0.000188
0.000056
0.000204
0.000257
0.000400
0.000467
0.001259
0.000278
0.000254
0.000262
0.000243
0.000254
0.000247
0.000276
0.000381
0.000459
0.000349
0.000227
0.000259
0.000279
0.000235
0.000279
0.000250
0.000275
0.000257
0.000263
0.000259
0.000374
0.000506
0.000350
0.000317
0.001404
0.000166
0.000058
0.000185
0.000243
0.000331
0.000421
0.000332
0.000290
0.000321
0.000335
0.000269
0.000260
0.000255
0.000262
0.000254
0.000313
0.000228
0.000410
0.000450
0.000315
0.000285
0.000384
0.000277
0.000401
0.000225
0.000252
0.000262
0.000264
0.000250
0.000289
0.000294
0.000608
0.000250
0.000056
0.000196
0.001406
0.000229
0.000342
0.000407
0.000450
0.000428
0.000236
0.000209
0.000242
0.000260
0.000245
0.000269
0.000273
0.000261
0.000278
0.000233
0.001419
0.000211
0.000247
0.000258
0.000269
0.000269
0.000281
0.000268
0.000251
0.000280
0.000248
0.000317
0.000422
0.000272
0.000056
0.000208
0.000258
0.000218
0.001494
0.000328
0.000244
0.000213
0.000245
0.000236
0.000250
0.000252
0.000264
0.000252
0.000254
0.000263
0.000256
0.000249
0.000263
0.000256
0.000258
0.001447
0.000223
0.000238
0.000283
0.000246
0.000251
0.000276
0.000258
0.000280
0.000494
0.000338
0.000055
0.000195
0.000235
0.000397
0.000283
0.000245
0.000252
0.001544
0.000363
0.000279
0.000212
0.000258
0.000312
0.000335
0.000230
0.000226
0.000250
0.000246
0.000283
0.000240
0.000258
0.000506
0.000462
0.001158
0.000275
0.000219
0.000259
0.000268
0.000259
0.000270
0.000264
0.000360
0.000056
0.000278
0.000331
0.000210
0.000242
0.000248
0.000239
0.000243
0.000231
0.000291
0.001595
0.000447
0.000226
0.000231
0.000252
0.000261
0.000243
0.000258
0.000277
0.000277
0.000305
0.000314
0.000529
0.000433
0.001332
0.000229
0.000251
0.000275
0.000259
0.000286
0.000297
0.000479
0.000056
0.000270
0.000233
0.000238
0.000244
0.000220
0.000241
0.000261
0.000255
0.000270
0.001593
0.000330
0.000257
0.000257
0.000265
0.000457
0.000275
0.000518
0.000378
0.000295
0.000306
0.000486
0.000440
0.001274
0.000267
0.000226
0.000262
0.001719
0.000442
0.000617
0.000311
0.000146
0.000056
0.000200
0.000227
0.000241
0.000235
0.000256
0.000245
0.000240
0.000583
0.000490
0.000344
0.000307
0.000222
0.000223
0.000263
0.000265
0.000264
0.000254
0.000263
0.000241
0.000271
0.000249
0.000451
0.001339
0.000217
0.000251
0.000269
0.001898
0.000478
0.000295
0.000352
0.000148
0.000056
0.000232
0.000244
0.000242
0.001579
0.000426
0.000204
0.000232
0.000260
0.000249
0.000295
0.000380
0.000363
0.000366
0.000271
0.000271
0.000545
0.000383
0.001216
0.000271
0.000221
0.000256
0.000262
0.000286
0.000402
0.000569
0.000502
0.000249
0.000268
0.000268
0.000283
0.000191
0.000056
0.000194
0.000230
0.000244
0.001572
0.000216
0.000236
0.000237
0.000258
0.000237
0.000257
0.000253
0.000268
0.000268
0.000273
0.000273
0.000372
0.000416
0.000342
0.001406
0.000224
0.000263
0.000255
0.000260
0.000284
0.000340
0.000510
0.000450
0.000273
0.000281
0.000221
0.000450
0.000056
0.000216
0.000238
0.000251
0.001535
0.000314
0.000218
0.000268
0.000238
0.000259
0.000254
0.000254
0.000261
0.000252
0.000263
0.000304
0.000599
0.001391
0.000751
0.000248
0.000357
0.000250
0.000217
0.000250
0.000272
0.001688
0.000807
0.000223
0.000259
0.000282
0.000288
0.000177
0.000056
0.000186
0.000232
0.000246
0.000250
0.000253
0.000251
0.000237
0.000256
0.000241
0.000242
0.000284
0.000279
0.000249
0.000254
0.000259
0.000252
0.000270
0.001605
0.000794
0.000253
0.000357
0.000217
0.000246
0.000282
0.000265
0.000264
0.000292
0.000232
0.001385
0.000410
0.000330
0.000056
0.000214
0.000209
0.000250
0.000251
0.000266
0.000226
0.000253
0.000251
0.000256
0.000264
0.000261
0.000453
0.000423
0.000330
0.000211
0.000241
0.000270
0.001399
0.000686
0.000502
0.000318
0.000260
0.000228
0.000252
0.000269
0.000253
0.000258
0.000262
0.001487
0.000436
0.000187
0.000055
0.000201
0.000254
0.000226
0.000245
0.000247
0.000250
0.000239
0.000250
0.000269
0.000281
0.000425
0.000307
0.000328
0.000217
0.000239
0.000247
0.000271
0.000251
0.001576
0.000624
0.000469
0.000324
0.000221
0.000257
0.000272
0.000260
0.000260
0.000280
0.000265
0.001457
0.000231
0.000056
0.000216
0.000214
0.000234
0.000260
0.000253
0.000245
0.000269
0.000297
0.000358
0.000429
0.000425
0.000366
0.000338
0.000211
0.000247
0.000250
0.000299
0.000238
0.000267
0.001895
0.000365
0.000232
0.000437
0.000252
0.000258
0.000252
0.000287
0.000237
0.000272
0.000278
0.000337
0.000056
0.000279
0.000243
0.000222
0.000246
0.000251
0.000248
0.000223
0.000240
0.000271
0.000252
0.000246
0.000235
0.000328
0.000476
0.000399
0.000455
0.000208
0.000262
0.000247
0.000259
0.000256
0.000292
0.001469
0.001058
0.000226
0.000231
0.000275
0.000262
0.000273
0.000248
0.000214
0.000056
0.000194
0.001342
0.000292
0.000212
0.000236
0.000251
0.000254
0.000254
0.000222
0.000252
0.000254
0.000267
0.000281
0.000349
0.000380
0.000489
0.000227
0.000240
0.000270
0.000267
0.000270
0.000244
0.000241
0.000268
0.001363
0.000646
0.000318
0.000382
0.000376
0.000419
0.000281
0.000056
0.000193
0.000248
0.000383
0.001286
0.000207
0.000261
0.000230
0.000255
0.000254
0.000261
0.000252
0.000246
0.000260
0.000349
0.000615
0.000266
0.000226
0.000333
0.000277
0.000208
0.000248
0.000277
0.000248
0.000260
0.000263
0.001548
0.000730
0.000306
0.000275
0.000271
0.000186
0.000057
0.000180
0.000258
0.000462
0.000333
0.001297
0.000257
0.000214
0.000234
0.000241
0.000239
0.000254
0.000255
0.000229
0.000239
0.000254
0.000255
0.000275
0.000234
0.000251
0.000261
0.000264
0.000273
0.000312
0.000334
0.000212
0.000274
0.000246
0.001467
0.000263
0.000237
0.000175
0.000056
0.000199
0.000226
0.000249
0.000309
0.000319
0.000379
0.000391
0.000274
0.001565
0.000232
0.000287
0.000485
0.000370
0.000236
0.000428
0.000249
0.000218
0.000270
0.000275
0.000267
0.000282
0.000264
0.000259
0.000268
0.000250
0.000449
0.000414
0.000276
0.001588
0.000217
0.000187
0.000057
0.000224
0.000233
0.000252
0.000246
0.000238
0.000247
0.000265
0.000324
0.000394
0.002044
0.000231
0.000236
0.000256
0.000259
0.000262
0.000256
0.000275
0.000245
0.000326
0.000363
0.000437
0.000397
0.001453
0.000247
0.000525
0.000238
0.001766
0.000231
0.000261
0.001534
0.000174
0.000057
0.000169
0.000529
0.000381
0.000277
0.000234
0.000222
0.000257
0.000274
0.000257
0.000228
0.000254
0.000356
0.000426
0.000439
0.000316
0.000244
0.000225
0.001565
0.000232
0.000593
0.001871
0.000297
0.000222
0.001553
0.002024
0.000725
0.000291
0.000240
0.000414
0.000370
0.000268
0.000057
0.000217
0.000269
0.000227
0.000249
0.001412
0.002566
0.000253
0.000200
0.000234
0.001580
0.001992
0.000199
0.000247
0.000431
0.000338
0.000398
0.000374
0.000431
0.000210
0.000239
0.000251
0.000259
0.000273
0.001588
0.001214
0.001427
0.000287
0.000289
0.000253
0.000297
0.000353
0.000058
0.000208
0.000240
0.000234
0.000239
0.000226
0.000265
0.000233
0.000247
0.000260
0.000248
0.000241
0.000356
0.000371
0.000490
0.000286
0.000251
0.000247
0.000267
0.000265
0.000275
0.000250
0.000260
0.001554
0.000437
0.002114
0.000229
0.000282
0.000300
0.000460
0.000423
0.000160
0.000057
0.000251
0.000332
0.000457
0.000309
0.000201
0.000224
0.000253
0.000240
0.000245
0.000240
0.000248
0.000267
0.000256
0.001607
0.001362
0.001224
0.000275
0.000220
0.000256
0.000271
0.000286
0.000280
0.000238
0.000251
0.002223
0.000247
0.000241
0.000299
0.000320
0.000306
0.000222
0.000056
0.000200
0.000385
0.000531
0.000317
0.000233
0.000229
0.000247
0.000266
0.001907
0.001428
0.000219
0.000331
0.000382
0.000416
0.000260
0.000210
0.000264
0.000265
0.000259
0.000264
0.000260
0.000279
0.000455
0.000238
0.000273
0.000273
0.000240
0.000280
0.000285
0.000245
0.000205
0.000056
0.000206
0.000243
0.000252
0.000239
0.000254
0.000268
0.001546
0.001415
0.001335
0.000234
0.000222
0.000248
0.000260
0.000270
0.000242
0.000252
0.000250
0.002109
0.000255
0.000220
0.000271
0.000266
0.000248
0.000268
0.000269
0.000253
0.000277
0.000253
0.000282
0.000250
0.000183
0.000057
0.000189
0.002690
0.001397
0.000213
0.000302
0.000301
0.000227
0.000265
0.000257
0.000239
0.000257
0.000247
0.000232
0.000251
0.000266
0.000257
0.000271
0.000259
0.000257
0.000285
0.000246
0.000287
0.000275
0.000262
0.000244
0.000248
0.000265
0.000271
0.000267
0.000266
0.000374
0.000057
0.001539
0.000252
0.001243
0.000224
0.000219
0.000262
0.000239
0.000253
0.000246
0.000314
0.000441
0.000379
0.000232
0.000215
0.000242
0.002166
0.000237
0.000235
0.000356
0.000421
0.000471
0.000218
0.000222
0.000243
0.000275
0.000239
0.000286
0.000271
0.000254
0.001663
0.001219
0.000058
0.000194
0.000228
0.000343
0.000371
0.000343
0.000290
0.000198
0.000230
0.000256
0.000261
0.000258
0.000254
0.000220
0.000259
0.000260
0.000250
0.000382
0.000541
0.000379
0.000245
0.000216
0.000275
0.000280
0.000251
0.000250
0.000266
0.000249
0.000273
0.000250
0.000282
0.000388
0.000056
0.001123
0.000233
0.000384
0.000450
0.000242
0.000236
0.000219
0.000244
0.000263
0.002293
0.000359
0.000395
0.000218
0.000374
0.000277
0.000264
0.000262
0.000257
0.000269
0.000235
0.000240
0.000353
0.000572
0.000404
0.001879
0.001371
0.000480
0.000529
0.000218
0.000276
0.000201
0.000057
0.000309
0.000267
0.000243
0.000245
0.000244
0.000227
0.000261
0.000252
0.000251
0.000253
0.000258
0.000240
0.000227
0.000256
0.000395
0.000494
0.001852
0.001325
0.000447
0.000441
0.000453
0.000245
0.000237
0.000266
0.002123
0.000565
0.000389
0.000221
0.000278
0.000282
0.000194
0.000056
0.000209
0.000245
0.000256
0.000240
0.000246
0.000410
0.000352
0.000282
0.000317
0.000245
0.000244
0.000246
0.000267
0.002112
0.000383
0.000371
0.000214
0.000254
0.000265
0.000261
0.000248
0.002449
0.000354
0.000216
0.000258
0.000251
0.000256
0.000270
0.000288
0.000278
0.000185
0.000056
0.000215
0.000400
0.000456
0.000390
0.000263
0.000217
0.000229
0.000252
0.000267
0.000256
0.001948
0.000387
0.000284
0.000269
0.000232
0.000269
0.000275
0.000242
0.002217
0.000446
0.000212
0.000265
0.000265
0.000262
0.000258
0.000253
0.000279
0.000261
0.000257
0.000258
0.000186
0.000056
0.000218
0.000244
0.000245
0.000224
0.000246
0.000259
0.000234
0.000244
0.000234
0.002186
0.000233
0.000278
0.000207
0.000431
0.000241
0.000235
0.000281
0.000289
0.000241
0.000262
0.001972
0.000277
0.000342
0.000366
0.000439
0.000397
0.000304
0.000257
0.000239
0.000258
0.000204
0.000056
0.000194
0.000244
0.000239
0.000245
0.000254
0.000336
0.000225
0.002287
0.000239
0.000244
0.000259
0.000252
0.000235
0.000255
0.000305
0.002122
0.000598
0.000226
0.000248
0.000237
0.000266
0.000257
0.000290
0.000272
0.000264
0.000244
0.000306
0.000233
0.000269
0.000267
0.000190
0.000056
0.001815
0.001447
0.000196
0.000228
0.000240
0.000252
0.000251
0.000266
0.000482
0.000289
0.002167
0.000255
0.000237
0.000262
0.000351
0.000471
0.000374
0.000291
0.000223
0.000248
0.000255
0.000263
0.000268
0.000224
0.000255
0.000269
0.000266
0.000266
0.000408
0.000574
0.000321
0.000056
0.000183
0.000254
0.000260
0.000238
0.000278
0.000238
0.000255
0.000241
0.001535
0.002068
0.000591
0.000279
0.000423
0.000685
0.000329
0.000236
0.000250
0.000260
0.000257
0.000260
0.000260
0.000237
0.000247
0.001833
0.000342
0.001389
0.000279
0.000289
0.000269
0.000363
0.000359
0.000056
0.001942
0.000218
0.000233
0.000221
0.000306
0.000349
0.000497
0.000265
0.000279
0.000222
0.000228
0.000255
0.000260
0.000258
0.000271
0.000254
0.000257
0.000256
0.001844
0.000245
0.000232
0.000265
0.000264
0.000273
0.000276
0.000253
0.001470
0.000341
0.000236
0.000260
0.000173
0.000071
0.000175
0.000236
0.000267
0.000219
0.000251
0.000241
0.000312
0.000372
0.000420
0.000295
0.000214
0.000235
0.000269
0.000331
0.000431
0.000313
0.000218
0.000245
0.000270
0.000364
0.000443
0.000478
0.000231
0.000253
0.000260
0.000249
0.000254
0.000274
0.000275
0.000263
0.000200
0.000056
0.001439
0.000422
0.000227
0.001943
0.000296
0.000476
0.000351
0.000320
0.000221
0.000254
0.000267
0.000240
0.000249
0.000244
0.000265
0.000261
0.000455
0.000262
0.000422
0.000415
0.000330
0.000221
0.000255
0.000263
0.000278
0.000269
0.000262
0.000261
0.000394
0.000542
0.001269
0.000057
0.000188
0.000227
0.002198
0.000213
0.000279
0.000265
0.000254
0.000250
0.000257
0.000260
0.000220
0.000247
0.000269
0.000247
0.000289
0.000342
0.000704
0.001757
0.000225
0.000251
0.000264
0.000256
0.000399
0.000490
0.001518
0.000271
0.000364
0.001925
0.000271
0.000244
0.000191
0.000056
0.000203
0.000235
0.000229
0.000244
0.000226
0.000249
0.000268
0.000272
0.000327
0.000282
0.000379
0.000361
0.000334
0.000302
0.000224
0.000281
0.000257
0.000237
0.000272
0.000251
0.000301
0.000281
0.000272
0.000263
0.000260
0.001517
0.000293
0.000387
0.002066
0.000231
0.000177
0.000056
0.000223
0.000246
0.000233
0.000250
0.000481
0.000214
0.000253
0.000323
0.000468
0.000224
0.000303
0.000212
0.000263
0.000261
0.000271
0.000332
0.000386
0.000470
0.000268
0.000377
0.000565
0.000441
0.001553
0.000228
0.000249
0.002044
0.000333
0.000205
0.000219
0.000299
0.000187
0.000056
0.000199
0.000248
0.000228
0.000241
0.000251
0.000263
0.000256
0.000272
0.000253
0.000309
0.001754
0.000338
0.000373
0.000313
0.000431
0.000402
0.000305
0.001512
0.000238
0.000279
0.002215
0.000457
0.000264
0.000252
0.000256
0.000265
0.000499
0.000230
0.000249
0.000280
0.000196
0.000057
0.000336
0.000280
0.000393
0.000295
0.000201
0.000239
0.000255
0.000252
0.000277
0.000291
0.000233
0.000239
0.000253
0.000259
0.000348
0.001514
0.000322
0.000202
0.000295
0.002004
0.000267
0.000271
0.000249
0.000272
0.000242
0.000280
0.000264
0.000267
0.000245
0.000280
0.000187
0.000057
0.000297
0.000337
0.002042
0.000250
0.000266
0.000217
0.000275
0.000272
0.000418
0.000452
0.001325
0.000360
0.002137
0.000315
0.000195
0.000233
0.000270
0.000276
0.000259
0.000250
0.000270
0.000293
0.000255
0.000367
0.000475
0.000377
0.000319
0.002217
0.000499
0.000516
0.000414
0.000056
0.000214
0.000230
0.000236
0.001973
0.000247
0.000204
0.000245
0.000240
0.000246
0.000259
0.000237
0.000267
0.000243
0.000273
0.000449
0.001485
0.000235
0.000247
0.000272
0.000257
0.000228
0.000257
0.000262
0.000268
0.000384
0.000370
0.000506
0.000226
0.001602
0.000282
0.000166
0.000056
0.000196
0.000225
0.000244
0.000233
0.000251
0.000255
0.000247
0.000255
0.000249
0.000411
0.000365
0.001389
0.000235
0.000213
0.000249
0.000267
0.000253
0.000254
0.000499
0.000409
0.000444
0.000299
0.000201
0.001600
0.000212
0.000250
0.000295
0.000278
0.000273
0.000267
0.000181
0.000056
0.000222
0.000217
0.000271
0.000267
0.000247
0.000246
0.000235
0.000237
0.000269
0.000231
0.000260
0.000268
0.000240
0.001488
0.000364
0.000205
0.000247
0.000268
0.000282
0.000313
0.000376
0.000262
0.000238
0.000270
0.000256
0.000267
0.000256
0.001411
0.000280
0.000233
0.000173
0.000056
0.000219
0.000210
0.000264
0.000261
0.000257
0.000236
0.000245
0.000260
0.000222
0.000266
0.000244
0.000260
0.000221
0.000313
0.000359
0.000381
0.000242
0.000252
0.001633
0.000237
0.000232
0.000264
0.000269
0.000289
0.000398
0.000368
0.000452
0.000254
0.000250
0.001616
0.000168
0.000056
0.000352
0.000300
0.000407
0.000273
0.000223
0.000217
0.000246
0.000271
0.000252
0.000237
0.000250
0.000237
0.001484
0.000320
0.000265
0.000210
0.000253
0.000258
0.000267
0.000264
0.000256
0.000233
0.000270
0.000265
0.000262
0.000363
0.000529
0.000281
0.000273
0.000252
0.000193
0.000056
0.000215
0.000225
0.000397
0.000431
0.000358
0.000262
0.000241
0.000254
0.000246
0.000260
0.000242
0.000221
0.000257
0.000256
0.001254
0.000296
0.000233
0.000249
0.000270
0.000268
0.000234
0.000267
0.000250
0.000261
0.000254
0.000259
0.000347
0.000703
0.000409
0.000222
0.000181
0.000055
0.000181
0.001586
0.000213
0.000317
0.000604
0.000264
0.000212
0.000258
0.000265
0.000258
0.000231
0.000264
0.000269
0.000270
0.000259
0.001549
0.000230
0.000286
0.000263
0.000253
0.000261
0.000255
0.000260
0.000268
0.000259
0.000306
0.000490
0.000261
0.000360
0.000249
0.000184
0.000056
0.000201
0.000253
0.000225
0.001622
0.000422
0.000347
0.000218
0.000249
0.000249
0.000267
0.000284
0.000251
0.000247
0.000261
0.000242
0.000281
0.000470
0.001234
0.000239
0.000233
0.001513
0.000391
0.000475
0.000401
0.000352
0.000224
0.000289
0.000444
0.000237
0.000265
0.000178
0.000056
0.000282
0.000215
0.000245
0.000245
0.000255
0.000252
0.000238
0.000258
0.000260
0.000230
0.000256
0.000285
0.000342
0.000459
0.001655
0.001495
0.000378
0.000555
0.000298
0.000211
0.000234
0.000258
0.000272
0.000238
0.000253
0.000269
0.000256
0.000273
0.001624
0.000228
0.000177
0.000056
0.000212
0.000356
0.000353
0.000332
0.000226
0.000231
0.000237
0.000436
0.000349
0.000365
0.002178
0.000323
0.000741
0.000474
0.000448
0.000265
0.000331
0.000410
0.000309
0.000279
0.000393
0.000239
0.001557
0.000533
0.000214
0.000276
0.000247
0.000246
0.000273
0.000260
0.000202
0.000057
0.000193
0.000253
0.000263
0.000241
0.000245
0.001668
0.000873
0.000998
0.000206
0.000232
0.000268
0.000253
0.000260
0.000259
0.000253
0.000247
0.000252
0.000264
0.000271
0.000277
0.001431
0.000321
0.000251
0.000224
0.000236
0.000263
0.000257
0.000283
0.000265
0.000284
0.001903
0.000056
0.000192
0.000229
0.001554
0.000853
0.000378
0.000356
0.000235
0.000232
0.000257
0.000255
0.000254
0.000243
0.000246
0.002022
0.000445
0.000208
0.000245
0.000257
0.000267
0.000262
0.000191
