0.000147
0.019673
0.001695
0.000402
0.000263
0.000287
0.000306
0.000246
0.000332
0.000283
0.000251
0.000356
0.000492
0.000470
0.000434
0.000327
0.000255
0.000372
0.000347
0.000404
0.000313
0.001927
0.000696
0.000255
0.000254
0.000320
0.000288
0.000335
0.000482
0.000313
0.000509
0.000290
0.000059
0.000193
0.000269
0.000272
0.000261
0.000273
0.000250
0.000279
0.000258
0.000270
0.000297
0.000440
0.000434
0.000325
0.000243
0.000414
0.000288
0.000368
0.000251
0.000257
0.001693
0.000318
0.000258
0.000453
0.000238
0.000285
0.000279
0.000283
0.000296
0.000278
0.000319
0.000408
0.000056
0.000248
0.000258
0.000265
0.000260
0.000252
0.000242
0.000263
0.000254
0.000289
0.001667
0.000229
0.000235
0.000270
0.000272
0.000278
0.000251
0.000264
0.000249
0.000359
0.001797
0.000243
0.000275
0.000445
0.000490
0.000331
0.000240
0.000276
0.000445
0.000532
0.000737
0.000190
0.000057
0.000221
0.000246
0.000253
0.000241
0.000292
0.000256
0.000246
0.000602
0.000401
0.000259
0.000248
0.000247
0.000256
0.000243
0.000253
0.000257
0.000264
0.000246
0.000298
0.000324
0.001668
0.000273
0.000270
0.000405
0.000692
0.000308
0.000714
0.000474
0.000345
0.000243
0.000193
0.000056
0.000235
0.000237
0.000261
0.000242
0.000256
0.000257
0.000248
0.000519
0.001430
0.000223
0.000250
0.000240
0.000259
0.000253
0.000261
0.000286
0.000272
0.000809
0.001390
0.000295
0.000440
0.000255
0.000230
0.000224
0.000259
0.000265
0.000253
0.000273
0.000259
0.000267
0.000193
0.000056
0.000206
0.000248
0.000244
0.000260
0.000237
0.000240
0.000242
0.000257
0.000240
0.000251
0.001628
0.000267
0.000231
0.000254
0.000248
0.000244
0.000251
0.000251
0.000249
0.000254
0.000270
0.001662
0.000291
0.000263
0.000424
0.000254
0.000270
0.000247
0.000263
0.000267
0.000201
0.000055
0.000221
0.000228
0.000252
0.000244
0.000241
0.000249
0.000281
0.000217
0.000263
0.000266
0.000254
0.000243
0.000258
0.000271
0.001643
0.000271
0.000307
0.000201
0.000256
0.000274
0.000270
0.000235
0.000250
0.000265
0.001783
0.000350
0.000390
0.000347
0.000255
0.000277
0.000199
0.000055
0.000232
0.000240
0.000247
0.000263
0.000257
0.000241
0.000289
0.000402
0.000411
0.000428
0.000209
0.000247
0.000253
0.000249
0.001566
0.000542
0.000383
0.000342
0.000303
0.000232
0.000273
0.000283
0.000268
0.001783
0.000485
0.000432
0.000274
0.000231
0.000244
0.000270
0.000182
0.000056
0.000191
0.000236
0.000257
0.000268
0.000311
0.000478
0.000398
0.000228
0.000226
0.000248
0.000262
0.000241
0.000251
0.001748
0.000446
0.000284
0.000241
0.000253
0.000268
0.000277
0.000255
0.000255
0.000279
0.001924
0.000450
0.000261
0.000208
0.000240
0.000268
0.000412
0.000329
0.000056
0.000210
0.000377
0.000352
0.000284
0.000273
0.000238
0.000249
0.000255
0.000244
0.000234
0.000233
0.000251
0.001592
0.000322
0.000294
0.000245
0.000251
0.000251
0.000254
0.000272
0.000293
0.000313
0.000241
0.001818
0.000253
0.000487
0.000252
0.000258
0.000253
0.000269
0.000263
0.000056
0.000354
0.000585
0.000606
0.000233
0.000211
0.000277
0.000229
0.000216
0.000265
0.000251
0.000256
0.001709
0.000237
0.000441
0.000369
0.000220
0.000246
0.000224
0.000253
0.000260
0.000251
0.001863
0.000247
0.000228
0.002081
0.000523
0.000358
0.000250
0.000253
0.000286
0.000168
0.000056
0.000219
0.000239
0.000248
0.000241
0.000257
0.001619
0.000253
0.000232
0.000264
0.000245
0.000239
0.000263
0.000234
0.000255
0.000265
0.000710
0.000335
0.000256
0.000234
0.000272
0.000270
0.000246
0.000246
0.000423
0.000445
0.000274
0.000357
0.000622
0.000352
0.000268
0.000203
0.000055
0.000218
0.000244
0.000252
0.000248
0.000235
0.000246
0.000300
0.000355
0.000420
0.001705
0.000220
0.000247
0.000236
0.000248
0.000261
0.000361
0.000444
0.000384
0.000367
0.000221
0.000261
0.000298
0.000281
0.000246
0.000295
0.000407
0.000360
0.000622
0.000433
0.000455
0.000175
0.000056
0.000198
0.000263
0.000240
0.000223
0.000244
0.000237
0.000246
0.000252
0.000239
0.000331
0.000299
0.000450
0.001393
0.000228
0.000238
0.000246
0.000256
0.000254
0.000250
0.000257
0.000279
0.000464
0.000402
0.000258
0.000263
0.000258
0.000255
0.000272
0.000263
0.000267
0.000374
0.000055
0.000215
0.000235
0.000234
0.000342
0.000544
0.000343
0.000241
0.000258
0.000230
0.000262
0.000266
0.000218
0.000295
0.000252
0.000240
0.000467
0.000428
0.001640
0.000291
0.000237
0.000253
0.000262
0.000261
0.000236
0.000264
0.000408
0.000453
0.000387
0.000430
0.000238
0.000196
0.000055
0.000232
0.000411
0.000237
0.000222
0.000267
0.000252
0.000245
0.000607
0.000345
0.000303
0.000222
0.000266
0.000273
0.000237
0.000511
0.000347
0.000231
0.000347
0.000436
0.001505
0.000283
0.000254
0.000485
0.000251
0.000279
0.000280
0.000254
0.000593
0.000304
0.000379
0.000264
0.000055
0.000213
0.000231
0.000239
0.000244
0.000404
0.000310
0.000297
0.000222
0.000423
0.000453
0.000363
0.000269
0.000235
0.000242
0.000260
0.000264
0.000255
0.000254
0.000235
0.000339
0.000298
0.000317
0.001856
0.000246
0.000277
0.000235
0.000291
0.000350
0.000486
0.000603
0.000442
0.000055
0.000234
0.000328
0.000282
0.000427
0.000387
0.000211
0.000253
0.000371
0.000436
0.000409
0.000267
0.000240
0.000234
0.000273
0.000261
0.000234
0.000273
0.000259
0.000263
0.000260
0.000267
0.000433
0.000710
0.001251
0.000339
0.000522
0.000331
0.000253
0.000473
0.000357
0.000374
0.000056
0.000260
0.000381
0.000272
0.000206
0.000223
0.000267
0.000389
0.000236
0.000236
0.000377
0.000392
0.000476
0.000239
0.000257
0.000267
0.000248
0.000377
0.000370
0.000366
0.000225
0.000244
0.000599
0.000471
0.001622
0.000233
0.000459
0.000287
0.000229
0.000272
0.000443
0.000281
0.000056
0.000229
0.000237
0.000242
0.000250
0.000247
0.000250
0.000247
0.000331
0.000447
0.000352
0.000370
0.000382
0.000278
0.000582
0.000237
0.000244
0.000276
0.000264
0.000232
0.000344
0.000225
0.000252
0.000272
0.000452
0.000410
0.001687
0.000270
0.000236
0.000248
0.000271
0.000188
0.000056
0.000288
0.000501
0.000313
0.000224
0.000255
0.000243
0.000260
0.000240
0.000259
0.000246
0.000244
0.000229
0.000429
0.000502
0.000423
0.000257
0.000272
0.000237
0.000345
0.000386
0.000385
0.000327
0.000421
0.000358
0.000220
0.000257
0.000261
0.000276
0.001781
0.000246
0.000213
0.000056
0.000208
0.000215
0.000259
0.000273
0.000370
0.000538
0.000312
0.000213
0.000259
0.000263
0.000249
0.000246
0.000529
0.000440
0.000470
0.000295
0.000253
0.000276
0.000426
0.000464
0.000402
0.000341
0.000500
0.000436
0.000246
0.000247
0.000269
0.000244
0.000261
0.001712
0.000396
0.000058
0.000254
0.000341
0.000193
0.000237
0.000254
0.000250
0.000251
0.000493
0.000374
0.000298
0.000322
0.000240
0.000328
0.000696
0.000337
0.000217
0.000253
0.000255
0.000256
0.000259
0.000267
0.000267
0.000247
0.000263
0.000323
0.000371
0.000397
0.000343
0.000232
0.000267
0.000183
0.000055
0.000453
0.000308
0.000499
0.000201
0.000204
0.000254
0.000241
0.000254
0.000238
0.000233
0.000243
0.000282
0.000292
0.000322
0.000551
0.000530
0.000272
0.000316
0.000398
0.000328
0.000311
0.000221
0.000246
0.000259
0.001742
0.000259
0.001725
0.000936
0.000447
0.000285
0.000161
0.000056
0.000213
0.000231
0.000232
0.000246
0.000262
0.000247
0.000250
0.000251
0.000244
0.000331
0.000328
0.000571
0.000223
0.000369
0.000266
0.000248
0.000248
0.000290
0.000234
0.000244
0.000258
0.000256
0.001801
0.000243
0.000266
0.000255
0.000277
0.000263
0.001876
0.000519
0.000306
0.000057
0.000227
0.000211
0.000241
0.000239
0.000255
0.000246
0.000242
0.000261
0.000248
0.000315
0.000672
0.000444
0.000242
0.000200
0.000236
0.000254
0.000337
0.000439
0.000367
0.000245
0.001776
0.000259
0.000241
0.000252
0.000259
0.000271
0.000242
0.000253
0.000325
0.000286
0.000448
0.000056
0.000258
0.000204
0.000234
0.000262
0.000243
0.000247
0.000255
0.000252
0.000242
0.000259
0.000235
0.000270
0.000488
0.000316
0.000316
0.000264
0.000468
0.000251
0.000244
0.000256
0.000257
0.000258
0.000276
0.000256
0.000278
0.001791
0.000244
0.000247
0.000263
0.000238
0.000199
0.000055
0.000248
0.000378
0.000244
0.000220
0.000239
0.000238
0.000236
0.000254
0.000248
0.000220
0.000234
0.000266
0.000257
0.000339
0.000417
0.000364
0.000294
0.000254
0.000236
0.000255
0.000285
0.000243
0.000245
0.000270
0.000248
0.000265
0.000362
0.001581
0.000265
0.000241
0.000190
0.000055
0.000208
0.000234
0.000257
0.000255
0.000499
0.000293
0.000333
0.000286
0.000247
0.000237
0.000252
0.000246
0.000245
0.000260
0.000257
0.000256
0.000244
0.000256
0.000250
0.000261
0.000272
0.000269
0.000248
0.000233
0.000247
0.000275
0.000274
0.000263
0.000256
0.000261
0.000191
0.000056
0.000195
0.000235
0.000257
0.000259
0.000235
0.000252
0.000242
0.000259
0.000288
0.000235
0.000230
0.000246
0.000258
0.000246
0.000265
0.000268
0.000252
0.000251
0.000295
0.000252
0.000278
0.000290
0.000270
0.000256
0.000272
0.000271
0.000272
0.000255
0.000312
0.000590
0.000480
0.000056
0.000224
0.000284
0.000224
0.000232
0.000238
0.000259
0.000239
0.000248
0.000253
0.000242
0.000264
0.000309
0.000550
0.000478
0.001458
0.000230
0.000494
0.000239
0.000379
0.000324
0.000480
0.000329
0.000240
0.000276
0.000254
0.000260
0.000278
0.000256
0.000313
0.000250
0.000187
0.000056
0.000366
0.000397
0.000335
0.000334
0.000206
0.000254
0.000250
0.000236
0.000238
0.000252
0.000251
0.000252
0.000238
0.000320
0.000355
0.000444
0.000390
0.001805
0.000229
0.000256
0.000484
0.000259
0.000489
0.000268
0.000312
0.000323
0.000305
0.000229
0.000231
0.000256
0.000190
0.000056
0.000199
0.000230
0.000236
0.000284
0.000393
0.000456
0.000303
0.000259
0.000250
0.000217
0.000245
0.000285
0.000247
0.000269
0.000246
0.000267
0.000296
0.000502
0.000343
0.000412
0.000241
0.001745
0.000338
0.000504
0.000457
0.000493
0.000322
0.000231
0.000259
0.000270
0.000441
0.000056
0.000216
0.000269
0.000219
0.000367
0.000367
0.000411
0.000417
0.000199
0.000242
0.000291
0.000242
0.000261
0.000254
0.000288
0.000310
0.000235
0.000247
0.000364
0.000520
0.000295
0.000499
0.001849
0.000258
0.000444
0.000480
0.000368
0.000225
0.000260
0.000291
0.000269
0.000195
0.000056
0.000233
0.000331
0.000354
0.000348
0.000358
0.000373
0.000299
0.000212
0.000244
0.000263
0.000271
0.000231
0.000247
0.000250
0.000254
0.000256
0.000315
0.000446
0.000445
0.000332
0.000325
0.000228
0.000271
0.001714
0.000377
0.000549
0.000687
0.000239
0.000261
0.000306
0.000158
0.000055
0.000201
0.000234
0.000333
0.000242
0.000308
0.000320
0.000431
0.000311
0.000232
0.000542
0.000218
0.000249
0.000260
0.000280
0.000270
0.000282
0.000195
0.000489
0.000420
0.000343
0.000274
0.000226
0.000259
0.000248
0.000263
0.000269
0.000239
0.000251
0.000266
0.000289
0.000241
0.000057
0.000363
0.000276
0.000238
0.000254
0.000245
0.000263
0.000234
0.000294
0.000237
0.000253
0.000257
0.000375
0.000428
0.000366
0.000359
0.000263
0.000224
0.000235
0.000262
0.000270
0.000286
0.000262
0.000234
0.000260
0.000275
0.000310
0.000467
0.000309
0.000389
0.000218
0.000177
0.000056
0.000197
0.000223
0.000282
0.000245
0.000240
0.000251
0.000251
0.000258
0.000488
0.000212
0.000262
0.000253
0.000245
0.000268
0.000273
0.000275
0.000254
0.000351
0.000219
0.000249
0.000258
0.000266
0.000272
0.000253
0.000270
0.000281
0.000245
0.000253
0.000519
0.000244
0.000148
0.000056
0.000214
0.000237
0.000249
0.000268
0.000218
0.000266
0.000346
0.000404
0.000245
0.000231
0.000254
0.000252
0.000236
0.000255
0.000420
0.001818
0.000227
0.000263
0.000287
0.000396
0.000363
0.000353
0.000359
0.000388
0.000403
0.000411
0.000230
0.000270
0.000263
0.000278
0.001385
0.000056
0.000395
0.000282
0.000289
0.000218
0.000221
0.000252
0.000227
0.000258
0.000241
0.000279
0.000237
0.000257
0.000253
0.000345
0.000540
0.001577
0.000242
0.000229
0.000248
0.000264
0.000238
0.000276
0.000413
0.000407
0.000211
0.000346
0.000231
0.000276
0.000268
0.000263
0.000189
0.000056
0.001187
0.000576
0.000308
0.000270
0.000218
0.000228
0.000239
0.000237
0.000488
0.000219
0.000240
0.000250
0.000353
0.000521
0.000379
0.000352
0.000251
0.000231
0.000360
0.000328
0.000281
0.000250
0.000266
0.000249
0.000273
0.000613
0.000492
0.000287
0.000250
0.000266
0.000169
0.000057
0.000183
0.000227
0.000240
0.000253
0.001536
0.000219
0.000234
0.000253
0.000235
0.000255
0.000267
0.000242
0.000237
0.000262
0.000274
0.000339
0.000411
0.000650
0.000235
0.001742
0.000273
0.000258
0.000310
0.000382
0.000604
0.000379
0.000260
0.000253
0.000258
0.000271
0.000197
0.000056
0.000198
0.000245
0.000236
0.000308
0.001265
0.000230
0.000259
0.000260
0.000241
0.000235
0.000254
0.000231
0.000278
0.000247
0.000253
0.000405
0.000539
0.000290
0.000257
0.000268
0.000269
0.000269
0.000248
0.000237
0.000292
0.000256
0.000248
0.000277
0.000292
0.000366
0.000571
0.000055
0.000223
0.000250
0.000239
0.000259
0.000263
0.000240
0.000238
0.000263
0.000273
0.000249
0.001423
0.000237
0.000236
0.000253
0.000243
0.000246
0.000267
0.000266
0.000256
0.000271
0.000283
0.000600
0.000383
0.000334
0.000234
0.000275
0.001760
0.000240
0.000273
0.000310
0.000482
0.000055
0.000216
0.000415
0.000422
0.000501
0.000515
0.000568
0.001475
0.000409
0.000521
0.000655
0.000551
0.000749
0.000457
0.000603
0.000585
0.001889
0.000395
0.000455
0.000399
0.000319
0.000220
0.000302
0.000251
0.000271
0.000251
0.000293
0.000288
0.000289
0.000267
0.000282
0.001374
0.000055
0.000208
0.000231
0.000242
0.000245
0.000259
0.000249
0.000239
0.000243
0.000253
0.000250
0.000235
0.000248
0.000256
0.000261
0.000260
0.000272
0.001805
0.000271
0.000243
0.000255
0.000250
0.000262
0.000261
0.000281
0.000397
0.000451
0.000323
0.000251
0.000269
0.000262
0.000209
0.000055
0.000221
0.001355
0.000334
0.000261
0.000254
0.000264
0.000222
0.000259
0.000209
0.000234
0.000225
0.000239
0.000253
0.000502
0.000370
0.000277
0.000266
0.000257
0.001922
0.000234
0.000246
0.000260
0.000262
0.000263
0.000276
0.000284
0.000266
0.000255
0.000268
0.000317
0.000203
0.000057
0.000198
0.000244
0.000254
0.001433
0.000224
0.000245
0.000247
0.000250
0.000233
0.000270
0.000250
0.000249
0.000244
0.000255
0.000254
0.000261
0.000264
0.000268
0.000265
0.000258
0.000257
0.001771
0.000284
0.001748
0.000259
0.000246
0.000272
0.000272
0.000280
0.000268
0.000196
0.000056
0.000194
0.000237
0.001345
0.000217
0.000260
0.000253
0.000261
0.000251
0.000241
0.000255
0.000245
0.000247
0.000261
0.000262
0.000253
0.000267
0.000259
0.000283
0.000296
0.000230
0.001883
0.000231
0.001830
0.000240
0.000264
0.000276
0.000228
0.000287
0.000219
0.000269
0.000191
0.000055
0.001435
0.000226
0.000229
0.000255
0.000228
0.000237
0.000392
0.000248
0.000252
0.000250
0.000257
0.000260
0.000256
0.000501
0.000291
0.000238
0.000228
0.000274
0.000269
0.000248
0.000270
0.000337
0.000232
0.000252
0.000271
0.000277
0.000273
0.000452
0.000521
0.000367
0.000197
0.000056
0.000234
0.000239
0.000272
0.000294
0.000375
0.000265
0.001649
0.000335
0.000281
0.000267
0.000255
0.000277
0.000282
0.000263
0.000268
0.000312
0.000523
0.000424
0.000337
0.000278
0.000301
0.000273
0.000250
0.000273
0.000334
0.000290
0.000228
0.000263
0.000252
0.000307
0.000466
0.000055
0.000225
0.000470
0.000272
0.000264
0.000246
0.000227
0.000224
0.000251
0.000261
0.000251
0.001521
0.000222
0.000225
0.000254
0.000244
0.000288
0.000258
0.000254
0.000262
0.000269
0.000274
0.000374
0.000544
0.000296
0.000287
0.000267
0.000267
0.000260
0.000230
0.000325
0.000152
0.000056
0.000197
0.000231
0.000277
0.000559
0.000280
0.000275
0.000221
0.000247
0.000253
0.000251
0.000231
0.000254
0.000275
0.000245
0.000243
0.000250
0.000447
0.001144
0.000251
0.000249
0.000266
0.000258
0.000348
0.000446
0.000232
0.000352
0.000554
0.000346
0.000381
0.000237
0.000178
0.000055
0.000228
0.000245
0.000261
0.000265
0.000260
0.000242
0.000449
0.000382
0.000374
0.000258
0.000364
0.000392
0.000385
0.000357
0.000257
0.000250
0.000238
0.000259
0.000422
0.001403
0.000298
0.000229
0.000273
0.000272
0.000240
0.000231
0.000273
0.000314
0.000403
0.000439
0.000264
0.000056
0.000191
0.000244
0.000250
0.000242
0.000246
0.000249
0.000238
0.000254
0.000329
0.000294
0.000429
0.000411
0.000244
0.000236
0.000252
0.000270
0.000237
0.000261
0.000264
0.000247
0.000444
0.000245
0.000381
0.000468
0.000266
0.000253
0.000270
0.000275
0.000249
0.000334
0.000160
0.000056
0.000304
0.000322
0.000284
0.000399
0.000469
0.000319
0.000258
0.000243
0.000247
0.000273
0.000254
0.000266
0.000233
0.000256
0.000250
0.000218
0.000266
0.000369
0.000453
0.000382
0.000221
0.000280
0.000249
0.000241
0.000270
0.000272
0.000275
0.000265
0.000278
0.000256
0.000271
0.000057
0.000396
0.000243
0.000230
0.000246
0.000246
0.000246
0.000253
0.000239
0.000276
0.000252
0.000254
0.000234
0.000303
0.000492
0.000447
0.000280
0.000232
0.000239
0.000258
0.000267
0.000256
0.000266
0.000254
0.000268
0.000301
0.000272
0.000453
0.000569
0.000412
0.000245
0.000177
0.000055
0.000362
0.000204
0.000228
0.000250
0.000252
0.000246
0.000242
0.000245
0.000261
0.000253
0.000226
0.000245
0.000268
0.000228
0.000241
0.000269
0.000254
0.000260
0.000274
0.000258
0.000264
0.000263
0.000260
0.000268
0.000267
0.000238
0.000264
0.000291
0.000242
0.000278
0.000194
0.000056
0.000197
0.000234
0.000248
0.000249
0.000234
0.000255
0.000260
0.000239
0.000259
0.000280
0.000226
0.000230
0.000266
0.000395
0.000255
0.000288
0.000247
0.000268
0.000257
0.000279
0.000272
0.000233
0.000269
0.000230
0.000273
0.000275
0.000251
0.000253
0.000271
0.000262
0.000203
0.000056
0.000222
0.000324
0.000373
0.000281
0.000289
0.000268
0.000267
0.000257
0.000221
0.000246
0.000248
0.000265
0.000251
0.000241
0.000255
0.000261
0.000254
0.000272
0.000244
0.000262
0.000276
0.000266
0.000277
0.000254
0.000269
0.000252
0.000258
0.000270
0.000269
0.000259
0.000195
0.000055
0.000203
0.000234
0.000262
0.000262
0.000481
0.000210
0.000215
0.000250
0.000299
0.000432
0.000487
0.000287
0.000217
0.000259
0.000265
0.000270
0.000235
0.000289
0.000240
0.000267
0.000284
0.000246
0.000260
0.000261
0.000566
0.000479
0.000262
0.000309
0.000260
0.000264
0.000188
0.000056
0.000216
0.000224
0.000244
0.000252
0.000337
0.000646
0.000296
0.000381
0.000210
0.000246
0.000257
0.000252
0.000277
0.000225
0.000256
0.000271
0.000255
0.000267
0.000681
0.000337
0.000285
0.000246
0.000256
0.000288
0.000278
0.000275
0.000247
0.000269
0.000247
0.000338
0.000400
0.000057
0.000268
0.000227
0.000247
0.000237
0.000252
0.000254
0.000230
0.000268
0.000226
0.000259
0.000246
0.000255
0.000244
0.000492
0.000489
0.000357
0.000246
0.000264
0.000262
0.000244
0.000266
0.000271
0.000490
0.000218
0.000268
0.000643
0.000384
0.000470
0.000249
0.000254
0.000185
0.000056
0.000200
0.000235
0.000242
0.000242
0.000253
0.000260
0.000348
0.000372
0.000599
0.000426
0.000222
0.000258
0.000277
0.000275
0.000256
0.000249
0.000233
0.000251
0.000265
0.000351
0.000414
0.000604
0.000364
0.000269
0.000359
0.000370
0.000483
0.000252
0.000265
0.000370
0.000398
0.000056
0.000266
0.000230
0.000434
0.000218
0.000235
0.000259
0.000276
0.000239
0.000236
0.000240
0.000263
0.000408
0.000344
0.000359
0.000231
0.000247
0.000268
0.000243
0.000264
0.000282
0.000283
0.000242
0.000250
0.000270
0.000327
0.000473
0.000478
0.000245
0.000262
0.000263
0.000197
0.000056
0.000232
0.000252
0.000249
0.000227
0.000245
0.000266
0.000369
0.000375
0.000447
0.000287
0.000364
0.000225
0.000245
0.000269
0.000251
0.000242
0.000262
0.000252
0.000323
0.000399
0.000456
0.000318
0.000478
0.000287
0.000424
0.000385
0.000377
0.000239
0.000251
0.000271
0.000436
0.000056
0.000241
0.000278
0.000224
0.000256
0.000257
0.000251
0.000257
0.000244
0.000252
0.000283
0.000221
0.000388
0.000408
0.000372
0.000382
0.000224
0.000266
0.000266
0.000258
0.000239
0.000255
0.000252
0.000265
0.000272
0.000279
0.000318
0.000522
0.000454
0.000235
0.000283
0.000187
0.000055
0.000222
0.000238
0.000267
0.000239
0.000277
0.000321
0.000730
0.000246
0.000358
0.000692
0.000266
0.000208
0.000238
0.000267
0.000247
0.000263
0.000300
0.000254
0.000470
0.000448
0.001494
0.000302
0.000261
0.000258
0.000296
0.000271
0.000313
0.000491
0.000325
0.000350
0.000177
0.000056
0.000214
0.000232
0.000246
0.000245
0.000241
0.000254
0.000276
0.000262
0.000239
0.000335
0.000347
0.000362
0.000267
0.000358
0.000367
0.000335
0.000243
0.000261
0.000272
0.000259
0.000260
0.000234
0.000282
0.000248
0.000312
0.000434
0.000437
0.000310
0.000240
0.000269
0.000187
0.000057
0.000230
0.000247
0.000258
0.000252
0.000242
0.000236
0.000474
0.000204
0.000239
0.000254
0.000249
0.000254
0.000255
0.000252
0.000259
0.000265
0.000262
0.000260
0.000276
0.000253
0.000275
0.000272
0.000295
0.000243
0.000263
0.000282
0.000266
0.000266
0.000264
0.000272
0.000169
0.000056
0.000233
0.000241
0.000299
0.000434
0.000366
0.000251
0.000235
0.000247
0.000267
0.000241
0.000246
0.000255
0.000267
0.000263
0.000233
0.000266
0.000226
0.000264
0.000339
0.000291
0.000404
0.000416
0.000242
0.000269
0.000257
0.000253
0.000269
0.000255
0.000266
0.000298
0.000178
0.000056
0.000388
0.000431
0.000373
0.000214
0.000253
0.000258
0.000406
0.000218
0.000238
0.000257
0.000255
0.000338
0.000308
0.000520
0.001782
0.000257
0.000241
0.000246
0.000279
0.000242
0.000361
0.000424
0.000573
0.000338
0.000231
0.000263
0.000277
0.000423
0.000277
0.000281
0.000166
0.000073
0.000242
0.000338
0.000370
0.000299
0.000495
0.000200
0.000243
0.000264
0.000245
0.000237
0.000263
0.000239
0.000262
0.000327
0.000490
0.000394
0.000219
0.000248
0.000261
0.000260
0.000263
0.000315
0.000228
0.000286
0.000278
0.000440
0.000543
0.000372
0.000459
0.000234
0.000199
0.000055
0.000191
0.000235
0.000257
0.000225
0.000256
0.000250
0.000269
0.000267
0.000347
0.000390
0.000421
0.000355
0.000207
0.000256
0.000263
0.000276
0.000307
0.000239
0.000277
0.000274
0.000236
0.000339
0.000453
0.000368
0.000272
0.000249
0.000265
0.000440
0.000410
0.000321
0.000170
0.000055
0.000210
0.000236
0.000339
0.000492
0.000311
0.000201
0.000240
0.000257
0.000267
0.000243
0.000264
0.000257
0.000228
0.000258
0.000257
0.000284
0.000423
0.000347
0.000428
0.000202
0.000499
0.000223
0.000282
0.000277
0.000302
0.000284
0.000251
0.000268
0.000464
0.000519
0.000199
0.000055
0.000208
0.000230
0.000248
0.000249
0.000241
0.000484
0.000203
0.000260
0.000268
0.000319
0.000497
0.000594
0.000205
0.000243
0.000241
0.000254
0.000252
0.000244
0.000263
0.000252
0.000264
0.000261
0.000366
0.000428
0.000348
0.000408
0.000296
0.000340
0.000273
0.000254
0.000185
0.000055
0.000208
0.000229
0.000267
0.000477
0.000356
0.000258
0.000267
0.000239
0.000233
0.000251
0.000252
0.000250
0.000253
0.000258
0.000251
0.000266
0.000249
0.000247
0.000269
0.000403
0.000438
0.000440
0.000231
0.000242
0.000282
0.000275
0.000266
0.000249
0.000265
0.000267
0.000190
0.000056
0.000259
0.000372
0.000490
0.000237
0.000212
0.000264
0.000325
0.000452
0.000282
0.000211
0.000243
0.000278
0.000252
0.000490
0.000406
0.000293
0.000206
0.000252
0.000249
0.000268
0.000266
0.000262
0.000262
0.000275
0.000263
0.000290
0.000411
0.000438
0.000278
0.000253
0.000173
0.000057
0.000200
0.000231
0.000249
0.000257
0.000247
0.000269
0.000233
0.000258
0.000246
0.000247
0.000269
0.000257
0.000244
0.001453
0.000228
0.000260
0.000263
0.000240
0.000277
0.000275
0.000263
0.000239
0.000285
0.000243
0.000269
0.000283
0.000251
0.000270
0.000260
0.000273
0.000199
0.000056
0.000208
0.000233
0.000251
0.000253
0.000230
0.000261
0.000248
0.000253
0.000232
0.000247
0.000250
0.000262
0.000259
0.000250
0.000254
0.000259
0.000247
0.000263
0.000272
0.000254
0.000254
0.000267
0.000240
0.000256
0.001290
0.000269
0.000649
0.000329
0.000371
0.000240
0.000195
0.000056
0.000185
0.000240
0.000243
0.000248
0.000416
0.000227
0.000248
0.000243
0.000251
0.000433
0.000367
0.000365
0.000229
0.000252
0.000239
0.000256
0.000257
0.000267
0.000243
0.000260
0.000261
0.000254
0.000297
0.000375
0.000531
0.000447
0.000238
0.000250
0.001367
0.000244
0.000180
0.000056
0.000371
0.000393
0.000329
0.000253
0.000246
0.000222
0.000231
0.000248
0.000260
0.000256
0.000243
0.000263
0.000270
0.000277
0.000616
0.000322
0.000335
0.000219
0.000270
0.000240
0.000265
0.000261
0.000272
0.000267
0.000269
0.000259
0.000280
0.000593
0.000371
0.000391
0.000140
0.000056
0.000214
0.000233
0.001271
0.000421
0.000278
0.000473
0.000411
0.000454
0.000298
0.000324
0.000220
0.000231
0.000262
0.000255
0.000255
0.000260
0.000328
0.000506
0.000423
0.000336
0.000256
0.000247
0.000261
0.000498
0.000241
0.000264
0.000255
0.000280
0.000331
0.000515
0.000292
0.000055
0.000398
0.000355
0.000175
0.000227
0.001593
0.000459
0.000262
0.000259
0.000248
0.000247
0.000233
0.000258
0.000229
0.000269
0.000251
0.000257
0.000240
0.000274
0.000401
0.000372
0.000470
0.000239
0.000257
0.000257
0.000258
0.000296
0.000249
0.000239
0.000265
0.000276
0.000294
0.000057
0.000374
0.000326
0.000230
0.000229
0.000251
0.000245
0.000251
0.000244
0.000229
0.000232
0.001589
0.000276
0.000283
0.000232
0.000247
0.000254
0.000275
0.000263
0.000258
0.000253
0.000268
0.000253
0.000260
0.000405
0.000383
0.000502
0.000235
0.000265
0.000277
0.000285
0.000165
0.000055
0.000218
0.000414
0.000226
0.000247
0.000331
0.000448
0.000334
0.000342
0.000467
0.000207
0.000234
0.000251
0.000260
0.000262
0.000259
0.001453
0.000325
0.000291
0.000238
0.000269
0.000283
0.000245
0.000254
0.000271
0.000246
0.000273
0.000411
0.000486
0.000282
0.000272
0.000168
0.000055
0.000185
0.000229
0.000254
0.000239
0.000234
0.000257
0.000243
0.000245
0.000342
0.000318
0.000400
0.000336
0.000237
0.000238
0.000249
0.000273
0.000277
0.000257
0.000269
0.000231
0.000254
0.000329
0.001248
0.000267
0.000242
0.000241
0.000258
0.000265
0.000261
0.000267
0.000177
0.000072
0.000224
0.000338
0.000360
0.000356
0.000251
0.000234
0.000263
0.000264
0.000249
0.000251
0.000258
0.000271
0.000239
0.000254
0.000263
0.000257
0.000263
0.000268
0.000265
0.000246
0.000253
0.000271
0.000266
0.000283
0.000284
0.000272
0.000268
0.000252
0.000262
0.000442
0.001370
0.000056
0.000219
0.000235
0.000238
0.000243
0.000252
0.000260
0.000249
0.000224
0.000249
0.000248
0.000279
0.000252
0.000252
0.000242
0.000254
0.000244
0.001721
0.000262
0.000248
0.000259
0.000250
0.000258
0.000270
0.000255
0.000279
0.000254
0.000267
0.000278
0.000270
0.000254
0.000240
0.000056
0.000304
0.000328
0.001289
0.000224
0.000231
0.000247
0.000258
0.000248
0.000264
0.000251
0.000234
0.000329
0.000406
0.000440
0.000293
0.000223
0.000250
0.000255
0.000260
0.000260
0.000242
0.000271
0.000265
0.000285
0.000257
0.000434
0.000326
0.000371
0.000315
0.000240
0.000192
0.000056
0.000208
0.000249
0.000245
0.000248
0.000253
0.000221
0.000256
0.000232
0.000444
0.001328
0.000264
0.000209
0.000248
0.000267
0.000255
0.000269
0.000259
0.000255
0.000294
0.000473
0.000349
0.000261
0.000241
0.000241
0.000280
0.000274
0.000264
0.000298
0.000271
0.000275
0.000194
0.000056
0.000383
0.000322
0.000356
0.000224
0.000233
0.000236
0.000243
0.000279
0.000266
0.000246
0.000228
0.000250
0.000453
0.000559
0.000443
0.001430
0.000249
0.000261
0.000335
0.000343
0.000486
0.000462
0.000453
0.000367
0.000236
0.000264
0.000270
0.000271
0.000260
0.000278
0.000184
0.000055
0.000224
0.000290
0.000448
0.000424
0.000375
0.000235
0.000250
0.000228
0.000250
0.000258
0.000248
0.000262
0.000270
0.000239
0.000266
0.000334
0.000309
0.000425
0.000388
0.001323
0.000271
0.000251
0.000257
0.000259
0.000499
0.000426
0.000374
0.000235
0.000275
0.000271
0.000188
0.000056
0.000203
0.000240
0.000249
0.000241
0.000249
0.000289
0.000434
0.000396
0.000359
0.000225
0.000242
0.000263
0.000269
0.000261
0.000259
0.000264
0.000262
0.000266
0.000264
0.000243
0.000491
0.000445
0.000304
0.001343
0.000417
0.000236
0.000275
0.000409
0.000477
0.000318
0.000334
0.000056
0.000204
0.000231
0.000250
0.000245
0.000251
0.000254
0.001682
0.000237
0.000233
0.000228
0.000257
0.000247
0.000257
0.000328
0.000325
0.000288
0.000309
0.000318
0.000448
0.000402
0.000319
0.000277
0.000216
0.001414
0.000340
0.000384
0.000371
0.000459
0.000333
0.000292
0.000161
0.000056
0.000207
0.000241
0.000255
0.000259
0.000241
0.000258
0.001705
0.000231
0.000254
0.000261
0.000331
0.000412
0.001425
0.000362
0.000400
0.000250
0.000254
0.000233
0.000269
0.000268
0.001540
0.000550
0.000432
0.000265
0.000255
0.000241
0.000260
0.000283
0.000250
0.000248
0.000191
0.000055
0.000208
0.000238
0.000269
0.000241
0.000260
0.000277
0.000280
0.000253
0.000256
0.000250
0.000270
0.000231
0.000263
0.000266
0.000259
0.001490
0.000277
0.000233
0.000271
0.000278
0.000266
0.000269
0.000422
0.001255
0.000277
0.000243
0.000274
0.000254
0.000392
0.000240
0.000207
0.000055
0.000200
0.000246
0.000225
0.000238
0.000241
0.000230
0.000244
0.001684
0.000255
0.000226
0.000254
0.000368
0.000230
0.000224
0.000252
0.001382
0.000235
0.000262
0.000275
0.000241
0.000261
0.000348
0.000279
0.001308
0.000276
0.000263
0.000244
0.000269
0.001380
0.000279
0.000228
0.000055
0.000285
0.000312
0.000203
0.000244
0.000250
0.000237
0.000270
0.000264
0.000266
0.000251
0.000283
0.000242
0.000250
0.000247
0.000278
0.001524
0.000252
0.000273
0.000259
0.000241
0.000283
0.000263
0.000257
0.001514
0.000342
0.000230
0.000264
0.001291
0.000261
0.000242
0.000245
0.000056
0.000232
0.000370
0.000347
0.000216
0.000240
0.000238
0.000264
0.000255
0.000262
0.000277
0.000246
0.000243
0.000260
0.000268
0.000427
0.001204
0.000240
0.000252
0.000267
0.000278
0.000229
0.000264
0.000230
0.000328
0.001275
0.000258
0.000239
0.000259
0.000254
0.001343
0.000305
0.000056
0.000307
0.000235
0.000237
0.000229
0.000239
0.000258
0.000246
0.000241
0.000276
0.000254
0.000241
0.000258
0.000249
0.000298
0.000449
0.001460
0.000208
0.000261
0.000298
0.000524
0.000268
0.000365
0.001376
0.000293
0.000248
0.000269
0.000249
0.001311
0.000246
0.000506
0.000378
0.000055
0.000226
0.000251
0.000257
0.000254
0.000255
0.000251
0.000271
0.000247
0.000279
0.000246
0.000288
0.000554
0.001274
0.000243
0.000255
0.000263
0.000280
0.000224
0.000251
0.000241
0.000509
0.001069
0.000247
0.000255
0.000259
0.000245
0.001460
0.000465
0.000502
0.000212
0.000187
0.000056
0.000203
0.000233
0.000249
0.000234
0.000258
0.000265
0.000237
0.000249
0.000442
0.000483
0.000273
0.001486
0.000207
0.000247
0.000269
0.000251
0.000261
0.000422
0.001551
0.000268
0.000397
0.000322
0.001320
0.000318
0.000313
0.000324
0.000247
0.000272
0.000256
0.000271
0.000192
0.000055
0.000191
0.000236
0.000330
0.000260
0.000350
0.000475
0.000301
0.000295
0.001472
0.000232
0.000386
0.000264
0.000206
0.000320
0.000430
0.001279
0.000270
0.000243
0.000242
0.000259
0.001536
0.000429
0.000212
0.000278
0.000262
0.000260
0.000454
0.000332
0.000236
0.000248
0.000258
0.000055
0.000257
0.000367
0.000332
0.000263
0.000219
0.001519
0.000215
0.000269
0.000255
0.000267
0.000272
0.000254
0.000279
0.001489
0.000262
0.000232
0.000431
0.001189
0.000327
0.000460
0.000402
0.000229
0.000244
0.000254
0.000273
0.000250
0.000446
0.000225
0.000268
0.000278
0.000196
0.000058
0.000189
0.000288
0.000326
0.000339
0.001316
0.000279
0.000308
0.000234
0.000245
0.000246
0.000251
0.000305
0.001501
0.000258
0.000239
0.000243
0.001383
0.000288
0.000408
0.000395
0.000426
0.000238
0.000247
0.000253
0.000265
0.000280
0.000271
0.000259
0.000262
0.000270
0.000174
0.000057
0.000253
0.000334
0.001486
0.000209
0.000275
0.000274
0.000243
0.000244
0.000281
0.000424
0.001337
0.000211
0.000265
0.000249
0.000266
0.001262
0.000725
0.000284
0.000326
0.000402
0.000294
0.000242
0.000270
0.000257
0.000271
0.000288
0.000267
0.000314
0.000451
0.000397
0.001373
0.000055
0.000214
0.000250
0.000243
0.000226
0.000247
0.000399
0.000490
0.001300
0.000247
0.000239
0.000250
0.001429
0.000540
0.000236
0.000222
0.000405
0.000252
0.000232
0.000270
0.000277
0.000247
0.000269
0.000281
0.000250
0.000261
0.000270
0.000484
0.000444
0.001497
0.000227
0.000189
0.000056
0.000208
0.000252
0.000472
0.000518
0.001142
0.000286
0.000245
0.000257
0.000248
0.000250
0.000252
0.000260
0.000396
0.000448
0.000355
0.000229
0.000260
0.000275
0.000247
0.000271
0.000256
0.000269
0.000261
0.000266
0.000314
0.000461
0.000367
0.000342
0.000321
0.001392
0.000183
0.000057
0.000226
0.000240
0.000405
0.000369
0.000292
0.000311
0.000314
0.000334
0.000270
0.000259
0.000255
0.000267
0.000253
0.000304
0.000236
0.000307
0.000595
0.000260
0.000295
0.000382
0.000277
0.000408
0.000225
0.000265
0.000248
0.000259
0.000258
0.000303
0.000303
0.000541
0.000289
0.000056
0.000214
0.001402
0.000243
0.000335
0.000522
0.000255
0.000517
0.000218
0.000219
0.000239
0.000267
0.000246
0.000262
0.000268
0.000267
0.000250
0.000263
0.001380
0.000234
0.000255
0.000260
0.000268
0.000272
0.000282
0.000269
0.000249
0.000279
0.000249
0.000390
0.000322
0.000387
0.000057
0.000203
0.000257
0.000224
0.001536
0.000280
0.000242
0.000228
0.000253
0.000228
0.000242
0.000256
0.000274
0.000246
0.000255
0.000268
0.000250
0.000255
0.000265
0.000267
0.000248
0.001433
0.000235
0.000245
0.000264
0.000262
0.000251
0.000266
0.000260
0.000279
0.000483
0.000353
0.000056
0.000204
0.000232
0.000397
0.000278
0.000253
0.000249
0.001575
0.000306
0.000294
0.000222
0.000259
0.000315
0.000333
0.000231
0.000226
0.000249
0.000253
0.000260
0.000259
0.000254
0.000537
0.000532
0.001041
0.000272
0.000236
0.000265
0.000265
0.000257
0.000272
0.000267
0.000366
0.000055
0.000290
0.000333
0.000211
0.000267
0.000222
0.000242
0.000241
0.000229
0.000290
0.001581
0.000405
0.000275
0.000238
0.000270
0.000240
0.000243
0.000260
0.000274
0.000260
0.000309
0.000322
0.000480
0.000441
0.001361
0.000240
0.000259
0.000274
0.000260
0.000270
0.000272
0.000451
0.000055
0.000236
0.000233
0.000241
0.000243
0.000238
0.000224
0.000263
0.000246
0.000272
0.001605
0.000319
0.000259
0.000261
0.000259
0.000465
0.000258
0.000519
0.000376
0.000303
0.000341
0.000438
0.000433
0.001290
0.000254
0.000248
0.000255
0.001754
0.000399
0.000613
0.000340
0.000132
0.000057
0.000191
0.000226
0.000241
0.000235
0.000258
0.000242
0.000242
0.000654
0.000364
0.000418
0.000276
0.000229
0.000231
0.000259
0.000262
0.000263
0.000244
0.000255
0.000253
0.000273
0.000277
0.000438
0.001314
0.000229
0.000253
0.000271
0.001892
0.000383
0.000381
0.000346
0.000160
0.000056
0.000216
0.000241
0.000245
0.001596
0.000393
0.000215
0.000236
0.000275
0.000243
0.000292
0.000374
0.000371
0.000357
0.000269
0.000342
0.000554
0.000317
0.001199
0.000267
0.000238
0.000253
0.000267
0.000263
0.000432
0.000641
0.000412
0.000253
0.000269
0.000266
0.000294
0.000173
0.000056
0.000196
0.000228
0.000245
0.001529
0.000257
0.000239
0.000243
0.000250
0.000245
0.000247
0.000258
0.000270
0.000278
0.000264
0.000253
0.000370
0.000497
0.000288
0.001392
0.000233
0.000260
0.000259
0.000254
0.000294
0.000360
0.000465
0.000450
0.000282
0.000279
0.000221
0.000450
0.000056
0.000210
0.000241
0.000248
0.001513
0.000326
0.000223
0.000273
0.000242
0.000253
0.000276
0.000236
0.000251
0.000262
0.000299
0.000318
0.000544
0.001385
0.000753
0.000258
0.000335
0.000256
0.000239
0.000246
0.000269
0.001679
0.000804
0.000232
0.000267
0.000277
0.000283
0.000184
0.000055
0.000215
0.000232
0.000252
0.000243
0.000257
0.000243
0.000244
0.000256
0.000244
0.000230
0.000289
0.000283
0.000251
0.000247
0.000265
0.000245
0.000270
0.001597
0.000705
0.000359
0.000353
0.000210
0.000245
0.000289
0.000262
0.000257
0.000277
0.000258
0.001407
0.000371
0.000295
0.000056
0.000187
0.000231
0.000253
0.000246
0.000266
0.000231
0.000256
0.000248
0.000252
0.000262
0.000268
0.000609
0.000317
0.000272
0.000222
0.000238
0.000264
0.001392
0.000688
0.000536
0.000265
0.000286
0.000227
0.000249
0.000273
0.000259
0.000252
0.000266
0.001514
0.000403
0.000183
0.000056
0.000218
0.000227
0.000243
0.000248
0.000251
0.000247
0.000237
0.000250
0.000270
0.000260
0.000358
0.000462
0.000259
0.000214
0.000244
0.000245
0.000271
0.000251
0.001607
0.000585
0.000512
0.000272
0.000227
0.000270
0.000261
0.000255
0.000276
0.000285
0.000256
0.001366
0.000321
0.000056
0.000213
0.000221
0.000233
0.000253
0.000253
0.000246
0.000269
0.000295
0.000364
0.000439
0.000355
0.000400
0.000348
0.000226
0.000247
0.000249
0.000273
0.000262
0.000266
0.001932
0.000316
0.000238
0.000447
0.000252
0.000240
0.000266
0.000272
0.000257
0.000273
0.000275
0.000302
0.000056
0.000229
0.000289
0.000235
0.000239
0.000273
0.000230
0.000231
0.000236
0.000263
0.000256
0.000243
0.000236
0.000257
0.000515
0.000425
0.000441
0.000231
0.000263
0.000248
0.000251
0.000258
0.000288
0.001487
0.001043
0.000219
0.000243
0.000274
0.000264
0.000272
0.000253
0.000204
0.000056
0.000192
0.001360
0.000276
0.000209
0.000238
0.000254
0.000251
0.000242
0.000238
0.000246
0.000255
0.000267
0.000236
0.000364
0.000383
0.000502
0.000239
0.000252
0.000264
0.000270
0.000266
0.000225
0.000257
0.000269
0.001334
0.000677
0.000305
0.000382
0.000425
0.000356
0.000293
0.000056
0.000207
0.000229
0.001440
0.000243
0.000211
0.000254
0.000231
0.000257
0.000262
0.000255
0.000244
0.000244
0.000267
0.000361
0.000558
0.000307
0.000225
0.000280
0.000330
0.000214
0.000249
0.000267
0.000238
0.000275
0.000282
0.001521
0.000741
0.000298
0.000277
0.000274
0.000190
0.000056
0.000211
0.000246
0.000477
0.000411
0.001211
0.000241
0.000236
0.000240
0.000232
0.000251
0.000248
0.000255
0.000223
0.000246
0.000259
0.000246
0.000272
0.000237
0.000253
0.000275
0.000252
0.000266
0.000301
0.000334
0.000219
0.000266
0.000261
0.001464
0.000253
0.000242
0.000178
0.000057
0.000193
0.000231
0.000251
0.000305
0.000362
0.000336
0.000388
0.000267
0.001578
0.000240
0.000366
0.000391
0.000368
0.000242
0.000431
0.000230
0.000243
0.000262
0.000273
0.000268
0.000281
0.000266
0.000252
0.000271
0.000242
0.000556
0.000269
0.000346
0.001561
0.000224
0.000183
0.000056
0.000231
0.000248
0.000237
0.000249
0.000237
0.000248
0.000263
0.000293
0.000415
0.002047
0.000236
0.000245
0.000248
0.000262
0.000258
0.000270
0.000254
0.000256
0.000259
0.000440
0.000356
0.000463
0.001449
0.000253
0.000524
0.000229
0.001776
0.000241
0.000260
0.001529
0.000153
0.000056
0.000314
0.000420
0.000475
0.000244
0.000267
0.000220
0.000263
0.000268
0.000260
0.000229
0.000277
0.000311
0.000431
0.000334
0.000426
0.000242
0.000236
0.001562
0.000241
0.000554
0.001889
0.000297
0.000235
0.001514
0.002055
0.000740
0.000272
0.000258
0.000292
0.000479
0.000325
0.000056
0.000215
0.000244
0.000246
0.000249
0.001419
0.001727
0.001083
0.000211
0.000231
0.001582
0.001980
0.000212
0.000233
0.000425
0.000299
0.000439
0.000324
0.000495
0.000204
0.000253
0.000251
0.000248
0.000275
0.001596
0.001208
0.001427
0.000263
0.000305
0.000251
0.000312
0.000339
0.000058
0.000176
0.000235
0.000240
0.000241
0.000226
0.000246
0.000251
0.000253
0.000257
0.000247
0.000238
0.000314
0.000461
0.000465
0.000249
0.000265
0.000248
0.000274
0.000266
0.000265
0.000256
0.000264
0.001503
0.000489
0.002116
0.000228
0.000285
0.000365
0.000369
0.000405
0.000188
0.000055
0.000228
0.000323
0.000494
0.000316
0.000196
0.000226
0.000257
0.000243
0.000237
0.000245
0.000248
0.000266
0.000260
0.001603
0.001362
0.001219
0.000285
0.000225
0.000255
0.000266
0.000287
0.000276
0.000262
0.000235
0.002207
0.000250
0.000249
0.000297
0.000324
0.000307
0.000222
0.000056
0.000225
0.000376
0.000557
0.000299
0.000228
0.000242
0.000250
0.000265
0.001901
0.001421
0.000222
0.000345
0.000377
0.000405
0.000253
0.000242
0.000243
0.000267
0.000259
0.000265
0.000264
0.000260
0.000472
0.000232
0.000273
0.000270
0.000253
0.000273
0.000281
0.000245
0.000205
0.000056
0.000195
0.000250
0.000250
0.000236
0.000252
0.000268
0.001556
0.001410
0.001334
0.000227
0.000237
0.000237
0.000267
0.000263
0.000244
0.000254
0.000246
0.002107
0.000257
0.000229
0.000262
0.000261
0.000255
0.000268
0.000267
0.000260
0.000264
0.000256
0.000281
0.000251
0.000177
0.000056
0.000208
0.002689
0.001380
0.000225
0.000312
0.000293
0.000225
0.000269
0.000259
0.000243
0.000256
0.000247
0.000233
0.000248
0.000269
0.000257
0.000267
0.000263
0.000255
0.000268
0.000267
0.000287
0.000270
0.000266
0.000250
0.000238
0.000270
0.000274
0.000257
0.000270
0.000369
0.000056
0.001533
0.000258
0.001241
0.000224
0.000229
0.000235
0.000263
0.000251
0.000244
0.000275
0.000399
0.000356
0.000344
0.000216
0.000239
0.002145
0.000250
0.000246
0.000268
0.000494
0.000419
0.000267
0.000224
0.000256
0.000264
0.000246
0.000268
0.000278
0.000273
0.001603
0.001276
0.000056
0.000195
0.000233
0.000308
0.000390
0.000348
0.000302
0.000198
0.000231
0.000256
0.000255
0.000266
0.000248
0.000223
0.000257
0.000259
0.000246
0.000299
0.000744
0.000247
0.000279
0.000200
0.000279
0.000282
0.000247
0.000252
0.000246
0.000266
0.000275
0.000240
0.000401
0.000273
0.000056
0.001114
0.000282
0.000299
0.000433
0.000305
0.000226
0.000228
0.000245
0.000244
0.002291
0.000424
0.000330
0.000225
0.000397
0.000263
0.000262
0.000257
0.000259
0.000270
0.000223
0.000254
0.000271
0.000713
0.000378
0.001862
0.001308
0.000600
0.000445
0.000222
0.000285
0.000194
0.000056
0.000357
0.000226
0.000249
0.000247
0.000244
0.000237
0.000243
0.000256
0.000258
0.000248
0.000254
0.000230
0.000240
0.000260
0.000432
0.000455
0.001853
0.001306
0.000481
0.000412
0.000454
0.000241
0.000246
0.000266
0.002195
0.000490
0.000384
0.000237
0.000268
0.000300
0.000177
0.000056
0.000189
0.000238
0.000253
0.000247
0.000241
0.000425
0.000347
0.000316
0.000277
0.000245
0.000244
0.000249
0.000263
0.002106
0.000342
0.000408
0.000219
0.000264
0.000260
0.000273
0.000233
0.002448
0.000349
0.000220
0.000261
0.000254
0.000273
0.000256
0.000282
0.000278
0.000195
0.000056
0.000203
0.000334
0.000563
0.000344
0.000266
0.000235
0.000218
0.000253
0.000271
0.000245
0.001955
0.000385
0.000273
0.000292
0.000225
0.000262
0.000292
0.000225
0.002201
0.000451
0.000223
0.000267
0.000265
0.000261
0.000256
0.000255
0.000276
0.000258
0.000262
0.000277
0.000168
0.000056
0.000210
0.000237
0.000250
0.000221
0.000244
0.000260
0.000237
0.000241
0.000233
0.002179
0.000231
0.000280
0.000225
0.000414
0.000240
0.000251
0.000272
0.000289
0.000239
0.000265
0.001966
0.000292
0.000374
0.000395
0.000369
0.000393
0.000314
0.000243
0.000251
0.000267
0.000193
0.000055
0.000199
0.000240
0.000246
0.000249
0.000245
0.000326
0.000225
0.002300
0.000235
0.000242
0.000259
0.000260
0.000232
0.000252
0.000306
0.002119
0.000598
0.000214
0.000262
0.000244
0.000276
0.000245
0.000285
0.000269
0.000261
0.000255
0.000286
0.000253
0.000264
0.000266
0.000190
0.000056
0.001825
0.001442
0.000205
0.000229
0.000240
0.000256
0.000248
0.000286
0.000383
0.000357
0.002159
0.000260
0.000236
0.000265
0.000249
0.000619
0.000325
0.000287
0.000239
0.000240
0.000246
0.000269
0.000262
0.000226
0.000265
0.000257
0.000274
0.000263
0.000281
0.000671
0.000336
0.000056
0.000191
0.000241
0.000255
0.000263
0.000258
0.000244
0.000254
0.000245
0.001493
0.002100
0.000581
0.000288
0.000393
0.000750
0.000290
0.000250
0.000251
0.000248
0.000267
0.000255
0.000258
0.000241
0.000249
0.000274
0.001825
0.001460
0.000285
0.000269
0.000283
0.000312
0.000431
0.000056
0.001918
0.000227
0.000225
0.000237
0.000295
0.000452
0.000420
0.000232
0.000291
0.000223
0.000244
0.000247
0.000261
0.000251
0.000278
0.000244
0.000254
0.000267
0.001844
0.000238
0.000256
0.000232
0.000276
0.000280
0.000272
0.000258
0.001458
0.000335
0.000248
0.000258
0.000179
0.000055
0.000204
0.000232
0.000248
0.000254
0.000242
0.000234
0.000324
0.000348
0.000394
0.000326
0.000220
0.000239
0.000269
0.000373
0.000385
0.000306
0.000226
0.000249
0.000261
0.000337
0.000529
0.000382
0.000273
0.000258
0.000252
0.000258
0.000250
0.000277
0.000274
0.000259
0.000206
0.000056
0.001439
0.000441
0.000211
0.001941
0.000265
0.000454
0.000418
0.000305
0.000237
0.000241
0.000267
0.000244
0.000249
0.000244
0.000269
0.000257
0.000447
0.000288
0.000435
0.000358
0.000334
0.000240
0.000253
0.000268
0.000279
0.000266
0.000262
0.000265
0.000375
0.000475
0.001346
0.000056
0.000196
0.000220
0.002077
0.000385
0.000225
0.000259
0.000259
0.000248
0.000262
0.000253
0.000224
0.000252
0.000257
0.000261
0.000257
0.000349
0.000745
0.001735
0.000228
0.000251
0.000255
0.000262
0.000394
0.000458
0.001546
0.000279
0.000366
0.001926
0.000267
0.000255
0.000187
0.000055
0.000214
0.000236
0.000231
0.000242
0.000232
0.000248
0.000251
0.000288
0.000329
0.000279
0.000376
0.000358
0.000337
0.000302
0.000241
0.000265
0.000261
0.000240
0.000267
0.000251
0.000312
0.000281
0.000263
0.000260
0.000277
0.001501
0.000293
0.000393
0.002063
0.000230
0.000172
0.000056
0.000242
0.000220
0.000238
0.000243
0.000489
0.000202
0.000263
0.000339
0.000388
0.000277
0.000309
0.000214
0.000267
0.000259
0.000289
0.000308
0.000411
0.000438
0.000251
0.000407
0.000646
0.000310
0.001596
0.000233
0.000255
0.002011
0.000304
0.000249
0.000233
0.000310
0.000170
0.000056
0.000204
0.000240
0.000228
0.000246
0.000245
0.000267
0.000270
0.000260
0.000246
0.000252
0.001821
0.000337
0.000367
0.000314
0.000426
0.000362
0.000336
0.001520
0.000237
0.000319
0.002092
0.000560
0.000250
0.000243
0.000265
0.000268
0.000504
0.000227
0.000253
0.000281
0.000191
0.000056
0.000344
0.000276
0.000430
0.000266
0.000226
0.000228
0.000257
0.000248
0.000272
0.000292
0.000225
0.000247
0.000260
0.000265
0.000324
0.001535
0.000313
0.000206
0.000284
0.001994
0.000291
0.000276
0.000251
0.000276
0.000231
0.000281
0.000265
0.000262
0.000247
0.000270
0.000201
0.000057
0.000337
0.000434
0.001940
0.000255
0.000253
0.000219
0.000245
0.000310
0.000391
0.000479
0.001303
0.000429
0.000295
0.002082
0.000206
0.000242
0.000268
0.000278
0.000254
0.000242
0.000284
0.000299
0.000255
0.000326
0.000483
0.000375
0.000336
0.002231
0.000499
0.000531
0.000329
0.000056
0.000195
0.000233
0.000243
0.001967
0.000225
0.000228
0.000249
0.000239
0.000247
0.000251
0.000246
0.000262
0.000244
0.000327
0.000397
0.001479
0.000240
0.000248
0.000268
0.000254
0.000231
0.000262
0.000262
0.000266
0.000341
0.000409
0.000495
0.000245
0.001595
0.000282
0.000153
0.000055
0.000195
0.000224
0.000246
0.000252
0.000233
0.000254
0.000252
0.000263
0.000242
0.000408
0.000309
0.001439
0.000236
0.000216
0.000250
0.000264
0.000257
0.000254
0.000491
0.000286
0.000445
0.000406
0.000225
0.001580
0.000228
0.000259
0.000289
0.000280
0.000260
0.000271
0.000196
0.000056
0.000213
0.000229
0.000263
0.000269
0.000247
0.000248
0.000234
0.000240
0.000258
0.000242
0.000254
0.000255
0.000258
0.001482
0.000368
0.000203
0.000252
0.000263
0.000312
0.000278
0.000430
0.000214
0.000246
0.000290
0.000232
0.000265
0.000265
0.001406
0.000289
0.000226
0.000172
0.000055
0.000198
0.000236
0.000258
0.000262
0.000253
0.000236
0.000251
0.000256
0.000223
0.000264
0.000268
0.000236
0.000226
0.000334
0.000332
0.000401
0.000229
0.000243
0.001635
0.000244
0.000237
0.000258
0.000268
0.000342
0.000335
0.000373
0.000454
0.000257
0.000261
0.001607
0.000168
0.000056
0.000302
0.000329
0.000364
0.000323
0.000212
0.000221
0.000241
0.000274
0.000255
0.000235
0.000247
0.000242
0.001459
0.000289
0.000317
0.000218
0.000249
0.000256
0.000266
0.000270
0.000252
0.000248
0.000247
0.000271
0.000283
0.000361
0.000456
0.000303
0.000313
0.000249
0.000188
0.000056
0.000203
0.000231
0.000555
0.000275
0.000336
0.000273
0.000248
0.000251
0.000251
0.000256
0.000246
0.000224
0.000259
0.000247
0.001249
0.000285
0.000251
0.000259
0.000264
0.000268
0.000236
0.000264
0.000257
0.000260
0.000260
0.000252
0.000317
0.000679
0.000449
0.000242
0.000169
0.000055
0.000202
0.001566
0.000253
0.000313
0.000467
0.000380
0.000216
0.000258
0.000268
0.000248
0.000242
0.000259
0.000283
0.000260
0.000270
0.001511
0.000253
0.000284
0.000268
0.000254
0.000261
0.000250
0.000266
0.000258
0.000272
0.000291
0.000432
0.000311
0.000374
0.000238
0.000191
0.000055
0.000216
0.000249
0.000233
0.001646
0.000388
0.000342
0.000238
0.000235
0.000252
0.000272
0.000274
0.000257
0.000246
0.000262
0.000231
0.000274
0.000408
0.001311
0.000252
0.000237
0.001487
0.000338
0.000683
0.000262
0.000351
0.000226
0.000272
0.000457
0.000242
0.000266
0.000175
0.000056
0.000241
0.000223
0.000245
0.000247
0.000248
0.000253
0.000243
0.000251
0.000260
0.000236
0.000257
0.000259
0.000331
0.000461
0.001680
0.001560
0.000321
0.000552
0.000293
0.000226
0.000232
0.000257
0.000249
0.000272
0.000239
0.000268
0.000260
0.000264
0.001520
0.000345
0.000151
0.000055
0.000254
0.000335
0.000358
0.000322
0.000226
0.000228
0.000247
0.000378
0.000446
0.000350
0.002137
0.000325
0.000703
0.000498
0.000467
0.000267
0.000332
0.000406
0.000315
0.000281
0.000396
0.000232
0.001816
0.000273
0.000215
0.000267
0.000254
0.000252
0.000268
0.000265
0.000192
0.000056
0.000236
0.000246
0.000250
0.000257
0.000245
0.001658
0.000878
0.000993
0.000213
0.000237
0.000253
0.000259
0.000267
0.000257
0.000254
0.000249
0.000254
0.000264
0.000265
0.000279
0.001431
0.000311
0.000257
0.000230
0.000240
0.000257
0.000258
0.000276
0.000269
0.000279
0.001906
0.000057
0.000188
0.000228
0.001551
0.000870
0.000465
0.000263
0.000234
0.000235
0.000249
0.000255
0.000246
0.000251
0.000248
0.001997
0.000455
0.000228
0.000241
0.000253
0.000268
0.000261
0.000188
