0.000260
0.009365
0.012121
0.000296
0.000268
0.000274
0.000328
0.000225
0.000328
0.000284
0.000253
0.000329
0.000493
0.000494
0.000354
0.000411
0.000290
0.000313
0.000355
0.000420
0.001831
0.000394
0.000709
0.000269
0.000241
0.000308
0.000313
0.000310
0.000420
0.000427
0.000535
0.000254
0.000058
0.000203
0.000269
0.000269
0.000284
0.000249
0.000249
0.000278
0.000288
0.000269
0.000310
0.000382
0.000443
0.000305
0.000256
0.000379
0.000347
0.000367
0.000243
0.000256
0.001700
0.000317
0.000274
0.000447
0.000230
0.000284
0.000274
0.000289
0.000292
0.000276
0.000431
0.000319
0.000057
0.000255
0.000253
0.000262
0.000267
0.000246
0.000246
0.000265
0.000256
0.000285
0.001664
0.000230
0.000235
0.000290
0.000253
0.000279
0.000252
0.000258
0.000258
0.000355
0.001791
0.000236
0.000283
0.000459
0.000413
0.000388
0.000238
0.000263
0.000507
0.000498
0.000749
0.000183
0.000056
0.000196
0.000246
0.000251
0.000242
0.000294
0.000252
0.000265
0.000624
0.000363
0.000251
0.000250
0.000257
0.000239
0.000252
0.000256
0.000261
0.000239
0.000264
0.000306
0.000330
0.001659
0.000283
0.000254
0.000413
0.000318
0.000718
0.000621
0.000524
0.000361
0.000236
0.000196
0.000057
0.000220
0.000248
0.000292
0.000216
0.000284
0.000232
0.000261
0.000584
0.001351
0.000212
0.000249
0.000251
0.000250
0.000260
0.000261
0.000282
0.000306
0.000768
0.001395
0.000300
0.000240
0.000418
0.000234
0.000252
0.000261
0.000254
0.000268
0.000270
0.000266
0.000263
0.000195
0.000057
0.000190
0.000242
0.000244
0.000267
0.000235
0.000248
0.000235
0.000257
0.000239
0.000253
0.001629
0.000261
0.000230
0.000245
0.000260
0.000259
0.000238
0.000245
0.000256
0.000254
0.000290
0.001633
0.000291
0.000257
0.000435
0.000257
0.000257
0.000254
0.000264
0.000277
0.000191
0.000056
0.000222
0.000231
0.000253
0.000240
0.000240
0.000249
0.000262
0.000232
0.000269
0.000259
0.000247
0.000255
0.000262
0.000273
0.001638
0.000276
0.000287
0.000217
0.000258
0.000274
0.000270
0.000237
0.000244
0.000267
0.001769
0.000407
0.000333
0.000382
0.000234
0.000282
0.000199
0.000056
0.000228
0.000237
0.000241
0.000275
0.000254
0.000260
0.000277
0.000383
0.000450
0.000404
0.000203
0.000249
0.000256
0.000247
0.001558
0.000542
0.000304
0.000413
0.000320
0.000232
0.000266
0.000283
0.000272
0.001778
0.000460
0.000486
0.000229
0.000253
0.000240
0.000268
0.000187
0.000057
0.000210
0.000236
0.000255
0.000313
0.000292
0.000467
0.000346
0.000284
0.000211
0.000253
0.000261
0.000234
0.000255
0.001741
0.000449
0.000299
0.000227
0.000261
0.000264
0.000290
0.000246
0.000254
0.001824
0.000321
0.000324
0.000401
0.000223
0.000272
0.000262
0.000395
0.000329
0.000057
0.000203
0.000378
0.000377
0.000264
0.000256
0.000254
0.000247
0.000256
0.000245
0.000228
0.000240
0.000248
0.001549
0.000352
0.000320
0.000224
0.000255
0.000254
0.000248
0.000307
0.000254
0.000327
0.000246
0.001830
0.000229
0.000498
0.000248
0.000256
0.000258
0.000266
0.000257
0.000056
0.000436
0.000502
0.000611
0.000210
0.000232
0.000272
0.000232
0.000218
0.000260
0.000253
0.000251
0.001699
0.000252
0.000439
0.000373
0.000218
0.000241
0.000231
0.000252
0.000259
0.000395
0.001712
0.000230
0.000471
0.001931
0.000469
0.000343
0.000250
0.000254
0.000264
0.000191
0.000057
0.000190
0.000245
0.000244
0.000242
0.000276
0.001599
0.000260
0.000230
0.000245
0.000256
0.000258
0.000249
0.000243
0.000246
0.000289
0.000372
0.000652
0.000255
0.000229
0.000272
0.000282
0.000232
0.000255
0.000440
0.000423
0.000253
0.000455
0.000482
0.000407
0.000271
0.000204
0.000055
0.000221
0.000237
0.000253
0.000252
0.000254
0.000228
0.000251
0.000424
0.001790
0.000316
0.000228
0.000234
0.000245
0.000267
0.000238
0.000276
0.000434
0.000470
0.000336
0.000255
0.000258
0.000301
0.000280
0.000248
0.000280
0.000436
0.000335
0.000651
0.000376
0.000500
0.000168
0.000057
0.000212
0.000254
0.000265
0.000215
0.000235
0.000240
0.000244
0.000262
0.000230
0.000284
0.000340
0.000474
0.001365
0.000239
0.000242
0.000240
0.000261
0.000250
0.000249
0.000250
0.000290
0.000441
0.000416
0.000259
0.000267
0.000266
0.000247
0.000271
0.000266
0.000279
0.000382
0.000056
0.000182
0.000235
0.000226
0.000347
0.000446
0.000440
0.000238
0.000263
0.000232
0.000255
0.000261
0.000229
0.000296
0.000253
0.000239
0.000470
0.000426
0.001641
0.000278
0.000232
0.000265
0.000282
0.000236
0.000239
0.000280
0.000365
0.000545
0.000325
0.000428
0.000234
0.000200
0.000056
0.000227
0.000436
0.000230
0.000217
0.000285
0.000229
0.000371
0.000471
0.000335
0.000330
0.000224
0.000278
0.000260
0.000239
0.000518
0.000340
0.000230
0.000255
0.000409
0.001630
0.000276
0.000235
0.000521
0.000269
0.000255
0.000278
0.000254
0.000429
0.000468
0.000366
0.000285
0.000056
0.000189
0.000233
0.000235
0.000248
0.000437
0.000285
0.000289
0.000226
0.000376
0.000525
0.000339
0.000266
0.000230
0.000251
0.000255
0.000264
0.000253
0.000259
0.000232
0.000348
0.000292
0.000387
0.001787
0.000245
0.000257
0.000253
0.000315
0.000309
0.000418
0.000712
0.000419
0.000056
0.000213
0.000334
0.000301
0.000424
0.000402
0.000188
0.000279
0.000338
0.000468
0.000391
0.000264
0.000244
0.000232
0.000272
0.000262
0.000233
0.000252
0.000278
0.000281
0.000243
0.000265
0.000441
0.000632
0.001335
0.000317
0.000433
0.000426
0.000232
0.000549
0.000301
0.000330
0.000055
0.000232
0.000383
0.000278
0.000217
0.000224
0.000242
0.000414
0.000236
0.000250
0.000332
0.000447
0.000456
0.000234
0.000255
0.000265
0.000250
0.000344
0.000398
0.000339
0.000274
0.000222
0.000379
0.000661
0.001655
0.000221
0.000437
0.000316
0.000219
0.000271
0.000498
0.000291
0.000056
0.000222
0.000233
0.000242
0.000259
0.000247
0.000243
0.000244
0.000320
0.000477
0.000276
0.000405
0.000418
0.000264
0.000576
0.000246
0.000242
0.000271
0.000281
0.000214
0.000342
0.000231
0.000261
0.000256
0.000443
0.000427
0.001685
0.000260
0.000242
0.000264
0.000264
0.000189
0.000056
0.000381
0.000426
0.000323
0.000218
0.000246
0.000266
0.000243
0.000240
0.000270
0.000235
0.000222
0.000264
0.000409
0.000516
0.000393
0.000288
0.000249
0.000249
0.000344
0.000379
0.000381
0.000338
0.000360
0.000400
0.000240
0.000267
0.000257
0.000277
0.001786
0.000242
0.000211
0.000056
0.000211
0.000224
0.000253
0.000290
0.000331
0.000538
0.000319
0.000215
0.000289
0.000237
0.000252
0.000252
0.000532
0.000449
0.000472
0.000264
0.000263
0.000264
0.000428
0.000460
0.000354
0.000417
0.000457
0.000468
0.000261
0.000234
0.000261
0.000245
0.000262
0.001719
0.000403
0.000057
0.000277
0.000301
0.000209
0.000240
0.000257
0.000251
0.000233
0.000494
0.000377
0.000307
0.000296
0.000263
0.000378
0.000600
0.000369
0.000230
0.000262
0.000253
0.000249
0.000270
0.000271
0.000256
0.000251
0.000260
0.000322
0.000350
0.000449
0.000316
0.000245
0.000245
0.000189
0.000056
0.000521
0.000229
0.000462
0.000255
0.000202
0.000254
0.000243
0.000255
0.000241
0.000221
0.000249
0.000281
0.000292
0.000428
0.000538
0.000404
0.000327
0.000284
0.000385
0.000346
0.000312
0.000231
0.000243
0.000258
0.001738
0.000262
0.001721
0.000943
0.000493
0.000233
0.000152
0.000057
0.000184
0.000234
0.000234
0.000240
0.000277
0.000236
0.000253
0.000251
0.000254
0.000312
0.000352
0.000426
0.000343
0.000379
0.000251
0.000253
0.000254
0.000292
0.000227
0.000251
0.000252
0.000259
0.001814
0.000239
0.000252
0.000268
0.000277
0.000269
0.001863
0.000591
0.000194
0.000057
0.000228
0.000206
0.000244
0.000238
0.000255
0.000254
0.000241
0.000248
0.000262
0.000413
0.000458
0.000372
0.000386
0.000228
0.000239
0.000253
0.000328
0.000435
0.000369
0.000248
0.001808
0.000246
0.000235
0.000251
0.000263
0.000268
0.000243
0.000255
0.000325
0.000355
0.000313
0.000056
0.000212
0.000223
0.000246
0.000266
0.000236
0.000245
0.000251
0.000259
0.000242
0.000253
0.000243
0.000285
0.000369
0.000409
0.000317
0.000295
0.000460
0.000228
0.000251
0.000251
0.000259
0.000262
0.000278
0.000255
0.000278
0.001785
0.000244
0.000253
0.000266
0.000235
0.000198
0.000056
0.000300
0.000329
0.000231
0.000244
0.000225
0.000243
0.000233
0.000254
0.000251
0.000218
0.000229
0.000269
0.000256
0.000387
0.000397
0.000335
0.000295
0.000242
0.000248
0.000254
0.000272
0.000255
0.000249
0.000268
0.000243
0.000273
0.000281
0.001648
0.000280
0.000235
0.000190
0.000056
0.000220
0.000233
0.000250
0.000262
0.000352
0.000351
0.000383
0.000323
0.000236
0.000253
0.000285
0.000210
0.000249
0.000254
0.000255
0.000260
0.000249
0.000253
0.000254
0.000263
0.000261
0.000272
0.000244
0.000236
0.000243
0.000278
0.000281
0.000262
0.000251
0.000265
0.000197
0.000056
0.000192
0.000239
0.000257
0.000278
0.000226
0.000238
0.000241
0.000262
0.000279
0.000246
0.000236
0.000238
0.000257
0.000247
0.000284
0.000246
0.000255
0.000248
0.000301
0.000254
0.000268
0.000325
0.000262
0.000228
0.000302
0.000254
0.000266
0.000248
0.000283
0.000465
0.000604
0.000055
0.000246
0.000263
0.000226
0.000230
0.000236
0.000257
0.000261
0.000231
0.000250
0.000243
0.000268
0.000289
0.000487
0.000449
0.001567
0.000230
0.000498
0.000233
0.000269
0.000431
0.000460
0.000364
0.000233
0.000275
0.000244
0.000263
0.000281
0.000247
0.000313
0.000277
0.000172
0.000056
0.000383
0.000395
0.000333
0.000337
0.000209
0.000278
0.000225
0.000240
0.000239
0.000242
0.000261
0.000248
0.000230
0.000283
0.000367
0.000475
0.000399
0.001781
0.000245
0.000250
0.000364
0.000408
0.000472
0.000252
0.000326
0.000322
0.000299
0.000228
0.000232
0.000253
0.000196
0.000056
0.000183
0.000226
0.000237
0.000282
0.000378
0.000419
0.000358
0.000255
0.000249
0.000219
0.000245
0.000271
0.000264
0.000265
0.000246
0.000255
0.000304
0.000493
0.000366
0.000411
0.000232
0.001755
0.000307
0.000609
0.000395
0.000476
0.000326
0.000220
0.000263
0.000263
0.000447
0.000058
0.000208
0.000270
0.000219
0.000264
0.000396
0.000558
0.000318
0.000227
0.000270
0.000297
0.000211
0.000255
0.000252
0.000294
0.000325
0.000216
0.000268
0.000295
0.000544
0.000311
0.000510
0.001856
0.000254
0.000522
0.000403
0.000354
0.000227
0.000264
0.000289
0.000267
0.000200
0.000055
0.000214
0.000339
0.000361
0.000367
0.000362
0.000279
0.000383
0.000211
0.000243
0.000260
0.000269
0.000230
0.000257
0.000245
0.000244
0.000266
0.000340
0.000353
0.000504
0.000347
0.000337
0.000225
0.000250
0.001714
0.000548
0.000370
0.000705
0.000228
0.000261
0.000312
0.000158
0.000056
0.000196
0.000233
0.000347
0.000236
0.000280
0.000318
0.000427
0.000336
0.000240
0.000525
0.000222
0.000257
0.000261
0.000281
0.000275
0.000261
0.000214
0.000330
0.000506
0.000427
0.000248
0.000238
0.000260
0.000246
0.000264
0.000268
0.000237
0.000261
0.000262
0.000289
0.000225
0.000058
0.000299
0.000350
0.000218
0.000253
0.000251
0.000257
0.000241
0.000285
0.000248
0.000239
0.000283
0.000333
0.000493
0.000287
0.000384
0.000271
0.000230
0.000243
0.000251
0.000268
0.000289
0.000256
0.000241
0.000258
0.000274
0.000325
0.000414
0.000365
0.000362
0.000230
0.000172
0.000056
0.000206
0.000220
0.000283
0.000242
0.000236
0.000267
0.000267
0.000231
0.000498
0.000227
0.000241
0.000260
0.000239
0.000263
0.000274
0.000295
0.000243
0.000349
0.000215
0.000243
0.000265
0.000259
0.000254
0.000268
0.000307
0.000228
0.000259
0.000263
0.000255
0.000493
0.000167
0.000056
0.000201
0.000241
0.000246
0.000292
0.000199
0.000245
0.000367
0.000404
0.000236
0.000236
0.000249
0.000259
0.000239
0.000238
0.000518
0.001728
0.000234
0.000266
0.000285
0.000327
0.000408
0.000366
0.000362
0.000447
0.000352
0.000394
0.000241
0.000274
0.000272
0.000273
0.001434
0.000055
0.000441
0.000263
0.000262
0.000221
0.000241
0.000250
0.000236
0.000254
0.000240
0.000271
0.000247
0.000261
0.000251
0.000319
0.000500
0.001642
0.000238
0.000233
0.000241
0.000266
0.000238
0.000296
0.000331
0.000412
0.000269
0.000359
0.000225
0.000268
0.000272
0.000267
0.000178
0.000056
0.001240
0.000564
0.000265
0.000274
0.000240
0.000226
0.000232
0.000242
0.000494
0.000213
0.000241
0.000248
0.000383
0.000557
0.000312
0.000354
0.000256
0.000229
0.000323
0.000366
0.000275
0.000252
0.000272
0.000240
0.000268
0.000535
0.000521
0.000340
0.000254
0.000266
0.000175
0.000056
0.000213
0.000243
0.000224
0.000249
0.001424
0.000361
0.000209
0.000252
0.000263
0.000230
0.000251
0.000254
0.000259
0.000247
0.000270
0.000269
0.000457
0.000643
0.000269
0.001743
0.000257
0.000280
0.000293
0.000439
0.000550
0.000393
0.000251
0.000251
0.000259
0.000273
0.000195
0.000056
0.000221
0.000251
0.000230
0.000349
0.001225
0.000239
0.000251
0.000259
0.000239
0.000237
0.000241
0.000255
0.000278
0.000245
0.000251
0.000295
0.000502
0.000373
0.000316
0.000269
0.000269
0.000271
0.000253
0.000228
0.000292
0.000261
0.000258
0.000259
0.000271
0.000310
0.000628
0.000056
0.000222
0.000248
0.000236
0.000259
0.000263
0.000245
0.000227
0.000265
0.000271
0.000278
0.001403
0.000233
0.000238
0.000263
0.000240
0.000249
0.000281
0.000248
0.000282
0.000247
0.000324
0.000427
0.000529
0.000318
0.000228
0.000276
0.001760
0.000267
0.000250
0.000319
0.000501
0.000056
0.000200
0.000400
0.000453
0.000503
0.000512
0.000541
0.001507
0.000412
0.000519
0.000652
0.000555
0.000789
0.000416
0.000618
0.000578
0.001886
0.000439
0.000403
0.000393
0.000321
0.000226
0.000270
0.000288
0.000273
0.000250
0.000290
0.000292
0.000312
0.000240
0.000284
0.001368
0.000056
0.000212
0.000235
0.000247
0.000234
0.000266
0.000255
0.000232
0.000242
0.000249
0.000251
0.000242
0.000238
0.000258
0.000261
0.000261
0.000270
0.001826
0.000242
0.000268
0.000241
0.000252
0.000262
0.000271
0.000320
0.000368
0.000407
0.000350
0.000234
0.000269
0.000286
0.000209
0.000056
0.000200
0.001349
0.000341
0.000270
0.000247
0.000258
0.000226
0.000238
0.000230
0.000245
0.000210
0.000249
0.000244
0.000516
0.000362
0.000305
0.000249
0.001814
0.000354
0.000234
0.000244
0.000269
0.000251
0.000268
0.000269
0.000288
0.000263
0.000257
0.000272
0.000314
0.000206
0.000056
0.000200
0.000237
0.000249
0.001437
0.000221
0.000246
0.000259
0.000244
0.000233
0.000267
0.000249
0.000245
0.000258
0.000271
0.000240
0.000249
0.000270
0.000264
0.000269
0.000260
0.000259
0.001773
0.000266
0.001764
0.000258
0.000262
0.000255
0.000275
0.000270
0.000273
0.000201
0.000057
0.000187
0.000235
0.001346
0.000235
0.000245
0.000251
0.000257
0.000252
0.000245
0.000252
0.000255
0.000256
0.000247
0.000258
0.000259
0.000264
0.000258
0.000282
0.000297
0.000230
0.001884
0.000240
0.001828
0.000228
0.000271
0.000269
0.000231
0.000245
0.000268
0.000265
0.000197
0.000057
0.001432
0.000209
0.000229
0.000256
0.000243
0.000236
0.000364
0.000287
0.000240
0.000249
0.000253
0.000258
0.000277
0.000327
0.000496
0.000188
0.000239
0.000274
0.000254
0.000256
0.000270
0.000349
0.000226
0.000246
0.000275
0.000275
0.000272
0.000381
0.000604
0.000355
0.000193
0.000058
0.000225
0.000236
0.000260
0.000311
0.000368
0.000244
0.001673
0.000330
0.000284
0.000267
0.000245
0.000285
0.000259
0.000285
0.000280
0.000306
0.000340
0.000632
0.000323
0.000260
0.000307
0.000262
0.000271
0.000264
0.000338
0.000259
0.000260
0.000258
0.000257
0.000316
0.000412
0.000057
0.000245
0.000476
0.000259
0.000262
0.000250
0.000229
0.000224
0.000271
0.000237
0.000269
0.001505
0.000223
0.000231
0.000244
0.000245
0.000283
0.000302
0.000215
0.000273
0.000253
0.000265
0.000436
0.000455
0.000338
0.000270
0.000283
0.000271
0.000259
0.000233
0.000314
0.000169
0.000056
0.000186
0.000235
0.000290
0.000457
0.000359
0.000280
0.000224
0.000246
0.000254
0.000251
0.000252
0.000228
0.000263
0.000266
0.000263
0.000218
0.000404
0.001197
0.000245
0.000253
0.000277
0.000422
0.000172
0.000422
0.000261
0.000334
0.000556
0.000357
0.000377
0.000228
0.000191
0.000055
0.000219
0.000245
0.000262
0.000260
0.000256
0.000247
0.000330
0.000439
0.000397
0.000312
0.000344
0.000404
0.000401
0.000353
0.000245
0.000245
0.000240
0.000261
0.000398
0.000482
0.001241
0.000223
0.000277
0.000275
0.000237
0.000234
0.000269
0.000336
0.000394
0.000455
0.000237
0.000056
0.000212
0.000238
0.000260
0.000243
0.000236
0.000247
0.000240
0.000264
0.000298
0.000417
0.000378
0.000357
0.000237
0.000251
0.000249
0.000255
0.000248
0.000266
0.000260
0.000272
0.000423
0.000275
0.000336
0.000434
0.000322
0.000241
0.000276
0.000264
0.000250
0.000347
0.000156
0.000056
0.000323
0.000308
0.000358
0.000377
0.000423
0.000340
0.000240
0.000240
0.000248
0.000270
0.000255
0.000262
0.000236
0.000254
0.000241
0.000237
0.000264
0.000346
0.000530
0.000319
0.000225
0.000280
0.000238
0.000246
0.000264
0.000281
0.000267
0.000284
0.000268
0.000266
0.000329
0.000056
0.000259
0.000327
0.000240
0.000266
0.000225
0.000243
0.000245
0.000255
0.000265
0.000258
0.000246
0.000239
0.000410
0.000368
0.000442
0.000285
0.000248
0.000244
0.000258
0.000266
0.000253
0.000261
0.000265
0.000267
0.000270
0.000337
0.000451
0.000561
0.000379
0.000258
0.000169
0.000056
0.000383
0.000197
0.000226
0.000251
0.000250
0.000249
0.000232
0.000247
0.000259
0.000257
0.000249
0.000219
0.000272
0.000226
0.000236
0.000272
0.000251
0.000262
0.000297
0.000240
0.000264
0.000260
0.000266
0.000261
0.000267
0.000239
0.000265
0.000279
0.000254
0.000284
0.000198
0.000056
0.000194
0.000238
0.000241
0.000252
0.000226
0.000261
0.000257
0.000242
0.000260
0.000271
0.000238
0.000234
0.000258
0.000400
0.000248
0.000290
0.000250
0.000266
0.000251
0.000283
0.000275
0.000226
0.000252
0.000247
0.000276
0.000274
0.000249
0.000257
0.000277
0.000252
0.000207
0.000055
0.000220
0.000353
0.000368
0.000286
0.000287
0.000263
0.000269
0.000255
0.000217
0.000252
0.000279
0.000234
0.000248
0.000236
0.000257
0.000283
0.000242
0.000269
0.000244
0.000268
0.000273
0.000265
0.000276
0.000258
0.000295
0.000223
0.000256
0.000272
0.000271
0.000260
0.000200
0.000055
0.000202
0.000224
0.000266
0.000266
0.000249
0.000461
0.000197
0.000270
0.000244
0.000502
0.000515
0.000221
0.000226
0.000249
0.000278
0.000259
0.000236
0.000268
0.000257
0.000302
0.000237
0.000259
0.000260
0.000260
0.000552
0.000496
0.000267
0.000304
0.000270
0.000254
0.000193
0.000056
0.000229
0.000218
0.000249
0.000249
0.000407
0.000537
0.000339
0.000391
0.000223
0.000229
0.000250
0.000253
0.000252
0.000248
0.000273
0.000253
0.000275
0.000265
0.000636
0.000380
0.000267
0.000253
0.000255
0.000282
0.000284
0.000255
0.000260
0.000311
0.000211
0.000316
0.000372
0.000056
0.000259
0.000232
0.000248
0.000226
0.000256
0.000267
0.000213
0.000245
0.000244
0.000281
0.000226
0.000253
0.000244
0.000405
0.000611
0.000330
0.000247
0.000257
0.000265
0.000244
0.000263
0.000289
0.000480
0.000217
0.000262
0.000573
0.000427
0.000495
0.000255
0.000250
0.000186
0.000057
0.000206
0.000227
0.000244
0.000267
0.000232
0.000258
0.000275
0.000453
0.000602
0.000418
0.000220
0.000258
0.000273
0.000280
0.000272
0.000227
0.000262
0.000222
0.000287
0.000255
0.000454
0.000754
0.000295
0.000224
0.000348
0.000374
0.000491
0.000262
0.000248
0.000400
0.000451
0.000056
0.000274
0.000229
0.000444
0.000219
0.000238
0.000247
0.000260
0.000261
0.000251
0.000226
0.000266
0.000396
0.000355
0.000352
0.000218
0.000257
0.000265
0.000243
0.000272
0.000273
0.000274
0.000256
0.000252
0.000269
0.000316
0.000481
0.000493
0.000230
0.000263
0.000268
0.000212
0.000056
0.000228
0.000255
0.000224
0.000248
0.000248
0.000249
0.000370
0.000489
0.000350
0.000263
0.000379
0.000225
0.000253
0.000261
0.000259
0.000235
0.000257
0.000261
0.000285
0.000389
0.000534
0.000308
0.000466
0.000265
0.000381
0.000424
0.000383
0.000252
0.000253
0.000310
0.000362
0.000057
0.000227
0.000273
0.000222
0.000255
0.000255
0.000259
0.000247
0.000243
0.000289
0.000238
0.000231
0.000396
0.000450
0.000333
0.000370
0.000230
0.000268
0.000263
0.000267
0.000232
0.000252
0.000257
0.000261
0.000277
0.000275
0.000320
0.000561
0.000414
0.000251
0.000272
0.000191
0.000055
0.000224
0.000238
0.000279
0.000247
0.000242
0.000346
0.000498
0.000469
0.000356
0.000685
0.000268
0.000208
0.000248
0.000261
0.000248
0.000264
0.000278
0.000273
0.000468
0.000441
0.001498
0.000320
0.000265
0.000279
0.000270
0.000270
0.000345
0.000444
0.000342
0.000316
0.000192
0.000057
0.000217
0.000235
0.000245
0.000285
0.000208
0.000247
0.000304
0.000226
0.000242
0.000332
0.000322
0.000378
0.000271
0.000338
0.000394
0.000345
0.000251
0.000246
0.000268
0.000259
0.000242
0.000250
0.000331
0.000202
0.000326
0.000436
0.000430
0.000284
0.000256
0.000265
0.000190
0.000056
0.000241
0.000240
0.000257
0.000256
0.000244
0.000231
0.000474
0.000218
0.000228
0.000256
0.000247
0.000248
0.000264
0.000254
0.000252
0.000268
0.000264
0.000283
0.000251
0.000252
0.000283
0.000265
0.000294
0.000241
0.000271
0.000276
0.000272
0.000266
0.000259
0.000270
0.000180
0.000055
0.000233
0.000244
0.000275
0.000445
0.000400
0.000233
0.000232
0.000251
0.000258
0.000254
0.000240
0.000259
0.000265
0.000264
0.000231
0.000250
0.000261
0.000251
0.000295
0.000403
0.000337
0.000429
0.000228
0.000260
0.000264
0.000255
0.000263
0.000267
0.000264
0.000276
0.000201
0.000077
0.000352
0.000432
0.000390
0.000205
0.000253
0.000254
0.000415
0.000222
0.000229
0.000260
0.000251
0.000287
0.000345
0.000497
0.001814
0.000264
0.000240
0.000246
0.000278
0.000239
0.000382
0.000471
0.000520
0.000322
0.000233
0.000259
0.000277
0.000430
0.000271
0.000282
0.000167
0.000056
0.000223
0.000373
0.000334
0.000323
0.000496
0.000200
0.000238
0.000253
0.000253
0.000237
0.000260
0.000247
0.000260
0.000335
0.000488
0.000375
0.000233
0.000240
0.000260
0.000263
0.000264
0.000309
0.000238
0.000282
0.000276
0.000552
0.000402
0.000376
0.000488
0.000228
0.000207
0.000055
0.000192
0.000245
0.000257
0.000231
0.000248
0.000249
0.000266
0.000296
0.000376
0.000373
0.000379
0.000349
0.000212
0.000259
0.000280
0.000274
0.000293
0.000238
0.000278
0.000275
0.000233
0.000287
0.000537
0.000340
0.000279
0.000252
0.000261
0.000436
0.000415
0.000297
0.000199
0.000056
0.000228
0.000242
0.000314
0.000457
0.000359
0.000206
0.000238
0.000257
0.000262
0.000262
0.000253
0.000252
0.000227
0.000260
0.000256
0.000327
0.000380
0.000349
0.000295
0.000342
0.000495
0.000223
0.000280
0.000279
0.000299
0.000285
0.000251
0.000270
0.000476
0.000544
0.000156
0.000055
0.000195
0.000234
0.000246
0.000252
0.000240
0.000484
0.000214
0.000255
0.000264
0.000412
0.000423
0.000571
0.000207
0.000247
0.000243
0.000245
0.000257
0.000268
0.000244
0.000244
0.000290
0.000246
0.000435
0.000362
0.000331
0.000408
0.000288
0.000309
0.000316
0.000260
0.000180
0.000055
0.000204
0.000235
0.000261
0.000473
0.000394
0.000227
0.000281
0.000209
0.000243
0.000261
0.000256
0.000255
0.000267
0.000235
0.000254
0.000257
0.000253
0.000240
0.000258
0.000427
0.000487
0.000382
0.000230
0.000248
0.000276
0.000277
0.000259
0.000261
0.000265
0.000268
0.000193
0.000055
0.000250
0.000388
0.000500
0.000225
0.000217
0.000251
0.000312
0.000456
0.000288
0.000219
0.000252
0.000267
0.000280
0.000476
0.000432
0.000239
0.000230
0.000245
0.000250
0.000268
0.000266
0.000267
0.000258
0.000276
0.000256
0.000290
0.000444
0.000410
0.000274
0.000269
0.000170
0.000057
0.000203
0.000238
0.000252
0.000255
0.000249
0.000265
0.000225
0.000273
0.000251
0.000241
0.000259
0.000236
0.000291
0.001434
0.000222
0.000257
0.000258
0.000244
0.000277
0.000277
0.000261
0.000240
0.000271
0.000255
0.000285
0.000262
0.000262
0.000272
0.000257
0.000271
0.000194
0.000057
0.000218
0.000234
0.000252
0.000265
0.000221
0.000239
0.000263
0.000254
0.000252
0.000229
0.000248
0.000263
0.000258
0.000255
0.000255
0.000252
0.000245
0.000265
0.000272
0.000252
0.000257
0.000263
0.000247
0.000247
0.001300
0.000291
0.000571
0.000352
0.000399
0.000241
0.000189
0.000056
0.000217
0.000235
0.000246
0.000250
0.000415
0.000229
0.000247
0.000240
0.000253
0.000368
0.000434
0.000359
0.000224
0.000230
0.000270
0.000272
0.000243
0.000261
0.000246
0.000260
0.000265
0.000246
0.000384
0.000396
0.000424
0.000439
0.000230
0.000268
0.001362
0.000244
0.000188
0.000056
0.000334
0.000402
0.000430
0.000180
0.000212
0.000230
0.000228
0.000249
0.000258
0.000256
0.000245
0.000260
0.000296
0.000394
0.000472
0.000300
0.000360
0.000217
0.000254
0.000252
0.000271
0.000286
0.000244
0.000267
0.000268
0.000263
0.000295
0.000574
0.000398
0.000365
0.000148
0.000055
0.000214
0.000229
0.001263
0.000451
0.000337
0.000392
0.000382
0.000487
0.000263
0.000347
0.000210
0.000250
0.000256
0.000252
0.000254
0.000268
0.000403
0.000459
0.000338
0.000398
0.000260
0.000244
0.000294
0.000480
0.000221
0.000263
0.000258
0.000277
0.000310
0.000544
0.000316
0.000056
0.000376
0.000312
0.000244
0.000223
0.001620
0.000387
0.000318
0.000253
0.000239
0.000258
0.000223
0.000245
0.000240
0.000270
0.000251
0.000262
0.000236
0.000341
0.000398
0.000285
0.000487
0.000247
0.000255
0.000260
0.000252
0.000277
0.000274
0.000275
0.000235
0.000270
0.000195
0.000057
0.000362
0.000339
0.000218
0.000237
0.000253
0.000246
0.000250
0.000243
0.000253
0.000213
0.001438
0.000482
0.000224
0.000236
0.000250
0.000258
0.000272
0.000256
0.000237
0.000306
0.000261
0.000234
0.000262
0.000462
0.000323
0.000494
0.000243
0.000264
0.000282
0.000279
0.000168
0.000057
0.000232
0.000419
0.000203
0.000235
0.000379
0.000401
0.000362
0.000334
0.000460
0.000206
0.000233
0.000247
0.000262
0.000265
0.000257
0.001462
0.000317
0.000282
0.000242
0.000268
0.000304
0.000256
0.000225
0.000257
0.000259
0.000285
0.000352
0.000523
0.000293
0.000285
0.000151
0.000056
0.000209
0.000236
0.000255
0.000239
0.000230
0.000255
0.000240
0.000249
0.000298
0.000332
0.000400
0.000347
0.000243
0.000252
0.000245
0.000276
0.000269
0.000259
0.000268
0.000228
0.000254
0.000308
0.001256
0.000250
0.000258
0.000260
0.000257
0.000269
0.000257
0.000268
0.000181
0.000055
0.000203
0.000365
0.000344
0.000367
0.000236
0.000243
0.000259
0.000291
0.000236
0.000260
0.000261
0.000245
0.000242
0.000253
0.000255
0.000263
0.000268
0.000264
0.000267
0.000248
0.000249
0.000273
0.000268
0.000279
0.000285
0.000272
0.000267
0.000269
0.000248
0.000462
0.001343
0.000056
0.000230
0.000248
0.000224
0.000264
0.000233
0.000256
0.000248
0.000222
0.000247
0.000250
0.000286
0.000252
0.000247
0.000245
0.000273
0.000236
0.001705
0.000266
0.000237
0.000264
0.000262
0.000245
0.000280
0.000253
0.000302
0.000229
0.000264
0.000277
0.000272
0.000254
0.000220
0.000056
0.000325
0.000360
0.001281
0.000227
0.000222
0.000256
0.000248
0.000254
0.000271
0.000241
0.000231
0.000341
0.000390
0.000455
0.000277
0.000230
0.000247
0.000257
0.000257
0.000265
0.000241
0.000282
0.000256
0.000278
0.000265
0.000462
0.000266
0.000406
0.000309
0.000239
0.000201
0.000056
0.000216
0.000244
0.000247
0.000244
0.000281
0.000195
0.000244
0.000243
0.000421
0.001346
0.000262
0.000221
0.000247
0.000265
0.000259
0.000295
0.000229
0.000253
0.000297
0.000476
0.000337
0.000254
0.000248
0.000242
0.000283
0.000278
0.000265
0.000299
0.000271
0.000271
0.000198
0.000055
0.000217
0.000480
0.000373
0.000221
0.000221
0.000237
0.000249
0.000279
0.000263
0.000243
0.000230
0.000256
0.000443
0.000501
0.000472
0.001453
0.000239
0.000271
0.000333
0.000350
0.000477
0.000428
0.000513
0.000352
0.000237
0.000265
0.000260
0.000281
0.000261
0.000275
0.000188
0.000055
0.000232
0.000309
0.000515
0.000476
0.000231
0.000227
0.000254
0.000238
0.000239
0.000273
0.000232
0.000266
0.000277
0.000235
0.000261
0.000285
0.000372
0.000434
0.000376
0.001308
0.000267
0.000262
0.000250
0.000267
0.000443
0.000501
0.000332
0.000251
0.000279
0.000269
0.000188
0.000056
0.000189
0.000242
0.000246
0.000264
0.000228
0.000306
0.000416
0.000381
0.000385
0.000214
0.000256
0.000247
0.000269
0.000288
0.000238
0.000260
0.000280
0.000238
0.000282
0.000334
0.000389
0.000422
0.000322
0.001351
0.000416
0.000237
0.000261
0.000413
0.000478
0.000320
0.000312
0.000056
0.000214
0.000223
0.000247
0.000250
0.000252
0.000253
0.001693
0.000244
0.000201
0.000243
0.000254
0.000253
0.000245
0.000322
0.000327
0.000288
0.000258
0.000446
0.000438
0.000347
0.000298
0.000279
0.000241
0.000256
0.001492
0.000398
0.000385
0.000414
0.000339
0.000300
0.000179
0.000056
0.000205
0.000254
0.000253
0.000257
0.000242
0.000268
0.001699
0.000223
0.000258
0.000263
0.000325
0.000401
0.001462
0.000336
0.000413
0.000243
0.000252
0.000239
0.000260
0.000278
0.001623
0.000522
0.000350
0.000292
0.000233
0.000254
0.000264
0.000283
0.000247
0.000251
0.000192
0.000056
0.000209
0.000242
0.000266
0.000257
0.000254
0.000276
0.000273
0.000259
0.000251
0.000251
0.000257
0.000244
0.000314
0.000219
0.000253
0.001487
0.000282
0.000239
0.000266
0.000277
0.000268
0.000259
0.001431
0.000331
0.000213
0.000234
0.000271
0.000258
0.000401
0.000252
0.000189
0.000056
0.000217
0.000254
0.000218
0.000247
0.000241
0.000227
0.000234
0.001688
0.000266
0.000223
0.000356
0.000267
0.000229
0.000223
0.000251
0.001373
0.000248
0.000271
0.000258
0.000252
0.000258
0.000351
0.000292
0.001299
0.000302
0.000223
0.000250
0.001406
0.000315
0.000209
0.000200
0.000059
0.000241
0.000329
0.000207
0.000244
0.000260
0.000227
0.000288
0.000244
0.000265
0.000251
0.000259
0.000270
0.000248
0.000245
0.000329
0.001508
0.000224
0.000271
0.000253
0.000244
0.000283
0.000274
0.000235
0.001513
0.000348
0.000234
0.000263
0.001283
0.000263
0.000265
0.000182
0.000056
0.000203
0.000419
0.000325
0.000211
0.000235
0.000240
0.000268
0.000252
0.000260
0.000274
0.000239
0.000254
0.000278
0.000288
0.000371
0.001229
0.000240
0.000245
0.000265
0.000278
0.000223
0.000250
0.000249
0.000381
0.001246
0.000217
0.000263
0.000259
0.000251
0.001341
0.000346
0.000056
0.000274
0.000296
0.000221
0.000236
0.000236
0.000254
0.000247
0.000260
0.000283
0.000232
0.000243
0.000250
0.000261
0.000288
0.000445
0.001465
0.000214
0.000263
0.000293
0.000509
0.000284
0.000367
0.001375
0.000313
0.000230
0.000265
0.000251
0.001296
0.000295
0.000501
0.000331
0.000057
0.000234
0.000251
0.000254
0.000259
0.000249
0.000255
0.000268
0.000269
0.000244
0.000259
0.000367
0.000398
0.001351
0.000237
0.000281
0.000254
0.000284
0.000235
0.000229
0.000252
0.000328
0.001244
0.000245
0.000273
0.000235
0.000251
0.001564
0.000364
0.000494
0.000218
0.000189
0.000057
0.000206
0.000233
0.000252
0.000242
0.000247
0.000262
0.000239
0.000288
0.000413
0.000477
0.000268
0.001483
0.000218
0.000240
0.000271
0.000254
0.000254
0.000289
0.001695
0.000244
0.000391
0.000345
0.001248
0.000401
0.000300
0.000330
0.000253
0.000262
0.000261
0.000266
0.000195
0.000056
0.000192
0.000239
0.000330
0.000258
0.000302
0.000555
0.000271
0.000288
0.001470
0.000234
0.000390
0.000262
0.000271
0.000259
0.000387
0.001321
0.000265
0.000253
0.000239
0.000264
0.001513
0.000394
0.000265
0.000283
0.000265
0.000248
0.000456
0.000328
0.000262
0.000237
0.000254
0.000057
0.000225
0.000375
0.000357
0.000238
0.000232
0.001513
0.000213
0.000264
0.000267
0.000269
0.000269
0.000243
0.000307
0.001473
0.000265
0.000223
0.000433
0.001196
0.000305
0.000466
0.000409
0.000230
0.000244
0.000260
0.000297
0.000219
0.000447
0.000237
0.000261
0.000280
0.000195
0.000056
0.000214
0.000270
0.000344
0.000338
0.001314
0.000289
0.000336
0.000225
0.000225
0.000249
0.000250
0.000294
0.001514
0.000261
0.000233
0.000241
0.001378
0.000271
0.000431
0.000413
0.000408
0.000236
0.000246
0.000256
0.000265
0.000277
0.000267
0.000261
0.000274
0.000247
0.000201
0.000057
0.000186
0.000474
0.001388
0.000204
0.000278
0.000303
0.000220
0.000244
0.000267
0.000340
0.001431
0.000207
0.000264
0.000252
0.000270
0.001258
0.000708
0.000280
0.000322
0.000412
0.000313
0.000235
0.000275
0.000259
0.000267
0.000292
0.000271
0.000331
0.000421
0.000405
0.001384
0.000056
0.000227
0.000236
0.000243
0.000226
0.000256
0.000490
0.000389
0.001306
0.000245
0.000237
0.000250
0.001464
0.000443
0.000283
0.000232
0.000412
0.000246
0.000234
0.000265
0.000301
0.000247
0.000250
0.000281
0.000251
0.000259
0.000279
0.000458
0.000470
0.001489
0.000228
0.000184
0.000055
0.000227
0.000249
0.000361
0.000533
0.001232
0.000305
0.000228
0.000256
0.000248
0.000253
0.000248
0.000277
0.000367
0.000527
0.000285
0.000243
0.000249
0.000277
0.000245
0.000308
0.000231
0.000257
0.000263
0.000262
0.000262
0.000350
0.000571
0.000272
0.000335
0.001410
0.000174
0.000056
0.000211
0.000238
0.000343
0.000409
0.000316
0.000310
0.000321
0.000329
0.000302
0.000244
0.000242
0.000265
0.000250
0.000306
0.000237
0.000259
0.000552
0.000353
0.000293
0.000389
0.000268
0.000408
0.000240
0.000247
0.000250
0.000258
0.000261
0.000284
0.000344
0.000511
0.000292
0.000056
0.000185
0.001408
0.000218
0.000337
0.000406
0.000416
0.000455
0.000261
0.000211
0.000239
0.000265
0.000249
0.000284
0.000248
0.000260
0.000258
0.000261
0.001270
0.000350
0.000248
0.000252
0.000278
0.000269
0.000279
0.000266
0.000255
0.000275
0.000246
0.000335
0.000396
0.000301
0.000056
0.000204
0.000239
0.000239
0.001502
0.000325
0.000237
0.000233
0.000249
0.000227
0.000244
0.000255
0.000287
0.000239
0.000251
0.000291
0.000235
0.000243
0.000267
0.000258
0.000255
0.001432
0.000230
0.000258
0.000259
0.000265
0.000250
0.000265
0.000262
0.000277
0.000496
0.000338
0.000056
0.000202
0.000229
0.000395
0.000291
0.000240
0.000258
0.001517
0.000355
0.000297
0.000220
0.000261
0.000311
0.000336
0.000225
0.000228
0.000253
0.000241
0.000270
0.000254
0.000257
0.000487
0.000507
0.001122
0.000256
0.000252
0.000259
0.000269
0.000256
0.000297
0.000241
0.000341
0.000056
0.000262
0.000319
0.000210
0.000232
0.000256
0.000236
0.000245
0.000234
0.000283
0.001591
0.000462
0.000206
0.000242
0.000250
0.000258
0.000246
0.000259
0.000276
0.000260
0.000312
0.000305
0.000554
0.000379
0.001378
0.000228
0.000279
0.000256
0.000260
0.000269
0.000317
0.000462
0.000056
0.000233
0.000270
0.000224
0.000233
0.000219
0.000244
0.000261
0.000280
0.000253
0.001601
0.000331
0.000258
0.000238
0.000263
0.000467
0.000246
0.000545
0.000376
0.000273
0.000268
0.000484
0.000508
0.001263
0.000256
0.000256
0.000230
0.001684
0.000482
0.000612
0.000321
0.000145
0.000055
0.000209
0.000228
0.000241
0.000233
0.000258
0.000240
0.000249
0.000493
0.000502
0.000422
0.000286
0.000221
0.000239
0.000276
0.000264
0.000274
0.000233
0.000244
0.000254
0.000283
0.000284
0.000440
0.001298
0.000221
0.000274
0.000252
0.001898
0.000476
0.000386
0.000290
0.000116
0.000057
0.000177
0.000241
0.000245
0.001687
0.000302
0.000216
0.000239
0.000259
0.000253
0.000281
0.000370
0.000370
0.000368
0.000280
0.000253
0.000562
0.000391
0.001198
0.000272
0.000248
0.000246
0.000261
0.000272
0.000398
0.000622
0.000462
0.000251
0.000271
0.000267
0.000278
0.000193
0.000056
0.000199
0.000239
0.000238
0.001536
0.000263
0.000232
0.000239
0.000252
0.000243
0.000251
0.000261
0.000263
0.000267
0.000274
0.000270
0.000476
0.000311
0.000342
0.001404
0.000224
0.000278
0.000250
0.000259
0.000259
0.000322
0.000599
0.000390
0.000260
0.000288
0.000233
0.000444
0.000056
0.000205
0.000239
0.000271
0.001533
0.000295
0.000219
0.000267
0.000242
0.000252
0.000261
0.000255
0.000284
0.000215
0.000260
0.000414
0.000519
0.001351
0.000754
0.000296
0.000363
0.000199
0.000221
0.000246
0.000281
0.001666
0.000824
0.000222
0.000268
0.000274
0.000280
0.000190
0.000056
0.000226
0.000232
0.000250
0.000247
0.000263
0.000267
0.000213
0.000255
0.000240
0.000243
0.000279
0.000285
0.000251
0.000251
0.000258
0.000252
0.000267
0.001589
0.000721
0.000389
0.000293
0.000235
0.000242
0.000312
0.000245
0.000254
0.000275
0.000252
0.001401
0.000407
0.000299
0.000057
0.000194
0.000226
0.000273
0.000231
0.000263
0.000230
0.000278
0.000225
0.000265
0.000253
0.000305
0.000456
0.000368
0.000330
0.000216
0.000249
0.000264
0.001394
0.000685
0.000480
0.000334
0.000276
0.000230
0.000249
0.000275
0.000256
0.000252
0.000282
0.001466
0.000446
0.000181
0.000055
0.000220
0.000229
0.000249
0.000246
0.000251
0.000248
0.000249
0.000247
0.000261
0.000282
0.000314
0.000461
0.000285
0.000217
0.000238
0.000246
0.000275
0.000253
0.001562
0.000613
0.000504
0.000295
0.000232
0.000256
0.000264
0.000262
0.000266
0.000285
0.000260
0.001351
0.000337
0.000058
0.000204
0.000220
0.000238
0.000257
0.000258
0.000246
0.000250
0.000297
0.000360
0.000448
0.000370
0.000429
0.000328
0.000207
0.000248
0.000248
0.000297
0.000242
0.000264
0.001967
0.000276
0.000252
0.000441
0.000247
0.000245
0.000259
0.000270
0.000265
0.000264
0.000273
0.000504
0.000057
0.000193
0.000288
0.000222
0.000246
0.000256
0.000251
0.000222
0.000241
0.000271
0.000268
0.000230
0.000233
0.000348
0.000435
0.000421
0.000434
0.000249
0.000242
0.000259
0.000245
0.000256
0.000275
0.001474
0.001064
0.000216
0.000250
0.000272
0.000263
0.000276
0.000253
0.000196
0.000055
0.000208
0.001338
0.000290
0.000234
0.000213
0.000254
0.000254
0.000239
0.000242
0.000260
0.000247
0.000263
0.000237
0.000439
0.000315
0.000455
0.000269
0.000249
0.000268
0.000264
0.000282
0.000221
0.000258
0.000263
0.001313
0.000693
0.000300
0.000387
0.000372
0.000403
0.000294
0.000056
0.000205
0.000231
0.000392
0.001287
0.000210
0.000250
0.000234
0.000262
0.000253
0.000256
0.000251
0.000245
0.000285
0.000343
0.000542
0.000323
0.000219
0.000284
0.000348
0.000192
0.000250
0.000272
0.000237
0.000270
0.000274
0.001527
0.000746
0.000320
0.000259
0.000272
0.000193
0.000057
0.000221
0.000375
0.000341
0.000322
0.001301
0.000247
0.000233
0.000242
0.000231
0.000246
0.000253
0.000255
0.000233
0.000238
0.000249
0.000259
0.000264
0.000236
0.000261
0.000253
0.000267
0.000269
0.000302
0.000328
0.000219
0.000266
0.000269
0.001459
0.000258
0.000242
0.000182
0.000056
0.000219
0.000210
0.000256
0.000266
0.000340
0.000372
0.000398
0.000277
0.001586
0.000233
0.000285
0.000510
0.000343
0.000229
0.000432
0.000238
0.000231
0.000277
0.000260
0.000272
0.000276
0.000271
0.000256
0.000271
0.000271
0.000384
0.000385
0.000354
0.001572
0.000229
0.000192
0.000057
0.000215
0.000251
0.000244
0.000248
0.000244
0.000245
0.000261
0.000316
0.000407
0.002025
0.000228
0.000253
0.000254
0.000262
0.000262
0.000305
0.000237
0.000235
0.000270
0.000510
0.000256
0.000493
0.001431
0.000244
0.000283
0.001974
0.000283
0.000239
0.000263
0.001530
0.000152
0.000058
0.000289
0.000459
0.000454
0.000245
0.000273
0.000208
0.000258
0.000270
0.000260
0.000231
0.000250
0.000339
0.000413
0.000399
0.000393
0.000221
0.000238
0.001569
0.000236
0.000560
0.001886
0.000298
0.000231
0.001574
0.001985
0.000751
0.000268
0.000260
0.000283
0.000577
0.000286
0.000056
0.000198
0.000241
0.000277
0.000221
0.002877
0.000273
0.001080
0.000202
0.000235
0.001587
0.001967
0.000215
0.000246
0.000426
0.000299
0.000456
0.000296
0.000503
0.000205
0.000244
0.000249
0.000258
0.000274
0.001600
0.001195
0.001423
0.000292
0.000283
0.000247
0.000322
0.000329
0.000056
0.000253
0.000224
0.000217
0.000241
0.000230
0.000243
0.000252
0.000255
0.000257
0.000243
0.000259
0.000355
0.000343
0.000513
0.000298
0.000243
0.000233
0.000273
0.000267
0.000282
0.000239
0.000263
0.001493
0.000498
0.002107
0.000258
0.000239
0.000332
0.000463
0.000369
0.000202
0.000056
0.000225
0.000408
0.000477
0.000256
0.000195
0.000230
0.000251
0.000243
0.000245
0.000244
0.000246
0.000263
0.000262
0.001603
0.001348
0.001227
0.000278
0.000245
0.000240
0.000270
0.000286
0.000278
0.000241
0.000254
0.002199
0.000262
0.000251
0.000293
0.000322
0.000308
0.000237
0.000056
0.000222
0.000343
0.000550
0.000351
0.000217
0.000230
0.000250
0.000265
0.001902
0.001409
0.000217
0.000329
0.000387
0.000438
0.000240
0.000228
0.000257
0.000285
0.000250
0.000271
0.000258
0.000257
0.000481
0.000224
0.000275
0.000265
0.000252
0.000273
0.000285
0.000240
0.000207
0.000056
0.000220
0.000241
0.000248
0.000245
0.000280
0.000245
0.001536
0.001421
0.001317
0.000237
0.000241
0.000240
0.000269
0.000264
0.000238
0.000260
0.000245
0.002096
0.000257
0.000244
0.000264
0.000253
0.000262
0.000269
0.000262
0.000267
0.000271
0.000250
0.000273
0.000252
0.000175
0.000056
0.000202
0.002681
0.001399
0.000219
0.000305
0.000322
0.000215
0.000284
0.000231
0.000237
0.000261
0.000247
0.000232
0.000244
0.000273
0.000257
0.000271
0.000261
0.000267
0.000257
0.000261
0.000287
0.000274
0.000265
0.000248
0.000237
0.000271
0.000275
0.000260
0.000271
0.000364
0.000056
0.001560
0.000246
0.001240
0.000229
0.000229
0.000237
0.000262
0.000273
0.000229
0.000265
0.000365
0.000393
0.000337
0.000212
0.000253
0.002144
0.000235
0.000260
0.000290
0.000532
0.000306
0.000308
0.000239
0.000254
0.000264
0.000250
0.000265
0.000277
0.000274
0.001603
0.001264
0.000056
0.000191
0.000230
0.000255
0.000448
0.000356
0.000274
0.000218
0.000232
0.000256
0.000254
0.000268
0.000242
0.000232
0.000258
0.000261
0.000241
0.000300
0.000654
0.000349
0.000240
0.000227
0.000279
0.000279
0.000254
0.000248
0.000250
0.000263
0.000280
0.000236
0.000331
0.000405
0.000056
0.001107
0.000256
0.000318
0.000458
0.000293
0.000224
0.000230
0.000238
0.000253
0.002343
0.000314
0.000390
0.000221
0.000381
0.000302
0.000271
0.000227
0.000258
0.000266
0.000222
0.000254
0.000338
0.000645
0.000363
0.001860
0.001314
0.000513
0.000541
0.000228
0.000288
0.000194
0.000057
0.000216
0.000377
0.000254
0.000240
0.000252
0.000221
0.000256
0.000267
0.000240
0.000251
0.000255
0.000222
0.000247
0.000282
0.000502
0.000362
0.001854
0.001371
0.000410
0.000438
0.000450
0.000236
0.000245
0.000260
0.002129
0.000546
0.000393
0.000237
0.000271
0.000283
0.000194
0.000069
0.000195
0.000244
0.000253
0.000251
0.000241
0.000320
0.000446
0.000330
0.000289
0.000223
0.000241
0.000252
0.000278
0.002085
0.000346
0.000427
0.000198
0.000262
0.000279
0.000244
0.000252
0.002451
0.000335
0.000221
0.000264
0.000254
0.000253
0.000274
0.000310
0.000251
0.000191
0.000056
0.000220
0.000338
0.000523
0.000380
0.000248
0.000221
0.000237
0.000255
0.000263
0.000250
0.001946
0.000401
0.000268
0.000268
0.000244
0.000268
0.000272
0.000242
0.002207
0.000441
0.000226
0.000268
0.000271
0.000261
0.000258
0.000250
0.000300
0.000235
0.000267
0.000252
0.000193
0.000056
0.000212
0.000242
0.000248
0.000220
0.000248
0.000260
0.000239
0.000244
0.000250
0.002162
0.000223
0.000285
0.000223
0.000422
0.000234
0.000243
0.000306
0.000265
0.000251
0.000252
0.001967
0.000269
0.000341
0.000365
0.000436
0.000411
0.000304
0.000254
0.000255
0.000263
0.000192
0.000056
0.000209
0.000260
0.000219
0.000249
0.000244
0.000324
0.000232
0.002294
0.000252
0.000226
0.000256
0.000258
0.000240
0.000275
0.000275
0.002120
0.000593
0.000217
0.000257
0.000246
0.000260
0.000264
0.000287
0.000267
0.000261
0.000252
0.000291
0.000251
0.000265
0.000266
0.000191
0.000056
0.001825
0.001427
0.000206
0.000228
0.000244
0.000255
0.000247
0.000252
0.000407
0.000402
0.002131
0.000260
0.000230
0.000272
0.000255
0.000602
0.000340
0.000290
0.000229
0.000250
0.000248
0.000270
0.000265
0.000226
0.000255
0.000266
0.000270
0.000266
0.000337
0.000688
0.000277
0.000056
0.000198
0.000257
0.000246
0.000248
0.000264
0.000250
0.000254
0.000238
0.001515
0.002083
0.000606
0.000252
0.000400
0.000706
0.000353
0.000235
0.000253
0.000251
0.000263
0.000258
0.000259
0.000242
0.000263
0.000262
0.003005
0.000335
0.000235
0.000272
0.000286
0.000324
0.000381
0.000056
0.001920
0.000246
0.000231
0.000235
0.000248
0.000391
0.000461
0.000293
0.000289
0.000222
0.000241
0.000254
0.000258
0.000258
0.000270
0.000250
0.000249
0.000291
0.001821
0.000230
0.000245
0.000255
0.000273
0.000282
0.000267
0.000254
0.001468
0.000353
0.000232
0.000258
0.000176
0.000055
0.000203
0.000228
0.000240
0.000243
0.000257
0.000237
0.000368
0.000302
0.000320
0.000394
0.000249
0.000219
0.000259
0.000319
0.000423
0.000326
0.000230
0.000246
0.000260
0.000368
0.000529
0.000390
0.000234
0.000266
0.000259
0.000252
0.000248
0.000274
0.000275
0.000264
0.000203
0.000056
0.001451
0.000452
0.000202
0.001935
0.000297
0.000388
0.000455
0.000316
0.000227
0.000245
0.000265
0.000247
0.000247
0.000248
0.000265
0.000294
0.000415
0.000249
0.000417
0.000399
0.000369
0.000216
0.000260
0.000267
0.000269
0.000273
0.000261
0.000264
0.000501
0.000383
0.001318
0.000056
0.000207
0.000230
0.002074
0.000317
0.000318
0.000234
0.000262
0.000248
0.000263
0.000259
0.000210
0.000256
0.000257
0.000263
0.000282
0.000384
0.000660
0.001756
0.000232
0.000249
0.000255
0.000265
0.000395
0.000388
0.001605
0.000290
0.000365
0.001921
0.000250
0.000269
0.000192
0.000056
0.000214
0.000225
0.000238
0.000243
0.000230
0.000249
0.000251
0.000297
0.000318
0.000258
0.000382
0.000362
0.000338
0.000300
0.000242
0.000270
0.000268
0.000232
0.000269
0.000248
0.000312
0.000278
0.000274
0.000261
0.000265
0.001506
0.000304
0.000366
0.002068
0.000243
0.000176
0.000056
0.000194
0.000232
0.000242
0.000244
0.000492
0.000204
0.000253
0.000321
0.000371
0.000316
0.000310
0.000207
0.000262
0.000268
0.000272
0.000327
0.000438
0.000420
0.000253
0.000396
0.000536
0.000378
0.001637
0.000238
0.000249
0.001976
0.000335
0.000253
0.000240
0.000295
0.000188
0.000056
0.000193
0.000238
0.000223
0.000246
0.000252
0.000271
0.000253
0.000270
0.000251
0.000260
0.001816
0.000301
0.000386
0.000284
0.000462
0.000363
0.000416
0.001442
0.000243
0.000278
0.002159
0.000526
0.000259
0.000250
0.000248
0.000270
0.000504
0.000219
0.000258
0.000279
0.000195
0.000055
0.000172
0.000361
0.000391
0.000271
0.000201
0.000250
0.000255
0.000256
0.000260
0.000289
0.000230
0.000253
0.000260
0.000254
0.000353
0.000526
0.001246
0.000269
0.000277
0.001978
0.000300
0.000300
0.000227
0.000264
0.000249
0.000297
0.000253
0.000263
0.000243
0.000271
0.000203
0.000055
0.000240
0.000416
0.002033
0.000253
0.000216
0.000257
0.000263
0.000303
0.000397
0.000467
0.001284
0.000378
0.000353
0.002084
0.000207
0.000247
0.000269
0.000274
0.000258
0.000240
0.000287
0.000288
0.000257
0.000348
0.000508
0.000339
0.000333
0.002228
0.000581
0.000397
0.000392
0.000056
0.000204
0.000225
0.000240
0.001956
0.000238
0.000230
0.000246
0.000237
0.000246
0.000256
0.000258
0.000253
0.000257
0.000317
0.000400
0.001455
0.000255
0.000248
0.000262
0.000261
0.000253
0.000239
0.000256
0.000265
0.000324
0.000516
0.000412
0.000244
0.001604
0.000279
0.000152
0.000055
0.000210
0.000223
0.000248
0.000236
0.000257
0.000267
0.000232
0.000243
0.000281
0.000361
0.000365
0.001397
0.000235
0.000228
0.000256
0.000290
0.000228
0.000255
0.000336
0.000456
0.000442
0.000389
0.000231
0.001571
0.000250
0.000242
0.000290
0.000277
0.000266
0.000263
0.000198
0.000056
0.000195
0.000252
0.000252
0.000267
0.000251
0.000241
0.000239
0.000262
0.000257
0.000229
0.000247
0.000253
0.000268
0.001470
0.000365
0.000213
0.000267
0.000241
0.000269
0.000316
0.000367
0.000276
0.000259
0.000262
0.000261
0.000267
0.000254
0.001413
0.000283
0.000226
0.000179
0.000056
0.000192
0.000225
0.000263
0.000262
0.000270
0.000218
0.000267
0.000239
0.000221
0.000266
0.000240
0.000260
0.000248
0.000345
0.000300
0.000342
0.000282
0.000253
0.001630
0.000234
0.000251
0.000262
0.000255
0.000299
0.000405
0.000342
0.000454
0.000267
0.000258
0.001608
0.000155
0.000056
0.000333
0.000328
0.000427
0.000246
0.000234
0.000218
0.000244
0.000274
0.000256
0.000258
0.000222
0.000238
0.001478
0.000293
0.000290
0.000226
0.000251
0.000273
0.000252
0.000265
0.000256
0.000232
0.000254
0.000279
0.000259
0.000348
0.000495
0.000302
0.000308
0.000254
0.000193
0.000055
0.000199
0.000299
0.000400
0.000320
0.000394
0.000259
0.000256
0.000250
0.000248
0.000262
0.000234
0.000235
0.000253
0.000245
0.001295
0.000271
0.000222
0.000255
0.000265
0.000272
0.000233
0.000269
0.000256
0.000259
0.000258
0.000255
0.000283
0.000789
0.000377
0.000247
0.000165
0.000056
0.000207
0.001552
0.000274
0.000306
0.000459
0.000383
0.000218
0.000258
0.000269
0.000245
0.000241
0.000258
0.000271
0.000276
0.000257
0.001525
0.000255
0.000286
0.000261
0.000259
0.000267
0.000241
0.000261
0.000266
0.000257
0.000262
0.000457
0.000340
0.000358
0.000239
0.000199
0.000057
0.000203
0.000251
0.000253
0.001583
0.000468
0.000304
0.000231
0.000239
0.000256
0.000268
0.000281
0.000257
0.000253
0.000258
0.000229
0.000266
0.000413
0.001322
0.000242
0.000229
0.001500
0.000271
0.000603
0.000408
0.000331
0.000239
0.000267
0.000477
0.000227
0.000264
0.000178
0.000055
0.000272
0.000227
0.000245
0.000245
0.000248
0.000259
0.000239
0.000256
0.000253
0.000251
0.000243
0.000260
0.000317
0.000503
0.001658
0.001480
0.000364
0.000538
0.000347
0.000222
0.000231
0.000257
0.000251
0.000267
0.000251
0.000268
0.000249
0.000274
0.001543
0.000309
0.000166
0.000055
0.000226
0.000342
0.000368
0.000320
0.000246
0.000221
0.000250
0.000369
0.000438
0.000326
0.002287
0.000223
0.000680
0.000513
0.000465
0.000260
0.000333
0.000392
0.000333
0.000274
0.000403
0.000263
0.001532
0.000527
0.000228
0.000257
0.000256
0.000257
0.000256
0.000271
0.000195
0.000056
0.000221
0.000246
0.000255
0.000254
0.000238
0.001662
0.000911
0.000968
0.000207
0.000237
0.000255
0.000271
0.000249
0.000262
0.000250
0.000249
0.000253
0.000265
0.000264
0.000278
0.001454
0.000295
0.000252
0.000230
0.000234
0.000263
0.000258
0.000284
0.000266
0.000287
0.001929
0.000057
0.000192
0.000232
0.001545
0.000936
0.000284
0.000380
0.000249
0.000220
0.000249
0.000257
0.000247
0.000252
0.000247
0.001971
0.000477
0.000223
0.000249
0.000251
0.000268
0.000261
0.000188
