0.000295
0.009414
0.011881
0.000411
0.000241
0.000303
0.000321
0.000226
0.000330
0.000284
0.000254
0.000327
0.000498
0.000510
0.000501
0.000245
0.000284
0.000327
0.000354
0.000421
0.001824
0.000424
0.000680
0.000269
0.000235
0.000306
0.000317
0.000315
0.000422
0.000416
0.000525
0.000244
0.000059
0.000201
0.000271
0.000265
0.000287
0.000247
0.000247
0.000281
0.000284
0.000269
0.000283
0.000415
0.000457
0.000288
0.000260
0.000377
0.000351
0.000364
0.000249
0.000245
0.001701
0.000310
0.000277
0.000433
0.000249
0.000269
0.000289
0.000280
0.000300
0.000277
0.000375
0.000363
0.000057
0.000257
0.000246
0.000264
0.000264
0.000250
0.000244
0.000262
0.000256
0.000289
0.001667
0.000223
0.000235
0.000290
0.000259
0.000269
0.000251
0.000264
0.000261
0.000352
0.001785
0.000242
0.000288
0.000447
0.000431
0.000393
0.000233
0.000268
0.000489
0.000443
0.000833
0.000164
0.000057
0.000188
0.000247
0.000252
0.000238
0.000304
0.000249
0.000264
0.000646
0.000345
0.000252
0.000236
0.000254
0.000246
0.000254
0.000253
0.000257
0.000244
0.000266
0.000302
0.000322
0.001668
0.000291
0.000238
0.000429
0.000288
0.000734
0.000657
0.000502
0.000356
0.000228
0.000190
0.000056
0.000220
0.000245
0.000294
0.000213
0.000284
0.000231
0.000261
0.000492
0.001449
0.000209
0.000248
0.000248
0.000253
0.000254
0.000262
0.000285
0.000286
0.000798
0.001385
0.000301
0.000248
0.000417
0.000231
0.000244
0.000262
0.000255
0.000270
0.000271
0.000256
0.000276
0.000190
0.000056
0.000184
0.000247
0.000245
0.000266
0.000232
0.000247
0.000234
0.000257
0.000245
0.000246
0.001632
0.000265
0.000226
0.000244
0.000259
0.000246
0.000249
0.000247
0.000253
0.000254
0.000294
0.001639
0.000279
0.000259
0.000444
0.000258
0.000240
0.000262
0.000260
0.000279
0.000192
0.000056
0.000213
0.000231
0.000257
0.000247
0.000243
0.000242
0.000259
0.000239
0.000266
0.000260
0.000248
0.000253
0.000260
0.000269
0.001647
0.000276
0.000292
0.000216
0.000252
0.000273
0.000272
0.000226
0.000249
0.000269
0.001791
0.000385
0.000346
0.000374
0.000236
0.000280
0.000191
0.000057
0.000228
0.000231
0.000246
0.000267
0.000256
0.000264
0.000255
0.000409
0.000493
0.000354
0.000206
0.000250
0.000253
0.000249
0.001568
0.000514
0.000358
0.000396
0.000309
0.000223
0.000274
0.000280
0.000268
0.001736
0.000529
0.000453
0.000238
0.000241
0.000251
0.000275
0.000179
0.000056
0.000210
0.000234
0.000252
0.000309
0.000327
0.000476
0.000308
0.000284
0.000212
0.000244
0.000261
0.000239
0.000255
0.001749
0.000450
0.000298
0.000215
0.000258
0.000267
0.000294
0.000238
0.000261
0.001806
0.000402
0.000274
0.000387
0.000234
0.000258
0.000261
0.000410
0.000330
0.000055
0.000219
0.000364
0.000328
0.000319
0.000251
0.000248
0.000248
0.000259
0.000235
0.000241
0.000233
0.000250
0.001554
0.000333
0.000323
0.000233
0.000255
0.000260
0.000234
0.000316
0.000252
0.000327
0.000241
0.001823
0.000262
0.000482
0.000246
0.000247
0.000262
0.000267
0.000265
0.000056
0.000406
0.000531
0.000613
0.000206
0.000239
0.000269
0.000228
0.000215
0.000263
0.000255
0.000254
0.001703
0.000245
0.000458
0.000357
0.000211
0.000243
0.000235
0.000239
0.000270
0.000301
0.001815
0.000223
0.000471
0.001866
0.000508
0.000362
0.000255
0.000252
0.000265
0.000188
0.000059
0.000204
0.000225
0.000244
0.000243
0.000274
0.001607
0.000258
0.000223
0.000249
0.000257
0.000241
0.000267
0.000239
0.000245
0.000280
0.000436
0.000619
0.000241
0.000231
0.000265
0.000280
0.000238
0.000251
0.000432
0.000430
0.000237
0.000393
0.000515
0.000459
0.000264
0.000211
0.000056
0.000222
0.000234
0.000270
0.000233
0.000246
0.000233
0.000246
0.000449
0.001773
0.000316
0.000222
0.000250
0.000231
0.000261
0.000241
0.000281
0.000441
0.000470
0.000366
0.000215
0.000256
0.000311
0.000279
0.000246
0.000283
0.000436
0.000341
0.000589
0.000404
0.000523
0.000180
0.000056
0.000210
0.000257
0.000262
0.000215
0.000233
0.000240
0.000246
0.000258
0.000230
0.000297
0.000344
0.000485
0.001342
0.000245
0.000225
0.000266
0.000243
0.000256
0.000241
0.000258
0.000275
0.000486
0.000397
0.000252
0.000262
0.000269
0.000249
0.000261
0.000267
0.000277
0.000380
0.000055
0.000187
0.000228
0.000226
0.000268
0.000547
0.000430
0.000230
0.000255
0.000238
0.000255
0.000262
0.000229
0.000295
0.000248
0.000236
0.000478
0.000442
0.001630
0.000279
0.000240
0.000242
0.000267
0.000261
0.000234
0.000268
0.000448
0.000463
0.000348
0.000430
0.000225
0.000204
0.000056
0.000227
0.000437
0.000229
0.000212
0.000288
0.000239
0.000379
0.000492
0.000309
0.000319
0.000220
0.000279
0.000256
0.000245
0.000517
0.000338
0.000221
0.000254
0.000462
0.001586
0.000265
0.000270
0.000499
0.000243
0.000278
0.000271
0.000260
0.000356
0.000574
0.000341
0.000281
0.000058
0.000185
0.000229
0.000240
0.000250
0.000415
0.000305
0.000287
0.000224
0.000479
0.000409
0.000363
0.000262
0.000226
0.000248
0.000249
0.000270
0.000253
0.000257
0.000234
0.000347
0.000291
0.000319
0.001861
0.000232
0.000263
0.000248
0.000295
0.000349
0.000437
0.000689
0.000421
0.000056
0.000218
0.000334
0.000290
0.000431
0.000379
0.000209
0.000255
0.000289
0.000543
0.000396
0.000250
0.000240
0.000240
0.000272
0.000262
0.000233
0.000256
0.000270
0.000268
0.000259
0.000264
0.000351
0.000738
0.001316
0.000336
0.000433
0.000421
0.000233
0.000402
0.000447
0.000328
0.000056
0.000242
0.000376
0.000279
0.000212
0.000219
0.000248
0.000410
0.000230
0.000265
0.000449
0.000335
0.000453
0.000220
0.000262
0.000260
0.000250
0.000366
0.000416
0.000311
0.000245
0.000246
0.000370
0.000672
0.001652
0.000233
0.000435
0.000317
0.000211
0.000262
0.000465
0.000307
0.000056
0.000216
0.000237
0.000245
0.000258
0.000248
0.000246
0.000239
0.000343
0.000446
0.000246
0.000458
0.000407
0.000267
0.000577
0.000247
0.000236
0.000272
0.000287
0.000214
0.000368
0.000193
0.000250
0.000277
0.000415
0.000463
0.001678
0.000276
0.000236
0.000253
0.000260
0.000191
0.000057
0.000318
0.000490
0.000320
0.000216
0.000240
0.000272
0.000241
0.000237
0.000273
0.000233
0.000223
0.000267
0.000421
0.000509
0.000385
0.000297
0.000245
0.000247
0.000342
0.000390
0.000381
0.000336
0.000361
0.000397
0.000247
0.000251
0.000264
0.000279
0.001785
0.000253
0.000207
0.000058
0.000198
0.000227
0.000247
0.000296
0.000337
0.000552
0.000322
0.000200
0.000283
0.000237
0.000246
0.000248
0.000543
0.000434
0.000482
0.000278
0.000264
0.000262
0.000426
0.000461
0.000353
0.000427
0.000604
0.000310
0.000246
0.000232
0.000259
0.000255
0.000268
0.001715
0.000368
0.000057
0.000251
0.000324
0.000205
0.000234
0.000257
0.000252
0.000236
0.000496
0.000380
0.000309
0.000291
0.000278
0.000432
0.000560
0.000341
0.000224
0.000262
0.000249
0.000252
0.000269
0.000279
0.000254
0.000244
0.000258
0.000331
0.000350
0.000414
0.000346
0.000240
0.000247
0.000191
0.000056
0.000459
0.000285
0.000462
0.000256
0.000207
0.000246
0.000247
0.000253
0.000244
0.000226
0.000248
0.000281
0.000288
0.000427
0.000515
0.000423
0.000312
0.000314
0.000386
0.000343
0.000309
0.000219
0.000249
0.000258
0.001755
0.000245
0.001733
0.000969
0.000371
0.000330
0.000155
0.000056
0.000188
0.000231
0.000235
0.000245
0.000270
0.000244
0.000247
0.000251
0.000249
0.000308
0.000379
0.000431
0.000337
0.000380
0.000245
0.000246
0.000258
0.000290
0.000229
0.000250
0.000247
0.000267
0.001814
0.000236
0.000250
0.000263
0.000285
0.000263
0.001941
0.000400
0.000324
0.000055
0.000229
0.000206
0.000235
0.000246
0.000254
0.000250
0.000241
0.000252
0.000257
0.000360
0.000651
0.000239
0.000390
0.000231
0.000230
0.000260
0.000334
0.000439
0.000365
0.000259
0.001776
0.000259
0.000225
0.000261
0.000260
0.000273
0.000242
0.000255
0.000333
0.000330
0.000369
0.000056
0.000208
0.000235
0.000231
0.000269
0.000239
0.000243
0.000252
0.000258
0.000239
0.000254
0.000241
0.000307
0.000329
0.000425
0.000333
0.000287
0.000451
0.000228
0.000251
0.000262
0.000257
0.000259
0.000272
0.000265
0.000277
0.001791
0.000261
0.000215
0.000273
0.000237
0.000200
0.000056
0.000255
0.000395
0.000220
0.000214
0.000237
0.000235
0.000240
0.000258
0.000245
0.000218
0.000236
0.000267
0.000254
0.000368
0.000426
0.000355
0.000272
0.000234
0.000257
0.000250
0.000269
0.000261
0.000242
0.000274
0.000244
0.000272
0.000288
0.001655
0.000287
0.000215
0.000180
0.000056
0.000219
0.000230
0.000255
0.000263
0.000349
0.000391
0.000414
0.000259
0.000223
0.000258
0.000264
0.000230
0.000247
0.000258
0.000257
0.000262
0.000245
0.000253
0.000252
0.000270
0.000263
0.000265
0.000250
0.000236
0.000265
0.000261
0.000269
0.000258
0.000260
0.000266
0.000193
0.000057
0.000211
0.000216
0.000258
0.000276
0.000229
0.000239
0.000243
0.000257
0.000290
0.000227
0.000287
0.000193
0.000266
0.000242
0.000285
0.000245
0.000249
0.000250
0.000305
0.000245
0.000273
0.000326
0.000269
0.000240
0.000284
0.000255
0.000269
0.000239
0.000265
0.000458
0.000658
0.000056
0.000229
0.000287
0.000231
0.000212
0.000254
0.000236
0.000243
0.000250
0.000253
0.000244
0.000267
0.000311
0.000470
0.000445
0.001571
0.000234
0.000512
0.000204
0.000257
0.000459
0.000438
0.000382
0.000225
0.000284
0.000238
0.000265
0.000281
0.000254
0.000307
0.000281
0.000165
0.000058
0.000326
0.000453
0.000332
0.000331
0.000203
0.000284
0.000224
0.000241
0.000240
0.000239
0.000258
0.000251
0.000228
0.000325
0.000324
0.000483
0.000398
0.001785
0.000228
0.000257
0.000338
0.000451
0.000466
0.000258
0.000312
0.000323
0.000298
0.000233
0.000223
0.000269
0.000179
0.000057
0.000184
0.000221
0.000238
0.000292
0.000441
0.000356
0.000348
0.000259
0.000251
0.000215
0.000248
0.000269
0.000270
0.000261
0.000246
0.000259
0.000426
0.000374
0.000334
0.000442
0.000225
0.001749
0.000327
0.000516
0.000477
0.000477
0.000329
0.000220
0.000252
0.000267
0.000452
0.000058
0.000208
0.000266
0.000217
0.000245
0.000508
0.000437
0.000383
0.000214
0.000265
0.000272
0.000212
0.000263
0.000249
0.000296
0.000337
0.000212
0.000252
0.000388
0.000527
0.000246
0.000535
0.001820
0.000243
0.000507
0.000475
0.000325
0.000216
0.000263
0.000313
0.000236
0.000210
0.000055
0.000214
0.000337
0.000362
0.000376
0.000369
0.000281
0.000358
0.000216
0.000233
0.000263
0.000282
0.000225
0.000249
0.000245
0.000265
0.000244
0.000365
0.000419
0.000422
0.000383
0.000284
0.000232
0.000252
0.001720
0.000367
0.000577
0.000681
0.000230
0.000257
0.000314
0.000153
0.000055
0.000196
0.000229
0.000368
0.000217
0.000263
0.000344
0.000424
0.000328
0.000237
0.000560
0.000200
0.000250
0.000260
0.000276
0.000278
0.000261
0.000214
0.000417
0.000397
0.000446
0.000268
0.000223
0.000260
0.000245
0.000259
0.000272
0.000236
0.000259
0.000260
0.000316
0.000184
0.000057
0.000296
0.000354
0.000213
0.000259
0.000252
0.000254
0.000236
0.000283
0.000243
0.000259
0.000273
0.000328
0.000442
0.000360
0.000426
0.000215
0.000224
0.000244
0.000260
0.000261
0.000289
0.000254
0.000239
0.000258
0.000279
0.000379
0.000449
0.000317
0.000313
0.000229
0.000182
0.000056
0.000203
0.000217
0.000284
0.000243
0.000234
0.000272
0.000269
0.000223
0.000505
0.000202
0.000263
0.000261
0.000232
0.000267
0.000275
0.000298
0.000239
0.000355
0.000214
0.000234
0.000277
0.000253
0.000256
0.000270
0.000275
0.000256
0.000266
0.000255
0.000260
0.000502
0.000159
0.000056
0.000205
0.000233
0.000244
0.000296
0.000200
0.000242
0.000367
0.000405
0.000239
0.000233
0.000248
0.000259
0.000233
0.000226
0.000533
0.001739
0.000224
0.000267
0.000289
0.000333
0.000407
0.000371
0.000361
0.000386
0.000390
0.000420
0.000232
0.000262
0.000270
0.000278
0.001399
0.000057
0.000426
0.000271
0.000276
0.000211
0.000236
0.000253
0.000238
0.000253
0.000241
0.000273
0.000247
0.000262
0.000249
0.000251
0.000589
0.001630
0.000230
0.000227
0.000248
0.000264
0.000243
0.000258
0.000360
0.000426
0.000265
0.000356
0.000219
0.000281
0.000259
0.000279
0.000181
0.000057
0.001295
0.000442
0.000350
0.000263
0.000236
0.000220
0.000239
0.000237
0.000489
0.000212
0.000244
0.000251
0.000387
0.000415
0.000458
0.000351
0.000246
0.000238
0.000327
0.000354
0.000265
0.000265
0.000273
0.000236
0.000268
0.000605
0.000527
0.000269
0.000249
0.000268
0.000178
0.000075
0.000201
0.000211
0.000245
0.000252
0.001423
0.000345
0.000220
0.000257
0.000262
0.000229
0.000253
0.000254
0.000239
0.000266
0.000269
0.000255
0.000599
0.000513
0.000274
0.001747
0.000249
0.000297
0.000313
0.000418
0.000528
0.000411
0.000240
0.000250
0.000263
0.000269
0.000196
0.000057
0.000209
0.000255
0.000234
0.000278
0.001303
0.000226
0.000258
0.000263
0.000233
0.000235
0.000241
0.000261
0.000272
0.000247
0.000248
0.000310
0.000425
0.000443
0.000326
0.000258
0.000268
0.000274
0.000253
0.000223
0.000312
0.000240
0.000240
0.000280
0.000269
0.000401
0.000536
0.000056
0.000227
0.000243
0.000229
0.000258
0.000268
0.000238
0.000256
0.000246
0.000270
0.000275
0.001415
0.000230
0.000233
0.000253
0.000245
0.000242
0.000291
0.000258
0.000267
0.000241
0.000319
0.000441
0.000530
0.000319
0.000225
0.000273
0.001769
0.000266
0.000238
0.000349
0.000485
0.000056
0.000206
0.000401
0.000453
0.000506
0.000516
0.000534
0.001494
0.000421
0.000522
0.000652
0.000555
0.000790
0.000408
0.000624
0.000582
0.001877
0.000379
0.000455
0.000396
0.000321
0.000235
0.000269
0.000287
0.000269
0.000260
0.000288
0.000300
0.000279
0.000261
0.000283
0.001362
0.000055
0.000214
0.000234
0.000237
0.000236
0.000262
0.000260
0.000228
0.000245
0.000250
0.000248
0.000248
0.000238
0.000254
0.000255
0.000269
0.000268
0.001811
0.000270
0.000263
0.000244
0.000257
0.000262
0.000262
0.000259
0.000473
0.000381
0.000331
0.000245
0.000268
0.000281
0.000194
0.000056
0.000205
0.001352
0.000327
0.000276
0.000248
0.000257
0.000223
0.000234
0.000236
0.000232
0.000225
0.000249
0.000252
0.000505
0.000357
0.000311
0.000240
0.001822
0.000357
0.000239
0.000236
0.000264
0.000250
0.000270
0.000272
0.000287
0.000266
0.000259
0.000263
0.000318
0.000203
0.000057
0.000188
0.000244
0.000247
0.001442
0.000215
0.000257
0.000240
0.000245
0.000237
0.000275
0.000262
0.000226
0.000248
0.000285
0.000229
0.000261
0.000268
0.000259
0.000270
0.000254
0.000266
0.001771
0.000282
0.001748
0.000269
0.000248
0.000258
0.000270
0.000269
0.000289
0.000182
0.000057
0.000202
0.000244
0.001343
0.000240
0.000248
0.000237
0.000262
0.000255
0.000239
0.000267
0.000239
0.000260
0.000243
0.000263
0.000260
0.000262
0.000259
0.000286
0.000289
0.000228
0.001882
0.000242
0.001831
0.000234
0.000269
0.000268
0.000235
0.000239
0.000265
0.000263
0.000206
0.000056
0.001431
0.000216
0.000230
0.000240
0.000244
0.000238
0.000367
0.000287
0.000235
0.000249
0.000262
0.000256
0.000240
0.000402
0.000362
0.000277
0.000273
0.000252
0.000247
0.000252
0.000273
0.000349
0.000219
0.000252
0.000273
0.000280
0.000265
0.000313
0.000732
0.000311
0.000199
0.000057
0.000213
0.000258
0.000277
0.000290
0.000362
0.000263
0.001681
0.000323
0.000266
0.000266
0.000254
0.000291
0.000247
0.000281
0.000292
0.000303
0.000350
0.000543
0.000396
0.000266
0.000305
0.000273
0.000256
0.000274
0.000317
0.000264
0.000269
0.000245
0.000260
0.000276
0.000440
0.000057
0.000253
0.000462
0.000260
0.000266
0.000248
0.000250
0.000202
0.000250
0.000257
0.000282
0.001490
0.000228
0.000235
0.000237
0.000245
0.000287
0.000299
0.000215
0.000278
0.000253
0.000259
0.000451
0.000518
0.000268
0.000261
0.000288
0.000269
0.000255
0.000235
0.000321
0.000172
0.000057
0.000183
0.000230
0.000304
0.000441
0.000406
0.000243
0.000217
0.000248
0.000254
0.000250
0.000253
0.000230
0.000261
0.000265
0.000241
0.000238
0.000501
0.001114
0.000232
0.000255
0.000273
0.000251
0.000351
0.000422
0.000252
0.000303
0.000599
0.000347
0.000380
0.000242
0.000171
0.000056
0.000224
0.000242
0.000258
0.000261
0.000253
0.000254
0.000354
0.000382
0.000436
0.000296
0.000363
0.000397
0.000402
0.000351
0.000255
0.000227
0.000241
0.000262
0.000430
0.000422
0.001278
0.000220
0.000277
0.000273
0.000234
0.000229
0.000285
0.000314
0.000403
0.000465
0.000239
0.000056
0.000205
0.000236
0.000259
0.000245
0.000241
0.000243
0.000237
0.000270
0.000303
0.000415
0.000379
0.000347
0.000255
0.000226
0.000257
0.000255
0.000249
0.000264
0.000255
0.000275
0.000431
0.000251
0.000380
0.000375
0.000361
0.000235
0.000272
0.000268
0.000248
0.000356
0.000153
0.000058
0.000310
0.000317
0.000295
0.000443
0.000412
0.000350
0.000238
0.000243
0.000246
0.000269
0.000261
0.000261
0.000233
0.000254
0.000241
0.000246
0.000251
0.000384
0.000443
0.000388
0.000218
0.000266
0.000254
0.000239
0.000262
0.000291
0.000260
0.000288
0.000262
0.000258
0.000347
0.000057
0.000250
0.000331
0.000235
0.000270
0.000224
0.000239
0.000250
0.000259
0.000261
0.000259
0.000246
0.000240
0.000338
0.000458
0.000423
0.000286
0.000232
0.000256
0.000253
0.000265
0.000257
0.000262
0.000258
0.000267
0.000271
0.000321
0.000403
0.000615
0.000396
0.000254
0.000173
0.000058
0.000382
0.000200
0.000220
0.000245
0.000251
0.000248
0.000237
0.000251
0.000277
0.000234
0.000222
0.000246
0.000278
0.000222
0.000235
0.000276
0.000249
0.000262
0.000296
0.000239
0.000263
0.000261
0.000266
0.000255
0.000275
0.000235
0.000267
0.000276
0.000250
0.000286
0.000196
0.000057
0.000181
0.000244
0.000242
0.000252
0.000231
0.000251
0.000262
0.000244
0.000257
0.000280
0.000229
0.000232
0.000261
0.000396
0.000249
0.000301
0.000240
0.000268
0.000252
0.000280
0.000272
0.000228
0.000252
0.000251
0.000275
0.000271
0.000245
0.000260
0.000270
0.000261
0.000211
0.000057
0.000218
0.000359
0.000368
0.000283
0.000294
0.000277
0.000239
0.000257
0.000219
0.000250
0.000281
0.000232
0.000248
0.000240
0.000258
0.000278
0.000245
0.000266
0.000244
0.000266
0.000278
0.000266
0.000269
0.000257
0.000298
0.000214
0.000267
0.000273
0.000276
0.000253
0.000201
0.000056
0.000199
0.000222
0.000267
0.000259
0.000310
0.000387
0.000212
0.000274
0.000255
0.000429
0.000517
0.000280
0.000230
0.000246
0.000281
0.000259
0.000233
0.000269
0.000253
0.000278
0.000262
0.000257
0.000264
0.000406
0.000439
0.000463
0.000266
0.000295
0.000263
0.000264
0.000190
0.000057
0.000221
0.000217
0.000246
0.000252
0.000322
0.000655
0.000310
0.000383
0.000228
0.000222
0.000262
0.000247
0.000272
0.000228
0.000255
0.000266
0.000274
0.000265
0.000585
0.000412
0.000301
0.000248
0.000250
0.000284
0.000282
0.000258
0.000263
0.000287
0.000223
0.000334
0.000353
0.000056
0.000256
0.000229
0.000239
0.000238
0.000256
0.000273
0.000213
0.000245
0.000241
0.000259
0.000247
0.000252
0.000262
0.000380
0.000581
0.000374
0.000238
0.000259
0.000266
0.000239
0.000274
0.000286
0.000478
0.000222
0.000257
0.000599
0.000398
0.000506
0.000248
0.000257
0.000181
0.000056
0.000204
0.000239
0.000229
0.000243
0.000264
0.000249
0.000290
0.000443
0.000607
0.000413
0.000217
0.000258
0.000275
0.000272
0.000271
0.000235
0.000259
0.000226
0.000261
0.000363
0.000366
0.000660
0.000364
0.000245
0.000371
0.000377
0.000504
0.000231
0.000251
0.000369
0.000450
0.000055
0.000272
0.000229
0.000443
0.000219
0.000233
0.000250
0.000261
0.000259
0.000229
0.000246
0.000319
0.000364
0.000366
0.000326
0.000218
0.000257
0.000260
0.000250
0.000264
0.000274
0.000272
0.000261
0.000245
0.000275
0.000343
0.000515
0.000433
0.000238
0.000249
0.000270
0.000213
0.000056
0.000224
0.000254
0.000223
0.000251
0.000246
0.000259
0.000341
0.000430
0.000432
0.000266
0.000378
0.000218
0.000248
0.000269
0.000253
0.000239
0.000271
0.000244
0.000339
0.000365
0.000517
0.000298
0.000466
0.000268
0.000410
0.000401
0.000384
0.000280
0.000207
0.000299
0.000445
0.000056
0.000227
0.000269
0.000221
0.000258
0.000258
0.000253
0.000247
0.000248
0.000272
0.000241
0.000239
0.000408
0.000400
0.000377
0.000375
0.000216
0.000266
0.000266
0.000261
0.000244
0.000250
0.000245
0.000271
0.000291
0.000256
0.000323
0.000517
0.000463
0.000246
0.000271
0.000193
0.000056
0.000216
0.000239
0.000284
0.000245
0.000241
0.000345
0.000497
0.000500
0.000332
0.000686
0.000260
0.000216
0.000243
0.000257
0.000248
0.000269
0.000294
0.000254
0.000485
0.000447
0.001506
0.000310
0.000260
0.000262
0.000291
0.000256
0.000354
0.000429
0.000359
0.000307
0.000182
0.000057
0.000216
0.000231
0.000242
0.000289
0.000203
0.000255
0.000301
0.000240
0.000227
0.000337
0.000328
0.000382
0.000286
0.000316
0.000396
0.000347
0.000235
0.000248
0.000269
0.000257
0.000248
0.000248
0.000315
0.000224
0.000320
0.000436
0.000428
0.000291
0.000242
0.000274
0.000183
0.000055
0.000240
0.000238
0.000256
0.000255
0.000238
0.000238
0.000475
0.000218
0.000223
0.000256
0.000245
0.000250
0.000262
0.000258
0.000244
0.000273
0.000263
0.000291
0.000249
0.000253
0.000282
0.000272
0.000289
0.000242
0.000265
0.000282
0.000265
0.000263
0.000264
0.000271
0.000172
0.000055
0.000234
0.000259
0.000262
0.000446
0.000371
0.000254
0.000236
0.000246
0.000258
0.000249
0.000251
0.000253
0.000266
0.000259
0.000236
0.000243
0.000270
0.000249
0.000291
0.000329
0.000434
0.000407
0.000227
0.000259
0.000265
0.000254
0.000264
0.000261
0.000268
0.000295
0.000189
0.000055
0.000411
0.000396
0.000383
0.000201
0.000253
0.000255
0.000443
0.000197
0.000223
0.000256
0.000262
0.000291
0.000346
0.000441
0.001858
0.000261
0.000241
0.000251
0.000276
0.000262
0.000345
0.000435
0.000674
0.000229
0.000214
0.000269
0.000272
0.000430
0.000276
0.000284
0.000159
0.000055
0.000233
0.000349
0.000322
0.000347
0.000497
0.000202
0.000235
0.000254
0.000245
0.000239
0.000265
0.000246
0.000260
0.000332
0.000432
0.000450
0.000222
0.000238
0.000256
0.000261
0.000265
0.000313
0.000242
0.000274
0.000279
0.000514
0.000470
0.000445
0.000395
0.000221
0.000205
0.000056
0.000207
0.000225
0.000259
0.000234
0.000246
0.000246
0.000268
0.000296
0.000334
0.000392
0.000412
0.000348
0.000209
0.000254
0.000266
0.000295
0.000294
0.000240
0.000271
0.000274
0.000234
0.000427
0.000400
0.000314
0.000305
0.000252
0.000253
0.000442
0.000414
0.000321
0.000165
0.000057
0.000226
0.000253
0.000327
0.000440
0.000352
0.000198
0.000237
0.000254
0.000263
0.000266
0.000255
0.000251
0.000226
0.000259
0.000259
0.000312
0.000427
0.000313
0.000328
0.000328
0.000479
0.000224
0.000281
0.000277
0.000302
0.000285
0.000251
0.000273
0.000499
0.000456
0.000225
0.000057
0.000194
0.000229
0.000249
0.000248
0.000240
0.000486
0.000220
0.000250
0.000266
0.000365
0.000447
0.000597
0.000207
0.000240
0.000242
0.000250
0.000253
0.000268
0.000243
0.000245
0.000290
0.000245
0.000340
0.000446
0.000353
0.000454
0.000249
0.000314
0.000317
0.000238
0.000181
0.000058
0.000193
0.000237
0.000260
0.000478
0.000333
0.000292
0.000252
0.000234
0.000245
0.000254
0.000255
0.000257
0.000262
0.000247
0.000251
0.000257
0.000253
0.000235
0.000278
0.000378
0.000532
0.000374
0.000221
0.000256
0.000276
0.000277
0.000256
0.000261
0.000265
0.000265
0.000193
0.000057
0.000302
0.000361
0.000459
0.000235
0.000219
0.000249
0.000315
0.000456
0.000283
0.000217
0.000247
0.000270
0.000273
0.000465
0.000403
0.000296
0.000239
0.000221
0.000252
0.000262
0.000277
0.000265
0.000259
0.000281
0.000247
0.000313
0.000393
0.000491
0.000232
0.000246
0.000192
0.000057
0.000207
0.000239
0.000249
0.000255
0.000254
0.000260
0.000232
0.000266
0.000250
0.000244
0.000259
0.000235
0.000291
0.001436
0.000218
0.000257
0.000260
0.000238
0.000280
0.000279
0.000261
0.000237
0.000278
0.000254
0.000265
0.000270
0.000273
0.000274
0.000254
0.000271
0.000198
0.000056
0.000210
0.000237
0.000248
0.000268
0.000220
0.000243
0.000286
0.000232
0.000226
0.000247
0.000248
0.000263
0.000260
0.000257
0.000249
0.000259
0.000247
0.000255
0.000280
0.000251
0.000262
0.000258
0.000257
0.000246
0.001293
0.000283
0.000593
0.000347
0.000409
0.000221
0.000192
0.000057
0.000212
0.000232
0.000243
0.000250
0.000435
0.000229
0.000226
0.000246
0.000252
0.000326
0.000524
0.000312
0.000226
0.000226
0.000264
0.000259
0.000257
0.000268
0.000242
0.000261
0.000255
0.000262
0.000313
0.000362
0.000555
0.000411
0.000224
0.000262
0.001380
0.000244
0.000178
0.000056
0.000338
0.000386
0.000336
0.000261
0.000236
0.000233
0.000217
0.000254
0.000262
0.000255
0.000244
0.000256
0.000302
0.000354
0.000451
0.000355
0.000370
0.000222
0.000238
0.000257
0.000274
0.000276
0.000251
0.000264
0.000264
0.000260
0.000347
0.000531
0.000397
0.000364
0.000144
0.000057
0.000224
0.000218
0.001266
0.000449
0.000291
0.000438
0.000377
0.000492
0.000268
0.000348
0.000217
0.000227
0.000266
0.000250
0.000252
0.000269
0.000339
0.000572
0.000359
0.000324
0.000269
0.000242
0.000287
0.000492
0.000220
0.000261
0.000254
0.000280
0.000282
0.000570
0.000291
0.000057
0.000381
0.000310
0.000241
0.000217
0.001714
0.000303
0.000312
0.000254
0.000232
0.000265
0.000223
0.000235
0.000254
0.000264
0.000249
0.000266
0.000233
0.000289
0.000480
0.000290
0.000463
0.000229
0.000258
0.000264
0.000250
0.000281
0.000253
0.000233
0.000268
0.000277
0.000202
0.000056
0.000357
0.000349
0.000225
0.000228
0.000251
0.000242
0.000256
0.000246
0.000248
0.000212
0.001423
0.000459
0.000263
0.000252
0.000239
0.000254
0.000272
0.000257
0.000241
0.000300
0.000240
0.000254
0.000266
0.000465
0.000336
0.000496
0.000217
0.000270
0.000274
0.000284
0.000179
0.000056
0.000230
0.000425
0.000194
0.000233
0.000565
0.000251
0.000333
0.000337
0.000454
0.000202
0.000233
0.000249
0.000266
0.000270
0.000252
0.001446
0.000332
0.000281
0.000239
0.000275
0.000300
0.000255
0.000232
0.000250
0.000262
0.000270
0.000436
0.000466
0.000291
0.000279
0.000149
0.000056
0.000204
0.000236
0.000256
0.000236
0.000226
0.000264
0.000249
0.000232
0.000318
0.000327
0.000453
0.000293
0.000230
0.000257
0.000244
0.000281
0.000267
0.000261
0.000267
0.000230
0.000269
0.000258
0.001294
0.000245
0.000253
0.000258
0.000269
0.000256
0.000261
0.000268
0.000184
0.000056
0.000218
0.000354
0.000340
0.000356
0.000238
0.000253
0.000255
0.000289
0.000235
0.000258
0.000267
0.000241
0.000243
0.000255
0.000269
0.000247
0.000264
0.000270
0.000264
0.000246
0.000254
0.000270
0.000266
0.000288
0.000285
0.000267
0.000266
0.000262
0.000259
0.000458
0.001361
0.000057
0.000220
0.000257
0.000224
0.000259
0.000234
0.000261
0.000240
0.000232
0.000259
0.000235
0.000292
0.000246
0.000241
0.000244
0.000273
0.000238
0.001723
0.000256
0.000248
0.000249
0.000246
0.000254
0.000280
0.000251
0.000305
0.000231
0.000266
0.000275
0.000269
0.000256
0.000221
0.000056
0.000323
0.000369
0.001271
0.000231
0.000222
0.000246
0.000252
0.000258
0.000272
0.000240
0.000228
0.000342
0.000398
0.000449
0.000276
0.000228
0.000247
0.000253
0.000258
0.000264
0.000251
0.000273
0.000253
0.000287
0.000261
0.000412
0.000362
0.000365
0.000302
0.000245
0.000191
0.000056
0.000219
0.000241
0.000241
0.000249
0.000280
0.000198
0.000233
0.000327
0.000354
0.001339
0.000267
0.000213
0.000242
0.000269
0.000258
0.000291
0.000233
0.000254
0.000542
0.000212
0.000396
0.000218
0.000244
0.000243
0.000277
0.000277
0.000269
0.000295
0.000272
0.000272
0.000187
0.000057
0.000254
0.000392
0.000425
0.000204
0.000228
0.000236
0.000249
0.000281
0.000261
0.000248
0.000233
0.000247
0.000461
0.000497
0.000472
0.001450
0.000261
0.000253
0.000343
0.000346
0.000472
0.000432
0.000467
0.000395
0.000224
0.000259
0.000270
0.000276
0.000266
0.000273
0.000191
0.000057
0.000232
0.000307
0.000442
0.000378
0.000393
0.000235
0.000245
0.000239
0.000241
0.000273
0.000229
0.000270
0.000278
0.000231
0.000261
0.000301
0.000323
0.000518
0.000317
0.001322
0.000266
0.000255
0.000254
0.000259
0.000443
0.000458
0.000385
0.000252
0.000275
0.000268
0.000188
0.000056
0.000189
0.000243
0.000244
0.000269
0.000227
0.000269
0.000458
0.000377
0.000384
0.000212
0.000258
0.000245
0.000267
0.000289
0.000234
0.000263
0.000261
0.000253
0.000286
0.000245
0.000481
0.000426
0.000347
0.001327
0.000410
0.000236
0.000271
0.000395
0.000480
0.000334
0.000321
0.000056
0.000195
0.000234
0.000248
0.000248
0.000253
0.000252
0.001688
0.000237
0.000210
0.000247
0.000257
0.000244
0.000260
0.000332
0.000321
0.000296
0.000263
0.000306
0.000548
0.000375
0.000283
0.000295
0.000218
0.000242
0.001507
0.000372
0.000392
0.000439
0.000346
0.000295
0.000163
0.000057
0.000204
0.000244
0.000258
0.000256
0.000243
0.000267
0.001705
0.000231
0.000234
0.000270
0.000345
0.000395
0.001449
0.000363
0.000390
0.000233
0.000257
0.000235
0.000284
0.000259
0.001704
0.000427
0.000366
0.000300
0.000219
0.000260
0.000261
0.000281
0.000243
0.000255
0.000196
0.000055
0.000206
0.000237
0.000276
0.000242
0.000268
0.000272
0.000274
0.000251
0.000255
0.000258
0.000252
0.000245
0.000295
0.000236
0.000254
0.001501
0.000278
0.000224
0.000266
0.000277
0.000272
0.000274
0.000415
0.001270
0.000276
0.000231
0.000270
0.000258
0.000436
0.000222
0.000185
0.000056
0.000215
0.000250
0.000223
0.000249
0.000260
0.000210
0.000228
0.001695
0.000270
0.000208
0.000364
0.000258
0.000227
0.000225
0.000254
0.001395
0.000218
0.000280
0.000262
0.000245
0.000270
0.000343
0.000293
0.001297
0.000274
0.000260
0.000239
0.000268
0.001397
0.000279
0.000197
0.000057
0.000216
0.000359
0.000208
0.000233
0.000264
0.000230
0.000289
0.000244
0.000263
0.000249
0.000261
0.000261
0.000254
0.000242
0.000407
0.001436
0.000223
0.000266
0.000257
0.000240
0.000290
0.000298
0.000214
0.001510
0.000343
0.000234
0.000262
0.001292
0.000273
0.000230
0.000211
0.000057
0.000218
0.000392
0.000343
0.000205
0.000232
0.000245
0.000266
0.000256
0.000262
0.000272
0.000250
0.000236
0.000262
0.000265
0.000423
0.001227
0.000235
0.000242
0.000266
0.000272
0.000226
0.000251
0.000247
0.000412
0.001224
0.000209
0.000264
0.000250
0.000258
0.001351
0.000311
0.000056
0.000318
0.000256
0.000218
0.000229
0.000238
0.000252
0.000242
0.000264
0.000280
0.000237
0.000238
0.000269
0.000269
0.000272
0.000436
0.001477
0.000211
0.000250
0.000301
0.000508
0.000298
0.000371
0.001362
0.000306
0.000230
0.000266
0.000255
0.001310
0.000261
0.000536
0.000352
0.000056
0.000225
0.000258
0.000253
0.000257
0.000247
0.000254
0.000273
0.000262
0.000248
0.000259
0.000307
0.000518
0.001297
0.000235
0.000280
0.000260
0.000279
0.000220
0.000235
0.000321
0.000261
0.001247
0.000253
0.000249
0.000252
0.000251
0.001560
0.000355
0.000513
0.000217
0.000189
0.000056
0.000206
0.000226
0.000253
0.000236
0.000255
0.000261
0.000246
0.000295
0.000442
0.000442
0.000264
0.001492
0.000209
0.000236
0.000273
0.000263
0.000243
0.000293
0.001689
0.000260
0.000389
0.000353
0.001267
0.000398
0.000273
0.000321
0.000259
0.000253
0.000266
0.000264
0.000202
0.000056
0.000185
0.000240
0.000330
0.000267
0.000279
0.000572
0.000272
0.000298
0.001458
0.000245
0.000378
0.000259
0.000251
0.000316
0.000358
0.001318
0.000268
0.000247
0.000242
0.000268
0.001517
0.000384
0.000268
0.000283
0.000270
0.000238
0.000456
0.000328
0.000262
0.000238
0.000259
0.000056
0.000230
0.000379
0.000340
0.000255
0.000225
0.001515
0.000204
0.000268
0.000267
0.000268
0.000263
0.000240
0.000329
0.001471
0.000254
0.000230
0.000433
0.001185
0.000335
0.000455
0.000391
0.000237
0.000240
0.000250
0.000307
0.000218
0.000451
0.000229
0.000266
0.000283
0.000187
0.000076
0.000191
0.000268
0.000347
0.000441
0.001223
0.000274
0.000336
0.000228
0.000222
0.000249
0.000248
0.000330
0.001488
0.000244
0.000243
0.000245
0.001409
0.000305
0.000367
0.000507
0.000318
0.000222
0.000253
0.000255
0.000264
0.000281
0.000263
0.000265
0.000264
0.000255
0.000194
0.000056
0.000182
0.000386
0.001481
0.000197
0.000277
0.000304
0.000214
0.000253
0.000280
0.000361
0.001393
0.000210
0.000268
0.000267
0.000246
0.001288
0.000668
0.000298
0.000326
0.000414
0.000302
0.000250
0.000254
0.000259
0.000272
0.000290
0.000272
0.000288
0.000466
0.000411
0.001387
0.000055
0.000219
0.000235
0.000243
0.000226
0.000258
0.000500
0.000384
0.001294
0.000256
0.000239
0.000248
0.001459
0.000465
0.000277
0.000230
0.000404
0.000250
0.000235
0.000262
0.000296
0.000257
0.000246
0.000277
0.000255
0.000252
0.000294
0.000488
0.000439
0.001484
0.000220
0.000187
0.000056
0.000215
0.000254
0.000351
0.000564
0.001209
0.000308
0.000231
0.000258
0.000244
0.000247
0.000251
0.000284
0.000367
0.000529
0.000282
0.000242
0.000254
0.000269
0.000245
0.000305
0.000237
0.000258
0.000259
0.000262
0.000266
0.000348
0.000511
0.000343
0.000335
0.001406
0.000177
0.000056
0.000212
0.000234
0.000280
0.000491
0.000322
0.000286
0.000322
0.000329
0.000305
0.000243
0.000237
0.000265
0.000253
0.000306
0.000240
0.000309
0.000568
0.000289
0.000292
0.000384
0.000275
0.000407
0.000231
0.000247
0.000256
0.000260
0.000256
0.000296
0.000366
0.000482
0.000286
0.000056
0.000188
0.001408
0.000218
0.000339
0.000408
0.000394
0.000398
0.000332
0.000208
0.000241
0.000264
0.000250
0.000285
0.000249
0.000264
0.000255
0.000263
0.001374
0.000229
0.000265
0.000255
0.000269
0.000277
0.000275
0.000269
0.000252
0.000277
0.000253
0.000326
0.000411
0.000315
0.000056
0.000202
0.000244
0.000232
0.001510
0.000325
0.000239
0.000223
0.000245
0.000229
0.000258
0.000247
0.000279
0.000245
0.000249
0.000291
0.000230
0.000251
0.000255
0.000261
0.000263
0.001439
0.000234
0.000248
0.000256
0.000264
0.000249
0.000265
0.000260
0.000284
0.000492
0.000344
0.000055
0.000196
0.000234
0.000400
0.000284
0.000242
0.000256
0.001553
0.000321
0.000301
0.000217
0.000262
0.000311
0.000330
0.000226
0.000229
0.000247
0.000250
0.000265
0.000260
0.000269
0.000526
0.000430
0.001163
0.000245
0.000244
0.000256
0.000270
0.000259
0.000298
0.000238
0.000379
0.000056
0.000227
0.000356
0.000198
0.000240
0.000254
0.000240
0.000239
0.000230
0.000290
0.001629
0.000361
0.000278
0.000236
0.000244
0.000264
0.000238
0.000263
0.000276
0.000263
0.000315
0.000299
0.000519
0.000498
0.001300
0.000222
0.000276
0.000257
0.000262
0.000268
0.000368
0.000388
0.000056
0.000240
0.000260
0.000227
0.000229
0.000221
0.000242
0.000261
0.000282
0.000251
0.001572
0.000361
0.000256
0.000238
0.000261
0.000471
0.000249
0.000541
0.000378
0.000273
0.000276
0.000484
0.000517
0.001248
0.000251
0.000237
0.000248
0.001735
0.000445
0.000610
0.000315
0.000135
0.000057
0.000203
0.000231
0.000237
0.000238
0.000256
0.000241
0.000249
0.000503
0.000495
0.000430
0.000284
0.000208
0.000245
0.000261
0.000285
0.000270
0.000239
0.000239
0.000253
0.000289
0.000284
0.000487
0.001260
0.000212
0.000272
0.000254
0.001901
0.000378
0.000390
0.000344
0.000175
0.000057
0.000180
0.000231
0.000250
0.001668
0.000329
0.000203
0.000237
0.000260
0.000268
0.000269
0.000375
0.000370
0.000378
0.000268
0.000263
0.000554
0.000380
0.001215
0.000258
0.000231
0.000259
0.000266
0.000280
0.000400
0.000614
0.000470
0.000243
0.000263
0.000266
0.000281
0.000200
0.000057
0.000201
0.000228
0.000244
0.001539
0.000256
0.000229
0.000249
0.000248
0.000239
0.000261
0.000251
0.000267
0.000271
0.000274
0.000290
0.000344
0.000425
0.000356
0.001404
0.000207
0.000269
0.000254
0.000261
0.000262
0.000405
0.000526
0.000382
0.000263
0.000294
0.000227
0.000431
0.000057
0.000198
0.000244
0.000268
0.001535
0.000296
0.000219
0.000263
0.000241
0.000254
0.000262
0.000248
0.000276
0.000240
0.000263
0.000460
0.000463
0.001372
0.000767
0.000261
0.000330
0.000234
0.000229
0.000249
0.000273
0.001683
0.000821
0.000219
0.000267
0.000270
0.000281
0.000190
0.000056
0.000225
0.000227
0.000255
0.000247
0.000266
0.000266
0.000209
0.000256
0.000237
0.000250
0.000274
0.000286
0.000259
0.000247
0.000256
0.000246
0.000274
0.001609
0.000706
0.000357
0.000324
0.000236
0.000231
0.000316
0.000248
0.000249
0.000274
0.000249
0.001400
0.000403
0.000300
0.000058
0.000195
0.000223
0.000268
0.000234
0.000263
0.000230
0.000280
0.000226
0.000252
0.000261
0.000306
0.000385
0.000455
0.000319
0.000218
0.000245
0.000268
0.001396
0.000703
0.000455
0.000337
0.000289
0.000211
0.000258
0.000270
0.000251
0.000260
0.000264
0.001577
0.000340
0.000200
0.000056
0.000220
0.000224
0.000252
0.000247
0.000247
0.000251
0.000236
0.000266
0.000257
0.000271
0.000375
0.000382
0.000315
0.000217
0.000242
0.000242
0.000267
0.000257
0.001573
0.000666
0.000431
0.000337
0.000206
0.000258
0.000258
0.000261
0.000262
0.000286
0.000269
0.001374
0.000320
0.000056
0.000206
0.000222
0.000232
0.000261
0.000259
0.000244
0.000241
0.000317
0.000360
0.000450
0.000364
0.000371
0.000382
0.000206
0.000243
0.000250
0.000303
0.000229
0.000267
0.001981
0.000283
0.000226
0.000475
0.000214
0.000253
0.000258
0.000268
0.000264
0.000268
0.000277
0.000370
0.000057
0.000188
0.000273
0.000240
0.000240
0.000257
0.000252
0.000221
0.000238
0.000273
0.000269
0.000228
0.000235
0.000342
0.000478
0.000401
0.000431
0.000211
0.000268
0.000254
0.000249
0.000250
0.000289
0.001478
0.001054
0.000218
0.000243
0.000273
0.000263
0.000277
0.000248
0.000199
0.000055
0.000206
0.001344
0.000289
0.000208
0.000236
0.000252
0.000256
0.000241
0.000239
0.000262
0.000247
0.000261
0.000239
0.000423
0.000329
0.000333
0.000396
0.000243
0.000275
0.000265
0.000271
0.000225
0.000266
0.000257
0.001321
0.000704
0.000292
0.000387
0.000374
0.000403
0.000298
0.000056
0.000193
0.000242
0.000517
0.001169
0.000201
0.000252
0.000234
0.000255
0.000256
0.000261
0.000256
0.000239
0.000255
0.000388
0.000539
0.000316
0.000216
0.000303
0.000308
0.000206
0.000252
0.000277
0.000233
0.000266
0.000289
0.001527
0.000735
0.000316
0.000259
0.000274
0.000188
0.000055
0.000224
0.000279
0.000434
0.000324
0.001299
0.000273
0.000202
0.000237
0.000233
0.000251
0.000250
0.000254
0.000231
0.000240
0.000246
0.000261
0.000267
0.000235
0.000261
0.000250
0.000266
0.000274
0.000310
0.000331
0.000210
0.000261
0.000274
0.001457
0.000259
0.000242
0.000172
0.000058
0.000191
0.000226
0.000249
0.000279
0.000344
0.000373
0.000395
0.000279
0.001579
0.000225
0.000269
0.000502
0.000375
0.000222
0.000471
0.000203
0.000228
0.000281
0.000256
0.000266
0.000280
0.000270
0.000256
0.000272
0.000267
0.000383
0.000430
0.000314
0.001575
0.000226
0.000207
0.000057
0.000227
0.000240
0.000246
0.000247
0.000244
0.000248
0.000264
0.000307
0.000411
0.002037
0.000236
0.000235
0.000258
0.000254
0.000262
0.000302
0.000231
0.000247
0.000323
0.000387
0.000332
0.000491
0.001433
0.000242
0.000255
0.002006
0.000279
0.000242
0.000261
0.001532
0.000152
0.000056
0.000307
0.000459
0.000444
0.000236
0.000275
0.000211
0.000259
0.000271
0.000265
0.000229
0.000246
0.000341
0.000424
0.000382
0.000416
0.000220
0.000214
0.001575
0.000231
0.000660
0.001803
0.000298
0.000225
0.001571
0.001994
0.000738
0.000276
0.000272
0.000272
0.000507
0.000298
0.000056
0.000186
0.000246
0.000281
0.000220
0.001428
0.001730
0.001074
0.000200
0.000230
0.001597
0.001965
0.000215
0.000244
0.000431
0.000271
0.000411
0.000375
0.000490
0.000206
0.000249
0.000249
0.000252
0.000279
0.001597
0.001208
0.001419
0.000289
0.000280
0.000256
0.000304
0.000361
0.000056
0.000203
0.000230
0.000231
0.000245
0.000224
0.000246
0.000251
0.000252
0.000259
0.000244
0.000268
0.000285
0.000571
0.000321
0.000307
0.000246
0.000245
0.000274
0.000266
0.000282
0.000241
0.000265
0.001515
0.000482
0.002103
0.000250
0.000268
0.000383
0.000386
0.000376
0.000202
0.000056
0.000229
0.000436
0.000395
0.000310
0.000190
0.000230
0.000257
0.000241
0.000241
0.000246
0.000247
0.000263
0.000262
0.001606
0.001357
0.001225
0.000276
0.000224
0.000245
0.000283
0.000281
0.000275
0.000246
0.000252
0.002206
0.000262
0.000237
0.000302
0.000321
0.000307
0.000255
0.000057
0.000216
0.000385
0.000512
0.000331
0.000238
0.000227
0.000245
0.000264
0.001917
0.001402
0.000222
0.000336
0.000385
0.000427
0.000248
0.000231
0.000249
0.000265
0.000268
0.000270
0.000254
0.000259
0.000481
0.000226
0.000275
0.000267
0.000250
0.000274
0.000283
0.000244
0.000203
0.000056
0.000218
0.000243
0.000242
0.000245
0.000277
0.000248
0.001541
0.001423
0.001313
0.000240
0.000232
0.000245
0.000267
0.000262
0.000244
0.000250
0.000253
0.002094
0.000265
0.000221
0.000280
0.000255
0.000259
0.000265
0.000283
0.000250
0.000260
0.000261
0.000267
0.000266
0.000170
0.000056
0.000203
0.002679
0.001396
0.000220
0.000306
0.000325
0.000210
0.000286
0.000231
0.000233
0.000259
0.000247
0.000229
0.000247
0.000273
0.000254
0.000271
0.000266
0.000270
0.000257
0.000254
0.000290
0.000275
0.000269
0.000245
0.000261
0.000249
0.000272
0.000263
0.000265
0.000373
0.000056
0.001562
0.000248
0.001234
0.000227
0.000231
0.000236
0.000263
0.000275
0.000223
0.000332
0.000393
0.000358
0.000286
0.000206
0.000254
0.002147
0.000238
0.000254
0.000304
0.000494
0.000335
0.000310
0.000227
0.000258
0.000264
0.000252
0.000259
0.000281
0.000267
0.001616
0.001267
0.000057
0.000194
0.000223
0.000344
0.000345
0.000373
0.000273
0.000214
0.000232
0.000251
0.000263
0.000263
0.000241
0.000232
0.000257
0.000261
0.000238
0.000286
0.000646
0.000378
0.000240
0.000225
0.000279
0.000276
0.000253
0.000247
0.000246
0.000269
0.000276
0.000239
0.000392
0.000283
0.000056
0.001106
0.000222
0.000489
0.000315
0.000293
0.000219
0.000233
0.000261
0.000231
0.002383
0.000283
0.000393
0.000207
0.000384
0.000310
0.000251
0.000243
0.000253
0.000267
0.000223
0.000256
0.000366
0.000593
0.000370
0.001878
0.001288
0.000555
0.000528
0.000222
0.000281
0.000213
0.000056
0.000234
0.000375
0.000237
0.000248
0.000254
0.000221
0.000255
0.000253
0.000248
0.000254
0.000256
0.000223
0.000244
0.000313
0.000332
0.000509
0.001852
0.001327
0.000466
0.000422
0.000451
0.000233
0.000246
0.000258
0.002185
0.000507
0.000386
0.000231
0.000272
0.000298
0.000172
0.000056
0.000206
0.000241
0.000253
0.000250
0.000240
0.000383
0.000375
0.000277
0.000352
0.000224
0.000238
0.000249
0.000283
0.002076
0.000355
0.000417
0.000202
0.000261
0.000284
0.000246
0.000249
0.002481
0.000312
0.000221
0.000262
0.000254
0.000245
0.000276
0.000313
0.000248
0.000199
0.000055
0.000192
0.000367
0.000551
0.000349
0.000253
0.000219
0.000232
0.000254
0.000261
0.000236
0.001964
0.000386
0.000278
0.000265
0.000232
0.000263
0.000277
0.000246
0.002198
0.000463
0.000219
0.000263
0.000267
0.000259
0.000262
0.000246
0.000299
0.000233
0.000266
0.000257
0.000189
0.000056
0.000211
0.000237
0.000248
0.000219
0.000250
0.000263
0.000235
0.000245
0.000255
0.002175
0.000219
0.000282
0.000210
0.000458
0.000202
0.000244
0.000306
0.000264
0.000249
0.000253
0.001970
0.000267
0.000353
0.000359
0.000433
0.000402
0.000302
0.000260
0.000253
0.000250
0.000203
0.000057
0.000203
0.000261
0.000220
0.000248
0.000244
0.000333
0.000231
0.002325
0.000218
0.000226
0.000257
0.000253
0.000235
0.000282
0.000279
0.002117
0.000595
0.000212
0.000261
0.000242
0.000261
0.000267
0.000281
0.000273
0.000255
0.000254
0.000294
0.000245
0.000274
0.000258
0.000196
0.000056
0.001826
0.001425
0.000213
0.000218
0.000243
0.000255
0.000247
0.000296
0.000370
0.000334
0.002194
0.000256
0.000242
0.000266
0.000285
0.000493
0.000418
0.000296
0.000222
0.000245
0.000245
0.000270
0.000270
0.000220
0.000258
0.000270
0.000268
0.000261
0.000359
0.000788
0.000162
0.000056
0.000195
0.000254
0.000252
0.000251
0.000268
0.000239
0.000251
0.000246
0.001542
0.002104
0.000563
0.000252
0.000401
0.000710
0.000348
0.000216
0.000261
0.000252
0.000261
0.000270
0.000256
0.000237
0.000261
0.000256
0.003011
0.000336
0.000236
0.000271
0.000291
0.000286
0.000385
0.000103
0.000187
0.000194
0.000224
0.000222
0.000275
0.000365
0.000456
0.000312
0.000288
0.000220
0.000224
0.000259
0.000263
0.000258
0.000274
0.000235
0.000258
0.000292
0.001824
0.000232
0.000237
0.000256
0.000275
0.000275
0.000275
0.000249
0.001481
0.000333
0.000246
0.000258
0.000167
0.000057
0.000198
0.000230
0.000237
0.000239
0.000255
0.000235
0.000305
0.000378
0.000334
0.000389
0.000201
0.000242
0.000273
0.000322
0.000425
0.000320
0.000226
0.000242
0.000266
0.000519
0.000334
0.000437
0.000227
0.000264
0.000259
0.000247
0.000256
0.000271
0.000277
0.000263
0.000207
0.000057
0.001501
0.000392
0.000213
0.001934
0.000299
0.000397
0.000443
0.000311
0.000223
0.000247
0.000268
0.000246
0.000248
0.000243
0.000266
0.000259
0.000454
0.000319
0.000379
0.000344
0.000397
0.000203
0.000266
0.000266
0.000266
0.000265
0.000267
0.000271
0.000387
0.000486
0.001333
0.000058
0.000206
0.000223
0.002080
0.000351
0.000284
0.000236
0.000276
0.000236
0.000261
0.000262
0.000212
0.000247
0.000253
0.000268
0.000310
0.000306
0.000716
0.001752
0.000229
0.000250
0.000250
0.000268
0.000386
0.000401
0.001615
0.000276
0.000364
0.001928
0.000263
0.000245
0.000201
0.000056
0.000221
0.000216
0.000232
0.000246
0.000233
0.000249
0.000249
0.000301
0.000317
0.000264
0.000393
0.000355
0.000339
0.000292
0.000262
0.000247
0.000261
0.000239
0.000264
0.000255
0.000315
0.000276
0.000263
0.000262
0.000263
0.001517
0.000293
0.000382
0.002062
0.000241
0.000176
0.000057
0.000192
0.000234
0.000237
0.000248
0.000487
0.000207
0.000250
0.000341
0.000361
0.000310
0.000304
0.000208
0.000261
0.000269
0.000273
0.000336
0.000430
0.000425
0.000256
0.000394
0.000635
0.000352
0.001570
0.000239
0.000234
0.001971
0.000356
0.000254
0.000224
0.000295
0.000189
0.000057
0.000189
0.000236
0.000224
0.000245
0.000256
0.000271
0.000250
0.000271
0.000254
0.000319
0.001756
0.000311
0.000390
0.000274
0.000465
0.000375
0.000403
0.001438
0.000235
0.000289
0.002116
0.000572
0.000257
0.000245
0.000244
0.000275
0.000496
0.000228
0.000261
0.000274
0.000201
0.000058
0.000180
0.000331
0.000423
0.000274
0.000194
0.000247
0.000259
0.000254
0.000258
0.000297
0.000228
0.000253
0.000257
0.000262
0.000391
0.000483
0.001254
0.000266
0.000271
0.002031
0.000251
0.000291
0.000231
0.000269
0.000245
0.000275
0.000280
0.000256
0.000247
0.000262
0.000209
0.000057
0.000237
0.000463
0.001984
0.000243
0.000234
0.000240
0.000254
0.000302
0.000474
0.000429
0.001269
0.000382
0.000356
0.002077
0.000210
0.000243
0.000265
0.000278
0.000250
0.000238
0.000291
0.000296
0.000251
0.000380
0.000488
0.000334
0.000316
0.002232
0.000645
0.000322
0.000404
0.000056
0.000202
0.000223
0.000241
0.001961
0.000232
0.000227
0.000251
0.000246
0.000252
0.000236
0.000262
0.000249
0.000260
0.000287
0.000485
0.001410
0.000254
0.000238
0.000289
0.000245
0.000227
0.000255
0.000252
0.000285
0.000346
0.000445
0.000456
0.000241
0.001605
0.000267
0.000166
0.000057
0.000205
0.000230
0.000241
0.000238
0.000259
0.000264
0.000228
0.000247
0.000255
0.000392
0.000370
0.001395
0.000224
0.000230
0.000270
0.000271
0.000233
0.000252
0.000311
0.000472
0.000416
0.000427
0.000219
0.001588
0.000231
0.000249
0.000297
0.000281
0.000257
0.000269
0.000187
0.000055
0.000198
0.000240
0.000255
0.000269
0.000246
0.000267
0.000217
0.000245
0.000272
0.000233
0.000246
0.000258
0.000263
0.001478
0.000364
0.000210
0.000270
0.000234
0.000280
0.000326
0.000359
0.000278
0.000243
0.000263
0.000257
0.000267
0.000256
0.001413
0.000284
0.000229
0.000174
0.000058
0.000190
0.000228
0.000258
0.000262
0.000269
0.000217
0.000270
0.000241
0.000215
0.000265
0.000247
0.000261
0.000223
0.000302
0.000374
0.000356
0.000283
0.000223
0.001645
0.000230
0.000246
0.000261
0.000261
0.000333
0.000328
0.000393
0.000446
0.000268
0.000252
0.001617
0.000148
0.000057
0.000312
0.000362
0.000364
0.000298
0.000231
0.000216
0.000245
0.000272
0.000251
0.000264
0.000227
0.000260
0.001459
0.000311
0.000264
0.000223
0.000260
0.000265
0.000254
0.000264
0.000254
0.000233
0.000255
0.000276
0.000267
0.000379
0.000493
0.000308
0.000281
0.000240
0.000195
0.000056
0.000198
0.000258
0.000487
0.000273
0.000383
0.000271
0.000246
0.000251
0.000256
0.000255
0.000244
0.000219
0.000257
0.000269
0.001327
0.000224
0.000233
0.000244
0.000264
0.000265
0.000237
0.000271
0.000255
0.000254
0.000255
0.000262
0.000317
0.000794
0.000344
0.000246
0.000168
0.000057
0.000200
0.001563
0.000258
0.000302
0.000475
0.000372
0.000222
0.000257
0.000268
0.000246
0.000238
0.000262
0.000271
0.000277
0.000252
0.001580
0.000207
0.000277
0.000263
0.000263
0.000270
0.000234
0.000265
0.000263
0.000261
0.000275
0.000447
0.000369
0.000331
0.000239
0.000192
0.000056
0.000197
0.000251
0.000249
0.001693
0.000327
0.000349
0.000218
0.000240
0.000260
0.000269
0.000280
0.000253
0.000252
0.000259
0.000229
0.000268
0.000463
0.001297
0.000234
0.000212
0.001505
0.000292
0.000574
0.000406
0.000344
0.000231
0.000270
0.000484
0.000221
0.000257
0.000188
0.000057
0.000281
0.000216
0.000240
0.000247
0.000245
0.000261
0.000239
0.000256
0.000253
0.000253
0.000239
0.000260
0.000310
0.000556
0.001613
0.001486
0.000360
0.000554
0.000342
0.000202
0.000234
0.000253
0.000257
0.000263
0.000249
0.000265
0.000255
0.000270
0.001535
0.000315
0.000184
0.000058
0.000223
0.000350
0.000353
0.000332
0.000242
0.000214
0.000247
0.000377
0.000419
0.000350
0.002189
0.000311
0.000727
0.000460
0.000487
0.000254
0.000335
0.000393
0.000329
0.000283
0.000388
0.000263
0.001536
0.000526
0.000226
0.000260
0.000250
0.000255
0.000270
0.000267
0.000187
0.000056
0.000215
0.000251
0.000250
0.000260
0.000261
0.001643
0.000881
0.000993
0.000212
0.000245
0.000246
0.000270
0.000246
0.000258
0.000261
0.000242
0.000252
0.000271
0.000266
0.000277
0.001451
0.000296
0.000252
0.000226
0.000235
0.000265
0.000255
0.000288
0.000260
0.000286
0.001907
0.000059
0.000193
0.000224
0.001546
0.000877
0.000355
0.000373
0.000232
0.000226
0.000257
0.000254
0.000242
0.000255
0.000246
0.001984
0.000469
0.000221
0.000240
0.000255
0.000267
0.000266
0.000193
