0.000091
0.019611
0.001955
0.000264
0.000222
0.000258
0.000294
0.000257
0.000321
0.000296
0.000244
0.000394
0.000484
0.000563
0.000402
0.000207
0.000301
0.000375
0.000395
0.000416
0.000296
0.001876
0.000493
0.000448
0.000251
0.000307
0.000293
0.000436
0.000388
0.000378
0.000478
0.000348
0.000058
0.000189
0.000232
0.000276
0.000258
0.000271
0.000257
0.000273
0.000266
0.000276
0.000286
0.000410
0.000528
0.000274
0.000252
0.000412
0.000352
0.000354
0.000243
0.000221
0.001738
0.000291
0.000224
0.000510
0.000254
0.000234
0.000251
0.000290
0.000290
0.000281
0.000312
0.000451
0.000056
0.000253
0.000213
0.000265
0.000266
0.000249
0.000247
0.000263
0.000255
0.000285
0.001670
0.000242
0.000233
0.000251
0.000274
0.000279
0.000248
0.000272
0.000258
0.000342
0.001804
0.000256
0.000258
0.000448
0.000457
0.000400
0.000237
0.000229
0.000518
0.000429
0.000846
0.000173
0.000057
0.000217
0.000207
0.000257
0.000243
0.000317
0.000242
0.000360
0.000467
0.000486
0.000254
0.000220
0.000212
0.000232
0.000267
0.000248
0.000255
0.000256
0.000254
0.000298
0.000321
0.001750
0.000242
0.000259
0.000448
0.000388
0.000545
0.000686
0.000477
0.000367
0.000252
0.000196
0.000057
0.000224
0.000234
0.000249
0.000248
0.000257
0.000254
0.000252
0.000448
0.001492
0.000243
0.000252
0.000219
0.000258
0.000252
0.000264
0.000284
0.000258
0.000836
0.001368
0.000303
0.000249
0.000418
0.000257
0.000232
0.000256
0.000261
0.000263
0.000264
0.000268
0.000259
0.000220
0.000055
0.000196
0.000224
0.000236
0.000249
0.000259
0.000244
0.000244
0.000252
0.000233
0.000260
0.001700
0.000243
0.000217
0.000258
0.000205
0.000255
0.000236
0.000257
0.000260
0.000241
0.000265
0.001742
0.000240
0.000272
0.000466
0.000236
0.000246
0.000230
0.000259
0.000264
0.000216
0.000056
0.000216
0.000207
0.000245
0.000244
0.000238
0.000244
0.000264
0.000238
0.000263
0.000244
0.000263
0.000258
0.000257
0.000275
0.001638
0.000277
0.000277
0.000234
0.000246
0.000274
0.000279
0.000246
0.000246
0.000254
0.000271
0.001842
0.000391
0.000350
0.000266
0.000274
0.000222
0.000055
0.000233
0.000197
0.000245
0.000272
0.000260
0.000234
0.000311
0.000407
0.000424
0.000402
0.000217
0.000235
0.000251
0.000251
0.001649
0.000501
0.000371
0.000394
0.000251
0.000221
0.000248
0.000276
0.000267
0.001861
0.000401
0.000513
0.000224
0.000239
0.000226
0.000256
0.000211
0.000056
0.000180
0.000236
0.000227
0.000262
0.000329
0.000450
0.000393
0.000296
0.000210
0.000227
0.000259
0.000237
0.000260
0.001696
0.000506
0.000301
0.000213
0.000254
0.000272
0.000270
0.000261
0.000258
0.000266
0.001921
0.000280
0.000394
0.000263
0.000238
0.000301
0.000401
0.000314
0.000057
0.000215
0.000354
0.000362
0.000280
0.000294
0.000199
0.000242
0.000254
0.000243
0.000244
0.000226
0.000244
0.001617
0.000381
0.000284
0.000212
0.000212
0.000247
0.000257
0.000271
0.000281
0.000323
0.001801
0.000368
0.000206
0.000501
0.000223
0.000225
0.000249
0.000283
0.000270
0.000056
0.000407
0.000483
0.000663
0.000218
0.000197
0.000260
0.000234
0.000215
0.000271
0.000244
0.000252
0.001695
0.000277
0.000423
0.000368
0.000230
0.000222
0.000240
0.000247
0.000248
0.000259
0.001865
0.000263
0.000207
0.002279
0.000412
0.000260
0.000267
0.000256
0.000273
0.000198
0.000057
0.000229
0.000210
0.000236
0.000241
0.000249
0.001710
0.000204
0.000197
0.000264
0.000234
0.000249
0.000268
0.000232
0.000254
0.000277
0.000435
0.000618
0.000236
0.000233
0.000261
0.000280
0.000244
0.000253
0.000481
0.000452
0.000238
0.000367
0.000780
0.000209
0.000223
0.000199
0.000056
0.000200
0.000227
0.000255
0.000244
0.000239
0.000238
0.000459
0.000255
0.000431
0.001620
0.000253
0.000243
0.000231
0.000248
0.000258
0.000280
0.000459
0.000490
0.000373
0.000225
0.000233
0.000277
0.000324
0.000268
0.000274
0.000384
0.000427
0.000497
0.000496
0.000503
0.000136
0.000056
0.000200
0.000243
0.000225
0.000227
0.000236
0.000245
0.000236
0.000256
0.000242
0.000363
0.000342
0.001566
0.000280
0.000202
0.000209
0.000221
0.000261
0.000251
0.000243
0.000254
0.000275
0.000471
0.000401
0.000333
0.000211
0.000238
0.000272
0.000257
0.000264
0.000279
0.000407
0.000056
0.000209
0.000217
0.000242
0.000253
0.000515
0.000430
0.000270
0.000243
0.000233
0.000254
0.000255
0.000238
0.000283
0.000260
0.000240
0.000541
0.000411
0.001591
0.000280
0.000245
0.000247
0.000265
0.000257
0.000243
0.000259
0.000504
0.000503
0.000310
0.000360
0.000239
0.000212
0.000056
0.000223
0.000207
0.000396
0.000243
0.000264
0.000243
0.000306
0.000552
0.000376
0.000265
0.000233
0.000277
0.000262
0.000250
0.000588
0.000291
0.000232
0.000354
0.000359
0.001613
0.000259
0.000234
0.000290
0.000413
0.000277
0.000294
0.000254
0.000454
0.000440
0.000375
0.000283
0.000056
0.000203
0.000205
0.000232
0.000249
0.000474
0.000264
0.000287
0.000218
0.000439
0.000532
0.000342
0.000242
0.000207
0.000215
0.000256
0.000267
0.000254
0.000265
0.000221
0.000371
0.000277
0.000414
0.001750
0.000265
0.000240
0.000252
0.000315
0.000353
0.000486
0.000665
0.000411
0.000056
0.000244
0.000317
0.000333
0.000420
0.000314
0.000218
0.000253
0.000298
0.000546
0.000360
0.000325
0.000204
0.000215
0.000269
0.000264
0.000240
0.000250
0.000272
0.000266
0.000265
0.000263
0.000540
0.001629
0.000296
0.000358
0.000428
0.000375
0.000248
0.000428
0.000358
0.000422
0.000056
0.000241
0.000383
0.000293
0.000203
0.000232
0.000236
0.000450
0.000212
0.000220
0.000527
0.000210
0.000519
0.000213
0.000238
0.000266
0.000276
0.000369
0.000445
0.000304
0.000221
0.000222
0.000373
0.000706
0.001606
0.000276
0.000385
0.000332
0.000232
0.000267
0.000411
0.000322
0.000056
0.000228
0.000216
0.000230
0.000246
0.000243
0.000252
0.000251
0.000369
0.000413
0.000332
0.000455
0.000376
0.000277
0.000224
0.000512
0.000271
0.000274
0.000266
0.000242
0.000340
0.000222
0.000240
0.000273
0.000467
0.000493
0.001663
0.000232
0.000236
0.000241
0.000253
0.000210
0.000056
0.000271
0.000468
0.000387
0.000195
0.000240
0.000223
0.000265
0.000232
0.000258
0.000262
0.000230
0.000473
0.000359
0.000410
0.000375
0.000303
0.000235
0.000242
0.000353
0.000354
0.000366
0.000365
0.000387
0.000377
0.000255
0.000223
0.000235
0.000274
0.001785
0.000280
0.000205
0.000056
0.000191
0.000205
0.000250
0.000269
0.000350
0.000535
0.000367
0.000207
0.000230
0.000273
0.000248
0.000246
0.000539
0.000439
0.000467
0.000307
0.000273
0.000241
0.000434
0.000491
0.000365
0.000433
0.000567
0.000339
0.000238
0.000240
0.000239
0.000229
0.000263
0.001779
0.000276
0.000057
0.000231
0.000330
0.000214
0.000217
0.000245
0.000253
0.000286
0.000442
0.000427
0.000304
0.000327
0.000262
0.000347
0.000673
0.000336
0.000209
0.000216
0.000245
0.000257
0.000260
0.000262
0.000272
0.000250
0.000256
0.000316
0.000422
0.000417
0.000347
0.000219
0.000221
0.000191
0.000056
0.000468
0.000284
0.000477
0.000212
0.000194
0.000240
0.000254
0.000251
0.000245
0.000224
0.000241
0.000281
0.000292
0.000402
0.000645
0.000326
0.000301
0.000361
0.000389
0.000373
0.000267
0.000221
0.000231
0.000239
0.001825
0.000228
0.001756
0.000928
0.000414
0.000297
0.000146
0.000056
0.000203
0.000221
0.000221
0.000237
0.000256
0.000254
0.000262
0.000241
0.000247
0.000312
0.000378
0.000425
0.000402
0.000387
0.000227
0.000254
0.000270
0.000292
0.000202
0.000239
0.000254
0.000227
0.001804
0.000279
0.000218
0.000267
0.000271
0.000264
0.001868
0.000553
0.000324
0.000057
0.000224
0.000197
0.000229
0.000228
0.000260
0.000242
0.000249
0.000257
0.000251
0.000476
0.000466
0.000295
0.000393
0.000256
0.000222
0.000274
0.000393
0.000376
0.000373
0.000257
0.001805
0.000244
0.000232
0.000215
0.000265
0.000266
0.000240
0.000268
0.000248
0.000342
0.000443
0.000056
0.000283
0.000182
0.000198
0.000259
0.000249
0.000241
0.000262
0.000249
0.000240
0.000261
0.000242
0.000272
0.000427
0.000352
0.000391
0.000261
0.000481
0.000206
0.000215
0.000262
0.000266
0.000251
0.000277
0.000254
0.000278
0.001792
0.000282
0.000212
0.000254
0.000248
0.000219
0.000056
0.000313
0.000315
0.000225
0.000202
0.000237
0.000238
0.000238
0.000251
0.000248
0.000227
0.000236
0.000264
0.000255
0.000271
0.000531
0.000346
0.000335
0.000213
0.000220
0.000244
0.000278
0.000249
0.000245
0.000264
0.000256
0.000260
0.000297
0.001713
0.000234
0.000216
0.000196
0.000056
0.000187
0.000219
0.000251
0.000252
0.000354
0.000371
0.000408
0.000316
0.000227
0.000229
0.000258
0.000238
0.000245
0.000261
0.000254
0.000252
0.000259
0.000249
0.000261
0.000254
0.000268
0.000269
0.000260
0.000234
0.000250
0.000266
0.000274
0.000263
0.000265
0.000252
0.000210
0.000056
0.000187
0.000220
0.000248
0.000252
0.000240
0.000249
0.000243
0.000260
0.000361
0.000203
0.000188
0.000254
0.000258
0.000243
0.000257
0.000270
0.000259
0.000246
0.000358
0.000217
0.000243
0.000288
0.000275
0.000279
0.000253
0.000274
0.000273
0.000253
0.000262
0.000451
0.000734
0.000056
0.000227
0.000302
0.000226
0.000194
0.000224
0.000245
0.000242
0.000252
0.000253
0.000242
0.000266
0.000290
0.000489
0.000532
0.001552
0.000212
0.000515
0.000203
0.000226
0.000464
0.000490
0.000301
0.000233
0.000281
0.000247
0.000267
0.000275
0.000257
0.000302
0.000277
0.000192
0.000056
0.000331
0.000418
0.000346
0.000314
0.000200
0.000242
0.000259
0.000241
0.000237
0.000249
0.000248
0.000252
0.000242
0.000289
0.000359
0.000477
0.000371
0.001806
0.000275
0.000215
0.000356
0.000418
0.000497
0.000239
0.000368
0.000318
0.000252
0.000235
0.000226
0.000261
0.000196
0.000056
0.000184
0.000212
0.000244
0.000286
0.000467
0.000403
0.000286
0.000245
0.000253
0.000222
0.000234
0.000268
0.000268
0.000265
0.000244
0.000324
0.000256
0.000472
0.000352
0.000428
0.000228
0.001818
0.000284
0.000610
0.000452
0.000420
0.000283
0.000236
0.000243
0.000272
0.000501
0.000056
0.000199
0.000248
0.000237
0.000308
0.000424
0.000445
0.000363
0.000250
0.000203
0.000338
0.000220
0.000229
0.000255
0.000297
0.000364
0.000206
0.000230
0.000377
0.000513
0.000284
0.000555
0.001780
0.000257
0.000504
0.000443
0.000349
0.000244
0.000362
0.000240
0.000215
0.000212
0.000056
0.000234
0.000316
0.000354
0.000293
0.000390
0.000304
0.000389
0.000217
0.000231
0.000254
0.000273
0.000237
0.000231
0.000253
0.000279
0.000227
0.000319
0.000354
0.000543
0.000413
0.000264
0.000219
0.000252
0.001795
0.000418
0.000404
0.000705
0.000277
0.000249
0.000292
0.000188
0.000055
0.000179
0.000224
0.000327
0.000253
0.000245
0.000388
0.000435
0.000305
0.000296
0.000540
0.000194
0.000227
0.000235
0.000276
0.000276
0.000283
0.000217
0.000319
0.000571
0.000335
0.000274
0.000227
0.000263
0.000265
0.000252
0.000262
0.000242
0.000249
0.000266
0.000343
0.000208
0.000056
0.000318
0.000326
0.000219
0.000237
0.000244
0.000260
0.000239
0.000354
0.000214
0.000210
0.000251
0.000346
0.000435
0.000411
0.000308
0.000319
0.000223
0.000238
0.000246
0.000258
0.000264
0.000290
0.000235
0.000254
0.000274
0.000321
0.000554
0.000276
0.000370
0.000207
0.000164
0.000056
0.000184
0.000206
0.000273
0.000242
0.000240
0.000253
0.000255
0.000258
0.000491
0.000232
0.000237
0.000263
0.000246
0.000256
0.000272
0.000268
0.000273
0.000351
0.000255
0.000219
0.000241
0.000269
0.000280
0.000243
0.000275
0.000268
0.000267
0.000257
0.000244
0.000515
0.000163
0.000056
0.000196
0.000216
0.000249
0.000264
0.000247
0.000228
0.000288
0.000455
0.000273
0.000231
0.000241
0.000260
0.000238
0.000287
0.000462
0.001740
0.000260
0.000231
0.000299
0.000380
0.000414
0.000347
0.000373
0.000354
0.000420
0.000348
0.000252
0.000262
0.000280
0.000270
0.001409
0.000056
0.000371
0.000340
0.000287
0.000207
0.000180
0.000247
0.000233
0.000255
0.000238
0.000268
0.000257
0.000248
0.000252
0.000260
0.000542
0.001732
0.000209
0.000213
0.000216
0.000277
0.000249
0.000252
0.000463
0.000330
0.000290
0.000312
0.000248
0.000259
0.000258
0.000267
0.000240
0.000056
0.001195
0.000626
0.000253
0.000308
0.000198
0.000194
0.000215
0.000235
0.000502
0.000230
0.000214
0.000250
0.000374
0.000423
0.000457
0.000343
0.000302
0.000247
0.000325
0.000375
0.000225
0.000238
0.000269
0.000240
0.000267
0.000674
0.000497
0.000238
0.000242
0.000273
0.000176
0.000057
0.000187
0.000199
0.000228
0.000255
0.001534
0.000252
0.000206
0.000246
0.000238
0.000253
0.000272
0.000235
0.000245
0.000257
0.000273
0.000313
0.000470
0.000680
0.000195
0.001810
0.000231
0.000294
0.000285
0.000402
0.000584
0.000369
0.000233
0.000241
0.000252
0.000267
0.000238
0.000057
0.000199
0.000235
0.000219
0.001314
0.000334
0.000195
0.000265
0.000212
0.000238
0.000234
0.000248
0.000240
0.000273
0.000250
0.000251
0.000343
0.000479
0.000437
0.000303
0.000207
0.000245
0.000277
0.000258
0.000233
0.000343
0.000229
0.000225
0.000277
0.000269
0.000431
0.000549
0.000056
0.000213
0.000223
0.000239
0.000261
0.000258
0.000251
0.000241
0.000250
0.000269
0.000250
0.001431
0.000249
0.000227
0.000257
0.000247
0.000240
0.000265
0.000271
0.000255
0.000265
0.000271
0.000475
0.000523
0.000323
0.000236
0.000281
0.001831
0.000226
0.000216
0.000320
0.000464
0.000056
0.000247
0.000428
0.000455
0.000507
0.000528
0.000605
0.001372
0.000448
0.000543
0.000659
0.000547
0.000688
0.000499
0.000622
0.000585
0.001723
0.000474
0.000442
0.000393
0.000309
0.000254
0.000288
0.000285
0.000270
0.000277
0.000287
0.000281
0.000277
0.000257
0.000299
0.001320
0.000055
0.000215
0.000244
0.000218
0.000238
0.000246
0.000247
0.000241
0.000228
0.000261
0.000276
0.000234
0.000264
0.000234
0.000271
0.000259
0.000255
0.001859
0.000250
0.000262
0.000251
0.000254
0.000256
0.000269
0.000307
0.000456
0.000400
0.000272
0.000248
0.000260
0.000291
0.000163
0.000055
0.000212
0.001395
0.000262
0.000264
0.000262
0.000237
0.000248
0.000264
0.000231
0.000248
0.000230
0.000239
0.000266
0.000451
0.000269
0.000368
0.000260
0.000287
0.001899
0.000264
0.000258
0.000252
0.000257
0.000259
0.000278
0.000261
0.000285
0.000247
0.000251
0.000306
0.000235
0.000057
0.000190
0.000220
0.000254
0.001430
0.000265
0.000257
0.000223
0.000233
0.000226
0.000268
0.000261
0.000244
0.000230
0.000284
0.000263
0.000244
0.000250
0.000256
0.000281
0.000256
0.000253
0.001854
0.000258
0.001764
0.000256
0.000244
0.000246
0.000233
0.000272
0.000293
0.000198
0.000056
0.000196
0.000234
0.001376
0.000218
0.000262
0.000232
0.000218
0.000245
0.000246
0.000257
0.000240
0.000252
0.000249
0.000268
0.000256
0.000256
0.000266
0.000286
0.000285
0.000253
0.001866
0.000266
0.001799
0.000270
0.000256
0.000241
0.000265
0.000261
0.000263
0.000259
0.000190
0.000056
0.001438
0.000232
0.000243
0.000222
0.000212
0.000231
0.000276
0.000355
0.000261
0.000250
0.000257
0.000260
0.000261
0.000487
0.000335
0.000256
0.000254
0.000266
0.000220
0.000240
0.000258
0.000331
0.000250
0.000247
0.000275
0.000287
0.000245
0.000470
0.000584
0.000357
0.000172
0.000057
0.000214
0.000287
0.000265
0.000314
0.000351
0.000279
0.001670
0.000283
0.000281
0.000247
0.000278
0.000300
0.000263
0.000261
0.000301
0.000309
0.000383
0.000517
0.000355
0.000267
0.000327
0.000277
0.000259
0.000264
0.000332
0.000258
0.000265
0.000239
0.000243
0.000282
0.000418
0.000056
0.000290
0.000369
0.000272
0.000267
0.000252
0.000236
0.000212
0.000250
0.000262
0.000258
0.001498
0.000233
0.000221
0.000259
0.000245
0.000280
0.000269
0.000254
0.000256
0.000266
0.000263
0.000365
0.000520
0.000404
0.000233
0.000278
0.000271
0.000237
0.000245
0.000232
0.000258
0.000055
0.000196
0.000204
0.000273
0.000487
0.000364
0.000274
0.000211
0.000249
0.000246
0.000265
0.000227
0.000262
0.000257
0.000247
0.000241
0.000245
0.000355
0.001317
0.000209
0.000253
0.000246
0.000250
0.000362
0.000476
0.000223
0.000213
0.000636
0.000394
0.000393
0.000210
0.000174
0.000055
0.000210
0.000225
0.000264
0.000261
0.000311
0.000201
0.000330
0.000496
0.000399
0.000304
0.000363
0.000401
0.000392
0.000355
0.000239
0.000221
0.000218
0.000242
0.000433
0.000540
0.001153
0.000242
0.000259
0.000270
0.000239
0.000233
0.000287
0.000322
0.000380
0.000552
0.000200
0.000055
0.000176
0.000224
0.000250
0.000236
0.000249
0.000251
0.000237
0.000257
0.000251
0.000344
0.000538
0.000447
0.000184
0.000210
0.000224
0.000263
0.000242
0.000264
0.000266
0.000235
0.000506
0.000210
0.000434
0.000423
0.000290
0.000213
0.000255
0.000272
0.000251
0.000286
0.000243
0.000056
0.000290
0.000296
0.000323
0.000416
0.000477
0.000270
0.000260
0.000267
0.000218
0.000260
0.000258
0.000270
0.000234
0.000253
0.000250
0.000224
0.000263
0.000368
0.000549
0.000352
0.000208
0.000265
0.000220
0.000232
0.000263
0.000297
0.000255
0.000270
0.000270
0.000270
0.000281
0.000057
0.000348
0.000278
0.000225
0.000229
0.000255
0.000238
0.000267
0.000232
0.000259
0.000267
0.000253
0.000240
0.000267
0.000563
0.000437
0.000316
0.000203
0.000210
0.000240
0.000273
0.000275
0.000249
0.000248
0.000276
0.000292
0.000258
0.000552
0.000478
0.000508
0.000206
0.000153
0.000055
0.000377
0.000194
0.000196
0.000242
0.000243
0.000256
0.000247
0.000235
0.000261
0.000252
0.000231
0.000237
0.000275
0.000231
0.000234
0.000262
0.000257
0.000262
0.000271
0.000267
0.000256
0.000258
0.000273
0.000253
0.000278
0.000263
0.000228
0.000285
0.000262
0.000273
0.000216
0.000055
0.000184
0.000219
0.000244
0.000253
0.000225
0.000253
0.000259
0.000245
0.000257
0.000277
0.000231
0.000231
0.000257
0.000405
0.000241
0.000289
0.000253
0.000267
0.000257
0.000281
0.000269
0.000235
0.000258
0.000245
0.000264
0.000279
0.000273
0.000236
0.000268
0.000259
0.000225
0.000055
0.000224
0.000379
0.000350
0.000285
0.000299
0.000238
0.000214
0.000253
0.000252
0.000224
0.000237
0.000266
0.000256
0.000229
0.000264
0.000255
0.000267
0.000273
0.000241
0.000266
0.000273
0.000263
0.000281
0.000253
0.000283
0.000265
0.000247
0.000281
0.000242
0.000266
0.000213
0.000055
0.000190
0.000230
0.000242
0.000265
0.000266
0.000425
0.000219
0.000245
0.000301
0.000360
0.000594
0.000297
0.000230
0.000201
0.000265
0.000268
0.000237
0.000288
0.000244
0.000260
0.000266
0.000271
0.000254
0.000296
0.000600
0.000428
0.000286
0.000263
0.000269
0.000260
0.000205
0.000056
0.000203
0.000198
0.000247
0.000256
0.000327
0.000727
0.000223
0.000376
0.000234
0.000227
0.000258
0.000251
0.000271
0.000227
0.000262
0.000271
0.000256
0.000242
0.000646
0.000398
0.000306
0.000225
0.000248
0.000281
0.000283
0.000278
0.000246
0.000263
0.000247
0.000336
0.000348
0.000056
0.000253
0.000230
0.000221
0.000237
0.000259
0.000251
0.000249
0.000242
0.000229
0.000250
0.000252
0.000274
0.000223
0.000481
0.000518
0.000387
0.000233
0.000226
0.000274
0.000250
0.000253
0.000273
0.000474
0.000248
0.000258
0.000722
0.000328
0.000435
0.000270
0.000258
0.000190
0.000056
0.000189
0.000229
0.000223
0.000238
0.000256
0.000279
0.000246
0.000570
0.000565
0.000353
0.000212
0.000259
0.000277
0.000272
0.000268
0.000239
0.000250
0.000241
0.000263
0.000407
0.000371
0.000537
0.000427
0.000267
0.000434
0.000346
0.000504
0.000201
0.000237
0.000362
0.000441
0.000055
0.000258
0.000217
0.000489
0.000193
0.000226
0.000235
0.000262
0.000243
0.000240
0.000240
0.000293
0.000390
0.000389
0.000352
0.000215
0.000211
0.000268
0.000240
0.000265
0.000278
0.000269
0.000259
0.000250
0.000272
0.000318
0.000503
0.000453
0.000257
0.000264
0.000252
0.000222
0.000056
0.000211
0.000232
0.000249
0.000228
0.000248
0.000257
0.000410
0.000394
0.000419
0.000281
0.000343
0.000257
0.000216
0.000271
0.000261
0.000232
0.000268
0.000245
0.000297
0.000433
0.000514
0.000264
0.000454
0.000341
0.000395
0.000393
0.000382
0.000259
0.000218
0.000263
0.000438
0.000056
0.000238
0.000254
0.000241
0.000227
0.000254
0.000263
0.000244
0.000253
0.000253
0.000271
0.000231
0.000422
0.000369
0.000381
0.000372
0.000250
0.000246
0.000260
0.000264
0.000242
0.000253
0.000250
0.000259
0.000293
0.000266
0.000311
0.000530
0.000449
0.000242
0.000300
0.000190
0.000056
0.000201
0.000225
0.000260
0.000249
0.000242
0.000316
0.000521
0.000504
0.000354
0.000673
0.000318
0.000200
0.000206
0.000267
0.000239
0.000263
0.000297
0.000250
0.000490
0.000523
0.001539
0.000239
0.000263
0.000252
0.000307
0.000229
0.000367
0.000448
0.000310
0.000347
0.000162
0.000056
0.000199
0.000212
0.000245
0.000249
0.000236
0.000255
0.000269
0.000275
0.000231
0.000358
0.000384
0.000331
0.000275
0.000385
0.000386
0.000330
0.000238
0.000207
0.000252
0.000268
0.000244
0.000247
0.000271
0.000267
0.000340
0.000541
0.000353
0.000267
0.000218
0.000273
0.000202
0.000056
0.000216
0.000228
0.000247
0.000257
0.000256
0.000230
0.000461
0.000228
0.000225
0.000251
0.000250
0.000256
0.000252
0.000248
0.000262
0.000261
0.000271
0.000258
0.000282
0.000247
0.000265
0.000279
0.000319
0.000229
0.000257
0.000270
0.000277
0.000269
0.000262
0.000268
0.000204
0.000056
0.000232
0.000213
0.000282
0.000508
0.000371
0.000220
0.000198
0.000248
0.000258
0.000249
0.000242
0.000253
0.000274
0.000257
0.000247
0.000240
0.000249
0.000259
0.000315
0.000322
0.000401
0.000435
0.000229
0.000256
0.000261
0.000254
0.000262
0.000259
0.000274
0.000290
0.000199
0.000055
0.000396
0.000417
0.000344
0.000225
0.000246
0.000251
0.000481
0.000195
0.000200
0.000238
0.000285
0.000337
0.000384
0.000428
0.001758
0.000269
0.000255
0.000241
0.000275
0.000265
0.000340
0.000569
0.000454
0.000330
0.000216
0.000258
0.000278
0.000416
0.000282
0.000281
0.000184
0.000070
0.000218
0.000402
0.000273
0.000314
0.000511
0.000202
0.000240
0.000247
0.000253
0.000232
0.000264
0.000247
0.000277
0.000344
0.000457
0.000413
0.000234
0.000209
0.000263
0.000265
0.000254
0.000316
0.000258
0.000255
0.000281
0.000445
0.000518
0.000421
0.000460
0.000230
0.000198
0.000055
0.000188
0.000209
0.000247
0.000236
0.000247
0.000253
0.000267
0.000274
0.000372
0.000393
0.000387
0.000378
0.000204
0.000230
0.000263
0.000275
0.000323
0.000240
0.000268
0.000267
0.000250
0.000337
0.000434
0.000371
0.000262
0.000308
0.000237
0.000540
0.000382
0.000270
0.000170
0.000057
0.000190
0.000217
0.000350
0.000582
0.000228
0.000203
0.000225
0.000254
0.000262
0.000256
0.000261
0.000263
0.000222
0.000246
0.000268
0.000273
0.000411
0.000373
0.000289
0.000372
0.000459
0.000229
0.000278
0.000271
0.000313
0.000279
0.000264
0.000248
0.000467
0.000529
0.000215
0.000056
0.000197
0.000209
0.000242
0.000250
0.000251
0.000484
0.000215
0.000238
0.000265
0.000311
0.000592
0.000524
0.000204
0.000244
0.000240
0.000248
0.000248
0.000257
0.000248
0.000259
0.000251
0.000275
0.000419
0.000413
0.000377
0.000332
0.000335
0.000345
0.000307
0.000213
0.000174
0.000055
0.000186
0.000219
0.000245
0.000486
0.000327
0.000377
0.000250
0.000203
0.000219
0.000231
0.000255
0.000253
0.000248
0.000255
0.000304
0.000226
0.000251
0.000243
0.000244
0.000457
0.000658
0.000215
0.000213
0.000230
0.000282
0.000281
0.000262
0.000257
0.000259
0.000279
0.000203
0.000055
0.000275
0.000423
0.000464
0.000218
0.000203
0.000207
0.000321
0.000505
0.000281
0.000198
0.000218
0.000268
0.000345
0.000379
0.000444
0.000311
0.000223
0.000225
0.000276
0.000212
0.000275
0.000264
0.000267
0.000258
0.000268
0.000316
0.000476
0.000408
0.000291
0.000220
0.000162
0.000056
0.000179
0.000224
0.000244
0.000251
0.000256
0.000262
0.000228
0.000255
0.000263
0.000240
0.000267
0.000245
0.000248
0.001459
0.000265
0.000223
0.000255
0.000252
0.000273
0.000278
0.000263
0.000246
0.000288
0.000237
0.000268
0.000261
0.000285
0.000264
0.000260
0.000262
0.000217
0.000056
0.000207
0.000216
0.000235
0.000253
0.000237
0.000239
0.000276
0.000245
0.000226
0.000257
0.000246
0.000266
0.000251
0.000248
0.000260
0.000261
0.000244
0.000266
0.000270
0.000254
0.000256
0.000253
0.000259
0.000244
0.001364
0.000276
0.000541
0.000385
0.000426
0.000205
0.000166
0.000057
0.000176
0.000222
0.000236
0.000245
0.000508
0.000222
0.000185
0.000222
0.000252
0.000364
0.000531
0.000364
0.000177
0.000218
0.000228
0.000265
0.000258
0.000260
0.000252
0.000250
0.000263
0.000251
0.000272
0.000520
0.000404
0.000441
0.000256
0.000243
0.001366
0.000285
0.000174
0.000056
0.000360
0.000428
0.000351
0.000243
0.000199
0.000209
0.000225
0.000243
0.000259
0.000252
0.000258
0.000251
0.000262
0.000278
0.000551
0.000450
0.000287
0.000246
0.000233
0.000234
0.000275
0.000270
0.000281
0.000249
0.000267
0.000258
0.000344
0.000522
0.000431
0.000372
0.000144
0.000056
0.000207
0.000213
0.001341
0.000338
0.000278
0.000492
0.000355
0.000320
0.000428
0.000403
0.000225
0.000190
0.000251
0.000260
0.000250
0.000256
0.000362
0.000643
0.000273
0.000323
0.000276
0.000234
0.000260
0.000515
0.000238
0.000251
0.000256
0.000277
0.000298
0.000548
0.000322
0.000055
0.000335
0.000398
0.000214
0.000202
0.001513
0.000548
0.000302
0.000228
0.000204
0.000250
0.000222
0.000246
0.000245
0.000257
0.000252
0.000267
0.000232
0.000355
0.000421
0.000376
0.000442
0.000211
0.000221
0.000251
0.000251
0.000292
0.000257
0.000237
0.000263
0.000277
0.000227
0.000057
0.000362
0.000303
0.000250
0.000203
0.000251
0.000242
0.000251
0.000256
0.000236
0.000240
0.001481
0.000443
0.000272
0.000203
0.000208
0.000262
0.000273
0.000261
0.000262
0.000245
0.000269
0.000262
0.000256
0.000572
0.000237
0.000504
0.000209
0.000267
0.000279
0.000279
0.000188
0.000056
0.000203
0.000468
0.000193
0.000209
0.000370
0.000385
0.000386
0.000326
0.000461
0.000203
0.000230
0.000246
0.000261
0.000262
0.000267
0.001395
0.000375
0.000278
0.000248
0.000273
0.000278
0.000248
0.000256
0.000277
0.000234
0.000275
0.000451
0.000441
0.000306
0.000271
0.000168
0.000055
0.000172
0.000224
0.000242
0.000238
0.000223
0.000267
0.000240
0.000248
0.000306
0.000416
0.000434
0.000293
0.000208
0.000209
0.000258
0.000265
0.000277
0.000262
0.000269
0.000230
0.000249
0.000345
0.001305
0.000239
0.000248
0.000209
0.000249
0.000267
0.000260
0.000264
0.000211
0.000071
0.000276
0.000302
0.000475
0.000253
0.000233
0.000203
0.000243
0.000262
0.000254
0.000251
0.000256
0.000266
0.000246
0.000255
0.000265
0.000252
0.000263
0.000279
0.000265
0.000253
0.000239
0.000270
0.000286
0.000265
0.000286
0.000270
0.000287
0.000235
0.000269
0.000510
0.001320
0.000055
0.000205
0.000217
0.000234
0.000235
0.000256
0.000265
0.000249
0.000226
0.000243
0.000252
0.000261
0.000268
0.000251
0.000240
0.000250
0.001710
0.000352
0.000227
0.000204
0.000235
0.000252
0.000261
0.000275
0.000259
0.000261
0.000273
0.000259
0.000271
0.000278
0.000247
0.000243
0.000056
0.000322
0.000398
0.001240
0.000202
0.000205
0.000220
0.000254
0.000250
0.000264
0.000251
0.000235
0.000348
0.000397
0.000546
0.000221
0.000207
0.000217
0.000266
0.000251
0.000260
0.000257
0.000259
0.000260
0.000297
0.000267
0.000405
0.000539
0.000248
0.000239
0.000255
0.000198
0.000055
0.000197
0.000220
0.000246
0.000252
0.000247
0.000236
0.000258
0.000216
0.000507
0.000396
0.001129
0.000233
0.000232
0.000269
0.000257
0.000261
0.000268
0.000245
0.000302
0.000456
0.000390
0.000252
0.000228
0.000237
0.000272
0.000275
0.000269
0.000298
0.000270
0.000276
0.000214
0.000056
0.000274
0.000429
0.000375
0.000233
0.000202
0.000209
0.000234
0.000274
0.000268
0.000261
0.000221
0.000256
0.000529
0.000469
0.000546
0.001400
0.000221
0.000242
0.000345
0.000356
0.000432
0.000469
0.000419
0.000395
0.000248
0.000261
0.000263
0.000276
0.000268
0.000274
0.000202
0.000057
0.000216
0.000229
0.000520
0.000498
0.000285
0.000209
0.000254
0.000233
0.000247
0.000258
0.000248
0.000257
0.000276
0.000234
0.000274
0.000391
0.000354
0.000397
0.000330
0.001314
0.000265
0.000259
0.000240
0.000264
0.000605
0.000340
0.000408
0.000216
0.000246
0.000264
0.000209
0.000056
0.000182
0.000220
0.000245
0.000249
0.000244
0.000284
0.000437
0.000379
0.000375
0.000245
0.000230
0.000257
0.000272
0.000257
0.000263
0.000264
0.000268
0.000251
0.000268
0.000297
0.000535
0.000405
0.000335
0.001332
0.000357
0.000248
0.000271
0.000471
0.000387
0.000356
0.000332
0.000056
0.000185
0.000214
0.000257
0.000241
0.000245
0.000258
0.001684
0.000273
0.000214
0.000215
0.000247
0.000252
0.000323
0.000325
0.000328
0.000285
0.000263
0.000401
0.000392
0.000426
0.000286
0.000287
0.000216
0.000217
0.001433
0.000422
0.000448
0.000469
0.000301
0.000305
0.000153
0.000056
0.000175
0.000231
0.000257
0.000260
0.000241
0.000261
0.001773
0.000223
0.000233
0.000244
0.000389
0.000408
0.001427
0.000389
0.000375
0.000209
0.000219
0.000232
0.000262
0.000272
0.001696
0.000475
0.000407
0.000282
0.000215
0.000222
0.000250
0.000277
0.000262
0.000243
0.000209
0.000055
0.000181
0.000228
0.000261
0.000252
0.000261
0.000267
0.000285
0.000254
0.000251
0.000251
0.000273
0.000232
0.000254
0.000274
0.000258
0.001498
0.000263
0.000240
0.000269
0.000281
0.000263
0.000265
0.000415
0.001277
0.000298
0.000231
0.000259
0.000260
0.000466
0.000211
0.000188
0.000056
0.000185
0.000216
0.000238
0.000242
0.000237
0.000226
0.000238
0.001760
0.000211
0.000207
0.000258
0.000351
0.000238
0.000217
0.001450
0.000256
0.000219
0.000211
0.000277
0.000239
0.000263
0.000303
0.000324
0.001378
0.000273
0.000227
0.000235
0.000240
0.001393
0.000261
0.000273
0.000056
0.000285
0.000313
0.000198
0.000217
0.000253
0.000238
0.000258
0.000268
0.000269
0.000245
0.000287
0.000243
0.000251
0.000250
0.000359
0.001437
0.000262
0.000266
0.000263
0.000240
0.000275
0.000271
0.000256
0.001540
0.000296
0.000262
0.000251
0.001357
0.000220
0.000232
0.000196
0.000056
0.000236
0.000334
0.000363
0.000222
0.000214
0.000239
0.000258
0.000260
0.000268
0.000267
0.000255
0.000235
0.000258
0.000289
0.000491
0.001196
0.000208
0.000223
0.000255
0.000270
0.000241
0.000256
0.000228
0.001302
0.000387
0.000211
0.000245
0.000226
0.000256
0.001342
0.000315
0.000056
0.000300
0.000248
0.000219
0.000202
0.000246
0.000243
0.000252
0.000242
0.000278
0.000254
0.000242
0.000270
0.000228
0.000313
0.000437
0.001466
0.000248
0.000218
0.000294
0.000515
0.000305
0.000361
0.001363
0.000298
0.000253
0.000275
0.001268
0.000350
0.000283
0.000474
0.000309
0.000055
0.000200
0.000239
0.000253
0.000258
0.000250
0.000248
0.000281
0.000250
0.000281
0.000241
0.000289
0.000600
0.001292
0.000221
0.000228
0.000257
0.000289
0.000263
0.000207
0.000232
0.000341
0.001299
0.000254
0.000217
0.000243
0.000233
0.001491
0.000449
0.000477
0.000240
0.000190
0.000056
0.000190
0.000214
0.000235
0.000245
0.000247
0.000271
0.000247
0.000262
0.000408
0.000490
0.000324
0.001440
0.000230
0.000230
0.000256
0.000266
0.000255
0.000291
0.001650
0.000316
0.000350
0.000360
0.001353
0.000363
0.000309
0.000334
0.000235
0.000217
0.000238
0.000272
0.000206
0.000055
0.000172
0.000229
0.000307
0.000224
0.000316
0.000594
0.000262
0.000380
0.001455
0.000279
0.000341
0.000255
0.000208
0.000291
0.000356
0.001400
0.000262
0.000214
0.000208
0.000244
0.000311
0.001672
0.000283
0.000278
0.000237
0.000220
0.000508
0.000312
0.000237
0.000218
0.000257
0.000055
0.000265
0.000380
0.000306
0.000306
0.000201
0.001454
0.000253
0.000230
0.000262
0.000268
0.000266
0.000253
0.000333
0.001445
0.000262
0.000234
0.000424
0.001291
0.000322
0.000404
0.000355
0.000243
0.000242
0.000255
0.000279
0.000242
0.000463
0.000228
0.000254
0.000270
0.000215
0.000057
0.000182
0.000245
0.000355
0.001429
0.000285
0.000198
0.000306
0.000249
0.000239
0.000252
0.000239
0.000330
0.001585
0.000223
0.000198
0.000219
0.001379
0.000336
0.000438
0.000408
0.000393
0.000227
0.000227
0.000244
0.000350
0.000250
0.000213
0.000261
0.000250
0.000253
0.000223
0.000055
0.000211
0.000430
0.001400
0.000225
0.000250
0.000270
0.000256
0.000245
0.000319
0.000463
0.001258
0.000242
0.000302
0.000247
0.000212
0.001345
0.000658
0.000292
0.000298
0.000409
0.000341
0.000236
0.000233
0.000234
0.000266
0.000294
0.000269
0.000375
0.000402
0.000450
0.001363
0.000055
0.000211
0.000253
0.000217
0.000215
0.000245
0.000482
0.001483
0.000295
0.000217
0.000207
0.000244
0.001410
0.000510
0.000278
0.000464
0.000246
0.000214
0.000200
0.000253
0.000279
0.000249
0.000269
0.000284
0.000256
0.000252
0.000307
0.000397
0.000541
0.001448
0.000269
0.000186
0.000056
0.000188
0.000240
0.000341
0.000553
0.001229
0.000283
0.000252
0.000250
0.000253
0.000252
0.000247
0.000265
0.000342
0.000571
0.000311
0.000218
0.000241
0.000279
0.000239
0.000271
0.000264
0.000267
0.000261
0.000258
0.000264
0.000525
0.000374
0.000335
0.000319
0.001458
0.000152
0.000056
0.000229
0.000207
0.000309
0.000432
0.000318
0.000337
0.000286
0.000329
0.000271
0.000277
0.000257
0.000257
0.000244
0.000307
0.000252
0.000300
0.000543
0.000323
0.000280
0.000377
0.000291
0.000472
0.000209
0.000250
0.000207
0.000277
0.000239
0.000286
0.000342
0.000516
0.000322
0.000056
0.000218
0.001362
0.000272
0.000333
0.000391
0.000428
0.000345
0.000346
0.000225
0.000203
0.000265
0.000254
0.000256
0.000267
0.000270
0.000251
0.000264
0.001457
0.000218
0.000235
0.000210
0.000280
0.000274
0.000277
0.000268
0.000256
0.000268
0.000260
0.000308
0.000439
0.000302
0.000057
0.000212
0.000241
0.000228
0.001531
0.000334
0.000217
0.000213
0.000207
0.000235
0.000240
0.000253
0.000278
0.000240
0.000256
0.000265
0.000261
0.000239
0.000274
0.000257
0.000258
0.001424
0.000275
0.000241
0.000322
0.000216
0.000230
0.000250
0.000264
0.000277
0.000499
0.000380
0.000056
0.000188
0.000215
0.000391
0.000287
0.000251
0.000245
0.001554
0.000385
0.000281
0.000201
0.000231
0.000371
0.000306
0.000212
0.000231
0.000239
0.000253
0.000261
0.000257
0.000253
0.000496
0.000637
0.001054
0.000253
0.000223
0.000219
0.000272
0.000257
0.000263
0.000266
0.000359
0.000055
0.000277
0.000357
0.000199
0.000207
0.000251
0.000246
0.000232
0.000227
0.001495
0.000490
0.000415
0.000216
0.000234
0.000209
0.000243
0.000247
0.000252
0.000278
0.000256
0.000319
0.000299
0.000535
0.000400
0.001370
0.000248
0.000245
0.000276
0.000270
0.000264
0.000270
0.000577
0.000056
0.000225
0.000206
0.000253
0.000237
0.000219
0.000250
0.000255
0.000243
0.000267
0.001642
0.000283
0.000255
0.000267
0.000261
0.000470
0.000282
0.000397
0.000476
0.000332
0.000318
0.000524
0.000365
0.001333
0.000228
0.000225
0.000240
0.001806
0.000390
0.000585
0.000328
0.000148
0.000057
0.000179
0.000207
0.000258
0.000218
0.000247
0.000243
0.000358
0.000565
0.000332
0.000458
0.000283
0.000226
0.000193
0.000260
0.000269
0.000267
0.000243
0.000260
0.000243
0.000276
0.000291
0.000393
0.001352
0.000251
0.000224
0.000264
0.001889
0.000412
0.000367
0.000357
0.000170
0.000057
0.000211
0.000216
0.000242
0.001585
0.000369
0.000246
0.000231
0.000271
0.000266
0.000309
0.000367
0.000378
0.000353
0.000306
0.000282
0.000574
0.000296
0.001267
0.000267
0.000204
0.000222
0.000264
0.000360
0.000461
0.000563
0.000442
0.000221
0.000225
0.000265
0.000298
0.000191
0.000057
0.000194
0.000196
0.001453
0.000419
0.000203
0.000210
0.000223
0.000248
0.000251
0.000254
0.000244
0.000278
0.000269
0.000263
0.000246
0.000394
0.000496
0.000283
0.001387
0.000282
0.000208
0.000267
0.000290
0.000228
0.000415
0.000446
0.000451
0.000294
0.000289
0.000246
0.000412
0.000057
0.000194
0.000210
0.000260
0.000258
0.001598
0.000207
0.000265
0.000241
0.000259
0.000254
0.000263
0.000257
0.000261
0.000242
0.000412
0.000488
0.001488
0.000731
0.000223
0.000345
0.000240
0.000216
0.000230
0.000283
0.001749
0.000728
0.000258
0.000234
0.000286
0.000287
0.000206
0.000055
0.000203
0.000207
0.000253
0.000246
0.000247
0.000243
0.000252
0.000254
0.000254
0.000230
0.000272
0.000283
0.000258
0.000252
0.000258
0.000256
0.000260
0.001598
0.000693
0.000398
0.000332
0.000222
0.000224
0.000284
0.000272
0.000262
0.000282
0.000253
0.001490
0.000343
0.000333
0.000056
0.000184
0.000215
0.000238
0.000254
0.000259
0.000226
0.000255
0.000257
0.000249
0.000268
0.000243
0.000454
0.000442
0.000347
0.000209
0.000229
0.000261
0.001461
0.000689
0.000382
0.000359
0.000300
0.000222
0.000235
0.000268
0.000254
0.000259
0.000263
0.001490
0.000452
0.000212
0.000056
0.000203
0.000200
0.000251
0.000239
0.000257
0.000239
0.000243
0.000248
0.000269
0.000262
0.000343
0.000452
0.000286
0.000223
0.000240
0.000238
0.000265
0.000258
0.001566
0.000613
0.000564
0.000264
0.000222
0.000241
0.000266
0.000256
0.000259
0.000285
0.000266
0.001432
0.000308
0.000056
0.000206
0.000208
0.000215
0.000249
0.000264
0.000241
0.000282
0.000352
0.000373
0.000416
0.000355
0.000396
0.000334
0.000212
0.000233
0.000240
0.000270
0.000265
0.001390
0.000885
0.000312
0.000207
0.000485
0.000205
0.000231
0.000232
0.000281
0.000261
0.000269
0.000269
0.000302
0.000056
0.000281
0.000232
0.000203
0.000239
0.000257
0.000255
0.000218
0.000242
0.000251
0.000269
0.000244
0.000238
0.000249
0.000496
0.000452
0.000426
0.000246
0.000253
0.000265
0.000245
0.000250
0.000369
0.001383
0.001062
0.000248
0.000224
0.000269
0.000263
0.000274
0.000253
0.000226
0.000056
0.000182
0.001389
0.000265
0.000204
0.000201
0.000251
0.000256
0.000251
0.000221
0.000250
0.000257
0.000268
0.000236
0.000479
0.000303
0.000469
0.000264
0.000224
0.000257
0.000321
0.000215
0.000245
0.000251
0.000264
0.001401
0.000671
0.000310
0.000395
0.000370
0.000398
0.000265
0.000057
0.000202
0.000197
0.000393
0.001295
0.000227
0.000273
0.000193
0.000256
0.000259
0.000248
0.000262
0.000238
0.000305
0.000307
0.000562
0.000367
0.000208
0.000314
0.000275
0.000222
0.000235
0.000272
0.000233
0.000274
0.000267
0.001521
0.000766
0.000290
0.000276
0.000272
0.000216
0.000055
0.000201
0.000226
0.000484
0.000374
0.001299
0.000248
0.000200
0.000202
0.000239
0.000246
0.000244
0.000255
0.000249
0.000230
0.000252
0.000253
0.000270
0.000237
0.000249
0.000264
0.000263
0.000272
0.000329
0.000304
0.000226
0.000258
0.000260
0.001537
0.000240
0.000214
0.000182
0.000057
0.000174
0.000210
0.000259
0.000328
0.000349
0.000334
0.000408
0.000252
0.001557
0.000275
0.000322
0.000434
0.000387
0.000200
0.000500
0.000221
0.000215
0.000233
0.000266
0.000268
0.000281
0.000285
0.000234
0.000274
0.000245
0.000441
0.000434
0.000362
0.001486
0.000259
0.000181
0.000056
0.000214
0.000221
0.000255
0.000238
0.000243
0.000245
0.000264
0.000346
0.000398
0.002079
0.000205
0.000200
0.000252
0.000263
0.000259
0.000345
0.000237
0.000211
0.000245
0.000441
0.000342
0.000462
0.001532
0.000227
0.000221
0.000497
0.001768
0.000285
0.000259
0.001488
0.000194
0.000057
0.000320
0.000378
0.000479
0.000241
0.000264
0.000230
0.000256
0.000259
0.000264
0.000239
0.000270
0.000293
0.000430
0.000344
0.000466
0.000242
0.000216
0.001553
0.000521
0.001974
0.000285
0.000265
0.000217
0.001599
0.001988
0.000739
0.000280
0.000210
0.000285
0.000511
0.000310
0.000057
0.000199
0.000216
0.000248
0.000255
0.001480
0.001668
0.001084
0.000223
0.000211
0.001586
0.001976
0.000238
0.000301
0.000409
0.000304
0.000426
0.000381
0.000341
0.000247
0.000233
0.000252
0.000251
0.000271
0.001578
0.001301
0.001422
0.000266
0.000230
0.000271
0.000289
0.000363
0.000057
0.000187
0.000233
0.000211
0.000226
0.000241
0.000229
0.000255
0.000250
0.000250
0.000257
0.000242
0.000286
0.000514
0.000487
0.000273
0.000220
0.000222
0.000268
0.000268
0.000267
0.000247
0.001388
0.000574
0.000331
0.002074
0.000257
0.000243
0.000331
0.000486
0.000428
0.000151
0.000056
0.000200
0.000305
0.000497
0.000314
0.000230
0.000207
0.000229
0.000269
0.000240
0.000232
0.000248
0.000273
0.000256
0.001613
0.001420
0.001229
0.000268
0.000233
0.000207
0.000244
0.000288
0.000279
0.000257
0.000246
0.002273
0.000222
0.000205
0.000292
0.000323
0.000298
0.000250
0.000055
0.000202
0.000385
0.000568
0.000348
0.000198
0.000211
0.000223
0.000264
0.001895
0.001419
0.000260
0.000383
0.000390
0.000358
0.000265
0.000229
0.000202
0.000278
0.000264
0.000261
0.000271
0.000251
0.000488
0.000224
0.000267
0.000280
0.000244
0.000280
0.000272
0.000246
0.000232
0.000057
0.000174
0.000232
0.000254
0.000236
0.000249
0.000267
0.001532
0.001513
0.001322
0.000216
0.000209
0.000209
0.000261
0.000268
0.000255
0.000237
0.000264
0.002167
0.000223
0.000206
0.000252
0.000267
0.000253
0.000261
0.000287
0.000235
0.000268
0.000261
0.000273
0.000264
0.000188
0.000055
0.001519
0.000301
0.002387
0.000256
0.000301
0.000300
0.000237
0.000256
0.000269
0.000241
0.000253
0.000252
0.000228
0.000245
0.000266
0.000262
0.000261
0.000269
0.000262
0.000268
0.000261
0.000279
0.000278
0.000273
0.000238
0.000255
0.000260
0.000271
0.000253
0.000275
0.000403
0.000055
0.000177
0.002577
0.000324
0.000200
0.000200
0.000214
0.000251
0.000249
0.000257
0.000295
0.000314
0.000485
0.000275
0.000251
0.000203
0.002214
0.000227
0.000220
0.000283
0.000457
0.000435
0.000281
0.000203
0.000247
0.000270
0.000245
0.000257
0.000283
0.000267
0.001684
0.001225
0.000056
0.000196
0.000202
0.000255
0.000407
0.000347
0.000315
0.000219
0.000223
0.000246
0.000263
0.000259
0.000252
0.000225
0.000262
0.000255
0.000242
0.000299
0.000626
0.000409
0.000259
0.000205
0.000252
0.000278
0.000254
0.000257
0.000252
0.000249
0.000275
0.000246
0.000347
0.000352
0.000056
0.001103
0.000239
0.000347
0.000479
0.000303
0.000189
0.000201
0.000250
0.002308
0.000332
0.000340
0.000349
0.000207
0.000280
0.000342
0.000269
0.000265
0.000263
0.000258
0.000236
0.000243
0.000286
0.000580
0.000543
0.001792
0.001359
0.000484
0.000555
0.000220
0.000261
0.000217
0.000055
0.000308
0.000278
0.000233
0.000238
0.000233
0.000269
0.000217
0.000243
0.000264
0.000247
0.000255
0.000231
0.000253
0.000245
0.000395
0.000536
0.001877
0.001306
0.000454
0.000374
0.000447
0.000251
0.000268
0.000232
0.002246
0.000444
0.000371
0.000245
0.000276
0.000295
0.000200
0.000055
0.000169
0.000221
0.000248
0.000245
0.000246
0.000328
0.000444
0.000318
0.000309
0.000248
0.000223
0.000277
0.000238
0.002085
0.000381
0.000389
0.000217
0.000239
0.000271
0.000255
0.000250
0.002439
0.000384
0.000208
0.000251
0.000265
0.000259
0.000256
0.000271
0.000287
0.000217
0.000055
0.000184
0.000503
0.000457
0.000349
0.000220
0.000212
0.000206
0.000248
0.000277
0.001923
0.000368
0.000376
0.000249
0.000256
0.000211
0.000246
0.000276
0.000248
0.002266
0.000385
0.000232
0.000258
0.000264
0.000264
0.000254
0.000248
0.000289
0.000249
0.000271
0.000261
0.000193
0.000056
0.000207
0.000205
0.000256
0.000209
0.000251
0.000254
0.000239
0.000248
0.000242
0.002162
0.000240
0.000291
0.000206
0.000489
0.000211
0.000220
0.000252
0.000286
0.000261
0.000264
0.002025
0.000247
0.000367
0.000386
0.000484
0.000337
0.000277
0.000252
0.000225
0.000263
0.000212
0.000055
0.000189
0.000218
0.000246
0.000243
0.000243
0.000392
0.000203
0.002331
0.000218
0.000224
0.000223
0.000256
0.000243
0.000246
0.000301
0.002195
0.000528
0.000225
0.000251
0.000238
0.000261
0.000268
0.000277
0.000278
0.000263
0.000247
0.000290
0.000256
0.000260
0.000314
0.000162
0.000056
0.000189
0.003011
0.000257
0.000211
0.000237
0.000252
0.000252
0.000297
0.000364
0.000409
0.002121
0.000263
0.000234
0.000266
0.000263
0.000621
0.000354
0.000292
0.000223
0.000210
0.000247
0.000266
0.000259
0.000241
0.000262
0.000256
0.000259
0.000272
0.000306
0.000775
0.000243
0.000056
0.000175
0.000271
0.000265
0.000223
0.000237
0.000248
0.000249
0.000246
0.001551
0.002119
0.000515
0.000261
0.000391
0.000820
0.000326
0.000209
0.000205
0.000255
0.000261
0.000255
0.000266
0.000238
0.000243
0.000274
0.001835
0.001446
0.000289
0.000280
0.000297
0.000330
0.000433
0.000057
0.001912
0.000235
0.000233
0.000203
0.000285
0.000345
0.000523
0.000267
0.000309
0.000223
0.000224
0.000207
0.000264
0.000252
0.000266
0.000264
0.000253
0.000263
0.001910
0.000206
0.000217
0.000241
0.000263
0.000293
0.000266
0.000259
0.001535
0.000342
0.000216
0.000238
0.000162
0.000055
0.000206
0.000198
0.000256
0.000222
0.000261
0.000235
0.000296
0.000371
0.000371
0.000402
0.000202
0.000211
0.000330
0.000325
0.000378
0.000325
0.000226
0.000215
0.000261
0.000332
0.000630
0.000370
0.000232
0.000227
0.000253
0.000248
0.000253
0.000269
0.000282
0.000257
0.000225
0.000056
0.001433
0.000401
0.000225
0.002015
0.000282
0.000405
0.000358
0.000381
0.000202
0.000215
0.000262
0.000251
0.000243
0.000248
0.000270
0.000273
0.000439
0.000252
0.000509
0.000382
0.000299
0.000205
0.000250
0.000268
0.000328
0.000233
0.000240
0.000285
0.000300
0.000507
0.001429
0.000056
0.000180
0.000208
0.002074
0.000269
0.000329
0.000261
0.000266
0.000252
0.000264
0.000254
0.000220
0.000249
0.000255
0.000259
0.000263
0.000335
0.000722
0.001747
0.000253
0.000246
0.000262
0.000260
0.000434
0.000432
0.001528
0.000272
0.000360
0.002004
0.000224
0.000251
0.000194
0.000055
0.000206
0.000217
0.000222
0.000252
0.000220
0.000249
0.000249
0.000279
0.000344
0.000292
0.000381
0.000364
0.000339
0.000302
0.000223
0.000251
0.000260
0.000241
0.000268
0.000265
0.000274
0.000315
0.000254
0.000259
0.000269
0.001580
0.000281
0.000399
0.001990
0.000277
0.000158
0.000057
0.000207
0.000222
0.000241
0.000240
0.000466
0.000230
0.000246
0.000340
0.000370
0.000368
0.000232
0.000228
0.000247
0.000274
0.000273
0.000319
0.000513
0.000334
0.000272
0.000370
0.000716
0.000254
0.001607
0.000265
0.000236
0.002043
0.000333
0.000215
0.000219
0.000268
0.000199
0.000056
0.000199
0.000219
0.000214
0.000245
0.000246
0.000265
0.000259
0.000266
0.000256
0.000299
0.001847
0.000274
0.000388
0.000327
0.000460
0.000376
0.001500
0.000345
0.000231
0.000289
0.002070
0.000573
0.000267
0.000213
0.000238
0.000266
0.000505
0.000227
0.000250
0.000281
0.000223
0.000056
0.000297
0.000330
0.000413
0.000248
0.000216
0.000222
0.000259
0.000251
0.000274
0.000294
0.000231
0.000235
0.000263
0.000259
0.000304
0.000482
0.001351
0.000263
0.000314
0.002017
0.000301
0.000252
0.000207
0.000274
0.000221
0.000283
0.000266
0.000275
0.000235
0.000268
0.000222
0.000056
0.000237
0.000507
0.002002
0.000212
0.000241
0.000230
0.000213
0.000334
0.000420
0.001558
0.000267
0.000364
0.000338
0.001992
0.000236
0.000238
0.000269
0.000273
0.000265
0.000230
0.000286
0.000289
0.000261
0.000313
0.000541
0.000327
0.000452
0.002108
0.000557
0.000458
0.000412
0.000056
0.000203
0.000213
0.000220
0.002029
0.000198
0.000218
0.000234
0.000278
0.000198
0.000255
0.000241
0.000268
0.000245
0.000457
0.000347
0.000337
0.001300
0.000242
0.000295
0.000241
0.000233
0.000251
0.000264
0.000264
0.000328
0.000452
0.000479
0.000228
0.001695
0.000226
0.000156
0.000054
0.000197
0.000210
0.000226
0.000235
0.000251
0.000251
0.000249
0.000251
0.000249
0.000351
0.000375
0.001500
0.000210
0.000203
0.000228
0.000255
0.000272
0.000251
0.000259
0.000526
0.000424
0.000438
0.000217
0.001571
0.000257
0.000238
0.000279
0.000278
0.000265
0.000259
0.000217
0.000056
0.000195
0.000215
0.000258
0.000269
0.000252
0.000260
0.000224
0.000233
0.000258
0.000243
0.000257
0.000246
0.000263
0.000249
0.001586
0.000233
0.000237
0.000270
0.000333
0.000320
0.000365
0.000266
0.000212
0.000260
0.000238
0.000263
0.001479
0.000291
0.000208
0.000231
0.000177
0.000056
0.000186
0.000230
0.000240
0.000267
0.000268
0.000220
0.000242
0.000266
0.000217
0.000271
0.000254
0.000240
0.000241
0.000291
0.000381
0.000360
0.000296
0.001581
0.000334
0.000228
0.000196
0.000234
0.000258
0.000325
0.000419
0.000425
0.000410
0.000249
0.000209
0.001603
0.000180
0.000056
0.000278
0.000382
0.000341
0.000310
0.000197
0.000212
0.000242
0.000263
0.000259
0.000244
0.000250
0.000226
0.001465
0.000331
0.000298
0.000211
0.000229
0.000256
0.000274
0.000262
0.000248
0.000246
0.000260
0.000270
0.000256
0.000398
0.000432
0.000366
0.000322
0.000203
0.000197
0.000056
0.000203
0.000224
0.000486
0.000426
0.000333
0.000187
0.000226
0.000250
0.000258
0.000244
0.000253
0.000221
0.000254
0.000267
0.001318
0.000270
0.000221
0.000220
0.000258
0.000276
0.000237
0.000259
0.000253
0.000273
0.000249
0.000251
0.000293
0.000712
0.000454
0.000245
0.000189
0.000055
0.000195
0.001533
0.000285
0.000277
0.000502
0.000390
0.000198
0.000235
0.000266
0.000248
0.000245
0.000264
0.000271
0.000273
0.000279
0.001507
0.000252
0.000276
0.000269
0.000258
0.000254
0.000256
0.000268
0.000263
0.000260
0.000255
0.000558
0.000296
0.000352
0.000233
0.000165
0.000056
0.000202
0.000227
0.000233
0.001712
0.000399
0.000331
0.000208
0.000209
0.000239
0.000268
0.000278
0.000261
0.000248
0.000265
0.000233
0.000266
0.000440
0.001361
0.000211
0.000216
0.001535
0.000301
0.000590
0.000468
0.000225
0.000213
0.000271
0.000465
0.000239
0.000258
0.000205
0.000056
0.000237
0.000223
0.000222
0.000236
0.000248
0.000254
0.000242
0.000254
0.000260
0.000237
0.000252
0.000262
0.000315
0.000537
0.001626
0.001478
0.000387
0.000600
0.000242
0.000250
0.000233
0.000254
0.000251
0.000251
0.000254
0.000267
0.000264
0.000262
0.001597
0.000316
0.000135
0.000056
0.000248
0.000327
0.000359
0.000328
0.000252
0.000211
0.000223
0.000334
0.000503
0.001353
0.000347
0.001551
0.000350
0.000444
0.000485
0.000276
0.000328
0.000337
0.000341
0.000282
0.000235
0.000359
0.001560
0.000533
0.000245
0.000244
0.000259
0.000241
0.000263
0.000262
0.000223
0.000055
0.000212
0.000230
0.000259
0.000251
0.000255
0.001640
0.000961
0.000891
0.000251
0.000238
0.000244
0.000268
0.000248
0.000261
0.000255
0.000252
0.000257
0.000259
0.000269
0.000276
0.001508
0.000266
0.000254
0.000221
0.000212
0.000263
0.000266
0.000272
0.000269
0.000277
0.000230
0.000057
0.000189
0.000194
0.001551
0.000949
0.000382
0.000309
0.000218
0.000202
0.000261
0.000242
0.000251
0.000254
0.000244
0.002065
0.000458
0.000207
0.000204
0.000247
0.000260
0.000257
0.000204
