0.000186
0.018619
0.002560
0.000446
0.000227
0.000280
0.000306
0.000252
0.000329
0.000285
0.000250
0.000347
0.000483
0.000486
0.000351
0.000425
0.000254
0.000345
0.000354
0.000408
0.000317
0.001939
0.000693
0.000247
0.000253
0.000304
0.000307
0.000319
0.000436
0.000410
0.000459
0.000317
0.000057
0.000209
0.000269
0.000271
0.000266
0.000273
0.000249
0.000279
0.000284
0.000244
0.000360
0.000364
0.000428
0.000323
0.000277
0.000390
0.000302
0.000364
0.000253
0.000253
0.001696
0.000317
0.000260
0.000452
0.000256
0.000267
0.000279
0.000285
0.000295
0.000278
0.000330
0.000410
0.000057
0.000198
0.000247
0.000263
0.000260
0.000249
0.000250
0.000260
0.000257
0.000286
0.001664
0.000246
0.000222
0.000263
0.000277
0.000275
0.000251
0.000266
0.000256
0.000352
0.001819
0.000215
0.000286
0.000443
0.000458
0.000357
0.000248
0.000243
0.000486
0.000549
0.000702
0.000196
0.000055
0.000224
0.000255
0.000250
0.000238
0.000294
0.000259
0.000248
0.000616
0.000375
0.000260
0.000261
0.000243
0.000244
0.000248
0.000255
0.000262
0.000242
0.000274
0.000291
0.000322
0.001681
0.000271
0.000255
0.000415
0.000308
0.000687
0.000708
0.000493
0.000340
0.000237
0.000191
0.000056
0.000208
0.000247
0.000270
0.000240
0.000253
0.000262
0.000276
0.000454
0.001459
0.000222
0.000249
0.000247
0.000256
0.000256
0.000258
0.000290
0.000279
0.000837
0.001352
0.000275
0.000461
0.000258
0.000206
0.000240
0.000262
0.000255
0.000271
0.000265
0.000257
0.000270
0.000194
0.000056
0.000208
0.000252
0.000242
0.000267
0.000236
0.000251
0.000236
0.000254
0.000236
0.000256
0.001619
0.000278
0.000239
0.000230
0.000280
0.000226
0.000245
0.000249
0.000251
0.000260
0.000265
0.001664
0.000292
0.000257
0.000427
0.000262
0.000255
0.000257
0.000259
0.000276
0.000189
0.000056
0.000189
0.000228
0.000250
0.000248
0.000242
0.000250
0.000258
0.000237
0.000245
0.000240
0.000275
0.000256
0.000252
0.000277
0.001630
0.000278
0.000304
0.000204
0.000261
0.000269
0.000267
0.000242
0.000241
0.000267
0.001788
0.000374
0.000384
0.000324
0.000266
0.000276
0.000197
0.000055
0.000203
0.000240
0.000248
0.000268
0.000255
0.000240
0.000324
0.000382
0.000391
0.000432
0.000212
0.000246
0.000258
0.000248
0.001554
0.000527
0.000326
0.000414
0.000330
0.000215
0.000271
0.000286
0.000267
0.001754
0.000461
0.000495
0.000262
0.000232
0.000251
0.000264
0.000188
0.000055
0.000213
0.000232
0.000257
0.000256
0.000358
0.000412
0.000384
0.000284
0.000215
0.000252
0.000258
0.000239
0.000254
0.001771
0.000422
0.000293
0.000230
0.000247
0.000276
0.000287
0.000242
0.000259
0.000277
0.001947
0.000257
0.000378
0.000259
0.000239
0.000263
0.000409
0.000323
0.000056
0.000255
0.000346
0.000339
0.000297
0.000249
0.000275
0.000225
0.000258
0.000240
0.000236
0.000234
0.000251
0.001546
0.000355
0.000315
0.000235
0.000255
0.000248
0.000249
0.000277
0.000280
0.000328
0.000245
0.001802
0.000264
0.000497
0.000240
0.000262
0.000254
0.000267
0.000264
0.000057
0.000283
0.000601
0.000605
0.000218
0.000225
0.000278
0.000228
0.000228
0.000258
0.000249
0.000255
0.001698
0.000249
0.000439
0.000375
0.000215
0.000245
0.000228
0.000249
0.000255
0.000258
0.001865
0.000232
0.000260
0.002057
0.000523
0.000356
0.000251
0.000255
0.000267
0.000186
0.000057
0.000207
0.000243
0.000248
0.000234
0.000262
0.001616
0.000256
0.000233
0.000253
0.000268
0.000231
0.000263
0.000227
0.000261
0.000279
0.000400
0.000638
0.000244
0.000239
0.000271
0.000261
0.000256
0.000240
0.000429
0.000440
0.000291
0.000346
0.000544
0.000430
0.000264
0.000204
0.000056
0.000199
0.000233
0.000254
0.000251
0.000240
0.000234
0.000242
0.000433
0.000393
0.001745
0.000200
0.000239
0.000237
0.000248
0.000263
0.000355
0.000413
0.000414
0.000353
0.000239
0.000263
0.000292
0.000283
0.000260
0.000263
0.000440
0.000341
0.000541
0.000499
0.000476
0.000175
0.000056
0.000194
0.000266
0.000237
0.000218
0.000244
0.000241
0.000251
0.000247
0.000242
0.000285
0.000338
0.000536
0.001292
0.000257
0.000227
0.000244
0.000263
0.000247
0.000253
0.000248
0.000328
0.000398
0.000437
0.000248
0.000263
0.000260
0.000251
0.000278
0.000263
0.000262
0.000378
0.000056
0.000209
0.000235
0.000222
0.000270
0.000553
0.000434
0.000218
0.000262
0.000234
0.000258
0.000249
0.000237
0.000294
0.000251
0.000239
0.000482
0.000429
0.001636
0.000271
0.000232
0.000282
0.000247
0.000257
0.000240
0.000262
0.000540
0.000333
0.000560
0.000242
0.000247
0.000184
0.000055
0.000232
0.000432
0.000237
0.000216
0.000265
0.000242
0.000346
0.000514
0.000477
0.000172
0.000225
0.000269
0.000270
0.000241
0.000521
0.000343
0.000218
0.000265
0.000442
0.001579
0.000284
0.000229
0.000530
0.000239
0.000280
0.000283
0.000247
0.000338
0.000554
0.000458
0.000191
0.000056
0.000213
0.000238
0.000237
0.000245
0.000416
0.000304
0.000292
0.000227
0.000373
0.000450
0.000496
0.000194
0.000231
0.000238
0.000259
0.000264
0.000252
0.000260
0.000230
0.000348
0.000288
0.000379
0.001798
0.000248
0.000252
0.000277
0.000265
0.000349
0.000490
0.000619
0.000437
0.000055
0.000236
0.000332
0.000285
0.000423
0.000397
0.000204
0.000255
0.000313
0.000497
0.000409
0.000261
0.000243
0.000238
0.000267
0.000263
0.000236
0.000253
0.000297
0.000248
0.000258
0.000264
0.000350
0.000726
0.001329
0.000330
0.000455
0.000399
0.000251
0.000439
0.000429
0.000285
0.000056
0.000242
0.000382
0.000275
0.000212
0.000223
0.000243
0.000418
0.000234
0.000230
0.000402
0.000410
0.000452
0.000224
0.000258
0.000264
0.000245
0.000361
0.000393
0.000384
0.000207
0.000241
0.000601
0.000411
0.001684
0.000237
0.000457
0.000290
0.000227
0.000290
0.000415
0.000322
0.000054
0.000202
0.000218
0.000255
0.000240
0.000244
0.000251
0.000247
0.000320
0.000464
0.000256
0.000454
0.000383
0.000286
0.000575
0.000245
0.000248
0.000267
0.000266
0.000235
0.000342
0.000234
0.000241
0.000272
0.000351
0.000552
0.001655
0.000275
0.000237
0.000240
0.000277
0.000186
0.000057
0.000294
0.000481
0.000328
0.000226
0.000249
0.000249
0.000255
0.000238
0.000262
0.000249
0.000220
0.000268
0.000397
0.000515
0.000461
0.000230
0.000250
0.000250
0.000350
0.000379
0.000382
0.000365
0.000405
0.000310
0.000252
0.000252
0.000269
0.000272
0.001785
0.000313
0.000165
0.000056
0.000208
0.000227
0.000315
0.000203
0.000357
0.000546
0.000303
0.000220
0.000262
0.000262
0.000253
0.000245
0.000515
0.000454
0.000478
0.000282
0.000262
0.000271
0.000419
0.000466
0.000358
0.000391
0.000506
0.000442
0.000239
0.000243
0.000268
0.000243
0.000263
0.001711
0.000321
0.000076
0.000347
0.000260
0.000210
0.000233
0.000257
0.000242
0.000244
0.000500
0.000370
0.000310
0.000300
0.000243
0.000348
0.000795
0.000223
0.000228
0.000251
0.000259
0.000250
0.000269
0.000262
0.000276
0.000240
0.000266
0.000314
0.000371
0.000401
0.000357
0.000226
0.000256
0.000191
0.000056
0.000462
0.000300
0.000449
0.000263
0.000206
0.000246
0.000245
0.000252
0.000243
0.000218
0.000255
0.000276
0.000293
0.000391
0.000524
0.000455
0.000311
0.000319
0.000377
0.000340
0.000288
0.000252
0.000245
0.000264
0.001736
0.000265
0.001714
0.000947
0.000399
0.000323
0.000167
0.000057
0.000193
0.000235
0.000238
0.000242
0.000260
0.000250
0.000248
0.000251
0.000244
0.000312
0.000416
0.000384
0.000353
0.000367
0.000247
0.000258
0.000249
0.000288
0.000230
0.000252
0.000251
0.000257
0.001811
0.000251
0.000248
0.000259
0.000279
0.000266
0.001939
0.000483
0.000220
0.000058
0.000214
0.000212
0.000242
0.000238
0.000256
0.000265
0.000222
0.000252
0.000255
0.000354
0.000594
0.000484
0.000236
0.000198
0.000245
0.000254
0.000324
0.000443
0.000368
0.000258
0.001818
0.000209
0.000251
0.000245
0.000256
0.000275
0.000242
0.000253
0.000328
0.000331
0.000405
0.000055
0.000255
0.000208
0.000248
0.000256
0.000249
0.000242
0.000254
0.000258
0.000241
0.000252
0.000240
0.000281
0.000384
0.000461
0.000275
0.000262
0.000466
0.000243
0.000242
0.000253
0.000260
0.000262
0.000281
0.000250
0.000278
0.001841
0.000201
0.000245
0.000263
0.000237
0.000191
0.000056
0.000258
0.000379
0.000240
0.000217
0.000232
0.000234
0.000236
0.000257
0.000252
0.000229
0.000229
0.000265
0.000261
0.000384
0.000367
0.000377
0.000280
0.000248
0.000248
0.000257
0.000258
0.000261
0.000247
0.000267
0.000248
0.000266
0.000364
0.001606
0.000241
0.000240
0.000182
0.000055
0.000212
0.000235
0.000249
0.000263
0.000339
0.000345
0.000387
0.000344
0.000229
0.000278
0.000231
0.000239
0.000244
0.000260
0.000262
0.000260
0.000237
0.000258
0.000255
0.000258
0.000266
0.000269
0.000249
0.000238
0.000241
0.000285
0.000279
0.000256
0.000259
0.000259
0.000191
0.000055
0.000213
0.000239
0.000255
0.000259
0.000232
0.000257
0.000243
0.000263
0.000278
0.000249
0.000219
0.000248
0.000252
0.000255
0.000270
0.000262
0.000257
0.000245
0.000301
0.000245
0.000283
0.000288
0.000273
0.000246
0.000282
0.000270
0.000272
0.000251
0.000257
0.000444
0.000678
0.000055
0.000225
0.000290
0.000223
0.000229
0.000234
0.000258
0.000239
0.000248
0.000254
0.000238
0.000270
0.000306
0.000492
0.000482
0.001518
0.000227
0.000490
0.000242
0.000257
0.000431
0.000415
0.000418
0.000229
0.000274
0.000258
0.000261
0.000281
0.000245
0.000315
0.000254
0.000190
0.000056
0.000377
0.000400
0.000347
0.000292
0.000222
0.000254
0.000249
0.000243
0.000234
0.000250
0.000256
0.000253
0.000229
0.000307
0.000320
0.000463
0.000443
0.001787
0.000230
0.000256
0.000360
0.000391
0.000461
0.000289
0.000321
0.000313
0.000303
0.000226
0.000237
0.000248
0.000199
0.000058
0.000206
0.000236
0.000237
0.000279
0.000385
0.000420
0.000347
0.000256
0.000254
0.000216
0.000247
0.000273
0.000286
0.000238
0.000247
0.000257
0.000282
0.000521
0.000412
0.000361
0.000231
0.001752
0.000318
0.000524
0.000459
0.000490
0.000329
0.000225
0.000256
0.000266
0.000440
0.000057
0.000192
0.000256
0.000231
0.000343
0.000388
0.000460
0.000353
0.000236
0.000226
0.000284
0.000251
0.000259
0.000252
0.000322
0.000284
0.000231
0.000230
0.000431
0.000380
0.000452
0.000433
0.001847
0.000246
0.000645
0.000289
0.000367
0.000230
0.000258
0.000289
0.000263
0.000205
0.000055
0.000204
0.000343
0.000356
0.000352
0.000362
0.000315
0.000355
0.000216
0.000235
0.000263
0.000278
0.000228
0.000246
0.000255
0.000245
0.000259
0.000307
0.000437
0.000452
0.000389
0.000286
0.000225
0.000270
0.001711
0.000566
0.000407
0.000642
0.000235
0.000266
0.000309
0.000159
0.000054
0.000190
0.000237
0.000324
0.000263
0.000274
0.000459
0.000325
0.000303
0.000247
0.000517
0.000231
0.000242
0.000266
0.000270
0.000278
0.000266
0.000224
0.000278
0.000524
0.000442
0.000259
0.000238
0.000251
0.000257
0.000261
0.000268
0.000240
0.000254
0.000266
0.000290
0.000220
0.000057
0.000335
0.000291
0.000235
0.000252
0.000244
0.000259
0.000241
0.000288
0.000247
0.000243
0.000257
0.000356
0.000424
0.000395
0.000350
0.000271
0.000223
0.000240
0.000254
0.000265
0.000294
0.000255
0.000234
0.000258
0.000283
0.000334
0.000373
0.000384
0.000366
0.000233
0.000178
0.000056
0.000209
0.000226
0.000277
0.000240
0.000240
0.000251
0.000258
0.000257
0.000493
0.000209
0.000259
0.000250
0.000249
0.000267
0.000269
0.000275
0.000260
0.000358
0.000214
0.000240
0.000260
0.000267
0.000252
0.000296
0.000250
0.000264
0.000265
0.000252
0.000518
0.000240
0.000158
0.000055
0.000216
0.000230
0.000263
0.000257
0.000218
0.000245
0.000367
0.000409
0.000236
0.000234
0.000256
0.000252
0.000238
0.000227
0.000439
0.001819
0.000228
0.000272
0.000281
0.000382
0.000367
0.000358
0.000423
0.000342
0.000376
0.000409
0.000247
0.000268
0.000269
0.000271
0.001391
0.000058
0.000391
0.000307
0.000257
0.000218
0.000239
0.000251
0.000236
0.000255
0.000241
0.000266
0.000252
0.000256
0.000253
0.000280
0.000504
0.001682
0.000233
0.000238
0.000240
0.000268
0.000234
0.000274
0.000424
0.000359
0.000250
0.000359
0.000224
0.000269
0.000283
0.000250
0.000197
0.000057
0.001198
0.000534
0.000334
0.000271
0.000251
0.000213
0.000228
0.000247
0.000483
0.000219
0.000244
0.000246
0.000342
0.000615
0.000340
0.000321
0.000242
0.000228
0.000334
0.000356
0.000277
0.000248
0.000273
0.000246
0.000292
0.000464
0.000650
0.000262
0.000249
0.000264
0.000167
0.000056
0.000228
0.000211
0.000241
0.000247
0.001428
0.000334
0.000227
0.000252
0.000239
0.000252
0.000250
0.000275
0.000224
0.000260
0.000271
0.000308
0.000403
0.000668
0.000258
0.001756
0.000265
0.000265
0.000280
0.000435
0.000568
0.000407
0.000236
0.000253
0.000255
0.000267
0.000201
0.000056
0.000208
0.000255
0.000229
0.000329
0.001241
0.000231
0.000262
0.000260
0.000242
0.000240
0.000234
0.000249
0.000282
0.000246
0.000252
0.000306
0.000501
0.000367
0.000317
0.000275
0.000263
0.000268
0.000250
0.000232
0.000284
0.000306
0.000205
0.000278
0.000265
0.000410
0.000485
0.000055
0.000221
0.000251
0.000239
0.000255
0.000267
0.000241
0.000237
0.000260
0.000271
0.000254
0.001427
0.000238
0.000240
0.000246
0.000243
0.000249
0.000263
0.000267
0.000261
0.000268
0.000268
0.000541
0.000380
0.000403
0.000235
0.000275
0.001762
0.000269
0.000243
0.000331
0.000431
0.000056
0.000200
0.000392
0.000452
0.000503
0.000521
0.000589
0.001443
0.000413
0.000522
0.000647
0.000559
0.000682
0.000565
0.000571
0.000585
0.001887
0.000399
0.000441
0.000401
0.000325
0.000215
0.000305
0.000255
0.000267
0.000280
0.000266
0.000325
0.000250
0.000270
0.000284
0.001368
0.000057
0.000205
0.000228
0.000246
0.000238
0.000256
0.000258
0.000235
0.000243
0.000249
0.000249
0.000244
0.000235
0.000260
0.000251
0.000270
0.000270
0.001809
0.000279
0.000244
0.000238
0.000258
0.000262
0.000269
0.000260
0.000562
0.000296
0.000325
0.000247
0.000267
0.000310
0.000175
0.000056
0.000204
0.001358
0.000325
0.000267
0.000256
0.000240
0.000244
0.000236
0.000262
0.000208
0.000226
0.000239
0.000246
0.000509
0.000363
0.000282
0.000266
0.000254
0.001933
0.000222
0.000253
0.000263
0.000266
0.000257
0.000272
0.000285
0.000270
0.000255
0.000265
0.000316
0.000203
0.000056
0.000219
0.000242
0.000250
0.001438
0.000224
0.000243
0.000257
0.000239
0.000240
0.000269
0.000251
0.000248
0.000243
0.000260
0.000260
0.000255
0.000263
0.000265
0.000269
0.000252
0.000261
0.001780
0.000267
0.001761
0.000256
0.000250
0.000272
0.000267
0.000268
0.000280
0.000199
0.000056
0.000195
0.000237
0.001337
0.000236
0.000250
0.000248
0.000261
0.000259
0.000238
0.000255
0.000249
0.000247
0.000257
0.000264
0.000255
0.000265
0.000280
0.000264
0.000305
0.000217
0.001889
0.000225
0.001833
0.000229
0.000266
0.000286
0.000228
0.000247
0.000256
0.000277
0.000185
0.000056
0.001420
0.000231
0.000220
0.000251
0.000239
0.000239
0.000369
0.000294
0.000230
0.000246
0.000258
0.000257
0.000242
0.000354
0.000381
0.000310
0.000243
0.000271
0.000262
0.000250
0.000268
0.000339
0.000233
0.000253
0.000267
0.000273
0.000273
0.000423
0.000559
0.000369
0.000180
0.000056
0.000198
0.000238
0.000263
0.000306
0.000380
0.000247
0.001720
0.000281
0.000273
0.000277
0.000253
0.000268
0.000270
0.000264
0.000298
0.000299
0.000363
0.000554
0.000386
0.000258
0.000289
0.000289
0.000271
0.000253
0.000347
0.000247
0.000261
0.000255
0.000251
0.000335
0.000426
0.000056
0.000242
0.000474
0.000277
0.000262
0.000247
0.000225
0.000242
0.000235
0.000260
0.000250
0.001516
0.000230
0.000219
0.000257
0.000242
0.000286
0.000265
0.000254
0.000257
0.000266
0.000278
0.000330
0.000549
0.000332
0.000278
0.000279
0.000273
0.000256
0.000238
0.000309
0.000161
0.000057
0.000197
0.000230
0.000449
0.000294
0.000374
0.000276
0.000218
0.000252
0.000254
0.000247
0.000238
0.000255
0.000256
0.000281
0.000222
0.000236
0.000461
0.001147
0.000246
0.000252
0.000277
0.000245
0.000382
0.000395
0.000264
0.000358
0.000576
0.000314
0.000375
0.000231
0.000181
0.000057
0.000241
0.000247
0.000259
0.000261
0.000254
0.000251
0.000349
0.000444
0.000370
0.000304
0.000358
0.000394
0.000391
0.000360
0.000254
0.000250
0.000240
0.000257
0.000338
0.000512
0.001274
0.000225
0.000274
0.000273
0.000233
0.000235
0.000268
0.000413
0.000387
0.000377
0.000236
0.000056
0.000206
0.000242
0.000253
0.000241
0.000240
0.000250
0.000233
0.000261
0.000312
0.000411
0.000318
0.000428
0.000239
0.000235
0.000255
0.000250
0.000256
0.000263
0.000266
0.000243
0.000449
0.000259
0.000550
0.000213
0.000330
0.000254
0.000271
0.000268
0.000257
0.000342
0.000151
0.000056
0.000309
0.000312
0.000437
0.000244
0.000491
0.000320
0.000249
0.000242
0.000244
0.000275
0.000254
0.000264
0.000233
0.000253
0.000239
0.000229
0.000270
0.000422
0.000415
0.000365
0.000230
0.000270
0.000244
0.000249
0.000263
0.000276
0.000273
0.000262
0.000287
0.000261
0.000311
0.000056
0.000236
0.000367
0.000235
0.000249
0.000244
0.000248
0.000246
0.000247
0.000267
0.000258
0.000251
0.000236
0.000373
0.000422
0.000418
0.000304
0.000230
0.000248
0.000254
0.000268
0.000259
0.000261
0.000254
0.000273
0.000274
0.000388
0.000330
0.000600
0.000413
0.000251
0.000173
0.000057
0.000394
0.000201
0.000232
0.000253
0.000247
0.000246
0.000238
0.000252
0.000258
0.000260
0.000221
0.000248
0.000260
0.000233
0.000245
0.000262
0.000255
0.000259
0.000291
0.000242
0.000265
0.000260
0.000262
0.000260
0.000266
0.000227
0.000263
0.000281
0.000256
0.000277
0.000200
0.000056
0.000203
0.000230
0.000251
0.000250
0.000233
0.000255
0.000265
0.000238
0.000257
0.000272
0.000232
0.000236
0.000261
0.000399
0.000250
0.000281
0.000260
0.000265
0.000255
0.000276
0.000274
0.000243
0.000238
0.000269
0.000249
0.000276
0.000252
0.000258
0.000273
0.000256
0.000209
0.000056
0.000210
0.000352
0.000370
0.000278
0.000295
0.000258
0.000276
0.000253
0.000222
0.000246
0.000251
0.000261
0.000249
0.000242
0.000253
0.000277
0.000244
0.000270
0.000247
0.000264
0.000277
0.000264
0.000259
0.000258
0.000266
0.000256
0.000257
0.000272
0.000274
0.000256
0.000196
0.000056
0.000214
0.000230
0.000267
0.000261
0.000487
0.000209
0.000207
0.000251
0.000303
0.000450
0.000463
0.000286
0.000226
0.000248
0.000268
0.000272
0.000240
0.000266
0.000276
0.000250
0.000269
0.000256
0.000262
0.000285
0.000520
0.000514
0.000251
0.000310
0.000262
0.000265
0.000185
0.000074
0.000179
0.000221
0.000253
0.000247
0.000303
0.000691
0.000296
0.000385
0.000200
0.000252
0.000248
0.000256
0.000247
0.000270
0.000239
0.000273
0.000280
0.000226
0.000593
0.000441
0.000285
0.000253
0.000253
0.000285
0.000281
0.000256
0.000283
0.000250
0.000248
0.000330
0.000422
0.000056
0.000287
0.000236
0.000243
0.000230
0.000258
0.000251
0.000231
0.000243
0.000268
0.000240
0.000246
0.000248
0.000244
0.000383
0.000574
0.000400
0.000236
0.000260
0.000262
0.000247
0.000268
0.000267
0.000519
0.000198
0.000261
0.000553
0.000459
0.000481
0.000253
0.000251
0.000177
0.000057
0.000202
0.000226
0.000257
0.000229
0.000253
0.000264
0.000303
0.000542
0.000473
0.000426
0.000217
0.000259
0.000280
0.000276
0.000255
0.000252
0.000235
0.000249
0.000270
0.000316
0.000408
0.000642
0.000367
0.000262
0.000355
0.000373
0.000495
0.000243
0.000270
0.000390
0.000433
0.000055
0.000275
0.000226
0.000437
0.000228
0.000229
0.000255
0.000262
0.000278
0.000213
0.000238
0.000286
0.000421
0.000332
0.000339
0.000238
0.000257
0.000248
0.000249
0.000265
0.000281
0.000267
0.000248
0.000258
0.000269
0.000291
0.000504
0.000484
0.000242
0.000257
0.000273
0.000195
0.000056
0.000203
0.000248
0.000230
0.000262
0.000234
0.000255
0.000347
0.000413
0.000439
0.000272
0.000372
0.000236
0.000240
0.000269
0.000253
0.000239
0.000255
0.000267
0.000268
0.000399
0.000506
0.000322
0.000483
0.000266
0.000387
0.000424
0.000382
0.000240
0.000265
0.000256
0.000467
0.000056
0.000242
0.000278
0.000216
0.000260
0.000257
0.000257
0.000248
0.000245
0.000248
0.000264
0.000239
0.000307
0.000492
0.000490
0.000263
0.000227
0.000275
0.000256
0.000269
0.000230
0.000249
0.000257
0.000263
0.000275
0.000274
0.000359
0.000530
0.000412
0.000238
0.000282
0.000186
0.000055
0.000197
0.000251
0.000258
0.000259
0.000245
0.000349
0.000483
0.000493
0.000340
0.000685
0.000268
0.000223
0.000240
0.000258
0.000248
0.000267
0.000276
0.000278
0.000562
0.000414
0.001427
0.000306
0.000259
0.000261
0.000296
0.000267
0.000429
0.000402
0.000321
0.000336
0.000164
0.000055
0.000197
0.000234
0.000242
0.000247
0.000242
0.000255
0.000275
0.000248
0.000269
0.000311
0.000324
0.000388
0.000267
0.000338
0.000389
0.000343
0.000256
0.000239
0.000275
0.000259
0.000242
0.000252
0.000266
0.000243
0.000324
0.000434
0.000427
0.000308
0.000247
0.000271
0.000186
0.000056
0.000206
0.000248
0.000256
0.000256
0.000243
0.000235
0.000473
0.000206
0.000239
0.000256
0.000240
0.000256
0.000258
0.000251
0.000253
0.000268
0.000259
0.000272
0.000271
0.000256
0.000261
0.000284
0.000294
0.000248
0.000262
0.000283
0.000267
0.000266
0.000260
0.000277
0.000165
0.000055
0.000209
0.000252
0.000362
0.000354
0.000375
0.000250
0.000231
0.000252
0.000261
0.000246
0.000250
0.000255
0.000268
0.000261
0.000240
0.000243
0.000274
0.000241
0.000284
0.000402
0.000370
0.000409
0.000228
0.000257
0.000267
0.000251
0.000270
0.000252
0.000273
0.000276
0.000211
0.000058
0.000341
0.000430
0.000390
0.000201
0.000257
0.000255
0.000414
0.000219
0.000232
0.000254
0.000256
0.000294
0.000350
0.000489
0.001819
0.000250
0.000244
0.000250
0.000280
0.000243
0.000343
0.000430
0.000670
0.000251
0.000230
0.000263
0.000269
0.000431
0.000278
0.000280
0.000166
0.000056
0.000273
0.000316
0.000338
0.000326
0.000496
0.000206
0.000240
0.000251
0.000253
0.000235
0.000262
0.000247
0.000314
0.000320
0.000381
0.000447
0.000224
0.000250
0.000255
0.000269
0.000258
0.000318
0.000228
0.000281
0.000279
0.000497
0.000455
0.000431
0.000438
0.000234
0.000204
0.000056
0.000220
0.000236
0.000260
0.000225
0.000251
0.000249
0.000273
0.000267
0.000475
0.000341
0.000339
0.000348
0.000214
0.000256
0.000270
0.000278
0.000305
0.000233
0.000277
0.000275
0.000237
0.000330
0.000403
0.000416
0.000287
0.000247
0.000268
0.000434
0.000415
0.000315
0.000177
0.000055
0.000198
0.000231
0.000339
0.000402
0.000401
0.000204
0.000241
0.000253
0.000259
0.000250
0.000269
0.000261
0.000217
0.000260
0.000259
0.000315
0.000401
0.000342
0.000297
0.000331
0.000491
0.000232
0.000278
0.000275
0.000304
0.000281
0.000255
0.000264
0.000498
0.000517
0.000172
0.000056
0.000223
0.000228
0.000246
0.000251
0.000239
0.000484
0.000210
0.000257
0.000269
0.000328
0.000466
0.000609
0.000216
0.000243
0.000242
0.000245
0.000262
0.000245
0.000257
0.000251
0.000259
0.000269
0.000331
0.000532
0.000280
0.000410
0.000287
0.000305
0.000313
0.000263
0.000176
0.000056
0.000226
0.000226
0.000261
0.000504
0.000338
0.000313
0.000221
0.000214
0.000247
0.000259
0.000251
0.000249
0.000255
0.000260
0.000252
0.000267
0.000242
0.000243
0.000259
0.000444
0.000374
0.000481
0.000225
0.000248
0.000280
0.000275
0.000261
0.000255
0.000265
0.000271
0.000186
0.000056
0.000270
0.000398
0.000446
0.000268
0.000198
0.000247
0.000325
0.000453
0.000290
0.000213
0.000240
0.000277
0.000249
0.000428
0.000475
0.000301
0.000213
0.000228
0.000255
0.000265
0.000266
0.000266
0.000261
0.000276
0.000262
0.000296
0.000348
0.000452
0.000332
0.000238
0.000181
0.000057
0.000211
0.000242
0.000246
0.000258
0.000248
0.000265
0.000229
0.000254
0.000248
0.000248
0.000268
0.000239
0.000286
0.001422
0.000237
0.000254
0.000264
0.000240
0.000280
0.000273
0.000266
0.000238
0.000277
0.000266
0.000257
0.000266
0.000271
0.000269
0.000262
0.000268
0.000188
0.000055
0.000196
0.000235
0.000249
0.000247
0.000243
0.000247
0.000254
0.000263
0.000225
0.000247
0.000250
0.000261
0.000255
0.000253
0.000256
0.000263
0.000242
0.000260
0.000273
0.000255
0.000258
0.000259
0.000243
0.000254
0.001289
0.000288
0.000593
0.000379
0.000356
0.000252
0.000190
0.000055
0.000214
0.000217
0.000241
0.000254
0.000417
0.000229
0.000242
0.000241
0.000253
0.000338
0.000549
0.000264
0.000233
0.000238
0.000278
0.000243
0.000256
0.000256
0.000254
0.000259
0.000261
0.000255
0.000272
0.000466
0.000465
0.000450
0.000217
0.000285
0.001348
0.000249
0.000183
0.000056
0.000299
0.000409
0.000321
0.000271
0.000221
0.000230
0.000235
0.000245
0.000261
0.000255
0.000264
0.000246
0.000286
0.000277
0.000535
0.000398
0.000321
0.000259
0.000223
0.000261
0.000253
0.000263
0.000268
0.000262
0.000276
0.000260
0.000329
0.000541
0.000435
0.000329
0.000140
0.000057
0.000188
0.000237
0.001254
0.000432
0.000261
0.000485
0.000396
0.000478
0.000275
0.000355
0.000209
0.000232
0.000256
0.000254
0.000248
0.000267
0.000280
0.000573
0.000372
0.000378
0.000251
0.000256
0.000252
0.000505
0.000232
0.000268
0.000255
0.000282
0.000283
0.000583
0.000349
0.000057
0.000370
0.000311
0.000226
0.000240
0.001668
0.000445
0.000228
0.000228
0.000250
0.000248
0.000230
0.000240
0.000243
0.000270
0.000252
0.000260
0.000239
0.000282
0.000432
0.000348
0.000453
0.000243
0.000256
0.000250
0.000263
0.000272
0.000283
0.000227
0.000262
0.000285
0.000213
0.000055
0.000392
0.000328
0.000230
0.000231
0.000248
0.000242
0.000262
0.000232
0.000233
0.000230
0.001410
0.000491
0.000246
0.000251
0.000229
0.000257
0.000273
0.000261
0.000238
0.000286
0.000264
0.000255
0.000251
0.000405
0.000539
0.000346
0.000236
0.000266
0.000279
0.000283
0.000167
0.000055
0.000200
0.000408
0.000220
0.000240
0.000351
0.000521
0.000294
0.000307
0.000465
0.000207
0.000225
0.000252
0.000261
0.000266
0.000261
0.001428
0.000345
0.000283
0.000246
0.000267
0.000279
0.000252
0.000257
0.000250
0.000275
0.000255
0.000498
0.000396
0.000296
0.000277
0.000154
0.000056
0.000213
0.000229
0.000257
0.000235
0.000228
0.000265
0.000238
0.000257
0.000257
0.000420
0.000422
0.000274
0.000250
0.000242
0.000240
0.000277
0.000273
0.000261
0.000273
0.000225
0.000253
0.000303
0.001271
0.000261
0.000250
0.000251
0.000261
0.000263
0.000262
0.000260
0.000186
0.000055
0.000250
0.000363
0.000304
0.000370
0.000243
0.000237
0.000253
0.000265
0.000256
0.000251
0.000254
0.000271
0.000235
0.000255
0.000260
0.000263
0.000266
0.000267
0.000267
0.000247
0.000253
0.000269
0.000267
0.000282
0.000292
0.000265
0.000266
0.000261
0.000254
0.000469
0.001337
0.000058
0.000213
0.000230
0.000240
0.000241
0.000251
0.000263
0.000248
0.000224
0.000245
0.000255
0.000267
0.000254
0.000257
0.000240
0.000250
0.000251
0.001726
0.000249
0.000247
0.000264
0.000244
0.000258
0.000273
0.000262
0.000265
0.000263
0.000268
0.000274
0.000274
0.000256
0.000217
0.000056
0.000289
0.000322
0.001266
0.000223
0.000242
0.000243
0.000254
0.000253
0.000257
0.000258
0.000233
0.000360
0.000376
0.000464
0.000264
0.000224
0.000250
0.000254
0.000249
0.000273
0.000238
0.000271
0.000269
0.000279
0.000267
0.000392
0.000441
0.000303
0.000300
0.000251
0.000189
0.000055
0.000224
0.000245
0.000246
0.000250
0.000251
0.000223
0.000238
0.000244
0.000431
0.001340
0.000268
0.000206
0.000255
0.000269
0.000256
0.000260
0.000262
0.000252
0.000370
0.000365
0.000399
0.000231
0.000246
0.000254
0.000274
0.000281
0.000267
0.000288
0.000268
0.000281
0.000191
0.000056
0.000228
0.000462
0.000358
0.000228
0.000229
0.000230
0.000249
0.000277
0.000265
0.000246
0.000231
0.000252
0.000444
0.000552
0.000433
0.001450
0.000253
0.000277
0.000311
0.000353
0.000526
0.000379
0.000571
0.000295
0.000233
0.000263
0.000266
0.000274
0.000263
0.000272
0.000202
0.000056
0.000209
0.000524
0.000323
0.000290
0.000403
0.000237
0.000246
0.000227
0.000256
0.000251
0.000251
0.000268
0.000270
0.000241
0.000264
0.000300
0.000343
0.000440
0.000374
0.001319
0.000273
0.000250
0.000259
0.000258
0.000509
0.000391
0.000364
0.000266
0.000280
0.000273
0.000187
0.000055
0.000197
0.000245
0.000246
0.000238
0.000249
0.000273
0.000452
0.000399
0.000362
0.000219
0.000243
0.000258
0.000271
0.000259
0.000265
0.000262
0.000262
0.000252
0.000271
0.000367
0.000373
0.000415
0.000355
0.001323
0.000418
0.000232
0.000273
0.000426
0.000468
0.000316
0.000314
0.000056
0.000190
0.000235
0.000254
0.000242
0.000250
0.000255
0.001673
0.000243
0.000225
0.000246
0.000253
0.000247
0.000254
0.000324
0.000327
0.000285
0.000278
0.000313
0.000489
0.000443
0.000277
0.000276
0.000228
0.000254
0.001499
0.000392
0.000350
0.000489
0.000318
0.000290
0.000170
0.000074
0.000204
0.000244
0.000254
0.000263
0.000240
0.000260
0.001706
0.000242
0.000239
0.000261
0.000329
0.000407
0.001435
0.000499
0.000265
0.000250
0.000246
0.000241
0.000266
0.000274
0.001599
0.000667
0.000227
0.000293
0.000239
0.000249
0.000264
0.000301
0.000223
0.000252
0.000195
0.000056
0.000210
0.000245
0.000267
0.000247
0.000258
0.000302
0.000258
0.000261
0.000240
0.000257
0.000253
0.000263
0.000246
0.000268
0.000249
0.001494
0.000286
0.000232
0.000265
0.000276
0.000276
0.000256
0.000429
0.001269
0.000273
0.000237
0.000274
0.000253
0.000397
0.000247
0.000200
0.000055
0.000195
0.000237
0.000221
0.000247
0.000238
0.000225
0.000236
0.001690
0.000281
0.000208
0.000249
0.000368
0.000225
0.000224
0.000254
0.001381
0.000238
0.000266
0.000269
0.000242
0.000267
0.000350
0.000274
0.001304
0.000296
0.000241
0.000255
0.000263
0.001401
0.000266
0.000207
0.000057
0.000287
0.000312
0.000217
0.000236
0.000251
0.000239
0.000263
0.000266
0.000273
0.000245
0.000260
0.000283
0.000232
0.000246
0.000291
0.001514
0.000251
0.000275
0.000259
0.000240
0.000284
0.000260
0.000254
0.001515
0.000342
0.000233
0.000267
0.001269
0.000279
0.000247
0.000231
0.000055
0.000241
0.000381
0.000338
0.000222
0.000234
0.000235
0.000262
0.000259
0.000262
0.000271
0.000239
0.000262
0.000256
0.000313
0.000382
0.001205
0.000236
0.000256
0.000264
0.000279
0.000225
0.000238
0.000270
0.000342
0.001247
0.000259
0.000246
0.000254
0.001346
0.000373
0.000204
0.000057
0.000287
0.000242
0.000227
0.000232
0.000241
0.000255
0.000240
0.000248
0.000275
0.000258
0.000236
0.000252
0.000253
0.000335
0.000399
0.001475
0.000228
0.000242
0.000302
0.000509
0.000280
0.000427
0.001312
0.000297
0.000250
0.000265
0.000250
0.001298
0.000306
0.000530
0.000326
0.000055
0.000224
0.000248
0.000257
0.000256
0.000251
0.000248
0.000279
0.000246
0.000267
0.000282
0.000321
0.000477
0.001292
0.000245
0.000266
0.000260
0.000285
0.000223
0.000246
0.000235
0.000338
0.001247
0.000251
0.000256
0.000252
0.000245
0.001463
0.000489
0.000482
0.000206
0.000198
0.000056
0.000199
0.000236
0.000248
0.000236
0.000253
0.000264
0.000244
0.000248
0.000462
0.000460
0.000271
0.001483
0.000223
0.000239
0.000262
0.000256
0.000265
0.000310
0.001662
0.000257
0.000397
0.000330
0.001274
0.000362
0.000328
0.000312
0.000248
0.000268
0.000261
0.000270
0.000194
0.000055
0.000205
0.000235
0.000333
0.000274
0.000306
0.000542
0.000261
0.000294
0.001468
0.000238
0.000390
0.000267
0.000219
0.000378
0.000326
0.001300
0.000276
0.000231
0.000248
0.000261
0.001518
0.000437
0.000246
0.000257
0.000275
0.000243
0.000451
0.000364
0.000229
0.000231
0.000259
0.000055
0.000288
0.000333
0.000328
0.000273
0.000217
0.001522
0.000226
0.000242
0.000264
0.000271
0.000267
0.000242
0.000327
0.001459
0.000263
0.000225
0.000432
0.001197
0.000355
0.000409
0.000415
0.000237
0.000244
0.000255
0.000277
0.000244
0.000447
0.000230
0.000267
0.000279
0.000192
0.000055
0.000231
0.000220
0.000383
0.000409
0.001248
0.000278
0.000309
0.000236
0.000255
0.000241
0.000248
0.000251
0.001555
0.000270
0.000231
0.000237
0.001393
0.000258
0.000428
0.000417
0.000405
0.000238
0.000251
0.000250
0.000267
0.000280
0.000264
0.000265
0.000262
0.000257
0.000201
0.000057
0.000238
0.000464
0.001362
0.000215
0.000269
0.000272
0.000244
0.000250
0.000261
0.000537
0.001235
0.000223
0.000253
0.000260
0.000261
0.001280
0.000702
0.000287
0.000310
0.000411
0.000300
0.000243
0.000271
0.000256
0.000270
0.000289
0.000280
0.000309
0.000426
0.000423
0.001377
0.000056
0.000194
0.000248
0.000248
0.000224
0.000254
0.000518
0.000410
0.001263
0.000242
0.000241
0.000246
0.001448
0.000419
0.000328
0.000219
0.000410
0.000244
0.000252
0.000275
0.000270
0.000236
0.000275
0.000281
0.000265
0.000244
0.000274
0.000432
0.000493
0.001494
0.000237
0.000182
0.000055
0.000194
0.000257
0.000398
0.000516
0.001221
0.000277
0.000253
0.000256
0.000245
0.000254
0.000251
0.000288
0.000336
0.000497
0.000338
0.000233
0.000256
0.000276
0.000238
0.000283
0.000253
0.000269
0.000257
0.000271
0.000281
0.000386
0.000452
0.000354
0.000321
0.001398
0.000192
0.000056
0.000202
0.000242
0.000403
0.000350
0.000327
0.000294
0.000313
0.000337
0.000270
0.000276
0.000239
0.000265
0.000254
0.000307
0.000233
0.000325
0.000572
0.000269
0.000298
0.000383
0.000273
0.000406
0.000234
0.000253
0.000253
0.000265
0.000249
0.000299
0.000321
0.000539
0.000278
0.000057
0.000202
0.001396
0.000240
0.000336
0.000473
0.000312
0.000412
0.000318
0.000213
0.000250
0.000268
0.000244
0.000263
0.000275
0.000263
0.000255
0.000257
0.001292
0.000333
0.000249
0.000254
0.000270
0.000274
0.000278
0.000269
0.000256
0.000276
0.000244
0.000360
0.000458
0.000332
0.000058
0.000199
0.000258
0.000224
0.001494
0.000346
0.000216
0.000231
0.000250
0.000228
0.000246
0.000253
0.000275
0.000247
0.000250
0.000270
0.000253
0.000266
0.000250
0.000261
0.000260
0.001432
0.000234
0.000242
0.000281
0.000251
0.000244
0.000275
0.000260
0.000275
0.000489
0.000344
0.000056
0.000195
0.000236
0.000395
0.000275
0.000249
0.000253
0.001530
0.000422
0.000228
0.000218
0.000269
0.000298
0.000359
0.000210
0.000233
0.000243
0.000251
0.000261
0.000260
0.000256
0.000522
0.000473
0.001118
0.000279
0.000229
0.000259
0.000268
0.000254
0.000276
0.000267
0.000354
0.000057
0.000226
0.000336
0.000212
0.000244
0.000248
0.000241
0.000244
0.000235
0.000286
0.001621
0.000365
0.000274
0.000240
0.000254
0.000271
0.000231
0.000260
0.000273
0.000260
0.000311
0.000306
0.000486
0.000451
0.001369
0.000236
0.000259
0.000271
0.000264
0.000268
0.000277
0.000459
0.000055
0.000272
0.000241
0.000243
0.000241
0.000224
0.000237
0.000256
0.000258
0.000266
0.001573
0.000353
0.000262
0.000260
0.000257
0.000456
0.000268
0.000526
0.000374
0.000300
0.000305
0.000444
0.000449
0.001307
0.000259
0.000239
0.000254
0.001691
0.000480
0.000606
0.000317
0.000139
0.000058
0.000206
0.000232
0.000239
0.000239
0.000253
0.000247
0.000247
0.000540
0.000498
0.000371
0.000298
0.000210
0.000261
0.000247
0.000259
0.000265
0.000251
0.000253
0.000251
0.000278
0.000268
0.000377
0.001386
0.000226
0.000244
0.000275
0.001894
0.000395
0.000368
0.000352
0.000152
0.000057
0.000240
0.000245
0.001499
0.000304
0.000422
0.000219
0.000241
0.000259
0.000252
0.000279
0.000381
0.000365
0.000366
0.000269
0.000267
0.000556
0.000399
0.001192
0.000288
0.000226
0.000247
0.000260
0.000278
0.000400
0.000617
0.000466
0.000249
0.000264
0.000264
0.000287
0.000191
0.000058
0.000179
0.000237
0.000239
0.001537
0.000260
0.000229
0.000234
0.000259
0.000242
0.000257
0.000251
0.000268
0.000264
0.000280
0.000243
0.000505
0.000334
0.000310
0.001404
0.000245
0.000245
0.000276
0.000246
0.000265
0.000390
0.000537
0.000381
0.000263
0.000283
0.000231
0.000450
0.000055
0.000195
0.000238
0.000252
0.001517
0.000325
0.000215
0.000271
0.000240
0.000256
0.000252
0.000270
0.000243
0.000255
0.000271
0.000345
0.000526
0.001403
0.000767
0.000261
0.000322
0.000260
0.000239
0.000235
0.000279
0.001673
0.000808
0.000231
0.000265
0.000280
0.000282
0.000186
0.000056
0.000206
0.000233
0.000250
0.000248
0.000256
0.000246
0.000244
0.000281
0.000215
0.000230
0.000290
0.000281
0.000255
0.000246
0.000260
0.000251
0.000271
0.001597
0.000734
0.000333
0.000331
0.000230
0.000243
0.000283
0.000271
0.000269
0.000259
0.000264
0.001474
0.000330
0.000266
0.000057
0.000185
0.000231
0.000247
0.000261
0.000259
0.000228
0.000252
0.000258
0.000244
0.000267
0.000276
0.000441
0.000460
0.000295
0.000212
0.000245
0.000266
0.001391
0.000691
0.000457
0.000361
0.000265
0.000229
0.000251
0.000275
0.000247
0.000260
0.000263
0.001521
0.000400
0.000193
0.000056
0.000187
0.000229
0.000239
0.000252
0.000255
0.000240
0.000240
0.000247
0.000274
0.000259
0.000373
0.000455
0.000248
0.000218
0.000245
0.000248
0.000263
0.000258
0.001576
0.000629
0.000453
0.000320
0.000233
0.000257
0.000266
0.000254
0.000264
0.000286
0.000269
0.001376
0.000308
0.000056
0.000205
0.000215
0.000235
0.000257
0.000254
0.000247
0.000261
0.000295
0.000359
0.000480
0.000314
0.000418
0.000347
0.000220
0.000245
0.000249
0.000278
0.000257
0.000268
0.001941
0.000308
0.000238
0.000444
0.000246
0.000250
0.000266
0.000269
0.000261
0.000267
0.000273
0.000286
0.000055
0.000281
0.000262
0.000213
0.000238
0.000252
0.000252
0.000230
0.000237
0.000265
0.000253
0.000246
0.000236
0.000360
0.000403
0.000431
0.000460
0.000216
0.000260
0.000251
0.000257
0.000254
0.000281
0.001525
0.001003
0.000221
0.000250
0.000267
0.000260
0.000278
0.000261
0.000192
0.000055
0.000199
0.001346
0.000291
0.000212
0.000235
0.000250
0.000253
0.000234
0.000246
0.000249
0.000260
0.000263
0.000236
0.000383
0.000360
0.000439
0.000315
0.000240
0.000264
0.000264
0.000270
0.000234
0.000252
0.000272
0.001337
0.000666
0.000307
0.000374
0.000385
0.000399
0.000295
0.000055
0.000196
0.000231
0.000369
0.001337
0.000193
0.000256
0.000224
0.000257
0.000258
0.000260
0.000244
0.000252
0.000267
0.000378
0.000546
0.000299
0.000226
0.000297
0.000306
0.000215
0.000251
0.000272
0.000232
0.000271
0.000269
0.001528
0.000751
0.000301
0.000275
0.000271
0.000192
0.000055
0.000212
0.000343
0.000371
0.000422
0.001229
0.000236
0.000221
0.000239
0.000228
0.000249
0.000244
0.000265
0.000226
0.000239
0.000255
0.000254
0.000270
0.000237
0.000254
0.000253
0.000287
0.000250
0.000311
0.000313
0.000231
0.000268
0.000265
0.001454
0.000263
0.000247
0.000166
0.000056
0.000180
0.000230
0.000251
0.000262
0.000347
0.000380
0.000393
0.000269
0.001605
0.000214
0.000431
0.000332
0.000369
0.000242
0.000429
0.000239
0.000238
0.000262
0.000271
0.000268
0.000280
0.000270
0.000254
0.000267
0.000246
0.000435
0.000409
0.000309
0.001579
0.000217
0.000198
0.000059
0.000212
0.000244
0.000251
0.000244
0.000245
0.000246
0.000263
0.000271
0.000443
0.002034
0.000235
0.000244
0.000253
0.000262
0.000260
0.000250
0.000295
0.000236
0.000255
0.000440
0.000391
0.000436
0.001444
0.000253
0.000545
0.000218
0.001766
0.000238
0.000262
0.001544
0.000132
0.000057
0.000428
0.000315
0.000474
0.000240
0.000264
0.000225
0.000267
0.000264
0.000259
0.000232
0.000250
0.000337
0.000412
0.000345
0.000471
0.000209
0.000228
0.001569
0.000232
0.000569
0.001885
0.000297
0.000233
0.001600
0.001965
0.000744
0.000280
0.000255
0.000304
0.000486
0.000348
0.000057
0.000211
0.000253
0.000233
0.000252
0.001413
0.001735
0.001084
0.000195
0.000242
0.001589
0.001974
0.000211
0.000238
0.000425
0.000342
0.000331
0.000384
0.000489
0.000206
0.000245
0.000248
0.000260
0.000278
0.001574
0.001207
0.001433
0.000273
0.000304
0.000253
0.000294
0.000367
0.000055
0.000208
0.000236
0.000240
0.000243
0.000228
0.000244
0.000249
0.000252
0.000257
0.000251
0.000242
0.000310
0.000551
0.000367
0.000300
0.000227
0.000267
0.000254
0.000268
0.000263
0.000254
0.000262
0.001576
0.000422
0.002101
0.000239
0.000263
0.000324
0.000438
0.000392
0.000199
0.000057
0.000223
0.000399
0.000411
0.000322
0.000189
0.000234
0.000256
0.000242
0.000237
0.000246
0.000251
0.000264
0.000258
0.001601
0.001357
0.001232
0.000277
0.000248
0.000238
0.000269
0.000280
0.000281
0.000240
0.000251
0.002203
0.000252
0.000251
0.000302
0.000322
0.000304
0.000224
0.000058
0.000209
0.000429
0.000470
0.000332
0.000238
0.000236
0.000242
0.000267
0.001895
0.001425
0.000223
0.000328
0.000382
0.000410
0.000259
0.000221
0.000289
0.000247
0.000273
0.000254
0.000263
0.000261
0.000475
0.000228
0.000275
0.000269
0.000248
0.000276
0.000285
0.000246
0.000205
0.000056
0.000192
0.000251
0.000245
0.000241
0.000256
0.000269
0.001540
0.001425
0.001321
0.000250
0.000217
0.000246
0.000264
0.000264
0.000254
0.000243
0.000255
0.002096
0.000253
0.000244
0.000257
0.000265
0.000251
0.000263
0.000271
0.000263
0.000266
0.000252
0.000278
0.000251
0.000176
0.000056
0.000202
0.002694
0.001388
0.000220
0.000300
0.000303
0.000231
0.000264
0.000257
0.000246
0.000252
0.000246
0.000233
0.000249
0.000271
0.000254
0.000269
0.000274
0.000264
0.000248
0.000270
0.000278
0.000276
0.000266
0.000247
0.000247
0.000262
0.000277
0.000258
0.000269
0.000370
0.000056
0.001543
0.000264
0.001235
0.000229
0.000219
0.000241
0.000263
0.000253
0.000246
0.000337
0.000289
0.000445
0.000304
0.000201
0.000251
0.002149
0.000232
0.000254
0.000361
0.000418
0.000338
0.000353
0.000206
0.000257
0.000267
0.000244
0.000266
0.000275
0.000274
0.001596
0.001278
0.000057
0.000193
0.000233
0.000333
0.000402
0.000320
0.000286
0.000211
0.000240
0.000245
0.000256
0.000265
0.000246
0.000230
0.000251
0.000269
0.000239
0.000340
0.000589
0.000361
0.000259
0.000241
0.000255
0.000281
0.000247
0.000250
0.000249
0.000267
0.000279
0.000239
0.000337
0.000346
0.000058
0.001117
0.000273
0.000347
0.000396
0.000306
0.000230
0.000227
0.000238
0.000255
0.002289
0.000363
0.000399
0.000218
0.000376
0.000301
0.000243
0.000259
0.000258
0.000269
0.000222
0.000253
0.000300
0.000566
0.000466
0.001868
0.001307
0.000642
0.000430
0.000230
0.000278
0.000198
0.000058
0.000208
0.000368
0.000248
0.000245
0.000245
0.000225
0.000276
0.000242
0.000252
0.000250
0.000253
0.000228
0.000241
0.000261
0.000384
0.000499
0.001859
0.001362
0.000418
0.000420
0.000464
0.000238
0.000241
0.000258
0.002124
0.000564
0.000390
0.000227
0.000278
0.000278
0.000211
0.000055
0.000197
0.000244
0.000256
0.000238
0.000244
0.000318
0.000448
0.000322
0.000284
0.000246
0.000239
0.000251
0.000266
0.002105
0.000383
0.000374
0.000212
0.000252
0.000266
0.000261
0.002279
0.000428
0.000334
0.000235
0.000246
0.000259
0.000254
0.000287
0.000264
0.000283
0.000205
0.000055
0.000204
0.000294
0.000605
0.000347
0.000263
0.000219
0.000233
0.000254
0.000262
0.000269
0.001943
0.000383
0.000265
0.000281
0.000243
0.000270
0.000270
0.000255
0.002188
0.000442
0.000223
0.000274
0.000275
0.000251
0.000250
0.000254
0.000283
0.000257
0.000267
0.000252
0.000190
0.000055
0.000226
0.000232
0.000255
0.000218
0.000246
0.000259
0.000244
0.000239
0.000228
0.002187
0.000225
0.000278
0.000223
0.000425
0.000230
0.000252
0.000275
0.000275
0.000244
0.000264
0.001966
0.000278
0.000338
0.000366
0.000438
0.000398
0.000312
0.000247
0.000251
0.000263
0.000193
0.000055
0.000195
0.000232
0.000244
0.000242
0.000255
0.000322
0.000227
0.002298
0.000236
0.000240
0.000262
0.000258
0.000235
0.000252
0.000320
0.002107
0.000596
0.000226
0.000251
0.000241
0.000256
0.000259
0.000289
0.000272
0.000258
0.000254
0.000285
0.000255
0.000263
0.000271
0.000194
0.000055
0.001837
0.001437
0.000197
0.000229
0.000244
0.000254
0.000253
0.000264
0.000452
0.000309
0.002169
0.000265
0.000223
0.000274
0.000336
0.000468
0.000382
0.000293
0.000234
0.000245
0.000251
0.000265
0.000266
0.000222
0.000262
0.000263
0.000267
0.000272
0.000348
0.000647
0.000296
0.000055
0.000195
0.000256
0.000244
0.000259
0.000267
0.000251
0.000253
0.000242
0.001504
0.002100
0.000580
0.000276
0.000399
0.000699
0.000344
0.000247
0.000250
0.000247
0.000266
0.000256
0.000257
0.000246
0.000257
0.001837
0.000322
0.001390
0.000283
0.000288
0.000298
0.000317
0.000367
0.000058
0.001930
0.000218
0.000231
0.000236
0.000298
0.000350
0.000509
0.000297
0.000235
0.000213
0.000255
0.000250
0.000252
0.000263
0.000263
0.000261
0.000246
0.000267
0.001841
0.000243
0.000230
0.000258
0.000271
0.000280
0.000274
0.000252
0.001474
0.000326
0.000264
0.000242
0.000173
0.000055
0.000195
0.000237
0.000239
0.000241
0.000255
0.000238
0.000277
0.000439
0.000429
0.000265
0.000210
0.000233
0.000260
0.000324
0.000430
0.000316
0.000222
0.000248
0.000266
0.000406
0.000375
0.000492
0.000255
0.000251
0.000260
0.000256
0.000248
0.000274
0.000276
0.000265
0.000199
0.000055
0.001451
0.000427
0.000225
0.001931
0.000268
0.000444
0.000424
0.000337
0.000216
0.000240
0.000268
0.000247
0.000242
0.000252
0.000264
0.000257
0.000446
0.000262
0.000428
0.000390
0.000338
0.000237
0.000255
0.000264
0.000274
0.000269
0.000261
0.000276
0.000374
0.000473
0.001346
0.000056
0.000202
0.000221
0.002070
0.000378
0.000238
0.000261
0.000255
0.000249
0.000265
0.000258
0.000215
0.000250
0.000258
0.000262
0.000257
0.000362
0.000715
0.001758
0.000228
0.000253
0.000251
0.000272
0.000466
0.000332
0.001594
0.000277
0.000361
0.001922
0.000268
0.000255
0.000191
0.000055
0.000198
0.000235
0.000235
0.000241
0.000229
0.000250
0.000252
0.000289
0.000330
0.000267
0.000380
0.000359
0.000337
0.000308
0.000233
0.000271
0.000259
0.000239
0.000265
0.000255
0.000304
0.000286
0.000266
0.000256
0.000273
0.001522
0.000266
0.000393
0.002071
0.000233
0.000172
0.000055
0.000223
0.000238
0.000239
0.000248
0.000483
0.000208
0.000252
0.000333
0.000371
0.000315
0.000307
0.000202
0.000268
0.000266
0.000272
0.000328
0.000384
0.000463
0.000247
0.000405
0.000533
0.000474
0.001551
0.000233
0.000257
0.001992
0.000311
0.000258
0.000243
0.000293
0.000186
0.000057
0.000203
0.000241
0.000228
0.000244
0.000254
0.000262
0.000260
0.000269
0.000254
0.000252
0.001815
0.000321
0.000378
0.000320
0.000421
0.000367
0.000412
0.001449
0.000239
0.000274
0.002113
0.000569
0.000263
0.000234
0.000270
0.000262
0.000505
0.000222
0.000258
0.000278
0.000198
0.000055
0.000282
0.000333
0.000425
0.000266
0.000195
0.000248
0.000258
0.000253
0.000271
0.000287
0.000226
0.000246
0.000275
0.000263
0.000385
0.001462
0.000319
0.000210
0.000281
0.001937
0.000367
0.000249
0.000251
0.000266
0.000263
0.000260
0.000271
0.000260
0.000256
0.000259
0.000207
0.000055
0.000226
0.000435
0.002023
0.000247
0.000256
0.000221
0.000245
0.000329
0.000448
0.000397
0.001309
0.000373
0.002120
0.000318
0.000202
0.000249
0.000265
0.000274
0.000255
0.000248
0.000281
0.000288
0.000261
0.000335
0.000544
0.000331
0.000332
0.002214
0.000487
0.000530
0.000345
0.000075
0.000172
0.000231
0.000244
0.001967
0.000229
0.000231
0.000242
0.000244
0.000240
0.000256
0.000245
0.000263
0.000243
0.000347
0.000399
0.001453
0.000248
0.000246
0.000271
0.000258
0.000228
0.000258
0.000261
0.000269
0.000322
0.000435
0.000494
0.000238
0.001593
0.000281
0.000168
0.000055
0.000197
0.000225
0.000249
0.000231
0.000269
0.000232
0.000252
0.000251
0.000290
0.000322
0.000366
0.001431
0.000247
0.000210
0.000249
0.000266
0.000254
0.000260
0.000493
0.000291
0.000454
0.000381
0.000239
0.001572
0.000224
0.000259
0.000291
0.000281
0.000260
0.000272
0.000186
0.000055
0.000218
0.000224
0.000266
0.000266
0.000250
0.000243
0.000245
0.000234
0.000271
0.000224
0.000260
0.000248
0.000253
0.001485
0.000372
0.000207
0.000248
0.000266
0.000273
0.000309
0.000379
0.000255
0.000262
0.000260
0.000263
0.000263
0.000254
0.001416
0.000284
0.000223
0.000175
0.000056
0.000209
0.000231
0.000263
0.000262
0.000255
0.000231
0.000252
0.000262
0.000220
0.000259
0.000249
0.000276
0.000208
0.000283
0.000436
0.000348
0.000239
0.000234
0.001631
0.000239
0.000248
0.000261
0.000266
0.000283
0.000463
0.000297
0.000454
0.000267
0.000268
0.001598
0.000156
0.000057
0.000306
0.000358
0.000359
0.000295
0.000226
0.000219
0.000243
0.000269
0.000256
0.000237
0.000245
0.000239
0.001462
0.000284
0.000319
0.000221
0.000247
0.000259
0.000269
0.000259
0.000259
0.000236
0.000258
0.000276
0.000249
0.000341
0.000515
0.000386
0.000221
0.000256
0.000192
0.000054
0.000210
0.000225
0.000441
0.000340
0.000387
0.000281
0.000247
0.000246
0.000252
0.000259
0.000239
0.000230
0.000250
0.000252
0.001250
0.000290
0.000259
0.000241
0.000266
0.000272
0.000238
0.000265
0.000254
0.000260
0.000258
0.000256
0.000296
0.000687
0.000465
0.000238
0.000175
0.000055
0.000192
0.001568
0.000222
0.000343
0.000456
0.000395
0.000212
0.000254
0.000267
0.000260
0.000233
0.000259
0.000271
0.000272
0.000258
0.001524
0.000256
0.000287
0.000259
0.000257
0.000263
0.000252
0.000266
0.000256
0.000260
0.000256
0.000430
0.000379
0.000362
0.000239
0.000195
0.000055
0.000211
0.000252
0.000237
0.001621
0.000452
0.000310
0.000225
0.000244
0.000250
0.000271
0.000278
0.000252
0.000253
0.000258
0.000238
0.000267
0.000366
0.001351
0.000255
0.000241
0.001485
0.000310
0.000626
0.000347
0.000337
0.000236
0.000276
0.000456
0.000241
0.000261
0.000188
0.000058
0.000266
0.000223
0.000247
0.000246
0.000246
0.000257
0.000238
0.000257
0.000269
0.000226
0.000252
0.000258
0.000324
0.000493
0.001657
0.001519
0.000331
0.000481
0.000402
0.000224
0.000229
0.000259
0.000246
0.000271
0.000242
0.000266
0.000265
0.000266
0.001513
0.000335
0.000161
0.000057
0.000184
0.000351
0.000354
0.000330
0.000229
0.000236
0.000246
0.000330
0.000442
0.000360
0.002183
0.000321
0.000795
0.000411
0.000460
0.000261
0.000338
0.000395
0.000328
0.000275
0.000396
0.000242
0.001564
0.000518
0.000221
0.000280
0.000238
0.000253
0.000278
0.000261
0.000192
0.000055
0.000197
0.000253
0.000267
0.000243
0.000238
0.001662
0.000878
0.001001
0.000204
0.000235
0.000264
0.000254
0.000261
0.000259
0.000256
0.000249
0.000255
0.000264
0.000262
0.000286
0.001427
0.000311
0.000260
0.000229
0.000238
0.000253
0.000264
0.000287
0.000261
0.000288
0.001893
0.000057
0.000202
0.000215
0.001551
0.000841
0.000385
0.000378
0.000222
0.000236
0.000248
0.000257
0.000244
0.000253
0.000248
0.001972
0.000486
0.000220
0.000244
0.000255
0.000266
0.000259
0.000194
