0.000161
0.016290
0.005204
0.000425
0.000252
0.000296
0.000330
0.000226
0.000333
0.000281
0.000248
0.000330
0.000603
0.000394
0.000370
0.000363
0.000294
0.000335
0.000356
0.000421
0.001837
0.000401
0.000693
0.000267
0.000243
0.000299
0.000323
0.000312
0.000415
0.000424
0.000514
0.000273
0.000058
0.000213
0.000268
0.000270
0.000284
0.000247
0.000248
0.000281
0.000303
0.000256
0.000267
0.000462
0.000418
0.000291
0.000257
0.000376
0.000351
0.000366
0.000255
0.000250
0.001700
0.000312
0.000263
0.000444
0.000269
0.000253
0.000278
0.000295
0.000291
0.000279
0.000342
0.000433
0.000058
0.000243
0.000256
0.000263
0.000258
0.000252
0.000246
0.000266
0.000252
0.000287
0.001669
0.000226
0.000238
0.000272
0.000270
0.000273
0.000252
0.000262
0.000255
0.000358
0.001798
0.000234
0.000277
0.000451
0.000427
0.000388
0.000242
0.000249
0.000503
0.000476
0.000767
0.000196
0.000058
0.000222
0.000247
0.000253
0.000241
0.000347
0.000197
0.000340
0.000568
0.000348
0.000260
0.000239
0.000256
0.000239
0.000258
0.000257
0.000253
0.000242
0.000273
0.000292
0.000367
0.001639
0.000264
0.000245
0.000435
0.000263
0.000777
0.000612
0.000540
0.000334
0.000238
0.000200
0.000058
0.000210
0.000253
0.000293
0.000214
0.000279
0.000234
0.000279
0.000673
0.001247
0.000213
0.000245
0.000249
0.000253
0.000252
0.000266
0.000282
0.000285
0.000788
0.001399
0.000298
0.000242
0.000426
0.000226
0.000247
0.000260
0.000268
0.000256
0.000279
0.000257
0.000268
0.000198
0.000056
0.000210
0.000245
0.000241
0.000264
0.000238
0.000246
0.000232
0.000258
0.000238
0.000257
0.001637
0.000263
0.000223
0.000240
0.000262
0.000247
0.000247
0.000246
0.000257
0.000251
0.000294
0.001648
0.000272
0.000262
0.000439
0.000255
0.000247
0.000263
0.000263
0.000270
0.000198
0.000058
0.000189
0.000227
0.000250
0.000249
0.000240
0.000245
0.000260
0.000237
0.000265
0.000259
0.000249
0.000258
0.000256
0.000271
0.001642
0.000278
0.000283
0.000219
0.000256
0.000270
0.000272
0.000237
0.000240
0.000268
0.001787
0.000392
0.000343
0.000369
0.000240
0.000276
0.000202
0.000058
0.000201
0.000237
0.000245
0.000267
0.000261
0.000260
0.000260
0.000408
0.000402
0.000443
0.000208
0.000256
0.000245
0.000245
0.001571
0.000501
0.000355
0.000422
0.000292
0.000235
0.000268
0.000280
0.000276
0.001726
0.000584
0.000393
0.000253
0.000251
0.000244
0.000257
0.000189
0.000058
0.000181
0.000232
0.000254
0.000300
0.000281
0.000449
0.000387
0.000284
0.000214
0.000245
0.000267
0.000235
0.000253
0.001707
0.000489
0.000294
0.000232
0.000245
0.000276
0.000292
0.000240
0.000262
0.001807
0.000381
0.000283
0.000380
0.000242
0.000264
0.000263
0.000403
0.000331
0.000056
0.000233
0.000357
0.000378
0.000262
0.000254
0.000243
0.000257
0.000260
0.000236
0.000236
0.000238
0.000244
0.001555
0.000388
0.000281
0.000217
0.000262
0.000251
0.000253
0.000299
0.000256
0.000330
0.000257
0.001795
0.000256
0.000485
0.000257
0.000247
0.000254
0.000271
0.000273
0.000059
0.000243
0.000632
0.000603
0.000215
0.000222
0.000281
0.000227
0.000214
0.000262
0.000253
0.000254
0.001698
0.000253
0.000448
0.000367
0.000220
0.000235
0.000228
0.000251
0.000264
0.000250
0.001861
0.000226
0.000472
0.001863
0.000533
0.000348
0.000243
0.000257
0.000266
0.000190
0.000057
0.000211
0.000233
0.000240
0.000248
0.000255
0.001627
0.000248
0.000234
0.000255
0.000251
0.000239
0.000249
0.000247
0.000254
0.000281
0.000389
0.000645
0.000256
0.000233
0.000270
0.000276
0.000244
0.000245
0.000435
0.000435
0.000259
0.000348
0.000667
0.000328
0.000265
0.000211
0.000059
0.000214
0.000243
0.000252
0.000251
0.000244
0.000236
0.000239
0.000373
0.001864
0.000310
0.000217
0.000237
0.000264
0.000230
0.000261
0.000274
0.000395
0.000523
0.000335
0.000237
0.000260
0.000303
0.000282
0.000258
0.000274
0.000428
0.000343
0.000594
0.000495
0.000438
0.000169
0.000058
0.000191
0.000258
0.000242
0.000236
0.000234
0.000237
0.000248
0.000263
0.000227
0.000293
0.000336
0.000549
0.001286
0.000237
0.000235
0.000255
0.000253
0.000248
0.000250
0.000254
0.000301
0.000423
0.000411
0.000269
0.000275
0.000251
0.000251
0.000272
0.000259
0.000274
0.000376
0.000056
0.000210
0.000236
0.000227
0.000296
0.000514
0.000427
0.000239
0.000256
0.000233
0.000259
0.000263
0.000222
0.000297
0.000253
0.000238
0.000494
0.000420
0.001626
0.000293
0.000220
0.000261
0.000263
0.000253
0.000245
0.000272
0.000419
0.000475
0.000350
0.000425
0.000242
0.000192
0.000057
0.000231
0.000437
0.000234
0.000215
0.000288
0.000225
0.000247
0.000598
0.000336
0.000330
0.000233
0.000266
0.000261
0.000240
0.000509
0.000336
0.000235
0.000241
0.000430
0.001629
0.000270
0.000237
0.000527
0.000246
0.000275
0.000277
0.000258
0.000345
0.000554
0.000375
0.000264
0.000057
0.000208
0.000235
0.000239
0.000245
0.000421
0.000305
0.000292
0.000219
0.000361
0.000585
0.000304
0.000261
0.000243
0.000240
0.000247
0.000268
0.000256
0.000254
0.000239
0.000343
0.000288
0.000314
0.001863
0.000237
0.000261
0.000257
0.000281
0.000347
0.000413
0.000718
0.000503
0.000057
0.000232
0.000332
0.000300
0.000417
0.000395
0.000193
0.000263
0.000291
0.000499
0.000459
0.000229
0.000240
0.000240
0.000269
0.000264
0.000228
0.000260
0.000269
0.000270
0.000258
0.000266
0.000406
0.000719
0.001282
0.000326
0.000432
0.000420
0.000238
0.000420
0.000435
0.000331
0.000056
0.000233
0.000380
0.000282
0.000200
0.000231
0.000245
0.000419
0.000231
0.000233
0.000352
0.000477
0.000369
0.000281
0.000263
0.000265
0.000247
0.000354
0.000407
0.000335
0.000243
0.000247
0.000429
0.000844
0.001428
0.000221
0.000433
0.000320
0.000216
0.000295
0.000423
0.000265
0.000058
0.000174
0.000233
0.000247
0.000253
0.000251
0.000234
0.000253
0.000330
0.000452
0.000303
0.000401
0.000412
0.000260
0.000587
0.000244
0.000244
0.000271
0.000268
0.000227
0.000343
0.000225
0.000244
0.000267
0.000435
0.000457
0.001679
0.000258
0.000246
0.000249
0.000275
0.000180
0.000057
0.000281
0.000506
0.000348
0.000194
0.000260
0.000233
0.000256
0.000244
0.000268
0.000241
0.000221
0.000263
0.000407
0.000512
0.000418
0.000262
0.000260
0.000244
0.000341
0.000380
0.000385
0.000334
0.000359
0.000400
0.000245
0.000255
0.000268
0.000276
0.001789
0.000243
0.000207
0.000056
0.000207
0.000216
0.000260
0.000291
0.000334
0.000556
0.000301
0.000215
0.000283
0.000241
0.000245
0.000251
0.000524
0.000445
0.000487
0.000268
0.000274
0.000256
0.000426
0.000461
0.000351
0.000410
0.000577
0.000359
0.000237
0.000246
0.000279
0.000238
0.000263
0.001721
0.000352
0.000057
0.000233
0.000326
0.000207
0.000234
0.000256
0.000253
0.000256
0.000473
0.000377
0.000310
0.000291
0.000302
0.000366
0.000676
0.000264
0.000243
0.000253
0.000250
0.000253
0.000271
0.000274
0.000248
0.000251
0.000269
0.000314
0.000350
0.000401
0.000357
0.000245
0.000249
0.000196
0.000057
0.000446
0.000258
0.000485
0.000259
0.000203
0.000248
0.000248
0.000252
0.000244
0.000226
0.000246
0.000279
0.000297
0.000431
0.000511
0.000407
0.000328
0.000315
0.000379
0.000345
0.000315
0.000218
0.000249
0.000257
0.001754
0.000244
0.001732
0.000935
0.000428
0.000298
0.000179
0.000056
0.000212
0.000234
0.000235
0.000240
0.000271
0.000257
0.000234
0.000254
0.000239
0.000290
0.000423
0.000453
0.000284
0.000386
0.000232
0.000262
0.000252
0.000301
0.000221
0.000245
0.000254
0.000265
0.001819
0.000238
0.000253
0.000259
0.000276
0.000268
0.001875
0.000548
0.000233
0.000058
0.000202
0.000225
0.000238
0.000236
0.000257
0.000248
0.000240
0.000254
0.000253
0.000382
0.000598
0.000270
0.000394
0.000215
0.000250
0.000253
0.000327
0.000440
0.000366
0.000257
0.001782
0.000248
0.000246
0.000258
0.000258
0.000266
0.000255
0.000239
0.000330
0.000363
0.000313
0.000057
0.000272
0.000197
0.000244
0.000268
0.000241
0.000241
0.000257
0.000255
0.000235
0.000268
0.000233
0.000261
0.000461
0.000331
0.000331
0.000287
0.000454
0.000235
0.000256
0.000250
0.000258
0.000257
0.000282
0.000257
0.000276
0.001798
0.000223
0.000252
0.000273
0.000240
0.000195
0.000057
0.000255
0.000371
0.000227
0.000224
0.000244
0.000231
0.000238
0.000261
0.000241
0.000228
0.000231
0.000262
0.000264
0.000429
0.000340
0.000379
0.000256
0.000248
0.000254
0.000246
0.000266
0.000258
0.000250
0.000272
0.000253
0.000256
0.000323
0.001626
0.000255
0.000240
0.000194
0.000056
0.000209
0.000232
0.000256
0.000256
0.000342
0.000336
0.000410
0.000321
0.000230
0.000250
0.000269
0.000234
0.000246
0.000254
0.000260
0.000259
0.000263
0.000238
0.000259
0.000255
0.000263
0.000274
0.000250
0.000236
0.000241
0.000276
0.000279
0.000257
0.000259
0.000270
0.000184
0.000056
0.000220
0.000232
0.000260
0.000274
0.000254
0.000217
0.000237
0.000264
0.000278
0.000248
0.000223
0.000250
0.000254
0.000250
0.000296
0.000236
0.000256
0.000247
0.000299
0.000248
0.000280
0.000318
0.000267
0.000224
0.000298
0.000252
0.000272
0.000244
0.000292
0.000433
0.000687
0.000057
0.000216
0.000293
0.000224
0.000221
0.000237
0.000256
0.000239
0.000249
0.000252
0.000246
0.000280
0.000309
0.000617
0.000285
0.001574
0.000227
0.000491
0.000229
0.000283
0.000449
0.000440
0.000357
0.000238
0.000278
0.000245
0.000259
0.000281
0.000256
0.000314
0.000269
0.000169
0.000058
0.000370
0.000404
0.000346
0.000305
0.000230
0.000271
0.000221
0.000242
0.000237
0.000245
0.000253
0.000256
0.000231
0.000281
0.000366
0.000493
0.000376
0.001801
0.000234
0.000252
0.000346
0.000407
0.000464
0.000290
0.000308
0.000329
0.000299
0.000223
0.000235
0.000248
0.000198
0.000056
0.000227
0.000222
0.000235
0.000281
0.000357
0.000498
0.000300
0.000257
0.000256
0.000215
0.000248
0.000268
0.000263
0.000265
0.000244
0.000258
0.000277
0.000522
0.000323
0.000451
0.000231
0.001753
0.000315
0.000574
0.000597
0.000313
0.000316
0.000226
0.000255
0.000273
0.000446
0.000057
0.000208
0.000278
0.000213
0.000347
0.000319
0.000554
0.000343
0.000204
0.000274
0.000286
0.000218
0.000258
0.000251
0.000300
0.000306
0.000236
0.000237
0.000396
0.000514
0.000281
0.000494
0.001855
0.000247
0.000474
0.000459
0.000362
0.000232
0.000261
0.000284
0.000258
0.000211
0.000057
0.000215
0.000333
0.000365
0.000374
0.000363
0.000279
0.000393
0.000199
0.000236
0.000256
0.000277
0.000220
0.000249
0.000255
0.000253
0.000258
0.000327
0.000443
0.000436
0.000380
0.000288
0.000231
0.000255
0.001728
0.000448
0.000444
0.000727
0.000221
0.000258
0.000317
0.000159
0.000056
0.000197
0.000296
0.000285
0.000234
0.000288
0.000313
0.000503
0.000258
0.000233
0.000540
0.000219
0.000256
0.000261
0.000276
0.000278
0.000263
0.000212
0.000282
0.000550
0.000426
0.000260
0.000235
0.000255
0.000250
0.000264
0.000262
0.000237
0.000262
0.000265
0.000286
0.000187
0.000057
0.000272
0.000361
0.000204
0.000261
0.000266
0.000238
0.000246
0.000282
0.000239
0.000248
0.000280
0.000329
0.000417
0.000425
0.000328
0.000286
0.000217
0.000232
0.000264
0.000257
0.000288
0.000258
0.000241
0.000257
0.000277
0.000288
0.000396
0.000427
0.000351
0.000237
0.000178
0.000057
0.000218
0.000210
0.000283
0.000242
0.000234
0.000274
0.000262
0.000235
0.000490
0.000219
0.000253
0.000262
0.000240
0.000259
0.000273
0.000298
0.000238
0.000355
0.000217
0.000236
0.000256
0.000275
0.000249
0.000275
0.000273
0.000264
0.000261
0.000250
0.000264
0.000508
0.000153
0.000058
0.000215
0.000236
0.000248
0.000287
0.000200
0.000246
0.000366
0.000409
0.000234
0.000233
0.000250
0.000259
0.000237
0.000292
0.000470
0.001737
0.000222
0.000265
0.000288
0.000328
0.000409
0.000365
0.000366
0.000421
0.000358
0.000413
0.000230
0.000274
0.000271
0.000279
0.001402
0.000058
0.000424
0.000261
0.000272
0.000224
0.000235
0.000247
0.000232
0.000255
0.000247
0.000266
0.000249
0.000262
0.000250
0.000252
0.000588
0.001620
0.000241
0.000229
0.000245
0.000265
0.000241
0.000263
0.000368
0.000391
0.000300
0.000341
0.000217
0.000273
0.000280
0.000262
0.000185
0.000058
0.001207
0.000503
0.000352
0.000263
0.000235
0.000225
0.000232
0.000238
0.000494
0.000216
0.000238
0.000255
0.000334
0.000533
0.000391
0.000351
0.000258
0.000224
0.000328
0.000359
0.000267
0.000258
0.000271
0.000251
0.000272
0.000540
0.000589
0.000254
0.000265
0.000262
0.000167
0.000057
0.000214
0.000226
0.000240
0.000244
0.001526
0.000251
0.000222
0.000252
0.000257
0.000233
0.000252
0.000254
0.000244
0.000265
0.000271
0.000268
0.000477
0.000620
0.000275
0.001750
0.000246
0.000290
0.000303
0.000454
0.000508
0.000407
0.000257
0.000245
0.000258
0.000267
0.000192
0.000056
0.000233
0.000236
0.000231
0.000310
0.001268
0.000232
0.000254
0.000258
0.000241
0.000234
0.000241
0.000252
0.000279
0.000247
0.000248
0.000345
0.000425
0.000401
0.000319
0.000263
0.000262
0.000280
0.000250
0.000231
0.000289
0.000260
0.000248
0.000277
0.000267
0.000354
0.000574
0.000059
0.000224
0.000240
0.000242
0.000255
0.000264
0.000240
0.000246
0.000252
0.000268
0.000279
0.001423
0.000220
0.000232
0.000250
0.000249
0.000243
0.000294
0.000243
0.000284
0.000241
0.000291
0.000465
0.000534
0.000312
0.000227
0.000273
0.001771
0.000265
0.000247
0.000325
0.000478
0.000058
0.000181
0.000404
0.000454
0.000502
0.000510
0.000537
0.001510
0.000406
0.000523
0.000652
0.000552
0.000635
0.000567
0.000619
0.000579
0.001890
0.000347
0.000493
0.000401
0.000310
0.000222
0.000279
0.000297
0.000257
0.000248
0.000296
0.000296
0.000278
0.000263
0.000288
0.001371
0.000056
0.000195
0.000223
0.000247
0.000236
0.000260
0.000263
0.000230
0.000242
0.000248
0.000252
0.000246
0.000235
0.000252
0.000260
0.000268
0.000261
0.001820
0.000254
0.000269
0.000243
0.000260
0.000267
0.000284
0.000285
0.000336
0.000454
0.000371
0.000215
0.000268
0.000283
0.000205
0.000057
0.000196
0.001365
0.000335
0.000275
0.000246
0.000239
0.000241
0.000241
0.000231
0.000242
0.000216
0.000243
0.000251
0.000510
0.000377
0.000286
0.000245
0.001830
0.000341
0.000224
0.000259
0.000262
0.000268
0.000287
0.000239
0.000283
0.000267
0.000274
0.000248
0.000322
0.000202
0.000056
0.000214
0.000243
0.000252
0.001452
0.000202
0.000248
0.000251
0.000243
0.000236
0.000275
0.000243
0.000249
0.000245
0.000282
0.000238
0.000256
0.000262
0.000268
0.000271
0.000253
0.000264
0.001774
0.000260
0.001768
0.000266
0.000258
0.000251
0.000275
0.000265
0.000275
0.000198
0.000056
0.000204
0.000242
0.001346
0.000231
0.000248
0.000245
0.000255
0.000254
0.000247
0.000253
0.000254
0.000241
0.000259
0.000263
0.000255
0.000267
0.000260
0.000294
0.000288
0.000220
0.001889
0.000227
0.001836
0.000235
0.000265
0.000275
0.000235
0.000239
0.000265
0.000268
0.000193
0.000056
0.001470
0.000205
0.000223
0.000267
0.000213
0.000246
0.000370
0.000287
0.000230
0.000258
0.000253
0.000259
0.000243
0.000424
0.000360
0.000272
0.000224
0.000277
0.000257
0.000251
0.000270
0.000343
0.000230
0.000247
0.000266
0.000281
0.000271
0.000328
0.000663
0.000353
0.000197
0.000057
0.000209
0.000257
0.000247
0.000310
0.000364
0.000249
0.001701
0.000299
0.000283
0.000267
0.000247
0.000284
0.000271
0.000254
0.000310
0.000307
0.000320
0.000627
0.000334
0.000262
0.000302
0.000277
0.000260
0.000274
0.000331
0.000252
0.000272
0.000237
0.000264
0.000308
0.000423
0.000058
0.000259
0.000464
0.000265
0.000267
0.000253
0.000223
0.000221
0.000248
0.000259
0.000276
0.001504
0.000208
0.000233
0.000249
0.000248
0.000285
0.000286
0.000238
0.000256
0.000265
0.000268
0.000298
0.000604
0.000320
0.000269
0.000288
0.000269
0.000254
0.000233
0.000318
0.000176
0.000056
0.000200
0.000232
0.000437
0.000309
0.000424
0.000222
0.000213
0.000251
0.000255
0.000242
0.000238
0.000256
0.000255
0.000270
0.000250
0.000228
0.000365
0.001241
0.000243
0.000250
0.000277
0.000246
0.000358
0.000415
0.000253
0.000320
0.000584
0.000355
0.000395
0.000208
0.000189
0.000057
0.000218
0.000244
0.000258
0.000264
0.000259
0.000240
0.000344
0.000373
0.000467
0.000289
0.000360
0.000399
0.000386
0.000363
0.000255
0.000239
0.000241
0.000259
0.000425
0.000427
0.001270
0.000233
0.000269
0.000274
0.000229
0.000237
0.000274
0.000325
0.000398
0.000460
0.000226
0.000057
0.000210
0.000249
0.000255
0.000240
0.000241
0.000250
0.000235
0.000265
0.000298
0.000361
0.000430
0.000353
0.000261
0.000227
0.000248
0.000268
0.000245
0.000259
0.000268
0.000270
0.000426
0.000286
0.000309
0.000440
0.000318
0.000250
0.000272
0.000274
0.000268
0.000323
0.000160
0.000057
0.000310
0.000310
0.000285
0.000467
0.000343
0.000404
0.000239
0.000242
0.000249
0.000266
0.000257
0.000264
0.000235
0.000254
0.000242
0.000225
0.000261
0.000407
0.000425
0.000383
0.000222
0.000270
0.000247
0.000246
0.000271
0.000288
0.000259
0.000281
0.000266
0.000257
0.000330
0.000058
0.000246
0.000362
0.000237
0.000264
0.000227
0.000248
0.000245
0.000252
0.000267
0.000253
0.000258
0.000227
0.000277
0.000533
0.000425
0.000276
0.000240
0.000250
0.000252
0.000266
0.000257
0.000266
0.000257
0.000262
0.000271
0.000338
0.000365
0.000626
0.000407
0.000255
0.000166
0.000057
0.000400
0.000194
0.000225
0.000244
0.000251
0.000245
0.000233
0.000254
0.000261
0.000257
0.000218
0.000249
0.000273
0.000218
0.000238
0.000275
0.000263
0.000250
0.000299
0.000241
0.000259
0.000256
0.000274
0.000259
0.000269
0.000235
0.000261
0.000277
0.000258
0.000280
0.000199
0.000077
0.000179
0.000235
0.000246
0.000251
0.000224
0.000265
0.000255
0.000242
0.000262
0.000275
0.000230
0.000231
0.000259
0.000400
0.000250
0.000297
0.000248
0.000265
0.000249
0.000284
0.000271
0.000231
0.000240
0.000261
0.000268
0.000275
0.000256
0.000248
0.000271
0.000261
0.000223
0.000057
0.000196
0.000358
0.000366
0.000283
0.000292
0.000260
0.000260
0.000263
0.000223
0.000245
0.000276
0.000244
0.000237
0.000255
0.000238
0.000284
0.000239
0.000273
0.000243
0.000264
0.000277
0.000261
0.000281
0.000253
0.000297
0.000228
0.000256
0.000269
0.000287
0.000242
0.000194
0.000058
0.000193
0.000235
0.000263
0.000267
0.000251
0.000443
0.000207
0.000272
0.000251
0.000474
0.000474
0.000281
0.000231
0.000244
0.000279
0.000259
0.000233
0.000274
0.000253
0.000269
0.000269
0.000258
0.000260
0.000243
0.000555
0.000486
0.000296
0.000295
0.000263
0.000259
0.000192
0.000058
0.000213
0.000214
0.000247
0.000251
0.000371
0.000582
0.000328
0.000388
0.000207
0.000250
0.000247
0.000258
0.000247
0.000251
0.000257
0.000267
0.000272
0.000264
0.000650
0.000417
0.000229
0.000242
0.000258
0.000279
0.000283
0.000256
0.000265
0.000284
0.000234
0.000327
0.000300
0.000058
0.000304
0.000236
0.000237
0.000239
0.000254
0.000260
0.000214
0.000253
0.000242
0.000256
0.000253
0.000247
0.000243
0.000375
0.000587
0.000383
0.000252
0.000267
0.000252
0.000242
0.000269
0.000290
0.000477
0.000216
0.000266
0.000639
0.000352
0.000516
0.000243
0.000247
0.000190
0.000058
0.000208
0.000222
0.000246
0.000241
0.000256
0.000260
0.000352
0.000393
0.000591
0.000414
0.000216
0.000260
0.000280
0.000272
0.000257
0.000244
0.000237
0.000247
0.000260
0.000317
0.000406
0.000665
0.000363
0.000258
0.000350
0.000377
0.000490
0.000248
0.000258
0.000471
0.000330
0.000057
0.000231
0.000234
0.000433
0.000219
0.000229
0.000260
0.000259
0.000259
0.000230
0.000243
0.000268
0.000396
0.000381
0.000328
0.000225
0.000249
0.000266
0.000254
0.000260
0.000277
0.000273
0.000254
0.000248
0.000271
0.000305
0.000497
0.000521
0.000203
0.000261
0.000269
0.000197
0.000057
0.000210
0.000248
0.000231
0.000242
0.000249
0.000266
0.000408
0.000443
0.000344
0.000266
0.000377
0.000226
0.000246
0.000267
0.000255
0.000236
0.000259
0.000258
0.000296
0.000394
0.000464
0.000353
0.000479
0.000267
0.000385
0.000415
0.000384
0.000244
0.000258
0.000333
0.000387
0.000058
0.000265
0.000275
0.000221
0.000257
0.000257
0.000256
0.000252
0.000246
0.000272
0.000241
0.000240
0.000380
0.000430
0.000365
0.000374
0.000224
0.000269
0.000266
0.000266
0.000235
0.000246
0.000255
0.000266
0.000280
0.000288
0.000312
0.000495
0.000476
0.000232
0.000287
0.000187
0.000057
0.000199
0.000246
0.000268
0.000248
0.000246
0.000338
0.000496
0.000480
0.000355
0.000690
0.000267
0.000208
0.000241
0.000264
0.000244
0.000265
0.000280
0.000277
0.000469
0.000444
0.001493
0.000309
0.000261
0.000283
0.000272
0.000262
0.000532
0.000296
0.000337
0.000303
0.000184
0.000058
0.000171
0.000230
0.000246
0.000263
0.000235
0.000244
0.000302
0.000224
0.000244
0.000328
0.000332
0.000381
0.000282
0.000323
0.000393
0.000346
0.000245
0.000256
0.000266
0.000254
0.000245
0.000249
0.000307
0.000223
0.000326
0.000431
0.000433
0.000286
0.000249
0.000268
0.000186
0.000057
0.000217
0.000247
0.000255
0.000255
0.000243
0.000234
0.000475
0.000210
0.000252
0.000236
0.000249
0.000243
0.000263
0.000257
0.000267
0.000251
0.000260
0.000302
0.000239
0.000251
0.000286
0.000262
0.000295
0.000244
0.000265
0.000297
0.000251
0.000265
0.000261
0.000271
0.000174
0.000057
0.000221
0.000243
0.000409
0.000304
0.000379
0.000247
0.000240
0.000250
0.000261
0.000246
0.000245
0.000255
0.000267
0.000260
0.000238
0.000240
0.000273
0.000249
0.000253
0.000395
0.000441
0.000366
0.000227
0.000264
0.000264
0.000258
0.000265
0.000256
0.000270
0.000280
0.000198
0.000057
0.000296
0.000374
0.000442
0.000211
0.000255
0.000251
0.000414
0.000222
0.000230
0.000254
0.000258
0.000291
0.000363
0.000426
0.001875
0.000244
0.000247
0.000246
0.000283
0.000239
0.000377
0.000386
0.000718
0.000204
0.000231
0.000271
0.000275
0.000420
0.000284
0.000277
0.000161
0.000058
0.000217
0.000316
0.000328
0.000330
0.000499
0.000196
0.000255
0.000242
0.000249
0.000238
0.000262
0.000245
0.000261
0.000306
0.000409
0.000485
0.000234
0.000238
0.000260
0.000260
0.000264
0.000315
0.000235
0.000283
0.000275
0.000491
0.000463
0.000385
0.000478
0.000229
0.000213
0.000057
0.000230
0.000219
0.000261
0.000232
0.000245
0.000253
0.000265
0.000294
0.000324
0.000364
0.000446
0.000353
0.000199
0.000263
0.000275
0.000285
0.000298
0.000234
0.000279
0.000264
0.000238
0.000302
0.000473
0.000377
0.000283
0.000265
0.000259
0.000458
0.000391
0.000305
0.000187
0.000057
0.000199
0.000324
0.000270
0.000440
0.000345
0.000207
0.000233
0.000266
0.000252
0.000267
0.000253
0.000247
0.000231
0.000261
0.000257
0.000281
0.000429
0.000353
0.000305
0.000325
0.000488
0.000225
0.000284
0.000271
0.000301
0.000283
0.000254
0.000275
0.000494
0.000459
0.000222
0.000056
0.000212
0.000227
0.000255
0.000247
0.000239
0.000478
0.000218
0.000251
0.000268
0.000324
0.000495
0.000592
0.000204
0.000240
0.000246
0.000251
0.000257
0.000265
0.000244
0.000250
0.000285
0.000241
0.000356
0.000482
0.000310
0.000400
0.000284
0.000324
0.000309
0.000253
0.000188
0.000058
0.000208
0.000231
0.000254
0.000491
0.000320
0.000296
0.000256
0.000226
0.000247
0.000259
0.000252
0.000260
0.000279
0.000234
0.000241
0.000260
0.000247
0.000244
0.000272
0.000394
0.000414
0.000472
0.000233
0.000244
0.000304
0.000253
0.000263
0.000258
0.000264
0.000258
0.000202
0.000057
0.000268
0.000356
0.000480
0.000233
0.000226
0.000245
0.000337
0.000459
0.000264
0.000212
0.000243
0.000275
0.000258
0.000464
0.000460
0.000271
0.000224
0.000225
0.000254
0.000264
0.000274
0.000285
0.000238
0.000279
0.000252
0.000313
0.000349
0.000443
0.000315
0.000254
0.000178
0.000058
0.000233
0.000238
0.000251
0.000253
0.000253
0.000262
0.000230
0.000267
0.000251
0.000236
0.000264
0.000243
0.000285
0.001439
0.000221
0.000247
0.000264
0.000241
0.000274
0.000284
0.000259
0.000239
0.000277
0.000258
0.000268
0.000263
0.000271
0.000277
0.000271
0.000255
0.000194
0.000057
0.000188
0.000222
0.000253
0.000266
0.000224
0.000245
0.000254
0.000262
0.000230
0.000244
0.000248
0.000264
0.000255
0.000254
0.000274
0.000244
0.000243
0.000262
0.000276
0.000249
0.000257
0.000261
0.000246
0.000249
0.001309
0.000270
0.000573
0.000386
0.000384
0.000238
0.000193
0.000056
0.000213
0.000227
0.000242
0.000253
0.000423
0.000229
0.000242
0.000242
0.000252
0.000392
0.000411
0.000346
0.000238
0.000233
0.000261
0.000255
0.000259
0.000267
0.000244
0.000262
0.000254
0.000276
0.000232
0.000450
0.000508
0.000430
0.000226
0.000270
0.001369
0.000244
0.000206
0.000056
0.000279
0.000571
0.000193
0.000269
0.000226
0.000210
0.000232
0.000249
0.000261
0.000253
0.000244
0.000262
0.000297
0.000319
0.000527
0.000341
0.000337
0.000221
0.000247
0.000258
0.000266
0.000285
0.000250
0.000267
0.000270
0.000257
0.000292
0.000578
0.000412
0.000353
0.000142
0.000057
0.000188
0.000232
0.001262
0.000426
0.000302
0.000468
0.000394
0.000463
0.000263
0.000348
0.000220
0.000229
0.000260
0.000255
0.000252
0.000265
0.000352
0.000492
0.000374
0.000382
0.000264
0.000236
0.000273
0.000496
0.000233
0.000262
0.000253
0.000284
0.000275
0.000591
0.000326
0.000057
0.000374
0.000313
0.000234
0.000228
0.001539
0.000499
0.000302
0.000234
0.000237
0.000253
0.000235
0.000237
0.000246
0.000273
0.000245
0.000254
0.000245
0.000260
0.000403
0.000400
0.000456
0.000238
0.000254
0.000255
0.000262
0.000275
0.000268
0.000245
0.000262
0.000279
0.000196
0.000058
0.000428
0.000294
0.000213
0.000238
0.000251
0.000240
0.000256
0.000241
0.000241
0.000226
0.001399
0.000494
0.000250
0.000255
0.000232
0.000256
0.000276
0.000257
0.000238
0.000306
0.000245
0.000250
0.000254
0.000432
0.000411
0.000456
0.000225
0.000268
0.000279
0.000278
0.000172
0.000058
0.000188
0.000413
0.000220
0.000238
0.000422
0.000353
0.000449
0.000244
0.000459
0.000216
0.000226
0.000253
0.000262
0.000267
0.000253
0.001406
0.000377
0.000283
0.000240
0.000271
0.000308
0.000221
0.000253
0.000253
0.000261
0.000268
0.000423
0.000480
0.000300
0.000276
0.000146
0.000058
0.000216
0.000236
0.000259
0.000237
0.000226
0.000264
0.000240
0.000247
0.000280
0.000338
0.000517
0.000241
0.000266
0.000230
0.000246
0.000275
0.000270
0.000261
0.000272
0.000230
0.000260
0.000337
0.001229
0.000243
0.000249
0.000262
0.000264
0.000266
0.000257
0.000263
0.000184
0.000058
0.000242
0.000335
0.000340
0.000356
0.000242
0.000245
0.000284
0.000273
0.000240
0.000253
0.000240
0.000263
0.000245
0.000247
0.000261
0.000264
0.000267
0.000265
0.000269
0.000248
0.000254
0.000272
0.000256
0.000286
0.000288
0.000269
0.000268
0.000261
0.000258
0.000454
0.001364
0.000056
0.000204
0.000255
0.000220
0.000262
0.000231
0.000256
0.000247
0.000223
0.000248
0.000251
0.000276
0.000258
0.000254
0.000239
0.000275
0.000217
0.001729
0.000262
0.000241
0.000259
0.000245
0.000257
0.000277
0.000258
0.000295
0.000234
0.000272
0.000272
0.000268
0.000265
0.000213
0.000058
0.000274
0.000303
0.001342
0.000223
0.000227
0.000246
0.000254
0.000247
0.000288
0.000232
0.000234
0.000357
0.000382
0.000508
0.000211
0.000219
0.000255
0.000257
0.000277
0.000244
0.000246
0.000276
0.000265
0.000281
0.000256
0.000416
0.000332
0.000385
0.000310
0.000237
0.000211
0.000057
0.000236
0.000232
0.000244
0.000245
0.000281
0.000204
0.000233
0.000337
0.000341
0.001342
0.000264
0.000218
0.000243
0.000280
0.000240
0.000292
0.000236
0.000246
0.000316
0.000391
0.000375
0.000295
0.000242
0.000244
0.000281
0.000310
0.000230
0.000296
0.000267
0.000299
0.000173
0.000057
0.000200
0.000459
0.000363
0.000214
0.000238
0.000233
0.000266
0.000263
0.000259
0.000248
0.000227
0.000252
0.000447
0.000505
0.000464
0.001468
0.000236
0.000285
0.000314
0.000350
0.000473
0.000476
0.000442
0.000379
0.000235
0.000260
0.000267
0.000273
0.000278
0.000262
0.000206
0.000056
0.000191
0.000292
0.000457
0.000449
0.000337
0.000235
0.000252
0.000239
0.000239
0.000272
0.000245
0.000257
0.000274
0.000232
0.000266
0.000291
0.000385
0.000427
0.000344
0.001331
0.000265
0.000258
0.000252
0.000265
0.000444
0.000455
0.000390
0.000244
0.000273
0.000274
0.000190
0.000057
0.000207
0.000238
0.000242
0.000269
0.000228
0.000269
0.000450
0.000431
0.000333
0.000216
0.000241
0.000259
0.000278
0.000285
0.000236
0.000257
0.000272
0.000248
0.000285
0.000285
0.000445
0.000415
0.000324
0.001349
0.000411
0.000242
0.000258
0.000514
0.000357
0.000436
0.000222
0.000057
0.000196
0.000234
0.000249
0.000247
0.000253
0.000253
0.001697
0.000247
0.000201
0.000232
0.000257
0.000249
0.000253
0.000327
0.000329
0.000284
0.000271
0.000284
0.000545
0.000378
0.000310
0.000283
0.000242
0.000237
0.001494
0.000340
0.000419
0.000481
0.000304
0.000303
0.000175
0.000057
0.000204
0.000255
0.000256
0.000254
0.000245
0.000263
0.001705
0.000240
0.000243
0.000257
0.000323
0.000401
0.001461
0.000354
0.000391
0.000244
0.000254
0.000233
0.000270
0.000274
0.001581
0.000538
0.000394
0.000281
0.000233
0.000251
0.000260
0.000285
0.000249
0.000247
0.000196
0.000056
0.000212
0.000237
0.000271
0.000238
0.000269
0.000274
0.000275
0.000264
0.000239
0.000256
0.000252
0.000247
0.000292
0.000236
0.000257
0.001499
0.000280
0.000229
0.000273
0.000272
0.000268
0.000261
0.001482
0.000292
0.000204
0.000225
0.000276
0.000254
0.000405
0.000237
0.000199
0.000056
0.000193
0.000252
0.000227
0.000242
0.000239
0.000233
0.000233
0.001695
0.000262
0.000215
0.000354
0.000262
0.000233
0.000220
0.000256
0.001391
0.000232
0.000261
0.000272
0.000242
0.000267
0.000346
0.000291
0.001328
0.000277
0.000220
0.000255
0.000264
0.001393
0.000269
0.000195
0.000057
0.000315
0.000290
0.000203
0.000231
0.000269
0.000232
0.000283
0.000249
0.000266
0.000245
0.000259
0.000264
0.000255
0.000253
0.000310
0.001521
0.000227
0.000269
0.000250
0.000243
0.000284
0.000262
0.000244
0.001512
0.000345
0.000239
0.000273
0.001279
0.000270
0.000241
0.000207
0.000057
0.000265
0.000372
0.000348
0.000194
0.000232
0.000241
0.000263
0.000257
0.000262
0.000272
0.000234
0.000259
0.000260
0.000295
0.000395
0.001224
0.000235
0.000247
0.000267
0.000275
0.000228
0.000236
0.000254
0.000327
0.001304
0.000234
0.000232
0.000258
0.000259
0.001340
0.000344
0.000057
0.000332
0.000275
0.000202
0.000249
0.000218
0.000261
0.000237
0.000247
0.000312
0.000226
0.000241
0.000248
0.000242
0.000340
0.000397
0.001482
0.000223
0.000245
0.000299
0.000514
0.000297
0.000435
0.001294
0.000308
0.000226
0.000270
0.000249
0.001307
0.000299
0.000470
0.000393
0.000057
0.000206
0.000253
0.000247
0.000255
0.000254
0.000258
0.000269
0.000262
0.000248
0.000268
0.000358
0.000369
0.001385
0.000234
0.000276
0.000263
0.000276
0.000240
0.000223
0.000237
0.000368
0.001221
0.000250
0.000250
0.000250
0.000255
0.001552
0.000366
0.000499
0.000217
0.000198
0.000057
0.000217
0.000217
0.000251
0.000241
0.000247
0.000267
0.000240
0.000287
0.000407
0.000485
0.000258
0.001501
0.000205
0.000244
0.000268
0.000249
0.000268
0.000346
0.001634
0.000250
0.000389
0.000339
0.001312
0.000338
0.000297
0.000329
0.000270
0.000246
0.000263
0.000283
0.000179
0.000056
0.000216
0.000251
0.000322
0.000247
0.000290
0.000593
0.000255
0.000283
0.001479
0.000235
0.000377
0.000273
0.000224
0.000353
0.000347
0.001316
0.000258
0.000244
0.000238
0.000259
0.001529
0.000384
0.000291
0.000263
0.000263
0.000246
0.000470
0.000323
0.000257
0.000226
0.000266
0.000057
0.000255
0.000437
0.000288
0.000233
0.000227
0.001532
0.000196
0.000260
0.000268
0.000274
0.000268
0.000241
0.000285
0.001505
0.000270
0.000211
0.000432
0.001193
0.000330
0.000477
0.000377
0.000236
0.000235
0.000251
0.000303
0.000225
0.000449
0.000226
0.000265
0.000284
0.000200
0.000057
0.000220
0.000229
0.000387
0.000336
0.001322
0.000278
0.000338
0.000225
0.000223
0.000251
0.000249
0.000323
0.001492
0.000257
0.000221
0.000252
0.001390
0.000295
0.000399
0.000477
0.000342
0.000227
0.000269
0.000241
0.000271
0.000272
0.000255
0.000267
0.000275
0.000249
0.000205
0.000057
0.000203
0.000414
0.001453
0.000204
0.000272
0.000302
0.000218
0.000248
0.000259
0.000351
0.001432
0.000221
0.000249
0.000259
0.000255
0.001298
0.000653
0.000296
0.000328
0.000414
0.000304
0.000248
0.000263
0.000258
0.000271
0.000291
0.000276
0.000343
0.000364
0.000447
0.001404
0.000057
0.000190
0.000238
0.000247
0.000223
0.000285
0.000364
0.000518
0.001268
0.000251
0.000237
0.000249
0.001399
0.000454
0.000347
0.000223
0.000410
0.000252
0.000232
0.000266
0.000293
0.000248
0.000260
0.000279
0.000257
0.000240
0.000271
0.000446
0.000483
0.001516
0.000222
0.000192
0.000057
0.000213
0.000255
0.000346
0.000546
0.001236
0.000314
0.000218
0.000258
0.000249
0.000254
0.000250
0.000284
0.000352
0.000515
0.000296
0.000235
0.000263
0.000271
0.000241
0.000310
0.000233
0.000261
0.000256
0.000267
0.000254
0.000316
0.000604
0.000284
0.000334
0.001415
0.000168
0.000057
0.000195
0.000233
0.000250
0.000500
0.000318
0.000312
0.000315
0.000345
0.000278
0.000256
0.000239
0.000262
0.000251
0.000311
0.000235
0.000260
0.000626
0.000282
0.000287
0.000385
0.000281
0.000401
0.000241
0.000229
0.000265
0.000259
0.000258
0.000284
0.000318
0.000553
0.000281
0.000057
0.000198
0.001416
0.000215
0.000340
0.000405
0.000428
0.000469
0.000229
0.000210
0.000242
0.000266
0.000249
0.000281
0.000251
0.000261
0.000273
0.000240
0.001368
0.000262
0.000239
0.000257
0.000277
0.000272
0.000279
0.000281
0.000241
0.000273
0.000247
0.000320
0.000389
0.000296
0.000056
0.000204
0.000245
0.000236
0.001502
0.000326
0.000244
0.000220
0.000249
0.000228
0.000248
0.000250
0.000278
0.000246
0.000247
0.000300
0.000226
0.000246
0.000269
0.000251
0.000260
0.001431
0.000226
0.000256
0.000269
0.000266
0.000266
0.000254
0.000253
0.000280
0.000495
0.000347
0.000056
0.000208
0.000230
0.000396
0.000283
0.000243
0.000255
0.001529
0.000362
0.000286
0.000212
0.000259
0.000314
0.000337
0.000225
0.000224
0.000254
0.000244
0.000263
0.000267
0.000273
0.000481
0.000466
0.001200
0.000228
0.000226
0.000258
0.000277
0.000251
0.000297
0.000243
0.000364
0.000057
0.000308
0.000310
0.000216
0.000235
0.000247
0.000240
0.000247
0.000224
0.000298
0.001605
0.000361
0.000295
0.000229
0.000255
0.000258
0.000250
0.000250
0.000281
0.000278
0.000296
0.000307
0.000473
0.000458
0.001386
0.000221
0.000274
0.000260
0.000252
0.000271
0.000302
0.000490
0.000057
0.000266
0.000265
0.000218
0.000239
0.000227
0.000238
0.000261
0.000280
0.000255
0.001595
0.000334
0.000259
0.000236
0.000262
0.000457
0.000256
0.000544
0.000376
0.000275
0.000271
0.000483
0.000471
0.001324
0.000228
0.000225
0.000260
0.001706
0.000457
0.000621
0.000315
0.000147
0.000057
0.000205
0.000232
0.000237
0.000236
0.000270
0.000229
0.000259
0.000514
0.000527
0.000366
0.000285
0.000211
0.000251
0.000261
0.000280
0.000267
0.000235
0.000240
0.000252
0.000292
0.000256
0.000384
0.001379
0.000227
0.000244
0.000271
0.001954
0.000334
0.000388
0.000339
0.000158
0.000056
0.000246
0.000237
0.000249
0.001586
0.000407
0.000212
0.000237
0.000263
0.000250
0.000277
0.000373
0.000376
0.000363
0.000276
0.000389
0.000432
0.000381
0.001210
0.000265
0.000236
0.000254
0.000265
0.000280
0.000396
0.000617
0.000457
0.000260
0.000265
0.000270
0.000279
0.000193
0.000057
0.000198
0.000228
0.000245
0.001535
0.000268
0.000225
0.000242
0.000249
0.000241
0.000257
0.000255
0.000268
0.000264
0.000278
0.000260
0.000360
0.000451
0.000327
0.001401
0.000229
0.000260
0.000257
0.000267
0.000301
0.000325
0.000491
0.000451
0.000264
0.000291
0.000223
0.000451
0.000058
0.000220
0.000239
0.000268
0.001542
0.000286
0.000221
0.000266
0.000241
0.000255
0.000254
0.000256
0.000275
0.000234
0.000251
0.000387
0.000544
0.001378
0.000745
0.000258
0.000338
0.000236
0.000250
0.000239
0.000284
0.001685
0.000798
0.000223
0.000269
0.000276
0.000286
0.000183
0.000056
0.000186
0.000234
0.000256
0.000244
0.000264
0.000263
0.000216
0.000256
0.000237
0.000244
0.000278
0.000285
0.000249
0.000248
0.000261
0.000246
0.000271
0.001600
0.000701
0.000373
0.000321
0.000237
0.000238
0.000311
0.000249
0.000252
0.000288
0.000239
0.001388
0.000423
0.000371
0.000056
0.000197
0.000229
0.000286
0.000216
0.000261
0.000232
0.000277
0.000228
0.000259
0.000259
0.000279
0.000436
0.000422
0.000323
0.000211
0.000260
0.000260
0.001394
0.000685
0.000462
0.000345
0.000277
0.000229
0.000254
0.000266
0.000263
0.000252
0.000265
0.001505
0.000387
0.000220
0.000057
0.000206
0.000232
0.000246
0.000274
0.000226
0.000248
0.000233
0.000253
0.000270
0.000258
0.000407
0.000321
0.000357
0.000214
0.000244
0.000242
0.000272
0.000254
0.001576
0.000668
0.000465
0.000274
0.000225
0.000255
0.000268
0.000258
0.000264
0.000281
0.000266
0.001387
0.000299
0.000057
0.000216
0.000224
0.000227
0.000266
0.000250
0.000260
0.000241
0.000306
0.000355
0.000431
0.000407
0.000359
0.000355
0.000227
0.000243
0.000253
0.000300
0.000238
0.000270
0.001934
0.000319
0.000244
0.000434
0.000238
0.000249
0.000264
0.000292
0.000235
0.000269
0.000279
0.000301
0.000057
0.000234
0.000273
0.000238
0.000243
0.000252
0.000252
0.000224
0.000241
0.000267
0.000269
0.000230
0.000234
0.000305
0.000473
0.000418
0.000450
0.000221
0.000264
0.000251
0.000257
0.000261
0.000273
0.001481
0.001049
0.000217
0.000254
0.000264
0.000276
0.000267
0.000250
0.000208
0.000057
0.000194
0.001353
0.000284
0.000215
0.000226
0.000254
0.000251
0.000241
0.000238
0.000267
0.000246
0.000264
0.000242
0.000395
0.000348
0.000503
0.000228
0.000252
0.000261
0.000270
0.000277
0.000225
0.000259
0.000284
0.001298
0.000689
0.000304
0.000380
0.000373
0.000405
0.000303
0.000057
0.000183
0.000280
0.000318
0.001322
0.000209
0.000246
0.000236
0.000261
0.000252
0.000259
0.000252
0.000245
0.000276
0.000337
0.000607
0.000274
0.000218
0.000279
0.000335
0.000203
0.000248
0.000281
0.000232
0.000272
0.000281
0.001527
0.000734
0.000325
0.000256
0.000268
0.000196
0.000056
0.000196
0.000231
0.000477
0.000329
0.001295
0.000242
0.000229
0.000242
0.000233
0.000246
0.000252
0.000258
0.000242
0.000229
0.000251
0.000254
0.000270
0.000236
0.000258
0.000253
0.000267
0.000269
0.000305
0.000336
0.000209
0.000279
0.000252
0.001474
0.000258
0.000239
0.000167
0.000057
0.000207
0.000236
0.000262
0.000286
0.000316
0.000374
0.000380
0.000280
0.001581
0.000240
0.000305
0.000457
0.000357
0.000235
0.000445
0.000231
0.000236
0.000261
0.000273
0.000264
0.000279
0.000270
0.000254
0.000271
0.000243
0.000412
0.000402
0.000344
0.001575
0.000212
0.000202
0.000057
0.000233
0.000244
0.000247
0.000250
0.000235
0.000247
0.000262
0.000310
0.000412
0.002032
0.000223
0.000253
0.000254
0.000258
0.000262
0.000301
0.000215
0.000262
0.000330
0.000387
0.000416
0.000376
0.001446
0.000244
0.000278
0.001970
0.000283
0.000246
0.000252
0.001532
0.000162
0.000058
0.000187
0.000556
0.000357
0.000243
0.000270
0.000216
0.000258
0.000272
0.000261
0.000226
0.000255
0.000344
0.000444
0.000323
0.000447
0.000208
0.000227
0.001576
0.000236
0.000636
0.001814
0.000299
0.000230
0.001537
0.002024
0.000738
0.000276
0.000257
0.000354
0.000482
0.000278
0.000056
0.000229
0.000236
0.000281
0.000242
0.002844
0.000290
0.001075
0.000200
0.000236
0.001589
0.001976
0.000205
0.000244
0.000430
0.000314
0.000362
0.000386
0.000493
0.000210
0.000235
0.000254
0.000261
0.000270
0.001594
0.001205
0.001418
0.000287
0.000281
0.000258
0.000327
0.000324
0.000059
0.000229
0.000213
0.000242
0.000242
0.000232
0.000241
0.000247
0.000276
0.000236
0.000245
0.000245
0.000308
0.000598
0.000303
0.000297
0.000245
0.000247
0.000278
0.000268
0.000289
0.000230
0.000262
0.001553
0.000438
0.002119
0.000237
0.000258
0.000365
0.000400
0.000389
0.000194
0.000058
0.000232
0.000356
0.000459
0.000308
0.000199
0.000228
0.000251
0.000247
0.000238
0.000240
0.000248
0.000270
0.000259
0.001615
0.001343
0.001224
0.000275
0.000243
0.000238
0.000280
0.000290
0.000273
0.000235
0.000254
0.002212
0.000252
0.000241
0.000308
0.000318
0.000308
0.000223
0.000056
0.000211
0.000373
0.000521
0.000332
0.000244
0.000229
0.000245
0.000264
0.001903
0.001413
0.000220
0.000331
0.000386
0.000409
0.000268
0.000230
0.000251
0.000273
0.000259
0.000262
0.000263
0.000261
0.000486
0.000215
0.000277
0.000268
0.000247
0.000274
0.000286
0.000245
0.000201
0.000056
0.000211
0.000245
0.000258
0.000242
0.000270
0.000251
0.001541
0.001417
0.001328
0.000231
0.000237
0.000241
0.000271
0.000256
0.000243
0.000254
0.000245
0.002109
0.000261
0.000232
0.000260
0.000264
0.000254
0.000268
0.000264
0.000254
0.000277
0.000249
0.000284
0.000248
0.000190
0.000058
0.000213
0.002657
0.001405
0.000214
0.000305
0.000326
0.000210
0.000285
0.000231
0.000243
0.000253
0.000246
0.000227
0.000252
0.000272
0.000251
0.000272
0.000260
0.000273
0.000258
0.000262
0.000282
0.000283
0.000257
0.000248
0.000243
0.000265
0.000281
0.000247
0.000274
0.000385
0.000057
0.001558
0.000239
0.001242
0.000229
0.000223
0.000238
0.000257
0.000284
0.000217
0.000279
0.000434
0.000348
0.000304
0.000212
0.000254
0.002138
0.000244
0.000246
0.000278
0.000512
0.000371
0.000287
0.000227
0.000255
0.000271
0.000243
0.000269
0.000274
0.000291
0.001594
0.001270
0.000059
0.000204
0.000220
0.000284
0.000426
0.000347
0.000279
0.000211
0.000233
0.000247
0.000259
0.000268
0.000245
0.000223
0.000257
0.000262
0.000243
0.000375
0.000555
0.000372
0.000238
0.000234
0.000275
0.000278
0.000252
0.000252
0.000245
0.000265
0.000293
0.000226
0.000325
0.000359
0.000056
0.001134
0.000255
0.000360
0.000412
0.000285
0.000224
0.000223
0.000244
0.000245
0.002288
0.000378
0.000387
0.000228
0.000373
0.000308
0.000254
0.000243
0.000259
0.000270
0.000216
0.000259
0.000329
0.000567
0.000427
0.001882
0.001288
0.000519
0.000570
0.000219
0.000289
0.000192
0.000057
0.000313
0.000270
0.000243
0.000239
0.000254
0.000231
0.000253
0.000255
0.000252
0.000251
0.000252
0.000224
0.000250
0.000296
0.000379
0.000472
0.001851
0.001413
0.000340
0.000456
0.000457
0.000270
0.000212
0.000259
0.002129
0.000554
0.000383
0.000236
0.000274
0.000282
0.000200
0.000056
0.000216
0.000238
0.000262
0.000241
0.000242
0.000354
0.000395
0.000329
0.000307
0.000225
0.000242
0.000248
0.000260
0.002105
0.000413
0.000341
0.000213
0.000257
0.000287
0.000238
0.000247
0.002468
0.000333
0.000219
0.000257
0.000256
0.000251
0.000278
0.000306
0.000255
0.000192
0.000057
0.000201
0.000301
0.000697
0.000266
0.000249
0.000225
0.000236
0.000254
0.000262
0.000256
0.001940
0.000403
0.000266
0.000274
0.000240
0.000260
0.000277
0.000239
0.002205
0.000453
0.000248
0.000238
0.000277
0.000254
0.000246
0.000257
0.000304
0.000240
0.000258
0.000256
0.000191
0.000058
0.000217
0.000243
0.000249
0.000224
0.000245
0.000261
0.000236
0.000243
0.000237
0.002178
0.000229
0.000280
0.000221
0.000426
0.000223
0.000251
0.000303
0.000269
0.000249
0.000256
0.001964
0.000276
0.000333
0.000366
0.000436
0.000402
0.000308
0.000259
0.000257
0.000253
0.000196
0.000058
0.000202
0.000249
0.000232
0.000249
0.000251
0.000327
0.000220
0.002307
0.000240
0.000235
0.000257
0.000255
0.000239
0.000275
0.000283
0.002116
0.000598
0.000226
0.000246
0.000243
0.000258
0.000263
0.000292
0.000266
0.000258
0.000257
0.000287
0.000254
0.000284
0.000241
0.000195
0.000059
0.001880
0.001369
0.000200
0.000233
0.000242
0.000254
0.000248
0.000262
0.000476
0.000284
0.002168
0.000270
0.000221
0.000273
0.000253
0.000556
0.000386
0.000293
0.000227
0.000248
0.000249
0.000264
0.000270
0.000221
0.000256
0.000266
0.000273
0.000268
0.000465
0.000514
0.000314
0.000059
0.000199
0.000246
0.000242
0.000250
0.000281
0.000239
0.000257
0.000236
0.001485
0.002110
0.000610
0.000288
0.000363
0.000702
0.000367
0.000219
0.000258
0.000248
0.000270
0.000274
0.000237
0.000246
0.000247
0.000273
0.003023
0.000318
0.000238
0.000265
0.000295
0.000366
0.000310
0.000057
0.001928
0.000234
0.000240
0.000224
0.000297
0.000433
0.000360
0.000312
0.000284
0.000223
0.000244
0.000247
0.000254
0.000274
0.000257
0.000255
0.000252
0.000284
0.001816
0.000238
0.000247
0.000253
0.000270
0.000278
0.000276
0.000256
0.001462
0.000340
0.000239
0.000260
0.000176
0.000057
0.000201
0.000233
0.000266
0.000220
0.000251
0.000242
0.000302
0.000377
0.000332
0.000365
0.000234
0.000237
0.000262
0.000327
0.000421
0.000324
0.000219
0.000253
0.000266
0.000477
0.000298
0.000504
0.000237
0.000262
0.000263
0.000245
0.000265
0.000268
0.000268
0.000270
0.000202
0.000057
0.001424
0.000438
0.000221
0.001939
0.000284
0.000425
0.000426
0.000319
0.000221
0.000248
0.000268
0.000240
0.000249
0.000243
0.000269
0.000257
0.000452
0.000328
0.000362
0.000410
0.000315
0.000234
0.000258
0.000269
0.000272
0.000264
0.000262
0.000267
0.000389
0.000488
0.001321
0.000056
0.000202
0.000228
0.002075
0.000362
0.000278
0.000231
0.000272
0.000234
0.000265
0.000258
0.000216
0.000253
0.000253
0.000266
0.000260
0.000351
0.000710
0.001763
0.000228
0.000256
0.000250
0.000269
0.000453
0.000437
0.001509
0.000273
0.000369
0.001913
0.000266
0.000258
0.000196
0.000057
0.000208
0.000236
0.000230
0.000241
0.000228
0.000251
0.000253
0.000283
0.000333
0.000265
0.000374
0.000367
0.000337
0.000298
0.000242
0.000274
0.000255
0.000247
0.000262
0.000250
0.000311
0.000287
0.000266
0.000265
0.000259
0.001509
0.000294
0.000376
0.002065
0.000235
0.000183
0.000057
0.000229
0.000245
0.000232
0.000248
0.000489
0.000209
0.000251
0.000338
0.000373
0.000302
0.000303
0.000209
0.000262
0.000266
0.000271
0.000328
0.000432
0.000425
0.000258
0.000400
0.000522
0.000526
0.001500
0.000227
0.000251
0.002033
0.000290
0.000248
0.000238
0.000291
0.000191
0.000057
0.000217
0.000239
0.000225
0.000244
0.000253
0.000265
0.000256
0.000271
0.000250
0.000320
0.001748
0.000317
0.000385
0.000280
0.000465
0.000360
0.000345
0.001516
0.000233
0.000283
0.002264
0.000456
0.000223
0.000236
0.000264
0.000266
0.000504
0.000226
0.000251
0.000283
0.000194
0.000056
0.000279
0.000352
0.000372
0.000296
0.000206
0.000236
0.000258
0.000256
0.000262
0.000301
0.000219
0.000254
0.000275
0.000240
0.000335
0.000576
0.001221
0.000271
0.000274
0.002035
0.000264
0.000268
0.000237
0.000262
0.000249
0.000277
0.000258
0.000272
0.000245
0.000274
0.000198
0.000057
0.000299
0.000368
0.001998
0.000259
0.000222
0.000261
0.000252
0.000286
0.000414
0.000463
0.001313
0.000363
0.000357
0.002079
0.000206
0.000240
0.000270
0.000277
0.000254
0.000254
0.000276
0.000291
0.000261
0.000416
0.000402
0.000441
0.000252
0.002240
0.000493
0.000518
0.000356
0.000057
0.000211
0.000224
0.000244
0.001958
0.000245
0.000217
0.000242
0.000243
0.000239
0.000267
0.000241
0.000264
0.000256
0.000297
0.000445
0.001449
0.000246
0.000240
0.000267
0.000260
0.000230
0.000255
0.000261
0.000265
0.000298
0.000474
0.000476
0.000240
0.001611
0.000270
0.000165
0.000057
0.000207
0.000217
0.000249
0.000230
0.000266
0.000271
0.000221
0.000247
0.000300
0.000399
0.000356
0.001352
0.000225
0.000228
0.000251
0.000299
0.000227
0.000260
0.000275
0.000503
0.000539
0.000305
0.000227
0.001596
0.000215
0.000254
0.000290
0.000277
0.000262
0.000270
0.000192
0.000058
0.000199
0.000237
0.000270
0.000271
0.000246
0.000246
0.000237
0.000239
0.000276
0.000223
0.000251
0.000262
0.000263
0.001481
0.000359
0.000204
0.000249
0.000265
0.000275
0.000313
0.000368
0.000277
0.000241
0.000266
0.000266
0.000266
0.000257
0.001406
0.000292
0.000226
0.000174
0.000056
0.000211
0.000228
0.000280
0.000241
0.000273
0.000222
0.000245
0.000261
0.000219
0.000267
0.000242
0.000255
0.000231
0.000354
0.000329
0.000355
0.000274
0.000242
0.001625
0.000239
0.000248
0.000250
0.000254
0.000282
0.000383
0.000386
0.000455
0.000270
0.000249
0.001614
0.000155
0.000057
0.000295
0.000403
0.000375
0.000261
0.000222
0.000223
0.000241
0.000273
0.000253
0.000258
0.000225
0.000242
0.001461
0.000296
0.000306
0.000218
0.000251
0.000275
0.000253
0.000265
0.000249
0.000236
0.000260
0.000272
0.000264
0.000331
0.000411
0.000496
0.000211
0.000251
0.000198
0.000057
0.000190
0.000251
0.000461
0.000310
0.000386
0.000284
0.000228
0.000254
0.000250
0.000258
0.000239
0.000232
0.000252
0.000252
0.001246
0.000304
0.000235
0.000258
0.000259
0.000272
0.000234
0.000269
0.000248
0.000263
0.000256
0.000255
0.000356
0.000689
0.000415
0.000224
0.000186
0.000058
0.000187
0.001579
0.000218
0.000337
0.000460
0.000371
0.000223
0.000258
0.000267
0.000262
0.000229
0.000261
0.000269
0.000277
0.000257
0.001529
0.000250
0.000291
0.000254
0.000252
0.000275
0.000248
0.000259
0.000263
0.000256
0.000293
0.000466
0.000301
0.000361
0.000260
0.000183
0.000057
0.000180
0.000258
0.000236
0.001661
0.000364
0.000351
0.000232
0.000237
0.000249
0.000273
0.000281
0.000251
0.000254
0.000256
0.000231
0.000277
0.000362
0.001361
0.000255
0.000227
0.001498
0.000471
0.000411
0.000405
0.000321
0.000241
0.000263
0.000486
0.000222
0.000258
0.001559
0.000057
0.000279
0.000225
0.000246
0.000244
0.000262
0.000246
0.000242
0.000256
0.000252
0.000254
0.000244
0.000256
0.000391
0.000469
0.001619
0.001486
0.000364
0.000552
0.000317
0.000229
0.000229
0.000258
0.000248
0.000264
0.000275
0.000247
0.000258
0.000271
0.001548
0.000297
0.000183
0.000057
0.000214
0.000348
0.000356
0.000328
0.000233
0.000227
0.000249
0.000404
0.000384
0.000342
0.002215
0.000300
0.000736
0.000494
0.000437
0.000257
0.000340
0.000387
0.000331
0.000287
0.000383
0.000272
0.001527
0.000528
0.000217
0.000290
0.000241
0.000243
0.000285
0.000254
0.000196
0.000058
0.000190
0.000246
0.000257
0.000252
0.000240
0.001660
0.001638
0.000243
0.000203
0.000232
0.000260
0.000256
0.000261
0.000264
0.000250
0.000251
0.000252
0.000263
0.000267
0.000282
0.001430
0.000310
0.000254
0.000228
0.000234
0.000261
0.000262
0.000286
0.000267
0.000283
0.001904
0.000057
0.000192
0.000233
0.001542
0.000898
0.000343
0.000367
0.000228
0.000225
0.000255
0.000260
0.000246
0.000250
0.000261
0.001966
0.000474
0.000223
0.000248
0.000244
0.000271
0.000259
0.000191
