0.000084
0.019432
0.002084
0.000327
0.000269
0.000281
0.000304
0.000245
0.000335
0.000295
0.000241
0.000351
0.000524
0.000490
0.000324
0.000376
0.000265
0.000394
0.000365
0.000364
0.000319
0.001948
0.000673
0.000250
0.000259
0.000307
0.000306
0.000370
0.000448
0.000423
0.000443
0.000241
0.000057
0.000229
0.000256
0.000267
0.000267
0.000270
0.000250
0.000284
0.000270
0.000257
0.000362
0.000386
0.000410
0.000316
0.000266
0.000411
0.000290
0.000363
0.000246
0.000259
0.001698
0.000323
0.000243
0.000460
0.000247
0.000278
0.000274
0.000291
0.000320
0.000255
0.000460
0.000288
0.000056
0.000199
0.000246
0.000262
0.000262
0.000252
0.000242
0.000260
0.000263
0.000280
0.001669
0.000221
0.000241
0.000272
0.000269
0.000279
0.000252
0.000264
0.000259
0.000357
0.001792
0.000237
0.000280
0.000444
0.000521
0.000297
0.000239
0.000285
0.000500
0.000443
0.000762
0.000199
0.000057
0.000216
0.000250
0.000262
0.000235
0.000292
0.000256
0.000321
0.000597
0.000320
0.000287
0.000230
0.000250
0.000244
0.000251
0.000255
0.000260
0.000242
0.000266
0.000304
0.000315
0.001674
0.000282
0.000248
0.000416
0.000330
0.000669
0.000656
0.000585
0.000289
0.000246
0.000189
0.000057
0.000197
0.000247
0.000265
0.000236
0.000257
0.000256
0.000295
0.000489
0.001411
0.000233
0.000239
0.000244
0.000254
0.000255
0.000263
0.000290
0.000311
0.000776
0.001378
0.000280
0.000458
0.000258
0.000235
0.000215
0.000258
0.000256
0.000269
0.000271
0.000256
0.000303
0.000154
0.000057
0.000222
0.000245
0.000243
0.000265
0.000235
0.000252
0.000232
0.000258
0.000238
0.000257
0.001630
0.000257
0.000240
0.000234
0.000259
0.000249
0.000245
0.000252
0.000250
0.000255
0.000269
0.001660
0.000286
0.000251
0.000442
0.000257
0.000256
0.000258
0.000259
0.000269
0.000200
0.000055
0.000206
0.000239
0.000247
0.000240
0.000242
0.000247
0.000260
0.000238
0.000264
0.000242
0.000264
0.000256
0.000258
0.000276
0.001643
0.000275
0.000286
0.000212
0.000262
0.000271
0.000268
0.000242
0.000243
0.000266
0.001791
0.000385
0.000343
0.000349
0.000257
0.000280
0.000217
0.000056
0.000194
0.000239
0.000244
0.000288
0.000234
0.000240
0.000335
0.000381
0.000453
0.000367
0.000206
0.000246
0.000258
0.000249
0.001678
0.000443
0.000284
0.000434
0.000300
0.000233
0.000259
0.000294
0.000267
0.001732
0.000537
0.000433
0.000254
0.000251
0.000244
0.000265
0.000182
0.000055
0.000202
0.000227
0.000263
0.000276
0.000397
0.000394
0.000352
0.000267
0.000228
0.000245
0.000264
0.000239
0.000255
0.001744
0.000457
0.000273
0.000241
0.000249
0.000287
0.000274
0.000242
0.000260
0.000277
0.001938
0.000261
0.000385
0.000265
0.000237
0.000271
0.000417
0.000328
0.000055
0.000307
0.000311
0.000376
0.000231
0.000252
0.000245
0.000252
0.000258
0.000244
0.000232
0.000238
0.000250
0.001566
0.000312
0.000329
0.000239
0.000253
0.000252
0.000250
0.000274
0.000285
0.000325
0.000249
0.001798
0.000263
0.000497
0.000245
0.000255
0.000253
0.000269
0.000277
0.000055
0.000403
0.000443
0.000610
0.000215
0.000231
0.000276
0.000228
0.000221
0.000257
0.000256
0.000251
0.001704
0.000258
0.000439
0.000363
0.000213
0.000260
0.000214
0.000246
0.000265
0.000372
0.001733
0.000236
0.000249
0.002116
0.000479
0.000361
0.000247
0.000258
0.000265
0.000188
0.000057
0.000211
0.000245
0.000247
0.000239
0.000344
0.001541
0.000243
0.000235
0.000254
0.000252
0.000248
0.000243
0.000250
0.000253
0.000357
0.000448
0.000505
0.000257
0.000239
0.000270
0.000287
0.000222
0.000244
0.000433
0.000442
0.000278
0.000508
0.000359
0.000479
0.000249
0.000198
0.000056
0.000216
0.000233
0.000252
0.000253
0.000233
0.000242
0.000283
0.000422
0.000458
0.001648
0.000200
0.000241
0.000239
0.000246
0.000265
0.000338
0.000500
0.000351
0.000346
0.000231
0.000258
0.000305
0.000277
0.000252
0.000278
0.000437
0.000353
0.000695
0.000335
0.000478
0.000168
0.000057
0.000200
0.000255
0.000243
0.000223
0.000241
0.000240
0.000252
0.000245
0.000239
0.000339
0.000293
0.000562
0.001269
0.000241
0.000242
0.000243
0.000263
0.000243
0.000252
0.000259
0.000259
0.000485
0.000383
0.000272
0.000270
0.000258
0.000250
0.000274
0.000264
0.000263
0.000388
0.000056
0.000216
0.000236
0.000252
0.000242
0.000590
0.000400
0.000219
0.000259
0.000233
0.000261
0.000243
0.000237
0.000303
0.000249
0.000238
0.000505
0.000406
0.001632
0.000277
0.000232
0.000257
0.000269
0.000252
0.000240
0.000321
0.000466
0.000428
0.000307
0.000423
0.000241
0.000183
0.000055
0.000239
0.000435
0.000235
0.000212
0.000267
0.000241
0.000270
0.000631
0.000296
0.000319
0.000226
0.000267
0.000272
0.000235
0.000516
0.000347
0.000228
0.000246
0.000492
0.001564
0.000264
0.000231
0.000523
0.000240
0.000280
0.000280
0.000255
0.000491
0.000437
0.000362
0.000245
0.000056
0.000231
0.000228
0.000239
0.000238
0.000422
0.000306
0.000292
0.000223
0.000387
0.000533
0.000357
0.000219
0.000246
0.000238
0.000257
0.000266
0.000252
0.000252
0.000239
0.000347
0.000308
0.000370
0.001792
0.000239
0.000261
0.000252
0.000288
0.000355
0.000489
0.000637
0.000410
0.000058
0.000232
0.000325
0.000281
0.000428
0.000395
0.000205
0.000262
0.000382
0.000523
0.000339
0.000240
0.000240
0.000228
0.000273
0.000264
0.000235
0.000249
0.000278
0.000265
0.000261
0.000320
0.000416
0.000634
0.001293
0.000335
0.000520
0.000332
0.000281
0.000492
0.000391
0.000231
0.000056
0.000247
0.000376
0.000269
0.000203
0.000225
0.000238
0.000422
0.000234
0.000377
0.000329
0.000356
0.000415
0.000244
0.000273
0.000246
0.000247
0.000378
0.000382
0.000355
0.000226
0.000245
0.000575
0.000452
0.001672
0.000222
0.000449
0.000294
0.000232
0.000377
0.000331
0.000331
0.000055
0.000194
0.000225
0.000251
0.000251
0.000242
0.000247
0.000251
0.000315
0.000465
0.000345
0.000367
0.000402
0.000272
0.000570
0.000250
0.000238
0.000276
0.000268
0.000228
0.000352
0.000215
0.000253
0.000295
0.000440
0.000448
0.001651
0.000266
0.000223
0.000260
0.000268
0.000197
0.000056
0.000279
0.000486
0.000295
0.000224
0.000247
0.000253
0.000257
0.000241
0.000257
0.000247
0.000220
0.000253
0.000483
0.000474
0.000384
0.000270
0.000277
0.000234
0.000377
0.000359
0.000384
0.000326
0.000423
0.000354
0.000229
0.000245
0.000269
0.000274
0.001786
0.000242
0.000211
0.000057
0.000212
0.000221
0.000258
0.000270
0.000381
0.000536
0.000295
0.000213
0.000268
0.000259
0.000246
0.000254
0.000513
0.000454
0.000494
0.000277
0.000251
0.000276
0.000426
0.000462
0.000408
0.000418
0.000398
0.000454
0.000237
0.000252
0.000267
0.000253
0.000258
0.001725
0.000359
0.000055
0.000256
0.000338
0.000199
0.000234
0.000258
0.000244
0.000249
0.000504
0.000373
0.000299
0.000296
0.000284
0.000428
0.000583
0.000307
0.000237
0.000253
0.000256
0.000249
0.000265
0.000281
0.000260
0.000242
0.000262
0.000323
0.000350
0.000431
0.000339
0.000231
0.000256
0.000187
0.000056
0.000435
0.000338
0.000426
0.000255
0.000220
0.000233
0.000248
0.000256
0.000234
0.000228
0.000250
0.000292
0.000275
0.000480
0.000463
0.000416
0.000327
0.000327
0.000381
0.000374
0.000271
0.000216
0.000246
0.000261
0.001731
0.000268
0.001716
0.000982
0.000363
0.000330
0.000166
0.000056
0.000209
0.000233
0.000239
0.000238
0.000267
0.000243
0.000252
0.000249
0.000243
0.000350
0.000547
0.000209
0.000345
0.000395
0.000241
0.000254
0.000244
0.000293
0.000228
0.000254
0.000254
0.000269
0.001779
0.000255
0.000259
0.000265
0.000282
0.000258
0.001907
0.000453
0.000257
0.000055
0.000214
0.000213
0.000241
0.000237
0.000257
0.000244
0.000245
0.000256
0.000280
0.000404
0.000491
0.000514
0.000235
0.000201
0.000234
0.000255
0.000376
0.000404
0.000365
0.000250
0.001759
0.000268
0.000243
0.000246
0.000261
0.000273
0.000242
0.000256
0.000340
0.000376
0.000346
0.000056
0.000249
0.000220
0.000241
0.000258
0.000259
0.000226
0.000261
0.000255
0.000241
0.000256
0.000239
0.000319
0.000370
0.000361
0.000336
0.000270
0.000462
0.000249
0.000247
0.000258
0.000257
0.000262
0.000270
0.000257
0.000293
0.001761
0.000264
0.000245
0.000261
0.000239
0.000194
0.000056
0.000318
0.000281
0.000242
0.000223
0.000235
0.000236
0.000236
0.000259
0.000246
0.000227
0.000234
0.000260
0.000264
0.000411
0.000418
0.000286
0.000293
0.000252
0.000245
0.000253
0.000258
0.000259
0.000249
0.000276
0.000244
0.000267
0.000331
0.001602
0.000276
0.000255
0.000175
0.000057
0.000212
0.000236
0.000250
0.000263
0.000345
0.000348
0.000427
0.000293
0.000222
0.000258
0.000251
0.000246
0.000245
0.000257
0.000258
0.000260
0.000244
0.000259
0.000251
0.000262
0.000268
0.000268
0.000247
0.000240
0.000240
0.000279
0.000275
0.000261
0.000254
0.000278
0.000173
0.000057
0.000219
0.000235
0.000255
0.000256
0.000234
0.000249
0.000251
0.000262
0.000278
0.000242
0.000226
0.000255
0.000248
0.000251
0.000271
0.000262
0.000253
0.000250
0.000301
0.000251
0.000275
0.000285
0.000275
0.000245
0.000282
0.000268
0.000273
0.000250
0.000264
0.000475
0.000641
0.000056
0.000231
0.000283
0.000215
0.000236
0.000234
0.000251
0.000243
0.000252
0.000251
0.000241
0.000267
0.000432
0.000357
0.000551
0.001448
0.000241
0.000495
0.000237
0.000267
0.000437
0.000479
0.000332
0.000234
0.000272
0.000256
0.000262
0.000281
0.000249
0.000312
0.000256
0.000187
0.000056
0.000359
0.000392
0.000403
0.000217
0.000225
0.000252
0.000260
0.000232
0.000234
0.000242
0.000260
0.000255
0.000232
0.000310
0.000348
0.000507
0.000361
0.001773
0.000245
0.000262
0.000398
0.000378
0.000408
0.000312
0.000317
0.000318
0.000304
0.000230
0.000229
0.000256
0.000191
0.000057
0.000223
0.000229
0.000236
0.000309
0.000438
0.000360
0.000332
0.000252
0.000252
0.000212
0.000254
0.000265
0.000267
0.000261
0.000246
0.000256
0.000421
0.000389
0.000360
0.000407
0.000228
0.001737
0.000346
0.000517
0.000480
0.000489
0.000320
0.000200
0.000263
0.000265
0.000441
0.000057
0.000216
0.000247
0.000239
0.000387
0.000301
0.000498
0.000353
0.000249
0.000215
0.000286
0.000249
0.000262
0.000249
0.000294
0.000309
0.000234
0.000303
0.000389
0.000390
0.000358
0.000491
0.001830
0.000272
0.000634
0.000358
0.000296
0.000227
0.000260
0.000293
0.000264
0.000197
0.000057
0.000219
0.000348
0.000355
0.000352
0.000434
0.000213
0.000367
0.000213
0.000247
0.000259
0.000275
0.000229
0.000249
0.000252
0.000241
0.000263
0.000327
0.000473
0.000450
0.000319
0.000290
0.000233
0.000286
0.001682
0.000498
0.000506
0.000618
0.000244
0.000265
0.000310
0.000155
0.000055
0.000203
0.000234
0.000325
0.000258
0.000283
0.000375
0.000408
0.000294
0.000229
0.000530
0.000255
0.000229
0.000261
0.000275
0.000278
0.000260
0.000213
0.000387
0.000493
0.000381
0.000261
0.000253
0.000236
0.000255
0.000259
0.000265
0.000248
0.000250
0.000264
0.000288
0.000218
0.000055
0.000370
0.000285
0.000242
0.000253
0.000249
0.000259
0.000237
0.000295
0.000238
0.000243
0.000259
0.000358
0.000477
0.000362
0.000340
0.000258
0.000226
0.000239
0.000256
0.000270
0.000300
0.000242
0.000239
0.000257
0.000282
0.000414
0.000335
0.000338
0.000359
0.000244
0.000173
0.000055
0.000214
0.000228
0.000277
0.000246
0.000240
0.000248
0.000255
0.000259
0.000493
0.000208
0.000263
0.000251
0.000246
0.000267
0.000273
0.000272
0.000260
0.000354
0.000212
0.000250
0.000251
0.000265
0.000257
0.000268
0.000282
0.000260
0.000262
0.000261
0.000510
0.000246
0.000151
0.000056
0.000210
0.000241
0.000259
0.000256
0.000220
0.000244
0.000372
0.000407
0.000238
0.000231
0.000253
0.000252
0.000243
0.000273
0.000507
0.001697
0.000239
0.000262
0.000281
0.000404
0.000364
0.000344
0.000406
0.000370
0.000355
0.000421
0.000240
0.000270
0.000269
0.000275
0.001420
0.000057
0.000383
0.000248
0.000284
0.000226
0.000230
0.000253
0.000232
0.000256
0.000243
0.000269
0.000248
0.000273
0.000236
0.000276
0.000582
0.001601
0.000256
0.000221
0.000244
0.000265
0.000237
0.000280
0.000481
0.000283
0.000254
0.000362
0.000227
0.000267
0.000273
0.000260
0.000188
0.000056
0.001240
0.000552
0.000282
0.000266
0.000254
0.000209
0.000228
0.000247
0.000488
0.000208
0.000252
0.000247
0.000483
0.000505
0.000265
0.000355
0.000242
0.000241
0.000347
0.000343
0.000272
0.000253
0.000271
0.000243
0.000295
0.000632
0.000496
0.000245
0.000250
0.000268
0.000166
0.000055
0.000215
0.000230
0.000240
0.000244
0.001425
0.000344
0.000225
0.000252
0.000238
0.000246
0.000252
0.000256
0.000245
0.000263
0.000272
0.000432
0.000294
0.000639
0.000289
0.001722
0.000275
0.000268
0.000406
0.000373
0.000519
0.000406
0.000229
0.000248
0.000254
0.000274
0.000199
0.000056
0.000234
0.000243
0.000233
0.000435
0.001136
0.000244
0.000250
0.000260
0.000241
0.000239
0.000232
0.000246
0.000282
0.000245
0.000253
0.000321
0.000531
0.000321
0.000327
0.000263
0.000267
0.000267
0.000251
0.000233
0.000288
0.000261
0.000242
0.000280
0.000295
0.000354
0.000543
0.000057
0.000210
0.000250
0.000239
0.000260
0.000281
0.000225
0.000236
0.000257
0.000267
0.000252
0.001440
0.000221
0.000247
0.000247
0.000245
0.000246
0.000264
0.000268
0.000263
0.000265
0.000346
0.000423
0.000523
0.000311
0.000231
0.000274
0.001755
0.000266
0.000272
0.000396
0.000352
0.000056
0.000221
0.000412
0.000413
0.000503
0.000517
0.000541
0.001505
0.000407
0.000523
0.000651
0.000553
0.000782
0.000424
0.000613
0.000584
0.002061
0.000451
0.000214
0.000408
0.000308
0.000230
0.000297
0.000262
0.000263
0.000265
0.000276
0.000289
0.000292
0.000262
0.000292
0.001378
0.000056
0.000224
0.000223
0.000251
0.000237
0.000257
0.000257
0.000238
0.000240
0.000247
0.000252
0.000243
0.000232
0.000264
0.000256
0.000270
0.000269
0.001801
0.000282
0.000237
0.000245
0.000273
0.000247
0.000273
0.000272
0.000537
0.000289
0.000359
0.000229
0.000267
0.000272
0.000218
0.000056
0.000215
0.001361
0.000335
0.000256
0.000262
0.000238
0.000246
0.000233
0.000236
0.000235
0.000222
0.000262
0.000227
0.000506
0.000373
0.000275
0.000265
0.000257
0.001921
0.000240
0.000242
0.000265
0.000258
0.000265
0.000272
0.000301
0.000250
0.000251
0.000269
0.000320
0.000204
0.000055
0.000222
0.000241
0.000250
0.001437
0.000238
0.000232
0.000253
0.000245
0.000236
0.000267
0.000253
0.000244
0.000246
0.000255
0.000261
0.000254
0.000269
0.000258
0.000270
0.000261
0.000277
0.001744
0.000292
0.001746
0.000261
0.000243
0.000285
0.000263
0.000265
0.000274
0.000205
0.000056
0.000211
0.000265
0.001319
0.000219
0.000255
0.000251
0.000263
0.000254
0.000242
0.000254
0.000248
0.000246
0.000262
0.000256
0.000263
0.000262
0.000260
0.000278
0.000306
0.000230
0.001869
0.000237
0.001850
0.000234
0.000254
0.000272
0.000234
0.000254
0.000247
0.000273
0.000193
0.000055
0.001428
0.000240
0.000215
0.000240
0.000239
0.000236
0.000372
0.000265
0.000256
0.000255
0.000251
0.000260
0.000286
0.000330
0.000359
0.000313
0.000241
0.000256
0.000274
0.000250
0.000273
0.000336
0.000229
0.000253
0.000265
0.000281
0.000275
0.000312
0.000692
0.000333
0.000191
0.000056
0.000205
0.000238
0.000271
0.000293
0.000376
0.000260
0.001691
0.000304
0.000277
0.000266
0.000247
0.000280
0.000287
0.000257
0.000276
0.000307
0.000356
0.000565
0.000374
0.000272
0.000292
0.000275
0.000265
0.000258
0.000339
0.000291
0.000225
0.000253
0.000267
0.000372
0.000406
0.000056
0.000251
0.000467
0.000276
0.000264
0.000247
0.000226
0.000224
0.000251
0.000254
0.000294
0.001531
0.000171
0.000229
0.000248
0.000242
0.000292
0.000273
0.000240
0.000260
0.000268
0.000271
0.000435
0.000482
0.000305
0.000281
0.000274
0.000267
0.000259
0.000230
0.000317
0.000163
0.000055
0.000209
0.000241
0.000332
0.000402
0.000385
0.000261
0.000220
0.000247
0.000253
0.000250
0.000232
0.000267
0.000245
0.000266
0.000245
0.000272
0.000420
0.001147
0.000265
0.000231
0.000277
0.000248
0.000347
0.000426
0.000251
0.000514
0.000424
0.000329
0.000373
0.000237
0.000177
0.000057
0.000222
0.000245
0.000263
0.000264
0.000255
0.000245
0.000451
0.000297
0.000450
0.000272
0.000405
0.000369
0.000365
0.000355
0.000247
0.000253
0.000244
0.000285
0.000410
0.001397
0.000286
0.000232
0.000274
0.000269
0.000237
0.000234
0.000264
0.000340
0.000449
0.000484
0.000154
0.000055
0.000223
0.000223
0.000254
0.000252
0.000243
0.000241
0.000232
0.000262
0.000395
0.000331
0.000372
0.000382
0.000220
0.000240
0.000251
0.000257
0.000252
0.000274
0.000251
0.000251
0.000439
0.000287
0.000438
0.000323
0.000308
0.000255
0.000274
0.000272
0.000253
0.000336
0.000150
0.000056
0.000307
0.000318
0.000454
0.000281
0.000369
0.000370
0.000256
0.000245
0.000244
0.000278
0.000254
0.000261
0.000239
0.000252
0.000242
0.000224
0.000302
0.000532
0.000386
0.000293
0.000190
0.000269
0.000242
0.000252
0.000260
0.000276
0.000278
0.000258
0.000286
0.000262
0.000364
0.000055
0.000232
0.000311
0.000230
0.000248
0.000246
0.000250
0.000246
0.000245
0.000287
0.000241
0.000252
0.000234
0.000348
0.000526
0.000351
0.000304
0.000215
0.000250
0.000260
0.000285
0.000234
0.000265
0.000258
0.000264
0.000272
0.000368
0.000361
0.000591
0.000409
0.000246
0.000177
0.000056
0.000389
0.000221
0.000219
0.000245
0.000250
0.000251
0.000237
0.000253
0.000258
0.000256
0.000220
0.000247
0.000268
0.000225
0.000246
0.000266
0.000252
0.000262
0.000289
0.000239
0.000264
0.000266
0.000265
0.000256
0.000274
0.000235
0.000267
0.000276
0.000254
0.000277
0.000195
0.000055
0.000192
0.000239
0.000251
0.000247
0.000228
0.000258
0.000261
0.000236
0.000262
0.000278
0.000228
0.000238
0.000253
0.000404
0.000255
0.000272
0.000260
0.000280
0.000240
0.000278
0.000274
0.000239
0.000238
0.000257
0.000271
0.000274
0.000251
0.000251
0.000275
0.000257
0.000208
0.000056
0.000252
0.000329
0.000367
0.000278
0.000298
0.000253
0.000282
0.000248
0.000227
0.000243
0.000248
0.000263
0.000255
0.000235
0.000275
0.000241
0.000264
0.000271
0.000247
0.000264
0.000271
0.000261
0.000284
0.000256
0.000271
0.000249
0.000259
0.000270
0.000269
0.000261
0.000194
0.000056
0.000204
0.000233
0.000261
0.000262
0.000488
0.000212
0.000209
0.000249
0.000307
0.000439
0.000475
0.000279
0.000238
0.000240
0.000267
0.000267
0.000236
0.000273
0.000259
0.000268
0.000265
0.000258
0.000262
0.000412
0.000435
0.000483
0.000247
0.000300
0.000260
0.000264
0.000188
0.000055
0.000199
0.000213
0.000251
0.000251
0.000410
0.000585
0.000286
0.000388
0.000207
0.000248
0.000250
0.000253
0.000251
0.000249
0.000259
0.000272
0.000251
0.000294
0.000643
0.000423
0.000235
0.000226
0.000266
0.000277
0.000284
0.000251
0.000261
0.000271
0.000247
0.000342
0.000436
0.000056
0.000187
0.000230
0.000239
0.000237
0.000251
0.000255
0.000224
0.000252
0.000241
0.000263
0.000248
0.000245
0.000264
0.000499
0.000575
0.000308
0.000194
0.000256
0.000265
0.000262
0.000251
0.000270
0.000490
0.000219
0.000266
0.000649
0.000375
0.000490
0.000236
0.000252
0.000186
0.000056
0.000223
0.000227
0.000245
0.000240
0.000255
0.000259
0.000321
0.000604
0.000458
0.000361
0.000217
0.000263
0.000277
0.000275
0.000256
0.000248
0.000234
0.000252
0.000306
0.000384
0.000285
0.000655
0.000366
0.000264
0.000368
0.000363
0.000484
0.000246
0.000268
0.000649
0.000236
0.000058
0.000251
0.000230
0.000434
0.000224
0.000237
0.000256
0.000258
0.000258
0.000231
0.000239
0.000275
0.000405
0.000411
0.000291
0.000242
0.000253
0.000243
0.000246
0.000269
0.000275
0.000275
0.000252
0.000252
0.000273
0.000360
0.000440
0.000476
0.000241
0.000264
0.000268
0.000197
0.000056
0.000204
0.000256
0.000228
0.000244
0.000249
0.000252
0.000360
0.000618
0.000216
0.000305
0.000356
0.000228
0.000244
0.000266
0.000253
0.000240
0.000255
0.000260
0.000346
0.000361
0.000502
0.000287
0.000476
0.000302
0.000412
0.000386
0.000375
0.000228
0.000260
0.000343
0.000416
0.000056
0.000203
0.000271
0.000225
0.000253
0.000279
0.000234
0.000252
0.000248
0.000255
0.000255
0.000241
0.000432
0.000458
0.000321
0.000341
0.000236
0.000252
0.000266
0.000268
0.000232
0.000251
0.000257
0.000263
0.000275
0.000279
0.000345
0.000610
0.000332
0.000245
0.000282
0.000189
0.000057
0.000188
0.000245
0.000261
0.000256
0.000237
0.000368
0.000587
0.000409
0.000306
0.000691
0.000264
0.000213
0.000246
0.000264
0.000242
0.000267
0.000276
0.000311
0.000441
0.000687
0.001250
0.000305
0.000257
0.000263
0.000288
0.000269
0.000382
0.000427
0.000421
0.000250
0.000176
0.000056
0.000195
0.000237
0.000245
0.000242
0.000235
0.000262
0.000273
0.000243
0.000249
0.000348
0.000331
0.000379
0.000269
0.000393
0.000332
0.000357
0.000234
0.000242
0.000270
0.000258
0.000246
0.000246
0.000285
0.000242
0.000338
0.000434
0.000424
0.000303
0.000241
0.000269
0.000184
0.000056
0.000215
0.000248
0.000256
0.000251
0.000243
0.000235
0.000473
0.000212
0.000234
0.000257
0.000245
0.000250
0.000260
0.000254
0.000250
0.000268
0.000262
0.000262
0.000272
0.000257
0.000259
0.000291
0.000296
0.000242
0.000262
0.000278
0.000270
0.000282
0.000247
0.000273
0.000167
0.000055
0.000193
0.000249
0.000272
0.000482
0.000345
0.000245
0.000231
0.000249
0.000262
0.000247
0.000260
0.000244
0.000263
0.000263
0.000237
0.000243
0.000247
0.000267
0.000281
0.000389
0.000503
0.000287
0.000230
0.000261
0.000273
0.000244
0.000267
0.000254
0.000271
0.000283
0.000196
0.000055
0.000360
0.000516
0.000278
0.000231
0.000241
0.000250
0.000414
0.000220
0.000233
0.000254
0.000255
0.000337
0.000352
0.000390
0.001881
0.000245
0.000240
0.000254
0.000276
0.000245
0.000357
0.000559
0.000496
0.000269
0.000245
0.000254
0.000274
0.000428
0.000278
0.000278
0.000165
0.000055
0.000221
0.000371
0.000327
0.000295
0.000494
0.000204
0.000237
0.000248
0.000271
0.000225
0.000260
0.000244
0.000263
0.000430
0.000340
0.000447
0.000208
0.000250
0.000265
0.000257
0.000263
0.000310
0.000237
0.000279
0.000281
0.000474
0.000539
0.000352
0.000445
0.000239
0.000205
0.000055
0.000210
0.000244
0.000255
0.000229
0.000247
0.000250
0.000273
0.000281
0.000381
0.000476
0.000286
0.000350
0.000219
0.000251
0.000272
0.000296
0.000299
0.000223
0.000278
0.000272
0.000239
0.000345
0.000437
0.000367
0.000313
0.000212
0.000273
0.000438
0.000439
0.000314
0.000151
0.000057
0.000190
0.000327
0.000256
0.000398
0.000396
0.000207
0.000235
0.000257
0.000256
0.000257
0.000265
0.000271
0.000215
0.000255
0.000260
0.000397
0.000361
0.000289
0.000300
0.000337
0.000490
0.000228
0.000284
0.000277
0.000321
0.000263
0.000260
0.000265
0.000498
0.000508
0.000173
0.000056
0.000217
0.000230
0.000249
0.000251
0.000240
0.000477
0.000213
0.000257
0.000260
0.000448
0.000406
0.000568
0.000207
0.000242
0.000244
0.000248
0.000257
0.000243
0.000268
0.000251
0.000259
0.000263
0.000345
0.000471
0.000320
0.000418
0.000286
0.000349
0.000274
0.000275
0.000161
0.000056
0.000241
0.000212
0.000393
0.000476
0.000200
0.000283
0.000274
0.000216
0.000246
0.000260
0.000254
0.000248
0.000251
0.000264
0.000246
0.000269
0.000243
0.000243
0.000311
0.000436
0.000483
0.000330
0.000231
0.000249
0.000274
0.000275
0.000262
0.000259
0.000281
0.000248
0.000190
0.000055
0.000253
0.000386
0.000434
0.000238
0.000221
0.000253
0.000329
0.000455
0.000272
0.000226
0.000238
0.000275
0.000255
0.000488
0.000392
0.000285
0.000238
0.000241
0.000249
0.000266
0.000273
0.000261
0.000265
0.000269
0.000270
0.000367
0.000479
0.000259
0.000311
0.000248
0.000189
0.000055
0.000219
0.000239
0.000244
0.000251
0.000250
0.000263
0.000241
0.000248
0.000251
0.000250
0.000267
0.000236
0.000263
0.001447
0.000233
0.000264
0.000255
0.000259
0.000264
0.000272
0.000262
0.000241
0.000277
0.000253
0.000270
0.000267
0.000270
0.000274
0.000262
0.000268
0.000194
0.000056
0.000202
0.000233
0.000252
0.000245
0.000242
0.000244
0.000260
0.000256
0.000228
0.000246
0.000247
0.000263
0.000260
0.000253
0.000256
0.000266
0.000237
0.000259
0.000278
0.000254
0.000260
0.000253
0.000251
0.000249
0.001287
0.000282
0.000607
0.000491
0.000239
0.000252
0.000189
0.000056
0.000195
0.000234
0.000245
0.000253
0.000413
0.000251
0.000224
0.000244
0.000307
0.000370
0.000408
0.000320
0.000231
0.000235
0.000261
0.000261
0.000264
0.000251
0.000248
0.000258
0.000265
0.000256
0.000310
0.000501
0.000398
0.000437
0.000219
0.000267
0.001365
0.000248
0.000184
0.000056
0.000344
0.000359
0.000319
0.000254
0.000237
0.000230
0.000229
0.000252
0.000259
0.000256
0.000249
0.000262
0.000280
0.000406
0.000458
0.000337
0.000332
0.000228
0.000245
0.000259
0.000263
0.000263
0.000270
0.000263
0.000277
0.000260
0.000447
0.000460
0.000337
0.000374
0.000152
0.000055
0.000207
0.000232
0.001257
0.000458
0.000321
0.000432
0.000345
0.000511
0.000264
0.000332
0.000226
0.000231
0.000257
0.000255
0.000249
0.000266
0.000578
0.000260
0.000411
0.000353
0.000251
0.000249
0.000255
0.000511
0.000237
0.000260
0.000256
0.000282
0.000419
0.000464
0.000262
0.000055
0.000390
0.000332
0.000210
0.000214
0.001677
0.000393
0.000267
0.000241
0.000243
0.000251
0.000221
0.000243
0.000246
0.000269
0.000253
0.000265
0.000234
0.000361
0.000352
0.000485
0.000321
0.000244
0.000253
0.000255
0.000261
0.000273
0.000270
0.000236
0.000266
0.000277
0.000322
0.000056
0.000353
0.000341
0.000254
0.000213
0.000249
0.000242
0.000269
0.000228
0.000228
0.000231
0.001444
0.000493
0.000208
0.000255
0.000230
0.000258
0.000275
0.000262
0.000234
0.000274
0.000275
0.000249
0.000308
0.000417
0.000527
0.000299
0.000227
0.000271
0.000278
0.000282
0.000169
0.000055
0.000214
0.000408
0.000227
0.000320
0.000305
0.000405
0.000370
0.000307
0.000459
0.000206
0.000234
0.000252
0.000263
0.000264
0.000261
0.001532
0.000237
0.000287
0.000253
0.000261
0.000279
0.000244
0.000255
0.000254
0.000263
0.000282
0.000539
0.000330
0.000299
0.000287
0.000145
0.000056
0.000227
0.000228
0.000253
0.000241
0.000231
0.000260
0.000239
0.000254
0.000363
0.000306
0.000420
0.000278
0.000259
0.000237
0.000248
0.000271
0.000278
0.000259
0.000284
0.000211
0.000255
0.000363
0.001211
0.000261
0.000253
0.000248
0.000275
0.000251
0.000258
0.000258
0.000190
0.000055
0.000284
0.000334
0.000309
0.000358
0.000231
0.000240
0.000260
0.000260
0.000254
0.000250
0.000257
0.000270
0.000239
0.000252
0.000256
0.000263
0.000270
0.000267
0.000263
0.000251
0.000248
0.000271
0.000270
0.000281
0.000288
0.000265
0.000267
0.000260
0.000262
0.000442
0.001359
0.000055
0.000206
0.000233
0.000237
0.000243
0.000251
0.000260
0.000246
0.000229
0.000246
0.000251
0.000276
0.000252
0.000253
0.000242
0.000248
0.000240
0.001730
0.000264
0.000240
0.000260
0.000244
0.000262
0.000267
0.000259
0.000275
0.000255
0.000274
0.000277
0.000269
0.000258
0.000233
0.000055
0.000317
0.000332
0.001248
0.000219
0.000235
0.000246
0.000259
0.000247
0.000263
0.000254
0.000232
0.000407
0.000421
0.000394
0.000244
0.000226
0.000252
0.000255
0.000259
0.000262
0.000245
0.000268
0.000269
0.000283
0.000264
0.000397
0.000366
0.000361
0.000356
0.000204
0.000186
0.000056
0.000226
0.000248
0.000244
0.000250
0.000252
0.000222
0.000240
0.000276
0.000417
0.001323
0.000271
0.000206
0.000253
0.000271
0.000250
0.000269
0.000262
0.000253
0.000360
0.000373
0.000420
0.000235
0.000223
0.000251
0.000271
0.000283
0.000257
0.000297
0.000270
0.000279
0.000189
0.000056
0.000221
0.000449
0.000384
0.000231
0.000220
0.000239
0.000245
0.000276
0.000263
0.000246
0.000248
0.000234
0.000450
0.000555
0.000452
0.001424
0.000250
0.000276
0.000324
0.000345
0.000510
0.000439
0.000422
0.000393
0.000228
0.000270
0.000266
0.000274
0.000258
0.000278
0.000195
0.000056
0.000200
0.000312
0.000540
0.000378
0.000306
0.000235
0.000246
0.000226
0.000254
0.000259
0.000250
0.000263
0.000269
0.000238
0.000272
0.000324
0.000368
0.000399
0.000363
0.001326
0.000266
0.000249
0.000270
0.000255
0.000509
0.000384
0.000375
0.000266
0.000270
0.000274
0.000186
0.000055
0.000196
0.000241
0.000241
0.000242
0.000267
0.000279
0.000579
0.000234
0.000382
0.000218
0.000238
0.000259
0.000271
0.000261
0.000263
0.000259
0.000262
0.000263
0.000272
0.000335
0.000461
0.000357
0.000330
0.001338
0.000431
0.000225
0.000283
0.000449
0.000464
0.000317
0.000295
0.000056
0.000207
0.000232
0.000248
0.000248
0.000251
0.000251
0.001689
0.000229
0.000220
0.000241
0.000258
0.000247
0.000258
0.000329
0.000324
0.000316
0.000253
0.000321
0.000493
0.000386
0.000317
0.000274
0.000224
0.001419
0.000359
0.000349
0.000395
0.000486
0.000306
0.000275
0.000169
0.000057
0.000229
0.000245
0.000251
0.000264
0.000243
0.000255
0.001714
0.000244
0.000233
0.000262
0.000333
0.000474
0.001369
0.000366
0.000391
0.000237
0.000262
0.000239
0.000268
0.000271
0.001801
0.000309
0.000375
0.000294
0.000245
0.000253
0.000260
0.000281
0.000250
0.000248
0.000218
0.000057
0.000220
0.000229
0.000268
0.000243
0.000256
0.000300
0.000256
0.000268
0.000247
0.000250
0.000250
0.000247
0.000268
0.000261
0.000257
0.001498
0.000283
0.000229
0.000264
0.000280
0.000272
0.000276
0.000418
0.001255
0.000276
0.000240
0.000289
0.000235
0.000393
0.000244
0.000207
0.000056
0.000209
0.000246
0.000221
0.000247
0.000236
0.000228
0.000233
0.001699
0.000249
0.000226
0.000255
0.000369
0.000227
0.000223
0.000256
0.001384
0.000232
0.000270
0.000260
0.000248
0.000259
0.000354
0.000272
0.001310
0.000275
0.000252
0.000260
0.000265
0.001377
0.000270
0.000257
0.000056
0.000315
0.000298
0.000203
0.000238
0.000247
0.000258
0.000251
0.000264
0.000268
0.000246
0.000261
0.000264
0.000254
0.000251
0.000355
0.001444
0.000254
0.000266
0.000261
0.000243
0.000283
0.000264
0.000251
0.001488
0.000357
0.000247
0.000267
0.001264
0.000273
0.000250
0.000227
0.000057
0.000227
0.000470
0.000233
0.000218
0.000236
0.000238
0.000267
0.000256
0.000263
0.000272
0.000239
0.000250
0.000263
0.000298
0.000434
0.001175
0.000240
0.000246
0.000266
0.000275
0.000229
0.000242
0.000250
0.000372
0.001220
0.000269
0.000242
0.000257
0.000259
0.001337
0.000330
0.000055
0.000284
0.000181
0.000233
0.000228
0.000242
0.000254
0.000250
0.000242
0.000274
0.000253
0.000238
0.000252
0.000328
0.000253
0.000440
0.001440
0.000225
0.000246
0.000301
0.000507
0.000289
0.000473
0.001264
0.000288
0.000255
0.000283
0.000227
0.001314
0.000448
0.000368
0.000324
0.000057
0.000226
0.000254
0.000252
0.000263
0.000248
0.000249
0.000274
0.000249
0.000262
0.000296
0.000340
0.000395
0.001348
0.000237
0.000265
0.000254
0.000280
0.000240
0.000245
0.000255
0.000399
0.001163
0.000267
0.000237
0.000251
0.000250
0.001507
0.000477
0.000431
0.000220
0.000201
0.000055
0.000207
0.000227
0.000248
0.000236
0.000271
0.000249
0.000240
0.000428
0.000344
0.000395
0.000274
0.001490
0.000242
0.000217
0.000263
0.000253
0.000288
0.000328
0.001621
0.000270
0.000400
0.000317
0.001280
0.000444
0.000221
0.000319
0.000262
0.000259
0.000264
0.000268
0.000195
0.000055
0.000221
0.000230
0.000335
0.000260
0.000357
0.000498
0.000269
0.000288
0.001470
0.000240
0.000379
0.000267
0.000234
0.000334
0.000346
0.001317
0.000270
0.000243
0.000243
0.000275
0.001583
0.000303
0.000297
0.000262
0.000265
0.000247
0.000464
0.000329
0.000250
0.000223
0.000279
0.000055
0.000275
0.000334
0.000332
0.000276
0.000220
0.001516
0.000225
0.000235
0.000263
0.000274
0.000267
0.000249
0.000299
0.001478
0.000262
0.000223
0.000456
0.001167
0.000446
0.000428
0.000309
0.000239
0.000241
0.000253
0.000278
0.000245
0.000450
0.000227
0.000270
0.000274
0.000202
0.000056
0.000204
0.000279
0.000370
0.000316
0.001306
0.000288
0.000302
0.000237
0.000258
0.000236
0.000248
0.000371
0.001456
0.000248
0.000225
0.000260
0.001363
0.000398
0.000385
0.000466
0.000283
0.000228
0.000248
0.000255
0.000262
0.000279
0.000276
0.000255
0.000268
0.000251
0.000222
0.000055
0.000247
0.000406
0.001421
0.000210
0.000270
0.000276
0.000239
0.000252
0.000263
0.000399
0.001369
0.000215
0.000257
0.000271
0.000258
0.001270
0.000710
0.000279
0.000336
0.000400
0.000290
0.000238
0.000294
0.000239
0.000270
0.000289
0.000277
0.000314
0.000521
0.000328
0.001390
0.000055
0.000192
0.000243
0.000242
0.000226
0.000310
0.000454
0.000416
0.001264
0.000242
0.000246
0.000267
0.001416
0.000448
0.000304
0.000224
0.000408
0.000255
0.000249
0.000261
0.000277
0.000252
0.000260
0.000279
0.000255
0.000257
0.000402
0.000533
0.000268
0.001499
0.000223
0.000187
0.000057
0.000201
0.000253
0.000336
0.000582
0.001207
0.000279
0.000253
0.000290
0.000218
0.000248
0.000252
0.000315
0.000346
0.000444
0.000352
0.000240
0.000253
0.000274
0.000242
0.000276
0.000258
0.000289
0.000233
0.000271
0.000256
0.000422
0.000538
0.000267
0.000313
0.001410
0.000171
0.000057
0.000206
0.000241
0.000342
0.000398
0.000336
0.000305
0.000311
0.000335
0.000267
0.000276
0.000243
0.000262
0.000272
0.000287
0.000231
0.000301
0.000693
0.000177
0.000294
0.000384
0.000274
0.000406
0.000222
0.000267
0.000246
0.000269
0.000247
0.000301
0.000477
0.000364
0.000288
0.000056
0.000210
0.001408
0.000248
0.000320
0.000430
0.000455
0.000344
0.000284
0.000227
0.000244
0.000252
0.000245
0.000269
0.000273
0.000253
0.000261
0.000260
0.001390
0.000223
0.000263
0.000257
0.000271
0.000268
0.000282
0.000269
0.000251
0.000277
0.000244
0.000370
0.000369
0.000266
0.000056
0.000215
0.000257
0.000222
0.001488
0.000326
0.000244
0.000232
0.000253
0.000222
0.000248
0.000254
0.000268
0.000252
0.000249
0.000287
0.000236
0.000248
0.000264
0.000263
0.000266
0.001424
0.000234
0.000241
0.000278
0.000252
0.000251
0.000267
0.000259
0.000278
0.000493
0.000344
0.000055
0.000215
0.000228
0.000392
0.000284
0.000248
0.000276
0.001572
0.000312
0.000276
0.000220
0.000277
0.000287
0.000333
0.000236
0.000229
0.000266
0.000229
0.000262
0.000262
0.000259
0.000598
0.000428
0.001077
0.000269
0.000245
0.000259
0.000269
0.000265
0.000260
0.000279
0.000393
0.000057
0.000218
0.000343
0.000210
0.000242
0.000249
0.000241
0.000241
0.000230
0.000290
0.001643
0.000325
0.000292
0.000242
0.000248
0.000261
0.000242
0.000261
0.000277
0.000275
0.000291
0.000335
0.000639
0.000288
0.001343
0.000242
0.000257
0.000276
0.000256
0.000272
0.000367
0.000511
0.000057
0.000273
0.000239
0.000239
0.000241
0.000223
0.000240
0.000264
0.000248
0.000269
0.001607
0.000321
0.000255
0.000263
0.000265
0.000451
0.000276
0.000530
0.000368
0.000296
0.000356
0.000428
0.000427
0.001287
0.000265
0.000239
0.000250
0.001764
0.000404
0.000607
0.000323
0.000144
0.000056
0.000209
0.000238
0.000232
0.000242
0.000249
0.000246
0.000248
0.000641
0.000407
0.000365
0.000283
0.000230
0.000237
0.000260
0.000267
0.000263
0.000246
0.000255
0.000255
0.000267
0.000344
0.000477
0.001219
0.000221
0.000251
0.000276
0.001896
0.000381
0.000372
0.000354
0.000163
0.000056
0.000252
0.000238
0.000246
0.001742
0.000250
0.000212
0.000236
0.000261
0.000254
0.000298
0.000374
0.000367
0.000358
0.000277
0.000353
0.000501
0.000363
0.001183
0.000266
0.000244
0.000251
0.000258
0.000270
0.000486
0.000647
0.000352
0.000251
0.000271
0.000267
0.000281
0.000194
0.000055
0.000192
0.000233
0.000241
0.001548
0.000244
0.000232
0.000241
0.000255
0.000241
0.000250
0.000258
0.000268
0.000272
0.000270
0.000253
0.000510
0.000394
0.000251
0.001390
0.000240
0.000254
0.000269
0.000255
0.000285
0.000354
0.000511
0.000437
0.000265
0.000267
0.000225
0.000451
0.000056
0.000196
0.000237
0.000251
0.001613
0.000234
0.000219
0.000263
0.000246
0.000253
0.000255
0.000253
0.000254
0.000262
0.000264
0.000540
0.000394
0.001348
0.000752
0.000264
0.000332
0.000253
0.000240
0.000249
0.000274
0.001684
0.000791
0.000238
0.000264
0.000280
0.000285
0.000189
0.000056
0.000206
0.000227
0.000257
0.000236
0.000256
0.000251
0.000242
0.000254
0.000240
0.000232
0.000285
0.000285
0.000250
0.000251
0.000264
0.000244
0.000269
0.001598
0.000717
0.000411
0.000268
0.000235
0.000245
0.000280
0.000271
0.000251
0.000278
0.000263
0.001421
0.000355
0.000346
0.000056
0.000199
0.000232
0.000250
0.000249
0.000259
0.000231
0.000254
0.000254
0.000252
0.000266
0.000324
0.000384
0.000419
0.000339
0.000211
0.000249
0.000277
0.001372
0.000761
0.000430
0.000321
0.000266
0.000235
0.000245
0.000270
0.000254
0.000258
0.000287
0.001475
0.000436
0.000179
0.000055
0.000197
0.000230
0.000245
0.000247
0.000249
0.000247
0.000240
0.000248
0.000269
0.000277
0.000428
0.000286
0.000348
0.000218
0.000242
0.000249
0.000261
0.000259
0.001597
0.000608
0.000448
0.000329
0.000226
0.000264
0.000254
0.000264
0.000265
0.000279
0.000275
0.001433
0.000277
0.000056
0.000204
0.000216
0.000236
0.000254
0.000253
0.000242
0.000273
0.000308
0.000390
0.000391
0.000393
0.000411
0.000303
0.000227
0.000252
0.000246
0.000284
0.000254
0.000266
0.001892
0.000358
0.000242
0.000442
0.000246
0.000250
0.000263
0.000265
0.000261
0.000285
0.000255
0.000458
0.000056
0.000241
0.000238
0.000231
0.000241
0.000256
0.000250
0.000222
0.000244
0.000288
0.000226
0.000244
0.000255
0.000400
0.000470
0.000326
0.000426
0.000228
0.000264
0.000251
0.000251
0.000255
0.000328
0.001477
0.001004
0.000226
0.000247
0.000273
0.000258
0.000278
0.000249
0.000198
0.000056
0.000222
0.001319
0.000288
0.000220
0.000234
0.000254
0.000250
0.000238
0.000244
0.000250
0.000253
0.000264
0.000269
0.000407
0.000395
0.000381
0.000272
0.000250
0.000267
0.000267
0.000270
0.000221
0.000266
0.000268
0.001315
0.000689
0.000355
0.000335
0.000430
0.000403
0.000241
0.000054
0.000215
0.000276
0.001374
0.000261
0.000216
0.000253
0.000243
0.000246
0.000255
0.000256
0.000266
0.000228
0.000310
0.000482
0.000408
0.000293
0.000225
0.000275
0.000332
0.000217
0.000249
0.000272
0.000237
0.000270
0.000271
0.001532
0.000743
0.000296
0.000277
0.000275
0.000195
0.000055
0.000213
0.000371
0.000344
0.000308
0.001311
0.000233
0.000244
0.000240
0.000232
0.000248
0.000247
0.000254
0.000229
0.000238
0.000273
0.000239
0.000269
0.000238
0.000253
0.000257
0.000264
0.000273
0.000300
0.000337
0.000213
0.000267
0.000269
0.001454
0.000264
0.000244
0.000167
0.000055
0.000210
0.000231
0.000248
0.000315
0.000356
0.000342
0.000385
0.000282
0.001549
0.000319
0.000195
0.000498
0.000374
0.000228
0.000428
0.000228
0.000254
0.000260
0.000276
0.000265
0.000278
0.000266
0.000258
0.000270
0.000267
0.000564
0.000304
0.000251
0.001580
0.000224
0.000199
0.000055
0.000239
0.000239
0.000268
0.000228
0.000239
0.000247
0.000261
0.000275
0.000436
0.002038
0.000247
0.000236
0.000254
0.000257
0.000263
0.000248
0.000271
0.000256
0.000377
0.000315
0.000378
0.000453
0.001446
0.000255
0.000528
0.000230
0.001765
0.000247
0.000259
0.001522
0.000170
0.000056
0.000367
0.000422
0.000433
0.000218
0.000265
0.000246
0.000245
0.000266
0.000261
0.000231
0.000249
0.000467
0.000322
0.000372
0.000362
0.000253
0.000232
0.001561
0.000245
0.000617
0.001827
0.000288
0.000244
0.001705
0.001842
0.000754
0.000280
0.000283
0.000243
0.000457
0.000425
0.000055
0.000219
0.000249
0.000236
0.000248
0.001417
0.001728
0.001082
0.000211
0.000250
0.001564
0.001977
0.000221
0.000228
0.000422
0.000316
0.000375
0.000404
0.000469
0.000207
0.000246
0.000258
0.000244
0.000278
0.001667
0.001113
0.001442
0.000268
0.000306
0.000249
0.000346
0.000401
0.000055
0.000258
0.000193
0.000236
0.000243
0.000229
0.000244
0.000247
0.000248
0.000260
0.000247
0.000247
0.000403
0.000442
0.000355
0.000284
0.000271
0.000253
0.000264
0.000268
0.000266
0.000254
0.000263
0.001522
0.000476
0.002102
0.000226
0.000280
0.000412
0.000416
0.000324
0.000198
0.000054
0.000232
0.000382
0.000417
0.000322
0.000189
0.000229
0.000259
0.000241
0.000240
0.000242
0.000251
0.000260
0.000261
0.001606
0.001358
0.001220
0.000277
0.000250
0.000235
0.000277
0.000283
0.000279
0.000239
0.000256
0.002199
0.000262
0.000246
0.000296
0.000323
0.000304
0.000219
0.000055
0.000231
0.000377
0.000568
0.000274
0.000237
0.000237
0.000249
0.000264
0.001895
0.001428
0.000227
0.000375
0.000394
0.000355
0.000253
0.000223
0.000259
0.000270
0.000263
0.000261
0.000259
0.000266
0.000464
0.000243
0.000275
0.000266
0.000249
0.000276
0.000279
0.000248
0.000204
0.000055
0.000189
0.000250
0.000249
0.000244
0.000246
0.000272
0.001545
0.001406
0.001333
0.000259
0.000214
0.000242
0.000266
0.000261
0.000259
0.000239
0.000252
0.002095
0.000267
0.000232
0.000261
0.000265
0.000250
0.000270
0.000263
0.000257
0.000272
0.000260
0.000276
0.000245
0.000175
0.000055
0.000206
0.002683
0.001395
0.000222
0.000319
0.000282
0.000234
0.000260
0.000258
0.000242
0.000258
0.000243
0.000235
0.000252
0.000266
0.000261
0.000265
0.000277
0.000246
0.000263
0.000270
0.000285
0.000270
0.000261
0.000252
0.000242
0.000264
0.000270
0.000285
0.000251
0.000362
0.000055
0.001540
0.000258
0.001232
0.000230
0.000224
0.000243
0.000262
0.000251
0.000246
0.000276
0.000432
0.000309
0.000345
0.000212
0.000253
0.002136
0.000263
0.000237
0.000284
0.000507
0.000370
0.000290
0.000222
0.000260
0.000261
0.000251
0.000266
0.000281
0.000266
0.001632
0.001232
0.000055
0.000207
0.000246
0.000398
0.000296
0.000392
0.000236
0.000212
0.000229
0.000253
0.000257
0.000268
0.000249
0.000225
0.000253
0.000265
0.000238
0.000373
0.000652
0.000334
0.000187
0.000223
0.000274
0.000284
0.000251
0.000250
0.000250
0.000262
0.000280
0.000242
0.000399
0.000335
0.000055
0.001129
0.000288
0.000393
0.000363
0.000271
0.000228
0.000229
0.000241
0.000252
0.002363
0.000293
0.000396
0.000223
0.000372
0.000277
0.000264
0.000263
0.000258
0.000267
0.000223
0.000253
0.000418
0.000598
0.000304
0.001881
0.001333
0.000560
0.000483
0.000229
0.000278
0.000199
0.000055
0.000274
0.000311
0.000238
0.000253
0.000242
0.000230
0.000252
0.000259
0.000255
0.000247
0.000254
0.000228
0.000249
0.000316
0.000358
0.000478
0.001839
0.001402
0.000405
0.000392
0.000470
0.000241
0.000239
0.000263
0.002232
0.000449
0.000385
0.000239
0.000275
0.000278
0.000198
0.000056
0.000216
0.000239
0.000256
0.000245
0.000248
0.000338
0.000426
0.000351
0.000244
0.000249
0.000239
0.000249
0.000265
0.002142
0.000338
0.000377
0.000219
0.000253
0.000268
0.000255
0.000250
0.002547
0.000247
0.000232
0.000252
0.000253
0.000254
0.000275
0.000281
0.000279
0.000187
0.000056
0.000300
0.000260
0.000538
0.000363
0.000264
0.000231
0.000224
0.000254
0.000262
0.000251
0.001998
0.000367
0.000285
0.000263
0.000224
0.000258
0.000275
0.000239
0.002207
0.000446
0.000226
0.000267
0.000275
0.000255
0.000251
0.000254
0.000282
0.000257
0.000264
0.000256
0.000190
0.000055
0.000216
0.000240
0.000268
0.000205
0.000249
0.000256
0.000236
0.000241
0.000234
0.002179
0.000230
0.000279
0.000222
0.000421
0.000233
0.000254
0.000272
0.000286
0.000245
0.000267
0.001958
0.000294
0.000379
0.000378
0.000386
0.000384
0.000314
0.000250
0.000251
0.000258
0.000203
0.000055
0.000206
0.000239
0.000234
0.000247
0.000253
0.000324
0.000227
0.002301
0.000246
0.000224
0.000262
0.000252
0.000244
0.000251
0.000304
0.002120
0.000593
0.000231
0.000250
0.000247
0.000250
0.000260
0.000292
0.000264
0.000260
0.000259
0.000279
0.000261
0.000262
0.000268
0.000194
0.000058
0.001804
0.001450
0.000198
0.000228
0.000246
0.000255
0.000251
0.000350
0.000364
0.000317
0.002163
0.000261
0.000236
0.000263
0.000359
0.000424
0.000419
0.000277
0.000237
0.000244
0.000290
0.000227
0.000266
0.000222
0.000262
0.000274
0.000260
0.000270
0.000580
0.000397
0.000307
0.000056
0.000203
0.000249
0.000249
0.000269
0.000252
0.000262
0.000240
0.000242
0.001630
0.001968
0.000579
0.000302
0.000390
0.000750
0.000285
0.000246
0.000251
0.000246
0.000266
0.000259
0.000255
0.000244
0.000255
0.000266
0.001818
0.001478
0.000285
0.000262
0.000296
0.000330
0.000371
0.000057
0.001946
0.000225
0.000220
0.000242
0.000309
0.000333
0.000540
0.000222
0.000287
0.000210
0.000253
0.000250
0.000255
0.000259
0.000262
0.000260
0.000253
0.000266
0.001838
0.000246
0.000232
0.000253
0.000279
0.000276
0.000272
0.000268
0.001462
0.000321
0.000249
0.000259
0.000172
0.000057
0.000195
0.000240
0.000238
0.000245
0.000266
0.000225
0.000327
0.000345
0.000330
0.000394
0.000211
0.000238
0.000257
0.000408
0.000366
0.000302
0.000228
0.000245
0.000283
0.000395
0.000486
0.000374
0.000251
0.000255
0.000253
0.000258
0.000255
0.000270
0.000277
0.000260
0.000204
0.000057
0.001400
0.000434
0.000229
0.001932
0.000333
0.000501
0.000332
0.000284
0.000237
0.000242
0.000266
0.000243
0.000242
0.000248
0.000280
0.000241
0.000476
0.000329
0.000318
0.000408
0.000352
0.000221
0.000257
0.000266
0.000274
0.000271
0.000262
0.000267
0.000380
0.000609
0.001195
0.000056
0.000204
0.000229
0.002097
0.000360
0.000226
0.000263
0.000254
0.000254
0.000260
0.000261
0.000214
0.000253
0.000254
0.000263
0.000298
0.000343
0.000683
0.001762
0.000233
0.000288
0.000215
0.000276
0.000451
0.000377
0.001545
0.000294
0.000361
0.001915
0.000263
0.000265
0.000193
0.000056
0.000190
0.000226
0.000235
0.000243
0.000234
0.000246
0.000255
0.000282
0.000327
0.000287
0.000380
0.000358
0.000333
0.000299
0.000236
0.000270
0.000257
0.000241
0.000265
0.000255
0.000298
0.000291
0.000267
0.000270
0.000259
0.001505
0.000288
0.000430
0.002032
0.000237
0.000173
0.000055
0.000216
0.000234
0.000239
0.000249
0.000481
0.000207
0.000252
0.000340
0.000372
0.000332
0.000281
0.000205
0.000263
0.000265
0.000272
0.000333
0.000412
0.000434
0.000251
0.000398
0.000560
0.000605
0.001387
0.000236
0.000265
0.001983
0.000322
0.000256
0.000234
0.000295
0.000185
0.000056
0.000221
0.000238
0.000226
0.000243
0.000252
0.000266
0.000255
0.000269
0.000278
0.000242
0.001795
0.000347
0.000370
0.000331
0.000409
0.000399
0.000386
0.001419
0.000251
0.000326
0.002188
0.000453
0.000255
0.000242
0.000261
0.000266
0.000502
0.000230
0.000252
0.000275
0.000199
0.000054
0.000268
0.000365
0.000349
0.000265
0.000207
0.000239
0.000261
0.000245
0.000269
0.000295
0.000227
0.000248
0.000261
0.000284
0.000434
0.001395
0.000319
0.000209
0.000281
0.002046
0.000247
0.000267
0.000254
0.000261
0.000245
0.000278
0.000269
0.000263
0.000251
0.000265
0.000206
0.000055
0.000400
0.000238
0.002023
0.000260
0.000259
0.000218
0.000266
0.000413
0.000328
0.000412
0.001297
0.000438
0.000292
0.002081
0.000210
0.000248
0.000267
0.000275
0.000256
0.000246
0.000279
0.000291
0.000262
0.000384
0.000562
0.000277
0.000301
0.002228
0.000561
0.000398
0.000453
0.000056
0.000198
0.000232
0.000246
0.001963
0.000233
0.000227
0.000244
0.000240
0.000242
0.000256
0.000248
0.000258
0.000246
0.000292
0.000526
0.001376
0.000242
0.000256
0.000268
0.000254
0.000235
0.000257
0.000263
0.000333
0.000295
0.000438
0.000456
0.000237
0.001593
0.000282
0.000168
0.000057
0.000209
0.000214
0.000246
0.000234
0.000249
0.000253
0.000251
0.000247
0.000321
0.000355
0.000342
0.001395
0.000236
0.000223
0.000250
0.000264
0.000254
0.000254
0.000496
0.000295
0.000491
0.000348
0.000228
0.001570
0.000237
0.000257
0.000286
0.000279
0.000264
0.000271
0.000188
0.000056
0.000224
0.000221
0.000272
0.000265
0.000247
0.000243
0.000238
0.000240
0.000270
0.000230
0.000265
0.000244
0.000255
0.001480
0.000359
0.000215
0.000250
0.000265
0.000308
0.000329
0.000381
0.000222
0.000243
0.000260
0.000256
0.000284
0.000244
0.001412
0.000280
0.000228
0.000174
0.000055
0.000216
0.000235
0.000255
0.000256
0.000258
0.000236
0.000248
0.000258
0.000220
0.000265
0.000245
0.000261
0.000241
0.000391
0.000275
0.000329
0.000284
0.000248
0.001631
0.000238
0.000247
0.000260
0.000263
0.000279
0.000459
0.000306
0.000456
0.000257
0.000264
0.001600
0.000160
0.000056
0.000390
0.000279
0.000418
0.000252
0.000227
0.000217
0.000243
0.000272
0.000255
0.000235
0.000244
0.000241
0.001497
0.000269
0.000289
0.000232
0.000265
0.000237
0.000270
0.000269
0.000252
0.000238
0.000258
0.000271
0.000267
0.000358
0.000479
0.000383
0.000221
0.000255
0.000192
0.000055
0.000212
0.000293
0.000488
0.000291
0.000344
0.000261
0.000249
0.000247
0.000251
0.000257
0.000242
0.000224
0.000260
0.000246
0.001289
0.000259
0.000240
0.000252
0.000268
0.000277
0.000232
0.000267
0.000252
0.000260
0.000254
0.000259
0.000334
0.000733
0.000378
0.000230
0.000185
0.000055
0.000205
0.001556
0.000287
0.000359
0.000454
0.000307
0.000219
0.000261
0.000265
0.000260
0.000235
0.000259
0.000270
0.000269
0.000259
0.001526
0.000253
0.000287
0.000264
0.000273
0.000244
0.000248
0.000268
0.000264
0.000257
0.000289
0.000433
0.000411
0.000286
0.000239
0.000196
0.000056
0.000210
0.000249
0.000239
0.001701
0.000329
0.000345
0.000237
0.000233
0.000251
0.000270
0.000278
0.000263
0.000238
0.000264
0.000235
0.000292
0.000332
0.001367
0.000243
0.000244
0.001485
0.000398
0.000524
0.000366
0.000333
0.000248
0.000264
0.000462
0.000238
0.000262
0.000184
0.000057
0.000189
0.000223
0.000245
0.000250
0.000248
0.000252
0.000236
0.000259
0.000271
0.000223
0.000254
0.000258
0.000334
0.000571
0.001575
0.001539
0.000310
0.000604
0.000264
0.000230
0.000233
0.000257
0.000247
0.000265
0.000252
0.000264
0.000258
0.000274
0.001520
0.000336
0.000159
0.000055
0.000202
0.000359
0.000353
0.000322
0.000249
0.000212
0.000241
0.000455
0.000340
0.000339
0.002172
0.000329
0.000819
0.000435
0.000429
0.000292
0.000294
0.000409
0.000313
0.000274
0.000398
0.000238
0.001806
0.000279
0.000221
0.000258
0.000261
0.000247
0.000273
0.000261
0.000207
0.000056
0.000206
0.000249
0.000266
0.000245
0.000241
0.001662
0.000888
0.000982
0.000211
0.000241
0.000256
0.000254
0.000264
0.000258
0.000257
0.000250
0.000248
0.000268
0.000265
0.000292
0.001416
0.000315
0.000257
0.000221
0.000239
0.000272
0.000252
0.000288
0.000252
0.000290
0.001888
0.000056
0.000194
0.000232
0.001559
0.000954
0.000300
0.000325
0.000246
0.000225
0.000272
0.000237
0.000242
0.000253
0.000253
0.001970
0.000477
0.000222
0.000247
0.000260
0.000263
0.000257
0.000194
