0.000107
0.018817
0.002635
0.000346
0.000265
0.000295
0.000325
0.000225
0.000330
0.000281
0.000276
0.000312
0.000561
0.000424
0.000354
0.000408
0.000265
0.000341
0.000356
0.000417
0.001840
0.000354
0.000740
0.000275
0.000238
0.000305
0.000316
0.000309
0.000422
0.000387
0.000487
0.000308
0.000057
0.000213
0.000269
0.000271
0.000284
0.000249
0.000250
0.000278
0.000287
0.000273
0.000277
0.000455
0.000391
0.000310
0.000255
0.000376
0.000348
0.000368
0.000256
0.000244
0.001704
0.000309
0.000260
0.000450
0.000257
0.000269
0.000277
0.000291
0.000291
0.000293
0.000350
0.000406
0.000056
0.000199
0.000249
0.000261
0.000261
0.000253
0.000249
0.000259
0.000260
0.000281
0.001668
0.000242
0.000215
0.000277
0.000267
0.000280
0.000252
0.000265
0.000250
0.000357
0.001794
0.000235
0.000282
0.000447
0.000429
0.000386
0.000247
0.000257
0.000496
0.000439
0.000802
0.000198
0.000056
0.000228
0.000254
0.000249
0.000236
0.000299
0.000250
0.000284
0.000567
0.000433
0.000235
0.000240
0.000250
0.000244
0.000249
0.000263
0.000254
0.000262
0.000247
0.000298
0.000321
0.001673
0.000268
0.000250
0.000430
0.000317
0.000703
0.000669
0.000488
0.000354
0.000239
0.000193
0.000054
0.000210
0.000252
0.000290
0.000214
0.000282
0.000236
0.000301
0.000369
0.001522
0.000218
0.000248
0.000244
0.000258
0.000254
0.000261
0.000288
0.000292
0.000797
0.001383
0.000291
0.000244
0.000410
0.000244
0.000248
0.000261
0.000255
0.000266
0.000282
0.000248
0.000270
0.000191
0.000055
0.000219
0.000245
0.000244
0.000263
0.000236
0.000250
0.000233
0.000257
0.000234
0.000260
0.001628
0.000265
0.000231
0.000247
0.000253
0.000247
0.000255
0.000238
0.000260
0.000255
0.000289
0.001643
0.000279
0.000256
0.000437
0.000259
0.000254
0.000257
0.000262
0.000269
0.000198
0.000057
0.000185
0.000230
0.000252
0.000245
0.000240
0.000249
0.000261
0.000236
0.000264
0.000261
0.000246
0.000260
0.000253
0.000274
0.001637
0.000280
0.000288
0.000214
0.000261
0.000273
0.000272
0.000233
0.000243
0.000263
0.001797
0.000390
0.000340
0.000373
0.000237
0.000276
0.000201
0.000055
0.000200
0.000239
0.000248
0.000273
0.000256
0.000260
0.000247
0.000418
0.000379
0.000465
0.000207
0.000246
0.000256
0.000247
0.001563
0.000535
0.000319
0.000406
0.000327
0.000223
0.000268
0.000282
0.000275
0.001981
0.000230
0.000496
0.000258
0.000228
0.000251
0.000264
0.000190
0.000056
0.000212
0.000235
0.000258
0.000259
0.000333
0.000433
0.000381
0.000287
0.000218
0.000250
0.000262
0.000235
0.000260
0.001755
0.000473
0.000258
0.000224
0.000249
0.000273
0.000297
0.000235
0.000259
0.001809
0.000378
0.000286
0.000380
0.000246
0.000261
0.000269
0.000396
0.000331
0.000056
0.000210
0.000379
0.000398
0.000241
0.000263
0.000245
0.000251
0.000258
0.000238
0.000235
0.000235
0.000254
0.001542
0.000342
0.000326
0.000235
0.000256
0.000252
0.000249
0.000299
0.000342
0.000243
0.000243
0.001818
0.000247
0.000533
0.000220
0.000251
0.000251
0.000265
0.000271
0.000057
0.000325
0.000544
0.000616
0.000207
0.000228
0.000273
0.000234
0.000218
0.000263
0.000250
0.000257
0.001691
0.000252
0.000443
0.000367
0.000226
0.000243
0.000229
0.000248
0.000253
0.000260
0.001861
0.000220
0.000482
0.001853
0.000518
0.000361
0.000250
0.000253
0.000268
0.000186
0.000056
0.000218
0.000237
0.000245
0.000238
0.000259
0.001625
0.000254
0.000232
0.000253
0.000248
0.000242
0.000256
0.000241
0.000252
0.000279
0.000413
0.000623
0.000248
0.000244
0.000264
0.000293
0.000225
0.000244
0.000456
0.000413
0.000258
0.000320
0.000620
0.000403
0.000271
0.000206
0.000056
0.000206
0.000229
0.000249
0.000254
0.000244
0.000234
0.000238
0.000410
0.001832
0.000327
0.000202
0.000236
0.000247
0.000243
0.000266
0.000299
0.000384
0.000492
0.000351
0.000236
0.000265
0.000302
0.000275
0.000260
0.000270
0.000429
0.000345
0.000606
0.000388
0.000526
0.000172
0.000056
0.000194
0.000262
0.000240
0.000239
0.000231
0.000240
0.000248
0.000258
0.000228
0.000286
0.000338
0.000457
0.001382
0.000234
0.000241
0.000250
0.000255
0.000248
0.000253
0.000250
0.000295
0.000467
0.000379
0.000269
0.000270
0.000252
0.000265
0.000265
0.000266
0.000261
0.000376
0.000055
0.000194
0.000239
0.000227
0.000304
0.000496
0.000451
0.000224
0.000254
0.000233
0.000261
0.000259
0.000229
0.000297
0.000249
0.000244
0.000488
0.000415
0.001630
0.000287
0.000230
0.000268
0.000254
0.000256
0.000240
0.000268
0.000415
0.000495
0.000337
0.000420
0.000254
0.000186
0.000056
0.000220
0.000435
0.000231
0.000218
0.000285
0.000227
0.000307
0.000553
0.000321
0.000327
0.000227
0.000278
0.000254
0.000245
0.000515
0.000335
0.000236
0.000312
0.000423
0.001550
0.000277
0.000246
0.000513
0.000249
0.000280
0.000276
0.000257
0.000383
0.000521
0.000371
0.000259
0.000055
0.000212
0.000241
0.000237
0.000242
0.000418
0.000306
0.000289
0.000224
0.000400
0.000508
0.000350
0.000248
0.000241
0.000239
0.000261
0.000262
0.000255
0.000252
0.000239
0.000340
0.000292
0.000352
0.001820
0.000248
0.000257
0.000258
0.000276
0.000352
0.000419
0.000703
0.000457
0.000055
0.000229
0.000333
0.000303
0.000418
0.000384
0.000210
0.000258
0.000381
0.000404
0.000449
0.000243
0.000243
0.000235
0.000274
0.000261
0.000237
0.000251
0.000276
0.000269
0.000259
0.000265
0.000491
0.000583
0.001325
0.000329
0.000431
0.000420
0.000237
0.000434
0.000415
0.000336
0.000056
0.000231
0.000383
0.000278
0.000200
0.000238
0.000244
0.000412
0.000236
0.000235
0.000393
0.000442
0.000377
0.000270
0.000261
0.000264
0.000249
0.000347
0.000410
0.000330
0.000241
0.000255
0.000612
0.000400
0.001682
0.000238
0.000421
0.000318
0.000226
0.000289
0.000483
0.000246
0.000055
0.000189
0.000230
0.000252
0.000250
0.000245
0.000238
0.000252
0.000328
0.000448
0.000387
0.000323
0.000371
0.000307
0.000581
0.000244
0.000240
0.000273
0.000263
0.000230
0.000341
0.000237
0.000239
0.000277
0.000553
0.000319
0.001674
0.000285
0.000234
0.000244
0.000274
0.000188
0.000055
0.000394
0.000391
0.000329
0.000220
0.000253
0.000239
0.000254
0.000244
0.000268
0.000240
0.000222
0.000266
0.000386
0.000530
0.000414
0.000267
0.000255
0.000251
0.000341
0.000378
0.000382
0.000339
0.000360
0.000393
0.000243
0.000266
0.000262
0.000273
0.001789
0.000245
0.000208
0.000056
0.000209
0.000221
0.000256
0.000287
0.000333
0.000543
0.000321
0.000212
0.000289
0.000234
0.000248
0.000249
0.000521
0.000451
0.000479
0.000274
0.000262
0.000269
0.000426
0.000464
0.000352
0.000401
0.000469
0.000472
0.000234
0.000256
0.000266
0.000248
0.000261
0.001716
0.000335
0.000055
0.000322
0.000262
0.000200
0.000242
0.000256
0.000251
0.000239
0.000495
0.000427
0.000268
0.000280
0.000287
0.000441
0.000576
0.000298
0.000253
0.000247
0.000252
0.000252
0.000270
0.000276
0.000261
0.000241
0.000266
0.000327
0.000358
0.000407
0.000338
0.000247
0.000247
0.000190
0.000058
0.000453
0.000591
0.000183
0.000230
0.000206
0.000249
0.000243
0.000251
0.000247
0.000220
0.000254
0.000276
0.000295
0.000365
0.000506
0.000481
0.000320
0.000312
0.000381
0.000342
0.000299
0.000248
0.000244
0.000258
0.001742
0.000259
0.001730
0.000931
0.000400
0.000340
0.000157
0.000057
0.000199
0.000237
0.000236
0.000242
0.000270
0.000242
0.000247
0.000254
0.000243
0.000365
0.000298
0.000488
0.000302
0.000371
0.000257
0.000241
0.000258
0.000290
0.000231
0.000267
0.000238
0.000258
0.001817
0.000231
0.000262
0.000264
0.000274
0.000263
0.001884
0.000489
0.000259
0.000055
0.000189
0.000214
0.000243
0.000232
0.000258
0.000272
0.000217
0.000254
0.000254
0.000366
0.000590
0.000288
0.000394
0.000221
0.000251
0.000250
0.000325
0.000436
0.000372
0.000254
0.001785
0.000253
0.000247
0.000249
0.000262
0.000270
0.000241
0.000260
0.000319
0.000310
0.000409
0.000055
0.000258
0.000216
0.000242
0.000269
0.000241
0.000239
0.000259
0.000253
0.000239
0.000276
0.000223
0.000253
0.000432
0.000360
0.000430
0.000191
0.000457
0.000242
0.000247
0.000253
0.000261
0.000263
0.000273
0.000252
0.000280
0.001795
0.000230
0.000258
0.000269
0.000242
0.000196
0.000057
0.000290
0.000338
0.000238
0.000226
0.000245
0.000222
0.000238
0.000259
0.000244
0.000229
0.000244
0.000249
0.000261
0.000369
0.000392
0.000370
0.000277
0.000242
0.000258
0.000248
0.000261
0.000263
0.000245
0.000266
0.000278
0.000242
0.000353
0.001583
0.000262
0.000248
0.000187
0.000056
0.000199
0.000245
0.000253
0.000259
0.000343
0.000335
0.000424
0.000311
0.000233
0.000252
0.000268
0.000229
0.000246
0.000255
0.000265
0.000260
0.000242
0.000255
0.000254
0.000256
0.000269
0.000269
0.000249
0.000233
0.000241
0.000282
0.000277
0.000257
0.000263
0.000258
0.000191
0.000055
0.000220
0.000232
0.000262
0.000273
0.000232
0.000236
0.000240
0.000261
0.000276
0.000251
0.000223
0.000249
0.000257
0.000249
0.000290
0.000238
0.000271
0.000231
0.000301
0.000252
0.000271
0.000319
0.000270
0.000223
0.000307
0.000247
0.000271
0.000248
0.000254
0.000426
0.000708
0.000056
0.000223
0.000284
0.000223
0.000235
0.000233
0.000256
0.000244
0.000248
0.000251
0.000246
0.000264
0.000288
0.000521
0.000585
0.001404
0.000233
0.000497
0.000227
0.000249
0.000449
0.000458
0.000372
0.000225
0.000282
0.000252
0.000257
0.000282
0.000252
0.000308
0.000277
0.000170
0.000056
0.000289
0.000491
0.000324
0.000323
0.000217
0.000280
0.000224
0.000244
0.000232
0.000241
0.000258
0.000253
0.000234
0.000299
0.000333
0.000497
0.000401
0.001779
0.000234
0.000259
0.000373
0.000400
0.000441
0.000282
0.000321
0.000317
0.000304
0.000232
0.000226
0.000255
0.000200
0.000056
0.000226
0.000229
0.000234
0.000282
0.000321
0.000487
0.000367
0.000235
0.000253
0.000215
0.000247
0.000272
0.000265
0.000262
0.000246
0.000258
0.000313
0.000483
0.000442
0.000328
0.000236
0.001751
0.000313
0.000497
0.000491
0.000496
0.000319
0.000224
0.000261
0.000269
0.000448
0.000057
0.000196
0.000272
0.000216
0.000353
0.000389
0.000406
0.000416
0.000223
0.000257
0.000276
0.000226
0.000259
0.000252
0.000294
0.000308
0.000241
0.000239
0.000419
0.000416
0.000357
0.000490
0.001849
0.000249
0.000447
0.000478
0.000368
0.000233
0.000258
0.000287
0.000264
0.000207
0.000055
0.000210
0.000335
0.000363
0.000381
0.000344
0.000358
0.000307
0.000218
0.000239
0.000254
0.000278
0.000219
0.000260
0.000251
0.000248
0.000262
0.000315
0.000379
0.000505
0.000377
0.000300
0.000225
0.000257
0.001715
0.000523
0.000377
0.000718
0.000231
0.000266
0.000302
0.000161
0.000054
0.000192
0.000238
0.000346
0.000236
0.000264
0.000367
0.000393
0.000333
0.000244
0.000533
0.000219
0.000257
0.000258
0.000275
0.000275
0.000265
0.000208
0.000417
0.000422
0.000419
0.000268
0.000231
0.000274
0.000226
0.000270
0.000264
0.000245
0.000249
0.000269
0.000283
0.000200
0.000055
0.000330
0.000309
0.000210
0.000261
0.000253
0.000257
0.000241
0.000284
0.000239
0.000251
0.000279
0.000329
0.000440
0.000397
0.000326
0.000278
0.000230
0.000232
0.000263
0.000266
0.000287
0.000273
0.000220
0.000255
0.000284
0.000294
0.000435
0.000371
0.000353
0.000241
0.000181
0.000055
0.000211
0.000229
0.000274
0.000245
0.000236
0.000275
0.000258
0.000235
0.000496
0.000210
0.000256
0.000262
0.000235
0.000269
0.000271
0.000291
0.000242
0.000364
0.000209
0.000242
0.000252
0.000261
0.000262
0.000270
0.000274
0.000283
0.000246
0.000251
0.000259
0.000495
0.000165
0.000056
0.000207
0.000237
0.000264
0.000281
0.000198
0.000246
0.000360
0.000408
0.000239
0.000237
0.000252
0.000256
0.000231
0.000254
0.000385
0.001854
0.000234
0.000259
0.000291
0.000324
0.000407
0.000365
0.000369
0.000382
0.000401
0.000402
0.000237
0.000279
0.000268
0.000271
0.001398
0.000055
0.000358
0.000349
0.000222
0.000217
0.000238
0.000251
0.000233
0.000255
0.000243
0.000271
0.000245
0.000259
0.000273
0.000452
0.000350
0.001642
0.000234
0.000238
0.000242
0.000261
0.000234
0.000354
0.000303
0.000409
0.000240
0.000362
0.000217
0.000270
0.000279
0.000261
0.000189
0.000055
0.001209
0.000513
0.000447
0.000166
0.000240
0.000222
0.000236
0.000238
0.000493
0.000213
0.000244
0.000248
0.000342
0.000443
0.000466
0.000357
0.000256
0.000226
0.000324
0.000364
0.000277
0.000253
0.000267
0.000247
0.000268
0.000606
0.000571
0.000206
0.000269
0.000264
0.000173
0.000055
0.000211
0.000219
0.000245
0.000251
0.001459
0.000305
0.000224
0.000252
0.000264
0.000227
0.000253
0.000253
0.000244
0.000262
0.000268
0.000452
0.000256
0.000663
0.000271
0.001804
0.000219
0.000261
0.000313
0.000418
0.000559
0.000403
0.000242
0.000247
0.000258
0.000266
0.000197
0.000056
0.000217
0.000251
0.000233
0.000356
0.001222
0.000229
0.000260
0.000258
0.000242
0.000233
0.000237
0.000256
0.000277
0.000243
0.000249
0.000376
0.000422
0.000378
0.000322
0.000270
0.000264
0.000269
0.000246
0.000240
0.000281
0.000271
0.000240
0.000273
0.000292
0.000478
0.000413
0.000056
0.000222
0.000245
0.000241
0.000253
0.000268
0.000240
0.000230
0.000267
0.000270
0.000277
0.001416
0.000220
0.000241
0.000248
0.000247
0.000249
0.000285
0.000244
0.000280
0.000244
0.000273
0.000582
0.000412
0.000350
0.000210
0.000277
0.001791
0.000239
0.000248
0.000385
0.000359
0.000056
0.000177
0.000402
0.000453
0.000505
0.000513
0.000553
0.001487
0.000418
0.000512
0.000655
0.000548
0.000821
0.000453
0.000544
0.000586
0.001901
0.000376
0.000454
0.000391
0.000324
0.000225
0.000267
0.000290
0.000262
0.000262
0.000288
0.000296
0.000278
0.000266
0.000286
0.001369
0.000056
0.000200
0.000232
0.000251
0.000235
0.000258
0.000259
0.000235
0.000236
0.000250
0.000253
0.000240
0.000236
0.000265
0.000275
0.000248
0.000263
0.001807
0.000281
0.000242
0.000241
0.000272
0.000251
0.000268
0.000308
0.000385
0.000455
0.000298
0.000245
0.000268
0.000286
0.000202
0.000056
0.000189
0.001366
0.000323
0.000282
0.000246
0.000241
0.000243
0.000239
0.000231
0.000234
0.000217
0.000253
0.000252
0.000501
0.000362
0.000302
0.000244
0.001817
0.000374
0.000220
0.000248
0.000268
0.000253
0.000260
0.000277
0.000286
0.000268
0.000245
0.000268
0.000318
0.000205
0.000056
0.000221
0.000240
0.000252
0.001447
0.000209
0.000250
0.000251
0.000251
0.000231
0.000269
0.000252
0.000245
0.000246
0.000284
0.000240
0.000250
0.000263
0.000265
0.000286
0.000243
0.000260
0.001769
0.000271
0.001765
0.000251
0.000260
0.000264
0.000267
0.000267
0.000269
0.000210
0.000055
0.000199
0.000232
0.001355
0.000230
0.000248
0.000242
0.000262
0.000254
0.000245
0.000251
0.000259
0.000237
0.000259
0.000263
0.000254
0.000268
0.000280
0.000281
0.000288
0.000217
0.001879
0.000230
0.001835
0.000234
0.000268
0.000277
0.000228
0.000247
0.000252
0.000278
0.000192
0.000055
0.001443
0.000222
0.000208
0.000248
0.000241
0.000239
0.000372
0.000284
0.000235
0.000254
0.000251
0.000260
0.000272
0.000449
0.000330
0.000229
0.000250
0.000264
0.000273
0.000248
0.000271
0.000341
0.000223
0.000255
0.000272
0.000272
0.000278
0.000339
0.000653
0.000352
0.000193
0.000056
0.000203
0.000240
0.000265
0.000307
0.000366
0.000245
0.001682
0.000322
0.000277
0.000276
0.000247
0.000277
0.000263
0.000271
0.000299
0.000305
0.000344
0.000571
0.000377
0.000264
0.000289
0.000280
0.000265
0.000269
0.000330
0.000252
0.000273
0.000249
0.000261
0.000299
0.000466
0.000057
0.000241
0.000461
0.000275
0.000263
0.000249
0.000227
0.000233
0.000239
0.000263
0.000270
0.001500
0.000216
0.000228
0.000252
0.000242
0.000291
0.000289
0.000226
0.000261
0.000262
0.000264
0.000334
0.000605
0.000293
0.000268
0.000286
0.000267
0.000256
0.000238
0.000306
0.000173
0.000055
0.000209
0.000226
0.000291
0.000456
0.000387
0.000264
0.000214
0.000250
0.000251
0.000250
0.000234
0.000256
0.000256
0.000267
0.000240
0.000321
0.000343
0.001180
0.000237
0.000257
0.000277
0.000245
0.000356
0.000409
0.000273
0.000317
0.000596
0.000327
0.000389
0.000231
0.000180
0.000055
0.000241
0.000243
0.000258
0.000260
0.000257
0.000246
0.000323
0.000398
0.000475
0.000276
0.000355
0.000391
0.000394
0.000366
0.000255
0.000238
0.000246
0.000252
0.000399
0.000461
0.001266
0.000226
0.000278
0.000273
0.000230
0.000240
0.000261
0.000289
0.000452
0.000456
0.000219
0.000055
0.000203
0.000263
0.000241
0.000238
0.000239
0.000249
0.000241
0.000262
0.000299
0.000486
0.000227
0.000431
0.000244
0.000246
0.000246
0.000273
0.000234
0.000267
0.000264
0.000271
0.000422
0.000266
0.000366
0.000375
0.000347
0.000255
0.000273
0.000269
0.000248
0.000340
0.000159
0.000055
0.000308
0.000318
0.000313
0.000387
0.000406
0.000389
0.000244
0.000244
0.000242
0.000273
0.000276
0.000245
0.000236
0.000249
0.000240
0.000226
0.000267
0.000501
0.000366
0.000343
0.000218
0.000274
0.000250
0.000248
0.000273
0.000272
0.000264
0.000277
0.000272
0.000259
0.000300
0.000056
0.000294
0.000312
0.000242
0.000266
0.000228
0.000247
0.000260
0.000247
0.000258
0.000252
0.000253
0.000235
0.000417
0.000379
0.000445
0.000280
0.000226
0.000246
0.000258
0.000265
0.000278
0.000241
0.000255
0.000268
0.000274
0.000369
0.000347
0.000608
0.000404
0.000266
0.000156
0.000056
0.000429
0.000180
0.000224
0.000245
0.000250
0.000248
0.000230
0.000255
0.000261
0.000252
0.000224
0.000246
0.000270
0.000229
0.000242
0.000266
0.000253
0.000266
0.000291
0.000243
0.000260
0.000262
0.000265
0.000262
0.000265
0.000239
0.000263
0.000276
0.000260
0.000275
0.000204
0.000056
0.000228
0.000212
0.000246
0.000248
0.000227
0.000262
0.000260
0.000241
0.000261
0.000273
0.000233
0.000232
0.000266
0.000393
0.000249
0.000309
0.000236
0.000268
0.000250
0.000276
0.000275
0.000241
0.000241
0.000240
0.000275
0.000276
0.000252
0.000255
0.000275
0.000257
0.000202
0.000056
0.000205
0.000355
0.000370
0.000278
0.000298
0.000257
0.000269
0.000256
0.000224
0.000244
0.000277
0.000237
0.000250
0.000244
0.000254
0.000282
0.000236
0.000269
0.000251
0.000259
0.000277
0.000263
0.000279
0.000251
0.000291
0.000231
0.000266
0.000264
0.000271
0.000259
0.000195
0.000055
0.000215
0.000234
0.000263
0.000264
0.000252
0.000442
0.000212
0.000271
0.000288
0.000473
0.000452
0.000271
0.000226
0.000249
0.000277
0.000259
0.000234
0.000268
0.000261
0.000274
0.000265
0.000252
0.000262
0.000252
0.000577
0.000497
0.000253
0.000299
0.000259
0.000266
0.000192
0.000055
0.000208
0.000217
0.000247
0.000254
0.000307
0.000752
0.000225
0.000379
0.000211
0.000246
0.000248
0.000259
0.000249
0.000263
0.000239
0.000276
0.000273
0.000236
0.000662
0.000357
0.000301
0.000241
0.000262
0.000280
0.000278
0.000255
0.000269
0.000286
0.000240
0.000315
0.000298
0.000055
0.000290
0.000234
0.000243
0.000235
0.000256
0.000264
0.000213
0.000250
0.000245
0.000257
0.000247
0.000252
0.000246
0.000362
0.000607
0.000422
0.000198
0.000257
0.000262
0.000251
0.000263
0.000284
0.000480
0.000216
0.000265
0.000691
0.000385
0.000424
0.000249
0.000254
0.000189
0.000056
0.000217
0.000236
0.000246
0.000237
0.000258
0.000258
0.000511
0.000292
0.000586
0.000357
0.000220
0.000262
0.000278
0.000271
0.000256
0.000248
0.000235
0.000250
0.000272
0.000389
0.000367
0.000615
0.000362
0.000262
0.000353
0.000374
0.000497
0.000244
0.000257
0.000474
0.000311
0.000055
0.000275
0.000234
0.000432
0.000226
0.000229
0.000255
0.000262
0.000259
0.000229
0.000243
0.000315
0.000458
0.000226
0.000366
0.000232
0.000272
0.000245
0.000248
0.000264
0.000282
0.000271
0.000244
0.000258
0.000270
0.000354
0.000441
0.000491
0.000251
0.000249
0.000268
0.000196
0.000055
0.000206
0.000247
0.000231
0.000244
0.000248
0.000278
0.000398
0.000340
0.000443
0.000275
0.000362
0.000227
0.000253
0.000266
0.000254
0.000241
0.000258
0.000261
0.000335
0.000400
0.000493
0.000274
0.000481
0.000263
0.000385
0.000418
0.000386
0.000233
0.000272
0.000281
0.000347
0.000054
0.000241
0.000275
0.000239
0.000238
0.000256
0.000260
0.000244
0.000247
0.000269
0.000248
0.000235
0.000405
0.000447
0.000331
0.000376
0.000224
0.000269
0.000261
0.000266
0.000234
0.000248
0.000254
0.000267
0.000277
0.000271
0.000320
0.000506
0.000474
0.000238
0.000296
0.000174
0.000057
0.000206
0.000240
0.000275
0.000250
0.000239
0.000374
0.000465
0.000486
0.000342
0.000693
0.000261
0.000207
0.000247
0.000261
0.000248
0.000266
0.000280
0.000275
0.000481
0.000494
0.001431
0.000311
0.000263
0.000284
0.000265
0.000268
0.000386
0.000415
0.000343
0.000321
0.000185
0.000055
0.000199
0.000234
0.000243
0.000267
0.000230
0.000247
0.000298
0.000232
0.000242
0.000319
0.000334
0.000378
0.000271
0.000340
0.000394
0.000347
0.000254
0.000237
0.000276
0.000256
0.000244
0.000246
0.000310
0.000228
0.000318
0.000435
0.000427
0.000307
0.000244
0.000268
0.000184
0.000057
0.000207
0.000245
0.000258
0.000257
0.000241
0.000233
0.000476
0.000209
0.000235
0.000254
0.000250
0.000247
0.000262
0.000252
0.000255
0.000266
0.000259
0.000289
0.000252
0.000253
0.000285
0.000265
0.000294
0.000241
0.000267
0.000283
0.000269
0.000260
0.000263
0.000277
0.000164
0.000055
0.000213
0.000258
0.000286
0.000404
0.000390
0.000253
0.000238
0.000243
0.000282
0.000228
0.000250
0.000256
0.000261
0.000261
0.000241
0.000240
0.000265
0.000247
0.000344
0.000300
0.000414
0.000402
0.000247
0.000249
0.000266
0.000254
0.000267
0.000249
0.000271
0.000280
0.000201
0.000055
0.000344
0.000434
0.000381
0.000211
0.000273
0.000233
0.000422
0.000218
0.000231
0.000255
0.000251
0.000291
0.000356
0.000465
0.001844
0.000244
0.000245
0.000253
0.000278
0.000244
0.000275
0.000475
0.000634
0.000305
0.000234
0.000264
0.000268
0.000430
0.000274
0.000284
0.000162
0.000055
0.000260
0.000389
0.000300
0.000312
0.000497
0.000206
0.000254
0.000234
0.000250
0.000234
0.000271
0.000242
0.000263
0.000337
0.000390
0.000476
0.000224
0.000247
0.000262
0.000257
0.000278
0.000344
0.000187
0.000283
0.000279
0.000442
0.000538
0.000546
0.000284
0.000241
0.000203
0.000055
0.000211
0.000248
0.000255
0.000232
0.000246
0.000248
0.000272
0.000455
0.000223
0.000331
0.000411
0.000346
0.000219
0.000249
0.000269
0.000298
0.000291
0.000235
0.000278
0.000271
0.000237
0.000320
0.000452
0.000372
0.000290
0.000260
0.000263
0.000441
0.000408
0.000297
0.000193
0.000056
0.000196
0.000234
0.000345
0.000395
0.000403
0.000203
0.000236
0.000258
0.000266
0.000259
0.000254
0.000259
0.000224
0.000251
0.000261
0.000296
0.000405
0.000352
0.000332
0.000308
0.000493
0.000224
0.000277
0.000280
0.000302
0.000281
0.000252
0.000262
0.000470
0.000497
0.000222
0.000055
0.000220
0.000230
0.000247
0.000251
0.000242
0.000482
0.000211
0.000251
0.000269
0.000396
0.000396
0.000615
0.000212
0.000243
0.000238
0.000250
0.000259
0.000279
0.000230
0.000251
0.000285
0.000238
0.000417
0.000366
0.000355
0.000418
0.000283
0.000304
0.000317
0.000254
0.000201
0.000055
0.000218
0.000229
0.000306
0.000454
0.000336
0.000267
0.000259
0.000228
0.000247
0.000255
0.000249
0.000265
0.000259
0.000248
0.000249
0.000265
0.000242
0.000245
0.000268
0.000394
0.000422
0.000474
0.000220
0.000254
0.000275
0.000275
0.000261
0.000255
0.000265
0.000272
0.000186
0.000056
0.000323
0.000359
0.000438
0.000259
0.000200
0.000248
0.000317
0.000456
0.000293
0.000206
0.000243
0.000276
0.000275
0.000441
0.000434
0.000298
0.000209
0.000245
0.000254
0.000260
0.000272
0.000264
0.000261
0.000276
0.000263
0.000341
0.000362
0.000406
0.000302
0.000252
0.000182
0.000055
0.000214
0.000241
0.000247
0.000258
0.000265
0.000246
0.000229
0.000271
0.000249
0.000233
0.000266
0.000237
0.000287
0.001428
0.000230
0.000274
0.000238
0.000248
0.000274
0.000280
0.000263
0.000238
0.000276
0.000254
0.000270
0.000265
0.000271
0.000274
0.000257
0.000269
0.000197
0.000056
0.000193
0.000237
0.000250
0.000266
0.000227
0.000237
0.000259
0.000259
0.000227
0.000247
0.000248
0.000261
0.000256
0.000252
0.000259
0.000262
0.000248
0.000251
0.000276
0.000251
0.000259
0.000260
0.000245
0.000249
0.001298
0.000279
0.000597
0.000399
0.000341
0.000243
0.000190
0.000055
0.000195
0.000228
0.000248
0.000253
0.000419
0.000231
0.000244
0.000241
0.000251
0.000371
0.000436
0.000369
0.000209
0.000225
0.000268
0.000256
0.000262
0.000258
0.000250
0.000262
0.000261
0.000253
0.000259
0.000475
0.000468
0.000441
0.000226
0.000266
0.001365
0.000251
0.000183
0.000056
0.000287
0.000409
0.000329
0.000282
0.000214
0.000220
0.000234
0.000249
0.000258
0.000258
0.000245
0.000262
0.000302
0.000355
0.000492
0.000328
0.000347
0.000219
0.000248
0.000259
0.000264
0.000286
0.000248
0.000265
0.000270
0.000258
0.000453
0.000446
0.000408
0.000318
0.000150
0.000056
0.000194
0.000231
0.001257
0.000439
0.000291
0.000605
0.000230
0.000494
0.000265
0.000344
0.000212
0.000244
0.000256
0.000258
0.000247
0.000267
0.000426
0.000459
0.000360
0.000342
0.000259
0.000246
0.000263
0.000499
0.000231
0.000267
0.000250
0.000282
0.000342
0.000512
0.000296
0.000055
0.000364
0.000313
0.000232
0.000232
0.001572
0.000448
0.000305
0.000253
0.000245
0.000251
0.000228
0.000236
0.000241
0.000275
0.000247
0.000261
0.000242
0.000283
0.000390
0.000372
0.000458
0.000245
0.000259
0.000257
0.000261
0.000273
0.000272
0.000238
0.000291
0.000255
0.000192
0.000055
0.000375
0.000342
0.000219
0.000243
0.000253
0.000239
0.000267
0.000228
0.000241
0.000223
0.001391
0.000508
0.000242
0.000251
0.000240
0.000255
0.000273
0.000259
0.000237
0.000303
0.000246
0.000256
0.000260
0.000395
0.000401
0.000494
0.000228
0.000267
0.000278
0.000285
0.000167
0.000056
0.000206
0.000418
0.000220
0.000226
0.000376
0.000499
0.000367
0.000233
0.000465
0.000212
0.000225
0.000264
0.000250
0.000266
0.000259
0.001421
0.000368
0.000269
0.000242
0.000269
0.000302
0.000231
0.000254
0.000255
0.000261
0.000267
0.000387
0.000502
0.000348
0.000219
0.000167
0.000056
0.000207
0.000238
0.000254
0.000238
0.000228
0.000262
0.000240
0.000254
0.000264
0.000379
0.000430
0.000291
0.000248
0.000255
0.000239
0.000278
0.000274
0.000258
0.000273
0.000226
0.000251
0.000311
0.001263
0.000262
0.000248
0.000252
0.000259
0.000262
0.000260
0.000261
0.000189
0.000056
0.000254
0.000310
0.000378
0.000338
0.000246
0.000244
0.000256
0.000290
0.000238
0.000261
0.000236
0.000265
0.000242
0.000253
0.000259
0.000264
0.000262
0.000265
0.000271
0.000246
0.000255
0.000268
0.000283
0.000264
0.000291
0.000267
0.000267
0.000262
0.000252
0.000455
0.001353
0.000054
0.000215
0.000251
0.000224
0.000261
0.000229
0.000257
0.000248
0.000223
0.000249
0.000253
0.000267
0.000266
0.000246
0.000239
0.000277
0.000224
0.001721
0.000252
0.000250
0.000260
0.000246
0.000260
0.000277
0.000257
0.000292
0.000239
0.000282
0.000258
0.000282
0.000247
0.000219
0.000055
0.000284
0.000286
0.001324
0.000232
0.000224
0.000247
0.000258
0.000247
0.000277
0.000240
0.000234
0.000355
0.000370
0.000457
0.000267
0.000237
0.000250
0.000254
0.000258
0.000268
0.000239
0.000278
0.000256
0.000284
0.000264
0.000458
0.000337
0.000342
0.000299
0.000246
0.000189
0.000055
0.000225
0.000252
0.000246
0.000244
0.000279
0.000198
0.000238
0.000248
0.000423
0.001341
0.000264
0.000215
0.000254
0.000273
0.000252
0.000286
0.000236
0.000251
0.000311
0.000414
0.000417
0.000231
0.000233
0.000253
0.000277
0.000285
0.000263
0.000289
0.000268
0.000277
0.000195
0.000054
0.000223
0.000430
0.000401
0.000208
0.000236
0.000240
0.000245
0.000282
0.000262
0.000244
0.000230
0.000252
0.000446
0.000503
0.000467
0.001462
0.000241
0.000282
0.000311
0.000350
0.000476
0.000425
0.000538
0.000334
0.000235
0.000264
0.000266
0.000276
0.000260
0.000280
0.000195
0.000055
0.000210
0.000262
0.000448
0.000432
0.000396
0.000234
0.000248
0.000241
0.000234
0.000275
0.000233
0.000270
0.000279
0.000223
0.000268
0.000372
0.000328
0.000361
0.000390
0.001326
0.000265
0.000264
0.000252
0.000257
0.000508
0.000401
0.000376
0.000250
0.000271
0.000275
0.000188
0.000055
0.000203
0.000258
0.000226
0.000265
0.000229
0.000269
0.000444
0.000421
0.000348
0.000216
0.000245
0.000257
0.000273
0.000288
0.000239
0.000274
0.000263
0.000238
0.000289
0.000435
0.000280
0.000452
0.000299
0.001342
0.000424
0.000244
0.000259
0.000416
0.000476
0.000336
0.000295
0.000055
0.000207
0.000247
0.000232
0.000248
0.000248
0.000260
0.001678
0.000258
0.000199
0.000243
0.000250
0.000246
0.000257
0.000325
0.000325
0.000286
0.000251
0.000351
0.000473
0.000407
0.000310
0.000278
0.000231
0.000255
0.001499
0.000347
0.000410
0.000436
0.000346
0.000296
0.000175
0.000056
0.000230
0.000241
0.000255
0.000260
0.000244
0.000265
0.001701
0.000233
0.000240
0.000265
0.000327
0.000405
0.001450
0.000361
0.000390
0.000244
0.000253
0.000241
0.000265
0.000278
0.001517
0.000597
0.000374
0.000295
0.000238
0.000254
0.000255
0.000285
0.000247
0.000249
0.000196
0.000056
0.000210
0.000239
0.000268
0.000262
0.000248
0.000299
0.000258
0.000259
0.000243
0.000252
0.000252
0.000250
0.000290
0.000243
0.000247
0.001493
0.000282
0.000235
0.000265
0.000280
0.000270
0.000258
0.001427
0.000342
0.000208
0.000240
0.000269
0.000249
0.000405
0.000237
0.000201
0.000056
0.000183
0.000253
0.000221
0.000245
0.000239
0.000231
0.000236
0.001689
0.000256
0.000224
0.000354
0.000267
0.000229
0.000220
0.000259
0.001377
0.000239
0.000262
0.000272
0.000240
0.000265
0.000350
0.000294
0.001294
0.000287
0.000242
0.000253
0.000263
0.001392
0.000271
0.000185
0.000055
0.000265
0.000340
0.000213
0.000245
0.000255
0.000229
0.000280
0.000248
0.000266
0.000247
0.000259
0.000266
0.000252
0.000243
0.000294
0.001544
0.000223
0.000267
0.000259
0.000242
0.000283
0.000265
0.000252
0.001494
0.000363
0.000229
0.000273
0.001270
0.000276
0.000242
0.000279
0.000055
0.000225
0.000390
0.000348
0.000213
0.000235
0.000241
0.000264
0.000252
0.000263
0.000271
0.000235
0.000261
0.000259
0.000308
0.000390
0.001213
0.000229
0.000254
0.000262
0.000275
0.000231
0.000247
0.000242
0.000329
0.001306
0.000221
0.000258
0.000251
0.000256
0.001343
0.000373
0.000055
0.000313
0.000217
0.000230
0.000234
0.000241
0.000254
0.000240
0.000245
0.000300
0.000238
0.000236
0.000252
0.000273
0.000496
0.000212
0.001481
0.000225
0.000248
0.000299
0.000511
0.000276
0.000412
0.001336
0.000306
0.000234
0.000268
0.000252
0.001313
0.000345
0.000413
0.000390
0.000056
0.000224
0.000267
0.000240
0.000255
0.000249
0.000262
0.000269
0.000266
0.000243
0.000262
0.000407
0.000356
0.001348
0.000240
0.000280
0.000260
0.000279
0.000241
0.000224
0.000289
0.000282
0.001250
0.000254
0.000256
0.000245
0.000260
0.001504
0.000463
0.000441
0.000220
0.000185
0.000055
0.000209
0.000228
0.000247
0.000237
0.000253
0.000266
0.000244
0.000238
0.000568
0.000371
0.000254
0.001498
0.000213
0.000241
0.000264
0.000251
0.000266
0.000350
0.001621
0.000254
0.000390
0.000342
0.001253
0.000424
0.000302
0.000291
0.000260
0.000263
0.000257
0.000268
0.000196
0.000055
0.000204
0.000244
0.000324
0.000271
0.000295
0.000519
0.000303
0.000289
0.001474
0.000235
0.000380
0.000270
0.000231
0.000293
0.000399
0.001301
0.000284
0.000232
0.000249
0.000257
0.001540
0.000410
0.000251
0.000254
0.000263
0.000255
0.000454
0.000333
0.000252
0.000246
0.000251
0.000055
0.000241
0.000421
0.000291
0.000260
0.000234
0.001519
0.000202
0.000262
0.000269
0.000266
0.000266
0.000242
0.000302
0.001479
0.000264
0.000235
0.000431
0.001185
0.000349
0.000436
0.000407
0.000233
0.000243
0.000253
0.000297
0.000228
0.000450
0.000222
0.000268
0.000282
0.000191
0.000056
0.000213
0.000229
0.000389
0.000410
0.001242
0.000283
0.000338
0.000224
0.000232
0.000244
0.000243
0.000312
0.001499
0.000269
0.000221
0.000245
0.001384
0.000378
0.000365
0.000350
0.000418
0.000234
0.000258
0.000250
0.000270
0.000273
0.000257
0.000266
0.000280
0.000248
0.000192
0.000057
0.000275
0.000335
0.001470
0.000215
0.000262
0.000298
0.000218
0.000249
0.000260
0.000422
0.001350
0.000214
0.000268
0.000264
0.000253
0.001305
0.000600
0.000341
0.000322
0.000411
0.000307
0.000246
0.000272
0.000262
0.000265
0.000287
0.000274
0.000332
0.000425
0.000399
0.001396
0.000056
0.000193
0.000250
0.000243
0.000226
0.000255
0.000421
0.000500
0.001262
0.000259
0.000226
0.000247
0.001523
0.000266
0.000408
0.000233
0.000406
0.000242
0.000251
0.000263
0.000286
0.000248
0.000252
0.000282
0.000249
0.000259
0.000341
0.000677
0.000175
0.001508
0.000226
0.000186
0.000056
0.000198
0.000255
0.000399
0.000525
0.001207
0.000317
0.000219
0.000261
0.000242
0.000250
0.000253
0.000278
0.000419
0.000460
0.000298
0.000241
0.000253
0.000275
0.000241
0.000322
0.000220
0.000258
0.000257
0.000265
0.000297
0.000431
0.000380
0.000351
0.000332
0.001407
0.000187
0.000056
0.000203
0.000246
0.000285
0.000481
0.000296
0.000311
0.000318
0.000329
0.000295
0.000253
0.000287
0.000215
0.000251
0.000304
0.000245
0.000376
0.000366
0.000411
0.000293
0.000388
0.000274
0.000410
0.000228
0.000251
0.000254
0.000261
0.000247
0.000297
0.000339
0.000513
0.000297
0.000056
0.000207
0.001405
0.000225
0.000342
0.000528
0.000329
0.000345
0.000329
0.000202
0.000246
0.000264
0.000249
0.000284
0.000250
0.000266
0.000249
0.000264
0.001309
0.000315
0.000247
0.000254
0.000272
0.000272
0.000280
0.000266
0.000255
0.000278
0.000246
0.000323
0.000407
0.000351
0.000057
0.000200
0.000240
0.000242
0.001497
0.000345
0.000216
0.000230
0.000256
0.000227
0.000247
0.000254
0.000281
0.000240
0.000249
0.000296
0.000228
0.000266
0.000264
0.000240
0.000260
0.001422
0.000234
0.000253
0.000277
0.000260
0.000246
0.000268
0.000273
0.000279
0.000480
0.000347
0.000056
0.000204
0.000239
0.000395
0.000288
0.000240
0.000260
0.001519
0.000353
0.000291
0.000224
0.000261
0.000313
0.000328
0.000232
0.000228
0.000254
0.000250
0.000255
0.000261
0.000260
0.000482
0.000487
0.001140
0.000271
0.000244
0.000253
0.000273
0.000254
0.000305
0.000231
0.000407
0.000055
0.000218
0.000350
0.000213
0.000239
0.000247
0.000243
0.000244
0.000225
0.000290
0.001607
0.000389
0.000266
0.000236
0.000258
0.000257
0.000243
0.000263
0.000273
0.000274
0.000298
0.000305
0.000483
0.000457
0.001367
0.000234
0.000274
0.000253
0.000263
0.000272
0.000336
0.000414
0.000055
0.000273
0.000263
0.000219
0.000234
0.000226
0.000242
0.000261
0.000281
0.000255
0.001556
0.000374
0.000253
0.000247
0.000255
0.000461
0.000253
0.000545
0.000372
0.000276
0.000272
0.000494
0.000455
0.001301
0.000259
0.000233
0.000251
0.001800
0.000372
0.000604
0.000322
0.000152
0.000056
0.000215
0.000228
0.000240
0.000237
0.000253
0.000244
0.000248
0.000559
0.000523
0.000343
0.000289
0.000199
0.000251
0.000264
0.000281
0.000268
0.000235
0.000242
0.000256
0.000281
0.000296
0.000383
0.001341
0.000231
0.000248
0.000271
0.001902
0.000379
0.000392
0.000339
0.000154
0.000057
0.000247
0.000240
0.000246
0.001574
0.000419
0.000211
0.000239
0.000259
0.000256
0.000274
0.000377
0.000368
0.000368
0.000280
0.000278
0.000525
0.000408
0.001185
0.000278
0.000237
0.000255
0.000262
0.000274
0.000412
0.000633
0.000445
0.000245
0.000266
0.000267
0.000279
0.000192
0.000055
0.000184
0.000234
0.000240
0.001533
0.000262
0.000232
0.000241
0.000253
0.000242
0.000251
0.000257
0.000266
0.000269
0.000277
0.000289
0.000348
0.000449
0.000317
0.001389
0.000248
0.000253
0.000264
0.000250
0.000266
0.000470
0.000448
0.000390
0.000258
0.000286
0.000237
0.000445
0.000056
0.000198
0.000237
0.000277
0.001530
0.000312
0.000200
0.000266
0.000244
0.000254
0.000258
0.000256
0.000273
0.000238
0.000282
0.000316
0.000575
0.001382
0.000746
0.000281
0.000317
0.000243
0.000247
0.000237
0.000280
0.001677
0.000810
0.000227
0.000261
0.000283
0.000275
0.000193
0.000056
0.000206
0.000232
0.000253
0.000247
0.000265
0.000264
0.000217
0.000252
0.000241
0.000227
0.000300
0.000278
0.000252
0.000252
0.000262
0.000240
0.000278
0.001590
0.000770
0.000354
0.000271
0.000240
0.000241
0.000308
0.000248
0.000274
0.000249
0.000263
0.001390
0.000393
0.000290
0.000056
0.000190
0.000227
0.000272
0.000243
0.000254
0.000229
0.000272
0.000233
0.000252
0.000263
0.000283
0.000572
0.000302
0.000305
0.000219
0.000243
0.000267
0.001389
0.000695
0.000476
0.000340
0.000265
0.000229
0.000253
0.000273
0.000274
0.000235
0.000264
0.001534
0.000348
0.000225
0.000055
0.000183
0.000230
0.000248
0.000251
0.000249
0.000242
0.000239
0.000250
0.000268
0.000258
0.000411
0.000344
0.000332
0.000215
0.000242
0.000247
0.000263
0.000257
0.001572
0.000629
0.000492
0.000280
0.000239
0.000256
0.000254
0.000263
0.000284
0.000268
0.000263
0.001350
0.000335
0.000056
0.000217
0.000221
0.000232
0.000257
0.000263
0.000242
0.000252
0.000297
0.000359
0.000486
0.000346
0.000385
0.000351
0.000218
0.000246
0.000248
0.000296
0.000240
0.000267
0.001970
0.000271
0.000245
0.000445
0.000238
0.000250
0.000267
0.000265
0.000260
0.000279
0.000263
0.000346
0.000056
0.000237
0.000268
0.000246
0.000241
0.000256
0.000251
0.000220
0.000241
0.000273
0.000291
0.000205
0.000235
0.000375
0.000333
0.000480
0.000444
0.000234
0.000261
0.000252
0.000248
0.000256
0.000284
0.001464
0.001062
0.000222
0.000253
0.000270
0.000258
0.000278
0.000250
0.000203
0.000056
0.000198
0.001346
0.000283
0.000214
0.000232
0.000261
0.000245
0.000240
0.000242
0.000261
0.000263
0.000254
0.000238
0.000343
0.000418
0.000372
0.000339
0.000256
0.000264
0.000269
0.000276
0.000225
0.000251
0.000273
0.001341
0.000662
0.000303
0.000376
0.000373
0.000405
0.000306
0.000057
0.000205
0.000237
0.000357
0.001318
0.000209
0.000251
0.000235
0.000260
0.000257
0.000253
0.000255
0.000260
0.000269
0.000343
0.000586
0.000280
0.000223
0.000277
0.000328
0.000234
0.000227
0.000275
0.000231
0.000269
0.000268
0.001537
0.000742
0.000322
0.000256
0.000271
0.000197
0.000056
0.000214
0.000235
0.000479
0.000313
0.001309
0.000242
0.000231
0.000242
0.000232
0.000250
0.000251
0.000258
0.000250
0.000219
0.000252
0.000254
0.000266
0.000241
0.000254
0.000254
0.000268
0.000271
0.000301
0.000327
0.000225
0.000264
0.000266
0.001460
0.000264
0.000239
0.000176
0.000055
0.000189
0.000230
0.000250
0.000260
0.000347
0.000375
0.000399
0.000278
0.001587
0.000223
0.000305
0.000486
0.000356
0.000225
0.000443
0.000225
0.000243
0.000261
0.000272
0.000269
0.000279
0.000267
0.000255
0.000271
0.000252
0.000431
0.000380
0.000333
0.001577
0.000217
0.000194
0.000056
0.000230
0.000228
0.000245
0.000250
0.000241
0.000246
0.000260
0.000312
0.000412
0.002038
0.000218
0.000245
0.000255
0.000265
0.000260
0.000301
0.000219
0.000259
0.000259
0.000600
0.000235
0.000418
0.001451
0.000242
0.000281
0.001983
0.000282
0.000232
0.000270
0.001523
0.000171
0.000055
0.000332
0.000412
0.000478
0.000257
0.000258
0.000213
0.000263
0.000265
0.000260
0.000229
0.000253
0.000333
0.000418
0.000342
0.000430
0.000252
0.000218
0.001576
0.000237
0.000542
0.001907
0.000289
0.000238
0.001590
0.001979
0.000736
0.000268
0.000270
0.000284
0.000467
0.000380
0.000056
0.000210
0.000240
0.000276
0.000223
0.002865
0.000287
0.001083
0.000195
0.000237
0.001587
0.001977
0.000219
0.000231
0.000425
0.000303
0.000374
0.000374
0.000507
0.000209
0.000241
0.000247
0.000265
0.000275
0.001598
0.001195
0.001449
0.000264
0.000279
0.000256
0.000334
0.000381
0.000055
0.000200
0.000242
0.000245
0.000240
0.000227
0.000242
0.000252
0.000257
0.000252
0.000242
0.000245
0.000313
0.000413
0.000498
0.000295
0.000234
0.000263
0.000253
0.000274
0.000281
0.000240
0.000265
0.001490
0.000501
0.002121
0.000234
0.000269
0.000344
0.000398
0.000401
0.000191
0.000055
0.000212
0.000334
0.000502
0.000311
0.000192
0.000233
0.000252
0.000243
0.000239
0.000243
0.000247
0.000267
0.000260
0.001606
0.001358
0.001219
0.000282
0.000229
0.000252
0.000269
0.000287
0.000277
0.000243
0.000250
0.002211
0.000253
0.000241
0.000302
0.000324
0.000308
0.000218
0.000055
0.000223
0.000491
0.000420
0.000321
0.000232
0.000240
0.000242
0.000266
0.001903
0.001412
0.000220
0.000332
0.000384
0.000410
0.000263
0.000234
0.000260
0.000264
0.000274
0.000251
0.000257
0.000262
0.000479
0.000236
0.000266
0.000266
0.000245
0.000282
0.000281
0.000246
0.000204
0.000054
0.000201
0.000249
0.000244
0.000247
0.000275
0.000252
0.001529
0.001427
0.001319
0.000249
0.000226
0.000244
0.000268
0.000259
0.000243
0.000251
0.000251
0.002108
0.000254
0.000237
0.000256
0.000272
0.000253
0.000264
0.000258
0.000262
0.000272
0.000250
0.000277
0.000256
0.000178
0.000055
0.000202
0.002680
0.001403
0.000217
0.000301
0.000328
0.000210
0.000284
0.000232
0.000237
0.000258
0.000242
0.000234
0.000253
0.000270
0.000254
0.000268
0.000279
0.000261
0.000251
0.000262
0.000281
0.000285
0.000257
0.000250
0.000240
0.000268
0.000276
0.000258
0.000267
0.000376
0.000055
0.001622
0.000182
0.001227
0.000236
0.000224
0.000239
0.000260
0.000278
0.000226
0.000250
0.000385
0.000422
0.000308
0.000205
0.000257
0.002143
0.000227
0.000264
0.000263
0.000520
0.000406
0.000248
0.000242
0.000247
0.000268
0.000251
0.000263
0.000277
0.000265
0.001617
0.001261
0.000056
0.000193
0.000220
0.000319
0.000384
0.000327
0.000302
0.000215
0.000235
0.000248
0.000260
0.000266
0.000241
0.000226
0.000255
0.000280
0.000232
0.000350
0.000579
0.000366
0.000242
0.000235
0.000278
0.000277
0.000248
0.000254
0.000241
0.000270
0.000271
0.000244
0.000467
0.000238
0.000055
0.001127
0.000223
0.000411
0.000405
0.000279
0.000225
0.000228
0.000241
0.000250
0.002368
0.000497
0.000183
0.000232
0.000371
0.000305
0.000257
0.000241
0.000254
0.000271
0.000221
0.000261
0.000286
0.000564
0.000478
0.001871
0.001311
0.000518
0.000548
0.000223
0.000286
0.000196
0.000057
0.000284
0.000285
0.000250
0.000244
0.000254
0.000226
0.000255
0.000250
0.000264
0.000241
0.000255
0.000230
0.000241
0.000275
0.000386
0.000485
0.001853
0.001313
0.000478
0.000414
0.000459
0.000241
0.000241
0.000262
0.002183
0.000603
0.000281
0.000235
0.000276
0.000283
0.000193
0.000056
0.000207
0.000237
0.000261
0.000247
0.000238
0.000447
0.000307
0.000311
0.000321
0.000227
0.000239
0.000254
0.000259
0.002123
0.000368
0.000373
0.000219
0.000250
0.000282
0.000246
0.000252
0.002453
0.000336
0.000231
0.000245
0.000262
0.000252
0.000272
0.000310
0.000253
0.000192
0.000055
0.000196
0.000355
0.000566
0.000343
0.000256
0.000217
0.000240
0.000253
0.000262
0.000254
0.001951
0.000394
0.000269
0.000272
0.000240
0.000269
0.000264
0.000249
0.002202
0.000452
0.000223
0.000269
0.000275
0.000252
0.000253
0.000258
0.000302
0.000236
0.000268
0.000251
0.000190
0.000055
0.000238
0.000225
0.000253
0.000220
0.000244
0.000261
0.000240
0.000242
0.000233
0.002187
0.000214
0.000287
0.000218
0.000431
0.000225
0.000251
0.000302
0.000267
0.000253
0.000249
0.001970
0.000269
0.000338
0.000363
0.000432
0.000413
0.000310
0.000248
0.000251
0.000255
0.000202
0.000056
0.000189
0.000239
0.000237
0.000251
0.000250
0.000319
0.000221
0.002324
0.000228
0.000237
0.000257
0.000250
0.000240
0.000280
0.000276
0.002121
0.000591
0.000226
0.000252
0.000248
0.000253
0.000263
0.000284
0.000272
0.000262
0.000253
0.000286
0.000252
0.000265
0.000270
0.000189
0.000056
0.001835
0.001438
0.000201
0.000227
0.000244
0.000257
0.000250
0.000283
0.000416
0.000322
0.002169
0.000264
0.000229
0.000271
0.000310
0.000424
0.000465
0.000288
0.000229
0.000244
0.000247
0.000267
0.000268
0.000236
0.000247
0.000274
0.000262
0.000269
0.000273
0.000713
0.000305
0.000055
0.000200
0.000264
0.000241
0.000249
0.000270
0.000251
0.000250
0.000240
0.001495
0.002097
0.000614
0.000246
0.000432
0.000686
0.000336
0.000243
0.000250
0.000248
0.000268
0.000259
0.000257
0.000241
0.000253
0.000269
0.003010
0.000336
0.000233
0.000269
0.000288
0.000330
0.000433
0.000055
0.001933
0.000242
0.000225
0.000236
0.000283
0.000348
0.000533
0.000235
0.000274
0.000229
0.000244
0.000251
0.000256
0.000258
0.000267
0.000254
0.000251
0.000290
0.001819
0.000228
0.000248
0.000258
0.000266
0.000303
0.000255
0.000259
0.001460
0.000340
0.000245
0.000258
0.000174
0.000055
0.000199
0.000240
0.000249
0.000231
0.000246
0.000243
0.000279
0.000395
0.000324
0.000404
0.000215
0.000229
0.000261
0.000330
0.000420
0.000318
0.000225
0.000255
0.000266
0.000381
0.000396
0.000475
0.000258
0.000265
0.000259
0.000250
0.000255
0.000274
0.000277
0.000275
0.000189
0.000055
0.001441
0.000436
0.000227
0.001934
0.000331
0.000357
0.000445
0.000316
0.000222
0.000254
0.000264
0.000246
0.000246
0.000241
0.000273
0.000261
0.000441
0.000347
0.000364
0.000352
0.000361
0.000228
0.000262
0.000270
0.000269
0.000271
0.000261
0.000269
0.000380
0.000428
0.001388
0.000055
0.000202
0.000226
0.002076
0.000347
0.000290
0.000234
0.000255
0.000253
0.000258
0.000257
0.000224
0.000249
0.000256
0.000262
0.000255
0.000419
0.000649
0.001761
0.000235
0.000248
0.000254
0.000272
0.000386
0.000406
0.001594
0.000286
0.000362
0.001919
0.000252
0.000269
0.000197
0.000055
0.000205
0.000225
0.000238
0.000241
0.000227
0.000251
0.000252
0.000289
0.000344
0.000246
0.000379
0.000360
0.000344
0.000294
0.000247
0.000269
0.000260
0.000240
0.000264
0.000251
0.000312
0.000287
0.000270
0.000251
0.000276
0.001503
0.000286
0.000383
0.002067
0.000240
0.000173
0.000055
0.000219
0.000235
0.000243
0.000247
0.000489
0.000205
0.000251
0.000340
0.000374
0.000298
0.000304
0.000209
0.000262
0.000266
0.000271
0.000333
0.000429
0.000424
0.000242
0.000417
0.000521
0.000486
0.001544
0.000224
0.000255
0.001975
0.000342
0.000245
0.000239
0.000297
0.000192
0.000056
0.000211
0.000246
0.000226
0.000247
0.000250
0.000272
0.000257
0.000267
0.000254
0.000260
0.001805
0.000309
0.000390
0.000279
0.000476
0.000349
0.000360
0.001505
0.000231
0.000285
0.002100
0.000586
0.000256
0.000238
0.000263
0.000269
0.000509
0.000217
0.000259
0.000275
0.000198
0.000056
0.000281
0.000405
0.000327
0.000296
0.000201
0.000238
0.000264
0.000250
0.000263
0.000295
0.000228
0.000249
0.000263
0.000269
0.000369
0.000406
0.001338
0.000265
0.000279
0.001901
0.000375
0.000292
0.000239
0.000259
0.000247
0.000282
0.000267
0.000260
0.000248
0.000264
0.000208
0.000074
0.000273
0.000366
0.002017
0.000258
0.000217
0.000256
0.000244
0.000318
0.000439
0.000425
0.001298
0.000371
0.000359
0.002083
0.000207
0.000245
0.000262
0.000278
0.000250
0.000250
0.000282
0.000295
0.000259
0.000354
0.000483
0.000352
0.000318
0.002243
0.000492
0.000472
0.000435
0.000054
0.000209
0.000222
0.000246
0.001959
0.000231
0.000232
0.000242
0.000243
0.000242
0.000255
0.000244
0.000268
0.000258
0.000299
0.000557
0.001320
0.000257
0.000238
0.000269
0.000263
0.000234
0.000250
0.000262
0.000273
0.000346
0.000499
0.000393
0.000250
0.001600
0.000279
0.000157
0.000056
0.000203
0.000225
0.000244
0.000235
0.000260
0.000267
0.000229
0.000247
0.000253
0.000377
0.000364
0.001411
0.000247
0.000215
0.000243
0.000299
0.000226
0.000258
0.000293
0.000504
0.000397
0.000430
0.000236
0.001568
0.000223
0.000263
0.000288
0.000281
0.000262
0.000270
0.000194
0.000056
0.000194
0.000241
0.000269
0.000268
0.000254
0.000243
0.000238
0.000241
0.000274
0.000222
0.000252
0.000259
0.000270
0.001475
0.000363
0.000204
0.000255
0.000263
0.000274
0.000306
0.000374
0.000269
0.000255
0.000259
0.000272
0.000259
0.000259
0.001413
0.000283
0.000225
0.000177
0.000054
0.000212
0.000228
0.000267
0.000260
0.000265
0.000220
0.000250
0.000262
0.000213
0.000268
0.000245
0.000256
0.000228
0.000361
0.000318
0.000311
0.000320
0.000226
0.001642
0.000237
0.000246
0.000254
0.000266
0.000309
0.000398
0.000335
0.000478
0.000244
0.000267
0.001592
0.000151
0.000056
0.000363
0.000318
0.000330
0.000301
0.000232
0.000218
0.000242
0.000273
0.000250
0.000259
0.000227
0.000236
0.001461
0.000297
0.000304
0.000233
0.000239
0.000280
0.000250
0.000263
0.000254
0.000236
0.000258
0.000270
0.000242
0.000438
0.000443
0.000304
0.000297
0.000246
0.000193
0.000055
0.000202
0.000260
0.000383
0.000445
0.000326
0.000270
0.000246
0.000247
0.000250
0.000258
0.000241
0.000226
0.000257
0.000249
0.001245
0.000317
0.000223
0.000255
0.000263
0.000276
0.000233
0.000262
0.000254
0.000260
0.000261
0.000257
0.000293
0.000727
0.000426
0.000235
0.000180
0.000056
0.000206
0.001540
0.000231
0.000340
0.000466
0.000379
0.000217
0.000273
0.000255
0.000258
0.000232
0.000262
0.000271
0.000271
0.000263
0.001519
0.000256
0.000285
0.000266
0.000252
0.000278
0.000240
0.000263
0.000259
0.000257
0.000314
0.000407
0.000353
0.000352
0.000242
0.000194
0.000055
0.000220
0.000247
0.000241
0.001596
0.000484
0.000288
0.000236
0.000239
0.000249
0.000284
0.000269
0.000249
0.000257
0.000255
0.000232
0.000268
0.000391
0.001333
0.000259
0.000230
0.001487
0.000316
0.000575
0.000393
0.000329
0.000240
0.000277
0.000463
0.000242
0.000259
0.000187
0.000055
0.000282
0.000217
0.000253
0.000242
0.000251
0.000255
0.000236
0.000257
0.000269
0.000238
0.000241
0.000257
0.000386
0.000435
0.001657
0.001497
0.000358
0.000487
0.000391
0.000216
0.000234
0.000251
0.000247
0.000271
0.000260
0.000259
0.000261
0.000267
0.001534
0.000310
0.000166
0.000055
0.000183
0.000347
0.000357
0.000328
0.000233
0.000236
0.000243
0.000392
0.000398
0.000366
0.002174
0.000311
0.000718
0.000467
0.000481
0.000259
0.000336
0.000391
0.000328
0.000284
0.000394
0.000265
0.001530
0.000527
0.000214
0.000268
0.000253
0.000261
0.000273
0.000261
0.000196
0.000056
0.000198
0.000251
0.000253
0.000258
0.000236
0.001660
0.000882
0.001003
0.000206
0.000228
0.000263
0.000248
0.000266
0.000261
0.000252
0.000249
0.000256
0.000260
0.000268
0.000278
0.001432
0.000314
0.000254
0.000229
0.000239
0.000257
0.000261
0.000283
0.000282
0.000266
0.001902
0.000056
0.000191
0.000226
0.001547
0.000896
0.000341
0.000377
0.000214
0.000279
0.000207
0.000257
0.000248
0.000254
0.000244
0.001987
0.000464
0.000219
0.000249
0.000258
0.000264
0.000260
0.000199
