0.000102
0.018575
0.002812
0.000370
0.000236
0.000236
0.000303
0.000256
0.000323
0.000295
0.000239
0.000403
0.000477
0.000526
0.000320
0.000324
0.000306
0.000400
0.000370
0.000414
0.000302
0.001852
0.000510
0.000445
0.000262
0.000290
0.000305
0.000413
0.000412
0.000362
0.000520
0.000272
0.000058
0.000199
0.000230
0.000272
0.000262
0.000303
0.000234
0.000263
0.000265
0.000275
0.000277
0.000426
0.000480
0.000297
0.000277
0.000403
0.000377
0.000333
0.000254
0.000217
0.001729
0.000295
0.000226
0.000508
0.000247
0.000249
0.000248
0.000280
0.000313
0.000262
0.000307
0.000439
0.000056
0.000256
0.000215
0.000266
0.000262
0.000251
0.000245
0.000264
0.000253
0.000281
0.001677
0.000241
0.000238
0.000260
0.000257
0.000279
0.000246
0.000272
0.000256
0.000342
0.001804
0.000272
0.000243
0.000449
0.000494
0.000365
0.000233
0.000235
0.000589
0.000441
0.000762
0.000165
0.000056
0.000226
0.000216
0.000262
0.000232
0.000314
0.000253
0.000375
0.000479
0.000450
0.000263
0.000224
0.000201
0.000237
0.000259
0.000249
0.000261
0.000247
0.000267
0.000293
0.000314
0.001762
0.000249
0.000245
0.000442
0.000287
0.000662
0.000697
0.000460
0.000372
0.000245
0.000212
0.000057
0.000221
0.000224
0.000263
0.000250
0.000247
0.000259
0.000253
0.000549
0.001402
0.000236
0.000268
0.000213
0.000247
0.000251
0.000266
0.000286
0.000283
0.000788
0.001392
0.000288
0.000254
0.000417
0.000255
0.000250
0.000245
0.000251
0.000270
0.000265
0.000271
0.000264
0.000220
0.000057
0.000197
0.000205
0.000248
0.000245
0.000259
0.000240
0.000252
0.000255
0.000237
0.000254
0.001685
0.000253
0.000228
0.000236
0.000224
0.000252
0.000232
0.000275
0.000232
0.000254
0.000264
0.001739
0.000256
0.000260
0.000458
0.000242
0.000254
0.000227
0.000266
0.000256
0.000213
0.000057
0.000203
0.000217
0.000236
0.000241
0.000244
0.000244
0.000263
0.000242
0.000256
0.000245
0.000282
0.000243
0.000258
0.000266
0.001635
0.000285
0.000293
0.000226
0.000244
0.000280
0.000286
0.000228
0.000258
0.000255
0.000270
0.001829
0.000387
0.000364
0.000262
0.000275
0.000214
0.000056
0.000214
0.000208
0.000245
0.000274
0.000257
0.000232
0.000296
0.000376
0.000445
0.000429
0.000216
0.000232
0.000254
0.000255
0.001634
0.000555
0.000265
0.000407
0.000294
0.000236
0.000241
0.000279
0.000270
0.001799
0.000472
0.000510
0.000222
0.000247
0.000218
0.000256
0.000206
0.000058
0.000194
0.000226
0.000219
0.000299
0.000289
0.000587
0.000282
0.000283
0.000212
0.000211
0.000274
0.000232
0.000272
0.001911
0.000253
0.000332
0.000210
0.000243
0.000274
0.000274
0.000255
0.000277
0.000256
0.001887
0.000308
0.000403
0.000246
0.000246
0.000303
0.000401
0.000317
0.000058
0.000200
0.000370
0.000369
0.000289
0.000260
0.000213
0.000242
0.000259
0.000262
0.000231
0.000223
0.000243
0.001621
0.000312
0.000341
0.000211
0.000217
0.000249
0.000249
0.000284
0.000274
0.000337
0.001769
0.000363
0.000221
0.000505
0.000232
0.000238
0.000236
0.000264
0.000289
0.000056
0.000334
0.000519
0.000666
0.000212
0.000194
0.000265
0.000229
0.000221
0.000264
0.000252
0.000252
0.001696
0.000272
0.000415
0.000377
0.000234
0.000225
0.000235
0.000245
0.000251
0.000271
0.001842
0.000257
0.000221
0.002286
0.000407
0.000274
0.000249
0.000264
0.000257
0.000211
0.000056
0.000223
0.000210
0.000228
0.000244
0.000256
0.001690
0.000214
0.000208
0.000243
0.000253
0.000249
0.000247
0.000264
0.000234
0.000264
0.000432
0.000644
0.000224
0.000241
0.000264
0.000271
0.000250
0.000249
0.000484
0.000451
0.000243
0.000362
0.000516
0.000473
0.000228
0.000196
0.000057
0.000203
0.000212
0.000258
0.000252
0.000239
0.000233
0.000265
0.000453
0.000426
0.001620
0.000262
0.000230
0.000258
0.000233
0.000258
0.000304
0.000493
0.000435
0.000379
0.000223
0.000234
0.000265
0.000325
0.000263
0.000268
0.000405
0.000425
0.000551
0.000439
0.000504
0.000144
0.000056
0.000216
0.000246
0.000222
0.000227
0.000236
0.000244
0.000243
0.000248
0.000248
0.000361
0.000341
0.001561
0.000287
0.000203
0.000209
0.000210
0.000267
0.000254
0.000244
0.000249
0.000303
0.000420
0.000407
0.000342
0.000219
0.000245
0.000269
0.000251
0.000272
0.000275
0.000421
0.000055
0.000200
0.000205
0.000236
0.000262
0.000515
0.000466
0.000228
0.000239
0.000244
0.000255
0.000244
0.000249
0.000281
0.000262
0.000254
0.000531
0.000425
0.001566
0.000267
0.000248
0.000264
0.000259
0.000257
0.000255
0.000246
0.000519
0.000426
0.000381
0.000356
0.000226
0.000225
0.000057
0.000212
0.000225
0.000415
0.000223
0.000264
0.000243
0.000294
0.000564
0.000334
0.000303
0.000246
0.000261
0.000274
0.000237
0.000605
0.000284
0.000231
0.000233
0.000497
0.001599
0.000240
0.000230
0.000311
0.000412
0.000282
0.000291
0.000249
0.000344
0.000557
0.000410
0.000247
0.000057
0.000183
0.000209
0.000238
0.000247
0.000477
0.000264
0.000284
0.000214
0.000403
0.000576
0.000350
0.000222
0.000208
0.000218
0.000259
0.000263
0.000260
0.000259
0.000221
0.000398
0.000256
0.000336
0.001826
0.000270
0.000236
0.000257
0.000310
0.000359
0.000437
0.000722
0.000401
0.000055
0.000243
0.000316
0.000340
0.000416
0.000314
0.000211
0.000260
0.000303
0.000538
0.000361
0.000323
0.000209
0.000209
0.000271
0.000264
0.000243
0.000241
0.000279
0.000264
0.000261
0.000270
0.000548
0.001625
0.000292
0.000352
0.000424
0.000380
0.000254
0.000494
0.000286
0.000357
0.000056
0.000223
0.000380
0.000288
0.000214
0.000228
0.000211
0.000480
0.000208
0.000217
0.000390
0.000348
0.000477
0.000257
0.000227
0.000270
0.000280
0.000363
0.000435
0.000318
0.000222
0.000207
0.000391
0.000637
0.001673
0.000271
0.000388
0.000329
0.000243
0.000237
0.000458
0.000315
0.000056
0.000207
0.000217
0.000230
0.000243
0.000251
0.000241
0.000251
0.000374
0.000422
0.000324
0.000527
0.000347
0.000249
0.000199
0.000527
0.000262
0.000270
0.000269
0.000236
0.000345
0.000224
0.000242
0.000272
0.000357
0.000605
0.001667
0.000239
0.000218
0.000233
0.000264
0.000209
0.000074
0.000298
0.000421
0.000386
0.000208
0.000236
0.000214
0.000265
0.000235
0.000257
0.000256
0.000224
0.000492
0.000331
0.000428
0.000364
0.000343
0.000204
0.000247
0.000355
0.000355
0.000370
0.000358
0.000385
0.000377
0.000255
0.000218
0.000242
0.000277
0.001788
0.000257
0.000211
0.000056
0.000200
0.000195
0.000252
0.000274
0.000350
0.000540
0.000348
0.000217
0.000240
0.000262
0.000248
0.000246
0.000533
0.000450
0.000481
0.000300
0.000276
0.000237
0.000431
0.000489
0.000372
0.000424
0.000450
0.000468
0.000231
0.000262
0.000225
0.000223
0.000270
0.001764
0.000305
0.000056
0.000242
0.000312
0.000201
0.000225
0.000247
0.000245
0.000287
0.000446
0.000426
0.000307
0.000303
0.000304
0.000361
0.000689
0.000279
0.000207
0.000223
0.000239
0.000253
0.000267
0.000260
0.000274
0.000231
0.000274
0.000349
0.000318
0.000474
0.000386
0.000200
0.000220
0.000189
0.000057
0.000457
0.000317
0.000415
0.000255
0.000201
0.000239
0.000248
0.000265
0.000235
0.000250
0.000218
0.000270
0.000296
0.000364
0.000623
0.000370
0.000326
0.000373
0.000353
0.000390
0.000265
0.000225
0.000211
0.000250
0.001824
0.000227
0.001789
0.000905
0.000408
0.000308
0.000151
0.000058
0.000222
0.000225
0.000218
0.000234
0.000253
0.000260
0.000245
0.000247
0.000262
0.000263
0.000422
0.000436
0.000380
0.000400
0.000235
0.000243
0.000272
0.000282
0.000223
0.000222
0.000258
0.000225
0.001796
0.000283
0.000251
0.000237
0.000272
0.000271
0.001853
0.000582
0.000264
0.000057
0.000242
0.000199
0.000212
0.000243
0.000254
0.000246
0.000245
0.000253
0.000251
0.000396
0.000579
0.000272
0.000396
0.000252
0.000212
0.000280
0.000383
0.000389
0.000375
0.000260
0.001791
0.000248
0.000235
0.000224
0.000253
0.000265
0.000246
0.000267
0.000246
0.000386
0.000371
0.000057
0.000240
0.000202
0.000203
0.000262
0.000253
0.000234
0.000265
0.000244
0.000243
0.000260
0.000236
0.000307
0.000433
0.000295
0.000345
0.000339
0.000473
0.000203
0.000243
0.000243
0.000257
0.000248
0.000280
0.000264
0.000270
0.001778
0.000292
0.000223
0.000253
0.000235
0.000227
0.000056
0.000249
0.000374
0.000242
0.000198
0.000220
0.000257
0.000219
0.000263
0.000248
0.000223
0.000229
0.000268
0.000254
0.000301
0.000490
0.000350
0.000354
0.000204
0.000217
0.000250
0.000265
0.000259
0.000242
0.000268
0.000251
0.000260
0.000273
0.001739
0.000227
0.000221
0.000201
0.000058
0.000183
0.000219
0.000254
0.000246
0.000357
0.000385
0.000407
0.000300
0.000214
0.000242
0.000252
0.000243
0.000273
0.000235
0.000259
0.000253
0.000249
0.000261
0.000248
0.000261
0.000269
0.000263
0.000261
0.000234
0.000233
0.000286
0.000276
0.000261
0.000258
0.000258
0.000209
0.000057
0.000192
0.000213
0.000242
0.000257
0.000239
0.000254
0.000238
0.000256
0.000363
0.000209
0.000188
0.000244
0.000259
0.000251
0.000259
0.000276
0.000245
0.000256
0.000364
0.000202
0.000240
0.000293
0.000277
0.000253
0.000272
0.000276
0.000273
0.000255
0.000258
0.000434
0.000687
0.000057
0.000216
0.000307
0.000222
0.000208
0.000206
0.000250
0.000244
0.000250
0.000252
0.000238
0.000269
0.000274
0.000498
0.000487
0.001598
0.000222
0.000514
0.000195
0.000232
0.000429
0.000475
0.000350
0.000240
0.000274
0.000252
0.000259
0.000279
0.000260
0.000299
0.000281
0.000191
0.000057
0.000320
0.000407
0.000379
0.000316
0.000201
0.000241
0.000252
0.000249
0.000232
0.000244
0.000254
0.000255
0.000233
0.000358
0.000296
0.000497
0.000359
0.001793
0.000277
0.000219
0.000333
0.000475
0.000372
0.000339
0.000368
0.000309
0.000250
0.000233
0.000230
0.000237
0.000218
0.000056
0.000204
0.000222
0.000220
0.000287
0.000387
0.000412
0.000366
0.000234
0.000255
0.000222
0.000237
0.000268
0.000273
0.000260
0.000249
0.000279
0.000288
0.000478
0.000351
0.000435
0.000243
0.001801
0.000287
0.000552
0.000504
0.000434
0.000284
0.000227
0.000242
0.000273
0.000500
0.000056
0.000205
0.000232
0.000240
0.000285
0.000461
0.000339
0.000511
0.000198
0.000208
0.000332
0.000224
0.000223
0.000247
0.000307
0.000360
0.000208
0.000239
0.000384
0.000379
0.000420
0.000535
0.001776
0.000257
0.000448
0.000499
0.000338
0.000240
0.000379
0.000242
0.000218
0.000211
0.000056
0.000216
0.000337
0.000351
0.000319
0.000398
0.000328
0.000337
0.000208
0.000224
0.000261
0.000275
0.000235
0.000237
0.000251
0.000260
0.000253
0.000322
0.000362
0.000536
0.000344
0.000319
0.000219
0.000254
0.001780
0.000368
0.000494
0.000692
0.000269
0.000253
0.000291
0.000180
0.000056
0.000177
0.000228
0.000312
0.000258
0.000268
0.000367
0.000438
0.000292
0.000322
0.000522
0.000208
0.000219
0.000229
0.000280
0.000279
0.000268
0.000231
0.000418
0.000455
0.000352
0.000258
0.000256
0.000244
0.000254
0.000271
0.000262
0.000236
0.000258
0.000261
0.000354
0.000170
0.000056
0.000288
0.000296
0.000232
0.000244
0.000240
0.000253
0.000247
0.000354
0.000217
0.000206
0.000260
0.000342
0.000424
0.000420
0.000345
0.000294
0.000209
0.000242
0.000246
0.000257
0.000279
0.000270
0.000243
0.000250
0.000277
0.000341
0.000442
0.000357
0.000371
0.000215
0.000168
0.000056
0.000187
0.000200
0.000268
0.000251
0.000236
0.000244
0.000258
0.000261
0.000494
0.000222
0.000249
0.000253
0.000248
0.000259
0.000265
0.000272
0.000274
0.000356
0.000247
0.000224
0.000236
0.000266
0.000261
0.000266
0.000276
0.000261
0.000273
0.000259
0.000245
0.000506
0.000164
0.000055
0.000174
0.000214
0.000252
0.000261
0.000247
0.000226
0.000300
0.000457
0.000307
0.000192
0.000245
0.000256
0.000238
0.000310
0.000334
0.001834
0.000264
0.000235
0.000301
0.000383
0.000410
0.000341
0.000389
0.000338
0.000415
0.000355
0.000260
0.000259
0.000272
0.000289
0.001404
0.000057
0.000384
0.000304
0.000316
0.000194
0.000205
0.000236
0.000233
0.000255
0.000253
0.000255
0.000252
0.000257
0.000254
0.000363
0.000447
0.001729
0.000208
0.000218
0.000209
0.000270
0.000250
0.000248
0.000399
0.000394
0.000271
0.000333
0.000244
0.000257
0.000268
0.000259
0.000221
0.000057
0.001217
0.000558
0.000320
0.000303
0.000204
0.000198
0.000214
0.000238
0.000474
0.000236
0.000231
0.000244
0.000357
0.000510
0.000399
0.000346
0.000293
0.000232
0.000329
0.000385
0.000228
0.000230
0.000275
0.000234
0.000269
0.000579
0.000607
0.000232
0.000238
0.000272
0.000180
0.000057
0.000220
0.000203
0.000228
0.000265
0.001474
0.000295
0.000205
0.000248
0.000244
0.000246
0.000259
0.000244
0.000244
0.000261
0.000281
0.000250
0.000558
0.000568
0.000276
0.001799
0.000254
0.000303
0.000368
0.000334
0.000518
0.000395
0.000236
0.000232
0.000256
0.000270
0.000214
0.000057
0.000286
0.000176
0.000206
0.001325
0.000334
0.000198
0.000259
0.000218
0.000226
0.000237
0.000238
0.000259
0.000273
0.000248
0.000264
0.000270
0.000466
0.000482
0.000327
0.000219
0.000239
0.000274
0.000262
0.000218
0.000354
0.000231
0.000218
0.000277
0.000267
0.000460
0.000490
0.000057
0.000211
0.000222
0.000235
0.000265
0.000261
0.000251
0.000228
0.000263
0.000269
0.000251
0.001433
0.000265
0.000202
0.000258
0.000249
0.000229
0.000272
0.000264
0.000258
0.000267
0.000288
0.000499
0.000421
0.000378
0.000255
0.000262
0.001833
0.000235
0.000239
0.000330
0.000440
0.000058
0.000260
0.000425
0.000451
0.000509
0.000522
0.000615
0.001379
0.000440
0.000545
0.000641
0.000559
0.000642
0.000546
0.000627
0.000582
0.001725
0.000437
0.000481
0.000404
0.000295
0.000253
0.000284
0.000292
0.000268
0.000273
0.000271
0.000298
0.000279
0.000257
0.000299
0.001322
0.000057
0.000227
0.000250
0.000218
0.000232
0.000247
0.000250
0.000245
0.000224
0.000261
0.000285
0.000234
0.000263
0.000235
0.000260
0.000266
0.000262
0.001842
0.000256
0.000263
0.000246
0.000259
0.000258
0.000269
0.000300
0.000499
0.000307
0.000337
0.000234
0.000267
0.000290
0.000166
0.000058
0.000215
0.001382
0.000264
0.000261
0.000264
0.000231
0.000250
0.000247
0.000254
0.000237
0.000244
0.000256
0.000246
0.000465
0.000278
0.000338
0.000271
0.000275
0.001902
0.000290
0.000243
0.000251
0.000259
0.000258
0.000270
0.000268
0.000284
0.000245
0.000249
0.000304
0.000235
0.000057
0.000178
0.000222
0.000261
0.001429
0.000263
0.000259
0.000225
0.000223
0.000238
0.000253
0.000252
0.000259
0.000230
0.000256
0.000294
0.000244
0.000249
0.000249
0.000275
0.000263
0.000258
0.001857
0.000254
0.001772
0.000245
0.000257
0.000243
0.000227
0.000267
0.000296
0.000202
0.000057
0.000208
0.000250
0.001352
0.000221
0.000264
0.000232
0.000224
0.000242
0.000250
0.000241
0.000249
0.000250
0.000262
0.000259
0.000258
0.000262
0.000257
0.000283
0.000290
0.000261
0.001859
0.000272
0.001798
0.000274
0.000251
0.000247
0.000248
0.000274
0.000260
0.000254
0.000186
0.000079
0.001419
0.000232
0.000242
0.000225
0.000211
0.000230
0.000267
0.000367
0.000249
0.000258
0.000275
0.000234
0.000240
0.000391
0.000455
0.000261
0.000252
0.000261
0.000241
0.000224
0.000260
0.000334
0.000237
0.000262
0.000274
0.000285
0.000244
0.000344
0.000713
0.000353
0.000174
0.000056
0.000205
0.000284
0.000266
0.000314
0.000351
0.000276
0.001653
0.000302
0.000287
0.000248
0.000273
0.000300
0.000264
0.000266
0.000311
0.000298
0.000446
0.000385
0.000431
0.000263
0.000325
0.000282
0.000253
0.000266
0.000329
0.000287
0.000238
0.000267
0.000219
0.000330
0.000371
0.000056
0.000320
0.000360
0.000276
0.000251
0.000261
0.000225
0.000220
0.000248
0.000264
0.000266
0.001485
0.000265
0.000214
0.000237
0.000250
0.000278
0.000267
0.000252
0.000264
0.000258
0.000269
0.000335
0.000589
0.000367
0.000232
0.000273
0.000272
0.000241
0.000247
0.000242
0.000238
0.000056
0.000200
0.000203
0.000267
0.000486
0.000354
0.000278
0.000222
0.000244
0.000245
0.000264
0.000233
0.000251
0.000249
0.000272
0.000232
0.000248
0.000337
0.001334
0.000223
0.000234
0.000242
0.000261
0.000332
0.000510
0.000221
0.000240
0.000635
0.000333
0.000423
0.000233
0.000159
0.000057
0.000183
0.000225
0.000264
0.000265
0.000312
0.000200
0.000332
0.000460
0.000476
0.000263
0.000367
0.000400
0.000393
0.000350
0.000240
0.000223
0.000222
0.000242
0.000372
0.000560
0.001195
0.000238
0.000253
0.000273
0.000232
0.000239
0.000264
0.000353
0.000377
0.000580
0.000168
0.000056
0.000196
0.000209
0.000256
0.000241
0.000240
0.000246
0.000239
0.000256
0.000259
0.000423
0.000427
0.000434
0.000221
0.000211
0.000231
0.000252
0.000246
0.000268
0.000262
0.000241
0.000504
0.000206
0.000415
0.000370
0.000364
0.000206
0.000252
0.000283
0.000248
0.000285
0.000235
0.000056
0.000309
0.000292
0.000283
0.000423
0.000584
0.000226
0.000222
0.000264
0.000220
0.000265
0.000261
0.000261
0.000237
0.000256
0.000243
0.000226
0.000261
0.000358
0.000539
0.000380
0.000208
0.000258
0.000224
0.000230
0.000272
0.000276
0.000266
0.000274
0.000272
0.000265
0.000395
0.000056
0.000307
0.000295
0.000208
0.000226
0.000254
0.000239
0.000258
0.000244
0.000262
0.000259
0.000256
0.000241
0.000280
0.000549
0.000435
0.000335
0.000197
0.000201
0.000238
0.000282
0.000260
0.000241
0.000271
0.000259
0.000276
0.000278
0.000464
0.000668
0.000411
0.000216
0.000144
0.000056
0.000386
0.000200
0.000192
0.000252
0.000247
0.000247
0.000239
0.000246
0.000257
0.000254
0.000225
0.000260
0.000269
0.000214
0.000249
0.000252
0.000254
0.000258
0.000282
0.000260
0.000265
0.000254
0.000274
0.000257
0.000273
0.000262
0.000231
0.000288
0.000243
0.000282
0.000225
0.000056
0.000184
0.000207
0.000245
0.000254
0.000237
0.000237
0.000269
0.000237
0.000262
0.000275
0.000233
0.000235
0.000260
0.000403
0.000229
0.000291
0.000261
0.000266
0.000246
0.000289
0.000270
0.000235
0.000253
0.000251
0.000265
0.000275
0.000272
0.000235
0.000264
0.000265
0.000225
0.000057
0.000244
0.000377
0.000352
0.000279
0.000303
0.000234
0.000215
0.000252
0.000248
0.000232
0.000242
0.000260
0.000256
0.000224
0.000263
0.000259
0.000266
0.000274
0.000249
0.000251
0.000281
0.000268
0.000265
0.000260
0.000287
0.000260
0.000252
0.000290
0.000233
0.000262
0.000214
0.000056
0.000166
0.000229
0.000240
0.000269
0.000241
0.000449
0.000217
0.000262
0.000258
0.000442
0.000528
0.000313
0.000223
0.000201
0.000268
0.000268
0.000237
0.000262
0.000271
0.000263
0.000265
0.000271
0.000251
0.000259
0.000579
0.000513
0.000260
0.000259
0.000273
0.000258
0.000208
0.000056
0.000211
0.000202
0.000240
0.000256
0.000250
0.000778
0.000253
0.000385
0.000227
0.000233
0.000244
0.000252
0.000268
0.000239
0.000281
0.000249
0.000257
0.000263
0.000600
0.000416
0.000309
0.000224
0.000259
0.000278
0.000282
0.000265
0.000258
0.000265
0.000259
0.000323
0.000326
0.000056
0.000249
0.000227
0.000215
0.000239
0.000254
0.000258
0.000251
0.000225
0.000241
0.000256
0.000249
0.000276
0.000221
0.000475
0.000472
0.000450
0.000215
0.000238
0.000263
0.000254
0.000260
0.000272
0.000479
0.000252
0.000241
0.000670
0.000508
0.000304
0.000281
0.000258
0.000188
0.000056
0.000193
0.000219
0.000238
0.000238
0.000251
0.000261
0.000377
0.000425
0.000560
0.000398
0.000205
0.000261
0.000277
0.000270
0.000274
0.000245
0.000235
0.000246
0.000263
0.000393
0.000396
0.000517
0.000429
0.000272
0.000445
0.000347
0.000492
0.000199
0.000252
0.000314
0.000496
0.000058
0.000264
0.000214
0.000493
0.000193
0.000229
0.000233
0.000245
0.000258
0.000240
0.000241
0.000281
0.000425
0.000323
0.000383
0.000218
0.000219
0.000273
0.000232
0.000275
0.000270
0.000268
0.000266
0.000252
0.000267
0.000349
0.000466
0.000460
0.000261
0.000261
0.000254
0.000223
0.000057
0.000205
0.000235
0.000236
0.000238
0.000253
0.000247
0.000518
0.000341
0.000395
0.000256
0.000348
0.000261
0.000212
0.000264
0.000261
0.000236
0.000252
0.000264
0.000322
0.000410
0.000515
0.000303
0.000418
0.000339
0.000396
0.000394
0.000378
0.000258
0.000218
0.000288
0.000404
0.000056
0.000226
0.000257
0.000197
0.000254
0.000252
0.000257
0.000252
0.000248
0.000248
0.000263
0.000236
0.000396
0.000462
0.000328
0.000358
0.000263
0.000238
0.000270
0.000281
0.000221
0.000253
0.000248
0.000262
0.000276
0.000277
0.000320
0.000495
0.000471
0.000256
0.000278
0.000211
0.000057
0.000237
0.000197
0.000254
0.000255
0.000247
0.000305
0.000577
0.000472
0.000332
0.000674
0.000315
0.000195
0.000213
0.000262
0.000237
0.000272
0.000279
0.000263
0.000482
0.000508
0.001559
0.000243
0.000264
0.000254
0.000301
0.000226
0.000364
0.000438
0.000390
0.000282
0.000171
0.000056
0.000204
0.000199
0.000245
0.000245
0.000242
0.000251
0.000272
0.000253
0.000254
0.000351
0.000372
0.000345
0.000276
0.000389
0.000383
0.000330
0.000233
0.000224
0.000238
0.000265
0.000244
0.000247
0.000278
0.000266
0.000343
0.000540
0.000364
0.000250
0.000222
0.000269
0.000205
0.000057
0.000222
0.000220
0.000257
0.000252
0.000253
0.000227
0.000468
0.000221
0.000236
0.000246
0.000246
0.000254
0.000260
0.000254
0.000252
0.000268
0.000267
0.000258
0.000281
0.000251
0.000259
0.000294
0.000305
0.000228
0.000265
0.000274
0.000273
0.000274
0.000260
0.000265
0.000200
0.000056
0.000227
0.000209
0.000318
0.000478
0.000374
0.000216
0.000208
0.000243
0.000261
0.000250
0.000243
0.000256
0.000267
0.000253
0.000250
0.000233
0.000258
0.000257
0.000342
0.000288
0.000382
0.000441
0.000235
0.000268
0.000275
0.000248
0.000264
0.000253
0.000266
0.000279
0.000220
0.000056
0.000384
0.000392
0.000413
0.000210
0.000246
0.000245
0.000482
0.000195
0.000198
0.000247
0.000277
0.000332
0.000363
0.000468
0.001748
0.000270
0.000250
0.000240
0.000279
0.000246
0.000282
0.000492
0.000727
0.000209
0.000230
0.000245
0.000273
0.000418
0.000279
0.000288
0.000182
0.000056
0.000228
0.000379
0.000393
0.000223
0.000507
0.000198
0.000235
0.000253
0.000247
0.000236
0.000261
0.000251
0.000255
0.000303
0.000425
0.000499
0.000236
0.000218
0.000256
0.000267
0.000255
0.000317
0.000242
0.000272
0.000283
0.000438
0.000489
0.000408
0.000489
0.000241
0.000205
0.000056
0.000198
0.000200
0.000250
0.000223
0.000253
0.000250
0.000270
0.000265
0.000354
0.000484
0.000342
0.000362
0.000206
0.000234
0.000258
0.000276
0.000328
0.000229
0.000268
0.000274
0.000242
0.000296
0.000531
0.000332
0.000258
0.000293
0.000234
0.000546
0.000384
0.000281
0.000168
0.000057
0.000200
0.000214
0.000337
0.000425
0.000369
0.000232
0.000224
0.000248
0.000266
0.000251
0.000268
0.000262
0.000222
0.000250
0.000262
0.000284
0.000375
0.000389
0.000309
0.000366
0.000463
0.000225
0.000277
0.000268
0.000314
0.000274
0.000265
0.000290
0.000436
0.000580
0.000157
0.000074
0.000177
0.000205
0.000244
0.000244
0.000250
0.000488
0.000219
0.000224
0.000271
0.000384
0.000485
0.000545
0.000235
0.000223
0.000235
0.000248
0.000253
0.000250
0.000256
0.000254
0.000255
0.000270
0.000377
0.000455
0.000377
0.000336
0.000334
0.000343
0.000311
0.000225
0.000169
0.000056
0.000197
0.000201
0.000239
0.000554
0.000265
0.000378
0.000243
0.000213
0.000212
0.000236
0.000254
0.000244
0.000258
0.000255
0.000304
0.000220
0.000248
0.000243
0.000284
0.000340
0.000622
0.000334
0.000217
0.000228
0.000278
0.000281
0.000258
0.000265
0.000266
0.000257
0.000212
0.000056
0.000232
0.000417
0.000494
0.000206
0.000232
0.000198
0.000322
0.000505
0.000272
0.000205
0.000211
0.000278
0.000251
0.000457
0.000444
0.000331
0.000199
0.000235
0.000284
0.000199
0.000277
0.000271
0.000257
0.000270
0.000271
0.000380
0.000337
0.000433
0.000356
0.000202
0.000161
0.000057
0.000183
0.000207
0.000252
0.000245
0.000255
0.000260
0.000235
0.000252
0.000257
0.000242
0.000270
0.000235
0.000257
0.001459
0.000256
0.000230
0.000256
0.000251
0.000272
0.000283
0.000258
0.000247
0.000269
0.000253
0.000272
0.000265
0.000284
0.000258
0.000265
0.000257
0.000219
0.000056
0.000209
0.000209
0.000236
0.000253
0.000242
0.000234
0.000257
0.000264
0.000237
0.000249
0.000245
0.000257
0.000257
0.000255
0.000252
0.000259
0.000246
0.000276
0.000258
0.000257
0.000252
0.000262
0.000255
0.000245
0.001349
0.000281
0.000543
0.000431
0.000391
0.000216
0.000159
0.000056
0.000213
0.000209
0.000244
0.000266
0.000484
0.000223
0.000187
0.000223
0.000257
0.000371
0.000500
0.000352
0.000210
0.000217
0.000221
0.000268
0.000250
0.000273
0.000246
0.000262
0.000251
0.000252
0.000264
0.000490
0.000438
0.000453
0.000243
0.000252
0.001356
0.000296
0.000175
0.000056
0.000383
0.000387
0.000350
0.000248
0.000197
0.000210
0.000221
0.000244
0.000262
0.000261
0.000249
0.000251
0.000263
0.000324
0.000568
0.000375
0.000291
0.000248
0.000235
0.000240
0.000278
0.000263
0.000282
0.000244
0.000269
0.000258
0.000335
0.000551
0.000415
0.000368
0.000155
0.000056
0.000208
0.000217
0.001320
0.000361
0.000278
0.000471
0.000373
0.000319
0.000429
0.000398
0.000226
0.000201
0.000246
0.000258
0.000251
0.000264
0.000344
0.000500
0.000452
0.000296
0.000275
0.000238
0.000252
0.000516
0.000238
0.000255
0.000260
0.000275
0.000312
0.000549
0.000327
0.000057
0.000333
0.000387
0.000231
0.000198
0.001551
0.000611
0.000203
0.000224
0.000210
0.000242
0.000232
0.000232
0.000252
0.000258
0.000258
0.000280
0.000218
0.000346
0.000408
0.000436
0.000397
0.000217
0.000221
0.000246
0.000255
0.000273
0.000271
0.000238
0.000260
0.000282
0.000215
0.000057
0.000361
0.000310
0.000253
0.000206
0.000250
0.000243
0.000246
0.000255
0.000236
0.000245
0.001565
0.000378
0.000251
0.000212
0.000202
0.000257
0.000268
0.000272
0.000229
0.000273
0.000272
0.000258
0.000271
0.000441
0.000327
0.000529
0.000214
0.000296
0.000251
0.000272
0.000197
0.000057
0.000207
0.000466
0.000193
0.000225
0.000301
0.000481
0.000306
0.000365
0.000460
0.000201
0.000217
0.000255
0.000259
0.000263
0.000269
0.001413
0.000348
0.000289
0.000251
0.000265
0.000275
0.000254
0.000251
0.000264
0.000246
0.000281
0.000571
0.000301
0.000323
0.000267
0.000167
0.000057
0.000193
0.000219
0.000243
0.000242
0.000241
0.000244
0.000242
0.000249
0.000302
0.000452
0.000405
0.000301
0.000201
0.000206
0.000250
0.000271
0.000271
0.000265
0.000271
0.000227
0.000256
0.000268
0.001368
0.000248
0.000255
0.000220
0.000223
0.000271
0.000264
0.000261
0.000195
0.000057
0.000209
0.000368
0.000396
0.000332
0.000234
0.000201
0.000246
0.000262
0.000256
0.000253
0.000262
0.000262
0.000258
0.000237
0.000262
0.000258
0.000265
0.000270
0.000268
0.000248
0.000243
0.000272
0.000275
0.000281
0.000290
0.000260
0.000290
0.000227
0.000273
0.000509
0.001315
0.000057
0.000208
0.000215
0.000235
0.000245
0.000251
0.000259
0.000251
0.000226
0.000240
0.000252
0.000259
0.000266
0.000259
0.000238
0.000250
0.001703
0.000356
0.000227
0.000210
0.000239
0.000247
0.000255
0.000274
0.000268
0.000263
0.000262
0.000263
0.000275
0.000276
0.000253
0.000238
0.000056
0.000354
0.000312
0.001334
0.000197
0.000228
0.000213
0.000254
0.000254
0.000257
0.000250
0.000239
0.000336
0.000411
0.000507
0.000248
0.000209
0.000223
0.000250
0.000260
0.000261
0.000257
0.000260
0.000265
0.000287
0.000266
0.000390
0.000411
0.000347
0.000287
0.000252
0.000196
0.000057
0.000201
0.000213
0.000253
0.000246
0.000246
0.000238
0.000232
0.000250
0.000419
0.000442
0.001156
0.000238
0.000226
0.000272
0.000258
0.000258
0.000275
0.000246
0.000330
0.000378
0.000418
0.000286
0.000201
0.000244
0.000292
0.000262
0.000271
0.000293
0.000266
0.000281
0.000210
0.000057
0.000271
0.000419
0.000385
0.000229
0.000208
0.000209
0.000233
0.000272
0.000267
0.000263
0.000223
0.000247
0.000539
0.000478
0.000467
0.001462
0.000225
0.000249
0.000340
0.000356
0.000436
0.000421
0.000457
0.000422
0.000220
0.000276
0.000255
0.000278
0.000265
0.000278
0.000207
0.000057
0.000210
0.000221
0.000486
0.000594
0.000228
0.000213
0.000270
0.000210
0.000248
0.000255
0.000252
0.000264
0.000268
0.000243
0.000266
0.000354
0.000602
0.000181
0.000327
0.001317
0.000271
0.000243
0.000262
0.000252
0.000567
0.000380
0.000409
0.000213
0.000251
0.000285
0.000201
0.000056
0.000198
0.000218
0.000240
0.000238
0.000251
0.000280
0.000442
0.000396
0.000352
0.000239
0.000230
0.000257
0.000275
0.000254
0.000265
0.000270
0.000257
0.000251
0.000271
0.000315
0.000533
0.000393
0.000335
0.001337
0.000365
0.000217
0.000293
0.000456
0.000410
0.000382
0.000288
0.000056
0.000183
0.000209
0.000266
0.000233
0.000248
0.000256
0.001734
0.000217
0.000226
0.000203
0.000261
0.000247
0.000338
0.000313
0.000327
0.000286
0.000235
0.000371
0.000464
0.000410
0.000287
0.000272
0.000228
0.000216
0.001441
0.000433
0.000440
0.000454
0.000307
0.000308
0.000147
0.000058
0.000189
0.000218
0.000254
0.000268
0.000236
0.000271
0.001766
0.000218
0.000240
0.000244
0.000387
0.000422
0.001419
0.000327
0.000433
0.000204
0.000214
0.000237
0.000261
0.000268
0.001612
0.000615
0.000348
0.000277
0.000217
0.000227
0.000251
0.000281
0.000259
0.000240
0.000208
0.000057
0.000190
0.000220
0.000260
0.000250
0.000262
0.000269
0.000289
0.000247
0.000254
0.000254
0.000251
0.000256
0.000251
0.000270
0.000269
0.001492
0.000263
0.000243
0.000262
0.000284
0.000262
0.000258
0.000424
0.001275
0.000274
0.000250
0.000259
0.000261
0.000467
0.000210
0.000179
0.000056
0.000215
0.000215
0.000229
0.000247
0.000246
0.000222
0.000240
0.001756
0.000213
0.000217
0.000234
0.000367
0.000240
0.000214
0.001456
0.000249
0.000215
0.000222
0.000269
0.000254
0.000247
0.000311
0.000328
0.001363
0.000279
0.000223
0.000229
0.000254
0.001388
0.000271
0.000217
0.000058
0.000203
0.000366
0.000203
0.000206
0.000252
0.000246
0.000259
0.000268
0.000266
0.000247
0.000267
0.000261
0.000258
0.000248
0.000343
0.001449
0.000259
0.000263
0.000272
0.000240
0.000276
0.000264
0.000249
0.001543
0.000303
0.000245
0.000264
0.001342
0.000237
0.000226
0.000196
0.000058
0.000189
0.000365
0.000366
0.000201
0.000233
0.000246
0.000248
0.000268
0.000264
0.000263
0.000239
0.000256
0.000258
0.000317
0.000411
0.001240
0.000225
0.000220
0.000239
0.000280
0.000235
0.000240
0.000252
0.001302
0.000365
0.000227
0.000248
0.000228
0.000243
0.001338
0.000309
0.000057
0.000305
0.000244
0.000215
0.000211
0.000232
0.000242
0.000255
0.000244
0.000278
0.000253
0.000236
0.000255
0.000246
0.000316
0.000440
0.001460
0.000249
0.000227
0.000289
0.000514
0.000320
0.000339
0.001370
0.000299
0.000247
0.000257
0.001288
0.000353
0.000259
0.000532
0.000314
0.000057
0.000205
0.000241
0.000256
0.000261
0.000244
0.000257
0.000275
0.000246
0.000261
0.000262
0.000460
0.000377
0.001356
0.000221
0.000221
0.000252
0.000287
0.000259
0.000213
0.000238
0.000358
0.001288
0.000236
0.000230
0.000224
0.000242
0.001513
0.000525
0.000375
0.000245
0.000191
0.000056
0.000189
0.000200
0.000244
0.000240
0.000249
0.000268
0.000244
0.000243
0.000475
0.000459
0.000313
0.001444
0.000244
0.000205
0.000263
0.000265
0.000253
0.000309
0.001634
0.000320
0.000344
0.000366
0.001292
0.000408
0.000352
0.000304
0.000222
0.000223
0.000236
0.000265
0.000214
0.000056
0.000194
0.000224
0.000308
0.000263
0.000264
0.000564
0.000288
0.000415
0.001437
0.000297
0.000319
0.000256
0.000208
0.000407
0.000245
0.001393
0.000258
0.000216
0.000240
0.000219
0.000307
0.001645
0.000315
0.000286
0.000229
0.000212
0.000510
0.000319
0.000221
0.000222
0.000266
0.000055
0.000293
0.000325
0.000327
0.000301
0.000235
0.001437
0.000242
0.000223
0.000269
0.000265
0.000271
0.000249
0.000265
0.001520
0.000269
0.000232
0.000411
0.001290
0.000252
0.000463
0.000383
0.000228
0.000247
0.000244
0.000282
0.000252
0.000456
0.000226
0.000261
0.000275
0.000206
0.000056
0.000202
0.000396
0.000224
0.001426
0.000278
0.000196
0.000309
0.000246
0.000240
0.000253
0.000242
0.000246
0.001659
0.000201
0.000228
0.000225
0.001367
0.000274
0.000502
0.000414
0.000394
0.000218
0.000218
0.000243
0.000366
0.000238
0.000222
0.000255
0.000255
0.000255
0.000215
0.000057
0.000230
0.000360
0.001431
0.000220
0.000258
0.000268
0.000258
0.000237
0.000342
0.000472
0.001228
0.000251
0.000299
0.000249
0.000206
0.001344
0.000703
0.000249
0.000302
0.000405
0.000347
0.000230
0.000229
0.000239
0.000263
0.000299
0.000270
0.000299
0.000444
0.000482
0.001367
0.000056
0.000213
0.000251
0.000218
0.000215
0.000248
0.000395
0.001573
0.000289
0.000230
0.000202
0.000239
0.001428
0.000449
0.000325
0.000464
0.000246
0.000212
0.000217
0.000240
0.000272
0.000254
0.000265
0.000289
0.000259
0.000248
0.000301
0.000415
0.000529
0.001446
0.000273
0.000188
0.000057
0.000207
0.000226
0.000459
0.000484
0.001190
0.000277
0.000255
0.000254
0.000249
0.000255
0.000247
0.000273
0.000322
0.000613
0.000286
0.000234
0.000225
0.000282
0.000233
0.000275
0.000261
0.000267
0.000261
0.000258
0.000267
0.000468
0.000402
0.000341
0.000333
0.001456
0.000147
0.000056
0.000206
0.000205
0.000360
0.000379
0.000324
0.000334
0.000301
0.000315
0.000276
0.000261
0.000270
0.000264
0.000238
0.000312
0.000235
0.000319
0.000562
0.000286
0.000284
0.000386
0.000285
0.000481
0.000236
0.000212
0.000216
0.000259
0.000257
0.000279
0.000373
0.000474
0.000330
0.000056
0.000231
0.001341
0.000282
0.000330
0.000409
0.000422
0.000332
0.000342
0.000229
0.000202
0.000261
0.000251
0.000264
0.000282
0.000248
0.000260
0.000262
0.001364
0.000312
0.000224
0.000221
0.000277
0.000269
0.000281
0.000273
0.000255
0.000268
0.000252
0.000323
0.000402
0.000447
0.000057
0.000219
0.000238
0.000242
0.001526
0.000326
0.000217
0.000211
0.000209
0.000234
0.000235
0.000253
0.000283
0.000244
0.000251
0.000269
0.000267
0.000234
0.000272
0.000257
0.000259
0.001429
0.000278
0.000225
0.000347
0.000211
0.000208
0.000251
0.000268
0.000274
0.000507
0.000378
0.000055
0.000203
0.000209
0.000386
0.000303
0.000234
0.000247
0.001538
0.000356
0.000320
0.000221
0.000222
0.000373
0.000298
0.000229
0.000205
0.000274
0.000223
0.000266
0.000260
0.000283
0.000459
0.000572
0.001122
0.000262
0.000220
0.000218
0.000264
0.000266
0.000288
0.000240
0.000391
0.000056
0.000178
0.000353
0.000202
0.000204
0.000244
0.000244
0.000237
0.000237
0.001420
0.000517
0.000429
0.000245
0.000230
0.000224
0.000228
0.000247
0.000250
0.000295
0.000245
0.000308
0.000305
0.000510
0.000420
0.001380
0.000243
0.000245
0.000278
0.000248
0.000269
0.000273
0.000466
0.000056
0.000232
0.000212
0.000260
0.000216
0.000222
0.000243
0.000263
0.000239
0.000290
0.001570
0.000340
0.000254
0.000267
0.000259
0.000464
0.000290
0.000399
0.000475
0.000333
0.000328
0.000425
0.000452
0.001327
0.000235
0.000222
0.000230
0.001810
0.000377
0.000616
0.000318
0.000136
0.000057
0.000186
0.000204
0.000245
0.000226
0.000251
0.000244
0.000352
0.000450
0.000470
0.000426
0.000302
0.000210
0.000208
0.000254
0.000267
0.000272
0.000242
0.000263
0.000246
0.000274
0.000260
0.000447
0.001328
0.000254
0.000224
0.000265
0.001892
0.000384
0.000450
0.000296
0.000173
0.000057
0.000207
0.000201
0.000248
0.001528
0.000469
0.000199
0.000238
0.000266
0.000247
0.000331
0.000365
0.000382
0.000351
0.000308
0.000308
0.000501
0.001343
0.000325
0.000205
0.000208
0.000241
0.000247
0.000350
0.000414
0.000608
0.000445
0.000216
0.000222
0.000269
0.000281
0.000207
0.000057
0.000186
0.000202
0.001464
0.000419
0.000190
0.000220
0.000217
0.000253
0.000248
0.000253
0.000242
0.000282
0.000276
0.000258
0.000238
0.000432
0.000379
0.000365
0.001382
0.000295
0.000203
0.000257
0.000275
0.000253
0.000368
0.000455
0.000491
0.000292
0.000299
0.000242
0.000404
0.000056
0.000215
0.000207
0.000257
0.000261
0.001581
0.000227
0.000259
0.000244
0.000255
0.000257
0.000251
0.000267
0.000259
0.000253
0.000378
0.000547
0.001451
0.000739
0.000213
0.000335
0.000247
0.000215
0.000239
0.000272
0.001755
0.000728
0.000259
0.000241
0.000279
0.000284
0.000211
0.000057
0.000211
0.000200
0.000252
0.000248
0.000248
0.000246
0.000252
0.000251
0.000247
0.000225
0.000282
0.000282
0.000256
0.000253
0.000264
0.000252
0.000259
0.001603
0.000710
0.000377
0.000359
0.000206
0.000209
0.000280
0.000296
0.000249
0.000271
0.000253
0.001495
0.000341
0.000309
0.000057
0.000188
0.000199
0.000244
0.000255
0.000257
0.000231
0.000256
0.000257
0.000243
0.000276
0.000226
0.000516
0.000369
0.000377
0.000204
0.000224
0.000284
0.001437
0.000696
0.000396
0.000334
0.000317
0.000218
0.000231
0.000273
0.000249
0.000265
0.000261
0.001494
0.000430
0.000229
0.000056
0.000200
0.000190
0.000241
0.000249
0.000254
0.000242
0.000241
0.000253
0.000267
0.000263
0.000339
0.000396
0.000338
0.000231
0.000239
0.000244
0.000266
0.000258
0.001571
0.000606
0.000560
0.000277
0.000220
0.000241
0.000251
0.000259
0.000271
0.000276
0.000270
0.001434
0.000306
0.000056
0.000222
0.000205
0.000219
0.000256
0.000261
0.000243
0.000280
0.000355
0.000365
0.000419
0.000371
0.000352
0.000360
0.000230
0.000217
0.000237
0.000272
0.000259
0.001383
0.000896
0.000316
0.000205
0.000485
0.000204
0.000228
0.000233
0.000286
0.000257
0.000262
0.000275
0.000352
0.000056
0.000225
0.000285
0.000208
0.000232
0.000252
0.000260
0.000220
0.000239
0.000262
0.000255
0.000249
0.000238
0.000248
0.000549
0.000388
0.000468
0.000217
0.000250
0.000268
0.000243
0.000252
0.000385
0.001360
0.001068
0.000250
0.000220
0.000273
0.000258
0.000280
0.000253
0.000229
0.000057
0.000195
0.001384
0.000278
0.000194
0.000208
0.000262
0.000235
0.000240
0.000231
0.000262
0.000252
0.000263
0.000234
0.000387
0.000365
0.000333
0.000440
0.000213
0.000257
0.000289
0.000244
0.000249
0.000250
0.000265
0.001402
0.000677
0.000303
0.000398
0.000369
0.000398
0.000265
0.000057
0.000180
0.000208
0.000345
0.001337
0.000235
0.000266
0.000194
0.000252
0.000255
0.000260
0.000274
0.000219
0.000278
0.000326
0.000562
0.000376
0.000217
0.000303
0.000276
0.000226
0.000248
0.000257
0.000232
0.000270
0.000269
0.001540
0.000748
0.000290
0.000278
0.000270
0.000209
0.000057
0.000201
0.000263
0.000453
0.000375
0.001300
0.000243
0.000207
0.000197
0.000236
0.000248
0.000243
0.000259
0.000233
0.000241
0.000252
0.000255
0.000270
0.000240
0.000250
0.000254
0.000269
0.000275
0.000336
0.000290
0.000240
0.000236
0.000267
0.001545
0.000230
0.000224
0.000166
0.000057
0.000189
0.000201
0.000269
0.000317
0.000348
0.000336
0.000408
0.000249
0.001558
0.000260
0.000270
0.000488
0.000331
0.000267
0.000495
0.000223
0.000222
0.000235
0.000255
0.000270
0.000280
0.000269
0.000255
0.000271
0.000285
0.000410
0.000415
0.000336
0.001530
0.000248
0.000177
0.000057
0.000209
0.000210
0.000248
0.000241
0.000248
0.000244
0.000255
0.000344
0.002228
0.000254
0.000201
0.000208
0.000248
0.000265
0.000257
0.000331
0.000254
0.000209
0.000246
0.000485
0.000325
0.000447
0.001520
0.000219
0.000221
0.000503
0.001771
0.000286
0.000257
0.001486
0.000186
0.000057
0.000425
0.000290
0.000477
0.000227
0.000259
0.000226
0.000259
0.000258
0.000275
0.000234
0.000251
0.000315
0.000420
0.000344
0.000511
0.000220
0.000205
0.001559
0.000492
0.001996
0.000282
0.000268
0.001422
0.000365
0.002021
0.000737
0.000278
0.000213
0.000270
0.000441
0.000415
0.000057
0.000172
0.000207
0.000251
0.000256
0.001480
0.001673
0.001076
0.000228
0.000204
0.001583
0.001989
0.000235
0.000303
0.000408
0.000307
0.000304
0.000406
0.000440
0.000249
0.000227
0.000254
0.000254
0.000274
0.001552
0.001311
0.001432
0.000267
0.000233
0.000268
0.000260
0.000429
0.000056
0.000244
0.000213
0.000205
0.000246
0.000230
0.000227
0.000254
0.000257
0.000252
0.000255
0.000238
0.000299
0.000614
0.000346
0.000306
0.000214
0.000225
0.000282
0.000252
0.000262
0.000260
0.001405
0.000442
0.000447
0.002069
0.000259
0.000232
0.000413
0.000391
0.000436
0.000165
0.000056
0.000192
0.000392
0.000410
0.000311
0.000227
0.000198
0.000246
0.000261
0.000240
0.000241
0.000244
0.000263
0.000260
0.001607
0.001424
0.001232
0.000270
0.000228
0.000214
0.000236
0.000285
0.000280
0.000255
0.000249
0.002267
0.000223
0.000211
0.000294
0.000325
0.000301
0.000247
0.000056
0.000297
0.000299
0.000629
0.000281
0.000200
0.000216
0.000212
0.000282
0.001880
0.001440
0.000246
0.000380
0.000389
0.000357
0.000268
0.000217
0.000235
0.000259
0.000257
0.000288
0.000246
0.000250
0.000498
0.000230
0.000261
0.000268
0.000251
0.000282
0.000280
0.000243
0.000217
0.000057
0.000193
0.000232
0.000250
0.000237
0.000245
0.000287
0.001524
0.001506
0.001325
0.000217
0.000198
0.000219
0.000261
0.000262
0.000252
0.000248
0.000257
0.002177
0.000215
0.000209
0.000245
0.000270
0.000252
0.000267
0.000272
0.000254
0.000269
0.000253
0.000276
0.000262
0.000192
0.000057
0.001508
0.000311
0.002399
0.000241
0.000304
0.000297
0.000242
0.000262
0.000262
0.000240
0.000253
0.000253
0.000234
0.000239
0.000277
0.000248
0.000277
0.000266
0.000251
0.000272
0.000264
0.000273
0.000283
0.000267
0.000246
0.000249
0.000258
0.000271
0.000267
0.000280
0.000388
0.000056
0.000189
0.002574
0.000331
0.000194
0.000206
0.000206
0.000257
0.000252
0.000257
0.000248
0.000465
0.000321
0.000320
0.000259
0.000206
0.002226
0.000216
0.000234
0.000310
0.000407
0.000462
0.000251
0.000221
0.000236
0.000284
0.000233
0.000261
0.000275
0.000272
0.001681
0.001230
0.000056
0.000208
0.000196
0.000239
0.000439
0.000368
0.000270
0.000237
0.000211
0.000255
0.000254
0.000265
0.000244
0.000237
0.000249
0.000266
0.000248
0.000295
0.000629
0.000403
0.000252
0.000215
0.000241
0.000280
0.000272
0.000257
0.000222
0.000263
0.000281
0.000232
0.000418
0.000300
0.000055
0.001118
0.000233
0.000373
0.000406
0.000344
0.000189
0.000204
0.000230
0.002333
0.000334
0.000307
0.000368
0.000212
0.000279
0.000342
0.000269
0.000268
0.000262
0.000245
0.000237
0.000247
0.000278
0.000631
0.000493
0.001813
0.001301
0.000562
0.000527
0.000228
0.000252
0.000222
0.000057
0.000309
0.000271
0.000273
0.000203
0.000235
0.000243
0.000241
0.000247
0.000264
0.000259
0.000244
0.000246
0.000232
0.000252
0.000409
0.000510
0.001880
0.001323
0.000477
0.000393
0.000405
0.000237
0.000249
0.000253
0.002250
0.000429
0.000380
0.000250
0.000265
0.000289
0.000213
0.000057
0.000197
0.000234
0.000243
0.000240
0.000249
0.000307
0.000470
0.000272
0.000350
0.000231
0.000232
0.000276
0.000240
0.002097
0.000452
0.000308
0.000216
0.000247
0.000258
0.000260
0.000254
0.002439
0.000384
0.000220
0.000238
0.000253
0.000252
0.000268
0.000274
0.000291
0.000214
0.000055
0.000195
0.000366
0.000636
0.000303
0.000226
0.000208
0.000195
0.000252
0.000264
0.000255
0.002093
0.000336
0.000254
0.000263
0.000205
0.000240
0.000275
0.000250
0.002272
0.000372
0.000236
0.000260
0.000257
0.000265
0.000262
0.000255
0.000272
0.000249
0.000270
0.000268
0.000201
0.000057
0.000164
0.000215
0.000250
0.000227
0.000245
0.000255
0.000252
0.000237
0.000250
0.002169
0.000237
0.000271
0.000215
0.000485
0.000209
0.000211
0.000264
0.000289
0.000251
0.000279
0.002018
0.000244
0.000376
0.000367
0.000495
0.000345
0.000279
0.000251
0.000222
0.000253
0.000216
0.000056
0.000168
0.000231
0.000236
0.000245
0.000239
0.000385
0.000204
0.002347
0.000198
0.000230
0.000225
0.000259
0.000241
0.000249
0.000300
0.002204
0.000520
0.000221
0.000254
0.000249
0.000250
0.000266
0.000282
0.000275
0.000277
0.000238
0.000290
0.000253
0.000260
0.000314
0.000160
0.000056
0.000185
0.003010
0.000235
0.000221
0.000244
0.000246
0.000252
0.000320
0.000345
0.000396
0.002143
0.000261
0.000234
0.000262
0.000266
0.000537
0.000430
0.000301
0.000234
0.000196
0.000245
0.000266
0.000269
0.000232
0.000246
0.000272
0.000271
0.000261
0.000348
0.000659
0.000316
0.000056
0.000197
0.000281
0.000260
0.000214
0.000236
0.000251
0.000253
0.000248
0.001593
0.002085
0.000512
0.000263
0.000388
0.000790
0.000352
0.000218
0.000204
0.000245
0.000258
0.000254
0.000260
0.000250
0.000242
0.000276
0.001832
0.001447
0.000294
0.000270
0.000272
0.000364
0.000444
0.000056
0.001943
0.000229
0.000224
0.000203
0.000259
0.000474
0.000422
0.000263
0.000311
0.000247
0.000208
0.000209
0.000262
0.000261
0.000252
0.000268
0.000252
0.000259
0.001919
0.000214
0.000202
0.000242
0.000271
0.000281
0.000273
0.000262
0.001529
0.000370
0.000194
0.000240
0.000156
0.000056
0.000188
0.000196
0.000246
0.000237
0.000255
0.000236
0.000376
0.000306
0.000354
0.000408
0.000202
0.000214
0.000325
0.000326
0.000383
0.000327
0.000228
0.000220
0.000256
0.000416
0.000496
0.000409
0.000240
0.000218
0.000256
0.000258
0.000250
0.000264
0.000277
0.000263
0.000226
0.000056
0.001440
0.000405
0.000231
0.002004
0.000244
0.000438
0.000369
0.000384
0.000198
0.000220
0.000279
0.000230
0.000246
0.000246
0.000266
0.000264
0.000453
0.000268
0.000487
0.000259
0.000420
0.000214
0.000248
0.000265
0.000327
0.000233
0.000242
0.000273
0.000309
0.000498
0.001429
0.000056
0.000179
0.000214
0.002072
0.000289
0.000314
0.000268
0.000251
0.000261
0.000264
0.000238
0.000233
0.000249
0.000257
0.000253
0.000263
0.000386
0.000675
0.001748
0.000259
0.000239
0.000268
0.000253
0.000374
0.000506
0.001512
0.000274
0.000376
0.001995
0.000226
0.000247
0.000188
0.000056
0.000200
0.000222
0.000223
0.000253
0.000246
0.000224
0.000253
0.000279
0.000342
0.000293
0.000381
0.000366
0.000332
0.000304
0.000217
0.000258
0.000256
0.000237
0.000266
0.000269
0.000276
0.000304
0.000263
0.000259
0.000275
0.001574
0.000286
0.000419
0.001968
0.000271
0.000163
0.000056
0.000190
0.000223
0.000233
0.000246
0.000473
0.000227
0.000249
0.000346
0.000366
0.000383
0.000220
0.000222
0.000252
0.000270
0.000274
0.000318
0.000504
0.000343
0.000271
0.000378
0.000594
0.000375
0.001606
0.000263
0.000235
0.002014
0.000346
0.000238
0.000219
0.000263
0.000203
0.000057
0.000182
0.000231
0.000230
0.000224
0.000253
0.000266
0.000257
0.000273
0.000249
0.000249
0.001892
0.000276
0.000394
0.000331
0.000457
0.000361
0.001519
0.000344
0.000223
0.000310
0.002085
0.000539
0.000258
0.000222
0.000248
0.000268
0.000492
0.000227
0.000252
0.000274
0.000221
0.000057
0.000298
0.000322
0.000410
0.000246
0.000217
0.000222
0.000258
0.000256
0.000274
0.000282
0.000223
0.000255
0.000256
0.000259
0.000336
0.000526
0.001279
0.000263
0.000316
0.001917
0.000375
0.000273
0.000206
0.000255
0.000244
0.000279
0.000267
0.000267
0.000241
0.000273
0.000218
0.000056
0.000312
0.000346
0.002081
0.000214
0.000240
0.000234
0.000209
0.000304
0.000422
0.001528
0.000318
0.000368
0.000337
0.001999
0.000236
0.000235
0.000261
0.000278
0.000262
0.000229
0.000284
0.000292
0.000261
0.000348
0.000505
0.000343
0.000376
0.002186
0.000514
0.000515
0.000379
0.000056
0.000203
0.000220
0.000222
0.002034
0.000197
0.000212
0.000242
0.000270
0.000197
0.000256
0.000244
0.000262
0.000259
0.000276
0.000498
0.000368
0.001301
0.000230
0.000272
0.000264
0.000228
0.000251
0.000275
0.000257
0.000328
0.000470
0.000454
0.000254
0.001673
0.000232
0.000155
0.000058
0.000202
0.000203
0.000225
0.000242
0.000249
0.000249
0.000261
0.000263
0.000261
0.000363
0.000329
0.001508
0.000204
0.000215
0.000215
0.000265
0.000262
0.000249
0.000264
0.000555
0.000465
0.000373
0.000211
0.001562
0.000254
0.000240
0.000280
0.000283
0.000267
0.000260
0.000205
0.000057
0.000190
0.000220
0.000258
0.000266
0.000255
0.000240
0.000235
0.000235
0.000258
0.000261
0.000238
0.000254
0.000258
0.000250
0.001585
0.000231
0.000233
0.000270
0.000339
0.000336
0.000350
0.000267
0.000211
0.000244
0.000256
0.000265
0.001466
0.000297
0.000203
0.000228
0.000177
0.000057
0.000179
0.000230
0.000241
0.000265
0.000268
0.000220
0.000243
0.000266
0.000216
0.000273
0.000244
0.000258
0.000225
0.000293
0.000396
0.000320
0.000332
0.001567
0.000344
0.000210
0.000222
0.000232
0.000263
0.000371
0.000391
0.000402
0.000415
0.000248
0.000216
0.001583
0.000191
0.000057
0.000350
0.000344
0.000354
0.000285
0.000209
0.000204
0.000255
0.000257
0.000261
0.000242
0.000239
0.000241
0.001461
0.000329
0.000300
0.000224
0.000218
0.000256
0.000268
0.000267
0.000250
0.000247
0.000261
0.000267
0.000250
0.000384
0.000493
0.000358
0.000272
0.000224
0.000193
0.000056
0.000217
0.000350
0.000398
0.000303
0.000369
0.000244
0.000214
0.000249
0.000255
0.000252
0.000247
0.000227
0.000251
0.000249
0.001337
0.000274
0.000227
0.000206
0.000269
0.000270
0.000239
0.000257
0.000248
0.000270
0.000254
0.000257
0.000322
0.000662
0.000480
0.000238
0.000184
0.000056
0.000207
0.001524
0.000243
0.000348
0.000554
0.000299
0.000196
0.000240
0.000271
0.000246
0.000248
0.000264
0.000271
0.000267
0.000269
0.001522
0.000254
0.000280
0.000262
0.000260
0.000258
0.000256
0.000262
0.000264
0.000260
0.000255
0.000452
0.000403
0.000354
0.000220
0.000182
0.000057
0.000182
0.000218
0.000246
0.001707
0.000399
0.000333
0.000204
0.000208
0.000243
0.000273
0.000274
0.000260
0.000252
0.000262
0.000239
0.000265
0.000342
0.001440
0.000234
0.000216
0.001528
0.000283
0.000628
0.000414
0.000261
0.000219
0.000257
0.000467
0.000238
0.000254
0.000200
0.000056
0.000284
0.000227
0.000218
0.000235
0.000247
0.000258
0.000239
0.000253
0.000262
0.000234
0.000255
0.000257
0.000325
0.000509
0.001646
0.001487
0.000379
0.000540
0.000309
0.000234
0.000246
0.000248
0.000247
0.000259
0.000256
0.000261
0.000272
0.000263
0.001593
0.000321
0.000141
0.000057
0.000222
0.000337
0.000355
0.000330
0.000260
0.000203
0.000224
0.000294
0.000488
0.001407
0.000356
0.001540
0.000371
0.000512
0.000407
0.000259
0.000352
0.000326
0.000342
0.000285
0.000230
0.000355
0.001561
0.000537
0.000242
0.000244
0.000253
0.000248
0.000257
0.000271
0.000212
0.000056
0.000192
0.000237
0.000257
0.000254
0.000239
0.001655
0.000951
0.000902
0.000239
0.000232
0.000255
0.000267
0.000247
0.000268
0.000254
0.000250
0.000254
0.000265
0.000264
0.000278
0.001511
0.000263
0.000261
0.000225
0.000227
0.000237
0.000268
0.000273
0.000263
0.000283
0.000220
0.000057
0.000193
0.000202
0.001532
0.000970
0.000328
0.000402
0.000174
0.000208
0.000265
0.000236
0.000243
0.000254
0.000247
0.002043
0.000478
0.000211
0.000227
0.000227
0.000254
0.000262
0.000215
