0.000100
0.018053
0.003640
0.000320
0.000262
0.000283
0.000308
0.000245
0.000336
0.000279
0.000250
0.000346
0.000555
0.000464
0.000407
0.000298
0.000291
0.000341
0.000354
0.000410
0.000315
0.001937
0.000680
0.000247
0.000262
0.000298
0.000300
0.000342
0.000428
0.000373
0.000516
0.000324
0.000057
0.000202
0.000270
0.000271
0.000261
0.000276
0.000244
0.000285
0.000259
0.000269
0.000289
0.000432
0.000443
0.000311
0.000261
0.000414
0.000302
0.000365
0.000250
0.000236
0.001792
0.000239
0.000251
0.000461
0.000243
0.000264
0.000278
0.000290
0.000302
0.000274
0.000346
0.000480
0.000056
0.000222
0.000259
0.000258
0.000263
0.000254
0.000244
0.000264
0.000257
0.000286
0.001665
0.000261
0.000265
0.000252
0.000247
0.000260
0.000260
0.000265
0.000343
0.000325
0.001733
0.000230
0.000274
0.000446
0.000488
0.000341
0.000237
0.000307
0.000404
0.000521
0.000745
0.000196
0.000056
0.000213
0.000248
0.000250
0.000246
0.000292
0.000265
0.000385
0.000481
0.000388
0.000254
0.000237
0.000242
0.000244
0.000256
0.000259
0.000253
0.000243
0.000269
0.000298
0.000393
0.001607
0.000278
0.000250
0.000413
0.000278
0.000719
0.000659
0.000541
0.000342
0.000232
0.000184
0.000057
0.000208
0.000252
0.000271
0.000236
0.000263
0.000253
0.000257
0.000557
0.001387
0.000216
0.000241
0.000245
0.000256
0.000258
0.000264
0.000285
0.000547
0.000637
0.001284
0.000276
0.000464
0.000262
0.000207
0.000239
0.000254
0.000262
0.000257
0.000275
0.000255
0.000280
0.000193
0.000056
0.000196
0.000257
0.000241
0.000265
0.000234
0.000245
0.000239
0.000254
0.000236
0.000262
0.001626
0.000259
0.000238
0.000242
0.000251
0.000252
0.000243
0.000267
0.000240
0.000252
0.000273
0.001673
0.000277
0.000250
0.000438
0.000257
0.000246
0.000260
0.000266
0.000271
0.000197
0.000056
0.000197
0.000241
0.000241
0.000245
0.000245
0.000247
0.000262
0.000237
0.000263
0.000243
0.000264
0.000254
0.000261
0.000274
0.001642
0.000274
0.000296
0.000218
0.000246
0.000278
0.000278
0.000231
0.000243
0.000265
0.001799
0.000395
0.000329
0.000358
0.000240
0.000282
0.000198
0.000056
0.000203
0.000231
0.000253
0.000264
0.000259
0.000234
0.000270
0.000435
0.000419
0.000407
0.000212
0.000251
0.000251
0.000252
0.001581
0.000496
0.000436
0.000314
0.000314
0.000241
0.000256
0.000276
0.000279
0.001753
0.000476
0.000480
0.000241
0.000259
0.000239
0.000264
0.000183
0.000056
0.000208
0.000227
0.000258
0.000273
0.000322
0.000455
0.000375
0.000278
0.000210
0.000253
0.000260
0.000236
0.000257
0.001701
0.000494
0.000301
0.000215
0.000251
0.000274
0.000284
0.000249
0.000259
0.000272
0.001954
0.000242
0.000386
0.000269
0.000241
0.000261
0.000411
0.000327
0.000056
0.000216
0.000383
0.000339
0.000290
0.000253
0.000243
0.000249
0.000258
0.000245
0.000230
0.000235
0.000251
0.001556
0.000417
0.000247
0.000221
0.000263
0.000259
0.000238
0.000286
0.000275
0.000328
0.000242
0.001821
0.000258
0.000498
0.000232
0.000250
0.000257
0.000271
0.000269
0.000057
0.000376
0.000560
0.000604
0.000215
0.000231
0.000281
0.000227
0.000215
0.000269
0.000246
0.000259
0.001701
0.000245
0.000443
0.000367
0.000218
0.000241
0.000230
0.000250
0.000269
0.000243
0.001874
0.000232
0.000233
0.002083
0.000522
0.000362
0.000239
0.000259
0.000263
0.000183
0.000056
0.000194
0.000236
0.000253
0.000240
0.000261
0.001625
0.000243
0.000232
0.000262
0.000250
0.000243
0.000241
0.000267
0.000236
0.000268
0.000434
0.000617
0.000258
0.000231
0.000269
0.000269
0.000244
0.000243
0.000435
0.000455
0.000255
0.000356
0.000768
0.000220
0.000251
0.000203
0.000055
0.000213
0.000240
0.000245
0.000253
0.000236
0.000240
0.000265
0.000336
0.000455
0.001743
0.000218
0.000230
0.000243
0.000247
0.000261
0.000294
0.000409
0.000522
0.000315
0.000233
0.000262
0.000299
0.000285
0.000266
0.000262
0.000429
0.000352
0.000664
0.000480
0.000385
0.000158
0.000056
0.000193
0.000277
0.000224
0.000217
0.000251
0.000241
0.000246
0.000247
0.000238
0.000300
0.000340
0.000450
0.001364
0.000255
0.000227
0.000251
0.000257
0.000260
0.000239
0.000255
0.000285
0.000576
0.000351
0.000202
0.000256
0.000256
0.000259
0.000274
0.000265
0.000261
0.000382
0.000056
0.000217
0.000240
0.000214
0.000275
0.000549
0.000429
0.000218
0.000257
0.000238
0.000261
0.000240
0.000243
0.000295
0.000248
0.000236
0.000495
0.000447
0.001630
0.000273
0.000214
0.000260
0.000263
0.000255
0.000261
0.000237
0.000425
0.000525
0.000311
0.000429
0.000218
0.000205
0.000056
0.000232
0.000431
0.000236
0.000212
0.000266
0.000246
0.000425
0.000459
0.000299
0.000328
0.000220
0.000274
0.000267
0.000239
0.000518
0.000350
0.000237
0.000240
0.000429
0.001607
0.000261
0.000259
0.000511
0.000246
0.000275
0.000277
0.000256
0.000504
0.000409
0.000371
0.000267
0.000056
0.000209
0.000242
0.000230
0.000244
0.000415
0.000301
0.000298
0.000232
0.000386
0.000511
0.000334
0.000274
0.000218
0.000247
0.000260
0.000269
0.000257
0.000255
0.000234
0.000356
0.000276
0.000332
0.001848
0.000236
0.000257
0.000257
0.000294
0.000352
0.000414
0.000677
0.000498
0.000055
0.000236
0.000331
0.000277
0.000421
0.000387
0.000210
0.000256
0.000295
0.000546
0.000424
0.000214
0.000252
0.000229
0.000265
0.000264
0.000231
0.000256
0.000274
0.000270
0.000261
0.000281
0.000439
0.000720
0.001225
0.000344
0.000436
0.000424
0.000243
0.000406
0.000451
0.000335
0.000058
0.000232
0.000380
0.000288
0.000192
0.000229
0.000240
0.000419
0.000238
0.000224
0.000378
0.000512
0.000361
0.000239
0.000256
0.000262
0.000249
0.000368
0.000393
0.000346
0.000240
0.000239
0.000505
0.000558
0.001633
0.000232
0.000469
0.000279
0.000227
0.000249
0.000495
0.000285
0.000056
0.000188
0.000231
0.000245
0.000245
0.000248
0.000245
0.000252
0.000321
0.000462
0.000269
0.000466
0.000353
0.000289
0.000587
0.000243
0.000235
0.000274
0.000265
0.000231
0.000357
0.000216
0.000240
0.000274
0.000383
0.000592
0.001595
0.000269
0.000236
0.000237
0.000272
0.000180
0.000056
0.000295
0.000507
0.000307
0.000216
0.000260
0.000237
0.000257
0.000238
0.000260
0.000249
0.000223
0.000249
0.000468
0.000588
0.000318
0.000254
0.000245
0.000250
0.000353
0.000377
0.000381
0.000374
0.000380
0.000328
0.000242
0.000264
0.000261
0.000279
0.001785
0.000253
0.000214
0.000056
0.000199
0.000219
0.000254
0.000282
0.000363
0.000546
0.000308
0.000218
0.000249
0.000263
0.000248
0.000249
0.000796
0.000213
0.000463
0.000267
0.000263
0.000269
0.000417
0.000464
0.000378
0.000443
0.000453
0.000413
0.000248
0.000235
0.000272
0.000242
0.000266
0.001719
0.000322
0.000055
0.000206
0.000326
0.000213
0.000228
0.000255
0.000245
0.000243
0.000506
0.000367
0.000310
0.000307
0.000288
0.000364
0.000665
0.000284
0.000234
0.000243
0.000252
0.000257
0.000267
0.000261
0.000263
0.000246
0.000268
0.000325
0.000365
0.000453
0.000296
0.000242
0.000239
0.000201
0.000055
0.000451
0.000351
0.000472
0.000188
0.000199
0.000248
0.000244
0.000258
0.000240
0.000216
0.000252
0.000282
0.000294
0.000404
0.000466
0.000528
0.000281
0.000321
0.000366
0.000336
0.000295
0.000235
0.000245
0.000262
0.001760
0.000255
0.001720
0.000942
0.000496
0.000219
0.000172
0.000056
0.000199
0.000268
0.000209
0.000240
0.000264
0.000249
0.000251
0.000255
0.000242
0.000321
0.000468
0.000329
0.000335
0.000387
0.000228
0.000271
0.000241
0.000293
0.000228
0.000237
0.000258
0.000262
0.001828
0.000230
0.000251
0.000267
0.000276
0.000263
0.001875
0.000507
0.000315
0.000055
0.000212
0.000199
0.000241
0.000241
0.000259
0.000245
0.000243
0.000253
0.000253
0.000488
0.000512
0.000439
0.000238
0.000201
0.000238
0.000245
0.000330
0.000443
0.000372
0.000259
0.001768
0.000247
0.000269
0.000237
0.000252
0.000273
0.000242
0.000248
0.000334
0.000295
0.000369
0.000057
0.000265
0.000199
0.000232
0.000262
0.000249
0.000244
0.000255
0.000260
0.000230
0.000261
0.000241
0.000288
0.000354
0.000447
0.000313
0.000258
0.000476
0.000231
0.000258
0.000254
0.000249
0.000262
0.000274
0.000256
0.000279
0.001803
0.000243
0.000228
0.000269
0.000242
0.000195
0.000056
0.000278
0.000408
0.000178
0.000216
0.000236
0.000249
0.000228
0.000256
0.000245
0.000228
0.000238
0.000255
0.000258
0.000452
0.000321
0.000417
0.000222
0.000239
0.000261
0.000247
0.000259
0.000258
0.000249
0.000280
0.000240
0.000268
0.000308
0.001643
0.000264
0.000230
0.000188
0.000057
0.000192
0.000230
0.000247
0.000272
0.000344
0.000381
0.000492
0.000198
0.000221
0.000255
0.000251
0.000242
0.000266
0.000238
0.000259
0.000254
0.000252
0.000257
0.000250
0.000263
0.000260
0.000270
0.000251
0.000235
0.000239
0.000282
0.000277
0.000262
0.000257
0.000256
0.000199
0.000056
0.000209
0.000237
0.000258
0.000255
0.000235
0.000257
0.000239
0.000264
0.000280
0.000231
0.000232
0.000248
0.000259
0.000243
0.000277
0.000264
0.000245
0.000260
0.000292
0.000251
0.000269
0.000296
0.000290
0.000230
0.000279
0.000275
0.000266
0.000251
0.000374
0.000299
0.000703
0.000056
0.000228
0.000290
0.000216
0.000216
0.000241
0.000257
0.000240
0.000248
0.000267
0.000226
0.000275
0.000283
0.000508
0.000602
0.001400
0.000228
0.000492
0.000226
0.000386
0.000452
0.000371
0.000327
0.000223
0.000282
0.000254
0.000251
0.000286
0.000252
0.000310
0.000276
0.000160
0.000057
0.000356
0.000430
0.000316
0.000323
0.000218
0.000260
0.000247
0.000242
0.000245
0.000234
0.000256
0.000261
0.000230
0.000303
0.000311
0.000652
0.000247
0.001812
0.000214
0.000258
0.000349
0.000422
0.000466
0.000271
0.000313
0.000311
0.000310
0.000230
0.000235
0.000248
0.000191
0.000056
0.000217
0.000248
0.000215
0.000297
0.000344
0.000502
0.000294
0.000258
0.000250
0.000213
0.000248
0.000266
0.000269
0.000262
0.000248
0.000264
0.000306
0.000533
0.000377
0.000352
0.000237
0.001750
0.000327
0.000486
0.000749
0.000222
0.000335
0.000219
0.000257
0.000263
0.000448
0.000056
0.000191
0.000260
0.000231
0.000408
0.000289
0.000505
0.000347
0.000221
0.000232
0.000297
0.000238
0.000262
0.000254
0.000312
0.000294
0.000236
0.000246
0.000420
0.000479
0.000289
0.000486
0.001851
0.000247
0.000447
0.000492
0.000367
0.000220
0.000256
0.000295
0.000250
0.000208
0.000055
0.000220
0.000334
0.000360
0.000334
0.000385
0.000289
0.000370
0.000221
0.000234
0.000259
0.000281
0.000232
0.000235
0.000281
0.000221
0.000259
0.000323
0.000353
0.000587
0.000312
0.000280
0.000222
0.000270
0.001718
0.000410
0.000604
0.000605
0.000236
0.000368
0.000203
0.000155
0.000055
0.000193
0.000238
0.000326
0.000256
0.000280
0.000394
0.000387
0.000307
0.000233
0.000521
0.000247
0.000242
0.000251
0.000277
0.000271
0.000269
0.000219
0.000395
0.000464
0.000398
0.000267
0.000226
0.000251
0.000259
0.000263
0.000268
0.000228
0.000261
0.000261
0.000299
0.000207
0.000056
0.000384
0.000276
0.000207
0.000247
0.000246
0.000263
0.000240
0.000304
0.000221
0.000246
0.000260
0.000368
0.000416
0.000448
0.000296
0.000272
0.000233
0.000229
0.000249
0.000264
0.000307
0.000247
0.000232
0.000262
0.000279
0.000285
0.000427
0.000390
0.000350
0.000241
0.000176
0.000056
0.000209
0.000227
0.000277
0.000240
0.000240
0.000251
0.000261
0.000259
0.000479
0.000218
0.000257
0.000273
0.000227
0.000278
0.000261
0.000276
0.000258
0.000349
0.000222
0.000239
0.000254
0.000271
0.000258
0.000274
0.000269
0.000259
0.000279
0.000243
0.000523
0.000248
0.000142
0.000056
0.000204
0.000235
0.000256
0.000262
0.000219
0.000252
0.000361
0.000411
0.000234
0.000240
0.000247
0.000257
0.000238
0.000302
0.000441
0.001748
0.000221
0.000272
0.000282
0.000396
0.000365
0.000358
0.000511
0.000227
0.000414
0.000399
0.000238
0.000266
0.000264
0.000277
0.001400
0.000056
0.000399
0.000284
0.000290
0.000214
0.000232
0.000253
0.000229
0.000254
0.000250
0.000263
0.000248
0.000259
0.000253
0.000333
0.000554
0.001581
0.000244
0.000226
0.000241
0.000267
0.000235
0.000264
0.000440
0.000343
0.000290
0.000331
0.000221
0.000264
0.000286
0.000251
0.000179
0.000057
0.001185
0.000578
0.000283
0.000265
0.000245
0.000210
0.000233
0.000240
0.000488
0.000231
0.000231
0.000245
0.000347
0.000575
0.000400
0.000299
0.000243
0.000224
0.000349
0.000342
0.000283
0.000248
0.000277
0.000238
0.000270
0.000568
0.000628
0.000204
0.000251
0.000260
0.000187
0.000056
0.000211
0.000212
0.000244
0.000267
0.001549
0.000198
0.000226
0.000255
0.000229
0.000255
0.000259
0.000248
0.000239
0.000265
0.000286
0.000266
0.000447
0.000698
0.000222
0.001749
0.000266
0.000270
0.000268
0.000425
0.000726
0.000253
0.000240
0.000248
0.000261
0.000270
0.000194
0.000057
0.000205
0.000251
0.000238
0.000300
0.001277
0.000251
0.000231
0.000261
0.000244
0.000238
0.000230
0.000250
0.000280
0.000248
0.000247
0.000303
0.000447
0.000528
0.000235
0.000245
0.000269
0.000274
0.000249
0.000234
0.000291
0.000253
0.000248
0.000274
0.000279
0.000400
0.000558
0.000056
0.000222
0.000245
0.000237
0.000264
0.000256
0.000246
0.000249
0.000246
0.000268
0.000259
0.001441
0.000222
0.000235
0.000244
0.000248
0.000239
0.000284
0.000251
0.000257
0.000273
0.000274
0.000482
0.000481
0.000370
0.000223
0.000275
0.001769
0.000253
0.000251
0.000343
0.000460
0.000057
0.000196
0.000396
0.000447
0.000501
0.000517
0.000536
0.001504
0.000415
0.000522
0.000654
0.000551
0.000788
0.000427
0.000606
0.000581
0.001880
0.000465
0.000379
0.000394
0.000321
0.000227
0.000300
0.000255
0.000267
0.000260
0.000288
0.000295
0.000284
0.000261
0.000290
0.001360
0.000058
0.000210
0.000230
0.000226
0.000252
0.000253
0.000257
0.000234
0.000238
0.000250
0.000254
0.000237
0.000244
0.000251
0.000259
0.000266
0.000271
0.001814
0.000283
0.000256
0.000238
0.000255
0.000264
0.000266
0.000323
0.000378
0.000456
0.000304
0.000223
0.000261
0.000287
0.000201
0.000056
0.000220
0.001346
0.000325
0.000266
0.000253
0.000238
0.000252
0.000229
0.000229
0.000249
0.000209
0.000249
0.000265
0.000486
0.000365
0.000285
0.000262
0.000258
0.001930
0.000246
0.000225
0.000261
0.000259
0.000265
0.000265
0.000289
0.000274
0.000247
0.000272
0.000314
0.000205
0.000056
0.000214
0.000237
0.000252
0.001452
0.000213
0.000247
0.000239
0.000252
0.000238
0.000272
0.000256
0.000234
0.000243
0.000265
0.000265
0.000248
0.000261
0.000272
0.000266
0.000254
0.000263
0.001777
0.000276
0.001760
0.000265
0.000251
0.000257
0.000264
0.000269
0.000275
0.000197
0.000056
0.000198
0.000263
0.001325
0.000231
0.000263
0.000234
0.000257
0.000254
0.000245
0.000248
0.000251
0.000249
0.000262
0.000263
0.000255
0.000263
0.000259
0.000295
0.000283
0.000236
0.001882
0.000226
0.001844
0.000247
0.000235
0.000282
0.000232
0.000245
0.000252
0.000270
0.000201
0.000055
0.001450
0.000220
0.000232
0.000242
0.000234
0.000237
0.000378
0.000270
0.000242
0.000256
0.000251
0.000261
0.000283
0.000434
0.000321
0.000265
0.000237
0.000271
0.000244
0.000254
0.000273
0.000356
0.000217
0.000246
0.000271
0.000275
0.000276
0.000376
0.000599
0.000375
0.000197
0.000058
0.000205
0.000253
0.000259
0.000305
0.000357
0.000288
0.001647
0.000331
0.000274
0.000269
0.000259
0.000280
0.000250
0.000261
0.000301
0.000310
0.000394
0.000569
0.000321
0.000269
0.000290
0.000280
0.000260
0.000276
0.000333
0.000254
0.000270
0.000260
0.000231
0.000290
0.000451
0.000057
0.000255
0.000469
0.000265
0.000265
0.000252
0.000229
0.000223
0.000247
0.000261
0.000270
0.001501
0.000230
0.000215
0.000256
0.000239
0.000296
0.000270
0.000236
0.000266
0.000270
0.000264
0.000343
0.000582
0.000305
0.000259
0.000289
0.000267
0.000259
0.000234
0.000313
0.000173
0.000056
0.000206
0.000224
0.000289
0.000483
0.000343
0.000287
0.000206
0.000250
0.000250
0.000251
0.000238
0.000251
0.000262
0.000262
0.000249
0.000228
0.000479
0.001142
0.000246
0.000237
0.000284
0.000243
0.000361
0.000418
0.000244
0.000338
0.000566
0.000439
0.000293
0.000244
0.000165
0.000057
0.000231
0.000247
0.000260
0.000262
0.000250
0.000255
0.000372
0.000419
0.000398
0.000276
0.000367
0.000392
0.000391
0.000363
0.000255
0.000232
0.000243
0.000325
0.000478
0.000316
0.001275
0.000217
0.000275
0.000271
0.000231
0.000241
0.000262
0.000365
0.000381
0.000442
0.000235
0.000057
0.000187
0.000244
0.000251
0.000247
0.000243
0.000246
0.000233
0.000260
0.000328
0.000438
0.000295
0.000411
0.000245
0.000222
0.000255
0.000254
0.000251
0.000260
0.000264
0.000257
0.000435
0.000299
0.000328
0.000449
0.000304
0.000238
0.000265
0.000274
0.000246
0.000353
0.000152
0.000055
0.000305
0.000315
0.000374
0.000348
0.000384
0.000393
0.000250
0.000237
0.000247
0.000276
0.000256
0.000263
0.000234
0.000246
0.000249
0.000224
0.000300
0.000330
0.000505
0.000343
0.000229
0.000269
0.000241
0.000248
0.000268
0.000277
0.000267
0.000265
0.000277
0.000264
0.000277
0.000056
0.000349
0.000279
0.000239
0.000243
0.000245
0.000251
0.000242
0.000249
0.000266
0.000263
0.000249
0.000239
0.000269
0.000521
0.000423
0.000297
0.000243
0.000240
0.000257
0.000270
0.000256
0.000267
0.000254
0.000262
0.000285
0.000305
0.000491
0.000538
0.000411
0.000235
0.000160
0.000056
0.000391
0.000203
0.000230
0.000246
0.000249
0.000248
0.000239
0.000254
0.000253
0.000261
0.000219
0.000246
0.000287
0.000208
0.000249
0.000263
0.000256
0.000264
0.000273
0.000253
0.000266
0.000260
0.000263
0.000266
0.000260
0.000245
0.000262
0.000275
0.000262
0.000278
0.000193
0.000055
0.000202
0.000229
0.000246
0.000254
0.000233
0.000250
0.000260
0.000244
0.000253
0.000288
0.000222
0.000232
0.000263
0.000392
0.000256
0.000280
0.000259
0.000269
0.000253
0.000275
0.000272
0.000242
0.000245
0.000253
0.000273
0.000271
0.000268
0.000230
0.000277
0.000260
0.000199
0.000056
0.000218
0.000362
0.000364
0.000282
0.000300
0.000249
0.000260
0.000257
0.000233
0.000247
0.000243
0.000261
0.000250
0.000236
0.000267
0.000248
0.000269
0.000263
0.000244
0.000267
0.000277
0.000258
0.000282
0.000255
0.000285
0.000257
0.000236
0.000273
0.000262
0.000269
0.000190
0.000056
0.000223
0.000223
0.000261
0.000264
0.000492
0.000211
0.000205
0.000252
0.000246
0.000482
0.000492
0.000290
0.000229
0.000239
0.000268
0.000268
0.000238
0.000271
0.000255
0.000266
0.000266
0.000278
0.000238
0.000317
0.000427
0.000550
0.000286
0.000303
0.000262
0.000261
0.000189
0.000056
0.000201
0.000225
0.000246
0.000253
0.000500
0.000456
0.000349
0.000362
0.000211
0.000247
0.000245
0.000258
0.000251
0.000250
0.000255
0.000270
0.000263
0.000249
0.000707
0.000329
0.000290
0.000244
0.000257
0.000279
0.000284
0.000253
0.000266
0.000277
0.000239
0.000354
0.000291
0.000057
0.000292
0.000228
0.000236
0.000239
0.000260
0.000248
0.000232
0.000243
0.000247
0.000260
0.000245
0.000269
0.000238
0.000439
0.000527
0.000418
0.000207
0.000246
0.000264
0.000243
0.000266
0.000275
0.000488
0.000235
0.000252
0.000630
0.000378
0.000488
0.000250
0.000252
0.000186
0.000055
0.000220
0.000227
0.000245
0.000239
0.000257
0.000271
0.000281
0.000505
0.000526
0.000422
0.000219
0.000261
0.000274
0.000279
0.000257
0.000240
0.000242
0.000250
0.000261
0.000414
0.000308
0.000664
0.000366
0.000246
0.000366
0.000379
0.000473
0.000251
0.000259
0.000486
0.000276
0.000056
0.000169
0.000231
0.000432
0.000234
0.000226
0.000257
0.000262
0.000259
0.000227
0.000244
0.000274
0.000433
0.000339
0.000337
0.000218
0.000248
0.000256
0.000263
0.000259
0.000273
0.000278
0.000251
0.000248
0.000276
0.000379
0.000534
0.000369
0.000241
0.000257
0.000272
0.000193
0.000055
0.000203
0.000259
0.000226
0.000247
0.000254
0.000338
0.000328
0.000340
0.000451
0.000275
0.000372
0.000225
0.000237
0.000269
0.000252
0.000243
0.000267
0.000248
0.000346
0.000363
0.000435
0.000353
0.000481
0.000279
0.000388
0.000423
0.000397
0.000232
0.000244
0.000384
0.000264
0.000056
0.000259
0.000287
0.000219
0.000254
0.000258
0.000254
0.000254
0.000245
0.000249
0.000265
0.000236
0.000378
0.000450
0.000363
0.000375
0.000212
0.000267
0.000270
0.000263
0.000233
0.000247
0.000252
0.000266
0.000275
0.000276
0.000371
0.000453
0.000485
0.000228
0.000281
0.000185
0.000055
0.000199
0.000243
0.000255
0.000245
0.000263
0.000373
0.000523
0.000416
0.000374
0.000671
0.000261
0.000226
0.000228
0.000265
0.000248
0.000267
0.000278
0.000272
0.000484
0.000458
0.001466
0.000305
0.000260
0.000260
0.000300
0.000264
0.000439
0.000394
0.000320
0.000343
0.000154
0.000056
0.000207
0.000227
0.000243
0.000247
0.000236
0.000260
0.000275
0.000249
0.000249
0.000340
0.000324
0.000390
0.000264
0.000334
0.000393
0.000344
0.000242
0.000244
0.000272
0.000254
0.000250
0.000239
0.000293
0.000242
0.000334
0.000417
0.000461
0.000283
0.000243
0.000264
0.000188
0.000056
0.000211
0.000247
0.000259
0.000257
0.000241
0.000235
0.000467
0.000213
0.000239
0.000249
0.000243
0.000256
0.000255
0.000259
0.000249
0.000262
0.000268
0.000267
0.000273
0.000255
0.000259
0.000309
0.000273
0.000242
0.000268
0.000273
0.000272
0.000266
0.000267
0.000266
0.000173
0.000056
0.000220
0.000248
0.000487
0.000242
0.000367
0.000250
0.000234
0.000242
0.000262
0.000248
0.000244
0.000262
0.000259
0.000260
0.000241
0.000245
0.000249
0.000264
0.000275
0.000338
0.000517
0.000339
0.000215
0.000268
0.000269
0.000250
0.000265
0.000252
0.000273
0.000280
0.000199
0.000055
0.000351
0.000371
0.000439
0.000206
0.000250
0.000255
0.000412
0.000224
0.000228
0.000274
0.000239
0.000298
0.000346
0.000483
0.001820
0.000246
0.000249
0.000247
0.000277
0.000239
0.000299
0.000498
0.000536
0.000362
0.000227
0.000269
0.000274
0.000422
0.000278
0.000283
0.000166
0.000055
0.000230
0.000344
0.000324
0.000335
0.000502
0.000198
0.000238
0.000250
0.000246
0.000242
0.000259
0.000247
0.000263
0.000368
0.000436
0.000408
0.000220
0.000240
0.000263
0.000253
0.000265
0.000322
0.000233
0.000272
0.000274
0.000445
0.000662
0.000345
0.000386
0.000215
0.000198
0.000056
0.000213
0.000238
0.000261
0.000221
0.000255
0.000251
0.000268
0.000269
0.000355
0.000452
0.000372
0.000328
0.000208
0.000259
0.000267
0.000293
0.000303
0.000232
0.000269
0.000272
0.000238
0.000324
0.000503
0.000365
0.000249
0.000252
0.000263
0.000429
0.000417
0.000316
0.000167
0.000056
0.000193
0.000240
0.000342
0.000422
0.000378
0.000213
0.000229
0.000254
0.000262
0.000248
0.000265
0.000254
0.000234
0.000253
0.000262
0.000316
0.000471
0.000263
0.000293
0.000354
0.000477
0.000232
0.000282
0.000273
0.000302
0.000282
0.000261
0.000267
0.000468
0.000520
0.000190
0.000054
0.000200
0.000232
0.000265
0.000229
0.000240
0.000485
0.000217
0.000253
0.000265
0.000289
0.000544
0.000583
0.000200
0.000246
0.000243
0.000255
0.000252
0.000256
0.000250
0.000252
0.000259
0.000268
0.000454
0.000329
0.000397
0.000377
0.000307
0.000291
0.000320
0.000247
0.000177
0.000055
0.000223
0.000234
0.000276
0.000473
0.000326
0.000284
0.000268
0.000228
0.000250
0.000244
0.000255
0.000244
0.000255
0.000268
0.000238
0.000264
0.000246
0.000243
0.000267
0.000412
0.000528
0.000353
0.000246
0.000231
0.000292
0.000264
0.000257
0.000260
0.000259
0.000265
0.000198
0.000056
0.000290
0.000335
0.000549
0.000189
0.000217
0.000239
0.000333
0.000448
0.000291
0.000206
0.000235
0.000280
0.000313
0.000371
0.000500
0.000249
0.000234
0.000228
0.000248
0.000268
0.000271
0.000264
0.000266
0.000267
0.000259
0.000323
0.000428
0.000423
0.000260
0.000241
0.000177
0.000055
0.000233
0.000235
0.000248
0.000254
0.000252
0.000265
0.000229
0.000257
0.000252
0.000247
0.000264
0.000239
0.000262
0.001476
0.000207
0.000254
0.000262
0.000245
0.000278
0.000272
0.000265
0.000237
0.000280
0.000255
0.000263
0.000270
0.000277
0.000264
0.000280
0.000253
0.000191
0.000055
0.000193
0.000223
0.000253
0.000251
0.000236
0.000242
0.000265
0.000259
0.000225
0.000245
0.000269
0.000242
0.000257
0.000252
0.000259
0.000261
0.000245
0.000257
0.000273
0.000257
0.000251
0.000266
0.000243
0.000254
0.001298
0.000280
0.000697
0.000302
0.000330
0.000246
0.000188
0.000055
0.000193
0.000234
0.000248
0.000251
0.000409
0.000256
0.000223
0.000241
0.000259
0.000376
0.000448
0.000322
0.000245
0.000234
0.000255
0.000257
0.000256
0.000282
0.000232
0.000254
0.000263
0.000253
0.000257
0.000504
0.000476
0.000420
0.000208
0.000272
0.001396
0.000215
0.000183
0.000056
0.000307
0.000396
0.000333
0.000279
0.000217
0.000235
0.000222
0.000248
0.000261
0.000258
0.000249
0.000261
0.000265
0.000277
0.000571
0.000366
0.000342
0.000222
0.000243
0.000258
0.000270
0.000259
0.000290
0.000251
0.000264
0.000260
0.000328
0.000552
0.000422
0.000328
0.000146
0.000055
0.000195
0.000233
0.001285
0.000401
0.000307
0.000482
0.000343
0.000488
0.000278
0.000341
0.000224
0.000217
0.000263
0.000263
0.000239
0.000264
0.000318
0.000514
0.000413
0.000363
0.000253
0.000256
0.000264
0.000493
0.000229
0.000266
0.000255
0.000284
0.000402
0.000463
0.000292
0.000057
0.000387
0.000308
0.000229
0.000218
0.001506
0.000522
0.000310
0.000250
0.000239
0.000249
0.000225
0.000245
0.000242
0.000269
0.000252
0.000263
0.000230
0.000266
0.000395
0.000412
0.000453
0.000233
0.000266
0.000247
0.000263
0.000276
0.000267
0.000239
0.000264
0.000294
0.000185
0.000056
0.000391
0.000328
0.000224
0.000224
0.000251
0.000244
0.000250
0.000243
0.000232
0.000230
0.001398
0.000518
0.000239
0.000249
0.000233
0.000249
0.000275
0.000258
0.000231
0.000282
0.000269
0.000254
0.000298
0.000371
0.000528
0.000365
0.000218
0.000269
0.000273
0.000280
0.000175
0.000055
0.000185
0.000413
0.000220
0.000241
0.000337
0.000525
0.000376
0.000233
0.000462
0.000206
0.000235
0.000248
0.000266
0.000264
0.000261
0.001488
0.000289
0.000277
0.000246
0.000268
0.000283
0.000247
0.000257
0.000249
0.000262
0.000270
0.000432
0.000468
0.000291
0.000277
0.000149
0.000056
0.000209
0.000233
0.000257
0.000234
0.000230
0.000265
0.000235
0.000255
0.000258
0.000402
0.000454
0.000264
0.000247
0.000248
0.000241
0.000271
0.000274
0.000259
0.000269
0.000233
0.000259
0.000384
0.001191
0.000254
0.000249
0.000254
0.000258
0.000260
0.000260
0.000260
0.000184
0.000056
0.000247
0.000323
0.000469
0.000258
0.000226
0.000236
0.000261
0.000265
0.000253
0.000246
0.000258
0.000269
0.000239
0.000277
0.000241
0.000261
0.000262
0.000269
0.000264
0.000252
0.000250
0.000269
0.000267
0.000286
0.000286
0.000264
0.000270
0.000247
0.000288
0.000427
0.001379
0.000057
0.000179
0.000237
0.000236
0.000242
0.000257
0.000257
0.000244
0.000240
0.000237
0.000247
0.000277
0.000252
0.000255
0.000239
0.000254
0.000241
0.001741
0.000255
0.000232
0.000262
0.000246
0.000258
0.000273
0.000260
0.000267
0.000260
0.000269
0.000276
0.000279
0.000251
0.000225
0.000056
0.000276
0.000323
0.001302
0.000222
0.000224
0.000250
0.000259
0.000249
0.000261
0.000257
0.000232
0.000370
0.000448
0.000371
0.000306
0.000203
0.000237
0.000259
0.000256
0.000264
0.000243
0.000265
0.000271
0.000288
0.000260
0.000397
0.000393
0.000421
0.000243
0.000229
0.000195
0.000056
0.000218
0.000254
0.000244
0.000249
0.000254
0.000217
0.000239
0.000267
0.000453
0.001312
0.000261
0.000200
0.000249
0.000280
0.000244
0.000270
0.000260
0.000244
0.000312
0.000469
0.000329
0.000273
0.000234
0.000249
0.000279
0.000276
0.000270
0.000292
0.000272
0.000274
0.000191
0.000056
0.000220
0.000464
0.000375
0.000215
0.000244
0.000230
0.000245
0.000272
0.000270
0.000250
0.000225
0.000248
0.000464
0.000545
0.000459
0.001426
0.000246
0.000288
0.000306
0.000349
0.000479
0.000460
0.000439
0.000386
0.000221
0.000265
0.000269
0.000271
0.000267
0.000274
0.000201
0.000057
0.000202
0.000320
0.000472
0.000456
0.000289
0.000238
0.000265
0.000222
0.000238
0.000260
0.000245
0.000267
0.000268
0.000236
0.000269
0.000312
0.000339
0.000456
0.000350
0.001329
0.000254
0.000254
0.000252
0.000269
0.000514
0.000504
0.000304
0.000215
0.000278
0.000270
0.000184
0.000057
0.000205
0.000239
0.000241
0.000249
0.000250
0.000271
0.000497
0.000413
0.000316
0.000208
0.000238
0.000257
0.000271
0.000259
0.000265
0.000260
0.000262
0.000256
0.000282
0.000270
0.000501
0.000418
0.000290
0.001361
0.000397
0.000238
0.000279
0.000419
0.000532
0.000249
0.000322
0.000055
0.000183
0.000234
0.000268
0.000228
0.000250
0.000253
0.001687
0.000245
0.000206
0.000244
0.000254
0.000247
0.000258
0.000337
0.000326
0.000280
0.000348
0.000256
0.000444
0.000469
0.000278
0.000280
0.000223
0.000244
0.001510
0.000386
0.000422
0.000420
0.000334
0.000277
0.000158
0.000056
0.000200
0.000249
0.000253
0.000260
0.000245
0.000257
0.001713
0.000250
0.000219
0.000262
0.000343
0.000407
0.001441
0.000388
0.000359
0.000234
0.000262
0.000239
0.000275
0.000262
0.001545
0.000629
0.000332
0.000285
0.000240
0.000245
0.000270
0.000277
0.000247
0.000249
0.000194
0.000057
0.000180
0.000240
0.000277
0.000242
0.000262
0.000295
0.000260
0.000260
0.000242
0.000257
0.000253
0.000247
0.000261
0.000269
0.000273
0.001482
0.000285
0.000222
0.000265
0.000278
0.000271
0.000258
0.000436
0.001271
0.000271
0.000226
0.000276
0.000254
0.000399
0.000246
0.000196
0.000057
0.000200
0.000249
0.000228
0.000245
0.000243
0.000224
0.000232
0.001701
0.000250
0.000232
0.000240
0.000371
0.000229
0.000223
0.000255
0.001391
0.000221
0.000270
0.000273
0.000244
0.000270
0.000341
0.000271
0.001331
0.000261
0.000251
0.000254
0.000265
0.001393
0.000303
0.000179
0.000057
0.000329
0.000258
0.000213
0.000233
0.000252
0.000242
0.000264
0.000265
0.000268
0.000248
0.000259
0.000267
0.000250
0.000251
0.000328
0.001482
0.000236
0.000278
0.000251
0.000255
0.000276
0.000263
0.000247
0.001542
0.000329
0.000229
0.000276
0.001267
0.000270
0.000242
0.000210
0.000056
0.000230
0.000392
0.000328
0.000206
0.000228
0.000238
0.000262
0.000259
0.000266
0.000272
0.000239
0.000247
0.000264
0.000259
0.000433
0.001229
0.000221
0.000251
0.000269
0.000277
0.000226
0.000238
0.000250
0.000336
0.001273
0.000268
0.000230
0.000262
0.001351
0.000386
0.000270
0.000075
0.000285
0.000266
0.000203
0.000221
0.000241
0.000263
0.000237
0.000245
0.000284
0.000248
0.000242
0.000246
0.000243
0.000431
0.000352
0.001446
0.000220
0.000241
0.000299
0.000515
0.000279
0.000460
0.001290
0.000286
0.000245
0.000267
0.000262
0.001304
0.000300
0.000508
0.000339
0.000056
0.000195
0.000249
0.000254
0.000257
0.000255
0.000246
0.000280
0.000249
0.000263
0.000258
0.000395
0.000431
0.001306
0.000231
0.000269
0.000265
0.000278
0.000216
0.000240
0.000288
0.000308
0.001230
0.000255
0.000248
0.000246
0.000254
0.001527
0.000443
0.000448
0.000216
0.000202
0.000057
0.000185
0.000230
0.000252
0.000230
0.000259
0.000260
0.000246
0.000367
0.000328
0.000485
0.000285
0.001470
0.000220
0.000231
0.000263
0.000256
0.000261
0.000330
0.001664
0.000243
0.000400
0.000334
0.001283
0.000364
0.000348
0.000263
0.000261
0.000255
0.000271
0.000267
0.000191
0.000057
0.000212
0.000242
0.000328
0.000249
0.000306
0.000590
0.000251
0.000304
0.001455
0.000234
0.000426
0.000214
0.000233
0.000363
0.000363
0.001295
0.000265
0.000228
0.000248
0.000255
0.001550
0.000374
0.000279
0.000290
0.000243
0.000243
0.000512
0.000310
0.000222
0.000234
0.000269
0.000055
0.000260
0.000380
0.000314
0.000270
0.000223
0.001522
0.000201
0.000263
0.000259
0.000269
0.000270
0.000299
0.000295
0.001446
0.000242
0.000232
0.000434
0.001196
0.000319
0.000496
0.000377
0.000224
0.000238
0.000253
0.000280
0.000241
0.000459
0.000230
0.000259
0.000275
0.000198
0.000056
0.000216
0.000232
0.000389
0.000342
0.001317
0.000273
0.000311
0.000230
0.000246
0.000247
0.000252
0.000263
0.001551
0.000249
0.000238
0.000244
0.001392
0.000280
0.000426
0.000381
0.000432
0.000230
0.000240
0.000255
0.000269
0.000285
0.000264
0.000255
0.000268
0.000251
0.000192
0.000056
0.000206
0.000407
0.001454
0.000213
0.000269
0.000272
0.000241
0.000251
0.000260
0.000451
0.001334
0.000206
0.000266
0.000264
0.000242
0.001295
0.000717
0.000276
0.000307
0.000407
0.000297
0.000250
0.000264
0.000256
0.000265
0.000293
0.000267
0.000297
0.000483
0.000396
0.001382
0.000057
0.000203
0.000234
0.000249
0.000221
0.000256
0.000402
0.000569
0.001221
0.000253
0.000240
0.000245
0.001396
0.000489
0.000311
0.000221
0.000402
0.000273
0.000218
0.000268
0.000294
0.000226
0.000275
0.000280
0.000264
0.000246
0.000274
0.000437
0.000515
0.001484
0.000225
0.000185
0.000056
0.000196
0.000256
0.000449
0.000531
0.001147
0.000280
0.000251
0.000257
0.000243
0.000256
0.000251
0.000265
0.000376
0.000475
0.000348
0.000229
0.000257
0.000277
0.000233
0.000280
0.000253
0.000279
0.000255
0.000262
0.000255
0.000380
0.000537
0.000317
0.000340
0.001380
0.000165
0.000057
0.000196
0.000245
0.000348
0.000400
0.000332
0.000293
0.000336
0.000316
0.000268
0.000261
0.000256
0.000262
0.000252
0.000308
0.000233
0.000307
0.000560
0.000342
0.000252
0.000394
0.000268
0.000404
0.000226
0.000255
0.000257
0.000267
0.000245
0.000292
0.000302
0.000632
0.000220
0.000056
0.000199
0.001406
0.000234
0.000341
0.000472
0.000392
0.000424
0.000237
0.000210
0.000237
0.000265
0.000244
0.000266
0.000271
0.000261
0.000260
0.000257
0.001401
0.000217
0.000258
0.000252
0.000271
0.000270
0.000283
0.000268
0.000254
0.000276
0.000249
0.000348
0.000393
0.000293
0.000056
0.000206
0.000255
0.000225
0.001486
0.000329
0.000246
0.000214
0.000245
0.000234
0.000251
0.000248
0.000269
0.000255
0.000248
0.000268
0.000253
0.000251
0.000266
0.000256
0.000263
0.001439
0.000225
0.000242
0.000280
0.000249
0.000254
0.000269
0.000260
0.000279
0.000483
0.000351
0.000056
0.000206
0.000234
0.000394
0.000286
0.000242
0.000256
0.001547
0.000331
0.000305
0.000208
0.000260
0.000313
0.000334
0.000234
0.000225
0.000249
0.000247
0.000266
0.000256
0.000258
0.000501
0.000494
0.001125
0.000279
0.000223
0.000258
0.000268
0.000253
0.000275
0.000266
0.000353
0.000057
0.000333
0.000293
0.000199
0.000249
0.000248
0.000241
0.000242
0.000230
0.000293
0.001595
0.000445
0.000229
0.000229
0.000248
0.000259
0.000245
0.000261
0.000293
0.000262
0.000313
0.000284
0.000487
0.000457
0.001373
0.000225
0.000258
0.000271
0.000261
0.000268
0.000391
0.000332
0.000056
0.000259
0.000238
0.000238
0.000244
0.000213
0.000243
0.000268
0.000250
0.000273
0.001589
0.000336
0.000254
0.000257
0.000262
0.000459
0.000273
0.000516
0.000379
0.000296
0.000312
0.000457
0.000443
0.001292
0.000268
0.000232
0.000257
0.001716
0.000443
0.000621
0.000309
0.000145
0.000056
0.000197
0.000220
0.000244
0.000229
0.000258
0.000243
0.000241
0.000520
0.000475
0.000422
0.000319
0.000211
0.000223
0.000260
0.000263
0.000282
0.000235
0.000255
0.000244
0.000279
0.000264
0.000426
0.001343
0.000217
0.000258
0.000265
0.001904
0.000390
0.000376
0.000355
0.000153
0.000057
0.000235
0.000243
0.000249
0.001579
0.000420
0.000202
0.000236
0.000277
0.000232
0.000296
0.000375
0.000371
0.000359
0.000274
0.000308
0.000499
0.000393
0.001206
0.000279
0.000223
0.000257
0.000261
0.000285
0.000421
0.000664
0.000391
0.000256
0.000258
0.000266
0.000283
0.000188
0.000055
0.000198
0.000223
0.000247
0.001577
0.000210
0.000237
0.000240
0.000253
0.000241
0.000251
0.000259
0.000269
0.000267
0.000283
0.000237
0.000397
0.000522
0.000235
0.001401
0.000234
0.000257
0.000262
0.000278
0.000268
0.000336
0.000509
0.000446
0.000268
0.000287
0.000222
0.000452
0.000057
0.000208
0.000237
0.000251
0.001579
0.000267
0.000220
0.000266
0.000240
0.000255
0.000258
0.000255
0.000259
0.000257
0.000278
0.000286
0.000627
0.001369
0.000744
0.000253
0.000350
0.000252
0.000222
0.000241
0.000280
0.001687
0.000803
0.000223
0.000260
0.000284
0.000285
0.000181
0.000057
0.000191
0.000229
0.000251
0.000255
0.000249
0.000248
0.000238
0.000255
0.000242
0.000247
0.000275
0.000282
0.000248
0.000251
0.000261
0.000250
0.000269
0.001607
0.000726
0.000323
0.000346
0.000220
0.000251
0.000274
0.000269
0.000266
0.000271
0.000250
0.001413
0.000386
0.000330
0.000057
0.000196
0.000220
0.000255
0.000245
0.000268
0.000226
0.000254
0.000253
0.000256
0.000260
0.000260
0.000464
0.000474
0.000278
0.000206
0.000242
0.000267
0.001404
0.000685
0.000495
0.000307
0.000279
0.000229
0.000246
0.000277
0.000248
0.000258
0.000266
0.001539
0.000360
0.000220
0.000057
0.000170
0.000236
0.000243
0.000247
0.000250
0.000247
0.000235
0.000252
0.000269
0.000259
0.000441
0.000298
0.000339
0.000222
0.000243
0.000245
0.000266
0.000254
0.001574
0.000630
0.000465
0.000322
0.000228
0.000254
0.000262
0.000251
0.000270
0.000284
0.000265
0.001357
0.000334
0.000056
0.000204
0.000214
0.000236
0.000256
0.000259
0.000240
0.000266
0.000301
0.000360
0.000427
0.000427
0.000378
0.000323
0.000210
0.000272
0.000226
0.000276
0.000258
0.000271
0.001889
0.000370
0.000229
0.000453
0.000236
0.000253
0.000258
0.000272
0.000252
0.000275
0.000274
0.000277
0.000056
0.000295
0.000230
0.000224
0.000238
0.000255
0.000246
0.000227
0.000239
0.000270
0.000250
0.000247
0.000235
0.000339
0.000447
0.000523
0.000346
0.000210
0.000260
0.000262
0.000243
0.000269
0.000282
0.001472
0.001052
0.000230
0.000232
0.000274
0.000264
0.000272
0.000251
0.000198
0.000055
0.000206
0.001356
0.000286
0.000210
0.000231
0.000267
0.000245
0.000232
0.000238
0.000250
0.000258
0.000263
0.000239
0.000363
0.000443
0.000451
0.000226
0.000243
0.000268
0.000287
0.000253
0.000226
0.000265
0.000257
0.001341
0.000673
0.000312
0.000383
0.000382
0.000397
0.000298
0.000056
0.000197
0.000238
0.000363
0.001320
0.000206
0.000268
0.000224
0.000255
0.000254
0.000258
0.000252
0.000242
0.000269
0.000336
0.000620
0.000266
0.000215
0.000343
0.000275
0.000212
0.000271
0.000256
0.000226
0.000275
0.000270
0.001545
0.000723
0.000308
0.000280
0.000270
0.000189
0.000056
0.000177
0.000279
0.000445
0.000332
0.001297
0.000253
0.000216
0.000238
0.000239
0.000237
0.000249
0.000257
0.000232
0.000234
0.000257
0.000256
0.000272
0.000235
0.000250
0.000262
0.000266
0.000269
0.000314
0.000350
0.000200
0.000254
0.000267
0.001464
0.000256
0.000244
0.000173
0.000056
0.000209
0.000228
0.000270
0.000253
0.000354
0.000379
0.000393
0.000277
0.001565
0.000237
0.000281
0.000546
0.000299
0.000241
0.000433
0.000237
0.000228
0.000269
0.000275
0.000265
0.000285
0.000262
0.000258
0.000273
0.000276
0.000379
0.000442
0.000293
0.001587
0.000217
0.000191
0.000058
0.000171
0.000234
0.000249
0.000243
0.000242
0.000247
0.000263
0.000326
0.000393
0.002047
0.000225
0.000235
0.000258
0.000260
0.000256
0.000259
0.000281
0.000235
0.000264
0.000435
0.000458
0.000371
0.001453
0.000241
0.000527
0.000243
0.001769
0.000231
0.000260
0.001532
0.000158
0.000055
0.000390
0.000427
0.000390
0.000270
0.000240
0.000238
0.000246
0.000269
0.000260
0.000227
0.000251
0.000362
0.000393
0.000397
0.000373
0.000251
0.000229
0.001570
0.000228
0.000591
0.001876
0.000294
0.000225
0.001576
0.001994
0.000731
0.000289
0.000243
0.000371
0.000458
0.000220
0.000059
0.000206
0.000248
0.000246
0.000248
0.001414
0.002566
0.000254
0.000198
0.000255
0.001642
0.001910
0.000198
0.000246
0.000427
0.000377
0.000371
0.000339
0.000459
0.000212
0.000240
0.000252
0.000255
0.000273
0.001663
0.001139
0.001428
0.000282
0.000297
0.000250
0.000297
0.000370
0.000055
0.000201
0.000242
0.000232
0.000262
0.000208
0.000249
0.000250
0.000247
0.000261
0.000246
0.000242
0.000354
0.000417
0.000459
0.000281
0.000244
0.000251
0.000290
0.000248
0.000265
0.000258
0.000262
0.001499
0.000491
0.002112
0.000228
0.000263
0.000329
0.000508
0.000371
0.000163
0.000056
0.000221
0.000352
0.000468
0.000310
0.000205
0.000222
0.000250
0.000241
0.000243
0.000243
0.000248
0.000265
0.000262
0.001606
0.001360
0.001228
0.000275
0.000223
0.000251
0.000271
0.000285
0.000278
0.000236
0.000260
0.002213
0.000247
0.000240
0.000302
0.000323
0.000308
0.000221
0.000055
0.000188
0.000375
0.000603
0.000258
0.000231
0.000236
0.000245
0.000268
0.001901
0.001428
0.000220
0.000334
0.000383
0.000414
0.000260
0.000210
0.000263
0.000268
0.000258
0.000281
0.000245
0.000286
0.000447
0.000232
0.000275
0.000273
0.000242
0.000280
0.000282
0.000251
0.000198
0.000056
0.000196
0.000245
0.000259
0.000232
0.000253
0.000270
0.001550
0.001413
0.001335
0.000239
0.000216
0.000243
0.000267
0.000264
0.000244
0.000254
0.000245
0.002115
0.000256
0.000228
0.000264
0.000262
0.000251
0.000273
0.000262
0.000255
0.000273
0.000253
0.000289
0.000253
0.000169
0.000056
0.000175
0.002685
0.001403
0.000205
0.000304
0.000305
0.000223
0.000266
0.000256
0.000240
0.000255
0.000247
0.000230
0.000250
0.000270
0.000253
0.000276
0.000260
0.000255
0.000272
0.000264
0.000287
0.000270
0.000265
0.000249
0.000243
0.000264
0.000275
0.000260
0.000268
0.000376
0.000057
0.001541
0.000254
0.001242
0.000236
0.000207
0.000259
0.000244
0.000255
0.000243
0.000299
0.000356
0.000478
0.000233
0.000209
0.000247
0.002167
0.000244
0.000231
0.000259
0.000528
0.000494
0.000179
0.000219
0.000248
0.000294
0.000223
0.000265
0.000277
0.000272
0.001665
0.001220
0.000057
0.000195
0.000227
0.000350
0.000370
0.000446
0.000180
0.000201
0.000234
0.000249
0.000264
0.000262
0.000246
0.000228
0.000257
0.000262
0.000242
0.000385
0.000622
0.000307
0.000240
0.000217
0.000275
0.000281
0.000264
0.000234
0.000248
0.000269
0.000274
0.000247
0.000355
0.000350
0.000056
0.001128
0.000239
0.000342
0.000477
0.000247
0.000236
0.000244
0.000218
0.000249
0.002304
0.000367
0.000390
0.000220
0.000379
0.000274
0.000259
0.000262
0.000272
0.000254
0.000221
0.000255
0.000321
0.000701
0.000309
0.001879
0.001293
0.000555
0.000534
0.000219
0.000281
0.000197
0.000056
0.000329
0.000243
0.000246
0.000252
0.000234
0.000230
0.000249
0.000256
0.000254
0.000270
0.000238
0.000226
0.000241
0.000258
0.000445
0.000454
0.001843
0.001321
0.000450
0.000443
0.000450
0.000245
0.000232
0.000270
0.002127
0.000564
0.000386
0.000219
0.000280
0.000283
0.000194
0.000056
0.000190
0.000246
0.000258
0.000240
0.000293
0.000360
0.000355
0.000291
0.000308
0.000244
0.000245
0.000252
0.000260
0.002227
0.000270
0.000370
0.000211
0.000252
0.000268
0.000263
0.000244
0.002453
0.000355
0.000212
0.000257
0.000253
0.000255
0.000272
0.000286
0.000277
0.000192
0.000056
0.000240
0.000315
0.000520
0.000383
0.000268
0.000218
0.000227
0.000252
0.000267
0.000254
0.001962
0.000375
0.000278
0.000277
0.000228
0.000271
0.000268
0.000240
0.002217
0.000445
0.000212
0.000269
0.000266
0.000261
0.000257
0.000254
0.000284
0.000252
0.000269
0.000250
0.000186
0.000056
0.000203
0.000248
0.000242
0.000223
0.000248
0.000260
0.000231
0.000248
0.000235
0.002186
0.000225
0.000283
0.000214
0.000425
0.000241
0.000238
0.000277
0.000292
0.000240
0.000284
0.001955
0.000269
0.000343
0.000366
0.000435
0.000404
0.000307
0.000256
0.000247
0.000248
0.000202
0.000056
0.000208
0.000232
0.000241
0.000244
0.000259
0.000334
0.000226
0.002285
0.000244
0.000239
0.000256
0.000252
0.000237
0.000255
0.000309
0.002122
0.000598
0.000220
0.000247
0.000242
0.000261
0.000260
0.000289
0.000268
0.000281
0.000235
0.000286
0.000252
0.000265
0.000263
0.000192
0.000056
0.001825
0.001454
0.000187
0.000228
0.000244
0.000253
0.000252
0.000257
0.000473
0.000293
0.002177
0.000261
0.000232
0.000262
0.000426
0.000409
0.000362
0.000296
0.000214
0.000250
0.000260
0.000259
0.000269
0.000226
0.000251
0.000273
0.000266
0.000260
0.000350
0.000622
0.000342
0.000056
0.000196
0.000236
0.000258
0.000243
0.000268
0.000248
0.000259
0.000238
0.001495
0.002106
0.000588
0.000282
0.000396
0.000734
0.000304
0.000259
0.000234
0.000247
0.000269
0.000255
0.000270
0.000230
0.000246
0.001833
0.000341
0.001390
0.000282
0.000290
0.000274
0.000331
0.000389
0.000055
0.001938
0.000215
0.000233
0.000220
0.000309
0.000369
0.000480
0.000256
0.000283
0.000239
0.000222
0.000249
0.000258
0.000255
0.000279
0.000244
0.000254
0.000264
0.001845
0.000247
0.000222
0.000266
0.000265
0.000278
0.000276
0.000264
0.001485
0.000307
0.000237
0.000286
0.000152
0.000056
0.000191
0.000231
0.000248
0.000246
0.000247
0.000243
0.000310
0.000382
0.000444
0.000257
0.000214
0.000242
0.000287
0.000312
0.000428
0.000316
0.000215
0.000247
0.000266
0.000396
0.000412
0.000479
0.000227
0.000261
0.000259
0.000251
0.000255
0.000271
0.000275
0.000265
0.000201
0.000056
0.001436
0.000419
0.000223
0.001942
0.000262
0.000516
0.000388
0.000281
0.000222
0.000256
0.000265
0.000240
0.000252
0.000242
0.000268
0.000266
0.000443
0.000303
0.000408
0.000487
0.000232
0.000223
0.000255
0.000266
0.000283
0.000260
0.000265
0.000263
0.000390
0.000470
0.001349
0.000055
0.000199
0.000222
0.002078
0.000331
0.000283
0.000261
0.000273
0.000231
0.000263
0.000256
0.000241
0.000228
0.000251
0.000264
0.000264
0.000368
0.000748
0.001713
0.000226
0.000249
0.000263
0.000259
0.000400
0.000409
0.001589
0.000276
0.000364
0.001929
0.000273
0.000243
0.000191
0.000056
0.000210
0.000232
0.000230
0.000241
0.000243
0.000237
0.000256
0.000281
0.000329
0.000280
0.000381
0.000357
0.000342
0.000300
0.000225
0.000276
0.000258
0.000235
0.000280
0.000243
0.000302
0.000285
0.000269
0.000262
0.000265
0.001515
0.000294
0.000387
0.002068
0.000230
0.000170
0.000057
0.000225
0.000240
0.000236
0.000248
0.000483
0.000213
0.000252
0.000323
0.000421
0.000275
0.000296
0.000212
0.000259
0.000268
0.000267
0.000334
0.000391
0.000465
0.000254
0.000393
0.000587
0.000422
0.001550
0.000226
0.000248
0.002030
0.000348
0.000207
0.000223
0.000300
0.000179
0.000056
0.000197
0.000250
0.000226
0.000242
0.000249
0.000265
0.000259
0.000271
0.000251
0.000267
0.001796
0.000349
0.000362
0.000311
0.000430
0.000367
0.000334
0.001523
0.000240
0.000298
0.002095
0.000563
0.000262
0.000241
0.000251
0.000272
0.000500
0.000234
0.000246
0.000284
0.000197
0.000055
0.000278
0.000361
0.000374
0.000291
0.000201
0.000236
0.000260
0.000249
0.000274
0.000280
0.000221
0.000255
0.000250
0.000256
0.000355
0.001511
0.000318
0.000204
0.000290
0.001904
0.000375
0.000270
0.000248
0.000271
0.000245
0.000280
0.000264
0.000267
0.000246
0.000265
0.000203
0.000056
0.000213
0.000482
0.001966
0.000251
0.000260
0.000229
0.000275
0.000261
0.000479
0.000396
0.001309
0.000376
0.002108
0.000339
0.000194
0.000234
0.000271
0.000276
0.000258
0.000253
0.000271
0.000294
0.000252
0.000325
0.000554
0.000334
0.000333
0.002210
0.000491
0.000517
0.000352
0.000055
0.000214
0.000226
0.000238
0.001974
0.000231
0.000212
0.000252
0.000240
0.000239
0.000264
0.000236
0.000270
0.000249
0.000269
0.000467
0.001465
0.000235
0.000245
0.000268
0.000262
0.000229
0.000259
0.000283
0.000244
0.000335
0.000442
0.000490
0.000219
0.001600
0.000289
0.000155
0.000056
0.000198
0.000218
0.000244
0.000236
0.000252
0.000255
0.000248
0.000253
0.000250
0.000420
0.000382
0.001364
0.000236
0.000211
0.000255
0.000260
0.000256
0.000252
0.000519
0.000400
0.000487
0.000231
0.000226
0.001573
0.000231
0.000249
0.000306
0.000266
0.000267
0.000268
0.000183
0.000056
0.000219
0.000221
0.000267
0.000269
0.000257
0.000236
0.000238
0.000237
0.000264
0.000257
0.000233
0.000259
0.000253
0.001491
0.000363
0.000207
0.000246
0.000265
0.000284
0.000312
0.000381
0.000266
0.000236
0.000267
0.000259
0.000262
0.000256
0.001411
0.000285
0.000233
0.000181
0.000056
0.000197
0.000222
0.000256
0.000265
0.000257
0.000235
0.000249
0.000259
0.000221
0.000266
0.000246
0.000255
0.000226
0.000372
0.000301
0.000378
0.000245
0.000250
0.001632
0.000241
0.000244
0.000250
0.000267
0.000334
0.000338
0.000383
0.000452
0.000257
0.000259
0.001604
0.000176
0.000055
0.000387
0.000270
0.000406
0.000280
0.000213
0.000223
0.000246
0.000270
0.000253
0.000239
0.000255
0.000228
0.001477
0.000290
0.000309
0.000200
0.000257
0.000259
0.000264
0.000266
0.000255
0.000234
0.000269
0.000263
0.000352
0.000276
0.000524
0.000276
0.000276
0.000269
0.000182
0.000055
0.000211
0.000244
0.000473
0.000451
0.000295
0.000206
0.000249
0.000253
0.000250
0.000257
0.000242
0.000222
0.000257
0.000256
0.001364
0.000193
0.000229
0.000245
0.000273
0.000270
0.000234
0.000263
0.000259
0.000255
0.000254
0.000258
0.000400
0.000604
0.000456
0.000222
0.000186
0.000056
0.000202
0.001565
0.000247
0.000405
0.000384
0.000380
0.000209
0.000264
0.000260
0.000262
0.000227
0.000262
0.000274
0.000265
0.000264
0.001532
0.000246
0.000287
0.000263
0.000248
0.000267
0.000255
0.000261
0.000264
0.000259
0.000326
0.000473
0.000273
0.000345
0.000252
0.000172
0.000056
0.000205
0.000256
0.000225
0.001752
0.000292
0.000350
0.000215
0.000246
0.000248
0.000266
0.000286
0.000254
0.000246
0.000262
0.000232
0.000306
0.000404
0.001294
0.000236
0.000232
0.001508
0.000520
0.000350
0.000403
0.000370
0.000210
0.000268
0.000456
0.000231
0.000265
0.000188
0.000056
0.000287
0.000218
0.000249
0.000239
0.000250
0.000256
0.000238
0.000257
0.000263
0.000232
0.000253
0.000259
0.000339
0.000500
0.001643
0.001607
0.000245
0.000574
0.000301
0.000208
0.000259
0.000236
0.000254
0.000262
0.000247
0.000274
0.000248
0.000273
0.001552
0.000303
0.000172
0.000057
0.000206
0.000354
0.000354
0.000331
0.000249
0.000206
0.000243
0.000517
0.000348
0.000293
0.002169
0.000321
0.000704
0.000512
0.000448
0.000266
0.000336
0.000394
0.000323
0.000281
0.000387
0.000245
0.001553
0.000536
0.000237
0.000250
0.000240
0.000252
0.000267
0.000270
0.000194
0.000055
0.000206
0.000253
0.000259
0.000247
0.000243
0.001666
0.000878
0.000997
0.000208
0.000227
0.000264
0.000257
0.000258
0.000266
0.000250
0.000249
0.000254
0.000264
0.000266
0.000279
0.001434
0.000313
0.000257
0.000220
0.000238
0.000260
0.000261
0.000282
0.000264
0.000283
0.001905
0.000056
0.000185
0.000232
0.001570
0.000832
0.000427
0.000312
0.000237
0.000231
0.000269
0.000252
0.000229
0.000254
0.000248
0.002101
0.000365
0.000214
0.000245
0.000254
0.000267
0.000257
0.000190
