0.000124
0.017323
0.004298
0.000302
0.000273
0.000280
0.000307
0.000244
0.000334
0.000278
0.000251
0.000343
0.000529
0.000452
0.000484
0.000260
0.000287
0.000347
0.000348
0.000416
0.000313
0.001955
0.000656
0.000254
0.000259
0.000303
0.000296
0.000340
0.000431
0.000373
0.000538
0.000282
0.000057
0.000200
0.000276
0.000270
0.000265
0.000348
0.000168
0.000284
0.000262
0.000269
0.000290
0.000439
0.000462
0.000288
0.000256
0.000415
0.000301
0.000366
0.000258
0.000230
0.001716
0.000305
0.000262
0.000454
0.000240
0.000279
0.000270
0.000295
0.000297
0.000274
0.000319
0.000464
0.000057
0.000230
0.000256
0.000263
0.000259
0.000254
0.000242
0.000260
0.000258
0.000286
0.001666
0.000228
0.000244
0.000265
0.000266
0.000274
0.000255
0.000266
0.000250
0.000365
0.001798
0.000241
0.000266
0.000449
0.000468
0.000361
0.000234
0.000245
0.000613
0.000387
0.000735
0.000192
0.000056
0.000215
0.000248
0.000250
0.000242
0.000301
0.000258
0.000267
0.000594
0.000385
0.000258
0.000243
0.000246
0.000243
0.000261
0.000250
0.000258
0.000246
0.000266
0.000298
0.000325
0.001679
0.000280
0.000248
0.000408
0.000303
0.000697
0.000643
0.000558
0.000343
0.000232
0.000192
0.000057
0.000218
0.000248
0.000267
0.000234
0.000258
0.000261
0.000364
0.000566
0.001266
0.000212
0.000251
0.000243
0.000257
0.000252
0.000262
0.000288
0.000488
0.000603
0.001382
0.000274
0.000462
0.000264
0.000207
0.000232
0.000258
0.000254
0.000269
0.000271
0.000257
0.000284
0.000180
0.000056
0.000201
0.000251
0.000236
0.000268
0.000235
0.000244
0.000244
0.000250
0.000237
0.000260
0.001629
0.000265
0.000233
0.000240
0.000255
0.000255
0.000239
0.000246
0.000258
0.000281
0.000243
0.001671
0.000282
0.000249
0.000437
0.000249
0.000272
0.000244
0.000284
0.000253
0.000200
0.000056
0.000204
0.000241
0.000235
0.000246
0.000241
0.000249
0.000261
0.000237
0.000265
0.000241
0.000270
0.000254
0.000276
0.000260
0.001639
0.000269
0.000299
0.000216
0.000247
0.000275
0.000266
0.000244
0.000237
0.000266
0.001795
0.000417
0.000310
0.000364
0.000243
0.000277
0.000197
0.000058
0.000199
0.000235
0.000248
0.000265
0.000256
0.000234
0.000279
0.000417
0.000403
0.000440
0.000211
0.000247
0.000251
0.000245
0.001653
0.000440
0.000332
0.000411
0.000312
0.000222
0.000274
0.000304
0.000247
0.001736
0.000637
0.000341
0.000242
0.000244
0.000254
0.000279
0.000164
0.000057
0.000210
0.000224
0.000263
0.000262
0.000339
0.000497
0.000414
0.000188
0.000208
0.000252
0.000261
0.000240
0.000258
0.001702
0.000483
0.000308
0.000210
0.000261
0.000269
0.000283
0.000247
0.000264
0.000272
0.001934
0.000263
0.000395
0.000258
0.000244
0.000258
0.000411
0.000320
0.000058
0.000243
0.000353
0.000339
0.000296
0.000254
0.000242
0.000250
0.000261
0.000241
0.000235
0.000235
0.000251
0.001559
0.000394
0.000276
0.000209
0.000268
0.000248
0.000244
0.000289
0.000275
0.000328
0.000247
0.001806
0.000266
0.000498
0.000240
0.000252
0.000254
0.000264
0.000276
0.000058
0.000407
0.000527
0.000602
0.000221
0.000226
0.000277
0.000227
0.000218
0.000261
0.000249
0.000259
0.001704
0.000249
0.000440
0.000373
0.000214
0.000238
0.000227
0.000249
0.000272
0.000242
0.001868
0.000238
0.000234
0.002079
0.000534
0.000351
0.000242
0.000254
0.000268
0.000180
0.000056
0.000202
0.000231
0.000244
0.000244
0.000261
0.001629
0.000244
0.000230
0.000253
0.000261
0.000239
0.000233
0.000255
0.000254
0.000281
0.000550
0.000488
0.000253
0.000227
0.000270
0.000267
0.000250
0.000250
0.000433
0.000430
0.000273
0.000341
0.000699
0.000319
0.000248
0.000199
0.000057
0.000222
0.000229
0.000260
0.000250
0.000230
0.000241
0.000263
0.000368
0.000489
0.001694
0.000203
0.000231
0.000239
0.000250
0.000257
0.000292
0.000408
0.000500
0.000342
0.000228
0.000266
0.000298
0.000286
0.000264
0.000261
0.000443
0.000346
0.000630
0.000488
0.000394
0.000170
0.000057
0.000191
0.000331
0.000171
0.000223
0.000239
0.000243
0.000245
0.000243
0.000241
0.000303
0.000359
0.000390
0.001406
0.000255
0.000225
0.000257
0.000251
0.000271
0.000226
0.000255
0.000264
0.000457
0.000421
0.000284
0.000250
0.000249
0.000266
0.000270
0.000261
0.000268
0.000383
0.000055
0.000211
0.000233
0.000231
0.000316
0.000621
0.000314
0.000216
0.000262
0.000240
0.000251
0.000250
0.000240
0.000292
0.000253
0.000236
0.000560
0.000364
0.001629
0.000295
0.000206
0.000263
0.000269
0.000253
0.000253
0.000244
0.000480
0.000465
0.000330
0.000419
0.000235
0.000181
0.000057
0.000237
0.000433
0.000239
0.000210
0.000261
0.000244
0.000260
0.000633
0.000297
0.000322
0.000220
0.000274
0.000270
0.000236
0.000515
0.000353
0.000210
0.000268
0.000393
0.001647
0.000273
0.000229
0.000528
0.000239
0.000277
0.000280
0.000258
0.000445
0.000443
0.000374
0.000279
0.000056
0.000208
0.000239
0.000238
0.000240
0.000421
0.000302
0.000296
0.000218
0.000443
0.000460
0.000342
0.000268
0.000229
0.000238
0.000259
0.000273
0.000251
0.000258
0.000230
0.000344
0.000292
0.000368
0.001819
0.000231
0.000260
0.000255
0.000293
0.000347
0.000413
0.000680
0.000462
0.000057
0.000229
0.000330
0.000280
0.000424
0.000393
0.000205
0.000256
0.000294
0.000573
0.000407
0.000211
0.000255
0.000222
0.000270
0.000260
0.000234
0.000253
0.000280
0.000261
0.000258
0.000267
0.000397
0.000758
0.001255
0.000337
0.000433
0.000424
0.000241
0.000379
0.000522
0.000252
0.000059
0.000219
0.000381
0.000278
0.000211
0.000221
0.000241
0.000420
0.000239
0.000223
0.000407
0.000392
0.000457
0.000234
0.000252
0.000269
0.000253
0.000362
0.000397
0.000344
0.000235
0.000239
0.000458
0.000632
0.001616
0.000225
0.000497
0.000253
0.000228
0.000237
0.000498
0.000274
0.000057
0.000191
0.000224
0.000251
0.000243
0.000248
0.000247
0.000253
0.000323
0.000465
0.000310
0.000402
0.000388
0.000273
0.000578
0.000249
0.000240
0.000267
0.000267
0.000230
0.000354
0.000219
0.000240
0.000272
0.000383
0.000522
0.001667
0.000258
0.000235
0.000256
0.000264
0.000183
0.000056
0.000313
0.000509
0.000290
0.000205
0.000270
0.000236
0.000256
0.000238
0.000264
0.000244
0.000222
0.000248
0.000400
0.000623
0.000377
0.000226
0.000245
0.000247
0.000358
0.000381
0.000381
0.000370
0.000384
0.000330
0.000253
0.000250
0.000267
0.000274
0.001790
0.000251
0.000211
0.000056
0.000208
0.000214
0.000253
0.000275
0.000369
0.000544
0.000310
0.000210
0.000259
0.000259
0.000251
0.000248
0.000521
0.000456
0.000474
0.000291
0.000265
0.000257
0.000420
0.000468
0.000360
0.000400
0.000552
0.000382
0.000238
0.000241
0.000267
0.000244
0.000268
0.001718
0.000309
0.000057
0.000290
0.000322
0.000211
0.000239
0.000272
0.000235
0.000238
0.000504
0.000371
0.000307
0.000300
0.000293
0.000305
0.000712
0.000297
0.000224
0.000254
0.000252
0.000255
0.000264
0.000265
0.000265
0.000246
0.000265
0.000313
0.000418
0.000390
0.000316
0.000240
0.000251
0.000195
0.000056
0.000460
0.000298
0.000444
0.000253
0.000208
0.000243
0.000245
0.000254
0.000239
0.000221
0.000251
0.000297
0.000274
0.000376
0.000478
0.000578
0.000251
0.000327
0.000373
0.000342
0.000287
0.000239
0.000246
0.000266
0.001752
0.000256
0.001724
0.000948
0.000480
0.000235
0.000160
0.000058
0.000204
0.000235
0.000235
0.000264
0.000244
0.000250
0.000252
0.000251
0.000242
0.000282
0.000435
0.000391
0.000350
0.000388
0.000231
0.000255
0.000247
0.000291
0.000232
0.000249
0.000246
0.000262
0.001819
0.000233
0.000267
0.000256
0.000292
0.000251
0.001890
0.000501
0.000311
0.000057
0.000202
0.000210
0.000242
0.000245
0.000255
0.000247
0.000239
0.000256
0.000254
0.000356
0.000681
0.000397
0.000237
0.000199
0.000237
0.000255
0.000333
0.000440
0.000371
0.000256
0.001764
0.000248
0.000254
0.000258
0.000274
0.000248
0.000241
0.000250
0.000339
0.000303
0.000377
0.000056
0.000265
0.000212
0.000232
0.000259
0.000250
0.000241
0.000255
0.000260
0.000238
0.000252
0.000242
0.000246
0.000389
0.000466
0.000300
0.000266
0.000472
0.000221
0.000247
0.000267
0.000273
0.000240
0.000280
0.000252
0.000277
0.001799
0.000249
0.000235
0.000265
0.000238
0.000202
0.000058
0.000266
0.000346
0.000204
0.000217
0.000238
0.000234
0.000241
0.000272
0.000230
0.000229
0.000230
0.000264
0.000261
0.000443
0.000312
0.000404
0.000249
0.000250
0.000244
0.000252
0.000265
0.000254
0.000256
0.000268
0.000250
0.000269
0.000327
0.001616
0.000269
0.000230
0.000189
0.000056
0.000204
0.000224
0.000249
0.000264
0.000355
0.000452
0.000337
0.000272
0.000220
0.000258
0.000250
0.000247
0.000244
0.000253
0.000279
0.000238
0.000253
0.000256
0.000249
0.000267
0.000262
0.000272
0.000248
0.000235
0.000239
0.000287
0.000276
0.000256
0.000256
0.000261
0.000193
0.000058
0.000201
0.000238
0.000256
0.000256
0.000236
0.000252
0.000245
0.000263
0.000277
0.000238
0.000231
0.000242
0.000255
0.000249
0.000275
0.000264
0.000249
0.000255
0.000305
0.000242
0.000271
0.000295
0.000277
0.000238
0.000282
0.000278
0.000267
0.000250
0.000299
0.000417
0.000602
0.000058
0.000225
0.000293
0.000219
0.000217
0.000243
0.000253
0.000242
0.000252
0.000259
0.000229
0.000283
0.000255
0.000528
0.000448
0.001552
0.000231
0.000485
0.000243
0.000384
0.000334
0.000467
0.000343
0.000223
0.000280
0.000251
0.000262
0.000281
0.000249
0.000309
0.000258
0.000181
0.000055
0.000330
0.000499
0.000316
0.000284
0.000212
0.000261
0.000251
0.000239
0.000238
0.000242
0.000255
0.000260
0.000226
0.000323
0.000293
0.000529
0.000373
0.001804
0.000220
0.000259
0.000339
0.000627
0.000302
0.000240
0.000321
0.000307
0.000312
0.000223
0.000235
0.000248
0.000195
0.000057
0.000214
0.000228
0.000248
0.000294
0.000396
0.000466
0.000273
0.000255
0.000252
0.000216
0.000248
0.000269
0.000266
0.000259
0.000245
0.000259
0.000286
0.000600
0.000332
0.000360
0.000229
0.001748
0.000332
0.000485
0.000603
0.000379
0.000324
0.000219
0.000254
0.000268
0.000446
0.000057
0.000204
0.000257
0.000228
0.000292
0.000480
0.000616
0.000190
0.000185
0.000248
0.000286
0.000244
0.000264
0.000252
0.000308
0.000297
0.000246
0.000218
0.000392
0.000567
0.000247
0.000495
0.001843
0.000249
0.000530
0.000412
0.000368
0.000225
0.000250
0.000298
0.000252
0.000206
0.000057
0.000214
0.000336
0.000361
0.000362
0.000395
0.000282
0.000341
0.000215
0.000234
0.000264
0.000278
0.000236
0.000234
0.000280
0.000217
0.000263
0.000324
0.000348
0.000547
0.000338
0.000315
0.000217
0.000268
0.001718
0.000402
0.000572
0.000644
0.000238
0.000260
0.000306
0.000154
0.000056
0.000187
0.000237
0.000326
0.000255
0.000239
0.000377
0.000400
0.000359
0.000228
0.000521
0.000243
0.000234
0.000263
0.000277
0.000278
0.000265
0.000210
0.000359
0.000507
0.000392
0.000269
0.000226
0.000251
0.000260
0.000267
0.000260
0.000230
0.000262
0.000264
0.000301
0.000200
0.000056
0.000375
0.000268
0.000259
0.000221
0.000253
0.000256
0.000241
0.000290
0.000238
0.000250
0.000258
0.000363
0.000416
0.000420
0.000337
0.000270
0.000216
0.000230
0.000259
0.000266
0.000298
0.000250
0.000237
0.000259
0.000284
0.000291
0.000556
0.000260
0.000353
0.000229
0.000173
0.000057
0.000207
0.000221
0.000282
0.000242
0.000241
0.000250
0.000259
0.000262
0.000479
0.000218
0.000259
0.000251
0.000253
0.000275
0.000262
0.000273
0.000267
0.000349
0.000220
0.000243
0.000248
0.000267
0.000255
0.000269
0.000277
0.000263
0.000260
0.000262
0.000514
0.000252
0.000142
0.000057
0.000213
0.000226
0.000251
0.000270
0.000218
0.000250
0.000361
0.000408
0.000239
0.000232
0.000254
0.000258
0.000236
0.000252
0.000412
0.001823
0.000230
0.000271
0.000276
0.000395
0.000367
0.000358
0.000356
0.000511
0.000261
0.000428
0.000231
0.000268
0.000266
0.000278
0.001395
0.000057
0.000395
0.000333
0.000251
0.000210
0.000229
0.000256
0.000233
0.000251
0.000243
0.000267
0.000250
0.000259
0.000251
0.000298
0.000548
0.001623
0.000243
0.000212
0.000255
0.000265
0.000243
0.000257
0.000345
0.000433
0.000313
0.000319
0.000222
0.000263
0.000275
0.000258
0.000189
0.000057
0.001188
0.000522
0.000348
0.000258
0.000243
0.000210
0.000236
0.000241
0.000487
0.000219
0.000244
0.000288
0.000357
0.000436
0.000490
0.000290
0.000243
0.000247
0.000330
0.000347
0.000276
0.000245
0.000275
0.000243
0.000269
0.000650
0.000453
0.000293
0.000259
0.000261
0.000176
0.000057
0.000218
0.000216
0.000239
0.000246
0.001564
0.000202
0.000225
0.000255
0.000230
0.000254
0.000254
0.000252
0.000244
0.000263
0.000270
0.000257
0.000524
0.000597
0.000266
0.001752
0.000270
0.000271
0.000263
0.000677
0.000372
0.000368
0.000233
0.000253
0.000258
0.000264
0.000195
0.000056
0.000220
0.000241
0.000238
0.000279
0.001297
0.000242
0.000243
0.000260
0.000242
0.000237
0.000235
0.000248
0.000283
0.000246
0.000252
0.000263
0.000518
0.000511
0.000208
0.000257
0.000262
0.000277
0.000249
0.000230
0.000295
0.000260
0.000240
0.000276
0.000278
0.000353
0.000610
0.000057
0.000230
0.000234
0.000241
0.000259
0.000264
0.000243
0.000246
0.000253
0.000267
0.000257
0.001435
0.000226
0.000240
0.000243
0.000249
0.000242
0.000268
0.000268
0.000262
0.000264
0.000271
0.000483
0.000448
0.000411
0.000212
0.000282
0.001767
0.000262
0.000246
0.000339
0.000439
0.000057
0.000195
0.000389
0.000450
0.000504
0.000516
0.000532
0.001498
0.000418
0.000525
0.000653
0.000552
0.000819
0.000384
0.000616
0.000584
0.001892
0.000357
0.000489
0.000382
0.000320
0.000231
0.000300
0.000251
0.000270
0.000254
0.000299
0.000286
0.000290
0.000254
0.000292
0.001362
0.000057
0.000208
0.000224
0.000241
0.000245
0.000251
0.000259
0.000232
0.000242
0.000258
0.000254
0.000224
0.000250
0.000255
0.000254
0.000272
0.000272
0.001806
0.000282
0.000247
0.000247
0.000273
0.000247
0.000261
0.000349
0.000315
0.000457
0.000337
0.000228
0.000257
0.000291
0.000198
0.000057
0.000192
0.001366
0.000330
0.000268
0.000254
0.000236
0.000254
0.000227
0.000236
0.000231
0.000219
0.000253
0.000258
0.000492
0.000367
0.000277
0.000264
0.000257
0.001933
0.000224
0.000243
0.000279
0.000243
0.000269
0.000266
0.000287
0.000268
0.000252
0.000268
0.000323
0.000200
0.000055
0.000215
0.000238
0.000249
0.001448
0.000212
0.000254
0.000245
0.000243
0.000235
0.000275
0.000253
0.000242
0.000242
0.000260
0.000256
0.000259
0.000263
0.000267
0.000268
0.000251
0.000259
0.001778
0.000279
0.001752
0.000271
0.000242
0.000263
0.000271
0.000270
0.000274
0.000203
0.000057
0.000202
0.000237
0.001349
0.000233
0.000261
0.000233
0.000260
0.000256
0.000242
0.000248
0.000246
0.000250
0.000263
0.000257
0.000265
0.000258
0.000266
0.000294
0.000278
0.000231
0.001886
0.000232
0.001839
0.000230
0.000258
0.000281
0.000224
0.000261
0.000251
0.000263
0.000198
0.000057
0.001457
0.000218
0.000232
0.000231
0.000240
0.000239
0.000376
0.000267
0.000249
0.000253
0.000256
0.000258
0.000244
0.000483
0.000333
0.000240
0.000235
0.000271
0.000252
0.000250
0.000271
0.000338
0.000237
0.000243
0.000276
0.000267
0.000276
0.000359
0.000632
0.000360
0.000197
0.000056
0.000202
0.000251
0.000266
0.000304
0.000360
0.000260
0.001670
0.000330
0.000278
0.000262
0.000258
0.000295
0.000245
0.000258
0.000307
0.000310
0.000380
0.000580
0.000325
0.000268
0.000291
0.000277
0.000268
0.000265
0.000321
0.000269
0.000269
0.000243
0.000245
0.000331
0.000477
0.000058
0.000252
0.000471
0.000265
0.000267
0.000248
0.000228
0.000219
0.000246
0.000262
0.000270
0.001500
0.000235
0.000216
0.000250
0.000245
0.000288
0.000278
0.000240
0.000262
0.000264
0.000268
0.000436
0.000442
0.000346
0.000270
0.000288
0.000267
0.000252
0.000232
0.000318
0.000170
0.000056
0.000208
0.000220
0.000282
0.000549
0.000280
0.000290
0.000219
0.000241
0.000249
0.000250
0.000236
0.000255
0.000256
0.000270
0.000233
0.000235
0.000481
0.001143
0.000242
0.000236
0.000286
0.000238
0.000365
0.000430
0.000232
0.000349
0.000639
0.000321
0.000327
0.000244
0.000178
0.000055
0.000198
0.000245
0.000265
0.000262
0.000255
0.000244
0.000446
0.000378
0.000361
0.000287
0.000361
0.000391
0.000394
0.000360
0.000255
0.000240
0.000235
0.000287
0.000402
0.000429
0.001277
0.000225
0.000267
0.000275
0.000229
0.000234
0.000266
0.000346
0.000381
0.000458
0.000243
0.000058
0.000192
0.000239
0.000254
0.000248
0.000234
0.000249
0.000235
0.000260
0.000316
0.000281
0.000467
0.000406
0.000244
0.000235
0.000245
0.000257
0.000248
0.000263
0.000264
0.000248
0.000443
0.000294
0.000367
0.000425
0.000282
0.000243
0.000288
0.000254
0.000251
0.000349
0.000149
0.000056
0.000307
0.000313
0.000299
0.000369
0.000510
0.000333
0.000234
0.000243
0.000249
0.000264
0.000258
0.000264
0.000234
0.000250
0.000245
0.000228
0.000264
0.000375
0.000516
0.000318
0.000244
0.000254
0.000243
0.000244
0.000272
0.000277
0.000270
0.000262
0.000281
0.000260
0.000356
0.000056
0.000332
0.000299
0.000233
0.000249
0.000244
0.000250
0.000249
0.000242
0.000285
0.000239
0.000256
0.000234
0.000271
0.000527
0.000426
0.000281
0.000239
0.000248
0.000257
0.000266
0.000253
0.000272
0.000249
0.000265
0.000276
0.000279
0.000482
0.000583
0.000389
0.000258
0.000159
0.000057
0.000395
0.000201
0.000227
0.000247
0.000249
0.000247
0.000238
0.000255
0.000256
0.000263
0.000212
0.000252
0.000275
0.000228
0.000246
0.000253
0.000250
0.000264
0.000274
0.000253
0.000267
0.000259
0.000264
0.000261
0.000267
0.000235
0.000269
0.000278
0.000257
0.000297
0.000176
0.000057
0.000198
0.000234
0.000249
0.000250
0.000239
0.000249
0.000263
0.000239
0.000256
0.000285
0.000223
0.000230
0.000266
0.000396
0.000251
0.000279
0.000262
0.000269
0.000252
0.000280
0.000269
0.000239
0.000244
0.000255
0.000273
0.000271
0.000253
0.000248
0.000289
0.000245
0.000201
0.000056
0.000215
0.000360
0.000366
0.000278
0.000302
0.000248
0.000262
0.000256
0.000228
0.000251
0.000248
0.000262
0.000246
0.000241
0.000255
0.000261
0.000262
0.000273
0.000236
0.000266
0.000275
0.000264
0.000276
0.000257
0.000269
0.000275
0.000250
0.000258
0.000269
0.000265
0.000191
0.000055
0.000216
0.000227
0.000267
0.000263
0.000487
0.000215
0.000204
0.000250
0.000274
0.000482
0.000465
0.000276
0.000251
0.000234
0.000269
0.000264
0.000235
0.000281
0.000249
0.000268
0.000269
0.000254
0.000260
0.000316
0.000472
0.000513
0.000278
0.000304
0.000256
0.000266
0.000187
0.000056
0.000207
0.000215
0.000248
0.000247
0.000468
0.000530
0.000305
0.000371
0.000207
0.000243
0.000248
0.000254
0.000251
0.000248
0.000258
0.000272
0.000256
0.000295
0.000671
0.000340
0.000276
0.000237
0.000255
0.000289
0.000281
0.000257
0.000269
0.000266
0.000247
0.000341
0.000295
0.000056
0.000294
0.000222
0.000237
0.000236
0.000261
0.000250
0.000225
0.000247
0.000248
0.000256
0.000249
0.000252
0.000252
0.000362
0.000617
0.000395
0.000210
0.000258
0.000261
0.000247
0.000266
0.000274
0.000482
0.000231
0.000256
0.000573
0.000427
0.000502
0.000253
0.000258
0.000179
0.000057
0.000214
0.000227
0.000247
0.000243
0.000255
0.000256
0.000300
0.000424
0.000600
0.000423
0.000217
0.000265
0.000272
0.000279
0.000264
0.000239
0.000241
0.000248
0.000257
0.000362
0.000374
0.000649
0.000368
0.000246
0.000369
0.000382
0.000472
0.000243
0.000265
0.000588
0.000238
0.000055
0.000166
0.000235
0.000434
0.000228
0.000228
0.000261
0.000261
0.000259
0.000227
0.000244
0.000254
0.000447
0.000345
0.000334
0.000222
0.000245
0.000254
0.000262
0.000260
0.000275
0.000283
0.000248
0.000249
0.000275
0.000467
0.000429
0.000394
0.000239
0.000253
0.000268
0.000200
0.000056
0.000197
0.000263
0.000223
0.000242
0.000245
0.000296
0.000382
0.000385
0.000406
0.000275
0.000371
0.000227
0.000239
0.000268
0.000254
0.000236
0.000276
0.000242
0.000297
0.000563
0.000348
0.000287
0.000481
0.000280
0.000385
0.000421
0.000383
0.000239
0.000254
0.000270
0.000448
0.000056
0.000261
0.000278
0.000226
0.000256
0.000256
0.000255
0.000250
0.000243
0.000253
0.000264
0.000235
0.000361
0.000445
0.000400
0.000354
0.000216
0.000262
0.000270
0.000265
0.000231
0.000252
0.000258
0.000260
0.000280
0.000272
0.000411
0.000489
0.000405
0.000232
0.000280
0.000190
0.000055
0.000197
0.000246
0.000265
0.000240
0.000260
0.000341
0.000498
0.000488
0.000363
0.000662
0.000264
0.000219
0.000239
0.000264
0.000249
0.000268
0.000274
0.000274
0.000518
0.000435
0.001459
0.000305
0.000256
0.000264
0.000296
0.000260
0.000473
0.000355
0.000341
0.000329
0.000158
0.000056
0.000209
0.000227
0.000245
0.000246
0.000238
0.000261
0.000274
0.000248
0.000248
0.000340
0.000321
0.000390
0.000273
0.000331
0.000390
0.000348
0.000236
0.000251
0.000270
0.000261
0.000238
0.000253
0.000285
0.000242
0.000324
0.000432
0.000439
0.000300
0.000243
0.000267
0.000189
0.000056
0.000204
0.000249
0.000261
0.000254
0.000239
0.000239
0.000467
0.000221
0.000234
0.000250
0.000241
0.000252
0.000258
0.000262
0.000243
0.000271
0.000258
0.000268
0.000274
0.000259
0.000257
0.000351
0.000232
0.000261
0.000247
0.000273
0.000278
0.000266
0.000263
0.000271
0.000167
0.000056
0.000214
0.000247
0.000302
0.000415
0.000387
0.000258
0.000220
0.000248
0.000259
0.000252
0.000259
0.000250
0.000257
0.000263
0.000236
0.000241
0.000247
0.000270
0.000300
0.000367
0.000419
0.000384
0.000216
0.000268
0.000269
0.000249
0.000265
0.000253
0.000271
0.000284
0.000194
0.000056
0.000347
0.000405
0.000414
0.000205
0.000255
0.000248
0.000415
0.000229
0.000223
0.000253
0.000263
0.000293
0.000408
0.000394
0.001849
0.000250
0.000246
0.000256
0.000271
0.000242
0.000352
0.000476
0.000598
0.000259
0.000235
0.000254
0.000270
0.000428
0.000282
0.000277
0.000165
0.000056
0.000229
0.000392
0.000275
0.000342
0.000492
0.000209
0.000236
0.000243
0.000251
0.000240
0.000265
0.000245
0.000267
0.000301
0.000557
0.000344
0.000217
0.000248
0.000269
0.000252
0.000265
0.000314
0.000238
0.000277
0.000276
0.000477
0.000492
0.000373
0.000489
0.000221
0.000197
0.000057
0.000223
0.000235
0.000253
0.000228
0.000255
0.000249
0.000271
0.000268
0.000352
0.000332
0.000512
0.000307
0.000233
0.000231
0.000269
0.000288
0.000300
0.000236
0.000276
0.000277
0.000232
0.000316
0.000514
0.000326
0.000280
0.000253
0.000263
0.000432
0.000416
0.000315
0.000167
0.000057
0.000191
0.000236
0.000372
0.000384
0.000381
0.000212
0.000234
0.000254
0.000257
0.000256
0.000265
0.000250
0.000232
0.000258
0.000259
0.000296
0.000451
0.000311
0.000327
0.000310
0.000493
0.000225
0.000270
0.000282
0.000299
0.000290
0.000249
0.000269
0.000576
0.000402
0.000207
0.000057
0.000195
0.000234
0.000252
0.000244
0.000242
0.000477
0.000220
0.000256
0.000260
0.000405
0.000421
0.000586
0.000208
0.000238
0.000247
0.000252
0.000254
0.000256
0.000254
0.000250
0.000258
0.000265
0.000422
0.000366
0.000462
0.000308
0.000302
0.000299
0.000323
0.000239
0.000179
0.000057
0.000219
0.000235
0.000267
0.000517
0.000288
0.000284
0.000274
0.000215
0.000246
0.000258
0.000272
0.000228
0.000256
0.000269
0.000236
0.000269
0.000244
0.000248
0.000273
0.000443
0.000479
0.000371
0.000215
0.000247
0.000297
0.000258
0.000264
0.000252
0.000270
0.000255
0.000201
0.000056
0.000248
0.000387
0.000469
0.000249
0.000205
0.000264
0.000321
0.000451
0.000285
0.000213
0.000237
0.000272
0.000256
0.000419
0.000510
0.000256
0.000232
0.000229
0.000249
0.000265
0.000271
0.000268
0.000259
0.000270
0.000259
0.000304
0.000393
0.000490
0.000245
0.000246
0.000172
0.000057
0.000238
0.000232
0.000248
0.000254
0.000253
0.000262
0.000234
0.000251
0.000255
0.000250
0.000267
0.000238
0.000264
0.001457
0.000227
0.000247
0.000263
0.000246
0.000272
0.000282
0.000261
0.000233
0.000285
0.000251
0.000267
0.000268
0.000271
0.000270
0.000282
0.000250
0.000193
0.000058
0.000183
0.000233
0.000255
0.000252
0.000233
0.000248
0.000259
0.000258
0.000227
0.000245
0.000246
0.000266
0.000275
0.000236
0.000252
0.000259
0.000250
0.000258
0.000276
0.000249
0.000260
0.000257
0.000249
0.000252
0.001290
0.000284
0.000547
0.000502
0.000295
0.000247
0.000177
0.000056
0.000193
0.000239
0.000247
0.000248
0.000414
0.000256
0.000221
0.000241
0.000256
0.000384
0.000422
0.000361
0.000227
0.000230
0.000258
0.000257
0.000257
0.000261
0.000254
0.000268
0.000247
0.000248
0.000260
0.000452
0.000491
0.000452
0.000210
0.000277
0.001385
0.000220
0.000188
0.000058
0.000378
0.000347
0.000306
0.000272
0.000220
0.000233
0.000229
0.000249
0.000259
0.000253
0.000250
0.000263
0.000269
0.000302
0.000585
0.000334
0.000332
0.000225
0.000236
0.000260
0.000271
0.000264
0.000272
0.000266
0.000282
0.000238
0.000366
0.000573
0.000360
0.000337
0.000141
0.000055
0.000198
0.000230
0.001284
0.000399
0.000287
0.000474
0.000408
0.000456
0.000279
0.000337
0.000230
0.000213
0.000264
0.000255
0.000252
0.000261
0.000304
0.000564
0.000340
0.000401
0.000248
0.000259
0.000263
0.000493
0.000231
0.000268
0.000253
0.000283
0.000304
0.000551
0.000300
0.000056
0.000382
0.000313
0.000231
0.000216
0.001632
0.000437
0.000260
0.000244
0.000249
0.000249
0.000225
0.000246
0.000243
0.000271
0.000251
0.000261
0.000230
0.000263
0.000429
0.000411
0.000422
0.000241
0.000254
0.000252
0.000266
0.000274
0.000268
0.000237
0.000271
0.000276
0.000217
0.000058
0.000370
0.000338
0.000228
0.000227
0.000251
0.000241
0.000251
0.000246
0.000229
0.000232
0.001474
0.000429
0.000253
0.000246
0.000224
0.000260
0.000279
0.000258
0.000237
0.000280
0.000264
0.000259
0.000263
0.000402
0.000603
0.000271
0.000223
0.000269
0.000278
0.000277
0.000173
0.000056
0.000193
0.000408
0.000229
0.000231
0.000446
0.000345
0.000400
0.000291
0.000457
0.000206
0.000230
0.000252
0.000265
0.000265
0.000260
0.001393
0.000373
0.000287
0.000253
0.000266
0.000281
0.000240
0.000260
0.000248
0.000262
0.000269
0.000514
0.000388
0.000287
0.000282
0.000145
0.000056
0.000223
0.000224
0.000261
0.000235
0.000227
0.000268
0.000236
0.000251
0.000377
0.000244
0.000503
0.000261
0.000240
0.000253
0.000233
0.000278
0.000275
0.000259
0.000271
0.000229
0.000255
0.000353
0.001219
0.000256
0.000254
0.000249
0.000273
0.000250
0.000259
0.000259
0.000182
0.000057
0.000248
0.000323
0.000407
0.000321
0.000246
0.000226
0.000252
0.000265
0.000251
0.000250
0.000260
0.000266
0.000238
0.000277
0.000237
0.000265
0.000262
0.000267
0.000266
0.000249
0.000254
0.000274
0.000262
0.000284
0.000286
0.000268
0.000270
0.000249
0.000268
0.000443
0.001365
0.000058
0.000188
0.000230
0.000239
0.000239
0.000258
0.000257
0.000247
0.000226
0.000241
0.000257
0.000273
0.000251
0.000254
0.000242
0.000265
0.000234
0.001735
0.000257
0.000228
0.000263
0.000246
0.000260
0.000270
0.000262
0.000273
0.000260
0.000271
0.000266
0.000281
0.000256
0.000216
0.000056
0.000305
0.000334
0.001330
0.000186
0.000219
0.000243
0.000257
0.000252
0.000260
0.000263
0.000227
0.000368
0.000412
0.000398
0.000305
0.000211
0.000254
0.000242
0.000258
0.000265
0.000243
0.000262
0.000274
0.000288
0.000255
0.000413
0.000372
0.000351
0.000313
0.000243
0.000194
0.000055
0.000219
0.000254
0.000241
0.000254
0.000250
0.000219
0.000238
0.000328
0.000408
0.001339
0.000220
0.000202
0.000243
0.000281
0.000241
0.000275
0.000258
0.000245
0.000301
0.000420
0.000426
0.000230
0.000242
0.000244
0.000284
0.000273
0.000269
0.000296
0.000267
0.000275
0.000192
0.000055
0.000245
0.000444
0.000374
0.000216
0.000227
0.000239
0.000250
0.000269
0.000265
0.000248
0.000230
0.000252
0.000456
0.000545
0.000449
0.001464
0.000225
0.000289
0.000302
0.000351
0.000483
0.000416
0.000456
0.000412
0.000216
0.000271
0.000263
0.000280
0.000273
0.000263
0.000204
0.000058
0.000197
0.000269
0.000444
0.000427
0.000395
0.000235
0.000245
0.000241
0.000259
0.000243
0.000244
0.000266
0.000269
0.000233
0.000270
0.000311
0.000369
0.000402
0.000378
0.001320
0.000263
0.000255
0.000254
0.000265
0.000473
0.000441
0.000397
0.000219
0.000277
0.000267
0.000187
0.000057
0.000207
0.000237
0.000243
0.000246
0.000252
0.000270
0.000489
0.000460
0.000277
0.000205
0.000236
0.000262
0.000274
0.000259
0.000261
0.000261
0.000260
0.000258
0.000285
0.000388
0.000374
0.000422
0.000289
0.001373
0.000388
0.000232
0.000279
0.000445
0.000448
0.000332
0.000298
0.000055
0.000184
0.000237
0.000245
0.000253
0.000265
0.000234
0.001680
0.000253
0.000202
0.000251
0.000255
0.000248
0.000259
0.000328
0.000329
0.000281
0.000318
0.000274
0.000443
0.000450
0.000312
0.000283
0.000223
0.000243
0.001511
0.000336
0.000416
0.000480
0.000323
0.000284
0.000160
0.000057
0.000207
0.000240
0.000256
0.000258
0.000246
0.000257
0.001712
0.000247
0.000227
0.000265
0.000333
0.000405
0.001464
0.000339
0.000399
0.000223
0.000272
0.000234
0.000273
0.000266
0.001547
0.000509
0.000451
0.000285
0.000235
0.000250
0.000268
0.000278
0.000244
0.000254
0.000192
0.000057
0.000189
0.000243
0.000269
0.000245
0.000258
0.000296
0.000263
0.000259
0.000244
0.000255
0.000258
0.000242
0.000264
0.000275
0.000244
0.001502
0.000281
0.000228
0.000264
0.000281
0.000268
0.000258
0.000433
0.001272
0.000274
0.000229
0.000276
0.000256
0.000391
0.000245
0.000201
0.000055
0.000203
0.000254
0.000223
0.000245
0.000240
0.000226
0.000236
0.001701
0.000250
0.000225
0.000248
0.000370
0.000229
0.000222
0.000252
0.001396
0.000222
0.000272
0.000266
0.000239
0.000271
0.000340
0.000278
0.001321
0.000268
0.000248
0.000255
0.000272
0.001383
0.000289
0.000207
0.000056
0.000350
0.000236
0.000221
0.000233
0.000252
0.000238
0.000267
0.000267
0.000268
0.000245
0.000261
0.000265
0.000254
0.000245
0.000317
0.001495
0.000235
0.000275
0.000252
0.000251
0.000283
0.000263
0.000245
0.001515
0.000353
0.000229
0.000277
0.001267
0.000267
0.000249
0.000222
0.000056
0.000228
0.000383
0.000346
0.000205
0.000235
0.000235
0.000264
0.000259
0.000268
0.000268
0.000240
0.000249
0.000264
0.000255
0.000441
0.001215
0.000237
0.000251
0.000261
0.000278
0.000228
0.000236
0.000253
0.000338
0.001264
0.000270
0.000230
0.000263
0.001347
0.000357
0.000211
0.000056
0.000294
0.000308
0.000201
0.000232
0.000239
0.000259
0.000238
0.000244
0.000283
0.000246
0.000239
0.000251
0.000246
0.000378
0.000390
0.001459
0.000225
0.000238
0.000301
0.000516
0.000280
0.000484
0.001259
0.000288
0.000247
0.000266
0.000258
0.001300
0.000314
0.000434
0.000431
0.000059
0.000187
0.000252
0.000256
0.000254
0.000253
0.000246
0.000278
0.000247
0.000268
0.000257
0.000429
0.000355
0.001362
0.000213
0.000264
0.000269
0.000275
0.000219
0.000237
0.000246
0.000352
0.001232
0.000263
0.000249
0.000239
0.000259
0.001470
0.000733
0.000203
0.000233
0.000193
0.000057
0.000184
0.000234
0.000250
0.000232
0.000259
0.000261
0.000241
0.000263
0.000604
0.000311
0.000272
0.001485
0.000216
0.000235
0.000265
0.000257
0.000265
0.000278
0.001705
0.000247
0.000397
0.000335
0.001317
0.000308
0.000316
0.000329
0.000251
0.000267
0.000263
0.000263
0.000190
0.000056
0.000212
0.000240
0.000336
0.000199
0.000375
0.000559
0.000257
0.000291
0.001473
0.000231
0.000388
0.000254
0.000229
0.000379
0.000380
0.001260
0.000302
0.000215
0.000228
0.000270
0.001506
0.000408
0.000271
0.000282
0.000258
0.000245
0.000475
0.000340
0.000224
0.000237
0.000262
0.000057
0.000282
0.000333
0.000345
0.000267
0.000217
0.001523
0.000202
0.000255
0.000267
0.000269
0.000273
0.000236
0.000361
0.001432
0.000257
0.000225
0.000429
0.001197
0.000356
0.000418
0.000404
0.000243
0.000255
0.000225
0.000286
0.000241
0.000459
0.000224
0.000265
0.000279
0.000197
0.000055
0.000224
0.000234
0.000398
0.000335
0.001310
0.000276
0.000311
0.000230
0.000242
0.000249
0.000255
0.000253
0.001559
0.000248
0.000245
0.000256
0.001367
0.000277
0.000422
0.000391
0.000438
0.000228
0.000240
0.000254
0.000271
0.000282
0.000278
0.000239
0.000269
0.000255
0.000191
0.000057
0.000294
0.000361
0.001415
0.000209
0.000271
0.000276
0.000240
0.000247
0.000266
0.000355
0.001424
0.000213
0.000257
0.000264
0.000249
0.001309
0.000653
0.000314
0.000315
0.000412
0.000297
0.000242
0.000263
0.000254
0.000273
0.000291
0.000270
0.000354
0.000401
0.000500
0.001301
0.000057
0.000203
0.000238
0.000251
0.000217
0.000254
0.000403
0.000558
0.001239
0.000247
0.000234
0.000250
0.001499
0.000329
0.000367
0.000219
0.000418
0.000232
0.000244
0.000264
0.000296
0.000228
0.000277
0.000277
0.000259
0.000251
0.000291
0.000413
0.000502
0.001503
0.000214
0.000185
0.000057
0.000190
0.000258
0.000487
0.000412
0.001227
0.000280
0.000249
0.000261
0.000245
0.000253
0.000248
0.000269
0.000466
0.000383
0.000346
0.000231
0.000256
0.000281
0.000236
0.000277
0.000252
0.000288
0.000245
0.000262
0.000265
0.000413
0.000488
0.000320
0.000316
0.001402
0.000169
0.000058
0.000193
0.000247
0.000242
0.000504
0.000324
0.000312
0.000307
0.000336
0.000268
0.000259
0.000259
0.000261
0.000271
0.000293
0.000229
0.000275
0.000607
0.000343
0.000241
0.000382
0.000274
0.000406
0.000232
0.000241
0.000259
0.000268
0.000253
0.000284
0.000315
0.000548
0.000289
0.000057
0.000205
0.001401
0.000233
0.000341
0.000406
0.000463
0.000310
0.000339
0.000218
0.000240
0.000259
0.000243
0.000266
0.000274
0.000262
0.000254
0.000261
0.001327
0.000297
0.000256
0.000252
0.000268
0.000274
0.000279
0.000266
0.000256
0.000276
0.000246
0.000337
0.000402
0.000268
0.000056
0.000207
0.000252
0.000223
0.001503
0.000315
0.000248
0.000224
0.000241
0.000231
0.000258
0.000246
0.000266
0.000255
0.000248
0.000270
0.000255
0.000246
0.000269
0.000258
0.000275
0.001425
0.000234
0.000233
0.000280
0.000241
0.000257
0.000273
0.000258
0.000280
0.000483
0.000350
0.000056
0.000201
0.000309
0.000353
0.000256
0.000242
0.000255
0.001539
0.000341
0.000307
0.000210
0.000254
0.000311
0.000337
0.000233
0.000228
0.000247
0.000243
0.000263
0.000262
0.000261
0.000482
0.000506
0.001129
0.000273
0.000223
0.000259
0.000270
0.000260
0.000274
0.000258
0.000302
0.000056
0.000445
0.000174
0.000210
0.000246
0.000249
0.000242
0.000240
0.000230
0.000286
0.001592
0.000447
0.000230
0.000230
0.000248
0.000269
0.000244
0.000259
0.000275
0.000279
0.000314
0.000309
0.000479
0.000443
0.001369
0.000222
0.000256
0.000279
0.000258
0.000292
0.000389
0.000317
0.000055
0.000268
0.000244
0.000235
0.000242
0.000219
0.000242
0.000262
0.000253
0.000275
0.001564
0.000364
0.000249
0.000267
0.000256
0.000453
0.000276
0.000526
0.000376
0.000301
0.000301
0.000465
0.000430
0.001305
0.000266
0.000225
0.000257
0.001748
0.000423
0.000610
0.000315
0.000139
0.000056
0.000187
0.000230
0.000241
0.000236
0.000257
0.000243
0.000242
0.000516
0.000486
0.000415
0.000294
0.000223
0.000235
0.000262
0.000270
0.000258
0.000251
0.000268
0.000239
0.000273
0.000291
0.000401
0.001345
0.000220
0.000250
0.000272
0.001907
0.000392
0.000377
0.000346
0.000144
0.000056
0.000237
0.000243
0.000246
0.001606
0.000400
0.000199
0.000234
0.000261
0.000249
0.000292
0.000381
0.000366
0.000430
0.000244
0.000262
0.000536
0.000379
0.001195
0.000275
0.000235
0.000251
0.000253
0.000286
0.000404
0.000686
0.000390
0.000249
0.000260
0.000271
0.000284
0.000188
0.000056
0.000198
0.000231
0.000244
0.001563
0.000231
0.000232
0.000236
0.000257
0.000239
0.000252
0.000258
0.000268
0.000264
0.000287
0.000224
0.000408
0.000517
0.000258
0.001388
0.000226
0.000266
0.000254
0.000272
0.000276
0.000410
0.000436
0.000444
0.000272
0.000288
0.000224
0.000445
0.000056
0.000208
0.000235
0.000271
0.001516
0.000317
0.000217
0.000270
0.000237
0.000256
0.000253
0.000254
0.000261
0.000256
0.000253
0.000332
0.000572
0.001401
0.000749
0.000249
0.000349
0.000258
0.000221
0.000245
0.000278
0.001683
0.000804
0.000228
0.000259
0.000281
0.000282
0.000182
0.000058
0.000186
0.000241
0.000249
0.000249
0.000254
0.000250
0.000236
0.000254
0.000246
0.000246
0.000274
0.000281
0.000253
0.000246
0.000266
0.000249
0.000269
0.001609
0.000695
0.000409
0.000288
0.000229
0.000239
0.000282
0.000258
0.000276
0.000264
0.000253
0.001404
0.000400
0.000345
0.000056
0.000221
0.000204
0.000250
0.000251
0.000263
0.000232
0.000247
0.000252
0.000257
0.000261
0.000232
0.000487
0.000424
0.000334
0.000201
0.000249
0.000265
0.001397
0.000693
0.000459
0.000343
0.000271
0.000225
0.000255
0.000273
0.000243
0.000266
0.000267
0.001501
0.000433
0.000185
0.000058
0.000198
0.000246
0.000224
0.000247
0.000248
0.000247
0.000239
0.000249
0.000270
0.000257
0.000428
0.000360
0.000289
0.000217
0.000269
0.000223
0.000273
0.000249
0.001572
0.000673
0.000504
0.000244
0.000227
0.000256
0.000264
0.000250
0.000265
0.000286
0.000275
0.001344
0.000343
0.000056
0.000209
0.000209
0.000239
0.000261
0.000252
0.000241
0.000265
0.000300
0.000362
0.000426
0.000381
0.000394
0.000352
0.000219
0.000258
0.000232
0.000287
0.000247
0.000272
0.001937
0.000317
0.000230
0.000439
0.000256
0.000254
0.000250
0.000272
0.000256
0.000270
0.000279
0.000398
0.000056
0.000296
0.000232
0.000219
0.000246
0.000254
0.000249
0.000226
0.000240
0.000264
0.000253
0.000246
0.000234
0.000272
0.000488
0.000584
0.000313
0.000210
0.000262
0.000251
0.000253
0.000268
0.000281
0.001486
0.001034
0.000222
0.000243
0.000271
0.000266
0.000274
0.000247
0.000204
0.000056
0.000209
0.001400
0.000244
0.000206
0.000232
0.000255
0.000254
0.000235
0.000238
0.000250
0.000262
0.000261
0.000238
0.000432
0.000328
0.000468
0.000256
0.000247
0.000265
0.000265
0.000272
0.000247
0.000237
0.000271
0.001347
0.000662
0.000309
0.000384
0.000380
0.000453
0.000240
0.000058
0.000194
0.000247
0.000349
0.001325
0.000208
0.000260
0.000226
0.000251
0.000255
0.000263
0.000248
0.000247
0.000294
0.000367
0.000568
0.000262
0.000225
0.000331
0.000285
0.000206
0.000247
0.000279
0.000244
0.000264
0.000264
0.001543
0.000736
0.000303
0.000271
0.000272
0.000186
0.000059
0.000185
0.000251
0.000465
0.000443
0.001185
0.000258
0.000214
0.000236
0.000239
0.000243
0.000245
0.000260
0.000230
0.000238
0.000260
0.000251
0.000272
0.000237
0.000248
0.000262
0.000266
0.000267
0.000312
0.000328
0.000215
0.000264
0.000268
0.001463
0.000257
0.000243
0.000170
0.000055
0.000205
0.000228
0.000254
0.000266
0.000357
0.000380
0.000391
0.000271
0.001563
0.000260
0.000264
0.000517
0.000327
0.000246
0.000432
0.000239
0.000227
0.000271
0.000271
0.000266
0.000284
0.000265
0.000258
0.000267
0.000246
0.000416
0.000388
0.000337
0.001583
0.000226
0.000190
0.000057
0.000169
0.000241
0.000268
0.000228
0.000236
0.000250
0.000262
0.000282
0.000437
0.002039
0.000238
0.000235
0.000255
0.000258
0.000259
0.000257
0.000278
0.000252
0.000257
0.000465
0.000418
0.000376
0.001450
0.000251
0.000525
0.000230
0.001776
0.000237
0.000258
0.001530
0.000162
0.000056
0.000362
0.000451
0.000402
0.000244
0.000264
0.000240
0.000247
0.000269
0.000262
0.000221
0.000257
0.000335
0.000410
0.000422
0.000390
0.000214
0.000223
0.001572
0.000228
0.000581
0.001890
0.000291
0.000218
0.001624
0.001942
0.000745
0.000274
0.000260
0.000298
0.000559
0.000237
0.000055
0.000219
0.000267
0.000230
0.000251
0.001418
0.002572
0.000239
0.000204
0.000255
0.001580
0.001962
0.000208
0.000246
0.000428
0.000268
0.000512
0.000263
0.000500
0.000220
0.000235
0.000254
0.000250
0.000274
0.001627
0.001172
0.001428
0.000287
0.000297
0.000246
0.000316
0.000351
0.000056
0.000206
0.000245
0.000228
0.000247
0.000225
0.000262
0.000230
0.000250
0.000260
0.000247
0.000244
0.000320
0.000396
0.000567
0.000222
0.000244
0.000256
0.000271
0.000268
0.000268
0.000250
0.000264
0.001606
0.000382
0.002111
0.000235
0.000263
0.000323
0.000442
0.000402
0.000196
0.000058
0.000244
0.000388
0.000408
0.000318
0.000195
0.000227
0.000252
0.000245
0.000237
0.000246
0.000248
0.000266
0.000260
0.001607
0.001352
0.001239
0.000270
0.000229
0.000247
0.000276
0.000284
0.000278
0.000236
0.000262
0.002207
0.000249
0.000252
0.000290
0.000323
0.000306
0.000221
0.000056
0.000196
0.000388
0.000573
0.000276
0.000234
0.000228
0.000249
0.000264
0.001896
0.001437
0.000212
0.000340
0.000379
0.000418
0.000254
0.000214
0.000266
0.000269
0.000259
0.000260
0.000266
0.000273
0.000455
0.000239
0.000270
0.000271
0.000247
0.000277
0.000279
0.000258
0.000195
0.000056
0.000204
0.000244
0.000254
0.000238
0.000264
0.000260
0.001548
0.001404
0.001343
0.000239
0.000216
0.000243
0.000266
0.000262
0.000249
0.000246
0.000254
0.002103
0.000261
0.000232
0.000259
0.000258
0.000259
0.000260
0.000269
0.000256
0.000275
0.000247
0.000291
0.000249
0.000177
0.000057
0.000176
0.002683
0.001404
0.000210
0.000303
0.000302
0.000229
0.000265
0.000257
0.000240
0.000257
0.000248
0.000229
0.000244
0.000272
0.000254
0.000274
0.000261
0.000256
0.000267
0.000269
0.000282
0.000275
0.000264
0.000245
0.000241
0.000266
0.000272
0.000266
0.000268
0.000377
0.000059
0.001542
0.000249
0.001237
0.000233
0.000218
0.000265
0.000238
0.000254
0.000241
0.000281
0.000358
0.000383
0.000372
0.000182
0.000254
0.002160
0.000243
0.000241
0.000250
0.000548
0.000398
0.000252
0.000224
0.000245
0.000276
0.000247
0.000284
0.000255
0.000272
0.001630
0.001242
0.000058
0.000201
0.000224
0.000314
0.000480
0.000301
0.000245
0.000209
0.000235
0.000250
0.000258
0.000265
0.000251
0.000230
0.000249
0.000260
0.000247
0.000375
0.000606
0.000322
0.000245
0.000221
0.000274
0.000282
0.000250
0.000247
0.000266
0.000252
0.000274
0.000243
0.000329
0.000379
0.000057
0.001133
0.000243
0.000331
0.000435
0.000300
0.000230
0.000234
0.000227
0.000249
0.002344
0.000380
0.000336
0.000217
0.000383
0.000274
0.000262
0.000257
0.000256
0.000271
0.000238
0.000239
0.000327
0.000613
0.002014
0.000255
0.001376
0.000450
0.000551
0.000216
0.000284
0.000195
0.000057
0.000329
0.000251
0.000248
0.000236
0.000249
0.000229
0.000253
0.000258
0.000250
0.000253
0.000256
0.000240
0.000224
0.000261
0.000433
0.000553
0.001784
0.001293
0.000442
0.000446
0.000458
0.000239
0.000241
0.000257
0.002132
0.000557
0.000389
0.000225
0.000281
0.000277
0.000196
0.000056
0.000203
0.000243
0.000258
0.000238
0.000250
0.000397
0.000364
0.000314
0.000295
0.000235
0.000243
0.000248
0.000263
0.002227
0.000302
0.000341
0.000212
0.000250
0.000264
0.000268
0.000242
0.002473
0.000328
0.000223
0.000252
0.000252
0.000257
0.000270
0.000287
0.000278
0.000188
0.000056
0.000304
0.000201
0.000572
0.000388
0.000266
0.000211
0.000232
0.000252
0.000266
0.000254
0.001953
0.000409
0.000257
0.000277
0.000227
0.000269
0.000272
0.000239
0.002218
0.000439
0.000219
0.000269
0.000266
0.000264
0.000256
0.000254
0.000285
0.000248
0.000260
0.000256
0.000187
0.000057
0.000205
0.000241
0.000250
0.000221
0.000247
0.000258
0.000234
0.000250
0.000230
0.002187
0.000225
0.000283
0.000210
0.000430
0.000235
0.000248
0.000275
0.000286
0.000246
0.000262
0.001968
0.000273
0.000344
0.000366
0.000435
0.000401
0.000311
0.000256
0.000255
0.000242
0.000203
0.000058
0.000198
0.000234
0.000242
0.000246
0.000257
0.000329
0.000229
0.002288
0.000238
0.000241
0.000261
0.000253
0.000237
0.000255
0.000304
0.002131
0.000587
0.000224
0.000248
0.000241
0.000262
0.000261
0.000284
0.000270
0.000261
0.000260
0.000301
0.000233
0.000266
0.000266
0.000191
0.000056
0.001828
0.001443
0.000195
0.000225
0.000246
0.000254
0.000248
0.000262
0.000459
0.000332
0.002149
0.000262
0.000230
0.000264
0.000314
0.000558
0.000321
0.000296
0.000220
0.000251
0.000256
0.000264
0.000262
0.000229
0.000252
0.000270
0.000273
0.000255
0.000679
0.000297
0.000332
0.000056
0.000195
0.000237
0.000261
0.000239
0.000267
0.000249
0.000256
0.000245
0.001490
0.002110
0.000583
0.000280
0.000395
0.000814
0.000235
0.000230
0.000253
0.000266
0.000251
0.000263
0.000261
0.000233
0.000249
0.001829
0.000344
0.001385
0.000283
0.000276
0.000290
0.000300
0.000381
0.000057
0.001940
0.000221
0.000228
0.000223
0.000298
0.000371
0.000431
0.000312
0.000288
0.000216
0.000242
0.000242
0.000264
0.000253
0.000268
0.000251
0.000258
0.000260
0.001851
0.000243
0.000225
0.000270
0.000261
0.000279
0.000272
0.000268
0.001461
0.000321
0.000249
0.000263
0.000165
0.000074
0.000184
0.000227
0.000255
0.000229
0.000250
0.000241
0.000320
0.000388
0.000320
0.000365
0.000219
0.000237
0.000266
0.000332
0.000429
0.000313
0.000218
0.000249
0.000261
0.000341
0.000453
0.000480
0.000257
0.000253
0.000253
0.000259
0.000250
0.000272
0.000272
0.000266
0.000204
0.000056
0.001431
0.000426
0.000224
0.001939
0.000324
0.000383
0.000469
0.000280
0.000222
0.000251
0.000266
0.000240
0.000246
0.000250
0.000263
0.000260
0.000451
0.000264
0.000395
0.000426
0.000341
0.000221
0.000259
0.000269
0.000269
0.000270
0.000265
0.000263
0.000389
0.000459
0.001344
0.000056
0.000205
0.000220
0.002078
0.000363
0.000250
0.000258
0.000273
0.000239
0.000261
0.000261
0.000231
0.000231
0.000273
0.000247
0.000257
0.000394
0.000708
0.001726
0.000231
0.000247
0.000261
0.000261
0.000388
0.000418
0.001584
0.000284
0.000366
0.001929
0.000271
0.000243
0.000191
0.000057
0.000210
0.000234
0.000229
0.000241
0.000231
0.000249
0.000265
0.000272
0.000328
0.000282
0.000380
0.000360
0.000337
0.000300
0.000228
0.000276
0.000262
0.000235
0.000273
0.000248
0.000299
0.000290
0.000267
0.000261
0.000267
0.001507
0.000289
0.000394
0.002074
0.000225
0.000173
0.000056
0.000220
0.000243
0.000239
0.000249
0.000482
0.000217
0.000245
0.000358
0.000326
0.000345
0.000298
0.000202
0.000259
0.000267
0.000270
0.000333
0.000391
0.000465
0.000253
0.000391
0.000542
0.000360
0.001652
0.000232
0.000250
0.002026
0.000294
0.000241
0.000245
0.000295
0.000185
0.000056
0.000203
0.000247
0.000224
0.000246
0.000251
0.000265
0.000255
0.000269
0.000253
0.000269
0.001794
0.000338
0.000377
0.000313
0.000425
0.000375
0.000384
0.001463
0.000239
0.000279
0.002103
0.000592
0.000255
0.000236
0.000252
0.000265
0.000500
0.000230
0.000261
0.000273
0.000195
0.000057
0.000367
0.000256
0.000440
0.000235
0.000221
0.000224
0.000263
0.000249
0.000289
0.000279
0.000242
0.000231
0.000258
0.000255
0.000446
0.001410
0.000321
0.000212
0.000432
0.001766
0.000373
0.000272
0.000251
0.000262
0.000250
0.000273
0.000266
0.000265
0.000248
0.000266
0.000201
0.000058
0.000287
0.000446
0.001901
0.000256
0.000258
0.000234
0.000271
0.000260
0.000589
0.000283
0.001305
0.000383
0.002072
0.000376
0.000200
0.000231
0.000276
0.000275
0.000257
0.000249
0.000270
0.000292
0.000263
0.000334
0.000481
0.000436
0.000272
0.002228
0.000491
0.000529
0.000348
0.000057
0.000232
0.000221
0.000236
0.001969
0.000251
0.000207
0.000236
0.000245
0.000241
0.000255
0.000249
0.000261
0.000250
0.000464
0.000307
0.001424
0.000236
0.000249
0.000271
0.000258
0.000236
0.000253
0.000276
0.000258
0.000316
0.000454
0.000490
0.000220
0.001655
0.000239
0.000154
0.000057
0.000204
0.000212
0.000246
0.000232
0.000252
0.000254
0.000249
0.000249
0.000262
0.000349
0.000434
0.001371
0.000238
0.000210
0.000253
0.000262
0.000251
0.000252
0.000498
0.000301
0.000578
0.000256
0.001578
0.000266
0.000198
0.000249
0.000299
0.000272
0.000269
0.000265
0.000186
0.000057
0.000218
0.000220
0.000268
0.000269
0.000248
0.000246
0.000230
0.000241
0.000268
0.000236
0.000255
0.000272
0.000235
0.001490
0.000359
0.000207
0.000253
0.000267
0.000283
0.000308
0.000378
0.000272
0.000226
0.000264
0.000267
0.000266
0.000259
0.001415
0.000268
0.000234
0.000169
0.000058
0.000215
0.000212
0.000265
0.000262
0.000254
0.000231
0.000248
0.000261
0.000223
0.000261
0.000249
0.000254
0.000230
0.000338
0.000360
0.000366
0.000243
0.000229
0.001637
0.000247
0.000229
0.000260
0.000261
0.000314
0.000361
0.000383
0.000448
0.000255
0.000261
0.001603
0.000176
0.000057
0.000312
0.000373
0.000444
0.000205
0.000236
0.000209
0.000247
0.000268
0.000256
0.000240
0.000256
0.000222
0.001490
0.000283
0.000301
0.000215
0.000245
0.000259
0.000265
0.000267
0.000253
0.000236
0.000266
0.000267
0.000345
0.000296
0.000470
0.000367
0.000235
0.000253
0.000188
0.000056
0.000226
0.000223
0.000398
0.000418
0.000425
0.000208
0.000241
0.000252
0.000250
0.000255
0.000245
0.000220
0.000260
0.000254
0.001252
0.000306
0.000227
0.000247
0.000270
0.000265
0.000236
0.000268
0.000249
0.000262
0.000254
0.000259
0.000325
0.000717
0.000422
0.000218
0.000180
0.000056
0.000195
0.001567
0.000267
0.000301
0.000468
0.000384
0.000209
0.000256
0.000264
0.000262
0.000226
0.000268
0.000268
0.000267
0.000261
0.001552
0.000233
0.000282
0.000261
0.000253
0.000263
0.000253
0.000260
0.000267
0.000260
0.000306
0.000438
0.000318
0.000354
0.000265
0.000163
0.000057
0.000205
0.000252
0.000231
0.001746
0.000294
0.000350
0.000219
0.000244
0.000252
0.000267
0.000280
0.000266
0.000231
0.000267
0.000230
0.000272
0.000442
0.001283
0.000240
0.000239
0.001506
0.000445
0.000432
0.000394
0.000353
0.000229
0.000282
0.000442
0.000237
0.000258
0.000191
0.000056
0.000287
0.000219
0.000248
0.000245
0.000256
0.000246
0.000237
0.000257
0.000260
0.000234
0.000254
0.000260
0.000354
0.000478
0.001651
0.001539
0.000306
0.000600
0.000277
0.000217
0.000237
0.000257
0.000264
0.000249
0.000248
0.000272
0.000253
0.000273
0.001529
0.000328
0.000164
0.000055
0.000216
0.000352
0.000352
0.000333
0.000245
0.000209
0.000241
0.000580
0.000241
0.000358
0.002141
0.000328
0.000852
0.000379
0.000431
0.000265
0.000336
0.000413
0.000309
0.000282
0.000387
0.000242
0.001551
0.000537
0.000214
0.000276
0.000256
0.000234
0.000269
0.000264
0.000201
0.000056
0.000202
0.000251
0.000262
0.000244
0.000245
0.001663
0.000874
0.001003
0.000206
0.000233
0.000258
0.000258
0.000258
0.000260
0.000253
0.000249
0.000252
0.000267
0.000268
0.000272
0.001431
0.000324
0.000251
0.000217
0.000241
0.000259
0.000261
0.000282
0.000261
0.000291
0.001893
0.000057
0.000193
0.000229
0.001570
0.000833
0.000484
0.000248
0.000238
0.000233
0.000255
0.000262
0.000253
0.000237
0.000243
0.002078
0.000391
0.000209
0.000248
0.000253
0.000267
0.000257
0.000190
