0.000102
0.009092
0.012630
0.000218
0.000259
0.000289
0.000327
0.000228
0.000330
0.000279
0.000266
0.000314
0.000493
0.000536
0.000396
0.000324
0.000268
0.000334
0.000360
0.000412
0.001992
0.000252
0.000695
0.000275
0.000240
0.000318
0.000307
0.000303
0.000421
0.000376
0.000515
0.000339
0.000058
0.000203
0.000267
0.000272
0.000286
0.000276
0.000224
0.000278
0.000287
0.000268
0.000269
0.000424
0.000443
0.000306
0.000248
0.000377
0.000349
0.000360
0.000255
0.000262
0.001693
0.000318
0.000256
0.000446
0.000245
0.000278
0.000287
0.000283
0.000295
0.000283
0.000352
0.000415
0.000057
0.000228
0.000259
0.000260
0.000263
0.000251
0.000249
0.000265
0.000251
0.000289
0.001666
0.000226
0.000232
0.000274
0.000270
0.000280
0.000251
0.000263
0.000253
0.000356
0.001792
0.000240
0.000280
0.000440
0.000427
0.000391
0.000241
0.000266
0.000651
0.000298
0.000799
0.000181
0.000056
0.000231
0.000247
0.000254
0.000241
0.000293
0.000250
0.000318
0.000547
0.000396
0.000247
0.000246
0.000247
0.000246
0.000259
0.000252
0.000256
0.000255
0.000257
0.000299
0.000379
0.001615
0.000280
0.000247
0.000419
0.000650
0.000369
0.000788
0.000374
0.000356
0.000240
0.000186
0.000056
0.000238
0.000251
0.000292
0.000214
0.000282
0.000231
0.000273
0.000446
0.001475
0.000217
0.000252
0.000242
0.000255
0.000258
0.000261
0.000282
0.000325
0.000806
0.001338
0.000305
0.000233
0.000412
0.000240
0.000255
0.000256
0.000261
0.000266
0.000286
0.000242
0.000269
0.000197
0.000057
0.000207
0.000246
0.000245
0.000259
0.000239
0.000240
0.000241
0.000255
0.000239
0.000256
0.001625
0.000256
0.000240
0.000251
0.000252
0.000242
0.000251
0.000260
0.000245
0.000254
0.000290
0.001638
0.000289
0.000253
0.000430
0.000258
0.000260
0.000258
0.000265
0.000269
0.000200
0.000057
0.000206
0.000232
0.000250
0.000244
0.000246
0.000243
0.000263
0.000236
0.000263
0.000259
0.000267
0.000237
0.000260
0.000273
0.001640
0.000275
0.000287
0.000219
0.000254
0.000277
0.000278
0.000228
0.000248
0.000266
0.001770
0.000408
0.000336
0.000372
0.000237
0.000281
0.000196
0.000055
0.000231
0.000240
0.000248
0.000265
0.000258
0.000263
0.000254
0.000412
0.000392
0.000452
0.000208
0.000245
0.000254
0.000250
0.001575
0.000509
0.000380
0.000371
0.000302
0.000234
0.000265
0.000287
0.000269
0.001722
0.000504
0.000479
0.000248
0.000258
0.000236
0.000266
0.000183
0.000056
0.000198
0.000237
0.000252
0.000281
0.000326
0.000448
0.000427
0.000218
0.000218
0.000249
0.000263
0.000237
0.000252
0.001695
0.000506
0.000296
0.000221
0.000256
0.000267
0.000292
0.000244
0.000256
0.001868
0.000315
0.000282
0.000389
0.000248
0.000257
0.000267
0.000390
0.000327
0.000056
0.000227
0.000362
0.000387
0.000249
0.000266
0.000245
0.000249
0.000258
0.000269
0.000206
0.000241
0.000245
0.001547
0.000398
0.000271
0.000232
0.000255
0.000247
0.000249
0.000307
0.000254
0.000327
0.000239
0.001819
0.000254
0.000485
0.000248
0.000256
0.000257
0.000272
0.000259
0.000091
0.000300
0.000608
0.000613
0.000208
0.000230
0.000273
0.000228
0.000220
0.000262
0.000250
0.000257
0.001695
0.000250
0.000447
0.000366
0.000217
0.000242
0.000232
0.000252
0.000258
0.000276
0.001836
0.000228
0.000465
0.001869
0.000513
0.000362
0.000251
0.000252
0.000267
0.000186
0.000056
0.000212
0.000243
0.000248
0.000241
0.000258
0.001617
0.000252
0.000234
0.000252
0.000253
0.000246
0.000250
0.000253
0.000249
0.000296
0.000383
0.000636
0.000250
0.000238
0.000268
0.000283
0.000232
0.000248
0.000431
0.000440
0.000259
0.000317
0.000731
0.000286
0.000266
0.000215
0.000056
0.000221
0.000239
0.000248
0.000252
0.000243
0.000240
0.000254
0.000400
0.001812
0.000318
0.000222
0.000239
0.000246
0.000244
0.000258
0.000292
0.000400
0.000545
0.000299
0.000238
0.000260
0.000295
0.000287
0.000250
0.000275
0.000432
0.000337
0.000607
0.000499
0.000431
0.000163
0.000057
0.000212
0.000255
0.000246
0.000236
0.000236
0.000235
0.000247
0.000260
0.000228
0.000282
0.000339
0.000439
0.001401
0.000243
0.000238
0.000250
0.000251
0.000255
0.000251
0.000245
0.000278
0.000615
0.000260
0.000256
0.000267
0.000258
0.000253
0.000275
0.000261
0.000261
0.000381
0.000057
0.000221
0.000234
0.000229
0.000277
0.000689
0.000267
0.000236
0.000260
0.000231
0.000257
0.000262
0.000227
0.000296
0.000247
0.000253
0.000495
0.000385
0.001656
0.000281
0.000226
0.000260
0.000263
0.000255
0.000241
0.000267
0.000466
0.000471
0.000311
0.000426
0.000240
0.000193
0.000056
0.000214
0.000435
0.000232
0.000221
0.000284
0.000224
0.000318
0.000560
0.000304
0.000332
0.000224
0.000275
0.000262
0.000236
0.000519
0.000341
0.000224
0.000280
0.000367
0.001651
0.000269
0.000292
0.000464
0.000251
0.000281
0.000275
0.000256
0.000324
0.000567
0.000381
0.000275
0.000057
0.000223
0.000224
0.000236
0.000244
0.000417
0.000307
0.000292
0.000222
0.000439
0.000479
0.000322
0.000264
0.000240
0.000241
0.000257
0.000266
0.000253
0.000254
0.000229
0.000350
0.000293
0.000288
0.001885
0.000242
0.000258
0.000261
0.000266
0.000350
0.000412
0.000698
0.000481
0.000057
0.000225
0.000330
0.000301
0.000417
0.000384
0.000211
0.000269
0.000273
0.000526
0.000472
0.000193
0.000247
0.000231
0.000275
0.000260
0.000231
0.000263
0.000265
0.000266
0.000257
0.000264
0.000379
0.000839
0.001193
0.000319
0.000435
0.000420
0.000244
0.000370
0.000474
0.000383
0.000059
0.000231
0.000381
0.000279
0.000207
0.000236
0.000244
0.000411
0.000237
0.000243
0.000368
0.000425
0.000381
0.000301
0.000260
0.000265
0.000244
0.000347
0.000392
0.000349
0.000255
0.000245
0.000321
0.000792
0.001579
0.000225
0.000435
0.000315
0.000227
0.000264
0.000452
0.000339
0.000057
0.000230
0.000234
0.000243
0.000259
0.000248
0.000234
0.000250
0.000330
0.000449
0.000250
0.000565
0.000290
0.000278
0.000586
0.000243
0.000239
0.000282
0.000252
0.000233
0.000340
0.000229
0.000250
0.000268
0.000500
0.000415
0.001643
0.000275
0.000228
0.000252
0.000275
0.000185
0.000057
0.000348
0.000475
0.000317
0.000224
0.000238
0.000250
0.000258
0.000241
0.000267
0.000241
0.000223
0.000263
0.000413
0.000589
0.000364
0.000238
0.000266
0.000236
0.000333
0.000373
0.000382
0.000340
0.000358
0.000395
0.000256
0.000261
0.000264
0.000274
0.001787
0.000242
0.000206
0.000056
0.000207
0.000218
0.000258
0.000299
0.000321
0.000542
0.000323
0.000220
0.000284
0.000241
0.000243
0.000251
0.000529
0.000441
0.000479
0.000277
0.000261
0.000261
0.000427
0.000462
0.000352
0.000421
0.000595
0.000330
0.000235
0.000260
0.000261
0.000263
0.000247
0.001721
0.000358
0.000058
0.000262
0.000326
0.000209
0.000234
0.000257
0.000251
0.000235
0.000497
0.000372
0.000311
0.000288
0.000318
0.000297
0.000776
0.000223
0.000233
0.000258
0.000255
0.000251
0.000266
0.000277
0.000259
0.000244
0.000267
0.000271
0.000396
0.000411
0.000349
0.000242
0.000252
0.000193
0.000058
0.000452
0.000275
0.000536
0.000190
0.000205
0.000252
0.000262
0.000236
0.000246
0.000231
0.000237
0.000283
0.000291
0.000373
0.000526
0.000533
0.000256
0.000291
0.000382
0.000344
0.000294
0.000253
0.000246
0.000266
0.001737
0.000254
0.001725
0.000959
0.000448
0.000260
0.000164
0.000056
0.000211
0.000241
0.000228
0.000249
0.000266
0.000240
0.000255
0.000253
0.000240
0.000267
0.000529
0.000304
0.000344
0.000380
0.000247
0.000260
0.000248
0.000290
0.000233
0.000266
0.000244
0.000251
0.001816
0.000237
0.000265
0.000257
0.000274
0.000263
0.001887
0.000548
0.000270
0.000057
0.000224
0.000217
0.000236
0.000241
0.000257
0.000252
0.000237
0.000250
0.000258
0.000350
0.000606
0.000286
0.000383
0.000231
0.000247
0.000252
0.000324
0.000425
0.000373
0.000252
0.001792
0.000256
0.000244
0.000250
0.000265
0.000273
0.000237
0.000256
0.000323
0.000312
0.000425
0.000056
0.000200
0.000213
0.000237
0.000270
0.000237
0.000243
0.000266
0.000247
0.000241
0.000273
0.000224
0.000274
0.000371
0.000439
0.000299
0.000283
0.000449
0.000252
0.000240
0.000264
0.000257
0.000261
0.000272
0.000257
0.000280
0.001776
0.000261
0.000242
0.000265
0.000237
0.000206
0.000058
0.000241
0.000403
0.000206
0.000232
0.000236
0.000255
0.000223
0.000254
0.000250
0.000222
0.000247
0.000251
0.000259
0.000370
0.000383
0.000390
0.000268
0.000244
0.000242
0.000256
0.000265
0.000257
0.000252
0.000268
0.000266
0.000249
0.000341
0.001590
0.000266
0.000248
0.000190
0.000057
0.000208
0.000237
0.000254
0.000253
0.000351
0.000559
0.000282
0.000228
0.000227
0.000252
0.000269
0.000229
0.000271
0.000231
0.000260
0.000260
0.000245
0.000254
0.000253
0.000264
0.000267
0.000269
0.000249
0.000235
0.000242
0.000277
0.000275
0.000266
0.000253
0.000260
0.000195
0.000055
0.000196
0.000232
0.000260
0.000274
0.000232
0.000236
0.000243
0.000258
0.000275
0.000250
0.000228
0.000248
0.000256
0.000249
0.000292
0.000237
0.000276
0.000231
0.000296
0.000251
0.000274
0.000321
0.000268
0.000228
0.000300
0.000248
0.000273
0.000252
0.000291
0.000348
0.000709
0.000058
0.000233
0.000274
0.000221
0.000236
0.000239
0.000255
0.000240
0.000245
0.000257
0.000237
0.000268
0.000329
0.000455
0.000516
0.001497
0.000218
0.000516
0.000227
0.000401
0.000301
0.000474
0.000349
0.000228
0.000285
0.000245
0.000256
0.000282
0.000252
0.000316
0.000284
0.000159
0.000058
0.000346
0.000444
0.000293
0.000331
0.000210
0.000279
0.000228
0.000239
0.000232
0.000249
0.000254
0.000253
0.000236
0.000374
0.000233
0.000546
0.000360
0.001788
0.000242
0.000250
0.000324
0.000430
0.000540
0.000211
0.000315
0.000324
0.000302
0.000233
0.000229
0.000256
0.000195
0.000057
0.000196
0.000230
0.000241
0.000283
0.000385
0.000473
0.000294
0.000256
0.000254
0.000212
0.000251
0.000271
0.000260
0.000265
0.000246
0.000281
0.000286
0.000489
0.000514
0.000253
0.000237
0.001740
0.000327
0.000491
0.000680
0.000308
0.000323
0.000230
0.000248
0.000271
0.000457
0.000057
0.000225
0.000272
0.000217
0.000378
0.000356
0.000593
0.000245
0.000193
0.000269
0.000284
0.000219
0.000263
0.000253
0.000289
0.000313
0.000235
0.000245
0.000360
0.000603
0.000236
0.000483
0.001835
0.000267
0.000565
0.000372
0.000354
0.000224
0.000263
0.000300
0.000262
0.000189
0.000057
0.000203
0.000338
0.000361
0.000343
0.000380
0.000336
0.000344
0.000198
0.000248
0.000257
0.000266
0.000233
0.000256
0.000244
0.000260
0.000257
0.000321
0.000364
0.000552
0.000337
0.000302
0.000226
0.000252
0.001712
0.000398
0.000592
0.000628
0.000240
0.000263
0.000307
0.000166
0.000056
0.000195
0.000236
0.000351
0.000230
0.000265
0.000418
0.000386
0.000292
0.000243
0.000539
0.000212
0.000255
0.000258
0.000277
0.000271
0.000268
0.000214
0.000443
0.000439
0.000377
0.000263
0.000231
0.000270
0.000237
0.000261
0.000268
0.000235
0.000254
0.000272
0.000283
0.000226
0.000058
0.000380
0.000251
0.000214
0.000259
0.000249
0.000258
0.000238
0.000298
0.000234
0.000248
0.000278
0.000333
0.000439
0.000409
0.000309
0.000275
0.000231
0.000238
0.000259
0.000269
0.000283
0.000261
0.000236
0.000258
0.000279
0.000346
0.000408
0.000376
0.000328
0.000233
0.000176
0.000057
0.000193
0.000224
0.000282
0.000246
0.000238
0.000265
0.000265
0.000230
0.000494
0.000215
0.000254
0.000265
0.000233
0.000266
0.000275
0.000313
0.000220
0.000352
0.000219
0.000244
0.000253
0.000266
0.000258
0.000270
0.000274
0.000276
0.000244
0.000257
0.000255
0.000497
0.000165
0.000056
0.000204
0.000239
0.000250
0.000292
0.000200
0.000246
0.000359
0.000407
0.000245
0.000229
0.000254
0.000253
0.000235
0.000265
0.000500
0.001724
0.000232
0.000271
0.000284
0.000325
0.000407
0.000366
0.000363
0.000423
0.000377
0.000388
0.000243
0.000274
0.000269
0.000274
0.001393
0.000057
0.000391
0.000314
0.000252
0.000219
0.000240
0.000251
0.000228
0.000259
0.000243
0.000272
0.000243
0.000261
0.000270
0.000301
0.000530
0.001614
0.000229
0.000235
0.000255
0.000263
0.000233
0.000301
0.000415
0.000324
0.000292
0.000330
0.000224
0.000276
0.000267
0.000269
0.000192
0.000056
0.001256
0.000575
0.000250
0.000251
0.000239
0.000223
0.000239
0.000235
0.000493
0.000215
0.000263
0.000228
0.000393
0.000436
0.000439
0.000334
0.000261
0.000225
0.000328
0.000365
0.000272
0.000255
0.000268
0.000246
0.000276
0.000526
0.000569
0.000278
0.000268
0.000265
0.000171
0.000057
0.000197
0.000222
0.000238
0.000267
0.001543
0.000219
0.000214
0.000255
0.000262
0.000225
0.000260
0.000249
0.000243
0.000261
0.000273
0.000352
0.000434
0.000628
0.000222
0.001739
0.000263
0.000278
0.000288
0.000520
0.000616
0.000260
0.000247
0.000252
0.000252
0.000277
0.000211
0.000057
0.000202
0.000247
0.000236
0.000320
0.001249
0.000236
0.000255
0.000259
0.000244
0.000236
0.000238
0.000254
0.000275
0.000245
0.000262
0.000282
0.000446
0.000510
0.000253
0.000257
0.000270
0.000270
0.000247
0.000232
0.000287
0.000265
0.000246
0.000276
0.000269
0.000384
0.000573
0.000057
0.000217
0.000248
0.000232
0.000263
0.000264
0.000239
0.000233
0.000268
0.000268
0.000278
0.001412
0.000219
0.000248
0.000245
0.000252
0.000239
0.000291
0.000248
0.000280
0.000242
0.000268
0.000521
0.000454
0.000371
0.000218
0.000272
0.001759
0.000261
0.000275
0.000355
0.000421
0.000057
0.000202
0.000385
0.000452
0.000504
0.000513
0.000535
0.001505
0.000407
0.000520
0.000653
0.000554
0.000726
0.000474
0.000614
0.000587
0.001892
0.000448
0.000400
0.000383
0.000323
0.000223
0.000270
0.000289
0.000265
0.000259
0.000288
0.000290
0.000287
0.000262
0.000288
0.001368
0.000057
0.000213
0.000230
0.000244
0.000240
0.000260
0.000257
0.000237
0.000238
0.000252
0.000248
0.000241
0.000247
0.000254
0.000282
0.000242
0.000268
0.001804
0.000254
0.000271
0.000239
0.000255
0.000266
0.000273
0.000255
0.000397
0.000469
0.000320
0.000230
0.000280
0.000271
0.000217
0.000056
0.000214
0.001370
0.000327
0.000278
0.000242
0.000239
0.000241
0.000237
0.000231
0.000247
0.000210
0.000248
0.000251
0.000513
0.000361
0.000301
0.000243
0.001817
0.000357
0.000244
0.000237
0.000265
0.000261
0.000260
0.000274
0.000283
0.000270
0.000252
0.000269
0.000313
0.000204
0.000057
0.000201
0.000248
0.000252
0.001443
0.000216
0.000241
0.000257
0.000246
0.000231
0.000274
0.000250
0.000243
0.000251
0.000281
0.000237
0.000252
0.000262
0.000265
0.000288
0.000239
0.000260
0.001768
0.000263
0.001770
0.000262
0.000260
0.000256
0.000270
0.000275
0.000271
0.000198
0.000056
0.000205
0.000262
0.001326
0.000228
0.000244
0.000257
0.000253
0.000256
0.000242
0.000251
0.000257
0.000238
0.000264
0.000264
0.000254
0.000266
0.000257
0.000308
0.000269
0.000230
0.001879
0.000243
0.001825
0.000235
0.000264
0.000278
0.000224
0.000255
0.000252
0.000267
0.000203
0.000056
0.001445
0.000212
0.000231
0.000251
0.000237
0.000233
0.000374
0.000279
0.000237
0.000253
0.000257
0.000259
0.000245
0.000490
0.000266
0.000274
0.000244
0.000275
0.000269
0.000247
0.000267
0.000344
0.000231
0.000245
0.000270
0.000284
0.000271
0.000366
0.000602
0.000367
0.000189
0.000057
0.000226
0.000240
0.000265
0.000297
0.000373
0.000269
0.001668
0.000310
0.000286
0.000268
0.000248
0.000270
0.000269
0.000264
0.000293
0.000310
0.000368
0.000648
0.000289
0.000258
0.000286
0.000286
0.000265
0.000258
0.000337
0.000258
0.000268
0.000261
0.000255
0.000327
0.000453
0.000058
0.000223
0.000466
0.000267
0.000264
0.000248
0.000229
0.000224
0.000248
0.000262
0.000271
0.001500
0.000209
0.000238
0.000250
0.000245
0.000290
0.000276
0.000244
0.000255
0.000271
0.000262
0.000383
0.000548
0.000296
0.000278
0.000271
0.000271
0.000257
0.000237
0.000309
0.000170
0.000057
0.000194
0.000234
0.000310
0.000487
0.000311
0.000277
0.000225
0.000246
0.000258
0.000248
0.000233
0.000250
0.000256
0.000270
0.000242
0.000240
0.000555
0.001048
0.000240
0.000262
0.000266
0.000249
0.000348
0.000421
0.000261
0.000298
0.000652
0.000299
0.000384
0.000234
0.000177
0.000057
0.000230
0.000248
0.000259
0.000259
0.000258
0.000249
0.000324
0.000431
0.000425
0.000282
0.000349
0.000391
0.000393
0.000361
0.000283
0.000226
0.000239
0.000283
0.000453
0.000380
0.001263
0.000225
0.000277
0.000273
0.000235
0.000234
0.000267
0.000321
0.000403
0.000495
0.000204
0.000058
0.000191
0.000264
0.000243
0.000237
0.000240
0.000244
0.000238
0.000264
0.000304
0.000407
0.000350
0.000390
0.000249
0.000235
0.000250
0.000290
0.000219
0.000262
0.000266
0.000272
0.000417
0.000245
0.000410
0.000506
0.000213
0.000244
0.000271
0.000272
0.000251
0.000332
0.000163
0.000057
0.000316
0.000311
0.000354
0.000330
0.000462
0.000354
0.000241
0.000244
0.000246
0.000269
0.000265
0.000255
0.000235
0.000252
0.000241
0.000227
0.000275
0.000360
0.000459
0.000374
0.000227
0.000279
0.000243
0.000247
0.000282
0.000266
0.000262
0.000282
0.000265
0.000270
0.000307
0.000057
0.000314
0.000328
0.000241
0.000269
0.000221
0.000245
0.000279
0.000222
0.000264
0.000257
0.000253
0.000235
0.000298
0.000460
0.000462
0.000283
0.000240
0.000250
0.000256
0.000265
0.000274
0.000245
0.000259
0.000268
0.000315
0.000259
0.000464
0.000557
0.000410
0.000247
0.000171
0.000056
0.000410
0.000173
0.000220
0.000248
0.000252
0.000247
0.000237
0.000249
0.000261
0.000256
0.000223
0.000244
0.000265
0.000233
0.000242
0.000264
0.000255
0.000264
0.000293
0.000242
0.000264
0.000255
0.000262
0.000264
0.000267
0.000241
0.000265
0.000290
0.000242
0.000284
0.000193
0.000056
0.000212
0.000223
0.000243
0.000250
0.000224
0.000263
0.000256
0.000245
0.000259
0.000266
0.000238
0.000234
0.000264
0.000391
0.000256
0.000308
0.000235
0.000266
0.000251
0.000281
0.000271
0.000235
0.000249
0.000248
0.000272
0.000275
0.000266
0.000239
0.000271
0.000259
0.000207
0.000057
0.000195
0.000351
0.000371
0.000281
0.000295
0.000259
0.000271
0.000258
0.000219
0.000250
0.000281
0.000232
0.000250
0.000237
0.000256
0.000282
0.000238
0.000270
0.000246
0.000259
0.000279
0.000262
0.000280
0.000251
0.000291
0.000235
0.000256
0.000274
0.000266
0.000261
0.000199
0.000057
0.000202
0.000237
0.000260
0.000267
0.000250
0.000441
0.000218
0.000271
0.000274
0.000459
0.000475
0.000278
0.000218
0.000248
0.000281
0.000257
0.000233
0.000272
0.000257
0.000267
0.000283
0.000243
0.000258
0.000323
0.000536
0.000452
0.000267
0.000304
0.000259
0.000262
0.000192
0.000056
0.000218
0.000228
0.000244
0.000251
0.000439
0.000525
0.000317
0.000387
0.000207
0.000250
0.000248
0.000257
0.000254
0.000246
0.000259
0.000270
0.000271
0.000321
0.000633
0.000337
0.000266
0.000247
0.000255
0.000282
0.000282
0.000256
0.000263
0.000287
0.000232
0.000321
0.000377
0.000056
0.000274
0.000231
0.000238
0.000239
0.000256
0.000268
0.000211
0.000250
0.000244
0.000254
0.000249
0.000267
0.000260
0.000461
0.000525
0.000333
0.000249
0.000254
0.000264
0.000244
0.000266
0.000292
0.000480
0.000213
0.000259
0.000647
0.000395
0.000461
0.000251
0.000250
0.000188
0.000057
0.000199
0.000232
0.000242
0.000244
0.000256
0.000261
0.000324
0.000697
0.000304
0.000436
0.000203
0.000258
0.000277
0.000280
0.000249
0.000249
0.000235
0.000252
0.000287
0.000278
0.000440
0.000638
0.000362
0.000262
0.000341
0.000378
0.000503
0.000236
0.000264
0.000353
0.000414
0.000056
0.000265
0.000229
0.000437
0.000224
0.000232
0.000249
0.000278
0.000244
0.000231
0.000240
0.000263
0.000395
0.000348
0.000407
0.000187
0.000254
0.000267
0.000245
0.000266
0.000277
0.000275
0.000255
0.000247
0.000275
0.000452
0.000388
0.000438
0.000236
0.000267
0.000263
0.000196
0.000056
0.000234
0.000249
0.000229
0.000243
0.000249
0.000338
0.000336
0.000410
0.000378
0.000280
0.000357
0.000220
0.000259
0.000265
0.000259
0.000233
0.000265
0.000256
0.000326
0.000377
0.000455
0.000341
0.000478
0.000263
0.000379
0.000420
0.000384
0.000249
0.000261
0.000292
0.000444
0.000058
0.000242
0.000272
0.000240
0.000239
0.000256
0.000256
0.000246
0.000253
0.000271
0.000240
0.000238
0.000308
0.000491
0.000373
0.000373
0.000234
0.000271
0.000258
0.000265
0.000235
0.000255
0.000252
0.000270
0.000269
0.000279
0.000347
0.000483
0.000465
0.000242
0.000293
0.000175
0.000057
0.000217
0.000238
0.000281
0.000245
0.000241
0.000460
0.000489
0.000355
0.000366
0.000694
0.000254
0.000222
0.000242
0.000259
0.000244
0.000269
0.000291
0.000258
0.000470
0.000446
0.001490
0.000316
0.000258
0.000286
0.000273
0.000261
0.000456
0.000386
0.000347
0.000268
0.000187
0.000056
0.000208
0.000241
0.000240
0.000265
0.000229
0.000247
0.000302
0.000227
0.000247
0.000316
0.000333
0.000379
0.000270
0.000337
0.000396
0.000345
0.000242
0.000260
0.000265
0.000256
0.000248
0.000248
0.000311
0.000216
0.000321
0.000436
0.000436
0.000294
0.000239
0.000276
0.000184
0.000056
0.000233
0.000244
0.000257
0.000253
0.000242
0.000235
0.000475
0.000233
0.000212
0.000255
0.000248
0.000250
0.000257
0.000252
0.000256
0.000267
0.000263
0.000287
0.000249
0.000257
0.000282
0.000263
0.000296
0.000244
0.000263
0.000281
0.000271
0.000261
0.000263
0.000272
0.000175
0.000056
0.000236
0.000251
0.000307
0.000418
0.000360
0.000260
0.000232
0.000244
0.000279
0.000231
0.000247
0.000257
0.000262
0.000259
0.000241
0.000250
0.000260
0.000247
0.000326
0.000327
0.000363
0.000444
0.000245
0.000254
0.000260
0.000252
0.000263
0.000258
0.000275
0.000294
0.000178
0.000056
0.000288
0.000464
0.000360
0.000202
0.000270
0.000240
0.000417
0.000212
0.000234
0.000253
0.000258
0.000284
0.000353
0.000608
0.001701
0.000252
0.000242
0.000250
0.000280
0.000239
0.000376
0.000366
0.000614
0.000328
0.000240
0.000264
0.000273
0.000426
0.000275
0.000280
0.000166
0.000057
0.000241
0.000367
0.000379
0.000282
0.000493
0.000199
0.000256
0.000245
0.000245
0.000237
0.000263
0.000243
0.000263
0.000309
0.000554
0.000336
0.000230
0.000247
0.000259
0.000260
0.000280
0.000299
0.000232
0.000280
0.000275
0.000443
0.000531
0.000608
0.000230
0.000238
0.000205
0.000055
0.000196
0.000229
0.000256
0.000231
0.000248
0.000251
0.000263
0.000299
0.000323
0.000349
0.000470
0.000334
0.000222
0.000252
0.000264
0.000289
0.000299
0.000239
0.000270
0.000275
0.000238
0.000268
0.000515
0.000363
0.000293
0.000254
0.000260
0.000439
0.000414
0.000299
0.000190
0.000057
0.000211
0.000232
0.000324
0.000473
0.000348
0.000204
0.000238
0.000256
0.000267
0.000262
0.000251
0.000254
0.000225
0.000263
0.000258
0.000274
0.000444
0.000338
0.000287
0.000349
0.000491
0.000220
0.000283
0.000275
0.000299
0.000287
0.000251
0.000264
0.000473
0.000477
0.000238
0.000056
0.000205
0.000232
0.000244
0.000253
0.000299
0.000431
0.000207
0.000254
0.000266
0.000283
0.000569
0.000553
0.000208
0.000247
0.000238
0.000255
0.000253
0.000278
0.000232
0.000250
0.000287
0.000241
0.000393
0.000379
0.000385
0.000385
0.000297
0.000300
0.000319
0.000255
0.000199
0.000056
0.000211
0.000233
0.000266
0.000467
0.000332
0.000292
0.000256
0.000230
0.000251
0.000254
0.000252
0.000259
0.000269
0.000233
0.000255
0.000256
0.000250
0.000246
0.000254
0.000405
0.000542
0.000354
0.000228
0.000246
0.000277
0.000276
0.000278
0.000242
0.000263
0.000267
0.000197
0.000057
0.000291
0.000355
0.000477
0.000243
0.000241
0.000228
0.000314
0.000456
0.000287
0.000224
0.000236
0.000279
0.000253
0.000523
0.000403
0.000241
0.000240
0.000236
0.000252
0.000266
0.000273
0.000262
0.000259
0.000277
0.000260
0.000285
0.000395
0.000478
0.000260
0.000239
0.000193
0.000056
0.000198
0.000238
0.000244
0.000256
0.000269
0.000248
0.000225
0.000274
0.000250
0.000236
0.000266
0.000237
0.000293
0.001432
0.000223
0.000263
0.000248
0.000247
0.000274
0.000277
0.000261
0.000241
0.000275
0.000251
0.000268
0.000285
0.000256
0.000272
0.000260
0.000266
0.000192
0.000057
0.000218
0.000227
0.000255
0.000263
0.000221
0.000258
0.000250
0.000255
0.000227
0.000248
0.000249
0.000262
0.000256
0.000252
0.000255
0.000262
0.000247
0.000258
0.000275
0.000255
0.000249
0.000266
0.000243
0.000253
0.001298
0.000283
0.000599
0.000438
0.000296
0.000240
0.000191
0.000056
0.000216
0.000228
0.000244
0.000268
0.000402
0.000230
0.000248
0.000237
0.000254
0.000339
0.000470
0.000349
0.000221
0.000236
0.000265
0.000258
0.000257
0.000267
0.000243
0.000260
0.000260
0.000253
0.000262
0.000424
0.000516
0.000446
0.000227
0.000265
0.001367
0.000247
0.000183
0.000057
0.000334
0.000423
0.000322
0.000281
0.000216
0.000223
0.000230
0.000250
0.000259
0.000256
0.000247
0.000257
0.000297
0.000343
0.000593
0.000256
0.000338
0.000217
0.000252
0.000253
0.000268
0.000285
0.000274
0.000235
0.000274
0.000266
0.000404
0.000531
0.000324
0.000356
0.000148
0.000057
0.000211
0.000235
0.001263
0.000434
0.000321
0.000487
0.000350
0.000462
0.000259
0.000344
0.000225
0.000229
0.000265
0.000256
0.000256
0.000258
0.000502
0.000335
0.000389
0.000372
0.000266
0.000239
0.000270
0.000496
0.000232
0.000266
0.000257
0.000278
0.000308
0.000542
0.000287
0.000057
0.000372
0.000313
0.000233
0.000238
0.001556
0.000458
0.000308
0.000244
0.000249
0.000254
0.000227
0.000240
0.000243
0.000272
0.000253
0.000268
0.000228
0.000278
0.000425
0.000370
0.000429
0.000256
0.000252
0.000259
0.000258
0.000296
0.000248
0.000238
0.000265
0.000281
0.000195
0.000056
0.000384
0.000342
0.000215
0.000237
0.000253
0.000248
0.000256
0.000240
0.000239
0.000225
0.001405
0.000476
0.000263
0.000239
0.000245
0.000255
0.000272
0.000264
0.000237
0.000299
0.000242
0.000254
0.000264
0.000418
0.000374
0.000491
0.000236
0.000268
0.000275
0.000283
0.000169
0.000056
0.000217
0.000419
0.000215
0.000251
0.000348
0.000468
0.000331
0.000314
0.000462
0.000208
0.000228
0.000255
0.000260
0.000264
0.000258
0.001410
0.000381
0.000275
0.000238
0.000267
0.000306
0.000230
0.000253
0.000251
0.000260
0.000290
0.000608
0.000266
0.000290
0.000273
0.000163
0.000057
0.000189
0.000237
0.000257
0.000235
0.000229
0.000259
0.000243
0.000245
0.000355
0.000284
0.000397
0.000337
0.000239
0.000266
0.000240
0.000273
0.000275
0.000260
0.000268
0.000231
0.000253
0.000395
0.001169
0.000243
0.000274
0.000250
0.000256
0.000265
0.000258
0.000267
0.000182
0.000056
0.000217
0.000376
0.000431
0.000270
0.000248
0.000239
0.000261
0.000286
0.000237
0.000264
0.000238
0.000271
0.000237
0.000256
0.000254
0.000264
0.000267
0.000269
0.000265
0.000245
0.000250
0.000272
0.000285
0.000265
0.000288
0.000268
0.000266
0.000261
0.000256
0.000459
0.001351
0.000056
0.000217
0.000252
0.000221
0.000263
0.000235
0.000259
0.000245
0.000224
0.000248
0.000248
0.000277
0.000260
0.000249
0.000239
0.000276
0.000223
0.001727
0.000260
0.000238
0.000259
0.000252
0.000255
0.000276
0.000260
0.000296
0.000235
0.000280
0.000268
0.000267
0.000254
0.000217
0.000056
0.000298
0.000291
0.001335
0.000224
0.000226
0.000245
0.000259
0.000249
0.000276
0.000239
0.000233
0.000336
0.000445
0.000402
0.000279
0.000243
0.000234
0.000259
0.000257
0.000264
0.000241
0.000280
0.000259
0.000281
0.000261
0.000429
0.000336
0.000381
0.000294
0.000244
0.000193
0.000057
0.000205
0.000249
0.000245
0.000247
0.000276
0.000197
0.000242
0.000256
0.000425
0.001341
0.000253
0.000214
0.000253
0.000268
0.000259
0.000288
0.000237
0.000254
0.000294
0.000475
0.000310
0.000276
0.000257
0.000243
0.000279
0.000277
0.000274
0.000289
0.000269
0.000277
0.000192
0.000056
0.000263
0.000438
0.000364
0.000224
0.000229
0.000233
0.000247
0.000276
0.000265
0.000244
0.000230
0.000253
0.000452
0.000493
0.000474
0.001463
0.000246
0.000257
0.000328
0.000351
0.000475
0.000475
0.000431
0.000385
0.000244
0.000263
0.000264
0.000280
0.000262
0.000275
0.000193
0.000056
0.000208
0.000284
0.000422
0.000460
0.000371
0.000234
0.000257
0.000233
0.000241
0.000274
0.000233
0.000267
0.000280
0.000224
0.000268
0.000282
0.000382
0.000448
0.000332
0.001326
0.000269
0.000254
0.000261
0.000259
0.000492
0.000438
0.000380
0.000218
0.000279
0.000281
0.000177
0.000056
0.000193
0.000242
0.000264
0.000246
0.000228
0.000274
0.000446
0.000474
0.000298
0.000201
0.000246
0.000258
0.000272
0.000289
0.000242
0.000253
0.000282
0.000250
0.000272
0.000309
0.000445
0.000450
0.000268
0.001353
0.000408
0.000250
0.000257
0.000447
0.000516
0.000248
0.000305
0.000057
0.000208
0.000233
0.000257
0.000235
0.000251
0.000255
0.001676
0.000257
0.000206
0.000239
0.000257
0.000242
0.000253
0.000324
0.000328
0.000288
0.000277
0.000283
0.000503
0.000445
0.000281
0.000283
0.000239
0.000251
0.001490
0.000415
0.000340
0.000448
0.000337
0.000303
0.000176
0.000057
0.000203
0.000248
0.000253
0.000259
0.000242
0.000265
0.001700
0.000218
0.000260
0.000258
0.000326
0.000401
0.001450
0.000364
0.000400
0.000243
0.000251
0.000235
0.000270
0.000273
0.001526
0.000638
0.000332
0.000290
0.000235
0.000252
0.000261
0.000285
0.000241
0.000255
0.000196
0.000056
0.000200
0.000238
0.000266
0.000267
0.000244
0.000277
0.000276
0.000252
0.000252
0.000250
0.000256
0.000249
0.000289
0.000239
0.000259
0.001482
0.000280
0.000241
0.000266
0.000278
0.000272
0.000252
0.001441
0.000330
0.000200
0.000246
0.000268
0.000255
0.000401
0.000240
0.000201
0.000056
0.000214
0.000250
0.000225
0.000242
0.000240
0.000231
0.000230
0.001690
0.000253
0.000232
0.000350
0.000273
0.000223
0.000224
0.000255
0.001413
0.000213
0.000258
0.000270
0.000245
0.000269
0.000338
0.000295
0.001305
0.000271
0.000253
0.000251
0.001391
0.000323
0.000306
0.000169
0.000056
0.000231
0.000365
0.000206
0.000256
0.000249
0.000228
0.000287
0.000250
0.000262
0.000244
0.000263
0.000266
0.000251
0.000242
0.001591
0.000260
0.000212
0.000269
0.000254
0.000242
0.000285
0.000260
0.000252
0.001513
0.000357
0.000226
0.000263
0.001274
0.000274
0.000242
0.000228
0.000056
0.000215
0.000408
0.000331
0.000215
0.000232
0.000246
0.000262
0.000249
0.000265
0.000273
0.000244
0.000247
0.000262
0.000257
0.000439
0.001247
0.000203
0.000244
0.000269
0.000275
0.000228
0.000247
0.000248
0.000327
0.001290
0.000232
0.000256
0.000251
0.000254
0.001343
0.000285
0.000056
0.000274
0.000288
0.000220
0.000234
0.000241
0.000257
0.000240
0.000250
0.000297
0.000229
0.000252
0.000240
0.000245
0.000336
0.000403
0.001476
0.000219
0.000257
0.000295
0.000523
0.000266
0.000398
0.001351
0.000321
0.000219
0.000271
0.000250
0.001298
0.000253
0.000494
0.000413
0.000056
0.000224
0.000268
0.000235
0.000254
0.000256
0.000252
0.000273
0.000264
0.000246
0.000263
0.000280
0.000529
0.001300
0.000233
0.000279
0.000265
0.000277
0.000239
0.000229
0.000235
0.000416
0.001171
0.000254
0.000256
0.000248
0.000243
0.001548
0.000382
0.000497
0.000217
0.000189
0.000056
0.000209
0.000233
0.000248
0.000239
0.000254
0.000265
0.000234
0.000276
0.000451
0.000454
0.000288
0.001458
0.000215
0.000247
0.000267
0.000253
0.000261
0.000417
0.001572
0.000238
0.000383
0.000341
0.001286
0.000346
0.000330
0.000342
0.000228
0.000270
0.000263
0.000264
0.000195
0.000056
0.000193
0.000234
0.000332
0.000238
0.000362
0.000540
0.000243
0.000310
0.001452
0.000235
0.000381
0.000267
0.000229
0.000387
0.000352
0.001268
0.000264
0.000249
0.000241
0.000253
0.001518
0.000385
0.000277
0.000276
0.000274
0.000250
0.000455
0.000329
0.000253
0.000230
0.000267
0.000056
0.000270
0.000332
0.000359
0.000234
0.000226
0.001518
0.000213
0.000267
0.000266
0.000267
0.000265
0.000320
0.000273
0.001443
0.000247
0.000231
0.000433
0.001181
0.000362
0.000456
0.000374
0.000230
0.000245
0.000258
0.000294
0.000224
0.000455
0.000226
0.000263
0.000285
0.000191
0.000056
0.000190
0.000233
0.000384
0.000342
0.001317
0.000286
0.000334
0.000223
0.000227
0.000249
0.000249
0.000276
0.001534
0.000297
0.000189
0.000253
0.001373
0.000320
0.000436
0.000343
0.000418
0.000240
0.000254
0.000248
0.000269
0.000269
0.000275
0.000262
0.000268
0.000248
0.000195
0.000055
0.000213
0.000422
0.001436
0.000213
0.000271
0.000302
0.000218
0.000246
0.000279
0.000361
0.001405
0.000207
0.000260
0.000253
0.000267
0.001269
0.000725
0.000255
0.000314
0.000412
0.000308
0.000248
0.000273
0.000259
0.000265
0.000293
0.000268
0.000340
0.000469
0.000351
0.001386
0.000056
0.000200
0.000244
0.000245
0.000230
0.000247
0.000392
0.000499
0.001294
0.000260
0.000225
0.000249
0.001479
0.000426
0.000290
0.000229
0.000419
0.000239
0.000233
0.000277
0.000286
0.000247
0.000252
0.000282
0.000253
0.000254
0.000269
0.000454
0.000482
0.001491
0.000232
0.000195
0.000056
0.000210
0.000252
0.000478
0.000364
0.001288
0.000319
0.000216
0.000255
0.000246
0.000256
0.000250
0.000277
0.000358
0.000543
0.000273
0.000244
0.000250
0.000271
0.000249
0.000317
0.000225
0.000256
0.000260
0.000265
0.000257
0.000314
0.000582
0.000302
0.000332
0.001402
0.000183
0.000058
0.000210
0.000241
0.000278
0.000501
0.000322
0.000274
0.000317
0.000330
0.000293
0.000256
0.000253
0.000248
0.000248
0.000311
0.000235
0.000300
0.000587
0.000356
0.000218
0.000384
0.000275
0.000411
0.000222
0.000261
0.000249
0.000259
0.000256
0.000289
0.000383
0.000490
0.000276
0.000056
0.000215
0.001399
0.000221
0.000341
0.000403
0.000393
0.000531
0.000205
0.000206
0.000250
0.000269
0.000249
0.000273
0.000256
0.000264
0.000252
0.000262
0.001372
0.000250
0.000245
0.000256
0.000275
0.000269
0.000281
0.000268
0.000254
0.000276
0.000246
0.000327
0.000430
0.000322
0.000057
0.000211
0.000244
0.000237
0.001502
0.000315
0.000242
0.000241
0.000246
0.000227
0.000244
0.000256
0.000283
0.000239
0.000254
0.000294
0.000231
0.000243
0.000282
0.000253
0.000246
0.001424
0.000229
0.000259
0.000272
0.000258
0.000251
0.000265
0.000262
0.000290
0.000473
0.000353
0.000057
0.000197
0.000236
0.000393
0.000292
0.000239
0.000259
0.001521
0.000364
0.000278
0.000228
0.000256
0.000315
0.000333
0.000231
0.000226
0.000249
0.000248
0.000261
0.000258
0.000261
0.000500
0.000493
0.001112
0.000271
0.000239
0.000264
0.000266
0.000263
0.000302
0.000229
0.000282
0.000057
0.000415
0.000200
0.000206
0.000246
0.000243
0.000244
0.000242
0.000230
0.000286
0.001593
0.000454
0.000221
0.000232
0.000254
0.000257
0.000242
0.000257
0.000300
0.000240
0.000311
0.000306
0.000484
0.000450
0.001368
0.000238
0.000271
0.000261
0.000258
0.000266
0.000290
0.000514
0.000057
0.000222
0.000262
0.000229
0.000231
0.000224
0.000243
0.000261
0.000278
0.000276
0.001581
0.000329
0.000257
0.000242
0.000260
0.000462
0.000250
0.000540
0.000376
0.000282
0.000264
0.000485
0.000495
0.001271
0.000264
0.000237
0.000255
0.001913
0.000311
0.000549
0.000322
0.000144
0.000056
0.000202
0.000225
0.000243
0.000234
0.000257
0.000242
0.000245
0.000503
0.000494
0.000424
0.000286
0.000222
0.000239
0.000262
0.000281
0.000272
0.000232
0.000242
0.000257
0.000285
0.000331
0.000324
0.001361
0.000227
0.000255
0.000270
0.001892
0.000385
0.000445
0.000289
0.000150
0.000057
0.000210
0.000250
0.000243
0.001613
0.000374
0.000216
0.000237
0.000271
0.000244
0.000267
0.000376
0.000370
0.000367
0.000280
0.000287
0.000526
0.000427
0.001163
0.000272
0.000247
0.000250
0.000263
0.000272
0.000406
0.000700
0.000376
0.000251
0.000270
0.000265
0.000283
0.000190
0.000057
0.000206
0.000233
0.000241
0.001536
0.000266
0.000221
0.000247
0.000252
0.000246
0.000246
0.000260
0.000268
0.000282
0.000259
0.000245
0.000545
0.000428
0.000189
0.001387
0.000235
0.000264
0.000256
0.000263
0.000291
0.000360
0.000508
0.000411
0.000256
0.000290
0.000234
0.000451
0.000057
0.000211
0.000234
0.000279
0.001624
0.000195
0.000225
0.000266
0.000240
0.000253
0.000262
0.000252
0.000273
0.000240
0.000288
0.000408
0.000523
0.001324
0.000756
0.000265
0.000338
0.000240
0.000241
0.000242
0.000280
0.001674
0.000811
0.000231
0.000262
0.000278
0.000284
0.000186
0.000055
0.000213
0.000239
0.000245
0.000244
0.000269
0.000261
0.000215
0.000255
0.000241
0.000231
0.000293
0.000283
0.000248
0.000253
0.000259
0.000247
0.000271
0.001589
0.000713
0.000348
0.000341
0.000236
0.000247
0.000307
0.000250
0.000272
0.000251
0.000260
0.001435
0.000343
0.000415
0.000056
0.000191
0.000226
0.000275
0.000229
0.000262
0.000230
0.000280
0.000228
0.000254
0.000259
0.000269
0.000421
0.000497
0.000281
0.000219
0.000241
0.000265
0.001393
0.000684
0.000475
0.000338
0.000275
0.000225
0.000249
0.000278
0.000274
0.000237
0.000279
0.001460
0.000402
0.000227
0.000056
0.000194
0.000229
0.000246
0.000249
0.000251
0.000248
0.000234
0.000253
0.000271
0.000259
0.000371
0.000496
0.000208
0.000224
0.000246
0.000245
0.000265
0.000254
0.001574
0.000637
0.000489
0.000277
0.000237
0.000258
0.000254
0.000264
0.000281
0.000275
0.000257
0.001346
0.000356
0.000057
0.000210
0.000226
0.000233
0.000257
0.000256
0.000241
0.000254
0.000295
0.000363
0.000444
0.000391
0.000350
0.000376
0.000219
0.000250
0.000251
0.000295
0.000241
0.000264
0.001897
0.000366
0.000219
0.000460
0.000236
0.000244
0.000264
0.000272
0.000259
0.000273
0.000272
0.000313
0.000057
0.000260
0.000247
0.000238
0.000242
0.000282
0.000225
0.000229
0.000237
0.000269
0.000295
0.000204
0.000234
0.000269
0.000501
0.000501
0.000365
0.000231
0.000264
0.000250
0.000251
0.000257
0.000272
0.001520
0.001017
0.000218
0.000254
0.000268
0.000269
0.000267
0.000255
0.000221
0.000057
0.000192
0.001412
0.000206
0.000222
0.000232
0.000256
0.000250
0.000241
0.000238
0.000264
0.000256
0.000253
0.000237
0.000514
0.000256
0.000498
0.000222
0.000240
0.000266
0.000278
0.000267
0.000221
0.000263
0.000263
0.001409
0.000599
0.000297
0.000382
0.000376
0.000403
0.000293
0.000056
0.000209
0.000234
0.000355
0.001322
0.000208
0.000255
0.000234
0.000260
0.000262
0.000252
0.000253
0.000265
0.000243
0.000339
0.000576
0.000309
0.000225
0.000281
0.000330
0.000212
0.000266
0.000257
0.000234
0.000272
0.000288
0.001508
0.000747
0.000322
0.000256
0.000272
0.000197
0.000056
0.000226
0.000282
0.000434
0.000325
0.001290
0.000245
0.000232
0.000243
0.000232
0.000248
0.000248
0.000259
0.000250
0.000232
0.000245
0.000253
0.000267
0.000231
0.000260
0.000255
0.000268
0.000269
0.000304
0.000327
0.000220
0.000268
0.000265
0.001455
0.000268
0.000238
0.000179
0.000056
0.000197
0.000231
0.000269
0.000239
0.000351
0.000372
0.000401
0.000275
0.001582
0.000244
0.000290
0.000539
0.000313
0.000220
0.000441
0.000239
0.000230
0.000259
0.000274
0.000267
0.000277
0.000266
0.000257
0.000268
0.000266
0.000407
0.000382
0.000353
0.001562
0.000232
0.000189
0.000056
0.000205
0.000228
0.000238
0.000248
0.000238
0.000245
0.000261
0.000318
0.000408
0.002032
0.000223
0.000255
0.000257
0.000256
0.000261
0.000297
0.000223
0.000261
0.000255
0.000455
0.000396
0.000398
0.001450
0.000248
0.000276
0.001986
0.000277
0.000247
0.000257
0.001521
0.000165
0.000056
0.000348
0.000437
0.000434
0.000258
0.000261
0.000210
0.000258
0.000267
0.000261
0.000230
0.000256
0.000335
0.000409
0.000375
0.000437
0.000204
0.000239
0.001562
0.000242
0.000590
0.001852
0.000299
0.000243
0.001512
0.002055
0.000732
0.000272
0.000261
0.000302
0.000528
0.000266
0.000056
0.000203
0.000234
0.000281
0.000221
0.002856
0.000292
0.001084
0.000202
0.000236
0.001593
0.001964
0.000209
0.000242
0.000420
0.000357
0.000300
0.000403
0.000500
0.000215
0.000239
0.000257
0.000248
0.000273
0.001592
0.001208
0.001436
0.000275
0.000287
0.000255
0.000284
0.000393
0.000056
0.000235
0.000219
0.000241
0.000242
0.000224
0.000246
0.000249
0.000258
0.000258
0.000242
0.000238
0.000343
0.000416
0.000530
0.000227
0.000243
0.000245
0.000275
0.000268
0.000279
0.000244
0.000258
0.001618
0.000376
0.002120
0.000238
0.000251
0.000333
0.000434
0.000391
0.000195
0.000058
0.000214
0.000409
0.000414
0.000317
0.000196
0.000230
0.000254
0.000239
0.000244
0.000244
0.000248
0.000263
0.000261
0.001604
0.001349
0.001237
0.000276
0.000232
0.000247
0.000274
0.000280
0.000274
0.000247
0.000253
0.002213
0.000250
0.000244
0.000301
0.000321
0.000305
0.000224
0.000056
0.000241
0.000361
0.000560
0.000303
0.000236
0.000233
0.000253
0.000262
0.001894
0.001443
0.000203
0.000320
0.000385
0.000409
0.000269
0.000228
0.000260
0.000267
0.000263
0.000265
0.000260
0.000262
0.000474
0.000239
0.000267
0.000264
0.000257
0.000272
0.000275
0.000253
0.000199
0.000057
0.000203
0.000245
0.000252
0.000242
0.000275
0.000247
0.001533
0.001418
0.001329
0.000236
0.000240
0.000240
0.000264
0.000262
0.000252
0.000247
0.000244
0.002110
0.000251
0.000234
0.000267
0.000259
0.000258
0.000266
0.000265
0.000260
0.000270
0.000257
0.000274
0.000253
0.000174
0.000056
0.000203
0.002674
0.001407
0.000219
0.000301
0.000322
0.000212
0.000286
0.000233
0.000242
0.000255
0.000246
0.000227
0.000254
0.000270
0.000258
0.000264
0.000264
0.000299
0.000225
0.000268
0.000284
0.000271
0.000264
0.000248
0.000245
0.000267
0.000268
0.000263
0.000266
0.000369
0.000057
0.001542
0.000252
0.001239
0.000231
0.000222
0.000238
0.000261
0.000274
0.000227
0.000290
0.000409
0.000318
0.000340
0.000217
0.000249
0.002153
0.000231
0.000256
0.000265
0.000542
0.000401
0.000233
0.000229
0.000258
0.000268
0.000246
0.000264
0.000280
0.000272
0.001703
0.001172
0.000070
0.000175
0.000238
0.000342
0.000338
0.000368
0.000278
0.000213
0.000236
0.000254
0.000257
0.000266
0.000243
0.000229
0.000256
0.000278
0.000229
0.000287
0.000730
0.000335
0.000195
0.000223
0.000270
0.000286
0.000260
0.000237
0.000249
0.000270
0.000274
0.000244
0.000411
0.000276
0.000057
0.001127
0.000247
0.000316
0.000448
0.000308
0.000227
0.000225
0.000239
0.000254
0.002320
0.000369
0.000353
0.000232
0.000378
0.000304
0.000256
0.000242
0.000265
0.000256
0.000222
0.000256
0.000308
0.000597
0.000470
0.001846
0.001391
0.000539
0.000423
0.000230
0.000286
0.000195
0.000057
0.000317
0.000258
0.000242
0.000252
0.000252
0.000221
0.000255
0.000251
0.000256
0.000255
0.000249
0.000228
0.000245
0.000279
0.000419
0.000459
0.001832
0.001322
0.000520
0.000425
0.000407
0.000238
0.000244
0.000255
0.002134
0.000546
0.000384
0.000243
0.000272
0.000293
0.000184
0.000056
0.000201
0.000244
0.000253
0.000254
0.000255
0.000352
0.000379
0.000317
0.000315
0.000221
0.000244
0.000248
0.000269
0.002160
0.000326
0.000371
0.000221
0.000255
0.000281
0.000241
0.000251
0.002448
0.000338
0.000231
0.000254
0.000253
0.000261
0.000265
0.000308
0.000256
0.000196
0.000055
0.000247
0.000288
0.000575
0.000346
0.000254
0.000222
0.000236
0.000253
0.000271
0.000243
0.001960
0.000384
0.000264
0.000273
0.000252
0.000262
0.000273
0.000243
0.002200
0.000448
0.000231
0.000266
0.000266
0.000264
0.000247
0.000253
0.000305
0.000232
0.000269
0.000265
0.000177
0.000056
0.000216
0.000229
0.000245
0.000219
0.000248
0.000259
0.000239
0.000242
0.000235
0.002188
0.000220
0.000273
0.000229
0.000427
0.000234
0.000244
0.000302
0.000264
0.000251
0.000253
0.001964
0.000277
0.000332
0.000359
0.000435
0.000412
0.000307
0.000257
0.000251
0.000266
0.000197
0.000059
0.000208
0.000238
0.000238
0.000249
0.000307
0.000266
0.000215
0.002320
0.000241
0.000231
0.000259
0.000256
0.000232
0.000280
0.000281
0.002126
0.000583
0.000221
0.000257
0.000247
0.000273
0.000247
0.000290
0.000265
0.000261
0.000254
0.000288
0.000256
0.000261
0.000261
0.000198
0.000057
0.001820
0.001446
0.000200
0.000229
0.000239
0.000257
0.000248
0.000297
0.000364
0.000333
0.002199
0.000262
0.000223
0.000308
0.000245
0.000557
0.000357
0.000297
0.000222
0.000252
0.000248
0.000267
0.000264
0.000239
0.000249
0.000258
0.000268
0.000268
0.000323
0.000669
0.000305
0.000056
0.000202
0.000258
0.000237
0.000261
0.000266
0.000243
0.000258
0.000241
0.001490
0.002110
0.000599
0.000247
0.000400
0.000825
0.000231
0.000258
0.000240
0.000249
0.000270
0.000255
0.000255
0.000245
0.000247
0.000274
0.003013
0.000327
0.000237
0.000267
0.000289
0.000245
0.000449
0.000057
0.001934
0.000229
0.000232
0.000231
0.000311
0.000329
0.000499
0.000265
0.000277
0.000234
0.000238
0.000247
0.000265
0.000250
0.000276
0.000247
0.000255
0.000284
0.001823
0.000234
0.000237
0.000259
0.000271
0.000298
0.000255
0.000255
0.001495
0.000301
0.000263
0.000250
0.000171
0.000056
0.000196
0.000233
0.000261
0.000239
0.000238
0.000241
0.000377
0.000308
0.000387
0.000301
0.000232
0.000243
0.000260
0.000322
0.000421
0.000321
0.000236
0.000252
0.000255
0.000347
0.000510
0.000450
0.000215
0.000257
0.000263
0.000250
0.000252
0.000276
0.000271
0.000282
0.000187
0.000057
0.001436
0.000463
0.000204
0.001947
0.000256
0.000462
0.000418
0.000307
0.000231
0.000240
0.000270
0.000243
0.000248
0.000246
0.000267
0.000263
0.000446
0.000234
0.000452
0.000512
0.000222
0.000233
0.000252
0.000270
0.000276
0.000265
0.000259
0.000270
0.000457
0.000354
0.001381
0.000056
0.000202
0.000226
0.002079
0.000332
0.000300
0.000235
0.000257
0.000251
0.000257
0.000263
0.000216
0.000253
0.000253
0.000264
0.000275
0.000343
0.000744
0.001720
0.000230
0.000252
0.000254
0.000266
0.000382
0.000445
0.001565
0.000287
0.000363
0.001924
0.000250
0.000267
0.000194
0.000057
0.000216
0.000230
0.000232
0.000245
0.000231
0.000245
0.000252
0.000286
0.000346
0.000243
0.000375
0.000364
0.000342
0.000309
0.000239
0.000269
0.000264
0.000239
0.000267
0.000250
0.000305
0.000291
0.000269
0.000255
0.000269
0.001499
0.000297
0.000374
0.002082
0.000237
0.000168
0.000057
0.000222
0.000236
0.000239
0.000246
0.000493
0.000202
0.000256
0.000458
0.000227
0.000313
0.000314
0.000208
0.000272
0.000257
0.000267
0.000362
0.000494
0.000397
0.000202
0.000391
0.000544
0.000370
0.001635
0.000224
0.000252
0.001984
0.000336
0.000245
0.000244
0.000295
0.000189
0.000056
0.000208
0.000240
0.000229
0.000242
0.000248
0.000266
0.000272
0.000256
0.000247
0.000255
0.001814
0.000313
0.000382
0.000283
0.000475
0.000348
0.000359
0.001503
0.000242
0.000277
0.002172
0.000549
0.000231
0.000233
0.000264
0.000266
0.000508
0.000236
0.000238
0.000282
0.000194
0.000056
0.000285
0.000375
0.000366
0.000279
0.000206
0.000240
0.000263
0.000248
0.000261
0.000295
0.000229
0.000251
0.000260
0.000288
0.000330
0.000429
0.001338
0.000268
0.000272
0.001950
0.000341
0.000281
0.000237
0.000258
0.000250
0.000281
0.000270
0.000261
0.000245
0.000270
0.000202
0.000057
0.000357
0.000400
0.001948
0.000257
0.000214
0.000265
0.000240
0.000295
0.000437
0.000453
0.001284
0.000375
0.000363
0.002080
0.000211
0.000242
0.000270
0.000275
0.000256
0.000241
0.000284
0.000295
0.000259
0.000375
0.000473
0.000347
0.000341
0.002215
0.000489
0.000512
0.000364
0.000056
0.000214
0.000228
0.000249
0.001963
0.000227
0.000228
0.000248
0.000239
0.000245
0.000256
0.000246
0.000264
0.000284
0.000228
0.000461
0.001462
0.000258
0.000242
0.000267
0.000260
0.000230
0.000258
0.000260
0.000268
0.000307
0.000530
0.000409
0.000240
0.001602
0.000271
0.000156
0.000057
0.000201
0.000219
0.000247
0.000238
0.000258
0.000269
0.000226
0.000266
0.000239
0.000327
0.000410
0.001413
0.000234
0.000227
0.000248
0.000293
0.000228
0.000259
0.000305
0.000494
0.000536
0.000289
0.000226
0.001571
0.000233
0.000261
0.000287
0.000282
0.000258
0.000265
0.000202
0.000057
0.000202
0.000238
0.000263
0.000269
0.000246
0.000247
0.000236
0.000245
0.000274
0.000229
0.000247
0.000255
0.000267
0.001476
0.000364
0.000206
0.000251
0.000267
0.000272
0.000308
0.000372
0.000271
0.000256
0.000270
0.000257
0.000262
0.000261
0.001404
0.000285
0.000230
0.000175
0.000056
0.000207
0.000230
0.000257
0.000260
0.000272
0.000221
0.000246
0.000260
0.000220
0.000265
0.000261
0.000239
0.000226
0.000417
0.000260
0.000401
0.000224
0.000238
0.001635
0.000244
0.000240
0.000256
0.000264
0.000297
0.000404
0.000343
0.000470
0.000250
0.000257
0.001605
0.000160
0.000056
0.000319
0.000349
0.000373
0.000292
0.000230
0.000222
0.000241
0.000272
0.000257
0.000253
0.000232
0.000239
0.001461
0.000289
0.000326
0.000206
0.000248
0.000278
0.000252
0.000266
0.000254
0.000249
0.000243
0.000271
0.000338
0.000354
0.000441
0.000311
0.000287
0.000237
0.000189
0.000056
0.000212
0.000237
0.000550
0.000245
0.000449
0.000202
0.000245
0.000249
0.000252
0.000256
0.000247
0.000220
0.000259
0.000243
0.001258
0.000296
0.000240
0.000253
0.000264
0.000267
0.000240
0.000263
0.000255
0.000258
0.000268
0.000246
0.000309
0.000702
0.000446
0.000230
0.000178
0.000058
0.000206
0.001552
0.000237
0.000424
0.000468
0.000289
0.000214
0.000267
0.000257
0.000252
0.000240
0.000257
0.000273
0.000269
0.000262
0.001531
0.000248
0.000286
0.000264
0.000253
0.000278
0.000234
0.000270
0.000257
0.000271
0.000306
0.000411
0.000341
0.000347
0.000246
0.000191
0.000056
0.000216
0.000253
0.000236
0.001683
0.000345
0.000343
0.000237
0.000235
0.000252
0.000289
0.000264
0.000256
0.000252
0.000256
0.000246
0.000285
0.000485
0.001220
0.000240
0.000234
0.001494
0.000354
0.000534
0.000389
0.000348
0.000227
0.000272
0.000459
0.000238
0.000265
0.000183
0.000056
0.000293
0.000220
0.000246
0.000246
0.000252
0.000253
0.000244
0.000252
0.000256
0.000247
0.000246
0.000278
0.000313
0.000490
0.001655
0.001518
0.000329
0.000523
0.000348
0.000229
0.000228
0.000253
0.000256
0.000268
0.000252
0.000266
0.000255
0.000264
0.001547
0.000301
0.000171
0.000056
0.000222
0.000332
0.000353
0.000335
0.000233
0.000240
0.000242
0.000415
0.000387
0.000362
0.002160
0.000315
0.000713
0.000543
0.000411
0.000252
0.000336
0.000398
0.000328
0.000278
0.000413
0.000257
0.001533
0.000523
0.000219
0.000290
0.000229
0.000262
0.000260
0.000272
0.000191
0.000056
0.000232
0.000248
0.000252
0.000255
0.000242
0.001663
0.000878
0.000999
0.000205
0.000234
0.000260
0.000257
0.000263
0.000259
0.000253
0.000249
0.000253
0.000264
0.000268
0.000280
0.001426
0.000319
0.000254
0.000231
0.000231
0.000262
0.000261
0.000283
0.000282
0.000267
0.001896
0.000057
0.000196
0.000229
0.001543
0.000930
0.000349
0.000328
0.000225
0.000242
0.000258
0.000245
0.000248
0.000250
0.000245
0.002045
0.000415
0.000226
0.000238
0.000258
0.000262
0.000261
0.000195
