0.000113
0.021093
0.000550
0.000295
0.000260
0.000285
0.000306
0.000248
0.000333
0.000281
0.000256
0.000432
0.000462
0.000489
0.000328
0.000368
0.000275
0.000344
0.000344
0.000408
0.000316
0.001936
0.000717
0.000221
0.000258
0.000305
0.000310
0.000325
0.000504
0.000297
0.000526
0.000262
0.000058
0.000206
0.000274
0.000270
0.000264
0.000270
0.000250
0.000285
0.000273
0.000253
0.000301
0.000422
0.000434
0.000315
0.000259
0.000412
0.000296
0.000368
0.000250
0.000251
0.001706
0.000307
0.000268
0.000443
0.000260
0.000266
0.000274
0.000286
0.000298
0.000281
0.000334
0.000399
0.000057
0.000199
0.000247
0.000258
0.000261
0.000252
0.000248
0.000262
0.000256
0.000285
0.001673
0.000232
0.000227
0.000266
0.000274
0.000281
0.000248
0.000264
0.000252
0.000360
0.001803
0.000234
0.000279
0.000436
0.000492
0.000332
0.000238
0.000256
0.000471
0.000466
0.000807
0.000187
0.000057
0.000225
0.000253
0.000254
0.000237
0.000292
0.000257
0.000261
0.000587
0.000400
0.000256
0.000257
0.000244
0.000245
0.000249
0.000267
0.000249
0.000238
0.000275
0.000296
0.000336
0.001667
0.000269
0.000256
0.000409
0.000307
0.000695
0.000644
0.000544
0.000344
0.000238
0.000186
0.000056
0.000211
0.000247
0.000266
0.000241
0.000255
0.000256
0.000253
0.000462
0.001475
0.000240
0.000237
0.000242
0.000255
0.000256
0.000265
0.000287
0.000303
0.000775
0.001388
0.000279
0.000451
0.000263
0.000233
0.000218
0.000256
0.000257
0.000269
0.000268
0.000262
0.000291
0.000170
0.000055
0.000210
0.000250
0.000242
0.000264
0.000239
0.000243
0.000240
0.000259
0.000237
0.000254
0.001628
0.000255
0.000247
0.000242
0.000251
0.000248
0.000246
0.000249
0.000252
0.000257
0.000270
0.001663
0.000283
0.000254
0.000435
0.000255
0.000259
0.000254
0.000266
0.000269
0.000199
0.000057
0.000198
0.000237
0.000248
0.000241
0.000244
0.000248
0.000259
0.000240
0.000260
0.000242
0.000264
0.000260
0.000257
0.000273
0.001632
0.000277
0.000299
0.000210
0.000260
0.000273
0.000265
0.000240
0.000244
0.000264
0.001802
0.000340
0.000384
0.000346
0.000258
0.000280
0.000193
0.000056
0.000207
0.000236
0.000250
0.000270
0.000253
0.000240
0.000264
0.000433
0.000389
0.000445
0.000204
0.000249
0.000255
0.000249
0.001564
0.000523
0.000333
0.000401
0.000315
0.000236
0.000262
0.000286
0.000269
0.001734
0.000497
0.000478
0.000254
0.000248
0.000253
0.000258
0.000186
0.000056
0.000205
0.000231
0.000259
0.000262
0.000317
0.000463
0.000361
0.000285
0.000219
0.000250
0.000265
0.000234
0.000255
0.001730
0.000462
0.000294
0.000231
0.000251
0.000272
0.000279
0.000250
0.000260
0.000273
0.001865
0.000336
0.000381
0.000259
0.000250
0.000260
0.000414
0.000330
0.000056
0.000200
0.000394
0.000329
0.000292
0.000257
0.000251
0.000249
0.000261
0.000239
0.000234
0.000235
0.000252
0.001550
0.000378
0.000288
0.000231
0.000258
0.000248
0.000250
0.000275
0.000279
0.000330
0.000245
0.001811
0.000254
0.000496
0.000244
0.000255
0.000256
0.000266
0.000265
0.000057
0.000388
0.000589
0.000547
0.000219
0.000227
0.000276
0.000230
0.000219
0.000259
0.000255
0.000259
0.001695
0.000248
0.000443
0.000372
0.000216
0.000246
0.000230
0.000244
0.000264
0.000266
0.001849
0.000235
0.000238
0.002073
0.000523
0.000365
0.000249
0.000257
0.000264
0.000190
0.000056
0.000219
0.000236
0.000251
0.000240
0.000255
0.001627
0.000247
0.000234
0.000252
0.000251
0.000250
0.000235
0.000253
0.000254
0.000279
0.000391
0.000653
0.000247
0.000234
0.000267
0.000282
0.000227
0.000249
0.000433
0.000439
0.000279
0.000305
0.000561
0.000457
0.000269
0.000196
0.000056
0.000188
0.000240
0.000255
0.000248
0.000237
0.000241
0.000238
0.000452
0.000419
0.001702
0.000197
0.000240
0.000238
0.000253
0.000256
0.000271
0.000456
0.000458
0.000348
0.000262
0.000242
0.000304
0.000277
0.000254
0.000270
0.000439
0.000343
0.000562
0.000455
0.000494
0.000170
0.000057
0.000193
0.000253
0.000240
0.000224
0.000244
0.000241
0.000248
0.000242
0.000243
0.000288
0.000339
0.000383
0.001446
0.000241
0.000245
0.000245
0.000254
0.000250
0.000262
0.000236
0.000321
0.000404
0.000416
0.000286
0.000253
0.000250
0.000261
0.000273
0.000258
0.000266
0.000384
0.000055
0.000220
0.000234
0.000231
0.000295
0.000499
0.000457
0.000218
0.000263
0.000231
0.000259
0.000248
0.000234
0.000300
0.000249
0.000240
0.000493
0.000414
0.001637
0.000275
0.000237
0.000269
0.000253
0.000258
0.000242
0.000256
0.000464
0.000459
0.000345
0.000416
0.000247
0.000183
0.000056
0.000226
0.000436
0.000238
0.000212
0.000265
0.000242
0.000388
0.000474
0.000330
0.000322
0.000225
0.000270
0.000267
0.000236
0.000522
0.000346
0.000213
0.000260
0.000462
0.001586
0.000267
0.000229
0.000532
0.000237
0.000281
0.000284
0.000251
0.000323
0.000622
0.000357
0.000233
0.000056
0.000220
0.000234
0.000243
0.000238
0.000407
0.000313
0.000295
0.000219
0.000405
0.000439
0.000418
0.000245
0.000238
0.000241
0.000256
0.000265
0.000252
0.000255
0.000238
0.000344
0.000291
0.000348
0.001832
0.000245
0.000250
0.000258
0.000283
0.000355
0.000416
0.000668
0.000455
0.000059
0.000226
0.000331
0.000280
0.000434
0.000383
0.000220
0.000245
0.000310
0.000574
0.000340
0.000258
0.000258
0.000225
0.000268
0.000261
0.000237
0.000256
0.000272
0.000267
0.000257
0.000265
0.000425
0.000647
0.001325
0.000342
0.000457
0.000389
0.000254
0.000435
0.000393
0.000344
0.000057
0.000252
0.000378
0.000271
0.000215
0.000217
0.000248
0.000412
0.000231
0.000233
0.000351
0.000439
0.000460
0.000233
0.000262
0.000264
0.000243
0.000375
0.000389
0.000336
0.000239
0.000247
0.000398
0.000599
0.001702
0.000217
0.000460
0.000289
0.000234
0.000237
0.000528
0.000248
0.000057
0.000203
0.000219
0.000259
0.000232
0.000249
0.000245
0.000251
0.000320
0.000458
0.000280
0.000430
0.000397
0.000283
0.000574
0.000249
0.000236
0.000270
0.000266
0.000234
0.000345
0.000242
0.000230
0.000268
0.000360
0.000648
0.001549
0.000266
0.000241
0.000243
0.000278
0.000183
0.000055
0.000315
0.000471
0.000329
0.000220
0.000273
0.000226
0.000257
0.000241
0.000257
0.000249
0.000223
0.000253
0.000421
0.000524
0.000385
0.000284
0.000250
0.000252
0.000347
0.000380
0.000384
0.000330
0.000421
0.000356
0.000228
0.000252
0.000267
0.000271
0.001785
0.000244
0.000217
0.000055
0.000208
0.000222
0.000259
0.000269
0.000367
0.000539
0.000301
0.000239
0.000246
0.000263
0.000247
0.000248
0.000513
0.000456
0.000480
0.000283
0.000258
0.000275
0.000420
0.000465
0.000406
0.000354
0.000481
0.000451
0.000223
0.000265
0.000265
0.000241
0.000266
0.001720
0.000303
0.000056
0.000297
0.000333
0.000210
0.000233
0.000257
0.000247
0.000247
0.000520
0.000356
0.000304
0.000287
0.000262
0.000354
0.000663
0.000337
0.000231
0.000253
0.000252
0.000252
0.000266
0.000267
0.000273
0.000243
0.000259
0.000299
0.000431
0.000367
0.000348
0.000234
0.000251
0.000189
0.000056
0.000431
0.000289
0.000522
0.000219
0.000202
0.000247
0.000245
0.000255
0.000242
0.000218
0.000254
0.000275
0.000292
0.000404
0.000482
0.000502
0.000287
0.000326
0.000378
0.000338
0.000296
0.000241
0.000248
0.000263
0.001733
0.000267
0.001719
0.000938
0.000393
0.000337
0.000162
0.000056
0.000199
0.000243
0.000236
0.000238
0.000264
0.000249
0.000247
0.000271
0.000225
0.000312
0.000372
0.000431
0.000336
0.000378
0.000266
0.000245
0.000244
0.000293
0.000250
0.000232
0.000249
0.000261
0.001800
0.000244
0.000264
0.000264
0.000278
0.000261
0.001868
0.000456
0.000337
0.000056
0.000214
0.000209
0.000239
0.000244
0.000248
0.000270
0.000224
0.000258
0.000257
0.000329
0.000635
0.000458
0.000243
0.000205
0.000232
0.000250
0.000326
0.000445
0.000367
0.000263
0.001765
0.000257
0.000247
0.000243
0.000268
0.000267
0.000243
0.000257
0.000328
0.000309
0.000361
0.000057
0.000249
0.000218
0.000240
0.000260
0.000244
0.000244
0.000254
0.000255
0.000243
0.000254
0.000237
0.000315
0.000348
0.000346
0.000377
0.000270
0.000475
0.000233
0.000251
0.000255
0.000258
0.000263
0.000273
0.000257
0.000278
0.001781
0.000255
0.000248
0.000263
0.000243
0.000189
0.000056
0.000245
0.000411
0.000203
0.000233
0.000232
0.000229
0.000237
0.000261
0.000249
0.000225
0.000231
0.000259
0.000267
0.000408
0.000337
0.000380
0.000281
0.000244
0.000253
0.000252
0.000260
0.000257
0.000253
0.000269
0.000247
0.000266
0.000341
0.001599
0.000269
0.000239
0.000190
0.000056
0.000210
0.000237
0.000245
0.000254
0.000386
0.000324
0.000402
0.000313
0.000220
0.000258
0.000255
0.000242
0.000247
0.000253
0.000263
0.000261
0.000244
0.000257
0.000269
0.000243
0.000270
0.000270
0.000243
0.000239
0.000246
0.000273
0.000279
0.000260
0.000259
0.000264
0.000188
0.000057
0.000218
0.000237
0.000257
0.000255
0.000231
0.000254
0.000242
0.000262
0.000298
0.000224
0.000227
0.000253
0.000247
0.000252
0.000269
0.000260
0.000254
0.000254
0.000311
0.000243
0.000263
0.000294
0.000272
0.000250
0.000278
0.000270
0.000273
0.000251
0.000257
0.000457
0.000578
0.000058
0.000222
0.000284
0.000211
0.000238
0.000240
0.000252
0.000240
0.000250
0.000249
0.000244
0.000265
0.000266
0.000523
0.000481
0.001571
0.000208
0.000467
0.000239
0.000253
0.000457
0.000451
0.000381
0.000220
0.000271
0.000257
0.000254
0.000285
0.000253
0.000310
0.000256
0.000187
0.000055
0.000315
0.000560
0.000322
0.000235
0.000211
0.000255
0.000251
0.000244
0.000234
0.000243
0.000261
0.000254
0.000229
0.000261
0.000349
0.000509
0.000413
0.001829
0.000200
0.000245
0.000338
0.000421
0.000432
0.000298
0.000334
0.000308
0.000306
0.000234
0.000233
0.000252
0.000200
0.000055
0.000220
0.000232
0.000237
0.000282
0.000345
0.000449
0.000383
0.000236
0.000250
0.000217
0.000247
0.000266
0.000269
0.000261
0.000248
0.000256
0.000253
0.000582
0.000331
0.000430
0.000211
0.001776
0.000300
0.000494
0.000471
0.000503
0.000318
0.000227
0.000264
0.000266
0.000443
0.000057
0.000194
0.000260
0.000230
0.000281
0.000388
0.000480
0.000397
0.000236
0.000226
0.000282
0.000252
0.000262
0.000251
0.000294
0.000311
0.000236
0.000228
0.000387
0.000461
0.000346
0.000527
0.001811
0.000253
0.000532
0.000408
0.000375
0.000219
0.000283
0.000258
0.000277
0.000199
0.000056
0.000211
0.000343
0.000359
0.000333
0.000376
0.000291
0.000377
0.000212
0.000267
0.000237
0.000275
0.000229
0.000249
0.000252
0.000239
0.000274
0.000309
0.000352
0.000529
0.000381
0.000277
0.000257
0.000254
0.001699
0.000449
0.000504
0.000679
0.000227
0.000271
0.000306
0.000159
0.000055
0.000193
0.000237
0.000320
0.000254
0.000238
0.000363
0.000452
0.000310
0.000252
0.000512
0.000242
0.000240
0.000263
0.000271
0.000278
0.000267
0.000214
0.000380
0.000491
0.000378
0.000272
0.000225
0.000263
0.000253
0.000262
0.000262
0.000248
0.000249
0.000266
0.000288
0.000216
0.000057
0.000367
0.000321
0.000207
0.000256
0.000248
0.000259
0.000253
0.000274
0.000247
0.000240
0.000259
0.000352
0.000422
0.000395
0.000401
0.000219
0.000223
0.000241
0.000259
0.000269
0.000288
0.000257
0.000241
0.000254
0.000284
0.000339
0.000391
0.000369
0.000343
0.000248
0.000174
0.000056
0.000206
0.000234
0.000288
0.000235
0.000238
0.000248
0.000259
0.000255
0.000489
0.000214
0.000261
0.000251
0.000243
0.000270
0.000271
0.000272
0.000262
0.000357
0.000217
0.000245
0.000250
0.000264
0.000261
0.000268
0.000277
0.000266
0.000259
0.000255
0.000516
0.000241
0.000153
0.000072
0.000197
0.000234
0.000264
0.000251
0.000225
0.000243
0.000364
0.000413
0.000234
0.000237
0.000248
0.000257
0.000235
0.000229
0.000421
0.001832
0.000244
0.000259
0.000284
0.000389
0.000365
0.000355
0.000387
0.000359
0.000387
0.000421
0.000241
0.000267
0.000270
0.000278
0.001384
0.000056
0.000409
0.000260
0.000283
0.000216
0.000237
0.000249
0.000236
0.000257
0.000242
0.000267
0.000248
0.000256
0.000256
0.000292
0.000537
0.001632
0.000242
0.000225
0.000250
0.000266
0.000236
0.000273
0.000360
0.000400
0.000385
0.000228
0.000223
0.000267
0.000276
0.000262
0.000199
0.000057
0.001205
0.000557
0.000299
0.000277
0.000247
0.000218
0.000232
0.000242
0.000487
0.000220
0.000242
0.000249
0.000357
0.000431
0.000464
0.000356
0.000239
0.000239
0.000342
0.000346
0.000273
0.000256
0.000268
0.000250
0.000264
0.000569
0.000599
0.000223
0.000262
0.000258
0.000169
0.000056
0.000208
0.000223
0.000242
0.000240
0.001472
0.000303
0.000220
0.000252
0.000241
0.000249
0.000252
0.000253
0.000244
0.000263
0.000268
0.000364
0.000361
0.000640
0.000270
0.001749
0.000272
0.000268
0.000288
0.000515
0.000476
0.000413
0.000242
0.000245
0.000256
0.000263
0.000205
0.000057
0.000224
0.000250
0.000235
0.000327
0.001247
0.000241
0.000249
0.000258
0.000241
0.000238
0.000235
0.000246
0.000281
0.000247
0.000251
0.000312
0.000454
0.000402
0.000335
0.000266
0.000260
0.000269
0.000247
0.000235
0.000289
0.000263
0.000242
0.000276
0.000289
0.000422
0.000509
0.000056
0.000230
0.000246
0.000241
0.000258
0.000262
0.000242
0.000239
0.000259
0.000265
0.000256
0.001429
0.000244
0.000228
0.000246
0.000244
0.000248
0.000266
0.000267
0.000264
0.000266
0.000267
0.000514
0.000409
0.000413
0.000229
0.000294
0.001737
0.000263
0.000253
0.000343
0.000408
0.000056
0.000206
0.000415
0.000428
0.000500
0.000517
0.000533
0.001499
0.000419
0.000526
0.000643
0.000553
0.000746
0.000474
0.000598
0.000586
0.001895
0.000377
0.000454
0.000408
0.000314
0.000248
0.000275
0.000261
0.000257
0.000272
0.000271
0.000299
0.000284
0.000261
0.000288
0.001376
0.000056
0.000195
0.000227
0.000246
0.000240
0.000255
0.000258
0.000236
0.000238
0.000251
0.000251
0.000239
0.000244
0.000253
0.000257
0.000263
0.000283
0.001799
0.000275
0.000241
0.000244
0.000262
0.000254
0.000275
0.000282
0.000480
0.000348
0.000332
0.000239
0.000272
0.000280
0.000209
0.000056
0.000197
0.001360
0.000338
0.000264
0.000253
0.000244
0.000242
0.000239
0.000227
0.000237
0.000221
0.000238
0.000255
0.000506
0.000367
0.000282
0.000283
0.000239
0.001927
0.000229
0.000243
0.000268
0.000257
0.000264
0.000274
0.000286
0.000266
0.000250
0.000270
0.000315
0.000204
0.000057
0.000220
0.000246
0.000248
0.001434
0.000242
0.000222
0.000260
0.000247
0.000237
0.000262
0.000252
0.000247
0.000247
0.000258
0.000262
0.000251
0.000266
0.000266
0.000265
0.000262
0.000253
0.001768
0.000295
0.001741
0.000269
0.000245
0.000277
0.000261
0.000267
0.000278
0.000200
0.000056
0.000201
0.000244
0.001337
0.000246
0.000238
0.000246
0.000258
0.000258
0.000242
0.000253
0.000241
0.000251
0.000261
0.000262
0.000255
0.000267
0.000275
0.000268
0.000308
0.000236
0.001860
0.000233
0.001834
0.000247
0.000256
0.000276
0.000230
0.000249
0.000254
0.000270
0.000190
0.000056
0.001431
0.000239
0.000215
0.000242
0.000243
0.000237
0.000373
0.000263
0.000255
0.000257
0.000248
0.000260
0.000235
0.000511
0.000247
0.000312
0.000229
0.000262
0.000272
0.000249
0.000262
0.000342
0.000228
0.000255
0.000272
0.000272
0.000276
0.000442
0.000534
0.000364
0.000196
0.000056
0.000204
0.000241
0.000263
0.000303
0.000373
0.000250
0.001723
0.000280
0.000281
0.000266
0.000250
0.000268
0.000298
0.000241
0.000293
0.000308
0.000338
0.000626
0.000332
0.000268
0.000283
0.000287
0.000258
0.000265
0.000336
0.000290
0.000233
0.000248
0.000265
0.000312
0.000456
0.000055
0.000273
0.000446
0.000279
0.000257
0.000250
0.000227
0.000235
0.000241
0.000260
0.000253
0.001530
0.000210
0.000226
0.000256
0.000237
0.000289
0.000272
0.000238
0.000266
0.000271
0.000267
0.000365
0.000567
0.000283
0.000275
0.000289
0.000262
0.000262
0.000234
0.000310
0.000160
0.000056
0.000202
0.000231
0.000431
0.000312
0.000384
0.000271
0.000217
0.000250
0.000252
0.000247
0.000238
0.000248
0.000259
0.000267
0.000238
0.000236
0.000482
0.001135
0.000260
0.000225
0.000280
0.000245
0.000358
0.000420
0.000248
0.000333
0.000577
0.000355
0.000355
0.000249
0.000178
0.000058
0.000227
0.000245
0.000256
0.000264
0.000255
0.000244
0.000304
0.000441
0.000412
0.000311
0.000362
0.000393
0.000383
0.000361
0.000254
0.000252
0.000251
0.000247
0.000369
0.001459
0.000316
0.000205
0.000277
0.000271
0.000232
0.000238
0.000261
0.000307
0.000425
0.000432
0.000262
0.000056
0.000218
0.000239
0.000251
0.000266
0.000216
0.000251
0.000237
0.000260
0.000312
0.000285
0.000504
0.000362
0.000244
0.000226
0.000282
0.000229
0.000253
0.000262
0.000264
0.000247
0.000437
0.000280
0.000382
0.000358
0.000345
0.000253
0.000273
0.000273
0.000251
0.000341
0.000167
0.000057
0.000303
0.000318
0.000285
0.000407
0.000453
0.000333
0.000260
0.000240
0.000247
0.000272
0.000258
0.000260
0.000242
0.000247
0.000242
0.000231
0.000264
0.000371
0.000526
0.000312
0.000227
0.000265
0.000252
0.000245
0.000264
0.000277
0.000274
0.000261
0.000280
0.000257
0.000277
0.000056
0.000251
0.000360
0.000236
0.000247
0.000246
0.000249
0.000240
0.000251
0.000264
0.000262
0.000252
0.000240
0.000317
0.000456
0.000457
0.000290
0.000224
0.000238
0.000262
0.000265
0.000259
0.000264
0.000261
0.000264
0.000273
0.000330
0.000422
0.000562
0.000407
0.000250
0.000181
0.000056
0.000396
0.000203
0.000251
0.000229
0.000252
0.000242
0.000237
0.000255
0.000256
0.000258
0.000222
0.000246
0.000271
0.000228
0.000238
0.000269
0.000251
0.000264
0.000288
0.000241
0.000264
0.000263
0.000264
0.000262
0.000266
0.000239
0.000267
0.000280
0.000254
0.000278
0.000200
0.000057
0.000199
0.000235
0.000246
0.000250
0.000230
0.000260
0.000257
0.000240
0.000254
0.000279
0.000229
0.000232
0.000265
0.000394
0.000254
0.000280
0.000261
0.000267
0.000254
0.000277
0.000271
0.000242
0.000241
0.000250
0.000267
0.000276
0.000250
0.000256
0.000273
0.000255
0.000203
0.000056
0.000218
0.000359
0.000365
0.000279
0.000298
0.000252
0.000278
0.000258
0.000222
0.000244
0.000253
0.000259
0.000253
0.000241
0.000253
0.000280
0.000244
0.000265
0.000242
0.000267
0.000275
0.000261
0.000281
0.000256
0.000267
0.000255
0.000257
0.000271
0.000267
0.000265
0.000192
0.000057
0.000202
0.000238
0.000256
0.000263
0.000488
0.000213
0.000209
0.000246
0.000261
0.000438
0.000531
0.000274
0.000223
0.000253
0.000266
0.000269
0.000239
0.000269
0.000259
0.000265
0.000269
0.000258
0.000261
0.000246
0.000558
0.000564
0.000211
0.000301
0.000261
0.000260
0.000189
0.000057
0.000201
0.000221
0.000251
0.000249
0.000307
0.000679
0.000298
0.000379
0.000211
0.000247
0.000247
0.000258
0.000249
0.000258
0.000249
0.000275
0.000256
0.000244
0.000618
0.000410
0.000295
0.000246
0.000259
0.000281
0.000282
0.000254
0.000264
0.000271
0.000252
0.000328
0.000305
0.000056
0.000289
0.000251
0.000224
0.000237
0.000258
0.000249
0.000227
0.000249
0.000243
0.000255
0.000247
0.000253
0.000247
0.000421
0.000535
0.000433
0.000202
0.000257
0.000262
0.000248
0.000266
0.000270
0.000493
0.000222
0.000260
0.000572
0.000440
0.000487
0.000252
0.000255
0.000186
0.000056
0.000226
0.000234
0.000246
0.000237
0.000255
0.000261
0.000317
0.000727
0.000297
0.000400
0.000219
0.000264
0.000275
0.000274
0.000255
0.000250
0.000236
0.000252
0.000265
0.000363
0.000359
0.000647
0.000368
0.000257
0.000361
0.000371
0.000493
0.000232
0.000271
0.000486
0.000309
0.000056
0.000273
0.000230
0.000429
0.000229
0.000226
0.000259
0.000262
0.000258
0.000232
0.000240
0.000262
0.000468
0.000252
0.000394
0.000240
0.000254
0.000249
0.000244
0.000267
0.000277
0.000274
0.000252
0.000249
0.000275
0.000280
0.000507
0.000499
0.000244
0.000246
0.000278
0.000192
0.000057
0.000188
0.000250
0.000233
0.000240
0.000251
0.000243
0.000360
0.000406
0.000442
0.000283
0.000385
0.000212
0.000248
0.000265
0.000254
0.000237
0.000258
0.000260
0.000291
0.000380
0.000510
0.000314
0.000481
0.000276
0.000422
0.000389
0.000377
0.000242
0.000259
0.000314
0.000328
0.000056
0.000243
0.000281
0.000224
0.000253
0.000257
0.000260
0.000255
0.000238
0.000279
0.000240
0.000230
0.000335
0.000465
0.000376
0.000385
0.000217
0.000268
0.000267
0.000267
0.000233
0.000246
0.000258
0.000263
0.000273
0.000275
0.000334
0.000513
0.000448
0.000241
0.000285
0.000190
0.000057
0.000206
0.000240
0.000263
0.000255
0.000245
0.000332
0.000512
0.000480
0.000340
0.000687
0.000263
0.000253
0.000213
0.000257
0.000250
0.000266
0.000274
0.000275
0.000481
0.000459
0.001470
0.000302
0.000261
0.000261
0.000293
0.000272
0.000469
0.000322
0.000392
0.000301
0.000164
0.000057
0.000203
0.000228
0.000248
0.000244
0.000237
0.000255
0.000274
0.000251
0.000247
0.000333
0.000327
0.000383
0.000273
0.000365
0.000363
0.000344
0.000261
0.000230
0.000271
0.000259
0.000243
0.000248
0.000284
0.000247
0.000317
0.000432
0.000430
0.000312
0.000243
0.000266
0.000188
0.000057
0.000193
0.000243
0.000259
0.000254
0.000241
0.000235
0.000472
0.000215
0.000238
0.000246
0.000249
0.000253
0.000267
0.000248
0.000250
0.000267
0.000260
0.000266
0.000271
0.000255
0.000259
0.000287
0.000296
0.000248
0.000262
0.000281
0.000266
0.000270
0.000260
0.000271
0.000168
0.000056
0.000209
0.000250
0.000348
0.000362
0.000370
0.000262
0.000233
0.000248
0.000262
0.000248
0.000248
0.000256
0.000265
0.000261
0.000239
0.000245
0.000246
0.000265
0.000260
0.000345
0.000464
0.000400
0.000227
0.000266
0.000281
0.000231
0.000266
0.000252
0.000272
0.000278
0.000197
0.000056
0.000354
0.000367
0.000432
0.000218
0.000252
0.000253
0.000417
0.000209
0.000241
0.000259
0.000251
0.000334
0.000309
0.000434
0.001881
0.000248
0.000244
0.000248
0.000275
0.000241
0.000273
0.000512
0.000700
0.000205
0.000236
0.000259
0.000289
0.000412
0.000277
0.000280
0.000167
0.000055
0.000242
0.000362
0.000345
0.000310
0.000493
0.000206
0.000240
0.000252
0.000252
0.000242
0.000260
0.000245
0.000262
0.000347
0.000355
0.000508
0.000210
0.000246
0.000263
0.000259
0.000262
0.000317
0.000251
0.000262
0.000282
0.000440
0.000542
0.000438
0.000387
0.000239
0.000204
0.000056
0.000219
0.000237
0.000273
0.000214
0.000247
0.000255
0.000265
0.000274
0.000345
0.000323
0.000476
0.000349
0.000227
0.000249
0.000268
0.000277
0.000302
0.000246
0.000275
0.000273
0.000235
0.000281
0.000519
0.000340
0.000294
0.000247
0.000271
0.000434
0.000415
0.000306
0.000170
0.000055
0.000190
0.000237
0.000330
0.000414
0.000388
0.000213
0.000239
0.000251
0.000267
0.000249
0.000259
0.000267
0.000222
0.000259
0.000258
0.000293
0.000404
0.000348
0.000305
0.000337
0.000492
0.000229
0.000280
0.000277
0.000302
0.000281
0.000257
0.000264
0.000484
0.000465
0.000238
0.000056
0.000211
0.000237
0.000247
0.000251
0.000242
0.000498
0.000194
0.000256
0.000263
0.000311
0.000493
0.000615
0.000206
0.000241
0.000246
0.000246
0.000258
0.000243
0.000265
0.000274
0.000237
0.000263
0.000324
0.000460
0.000350
0.000426
0.000282
0.000306
0.000315
0.000258
0.000178
0.000057
0.000223
0.000230
0.000256
0.000480
0.000389
0.000241
0.000254
0.000228
0.000240
0.000261
0.000251
0.000248
0.000254
0.000261
0.000268
0.000249
0.000243
0.000249
0.000360
0.000330
0.000498
0.000371
0.000218
0.000255
0.000278
0.000277
0.000259
0.000257
0.000267
0.000267
0.000186
0.000056
0.000246
0.000390
0.000484
0.000249
0.000207
0.000256
0.000340
0.000448
0.000275
0.000232
0.000223
0.000276
0.000418
0.000304
0.000407
0.000294
0.000230
0.000245
0.000249
0.000269
0.000270
0.000259
0.000264
0.000288
0.000252
0.000280
0.000375
0.000505
0.000255
0.000241
0.000190
0.000055
0.000219
0.000244
0.000242
0.000257
0.000248
0.000265
0.000254
0.000233
0.000248
0.000248
0.000269
0.000239
0.000260
0.001451
0.000233
0.000262
0.000251
0.000253
0.000272
0.000277
0.000264
0.000238
0.000277
0.000252
0.000269
0.000266
0.000269
0.000270
0.000262
0.000268
0.000189
0.000056
0.000212
0.000224
0.000245
0.000250
0.000238
0.000243
0.000261
0.000260
0.000228
0.000245
0.000251
0.000262
0.000255
0.000255
0.000255
0.000262
0.000256
0.000249
0.000271
0.000254
0.000255
0.000261
0.000248
0.000253
0.001287
0.000283
0.000627
0.000298
0.000406
0.000251
0.000185
0.000056
0.000186
0.000235
0.000245
0.000255
0.000410
0.000238
0.000239
0.000243
0.000254
0.000526
0.000279
0.000346
0.000232
0.000237
0.000263
0.000259
0.000254
0.000257
0.000256
0.000255
0.000262
0.000255
0.000269
0.000408
0.000524
0.000449
0.000219
0.000270
0.001366
0.000243
0.000184
0.000056
0.000327
0.000380
0.000323
0.000269
0.000228
0.000227
0.000229
0.000252
0.000261
0.000254
0.000245
0.000265
0.000285
0.000296
0.000520
0.000379
0.000341
0.000216
0.000254
0.000253
0.000269
0.000262
0.000274
0.000263
0.000270
0.000259
0.000267
0.000614
0.000457
0.000278
0.000156
0.000056
0.000203
0.000231
0.001261
0.000429
0.000285
0.000460
0.000389
0.000485
0.000279
0.000336
0.000229
0.000225
0.000260
0.000257
0.000246
0.000263
0.000405
0.000496
0.000315
0.000388
0.000252
0.000250
0.000254
0.000506
0.000236
0.000267
0.000258
0.000276
0.000350
0.000499
0.000296
0.000057
0.000364
0.000340
0.000211
0.000226
0.001608
0.000405
0.000316
0.000245
0.000244
0.000252
0.000224
0.000242
0.000250
0.000265
0.000251
0.000261
0.000238
0.000255
0.000415
0.000373
0.000490
0.000234
0.000247
0.000255
0.000261
0.000274
0.000268
0.000236
0.000265
0.000279
0.000194
0.000056
0.000414
0.000302
0.000235
0.000226
0.000247
0.000246
0.000263
0.000234
0.000230
0.000230
0.001524
0.000356
0.000264
0.000257
0.000233
0.000251
0.000275
0.000262
0.000237
0.000274
0.000271
0.000252
0.000258
0.000442
0.000364
0.000488
0.000248
0.000251
0.000281
0.000281
0.000166
0.000055
0.000206
0.000414
0.000220
0.000241
0.000316
0.000460
0.000380
0.000310
0.000467
0.000208
0.000227
0.000253
0.000260
0.000265
0.001335
0.000363
0.000336
0.000281
0.000248
0.000267
0.000280
0.000247
0.000254
0.000256
0.000261
0.000269
0.000462
0.000428
0.000298
0.000270
0.000157
0.000056
0.000221
0.000220
0.000251
0.000239
0.000232
0.000261
0.000237
0.000251
0.000322
0.000345
0.000383
0.000321
0.000259
0.000241
0.000263
0.000253
0.000277
0.000259
0.000270
0.000229
0.000254
0.000319
0.001248
0.000263
0.000250
0.000253
0.000259
0.000265
0.000262
0.000257
0.000189
0.000056
0.000224
0.000345
0.000354
0.000370
0.000239
0.000239
0.000256
0.000266
0.000251
0.000257
0.000251
0.000274
0.000236
0.000255
0.000258
0.000261
0.000265
0.000271
0.000264
0.000249
0.000250
0.000286
0.000256
0.000281
0.000293
0.000258
0.000271
0.000256
0.000259
0.000448
0.001352
0.000056
0.000210
0.000234
0.000259
0.000220
0.000253
0.000257
0.000249
0.000229
0.000244
0.000249
0.000271
0.000257
0.000253
0.000244
0.000250
0.000239
0.001736
0.000249
0.000251
0.000256
0.000244
0.000265
0.000273
0.000258
0.000266
0.000262
0.000269
0.000273
0.000281
0.000250
0.000217
0.000057
0.000281
0.000296
0.001311
0.000221
0.000242
0.000246
0.000267
0.000238
0.000260
0.000253
0.000232
0.000394
0.000358
0.000443
0.000279
0.000223
0.000248
0.000252
0.000264
0.000264
0.000262
0.000256
0.000261
0.000279
0.000266
0.000355
0.000416
0.000351
0.000316
0.000249
0.000188
0.000057
0.000222
0.000253
0.000258
0.000233
0.000253
0.000214
0.000242
0.000253
0.000441
0.001322
0.000272
0.000209
0.000251
0.000286
0.000238
0.000267
0.000258
0.000266
0.000290
0.000415
0.000402
0.000242
0.000253
0.000247
0.000274
0.000285
0.000259
0.000333
0.000232
0.000275
0.000191
0.000057
0.000223
0.000411
0.000407
0.000219
0.000231
0.000236
0.000244
0.000276
0.000270
0.000242
0.000246
0.000235
0.000442
0.000555
0.000423
0.001457
0.000250
0.000280
0.000334
0.000329
0.000478
0.000439
0.000447
0.000408
0.000226
0.000266
0.000268
0.000275
0.000258
0.000276
0.000195
0.000055
0.000191
0.000264
0.000445
0.000421
0.000413
0.000231
0.000246
0.000232
0.000250
0.000258
0.000249
0.000262
0.000290
0.000221
0.000268
0.000300
0.000357
0.000418
0.000377
0.001328
0.000262
0.000259
0.000259
0.000258
0.000420
0.000475
0.000373
0.000256
0.000281
0.000274
0.000189
0.000057
0.000199
0.000265
0.000221
0.000242
0.000248
0.000310
0.000414
0.000381
0.000378
0.000221
0.000240
0.000261
0.000267
0.000261
0.000262
0.000274
0.000255
0.000253
0.000293
0.000272
0.000438
0.000427
0.000326
0.001346
0.000416
0.000235
0.000278
0.000474
0.000389
0.000353
0.000308
0.000056
0.000208
0.000230
0.000247
0.000245
0.000252
0.000254
0.001673
0.000249
0.000221
0.000249
0.000247
0.000244
0.000254
0.000325
0.000324
0.000286
0.000331
0.000329
0.000423
0.000460
0.000257
0.000274
0.000228
0.001419
0.000339
0.000344
0.000525
0.000361
0.000325
0.000277
0.000178
0.000057
0.000229
0.000242
0.000254
0.000262
0.000241
0.000255
0.001711
0.000243
0.000230
0.000266
0.000336
0.000408
0.001432
0.000370
0.000381
0.000256
0.000245
0.000241
0.000270
0.000273
0.001580
0.000533
0.000374
0.000296
0.000245
0.000245
0.000264
0.000278
0.000248
0.000256
0.000188
0.000057
0.000211
0.000247
0.000265
0.000246
0.000262
0.000309
0.000251
0.000259
0.000245
0.000252
0.000246
0.000253
0.000266
0.000269
0.000250
0.001507
0.000272
0.000233
0.000264
0.000275
0.000276
0.000252
0.000435
0.001265
0.000276
0.000241
0.000269
0.000251
0.000398
0.000238
0.000205
0.000055
0.000198
0.000243
0.000222
0.000243
0.000241
0.000229
0.000231
0.001696
0.000253
0.000224
0.000253
0.000372
0.000225
0.000222
0.000259
0.001391
0.000232
0.000255
0.000272
0.000246
0.000261
0.000348
0.000270
0.001318
0.000274
0.000259
0.000262
0.000252
0.001385
0.000279
0.000178
0.000056
0.000280
0.000318
0.000222
0.000231
0.000255
0.000239
0.000261
0.000268
0.000268
0.000251
0.000256
0.000267
0.000251
0.000248
0.000387
0.001435
0.000231
0.000270
0.000258
0.000244
0.000283
0.000264
0.000248
0.001510
0.000343
0.000240
0.000279
0.001253
0.000281
0.000240
0.000267
0.000056
0.000232
0.000386
0.000349
0.000216
0.000237
0.000240
0.000260
0.000257
0.000264
0.000274
0.000239
0.000250
0.000259
0.000255
0.000428
0.001223
0.000230
0.000261
0.000263
0.000274
0.000229
0.000244
0.000252
0.000327
0.001281
0.000249
0.000247
0.000275
0.000236
0.001343
0.000315
0.000055
0.000298
0.000221
0.000230
0.000231
0.000239
0.000279
0.000222
0.000247
0.000278
0.000249
0.000241
0.000251
0.000247
0.000331
0.000411
0.001475
0.000229
0.000241
0.000306
0.000506
0.000284
0.000398
0.001345
0.000286
0.000253
0.000270
0.000250
0.001302
0.000371
0.000462
0.000300
0.000056
0.000229
0.000246
0.000256
0.000256
0.000251
0.000250
0.000275
0.000244
0.000265
0.000263
0.000391
0.000411
0.001316
0.000283
0.000220
0.000262
0.000279
0.000223
0.000253
0.000232
0.000341
0.001232
0.000264
0.000251
0.000252
0.000267
0.001416
0.000496
0.000485
0.000223
0.000193
0.000056
0.000204
0.000239
0.000260
0.000221
0.000254
0.000264
0.000242
0.000305
0.000399
0.000477
0.000266
0.001490
0.000222
0.000230
0.000268
0.000253
0.000258
0.000345
0.001630
0.000256
0.000403
0.000329
0.001316
0.000313
0.000321
0.000315
0.000255
0.000271
0.000259
0.000274
0.000190
0.000072
0.000189
0.000236
0.000329
0.000244
0.000295
0.000550
0.000288
0.000301
0.001465
0.000276
0.000347
0.000263
0.000224
0.000335
0.000357
0.001313
0.000276
0.000243
0.000239
0.000269
0.001636
0.000259
0.000283
0.000269
0.000267
0.000253
0.000464
0.000328
0.000243
0.000246
0.000260
0.000056
0.000248
0.000359
0.000343
0.000262
0.000222
0.001526
0.000211
0.000252
0.000266
0.000278
0.000259
0.000235
0.000306
0.001477
0.000263
0.000231
0.000434
0.001180
0.000330
0.000441
0.000418
0.000240
0.000240
0.000258
0.000272
0.000245
0.000461
0.000217
0.000268
0.000277
0.000196
0.000057
0.000219
0.000248
0.000358
0.000370
0.001301
0.000277
0.000307
0.000235
0.000254
0.000241
0.000245
0.000253
0.001556
0.000262
0.000231
0.000259
0.001353
0.000304
0.000406
0.000399
0.000427
0.000234
0.000248
0.000249
0.000270
0.000284
0.000270
0.000254
0.000268
0.000247
0.000194
0.000056
0.000246
0.000324
0.001507
0.000229
0.000261
0.000271
0.000244
0.000249
0.000263
0.000350
0.001417
0.000216
0.000260
0.000276
0.000246
0.001252
0.000685
0.000331
0.000315
0.000407
0.000291
0.000251
0.000269
0.000266
0.000264
0.000289
0.000274
0.000337
0.000391
0.000437
0.001372
0.000070
0.000192
0.000236
0.000254
0.000219
0.000250
0.000435
0.000508
0.001254
0.000234
0.000247
0.000247
0.001457
0.000436
0.000298
0.000230
0.000404
0.000248
0.000253
0.000264
0.000289
0.000227
0.000271
0.000278
0.000257
0.000254
0.000331
0.000372
0.000498
0.001505
0.000222
0.000186
0.000056
0.000192
0.000250
0.000337
0.000549
0.001242
0.000279
0.000253
0.000264
0.000239
0.000253
0.000254
0.000281
0.000343
0.000484
0.000350
0.000231
0.000258
0.000277
0.000240
0.000278
0.000254
0.000271
0.000258
0.000263
0.000261
0.000386
0.000521
0.000311
0.000320
0.001400
0.000194
0.000056
0.000197
0.000239
0.000262
0.000474
0.000331
0.000311
0.000314
0.000333
0.000263
0.000284
0.000236
0.000268
0.000251
0.000306
0.000235
0.000348
0.000482
0.000339
0.000287
0.000387
0.000273
0.000408
0.000219
0.000255
0.000265
0.000266
0.000244
0.000298
0.000342
0.000513
0.000292
0.000056
0.000202
0.001406
0.000253
0.000327
0.000402
0.000460
0.000337
0.000314
0.000220
0.000242
0.000265
0.000242
0.000266
0.000270
0.000263
0.000258
0.000261
0.001319
0.000298
0.000252
0.000259
0.000265
0.000273
0.000281
0.000267
0.000256
0.000289
0.000235
0.000347
0.000397
0.000336
0.000058
0.000214
0.000259
0.000219
0.001510
0.000327
0.000219
0.000227
0.000253
0.000229
0.000246
0.000255
0.000269
0.000252
0.000248
0.000271
0.000247
0.000285
0.000233
0.000264
0.000274
0.001409
0.000241
0.000239
0.000279
0.000257
0.000246
0.000268
0.000274
0.000266
0.000486
0.000351
0.000056
0.000197
0.000233
0.000392
0.000281
0.000245
0.000256
0.001532
0.000395
0.000254
0.000215
0.000265
0.000311
0.000333
0.000230
0.000228
0.000253
0.000243
0.000265
0.000259
0.000260
0.000484
0.000486
0.001136
0.000279
0.000230
0.000260
0.000264
0.000262
0.000272
0.000259
0.000501
0.000059
0.000217
0.000340
0.000218
0.000233
0.000253
0.000242
0.000242
0.000230
0.000287
0.001620
0.000360
0.000282
0.000241
0.000250
0.000259
0.000244
0.000262
0.000271
0.000281
0.000290
0.000309
0.000490
0.000446
0.001364
0.000241
0.000261
0.000274
0.000261
0.000267
0.000270
0.000437
0.000057
0.000275
0.000243
0.000238
0.000237
0.000223
0.000244
0.000255
0.000260
0.000268
0.001572
0.000350
0.000260
0.000261
0.000256
0.000461
0.000267
0.000527
0.000376
0.000297
0.000331
0.000434
0.000487
0.001247
0.000265
0.000238
0.000255
0.001702
0.000471
0.000600
0.000323
0.000142
0.000056
0.000208
0.000232
0.000237
0.000239
0.000257
0.000244
0.000249
0.000517
0.000463
0.000495
0.000229
0.000215
0.000241
0.000265
0.000266
0.000256
0.000246
0.000258
0.000254
0.000272
0.000273
0.000386
0.001371
0.000227
0.000252
0.000272
0.001903
0.000376
0.000375
0.000355
0.000154
0.000056
0.000249
0.000242
0.000244
0.001618
0.000374
0.000214
0.000236
0.000260
0.000257
0.000285
0.000374
0.000366
0.000363
0.000276
0.000492
0.000329
0.000391
0.001194
0.000290
0.000219
0.000256
0.000261
0.000272
0.000407
0.000604
0.000484
0.000254
0.000256
0.000265
0.000281
0.000189
0.000057
0.000183
0.000239
0.000239
0.001569
0.000222
0.000236
0.000240
0.000253
0.000240
0.000253
0.000253
0.000268
0.000270
0.000272
0.000237
0.000461
0.000455
0.000265
0.001383
0.000234
0.000264
0.000263
0.000256
0.000268
0.000375
0.000522
0.000404
0.000265
0.000292
0.000222
0.000447
0.000056
0.000201
0.000245
0.000250
0.001519
0.000347
0.000198
0.000263
0.000249
0.000251
0.000255
0.000251
0.000254
0.000262
0.000249
0.000383
0.000531
0.001390
0.000743
0.000273
0.000325
0.000255
0.000237
0.000246
0.000274
0.001684
0.000810
0.000222
0.000262
0.000274
0.000291
0.000183
0.000057
0.000208
0.000234
0.000250
0.000255
0.000248
0.000242
0.000245
0.000255
0.000236
0.000233
0.000290
0.000283
0.000254
0.000246
0.000263
0.000247
0.000272
0.001588
0.000716
0.000346
0.000347
0.000221
0.000251
0.000279
0.000273
0.000258
0.000276
0.000263
0.001382
0.000395
0.000340
0.000057
0.000202
0.000225
0.000249
0.000253
0.000259
0.000234
0.000253
0.000249
0.000254
0.000262
0.000261
0.000429
0.000442
0.000325
0.000228
0.000244
0.000263
0.001390
0.000680
0.000477
0.000366
0.000250
0.000237
0.000247
0.000270
0.000243
0.000270
0.000272
0.001468
0.000448
0.000184
0.000056
0.000196
0.000227
0.000242
0.000252
0.000250
0.000259
0.000227
0.000248
0.000269
0.000262
0.000394
0.000432
0.000255
0.000213
0.000242
0.000247
0.000264
0.000257
0.001562
0.000621
0.000472
0.000331
0.000222
0.000265
0.000258
0.000260
0.000271
0.000278
0.000281
0.001396
0.000274
0.000056
0.000222
0.000216
0.000240
0.000249
0.000258
0.000239
0.000263
0.000301
0.000358
0.000421
0.000401
0.000355
0.000376
0.000222
0.000242
0.000249
0.000277
0.000259
0.000265
0.001885
0.000367
0.000240
0.000438
0.000244
0.000249
0.000277
0.000256
0.000269
0.000273
0.000266
0.000457
0.000057
0.000240
0.000265
0.000228
0.000241
0.000250
0.000254
0.000224
0.000245
0.000265
0.000253
0.000243
0.000238
0.000359
0.000406
0.000522
0.000364
0.000213
0.000263
0.000250
0.000250
0.000260
0.000286
0.001465
0.001052
0.000226
0.000250
0.000267
0.000267
0.000273
0.000251
0.000200
0.000056
0.000203
0.001393
0.000273
0.000194
0.000223
0.000250
0.000253
0.000237
0.000243
0.000248
0.000255
0.000266
0.000244
0.000433
0.000305
0.000456
0.000288
0.000250
0.000261
0.000267
0.000268
0.000228
0.000256
0.000270
0.001326
0.000680
0.000307
0.000381
0.000383
0.000394
0.000300
0.000056
0.000200
0.000257
0.001434
0.000227
0.000217
0.000248
0.000230
0.000253
0.000259
0.000254
0.000245
0.000249
0.000267
0.000411
0.000526
0.000289
0.000225
0.000276
0.000334
0.000207
0.000256
0.000273
0.000231
0.000276
0.000266
0.001542
0.000732
0.000301
0.000277
0.000273
0.000192
0.000056
0.000206
0.000238
0.000494
0.000362
0.001257
0.000248
0.000219
0.000242
0.000234
0.000249
0.000247
0.000258
0.000226
0.000238
0.000260
0.000253
0.000263
0.000241
0.000252
0.000257
0.000265
0.000266
0.000299
0.000335
0.000219
0.000267
0.000267
0.001521
0.000227
0.000214
0.000175
0.000056
0.000200
0.000230
0.000248
0.000266
0.000354
0.000379
0.000389
0.000271
0.001569
0.000225
0.000295
0.000494
0.000363
0.000241
0.000431
0.000246
0.000233
0.000263
0.000267
0.000270
0.000280
0.000286
0.000236
0.000266
0.000249
0.000442
0.000353
0.001705
0.000259
0.000202
0.000178
0.000056
0.000222
0.000244
0.000251
0.000243
0.000237
0.000247
0.000262
0.000270
0.000445
0.002043
0.000230
0.000241
0.000256
0.000257
0.000261
0.000246
0.000277
0.000255
0.000258
0.000439
0.000390
0.000425
0.001482
0.000228
0.000520
0.000232
0.001761
0.000249
0.000274
0.001507
0.000159
0.000056
0.000313
0.000423
0.000476
0.000247
0.000263
0.000223
0.000265
0.000267
0.000259
0.000224
0.000254
0.000337
0.000452
0.000310
0.000470
0.000207
0.000230
0.001562
0.000227
0.000628
0.001830
0.000311
0.000234
0.001544
0.002008
0.000741
0.000282
0.000255
0.000266
0.000467
0.000405
0.000056
0.000215
0.000247
0.000243
0.000253
0.001411
0.001734
0.001081
0.000213
0.000253
0.001552
0.001990
0.000217
0.000244
0.000404
0.000330
0.000325
0.000498
0.000402
0.000217
0.000244
0.000243
0.000256
0.000280
0.001580
0.001210
0.001431
0.000267
0.000306
0.000249
0.000300
0.000373
0.000056
0.000212
0.000231
0.000237
0.000241
0.000226
0.000248
0.000246
0.000250
0.000260
0.000260
0.000226
0.000311
0.000414
0.000490
0.000267
0.000271
0.000265
0.000257
0.000270
0.000263
0.000259
0.000257
0.001495
0.000500
0.002114
0.000223
0.000283
0.000456
0.000322
0.000371
0.000199
0.000055
0.000216
0.000433
0.000399
0.000313
0.000190
0.000234
0.000251
0.000241
0.000240
0.000246
0.000248
0.000265
0.000270
0.001591
0.001363
0.001227
0.000272
0.000240
0.000252
0.000269
0.000282
0.000274
0.000247
0.000252
0.002202
0.000250
0.000265
0.000286
0.000326
0.000304
0.000221
0.000056
0.000218
0.000367
0.000525
0.000354
0.000217
0.000238
0.000260
0.000257
0.001894
0.001431
0.000224
0.000342
0.000367
0.000407
0.000265
0.000219
0.000259
0.000268
0.000276
0.000258
0.000252
0.000264
0.000472
0.000232
0.000288
0.000248
0.000256
0.000272
0.000288
0.000244
0.000200
0.000057
0.000208
0.000245
0.000244
0.000245
0.000248
0.000277
0.001542
0.001411
0.001333
0.000251
0.000229
0.000229
0.000267
0.000263
0.000242
0.000255
0.000252
0.002101
0.000258
0.000245
0.000254
0.000262
0.000254
0.000266
0.000265
0.000259
0.000269
0.000260
0.000272
0.000252
0.000173
0.000056
0.000209
0.002678
0.001403
0.000217
0.000303
0.000302
0.000226
0.000264
0.000255
0.000244
0.000255
0.000241
0.000233
0.000261
0.000263
0.000253
0.000271
0.000277
0.000256
0.000257
0.000266
0.000283
0.000273
0.000262
0.000250
0.000245
0.000264
0.000272
0.000259
0.000271
0.000366
0.000057
0.001549
0.000250
0.001235
0.000230
0.000230
0.000237
0.000263
0.000250
0.000249
0.000281
0.000448
0.000290
0.000351
0.000204
0.000253
0.002148
0.000255
0.000231
0.000266
0.000531
0.000350
0.000309
0.000215
0.000259
0.000268
0.000248
0.000264
0.000279
0.000274
0.001608
0.001251
0.000055
0.000201
0.000233
0.000311
0.000410
0.000349
0.000259
0.000210
0.000234
0.000254
0.000259
0.000265
0.000245
0.000228
0.000254
0.000266
0.000237
0.000358
0.000574
0.000369
0.000249
0.000218
0.000274
0.000285
0.000253
0.000248
0.000251
0.000271
0.000270
0.000239
0.000379
0.000300
0.000056
0.001133
0.000284
0.000307
0.000447
0.000271
0.000233
0.000223
0.000240
0.000250
0.002317
0.000346
0.000386
0.000223
0.000377
0.000280
0.000264
0.000253
0.000263
0.000270
0.000221
0.000256
0.000286
0.000671
0.000366
0.001870
0.001320
0.000540
0.000522
0.000225
0.000281
0.000203
0.000056
0.000321
0.000259
0.000245
0.000245
0.000248
0.000226
0.000257
0.000254
0.000256
0.000250
0.000255
0.000221
0.000246
0.000263
0.000381
0.000581
0.001769
0.001356
0.000445
0.000407
0.000459
0.000248
0.000238
0.000262
0.002127
0.000560
0.000384
0.000235
0.000274
0.000281
0.000194
0.000056
0.000205
0.000242
0.000254
0.000240
0.000251
0.000309
0.000442
0.000310
0.000300
0.000241
0.000249
0.000249
0.000266
0.002106
0.000422
0.000332
0.000213
0.000254
0.000262
0.000264
0.000251
0.002452
0.000344
0.000228
0.000254
0.000251
0.000253
0.000273
0.000282
0.000281
0.000193
0.000055
0.000197
0.000341
0.000519
0.000404
0.000260
0.000212
0.000238
0.000258
0.000261
0.000255
0.001942
0.000398
0.000267
0.000300
0.000218
0.000267
0.000270
0.000245
0.002206
0.000446
0.000219
0.000269
0.000270
0.000259
0.000250
0.000257
0.000282
0.000253
0.000268
0.000253
0.000189
0.000056
0.000227
0.000233
0.000256
0.000220
0.000244
0.000253
0.000243
0.000244
0.000230
0.002183
0.000221
0.000283
0.000223
0.000427
0.000232
0.000245
0.000277
0.000289
0.000242
0.000266
0.001955
0.000287
0.000378
0.000371
0.000391
0.000396
0.000310
0.000249
0.000254
0.000257
0.000196
0.000056
0.000200
0.000227
0.000235
0.000264
0.000236
0.000320
0.000230
0.002301
0.000238
0.000240
0.000256
0.000260
0.000238
0.000247
0.000308
0.002115
0.000597
0.000226
0.000253
0.000245
0.000252
0.000259
0.000288
0.000268
0.000263
0.000255
0.000284
0.000260
0.000261
0.000262
0.000200
0.000057
0.001812
0.001450
0.000183
0.000240
0.000243
0.000252
0.000252
0.000274
0.000420
0.000307
0.002198
0.000265
0.000222
0.000270
0.000271
0.000526
0.000390
0.000298
0.000225
0.000248
0.000250
0.000265
0.000267
0.000223
0.000266
0.000272
0.000258
0.000269
0.000351
0.000629
0.000307
0.000057
0.000208
0.000242
0.000245
0.000269
0.000258
0.000245
0.000261
0.000234
0.001519
0.002081
0.000580
0.000290
0.000394
0.000689
0.000356
0.000238
0.000253
0.000246
0.000271
0.000256
0.000258
0.000257
0.000240
0.000270
0.001822
0.001460
0.000290
0.000271
0.000283
0.000315
0.000387
0.000056
0.001945
0.000224
0.000220
0.000240
0.000304
0.000342
0.000459
0.000293
0.000293
0.000209
0.000254
0.000251
0.000254
0.000257
0.000263
0.000275
0.000240
0.000268
0.001839
0.000246
0.000227
0.000257
0.000273
0.000280
0.000272
0.000275
0.001441
0.000325
0.000254
0.000265
0.000169
0.000056
0.000196
0.000241
0.000235
0.000243
0.000252
0.000240
0.000269
0.000404
0.000474
0.000247
0.000229
0.000225
0.000258
0.000335
0.000430
0.000306
0.000232
0.000260
0.000249
0.000375
0.000405
0.000473
0.000278
0.000245
0.000260
0.000257
0.000251
0.000273
0.000278
0.000262
0.000204
0.000057
0.001427
0.000431
0.000231
0.001933
0.000277
0.000411
0.000453
0.000309
0.000233
0.000238
0.000271
0.000241
0.000248
0.000249
0.000265
0.000260
0.000448
0.000354
0.000358
0.000335
0.000378
0.000226
0.000259
0.000268
0.000271
0.000271
0.000262
0.000276
0.000368
0.000487
0.001328
0.000056
0.000212
0.000224
0.002071
0.000376
0.000238
0.000258
0.000288
0.000225
0.000257
0.000264
0.000213
0.000251
0.000258
0.000263
0.000259
0.000353
0.000717
0.001759
0.000227
0.000251
0.000257
0.000283
0.000419
0.000372
0.001587
0.000281
0.000366
0.001919
0.000260
0.000262
0.000187
0.000056
0.000208
0.000226
0.000236
0.000241
0.000230
0.000249
0.000252
0.000284
0.000329
0.000276
0.000382
0.000352
0.000339
0.000308
0.000231
0.000272
0.000257
0.000242
0.000265
0.000256
0.000296
0.000295
0.000265
0.000260
0.000273
0.001503
0.000283
0.000398
0.002066
0.000226
0.000175
0.000056
0.000223
0.000234
0.000240
0.000250
0.000476
0.000207
0.000256
0.000335
0.000336
0.000340
0.000305
0.000208
0.000266
0.000264
0.000269
0.000326
0.000390
0.000464
0.000245
0.000407
0.000531
0.000478
0.001549
0.000230
0.000259
0.001968
0.000343
0.000248
0.000245
0.000295
0.000182
0.000056
0.000218
0.000245
0.000220
0.000247
0.000246
0.000269
0.000258
0.000269
0.000252
0.000250
0.001812
0.000335
0.000374
0.000354
0.000387
0.000380
0.000384
0.001449
0.000246
0.000274
0.002132
0.000550
0.000262
0.000238
0.000268
0.000264
0.000504
0.000230
0.000248
0.000281
0.000193
0.000056
0.000304
0.000363
0.000344
0.000301
0.000210
0.000238
0.000261
0.000249
0.000264
0.000295
0.000228
0.000251
0.000258
0.000264
0.000379
0.001477
0.000321
0.000209
0.000271
0.001916
0.000391
0.000258
0.000248
0.000263
0.000248
0.000283
0.000266
0.000266
0.000251
0.000260
0.000207
0.000056
0.000283
0.000368
0.002028
0.000256
0.000252
0.000219
0.000246
0.000302
0.000440
0.000438
0.001295
0.000385
0.000344
0.002089
0.000202
0.000246
0.000267
0.000276
0.000256
0.000249
0.000277
0.000296
0.000258
0.000353
0.000514
0.000357
0.000344
0.002183
0.000491
0.000460
0.000412
0.000057
0.000192
0.000237
0.000247
0.001966
0.000231
0.000224
0.000241
0.000241
0.000242
0.000257
0.000247
0.000259
0.000247
0.000269
0.000421
0.001510
0.000242
0.000245
0.000267
0.000260
0.000228
0.000261
0.000264
0.000262
0.000515
0.000240
0.000514
0.000223
0.001591
0.000275
0.000164
0.000057
0.000188
0.000231
0.000240
0.000237
0.000250
0.000249
0.000251
0.000250
0.000256
0.000443
0.000344
0.001364
0.000242
0.000218
0.000274
0.000238
0.000257
0.000253
0.000494
0.000300
0.000529
0.000305
0.000247
0.001553
0.000230
0.000263
0.000285
0.000281
0.000266
0.000269
0.000187
0.000074
0.000196
0.000233
0.000264
0.000268
0.000250
0.000241
0.000237
0.000245
0.000266
0.000227
0.000256
0.000258
0.000252
0.001483
0.000362
0.000211
0.000255
0.000259
0.000314
0.000275
0.000430
0.000225
0.000240
0.000263
0.000260
0.000266
0.000259
0.001409
0.000277
0.000230
0.000176
0.000056
0.000214
0.000233
0.000261
0.000261
0.000269
0.000217
0.000252
0.000261
0.000221
0.000259
0.000248
0.000255
0.000232
0.000273
0.000393
0.000380
0.000242
0.000248
0.001628
0.000250
0.000236
0.000259
0.000267
0.000315
0.000347
0.000397
0.000450
0.000258
0.000268
0.001586
0.000172
0.000055
0.000325
0.000361
0.000341
0.000316
0.000231
0.000236
0.000229
0.000270
0.000254
0.000235
0.000250
0.000239
0.001462
0.000325
0.000277
0.000221
0.000254
0.000253
0.000265
0.000262
0.000252
0.000241
0.000262
0.000267
0.000243
0.000383
0.000433
0.000431
0.000222
0.000256
0.000193
0.000056
0.000201
0.000235
0.000552
0.000226
0.000378
0.000288
0.000245
0.000266
0.000237
0.000257
0.000242
0.000225
0.000256
0.000244
0.001254
0.000295
0.000243
0.000255
0.000265
0.000272
0.000237
0.000266
0.000251
0.000261
0.000256
0.000256
0.000337
0.000648
0.000462
0.000230
0.000181
0.000071
0.000179
0.001564
0.000226
0.000347
0.000461
0.000390
0.000209
0.000251
0.000270
0.000266
0.000230
0.000256
0.000271
0.000270
0.000262
0.001518
0.000256
0.000290
0.000263
0.000265
0.000253
0.000248
0.000267
0.000260
0.000265
0.000256
0.000486
0.000302
0.000373
0.000243
0.000195
0.000056
0.000218
0.000261
0.000220
0.001636
0.000408
0.000334
0.000230
0.000242
0.000250
0.000270
0.000279
0.000254
0.000243
0.000266
0.000234
0.000269
0.000464
0.001259
0.000254
0.000235
0.001485
0.000427
0.000446
0.000409
0.000345
0.000230
0.000272
0.000461
0.000241
0.000261
0.000183
0.000056
0.000288
0.000218
0.000247
0.000251
0.000248
0.000251
0.000239
0.000256
0.000275
0.000222
0.000255
0.000257
0.000329
0.000484
0.001662
0.001497
0.000366
0.000487
0.000367
0.000232
0.000228
0.000256
0.000248
0.000273
0.000244
0.000271
0.000280
0.000240
0.001531
0.000330
0.000158
0.000055
0.000189
0.000356
0.000355
0.000329
0.000246
0.000209
0.000251
0.000398
0.000383
0.000329
0.002204
0.000321
0.000731
0.000456
0.000479
0.000266
0.000335
0.000402
0.000320
0.000275
0.000399
0.000246
0.001551
0.000526
0.000220
0.000260
0.000251
0.000260
0.000271
0.000265
0.000207
0.000056
0.000186
0.000254
0.000251
0.000253
0.000241
0.001665
0.000880
0.000994
0.000206
0.000234
0.000264
0.000255
0.000259
0.000264
0.000251
0.000251
0.000254
0.000264
0.000266
0.000282
0.001427
0.000316
0.000259
0.000228
0.000230
0.000261
0.000262
0.000284
0.000259
0.000290
0.001889
0.000056
0.000196
0.000223
0.001544
0.000847
0.000382
0.000364
0.000248
0.000222
0.000248
0.000259
0.000246
0.000251
0.000246
0.001979
0.000476
0.000241
0.000227
0.000255
0.000266
0.000256
0.000196
