0.000341
0.017736
0.003645
0.000321
0.000260
0.000285
0.000305
0.000248
0.000335
0.000280
0.000250
0.000345
0.000553
0.000464
0.000408
0.000297
0.000293
0.000339
0.000350
0.000413
0.000317
0.001938
0.000678
0.000245
0.000261
0.000299
0.000300
0.000343
0.000428
0.000373
0.000516
0.000339
0.000059
0.000205
0.000269
0.000270
0.000259
0.000275
0.000247
0.000283
0.000261
0.000269
0.000289
0.000433
0.000444
0.000307
0.000264
0.000413
0.000303
0.000364
0.000252
0.000237
0.001793
0.000238
0.000251
0.000463
0.000240
0.000264
0.000279
0.000289
0.000302
0.000275
0.000345
0.000481
0.000056
0.000220
0.000261
0.000258
0.000263
0.000253
0.000245
0.000261
0.000260
0.000286
0.001666
0.000260
0.000265
0.000253
0.000246
0.000259
0.000262
0.000266
0.000344
0.000323
0.001737
0.000230
0.000273
0.000448
0.000469
0.000360
0.000238
0.000308
0.000402
0.000522
0.000747
0.000197
0.000057
0.000211
0.000246
0.000251
0.000245
0.000290
0.000264
0.000386
0.000482
0.000387
0.000254
0.000237
0.000243
0.000245
0.000254
0.000260
0.000253
0.000243
0.000268
0.000299
0.000395
0.001607
0.000300
0.000228
0.000412
0.000278
0.000718
0.000660
0.000541
0.000345
0.000233
0.000183
0.000074
0.000189
0.000253
0.000272
0.000234
0.000263
0.000252
0.000259
0.000556
0.001388
0.000214
0.000244
0.000243
0.000257
0.000261
0.000263
0.000281
0.000548
0.000636
0.001284
0.000277
0.000465
0.000262
0.000207
0.000237
0.000255
0.000262
0.000258
0.000274
0.000254
0.000281
0.000193
0.000055
0.000194
0.000260
0.000240
0.000264
0.000234
0.000247
0.000237
0.000254
0.000237
0.000263
0.001627
0.000261
0.000255
0.000223
0.000250
0.000251
0.000244
0.000245
0.000261
0.000253
0.000272
0.001672
0.000297
0.000231
0.000438
0.000257
0.000245
0.000260
0.000266
0.000272
0.000196
0.000056
0.000192
0.000245
0.000240
0.000245
0.000243
0.000246
0.000262
0.000237
0.000263
0.000244
0.000262
0.000253
0.000262
0.000274
0.001642
0.000272
0.000296
0.000220
0.000245
0.000278
0.000262
0.000246
0.000243
0.000265
0.001801
0.000396
0.000328
0.000357
0.000239
0.000281
0.000199
0.000055
0.000203
0.000233
0.000253
0.000264
0.000259
0.000233
0.000269
0.000435
0.000418
0.000407
0.000215
0.000248
0.000252
0.000251
0.001581
0.000497
0.000436
0.000314
0.000313
0.000224
0.000273
0.000277
0.000278
0.001755
0.000477
0.000479
0.000243
0.000240
0.000258
0.000265
0.000183
0.000056
0.000208
0.000228
0.000256
0.000273
0.000322
0.000458
0.000373
0.000276
0.000214
0.000250
0.000258
0.000239
0.000258
0.001701
0.000496
0.000301
0.000215
0.000249
0.000274
0.000285
0.000249
0.000259
0.000272
0.001954
0.000242
0.000389
0.000267
0.000241
0.000262
0.000411
0.000328
0.000054
0.000217
0.000382
0.000340
0.000287
0.000256
0.000241
0.000248
0.000260
0.000243
0.000228
0.000239
0.000250
0.001557
0.000416
0.000250
0.000219
0.000263
0.000260
0.000236
0.000287
0.000276
0.000327
0.000244
0.001822
0.000256
0.000497
0.000231
0.000250
0.000259
0.000273
0.000267
0.000057
0.000373
0.000559
0.000622
0.000199
0.000232
0.000284
0.000221
0.000217
0.000266
0.000247
0.000259
0.001703
0.000246
0.000445
0.000365
0.000217
0.000243
0.000231
0.000249
0.000271
0.000243
0.001888
0.000216
0.000233
0.002078
0.000525
0.000357
0.000244
0.000259
0.000240
0.000184
0.000057
0.000193
0.000236
0.000251
0.000238
0.000261
0.001626
0.000243
0.000251
0.000243
0.000249
0.000243
0.000240
0.000246
0.000256
0.000267
0.000434
0.000616
0.000258
0.000229
0.000270
0.000269
0.000241
0.000245
0.000436
0.000438
0.000272
0.000356
0.000769
0.000219
0.000252
0.000204
0.000056
0.000213
0.000242
0.000244
0.000254
0.000233
0.000240
0.000262
0.000339
0.000455
0.001745
0.000216
0.000231
0.000244
0.000248
0.000260
0.000293
0.000412
0.000521
0.000315
0.000230
0.000264
0.000298
0.000284
0.000282
0.000245
0.000429
0.000351
0.000664
0.000482
0.000385
0.000160
0.000057
0.000190
0.000277
0.000226
0.000217
0.000251
0.000240
0.000247
0.000247
0.000237
0.000297
0.000342
0.000452
0.001364
0.000254
0.000229
0.000251
0.000254
0.000262
0.000238
0.000253
0.000286
0.000577
0.000352
0.000203
0.000255
0.000254
0.000260
0.000274
0.000265
0.000262
0.000381
0.000056
0.000199
0.000257
0.000214
0.000274
0.000550
0.000429
0.000217
0.000256
0.000238
0.000263
0.000240
0.000244
0.000294
0.000249
0.000235
0.000495
0.000447
0.001610
0.000294
0.000213
0.000259
0.000265
0.000255
0.000258
0.000241
0.000424
0.000525
0.000311
0.000427
0.000221
0.000205
0.000071
0.000215
0.000432
0.000237
0.000210
0.000265
0.000248
0.000424
0.000460
0.000300
0.000327
0.000221
0.000274
0.000267
0.000239
0.000518
0.000349
0.000219
0.000258
0.000428
0.001608
0.000262
0.000258
0.000512
0.000246
0.000274
0.000275
0.000255
0.000503
0.000409
0.000372
0.000268
0.000056
0.000208
0.000240
0.000231
0.000244
0.000416
0.000300
0.000297
0.000234
0.000385
0.000511
0.000335
0.000274
0.000217
0.000248
0.000261
0.000268
0.000257
0.000255
0.000235
0.000339
0.000294
0.000332
0.001848
0.000235
0.000258
0.000255
0.000294
0.000352
0.000412
0.000680
0.000497
0.000057
0.000233
0.000333
0.000275
0.000423
0.000388
0.000210
0.000254
0.000294
0.000548
0.000422
0.000215
0.000253
0.000229
0.000265
0.000262
0.000231
0.000256
0.000275
0.000269
0.000260
0.000264
0.000456
0.000720
0.001227
0.000353
0.000428
0.000424
0.000242
0.000402
0.000453
0.000335
0.000056
0.000233
0.000381
0.000287
0.000195
0.000242
0.000224
0.000420
0.000235
0.000226
0.000375
0.000515
0.000361
0.000239
0.000256
0.000261
0.000248
0.000368
0.000394
0.000345
0.000240
0.000240
0.000502
0.000560
0.001633
0.000231
0.000471
0.000278
0.000224
0.000248
0.000495
0.000285
0.000057
0.000191
0.000228
0.000248
0.000245
0.000247
0.000245
0.000253
0.000305
0.000461
0.000267
0.000466
0.000354
0.000289
0.000585
0.000245
0.000234
0.000274
0.000266
0.000245
0.000343
0.000216
0.000240
0.000272
0.000384
0.000594
0.001594
0.000271
0.000237
0.000235
0.000272
0.000179
0.000057
0.000289
0.000508
0.000306
0.000215
0.000261
0.000239
0.000257
0.000237
0.000262
0.000257
0.000215
0.000248
0.000466
0.000589
0.000317
0.000255
0.000244
0.000251
0.000354
0.000378
0.000382
0.000376
0.000378
0.000329
0.000241
0.000264
0.000259
0.000278
0.001787
0.000252
0.000215
0.000057
0.000199
0.000220
0.000253
0.000280
0.000363
0.000546
0.000308
0.000217
0.000249
0.000264
0.000247
0.000249
0.000797
0.000213
0.000444
0.000287
0.000264
0.000267
0.000418
0.000465
0.000379
0.000443
0.000459
0.000409
0.000247
0.000234
0.000269
0.000245
0.000266
0.001720
0.000326
0.000058
0.000203
0.000328
0.000201
0.000241
0.000256
0.000244
0.000243
0.000506
0.000368
0.000310
0.000306
0.000287
0.000364
0.000664
0.000283
0.000235
0.000243
0.000251
0.000258
0.000267
0.000259
0.000265
0.000246
0.000269
0.000337
0.000352
0.000452
0.000296
0.000240
0.000241
0.000202
0.000056
0.000451
0.000352
0.000470
0.000188
0.000200
0.000247
0.000245
0.000257
0.000241
0.000215
0.000252
0.000282
0.000295
0.000403
0.000466
0.000527
0.000282
0.000322
0.000379
0.000338
0.000296
0.000234
0.000247
0.000261
0.001760
0.000254
0.001715
0.000947
0.000496
0.000219
0.000171
0.000057
0.000192
0.000245
0.000231
0.000239
0.000264
0.000249
0.000253
0.000256
0.000242
0.000321
0.000468
0.000329
0.000336
0.000387
0.000229
0.000268
0.000242
0.000292
0.000227
0.000238
0.000259
0.000261
0.001828
0.000228
0.000252
0.000266
0.000275
0.000263
0.001877
0.000506
0.000314
0.000058
0.000190
0.000215
0.000242
0.000241
0.000258
0.000243
0.000244
0.000252
0.000254
0.000488
0.000513
0.000438
0.000236
0.000201
0.000238
0.000246
0.000331
0.000443
0.000371
0.000259
0.001769
0.000248
0.000246
0.000259
0.000254
0.000273
0.000241
0.000250
0.000330
0.000297
0.000369
0.000081
0.000238
0.000198
0.000235
0.000260
0.000250
0.000243
0.000254
0.000261
0.000229
0.000261
0.000241
0.000287
0.000356
0.000447
0.000313
0.000258
0.000476
0.000230
0.000238
0.000271
0.000248
0.000263
0.000274
0.000257
0.000280
0.001803
0.000242
0.000229
0.000269
0.000241
0.000197
0.000056
0.000298
0.000387
0.000180
0.000216
0.000236
0.000231
0.000246
0.000256
0.000245
0.000227
0.000238
0.000255
0.000259
0.000453
0.000321
0.000416
0.000224
0.000257
0.000243
0.000246
0.000258
0.000260
0.000249
0.000281
0.000241
0.000267
0.000307
0.001648
0.000262
0.000231
0.000185
0.000057
0.000190
0.000230
0.000247
0.000270
0.000343
0.000382
0.000490
0.000225
0.000194
0.000256
0.000252
0.000239
0.000248
0.000258
0.000259
0.000254
0.000252
0.000256
0.000251
0.000264
0.000260
0.000271
0.000251
0.000234
0.000238
0.000284
0.000278
0.000261
0.000254
0.000259
0.000199
0.000056
0.000209
0.000236
0.000257
0.000255
0.000235
0.000258
0.000240
0.000264
0.000280
0.000230
0.000233
0.000246
0.000259
0.000243
0.000277
0.000266
0.000243
0.000263
0.000291
0.000252
0.000269
0.000296
0.000290
0.000228
0.000280
0.000276
0.000267
0.000250
0.000375
0.000300
0.000703
0.000057
0.000227
0.000291
0.000215
0.000220
0.000238
0.000257
0.000238
0.000250
0.000265
0.000228
0.000276
0.000284
0.000506
0.000603
0.001403
0.000226
0.000488
0.000229
0.000384
0.000454
0.000372
0.000326
0.000222
0.000282
0.000254
0.000251
0.000286
0.000253
0.000309
0.000256
0.000182
0.000056
0.000355
0.000429
0.000316
0.000324
0.000216
0.000260
0.000247
0.000242
0.000245
0.000235
0.000257
0.000260
0.000227
0.000305
0.000312
0.000651
0.000249
0.001812
0.000215
0.000259
0.000345
0.000426
0.000467
0.000272
0.000313
0.000312
0.000309
0.000229
0.000234
0.000248
0.000192
0.000056
0.000216
0.000230
0.000235
0.000296
0.000344
0.000501
0.000294
0.000259
0.000250
0.000215
0.000248
0.000268
0.000268
0.000262
0.000248
0.000250
0.000316
0.000535
0.000379
0.000350
0.000238
0.001748
0.000328
0.000484
0.000752
0.000219
0.000335
0.000220
0.000256
0.000263
0.000448
0.000057
0.000193
0.000260
0.000231
0.000407
0.000290
0.000505
0.000348
0.000221
0.000231
0.000296
0.000237
0.000262
0.000256
0.000312
0.000294
0.000237
0.000228
0.000436
0.000480
0.000290
0.000486
0.001853
0.000246
0.000446
0.000493
0.000368
0.000220
0.000256
0.000293
0.000250
0.000210
0.000075
0.000200
0.000335
0.000360
0.000315
0.000404
0.000290
0.000371
0.000221
0.000234
0.000259
0.000282
0.000233
0.000234
0.000281
0.000221
0.000259
0.000322
0.000354
0.000601
0.000312
0.000281
0.000222
0.000270
0.001718
0.000409
0.000602
0.000607
0.000235
0.000368
0.000205
0.000156
0.000055
0.000192
0.000241
0.000325
0.000256
0.000280
0.000392
0.000387
0.000306
0.000234
0.000521
0.000246
0.000242
0.000251
0.000279
0.000286
0.000252
0.000219
0.000395
0.000452
0.000410
0.000266
0.000226
0.000254
0.000259
0.000263
0.000267
0.000228
0.000261
0.000277
0.000283
0.000206
0.000056
0.000370
0.000280
0.000207
0.000248
0.000247
0.000262
0.000241
0.000305
0.000219
0.000249
0.000260
0.000369
0.000414
0.000447
0.000296
0.000270
0.000234
0.000230
0.000247
0.000264
0.000306
0.000247
0.000231
0.000263
0.000280
0.000286
0.000425
0.000391
0.000349
0.000242
0.000176
0.000056
0.000206
0.000228
0.000276
0.000241
0.000239
0.000250
0.000261
0.000261
0.000479
0.000218
0.000259
0.000267
0.000228
0.000279
0.000262
0.000276
0.000257
0.000347
0.000224
0.000239
0.000250
0.000290
0.000240
0.000273
0.000269
0.000261
0.000263
0.000258
0.000523
0.000246
0.000145
0.000056
0.000202
0.000234
0.000255
0.000263
0.000219
0.000251
0.000362
0.000412
0.000235
0.000240
0.000248
0.000256
0.000238
0.000301
0.000440
0.001749
0.000221
0.000270
0.000281
0.000395
0.000367
0.000359
0.000512
0.000229
0.000412
0.000401
0.000237
0.000266
0.000264
0.000276
0.001400
0.000056
0.000402
0.000284
0.000309
0.000195
0.000229
0.000253
0.000231
0.000253
0.000247
0.000265
0.000248
0.000259
0.000252
0.000332
0.000555
0.001583
0.000243
0.000224
0.000242
0.000267
0.000236
0.000264
0.000440
0.000343
0.000291
0.000331
0.000240
0.000244
0.000288
0.000251
0.000178
0.000057
0.001186
0.000580
0.000283
0.000265
0.000245
0.000211
0.000232
0.000243
0.000488
0.000226
0.000234
0.000246
0.000347
0.000576
0.000401
0.000300
0.000243
0.000224
0.000350
0.000342
0.000279
0.000246
0.000276
0.000239
0.000271
0.000568
0.000629
0.000201
0.000253
0.000256
0.000190
0.000057
0.000213
0.000214
0.000244
0.000246
0.001568
0.000199
0.000226
0.000254
0.000231
0.000273
0.000240
0.000249
0.000239
0.000266
0.000267
0.000285
0.000446
0.000699
0.000220
0.001753
0.000264
0.000270
0.000270
0.000423
0.000727
0.000254
0.000239
0.000249
0.000260
0.000269
0.000197
0.000057
0.000204
0.000251
0.000238
0.000296
0.001279
0.000252
0.000231
0.000261
0.000244
0.000238
0.000231
0.000251
0.000278
0.000249
0.000245
0.000301
0.000447
0.000529
0.000234
0.000248
0.000269
0.000274
0.000250
0.000253
0.000270
0.000254
0.000251
0.000273
0.000279
0.000399
0.000561
0.000056
0.000221
0.000245
0.000238
0.000265
0.000257
0.000246
0.000248
0.000247
0.000268
0.000256
0.001441
0.000223
0.000235
0.000244
0.000248
0.000241
0.000285
0.000248
0.000257
0.000273
0.000274
0.000481
0.000481
0.000369
0.000223
0.000273
0.001771
0.000252
0.000249
0.000342
0.000463
0.000057
0.000194
0.000398
0.000446
0.000520
0.000502
0.000534
0.001502
0.000413
0.000521
0.000657
0.000548
0.000789
0.000426
0.000604
0.000583
0.001881
0.000466
0.000380
0.000395
0.000322
0.000226
0.000300
0.000255
0.000266
0.000261
0.000289
0.000293
0.000286
0.000259
0.000287
0.001363
0.000056
0.000206
0.000230
0.000228
0.000252
0.000253
0.000257
0.000235
0.000239
0.000250
0.000251
0.000238
0.000245
0.000248
0.000260
0.000267
0.000269
0.001815
0.000282
0.000238
0.000256
0.000254
0.000264
0.000267
0.000323
0.000375
0.000455
0.000304
0.000243
0.000242
0.000287
0.000201
0.000058
0.000192
0.001372
0.000325
0.000267
0.000253
0.000237
0.000274
0.000209
0.000229
0.000249
0.000209
0.000249
0.000264
0.000486
0.000366
0.000285
0.000261
0.000259
0.001931
0.000226
0.000243
0.000262
0.000260
0.000264
0.000266
0.000288
0.000273
0.000247
0.000271
0.000315
0.000186
0.000058
0.000210
0.000236
0.000251
0.001451
0.000211
0.000249
0.000237
0.000252
0.000239
0.000273
0.000256
0.000233
0.000245
0.000264
0.000262
0.000247
0.000263
0.000271
0.000266
0.000253
0.000261
0.001779
0.000276
0.001757
0.000266
0.000252
0.000257
0.000262
0.000277
0.000270
0.000197
0.000057
0.000192
0.000243
0.001346
0.000234
0.000263
0.000232
0.000259
0.000255
0.000245
0.000249
0.000248
0.000250
0.000263
0.000263
0.000254
0.000264
0.000259
0.000296
0.000283
0.000237
0.001883
0.000226
0.001844
0.000247
0.000234
0.000281
0.000230
0.000248
0.000251
0.000271
0.000201
0.000056
0.001448
0.000223
0.000231
0.000239
0.000237
0.000235
0.000380
0.000269
0.000243
0.000255
0.000251
0.000262
0.000282
0.000434
0.000321
0.000267
0.000238
0.000269
0.000243
0.000256
0.000271
0.000356
0.000218
0.000246
0.000269
0.000276
0.000277
0.000377
0.000599
0.000374
0.000198
0.000057
0.000205
0.000258
0.000257
0.000304
0.000356
0.000265
0.001672
0.000330
0.000277
0.000258
0.000275
0.000280
0.000252
0.000258
0.000302
0.000309
0.000396
0.000569
0.000321
0.000271
0.000289
0.000279
0.000260
0.000278
0.000334
0.000251
0.000270
0.000238
0.000252
0.000291
0.000452
0.000057
0.000253
0.000470
0.000264
0.000267
0.000252
0.000227
0.000224
0.000246
0.000261
0.000268
0.001502
0.000232
0.000214
0.000256
0.000238
0.000297
0.000271
0.000235
0.000267
0.000269
0.000263
0.000345
0.000583
0.000307
0.000258
0.000289
0.000266
0.000258
0.000233
0.000315
0.000173
0.000056
0.000204
0.000225
0.000286
0.000484
0.000343
0.000287
0.000204
0.000252
0.000252
0.000251
0.000238
0.000268
0.000244
0.000262
0.000248
0.000228
0.000478
0.001142
0.000249
0.000238
0.000283
0.000242
0.000380
0.000400
0.000241
0.000339
0.000567
0.000436
0.000293
0.000245
0.000164
0.000056
0.000226
0.000249
0.000259
0.000262
0.000249
0.000253
0.000371
0.000420
0.000399
0.000275
0.000367
0.000392
0.000390
0.000363
0.000255
0.000234
0.000243
0.000323
0.000478
0.000316
0.001274
0.000216
0.000275
0.000271
0.000231
0.000263
0.000243
0.000365
0.000381
0.000439
0.000238
0.000057
0.000183
0.000247
0.000250
0.000247
0.000244
0.000244
0.000233
0.000261
0.000328
0.000438
0.000301
0.000406
0.000244
0.000222
0.000254
0.000253
0.000253
0.000260
0.000264
0.000257
0.000434
0.000301
0.000329
0.000448
0.000287
0.000255
0.000265
0.000273
0.000244
0.000352
0.000154
0.000056
0.000303
0.000314
0.000374
0.000346
0.000384
0.000394
0.000248
0.000237
0.000246
0.000276
0.000256
0.000264
0.000234
0.000248
0.000247
0.000225
0.000319
0.000310
0.000506
0.000342
0.000229
0.000269
0.000242
0.000249
0.000268
0.000276
0.000267
0.000263
0.000280
0.000264
0.000278
0.000058
0.000347
0.000279
0.000237
0.000244
0.000246
0.000249
0.000243
0.000249
0.000267
0.000262
0.000248
0.000239
0.000269
0.000522
0.000424
0.000296
0.000241
0.000239
0.000258
0.000272
0.000254
0.000266
0.000254
0.000261
0.000287
0.000303
0.000494
0.000538
0.000394
0.000251
0.000161
0.000056
0.000389
0.000206
0.000227
0.000245
0.000249
0.000249
0.000239
0.000255
0.000254
0.000260
0.000218
0.000246
0.000286
0.000208
0.000249
0.000263
0.000257
0.000263
0.000272
0.000254
0.000265
0.000261
0.000262
0.000268
0.000259
0.000243
0.000264
0.000274
0.000262
0.000278
0.000194
0.000056
0.000199
0.000230
0.000245
0.000255
0.000233
0.000248
0.000262
0.000244
0.000253
0.000287
0.000224
0.000232
0.000262
0.000391
0.000257
0.000278
0.000259
0.000269
0.000254
0.000275
0.000272
0.000240
0.000245
0.000253
0.000272
0.000269
0.000252
0.000247
0.000277
0.000263
0.000198
0.000056
0.000216
0.000364
0.000362
0.000282
0.000301
0.000248
0.000261
0.000257
0.000233
0.000245
0.000245
0.000261
0.000250
0.000234
0.000269
0.000249
0.000267
0.000263
0.000244
0.000266
0.000279
0.000257
0.000281
0.000256
0.000269
0.000270
0.000237
0.000274
0.000262
0.000270
0.000191
0.000055
0.000222
0.000223
0.000262
0.000267
0.000489
0.000211
0.000205
0.000250
0.000246
0.000481
0.000493
0.000290
0.000230
0.000238
0.000269
0.000268
0.000255
0.000254
0.000257
0.000267
0.000266
0.000257
0.000256
0.000317
0.000426
0.000551
0.000284
0.000306
0.000262
0.000278
0.000170
0.000057
0.000198
0.000221
0.000245
0.000252
0.000501
0.000457
0.000347
0.000363
0.000211
0.000248
0.000245
0.000278
0.000230
0.000249
0.000254
0.000269
0.000262
0.000251
0.000708
0.000328
0.000289
0.000245
0.000256
0.000279
0.000303
0.000234
0.000265
0.000276
0.000240
0.000350
0.000294
0.000057
0.000292
0.000229
0.000234
0.000241
0.000257
0.000250
0.000249
0.000226
0.000246
0.000262
0.000243
0.000251
0.000255
0.000441
0.000526
0.000418
0.000208
0.000246
0.000264
0.000244
0.000267
0.000275
0.000486
0.000235
0.000252
0.000632
0.000378
0.000490
0.000251
0.000251
0.000185
0.000057
0.000217
0.000227
0.000245
0.000241
0.000257
0.000267
0.000285
0.000505
0.000526
0.000422
0.000220
0.000261
0.000273
0.000280
0.000256
0.000240
0.000243
0.000250
0.000258
0.000416
0.000309
0.000665
0.000366
0.000244
0.000366
0.000381
0.000471
0.000252
0.000261
0.000485
0.000276
0.000056
0.000168
0.000231
0.000432
0.000232
0.000226
0.000279
0.000240
0.000258
0.000226
0.000244
0.000255
0.000451
0.000339
0.000336
0.000219
0.000249
0.000256
0.000263
0.000258
0.000274
0.000279
0.000250
0.000248
0.000276
0.000377
0.000537
0.000368
0.000241
0.000257
0.000272
0.000193
0.000056
0.000200
0.000280
0.000204
0.000247
0.000255
0.000339
0.000328
0.000338
0.000451
0.000274
0.000374
0.000226
0.000236
0.000269
0.000252
0.000243
0.000269
0.000247
0.000345
0.000347
0.000448
0.000355
0.000481
0.000279
0.000388
0.000422
0.000398
0.000230
0.000242
0.000388
0.000261
0.000056
0.000252
0.000286
0.000218
0.000254
0.000257
0.000255
0.000252
0.000245
0.000250
0.000265
0.000234
0.000380
0.000433
0.000381
0.000373
0.000213
0.000266
0.000270
0.000264
0.000233
0.000248
0.000254
0.000283
0.000258
0.000276
0.000371
0.000453
0.000482
0.000229
0.000282
0.000186
0.000056
0.000197
0.000243
0.000255
0.000247
0.000263
0.000372
0.000522
0.000416
0.000375
0.000670
0.000262
0.000224
0.000229
0.000266
0.000248
0.000286
0.000260
0.000271
0.000483
0.000459
0.001466
0.000304
0.000260
0.000260
0.000300
0.000264
0.000439
0.000394
0.000319
0.000343
0.000155
0.000056
0.000205
0.000227
0.000242
0.000247
0.000237
0.000258
0.000298
0.000228
0.000248
0.000339
0.000325
0.000389
0.000264
0.000334
0.000394
0.000345
0.000240
0.000246
0.000273
0.000254
0.000247
0.000240
0.000293
0.000242
0.000317
0.000435
0.000462
0.000283
0.000241
0.000264
0.000189
0.000056
0.000211
0.000248
0.000258
0.000256
0.000241
0.000233
0.000468
0.000213
0.000241
0.000249
0.000244
0.000254
0.000255
0.000260
0.000250
0.000261
0.000268
0.000268
0.000271
0.000255
0.000259
0.000291
0.000290
0.000246
0.000267
0.000276
0.000270
0.000266
0.000267
0.000268
0.000171
0.000056
0.000218
0.000248
0.000486
0.000240
0.000367
0.000250
0.000234
0.000242
0.000263
0.000247
0.000245
0.000263
0.000260
0.000260
0.000240
0.000245
0.000247
0.000267
0.000274
0.000337
0.000517
0.000340
0.000216
0.000268
0.000267
0.000252
0.000265
0.000250
0.000298
0.000258
0.000199
0.000056
0.000352
0.000370
0.000440
0.000208
0.000249
0.000256
0.000412
0.000227
0.000226
0.000256
0.000258
0.000299
0.000347
0.000483
0.001820
0.000248
0.000249
0.000248
0.000278
0.000238
0.000298
0.000499
0.000535
0.000362
0.000227
0.000269
0.000273
0.000423
0.000276
0.000283
0.000164
0.000058
0.000224
0.000345
0.000323
0.000336
0.000500
0.000198
0.000240
0.000247
0.000248
0.000242
0.000259
0.000247
0.000264
0.000369
0.000434
0.000409
0.000218
0.000241
0.000264
0.000254
0.000267
0.000323
0.000233
0.000272
0.000275
0.000443
0.000642
0.000345
0.000384
0.000216
0.000198
0.000058
0.000213
0.000240
0.000260
0.000220
0.000256
0.000250
0.000269
0.000268
0.000355
0.000450
0.000354
0.000347
0.000207
0.000261
0.000267
0.000294
0.000303
0.000232
0.000268
0.000273
0.000236
0.000324
0.000501
0.000365
0.000249
0.000254
0.000263
0.000428
0.000418
0.000315
0.000166
0.000057
0.000190
0.000266
0.000318
0.000419
0.000379
0.000210
0.000229
0.000254
0.000263
0.000248
0.000266
0.000253
0.000236
0.000252
0.000263
0.000316
0.000471
0.000263
0.000295
0.000351
0.000478
0.000230
0.000281
0.000273
0.000302
0.000283
0.000261
0.000267
0.000469
0.000520
0.000190
0.000057
0.000194
0.000232
0.000265
0.000227
0.000240
0.000484
0.000219
0.000254
0.000263
0.000289
0.000545
0.000581
0.000203
0.000244
0.000241
0.000254
0.000254
0.000254
0.000250
0.000253
0.000259
0.000269
0.000453
0.000331
0.000396
0.000376
0.000305
0.000294
0.000319
0.000246
0.000178
0.000056
0.000219
0.000234
0.000273
0.000477
0.000323
0.000285
0.000269
0.000228
0.000233
0.000262
0.000256
0.000244
0.000255
0.000268
0.000239
0.000263
0.000246
0.000243
0.000267
0.000412
0.000528
0.000352
0.000241
0.000237
0.000289
0.000263
0.000258
0.000258
0.000260
0.000266
0.000200
0.000056
0.000310
0.000316
0.000548
0.000188
0.000200
0.000253
0.000333
0.000449
0.000292
0.000206
0.000235
0.000281
0.000313
0.000389
0.000482
0.000247
0.000233
0.000228
0.000248
0.000268
0.000272
0.000264
0.000266
0.000268
0.000258
0.000324
0.000426
0.000425
0.000261
0.000240
0.000176
0.000056
0.000231
0.000234
0.000248
0.000253
0.000253
0.000265
0.000229
0.000257
0.000252
0.000247
0.000283
0.000220
0.000261
0.001474
0.000207
0.000255
0.000263
0.000244
0.000277
0.000273
0.000264
0.000252
0.000263
0.000256
0.000265
0.000268
0.000274
0.000266
0.000281
0.000252
0.000193
0.000056
0.000192
0.000224
0.000252
0.000253
0.000235
0.000254
0.000253
0.000260
0.000225
0.000245
0.000251
0.000262
0.000256
0.000253
0.000260
0.000260
0.000245
0.000257
0.000274
0.000257
0.000250
0.000265
0.000244
0.000254
0.001296
0.000282
0.000696
0.000300
0.000331
0.000246
0.000199
0.000057
0.000190
0.000235
0.000249
0.000250
0.000410
0.000254
0.000224
0.000241
0.000260
0.000373
0.000449
0.000323
0.000263
0.000216
0.000254
0.000257
0.000257
0.000263
0.000248
0.000253
0.000265
0.000253
0.000258
0.000503
0.000475
0.000439
0.000188
0.000274
0.001394
0.000215
0.000185
0.000057
0.000305
0.000397
0.000332
0.000280
0.000217
0.000234
0.000222
0.000248
0.000260
0.000257
0.000249
0.000261
0.000265
0.000277
0.000571
0.000368
0.000341
0.000223
0.000241
0.000258
0.000270
0.000260
0.000270
0.000271
0.000265
0.000258
0.000331
0.000551
0.000424
0.000329
0.000145
0.000058
0.000189
0.000232
0.001284
0.000403
0.000305
0.000482
0.000344
0.000488
0.000279
0.000340
0.000224
0.000216
0.000263
0.000260
0.000244
0.000262
0.000318
0.000516
0.000413
0.000363
0.000253
0.000256
0.000265
0.000492
0.000228
0.000267
0.000258
0.000283
0.000403
0.000461
0.000293
0.000056
0.000382
0.000310
0.000228
0.000217
0.001506
0.000523
0.000309
0.000250
0.000237
0.000248
0.000226
0.000245
0.000242
0.000268
0.000252
0.000263
0.000229
0.000267
0.000393
0.000413
0.000453
0.000231
0.000268
0.000248
0.000281
0.000258
0.000267
0.000238
0.000262
0.000292
0.000187
0.000056
0.000391
0.000329
0.000224
0.000223
0.000253
0.000244
0.000247
0.000244
0.000231
0.000231
0.001396
0.000520
0.000240
0.000249
0.000232
0.000251
0.000274
0.000276
0.000214
0.000283
0.000269
0.000253
0.000296
0.000375
0.000527
0.000365
0.000217
0.000268
0.000273
0.000282
0.000175
0.000056
0.000183
0.000412
0.000221
0.000240
0.000336
0.000524
0.000377
0.000234
0.000462
0.000205
0.000235
0.000249
0.000269
0.000261
0.000261
0.001487
0.000290
0.000276
0.000246
0.000270
0.000283
0.000246
0.000276
0.000231
0.000262
0.000269
0.000433
0.000467
0.000290
0.000278
0.000150
0.000056
0.000208
0.000234
0.000258
0.000233
0.000230
0.000265
0.000235
0.000259
0.000254
0.000379
0.000476
0.000265
0.000247
0.000245
0.000242
0.000272
0.000272
0.000260
0.000269
0.000232
0.000258
0.000385
0.001189
0.000253
0.000251
0.000254
0.000258
0.000259
0.000261
0.000253
0.000189
0.000058
0.000241
0.000324
0.000449
0.000275
0.000228
0.000238
0.000259
0.000264
0.000254
0.000249
0.000257
0.000269
0.000239
0.000276
0.000240
0.000262
0.000262
0.000269
0.000263
0.000252
0.000249
0.000269
0.000268
0.000286
0.000286
0.000263
0.000270
0.000248
0.000291
0.000424
0.001379
0.000055
0.000180
0.000238
0.000235
0.000243
0.000258
0.000256
0.000246
0.000239
0.000237
0.000247
0.000277
0.000253
0.000254
0.000240
0.000254
0.000243
0.001740
0.000255
0.000230
0.000263
0.000246
0.000259
0.000271
0.000262
0.000267
0.000259
0.000272
0.000275
0.000279
0.000251
0.000225
0.000055
0.000259
0.000324
0.001301
0.000224
0.000223
0.000248
0.000259
0.000248
0.000262
0.000258
0.000231
0.000371
0.000445
0.000373
0.000304
0.000204
0.000236
0.000259
0.000255
0.000267
0.000243
0.000263
0.000272
0.000288
0.000258
0.000396
0.000392
0.000423
0.000241
0.000231
0.000192
0.000056
0.000215
0.000254
0.000244
0.000249
0.000254
0.000217
0.000239
0.000287
0.000434
0.001311
0.000262
0.000199
0.000251
0.000279
0.000246
0.000268
0.000261
0.000244
0.000310
0.000468
0.000330
0.000272
0.000236
0.000249
0.000276
0.000276
0.000271
0.000291
0.000272
0.000274
0.000191
0.000057
0.000219
0.000462
0.000376
0.000211
0.000245
0.000231
0.000245
0.000272
0.000270
0.000250
0.000227
0.000246
0.000465
0.000545
0.000459
0.001425
0.000248
0.000290
0.000306
0.000350
0.000479
0.000457
0.000442
0.000388
0.000220
0.000265
0.000269
0.000270
0.000269
0.000274
0.000202
0.000056
0.000199
0.000321
0.000475
0.000452
0.000290
0.000238
0.000246
0.000240
0.000239
0.000261
0.000245
0.000269
0.000267
0.000236
0.000266
0.000313
0.000339
0.000455
0.000351
0.001327
0.000255
0.000255
0.000254
0.000268
0.000513
0.000505
0.000304
0.000216
0.000277
0.000270
0.000184
0.000056
0.000203
0.000242
0.000241
0.000249
0.000250
0.000269
0.000498
0.000413
0.000315
0.000207
0.000239
0.000257
0.000270
0.000260
0.000264
0.000260
0.000263
0.000256
0.000282
0.000270
0.000499
0.000418
0.000289
0.001360
0.000400
0.000237
0.000279
0.000419
0.000533
0.000249
0.000322
0.000056
0.000180
0.000235
0.000246
0.000249
0.000250
0.000252
0.001687
0.000246
0.000206
0.000244
0.000254
0.000247
0.000258
0.000335
0.000327
0.000281
0.000349
0.000255
0.000443
0.000469
0.000278
0.000281
0.000223
0.000243
0.001511
0.000385
0.000424
0.000419
0.000334
0.000298
0.000138
0.000058
0.000199
0.000249
0.000252
0.000260
0.000246
0.000256
0.001713
0.000250
0.000219
0.000262
0.000343
0.000406
0.001441
0.000389
0.000359
0.000234
0.000263
0.000240
0.000274
0.000279
0.001527
0.000630
0.000333
0.000285
0.000241
0.000244
0.000272
0.000275
0.000246
0.000251
0.000193
0.000056
0.000184
0.000239
0.000275
0.000243
0.000260
0.000295
0.000260
0.000259
0.000243
0.000274
0.000235
0.000247
0.000261
0.000268
0.000253
0.001500
0.000286
0.000224
0.000263
0.000279
0.000271
0.000257
0.000438
0.001268
0.000272
0.000226
0.000275
0.000256
0.000399
0.000245
0.000196
0.000058
0.000199
0.000250
0.000226
0.000244
0.000243
0.000224
0.000234
0.001700
0.000249
0.000233
0.000238
0.000373
0.000228
0.000223
0.000255
0.001390
0.000222
0.000270
0.000272
0.000242
0.000270
0.000344
0.000267
0.001329
0.000262
0.000253
0.000253
0.000263
0.001395
0.000303
0.000180
0.000056
0.000332
0.000259
0.000213
0.000232
0.000250
0.000241
0.000266
0.000265
0.000267
0.000247
0.000261
0.000267
0.000249
0.000252
0.000324
0.001485
0.000237
0.000278
0.000250
0.000254
0.000277
0.000262
0.000248
0.001541
0.000330
0.000228
0.000275
0.001269
0.000270
0.000241
0.000212
0.000056
0.000235
0.000392
0.000328
0.000207
0.000228
0.000238
0.000261
0.000260
0.000266
0.000276
0.000234
0.000247
0.000264
0.000257
0.000433
0.001229
0.000222
0.000252
0.000269
0.000277
0.000241
0.000223
0.000251
0.000333
0.001274
0.000267
0.000230
0.000262
0.001352
0.000388
0.000270
0.000057
0.000300
0.000267
0.000203
0.000219
0.000244
0.000263
0.000238
0.000244
0.000284
0.000248
0.000246
0.000242
0.000244
0.000431
0.000349
0.001449
0.000220
0.000241
0.000299
0.000517
0.000276
0.000461
0.001288
0.000288
0.000244
0.000268
0.000261
0.001305
0.000301
0.000492
0.000354
0.000057
0.000193
0.000249
0.000254
0.000257
0.000253
0.000248
0.000278
0.000247
0.000266
0.000259
0.000394
0.000420
0.001317
0.000231
0.000269
0.000266
0.000278
0.000215
0.000242
0.000287
0.000308
0.001229
0.000256
0.000250
0.000246
0.000253
0.001526
0.000444
0.000443
0.000220
0.000202
0.000056
0.000191
0.000231
0.000250
0.000231
0.000259
0.000260
0.000246
0.000368
0.000327
0.000487
0.000264
0.001490
0.000222
0.000231
0.000263
0.000257
0.000275
0.000315
0.001664
0.000243
0.000400
0.000335
0.001284
0.000364
0.000346
0.000264
0.000261
0.000255
0.000273
0.000265
0.000191
0.000056
0.000207
0.000243
0.000329
0.000246
0.000305
0.000591
0.000252
0.000286
0.001473
0.000236
0.000426
0.000213
0.000232
0.000363
0.000362
0.001293
0.000266
0.000226
0.000250
0.000258
0.001549
0.000375
0.000280
0.000287
0.000241
0.000244
0.000511
0.000309
0.000223
0.000234
0.000270
0.000057
0.000275
0.000365
0.000313
0.000270
0.000223
0.001520
0.000201
0.000262
0.000261
0.000269
0.000284
0.000283
0.000297
0.001444
0.000242
0.000233
0.000435
0.001196
0.000319
0.000496
0.000365
0.000234
0.000236
0.000254
0.000280
0.000241
0.000459
0.000231
0.000258
0.000276
0.000206
0.000057
0.000211
0.000234
0.000387
0.000340
0.001318
0.000273
0.000311
0.000229
0.000245
0.000247
0.000252
0.000263
0.001547
0.000254
0.000237
0.000243
0.001393
0.000279
0.000426
0.000380
0.000433
0.000229
0.000240
0.000256
0.000268
0.000284
0.000266
0.000253
0.000269
0.000252
0.000191
0.000056
0.000202
0.000403
0.001460
0.000213
0.000268
0.000271
0.000241
0.000267
0.000244
0.000450
0.001333
0.000206
0.000268
0.000263
0.000243
0.001298
0.000714
0.000273
0.000309
0.000409
0.000296
0.000249
0.000265
0.000256
0.000265
0.000292
0.000267
0.000281
0.000483
0.000396
0.001382
0.000056
0.000203
0.000234
0.000250
0.000221
0.000272
0.000386
0.000568
0.001220
0.000254
0.000239
0.000245
0.001396
0.000488
0.000311
0.000217
0.000404
0.000272
0.000218
0.000268
0.000294
0.000226
0.000275
0.000281
0.000263
0.000246
0.000274
0.000437
0.000493
0.001505
0.000227
0.000183
0.000057
0.000193
0.000276
0.000430
0.000532
0.001148
0.000278
0.000253
0.000257
0.000245
0.000254
0.000252
0.000264
0.000378
0.000475
0.000348
0.000230
0.000256
0.000278
0.000234
0.000278
0.000253
0.000274
0.000259
0.000262
0.000257
0.000378
0.000537
0.000317
0.000318
0.001400
0.000167
0.000057
0.000194
0.000246
0.000349
0.000400
0.000331
0.000291
0.000320
0.000335
0.000268
0.000261
0.000256
0.000263
0.000252
0.000310
0.000232
0.000306
0.000561
0.000343
0.000251
0.000392
0.000268
0.000404
0.000226
0.000257
0.000254
0.000267
0.000245
0.000292
0.000303
0.000632
0.000219
0.000057
0.000197
0.001405
0.000237
0.000340
0.000473
0.000392
0.000423
0.000236
0.000210
0.000238
0.000262
0.000245
0.000267
0.000271
0.000262
0.000260
0.000258
0.001399
0.000217
0.000257
0.000251
0.000271
0.000269
0.000284
0.000268
0.000253
0.000276
0.000250
0.000348
0.000395
0.000294
0.000058
0.000201
0.000255
0.000224
0.001485
0.000328
0.000246
0.000215
0.000243
0.000235
0.000251
0.000249
0.000271
0.000253
0.000246
0.000270
0.000252
0.000254
0.000265
0.000255
0.000264
0.001438
0.000225
0.000243
0.000282
0.000245
0.000256
0.000269
0.000260
0.000280
0.000483
0.000350
0.000057
0.000204
0.000252
0.000378
0.000286
0.000242
0.000254
0.001547
0.000332
0.000303
0.000208
0.000261
0.000315
0.000333
0.000233
0.000227
0.000249
0.000247
0.000268
0.000255
0.000258
0.000500
0.000494
0.001127
0.000279
0.000222
0.000258
0.000267
0.000256
0.000273
0.000267
0.000353
0.000057
0.000330
0.000292
0.000200
0.000250
0.000247
0.000239
0.000244
0.000230
0.000292
0.001597
0.000444
0.000229
0.000232
0.000248
0.000260
0.000244
0.000261
0.000274
0.000278
0.000313
0.000284
0.000487
0.000460
0.001371
0.000225
0.000259
0.000271
0.000260
0.000268
0.000391
0.000332
0.000057
0.000257
0.000237
0.000238
0.000261
0.000197
0.000241
0.000266
0.000251
0.000272
0.001587
0.000337
0.000257
0.000255
0.000264
0.000460
0.000273
0.000515
0.000379
0.000297
0.000312
0.000456
0.000442
0.001293
0.000266
0.000233
0.000259
0.001713
0.000445
0.000622
0.000309
0.000143
0.000056
0.000194
0.000222
0.000242
0.000232
0.000258
0.000241
0.000243
0.000520
0.000474
0.000422
0.000322
0.000210
0.000225
0.000261
0.000263
0.000264
0.000252
0.000254
0.000246
0.000281
0.000264
0.000426
0.001344
0.000216
0.000259
0.000266
0.001903
0.000390
0.000376
0.000355
0.000153
0.000057
0.000234
0.000245
0.000244
0.001580
0.000423
0.000199
0.000237
0.000277
0.000232
0.000294
0.000375
0.000370
0.000362
0.000274
0.000308
0.000498
0.000395
0.001205
0.000277
0.000224
0.000257
0.000259
0.000284
0.000422
0.000663
0.000390
0.000258
0.000259
0.000265
0.000285
0.000188
0.000057
0.000193
0.000222
0.000247
0.001580
0.000210
0.000235
0.000240
0.000252
0.000242
0.000251
0.000258
0.000269
0.000266
0.000285
0.000238
0.000398
0.000522
0.000236
0.001401
0.000234
0.000255
0.000262
0.000277
0.000269
0.000335
0.000509
0.000446
0.000268
0.000286
0.000223
0.000450
0.000056
0.000204
0.000237
0.000250
0.001578
0.000269
0.000218
0.000266
0.000239
0.000256
0.000258
0.000255
0.000258
0.000256
0.000263
0.000298
0.000628
0.001368
0.000745
0.000254
0.000349
0.000252
0.000222
0.000242
0.000279
0.001687
0.000804
0.000223
0.000259
0.000283
0.000284
0.000182
0.000056
0.000192
0.000230
0.000247
0.000256
0.000249
0.000248
0.000235
0.000257
0.000242
0.000248
0.000275
0.000281
0.000248
0.000249
0.000261
0.000252
0.000269
0.001610
0.000722
0.000324
0.000346
0.000217
0.000254
0.000275
0.000268
0.000267
0.000271
0.000249
0.001416
0.000385
0.000330
0.000056
0.000193
0.000223
0.000254
0.000245
0.000267
0.000225
0.000254
0.000252
0.000257
0.000281
0.000238
0.000464
0.000472
0.000279
0.000206
0.000244
0.000265
0.001405
0.000685
0.000494
0.000306
0.000279
0.000230
0.000246
0.000277
0.000248
0.000257
0.000266
0.001536
0.000361
0.000223
0.000055
0.000174
0.000235
0.000244
0.000246
0.000249
0.000246
0.000235
0.000253
0.000270
0.000258
0.000443
0.000297
0.000338
0.000223
0.000240
0.000246
0.000267
0.000254
0.001574
0.000632
0.000461
0.000324
0.000228
0.000256
0.000262
0.000251
0.000271
0.000283
0.000265
0.001358
0.000334
0.000058
0.000202
0.000215
0.000237
0.000256
0.000259
0.000240
0.000266
0.000302
0.000361
0.000427
0.000430
0.000378
0.000322
0.000208
0.000271
0.000228
0.000276
0.000258
0.000269
0.001888
0.000371
0.000229
0.000435
0.000254
0.000251
0.000260
0.000272
0.000252
0.000274
0.000273
0.000277
0.000055
0.000295
0.000230
0.000223
0.000239
0.000255
0.000247
0.000228
0.000237
0.000270
0.000251
0.000247
0.000234
0.000340
0.000446
0.000525
0.000344
0.000211
0.000259
0.000259
0.000247
0.000266
0.000284
0.001474
0.001050
0.000231
0.000229
0.000274
0.000264
0.000272
0.000250
0.000199
0.000056
0.000203
0.001359
0.000285
0.000211
0.000230
0.000252
0.000258
0.000234
0.000237
0.000249
0.000260
0.000263
0.000239
0.000363
0.000442
0.000453
0.000227
0.000243
0.000266
0.000267
0.000271
0.000228
0.000263
0.000257
0.001344
0.000670
0.000313
0.000383
0.000379
0.000401
0.000298
0.000056
0.000196
0.000239
0.000364
0.001320
0.000204
0.000268
0.000223
0.000252
0.000256
0.000256
0.000253
0.000244
0.000268
0.000337
0.000621
0.000266
0.000215
0.000344
0.000275
0.000214
0.000246
0.000279
0.000227
0.000274
0.000270
0.001545
0.000724
0.000308
0.000279
0.000268
0.000188
0.000055
0.000180
0.000278
0.000447
0.000331
0.001298
0.000251
0.000215
0.000241
0.000237
0.000240
0.000249
0.000259
0.000231
0.000233
0.000258
0.000255
0.000272
0.000235
0.000251
0.000260
0.000265
0.000268
0.000315
0.000335
0.000215
0.000254
0.000267
0.001466
0.000256
0.000245
0.000171
0.000056
0.000209
0.000229
0.000250
0.000269
0.000356
0.000380
0.000393
0.000276
0.001567
0.000234
0.000283
0.000545
0.000299
0.000242
0.000432
0.000237
0.000227
0.000270
0.000274
0.000266
0.000285
0.000260
0.000258
0.000273
0.000277
0.000377
0.000444
0.000292
0.001588
0.000219
0.000190
0.000056
0.000175
0.000236
0.000248
0.000243
0.000242
0.000248
0.000261
0.000327
0.000392
0.002048
0.000227
0.000235
0.000258
0.000259
0.000258
0.000258
0.000283
0.000235
0.000262
0.000434
0.000459
0.000370
0.001455
0.000241
0.000526
0.000258
0.001753
0.000230
0.000262
0.001533
0.000154
0.000057
0.000383
0.000428
0.000392
0.000268
0.000240
0.000237
0.000247
0.000270
0.000260
0.000226
0.000252
0.000360
0.000397
0.000393
0.000373
0.000252
0.000226
0.001572
0.000248
0.000572
0.001874
0.000294
0.000224
0.001579
0.001994
0.000732
0.000287
0.000243
0.000373
0.000458
0.000220
0.000055
0.000220
0.000249
0.000245
0.000248
0.001415
0.002565
0.000253
0.000199
0.000254
0.001642
0.001909
0.000200
0.000244
0.000424
0.000383
0.000371
0.000337
0.000460
0.000212
0.000238
0.000254
0.000255
0.000274
0.001660
0.001143
0.001427
0.000283
0.000295
0.000250
0.000296
0.000372
0.000057
0.000196
0.000243
0.000231
0.000243
0.000226
0.000247
0.000250
0.000246
0.000261
0.000247
0.000243
0.000354
0.000417
0.000461
0.000278
0.000244
0.000251
0.000281
0.000256
0.000267
0.000257
0.000262
0.001500
0.000491
0.002110
0.000230
0.000263
0.000331
0.000507
0.000370
0.000162
0.000056
0.000222
0.000352
0.000469
0.000309
0.000206
0.000221
0.000252
0.000241
0.000242
0.000242
0.000250
0.000264
0.000261
0.001606
0.001359
0.001227
0.000276
0.000224
0.000251
0.000273
0.000284
0.000277
0.000234
0.000260
0.002213
0.000247
0.000240
0.000303
0.000323
0.000307
0.000221
0.000057
0.000182
0.000375
0.000602
0.000258
0.000232
0.000232
0.000245
0.000269
0.001903
0.001424
0.000222
0.000333
0.000383
0.000415
0.000275
0.000193
0.000262
0.000267
0.000258
0.000266
0.000261
0.000286
0.000448
0.000232
0.000275
0.000273
0.000241
0.000279
0.000282
0.000252
0.000196
0.000056
0.000196
0.000244
0.000256
0.000235
0.000254
0.000271
0.001548
0.001414
0.001332
0.000241
0.000216
0.000242
0.000267
0.000265
0.000245
0.000252
0.000243
0.002113
0.000258
0.000227
0.000262
0.000261
0.000254
0.000286
0.000247
0.000255
0.000274
0.000254
0.000287
0.000252
0.000171
0.000056
0.000176
0.002688
0.001400
0.000207
0.000303
0.000303
0.000225
0.000266
0.000256
0.000240
0.000255
0.000267
0.000210
0.000251
0.000267
0.000254
0.000277
0.000258
0.000255
0.000274
0.000264
0.000287
0.000272
0.000264
0.000248
0.000243
0.000264
0.000276
0.000261
0.000266
0.000376
0.000055
0.001542
0.000255
0.001244
0.000233
0.000209
0.000257
0.000245
0.000252
0.000243
0.000302
0.000355
0.000479
0.000232
0.000210
0.000248
0.002165
0.000243
0.000231
0.000262
0.000527
0.000494
0.000180
0.000218
0.000250
0.000275
0.000241
0.000265
0.000277
0.000271
0.001684
0.001201
0.000056
0.000189
0.000230
0.000349
0.000370
0.000462
0.000163
0.000202
0.000234
0.000247
0.000265
0.000263
0.000246
0.000229
0.000257
0.000260
0.000243
0.000386
0.000622
0.000324
0.000224
0.000214
0.000279
0.000281
0.000247
0.000249
0.000248
0.000269
0.000274
0.000246
0.000355
0.000349
0.000058
0.001124
0.000240
0.000343
0.000477
0.000245
0.000235
0.000244
0.000217
0.000249
0.002305
0.000368
0.000390
0.000218
0.000380
0.000274
0.000261
0.000262
0.000252
0.000273
0.000222
0.000253
0.000323
0.000700
0.000308
0.001879
0.001293
0.000554
0.000536
0.000220
0.000281
0.000196
0.000056
0.000331
0.000245
0.000246
0.000239
0.000266
0.000211
0.000252
0.000256
0.000255
0.000250
0.000258
0.000226
0.000241
0.000261
0.000443
0.000453
0.001843
0.001320
0.000450
0.000443
0.000450
0.000246
0.000230
0.000272
0.002126
0.000565
0.000388
0.000216
0.000302
0.000262
0.000194
0.000058
0.000190
0.000246
0.000257
0.000240
0.000291
0.000360
0.000357
0.000290
0.000308
0.000244
0.000245
0.000253
0.000259
0.002227
0.000271
0.000370
0.000211
0.000252
0.000267
0.000265
0.000244
0.002453
0.000355
0.000213
0.000257
0.000271
0.000235
0.000273
0.000285
0.000278
0.000192
0.000055
0.000241
0.000315
0.000519
0.000384
0.000266
0.000216
0.000228
0.000277
0.000245
0.000247
0.001966
0.000377
0.000279
0.000277
0.000226
0.000273
0.000269
0.000241
0.002216
0.000447
0.000213
0.000268
0.000267
0.000260
0.000255
0.000254
0.000284
0.000252
0.000267
0.000252
0.000187
0.000055
0.000199
0.000248
0.000242
0.000223
0.000249
0.000259
0.000231
0.000247
0.000237
0.002183
0.000227
0.000283
0.000212
0.000426
0.000240
0.000240
0.000277
0.000291
0.000240
0.000266
0.001970
0.000272
0.000343
0.000368
0.000456
0.000382
0.000305
0.000256
0.000244
0.000248
0.000204
0.000056
0.000207
0.000232
0.000242
0.000243
0.000259
0.000334
0.000226
0.002280
0.000247
0.000238
0.000259
0.000252
0.000236
0.000255
0.000308
0.002122
0.000597
0.000221
0.000245
0.000244
0.000260
0.000259
0.000289
0.000268
0.000262
0.000253
0.000287
0.000251
0.000265
0.000263
0.000192
0.000056
0.001829
0.001448
0.000190
0.000226
0.000245
0.000254
0.000252
0.000257
0.000473
0.000291
0.002178
0.000262
0.000232
0.000262
0.000425
0.000412
0.000360
0.000293
0.000218
0.000248
0.000259
0.000260
0.000269
0.000225
0.000252
0.000273
0.000266
0.000259
0.000351
0.000624
0.000339
0.000058
0.000193
0.000237
0.000258
0.000242
0.000268
0.000247
0.000259
0.000239
0.001497
0.002105
0.000587
0.000283
0.000396
0.000736
0.000302
0.000242
0.000250
0.000247
0.000271
0.000254
0.000272
0.000230
0.000247
0.001835
0.000339
0.001390
0.000282
0.000291
0.000272
0.000332
0.000388
0.000057
0.001931
0.000220
0.000232
0.000218
0.000311
0.000397
0.000451
0.000257
0.000284
0.000223
0.000238
0.000249
0.000259
0.000255
0.000277
0.000246
0.000253
0.000266
0.001844
0.000247
0.000222
0.000266
0.000268
0.000276
0.000276
0.000264
0.001487
0.000306
0.000237
0.000265
0.000171
0.000056
0.000190
0.000232
0.000245
0.000246
0.000246
0.000244
0.000308
0.000383
0.000446
0.000254
0.000214
0.000244
0.000265
0.000336
0.000426
0.000319
0.000216
0.000248
0.000265
0.000394
0.000412
0.000479
0.000228
0.000263
0.000259
0.000251
0.000256
0.000269
0.000275
0.000264
0.000202
0.000057
0.001436
0.000419
0.000222
0.001938
0.000265
0.000515
0.000389
0.000282
0.000223
0.000254
0.000265
0.000240
0.000249
0.000244
0.000268
0.000265
0.000443
0.000304
0.000406
0.000490
0.000231
0.000223
0.000253
0.000266
0.000280
0.000263
0.000265
0.000263
0.000390
0.000470
0.001349
0.000056
0.000197
0.000224
0.002075
0.000333
0.000284
0.000261
0.000271
0.000230
0.000264
0.000257
0.000239
0.000229
0.000250
0.000263
0.000263
0.000367
0.000748
0.001712
0.000228
0.000251
0.000261
0.000260
0.000400
0.000410
0.001589
0.000277
0.000363
0.001926
0.000274
0.000244
0.000193
0.000057
0.000207
0.000231
0.000232
0.000241
0.000230
0.000250
0.000255
0.000282
0.000329
0.000279
0.000381
0.000356
0.000342
0.000302
0.000225
0.000276
0.000259
0.000236
0.000279
0.000242
0.000302
0.000286
0.000270
0.000261
0.000265
0.001515
0.000291
0.000388
0.002067
0.000231
0.000172
0.000080
0.000203
0.000240
0.000236
0.000248
0.000483
0.000212
0.000250
0.000325
0.000423
0.000274
0.000297
0.000213
0.000259
0.000269
0.000268
0.000333
0.000390
0.000465
0.000254
0.000393
0.000587
0.000422
0.001552
0.000228
0.000246
0.002028
0.000350
0.000206
0.000223
0.000301
0.000180
0.000056
0.000197
0.000250
0.000222
0.000245
0.000249
0.000268
0.000255
0.000271
0.000250
0.000267
0.001799
0.000345
0.000365
0.000311
0.000430
0.000367
0.000335
0.001524
0.000240
0.000298
0.002094
0.000563
0.000262
0.000242
0.000251
0.000271
0.000500
0.000236
0.000244
0.000283
0.000198
0.000056
0.000280
0.000359
0.000375
0.000308
0.000183
0.000235
0.000261
0.000247
0.000276
0.000293
0.000220
0.000256
0.000249
0.000257
0.000354
0.001514
0.000317
0.000206
0.000288
0.001904
0.000375
0.000271
0.000266
0.000253
0.000244
0.000280
0.000265
0.000266
0.000247
0.000265
0.000204
0.000055
0.000217
0.000483
0.001969
0.000248
0.000259
0.000228
0.000275
0.000263
0.000479
0.000395
0.001309
0.000376
0.002107
0.000340
0.000195
0.000235
0.000271
0.000275
0.000257
0.000253
0.000272
0.000294
0.000253
0.000328
0.000553
0.000334
0.000333
0.002208
0.000492
0.000518
0.000352
0.000057
0.000207
0.000228
0.000235
0.001975
0.000233
0.000212
0.000252
0.000241
0.000238
0.000264
0.000237
0.000268
0.000248
0.000271
0.000465
0.001466
0.000236
0.000264
0.000248
0.000261
0.000229
0.000257
0.000282
0.000245
0.000335
0.000442
0.000491
0.000219
0.001602
0.000289
0.000157
0.000056
0.000200
0.000217
0.000244
0.000235
0.000254
0.000254
0.000248
0.000253
0.000251
0.000418
0.000384
0.001363
0.000237
0.000212
0.000255
0.000260
0.000256
0.000250
0.000519
0.000402
0.000486
0.000231
0.000227
0.001572
0.000231
0.000250
0.000306
0.000267
0.000266
0.000268
0.000184
0.000056
0.000218
0.000220
0.000267
0.000269
0.000257
0.000235
0.000239
0.000235
0.000265
0.000236
0.000253
0.000259
0.000251
0.001493
0.000363
0.000206
0.000247
0.000267
0.000283
0.000311
0.000381
0.000264
0.000239
0.000265
0.000261
0.000262
0.000257
0.001409
0.000289
0.000232
0.000180
0.000055
0.000202
0.000221
0.000258
0.000264
0.000257
0.000234
0.000248
0.000258
0.000224
0.000289
0.000223
0.000255
0.000224
0.000373
0.000301
0.000377
0.000247
0.000249
0.001632
0.000243
0.000241
0.000251
0.000267
0.000315
0.000354
0.000386
0.000451
0.000256
0.000261
0.001602
0.000176
0.000057
0.000384
0.000269
0.000411
0.000278
0.000212
0.000222
0.000246
0.000270
0.000253
0.000240
0.000256
0.000227
0.001477
0.000291
0.000307
0.000204
0.000256
0.000260
0.000266
0.000265
0.000255
0.000235
0.000270
0.000263
0.000352
0.000258
0.000543
0.000278
0.000278
0.000267
0.000183
0.000057
0.000207
0.000243
0.000472
0.000453
0.000294
0.000205
0.000248
0.000253
0.000250
0.000257
0.000241
0.000220
0.000267
0.000248
0.001362
0.000192
0.000232
0.000245
0.000272
0.000270
0.000234
0.000263
0.000259
0.000255
0.000254
0.000259
0.000400
0.000601
0.000458
0.000223
0.000186
0.000056
0.000199
0.001566
0.000246
0.000404
0.000383
0.000383
0.000209
0.000262
0.000259
0.000262
0.000228
0.000261
0.000275
0.000286
0.000243
0.001530
0.000245
0.000287
0.000263
0.000249
0.000268
0.000254
0.000261
0.000264
0.000258
0.000327
0.000472
0.000259
0.000362
0.000250
0.000173
0.000055
0.000205
0.000257
0.000224
0.001756
0.000289
0.000348
0.000217
0.000244
0.000251
0.000266
0.000285
0.000255
0.000246
0.000262
0.000232
0.000324
0.000386
0.001291
0.000238
0.000232
0.001509
0.000521
0.000350
0.000402
0.000351
0.000227
0.000268
0.000457
0.000230
0.000265
0.000188
0.000057
0.000284
0.000216
0.000249
0.000240
0.000248
0.000256
0.000238
0.000257
0.000263
0.000232
0.000253
0.000260
0.000339
0.000499
0.001641
0.001608
0.000244
0.000574
0.000301
0.000209
0.000241
0.000256
0.000253
0.000263
0.000248
0.000275
0.000249
0.000274
0.001553
0.000301
0.000171
0.000057
0.000212
0.000354
0.000353
0.000331
0.000249
0.000205
0.000243
0.000517
0.000348
0.000294
0.002169
0.000322
0.000704
0.000512
0.000449
0.000264
0.000333
0.000397
0.000323
0.000280
0.000386
0.000244
0.001555
0.000534
0.000211
0.000276
0.000241
0.000249
0.000266
0.000271
0.000195
0.000056
0.000206
0.000252
0.000259
0.000246
0.000242
0.001664
0.000880
0.000997
0.000210
0.000226
0.000266
0.000256
0.000257
0.000265
0.000248
0.000250
0.000254
0.000265
0.000266
0.000279
0.001435
0.000311
0.000257
0.000221
0.000237
0.000259
0.000261
0.000283
0.000264
0.000284
0.001908
0.000059
0.000179
0.000232
0.001571
0.000829
0.000430
0.000313
0.000236
0.000232
0.000252
0.000266
0.000230
0.000255
0.000248
0.002102
0.000367
0.000212
0.000243
0.000256
0.000266
0.000257
0.000190
