0.000199
0.016158
0.005433
0.000339
0.000266
0.000285
0.000307
0.000242
0.000339
0.000279
0.000249
0.000382
0.000594
0.000343
0.000450
0.000299
0.000290
0.000350
0.000348
0.000408
0.000313
0.001907
0.000707
0.000247
0.000257
0.000312
0.000294
0.000333
0.000479
0.000363
0.000535
0.000221
0.000057
0.000205
0.000267
0.000271
0.000266
0.000268
0.000249
0.000283
0.000264
0.000265
0.000282
0.000443
0.000435
0.000317
0.000263
0.000412
0.000297
0.000363
0.000260
0.000244
0.001707
0.000305
0.000261
0.000448
0.000244
0.000279
0.000271
0.000289
0.000294
0.000284
0.000316
0.000460
0.000056
0.000246
0.000257
0.000265
0.000255
0.000257
0.000243
0.000255
0.000262
0.000285
0.001674
0.000219
0.000237
0.000275
0.000267
0.000275
0.000256
0.000260
0.000253
0.000360
0.001797
0.000241
0.000277
0.000442
0.000490
0.000352
0.000226
0.000236
0.000468
0.000487
0.000790
0.000185
0.000056
0.000224
0.000242
0.000253
0.000240
0.000345
0.000206
0.000298
0.000581
0.000378
0.000250
0.000248
0.000244
0.000244
0.000254
0.000257
0.000259
0.000241
0.000268
0.000297
0.000326
0.001670
0.000276
0.000256
0.000418
0.000264
0.000731
0.000662
0.000633
0.000250
0.000230
0.000194
0.000056
0.000218
0.000252
0.000260
0.000238
0.000261
0.000252
0.000254
0.000463
0.001479
0.000220
0.000246
0.000250
0.000250
0.000259
0.000263
0.000286
0.000326
0.000738
0.001403
0.000277
0.000459
0.000261
0.000233
0.000212
0.000260
0.000264
0.000256
0.000280
0.000254
0.000271
0.000190
0.000055
0.000204
0.000250
0.000241
0.000265
0.000236
0.000247
0.000243
0.000253
0.000247
0.000244
0.001633
0.000269
0.000235
0.000233
0.000255
0.000254
0.000246
0.000243
0.000253
0.000280
0.000246
0.001672
0.000287
0.000246
0.000439
0.000253
0.000243
0.000273
0.000263
0.000270
0.000197
0.000055
0.000183
0.000229
0.000247
0.000250
0.000244
0.000246
0.000265
0.000230
0.000267
0.000247
0.000257
0.000263
0.000255
0.000275
0.001637
0.000280
0.000291
0.000211
0.000253
0.000274
0.000265
0.000246
0.000236
0.000272
0.001784
0.000410
0.000332
0.000359
0.000239
0.000281
0.000199
0.000058
0.000192
0.000241
0.000241
0.000270
0.000257
0.000238
0.000278
0.000465
0.000350
0.000442
0.000205
0.000309
0.000193
0.000250
0.001563
0.000534
0.000292
0.000426
0.000318
0.000229
0.000271
0.000308
0.000250
0.001741
0.000509
0.000453
0.000256
0.000249
0.000241
0.000297
0.000154
0.000059
0.000193
0.000227
0.000258
0.000304
0.000303
0.000423
0.000386
0.000280
0.000219
0.000243
0.000264
0.000238
0.000257
0.001703
0.000489
0.000282
0.000225
0.000263
0.000274
0.000276
0.000254
0.000256
0.000274
0.001930
0.000273
0.000380
0.000258
0.000244
0.000268
0.000419
0.000327
0.000057
0.000206
0.000385
0.000324
0.000325
0.000243
0.000242
0.000248
0.000263
0.000244
0.000229
0.000239
0.000252
0.001548
0.000389
0.000274
0.000225
0.000262
0.000257
0.000237
0.000288
0.000275
0.000333
0.000244
0.001814
0.000250
0.000502
0.000232
0.000264
0.000259
0.000292
0.000231
0.000059
0.000304
0.000587
0.000582
0.000221
0.000218
0.000285
0.000231
0.000216
0.000258
0.000255
0.000256
0.001705
0.000251
0.000441
0.000365
0.000217
0.000238
0.000231
0.000263
0.000253
0.000255
0.001857
0.000232
0.000241
0.002085
0.000511
0.000362
0.000247
0.000252
0.000267
0.000183
0.000057
0.000199
0.000244
0.000244
0.000246
0.000253
0.001619
0.000254
0.000229
0.000253
0.000256
0.000245
0.000251
0.000235
0.000257
0.000285
0.000762
0.000264
0.000264
0.000240
0.000263
0.000260
0.000251
0.000248
0.000429
0.000438
0.000260
0.000352
0.000756
0.000243
0.000256
0.000211
0.000056
0.000212
0.000235
0.000261
0.000250
0.000235
0.000235
0.000240
0.000421
0.000396
0.001738
0.000218
0.000235
0.000241
0.000249
0.000257
0.000265
0.000458
0.000467
0.000371
0.000215
0.000255
0.000337
0.000249
0.000257
0.000271
0.000438
0.000345
0.000535
0.000548
0.000429
0.000175
0.000056
0.000192
0.000258
0.000236
0.000224
0.000237
0.000242
0.000250
0.000239
0.000245
0.000302
0.000358
0.000441
0.001367
0.000237
0.000230
0.000269
0.000244
0.000249
0.000249
0.000257
0.000286
0.000471
0.000377
0.000273
0.000256
0.000264
0.000253
0.000277
0.000257
0.000271
0.000386
0.000056
0.000205
0.000236
0.000235
0.000274
0.000541
0.000424
0.000230
0.000259
0.000240
0.000253
0.000246
0.000239
0.000297
0.000249
0.000235
0.000540
0.000403
0.001608
0.000288
0.000216
0.000262
0.000264
0.000259
0.000238
0.000254
0.000521
0.000384
0.000371
0.000419
0.000243
0.000182
0.000057
0.000231
0.000434
0.000242
0.000207
0.000268
0.000239
0.000274
0.000586
0.000326
0.000327
0.000231
0.000258
0.000271
0.000238
0.000520
0.000349
0.000223
0.000262
0.000474
0.001556
0.000263
0.000242
0.000528
0.000238
0.000282
0.000268
0.000282
0.000364
0.000542
0.000423
0.000198
0.000056
0.000206
0.000240
0.000238
0.000241
0.000415
0.000308
0.000297
0.000218
0.000559
0.000360
0.000327
0.000262
0.000236
0.000253
0.000245
0.000267
0.000258
0.000253
0.000237
0.000343
0.000289
0.000349
0.001832
0.000236
0.000257
0.000254
0.000294
0.000351
0.000412
0.000702
0.000424
0.000059
0.000247
0.000333
0.000284
0.000426
0.000394
0.000208
0.000247
0.000313
0.000547
0.000357
0.000263
0.000232
0.000246
0.000267
0.000267
0.000230
0.000255
0.000275
0.000267
0.000261
0.000262
0.000429
0.000673
0.001303
0.000337
0.000467
0.000391
0.000242
0.000426
0.000408
0.000363
0.000056
0.000249
0.000381
0.000273
0.000198
0.000227
0.000245
0.000416
0.000242
0.000222
0.000382
0.000447
0.000421
0.000240
0.000259
0.000261
0.000255
0.000376
0.000384
0.000348
0.000234
0.000239
0.000471
0.000565
0.001665
0.000222
0.000459
0.000293
0.000232
0.000233
0.000521
0.000279
0.000056
0.000180
0.000235
0.000242
0.000248
0.000245
0.000247
0.000255
0.000322
0.000455
0.000239
0.000478
0.000384
0.000281
0.000574
0.000245
0.000247
0.000270
0.000266
0.000233
0.000355
0.000216
0.000242
0.000275
0.000399
0.000483
0.001677
0.000265
0.000241
0.000245
0.000272
0.000185
0.000055
0.000290
0.000500
0.000314
0.000223
0.000258
0.000237
0.000260
0.000238
0.000262
0.000243
0.000228
0.000245
0.000412
0.000527
0.000424
0.000253
0.000257
0.000248
0.000354
0.000383
0.000384
0.000334
0.000419
0.000360
0.000217
0.000247
0.000265
0.000282
0.001772
0.000261
0.000209
0.000055
0.000204
0.000212
0.000260
0.000274
0.000372
0.000542
0.000306
0.000212
0.000259
0.000257
0.000253
0.000248
0.000517
0.000454
0.000483
0.000291
0.000270
0.000254
0.000422
0.000463
0.000407
0.000352
0.000481
0.000448
0.000244
0.000238
0.000279
0.000249
0.000250
0.001714
0.000328
0.000055
0.000291
0.000329
0.000207
0.000235
0.000272
0.000232
0.000248
0.000503
0.000367
0.000308
0.000297
0.000283
0.000370
0.000577
0.000374
0.000227
0.000256
0.000254
0.000252
0.000263
0.000266
0.000269
0.000246
0.000265
0.000330
0.000355
0.000385
0.000362
0.000239
0.000282
0.000171
0.000054
0.000442
0.000337
0.000427
0.000261
0.000204
0.000245
0.000250
0.000252
0.000239
0.000219
0.000249
0.000279
0.000294
0.000399
0.000541
0.000476
0.000265
0.000331
0.000379
0.000333
0.000286
0.000243
0.000251
0.000254
0.001753
0.000256
0.001724
0.000934
0.000449
0.000275
0.000177
0.000055
0.000218
0.000228
0.000236
0.000254
0.000245
0.000246
0.000256
0.000257
0.000235
0.000316
0.000355
0.000459
0.000328
0.000370
0.000263
0.000248
0.000247
0.000289
0.000228
0.000245
0.000257
0.000259
0.001817
0.000233
0.000257
0.000268
0.000292
0.000248
0.001875
0.000581
0.000202
0.000056
0.000209
0.000213
0.000239
0.000239
0.000253
0.000249
0.000244
0.000252
0.000256
0.000383
0.000572
0.000477
0.000242
0.000201
0.000231
0.000258
0.000334
0.000448
0.000382
0.000232
0.001772
0.000250
0.000243
0.000255
0.000272
0.000258
0.000240
0.000253
0.000337
0.000322
0.000363
0.000056
0.000255
0.000222
0.000231
0.000259
0.000246
0.000245
0.000258
0.000256
0.000234
0.000260
0.000241
0.000298
0.000331
0.000385
0.000402
0.000273
0.000443
0.000229
0.000245
0.000264
0.000275
0.000240
0.000280
0.000251
0.000282
0.001797
0.000232
0.000245
0.000270
0.000242
0.000195
0.000055
0.000400
0.000269
0.000199
0.000215
0.000240
0.000235
0.000241
0.000275
0.000227
0.000225
0.000233
0.000263
0.000259
0.000375
0.000393
0.000334
0.000307
0.000248
0.000250
0.000244
0.000262
0.000263
0.000249
0.000275
0.000247
0.000262
0.000313
0.001634
0.000265
0.000237
0.000177
0.000056
0.000215
0.000218
0.000257
0.000257
0.000349
0.000364
0.000375
0.000325
0.000225
0.000261
0.000251
0.000238
0.000246
0.000258
0.000282
0.000235
0.000249
0.000256
0.000259
0.000254
0.000265
0.000270
0.000249
0.000239
0.000239
0.000283
0.000276
0.000256
0.000263
0.000267
0.000182
0.000055
0.000209
0.000237
0.000256
0.000258
0.000233
0.000254
0.000246
0.000259
0.000283
0.000236
0.000229
0.000252
0.000251
0.000251
0.000274
0.000258
0.000255
0.000254
0.000291
0.000250
0.000279
0.000294
0.000275
0.000244
0.000276
0.000276
0.000272
0.000246
0.000285
0.000424
0.000581
0.000057
0.000229
0.000291
0.000218
0.000227
0.000239
0.000248
0.000241
0.000253
0.000246
0.000247
0.000281
0.000302
0.000472
0.000468
0.001547
0.000237
0.000482
0.000234
0.000293
0.000397
0.000428
0.000408
0.000230
0.000275
0.000252
0.000264
0.000277
0.000254
0.000310
0.000256
0.000181
0.000056
0.000363
0.000448
0.000292
0.000318
0.000231
0.000243
0.000248
0.000246
0.000238
0.000244
0.000252
0.000256
0.000230
0.000291
0.000320
0.000553
0.000348
0.001810
0.000224
0.000255
0.000366
0.000406
0.000457
0.000276
0.000311
0.000321
0.000303
0.000226
0.000237
0.000249
0.000194
0.000056
0.000222
0.000225
0.000242
0.000293
0.000351
0.000539
0.000245
0.000258
0.000256
0.000219
0.000240
0.000271
0.000269
0.000259
0.000244
0.000258
0.000375
0.000458
0.000361
0.000386
0.000226
0.001754
0.000331
0.000485
0.000470
0.000499
0.000324
0.000233
0.000252
0.000273
0.000439
0.000056
0.000209
0.000299
0.000194
0.000247
0.000472
0.000550
0.000275
0.000216
0.000238
0.000311
0.000226
0.000259
0.000253
0.000296
0.000309
0.000233
0.000227
0.000430
0.000444
0.000332
0.000486
0.001850
0.000249
0.000402
0.000540
0.000373
0.000222
0.000250
0.000295
0.000251
0.000207
0.000056
0.000226
0.000334
0.000359
0.000330
0.000404
0.000278
0.000366
0.000220
0.000234
0.000265
0.000276
0.000228
0.000238
0.000252
0.000246
0.000263
0.000324
0.000351
0.000544
0.000360
0.000289
0.000223
0.000269
0.001722
0.000493
0.000547
0.000573
0.000245
0.000248
0.000312
0.000157
0.000055
0.000197
0.000236
0.000323
0.000254
0.000266
0.000339
0.000465
0.000295
0.000226
0.000535
0.000232
0.000248
0.000264
0.000277
0.000273
0.000266
0.000217
0.000338
0.000445
0.000467
0.000267
0.000225
0.000261
0.000251
0.000264
0.000262
0.000241
0.000257
0.000259
0.000316
0.000172
0.000056
0.000268
0.000357
0.000238
0.000225
0.000253
0.000251
0.000247
0.000291
0.000238
0.000245
0.000256
0.000350
0.000423
0.000466
0.000289
0.000289
0.000218
0.000225
0.000257
0.000267
0.000289
0.000258
0.000235
0.000263
0.000281
0.000341
0.000359
0.000477
0.000269
0.000247
0.000178
0.000057
0.000208
0.000212
0.000285
0.000242
0.000237
0.000252
0.000257
0.000264
0.000485
0.000214
0.000257
0.000249
0.000250
0.000279
0.000261
0.000275
0.000260
0.000351
0.000228
0.000241
0.000246
0.000274
0.000314
0.000207
0.000274
0.000261
0.000262
0.000264
0.000510
0.000245
0.000144
0.000056
0.000211
0.000239
0.000245
0.000272
0.000219
0.000245
0.000363
0.000412
0.000234
0.000240
0.000247
0.000254
0.000240
0.000258
0.000357
0.001876
0.000224
0.000267
0.000283
0.000396
0.000363
0.000355
0.000355
0.000428
0.000344
0.000429
0.000234
0.000267
0.000270
0.000274
0.001389
0.000057
0.000302
0.000281
0.000282
0.000219
0.000227
0.000260
0.000228
0.000254
0.000245
0.000270
0.000247
0.000255
0.000250
0.000250
0.000622
0.001597
0.000238
0.000230
0.000239
0.000270
0.000240
0.000254
0.000407
0.000367
0.000271
0.000363
0.000224
0.000263
0.000278
0.000256
0.000184
0.000056
0.001196
0.000634
0.000251
0.000243
0.000252
0.000210
0.000231
0.000236
0.000487
0.000228
0.000236
0.000294
0.000303
0.000626
0.000295
0.000354
0.000239
0.000229
0.000348
0.000338
0.000270
0.000258
0.000273
0.000252
0.000272
0.000635
0.000494
0.000266
0.000251
0.000260
0.000171
0.000056
0.000239
0.000196
0.000240
0.000245
0.001581
0.000198
0.000216
0.000256
0.000229
0.000254
0.000250
0.000255
0.000241
0.000270
0.000264
0.000260
0.000461
0.000690
0.000235
0.001746
0.000270
0.000265
0.000305
0.000401
0.000649
0.000326
0.000243
0.000255
0.000258
0.000265
0.000195
0.000056
0.000266
0.000208
0.000235
0.000350
0.001227
0.000227
0.000259
0.000262
0.000238
0.000234
0.000238
0.000248
0.000279
0.000253
0.000249
0.000276
0.000609
0.000300
0.000309
0.000263
0.000257
0.000281
0.000248
0.000234
0.000291
0.000255
0.000245
0.000275
0.000270
0.000295
0.000616
0.000056
0.000217
0.000243
0.000246
0.000257
0.000260
0.000247
0.000241
0.000253
0.000268
0.000258
0.001439
0.000230
0.000229
0.000247
0.000247
0.000244
0.000268
0.000264
0.000264
0.000260
0.000271
0.000555
0.000360
0.000429
0.000222
0.000276
0.001765
0.000270
0.000238
0.000302
0.000450
0.000055
0.000198
0.000414
0.000431
0.000501
0.000516
0.000600
0.001434
0.000418
0.000524
0.000651
0.000555
0.000764
0.000439
0.000621
0.000575
0.001888
0.000392
0.000450
0.000397
0.000313
0.000229
0.000304
0.000254
0.000258
0.000248
0.000307
0.000294
0.000286
0.000253
0.000290
0.001371
0.000056
0.000205
0.000222
0.000247
0.000230
0.000264
0.000258
0.000233
0.000242
0.000253
0.000251
0.000233
0.000250
0.000243
0.000260
0.000270
0.000265
0.001819
0.000276
0.000244
0.000244
0.000277
0.000253
0.000281
0.000286
0.000531
0.000262
0.000363
0.000226
0.000256
0.000287
0.000203
0.000056
0.000192
0.001362
0.000333
0.000261
0.000260
0.000240
0.000244
0.000231
0.000241
0.000235
0.000217
0.000246
0.000249
0.000507
0.000355
0.000287
0.000262
0.000265
0.001928
0.000226
0.000243
0.000274
0.000245
0.000266
0.000277
0.000277
0.000269
0.000258
0.000265
0.000323
0.000202
0.000056
0.000219
0.000239
0.000245
0.001448
0.000211
0.000254
0.000247
0.000247
0.000232
0.000270
0.000249
0.000254
0.000238
0.000258
0.000252
0.000279
0.000250
0.000266
0.000266
0.000252
0.000267
0.001769
0.000284
0.001748
0.000268
0.000248
0.000261
0.000269
0.000269
0.000274
0.000204
0.000056
0.000199
0.000246
0.001344
0.000229
0.000252
0.000240
0.000260
0.000255
0.000245
0.000248
0.000251
0.000250
0.000257
0.000261
0.000271
0.000249
0.000264
0.000296
0.000284
0.000232
0.001887
0.000233
0.001826
0.000244
0.000266
0.000267
0.000229
0.000250
0.000255
0.000270
0.000194
0.000055
0.001453
0.000222
0.000228
0.000238
0.000242
0.000236
0.000372
0.000272
0.000245
0.000259
0.000252
0.000261
0.000311
0.000371
0.000312
0.000308
0.000236
0.000267
0.000253
0.000254
0.000269
0.000338
0.000237
0.000251
0.000270
0.000271
0.000273
0.000348
0.000681
0.000311
0.000203
0.000056
0.000213
0.000251
0.000255
0.000304
0.000363
0.000260
0.001706
0.000292
0.000285
0.000268
0.000246
0.000275
0.000287
0.000238
0.000306
0.000312
0.000383
0.000573
0.000320
0.000281
0.000297
0.000266
0.000260
0.000270
0.000335
0.000290
0.000235
0.000236
0.000260
0.000342
0.000378
0.000056
0.000254
0.000466
0.000270
0.000265
0.000248
0.000230
0.000220
0.000250
0.000255
0.000256
0.001520
0.000225
0.000222
0.000250
0.000250
0.000285
0.000314
0.000202
0.000260
0.000263
0.000271
0.000329
0.000541
0.000356
0.000261
0.000290
0.000272
0.000255
0.000232
0.000319
0.000171
0.000056
0.000197
0.000227
0.000309
0.000442
0.000399
0.000251
0.000212
0.000256
0.000247
0.000249
0.000232
0.000260
0.000260
0.000262
0.000242
0.000226
0.000392
0.001237
0.000233
0.000241
0.000292
0.000236
0.000360
0.000423
0.000250
0.000269
0.000629
0.000366
0.000359
0.000240
0.000177
0.000056
0.000212
0.000246
0.000261
0.000266
0.000263
0.000237
0.000375
0.000458
0.000349
0.000287
0.000368
0.000389
0.000389
0.000361
0.000246
0.000243
0.000238
0.000276
0.000441
0.001379
0.000294
0.000224
0.000272
0.000275
0.000234
0.000235
0.000266
0.000346
0.000388
0.000440
0.000264
0.000056
0.000210
0.000248
0.000243
0.000243
0.000245
0.000250
0.000231
0.000265
0.000310
0.000385
0.000372
0.000391
0.000259
0.000232
0.000242
0.000261
0.000243
0.000265
0.000265
0.000246
0.000443
0.000288
0.000354
0.000448
0.000275
0.000243
0.000288
0.000262
0.000251
0.000347
0.000150
0.000055
0.000306
0.000314
0.000289
0.000491
0.000327
0.000380
0.000253
0.000240
0.000251
0.000273
0.000251
0.000265
0.000238
0.000248
0.000245
0.000229
0.000273
0.000378
0.000443
0.000379
0.000230
0.000273
0.000238
0.000242
0.000273
0.000273
0.000273
0.000260
0.000277
0.000262
0.000269
0.000056
0.000401
0.000213
0.000230
0.000250
0.000243
0.000248
0.000245
0.000252
0.000264
0.000261
0.000250
0.000238
0.000282
0.000509
0.000435
0.000273
0.000256
0.000238
0.000255
0.000270
0.000249
0.000269
0.000251
0.000267
0.000275
0.000318
0.000391
0.000613
0.000415
0.000249
0.000167
0.000059
0.000369
0.000206
0.000222
0.000251
0.000258
0.000244
0.000241
0.000252
0.000255
0.000261
0.000216
0.000248
0.000277
0.000220
0.000259
0.000251
0.000252
0.000259
0.000275
0.000252
0.000273
0.000255
0.000268
0.000261
0.000270
0.000230
0.000272
0.000275
0.000257
0.000299
0.000176
0.000056
0.000190
0.000238
0.000247
0.000256
0.000231
0.000258
0.000256
0.000241
0.000259
0.000279
0.000226
0.000227
0.000264
0.000404
0.000243
0.000282
0.000262
0.000261
0.000257
0.000279
0.000275
0.000232
0.000248
0.000253
0.000271
0.000271
0.000258
0.000243
0.000295
0.000241
0.000201
0.000055
0.000200
0.000359
0.000367
0.000282
0.000294
0.000248
0.000269
0.000257
0.000227
0.000241
0.000253
0.000270
0.000242
0.000249
0.000247
0.000257
0.000261
0.000274
0.000239
0.000265
0.000272
0.000267
0.000280
0.000254
0.000273
0.000242
0.000279
0.000255
0.000268
0.000264
0.000192
0.000055
0.000207
0.000227
0.000264
0.000265
0.000483
0.000217
0.000210
0.000243
0.000251
0.000466
0.000510
0.000271
0.000237
0.000245
0.000271
0.000268
0.000235
0.000274
0.000253
0.000266
0.000270
0.000258
0.000260
0.000288
0.000459
0.000574
0.000257
0.000300
0.000269
0.000259
0.000189
0.000055
0.000214
0.000215
0.000249
0.000248
0.000436
0.000520
0.000360
0.000351
0.000217
0.000242
0.000251
0.000256
0.000253
0.000246
0.000256
0.000272
0.000256
0.000259
0.000623
0.000403
0.000283
0.000249
0.000255
0.000286
0.000286
0.000254
0.000266
0.000263
0.000244
0.000344
0.000306
0.000056
0.000307
0.000230
0.000238
0.000237
0.000258
0.000252
0.000228
0.000244
0.000249
0.000258
0.000246
0.000249
0.000245
0.000393
0.000572
0.000430
0.000202
0.000257
0.000256
0.000247
0.000270
0.000276
0.000481
0.000233
0.000254
0.000582
0.000469
0.000451
0.000243
0.000256
0.000177
0.000056
0.000210
0.000228
0.000249
0.000239
0.000252
0.000258
0.000328
0.000409
0.000584
0.000422
0.000220
0.000263
0.000279
0.000273
0.000259
0.000247
0.000236
0.000255
0.000250
0.000301
0.000426
0.000663
0.000358
0.000255
0.000367
0.000376
0.000474
0.000247
0.000266
0.000507
0.000278
0.000056
0.000257
0.000236
0.000434
0.000227
0.000226
0.000255
0.000266
0.000261
0.000228
0.000244
0.000257
0.000517
0.000270
0.000344
0.000224
0.000237
0.000260
0.000263
0.000251
0.000273
0.000282
0.000255
0.000244
0.000275
0.000318
0.000502
0.000466
0.000235
0.000254
0.000273
0.000194
0.000056
0.000205
0.000258
0.000224
0.000242
0.000246
0.000281
0.000341
0.000387
0.000468
0.000273
0.000369
0.000217
0.000246
0.000270
0.000254
0.000245
0.000249
0.000262
0.000284
0.000403
0.000508
0.000302
0.000479
0.000282
0.000426
0.000389
0.000377
0.000244
0.000245
0.000295
0.000340
0.000057
0.000238
0.000272
0.000226
0.000255
0.000256
0.000258
0.000256
0.000237
0.000264
0.000258
0.000237
0.000434
0.000378
0.000369
0.000377
0.000217
0.000261
0.000267
0.000267
0.000232
0.000256
0.000244
0.000267
0.000280
0.000277
0.000312
0.000509
0.000479
0.000232
0.000282
0.000182
0.000055
0.000205
0.000244
0.000258
0.000241
0.000257
0.000340
0.000503
0.000466
0.000375
0.000676
0.000272
0.000200
0.000249
0.000262
0.000244
0.000269
0.000274
0.000274
0.000477
0.000457
0.001480
0.000297
0.000258
0.000268
0.000289
0.000274
0.000366
0.000458
0.000397
0.000266
0.000162
0.000056
0.000193
0.000231
0.000245
0.000244
0.000233
0.000262
0.000278
0.000247
0.000249
0.000340
0.000323
0.000388
0.000279
0.000351
0.000407
0.000302
0.000236
0.000248
0.000276
0.000256
0.000243
0.000251
0.000287
0.000237
0.000326
0.000431
0.000437
0.000304
0.000235
0.000267
0.000193
0.000055
0.000215
0.000250
0.000254
0.000253
0.000235
0.000247
0.000466
0.000217
0.000251
0.000230
0.000250
0.000249
0.000259
0.000254
0.000269
0.000249
0.000264
0.000270
0.000271
0.000250
0.000264
0.000291
0.000285
0.000265
0.000252
0.000276
0.000269
0.000267
0.000260
0.000279
0.000170
0.000057
0.000219
0.000239
0.000361
0.000364
0.000369
0.000254
0.000241
0.000244
0.000257
0.000247
0.000249
0.000256
0.000265
0.000263
0.000236
0.000244
0.000244
0.000268
0.000255
0.000403
0.000427
0.000380
0.000219
0.000265
0.000265
0.000255
0.000268
0.000248
0.000275
0.000287
0.000195
0.000055
0.000323
0.000429
0.000367
0.000204
0.000256
0.000254
0.000411
0.000213
0.000244
0.000254
0.000256
0.000337
0.000310
0.000449
0.001853
0.000252
0.000246
0.000249
0.000277
0.000238
0.000398
0.000419
0.000669
0.000220
0.000214
0.000266
0.000278
0.000424
0.000284
0.000280
0.000162
0.000055
0.000174
0.000391
0.000297
0.000333
0.000492
0.000201
0.000247
0.000251
0.000251
0.000238
0.000258
0.000249
0.000263
0.000313
0.000394
0.000503
0.000220
0.000235
0.000266
0.000259
0.000260
0.000321
0.000229
0.000286
0.000277
0.000464
0.000505
0.000563
0.000293
0.000227
0.000200
0.000055
0.000211
0.000227
0.000261
0.000229
0.000250
0.000251
0.000272
0.000269
0.000360
0.000383
0.000416
0.000352
0.000236
0.000224
0.000265
0.000282
0.000304
0.000241
0.000276
0.000276
0.000235
0.000271
0.000472
0.000425
0.000266
0.000255
0.000260
0.000448
0.000398
0.000322
0.000170
0.000057
0.000203
0.000248
0.000322
0.000493
0.000308
0.000206
0.000242
0.000266
0.000244
0.000255
0.000265
0.000254
0.000226
0.000259
0.000259
0.000283
0.000463
0.000308
0.000388
0.000255
0.000499
0.000210
0.000282
0.000277
0.000304
0.000284
0.000255
0.000558
0.000183
0.000545
0.000161
0.000056
0.000202
0.000234
0.000257
0.000237
0.000247
0.000471
0.000217
0.000254
0.000268
0.000365
0.000458
0.000596
0.000203
0.000240
0.000247
0.000251
0.000255
0.000252
0.000251
0.000250
0.000265
0.000263
0.000374
0.000375
0.000405
0.000404
0.000301
0.000318
0.000294
0.000250
0.000183
0.000056
0.000213
0.000233
0.000264
0.000480
0.000324
0.000290
0.000267
0.000217
0.000244
0.000262
0.000270
0.000231
0.000256
0.000264
0.000242
0.000262
0.000248
0.000245
0.000267
0.000403
0.000486
0.000407
0.000222
0.000244
0.000299
0.000258
0.000265
0.000257
0.000269
0.000251
0.000203
0.000055
0.000197
0.000417
0.000489
0.000234
0.000233
0.000243
0.000344
0.000439
0.000276
0.000225
0.000232
0.000275
0.000256
0.000435
0.000450
0.000291
0.000230
0.000232
0.000252
0.000269
0.000269
0.000262
0.000261
0.000279
0.000255
0.000312
0.000385
0.000457
0.000278
0.000243
0.000175
0.000055
0.000231
0.000240
0.000246
0.000255
0.000252
0.000262
0.000232
0.000251
0.000254
0.000250
0.000266
0.000238
0.000262
0.001459
0.000226
0.000251
0.000262
0.000245
0.000275
0.000275
0.000264
0.000243
0.000277
0.000253
0.000268
0.000262
0.000270
0.000270
0.000276
0.000260
0.000191
0.000056
0.000175
0.000223
0.000255
0.000252
0.000236
0.000252
0.000254
0.000260
0.000228
0.000249
0.000246
0.000263
0.000271
0.000243
0.000252
0.000263
0.000242
0.000263
0.000276
0.000250
0.000253
0.000266
0.000243
0.000254
0.001293
0.000283
0.000599
0.000413
0.000327
0.000237
0.000190
0.000055
0.000217
0.000229
0.000242
0.000249
0.000427
0.000229
0.000235
0.000246
0.000252
0.000393
0.000442
0.000325
0.000227
0.000231
0.000265
0.000255
0.000258
0.000263
0.000250
0.000268
0.000249
0.000254
0.000259
0.000413
0.000537
0.000434
0.000225
0.000268
0.001393
0.000215
0.000189
0.000055
0.000297
0.000410
0.000330
0.000267
0.000222
0.000227
0.000234
0.000243
0.000263
0.000257
0.000266
0.000245
0.000265
0.000274
0.000592
0.000354
0.000336
0.000218
0.000246
0.000260
0.000268
0.000265
0.000263
0.000268
0.000289
0.000239
0.000286
0.000597
0.000363
0.000378
0.000156
0.000057
0.000195
0.000229
0.001279
0.000405
0.000298
0.000448
0.000384
0.000493
0.000284
0.000340
0.000218
0.000222
0.000266
0.000257
0.000245
0.000264
0.000316
0.000575
0.000400
0.000318
0.000249
0.000249
0.000270
0.000488
0.000233
0.000269
0.000257
0.000283
0.000282
0.000563
0.000300
0.000056
0.000389
0.000336
0.000195
0.000222
0.001637
0.000382
0.000306
0.000255
0.000243
0.000248
0.000230
0.000238
0.000247
0.000269
0.000248
0.000265
0.000234
0.000264
0.000401
0.000415
0.000447
0.000231
0.000263
0.000252
0.000259
0.000278
0.000268
0.000233
0.000267
0.000275
0.000193
0.000057
0.000372
0.000362
0.000207
0.000227
0.000255
0.000241
0.000249
0.000246
0.000230
0.000233
0.001393
0.000500
0.000249
0.000254
0.000237
0.000251
0.000274
0.000262
0.000237
0.000277
0.000272
0.000252
0.000253
0.000514
0.000303
0.000478
0.000222
0.000274
0.000285
0.000274
0.000173
0.000056
0.000209
0.000391
0.000217
0.000240
0.000377
0.000472
0.000437
0.000193
0.000456
0.000223
0.000218
0.000252
0.000264
0.000267
0.000261
0.001487
0.000279
0.000290
0.000238
0.000272
0.000283
0.000244
0.000258
0.000249
0.000264
0.000273
0.000466
0.000421
0.000296
0.000275
0.000157
0.000055
0.000224
0.000230
0.000259
0.000231
0.000227
0.000262
0.000243
0.000255
0.000259
0.000393
0.000493
0.000226
0.000248
0.000242
0.000254
0.000268
0.000274
0.000262
0.000272
0.000226
0.000260
0.000307
0.001263
0.000255
0.000252
0.000247
0.000260
0.000274
0.000256
0.000255
0.000183
0.000055
0.000279
0.000316
0.000329
0.000375
0.000228
0.000221
0.000261
0.000265
0.000251
0.000253
0.000255
0.000266
0.000243
0.000250
0.000261
0.000262
0.000267
0.000268
0.000263
0.000251
0.000252
0.000273
0.000263
0.000287
0.000283
0.000268
0.000271
0.000251
0.000258
0.000450
0.001367
0.000056
0.000201
0.000233
0.000235
0.000246
0.000251
0.000263
0.000242
0.000224
0.000247
0.000256
0.000272
0.000253
0.000251
0.000246
0.000269
0.000226
0.001734
0.000264
0.000230
0.000260
0.000243
0.000265
0.000265
0.000265
0.000268
0.000256
0.000266
0.000279
0.000275
0.000263
0.000215
0.000055
0.000283
0.000340
0.001300
0.000220
0.000230
0.000247
0.000248
0.000256
0.000276
0.000237
0.000230
0.000378
0.000382
0.000420
0.000292
0.000221
0.000257
0.000241
0.000254
0.000266
0.000249
0.000259
0.000269
0.000286
0.000278
0.000393
0.000383
0.000348
0.000310
0.000233
0.000212
0.000056
0.000211
0.000248
0.000246
0.000248
0.000253
0.000216
0.000242
0.000255
0.000436
0.001348
0.000248
0.000206
0.000248
0.000284
0.000238
0.000277
0.000253
0.000253
0.000348
0.000354
0.000406
0.000255
0.000240
0.000253
0.000276
0.000279
0.000260
0.000300
0.000268
0.000299
0.000169
0.000055
0.000245
0.000390
0.000390
0.000225
0.000229
0.000234
0.000268
0.000261
0.000259
0.000248
0.000227
0.000252
0.000457
0.000551
0.000410
0.001473
0.000245
0.000280
0.000324
0.000344
0.000476
0.000419
0.000496
0.000377
0.000225
0.000261
0.000267
0.000278
0.000257
0.000278
0.000206
0.000056
0.000196
0.000315
0.000486
0.000502
0.000236
0.000233
0.000238
0.000232
0.000265
0.000251
0.000245
0.000267
0.000266
0.000237
0.000276
0.000281
0.000387
0.000415
0.000371
0.001325
0.000259
0.000255
0.000256
0.000261
0.000470
0.000433
0.000420
0.000214
0.000277
0.000268
0.000189
0.000056
0.000197
0.000242
0.000244
0.000246
0.000244
0.000274
0.000465
0.000382
0.000376
0.000215
0.000237
0.000258
0.000273
0.000261
0.000251
0.000265
0.000268
0.000254
0.000268
0.000265
0.000491
0.000413
0.000321
0.001360
0.000404
0.000241
0.000275
0.000385
0.000533
0.000289
0.000313
0.000056
0.000200
0.000235
0.000242
0.000252
0.000265
0.000236
0.001683
0.000243
0.000225
0.000230
0.000261
0.000249
0.000258
0.000332
0.000330
0.000279
0.000272
0.000262
0.000500
0.000496
0.000260
0.000286
0.000236
0.001421
0.000315
0.000348
0.000433
0.000454
0.000325
0.000289
0.000152
0.000056
0.000221
0.000241
0.000256
0.000259
0.000247
0.000256
0.001709
0.000251
0.000229
0.000259
0.000337
0.000409
0.001484
0.000308
0.000391
0.000245
0.000258
0.000240
0.000265
0.000270
0.001536
0.000547
0.000410
0.000295
0.000241
0.000251
0.000262
0.000282
0.000245
0.000252
0.000187
0.000056
0.000204
0.000246
0.000269
0.000239
0.000258
0.000280
0.000281
0.000261
0.000243
0.000255
0.000256
0.000242
0.000262
0.000266
0.000254
0.001501
0.000280
0.000230
0.000264
0.000273
0.000272
0.000268
0.000429
0.001259
0.000290
0.000221
0.000279
0.000251
0.000393
0.000230
0.000218
0.000056
0.000210
0.000241
0.000223
0.000241
0.000238
0.000240
0.000226
0.001692
0.000260
0.000220
0.000252
0.000368
0.000229
0.000221
0.000254
0.001392
0.000231
0.000261
0.000269
0.000245
0.000256
0.000355
0.000275
0.001313
0.000271
0.000264
0.000246
0.000266
0.001392
0.000273
0.000216
0.000056
0.000299
0.000306
0.000202
0.000237
0.000253
0.000238
0.000269
0.000265
0.000266
0.000246
0.000263
0.000263
0.000254
0.000264
0.000317
0.001479
0.000236
0.000275
0.000253
0.000250
0.000290
0.000254
0.000250
0.001509
0.000351
0.000236
0.000270
0.001277
0.000270
0.000243
0.000218
0.000056
0.000225
0.000473
0.000259
0.000211
0.000237
0.000240
0.000263
0.000259
0.000266
0.000272
0.000234
0.000256
0.000258
0.000280
0.000403
0.001232
0.000231
0.000247
0.000266
0.000280
0.000227
0.000240
0.000252
0.000327
0.001285
0.000243
0.000249
0.000256
0.000252
0.001349
0.000354
0.000056
0.000270
0.000344
0.000196
0.000228
0.000237
0.000271
0.000232
0.000244
0.000284
0.000242
0.000243
0.000251
0.000246
0.000356
0.000393
0.001472
0.000225
0.000239
0.000315
0.000502
0.000281
0.000386
0.001355
0.000292
0.000240
0.000268
0.000253
0.001316
0.000320
0.000462
0.000367
0.000056
0.000196
0.000254
0.000254
0.000254
0.000253
0.000255
0.000272
0.000247
0.000263
0.000262
0.000326
0.000499
0.001330
0.000208
0.000260
0.000261
0.000283
0.000221
0.000244
0.000236
0.000342
0.001310
0.000206
0.000235
0.000245
0.000252
0.001518
0.000667
0.000233
0.000219
0.000206
0.000058
0.000209
0.000220
0.000252
0.000231
0.000258
0.000267
0.000241
0.000316
0.000362
0.000501
0.000268
0.001494
0.000198
0.000248
0.000261
0.000258
0.000278
0.000538
0.001439
0.000249
0.000401
0.000326
0.001252
0.000392
0.000295
0.000319
0.000253
0.000292
0.000241
0.000272
0.000185
0.000057
0.000210
0.000239
0.000334
0.000238
0.000333
0.000518
0.000329
0.000255
0.001471
0.000242
0.000382
0.000268
0.000222
0.000372
0.000332
0.001391
0.000194
0.000234
0.000234
0.000261
0.001534
0.000374
0.000283
0.000277
0.000261
0.000260
0.000510
0.000273
0.000225
0.000249
0.000269
0.000058
0.000320
0.000305
0.000346
0.000247
0.000219
0.001531
0.000199
0.000257
0.000266
0.000270
0.000272
0.000238
0.000330
0.001454
0.000262
0.000220
0.000436
0.001200
0.000319
0.000472
0.000391
0.000233
0.000248
0.000241
0.000280
0.000239
0.000453
0.000228
0.000268
0.000285
0.000199
0.000057
0.000217
0.000287
0.000323
0.000360
0.001302
0.000277
0.000312
0.000233
0.000240
0.000252
0.000248
0.000319
0.001491
0.000262
0.000229
0.000240
0.001390
0.000266
0.000434
0.000412
0.000412
0.000220
0.000265
0.000245
0.000262
0.000284
0.000280
0.000242
0.000272
0.000250
0.000187
0.000056
0.000216
0.000456
0.001393
0.000204
0.000276
0.000274
0.000241
0.000246
0.000266
0.000574
0.001201
0.000220
0.000249
0.000267
0.000251
0.001304
0.000654
0.000315
0.000328
0.000404
0.000296
0.000243
0.000258
0.000256
0.000277
0.000284
0.000276
0.000287
0.000460
0.000422
0.001386
0.000057
0.000196
0.000237
0.000250
0.000221
0.000245
0.000406
0.000585
0.001204
0.000254
0.000236
0.000238
0.001423
0.000413
0.000367
0.000224
0.000400
0.000256
0.000235
0.000267
0.000294
0.000231
0.000272
0.000275
0.000265
0.000244
0.000285
0.000426
0.000493
0.001503
0.000225
0.000179
0.000057
0.000204
0.000261
0.000341
0.000607
0.001180
0.000281
0.000249
0.000261
0.000243
0.000251
0.000250
0.000287
0.000388
0.000447
0.000345
0.000231
0.000248
0.000280
0.000237
0.000278
0.000258
0.000263
0.000262
0.000264
0.000262
0.000405
0.000456
0.000364
0.000319
0.001405
0.000170
0.000057
0.000200
0.000234
0.000255
0.000492
0.000319
0.000315
0.000311
0.000353
0.000248
0.000263
0.000253
0.000269
0.000251
0.000307
0.000235
0.000263
0.000533
0.000369
0.000292
0.000385
0.000275
0.000404
0.000226
0.000255
0.000258
0.000259
0.000257
0.000287
0.000339
0.000522
0.000290
0.000056
0.000207
0.001411
0.000249
0.000324
0.000401
0.000416
0.000457
0.000242
0.000215
0.000235
0.000264
0.000240
0.000271
0.000273
0.000261
0.000271
0.000240
0.001379
0.000246
0.000247
0.000258
0.000272
0.000274
0.000280
0.000266
0.000251
0.000282
0.000244
0.000311
0.000391
0.000358
0.000057
0.000215
0.000252
0.000218
0.001491
0.000333
0.000243
0.000223
0.000241
0.000233
0.000250
0.000245
0.000271
0.000248
0.000251
0.000277
0.000250
0.000249
0.000263
0.000260
0.000262
0.001438
0.000232
0.000236
0.000297
0.000238
0.000258
0.000257
0.000263
0.000278
0.000490
0.000345
0.000056
0.000204
0.000230
0.000399
0.000279
0.000245
0.000256
0.001535
0.000342
0.000309
0.000206
0.000258
0.000324
0.000327
0.000228
0.000228
0.000250
0.000251
0.000259
0.000263
0.000251
0.000478
0.000487
0.001149
0.000266
0.000238
0.000260
0.000272
0.000259
0.000269
0.000266
0.000460
0.000056
0.000282
0.000335
0.000215
0.000235
0.000251
0.000243
0.000246
0.000226
0.000289
0.001632
0.000402
0.000229
0.000233
0.000256
0.000259
0.000244
0.000259
0.000273
0.000282
0.000300
0.000295
0.000499
0.000435
0.001377
0.000234
0.000253
0.000274
0.000258
0.000268
0.000352
0.000467
0.000057
0.000273
0.000235
0.000236
0.000247
0.000228
0.000231
0.000263
0.000250
0.000273
0.001616
0.000305
0.000257
0.000258
0.000264
0.000453
0.000277
0.000522
0.000378
0.000298
0.000330
0.000431
0.000461
0.001279
0.000266
0.000225
0.000256
0.001686
0.000486
0.000604
0.000321
0.000141
0.000056
0.000202
0.000230
0.000243
0.000235
0.000265
0.000233
0.000263
0.000497
0.000512
0.000383
0.000299
0.000211
0.000242
0.000262
0.000258
0.000266
0.000248
0.000267
0.000243
0.000273
0.000257
0.000405
0.001377
0.000220
0.000241
0.000282
0.001904
0.000378
0.000374
0.000348
0.000161
0.000057
0.000244
0.000240
0.000246
0.001623
0.000376
0.000203
0.000239
0.000258
0.000256
0.000287
0.000383
0.000368
0.000365
0.000265
0.000252
0.000613
0.000336
0.001213
0.000275
0.000229
0.000248
0.000266
0.000282
0.000406
0.000631
0.000436
0.000259
0.000254
0.000273
0.000282
0.000193
0.000056
0.000194
0.000237
0.000242
0.001599
0.000192
0.000232
0.000234
0.000257
0.000245
0.000251
0.000255
0.000270
0.000264
0.000276
0.000292
0.000405
0.000365
0.000340
0.001416
0.000222
0.000257
0.000255
0.000256
0.000291
0.000355
0.000458
0.000469
0.000284
0.000282
0.000224
0.000438
0.000056
0.000216
0.000239
0.000250
0.001533
0.000316
0.000219
0.000266
0.000242
0.000254
0.000255
0.000256
0.000252
0.000255
0.000254
0.000317
0.000613
0.001375
0.000757
0.000244
0.000353
0.000244
0.000234
0.000238
0.000277
0.001678
0.000808
0.000224
0.000264
0.000280
0.000293
0.000178
0.000056
0.000183
0.000227
0.000257
0.000245
0.000254
0.000249
0.000236
0.000255
0.000242
0.000267
0.000253
0.000280
0.000254
0.000251
0.000258
0.000253
0.000269
0.002043
0.000270
0.000371
0.000324
0.000216
0.000244
0.000285
0.000262
0.000265
0.000288
0.000243
0.001389
0.000398
0.000345
0.000055
0.000213
0.000211
0.000245
0.000252
0.000264
0.000233
0.000249
0.000251
0.000257
0.000264
0.000265
0.000439
0.000433
0.000339
0.000215
0.000235
0.000267
0.001396
0.000685
0.000486
0.000316
0.000284
0.000226
0.000251
0.000269
0.000246
0.000268
0.000260
0.001489
0.000436
0.000196
0.000056
0.000206
0.000261
0.000213
0.000249
0.000249
0.000251
0.000233
0.000249
0.000268
0.000273
0.000434
0.000339
0.000298
0.000210
0.000245
0.000245
0.000272
0.000247
0.001575
0.000671
0.000437
0.000311
0.000224
0.000260
0.000264
0.000251
0.000268
0.000283
0.000269
0.001356
0.000330
0.000056
0.000219
0.000220
0.000230
0.000260
0.000250
0.000245
0.000270
0.000300
0.000359
0.000430
0.000407
0.000342
0.000372
0.000217
0.000249
0.000244
0.000299
0.000235
0.000276
0.001901
0.000354
0.000230
0.000436
0.000252
0.000264
0.000245
0.000290
0.000236
0.000273
0.000277
0.000302
0.000056
0.000275
0.000245
0.000221
0.000243
0.000256
0.000250
0.000220
0.000244
0.000269
0.000248
0.000244
0.000239
0.000286
0.000455
0.000463
0.000449
0.000217
0.000265
0.000248
0.000248
0.000272
0.000279
0.001470
0.001051
0.000217
0.000245
0.000277
0.000273
0.000263
0.000247
0.000205
0.000056
0.000191
0.001341
0.000294
0.000221
0.000228
0.000251
0.000251
0.000240
0.000241
0.000246
0.000257
0.000261
0.000245
0.000468
0.000278
0.000487
0.000246
0.000255
0.000258
0.000271
0.000271
0.000245
0.000240
0.000266
0.001427
0.000579
0.000314
0.000383
0.000397
0.000402
0.000277
0.000055
0.000195
0.000266
0.001403
0.000247
0.000255
0.000243
0.000201
0.000248
0.000261
0.000254
0.000246
0.000255
0.000283
0.000319
0.000613
0.000273
0.000215
0.000282
0.000336
0.000218
0.000242
0.000274
0.000248
0.000262
0.000261
0.001548
0.000731
0.000301
0.000276
0.000274
0.000189
0.000056
0.000181
0.000250
0.000459
0.000332
0.001304
0.000257
0.000212
0.000239
0.000229
0.000247
0.000248
0.000258
0.000232
0.000231
0.000262
0.000254
0.000273
0.000232
0.000261
0.000250
0.000266
0.000266
0.000303
0.000342
0.000210
0.000280
0.000246
0.001466
0.000262
0.000245
0.000159
0.000056
0.000209
0.000233
0.000249
0.000269
0.000361
0.000379
0.000389
0.000266
0.001565
0.000230
0.000274
0.000508
0.000384
0.000219
0.000431
0.000240
0.000234
0.000257
0.000278
0.000269
0.000280
0.000271
0.000259
0.000266
0.000243
0.000450
0.000355
0.000337
0.001587
0.000221
0.000194
0.000057
0.000233
0.000236
0.000250
0.000244
0.000241
0.000245
0.000263
0.000270
0.000434
0.002053
0.000235
0.000235
0.000262
0.000256
0.000258
0.000254
0.000277
0.000244
0.000318
0.000415
0.000413
0.000374
0.001454
0.000251
0.000526
0.000229
0.001769
0.000249
0.000253
0.001530
0.000166
0.000056
0.000190
0.000570
0.000332
0.000249
0.000262
0.000222
0.000259
0.000277
0.000261
0.000223
0.000255
0.000343
0.000433
0.000409
0.000367
0.000218
0.000232
0.001568
0.000234
0.000591
0.001867
0.000297
0.000217
0.001541
0.002025
0.000746
0.000280
0.000253
0.000291
0.000527
0.000269
0.000055
0.000228
0.000262
0.000227
0.000250
0.001427
0.001729
0.001070
0.000220
0.000227
0.001578
0.001984
0.000202
0.000245
0.000431
0.000306
0.000332
0.000436
0.000472
0.000218
0.000232
0.000254
0.000252
0.000272
0.001602
0.001204
0.001421
0.000270
0.000298
0.000255
0.000295
0.000365
0.000056
0.000220
0.000222
0.000236
0.000243
0.000230
0.000261
0.000234
0.000247
0.000260
0.000248
0.000241
0.000323
0.000402
0.000496
0.000275
0.000258
0.000246
0.000273
0.000265
0.000286
0.000239
0.000264
0.001575
0.000420
0.002104
0.000233
0.000271
0.000395
0.000367
0.000402
0.000194
0.000057
0.000254
0.000303
0.000565
0.000239
0.000196
0.000226
0.000254
0.000242
0.000240
0.000247
0.000279
0.000233
0.000259
0.001609
0.001357
0.001212
0.000277
0.000243
0.000246
0.000273
0.000278
0.000284
0.000235
0.000256
0.002211
0.000242
0.000245
0.000307
0.000323
0.000301
0.000219
0.000057
0.000207
0.000375
0.000546
0.000308
0.000248
0.000221
0.000247
0.000267
0.001903
0.001422
0.000222
0.000335
0.000401
0.000396
0.000253
0.000220
0.000255
0.000272
0.000260
0.000263
0.000257
0.000273
0.000455
0.000248
0.000265
0.000266
0.000254
0.000278
0.000282
0.000246
0.000205
0.000055
0.000210
0.000248
0.000248
0.000241
0.000270
0.000258
0.001546
0.001408
0.001327
0.000239
0.000229
0.000245
0.000263
0.000264
0.000247
0.000253
0.000264
0.002090
0.000250
0.000236
0.000260
0.000264
0.000257
0.000265
0.000264
0.000256
0.000272
0.000253
0.000281
0.000256
0.000173
0.000057
0.000189
0.002684
0.001387
0.000225
0.000306
0.000297
0.000228
0.000266
0.000258
0.000242
0.000256
0.000245
0.000235
0.000244
0.000272
0.000255
0.000269
0.000266
0.000249
0.000273
0.000268
0.000281
0.000276
0.000262
0.000248
0.000246
0.000260
0.000266
0.000263
0.000276
0.000386
0.000055
0.001554
0.000240
0.001245
0.000230
0.000226
0.000260
0.000237
0.000255
0.000241
0.000323
0.000440
0.000298
0.000310
0.000211
0.000251
0.002145
0.000246
0.000245
0.000294
0.000551
0.000340
0.000271
0.000219
0.000256
0.000266
0.000247
0.000283
0.000261
0.000268
0.001629
0.001247
0.000057
0.000199
0.000234
0.000296
0.000410
0.000379
0.000251
0.000226
0.000218
0.000249
0.000255
0.000267
0.000252
0.000224
0.000256
0.000260
0.000241
0.000350
0.000595
0.000367
0.000245
0.000224
0.000267
0.000277
0.000255
0.000253
0.000243
0.000253
0.000274
0.000248
0.000281
0.000391
0.000055
0.001122
0.000236
0.000348
0.000430
0.000305
0.000228
0.000225
0.000240
0.000248
0.002291
0.000377
0.000392
0.000207
0.000387
0.000277
0.000258
0.000263
0.000259
0.000270
0.000235
0.000240
0.000352
0.000585
0.000391
0.001877
0.001359
0.000483
0.000539
0.000217
0.000278
0.000200
0.000056
0.000388
0.000201
0.000242
0.000241
0.000247
0.000230
0.000254
0.000258
0.000250
0.000246
0.000261
0.000224
0.000235
0.000251
0.000396
0.000503
0.001845
0.001312
0.000449
0.000451
0.000453
0.000241
0.000238
0.000262
0.002123
0.000569
0.000387
0.000226
0.000278
0.000285
0.000192
0.000055
0.000213
0.000240
0.000253
0.000248
0.000242
0.000305
0.000449
0.000321
0.000295
0.000238
0.000240
0.000251
0.000268
0.002110
0.000552
0.000197
0.000227
0.000235
0.000271
0.000266
0.000246
0.002455
0.000344
0.000217
0.000257
0.000256
0.000254
0.000274
0.000284
0.000276
0.000192
0.000055
0.000217
0.000349
0.000516
0.000381
0.000260
0.000216
0.000232
0.000258
0.000264
0.000253
0.002022
0.000321
0.000277
0.000293
0.000212
0.000265
0.000274
0.000240
0.002210
0.000452
0.000212
0.000261
0.000276
0.000254
0.000284
0.000230
0.000281
0.000260
0.000260
0.000256
0.000184
0.000055
0.000223
0.000238
0.000249
0.000221
0.000251
0.000260
0.000235
0.000248
0.000228
0.002174
0.000263
0.000256
0.000219
0.000420
0.000219
0.000260
0.000281
0.000284
0.000243
0.000264
0.001968
0.000286
0.000378
0.000373
0.000394
0.000392
0.000309
0.000248
0.000260
0.000242
0.000201
0.000056
0.000210
0.000232
0.000239
0.000248
0.000268
0.000314
0.000232
0.002286
0.000233
0.000246
0.000260
0.000257
0.000239
0.000248
0.000307
0.002127
0.000591
0.000227
0.000250
0.000236
0.000266
0.000256
0.000289
0.000265
0.000269
0.000246
0.000306
0.000244
0.000264
0.000258
0.000192
0.000056
0.001814
0.001439
0.000203
0.000226
0.000245
0.000255
0.000252
0.000264
0.000447
0.002253
0.000308
0.000185
0.000238
0.000261
0.000281
0.000393
0.000519
0.000290
0.000217
0.000266
0.000246
0.000263
0.000269
0.000227
0.000253
0.000265
0.000269
0.000276
0.000281
0.000675
0.000337
0.000056
0.000201
0.000235
0.000263
0.000258
0.000253
0.000247
0.000256
0.000238
0.001497
0.002095
0.000591
0.000289
0.000407
0.000682
0.000339
0.000242
0.000255
0.000244
0.000264
0.000265
0.000260
0.000246
0.000240
0.000270
0.001832
0.001458
0.000284
0.000272
0.000290
0.000355
0.000336
0.000055
0.001937
0.000240
0.000219
0.000223
0.000308
0.000341
0.000448
0.000324
0.000275
0.000215
0.000245
0.000247
0.000260
0.000252
0.000263
0.000267
0.000248
0.000264
0.001844
0.000243
0.000231
0.000266
0.000257
0.000286
0.000270
0.000259
0.001463
0.000330
0.000249
0.000258
0.000175
0.000056
0.000200
0.000225
0.000266
0.000222
0.000253
0.000241
0.000388
0.000290
0.000426
0.000284
0.000223
0.000235
0.000262
0.000338
0.000429
0.000312
0.000220
0.000245
0.000266
0.000332
0.000467
0.000453
0.000279
0.000243
0.000261
0.000255
0.000266
0.000261
0.000273
0.000264
0.000202
0.000056
0.001434
0.000424
0.000228
0.001942
0.000386
0.000336
0.000409
0.000315
0.000220
0.000255
0.000265
0.000244
0.000244
0.000252
0.000261
0.000257
0.000451
0.000272
0.000397
0.000499
0.000273
0.000210
0.000254
0.000271
0.000271
0.000269
0.000265
0.000263
0.000387
0.000457
0.001355
0.000056
0.000206
0.000219
0.002081
0.000307
0.000308
0.000256
0.000273
0.000229
0.000263
0.000266
0.000210
0.000252
0.000273
0.000247
0.000259
0.000361
0.002209
0.000271
0.000218
0.000256
0.000251
0.000264
0.000390
0.000444
0.001567
0.000274
0.000362
0.001931
0.000268
0.000244
0.000192
0.000055
0.000207
0.000236
0.000232
0.000243
0.000228
0.000249
0.000275
0.000264
0.000328
0.000281
0.000381
0.000354
0.000339
0.000292
0.000237
0.000273
0.000265
0.000236
0.000265
0.000250
0.000304
0.000280
0.000274
0.000256
0.000268
0.001516
0.000291
0.000394
0.002060
0.000225
0.000175
0.000055
0.000237
0.000236
0.000232
0.000251
0.000475
0.000218
0.000252
0.000325
0.000368
0.000340
0.000281
0.000208
0.000262
0.000268
0.000270
0.000329
0.000391
0.000464
0.000271
0.000379
0.000525
0.000409
0.001624
0.000225
0.000253
0.001981
0.000333
0.000243
0.000249
0.000290
0.000182
0.000056
0.000214
0.000241
0.000228
0.000243
0.000253
0.000262
0.000256
0.000271
0.000252
0.000303
0.001762
0.000336
0.000375
0.000355
0.000390
0.000399
0.000304
0.001505
0.000242
0.000282
0.002126
0.000553
0.000270
0.000238
0.000252
0.000264
0.000497
0.000241
0.000248
0.000278
0.000197
0.000056
0.000285
0.000344
0.000370
0.000299
0.000202
0.000237
0.000258
0.000258
0.000267
0.000291
0.000218
0.000253
0.000261
0.000255
0.000360
0.001507
0.000319
0.000212
0.000276
0.002036
0.000264
0.000258
0.000251
0.000265
0.000244
0.000281
0.000269
0.000258
0.000251
0.000278
0.000183
0.000056
0.000223
0.000544
0.001910
0.000253
0.000265
0.000233
0.000245
0.000305
0.000466
0.000379
0.001323
0.000370
0.000346
0.002094
0.000199
0.000237
0.000270
0.000275
0.000254
0.000250
0.000276
0.000294
0.000253
0.000312
0.000604
0.000281
0.000371
0.002183
0.000496
0.000527
0.000345
0.000057
0.000208
0.000229
0.000247
0.001967
0.000251
0.000212
0.000234
0.000238
0.000244
0.000258
0.000249
0.000256
0.000250
0.000327
0.000378
0.001498
0.000238
0.000242
0.000278
0.000256
0.000232
0.000256
0.000258
0.000268
0.000346
0.000449
0.000460
0.000233
0.001599
0.000275
0.000174
0.000056
0.000193
0.000228
0.000249
0.000239
0.000243
0.000256
0.000248
0.000250
0.000253
0.000383
0.000376
0.001398
0.000237
0.000221
0.000244
0.000272
0.000252
0.000257
0.000490
0.000305
0.000535
0.000296
0.000221
0.001584
0.000224
0.000262
0.000288
0.000276
0.000274
0.000262
0.000186
0.000056
0.000207
0.000233
0.000266
0.000267
0.000245
0.000245
0.000238
0.000240
0.000256
0.000236
0.000262
0.000268
0.000239
0.001485
0.000363
0.000214
0.000242
0.000270
0.000310
0.000283
0.000444
0.000205
0.000238
0.000259
0.000263
0.000261
0.000259
0.001417
0.000276
0.000230
0.000173
0.000055
0.000222
0.000214
0.000260
0.000260
0.000256
0.000234
0.000253
0.000257
0.000222
0.000264
0.000246
0.000257
0.000222
0.000384
0.000280
0.000437
0.000199
0.000238
0.001642
0.000229
0.000242
0.000270
0.000262
0.000271
0.000390
0.000393
0.000449
0.000248
0.000261
0.001615
0.000161
0.000056
0.000369
0.000292
0.000378
0.000288
0.000231
0.000222
0.000240
0.000272
0.000251
0.000244
0.000239
0.000243
0.001486
0.000280
0.000298
0.000216
0.000254
0.000257
0.000265
0.000265
0.000254
0.000234
0.000270
0.000265
0.000269
0.000317
0.000564
0.000325
0.000239
0.000251
0.000191
0.000055
0.000200
0.000266
0.000396
0.000356
0.000373
0.000282
0.000247
0.000251
0.000247
0.000258
0.000242
0.000226
0.000255
0.000253
0.001248
0.000309
0.000225
0.000255
0.000269
0.000264
0.000241
0.000267
0.000250
0.000260
0.000255
0.000253
0.000367
0.000618
0.000480
0.000218
0.000194
0.000055
0.000197
0.001575
0.000230
0.000312
0.000475
0.000384
0.000210
0.000261
0.000263
0.000258
0.000236
0.000258
0.000269
0.000273
0.000259
0.001536
0.000245
0.000287
0.000260
0.000257
0.000257
0.000258
0.000259
0.000270
0.000261
0.000334
0.000397
0.000310
0.000377
0.000257
0.000172
0.000056
0.000202
0.000248
0.000231
0.001610
0.000420
0.000352
0.000237
0.000231
0.000251
0.000265
0.000281
0.000254
0.000242
0.000265
0.000233
0.000280
0.000486
0.001228
0.000261
0.000230
0.001488
0.000664
0.000262
0.000378
0.000324
0.000231
0.000283
0.000443
0.000244
0.000255
0.000184
0.000055
0.000290
0.000217
0.000244
0.000245
0.000262
0.000246
0.000239
0.000255
0.000258
0.000235
0.000252
0.000258
0.000389
0.000435
0.001657
0.001497
0.000353
0.000540
0.000333
0.000229
0.000222
0.000263
0.000263
0.000248
0.000250
0.000268
0.000256
0.000275
0.001522
0.000338
0.000164
0.000056
0.000224
0.000352
0.000354
0.000329
0.000236
0.000208
0.000249
0.000467
0.000405
0.000273
0.002181
0.000320
0.000692
0.000506
0.000496
0.000245
0.000329
0.000415
0.000308
0.000285
0.000377
0.000247
0.001556
0.000532
0.000215
0.000302
0.000236
0.000228
0.000282
0.000252
0.000201
0.000056
0.000201
0.000247
0.000262
0.000243
0.000247
0.001657
0.000880
0.000993
0.000212
0.000229
0.000262
0.000259
0.000254
0.000265
0.000253
0.000255
0.000254
0.000267
0.000260
0.000278
0.001429
0.000318
0.000255
0.000229
0.000237
0.000255
0.000259
0.000284
0.000270
0.000280
0.001898
0.000057
0.000194
0.000226
0.001553
0.000979
0.000242
0.000373
0.000248
0.000217
0.000251
0.000254
0.000260
0.000240
0.000250
0.001979
0.000477
0.000244
0.000221
0.000254
0.000268
0.000257
0.000192
