0.000088
0.018797
0.002487
0.000425
0.000211
0.000300
0.000327
0.000227
0.000332
0.000284
0.000251
0.000328
0.000550
0.000438
0.000352
0.000418
0.000255
0.000351
0.000355
0.000422
0.001840
0.000337
0.000752
0.000266
0.000238
0.000307
0.000313
0.000318
0.000425
0.000386
0.000500
0.000294
0.000057
0.000211
0.000261
0.000273
0.000287
0.000267
0.000232
0.000275
0.000304
0.000252
0.000280
0.000423
0.000437
0.000312
0.000265
0.000362
0.000351
0.000368
0.000249
0.000238
0.001709
0.000309
0.000257
0.000452
0.000263
0.000258
0.000277
0.000291
0.000293
0.000284
0.000317
0.000388
0.000056
0.000198
0.000248
0.000259
0.000258
0.000256
0.000247
0.000261
0.000256
0.000285
0.001669
0.000244
0.000214
0.000277
0.000270
0.000271
0.000253
0.000263
0.000258
0.000352
0.001796
0.000233
0.000282
0.000448
0.000436
0.000390
0.000228
0.000276
0.000464
0.000469
0.000791
0.000193
0.000056
0.000224
0.000252
0.000248
0.000242
0.000300
0.000251
0.000269
0.000585
0.000429
0.000234
0.000224
0.000259
0.000241
0.000256
0.000253
0.000262
0.000240
0.000272
0.000293
0.000400
0.001603
0.000276
0.000238
0.000438
0.000325
0.000685
0.000662
0.000503
0.000357
0.000228
0.000198
0.000057
0.000204
0.000249
0.000298
0.000209
0.000282
0.000231
0.000266
0.000482
0.001454
0.000206
0.000249
0.000243
0.000261
0.000254
0.000260
0.000291
0.000299
0.000804
0.001368
0.000290
0.000257
0.000403
0.000237
0.000254
0.000252
0.000262
0.000258
0.000276
0.000258
0.000271
0.000194
0.000056
0.000212
0.000254
0.000238
0.000262
0.000242
0.000241
0.000239
0.000251
0.000242
0.000258
0.001625
0.000263
0.000226
0.000250
0.000274
0.000228
0.000249
0.000245
0.000250
0.000263
0.000290
0.001647
0.000273
0.000259
0.000443
0.000260
0.000234
0.000268
0.000262
0.000274
0.000194
0.000055
0.000186
0.000228
0.000250
0.000250
0.000243
0.000249
0.000255
0.000234
0.000271
0.000262
0.000245
0.000260
0.000255
0.000273
0.001635
0.000279
0.000293
0.000218
0.000253
0.000271
0.000270
0.000234
0.000243
0.000263
0.001799
0.000397
0.000363
0.000341
0.000237
0.000281
0.000196
0.000055
0.000201
0.000240
0.000248
0.000278
0.000247
0.000264
0.000259
0.000407
0.000427
0.000420
0.000202
0.000242
0.000257
0.000250
0.001564
0.000515
0.000345
0.000478
0.000233
0.000233
0.000268
0.000287
0.000268
0.001816
0.000415
0.000485
0.000250
0.000236
0.000242
0.000272
0.000183
0.000056
0.000208
0.000229
0.000255
0.000268
0.000376
0.000413
0.000370
0.000280
0.000209
0.000245
0.000264
0.000237
0.000258
0.001707
0.000484
0.000305
0.000213
0.000253
0.000274
0.000291
0.000245
0.000255
0.001811
0.000398
0.000287
0.000372
0.000240
0.000251
0.000266
0.000408
0.000328
0.000055
0.000204
0.000381
0.000385
0.000264
0.000247
0.000265
0.000231
0.000258
0.000241
0.000235
0.000238
0.000244
0.001552
0.000345
0.000321
0.000221
0.000265
0.000251
0.000243
0.000305
0.000259
0.000322
0.000243
0.001819
0.000251
0.000501
0.000235
0.000254
0.000253
0.000270
0.000263
0.000058
0.000377
0.000506
0.000607
0.000217
0.000224
0.000275
0.000227
0.000221
0.000258
0.000253
0.000257
0.001701
0.000254
0.000441
0.000374
0.000214
0.000236
0.000231
0.000247
0.000271
0.000270
0.001841
0.000224
0.000466
0.001860
0.000523
0.000356
0.000254
0.000249
0.000268
0.000181
0.000057
0.000211
0.000233
0.000247
0.000239
0.000260
0.001621
0.000255
0.000228
0.000257
0.000264
0.000227
0.000252
0.000244
0.000253
0.000343
0.000341
0.000654
0.000244
0.000231
0.000265
0.000292
0.000222
0.000246
0.000444
0.000450
0.000247
0.000470
0.000410
0.000445
0.000269
0.000210
0.000056
0.000201
0.000229
0.000253
0.000257
0.000235
0.000238
0.000238
0.000408
0.001828
0.000340
0.000194
0.000237
0.000250
0.000242
0.000259
0.000272
0.000452
0.000597
0.000193
0.000254
0.000258
0.000345
0.000246
0.000244
0.000285
0.000437
0.000340
0.000645
0.000428
0.000442
0.000173
0.000056
0.000200
0.000253
0.000244
0.000234
0.000229
0.000241
0.000249
0.000258
0.000224
0.000298
0.000344
0.000459
0.001371
0.000249
0.000223
0.000246
0.000264
0.000243
0.000253
0.000250
0.000302
0.000472
0.000367
0.000272
0.000255
0.000259
0.000259
0.000268
0.000266
0.000262
0.000389
0.000056
0.000203
0.000236
0.000231
0.000264
0.000562
0.000431
0.000215
0.000254
0.000234
0.000264
0.000259
0.000225
0.000296
0.000252
0.000234
0.000515
0.000394
0.001643
0.000277
0.000232
0.000262
0.000257
0.000256
0.000243
0.000260
0.000476
0.000422
0.000367
0.000420
0.000241
0.000186
0.000056
0.000232
0.000439
0.000233
0.000210
0.000285
0.000224
0.000329
0.000527
0.000379
0.000284
0.000222
0.000273
0.000259
0.000245
0.000523
0.000335
0.000213
0.000283
0.000418
0.001607
0.000259
0.000262
0.000513
0.000244
0.000280
0.000273
0.000257
0.000437
0.000518
0.000397
0.000193
0.000054
0.000218
0.000231
0.000237
0.000242
0.000421
0.000304
0.000291
0.000227
0.000365
0.000544
0.000355
0.000243
0.000222
0.000251
0.000259
0.000266
0.000259
0.000250
0.000235
0.000347
0.000289
0.000389
0.001790
0.000234
0.000262
0.000283
0.000262
0.000349
0.000429
0.000701
0.000433
0.000056
0.000237
0.000336
0.000289
0.000420
0.000386
0.000212
0.000249
0.000272
0.000530
0.000424
0.000259
0.000232
0.000239
0.000279
0.000262
0.000231
0.000253
0.000292
0.000252
0.000258
0.000264
0.000438
0.000642
0.001326
0.000341
0.000444
0.000409
0.000232
0.000407
0.000435
0.000389
0.000055
0.000244
0.000378
0.000278
0.000196
0.000233
0.000249
0.000409
0.000230
0.000234
0.000599
0.000228
0.000354
0.000309
0.000262
0.000264
0.000251
0.000366
0.000424
0.000320
0.000219
0.000252
0.000515
0.000514
0.001663
0.000236
0.000429
0.000316
0.000231
0.000251
0.000465
0.000336
0.000055
0.000202
0.000219
0.000255
0.000249
0.000246
0.000234
0.000252
0.000326
0.000463
0.000337
0.000370
0.000369
0.000292
0.000581
0.000247
0.000239
0.000274
0.000272
0.000230
0.000345
0.000224
0.000243
0.000265
0.000420
0.000475
0.001668
0.000273
0.000237
0.000252
0.000262
0.000183
0.000056
0.000324
0.000466
0.000324
0.000218
0.000253
0.000241
0.000253
0.000239
0.000275
0.000234
0.000221
0.000272
0.000405
0.000521
0.000411
0.000263
0.000252
0.000243
0.000350
0.000384
0.000384
0.000336
0.000374
0.000381
0.000244
0.000252
0.000272
0.000268
0.001790
0.000250
0.000210
0.000055
0.000210
0.000211
0.000261
0.000293
0.000336
0.000548
0.000330
0.000197
0.000283
0.000234
0.000250
0.000248
0.000519
0.000461
0.000481
0.000276
0.000266
0.000262
0.000422
0.000466
0.000353
0.000411
0.000617
0.000321
0.000238
0.000235
0.000267
0.000245
0.000270
0.001717
0.000345
0.000072
0.000275
0.000339
0.000201
0.000240
0.000253
0.000250
0.000236
0.000501
0.000378
0.000303
0.000294
0.000264
0.000399
0.000620
0.000333
0.000231
0.000251
0.000252
0.000254
0.000269
0.000274
0.000263
0.000237
0.000266
0.000308
0.000372
0.000398
0.000355
0.000251
0.000237
0.000191
0.000055
0.000463
0.000275
0.000476
0.000257
0.000200
0.000249
0.000243
0.000254
0.000244
0.000220
0.000253
0.000277
0.000294
0.000369
0.000557
0.000477
0.000278
0.000319
0.000377
0.000343
0.000297
0.000228
0.000249
0.000270
0.001744
0.000241
0.001739
0.000963
0.000414
0.000290
0.000169
0.000056
0.000195
0.000235
0.000236
0.000244
0.000272
0.000233
0.000253
0.000260
0.000237
0.000319
0.000394
0.000402
0.000362
0.000356
0.000240
0.000262
0.000245
0.000294
0.000228
0.000241
0.000256
0.000260
0.001821
0.000235
0.000248
0.000272
0.000280
0.000260
0.001900
0.000491
0.000261
0.000057
0.000214
0.000200
0.000242
0.000238
0.000254
0.000274
0.000215
0.000256
0.000268
0.000379
0.000496
0.000377
0.000376
0.000221
0.000243
0.000258
0.000332
0.000438
0.000365
0.000257
0.001780
0.000253
0.000235
0.000258
0.000260
0.000268
0.000242
0.000260
0.000330
0.000309
0.000394
0.000055
0.000249
0.000225
0.000230
0.000271
0.000241
0.000240
0.000254
0.000262
0.000233
0.000256
0.000240
0.000362
0.000318
0.000379
0.000392
0.000217
0.000465
0.000231
0.000249
0.000260
0.000257
0.000256
0.000282
0.000252
0.000280
0.001803
0.000241
0.000229
0.000273
0.000238
0.000200
0.000055
0.000264
0.000369
0.000236
0.000215
0.000237
0.000232
0.000243
0.000260
0.000242
0.000227
0.000230
0.000267
0.000266
0.000418
0.000341
0.000359
0.000289
0.000233
0.000270
0.000241
0.000261
0.000264
0.000247
0.000269
0.000245
0.000271
0.000350
0.001597
0.000261
0.000237
0.000185
0.000055
0.000211
0.000230
0.000253
0.000262
0.000353
0.000358
0.000363
0.000342
0.000221
0.000272
0.000253
0.000226
0.000243
0.000263
0.000257
0.000259
0.000244
0.000261
0.000249
0.000262
0.000260
0.000271
0.000247
0.000239
0.000242
0.000280
0.000279
0.000257
0.000259
0.000258
0.000194
0.000055
0.000215
0.000234
0.000260
0.000274
0.000231
0.000241
0.000237
0.000260
0.000286
0.000239
0.000228
0.000247
0.000258
0.000251
0.000293
0.000239
0.000249
0.000252
0.000300
0.000250
0.000269
0.000324
0.000268
0.000221
0.000309
0.000250
0.000270
0.000242
0.000258
0.000487
0.000626
0.000056
0.000226
0.000291
0.000235
0.000212
0.000234
0.000258
0.000239
0.000249
0.000248
0.000250
0.000264
0.000301
0.000486
0.000534
0.001476
0.000239
0.000486
0.000232
0.000250
0.000447
0.000432
0.000406
0.000225
0.000280
0.000242
0.000264
0.000285
0.000250
0.000306
0.000279
0.000163
0.000056
0.000257
0.000515
0.000329
0.000318
0.000216
0.000280
0.000224
0.000241
0.000241
0.000237
0.000260
0.000256
0.000229
0.000299
0.000309
0.000522
0.000402
0.001786
0.000229
0.000249
0.000387
0.000381
0.000410
0.000334
0.000320
0.000311
0.000300
0.000235
0.000230
0.000248
0.000198
0.000056
0.000214
0.000222
0.000236
0.000330
0.000390
0.000384
0.000334
0.000258
0.000249
0.000216
0.000253
0.000265
0.000282
0.000244
0.000245
0.000260
0.000282
0.000525
0.000370
0.000403
0.000232
0.001750
0.000314
0.000490
0.000568
0.000416
0.000330
0.000216
0.000253
0.000269
0.000453
0.000056
0.000196
0.000262
0.000222
0.000366
0.000405
0.000483
0.000325
0.000199
0.000296
0.000263
0.000204
0.000259
0.000248
0.000308
0.000293
0.000247
0.000232
0.000430
0.000398
0.000359
0.000497
0.001851
0.000239
0.000543
0.000421
0.000343
0.000230
0.000249
0.000316
0.000236
0.000202
0.000055
0.000208
0.000363
0.000337
0.000335
0.000389
0.000288
0.000374
0.000211
0.000241
0.000256
0.000283
0.000223
0.000248
0.000252
0.000251
0.000282
0.000348
0.000322
0.000514
0.000379
0.000284
0.000230
0.000259
0.001724
0.000630
0.000271
0.000713
0.000235
0.000258
0.000311
0.000152
0.000057
0.000181
0.000236
0.000352
0.000236
0.000259
0.000466
0.000372
0.000262
0.000230
0.000546
0.000216
0.000251
0.000261
0.000275
0.000276
0.000260
0.000210
0.000481
0.000315
0.000467
0.000274
0.000215
0.000254
0.000266
0.000254
0.000267
0.000250
0.000249
0.000261
0.000295
0.000197
0.000057
0.000296
0.000355
0.000198
0.000256
0.000250
0.000257
0.000242
0.000289
0.000237
0.000246
0.000283
0.000325
0.000423
0.000379
0.000386
0.000260
0.000220
0.000243
0.000259
0.000265
0.000283
0.000276
0.000219
0.000260
0.000283
0.000316
0.000407
0.000373
0.000360
0.000223
0.000184
0.000056
0.000203
0.000228
0.000277
0.000244
0.000237
0.000274
0.000261
0.000236
0.000498
0.000208
0.000254
0.000262
0.000234
0.000265
0.000279
0.000294
0.000241
0.000364
0.000217
0.000229
0.000251
0.000265
0.000258
0.000293
0.000254
0.000265
0.000254
0.000255
0.000266
0.000501
0.000155
0.000056
0.000208
0.000236
0.000262
0.000280
0.000206
0.000239
0.000371
0.000399
0.000235
0.000236
0.000248
0.000259
0.000236
0.000218
0.000459
0.001821
0.000221
0.000266
0.000288
0.000335
0.000405
0.000370
0.000361
0.000393
0.000381
0.000417
0.000228
0.000274
0.000262
0.000282
0.001394
0.000058
0.000404
0.000339
0.000219
0.000212
0.000236
0.000249
0.000235
0.000257
0.000241
0.000273
0.000246
0.000260
0.000251
0.000297
0.000540
0.001639
0.000234
0.000223
0.000243
0.000262
0.000242
0.000257
0.000360
0.000452
0.000239
0.000358
0.000222
0.000265
0.000282
0.000253
0.000192
0.000056
0.001208
0.000584
0.000275
0.000266
0.000234
0.000225
0.000234
0.000242
0.000489
0.000221
0.000238
0.000249
0.000339
0.000555
0.000372
0.000350
0.000254
0.000225
0.000335
0.000348
0.000269
0.000265
0.000267
0.000242
0.000277
0.000598
0.000573
0.000209
0.000267
0.000260
0.000171
0.000056
0.000214
0.000213
0.000243
0.000247
0.001441
0.000328
0.000221
0.000257
0.000259
0.000229
0.000254
0.000266
0.000228
0.000265
0.000267
0.000341
0.000378
0.000657
0.000276
0.001746
0.000247
0.000288
0.000317
0.000449
0.000581
0.000342
0.000233
0.000242
0.000270
0.000263
0.000192
0.000055
0.000203
0.000252
0.000237
0.000344
0.001231
0.000232
0.000262
0.000259
0.000237
0.000233
0.000238
0.000258
0.000277
0.000245
0.000253
0.000287
0.000493
0.000390
0.000330
0.000265
0.000256
0.000278
0.000244
0.000230
0.000299
0.000265
0.000229
0.000280
0.000282
0.000453
0.000447
0.000055
0.000226
0.000246
0.000230
0.000264
0.000271
0.000232
0.000236
0.000263
0.000269
0.000278
0.001412
0.000226
0.000239
0.000249
0.000245
0.000245
0.000294
0.000241
0.000283
0.000242
0.000274
0.000575
0.000360
0.000394
0.000221
0.000280
0.001774
0.000258
0.000246
0.000341
0.000451
0.000056
0.000194
0.000408
0.000451
0.000501
0.000518
0.000541
0.001484
0.000431
0.000516
0.000651
0.000554
0.000660
0.000539
0.000621
0.000584
0.001884
0.000466
0.000368
0.000393
0.000323
0.000230
0.000276
0.000281
0.000275
0.000263
0.000284
0.000314
0.000254
0.000265
0.000282
0.001363
0.000056
0.000206
0.000231
0.000239
0.000239
0.000260
0.000256
0.000228
0.000241
0.000254
0.000255
0.000236
0.000242
0.000249
0.000263
0.000270
0.000259
0.001824
0.000279
0.000246
0.000243
0.000261
0.000262
0.000260
0.000279
0.000381
0.000444
0.000344
0.000243
0.000259
0.000285
0.000209
0.000056
0.000190
0.001363
0.000331
0.000278
0.000252
0.000237
0.000242
0.000222
0.000272
0.000209
0.000223
0.000238
0.000262
0.000505
0.000357
0.000308
0.000241
0.001826
0.000356
0.000227
0.000241
0.000260
0.000257
0.000268
0.000275
0.000282
0.000274
0.000253
0.000265
0.000320
0.000204
0.000056
0.000218
0.000241
0.000249
0.001449
0.000215
0.000240
0.000249
0.000255
0.000228
0.000274
0.000247
0.000252
0.000240
0.000285
0.000230
0.000262
0.000265
0.000265
0.000265
0.000255
0.000263
0.001775
0.000279
0.001757
0.000266
0.000245
0.000271
0.000261
0.000270
0.000273
0.000200
0.000056
0.000196
0.000229
0.001352
0.000236
0.000247
0.000244
0.000262
0.000253
0.000239
0.000249
0.000256
0.000234
0.000265
0.000263
0.000258
0.000263
0.000276
0.000270
0.000301
0.000217
0.001888
0.000220
0.001844
0.000231
0.000260
0.000283
0.000234
0.000242
0.000251
0.000274
0.000198
0.000055
0.001432
0.000239
0.000205
0.000238
0.000243
0.000238
0.000377
0.000304
0.000209
0.000258
0.000253
0.000259
0.000240
0.000412
0.000332
0.000297
0.000255
0.000272
0.000253
0.000247
0.000276
0.000342
0.000221
0.000250
0.000273
0.000277
0.000277
0.000323
0.000715
0.000300
0.000198
0.000056
0.000191
0.000250
0.000268
0.000305
0.000357
0.000262
0.001702
0.000307
0.000269
0.000273
0.000249
0.000275
0.000267
0.000267
0.000302
0.000306
0.000561
0.000367
0.000360
0.000263
0.000292
0.000286
0.000266
0.000264
0.000336
0.000249
0.000272
0.000242
0.000255
0.000304
0.000441
0.000056
0.000257
0.000460
0.000268
0.000267
0.000252
0.000227
0.000227
0.000246
0.000258
0.000300
0.001471
0.000217
0.000226
0.000256
0.000242
0.000290
0.000285
0.000238
0.000250
0.000267
0.000266
0.000377
0.000587
0.000269
0.000263
0.000289
0.000271
0.000258
0.000231
0.000315
0.000169
0.000056
0.000199
0.000227
0.000308
0.000440
0.000370
0.000284
0.000208
0.000250
0.000252
0.000246
0.000239
0.000250
0.000260
0.000285
0.000223
0.000237
0.000494
0.001112
0.000267
0.000230
0.000285
0.000240
0.000356
0.000418
0.000244
0.000279
0.000634
0.000351
0.000376
0.000241
0.000173
0.000055
0.000239
0.000243
0.000260
0.000260
0.000256
0.000249
0.000340
0.000420
0.000415
0.000295
0.000365
0.000393
0.000398
0.000357
0.000252
0.000226
0.000249
0.000258
0.000402
0.000485
0.001239
0.000228
0.000274
0.000271
0.000233
0.000237
0.000263
0.000328
0.000449
0.000418
0.000244
0.000056
0.000211
0.000243
0.000248
0.000246
0.000235
0.000245
0.000239
0.000269
0.000312
0.000298
0.000407
0.000433
0.000246
0.000232
0.000259
0.000260
0.000239
0.000267
0.000262
0.000272
0.000430
0.000278
0.000372
0.000363
0.000345
0.000244
0.000269
0.000267
0.000252
0.000354
0.000161
0.000056
0.000309
0.000315
0.000288
0.000409
0.000456
0.000343
0.000234
0.000242
0.000255
0.000269
0.000269
0.000249
0.000235
0.000250
0.000241
0.000228
0.000266
0.000473
0.000389
0.000339
0.000221
0.000267
0.000245
0.000247
0.000265
0.000282
0.000272
0.000275
0.000264
0.000262
0.000320
0.000056
0.000238
0.000369
0.000231
0.000267
0.000226
0.000248
0.000243
0.000256
0.000263
0.000256
0.000251
0.000233
0.000304
0.000527
0.000417
0.000281
0.000220
0.000248
0.000259
0.000268
0.000252
0.000265
0.000266
0.000260
0.000277
0.000334
0.000402
0.000594
0.000403
0.000256
0.000163
0.000055
0.000405
0.000202
0.000218
0.000243
0.000252
0.000246
0.000240
0.000256
0.000254
0.000263
0.000218
0.000246
0.000280
0.000216
0.000241
0.000269
0.000252
0.000265
0.000293
0.000244
0.000260
0.000256
0.000268
0.000255
0.000270
0.000238
0.000263
0.000278
0.000260
0.000283
0.000196
0.000056
0.000199
0.000236
0.000248
0.000246
0.000235
0.000255
0.000260
0.000244
0.000258
0.000281
0.000232
0.000224
0.000262
0.000397
0.000252
0.000299
0.000243
0.000274
0.000249
0.000275
0.000274
0.000233
0.000246
0.000268
0.000257
0.000271
0.000252
0.000252
0.000274
0.000255
0.000213
0.000057
0.000208
0.000357
0.000371
0.000283
0.000294
0.000255
0.000262
0.000254
0.000224
0.000249
0.000274
0.000236
0.000245
0.000240
0.000258
0.000294
0.000226
0.000273
0.000242
0.000265
0.000283
0.000256
0.000274
0.000258
0.000287
0.000231
0.000258
0.000268
0.000271
0.000261
0.000198
0.000056
0.000202
0.000234
0.000269
0.000264
0.000251
0.000445
0.000215
0.000269
0.000293
0.000382
0.000526
0.000272
0.000238
0.000241
0.000284
0.000255
0.000238
0.000265
0.000277
0.000258
0.000263
0.000255
0.000265
0.000293
0.000517
0.000520
0.000248
0.000288
0.000266
0.000266
0.000194
0.000071
0.000190
0.000215
0.000244
0.000251
0.000315
0.000696
0.000277
0.000384
0.000214
0.000238
0.000252
0.000257
0.000244
0.000267
0.000240
0.000272
0.000278
0.000237
0.000630
0.000491
0.000201
0.000244
0.000248
0.000288
0.000279
0.000262
0.000279
0.000269
0.000233
0.000330
0.000326
0.000056
0.000328
0.000191
0.000242
0.000234
0.000256
0.000267
0.000217
0.000244
0.000259
0.000241
0.000249
0.000255
0.000310
0.000295
0.000606
0.000404
0.000220
0.000254
0.000266
0.000242
0.000271
0.000287
0.000477
0.000222
0.000258
0.000576
0.000491
0.000471
0.000211
0.000257
0.000184
0.000055
0.000197
0.000226
0.000257
0.000233
0.000256
0.000254
0.000291
0.000507
0.000556
0.000404
0.000211
0.000265
0.000278
0.000271
0.000257
0.000250
0.000235
0.000252
0.000252
0.000423
0.000328
0.000639
0.000361
0.000251
0.000367
0.000377
0.000478
0.000239
0.000270
0.000610
0.000260
0.000056
0.000263
0.000238
0.000467
0.000193
0.000229
0.000257
0.000262
0.000276
0.000216
0.000240
0.000283
0.000500
0.000218
0.000373
0.000220
0.000254
0.000261
0.000258
0.000260
0.000289
0.000260
0.000252
0.000249
0.000273
0.000301
0.000498
0.000493
0.000252
0.000233
0.000278
0.000193
0.000055
0.000197
0.000256
0.000229
0.000261
0.000233
0.000280
0.000333
0.000387
0.000463
0.000267
0.000374
0.000224
0.000245
0.000267
0.000253
0.000241
0.000255
0.000262
0.000301
0.000452
0.000461
0.000291
0.000480
0.000270
0.000398
0.000412
0.000381
0.000245
0.000258
0.000285
0.000364
0.000056
0.000242
0.000277
0.000220
0.000249
0.000258
0.000253
0.000254
0.000239
0.000276
0.000242
0.000239
0.000277
0.000532
0.000379
0.000373
0.000220
0.000264
0.000265
0.000268
0.000235
0.000254
0.000248
0.000263
0.000284
0.000268
0.000414
0.000409
0.000478
0.000240
0.000281
0.000191
0.000055
0.000201
0.000239
0.000277
0.000250
0.000243
0.000353
0.000488
0.000459
0.000363
0.000689
0.000265
0.000219
0.000234
0.000262
0.000249
0.000268
0.000277
0.000271
0.000484
0.000524
0.001398
0.000308
0.000264
0.000288
0.000264
0.000262
0.000384
0.000410
0.000410
0.000269
0.000181
0.000055
0.000197
0.000230
0.000247
0.000266
0.000230
0.000247
0.000299
0.000225
0.000264
0.000313
0.000332
0.000380
0.000283
0.000321
0.000396
0.000342
0.000240
0.000243
0.000278
0.000253
0.000249
0.000243
0.000314
0.000221
0.000327
0.000436
0.000428
0.000288
0.000249
0.000273
0.000182
0.000055
0.000207
0.000247
0.000255
0.000254
0.000236
0.000234
0.000481
0.000215
0.000227
0.000256
0.000243
0.000252
0.000260
0.000253
0.000251
0.000273
0.000261
0.000292
0.000249
0.000255
0.000281
0.000272
0.000284
0.000246
0.000263
0.000281
0.000268
0.000265
0.000264
0.000271
0.000174
0.000055
0.000211
0.000249
0.000340
0.000373
0.000375
0.000253
0.000237
0.000245
0.000263
0.000246
0.000246
0.000261
0.000262
0.000262
0.000240
0.000242
0.000281
0.000236
0.000254
0.000390
0.000406
0.000412
0.000217
0.000264
0.000271
0.000257
0.000268
0.000243
0.000277
0.000281
0.000209
0.000056
0.000338
0.000366
0.000449
0.000216
0.000243
0.000256
0.000421
0.000217
0.000225
0.000255
0.000256
0.000299
0.000350
0.000462
0.001833
0.000254
0.000246
0.000258
0.000279
0.000235
0.000312
0.000561
0.000613
0.000218
0.000216
0.000270
0.000276
0.000423
0.000286
0.000271
0.000169
0.000056
0.000267
0.000327
0.000335
0.000328
0.000491
0.000207
0.000233
0.000257
0.000243
0.000240
0.000265
0.000243
0.000266
0.000299
0.000391
0.000522
0.000221
0.000233
0.000264
0.000260
0.000268
0.000306
0.000246
0.000272
0.000276
0.000448
0.000538
0.000477
0.000365
0.000220
0.000210
0.000055
0.000225
0.000223
0.000259
0.000233
0.000246
0.000248
0.000274
0.000293
0.000397
0.000372
0.000365
0.000346
0.000210
0.000253
0.000268
0.000296
0.000296
0.000233
0.000275
0.000275
0.000235
0.000291
0.000488
0.000376
0.000286
0.000253
0.000258
0.000476
0.000378
0.000322
0.000164
0.000056
0.000192
0.000232
0.000336
0.000411
0.000399
0.000202
0.000240
0.000246
0.000266
0.000268
0.000251
0.000258
0.000216
0.000259
0.000266
0.000290
0.000395
0.000361
0.000328
0.000318
0.000487
0.000223
0.000281
0.000278
0.000302
0.000288
0.000243
0.000269
0.000568
0.000465
0.000156
0.000055
0.000213
0.000230
0.000249
0.000248
0.000242
0.000484
0.000217
0.000248
0.000268
0.000316
0.000483
0.000619
0.000200
0.000242
0.000236
0.000257
0.000258
0.000260
0.000245
0.000250
0.000287
0.000238
0.000492
0.000279
0.000386
0.000406
0.000277
0.000311
0.000321
0.000248
0.000181
0.000055
0.000220
0.000233
0.000266
0.000516
0.000292
0.000309
0.000233
0.000237
0.000231
0.000264
0.000256
0.000257
0.000260
0.000252
0.000242
0.000265
0.000245
0.000244
0.000264
0.000372
0.000660
0.000270
0.000215
0.000251
0.000281
0.000271
0.000258
0.000264
0.000266
0.000269
0.000191
0.000055
0.000306
0.000346
0.000470
0.000250
0.000207
0.000246
0.000317
0.000456
0.000289
0.000212
0.000241
0.000275
0.000251
0.000453
0.000433
0.000298
0.000231
0.000231
0.000254
0.000263
0.000275
0.000261
0.000267
0.000267
0.000265
0.000290
0.000417
0.000427
0.000315
0.000219
0.000181
0.000056
0.000208
0.000241
0.000249
0.000260
0.000249
0.000261
0.000228
0.000268
0.000253
0.000237
0.000266
0.000232
0.000311
0.001407
0.000229
0.000249
0.000265
0.000239
0.000282
0.000276
0.000263
0.000235
0.000282
0.000271
0.000246
0.000273
0.000274
0.000267
0.000263
0.000272
0.000186
0.000056
0.000203
0.000222
0.000255
0.000265
0.000224
0.000245
0.000258
0.000260
0.000221
0.000250
0.000247
0.000266
0.000255
0.000257
0.000254
0.000263
0.000242
0.000259
0.000277
0.000253
0.000257
0.000255
0.000252
0.000254
0.001294
0.000282
0.000615
0.000418
0.000326
0.000213
0.000192
0.000055
0.000207
0.000220
0.000237
0.000250
0.000457
0.000210
0.000221
0.000249
0.000254
0.000379
0.000438
0.000343
0.000231
0.000231
0.000280
0.000236
0.000257
0.000257
0.000257
0.000260
0.000255
0.000254
0.000269
0.000409
0.000533
0.000433
0.000225
0.000283
0.001358
0.000247
0.000187
0.000056
0.000297
0.000416
0.000321
0.000263
0.000236
0.000217
0.000233
0.000245
0.000259
0.000257
0.000250
0.000254
0.000305
0.000323
0.000507
0.000363
0.000344
0.000213
0.000240
0.000258
0.000270
0.000285
0.000250
0.000257
0.000272
0.000256
0.000362
0.000554
0.000398
0.000314
0.000159
0.000055
0.000185
0.000239
0.001254
0.000431
0.000338
0.000415
0.000384
0.000493
0.000264
0.000361
0.000211
0.000215
0.000265
0.000252
0.000253
0.000265
0.000364
0.000494
0.000356
0.000393
0.000260
0.000245
0.000261
0.000501
0.000224
0.000267
0.000253
0.000283
0.000285
0.000574
0.000297
0.000056
0.000367
0.000314
0.000234
0.000229
0.001607
0.000445
0.000268
0.000254
0.000236
0.000254
0.000235
0.000235
0.000251
0.000260
0.000251
0.000269
0.000233
0.000269
0.000462
0.000493
0.000288
0.000253
0.000247
0.000254
0.000265
0.000277
0.000276
0.000228
0.000267
0.000275
0.000220
0.000056
0.000390
0.000327
0.000228
0.000227
0.000253
0.000240
0.000265
0.000229
0.000244
0.000220
0.001393
0.000506
0.000250
0.000248
0.000240
0.000253
0.000273
0.000256
0.000237
0.000312
0.000234
0.000258
0.000261
0.000415
0.000409
0.000477
0.000208
0.000275
0.000276
0.000290
0.000167
0.000056
0.000197
0.000414
0.000222
0.000223
0.000572
0.000347
0.000315
0.000244
0.000462
0.000209
0.000230
0.000268
0.000250
0.000263
0.000262
0.001499
0.000275
0.000284
0.000235
0.000279
0.000299
0.000233
0.000252
0.000245
0.000278
0.000256
0.000469
0.000432
0.000356
0.000211
0.000157
0.000056
0.000207
0.000237
0.000251
0.000236
0.000226
0.000265
0.000245
0.000247
0.000276
0.000388
0.000448
0.000273
0.000229
0.000263
0.000236
0.000274
0.000273
0.000260
0.000270
0.000231
0.000247
0.000306
0.001262
0.000257
0.000242
0.000264
0.000266
0.000270
0.000255
0.000260
0.000196
0.000055
0.000224
0.000342
0.000366
0.000341
0.000247
0.000249
0.000255
0.000290
0.000234
0.000262
0.000242
0.000268
0.000240
0.000245
0.000261
0.000264
0.000263
0.000267
0.000269
0.000246
0.000253
0.000276
0.000265
0.000276
0.000293
0.000267
0.000266
0.000262
0.000254
0.000495
0.001313
0.000057
0.000202
0.000256
0.000221
0.000265
0.000231
0.000262
0.000239
0.000224
0.000248
0.000254
0.000274
0.000265
0.000246
0.000237
0.000276
0.000219
0.001739
0.000250
0.000240
0.000266
0.000236
0.000263
0.000277
0.000258
0.000293
0.000238
0.000268
0.000277
0.000268
0.000260
0.000224
0.000054
0.000245
0.000367
0.001267
0.000236
0.000228
0.000234
0.000256
0.000251
0.000276
0.000247
0.000227
0.000334
0.000404
0.000474
0.000243
0.000235
0.000247
0.000257
0.000258
0.000265
0.000241
0.000283
0.000259
0.000283
0.000269
0.000394
0.000336
0.000399
0.000294
0.000247
0.000197
0.000055
0.000227
0.000245
0.000242
0.000246
0.000281
0.000200
0.000231
0.000249
0.000440
0.001310
0.000272
0.000210
0.000247
0.000273
0.000253
0.000294
0.000235
0.000247
0.000320
0.000429
0.000391
0.000231
0.000240
0.000248
0.000276
0.000285
0.000264
0.000292
0.000272
0.000273
0.000191
0.000056
0.000290
0.000397
0.000367
0.000215
0.000218
0.000241
0.000254
0.000275
0.000260
0.000247
0.000232
0.000250
0.000460
0.000497
0.000478
0.001440
0.000252
0.000302
0.000314
0.000336
0.000554
0.000357
0.000547
0.000313
0.000222
0.000259
0.000268
0.000283
0.000256
0.000279
0.000195
0.000055
0.000204
0.000272
0.000446
0.000538
0.000280
0.000244
0.000244
0.000245
0.000235
0.000276
0.000235
0.000262
0.000281
0.000223
0.000262
0.000331
0.000331
0.000428
0.000375
0.001322
0.000265
0.000250
0.000258
0.000260
0.000486
0.000420
0.000379
0.000240
0.000280
0.000275
0.000182
0.000056
0.000201
0.000236
0.000245
0.000267
0.000221
0.000311
0.000415
0.000384
0.000386
0.000215
0.000233
0.000265
0.000271
0.000287
0.000236
0.000275
0.000250
0.000251
0.000285
0.000297
0.000431
0.000434
0.000312
0.001343
0.000419
0.000237
0.000266
0.000396
0.000489
0.000338
0.000311
0.000056
0.000190
0.000236
0.000250
0.000249
0.000250
0.000253
0.001689
0.000236
0.000220
0.000234
0.000258
0.000244
0.000256
0.000335
0.000323
0.000290
0.000261
0.000297
0.000475
0.000443
0.000317
0.000273
0.000231
0.000246
0.001509
0.000343
0.000422
0.000435
0.000345
0.000293
0.000167
0.000072
0.000201
0.000243
0.000259
0.000262
0.000242
0.000261
0.001704
0.000247
0.000230
0.000267
0.000331
0.000404
0.001447
0.000361
0.000389
0.000240
0.000258
0.000233
0.000267
0.000279
0.001518
0.000586
0.000390
0.000297
0.000225
0.000263
0.000257
0.000298
0.000225
0.000252
0.000195
0.000056
0.000213
0.000240
0.000268
0.000243
0.000270
0.000297
0.000253
0.000265
0.000238
0.000260
0.000246
0.000267
0.000272
0.000241
0.000248
0.001501
0.000287
0.000217
0.000273
0.000279
0.000271
0.000256
0.000433
0.001266
0.000281
0.000232
0.000274
0.000249
0.000409
0.000243
0.000193
0.000055
0.000195
0.000230
0.000220
0.000251
0.000236
0.000228
0.000231
0.001695
0.000286
0.000196
0.000358
0.000261
0.000232
0.000221
0.000254
0.001393
0.000219
0.000274
0.000266
0.000249
0.000266
0.000348
0.000295
0.001296
0.000282
0.000243
0.000254
0.000263
0.001413
0.000286
0.000221
0.000056
0.000224
0.000387
0.000209
0.000230
0.000264
0.000228
0.000283
0.000250
0.000264
0.000247
0.000259
0.000280
0.000236
0.000242
0.000307
0.001534
0.000225
0.000262
0.000259
0.000248
0.000277
0.000262
0.000254
0.001503
0.000349
0.000238
0.000276
0.001275
0.000275
0.000229
0.000226
0.000055
0.000234
0.000385
0.000349
0.000215
0.000224
0.000242
0.000267
0.000251
0.000267
0.000274
0.000228
0.000261
0.000257
0.000292
0.000401
0.001223
0.000236
0.000243
0.000270
0.000270
0.000233
0.000239
0.000263
0.000314
0.001311
0.000207
0.000267
0.000252
0.000251
0.001368
0.000301
0.000056
0.000306
0.000226
0.000223
0.000223
0.000243
0.000251
0.000251
0.000242
0.000302
0.000232
0.000237
0.000250
0.000252
0.000328
0.000414
0.001476
0.000223
0.000243
0.000304
0.000510
0.000280
0.000388
0.001358
0.000306
0.000228
0.000273
0.000245
0.001335
0.000354
0.000407
0.000405
0.000057
0.000218
0.000257
0.000254
0.000255
0.000251
0.000255
0.000270
0.000263
0.000251
0.000276
0.000312
0.000417
0.001367
0.000244
0.000278
0.000258
0.000279
0.000216
0.000240
0.000247
0.000338
0.001231
0.000272
0.000243
0.000251
0.000243
0.001548
0.000410
0.000476
0.000220
0.000176
0.000056
0.000200
0.000231
0.000251
0.000236
0.000250
0.000267
0.000238
0.000248
0.000478
0.000463
0.000264
0.001488
0.000219
0.000232
0.000260
0.000257
0.000267
0.000296
0.001668
0.000267
0.000392
0.000343
0.001283
0.000341
0.000322
0.000321
0.000268
0.000240
0.000276
0.000260
0.000199
0.000055
0.000200
0.000242
0.000331
0.000230
0.000356
0.000534
0.000268
0.000290
0.001468
0.000240
0.000407
0.000253
0.000217
0.000348
0.000358
0.001377
0.000204
0.000220
0.000243
0.000261
0.001518
0.000422
0.000268
0.000252
0.000271
0.000239
0.000488
0.000329
0.000236
0.000233
0.000263
0.000057
0.000243
0.000362
0.000345
0.000264
0.000224
0.001518
0.000235
0.000237
0.000265
0.000266
0.000269
0.000239
0.001631
0.000215
0.000207
0.000224
0.000439
0.001183
0.000307
0.000467
0.000409
0.000241
0.000236
0.000248
0.000308
0.000223
0.000449
0.000228
0.000268
0.000280
0.000199
0.000057
0.000217
0.000295
0.000306
0.000351
0.001316
0.000274
0.000336
0.000228
0.000229
0.000240
0.000251
0.000316
0.001536
0.000211
0.000241
0.000237
0.001393
0.000328
0.000377
0.000421
0.000394
0.000231
0.000245
0.000250
0.000270
0.000284
0.000251
0.000263
0.000280
0.000248
0.000193
0.000056
0.000202
0.000380
0.001487
0.000221
0.000260
0.000298
0.000219
0.000246
0.000263
0.000439
0.001333
0.000216
0.000267
0.000260
0.000246
0.001293
0.000697
0.000271
0.000325
0.000407
0.000306
0.000248
0.000259
0.000256
0.000271
0.000290
0.000272
0.000386
0.000382
0.000400
0.001383
0.000057
0.000198
0.000244
0.000240
0.000228
0.000253
0.000396
0.000516
0.001281
0.000238
0.000243
0.000244
0.001405
0.000488
0.000310
0.000233
0.000424
0.000227
0.000244
0.000267
0.000278
0.000252
0.000254
0.000285
0.000249
0.000248
0.000275
0.000471
0.000459
0.001504
0.000216
0.000197
0.000056
0.000200
0.000251
0.000419
0.000460
0.001253
0.000298
0.000233
0.000257
0.000246
0.000249
0.000251
0.000283
0.000349
0.000533
0.000297
0.000236
0.000256
0.000269
0.000241
0.000314
0.000233
0.000256
0.000267
0.000258
0.000263
0.000313
0.000546
0.000346
0.000338
0.001399
0.000184
0.000055
0.000199
0.000239
0.000325
0.000426
0.000326
0.000303
0.000314
0.000334
0.000296
0.000253
0.000238
0.000264
0.000250
0.000306
0.000243
0.000470
0.000409
0.000289
0.000283
0.000384
0.000275
0.000433
0.000208
0.000227
0.000274
0.000259
0.000253
0.000311
0.000353
0.000484
0.000336
0.000056
0.000200
0.001407
0.000226
0.000341
0.000463
0.000398
0.000346
0.000316
0.000210
0.000242
0.000265
0.000247
0.000285
0.000252
0.000270
0.000243
0.000265
0.001375
0.000244
0.000258
0.000251
0.000269
0.000277
0.000280
0.000265
0.000254
0.000276
0.000249
0.000377
0.000350
0.000371
0.000056
0.000202
0.000237
0.000236
0.001509
0.000345
0.000220
0.000219
0.000247
0.000238
0.000243
0.000249
0.000283
0.000241
0.000251
0.000295
0.000226
0.000251
0.000262
0.000258
0.000261
0.001431
0.000245
0.000225
0.000306
0.000238
0.000250
0.000264
0.000266
0.000270
0.000500
0.000344
0.000055
0.000199
0.000232
0.000398
0.000284
0.000238
0.000262
0.001521
0.000357
0.000297
0.000214
0.000259
0.000316
0.000344
0.000212
0.000229
0.000250
0.000246
0.000261
0.000264
0.000261
0.000501
0.000462
0.001153
0.000265
0.000233
0.000263
0.000267
0.000260
0.000299
0.000241
0.000338
0.000056
0.000218
0.000349
0.000209
0.000242
0.000248
0.000236
0.000241
0.000233
0.000293
0.001658
0.000336
0.000274
0.000226
0.000254
0.000277
0.000226
0.000262
0.000273
0.000260
0.000311
0.000306
0.000482
0.000461
0.001367
0.000229
0.000280
0.000253
0.000261
0.000269
0.000303
0.000447
0.000056
0.000272
0.000266
0.000226
0.000229
0.000219
0.000240
0.000265
0.000282
0.000255
0.001567
0.000365
0.000259
0.000237
0.000279
0.000440
0.000263
0.000541
0.000375
0.000275
0.000277
0.000483
0.000510
0.001251
0.000262
0.000223
0.000255
0.001854
0.000319
0.000618
0.000314
0.000134
0.000056
0.000204
0.000228
0.000241
0.000238
0.000259
0.000242
0.000247
0.000560
0.000436
0.000425
0.000288
0.000215
0.000252
0.000246
0.000284
0.000265
0.000243
0.000235
0.000260
0.000282
0.000289
0.000426
0.001310
0.000222
0.000253
0.000270
0.001912
0.000371
0.000392
0.000346
0.000150
0.000056
0.000238
0.000235
0.000245
0.001619
0.000389
0.000201
0.000234
0.000259
0.000253
0.000287
0.000377
0.000366
0.000379
0.000264
0.000310
0.000525
0.000380
0.001188
0.000282
0.000221
0.000256
0.000259
0.000288
0.000401
0.000706
0.000382
0.000243
0.000262
0.000267
0.000281
0.000191
0.000057
0.000176
0.000232
0.000245
0.001540
0.000248
0.000235
0.000236
0.000262
0.000239
0.000260
0.000245
0.000270
0.000265
0.000284
0.000233
0.000530
0.000334
0.000316
0.001386
0.000247
0.000241
0.000264
0.000251
0.000265
0.000373
0.000497
0.000444
0.000268
0.000293
0.000230
0.000432
0.000055
0.000187
0.000239
0.000275
0.001536
0.000315
0.000202
0.000257
0.000243
0.000254
0.000260
0.000272
0.000255
0.000237
0.000277
0.000375
0.000532
0.001374
0.000747
0.000285
0.000318
0.000242
0.000228
0.000249
0.000278
0.001678
0.000819
0.000220
0.000254
0.000284
0.000278
0.000194
0.000056
0.000201
0.000234
0.000254
0.000243
0.000267
0.000265
0.000215
0.000289
0.000202
0.000230
0.000297
0.000278
0.000256
0.000253
0.000253
0.000246
0.000280
0.001599
0.000726
0.000441
0.000227
0.000226
0.000245
0.000311
0.000244
0.000253
0.000276
0.000253
0.001415
0.000418
0.000270
0.000056
0.000189
0.000229
0.000263
0.000247
0.000254
0.000225
0.000276
0.000228
0.000258
0.000261
0.000237
0.000492
0.000414
0.000321
0.000220
0.000238
0.000273
0.001395
0.000731
0.000432
0.000359
0.000253
0.000214
0.000257
0.000272
0.000255
0.000263
0.000258
0.001494
0.000440
0.000184
0.000056
0.000179
0.000232
0.000239
0.000250
0.000250
0.000246
0.000235
0.000251
0.000271
0.000267
0.000382
0.000423
0.000272
0.000218
0.000239
0.000250
0.000263
0.000258
0.001638
0.000611
0.000508
0.000248
0.000210
0.000251
0.000260
0.000259
0.000267
0.000288
0.000265
0.001388
0.000306
0.000056
0.000207
0.000211
0.000235
0.000259
0.000261
0.000241
0.000249
0.000315
0.000359
0.000427
0.000383
0.000415
0.000331
0.000218
0.000242
0.000250
0.000302
0.000232
0.000270
0.001966
0.000292
0.000226
0.000448
0.000240
0.000256
0.000261
0.000264
0.000264
0.000270
0.000274
0.000481
0.000057
0.000236
0.000292
0.000218
0.000241
0.000255
0.000249
0.000224
0.000241
0.000277
0.000265
0.000229
0.000233
0.000367
0.000451
0.000380
0.000442
0.000221
0.000268
0.000258
0.000245
0.000254
0.000285
0.001477
0.001050
0.000225
0.000243
0.000270
0.000262
0.000277
0.000259
0.000193
0.000056
0.000198
0.001348
0.000292
0.000214
0.000225
0.000253
0.000249
0.000243
0.000237
0.000263
0.000247
0.000266
0.000241
0.000340
0.000422
0.000345
0.000390
0.000227
0.000263
0.000267
0.000277
0.000220
0.000270
0.000263
0.001324
0.000681
0.000307
0.000404
0.000365
0.000393
0.000294
0.000056
0.000194
0.000241
0.000388
0.001303
0.000190
0.000255
0.000229
0.000261
0.000255
0.000261
0.000254
0.000238
0.000267
0.000358
0.000575
0.000309
0.000201
0.000278
0.000334
0.000209
0.000253
0.000276
0.000233
0.000273
0.000266
0.001548
0.000740
0.000311
0.000257
0.000266
0.000204
0.000056
0.000216
0.000232
0.000477
0.000340
0.001312
0.000247
0.000200
0.000235
0.000238
0.000253
0.000244
0.000259
0.000230
0.000236
0.000257
0.000249
0.000276
0.000236
0.000254
0.000252
0.000285
0.000396
0.000252
0.000245
0.000214
0.000262
0.000269
0.001458
0.000263
0.000247
0.000163
0.000064
0.000171
0.000224
0.000249
0.000272
0.000346
0.000374
0.000395
0.000281
0.001603
0.000190
0.000324
0.000457
0.000367
0.000230
0.000443
0.000236
0.000226
0.000260
0.000282
0.000267
0.000281
0.000268
0.000257
0.000270
0.000246
0.000428
0.000384
0.000345
0.001577
0.000217
0.000192
0.000059
0.000216
0.000238
0.000247
0.000256
0.000234
0.000241
0.000268
0.000309
0.000415
0.002041
0.000216
0.000247
0.000255
0.000259
0.000256
0.000309
0.000237
0.000237
0.000264
0.000448
0.000387
0.000422
0.001449
0.000243
0.000259
0.002005
0.000274
0.000237
0.000279
0.001537
0.000143
0.000056
0.000402
0.000332
0.000486
0.000240
0.000270
0.000216
0.000258
0.000273
0.000258
0.000229
0.000252
0.000341
0.000436
0.000320
0.000421
0.000257
0.000228
0.001573
0.000232
0.000565
0.001891
0.000298
0.000220
0.001554
0.002017
0.000742
0.000271
0.000269
0.000347
0.000365
0.000434
0.000056
0.000204
0.000242
0.000278
0.000222
0.001427
0.001730
0.001073
0.000197
0.000235
0.001600
0.001965
0.000204
0.000252
0.000430
0.000279
0.000355
0.000388
0.000521
0.000218
0.000235
0.000249
0.000252
0.000290
0.001585
0.001207
0.001423
0.000292
0.000278
0.000253
0.000327
0.000332
0.000056
0.000251
0.000195
0.000232
0.000245
0.000232
0.000240
0.000253
0.000250
0.000257
0.000244
0.000249
0.000355
0.000421
0.000417
0.000333
0.000219
0.000266
0.000261
0.000266
0.000281
0.000240
0.000265
0.001511
0.000476
0.002118
0.000261
0.000225
0.000465
0.000365
0.000344
0.000193
0.000056
0.000259
0.000367
0.000424
0.000309
0.000191
0.000226
0.000257
0.000241
0.000242
0.000241
0.000248
0.000264
0.000267
0.001610
0.001350
0.001228
0.000269
0.000231
0.000252
0.000275
0.000284
0.000278
0.000240
0.000255
0.002211
0.000254
0.000244
0.000298
0.000322
0.000311
0.000219
0.000057
0.000215
0.000458
0.000458
0.000307
0.000243
0.000225
0.000247
0.000264
0.001910
0.001414
0.000215
0.000338
0.000385
0.000411
0.000267
0.000222
0.000273
0.000247
0.000275
0.000256
0.000254
0.000263
0.000482
0.000229
0.000269
0.000273
0.000240
0.000279
0.000280
0.000252
0.000203
0.000056
0.000193
0.000249
0.000242
0.000248
0.000277
0.000249
0.001538
0.001424
0.001320
0.000245
0.000221
0.000243
0.000265
0.000262
0.000265
0.000230
0.000252
0.002104
0.000248
0.000236
0.000270
0.000269
0.000254
0.000265
0.000258
0.000264
0.000269
0.000256
0.000274
0.000263
0.000167
0.000055
0.000204
0.002678
0.001403
0.000215
0.000303
0.000327
0.000207
0.000288
0.000233
0.000237
0.000255
0.000242
0.000234
0.000245
0.000273
0.000252
0.000278
0.000270
0.000265
0.000248
0.000263
0.000289
0.000270
0.000264
0.000248
0.000243
0.000271
0.000272
0.000262
0.000264
0.000373
0.000056
0.001550
0.000258
0.001224
0.000228
0.000223
0.000239
0.000263
0.000281
0.000220
0.000337
0.000360
0.000402
0.000271
0.000207
0.000254
0.002150
0.000234
0.000248
0.000387
0.000442
0.000299
0.000334
0.000215
0.000255
0.000265
0.000247
0.000265
0.000282
0.000265
0.001661
0.001219
0.000057
0.000202
0.000221
0.000319
0.000370
0.000342
0.000311
0.000204
0.000232
0.000249
0.000263
0.000265
0.000248
0.000220
0.000258
0.000265
0.000241
0.000358
0.000587
0.000367
0.000248
0.000220
0.000275
0.000274
0.000250
0.000259
0.000240
0.000266
0.000278
0.000240
0.000318
0.000372
0.000056
0.001120
0.000254
0.000346
0.000426
0.000296
0.000212
0.000238
0.000243
0.000249
0.002320
0.000398
0.000340
0.000210
0.000386
0.000318
0.000238
0.000242
0.000256
0.000264
0.000221
0.000261
0.000273
0.000720
0.000340
0.001874
0.001248
0.000590
0.000530
0.000229
0.000285
0.000198
0.000056
0.000306
0.000273
0.000251
0.000241
0.000251
0.000225
0.000267
0.000237
0.000252
0.000254
0.000253
0.000226
0.000245
0.000277
0.000371
0.000507
0.001846
0.001318
0.000472
0.000430
0.000450
0.000234
0.000238
0.000269
0.002124
0.000616
0.000329
0.000233
0.000271
0.000284
0.000211
0.000056
0.000200
0.000239
0.000253
0.000250
0.000239
0.000397
0.000360
0.000361
0.000268
0.000228
0.000239
0.000244
0.000264
0.002104
0.000437
0.000328
0.000215
0.000242
0.000292
0.000244
0.000264
0.002458
0.000326
0.000211
0.000259
0.000257
0.000259
0.000282
0.000292
0.000256
0.000191
0.000058
0.000187
0.000356
0.000589
0.000323
0.000249
0.000227
0.000228
0.000257
0.000264
0.000269
0.001938
0.000391
0.000274
0.000273
0.000225
0.000270
0.000279
0.000235
0.002196
0.000453
0.000213
0.000270
0.000282
0.000242
0.000254
0.000264
0.000292
0.000237
0.000267
0.000257
0.000186
0.000057
0.000212
0.000245
0.000248
0.000218
0.000251
0.000256
0.000245
0.000235
0.000239
0.002186
0.000215
0.000289
0.000207
0.000439
0.000224
0.000248
0.000322
0.000246
0.000251
0.000251
0.001974
0.000270
0.000344
0.000364
0.000432
0.000402
0.000311
0.000249
0.000255
0.000256
0.000199
0.000057
0.000190
0.000234
0.000239
0.000252
0.000252
0.000324
0.000221
0.002309
0.000252
0.000218
0.000261
0.000254
0.000243
0.000276
0.000291
0.002103
0.000594
0.000214
0.000264
0.000237
0.000263
0.000259
0.000291
0.000266
0.000265
0.000248
0.000294
0.000249
0.000265
0.000258
0.000200
0.000055
0.001829
0.001435
0.000207
0.000219
0.000248
0.000253
0.000249
0.000254
0.000454
0.000360
0.002126
0.000261
0.000234
0.000269
0.000303
0.000473
0.000463
0.000256
0.000225
0.000237
0.000250
0.000263
0.000272
0.000226
0.000252
0.000283
0.000256
0.000266
0.000302
0.000776
0.000225
0.000056
0.000201
0.000252
0.000250
0.000245
0.000270
0.000246
0.000258
0.000241
0.001509
0.002083
0.000615
0.000253
0.000402
0.000749
0.000299
0.000231
0.000259
0.000246
0.000271
0.000258
0.000262
0.000237
0.000248
0.000270
0.003013
0.000333
0.000236
0.000261
0.000301
0.000325
0.000372
0.000057
0.001929
0.000227
0.000230
0.000229
0.000299
0.000448
0.000464
0.000197
0.000292
0.000211
0.000243
0.000248
0.000257
0.000259
0.000269
0.000247
0.000255
0.000287
0.001823
0.000240
0.000236
0.000249
0.000274
0.000285
0.000268
0.000255
0.001477
0.000328
0.000244
0.000266
0.000173
0.000056
0.000198
0.000239
0.000230
0.000244
0.000252
0.000239
0.000275
0.000449
0.000285
0.000395
0.000202
0.000242
0.000270
0.000328
0.000424
0.000317
0.000216
0.000250
0.000270
0.000402
0.000458
0.000402
0.000260
0.000254
0.000262
0.000249
0.000255
0.000269
0.000283
0.000257
0.000201
0.000055
0.001447
0.000431
0.000228
0.001934
0.000396
0.000315
0.000426
0.000329
0.000200
0.000249
0.000270
0.000243
0.000244
0.000254
0.000266
0.000254
0.000458
0.000298
0.000444
0.000318
0.000352
0.000232
0.000257
0.000269
0.000270
0.000267
0.000259
0.000279
0.000382
0.000472
0.001348
0.000056
0.000202
0.000215
0.002084
0.000357
0.000280
0.000228
0.000258
0.000251
0.000260
0.000264
0.000212
0.000249
0.000253
0.000264
0.000258
0.000368
0.000701
0.001760
0.000232
0.000246
0.000252
0.000283
0.000384
0.000408
0.001595
0.000276
0.000366
0.001924
0.000273
0.000241
0.000199
0.000055
0.000199
0.000228
0.000233
0.000240
0.000233
0.000250
0.000252
0.000283
0.000333
0.000267
0.000388
0.000357
0.000337
0.000292
0.000241
0.000276
0.000259
0.000236
0.000267
0.000255
0.000314
0.000279
0.000264
0.000262
0.000265
0.001532
0.000276
0.000381
0.002064
0.000243
0.000169
0.000056
0.000218
0.000234
0.000243
0.000244
0.000490
0.000204
0.000261
0.000313
0.000375
0.000314
0.000308
0.000205
0.000262
0.000270
0.000275
0.000346
0.000419
0.000426
0.000249
0.000397
0.000518
0.000500
0.001538
0.000223
0.000254
0.001965
0.000351
0.000253
0.000230
0.000301
0.000187
0.000057
0.000205
0.000241
0.000225
0.000243
0.000257
0.000263
0.000256
0.000270
0.000251
0.000271
0.001825
0.000292
0.000384
0.000278
0.000465
0.000368
0.000375
0.001477
0.000232
0.000291
0.002110
0.000572
0.000259
0.000225
0.000273
0.000269
0.000503
0.000223
0.000261
0.000273
0.000199
0.000055
0.000294
0.000299
0.000418
0.000299
0.000203
0.000233
0.000261
0.000256
0.000262
0.000296
0.000225
0.000248
0.000259
0.000268
0.000344
0.000510
0.001275
0.000260
0.000275
0.001911
0.000371
0.000291
0.000235
0.000263
0.000260
0.000261
0.000268
0.000268
0.000242
0.000267
0.000206
0.000056
0.000281
0.000369
0.002026
0.000249
0.000229
0.000249
0.000245
0.000324
0.000411
0.000450
0.001298
0.000378
0.000358
0.002078
0.000204
0.000239
0.000271
0.000281
0.000253
0.000232
0.000292
0.000291
0.000258
0.000433
0.000431
0.000342
0.000372
0.002175
0.000523
0.000540
0.000306
0.000069
0.000187
0.000216
0.000247
0.001966
0.000229
0.000222
0.000246
0.000245
0.000242
0.000258
0.000245
0.000265
0.000257
0.000358
0.000427
0.001401
0.000249
0.000244
0.000268
0.000261
0.000226
0.000260
0.000256
0.000267
0.000369
0.000428
0.000464
0.000236
0.001605
0.000271
0.000161
0.000056
0.000206
0.000217
0.000245
0.000237
0.000273
0.000250
0.000229
0.000244
0.000312
0.000313
0.000396
0.001394
0.000237
0.000212
0.000253
0.000300
0.000223
0.000258
0.000287
0.000497
0.000506
0.000339
0.000213
0.001591
0.000223
0.000257
0.000289
0.000279
0.000264
0.000268
0.000189
0.000056
0.000200
0.000238
0.000263
0.000270
0.000247
0.000245
0.000243
0.000234
0.000282
0.000219
0.000251
0.000254
0.000272
0.001476
0.000362
0.000213
0.000240
0.000269
0.000277
0.000313
0.000371
0.000274
0.000244
0.000251
0.000270
0.000261
0.000261
0.001414
0.000288
0.000225
0.000168
0.000057
0.000207
0.000232
0.000267
0.000256
0.000269
0.000219
0.000249
0.000260
0.000218
0.000265
0.000248
0.000271
0.000209
0.000338
0.000409
0.000334
0.000238
0.000225
0.001640
0.000231
0.000242
0.000259
0.000262
0.000330
0.000359
0.000362
0.000451
0.000275
0.000243
0.001618
0.000155
0.000056
0.000328
0.000327
0.000404
0.000248
0.000229
0.000222
0.000241
0.000272
0.000251
0.000263
0.000225
0.000237
0.001460
0.000300
0.000305
0.000221
0.000248
0.000279
0.000248
0.000262
0.000250
0.000244
0.000258
0.000270
0.000248
0.000397
0.000365
0.000401
0.000309
0.000250
0.000188
0.000055
0.000200
0.000301
0.000403
0.000321
0.000372
0.000274
0.000254
0.000248
0.000252
0.000258
0.000237
0.000225
0.000257
0.000249
0.001254
0.000301
0.000233
0.000255
0.000268
0.000271
0.000228
0.000266
0.000254
0.000262
0.000256
0.000258
0.000301
0.000784
0.000365
0.000240
0.000173
0.000055
0.000188
0.001570
0.000256
0.000321
0.000518
0.000318
0.000209
0.000260
0.000265
0.000262
0.000229
0.000261
0.000268
0.000275
0.000257
0.001531
0.000254
0.000279
0.000265
0.000257
0.000276
0.000240
0.000262
0.000262
0.000255
0.000258
0.000435
0.000377
0.000352
0.000237
0.000196
0.000055
0.000212
0.000251
0.000236
0.001609
0.000452
0.000324
0.000221
0.000241
0.000258
0.000266
0.000284
0.000251
0.000254
0.000252
0.000238
0.000270
0.000427
0.001295
0.000256
0.000234
0.001491
0.000311
0.000565
0.000396
0.000345
0.000232
0.000272
0.000464
0.000241
0.000258
0.000185
0.000056
0.000276
0.000215
0.000242
0.000245
0.000252
0.000253
0.000243
0.000253
0.000270
0.000238
0.000239
0.000257
0.000321
0.000472
0.001683
0.001490
0.000405
0.000483
0.000354
0.000224
0.000225
0.000258
0.000255
0.000265
0.000248
0.000265
0.000258
0.000266
0.001531
0.000318
0.000181
0.000057
0.000187
0.000346
0.000353
0.000331
0.000237
0.000221
0.000247
0.000332
0.000451
0.000356
0.002194
0.000314
0.000794
0.000414
0.000465
0.000256
0.000344
0.000386
0.000333
0.000285
0.000384
0.000262
0.001535
0.000528
0.000217
0.000257
0.000265
0.000247
0.000266
0.000272
0.000199
0.000055
0.000195
0.000246
0.000267
0.000244
0.000243
0.001656
0.000888
0.000996
0.000212
0.000227
0.000261
0.000253
0.000257
0.000264
0.000257
0.000243
0.000256
0.000265
0.000268
0.000282
0.001431
0.000315
0.000253
0.000221
0.000231
0.000267
0.000263
0.000286
0.000258
0.000284
0.001906
0.000058
0.000197
0.000218
0.001549
0.000851
0.000380
0.000410
0.000186
0.000228
0.000253
0.000259
0.000248
0.000247
0.000245
0.001989
0.000471
0.000228
0.000234
0.000258
0.000269
0.000261
0.000192
