0.000140
0.016089
0.005295
0.000282
0.000260
0.000284
0.000309
0.000251
0.000325
0.000283
0.000250
0.000350
0.000479
0.000552
0.000379
0.000330
0.000270
0.000440
0.000255
0.000412
0.000315
0.001928
0.000689
0.000274
0.000233
0.000319
0.000287
0.000339
0.000433
0.000369
0.000518
0.000286
0.000058
0.000192
0.000271
0.000288
0.000247
0.000315
0.000205
0.000279
0.000271
0.000267
0.000285
0.000433
0.000436
0.000319
0.000254
0.000419
0.000344
0.000321
0.000256
0.000247
0.001701
0.000316
0.000249
0.000461
0.000229
0.000281
0.000290
0.000282
0.000292
0.000278
0.000330
0.000433
0.000059
0.000227
0.000258
0.000260
0.000261
0.000252
0.000262
0.000243
0.000259
0.000285
0.001671
0.000220
0.000248
0.000267
0.000267
0.000277
0.000277
0.000238
0.000257
0.000361
0.001791
0.000237
0.000270
0.000452
0.000473
0.000350
0.000235
0.000251
0.000605
0.000458
0.000672
0.000191
0.000059
0.000212
0.000250
0.000245
0.000245
0.000302
0.000253
0.000415
0.000467
0.000362
0.000260
0.000250
0.000241
0.000240
0.000256
0.000258
0.000258
0.000297
0.000214
0.000298
0.000329
0.001667
0.000278
0.000256
0.000412
0.000634
0.000365
0.000622
0.000577
0.000348
0.000227
0.000184
0.000058
0.000230
0.000260
0.000261
0.000234
0.000278
0.000237
0.000277
0.000660
0.001261
0.000209
0.000258
0.000242
0.000257
0.000250
0.000290
0.000264
0.000283
0.000851
0.001336
0.000281
0.000455
0.000263
0.000201
0.000244
0.000255
0.000260
0.000258
0.000272
0.000261
0.000268
0.000199
0.000059
0.000196
0.000244
0.000245
0.000269
0.000238
0.000237
0.000263
0.000233
0.000236
0.000260
0.001626
0.000263
0.000245
0.000233
0.000257
0.000251
0.000241
0.000259
0.000243
0.000262
0.000265
0.001664
0.000283
0.000258
0.000435
0.000252
0.000269
0.000246
0.000265
0.000266
0.000203
0.000056
0.000204
0.000224
0.000253
0.000250
0.000241
0.000250
0.000257
0.000242
0.000261
0.000240
0.000309
0.000210
0.000264
0.000270
0.001646
0.000273
0.000293
0.000219
0.000249
0.000277
0.000274
0.000224
0.000249
0.000257
0.001789
0.000410
0.000333
0.000346
0.000259
0.000277
0.000191
0.000058
0.000224
0.000237
0.000244
0.000263
0.000257
0.000234
0.000281
0.000413
0.000445
0.000394
0.000211
0.000248
0.000258
0.000247
0.001574
0.000517
0.000344
0.000391
0.000322
0.000222
0.000271
0.000277
0.000280
0.001722
0.000653
0.000336
0.000237
0.000258
0.000236
0.000269
0.000179
0.000059
0.000193
0.000231
0.000252
0.000268
0.000416
0.000375
0.000452
0.000196
0.000212
0.000269
0.000240
0.000254
0.000241
0.001722
0.000477
0.000294
0.000216
0.000257
0.000286
0.000269
0.000248
0.000256
0.000277
0.001948
0.000249
0.000393
0.000260
0.000244
0.000260
0.000407
0.000326
0.000058
0.000205
0.000385
0.000360
0.000280
0.000242
0.000254
0.000245
0.000262
0.000264
0.000210
0.000251
0.000233
0.001561
0.000391
0.000270
0.000218
0.000266
0.000251
0.000265
0.000267
0.000366
0.000242
0.000245
0.001811
0.000240
0.000511
0.000243
0.000247
0.000266
0.000263
0.000259
0.000058
0.000417
0.000539
0.000586
0.000222
0.000223
0.000275
0.000231
0.000236
0.000245
0.000250
0.000251
0.001710
0.000249
0.000439
0.000371
0.000216
0.000254
0.000207
0.000251
0.000272
0.000242
0.001868
0.000230
0.000239
0.002095
0.000506
0.000365
0.000244
0.000258
0.000265
0.000183
0.000060
0.000211
0.000257
0.000225
0.000247
0.000253
0.001627
0.000243
0.000230
0.000259
0.000253
0.000244
0.000265
0.000232
0.000251
0.000264
0.000423
0.000628
0.000259
0.000227
0.000269
0.000264
0.000249
0.000244
0.000438
0.000443
0.000249
0.000442
0.000719
0.000207
0.000253
0.000190
0.000058
0.000214
0.000239
0.000253
0.000248
0.000233
0.000249
0.000243
0.000381
0.000474
0.001695
0.000213
0.000232
0.000247
0.000244
0.000258
0.000296
0.000410
0.000490
0.000350
0.000234
0.000246
0.000304
0.000288
0.000281
0.000255
0.000430
0.000344
0.000604
0.000547
0.000362
0.000169
0.000058
0.000199
0.000295
0.000217
0.000219
0.000248
0.000238
0.000244
0.000244
0.000264
0.000284
0.000339
0.000460
0.001352
0.000250
0.000235
0.000244
0.000260
0.000254
0.000242
0.000250
0.000279
0.000441
0.000450
0.000248
0.000255
0.000259
0.000259
0.000267
0.000268
0.000260
0.000391
0.000055
0.000213
0.000239
0.000228
0.000316
0.000619
0.000304
0.000237
0.000252
0.000237
0.000251
0.000254
0.000238
0.000297
0.000245
0.000255
0.000491
0.000411
0.001637
0.000286
0.000215
0.000254
0.000267
0.000259
0.000248
0.000250
0.000486
0.000424
0.000367
0.000414
0.000230
0.000193
0.000058
0.000219
0.000429
0.000241
0.000206
0.000270
0.000239
0.000285
0.000584
0.000340
0.000312
0.000213
0.000277
0.000263
0.000236
0.000521
0.000352
0.000219
0.000273
0.000502
0.001518
0.000275
0.000264
0.000494
0.000240
0.000280
0.000281
0.000250
0.000402
0.000494
0.000374
0.000279
0.000057
0.000207
0.000234
0.000236
0.000241
0.000422
0.000302
0.000293
0.000223
0.000411
0.000487
0.000350
0.000267
0.000227
0.000243
0.000256
0.000267
0.000254
0.000256
0.000222
0.000360
0.000291
0.000340
0.001843
0.000236
0.000255
0.000257
0.000296
0.000346
0.000411
0.000677
0.000456
0.000057
0.000237
0.000330
0.000281
0.000423
0.000391
0.000205
0.000271
0.000272
0.000530
0.000471
0.000205
0.000227
0.000238
0.000272
0.000264
0.000227
0.000267
0.000260
0.000269
0.000261
0.000268
0.000421
0.000738
0.001255
0.000332
0.000434
0.000421
0.000259
0.000376
0.000471
0.000291
0.000058
0.000241
0.000380
0.000280
0.000201
0.000229
0.000240
0.000421
0.000242
0.000236
0.000329
0.000434
0.000462
0.000241
0.000261
0.000263
0.000255
0.000361
0.000387
0.000350
0.000242
0.000239
0.000322
0.000720
0.001659
0.000219
0.000490
0.000269
0.000228
0.000268
0.000468
0.000264
0.000056
0.000231
0.000224
0.000243
0.000248
0.000248
0.000249
0.000248
0.000327
0.000466
0.000257
0.000454
0.000378
0.000281
0.000580
0.000251
0.000238
0.000273
0.000261
0.000230
0.000360
0.000219
0.000240
0.000271
0.000380
0.000571
0.001618
0.000266
0.000227
0.000246
0.000276
0.000181
0.000077
0.000303
0.000502
0.000318
0.000227
0.000236
0.000249
0.000256
0.000240
0.000261
0.000251
0.000226
0.000244
0.000441
0.000647
0.000251
0.000286
0.000248
0.000240
0.000358
0.000379
0.000383
0.000367
0.000386
0.000332
0.000247
0.000250
0.000267
0.000274
0.001790
0.000250
0.000212
0.000059
0.000202
0.000219
0.000257
0.000274
0.000365
0.000541
0.000311
0.000209
0.000261
0.000274
0.000233
0.000250
0.000521
0.000453
0.000478
0.000287
0.000264
0.000261
0.000424
0.000465
0.000359
0.000394
0.000511
0.000428
0.000239
0.000257
0.000249
0.000268
0.000243
0.001718
0.000344
0.000058
0.000256
0.000334
0.000210
0.000227
0.000255
0.000253
0.000241
0.000504
0.000367
0.000312
0.000295
0.000266
0.000329
0.000705
0.000314
0.000226
0.000243
0.000257
0.000251
0.000269
0.000265
0.000264
0.000249
0.000262
0.000317
0.000422
0.000350
0.000374
0.000227
0.000240
0.000185
0.000058
0.000464
0.000259
0.000542
0.000196
0.000222
0.000227
0.000271
0.000227
0.000239
0.000223
0.000251
0.000280
0.000296
0.000387
0.000525
0.000474
0.000290
0.000320
0.000386
0.000336
0.000291
0.000238
0.000247
0.000261
0.001753
0.000259
0.001720
0.000948
0.000425
0.000283
0.000162
0.000058
0.000209
0.000237
0.000226
0.000249
0.000258
0.000243
0.000256
0.000251
0.000242
0.000311
0.000356
0.000449
0.000360
0.000359
0.000244
0.000277
0.000256
0.000292
0.000208
0.000237
0.000261
0.000269
0.001806
0.000236
0.000272
0.000248
0.000279
0.000260
0.001885
0.000514
0.000299
0.000058
0.000228
0.000198
0.000245
0.000240
0.000255
0.000259
0.000231
0.000249
0.000258
0.000380
0.000624
0.000433
0.000235
0.000204
0.000234
0.000257
0.000330
0.000441
0.000376
0.000252
0.001765
0.000250
0.000255
0.000243
0.000264
0.000266
0.000247
0.000250
0.000337
0.000278
0.000396
0.000057
0.000234
0.000229
0.000226
0.000260
0.000269
0.000226
0.000260
0.000247
0.000242
0.000253
0.000238
0.000255
0.000437
0.000399
0.000301
0.000276
0.000463
0.000226
0.000259
0.000253
0.000262
0.000255
0.000277
0.000258
0.000276
0.001791
0.000246
0.000267
0.000245
0.000243
0.000197
0.000057
0.000319
0.000316
0.000225
0.000221
0.000242
0.000234
0.000235
0.000257
0.000243
0.000224
0.000241
0.000264
0.000253
0.000357
0.000477
0.000330
0.000252
0.000237
0.000249
0.000282
0.000244
0.000255
0.000250
0.000267
0.000254
0.000262
0.000308
0.001635
0.000270
0.000242
0.000181
0.000057
0.000197
0.000238
0.000254
0.000268
0.000374
0.000366
0.000381
0.000291
0.000219
0.000264
0.000245
0.000246
0.000245
0.000262
0.000250
0.000261
0.000245
0.000258
0.000252
0.000262
0.000269
0.000267
0.000251
0.000234
0.000249
0.000278
0.000273
0.000284
0.000236
0.000261
0.000197
0.000058
0.000190
0.000236
0.000252
0.000260
0.000232
0.000258
0.000241
0.000258
0.000285
0.000233
0.000227
0.000254
0.000256
0.000249
0.000268
0.000267
0.000246
0.000254
0.000305
0.000239
0.000274
0.000296
0.000274
0.000258
0.000267
0.000277
0.000267
0.000251
0.000296
0.000589
0.000515
0.000058
0.000229
0.000286
0.000224
0.000224
0.000235
0.000254
0.000238
0.000249
0.000255
0.000240
0.000265
0.000266
0.000530
0.000548
0.001457
0.000235
0.000481
0.000239
0.000327
0.000456
0.000500
0.000246
0.000224
0.000280
0.000253
0.000255
0.000283
0.000249
0.000314
0.000259
0.000178
0.000058
0.000313
0.000443
0.000322
0.000336
0.000197
0.000262
0.000247
0.000242
0.000242
0.000239
0.000253
0.000259
0.000228
0.000346
0.000269
0.000568
0.000331
0.001800
0.000230
0.000271
0.000316
0.000430
0.000475
0.000275
0.000318
0.000309
0.000302
0.000239
0.000224
0.000256
0.000185
0.000057
0.000190
0.000232
0.000240
0.000282
0.000366
0.000482
0.000304
0.000256
0.000255
0.000208
0.000251
0.000271
0.000264
0.000266
0.000245
0.000260
0.000289
0.000540
0.000302
0.000445
0.000224
0.001749
0.000351
0.000473
0.000601
0.000367
0.000333
0.000230
0.000240
0.000272
0.000447
0.000056
0.000218
0.000255
0.000229
0.000307
0.000467
0.000455
0.000336
0.000205
0.000241
0.000288
0.000247
0.000261
0.000252
0.000302
0.000299
0.000233
0.000246
0.000375
0.000507
0.000351
0.000451
0.001843
0.000253
0.000412
0.000524
0.000372
0.000226
0.000256
0.000287
0.000263
0.000207
0.000057
0.000215
0.000339
0.000363
0.000322
0.000391
0.000316
0.000344
0.000212
0.000239
0.000262
0.000279
0.000236
0.000238
0.000249
0.000247
0.000258
0.000329
0.000363
0.000514
0.000363
0.000303
0.000217
0.000271
0.001713
0.000418
0.000571
0.000633
0.000243
0.000252
0.000314
0.000153
0.000058
0.000186
0.000240
0.000337
0.000242
0.000251
0.000401
0.000406
0.000316
0.000232
0.000546
0.000225
0.000233
0.000261
0.000280
0.000272
0.000268
0.000210
0.000438
0.000472
0.000351
0.000263
0.000226
0.000258
0.000253
0.000265
0.000271
0.000223
0.000262
0.000264
0.000299
0.000188
0.000057
0.000342
0.000305
0.000228
0.000245
0.000253
0.000256
0.000237
0.000298
0.000242
0.000237
0.000264
0.000359
0.000416
0.000408
0.000370
0.000245
0.000214
0.000233
0.000262
0.000269
0.000298
0.000256
0.000235
0.000248
0.000286
0.000324
0.000447
0.000317
0.000379
0.000223
0.000172
0.000058
0.000186
0.000228
0.000285
0.000239
0.000241
0.000249
0.000261
0.000250
0.000493
0.000214
0.000257
0.000253
0.000250
0.000262
0.000277
0.000276
0.000261
0.000345
0.000227
0.000238
0.000256
0.000263
0.000255
0.000274
0.000274
0.000259
0.000268
0.000254
0.000522
0.000248
0.000140
0.000058
0.000205
0.000232
0.000256
0.000268
0.000218
0.000247
0.000361
0.000408
0.000252
0.000222
0.000254
0.000254
0.000239
0.000269
0.000422
0.001794
0.000229
0.000294
0.000265
0.000387
0.000372
0.000359
0.000360
0.000377
0.000387
0.000429
0.000233
0.000268
0.000263
0.000293
0.001371
0.000058
0.000389
0.000339
0.000232
0.000223
0.000234
0.000251
0.000229
0.000272
0.000223
0.000270
0.000251
0.000254
0.000253
0.000309
0.000511
0.001656
0.000251
0.000200
0.000248
0.000270
0.000237
0.000261
0.000522
0.000239
0.000295
0.000350
0.000218
0.000283
0.000263
0.000259
0.000190
0.000058
0.001189
0.000581
0.000301
0.000268
0.000217
0.000221
0.000241
0.000235
0.000485
0.000222
0.000244
0.000242
0.000345
0.000566
0.000376
0.000333
0.000246
0.000226
0.000349
0.000340
0.000275
0.000255
0.000275
0.000246
0.000266
0.000552
0.000545
0.000300
0.000251
0.000265
0.000164
0.000057
0.000187
0.000216
0.000246
0.000250
0.001556
0.000210
0.000222
0.000257
0.000235
0.000252
0.000251
0.000252
0.000241
0.000264
0.000279
0.000279
0.000460
0.000693
0.000202
0.001750
0.000271
0.000271
0.000306
0.000400
0.000590
0.000378
0.000234
0.000258
0.000261
0.000267
0.000239
0.000058
0.000188
0.000255
0.000252
0.000290
0.001267
0.000232
0.000253
0.000258
0.000244
0.000237
0.000234
0.000247
0.000285
0.000247
0.000273
0.000275
0.000438
0.000568
0.000197
0.000257
0.000266
0.000273
0.000250
0.000234
0.000296
0.000256
0.000243
0.000274
0.000284
0.000431
0.000547
0.000057
0.000224
0.000245
0.000235
0.000258
0.000268
0.000240
0.000237
0.000261
0.000271
0.000254
0.001430
0.000229
0.000240
0.000250
0.000244
0.000243
0.000273
0.000260
0.000259
0.000269
0.000270
0.000485
0.000436
0.000424
0.000219
0.000274
0.001764
0.000262
0.000274
0.000271
0.000478
0.000059
0.000216
0.000386
0.000458
0.000501
0.000514
0.000537
0.001492
0.000419
0.000527
0.000652
0.000553
0.000813
0.000412
0.000592
0.000584
0.001886
0.000410
0.000444
0.000375
0.000324
0.000227
0.000303
0.000260
0.000261
0.000266
0.000287
0.000290
0.000284
0.000262
0.000290
0.001356
0.000058
0.000221
0.000214
0.000247
0.000237
0.000263
0.000252
0.000233
0.000245
0.000267
0.000232
0.000235
0.000250
0.000251
0.000259
0.000273
0.000260
0.001815
0.000283
0.000252
0.000246
0.000251
0.000260
0.000269
0.000267
0.000425
0.000410
0.000340
0.000241
0.000255
0.000281
0.000199
0.000057
0.000209
0.001366
0.000328
0.000265
0.000257
0.000237
0.000244
0.000235
0.000232
0.000239
0.000222
0.000257
0.000247
0.000496
0.000363
0.000284
0.000268
0.000248
0.001931
0.000228
0.000240
0.000268
0.000260
0.000265
0.000271
0.000275
0.000270
0.000263
0.000260
0.000322
0.000206
0.000057
0.000209
0.000239
0.000266
0.001424
0.000232
0.000242
0.000241
0.000246
0.000241
0.000265
0.000252
0.000246
0.000240
0.000263
0.000259
0.000260
0.000253
0.000267
0.000274
0.000252
0.000259
0.001776
0.000281
0.001759
0.000265
0.000252
0.000255
0.000271
0.000280
0.000258
0.000201
0.000058
0.000194
0.000244
0.001395
0.000199
0.000245
0.000257
0.000242
0.000250
0.000239
0.000253
0.000247
0.000244
0.000267
0.000262
0.000260
0.000259
0.000261
0.000286
0.000293
0.000223
0.001898
0.000224
0.001839
0.000234
0.000251
0.000280
0.000232
0.000262
0.000240
0.000273
0.000207
0.000058
0.001459
0.000186
0.000226
0.000242
0.000233
0.000236
0.000374
0.000267
0.000252
0.000253
0.000269
0.000246
0.000238
0.000419
0.000407
0.000234
0.000238
0.000277
0.000253
0.000245
0.000269
0.000348
0.000222
0.000249
0.000286
0.000257
0.000278
0.000374
0.000601
0.000378
0.000194
0.000058
0.000227
0.000245
0.000281
0.000291
0.000359
0.000272
0.001674
0.000315
0.000283
0.000257
0.000258
0.000271
0.000267
0.000271
0.000314
0.000311
0.000372
0.000598
0.000295
0.000266
0.000290
0.000283
0.000266
0.000268
0.000325
0.000263
0.000269
0.000258
0.000231
0.000308
0.000439
0.000059
0.000219
0.000474
0.000270
0.000260
0.000249
0.000227
0.000223
0.000248
0.000260
0.000278
0.001500
0.000226
0.000223
0.000246
0.000244
0.000291
0.000259
0.000246
0.000271
0.000264
0.000268
0.000339
0.000571
0.000314
0.000270
0.000287
0.000273
0.000253
0.000231
0.000317
0.000162
0.000057
0.000200
0.000215
0.000293
0.000492
0.000330
0.000290
0.000225
0.000233
0.000250
0.000249
0.000236
0.000253
0.000260
0.000273
0.000235
0.000233
0.000496
0.001120
0.000248
0.000234
0.000288
0.000239
0.000367
0.000428
0.000237
0.000318
0.000617
0.000323
0.000380
0.000237
0.000167
0.000059
0.000222
0.000252
0.000260
0.000262
0.000249
0.000253
0.000360
0.000421
0.000450
0.000242
0.000355
0.000391
0.000390
0.000360
0.000259
0.000246
0.000228
0.000267
0.000463
0.000402
0.001268
0.000219
0.000270
0.000275
0.000230
0.000234
0.000264
0.000317
0.000442
0.000427
0.000248
0.000060
0.000184
0.000242
0.000253
0.000239
0.000254
0.000242
0.000235
0.000258
0.000318
0.000283
0.000456
0.000413
0.000247
0.000226
0.000254
0.000263
0.000239
0.000263
0.000270
0.000241
0.000449
0.000235
0.000401
0.000436
0.000302
0.000235
0.000274
0.000273
0.000246
0.000347
0.000155
0.000057
0.000301
0.000316
0.000295
0.000480
0.000341
0.000396
0.000226
0.000242
0.000250
0.000271
0.000257
0.000264
0.000234
0.000256
0.000242
0.000228
0.000271
0.000413
0.000393
0.000413
0.000225
0.000270
0.000225
0.000252
0.000263
0.000289
0.000256
0.000273
0.000276
0.000259
0.000287
0.000057
0.000384
0.000274
0.000213
0.000268
0.000227
0.000246
0.000252
0.000243
0.000269
0.000258
0.000253
0.000235
0.000294
0.000487
0.000441
0.000306
0.000222
0.000251
0.000251
0.000260
0.000254
0.000270
0.000255
0.000265
0.000296
0.000271
0.000527
0.000505
0.000413
0.000255
0.000162
0.000058
0.000370
0.000202
0.000226
0.000244
0.000252
0.000247
0.000238
0.000252
0.000256
0.000263
0.000215
0.000250
0.000273
0.000227
0.000239
0.000261
0.000252
0.000265
0.000274
0.000262
0.000266
0.000256
0.000258
0.000266
0.000266
0.000238
0.000269
0.000291
0.000240
0.000282
0.000191
0.000058
0.000186
0.000240
0.000243
0.000255
0.000235
0.000249
0.000261
0.000242
0.000256
0.000284
0.000220
0.000250
0.000254
0.000390
0.000257
0.000276
0.000263
0.000265
0.000253
0.000280
0.000270
0.000238
0.000249
0.000252
0.000269
0.000277
0.000259
0.000247
0.000265
0.000261
0.000202
0.000056
0.000197
0.000357
0.000371
0.000276
0.000299
0.000252
0.000263
0.000255
0.000222
0.000251
0.000253
0.000260
0.000246
0.000239
0.000257
0.000261
0.000263
0.000270
0.000245
0.000263
0.000272
0.000268
0.000275
0.000260
0.000269
0.000255
0.000251
0.000270
0.000276
0.000255
0.000200
0.000057
0.000199
0.000224
0.000269
0.000263
0.000483
0.000217
0.000205
0.000261
0.000293
0.000420
0.000501
0.000273
0.000235
0.000251
0.000268
0.000263
0.000237
0.000269
0.000256
0.000265
0.000275
0.000254
0.000259
0.000339
0.000501
0.000471
0.000267
0.000301
0.000265
0.000260
0.000185
0.000056
0.000214
0.000224
0.000265
0.000232
0.000380
0.000613
0.000303
0.000380
0.000203
0.000248
0.000253
0.000252
0.000274
0.000230
0.000255
0.000267
0.000260
0.000250
0.000743
0.000290
0.000292
0.000241
0.000257
0.000286
0.000282
0.000259
0.000264
0.000266
0.000247
0.000345
0.000346
0.000059
0.000266
0.000228
0.000235
0.000241
0.000257
0.000254
0.000228
0.000243
0.000247
0.000263
0.000242
0.000252
0.000240
0.000414
0.000600
0.000349
0.000235
0.000256
0.000263
0.000246
0.000263
0.000275
0.000484
0.000231
0.000261
0.000650
0.000338
0.000517
0.000241
0.000254
0.000179
0.000058
0.000201
0.000225
0.000241
0.000249
0.000252
0.000258
0.000360
0.000401
0.000565
0.000420
0.000218
0.000266
0.000271
0.000276
0.000264
0.000242
0.000240
0.000247
0.000259
0.000334
0.000428
0.000625
0.000363
0.000248
0.000369
0.000376
0.000474
0.000242
0.000277
0.000357
0.000465
0.000059
0.000251
0.000232
0.000435
0.000230
0.000223
0.000260
0.000261
0.000257
0.000232
0.000243
0.000263
0.000404
0.000370
0.000346
0.000213
0.000257
0.000258
0.000252
0.000262
0.000275
0.000280
0.000246
0.000254
0.000275
0.000334
0.000495
0.000454
0.000237
0.000256
0.000269
0.000197
0.000057
0.000222
0.000258
0.000225
0.000242
0.000251
0.000295
0.000316
0.000424
0.000427
0.000281
0.000371
0.000218
0.000245
0.000267
0.000256
0.000234
0.000262
0.000258
0.000343
0.000440
0.000417
0.000296
0.000477
0.000284
0.000385
0.000427
0.000376
0.000248
0.000241
0.000271
0.000380
0.000059
0.000240
0.000274
0.000218
0.000256
0.000263
0.000249
0.000252
0.000246
0.000248
0.000263
0.000246
0.000387
0.000413
0.000381
0.000370
0.000220
0.000270
0.000263
0.000264
0.000235
0.000251
0.000251
0.000271
0.000278
0.000274
0.000338
0.000482
0.000484
0.000236
0.000271
0.000191
0.000056
0.000207
0.000242
0.000267
0.000237
0.000258
0.000345
0.000533
0.000473
0.000319
0.000687
0.000263
0.000217
0.000240
0.000264
0.000242
0.000272
0.000294
0.000258
0.000479
0.000450
0.001477
0.000304
0.000265
0.000254
0.000300
0.000268
0.000376
0.000467
0.000315
0.000334
0.000154
0.000059
0.000199
0.000232
0.000241
0.000250
0.000235
0.000259
0.000275
0.000243
0.000256
0.000339
0.000339
0.000372
0.000267
0.000337
0.000390
0.000347
0.000240
0.000242
0.000279
0.000257
0.000241
0.000253
0.000280
0.000242
0.000328
0.000432
0.000434
0.000323
0.000219
0.000265
0.000189
0.000057
0.000219
0.000255
0.000257
0.000254
0.000241
0.000242
0.000462
0.000221
0.000230
0.000254
0.000244
0.000255
0.000258
0.000256
0.000247
0.000270
0.000262
0.000266
0.000277
0.000255
0.000259
0.000363
0.000221
0.000242
0.000261
0.000277
0.000267
0.000275
0.000255
0.000274
0.000170
0.000058
0.000235
0.000237
0.000310
0.000426
0.000421
0.000213
0.000221
0.000240
0.000263
0.000247
0.000248
0.000260
0.000261
0.000258
0.000240
0.000245
0.000244
0.000272
0.000283
0.000344
0.000462
0.000385
0.000214
0.000279
0.000245
0.000257
0.000267
0.000249
0.000275
0.000279
0.000196
0.000057
0.000355
0.000369
0.000432
0.000202
0.000252
0.000259
0.000409
0.000225
0.000229
0.000253
0.000262
0.000299
0.000352
0.000437
0.001855
0.000260
0.000242
0.000253
0.000272
0.000245
0.000384
0.000390
0.000680
0.000239
0.000221
0.000271
0.000269
0.000429
0.000276
0.000283
0.000161
0.000057
0.000239
0.000356
0.000384
0.000289
0.000490
0.000199
0.000239
0.000267
0.000240
0.000235
0.000267
0.000244
0.000262
0.000308
0.000458
0.000455
0.000206
0.000245
0.000261
0.000260
0.000263
0.000320
0.000225
0.000290
0.000275
0.000475
0.000532
0.000366
0.000451
0.000221
0.000202
0.000058
0.000181
0.000232
0.000261
0.000230
0.000250
0.000250
0.000269
0.000269
0.000356
0.000366
0.000441
0.000339
0.000215
0.000254
0.000266
0.000287
0.000297
0.000235
0.000281
0.000272
0.000234
0.000361
0.000430
0.000376
0.000280
0.000245
0.000262
0.000444
0.000409
0.000313
0.000168
0.000056
0.000201
0.000235
0.000339
0.000486
0.000334
0.000191
0.000241
0.000248
0.000259
0.000252
0.000268
0.000254
0.000229
0.000257
0.000259
0.000297
0.000382
0.000368
0.000335
0.000313
0.000485
0.000234
0.000277
0.000269
0.000303
0.000288
0.000246
0.000433
0.000311
0.000475
0.000240
0.000074
0.000182
0.000230
0.000251
0.000247
0.000240
0.000484
0.000214
0.000262
0.000259
0.000301
0.000502
0.000607
0.000221
0.000230
0.000257
0.000239
0.000251
0.000243
0.000268
0.000251
0.000258
0.000268
0.000411
0.000384
0.000357
0.000406
0.000308
0.000292
0.000321
0.000231
0.000186
0.000057
0.000202
0.000237
0.000278
0.000467
0.000328
0.000281
0.000272
0.000222
0.000251
0.000246
0.000257
0.000243
0.000260
0.000260
0.000246
0.000255
0.000258
0.000244
0.000256
0.000435
0.000505
0.000368
0.000222
0.000244
0.000278
0.000276
0.000260
0.000258
0.000268
0.000264
0.000191
0.000056
0.000269
0.000376
0.000476
0.000257
0.000205
0.000246
0.000327
0.000455
0.000281
0.000220
0.000234
0.000275
0.000255
0.000406
0.000480
0.000294
0.000231
0.000251
0.000238
0.000267
0.000270
0.000261
0.000263
0.000272
0.000262
0.000286
0.000379
0.000550
0.000227
0.000231
0.000171
0.000059
0.000188
0.000237
0.000243
0.000254
0.000253
0.000262
0.000232
0.000255
0.000251
0.000249
0.000267
0.000237
0.000263
0.001462
0.000224
0.000245
0.000264
0.000245
0.000277
0.000278
0.000262
0.000238
0.000282
0.000250
0.000262
0.000285
0.000263
0.000273
0.000254
0.000270
0.000187
0.000057
0.000215
0.000219
0.000277
0.000233
0.000231
0.000265
0.000245
0.000259
0.000225
0.000247
0.000248
0.000263
0.000256
0.000254
0.000258
0.000258
0.000246
0.000255
0.000278
0.000254
0.000249
0.000265
0.000246
0.000252
0.001292
0.000273
0.000589
0.000406
0.000355
0.000244
0.000189
0.000058
0.000204
0.000234
0.000245
0.000259
0.000409
0.000248
0.000223
0.000245
0.000257
0.000378
0.000466
0.000306
0.000240
0.000235
0.000260
0.000255
0.000260
0.000266
0.000244
0.000256
0.000261
0.000254
0.000257
0.000479
0.000466
0.000451
0.000223
0.000257
0.001378
0.000236
0.000180
0.000057
0.000338
0.000414
0.000324
0.000271
0.000223
0.000227
0.000230
0.000252
0.000260
0.000256
0.000245
0.000259
0.000274
0.000274
0.000585
0.000453
0.000241
0.000218
0.000245
0.000255
0.000271
0.000265
0.000273
0.000254
0.000272
0.000266
0.000323
0.000555
0.000372
0.000384
0.000146
0.000057
0.000202
0.000243
0.001268
0.000414
0.000270
0.000522
0.000383
0.000455
0.000271
0.000342
0.000225
0.000219
0.000283
0.000241
0.000257
0.000255
0.000398
0.000466
0.000371
0.000368
0.000256
0.000243
0.000271
0.000493
0.000241
0.000263
0.000254
0.000285
0.000295
0.000571
0.000293
0.000057
0.000391
0.000307
0.000227
0.000224
0.001634
0.000452
0.000246
0.000254
0.000237
0.000247
0.000229
0.000241
0.000247
0.000269
0.000250
0.000274
0.000223
0.000261
0.000438
0.000392
0.000436
0.000241
0.000255
0.000247
0.000263
0.000272
0.000271
0.000238
0.000264
0.000277
0.000209
0.000057
0.000373
0.000349
0.000229
0.000225
0.000251
0.000243
0.000254
0.000243
0.000225
0.000235
0.001394
0.000514
0.000253
0.000228
0.000244
0.000252
0.000279
0.000257
0.000232
0.000284
0.000267
0.000253
0.000324
0.000358
0.000404
0.000463
0.000232
0.000269
0.000279
0.000280
0.000171
0.000057
0.000200
0.000421
0.000219
0.000257
0.000458
0.000392
0.000310
0.000295
0.000469
0.000205
0.000230
0.000250
0.000268
0.000262
0.000258
0.001399
0.000371
0.000288
0.000244
0.000268
0.000286
0.000245
0.000255
0.000247
0.000264
0.000278
0.000542
0.000374
0.000272
0.000274
0.000149
0.000057
0.000192
0.000230
0.000254
0.000240
0.000222
0.000267
0.000233
0.000248
0.000296
0.000356
0.000426
0.000314
0.000247
0.000246
0.000236
0.000273
0.000273
0.000264
0.000270
0.000227
0.000250
0.000375
0.001205
0.000258
0.000258
0.000237
0.000263
0.000265
0.000260
0.000258
0.000182
0.000058
0.000215
0.000366
0.000404
0.000305
0.000241
0.000243
0.000260
0.000262
0.000254
0.000246
0.000266
0.000267
0.000236
0.000257
0.000265
0.000254
0.000264
0.000273
0.000262
0.000251
0.000248
0.000272
0.000265
0.000284
0.000289
0.000267
0.000265
0.000250
0.000273
0.000442
0.001366
0.000059
0.000210
0.000230
0.000239
0.000242
0.000260
0.000257
0.000242
0.000226
0.000245
0.000251
0.000277
0.000251
0.000252
0.000245
0.000252
0.000247
0.001738
0.000240
0.000246
0.000263
0.000245
0.000258
0.000269
0.000263
0.000275
0.000255
0.000270
0.000275
0.000269
0.000257
0.000215
0.000058
0.000304
0.000350
0.001269
0.000230
0.000215
0.000249
0.000256
0.000248
0.000262
0.000260
0.000227
0.000364
0.000418
0.000403
0.000297
0.000216
0.000244
0.000252
0.000261
0.000268
0.000238
0.000275
0.000262
0.000286
0.000259
0.000467
0.000319
0.000350
0.000311
0.000238
0.000189
0.000057
0.000181
0.000251
0.000245
0.000249
0.000253
0.000218
0.000240
0.000246
0.000438
0.001354
0.000252
0.000200
0.000249
0.000270
0.000256
0.000272
0.000259
0.000251
0.000298
0.000530
0.000288
0.000269
0.000227
0.000257
0.000265
0.000277
0.000264
0.000299
0.000270
0.000278
0.000194
0.000056
0.000228
0.000458
0.000376
0.000222
0.000228
0.000238
0.000243
0.000274
0.000271
0.000245
0.000229
0.000254
0.000457
0.000546
0.000445
0.001437
0.000247
0.000276
0.000325
0.000350
0.000484
0.000424
0.000447
0.000408
0.000238
0.000252
0.000265
0.000277
0.000264
0.000273
0.000189
0.000059
0.000209
0.000256
0.000456
0.000462
0.000361
0.000240
0.000273
0.000204
0.000250
0.000257
0.000249
0.000263
0.000266
0.000237
0.000269
0.000285
0.000465
0.000356
0.000355
0.001320
0.000265
0.000258
0.000255
0.000264
0.000456
0.000600
0.000244
0.000232
0.000273
0.000273
0.000185
0.000059
0.000179
0.000239
0.000245
0.000246
0.000244
0.000275
0.000457
0.000420
0.000341
0.000214
0.000238
0.000263
0.000269
0.000262
0.000260
0.000263
0.000265
0.000267
0.000253
0.000301
0.000454
0.000414
0.000323
0.001358
0.000398
0.000236
0.000285
0.000440
0.000455
0.000306
0.000318
0.000058
0.000195
0.000238
0.000244
0.000255
0.000247
0.000254
0.001682
0.000251
0.000201
0.000248
0.000258
0.000250
0.000273
0.000312
0.000327
0.000287
0.000289
0.000296
0.000470
0.000425
0.000312
0.000284
0.000227
0.000238
0.001510
0.000490
0.000266
0.000462
0.000337
0.000291
0.000156
0.000058
0.000197
0.000243
0.000272
0.000244
0.000247
0.000250
0.001719
0.000224
0.000244
0.000265
0.000335
0.000429
0.001404
0.000399
0.000355
0.000235
0.000261
0.000228
0.000272
0.000268
0.001563
0.000496
0.000456
0.000280
0.000231
0.000255
0.000258
0.000283
0.000245
0.000246
0.000212
0.000058
0.000193
0.000241
0.000268
0.000242
0.000264
0.000274
0.000278
0.000254
0.000255
0.000250
0.000255
0.000247
0.000265
0.000266
0.000260
0.001494
0.000278
0.000231
0.000263
0.000274
0.000271
0.000260
0.000434
0.001272
0.000274
0.000226
0.000278
0.000261
0.000388
0.000243
0.000203
0.000058
0.000208
0.000247
0.000222
0.000264
0.000228
0.000224
0.000231
0.001699
0.000257
0.000220
0.000253
0.000366
0.000230
0.000238
0.000240
0.001401
0.000217
0.000267
0.000264
0.000246
0.000255
0.000354
0.000282
0.001319
0.000263
0.000260
0.000251
0.000263
0.001394
0.000279
0.000215
0.000059
0.000216
0.000368
0.000209
0.000237
0.000254
0.000244
0.000262
0.000269
0.000270
0.000243
0.000267
0.000259
0.000251
0.000245
0.000303
0.001513
0.000243
0.000272
0.000250
0.000248
0.000284
0.000262
0.000249
0.001516
0.000360
0.000225
0.000258
0.001276
0.000276
0.000239
0.000187
0.000059
0.000210
0.000385
0.000369
0.000196
0.000234
0.000237
0.000265
0.000259
0.000266
0.000274
0.000246
0.000237
0.000267
0.000244
0.000439
0.001225
0.000230
0.000249
0.000270
0.000279
0.000221
0.000249
0.000248
0.000333
0.001268
0.000267
0.000231
0.000263
0.001347
0.000335
0.000218
0.000061
0.000288
0.000256
0.000221
0.000228
0.000239
0.000253
0.000251
0.000240
0.000280
0.000252
0.000237
0.000261
0.000238
0.000345
0.000417
0.001466
0.000212
0.000248
0.000300
0.000535
0.000259
0.000314
0.001434
0.000293
0.000240
0.000274
0.000244
0.001310
0.000268
0.000527
0.000339
0.000058
0.000217
0.000248
0.000253
0.000254
0.000254
0.000249
0.000274
0.000250
0.000261
0.000262
0.000333
0.000519
0.001271
0.000243
0.000264
0.000265
0.000280
0.000218
0.000239
0.000241
0.000343
0.001243
0.000262
0.000246
0.000251
0.000240
0.001531
0.000702
0.000192
0.000219
0.000186
0.000059
0.000202
0.000230
0.000251
0.000232
0.000262
0.000260
0.000231
0.000277
0.000421
0.000484
0.000279
0.001482
0.000207
0.000242
0.000268
0.000254
0.000264
0.000277
0.001710
0.000250
0.000394
0.000336
0.001314
0.000303
0.000344
0.000337
0.000230
0.000257
0.000261
0.000269
0.000192
0.000058
0.000180
0.000243
0.000328
0.000247
0.000411
0.000513
0.000206
0.000308
0.001461
0.000239
0.000394
0.000253
0.000217
0.000351
0.000390
0.001287
0.000270
0.000238
0.000237
0.000260
0.001524
0.000375
0.000282
0.000281
0.000275
0.000231
0.000478
0.000354
0.000222
0.000235
0.000255
0.000058
0.000281
0.000331
0.000318
0.000276
0.000238
0.001502
0.000206
0.000270
0.000259
0.000266
0.000278
0.000236
0.000314
0.001478
0.000254
0.000228
0.000424
0.001196
0.000357
0.000435
0.000396
0.000236
0.000235
0.000256
0.000276
0.000240
0.000462
0.000222
0.000262
0.000275
0.000196
0.000058
0.000185
0.000287
0.000355
0.000357
0.001285
0.000277
0.000311
0.000231
0.000236
0.000249
0.000253
0.000288
0.001524
0.000287
0.000210
0.000240
0.001382
0.000363
0.000372
0.000366
0.000430
0.000221
0.000243
0.000255
0.000271
0.000283
0.000274
0.000246
0.000269
0.000250
0.000189
0.000058
0.000292
0.000307
0.001476
0.000201
0.000280
0.000276
0.000240
0.000244
0.000281
0.000353
0.001413
0.000213
0.000261
0.000258
0.000256
0.001327
0.000654
0.000297
0.000311
0.000408
0.000300
0.000243
0.000265
0.000249
0.000280
0.000286
0.000273
0.000357
0.000359
0.000539
0.001288
0.000056
0.000205
0.000236
0.000255
0.000222
0.000251
0.000404
0.000493
0.001299
0.000248
0.000239
0.000247
0.001439
0.000357
0.000402
0.000211
0.000416
0.000242
0.000246
0.000268
0.000271
0.000244
0.000280
0.000277
0.000250
0.000251
0.000278
0.000545
0.000402
0.001487
0.000220
0.000190
0.000058
0.000191
0.000259
0.000411
0.000507
0.001207
0.000280
0.000253
0.000257
0.000246
0.000254
0.000248
0.000267
0.000373
0.000472
0.000349
0.000237
0.000250
0.000273
0.000246
0.000276
0.000249
0.000275
0.000250
0.000275
0.000256
0.000464
0.000439
0.000327
0.000318
0.001394
0.000188
0.000058
0.000207
0.000247
0.000312
0.000437
0.000351
0.000280
0.000312
0.000333
0.000267
0.000261
0.000255
0.000264
0.000255
0.000305
0.000238
0.000303
0.000564
0.000303
0.000289
0.000382
0.000274
0.000408
0.000233
0.000253
0.000248
0.000269
0.000249
0.000284
0.000377
0.000501
0.000276
0.000056
0.000210
0.001401
0.000231
0.000339
0.000408
0.000392
0.000399
0.000323
0.000216
0.000259
0.000246
0.000251
0.000257
0.000273
0.000269
0.000255
0.000254
0.001297
0.000322
0.000248
0.000276
0.000261
0.000271
0.000274
0.000272
0.000248
0.000276
0.000249
0.000354
0.000399
0.000334
0.000059
0.000214
0.000256
0.000223
0.001501
0.000321
0.000237
0.000224
0.000245
0.000238
0.000240
0.000252
0.000271
0.000254
0.000255
0.000259
0.000257
0.000248
0.000269
0.000267
0.000249
0.001439
0.000232
0.000233
0.000302
0.000229
0.000248
0.000270
0.000259
0.000282
0.000482
0.000351
0.000056
0.000194
0.000282
0.000373
0.000262
0.000248
0.000264
0.001517
0.000353
0.000299
0.000211
0.000259
0.000312
0.000336
0.000232
0.000229
0.000264
0.000230
0.000269
0.000256
0.000256
0.000480
0.000507
0.001131
0.000279
0.000226
0.000254
0.000278
0.000247
0.000276
0.000259
0.000313
0.000056
0.000292
0.000328
0.000207
0.000250
0.000247
0.000237
0.000242
0.000247
0.000275
0.001652
0.000379
0.000240
0.000229
0.000247
0.000263
0.000245
0.000256
0.000279
0.000263
0.000305
0.000303
0.000511
0.000429
0.001374
0.000229
0.000257
0.000293
0.000244
0.000270
0.000271
0.000445
0.000057
0.000228
0.000236
0.000238
0.000241
0.000222
0.000240
0.000263
0.000253
0.000269
0.001621
0.000301
0.000258
0.000264
0.000257
0.000456
0.000273
0.000541
0.000359
0.000303
0.000305
0.000447
0.000456
0.001291
0.000265
0.000224
0.000263
0.001739
0.000424
0.000618
0.000320
0.000128
0.000057
0.000191
0.000231
0.000244
0.000233
0.000260
0.000242
0.000244
0.000514
0.000520
0.000385
0.000290
0.000222
0.000234
0.000261
0.000268
0.000267
0.000243
0.000251
0.000258
0.000269
0.000358
0.000312
0.001375
0.000216
0.000245
0.000283
0.001946
0.000358
0.000376
0.000339
0.000152
0.000057
0.000212
0.000241
0.000246
0.001545
0.000458
0.000200
0.000241
0.000269
0.000238
0.000290
0.000382
0.000368
0.000372
0.000262
0.000312
0.000495
0.000464
0.001143
0.000266
0.000233
0.000266
0.000256
0.000278
0.000407
0.000647
0.000427
0.000233
0.000273
0.000268
0.000280
0.000188
0.000058
0.000196
0.000248
0.000231
0.001542
0.000250
0.000227
0.000244
0.000254
0.000240
0.000252
0.000264
0.000264
0.000285
0.000260
0.000241
0.000372
0.000501
0.000284
0.001404
0.000223
0.000265
0.000259
0.000258
0.000273
0.000418
0.000315
0.000570
0.000277
0.000286
0.000221
0.000439
0.000058
0.000204
0.000234
0.000254
0.001530
0.000322
0.000214
0.000267
0.000243
0.000252
0.000259
0.000252
0.000263
0.000257
0.000265
0.000335
0.000592
0.001354
0.000749
0.000254
0.000347
0.000273
0.000209
0.000242
0.000271
0.001687
0.000806
0.000228
0.000259
0.000298
0.000264
0.000186
0.000057
0.000195
0.000235
0.000253
0.000250
0.000256
0.000244
0.000236
0.000256
0.000242
0.000229
0.000296
0.000282
0.000277
0.000224
0.000260
0.000246
0.000273
0.001599
0.000705
0.000401
0.000311
0.000207
0.000247
0.000288
0.000258
0.000279
0.000258
0.000251
0.001454
0.000355
0.000359
0.000057
0.000181
0.000228
0.000248
0.000258
0.000258
0.000225
0.000257
0.000249
0.000254
0.000265
0.000256
0.000437
0.000489
0.000295
0.000210
0.000235
0.000264
0.001399
0.000687
0.000578
0.000231
0.000273
0.000225
0.000255
0.000274
0.000244
0.000260
0.000269
0.001518
0.000396
0.000201
0.000058
0.000200
0.000221
0.000248
0.000248
0.000252
0.000246
0.000238
0.000252
0.000270
0.000255
0.000388
0.000419
0.000269
0.000223
0.000245
0.000248
0.000261
0.000255
0.001597
0.000653
0.000422
0.000315
0.000221
0.000271
0.000257
0.000258
0.000265
0.000305
0.000250
0.001359
0.000354
0.000057
0.000228
0.000198
0.000239
0.000255
0.000256
0.000246
0.000264
0.000300
0.000364
0.000447
0.000339
0.000402
0.000363
0.000223
0.000245
0.000243
0.000270
0.000262
0.000270
0.001895
0.000361
0.000235
0.000446
0.000250
0.000239
0.000264
0.000274
0.000255
0.000266
0.000281
0.000320
0.000058
0.000288
0.000229
0.000221
0.000247
0.000282
0.000226
0.000229
0.000229
0.000266
0.000257
0.000248
0.000234
0.000315
0.000421
0.000522
0.000395
0.000211
0.000259
0.000265
0.000243
0.000255
0.000295
0.001471
0.001055
0.000211
0.000250
0.000272
0.000267
0.000269
0.000255
0.000195
0.000056
0.000183
0.001410
0.000233
0.000200
0.000239
0.000257
0.000250
0.000241
0.000231
0.000254
0.000254
0.000265
0.000239
0.000402
0.000373
0.000490
0.000231
0.000236
0.000264
0.000274
0.000263
0.000229
0.000257
0.000268
0.001330
0.000680
0.000310
0.000386
0.000381
0.000399
0.000292
0.000058
0.000189
0.000242
0.000365
0.001318
0.000204
0.000255
0.000246
0.000243
0.000262
0.000244
0.000254
0.000244
0.000273
0.000392
0.000557
0.000266
0.000227
0.000331
0.000291
0.000202
0.000256
0.000269
0.000231
0.000280
0.000264
0.001544
0.000738
0.000300
0.000297
0.000260
0.000192
0.000059
0.000212
0.000243
0.000480
0.000437
0.001186
0.000266
0.000208
0.000255
0.000221
0.000259
0.000234
0.000256
0.000233
0.000241
0.000258
0.000248
0.000274
0.000222
0.000264
0.000262
0.000258
0.000270
0.000314
0.000326
0.000220
0.000259
0.000268
0.001461
0.000269
0.000234
0.000165
0.000057
0.000197
0.000225
0.000256
0.000267
0.000355
0.000381
0.000391
0.000270
0.001563
0.000232
0.000273
0.000552
0.000339
0.000218
0.000430
0.000240
0.000232
0.000253
0.000283
0.000270
0.000278
0.000264
0.000259
0.000269
0.000258
0.000401
0.000395
0.000362
0.001558
0.000221
0.000185
0.000061
0.000171
0.000255
0.000241
0.000241
0.000238
0.000251
0.000260
0.000283
0.000434
0.002041
0.000235
0.000238
0.000256
0.000257
0.000260
0.000259
0.000276
0.000241
0.000263
0.000497
0.000364
0.000401
0.001452
0.000254
0.000525
0.000230
0.001768
0.000245
0.000257
0.001528
0.000162
0.000058
0.000339
0.000453
0.000423
0.000243
0.000267
0.000220
0.000256
0.000274
0.000260
0.000225
0.000256
0.000334
0.000421
0.000390
0.000386
0.000246
0.000226
0.001568
0.000223
0.000591
0.001896
0.000276
0.000224
0.001531
0.002041
0.000738
0.000279
0.000253
0.000311
0.000501
0.000281
0.000059
0.000195
0.000245
0.000242
0.000245
0.001429
0.002598
0.000239
0.000180
0.000226
0.001604
0.001966
0.000199
0.000249
0.000427
0.000275
0.000448
0.000332
0.000487
0.000235
0.000219
0.000254
0.000249
0.000279
0.001599
0.001194
0.001470
0.000261
0.000287
0.000243
0.000295
0.000365
0.000058
0.000232
0.000222
0.000238
0.000241
0.000229
0.000247
0.000243
0.000261
0.000250
0.000250
0.000240
0.000310
0.000479
0.000498
0.000219
0.000244
0.000251
0.000277
0.000264
0.000264
0.000260
0.000262
0.001542
0.000449
0.002107
0.000249
0.000246
0.000344
0.000435
0.000390
0.000191
0.000057
0.000202
0.000341
0.000492
0.000322
0.000193
0.000223
0.000257
0.000240
0.000246
0.000233
0.000244
0.000267
0.000262
0.001604
0.001356
0.001244
0.000268
0.000228
0.000252
0.000271
0.000277
0.000280
0.000254
0.000240
0.002219
0.000256
0.000242
0.000285
0.000322
0.000308
0.000218
0.000057
0.000229
0.000359
0.000591
0.000289
0.000228
0.000228
0.000253
0.000263
0.001895
0.001435
0.000218
0.000332
0.000383
0.000414
0.000265
0.000207
0.000264
0.000262
0.000261
0.000272
0.000247
0.000264
0.000473
0.000240
0.000271
0.000263
0.000251
0.000279
0.000281
0.000247
0.000198
0.000057
0.000194
0.000249
0.000252
0.000237
0.000254
0.000271
0.001550
0.001404
0.001344
0.000234
0.000219
0.000246
0.000268
0.000264
0.000242
0.000252
0.000247
0.002136
0.000231
0.000218
0.000279
0.000254
0.000254
0.000268
0.000269
0.000261
0.000273
0.000252
0.000279
0.000255
0.000168
0.000058
0.000199
0.002682
0.001404
0.000211
0.000303
0.000297
0.000229
0.000269
0.000257
0.000249
0.000251
0.000252
0.000232
0.000258
0.000253
0.000261
0.000268
0.000260
0.000267
0.000258
0.000265
0.000288
0.000271
0.000266
0.000242
0.000244
0.000267
0.000272
0.000278
0.000255
0.000362
0.000058
0.001538
0.000250
0.001241
0.000229
0.000218
0.000243
0.000261
0.000250
0.000248
0.000281
0.000409
0.000331
0.000360
0.000198
0.000246
0.002165
0.000237
0.000237
0.000412
0.000380
0.000381
0.000283
0.000216
0.000254
0.000277
0.000247
0.000267
0.000276
0.000271
0.001614
0.001260
0.000058
0.000184
0.000235
0.000261
0.000490
0.000296
0.000282
0.000207
0.000233
0.000253
0.000276
0.000249
0.000249
0.000222
0.000257
0.000263
0.000244
0.000297
0.000716
0.000290
0.000246
0.000218
0.000278
0.000280
0.000253
0.000250
0.000243
0.000267
0.000277
0.000247
0.000396
0.000281
0.000074
0.001110
0.000231
0.000339
0.000503
0.000240
0.000229
0.000222
0.000240
0.000249
0.002323
0.000365
0.000375
0.000213
0.000383
0.000275
0.000264
0.000256
0.000268
0.000263
0.000222
0.000256
0.000276
0.000587
0.000505
0.001871
0.001349
0.000538
0.000457
0.000229
0.000273
0.000194
0.000058
0.000346
0.000238
0.000246
0.000244
0.000239
0.000230
0.000255
0.000257
0.000250
0.000254
0.000257
0.000223
0.000248
0.000258
0.000439
0.000480
0.001822
0.001323
0.000441
0.000445
0.000460
0.000244
0.000228
0.000270
0.002166
0.000519
0.000393
0.000224
0.000278
0.000298
0.000172
0.000057
0.000185
0.000259
0.000242
0.000246
0.000261
0.000372
0.000375
0.000384
0.000225
0.000235
0.000249
0.000248
0.000265
0.002141
0.000358
0.000364
0.000202
0.000258
0.000268
0.000261
0.000253
0.002468
0.000331
0.000223
0.000249
0.000259
0.000259
0.000259
0.000286
0.000278
0.000194
0.000057
0.000189
0.000328
0.000563
0.000376
0.000258
0.000216
0.000225
0.000256
0.000279
0.000240
0.001963
0.000376
0.000310
0.000244
0.000228
0.000264
0.000279
0.000235
0.002213
0.000445
0.000216
0.000263
0.000273
0.000260
0.000256
0.000253
0.000281
0.000263
0.000260
0.000274
0.000161
0.000058
0.000193
0.000242
0.000248
0.000219
0.000247
0.000260
0.000234
0.000247
0.000232
0.002183
0.000225
0.000288
0.000211
0.000427
0.000240
0.000240
0.000282
0.000287
0.000241
0.000264
0.001964
0.000274
0.000348
0.000368
0.000433
0.000400
0.000317
0.000238
0.000252
0.000253
0.000201
0.000058
0.000197
0.000240
0.000241
0.000250
0.000274
0.000306
0.000215
0.002302
0.000242
0.000236
0.000265
0.000251
0.000235
0.000257
0.000309
0.002122
0.000587
0.000220
0.000259
0.000235
0.000268
0.000258
0.000291
0.000264
0.000266
0.000249
0.000290
0.000251
0.000264
0.000262
0.000193
0.000058
0.001825
0.001448
0.000197
0.000220
0.000243
0.000253
0.000249
0.000269
0.000419
0.000313
0.002201
0.000258
0.000230
0.000263
0.000283
0.000586
0.000332
0.000301
0.000225
0.000235
0.000261
0.000260
0.000262
0.000228
0.000259
0.000265
0.000270
0.000252
0.000281
0.000800
0.000222
0.000058
0.000198
0.000251
0.000249
0.000254
0.000267
0.000245
0.000258
0.000242
0.001468
0.002137
0.000574
0.000287
0.000396
0.000688
0.000359
0.000240
0.000249
0.000253
0.000259
0.000257
0.000272
0.000233
0.000248
0.001833
0.000354
0.001369
0.000290
0.000265
0.000295
0.000260
0.000427
0.000057
0.001957
0.000259
0.000201
0.000201
0.000300
0.000365
0.000437
0.000308
0.000293
0.000221
0.000225
0.000256
0.000263
0.000255
0.000280
0.000240
0.000256
0.000269
0.001856
0.000230
0.000231
0.000251
0.000276
0.000278
0.000270
0.000256
0.001522
0.000282
0.000236
0.000260
0.000173
0.000058
0.000203
0.000220
0.000249
0.000233
0.000254
0.000239
0.000292
0.000384
0.000371
0.000347
0.000213
0.000242
0.000271
0.000329
0.000430
0.000316
0.000213
0.000252
0.000254
0.000347
0.000490
0.000496
0.000203
0.000249
0.000253
0.000262
0.000246
0.000269
0.000281
0.000258
0.000211
0.000058
0.001448
0.000425
0.000224
0.001944
0.000314
0.000429
0.000413
0.000295
0.000217
0.000251
0.000271
0.000238
0.000253
0.000246
0.000262
0.000255
0.000457
0.000313
0.000411
0.000336
0.000364
0.000219
0.000255
0.000271
0.000273
0.000266
0.000276
0.000255
0.000388
0.000394
0.001432
0.000057
0.000199
0.000222
0.002080
0.000314
0.000298
0.000256
0.000256
0.000255
0.000265
0.000261
0.000214
0.000252
0.000249
0.000268
0.000254
0.000369
0.000710
0.001769
0.000213
0.000249
0.000258
0.000262
0.000341
0.000467
0.001584
0.000285
0.000364
0.001932
0.000267
0.000246
0.000191
0.000056
0.000207
0.000240
0.000231
0.000248
0.000250
0.000223
0.000258
0.000284
0.000332
0.000270
0.000380
0.000367
0.000335
0.000296
0.000236
0.000272
0.000264
0.000235
0.000273
0.000242
0.000300
0.000290
0.000269
0.000266
0.000270
0.001502
0.000291
0.000410
0.002058
0.000219
0.000180
0.000057
0.000212
0.000243
0.000236
0.000239
0.000488
0.000219
0.000253
0.000323
0.000384
0.000315
0.000296
0.000203
0.000261
0.000268
0.000267
0.000334
0.000391
0.000467
0.000254
0.000388
0.000539
0.000370
0.001649
0.000231
0.000255
0.001990
0.000327
0.000242
0.000245
0.000293
0.000184
0.000056
0.000198
0.000258
0.000208
0.000248
0.000243
0.000273
0.000253
0.000273
0.000254
0.000262
0.001799
0.000344
0.000372
0.000311
0.000431
0.000362
0.000326
0.001517
0.000251
0.000289
0.002106
0.000553
0.000285
0.000211
0.000270
0.000270
0.000498
0.000234
0.000251
0.000275
0.000195
0.000058
0.000277
0.000397
0.000339
0.000293
0.000213
0.000237
0.000256
0.000249
0.000306
0.000261
0.000224
0.000252
0.000253
0.000263
0.000313
0.001538
0.000325
0.000206
0.000443
0.001772
0.000391
0.000244
0.000250
0.000258
0.000246
0.000279
0.000276
0.000256
0.000245
0.000268
0.000202
0.000057
0.000274
0.000432
0.001999
0.000254
0.000259
0.000215
0.000247
0.000302
0.000431
0.000446
0.001305
0.000378
0.002107
0.000327
0.000213
0.000240
0.000271
0.000268
0.000258
0.000237
0.000299
0.000278
0.000262
0.000374
0.000445
0.000369
0.000394
0.002174
0.000486
0.000526
0.000349
0.000057
0.000223
0.000224
0.000256
0.001957
0.000230
0.000224
0.000240
0.000236
0.000248
0.000256
0.000247
0.000261
0.000246
0.000324
0.000379
0.001495
0.000249
0.000246
0.000264
0.000253
0.000234
0.000260
0.000260
0.000282
0.000309
0.000460
0.000478
0.000230
0.001597
0.000283
0.000157
0.000057
0.000202
0.000214
0.000249
0.000231
0.000255
0.000252
0.000248
0.000277
0.000231
0.000426
0.000320
0.001415
0.000235
0.000213
0.000248
0.000270
0.000254
0.000253
0.000492
0.000287
0.000465
0.000389
0.000224
0.001582
0.000226
0.000251
0.000297
0.000283
0.000257
0.000267
0.000190
0.000058
0.000206
0.000227
0.000266
0.000269
0.000247
0.000243
0.000234
0.000240
0.000262
0.000251
0.000244
0.000254
0.000260
0.001481
0.000364
0.000211
0.000249
0.000255
0.000295
0.000310
0.000377
0.000263
0.000244
0.000260
0.000259
0.000270
0.000256
0.001399
0.000287
0.000235
0.000175
0.000058
0.000185
0.000232
0.000260
0.000261
0.000254
0.000234
0.000249
0.000259
0.000219
0.000264
0.000250
0.000257
0.000231
0.000340
0.000346
0.000406
0.000220
0.000222
0.001632
0.000252
0.000228
0.000265
0.000269
0.000303
0.000363
0.000384
0.000451
0.000272
0.000242
0.001602
0.000172
0.000057
0.000320
0.000353
0.000376
0.000266
0.000244
0.000217
0.000246
0.000271
0.000256
0.000237
0.000250
0.000234
0.001473
0.000284
0.000319
0.000209
0.000254
0.000256
0.000268
0.000267
0.000250
0.000233
0.000267
0.000271
0.000248
0.000444
0.000420
0.000333
0.000276
0.000244
0.000182
0.000057
0.000239
0.000248
0.000358
0.000453
0.000343
0.000248
0.000242
0.000254
0.000251
0.000274
0.000226
0.000217
0.000260
0.000241
0.001271
0.000282
0.000250
0.000244
0.000269
0.000264
0.000236
0.000273
0.000248
0.000262
0.000258
0.000255
0.000367
0.000606
0.000490
0.000225
0.000181
0.000058
0.000191
0.001571
0.000250
0.000410
0.000375
0.000383
0.000211
0.000249
0.000270
0.000244
0.000249
0.000259
0.000274
0.000268
0.000260
0.001536
0.000247
0.000281
0.000265
0.000257
0.000256
0.000256
0.000262
0.000267
0.000263
0.000271
0.000440
0.000357
0.000350
0.000254
0.000170
0.000057
0.000205
0.000256
0.000232
0.001723
0.000323
0.000350
0.000217
0.000240
0.000248
0.000270
0.000284
0.000254
0.000241
0.000267
0.000245
0.000258
0.000423
0.001308
0.000239
0.000239
0.001501
0.000294
0.000580
0.000409
0.000345
0.000224
0.000264
0.000459
0.000243
0.000255
0.000186
0.000058
0.000292
0.000218
0.000240
0.000251
0.000247
0.000259
0.000239
0.000254
0.000258
0.000236
0.000252
0.000258
0.000332
0.000472
0.001685
0.001489
0.000354
0.000536
0.000340
0.000209
0.000249
0.000246
0.000255
0.000266
0.000251
0.000267
0.000254
0.000272
0.001531
0.000328
0.000160
0.000058
0.000246
0.000331
0.000351
0.000333
0.000233
0.000221
0.000245
0.000369
0.000522
0.000287
0.002139
0.000324
0.000721
0.000525
0.000424
0.000267
0.000330
0.000403
0.000323
0.000280
0.000393
0.000228
0.001565
0.000530
0.000222
0.000251
0.000258
0.000252
0.000261
0.000272
0.000188
0.000056
0.000226
0.000251
0.000253
0.000251
0.000248
0.001664
0.000873
0.001002
0.000207
0.000232
0.000260
0.000257
0.000262
0.000260
0.000259
0.000239
0.000259
0.000266
0.000262
0.000276
0.001432
0.000317
0.000258
0.000242
0.000217
0.000259
0.000254
0.000286
0.000263
0.000286
0.001895
0.000057
0.000213
0.000204
0.001557
0.000847
0.000580
0.000163
0.000239
0.000228
0.000253
0.000253
0.000252
0.000245
0.000243
0.002085
0.000387
0.000217
0.000254
0.000238
0.000272
0.000255
0.000192
