0.000111
0.009772
0.012048
0.000250
0.000242
0.000232
0.000299
0.000250
0.000328
0.000288
0.000252
0.000378
0.000505
0.000521
0.000366
0.000304
0.000276
0.000388
0.000396
0.000411
0.000305
0.001880
0.000463
0.000442
0.000266
0.000298
0.000310
0.000412
0.000417
0.000527
0.000386
0.000231
0.000058
0.000200
0.000235
0.000260
0.000264
0.000276
0.000252
0.000270
0.000268
0.000271
0.000283
0.000416
0.000492
0.000304
0.000282
0.000396
0.000380
0.000330
0.000240
0.000225
0.001728
0.000294
0.000235
0.000496
0.000244
0.000242
0.000261
0.000268
0.000299
0.000285
0.000315
0.000420
0.000057
0.000247
0.000224
0.000289
0.000237
0.000256
0.000243
0.000263
0.000256
0.000282
0.001671
0.000242
0.000242
0.000256
0.000265
0.000273
0.000245
0.000272
0.000251
0.000348
0.001795
0.000272
0.000272
0.000436
0.000475
0.000378
0.000241
0.000239
0.000519
0.000528
0.000727
0.000169
0.000057
0.000183
0.000215
0.000255
0.000238
0.000319
0.000253
0.000344
0.000545
0.000404
0.000272
0.000207
0.000235
0.000219
0.000267
0.000238
0.000262
0.000245
0.000266
0.000300
0.000377
0.001687
0.000254
0.000250
0.000456
0.000366
0.000584
0.000630
0.000514
0.000352
0.000248
0.000198
0.000057
0.000216
0.000222
0.000254
0.000251
0.000253
0.000255
0.000253
0.000591
0.001363
0.000292
0.000225
0.000238
0.000212
0.000250
0.000262
0.000279
0.000278
0.000798
0.001399
0.000302
0.000239
0.000437
0.000235
0.000241
0.000250
0.000254
0.000273
0.000265
0.000257
0.000269
0.000223
0.000056
0.000187
0.000233
0.000224
0.000248
0.000251
0.000247
0.000238
0.000263
0.000231
0.000260
0.001700
0.000284
0.000212
0.000239
0.000206
0.000237
0.000238
0.000248
0.000247
0.000265
0.000259
0.001747
0.000297
0.000232
0.000439
0.000246
0.000234
0.000239
0.000255
0.000264
0.000206
0.000057
0.000222
0.000199
0.000242
0.000250
0.000236
0.000245
0.000263
0.000248
0.000255
0.000242
0.000269
0.000254
0.000262
0.000278
0.001640
0.000265
0.000287
0.000239
0.000247
0.000265
0.000270
0.000242
0.000258
0.000254
0.000266
0.001838
0.000430
0.000335
0.000249
0.000278
0.000212
0.000056
0.000226
0.000205
0.000237
0.000272
0.000259
0.000253
0.000301
0.000382
0.000528
0.000314
0.000210
0.000242
0.000251
0.000260
0.001660
0.000488
0.000378
0.000328
0.000309
0.000212
0.000259
0.000271
0.000268
0.001805
0.000496
0.000487
0.000222
0.000234
0.000223
0.000266
0.000198
0.000057
0.000217
0.000219
0.000227
0.000271
0.000330
0.000425
0.000437
0.000275
0.000204
0.000221
0.000265
0.000241
0.000259
0.001756
0.000439
0.000308
0.000222
0.000244
0.000265
0.000282
0.000255
0.000255
0.000267
0.001888
0.000314
0.000385
0.000238
0.000255
0.000328
0.000401
0.000324
0.000056
0.000231
0.000339
0.000359
0.000284
0.000286
0.000209
0.000239
0.000260
0.000244
0.000247
0.000219
0.000255
0.001615
0.000317
0.000331
0.000223
0.000214
0.000252
0.000251
0.000273
0.000271
0.000350
0.001778
0.000349
0.000236
0.000496
0.000215
0.000235
0.000243
0.000268
0.000276
0.000056
0.000368
0.000523
0.000666
0.000208
0.000212
0.000255
0.000230
0.000219
0.000268
0.000251
0.000246
0.001701
0.000291
0.000409
0.000372
0.000245
0.000220
0.000218
0.000250
0.000257
0.000370
0.001742
0.000246
0.000231
0.002246
0.000433
0.000265
0.000270
0.000254
0.000262
0.000203
0.000057
0.000187
0.000220
0.000243
0.000243
0.000253
0.001693
0.000226
0.000197
0.000245
0.000253
0.000238
0.000258
0.000244
0.000259
0.000274
0.000409
0.000645
0.000245
0.000221
0.000269
0.000275
0.000257
0.000254
0.000480
0.000426
0.000250
0.000378
0.000541
0.000447
0.000214
0.000199
0.000056
0.000198
0.000225
0.000268
0.000233
0.000241
0.000244
0.000245
0.000563
0.000343
0.001608
0.000251
0.000245
0.000232
0.000253
0.000245
0.000272
0.000434
0.000532
0.000375
0.000228
0.000218
0.000283
0.000298
0.000291
0.000271
0.000407
0.000489
0.000532
0.000443
0.000453
0.000138
0.000057
0.000211
0.000242
0.000224
0.000229
0.000236
0.000245
0.000241
0.000253
0.000246
0.000373
0.000336
0.001557
0.000276
0.000208
0.000197
0.000243
0.000250
0.000265
0.000230
0.000260
0.000264
0.000468
0.000390
0.000353
0.000209
0.000244
0.000247
0.000267
0.000280
0.000275
0.000412
0.000057
0.000171
0.000216
0.000226
0.000266
0.000527
0.000439
0.000263
0.000238
0.000233
0.000256
0.000244
0.000249
0.000282
0.000267
0.000235
0.000535
0.000419
0.001590
0.000271
0.000238
0.000261
0.000264
0.000258
0.000239
0.000270
0.000455
0.000484
0.000385
0.000364
0.000215
0.000231
0.000056
0.000212
0.000235
0.000406
0.000228
0.000262
0.000242
0.000338
0.000541
0.000311
0.000318
0.000227
0.000272
0.000269
0.000244
0.000587
0.000297
0.000224
0.000219
0.000469
0.001648
0.000242
0.000225
0.000318
0.000409
0.000270
0.000301
0.000254
0.000295
0.000588
0.000386
0.000288
0.000056
0.000185
0.000214
0.000229
0.000259
0.000459
0.000258
0.000282
0.000214
0.000416
0.000608
0.000297
0.000243
0.000212
0.000212
0.000257
0.000264
0.000260
0.000257
0.000231
0.000361
0.000284
0.000550
0.001616
0.000256
0.000252
0.000246
0.000318
0.000360
0.000667
0.000483
0.000402
0.000056
0.000253
0.000317
0.000325
0.000427
0.000300
0.000229
0.000236
0.000328
0.000496
0.000398
0.000318
0.000214
0.000212
0.000256
0.000266
0.000245
0.000241
0.000278
0.000264
0.000265
0.000261
0.000486
0.001686
0.000315
0.000346
0.000428
0.000378
0.000233
0.000431
0.000360
0.000351
0.000056
0.000246
0.000383
0.000273
0.000217
0.000230
0.000216
0.000462
0.000214
0.000211
0.000357
0.000428
0.000451
0.000238
0.000243
0.000262
0.000289
0.000369
0.000433
0.000307
0.000224
0.000218
0.000257
0.000732
0.001695
0.000262
0.000417
0.000305
0.000238
0.000281
0.000434
0.000345
0.000057
0.000222
0.000200
0.000245
0.000235
0.000250
0.000247
0.000255
0.000358
0.000427
0.000311
0.000506
0.000334
0.000286
0.000207
0.000525
0.000269
0.000268
0.000266
0.000240
0.000368
0.000214
0.000236
0.000270
0.000401
0.000570
0.001645
0.000249
0.000215
0.000262
0.000238
0.000203
0.000057
0.000308
0.000452
0.000381
0.000226
0.000217
0.000222
0.000269
0.000231
0.000254
0.000261
0.000219
0.000487
0.000315
0.000455
0.000363
0.000322
0.000225
0.000245
0.000385
0.000336
0.000360
0.000378
0.000383
0.000371
0.000244
0.000222
0.000249
0.000265
0.001777
0.000275
0.000213
0.000057
0.000182
0.000210
0.000242
0.000272
0.000362
0.000535
0.000338
0.000214
0.000260
0.000263
0.000236
0.000246
0.000539
0.000438
0.000475
0.000307
0.000273
0.000247
0.000444
0.000487
0.000363
0.000447
0.000475
0.000416
0.000238
0.000239
0.000235
0.000231
0.000260
0.001771
0.000369
0.000058
0.000242
0.000315
0.000206
0.000220
0.000260
0.000246
0.000319
0.000425
0.000425
0.000299
0.000305
0.000281
0.000400
0.000573
0.000375
0.000202
0.000226
0.000229
0.000258
0.000267
0.000264
0.000272
0.000241
0.000269
0.000301
0.000370
0.000524
0.000305
0.000222
0.000217
0.000203
0.000056
0.000456
0.000302
0.000433
0.000258
0.000207
0.000231
0.000241
0.000255
0.000252
0.000217
0.000241
0.000281
0.000297
0.000300
0.000701
0.000346
0.000328
0.000372
0.000377
0.000390
0.000256
0.000215
0.000215
0.000251
0.001821
0.000225
0.001766
0.000940
0.000333
0.000380
0.000132
0.000057
0.000178
0.000207
0.000242
0.000227
0.000265
0.000248
0.000256
0.000246
0.000265
0.000293
0.000514
0.000305
0.000536
0.000277
0.000217
0.000227
0.000265
0.000290
0.000214
0.000229
0.000253
0.000235
0.001809
0.000282
0.000212
0.000254
0.000279
0.000270
0.001857
0.000561
0.000289
0.000057
0.000239
0.000201
0.000211
0.000241
0.000252
0.000252
0.000239
0.000259
0.000252
0.000424
0.000527
0.000298
0.000402
0.000229
0.000228
0.000283
0.000385
0.000391
0.000379
0.000240
0.001806
0.000242
0.000211
0.000231
0.000259
0.000269
0.000252
0.000260
0.000247
0.000389
0.000383
0.000056
0.000212
0.000232
0.000197
0.000261
0.000246
0.000241
0.000261
0.000254
0.000236
0.000256
0.000245
0.000266
0.000379
0.000429
0.000331
0.000303
0.000478
0.000202
0.000222
0.000254
0.000267
0.000253
0.000272
0.000263
0.000273
0.001794
0.000255
0.000258
0.000244
0.000238
0.000223
0.000055
0.000398
0.000254
0.000219
0.000196
0.000223
0.000240
0.000232
0.000261
0.000247
0.000226
0.000222
0.000275
0.000253
0.000308
0.000493
0.000346
0.000345
0.000213
0.000220
0.000241
0.000257
0.000259
0.000253
0.000256
0.000264
0.000251
0.000274
0.001741
0.000227
0.000218
0.000197
0.000056
0.000212
0.000213
0.000242
0.000263
0.000358
0.000373
0.000379
0.000336
0.000206
0.000245
0.000247
0.000249
0.000247
0.000256
0.000258
0.000257
0.000245
0.000258
0.000255
0.000262
0.000274
0.000259
0.000268
0.000223
0.000258
0.000268
0.000273
0.000263
0.000255
0.000264
0.000205
0.000055
0.000185
0.000244
0.000222
0.000253
0.000246
0.000246
0.000247
0.000252
0.000366
0.000203
0.000219
0.000221
0.000247
0.000255
0.000260
0.000271
0.000255
0.000251
0.000367
0.000223
0.000226
0.000281
0.000283
0.000252
0.000275
0.000280
0.000269
0.000248
0.000265
0.000463
0.000704
0.000057
0.000236
0.000303
0.000220
0.000196
0.000227
0.000230
0.000249
0.000247
0.000247
0.000245
0.000266
0.000300
0.000561
0.001745
0.000257
0.000220
0.000497
0.000218
0.000237
0.000436
0.000496
0.000312
0.000239
0.000263
0.000263
0.000252
0.000282
0.000253
0.000302
0.000266
0.000204
0.000057
0.000362
0.000379
0.000363
0.000327
0.000210
0.000225
0.000249
0.000257
0.000245
0.000229
0.000252
0.000256
0.000245
0.000286
0.000393
0.000446
0.000363
0.001805
0.000260
0.000228
0.000363
0.000457
0.000362
0.000329
0.000376
0.000278
0.000292
0.000241
0.000217
0.000266
0.000193
0.000057
0.000175
0.000210
0.000232
0.000289
0.000395
0.000403
0.000344
0.000249
0.000256
0.000220
0.000239
0.000273
0.000265
0.000263
0.000245
0.000255
0.000295
0.000528
0.000343
0.000416
0.000236
0.001800
0.000301
0.000566
0.000507
0.000401
0.000287
0.000245
0.000231
0.000265
0.000491
0.000056
0.000201
0.000272
0.000200
0.000239
0.000476
0.000502
0.000391
0.000186
0.000203
0.000324
0.000225
0.000235
0.000256
0.000303
0.000358
0.000210
0.000222
0.000517
0.000248
0.000409
0.000553
0.001782
0.000260
0.000539
0.000393
0.000362
0.000242
0.000372
0.000241
0.000211
0.000226
0.000057
0.000230
0.000338
0.000346
0.000378
0.000308
0.000353
0.000345
0.000203
0.000221
0.000259
0.000272
0.000239
0.000253
0.000232
0.000246
0.000261
0.000339
0.000401
0.000470
0.000361
0.000315
0.000230
0.000251
0.001789
0.000427
0.000424
0.000679
0.000289
0.000247
0.000288
0.000171
0.000056
0.000181
0.000217
0.000320
0.000256
0.000285
0.000362
0.000492
0.000355
0.000177
0.000532
0.000210
0.000223
0.000229
0.000273
0.000277
0.000274
0.000225
0.000449
0.000438
0.000362
0.000257
0.000228
0.000259
0.000247
0.000260
0.000271
0.000238
0.000283
0.000233
0.000382
0.000139
0.000056
0.000283
0.000340
0.000243
0.000217
0.000262
0.000257
0.000231
0.000366
0.000215
0.000198
0.000262
0.000333
0.000514
0.000353
0.000442
0.000184
0.000217
0.000229
0.000247
0.000261
0.000256
0.000308
0.000231
0.000246
0.000285
0.000472
0.000319
0.000349
0.000364
0.000220
0.000161
0.000056
0.000195
0.000215
0.000263
0.000247
0.000246
0.000235
0.000254
0.000262
0.000491
0.000253
0.000219
0.000258
0.000246
0.000248
0.000276
0.000267
0.000278
0.000359
0.000242
0.000224
0.000240
0.000269
0.000254
0.000262
0.000282
0.000264
0.000265
0.000261
0.000249
0.000512
0.000160
0.000057
0.000197
0.000212
0.000238
0.000262
0.000259
0.000221
0.000299
0.000456
0.000268
0.000227
0.000247
0.000252
0.000245
0.000297
0.000456
0.001736
0.000237
0.000253
0.000311
0.000379
0.000410
0.000346
0.000385
0.000315
0.000451
0.000368
0.000241
0.000244
0.000271
0.000273
0.001436
0.000056
0.000442
0.000255
0.000311
0.000211
0.000196
0.000235
0.000223
0.000256
0.000245
0.000264
0.000249
0.000254
0.000253
0.000264
0.000626
0.001651
0.000208
0.000229
0.000207
0.000264
0.000255
0.000244
0.000374
0.000424
0.000260
0.000346
0.000250
0.000245
0.000260
0.000275
0.000192
0.000056
0.001245
0.000527
0.000332
0.000305
0.000200
0.000211
0.000214
0.000213
0.000475
0.000249
0.000227
0.000251
0.000343
0.000503
0.000415
0.000337
0.000298
0.000243
0.000376
0.000321
0.000242
0.000227
0.000273
0.000238
0.000298
0.000745
0.000394
0.000234
0.000250
0.000272
0.000184
0.000074
0.000210
0.000205
0.000218
0.000245
0.001462
0.000344
0.000196
0.000251
0.000236
0.000253
0.000253
0.000255
0.000237
0.000262
0.000270
0.000273
0.000589
0.000529
0.000255
0.001814
0.000250
0.000291
0.000310
0.000421
0.000586
0.000316
0.000233
0.000234
0.000257
0.000268
0.000211
0.000058
0.000203
0.000253
0.000213
0.001315
0.000340
0.000207
0.000251
0.000207
0.000238
0.000235
0.000244
0.000246
0.000276
0.000253
0.000249
0.000257
0.000616
0.000361
0.000325
0.000212
0.000249
0.000276
0.000274
0.000207
0.000379
0.000201
0.000225
0.000268
0.000271
0.000357
0.000622
0.000056
0.000201
0.000232
0.000232
0.000261
0.000261
0.000252
0.000252
0.000240
0.000269
0.000255
0.001441
0.000246
0.000218
0.000242
0.000259
0.000229
0.000265
0.000269
0.000253
0.000273
0.000272
0.000478
0.000562
0.000304
0.000226
0.000263
0.001840
0.000222
0.000228
0.000317
0.000443
0.000056
0.000262
0.000426
0.000457
0.000504
0.000521
0.000528
0.001486
0.000421
0.000544
0.000645
0.000615
0.000738
0.000434
0.000595
0.000580
0.001713
0.000500
0.000415
0.000392
0.000333
0.000227
0.000292
0.000287
0.000261
0.000281
0.000273
0.000319
0.000270
0.000246
0.000294
0.001316
0.000056
0.000223
0.000255
0.000218
0.000235
0.000240
0.000257
0.000233
0.000229
0.000266
0.000271
0.000241
0.000276
0.000227
0.000258
0.000279
0.000242
0.001843
0.000256
0.000264
0.000252
0.000255
0.000259
0.000268
0.000286
0.000401
0.000425
0.000314
0.000255
0.000277
0.000275
0.000185
0.000056
0.000207
0.001377
0.000266
0.000265
0.000265
0.000226
0.000253
0.000253
0.000254
0.000242
0.000235
0.000239
0.000263
0.000432
0.000290
0.000349
0.000272
0.000282
0.001913
0.000257
0.000260
0.000253
0.000259
0.000265
0.000270
0.000266
0.000288
0.000248
0.000238
0.000301
0.000241
0.000057
0.000184
0.000222
0.000261
0.001415
0.000265
0.000270
0.000226
0.000224
0.000226
0.000261
0.000277
0.000226
0.000237
0.000263
0.000290
0.000244
0.000251
0.000254
0.000271
0.000272
0.000246
0.001854
0.000256
0.001763
0.000252
0.000269
0.000236
0.000244
0.000254
0.000303
0.000178
0.000056
0.000219
0.000268
0.001340
0.000221
0.000290
0.000208
0.000221
0.000232
0.000250
0.000273
0.000226
0.000279
0.000227
0.000264
0.000250
0.000259
0.000272
0.000273
0.000298
0.000242
0.001870
0.000281
0.001790
0.000274
0.000264
0.000240
0.000262
0.000254
0.000266
0.000257
0.000187
0.000057
0.001428
0.000231
0.000252
0.000220
0.000223
0.000215
0.000274
0.000363
0.000251
0.000256
0.000251
0.000260
0.000274
0.000307
0.000496
0.000258
0.000271
0.000261
0.000234
0.000214
0.000262
0.000351
0.000235
0.000261
0.000270
0.000271
0.000261
0.000385
0.000663
0.000354
0.000211
0.000056
0.000222
0.000285
0.000280
0.000302
0.000374
0.000246
0.001670
0.000289
0.000280
0.000258
0.000269
0.000315
0.000249
0.000265
0.000300
0.000308
0.000324
0.000557
0.000367
0.000295
0.000307
0.000271
0.000264
0.000267
0.000323
0.000265
0.000260
0.000245
0.000234
0.000297
0.000434
0.000056
0.000303
0.000399
0.000237
0.000268
0.000260
0.000243
0.000205
0.000249
0.000258
0.000260
0.001534
0.000234
0.000197
0.000245
0.000263
0.000265
0.000292
0.000237
0.000255
0.000262
0.000263
0.000410
0.000480
0.000402
0.000219
0.000289
0.000272
0.000241
0.000248
0.000230
0.000255
0.000057
0.000188
0.000199
0.000250
0.000481
0.000404
0.000255
0.000215
0.000242
0.000248
0.000263
0.000238
0.000245
0.000252
0.000278
0.000227
0.000243
0.000408
0.001273
0.000211
0.000260
0.000214
0.000256
0.000355
0.000504
0.000216
0.000274
0.000573
0.000362
0.000415
0.000232
0.000155
0.000056
0.000203
0.000231
0.000257
0.000261
0.000310
0.000209
0.000363
0.000439
0.000421
0.000308
0.000373
0.000403
0.000386
0.000354
0.000238
0.000212
0.000225
0.000230
0.000394
0.000533
0.001197
0.000249
0.000253
0.000278
0.000232
0.000232
0.000263
0.000352
0.000367
0.000545
0.000225
0.000056
0.000209
0.000208
0.000243
0.000240
0.000251
0.000247
0.000239
0.000257
0.000260
0.000380
0.000547
0.000373
0.000208
0.000207
0.000235
0.000250
0.000240
0.000266
0.000267
0.000527
0.000223
0.000232
0.000374
0.000390
0.000332
0.000239
0.000245
0.000275
0.000257
0.000274
0.000247
0.000055
0.000295
0.000295
0.000324
0.000394
0.000460
0.000324
0.000243
0.000267
0.000219
0.000258
0.000271
0.000257
0.000239
0.000252
0.000254
0.000216
0.000273
0.000360
0.000692
0.000198
0.000223
0.000266
0.000206
0.000244
0.000262
0.000286
0.000263
0.000272
0.000273
0.000272
0.000318
0.000058
0.000335
0.000238
0.000231
0.000214
0.000251
0.000247
0.000246
0.000250
0.000267
0.000257
0.000251
0.000250
0.000257
0.000578
0.000426
0.000316
0.000219
0.000210
0.000239
0.000256
0.000288
0.000240
0.000262
0.000260
0.000271
0.000368
0.000317
0.000627
0.000505
0.000226
0.000144
0.000056
0.000363
0.000217
0.000197
0.000243
0.000252
0.000244
0.000239
0.000245
0.000273
0.000243
0.000226
0.000236
0.000266
0.000237
0.000234
0.000269
0.000254
0.000266
0.000267
0.000275
0.000251
0.000257
0.000273
0.000260
0.000265
0.000269
0.000240
0.000278
0.000257
0.000273
0.000216
0.000058
0.000185
0.000209
0.000243
0.000252
0.000232
0.000245
0.000261
0.000244
0.000267
0.000274
0.000227
0.000230
0.000271
0.000399
0.000242
0.000269
0.000275
0.000259
0.000251
0.000283
0.000272
0.000233
0.000261
0.000241
0.000262
0.000285
0.000249
0.000249
0.000267
0.000267
0.000227
0.000057
0.000265
0.000378
0.000347
0.000278
0.000329
0.000214
0.000200
0.000252
0.000239
0.000238
0.000239
0.000268
0.000249
0.000229
0.000266
0.000257
0.000264
0.000276
0.000250
0.000250
0.000276
0.000270
0.000274
0.000255
0.000277
0.000279
0.000232
0.000287
0.000242
0.000273
0.000199
0.000057
0.000194
0.000208
0.000249
0.000263
0.000251
0.000458
0.000211
0.000239
0.000285
0.000356
0.000582
0.000332
0.000208
0.000225
0.000259
0.000275
0.000238
0.000261
0.000264
0.000268
0.000265
0.000263
0.000265
0.000323
0.000493
0.000527
0.000246
0.000272
0.000273
0.000264
0.000200
0.000059
0.000203
0.000208
0.000241
0.000249
0.000301
0.000649
0.000335
0.000374
0.000236
0.000229
0.000273
0.000230
0.000265
0.000239
0.000261
0.000274
0.000257
0.000251
0.000636
0.000387
0.000327
0.000211
0.000256
0.000280
0.000282
0.000256
0.000264
0.000263
0.000256
0.000337
0.000379
0.000056
0.000243
0.000244
0.000213
0.000231
0.000257
0.000253
0.000236
0.000245
0.000238
0.000259
0.000246
0.000251
0.000258
0.000431
0.000510
0.000443
0.000222
0.000238
0.000255
0.000254
0.000256
0.000274
0.000488
0.000237
0.000253
0.000636
0.000405
0.000444
0.000280
0.000247
0.000196
0.000056
0.000202
0.000219
0.000229
0.000236
0.000253
0.000260
0.000326
0.000548
0.000558
0.000313
0.000253
0.000227
0.000269
0.000283
0.000288
0.000218
0.000264
0.000216
0.000257
0.000344
0.000457
0.000514
0.000432
0.000289
0.000445
0.000338
0.000474
0.000230
0.000232
0.000310
0.000497
0.000058
0.000271
0.000216
0.000480
0.000197
0.000239
0.000222
0.000245
0.000259
0.000240
0.000242
0.000284
0.000382
0.000459
0.000289
0.000222
0.000214
0.000274
0.000232
0.000270
0.000269
0.000272
0.000264
0.000257
0.000260
0.000334
0.000532
0.000412
0.000265
0.000247
0.000261
0.000217
0.000055
0.000203
0.000243
0.000229
0.000246
0.000248
0.000252
0.000387
0.000470
0.000384
0.000278
0.000344
0.000244
0.000231
0.000252
0.000262
0.000233
0.000268
0.000247
0.000347
0.000394
0.000505
0.000271
0.000449
0.000358
0.000396
0.000389
0.000376
0.000280
0.000187
0.000264
0.000438
0.000056
0.000220
0.000256
0.000217
0.000244
0.000262
0.000255
0.000247
0.000257
0.000260
0.000255
0.000237
0.000378
0.000481
0.000326
0.000363
0.000253
0.000239
0.000263
0.000270
0.000236
0.000250
0.000257
0.000270
0.000260
0.000274
0.000322
0.000546
0.000419
0.000251
0.000287
0.000204
0.000056
0.000214
0.000217
0.000254
0.000249
0.000264
0.000337
0.000459
0.000554
0.000333
0.000661
0.000295
0.000217
0.000219
0.000259
0.000247
0.000264
0.000288
0.000258
0.000478
0.000514
0.001556
0.000251
0.000252
0.000263
0.000296
0.000245
0.000413
0.000416
0.000376
0.000265
0.000154
0.000056
0.000217
0.000199
0.000248
0.000249
0.000235
0.000253
0.000267
0.000270
0.000243
0.000364
0.000351
0.000360
0.000285
0.000387
0.000386
0.000323
0.000231
0.000211
0.000247
0.000257
0.000244
0.000250
0.000281
0.000260
0.000340
0.000532
0.000360
0.000274
0.000221
0.000263
0.000204
0.000057
0.000214
0.000227
0.000256
0.000255
0.000251
0.000234
0.000449
0.000255
0.000212
0.000258
0.000241
0.000255
0.000256
0.000252
0.000254
0.000268
0.000270
0.000255
0.000279
0.000252
0.000262
0.000286
0.000297
0.000250
0.000267
0.000271
0.000273
0.000263
0.000266
0.000265
0.000189
0.000056
0.000229
0.000230
0.000302
0.000476
0.000355
0.000220
0.000232
0.000228
0.000260
0.000260
0.000241
0.000248
0.000271
0.000253
0.000244
0.000243
0.000255
0.000265
0.000263
0.000344
0.000398
0.000449
0.000239
0.000256
0.000267
0.000252
0.000274
0.000247
0.000262
0.000283
0.000225
0.000058
0.000354
0.000458
0.000338
0.000223
0.000239
0.000261
0.000467
0.000211
0.000195
0.000243
0.000287
0.000333
0.000358
0.000464
0.001745
0.000266
0.000255
0.000235
0.000280
0.000246
0.000311
0.000550
0.000554
0.000300
0.000229
0.000242
0.000267
0.000426
0.000280
0.000280
0.000183
0.000057
0.000245
0.000368
0.000297
0.000291
0.000511
0.000200
0.000239
0.000255
0.000247
0.000236
0.000262
0.000247
0.000257
0.000366
0.000358
0.000501
0.000244
0.000206
0.000262
0.000261
0.000253
0.000312
0.000253
0.000271
0.000280
0.000493
0.000460
0.000635
0.000256
0.000213
0.000209
0.000057
0.000202
0.000208
0.000249
0.000227
0.000249
0.000249
0.000270
0.000269
0.000346
0.000421
0.000386
0.000375
0.000226
0.000225
0.000260
0.000265
0.000335
0.000227
0.000280
0.000264
0.000248
0.000340
0.000487
0.000334
0.000259
0.000279
0.000253
0.000539
0.000375
0.000270
0.000185
0.000056
0.000212
0.000224
0.000345
0.000411
0.000362
0.000233
0.000218
0.000252
0.000260
0.000256
0.000267
0.000257
0.000230
0.000246
0.000262
0.000286
0.000448
0.000321
0.000305
0.000357
0.000457
0.000241
0.000266
0.000281
0.000308
0.000277
0.000259
0.000255
0.000458
0.000595
0.000171
0.000057
0.000199
0.000198
0.000242
0.000247
0.000250
0.000484
0.000206
0.000268
0.000243
0.000367
0.000506
0.000546
0.000223
0.000232
0.000240
0.000256
0.000249
0.000255
0.000243
0.000270
0.000245
0.000272
0.000469
0.000397
0.000357
0.000324
0.000347
0.000340
0.000300
0.000219
0.000165
0.000058
0.000197
0.000209
0.000243
0.000482
0.000318
0.000393
0.000242
0.000206
0.000214
0.000242
0.000248
0.000254
0.000254
0.000250
0.000313
0.000205
0.000257
0.000238
0.000250
0.000385
0.000624
0.000328
0.000228
0.000218
0.000280
0.000276
0.000255
0.000262
0.000273
0.000246
0.000222
0.000057
0.000265
0.000421
0.000473
0.000211
0.000208
0.000217
0.000302
0.000528
0.000253
0.000217
0.000218
0.000270
0.000329
0.000369
0.000462
0.000319
0.000209
0.000218
0.000296
0.000206
0.000275
0.000264
0.000258
0.000272
0.000277
0.000358
0.000368
0.000407
0.000361
0.000202
0.000167
0.000056
0.000202
0.000215
0.000239
0.000256
0.000252
0.000261
0.000238
0.000250
0.000253
0.000248
0.000263
0.000243
0.000258
0.001464
0.000243
0.000239
0.000255
0.000245
0.000276
0.000282
0.000251
0.000252
0.000272
0.000259
0.000262
0.000267
0.000286
0.000256
0.000268
0.000264
0.000210
0.000056
0.000209
0.000223
0.000231
0.000247
0.000242
0.000240
0.000258
0.000255
0.000239
0.000240
0.000251
0.000260
0.000258
0.000249
0.000261
0.000254
0.000257
0.000262
0.000263
0.000257
0.000259
0.000260
0.000277
0.000214
0.001367
0.000282
0.000556
0.000362
0.000425
0.000225
0.000155
0.000056
0.000204
0.000219
0.000234
0.000250
0.000491
0.000236
0.000205
0.000201
0.000254
0.000362
0.000512
0.000355
0.000219
0.000203
0.000235
0.000259
0.000255
0.000262
0.000244
0.000269
0.000256
0.000254
0.000297
0.000363
0.000531
0.000437
0.000260
0.000239
0.001365
0.000275
0.000181
0.000057
0.000330
0.000423
0.000370
0.000224
0.000198
0.000229
0.000203
0.000261
0.000242
0.000261
0.000244
0.000262
0.000262
0.000331
0.000533
0.000389
0.000315
0.000238
0.000248
0.000251
0.000245
0.000265
0.000267
0.000270
0.000264
0.000265
0.000373
0.000538
0.000376
0.000373
0.000162
0.000055
0.000220
0.000217
0.001306
0.000350
0.000383
0.000413
0.000332
0.000334
0.000434
0.000382
0.000234
0.000204
0.000243
0.000250
0.000252
0.000258
0.000409
0.000548
0.000305
0.000335
0.000275
0.000234
0.000278
0.000490
0.000239
0.000261
0.000257
0.000275
0.000292
0.000546
0.000331
0.000057
0.000381
0.000349
0.000216
0.000205
0.001557
0.000505
0.000318
0.000214
0.000205
0.000247
0.000223
0.000237
0.000244
0.000269
0.000250
0.000268
0.000233
0.000323
0.000436
0.000413
0.000439
0.000198
0.000213
0.000262
0.000241
0.000276
0.000276
0.000240
0.000266
0.000269
0.000224
0.000055
0.000340
0.000325
0.000268
0.000196
0.000247
0.000246
0.000252
0.000245
0.000255
0.000232
0.001520
0.000403
0.000274
0.000196
0.000222
0.000263
0.000255
0.000266
0.000240
0.000264
0.000273
0.000265
0.000258
0.000470
0.000348
0.000494
0.000208
0.000260
0.000284
0.000272
0.000192
0.000056
0.000229
0.000438
0.000211
0.000198
0.000375
0.000397
0.000348
0.000358
0.000445
0.000227
0.000201
0.000253
0.000258
0.000287
0.000249
0.001369
0.000396
0.000277
0.000254
0.000265
0.000281
0.000256
0.000252
0.000259
0.000255
0.000270
0.000494
0.000391
0.000329
0.000283
0.000137
0.000056
0.000201
0.000208
0.000249
0.000248
0.000222
0.000258
0.000249
0.000239
0.000330
0.000367
0.000445
0.000317
0.000222
0.000210
0.000227
0.000269
0.000288
0.000255
0.000273
0.000220
0.000277
0.000281
0.001337
0.000232
0.000273
0.000221
0.000228
0.000264
0.000259
0.000262
0.000198
0.000057
0.000213
0.000365
0.000368
0.000349
0.000231
0.000205
0.000244
0.000261
0.000259
0.000241
0.000264
0.000267
0.000264
0.000230
0.000256
0.000266
0.000266
0.000269
0.000266
0.000251
0.000252
0.000283
0.000254
0.000283
0.000283
0.000275
0.000285
0.000250
0.000251
0.000509
0.001321
0.000057
0.000216
0.000214
0.000232
0.000260
0.000237
0.000261
0.000246
0.000225
0.000246
0.000237
0.000257
0.000266
0.000253
0.000242
0.000256
0.001699
0.000362
0.000217
0.000244
0.000206
0.000244
0.000259
0.000271
0.000260
0.000269
0.000264
0.000262
0.000283
0.000271
0.000257
0.000234
0.000056
0.000345
0.000414
0.001235
0.000211
0.000191
0.000232
0.000256
0.000253
0.000260
0.000252
0.000236
0.000356
0.000383
0.000517
0.000245
0.000215
0.000223
0.000249
0.000255
0.000266
0.000256
0.000265
0.000262
0.000282
0.000268
0.000443
0.000364
0.000350
0.000278
0.000259
0.000195
0.000057
0.000202
0.000224
0.000246
0.000238
0.000256
0.000230
0.000235
0.000275
0.000394
0.000486
0.001114
0.000239
0.000226
0.000271
0.000256
0.000262
0.000278
0.000243
0.000342
0.000438
0.000371
0.000249
0.000232
0.000226
0.000268
0.000291
0.000264
0.000297
0.000268
0.000275
0.000217
0.000057
0.000383
0.000295
0.000409
0.000226
0.000203
0.000210
0.000242
0.000260
0.000270
0.000256
0.000224
0.000537
0.000301
0.000443
0.000449
0.001469
0.000226
0.000255
0.000344
0.000359
0.000433
0.000422
0.000453
0.000426
0.000214
0.000265
0.000260
0.000276
0.000265
0.000275
0.000216
0.000056
0.000207
0.000233
0.000447
0.000561
0.000307
0.000200
0.000247
0.000238
0.000238
0.000261
0.000251
0.000259
0.000265
0.000244
0.000271
0.000351
0.000325
0.000479
0.000307
0.001314
0.000266
0.000258
0.000256
0.000464
0.000322
0.000415
0.000413
0.000218
0.000233
0.000274
0.000209
0.000056
0.000185
0.000214
0.000249
0.000244
0.000237
0.000267
0.000475
0.000363
0.000395
0.000224
0.000230
0.000253
0.000268
0.000264
0.000254
0.000269
0.000259
0.000259
0.000268
0.000252
0.000583
0.000421
0.000317
0.001341
0.000349
0.000231
0.000301
0.000394
0.000439
0.000368
0.000346
0.000056
0.000183
0.000213
0.000248
0.000244
0.000254
0.000253
0.001697
0.000252
0.000229
0.000222
0.000240
0.000260
0.000325
0.000324
0.000334
0.000279
0.000236
0.000332
0.000504
0.000412
0.000279
0.000273
0.000223
0.000227
0.001437
0.000455
0.000402
0.000463
0.000320
0.000292
0.000162
0.000058
0.000190
0.000222
0.000253
0.000263
0.000247
0.000253
0.001782
0.000217
0.000237
0.000257
0.000386
0.000414
0.001414
0.000334
0.000424
0.000201
0.000219
0.000237
0.000283
0.000245
0.001628
0.000656
0.000302
0.000283
0.000207
0.000224
0.000253
0.000303
0.000236
0.000242
0.000204
0.000057
0.000194
0.000225
0.000258
0.000246
0.000264
0.000274
0.000277
0.000259
0.000252
0.000253
0.000255
0.000254
0.000250
0.000271
0.000252
0.001505
0.000274
0.000235
0.000269
0.000274
0.000265
0.000288
0.000411
0.001266
0.000275
0.000246
0.000260
0.000254
0.000459
0.000236
0.000169
0.000056
0.000209
0.000222
0.000233
0.000242
0.000261
0.000206
0.000237
0.001758
0.000224
0.000202
0.000258
0.000344
0.000246
0.000219
0.001450
0.000252
0.000205
0.000233
0.000261
0.000267
0.000235
0.000321
0.000324
0.001356
0.000285
0.000226
0.000225
0.000257
0.001392
0.000272
0.000201
0.000057
0.000232
0.000334
0.000213
0.000206
0.000249
0.000243
0.000263
0.000266
0.000266
0.000251
0.000260
0.000259
0.000257
0.000256
0.000313
0.001487
0.000257
0.000276
0.000237
0.000245
0.000276
0.000297
0.000235
0.001492
0.000348
0.000245
0.000267
0.001369
0.000216
0.000215
0.000199
0.000056
0.000219
0.000399
0.000303
0.000211
0.000235
0.000235
0.000262
0.000258
0.000262
0.000270
0.000248
0.000244
0.000261
0.000447
0.000305
0.001230
0.000204
0.000214
0.000255
0.000279
0.000232
0.000243
0.000255
0.001385
0.000294
0.000211
0.000226
0.000246
0.000259
0.001341
0.000342
0.000056
0.000283
0.000294
0.000211
0.000218
0.000221
0.000248
0.000257
0.000244
0.000267
0.000267
0.000237
0.000250
0.000295
0.000295
0.000398
0.001485
0.000237
0.000229
0.000313
0.000492
0.000319
0.000389
0.001325
0.000299
0.000240
0.000257
0.001293
0.000351
0.000288
0.000487
0.000298
0.000057
0.000206
0.000237
0.000254
0.000253
0.000252
0.000254
0.000275
0.000243
0.000266
0.000264
0.000434
0.000443
0.001310
0.000208
0.000239
0.000260
0.000283
0.000262
0.000212
0.000234
0.000319
0.001323
0.000225
0.000227
0.000241
0.000247
0.001497
0.000440
0.000473
0.000243
0.000196
0.000057
0.000201
0.000202
0.000255
0.000228
0.000248
0.000274
0.000250
0.000234
0.000505
0.000436
0.000295
0.001455
0.000234
0.000211
0.000269
0.000251
0.000322
0.000253
0.001635
0.000319
0.000351
0.000359
0.001392
0.000317
0.000305
0.000333
0.000237
0.000223
0.000241
0.000258
0.000215
0.000056
0.000189
0.000204
0.000326
0.000266
0.000267
0.000592
0.000279
0.000336
0.001481
0.000305
0.000320
0.000245
0.000213
0.000306
0.000344
0.001384
0.000274
0.000217
0.000217
0.000242
0.000322
0.001595
0.000341
0.000280
0.000229
0.000220
0.000518
0.000308
0.000235
0.000232
0.000243
0.000056
0.000246
0.000378
0.000339
0.000281
0.000201
0.001462
0.000253
0.000237
0.000244
0.000272
0.000266
0.000250
0.000317
0.001460
0.000263
0.000242
0.000411
0.001280
0.000373
0.000345
0.000380
0.000262
0.000226
0.000252
0.000277
0.000246
0.000447
0.000240
0.000260
0.000266
0.000216
0.000074
0.000200
0.000204
0.000374
0.001453
0.000269
0.000213
0.000302
0.000246
0.000254
0.000244
0.000254
0.000308
0.001584
0.000215
0.000211
0.000220
0.001397
0.000310
0.000451
0.000442
0.000359
0.000221
0.000229
0.000232
0.000378
0.000227
0.000243
0.000232
0.000260
0.000245
0.000219
0.000057
0.000262
0.000375
0.001381
0.000210
0.000260
0.000268
0.000253
0.000241
0.000355
0.000408
0.001276
0.000286
0.000275
0.000243
0.000215
0.001348
0.000692
0.000252
0.000310
0.000411
0.000330
0.000231
0.000234
0.000230
0.000265
0.000290
0.000278
0.000337
0.000414
0.000467
0.001377
0.000056
0.000213
0.000242
0.000224
0.000219
0.000257
0.000420
0.000470
0.001353
0.000230
0.000206
0.000235
0.001457
0.000473
0.000280
0.000450
0.000259
0.000210
0.000214
0.000232
0.000281
0.000269
0.000244
0.000290
0.000261
0.000257
0.000290
0.000399
0.000543
0.001459
0.000269
0.000185
0.000056
0.000219
0.000220
0.000380
0.000556
0.001184
0.000291
0.000255
0.000255
0.000242
0.000253
0.000250
0.000276
0.000312
0.000585
0.000325
0.000205
0.000249
0.000273
0.000242
0.000271
0.000265
0.000264
0.000256
0.000267
0.000259
0.000383
0.000541
0.000308
0.000302
0.001476
0.000150
0.000057
0.000204
0.000218
0.000292
0.000480
0.000324
0.000281
0.000297
0.000333
0.000270
0.000267
0.000266
0.000258
0.000240
0.000312
0.000250
0.000260
0.000524
0.000376
0.000288
0.000376
0.000292
0.000462
0.000231
0.000238
0.000214
0.000257
0.000257
0.000283
0.000340
0.000537
0.000295
0.000059
0.000203
0.001358
0.000306
0.000300
0.000365
0.000426
0.000376
0.000348
0.000220
0.000211
0.000247
0.000258
0.000256
0.000271
0.000270
0.000248
0.000266
0.001391
0.000290
0.000224
0.000229
0.000263
0.000273
0.000280
0.000267
0.000261
0.000260
0.000256
0.000306
0.000438
0.000302
0.000058
0.000229
0.000239
0.001429
0.000367
0.000296
0.000212
0.000208
0.000210
0.000226
0.000260
0.000240
0.000271
0.000253
0.000247
0.000264
0.000269
0.000242
0.000268
0.000258
0.000266
0.001441
0.000259
0.000226
0.000325
0.000233
0.000221
0.000248
0.000265
0.000271
0.000498
0.000384
0.000056
0.000193
0.000212
0.000375
0.000291
0.000251
0.000250
0.001559
0.000356
0.000307
0.000196
0.000241
0.000345
0.000321
0.000220
0.000221
0.000248
0.000239
0.000268
0.000255
0.000262
0.000518
0.000483
0.001178
0.000259
0.000220
0.000216
0.000267
0.000268
0.000268
0.000267
0.000394
0.000056
0.000232
0.000363
0.000196
0.000201
0.000264
0.000219
0.000249
0.000226
0.001443
0.000495
0.000451
0.000260
0.000194
0.000210
0.000250
0.000248
0.000257
0.000269
0.000263
0.000310
0.000302
0.000499
0.000436
0.001382
0.000260
0.000223
0.000278
0.000254
0.000270
0.000298
0.000498
0.000056
0.000231
0.000208
0.000270
0.000212
0.000222
0.000246
0.000256
0.000247
0.000276
0.001561
0.000368
0.000243
0.000263
0.000267
0.000480
0.000285
0.000402
0.000458
0.000332
0.000329
0.000444
0.000452
0.001319
0.000226
0.000222
0.000242
0.001749
0.000449
0.000584
0.000328
0.000142
0.000056
0.000190
0.000218
0.000245
0.000229
0.000244
0.000253
0.000357
0.000407
0.000550
0.000387
0.000286
0.000215
0.000211
0.000249
0.000268
0.000266
0.000266
0.000242
0.000240
0.000271
0.000276
0.000480
0.001305
0.000235
0.000222
0.000271
0.001875
0.000402
0.000369
0.000367
0.000167
0.000058
0.000177
0.000203
0.000239
0.001544
0.000467
0.000196
0.000240
0.000261
0.000246
0.000350
0.000364
0.000378
0.000348
0.000302
0.000282
0.000522
0.000347
0.001265
0.000262
0.000204
0.000216
0.000272
0.000372
0.000383
0.000626
0.000453
0.000218
0.000214
0.000272
0.000278
0.000211
0.000058
0.000195
0.000210
0.001478
0.000382
0.000211
0.000203
0.000229
0.000246
0.000250
0.000255
0.000249
0.000269
0.000270
0.000270
0.000281
0.000427
0.000345
0.000411
0.001345
0.000278
0.000208
0.000269
0.000261
0.000252
0.000380
0.000502
0.000454
0.000282
0.000292
0.000252
0.000393
0.000057
0.000194
0.000226
0.000239
0.000255
0.001583
0.000232
0.000254
0.000243
0.000255
0.000257
0.000253
0.000273
0.000257
0.000238
0.000353
0.000557
0.001489
0.000753
0.000192
0.000342
0.000242
0.000219
0.000234
0.000271
0.001764
0.000740
0.000249
0.000248
0.000263
0.000290
0.000200
0.000055
0.000215
0.000211
0.000243
0.000246
0.000256
0.000247
0.000250
0.000245
0.000251
0.000240
0.000268
0.000281
0.000258
0.000249
0.000258
0.000261
0.000268
0.001603
0.000703
0.000431
0.000284
0.000226
0.000221
0.000273
0.000270
0.000269
0.000269
0.000252
0.001504
0.000335
0.000313
0.000057
0.000187
0.000220
0.000237
0.000248
0.000251
0.000234
0.000253
0.000258
0.000246
0.000267
0.000220
0.000467
0.000438
0.000363
0.000215
0.000229
0.000251
0.001473
0.000696
0.000390
0.000359
0.000286
0.000208
0.000238
0.000288
0.000244
0.000244
0.000268
0.001500
0.000460
0.000201
0.000056
0.000219
0.000210
0.000230
0.000243
0.000257
0.000247
0.000247
0.000238
0.000272
0.000270
0.000359
0.000375
0.000337
0.000232
0.000240
0.000241
0.000261
0.000253
0.001584
0.000592
0.000484
0.000357
0.000219
0.000243
0.000255
0.000261
0.000269
0.000277
0.000264
0.001454
0.000287
0.000058
0.000202
0.000218
0.000207
0.000259
0.000260
0.000241
0.000288
0.000354
0.000374
0.000415
0.000355
0.000401
0.000318
0.000204
0.000244
0.000235
0.000273
0.000265
0.001397
0.000912
0.000291
0.000203
0.000468
0.000224
0.000216
0.000255
0.000264
0.000267
0.000272
0.000263
0.000301
0.000057
0.000175
0.000307
0.000202
0.000234
0.000252
0.000250
0.000226
0.000236
0.000255
0.000272
0.000245
0.000231
0.000262
0.000596
0.000338
0.000461
0.000214
0.000251
0.000267
0.000241
0.000261
0.000371
0.001380
0.001056
0.000242
0.000233
0.000267
0.000257
0.000285
0.000253
0.000209
0.000056
0.000195
0.001413
0.000243
0.000208
0.000198
0.000251
0.000247
0.000246
0.000229
0.000255
0.000256
0.000265
0.000237
0.000421
0.000356
0.000473
0.000285
0.000210
0.000258
0.000266
0.000258
0.000243
0.000255
0.000268
0.001406
0.000680
0.000303
0.000403
0.000371
0.000397
0.000258
0.000056
0.000192
0.000210
0.000390
0.001288
0.000244
0.000262
0.000207
0.000243
0.000244
0.000257
0.000255
0.000246
0.000268
0.000422
0.000484
0.000372
0.000204
0.000318
0.000266
0.000224
0.000239
0.000261
0.000244
0.000269
0.000259
0.001561
0.000741
0.000283
0.000271
0.000283
0.000205
0.000057
0.000206
0.000248
0.000439
0.000520
0.001175
0.000243
0.000210
0.000212
0.000225
0.000248
0.000245
0.000256
0.000240
0.000228
0.000256
0.000257
0.000269
0.000234
0.000258
0.000248
0.000263
0.000272
0.000331
0.000313
0.000246
0.000233
0.000261
0.001543
0.000224
0.000236
0.000157
0.000057
0.000178
0.000213
0.000246
0.000352
0.000343
0.000342
0.000399
0.000245
0.001558
0.000242
0.000367
0.000398
0.000341
0.000274
0.000475
0.000236
0.000215
0.000227
0.000258
0.000283
0.000276
0.000288
0.000239
0.000263
0.000293
0.000431
0.000416
0.000315
0.001523
0.000251
0.000171
0.000056
0.000225
0.000225
0.000237
0.000240
0.000245
0.000249
0.000263
0.000296
0.000447
0.002077
0.000216
0.000202
0.000242
0.000256
0.000258
0.000326
0.000264
0.000217
0.000255
0.000416
0.000433
0.000382
0.001526
0.000223
0.000260
0.000460
0.001768
0.000291
0.000260
0.001486
0.000187
0.000056
0.000308
0.000367
0.000498
0.000242
0.000259
0.000229
0.000253
0.000268
0.000262
0.000240
0.000250
0.000314
0.000422
0.000352
0.000475
0.000243
0.000213
0.001548
0.000491
0.001996
0.000331
0.000236
0.000207
0.001569
0.002019
0.000736
0.000273
0.000226
0.000268
0.000467
0.000364
0.000056
0.000184
0.000217
0.000250
0.000255
0.001486
0.001665
0.001073
0.000225
0.000221
0.001582
0.001970
0.000228
0.000348
0.000390
0.000324
0.000320
0.000493
0.000308
0.000253
0.000222
0.000248
0.000258
0.000272
0.001582
0.001294
0.001408
0.000276
0.000235
0.000260
0.000305
0.000364
0.000057
0.000191
0.000235
0.000213
0.000237
0.000235
0.000235
0.000256
0.000246
0.000260
0.000248
0.000245
0.000316
0.000429
0.000515
0.000308
0.000202
0.000233
0.000261
0.000268
0.000263
0.000259
0.001382
0.000467
0.000465
0.002052
0.000266
0.000229
0.000319
0.000516
0.000418
0.000168
0.000057
0.000235
0.000308
0.000467
0.000316
0.000223
0.000231
0.000217
0.000270
0.000229
0.000236
0.000258
0.000256
0.000261
0.001617
0.001420
0.001222
0.000273
0.000231
0.000213
0.000231
0.000293
0.000277
0.000256
0.000251
0.002263
0.000230
0.000213
0.000290
0.000318
0.000301
0.000287
0.000057
0.000199
0.000388
0.000574
0.000326
0.000221
0.000197
0.000227
0.000274
0.001888
0.001411
0.000271
0.000381
0.000397
0.000373
0.000244
0.000211
0.000232
0.000254
0.000270
0.000263
0.000269
0.000259
0.000466
0.000250
0.000254
0.000293
0.000238
0.000273
0.000280
0.000241
0.000227
0.000057
0.000204
0.000221
0.000246
0.000247
0.000242
0.000284
0.001522
0.001512
0.001309
0.000220
0.000221
0.000221
0.000249
0.000263
0.000247
0.000254
0.000265
0.002149
0.000228
0.000207
0.000252
0.000265
0.000257
0.000266
0.000267
0.000258
0.000263
0.000260
0.000272
0.000269
0.000185
0.000055
0.001502
0.000320
0.002388
0.000250
0.000299
0.000297
0.000246
0.000253
0.000273
0.000231
0.000255
0.000247
0.000247
0.000238
0.000262
0.000259
0.000266
0.000267
0.000257
0.000273
0.000261
0.000273
0.000280
0.000272
0.000244
0.000274
0.000234
0.000274
0.000261
0.000267
0.000387
0.000057
0.000202
0.002572
0.000325
0.000203
0.000215
0.000202
0.000253
0.000248
0.000259
0.000242
0.000419
0.000426
0.000257
0.000250
0.000227
0.002213
0.000225
0.000228
0.000250
0.000494
0.000417
0.000285
0.000210
0.000242
0.000259
0.000272
0.000241
0.000276
0.000263
0.001692
0.001210
0.000057
0.000196
0.000209
0.000348
0.000336
0.000364
0.000280
0.000227
0.000210
0.000260
0.000245
0.000270
0.000238
0.000246
0.000244
0.000269
0.000228
0.000332
0.000609
0.000388
0.000244
0.000240
0.000240
0.000279
0.000254
0.000259
0.000237
0.000261
0.000277
0.000251
0.000326
0.000374
0.000056
0.001105
0.000241
0.000324
0.000539
0.000245
0.000204
0.000207
0.000230
0.002229
0.000389
0.000353
0.000361
0.000215
0.000285
0.000335
0.000266
0.000269
0.000247
0.000268
0.000254
0.000235
0.000289
0.000827
0.000285
0.001792
0.001367
0.000527
0.000519
0.000222
0.000257
0.000225
0.000056
0.000246
0.000372
0.000222
0.000249
0.000232
0.000248
0.000238
0.000236
0.000256
0.000257
0.000254
0.000237
0.000249
0.000241
0.000400
0.000517
0.001890
0.001326
0.000427
0.000377
0.000455
0.000244
0.000245
0.000269
0.002205
0.000470
0.000383
0.000239
0.000270
0.000285
0.000209
0.000056
0.000182
0.000224
0.000256
0.000236
0.000256
0.000335
0.000434
0.000368
0.000282
0.000217
0.000232
0.000284
0.000267
0.002099
0.000293
0.000427
0.000222
0.000237
0.000257
0.000265
0.000253
0.002453
0.000346
0.000229
0.000268
0.000237
0.000253
0.000275
0.000266
0.000288
0.000209
0.000056
0.000200
0.000339
0.000563
0.000397
0.000232
0.000198
0.000219
0.000239
0.000260
0.000266
0.002051
0.000366
0.000269
0.000250
0.000199
0.000248
0.000271
0.000247
0.002266
0.000401
0.000231
0.000241
0.000269
0.000253
0.000292
0.000232
0.000279
0.000252
0.000263
0.000268
0.000203
0.000056
0.000190
0.000230
0.000252
0.000215
0.000246
0.000261
0.000239
0.000243
0.000257
0.002147
0.000264
0.000259
0.000215
0.000479
0.000223
0.000213
0.000260
0.000286
0.000251
0.001998
0.000294
0.000252
0.000381
0.000368
0.000479
0.000338
0.000290
0.000251
0.000229
0.000250
0.000213
0.000056
0.000201
0.000255
0.000194
0.000250
0.000243
0.000391
0.000216
0.002310
0.000211
0.000238
0.000224
0.000263
0.000240
0.000242
0.002336
0.000208
0.000482
0.000229
0.000246
0.000236
0.000261
0.000289
0.000260
0.000272
0.000258
0.000255
0.000287
0.000257
0.000261
0.000312
0.000167
0.000058
0.000180
0.003012
0.000244
0.000214
0.000244
0.000250
0.000249
0.000267
0.000417
0.000426
0.002154
0.000210
0.000230
0.000254
0.000278
0.000650
0.000322
0.000283
0.000224
0.000213
0.000239
0.000264
0.000268
0.000239
0.000236
0.000283
0.000270
0.000261
0.000391
0.000590
0.000352
0.000060
0.000190
0.000283
0.000265
0.000208
0.000229
0.000256
0.000242
0.000250
0.001543
0.002124
0.000517
0.000276
0.000426
0.000743
0.000348
0.000218
0.000206
0.000244
0.000265
0.000258
0.000263
0.000233
0.000252
0.000275
0.001831
0.001449
0.000288
0.000280
0.000309
0.000292
0.000458
0.000059
0.001920
0.000238
0.000232
0.000203
0.000258
0.000366
0.000482
0.000306
0.000324
0.000239
0.000205
0.000217
0.000254
0.000250
0.000256
0.000274
0.000255
0.000258
0.001911
0.000215
0.000220
0.000225
0.000276
0.000267
0.000279
0.000266
0.001529
0.000337
0.000227
0.000233
0.000157
0.000056
0.000200
0.000211
0.000224
0.000243
0.000261
0.000240
0.000323
0.000355
0.000419
0.000341
0.000206
0.000212
0.000334
0.000324
0.000377
0.000324
0.000222
0.000221
0.000263
0.000387
0.000516
0.000419
0.000213
0.000239
0.000254
0.000254
0.000253
0.000273
0.000271
0.000267
0.000227
0.000056
0.001453
0.000395
0.000232
0.002016
0.000256
0.000509
0.000289
0.000378
0.000194
0.000217
0.000260
0.000247
0.000242
0.000252
0.000260
0.000276
0.000438
0.000320
0.000407
0.000316
0.000429
0.000188
0.000249
0.000262
0.000342
0.000226
0.000240
0.000262
0.000319
0.000503
0.001439
0.000057
0.000193
0.000215
0.002071
0.000273
0.000325
0.000263
0.000279
0.000238
0.000258
0.000254
0.000219
0.000250
0.000260
0.000265
0.000259
0.000481
0.000595
0.001722
0.000265
0.000242
0.000261
0.000261
0.000373
0.000509
0.001510
0.000267
0.000363
0.002008
0.000230
0.000245
0.000184
0.000056
0.000210
0.000209
0.000221
0.000251
0.000240
0.000238
0.000246
0.000277
0.000343
0.000305
0.000384
0.000368
0.000328
0.000290
0.000238
0.000234
0.000260
0.000245
0.000259
0.000265
0.000275
0.000309
0.000262
0.000258
0.000281
0.001578
0.000292
0.000400
0.001981
0.000251
0.000191
0.000056
0.000194
0.000212
0.000232
0.000241
0.000460
0.000236
0.000249
0.000352
0.000373
0.000359
0.000231
0.000220
0.000244
0.000274
0.000276
0.000332
0.000439
0.000414
0.000266
0.000352
0.000611
0.000444
0.001540
0.000267
0.000229
0.002017
0.000351
0.000221
0.000220
0.000263
0.000207
0.000058
0.000188
0.000205
0.000226
0.000243
0.000248
0.000293
0.000234
0.000273
0.000248
0.000249
0.001894
0.000282
0.000396
0.000339
0.000454
0.000361
0.001521
0.000323
0.000205
0.000312
0.002075
0.000567
0.000273
0.000218
0.000229
0.000271
0.000486
0.000253
0.000247
0.000271
0.000214
0.000056
0.000166
0.000402
0.000326
0.000287
0.000192
0.000225
0.000248
0.000257
0.000268
0.000301
0.000222
0.000249
0.000251
0.000264
0.000334
0.000534
0.001261
0.000275
0.000415
0.001931
0.000264
0.000270
0.000213
0.000250
0.000242
0.000277
0.000266
0.000261
0.000254
0.000260
0.000221
0.000056
0.000360
0.000272
0.002094
0.000221
0.000240
0.000221
0.000212
0.000293
0.000490
0.001474
0.000325
0.000368
0.000330
0.001990
0.000229
0.000242
0.000261
0.000295
0.000244
0.000245
0.000278
0.000292
0.000260
0.000375
0.000473
0.000375
0.000341
0.002188
0.000543
0.000401
0.000474
0.000057
0.000192
0.000219
0.000223
0.002030
0.000201
0.000227
0.000225
0.000236
0.000249
0.000235
0.000250
0.000257
0.000252
0.000301
0.000522
0.000340
0.001282
0.000248
0.000259
0.000268
0.000233
0.000253
0.000262
0.000265
0.000310
0.000563
0.000372
0.000259
0.001678
0.000228
0.000153
0.000057
0.000200
0.000220
0.000225
0.000229
0.000252
0.000254
0.000252
0.000248
0.000274
0.000373
0.000348
0.001478
0.000218
0.000201
0.000245
0.000245
0.000268
0.000243
0.000273
0.000499
0.000431
0.000439
0.000241
0.001544
0.000257
0.000230
0.000283
0.000286
0.000273
0.000258
0.000216
0.000056
0.000199
0.000203
0.000265
0.000264
0.000254
0.000240
0.000239
0.000234
0.000270
0.000236
0.000261
0.000248
0.000252
0.000254
0.001582
0.000232
0.000262
0.000257
0.000370
0.000290
0.000360
0.000264
0.000206
0.000253
0.000252
0.000265
0.001494
0.000267
0.000225
0.000218
0.000165
0.000058
0.000179
0.000225
0.000235
0.000265
0.000273
0.000215
0.000249
0.000268
0.000220
0.000263
0.000241
0.000263
0.000230
0.000336
0.000362
0.000303
0.000328
0.001584
0.000335
0.000209
0.000218
0.000236
0.000259
0.000285
0.000455
0.000446
0.000402
0.000226
0.000221
0.001604
0.000193
0.000057
0.000431
0.000268
0.000367
0.000282
0.000208
0.000208
0.000252
0.000254
0.000256
0.000242
0.000245
0.000251
0.001518
0.000324
0.000234
0.000225
0.000218
0.000254
0.000269
0.000265
0.000253
0.000238
0.000270
0.000262
0.000255
0.000354
0.000518
0.000348
0.000287
0.000220
0.000197
0.000057
0.000201
0.000220
0.000545
0.000295
0.000364
0.000232
0.000230
0.000250
0.000254
0.000252
0.000244
0.000237
0.000244
0.000249
0.001417
0.000196
0.000218
0.000217
0.000265
0.000263
0.000238
0.000267
0.000256
0.000260
0.000253
0.000259
0.000307
0.000692
0.000475
0.000237
0.000171
0.000057
0.000185
0.001539
0.000279
0.000297
0.000557
0.000319
0.000199
0.000245
0.000256
0.000258
0.000236
0.000262
0.000272
0.000282
0.000261
0.001510
0.000265
0.000278
0.000258
0.000258
0.000262
0.000256
0.000252
0.000274
0.000254
0.000260
0.000415
0.000428
0.000378
0.000223
0.000163
0.000056
0.000188
0.000222
0.000242
0.001729
0.000377
0.000336
0.000207
0.000206
0.000259
0.000256
0.000275
0.000259
0.000252
0.000256
0.000239
0.000264
0.000440
0.001358
0.000211
0.000232
0.001530
0.000321
0.000558
0.000410
0.000281
0.000242
0.000249
0.000457
0.000252
0.000247
0.000198
0.000057
0.000278
0.000219
0.000223
0.000232
0.000245
0.000253
0.000246
0.000248
0.000258
0.000240
0.000257
0.000252
0.000358
0.000486
0.001638
0.001483
0.000389
0.000511
0.000336
0.000241
0.000222
0.000268
0.000239
0.000263
0.000256
0.000256
0.000265
0.000273
0.001601
0.000309
0.000139
0.000057
0.000246
0.000337
0.000350
0.000328
0.000258
0.000205
0.000221
0.000376
0.000367
0.001443
0.000353
0.001536
0.000413
0.000460
0.000424
0.000279
0.000330
0.000336
0.000344
0.000272
0.000240
0.000348
0.001566
0.000530
0.000240
0.000244
0.000268
0.000250
0.000247
0.000262
0.000222
0.000057
0.000208
0.000219
0.000261
0.000243
0.000272
0.001638
0.000953
0.000893
0.000239
0.000231
0.000267
0.000262
0.000246
0.000264
0.000257
0.000246
0.000262
0.000257
0.000262
0.000291
0.001503
0.000271
0.000261
0.000217
0.000229
0.000241
0.000254
0.000286
0.000267
0.000274
0.000210
0.000057
0.000189
0.000212
0.001537
0.000932
0.000357
0.000354
0.000217
0.000211
0.000244
0.000251
0.000246
0.000260
0.000245
0.002043
0.000469
0.000225
0.000203
0.000234
0.000259
0.000261
0.000207
