0.000094
0.019971
0.001337
0.000364
0.000239
0.000236
0.000297
0.000253
0.000324
0.000298
0.000242
0.000405
0.000539
0.000458
0.000400
0.000265
0.000298
0.000401
0.000366
0.000415
0.000298
0.001881
0.000489
0.000435
0.000255
0.000311
0.000288
0.000421
0.000414
0.000440
0.000449
0.000271
0.000059
0.000220
0.000215
0.000276
0.000261
0.000342
0.000200
0.000266
0.000255
0.000276
0.000292
0.000447
0.000459
0.000285
0.000291
0.000399
0.000362
0.000352
0.000250
0.000227
0.001716
0.000289
0.000236
0.000502
0.000270
0.000226
0.000241
0.000278
0.000293
0.000293
0.000432
0.000374
0.000057
0.000194
0.000213
0.000259
0.000253
0.000261
0.000253
0.000258
0.000248
0.000285
0.001694
0.000229
0.000235
0.000241
0.000270
0.000276
0.000262
0.000260
0.000274
0.000333
0.001809
0.000262
0.000247
0.000450
0.000461
0.000394
0.000241
0.000245
0.000562
0.000487
0.000709
0.000173
0.000057
0.000234
0.000198
0.000264
0.000232
0.000318
0.000271
0.000283
0.000555
0.000448
0.000264
0.000215
0.000227
0.000210
0.000262
0.000256
0.000255
0.000244
0.000266
0.000297
0.000327
0.001752
0.000250
0.000230
0.000453
0.000251
0.000721
0.000644
0.000496
0.000351
0.000258
0.000205
0.000057
0.000185
0.000217
0.000261
0.000245
0.000257
0.000247
0.000290
0.000441
0.001478
0.000236
0.000269
0.000216
0.000243
0.000250
0.000268
0.000279
0.000290
0.000801
0.001382
0.000279
0.000269
0.000415
0.000279
0.000215
0.000249
0.000258
0.000270
0.000266
0.000254
0.000266
0.000226
0.000057
0.000221
0.000206
0.000237
0.000246
0.000263
0.000238
0.000251
0.000246
0.000245
0.000249
0.001701
0.000241
0.000240
0.000228
0.000230
0.000243
0.000232
0.000242
0.000258
0.000263
0.000258
0.001753
0.000245
0.000259
0.000464
0.000232
0.000247
0.000236
0.000265
0.000260
0.000202
0.000075
0.000173
0.000214
0.000231
0.000241
0.000249
0.000247
0.000258
0.000231
0.000268
0.000253
0.000260
0.000254
0.000263
0.000273
0.001637
0.000267
0.000306
0.000248
0.000226
0.000259
0.000268
0.000255
0.000258
0.000249
0.000271
0.001901
0.000328
0.000353
0.000263
0.000275
0.000216
0.000056
0.000178
0.000221
0.000246
0.000255
0.000253
0.000233
0.000314
0.000393
0.000435
0.000413
0.000226
0.000223
0.000252
0.000244
0.001689
0.000496
0.000288
0.000398
0.000294
0.000231
0.000241
0.000277
0.000275
0.001820
0.000471
0.000499
0.000231
0.000231
0.000227
0.000248
0.000205
0.000056
0.000217
0.000207
0.000228
0.000266
0.000297
0.000509
0.000382
0.000280
0.000206
0.000220
0.000257
0.000239
0.000262
0.001761
0.000432
0.000307
0.000228
0.000238
0.000269
0.000273
0.000260
0.000271
0.000254
0.001903
0.000304
0.000397
0.000250
0.000241
0.000314
0.000398
0.000316
0.000058
0.000207
0.000394
0.000331
0.000250
0.000309
0.000203
0.000251
0.000252
0.000240
0.000253
0.000241
0.000224
0.001634
0.000346
0.000294
0.000220
0.000206
0.000249
0.000263
0.000262
0.000298
0.000334
0.001773
0.000349
0.000230
0.000498
0.000250
0.000220
0.000219
0.000269
0.000286
0.000058
0.000299
0.000560
0.000662
0.000215
0.000211
0.000245
0.000238
0.000222
0.000251
0.000280
0.000224
0.001714
0.000278
0.000398
0.000387
0.000218
0.000229
0.000237
0.000236
0.000258
0.000305
0.001816
0.000258
0.000215
0.002250
0.000429
0.000278
0.000245
0.000271
0.000253
0.000205
0.000056
0.000224
0.000203
0.000231
0.000244
0.000262
0.001709
0.000210
0.000208
0.000236
0.000242
0.000255
0.000257
0.000240
0.000253
0.000280
0.000388
0.000668
0.000235
0.000221
0.000268
0.000276
0.000254
0.000229
0.000505
0.000432
0.000265
0.000384
0.000559
0.000413
0.000226
0.000180
0.000057
0.000192
0.000212
0.000251
0.000253
0.000239
0.000235
0.000233
0.000520
0.000367
0.001647
0.000244
0.000235
0.000243
0.000250
0.000250
0.000270
0.000481
0.000499
0.000371
0.000233
0.000224
0.000265
0.000319
0.000272
0.000270
0.000401
0.000479
0.000556
0.000398
0.000500
0.000123
0.000057
0.000194
0.000251
0.000230
0.000219
0.000225
0.000241
0.000247
0.000243
0.000257
0.000367
0.000339
0.001565
0.000271
0.000214
0.000212
0.000212
0.000251
0.000258
0.000245
0.000251
0.000300
0.000483
0.000358
0.000333
0.000227
0.000227
0.000267
0.000254
0.000269
0.000260
0.000446
0.000056
0.000215
0.000206
0.000254
0.000266
0.000499
0.000436
0.000263
0.000232
0.000230
0.000257
0.000248
0.000243
0.000284
0.000267
0.000229
0.000560
0.000514
0.001482
0.000270
0.000248
0.000248
0.000256
0.000260
0.000249
0.000268
0.000560
0.000383
0.000367
0.000368
0.000234
0.000198
0.000057
0.000239
0.000213
0.000404
0.000246
0.000245
0.000240
0.000324
0.000541
0.000339
0.000302
0.000235
0.000268
0.000287
0.000225
0.000604
0.000290
0.000219
0.000254
0.000412
0.001681
0.000236
0.000224
0.000316
0.000411
0.000283
0.000281
0.000257
0.000299
0.000593
0.000397
0.000265
0.000056
0.000205
0.000216
0.000234
0.000238
0.000490
0.000262
0.000285
0.000210
0.000463
0.000534
0.000322
0.000225
0.000227
0.000208
0.000256
0.000267
0.000257
0.000252
0.000229
0.000387
0.000265
0.000297
0.001881
0.000260
0.000231
0.000256
0.000320
0.000354
0.000411
0.000729
0.000425
0.000059
0.000249
0.000313
0.000342
0.000412
0.000314
0.000207
0.000242
0.000262
0.000524
0.000447
0.000321
0.000203
0.000219
0.000262
0.000253
0.000246
0.000241
0.000274
0.000272
0.000259
0.000282
0.000350
0.001819
0.000284
0.000355
0.000420
0.000383
0.000252
0.000402
0.000375
0.000352
0.000058
0.000219
0.000386
0.000282
0.000208
0.000241
0.000209
0.000473
0.000209
0.000230
0.000429
0.000319
0.000425
0.000287
0.000221
0.000271
0.000285
0.000363
0.000435
0.000318
0.000228
0.000209
0.000332
0.000669
0.001699
0.000253
0.000485
0.000285
0.000206
0.000262
0.000406
0.000360
0.000056
0.000201
0.000200
0.000228
0.000249
0.000240
0.000248
0.000257
0.000389
0.000401
0.000251
0.000527
0.000372
0.000288
0.000210
0.000523
0.000255
0.000281
0.000268
0.000245
0.000353
0.000217
0.000236
0.000264
0.000490
0.000482
0.001667
0.000231
0.000225
0.000245
0.000248
0.000202
0.000056
0.000288
0.000461
0.000387
0.000230
0.000217
0.000207
0.000265
0.000260
0.000239
0.000259
0.000215
0.000484
0.000291
0.000475
0.000406
0.000292
0.000220
0.000249
0.000363
0.000347
0.000366
0.000362
0.000384
0.000383
0.000247
0.000217
0.000241
0.000272
0.001792
0.000280
0.000198
0.000057
0.000204
0.000202
0.000240
0.000268
0.000369
0.000533
0.000362
0.000201
0.000226
0.000267
0.000246
0.000253
0.000530
0.000450
0.000475
0.000315
0.000272
0.000237
0.000454
0.000470
0.000367
0.000431
0.000460
0.000455
0.000235
0.000254
0.000224
0.000238
0.000238
0.001786
0.000334
0.000057
0.000280
0.000329
0.000226
0.000187
0.000259
0.000238
0.000297
0.000448
0.000425
0.000303
0.000306
0.000282
0.000359
0.000698
0.000297
0.000227
0.000196
0.000237
0.000251
0.000274
0.000253
0.000272
0.000240
0.000265
0.000367
0.000317
0.000504
0.000331
0.000218
0.000231
0.000172
0.000058
0.000445
0.000308
0.000440
0.000245
0.000228
0.000210
0.000242
0.000254
0.000249
0.000249
0.000227
0.000263
0.000298
0.000365
0.000588
0.000404
0.000335
0.000361
0.000363
0.000388
0.000265
0.000222
0.000229
0.000257
0.001803
0.000233
0.001757
0.000959
0.000335
0.000356
0.000144
0.000056
0.000209
0.000211
0.000230
0.000227
0.000262
0.000253
0.000246
0.000256
0.000263
0.000292
0.000447
0.000430
0.000330
0.000394
0.000240
0.000239
0.000285
0.000272
0.000215
0.000230
0.000254
0.000225
0.001811
0.000264
0.000225
0.000259
0.000277
0.000263
0.001861
0.000597
0.000223
0.000056
0.000224
0.000204
0.000208
0.000244
0.000245
0.000247
0.000245
0.000255
0.000260
0.000329
0.000559
0.000360
0.000399
0.000259
0.000192
0.000292
0.000385
0.000387
0.000376
0.000255
0.001799
0.000240
0.000225
0.000223
0.000253
0.000263
0.000248
0.000279
0.000240
0.000355
0.000409
0.000057
0.000272
0.000208
0.000199
0.000258
0.000241
0.000241
0.000282
0.000234
0.000235
0.000256
0.000246
0.000278
0.000395
0.000376
0.000339
0.000331
0.000472
0.000213
0.000223
0.000239
0.000263
0.000255
0.000281
0.000272
0.000257
0.001794
0.000277
0.000239
0.000248
0.000247
0.000192
0.000056
0.000225
0.000366
0.000238
0.000220
0.000217
0.000229
0.000239
0.000254
0.000250
0.000236
0.000215
0.000268
0.000252
0.000317
0.000502
0.000351
0.000335
0.000211
0.000217
0.000241
0.000248
0.000266
0.000252
0.000264
0.000260
0.000249
0.000303
0.001716
0.000237
0.000224
0.000180
0.000055
0.000184
0.000208
0.000243
0.000279
0.000343
0.000441
0.000372
0.000277
0.000208
0.000241
0.000248
0.000251
0.000239
0.000262
0.000254
0.000256
0.000243
0.000261
0.000254
0.000256
0.000270
0.000267
0.000260
0.000237
0.000229
0.000288
0.000270
0.000270
0.000247
0.000260
0.000221
0.000055
0.000222
0.000232
0.000217
0.000252
0.000245
0.000247
0.000251
0.000255
0.000365
0.000206
0.000204
0.000228
0.000258
0.000245
0.000267
0.000266
0.000248
0.000253
0.000371
0.000219
0.000237
0.000273
0.000284
0.000260
0.000257
0.000291
0.000260
0.000254
0.000276
0.000458
0.000710
0.000058
0.000229
0.000305
0.000225
0.000199
0.000206
0.000244
0.000245
0.000252
0.000244
0.000245
0.000277
0.000254
0.000650
0.000425
0.001523
0.000218
0.000515
0.000203
0.000252
0.000430
0.000460
0.000345
0.000231
0.000267
0.000267
0.000254
0.000277
0.000257
0.000306
0.000256
0.000207
0.000057
0.000435
0.000256
0.000401
0.000292
0.000197
0.000237
0.000245
0.000248
0.000238
0.000259
0.000237
0.000259
0.000233
0.000253
0.000416
0.000468
0.000364
0.001798
0.000281
0.000219
0.000371
0.000417
0.000455
0.000281
0.000367
0.000310
0.000253
0.000228
0.000222
0.000247
0.000202
0.000057
0.000220
0.000195
0.000242
0.000293
0.000344
0.000478
0.000354
0.000212
0.000254
0.000216
0.000245
0.000270
0.000267
0.000261
0.000257
0.000253
0.000298
0.000499
0.000411
0.000376
0.000234
0.001808
0.000321
0.000574
0.000430
0.000454
0.000275
0.000228
0.000241
0.000267
0.000504
0.000056
0.000219
0.000220
0.000246
0.000250
0.000468
0.000443
0.000374
0.000253
0.000218
0.000327
0.000219
0.000238
0.000237
0.000308
0.000356
0.000220
0.000219
0.000458
0.000317
0.000413
0.000537
0.001777
0.000257
0.000561
0.000375
0.000361
0.000246
0.000362
0.000253
0.000216
0.000204
0.000055
0.000220
0.000332
0.000354
0.000373
0.000399
0.000208
0.000395
0.000225
0.000219
0.000264
0.000264
0.000234
0.000232
0.000262
0.000256
0.000239
0.000322
0.000499
0.000404
0.000357
0.000310
0.000225
0.000243
0.001785
0.000324
0.000539
0.000682
0.000308
0.000222
0.000301
0.000160
0.000056
0.000180
0.000222
0.000309
0.000260
0.000297
0.000346
0.000448
0.000278
0.000314
0.000527
0.000204
0.000220
0.000229
0.000278
0.000275
0.000277
0.000231
0.000384
0.000512
0.000354
0.000244
0.000253
0.000230
0.000265
0.000255
0.000269
0.000236
0.000258
0.000256
0.000377
0.000163
0.000056
0.000377
0.000281
0.000229
0.000235
0.000236
0.000273
0.000228
0.000360
0.000218
0.000209
0.000249
0.000347
0.000498
0.000375
0.000280
0.000320
0.000236
0.000231
0.000232
0.000289
0.000232
0.000285
0.000237
0.000268
0.000276
0.000394
0.000366
0.000379
0.000361
0.000235
0.000150
0.000056
0.000214
0.000237
0.000230
0.000241
0.000239
0.000255
0.000249
0.000274
0.000481
0.000237
0.000229
0.000258
0.000255
0.000246
0.000274
0.000274
0.000271
0.000358
0.000258
0.000214
0.000230
0.000268
0.000260
0.000265
0.000277
0.000262
0.000266
0.000265
0.000249
0.000507
0.000171
0.000056
0.000194
0.000212
0.000234
0.000267
0.000255
0.000218
0.000301
0.000457
0.000297
0.000195
0.000246
0.000254
0.000240
0.000291
0.000476
0.001718
0.000269
0.000222
0.000316
0.000376
0.000408
0.000347
0.000381
0.000386
0.000371
0.000364
0.000269
0.000245
0.000267
0.000271
0.001440
0.000056
0.000393
0.000269
0.000283
0.000202
0.000204
0.000229
0.000232
0.000255
0.000245
0.000282
0.000234
0.000252
0.000253
0.000266
0.000576
0.001702
0.000214
0.000217
0.000212
0.000259
0.000251
0.000258
0.000469
0.000313
0.000283
0.000327
0.000237
0.000262
0.000257
0.000265
0.000221
0.000056
0.001223
0.000536
0.000323
0.000293
0.000215
0.000203
0.000200
0.000254
0.000466
0.000243
0.000220
0.000244
0.000491
0.000414
0.000377
0.000323
0.000317
0.000235
0.000317
0.000384
0.000225
0.000222
0.000281
0.000231
0.000275
0.000522
0.000575
0.000323
0.000228
0.000283
0.000175
0.000057
0.000196
0.000223
0.000209
0.000247
0.001432
0.000360
0.000221
0.000230
0.000247
0.000254
0.000254
0.000245
0.000240
0.000264
0.000271
0.000283
0.000607
0.000508
0.000270
0.001799
0.000250
0.000290
0.000322
0.000412
0.000660
0.000255
0.000224
0.000227
0.000250
0.000273
0.000213
0.000057
0.000211
0.000252
0.000212
0.001325
0.000329
0.000217
0.000246
0.000213
0.000227
0.000244
0.000225
0.000253
0.000274
0.000253
0.000246
0.000301
0.000573
0.000370
0.000319
0.000220
0.000233
0.000279
0.000262
0.000228
0.000363
0.000214
0.000228
0.000261
0.000270
0.000337
0.000680
0.000058
0.000187
0.000222
0.000229
0.000258
0.000266
0.000250
0.000229
0.000253
0.000274
0.000258
0.001457
0.000237
0.000210
0.000246
0.000249
0.000235
0.000273
0.000256
0.000258
0.000290
0.000263
0.000497
0.000471
0.000346
0.000251
0.000263
0.001839
0.000237
0.000217
0.000348
0.000442
0.000056
0.000245
0.000428
0.000454
0.000505
0.000522
0.000545
0.001445
0.000442
0.000545
0.000650
0.000605
0.000625
0.000521
0.000630
0.000579
0.001718
0.000488
0.000425
0.000388
0.000327
0.000248
0.000286
0.000286
0.000269
0.000274
0.000269
0.000302
0.000277
0.000260
0.000290
0.001321
0.000058
0.000227
0.000265
0.000208
0.000232
0.000242
0.000253
0.000233
0.000232
0.000266
0.000267
0.000256
0.000242
0.000242
0.000269
0.000258
0.000258
0.001838
0.000268
0.000258
0.000257
0.000246
0.000267
0.000263
0.000340
0.000326
0.000480
0.000291
0.000243
0.000262
0.000293
0.000161
0.000057
0.000217
0.001384
0.000261
0.000261
0.000283
0.000225
0.000251
0.000243
0.000257
0.000237
0.000241
0.000245
0.000257
0.000441
0.000276
0.000372
0.000246
0.000295
0.001897
0.000267
0.000260
0.000254
0.000260
0.000255
0.000296
0.000243
0.000279
0.000252
0.000235
0.000315
0.000235
0.000057
0.000216
0.000227
0.000256
0.001431
0.000248
0.000269
0.000225
0.000232
0.000214
0.000261
0.000260
0.000261
0.000220
0.000253
0.000299
0.000245
0.000248
0.000250
0.000270
0.000270
0.000257
0.001847
0.000264
0.001760
0.000258
0.000253
0.000255
0.000226
0.000265
0.000288
0.000208
0.000056
0.000220
0.000244
0.001361
0.000225
0.000262
0.000231
0.000225
0.000229
0.000251
0.000253
0.000249
0.000256
0.000274
0.000235
0.000251
0.000268
0.000260
0.000274
0.000300
0.000274
0.001844
0.000273
0.001793
0.000278
0.000260
0.000240
0.000256
0.000259
0.000266
0.000260
0.000186
0.000056
0.001434
0.000229
0.000252
0.000230
0.000216
0.000208
0.000279
0.000354
0.000257
0.000267
0.000234
0.000264
0.000257
0.000410
0.000423
0.000261
0.000257
0.000266
0.000232
0.000223
0.000254
0.000337
0.000257
0.000255
0.000274
0.000275
0.000257
0.000340
0.000702
0.000352
0.000189
0.000058
0.000185
0.000287
0.000274
0.000305
0.000350
0.001697
0.000299
0.000237
0.000282
0.000254
0.000273
0.000299
0.000258
0.000267
0.000299
0.000310
0.000387
0.000444
0.000429
0.000262
0.000323
0.000277
0.000262
0.000267
0.000328
0.000265
0.000258
0.000243
0.000238
0.000295
0.000429
0.000057
0.000302
0.000368
0.000254
0.000267
0.000252
0.000229
0.000228
0.000250
0.000251
0.000254
0.001523
0.000250
0.000209
0.000233
0.000242
0.000287
0.000267
0.000249
0.000271
0.000259
0.000260
0.000342
0.000638
0.000328
0.000233
0.000259
0.000272
0.000248
0.000246
0.000232
0.000244
0.000057
0.000203
0.000206
0.000281
0.000559
0.000301
0.000264
0.000196
0.000247
0.000244
0.000287
0.000203
0.000270
0.000241
0.000270
0.000240
0.000229
0.000547
0.001146
0.000203
0.000249
0.000251
0.000234
0.000365
0.000495
0.000214
0.000253
0.000663
0.000488
0.000222
0.000256
0.000129
0.000057
0.000223
0.000192
0.000269
0.000260
0.000321
0.000201
0.000313
0.000507
0.000411
0.000301
0.000386
0.000382
0.000391
0.000360
0.000238
0.000213
0.000220
0.000229
0.000347
0.000595
0.001201
0.000227
0.000251
0.000273
0.000230
0.000244
0.000257
0.000330
0.000401
0.000519
0.000240
0.000056
0.000208
0.000200
0.000244
0.000243
0.000247
0.000240
0.000251
0.000259
0.000247
0.000522
0.000407
0.000358
0.000232
0.000211
0.000228
0.000244
0.000243
0.000267
0.000259
0.000238
0.000519
0.000223
0.000400
0.000470
0.000246
0.000244
0.000235
0.000267
0.000254
0.000301
0.000221
0.000057
0.000308
0.000294
0.000291
0.000393
0.000492
0.000331
0.000228
0.000270
0.000212
0.000270
0.000256
0.000257
0.000240
0.000259
0.000242
0.000228
0.000259
0.000408
0.000493
0.000371
0.000209
0.000271
0.000212
0.000236
0.000265
0.000271
0.000288
0.000253
0.000276
0.000264
0.000288
0.000057
0.000287
0.000327
0.000220
0.000225
0.000250
0.000254
0.000242
0.000260
0.000250
0.000260
0.000256
0.000239
0.000271
0.000572
0.000496
0.000257
0.000204
0.000229
0.000209
0.000271
0.000286
0.000244
0.000251
0.000265
0.000266
0.000318
0.000483
0.000517
0.000500
0.000230
0.000145
0.000056
0.000399
0.000208
0.000199
0.000220
0.000251
0.000252
0.000249
0.000246
0.000246
0.000260
0.000223
0.000250
0.000272
0.000224
0.000255
0.000249
0.000254
0.000276
0.000256
0.000271
0.000247
0.000259
0.000269
0.000271
0.000273
0.000267
0.000226
0.000273
0.000257
0.000285
0.000219
0.000056
0.000188
0.000208
0.000231
0.000258
0.000235
0.000248
0.000264
0.000233
0.000261
0.000289
0.000229
0.000224
0.000259
0.000405
0.000232
0.000291
0.000281
0.000241
0.000259
0.000284
0.000271
0.000236
0.000254
0.000243
0.000268
0.000281
0.000247
0.000256
0.000264
0.000256
0.000234
0.000075
0.000249
0.000376
0.000351
0.000281
0.000304
0.000230
0.000223
0.000234
0.000231
0.000243
0.000245
0.000261
0.000256
0.000244
0.000265
0.000241
0.000266
0.000270
0.000259
0.000246
0.000272
0.000266
0.000275
0.000260
0.000279
0.000282
0.000242
0.000273
0.000245
0.000288
0.000189
0.000057
0.000196
0.000226
0.000240
0.000261
0.000247
0.000462
0.000207
0.000235
0.000290
0.000510
0.000427
0.000338
0.000222
0.000208
0.000257
0.000267
0.000255
0.000251
0.000260
0.000270
0.000265
0.000259
0.000264
0.000277
0.000558
0.000525
0.000256
0.000254
0.000273
0.000259
0.000206
0.000056
0.000191
0.000183
0.000246
0.000244
0.000284
0.000765
0.000243
0.000381
0.000234
0.000228
0.000240
0.000247
0.000269
0.000237
0.000262
0.000262
0.000269
0.000273
0.000616
0.000423
0.000286
0.000222
0.000243
0.000279
0.000285
0.000256
0.000266
0.000267
0.000250
0.000336
0.000483
0.000057
0.000226
0.000205
0.000206
0.000238
0.000259
0.000256
0.000248
0.000228
0.000238
0.000259
0.000241
0.000254
0.000264
0.000428
0.000573
0.000380
0.000222
0.000235
0.000255
0.000258
0.000260
0.000264
0.000484
0.000231
0.000261
0.000697
0.000348
0.000455
0.000274
0.000254
0.000189
0.000055
0.000208
0.000209
0.000244
0.000238
0.000256
0.000244
0.000331
0.000489
0.000549
0.000392
0.000220
0.000253
0.000273
0.000277
0.000281
0.000225
0.000247
0.000245
0.000249
0.000277
0.000524
0.000533
0.000423
0.000272
0.000442
0.000348
0.000478
0.000214
0.000245
0.000450
0.000376
0.000056
0.000261
0.000214
0.000480
0.000199
0.000244
0.000224
0.000242
0.000256
0.000241
0.000231
0.000270
0.000545
0.000289
0.000319
0.000229
0.000213
0.000275
0.000223
0.000268
0.000272
0.000269
0.000261
0.000247
0.000270
0.000429
0.000424
0.000430
0.000256
0.000254
0.000261
0.000222
0.000056
0.000192
0.000217
0.000232
0.000246
0.000248
0.000250
0.000409
0.000416
0.000428
0.000265
0.000347
0.000249
0.000212
0.000271
0.000257
0.000239
0.000246
0.000258
0.000335
0.000384
0.000548
0.000298
0.000428
0.000333
0.000388
0.000393
0.000381
0.000252
0.000227
0.000299
0.000458
0.000057
0.000203
0.000251
0.000212
0.000243
0.000254
0.000263
0.000256
0.000237
0.000256
0.000255
0.000244
0.000382
0.000513
0.000288
0.000353
0.000272
0.000227
0.000266
0.000285
0.000225
0.000241
0.000254
0.000270
0.000276
0.000274
0.000330
0.000499
0.000479
0.000234
0.000279
0.000212
0.000056
0.000213
0.000207
0.000253
0.000244
0.000252
0.000315
0.000530
0.000540
0.000634
0.000470
0.000197
0.000196
0.000206
0.000281
0.000225
0.000254
0.000286
0.000262
0.000485
0.000603
0.001458
0.000249
0.000259
0.000256
0.000305
0.000245
0.000376
0.000386
0.000425
0.000272
0.000175
0.000056
0.000213
0.000177
0.000242
0.000242
0.000238
0.000263
0.000268
0.000248
0.000261
0.000361
0.000351
0.000364
0.000274
0.000386
0.000389
0.000331
0.000233
0.000203
0.000244
0.000269
0.000239
0.000248
0.000278
0.000274
0.000345
0.000543
0.000343
0.000263
0.000229
0.000252
0.000196
0.000056
0.000188
0.000202
0.000258
0.000255
0.000249
0.000236
0.000467
0.000218
0.000227
0.000257
0.000240
0.000266
0.000256
0.000242
0.000251
0.000269
0.000270
0.000258
0.000284
0.000252
0.000249
0.000309
0.000304
0.000225
0.000261
0.000269
0.000290
0.000259
0.000251
0.000274
0.000206
0.000057
0.000200
0.000204
0.000323
0.000468
0.000377
0.000224
0.000206
0.000222
0.000268
0.000250
0.000243
0.000255
0.000264
0.000259
0.000243
0.000243
0.000250
0.000264
0.000268
0.000350
0.000507
0.000332
0.000229
0.000258
0.000273
0.000249
0.000269
0.000260
0.000267
0.000274
0.000229
0.000056
0.000337
0.000399
0.000392
0.000211
0.000240
0.000265
0.000480
0.000195
0.000211
0.000232
0.000288
0.000330
0.000423
0.000390
0.001766
0.000254
0.000248
0.000243
0.000280
0.000246
0.000343
0.000581
0.000414
0.000390
0.000209
0.000245
0.000275
0.000419
0.000286
0.000283
0.000183
0.000057
0.000214
0.000363
0.000337
0.000249
0.000514
0.000207
0.000221
0.000258
0.000244
0.000239
0.000266
0.000239
0.000267
0.000295
0.000492
0.000444
0.000237
0.000227
0.000235
0.000273
0.000244
0.000315
0.000255
0.000263
0.000286
0.000482
0.000456
0.000459
0.000432
0.000243
0.000195
0.000056
0.000222
0.000223
0.000216
0.000241
0.000248
0.000249
0.000263
0.000267
0.000349
0.000442
0.000368
0.000380
0.000222
0.000215
0.000264
0.000295
0.000308
0.000235
0.000273
0.000272
0.000244
0.000347
0.000441
0.000359
0.000284
0.000288
0.000231
0.000538
0.000385
0.000266
0.000172
0.000055
0.000182
0.000235
0.000336
0.000406
0.000380
0.000225
0.000218
0.000248
0.000262
0.000251
0.000272
0.000255
0.000236
0.000241
0.000257
0.000282
0.000448
0.000337
0.000282
0.000380
0.000455
0.000227
0.000276
0.000294
0.000292
0.000276
0.000265
0.000253
0.000471
0.000566
0.000176
0.000056
0.000205
0.000201
0.000240
0.000245
0.000246
0.000496
0.000216
0.000226
0.000278
0.000317
0.000549
0.000521
0.000252
0.000225
0.000254
0.000239
0.000247
0.000249
0.000260
0.000249
0.000250
0.000274
0.000306
0.000588
0.000330
0.000331
0.000343
0.000334
0.000305
0.000223
0.000157
0.000058
0.000200
0.000208
0.000234
0.000486
0.000356
0.000349
0.000253
0.000215
0.000211
0.000225
0.000260
0.000250
0.000250
0.000252
0.000356
0.000185
0.000227
0.000249
0.000252
0.000574
0.000499
0.000277
0.000205
0.000217
0.000286
0.000271
0.000260
0.000265
0.000257
0.000260
0.000220
0.000056
0.000347
0.000328
0.000489
0.000213
0.000209
0.000213
0.000321
0.000499
0.000286
0.000193
0.000219
0.000264
0.000288
0.000425
0.000489
0.000294
0.000215
0.000206
0.000301
0.000206
0.000261
0.000269
0.000255
0.000278
0.000261
0.000316
0.000403
0.000412
0.000363
0.000223
0.000155
0.000057
0.000215
0.000214
0.000227
0.000253
0.000253
0.000264
0.000234
0.000258
0.000254
0.000239
0.000274
0.000233
0.000260
0.001465
0.000259
0.000215
0.000258
0.000250
0.000275
0.000282
0.000259
0.000247
0.000265
0.000259
0.000260
0.000269
0.000274
0.000279
0.000261
0.000256
0.000223
0.000057
0.000193
0.000212
0.000233
0.000244
0.000271
0.000216
0.000256
0.000261
0.000231
0.000249
0.000247
0.000255
0.000260
0.000253
0.000258
0.000268
0.000232
0.000261
0.000279
0.000245
0.000265
0.000257
0.000250
0.000251
0.001359
0.000275
0.000507
0.000540
0.000302
0.000227
0.000150
0.000057
0.000195
0.000205
0.000237
0.000244
0.000513
0.000225
0.000196
0.000215
0.000258
0.000320
0.000559
0.000340
0.000211
0.000212
0.000221
0.000259
0.000258
0.000264
0.000250
0.000257
0.000260
0.000257
0.000302
0.000386
0.000535
0.000417
0.000240
0.000254
0.001363
0.000292
0.000169
0.000057
0.000287
0.000429
0.000346
0.000249
0.000198
0.000203
0.000236
0.000225
0.000266
0.000262
0.000247
0.000251
0.000264
0.000330
0.000553
0.000404
0.000281
0.000248
0.000234
0.000234
0.000271
0.000255
0.000276
0.000263
0.000267
0.000263
0.000324
0.000549
0.000424
0.000380
0.000150
0.000056
0.000182
0.000237
0.001313
0.000352
0.000389
0.000415
0.000349
0.000298
0.000436
0.000394
0.000232
0.000197
0.000236
0.000259
0.000263
0.000252
0.000266
0.000715
0.000351
0.000263
0.000267
0.000249
0.000250
0.000518
0.000236
0.000247
0.000262
0.000285
0.000275
0.000584
0.000311
0.000056
0.000324
0.000386
0.000225
0.000198
0.001642
0.000422
0.000318
0.000217
0.000201
0.000245
0.000230
0.000228
0.000248
0.000263
0.000259
0.000282
0.000211
0.000323
0.000446
0.000414
0.000416
0.000216
0.000247
0.000209
0.000261
0.000275
0.000273
0.000246
0.000253
0.000267
0.000221
0.000056
0.000343
0.000324
0.000242
0.000225
0.000235
0.000242
0.000250
0.000246
0.000240
0.000259
0.001521
0.000415
0.000253
0.000213
0.000213
0.000240
0.000269
0.000272
0.000228
0.000268
0.000281
0.000256
0.000249
0.000451
0.000414
0.000455
0.000218
0.000286
0.000242
0.000295
0.000185
0.000056
0.000190
0.000468
0.000203
0.000213
0.000412
0.000382
0.000345
0.000326
0.000455
0.000219
0.000201
0.000250
0.000263
0.000265
0.000272
0.001455
0.000304
0.000286
0.000246
0.000276
0.000289
0.000236
0.000259
0.000250
0.000258
0.000274
0.000412
0.000491
0.000302
0.000284
0.000144
0.000057
0.000192
0.000221
0.000238
0.000243
0.000245
0.000243
0.000243
0.000247
0.000251
0.000463
0.000433
0.000314
0.000205
0.000209
0.000236
0.000269
0.000272
0.000271
0.000269
0.000223
0.000269
0.000252
0.001377
0.000231
0.000272
0.000222
0.000219
0.000273
0.000255
0.000260
0.000200
0.000057
0.000213
0.000471
0.000277
0.000324
0.000233
0.000218
0.000252
0.000241
0.000256
0.000247
0.000266
0.000261
0.000238
0.000257
0.000259
0.000257
0.000266
0.000264
0.000271
0.000255
0.000241
0.000275
0.000279
0.000276
0.000287
0.000266
0.000298
0.000221
0.000270
0.000512
0.001317
0.000056
0.000189
0.000223
0.000221
0.000237
0.000259
0.000263
0.000245
0.000224
0.000244
0.000247
0.000268
0.000267
0.000254
0.000246
0.000239
0.001724
0.000363
0.000212
0.000202
0.000236
0.000244
0.000255
0.000275
0.000263
0.000254
0.000275
0.000281
0.000268
0.000262
0.000281
0.000244
0.000055
0.000278
0.000347
0.001313
0.000206
0.000213
0.000238
0.000232
0.000253
0.000253
0.000259
0.000238
0.000388
0.000369
0.000514
0.000241
0.000211
0.000210
0.000252
0.000258
0.000327
0.000185
0.000259
0.000272
0.000284
0.000270
0.000411
0.000401
0.000346
0.000276
0.000258
0.000189
0.000057
0.000218
0.000215
0.000226
0.000249
0.000249
0.000243
0.000228
0.000300
0.000374
0.000435
0.001186
0.000224
0.000218
0.000266
0.000262
0.000263
0.000269
0.000242
0.000335
0.000458
0.000345
0.000276
0.000225
0.000248
0.000254
0.000270
0.000268
0.000303
0.000264
0.000273
0.000221
0.000057
0.000300
0.000404
0.000367
0.000222
0.000207
0.000198
0.000240
0.000269
0.000270
0.000266
0.000223
0.000248
0.000541
0.000473
0.000472
0.001511
0.000190
0.000272
0.000316
0.000359
0.000419
0.000426
0.000487
0.000381
0.000223
0.000256
0.000267
0.000282
0.000276
0.000281
0.000199
0.000058
0.000206
0.000273
0.000487
0.000505
0.000260
0.000209
0.000243
0.000230
0.000252
0.000253
0.000249
0.000263
0.000261
0.000248
0.000265
0.000301
0.000448
0.000427
0.000293
0.001358
0.000244
0.000245
0.000241
0.000264
0.000535
0.000435
0.000387
0.000221
0.000230
0.000271
0.000216
0.000057
0.000185
0.000213
0.000242
0.000241
0.000242
0.000295
0.000446
0.000372
0.000384
0.000228
0.000222
0.000253
0.000277
0.000252
0.000259
0.000259
0.000271
0.000269
0.000254
0.000300
0.000542
0.000410
0.000326
0.001344
0.000333
0.000238
0.000297
0.000429
0.000411
0.000370
0.000332
0.000057
0.000194
0.000194
0.000279
0.000217
0.000253
0.000252
0.001696
0.000257
0.000230
0.000202
0.000252
0.000267
0.000327
0.000321
0.000327
0.000280
0.000238
0.000351
0.000504
0.000396
0.000278
0.000279
0.000220
0.000229
0.001432
0.000473
0.000412
0.000444
0.000310
0.000301
0.000157
0.000056
0.000213
0.000209
0.000258
0.000264
0.000250
0.000250
0.001781
0.000219
0.000235
0.000251
0.000391
0.000410
0.001433
0.000337
0.000414
0.000211
0.000206
0.000227
0.000266
0.000267
0.001630
0.000627
0.000331
0.000285
0.000217
0.000221
0.000246
0.000272
0.000253
0.000253
0.000202
0.000056
0.000224
0.000190
0.000261
0.000250
0.000266
0.000268
0.000279
0.000252
0.000256
0.000254
0.000254
0.000249
0.000258
0.000264
0.000252
0.001512
0.000283
0.000227
0.000254
0.000284
0.000266
0.000261
0.000430
0.001282
0.000264
0.000265
0.000240
0.000254
0.000472
0.000210
0.000176
0.000058
0.000191
0.000220
0.000229
0.000245
0.000247
0.000226
0.000232
0.001764
0.000220
0.000223
0.000217
0.000361
0.000244
0.000227
0.001464
0.000229
0.000218
0.000211
0.000268
0.000240
0.000265
0.000307
0.000341
0.001364
0.000271
0.000252
0.000210
0.000245
0.001397
0.000264
0.000209
0.000055
0.000283
0.000322
0.000207
0.000199
0.000253
0.000237
0.000261
0.000270
0.000264
0.000255
0.000256
0.000260
0.000254
0.000254
0.000312
0.001497
0.000246
0.000257
0.000264
0.000246
0.000281
0.000261
0.000287
0.001472
0.000346
0.000242
0.000258
0.001358
0.000230
0.000239
0.000224
0.000056
0.000208
0.000366
0.000325
0.000205
0.000220
0.000235
0.000257
0.000267
0.000265
0.000265
0.000232
0.000254
0.000260
0.000299
0.000441
0.001246
0.000214
0.000209
0.000252
0.000279
0.000249
0.000220
0.000253
0.001305
0.000373
0.000234
0.000248
0.000206
0.000243
0.001350
0.000372
0.000057
0.000264
0.000276
0.000219
0.000198
0.000228
0.000249
0.000255
0.000240
0.000288
0.000244
0.000236
0.000244
0.000271
0.000293
0.000433
0.001485
0.000238
0.000223
0.000307
0.000504
0.000315
0.000380
0.001335
0.000302
0.000259
0.000243
0.001290
0.000346
0.000318
0.000455
0.000293
0.000056
0.000209
0.000221
0.000281
0.000232
0.000246
0.000262
0.000272
0.000244
0.000264
0.000260
0.000373
0.000449
0.001376
0.000213
0.000235
0.000258
0.000280
0.000265
0.000217
0.000210
0.000355
0.001301
0.000235
0.000238
0.000214
0.000247
0.001530
0.000423
0.000489
0.000222
0.000182
0.000058
0.000212
0.000220
0.000224
0.000228
0.000251
0.000262
0.000244
0.000315
0.000444
0.000410
0.000322
0.001451
0.000227
0.000210
0.000269
0.000258
0.000261
0.000308
0.001639
0.000343
0.000344
0.000344
0.001284
0.000418
0.000341
0.000312
0.000221
0.000223
0.000233
0.000268
0.000213
0.000057
0.000196
0.000247
0.000278
0.000295
0.000231
0.000597
0.000293
0.000332
0.001478
0.000281
0.000340
0.000251
0.000209
0.000313
0.000350
0.001391
0.000250
0.000221
0.000239
0.000224
0.000296
0.001610
0.000374
0.000261
0.000237
0.000209
0.000507
0.000325
0.000222
0.000238
0.000255
0.000056
0.000256
0.000360
0.000370
0.000273
0.000201
0.001470
0.000241
0.000227
0.000250
0.000275
0.000272
0.000239
0.000305
0.001486
0.000268
0.000226
0.000441
0.001253
0.000303
0.000447
0.000384
0.000214
0.000244
0.000243
0.000266
0.000274
0.000444
0.000233
0.000243
0.000280
0.000217
0.000058
0.000205
0.000287
0.000284
0.001471
0.000267
0.000211
0.000283
0.000255
0.000234
0.000256
0.000240
0.000267
0.001644
0.000214
0.000223
0.000227
0.001357
0.000348
0.000454
0.000418
0.000367
0.000207
0.000223
0.000268
0.000347
0.000252
0.000210
0.000271
0.000233
0.000255
0.000209
0.000057
0.000227
0.000403
0.001417
0.000236
0.000231
0.000274
0.000251
0.000249
0.000321
0.000387
0.001329
0.000250
0.000326
0.000226
0.000206
0.001380
0.000623
0.000296
0.000322
0.000388
0.000335
0.000243
0.000223
0.000227
0.000269
0.000287
0.000279
0.000371
0.000404
0.000456
0.001379
0.000057
0.000201
0.000243
0.000219
0.000207
0.000257
0.000399
0.001567
0.000282
0.000220
0.000214
0.000243
0.001389
0.000475
0.000351
0.000434
0.000250
0.000229
0.000211
0.000230
0.000275
0.000267
0.000262
0.000277
0.000256
0.000246
0.000275
0.000455
0.000527
0.001452
0.000261
0.000195
0.000058
0.000179
0.000222
0.000326
0.000656
0.001148
0.000287
0.000259
0.000236
0.000255
0.000249
0.000252
0.000270
0.000340
0.000581
0.000296
0.000228
0.000233
0.000285
0.000231
0.000270
0.000275
0.000259
0.000256
0.000264
0.000263
0.000337
0.000535
0.000358
0.000312
0.001478
0.000141
0.000057
0.000202
0.000206
0.000261
0.000484
0.000328
0.000321
0.000294
0.000315
0.000285
0.000256
0.000258
0.000267
0.000241
0.000309
0.000247
0.000445
0.000422
0.000298
0.000318
0.000356
0.000286
0.000464
0.000251
0.000233
0.000208
0.000238
0.000261
0.000280
0.000329
0.000525
0.000325
0.000055
0.000222
0.001360
0.000274
0.000329
0.000410
0.000463
0.000351
0.000284
0.000233
0.000206
0.000245
0.000265
0.000251
0.000271
0.000264
0.000255
0.000271
0.001462
0.000216
0.000221
0.000231
0.000258
0.000280
0.000275
0.000268
0.000251
0.000272
0.000250
0.000305
0.000431
0.000591
0.000057
0.000229
0.000255
0.000224
0.001521
0.000339
0.000213
0.000219
0.000197
0.000229
0.000237
0.000258
0.000274
0.000254
0.000241
0.000268
0.000271
0.000242
0.000259
0.000262
0.000254
0.001445
0.000268
0.000225
0.000332
0.000223
0.000226
0.000238
0.000264
0.000288
0.000501
0.000379
0.000056
0.000198
0.000226
0.000413
0.000267
0.000220
0.000251
0.001602
0.000293
0.000325
0.000202
0.000235
0.000402
0.000274
0.000216
0.000211
0.000252
0.000246
0.000261
0.000254
0.000258
0.000521
0.000486
0.001184
0.000266
0.000214
0.000235
0.000247
0.000258
0.000265
0.000269
0.000324
0.000058
0.000244
0.000349
0.000196
0.000201
0.000245
0.000242
0.000243
0.000221
0.001467
0.000525
0.000342
0.000294
0.000225
0.000225
0.000227
0.000248
0.000241
0.000285
0.000258
0.000309
0.000309
0.000544
0.000387
0.001389
0.000241
0.000242
0.000272
0.000258
0.000276
0.000276
0.000489
0.000056
0.000265
0.000232
0.000218
0.000233
0.000235
0.000225
0.000266
0.000243
0.000272
0.001590
0.000335
0.000255
0.000273
0.000256
0.000461
0.000306
0.000399
0.000472
0.000334
0.000315
0.000453
0.000446
0.001318
0.000232
0.000225
0.000231
0.001826
0.000355
0.000641
0.000289
0.000133
0.000059
0.000202
0.000234
0.000201
0.000241
0.000246
0.000248
0.000357
0.000417
0.000576
0.000353
0.000296
0.000210
0.000212
0.000249
0.000259
0.000263
0.000256
0.000256
0.000249
0.000263
0.000293
0.000400
0.001357
0.000254
0.000218
0.000264
0.001899
0.000389
0.000454
0.000283
0.000177
0.000056
0.000252
0.000200
0.000243
0.001626
0.000336
0.000256
0.000220
0.000267
0.000254
0.000333
0.000363
0.000379
0.000355
0.000304
0.000403
0.000420
0.000308
0.001284
0.000270
0.000205
0.000239
0.000236
0.000365
0.000385
0.000656
0.000427
0.000223
0.000216
0.000259
0.000280
0.000212
0.000057
0.000188
0.000203
0.001472
0.000403
0.000205
0.000206
0.000210
0.000255
0.000246
0.000253
0.000241
0.000277
0.000269
0.000274
0.000256
0.000528
0.000332
0.000304
0.001380
0.000286
0.000210
0.000257
0.000259
0.000262
0.000319
0.000570
0.000435
0.000295
0.000295
0.000246
0.000400
0.000056
0.000202
0.000194
0.000255
0.000258
0.001593
0.000232
0.000244
0.000241
0.000256
0.000261
0.000257
0.000272
0.000244
0.000241
0.000365
0.000689
0.001350
0.000734
0.000221
0.000332
0.000259
0.000225
0.000205
0.000270
0.001768
0.000728
0.000251
0.000242
0.000269
0.000290
0.000226
0.000056
0.000193
0.000205
0.000251
0.000227
0.000252
0.000251
0.000249
0.000254
0.000251
0.000221
0.000279
0.000282
0.000272
0.000234
0.000262
0.000253
0.000268
0.001615
0.000700
0.000414
0.000302
0.000219
0.000228
0.000269
0.000274
0.000262
0.000267
0.000283
0.001471
0.000354
0.000333
0.000055
0.000203
0.000199
0.000240
0.000247
0.000261
0.000233
0.000251
0.000253
0.000254
0.000269
0.000264
0.000458
0.000448
0.000329
0.000211
0.000216
0.000270
0.001467
0.000680
0.000421
0.000309
0.000320
0.000216
0.000216
0.000272
0.000266
0.000256
0.000258
0.001507
0.000426
0.000249
0.000056
0.000187
0.000202
0.000228
0.000243
0.000248
0.000247
0.000247
0.000254
0.000264
0.000255
0.000415
0.000441
0.000231
0.000236
0.000218
0.000249
0.000260
0.000259
0.001594
0.000594
0.000479
0.000354
0.000226
0.000231
0.000256
0.000262
0.000266
0.000272
0.000276
0.001471
0.000275
0.000056
0.000193
0.000213
0.000209
0.000257
0.000255
0.000243
0.000294
0.000350
0.000367
0.000443
0.000337
0.000392
0.000325
0.000236
0.000215
0.000233
0.000274
0.000256
0.001402
0.000892
0.000316
0.000202
0.000470
0.000210
0.000223
0.000240
0.000275
0.000299
0.000242
0.000262
0.000450
0.000056
0.000225
0.000246
0.000210
0.000227
0.000254
0.000258
0.000232
0.000222
0.000260
0.000262
0.000251
0.000234
0.000271
0.000480
0.000482
0.000416
0.000216
0.000261
0.000255
0.000245
0.000249
0.000379
0.001387
0.001046
0.000251
0.000218
0.000273
0.000262
0.000278
0.000249
0.000213
0.000057
0.000203
0.001384
0.000268
0.000210
0.000202
0.000244
0.000249
0.000243
0.000261
0.000229
0.000248
0.000269
0.000241
0.000452
0.000304
0.000389
0.000382
0.000216
0.000256
0.000262
0.000273
0.000239
0.000249
0.000262
0.001409
0.000686
0.000303
0.000414
0.000369
0.000396
0.000251
0.000056
0.000221
0.000261
0.000337
0.001267
0.000228
0.000276
0.000195
0.000244
0.000275
0.000231
0.000324
0.000185
0.000269
0.000387
0.000535
0.000357
0.000209
0.000301
0.000271
0.000236
0.000222
0.000271
0.000239
0.000269
0.000263
0.001537
0.000739
0.000306
0.000283
0.000261
0.000236
0.000055
0.000198
0.000225
0.000448
0.000407
0.001293
0.000252
0.000195
0.000201
0.000239
0.000246
0.000241
0.000254
0.000247
0.000222
0.000258
0.000250
0.000269
0.000243
0.000254
0.000259
0.000256
0.000273
0.000348
0.000297
0.000222
0.000253
0.000264
0.001549
0.000223
0.000232
0.000164
0.000056
0.000214
0.000194
0.000247
0.000344
0.000347
0.000337
0.000406
0.000250
0.001546
0.000253
0.000288
0.000480
0.000393
0.000219
0.000495
0.000215
0.000223
0.000216
0.000263
0.000266
0.000294
0.000261
0.000254
0.000272
0.000274
0.000402
0.000447
0.000338
0.001519
0.000256
0.000164
0.000056
0.000229
0.000213
0.000248
0.000242
0.000248
0.000235
0.000277
0.000337
0.000403
0.002074
0.000213
0.000205
0.000242
0.000260
0.000263
0.000332
0.000257
0.000217
0.000253
0.000409
0.000390
0.000447
0.001511
0.000223
0.000222
0.000505
0.001764
0.000288
0.000260
0.001476
0.000198
0.000056
0.000296
0.000388
0.000490
0.000222
0.000267
0.000224
0.000254
0.000265
0.000281
0.000220
0.000249
0.000344
0.000396
0.000351
0.000467
0.000258
0.000206
0.001550
0.000487
0.001994
0.000315
0.000252
0.001417
0.000373
0.002019
0.000727
0.000277
0.000218
0.000245
0.000449
0.000428
0.000056
0.000209
0.000209
0.000249
0.000253
0.001486
0.001674
0.001066
0.000238
0.000200
0.001585
0.001980
0.000241
0.000315
0.000406
0.000344
0.000397
0.000301
0.000400
0.000255
0.000218
0.000256
0.000253
0.000267
0.001564
0.002491
0.000335
0.000192
0.000230
0.000261
0.000304
0.000361
0.000058
0.000204
0.000240
0.000209
0.000238
0.000235
0.000225
0.000258
0.000257
0.000246
0.000252
0.000248
0.000296
0.000477
0.000510
0.000279
0.000225
0.000209
0.000274
0.000259
0.000265
0.000255
0.001399
0.000484
0.000421
0.002071
0.000263
0.000228
0.000338
0.000496
0.000405
0.000168
0.000057
0.000210
0.000347
0.000426
0.000310
0.000227
0.000205
0.000248
0.000250
0.000243
0.000234
0.000251
0.000265
0.000261
0.001616
0.001423
0.001224
0.000276
0.000225
0.000222
0.000230
0.000281
0.000287
0.000241
0.000250
0.002271
0.000222
0.000229
0.000277
0.000325
0.000299
0.000249
0.000056
0.000205
0.000369
0.000604
0.000319
0.000211
0.000234
0.000191
0.000257
0.001902
0.001432
0.000257
0.000376
0.000392
0.000361
0.000261
0.000217
0.000217
0.000267
0.000271
0.000258
0.000259
0.000263
0.000488
0.000254
0.000231
0.000290
0.000237
0.000272
0.000284
0.000256
0.000216
0.000056
0.000213
0.000197
0.000240
0.000254
0.000241
0.000270
0.001550
0.001482
0.001331
0.000219
0.000213
0.000212
0.000256
0.000265
0.000249
0.000248
0.000254
0.002188
0.000205
0.000218
0.000237
0.000262
0.000264
0.000269
0.000273
0.000241
0.000267
0.000265
0.000273
0.000268
0.000177
0.000056
0.001503
0.000310
0.002389
0.000267
0.000277
0.000296
0.000237
0.000262
0.000264
0.000238
0.000259
0.000255
0.000224
0.000249
0.000262
0.000279
0.000244
0.000273
0.000257
0.000273
0.000254
0.000280
0.000277
0.000278
0.000241
0.000253
0.000249
0.000275
0.000262
0.000273
0.000395
0.000056
0.000187
0.002555
0.000333
0.000209
0.000197
0.000203
0.000251
0.000251
0.000269
0.000269
0.000414
0.000336
0.000341
0.000251
0.000215
0.002230
0.000206
0.000233
0.000226
0.000501
0.000409
0.000295
0.000233
0.000221
0.000265
0.000239
0.000268
0.000281
0.000271
0.001693
0.001208
0.000057
0.000208
0.000216
0.000303
0.000371
0.000344
0.000283
0.000232
0.000216
0.000244
0.000257
0.000267
0.000272
0.000203
0.000255
0.000273
0.000247
0.000308
0.000662
0.000361
0.000245
0.000221
0.000238
0.000273
0.000263
0.000258
0.000245
0.000251
0.000281
0.000239
0.000326
0.000433
0.000057
0.001117
0.000268
0.000347
0.000406
0.000341
0.000192
0.000201
0.000226
0.002283
0.000396
0.000326
0.000352
0.000204
0.000278
0.000329
0.000263
0.000277
0.000247
0.000266
0.000242
0.000240
0.000273
0.000680
0.000458
0.001814
0.001314
0.000593
0.000474
0.000232
0.000243
0.000218
0.000057
0.000342
0.000243
0.000265
0.000212
0.000238
0.000243
0.000235
0.000240
0.000268
0.000238
0.000263
0.000244
0.000248
0.000242
0.000381
0.000536
0.001919
0.001298
0.000485
0.000366
0.000409
0.000260
0.000225
0.000250
0.002229
0.000462
0.000374
0.000249
0.000272
0.000278
0.000216
0.000057
0.000187
0.000224
0.000249
0.000248
0.000244
0.000369
0.000420
0.000350
0.000258
0.000247
0.000224
0.000279
0.000236
0.002103
0.000357
0.000387
0.000236
0.000229
0.000278
0.000258
0.000237
0.002484
0.000347
0.000224
0.000230
0.000259
0.000242
0.000272
0.000272
0.000288
0.000210
0.000055
0.000215
0.000393
0.000545
0.000358
0.000232
0.000210
0.000199
0.000242
0.000261
0.000264
0.002149
0.000269
0.000266
0.000257
0.000207
0.000228
0.000273
0.000251
0.002278
0.000372
0.000219
0.000272
0.000269
0.000257
0.000260
0.000261
0.000269
0.000253
0.000267
0.000274
0.000191
0.000056
0.000205
0.000225
0.000237
0.000220
0.000250
0.000255
0.000238
0.000250
0.000226
0.002188
0.000250
0.000277
0.000197
0.000491
0.000214
0.000213
0.000254
0.000285
0.000258
0.000262
0.002039
0.000240
0.000377
0.000369
0.000487
0.000349
0.000284
0.000249
0.000228
0.000244
0.000217
0.000057
0.000173
0.000249
0.000205
0.000250
0.000244
0.000385
0.000206
0.002332
0.000209
0.000237
0.000212
0.000263
0.000236
0.000239
0.000306
0.002213
0.000518
0.000215
0.000249
0.000262
0.000242
0.000261
0.000284
0.000274
0.000270
0.000241
0.000287
0.000263
0.000273
0.000319
0.000151
0.000057
0.000197
0.003001
0.000260
0.000200
0.000243
0.000247
0.000252
0.000256
0.000426
0.000430
0.002093
0.000257
0.000241
0.000256
0.000291
0.000584
0.000361
0.000306
0.000223
0.000212
0.000242
0.000252
0.000269
0.000233
0.000246
0.000273
0.000265
0.000286
0.000299
0.000673
0.000335
0.000057
0.000194
0.000287
0.000251
0.000218
0.000235
0.000264
0.000232
0.000245
0.001551
0.002133
0.000506
0.000276
0.000446
0.000731
0.000351
0.000198
0.000220
0.000236
0.000263
0.000259
0.000266
0.000243
0.000240
0.000285
0.001831
0.001449
0.000276
0.000277
0.000291
0.000318
0.000417
0.000057
0.001930
0.000237
0.000230
0.000207
0.000293
0.000350
0.000479
0.000293
0.000307
0.000242
0.000219
0.000218
0.000240
0.000255
0.000270
0.000260
0.000256
0.000267
0.001914
0.000206
0.000224
0.000225
0.000268
0.000280
0.000279
0.000251
0.001546
0.000341
0.000217
0.000237
0.000152
0.000057
0.000201
0.000207
0.000223
0.000246
0.000254
0.000237
0.000330
0.000342
0.000367
0.000407
0.000207
0.000207
0.000331
0.000347
0.000361
0.000327
0.000243
0.000197
0.000257
0.000354
0.000566
0.000418
0.000230
0.000222
0.000247
0.000248
0.000256
0.000267
0.000286
0.000255
0.000220
0.000058
0.001405
0.000402
0.000231
0.002060
0.000214
0.000419
0.000368
0.000381
0.000203
0.000210
0.000257
0.000247
0.000263
0.000229
0.000274
0.000275
0.000442
0.000260
0.000447
0.000380
0.000341
0.000232
0.000236
0.000262
0.000339
0.000254
0.000213
0.000266
0.000325
0.000543
0.001372
0.000057
0.000208
0.000211
0.002131
0.000241
0.000278
0.000269
0.000253
0.000256
0.000265
0.000256
0.000236
0.000229
0.000257
0.000262
0.000271
0.000344
0.000723
0.001733
0.000254
0.000241
0.000263
0.000260
0.000348
0.000574
0.001471
0.000272
0.000358
0.002023
0.000228
0.000235
0.000195
0.000057
0.000187
0.000201
0.000230
0.000259
0.000209
0.000263
0.000243
0.000280
0.000343
0.000300
0.000388
0.000360
0.000335
0.000295
0.000221
0.000246
0.000267
0.000238
0.000254
0.000277
0.000277
0.000325
0.000233
0.000273
0.000273
0.001573
0.000290
0.000404
0.001992
0.000258
0.000167
0.000057
0.000197
0.000216
0.000231
0.000246
0.000465
0.000224
0.000251
0.000348
0.000416
0.000328
0.000229
0.000215
0.000248
0.000275
0.000277
0.000329
0.000504
0.000339
0.000275
0.000672
0.000416
0.000353
0.001500
0.000261
0.000242
0.002040
0.000349
0.000218
0.000220
0.000246
0.000209
0.000056
0.000212
0.000216
0.000240
0.000216
0.000247
0.000270
0.000260
0.000264
0.000252
0.000252
0.001893
0.000281
0.000404
0.000320
0.000462
0.000361
0.001507
0.000348
0.000221
0.000305
0.002087
0.000568
0.000242
0.000231
0.000232
0.000258
0.000494
0.000240
0.000234
0.000297
0.000206
0.000057
0.000251
0.000335
0.000406
0.000251
0.000230
0.000199
0.000258
0.000246
0.000267
0.000304
0.000225
0.000243
0.000266
0.000244
0.000419
0.000481
0.001249
0.000254
0.000320
0.002024
0.000287
0.000259
0.000225
0.000247
0.000244
0.000270
0.000269
0.000266
0.000239
0.000282
0.000212
0.000057
0.000242
0.000352
0.002082
0.000223
0.000237
0.000230
0.000210
0.000318
0.000410
0.001522
0.000324
0.000373
0.000338
0.001997
0.000233
0.000225
0.000266
0.000274
0.000264
0.000239
0.000280
0.000295
0.000266
0.000299
0.000572
0.000367
0.000339
0.002162
0.000699
0.000261
0.000467
0.000056
0.000198
0.000214
0.000213
0.002042
0.000197
0.000219
0.000235
0.000263
0.000201
0.000253
0.000244
0.000261
0.000253
0.000358
0.000420
0.000367
0.001305
0.000237
0.000270
0.000257
0.000238
0.000247
0.000261
0.000261
0.000321
0.000503
0.000476
0.000231
0.001664
0.000224
0.000161
0.000056
0.000201
0.000207
0.000218
0.000233
0.000250
0.000261
0.000256
0.000242
0.000277
0.000335
0.000425
0.001446
0.000210
0.000208
0.000210
0.000257
0.000259
0.000268
0.000279
0.000529
0.000404
0.000440
0.000219
0.001558
0.000290
0.000229
0.000258
0.000271
0.000276
0.000260
0.000214
0.000057
0.000204
0.000204
0.000259
0.000261
0.000251
0.000239
0.000250
0.000228
0.000261
0.000250
0.000248
0.000249
0.000260
0.000255
0.001578
0.000239
0.000236
0.000276
0.000330
0.000326
0.000357
0.000270
0.000214
0.000249
0.000250
0.000257
0.001494
0.000290
0.000224
0.000230
0.000142
0.000058
0.000203
0.000217
0.000239
0.000261
0.000315
0.000200
0.000229
0.000263
0.000220
0.000262
0.000233
0.000261
0.000233
0.000305
0.000484
0.000267
0.000277
0.001582
0.000337
0.000218
0.000216
0.000234
0.000249
0.000276
0.000479
0.000415
0.000410
0.000239
0.000232
0.001631
0.000153
0.000057
0.000318
0.000378
0.000417
0.000223
0.000219
0.000196
0.000232
0.000275
0.000253
0.000241
0.000237
0.000242
0.001500
0.000291
0.000304
0.000235
0.000202
0.000260
0.000267
0.000270
0.000258
0.000235
0.000255
0.000263
0.000268
0.000336
0.000504
0.000445
0.000221
0.000237
0.000185
0.000057
0.000220
0.000288
0.000451
0.000309
0.000356
0.000255
0.000230
0.000232
0.000250
0.000255
0.000249
0.000217
0.000264
0.000246
0.001375
0.000239
0.000218
0.000232
0.000253
0.000254
0.000251
0.000256
0.000263
0.000252
0.000252
0.000256
0.000289
0.000777
0.000399
0.000246
0.000178
0.000057
0.000191
0.001536
0.000269
0.000339
0.000432
0.000405
0.000193
0.000246
0.000258
0.000250
0.000238
0.000264
0.000273
0.000274
0.000262
0.001532
0.000253
0.000277
0.000275
0.000241
0.000264
0.000251
0.000265
0.000264
0.000261
0.000264
0.000428
0.000447
0.000328
0.000251
0.000142
0.000056
0.000227
0.000194
0.000251
0.001724
0.000398
0.000325
0.000223
0.000186
0.000236
0.000272
0.000272
0.000266
0.000246
0.000264
0.000237
0.000266
0.000330
0.001463
0.000219
0.000227
0.001538
0.000350
0.000520
0.000414
0.000279
0.000226
0.000260
0.000472
0.000234
0.000247
0.000206
0.000055
0.000290
0.000233
0.000200
0.000244
0.000239
0.000262
0.000239
0.000271
0.000239
0.000237
0.000265
0.000249
0.000330
0.000509
0.001637
0.001501
0.000383
0.000566
0.000265
0.000251
0.000218
0.000256
0.000255
0.000258
0.000248
0.000278
0.000245
0.000282
0.001601
0.000315
0.000137
0.000056
0.000204
0.000337
0.000351
0.000332
0.000262
0.000201
0.000216
0.000355
0.000456
0.001383
0.000353
0.001548
0.000410
0.000394
0.000482
0.000264
0.000343
0.000336
0.000347
0.000277
0.000250
0.000330
0.001569
0.000537
0.000241
0.000228
0.000264
0.000245
0.000258
0.000277
0.000207
0.000056
0.000206
0.000210
0.000253
0.000251
0.000248
0.001656
0.000960
0.000902
0.000239
0.000224
0.000257
0.000259
0.000251
0.000259
0.000257
0.000263
0.000248
0.000261
0.000265
0.000287
0.001508
0.000271
0.000250
0.000216
0.000232
0.000233
0.000265
0.000271
0.000273
0.000284
0.000217
0.000056
0.000190
0.000209
0.001532
0.000972
0.000330
0.000341
0.000228
0.000210
0.000236
0.000254
0.000244
0.000260
0.000253
0.002032
0.000481
0.000213
0.000206
0.000232
0.000268
0.000254
0.000206
