0.000110
0.020774
0.000843
0.000313
0.000243
0.000281
0.000299
0.000249
0.000333
0.000283
0.000247
0.000353
0.000475
0.000498
0.000377
0.000396
0.000262
0.000344
0.000349
0.000411
0.000325
0.001923
0.000695
0.000244
0.000263
0.000295
0.000305
0.000335
0.000434
0.000358
0.000509
0.000302
0.000057
0.000203
0.000272
0.000269
0.000263
0.000317
0.000201
0.000282
0.000259
0.000276
0.000289
0.000426
0.000454
0.000303
0.000277
0.000399
0.000302
0.000361
0.000255
0.000240
0.001699
0.000320
0.000252
0.000465
0.000227
0.000283
0.000284
0.000286
0.000293
0.000277
0.000492
0.000215
0.000056
0.000241
0.000253
0.000261
0.000263
0.000267
0.000229
0.000264
0.000255
0.000287
0.001668
0.000225
0.000238
0.000274
0.000270
0.000276
0.000249
0.000264
0.000254
0.000365
0.001788
0.000239
0.000275
0.000450
0.000470
0.000356
0.000239
0.000246
0.000553
0.000435
0.000748
0.000194
0.000056
0.000231
0.000249
0.000251
0.000242
0.000304
0.000263
0.000245
0.000626
0.000355
0.000263
0.000244
0.000251
0.000243
0.000251
0.000257
0.000257
0.000247
0.000268
0.000297
0.000330
0.001662
0.000287
0.000252
0.000409
0.000375
0.000618
0.000676
0.000523
0.000351
0.000225
0.000188
0.000056
0.000237
0.000244
0.000268
0.000238
0.000262
0.000253
0.000271
0.000662
0.001266
0.000215
0.000252
0.000237
0.000260
0.000271
0.000250
0.000286
0.000278
0.000798
0.001389
0.000283
0.000465
0.000255
0.000205
0.000246
0.000247
0.000258
0.000265
0.000271
0.000260
0.000268
0.000194
0.000057
0.000189
0.000254
0.000241
0.000264
0.000242
0.000259
0.000223
0.000252
0.000240
0.000253
0.001626
0.000268
0.000245
0.000233
0.000260
0.000243
0.000243
0.000262
0.000244
0.000257
0.000270
0.001659
0.000289
0.000253
0.000442
0.000259
0.000252
0.000254
0.000257
0.000269
0.000199
0.000055
0.000217
0.000221
0.000254
0.000246
0.000250
0.000241
0.000266
0.000255
0.000244
0.000240
0.000264
0.000252
0.000265
0.000272
0.001642
0.000273
0.000299
0.000231
0.000233
0.000279
0.000259
0.000244
0.000244
0.000260
0.001796
0.000345
0.000414
0.000321
0.000259
0.000276
0.000192
0.000056
0.000235
0.000237
0.000242
0.000261
0.000259
0.000237
0.000301
0.000400
0.000424
0.000435
0.000190
0.000257
0.000240
0.000252
0.001559
0.000526
0.000326
0.000408
0.000324
0.000226
0.000267
0.000280
0.000268
0.001872
0.000519
0.000330
0.000233
0.000263
0.000231
0.000274
0.000180
0.000056
0.000206
0.000229
0.000256
0.000275
0.000417
0.000350
0.000412
0.000251
0.000214
0.000241
0.000267
0.000237
0.000253
0.001711
0.000483
0.000302
0.000217
0.000258
0.000267
0.000283
0.000249
0.000259
0.000276
0.001878
0.000339
0.000372
0.000260
0.000239
0.000263
0.000413
0.000326
0.000057
0.000188
0.000396
0.000340
0.000296
0.000246
0.000269
0.000234
0.000260
0.000237
0.000234
0.000232
0.000248
0.001562
0.000337
0.000329
0.000218
0.000264
0.000259
0.000239
0.000282
0.000275
0.000330
0.000240
0.001820
0.000253
0.000499
0.000237
0.000246
0.000260
0.000267
0.000260
0.000056
0.000424
0.000518
0.000600
0.000220
0.000225
0.000276
0.000228
0.000218
0.000269
0.000246
0.000252
0.001708
0.000248
0.000435
0.000375
0.000224
0.000235
0.000223
0.000251
0.000269
0.000242
0.001868
0.000227
0.000253
0.002063
0.000522
0.000362
0.000248
0.000258
0.000262
0.000186
0.000056
0.000209
0.000237
0.000241
0.000243
0.000256
0.001630
0.000254
0.000218
0.000259
0.000255
0.000242
0.000240
0.000264
0.000245
0.000275
0.000446
0.000614
0.000237
0.000225
0.000272
0.000266
0.000249
0.000241
0.000443
0.000424
0.000261
0.000386
0.000516
0.000470
0.000251
0.000191
0.000055
0.000224
0.000230
0.000253
0.000255
0.000231
0.000249
0.000233
0.000434
0.000429
0.001694
0.000219
0.000227
0.000241
0.000255
0.000260
0.000266
0.000434
0.000570
0.000256
0.000253
0.000240
0.000305
0.000289
0.000298
0.000251
0.000422
0.000340
0.000599
0.000447
0.000465
0.000168
0.000056
0.000218
0.000281
0.000219
0.000219
0.000249
0.000236
0.000248
0.000250
0.000242
0.000292
0.000340
0.000397
0.001421
0.000251
0.000239
0.000246
0.000255
0.000252
0.000242
0.000256
0.000272
0.000452
0.000434
0.000256
0.000268
0.000245
0.000268
0.000260
0.000267
0.000267
0.000391
0.000055
0.000199
0.000238
0.000229
0.000265
0.000670
0.000309
0.000233
0.000251
0.000237
0.000256
0.000248
0.000240
0.000295
0.000248
0.000238
0.000476
0.000474
0.001603
0.000276
0.000226
0.000261
0.000266
0.000258
0.000238
0.000267
0.000519
0.000385
0.000375
0.000402
0.000230
0.000195
0.000056
0.000229
0.000435
0.000250
0.000194
0.000268
0.000243
0.000387
0.000477
0.000316
0.000330
0.000218
0.000276
0.000266
0.000236
0.000522
0.000352
0.000208
0.000263
0.000409
0.001629
0.000275
0.000250
0.000513
0.000233
0.000281
0.000290
0.000242
0.000412
0.000486
0.000404
0.000249
0.000056
0.000188
0.000235
0.000240
0.000239
0.000421
0.000305
0.000289
0.000222
0.000385
0.000451
0.000418
0.000257
0.000226
0.000248
0.000256
0.000268
0.000255
0.000254
0.000220
0.000360
0.000291
0.000427
0.001756
0.000240
0.000255
0.000292
0.000263
0.000350
0.000407
0.000722
0.000404
0.000056
0.000231
0.000333
0.000285
0.000420
0.000391
0.000201
0.000258
0.000310
0.000530
0.000407
0.000237
0.000238
0.000238
0.000269
0.000265
0.000232
0.000265
0.000275
0.000254
0.000262
0.000264
0.000424
0.000660
0.001325
0.000338
0.000450
0.000421
0.000232
0.000496
0.000327
0.000329
0.000056
0.000236
0.000381
0.000272
0.000216
0.000214
0.000249
0.000420
0.000241
0.000218
0.000428
0.000359
0.000433
0.000262
0.000258
0.000265
0.000247
0.000366
0.000387
0.000357
0.000239
0.000235
0.000341
0.000675
0.001684
0.000236
0.000478
0.000267
0.000247
0.000237
0.000477
0.000272
0.000055
0.000232
0.000224
0.000247
0.000249
0.000245
0.000245
0.000250
0.000325
0.000467
0.000265
0.000445
0.000438
0.000230
0.000575
0.000249
0.000233
0.000275
0.000261
0.000235
0.000360
0.000220
0.000244
0.000262
0.000383
0.000497
0.001689
0.000262
0.000240
0.000240
0.000282
0.000191
0.000055
0.000304
0.000503
0.000316
0.000226
0.000237
0.000264
0.000244
0.000236
0.000262
0.000253
0.000221
0.000261
0.000429
0.000489
0.000407
0.000280
0.000255
0.000244
0.000356
0.000378
0.000383
0.000367
0.000395
0.000324
0.000248
0.000257
0.000260
0.000271
0.001790
0.000249
0.000215
0.000056
0.000208
0.000217
0.000252
0.000287
0.000356
0.000542
0.000314
0.000207
0.000259
0.000264
0.000245
0.000252
0.000516
0.000461
0.000476
0.000285
0.000262
0.000265
0.000423
0.000472
0.000355
0.000389
0.000505
0.000442
0.000243
0.000231
0.000266
0.000246
0.000265
0.001718
0.000344
0.000056
0.000242
0.000331
0.000213
0.000229
0.000257
0.000248
0.000244
0.000499
0.000374
0.000308
0.000295
0.000283
0.000360
0.000687
0.000284
0.000229
0.000248
0.000253
0.000249
0.000271
0.000263
0.000266
0.000242
0.000270
0.000341
0.000337
0.000394
0.000366
0.000254
0.000235
0.000183
0.000055
0.000469
0.000301
0.000442
0.000251
0.000206
0.000245
0.000243
0.000254
0.000243
0.000219
0.000255
0.000279
0.000293
0.000392
0.000537
0.000437
0.000310
0.000318
0.000398
0.000330
0.000294
0.000239
0.000243
0.000258
0.001757
0.000261
0.001717
0.000949
0.000387
0.000325
0.000166
0.000055
0.000224
0.000229
0.000233
0.000244
0.000262
0.000245
0.000252
0.000250
0.000245
0.000314
0.000389
0.000413
0.000362
0.000359
0.000247
0.000249
0.000258
0.000282
0.000243
0.000230
0.000260
0.000268
0.001816
0.000236
0.000251
0.000263
0.000277
0.000263
0.001883
0.000477
0.000317
0.000057
0.000224
0.000203
0.000245
0.000240
0.000256
0.000245
0.000247
0.000252
0.000252
0.000377
0.000631
0.000430
0.000236
0.000203
0.000227
0.000259
0.000332
0.000444
0.000372
0.000257
0.001765
0.000247
0.000251
0.000250
0.000263
0.000263
0.000244
0.000255
0.000334
0.000341
0.000339
0.000055
0.000224
0.000227
0.000232
0.000256
0.000253
0.000242
0.000254
0.000258
0.000239
0.000256
0.000237
0.000249
0.000425
0.000415
0.000309
0.000275
0.000458
0.000229
0.000258
0.000257
0.000257
0.000255
0.000278
0.000265
0.000264
0.001802
0.000246
0.000243
0.000265
0.000234
0.000201
0.000055
0.000306
0.000326
0.000240
0.000213
0.000242
0.000229
0.000240
0.000256
0.000251
0.000220
0.000238
0.000264
0.000251
0.000356
0.000405
0.000359
0.000298
0.000236
0.000264
0.000243
0.000265
0.000257
0.000249
0.000271
0.000248
0.000263
0.000299
0.001652
0.000267
0.000229
0.000185
0.000056
0.000204
0.000236
0.000251
0.000267
0.000348
0.000392
0.000383
0.000296
0.000220
0.000279
0.000226
0.000245
0.000257
0.000248
0.000258
0.000258
0.000251
0.000251
0.000253
0.000268
0.000262
0.000269
0.000248
0.000234
0.000248
0.000282
0.000271
0.000263
0.000250
0.000261
0.000195
0.000057
0.000194
0.000230
0.000255
0.000258
0.000234
0.000259
0.000240
0.000261
0.000285
0.000238
0.000237
0.000235
0.000252
0.000251
0.000274
0.000265
0.000240
0.000266
0.000301
0.000242
0.000271
0.000296
0.000273
0.000246
0.000283
0.000276
0.000272
0.000251
0.000251
0.000569
0.000570
0.000057
0.000228
0.000287
0.000226
0.000221
0.000231
0.000258
0.000237
0.000252
0.000253
0.000241
0.000268
0.000302
0.000489
0.000444
0.001564
0.000232
0.000483
0.000237
0.000252
0.000531
0.000324
0.000434
0.000216
0.000274
0.000257
0.000258
0.000281
0.000256
0.000311
0.000256
0.000188
0.000057
0.000338
0.000436
0.000330
0.000338
0.000201
0.000257
0.000249
0.000243
0.000236
0.000246
0.000254
0.000257
0.000227
0.000294
0.000319
0.000512
0.000410
0.001789
0.000225
0.000254
0.000370
0.000391
0.000421
0.000329
0.000315
0.000308
0.000307
0.000234
0.000224
0.000258
0.000186
0.000056
0.000206
0.000233
0.000232
0.000340
0.000309
0.000433
0.000353
0.000256
0.000252
0.000216
0.000248
0.000273
0.000280
0.000247
0.000247
0.000251
0.000292
0.000560
0.000325
0.000408
0.000226
0.001754
0.000326
0.000488
0.000519
0.000472
0.000313
0.000222
0.000249
0.000269
0.000448
0.000056
0.000206
0.000258
0.000230
0.000288
0.000476
0.000410
0.000375
0.000213
0.000242
0.000290
0.000240
0.000263
0.000253
0.000320
0.000283
0.000230
0.000237
0.000469
0.000339
0.000411
0.000471
0.001846
0.000244
0.000452
0.000487
0.000374
0.000222
0.000271
0.000273
0.000262
0.000207
0.000056
0.000217
0.000347
0.000357
0.000319
0.000393
0.000341
0.000322
0.000210
0.000245
0.000264
0.000277
0.000234
0.000240
0.000247
0.000248
0.000263
0.000316
0.000457
0.000423
0.000335
0.000330
0.000224
0.000271
0.001715
0.000420
0.000496
0.000712
0.000230
0.000258
0.000311
0.000154
0.000055
0.000195
0.000242
0.000323
0.000256
0.000256
0.000371
0.000394
0.000345
0.000242
0.000521
0.000240
0.000237
0.000256
0.000277
0.000276
0.000270
0.000228
0.000441
0.000388
0.000413
0.000267
0.000221
0.000260
0.000256
0.000266
0.000266
0.000227
0.000260
0.000265
0.000298
0.000186
0.000057
0.000191
0.000335
0.000232
0.000248
0.000250
0.000259
0.000236
0.000296
0.000246
0.000232
0.000263
0.000361
0.000418
0.000457
0.000321
0.000241
0.000211
0.000242
0.000263
0.000262
0.000299
0.000256
0.000233
0.000252
0.000287
0.000326
0.000414
0.000338
0.000382
0.000227
0.000177
0.000055
0.000193
0.000223
0.000276
0.000245
0.000241
0.000247
0.000259
0.000258
0.000491
0.000211
0.000258
0.000256
0.000243
0.000263
0.000274
0.000274
0.000262
0.000350
0.000225
0.000239
0.000257
0.000258
0.000259
0.000291
0.000256
0.000259
0.000266
0.000255
0.000522
0.000246
0.000144
0.000056
0.000189
0.000231
0.000254
0.000266
0.000221
0.000247
0.000365
0.000411
0.000237
0.000231
0.000248
0.000258
0.000236
0.000226
0.000424
0.001841
0.000231
0.000270
0.000286
0.000387
0.000368
0.000359
0.000352
0.000385
0.000388
0.000428
0.000235
0.000269
0.000269
0.000275
0.001393
0.000055
0.000395
0.000307
0.000264
0.000224
0.000234
0.000248
0.000236
0.000250
0.000248
0.000265
0.000246
0.000258
0.000252
0.000320
0.000505
0.001649
0.000239
0.000230
0.000234
0.000266
0.000238
0.000279
0.000354
0.000374
0.000305
0.000357
0.000219
0.000266
0.000279
0.000257
0.000193
0.000055
0.001199
0.000556
0.000324
0.000276
0.000214
0.000223
0.000237
0.000237
0.000486
0.000220
0.000250
0.000242
0.000335
0.000556
0.000370
0.000354
0.000247
0.000221
0.000350
0.000348
0.000267
0.000258
0.000274
0.000238
0.000271
0.000566
0.000532
0.000304
0.000247
0.000268
0.000169
0.000056
0.000210
0.000219
0.000244
0.000245
0.001432
0.000339
0.000225
0.000254
0.000237
0.000252
0.000253
0.000266
0.000230
0.000263
0.000265
0.000250
0.000483
0.000644
0.000269
0.001754
0.000263
0.000276
0.000302
0.000450
0.000505
0.000416
0.000241
0.000254
0.000253
0.000265
0.000205
0.000057
0.000216
0.000249
0.000241
0.000300
0.001276
0.000226
0.000253
0.000266
0.000239
0.000237
0.000239
0.000249
0.000277
0.000251
0.000245
0.000335
0.000436
0.000412
0.000321
0.000259
0.000268
0.000271
0.000247
0.000239
0.000291
0.000256
0.000238
0.000283
0.000264
0.000424
0.000553
0.000055
0.000230
0.000239
0.000238
0.000260
0.000266
0.000244
0.000231
0.000263
0.000267
0.000253
0.001437
0.000230
0.000234
0.000252
0.000243
0.000245
0.000268
0.000267
0.000259
0.000269
0.000280
0.000540
0.000367
0.000424
0.000215
0.000279
0.001768
0.000255
0.000252
0.000323
0.000435
0.000057
0.000227
0.000392
0.000454
0.000504
0.000517
0.000530
0.001493
0.000428
0.000512
0.000657
0.000551
0.000684
0.000522
0.000618
0.000585
0.001880
0.000411
0.000442
0.000383
0.000322
0.000226
0.000306
0.000255
0.000273
0.000259
0.000290
0.000299
0.000274
0.000258
0.000290
0.001361
0.000055
0.000234
0.000223
0.000236
0.000239
0.000261
0.000254
0.000234
0.000260
0.000236
0.000249
0.000238
0.000250
0.000247
0.000263
0.000262
0.000264
0.001822
0.000271
0.000253
0.000251
0.000253
0.000261
0.000262
0.000273
0.000431
0.000395
0.000348
0.000243
0.000253
0.000295
0.000201
0.000055
0.000207
0.001360
0.000328
0.000263
0.000259
0.000238
0.000245
0.000235
0.000250
0.000226
0.000225
0.000238
0.000254
0.000499
0.000363
0.000282
0.000266
0.000258
0.001930
0.000226
0.000241
0.000265
0.000261
0.000269
0.000266
0.000276
0.000272
0.000261
0.000260
0.000318
0.000203
0.000075
0.000171
0.000270
0.000224
0.001441
0.000220
0.000253
0.000240
0.000249
0.000238
0.000273
0.000244
0.000251
0.000239
0.000264
0.000257
0.000256
0.000264
0.000263
0.000272
0.000254
0.000264
0.001774
0.000277
0.001755
0.000264
0.000257
0.000258
0.000267
0.000267
0.000273
0.000204
0.000055
0.000204
0.000241
0.001353
0.000230
0.000257
0.000237
0.000267
0.000247
0.000238
0.000264
0.000236
0.000247
0.000263
0.000263
0.000259
0.000260
0.000261
0.000285
0.000291
0.000235
0.001888
0.000229
0.001836
0.000237
0.000245
0.000281
0.000240
0.000238
0.000252
0.000277
0.000209
0.000056
0.001460
0.000215
0.000222
0.000238
0.000238
0.000236
0.000374
0.000288
0.000234
0.000257
0.000249
0.000261
0.000232
0.000497
0.000329
0.000234
0.000241
0.000271
0.000260
0.000240
0.000270
0.000347
0.000225
0.000272
0.000251
0.000275
0.000271
0.000289
0.000685
0.000379
0.000197
0.000055
0.000226
0.000240
0.000271
0.000302
0.000363
0.000255
0.001665
0.000341
0.000277
0.000261
0.000258
0.000274
0.000271
0.000265
0.000298
0.000303
0.000310
0.000596
0.000393
0.000259
0.000298
0.000282
0.000260
0.000266
0.000342
0.000244
0.000266
0.000245
0.000253
0.000324
0.000401
0.000057
0.000238
0.000472
0.000269
0.000262
0.000245
0.000229
0.000230
0.000246
0.000256
0.000283
0.001492
0.000232
0.000220
0.000250
0.000244
0.000286
0.000275
0.000235
0.000268
0.000265
0.000272
0.000334
0.000570
0.000314
0.000269
0.000288
0.000268
0.000254
0.000237
0.000312
0.000168
0.000056
0.000204
0.000216
0.000266
0.000479
0.000375
0.000278
0.000219
0.000241
0.000247
0.000254
0.000234
0.000252
0.000257
0.000273
0.000228
0.000240
0.000466
0.001151
0.000245
0.000238
0.000285
0.000319
0.000286
0.000423
0.000254
0.000274
0.000611
0.000382
0.000349
0.000248
0.000169
0.000056
0.000209
0.000252
0.000260
0.000260
0.000250
0.000253
0.000363
0.000404
0.000434
0.000266
0.000363
0.000390
0.000391
0.000362
0.000254
0.000234
0.000237
0.000271
0.000362
0.000503
0.001270
0.000216
0.000269
0.000276
0.000236
0.000226
0.000265
0.000310
0.000423
0.000452
0.000251
0.000057
0.000193
0.000236
0.000251
0.000244
0.000249
0.000240
0.000243
0.000255
0.000318
0.000385
0.000332
0.000436
0.000246
0.000231
0.000243
0.000262
0.000249
0.000262
0.000269
0.000243
0.000445
0.000240
0.000410
0.000392
0.000324
0.000244
0.000276
0.000269
0.000250
0.000349
0.000169
0.000055
0.000302
0.000314
0.000319
0.000388
0.000445
0.000352
0.000239
0.000243
0.000245
0.000270
0.000259
0.000260
0.000235
0.000254
0.000236
0.000230
0.000268
0.000374
0.000491
0.000341
0.000241
0.000252
0.000253
0.000240
0.000270
0.000284
0.000258
0.000268
0.000277
0.000261
0.000272
0.000057
0.000341
0.000241
0.000237
0.000247
0.000245
0.000247
0.000245
0.000251
0.000269
0.000262
0.000249
0.000232
0.000270
0.000549
0.000407
0.000281
0.000240
0.000244
0.000259
0.000263
0.000257
0.000260
0.000263
0.000264
0.000279
0.000294
0.000425
0.000606
0.000406
0.000252
0.000171
0.000055
0.000376
0.000205
0.000222
0.000245
0.000250
0.000244
0.000240
0.000254
0.000256
0.000268
0.000212
0.000245
0.000276
0.000227
0.000235
0.000269
0.000250
0.000261
0.000279
0.000261
0.000262
0.000261
0.000259
0.000262
0.000280
0.000225
0.000267
0.000276
0.000259
0.000281
0.000196
0.000056
0.000184
0.000245
0.000244
0.000251
0.000234
0.000249
0.000261
0.000243
0.000272
0.000266
0.000223
0.000231
0.000265
0.000398
0.000251
0.000274
0.000264
0.000265
0.000254
0.000281
0.000271
0.000234
0.000254
0.000285
0.000237
0.000269
0.000256
0.000242
0.000279
0.000262
0.000199
0.000055
0.000215
0.000362
0.000368
0.000276
0.000300
0.000261
0.000254
0.000261
0.000218
0.000250
0.000250
0.000262
0.000252
0.000230
0.000261
0.000255
0.000270
0.000265
0.000243
0.000274
0.000267
0.000283
0.000260
0.000262
0.000262
0.000255
0.000255
0.000273
0.000274
0.000256
0.000196
0.000056
0.000190
0.000227
0.000267
0.000261
0.000494
0.000210
0.000202
0.000252
0.000301
0.000423
0.000498
0.000277
0.000233
0.000248
0.000264
0.000269
0.000234
0.000279
0.000272
0.000246
0.000268
0.000261
0.000260
0.000259
0.000529
0.000517
0.000268
0.000302
0.000263
0.000263
0.000186
0.000077
0.000196
0.000246
0.000225
0.000255
0.000349
0.000639
0.000302
0.000384
0.000203
0.000248
0.000247
0.000255
0.000250
0.000256
0.000250
0.000273
0.000255
0.000261
0.000684
0.000343
0.000290
0.000236
0.000256
0.000288
0.000281
0.000256
0.000279
0.000254
0.000247
0.000343
0.000294
0.000057
0.000263
0.000230
0.000241
0.000243
0.000251
0.000259
0.000228
0.000243
0.000263
0.000243
0.000247
0.000249
0.000243
0.000365
0.000605
0.000399
0.000226
0.000252
0.000264
0.000247
0.000267
0.000275
0.000497
0.000219
0.000256
0.000580
0.000456
0.000465
0.000247
0.000255
0.000181
0.000056
0.000204
0.000224
0.000247
0.000243
0.000256
0.000262
0.000353
0.000404
0.000559
0.000421
0.000216
0.000266
0.000278
0.000271
0.000253
0.000252
0.000234
0.000251
0.000278
0.000295
0.000410
0.000661
0.000364
0.000250
0.000370
0.000380
0.000472
0.000242
0.000276
0.000327
0.000501
0.000056
0.000265
0.000232
0.000429
0.000236
0.000220
0.000260
0.000260
0.000260
0.000226
0.000250
0.000294
0.000370
0.000365
0.000348
0.000219
0.000249
0.000261
0.000253
0.000266
0.000275
0.000275
0.000270
0.000234
0.000272
0.000293
0.000518
0.000482
0.000227
0.000254
0.000272
0.000197
0.000055
0.000224
0.000258
0.000227
0.000277
0.000214
0.000277
0.000346
0.000404
0.000435
0.000276
0.000375
0.000223
0.000242
0.000265
0.000256
0.000236
0.000257
0.000271
0.000314
0.000637
0.000239
0.000300
0.000477
0.000281
0.000386
0.000429
0.000378
0.000244
0.000249
0.000286
0.000361
0.000056
0.000209
0.000275
0.000219
0.000257
0.000259
0.000252
0.000249
0.000246
0.000255
0.000261
0.000240
0.000326
0.000476
0.000384
0.000367
0.000222
0.000266
0.000268
0.000262
0.000237
0.000248
0.000252
0.000266
0.000278
0.000281
0.000326
0.000488
0.000480
0.000247
0.000269
0.000186
0.000056
0.000225
0.000237
0.000264
0.000241
0.000259
0.000360
0.000496
0.000469
0.000341
0.000690
0.000260
0.000219
0.000240
0.000265
0.000246
0.000267
0.000280
0.000277
0.000499
0.000399
0.001505
0.000300
0.000264
0.000261
0.000294
0.000259
0.000365
0.000506
0.000299
0.000334
0.000159
0.000056
0.000221
0.000225
0.000239
0.000249
0.000245
0.000252
0.000274
0.000250
0.000273
0.000315
0.000322
0.000389
0.000268
0.000339
0.000393
0.000338
0.000238
0.000249
0.000271
0.000260
0.000241
0.000274
0.000256
0.000247
0.000324
0.000433
0.000433
0.000304
0.000237
0.000272
0.000183
0.000056
0.000229
0.000246
0.000257
0.000297
0.000204
0.000238
0.000468
0.000217
0.000225
0.000260
0.000241
0.000253
0.000257
0.000255
0.000248
0.000273
0.000261
0.000269
0.000294
0.000233
0.000266
0.000377
0.000203
0.000239
0.000264
0.000278
0.000274
0.000263
0.000265
0.000272
0.000171
0.000057
0.000230
0.000248
0.000270
0.000544
0.000359
0.000191
0.000219
0.000243
0.000260
0.000249
0.000248
0.000255
0.000268
0.000257
0.000239
0.000243
0.000264
0.000255
0.000353
0.000251
0.000438
0.000424
0.000221
0.000257
0.000270
0.000250
0.000266
0.000252
0.000274
0.000282
0.000201
0.000055
0.000397
0.000430
0.000390
0.000200
0.000254
0.000252
0.000412
0.000220
0.000232
0.000256
0.000255
0.000302
0.000348
0.000424
0.001877
0.000251
0.000244
0.000252
0.000277
0.000239
0.000396
0.000375
0.000691
0.000235
0.000230
0.000264
0.000271
0.000427
0.000278
0.000281
0.000167
0.000056
0.000294
0.000300
0.000327
0.000338
0.000495
0.000196
0.000246
0.000247
0.000257
0.000239
0.000266
0.000236
0.000263
0.000305
0.000432
0.000470
0.000231
0.000233
0.000262
0.000264
0.000262
0.000317
0.000226
0.000289
0.000277
0.000456
0.000566
0.000355
0.000450
0.000219
0.000205
0.000055
0.000198
0.000236
0.000261
0.000226
0.000254
0.000245
0.000266
0.000274
0.000371
0.000378
0.000412
0.000345
0.000208
0.000259
0.000263
0.000283
0.000302
0.000239
0.000277
0.000269
0.000238
0.000408
0.000413
0.000324
0.000302
0.000244
0.000261
0.000427
0.000427
0.000314
0.000173
0.000056
0.000212
0.000235
0.000335
0.000426
0.000380
0.000214
0.000228
0.000251
0.000268
0.000252
0.000263
0.000251
0.000232
0.000254
0.000260
0.000297
0.000373
0.000379
0.000331
0.000315
0.000483
0.000230
0.000279
0.000273
0.000302
0.000284
0.000254
0.000262
0.000475
0.000547
0.000177
0.000057
0.000197
0.000221
0.000248
0.000247
0.000242
0.000482
0.000219
0.000257
0.000256
0.000301
0.000495
0.000619
0.000206
0.000237
0.000248
0.000246
0.000259
0.000247
0.000262
0.000248
0.000259
0.000272
0.000420
0.000399
0.000353
0.000387
0.000319
0.000278
0.000319
0.000245
0.000177
0.000056
0.000188
0.000237
0.000276
0.000471
0.000323
0.000328
0.000233
0.000224
0.000235
0.000256
0.000260
0.000240
0.000263
0.000250
0.000258
0.000259
0.000248
0.000250
0.000282
0.000354
0.000559
0.000368
0.000220
0.000249
0.000272
0.000285
0.000253
0.000258
0.000270
0.000258
0.000198
0.000057
0.000265
0.000478
0.000383
0.000249
0.000204
0.000259
0.000325
0.000454
0.000279
0.000220
0.000235
0.000274
0.000257
0.000455
0.000449
0.000274
0.000232
0.000234
0.000249
0.000266
0.000271
0.000263
0.000259
0.000273
0.000262
0.000296
0.000444
0.000385
0.000339
0.000211
0.000177
0.000056
0.000212
0.000236
0.000248
0.000254
0.000250
0.000265
0.000230
0.000257
0.000245
0.000249
0.000269
0.000239
0.000287
0.001433
0.000229
0.000245
0.000265
0.000244
0.000277
0.000277
0.000262
0.000239
0.000277
0.000276
0.000247
0.000266
0.000269
0.000273
0.000256
0.000269
0.000191
0.000055
0.000213
0.000225
0.000252
0.000256
0.000234
0.000243
0.000259
0.000270
0.000217
0.000252
0.000249
0.000257
0.000259
0.000258
0.000251
0.000261
0.000246
0.000256
0.000277
0.000253
0.000254
0.000263
0.000250
0.000245
0.001291
0.000289
0.000654
0.000294
0.000384
0.000254
0.000182
0.000056
0.000235
0.000221
0.000239
0.000253
0.000413
0.000248
0.000225
0.000244
0.000256
0.000331
0.000518
0.000303
0.000236
0.000227
0.000287
0.000235
0.000257
0.000272
0.000242
0.000252
0.000262
0.000257
0.000257
0.000412
0.000531
0.000451
0.000223
0.000280
0.001349
0.000235
0.000184
0.000055
0.000221
0.000412
0.000327
0.000275
0.000214
0.000232
0.000227
0.000252
0.000260
0.000260
0.000243
0.000259
0.000273
0.000363
0.000501
0.000337
0.000347
0.000224
0.000243
0.000281
0.000245
0.000262
0.000270
0.000270
0.000263
0.000262
0.000308
0.000572
0.000369
0.000383
0.000151
0.000056
0.000198
0.000245
0.001261
0.000445
0.000248
0.000478
0.000379
0.000496
0.000277
0.000355
0.000206
0.000227
0.000258
0.000259
0.000244
0.000263
0.000282
0.000566
0.000391
0.000371
0.000251
0.000247
0.000263
0.000501
0.000240
0.000260
0.000261
0.000283
0.000320
0.000547
0.000295
0.000056
0.000389
0.000306
0.000237
0.000220
0.001631
0.000394
0.000300
0.000254
0.000242
0.000255
0.000222
0.000237
0.000248
0.000250
0.000252
0.000264
0.000232
0.000269
0.000449
0.000334
0.000469
0.000243
0.000246
0.000255
0.000263
0.000274
0.000275
0.000232
0.000266
0.000275
0.000211
0.000056
0.000371
0.000343
0.000224
0.000228
0.000250
0.000244
0.000257
0.000241
0.000227
0.000234
0.001392
0.000495
0.000272
0.000230
0.000236
0.000259
0.000274
0.000262
0.000232
0.000282
0.000265
0.000255
0.000324
0.000359
0.000429
0.000441
0.000234
0.000268
0.000273
0.000280
0.000177
0.000055
0.000210
0.000416
0.000225
0.000231
0.000337
0.000457
0.000374
0.000318
0.000462
0.000205
0.000227
0.000253
0.000260
0.000263
0.000263
0.001406
0.000366
0.000282
0.000244
0.000268
0.000284
0.000247
0.000253
0.000256
0.000276
0.000251
0.000376
0.000527
0.000290
0.000283
0.000152
0.000055
0.000207
0.000234
0.000251
0.000238
0.000226
0.000268
0.000236
0.000248
0.000339
0.000266
0.000472
0.000310
0.000253
0.000241
0.000240
0.000274
0.000271
0.000262
0.000270
0.000232
0.000249
0.000305
0.001273
0.000262
0.000243
0.000243
0.000265
0.000265
0.000263
0.000252
0.000195
0.000056
0.000210
0.000371
0.000342
0.000360
0.000245
0.000243
0.000257
0.000262
0.000256
0.000244
0.000258
0.000274
0.000237
0.000255
0.000257
0.000263
0.000263
0.000269
0.000280
0.000238
0.000245
0.000271
0.000270
0.000285
0.000284
0.000266
0.000268
0.000250
0.000264
0.000470
0.001342
0.000055
0.000225
0.000230
0.000240
0.000243
0.000253
0.000258
0.000246
0.000224
0.000246
0.000254
0.000275
0.000253
0.000248
0.000246
0.000251
0.000245
0.001736
0.000245
0.000241
0.000265
0.000246
0.000258
0.000274
0.000261
0.000272
0.000254
0.000274
0.000273
0.000271
0.000253
0.000220
0.000055
0.000347
0.000374
0.001257
0.000228
0.000215
0.000248
0.000260
0.000248
0.000261
0.000259
0.000226
0.000335
0.000425
0.000424
0.000291
0.000232
0.000233
0.000256
0.000258
0.000268
0.000238
0.000273
0.000264
0.000285
0.000260
0.000406
0.000339
0.000393
0.000304
0.000241
0.000191
0.000055
0.000203
0.000258
0.000239
0.000247
0.000255
0.000221
0.000233
0.000317
0.000431
0.001288
0.000261
0.000202
0.000243
0.000269
0.000261
0.000270
0.000257
0.000249
0.000304
0.000451
0.000368
0.000253
0.000243
0.000242
0.000280
0.000278
0.000265
0.000301
0.000266
0.000274
0.000200
0.000056
0.000227
0.000451
0.000397
0.000200
0.000235
0.000239
0.000243
0.000280
0.000263
0.000259
0.000224
0.000244
0.000460
0.000548
0.000443
0.001433
0.000246
0.000274
0.000326
0.000353
0.000487
0.000425
0.000584
0.000267
0.000225
0.000265
0.000263
0.000280
0.000261
0.000274
0.000191
0.000055
0.000202
0.000289
0.000425
0.000558
0.000267
0.000238
0.000251
0.000226
0.000249
0.000257
0.000247
0.000268
0.000269
0.000240
0.000259
0.000306
0.000385
0.000421
0.000350
0.001321
0.000261
0.000261
0.000252
0.000262
0.000528
0.000374
0.000394
0.000243
0.000274
0.000270
0.000184
0.000056
0.000207
0.000241
0.000239
0.000247
0.000246
0.000274
0.000455
0.000378
0.000383
0.000214
0.000237
0.000266
0.000265
0.000257
0.000261
0.000267
0.000259
0.000255
0.000276
0.000250
0.000486
0.000432
0.000338
0.001335
0.000401
0.000237
0.000280
0.000391
0.000465
0.000347
0.000323
0.000057
0.000180
0.000243
0.000246
0.000247
0.000255
0.000254
0.001676
0.000250
0.000207
0.000247
0.000256
0.000262
0.000242
0.000324
0.000328
0.000286
0.000288
0.000297
0.000474
0.000474
0.000261
0.000277
0.000225
0.000244
0.001511
0.000484
0.000278
0.000456
0.000340
0.000284
0.000161
0.000073
0.000189
0.000244
0.000255
0.000258
0.000241
0.000257
0.001714
0.000222
0.000249
0.000263
0.000344
0.000402
0.001442
0.000361
0.000393
0.000236
0.000257
0.000235
0.000270
0.000277
0.001536
0.000567
0.000386
0.000297
0.000233
0.000252
0.000262
0.000301
0.000224
0.000253
0.000200
0.000057
0.000188
0.000243
0.000272
0.000241
0.000266
0.000278
0.000273
0.000255
0.000254
0.000252
0.000253
0.000270
0.000246
0.000267
0.000253
0.001498
0.000279
0.000225
0.000265
0.000281
0.000270
0.000255
0.000443
0.001264
0.000277
0.000229
0.000274
0.000257
0.000392
0.000244
0.000202
0.000056
0.000233
0.000235
0.000220
0.000250
0.000240
0.000226
0.000233
0.001698
0.000259
0.000217
0.000249
0.000373
0.000231
0.000223
0.000254
0.001397
0.000213
0.000267
0.000268
0.000248
0.000258
0.000351
0.000281
0.001314
0.000270
0.000253
0.000254
0.000260
0.001410
0.000262
0.000208
0.000056
0.000208
0.000353
0.000207
0.000246
0.000248
0.000244
0.000260
0.000270
0.000267
0.000250
0.000258
0.000299
0.000223
0.000244
0.000274
0.001539
0.000236
0.000274
0.000261
0.000236
0.000291
0.000262
0.000246
0.001513
0.000349
0.000229
0.000264
0.001273
0.000282
0.000233
0.000194
0.000056
0.000210
0.000420
0.000324
0.000205
0.000226
0.000242
0.000258
0.000263
0.000265
0.000270
0.000236
0.000251
0.000263
0.000300
0.000391
0.001216
0.000235
0.000254
0.000265
0.000277
0.000224
0.000244
0.000263
0.000325
0.001266
0.000267
0.000234
0.000278
0.001326
0.000364
0.000192
0.000056
0.000322
0.000241
0.000222
0.000230
0.000237
0.000253
0.000250
0.000240
0.000280
0.000246
0.000246
0.000247
0.000250
0.000342
0.000404
0.001476
0.000212
0.000255
0.000296
0.000515
0.000291
0.000306
0.001432
0.000284
0.000245
0.000276
0.000245
0.001325
0.000252
0.000561
0.000305
0.000056
0.000237
0.000248
0.000254
0.000259
0.000248
0.000250
0.000275
0.000249
0.000262
0.000277
0.000375
0.000410
0.001323
0.000249
0.000260
0.000259
0.000281
0.000215
0.000243
0.000237
0.000346
0.001239
0.000259
0.000253
0.000244
0.000246
0.001494
0.000723
0.000208
0.000220
0.000185
0.000056
0.000199
0.000223
0.000255
0.000230
0.000257
0.000270
0.000256
0.000227
0.000493
0.000481
0.000243
0.001471
0.000204
0.000246
0.000264
0.000255
0.000263
0.000281
0.001698
0.000259
0.000398
0.000337
0.001270
0.000344
0.000339
0.000310
0.000253
0.000262
0.000265
0.000264
0.000218
0.000055
0.000200
0.000242
0.000333
0.000252
0.000316
0.000512
0.000297
0.000297
0.001468
0.000240
0.000388
0.000253
0.000222
0.000323
0.000385
0.001308
0.000278
0.000237
0.000240
0.000274
0.001506
0.000379
0.000282
0.000280
0.000284
0.000225
0.000475
0.000352
0.000224
0.000231
0.000267
0.000055
0.000270
0.000354
0.000315
0.000270
0.000216
0.001522
0.000213
0.000252
0.000265
0.000269
0.000271
0.000238
0.000299
0.001491
0.000259
0.000222
0.000432
0.001193
0.000295
0.000503
0.000385
0.000240
0.000239
0.000251
0.000279
0.000239
0.000460
0.000228
0.000262
0.000277
0.000196
0.000057
0.000203
0.000266
0.000374
0.000319
0.001317
0.000276
0.000309
0.000231
0.000241
0.000247
0.000249
0.000265
0.001544
0.000266
0.000235
0.000238
0.001379
0.000323
0.000379
0.000398
0.000436
0.000226
0.000238
0.000259
0.000263
0.000280
0.000275
0.000253
0.000262
0.000259
0.000190
0.000056
0.000188
0.000421
0.001430
0.000206
0.000280
0.000272
0.000243
0.000245
0.000261
0.000385
0.001397
0.000212
0.000263
0.000259
0.000252
0.001309
0.000673
0.000298
0.000307
0.000408
0.000299
0.000248
0.000263
0.000250
0.000280
0.000285
0.000270
0.000363
0.000381
0.000512
0.001293
0.000057
0.000216
0.000236
0.000248
0.000224
0.000255
0.000413
0.000478
0.001303
0.000245
0.000240
0.000250
0.001459
0.000350
0.000392
0.000206
0.000416
0.000240
0.000253
0.000261
0.000275
0.000245
0.000275
0.000281
0.000252
0.000252
0.000292
0.000415
0.000516
0.001489
0.000218
0.000188
0.000056
0.000215
0.000255
0.000413
0.000528
0.001188
0.000276
0.000254
0.000256
0.000248
0.000252
0.000246
0.000291
0.000366
0.000462
0.000349
0.000228
0.000261
0.000269
0.000243
0.000278
0.000252
0.000271
0.000254
0.000268
0.000261
0.000497
0.000383
0.000348
0.000318
0.001397
0.000175
0.000056
0.000197
0.000246
0.000391
0.000362
0.000317
0.000309
0.000315
0.000334
0.000265
0.000263
0.000257
0.000262
0.000255
0.000305
0.000231
0.000311
0.000563
0.000300
0.000295
0.000377
0.000275
0.000413
0.000228
0.000242
0.000256
0.000265
0.000248
0.000291
0.000360
0.000502
0.000287
0.000056
0.000203
0.001402
0.000239
0.000335
0.000445
0.000374
0.000363
0.000337
0.000223
0.000230
0.000268
0.000247
0.000260
0.000273
0.000256
0.000264
0.000254
0.001297
0.000323
0.000252
0.000256
0.000271
0.000269
0.000286
0.000269
0.000252
0.000277
0.000246
0.000346
0.000368
0.000290
0.000057
0.000199
0.000259
0.000218
0.001524
0.000298
0.000238
0.000229
0.000247
0.000231
0.000239
0.000254
0.000273
0.000252
0.000255
0.000266
0.000253
0.000245
0.000276
0.000250
0.000259
0.001436
0.000239
0.000233
0.000281
0.000257
0.000244
0.000264
0.000258
0.000281
0.000484
0.000352
0.000056
0.000211
0.000269
0.000372
0.000264
0.000249
0.000247
0.001537
0.000347
0.000300
0.000210
0.000268
0.000303
0.000370
0.000197
0.000233
0.000252
0.000235
0.000271
0.000259
0.000260
0.000475
0.000509
0.001131
0.000278
0.000229
0.000254
0.000268
0.000262
0.000275
0.000255
0.000355
0.000056
0.000202
0.000339
0.000209
0.000238
0.000251
0.000238
0.000247
0.000226
0.000290
0.001591
0.000393
0.000284
0.000234
0.000248
0.000275
0.000230
0.000257
0.000282
0.000260
0.000309
0.000306
0.000488
0.000447
0.001376
0.000225
0.000268
0.000269
0.000258
0.000272
0.000276
0.000495
0.000056
0.000237
0.000244
0.000242
0.000236
0.000218
0.000241
0.000263
0.000257
0.000268
0.001620
0.000304
0.000255
0.000266
0.000254
0.000458
0.000276
0.000523
0.000377
0.000299
0.000305
0.000447
0.000462
0.001279
0.000263
0.000222
0.000264
0.001679
0.000493
0.000607
0.000312
0.000146
0.000057
0.000193
0.000231
0.000240
0.000233
0.000258
0.000240
0.000252
0.000508
0.000517
0.000391
0.000291
0.000218
0.000292
0.000209
0.000263
0.000268
0.000239
0.000259
0.000253
0.000273
0.000274
0.000461
0.001301
0.000220
0.000254
0.000274
0.001899
0.000412
0.000369
0.000336
0.000162
0.000057
0.000192
0.000236
0.000243
0.001541
0.000463
0.000202
0.000235
0.000263
0.000250
0.000294
0.000381
0.000364
0.000370
0.000266
0.000336
0.000480
0.000445
0.001145
0.000272
0.000231
0.000254
0.000268
0.000274
0.000404
0.000661
0.000420
0.000239
0.000268
0.000267
0.000283
0.000192
0.000055
0.000195
0.000231
0.000245
0.001544
0.000246
0.000237
0.000241
0.000254
0.000233
0.000260
0.000259
0.000267
0.000268
0.000273
0.000247
0.000361
0.000466
0.000326
0.001400
0.000247
0.000247
0.000257
0.000259
0.000267
0.000375
0.000472
0.000463
0.000271
0.000285
0.000228
0.000433
0.000055
0.000223
0.000238
0.000255
0.001525
0.000325
0.000216
0.000261
0.000242
0.000254
0.000260
0.000267
0.000246
0.000257
0.000250
0.000372
0.000544
0.001388
0.000747
0.000273
0.000328
0.000255
0.000227
0.000246
0.000271
0.001684
0.000809
0.000227
0.000264
0.000273
0.000283
0.000186
0.000056
0.000210
0.000235
0.000251
0.000248
0.000257
0.000243
0.000238
0.000256
0.000239
0.000233
0.000296
0.000295
0.000237
0.000252
0.000258
0.000249
0.000268
0.001605
0.000710
0.000402
0.000281
0.000229
0.000238
0.000286
0.000267
0.000258
0.000273
0.000250
0.001404
0.000408
0.000312
0.000055
0.000192
0.000235
0.000250
0.000254
0.000261
0.000231
0.000251
0.000250
0.000254
0.000264
0.000282
0.000414
0.000437
0.000343
0.000205
0.000244
0.000260
0.001401
0.000683
0.000473
0.000340
0.000269
0.000227
0.000253
0.000272
0.000253
0.000262
0.000265
0.001546
0.000362
0.000210
0.000056
0.000222
0.000219
0.000247
0.000245
0.000253
0.000246
0.000233
0.000254
0.000269
0.000258
0.000358
0.000433
0.000302
0.000206
0.000243
0.000248
0.000261
0.000254
0.001573
0.000673
0.000452
0.000292
0.000230
0.000253
0.000260
0.000265
0.000263
0.000290
0.000256
0.001373
0.000319
0.000058
0.000202
0.000211
0.000243
0.000253
0.000256
0.000245
0.000267
0.000300
0.000359
0.000488
0.000303
0.000518
0.000246
0.000213
0.000251
0.000243
0.000276
0.000261
0.000264
0.001942
0.000320
0.000234
0.000445
0.000236
0.000248
0.000263
0.000270
0.000260
0.000272
0.000276
0.000325
0.000056
0.000261
0.000298
0.000191
0.000242
0.000248
0.000257
0.000224
0.000236
0.000271
0.000255
0.000245
0.000234
0.000385
0.000305
0.000507
0.000457
0.000213
0.000257
0.000257
0.000249
0.000252
0.000293
0.001495
0.001029
0.000226
0.000236
0.000274
0.000260
0.000277
0.000256
0.000195
0.000055
0.000203
0.001345
0.000298
0.000211
0.000231
0.000250
0.000250
0.000241
0.000242
0.000246
0.000260
0.000264
0.000240
0.000359
0.000394
0.000468
0.000279
0.000231
0.000264
0.000264
0.000269
0.000233
0.000259
0.000268
0.001327
0.000674
0.000320
0.000382
0.000389
0.000386
0.000297
0.000056
0.000189
0.000238
0.000366
0.001339
0.000181
0.000258
0.000232
0.000256
0.000253
0.000258
0.000247
0.000249
0.000263
0.000436
0.000485
0.000307
0.000218
0.000357
0.000270
0.000204
0.000255
0.000266
0.000233
0.000273
0.000269
0.001540
0.000745
0.000294
0.000276
0.000276
0.000187
0.000055
0.000209
0.000234
0.000483
0.000323
0.001324
0.000239
0.000216
0.000234
0.000238
0.000248
0.000245
0.000257
0.000232
0.000239
0.000259
0.000255
0.000265
0.000234
0.000257
0.000260
0.000276
0.000255
0.000313
0.000323
0.000217
0.000264
0.000269
0.001459
0.000262
0.000239
0.000177
0.000055
0.000193
0.000231
0.000251
0.000269
0.000353
0.000381
0.000392
0.000268
0.001588
0.000221
0.000265
0.000560
0.000322
0.000227
0.000428
0.000245
0.000226
0.000262
0.000278
0.000267
0.000280
0.000266
0.000259
0.000289
0.000250
0.000406
0.000375
0.000331
0.001587
0.000228
0.000185
0.000055
0.000212
0.000237
0.000253
0.000246
0.000234
0.000252
0.000264
0.000279
0.000435
0.002036
0.000241
0.000232
0.000260
0.000257
0.000258
0.000257
0.000294
0.000233
0.000258
0.000466
0.000337
0.000461
0.001447
0.000254
0.000539
0.000219
0.001771
0.000235
0.000262
0.001552
0.000131
0.000056
0.000324
0.000437
0.000448
0.000245
0.000264
0.000220
0.000258
0.000271
0.000263
0.000224
0.000259
0.000339
0.000412
0.000348
0.000435
0.000243
0.000224
0.001571
0.000223
0.000589
0.001877
0.000298
0.000231
0.001596
0.001963
0.000739
0.000279
0.000258
0.000292
0.000445
0.000425
0.000056
0.000193
0.000244
0.000246
0.000243
0.001426
0.002592
0.000222
0.000206
0.000225
0.001592
0.001977
0.000203
0.000248
0.000423
0.000291
0.000396
0.000335
0.000521
0.000223
0.000248
0.000240
0.000253
0.000280
0.001591
0.001201
0.001436
0.000287
0.000291
0.000246
0.000311
0.000352
0.000056
0.000235
0.000218
0.000241
0.000237
0.000229
0.000250
0.000247
0.000259
0.000250
0.000251
0.000233
0.000319
0.000616
0.000310
0.000284
0.000220
0.000255
0.000278
0.000267
0.000261
0.000254
0.000260
0.001508
0.000491
0.002109
0.000234
0.000256
0.000380
0.000402
0.000386
0.000197
0.000055
0.000190
0.000373
0.000468
0.000321
0.000199
0.000221
0.000256
0.000240
0.000245
0.000252
0.000236
0.000263
0.000264
0.001605
0.001354
0.001238
0.000272
0.000239
0.000233
0.000278
0.000282
0.000277
0.000245
0.000268
0.002241
0.000219
0.000228
0.000300
0.000323
0.000307
0.000219
0.000057
0.000219
0.000354
0.000557
0.000325
0.000229
0.000225
0.000254
0.000269
0.001897
0.001432
0.000217
0.000332
0.000381
0.000419
0.000265
0.000207
0.000275
0.000252
0.000267
0.000269
0.000247
0.000270
0.000472
0.000233
0.000269
0.000267
0.000254
0.000274
0.000282
0.000244
0.000204
0.000056
0.000196
0.000247
0.000250
0.000242
0.000254
0.000270
0.001550
0.001409
0.001342
0.000230
0.000225
0.000242
0.000266
0.000262
0.000248
0.000247
0.000250
0.002137
0.000231
0.000217
0.000277
0.000260
0.000259
0.000262
0.000267
0.000273
0.000253
0.000261
0.000270
0.000262
0.000171
0.000056
0.000201
0.002687
0.001404
0.000211
0.000304
0.000298
0.000228
0.000270
0.000254
0.000243
0.000252
0.000248
0.000239
0.000241
0.000267
0.000255
0.000271
0.000265
0.000259
0.000268
0.000260
0.000287
0.000276
0.000267
0.000242
0.000247
0.000268
0.000273
0.000259
0.000270
0.000367
0.000055
0.001559
0.000251
0.001239
0.000228
0.000222
0.000237
0.000266
0.000251
0.000245
0.000263
0.000376
0.000409
0.000318
0.000204
0.000252
0.002169
0.000234
0.000242
0.000337
0.000442
0.000312
0.000375
0.000203
0.000255
0.000271
0.000247
0.000266
0.000276
0.000270
0.001651
0.001218
0.000056
0.000186
0.000231
0.000312
0.000420
0.000297
0.000304
0.000205
0.000235
0.000266
0.000246
0.000262
0.000248
0.000227
0.000255
0.000261
0.000243
0.000356
0.000574
0.000368
0.000257
0.000215
0.000260
0.000281
0.000253
0.000252
0.000241
0.000269
0.000279
0.000239
0.000321
0.000352
0.000057
0.001129
0.000223
0.000358
0.000427
0.000298
0.000231
0.000224
0.000238
0.000255
0.002313
0.000358
0.000384
0.000212
0.000379
0.000296
0.000246
0.000261
0.000260
0.000262
0.000229
0.000255
0.000267
0.000596
0.000499
0.001845
0.001298
0.000517
0.000559
0.000227
0.000275
0.000195
0.000055
0.000223
0.000356
0.000251
0.000243
0.000239
0.000233
0.000266
0.000243
0.000252
0.000253
0.000258
0.000220
0.000241
0.000262
0.000401
0.000477
0.001858
0.001323
0.000462
0.000422
0.000466
0.000238
0.000238
0.000259
0.002148
0.000541
0.000397
0.000219
0.000275
0.000280
0.000194
0.000056
0.000208
0.000245
0.000252
0.000243
0.000249
0.000290
0.000473
0.000358
0.000238
0.000241
0.000244
0.000253
0.000260
0.002118
0.000332
0.000418
0.000210
0.000252
0.000267
0.000265
0.000265
0.002440
0.000341
0.000226
0.000247
0.000259
0.000259
0.000277
0.000274
0.000278
0.000192
0.000055
0.000198
0.000354
0.000568
0.000352
0.000255
0.000222
0.000224
0.000255
0.000263
0.000255
0.001983
0.000358
0.000289
0.000260
0.000233
0.000266
0.000275
0.000256
0.002200
0.000444
0.000216
0.000265
0.000271
0.000261
0.000256
0.000253
0.000284
0.000253
0.000266
0.000256
0.000182
0.000056
0.000217
0.000234
0.000247
0.000225
0.000245
0.000258
0.000239
0.000248
0.000229
0.002189
0.000221
0.000298
0.000201
0.000425
0.000241
0.000239
0.000299
0.000271
0.000241
0.000262
0.001960
0.000286
0.000343
0.000366
0.000437
0.000401
0.000302
0.000248
0.000256
0.000248
0.000204
0.000056
0.000190
0.000237
0.000241
0.000248
0.000253
0.000333
0.000210
0.002306
0.000239
0.000242
0.000258
0.000257
0.000232
0.000257
0.000316
0.002116
0.000587
0.000222
0.000259
0.000236
0.000260
0.000261
0.000288
0.000269
0.000253
0.000261
0.000285
0.000251
0.000267
0.000262
0.000198
0.000055
0.001813
0.001441
0.000194
0.000221
0.000245
0.000255
0.000248
0.000266
0.000411
0.000370
0.002153
0.000259
0.000237
0.000260
0.000273
0.000589
0.000341
0.000291
0.000218
0.000248
0.000249
0.000273
0.000261
0.000227
0.000255
0.000270
0.000268
0.000261
0.000298
0.000767
0.000239
0.000056
0.000209
0.000244
0.000260
0.000243
0.000275
0.000238
0.000254
0.000245
0.001469
0.002139
0.000574
0.000288
0.000394
0.000691
0.000358
0.000233
0.000251
0.000246
0.000269
0.000266
0.000256
0.000233
0.000252
0.001837
0.000333
0.001386
0.000290
0.000269
0.000283
0.000287
0.000398
0.000057
0.001936
0.000236
0.000220
0.000220
0.000297
0.000385
0.000422
0.000314
0.000287
0.000216
0.000228
0.000255
0.000259
0.000260
0.000279
0.000245
0.000257
0.000261
0.001846
0.000255
0.000214
0.000258
0.000272
0.000281
0.000271
0.000255
0.001463
0.000336
0.000250
0.000254
0.000174
0.000056
0.000202
0.000220
0.000241
0.000243
0.000251
0.000242
0.000286
0.000390
0.000337
0.000388
0.000199
0.000250
0.000255
0.000340
0.000430
0.000316
0.000217
0.000248
0.000257
0.000346
0.000455
0.000466
0.000263
0.000251
0.000259
0.000259
0.000245
0.000272
0.000276
0.000264
0.000207
0.000055
0.001454
0.000449
0.000206
0.001927
0.000327
0.000373
0.000445
0.000334
0.000202
0.000249
0.000268
0.000239
0.000248
0.000254
0.000259
0.000259
0.000451
0.000319
0.000365
0.000378
0.000364
0.000223
0.000258
0.000265
0.000269
0.000276
0.000262
0.000268
0.000379
0.000397
0.001428
0.000056
0.000197
0.000225
0.002081
0.000311
0.000298
0.000255
0.000260
0.000256
0.000256
0.000266
0.000214
0.000253
0.000249
0.000264
0.000256
0.000366
0.000711
0.001752
0.000232
0.000246
0.000252
0.000270
0.000358
0.000445
0.001593
0.000281
0.000362
0.001926
0.000273
0.000242
0.000196
0.000056
0.000209
0.000242
0.000227
0.000245
0.000231
0.000245
0.000256
0.000288
0.000328
0.000278
0.000377
0.000357
0.000336
0.000305
0.000229
0.000276
0.000262
0.000235
0.000268
0.000254
0.000298
0.000288
0.000265
0.000263
0.000271
0.001525
0.000265
0.000400
0.002071
0.000224
0.000176
0.000055
0.000205
0.000265
0.000215
0.000244
0.000482
0.000217
0.000252
0.000327
0.000384
0.000315
0.000293
0.000204
0.000259
0.000269
0.000266
0.000336
0.000395
0.000461
0.000255
0.000387
0.000528
0.000417
0.001617
0.000228
0.000252
0.001993
0.000319
0.000244
0.000250
0.000293
0.000185
0.000057
0.000182
0.000242
0.000228
0.000237
0.000252
0.000274
0.000249
0.000275
0.000249
0.000306
0.001760
0.000335
0.000377
0.000315
0.000429
0.000364
0.000369
0.001478
0.000246
0.000275
0.002110
0.000564
0.000281
0.000215
0.000268
0.000272
0.000501
0.000227
0.000261
0.000274
0.000196
0.000055
0.000289
0.000403
0.000334
0.000287
0.000218
0.000252
0.000236
0.000319
0.000308
0.000219
0.000199
0.000251
0.000253
0.000267
0.000314
0.001530
0.000327
0.000231
0.000511
0.001659
0.000407
0.000238
0.000254
0.000262
0.000263
0.000266
0.000269
0.000256
0.000251
0.000261
0.000208
0.000056
0.000235
0.000550
0.001918
0.000255
0.000251
0.000218
0.000246
0.000300
0.000430
0.000445
0.001304
0.000383
0.002061
0.000367
0.000211
0.000245
0.000269
0.000269
0.000260
0.000234
0.000288
0.000293
0.000267
0.000368
0.000453
0.000427
0.000301
0.002197
0.000488
0.000491
0.000404
0.000072
0.000204
0.000223
0.000237
0.001973
0.000231
0.000225
0.000246
0.000235
0.000245
0.000257
0.000242
0.000264
0.000244
0.000288
0.000466
0.001442
0.000256
0.000241
0.000264
0.000260
0.000230
0.000258
0.000260
0.000263
0.000311
0.000452
0.000505
0.000226
0.001597
0.000284
0.000165
0.000055
0.000202
0.000214
0.000253
0.000233
0.000266
0.000237
0.000250
0.000247
0.000260
0.000423
0.000311
0.001422
0.000240
0.000212
0.000250
0.000262
0.000255
0.000251
0.000498
0.000284
0.000456
0.000397
0.000225
0.001587
0.000222
0.000257
0.000289
0.000277
0.000259
0.000269
0.000188
0.000056
0.000217
0.000220
0.000263
0.000270
0.000240
0.000246
0.000239
0.000240
0.000263
0.000244
0.000251
0.000248
0.000261
0.001480
0.000367
0.000211
0.000249
0.000281
0.000275
0.000301
0.000378
0.000269
0.000237
0.000255
0.000272
0.000261
0.000260
0.001414
0.000275
0.000238
0.000165
0.000057
0.000190
0.000237
0.000264
0.000264
0.000249
0.000237
0.000249
0.000257
0.000223
0.000260
0.000247
0.000269
0.000220
0.000278
0.000395
0.000346
0.000292
0.000223
0.001635
0.000249
0.000230
0.000268
0.000264
0.000283
0.000375
0.000390
0.000451
0.000267
0.000248
0.001630
0.000145
0.000058
0.000345
0.000334
0.000379
0.000258
0.000244
0.000216
0.000245
0.000270
0.000255
0.000237
0.000247
0.000240
0.001464
0.000286
0.000318
0.000215
0.000252
0.000253
0.000272
0.000264
0.000250
0.000237
0.000265
0.000270
0.000262
0.000390
0.000436
0.000298
0.000327
0.000249
0.000192
0.000056
0.000221
0.000274
0.000357
0.000374
0.000381
0.000279
0.000245
0.000252
0.000250
0.000259
0.000240
0.000224
0.000258
0.000240
0.001264
0.000317
0.000222
0.000243
0.000270
0.000266
0.000239
0.000262
0.000254
0.000260
0.000261
0.000258
0.000294
0.000645
0.000513
0.000224
0.000180
0.000057
0.000202
0.001564
0.000234
0.000316
0.000543
0.000326
0.000207
0.000250
0.000274
0.000244
0.000243
0.000263
0.000271
0.000268
0.000264
0.001528
0.000254
0.000277
0.000267
0.000268
0.000243
0.000256
0.000265
0.000265
0.000262
0.000255
0.000484
0.000338
0.000342
0.000248
0.000176
0.000055
0.000204
0.000248
0.000232
0.001620
0.000431
0.000353
0.000214
0.000236
0.000254
0.000269
0.000282
0.000255
0.000240
0.000267
0.000227
0.000271
0.000390
0.001335
0.000243
0.000237
0.001507
0.000286
0.000604
0.000383
0.000348
0.000225
0.000270
0.000477
0.000226
0.000256
0.000185
0.000055
0.000294
0.000212
0.000234
0.000249
0.000250
0.000259
0.000239
0.000254
0.000256
0.000240
0.000255
0.000255
0.000391
0.000471
0.001621
0.001490
0.000362
0.000535
0.000336
0.000217
0.000238
0.000256
0.000250
0.000265
0.000249
0.000271
0.000269
0.000260
0.001526
0.000336
0.000162
0.000055
0.000220
0.000358
0.000353
0.000330
0.000237
0.000217
0.000243
0.000372
0.000414
0.000344
0.002192
0.000322
0.000723
0.000456
0.000490
0.000265
0.000335
0.000404
0.000319
0.000283
0.000391
0.000234
0.001565
0.000526
0.000225
0.000253
0.000251
0.000254
0.000263
0.000273
0.000194
0.000055
0.000206
0.000249
0.000256
0.000248
0.000246
0.001661
0.000880
0.000999
0.000211
0.000229
0.000261
0.000257
0.000259
0.000262
0.000253
0.000245
0.000260
0.000262
0.000268
0.000276
0.001433
0.000317
0.000258
0.000218
0.000234
0.000262
0.000255
0.000283
0.000262
0.000289
0.001897
0.000056
0.000198
0.000233
0.001543
0.000983
0.000243
0.000383
0.000223
0.000231
0.000249
0.000258
0.000250
0.000246
0.000243
0.002083
0.000395
0.000200
0.000252
0.000251
0.000265
0.000258
0.000188
