0.000172
0.020828
0.000763
0.000394
0.000242
0.000231
0.000308
0.000251
0.000327
0.000291
0.000241
0.000384
0.000504
0.000514
0.000342
0.000315
0.000303
0.000378
0.000402
0.000406
0.000304
0.001863
0.000487
0.000453
0.000256
0.000299
0.000303
0.000417
0.000419
0.000378
0.000459
0.000300
0.000057
0.000220
0.000227
0.000270
0.000264
0.000273
0.000261
0.000271
0.000258
0.000275
0.000288
0.000465
0.000450
0.000286
0.000278
0.000398
0.000367
0.000343
0.000246
0.000221
0.001751
0.000275
0.000224
0.000508
0.000243
0.000239
0.000264
0.000273
0.000299
0.000279
0.000519
0.000295
0.000058
0.000185
0.000219
0.000267
0.000265
0.000251
0.000248
0.000261
0.000259
0.000280
0.001673
0.000239
0.000228
0.000255
0.000271
0.000282
0.000244
0.000278
0.000248
0.000345
0.001802
0.000258
0.000256
0.000459
0.000475
0.000366
0.000244
0.000249
0.000512
0.000538
0.000723
0.000173
0.000057
0.000230
0.000213
0.000258
0.000240
0.000310
0.000268
0.000295
0.000532
0.000493
0.000230
0.000211
0.000238
0.000217
0.000259
0.000254
0.000256
0.000241
0.000272
0.000293
0.000319
0.001745
0.000253
0.000240
0.000458
0.000263
0.000698
0.000605
0.000536
0.000368
0.000242
0.000206
0.000056
0.000199
0.000217
0.000262
0.000244
0.000255
0.000260
0.000253
0.000433
0.001511
0.000243
0.000238
0.000238
0.000244
0.000254
0.000265
0.000284
0.000305
0.000771
0.001386
0.000286
0.000266
0.000422
0.000252
0.000240
0.000249
0.000258
0.000267
0.000265
0.000253
0.000279
0.000219
0.000056
0.000217
0.000226
0.000226
0.000248
0.000256
0.000246
0.000249
0.000249
0.000239
0.000252
0.001708
0.000236
0.000232
0.000224
0.000222
0.000259
0.000236
0.000248
0.000264
0.000248
0.000268
0.001743
0.000236
0.000260
0.000473
0.000240
0.000234
0.000235
0.000264
0.000259
0.000211
0.000057
0.000192
0.000212
0.000238
0.000252
0.000238
0.000256
0.000251
0.000237
0.000263
0.000249
0.000266
0.000250
0.000264
0.000271
0.001636
0.000285
0.000269
0.000246
0.000237
0.000274
0.000275
0.000247
0.000255
0.000253
0.000262
0.001886
0.000362
0.000361
0.000252
0.000262
0.000226
0.000056
0.000206
0.000205
0.000237
0.000275
0.000282
0.000207
0.000322
0.000361
0.000459
0.000403
0.000221
0.000234
0.000251
0.000257
0.001647
0.000493
0.000302
0.000444
0.000270
0.000216
0.000254
0.000279
0.000280
0.001791
0.000444
0.000543
0.000221
0.000236
0.000228
0.000254
0.000206
0.000056
0.000199
0.000220
0.000243
0.000259
0.000322
0.000488
0.000392
0.000256
0.000217
0.000216
0.000264
0.000235
0.000267
0.001750
0.000440
0.000298
0.000227
0.000251
0.000260
0.000282
0.000259
0.000258
0.000268
0.001933
0.000270
0.000380
0.000272
0.000232
0.000314
0.000399
0.000325
0.000056
0.000210
0.000374
0.000361
0.000258
0.000289
0.000219
0.000241
0.000258
0.000245
0.000242
0.000226
0.000245
0.001629
0.000332
0.000312
0.000208
0.000226
0.000251
0.000251
0.000273
0.000276
0.000338
0.001786
0.000351
0.000224
0.000498
0.000224
0.000223
0.000252
0.000269
0.000311
0.000057
0.000406
0.000486
0.000640
0.000206
0.000202
0.000268
0.000232
0.000224
0.000258
0.000245
0.000262
0.001691
0.000288
0.000399
0.000380
0.000224
0.000251
0.000223
0.000239
0.000259
0.000260
0.001858
0.000241
0.000236
0.002234
0.000466
0.000238
0.000269
0.000261
0.000259
0.000205
0.000055
0.000208
0.000219
0.000251
0.000241
0.000250
0.001688
0.000226
0.000200
0.000247
0.000252
0.000244
0.000244
0.000252
0.000253
0.000264
0.000473
0.000596
0.000256
0.000218
0.000264
0.000274
0.000253
0.000236
0.000495
0.000433
0.000270
0.000358
0.000688
0.000306
0.000237
0.000175
0.000057
0.000175
0.000210
0.000253
0.000252
0.000241
0.000235
0.000240
0.000507
0.000447
0.001568
0.000256
0.000231
0.000246
0.000248
0.000269
0.000254
0.000464
0.000504
0.000371
0.000239
0.000226
0.000258
0.000298
0.000283
0.000282
0.000405
0.000442
0.000559
0.000487
0.000423
0.000131
0.000056
0.000184
0.000251
0.000225
0.000232
0.000228
0.000242
0.000248
0.000247
0.000249
0.000369
0.000337
0.001560
0.000277
0.000213
0.000216
0.000204
0.000270
0.000249
0.000245
0.000255
0.000352
0.000406
0.000365
0.000350
0.000214
0.000238
0.000264
0.000257
0.000271
0.000268
0.000418
0.000056
0.000204
0.000221
0.000231
0.000269
0.000537
0.000473
0.000201
0.000243
0.000233
0.000266
0.000241
0.000246
0.000281
0.000262
0.000242
0.000609
0.000358
0.001567
0.000266
0.000252
0.000260
0.000263
0.000258
0.000250
0.000261
0.000366
0.000602
0.000340
0.000371
0.000227
0.000211
0.000056
0.000211
0.000228
0.000399
0.000242
0.000257
0.000242
0.000272
0.000605
0.000380
0.000265
0.000220
0.000269
0.000265
0.000246
0.000582
0.000292
0.000220
0.000258
0.000422
0.001663
0.000238
0.000225
0.000319
0.000408
0.000282
0.000297
0.000259
0.000345
0.000533
0.000421
0.000250
0.000059
0.000214
0.000208
0.000232
0.000245
0.000474
0.000263
0.000284
0.000218
0.000364
0.000618
0.000329
0.000256
0.000210
0.000202
0.000258
0.000267
0.000255
0.000260
0.000222
0.000372
0.000276
0.000575
0.001595
0.000265
0.000243
0.000245
0.000313
0.000371
0.000597
0.000532
0.000415
0.000072
0.000254
0.000318
0.000308
0.000424
0.000319
0.000216
0.000245
0.000319
0.000501
0.000392
0.000327
0.000214
0.000216
0.000256
0.000273
0.000236
0.000243
0.000274
0.000273
0.000259
0.000269
0.000411
0.001752
0.000312
0.000348
0.000426
0.000375
0.000234
0.000452
0.000360
0.000334
0.000056
0.000245
0.000389
0.000269
0.000208
0.000236
0.000215
0.000469
0.000216
0.000219
0.000415
0.000352
0.000490
0.000203
0.000263
0.000302
0.000233
0.000369
0.000442
0.000291
0.000228
0.000217
0.000452
0.000533
0.001707
0.000258
0.000420
0.000325
0.000222
0.000262
0.000435
0.000327
0.000056
0.000199
0.000196
0.000236
0.000258
0.000236
0.000254
0.000248
0.000349
0.000433
0.000256
0.000568
0.000356
0.000270
0.000200
0.000530
0.000266
0.000269
0.000267
0.000244
0.000341
0.000233
0.000236
0.000267
0.000422
0.000623
0.001577
0.000226
0.000244
0.000236
0.000258
0.000204
0.000057
0.000311
0.000428
0.000394
0.000217
0.000219
0.000232
0.000263
0.000231
0.000262
0.000249
0.000222
0.000488
0.000298
0.000472
0.000370
0.000315
0.000221
0.000242
0.000366
0.000358
0.000361
0.000376
0.000380
0.000373
0.000232
0.000236
0.000248
0.000275
0.001778
0.000279
0.000198
0.000056
0.000203
0.000199
0.000250
0.000267
0.000359
0.000531
0.000333
0.000228
0.000234
0.000271
0.000254
0.000246
0.000532
0.000442
0.000470
0.000301
0.000271
0.000249
0.000440
0.000496
0.000364
0.000434
0.000535
0.000377
0.000221
0.000245
0.000238
0.000226
0.000260
0.001778
0.000269
0.000057
0.000292
0.000318
0.000207
0.000226
0.000253
0.000244
0.000319
0.000422
0.000430
0.000296
0.000302
0.000283
0.000520
0.000535
0.000282
0.000218
0.000219
0.000241
0.000259
0.000258
0.000262
0.000282
0.000234
0.000273
0.000336
0.000326
0.000495
0.000339
0.000224
0.000227
0.000184
0.000059
0.000448
0.000304
0.000399
0.000284
0.000209
0.000236
0.000246
0.000250
0.000265
0.000205
0.000244
0.000274
0.000297
0.000360
0.000566
0.000416
0.000331
0.000371
0.000372
0.000396
0.000252
0.000216
0.000224
0.000269
0.001793
0.000233
0.001771
0.000915
0.000370
0.000339
0.000154
0.000057
0.000206
0.000203
0.000241
0.000231
0.000260
0.000254
0.000249
0.000250
0.000254
0.000311
0.000369
0.000430
0.000543
0.000286
0.000200
0.000235
0.000263
0.000293
0.000220
0.000222
0.000250
0.000232
0.001800
0.000274
0.000231
0.000263
0.000280
0.000265
0.001879
0.000587
0.000203
0.000057
0.000229
0.000195
0.000210
0.000244
0.000250
0.000242
0.000243
0.000257
0.000261
0.000378
0.000508
0.000364
0.000381
0.000243
0.000224
0.000292
0.000377
0.000397
0.000370
0.000243
0.001811
0.000235
0.000221
0.000229
0.000254
0.000271
0.000251
0.000262
0.000249
0.000354
0.000404
0.000056
0.000266
0.000204
0.000207
0.000252
0.000247
0.000241
0.000259
0.000257
0.000253
0.000243
0.000247
0.000243
0.000452
0.000406
0.000274
0.000313
0.000485
0.000209
0.000225
0.000253
0.000262
0.000252
0.000275
0.000260
0.000297
0.001762
0.000266
0.000248
0.000246
0.000239
0.000222
0.000057
0.000292
0.000329
0.000245
0.000200
0.000222
0.000241
0.000239
0.000250
0.000250
0.000238
0.000217
0.000260
0.000258
0.000286
0.000514
0.000329
0.000363
0.000214
0.000216
0.000245
0.000262
0.000255
0.000260
0.000265
0.000242
0.000265
0.000304
0.001697
0.000243
0.000223
0.000191
0.000056
0.000199
0.000219
0.000246
0.000254
0.000355
0.000336
0.000533
0.000226
0.000213
0.000240
0.000249
0.000244
0.000249
0.000252
0.000260
0.000264
0.000243
0.000256
0.000251
0.000259
0.000272
0.000263
0.000264
0.000231
0.000233
0.000284
0.000273
0.000263
0.000258
0.000253
0.000222
0.000056
0.000212
0.000240
0.000221
0.000255
0.000226
0.000245
0.000242
0.000259
0.000365
0.000207
0.000192
0.000238
0.000255
0.000248
0.000264
0.000271
0.000254
0.000245
0.000369
0.000219
0.000237
0.000281
0.000282
0.000252
0.000271
0.000282
0.000269
0.000252
0.000263
0.000425
0.000663
0.000076
0.000218
0.000301
0.000219
0.000209
0.000210
0.000247
0.000246
0.000244
0.000245
0.000250
0.000264
0.000286
0.000482
0.000562
0.001531
0.000206
0.000513
0.000220
0.000214
0.000516
0.000477
0.000288
0.000219
0.000270
0.000261
0.000259
0.000278
0.000246
0.000310
0.000264
0.000200
0.000057
0.000312
0.000412
0.000369
0.000344
0.000192
0.000239
0.000246
0.000245
0.000237
0.000248
0.000250
0.000254
0.000235
0.000295
0.000348
0.000473
0.000381
0.001797
0.000266
0.000235
0.000350
0.000424
0.000465
0.000268
0.000374
0.000265
0.000299
0.000236
0.000230
0.000239
0.000222
0.000058
0.000215
0.000203
0.000238
0.000296
0.000469
0.000394
0.000273
0.000257
0.000251
0.000220
0.000241
0.000268
0.000267
0.000260
0.000250
0.000261
0.000332
0.000451
0.000365
0.000420
0.000237
0.001811
0.000292
0.000559
0.000521
0.000390
0.000286
0.000247
0.000227
0.000275
0.000497
0.000057
0.000197
0.000230
0.000238
0.000357
0.000371
0.000542
0.000258
0.000262
0.000237
0.000305
0.000224
0.000235
0.000251
0.000305
0.000356
0.000216
0.000220
0.000445
0.000327
0.000421
0.000543
0.001776
0.000253
0.000514
0.000455
0.000323
0.000240
0.000374
0.000252
0.000212
0.000224
0.000056
0.000227
0.000337
0.000341
0.000358
0.000324
0.000356
0.000330
0.000224
0.000220
0.000259
0.000269
0.000242
0.000238
0.000252
0.000255
0.000251
0.000307
0.000360
0.000537
0.000388
0.000294
0.000218
0.000270
0.001772
0.000329
0.000494
0.000710
0.000291
0.000233
0.000298
0.000175
0.000057
0.000174
0.000214
0.000313
0.000260
0.000306
0.000356
0.000404
0.000301
0.000314
0.000530
0.000202
0.000238
0.000216
0.000277
0.000275
0.000272
0.000231
0.000471
0.000369
0.000379
0.000268
0.000242
0.000251
0.000260
0.000260
0.000271
0.000244
0.000241
0.000270
0.000358
0.000154
0.000055
0.000319
0.000340
0.000228
0.000233
0.000246
0.000256
0.000245
0.000372
0.000198
0.000211
0.000252
0.000344
0.000417
0.000453
0.000346
0.000258
0.000227
0.000222
0.000248
0.000266
0.000273
0.000291
0.000228
0.000245
0.000284
0.000315
0.000395
0.000422
0.000373
0.000218
0.000157
0.000057
0.000203
0.000214
0.000258
0.000249
0.000241
0.000252
0.000252
0.000264
0.000494
0.000237
0.000228
0.000251
0.000254
0.000252
0.000272
0.000271
0.000274
0.000369
0.000217
0.000231
0.000245
0.000267
0.000267
0.000254
0.000282
0.000263
0.000265
0.000261
0.000246
0.000497
0.000180
0.000057
0.000203
0.000212
0.000241
0.000260
0.000244
0.000236
0.000299
0.000456
0.000253
0.000233
0.000250
0.000253
0.000251
0.000274
0.000416
0.001813
0.000224
0.000244
0.000311
0.000381
0.000413
0.000338
0.000384
0.000363
0.000388
0.000358
0.000248
0.000275
0.000267
0.000274
0.001410
0.000057
0.000383
0.000307
0.000315
0.000208
0.000189
0.000238
0.000238
0.000250
0.000245
0.000261
0.000257
0.000253
0.000252
0.000252
0.002049
0.000260
0.000201
0.000206
0.000211
0.000264
0.000242
0.000257
0.000485
0.000345
0.000248
0.000310
0.000259
0.000243
0.000269
0.000266
0.000216
0.000058
0.001203
0.000573
0.000316
0.000300
0.000200
0.000210
0.000218
0.000226
0.000498
0.000219
0.000230
0.000249
0.000320
0.000520
0.000427
0.000325
0.000300
0.000243
0.000358
0.000352
0.000221
0.000240
0.000268
0.000243
0.000278
0.000702
0.000453
0.000240
0.000241
0.000280
0.000176
0.000057
0.000197
0.000215
0.000217
0.000252
0.001458
0.000333
0.000215
0.000237
0.000242
0.000250
0.000253
0.000250
0.000247
0.000263
0.000265
0.000282
0.000437
0.000667
0.000264
0.001804
0.000255
0.000294
0.000280
0.000657
0.000343
0.000372
0.000231
0.000221
0.000254
0.000277
0.000208
0.000057
0.000210
0.000250
0.000211
0.001319
0.000338
0.000212
0.000247
0.000211
0.000239
0.000236
0.000234
0.000252
0.000278
0.000244
0.000252
0.000319
0.000406
0.000531
0.000302
0.000221
0.000244
0.000271
0.000256
0.000232
0.000341
0.000218
0.000235
0.000272
0.000269
0.000409
0.000540
0.000057
0.000240
0.000205
0.000235
0.000257
0.000261
0.000255
0.000225
0.000265
0.000265
0.000251
0.001436
0.000239
0.000228
0.000256
0.000238
0.000245
0.000264
0.000265
0.000255
0.000278
0.000262
0.000491
0.000467
0.000365
0.000249
0.000265
0.001830
0.000228
0.000250
0.000337
0.000423
0.000056
0.000225
0.000435
0.000449
0.000500
0.000525
0.000530
0.001484
0.000418
0.000547
0.000643
0.000583
0.000678
0.000557
0.000559
0.000586
0.001710
0.000487
0.000429
0.000393
0.000336
0.000224
0.000301
0.000278
0.000265
0.000276
0.000272
0.000320
0.000271
0.000249
0.000290
0.001320
0.000056
0.000207
0.000243
0.000224
0.000234
0.000243
0.000246
0.000239
0.000239
0.000264
0.000264
0.000244
0.000270
0.000241
0.000252
0.000282
0.000237
0.001838
0.000267
0.000262
0.000245
0.000257
0.000261
0.000266
0.000298
0.000531
0.000282
0.000327
0.000247
0.000259
0.000293
0.000186
0.000057
0.000188
0.001403
0.000264
0.000272
0.000258
0.000232
0.000258
0.000235
0.000252
0.000245
0.000235
0.000245
0.000261
0.000437
0.000283
0.000361
0.000259
0.000300
0.001899
0.000261
0.000249
0.000258
0.000260
0.000263
0.000267
0.000259
0.000309
0.000221
0.000256
0.000294
0.000247
0.000056
0.000207
0.000232
0.000251
0.001429
0.000257
0.000290
0.000210
0.000218
0.000228
0.000270
0.000251
0.000264
0.000225
0.000258
0.000278
0.000249
0.000250
0.000257
0.000278
0.000258
0.000266
0.001836
0.000263
0.001768
0.000253
0.000254
0.000241
0.000229
0.000272
0.000289
0.000210
0.000057
0.000204
0.000240
0.001377
0.000240
0.000267
0.000211
0.000218
0.000248
0.000245
0.000240
0.000252
0.000251
0.000252
0.000267
0.000252
0.000261
0.000263
0.000274
0.000298
0.000248
0.001862
0.000278
0.001791
0.000291
0.000241
0.000247
0.000252
0.000262
0.000264
0.000257
0.000185
0.000057
0.001439
0.000232
0.000257
0.000211
0.000214
0.000219
0.000281
0.000357
0.000253
0.000260
0.000250
0.000258
0.000248
0.000338
0.000497
0.000259
0.000255
0.000268
0.000226
0.000229
0.000262
0.000334
0.000252
0.000248
0.000273
0.000271
0.000264
0.000309
0.000754
0.000354
0.000167
0.000056
0.000189
0.000288
0.000272
0.000308
0.000376
0.000246
0.001679
0.000277
0.000279
0.000260
0.000267
0.000308
0.000252
0.000270
0.000298
0.000312
0.000330
0.000565
0.000349
0.000281
0.000320
0.000279
0.000259
0.000265
0.000331
0.000260
0.000262
0.000234
0.000246
0.000330
0.000387
0.000056
0.000314
0.000376
0.000269
0.000266
0.000250
0.000225
0.000225
0.000250
0.000254
0.000260
0.001542
0.000222
0.000208
0.000242
0.000243
0.000287
0.000261
0.000267
0.000251
0.000262
0.000265
0.000381
0.000669
0.000231
0.000252
0.000288
0.000249
0.000242
0.000244
0.000229
0.000254
0.000056
0.000208
0.000207
0.000268
0.000456
0.000380
0.000291
0.000200
0.000266
0.000240
0.000268
0.000220
0.000257
0.000250
0.000268
0.000241
0.000230
0.000490
0.001197
0.000265
0.000220
0.000216
0.000245
0.000346
0.000496
0.000225
0.000353
0.000528
0.000348
0.000396
0.000227
0.000171
0.000059
0.000158
0.000219
0.000266
0.000260
0.000313
0.000206
0.000351
0.000427
0.000449
0.000308
0.000369
0.000421
0.000363
0.000354
0.000239
0.000215
0.000208
0.000249
0.000390
0.000578
0.001157
0.000249
0.000253
0.000274
0.000235
0.000234
0.000265
0.000338
0.000368
0.000556
0.000210
0.000057
0.000215
0.000212
0.000244
0.000243
0.000258
0.000243
0.000230
0.000263
0.000250
0.000384
0.000514
0.000381
0.000226
0.000208
0.000222
0.000263
0.000250
0.000264
0.000284
0.000521
0.000211
0.000227
0.000404
0.000342
0.000353
0.000240
0.000249
0.000279
0.000248
0.000289
0.000223
0.000076
0.000269
0.000293
0.000437
0.000246
0.000584
0.000251
0.000231
0.000273
0.000218
0.000262
0.000257
0.000267
0.000237
0.000256
0.000243
0.000226
0.000266
0.000426
0.000448
0.000381
0.000220
0.000252
0.000227
0.000252
0.000247
0.000279
0.000290
0.000249
0.000279
0.000259
0.000298
0.000055
0.000293
0.000344
0.000199
0.000229
0.000246
0.000251
0.000246
0.000250
0.000257
0.000267
0.000252
0.000234
0.000284
0.000548
0.000439
0.000316
0.000214
0.000205
0.000239
0.000266
0.000279
0.000235
0.000287
0.000243
0.000268
0.000292
0.000504
0.000520
0.000502
0.000216
0.000147
0.000055
0.000396
0.000214
0.000193
0.000234
0.000253
0.000254
0.000237
0.000246
0.000259
0.000260
0.000224
0.000243
0.000278
0.000222
0.000241
0.000259
0.000253
0.000259
0.000278
0.000280
0.000246
0.000262
0.000261
0.000260
0.000273
0.000259
0.000247
0.000271
0.000258
0.000281
0.000220
0.000056
0.000192
0.000210
0.000241
0.000262
0.000219
0.000250
0.000266
0.000244
0.000260
0.000277
0.000227
0.000233
0.000256
0.000407
0.000240
0.000280
0.000262
0.000280
0.000265
0.000262
0.000273
0.000237
0.000244
0.000256
0.000265
0.000274
0.000256
0.000249
0.000270
0.000262
0.000223
0.000056
0.000268
0.000384
0.000340
0.000280
0.000329
0.000205
0.000210
0.000255
0.000231
0.000243
0.000248
0.000261
0.000256
0.000232
0.000261
0.000252
0.000284
0.000253
0.000245
0.000267
0.000268
0.000268
0.000277
0.000257
0.000272
0.000279
0.000238
0.000291
0.000236
0.000269
0.000204
0.000074
0.000193
0.000213
0.000246
0.000261
0.000250
0.000446
0.000215
0.000247
0.000306
0.000424
0.000487
0.000338
0.000208
0.000225
0.000266
0.000271
0.000236
0.000265
0.000262
0.000271
0.000264
0.000256
0.000264
0.000249
0.000607
0.000492
0.000263
0.000253
0.000278
0.000258
0.000206
0.000056
0.000193
0.000197
0.000243
0.000255
0.000265
0.000700
0.000312
0.000374
0.000245
0.000245
0.000231
0.000254
0.000266
0.000242
0.000255
0.000270
0.000260
0.000241
0.000584
0.000448
0.000323
0.000238
0.000235
0.000281
0.000277
0.000265
0.000264
0.000259
0.000251
0.000340
0.000341
0.000056
0.000290
0.000229
0.000213
0.000240
0.000256
0.000255
0.000230
0.000246
0.000241
0.000261
0.000246
0.000249
0.000249
0.000418
0.000525
0.000472
0.000225
0.000206
0.000260
0.000253
0.000266
0.000266
0.000475
0.000256
0.000246
0.000652
0.000397
0.000477
0.000253
0.000228
0.000200
0.000057
0.000223
0.000198
0.000242
0.000247
0.000247
0.000263
0.000299
0.000423
0.000637
0.000389
0.000246
0.000233
0.000273
0.000284
0.000276
0.000227
0.000248
0.000241
0.000259
0.000295
0.000492
0.000518
0.000444
0.000276
0.000438
0.000341
0.000491
0.000207
0.000241
0.000395
0.000450
0.000055
0.000270
0.000209
0.000490
0.000198
0.000230
0.000221
0.000254
0.000259
0.000231
0.000245
0.000266
0.000439
0.000327
0.000377
0.000241
0.000213
0.000270
0.000234
0.000268
0.000271
0.000268
0.000260
0.000255
0.000263
0.000317
0.000528
0.000429
0.000258
0.000249
0.000281
0.000208
0.000057
0.000167
0.000243
0.000232
0.000243
0.000247
0.000265
0.000361
0.000565
0.000293
0.000282
0.000342
0.000233
0.000231
0.000272
0.000260
0.000239
0.000250
0.000266
0.000281
0.000426
0.000520
0.000283
0.000447
0.000354
0.000397
0.000385
0.000379
0.000245
0.000243
0.000247
0.000443
0.000056
0.000237
0.000284
0.000195
0.000248
0.000265
0.000263
0.000234
0.000247
0.000254
0.000266
0.000239
0.000349
0.000430
0.000382
0.000376
0.000250
0.000250
0.000258
0.000278
0.000227
0.000256
0.000254
0.000260
0.000278
0.000275
0.000321
0.000489
0.000481
0.000253
0.000276
0.000207
0.000056
0.000216
0.000204
0.000252
0.000254
0.000246
0.000345
0.000455
0.000536
0.000350
0.000671
0.000304
0.000205
0.000230
0.000252
0.000239
0.000272
0.000276
0.000269
0.000466
0.000517
0.001555
0.000249
0.000261
0.000258
0.000301
0.000228
0.000403
0.000407
0.000398
0.000265
0.000174
0.000055
0.000199
0.000205
0.000240
0.000254
0.000236
0.000248
0.000270
0.000258
0.000252
0.000356
0.000357
0.000360
0.000277
0.000383
0.000390
0.000320
0.000234
0.000214
0.000251
0.000267
0.000241
0.000243
0.000281
0.000263
0.000333
0.000535
0.000353
0.000281
0.000225
0.000259
0.000200
0.000058
0.000173
0.000227
0.000257
0.000254
0.000245
0.000236
0.000466
0.000218
0.000238
0.000251
0.000248
0.000255
0.000251
0.000270
0.000239
0.000267
0.000265
0.000263
0.000275
0.000254
0.000254
0.000287
0.000301
0.000245
0.000263
0.000273
0.000278
0.000270
0.000275
0.000248
0.000198
0.000056
0.000198
0.000215
0.000325
0.000455
0.000368
0.000221
0.000226
0.000236
0.000263
0.000247
0.000245
0.000259
0.000264
0.000262
0.000240
0.000235
0.000250
0.000265
0.000258
0.000371
0.000422
0.000415
0.000230
0.000256
0.000267
0.000259
0.000271
0.000246
0.000272
0.000282
0.000216
0.000057
0.000324
0.000419
0.000374
0.000242
0.000229
0.000250
0.000488
0.000197
0.000194
0.000250
0.000277
0.000337
0.000358
0.000453
0.001762
0.000271
0.000247
0.000243
0.000276
0.000245
0.000311
0.000459
0.000518
0.000414
0.000241
0.000239
0.000277
0.000422
0.000276
0.000288
0.000177
0.000056
0.000258
0.000341
0.000375
0.000240
0.000511
0.000220
0.000219
0.000244
0.000253
0.000263
0.000244
0.000245
0.000285
0.000393
0.000284
0.000509
0.000252
0.000213
0.000254
0.000272
0.000251
0.000318
0.000233
0.000286
0.000278
0.000439
0.000527
0.000411
0.000454
0.000227
0.000207
0.000056
0.000223
0.000199
0.000251
0.000231
0.000249
0.000256
0.000268
0.000266
0.000337
0.000540
0.000263
0.000391
0.000216
0.000228
0.000267
0.000269
0.000328
0.000241
0.000261
0.000275
0.000244
0.000265
0.000589
0.000266
0.000296
0.000287
0.000241
0.000524
0.000393
0.000288
0.000156
0.000056
0.000180
0.000232
0.000300
0.000448
0.000356
0.000226
0.000223
0.000251
0.000271
0.000249
0.000264
0.000284
0.000214
0.000243
0.000258
0.000273
0.000445
0.000389
0.000220
0.000383
0.000461
0.000240
0.000269
0.000278
0.000309
0.000282
0.000266
0.000245
0.000465
0.000444
0.000302
0.000056
0.000213
0.000212
0.000240
0.000248
0.000250
0.000480
0.000204
0.000255
0.000263
0.000366
0.000503
0.000565
0.000206
0.000235
0.000240
0.000250
0.000265
0.000239
0.000248
0.000260
0.000248
0.000273
0.000481
0.000369
0.000365
0.000358
0.000309
0.000346
0.000300
0.000212
0.000183
0.000056
0.000210
0.000247
0.000218
0.000486
0.000314
0.000385
0.000249
0.000203
0.000219
0.000240
0.000255
0.000245
0.000254
0.000270
0.000278
0.000226
0.000248
0.000248
0.000272
0.000352
0.000554
0.000396
0.000231
0.000224
0.000271
0.000281
0.000260
0.000258
0.000268
0.000284
0.000189
0.000056
0.000263
0.000414
0.000487
0.000220
0.000203
0.000211
0.000306
0.000529
0.000259
0.000212
0.000219
0.000267
0.000358
0.000356
0.000446
0.000318
0.000221
0.000246
0.000260
0.000212
0.000268
0.000273
0.000252
0.000290
0.000247
0.000347
0.000375
0.000398
0.000363
0.000228
0.000153
0.000056
0.000209
0.000218
0.000246
0.000271
0.000238
0.000258
0.000238
0.000258
0.000246
0.000248
0.000264
0.000246
0.000253
0.001448
0.000248
0.000244
0.000254
0.000251
0.000283
0.000273
0.000261
0.000244
0.000273
0.000253
0.000271
0.000266
0.000269
0.000274
0.000269
0.000256
0.000215
0.000056
0.000192
0.000216
0.000244
0.000249
0.000256
0.000222
0.000259
0.000254
0.000238
0.000247
0.000245
0.000260
0.000261
0.000256
0.000255
0.000258
0.000243
0.000257
0.000278
0.000254
0.000255
0.000259
0.000251
0.000248
0.001356
0.000282
0.000520
0.000462
0.000374
0.000215
0.000154
0.000056
0.000181
0.000199
0.000249
0.000243
0.000501
0.000222
0.000201
0.000215
0.000252
0.000345
0.000540
0.000331
0.000229
0.000209
0.000226
0.000258
0.000254
0.000265
0.000251
0.000259
0.000259
0.000253
0.000309
0.000363
0.000575
0.000385
0.000258
0.000243
0.001348
0.000288
0.000182
0.000057
0.000312
0.000423
0.000407
0.000181
0.000208
0.000211
0.000219
0.000245
0.000254
0.000258
0.000250
0.000258
0.000261
0.000311
0.000599
0.000351
0.000300
0.000236
0.000244
0.000256
0.000255
0.000265
0.000279
0.000255
0.000265
0.000262
0.000582
0.000282
0.000422
0.000375
0.000152
0.000057
0.000186
0.000228
0.001312
0.000355
0.000311
0.000484
0.000338
0.000329
0.000435
0.000374
0.000231
0.000204
0.000251
0.000253
0.000258
0.000259
0.000371
0.000465
0.000389
0.000365
0.000273
0.000235
0.000255
0.000513
0.000238
0.000254
0.000260
0.000278
0.000331
0.000533
0.000310
0.000057
0.000359
0.000347
0.000218
0.000212
0.001603
0.000461
0.000294
0.000224
0.000218
0.000241
0.000225
0.000240
0.000246
0.000265
0.000256
0.000266
0.000226
0.000324
0.000463
0.000446
0.000357
0.000217
0.000217
0.000250
0.000259
0.000277
0.000267
0.000239
0.000262
0.000275
0.000244
0.000056
0.000368
0.000322
0.000259
0.000215
0.000232
0.000244
0.000248
0.000249
0.000234
0.000242
0.001455
0.000477
0.000268
0.000205
0.000217
0.000249
0.000276
0.000263
0.000230
0.000275
0.000271
0.000259
0.000256
0.000436
0.000381
0.000493
0.000209
0.000280
0.000262
0.000282
0.000192
0.000057
0.000205
0.000454
0.000206
0.000213
0.000410
0.000409
0.000375
0.000262
0.000479
0.000198
0.000206
0.000254
0.000260
0.000262
0.000274
0.001423
0.000333
0.000286
0.000255
0.000267
0.000274
0.000254
0.000258
0.000254
0.000253
0.000277
0.000390
0.000500
0.000309
0.000281
0.000147
0.000056
0.000190
0.000229
0.000239
0.000242
0.000236
0.000255
0.000240
0.000258
0.000268
0.000421
0.000440
0.000311
0.000222
0.000201
0.000244
0.000263
0.000283
0.000263
0.000270
0.000225
0.000250
0.000285
0.001360
0.000227
0.000270
0.000216
0.000237
0.000266
0.000262
0.000259
0.000200
0.000056
0.000217
0.000344
0.000398
0.000349
0.000229
0.000215
0.000240
0.000263
0.000254
0.000255
0.000258
0.000260
0.000250
0.000251
0.000253
0.000266
0.000264
0.000271
0.000267
0.000251
0.000243
0.000275
0.000269
0.000286
0.000295
0.000257
0.000287
0.000232
0.000268
0.000506
0.001312
0.000055
0.000202
0.000211
0.000235
0.000250
0.000249
0.000256
0.000254
0.000217
0.000251
0.000247
0.000266
0.000264
0.000253
0.000242
0.000246
0.001702
0.000376
0.000203
0.000221
0.000228
0.000258
0.000256
0.000265
0.000263
0.000259
0.000273
0.000277
0.000266
0.000271
0.000265
0.000241
0.000056
0.000272
0.000306
0.001343
0.000204
0.000208
0.000220
0.000264
0.000250
0.000257
0.000260
0.000232
0.000354
0.000377
0.000539
0.000232
0.000208
0.000223
0.000264
0.000253
0.000263
0.000248
0.000263
0.000277
0.000276
0.000269
0.000382
0.000439
0.000329
0.000278
0.000260
0.000193
0.000056
0.000224
0.000221
0.000236
0.000250
0.000248
0.000240
0.000225
0.000244
0.000423
0.000441
0.001165
0.000235
0.000234
0.000269
0.000260
0.000267
0.000263
0.000247
0.000303
0.000434
0.000401
0.000255
0.000239
0.000224
0.000280
0.000272
0.000269
0.000300
0.000261
0.000286
0.000206
0.000056
0.000220
0.000410
0.000421
0.000234
0.000207
0.000203
0.000241
0.000267
0.000271
0.000259
0.000224
0.000534
0.000305
0.000430
0.000486
0.001436
0.000231
0.000261
0.000348
0.000345
0.000421
0.000427
0.000450
0.000430
0.000216
0.000266
0.000259
0.000281
0.000262
0.000275
0.000212
0.000057
0.000201
0.000265
0.000421
0.000429
0.000414
0.000212
0.000246
0.000242
0.000238
0.000255
0.000253
0.000259
0.000264
0.000243
0.000274
0.000319
0.000371
0.000475
0.000300
0.001317
0.000271
0.000246
0.000253
0.000470
0.000281
0.000456
0.000407
0.000220
0.000237
0.000277
0.000207
0.000055
0.000191
0.000215
0.000248
0.000232
0.000258
0.000295
0.000433
0.000384
0.000381
0.000211
0.000238
0.000254
0.000270
0.000258
0.000262
0.000269
0.000259
0.000259
0.000261
0.000302
0.000534
0.000404
0.000333
0.001340
0.000347
0.000235
0.000289
0.000441
0.000467
0.000302
0.000349
0.000057
0.000186
0.000217
0.000243
0.000252
0.000246
0.000254
0.001685
0.000252
0.000230
0.000217
0.000259
0.000251
0.000317
0.000326
0.000333
0.000293
0.000211
0.000329
0.000517
0.000409
0.000294
0.000263
0.000225
0.000227
0.001437
0.000422
0.000465
0.000438
0.000312
0.000292
0.000165
0.000057
0.000214
0.000222
0.000256
0.000264
0.000242
0.000253
0.001787
0.000208
0.000239
0.000254
0.000390
0.000416
0.001418
0.000339
0.000410
0.000212
0.000214
0.000236
0.000263
0.000269
0.001595
0.000629
0.000360
0.000282
0.000215
0.000226
0.000241
0.000282
0.000250
0.000249
0.000212
0.000056
0.000206
0.000221
0.000262
0.000246
0.000258
0.000275
0.000285
0.000256
0.000251
0.000254
0.000250
0.000248
0.000261
0.000267
0.000257
0.001486
0.000284
0.000243
0.000262
0.000276
0.000276
0.000257
0.000427
0.001264
0.000273
0.000248
0.000262
0.000270
0.000447
0.000215
0.000189
0.000056
0.000182
0.000227
0.000225
0.000241
0.000243
0.000229
0.000243
0.001752
0.000212
0.000211
0.000233
0.000376
0.000233
0.000221
0.001446
0.000257
0.000201
0.000233
0.000267
0.000241
0.000262
0.000306
0.000333
0.001365
0.000280
0.000222
0.000232
0.000249
0.001389
0.000267
0.000204
0.000056
0.000253
0.000347
0.000224
0.000198
0.000248
0.000244
0.000279
0.000250
0.000269
0.000244
0.000263
0.000259
0.000257
0.000246
0.000260
0.001539
0.000263
0.000254
0.000262
0.000246
0.000280
0.000262
0.000261
0.001535
0.000299
0.000251
0.000262
0.001346
0.000241
0.000218
0.000237
0.000058
0.000243
0.000342
0.000365
0.000218
0.000217
0.000241
0.000260
0.000256
0.000263
0.000270
0.000243
0.000245
0.000261
0.000259
0.000471
0.001247
0.000213
0.000229
0.000242
0.000278
0.000236
0.000234
0.000255
0.001280
0.000397
0.000218
0.000228
0.000242
0.000266
0.001320
0.000355
0.000056
0.000287
0.000250
0.000213
0.000207
0.000249
0.000231
0.000262
0.000240
0.000270
0.000259
0.000237
0.000248
0.000253
0.000322
0.000403
0.001489
0.000238
0.000238
0.000292
0.000501
0.000302
0.000460
0.001284
0.000295
0.000248
0.000253
0.001286
0.000350
0.000328
0.000479
0.000314
0.000056
0.000220
0.000225
0.000248
0.000257
0.000261
0.000240
0.000279
0.000249
0.000263
0.000263
0.000392
0.000418
0.001376
0.000226
0.000228
0.000241
0.000289
0.000259
0.000219
0.000221
0.000332
0.001315
0.000235
0.000227
0.000232
0.000250
0.001480
0.000454
0.000483
0.000248
0.000183
0.000056
0.000204
0.000208
0.000236
0.000239
0.000255
0.000265
0.000242
0.000254
0.000459
0.000458
0.000313
0.001446
0.000230
0.000233
0.000259
0.000260
0.000292
0.000270
0.001617
0.000326
0.000354
0.000353
0.001378
0.000377
0.000265
0.000338
0.000233
0.000224
0.000266
0.000252
0.000204
0.000055
0.000201
0.000210
0.000320
0.000269
0.000252
0.000554
0.000322
0.000340
0.001481
0.000287
0.000333
0.000251
0.000208
0.000292
0.000362
0.001375
0.000277
0.000210
0.000232
0.000229
0.000335
0.001585
0.000339
0.000276
0.000237
0.000220
0.000516
0.000313
0.000239
0.000233
0.000237
0.000057
0.000258
0.000356
0.000341
0.000298
0.000206
0.001460
0.000252
0.000252
0.000237
0.000271
0.000265
0.000249
0.000284
0.001488
0.000266
0.000233
0.000424
0.001269
0.000275
0.000442
0.000405
0.000216
0.000258
0.000247
0.000274
0.000251
0.000453
0.000237
0.000254
0.000276
0.000208
0.000057
0.000214
0.000212
0.000378
0.001446
0.000262
0.000215
0.000307
0.000247
0.000239
0.000255
0.000240
0.000248
0.001656
0.000210
0.000219
0.000216
0.001379
0.000293
0.000484
0.000396
0.000410
0.000204
0.000240
0.000241
0.000371
0.000246
0.000214
0.000256
0.000252
0.000248
0.000213
0.000056
0.000223
0.000397
0.001434
0.000219
0.000258
0.000268
0.000252
0.000245
0.000332
0.000376
0.001327
0.000260
0.000301
0.000239
0.000221
0.001413
0.000577
0.000301
0.000311
0.000411
0.000325
0.000228
0.000231
0.000260
0.000254
0.000290
0.000270
0.000294
0.000483
0.000440
0.001383
0.000055
0.000201
0.000245
0.000212
0.000225
0.000250
0.000454
0.000466
0.001338
0.000207
0.000222
0.000246
0.001409
0.000449
0.000345
0.000454
0.000254
0.000210
0.000209
0.000249
0.000273
0.000258
0.000259
0.000287
0.000255
0.000247
0.000314
0.000523
0.000400
0.001463
0.000268
0.000187
0.000057
0.000172
0.000228
0.000329
0.000604
0.001192
0.000296
0.000242
0.000280
0.000246
0.000231
0.000247
0.000265
0.000365
0.000543
0.000313
0.000220
0.000246
0.000273
0.000244
0.000268
0.000266
0.000267
0.000261
0.000259
0.000266
0.000348
0.000503
0.000366
0.000299
0.001492
0.000153
0.000059
0.000170
0.000211
0.000249
0.000469
0.000338
0.000335
0.000284
0.000335
0.000276
0.000260
0.000260
0.000259
0.000242
0.000315
0.000249
0.000246
0.000548
0.000351
0.000305
0.000368
0.000292
0.000477
0.000209
0.000243
0.000221
0.000264
0.000247
0.000286
0.000329
0.000534
0.000304
0.000056
0.000222
0.001358
0.000270
0.000336
0.000438
0.000406
0.000305
0.000353
0.000218
0.000218
0.000259
0.000246
0.000264
0.000270
0.000262
0.000262
0.000266
0.001419
0.000251
0.000215
0.000235
0.000266
0.000274
0.000282
0.000264
0.000255
0.000271
0.000258
0.000261
0.000654
0.000124
0.000057
0.000232
0.000237
0.001444
0.000351
0.000294
0.000212
0.000213
0.000219
0.000229
0.000238
0.000256
0.000274
0.000248
0.000249
0.000265
0.000270
0.000240
0.000258
0.000265
0.000259
0.001420
0.000278
0.000227
0.000337
0.000220
0.000228
0.000253
0.000271
0.000260
0.000501
0.000382
0.000059
0.000201
0.000198
0.000381
0.000298
0.000241
0.000256
0.001571
0.000295
0.000348
0.000206
0.000233
0.000351
0.000320
0.000218
0.000223
0.000245
0.000253
0.000262
0.000259
0.000252
0.000483
0.000509
0.001177
0.000257
0.000225
0.000236
0.000259
0.000265
0.000265
0.000279
0.000311
0.000058
0.000225
0.000346
0.000207
0.000207
0.000240
0.000245
0.000238
0.000233
0.001404
0.000559
0.000374
0.000282
0.000213
0.000205
0.000257
0.000248
0.000252
0.000276
0.000257
0.000307
0.000307
0.000502
0.000429
0.001369
0.000248
0.000256
0.000267
0.000267
0.000272
0.000273
0.000502
0.000056
0.000271
0.000230
0.000227
0.000235
0.000221
0.000236
0.000266
0.000247
0.000276
0.001585
0.000353
0.000237
0.000266
0.000255
0.000462
0.000305
0.000401
0.000460
0.000329
0.000326
0.000445
0.000479
0.001284
0.000241
0.000215
0.000243
0.001751
0.000452
0.000575
0.000319
0.000152
0.000057
0.000200
0.000197
0.000247
0.000236
0.000245
0.000251
0.000359
0.000405
0.000509
0.000404
0.000315
0.000212
0.000210
0.000256
0.000264
0.000267
0.000245
0.000256
0.000250
0.000274
0.000260
0.000469
0.001296
0.000243
0.000247
0.000263
0.001883
0.000383
0.000386
0.000371
0.000167
0.000056
0.000242
0.000215
0.000247
0.001556
0.000399
0.000250
0.000229
0.000271
0.000244
0.000340
0.000366
0.000377
0.000352
0.000302
0.000284
0.000511
0.000365
0.001259
0.000254
0.000210
0.000220
0.000266
0.000374
0.000462
0.000500
0.000501
0.000219
0.000220
0.000262
0.000276
0.000213
0.000056
0.000185
0.000208
0.001451
0.000409
0.000209
0.000204
0.000229
0.000254
0.000249
0.000248
0.000245
0.000275
0.000272
0.000269
0.000240
0.000537
0.000276
0.000389
0.001356
0.000253
0.000246
0.000254
0.000257
0.000271
0.000352
0.000513
0.000448
0.000296
0.000291
0.000245
0.000403
0.000056
0.000194
0.000211
0.000253
0.000260
0.001579
0.000245
0.000247
0.000248
0.000256
0.000253
0.000254
0.000256
0.000262
0.000250
0.000474
0.000398
0.001513
0.000731
0.000228
0.000319
0.000247
0.000225
0.000239
0.000273
0.001758
0.000722
0.000257
0.000239
0.000277
0.000287
0.000209
0.000056
0.000192
0.000215
0.000255
0.000245
0.000243
0.000255
0.000248
0.000244
0.000251
0.000225
0.000288
0.000279
0.000255
0.000252
0.000260
0.000265
0.000278
0.001565
0.000724
0.000429
0.000285
0.000217
0.000222
0.000281
0.000275
0.000258
0.000274
0.000262
0.001441
0.000390
0.000310
0.000056
0.000199
0.000208
0.000240
0.000251
0.000258
0.000241
0.000242
0.000258
0.000251
0.000272
0.000234
0.000451
0.000429
0.000359
0.000218
0.000226
0.000262
0.001453
0.000688
0.000416
0.000320
0.000309
0.000219
0.000245
0.000266
0.000266
0.000246
0.000269
0.001487
0.000442
0.000224
0.000056
0.000193
0.000209
0.000233
0.000248
0.000262
0.000226
0.000250
0.000253
0.000262
0.000258
0.000392
0.000394
0.000292
0.000229
0.000239
0.000246
0.000260
0.000257
0.001635
0.000531
0.000478
0.000358
0.000226
0.000252
0.000252
0.000254
0.000268
0.000280
0.000268
0.001420
0.000309
0.000057
0.000217
0.000211
0.000210
0.000257
0.000258
0.000239
0.000295
0.000349
0.000375
0.000398
0.000363
0.000365
0.000359
0.000215
0.000227
0.000249
0.000273
0.000263
0.001385
0.000889
0.000312
0.000205
0.000479
0.000226
0.000219
0.000235
0.000279
0.000260
0.000266
0.000285
0.000418
0.000057
0.000231
0.000289
0.000204
0.000238
0.000250
0.000251
0.000232
0.000232
0.000266
0.000247
0.000257
0.000238
0.000275
0.000503
0.000394
0.000449
0.000239
0.000254
0.000260
0.000251
0.000255
0.000373
0.001374
0.001054
0.000255
0.000222
0.000275
0.000256
0.000280
0.000260
0.000216
0.000056
0.000199
0.001384
0.000259
0.000212
0.000200
0.000248
0.000256
0.000241
0.000231
0.000255
0.000253
0.000267
0.000249
0.000455
0.000301
0.000491
0.000260
0.000212
0.000269
0.000268
0.000266
0.000238
0.000257
0.000260
0.001401
0.000675
0.000312
0.000403
0.000370
0.000400
0.000256
0.000057
0.000196
0.000205
0.000393
0.001288
0.000232
0.000269
0.000214
0.000239
0.000253
0.000256
0.000258
0.000244
0.000277
0.000337
0.000594
0.000327
0.000221
0.000304
0.000268
0.000225
0.000232
0.000272
0.000234
0.000271
0.000267
0.001538
0.000735
0.000306
0.000268
0.000286
0.000200
0.000056
0.000218
0.000199
0.000470
0.000401
0.001290
0.000240
0.000209
0.000214
0.000230
0.000249
0.000247
0.000269
0.000221
0.000230
0.000257
0.000268
0.000258
0.000233
0.000251
0.000265
0.000262
0.000263
0.000328
0.000313
0.000233
0.000247
0.000267
0.001535
0.000229
0.000224
0.000173
0.000056
0.000199
0.000196
0.000254
0.000343
0.000344
0.000342
0.000400
0.000244
0.001560
0.000261
0.000286
0.000460
0.000401
0.000213
0.000479
0.000230
0.000215
0.000239
0.000261
0.000270
0.000281
0.000267
0.000260
0.000265
0.000271
0.000414
0.000434
0.000332
0.001514
0.000254
0.000181
0.000056
0.000222
0.000211
0.000244
0.000268
0.000229
0.000236
0.000264
0.000309
0.000442
0.002067
0.000211
0.000228
0.000229
0.000259
0.000259
0.000314
0.000257
0.000224
0.000254
0.000419
0.000378
0.000440
0.001523
0.000225
0.000252
0.000472
0.001772
0.000278
0.000269
0.001480
0.000195
0.000057
0.000318
0.000381
0.000494
0.000236
0.000260
0.000234
0.000255
0.000261
0.000268
0.000233
0.000249
0.000320
0.000421
0.000382
0.000400
0.000281
0.000210
0.001549
0.000500
0.001998
0.000318
0.000231
0.000213
0.001593
0.002006
0.000724
0.000268
0.000227
0.000282
0.000429
0.000402
0.000056
0.000210
0.000213
0.000248
0.000254
0.001483
0.001668
0.001081
0.000221
0.000217
0.001607
0.001951
0.000232
0.000325
0.000397
0.000285
0.000416
0.000322
0.000421
0.000257
0.000227
0.000249
0.000256
0.000288
0.001542
0.001303
0.001428
0.000263
0.000242
0.000271
0.000295
0.000359
0.000057
0.000214
0.000237
0.000199
0.000245
0.000238
0.000231
0.000255
0.000248
0.000252
0.000250
0.000244
0.000351
0.000474
0.000430
0.000313
0.000216
0.000222
0.000267
0.000272
0.000265
0.000254
0.001446
0.000403
0.000445
0.002074
0.000251
0.000245
0.000388
0.000391
0.000468
0.000153
0.000055
0.000226
0.000378
0.000395
0.000320
0.000218
0.000236
0.000215
0.000259
0.000237
0.000247
0.000249
0.000260
0.000262
0.001636
0.002395
0.000297
0.000203
0.000228
0.000237
0.000222
0.000286
0.000276
0.000254
0.000247
0.002273
0.000216
0.000237
0.000269
0.000319
0.000303
0.000245
0.000059
0.000194
0.000381
0.000579
0.000334
0.000232
0.000194
0.000221
0.000256
0.001894
0.001434
0.000251
0.000394
0.000394
0.000350
0.000261
0.000212
0.000224
0.000271
0.000265
0.000259
0.000271
0.000247
0.000485
0.000246
0.000249
0.000283
0.000245
0.000268
0.000282
0.000243
0.000225
0.000057
0.000195
0.000221
0.000253
0.000242
0.000243
0.000271
0.001595
0.001442
0.001322
0.000220
0.000203
0.000227
0.000263
0.000261
0.000250
0.000249
0.000253
0.002172
0.000212
0.000219
0.000249
0.000264
0.000254
0.000272
0.000268
0.000255
0.000266
0.000253
0.000276
0.000261
0.000191
0.000056
0.001507
0.000315
0.002404
0.000247
0.000299
0.000307
0.000234
0.000254
0.000265
0.000247
0.000252
0.000246
0.000233
0.000241
0.000265
0.000260
0.000266
0.000269
0.000255
0.000272
0.000257
0.000283
0.000276
0.000277
0.000239
0.000241
0.000268
0.000275
0.000261
0.000267
0.000388
0.000056
0.000201
0.002543
0.000346
0.000201
0.000217
0.000194
0.000250
0.000259
0.000253
0.000282
0.000464
0.000387
0.000226
0.000239
0.000219
0.002243
0.000201
0.000225
0.000234
0.000517
0.000380
0.000326
0.000215
0.000227
0.000269
0.000253
0.000257
0.000276
0.000268
0.001689
0.001204
0.000057
0.000195
0.000206
0.000275
0.000447
0.000360
0.000249
0.000227
0.000211
0.000247
0.000257
0.000264
0.000250
0.000234
0.000245
0.000269
0.000240
0.000371
0.000553
0.000408
0.000225
0.000237
0.000238
0.000288
0.000265
0.000253
0.000238
0.000256
0.000283
0.000253
0.000276
0.000404
0.000058
0.001124
0.000230
0.000357
0.000434
0.000323
0.000203
0.000212
0.000230
0.002192
0.000433
0.000346
0.000370
0.000205
0.000289
0.000333
0.000270
0.000265
0.000251
0.000267
0.000244
0.000244
0.000263
0.000593
0.000544
0.001794
0.001419
0.000497
0.000498
0.000218
0.000249
0.000222
0.000055
0.000254
0.000337
0.000228
0.000243
0.000236
0.000244
0.000240
0.000241
0.000262
0.000254
0.000254
0.000239
0.000251
0.000238
0.000377
0.000567
0.001853
0.001325
0.000394
0.000424
0.000445
0.000258
0.000245
0.000255
0.002210
0.000492
0.000360
0.000245
0.000274
0.000280
0.000211
0.000055
0.000191
0.000228
0.000252
0.000240
0.000243
0.000361
0.000497
0.000317
0.000249
0.000223
0.000221
0.000286
0.000234
0.002086
0.000423
0.000342
0.000244
0.000221
0.000259
0.000262
0.000253
0.002444
0.000353
0.000221
0.000257
0.000264
0.000245
0.000269
0.000277
0.000293
0.000206
0.000057
0.000191
0.000384
0.000524
0.000420
0.000208
0.000213
0.000197
0.000256
0.000258
0.000256
0.002117
0.000299
0.000267
0.000247
0.000209
0.000247
0.000272
0.000245
0.002273
0.000397
0.000209
0.000261
0.000270
0.000264
0.000259
0.000252
0.000277
0.000251
0.000279
0.000251
0.000204
0.000056
0.000215
0.000213
0.000269
0.000221
0.000229
0.000261
0.000238
0.000246
0.000229
0.002180
0.000244
0.000271
0.000222
0.000478
0.000210
0.000218
0.000256
0.000285
0.000259
0.000267
0.002027
0.000246
0.000379
0.000362
0.000496
0.000328
0.000291
0.000242
0.000243
0.000241
0.000214
0.000057
0.000181
0.000218
0.000232
0.000252
0.000249
0.000390
0.000195
0.002344
0.000203
0.000236
0.000222
0.000259
0.000240
0.000241
0.000299
0.002208
0.000526
0.000209
0.000257
0.000243
0.000261
0.000258
0.000286
0.000267
0.000264
0.000255
0.000285
0.000255
0.000266
0.000308
0.000169
0.000057
0.000174
0.003012
0.000242
0.000223
0.000239
0.000242
0.000251
0.000269
0.000416
0.000368
0.002148
0.000253
0.000255
0.000259
0.000255
0.000570
0.000404
0.000304
0.000213
0.000224
0.000238
0.000260
0.000272
0.000229
0.000245
0.000271
0.000268
0.000265
0.000273
0.000806
0.000242
0.000056
0.000192
0.000269
0.000277
0.000203
0.000239
0.000251
0.000249
0.000249
0.001530
0.002137
0.000520
0.000272
0.000391
0.000776
0.000349
0.000212
0.000221
0.000236
0.000269
0.000256
0.000271
0.000232
0.000249
0.000267
0.001827
0.001456
0.000288
0.000293
0.000292
0.000266
0.000435
0.000056
0.001933
0.000231
0.000244
0.000187
0.000308
0.000361
0.000435
0.000318
0.000318
0.000223
0.000220
0.000216
0.000258
0.000255
0.000258
0.000266
0.000244
0.000268
0.001904
0.000222
0.000214
0.000232
0.000275
0.000282
0.000271
0.000257
0.001523
0.000354
0.000216
0.000226
0.000173
0.000056
0.000207
0.000218
0.000217
0.000235
0.000276
0.000241
0.000236
0.000400
0.000393
0.000391
0.000205
0.000214
0.000334
0.000324
0.000377
0.000319
0.000218
0.000223
0.000261
0.000375
0.000501
0.000441
0.000230
0.000238
0.000261
0.000249
0.000258
0.000265
0.000288
0.000251
0.000220
0.000057
0.001432
0.000405
0.000241
0.002000
0.000302
0.000397
0.000338
0.000393
0.000207
0.000208
0.000264
0.000247
0.000244
0.000252
0.000269
0.000252
0.000459
0.000283
0.000430
0.000341
0.000383
0.000220
0.000244
0.000263
0.000332
0.000229
0.000244
0.000276
0.000310
0.000510
0.001422
0.000058
0.000193
0.000205
0.002079
0.000291
0.000312
0.000262
0.000256
0.000254
0.000268
0.000241
0.000230
0.000249
0.000251
0.000266
0.000257
0.000339
0.000721
0.001739
0.000265
0.000248
0.000263
0.000276
0.000353
0.000489
0.001528
0.000276
0.000360
0.002012
0.000223
0.000245
0.000195
0.000055
0.000197
0.000210
0.000227
0.000247
0.000227
0.000248
0.000252
0.000274
0.000339
0.000307
0.000404
0.000347
0.000327
0.000291
0.000216
0.000258
0.000271
0.000236
0.000263
0.000260
0.000276
0.000326
0.000247
0.000258
0.000285
0.001561
0.000304
0.000397
0.001978
0.000261
0.000175
0.000057
0.000206
0.000224
0.000226
0.000249
0.000460
0.000229
0.000255
0.000349
0.000361
0.000370
0.000243
0.000212
0.000252
0.000269
0.000277
0.000326
0.000440
0.000415
0.000258
0.000364
0.000600
0.000416
0.001564
0.000267
0.000229
0.002041
0.000347
0.000216
0.000218
0.000264
0.000208
0.000057
0.000200
0.000221
0.000231
0.000241
0.000250
0.000265
0.000259
0.000270
0.000252
0.000270
0.001863
0.000289
0.000394
0.000332
0.000457
0.000359
0.001510
0.000342
0.000210
0.000307
0.002059
0.000581
0.000273
0.000222
0.000233
0.000270
0.000490
0.000236
0.000251
0.000277
0.000212
0.000055
0.000294
0.000318
0.000414
0.000280
0.000213
0.000209
0.000248
0.000255
0.000266
0.000301
0.000222
0.000245
0.000259
0.000256
0.000330
0.000448
0.001358
0.000265
0.000423
0.001848
0.000341
0.000265
0.000214
0.000259
0.000239
0.000279
0.000268
0.000267
0.000246
0.000263
0.000226
0.000057
0.000248
0.000388
0.002074
0.000236
0.000237
0.000217
0.000222
0.000315
0.000398
0.001533
0.000337
0.000372
0.000327
0.001991
0.000235
0.000239
0.000266
0.000273
0.000261
0.000231
0.000293
0.000283
0.000264
0.000374
0.000467
0.000410
0.000323
0.002178
0.000497
0.000440
0.000474
0.000056
0.000202
0.000215
0.000225
0.002032
0.000200
0.000217
0.000219
0.000251
0.000232
0.000254
0.000243
0.000270
0.000251
0.000273
0.000530
0.000336
0.001296
0.000244
0.000271
0.000264
0.000233
0.000244
0.000265
0.000273
0.000339
0.000437
0.000459
0.000254
0.001686
0.000227
0.000156
0.000058
0.000193
0.000197
0.000236
0.000234
0.000248
0.000254
0.000254
0.000247
0.000256
0.000375
0.000358
0.001487
0.000220
0.000196
0.000224
0.000266
0.000258
0.000256
0.000406
0.000349
0.000475
0.000409
0.000230
0.001555
0.000264
0.000229
0.000288
0.000275
0.000261
0.000272
0.000207
0.000056
0.000202
0.000212
0.000263
0.000268
0.000250
0.000238
0.000246
0.000235
0.000256
0.000243
0.000257
0.000254
0.000249
0.000260
0.001578
0.000232
0.000241
0.000267
0.000343
0.000318
0.000367
0.000257
0.000208
0.000248
0.000258
0.000274
0.001456
0.000288
0.000224
0.000228
0.000170
0.000056
0.000209
0.000215
0.000244
0.000268
0.000265
0.000223
0.000251
0.000265
0.000216
0.000262
0.000243
0.000260
0.000231
0.000322
0.000350
0.000319
0.000339
0.001578
0.000336
0.000215
0.000223
0.000222
0.000266
0.000328
0.000398
0.000450
0.000405
0.000236
0.000224
0.001588
0.000196
0.000056
0.000331
0.000388
0.000323
0.000305
0.000206
0.000209
0.000237
0.000269
0.000264
0.000238
0.000240
0.000243
0.001454
0.000321
0.000311
0.000217
0.000226
0.000269
0.000262
0.000256
0.000254
0.000243
0.000260
0.000263
0.000254
0.000361
0.000503
0.000405
0.000239
0.000225
0.000197
0.000058
0.000208
0.000236
0.000398
0.000447
0.000335
0.000247
0.000226
0.000252
0.000250
0.000254
0.000244
0.000251
0.000233
0.000250
0.001321
0.000273
0.000232
0.000213
0.000266
0.000267
0.000258
0.000248
0.000260
0.000255
0.000255
0.000264
0.000259
0.000708
0.000490
0.000239
0.000185
0.000056
0.000190
0.001533
0.000288
0.000264
0.000485
0.000410
0.000206
0.000231
0.000265
0.000256
0.000258
0.000245
0.000271
0.000270
0.000269
0.001517
0.000254
0.000285
0.000262
0.000260
0.000275
0.000241
0.000260
0.000267
0.000264
0.000250
0.000477
0.000380
0.000355
0.000224
0.000176
0.000056
0.000206
0.000215
0.000252
0.001707
0.000402
0.000321
0.000200
0.000213
0.000248
0.000265
0.000273
0.000259
0.000256
0.000257
0.000235
0.000267
0.000363
0.001427
0.000217
0.000254
0.001504
0.000339
0.000545
0.000404
0.000284
0.000238
0.000256
0.000462
0.000245
0.000251
0.000212
0.000059
0.000280
0.000227
0.000217
0.000247
0.000239
0.000258
0.000240
0.000258
0.000260
0.000248
0.000249
0.000245
0.000376
0.000482
0.001615
0.001538
0.000346
0.000517
0.000315
0.000237
0.000234
0.000265
0.000251
0.000259
0.000250
0.000260
0.000270
0.000287
0.001571
0.000315
0.000142
0.000057
0.000213
0.000334
0.000348
0.000330
0.000253
0.000221
0.000200
0.000353
0.000455
0.001390
0.000351
0.001535
0.000428
0.000368
0.000500
0.000264
0.000347
0.000332
0.000344
0.000271
0.000251
0.000351
0.001554
0.000530
0.000238
0.000253
0.000262
0.000252
0.000257
0.000258
0.000224
0.000074
0.000170
0.000224
0.000250
0.000258
0.000244
0.001648
0.000957
0.000893
0.000261
0.000230
0.000250
0.000262
0.000247
0.000265
0.000256
0.000248
0.000257
0.000261
0.000266
0.000289
0.001489
0.000271
0.000258
0.000222
0.000220
0.000258
0.000260
0.000293
0.000251
0.000277
0.000253
0.000058
0.000190
0.000207
0.001530
0.001011
0.000300
0.000338
0.000221
0.000211
0.000238
0.000259
0.000243
0.000258
0.000254
0.002052
0.000454
0.000211
0.000206
0.000253
0.000252
0.000264
0.000202
