0.000295
0.016113
0.005233
0.000370
0.000264
0.000285
0.000305
0.000247
0.000335
0.000279
0.000254
0.000347
0.000581
0.000391
0.000335
0.000409
0.000264
0.000373
0.000346
0.000405
0.000312
0.001948
0.000679
0.000246
0.000261
0.000304
0.000307
0.000326
0.000482
0.000395
0.000494
0.000222
0.000059
0.000210
0.000269
0.000270
0.000261
0.000307
0.000214
0.000282
0.000259
0.000272
0.000308
0.000416
0.000439
0.000312
0.000262
0.000409
0.000297
0.000362
0.000251
0.000264
0.001727
0.000288
0.000245
0.000458
0.000243
0.000281
0.000272
0.000297
0.000289
0.000276
0.000322
0.000412
0.000058
0.000240
0.000255
0.000265
0.000263
0.000250
0.000244
0.000260
0.000255
0.000289
0.001672
0.000224
0.000231
0.000273
0.000274
0.000275
0.000253
0.000264
0.000247
0.000359
0.001798
0.000239
0.000278
0.000441
0.000496
0.000325
0.000235
0.000250
0.000496
0.000582
0.000668
0.000190
0.000058
0.000218
0.000247
0.000252
0.000244
0.000341
0.000204
0.000351
0.000490
0.000410
0.000253
0.000253
0.000250
0.000243
0.000255
0.000253
0.000255
0.000245
0.000268
0.000300
0.000344
0.001649
0.000269
0.000256
0.000419
0.000289
0.000707
0.000652
0.000702
0.000176
0.000245
0.000191
0.000057
0.000222
0.000251
0.000262
0.000242
0.000252
0.000258
0.000343
0.000422
0.001431
0.000220
0.000244
0.000243
0.000259
0.000259
0.000256
0.000289
0.000379
0.000674
0.001415
0.000276
0.000457
0.000261
0.000229
0.000215
0.000259
0.000263
0.000269
0.000266
0.000263
0.000266
0.000195
0.000057
0.000204
0.000241
0.000242
0.000267
0.000232
0.000253
0.000236
0.000253
0.000243
0.000251
0.001631
0.000257
0.000238
0.000241
0.000254
0.000251
0.000245
0.000247
0.000253
0.000258
0.000265
0.001669
0.000288
0.000247
0.000439
0.000257
0.000254
0.000259
0.000261
0.000275
0.000191
0.000055
0.000188
0.000230
0.000257
0.000241
0.000239
0.000248
0.000262
0.000234
0.000265
0.000239
0.000268
0.000253
0.000261
0.000269
0.001643
0.000271
0.000292
0.000224
0.000248
0.000273
0.000269
0.000241
0.000241
0.000267
0.001789
0.000358
0.000376
0.000355
0.000251
0.000279
0.000195
0.000057
0.000199
0.000241
0.000245
0.000265
0.000256
0.000249
0.000262
0.000495
0.000336
0.000433
0.000206
0.000257
0.000247
0.000251
0.001583
0.000515
0.000337
0.000393
0.000299
0.000240
0.000274
0.000276
0.000271
0.001739
0.000507
0.000501
0.000228
0.000236
0.000251
0.000255
0.000188
0.000056
0.000210
0.000225
0.000260
0.000263
0.000294
0.000510
0.000323
0.000284
0.000219
0.000245
0.000264
0.000240
0.000256
0.001693
0.000496
0.000287
0.000236
0.000248
0.000273
0.000284
0.000247
0.000259
0.000273
0.001915
0.000473
0.000257
0.000196
0.000244
0.000271
0.000417
0.000328
0.000056
0.000207
0.000410
0.000310
0.000296
0.000261
0.000241
0.000255
0.000259
0.000238
0.000232
0.000238
0.000253
0.001554
0.000395
0.000264
0.000238
0.000250
0.000256
0.000242
0.000279
0.000281
0.000331
0.000241
0.001813
0.000254
0.000516
0.000225
0.000256
0.000253
0.000274
0.000260
0.000057
0.000261
0.000641
0.000575
0.000221
0.000227
0.000277
0.000228
0.000222
0.000257
0.000251
0.000258
0.001700
0.000244
0.000438
0.000370
0.000216
0.000246
0.000231
0.000249
0.000266
0.000248
0.001863
0.000231
0.000245
0.002072
0.000527
0.000368
0.000237
0.000258
0.000269
0.000179
0.000056
0.000208
0.000240
0.000245
0.000246
0.000253
0.001618
0.000250
0.000237
0.000252
0.000254
0.000245
0.000241
0.000249
0.000256
0.000270
0.000708
0.000331
0.000252
0.000259
0.000252
0.000264
0.000250
0.000240
0.000428
0.000443
0.000244
0.000362
0.000618
0.000385
0.000268
0.000204
0.000056
0.000213
0.000243
0.000254
0.000250
0.000231
0.000241
0.000239
0.000362
0.000456
0.001726
0.000225
0.000240
0.000242
0.000246
0.000258
0.000268
0.000420
0.000498
0.000350
0.000242
0.000253
0.000310
0.000278
0.000249
0.000275
0.000427
0.000356
0.000614
0.000477
0.000421
0.000173
0.000056
0.000194
0.000265
0.000234
0.000225
0.000243
0.000236
0.000253
0.000244
0.000241
0.000334
0.000296
0.000423
0.001399
0.000247
0.000250
0.000238
0.000259
0.000249
0.000249
0.000253
0.000293
0.000476
0.000364
0.000271
0.000271
0.000269
0.000239
0.000275
0.000260
0.000260
0.000381
0.000056
0.000211
0.000234
0.000229
0.000278
0.000518
0.000437
0.000236
0.000259
0.000236
0.000258
0.000248
0.000235
0.000295
0.000251
0.000238
0.000545
0.000408
0.001588
0.000289
0.000223
0.000265
0.000263
0.000255
0.000243
0.000266
0.000469
0.000425
0.000346
0.000433
0.000247
0.000190
0.000058
0.000228
0.000433
0.000235
0.000216
0.000265
0.000245
0.000272
0.000595
0.000343
0.000299
0.000231
0.000263
0.000274
0.000235
0.000510
0.000349
0.000224
0.000257
0.000490
0.001550
0.000268
0.000238
0.000517
0.000247
0.000275
0.000281
0.000257
0.000388
0.000515
0.000372
0.000264
0.000058
0.000208
0.000237
0.000238
0.000245
0.000412
0.000308
0.000295
0.000225
0.000415
0.000526
0.000289
0.000278
0.000232
0.000244
0.000255
0.000268
0.000256
0.000251
0.000240
0.000341
0.000293
0.000296
0.001881
0.000242
0.000260
0.000253
0.000289
0.000348
0.000416
0.000683
0.000433
0.000057
0.000268
0.000311
0.000279
0.000426
0.000391
0.000205
0.000256
0.000301
0.000490
0.000426
0.000267
0.000234
0.000240
0.000275
0.000256
0.000235
0.000255
0.000273
0.000268
0.000259
0.000264
0.000408
0.000657
0.001335
0.000338
0.000514
0.000338
0.000248
0.000409
0.000439
0.000316
0.000057
0.000247
0.000399
0.000252
0.000206
0.000223
0.000247
0.000412
0.000229
0.000242
0.000423
0.000392
0.000376
0.000293
0.000260
0.000261
0.000252
0.000378
0.000382
0.000355
0.000223
0.000247
0.000427
0.000569
0.001697
0.000237
0.000447
0.000293
0.000222
0.000251
0.000465
0.000282
0.000057
0.000194
0.000229
0.000244
0.000249
0.000243
0.000248
0.000252
0.000326
0.000450
0.000277
0.000438
0.000402
0.000267
0.000579
0.000236
0.000249
0.000277
0.000265
0.000232
0.000344
0.000222
0.000252
0.000265
0.000469
0.000462
0.001629
0.000273
0.000234
0.000248
0.000274
0.000184
0.000056
0.000289
0.000496
0.000335
0.000210
0.000256
0.000242
0.000276
0.000224
0.000259
0.000248
0.000220
0.000253
0.000405
0.000527
0.000438
0.000258
0.000240
0.000254
0.000347
0.000389
0.000382
0.000328
0.000422
0.000357
0.000220
0.000254
0.000263
0.000278
0.001780
0.000249
0.000204
0.000055
0.000203
0.000218
0.000258
0.000270
0.000375
0.000538
0.000305
0.000221
0.000257
0.000276
0.000234
0.000246
0.000521
0.000445
0.000481
0.000292
0.000251
0.000276
0.000423
0.000462
0.000405
0.000436
0.000402
0.000437
0.000253
0.000248
0.000263
0.000244
0.000266
0.001710
0.000324
0.000056
0.000241
0.000336
0.000196
0.000235
0.000254
0.000253
0.000245
0.000501
0.000368
0.000303
0.000297
0.000255
0.000368
0.000677
0.000305
0.000239
0.000250
0.000254
0.000255
0.000265
0.000264
0.000266
0.000248
0.000263
0.000321
0.000352
0.000393
0.000373
0.000223
0.000265
0.000192
0.000057
0.000440
0.000274
0.000488
0.000247
0.000206
0.000251
0.000247
0.000250
0.000237
0.000225
0.000251
0.000277
0.000292
0.000377
0.000461
0.000560
0.000280
0.000327
0.000382
0.000334
0.000313
0.000218
0.000249
0.000257
0.001749
0.000252
0.001722
0.000943
0.000371
0.000360
0.000164
0.000055
0.000216
0.000235
0.000235
0.000239
0.000263
0.000251
0.000249
0.000251
0.000240
0.000351
0.000307
0.000526
0.000267
0.000374
0.000263
0.000249
0.000248
0.000297
0.000219
0.000252
0.000257
0.000256
0.001808
0.000243
0.000255
0.000265
0.000273
0.000268
0.001895
0.000521
0.000257
0.000058
0.000209
0.000210
0.000238
0.000242
0.000256
0.000249
0.000241
0.000254
0.000252
0.000413
0.000534
0.000482
0.000240
0.000201
0.000237
0.000250
0.000334
0.000446
0.000382
0.000234
0.001768
0.000255
0.000248
0.000250
0.000259
0.000267
0.000245
0.000251
0.000324
0.000323
0.000397
0.000057
0.000252
0.000218
0.000242
0.000260
0.000240
0.000250
0.000253
0.000255
0.000236
0.000263
0.000238
0.000260
0.000454
0.000344
0.000324
0.000277
0.000466
0.000241
0.000247
0.000256
0.000257
0.000267
0.000273
0.000253
0.000279
0.001794
0.000232
0.000251
0.000265
0.000242
0.000204
0.000056
0.000323
0.000319
0.000220
0.000219
0.000236
0.000237
0.000238
0.000258
0.000246
0.000223
0.000239
0.000255
0.000261
0.000476
0.000307
0.000348
0.000283
0.000252
0.000244
0.000252
0.000259
0.000256
0.000253
0.000273
0.000248
0.000266
0.000328
0.001616
0.000270
0.000234
0.000183
0.000057
0.000212
0.000231
0.000250
0.000257
0.000340
0.000361
0.000422
0.000291
0.000233
0.000254
0.000251
0.000245
0.000247
0.000254
0.000262
0.000260
0.000244
0.000258
0.000255
0.000259
0.000285
0.000253
0.000246
0.000240
0.000240
0.000279
0.000278
0.000258
0.000257
0.000267
0.000183
0.000056
0.000216
0.000237
0.000254
0.000259
0.000249
0.000240
0.000246
0.000258
0.000285
0.000237
0.000228
0.000249
0.000252
0.000248
0.000271
0.000264
0.000253
0.000250
0.000294
0.000260
0.000272
0.000288
0.000274
0.000248
0.000278
0.000273
0.000269
0.000249
0.000261
0.000480
0.000651
0.000057
0.000228
0.000282
0.000216
0.000236
0.000240
0.000253
0.000234
0.000253
0.000255
0.000239
0.000278
0.000402
0.000472
0.000423
0.001488
0.000229
0.000489
0.000242
0.000290
0.000392
0.000444
0.000389
0.000248
0.000266
0.000251
0.000261
0.000277
0.000255
0.000313
0.000252
0.000187
0.000056
0.000363
0.000410
0.000364
0.000292
0.000229
0.000250
0.000244
0.000246
0.000237
0.000247
0.000253
0.000254
0.000231
0.000267
0.000454
0.000454
0.000338
0.001800
0.000231
0.000259
0.000300
0.000452
0.000438
0.000308
0.000313
0.000349
0.000281
0.000228
0.000229
0.000252
0.000195
0.000057
0.000228
0.000227
0.000237
0.000281
0.000371
0.000511
0.000270
0.000258
0.000253
0.000216
0.000250
0.000264
0.000271
0.000263
0.000243
0.000256
0.000427
0.000432
0.000296
0.000423
0.000230
0.001752
0.000334
0.000480
0.000541
0.000434
0.000318
0.000233
0.000258
0.000268
0.000444
0.000057
0.000209
0.000258
0.000232
0.000361
0.000372
0.000423
0.000389
0.000215
0.000242
0.000296
0.000241
0.000262
0.000248
0.000298
0.000309
0.000236
0.000224
0.000356
0.000589
0.000253
0.000495
0.001855
0.000239
0.000427
0.000506
0.000371
0.000226
0.000262
0.000287
0.000263
0.000198
0.000058
0.000220
0.000340
0.000355
0.000291
0.000437
0.000283
0.000381
0.000203
0.000242
0.000279
0.000280
0.000202
0.000248
0.000252
0.000248
0.000260
0.000320
0.000353
0.000528
0.000384
0.000283
0.000226
0.000264
0.001722
0.000362
0.000546
0.000704
0.000233
0.000267
0.000313
0.000152
0.000057
0.000192
0.000238
0.000321
0.000254
0.000274
0.000332
0.000451
0.000307
0.000231
0.000529
0.000236
0.000243
0.000267
0.000275
0.000273
0.000268
0.000212
0.000333
0.000451
0.000479
0.000261
0.000229
0.000258
0.000252
0.000261
0.000266
0.000239
0.000255
0.000266
0.000323
0.000166
0.000058
0.000350
0.000271
0.000214
0.000263
0.000244
0.000258
0.000246
0.000285
0.000262
0.000224
0.000256
0.000358
0.000414
0.000402
0.000344
0.000289
0.000218
0.000227
0.000262
0.000269
0.000284
0.000258
0.000237
0.000258
0.000280
0.000296
0.000441
0.000361
0.000353
0.000236
0.000187
0.000056
0.000218
0.000215
0.000281
0.000242
0.000264
0.000225
0.000255
0.000264
0.000483
0.000212
0.000263
0.000250
0.000252
0.000262
0.000274
0.000275
0.000255
0.000348
0.000223
0.000246
0.000256
0.000272
0.000252
0.000268
0.000274
0.000262
0.000262
0.000254
0.000520
0.000240
0.000152
0.000055
0.000213
0.000240
0.000249
0.000263
0.000218
0.000245
0.000374
0.000406
0.000229
0.000240
0.000250
0.000252
0.000238
0.000265
0.000499
0.001733
0.000223
0.000264
0.000283
0.000394
0.000362
0.000351
0.000356
0.000394
0.000391
0.000416
0.000240
0.000265
0.000271
0.000274
0.001389
0.000055
0.000443
0.000241
0.000291
0.000214
0.000235
0.000251
0.000230
0.000258
0.000242
0.000271
0.000243
0.000260
0.000255
0.000291
0.000570
0.001607
0.000239
0.000223
0.000251
0.000265
0.000233
0.000283
0.000403
0.000384
0.000247
0.000343
0.000229
0.000266
0.000280
0.000261
0.000173
0.000056
0.001200
0.000624
0.000243
0.000262
0.000254
0.000209
0.000231
0.000242
0.000486
0.000219
0.000242
0.000252
0.000334
0.000511
0.000410
0.000359
0.000237
0.000239
0.000341
0.000347
0.000273
0.000255
0.000269
0.000245
0.000264
0.000561
0.000593
0.000262
0.000239
0.000263
0.000165
0.000057
0.000204
0.000239
0.000237
0.000248
0.001495
0.000263
0.000232
0.000253
0.000238
0.000249
0.000254
0.000253
0.000247
0.000263
0.000268
0.000262
0.000452
0.000653
0.000273
0.001746
0.000276
0.000252
0.000288
0.000410
0.000625
0.000361
0.000256
0.000251
0.000256
0.000271
0.000192
0.000057
0.000236
0.000233
0.000234
0.000288
0.001287
0.000223
0.000265
0.000262
0.000241
0.000235
0.000236
0.000246
0.000282
0.000245
0.000261
0.000287
0.000533
0.000336
0.000326
0.000263
0.000269
0.000270
0.000250
0.000239
0.000278
0.000269
0.000244
0.000277
0.000264
0.000342
0.000660
0.000056
0.000226
0.000243
0.000259
0.000241
0.000261
0.000244
0.000241
0.000253
0.000269
0.000257
0.001435
0.000222
0.000240
0.000267
0.000228
0.000247
0.000265
0.000263
0.000259
0.000269
0.000272
0.000479
0.000447
0.000403
0.000237
0.000273
0.001767
0.000239
0.000282
0.000301
0.000441
0.000057
0.000201
0.000414
0.000422
0.000500
0.000517
0.000562
0.001487
0.000400
0.000523
0.000650
0.000552
0.000749
0.000493
0.000575
0.000583
0.001891
0.000401
0.000445
0.000396
0.000318
0.000228
0.000300
0.000250
0.000275
0.000251
0.000289
0.000286
0.000287
0.000268
0.000287
0.001375
0.000055
0.000206
0.000227
0.000241
0.000242
0.000250
0.000254
0.000236
0.000244
0.000252
0.000253
0.000238
0.000246
0.000251
0.000256
0.000271
0.000267
0.001807
0.000270
0.000242
0.000249
0.000255
0.000265
0.000279
0.000320
0.000421
0.000368
0.000353
0.000211
0.000272
0.000274
0.000208
0.000057
0.000207
0.001360
0.000332
0.000261
0.000257
0.000240
0.000244
0.000236
0.000237
0.000244
0.000211
0.000245
0.000243
0.000506
0.000361
0.000287
0.000262
0.000265
0.001922
0.000232
0.000245
0.000266
0.000252
0.000270
0.000269
0.000284
0.000269
0.000261
0.000256
0.000320
0.000204
0.000055
0.000219
0.000241
0.000248
0.001453
0.000199
0.000256
0.000272
0.000225
0.000234
0.000267
0.000251
0.000248
0.000248
0.000251
0.000268
0.000254
0.000261
0.000269
0.000262
0.000261
0.000257
0.001770
0.000284
0.001743
0.000270
0.000244
0.000287
0.000255
0.000266
0.000277
0.000202
0.000057
0.000202
0.000239
0.001346
0.000220
0.000259
0.000265
0.000248
0.000243
0.000245
0.000252
0.000247
0.000250
0.000259
0.000261
0.000255
0.000269
0.000257
0.000283
0.000296
0.000229
0.001881
0.000223
0.001843
0.000231
0.000273
0.000270
0.000233
0.000244
0.000265
0.000265
0.000194
0.000056
0.001461
0.000211
0.000231
0.000264
0.000219
0.000239
0.000365
0.000270
0.000254
0.000254
0.000253
0.000261
0.000296
0.000352
0.000401
0.000254
0.000224
0.000279
0.000262
0.000246
0.000267
0.000333
0.000238
0.000248
0.000275
0.000273
0.000274
0.000311
0.000674
0.000356
0.000190
0.000057
0.000209
0.000255
0.000251
0.000302
0.000371
0.000254
0.001662
0.000331
0.000277
0.000278
0.000244
0.000278
0.000286
0.000259
0.000278
0.000333
0.000286
0.000621
0.000358
0.000276
0.000308
0.000258
0.000264
0.000271
0.000331
0.000289
0.000230
0.000252
0.000259
0.000300
0.000434
0.000057
0.000251
0.000488
0.000251
0.000268
0.000248
0.000225
0.000226
0.000248
0.000261
0.000251
0.001518
0.000228
0.000245
0.000231
0.000244
0.000293
0.000272
0.000234
0.000261
0.000270
0.000263
0.000368
0.000482
0.000373
0.000272
0.000287
0.000268
0.000259
0.000232
0.000307
0.000170
0.000057
0.000199
0.000232
0.000343
0.000482
0.000297
0.000272
0.000218
0.000254
0.000250
0.000248
0.000238
0.000252
0.000254
0.000268
0.000240
0.000246
0.000487
0.001114
0.000240
0.000256
0.000280
0.000238
0.000355
0.000412
0.000267
0.000332
0.000557
0.000358
0.000380
0.000242
0.000173
0.000058
0.000221
0.000247
0.000259
0.000263
0.000262
0.000237
0.000353
0.000399
0.000426
0.000292
0.000367
0.000390
0.000407
0.000337
0.000254
0.000249
0.000241
0.000257
0.000466
0.001372
0.000285
0.000234
0.000289
0.000251
0.000234
0.000242
0.000264
0.000319
0.000397
0.000455
0.000250
0.000056
0.000212
0.000245
0.000251
0.000236
0.000246
0.000256
0.000229
0.000261
0.000310
0.000365
0.000439
0.000348
0.000247
0.000232
0.000252
0.000253
0.000252
0.000260
0.000266
0.000256
0.000438
0.000298
0.000346
0.000416
0.000289
0.000264
0.000266
0.000275
0.000243
0.000343
0.000152
0.000056
0.000309
0.000318
0.000287
0.000413
0.000391
0.000382
0.000261
0.000242
0.000248
0.000270
0.000255
0.000264
0.000233
0.000257
0.000244
0.000227
0.000277
0.000399
0.000436
0.000366
0.000215
0.000279
0.000248
0.000245
0.000266
0.000281
0.000264
0.000261
0.000284
0.000260
0.000278
0.000056
0.000356
0.000257
0.000232
0.000248
0.000241
0.000254
0.000244
0.000247
0.000270
0.000256
0.000257
0.000231
0.000280
0.000525
0.000406
0.000294
0.000244
0.000245
0.000258
0.000262
0.000260
0.000262
0.000257
0.000265
0.000271
0.000376
0.000332
0.000753
0.000278
0.000254
0.000159
0.000056
0.000382
0.000204
0.000235
0.000244
0.000274
0.000221
0.000245
0.000248
0.000258
0.000257
0.000219
0.000248
0.000273
0.000223
0.000242
0.000267
0.000257
0.000258
0.000269
0.000262
0.000267
0.000256
0.000268
0.000260
0.000261
0.000237
0.000268
0.000276
0.000258
0.000278
0.000198
0.000056
0.000201
0.000234
0.000246
0.000250
0.000231
0.000256
0.000262
0.000240
0.000260
0.000272
0.000236
0.000229
0.000259
0.000402
0.000253
0.000280
0.000257
0.000269
0.000254
0.000282
0.000273
0.000230
0.000249
0.000251
0.000274
0.000271
0.000257
0.000243
0.000279
0.000257
0.000202
0.000055
0.000223
0.000330
0.000366
0.000282
0.000299
0.000260
0.000264
0.000259
0.000228
0.000243
0.000248
0.000272
0.000240
0.000250
0.000248
0.000265
0.000254
0.000275
0.000241
0.000262
0.000279
0.000261
0.000280
0.000258
0.000276
0.000245
0.000258
0.000271
0.000268
0.000261
0.000196
0.000056
0.000227
0.000207
0.000264
0.000262
0.000488
0.000207
0.000215
0.000248
0.000273
0.000515
0.000444
0.000267
0.000225
0.000251
0.000267
0.000269
0.000235
0.000271
0.000257
0.000268
0.000270
0.000253
0.000257
0.000253
0.000676
0.000354
0.000299
0.000304
0.000257
0.000263
0.000188
0.000056
0.000215
0.000215
0.000252
0.000246
0.000443
0.000521
0.000322
0.000379
0.000231
0.000230
0.000252
0.000254
0.000250
0.000250
0.000256
0.000272
0.000253
0.000255
0.000658
0.000399
0.000256
0.000246
0.000262
0.000284
0.000280
0.000259
0.000265
0.000269
0.000246
0.000338
0.000309
0.000055
0.000308
0.000231
0.000237
0.000239
0.000255
0.000254
0.000225
0.000252
0.000240
0.000262
0.000244
0.000248
0.000249
0.000365
0.000592
0.000382
0.000252
0.000271
0.000250
0.000245
0.000268
0.000271
0.000489
0.000218
0.000268
0.000549
0.000447
0.000499
0.000251
0.000256
0.000178
0.000057
0.000201
0.000232
0.000241
0.000247
0.000251
0.000260
0.000298
0.000434
0.000597
0.000415
0.000238
0.000242
0.000279
0.000274
0.000252
0.000251
0.000235
0.000249
0.000253
0.000384
0.000349
0.000653
0.000361
0.000264
0.000360
0.000373
0.000488
0.000242
0.000265
0.000451
0.000367
0.000058
0.000236
0.000228
0.000452
0.000213
0.000230
0.000251
0.000261
0.000259
0.000230
0.000244
0.000257
0.000400
0.000444
0.000275
0.000234
0.000240
0.000261
0.000261
0.000250
0.000280
0.000275
0.000250
0.000254
0.000269
0.000299
0.000480
0.000501
0.000241
0.000260
0.000267
0.000197
0.000058
0.000209
0.000252
0.000225
0.000241
0.000251
0.000293
0.000391
0.000384
0.000405
0.000270
0.000364
0.000225
0.000265
0.000251
0.000252
0.000241
0.000253
0.000261
0.000284
0.000388
0.000471
0.000355
0.000481
0.000277
0.000443
0.000373
0.000374
0.000231
0.000263
0.000338
0.000341
0.000055
0.000273
0.000270
0.000222
0.000258
0.000257
0.000256
0.000255
0.000242
0.000252
0.000261
0.000249
0.000390
0.000463
0.000312
0.000380
0.000225
0.000264
0.000265
0.000265
0.000239
0.000248
0.000252
0.000267
0.000276
0.000288
0.000333
0.000488
0.000466
0.000232
0.000286
0.000185
0.000056
0.000201
0.000249
0.000262
0.000239
0.000260
0.000331
0.000501
0.000493
0.000342
0.000689
0.000270
0.000208
0.000243
0.000264
0.000248
0.000262
0.000278
0.000285
0.000470
0.000418
0.001511
0.000319
0.000243
0.000261
0.000298
0.000275
0.000410
0.000368
0.000359
0.000342
0.000166
0.000056
0.000184
0.000229
0.000247
0.000245
0.000237
0.000257
0.000274
0.000250
0.000255
0.000335
0.000327
0.000384
0.000272
0.000352
0.000366
0.000343
0.000236
0.000261
0.000269
0.000259
0.000240
0.000252
0.000286
0.000245
0.000312
0.000435
0.000437
0.000304
0.000240
0.000271
0.000187
0.000057
0.000213
0.000247
0.000255
0.000256
0.000243
0.000238
0.000467
0.000213
0.000249
0.000236
0.000254
0.000250
0.000258
0.000252
0.000263
0.000255
0.000263
0.000265
0.000269
0.000256
0.000260
0.000284
0.000299
0.000243
0.000268
0.000288
0.000258
0.000264
0.000262
0.000275
0.000166
0.000056
0.000221
0.000253
0.000369
0.000350
0.000364
0.000257
0.000232
0.000248
0.000257
0.000250
0.000250
0.000254
0.000266
0.000260
0.000238
0.000249
0.000241
0.000266
0.000291
0.000341
0.000560
0.000261
0.000239
0.000261
0.000272
0.000246
0.000271
0.000247
0.000274
0.000278
0.000199
0.000056
0.000303
0.000435
0.000368
0.000218
0.000251
0.000258
0.000408
0.000237
0.000220
0.000258
0.000250
0.000338
0.000309
0.000456
0.001853
0.000258
0.000230
0.000249
0.000278
0.000243
0.000318
0.000541
0.000611
0.000222
0.000227
0.000267
0.000277
0.000423
0.000276
0.000280
0.000165
0.000057
0.000208
0.000312
0.000332
0.000333
0.000500
0.000198
0.000254
0.000241
0.000251
0.000244
0.000257
0.000246
0.000261
0.000333
0.000376
0.000497
0.000222
0.000246
0.000268
0.000252
0.000263
0.000319
0.000224
0.000285
0.000282
0.000488
0.000481
0.000448
0.000390
0.000238
0.000206
0.000056
0.000215
0.000240
0.000253
0.000241
0.000255
0.000232
0.000268
0.000269
0.000343
0.000412
0.000393
0.000360
0.000228
0.000240
0.000266
0.000280
0.000304
0.000235
0.000277
0.000274
0.000235
0.000313
0.000529
0.000309
0.000274
0.000264
0.000262
0.000447
0.000403
0.000317
0.000181
0.000056
0.000201
0.000258
0.000315
0.000403
0.000401
0.000203
0.000242
0.000260
0.000252
0.000260
0.000254
0.000256
0.000230
0.000265
0.000251
0.000303
0.000359
0.000391
0.000283
0.000336
0.000507
0.000229
0.000277
0.000277
0.000302
0.000282
0.000261
0.000275
0.000468
0.000453
0.000242
0.000056
0.000210
0.000228
0.000250
0.000248
0.000241
0.000476
0.000213
0.000278
0.000246
0.000361
0.000463
0.000591
0.000201
0.000247
0.000240
0.000255
0.000254
0.000250
0.000255
0.000250
0.000265
0.000263
0.000361
0.000428
0.000371
0.000392
0.000291
0.000347
0.000270
0.000259
0.000178
0.000056
0.000213
0.000232
0.000279
0.000463
0.000337
0.000276
0.000269
0.000234
0.000231
0.000262
0.000248
0.000251
0.000253
0.000263
0.000245
0.000260
0.000267
0.000229
0.000277
0.000381
0.000472
0.000420
0.000230
0.000248
0.000297
0.000259
0.000262
0.000253
0.000266
0.000265
0.000194
0.000058
0.000247
0.000380
0.000473
0.000229
0.000223
0.000256
0.000335
0.000445
0.000282
0.000220
0.000238
0.000286
0.000249
0.000479
0.000389
0.000316
0.000205
0.000244
0.000255
0.000268
0.000272
0.000260
0.000263
0.000273
0.000264
0.000297
0.000434
0.000408
0.000278
0.000247
0.000184
0.000055
0.000233
0.000238
0.000246
0.000253
0.000251
0.000265
0.000231
0.000256
0.000250
0.000251
0.000267
0.000239
0.000261
0.001454
0.000226
0.000260
0.000257
0.000248
0.000273
0.000276
0.000261
0.000241
0.000277
0.000252
0.000271
0.000264
0.000270
0.000275
0.000269
0.000258
0.000192
0.000054
0.000190
0.000221
0.000272
0.000234
0.000234
0.000245
0.000256
0.000262
0.000231
0.000246
0.000250
0.000260
0.000257
0.000253
0.000266
0.000246
0.000251
0.000263
0.000274
0.000248
0.000252
0.000265
0.000248
0.000250
0.001292
0.000285
0.000586
0.000371
0.000379
0.000243
0.000189
0.000056
0.000208
0.000239
0.000242
0.000252
0.000421
0.000222
0.000251
0.000236
0.000256
0.000415
0.000425
0.000303
0.000232
0.000247
0.000259
0.000261
0.000253
0.000267
0.000246
0.000258
0.000259
0.000276
0.000239
0.000408
0.000539
0.000444
0.000219
0.000266
0.001390
0.000225
0.000191
0.000057
0.000292
0.000449
0.000295
0.000268
0.000213
0.000243
0.000229
0.000247
0.000262
0.000252
0.000249
0.000264
0.000267
0.000301
0.000539
0.000389
0.000319
0.000223
0.000253
0.000259
0.000268
0.000259
0.000269
0.000262
0.000271
0.000264
0.000338
0.000535
0.000403
0.000350
0.000141
0.000057
0.000198
0.000223
0.001260
0.000425
0.000378
0.000435
0.000320
0.000488
0.000286
0.000333
0.000225
0.000226
0.000264
0.000251
0.000246
0.000265
0.000441
0.000432
0.000356
0.000374
0.000255
0.000246
0.000269
0.000495
0.000232
0.000268
0.000255
0.000283
0.000272
0.000569
0.000292
0.000057
0.000384
0.000336
0.000191
0.000231
0.001567
0.000450
0.000304
0.000252
0.000251
0.000249
0.000233
0.000236
0.000244
0.000275
0.000249
0.000258
0.000240
0.000259
0.000390
0.000442
0.000427
0.000244
0.000254
0.000257
0.000254
0.000276
0.000268
0.000244
0.000260
0.000276
0.000196
0.000056
0.000379
0.000336
0.000229
0.000231
0.000254
0.000244
0.000261
0.000233
0.000225
0.000232
0.001396
0.000485
0.000270
0.000247
0.000233
0.000256
0.000277
0.000260
0.000237
0.000276
0.000273
0.000252
0.000259
0.000481
0.000572
0.000229
0.000232
0.000275
0.000275
0.000279
0.000172
0.000057
0.000188
0.000408
0.000222
0.000236
0.000325
0.000463
0.000370
0.000320
0.000458
0.000214
0.000227
0.000253
0.000258
0.000268
0.000257
0.001448
0.000332
0.000283
0.000240
0.000270
0.000281
0.000246
0.000251
0.000260
0.000261
0.000269
0.000490
0.000396
0.000299
0.000271
0.000164
0.000057
0.000225
0.000229
0.000256
0.000236
0.000230
0.000261
0.000242
0.000244
0.000276
0.000377
0.000431
0.000285
0.000259
0.000249
0.000244
0.000274
0.000289
0.000246
0.000269
0.000228
0.000262
0.000282
0.001284
0.000257
0.000259
0.000242
0.000257
0.000268
0.000255
0.000263
0.000186
0.000057
0.000274
0.000308
0.000358
0.000358
0.000232
0.000233
0.000263
0.000264
0.000254
0.000252
0.000269
0.000251
0.000244
0.000250
0.000262
0.000261
0.000265
0.000270
0.000261
0.000252
0.000251
0.000270
0.000263
0.000287
0.000286
0.000267
0.000268
0.000256
0.000267
0.000437
0.001376
0.000055
0.000204
0.000234
0.000234
0.000244
0.000272
0.000245
0.000244
0.000226
0.000247
0.000249
0.000277
0.000250
0.000255
0.000240
0.000270
0.000226
0.001726
0.000256
0.000248
0.000261
0.000245
0.000258
0.000276
0.000257
0.000272
0.000259
0.000269
0.000280
0.000264
0.000263
0.000220
0.000056
0.000277
0.000350
0.001287
0.000219
0.000233
0.000242
0.000258
0.000249
0.000282
0.000232
0.000234
0.000355
0.000398
0.000447
0.000262
0.000228
0.000248
0.000254
0.000282
0.000238
0.000250
0.000266
0.000272
0.000282
0.000268
0.000379
0.000364
0.000380
0.000308
0.000243
0.000200
0.000055
0.000240
0.000233
0.000242
0.000247
0.000271
0.000203
0.000243
0.000257
0.000443
0.001315
0.000266
0.000209
0.000249
0.000281
0.000242
0.000288
0.000242
0.000250
0.000299
0.000409
0.000392
0.000277
0.000235
0.000245
0.000282
0.000278
0.000264
0.000297
0.000266
0.000299
0.000171
0.000056
0.000213
0.000387
0.000420
0.000221
0.000235
0.000236
0.000270
0.000248
0.000266
0.000247
0.000227
0.000254
0.000448
0.000552
0.000439
0.001447
0.000244
0.000277
0.000325
0.000345
0.000479
0.000430
0.000624
0.000238
0.000226
0.000265
0.000267
0.000273
0.000264
0.000275
0.000201
0.000055
0.000201
0.000269
0.000460
0.000457
0.000351
0.000233
0.000248
0.000236
0.000242
0.000262
0.000247
0.000263
0.000266
0.000242
0.000287
0.000274
0.000369
0.000430
0.000361
0.001323
0.000265
0.000256
0.000253
0.000259
0.000441
0.000470
0.000375
0.000254
0.000270
0.000271
0.000192
0.000056
0.000208
0.000241
0.000246
0.000243
0.000247
0.000276
0.000455
0.000413
0.000335
0.000228
0.000237
0.000260
0.000276
0.000258
0.000258
0.000262
0.000271
0.000246
0.000269
0.000255
0.000480
0.000431
0.000327
0.001346
0.000413
0.000244
0.000267
0.000405
0.000473
0.000331
0.000322
0.000057
0.000207
0.000230
0.000248
0.000247
0.000248
0.000254
0.001721
0.000201
0.000220
0.000238
0.000259
0.000246
0.000259
0.000331
0.000325
0.000280
0.000283
0.000340
0.000461
0.000424
0.000287
0.000279
0.000228
0.001442
0.000319
0.000335
0.000455
0.000433
0.000322
0.000286
0.000168
0.000057
0.000216
0.000244
0.000252
0.000258
0.000245
0.000257
0.001707
0.000248
0.000239
0.000257
0.000331
0.000413
0.001436
0.000354
0.000406
0.000232
0.000262
0.000238
0.000268
0.000271
0.001529
0.000530
0.000550
0.000194
0.000223
0.000254
0.000262
0.000279
0.000250
0.000247
0.000196
0.000056
0.000208
0.000242
0.000271
0.000237
0.000259
0.000280
0.000280
0.000267
0.000242
0.000252
0.000259
0.000241
0.000264
0.000262
0.000253
0.001499
0.000276
0.000256
0.000253
0.000276
0.000270
0.000272
0.000418
0.001257
0.000289
0.000226
0.000275
0.000256
0.000394
0.000237
0.000208
0.000055
0.000205
0.000245
0.000221
0.000245
0.000238
0.000232
0.000246
0.001681
0.000254
0.000222
0.000264
0.000359
0.000232
0.000224
0.000252
0.001383
0.000231
0.000284
0.000255
0.000242
0.000263
0.000351
0.000272
0.001307
0.000278
0.000258
0.000253
0.000270
0.001379
0.000271
0.000199
0.000057
0.000303
0.000305
0.000201
0.000237
0.000251
0.000240
0.000265
0.000265
0.000270
0.000242
0.000264
0.000262
0.000255
0.000256
0.000320
0.001474
0.000251
0.000290
0.000238
0.000242
0.000285
0.000263
0.000247
0.001508
0.000348
0.000238
0.000266
0.001281
0.000268
0.000246
0.000227
0.000056
0.000230
0.000381
0.000348
0.000215
0.000241
0.000235
0.000266
0.000257
0.000265
0.000272
0.000237
0.000253
0.000262
0.000296
0.000386
0.001222
0.000238
0.000253
0.000266
0.000276
0.000228
0.000240
0.000253
0.000346
0.001257
0.000253
0.000255
0.000248
0.000257
0.001340
0.000335
0.000056
0.000310
0.000297
0.000205
0.000225
0.000239
0.000264
0.000233
0.000251
0.000277
0.000252
0.000240
0.000252
0.000244
0.000333
0.000405
0.001484
0.000220
0.000247
0.000301
0.000509
0.000289
0.000486
0.001248
0.000295
0.000244
0.000268
0.000253
0.001308
0.000301
0.000485
0.000359
0.000057
0.000207
0.000249
0.000254
0.000256
0.000252
0.000253
0.000272
0.000246
0.000264
0.000271
0.000363
0.000420
0.001325
0.000238
0.000260
0.000265
0.000280
0.000221
0.000249
0.000242
0.000351
0.001224
0.000253
0.000249
0.000259
0.000250
0.001472
0.000466
0.000509
0.000200
0.000191
0.000057
0.000218
0.000220
0.000245
0.000237
0.000273
0.000250
0.000236
0.000295
0.000379
0.000499
0.000262
0.001504
0.000205
0.000249
0.000265
0.000253
0.000264
0.000412
0.001565
0.000256
0.000404
0.000319
0.001256
0.000414
0.000280
0.000317
0.000260
0.000261
0.000264
0.000272
0.000187
0.000056
0.000217
0.000238
0.000331
0.000229
0.000301
0.000600
0.000256
0.000284
0.001474
0.000237
0.000401
0.000253
0.000219
0.000319
0.000385
0.001318
0.000264
0.000244
0.000239
0.000257
0.001651
0.000250
0.000298
0.000254
0.000263
0.000266
0.000445
0.000333
0.000224
0.000263
0.000260
0.000055
0.000288
0.000348
0.000336
0.000246
0.000222
0.001528
0.000203
0.000257
0.000266
0.000266
0.000269
0.000244
0.000353
0.001435
0.000253
0.000227
0.000433
0.001201
0.000349
0.000429
0.000399
0.000234
0.000239
0.000257
0.000275
0.000246
0.000447
0.000232
0.000264
0.000281
0.000198
0.000056
0.000223
0.000284
0.000337
0.000340
0.001309
0.000285
0.000308
0.000237
0.000239
0.000247
0.000249
0.000256
0.001559
0.000264
0.000226
0.000244
0.001384
0.000269
0.000447
0.000419
0.000383
0.000238
0.000251
0.000247
0.000268
0.000274
0.000271
0.000258
0.000273
0.000249
0.000198
0.000055
0.000268
0.000423
0.001380
0.000207
0.000269
0.000275
0.000241
0.000250
0.000285
0.000325
0.001436
0.000212
0.000253
0.000256
0.000267
0.001282
0.000699
0.000291
0.000325
0.000403
0.000284
0.000254
0.000268
0.000262
0.000269
0.000285
0.000275
0.000294
0.000504
0.000365
0.001392
0.000055
0.000191
0.000247
0.000242
0.000223
0.000264
0.000387
0.000542
0.001253
0.000236
0.000244
0.000250
0.001410
0.000430
0.000352
0.000225
0.000405
0.000253
0.000245
0.000261
0.000282
0.000234
0.000288
0.000267
0.000260
0.000252
0.000284
0.000418
0.000525
0.001476
0.000218
0.000195
0.000057
0.000214
0.000251
0.000475
0.000479
0.001178
0.000275
0.000250
0.000259
0.000249
0.000249
0.000253
0.000261
0.000548
0.000300
0.000347
0.000233
0.000253
0.000280
0.000241
0.000278
0.000250
0.000273
0.000260
0.000271
0.000260
0.000414
0.000468
0.000336
0.000320
0.001402
0.000170
0.000056
0.000203
0.000234
0.000273
0.000467
0.000321
0.000313
0.000315
0.000351
0.000251
0.000257
0.000258
0.000265
0.000256
0.000308
0.000233
0.000261
0.000588
0.000316
0.000287
0.000388
0.000277
0.000400
0.000226
0.000268
0.000249
0.000263
0.000248
0.000274
0.000401
0.000460
0.000293
0.000057
0.000203
0.001410
0.000235
0.000333
0.000405
0.000435
0.000344
0.000327
0.000223
0.000239
0.000262
0.000248
0.000262
0.000272
0.000260
0.000272
0.000242
0.001309
0.000309
0.000257
0.000256
0.000272
0.000271
0.000276
0.000275
0.000247
0.000282
0.000245
0.000334
0.000392
0.000377
0.000056
0.000209
0.000257
0.000222
0.001487
0.000331
0.000239
0.000233
0.000249
0.000228
0.000255
0.000247
0.000268
0.000253
0.000250
0.000269
0.000251
0.000249
0.000269
0.000258
0.000261
0.001438
0.000228
0.000240
0.000275
0.000260
0.000267
0.000252
0.000257
0.000282
0.000487
0.000356
0.000056
0.000206
0.000231
0.000394
0.000275
0.000249
0.000253
0.001540
0.000343
0.000303
0.000212
0.000260
0.000311
0.000335
0.000227
0.000229
0.000250
0.000246
0.000265
0.000260
0.000258
0.000533
0.000432
0.001145
0.000268
0.000243
0.000259
0.000269
0.000256
0.000270
0.000260
0.000342
0.000056
0.000283
0.000334
0.000217
0.000236
0.000248
0.000239
0.000243
0.000232
0.000290
0.001575
0.000463
0.000221
0.000242
0.000252
0.000259
0.000246
0.000257
0.000273
0.000283
0.000290
0.000303
0.000494
0.000474
0.001337
0.000235
0.000263
0.000273
0.000262
0.000267
0.000316
0.000409
0.000056
0.000270
0.000240
0.000237
0.000240
0.000226
0.000241
0.000262
0.000252
0.000271
0.001553
0.000365
0.000260
0.000263
0.000260
0.000453
0.000273
0.000524
0.000376
0.000299
0.000333
0.000428
0.000453
0.001290
0.000258
0.000235
0.000254
0.001738
0.000487
0.000562
0.000311
0.000150
0.000055
0.000208
0.000228
0.000240
0.000237
0.000265
0.000231
0.000261
0.000501
0.000523
0.000374
0.000295
0.000217
0.000242
0.000265
0.000264
0.000257
0.000251
0.000253
0.000257
0.000273
0.000271
0.000374
0.001385
0.000228
0.000253
0.000270
0.001893
0.000384
0.000380
0.000346
0.000165
0.000057
0.000249
0.000240
0.000241
0.001635
0.000374
0.000198
0.000236
0.000259
0.000255
0.000291
0.000376
0.000366
0.000363
0.000272
0.000256
0.000633
0.000314
0.001207
0.000269
0.000240
0.000248
0.000259
0.000276
0.000408
0.000613
0.000451
0.000268
0.000262
0.000264
0.000283
0.000192
0.000057
0.000199
0.000231
0.000243
0.001529
0.000254
0.000244
0.000237
0.000255
0.000240
0.000249
0.000254
0.000271
0.000266
0.000271
0.000274
0.000362
0.000422
0.000369
0.001385
0.000225
0.000263
0.000257
0.000263
0.000296
0.000369
0.000460
0.000441
0.000280
0.000279
0.000222
0.000445
0.000057
0.000220
0.000241
0.000250
0.001525
0.000311
0.000228
0.000268
0.000243
0.000252
0.000256
0.000254
0.000248
0.000261
0.000256
0.000331
0.000571
0.001397
0.000748
0.000254
0.000342
0.000254
0.000233
0.000247
0.000279
0.001680
0.000797
0.000233
0.000263
0.000280
0.000288
0.000181
0.000056
0.000189
0.000236
0.000251
0.000245
0.000257
0.000254
0.000231
0.000257
0.000239
0.000242
0.000279
0.000282
0.000249
0.000254
0.000262
0.000246
0.000271
0.001605
0.000749
0.000346
0.000300
0.000229
0.000241
0.000283
0.000259
0.000265
0.000290
0.000238
0.001394
0.000388
0.000309
0.000056
0.000194
0.000233
0.000249
0.000246
0.000262
0.000233
0.000256
0.000249
0.000250
0.000264
0.000279
0.000473
0.000379
0.000336
0.000218
0.000243
0.000264
0.001394
0.000691
0.000514
0.000281
0.000285
0.000229
0.000251
0.000270
0.000248
0.000262
0.000266
0.001481
0.000400
0.000218
0.000057
0.000203
0.000237
0.000248
0.000247
0.000248
0.000247
0.000234
0.000270
0.000255
0.000258
0.000429
0.000295
0.000357
0.000214
0.000243
0.000248
0.000269
0.000251
0.001565
0.000675
0.000412
0.000329
0.000232
0.000262
0.000257
0.000260
0.000263
0.000283
0.000265
0.001357
0.000330
0.000057
0.000218
0.000222
0.000234
0.000257
0.000250
0.000245
0.000267
0.000297
0.000375
0.000407
0.000363
0.000418
0.000352
0.000215
0.000249
0.000244
0.000297
0.000238
0.000276
0.001931
0.000311
0.000248
0.000433
0.000251
0.000246
0.000267
0.000284
0.000245
0.000270
0.000276
0.000431
0.000058
0.000261
0.000262
0.000228
0.000241
0.000256
0.000246
0.000226
0.000242
0.000266
0.000250
0.000246
0.000239
0.000333
0.000399
0.000461
0.000450
0.000223
0.000264
0.000250
0.000254
0.000268
0.000274
0.001494
0.001029
0.000221
0.000250
0.000272
0.000265
0.000267
0.000254
0.000205
0.000056
0.000203
0.001342
0.000290
0.000211
0.000241
0.000250
0.000251
0.000236
0.000244
0.000250
0.000252
0.000265
0.000243
0.000390
0.000353
0.000474
0.000258
0.000252
0.000267
0.000263
0.000274
0.000227
0.000259
0.000269
0.001323
0.000676
0.000314
0.000379
0.000428
0.000355
0.000292
0.000056
0.000193
0.000262
0.001396
0.000256
0.000214
0.000252
0.000231
0.000257
0.000256
0.000255
0.000248
0.000249
0.000294
0.000325
0.000590
0.000283
0.000226
0.000275
0.000335
0.000211
0.000249
0.000270
0.000234
0.000272
0.000269
0.001539
0.000738
0.000300
0.000278
0.000271
0.000190
0.000056
0.000193
0.000239
0.000475
0.000308
0.001317
0.000233
0.000238
0.000241
0.000234
0.000248
0.000249
0.000255
0.000225
0.000240
0.000259
0.000252
0.000271
0.000236
0.000253
0.000254
0.000268
0.000266
0.000303
0.000341
0.000207
0.000282
0.000257
0.001462
0.000254
0.000252
0.000164
0.000056
0.000211
0.000238
0.000244
0.000308
0.000361
0.000336
0.000389
0.000267
0.001573
0.000237
0.000280
0.000488
0.000365
0.000241
0.000431
0.000242
0.000235
0.000279
0.000261
0.000263
0.000281
0.000266
0.000258
0.000268
0.000248
0.000412
0.000391
0.000349
0.001576
0.000224
0.000190
0.000056
0.000242
0.000236
0.000250
0.000247
0.000241
0.000246
0.000261
0.000274
0.000428
0.002050
0.000237
0.000239
0.000259
0.000257
0.000261
0.000248
0.000277
0.000249
0.000292
0.000429
0.000409
0.000387
0.001454
0.000246
0.000530
0.000237
0.001763
0.000243
0.000257
0.001531
0.000155
0.000056
0.000195
0.000526
0.000371
0.000244
0.000265
0.000223
0.000260
0.000272
0.000262
0.000225
0.000251
0.000350
0.000411
0.000336
0.000427
0.000246
0.000228
0.001572
0.000246
0.000591
0.001843
0.000298
0.000244
0.001528
0.002030
0.000759
0.000259
0.000256
0.000276
0.000465
0.000299
0.000056
0.000232
0.000245
0.000244
0.000251
0.001419
0.001730
0.001077
0.000209
0.000234
0.001583
0.001978
0.000211
0.000233
0.000429
0.000266
0.000408
0.000458
0.000428
0.000207
0.000237
0.000256
0.000251
0.000276
0.001591
0.001202
0.001432
0.000265
0.000301
0.000256
0.000302
0.000349
0.000055
0.000215
0.000230
0.000238
0.000242
0.000230
0.000246
0.000245
0.000251
0.000258
0.000249
0.000244
0.000351
0.000372
0.000478
0.000284
0.000267
0.000248
0.000269
0.000269
0.000280
0.000237
0.000267
0.001507
0.000485
0.002108
0.000228
0.000308
0.000397
0.000310
0.000417
0.000190
0.000056
0.000253
0.000384
0.000418
0.000303
0.000201
0.000234
0.000250
0.000242
0.000240
0.000246
0.000245
0.000269
0.000254
0.001612
0.001358
0.001214
0.000289
0.000229
0.000242
0.000279
0.000282
0.000276
0.000241
0.000255
0.002210
0.000250
0.000244
0.000302
0.000323
0.000303
0.000220
0.000056
0.000209
0.000350
0.000587
0.000286
0.000253
0.000222
0.000245
0.000283
0.001887
0.001419
0.000223
0.000336
0.000411
0.000387
0.000246
0.000238
0.000253
0.000268
0.000265
0.000264
0.000256
0.000263
0.000467
0.000234
0.000275
0.000267
0.000272
0.000256
0.000283
0.000248
0.000205
0.000055
0.000214
0.000249
0.000251
0.000237
0.000249
0.000271
0.001567
0.001394
0.001319
0.000247
0.000233
0.000242
0.000271
0.000258
0.000243
0.000250
0.000253
0.002102
0.000260
0.000229
0.000264
0.000263
0.000254
0.000269
0.000261
0.000258
0.000265
0.000264
0.000273
0.000251
0.000180
0.000056
0.000196
0.002686
0.001382
0.000225
0.000308
0.000292
0.000235
0.000261
0.000262
0.000242
0.000254
0.000245
0.000236
0.000248
0.000267
0.000257
0.000267
0.000265
0.000259
0.000265
0.000278
0.000292
0.000257
0.000263
0.000243
0.000247
0.000265
0.000270
0.000261
0.000271
0.000384
0.000056
0.001547
0.000244
0.001253
0.000226
0.000225
0.000236
0.000261
0.000259
0.000239
0.000309
0.000383
0.000370
0.000303
0.000218
0.000254
0.002139
0.000258
0.000238
0.000355
0.000420
0.000418
0.000256
0.000219
0.000261
0.000263
0.000249
0.000264
0.000279
0.000288
0.001586
0.001275
0.000056
0.000210
0.000226
0.000275
0.000455
0.000322
0.000280
0.000223
0.000222
0.000250
0.000258
0.000269
0.000244
0.000228
0.000252
0.000261
0.000243
0.000353
0.000593
0.000349
0.000252
0.000229
0.000271
0.000278
0.000252
0.000254
0.000247
0.000265
0.000275
0.000239
0.000300
0.000406
0.000057
0.001114
0.000238
0.000364
0.000481
0.000242
0.000230
0.000226
0.000239
0.000250
0.002318
0.000366
0.000363
0.000228
0.000370
0.000284
0.000267
0.000254
0.000259
0.000276
0.000223
0.000248
0.000329
0.000618
0.000419
0.001839
0.001320
0.000532
0.000527
0.000222
0.000282
0.000188
0.000056
0.000299
0.000311
0.000229
0.000244
0.000245
0.000232
0.000255
0.000252
0.000257
0.000246
0.000253
0.000231
0.000247
0.000257
0.000412
0.000490
0.001836
0.001308
0.000446
0.000448
0.000462
0.000236
0.000245
0.000263
0.002119
0.000566
0.000388
0.000230
0.000274
0.000281
0.000197
0.000056
0.000214
0.000242
0.000256
0.000239
0.000242
0.000363
0.000390
0.000274
0.000351
0.000231
0.000244
0.000252
0.000261
0.002104
0.000408
0.000348
0.000220
0.000252
0.000262
0.000258
0.000254
0.002444
0.000354
0.000225
0.000254
0.000256
0.000251
0.000274
0.000285
0.000276
0.000193
0.000055
0.000201
0.000295
0.000612
0.000348
0.000283
0.000216
0.000221
0.000253
0.000260
0.000253
0.002013
0.000330
0.000269
0.000299
0.000221
0.000264
0.000275
0.000240
0.002233
0.000423
0.000233
0.000249
0.000276
0.000260
0.000252
0.000250
0.000284
0.000255
0.000266
0.000252
0.000190
0.000055
0.000221
0.000245
0.000246
0.000220
0.000258
0.000254
0.000235
0.000244
0.000238
0.002172
0.000248
0.000266
0.000221
0.000423
0.000234
0.000250
0.000273
0.000290
0.000245
0.000260
0.001964
0.000293
0.000375
0.000375
0.000392
0.000390
0.000314
0.000248
0.000258
0.000250
0.000200
0.000056
0.000215
0.000231
0.000259
0.000232
0.000251
0.000323
0.000228
0.002294
0.000247
0.000231
0.000264
0.000254
0.000237
0.000250
0.000303
0.002127
0.000592
0.000229
0.000251
0.000244
0.000253
0.000261
0.000290
0.000268
0.000262
0.000254
0.000282
0.000256
0.000266
0.000265
0.000193
0.000056
0.001809
0.001442
0.000199
0.000231
0.000246
0.000253
0.000251
0.000255
0.000439
0.000315
0.002183
0.000265
0.000237
0.000266
0.000264
0.000415
0.000507
0.000289
0.000237
0.000243
0.000254
0.000261
0.000269
0.000225
0.000257
0.000264
0.000271
0.000270
0.000327
0.000655
0.000305
0.000056
0.000199
0.000243
0.000244
0.000272
0.000257
0.000244
0.000255
0.000239
0.001470
0.002127
0.000582
0.000279
0.000409
0.000675
0.000351
0.000240
0.000256
0.000248
0.000267
0.000254
0.000255
0.000247
0.000257
0.000284
0.001804
0.001458
0.000290
0.000270
0.000291
0.000352
0.000344
0.000056
0.001938
0.000229
0.000227
0.000253
0.000281
0.000442
0.000342
0.000316
0.000288
0.000210
0.000252
0.000250
0.000258
0.000253
0.000267
0.000255
0.000258
0.000282
0.001826
0.000241
0.000236
0.000247
0.000277
0.000275
0.000275
0.000258
0.001460
0.000334
0.000251
0.000260
0.000170
0.000056
0.000200
0.000235
0.000263
0.000222
0.000248
0.000244
0.000359
0.000314
0.000334
0.000378
0.000224
0.000242
0.000258
0.000383
0.000386
0.000303
0.000233
0.000239
0.000271
0.000385
0.000384
0.000511
0.000242
0.000250
0.000258
0.000254
0.000268
0.000261
0.000273
0.000267
0.000197
0.000055
0.001436
0.000428
0.000223
0.001948
0.000264
0.000429
0.000419
0.000317
0.000235
0.000245
0.000266
0.000241
0.000247
0.000247
0.000269
0.000252
0.000454
0.000268
0.000395
0.000416
0.000346
0.000231
0.000249
0.000274
0.000273
0.000269
0.000258
0.000267
0.000386
0.000478
0.001329
0.000058
0.000210
0.000218
0.002075
0.000375
0.000238
0.000259
0.000273
0.000234
0.000262
0.000253
0.000224
0.000249
0.000255
0.000261
0.000260
0.000352
0.000713
0.001766
0.000229
0.000252
0.000255
0.000263
0.000383
0.000418
0.001595
0.000277
0.000364
0.001921
0.000273
0.000254
0.000186
0.000057
0.000203
0.000239
0.000231
0.000240
0.000231
0.000252
0.000251
0.000282
0.000330
0.000280
0.000381
0.000358
0.000334
0.000306
0.000229
0.000272
0.000262
0.000238
0.000267
0.000253
0.000300
0.000286
0.000265
0.000267
0.000264
0.001505
0.000294
0.000393
0.002058
0.000241
0.000174
0.000057
0.000229
0.000245
0.000234
0.000248
0.000479
0.000208
0.000264
0.000310
0.000377
0.000315
0.000306
0.000213
0.000266
0.000263
0.000270
0.000323
0.000413
0.000438
0.000278
0.000377
0.000531
0.000487
0.001539
0.000230
0.000253
0.001967
0.000347
0.000252
0.000240
0.000294
0.000186
0.000056
0.000215
0.000245
0.000226
0.000240
0.000252
0.000271
0.000254
0.000266
0.000255
0.000254
0.001812
0.000338
0.000369
0.000314
0.000429
0.000365
0.000357
0.001493
0.000241
0.000317
0.002173
0.000472
0.000258
0.000237
0.000266
0.000269
0.000501
0.000229
0.000249
0.000282
0.000197
0.000056
0.000255
0.000368
0.000366
0.000290
0.000204
0.000243
0.000253
0.000251
0.000273
0.000294
0.000221
0.000250
0.000257
0.000263
0.000374
0.001483
0.000319
0.000210
0.000280
0.002003
0.000277
0.000276
0.000248
0.000267
0.000247
0.000282
0.000262
0.000262
0.000251
0.000277
0.000193
0.000056
0.000224
0.000567
0.001889
0.000255
0.000257
0.000226
0.000265
0.000282
0.000400
0.000453
0.001325
0.000419
0.000295
0.002092
0.000199
0.000241
0.000268
0.000277
0.000254
0.000253
0.000272
0.000295
0.000256
0.000357
0.000552
0.000311
0.000307
0.002224
0.000495
0.000540
0.000329
0.000057
0.000205
0.000229
0.000241
0.001965
0.000251
0.000215
0.000238
0.000243
0.000242
0.000254
0.000246
0.000261
0.000247
0.000268
0.000447
0.001492
0.000229
0.000252
0.000268
0.000254
0.000237
0.000259
0.000258
0.000269
0.000301
0.000470
0.000476
0.000246
0.001595
0.000284
0.000158
0.000070
0.000197
0.000217
0.000246
0.000232
0.000253
0.000251
0.000251
0.000248
0.000258
0.000315
0.000425
0.001419
0.000234
0.000218
0.000250
0.000262
0.000257
0.000260
0.000489
0.000289
0.000561
0.000287
0.000225
0.001579
0.000230
0.000259
0.000289
0.000277
0.000263
0.000269
0.000189
0.000056
0.000214
0.000238
0.000244
0.000270
0.000247
0.000244
0.000242
0.000237
0.000262
0.000235
0.000254
0.000255
0.000254
0.001490
0.000362
0.000207
0.000249
0.000261
0.000307
0.000287
0.000448
0.000210
0.000231
0.000264
0.000260
0.000262
0.000261
0.001412
0.000284
0.000228
0.000172
0.000057
0.000206
0.000233
0.000256
0.000260
0.000257
0.000233
0.000269
0.000241
0.000226
0.000261
0.000245
0.000258
0.000226
0.000323
0.000397
0.000308
0.000270
0.000242
0.001639
0.000239
0.000238
0.000262
0.000263
0.000317
0.000350
0.000385
0.000456
0.000256
0.000251
0.001617
0.000161
0.000057
0.000414
0.000271
0.000338
0.000304
0.000231
0.000220
0.000241
0.000286
0.000244
0.000235
0.000244
0.000239
0.001465
0.000290
0.000304
0.000225
0.000249
0.000255
0.000270
0.000267
0.000255
0.000237
0.000258
0.000272
0.000281
0.000298
0.000459
0.000452
0.000219
0.000256
0.000192
0.000058
0.000190
0.000242
0.000498
0.000334
0.000336
0.000264
0.000250
0.000251
0.000246
0.000278
0.000225
0.000226
0.000258
0.000249
0.001249
0.000294
0.000246
0.000256
0.000262
0.000269
0.000237
0.000269
0.000249
0.000263
0.000253
0.000258
0.000356
0.000648
0.000444
0.000232
0.000186
0.000055
0.000188
0.001574
0.000273
0.000258
0.000486
0.000374
0.000223
0.000259
0.000262
0.000259
0.000237
0.000261
0.000269
0.000272
0.000261
0.001524
0.000249
0.000292
0.000260
0.000257
0.000259
0.000258
0.000260
0.000260
0.000260
0.000297
0.000471
0.000296
0.000358
0.000249
0.000186
0.000056
0.000193
0.000250
0.000233
0.001674
0.000397
0.000310
0.000231
0.000238
0.000252
0.000271
0.000275
0.000253
0.000247
0.000262
0.000232
0.000287
0.000408
0.001303
0.000257
0.000228
0.001487
0.000461
0.000405
0.000415
0.000338
0.000242
0.000266
0.000467
0.000236
0.000258
0.000188
0.000058
0.000279
0.000222
0.000251
0.000246
0.000253
0.000247
0.000240
0.000257
0.000258
0.000237
0.000255
0.000258
0.000324
0.000511
0.001641
0.001500
0.000350
0.000512
0.000356
0.000232
0.000226
0.000259
0.000253
0.000265
0.000273
0.000251
0.000252
0.000281
0.001503
0.000343
0.000155
0.000055
0.000221
0.000361
0.000354
0.000324
0.000224
0.000235
0.000242
0.000414
0.000364
0.000371
0.002166
0.000326
0.000738
0.000438
0.000491
0.000268
0.000329
0.000403
0.000318
0.000275
0.000392
0.000242
0.001820
0.000272
0.000214
0.000313
0.000209
0.000254
0.000272
0.000254
0.000198
0.000055
0.000216
0.000233
0.000257
0.000250
0.000243
0.001660
0.000872
0.000995
0.000210
0.000239
0.000259
0.000254
0.000267
0.000259
0.000252
0.000248
0.000254
0.000264
0.000264
0.000282
0.001430
0.000313
0.000255
0.000231
0.000233
0.000261
0.000259
0.000282
0.000265
0.000279
0.001901
0.000056
0.000197
0.000230
0.001547
0.000907
0.000326
0.000367
0.000238
0.000224
0.000251
0.000262
0.000241
0.000249
0.000249
0.002011
0.000439
0.000225
0.000250
0.000253
0.000266
0.000257
0.000190
