0.000102
0.017645
0.003647
0.000261
0.000265
0.000286
0.000306
0.000249
0.000333
0.000277
0.000262
0.000361
0.000566
0.000450
0.000381
0.000294
0.000299
0.000347
0.000379
0.000359
0.000315
0.001965
0.000663
0.000249
0.000265
0.000300
0.000336
0.000380
0.000444
0.000301
0.000459
0.000326
0.000061
0.000220
0.000261
0.000269
0.000264
0.000272
0.000250
0.000278
0.000261
0.000273
0.000291
0.000428
0.000439
0.000312
0.000360
0.000343
0.000309
0.000353
0.000246
0.000227
0.001707
0.000315
0.000252
0.000454
0.000254
0.000266
0.000274
0.000289
0.000295
0.000280
0.000329
0.000444
0.000058
0.000231
0.000258
0.000260
0.000262
0.000253
0.000246
0.000257
0.000253
0.000290
0.001661
0.000227
0.000243
0.000267
0.000271
0.000281
0.000248
0.000267
0.000253
0.000354
0.001801
0.000250
0.000269
0.000440
0.000530
0.000294
0.000237
0.000247
0.000535
0.000487
0.000718
0.000195
0.000059
0.000223
0.000240
0.000254
0.000284
0.000254
0.000263
0.000290
0.000549
0.000387
0.000268
0.000246
0.000243
0.000265
0.000241
0.000252
0.000255
0.000248
0.000266
0.000295
0.000390
0.001611
0.000299
0.000234
0.000407
0.000258
0.000738
0.000699
0.000490
0.000338
0.000253
0.000183
0.000079
0.000201
0.000251
0.000262
0.000245
0.000251
0.000251
0.000324
0.000553
0.001318
0.000224
0.000248
0.000242
0.000257
0.000255
0.000262
0.000287
0.000895
0.000227
0.001344
0.000285
0.000449
0.000260
0.000232
0.000216
0.000260
0.000260
0.000264
0.000272
0.000260
0.000268
0.000196
0.000057
0.000209
0.000245
0.000245
0.000263
0.000235
0.000246
0.000253
0.000242
0.000235
0.000256
0.001626
0.000266
0.000254
0.000223
0.000251
0.000249
0.000247
0.000249
0.000253
0.000258
0.000269
0.001661
0.000311
0.000222
0.000442
0.000257
0.000250
0.000268
0.000260
0.000273
0.000192
0.000057
0.000201
0.000244
0.000241
0.000247
0.000243
0.000244
0.000261
0.000236
0.000266
0.000240
0.000266
0.000256
0.000260
0.000276
0.001634
0.000275
0.000290
0.000220
0.000252
0.000273
0.000270
0.000239
0.000244
0.000270
0.001783
0.000366
0.000370
0.000358
0.000246
0.000281
0.000191
0.000055
0.000208
0.000238
0.000247
0.000263
0.000261
0.000239
0.000278
0.000421
0.000451
0.000385
0.000208
0.000244
0.000251
0.000253
0.001614
0.000457
0.000386
0.000368
0.000306
0.000234
0.000273
0.000282
0.000271
0.001735
0.000499
0.000469
0.000253
0.000247
0.000253
0.000262
0.000182
0.000057
0.000217
0.000228
0.000253
0.000268
0.000427
0.000352
0.000463
0.000200
0.000203
0.000251
0.000264
0.000238
0.000253
0.001715
0.000500
0.000267
0.000236
0.000250
0.000274
0.000282
0.000245
0.000261
0.000272
0.001908
0.000290
0.000383
0.000262
0.000257
0.000267
0.000409
0.000327
0.000056
0.000209
0.000378
0.000351
0.000313
0.000234
0.000244
0.000249
0.000260
0.000241
0.000234
0.000234
0.000250
0.001549
0.000401
0.000260
0.000237
0.000256
0.000248
0.000250
0.000281
0.000302
0.000301
0.000245
0.001810
0.000260
0.000493
0.000244
0.000260
0.000250
0.000269
0.000254
0.000057
0.000382
0.000559
0.000626
0.000194
0.000233
0.000279
0.000224
0.000224
0.000257
0.000252
0.000260
0.001694
0.000257
0.000461
0.000349
0.000212
0.000243
0.000229
0.000252
0.000259
0.000255
0.001894
0.000202
0.000240
0.002067
0.000527
0.000365
0.000252
0.000279
0.000246
0.000178
0.000058
0.000204
0.000235
0.000246
0.000241
0.000256
0.001617
0.000251
0.000264
0.000226
0.000254
0.000246
0.000239
0.000251
0.000258
0.000274
0.000431
0.000604
0.000258
0.000238
0.000271
0.000261
0.000252
0.000244
0.000431
0.000441
0.000274
0.000365
0.000722
0.000238
0.000275
0.000196
0.000057
0.000213
0.000247
0.000253
0.000248
0.000231
0.000242
0.000282
0.000414
0.000371
0.001722
0.000223
0.000238
0.000240
0.000253
0.000255
0.000280
0.000416
0.000507
0.000321
0.000256
0.000256
0.000305
0.000278
0.000249
0.000277
0.000432
0.000356
0.000604
0.000529
0.000367
0.000173
0.000056
0.000201
0.000258
0.000237
0.000224
0.000246
0.000238
0.000249
0.000246
0.000252
0.000326
0.000295
0.000461
0.001364
0.000248
0.000238
0.000244
0.000260
0.000258
0.000240
0.000250
0.000325
0.000398
0.000423
0.000262
0.000271
0.000253
0.000257
0.000277
0.000261
0.000265
0.000377
0.000057
0.000214
0.000250
0.000224
0.000268
0.000511
0.000455
0.000225
0.000259
0.000235
0.000258
0.000252
0.000234
0.000292
0.000250
0.000246
0.000518
0.000398
0.001620
0.000296
0.000218
0.000260
0.000265
0.000252
0.000263
0.000245
0.000444
0.000474
0.000332
0.000423
0.000247
0.000190
0.000076
0.000216
0.000431
0.000239
0.000216
0.000265
0.000244
0.000269
0.000617
0.000287
0.000335
0.000228
0.000268
0.000271
0.000239
0.000517
0.000349
0.000218
0.000286
0.000369
0.001642
0.000271
0.000254
0.000501
0.000243
0.000284
0.000277
0.000256
0.000410
0.000526
0.000341
0.000261
0.000057
0.000214
0.000238
0.000239
0.000239
0.000414
0.000310
0.000291
0.000225
0.000427
0.000466
0.000384
0.000215
0.000247
0.000241
0.000257
0.000267
0.000258
0.000250
0.000234
0.000349
0.000291
0.000296
0.001884
0.000239
0.000242
0.000255
0.000297
0.000354
0.000417
0.000657
0.000496
0.000056
0.000240
0.000329
0.000279
0.000432
0.000381
0.000210
0.000257
0.000312
0.000477
0.000475
0.000218
0.000246
0.000231
0.000273
0.000261
0.000249
0.000242
0.000269
0.000272
0.000255
0.000266
0.000384
0.000755
0.001257
0.000414
0.000493
0.000299
0.000237
0.000375
0.000529
0.000284
0.000056
0.000366
0.000338
0.000220
0.000195
0.000232
0.000219
0.000412
0.000242
0.000229
0.000382
0.000482
0.000366
0.000255
0.000257
0.000264
0.000251
0.000384
0.000385
0.000342
0.000224
0.000250
0.000402
0.000644
0.001648
0.000234
0.000451
0.000288
0.000224
0.000254
0.000460
0.000284
0.000057
0.000196
0.000234
0.000245
0.000245
0.000245
0.000248
0.000272
0.000302
0.000452
0.000312
0.000391
0.000441
0.000239
0.000583
0.000241
0.000243
0.000274
0.000265
0.000250
0.000362
0.000187
0.000253
0.000265
0.000422
0.000492
0.001648
0.000270
0.000235
0.000244
0.000278
0.000185
0.000057
0.000299
0.000482
0.000322
0.000226
0.000253
0.000245
0.000258
0.000239
0.000259
0.000255
0.000218
0.000244
0.000432
0.000612
0.000300
0.000266
0.000264
0.000251
0.000365
0.000368
0.000383
0.000326
0.000429
0.000346
0.000221
0.000256
0.000266
0.000274
0.001783
0.000250
0.000207
0.000059
0.000205
0.000221
0.000254
0.000276
0.000379
0.000537
0.000288
0.000229
0.000254
0.000266
0.000247
0.000247
0.000525
0.000445
0.000513
0.000258
0.000244
0.000368
0.000431
0.000445
0.000362
0.000361
0.000527
0.000374
0.000228
0.000260
0.000257
0.000239
0.000264
0.001722
0.000336
0.000057
0.000206
0.000330
0.000214
0.000227
0.000254
0.000250
0.000289
0.000465
0.000378
0.000317
0.000286
0.000325
0.000319
0.000605
0.000335
0.000237
0.000256
0.000251
0.000254
0.000263
0.000262
0.000273
0.000248
0.000264
0.000331
0.000368
0.000408
0.000329
0.000239
0.000252
0.000191
0.000055
0.000471
0.000290
0.000510
0.000194
0.000203
0.000246
0.000245
0.000258
0.000237
0.000222
0.000251
0.000278
0.000294
0.000412
0.000490
0.000599
0.000319
0.000376
0.000352
0.000286
0.000206
0.000214
0.000243
0.000261
0.001760
0.000246
0.001708
0.000950
0.000443
0.000274
0.000176
0.000060
0.000205
0.000252
0.000219
0.000239
0.000264
0.000244
0.000254
0.000254
0.000240
0.000333
0.000426
0.000439
0.000251
0.000380
0.000262
0.000246
0.000244
0.000293
0.000242
0.000233
0.000258
0.000255
0.001811
0.000237
0.000257
0.000269
0.000280
0.000258
0.001890
0.000507
0.000322
0.000060
0.000205
0.000219
0.000228
0.000242
0.000257
0.000245
0.000240
0.000259
0.000251
0.000359
0.000668
0.000410
0.000235
0.000206
0.000237
0.000334
0.000362
0.000452
0.000302
0.000207
0.001768
0.000241
0.000250
0.000251
0.000259
0.000270
0.000243
0.000252
0.000324
0.000281
0.000423
0.000086
0.000220
0.000219
0.000239
0.000259
0.000244
0.000243
0.000258
0.000255
0.000238
0.000256
0.000241
0.000320
0.000352
0.000422
0.000329
0.000238
0.000466
0.000240
0.000262
0.000242
0.000258
0.000262
0.000275
0.000255
0.000278
0.001793
0.000235
0.000251
0.000265
0.000241
0.000202
0.000056
0.000323
0.000317
0.000221
0.000228
0.000235
0.000231
0.000238
0.000261
0.000248
0.000228
0.000229
0.000260
0.000262
0.000444
0.000321
0.000393
0.000257
0.000271
0.000219
0.000258
0.000261
0.000255
0.000255
0.000270
0.000251
0.000261
0.000311
0.001649
0.000251
0.000238
0.000190
0.000057
0.000196
0.000232
0.000246
0.000260
0.000346
0.000506
0.000353
0.000253
0.000193
0.000251
0.000252
0.000243
0.000248
0.000259
0.000257
0.000255
0.000249
0.000261
0.000248
0.000261
0.000268
0.000269
0.000248
0.000250
0.000231
0.000276
0.000277
0.000261
0.000252
0.000262
0.000194
0.000058
0.000223
0.000227
0.000256
0.000255
0.000237
0.000253
0.000245
0.000264
0.000274
0.000247
0.000235
0.000238
0.000256
0.000250
0.000269
0.000254
0.000262
0.000246
0.000295
0.000256
0.000264
0.000302
0.000299
0.000220
0.000277
0.000274
0.000266
0.000260
0.000308
0.000363
0.000693
0.000058
0.000262
0.000256
0.000231
0.000224
0.000231
0.000253
0.000239
0.000249
0.000264
0.000230
0.000267
0.000336
0.000446
0.000482
0.001534
0.000238
0.000483
0.000241
0.000345
0.000353
0.000516
0.000300
0.000231
0.000278
0.000257
0.000257
0.000280
0.000249
0.000308
0.000259
0.000186
0.000057
0.000290
0.000528
0.000315
0.000294
0.000225
0.000252
0.000249
0.000246
0.000233
0.000244
0.000254
0.000254
0.000238
0.000299
0.000325
0.000502
0.000383
0.001802
0.000233
0.000248
0.000338
0.000413
0.000508
0.000249
0.000311
0.000325
0.000300
0.000230
0.000242
0.000242
0.000195
0.000057
0.000219
0.000235
0.000231
0.000323
0.000271
0.000577
0.000261
0.000259
0.000252
0.000216
0.000250
0.000268
0.000270
0.000257
0.000246
0.000255
0.000266
0.000559
0.000406
0.000343
0.000234
0.001759
0.000347
0.000523
0.000539
0.000377
0.000319
0.000230
0.000251
0.000267
0.000453
0.000060
0.000213
0.000243
0.000230
0.000254
0.000422
0.000587
0.000314
0.000189
0.000238
0.000291
0.000244
0.000263
0.000254
0.000293
0.000307
0.000228
0.000244
0.000447
0.000491
0.000284
0.000470
0.001845
0.000250
0.000364
0.000573
0.000364
0.000222
0.000263
0.000293
0.000260
0.000198
0.000089
0.000258
0.000361
0.000351
0.000299
0.000397
0.000230
0.000363
0.000236
0.000231
0.000321
0.000236
0.000215
0.000229
0.000290
0.000212
0.000263
0.000310
0.000353
0.000575
0.000338
0.000270
0.000237
0.000269
0.001727
0.000280
0.000701
0.000621
0.000243
0.000261
0.000306
0.000157
0.000056
0.000202
0.000262
0.000298
0.000255
0.000259
0.000392
0.000397
0.000317
0.000237
0.000529
0.000229
0.000248
0.000260
0.000278
0.000296
0.000244
0.000210
0.000319
0.000548
0.000385
0.000269
0.000231
0.000258
0.000254
0.000263
0.000266
0.000237
0.000254
0.000297
0.000261
0.000239
0.000057
0.000387
0.000262
0.000205
0.000257
0.000249
0.000257
0.000239
0.000296
0.000237
0.000244
0.000257
0.000364
0.000439
0.000437
0.000282
0.000273
0.000232
0.000230
0.000257
0.000270
0.000288
0.000255
0.000240
0.000255
0.000283
0.000349
0.000318
0.000466
0.000302
0.000236
0.000182
0.000056
0.000212
0.000225
0.000275
0.000248
0.000240
0.000247
0.000259
0.000258
0.000488
0.000212
0.000259
0.000258
0.000245
0.000265
0.000268
0.000270
0.000268
0.000344
0.000223
0.000245
0.000251
0.000296
0.000229
0.000269
0.000280
0.000262
0.000258
0.000256
0.000519
0.000238
0.000160
0.000056
0.000215
0.000236
0.000250
0.000264
0.000218
0.000236
0.000363
0.000407
0.000236
0.000232
0.000252
0.000258
0.000232
0.000288
0.000334
0.001873
0.000229
0.000263
0.000282
0.000430
0.000362
0.000332
0.000477
0.000290
0.000361
0.000413
0.000237
0.000269
0.000269
0.000277
0.001385
0.000057
0.000406
0.000336
0.000246
0.000199
0.000238
0.000246
0.000232
0.000255
0.000245
0.000269
0.000245
0.000260
0.000251
0.000342
0.000495
0.001625
0.000246
0.000223
0.000248
0.000265
0.000233
0.000277
0.000387
0.000363
0.000282
0.000342
0.000262
0.000242
0.000274
0.000264
0.000192
0.000056
0.001184
0.000623
0.000259
0.000251
0.000244
0.000223
0.000225
0.000240
0.000499
0.000214
0.000246
0.000285
0.000379
0.000461
0.000389
0.000335
0.000244
0.000246
0.000354
0.000334
0.000271
0.000251
0.000272
0.000246
0.000265
0.000534
0.000622
0.000245
0.000252
0.000263
0.000181
0.000058
0.000209
0.000225
0.000236
0.000247
0.001557
0.000206
0.000227
0.000255
0.000238
0.000281
0.000223
0.000256
0.000244
0.000263
0.000269
0.000256
0.000441
0.000682
0.000265
0.001751
0.000256
0.000265
0.000279
0.000441
0.000684
0.000277
0.000253
0.000254
0.000253
0.000270
0.000199
0.000060
0.000208
0.000254
0.000234
0.000305
0.001264
0.000243
0.000248
0.000259
0.000243
0.000237
0.000236
0.000249
0.000275
0.000250
0.000251
0.000262
0.000551
0.000461
0.000224
0.000261
0.000262
0.000274
0.000248
0.000257
0.000267
0.000264
0.000239
0.000279
0.000269
0.000381
0.000538
0.000056
0.000225
0.000247
0.000235
0.000260
0.000263
0.000250
0.000235
0.000253
0.000267
0.000257
0.001429
0.000231
0.000239
0.000246
0.000245
0.000248
0.000285
0.000252
0.000256
0.000269
0.000266
0.000486
0.000497
0.000355
0.000229
0.000270
0.001774
0.000247
0.000251
0.000304
0.000493
0.000056
0.000213
0.000410
0.000426
0.000529
0.000552
0.000623
0.001481
0.000427
0.000532
0.000594
0.000563
0.000672
0.000545
0.000523
0.000580
0.001913
0.000427
0.000391
0.000380
0.000317
0.000244
0.000295
0.000248
0.000257
0.000259
0.000319
0.000249
0.000309
0.000259
0.000286
0.001357
0.000075
0.000200
0.000225
0.000243
0.000235
0.000263
0.000257
0.000229
0.000240
0.000252
0.000253
0.000234
0.000243
0.000257
0.000289
0.000238
0.000262
0.001891
0.000220
0.000233
0.000256
0.000236
0.000280
0.000252
0.000323
0.000315
0.000491
0.000334
0.000300
0.000213
0.000290
0.000173
0.000064
0.000229
0.001344
0.000319
0.000258
0.000257
0.000241
0.000288
0.000201
0.000223
0.000245
0.000228
0.000246
0.000251
0.000491
0.000363
0.000280
0.000272
0.000252
0.001947
0.000219
0.000246
0.000257
0.000255
0.000260
0.000274
0.000284
0.000266
0.000256
0.000266
0.000354
0.000171
0.000067
0.000207
0.000243
0.000247
0.001452
0.000231
0.000245
0.000230
0.000244
0.000235
0.000291
0.000249
0.000226
0.000250
0.000255
0.000265
0.000250
0.000268
0.000256
0.000276
0.000256
0.000262
0.001836
0.000231
0.001765
0.000261
0.000234
0.000259
0.000266
0.000314
0.000234
0.000195
0.000060
0.000209
0.000243
0.001348
0.000228
0.000246
0.000253
0.000253
0.000250
0.000268
0.000232
0.000239
0.000250
0.000264
0.000261
0.000253
0.000266
0.000262
0.000298
0.000281
0.000236
0.001909
0.000211
0.001832
0.000243
0.000248
0.000270
0.000229
0.000277
0.000247
0.000259
0.000192
0.000059
0.001477
0.000216
0.000225
0.000230
0.000238
0.000236
0.000382
0.000260
0.000252
0.000255
0.000248
0.000264
0.000279
0.000455
0.000322
0.000249
0.000224
0.000277
0.000256
0.000245
0.000304
0.000300
0.000236
0.000256
0.000265
0.000279
0.000271
0.000383
0.000666
0.000349
0.000146
0.000087
0.000202
0.000294
0.000232
0.000280
0.000391
0.000264
0.001729
0.000259
0.000273
0.000267
0.000293
0.000265
0.000270
0.000274
0.000253
0.000357
0.000406
0.000528
0.000286
0.000317
0.000274
0.000263
0.000231
0.000278
0.000321
0.000298
0.000243
0.000239
0.000247
0.000327
0.000426
0.000059
0.000258
0.000468
0.000267
0.000264
0.000253
0.000222
0.000226
0.000249
0.000258
0.000303
0.001466
0.000227
0.000226
0.000252
0.000242
0.000294
0.000281
0.000229
0.000266
0.000269
0.000256
0.000392
0.000521
0.000320
0.000267
0.000285
0.000267
0.000258
0.000234
0.000320
0.000161
0.000058
0.000200
0.000234
0.000300
0.000499
0.000403
0.000190
0.000217
0.000246
0.000254
0.000249
0.000239
0.000279
0.000227
0.000267
0.000238
0.000238
0.000451
0.001162
0.000242
0.000253
0.000275
0.000244
0.000381
0.000400
0.000254
0.000324
0.000597
0.000373
0.000314
0.000243
0.000189
0.000058
0.000236
0.000245
0.000259
0.000267
0.000252
0.000250
0.000370
0.000497
0.000317
0.000282
0.000410
0.000346
0.000381
0.000354
0.000259
0.000260
0.000228
0.000313
0.000398
0.001381
0.000289
0.000227
0.000277
0.000269
0.000236
0.000268
0.000230
0.000318
0.000421
0.000424
0.000256
0.000058
0.000195
0.000243
0.000248
0.000251
0.000248
0.000236
0.000233
0.000262
0.000310
0.000334
0.000502
0.000311
0.000251
0.000232
0.000251
0.000254
0.000253
0.000262
0.000265
0.000246
0.000447
0.000289
0.000361
0.000412
0.000293
0.000255
0.000269
0.000272
0.000249
0.000339
0.000161
0.000057
0.000340
0.000324
0.000366
0.000376
0.000320
0.000394
0.000249
0.000244
0.000247
0.000269
0.000254
0.000268
0.000237
0.000251
0.000240
0.000232
0.000290
0.000473
0.000331
0.000368
0.000230
0.000277
0.000242
0.000247
0.000270
0.000277
0.000272
0.000265
0.000273
0.000272
0.000271
0.000060
0.000354
0.000272
0.000240
0.000245
0.000244
0.000250
0.000241
0.000269
0.000250
0.000257
0.000252
0.000236
0.000327
0.000463
0.000431
0.000280
0.000249
0.000245
0.000259
0.000268
0.000256
0.000256
0.000270
0.000258
0.000271
0.000401
0.000427
0.000511
0.000394
0.000260
0.000162
0.000057
0.000392
0.000198
0.000237
0.000245
0.000253
0.000243
0.000240
0.000267
0.000246
0.000259
0.000217
0.000246
0.000282
0.000217
0.000241
0.000269
0.000253
0.000261
0.000272
0.000264
0.000261
0.000256
0.000265
0.000263
0.000263
0.000245
0.000257
0.000280
0.000258
0.000277
0.000199
0.000058
0.000197
0.000237
0.000275
0.000225
0.000230
0.000271
0.000254
0.000230
0.000261
0.000274
0.000230
0.000231
0.000262
0.000396
0.000289
0.000242
0.000263
0.000266
0.000257
0.000279
0.000269
0.000257
0.000229
0.000248
0.000272
0.000272
0.000248
0.000253
0.000275
0.000263
0.000201
0.000058
0.000237
0.000325
0.000373
0.000275
0.000311
0.000253
0.000265
0.000259
0.000224
0.000253
0.000240
0.000265
0.000250
0.000238
0.000256
0.000266
0.000255
0.000270
0.000241
0.000262
0.000286
0.000260
0.000274
0.000255
0.000273
0.000268
0.000245
0.000269
0.000270
0.000266
0.000189
0.000058
0.000219
0.000228
0.000262
0.000279
0.000475
0.000211
0.000212
0.000248
0.000250
0.000553
0.000414
0.000285
0.000225
0.000247
0.000270
0.000269
0.000262
0.000251
0.000254
0.000264
0.000268
0.000259
0.000260
0.000293
0.000466
0.000547
0.000273
0.000301
0.000262
0.000283
0.000167
0.000059
0.000207
0.000215
0.000250
0.000252
0.000446
0.000507
0.000328
0.000381
0.000211
0.000251
0.000244
0.000279
0.000230
0.000248
0.000254
0.000271
0.000259
0.000279
0.000718
0.000277
0.000292
0.000251
0.000261
0.000281
0.000303
0.000234
0.000265
0.000272
0.000260
0.000333
0.000341
0.000057
0.000292
0.000235
0.000239
0.000239
0.000252
0.000254
0.000259
0.000219
0.000242
0.000262
0.000245
0.000251
0.000275
0.000339
0.000653
0.000318
0.000249
0.000266
0.000257
0.000246
0.000270
0.000270
0.000489
0.000220
0.000261
0.000674
0.000319
0.000507
0.000254
0.000254
0.000183
0.000058
0.000224
0.000227
0.000241
0.000245
0.000256
0.000264
0.000307
0.000404
0.000603
0.000432
0.000211
0.000263
0.000280
0.000280
0.000251
0.000248
0.000236
0.000250
0.000255
0.000404
0.000326
0.000651
0.000363
0.000264
0.000422
0.000349
0.000456
0.000240
0.000262
0.000449
0.000360
0.000058
0.000173
0.000228
0.000445
0.000216
0.000230
0.000287
0.000235
0.000253
0.000231
0.000241
0.000259
0.000414
0.000366
0.000346
0.000222
0.000248
0.000265
0.000262
0.000249
0.000278
0.000274
0.000254
0.000249
0.000273
0.000303
0.000582
0.000394
0.000252
0.000253
0.000265
0.000194
0.000057
0.000210
0.000280
0.000205
0.000240
0.000247
0.000338
0.000393
0.000319
0.000397
0.000312
0.000351
0.000228
0.000239
0.000272
0.000252
0.000248
0.000253
0.000254
0.000360
0.000327
0.000497
0.000318
0.000479
0.000294
0.000422
0.000386
0.000381
0.000224
0.000253
0.000271
0.000418
0.000057
0.000269
0.000270
0.000223
0.000252
0.000258
0.000259
0.000246
0.000248
0.000259
0.000256
0.000237
0.000369
0.000429
0.000375
0.000389
0.000220
0.000260
0.000266
0.000267
0.000234
0.000251
0.000252
0.000294
0.000247
0.000283
0.000349
0.000506
0.000439
0.000238
0.000279
0.000190
0.000057
0.000199
0.000245
0.000261
0.000244
0.000260
0.000334
0.000559
0.000416
0.000369
0.000675
0.000260
0.000222
0.000243
0.000260
0.000250
0.000286
0.000255
0.000275
0.000465
0.000460
0.001483
0.000305
0.000257
0.000258
0.000306
0.000269
0.000507
0.000290
0.000342
0.000328
0.000175
0.000058
0.000209
0.000231
0.000244
0.000244
0.000233
0.000260
0.000301
0.000225
0.000298
0.000298
0.000332
0.000392
0.000343
0.000325
0.000384
0.000301
0.000220
0.000238
0.000265
0.000259
0.000247
0.000244
0.000283
0.000245
0.000410
0.000401
0.000430
0.000261
0.000234
0.000272
0.000190
0.000057
0.000220
0.000245
0.000261
0.000250
0.000242
0.000238
0.000471
0.000210
0.000235
0.000251
0.000248
0.000251
0.000261
0.000258
0.000244
0.000272
0.000265
0.000269
0.000265
0.000255
0.000258
0.000290
0.000299
0.000240
0.000265
0.000277
0.000271
0.000265
0.000263
0.000273
0.000170
0.000057
0.000227
0.000262
0.000305
0.000389
0.000376
0.000252
0.000235
0.000249
0.000263
0.000245
0.000248
0.000255
0.000265
0.000260
0.000259
0.000224
0.000246
0.000266
0.000329
0.000290
0.000491
0.000348
0.000230
0.000266
0.000267
0.000254
0.000262
0.000254
0.000305
0.000252
0.000196
0.000058
0.000348
0.000390
0.000417
0.000217
0.000250
0.000255
0.000413
0.000224
0.000229
0.000258
0.000259
0.000338
0.000342
0.000481
0.001784
0.000249
0.000246
0.000251
0.000277
0.000240
0.000327
0.000460
0.000695
0.000218
0.000228
0.000258
0.000278
0.000426
0.000279
0.000278
0.000166
0.000059
0.000222
0.000342
0.000407
0.000258
0.000490
0.000202
0.000257
0.000231
0.000257
0.000241
0.000257
0.000249
0.000261
0.000299
0.000511
0.000396
0.000220
0.000245
0.000257
0.000262
0.000266
0.000315
0.000243
0.000269
0.000283
0.000527
0.000453
0.000365
0.000466
0.000236
0.000207
0.000057
0.000221
0.000236
0.000256
0.000226
0.000250
0.000254
0.000267
0.000277
0.000397
0.000341
0.000402
0.000355
0.000231
0.000241
0.000265
0.000293
0.000292
0.000242
0.000271
0.000269
0.000242
0.000333
0.000372
0.000429
0.000271
0.000262
0.000263
0.000460
0.000404
0.000323
0.000157
0.000058
0.000203
0.000265
0.000293
0.000510
0.000305
0.000208
0.000231
0.000271
0.000251
0.000250
0.000267
0.000251
0.000232
0.000253
0.000261
0.000305
0.000436
0.000313
0.000287
0.000376
0.000462
0.000231
0.000275
0.000278
0.000303
0.000281
0.000257
0.000276
0.000459
0.000532
0.000181
0.000057
0.000207
0.000224
0.000256
0.000244
0.000239
0.000480
0.000216
0.000251
0.000264
0.000286
0.000548
0.000581
0.000205
0.000246
0.000244
0.000252
0.000255
0.000250
0.000256
0.000251
0.000261
0.000268
0.000411
0.000366
0.000401
0.000367
0.000295
0.000356
0.000259
0.000264
0.000181
0.000057
0.000228
0.000232
0.000248
0.000489
0.000332
0.000290
0.000268
0.000220
0.000241
0.000266
0.000245
0.000253
0.000249
0.000264
0.000250
0.000257
0.000250
0.000248
0.000279
0.000383
0.000540
0.000353
0.000227
0.000249
0.000292
0.000258
0.000264
0.000251
0.000265
0.000269
0.000193
0.000057
0.000265
0.000364
0.000480
0.000239
0.000225
0.000258
0.000321
0.000451
0.000282
0.000218
0.000238
0.000271
0.000291
0.000436
0.000461
0.000248
0.000224
0.000239
0.000255
0.000267
0.000271
0.000263
0.000261
0.000272
0.000265
0.000276
0.000393
0.000484
0.000265
0.000246
0.000182
0.000057
0.000237
0.000236
0.000244
0.000256
0.000249
0.000267
0.000231
0.000258
0.000248
0.000248
0.000298
0.000213
0.000261
0.001459
0.000226
0.000256
0.000256
0.000248
0.000276
0.000274
0.000262
0.000266
0.000255
0.000251
0.000269
0.000263
0.000274
0.000265
0.000281
0.000249
0.000191
0.000057
0.000191
0.000232
0.000250
0.000251
0.000238
0.000263
0.000242
0.000259
0.000228
0.000251
0.000245
0.000263
0.000275
0.000236
0.000253
0.000262
0.000250
0.000256
0.000276
0.000251
0.000254
0.000269
0.000242
0.000254
0.001287
0.000277
0.000626
0.000436
0.000283
0.000241
0.000198
0.000059
0.000199
0.000229
0.000247
0.000251
0.000407
0.000249
0.000237
0.000235
0.000258
0.000405
0.000443
0.000323
0.000240
0.000215
0.000256
0.000257
0.000255
0.000266
0.000248
0.000254
0.000260
0.000255
0.000257
0.000429
0.000568
0.000421
0.000196
0.000266
0.001389
0.000226
0.000184
0.000057
0.000300
0.000422
0.000316
0.000257
0.000242
0.000227
0.000230
0.000249
0.000259
0.000255
0.000247
0.000261
0.000269
0.000310
0.000619
0.000286
0.000337
0.000223
0.000255
0.000251
0.000270
0.000261
0.000271
0.000263
0.000267
0.000267
0.000332
0.000540
0.000378
0.000360
0.000159
0.000061
0.000197
0.000223
0.001281
0.000405
0.000289
0.000509
0.000354
0.000468
0.000320
0.000303
0.000232
0.000215
0.000258
0.000253
0.000247
0.000269
0.000416
0.000441
0.000368
0.000376
0.000257
0.000255
0.000259
0.000497
0.000228
0.000273
0.000254
0.000279
0.000292
0.000567
0.000325
0.000057
0.000420
0.000317
0.000203
0.000211
0.001577
0.000479
0.000281
0.000232
0.000249
0.000249
0.000225
0.000245
0.000244
0.000270
0.000251
0.000260
0.000239
0.000268
0.000367
0.000465
0.000413
0.000253
0.000248
0.000259
0.000277
0.000255
0.000268
0.000245
0.000258
0.000284
0.000187
0.000057
0.000392
0.000328
0.000222
0.000229
0.000253
0.000244
0.000263
0.000236
0.000229
0.000235
0.001387
0.000499
0.000257
0.000246
0.000240
0.000249
0.000275
0.000296
0.000205
0.000273
0.000274
0.000249
0.000314
0.000365
0.000506
0.000355
0.000244
0.000269
0.000275
0.000275
0.000176
0.000059
0.000190
0.000412
0.000221
0.000233
0.000380
0.000536
0.000316
0.000242
0.000461
0.000212
0.000229
0.000252
0.000262
0.000267
0.000257
0.001386
0.000385
0.000284
0.000248
0.000265
0.000284
0.000246
0.000284
0.000232
0.000258
0.000265
0.000592
0.000316
0.000279
0.000277
0.000156
0.000057
0.000221
0.000226
0.000257
0.000234
0.000234
0.000262
0.000238
0.000251
0.000289
0.000345
0.000463
0.000270
0.000263
0.000240
0.000248
0.000271
0.000274
0.000260
0.000270
0.000231
0.000259
0.000309
0.001258
0.000253
0.000258
0.000246
0.000257
0.000267
0.000259
0.000264
0.000181
0.000064
0.000231
0.000324
0.000484
0.000258
0.000221
0.000244
0.000255
0.000264
0.000257
0.000246
0.000255
0.000270
0.000240
0.000290
0.000226
0.000263
0.000266
0.000271
0.000262
0.000248
0.000253
0.000270
0.000264
0.000289
0.000286
0.000265
0.000268
0.000254
0.000287
0.000424
0.001368
0.000058
0.000195
0.000231
0.000234
0.000242
0.000254
0.000259
0.000247
0.000241
0.000234
0.000252
0.000273
0.000252
0.000256
0.000238
0.000272
0.000227
0.001719
0.000273
0.000240
0.000256
0.000249
0.000259
0.000270
0.000261
0.000273
0.000250
0.000274
0.000278
0.000268
0.000258
0.000223
0.000057
0.000264
0.000321
0.001300
0.000213
0.000235
0.000250
0.000256
0.000248
0.000261
0.000253
0.000236
0.000376
0.000445
0.000361
0.000299
0.000220
0.000241
0.000255
0.000260
0.000262
0.000242
0.000269
0.000265
0.000286
0.000264
0.000402
0.000364
0.000357
0.000317
0.000241
0.000193
0.000057
0.000226
0.000247
0.000244
0.000252
0.000249
0.000219
0.000242
0.000306
0.000449
0.001287
0.000245
0.000208
0.000247
0.000272
0.000251
0.000267
0.000260
0.000249
0.000313
0.000583
0.000253
0.000236
0.000233
0.000244
0.000281
0.000276
0.000267
0.000293
0.000269
0.000277
0.000193
0.000056
0.000247
0.000468
0.000349
0.000216
0.000236
0.000233
0.000264
0.000257
0.000267
0.000247
0.000231
0.000250
0.000455
0.000564
0.000419
0.001454
0.000240
0.000303
0.000305
0.000416
0.000489
0.000406
0.000467
0.000326
0.000232
0.000264
0.000264
0.000276
0.000261
0.000273
0.000212
0.000057
0.000212
0.000292
0.000461
0.000427
0.000354
0.000235
0.000245
0.000236
0.000244
0.000258
0.000248
0.000263
0.000268
0.000239
0.000270
0.000313
0.000390
0.000379
0.000368
0.001328
0.000267
0.000257
0.000253
0.000262
0.000492
0.000453
0.000360
0.000227
0.000281
0.000271
0.000189
0.000057
0.000208
0.000245
0.000242
0.000240
0.000251
0.000274
0.000447
0.000516
0.000243
0.000223
0.000241
0.000259
0.000271
0.000256
0.000264
0.000262
0.000264
0.000256
0.000273
0.000283
0.000491
0.000446
0.000260
0.001356
0.000409
0.000239
0.000279
0.000429
0.000526
0.000343
0.000256
0.000058
0.000192
0.000233
0.000242
0.000249
0.000253
0.000251
0.001675
0.000234
0.000239
0.000233
0.000257
0.000246
0.000295
0.000331
0.000327
0.000274
0.000265
0.000299
0.000479
0.000425
0.000312
0.000267
0.000222
0.001428
0.000366
0.000371
0.000341
0.000475
0.000335
0.000300
0.000142
0.000058
0.000210
0.000245
0.000253
0.000260
0.000241
0.000260
0.001705
0.000247
0.000236
0.000269
0.000405
0.000437
0.001336
0.000419
0.000330
0.000243
0.000257
0.000244
0.000263
0.000289
0.001514
0.000624
0.000349
0.000274
0.000253
0.000245
0.000266
0.000281
0.000243
0.000251
0.000195
0.000058
0.000194
0.000242
0.000265
0.000241
0.000262
0.000291
0.000266
0.000261
0.000244
0.000281
0.000226
0.000250
0.000261
0.000270
0.001507
0.000312
0.000209
0.000233
0.000266
0.000278
0.000273
0.000287
0.000413
0.001253
0.000273
0.000235
0.000274
0.000255
0.000396
0.000242
0.000227
0.000060
0.000210
0.000243
0.000222
0.000246
0.000237
0.000229
0.000235
0.001689
0.000248
0.000246
0.000252
0.000359
0.000227
0.000224
0.000259
0.001375
0.000234
0.000267
0.000269
0.000247
0.000283
0.000353
0.000259
0.001312
0.000264
0.000252
0.000255
0.000264
0.001384
0.000295
0.000207
0.000058
0.000347
0.000246
0.000212
0.000237
0.000253
0.000238
0.000266
0.000264
0.000270
0.000246
0.000262
0.000266
0.000252
0.000251
0.000316
0.001480
0.000250
0.000276
0.000253
0.000245
0.000293
0.000258
0.000248
0.001579
0.000274
0.000238
0.000272
0.001279
0.000257
0.000250
0.000234
0.000056
0.000234
0.000410
0.000300
0.000220
0.000231
0.000242
0.000263
0.000254
0.000268
0.000282
0.000231
0.000244
0.000264
0.000305
0.000373
0.001227
0.000227
0.000264
0.000267
0.000275
0.000254
0.000221
0.000249
0.000328
0.001266
0.000262
0.000244
0.000254
0.000258
0.001343
0.000318
0.000058
0.000295
0.000271
0.000206
0.000228
0.000237
0.000266
0.000232
0.000251
0.000276
0.000254
0.000271
0.000218
0.000250
0.000374
0.000386
0.001453
0.000226
0.000245
0.000306
0.000514
0.000295
0.000446
0.001276
0.000291
0.000249
0.000262
0.000257
0.001301
0.000287
0.000469
0.000408
0.000058
0.000203
0.000247
0.000258
0.000252
0.000255
0.000250
0.000275
0.000267
0.000245
0.000260
0.000423
0.000409
0.001295
0.000233
0.000250
0.000268
0.000284
0.000238
0.000237
0.000242
0.000343
0.001236
0.000246
0.000254
0.000253
0.000254
0.001533
0.000440
0.000441
0.000219
0.000199
0.000057
0.000200
0.000230
0.000246
0.000235
0.000256
0.000262
0.000242
0.000275
0.000420
0.000534
0.000211
0.001492
0.000222
0.000236
0.000266
0.000253
0.000284
0.000253
0.001707
0.000260
0.000409
0.000308
0.001287
0.000376
0.000284
0.000322
0.000265
0.000252
0.000269
0.000272
0.000186
0.000057
0.000221
0.000236
0.000330
0.000236
0.000335
0.000577
0.000243
0.000288
0.001472
0.000237
0.000381
0.000269
0.000208
0.000345
0.000390
0.001294
0.000264
0.000241
0.000238
0.000264
0.001538
0.000369
0.000280
0.000294
0.000247
0.000246
0.000461
0.000331
0.000227
0.000261
0.000259
0.000056
0.000310
0.000334
0.000308
0.000269
0.000222
0.001525
0.000208
0.000254
0.000271
0.000269
0.000290
0.000267
0.000285
0.001465
0.000243
0.000229
0.000435
0.001196
0.000344
0.000430
0.000410
0.000234
0.000239
0.000249
0.000282
0.000240
0.000461
0.000220
0.000268
0.000284
0.000201
0.000058
0.000222
0.000233
0.000375
0.000382
0.001277
0.000285
0.000307
0.000232
0.000245
0.000253
0.000245
0.000251
0.001564
0.000261
0.000227
0.000244
0.001379
0.000280
0.000439
0.000451
0.000348
0.000239
0.000248
0.000255
0.000266
0.000276
0.000274
0.000256
0.000264
0.000256
0.000191
0.000057
0.000205
0.000407
0.001455
0.000212
0.000273
0.000276
0.000241
0.000270
0.000245
0.000364
0.001407
0.000213
0.000254
0.000270
0.000256
0.001315
0.000662
0.000295
0.000329
0.000399
0.000285
0.000247
0.000270
0.000257
0.000271
0.000288
0.000304
0.000280
0.000524
0.000327
0.001388
0.000058
0.000206
0.000243
0.000242
0.000225
0.000273
0.000394
0.000523
0.001252
0.000245
0.000240
0.000249
0.001418
0.000439
0.000337
0.000232
0.000400
0.000250
0.000246
0.000265
0.000282
0.000233
0.000274
0.000280
0.000260
0.000256
0.000299
0.000492
0.000407
0.001495
0.000228
0.000191
0.000058
0.000203
0.000274
0.000427
0.000466
0.001217
0.000276
0.000250
0.000260
0.000248
0.000251
0.000253
0.000273
0.000353
0.000485
0.000345
0.000233
0.000258
0.000275
0.000246
0.000271
0.000250
0.000278
0.000255
0.000269
0.000251
0.000364
0.000535
0.000361
0.000298
0.001390
0.000167
0.000057
0.000207
0.000244
0.000357
0.000364
0.000330
0.000304
0.000313
0.000334
0.000269
0.000258
0.000258
0.000264
0.000273
0.000290
0.000234
0.000294
0.000600
0.000366
0.000197
0.000394
0.000273
0.000401
0.000221
0.000267
0.000247
0.000263
0.000252
0.000289
0.000280
0.000584
0.000285
0.000058
0.000210
0.001399
0.000297
0.000288
0.000397
0.000458
0.000419
0.000235
0.000211
0.000246
0.000275
0.000237
0.000259
0.000272
0.000261
0.000255
0.000263
0.001393
0.000218
0.000257
0.000262
0.000266
0.000272
0.000282
0.000268
0.000253
0.000278
0.000248
0.000406
0.000358
0.000564
0.000059
0.000222
0.000236
0.000224
0.001567
0.000279
0.000222
0.000218
0.000246
0.000227
0.000247
0.000256
0.000266
0.000253
0.000247
0.000273
0.000248
0.000253
0.000264
0.000263
0.000257
0.001435
0.000236
0.000242
0.000277
0.000257
0.000243
0.000270
0.000264
0.000276
0.000491
0.000344
0.000057
0.000216
0.000257
0.000371
0.000281
0.000241
0.000256
0.001612
0.000263
0.000299
0.000224
0.000256
0.000316
0.000330
0.000230
0.000227
0.000254
0.000243
0.000264
0.000260
0.000257
0.000484
0.000528
0.001098
0.000277
0.000241
0.000254
0.000265
0.000261
0.000267
0.000268
0.000321
0.000056
0.000299
0.000332
0.000204
0.000245
0.000248
0.000236
0.000249
0.000228
0.000288
0.001602
0.000434
0.000221
0.000244
0.000255
0.000255
0.000242
0.000263
0.000274
0.000276
0.000322
0.000277
0.000487
0.000451
0.001366
0.000237
0.000264
0.000271
0.000259
0.000271
0.000332
0.000401
0.000058
0.000261
0.000242
0.000236
0.000264
0.000202
0.000240
0.000261
0.000252
0.000269
0.001601
0.000321
0.000262
0.000262
0.000257
0.000461
0.000272
0.000529
0.000371
0.000300
0.000360
0.000475
0.000429
0.001262
0.000255
0.000218
0.000248
0.001726
0.000434
0.000605
0.000332
0.000141
0.000057
0.000194
0.000226
0.000244
0.000236
0.000253
0.000243
0.000246
0.000523
0.000456
0.000431
0.000309
0.000203
0.000243
0.000268
0.000257
0.000286
0.000232
0.000247
0.000256
0.000271
0.000288
0.000370
0.001380
0.000224
0.000252
0.000271
0.001896
0.000383
0.000375
0.000356
0.000159
0.000059
0.000246
0.000236
0.000246
0.001588
0.000402
0.000214
0.000235
0.000314
0.000316
0.000371
0.000367
0.000372
0.000264
0.000218
0.000334
0.000453
0.000374
0.001226
0.000250
0.000238
0.000251
0.000261
0.000270
0.000569
0.000550
0.000353
0.000260
0.000270
0.000290
0.000264
0.000186
0.000060
0.000192
0.000234
0.000242
0.001548
0.000236
0.000242
0.000236
0.000253
0.000243
0.000250
0.000255
0.000272
0.000266
0.000286
0.000231
0.000608
0.000312
0.000247
0.001397
0.000227
0.000260
0.000259
0.000266
0.000336
0.000299
0.000505
0.000423
0.000292
0.000264
0.000239
0.000442
0.000061
0.000205
0.000249
0.000244
0.001525
0.000310
0.000231
0.000265
0.000244
0.000251
0.000262
0.000251
0.000252
0.000261
0.000274
0.000289
0.000627
0.001369
0.000751
0.000244
0.000339
0.000251
0.000236
0.000252
0.000274
0.001679
0.000795
0.000237
0.000263
0.000280
0.000289
0.000180
0.000057
0.000198
0.000234
0.000252
0.000244
0.000254
0.000245
0.000244
0.000253
0.000262
0.000222
0.000278
0.000282
0.000248
0.000253
0.000265
0.000243
0.000269
0.001615
0.000692
0.000379
0.000311
0.000234
0.000241
0.000284
0.000261
0.000265
0.000287
0.000244
0.001384
0.000399
0.000408
0.000057
0.000198
0.000227
0.000253
0.000246
0.000263
0.000229
0.000253
0.000251
0.000256
0.000281
0.000261
0.000437
0.000442
0.000304
0.000214
0.000251
0.000257
0.001425
0.000666
0.000578
0.000226
0.000273
0.000229
0.000253
0.000275
0.000248
0.000260
0.000267
0.001496
0.000441
0.000171
0.000057
0.000182
0.000231
0.000244
0.000247
0.000249
0.000248
0.000236
0.000252
0.000267
0.000259
0.000405
0.000396
0.000281
0.000215
0.000246
0.000243
0.000271
0.000250
0.001557
0.000935
0.000267
0.000221
0.000237
0.000256
0.000255
0.000260
0.000268
0.000285
0.000265
0.001356
0.000326
0.000058
0.000207
0.000220
0.000232
0.000255
0.000253
0.000244
0.000278
0.000339
0.000378
0.000436
0.000358
0.000334
0.000344
0.000228
0.000265
0.000233
0.000273
0.000263
0.000264
0.001894
0.000350
0.000240
0.000462
0.000229
0.000246
0.000263
0.000273
0.000258
0.000273
0.000276
0.000309
0.000058
0.000313
0.000210
0.000229
0.000244
0.000255
0.000246
0.000224
0.000244
0.000263
0.000254
0.000245
0.000239
0.000306
0.000413
0.000511
0.000416
0.000220
0.000267
0.000249
0.000253
0.000264
0.000337
0.001418
0.001044
0.000228
0.000245
0.000268
0.000268
0.000269
0.000250
0.000204
0.000056
0.000218
0.001431
0.000195
0.000215
0.000237
0.000254
0.000253
0.000236
0.000241
0.000249
0.000253
0.000268
0.000240
0.000395
0.000428
0.000461
0.000204
0.000244
0.000263
0.000271
0.000269
0.000225
0.000263
0.000261
0.001345
0.000673
0.000365
0.000371
0.000397
0.000399
0.000239
0.000056
0.000213
0.000250
0.001399
0.000262
0.000215
0.000258
0.000226
0.000255
0.000253
0.000262
0.000241
0.000253
0.000272
0.000326
0.000590
0.000301
0.000231
0.000275
0.000325
0.000215
0.000247
0.000278
0.000230
0.000274
0.000268
0.001531
0.000747
0.000301
0.000277
0.000272
0.000189
0.000057
0.000191
0.000278
0.000439
0.000311
0.001323
0.000234
0.000237
0.000232
0.000233
0.000247
0.000250
0.000253
0.000230
0.000241
0.000254
0.000257
0.000267
0.000235
0.000259
0.000256
0.000263
0.000267
0.000307
0.000338
0.000213
0.000267
0.000265
0.001455
0.000260
0.000254
0.000169
0.000058
0.000212
0.000238
0.000252
0.000324
0.000365
0.000340
0.000380
0.000247
0.001566
0.000253
0.000267
0.000542
0.000306
0.000246
0.000431
0.000245
0.000233
0.000264
0.000266
0.000273
0.000282
0.000260
0.000257
0.000268
0.000282
0.000384
0.000387
0.000324
0.001596
0.000231
0.000188
0.000057
0.000181
0.000237
0.000267
0.000223
0.000245
0.000247
0.000261
0.000276
0.000430
0.002052
0.000223
0.000250
0.000256
0.000259
0.000259
0.000254
0.000270
0.000257
0.000258
0.000434
0.000485
0.000335
0.001455
0.000241
0.000539
0.000247
0.001749
0.000245
0.000258
0.001523
0.000164
0.000060
0.000335
0.000482
0.000389
0.000247
0.000263
0.000237
0.000247
0.000269
0.000260
0.000245
0.000237
0.000337
0.000440
0.000356
0.000409
0.000221
0.000237
0.001565
0.000253
0.000568
0.001872
0.000313
0.000220
0.001529
0.002025
0.000743
0.000272
0.000259
0.000294
0.000526
0.000222
0.000058
0.000230
0.000242
0.000248
0.000247
0.001422
0.001724
0.001083
0.000209
0.000244
0.001641
0.001908
0.000208
0.000233
0.000421
0.000306
0.000474
0.000374
0.000411
0.000210
0.000245
0.000244
0.000258
0.000272
0.001626
0.001168
0.001437
0.000263
0.000305
0.000251
0.000327
0.000359
0.000058
0.000207
0.000239
0.000237
0.000239
0.000231
0.000240
0.000249
0.000252
0.000256
0.000248
0.000245
0.000323
0.000383
0.000545
0.000231
0.000270
0.000246
0.000290
0.000255
0.000261
0.000257
0.000258
0.001570
0.000426
0.002113
0.000225
0.000267
0.000343
0.000421
0.000396
0.000190
0.000058
0.000225
0.000323
0.000493
0.000334
0.000181
0.000229
0.000251
0.000241
0.000240
0.000245
0.000247
0.000266
0.000259
0.001606
0.001361
0.001225
0.000260
0.000249
0.000248
0.000274
0.000283
0.000273
0.000247
0.000256
0.002210
0.000248
0.000247
0.000298
0.000322
0.000310
0.000220
0.000059
0.000186
0.000345
0.000581
0.000298
0.000236
0.000238
0.000246
0.000267
0.001897
0.001428
0.000222
0.000383
0.000399
0.000348
0.000266
0.000219
0.000249
0.000269
0.000266
0.000273
0.000244
0.000277
0.000455
0.000236
0.000273
0.000268
0.000253
0.000276
0.000282
0.000253
0.000194
0.000058
0.000203
0.000246
0.000250
0.000241
0.000247
0.000272
0.001544
0.001414
0.001331
0.000237
0.000233
0.000238
0.000266
0.000266
0.000247
0.000250
0.000246
0.002110
0.000247
0.000240
0.000260
0.000269
0.000254
0.000277
0.000249
0.000257
0.000272
0.000255
0.000281
0.000248
0.000179
0.000058
0.000187
0.002681
0.001386
0.000223
0.000305
0.000298
0.000231
0.000261
0.000261
0.000246
0.000252
0.000259
0.000218
0.000253
0.000268
0.000251
0.000275
0.000262
0.000252
0.000271
0.000269
0.000287
0.000268
0.000264
0.000253
0.000241
0.000264
0.000273
0.000256
0.000270
0.000386
0.000057
0.001545
0.000244
0.001251
0.000224
0.000225
0.000262
0.000240
0.000254
0.000246
0.000425
0.000235
0.000359
0.000337
0.000221
0.000249
0.002151
0.000243
0.000250
0.000262
0.000551
0.000421
0.000206
0.000228
0.000257
0.000265
0.000247
0.000263
0.000280
0.000275
0.001683
0.001188
0.000058
0.000223
0.000220
0.000292
0.000402
0.000409
0.000214
0.000213
0.000234
0.000248
0.000258
0.000265
0.000245
0.000231
0.000255
0.000265
0.000236
0.000366
0.000643
0.000303
0.000241
0.000226
0.000267
0.000284
0.000252
0.000248
0.000249
0.000265
0.000275
0.000243
0.000356
0.000345
0.000059
0.001122
0.000263
0.000317
0.000490
0.000246
0.000229
0.000237
0.000226
0.000251
0.002302
0.000572
0.000190
0.000211
0.000381
0.000273
0.000265
0.000254
0.000262
0.000269
0.000226
0.000257
0.000329
0.000559
0.000466
0.001844
0.001297
0.000523
0.000557
0.000222
0.000285
0.000200
0.000057
0.000336
0.000248
0.000244
0.000240
0.000271
0.000222
0.000252
0.000251
0.000258
0.000251
0.000255
0.000229
0.000234
0.000256
0.000442
0.000448
0.001856
0.001307
0.000448
0.000483
0.000411
0.000239
0.000245
0.000260
0.002126
0.000558
0.000387
0.000233
0.000296
0.000263
0.000194
0.000060
0.000199
0.000247
0.000252
0.000240
0.000272
0.000358
0.000366
0.000367
0.000240
0.000252
0.000243
0.000251
0.000259
0.002145
0.000342
0.000372
0.000227
0.000248
0.000264
0.000256
0.000251
0.002472
0.000326
0.000214
0.000262
0.000278
0.000232
0.000275
0.000284
0.000274
0.000201
0.000057
0.000217
0.000278
0.000599
0.000364
0.000265
0.000231
0.000219
0.000286
0.000233
0.000252
0.001963
0.000380
0.000302
0.000267
0.000223
0.000265
0.000272
0.000237
0.002212
0.000437
0.000227
0.000269
0.000273
0.000257
0.000249
0.000254
0.000280
0.000250
0.000284
0.000243
0.000194
0.000057
0.000207
0.000243
0.000246
0.000228
0.000244
0.000259
0.000234
0.000249
0.000232
0.002179
0.000278
0.000230
0.000221
0.000427
0.000230
0.000252
0.000275
0.000288
0.000243
0.000264
0.001969
0.000350
0.000365
0.000396
0.000444
0.000311
0.000267
0.000246
0.000261
0.000243
0.000198
0.000057
0.000211
0.000231
0.000244
0.000246
0.000264
0.000315
0.000232
0.002296
0.000236
0.000244
0.000252
0.000257
0.000236
0.000256
0.000306
0.002122
0.000590
0.000235
0.000240
0.000248
0.000260
0.000255
0.000291
0.000262
0.000267
0.000251
0.000283
0.000257
0.000265
0.000265
0.000191
0.000057
0.001838
0.001442
0.000193
0.000232
0.000244
0.000254
0.000249
0.000258
0.000454
0.000275
0.002210
0.000267
0.000276
0.000218
0.000301
0.000497
0.000391
0.000297
0.000227
0.000243
0.000251
0.000265
0.000268
0.000223
0.000263
0.000264
0.000267
0.000269
0.000326
0.000669
0.000307
0.000060
0.000197
0.000243
0.000253
0.000287
0.000224
0.000243
0.000258
0.000245
0.001460
0.002139
0.000578
0.000309
0.000403
0.000721
0.000298
0.000238
0.000253
0.000246
0.000271
0.000259
0.000253
0.000244
0.000254
0.000268
0.001826
0.001457
0.000291
0.000271
0.000282
0.000398
0.000291
0.000059
0.001930
0.000218
0.000232
0.000233
0.000275
0.000387
0.000511
0.000230
0.000276
0.000222
0.000252
0.000246
0.000259
0.000255
0.000269
0.000255
0.000253
0.000268
0.001844
0.000238
0.000234
0.000253
0.000276
0.000280
0.000272
0.000262
0.001476
0.000310
0.000243
0.000265
0.000181
0.000057
0.000199
0.000231
0.000262
0.000223
0.000253
0.000243
0.000310
0.000361
0.000380
0.000334
0.000225
0.000236
0.000261
0.000411
0.000365
0.000292
0.000234
0.000247
0.000265
0.000339
0.000484
0.000448
0.000252
0.000251
0.000255
0.000257
0.000254
0.000273
0.000273
0.000262
0.000206
0.000056
0.001431
0.000434
0.000220
0.001935
0.000268
0.000616
0.000267
0.000295
0.000237
0.000246
0.000264
0.000242
0.000254
0.000238
0.000275
0.000256
0.000450
0.000247
0.000466
0.000380
0.000334
0.000227
0.000251
0.000272
0.000272
0.000269
0.000262
0.000268
0.000384
0.000478
0.001339
0.000061
0.000198
0.000230
0.002071
0.000364
0.000247
0.000264
0.000272
0.000233
0.000259
0.000259
0.000233
0.000236
0.000265
0.000252
0.000259
0.000539
0.000562
0.001727
0.000231
0.000255
0.000255
0.000259
0.000348
0.000467
0.001580
0.000283
0.000362
0.001925
0.000269
0.000252
0.000195
0.000060
0.000203
0.000232
0.000232
0.000243
0.000230
0.000252
0.000250
0.000289
0.000325
0.000288
0.000378
0.000347
0.000339
0.000302
0.000256
0.000244
0.000266
0.000235
0.000271
0.000247
0.000299
0.000295
0.000264
0.000263
0.000266
0.001509
0.000317
0.000512
0.001918
0.000230
0.000179
0.000079
0.000210
0.000240
0.000233
0.000249
0.000486
0.000207
0.000273
0.000323
0.000347
0.000323
0.000304
0.000209
0.000268
0.000261
0.000273
0.000332
0.000424
0.000428
0.000242
0.000405
0.000564
0.000426
0.001563
0.000231
0.000257
0.001976
0.000333
0.000253
0.000243
0.000299
0.000185
0.000058
0.000208
0.000244
0.000224
0.000242
0.000254
0.000270
0.000249
0.000270
0.000253
0.000254
0.001815
0.000350
0.000382
0.000334
0.000461
0.000355
0.000282
0.001500
0.000241
0.000353
0.002026
0.000573
0.000266
0.000248
0.000258
0.000267
0.000504
0.000222
0.000258
0.000278
0.000195
0.000057
0.000234
0.000342
0.000397
0.000300
0.000187
0.000237
0.000268
0.000243
0.000265
0.000304
0.000218
0.000253
0.000258
0.000251
0.000399
0.001471
0.000312
0.000215
0.000276
0.001940
0.000322
0.000294
0.000274
0.000241
0.000247
0.000280
0.000268
0.000262
0.000249
0.000268
0.000206
0.000056
0.000344
0.000276
0.002052
0.000254
0.000288
0.000195
0.000282
0.000248
0.000424
0.000464
0.001304
0.000439
0.000279
0.002100
0.000191
0.000243
0.000274
0.000278
0.000251
0.000253
0.000275
0.000292
0.000257
0.000390
0.000443
0.000445
0.000283
0.002198
0.000486
0.000561
0.000309
0.000061
0.000200
0.000233
0.000243
0.001970
0.000246
0.000212
0.000238
0.000246
0.000240
0.000261
0.000241
0.000263
0.000246
0.000308
0.000380
0.001509
0.000240
0.000260
0.000260
0.000256
0.000235
0.000256
0.000272
0.000255
0.000334
0.000440
0.000473
0.000243
0.001610
0.000272
0.000158
0.000057
0.000205
0.000222
0.000265
0.000212
0.000255
0.000247
0.000251
0.000249
0.000256
0.000407
0.000345
0.001406
0.000235
0.000227
0.000246
0.000264
0.000254
0.000256
0.000490
0.000299
0.000629
0.000207
0.000228
0.001575
0.000235
0.000260
0.000288
0.000277
0.000260
0.000268
0.000194
0.000057
0.000221
0.000225
0.000268
0.000266
0.000256
0.000234
0.000239
0.000243
0.000258
0.000240
0.000249
0.000259
0.000252
0.001484
0.000362
0.000213
0.000255
0.000265
0.000305
0.000334
0.000398
0.000207
0.000233
0.000262
0.000263
0.000263
0.000260
0.001410
0.000283
0.000233
0.000175
0.000058
0.000199
0.000233
0.000256
0.000262
0.000255
0.000235
0.000249
0.000262
0.000222
0.000286
0.000220
0.000258
0.000225
0.000346
0.000317
0.000402
0.000224
0.000248
0.001636
0.000243
0.000239
0.000262
0.000260
0.000290
0.000381
0.000387
0.000448
0.000262
0.000256
0.001610
0.000162
0.000058
0.000348
0.000383
0.000292
0.000311
0.000228
0.000219
0.000245
0.000270
0.000257
0.000237
0.000250
0.000235
0.001466
0.000290
0.000305
0.000224
0.000248
0.000258
0.000269
0.000264
0.000257
0.000235
0.000260
0.000273
0.000341
0.000330
0.000452
0.000364
0.000221
0.000260
0.000189
0.000060
0.000210
0.000237
0.000449
0.000362
0.000419
0.000202
0.000248
0.000252
0.000247
0.000260
0.000239
0.000224
0.000267
0.000232
0.001287
0.000280
0.000231
0.000250
0.000268
0.000269
0.000238
0.000265
0.000252
0.000263
0.000257
0.000255
0.000338
0.000687
0.000425
0.000230
0.000185
0.000057
0.000204
0.001562
0.000256
0.000292
0.000482
0.000386
0.000214
0.000259
0.000262
0.000259
0.000232
0.000260
0.000272
0.000290
0.000243
0.001528
0.000251
0.000284
0.000266
0.000252
0.000258
0.000253
0.000270
0.000259
0.000259
0.000317
0.000434
0.000283
0.000388
0.000251
0.000185
0.000057
0.000212
0.000250
0.000232
0.001733
0.000295
0.000378
0.000208
0.000233
0.000252
0.000272
0.000279
0.000257
0.000240
0.000267
0.000232
0.000341
0.000363
0.001299
0.000241
0.000236
0.001493
0.000439
0.000456
0.000384
0.000333
0.000257
0.000253
0.000463
0.000238
0.000262
0.000188
0.000061
0.000308
0.000194
0.000249
0.000243
0.000252
0.000247
0.000240
0.000253
0.000262
0.000238
0.000252
0.000261
0.000322
0.000539
0.001612
0.001589
0.000299
0.000497
0.000339
0.000225
0.000229
0.000258
0.000254
0.000267
0.000239
0.000290
0.000243
0.000268
0.001530
0.000324
0.000156
0.000058
0.000230
0.000354
0.000353
0.000316
0.000242
0.000216
0.000238
0.000504
0.000321
0.000350
0.002143
0.000324
0.000714
0.000554
0.000410
0.000321
0.000336
0.000411
0.000300
0.000245
0.000373
0.000235
0.001812
0.000278
0.000219
0.000259
0.000260
0.000247
0.000267
0.000268
0.000196
0.000057
0.000218
0.000247
0.000255
0.000248
0.000244
0.001668
0.000867
0.000995
0.000211
0.000236
0.000262
0.000255
0.000261
0.000263
0.000255
0.000249
0.000254
0.000259
0.000268
0.000277
0.001435
0.000311
0.000257
0.000227
0.000235
0.000258
0.000261
0.000282
0.000269
0.000282
0.001894
0.000061
0.000186
0.000231
0.001559
0.000835
0.000425
0.000320
0.000248
0.000226
0.000248
0.000269
0.000232
0.000252
0.000244
0.002091
0.000372
0.000215
0.000246
0.000261
0.000263
0.000259
0.000194
