0.000108
0.018253
0.003465
0.000260
0.000262
0.000282
0.000308
0.000246
0.000334
0.000279
0.000252
0.000350
0.000519
0.000547
0.000321
0.000328
0.000287
0.000355
0.000348
0.000413
0.000317
0.001909
0.000708
0.000242
0.000260
0.000300
0.000303
0.000341
0.000431
0.000465
0.000424
0.000287
0.000058
0.000201
0.000267
0.000271
0.000264
0.000274
0.000246
0.000284
0.000259
0.000270
0.000290
0.000445
0.000503
0.000240
0.000264
0.000411
0.000303
0.000366
0.000249
0.000233
0.001713
0.000316
0.000260
0.000455
0.000246
0.000269
0.000267
0.000291
0.000301
0.000278
0.000397
0.000439
0.000056
0.000225
0.000254
0.000265
0.000261
0.000252
0.000248
0.000259
0.000257
0.000287
0.001669
0.000227
0.000246
0.000264
0.000262
0.000279
0.000256
0.000264
0.000254
0.000362
0.001799
0.000230
0.000273
0.000450
0.000484
0.000345
0.000232
0.000240
0.000497
0.000471
0.000777
0.000194
0.000056
0.000223
0.000236
0.000249
0.000259
0.000289
0.000251
0.000449
0.000429
0.000382
0.000257
0.000232
0.000248
0.000241
0.000252
0.000258
0.000259
0.000239
0.000268
0.000300
0.000414
0.001590
0.000281
0.000249
0.000414
0.000679
0.000316
0.000700
0.000501
0.000341
0.000228
0.000187
0.000055
0.000216
0.000243
0.000270
0.000238
0.000256
0.000253
0.000294
0.000374
0.001538
0.000207
0.000248
0.000242
0.000254
0.000254
0.000267
0.000287
0.000455
0.000725
0.001289
0.000277
0.000466
0.000257
0.000207
0.000243
0.000249
0.000260
0.000262
0.000277
0.000254
0.000275
0.000196
0.000056
0.000196
0.000258
0.000238
0.000265
0.000235
0.000242
0.000242
0.000255
0.000237
0.000258
0.001632
0.000257
0.000242
0.000235
0.000254
0.000249
0.000247
0.000264
0.000233
0.000261
0.000269
0.001676
0.000271
0.000251
0.000448
0.000251
0.000245
0.000262
0.000270
0.000268
0.000194
0.000055
0.000199
0.000248
0.000235
0.000246
0.000244
0.000248
0.000262
0.000227
0.000270
0.000242
0.000266
0.000258
0.000258
0.000274
0.001639
0.000273
0.000296
0.000214
0.000250
0.000275
0.000261
0.000225
0.000251
0.000260
0.001801
0.000365
0.000366
0.000359
0.000237
0.000278
0.000199
0.000055
0.000203
0.000239
0.000246
0.000267
0.000252
0.000238
0.000300
0.000407
0.000400
0.000425
0.000213
0.000249
0.000249
0.000254
0.001609
0.000474
0.000421
0.000346
0.000296
0.000233
0.000259
0.000281
0.000272
0.001788
0.000443
0.000486
0.000240
0.000258
0.000245
0.000252
0.000185
0.000056
0.000213
0.000219
0.000256
0.000271
0.000318
0.000487
0.000418
0.000214
0.000212
0.000245
0.000265
0.000233
0.000255
0.001697
0.000504
0.000295
0.000215
0.000256
0.000273
0.000281
0.000252
0.000253
0.000279
0.002007
0.000202
0.000379
0.000258
0.000246
0.000259
0.000422
0.000321
0.000056
0.000205
0.000389
0.000344
0.000355
0.000188
0.000242
0.000251
0.000257
0.000243
0.000231
0.000236
0.000255
0.001559
0.000389
0.000278
0.000216
0.000262
0.000252
0.000242
0.000285
0.000281
0.000326
0.000243
0.001818
0.000260
0.000497
0.000234
0.000251
0.000251
0.000272
0.000274
0.000056
0.000414
0.000527
0.000598
0.000224
0.000219
0.000282
0.000228
0.000215
0.000263
0.000250
0.000262
0.001702
0.000249
0.000440
0.000374
0.000205
0.000239
0.000238
0.000246
0.000275
0.000241
0.001869
0.000231
0.000237
0.002080
0.000528
0.000349
0.000243
0.000262
0.000262
0.000184
0.000056
0.000190
0.000242
0.000245
0.000243
0.000260
0.001629
0.000242
0.000230
0.000256
0.000253
0.000241
0.000243
0.000261
0.000242
0.000271
0.000520
0.000527
0.000258
0.000227
0.000271
0.000268
0.000246
0.000241
0.000439
0.000473
0.000216
0.000357
0.000735
0.000277
0.000240
0.000213
0.000055
0.000216
0.000235
0.000252
0.000252
0.000232
0.000242
0.000259
0.000346
0.000498
0.001714
0.000198
0.000231
0.000239
0.000247
0.000260
0.000273
0.000430
0.000493
0.000343
0.000234
0.000265
0.000302
0.000281
0.000269
0.000260
0.000433
0.000350
0.000657
0.000492
0.000356
0.000181
0.000056
0.000196
0.000274
0.000227
0.000215
0.000246
0.000238
0.000245
0.000245
0.000240
0.000309
0.000338
0.000410
0.001404
0.000256
0.000230
0.000245
0.000259
0.000260
0.000239
0.000257
0.000267
0.000586
0.000281
0.000280
0.000251
0.000253
0.000262
0.000271
0.000266
0.000267
0.000384
0.000056
0.000215
0.000227
0.000228
0.000424
0.000402
0.000430
0.000214
0.000259
0.000239
0.000254
0.000249
0.000237
0.000302
0.000245
0.000239
0.000537
0.000410
0.001620
0.000284
0.000205
0.000253
0.000267
0.000255
0.000259
0.000239
0.000537
0.000384
0.000349
0.000423
0.000216
0.000205
0.000055
0.000231
0.000436
0.000238
0.000210
0.000265
0.000243
0.000254
0.000617
0.000312
0.000333
0.000229
0.000256
0.000269
0.000240
0.000519
0.000352
0.000236
0.000250
0.000417
0.001616
0.000259
0.000243
0.000527
0.000239
0.000276
0.000280
0.000253
0.000297
0.000604
0.000439
0.000213
0.000056
0.000203
0.000238
0.000242
0.000238
0.000420
0.000298
0.000297
0.000226
0.000459
0.000480
0.000317
0.000254
0.000222
0.000244
0.000262
0.000271
0.000255
0.000251
0.000233
0.000358
0.000290
0.000264
0.001915
0.000230
0.000255
0.000251
0.000302
0.000351
0.000415
0.000699
0.000464
0.000056
0.000237
0.000335
0.000299
0.000398
0.000398
0.000194
0.000257
0.000291
0.000546
0.000465
0.000187
0.000239
0.000236
0.000267
0.000263
0.000233
0.000250
0.000273
0.000270
0.000259
0.000281
0.000412
0.000769
0.001215
0.000338
0.000437
0.000422
0.000243
0.000370
0.000466
0.000370
0.000055
0.000232
0.000383
0.000277
0.000202
0.000219
0.000246
0.000421
0.000240
0.000226
0.000390
0.000578
0.000295
0.000222
0.000256
0.000263
0.000256
0.000363
0.000400
0.000341
0.000229
0.000239
0.000490
0.000551
0.001665
0.000226
0.000471
0.000271
0.000235
0.000262
0.000464
0.000350
0.000056
0.000189
0.000227
0.000262
0.000234
0.000244
0.000248
0.000248
0.000324
0.000471
0.000293
0.000425
0.000382
0.000269
0.000589
0.000243
0.000232
0.000277
0.000266
0.000227
0.000359
0.000211
0.000242
0.000276
0.000381
0.000600
0.001590
0.000262
0.000235
0.000239
0.000279
0.000182
0.000055
0.000327
0.000570
0.000210
0.000217
0.000263
0.000235
0.000259
0.000235
0.000264
0.000247
0.000221
0.000251
0.000413
0.000656
0.000272
0.000289
0.000267
0.000226
0.000360
0.000384
0.000375
0.000370
0.000377
0.000328
0.000249
0.000248
0.000272
0.000275
0.001790
0.000252
0.000213
0.000056
0.000201
0.000217
0.000255
0.000279
0.000368
0.000545
0.000310
0.000214
0.000248
0.000263
0.000250
0.000246
0.000532
0.000448
0.000489
0.000277
0.000262
0.000265
0.000421
0.000466
0.000362
0.000387
0.000482
0.000456
0.000241
0.000236
0.000265
0.000246
0.000272
0.001717
0.000342
0.000056
0.000202
0.000331
0.000213
0.000229
0.000253
0.000250
0.000243
0.000507
0.000369
0.000311
0.000295
0.000306
0.000321
0.000698
0.000288
0.000228
0.000247
0.000250
0.000251
0.000262
0.000265
0.000269
0.000244
0.000267
0.000314
0.000362
0.000411
0.000355
0.000247
0.000234
0.000199
0.000056
0.000447
0.000341
0.000495
0.000185
0.000196
0.000245
0.000245
0.000257
0.000237
0.000221
0.000250
0.000281
0.000294
0.000420
0.000529
0.000449
0.000284
0.000339
0.000362
0.000339
0.000293
0.000239
0.000241
0.000270
0.001753
0.000254
0.001720
0.000939
0.000491
0.000224
0.000159
0.000057
0.000200
0.000253
0.000220
0.000240
0.000263
0.000249
0.000249
0.000263
0.000234
0.000321
0.000398
0.000489
0.000254
0.000389
0.000226
0.000266
0.000249
0.000285
0.000230
0.000240
0.000261
0.000258
0.001829
0.000224
0.000249
0.000272
0.000277
0.000262
0.001889
0.000552
0.000273
0.000056
0.000208
0.000196
0.000240
0.000241
0.000257
0.000245
0.000243
0.000256
0.000250
0.000361
0.000628
0.000449
0.000240
0.000202
0.000230
0.000253
0.000329
0.000447
0.000370
0.000259
0.001768
0.000249
0.000263
0.000242
0.000249
0.000271
0.000245
0.000248
0.000337
0.000341
0.000358
0.000057
0.000258
0.000206
0.000234
0.000262
0.000245
0.000245
0.000258
0.000254
0.000236
0.000256
0.000242
0.000253
0.000406
0.000470
0.000312
0.000232
0.000467
0.000220
0.000263
0.000245
0.000261
0.000256
0.000280
0.000254
0.000280
0.001806
0.000227
0.000242
0.000269
0.000240
0.000199
0.000056
0.000306
0.000314
0.000241
0.000218
0.000237
0.000249
0.000226
0.000258
0.000246
0.000220
0.000245
0.000250
0.000259
0.000390
0.000378
0.000370
0.000280
0.000238
0.000255
0.000247
0.000267
0.000261
0.000255
0.000270
0.000244
0.000265
0.000335
0.001618
0.000265
0.000235
0.000180
0.000056
0.000188
0.000231
0.000251
0.000271
0.000344
0.000450
0.000426
0.000196
0.000221
0.000261
0.000251
0.000237
0.000262
0.000236
0.000262
0.000251
0.000257
0.000257
0.000255
0.000257
0.000265
0.000265
0.000256
0.000235
0.000243
0.000277
0.000280
0.000253
0.000260
0.000256
0.000200
0.000055
0.000217
0.000227
0.000257
0.000257
0.000235
0.000253
0.000244
0.000260
0.000286
0.000229
0.000230
0.000249
0.000253
0.000249
0.000278
0.000260
0.000251
0.000258
0.000295
0.000247
0.000270
0.000298
0.000291
0.000220
0.000286
0.000275
0.000264
0.000250
0.000332
0.000345
0.000599
0.000057
0.000227
0.000292
0.000216
0.000219
0.000242
0.000252
0.000242
0.000249
0.000264
0.000229
0.000277
0.000288
0.000659
0.000290
0.001559
0.000229
0.000480
0.000246
0.000375
0.000329
0.000504
0.000313
0.000223
0.000280
0.000255
0.000261
0.000284
0.000250
0.000309
0.000277
0.000163
0.000056
0.000316
0.000460
0.000326
0.000325
0.000213
0.000261
0.000244
0.000247
0.000242
0.000234
0.000256
0.000259
0.000226
0.000307
0.000323
0.000718
0.000177
0.001807
0.000218
0.000246
0.000360
0.000408
0.000465
0.000284
0.000315
0.000304
0.000306
0.000229
0.000239
0.000240
0.000197
0.000056
0.000213
0.000242
0.000221
0.000292
0.000349
0.000573
0.000223
0.000259
0.000251
0.000216
0.000247
0.000270
0.000267
0.000263
0.000243
0.000272
0.000279
0.000556
0.000309
0.000425
0.000229
0.001753
0.000333
0.000481
0.000606
0.000358
0.000339
0.000220
0.000249
0.000270
0.000447
0.000056
0.000198
0.000253
0.000228
0.000272
0.000425
0.000518
0.000371
0.000190
0.000226
0.000300
0.000240
0.000262
0.000253
0.000317
0.000290
0.000235
0.000255
0.000369
0.000527
0.000283
0.000485
0.001855
0.000240
0.000539
0.000415
0.000357
0.000222
0.000253
0.000285
0.000266
0.000205
0.000056
0.000224
0.000332
0.000362
0.000364
0.000355
0.000288
0.000369
0.000221
0.000230
0.000261
0.000283
0.000233
0.000234
0.000281
0.000221
0.000262
0.000330
0.000360
0.000598
0.000310
0.000272
0.000217
0.000269
0.001720
0.000338
0.000585
0.000691
0.000247
0.000250
0.000314
0.000152
0.000056
0.000189
0.000242
0.000327
0.000255
0.000266
0.000464
0.000330
0.000310
0.000226
0.000530
0.000241
0.000232
0.000261
0.000279
0.000274
0.000266
0.000216
0.000394
0.000481
0.000378
0.000274
0.000224
0.000256
0.000254
0.000263
0.000262
0.000236
0.000261
0.000259
0.000299
0.000217
0.000057
0.000410
0.000223
0.000235
0.000244
0.000250
0.000259
0.000239
0.000307
0.000224
0.000242
0.000260
0.000374
0.000423
0.000462
0.000269
0.000276
0.000228
0.000223
0.000254
0.000263
0.000311
0.000244
0.000233
0.000258
0.000283
0.000291
0.000392
0.000422
0.000352
0.000222
0.000189
0.000056
0.000206
0.000223
0.000280
0.000242
0.000240
0.000250
0.000259
0.000589
0.000172
0.000200
0.000255
0.000272
0.000229
0.000271
0.000265
0.000275
0.000260
0.000353
0.000225
0.000228
0.000255
0.000271
0.000253
0.000277
0.000271
0.000259
0.000277
0.000243
0.000524
0.000246
0.000141
0.000055
0.000205
0.000232
0.000257
0.000267
0.000215
0.000251
0.000359
0.000410
0.000238
0.000237
0.000250
0.000256
0.000229
0.000310
0.000398
0.001794
0.000230
0.000260
0.000283
0.000396
0.000368
0.000358
0.000353
0.000439
0.000337
0.000417
0.000237
0.000263
0.000268
0.000277
0.001401
0.000055
0.000393
0.000354
0.000224
0.000216
0.000229
0.000255
0.000231
0.000252
0.000245
0.000272
0.000242
0.000264
0.000249
0.000321
0.000469
0.001686
0.000238
0.000214
0.000249
0.000265
0.000235
0.000266
0.000383
0.000369
0.000292
0.000366
0.000216
0.000264
0.000274
0.000263
0.000190
0.000056
0.001181
0.000665
0.000199
0.000270
0.000238
0.000214
0.000233
0.000237
0.000484
0.000235
0.000235
0.000259
0.000351
0.000406
0.000531
0.000320
0.000240
0.000216
0.000362
0.000335
0.000285
0.000245
0.000270
0.000245
0.000269
0.000661
0.000524
0.000220
0.000245
0.000261
0.000188
0.000055
0.000214
0.000213
0.000243
0.000267
0.001555
0.000195
0.000224
0.000250
0.000235
0.000257
0.000251
0.000251
0.000244
0.000259
0.000288
0.000256
0.000484
0.000678
0.000218
0.001752
0.000265
0.000270
0.000260
0.000495
0.000554
0.000366
0.000239
0.000248
0.000258
0.000272
0.000191
0.000057
0.000237
0.000216
0.000239
0.000266
0.001317
0.000230
0.000273
0.000235
0.000241
0.000235
0.000239
0.000248
0.000280
0.000248
0.000250
0.000297
0.000404
0.000582
0.000227
0.000261
0.000253
0.000273
0.000250
0.000233
0.000293
0.000255
0.000245
0.000274
0.000274
0.000375
0.000586
0.000055
0.000224
0.000242
0.000235
0.000261
0.000263
0.000242
0.000246
0.000251
0.000268
0.000261
0.001440
0.000221
0.000240
0.000244
0.000248
0.000239
0.000282
0.000254
0.000263
0.000268
0.000274
0.000531
0.000371
0.000434
0.000221
0.000270
0.001772
0.000259
0.000265
0.000282
0.000514
0.000056
0.000195
0.000398
0.000450
0.000503
0.000515
0.000542
0.001494
0.000416
0.000522
0.000656
0.000550
0.000691
0.000530
0.000602
0.000581
0.001888
0.000425
0.000407
0.000396
0.000321
0.000231
0.000304
0.000251
0.000268
0.000262
0.000290
0.000290
0.000286
0.000259
0.000288
0.001368
0.000056
0.000215
0.000226
0.000228
0.000247
0.000253
0.000259
0.000236
0.000239
0.000252
0.000253
0.000237
0.000247
0.000247
0.000256
0.000270
0.000264
0.001828
0.000279
0.000264
0.000229
0.000254
0.000264
0.000262
0.000337
0.000345
0.000456
0.000322
0.000224
0.000261
0.000283
0.000237
0.000056
0.000215
0.001345
0.000324
0.000268
0.000256
0.000237
0.000247
0.000233
0.000234
0.000241
0.000215
0.000254
0.000571
0.000213
0.000328
0.000283
0.000259
0.000260
0.001934
0.000243
0.000219
0.000266
0.000255
0.000270
0.000267
0.000288
0.000272
0.000251
0.000267
0.000322
0.000204
0.000056
0.000215
0.000234
0.000251
0.001452
0.000214
0.000246
0.000239
0.000250
0.000232
0.000271
0.000250
0.000247
0.000250
0.000255
0.000268
0.000249
0.000259
0.000266
0.000268
0.000252
0.000264
0.001781
0.000274
0.001754
0.000271
0.000246
0.000274
0.000254
0.000266
0.000276
0.000198
0.000057
0.000197
0.000259
0.001330
0.000233
0.000261
0.000231
0.000258
0.000255
0.000242
0.000248
0.000247
0.000260
0.000252
0.000261
0.000260
0.000266
0.000260
0.000292
0.000277
0.000239
0.001889
0.000231
0.001838
0.000227
0.000250
0.000287
0.000229
0.000250
0.000250
0.000272
0.000198
0.000056
0.001449
0.000225
0.000232
0.000235
0.000235
0.000235
0.000379
0.000259
0.000253
0.000257
0.000251
0.000258
0.000269
0.000436
0.000280
0.000316
0.000243
0.000272
0.000246
0.000246
0.000276
0.000343
0.000226
0.000251
0.000262
0.000282
0.000276
0.000341
0.000689
0.000317
0.000200
0.000057
0.000208
0.000256
0.000261
0.000300
0.000362
0.000278
0.001652
0.000332
0.000282
0.000265
0.000259
0.000278
0.000255
0.000255
0.000308
0.000307
0.000385
0.000544
0.000354
0.000272
0.000288
0.000282
0.000262
0.000272
0.000302
0.000282
0.000271
0.000257
0.000232
0.000325
0.000502
0.000057
0.000252
0.000467
0.000271
0.000262
0.000254
0.000226
0.000222
0.000247
0.000262
0.000273
0.001501
0.000231
0.000213
0.000252
0.000245
0.000292
0.000276
0.000235
0.000265
0.000265
0.000337
0.000274
0.000552
0.000326
0.000268
0.000291
0.000266
0.000259
0.000233
0.000312
0.000169
0.000056
0.000207
0.000218
0.000376
0.000427
0.000318
0.000282
0.000206
0.000247
0.000255
0.000247
0.000241
0.000253
0.000259
0.000263
0.000241
0.000235
0.000535
0.001085
0.000235
0.000248
0.000289
0.000233
0.000367
0.000425
0.000245
0.000279
0.000662
0.000328
0.000357
0.000231
0.000177
0.000056
0.000232
0.000245
0.000261
0.000262
0.000253
0.000244
0.000372
0.000444
0.000416
0.000239
0.000367
0.000392
0.000401
0.000356
0.000249
0.000231
0.000248
0.000349
0.000327
0.000436
0.001281
0.000220
0.000273
0.000271
0.000230
0.000233
0.000265
0.000337
0.000411
0.000466
0.000221
0.000056
0.000190
0.000241
0.000252
0.000237
0.000250
0.000253
0.000226
0.000260
0.000320
0.000333
0.000448
0.000374
0.000243
0.000228
0.000246
0.000259
0.000248
0.000265
0.000262
0.000250
0.000446
0.000266
0.000459
0.000330
0.000322
0.000232
0.000266
0.000275
0.000246
0.000356
0.000152
0.000056
0.000306
0.000314
0.000299
0.000366
0.000471
0.000346
0.000261
0.000238
0.000248
0.000275
0.000253
0.000265
0.000234
0.000251
0.000242
0.000236
0.000347
0.000277
0.000464
0.000388
0.000220
0.000264
0.000250
0.000241
0.000274
0.000276
0.000268
0.000260
0.000283
0.000267
0.000262
0.000056
0.000420
0.000209
0.000233
0.000252
0.000245
0.000246
0.000242
0.000249
0.000268
0.000259
0.000250
0.000235
0.000278
0.000536
0.000408
0.000292
0.000250
0.000234
0.000256
0.000277
0.000247
0.000271
0.000251
0.000268
0.000272
0.000317
0.000430
0.000599
0.000422
0.000232
0.000145
0.000056
0.000388
0.000204
0.000226
0.000245
0.000250
0.000251
0.000236
0.000255
0.000255
0.000261
0.000216
0.000252
0.000281
0.000207
0.000245
0.000265
0.000253
0.000260
0.000286
0.000247
0.000267
0.000262
0.000267
0.000254
0.000267
0.000240
0.000268
0.000276
0.000256
0.000283
0.000194
0.000057
0.000198
0.000226
0.000249
0.000256
0.000233
0.000251
0.000260
0.000241
0.000259
0.000284
0.000219
0.000231
0.000266
0.000394
0.000257
0.000279
0.000258
0.000270
0.000255
0.000275
0.000271
0.000239
0.000243
0.000254
0.000276
0.000269
0.000269
0.000229
0.000276
0.000262
0.000200
0.000056
0.000218
0.000357
0.000369
0.000280
0.000299
0.000252
0.000254
0.000259
0.000229
0.000248
0.000245
0.000259
0.000250
0.000237
0.000255
0.000265
0.000268
0.000265
0.000243
0.000262
0.000277
0.000263
0.000280
0.000252
0.000291
0.000246
0.000245
0.000270
0.000267
0.000265
0.000192
0.000056
0.000224
0.000220
0.000265
0.000264
0.000488
0.000215
0.000203
0.000248
0.000329
0.000449
0.000554
0.000179
0.000233
0.000239
0.000267
0.000262
0.000243
0.000271
0.000256
0.000263
0.000267
0.000275
0.000240
0.000312
0.000551
0.000464
0.000257
0.000301
0.000260
0.000264
0.000185
0.000057
0.000201
0.000223
0.000243
0.000253
0.000530
0.000440
0.000321
0.000380
0.000207
0.000243
0.000249
0.000255
0.000249
0.000253
0.000257
0.000272
0.000259
0.000248
0.000726
0.000297
0.000296
0.000244
0.000255
0.000289
0.000282
0.000253
0.000268
0.000268
0.000251
0.000347
0.000295
0.000057
0.000285
0.000233
0.000242
0.000232
0.000260
0.000251
0.000222
0.000252
0.000245
0.000257
0.000247
0.000266
0.000241
0.000367
0.000619
0.000387
0.000213
0.000254
0.000266
0.000240
0.000270
0.000274
0.000485
0.000236
0.000245
0.000703
0.000296
0.000513
0.000241
0.000254
0.000178
0.000057
0.000219
0.000224
0.000242
0.000247
0.000256
0.000269
0.000228
0.000649
0.000671
0.000188
0.000220
0.000258
0.000278
0.000277
0.000249
0.000251
0.000230
0.000254
0.000264
0.000340
0.000404
0.000646
0.000365
0.000243
0.000370
0.000380
0.000467
0.000257
0.000255
0.000414
0.000440
0.000056
0.000165
0.000236
0.000461
0.000202
0.000227
0.000254
0.000265
0.000258
0.000232
0.000243
0.000362
0.000323
0.000300
0.000395
0.000221
0.000245
0.000264
0.000257
0.000260
0.000274
0.000276
0.000256
0.000241
0.000275
0.000333
0.000574
0.000378
0.000248
0.000251
0.000269
0.000194
0.000055
0.000199
0.000262
0.000222
0.000247
0.000244
0.000306
0.000413
0.000299
0.000451
0.000281
0.000371
0.000225
0.000234
0.000271
0.000247
0.000246
0.000258
0.000257
0.000404
0.000315
0.000447
0.000326
0.000480
0.000286
0.000384
0.000427
0.000390
0.000227
0.000247
0.000275
0.000440
0.000056
0.000260
0.000282
0.000222
0.000255
0.000259
0.000256
0.000250
0.000243
0.000253
0.000263
0.000233
0.000391
0.000438
0.000361
0.000377
0.000211
0.000265
0.000272
0.000262
0.000238
0.000248
0.000253
0.000264
0.000275
0.000274
0.000369
0.000457
0.000479
0.000233
0.000279
0.000188
0.000055
0.000191
0.000249
0.000261
0.000241
0.000259
0.000344
0.000501
0.000460
0.000384
0.000668
0.000268
0.000222
0.000226
0.000266
0.000247
0.000263
0.000278
0.000270
0.000488
0.000421
0.001502
0.000302
0.000261
0.000259
0.000303
0.000261
0.000426
0.000400
0.000381
0.000292
0.000157
0.000056
0.000203
0.000230
0.000243
0.000247
0.000238
0.000257
0.000277
0.000247
0.000250
0.000345
0.000320
0.000390
0.000268
0.000332
0.000392
0.000345
0.000241
0.000238
0.000280
0.000253
0.000243
0.000244
0.000294
0.000235
0.000343
0.000419
0.000432
0.000303
0.000245
0.000263
0.000182
0.000055
0.000214
0.000250
0.000253
0.000259
0.000233
0.000539
0.000176
0.000211
0.000236
0.000252
0.000239
0.000254
0.000256
0.000258
0.000255
0.000261
0.000264
0.000268
0.000275
0.000251
0.000258
0.000308
0.000280
0.000240
0.000263
0.000280
0.000272
0.000265
0.000261
0.000271
0.000177
0.000056
0.000220
0.000259
0.000440
0.000271
0.000373
0.000245
0.000236
0.000243
0.000259
0.000249
0.000247
0.000260
0.000265
0.000258
0.000245
0.000238
0.000248
0.000268
0.000328
0.000293
0.000503
0.000348
0.000210
0.000272
0.000266
0.000250
0.000272
0.000249
0.000275
0.000279
0.000195
0.000055
0.000351
0.000451
0.000360
0.000206
0.000249
0.000254
0.000413
0.000221
0.000227
0.000279
0.000239
0.000302
0.000349
0.000561
0.001735
0.000252
0.000244
0.000253
0.000272
0.000246
0.000398
0.000421
0.000629
0.000257
0.000217
0.000266
0.000274
0.000418
0.000285
0.000281
0.000163
0.000056
0.000225
0.000334
0.000366
0.000308
0.000523
0.000182
0.000228
0.000251
0.000247
0.000243
0.000258
0.000247
0.000265
0.000328
0.000471
0.000411
0.000229
0.000230
0.000257
0.000261
0.000262
0.000328
0.000236
0.000269
0.000275
0.000445
0.000572
0.000356
0.000461
0.000210
0.000203
0.000056
0.000207
0.000235
0.000261
0.000224
0.000252
0.000252
0.000267
0.000274
0.000353
0.000419
0.000404
0.000333
0.000203
0.000257
0.000268
0.000301
0.000288
0.000231
0.000278
0.000272
0.000235
0.000348
0.000405
0.000407
0.000282
0.000247
0.000263
0.000476
0.000400
0.000294
0.000165
0.000055
0.000193
0.000241
0.000375
0.000413
0.000353
0.000208
0.000235
0.000254
0.000260
0.000252
0.000266
0.000257
0.000224
0.000258
0.000261
0.000322
0.000420
0.000312
0.000291
0.000360
0.000474
0.000227
0.000280
0.000277
0.000301
0.000280
0.000256
0.000271
0.000471
0.000534
0.000178
0.000055
0.000204
0.000225
0.000292
0.000206
0.000241
0.000517
0.000185
0.000242
0.000267
0.000310
0.000552
0.000546
0.000214
0.000233
0.000246
0.000256
0.000253
0.000256
0.000248
0.000253
0.000261
0.000263
0.000372
0.000436
0.000450
0.000304
0.000307
0.000293
0.000324
0.000238
0.000180
0.000055
0.000229
0.000224
0.000300
0.000464
0.000317
0.000280
0.000269
0.000227
0.000248
0.000242
0.000258
0.000247
0.000249
0.000272
0.000237
0.000257
0.000256
0.000243
0.000280
0.000397
0.000449
0.000442
0.000225
0.000233
0.000298
0.000267
0.000253
0.000261
0.000261
0.000262
0.000197
0.000056
0.000214
0.000406
0.000485
0.000257
0.000213
0.000242
0.000329
0.000452
0.000293
0.000199
0.000238
0.000281
0.000249
0.000458
0.000490
0.000235
0.000237
0.000226
0.000248
0.000267
0.000273
0.000263
0.000262
0.000270
0.000264
0.000268
0.000395
0.000537
0.000231
0.000248
0.000175
0.000056
0.000228
0.000239
0.000248
0.000252
0.000253
0.000266
0.000227
0.000256
0.000247
0.000253
0.000266
0.000237
0.000263
0.001469
0.000217
0.000249
0.000262
0.000244
0.000277
0.000281
0.000259
0.000234
0.000285
0.000253
0.000259
0.000272
0.000274
0.000268
0.000280
0.000253
0.000188
0.000055
0.000185
0.000228
0.000256
0.000249
0.000232
0.000258
0.000250
0.000262
0.000227
0.000241
0.000266
0.000246
0.000256
0.000257
0.000253
0.000262
0.000249
0.000255
0.000278
0.000254
0.000250
0.000263
0.000245
0.000253
0.001299
0.000280
0.000592
0.000366
0.000400
0.000219
0.000187
0.000056
0.000199
0.000226
0.000247
0.000252
0.000436
0.000230
0.000222
0.000242
0.000255
0.000347
0.000470
0.000340
0.000241
0.000231
0.000255
0.000255
0.000255
0.000282
0.000236
0.000255
0.000258
0.000253
0.000263
0.000425
0.000545
0.000428
0.000208
0.000271
0.001398
0.000214
0.000186
0.000057
0.000302
0.000417
0.000316
0.000279
0.000212
0.000224
0.000232
0.000249
0.000261
0.000255
0.000250
0.000260
0.000268
0.000292
0.000640
0.000297
0.000322
0.000232
0.000236
0.000257
0.000267
0.000264
0.000290
0.000254
0.000265
0.000261
0.000313
0.000568
0.000380
0.000373
0.000144
0.000055
0.000196
0.000229
0.001284
0.000393
0.000284
0.000516
0.000344
0.000495
0.000270
0.000343
0.000224
0.000212
0.000268
0.000252
0.000249
0.000266
0.000424
0.000456
0.000363
0.000363
0.000250
0.000251
0.000276
0.000488
0.000227
0.000273
0.000256
0.000276
0.000330
0.000526
0.000300
0.000056
0.000388
0.000311
0.000227
0.000216
0.001595
0.000441
0.000304
0.000243
0.000245
0.000251
0.000225
0.000246
0.000238
0.000271
0.000252
0.000263
0.000233
0.000267
0.000461
0.000333
0.000462
0.000244
0.000247
0.000251
0.000269
0.000271
0.000270
0.000234
0.000267
0.000283
0.000189
0.000056
0.000366
0.000351
0.000231
0.000221
0.000252
0.000240
0.000250
0.000246
0.000233
0.000227
0.001424
0.000458
0.000277
0.000242
0.000231
0.000261
0.000269
0.000259
0.000231
0.000280
0.000270
0.000252
0.000270
0.000438
0.000453
0.000401
0.000214
0.000273
0.000278
0.000279
0.000174
0.000056
0.000188
0.000411
0.000224
0.000234
0.000392
0.000526
0.000292
0.000263
0.000495
0.000180
0.000229
0.000251
0.000263
0.000263
0.000263
0.001500
0.000268
0.000287
0.000242
0.000275
0.000272
0.000250
0.000256
0.000249
0.000262
0.000271
0.000487
0.000510
0.000189
0.000283
0.000147
0.000055
0.000217
0.000226
0.000256
0.000235
0.000231
0.000263
0.000236
0.000249
0.000265
0.000391
0.000458
0.000276
0.000240
0.000249
0.000232
0.000278
0.000272
0.000261
0.000274
0.000230
0.000263
0.000355
0.001215
0.000255
0.000245
0.000249
0.000253
0.000264
0.000264
0.000261
0.000183
0.000055
0.000249
0.000323
0.000347
0.000375
0.000228
0.000236
0.000260
0.000265
0.000249
0.000251
0.000263
0.000265
0.000239
0.000278
0.000237
0.000263
0.000264
0.000265
0.000271
0.000247
0.000258
0.000266
0.000265
0.000285
0.000285
0.000269
0.000264
0.000252
0.000288
0.000453
0.001356
0.000056
0.000179
0.000233
0.000239
0.000243
0.000255
0.000261
0.000244
0.000235
0.000241
0.000247
0.000278
0.000249
0.000259
0.000237
0.000256
0.000240
0.001744
0.000256
0.000226
0.000262
0.000248
0.000258
0.000269
0.000264
0.000269
0.000262
0.000266
0.000283
0.000272
0.000249
0.000218
0.000056
0.000305
0.000291
0.001302
0.000222
0.000227
0.000248
0.000253
0.000253
0.000257
0.000259
0.000231
0.000364
0.000486
0.000393
0.000247
0.000209
0.000240
0.000254
0.000255
0.000265
0.000249
0.000258
0.000275
0.000284
0.000260
0.000340
0.000441
0.000355
0.000313
0.000239
0.000190
0.000056
0.000218
0.000253
0.000241
0.000252
0.000255
0.000219
0.000238
0.000320
0.000371
0.001341
0.000260
0.000199
0.000248
0.000279
0.000248
0.000267
0.000258
0.000249
0.000302
0.000477
0.000375
0.000223
0.000234
0.000250
0.000281
0.000275
0.000266
0.000291
0.000276
0.000272
0.000191
0.000055
0.000237
0.000472
0.000350
0.000209
0.000248
0.000226
0.000251
0.000274
0.000262
0.000247
0.000228
0.000252
0.000465
0.000548
0.000430
0.001450
0.000246
0.000278
0.000320
0.000350
0.000479
0.000426
0.000479
0.000380
0.000215
0.000271
0.000263
0.000277
0.000264
0.000273
0.000202
0.000055
0.000209
0.000286
0.000444
0.000401
0.000397
0.000241
0.000261
0.000226
0.000233
0.000263
0.000245
0.000267
0.000269
0.000241
0.000266
0.000310
0.000340
0.000459
0.000350
0.001324
0.000259
0.000251
0.000253
0.000270
0.000479
0.000458
0.000393
0.000213
0.000272
0.000270
0.000180
0.000056
0.000210
0.000236
0.000244
0.000244
0.000249
0.000274
0.000454
0.000484
0.000286
0.000205
0.000241
0.000262
0.000271
0.000258
0.000263
0.000262
0.000261
0.000261
0.000280
0.000353
0.000408
0.000434
0.000278
0.001362
0.000396
0.000235
0.000306
0.000385
0.000605
0.000217
0.000297
0.000056
0.000184
0.000234
0.000260
0.000238
0.000246
0.000254
0.001685
0.000250
0.000206
0.000243
0.000253
0.000249
0.000264
0.000334
0.000324
0.000280
0.000298
0.000357
0.000476
0.000407
0.000262
0.000282
0.000220
0.000252
0.001505
0.000389
0.000455
0.000385
0.000324
0.000285
0.000157
0.000057
0.000200
0.000245
0.000256
0.000258
0.000244
0.000259
0.001716
0.000246
0.000220
0.000263
0.000340
0.000408
0.001446
0.000416
0.000330
0.000233
0.000260
0.000242
0.000265
0.000269
0.001696
0.000552
0.000254
0.000294
0.000233
0.000249
0.000268
0.000275
0.000240
0.000251
0.000196
0.000057
0.000182
0.000243
0.000271
0.000239
0.000262
0.000302
0.000257
0.000251
0.000250
0.000251
0.000257
0.000248
0.000266
0.000262
0.000269
0.001490
0.000283
0.000223
0.000262
0.000278
0.000271
0.000262
0.000435
0.001270
0.000272
0.000224
0.000275
0.000258
0.000395
0.000238
0.000203
0.000056
0.000205
0.000247
0.000221
0.000247
0.000245
0.000222
0.000234
0.001701
0.000252
0.000223
0.000249
0.000367
0.000228
0.000225
0.000258
0.001401
0.000219
0.000262
0.000268
0.000249
0.000271
0.000334
0.000276
0.001330
0.000259
0.000255
0.000253
0.000265
0.001394
0.000298
0.000181
0.000056
0.000299
0.000292
0.000213
0.000232
0.000251
0.000236
0.000270
0.000261
0.000271
0.000243
0.000262
0.000263
0.000254
0.000245
0.000342
0.001477
0.000231
0.000281
0.000249
0.000247
0.000285
0.000262
0.000245
0.001552
0.000317
0.000226
0.000280
0.001268
0.000274
0.000242
0.000205
0.000057
0.000248
0.000344
0.000364
0.000206
0.000225
0.000236
0.000265
0.000259
0.000265
0.000273
0.000234
0.000246
0.000263
0.000313
0.000429
0.001179
0.000234
0.000244
0.000267
0.000277
0.000231
0.000235
0.000256
0.000328
0.001276
0.000267
0.000236
0.000255
0.001354
0.000369
0.000206
0.000072
0.000313
0.000242
0.000192
0.000233
0.000239
0.000262
0.000236
0.000250
0.000276
0.000251
0.000240
0.000247
0.000319
0.000344
0.000369
0.001444
0.000222
0.000239
0.000296
0.000517
0.000290
0.000483
0.001256
0.000289
0.000239
0.000267
0.000251
0.001317
0.000363
0.000370
0.000389
0.000056
0.000197
0.000250
0.000256
0.000254
0.000255
0.000247
0.000278
0.000247
0.000263
0.000262
0.000337
0.000448
0.001355
0.000221
0.000271
0.000265
0.000276
0.000220
0.000240
0.000244
0.000342
0.001236
0.000258
0.000251
0.000245
0.000253
0.001560
0.000429
0.000429
0.000230
0.000182
0.000055
0.000185
0.000231
0.000249
0.000235
0.000257
0.000263
0.000242
0.000265
0.000435
0.000484
0.000290
0.001467
0.000214
0.000233
0.000265
0.000258
0.000266
0.000285
0.001697
0.000255
0.000396
0.000332
0.001271
0.000381
0.000292
0.000323
0.000258
0.000250
0.000268
0.000268
0.000193
0.000055
0.000211
0.000243
0.000329
0.000239
0.000372
0.000546
0.000231
0.000301
0.001466
0.000318
0.000367
0.000223
0.000231
0.000391
0.000312
0.001283
0.000268
0.000214
0.000256
0.000270
0.001564
0.000340
0.000295
0.000285
0.000249
0.000238
0.000528
0.000299
0.000218
0.000231
0.000259
0.000055
0.000271
0.000372
0.000324
0.000261
0.000223
0.001523
0.000202
0.000248
0.000272
0.000269
0.000269
0.000280
0.000301
0.001456
0.000249
0.000231
0.000428
0.001199
0.000320
0.000466
0.000404
0.000234
0.000231
0.000249
0.000283
0.000236
0.000467
0.000243
0.000244
0.000274
0.000193
0.000056
0.000228
0.000275
0.000339
0.000384
0.001273
0.000268
0.000311
0.000237
0.000237
0.000246
0.000256
0.000279
0.001579
0.000205
0.000239
0.000246
0.001387
0.000289
0.000416
0.000391
0.000428
0.000230
0.000239
0.000253
0.000271
0.000292
0.000265
0.000245
0.000269
0.000251
0.000194
0.000056
0.000265
0.000343
0.001465
0.000208
0.000265
0.000275
0.000242
0.000250
0.000260
0.000370
0.001422
0.000210
0.000256
0.000264
0.000245
0.001289
0.000738
0.000253
0.000311
0.000409
0.000296
0.000255
0.000251
0.000257
0.000272
0.000286
0.000275
0.000310
0.000469
0.000393
0.001390
0.000056
0.000206
0.000237
0.000245
0.000221
0.000255
0.000453
0.000502
0.001234
0.000253
0.000238
0.000246
0.001446
0.000430
0.000320
0.000219
0.000418
0.000233
0.000237
0.000272
0.000291
0.000228
0.000280
0.000274
0.000266
0.000249
0.000360
0.000349
0.000513
0.001486
0.000220
0.000187
0.000056
0.000195
0.000258
0.000380
0.000526
0.001227
0.000275
0.000252
0.000257
0.000245
0.000256
0.000247
0.000263
0.000393
0.000498
0.000314
0.000225
0.000258
0.000277
0.000240
0.000280
0.000258
0.000263
0.000259
0.000267
0.000258
0.000399
0.000547
0.000286
0.000341
0.001379
0.000167
0.000056
0.000194
0.000246
0.000282
0.000466
0.000318
0.000311
0.000328
0.000317
0.000271
0.000258
0.000258
0.000263
0.000269
0.000291
0.000234
0.000307
0.000572
0.000358
0.000227
0.000386
0.000267
0.000435
0.000200
0.000242
0.000266
0.000264
0.000255
0.000281
0.000330
0.000535
0.000292
0.000055
0.000202
0.001408
0.000233
0.000341
0.000407
0.000464
0.000433
0.000214
0.000210
0.000241
0.000261
0.000244
0.000269
0.000269
0.000262
0.000258
0.000259
0.001379
0.000242
0.000246
0.000260
0.000271
0.000271
0.000285
0.000265
0.000252
0.000279
0.000251
0.000352
0.000377
0.000421
0.000056
0.000207
0.000253
0.000220
0.001499
0.000321
0.000242
0.000215
0.000246
0.000234
0.000251
0.000248
0.000268
0.000253
0.000250
0.000278
0.000247
0.000246
0.000264
0.000260
0.000260
0.001443
0.000229
0.000234
0.000282
0.000266
0.000239
0.000262
0.000265
0.000279
0.000489
0.000351
0.000056
0.000210
0.000233
0.000395
0.000283
0.000244
0.000254
0.001541
0.000377
0.000278
0.000201
0.000257
0.000315
0.000332
0.000235
0.000222
0.000251
0.000244
0.000262
0.000263
0.000257
0.000556
0.000418
0.001147
0.000278
0.000217
0.000264
0.000269
0.000252
0.000278
0.000262
0.000294
0.000056
0.000334
0.000287
0.000206
0.000247
0.000248
0.000241
0.000241
0.000229
0.000292
0.001604
0.000406
0.000264
0.000228
0.000247
0.000261
0.000247
0.000255
0.000291
0.000264
0.000310
0.000288
0.000496
0.000449
0.001367
0.000227
0.000266
0.000263
0.000264
0.000274
0.000501
0.000266
0.000056
0.000253
0.000244
0.000237
0.000243
0.000217
0.000238
0.000269
0.000250
0.000270
0.001576
0.000350
0.000256
0.000263
0.000261
0.000477
0.000254
0.000520
0.000377
0.000301
0.000309
0.000456
0.000437
0.001300
0.000262
0.000244
0.000239
0.001729
0.000502
0.000556
0.000313
0.000140
0.000055
0.000193
0.000223
0.000240
0.000236
0.000258
0.000244
0.000244
0.000524
0.000472
0.000420
0.000313
0.000204
0.000233
0.000261
0.000267
0.000276
0.000244
0.000242
0.000256
0.000269
0.000278
0.000391
0.001376
0.000218
0.000248
0.000275
0.001919
0.000375
0.000374
0.000352
0.000151
0.000056
0.000232
0.000242
0.000251
0.001682
0.000322
0.000196
0.000237
0.000274
0.000237
0.000293
0.000380
0.000369
0.000360
0.000274
0.000339
0.000465
0.000407
0.001194
0.000282
0.000221
0.000252
0.000262
0.000288
0.000408
0.000617
0.000454
0.000252
0.000256
0.000269
0.000283
0.000187
0.000056
0.000188
0.000235
0.000249
0.001555
0.000231
0.000234
0.000241
0.000254
0.000241
0.000251
0.000260
0.000268
0.000266
0.000287
0.000234
0.000388
0.000508
0.000290
0.001372
0.000231
0.000259
0.000255
0.000277
0.000280
0.000399
0.000463
0.000424
0.000271
0.000289
0.000219
0.000452
0.000057
0.000206
0.000239
0.000251
0.001566
0.000285
0.000213
0.000272
0.000237
0.000256
0.000255
0.000258
0.000260
0.000248
0.000263
0.000390
0.000619
0.001293
0.000740
0.000251
0.000354
0.000256
0.000216
0.000248
0.000278
0.001685
0.000804
0.000217
0.000264
0.000288
0.000280
0.000184
0.000056
0.000188
0.000231
0.000255
0.000244
0.000254
0.000247
0.000236
0.000255
0.000243
0.000249
0.000272
0.000282
0.000248
0.000253
0.000262
0.000241
0.000273
0.001615
0.000735
0.000385
0.000274
0.000219
0.000245
0.000280
0.000264
0.000265
0.000274
0.000251
0.001416
0.000388
0.000350
0.000056
0.000196
0.000222
0.000255
0.000247
0.000267
0.000228
0.000251
0.000253
0.000257
0.000260
0.000225
0.000520
0.000417
0.000320
0.000201
0.000245
0.000264
0.001405
0.000679
0.000508
0.000308
0.000277
0.000213
0.000252
0.000276
0.000246
0.000257
0.000266
0.001504
0.000395
0.000223
0.000056
0.000181
0.000229
0.000239
0.000246
0.000252
0.000242
0.000238
0.000253
0.000272
0.000259
0.000422
0.000447
0.000210
0.000218
0.000241
0.000246
0.000269
0.000251
0.001580
0.000709
0.000384
0.000327
0.000220
0.000251
0.000269
0.000255
0.000261
0.000286
0.000272
0.001401
0.000287
0.000056
0.000206
0.000216
0.000234
0.000253
0.000258
0.000243
0.000270
0.000299
0.000362
0.000504
0.000362
0.000388
0.000299
0.000210
0.000262
0.000230
0.000279
0.000259
0.000269
0.001974
0.000288
0.000227
0.000451
0.000245
0.000242
0.000258
0.000271
0.000258
0.000272
0.000276
0.000348
0.000057
0.000287
0.000233
0.000225
0.000241
0.000252
0.000249
0.000229
0.000238
0.000273
0.000247
0.000249
0.000236
0.000288
0.000472
0.000490
0.000406
0.000210
0.000261
0.000258
0.000250
0.000267
0.000282
0.001477
0.001085
0.000195
0.000229
0.000272
0.000264
0.000273
0.000244
0.000208
0.000056
0.000215
0.001341
0.000298
0.000205
0.000232
0.000250
0.000244
0.000237
0.000232
0.000251
0.000262
0.000262
0.000239
0.000400
0.000385
0.000442
0.000256
0.000245
0.000266
0.000279
0.000261
0.000225
0.000257
0.000264
0.001331
0.000690
0.000311
0.000380
0.000395
0.000402
0.000279
0.000056
0.000198
0.000252
0.000374
0.001299
0.000204
0.000262
0.000224
0.000259
0.000253
0.000258
0.000251
0.000241
0.000362
0.000245
0.000624
0.000269
0.000222
0.000339
0.000268
0.000218
0.000257
0.000264
0.000227
0.000274
0.000267
0.001549
0.000727
0.000303
0.000274
0.000270
0.000191
0.000056
0.000176
0.000277
0.000446
0.000363
0.001270
0.000252
0.000217
0.000235
0.000236
0.000242
0.000249
0.000255
0.000226
0.000241
0.000257
0.000255
0.000271
0.000233
0.000258
0.000261
0.000262
0.000269
0.000327
0.000326
0.000213
0.000251
0.000273
0.001466
0.000258
0.000242
0.000170
0.000055
0.000215
0.000223
0.000271
0.000254
0.000357
0.000386
0.000387
0.000270
0.001571
0.000234
0.000282
0.000595
0.000249
0.000240
0.000434
0.000241
0.000225
0.000265
0.000276
0.000269
0.000282
0.000264
0.000255
0.000271
0.000285
0.000454
0.000344
0.000305
0.001592
0.000217
0.000198
0.000056
0.000177
0.000231
0.000250
0.000244
0.000238
0.000248
0.000260
0.000337
0.000393
0.002033
0.000227
0.000238
0.000255
0.000258
0.000261
0.000263
0.000276
0.000238
0.000264
0.000493
0.000400
0.000372
0.001453
0.000244
0.000578
0.000188
0.001767
0.000229
0.000258
0.001536
0.000170
0.000056
0.000443
0.000389
0.000375
0.000248
0.000263
0.000236
0.000245
0.000273
0.000259
0.000227
0.000254
0.000334
0.000436
0.000366
0.000416
0.000223
0.000223
0.001576
0.000229
0.000572
0.001900
0.000293
0.000218
0.001614
0.001959
0.000737
0.000291
0.000238
0.000305
0.000560
0.000215
0.000057
0.000207
0.000247
0.000245
0.000244
0.001425
0.002560
0.000253
0.000198
0.000239
0.001684
0.001880
0.000208
0.000245
0.000427
0.000296
0.000482
0.000301
0.000472
0.000205
0.000239
0.000251
0.000250
0.000281
0.001653
0.001148
0.001428
0.000278
0.000305
0.000243
0.000331
0.000365
0.000056
0.000202
0.000247
0.000226
0.000259
0.000214
0.000248
0.000245
0.000246
0.000262
0.000250
0.000240
0.000302
0.000522
0.000413
0.000271
0.000235
0.000256
0.000290
0.000245
0.000271
0.000249
0.000269
0.001550
0.000438
0.002112
0.000225
0.000265
0.000363
0.000409
0.000403
0.000197
0.000057
0.000220
0.000362
0.000462
0.000317
0.000196
0.000225
0.000248
0.000243
0.000243
0.000240
0.000251
0.000265
0.000259
0.001610
0.001359
0.001230
0.000272
0.000225
0.000248
0.000275
0.000282
0.000279
0.000245
0.000254
0.002207
0.000246
0.000247
0.000305
0.000320
0.000305
0.000223
0.000055
0.000189
0.000445
0.000455
0.000334
0.000231
0.000235
0.000243
0.000265
0.001902
0.001429
0.000223
0.000332
0.000384
0.000415
0.000256
0.000211
0.000260
0.000270
0.000256
0.000280
0.000243
0.000265
0.000497
0.000209
0.000274
0.000266
0.000257
0.000273
0.000282
0.000255
0.000196
0.000056
0.000197
0.000240
0.000261
0.000234
0.000247
0.000277
0.001553
0.001411
0.001330
0.000240
0.000214
0.000249
0.000264
0.000263
0.000244
0.000253
0.000245
0.002112
0.000261
0.000230
0.000255
0.000262
0.000259
0.000267
0.000259
0.000255
0.000271
0.000254
0.000289
0.000253
0.000172
0.000055
0.000177
0.002684
0.001395
0.000213
0.000305
0.000297
0.000229
0.000265
0.000257
0.000241
0.000258
0.000240
0.000232
0.000249
0.000275
0.000250
0.000279
0.000257
0.000254
0.000272
0.000264
0.000281
0.000277
0.000267
0.000249
0.000241
0.000262
0.000272
0.000263
0.000545
0.000104
0.000058
0.001544
0.000245
0.001249
0.000230
0.000216
0.000236
0.000258
0.000256
0.000244
0.000360
0.000311
0.000378
0.000320
0.000217
0.000239
0.002162
0.000248
0.000225
0.000338
0.000463
0.000417
0.000244
0.000217
0.000249
0.000293
0.000229
0.000268
0.000272
0.000275
0.001667
0.001217
0.000056
0.000201
0.000222
0.000316
0.000387
0.000405
0.000232
0.000203
0.000231
0.000251
0.000263
0.000265
0.000247
0.000230
0.000253
0.000258
0.000248
0.000385
0.000614
0.000309
0.000249
0.000216
0.000270
0.000283
0.000270
0.000232
0.000245
0.000274
0.000273
0.000244
0.000354
0.000355
0.000055
0.001125
0.000228
0.000372
0.000419
0.000315
0.000213
0.000240
0.000220
0.000248
0.002305
0.000423
0.000339
0.000211
0.000381
0.000273
0.000263
0.000263
0.000270
0.000251
0.000219
0.000258
0.000375
0.000580
0.000381
0.001876
0.001300
0.000535
0.000540
0.000222
0.000278
0.000200
0.000057
0.000298
0.000283
0.000233
0.000268
0.000224
0.000227
0.000251
0.000253
0.000256
0.000271
0.000240
0.000220
0.000245
0.000264
0.000391
0.000498
0.001847
0.001319
0.000448
0.000534
0.000371
0.000239
0.000230
0.000266
0.002140
0.000558
0.000390
0.000216
0.000278
0.000282
0.000195
0.000056
0.000194
0.000238
0.000260
0.000241
0.000243
0.000367
0.000400
0.000348
0.000250
0.000243
0.000249
0.000246
0.000267
0.002186
0.000286
0.000389
0.000209
0.000253
0.000267
0.000264
0.000246
0.002466
0.000344
0.000210
0.000256
0.000254
0.000254
0.000265
0.000296
0.000274
0.000196
0.000056
0.000201
0.000301
0.000583
0.000373
0.000267
0.000210
0.000232
0.000254
0.000265
0.000256
0.001950
0.000388
0.000279
0.000277
0.000224
0.000268
0.000274
0.000237
0.002219
0.000447
0.000210
0.000269
0.000269
0.000256
0.000258
0.000260
0.000270
0.000264
0.000259
0.000261
0.000186
0.000056
0.000200
0.000246
0.000245
0.000223
0.000248
0.000261
0.000231
0.000247
0.000231
0.002189
0.000225
0.000286
0.000206
0.000433
0.000237
0.000247
0.000271
0.000293
0.000236
0.000281
0.001955
0.000281
0.000335
0.000366
0.000436
0.000416
0.000300
0.000243
0.000250
0.000250
0.000199
0.000056
0.000203
0.000232
0.000243
0.000243
0.000258
0.000338
0.000223
0.002291
0.000239
0.000239
0.000258
0.000253
0.000236
0.000254
0.000306
0.002123
0.000599
0.000218
0.000249
0.000242
0.000261
0.000264
0.000284
0.000266
0.000277
0.000238
0.000283
0.000261
0.000263
0.000285
0.000166
0.000057
0.001829
0.001448
0.000190
0.000226
0.000246
0.000254
0.000250
0.000262
0.000482
0.000281
0.002172
0.000260
0.000235
0.000259
0.000379
0.000517
0.000302
0.000293
0.000220
0.000251
0.000261
0.000254
0.000268
0.000224
0.000259
0.000270
0.000268
0.000256
0.000278
0.000703
0.000338
0.000056
0.000202
0.000226
0.000259
0.000245
0.000264
0.000251
0.000253
0.000245
0.001514
0.002089
0.000584
0.000286
0.000396
0.000694
0.000344
0.000252
0.000240
0.000247
0.000267
0.000256
0.000268
0.000234
0.000246
0.001833
0.000341
0.001388
0.000279
0.000308
0.000260
0.000313
0.000397
0.000056
0.001935
0.000212
0.000233
0.000227
0.000306
0.000350
0.000448
0.000313
0.000287
0.000235
0.000212
0.000256
0.000257
0.000256
0.000269
0.000252
0.000254
0.000267
0.001846
0.000246
0.000218
0.000271
0.000264
0.000280
0.000272
0.000253
0.001531
0.000277
0.000243
0.000281
0.000155
0.000056
0.000190
0.000235
0.000243
0.000244
0.000250
0.000243
0.000261
0.000430
0.000397
0.000309
0.000222
0.000228
0.000291
0.000315
0.000430
0.000316
0.000214
0.000241
0.000262
0.000332
0.000450
0.000522
0.000245
0.000234
0.000248
0.000260
0.000254
0.000268
0.000276
0.000264
0.000202
0.000056
0.001438
0.000413
0.000227
0.001938
0.000265
0.000489
0.000400
0.000301
0.000218
0.000254
0.000265
0.000241
0.000244
0.000248
0.000269
0.000261
0.000480
0.000278
0.000451
0.000319
0.000352
0.000232
0.000246
0.000263
0.000278
0.000263
0.000267
0.000260
0.000389
0.000476
0.001350
0.000055
0.000200
0.000226
0.002076
0.000397
0.000216
0.000260
0.000268
0.000232
0.000264
0.000265
0.000231
0.000234
0.000274
0.000242
0.000271
0.000363
0.000700
0.001754
0.000229
0.000249
0.000254
0.000266
0.000371
0.000437
0.001590
0.000273
0.000366
0.001927
0.000278
0.000236
0.000194
0.000056
0.000208
0.000226
0.000232
0.000240
0.000249
0.000233
0.000256
0.000282
0.000328
0.000283
0.000378
0.000359
0.000339
0.000296
0.000227
0.000275
0.000264
0.000236
0.000273
0.000250
0.000298
0.000288
0.000273
0.000256
0.000264
0.001517
0.000295
0.000387
0.002065
0.000263
0.000144
0.000055
0.000224
0.000239
0.000234
0.000249
0.000481
0.000216
0.000249
0.000343
0.000355
0.000334
0.000296
0.000206
0.000256
0.000266
0.000268
0.000340
0.000388
0.000467
0.000247
0.000397
0.000586
0.000418
0.001551
0.000230
0.000249
0.002021
0.000299
0.000267
0.000222
0.000293
0.000184
0.000056
0.000195
0.000253
0.000224
0.000244
0.000249
0.000267
0.000253
0.000274
0.000251
0.000253
0.001864
0.000292
0.000370
0.000313
0.000429
0.000369
0.000321
0.001529
0.000240
0.000274
0.002112
0.000568
0.000273
0.000239
0.000246
0.000591
0.000196
0.000214
0.000251
0.000281
0.000192
0.000055
0.000309
0.000337
0.000355
0.000296
0.000206
0.000228
0.000263
0.000249
0.000278
0.000276
0.000223
0.000248
0.000254
0.000258
0.000404
0.001459
0.000320
0.000203
0.000293
0.001900
0.000407
0.000261
0.000231
0.000265
0.000245
0.000279
0.000264
0.000267
0.000248
0.000269
0.000196
0.000056
0.000217
0.000509
0.001940
0.000252
0.000259
0.000229
0.000252
0.000282
0.000476
0.000399
0.001314
0.000376
0.002072
0.000372
0.000197
0.000230
0.000274
0.000281
0.000247
0.000247
0.000280
0.000295
0.000252
0.000351
0.000471
0.000399
0.000315
0.002220
0.000663
0.000358
0.000345
0.000056
0.000215
0.000225
0.000236
0.001975
0.000233
0.000212
0.000249
0.000242
0.000242
0.000256
0.000242
0.000267
0.000249
0.000277
0.000421
0.001506
0.000237
0.000244
0.000270
0.000261
0.000227
0.000259
0.000276
0.000249
0.000316
0.000469
0.000485
0.000217
0.001601
0.000287
0.000163
0.000057
0.000201
0.000209
0.000252
0.000233
0.000250
0.000255
0.000248
0.000248
0.000258
0.000361
0.000386
0.001417
0.000239
0.000210
0.000244
0.000267
0.000253
0.000259
0.000491
0.000292
0.000676
0.000179
0.000213
0.001580
0.000235
0.000254
0.000295
0.000275
0.000304
0.000215
0.000192
0.000056
0.000216
0.000224
0.000266
0.000271
0.000252
0.000240
0.000233
0.000240
0.000261
0.000259
0.000232
0.000261
0.000250
0.001495
0.000363
0.000206
0.000245
0.000268
0.000285
0.000312
0.000381
0.000271
0.000225
0.000261
0.000270
0.000259
0.000261
0.001415
0.000280
0.000226
0.000189
0.000056
0.000191
0.000227
0.000259
0.000262
0.000253
0.000242
0.000247
0.000259
0.000219
0.000266
0.000247
0.000253
0.000226
0.000339
0.000338
0.000421
0.000206
0.000239
0.001634
0.000241
0.000229
0.000265
0.000266
0.000312
0.000379
0.000364
0.000455
0.000255
0.000251
0.001608
0.000180
0.000055
0.000341
0.000330
0.000395
0.000276
0.000216
0.000217
0.000242
0.000277
0.000254
0.000240
0.000248
0.000232
0.001470
0.000301
0.000303
0.000210
0.000253
0.000257
0.000264
0.000264
0.000254
0.000237
0.000266
0.000265
0.000316
0.000375
0.000432
0.000356
0.000238
0.000255
0.000185
0.000055
0.000214
0.000252
0.000489
0.000325
0.000405
0.000199
0.000242
0.000250
0.000255
0.000258
0.000240
0.000225
0.000254
0.000254
0.001262
0.000302
0.000221
0.000256
0.000265
0.000268
0.000239
0.000262
0.000257
0.000258
0.000256
0.000254
0.000384
0.000641
0.000439
0.000222
0.000186
0.000055
0.000204
0.001558
0.000312
0.000328
0.000429
0.000349
0.000210
0.000264
0.000256
0.000268
0.000221
0.000270
0.000265
0.000268
0.000266
0.001529
0.000251
0.000283
0.000265
0.000249
0.000262
0.000253
0.000264
0.000266
0.000260
0.000293
0.000469
0.000308
0.000350
0.000252
0.000176
0.000056
0.000206
0.000251
0.000230
0.001721
0.000388
0.000292
0.000205
0.000239
0.000256
0.000265
0.000284
0.000252
0.000245
0.000266
0.000230
0.000285
0.000394
0.001334
0.000232
0.000231
0.001505
0.000544
0.000334
0.000393
0.000372
0.000210
0.000262
0.000460
0.000240
0.000255
0.000200
0.000056
0.000293
0.000209
0.000247
0.000246
0.000248
0.000253
0.000242
0.000256
0.000255
0.000236
0.000253
0.000257
0.000378
0.000454
0.001657
0.001589
0.000262
0.000549
0.000326
0.000210
0.000255
0.000231
0.000256
0.000265
0.000248
0.000270
0.000260
0.000265
0.001526
0.000329
0.000160
0.000057
0.000208
0.000355
0.000353
0.000329
0.000249
0.000199
0.000248
0.000474
0.000373
0.000322
0.002163
0.000319
0.000692
0.000521
0.000452
0.000267
0.000334
0.000397
0.000326
0.000283
0.000377
0.000240
0.001555
0.000539
0.000222
0.000261
0.000247
0.000246
0.000270
0.000270
0.000193
0.000055
0.000209
0.000248
0.000254
0.000250
0.000243
0.001666
0.000876
0.000998
0.000216
0.000222
0.000266
0.000251
0.000260
0.000264
0.000250
0.000249
0.000252
0.000269
0.000265
0.000275
0.001436
0.000315
0.000263
0.000219
0.000235
0.000258
0.000262
0.000273
0.000269
0.000285
0.001908
0.000056
0.000194
0.000224
0.001569
0.000842
0.000392
0.000338
0.000243
0.000221
0.000266
0.000255
0.000236
0.000254
0.000244
0.001981
0.000486
0.000214
0.000238
0.000258
0.000270
0.000254
0.000194
