0.000083
0.018564
0.002924
0.000305
0.000259
0.000290
0.000330
0.000226
0.000330
0.000280
0.000252
0.000327
0.000500
0.000488
0.000355
0.000409
0.000270
0.000333
0.000353
0.000422
0.001837
0.000387
0.000707
0.000273
0.000243
0.000306
0.000315
0.000309
0.000423
0.000371
0.000534
0.000288
0.000057
0.000208
0.000265
0.000273
0.000280
0.000253
0.000251
0.000277
0.000286
0.000272
0.000298
0.000394
0.000439
0.000310
0.000251
0.000374
0.000368
0.000351
0.000248
0.000253
0.001702
0.000308
0.000266
0.000443
0.000245
0.000280
0.000284
0.000284
0.000299
0.000273
0.000351
0.000382
0.000055
0.000255
0.000259
0.000260
0.000265
0.000246
0.000250
0.000265
0.000253
0.000289
0.001669
0.000221
0.000239
0.000273
0.000268
0.000279
0.000248
0.000267
0.000256
0.000350
0.001795
0.000233
0.000283
0.000447
0.000444
0.000373
0.000230
0.000277
0.000475
0.000523
0.000745
0.000184
0.000056
0.000242
0.000243
0.000254
0.000242
0.000299
0.000280
0.000255
0.000582
0.000383
0.000248
0.000250
0.000257
0.000236
0.000251
0.000256
0.000260
0.000239
0.000271
0.000302
0.000325
0.001666
0.000285
0.000251
0.000414
0.000289
0.000731
0.000835
0.000321
0.000354
0.000238
0.000194
0.000055
0.000236
0.000249
0.000296
0.000210
0.000304
0.000211
0.000259
0.000500
0.001437
0.000216
0.000251
0.000242
0.000257
0.000256
0.000262
0.000286
0.000267
0.000804
0.001392
0.000298
0.000242
0.000414
0.000243
0.000253
0.000254
0.000251
0.000277
0.000266
0.000262
0.000266
0.000196
0.000057
0.000198
0.000247
0.000249
0.000264
0.000233
0.000244
0.000240
0.000259
0.000237
0.000252
0.001627
0.000260
0.000234
0.000239
0.000261
0.000245
0.000248
0.000262
0.000242
0.000254
0.000295
0.001630
0.000289
0.000256
0.000438
0.000253
0.000273
0.000243
0.000261
0.000272
0.000196
0.000056
0.000211
0.000231
0.000252
0.000242
0.000241
0.000246
0.000264
0.000233
0.000262
0.000262
0.000269
0.000234
0.000261
0.000276
0.001632
0.000278
0.000288
0.000217
0.000261
0.000275
0.000284
0.000218
0.000246
0.000263
0.001772
0.000409
0.000333
0.000381
0.000232
0.000283
0.000198
0.000056
0.000233
0.000240
0.000243
0.000270
0.000258
0.000260
0.000275
0.000384
0.000418
0.000446
0.000195
0.000248
0.000253
0.000251
0.001557
0.000531
0.000314
0.000424
0.000313
0.000243
0.000256
0.000285
0.000270
0.001779
0.000459
0.000472
0.000243
0.000260
0.000235
0.000268
0.000184
0.000055
0.000191
0.000243
0.000250
0.000269
0.000341
0.000465
0.000342
0.000287
0.000211
0.000267
0.000251
0.000234
0.000257
0.001756
0.000428
0.000304
0.000227
0.000250
0.000284
0.000283
0.000233
0.000259
0.001827
0.000320
0.000325
0.000386
0.000236
0.000261
0.000271
0.000395
0.000329
0.000055
0.000211
0.000378
0.000388
0.000253
0.000260
0.000249
0.000248
0.000259
0.000263
0.000210
0.000233
0.000257
0.001547
0.000338
0.000334
0.000224
0.000253
0.000257
0.000247
0.000303
0.000344
0.000239
0.000241
0.001836
0.000236
0.000489
0.000243
0.000265
0.000252
0.000270
0.000268
0.000056
0.000403
0.000500
0.000613
0.000210
0.000229
0.000271
0.000232
0.000223
0.000259
0.000254
0.000257
0.001690
0.000249
0.000443
0.000370
0.000219
0.000245
0.000224
0.000255
0.000255
0.000255
0.001858
0.000229
0.000469
0.001929
0.000468
0.000346
0.000249
0.000253
0.000265
0.000187
0.000055
0.000218
0.000237
0.000245
0.000240
0.000260
0.001614
0.000257
0.000232
0.000251
0.000269
0.000232
0.000258
0.000254
0.000236
0.000278
0.000394
0.000660
0.000239
0.000230
0.000267
0.000285
0.000232
0.000251
0.000430
0.000446
0.000289
0.000411
0.000480
0.000408
0.000268
0.000210
0.000055
0.000225
0.000236
0.000255
0.000252
0.000242
0.000236
0.000248
0.000474
0.001747
0.000315
0.000224
0.000239
0.000248
0.000241
0.000259
0.000356
0.000357
0.000468
0.000336
0.000246
0.000265
0.000300
0.000283
0.000249
0.000278
0.000434
0.000339
0.000509
0.000512
0.000505
0.000165
0.000056
0.000222
0.000254
0.000241
0.000237
0.000239
0.000234
0.000247
0.000259
0.000232
0.000313
0.000315
0.000479
0.001351
0.000238
0.000246
0.000245
0.000255
0.000249
0.000248
0.000252
0.000348
0.000382
0.000419
0.000263
0.000262
0.000260
0.000255
0.000272
0.000264
0.000265
0.000382
0.000056
0.000200
0.000237
0.000220
0.000304
0.000499
0.000434
0.000243
0.000256
0.000231
0.000260
0.000258
0.000230
0.000293
0.000249
0.000262
0.000460
0.000417
0.001649
0.000276
0.000233
0.000264
0.000261
0.000258
0.000242
0.000280
0.000478
0.000430
0.000408
0.000338
0.000239
0.000199
0.000057
0.000225
0.000436
0.000235
0.000214
0.000287
0.000226
0.000314
0.000530
0.000459
0.000201
0.000230
0.000276
0.000260
0.000238
0.000518
0.000340
0.000243
0.000293
0.000392
0.001592
0.000276
0.000240
0.000518
0.000246
0.000278
0.000281
0.000250
0.000548
0.000352
0.000369
0.000275
0.000056
0.000199
0.000238
0.000232
0.000244
0.000418
0.000306
0.000289
0.000227
0.000375
0.000537
0.000335
0.000256
0.000241
0.000243
0.000261
0.000262
0.000257
0.000258
0.000228
0.000361
0.000279
0.000395
0.001780
0.000243
0.000260
0.000252
0.000278
0.000352
0.000438
0.000687
0.000423
0.000055
0.000215
0.000333
0.000299
0.000421
0.000391
0.000203
0.000284
0.000359
0.000444
0.000390
0.000263
0.000240
0.000235
0.000275
0.000261
0.000233
0.000263
0.000268
0.000266
0.000256
0.000268
0.000477
0.000589
0.001339
0.000323
0.000433
0.000421
0.000232
0.000497
0.000425
0.000258
0.000055
0.000224
0.000381
0.000279
0.000217
0.000226
0.000239
0.000413
0.000239
0.000234
0.000455
0.000330
0.000463
0.000229
0.000257
0.000267
0.000251
0.000343
0.000394
0.000344
0.000254
0.000239
0.000445
0.000563
0.001689
0.000226
0.000434
0.000320
0.000215
0.000322
0.000428
0.000310
0.000055
0.000219
0.000231
0.000243
0.000259
0.000246
0.000241
0.000243
0.000327
0.000459
0.000314
0.000388
0.000414
0.000261
0.000582
0.000247
0.000241
0.000272
0.000263
0.000229
0.000342
0.000236
0.000242
0.000273
0.000477
0.000424
0.001652
0.000264
0.000244
0.000249
0.000276
0.000192
0.000072
0.000426
0.000346
0.000322
0.000220
0.000246
0.000261
0.000243
0.000239
0.000273
0.000236
0.000222
0.000263
0.000434
0.000494
0.000465
0.000210
0.000247
0.000256
0.000339
0.000378
0.000381
0.000337
0.000359
0.000395
0.000247
0.000264
0.000263
0.000275
0.001785
0.000247
0.000205
0.000056
0.000213
0.000218
0.000258
0.000296
0.000325
0.000545
0.000324
0.000212
0.000286
0.000234
0.000253
0.000249
0.000517
0.000455
0.000484
0.000268
0.000259
0.000265
0.000429
0.000461
0.000353
0.000402
0.000466
0.000478
0.000233
0.000272
0.000251
0.000242
0.000266
0.001715
0.000403
0.000057
0.000243
0.000325
0.000208
0.000239
0.000253
0.000251
0.000237
0.000493
0.000376
0.000311
0.000290
0.000271
0.000356
0.000738
0.000254
0.000230
0.000255
0.000257
0.000251
0.000266
0.000271
0.000259
0.000247
0.000263
0.000320
0.000420
0.000350
0.000351
0.000251
0.000237
0.000184
0.000055
0.000520
0.000281
0.000407
0.000260
0.000222
0.000231
0.000245
0.000257
0.000257
0.000204
0.000252
0.000281
0.000291
0.000429
0.000471
0.000474
0.000321
0.000303
0.000367
0.000347
0.000295
0.000246
0.000246
0.000258
0.001742
0.000262
0.001728
0.000928
0.000379
0.000363
0.000153
0.000056
0.000226
0.000237
0.000236
0.000243
0.000272
0.000240
0.000250
0.000253
0.000251
0.000337
0.000352
0.000403
0.000343
0.000376
0.000257
0.000252
0.000254
0.000289
0.000224
0.000251
0.000256
0.000259
0.001813
0.000239
0.000266
0.000256
0.000273
0.000267
0.001867
0.000541
0.000240
0.000056
0.000237
0.000204
0.000242
0.000241
0.000253
0.000251
0.000245
0.000250
0.000255
0.000501
0.000374
0.000374
0.000383
0.000234
0.000241
0.000247
0.000328
0.000437
0.000368
0.000248
0.001793
0.000265
0.000235
0.000246
0.000265
0.000270
0.000240
0.000257
0.000330
0.000299
0.000397
0.000056
0.000227
0.000221
0.000241
0.000269
0.000257
0.000221
0.000255
0.000256
0.000259
0.000233
0.000244
0.000285
0.000390
0.000389
0.000318
0.000297
0.000439
0.000247
0.000249
0.000254
0.000260
0.000266
0.000268
0.000259
0.000277
0.001786
0.000252
0.000258
0.000263
0.000225
0.000200
0.000055
0.000299
0.000343
0.000227
0.000222
0.000239
0.000243
0.000230
0.000256
0.000250
0.000220
0.000231
0.000265
0.000260
0.000385
0.000383
0.000351
0.000296
0.000244
0.000243
0.000259
0.000269
0.000259
0.000247
0.000270
0.000240
0.000271
0.000307
0.001625
0.000277
0.000237
0.000189
0.000056
0.000206
0.000237
0.000252
0.000254
0.000360
0.000453
0.000268
0.000332
0.000238
0.000249
0.000267
0.000233
0.000263
0.000235
0.000260
0.000257
0.000246
0.000258
0.000255
0.000262
0.000266
0.000269
0.000250
0.000228
0.000262
0.000264
0.000278
0.000261
0.000259
0.000257
0.000203
0.000056
0.000195
0.000236
0.000259
0.000276
0.000227
0.000238
0.000242
0.000259
0.000278
0.000250
0.000231
0.000243
0.000256
0.000250
0.000289
0.000239
0.000252
0.000252
0.000301
0.000257
0.000268
0.000320
0.000266
0.000227
0.000304
0.000244
0.000275
0.000250
0.000251
0.000451
0.000659
0.000056
0.000240
0.000263
0.000228
0.000225
0.000244
0.000254
0.000242
0.000244
0.000256
0.000240
0.000271
0.000282
0.000490
0.000453
0.001570
0.000219
0.000505
0.000229
0.000252
0.000456
0.000454
0.000367
0.000227
0.000286
0.000246
0.000257
0.000284
0.000250
0.000312
0.000291
0.000155
0.000056
0.000328
0.000443
0.000339
0.000332
0.000213
0.000277
0.000226
0.000242
0.000232
0.000247
0.000256
0.000256
0.000231
0.000364
0.000241
0.000613
0.000304
0.001784
0.000237
0.000256
0.000385
0.000389
0.000464
0.000258
0.000325
0.000318
0.000302
0.000226
0.000234
0.000255
0.000193
0.000055
0.000215
0.000233
0.000232
0.000282
0.000339
0.000458
0.000357
0.000257
0.000248
0.000220
0.000248
0.000271
0.000259
0.000265
0.000246
0.000276
0.000288
0.000493
0.000324
0.000451
0.000228
0.001743
0.000324
0.000529
0.000454
0.000498
0.000324
0.000217
0.000261
0.000268
0.000448
0.000056
0.000210
0.000272
0.000219
0.000270
0.000435
0.000514
0.000322
0.000228
0.000267
0.000299
0.000205
0.000258
0.000255
0.000296
0.000309
0.000237
0.000239
0.000320
0.000490
0.000372
0.000503
0.001841
0.000251
0.000417
0.000556
0.000324
0.000228
0.000272
0.000284
0.000265
0.000196
0.000055
0.000213
0.000337
0.000361
0.000373
0.000415
0.000221
0.000381
0.000211
0.000246
0.000260
0.000269
0.000228
0.000256
0.000245
0.000253
0.000263
0.000311
0.000382
0.000501
0.000332
0.000330
0.000242
0.000255
0.001711
0.000568
0.000340
0.000719
0.000220
0.000273
0.000310
0.000155
0.000055
0.000201
0.000237
0.000349
0.000236
0.000260
0.000343
0.000447
0.000315
0.000232
0.000530
0.000222
0.000257
0.000258
0.000277
0.000277
0.000264
0.000207
0.000341
0.000517
0.000404
0.000253
0.000242
0.000259
0.000246
0.000262
0.000270
0.000233
0.000259
0.000271
0.000282
0.000179
0.000056
0.000282
0.000332
0.000214
0.000260
0.000248
0.000259
0.000237
0.000292
0.000233
0.000250
0.000283
0.000334
0.000413
0.000382
0.000363
0.000273
0.000228
0.000235
0.000262
0.000271
0.000288
0.000258
0.000236
0.000255
0.000282
0.000290
0.000445
0.000359
0.000367
0.000227
0.000175
0.000055
0.000192
0.000223
0.000285
0.000243
0.000234
0.000268
0.000266
0.000232
0.000499
0.000209
0.000260
0.000259
0.000237
0.000264
0.000275
0.000291
0.000243
0.000354
0.000214
0.000246
0.000252
0.000269
0.000257
0.000265
0.000277
0.000259
0.000260
0.000262
0.000254
0.000494
0.000164
0.000055
0.000192
0.000231
0.000252
0.000296
0.000199
0.000242
0.000362
0.000406
0.000253
0.000226
0.000245
0.000258
0.000237
0.000241
0.000544
0.001702
0.000236
0.000278
0.000273
0.000325
0.000408
0.000366
0.000360
0.000381
0.000406
0.000407
0.000243
0.000276
0.000266
0.000292
0.001388
0.000055
0.000394
0.000303
0.000262
0.000222
0.000239
0.000250
0.000236
0.000255
0.000242
0.000274
0.000244
0.000271
0.000242
0.000330
0.000490
0.001643
0.000236
0.000237
0.000238
0.000282
0.000219
0.000322
0.000294
0.000428
0.000260
0.000365
0.000220
0.000269
0.000279
0.000257
0.000188
0.000056
0.001216
0.000557
0.000290
0.000280
0.000240
0.000223
0.000235
0.000241
0.000494
0.000215
0.000243
0.000246
0.000405
0.000532
0.000313
0.000356
0.000248
0.000243
0.000315
0.000366
0.000276
0.000257
0.000269
0.000238
0.000270
0.000539
0.000529
0.000323
0.000261
0.000262
0.000169
0.000055
0.000216
0.000228
0.000240
0.000264
0.001409
0.000361
0.000207
0.000258
0.000259
0.000229
0.000253
0.000254
0.000240
0.000262
0.000270
0.000316
0.000485
0.000571
0.000268
0.001743
0.000256
0.000299
0.000268
0.000450
0.000552
0.000389
0.000252
0.000248
0.000264
0.000268
0.000201
0.000056
0.000226
0.000248
0.000237
0.000336
0.001233
0.000238
0.000254
0.000260
0.000239
0.000239
0.000239
0.000252
0.000277
0.000247
0.000269
0.000293
0.000448
0.000412
0.000319
0.000266
0.000270
0.000271
0.000247
0.000236
0.000286
0.000263
0.000242
0.000276
0.000269
0.000326
0.000616
0.000056
0.000229
0.000245
0.000234
0.000263
0.000266
0.000242
0.000229
0.000263
0.000277
0.000274
0.001406
0.000228
0.000239
0.000253
0.000246
0.000249
0.000285
0.000253
0.000273
0.000243
0.000308
0.000465
0.000511
0.000318
0.000228
0.000276
0.001760
0.000264
0.000264
0.000318
0.000464
0.000056
0.000212
0.000402
0.000450
0.000502
0.000521
0.000584
0.001456
0.000410
0.000522
0.000655
0.000548
0.000795
0.000418
0.000612
0.000576
0.001890
0.000464
0.000381
0.000391
0.000317
0.000227
0.000271
0.000286
0.000269
0.000264
0.000282
0.000290
0.000289
0.000266
0.000280
0.001366
0.000055
0.000225
0.000232
0.000247
0.000236
0.000262
0.000257
0.000234
0.000239
0.000253
0.000232
0.000236
0.000244
0.000253
0.000263
0.000262
0.000266
0.001807
0.000258
0.000273
0.000238
0.000254
0.000275
0.000265
0.000311
0.000395
0.000385
0.000353
0.000230
0.000272
0.000283
0.000206
0.000056
0.000214
0.001350
0.000335
0.000278
0.000247
0.000240
0.000244
0.000234
0.000233
0.000240
0.000218
0.000244
0.000236
0.000505
0.000366
0.000303
0.000242
0.001821
0.000354
0.000251
0.000227
0.000273
0.000254
0.000260
0.000277
0.000286
0.000265
0.000260
0.000260
0.000317
0.000208
0.000055
0.000191
0.000246
0.000250
0.001440
0.000217
0.000244
0.000257
0.000246
0.000238
0.000268
0.000250
0.000241
0.000249
0.000283
0.000238
0.000254
0.000264
0.000269
0.000262
0.000257
0.000264
0.001771
0.000265
0.001777
0.000249
0.000262
0.000252
0.000272
0.000269
0.000276
0.000199
0.000055
0.000198
0.000262
0.001327
0.000230
0.000245
0.000254
0.000259
0.000248
0.000246
0.000255
0.000255
0.000244
0.000255
0.000262
0.000255
0.000285
0.000238
0.000283
0.000293
0.000231
0.001883
0.000244
0.001828
0.000229
0.000268
0.000270
0.000234
0.000246
0.000253
0.000269
0.000204
0.000075
0.001437
0.000215
0.000215
0.000260
0.000234
0.000238
0.000370
0.000282
0.000242
0.000254
0.000267
0.000241
0.000274
0.000306
0.000520
0.000185
0.000242
0.000262
0.000271
0.000250
0.000273
0.000345
0.000228
0.000245
0.000294
0.000255
0.000269
0.000484
0.000486
0.000372
0.000199
0.000055
0.000227
0.000237
0.000260
0.000304
0.000368
0.000271
0.001644
0.000333
0.000283
0.000273
0.000244
0.000283
0.000259
0.000264
0.000301
0.000306
0.000434
0.000565
0.000298
0.000258
0.000301
0.000274
0.000265
0.000267
0.000334
0.000269
0.000253
0.000280
0.000234
0.000316
0.000425
0.000055
0.000246
0.000467
0.000277
0.000257
0.000250
0.000234
0.000217
0.000251
0.000257
0.000272
0.001507
0.000219
0.000223
0.000253
0.000245
0.000285
0.000282
0.000231
0.000265
0.000269
0.000259
0.000391
0.000501
0.000331
0.000272
0.000291
0.000262
0.000259
0.000237
0.000309
0.000170
0.000055
0.000193
0.000236
0.000361
0.000404
0.000336
0.000288
0.000222
0.000247
0.000251
0.000253
0.000230
0.000248
0.000264
0.000266
0.000241
0.000318
0.000345
0.001179
0.000238
0.000257
0.000278
0.000426
0.000168
0.000422
0.000263
0.000320
0.000569
0.000359
0.000376
0.000239
0.000182
0.000056
0.000203
0.000247
0.000264
0.000256
0.000255
0.000247
0.000331
0.000448
0.000441
0.000253
0.000352
0.000403
0.000401
0.000351
0.000252
0.000249
0.000232
0.000259
0.000394
0.000484
0.001248
0.000221
0.000279
0.000270
0.000241
0.000233
0.000268
0.000320
0.000408
0.000463
0.000233
0.000056
0.000205
0.000240
0.000259
0.000241
0.000238
0.000246
0.000243
0.000263
0.000297
0.000510
0.000279
0.000369
0.000232
0.000247
0.000248
0.000263
0.000244
0.000265
0.000262
0.000270
0.000419
0.000256
0.000360
0.000522
0.000239
0.000238
0.000272
0.000267
0.000253
0.000336
0.000160
0.000055
0.000325
0.000309
0.000360
0.000324
0.000500
0.000332
0.000224
0.000245
0.000242
0.000273
0.000253
0.000265
0.000237
0.000251
0.000240
0.000228
0.000267
0.000357
0.000523
0.000334
0.000211
0.000278
0.000242
0.000263
0.000247
0.000287
0.000264
0.000279
0.000265
0.000268
0.000258
0.000055
0.000250
0.000366
0.000220
0.000267
0.000227
0.000261
0.000228
0.000250
0.000267
0.000258
0.000246
0.000241
0.000412
0.000361
0.000446
0.000303
0.000227
0.000245
0.000257
0.000265
0.000258
0.000258
0.000262
0.000271
0.000269
0.000278
0.000450
0.000595
0.000404
0.000253
0.000173
0.000055
0.000389
0.000196
0.000226
0.000253
0.000246
0.000245
0.000234
0.000250
0.000263
0.000256
0.000224
0.000244
0.000273
0.000222
0.000238
0.000272
0.000254
0.000259
0.000296
0.000242
0.000263
0.000264
0.000259
0.000267
0.000265
0.000239
0.000261
0.000295
0.000244
0.000277
0.000200
0.000056
0.000189
0.000241
0.000246
0.000244
0.000230
0.000255
0.000266
0.000238
0.000266
0.000266
0.000241
0.000247
0.000247
0.000400
0.000249
0.000290
0.000250
0.000265
0.000252
0.000282
0.000274
0.000233
0.000251
0.000245
0.000272
0.000277
0.000262
0.000247
0.000268
0.000261
0.000208
0.000055
0.000215
0.000358
0.000365
0.000284
0.000291
0.000262
0.000272
0.000256
0.000217
0.000252
0.000273
0.000236
0.000250
0.000238
0.000260
0.000276
0.000244
0.000267
0.000246
0.000269
0.000274
0.000264
0.000277
0.000256
0.000286
0.000233
0.000262
0.000268
0.000274
0.000252
0.000203
0.000055
0.000182
0.000229
0.000266
0.000262
0.000267
0.000430
0.000213
0.000292
0.000236
0.000472
0.000532
0.000221
0.000227
0.000246
0.000284
0.000257
0.000236
0.000264
0.000262
0.000276
0.000263
0.000257
0.000258
0.000260
0.000528
0.000519
0.000268
0.000303
0.000260
0.000263
0.000195
0.000055
0.000226
0.000223
0.000244
0.000257
0.000413
0.000527
0.000338
0.000392
0.000202
0.000247
0.000251
0.000256
0.000249
0.000251
0.000264
0.000263
0.000270
0.000235
0.000642
0.000413
0.000263
0.000252
0.000260
0.000280
0.000277
0.000258
0.000265
0.000284
0.000230
0.000324
0.000298
0.000055
0.000257
0.000236
0.000236
0.000238
0.000256
0.000269
0.000212
0.000245
0.000242
0.000263
0.000246
0.000272
0.000224
0.000401
0.000554
0.000394
0.000240
0.000257
0.000267
0.000245
0.000266
0.000287
0.000484
0.000213
0.000266
0.000637
0.000386
0.000470
0.000249
0.000254
0.000187
0.000056
0.000210
0.000239
0.000237
0.000241
0.000255
0.000262
0.000301
0.000429
0.000589
0.000429
0.000215
0.000259
0.000279
0.000274
0.000257
0.000248
0.000235
0.000247
0.000317
0.000223
0.000486
0.000739
0.000287
0.000210
0.000355
0.000374
0.000498
0.000238
0.000263
0.000387
0.000468
0.000055
0.000273
0.000234
0.000436
0.000227
0.000227
0.000256
0.000258
0.000262
0.000227
0.000245
0.000301
0.000364
0.000354
0.000352
0.000222
0.000259
0.000265
0.000243
0.000268
0.000278
0.000271
0.000258
0.000248
0.000272
0.000323
0.000488
0.000484
0.000223
0.000269
0.000267
0.000199
0.000055
0.000234
0.000252
0.000228
0.000244
0.000250
0.000245
0.000357
0.000418
0.000441
0.000256
0.000376
0.000229
0.000254
0.000262
0.000257
0.000234
0.000257
0.000262
0.000312
0.000373
0.000521
0.000298
0.000477
0.000262
0.000383
0.000425
0.000381
0.000257
0.000249
0.000296
0.000352
0.000055
0.000222
0.000279
0.000214
0.000258
0.000254
0.000262
0.000244
0.000248
0.000275
0.000244
0.000231
0.000422
0.000413
0.000350
0.000368
0.000229
0.000265
0.000266
0.000266
0.000232
0.000250
0.000254
0.000264
0.000278
0.000275
0.000316
0.000578
0.000404
0.000251
0.000268
0.000188
0.000056
0.000222
0.000241
0.000277
0.000248
0.000242
0.000346
0.000497
0.000479
0.000343
0.000693
0.000259
0.000220
0.000240
0.000262
0.000245
0.000266
0.000281
0.000272
0.000470
0.000456
0.001482
0.000315
0.000264
0.000286
0.000264
0.000256
0.000333
0.000468
0.000329
0.000339
0.000188
0.000056
0.000209
0.000234
0.000242
0.000281
0.000212
0.000250
0.000303
0.000225
0.000249
0.000315
0.000355
0.000357
0.000271
0.000353
0.000378
0.000344
0.000250
0.000250
0.000270
0.000258
0.000242
0.000251
0.000307
0.000222
0.000325
0.000435
0.000450
0.000262
0.000261
0.000266
0.000185
0.000056
0.000239
0.000242
0.000255
0.000258
0.000243
0.000230
0.000478
0.000214
0.000230
0.000253
0.000247
0.000248
0.000263
0.000254
0.000255
0.000265
0.000262
0.000287
0.000252
0.000248
0.000286
0.000281
0.000281
0.000243
0.000264
0.000285
0.000266
0.000263
0.000263
0.000272
0.000176
0.000056
0.000238
0.000246
0.000266
0.000443
0.000383
0.000252
0.000238
0.000261
0.000241
0.000254
0.000245
0.000253
0.000264
0.000263
0.000236
0.000243
0.000268
0.000251
0.000273
0.000404
0.000399
0.000386
0.000226
0.000262
0.000266
0.000255
0.000264
0.000258
0.000269
0.000279
0.000200
0.000056
0.000398
0.000394
0.000425
0.000212
0.000251
0.000251
0.000416
0.000220
0.000231
0.000259
0.000252
0.000292
0.000344
0.000496
0.001816
0.000256
0.000241
0.000248
0.000279
0.000241
0.000346
0.000447
0.000583
0.000317
0.000233
0.000261
0.000273
0.000432
0.000273
0.000280
0.000168
0.000056
0.000237
0.000359
0.000342
0.000328
0.000497
0.000205
0.000237
0.000245
0.000259
0.000234
0.000261
0.000246
0.000260
0.000324
0.000420
0.000456
0.000231
0.000244
0.000256
0.000264
0.000266
0.000306
0.000240
0.000280
0.000275
0.000441
0.000488
0.000435
0.000458
0.000227
0.000208
0.000056
0.000188
0.000240
0.000257
0.000232
0.000246
0.000249
0.000264
0.000319
0.000354
0.000408
0.000360
0.000335
0.000218
0.000249
0.000264
0.000290
0.000293
0.000242
0.000275
0.000276
0.000233
0.000293
0.000480
0.000390
0.000281
0.000251
0.000269
0.000429
0.000414
0.000294
0.000194
0.000056
0.000219
0.000232
0.000422
0.000346
0.000372
0.000212
0.000234
0.000253
0.000267
0.000260
0.000255
0.000249
0.000228
0.000262
0.000255
0.000362
0.000368
0.000324
0.000293
0.000349
0.000492
0.000222
0.000280
0.000278
0.000298
0.000286
0.000255
0.000258
0.000488
0.000542
0.000161
0.000070
0.000185
0.000234
0.000247
0.000251
0.000243
0.000480
0.000212
0.000255
0.000297
0.000271
0.000512
0.000596
0.000224
0.000228
0.000244
0.000245
0.000261
0.000264
0.000241
0.000248
0.000286
0.000247
0.000421
0.000380
0.000332
0.000408
0.000293
0.000307
0.000321
0.000249
0.000183
0.000054
0.000193
0.000236
0.000260
0.000478
0.000393
0.000226
0.000262
0.000224
0.000257
0.000248
0.000251
0.000262
0.000261
0.000235
0.000262
0.000260
0.000247
0.000242
0.000275
0.000400
0.000486
0.000397
0.000227
0.000243
0.000281
0.000275
0.000260
0.000257
0.000269
0.000263
0.000195
0.000055
0.000317
0.000337
0.000449
0.000244
0.000235
0.000235
0.000312
0.000459
0.000282
0.000215
0.000249
0.000271
0.000263
0.000499
0.000432
0.000238
0.000233
0.000252
0.000239
0.000265
0.000268
0.000263
0.000265
0.000274
0.000259
0.000287
0.000398
0.000436
0.000294
0.000246
0.000196
0.000056
0.000185
0.000247
0.000247
0.000255
0.000251
0.000261
0.000227
0.000273
0.000250
0.000234
0.000266
0.000238
0.000292
0.001428
0.000245
0.000239
0.000261
0.000237
0.000280
0.000279
0.000262
0.000240
0.000270
0.000260
0.000272
0.000274
0.000263
0.000272
0.000260
0.000265
0.000196
0.000055
0.000213
0.000234
0.000254
0.000266
0.000219
0.000241
0.000263
0.000255
0.000229
0.000249
0.000247
0.000265
0.000254
0.000257
0.000255
0.000255
0.000247
0.000260
0.000274
0.000252
0.000258
0.000264
0.000243
0.000251
0.001300
0.000287
0.000579
0.000441
0.000313
0.000240
0.000186
0.000056
0.000227
0.000236
0.000239
0.000275
0.000398
0.000231
0.000245
0.000241
0.000249
0.000376
0.000429
0.000350
0.000231
0.000233
0.000261
0.000259
0.000257
0.000270
0.000245
0.000255
0.000264
0.000253
0.000261
0.000525
0.000421
0.000435
0.000235
0.000259
0.001359
0.000257
0.000185
0.000055
0.000338
0.000464
0.000388
0.000176
0.000214
0.000221
0.000232
0.000250
0.000259
0.000260
0.000241
0.000261
0.000298
0.000321
0.000514
0.000322
0.000371
0.000216
0.000252
0.000256
0.000262
0.000288
0.000265
0.000251
0.000266
0.000259
0.000289
0.000579
0.000396
0.000362
0.000157
0.000056
0.000214
0.000241
0.001252
0.000455
0.000251
0.000490
0.000371
0.000489
0.000261
0.000347
0.000215
0.000238
0.000276
0.000235
0.000251
0.000269
0.000313
0.000511
0.000383
0.000394
0.000264
0.000243
0.000263
0.000493
0.000233
0.000267
0.000259
0.000275
0.000281
0.000572
0.000308
0.000055
0.000376
0.000312
0.000241
0.000228
0.001620
0.000409
0.000296
0.000247
0.000242
0.000255
0.000227
0.000239
0.000243
0.000270
0.000247
0.000278
0.000226
0.000264
0.000459
0.000302
0.000486
0.000243
0.000261
0.000251
0.000260
0.000273
0.000274
0.000238
0.000272
0.000268
0.000200
0.000056
0.000368
0.000345
0.000218
0.000234
0.000255
0.000250
0.000251
0.000237
0.000238
0.000229
0.001401
0.000457
0.000286
0.000237
0.000249
0.000258
0.000271
0.000262
0.000235
0.000302
0.000242
0.000251
0.000266
0.000396
0.000372
0.000509
0.000246
0.000262
0.000280
0.000279
0.000171
0.000055
0.000217
0.000421
0.000220
0.000268
0.000333
0.000454
0.000322
0.000334
0.000462
0.000208
0.000229
0.000250
0.000264
0.000266
0.000253
0.001468
0.000308
0.000285
0.000242
0.000272
0.000301
0.000245
0.000238
0.000258
0.000252
0.000271
0.000465
0.000424
0.000302
0.000276
0.000152
0.000056
0.000205
0.000239
0.000254
0.000239
0.000227
0.000256
0.000247
0.000239
0.000305
0.000353
0.000376
0.000347
0.000237
0.000260
0.000244
0.000278
0.000270
0.000259
0.000270
0.000230
0.000250
0.000336
0.001229
0.000247
0.000259
0.000258
0.000261
0.000265
0.000260
0.000262
0.000185
0.000055
0.000215
0.000345
0.000358
0.000375
0.000237
0.000240
0.000258
0.000293
0.000235
0.000264
0.000232
0.000272
0.000241
0.000248
0.000260
0.000268
0.000262
0.000269
0.000269
0.000245
0.000256
0.000264
0.000272
0.000279
0.000290
0.000265
0.000269
0.000262
0.000257
0.000453
0.001350
0.000055
0.000222
0.000249
0.000226
0.000264
0.000231
0.000255
0.000247
0.000226
0.000250
0.000247
0.000272
0.000267
0.000239
0.000246
0.000277
0.000220
0.001720
0.000266
0.000240
0.000260
0.000250
0.000260
0.000289
0.000242
0.000301
0.000230
0.000266
0.000280
0.000268
0.000253
0.000238
0.000055
0.000347
0.000347
0.001275
0.000230
0.000227
0.000254
0.000250
0.000251
0.000278
0.000240
0.000231
0.000339
0.000390
0.000454
0.000283
0.000224
0.000249
0.000250
0.000258
0.000269
0.000239
0.000282
0.000254
0.000283
0.000267
0.000499
0.000242
0.000390
0.000308
0.000239
0.000197
0.000056
0.000212
0.000248
0.000245
0.000247
0.000282
0.000192
0.000239
0.000254
0.000418
0.001341
0.000267
0.000218
0.000244
0.000270
0.000258
0.000291
0.000235
0.000248
0.000304
0.000420
0.000387
0.000272
0.000233
0.000240
0.000284
0.000282
0.000261
0.000297
0.000267
0.000274
0.000193
0.000055
0.000284
0.000355
0.000427
0.000226
0.000223
0.000236
0.000248
0.000278
0.000263
0.000245
0.000230
0.000251
0.000452
0.000500
0.000472
0.001451
0.000239
0.000269
0.000328
0.000351
0.000492
0.000428
0.000504
0.000347
0.000260
0.000247
0.000265
0.000278
0.000261
0.000275
0.000191
0.000056
0.000220
0.000260
0.000574
0.000300
0.000402
0.000238
0.000256
0.000234
0.000240
0.000275
0.000231
0.000267
0.000278
0.000231
0.000262
0.000324
0.000327
0.000447
0.000351
0.001324
0.000268
0.000260
0.000255
0.000260
0.000445
0.000490
0.000344
0.000249
0.000278
0.000289
0.000171
0.000055
0.000212
0.000239
0.000245
0.000262
0.000230
0.000299
0.000425
0.000376
0.000383
0.000212
0.000246
0.000259
0.000273
0.000285
0.000256
0.000240
0.000261
0.000256
0.000285
0.000333
0.000390
0.000425
0.000327
0.001343
0.000424
0.000230
0.000271
0.000433
0.000435
0.000336
0.000314
0.000055
0.000202
0.000233
0.000254
0.000242
0.000250
0.000260
0.001732
0.000200
0.000200
0.000242
0.000254
0.000247
0.000252
0.000321
0.000326
0.000288
0.000260
0.000422
0.000429
0.000372
0.000305
0.000284
0.000236
0.000251
0.001495
0.000344
0.000401
0.000455
0.000341
0.000305
0.000172
0.000056
0.000201
0.000247
0.000273
0.000248
0.000235
0.000271
0.001697
0.000225
0.000254
0.000263
0.000324
0.000401
0.001456
0.000350
0.000405
0.000247
0.000250
0.000238
0.000265
0.000275
0.001533
0.000614
0.000346
0.000297
0.000228
0.000260
0.000260
0.000285
0.000245
0.000251
0.000193
0.000055
0.000210
0.000239
0.000287
0.000235
0.000254
0.000277
0.000274
0.000260
0.000251
0.000250
0.000257
0.000247
0.000292
0.000237
0.000263
0.001479
0.000286
0.000231
0.000264
0.000280
0.000275
0.000253
0.001430
0.000332
0.000210
0.000240
0.000268
0.000259
0.000402
0.000238
0.000198
0.000056
0.000224
0.000251
0.000221
0.000264
0.000223
0.000226
0.000236
0.001686
0.000262
0.000227
0.000353
0.000267
0.000229
0.000224
0.000254
0.001371
0.000244
0.000269
0.000264
0.000250
0.000260
0.000345
0.000296
0.001298
0.000304
0.000221
0.000252
0.001398
0.000321
0.000201
0.000200
0.000057
0.000215
0.000362
0.000216
0.000232
0.000264
0.000229
0.000286
0.000247
0.000263
0.000245
0.000263
0.000262
0.000253
0.000243
0.000341
0.001496
0.000226
0.000268
0.000261
0.000235
0.000285
0.000259
0.000252
0.001682
0.000179
0.000235
0.000263
0.001274
0.000270
0.000247
0.000225
0.000055
0.000202
0.000393
0.000347
0.000210
0.000234
0.000242
0.000266
0.000252
0.000265
0.000268
0.000238
0.000257
0.000260
0.000241
0.000440
0.001224
0.000239
0.000246
0.000271
0.000272
0.000219
0.000258
0.000245
0.000326
0.001303
0.000224
0.000250
0.000272
0.000243
0.001335
0.000405
0.000058
0.000251
0.000293
0.000222
0.000235
0.000238
0.000256
0.000246
0.000239
0.000300
0.000232
0.000243
0.000253
0.000273
0.000289
0.000421
0.001478
0.000213
0.000258
0.000298
0.000511
0.000288
0.000382
0.001355
0.000311
0.000232
0.000267
0.000247
0.001296
0.000271
0.000544
0.000315
0.000056
0.000245
0.000247
0.000255
0.000254
0.000251
0.000255
0.000274
0.000266
0.000246
0.000259
0.000361
0.000417
0.001334
0.000241
0.000279
0.000257
0.000277
0.000240
0.000227
0.000237
0.000334
0.001257
0.000245
0.000250
0.000254
0.000251
0.001631
0.000321
0.000473
0.000219
0.000192
0.000055
0.000193
0.000232
0.000251
0.000244
0.000244
0.000265
0.000239
0.000260
0.000441
0.000471
0.000290
0.001465
0.000215
0.000248
0.000264
0.000252
0.000264
0.000282
0.001698
0.000246
0.000390
0.000346
0.001241
0.000408
0.000299
0.000337
0.000243
0.000262
0.000257
0.000270
0.000198
0.000055
0.000207
0.000238
0.000333
0.000259
0.000304
0.000556
0.000333
0.000243
0.001454
0.000230
0.000387
0.000261
0.000236
0.000295
0.000399
0.001304
0.000272
0.000249
0.000241
0.000265
0.001503
0.000446
0.000222
0.000280
0.000281
0.000240
0.000457
0.000321
0.000258
0.000229
0.000269
0.000054
0.000239
0.000367
0.000356
0.000238
0.000230
0.001520
0.000211
0.000260
0.000270
0.000268
0.000267
0.000239
0.000300
0.001484
0.000266
0.000223
0.000436
0.001183
0.000328
0.000448
0.000413
0.000236
0.000240
0.000261
0.000296
0.000221
0.000452
0.000230
0.000261
0.000284
0.000190
0.000055
0.000208
0.000254
0.000365
0.000390
0.001267
0.000285
0.000334
0.000228
0.000224
0.000251
0.000247
0.000358
0.001455
0.000259
0.000231
0.000249
0.001370
0.000256
0.000497
0.000347
0.000429
0.000232
0.000250
0.000256
0.000264
0.000279
0.000260
0.000263
0.000272
0.000252
0.000196
0.000055
0.000197
0.000369
0.001495
0.000204
0.000278
0.000301
0.000215
0.000246
0.000264
0.000471
0.001301
0.000214
0.000260
0.000257
0.000264
0.001303
0.000670
0.000281
0.000314
0.000412
0.000306
0.000247
0.000274
0.000260
0.000264
0.000288
0.000277
0.000326
0.000414
0.000420
0.001387
0.000055
0.000218
0.000248
0.000245
0.000228
0.000249
0.000495
0.000392
0.001317
0.000237
0.000234
0.000251
0.001512
0.000306
0.000372
0.000237
0.000407
0.000249
0.000232
0.000264
0.000300
0.000247
0.000250
0.000286
0.000250
0.000256
0.000262
0.000665
0.000285
0.001486
0.000231
0.000182
0.000056
0.000224
0.000254
0.000338
0.000562
0.001228
0.000304
0.000232
0.000256
0.000247
0.000253
0.000247
0.000280
0.000347
0.000530
0.000302
0.000240
0.000252
0.000276
0.000243
0.000308
0.000227
0.000264
0.000257
0.000266
0.000312
0.000396
0.000400
0.000355
0.000331
0.001403
0.000175
0.000056
0.000211
0.000239
0.000278
0.000498
0.000296
0.000313
0.000319
0.000326
0.000305
0.000242
0.000240
0.000264
0.000249
0.000308
0.000235
0.000324
0.000478
0.000366
0.000289
0.000386
0.000273
0.000416
0.000217
0.000250
0.000261
0.000261
0.000254
0.000294
0.000359
0.000496
0.000286
0.000055
0.000220
0.001394
0.000219
0.000339
0.000481
0.000341
0.000375
0.000339
0.000214
0.000256
0.000254
0.000245
0.000284
0.000247
0.000260
0.000257
0.000266
0.001230
0.000386
0.000249
0.000256
0.000276
0.000268
0.000279
0.000271
0.000250
0.000279
0.000246
0.000349
0.000413
0.000264
0.000055
0.000202
0.000249
0.000235
0.001502
0.000324
0.000241
0.000229
0.000250
0.000229
0.000240
0.000255
0.000283
0.000244
0.000254
0.000288
0.000246
0.000236
0.000263
0.000261
0.000258
0.001421
0.000235
0.000251
0.000274
0.000257
0.000247
0.000268
0.000284
0.000252
0.000498
0.000345
0.000055
0.000218
0.000228
0.000394
0.000288
0.000244
0.000273
0.001504
0.000354
0.000296
0.000219
0.000261
0.000313
0.000337
0.000218
0.000235
0.000264
0.000229
0.000271
0.000255
0.000261
0.000485
0.000506
0.001114
0.000264
0.000245
0.000267
0.000268
0.000256
0.000296
0.000245
0.000332
0.000055
0.000205
0.000320
0.000209
0.000238
0.000247
0.000243
0.000249
0.000226
0.000289
0.001585
0.000468
0.000205
0.000237
0.000255
0.000261
0.000244
0.000259
0.000295
0.000240
0.000312
0.000331
0.000458
0.000450
0.001372
0.000231
0.000276
0.000272
0.000254
0.000265
0.000359
0.000367
0.000055
0.000238
0.000266
0.000223
0.000229
0.000229
0.000240
0.000262
0.000278
0.000278
0.001576
0.000331
0.000259
0.000242
0.000258
0.000461
0.000249
0.000562
0.000359
0.000279
0.000268
0.000485
0.000544
0.001219
0.000263
0.000228
0.000259
0.001782
0.000378
0.000627
0.000321
0.000139
0.000055
0.000197
0.000228
0.000236
0.000237
0.000256
0.000239
0.000256
0.000511
0.000462
0.000443
0.000285
0.000217
0.000243
0.000260
0.000281
0.000273
0.000230
0.000246
0.000258
0.000283
0.000256
0.000410
0.001347
0.000226
0.000253
0.000271
0.001900
0.000470
0.000379
0.000302
0.000127
0.000055
0.000201
0.000241
0.000246
0.001636
0.000354
0.000214
0.000237
0.000259
0.000256
0.000281
0.000369
0.000374
0.000363
0.000281
0.000324
0.000478
0.000406
0.001193
0.000278
0.000236
0.000253
0.000263
0.000270
0.000401
0.000637
0.000444
0.000252
0.000266
0.000271
0.000278
0.000191
0.000057
0.000195
0.000233
0.000243
0.001541
0.000256
0.000232
0.000240
0.000253
0.000242
0.000253
0.000257
0.000267
0.000282
0.000259
0.000240
0.000343
0.000484
0.000331
0.001402
0.000237
0.000253
0.000260
0.000266
0.000258
0.000341
0.000550
0.000416
0.000262
0.000284
0.000245
0.000436
0.000056
0.000225
0.000237
0.000274
0.001531
0.000294
0.000219
0.000269
0.000245
0.000250
0.000262
0.000277
0.000261
0.000226
0.000309
0.000366
0.000496
0.001374
0.000754
0.000316
0.000344
0.000203
0.000220
0.000245
0.000277
0.001669
0.000818
0.000227
0.000267
0.000277
0.000286
0.000182
0.000055
0.000218
0.000234
0.000256
0.000240
0.000267
0.000264
0.000217
0.000251
0.000242
0.000246
0.000279
0.000281
0.000251
0.000253
0.000260
0.000246
0.000272
0.001593
0.000746
0.000309
0.000353
0.000225
0.000242
0.000308
0.000249
0.000254
0.000269
0.000255
0.001400
0.000394
0.000301
0.000056
0.000195
0.000223
0.000268
0.000236
0.000262
0.000228
0.000279
0.000229
0.000252
0.000265
0.000410
0.000397
0.000321
0.000332
0.000215
0.000249
0.000266
0.001388
0.000686
0.000474
0.000362
0.000255
0.000225
0.000259
0.000271
0.000261
0.000248
0.000280
0.001466
0.000447
0.000186
0.000056
0.000203
0.000232
0.000240
0.000248
0.000256
0.000242
0.000239
0.000245
0.000274
0.000261
0.000331
0.000450
0.000296
0.000221
0.000245
0.000241
0.000265
0.000256
0.001623
0.000558
0.000483
0.000315
0.000230
0.000261
0.000258
0.000260
0.000268
0.000285
0.000260
0.001369
0.000319
0.000057
0.000230
0.000218
0.000238
0.000254
0.000259
0.000246
0.000249
0.000299
0.000360
0.000450
0.000365
0.000569
0.000177
0.000221
0.000249
0.000244
0.000300
0.000241
0.000269
0.001961
0.000286
0.000233
0.000450
0.000248
0.000242
0.000265
0.000267
0.000265
0.000264
0.000279
0.000359
0.000055
0.000222
0.000288
0.000234
0.000244
0.000269
0.000236
0.000224
0.000241
0.000271
0.000264
0.000231
0.000234
0.000397
0.000438
0.000368
0.000436
0.000230
0.000263
0.000252
0.000253
0.000257
0.000277
0.001469
0.001060
0.000221
0.000249
0.000275
0.000264
0.000274
0.000276
0.000172
0.000055
0.000207
0.001339
0.000297
0.000208
0.000227
0.000279
0.000233
0.000234
0.000246
0.000258
0.000252
0.000265
0.000239
0.000404
0.000335
0.000466
0.000273
0.000246
0.000269
0.000268
0.000276
0.000222
0.000258
0.000261
0.001318
0.000695
0.000299
0.000382
0.000376
0.000402
0.000297
0.000056
0.000193
0.000231
0.000365
0.001318
0.000204
0.000255
0.000253
0.000244
0.000252
0.000257
0.000255
0.000242
0.000268
0.000351
0.000550
0.000319
0.000224
0.000280
0.000333
0.000205
0.000267
0.000255
0.000240
0.000269
0.000272
0.001529
0.000744
0.000320
0.000258
0.000274
0.000192
0.000055
0.000220
0.000278
0.000442
0.000397
0.001224
0.000246
0.000231
0.000254
0.000221
0.000247
0.000251
0.000254
0.000232
0.000238
0.000253
0.000256
0.000265
0.000238
0.000258
0.000255
0.000268
0.000268
0.000300
0.000329
0.000222
0.000269
0.000263
0.001459
0.000261
0.000242
0.000185
0.000056
0.000196
0.000238
0.000265
0.000247
0.000347
0.000372
0.000399
0.000279
0.001586
0.000221
0.000297
0.000512
0.000343
0.000228
0.000435
0.000243
0.000226
0.000263
0.000276
0.000267
0.000278
0.000269
0.000257
0.000280
0.000234
0.000413
0.000388
0.000350
0.001573
0.000221
0.000198
0.000056
0.000209
0.000245
0.000246
0.000247
0.000244
0.000244
0.000262
0.000317
0.000407
0.002027
0.000231
0.000244
0.000261
0.000258
0.000259
0.000311
0.000230
0.000236
0.000261
0.000466
0.000311
0.000481
0.001448
0.000239
0.000286
0.001982
0.000273
0.000250
0.000256
0.001534
0.000148
0.000056
0.000323
0.000417
0.000476
0.000243
0.000275
0.000209
0.000259
0.000267
0.000261
0.000231
0.000251
0.000337
0.000426
0.000391
0.000391
0.000221
0.000239
0.001570
0.000234
0.000575
0.001869
0.000303
0.000232
0.001577
0.001986
0.000746
0.000269
0.000260
0.000277
0.000477
0.000390
0.000056
0.000185
0.000240
0.000273
0.000225
0.002873
0.000278
0.001083
0.000200
0.000231
0.001587
0.001973
0.000216
0.000239
0.000421
0.000306
0.000453
0.000328
0.000470
0.000213
0.000243
0.000247
0.000274
0.000258
0.001592
0.001205
0.001429
0.000284
0.000283
0.000252
0.000319
0.000329
0.000056
0.000253
0.000200
0.000239
0.000268
0.000203
0.000248
0.000249
0.000256
0.000257
0.000245
0.000238
0.000375
0.000346
0.000508
0.000298
0.000232
0.000245
0.000276
0.000266
0.000280
0.000241
0.000260
0.001496
0.000495
0.002119
0.000245
0.000261
0.000293
0.000480
0.000373
0.000182
0.000056
0.000195
0.000489
0.000348
0.000320
0.000194
0.000230
0.000251
0.000243
0.000241
0.000262
0.000231
0.000264
0.000259
0.001607
0.001350
0.001230
0.000272
0.000255
0.000231
0.000276
0.000280
0.000280
0.000243
0.000256
0.002202
0.000253
0.000249
0.000301
0.000323
0.000306
0.000218
0.000057
0.000233
0.000359
0.000533
0.000338
0.000238
0.000228
0.000248
0.000265
0.001894
0.001429
0.000212
0.000326
0.000385
0.000409
0.000269
0.000224
0.000259
0.000268
0.000268
0.000268
0.000255
0.000261
0.000480
0.000231
0.000272
0.000267
0.000249
0.000275
0.000279
0.000249
0.000203
0.000055
0.000223
0.000239
0.000247
0.000243
0.000282
0.000245
0.001537
0.001416
0.001329
0.000228
0.000239
0.000245
0.000269
0.000261
0.000245
0.000252
0.000246
0.002105
0.000251
0.000238
0.000268
0.000255
0.000267
0.000261
0.000265
0.000266
0.000260
0.000258
0.000273
0.000257
0.000173
0.000056
0.000206
0.002680
0.001407
0.000213
0.000306
0.000322
0.000214
0.000284
0.000231
0.000238
0.000257
0.000242
0.000235
0.000246
0.000275
0.000255
0.000271
0.000264
0.000268
0.000254
0.000266
0.000284
0.000275
0.000265
0.000245
0.000241
0.000269
0.000275
0.000263
0.000267
0.000369
0.000056
0.001552
0.000250
0.001231
0.000237
0.000230
0.000234
0.000258
0.000276
0.000227
0.000303
0.000322
0.000403
0.000335
0.000210
0.000252
0.002157
0.000224
0.000256
0.000352
0.000430
0.000350
0.000315
0.000236
0.000252
0.000268
0.000248
0.000264
0.000275
0.000274
0.001608
0.001268
0.000055
0.000193
0.000233
0.000253
0.000433
0.000365
0.000280
0.000217
0.000232
0.000247
0.000262
0.000265
0.000242
0.000229
0.000258
0.000266
0.000239
0.000297
0.000632
0.000375
0.000248
0.000217
0.000281
0.000280
0.000262
0.000240
0.000247
0.000265
0.000278
0.000236
0.000384
0.000295
0.000056
0.001129
0.000271
0.000295
0.000456
0.000294
0.000220
0.000231
0.000241
0.000254
0.002345
0.000310
0.000392
0.000222
0.000384
0.000302
0.000261
0.000236
0.000259
0.000260
0.000230
0.000252
0.000317
0.000540
0.000490
0.001884
0.001411
0.000389
0.000544
0.000231
0.000285
0.000196
0.000056
0.000206
0.000375
0.000252
0.000242
0.000255
0.000224
0.000250
0.000255
0.000253
0.000254
0.000253
0.000230
0.000238
0.000282
0.000396
0.000469
0.001851
0.001342
0.000471
0.000392
0.000462
0.000233
0.000251
0.000258
0.002138
0.000756
0.000175
0.000233
0.000276
0.000283
0.000197
0.000056
0.000217
0.000256
0.000243
0.000247
0.000238
0.000321
0.000445
0.000330
0.000287
0.000223
0.000242
0.000252
0.000263
0.002122
0.000329
0.000415
0.000211
0.000255
0.000283
0.000243
0.000251
0.002461
0.000329
0.000220
0.000262
0.000257
0.000259
0.000266
0.000311
0.000253
0.000193
0.000056
0.000218
0.000321
0.000577
0.000353
0.000242
0.000227
0.000237
0.000252
0.000260
0.000250
0.001948
0.000402
0.000266
0.000267
0.000241
0.000278
0.000270
0.000243
0.002196
0.000450
0.000224
0.000273
0.000270
0.000260
0.000250
0.000254
0.000301
0.000246
0.000256
0.000253
0.000198
0.000055
0.000185
0.000240
0.000247
0.000219
0.000248
0.000255
0.000238
0.000246
0.000239
0.002184
0.000216
0.000277
0.000222
0.000429
0.000231
0.000244
0.000307
0.000261
0.000253
0.000271
0.001943
0.000273
0.000339
0.000365
0.000435
0.000409
0.000306
0.000251
0.000255
0.000255
0.000200
0.000056
0.000192
0.000233
0.000239
0.000256
0.000244
0.000324
0.000217
0.002321
0.000238
0.000223
0.000266
0.000255
0.000238
0.000276
0.000277
0.002126
0.000587
0.000219
0.000260
0.000246
0.000259
0.000260
0.000288
0.000269
0.000279
0.000236
0.000286
0.000253
0.000265
0.000266
0.000192
0.000055
0.001816
0.001449
0.000191
0.000230
0.000241
0.000256
0.000246
0.000257
0.000403
0.000340
0.002198
0.000257
0.000230
0.000273
0.000249
0.000621
0.000323
0.000293
0.000234
0.000242
0.000247
0.000268
0.000265
0.000224
0.000262
0.000261
0.000269
0.000268
0.000304
0.000722
0.000270
0.000055
0.000220
0.000253
0.000245
0.000251
0.000265
0.000250
0.000252
0.000241
0.001496
0.002100
0.000602
0.000251
0.000423
0.000686
0.000350
0.000254
0.000241
0.000248
0.000265
0.000254
0.000258
0.000244
0.000250
0.000272
0.003018
0.000325
0.000234
0.000267
0.000287
0.000323
0.000435
0.000055
0.001933
0.000240
0.000226
0.000234
0.000252
0.000388
0.000481
0.000323
0.000245
0.000235
0.000228
0.000251
0.000256
0.000259
0.000272
0.000246
0.000250
0.000291
0.001819
0.000255
0.000221
0.000253
0.000276
0.000284
0.000263
0.000258
0.001462
0.000338
0.000251
0.000270
0.000161
0.000055
0.000193
0.000231
0.000243
0.000240
0.000255
0.000235
0.000302
0.000370
0.000312
0.000414
0.000210
0.000239
0.000264
0.000321
0.000423
0.000327
0.000229
0.000250
0.000258
0.000364
0.000529
0.000365
0.000263
0.000261
0.000257
0.000254
0.000250
0.000277
0.000270
0.000264
0.000203
0.000055
0.001449
0.000458
0.000204
0.001935
0.000292
0.000411
0.000433
0.000318
0.000225
0.000246
0.000281
0.000230
0.000247
0.000243
0.000270
0.000298
0.000404
0.000313
0.000407
0.000350
0.000355
0.000227
0.000255
0.000274
0.000269
0.000271
0.000265
0.000292
0.000497
0.000368
0.001303
0.000056
0.000202
0.000229
0.002074
0.000315
0.000320
0.000236
0.000268
0.000240
0.000260
0.000260
0.000212
0.000254
0.000257
0.000262
0.000254
0.000373
0.000692
0.001779
0.000220
0.000248
0.000262
0.000261
0.000467
0.000312
0.001607
0.000291
0.000376
0.001906
0.000255
0.000263
0.000199
0.000055
0.000217
0.000233
0.000235
0.000243
0.000231
0.000249
0.000251
0.000285
0.000334
0.000261
0.000380
0.000357
0.000343
0.000302
0.000239
0.000275
0.000256
0.000242
0.000267
0.000250
0.000314
0.000280
0.000271
0.000257
0.000270
0.001500
0.000295
0.000396
0.002057
0.000241
0.000167
0.000057
0.000212
0.000232
0.000242
0.000246
0.000495
0.000199
0.000253
0.000326
0.000365
0.000330
0.000300
0.000203
0.000267
0.000265
0.000270
0.000330
0.000435
0.000428
0.000244
0.000403
0.000609
0.000298
0.001642
0.000230
0.000254
0.001963
0.000351
0.000250
0.000242
0.000290
0.000193
0.000055
0.000205
0.000237
0.000228
0.000242
0.000253
0.000273
0.000251
0.000272
0.000250
0.000250
0.001819
0.000308
0.000381
0.000286
0.000462
0.000362
0.000417
0.001446
0.000228
0.000304
0.002081
0.000592
0.000257
0.000232
0.000266
0.000271
0.000506
0.000219
0.000261
0.000291
0.000179
0.000055
0.000287
0.000329
0.000460
0.000228
0.000204
0.000242
0.000260
0.000255
0.000276
0.000276
0.000228
0.000254
0.000258
0.000256
0.000354
0.000442
0.001329
0.000272
0.000287
0.001974
0.000290
0.000299
0.000226
0.000268
0.000249
0.000276
0.000269
0.000263
0.000247
0.000269
0.000199
0.000056
0.000255
0.000480
0.001968
0.000255
0.000218
0.000257
0.000246
0.000290
0.000428
0.000469
0.001284
0.000375
0.000356
0.002089
0.000201
0.000248
0.000267
0.000275
0.000254
0.000244
0.000284
0.000297
0.000256
0.000308
0.000569
0.000311
0.000334
0.002229
0.000513
0.000537
0.000310
0.000056
0.000213
0.000225
0.000243
0.001962
0.000235
0.000229
0.000246
0.000240
0.000245
0.000254
0.000245
0.000267
0.000270
0.000274
0.000426
0.001462
0.000255
0.000242
0.000267
0.000265
0.000228
0.000258
0.000258
0.000272
0.000313
0.000499
0.000432
0.000243
0.001603
0.000270
0.000161
0.000056
0.000205
0.000227
0.000248
0.000234
0.000259
0.000267
0.000230
0.000266
0.000253
0.000366
0.000338
0.001424
0.000232
0.000231
0.000246
0.000300
0.000227
0.000254
0.000283
0.000496
0.000458
0.000393
0.000225
0.001574
0.000230
0.000263
0.000289
0.000278
0.000264
0.000265
0.000191
0.000057
0.000200
0.000242
0.000262
0.000269
0.000249
0.000245
0.000238
0.000240
0.000276
0.000234
0.000243
0.000252
0.000269
0.001469
0.000366
0.000211
0.000249
0.000265
0.000273
0.000322
0.000357
0.000264
0.000262
0.000268
0.000262
0.000265
0.000255
0.001405
0.000283
0.000233
0.000180
0.000055
0.000198
0.000232
0.000261
0.000263
0.000271
0.000220
0.000246
0.000259
0.000221
0.000266
0.000244
0.000256
0.000230
0.000358
0.000306
0.000343
0.000285
0.000244
0.001632
0.000243
0.000244
0.000253
0.000262
0.000334
0.000368
0.000346
0.000454
0.000268
0.000255
0.001605
0.000160
0.000056
0.000361
0.000303
0.000356
0.000312
0.000237
0.000221
0.000243
0.000273
0.000252
0.000262
0.000222
0.000237
0.001457
0.000283
0.000323
0.000222
0.000251
0.000273
0.000252
0.000267
0.000248
0.000241
0.000255
0.000276
0.000259
0.000390
0.000452
0.000302
0.000310
0.000255
0.000193
0.000055
0.000215
0.000294
0.000432
0.000282
0.000400
0.000260
0.000251
0.000249
0.000251
0.000261
0.000239
0.000232
0.000250
0.000244
0.001254
0.000310
0.000224
0.000256
0.000266
0.000271
0.000239
0.000263
0.000255
0.000260
0.000260
0.000256
0.000287
0.000678
0.000487
0.000237
0.000173
0.000056
0.000212
0.001555
0.000225
0.000354
0.000457
0.000388
0.000217
0.000249
0.000272
0.000247
0.000237
0.000264
0.000269
0.000276
0.000257
0.001523
0.000255
0.000286
0.000266
0.000260
0.000265
0.000241
0.000265
0.000256
0.000259
0.000261
0.000451
0.000367
0.000343
0.000236
0.000205
0.000055
0.000195
0.000254
0.000251
0.001606
0.000403
0.000350
0.000234
0.000235
0.000252
0.000271
0.000283
0.000253
0.000252
0.000259
0.000235
0.000266
0.000415
0.001312
0.000251
0.000247
0.001477
0.000275
0.000592
0.000435
0.000315
0.000238
0.000271
0.000470
0.000233
0.000261
0.000179
0.000056
0.000295
0.000215
0.000245
0.000243
0.000256
0.000255
0.000238
0.000256
0.000252
0.000252
0.000243
0.000259
0.000317
0.000513
0.001646
0.001480
0.000371
0.000532
0.000335
0.000232
0.000239
0.000248
0.000251
0.000268
0.000253
0.000262
0.000253
0.000271
0.001549
0.000301
0.000172
0.000055
0.000219
0.000339
0.000355
0.000331
0.000247
0.000223
0.000245
0.000307
0.000464
0.000366
0.002293
0.000217
0.000717
0.000449
0.000493
0.000257
0.000334
0.000397
0.000329
0.000276
0.000400
0.000264
0.001529
0.000530
0.000229
0.000259
0.000253
0.000260
0.000253
0.000275
0.000189
0.000055
0.000223
0.000246
0.000254
0.000251
0.000244
0.001656
0.000914
0.000967
0.000207
0.000234
0.000259
0.000255
0.000261
0.000262
0.000256
0.000248
0.000254
0.000263
0.000268
0.000278
0.001430
0.000312
0.000253
0.000232
0.000241
0.000254
0.000266
0.000278
0.000262
0.000289
0.001935
0.000056
0.000200
0.000233
0.001540
0.000913
0.000307
0.000391
0.000220
0.000240
0.000258
0.000250
0.000244
0.000252
0.000246
0.001977
0.000472
0.000218
0.000268
0.000243
0.000262
0.000261
0.000192
