0.000186
0.018565
0.003117
0.000331
0.000215
0.000246
0.000306
0.000253
0.000321
0.000294
0.000250
0.000384
0.000493
0.000546
0.000327
0.000319
0.000291
0.000381
0.000396
0.000413
0.000306
0.001833
0.000510
0.000452
0.000259
0.000283
0.000312
0.000418
0.000416
0.000500
0.000416
0.000260
0.000058
0.000187
0.000243
0.000261
0.000261
0.000281
0.000251
0.000269
0.000260
0.000278
0.000292
0.000408
0.000483
0.000305
0.000287
0.000399
0.000359
0.000349
0.000251
0.000213
0.001753
0.000271
0.000226
0.000510
0.000247
0.000247
0.000235
0.000276
0.000300
0.000279
0.000334
0.000429
0.000056
0.000243
0.000229
0.000253
0.000263
0.000255
0.000250
0.000261
0.000257
0.000276
0.001687
0.000245
0.000227
0.000240
0.000274
0.000279
0.000249
0.000265
0.000263
0.000339
0.001804
0.000262
0.000252
0.000462
0.000467
0.000381
0.000242
0.000227
0.000576
0.000433
0.000851
0.000104
0.000056
0.000184
0.000214
0.000250
0.000248
0.000312
0.000251
0.000292
0.000581
0.000426
0.000270
0.000209
0.000204
0.000241
0.000252
0.000251
0.000263
0.000276
0.000240
0.000294
0.000322
0.001746
0.000267
0.000217
0.000475
0.000486
0.000475
0.000691
0.000451
0.000363
0.000243
0.000197
0.000078
0.000201
0.000229
0.000245
0.000256
0.000249
0.000260
0.000245
0.000535
0.001430
0.000228
0.000238
0.000236
0.000254
0.000246
0.000264
0.000286
0.000262
0.000859
0.001341
0.000292
0.000258
0.000426
0.000250
0.000235
0.000249
0.000257
0.000266
0.000273
0.000255
0.000266
0.000226
0.000056
0.000235
0.000201
0.000226
0.000237
0.000261
0.000241
0.000259
0.000241
0.000236
0.000255
0.001714
0.000238
0.000236
0.000219
0.000223
0.000248
0.000240
0.000250
0.000246
0.000257
0.000269
0.001753
0.000248
0.000240
0.000476
0.000231
0.000248
0.000275
0.000219
0.000261
0.000211
0.000056
0.000205
0.000204
0.000229
0.000249
0.000242
0.000245
0.000261
0.000252
0.000258
0.000242
0.000271
0.000247
0.000261
0.000274
0.001637
0.000264
0.000304
0.000249
0.000219
0.000278
0.000268
0.000240
0.000256
0.000259
0.000268
0.001841
0.000407
0.000342
0.000268
0.000266
0.000224
0.000055
0.000222
0.000205
0.000239
0.000272
0.000253
0.000230
0.000327
0.000374
0.000480
0.000381
0.000208
0.000234
0.000245
0.000249
0.001677
0.000505
0.000312
0.000369
0.000303
0.000213
0.000263
0.000276
0.000271
0.001817
0.000505
0.000473
0.000224
0.000225
0.000212
0.000271
0.000203
0.000056
0.000197
0.000223
0.000224
0.000273
0.000323
0.000514
0.000364
0.000269
0.000208
0.000218
0.000260
0.000242
0.000270
0.001696
0.000478
0.000320
0.000230
0.000234
0.000266
0.000275
0.000255
0.000255
0.000276
0.001885
0.000322
0.000397
0.000248
0.000240
0.000323
0.000398
0.000318
0.000057
0.000200
0.000367
0.000356
0.000276
0.000297
0.000211
0.000233
0.000253
0.000246
0.000262
0.000210
0.000246
0.001665
0.000323
0.000275
0.000240
0.000203
0.000245
0.000243
0.000285
0.000274
0.000330
0.001810
0.000345
0.000214
0.000512
0.000218
0.000212
0.000257
0.000272
0.000283
0.000057
0.000281
0.000650
0.000643
0.000192
0.000197
0.000261
0.000232
0.000228
0.000249
0.000256
0.000249
0.001716
0.000280
0.000395
0.000386
0.000221
0.000233
0.000229
0.000243
0.000257
0.000264
0.001878
0.000230
0.000225
0.002231
0.000454
0.000262
0.000262
0.000260
0.000261
0.000201
0.000055
0.000202
0.000215
0.000251
0.000243
0.000246
0.001709
0.000212
0.000215
0.000229
0.000249
0.000245
0.000259
0.000233
0.000258
0.000278
0.000448
0.000610
0.000243
0.000215
0.000265
0.000295
0.000240
0.000232
0.000507
0.000436
0.000243
0.000325
0.000741
0.000289
0.000222
0.000191
0.000057
0.000203
0.000226
0.000230
0.000253
0.000238
0.000236
0.000250
0.000516
0.000362
0.001649
0.000259
0.000216
0.000237
0.000249
0.000258
0.000269
0.000621
0.000352
0.000372
0.000215
0.000233
0.000257
0.000318
0.000309
0.000255
0.000402
0.000428
0.000637
0.000404
0.000447
0.000149
0.000056
0.000202
0.000234
0.000220
0.000234
0.000237
0.000240
0.000242
0.000248
0.000262
0.000370
0.000339
0.001558
0.000283
0.000203
0.000207
0.000211
0.000257
0.000252
0.000260
0.000233
0.000314
0.000420
0.000448
0.000303
0.000213
0.000238
0.000250
0.000269
0.000279
0.000258
0.000433
0.000055
0.000211
0.000209
0.000225
0.000279
0.000540
0.000418
0.000251
0.000239
0.000239
0.000252
0.000257
0.000240
0.000280
0.000260
0.000237
0.000547
0.000413
0.001587
0.000283
0.000231
0.000255
0.000258
0.000263
0.000244
0.000259
0.000495
0.000465
0.000361
0.000359
0.000237
0.000208
0.000057
0.000161
0.000217
0.000408
0.000236
0.000258
0.000239
0.000247
0.000639
0.000354
0.000264
0.000238
0.000261
0.000269
0.000259
0.000574
0.000297
0.000211
0.000259
0.000460
0.001641
0.000240
0.000255
0.000269
0.000439
0.000258
0.000289
0.000259
0.000338
0.000577
0.000362
0.000289
0.000057
0.000190
0.000223
0.000230
0.000238
0.000483
0.000256
0.000288
0.000224
0.000355
0.000610
0.000344
0.000245
0.000217
0.000210
0.000280
0.000233
0.000258
0.000258
0.000228
0.000368
0.000288
0.000678
0.001492
0.000258
0.000244
0.000257
0.000304
0.000360
0.000632
0.000526
0.000390
0.000056
0.000259
0.000314
0.000325
0.000405
0.000325
0.000211
0.000246
0.000278
0.000554
0.000397
0.000319
0.000212
0.000205
0.000268
0.000265
0.000239
0.000242
0.000276
0.000262
0.000264
0.000271
0.000311
0.001864
0.000317
0.000343
0.000424
0.000379
0.000240
0.000392
0.000411
0.000350
0.000056
0.000252
0.000381
0.000282
0.000200
0.000243
0.000210
0.000469
0.000214
0.000208
0.000348
0.000447
0.000399
0.000276
0.000238
0.000260
0.000302
0.000369
0.000432
0.000308
0.000220
0.000208
0.000275
0.000728
0.001693
0.000277
0.000389
0.000320
0.000246
0.000245
0.000454
0.000288
0.000056
0.000241
0.000189
0.000242
0.000241
0.000246
0.000252
0.000248
0.000351
0.000446
0.000286
0.000511
0.000350
0.000289
0.000208
0.000525
0.000264
0.000266
0.000271
0.000239
0.000349
0.000224
0.000227
0.000268
0.000370
0.000595
0.001666
0.000240
0.000237
0.000241
0.000239
0.000200
0.000056
0.000386
0.000399
0.000383
0.000210
0.000239
0.000218
0.000255
0.000238
0.000257
0.000275
0.000197
0.000504
0.000275
0.000487
0.000379
0.000308
0.000225
0.000282
0.000374
0.000388
0.000351
0.000364
0.000325
0.000368
0.000253
0.000205
0.000254
0.000265
0.001797
0.000264
0.000208
0.000057
0.000171
0.000204
0.000240
0.000271
0.000366
0.000537
0.000332
0.000232
0.000224
0.000270
0.000247
0.000245
0.000532
0.000451
0.000465
0.000314
0.000273
0.000239
0.000443
0.000489
0.000363
0.000437
0.000635
0.000272
0.000237
0.000240
0.000241
0.000220
0.000262
0.001785
0.000291
0.000058
0.000175
0.000319
0.000203
0.000219
0.000256
0.000242
0.000301
0.000449
0.000427
0.000305
0.000304
0.000307
0.000368
0.000650
0.000306
0.000200
0.000223
0.000234
0.000252
0.000265
0.000268
0.000265
0.000250
0.000260
0.000364
0.000299
0.000517
0.000330
0.000218
0.000217
0.000190
0.000055
0.000461
0.000270
0.000446
0.000269
0.000196
0.000240
0.000236
0.000254
0.000254
0.000216
0.000245
0.000277
0.000294
0.000373
0.000557
0.000421
0.000328
0.000368
0.000376
0.000386
0.000260
0.000217
0.000222
0.000248
0.001824
0.000228
0.001755
0.000924
0.000447
0.000282
0.000137
0.000056
0.000192
0.000217
0.000225
0.000253
0.000242
0.000248
0.000254
0.000255
0.000260
0.000296
0.000383
0.000441
0.000379
0.000396
0.000250
0.000227
0.000260
0.000293
0.000216
0.000226
0.000255
0.000226
0.001822
0.000269
0.000211
0.000262
0.000276
0.000264
0.001874
0.000529
0.000294
0.000056
0.000235
0.000198
0.000217
0.000234
0.000253
0.000246
0.000253
0.000244
0.000261
0.000436
0.000542
0.000277
0.000393
0.000237
0.000213
0.000296
0.000383
0.000390
0.000379
0.000248
0.001804
0.000230
0.000223
0.000235
0.000253
0.000269
0.000241
0.000265
0.000261
0.000354
0.000408
0.000077
0.000224
0.000210
0.000204
0.000252
0.000252
0.000236
0.000265
0.000253
0.000240
0.000259
0.000236
0.000270
0.000439
0.000387
0.000308
0.000308
0.000485
0.000208
0.000207
0.000252
0.000266
0.000260
0.000274
0.000261
0.000273
0.001800
0.000262
0.000224
0.000255
0.000248
0.000215
0.000056
0.000291
0.000333
0.000227
0.000215
0.000226
0.000231
0.000234
0.000258
0.000248
0.000225
0.000236
0.000277
0.000234
0.000287
0.000521
0.000378
0.000313
0.000218
0.000210
0.000243
0.000262
0.000266
0.000240
0.000268
0.000264
0.000249
0.000302
0.001715
0.000227
0.000221
0.000184
0.000057
0.000195
0.000214
0.000247
0.000267
0.000353
0.000408
0.000445
0.000254
0.000191
0.000243
0.000252
0.000235
0.000250
0.000256
0.000271
0.000251
0.000252
0.000249
0.000257
0.000252
0.000272
0.000272
0.000253
0.000249
0.000223
0.000279
0.000273
0.000266
0.000254
0.000263
0.000205
0.000057
0.000194
0.000212
0.000240
0.000251
0.000250
0.000242
0.000243
0.000261
0.000375
0.000197
0.000193
0.000240
0.000250
0.000246
0.000264
0.000266
0.000250
0.000249
0.000371
0.000208
0.000252
0.000276
0.000295
0.000254
0.000268
0.000278
0.000260
0.000252
0.000253
0.000548
0.000659
0.000056
0.000234
0.000301
0.000232
0.000188
0.000209
0.000247
0.000241
0.000248
0.000250
0.000245
0.000274
0.000309
0.000525
0.000461
0.001570
0.000210
0.000500
0.000212
0.000224
0.000447
0.000553
0.000269
0.000224
0.000274
0.000269
0.000247
0.000271
0.000260
0.000320
0.000243
0.000206
0.000056
0.000245
0.000481
0.000368
0.000322
0.000200
0.000237
0.000271
0.000226
0.000238
0.000246
0.000246
0.000259
0.000232
0.000275
0.000427
0.000480
0.000327
0.001805
0.000258
0.000222
0.000344
0.000421
0.000480
0.000284
0.000362
0.000260
0.000302
0.000229
0.000240
0.000234
0.000211
0.000056
0.000179
0.000195
0.000233
0.000366
0.000393
0.000407
0.000266
0.000263
0.000240
0.000229
0.000235
0.000270
0.000262
0.000267
0.000243
0.000262
0.000328
0.000470
0.000359
0.000434
0.000231
0.001808
0.000301
0.000543
0.000468
0.000459
0.000279
0.000238
0.000235
0.000262
0.000517
0.000056
0.000198
0.000223
0.000242
0.000267
0.000581
0.000356
0.000332
0.000267
0.000204
0.000327
0.000224
0.000228
0.000250
0.000424
0.000273
0.000195
0.000224
0.000381
0.000454
0.000359
0.000554
0.001755
0.000243
0.000497
0.000444
0.000363
0.000247
0.000367
0.000242
0.000212
0.000221
0.000058
0.000210
0.000333
0.000350
0.000303
0.000387
0.000294
0.000393
0.000225
0.000215
0.000259
0.000276
0.000234
0.000229
0.000263
0.000236
0.000259
0.000321
0.000352
0.000544
0.000417
0.000270
0.000228
0.000224
0.001806
0.000300
0.000602
0.000621
0.000301
0.000237
0.000284
0.000174
0.000056
0.000173
0.000218
0.000313
0.000259
0.000269
0.000369
0.000428
0.000315
0.000617
0.000218
0.000196
0.000219
0.000230
0.000278
0.000278
0.000277
0.000239
0.000326
0.000557
0.000339
0.000266
0.000227
0.000255
0.000270
0.000248
0.000267
0.000240
0.000245
0.000289
0.000341
0.000153
0.000057
0.000299
0.000323
0.000233
0.000230
0.000250
0.000271
0.000230
0.000374
0.000199
0.000201
0.000260
0.000473
0.000387
0.000347
0.000331
0.000276
0.000234
0.000223
0.000258
0.000251
0.000254
0.000314
0.000223
0.000255
0.000274
0.000322
0.000547
0.000287
0.000349
0.000234
0.000150
0.000056
0.000204
0.000197
0.000273
0.000235
0.000240
0.000249
0.000253
0.000274
0.000475
0.000265
0.000222
0.000249
0.000252
0.000246
0.000270
0.000272
0.000279
0.000349
0.000251
0.000232
0.000241
0.000283
0.000229
0.000267
0.000280
0.000254
0.000264
0.000264
0.000252
0.000518
0.000172
0.000055
0.000202
0.000203
0.000242
0.000261
0.000275
0.000203
0.000296
0.000453
0.000265
0.000229
0.000255
0.000253
0.000237
0.000319
0.000419
0.001753
0.000238
0.000254
0.000314
0.000380
0.000413
0.000347
0.000368
0.000387
0.000378
0.000362
0.000246
0.000257
0.000270
0.000270
0.001426
0.000055
0.000443
0.000273
0.000294
0.000189
0.000201
0.000236
0.000227
0.000252
0.000245
0.000266
0.000248
0.000257
0.000255
0.000255
0.000577
0.001708
0.000210
0.000208
0.000224
0.000270
0.000234
0.000261
0.000327
0.000473
0.000263
0.000329
0.000278
0.000217
0.000262
0.000273
0.000211
0.000056
0.001315
0.000488
0.000283
0.000304
0.000202
0.000206
0.000205
0.000226
0.000510
0.000218
0.000226
0.000243
0.000375
0.000634
0.000263
0.000333
0.000295
0.000234
0.000369
0.000338
0.000226
0.000242
0.000274
0.000234
0.000267
0.000836
0.000312
0.000276
0.000228
0.000275
0.000186
0.000057
0.000208
0.000196
0.000222
0.000243
0.001472
0.000325
0.000223
0.000226
0.000239
0.000277
0.000233
0.000247
0.000243
0.000260
0.000264
0.000282
0.000442
0.000673
0.000266
0.001815
0.000249
0.000286
0.000325
0.000456
0.000403
0.000426
0.000246
0.000239
0.000259
0.000264
0.000221
0.000057
0.000171
0.000250
0.000227
0.001307
0.000345
0.000194
0.000256
0.000214
0.000238
0.000230
0.000239
0.000253
0.000278
0.000246
0.000252
0.000281
0.000564
0.000380
0.000336
0.000219
0.000232
0.000284
0.000257
0.000257
0.000327
0.000213
0.000228
0.000270
0.000263
0.000346
0.000612
0.000057
0.000207
0.000218
0.000232
0.000257
0.000267
0.000248
0.000237
0.000250
0.000274
0.000256
0.001438
0.000248
0.000224
0.000234
0.000256
0.000239
0.000284
0.000246
0.000257
0.000278
0.000269
0.000489
0.000475
0.000369
0.000239
0.000261
0.001848
0.000218
0.000232
0.000323
0.000479
0.000057
0.000261
0.000424
0.000461
0.000504
0.000524
0.000529
0.001475
0.000427
0.000542
0.000653
0.000559
0.000732
0.000452
0.000629
0.000578
0.001721
0.000461
0.000452
0.000384
0.000312
0.000261
0.000290
0.000284
0.000268
0.000277
0.000251
0.000299
0.000293
0.000246
0.000289
0.001325
0.000057
0.000223
0.000251
0.000223
0.000232
0.000240
0.000252
0.000234
0.000234
0.000258
0.000280
0.000237
0.000271
0.000230
0.000262
0.000259
0.000260
0.001839
0.000263
0.000258
0.000253
0.000252
0.000261
0.000269
0.000280
0.000373
0.000455
0.000322
0.000257
0.000259
0.000288
0.000164
0.000056
0.000210
0.001381
0.000260
0.000270
0.000259
0.000237
0.000276
0.000222
0.000256
0.000243
0.000237
0.000239
0.000292
0.000416
0.000272
0.000350
0.000271
0.000289
0.001910
0.000257
0.000260
0.000260
0.000253
0.000260
0.000274
0.000275
0.000278
0.000246
0.000244
0.000291
0.000241
0.000057
0.000186
0.000233
0.000255
0.001422
0.000267
0.000264
0.000229
0.000225
0.000225
0.000270
0.000244
0.000250
0.000229
0.000279
0.000305
0.000210
0.000257
0.000247
0.000267
0.000272
0.000262
0.001853
0.000256
0.001763
0.000255
0.000251
0.000255
0.000230
0.000282
0.000274
0.000197
0.000056
0.000207
0.000244
0.001371
0.000215
0.000295
0.000208
0.000224
0.000225
0.000264
0.000245
0.000245
0.000251
0.000254
0.000252
0.000258
0.000258
0.000269
0.000274
0.000299
0.000250
0.001863
0.000281
0.001780
0.000286
0.000262
0.000248
0.000255
0.000261
0.000263
0.000259
0.000192
0.000056
0.001423
0.000237
0.000250
0.000223
0.000213
0.000225
0.000279
0.000348
0.000261
0.000246
0.000260
0.000254
0.000259
0.000363
0.000457
0.000269
0.000259
0.000272
0.000232
0.000218
0.000275
0.000306
0.000284
0.000240
0.000275
0.000268
0.000257
0.000362
0.000673
0.000365
0.000181
0.000056
0.000224
0.000288
0.000258
0.000320
0.000349
0.000274
0.001672
0.000283
0.000282
0.000253
0.000276
0.000293
0.000267
0.000264
0.000298
0.000310
0.000395
0.000466
0.000384
0.000278
0.000321
0.000278
0.000261
0.000270
0.000324
0.000267
0.000258
0.000240
0.000262
0.000278
0.000393
0.000056
0.000291
0.000375
0.000268
0.000263
0.000255
0.000229
0.000223
0.000245
0.000258
0.000253
0.001514
0.000249
0.000210
0.000248
0.000252
0.000292
0.000253
0.000249
0.000263
0.000264
0.000268
0.000522
0.000374
0.000398
0.000225
0.000283
0.000267
0.000245
0.000242
0.000235
0.000244
0.000055
0.000213
0.000192
0.000258
0.000497
0.000348
0.000293
0.000200
0.000241
0.000254
0.000263
0.000226
0.000272
0.000231
0.000278
0.000224
0.000255
0.000421
0.001255
0.000211
0.000274
0.000221
0.000232
0.000370
0.000494
0.000208
0.000236
0.000640
0.000533
0.000218
0.000236
0.000148
0.000056
0.000207
0.000219
0.000265
0.000258
0.000320
0.000197
0.000346
0.000479
0.000416
0.000300
0.000368
0.000398
0.000419
0.000328
0.000240
0.000217
0.000218
0.000258
0.000457
0.000449
0.001196
0.000245
0.000254
0.000265
0.000237
0.000261
0.000237
0.000321
0.000396
0.000517
0.000250
0.000057
0.000186
0.000210
0.000251
0.000233
0.000253
0.000246
0.000239
0.000253
0.000257
0.000425
0.000515
0.000348
0.000231
0.000212
0.000210
0.000261
0.000242
0.000267
0.000267
0.000539
0.000214
0.000221
0.000363
0.000512
0.000233
0.000247
0.000241
0.000274
0.000247
0.000282
0.000243
0.000056
0.000271
0.000299
0.000321
0.000452
0.000391
0.000337
0.000262
0.000255
0.000208
0.000265
0.000264
0.000258
0.000239
0.000257
0.000251
0.000220
0.000261
0.000359
0.000535
0.000365
0.000222
0.000269
0.000205
0.000244
0.000259
0.000292
0.000252
0.000274
0.000277
0.000269
0.000282
0.000056
0.000348
0.000272
0.000223
0.000231
0.000244
0.000241
0.000254
0.000249
0.000263
0.000259
0.000262
0.000235
0.000292
0.000564
0.000414
0.000307
0.000215
0.000202
0.000245
0.000264
0.000287
0.000248
0.000256
0.000259
0.000278
0.000297
0.000612
0.000399
0.000517
0.000214
0.000142
0.000057
0.000387
0.000216
0.000184
0.000227
0.000258
0.000247
0.000245
0.000265
0.000236
0.000256
0.000228
0.000249
0.000266
0.000230
0.000246
0.000261
0.000246
0.000266
0.000272
0.000265
0.000260
0.000260
0.000261
0.000265
0.000266
0.000281
0.000222
0.000272
0.000262
0.000278
0.000224
0.000056
0.000202
0.000199
0.000275
0.000228
0.000232
0.000240
0.000258
0.000244
0.000265
0.000283
0.000222
0.000237
0.000255
0.000408
0.000242
0.000278
0.000260
0.000266
0.000257
0.000276
0.000270
0.000246
0.000248
0.000245
0.000269
0.000270
0.000276
0.000237
0.000263
0.000260
0.000221
0.000055
0.000251
0.000377
0.000348
0.000297
0.000316
0.000211
0.000198
0.000249
0.000244
0.000229
0.000252
0.000262
0.000249
0.000239
0.000252
0.000256
0.000271
0.000268
0.000264
0.000253
0.000263
0.000272
0.000283
0.000246
0.000278
0.000281
0.000242
0.000267
0.000253
0.000257
0.000211
0.000056
0.000198
0.000220
0.000240
0.000279
0.000238
0.000454
0.000215
0.000234
0.000282
0.000426
0.000517
0.000343
0.000192
0.000241
0.000249
0.000272
0.000245
0.000258
0.000273
0.000255
0.000261
0.000271
0.000280
0.000247
0.000644
0.000436
0.000249
0.000268
0.000275
0.000254
0.000211
0.000055
0.000203
0.000206
0.000242
0.000250
0.000420
0.000537
0.000335
0.000369
0.000242
0.000216
0.000256
0.000265
0.000249
0.000245
0.000255
0.000265
0.000274
0.000246
0.000595
0.000450
0.000304
0.000215
0.000244
0.000281
0.000284
0.000259
0.000264
0.000265
0.000262
0.000335
0.000362
0.000056
0.000261
0.000238
0.000212
0.000228
0.000257
0.000262
0.000242
0.000233
0.000237
0.000258
0.000250
0.000264
0.000276
0.000501
0.000406
0.000431
0.000242
0.000233
0.000253
0.000267
0.000244
0.000272
0.000507
0.000215
0.000254
0.000800
0.000265
0.000429
0.000283
0.000252
0.000186
0.000055
0.000180
0.000206
0.000244
0.000238
0.000250
0.000260
0.000289
0.000529
0.000586
0.000351
0.000234
0.000238
0.000272
0.000288
0.000279
0.000227
0.000228
0.000237
0.000310
0.000419
0.000325
0.000533
0.000435
0.000272
0.000446
0.000649
0.000184
0.000206
0.000244
0.000388
0.000402
0.000056
0.000266
0.000229
0.000474
0.000201
0.000233
0.000259
0.000204
0.000261
0.000238
0.000252
0.000253
0.000419
0.000426
0.000306
0.000230
0.000214
0.000281
0.000221
0.000269
0.000271
0.000275
0.000260
0.000243
0.000268
0.000319
0.000500
0.000460
0.000258
0.000254
0.000271
0.000211
0.000056
0.000212
0.000249
0.000218
0.000238
0.000241
0.000256
0.000389
0.000408
0.000444
0.000301
0.000326
0.000245
0.000212
0.000264
0.000265
0.000247
0.000243
0.000264
0.000279
0.000430
0.000503
0.000298
0.000449
0.000357
0.000395
0.000391
0.000381
0.000250
0.000227
0.000269
0.000391
0.000057
0.000235
0.000263
0.000221
0.000240
0.000257
0.000255
0.000248
0.000246
0.000258
0.000267
0.000239
0.000410
0.000415
0.000351
0.000361
0.000266
0.000237
0.000259
0.000262
0.000239
0.000254
0.000246
0.000284
0.000259
0.000274
0.000331
0.000613
0.000364
0.000233
0.000278
0.000205
0.000056
0.000199
0.000212
0.000263
0.000248
0.000253
0.000340
0.000727
0.000269
0.000358
0.000663
0.000292
0.000226
0.000202
0.000266
0.000248
0.000281
0.000266
0.000261
0.000493
0.001753
0.000325
0.000240
0.000252
0.000268
0.000327
0.000192
0.000384
0.000379
0.000364
0.000349
0.000148
0.000055
0.000221
0.000192
0.000248
0.000244
0.000237
0.000256
0.000286
0.000239
0.000247
0.000373
0.000375
0.000340
0.000276
0.000383
0.000388
0.000327
0.000231
0.000214
0.000244
0.000260
0.000234
0.000253
0.000282
0.000268
0.000332
0.000537
0.000361
0.000266
0.000234
0.000252
0.000201
0.000056
0.000216
0.000222
0.000252
0.000256
0.000257
0.000227
0.000451
0.000236
0.000233
0.000248
0.000250
0.000251
0.000259
0.000255
0.000251
0.000267
0.000268
0.000258
0.000282
0.000251
0.000256
0.000336
0.000255
0.000255
0.000245
0.000281
0.000272
0.000259
0.000277
0.000260
0.000194
0.000055
0.000229
0.000208
0.000267
0.000551
0.000335
0.000214
0.000222
0.000247
0.000253
0.000245
0.000246
0.000256
0.000279
0.000245
0.000247
0.000242
0.000250
0.000257
0.000259
0.000390
0.000368
0.000446
0.000231
0.000254
0.000273
0.000254
0.000265
0.000252
0.000291
0.000259
0.000210
0.000056
0.000421
0.000408
0.000331
0.000222
0.000237
0.000267
0.000501
0.000177
0.000215
0.000220
0.000293
0.000332
0.000363
0.000551
0.001656
0.000267
0.000248
0.000237
0.000295
0.000229
0.000368
0.000548
0.000443
0.000368
0.000229
0.000234
0.000261
0.000422
0.000290
0.000273
0.000185
0.000057
0.000235
0.000374
0.000358
0.000233
0.000512
0.000214
0.000221
0.000258
0.000242
0.000243
0.000257
0.000246
0.000264
0.000319
0.000448
0.000471
0.000231
0.000208
0.000251
0.000260
0.000261
0.000331
0.000241
0.000266
0.000274
0.000461
0.000495
0.000433
0.000467
0.000224
0.000194
0.000056
0.000201
0.000202
0.000246
0.000232
0.000245
0.000251
0.000266
0.000287
0.000370
0.000435
0.000335
0.000376
0.000212
0.000228
0.000265
0.000274
0.000333
0.000242
0.000260
0.000271
0.000244
0.000436
0.000329
0.000415
0.000240
0.000281
0.000258
0.000506
0.000392
0.000279
0.000167
0.000056
0.000176
0.000253
0.000306
0.000441
0.000355
0.000228
0.000218
0.000253
0.000259
0.000253
0.000267
0.000260
0.000227
0.000244
0.000259
0.000290
0.000381
0.000385
0.000311
0.000363
0.000474
0.000215
0.000268
0.000279
0.000307
0.000276
0.000273
0.000255
0.000474
0.000577
0.000161
0.000056
0.000182
0.000206
0.000242
0.000252
0.000271
0.000455
0.000224
0.000242
0.000258
0.000307
0.000571
0.000527
0.000242
0.000219
0.000241
0.000254
0.000252
0.000250
0.000267
0.000246
0.000253
0.000266
0.000400
0.000443
0.000385
0.000316
0.000348
0.000344
0.000304
0.000216
0.000169
0.000056
0.000178
0.000217
0.000240
0.000497
0.000317
0.000373
0.000259
0.000210
0.000195
0.000242
0.000255
0.000253
0.000250
0.000259
0.000311
0.000215
0.000239
0.000250
0.000243
0.000440
0.000473
0.000420
0.000219
0.000243
0.000276
0.000268
0.000252
0.000259
0.000262
0.000276
0.000205
0.000056
0.000341
0.000343
0.000480
0.000209
0.000213
0.000209
0.000309
0.000524
0.000270
0.000201
0.000218
0.000272
0.000248
0.000498
0.000416
0.000327
0.000210
0.000215
0.000291
0.000212
0.000262
0.000267
0.000267
0.000264
0.000262
0.000288
0.000449
0.000482
0.000278
0.000220
0.000149
0.000056
0.000200
0.000217
0.000235
0.000254
0.000254
0.000260
0.000237
0.000250
0.000257
0.000244
0.000263
0.000244
0.000257
0.001469
0.000242
0.000231
0.000258
0.000248
0.000274
0.000275
0.000259
0.000239
0.000286
0.000257
0.000258
0.000265
0.000278
0.000267
0.000264
0.000263
0.000210
0.000055
0.000223
0.000213
0.000225
0.000247
0.000250
0.000252
0.000238
0.000261
0.000236
0.000243
0.000246
0.000262
0.000256
0.000257
0.000256
0.000253
0.000251
0.000263
0.000274
0.000249
0.000264
0.000251
0.000248
0.000257
0.001363
0.000271
0.000585
0.000352
0.000424
0.000209
0.000176
0.000057
0.000191
0.000221
0.000228
0.000542
0.000201
0.000241
0.000183
0.000216
0.000253
0.000319
0.000587
0.000331
0.000235
0.000180
0.000239
0.000258
0.000246
0.000268
0.000251
0.000254
0.000258
0.000256
0.000257
0.000636
0.000367
0.000407
0.000212
0.000244
0.001368
0.000269
0.000178
0.000057
0.000379
0.000393
0.000354
0.000269
0.000186
0.000204
0.000223
0.000244
0.000261
0.000250
0.000249
0.000258
0.000260
0.000283
0.000545
0.000444
0.000297
0.000237
0.000252
0.000251
0.000243
0.000265
0.000272
0.000264
0.000265
0.000258
0.000358
0.000518
0.000416
0.000379
0.000166
0.000057
0.000186
0.000226
0.001314
0.000374
0.000258
0.000510
0.000335
0.000336
0.000435
0.000371
0.000240
0.000194
0.000249
0.000252
0.000250
0.000260
0.000381
0.000452
0.000424
0.000348
0.000264
0.000254
0.000254
0.000514
0.000243
0.000241
0.000254
0.000287
0.000264
0.000577
0.000386
0.000057
0.000341
0.000386
0.000221
0.000206
0.001587
0.000477
0.000330
0.000193
0.000204
0.000246
0.000229
0.000228
0.000251
0.000262
0.000252
0.000264
0.000231
0.000333
0.000399
0.000435
0.000441
0.000210
0.000218
0.000248
0.000260
0.000260
0.000283
0.000233
0.000273
0.000263
0.000222
0.000056
0.000367
0.000314
0.000259
0.000222
0.000227
0.000241
0.000261
0.000241
0.000232
0.000255
0.001460
0.000460
0.000274
0.000206
0.000204
0.000264
0.000257
0.000287
0.000214
0.000270
0.000278
0.000256
0.000275
0.000424
0.000393
0.000482
0.000209
0.000255
0.000284
0.000282
0.000189
0.000057
0.000494
0.000175
0.000184
0.000201
0.000332
0.000464
0.000359
0.000326
0.000447
0.000221
0.000218
0.000247
0.000261
0.000266
0.000259
0.001394
0.000378
0.000282
0.000242
0.000272
0.000279
0.000253
0.000267
0.000244
0.000263
0.000269
0.000501
0.000388
0.000309
0.000293
0.000146
0.000056
0.000179
0.000212
0.000253
0.000241
0.000229
0.000259
0.000243
0.000243
0.000376
0.000328
0.000444
0.000314
0.000208
0.000214
0.000233
0.000272
0.000274
0.000260
0.000276
0.000238
0.000241
0.000299
0.001348
0.000236
0.000251
0.000213
0.000243
0.000259
0.000259
0.000268
0.000200
0.000058
0.000222
0.000364
0.000404
0.000320
0.000231
0.000208
0.000239
0.000258
0.000263
0.000245
0.000264
0.000259
0.000244
0.000269
0.000244
0.000260
0.000264
0.000277
0.000258
0.000253
0.000246
0.000273
0.000272
0.000277
0.000288
0.000274
0.000287
0.000233
0.000277
0.000495
0.001324
0.000056
0.000193
0.000220
0.000237
0.000229
0.000263
0.000256
0.000254
0.000234
0.000229
0.000256
0.000259
0.000267
0.000250
0.000238
0.000255
0.001723
0.000350
0.000213
0.000214
0.000235
0.000243
0.000258
0.000274
0.000258
0.000270
0.000268
0.000257
0.000281
0.000270
0.000263
0.000234
0.000055
0.000260
0.000324
0.001343
0.000200
0.000208
0.000218
0.000254
0.000252
0.000256
0.000256
0.000232
0.000340
0.000402
0.000520
0.000256
0.000204
0.000225
0.000247
0.000257
0.000269
0.000241
0.000265
0.000270
0.000283
0.000278
0.000413
0.000361
0.000380
0.000274
0.000251
0.000206
0.000056
0.000198
0.000225
0.000239
0.000244
0.000255
0.000242
0.000217
0.000330
0.000351
0.000423
0.001179
0.000233
0.000253
0.000239
0.000256
0.000268
0.000267
0.000251
0.000343
0.000503
0.000276
0.000275
0.000234
0.000235
0.000267
0.000276
0.000292
0.000271
0.000273
0.000277
0.000217
0.000057
0.000252
0.000427
0.000401
0.000230
0.000208
0.000208
0.000227
0.000273
0.000263
0.000265
0.000221
0.000543
0.000246
0.000484
0.000484
0.001443
0.000224
0.000249
0.000348
0.000360
0.000430
0.000431
0.000480
0.000378
0.000228
0.000252
0.000267
0.000275
0.000273
0.000266
0.000209
0.000056
0.000218
0.000259
0.000655
0.000407
0.000219
0.000208
0.000240
0.000240
0.000238
0.000260
0.000258
0.000258
0.000262
0.000241
0.000269
0.000297
0.000361
0.000508
0.000297
0.001323
0.000250
0.000265
0.000245
0.000481
0.000329
0.000420
0.000405
0.000205
0.000242
0.000265
0.000220
0.000056
0.000182
0.000220
0.000248
0.000242
0.000249
0.000275
0.000584
0.000280
0.000358
0.000229
0.000216
0.000257
0.000269
0.000259
0.000266
0.000258
0.000259
0.000263
0.000265
0.000291
0.000546
0.000413
0.000328
0.001344
0.000333
0.000237
0.000298
0.000438
0.000411
0.000373
0.000329
0.000057
0.000194
0.000204
0.000243
0.000254
0.000247
0.000252
0.001703
0.000258
0.000228
0.000199
0.000250
0.000269
0.000318
0.000328
0.000332
0.000282
0.000264
0.000373
0.000418
0.000442
0.000273
0.000268
0.000229
0.000224
0.001431
0.000433
0.000419
0.000463
0.000319
0.000319
0.000141
0.000057
0.000175
0.000232
0.000253
0.000261
0.000242
0.000259
0.001784
0.000215
0.000242
0.000253
0.000388
0.000407
0.001424
0.000331
0.000423
0.000211
0.000209
0.000246
0.000246
0.000269
0.001626
0.000505
0.000460
0.000279
0.000213
0.000222
0.000243
0.000277
0.000257
0.000239
0.000224
0.000056
0.000196
0.000214
0.000255
0.000251
0.000259
0.000277
0.000284
0.000250
0.000251
0.000273
0.000240
0.000250
0.000249
0.000271
0.000257
0.001508
0.000274
0.000227
0.000265
0.000271
0.000280
0.000250
0.000444
0.001269
0.000279
0.000239
0.000260
0.000250
0.000500
0.000190
0.000177
0.000057
0.000204
0.000218
0.000224
0.000245
0.000242
0.000223
0.000239
0.001772
0.000224
0.000211
0.000223
0.000357
0.000236
0.000224
0.001460
0.000247
0.000217
0.000212
0.000270
0.000241
0.000271
0.000294
0.000341
0.001360
0.000274
0.000232
0.000223
0.000254
0.001396
0.000275
0.000237
0.000056
0.000261
0.000324
0.000205
0.000212
0.000243
0.000241
0.000262
0.000266
0.000266
0.000241
0.000276
0.000261
0.000253
0.000241
0.000345
0.001475
0.000256
0.000253
0.000255
0.000245
0.000281
0.000263
0.000261
0.001566
0.000282
0.000263
0.000235
0.001361
0.000227
0.000236
0.000184
0.000056
0.000237
0.000354
0.000328
0.000235
0.000196
0.000237
0.000263
0.000259
0.000266
0.000290
0.000220
0.000251
0.000260
0.000262
0.000504
0.001224
0.000208
0.000220
0.000247
0.000268
0.000258
0.000226
0.000244
0.001293
0.000395
0.000224
0.000219
0.000246
0.000237
0.001358
0.000331
0.000055
0.000241
0.000280
0.000211
0.000206
0.000242
0.000242
0.000242
0.000252
0.000266
0.000264
0.000253
0.000249
0.000237
0.000334
0.000407
0.001482
0.000234
0.000227
0.000272
0.000540
0.000288
0.000392
0.001343
0.000300
0.000248
0.000258
0.001286
0.000353
0.000250
0.000529
0.000315
0.000055
0.000197
0.000241
0.000253
0.000256
0.000246
0.000254
0.000280
0.000243
0.000266
0.000261
0.000340
0.000559
0.001295
0.000206
0.000241
0.000262
0.000281
0.000266
0.000207
0.000218
0.000336
0.001316
0.000233
0.000245
0.000214
0.000242
0.001501
0.000441
0.000480
0.000236
0.000199
0.000056
0.000198
0.000209
0.000243
0.000230
0.000249
0.000265
0.000250
0.000284
0.000408
0.000481
0.000311
0.001459
0.000225
0.000216
0.000260
0.000255
0.000289
0.000357
0.001561
0.000324
0.000352
0.000359
0.001317
0.000366
0.000334
0.000349
0.000216
0.000211
0.000249
0.000259
0.000226
0.000056
0.000188
0.000212
0.000317
0.000225
0.000309
0.000594
0.000272
0.000347
0.001478
0.000304
0.000336
0.000237
0.000202
0.000310
0.000403
0.001333
0.000263
0.000214
0.000230
0.000235
0.000321
0.001570
0.000372
0.000276
0.000225
0.000222
0.000530
0.000300
0.000228
0.000223
0.000253
0.000056
0.000275
0.000334
0.000368
0.000281
0.000208
0.001456
0.000256
0.000238
0.000236
0.000270
0.000268
0.000245
0.000362
0.001447
0.000240
0.000229
0.000412
0.001308
0.000286
0.000444
0.000338
0.000250
0.000240
0.000249
0.000280
0.000253
0.000447
0.000233
0.000259
0.000266
0.000234
0.000057
0.000174
0.000253
0.000342
0.001449
0.000277
0.000221
0.000280
0.000248
0.000240
0.000255
0.000240
0.000254
0.001663
0.000214
0.000207
0.000227
0.001372
0.000313
0.000495
0.000476
0.000291
0.000211
0.000241
0.000223
0.000376
0.000234
0.000236
0.000250
0.000245
0.000256
0.000211
0.000057
0.000189
0.000463
0.001385
0.000220
0.000238
0.000268
0.000254
0.000257
0.000314
0.000393
0.001327
0.000245
0.000306
0.000237
0.000205
0.001410
0.000610
0.000284
0.000317
0.000403
0.000338
0.000232
0.000230
0.000232
0.000260
0.000288
0.000276
0.000295
0.000499
0.000442
0.001373
0.000055
0.000200
0.000243
0.000228
0.000209
0.000249
0.000395
0.000562
0.001303
0.000214
0.000216
0.000241
0.001376
0.000593
0.000235
0.000454
0.000259
0.000213
0.000202
0.000242
0.000280
0.000268
0.000246
0.000280
0.000259
0.000257
0.000309
0.000422
0.000532
0.001435
0.000266
0.000187
0.000055
0.000193
0.000217
0.000429
0.000477
0.001224
0.000283
0.000255
0.000249
0.000252
0.000251
0.000252
0.000266
0.000339
0.000561
0.000321
0.000222
0.000234
0.000278
0.000243
0.000273
0.000261
0.000270
0.000261
0.000260
0.000258
0.000358
0.000541
0.000325
0.000324
0.001465
0.000155
0.000056
0.000222
0.000207
0.000273
0.000473
0.000326
0.000314
0.000291
0.000333
0.000265
0.000275
0.000261
0.000259
0.000240
0.000313
0.000250
0.000282
0.000495
0.000382
0.000317
0.000350
0.000294
0.000463
0.000227
0.000243
0.000209
0.000264
0.000243
0.000285
0.000361
0.000500
0.000328
0.000055
0.000225
0.001358
0.000253
0.000352
0.000363
0.000458
0.000387
0.000302
0.000226
0.000204
0.000259
0.000246
0.000259
0.000267
0.000268
0.000276
0.000242
0.001426
0.000261
0.000216
0.000224
0.000273
0.000272
0.000275
0.000269
0.000258
0.000275
0.000243
0.000265
0.000500
0.000358
0.000057
0.000238
0.000244
0.001431
0.000317
0.000345
0.000210
0.000212
0.000217
0.000221
0.000232
0.000250
0.000273
0.000254
0.000254
0.000256
0.000270
0.000239
0.000286
0.000240
0.000270
0.001429
0.000276
0.000224
0.000331
0.000227
0.000221
0.000244
0.000256
0.000288
0.000514
0.000368
0.000056
0.000185
0.000225
0.000363
0.000288
0.000252
0.000250
0.001541
0.000408
0.000278
0.000209
0.000216
0.000355
0.000321
0.000221
0.000222
0.000240
0.000255
0.000253
0.000266
0.000252
0.000487
0.000587
0.001116
0.000255
0.000210
0.000229
0.000261
0.000257
0.000276
0.000266
0.000389
0.000057
0.000273
0.000361
0.000193
0.000188
0.000245
0.000237
0.000244
0.000225
0.001466
0.000481
0.000399
0.000278
0.000234
0.000189
0.000254
0.000255
0.000247
0.000279
0.000258
0.000305
0.000310
0.000498
0.000435
0.001381
0.000267
0.000216
0.000276
0.000259
0.000274
0.000298
0.000601
0.000056
0.000185
0.000196
0.000251
0.000235
0.000226
0.000246
0.000251
0.000242
0.000278
0.001598
0.000321
0.000262
0.000257
0.000263
0.000459
0.000309
0.000397
0.000460
0.000330
0.000331
0.000463
0.000495
0.001258
0.000236
0.000216
0.000230
0.001780
0.000419
0.000596
0.000319
0.000151
0.000055
0.000173
0.000214
0.000238
0.000239
0.000250
0.000239
0.000369
0.000403
0.000586
0.000339
0.000318
0.000195
0.000205
0.000254
0.000262
0.000269
0.000246
0.000256
0.000250
0.000272
0.000265
0.000543
0.001236
0.000252
0.000228
0.000260
0.001876
0.000427
0.000361
0.000356
0.000177
0.000056
0.000194
0.000223
0.000240
0.001550
0.000412
0.000246
0.000228
0.000281
0.000240
0.000336
0.000365
0.000376
0.000350
0.000306
0.000283
0.000518
0.000338
0.001274
0.000262
0.000208
0.000209
0.000262
0.000386
0.000395
0.000573
0.000493
0.000223
0.000213
0.000261
0.000281
0.000212
0.000057
0.000195
0.000206
0.001464
0.000411
0.000200
0.000215
0.000220
0.000247
0.000250
0.000251
0.000248
0.000273
0.000272
0.000267
0.000276
0.000447
0.000431
0.000272
0.001382
0.000246
0.000246
0.000252
0.000257
0.000267
0.000381
0.000491
0.000475
0.000277
0.000286
0.000249
0.000393
0.000056
0.000182
0.000205
0.000252
0.000263
0.001580
0.000234
0.000247
0.000241
0.000262
0.000260
0.000250
0.000272
0.000248
0.000244
0.000440
0.000476
0.001482
0.000727
0.000214
0.000354
0.000247
0.000207
0.000226
0.000279
0.001769
0.000727
0.000254
0.000236
0.000275
0.000289
0.000204
0.000056
0.000192
0.000216
0.000247
0.000241
0.000257
0.000247
0.000250
0.000243
0.000258
0.000219
0.000282
0.000284
0.000253
0.000264
0.000253
0.000260
0.000255
0.001614
0.000689
0.000494
0.000233
0.000215
0.000234
0.000267
0.000283
0.000256
0.000278
0.000254
0.001508
0.000337
0.000380
0.000056
0.000200
0.000204
0.000235
0.000252
0.000259
0.000246
0.000238
0.000252
0.000250
0.000289
0.000207
0.000460
0.000447
0.000363
0.000210
0.000222
0.000246
0.001490
0.000678
0.000391
0.000361
0.000295
0.000216
0.000232
0.000264
0.000266
0.000245
0.000266
0.001512
0.000431
0.000228
0.000055
0.000220
0.000197
0.000246
0.000239
0.000251
0.000245
0.000244
0.000248
0.000267
0.000261
0.000346
0.000408
0.000332
0.000229
0.000232
0.000243
0.000260
0.000254
0.001602
0.000593
0.000547
0.000283
0.000227
0.000234
0.000250
0.000255
0.000265
0.000290
0.000266
0.001467
0.000276
0.000055
0.000198
0.000214
0.000218
0.000249
0.000259
0.000243
0.000297
0.000351
0.000372
0.000414
0.000353
0.000485
0.000238
0.000211
0.000223
0.000247
0.000270
0.000258
0.001405
0.000895
0.000309
0.000194
0.000473
0.000217
0.000215
0.000247
0.000276
0.000277
0.000253
0.000278
0.000393
0.000073
0.000264
0.000228
0.000216
0.000226
0.000253
0.000256
0.000222
0.000237
0.000256
0.000268
0.000248
0.000230
0.000293
0.000441
0.000558
0.000358
0.000216
0.000261
0.000254
0.000246
0.000256
0.000389
0.001375
0.001055
0.000242
0.000229
0.000265
0.000266
0.000271
0.000258
0.000217
0.000055
0.000187
0.001388
0.000261
0.000202
0.000201
0.000247
0.000252
0.000240
0.000232
0.000254
0.000263
0.000255
0.000244
0.000343
0.000437
0.000464
0.000285
0.000211
0.000259
0.000287
0.000250
0.000240
0.000242
0.000271
0.001411
0.000661
0.000327
0.000401
0.000373
0.000401
0.000256
0.000056
0.000199
0.000220
0.000341
0.001339
0.000211
0.000260
0.000214
0.000259
0.000250
0.000263
0.000266
0.000230
0.000282
0.000426
0.000465
0.000393
0.000189
0.000391
0.000224
0.000193
0.000235
0.000265
0.000228
0.000273
0.000270
0.001536
0.000736
0.000309
0.000271
0.000271
0.000207
0.000056
0.000202
0.000220
0.000466
0.000415
0.001287
0.000242
0.000209
0.000203
0.000222
0.000257
0.000234
0.000259
0.000240
0.000235
0.000254
0.000251
0.000273
0.000231
0.000254
0.000261
0.000264
0.000270
0.000371
0.000277
0.000219
0.000252
0.000263
0.001551
0.000229
0.000223
0.000158
0.000056
0.000190
0.000204
0.000253
0.000347
0.000348
0.000337
0.000403
0.000245
0.001562
0.000245
0.000275
0.000478
0.000414
0.000207
0.000483
0.000225
0.000224
0.000219
0.000257
0.000273
0.000284
0.000262
0.000259
0.000270
0.000269
0.000393
0.000474
0.000320
0.001529
0.000249
0.000176
0.000055
0.000237
0.000208
0.000257
0.000232
0.000247
0.000238
0.000306
0.000465
0.000323
0.001998
0.000201
0.000203
0.000251
0.000251
0.000262
0.000336
0.000261
0.000206
0.000241
0.000472
0.000329
0.000482
0.001499
0.000236
0.000216
0.000491
0.001771
0.000271
0.000269
0.001487
0.000196
0.000056
0.000316
0.000391
0.000492
0.000219
0.000262
0.000232
0.000248
0.000265
0.000272
0.000232
0.000250
0.000327
0.000418
0.000359
0.000409
0.000283
0.000200
0.001582
0.000486
0.001997
0.000321
0.000238
0.000215
0.001549
0.002030
0.000737
0.000273
0.000235
0.000252
0.000592
0.000229
0.000056
0.000193
0.000212
0.000251
0.000250
0.001494
0.001671
0.001063
0.000234
0.000212
0.001587
0.001988
0.000218
0.000323
0.000406
0.000292
0.000396
0.000420
0.000339
0.000254
0.000216
0.000252
0.000250
0.000280
0.001564
0.001310
0.001415
0.000285
0.000264
0.000247
0.000278
0.000368
0.000057
0.000236
0.000214
0.000195
0.000248
0.000227
0.000231
0.000265
0.000242
0.000275
0.000229
0.000254
0.000331
0.000473
0.000458
0.000304
0.000201
0.000232
0.000258
0.000267
0.000268
0.000252
0.001381
0.000476
0.000450
0.002061
0.000271
0.000224
0.000336
0.000473
0.000457
0.000158
0.000055
0.000204
0.000318
0.000481
0.000316
0.000226
0.000201
0.000241
0.000257
0.000244
0.000234
0.000260
0.000253
0.000256
0.001618
0.001423
0.001226
0.000275
0.000225
0.000218
0.000232
0.000285
0.000277
0.000252
0.000253
0.002274
0.000221
0.000221
0.000276
0.000324
0.000303
0.000245
0.000056
0.000205
0.000396
0.000580
0.000324
0.000205
0.000212
0.000219
0.000256
0.001910
0.001413
0.000266
0.000386
0.000390
0.000359
0.000266
0.000207
0.000222
0.000262
0.000268
0.000255
0.000273
0.000262
0.000469
0.000260
0.000242
0.000297
0.000235
0.000273
0.000290
0.000236
0.000216
0.000055
0.000177
0.000219
0.000253
0.000237
0.000248
0.000270
0.001551
0.001499
0.001310
0.000226
0.000199
0.000226
0.000255
0.000263
0.000258
0.000243
0.000254
0.002168
0.000217
0.000233
0.000237
0.000257
0.000261
0.000275
0.000255
0.000269
0.000253
0.000259
0.000279
0.000260
0.000188
0.000057
0.001515
0.000311
0.002384
0.000264
0.000285
0.000294
0.000252
0.000252
0.000268
0.000236
0.000261
0.000236
0.000237
0.000239
0.000269
0.000257
0.000262
0.000280
0.000252
0.000273
0.000266
0.000271
0.000283
0.000273
0.000238
0.000256
0.000251
0.000274
0.000261
0.000270
0.000393
0.000055
0.000194
0.002566
0.000332
0.000199
0.000191
0.000217
0.000249
0.000265
0.000250
0.000275
0.000402
0.000345
0.000356
0.000226
0.000222
0.002221
0.000209
0.000231
0.000236
0.000502
0.000432
0.000292
0.000203
0.000237
0.000260
0.000247
0.000273
0.000270
0.000275
0.001753
0.001167
0.000056
0.000213
0.000199
0.000320
0.000350
0.000411
0.000245
0.000223
0.000215
0.000247
0.000260
0.000258
0.000251
0.000222
0.000255
0.000267
0.000246
0.000299
0.000615
0.000431
0.000232
0.000220
0.000252
0.000267
0.000266
0.000259
0.000248
0.000250
0.000272
0.000268
0.000252
0.000438
0.000058
0.001096
0.000250
0.000332
0.000436
0.000338
0.000205
0.000221
0.000212
0.002197
0.000430
0.000354
0.000371
0.000192
0.000295
0.000332
0.000268
0.000266
0.000264
0.000250
0.000266
0.000225
0.000251
0.000763
0.000393
0.001790
0.001358
0.000520
0.000522
0.000245
0.000250
0.000201
0.000055
0.000286
0.000291
0.000239
0.000235
0.000257
0.000232
0.000239
0.000233
0.000255
0.000276
0.000276
0.000243
0.000244
0.000248
0.000332
0.000551
0.001877
0.001304
0.000411
0.000415
0.000455
0.000247
0.000244
0.000257
0.002193
0.000493
0.000380
0.000234
0.000289
0.000268
0.000214
0.000057
0.000179
0.000224
0.000253
0.000238
0.000247
0.000414
0.000373
0.000335
0.000304
0.000221
0.000227
0.000290
0.000226
0.002104
0.000366
0.000383
0.000226
0.000227
0.000262
0.000269
0.000251
0.002473
0.000334
0.000214
0.000253
0.000273
0.000241
0.000273
0.000263
0.000290
0.000218
0.000056
0.000188
0.000491
0.000468
0.000346
0.000234
0.000204
0.000195
0.000267
0.000247
0.000256
0.002156
0.000272
0.000263
0.000259
0.000188
0.000253
0.000275
0.000255
0.002257
0.000390
0.000216
0.000265
0.000267
0.000262
0.000259
0.000256
0.000269
0.000268
0.000258
0.000261
0.000201
0.000057
0.000194
0.000209
0.000250
0.000216
0.000250
0.000252
0.000240
0.000248
0.000237
0.002194
0.000250
0.000254
0.000210
0.000485
0.000227
0.000205
0.000250
0.000282
0.000255
0.000262
0.002036
0.000251
0.000376
0.000369
0.000489
0.000336
0.000291
0.000253
0.000227
0.000248
0.000198
0.000055
0.000191
0.000240
0.000217
0.000243
0.000241
0.000397
0.000195
0.002385
0.000180
0.000219
0.000215
0.000260
0.000237
0.000246
0.000309
0.002196
0.000519
0.000249
0.000225
0.000239
0.000273
0.000283
0.000254
0.000272
0.000263
0.000255
0.000284
0.000253
0.000260
0.000312
0.000168
0.000056
0.000204
0.003044
0.000203
0.000212
0.000238
0.000254
0.000249
0.000295
0.000390
0.000396
0.002115
0.000254
0.000257
0.000238
0.000283
0.000502
0.000465
0.000298
0.000225
0.000218
0.000231
0.000267
0.000272
0.000240
0.000246
0.000265
0.000252
0.000272
0.000384
0.000648
0.000284
0.000055
0.000198
0.000284
0.000253
0.000221
0.000237
0.000237
0.000253
0.000253
0.001610
0.002063
0.000513
0.000272
0.000468
0.000700
0.000350
0.000216
0.000207
0.000238
0.000278
0.000245
0.000280
0.000225
0.000242
0.000277
0.001833
0.001457
0.000291
0.000267
0.000305
0.000368
0.000386
0.000057
0.001934
0.000236
0.000233
0.000193
0.000267
0.000379
0.000461
0.000314
0.000313
0.000234
0.000224
0.000199
0.000254
0.000258
0.000259
0.000265
0.000258
0.000259
0.001913
0.000215
0.000209
0.000235
0.000272
0.000270
0.000281
0.000254
0.001559
0.000328
0.000220
0.000227
0.000165
0.000056
0.000203
0.000204
0.000236
0.000249
0.000246
0.000240
0.000307
0.000395
0.000386
0.000357
0.000197
0.000227
0.000333
0.000323
0.000381
0.000322
0.000227
0.000215
0.000252
0.000370
0.000536
0.000432
0.000216
0.000227
0.000252
0.000251
0.000256
0.000272
0.000279
0.000258
0.000280
0.000055
0.001449
0.000382
0.000229
0.002006
0.000283
0.000461
0.000317
0.000389
0.000193
0.000214
0.000259
0.000248
0.000247
0.000254
0.000259
0.000282
0.000430
0.000288
0.000472
0.000343
0.000340
0.000220
0.000239
0.000269
0.000342
0.000223
0.000245
0.000256
0.000319
0.000503
0.001442
0.000059
0.000171
0.000217
0.002066
0.000269
0.000332
0.000278
0.000242
0.000261
0.000256
0.000261
0.000213
0.000252
0.000262
0.000257
0.000254
0.000356
0.000734
0.001716
0.000260
0.000245
0.000256
0.000264
0.000410
0.000514
0.001481
0.000255
0.000367
0.002010
0.000238
0.000241
0.000192
0.000058
0.000195
0.000216
0.000218
0.000256
0.000218
0.000256
0.000246
0.000277
0.000338
0.000310
0.000379
0.000365
0.000336
0.000288
0.000222
0.000251
0.000266
0.000247
0.000252
0.000273
0.000269
0.000302
0.000273
0.000270
0.000255
0.001586
0.000295
0.000401
0.001977
0.000256
0.000175
0.000084
0.000178
0.000231
0.000220
0.000243
0.000480
0.000215
0.000247
0.000351
0.000367
0.000379
0.000223
0.000229
0.000242
0.000271
0.000270
0.000328
0.000441
0.000414
0.000279
0.000343
0.000604
0.000458
0.001533
0.000259
0.000233
0.002020
0.000357
0.000218
0.000211
0.000274
0.000206
0.000056
0.000203
0.000201
0.000227
0.000240
0.000253
0.000260
0.000259
0.000262
0.000257
0.000252
0.001911
0.000277
0.000390
0.000331
0.000457
0.000362
0.001522
0.000323
0.000209
0.000310
0.002170
0.000508
0.000239
0.000214
0.000239
0.000250
0.000497
0.000254
0.000231
0.000286
0.000214
0.000057
0.000285
0.000375
0.000379
0.000295
0.000185
0.000223
0.000241
0.000247
0.000279
0.000292
0.000230
0.000238
0.000260
0.000268
0.000325
0.000540
0.001264
0.000266
0.000431
0.001949
0.000245
0.000248
0.000230
0.000235
0.000243
0.000282
0.000266
0.000259
0.000253
0.000262
0.000220
0.000056
0.000204
0.000412
0.002086
0.000203
0.000261
0.000223
0.000211
0.000325
0.000744
0.001184
0.000331
0.000369
0.000335
0.001985
0.000248
0.000221
0.000284
0.000254
0.000262
0.000242
0.000280
0.000297
0.000258
0.000318
0.000536
0.000349
0.000353
0.002194
0.000496
0.000486
0.000433
0.000056
0.000201
0.000213
0.000216
0.002032
0.000196
0.000228
0.000233
0.000235
0.000228
0.000259
0.000239
0.000269
0.000247
0.000466
0.000313
0.000367
0.001296
0.000261
0.000245
0.000270
0.000230
0.000249
0.000272
0.000257
0.000389
0.000407
0.000458
0.001598
0.000340
0.000224
0.000153
0.000054
0.000200
0.000199
0.000238
0.000230
0.000254
0.000252
0.000250
0.000254
0.000278
0.000368
0.000356
0.001476
0.000220
0.000210
0.000206
0.000258
0.000264
0.000250
0.000256
0.000527
0.000451
0.000424
0.000214
0.001561
0.000247
0.000245
0.000281
0.000280
0.000269
0.000267
0.000212
0.000056
0.000204
0.000201
0.000257
0.000269
0.000275
0.000223
0.000240
0.000233
0.000259
0.000246
0.000252
0.000252
0.000258
0.000252
0.001595
0.000235
0.000221
0.000284
0.000344
0.000319
0.000362
0.000261
0.000207
0.000259
0.000242
0.000260
0.001464
0.000302
0.000216
0.000220
0.000168
0.000056
0.000204
0.000219
0.000236
0.000272
0.000273
0.000208
0.000244
0.000268
0.000228
0.000276
0.000222
0.000263
0.000224
0.000307
0.000384
0.000357
0.000293
0.001586
0.000352
0.000186
0.000220
0.000233
0.000253
0.000291
0.000425
0.000469
0.000408
0.000238
0.000218
0.001593
0.000192
0.000056
0.000420
0.000287
0.000318
0.000319
0.000208
0.000213
0.000230
0.000268
0.000262
0.000242
0.000255
0.000219
0.001462
0.000343
0.000290
0.000212
0.000228
0.000256
0.000265
0.000271
0.000247
0.000246
0.000248
0.000276
0.000254
0.000338
0.000536
0.000350
0.000286
0.000215
0.000198
0.000057
0.000200
0.000219
0.000421
0.000414
0.000394
0.000213
0.000223
0.000246
0.000255
0.000255
0.000241
0.000237
0.000258
0.000235
0.001335
0.000295
0.000203
0.000223
0.000248
0.000274
0.000234
0.000261
0.000259
0.000265
0.000258
0.000251
0.000277
0.000738
0.000489
0.000207
0.000172
0.000056
0.000188
0.001538
0.000274
0.000323
0.000665
0.000179
0.000205
0.000231
0.000273
0.000253
0.000236
0.000260
0.000272
0.000285
0.000254
0.001548
0.000249
0.000260
0.000264
0.000257
0.000261
0.000253
0.000261
0.000267
0.000260
0.000263
0.000468
0.000403
0.000344
0.000232
0.000150
0.000056
0.000192
0.000227
0.000232
0.001762
0.000353
0.000341
0.000195
0.000201
0.000246
0.000271
0.000270
0.000264
0.000256
0.000259
0.000228
0.000269
0.000394
0.001421
0.000223
0.000204
0.001543
0.000346
0.000508
0.000420
0.000294
0.000236
0.000249
0.000486
0.000248
0.000230
0.000199
0.000057
0.000177
0.000211
0.000210
0.000248
0.000240
0.000255
0.000246
0.000246
0.000262
0.000240
0.000255
0.000251
0.000339
0.000528
0.001627
0.001484
0.000384
0.000557
0.000284
0.000245
0.000230
0.000257
0.000249
0.000253
0.000249
0.000264
0.000269
0.000263
0.001615
0.000308
0.000143
0.000056
0.000259
0.000330
0.000348
0.000335
0.000250
0.000202
0.000220
0.000389
0.000363
0.001436
0.000352
0.001543
0.000410
0.000406
0.000472
0.000284
0.000323
0.000334
0.000344
0.000281
0.000236
0.000352
0.001559
0.000542
0.000237
0.000235
0.000282
0.000232
0.000254
0.000261
0.000215
0.000056
0.000217
0.000231
0.000252
0.000262
0.000232
0.001657
0.000965
0.000899
0.000248
0.000211
0.000260
0.000256
0.000263
0.000262
0.000252
0.000249
0.000257
0.000260
0.000267
0.000273
0.001516
0.000268
0.000254
0.000219
0.000222
0.000252
0.000262
0.000283
0.000257
0.000280
0.000217
0.000057
0.000199
0.000200
0.001539
0.001003
0.000280
0.000354
0.000215
0.000217
0.000239
0.000250
0.000248
0.000258
0.000244
0.002056
0.000463
0.000213
0.000205
0.000241
0.000257
0.000271
0.000200
