0.000320
0.019371
0.002122
0.000250
0.000264
0.000282
0.000303
0.000249
0.000333
0.000294
0.000238
0.000357
0.000508
0.000515
0.000337
0.000369
0.000268
0.000373
0.000325
0.000407
0.000316
0.001948
0.000670
0.000253
0.000256
0.000310
0.000303
0.000324
0.000484
0.000331
0.000560
0.000242
0.000058
0.000213
0.000268
0.000270
0.000263
0.000302
0.000217
0.000287
0.000275
0.000251
0.000332
0.000416
0.000414
0.000317
0.000260
0.000412
0.000299
0.000362
0.000246
0.000255
0.001692
0.000316
0.000264
0.000446
0.000247
0.000282
0.000273
0.000292
0.000318
0.000262
0.000460
0.000250
0.000058
0.000196
0.000246
0.000264
0.000259
0.000255
0.000242
0.000261
0.000266
0.000279
0.001669
0.000232
0.000227
0.000273
0.000266
0.000279
0.000253
0.000264
0.000258
0.000357
0.001789
0.000238
0.000284
0.000437
0.000496
0.000328
0.000245
0.000464
0.000328
0.000520
0.000681
0.000177
0.000057
0.000221
0.000243
0.000257
0.000241
0.000292
0.000253
0.000274
0.000770
0.000203
0.000274
0.000237
0.000250
0.000236
0.000255
0.000257
0.000259
0.000250
0.000260
0.000297
0.000351
0.001641
0.000287
0.000250
0.000412
0.000317
0.000684
0.000638
0.000578
0.000319
0.000239
0.000187
0.000057
0.000193
0.000252
0.000264
0.000238
0.000261
0.000246
0.000293
0.000525
0.001381
0.000235
0.000237
0.000243
0.000252
0.000260
0.000262
0.000292
0.000315
0.000776
0.001371
0.000279
0.000462
0.000254
0.000229
0.000223
0.000253
0.000259
0.000263
0.000275
0.000251
0.000326
0.000145
0.000058
0.000215
0.000244
0.000248
0.000264
0.000235
0.000251
0.000249
0.000244
0.000242
0.000249
0.001634
0.000256
0.000245
0.000235
0.000260
0.000246
0.000250
0.000249
0.000252
0.000255
0.000269
0.001654
0.000291
0.000254
0.000438
0.000253
0.000262
0.000255
0.000268
0.000265
0.000193
0.000055
0.000197
0.000240
0.000247
0.000247
0.000242
0.000246
0.000259
0.000237
0.000261
0.000248
0.000261
0.000260
0.000257
0.000274
0.001635
0.000276
0.000297
0.000213
0.000257
0.000270
0.000269
0.000238
0.000246
0.000265
0.001776
0.000392
0.000354
0.000341
0.000261
0.000281
0.000217
0.000055
0.000191
0.000236
0.000248
0.000285
0.000240
0.000238
0.000369
0.000337
0.000411
0.000420
0.000201
0.000250
0.000256
0.000249
0.001566
0.000572
0.000263
0.000415
0.000325
0.000225
0.000265
0.000285
0.000278
0.001725
0.000514
0.000466
0.000243
0.000251
0.000250
0.000261
0.000186
0.000057
0.000204
0.000233
0.000254
0.000306
0.000518
0.000280
0.000309
0.000271
0.000227
0.000248
0.000260
0.000242
0.000253
0.001735
0.000487
0.000267
0.000227
0.000250
0.000283
0.000273
0.000246
0.000262
0.000271
0.001889
0.000309
0.000390
0.000270
0.000226
0.000271
0.000415
0.000328
0.000056
0.000240
0.000377
0.000353
0.000255
0.000251
0.000251
0.000254
0.000253
0.000243
0.000236
0.000233
0.000253
0.001593
0.000302
0.000310
0.000236
0.000260
0.000247
0.000245
0.000281
0.000287
0.000326
0.000246
0.001802
0.000266
0.000494
0.000238
0.000257
0.000258
0.000271
0.000247
0.000056
0.000436
0.000424
0.000588
0.000216
0.000235
0.000271
0.000231
0.000224
0.000257
0.000256
0.000249
0.001704
0.000253
0.000432
0.000373
0.000217
0.000259
0.000210
0.000250
0.000264
0.000375
0.001730
0.000239
0.000243
0.002159
0.000458
0.000338
0.000252
0.000255
0.000267
0.000180
0.000057
0.000212
0.000243
0.000247
0.000236
0.000281
0.001613
0.000242
0.000231
0.000253
0.000254
0.000245
0.000240
0.000253
0.000256
0.000315
0.000387
0.000602
0.000266
0.000232
0.000277
0.000288
0.000217
0.000245
0.000438
0.000441
0.000276
0.000418
0.000500
0.000387
0.000276
0.000214
0.000058
0.000201
0.000239
0.000254
0.000253
0.000236
0.000242
0.000262
0.000482
0.000402
0.001665
0.000195
0.000244
0.000234
0.000250
0.000261
0.000320
0.000634
0.000221
0.000362
0.000235
0.000252
0.000326
0.000260
0.000251
0.000273
0.000444
0.000347
0.000658
0.000393
0.000461
0.000175
0.000057
0.000199
0.000257
0.000243
0.000225
0.000233
0.000245
0.000247
0.000253
0.000235
0.000297
0.000339
0.000603
0.001227
0.000237
0.000244
0.000241
0.000263
0.000243
0.000268
0.000243
0.000262
0.000517
0.000344
0.000276
0.000261
0.000264
0.000253
0.000270
0.000265
0.000269
0.000383
0.000055
0.000211
0.000241
0.000259
0.000234
0.000573
0.000416
0.000217
0.000261
0.000236
0.000255
0.000255
0.000230
0.000305
0.000246
0.000238
0.000492
0.000523
0.001536
0.000272
0.000241
0.000250
0.000263
0.000261
0.000236
0.000283
0.000452
0.000550
0.000231
0.000433
0.000242
0.000181
0.000058
0.000235
0.000437
0.000238
0.000205
0.000269
0.000249
0.000368
0.000511
0.000292
0.000336
0.000226
0.000269
0.000267
0.000234
0.000521
0.000345
0.000226
0.000259
0.000403
0.001640
0.000263
0.000242
0.000515
0.000241
0.000275
0.000283
0.000256
0.000392
0.000650
0.000252
0.000250
0.000056
0.000222
0.000239
0.000236
0.000237
0.000420
0.000303
0.000295
0.000224
0.000386
0.000585
0.000310
0.000224
0.000231
0.000247
0.000259
0.000264
0.000252
0.000256
0.000237
0.000344
0.000304
0.000356
0.001816
0.000233
0.000263
0.000254
0.000284
0.000352
0.000461
0.000888
0.000197
0.000060
0.000228
0.000327
0.000281
0.000430
0.000393
0.000218
0.000248
0.000392
0.000509
0.000320
0.000256
0.000251
0.000224
0.000273
0.000266
0.000232
0.000253
0.000269
0.000271
0.000256
0.000314
0.000485
0.000595
0.001274
0.000335
0.000462
0.000391
0.000336
0.000405
0.000466
0.000193
0.000055
0.000236
0.000382
0.000272
0.000206
0.000224
0.000246
0.000411
0.000231
0.000388
0.000361
0.000305
0.000437
0.000227
0.000280
0.000246
0.000243
0.000376
0.000379
0.000347
0.000246
0.000242
0.000613
0.000423
0.001665
0.000227
0.000442
0.000293
0.000231
0.000315
0.000465
0.000273
0.000056
0.000193
0.000226
0.000247
0.000252
0.000242
0.000245
0.000253
0.000325
0.000455
0.000331
0.000405
0.000380
0.000271
0.000564
0.000257
0.000240
0.000268
0.000271
0.000231
0.000352
0.000221
0.000246
0.000276
0.000606
0.000294
0.001657
0.000268
0.000224
0.000259
0.000266
0.000190
0.000059
0.000256
0.000498
0.000315
0.000213
0.000252
0.000246
0.000258
0.000242
0.000259
0.000241
0.000227
0.000245
0.000516
0.000464
0.000420
0.000220
0.000254
0.000245
0.000358
0.000379
0.000384
0.000328
0.000424
0.000362
0.000227
0.000242
0.000259
0.000282
0.001786
0.000246
0.000213
0.000057
0.000208
0.000218
0.000261
0.000272
0.000369
0.000542
0.000301
0.000211
0.000264
0.000265
0.000245
0.000250
0.000516
0.000454
0.000480
0.000288
0.000259
0.000269
0.000418
0.000468
0.000403
0.000432
0.000503
0.000351
0.000234
0.000245
0.000272
0.000246
0.000264
0.001723
0.000399
0.000058
0.000248
0.000343
0.000197
0.000233
0.000259
0.000245
0.000250
0.000503
0.000369
0.000309
0.000287
0.000292
0.000427
0.000537
0.000353
0.000231
0.000251
0.000259
0.000245
0.000267
0.000297
0.000242
0.000240
0.000265
0.000362
0.000307
0.000463
0.000314
0.000232
0.000256
0.000180
0.000059
0.000442
0.000318
0.000440
0.000260
0.000212
0.000234
0.000246
0.000258
0.000232
0.000228
0.000250
0.000295
0.000274
0.000579
0.000499
0.000282
0.000328
0.000320
0.000378
0.000335
0.000289
0.000244
0.000248
0.000258
0.001742
0.000260
0.001717
0.001023
0.000290
0.000358
0.000155
0.000058
0.000206
0.000234
0.000236
0.000238
0.000268
0.000243
0.000251
0.000254
0.000237
0.000376
0.000455
0.000283
0.000342
0.000367
0.000278
0.000243
0.000242
0.000295
0.000227
0.000244
0.000263
0.000271
0.001785
0.000243
0.000264
0.000264
0.000279
0.000264
0.001892
0.000482
0.000289
0.000057
0.000212
0.000214
0.000242
0.000234
0.000255
0.000244
0.000242
0.000261
0.000269
0.000406
0.000597
0.000405
0.000245
0.000204
0.000238
0.000250
0.000328
0.000449
0.000364
0.000256
0.001763
0.000250
0.000256
0.000250
0.000259
0.000272
0.000238
0.000255
0.000348
0.000367
0.000325
0.000059
0.000247
0.000220
0.000242
0.000256
0.000259
0.000229
0.000254
0.000259
0.000236
0.000259
0.000238
0.000298
0.000321
0.000464
0.000297
0.000276
0.000469
0.000242
0.000244
0.000262
0.000253
0.000270
0.000265
0.000259
0.000289
0.001770
0.000248
0.000252
0.000267
0.000233
0.000202
0.000058
0.000223
0.000390
0.000220
0.000226
0.000233
0.000239
0.000234
0.000257
0.000250
0.000236
0.000224
0.000258
0.000259
0.000484
0.000344
0.000310
0.000272
0.000240
0.000254
0.000258
0.000259
0.000260
0.000247
0.000275
0.000247
0.000264
0.000359
0.001578
0.000270
0.000256
0.000178
0.000058
0.000210
0.000234
0.000248
0.000262
0.000353
0.000369
0.000402
0.000295
0.000224
0.000258
0.000246
0.000245
0.000249
0.000253
0.000263
0.000262
0.000242
0.000260
0.000252
0.000260
0.000267
0.000269
0.000244
0.000242
0.000234
0.000286
0.000274
0.000258
0.000260
0.000284
0.000163
0.000056
0.000219
0.000237
0.000254
0.000256
0.000233
0.000255
0.000246
0.000261
0.000275
0.000238
0.000230
0.000259
0.000243
0.000255
0.000269
0.000261
0.000255
0.000252
0.000297
0.000250
0.000278
0.000288
0.000273
0.000247
0.000279
0.000272
0.000273
0.000250
0.000308
0.000420
0.000674
0.000058
0.000229
0.000287
0.000210
0.000241
0.000235
0.000252
0.000240
0.000251
0.000249
0.000241
0.000269
0.000417
0.000387
0.000587
0.001394
0.000243
0.000484
0.000239
0.000271
0.000441
0.000478
0.000343
0.000229
0.000269
0.000255
0.000264
0.000281
0.000248
0.000310
0.000258
0.000184
0.000056
0.000315
0.000416
0.000323
0.000319
0.000220
0.000253
0.000261
0.000233
0.000237
0.000241
0.000260
0.000255
0.000227
0.000275
0.000378
0.000523
0.000355
0.001778
0.000246
0.000257
0.000408
0.000435
0.000318
0.000327
0.000324
0.000314
0.000306
0.000234
0.000227
0.000253
0.000198
0.000057
0.000221
0.000227
0.000246
0.000283
0.000354
0.000469
0.000322
0.000254
0.000256
0.000212
0.000252
0.000267
0.000267
0.000260
0.000248
0.000260
0.000472
0.000392
0.000323
0.000387
0.000228
0.001734
0.000344
0.000603
0.000481
0.000376
0.000341
0.000207
0.000258
0.000270
0.000441
0.000056
0.000212
0.000252
0.000233
0.000295
0.000371
0.000520
0.000375
0.000236
0.000211
0.000276
0.000251
0.000268
0.000251
0.000293
0.000312
0.000232
0.000273
0.000421
0.000379
0.000360
0.000500
0.001827
0.000273
0.000652
0.000362
0.000289
0.000217
0.000257
0.000295
0.000260
0.000201
0.000058
0.000216
0.000339
0.000362
0.000413
0.000316
0.000358
0.000287
0.000218
0.000238
0.000261
0.000277
0.000228
0.000248
0.000252
0.000242
0.000270
0.000322
0.000429
0.000473
0.000416
0.000216
0.000253
0.000263
0.001683
0.000647
0.000307
0.000678
0.000235
0.000263
0.000311
0.000152
0.000058
0.000200
0.000273
0.000289
0.000257
0.000281
0.000418
0.000362
0.000292
0.000230
0.000530
0.000255
0.000230
0.000264
0.000273
0.000276
0.000263
0.000211
0.000448
0.000415
0.000394
0.000269
0.000249
0.000238
0.000251
0.000261
0.000263
0.000251
0.000246
0.000264
0.000293
0.000199
0.000057
0.000348
0.000307
0.000240
0.000245
0.000253
0.000257
0.000240
0.000290
0.000243
0.000241
0.000262
0.000350
0.000470
0.000358
0.000428
0.000192
0.000210
0.000243
0.000254
0.000271
0.000306
0.000244
0.000237
0.000255
0.000284
0.000398
0.000375
0.000314
0.000362
0.000241
0.000170
0.000057
0.000206
0.000233
0.000276
0.000244
0.000240
0.000248
0.000256
0.000254
0.000494
0.000209
0.000267
0.000250
0.000242
0.000271
0.000267
0.000278
0.000259
0.000359
0.000222
0.000235
0.000256
0.000265
0.000256
0.000268
0.000279
0.000265
0.000262
0.000251
0.000514
0.000244
0.000150
0.000056
0.000210
0.000247
0.000259
0.000251
0.000228
0.000235
0.000371
0.000414
0.000233
0.000227
0.000250
0.000255
0.000246
0.000285
0.000468
0.001722
0.000243
0.000256
0.000285
0.000392
0.000367
0.000355
0.000382
0.000474
0.000271
0.000425
0.000237
0.000270
0.000266
0.000276
0.001406
0.000060
0.000409
0.000225
0.000278
0.000212
0.000241
0.000254
0.000229
0.000256
0.000244
0.000272
0.000243
0.000257
0.000253
0.000303
0.000540
0.001631
0.000237
0.000228
0.000239
0.000267
0.000233
0.000324
0.000345
0.000425
0.000210
0.000367
0.000221
0.000270
0.000275
0.000257
0.000198
0.000056
0.001367
0.000422
0.000297
0.000254
0.000249
0.000213
0.000228
0.000246
0.000482
0.000223
0.000237
0.000252
0.000357
0.000436
0.000461
0.000351
0.000248
0.000234
0.000342
0.000349
0.000270
0.000258
0.000265
0.000246
0.000278
0.000605
0.000584
0.000203
0.000253
0.000266
0.000163
0.000057
0.000215
0.000223
0.000237
0.000240
0.001458
0.000316
0.000220
0.000254
0.000235
0.000252
0.000250
0.000258
0.000240
0.000263
0.000271
0.000348
0.000393
0.000628
0.000293
0.001728
0.000269
0.000271
0.000361
0.000350
0.000674
0.000311
0.000232
0.000245
0.000258
0.000266
0.000198
0.000057
0.000220
0.000251
0.000231
0.000384
0.001190
0.000253
0.000243
0.000262
0.000232
0.000240
0.000239
0.000244
0.000281
0.000250
0.000255
0.000291
0.000526
0.000360
0.000321
0.000259
0.000261
0.000277
0.000249
0.000234
0.000290
0.000263
0.000238
0.000280
0.000292
0.000309
0.000681
0.000057
0.000210
0.000246
0.000239
0.000263
0.000280
0.000222
0.000238
0.000260
0.000270
0.000250
0.001444
0.000214
0.000251
0.000247
0.000244
0.000243
0.000266
0.000264
0.000263
0.000263
0.000354
0.000407
0.000548
0.000301
0.000229
0.000275
0.001761
0.000260
0.000283
0.000370
0.000373
0.000057
0.000205
0.000415
0.000429
0.000503
0.000513
0.000531
0.001525
0.000407
0.000516
0.000652
0.000549
0.000788
0.000416
0.000625
0.000576
0.001921
0.000583
0.000212
0.000422
0.000305
0.000225
0.000303
0.000255
0.000265
0.000271
0.000273
0.000292
0.000288
0.000265
0.000283
0.001379
0.000057
0.000220
0.000222
0.000246
0.000240
0.000257
0.000259
0.000239
0.000262
0.000220
0.000251
0.000244
0.000234
0.000258
0.000262
0.000267
0.000269
0.001800
0.000285
0.000246
0.000238
0.000258
0.000271
0.000266
0.000288
0.000420
0.000397
0.000343
0.000233
0.000262
0.000292
0.000204
0.000057
0.000207
0.001372
0.000325
0.000260
0.000263
0.000234
0.000247
0.000231
0.000238
0.000235
0.000220
0.000265
0.000232
0.000502
0.000372
0.000276
0.000259
0.000254
0.001933
0.000229
0.000252
0.000262
0.000260
0.000265
0.000275
0.000278
0.000270
0.000250
0.000270
0.000321
0.000198
0.000057
0.000216
0.000246
0.000252
0.001438
0.000208
0.000259
0.000254
0.000246
0.000234
0.000265
0.000254
0.000245
0.000250
0.000251
0.000256
0.000267
0.000260
0.000261
0.000268
0.000261
0.000282
0.001736
0.000293
0.001742
0.000276
0.000242
0.000279
0.000259
0.000269
0.000278
0.000202
0.000056
0.000206
0.000238
0.001352
0.000225
0.000253
0.000249
0.000258
0.000254
0.000243
0.000253
0.000241
0.000253
0.000259
0.000260
0.000261
0.000264
0.000260
0.000279
0.000310
0.000222
0.001876
0.000247
0.001840
0.000230
0.000249
0.000283
0.000231
0.000255
0.000247
0.000266
0.000189
0.000056
0.001426
0.000212
0.000222
0.000231
0.000246
0.000240
0.000368
0.000269
0.000249
0.000263
0.000249
0.000254
0.000308
0.000359
0.000315
0.000310
0.000242
0.000277
0.000265
0.000242
0.000275
0.000333
0.000229
0.000253
0.000265
0.000280
0.000275
0.000348
0.000675
0.000318
0.000194
0.000057
0.000204
0.000255
0.000249
0.000299
0.000368
0.000254
0.001739
0.000268
0.000275
0.000260
0.000263
0.000263
0.000292
0.000248
0.000289
0.000317
0.000547
0.000370
0.000370
0.000270
0.000287
0.000284
0.000254
0.000272
0.000331
0.000289
0.000239
0.000246
0.000269
0.000363
0.000435
0.000057
0.000248
0.000468
0.000271
0.000267
0.000250
0.000225
0.000226
0.000252
0.000251
0.000292
0.001482
0.000224
0.000227
0.000248
0.000245
0.000291
0.000269
0.000239
0.000268
0.000266
0.000276
0.000529
0.000408
0.000282
0.000275
0.000281
0.000265
0.000261
0.000230
0.000313
0.000162
0.000056
0.000210
0.000240
0.000258
0.000494
0.000360
0.000266
0.000215
0.000251
0.000255
0.000252
0.000234
0.000260
0.000250
0.000261
0.000249
0.000239
0.000447
0.001160
0.000253
0.000232
0.000277
0.000248
0.000354
0.000426
0.000246
0.000423
0.000514
0.000314
0.000372
0.000249
0.000168
0.000061
0.000219
0.000242
0.000270
0.000259
0.000255
0.000246
0.000425
0.000339
0.000408
0.000293
0.000364
0.000410
0.000373
0.000357
0.000252
0.000245
0.000233
0.000352
0.000388
0.001364
0.000291
0.000228
0.000266
0.000272
0.000232
0.000241
0.000264
0.000341
0.000454
0.000411
0.000223
0.000057
0.000222
0.000226
0.000250
0.000255
0.000232
0.000250
0.000233
0.000265
0.000334
0.000422
0.000358
0.000373
0.000216
0.000229
0.000258
0.000256
0.000253
0.000274
0.000251
0.000244
0.000455
0.000343
0.000372
0.000309
0.000332
0.000249
0.000273
0.000273
0.000252
0.000341
0.000153
0.000057
0.000303
0.000323
0.000376
0.000345
0.000395
0.000360
0.000257
0.000247
0.000240
0.000277
0.000256
0.000259
0.000240
0.000249
0.000241
0.000233
0.000287
0.000384
0.000466
0.000365
0.000197
0.000268
0.000246
0.000251
0.000259
0.000279
0.000272
0.000261
0.000278
0.000262
0.000400
0.000057
0.000175
0.000372
0.000226
0.000248
0.000245
0.000248
0.000238
0.000255
0.000287
0.000241
0.000253
0.000232
0.000479
0.000310
0.000451
0.000282
0.000233
0.000240
0.000254
0.000292
0.000233
0.000264
0.000263
0.000255
0.000276
0.000414
0.000326
0.000578
0.000438
0.000219
0.000171
0.000057
0.000390
0.000204
0.000233
0.000243
0.000252
0.000249
0.000239
0.000251
0.000256
0.000256
0.000224
0.000245
0.000274
0.000222
0.000244
0.000269
0.000251
0.000263
0.000287
0.000244
0.000258
0.000258
0.000269
0.000258
0.000279
0.000231
0.000269
0.000280
0.000251
0.000279
0.000201
0.000057
0.000197
0.000230
0.000260
0.000243
0.000228
0.000262
0.000255
0.000240
0.000261
0.000272
0.000225
0.000251
0.000248
0.000404
0.000249
0.000279
0.000261
0.000280
0.000242
0.000276
0.000275
0.000240
0.000237
0.000256
0.000271
0.000275
0.000245
0.000253
0.000277
0.000258
0.000204
0.000056
0.000225
0.000360
0.000371
0.000277
0.000293
0.000255
0.000275
0.000250
0.000226
0.000241
0.000255
0.000257
0.000257
0.000238
0.000272
0.000240
0.000263
0.000268
0.000246
0.000266
0.000272
0.000264
0.000283
0.000252
0.000272
0.000249
0.000266
0.000267
0.000263
0.000264
0.000190
0.000057
0.000198
0.000236
0.000262
0.000259
0.000490
0.000213
0.000209
0.000247
0.000337
0.000424
0.000461
0.000273
0.000243
0.000239
0.000269
0.000267
0.000239
0.000267
0.000254
0.000273
0.000263
0.000260
0.000262
0.000327
0.000629
0.000397
0.000224
0.000301
0.000260
0.000260
0.000188
0.000056
0.000196
0.000218
0.000247
0.000250
0.000330
0.000662
0.000316
0.000360
0.000214
0.000245
0.000252
0.000254
0.000252
0.000248
0.000260
0.000273
0.000252
0.000260
0.000670
0.000418
0.000246
0.000221
0.000262
0.000286
0.000284
0.000252
0.000260
0.000270
0.000250
0.000337
0.000473
0.000057
0.000187
0.000224
0.000243
0.000235
0.000256
0.000253
0.000227
0.000252
0.000244
0.000256
0.000248
0.000250
0.000248
0.000479
0.000519
0.000394
0.000197
0.000255
0.000263
0.000261
0.000255
0.000265
0.000492
0.000231
0.000251
0.000614
0.000432
0.000474
0.000236
0.000248
0.000181
0.000057
0.000222
0.000228
0.000244
0.000240
0.000252
0.000258
0.000334
0.000423
0.000649
0.000340
0.000222
0.000263
0.000276
0.000276
0.000256
0.000243
0.000238
0.000253
0.000294
0.000395
0.000310
0.000633
0.000363
0.000260
0.000364
0.000373
0.000494
0.000229
0.000271
0.000542
0.000307
0.000056
0.000254
0.000228
0.000434
0.000222
0.000233
0.000252
0.000265
0.000260
0.000228
0.000241
0.000321
0.000347
0.000433
0.000274
0.000250
0.000245
0.000252
0.000243
0.000262
0.000279
0.000276
0.000256
0.000248
0.000281
0.000327
0.000455
0.000495
0.000233
0.000256
0.000278
0.000187
0.000058
0.000204
0.000251
0.000227
0.000244
0.000248
0.000283
0.000423
0.000528
0.000225
0.000284
0.000369
0.000228
0.000243
0.000268
0.000252
0.000238
0.000259
0.000257
0.000349
0.000333
0.000527
0.000292
0.000478
0.000293
0.000411
0.000388
0.000378
0.000245
0.000246
0.000340
0.000388
0.000057
0.000215
0.000259
0.000223
0.000251
0.000277
0.000236
0.000253
0.000248
0.000282
0.000232
0.000232
0.000524
0.000383
0.000308
0.000347
0.000226
0.000256
0.000264
0.000268
0.000234
0.000249
0.000258
0.000266
0.000272
0.000278
0.000340
0.000554
0.000392
0.000245
0.000280
0.000189
0.000089
0.000161
0.000242
0.000259
0.000260
0.000238
0.000336
0.000511
0.000632
0.000187
0.000687
0.000266
0.000219
0.000238
0.000269
0.000238
0.000271
0.000277
0.000290
0.000467
0.000717
0.001210
0.000309
0.000251
0.000259
0.000299
0.000271
0.000398
0.000413
0.000406
0.000270
0.000159
0.000056
0.000193
0.000234
0.000250
0.000239
0.000241
0.000258
0.000275
0.000249
0.000247
0.000340
0.000325
0.000385
0.000268
0.000384
0.000346
0.000359
0.000220
0.000247
0.000273
0.000261
0.000240
0.000252
0.000286
0.000240
0.000327
0.000435
0.000430
0.000305
0.000239
0.000274
0.000183
0.000057
0.000215
0.000247
0.000252
0.000254
0.000239
0.000243
0.000468
0.000215
0.000232
0.000254
0.000246
0.000253
0.000258
0.000253
0.000248
0.000272
0.000261
0.000263
0.000274
0.000257
0.000258
0.000290
0.000295
0.000247
0.000261
0.000280
0.000270
0.000283
0.000252
0.000265
0.000172
0.000058
0.000191
0.000246
0.000278
0.000450
0.000398
0.000223
0.000227
0.000248
0.000264
0.000246
0.000264
0.000240
0.000262
0.000262
0.000240
0.000245
0.000240
0.000272
0.000289
0.000399
0.000477
0.000297
0.000228
0.000268
0.000266
0.000252
0.000261
0.000253
0.000271
0.000281
0.000194
0.000057
0.000458
0.000494
0.000205
0.000207
0.000257
0.000249
0.000417
0.000215
0.000237
0.000255
0.000254
0.000332
0.000446
0.000299
0.001885
0.000242
0.000243
0.000254
0.000275
0.000242
0.000402
0.000546
0.000515
0.000233
0.000234
0.000256
0.000272
0.000429
0.000274
0.000279
0.000168
0.000056
0.000189
0.000503
0.000223
0.000297
0.000488
0.000208
0.000234
0.000256
0.000271
0.000223
0.000260
0.000243
0.000264
0.000388
0.000429
0.000396
0.000216
0.000241
0.000261
0.000261
0.000265
0.000313
0.000240
0.000275
0.000280
0.000577
0.000432
0.000368
0.000434
0.000231
0.000203
0.000057
0.000219
0.000227
0.000257
0.000236
0.000245
0.000256
0.000268
0.000272
0.000359
0.000444
0.000347
0.000353
0.000219
0.000251
0.000269
0.000270
0.000324
0.000225
0.000274
0.000274
0.000236
0.000371
0.000489
0.000289
0.000277
0.000263
0.000257
0.000439
0.000416
0.000317
0.000171
0.000057
0.000193
0.000290
0.000351
0.000332
0.000394
0.000206
0.000246
0.000250
0.000262
0.000253
0.000264
0.000272
0.000216
0.000253
0.000259
0.000409
0.000296
0.000344
0.000346
0.000294
0.000486
0.000229
0.000282
0.000279
0.000320
0.000262
0.000259
0.000275
0.000494
0.000473
0.000207
0.000056
0.000215
0.000233
0.000247
0.000250
0.000239
0.000482
0.000211
0.000256
0.000263
0.000436
0.000476
0.000498
0.000213
0.000241
0.000244
0.000247
0.000256
0.000242
0.000266
0.000252
0.000258
0.000264
0.000300
0.000508
0.000333
0.000411
0.000286
0.000313
0.000314
0.000277
0.000156
0.000056
0.000238
0.000216
0.000423
0.000429
0.000247
0.000256
0.000272
0.000212
0.000242
0.000266
0.000251
0.000249
0.000253
0.000268
0.000240
0.000267
0.000242
0.000249
0.000312
0.000400
0.000432
0.000420
0.000223
0.000251
0.000276
0.000276
0.000260
0.000258
0.000284
0.000245
0.000195
0.000057
0.000437
0.000171
0.000542
0.000182
0.000198
0.000253
0.000425
0.000388
0.000256
0.000209
0.000242
0.000274
0.000253
0.000581
0.000314
0.000277
0.000231
0.000235
0.000256
0.000269
0.000271
0.000260
0.000264
0.000270
0.000264
0.000368
0.000392
0.000399
0.000260
0.000250
0.000175
0.000058
0.000217
0.000238
0.000246
0.000248
0.000251
0.000264
0.000241
0.000250
0.000249
0.000244
0.000270
0.000240
0.000260
0.001452
0.000233
0.000258
0.000256
0.000261
0.000261
0.000275
0.000264
0.000239
0.000275
0.000255
0.000269
0.000265
0.000270
0.000275
0.000260
0.000273
0.000183
0.000057
0.000190
0.000236
0.000256
0.000250
0.000233
0.000248
0.000258
0.000260
0.000228
0.000247
0.000247
0.000267
0.000256
0.000252
0.000251
0.000271
0.000233
0.000263
0.000275
0.000253
0.000255
0.000262
0.000250
0.000248
0.001300
0.000273
0.000656
0.000446
0.000230
0.000250
0.000194
0.000058
0.000195
0.000235
0.000245
0.000246
0.000417
0.000238
0.000239
0.000245
0.000251
0.000434
0.000403
0.000319
0.000230
0.000235
0.000263
0.000260
0.000256
0.000260
0.000248
0.000256
0.000261
0.000256
0.000374
0.000329
0.000546
0.000390
0.000228
0.000270
0.001365
0.000248
0.000178
0.000057
0.000293
0.000399
0.000361
0.000230
0.000231
0.000226
0.000232
0.000250
0.000262
0.000252
0.000253
0.000256
0.000284
0.000440
0.000404
0.000367
0.000325
0.000224
0.000247
0.000258
0.000263
0.000263
0.000271
0.000266
0.000272
0.000263
0.000457
0.000437
0.000361
0.000364
0.000147
0.000058
0.000205
0.000235
0.001260
0.000457
0.000422
0.000310
0.000367
0.000503
0.000261
0.000340
0.000228
0.000224
0.000259
0.000259
0.000250
0.000264
0.000307
0.000692
0.000271
0.000332
0.000251
0.000255
0.000250
0.000506
0.000238
0.000259
0.000257
0.000283
0.000338
0.000589
0.000224
0.000057
0.000380
0.000334
0.000204
0.000224
0.001638
0.000383
0.000298
0.000263
0.000237
0.000250
0.000228
0.000239
0.000246
0.000268
0.000257
0.000262
0.000233
0.000397
0.000299
0.000485
0.000337
0.000241
0.000260
0.000255
0.000260
0.000274
0.000267
0.000236
0.000264
0.000282
0.000223
0.000056
0.000351
0.000351
0.000261
0.000193
0.000250
0.000241
0.000269
0.000232
0.000231
0.000227
0.001583
0.000301
0.000263
0.000249
0.000238
0.000255
0.000275
0.000263
0.000236
0.000273
0.000276
0.000248
0.000298
0.000437
0.000506
0.000311
0.000220
0.000279
0.000273
0.000285
0.000171
0.000056
0.000213
0.000405
0.000228
0.000259
0.000348
0.000514
0.000262
0.000330
0.000461
0.000210
0.000230
0.000251
0.000263
0.000263
0.001472
0.000287
0.000268
0.000289
0.000250
0.000267
0.000279
0.000247
0.000251
0.000256
0.000262
0.000283
0.000464
0.000410
0.000298
0.000277
0.000151
0.000057
0.000226
0.000224
0.000256
0.000240
0.000232
0.000258
0.000237
0.000255
0.000339
0.000345
0.000394
0.000297
0.000250
0.000246
0.000240
0.000272
0.000283
0.000257
0.000267
0.000227
0.000251
0.000393
0.001223
0.000223
0.000246
0.000247
0.000282
0.000249
0.000261
0.000257
0.000190
0.000057
0.000236
0.000357
0.000334
0.000358
0.000228
0.000240
0.000254
0.000265
0.000253
0.000253
0.000255
0.000270
0.000239
0.000250
0.000262
0.000258
0.000269
0.000269
0.000266
0.000251
0.000249
0.000268
0.000271
0.000282
0.000286
0.000267
0.000267
0.000258
0.000261
0.000442
0.001358
0.000056
0.000207
0.000232
0.000239
0.000245
0.000250
0.000260
0.000246
0.000227
0.000251
0.000251
0.000276
0.000253
0.000253
0.000240
0.000252
0.000238
0.001741
0.000243
0.000248
0.000261
0.000244
0.000262
0.000270
0.000262
0.000266
0.000258
0.000277
0.000273
0.000276
0.000256
0.000225
0.000056
0.000349
0.000281
0.001270
0.000222
0.000232
0.000243
0.000255
0.000251
0.000259
0.000252
0.000236
0.000416
0.000320
0.000443
0.000294
0.000217
0.000253
0.000254
0.000253
0.000269
0.000246
0.000267
0.000261
0.000292
0.000262
0.000396
0.000411
0.000323
0.000310
0.000247
0.000178
0.000056
0.000218
0.000254
0.000244
0.000246
0.000255
0.000222
0.000239
0.000276
0.000425
0.001320
0.000266
0.000208
0.000244
0.000279
0.000246
0.000269
0.000262
0.000253
0.000322
0.000495
0.000323
0.000233
0.000244
0.000238
0.000283
0.000284
0.000253
0.000294
0.000273
0.000277
0.000188
0.000057
0.000250
0.000443
0.000358
0.000222
0.000226
0.000242
0.000244
0.000279
0.000258
0.000248
0.000253
0.000231
0.000450
0.000572
0.000407
0.001455
0.000248
0.000293
0.000306
0.000345
0.000477
0.000528
0.000366
0.000399
0.000229
0.000262
0.000264
0.000282
0.000261
0.000269
0.000202
0.000057
0.000199
0.000313
0.000534
0.000459
0.000234
0.000235
0.000245
0.000228
0.000254
0.000257
0.000248
0.000266
0.000271
0.000234
0.000273
0.000311
0.000379
0.000404
0.000357
0.001328
0.000269
0.000251
0.000266
0.000256
0.000456
0.000437
0.000369
0.000271
0.000271
0.000274
0.000182
0.000055
0.000192
0.000239
0.000244
0.000245
0.000264
0.000273
0.000437
0.000386
0.000373
0.000219
0.000239
0.000259
0.000270
0.000265
0.000256
0.000266
0.000261
0.000263
0.000274
0.000329
0.000430
0.000402
0.000312
0.001351
0.000428
0.000221
0.000276
0.000498
0.000448
0.000266
0.000317
0.000055
0.000205
0.000228
0.000254
0.000246
0.000251
0.000254
0.001685
0.000243
0.000214
0.000240
0.000257
0.000249
0.000257
0.000323
0.000328
0.000284
0.000313
0.000307
0.000482
0.000388
0.000306
0.000277
0.000230
0.001420
0.000353
0.000378
0.000384
0.000448
0.000322
0.000294
0.000152
0.000055
0.000230
0.000240
0.000256
0.000261
0.000246
0.000252
0.001711
0.000243
0.000235
0.000264
0.000335
0.000410
0.001437
0.000360
0.000393
0.000238
0.000263
0.000236
0.000267
0.000273
0.001565
0.000609
0.000320
0.000286
0.000242
0.000254
0.000261
0.000281
0.000247
0.000250
0.000213
0.000056
0.000220
0.000227
0.000266
0.000242
0.000260
0.000299
0.000257
0.000268
0.000245
0.000252
0.000247
0.000251
0.000261
0.000268
0.000253
0.001498
0.000289
0.000225
0.000260
0.000278
0.000276
0.000251
0.000439
0.001267
0.000274
0.000232
0.000288
0.000241
0.000392
0.000248
0.000198
0.000056
0.000207
0.000247
0.000220
0.000245
0.000240
0.000228
0.000236
0.001693
0.000247
0.000231
0.000254
0.000366
0.000226
0.000227
0.000252
0.001389
0.000229
0.000267
0.000264
0.000247
0.000261
0.000352
0.000272
0.001315
0.000277
0.000250
0.000256
0.000272
0.001377
0.000286
0.000216
0.000056
0.000289
0.000321
0.000200
0.000245
0.000250
0.000257
0.000245
0.000267
0.000269
0.000247
0.000257
0.000265
0.000256
0.000250
0.000287
0.001520
0.000244
0.000269
0.000261
0.000241
0.000289
0.000266
0.000255
0.001493
0.000353
0.000238
0.000270
0.001265
0.000273
0.000246
0.000251
0.000056
0.000201
0.000461
0.000279
0.000209
0.000231
0.000246
0.000264
0.000256
0.000266
0.000271
0.000234
0.000254
0.000260
0.000266
0.000430
0.001216
0.000234
0.000250
0.000264
0.000275
0.000225
0.000242
0.000255
0.000400
0.001205
0.000249
0.000252
0.000255
0.000257
0.001338
0.000340
0.000056
0.000231
0.000234
0.000229
0.000232
0.000239
0.000254
0.000247
0.000247
0.000275
0.000246
0.000244
0.000252
0.000320
0.000256
0.000463
0.001429
0.000222
0.000247
0.000304
0.000505
0.000281
0.000423
0.001325
0.000291
0.000251
0.000277
0.000236
0.001314
0.000333
0.000483
0.000347
0.000056
0.000221
0.000255
0.000255
0.000263
0.000247
0.000250
0.000276
0.000247
0.000264
0.000282
0.000363
0.000404
0.001332
0.000236
0.000265
0.000255
0.000278
0.000236
0.000246
0.000245
0.000382
0.001186
0.000272
0.000239
0.000251
0.000252
0.001497
0.000438
0.000475
0.000225
0.000200
0.000056
0.000207
0.000225
0.000250
0.000234
0.000254
0.000267
0.000241
0.000307
0.000484
0.000381
0.000274
0.001496
0.000218
0.000229
0.000268
0.000252
0.000264
0.000287
0.001692
0.000265
0.000389
0.000330
0.001385
0.000329
0.000231
0.000317
0.000252
0.000266
0.000270
0.000267
0.000191
0.000056
0.000228
0.000223
0.000336
0.000281
0.000337
0.000482
0.000284
0.000285
0.001471
0.000289
0.000382
0.000222
0.000217
0.000467
0.000231
0.001317
0.000267
0.000247
0.000241
0.000274
0.001651
0.000289
0.000235
0.000273
0.000264
0.000235
0.000477
0.000322
0.000249
0.000244
0.000255
0.000057
0.000372
0.000303
0.000260
0.000258
0.000248
0.001512
0.000221
0.000233
0.000266
0.000273
0.000264
0.000245
0.000329
0.001453
0.000259
0.000227
0.000451
0.001211
0.000304
0.000496
0.000343
0.000245
0.000239
0.000250
0.000278
0.000243
0.000463
0.000219
0.000265
0.000276
0.000199
0.000057
0.000203
0.000362
0.000239
0.000490
0.001169
0.000290
0.000306
0.000237
0.000255
0.000235
0.000251
0.000397
0.001428
0.000251
0.000228
0.000258
0.001358
0.000335
0.000443
0.000468
0.000289
0.000247
0.000232
0.000249
0.000267
0.000266
0.000276
0.000253
0.000265
0.000253
0.000217
0.000056
0.000219
0.000437
0.001411
0.000217
0.000271
0.000275
0.000236
0.000256
0.000274
0.000398
0.001363
0.000209
0.000259
0.000257
0.000271
0.001320
0.000628
0.000313
0.000321
0.000411
0.000292
0.000236
0.000298
0.000237
0.000271
0.000287
0.000277
0.000323
0.000465
0.000388
0.001373
0.000057
0.000189
0.000237
0.000254
0.000221
0.000252
0.000413
0.000566
0.001211
0.000247
0.000235
0.000268
0.001401
0.000576
0.000204
0.000215
0.000414
0.000250
0.000249
0.000258
0.000281
0.000246
0.000263
0.000281
0.000256
0.000254
0.000357
0.000462
0.000389
0.001494
0.000257
0.000156
0.000057
0.000193
0.000260
0.000337
0.000528
0.001260
0.000277
0.000254
0.000280
0.000224
0.000253
0.000250
0.000358
0.000297
0.000458
0.000346
0.000237
0.000255
0.000275
0.000241
0.000277
0.000256
0.000286
0.000237
0.000270
0.000257
0.000394
0.000605
0.000224
0.000311
0.001411
0.000179
0.000056
0.000211
0.000236
0.000278
0.000459
0.000380
0.000266
0.000309
0.000335
0.000267
0.000262
0.000256
0.000264
0.000273
0.000286
0.000234
0.000290
0.000580
0.000300
0.000282
0.000395
0.000268
0.000408
0.000219
0.000262
0.000256
0.000268
0.000249
0.000307
0.000463
0.000375
0.000285
0.000057
0.000208
0.001402
0.000260
0.000312
0.000435
0.000536
0.000270
0.000274
0.000215
0.000253
0.000252
0.000250
0.000258
0.000277
0.000260
0.000251
0.000268
0.001345
0.000269
0.000254
0.000258
0.000270
0.000275
0.000278
0.000271
0.000248
0.000281
0.000246
0.000367
0.000384
0.000402
0.000058
0.000211
0.000259
0.000223
0.001491
0.000323
0.000245
0.000226
0.000258
0.000217
0.000253
0.000251
0.000269
0.000255
0.000250
0.000287
0.000232
0.000247
0.000266
0.000262
0.000274
0.001415
0.000238
0.000241
0.000275
0.000251
0.000257
0.000266
0.000260
0.000276
0.000498
0.000335
0.000055
0.000212
0.000232
0.000396
0.000280
0.000247
0.000260
0.001559
0.000383
0.000234
0.000220
0.000278
0.000314
0.000306
0.000232
0.000229
0.000274
0.000222
0.000266
0.000259
0.000261
0.000496
0.000583
0.001032
0.000272
0.000235
0.000257
0.000263
0.000275
0.000262
0.000261
0.000379
0.000058
0.000342
0.000218
0.000213
0.000236
0.000249
0.000242
0.000241
0.000227
0.000289
0.001681
0.000298
0.000281
0.000240
0.000249
0.000262
0.000240
0.000265
0.000276
0.000275
0.000292
0.000309
0.000682
0.000259
0.001361
0.000236
0.000260
0.000278
0.000254
0.000267
0.000342
0.000468
0.000057
0.000276
0.000233
0.000239
0.000245
0.000225
0.000240
0.000256
0.000256
0.000275
0.001670
0.000248
0.000256
0.000263
0.000264
0.000456
0.000269
0.000525
0.000378
0.000293
0.000355
0.000435
0.000457
0.001261
0.000255
0.000238
0.000257
0.001765
0.000412
0.000600
0.000318
0.000140
0.000056
0.000211
0.000236
0.000232
0.000236
0.000259
0.000240
0.000245
0.000554
0.000451
0.000410
0.000297
0.000203
0.000252
0.000260
0.000263
0.000263
0.000253
0.000248
0.000256
0.000271
0.000304
0.000600
0.001136
0.000225
0.000240
0.000273
0.001901
0.000387
0.000366
0.000357
0.000159
0.000057
0.000248
0.000241
0.000244
0.001735
0.000261
0.000215
0.000233
0.000259
0.000257
0.000286
0.000378
0.000378
0.000352
0.000271
0.000417
0.000409
0.000410
0.001177
0.000275
0.000233
0.000245
0.000263
0.000272
0.000480
0.000714
0.000292
0.000259
0.000260
0.000267
0.000278
0.000185
0.000056
0.000188
0.000239
0.000237
0.001563
0.000233
0.000231
0.000239
0.000253
0.000242
0.000253
0.000252
0.000268
0.000276
0.000267
0.000240
0.000415
0.000513
0.000277
0.001362
0.000229
0.000265
0.000258
0.000257
0.000277
0.000331
0.000579
0.000398
0.000256
0.000284
0.000224
0.000452
0.000055
0.000194
0.000239
0.000253
0.001537
0.000313
0.000216
0.000262
0.000251
0.000253
0.000253
0.000247
0.000257
0.000261
0.000277
0.000334
0.000630
0.001314
0.000747
0.000265
0.000327
0.000269
0.000226
0.000246
0.000273
0.001684
0.000800
0.000230
0.000267
0.000274
0.000290
0.000191
0.000057
0.000202
0.000227
0.000263
0.000236
0.000254
0.000249
0.000239
0.000259
0.000239
0.000235
0.000284
0.000284
0.000248
0.000249
0.000268
0.000245
0.000272
0.001596
0.000708
0.000411
0.000283
0.000214
0.000253
0.000284
0.000271
0.000257
0.000271
0.000258
0.001392
0.000413
0.000349
0.000056
0.000197
0.000235
0.000250
0.000249
0.000259
0.000230
0.000253
0.000254
0.000254
0.000266
0.000288
0.000417
0.000426
0.000331
0.000216
0.000245
0.000281
0.001379
0.000724
0.000458
0.000327
0.000266
0.000235
0.000241
0.000271
0.000251
0.000263
0.000279
0.001551
0.000364
0.000182
0.000057
0.000200
0.000222
0.000249
0.000250
0.000245
0.000250
0.000241
0.000243
0.000276
0.000277
0.000433
0.000368
0.000255
0.000216
0.000244
0.000248
0.000265
0.000256
0.001579
0.000615
0.000507
0.000280
0.000227
0.000267
0.000256
0.000259
0.000271
0.000277
0.000276
0.001462
0.000221
0.000058
0.000199
0.000218
0.000231
0.000257
0.000254
0.000244
0.000270
0.000311
0.000343
0.000503
0.000348
0.000337
0.000360
0.000231
0.000247
0.000246
0.000284
0.000252
0.000266
0.001954
0.000301
0.000238
0.000431
0.000259
0.000247
0.000263
0.000271
0.000252
0.000289
0.000260
0.000390
0.000057
0.000226
0.000250
0.000236
0.000237
0.000255
0.000248
0.000226
0.000240
0.000293
0.000224
0.000246
0.000253
0.000422
0.000385
0.000385
0.000442
0.000219
0.000263
0.000250
0.000251
0.000259
0.000291
0.001466
0.001055
0.000222
0.000249
0.000264
0.000272
0.000276
0.000246
0.000196
0.000057
0.000225
0.001315
0.000295
0.000225
0.000224
0.000253
0.000252
0.000236
0.000242
0.000249
0.000252
0.000265
0.000279
0.000449
0.000317
0.000395
0.000286
0.000245
0.000265
0.000267
0.000271
0.000222
0.000268
0.000266
0.001321
0.000683
0.000307
0.000379
0.000383
0.000398
0.000298
0.000056
0.000206
0.000319
0.001356
0.000244
0.000221
0.000247
0.000247
0.000244
0.000257
0.000252
0.000272
0.000228
0.000259
0.000393
0.000610
0.000229
0.000226
0.000273
0.000335
0.000217
0.000246
0.000272
0.000228
0.000280
0.000269
0.001539
0.000741
0.000293
0.000272
0.000278
0.000197
0.000057
0.000212
0.000308
0.000405
0.000319
0.001309
0.000251
0.000214
0.000250
0.000230
0.000247
0.000246
0.000259
0.000227
0.000238
0.000273
0.000239
0.000270
0.000236
0.000255
0.000254
0.000266
0.000264
0.000306
0.000341
0.000212
0.000265
0.000270
0.001453
0.000265
0.000241
0.000166
0.000057
0.000210
0.000227
0.000250
0.000272
0.000353
0.000379
0.000392
0.000279
0.001556
0.000268
0.000299
0.000446
0.000374
0.000227
0.000426
0.000236
0.000241
0.000268
0.000272
0.000268
0.000279
0.000264
0.000258
0.000270
0.000261
0.000429
0.000411
0.001595
0.000269
0.000229
0.000191
0.000056
0.000230
0.000245
0.000272
0.000223
0.000242
0.000246
0.000259
0.000274
0.000438
0.002043
0.000248
0.000230
0.000254
0.000260
0.000263
0.000250
0.000272
0.000253
0.000358
0.000337
0.000507
0.000318
0.001443
0.000269
0.000520
0.000230
0.001764
0.000242
0.000267
0.001523
0.000207
0.000057
0.000360
0.000410
0.000447
0.000223
0.000265
0.000245
0.000243
0.000267
0.000262
0.000224
0.000253
0.000460
0.000317
0.000453
0.000310
0.000235
0.000232
0.001554
0.000228
0.000672
0.001798
0.000288
0.000238
0.001578
0.001982
0.000797
0.000266
0.000284
0.000254
0.000453
0.000389
0.000078
0.000195
0.000240
0.000242
0.000253
0.001416
0.001733
0.001072
0.000215
0.000251
0.001645
0.001899
0.000222
0.000227
0.000419
0.000351
0.000360
0.000380
0.000471
0.000208
0.000240
0.000249
0.000258
0.000279
0.001584
0.001207
0.001428
0.000270
0.000309
0.000247
0.000325
0.000387
0.000061
0.000206
0.000239
0.000232
0.000247
0.000228
0.000244
0.000247
0.000246
0.000262
0.000246
0.000247
0.000404
0.000376
0.000440
0.000261
0.000270
0.000252
0.000271
0.000263
0.000269
0.000253
0.000266
0.001636
0.000363
0.002096
0.000234
0.000312
0.000283
0.000440
0.000424
0.000166
0.000056
0.000287
0.000404
0.000343
0.000314
0.000187
0.000234
0.000255
0.000240
0.000241
0.000243
0.000249
0.000262
0.000263
0.001607
0.001360
0.001222
0.000269
0.000254
0.000234
0.000274
0.000283
0.000280
0.000239
0.000254
0.002203
0.000260
0.000239
0.000300
0.000325
0.000303
0.000221
0.000059
0.000225
0.000347
0.000592
0.000282
0.000236
0.000234
0.000249
0.000268
0.001909
0.001418
0.000219
0.000332
0.000384
0.000411
0.000262
0.000216
0.000257
0.000271
0.000268
0.000263
0.000255
0.000258
0.000471
0.000243
0.000273
0.000262
0.000255
0.000275
0.000277
0.000253
0.000203
0.000058
0.000181
0.000252
0.000243
0.000250
0.000246
0.000279
0.001540
0.001462
0.001277
0.000254
0.000215
0.000241
0.000262
0.000268
0.000256
0.000240
0.000246
0.002100
0.000268
0.000230
0.000261
0.000261
0.000255
0.000272
0.000268
0.000255
0.000268
0.000261
0.000272
0.000249
0.000175
0.000056
0.000207
0.002803
0.001274
0.000217
0.000320
0.000284
0.000233
0.000263
0.000258
0.000241
0.000255
0.000243
0.000238
0.000248
0.000270
0.000258
0.000267
0.000279
0.000239
0.000273
0.000265
0.000279
0.000278
0.000258
0.000250
0.000246
0.000265
0.000266
0.000281
0.000256
0.000361
0.000057
0.001543
0.000263
0.001248
0.000206
0.000224
0.000242
0.000260
0.000251
0.000241
0.000277
0.000444
0.000347
0.000301
0.000217
0.000250
0.002143
0.000246
0.000241
0.000284
0.000522
0.000337
0.000313
0.000223
0.000249
0.000272
0.000251
0.000266
0.000281
0.000268
0.001632
0.001231
0.000057
0.000209
0.000238
0.000365
0.000316
0.000354
0.000287
0.000209
0.000235
0.000250
0.000254
0.000265
0.000250
0.000234
0.000251
0.000259
0.000248
0.000342
0.000692
0.000264
0.000246
0.000218
0.000274
0.000284
0.000246
0.000256
0.000250
0.000260
0.000277
0.000248
0.000404
0.000296
0.000056
0.001131
0.000243
0.000396
0.000466
0.000203
0.000230
0.000231
0.000241
0.000245
0.002423
0.000246
0.000389
0.000219
0.000378
0.000274
0.000270
0.000256
0.000260
0.000269
0.000227
0.000251
0.000417
0.000627
0.000291
0.001862
0.001363
0.000533
0.000482
0.000231
0.000275
0.000199
0.000056
0.000276
0.000307
0.000241
0.000248
0.000242
0.000227
0.000258
0.000255
0.000255
0.000248
0.000252
0.000232
0.000242
0.000316
0.000339
0.000495
0.001847
0.001380
0.000424
0.000403
0.000459
0.000245
0.000237
0.000258
0.002191
0.000499
0.000388
0.000232
0.000273
0.000279
0.000198
0.000055
0.000214
0.000237
0.000258
0.000243
0.000252
0.000361
0.000390
0.000338
0.000268
0.000246
0.000242
0.000251
0.000261
0.002177
0.000465
0.000224
0.000219
0.000244
0.000266
0.000261
0.000250
0.002504
0.000290
0.000234
0.000248
0.000254
0.000252
0.000277
0.000278
0.000282
0.000190
0.000056
0.000237
0.000362
0.000560
0.000321
0.000253
0.000212
0.000233
0.000255
0.000264
0.000251
0.002045
0.000321
0.000255
0.000293
0.000218
0.000266
0.000273
0.000241
0.002207
0.000450
0.000218
0.000265
0.000274
0.000261
0.000247
0.000256
0.000280
0.000259
0.000264
0.000256
0.000186
0.000056
0.000220
0.000234
0.000272
0.000200
0.000248
0.000252
0.000239
0.000244
0.000232
0.002181
0.000231
0.000280
0.000224
0.000418
0.000237
0.000254
0.000272
0.000286
0.000241
0.000268
0.002011
0.000244
0.000372
0.000374
0.000387
0.000395
0.000312
0.000248
0.000252
0.000255
0.000202
0.000056
0.000207
0.000237
0.000232
0.000248
0.000253
0.000324
0.000232
0.002294
0.000248
0.000229
0.000259
0.000256
0.000243
0.000246
0.000303
0.002518
0.000235
0.000193
0.000248
0.000240
0.000260
0.000257
0.000294
0.000266
0.000263
0.000250
0.000284
0.000263
0.000260
0.000261
0.000190
0.000057
0.001814
0.001442
0.000194
0.000231
0.000246
0.000252
0.000263
0.000356
0.000326
0.000307
0.002199
0.000262
0.000231
0.000308
0.000423
0.000240
0.000555
0.000228
0.000234
0.000240
0.000252
0.000264
0.000264
0.000225
0.000260
0.000265
0.000271
0.000267
0.000441
0.000612
0.000237
0.000057
0.000204
0.000248
0.000246
0.000271
0.000254
0.000267
0.000236
0.000242
0.001528
0.002064
0.000587
0.000291
0.000665
0.000485
0.000299
0.000226
0.000253
0.000246
0.000270
0.000260
0.000255
0.000245
0.000255
0.000266
0.001821
0.001457
0.000304
0.000257
0.000290
0.000321
0.000385
0.000057
0.001947
0.000220
0.000225
0.000237
0.000335
0.000316
0.000451
0.000372
0.000227
0.000210
0.000250
0.000245
0.000257
0.000260
0.000263
0.000257
0.000256
0.000262
0.001848
0.000234
0.000236
0.000257
0.000274
0.000275
0.000276
0.000269
0.001443
0.000332
0.000259
0.000257
0.000171
0.000057
0.000192
0.000242
0.000236
0.000247
0.000265
0.000231
0.000382
0.000285
0.000355
0.000367
0.000235
0.000223
0.000255
0.000338
0.000429
0.000308
0.000224
0.000248
0.000295
0.000412
0.000414
0.000395
0.000276
0.000249
0.000260
0.000252
0.000253
0.000276
0.000271
0.000266
0.000200
0.000056
0.001406
0.000428
0.000229
0.001947
0.000298
0.000522
0.000305
0.000311
0.000227
0.000246
0.000268
0.000246
0.000248
0.000242
0.000268
0.000254
0.000469
0.000286
0.000460
0.000294
0.000368
0.000231
0.000252
0.000268
0.000273
0.000274
0.000257
0.000269
0.000385
0.000491
0.001313
0.000057
0.000208
0.000221
0.002074
0.000370
0.000242
0.000264
0.000257
0.000249
0.000261
0.000263
0.000215
0.000253
0.000256
0.000258
0.000336
0.000466
0.000530
0.001759
0.000230
0.000264
0.000241
0.000278
0.000578
0.000232
0.001567
0.000284
0.000365
0.001925
0.000272
0.000247
0.000196
0.000056
0.000192
0.000225
0.000236
0.000240
0.000230
0.000249
0.000256
0.000278
0.000329
0.000279
0.000386
0.000354
0.000338
0.000300
0.000234
0.000269
0.000262
0.000237
0.000270
0.000254
0.000295
0.000289
0.000271
0.000265
0.000264
0.001505
0.000292
0.000420
0.002038
0.000229
0.000178
0.000057
0.000213
0.000232
0.000237
0.000250
0.000479
0.000213
0.000254
0.000438
0.000326
0.000279
0.000274
0.000210
0.000266
0.000263
0.000273
0.000336
0.000377
0.000466
0.000247
0.000402
0.000538
0.000429
0.001587
0.000272
0.000221
0.001984
0.000324
0.000253
0.000240
0.000297
0.000186
0.000056
0.000212
0.000243
0.000224
0.000245
0.000249
0.000269
0.000255
0.000269
0.000312
0.000204
0.001807
0.000331
0.000379
0.000349
0.000390
0.000393
0.000352
0.001471
0.000265
0.000254
0.002231
0.000441
0.000273
0.000236
0.000263
0.000263
0.000504
0.000234
0.000251
0.000274
0.000199
0.000056
0.000337
0.000287
0.000407
0.000234
0.000204
0.000234
0.000260
0.000254
0.000270
0.000290
0.000229
0.000252
0.000259
0.000285
0.000431
0.001458
0.000268
0.000204
0.000281
0.002011
0.000297
0.000250
0.000256
0.000261
0.000242
0.000281
0.000271
0.000261
0.000251
0.000267
0.000199
0.000056
0.000271
0.000354
0.002044
0.000248
0.000256
0.000221
0.000259
0.000348
0.000437
0.000371
0.001323
0.000361
0.000346
0.002086
0.000208
0.000244
0.000268
0.000277
0.000256
0.000248
0.000276
0.000291
0.000262
0.000359
0.000522
0.000341
0.000300
0.002229
0.000537
0.000477
0.000350
0.000057
0.000201
0.000229
0.000248
0.001967
0.000228
0.000225
0.000243
0.000243
0.000242
0.000257
0.000244
0.000261
0.000243
0.000354
0.000487
0.001419
0.000199
0.000237
0.000267
0.000256
0.000242
0.000252
0.000252
0.000319
0.000310
0.000450
0.000453
0.000233
0.001596
0.000270
0.000177
0.000056
0.000198
0.000225
0.000245
0.000238
0.000253
0.000248
0.000252
0.000246
0.000257
0.000413
0.000409
0.001365
0.000219
0.000208
0.000250
0.000260
0.000246
0.000261
0.000542
0.000337
0.000405
0.000356
0.000232
0.001562
0.000231
0.000263
0.000283
0.000280
0.000262
0.000275
0.000191
0.000056
0.000217
0.000224
0.000274
0.000264
0.000248
0.000243
0.000232
0.000247
0.000273
0.000228
0.000269
0.000242
0.000256
0.001481
0.000361
0.000217
0.000245
0.000267
0.000309
0.000285
0.000420
0.000229
0.000237
0.000255
0.000269
0.000283
0.000237
0.001415
0.000274
0.000241
0.000175
0.000055
0.000215
0.000229
0.000262
0.000259
0.000251
0.000237
0.000252
0.000260
0.000217
0.000265
0.000247
0.000256
0.000240
0.000305
0.000402
0.000324
0.000242
0.000254
0.001634
0.000236
0.000245
0.000256
0.000275
0.000311
0.000397
0.000393
0.000459
0.000222
0.000240
0.001594
0.000168
0.000057
0.000403
0.000261
0.000471
0.000196
0.000233
0.000216
0.000241
0.000278
0.000254
0.000233
0.000242
0.000240
0.001508
0.000301
0.000265
0.000217
0.000265
0.000243
0.000264
0.000262
0.000256
0.000238
0.000258
0.000270
0.000258
0.000415
0.000341
0.000426
0.000273
0.000249
0.000218
0.000057
0.000213
0.000290
0.000489
0.000230
0.000380
0.000282
0.000250
0.000246
0.000250
0.000257
0.000248
0.000223
0.000255
0.000252
0.001307
0.000243
0.000241
0.000246
0.000264
0.000287
0.000225
0.000261
0.000257
0.000258
0.000260
0.000258
0.000758
0.000311
0.000378
0.000230
0.000178
0.000057
0.000202
0.001556
0.000259
0.000491
0.000353
0.000311
0.000213
0.000266
0.000261
0.000262
0.000229
0.000264
0.000270
0.000267
0.000265
0.001521
0.000255
0.000286
0.000262
0.000279
0.000241
0.000255
0.000263
0.000267
0.000255
0.000305
0.000397
0.000437
0.000278
0.000239
0.000193
0.000056
0.000213
0.000246
0.000238
0.001678
0.000353
0.000348
0.000231
0.000236
0.000249
0.000272
0.000279
0.000266
0.000236
0.000262
0.000234
0.000271
0.000457
0.001269
0.000253
0.000232
0.001491
0.000373
0.000582
0.000322
0.000347
0.000226
0.000269
0.000465
0.000236
0.000265
0.000187
0.000056
0.000196
0.000219
0.000242
0.000252
0.000248
0.000254
0.000235
0.000263
0.000271
0.000218
0.000255
0.000257
0.000346
0.000646
0.001486
0.001532
0.000313
0.000575
0.000295
0.000233
0.000223
0.000264
0.000250
0.000263
0.000249
0.000266
0.000266
0.000265
0.001586
0.000275
0.000162
0.000056
0.000197
0.000355
0.000353
0.000330
0.000251
0.000206
0.000244
0.000386
0.000487
0.000268
0.002171
0.000323
0.000807
0.000486
0.000377
0.000265
0.000335
0.000400
0.000329
0.000273
0.000391
0.000239
0.001558
0.000531
0.000217
0.000260
0.000258
0.000253
0.000276
0.000251
0.000203
0.000057
0.000209
0.000248
0.000255
0.000251
0.000242
0.001664
0.000887
0.000981
0.000213
0.000237
0.000288
0.000225
0.000259
0.000262
0.000258
0.000248
0.000256
0.000263
0.000265
0.000294
0.001416
0.000319
0.000254
0.000224
0.000244
0.000274
0.000237
0.000293
0.000256
0.000287
0.001893
0.000057
0.000197
0.000227
0.001564
0.000920
0.000337
0.000316
0.000247
0.000227
0.000266
0.000241
0.000249
0.000245
0.000250
0.001976
0.000478
0.000243
0.000224
0.000255
0.000269
0.000257
0.000195
