0.000231
0.019889
0.001594
0.000420
0.000249
0.000288
0.000301
0.000246
0.000331
0.000285
0.000251
0.000356
0.000524
0.000437
0.000430
0.000338
0.000251
0.000371
0.000384
0.000363
0.000314
0.001963
0.000659
0.000253
0.000257
0.000320
0.000290
0.000394
0.000427
0.000309
0.000494
0.000297
0.000057
0.000217
0.000247
0.000270
0.000260
0.000274
0.000251
0.000278
0.000259
0.000269
0.000300
0.000434
0.000495
0.000263
0.000244
0.000420
0.000282
0.000364
0.000252
0.000259
0.001697
0.000317
0.000260
0.000452
0.000236
0.000283
0.000281
0.000285
0.000296
0.000278
0.000344
0.000374
0.000056
0.000255
0.000253
0.000262
0.000261
0.000254
0.000245
0.000259
0.000255
0.000289
0.001668
0.000220
0.000246
0.000265
0.000274
0.000282
0.000251
0.000261
0.000253
0.000359
0.001797
0.000236
0.000279
0.000445
0.000515
0.000306
0.000238
0.000259
0.000458
0.000604
0.000667
0.000195
0.000056
0.000224
0.000243
0.000256
0.000242
0.000291
0.000254
0.000310
0.000536
0.000406
0.000245
0.000266
0.000242
0.000256
0.000240
0.000255
0.000258
0.000266
0.000244
0.000300
0.000325
0.001670
0.000279
0.000257
0.000407
0.000633
0.000361
0.000753
0.000436
0.000345
0.000244
0.000192
0.000055
0.000253
0.000238
0.000262
0.000243
0.000253
0.000258
0.000247
0.000506
0.001439
0.000228
0.000248
0.000242
0.000259
0.000253
0.000262
0.000283
0.000307
0.000794
0.001370
0.000294
0.000438
0.000262
0.000227
0.000223
0.000259
0.000274
0.000250
0.000269
0.000261
0.000264
0.000196
0.000055
0.000207
0.000246
0.000246
0.000262
0.000237
0.000241
0.000241
0.000257
0.000233
0.000255
0.001631
0.000268
0.000228
0.000258
0.000243
0.000248
0.000250
0.000247
0.000256
0.000251
0.000270
0.001717
0.000236
0.000266
0.000418
0.000261
0.000258
0.000254
0.000266
0.000266
0.000193
0.000055
0.000222
0.000231
0.000250
0.000245
0.000244
0.000246
0.000283
0.000217
0.000259
0.000261
0.000259
0.000242
0.000261
0.000272
0.001643
0.000271
0.000307
0.000203
0.000257
0.000276
0.000267
0.000234
0.000252
0.000264
0.001804
0.000330
0.000384
0.000347
0.000256
0.000279
0.000195
0.000056
0.000231
0.000241
0.000242
0.000266
0.000257
0.000241
0.000254
0.000435
0.000404
0.000439
0.000208
0.000247
0.000255
0.000247
0.001562
0.000516
0.000331
0.000411
0.000325
0.000226
0.000269
0.000279
0.000282
0.001773
0.000463
0.000458
0.000254
0.000249
0.000246
0.000268
0.000185
0.000056
0.000195
0.000236
0.000255
0.000261
0.000332
0.000491
0.000407
0.000201
0.000221
0.000247
0.000263
0.000241
0.000251
0.001688
0.000508
0.000282
0.000238
0.000250
0.000270
0.000277
0.000259
0.000251
0.000278
0.001894
0.000300
0.000384
0.000254
0.000251
0.000273
0.000413
0.000328
0.000056
0.000213
0.000372
0.000360
0.000279
0.000268
0.000240
0.000248
0.000258
0.000239
0.000233
0.000234
0.000253
0.001548
0.000381
0.000280
0.000244
0.000249
0.000253
0.000248
0.000276
0.000346
0.000259
0.000242
0.001813
0.000254
0.000495
0.000248
0.000256
0.000254
0.000269
0.000252
0.000056
0.000266
0.000976
0.000303
0.000231
0.000213
0.000277
0.000227
0.000224
0.000258
0.000249
0.000256
0.001699
0.000249
0.000452
0.000362
0.000214
0.000243
0.000227
0.000252
0.000258
0.000275
0.001838
0.000258
0.000221
0.002077
0.000514
0.000371
0.000247
0.000254
0.000286
0.000169
0.000056
0.000221
0.000237
0.000250
0.000244
0.000254
0.001617
0.000248
0.000236
0.000265
0.000246
0.000242
0.000252
0.000245
0.000253
0.000264
0.000407
0.000634
0.000262
0.000234
0.000266
0.000270
0.000245
0.000250
0.000424
0.000443
0.000274
0.000327
0.000710
0.000293
0.000266
0.000206
0.000057
0.000217
0.000246
0.000250
0.000251
0.000234
0.000249
0.000235
0.000530
0.000276
0.001738
0.000221
0.000245
0.000238
0.000249
0.000261
0.000306
0.000427
0.000430
0.000373
0.000236
0.000262
0.000298
0.000283
0.000250
0.000295
0.000414
0.000355
0.000500
0.000571
0.000442
0.000181
0.000056
0.000199
0.000262
0.000241
0.000225
0.000242
0.000238
0.000246
0.000251
0.000241
0.000338
0.000294
0.000450
0.001372
0.000252
0.000235
0.000244
0.000256
0.000254
0.000249
0.000250
0.000273
0.000431
0.000460
0.000244
0.000268
0.000254
0.000256
0.000272
0.000263
0.000267
0.000380
0.000056
0.000216
0.000240
0.000230
0.000272
0.000577
0.000381
0.000240
0.000261
0.000228
0.000260
0.000266
0.000219
0.000297
0.000250
0.000243
0.000574
0.000328
0.001638
0.000283
0.000232
0.000258
0.000259
0.000263
0.000237
0.000262
0.000536
0.000328
0.000386
0.000433
0.000230
0.000194
0.000057
0.000240
0.000406
0.000237
0.000219
0.000264
0.000238
0.000244
0.000620
0.000328
0.000322
0.000224
0.000267
0.000272
0.000238
0.000509
0.000349
0.000229
0.000344
0.000375
0.001574
0.000279
0.000237
0.000508
0.000242
0.000284
0.000277
0.000258
0.000431
0.000468
0.000375
0.000259
0.000056
0.000216
0.000230
0.000237
0.000243
0.000410
0.000306
0.000295
0.000223
0.000412
0.000488
0.000341
0.000260
0.000245
0.000240
0.000260
0.000265
0.000254
0.000256
0.000229
0.000345
0.000295
0.000334
0.001845
0.000241
0.000271
0.000246
0.000287
0.000352
0.000514
0.000583
0.000431
0.000057
0.000230
0.000331
0.000283
0.000426
0.000385
0.000210
0.000275
0.000354
0.000451
0.000397
0.000261
0.000240
0.000237
0.000272
0.000262
0.000233
0.000274
0.000259
0.000263
0.000257
0.000329
0.000479
0.000604
0.001255
0.000337
0.000525
0.000326
0.000253
0.000545
0.000284
0.000382
0.000056
0.000266
0.000377
0.000265
0.000210
0.000222
0.000270
0.000389
0.000241
0.000231
0.000431
0.000350
0.000445
0.000255
0.000255
0.000265
0.000248
0.000385
0.000367
0.000364
0.000227
0.000242
0.000436
0.000602
0.001656
0.000222
0.000464
0.000287
0.000224
0.000290
0.000438
0.000316
0.000057
0.000237
0.000228
0.000245
0.000240
0.000251
0.000251
0.000247
0.000328
0.000458
0.000253
0.000447
0.000404
0.000274
0.000582
0.000232
0.000249
0.000273
0.000264
0.000234
0.000346
0.000228
0.000249
0.000270
0.000461
0.000466
0.001625
0.000266
0.000230
0.000254
0.000273
0.000188
0.000056
0.000284
0.000495
0.000330
0.000226
0.000248
0.000241
0.000260
0.000241
0.000257
0.000249
0.000242
0.000233
0.000406
0.000524
0.000376
0.000299
0.000278
0.000240
0.000363
0.000366
0.000385
0.000325
0.000425
0.000356
0.000222
0.000252
0.000265
0.000273
0.001784
0.000243
0.000211
0.000058
0.000207
0.000217
0.000259
0.000272
0.000376
0.000535
0.000304
0.000216
0.000258
0.000264
0.000248
0.000250
0.000524
0.000447
0.000485
0.000282
0.000255
0.000278
0.000425
0.000460
0.000407
0.000345
0.000527
0.000406
0.000227
0.000260
0.000268
0.000252
0.000254
0.001717
0.000308
0.000058
0.000256
0.000328
0.000208
0.000236
0.000253
0.000247
0.000251
0.000498
0.000374
0.000300
0.000316
0.000252
0.000338
0.000772
0.000223
0.000236
0.000254
0.000256
0.000255
0.000260
0.000267
0.000268
0.000246
0.000264
0.000312
0.000416
0.000365
0.000344
0.000241
0.000250
0.000187
0.000056
0.000440
0.000309
0.000511
0.000201
0.000203
0.000249
0.000247
0.000257
0.000235
0.000232
0.000245
0.000283
0.000291
0.000399
0.000451
0.000514
0.000316
0.000321
0.000391
0.000370
0.000270
0.000224
0.000241
0.000260
0.001742
0.000258
0.001723
0.000939
0.000432
0.000291
0.000165
0.000057
0.000215
0.000233
0.000231
0.000249
0.000258
0.000250
0.000246
0.000256
0.000240
0.000332
0.000416
0.000355
0.000351
0.000362
0.000272
0.000249
0.000244
0.000293
0.000235
0.000244
0.000256
0.000262
0.001799
0.000244
0.000260
0.000262
0.000275
0.000265
0.001908
0.000482
0.000305
0.000057
0.000217
0.000219
0.000239
0.000240
0.000250
0.000250
0.000244
0.000256
0.000249
0.000461
0.000567
0.000404
0.000240
0.000198
0.000238
0.000253
0.000401
0.000379
0.000366
0.000242
0.001774
0.000260
0.000248
0.000247
0.000261
0.000271
0.000242
0.000254
0.000326
0.000302
0.000431
0.000056
0.000260
0.000205
0.000237
0.000257
0.000244
0.000249
0.000254
0.000252
0.000245
0.000253
0.000245
0.000272
0.000409
0.000397
0.000301
0.000279
0.000457
0.000251
0.000247
0.000256
0.000257
0.000260
0.000275
0.000257
0.000279
0.001791
0.000242
0.000246
0.000266
0.000238
0.000203
0.000056
0.000251
0.000389
0.000231
0.000219
0.000238
0.000237
0.000239
0.000255
0.000249
0.000218
0.000232
0.000269
0.000256
0.000326
0.000436
0.000418
0.000237
0.000253
0.000235
0.000256
0.000278
0.000243
0.000251
0.000270
0.000248
0.000271
0.000310
0.001627
0.000268
0.000238
0.000188
0.000056
0.000205
0.000234
0.000258
0.000256
0.000343
0.000453
0.000368
0.000246
0.000247
0.000239
0.000251
0.000242
0.000251
0.000257
0.000257
0.000261
0.000244
0.000257
0.000250
0.000261
0.000271
0.000268
0.000250
0.000238
0.000243
0.000276
0.000273
0.000264
0.000258
0.000260
0.000194
0.000056
0.000197
0.000237
0.000257
0.000257
0.000235
0.000254
0.000241
0.000261
0.000279
0.000248
0.000225
0.000245
0.000254
0.000249
0.000266
0.000265
0.000253
0.000254
0.000299
0.000252
0.000268
0.000297
0.000271
0.000256
0.000270
0.000275
0.000270
0.000255
0.000294
0.000389
0.000677
0.000056
0.000233
0.000277
0.000221
0.000232
0.000239
0.000255
0.000237
0.000252
0.000251
0.000240
0.000266
0.000292
0.000499
0.000500
0.001505
0.000228
0.000494
0.000243
0.000377
0.000343
0.000435
0.000356
0.000242
0.000275
0.000251
0.000257
0.000283
0.000251
0.000307
0.000255
0.000191
0.000056
0.000377
0.000388
0.000330
0.000335
0.000210
0.000253
0.000249
0.000242
0.000235
0.000248
0.000253
0.000251
0.000238
0.000314
0.000346
0.000502
0.000351
0.001802
0.000228
0.000257
0.000329
0.000413
0.000427
0.000327
0.000318
0.000322
0.000303
0.000233
0.000227
0.000258
0.000183
0.000057
0.000199
0.000231
0.000240
0.000279
0.000316
0.000506
0.000329
0.000258
0.000252
0.000216
0.000243
0.000289
0.000250
0.000265
0.000244
0.000265
0.000285
0.000525
0.000330
0.000426
0.000230
0.001751
0.000334
0.000481
0.000493
0.000486
0.000325
0.000222
0.000256
0.000268
0.000446
0.000057
0.000213
0.000272
0.000214
0.000338
0.000398
0.000466
0.000342
0.000231
0.000234
0.000290
0.000243
0.000261
0.000252
0.000291
0.000305
0.000241
0.000261
0.000288
0.000560
0.000313
0.000501
0.001845
0.000251
0.000429
0.000520
0.000355
0.000225
0.000262
0.000292
0.000268
0.000196
0.000056
0.000244
0.000330
0.000352
0.000275
0.000503
0.000264
0.000329
0.000218
0.000243
0.000262
0.000272
0.000231
0.000248
0.000249
0.000254
0.000255
0.000314
0.000360
0.000522
0.000362
0.000305
0.000226
0.000268
0.001716
0.000479
0.000454
0.000677
0.000247
0.000260
0.000307
0.000159
0.000056
0.000203
0.000235
0.000332
0.000243
0.000262
0.000383
0.000393
0.000331
0.000232
0.000544
0.000226
0.000241
0.000260
0.000275
0.000275
0.000282
0.000197
0.000484
0.000381
0.000386
0.000266
0.000238
0.000254
0.000254
0.000259
0.000269
0.000238
0.000252
0.000268
0.000285
0.000201
0.000057
0.000329
0.000315
0.000239
0.000250
0.000247
0.000262
0.000238
0.000295
0.000237
0.000244
0.000260
0.000370
0.000400
0.000432
0.000310
0.000278
0.000228
0.000235
0.000262
0.000267
0.000290
0.000255
0.000240
0.000255
0.000279
0.000309
0.000486
0.000310
0.000355
0.000233
0.000173
0.000055
0.000197
0.000225
0.000284
0.000242
0.000243
0.000247
0.000252
0.000257
0.000492
0.000209
0.000261
0.000250
0.000250
0.000268
0.000275
0.000278
0.000255
0.000347
0.000223
0.000245
0.000256
0.000267
0.000267
0.000254
0.000273
0.000282
0.000245
0.000255
0.000516
0.000245
0.000150
0.000056
0.000214
0.000241
0.000248
0.000267
0.000215
0.000267
0.000350
0.000403
0.000243
0.000232
0.000251
0.000256
0.000234
0.000235
0.000418
0.001839
0.000232
0.000264
0.000284
0.000403
0.000362
0.000350
0.000387
0.000413
0.000343
0.000414
0.000230
0.000268
0.000269
0.000272
0.001377
0.000055
0.000393
0.000285
0.000279
0.000227
0.000221
0.000250
0.000232
0.000253
0.000242
0.000274
0.000240
0.000259
0.000254
0.000355
0.000449
0.001656
0.000250
0.000224
0.000247
0.000265
0.000233
0.000280
0.000395
0.000345
0.000307
0.000342
0.000225
0.000271
0.000271
0.000262
0.000194
0.000055
0.001183
0.000533
0.000352
0.000258
0.000238
0.000225
0.000240
0.000234
0.000494
0.000211
0.000247
0.000249
0.000428
0.000537
0.000288
0.000353
0.000244
0.000239
0.000359
0.000334
0.000276
0.000250
0.000267
0.000245
0.000267
0.000602
0.000570
0.000234
0.000247
0.000264
0.000166
0.000057
0.000184
0.000222
0.000241
0.000252
0.001558
0.000200
0.000231
0.000254
0.000235
0.000256
0.000268
0.000240
0.000240
0.000261
0.000270
0.000362
0.000385
0.000674
0.000216
0.001748
0.000260
0.000265
0.000339
0.000387
0.000671
0.000279
0.000261
0.000252
0.000256
0.000273
0.000202
0.000057
0.000201
0.000244
0.000235
0.000331
0.001242
0.000236
0.000251
0.000266
0.000241
0.000233
0.000255
0.000234
0.000277
0.000250
0.000257
0.000393
0.000340
0.000466
0.000286
0.000268
0.000270
0.000267
0.000251
0.000238
0.000285
0.000261
0.000246
0.000277
0.000278
0.000380
0.000524
0.000056
0.000228
0.000247
0.000241
0.000260
0.000262
0.000243
0.000234
0.000263
0.000267
0.000257
0.001424
0.000229
0.000243
0.000251
0.000244
0.000247
0.000268
0.000266
0.000255
0.000268
0.000271
0.000574
0.000362
0.000406
0.000221
0.000275
0.001766
0.000253
0.000253
0.000351
0.000420
0.000056
0.000224
0.000414
0.000414
0.000506
0.000514
0.000567
0.001467
0.000413
0.000521
0.000654
0.000554
0.000684
0.000546
0.000582
0.000584
0.001898
0.000396
0.000441
0.000396
0.000321
0.000230
0.000301
0.000255
0.000266
0.000253
0.000290
0.000290
0.000282
0.000266
0.000287
0.001370
0.000056
0.000215
0.000227
0.000246
0.000237
0.000262
0.000249
0.000245
0.000236
0.000253
0.000246
0.000240
0.000247
0.000256
0.000255
0.000264
0.000273
0.001813
0.000273
0.000239
0.000244
0.000261
0.000260
0.000270
0.000283
0.000524
0.000317
0.000322
0.000239
0.000270
0.000270
0.000215
0.000055
0.000218
0.001361
0.000332
0.000261
0.000255
0.000245
0.000242
0.000257
0.000213
0.000238
0.000221
0.000239
0.000249
0.000506
0.000366
0.000282
0.000265
0.000256
0.001925
0.000235
0.000241
0.000268
0.000253
0.000267
0.000275
0.000284
0.000264
0.000257
0.000267
0.000318
0.000203
0.000056
0.000199
0.000246
0.000253
0.001430
0.000236
0.000235
0.000254
0.000246
0.000233
0.000272
0.000250
0.000246
0.000246
0.000254
0.000256
0.000256
0.000265
0.000270
0.000271
0.000250
0.000261
0.001775
0.000280
0.001753
0.000266
0.000233
0.000269
0.000274
0.000274
0.000268
0.000200
0.000056
0.000202
0.000239
0.001337
0.000218
0.000257
0.000254
0.000262
0.000249
0.000241
0.000254
0.000246
0.000248
0.000260
0.000264
0.000257
0.000263
0.000261
0.000283
0.000296
0.000230
0.001889
0.000225
0.001832
0.000240
0.000263
0.000274
0.000231
0.000283
0.000218
0.000271
0.000194
0.000056
0.001429
0.000228
0.000233
0.000254
0.000233
0.000241
0.000388
0.000248
0.000253
0.000252
0.000256
0.000260
0.000241
0.000468
0.000269
0.000310
0.000236
0.000266
0.000273
0.000240
0.000271
0.000346
0.000223
0.000256
0.000270
0.000280
0.000274
0.000649
0.000319
0.000369
0.000191
0.000056
0.000236
0.000241
0.000268
0.000292
0.000377
0.000256
0.001657
0.000339
0.000273
0.000268
0.000260
0.000271
0.000284
0.000263
0.000268
0.000316
0.000444
0.000508
0.000330
0.000285
0.000294
0.000267
0.000257
0.000272
0.000336
0.000285
0.000229
0.000264
0.000247
0.000290
0.000470
0.000056
0.000228
0.000472
0.000273
0.000261
0.000247
0.000230
0.000223
0.000254
0.000256
0.000253
0.001522
0.000225
0.000222
0.000253
0.000245
0.000287
0.000261
0.000253
0.000261
0.000274
0.000277
0.000402
0.000533
0.000307
0.000252
0.000271
0.000265
0.000256
0.000237
0.000326
0.000153
0.000057
0.000199
0.000230
0.000307
0.000473
0.000330
0.000283
0.000217
0.000248
0.000254
0.000250
0.000231
0.000255
0.000274
0.000247
0.000242
0.000237
0.000472
0.001131
0.000249
0.000251
0.000276
0.000249
0.000345
0.000431
0.000256
0.000272
0.000612
0.000366
0.000377
0.000220
0.000193
0.000055
0.000227
0.000248
0.000260
0.000262
0.000256
0.000247
0.000385
0.000445
0.000384
0.000251
0.000407
0.000353
0.000390
0.000351
0.000248
0.000258
0.000236
0.000260
0.000442
0.001383
0.000297
0.000235
0.000267
0.000275
0.000234
0.000234
0.000274
0.000321
0.000387
0.000457
0.000257
0.000056
0.000196
0.000243
0.000249
0.000240
0.000268
0.000229
0.000237
0.000258
0.000333
0.000252
0.000465
0.000405
0.000247
0.000237
0.000251
0.000273
0.000232
0.000264
0.000265
0.000248
0.000445
0.000241
0.000398
0.000440
0.000290
0.000243
0.000268
0.000273
0.000254
0.000332
0.000158
0.000055
0.000306
0.000320
0.000346
0.000315
0.000531
0.000286
0.000260
0.000242
0.000246
0.000273
0.000255
0.000262
0.000237
0.000255
0.000242
0.000229
0.000267
0.000356
0.000545
0.000302
0.000226
0.000269
0.000248
0.000249
0.000266
0.000273
0.000267
0.000266
0.000279
0.000268
0.000290
0.000057
0.000330
0.000314
0.000228
0.000246
0.000243
0.000249
0.000251
0.000244
0.000274
0.000255
0.000252
0.000235
0.000301
0.000470
0.000469
0.000273
0.000243
0.000240
0.000255
0.000265
0.000257
0.000265
0.000252
0.000267
0.000291
0.000292
0.000400
0.000617
0.000406
0.000252
0.000172
0.000056
0.000362
0.000205
0.000231
0.000244
0.000253
0.000244
0.000244
0.000246
0.000261
0.000255
0.000225
0.000239
0.000272
0.000228
0.000241
0.000270
0.000251
0.000263
0.000273
0.000258
0.000264
0.000259
0.000263
0.000261
0.000272
0.000235
0.000266
0.000285
0.000248
0.000278
0.000192
0.000056
0.000195
0.000238
0.000248
0.000248
0.000231
0.000256
0.000260
0.000242
0.000257
0.000280
0.000225
0.000233
0.000267
0.000394
0.000252
0.000298
0.000252
0.000257
0.000258
0.000275
0.000272
0.000237
0.000262
0.000234
0.000274
0.000272
0.000250
0.000251
0.000271
0.000265
0.000203
0.000055
0.000227
0.000322
0.000369
0.000279
0.000295
0.000268
0.000268
0.000258
0.000222
0.000246
0.000247
0.000267
0.000252
0.000235
0.000257
0.000265
0.000256
0.000271
0.000243
0.000263
0.000276
0.000267
0.000277
0.000256
0.000268
0.000252
0.000258
0.000273
0.000271
0.000258
0.000196
0.000055
0.000204
0.000234
0.000260
0.000265
0.000483
0.000213
0.000211
0.000248
0.000267
0.000508
0.000441
0.000292
0.000221
0.000253
0.000265
0.000268
0.000236
0.000289
0.000240
0.000268
0.000282
0.000246
0.000259
0.000285
0.000571
0.000464
0.000257
0.000307
0.000256
0.000261
0.000191
0.000056
0.000216
0.000225
0.000244
0.000254
0.000409
0.000578
0.000290
0.000388
0.000202
0.000254
0.000252
0.000250
0.000261
0.000244
0.000256
0.000270
0.000255
0.000245
0.000656
0.000458
0.000212
0.000240
0.000263
0.000287
0.000279
0.000271
0.000247
0.000272
0.000250
0.000339
0.000481
0.000056
0.000268
0.000230
0.000244
0.000238
0.000253
0.000250
0.000233
0.000265
0.000228
0.000258
0.000243
0.000256
0.000245
0.000385
0.000592
0.000358
0.000249
0.000264
0.000262
0.000244
0.000264
0.000273
0.000490
0.000221
0.000263
0.000641
0.000368
0.000491
0.000249
0.000256
0.000176
0.000056
0.000201
0.000234
0.000244
0.000242
0.000253
0.000256
0.000300
0.000442
0.000587
0.000425
0.000217
0.000260
0.000278
0.000271
0.000259
0.000244
0.000237
0.000253
0.000266
0.000374
0.000341
0.000644
0.000367
0.000273
0.000364
0.000364
0.000492
0.000238
0.000268
0.000330
0.000434
0.000056
0.000270
0.000230
0.000431
0.000220
0.000235
0.000256
0.000282
0.000241
0.000232
0.000240
0.000270
0.000404
0.000306
0.000407
0.000222
0.000244
0.000270
0.000243
0.000263
0.000282
0.000283
0.000240
0.000251
0.000272
0.000326
0.000462
0.000490
0.000245
0.000261
0.000263
0.000201
0.000056
0.000235
0.000247
0.000253
0.000221
0.000251
0.000304
0.000322
0.000377
0.000447
0.000302
0.000355
0.000223
0.000252
0.000264
0.000254
0.000239
0.000261
0.000253
0.000302
0.000444
0.000442
0.000309
0.000478
0.000292
0.000421
0.000387
0.000375
0.000241
0.000248
0.000268
0.000407
0.000057
0.000240
0.000281
0.000225
0.000254
0.000257
0.000258
0.000248
0.000249
0.000264
0.000264
0.000224
0.000325
0.000467
0.000380
0.000379
0.000229
0.000264
0.000266
0.000260
0.000239
0.000253
0.000252
0.000266
0.000273
0.000285
0.000319
0.000505
0.000465
0.000239
0.000277
0.000192
0.000056
0.000225
0.000235
0.000269
0.000239
0.000272
0.000322
0.000501
0.000492
0.000336
0.000691
0.000274
0.000211
0.000243
0.000261
0.000249
0.000263
0.000292
0.000259
0.000469
0.000510
0.001432
0.000303
0.000259
0.000259
0.000295
0.000264
0.000475
0.000342
0.000315
0.000352
0.000175
0.000056
0.000214
0.000234
0.000243
0.000246
0.000237
0.000256
0.000278
0.000261
0.000244
0.000334
0.000349
0.000363
0.000267
0.000388
0.000334
0.000334
0.000266
0.000237
0.000269
0.000258
0.000261
0.000233
0.000285
0.000242
0.000333
0.000431
0.000431
0.000301
0.000234
0.000275
0.000185
0.000056
0.000235
0.000243
0.000260
0.000252
0.000243
0.000237
0.000470
0.000218
0.000231
0.000252
0.000251
0.000250
0.000259
0.000252
0.000257
0.000265
0.000263
0.000260
0.000275
0.000255
0.000265
0.000283
0.000295
0.000243
0.000263
0.000283
0.000264
0.000269
0.000261
0.000271
0.000172
0.000056
0.000235
0.000240
0.000278
0.000457
0.000362
0.000254
0.000235
0.000246
0.000261
0.000251
0.000243
0.000256
0.000265
0.000263
0.000238
0.000267
0.000224
0.000265
0.000360
0.000291
0.000379
0.000431
0.000225
0.000280
0.000254
0.000253
0.000270
0.000253
0.000266
0.000300
0.000175
0.000056
0.000386
0.000420
0.000392
0.000211
0.000254
0.000253
0.000407
0.000218
0.000237
0.000257
0.000256
0.000340
0.000305
0.000449
0.001853
0.000255
0.000242
0.000248
0.000277
0.000244
0.000351
0.000498
0.000602
0.000240
0.000233
0.000263
0.000276
0.000425
0.000273
0.000281
0.000168
0.000069
0.000270
0.000322
0.000358
0.000306
0.000493
0.000201
0.000243
0.000262
0.000246
0.000239
0.000260
0.000246
0.000257
0.000319
0.000478
0.000406
0.000223
0.000251
0.000260
0.000260
0.000269
0.000306
0.000230
0.000287
0.000279
0.000461
0.000488
0.000396
0.000471
0.000234
0.000202
0.000056
0.000198
0.000232
0.000259
0.000224
0.000254
0.000246
0.000269
0.000276
0.000343
0.000419
0.000391
0.000344
0.000217
0.000258
0.000265
0.000286
0.000297
0.000237
0.000275
0.000275
0.000237
0.000387
0.000379
0.000379
0.000278
0.000259
0.000269
0.000434
0.000429
0.000323
0.000152
0.000056
0.000206
0.000240
0.000329
0.000418
0.000389
0.000206
0.000238
0.000256
0.000262
0.000252
0.000261
0.000258
0.000225
0.000259
0.000260
0.000336
0.000343
0.000383
0.000280
0.000351
0.000488
0.000224
0.000283
0.000274
0.000305
0.000284
0.000256
0.000264
0.000462
0.000485
0.000234
0.000056
0.000211
0.000229
0.000249
0.000249
0.000240
0.000486
0.000201
0.000260
0.000266
0.000361
0.000438
0.000616
0.000216
0.000234
0.000239
0.000255
0.000255
0.000242
0.000266
0.000248
0.000260
0.000263
0.000368
0.000419
0.000352
0.000413
0.000306
0.000332
0.000277
0.000247
0.000186
0.000055
0.000206
0.000235
0.000266
0.000516
0.000298
0.000293
0.000257
0.000213
0.000250
0.000255
0.000252
0.000249
0.000253
0.000256
0.000250
0.000262
0.000254
0.000248
0.000287
0.000388
0.000483
0.000395
0.000230
0.000241
0.000280
0.000276
0.000266
0.000249
0.000265
0.000269
0.000189
0.000056
0.000226
0.000432
0.000458
0.000244
0.000215
0.000263
0.000320
0.000451
0.000279
0.000223
0.000243
0.000276
0.000252
0.000397
0.000480
0.000289
0.000229
0.000249
0.000253
0.000266
0.000270
0.000262
0.000263
0.000275
0.000264
0.000336
0.000354
0.000436
0.000281
0.000260
0.000174
0.000056
0.000200
0.000234
0.000248
0.000256
0.000250
0.000263
0.000233
0.000258
0.000243
0.000249
0.000271
0.000250
0.000252
0.001443
0.000239
0.000256
0.000264
0.000239
0.000278
0.000275
0.000263
0.000240
0.000280
0.000250
0.000267
0.000283
0.000254
0.000267
0.000264
0.000270
0.000198
0.000056
0.000214
0.000224
0.000253
0.000253
0.000235
0.000257
0.000248
0.000257
0.000230
0.000249
0.000248
0.000260
0.000257
0.000260
0.000256
0.000255
0.000244
0.000261
0.000275
0.000255
0.000246
0.000270
0.000245
0.000253
0.001292
0.000251
0.000641
0.000344
0.000377
0.000244
0.000195
0.000057
0.000184
0.000243
0.000240
0.000250
0.000418
0.000230
0.000249
0.000237
0.000254
0.000397
0.000402
0.000363
0.000225
0.000252
0.000245
0.000253
0.000258
0.000268
0.000243
0.000258
0.000263
0.000255
0.000258
0.000584
0.000362
0.000447
0.000235
0.000250
0.001360
0.000253
0.000177
0.000056
0.000363
0.000402
0.000329
0.000251
0.000249
0.000221
0.000230
0.000248
0.000258
0.000256
0.000246
0.000262
0.000272
0.000288
0.000535
0.000391
0.000339
0.000214
0.000270
0.000243
0.000265
0.000261
0.000273
0.000265
0.000267
0.000262
0.000294
0.000575
0.000375
0.000389
0.000145
0.000056
0.000213
0.000237
0.001267
0.000425
0.000415
0.000338
0.000371
0.000492
0.000296
0.000324
0.000223
0.000223
0.000264
0.000252
0.000259
0.000257
0.000425
0.000446
0.000386
0.000343
0.000255
0.000247
0.000258
0.000503
0.000233
0.000268
0.000256
0.000281
0.000279
0.000573
0.000285
0.000057
0.000400
0.000350
0.000198
0.000206
0.001580
0.000517
0.000239
0.000247
0.000239
0.000249
0.000234
0.000258
0.000225
0.000268
0.000251
0.000263
0.000233
0.000257
0.000388
0.000477
0.000393
0.000241
0.000256
0.000257
0.000259
0.000293
0.000250
0.000238
0.000265
0.000278
0.000200
0.000056
0.000457
0.000240
0.000228
0.000229
0.000254
0.000246
0.000250
0.000246
0.000222
0.000237
0.001427
0.000439
0.000272
0.000239
0.000248
0.000257
0.000273
0.000266
0.000247
0.000259
0.000266
0.000258
0.000261
0.000406
0.000544
0.000333
0.000240
0.000267
0.000277
0.000280
0.000171
0.000057
0.000216
0.000417
0.000222
0.000248
0.000447
0.000322
0.000361
0.000331
0.000462
0.000208
0.000230
0.000250
0.000262
0.000264
0.000256
0.001400
0.000374
0.000292
0.000240
0.000270
0.000282
0.000248
0.000253
0.000268
0.000250
0.000266
0.000410
0.000476
0.000294
0.000283
0.000160
0.000056
0.000189
0.000232
0.000253
0.000235
0.000229
0.000262
0.000244
0.000243
0.000296
0.000362
0.000448
0.000270
0.000258
0.000243
0.000245
0.000270
0.000277
0.000260
0.000269
0.000230
0.000257
0.000339
0.001229
0.000308
0.000208
0.000245
0.000255
0.000267
0.000260
0.000260
0.000188
0.000071
0.000219
0.000360
0.000340
0.000369
0.000243
0.000235
0.000260
0.000266
0.000250
0.000251
0.000258
0.000272
0.000239
0.000254
0.000259
0.000261
0.000266
0.000267
0.000266
0.000258
0.000243
0.000272
0.000266
0.000284
0.000285
0.000267
0.000270
0.000254
0.000261
0.000443
0.001361
0.000054
0.000220
0.000232
0.000240
0.000243
0.000252
0.000260
0.000248
0.000223
0.000251
0.000249
0.000276
0.000252
0.000253
0.000244
0.000252
0.000247
0.001719
0.000262
0.000247
0.000258
0.000250
0.000258
0.000272
0.000257
0.000276
0.000252
0.000266
0.000282
0.000267
0.000256
0.000239
0.000055
0.000321
0.000331
0.001267
0.000223
0.000234
0.000246
0.000259
0.000247
0.000257
0.000259
0.000234
0.000331
0.000406
0.000445
0.000280
0.000224
0.000252
0.000259
0.000254
0.000266
0.000245
0.000269
0.000264
0.000283
0.000258
0.000412
0.000354
0.000368
0.000314
0.000238
0.000197
0.000056
0.000211
0.000248
0.000244
0.000249
0.000250
0.000220
0.000255
0.000234
0.000444
0.001323
0.000269
0.000210
0.000247
0.000269
0.000251
0.000269
0.000261
0.000253
0.000299
0.000418
0.000404
0.000253
0.000243
0.000238
0.000281
0.000274
0.000266
0.000295
0.000273
0.000275
0.000193
0.000055
0.000377
0.000291
0.000391
0.000222
0.000233
0.000238
0.000242
0.000277
0.000267
0.000246
0.000226
0.000252
0.000455
0.000554
0.000416
0.001457
0.000247
0.000269
0.000340
0.000335
0.000490
0.000480
0.000392
0.000409
0.000232
0.000263
0.000270
0.000274
0.000263
0.000274
0.000185
0.000055
0.000227
0.000254
0.000449
0.000600
0.000234
0.000235
0.000251
0.000229
0.000252
0.000258
0.000247
0.000267
0.000264
0.000241
0.000266
0.000375
0.000327
0.000403
0.000350
0.001319
0.000273
0.000255
0.000258
0.000257
0.000472
0.000476
0.000316
0.000265
0.000280
0.000271
0.000188
0.000056
0.000204
0.000239
0.000250
0.000242
0.000248
0.000282
0.000443
0.000430
0.000327
0.000223
0.000237
0.000265
0.000268
0.000259
0.000262
0.000261
0.000268
0.000264
0.000266
0.000274
0.000447
0.000448
0.000311
0.001343
0.000416
0.000238
0.000273
0.000435
0.000418
0.000359
0.000324
0.000055
0.000201
0.000235
0.000249
0.000243
0.000253
0.000253
0.001681
0.000236
0.000231
0.000232
0.000259
0.000246
0.000261
0.000326
0.000326
0.000317
0.000254
0.000432
0.000337
0.000421
0.000321
0.000271
0.000232
0.001414
0.000349
0.000338
0.000434
0.000470
0.000305
0.000283
0.000165
0.000056
0.000207
0.000242
0.000256
0.000260
0.000240
0.000257
0.001710
0.000226
0.000255
0.000261
0.000330
0.000464
0.001372
0.000363
0.000403
0.000250
0.000250
0.000238
0.000266
0.000269
0.001598
0.000460
0.000431
0.000295
0.000253
0.000237
0.000267
0.000281
0.000248
0.000248
0.000194
0.000056
0.000204
0.000242
0.000270
0.000243
0.000259
0.000276
0.000280
0.000253
0.000255
0.000249
0.000273
0.000229
0.000262
0.000265
0.000262
0.001485
0.000285
0.000233
0.000267
0.000276
0.000270
0.000277
0.000420
0.001254
0.000276
0.000246
0.000270
0.000256
0.000389
0.000251
0.000198
0.000056
0.000195
0.000249
0.000224
0.000241
0.000240
0.000231
0.000231
0.001697
0.000249
0.000230
0.000253
0.000368
0.000225
0.000231
0.000253
0.001379
0.000240
0.000261
0.000272
0.000237
0.000265
0.000351
0.000277
0.001307
0.000272
0.000268
0.000250
0.000266
0.001376
0.000292
0.000192
0.000056
0.000226
0.000373
0.000206
0.000245
0.000248
0.000236
0.000268
0.000265
0.000268
0.000248
0.000280
0.000249
0.000250
0.000251
0.000326
0.001470
0.000256
0.000272
0.000254
0.000246
0.000283
0.000258
0.000252
0.001519
0.000341
0.000235
0.000263
0.001288
0.000255
0.000249
0.000242
0.000056
0.000229
0.000375
0.000350
0.000212
0.000237
0.000242
0.000262
0.000256
0.000266
0.000271
0.000250
0.000239
0.000262
0.000249
0.000428
0.001228
0.000235
0.000251
0.000270
0.000276
0.000230
0.000267
0.000228
0.000328
0.001267
0.000270
0.000243
0.000251
0.000258
0.001337
0.000318
0.000058
0.000248
0.000296
0.000232
0.000233
0.000239
0.000254
0.000242
0.000247
0.000279
0.000250
0.000243
0.000254
0.000242
0.000308
0.000431
0.001476
0.000214
0.000258
0.000298
0.000523
0.000270
0.000383
0.001358
0.000293
0.000249
0.000268
0.000252
0.001305
0.000276
0.000479
0.000386
0.000056
0.000229
0.000251
0.000255
0.000253
0.000255
0.000251
0.000272
0.000249
0.000276
0.000249
0.000298
0.000535
0.001283
0.000242
0.000257
0.000267
0.000277
0.000221
0.000257
0.000241
0.000333
0.001242
0.000260
0.000246
0.000254
0.000259
0.001461
0.000470
0.000481
0.000215
0.000188
0.000057
0.000209
0.000229
0.000248
0.000241
0.000251
0.000267
0.000237
0.000253
0.000428
0.000491
0.000274
0.001489
0.000211
0.000246
0.000266
0.000252
0.000261
0.000300
0.001677
0.000269
0.000402
0.000316
0.001319
0.000328
0.000302
0.000335
0.000243
0.000264
0.000258
0.000272
0.000195
0.000055
0.000189
0.000238
0.000332
0.000249
0.000315
0.000528
0.000292
0.000294
0.001466
0.000239
0.000385
0.000267
0.000215
0.000306
0.000429
0.001278
0.000273
0.000249
0.000242
0.000253
0.001536
0.000426
0.000216
0.000278
0.000263
0.000257
0.000456
0.000332
0.000233
0.000257
0.000260
0.000056
0.000267
0.000382
0.000313
0.000246
0.000234
0.001518
0.000215
0.000274
0.000250
0.000266
0.000270
0.000252
0.000316
0.001455
0.000263
0.000228
0.000429
0.001192
0.000319
0.000473
0.000393
0.000237
0.000243
0.000253
0.000274
0.000246
0.000450
0.000224
0.000270
0.000279
0.000193
0.000056
0.000191
0.000345
0.000315
0.000336
0.001267
0.000281
0.000311
0.000233
0.000242
0.000249
0.000251
0.000296
0.001512
0.000258
0.000236
0.000244
0.001378
0.000240
0.000470
0.000393
0.000420
0.000238
0.000249
0.000250
0.000269
0.000278
0.000271
0.000254
0.000266
0.000273
0.000175
0.000057
0.000223
0.000399
0.001450
0.000211
0.000271
0.000277
0.000239
0.000246
0.000282
0.000399
0.001364
0.000206
0.000261
0.000256
0.000264
0.001259
0.000698
0.000319
0.000324
0.000400
0.000291
0.000242
0.000271
0.000257
0.000271
0.000288
0.000264
0.000356
0.000348
0.000459
0.001373
0.000055
0.000217
0.000245
0.000247
0.000226
0.000245
0.000444
0.000446
0.001301
0.000247
0.000243
0.000248
0.001439
0.000462
0.000290
0.000228
0.000417
0.000238
0.000239
0.000266
0.000276
0.000247
0.000273
0.000281
0.000249
0.000259
0.000392
0.000330
0.000488
0.001485
0.000232
0.000182
0.000057
0.000207
0.000257
0.000338
0.000528
0.001265
0.000284
0.000243
0.000257
0.000249
0.000250
0.000251
0.000258
0.000380
0.000472
0.000348
0.000229
0.000261
0.000273
0.000249
0.000271
0.000254
0.000272
0.000259
0.000268
0.000277
0.000457
0.000383
0.000363
0.000324
0.001390
0.000181
0.000055
0.000228
0.000242
0.000306
0.000457
0.000305
0.000311
0.000313
0.000334
0.000268
0.000261
0.000260
0.000261
0.000252
0.000305
0.000240
0.000301
0.000536
0.000372
0.000246
0.000382
0.000281
0.000406
0.000225
0.000266
0.000244
0.000266
0.000253
0.000289
0.000330
0.000530
0.000291
0.000056
0.000215
0.001401
0.000241
0.000340
0.000477
0.000375
0.000341
0.000317
0.000221
0.000239
0.000266
0.000246
0.000262
0.000269
0.000267
0.000249
0.000268
0.001252
0.000361
0.000255
0.000256
0.000269
0.000273
0.000280
0.000269
0.000249
0.000281
0.000249
0.000355
0.000471
0.000276
0.000057
0.000208
0.000253
0.000225
0.001494
0.000322
0.000244
0.000230
0.000249
0.000228
0.000241
0.000261
0.000271
0.000246
0.000254
0.000268
0.000249
0.000248
0.000274
0.000269
0.000247
0.001437
0.000233
0.000243
0.000268
0.000260
0.000249
0.000266
0.000264
0.000278
0.000482
0.000350
0.000056
0.000211
0.000231
0.000394
0.000277
0.000250
0.000259
0.001552
0.000390
0.000235
0.000214
0.000258
0.000314
0.000338
0.000228
0.000226
0.000246
0.000250
0.000266
0.000259
0.000256
0.000486
0.000490
0.001129
0.000279
0.000233
0.000259
0.000270
0.000256
0.000274
0.000264
0.000345
0.000056
0.000287
0.000333
0.000216
0.000262
0.000223
0.000243
0.000242
0.000229
0.000291
0.001570
0.000467
0.000224
0.000240
0.000268
0.000244
0.000243
0.000261
0.000275
0.000257
0.000310
0.000319
0.000528
0.000392
0.001370
0.000241
0.000257
0.000274
0.000261
0.000266
0.000452
0.000425
0.000056
0.000240
0.000232
0.000239
0.000243
0.000234
0.000231
0.000260
0.000245
0.000273
0.001632
0.000291
0.000259
0.000261
0.000259
0.000469
0.000253
0.000536
0.000367
0.000302
0.000339
0.000459
0.000435
0.001267
0.000257
0.000242
0.000255
0.001781
0.000373
0.000614
0.000338
0.000130
0.000056
0.000195
0.000224
0.000240
0.000238
0.000257
0.000242
0.000240
0.000540
0.000443
0.000458
0.000255
0.000246
0.000228
0.000265
0.000265
0.000263
0.000243
0.000255
0.000251
0.000275
0.000277
0.000437
0.001321
0.000226
0.000252
0.000271
0.001937
0.000348
0.000365
0.000349
0.000163
0.000056
0.000216
0.000243
0.000245
0.001606
0.000382
0.000214
0.000238
0.000270
0.000247
0.000296
0.000374
0.000369
0.000358
0.000269
0.000296
0.000512
0.000400
0.001205
0.000270
0.000236
0.000249
0.000263
0.000270
0.000423
0.000658
0.000402
0.000265
0.000260
0.000264
0.000296
0.000172
0.000056
0.000195
0.000232
0.000242
0.001531
0.000257
0.000237
0.000242
0.000252
0.000245
0.000247
0.000257
0.000270
0.000276
0.000265
0.000242
0.000414
0.000442
0.000298
0.001404
0.000227
0.000265
0.000259
0.000262
0.000284
0.000395
0.000483
0.000402
0.000290
0.000266
0.000220
0.000454
0.000057
0.000210
0.000242
0.000251
0.001515
0.000326
0.000222
0.000265
0.000244
0.000254
0.000274
0.000239
0.000249
0.000262
0.000275
0.000394
0.000523
0.001353
0.000758
0.000255
0.000330
0.000259
0.000242
0.000244
0.000270
0.001734
0.000746
0.000234
0.000264
0.000274
0.000287
0.000185
0.000055
0.000217
0.000234
0.000251
0.000247
0.000255
0.000242
0.000243
0.000257
0.000243
0.000231
0.000290
0.000284
0.000251
0.000248
0.000260
0.000248
0.000268
0.001600
0.000711
0.000350
0.000355
0.000210
0.000245
0.000285
0.000264
0.000260
0.000275
0.000251
0.001388
0.000390
0.000367
0.000057
0.000191
0.000236
0.000246
0.000247
0.000261
0.000236
0.000252
0.000252
0.000252
0.000265
0.000270
0.000638
0.000276
0.000280
0.000219
0.000240
0.000266
0.001391
0.000695
0.000576
0.000250
0.000255
0.000229
0.000248
0.000274
0.000253
0.000255
0.000266
0.001492
0.000401
0.000217
0.000055
0.000211
0.000230
0.000244
0.000244
0.000251
0.000245
0.000243
0.000245
0.000271
0.000259
0.000414
0.000408
0.000253
0.000222
0.000246
0.000243
0.000262
0.000260
0.001640
0.000556
0.000456
0.000327
0.000228
0.000265
0.000262
0.000256
0.000275
0.000288
0.000255
0.001353
0.000328
0.000057
0.000212
0.000220
0.000234
0.000253
0.000255
0.000247
0.000271
0.000294
0.000408
0.000391
0.000340
0.000429
0.000332
0.000229
0.000248
0.000249
0.000273
0.000260
0.000270
0.001968
0.000283
0.000236
0.000446
0.000248
0.000238
0.000271
0.000269
0.000260
0.000270
0.000277
0.000236
0.000057
0.000314
0.000205
0.000238
0.000238
0.000271
0.000232
0.000226
0.000241
0.000265
0.000257
0.000246
0.000234
0.000308
0.000399
0.000488
0.000442
0.000228
0.000266
0.000245
0.000258
0.000256
0.000328
0.001424
0.001063
0.000219
0.000251
0.000267
0.000266
0.000270
0.000253
0.000203
0.000056
0.000199
0.001352
0.000278
0.000208
0.000237
0.000253
0.000252
0.000244
0.000238
0.000249
0.000258
0.000262
0.000240
0.000491
0.000255
0.000484
0.000256
0.000246
0.000265
0.000272
0.000269
0.000223
0.000262
0.000270
0.001335
0.000673
0.000353
0.000367
0.000428
0.000386
0.000229
0.000063
0.000209
0.000244
0.001468
0.000194
0.000212
0.000251
0.000232
0.000256
0.000260
0.000254
0.000246
0.000246
0.000276
0.000423
0.000482
0.000312
0.000230
0.000279
0.000330
0.000207
0.000252
0.000271
0.000234
0.000275
0.000271
0.001531
0.000745
0.000297
0.000275
0.000274
0.000194
0.000057
0.000212
0.000257
0.000460
0.000358
0.001268
0.000241
0.000233
0.000239
0.000233
0.000249
0.000251
0.000254
0.000222
0.000248
0.000256
0.000249
0.000270
0.000234
0.000257
0.000273
0.000249
0.000269
0.000298
0.000333
0.000221
0.000267
0.000269
0.001454
0.000258
0.000245
0.000176
0.000057
0.000187
0.000233
0.000254
0.000310
0.000358
0.000342
0.000384
0.000268
0.001574
0.000222
0.000325
0.000526
0.000306
0.000229
0.000433
0.000225
0.000248
0.000264
0.000271
0.000270
0.000277
0.000266
0.000255
0.000269
0.000247
0.000443
0.000356
0.000361
0.001568
0.000226
0.000187
0.000058
0.000232
0.000249
0.000239
0.000249
0.000240
0.000247
0.000258
0.000294
0.000416
0.002043
0.000232
0.000252
0.000250
0.000259
0.000259
0.000287
0.000257
0.000237
0.000257
0.000470
0.000308
0.000481
0.001450
0.000250
0.000531
0.000232
0.001768
0.000245
0.000258
0.001527
0.000158
0.000058
0.000324
0.000443
0.000447
0.000243
0.000265
0.000220
0.000260
0.000270
0.000260
0.000230
0.000273
0.000314
0.000434
0.000336
0.000461
0.000207
0.000238
0.001556
0.000245
0.000607
0.001834
0.000314
0.000223
0.001523
0.002034
0.000749
0.000270
0.000257
0.000278
0.000507
0.000322
0.000058
0.000211
0.000249
0.000243
0.000248
0.001415
0.001729
0.001084
0.000229
0.000213
0.001579
0.001980
0.000205
0.000241
0.000426
0.000296
0.000395
0.000378
0.000490
0.000206
0.000248
0.000249
0.000251
0.000277
0.001593
0.001197
0.001437
0.000263
0.000299
0.000254
0.000325
0.000337
0.000057
0.000190
0.000220
0.000244
0.000241
0.000226
0.000243
0.000251
0.000254
0.000253
0.000251
0.000241
0.000299
0.000411
0.000563
0.000231
0.000255
0.000242
0.000272
0.000269
0.000263
0.000257
0.000262
0.001515
0.000480
0.002106
0.000242
0.000274
0.000326
0.000447
0.000372
0.000194
0.000057
0.000212
0.000400
0.000432
0.000319
0.000192
0.000230
0.000255
0.000244
0.000241
0.000242
0.000247
0.000267
0.000260
0.001600
0.001358
0.001226
0.000278
0.000232
0.000255
0.000266
0.000286
0.000279
0.000258
0.000238
0.002199
0.000257
0.000252
0.000293
0.000326
0.000306
0.000220
0.000057
0.000228
0.000347
0.000588
0.000307
0.000224
0.000235
0.000254
0.000263
0.001897
0.001424
0.000220
0.000386
0.000393
0.000356
0.000250
0.000243
0.000241
0.000268
0.000265
0.000259
0.000262
0.000266
0.000466
0.000238
0.000271
0.000268
0.000253
0.000275
0.000281
0.000245
0.000205
0.000057
0.000196
0.000246
0.000253
0.000237
0.000249
0.000270
0.001551
0.001409
0.001339
0.000220
0.000245
0.000237
0.000268
0.000261
0.000246
0.000252
0.000246
0.002105
0.000254
0.000235
0.000264
0.000259
0.000257
0.000267
0.000269
0.000257
0.000269
0.000253
0.000280
0.000247
0.000178
0.000056
0.000210
0.002683
0.001383
0.000227
0.000308
0.000291
0.000234
0.000263
0.000259
0.000239
0.000258
0.000247
0.000233
0.000247
0.000268
0.000257
0.000268
0.000263
0.000254
0.000268
0.000266
0.000287
0.000270
0.000266
0.000249
0.000244
0.000264
0.000273
0.000261
0.000267
0.000368
0.000056
0.001538
0.000255
0.001236
0.000228
0.000228
0.000239
0.000260
0.000252
0.000245
0.000306
0.000311
0.000409
0.000351
0.000215
0.000236
0.002147
0.000250
0.000242
0.000334
0.000455
0.000392
0.000268
0.000229
0.000251
0.000267
0.000247
0.000265
0.000279
0.000273
0.001600
0.001268
0.000056
0.000181
0.000238
0.000328
0.000342
0.000371
0.000307
0.000188
0.000237
0.000253
0.000256
0.000267
0.000245
0.000226
0.000256
0.000261
0.000247
0.000301
0.000696
0.000294
0.000269
0.000209
0.000279
0.000279
0.000251
0.000252
0.000243
0.000269
0.000274
0.000244
0.000352
0.000319
0.000058
0.001115
0.000252
0.000494
0.000267
0.000308
0.000225
0.000230
0.000256
0.000235
0.002288
0.000374
0.000397
0.000219
0.000391
0.000262
0.000261
0.000259
0.000266
0.000265
0.000224
0.000253
0.000263
0.000733
0.000329
0.001892
0.001457
0.000461
0.000441
0.000224
0.000281
0.000197
0.000057
0.000358
0.000231
0.000242
0.000244
0.000248
0.000242
0.000242
0.000253
0.000253
0.000252
0.000256
0.000228
0.000246
0.000258
0.000443
0.000454
0.001841
0.001324
0.000507
0.000365
0.000466
0.000235
0.000249
0.000266
0.002184
0.000490
0.000386
0.000238
0.000279
0.000331
0.000140
0.000058
0.000185
0.000243
0.000255
0.000244
0.000247
0.000309
0.000445
0.000289
0.000315
0.000244
0.000246
0.000249
0.000261
0.002108
0.000382
0.000373
0.000214
0.000254
0.000266
0.000277
0.000234
0.002446
0.000348
0.000222
0.000260
0.000255
0.000272
0.000260
0.000280
0.000272
0.000196
0.000056
0.000207
0.000332
0.000552
0.000353
0.000266
0.000230
0.000222
0.000254
0.000274
0.000243
0.001956
0.000389
0.000305
0.000254
0.000226
0.000269
0.000286
0.000225
0.002203
0.000440
0.000234
0.000264
0.000271
0.000259
0.000252
0.000254
0.000277
0.000259
0.000268
0.000266
0.000169
0.000055
0.000214
0.000241
0.000247
0.000219
0.000245
0.000257
0.000241
0.000243
0.000233
0.002175
0.000235
0.000278
0.000222
0.000422
0.000234
0.000256
0.000268
0.000290
0.000238
0.000264
0.001958
0.000298
0.000380
0.000392
0.000372
0.000384
0.000314
0.000247
0.000255
0.000262
0.000197
0.000056
0.000207
0.000235
0.000243
0.000248
0.000243
0.000327
0.000228
0.002299
0.000238
0.000242
0.000261
0.000254
0.000237
0.000251
0.000306
0.002118
0.000593
0.000222
0.000262
0.000242
0.000277
0.000245
0.000285
0.000268
0.000260
0.000257
0.000287
0.000253
0.000263
0.000266
0.000192
0.000057
0.001827
0.001438
0.000207
0.000227
0.000240
0.000256
0.000250
0.000309
0.000358
0.000457
0.002074
0.000259
0.000239
0.000263
0.000276
0.000570
0.000345
0.000293
0.000235
0.000241
0.000249
0.000269
0.000265
0.000225
0.000262
0.000264
0.000265
0.000269
0.000272
0.000691
0.000330
0.000057
0.000188
0.000251
0.000252
0.000264
0.000253
0.000244
0.000255
0.000246
0.001462
0.002134
0.000575
0.000300
0.000390
0.000690
0.000347
0.000246
0.000252
0.000251
0.000267
0.000266
0.000250
0.000241
0.000251
0.000271
0.001824
0.001457
0.000293
0.000268
0.000283
0.000329
0.000399
0.000057
0.001918
0.000222
0.000231
0.000234
0.000299
0.000343
0.000579
0.000185
0.000285
0.000226
0.000237
0.000249
0.000262
0.000252
0.000281
0.000242
0.000255
0.000267
0.001841
0.000240
0.000251
0.000238
0.000276
0.000281
0.000271
0.000256
0.001454
0.000333
0.000252
0.000256
0.000179
0.000057
0.000204
0.000230
0.000252
0.000250
0.000242
0.000236
0.000338
0.000339
0.000417
0.000290
0.000224
0.000239
0.000262
0.000387
0.000385
0.000299
0.000229
0.000247
0.000262
0.000347
0.000508
0.000454
0.000214
0.000259
0.000247
0.000261
0.000252
0.000275
0.000277
0.000265
0.000203
0.000055
0.001433
0.000448
0.000211
0.001937
0.000371
0.000374
0.000400
0.000302
0.000237
0.000239
0.000270
0.000242
0.000246
0.000249
0.000265
0.000257
0.000476
0.000290
0.000371
0.000440
0.000297
0.000225
0.000256
0.000272
0.000270
0.000271
0.000268
0.000260
0.000375
0.000407
0.001413
0.000055
0.000197
0.000223
0.002075
0.000343
0.000268
0.000259
0.000260
0.000249
0.000258
0.000265
0.000215
0.000253
0.000255
0.000260
0.000258
0.000358
0.000708
0.001764
0.000228
0.000248
0.000257
0.000261
0.000422
0.000368
0.001602
0.000285
0.000365
0.001920
0.000258
0.000269
0.000190
0.000056
0.000214
0.000235
0.000234
0.000247
0.000228
0.000249
0.000253
0.000285
0.000334
0.000278
0.000377
0.000355
0.000337
0.000303
0.000240
0.000266
0.000261
0.000240
0.000266
0.000252
0.000311
0.000277
0.000268
0.000260
0.000275
0.001500
0.000288
0.000395
0.002065
0.000224
0.000176
0.000056
0.000238
0.000222
0.000240
0.000244
0.000488
0.000209
0.000253
0.000309
0.000370
0.000330
0.000307
0.000208
0.000268
0.000260
0.000289
0.000309
0.000418
0.000434
0.000259
0.000395
0.000600
0.000353
0.001600
0.000237
0.000255
0.001976
0.000339
0.000246
0.000243
0.000302
0.000177
0.000057
0.000203
0.000244
0.000225
0.000244
0.000250
0.000264
0.000279
0.000247
0.000251
0.000258
0.001810
0.000343
0.000364
0.000335
0.000404
0.000365
0.000504
0.001343
0.000244
0.000326
0.002126
0.000513
0.000268
0.000230
0.000263
0.000268
0.000503
0.000228
0.000250
0.000284
0.000190
0.000056
0.000279
0.000320
0.000403
0.000292
0.000231
0.000220
0.000258
0.000247
0.000268
0.000292
0.000227
0.000245
0.000265
0.000253
0.000329
0.001540
0.000314
0.000206
0.000282
0.001909
0.000383
0.000273
0.000248
0.000280
0.000231
0.000279
0.000272
0.000258
0.000247
0.000268
0.000201
0.000056
0.000245
0.000474
0.001993
0.000253
0.000258
0.000212
0.000247
0.000312
0.000399
0.000467
0.001294
0.000446
0.000291
0.002079
0.000206
0.000245
0.000268
0.000275
0.000254
0.000243
0.000280
0.000303
0.000251
0.000324
0.000514
0.000372
0.000310
0.002236
0.000486
0.000502
0.000376
0.000056
0.000195
0.000233
0.000244
0.001967
0.000228
0.000226
0.000245
0.000242
0.000247
0.000254
0.000241
0.000263
0.000244
0.000339
0.000370
0.001486
0.000252
0.000241
0.000270
0.000252
0.000235
0.000259
0.000259
0.000274
0.000416
0.000346
0.000486
0.000235
0.001593
0.000283
0.000155
0.000055
0.000200
0.000221
0.000245
0.000251
0.000233
0.000252
0.000249
0.000265
0.000242
0.000385
0.000343
0.001425
0.000236
0.000221
0.000252
0.000262
0.000256
0.000254
0.000492
0.000283
0.000512
0.000340
0.000226
0.001576
0.000230
0.000259
0.000288
0.000281
0.000265
0.000268
0.000188
0.000056
0.000211
0.000232
0.000263
0.000268
0.000246
0.000252
0.000231
0.000240
0.000258
0.000244
0.000251
0.000255
0.000257
0.001478
0.000366
0.000211
0.000249
0.000261
0.000314
0.000327
0.000385
0.000213
0.000243
0.000299
0.000225
0.000263
0.000261
0.001406
0.000286
0.000228
0.000177
0.000056
0.000205
0.000229
0.000259
0.000264
0.000253
0.000232
0.000250
0.000261
0.000220
0.000265
0.000265
0.000240
0.000226
0.000331
0.000334
0.000394
0.000245
0.000237
0.001628
0.000251
0.000221
0.000256
0.000270
0.000308
0.000393
0.000344
0.000454
0.000264
0.000256
0.001608
0.000154
0.000056
0.000390
0.000245
0.000415
0.000235
0.000245
0.000223
0.000240
0.000273
0.000257
0.000238
0.000242
0.000242
0.001462
0.000287
0.000326
0.000210
0.000249
0.000259
0.000266
0.000263
0.000257
0.000249
0.000244
0.000271
0.000333
0.000295
0.000458
0.000357
0.000275
0.000251
0.000186
0.000056
0.000206
0.000235
0.000393
0.000395
0.000455
0.000193
0.000247
0.000249
0.000249
0.000257
0.000244
0.000224
0.000258
0.000244
0.001252
0.000279
0.000258
0.000256
0.000263
0.000266
0.000239
0.000262
0.000258
0.000259
0.000261
0.000252
0.000345
0.000656
0.000447
0.000237
0.000176
0.000056
0.000211
0.001557
0.000251
0.000341
0.000465
0.000358
0.000215
0.000255
0.000271
0.000245
0.000245
0.000258
0.000287
0.000259
0.000268
0.001507
0.000258
0.000286
0.000267
0.000258
0.000257
0.000252
0.000267
0.000259
0.000270
0.000274
0.000470
0.000291
0.000377
0.000240
0.000191
0.000057
0.000219
0.000248
0.000233
0.001627
0.000420
0.000336
0.000231
0.000237
0.000251
0.000275
0.000272
0.000256
0.000246
0.000267
0.000232
0.000308
0.000421
0.001262
0.000253
0.000235
0.001486
0.000313
0.000558
0.000417
0.000344
0.000232
0.000264
0.000460
0.000248
0.000259
0.000176
0.000057
0.000240
0.000226
0.000244
0.000248
0.000249
0.000250
0.000244
0.000254
0.000259
0.000234
0.000257
0.000258
0.000320
0.000533
0.001622
0.001492
0.000358
0.000580
0.000290
0.000230
0.000233
0.000256
0.000249
0.000263
0.000249
0.000273
0.000255
0.000266
0.001521
0.000338
0.000165
0.000055
0.000250
0.000347
0.000353
0.000320
0.000223
0.000229
0.000245
0.000369
0.000423
0.000393
0.002125
0.000327
0.000795
0.000426
0.000461
0.000315
0.000274
0.000414
0.000307
0.000271
0.000405
0.000234
0.001810
0.000278
0.000218
0.000265
0.000253
0.000258
0.000259
0.000270
0.000195
0.000055
0.000239
0.000246
0.000250
0.000254
0.000245
0.001660
0.000877
0.000996
0.000209
0.000236
0.000256
0.000258
0.000266
0.000256
0.000255
0.000245
0.000257
0.000262
0.000266
0.000279
0.001435
0.000308
0.000256
0.000232
0.000232
0.000261
0.000265
0.000281
0.000261
0.000284
0.001893
0.000059
0.000192
0.000227
0.001547
0.000845
0.000385
0.000364
0.000239
0.000235
0.000247
0.000257
0.000244
0.000254
0.000248
0.002053
0.000397
0.000226
0.000247
0.000255
0.000267
0.000257
0.000191
