0.000254
0.009136
0.012230
0.000465
0.000253
0.000298
0.000323
0.000229
0.000328
0.000304
0.000229
0.000334
0.000525
0.000519
0.000340
0.000367
0.000262
0.000344
0.000357
0.000418
0.000318
0.001895
0.000719
0.000270
0.000239
0.000313
0.000338
0.000283
0.000421
0.000518
0.000490
0.000251
0.000059
0.000205
0.000271
0.000268
0.000296
0.000246
0.000243
0.000295
0.000279
0.000262
0.000307
0.000393
0.000417
0.000328
0.000255
0.000375
0.000351
0.000363
0.000252
0.000261
0.001672
0.000331
0.000248
0.000454
0.000263
0.000255
0.000288
0.000290
0.000291
0.000274
0.000467
0.000276
0.000058
0.000249
0.000251
0.000262
0.000264
0.000251
0.000246
0.000261
0.000255
0.000288
0.001673
0.000225
0.000227
0.000285
0.000263
0.000272
0.000252
0.000263
0.000252
0.000375
0.001763
0.000253
0.000279
0.000448
0.000434
0.000385
0.000245
0.000304
0.000446
0.000577
0.000665
0.000195
0.000057
0.000200
0.000249
0.000252
0.000236
0.000293
0.000275
0.000272
0.000606
0.000358
0.000256
0.000242
0.000254
0.000238
0.000256
0.000250
0.000263
0.000240
0.000271
0.000302
0.000350
0.001632
0.000294
0.000240
0.000424
0.000269
0.000774
0.000594
0.000547
0.000355
0.000237
0.000205
0.000057
0.000220
0.000250
0.000291
0.000211
0.000284
0.000230
0.000331
0.000468
0.001401
0.000208
0.000254
0.000247
0.000249
0.000262
0.000263
0.000296
0.000322
0.000802
0.001323
0.000308
0.000236
0.000422
0.000233
0.000246
0.000258
0.000268
0.000262
0.000272
0.000252
0.000275
0.000192
0.000058
0.000183
0.000245
0.000247
0.000261
0.000241
0.000244
0.000241
0.000252
0.000239
0.000255
0.001625
0.000276
0.000231
0.000238
0.000254
0.000245
0.000249
0.000250
0.000251
0.000252
0.000316
0.001615
0.000299
0.000250
0.000429
0.000264
0.000247
0.000264
0.000256
0.000286
0.000184
0.000056
0.000219
0.000223
0.000252
0.000252
0.000258
0.000233
0.000258
0.000237
0.000265
0.000257
0.000250
0.000255
0.000255
0.000293
0.001620
0.000281
0.000296
0.000214
0.000250
0.000276
0.000266
0.000239
0.000242
0.000264
0.001780
0.000413
0.000326
0.000378
0.000238
0.000276
0.000201
0.000057
0.000222
0.000243
0.000245
0.000266
0.000257
0.000263
0.000363
0.000322
0.000474
0.000353
0.000206
0.000244
0.000253
0.000246
0.001562
0.000536
0.000330
0.000398
0.000320
0.000226
0.000270
0.000285
0.000285
0.001717
0.000572
0.000403
0.000235
0.000266
0.000234
0.000270
0.000181
0.000057
0.000204
0.000235
0.000251
0.000305
0.000309
0.000511
0.000292
0.000288
0.000214
0.000246
0.000253
0.000245
0.000256
0.001734
0.000458
0.000301
0.000217
0.000259
0.000270
0.000290
0.000242
0.000263
0.000273
0.001871
0.000325
0.000383
0.000246
0.000252
0.000271
0.000409
0.000315
0.000055
0.000245
0.000491
0.000184
0.000299
0.000264
0.000250
0.000247
0.000257
0.000238
0.000242
0.000234
0.000252
0.001550
0.000328
0.000336
0.000231
0.000257
0.000246
0.000253
0.000307
0.000275
0.000315
0.000230
0.001812
0.000252
0.000497
0.000235
0.000270
0.000256
0.000264
0.000270
0.000056
0.000403
0.000506
0.000574
0.000207
0.000232
0.000280
0.000227
0.000220
0.000259
0.000247
0.000258
0.001705
0.000322
0.000518
0.000267
0.000179
0.000227
0.000230
0.000250
0.000263
0.000309
0.001799
0.000228
0.000467
0.001885
0.000537
0.000328
0.000248
0.000253
0.000268
0.000181
0.000056
0.000187
0.000244
0.000245
0.000241
0.000336
0.001540
0.000254
0.000234
0.000245
0.000256
0.000250
0.000254
0.000246
0.000245
0.000315
0.000385
0.000702
0.000174
0.000226
0.000275
0.000281
0.000233
0.000245
0.000427
0.000439
0.000263
0.000448
0.000494
0.000386
0.000285
0.000200
0.000056
0.000211
0.000246
0.000254
0.000251
0.000241
0.000236
0.000250
0.000444
0.000418
0.001674
0.000225
0.000235
0.000246
0.000242
0.000263
0.000297
0.000504
0.000392
0.000343
0.000235
0.000251
0.000314
0.000288
0.000233
0.000284
0.000426
0.000348
0.000695
0.000382
0.000437
0.000182
0.000056
0.000211
0.000256
0.000264
0.000214
0.000236
0.000237
0.000248
0.000261
0.000229
0.000287
0.000344
0.000467
0.001358
0.000255
0.000225
0.000249
0.000257
0.000253
0.000246
0.000262
0.000265
0.000501
0.000375
0.000260
0.000260
0.000261
0.000256
0.000264
0.000269
0.000263
0.000387
0.000055
0.000191
0.000235
0.000236
0.000403
0.000405
0.000421
0.000238
0.000256
0.000241
0.000252
0.000262
0.000227
0.000321
0.000226
0.000233
0.000479
0.000432
0.001635
0.000270
0.000237
0.000259
0.000266
0.000262
0.000236
0.000263
0.000465
0.000502
0.000286
0.000422
0.000243
0.000197
0.000056
0.000227
0.000439
0.000223
0.000220
0.000286
0.000236
0.000484
0.000421
0.000262
0.000327
0.000228
0.000279
0.000260
0.000239
0.000533
0.000325
0.000235
0.000266
0.000513
0.001563
0.000221
0.000223
0.000526
0.000253
0.000287
0.000268
0.000252
0.000559
0.000387
0.000337
0.000264
0.000056
0.000207
0.000213
0.000241
0.000245
0.000416
0.000308
0.000292
0.000219
0.000499
0.000437
0.000311
0.000252
0.000238
0.000246
0.000254
0.000271
0.000254
0.000253
0.000227
0.000363
0.000286
0.000377
0.001831
0.000210
0.000257
0.000250
0.000287
0.000347
0.000413
0.000864
0.000270
0.000058
0.000212
0.000330
0.000311
0.000406
0.000395
0.000203
0.000256
0.000352
0.000518
0.000408
0.000205
0.000242
0.000229
0.000275
0.000260
0.000236
0.000259
0.000265
0.000269
0.000258
0.000297
0.000428
0.000668
0.001308
0.000300
0.000433
0.000419
0.000249
0.000546
0.000359
0.000250
0.000056
0.000226
0.000379
0.000277
0.000216
0.000224
0.000248
0.000411
0.000235
0.000261
0.000338
0.000472
0.000394
0.000249
0.000256
0.000265
0.000245
0.000358
0.000392
0.000351
0.000240
0.000245
0.000533
0.000531
0.001637
0.000234
0.000423
0.000317
0.000231
0.000344
0.000385
0.000316
0.000057
0.000216
0.000228
0.000243
0.000262
0.000248
0.000244
0.000240
0.000327
0.000476
0.000310
0.000395
0.000385
0.000271
0.000577
0.000249
0.000234
0.000279
0.000264
0.000221
0.000360
0.000226
0.000244
0.000275
0.000483
0.000483
0.001587
0.000272
0.000237
0.000256
0.000257
0.000190
0.000055
0.000248
0.000569
0.000271
0.000206
0.000246
0.000267
0.000239
0.000242
0.000269
0.000236
0.000227
0.000261
0.000465
0.000449
0.000409
0.000278
0.000246
0.000258
0.000339
0.000386
0.000383
0.000335
0.000361
0.000394
0.000268
0.000240
0.000260
0.000273
0.001789
0.000241
0.000214
0.000057
0.000206
0.000219
0.000256
0.000294
0.000335
0.000538
0.000324
0.000212
0.000286
0.000232
0.000249
0.000250
0.000521
0.000447
0.000484
0.000278
0.000263
0.000263
0.000414
0.000467
0.000360
0.000467
0.000492
0.000386
0.000238
0.000238
0.000266
0.000253
0.000256
0.001720
0.000363
0.000056
0.000254
0.000330
0.000206
0.000233
0.000262
0.000258
0.000224
0.000497
0.000376
0.000311
0.000292
0.000309
0.000396
0.000559
0.000336
0.000236
0.000259
0.000257
0.000252
0.000262
0.000271
0.000264
0.000242
0.000278
0.000314
0.000333
0.000468
0.000315
0.000230
0.000251
0.000191
0.000056
0.000427
0.000318
0.000439
0.000263
0.000204
0.000251
0.000245
0.000257
0.000244
0.000215
0.000252
0.000278
0.000301
0.000567
0.000378
0.000403
0.000324
0.000309
0.000380
0.000344
0.000319
0.000221
0.000245
0.000261
0.001747
0.000245
0.001725
0.001049
0.000293
0.000333
0.000164
0.000057
0.000215
0.000233
0.000235
0.000240
0.000290
0.000222
0.000251
0.000249
0.000258
0.000327
0.000548
0.000221
0.000332
0.000392
0.000261
0.000230
0.000254
0.000297
0.000225
0.000248
0.000244
0.000270
0.001803
0.000248
0.000254
0.000262
0.000278
0.000284
0.001886
0.000489
0.000252
0.000056
0.000235
0.000204
0.000234
0.000244
0.000268
0.000236
0.000249
0.000249
0.000346
0.000284
0.000590
0.000295
0.000373
0.000232
0.000239
0.000254
0.000327
0.000440
0.000363
0.000246
0.001779
0.000264
0.000243
0.000248
0.000267
0.000283
0.000225
0.000255
0.000323
0.000515
0.000201
0.000058
0.000209
0.000223
0.000242
0.000269
0.000239
0.000239
0.000254
0.000256
0.000245
0.000252
0.000241
0.000272
0.000417
0.000358
0.000344
0.000281
0.000458
0.000234
0.000249
0.000260
0.000259
0.000281
0.000249
0.000258
0.000279
0.001776
0.000260
0.000247
0.000264
0.000238
0.000202
0.000056
0.000296
0.000293
0.000246
0.000213
0.000243
0.000230
0.000241
0.000257
0.000244
0.000223
0.000235
0.000263
0.000259
0.000366
0.000451
0.000282
0.000335
0.000215
0.000258
0.000250
0.000262
0.000264
0.000247
0.000273
0.000244
0.000272
0.000310
0.001621
0.000281
0.000230
0.000186
0.000056
0.000212
0.000251
0.000237
0.000266
0.000348
0.000475
0.000305
0.000283
0.000230
0.000248
0.000272
0.000230
0.000244
0.000255
0.000262
0.000279
0.000225
0.000262
0.000255
0.000263
0.000259
0.000267
0.000248
0.000233
0.000246
0.000284
0.000271
0.000266
0.000254
0.000262
0.000199
0.000056
0.000211
0.000212
0.000260
0.000272
0.000232
0.000238
0.000237
0.000264
0.000286
0.000238
0.000237
0.000239
0.000251
0.000251
0.000293
0.000244
0.000247
0.000251
0.000335
0.000221
0.000273
0.000316
0.000270
0.000222
0.000306
0.000249
0.000271
0.000247
0.000277
0.000447
0.000624
0.000057
0.000221
0.000289
0.000228
0.000229
0.000231
0.000260
0.000240
0.000246
0.000255
0.000244
0.000267
0.000438
0.000462
0.000326
0.001570
0.000237
0.000489
0.000234
0.000295
0.000409
0.000430
0.000388
0.000225
0.000292
0.000238
0.000266
0.000281
0.000254
0.000307
0.000277
0.000170
0.000055
0.000343
0.000386
0.000325
0.000332
0.000211
0.000284
0.000223
0.000238
0.000240
0.000241
0.000261
0.000253
0.000227
0.000324
0.000355
0.000414
0.000434
0.001781
0.000236
0.000259
0.000471
0.000347
0.000406
0.000280
0.000312
0.000323
0.000300
0.000231
0.000226
0.000249
0.000204
0.000056
0.000204
0.000236
0.000243
0.000313
0.000424
0.000437
0.000252
0.000256
0.000252
0.000230
0.000237
0.000266
0.000266
0.000266
0.000243
0.000260
0.000471
0.000350
0.000412
0.000330
0.000246
0.001737
0.000329
0.000596
0.000406
0.000467
0.000322
0.000236
0.000250
0.000265
0.000441
0.000056
0.000201
0.000270
0.000214
0.000264
0.000514
0.000431
0.000353
0.000213
0.000231
0.000287
0.000247
0.000257
0.000251
0.000298
0.000311
0.000229
0.000271
0.000406
0.000430
0.000317
0.000506
0.001838
0.000271
0.000560
0.000388
0.000332
0.000229
0.000260
0.000295
0.000257
0.000200
0.000056
0.000209
0.000341
0.000361
0.000381
0.000366
0.000325
0.000294
0.000222
0.000230
0.000267
0.000273
0.000226
0.000255
0.000242
0.000245
0.000265
0.000361
0.000365
0.000498
0.000349
0.000297
0.000233
0.000259
0.001702
0.000520
0.000425
0.000690
0.000227
0.000268
0.000304
0.000164
0.000057
0.000192
0.000239
0.000348
0.000238
0.000287
0.000370
0.000414
0.000282
0.000260
0.000505
0.000230
0.000253
0.000260
0.000282
0.000268
0.000262
0.000220
0.000404
0.000429
0.000425
0.000250
0.000234
0.000256
0.000257
0.000257
0.000273
0.000237
0.000252
0.000264
0.000291
0.000224
0.000056
0.000303
0.000351
0.000219
0.000270
0.000236
0.000256
0.000240
0.000280
0.000252
0.000245
0.000273
0.000337
0.000495
0.000312
0.000452
0.000187
0.000222
0.000247
0.000247
0.000264
0.000288
0.000261
0.000234
0.000256
0.000289
0.000373
0.000395
0.000325
0.000366
0.000225
0.000180
0.000056
0.000186
0.000224
0.000282
0.000247
0.000240
0.000263
0.000263
0.000234
0.000494
0.000213
0.000256
0.000262
0.000239
0.000259
0.000281
0.000297
0.000238
0.000344
0.000217
0.000241
0.000273
0.000252
0.000266
0.000263
0.000287
0.000253
0.000259
0.000250
0.000263
0.000495
0.000168
0.000056
0.000197
0.000241
0.000251
0.000287
0.000202
0.000246
0.000366
0.000406
0.000235
0.000230
0.000254
0.000255
0.000227
0.000247
0.000495
0.001751
0.000233
0.000269
0.000287
0.000330
0.000426
0.000347
0.000414
0.000375
0.000353
0.000404
0.000246
0.000271
0.000270
0.000274
0.001400
0.000056
0.000458
0.000283
0.000239
0.000204
0.000237
0.000247
0.000235
0.000255
0.000244
0.000272
0.000249
0.000254
0.000250
0.000279
0.000547
0.001631
0.000251
0.000229
0.000236
0.000267
0.000244
0.000323
0.000474
0.000285
0.000231
0.000350
0.000219
0.000263
0.000275
0.000266
0.000181
0.000056
0.001327
0.000433
0.000334
0.000254
0.000238
0.000223
0.000235
0.000240
0.000495
0.000210
0.000245
0.000249
0.000334
0.000645
0.000272
0.000350
0.000264
0.000233
0.000324
0.000354
0.000272
0.000258
0.000270
0.000247
0.000258
0.000660
0.000489
0.000256
0.000252
0.000270
0.000169
0.000057
0.000206
0.000223
0.000237
0.000246
0.001514
0.000268
0.000210
0.000252
0.000262
0.000230
0.000251
0.000255
0.000237
0.000266
0.000269
0.000302
0.000441
0.000627
0.000270
0.001735
0.000262
0.000295
0.000307
0.000525
0.000454
0.000387
0.000247
0.000247
0.000257
0.000275
0.000203
0.000056
0.000214
0.000253
0.000237
0.000360
0.001204
0.000243
0.000253
0.000262
0.000243
0.000229
0.000239
0.000255
0.000277
0.000263
0.000236
0.000310
0.000536
0.000336
0.000302
0.000275
0.000268
0.000267
0.000248
0.000232
0.000289
0.000266
0.000235
0.000284
0.000285
0.000380
0.000530
0.000056
0.000208
0.000256
0.000229
0.000262
0.000264
0.000234
0.000236
0.000267
0.000285
0.000265
0.001414
0.000216
0.000245
0.000256
0.000237
0.000250
0.000286
0.000242
0.000284
0.000240
0.000361
0.000409
0.000537
0.000297
0.000231
0.000272
0.001753
0.000251
0.000298
0.000336
0.000437
0.000057
0.000220
0.000402
0.000450
0.000503
0.000510
0.000538
0.001505
0.000414
0.000516
0.000650
0.000555
0.000801
0.000407
0.000616
0.000579
0.001957
0.000422
0.000347
0.000397
0.000320
0.000220
0.000279
0.000283
0.000270
0.000255
0.000290
0.000291
0.000285
0.000262
0.000285
0.001370
0.000056
0.000211
0.000225
0.000244
0.000243
0.000262
0.000251
0.000233
0.000245
0.000246
0.000248
0.000244
0.000243
0.000255
0.000263
0.000259
0.000271
0.001804
0.000271
0.000264
0.000248
0.000255
0.000303
0.000218
0.000271
0.000432
0.000392
0.000364
0.000230
0.000257
0.000290
0.000207
0.000056
0.000197
0.001372
0.000325
0.000268
0.000247
0.000254
0.000228
0.000234
0.000241
0.000232
0.000224
0.000245
0.000250
0.000506
0.000362
0.000310
0.000237
0.001822
0.000346
0.000233
0.000251
0.000274
0.000272
0.000244
0.000277
0.000279
0.000270
0.000253
0.000263
0.000348
0.000175
0.000055
0.000202
0.000237
0.000253
0.001441
0.000215
0.000251
0.000250
0.000245
0.000245
0.000261
0.000251
0.000244
0.000249
0.000279
0.000240
0.000259
0.000260
0.000265
0.000268
0.000254
0.000263
0.001769
0.000281
0.001753
0.000268
0.000254
0.000261
0.000269
0.000265
0.000277
0.000193
0.000056
0.000214
0.000240
0.001342
0.000229
0.000261
0.000239
0.000256
0.000254
0.000243
0.000249
0.000259
0.000250
0.000248
0.000262
0.000255
0.000266
0.000260
0.000284
0.000286
0.000237
0.001876
0.000241
0.001823
0.000241
0.000265
0.000283
0.000224
0.000260
0.000241
0.000274
0.000204
0.000056
0.001438
0.000230
0.000216
0.000251
0.000236
0.000237
0.000371
0.000294
0.000244
0.000241
0.000253
0.000260
0.000265
0.000435
0.000318
0.000262
0.000272
0.000245
0.000250
0.000259
0.000274
0.000337
0.000230
0.000249
0.000276
0.000275
0.000277
0.000522
0.000481
0.000342
0.000193
0.000057
0.000222
0.000248
0.000261
0.000308
0.000358
0.000260
0.001661
0.000336
0.000279
0.000268
0.000257
0.000274
0.000259
0.000285
0.000287
0.000310
0.000489
0.000409
0.000389
0.000258
0.000305
0.000272
0.000266
0.000267
0.000313
0.000272
0.000275
0.000248
0.000256
0.000393
0.000398
0.000057
0.000253
0.000463
0.000258
0.000264
0.000251
0.000225
0.000225
0.000248
0.000259
0.000282
0.001502
0.000221
0.000230
0.000243
0.000242
0.000291
0.000273
0.000247
0.000261
0.000263
0.000259
0.000504
0.000503
0.000220
0.000268
0.000287
0.000272
0.000265
0.000224
0.000312
0.000173
0.000055
0.000191
0.000247
0.000333
0.000407
0.000406
0.000233
0.000215
0.000249
0.000251
0.000250
0.000235
0.000253
0.000249
0.000271
0.000235
0.000254
0.000488
0.001113
0.000244
0.000245
0.000276
0.000246
0.000359
0.000411
0.000246
0.000526
0.000434
0.000296
0.000383
0.000241
0.000179
0.000056
0.000218
0.000247
0.000257
0.000265
0.000258
0.000254
0.000429
0.000411
0.000343
0.000285
0.000353
0.000391
0.000391
0.000366
0.000258
0.000230
0.000246
0.000296
0.000380
0.000494
0.001219
0.000217
0.000280
0.000267
0.000240
0.000237
0.000260
0.000355
0.000413
0.000485
0.000175
0.000072
0.000192
0.000234
0.000262
0.000240
0.000236
0.000246
0.000256
0.000248
0.000337
0.000413
0.000353
0.000377
0.000222
0.000229
0.000259
0.000256
0.000246
0.000263
0.000264
0.000275
0.000421
0.000287
0.000403
0.000339
0.000339
0.000239
0.000273
0.000282
0.000240
0.000342
0.000156
0.000056
0.000326
0.000311
0.000287
0.000389
0.000444
0.000376
0.000241
0.000241
0.000251
0.000294
0.000233
0.000262
0.000236
0.000248
0.000244
0.000241
0.000257
0.000384
0.000448
0.000376
0.000242
0.000253
0.000246
0.000243
0.000262
0.000285
0.000261
0.000286
0.000264
0.000267
0.000307
0.000056
0.000326
0.000251
0.000231
0.000268
0.000223
0.000242
0.000250
0.000254
0.000265
0.000257
0.000249
0.000253
0.000330
0.000560
0.000343
0.000261
0.000232
0.000257
0.000247
0.000265
0.000262
0.000257
0.000264
0.000268
0.000271
0.000407
0.000297
0.000620
0.000410
0.000248
0.000170
0.000056
0.000368
0.000197
0.000229
0.000252
0.000250
0.000250
0.000235
0.000251
0.000256
0.000263
0.000221
0.000241
0.000270
0.000229
0.000242
0.000278
0.000241
0.000265
0.000295
0.000240
0.000264
0.000259
0.000263
0.000258
0.000272
0.000234
0.000272
0.000277
0.000257
0.000282
0.000200
0.000058
0.000178
0.000244
0.000242
0.000252
0.000227
0.000277
0.000244
0.000239
0.000256
0.000281
0.000230
0.000229
0.000262
0.000395
0.000262
0.000291
0.000241
0.000269
0.000250
0.000281
0.000273
0.000236
0.000248
0.000248
0.000275
0.000269
0.000245
0.000257
0.000273
0.000275
0.000194
0.000056
0.000214
0.000359
0.000370
0.000283
0.000291
0.000257
0.000265
0.000256
0.000221
0.000247
0.000276
0.000235
0.000251
0.000231
0.000262
0.000283
0.000239
0.000270
0.000247
0.000259
0.000279
0.000262
0.000274
0.000262
0.000293
0.000224
0.000258
0.000289
0.000251
0.000260
0.000199
0.000056
0.000192
0.000229
0.000264
0.000261
0.000252
0.000443
0.000218
0.000270
0.000383
0.000341
0.000512
0.000241
0.000226
0.000250
0.000270
0.000269
0.000233
0.000268
0.000255
0.000275
0.000262
0.000260
0.000256
0.000459
0.000483
0.000372
0.000268
0.000298
0.000278
0.000248
0.000194
0.000055
0.000224
0.000222
0.000243
0.000253
0.000402
0.000589
0.000307
0.000373
0.000208
0.000247
0.000249
0.000253
0.000253
0.000249
0.000254
0.000275
0.000273
0.000266
0.000650
0.000327
0.000313
0.000246
0.000261
0.000289
0.000271
0.000255
0.000264
0.000284
0.000237
0.000323
0.000300
0.000057
0.000245
0.000221
0.000256
0.000219
0.000253
0.000274
0.000213
0.000246
0.000242
0.000261
0.000241
0.000257
0.000243
0.000406
0.000668
0.000274
0.000252
0.000256
0.000259
0.000246
0.000263
0.000289
0.000480
0.000212
0.000268
0.000661
0.000390
0.000441
0.000257
0.000252
0.000189
0.000056
0.000200
0.000238
0.000242
0.000236
0.000258
0.000258
0.000442
0.000297
0.000610
0.000404
0.000209
0.000265
0.000267
0.000280
0.000260
0.000242
0.000238
0.000255
0.000277
0.000302
0.000421
0.000640
0.000367
0.000251
0.000356
0.000382
0.000486
0.000242
0.000262
0.000580
0.000234
0.000056
0.000266
0.000232
0.000439
0.000215
0.000239
0.000257
0.000256
0.000258
0.000231
0.000244
0.000389
0.000273
0.000404
0.000304
0.000242
0.000237
0.000269
0.000247
0.000264
0.000275
0.000295
0.000232
0.000248
0.000280
0.000353
0.000441
0.000494
0.000222
0.000266
0.000296
0.000175
0.000056
0.000229
0.000255
0.000220
0.000252
0.000244
0.000360
0.000317
0.000418
0.000362
0.000270
0.000377
0.000230
0.000249
0.000261
0.000253
0.000241
0.000253
0.000270
0.000350
0.000369
0.000515
0.000280
0.000461
0.000269
0.000384
0.000421
0.000383
0.000250
0.000254
0.000274
0.000567
0.000056
0.000217
0.000272
0.000221
0.000251
0.000286
0.000237
0.000263
0.000229
0.000272
0.000238
0.000240
0.000432
0.000378
0.000425
0.000315
0.000228
0.000261
0.000271
0.000256
0.000243
0.000253
0.000251
0.000266
0.000270
0.000282
0.000310
0.000645
0.000339
0.000248
0.000272
0.000191
0.000056
0.000214
0.000239
0.000281
0.000242
0.000242
0.000382
0.000452
0.000495
0.000478
0.000556
0.000258
0.000215
0.000245
0.000260
0.000247
0.000267
0.000275
0.000280
0.000522
0.000452
0.001427
0.000312
0.000267
0.000263
0.000282
0.000259
0.000374
0.000473
0.000406
0.000212
0.000213
0.000056
0.000213
0.000239
0.000246
0.000288
0.000201
0.000256
0.000301
0.000225
0.000248
0.000325
0.000328
0.000380
0.000267
0.000350
0.000393
0.000345
0.000240
0.000244
0.000289
0.000239
0.000248
0.000246
0.000311
0.000221
0.000323
0.000439
0.000473
0.000231
0.000265
0.000269
0.000186
0.000055
0.000249
0.000228
0.000256
0.000259
0.000240
0.000236
0.000506
0.000182
0.000233
0.000268
0.000232
0.000252
0.000260
0.000252
0.000249
0.000270
0.000260
0.000295
0.000256
0.000246
0.000281
0.000268
0.000288
0.000247
0.000282
0.000262
0.000270
0.000264
0.000265
0.000272
0.000176
0.000056
0.000238
0.000238
0.000335
0.000438
0.000364
0.000206
0.000242
0.000247
0.000257
0.000253
0.000247
0.000255
0.000262
0.000264
0.000236
0.000247
0.000260
0.000253
0.000306
0.000385
0.000474
0.000285
0.000239
0.000259
0.000268
0.000256
0.000259
0.000255
0.000272
0.000280
0.000201
0.000056
0.000331
0.000413
0.000340
0.000207
0.000251
0.000258
0.000409
0.000223
0.000231
0.000255
0.000252
0.000290
0.000351
0.000453
0.001850
0.000260
0.000238
0.000256
0.000276
0.000240
0.000375
0.000487
0.000586
0.000263
0.000212
0.000265
0.000273
0.000428
0.000276
0.000276
0.000169
0.000055
0.000238
0.000407
0.000292
0.000316
0.000502
0.000198
0.000241
0.000244
0.000255
0.000240
0.000264
0.000264
0.000244
0.000294
0.000515
0.000391
0.000215
0.000258
0.000257
0.000258
0.000261
0.000324
0.000229
0.000280
0.000276
0.000485
0.000526
0.000445
0.000368
0.000228
0.000206
0.000056
0.000178
0.000230
0.000259
0.000234
0.000248
0.000248
0.000269
0.000318
0.000313
0.000515
0.000279
0.000344
0.000222
0.000267
0.000253
0.000283
0.000300
0.000237
0.000275
0.000272
0.000242
0.000400
0.000462
0.000273
0.000317
0.000236
0.000257
0.000439
0.000418
0.000311
0.000180
0.000056
0.000224
0.000337
0.000243
0.000409
0.000386
0.000205
0.000237
0.000253
0.000272
0.000255
0.000254
0.000251
0.000228
0.000262
0.000260
0.000383
0.000320
0.000345
0.000295
0.000354
0.000485
0.000239
0.000266
0.000273
0.000304
0.000285
0.000250
0.000271
0.000477
0.000553
0.000152
0.000056
0.000203
0.000228
0.000244
0.000256
0.000241
0.000485
0.000215
0.000251
0.000265
0.000379
0.000491
0.000541
0.000202
0.000245
0.000240
0.000254
0.000254
0.000273
0.000238
0.000245
0.000291
0.000242
0.000354
0.000434
0.000349
0.000402
0.000307
0.000300
0.000328
0.000236
0.000186
0.000056
0.000181
0.000241
0.000340
0.000483
0.000238
0.000296
0.000257
0.000226
0.000245
0.000259
0.000254
0.000276
0.000250
0.000236
0.000254
0.000260
0.000251
0.000232
0.000315
0.000428
0.000443
0.000377
0.000229
0.000246
0.000273
0.000284
0.000254
0.000257
0.000271
0.000266
0.000189
0.000055
0.000286
0.000443
0.000387
0.000230
0.000217
0.000249
0.000321
0.000465
0.000280
0.000211
0.000249
0.000269
0.000257
0.000493
0.000384
0.000292
0.000227
0.000242
0.000249
0.000263
0.000289
0.000248
0.000265
0.000271
0.000263
0.000379
0.000465
0.000245
0.000343
0.000238
0.000176
0.000056
0.000216
0.000242
0.000246
0.000253
0.000251
0.000262
0.000229
0.000273
0.000250
0.000246
0.000252
0.000236
0.000290
0.001436
0.000223
0.000254
0.000261
0.000247
0.000276
0.000275
0.000262
0.000238
0.000274
0.000255
0.000264
0.000280
0.000261
0.000274
0.000249
0.000275
0.000197
0.000055
0.000211
0.000230
0.000256
0.000264
0.000219
0.000245
0.000258
0.000257
0.000228
0.000251
0.000251
0.000266
0.000253
0.000268
0.000235
0.000265
0.000248
0.000251
0.000274
0.000257
0.000257
0.000261
0.000249
0.000246
0.001302
0.000274
0.000638
0.000473
0.000226
0.000239
0.000198
0.000055
0.000206
0.000231
0.000242
0.000253
0.000416
0.000244
0.000236
0.000237
0.000256
0.000378
0.000472
0.000305
0.000232
0.000223
0.000273
0.000256
0.000257
0.000267
0.000238
0.000258
0.000283
0.000236
0.000429
0.000250
0.000546
0.000430
0.000216
0.000265
0.001364
0.000263
0.000176
0.000056
0.000323
0.000407
0.000323
0.000263
0.000230
0.000231
0.000225
0.000251
0.000258
0.000256
0.000248
0.000257
0.000297
0.000533
0.000291
0.000364
0.000337
0.000225
0.000244
0.000260
0.000265
0.000283
0.000248
0.000268
0.000267
0.000282
0.000457
0.000422
0.000362
0.000362
0.000143
0.000056
0.000203
0.000241
0.001263
0.000473
0.000283
0.000451
0.000362
0.000479
0.000263
0.000346
0.000225
0.000238
0.000253
0.000258
0.000243
0.000269
0.000467
0.000445
0.000387
0.000306
0.000256
0.000248
0.000268
0.000505
0.000215
0.000273
0.000254
0.000281
0.000425
0.000478
0.000293
0.000057
0.000383
0.000307
0.000241
0.001390
0.000560
0.000313
0.000301
0.000227
0.000247
0.000257
0.000224
0.000241
0.000243
0.000267
0.000250
0.000267
0.000229
0.000369
0.000363
0.000471
0.000317
0.000236
0.000261
0.000262
0.000256
0.000275
0.000269
0.000242
0.000259
0.000277
0.000252
0.000056
0.000189
0.000337
0.000217
0.000236
0.000248
0.000251
0.000253
0.000243
0.000234
0.000226
0.001616
0.000310
0.000231
0.000233
0.000236
0.000262
0.000272
0.000261
0.000236
0.000301
0.000244
0.000253
0.000290
0.000388
0.000398
0.000480
0.000226
0.000270
0.000275
0.000278
0.000179
0.000056
0.000211
0.000419
0.000223
0.000234
0.000383
0.000488
0.000270
0.000334
0.000464
0.000207
0.000232
0.000248
0.000264
0.000264
0.000263
0.001496
0.000280
0.000296
0.000229
0.000272
0.000296
0.000251
0.000233
0.000249
0.000265
0.000286
0.000523
0.000354
0.000301
0.000282
0.000142
0.000055
0.000201
0.000245
0.000254
0.000241
0.000223
0.000256
0.000241
0.000249
0.000283
0.000409
0.000395
0.000308
0.000229
0.000255
0.000242
0.000280
0.000265
0.000267
0.000263
0.000231
0.000257
0.000303
0.001270
0.000253
0.000268
0.000238
0.000256
0.000264
0.000259
0.000268
0.000184
0.000056
0.000214
0.000372
0.000346
0.000329
0.000241
0.000247
0.000259
0.000286
0.000236
0.000266
0.000236
0.000271
0.000241
0.000252
0.000274
0.000248
0.000261
0.000270
0.000266
0.000245
0.000254
0.000269
0.000272
0.000281
0.000285
0.000271
0.000258
0.000276
0.000254
0.000449
0.001361
0.000056
0.000207
0.000256
0.000222
0.000265
0.000235
0.000257
0.000247
0.000226
0.000248
0.000248
0.000302
0.000236
0.000244
0.000245
0.000271
0.000248
0.001706
0.000255
0.000238
0.000267
0.000241
0.000259
0.000278
0.000253
0.000305
0.000231
0.000265
0.000287
0.000261
0.000258
0.000220
0.000055
0.000382
0.000279
0.001294
0.000239
0.000213
0.000252
0.000252
0.000253
0.000273
0.000241
0.000231
0.000423
0.000379
0.000381
0.000283
0.000223
0.000247
0.000274
0.000240
0.000265
0.000244
0.000283
0.000254
0.000284
0.000265
0.000409
0.000326
0.000418
0.000273
0.000250
0.000199
0.000055
0.000163
0.000255
0.000240
0.000250
0.000274
0.000204
0.000241
0.000311
0.000390
0.001311
0.000286
0.000194
0.000245
0.000268
0.000270
0.000282
0.000235
0.000247
0.000346
0.000435
0.000372
0.000221
0.000236
0.000250
0.000290
0.000274
0.000271
0.000282
0.000272
0.000275
0.000186
0.000056
0.000274
0.000454
0.000323
0.000220
0.000231
0.000241
0.000246
0.000281
0.000261
0.000245
0.000230
0.000251
0.000456
0.000515
0.000507
0.001402
0.000246
0.000265
0.000356
0.000354
0.000454
0.000499
0.000414
0.000362
0.000239
0.000266
0.000263
0.000300
0.000244
0.000274
0.000189
0.000056
0.000201
0.000293
0.000448
0.000578
0.000223
0.000235
0.000252
0.000238
0.000237
0.000296
0.000217
0.000265
0.000277
0.000227
0.000270
0.000296
0.000350
0.000439
0.000361
0.001331
0.000257
0.000258
0.000257
0.000262
0.000467
0.000443
0.000372
0.000260
0.000268
0.000271
0.000186
0.000056
0.000203
0.000245
0.000243
0.000263
0.000226
0.000397
0.000496
0.000210
0.000375
0.000223
0.000253
0.000250
0.000267
0.000293
0.000237
0.000262
0.000256
0.000257
0.000286
0.000265
0.000466
0.000416
0.000327
0.001347
0.000409
0.000245
0.000279
0.000385
0.000556
0.000249
0.000324
0.000057
0.000198
0.000235
0.000248
0.000250
0.000250
0.000275
0.001724
0.000179
0.000212
0.000245
0.000254
0.000255
0.000254
0.000324
0.000328
0.000286
0.000286
0.000386
0.000436
0.000408
0.000271
0.000283
0.000230
0.000254
0.001516
0.000369
0.000358
0.000454
0.000345
0.000299
0.000173
0.000056
0.000204
0.000250
0.000255
0.000253
0.000246
0.000263
0.001705
0.000238
0.000240
0.000257
0.000343
0.000395
0.001446
0.000390
0.000392
0.000219
0.000246
0.000242
0.000262
0.000282
0.001536
0.000629
0.000328
0.000290
0.000243
0.000250
0.000262
0.000285
0.000246
0.000246
0.000196
0.000056
0.000207
0.000244
0.000267
0.000245
0.000266
0.000275
0.000273
0.000259
0.000252
0.000250
0.000249
0.000253
0.000290
0.000243
0.000268
0.001481
0.000285
0.000221
0.000269
0.000277
0.000273
0.000253
0.000431
0.001289
0.000260
0.000239
0.000263
0.000261
0.000399
0.000247
0.000198
0.000057
0.000227
0.000247
0.000222
0.000243
0.000238
0.000234
0.000231
0.001693
0.000268
0.000214
0.000360
0.000281
0.000211
0.000220
0.000256
0.001392
0.000246
0.000243
0.000267
0.000253
0.000265
0.000339
0.000293
0.001287
0.000290
0.000253
0.000243
0.000270
0.001390
0.000288
0.000197
0.000056
0.000196
0.000358
0.000206
0.000244
0.000261
0.000229
0.000283
0.000253
0.000261
0.000247
0.000260
0.000259
0.000267
0.000236
0.000307
0.001531
0.000223
0.000273
0.000246
0.000244
0.000309
0.000242
0.000250
0.001508
0.000347
0.000240
0.000265
0.001273
0.000262
0.000250
0.000216
0.000056
0.000176
0.000396
0.000348
0.000214
0.000238
0.000245
0.000260
0.000257
0.000260
0.000271
0.000237
0.000252
0.000258
0.000311
0.000376
0.001222
0.000228
0.000257
0.000267
0.000276
0.000221
0.000251
0.000251
0.000403
0.001229
0.000218
0.000257
0.000253
0.000263
0.001339
0.000317
0.000055
0.000316
0.000237
0.000249
0.000219
0.000234
0.000254
0.000243
0.000250
0.000294
0.000233
0.000244
0.000251
0.000350
0.000261
0.000412
0.001437
0.000212
0.000260
0.000299
0.000512
0.000278
0.001484
0.000338
0.000237
0.000230
0.000259
0.000263
0.001295
0.000324
0.000496
0.000370
0.000055
0.000239
0.000248
0.000256
0.000256
0.000277
0.000232
0.000271
0.000265
0.000245
0.000284
0.000326
0.000437
0.001324
0.000245
0.000270
0.000261
0.000277
0.000222
0.000247
0.000291
0.000369
0.001171
0.000259
0.000238
0.000252
0.000248
0.001679
0.000263
0.000479
0.000218
0.000193
0.000057
0.000178
0.000232
0.000249
0.000244
0.000246
0.000262
0.000242
0.000330
0.000547
0.000298
0.000274
0.001485
0.000224
0.000234
0.000267
0.000263
0.000249
0.000293
0.001691
0.000241
0.000392
0.000345
0.001308
0.000397
0.000239
0.000362
0.000217
0.000259
0.000278
0.000258
0.000196
0.000056
0.000202
0.000245
0.000324
0.000312
0.000343
0.000458
0.000274
0.000294
0.001467
0.000233
0.000389
0.000264
0.000224
0.000365
0.000333
0.001315
0.000272
0.000228
0.000250
0.000269
0.001586
0.000326
0.000261
0.000302
0.000240
0.000248
0.000454
0.000330
0.000240
0.000243
0.000270
0.000055
0.000313
0.000319
0.000294
0.000242
0.000220
0.001531
0.000206
0.000259
0.000266
0.000279
0.000257
0.000255
0.000321
0.001470
0.000236
0.000233
0.000436
0.001213
0.000304
0.000505
0.000346
0.000236
0.000247
0.000272
0.000276
0.000222
0.000458
0.000224
0.000265
0.000274
0.000203
0.000056
0.000207
0.000232
0.000387
0.000344
0.001321
0.000276
0.000332
0.000228
0.000225
0.000247
0.000251
0.000300
0.001511
0.000257
0.000240
0.000240
0.001389
0.000358
0.000417
0.000426
0.000305
0.000245
0.000236
0.000261
0.000265
0.000292
0.000245
0.000264
0.000274
0.000244
0.000240
0.000056
0.000192
0.000462
0.001399
0.000204
0.000273
0.000307
0.000218
0.000245
0.000280
0.000390
0.001379
0.000206
0.000258
0.000265
0.000251
0.001360
0.000607
0.000289
0.000317
0.000426
0.000288
0.000249
0.000269
0.000255
0.000275
0.000298
0.000259
0.000294
0.000548
0.000329
0.001376
0.000057
0.000217
0.000229
0.000243
0.000230
0.000355
0.000420
0.000372
0.001286
0.000246
0.000241
0.000250
0.001488
0.000468
0.000245
0.000218
0.000412
0.000252
0.000247
0.000257
0.000289
0.000259
0.000284
0.000241
0.000255
0.000255
0.000335
0.000490
0.000389
0.001483
0.000235
0.000189
0.000056
0.000217
0.000258
0.000336
0.000587
0.001205
0.000304
0.000232
0.000253
0.000244
0.000255
0.000254
0.000363
0.000284
0.000516
0.000286
0.000246
0.000249
0.000269
0.000248
0.000308
0.000235
0.000261
0.000254
0.000266
0.000260
0.000494
0.000484
0.000223
0.000329
0.001408
0.000175
0.000056
0.000195
0.000249
0.000285
0.000520
0.000270
0.000297
0.000327
0.000333
0.000295
0.000247
0.000243
0.000262
0.000251
0.000308
0.000234
0.000323
0.000547
0.000295
0.000294
0.000388
0.000272
0.000422
0.000206
0.000245
0.000264
0.000261
0.000254
0.000300
0.000492
0.000375
0.000267
0.000056
0.000201
0.001405
0.000223
0.000334
0.000410
0.000452
0.000346
0.000331
0.000199
0.000246
0.000265
0.000250
0.000283
0.000278
0.000234
0.000260
0.000257
0.001371
0.000247
0.000251
0.000253
0.000275
0.000270
0.000281
0.000281
0.000242
0.000276
0.000251
0.000388
0.000376
0.000464
0.000056
0.000205
0.000246
0.000231
0.001509
0.000325
0.000237
0.000229
0.000249
0.000226
0.000245
0.000259
0.000280
0.000243
0.000247
0.000301
0.000226
0.000247
0.000267
0.000256
0.000257
0.001431
0.000243
0.000240
0.000277
0.000241
0.000255
0.000275
0.000262
0.000272
0.000495
0.000347
0.000055
0.000199
0.000224
0.000399
0.000287
0.000239
0.000257
0.001543
0.000421
0.000209
0.000218
0.000261
0.000316
0.000328
0.000232
0.000228
0.000245
0.000251
0.000268
0.000257
0.000254
0.000498
0.000519
0.001096
0.000264
0.000241
0.000261
0.000272
0.000258
0.000304
0.000228
0.000443
0.000057
0.000232
0.000351
0.000199
0.000240
0.000272
0.000221
0.000242
0.000233
0.000283
0.001708
0.000266
0.000292
0.000241
0.000242
0.000263
0.000237
0.000268
0.000273
0.000265
0.000311
0.000338
0.000537
0.000362
0.001373
0.000228
0.000284
0.000253
0.000260
0.000270
0.000344
0.000441
0.000056
0.000249
0.000257
0.000226
0.000230
0.000221
0.000246
0.000262
0.000279
0.000254
0.001638
0.000294
0.000256
0.000239
0.000254
0.000473
0.000250
0.000546
0.000374
0.000270
0.000273
0.000489
0.000467
0.001283
0.000269
0.000239
0.000253
0.001679
0.000500
0.000597
0.000324
0.000142
0.000056
0.000201
0.000230
0.000238
0.000236
0.000281
0.000245
0.000230
0.000531
0.000622
0.000258
0.000302
0.000206
0.000243
0.000264
0.000277
0.000277
0.000230
0.000244
0.000270
0.000266
0.000296
0.000456
0.001266
0.000230
0.000258
0.000267
0.001890
0.000381
0.000401
0.000336
0.000160
0.000055
0.000202
0.000229
0.000246
0.001710
0.000274
0.000222
0.000240
0.000258
0.000252
0.000279
0.000379
0.000367
0.000368
0.000278
0.000333
0.000539
0.000325
0.001207
0.000286
0.000213
0.000265
0.000258
0.000278
0.000432
0.000682
0.000366
0.000262
0.000272
0.000251
0.000279
0.000191
0.000056
0.000203
0.000226
0.000245
0.001536
0.000267
0.000226
0.000253
0.000242
0.000243
0.000251
0.000252
0.000273
0.000267
0.000273
0.000288
0.000348
0.000417
0.000385
0.001368
0.000221
0.000263
0.000261
0.000257
0.000271
0.000357
0.000580
0.000370
0.000258
0.000294
0.000241
0.000432
0.000056
0.000216
0.000240
0.000269
0.001559
0.000262
0.000223
0.000269
0.000258
0.000237
0.000258
0.000254
0.000273
0.000239
0.000272
0.000514
0.000430
0.001334
0.000757
0.000255
0.000335
0.000242
0.000244
0.000245
0.000275
0.001683
0.000807
0.000228
0.000266
0.000271
0.000288
0.000181
0.000056
0.000228
0.000232
0.000250
0.000245
0.000276
0.000257
0.000211
0.000254
0.000236
0.000245
0.000283
0.000293
0.000244
0.000247
0.000260
0.000246
0.000272
0.001600
0.000709
0.000400
0.000295
0.000225
0.000231
0.000317
0.000252
0.000249
0.000272
0.000252
0.001441
0.000348
0.000314
0.000056
0.000197
0.000228
0.000270
0.000233
0.000262
0.000231
0.000273
0.000232
0.000250
0.000265
0.000295
0.000390
0.000448
0.000341
0.000207
0.000244
0.000264
0.001390
0.000771
0.000380
0.000348
0.000277
0.000225
0.000254
0.000275
0.000257
0.000251
0.000268
0.001499
0.000397
0.000211
0.000056
0.000227
0.000232
0.000257
0.000234
0.000251
0.000245
0.000249
0.000237
0.000274
0.000278
0.000370
0.000400
0.000291
0.000218
0.000247
0.000245
0.000258
0.000263
0.001655
0.000590
0.000416
0.000322
0.000228
0.000249
0.000271
0.000265
0.000260
0.000276
0.000266
0.001539
0.000145
0.000056
0.000217
0.000221
0.000240
0.000254
0.000263
0.000238
0.000254
0.000299
0.000358
0.000521
0.000304
0.000369
0.000366
0.000216
0.000249
0.000249
0.000303
0.000242
0.000262
0.001887
0.000359
0.000237
0.000447
0.000239
0.000251
0.000283
0.000248
0.000266
0.000262
0.000272
0.000471
0.000055
0.000238
0.000245
0.000227
0.000248
0.000250
0.000248
0.000221
0.000244
0.000294
0.000244
0.000230
0.000235
0.000422
0.000387
0.000401
0.000437
0.000220
0.000261
0.000251
0.000253
0.000250
0.000290
0.001462
0.001063
0.000224
0.000244
0.000272
0.000266
0.000272
0.000252
0.000203
0.000056
0.000202
0.001342
0.000295
0.000213
0.000224
0.000252
0.000254
0.000238
0.000244
0.000261
0.000246
0.000262
0.000263
0.000399
0.000331
0.000469
0.000254
0.000250
0.000268
0.000267
0.000281
0.000219
0.000272
0.000254
0.001320
0.000682
0.000314
0.000376
0.000374
0.000404
0.000298
0.000055
0.000194
0.000279
0.000403
0.001241
0.000210
0.000253
0.000228
0.000265
0.000247
0.000258
0.000244
0.000250
0.000264
0.000366
0.000548
0.000308
0.000227
0.000287
0.000325
0.000218
0.000248
0.000266
0.000237
0.000293
0.000271
0.001509
0.000750
0.000319
0.000259
0.000270
0.000192
0.000056
0.000220
0.000324
0.000392
0.000340
0.001284
0.000251
0.000226
0.000235
0.000234
0.000251
0.000243
0.000255
0.000236
0.000238
0.000252
0.000258
0.000262
0.000239
0.000256
0.000257
0.000263
0.000274
0.000313
0.000323
0.000214
0.000265
0.000275
0.001453
0.000275
0.000226
0.000180
0.000055
0.000200
0.000228
0.000246
0.000283
0.000339
0.000376
0.000392
0.000279
0.001578
0.000295
0.000256
0.000517
0.000305
0.000232
0.000430
0.000240
0.000233
0.000258
0.000279
0.000269
0.000280
0.000265
0.000259
0.000268
0.000256
0.000420
0.000388
0.000325
0.001583
0.000224
0.000193
0.000057
0.000216
0.000238
0.000246
0.000246
0.000242
0.000244
0.000263
0.000314
0.000415
0.002020
0.000232
0.000246
0.000253
0.000260
0.000260
0.000267
0.000263
0.000250
0.000327
0.000384
0.000332
0.000488
0.001433
0.000243
0.000240
0.002022
0.000280
0.000240
0.000258
0.001526
0.000173
0.000057
0.000294
0.000526
0.000395
0.000241
0.000281
0.000210
0.000258
0.000294
0.000241
0.000222
0.000256
0.000396
0.000406
0.000312
0.000447
0.000205
0.000237
0.001568
0.000225
0.000594
0.001872
0.000298
0.000238
0.001543
0.002018
0.000728
0.000266
0.000269
0.000304
0.000502
0.000312
0.000056
0.000197
0.000241
0.000300
0.000202
0.001416
0.001736
0.001082
0.000200
0.000231
0.001584
0.001987
0.000205
0.000238
0.000433
0.000429
0.000214
0.000442
0.000462
0.000208
0.000248
0.000244
0.000260
0.000270
0.001590
0.001215
0.001420
0.000290
0.000289
0.000248
0.000336
0.000409
0.000056
0.000217
0.000230
0.000246
0.000238
0.000231
0.000268
0.000243
0.000241
0.000257
0.000244
0.000258
0.000465
0.000442
0.000291
0.000301
0.000235
0.000247
0.000271
0.000270
0.000285
0.000249
0.000249
0.001526
0.000455
0.002129
0.000224
0.000290
0.000325
0.000473
0.000335
0.000185
0.000057
0.000235
0.000506
0.000324
0.000281
0.000213
0.000215
0.000253
0.000240
0.000242
0.000245
0.000245
0.000263
0.000262
0.001604
0.001351
0.001236
0.000274
0.000222
0.000257
0.000276
0.000279
0.000279
0.000240
0.000255
0.002208
0.000248
0.000250
0.000296
0.000322
0.000309
0.000223
0.000056
0.000227
0.000344
0.000580
0.000330
0.000205
0.000236
0.000247
0.000276
0.001894
0.001418
0.000225
0.000317
0.000386
0.000409
0.000272
0.000239
0.000239
0.000269
0.000261
0.000268
0.000256
0.000268
0.000476
0.000232
0.000270
0.000260
0.000254
0.000277
0.000280
0.000247
0.000203
0.000055
0.000218
0.000244
0.000245
0.000242
0.000278
0.000260
0.001523
0.001424
0.001324
0.000230
0.000236
0.000249
0.000263
0.000262
0.000244
0.000268
0.000234
0.002099
0.000268
0.000216
0.000273
0.000253
0.000259
0.000274
0.000265
0.000265
0.000262
0.000250
0.000278
0.000253
0.000179
0.000057
0.000193
0.002678
0.001399
0.000217
0.000302
0.000326
0.000221
0.000277
0.000232
0.000236
0.000254
0.000248
0.000232
0.000248
0.000266
0.000263
0.000261
0.000262
0.000270
0.000255
0.000289
0.000266
0.000270
0.000262
0.000247
0.000251
0.000260
0.000272
0.000265
0.000271
0.000369
0.000058
0.001534
0.000256
0.001240
0.000233
0.000219
0.000243
0.000287
0.000247
0.000224
0.000278
0.000498
0.000248
0.000332
0.000219
0.000252
0.002148
0.000239
0.000251
0.000257
0.000528
0.000353
0.000297
0.000238
0.000253
0.000261
0.000253
0.000262
0.000303
0.000245
0.001624
0.001251
0.000057
0.000198
0.000228
0.000392
0.000315
0.000347
0.000270
0.000219
0.000231
0.000250
0.000258
0.000265
0.000248
0.000222
0.000259
0.000263
0.000242
0.000314
0.000733
0.000251
0.000235
0.000237
0.000273
0.000284
0.000247
0.000248
0.000249
0.000289
0.000253
0.000244
0.000388
0.000318
0.000056
0.001116
0.000230
0.000362
0.000475
0.000244
0.000228
0.000230
0.000244
0.000251
0.002496
0.000219
0.000334
0.000224
0.000376
0.000307
0.000254
0.000240
0.000259
0.000265
0.000227
0.000265
0.000380
0.000596
0.000328
0.001881
0.001274
0.000507
0.000590
0.000231
0.000282
0.000200
0.000057
0.000204
0.000382
0.000245
0.000240
0.000256
0.000221
0.000257
0.000249
0.000253
0.000250
0.000254
0.000228
0.000248
0.000333
0.000321
0.000475
0.001864
0.001365
0.000543
0.000315
0.000448
0.000233
0.000241
0.000258
0.002146
0.000545
0.000389
0.000232
0.000270
0.000286
0.000192
0.000056
0.000218
0.000238
0.000257
0.000246
0.000240
0.000386
0.000433
0.000250
0.000320
0.000223
0.000240
0.000250
0.000268
0.002257
0.000176
0.000426
0.000216
0.000249
0.000285
0.000242
0.000252
0.002501
0.000291
0.000218
0.000264
0.000251
0.000256
0.000274
0.000309
0.000252
0.000197
0.000056
0.000261
0.000373
0.000570
0.000260
0.000255
0.000222
0.000232
0.000254
0.000262
0.000243
0.001959
0.000394
0.000273
0.000274
0.000237
0.000269
0.000269
0.000246
0.002194
0.000452
0.000222
0.000267
0.000269
0.000255
0.000265
0.000251
0.000303
0.000227
0.000271
0.000262
0.000188
0.000057
0.000204
0.000241
0.000247
0.000226
0.000238
0.000260
0.000240
0.000243
0.000234
0.002186
0.000228
0.000278
0.000217
0.000442
0.000209
0.000253
0.000306
0.000265
0.000247
0.000253
0.001969
0.000268
0.000346
0.000361
0.000433
0.000406
0.000304
0.000258
0.000250
0.000273
0.000189
0.000056
0.000206
0.000243
0.000235
0.000252
0.000239
0.000333
0.000215
0.002314
0.000230
0.000242
0.000260
0.000257
0.000231
0.000283
0.000275
0.002129
0.000590
0.000214
0.000255
0.000247
0.000258
0.000262
0.000285
0.000271
0.000264
0.000255
0.000281
0.000264
0.000248
0.000272
0.000196
0.000055
0.001810
0.001441
0.000201
0.000228
0.000256
0.000237
0.000252
0.000400
0.000296
0.000305
0.002196
0.000262
0.000228
0.000272
0.000274
0.000587
0.000325
0.000293
0.000225
0.000255
0.000253
0.000265
0.000263
0.000224
0.000264
0.000262
0.000271
0.000264
0.000383
0.000603
0.000315
0.000056
0.000219
0.000249
0.000238
0.000279
0.000248
0.000240
0.000249
0.000247
0.001573
0.002027
0.000586
0.000268
0.000429
0.000699
0.000331
0.000237
0.000250
0.000308
0.000218
0.000247
0.000262
0.000238
0.000266
0.000254
0.003011
0.000335
0.000236
0.000266
0.000308
0.000269
0.000432
0.000056
0.001933
0.000237
0.000221
0.000236
0.000289
0.000400
0.000421
0.000373
0.000208
0.000226
0.000236
0.000254
0.000257
0.000263
0.000270
0.000240
0.000269
0.000278
0.001810
0.000250
0.000238
0.000254
0.000277
0.000273
0.000271
0.000252
0.001467
0.000343
0.000245
0.000251
0.000187
0.000056
0.000200
0.000230
0.000246
0.000236
0.000249
0.000244
0.000487
0.000201
0.000327
0.000380
0.000213
0.000236
0.000261
0.000329
0.000441
0.000301
0.000231
0.000248
0.000275
0.000401
0.000442
0.000401
0.000263
0.000260
0.000252
0.000251
0.000251
0.000270
0.000279
0.000264
0.000209
0.000055
0.001437
0.000463
0.000200
0.001957
0.000337
0.000409
0.000375
0.000315
0.000230
0.000243
0.000267
0.000242
0.000248
0.000248
0.000262
0.000263
0.000450
0.000287
0.000398
0.000356
0.000375
0.000226
0.000260
0.000266
0.000275
0.000275
0.000260
0.000269
0.000382
0.000439
0.001367
0.000056
0.000209
0.000223
0.002086
0.000309
0.000318
0.000236
0.000256
0.000253
0.000259
0.000254
0.000219
0.000252
0.000263
0.000261
0.000290
0.000353
0.000680
0.001766
0.000227
0.000248
0.000250
0.000282
0.000490
0.000357
0.001527
0.000294
0.000363
0.001922
0.000268
0.000241
0.000201
0.000056
0.000204
0.000227
0.000239
0.000247
0.000228
0.000252
0.000248
0.000296
0.000315
0.000266
0.000373
0.000369
0.000343
0.000291
0.000246
0.000266
0.000272
0.000234
0.000263
0.000254
0.000309
0.000275
0.000270
0.000259
0.000269
0.001503
0.000321
0.000361
0.002069
0.000238
0.000180
0.000056
0.000197
0.000233
0.000240
0.000251
0.000485
0.000210
0.000248
0.000351
0.000390
0.000266
0.000307
0.000212
0.000284
0.000247
0.000269
0.000328
0.000430
0.000424
0.000259
0.000421
0.000525
0.000582
0.001428
0.000225
0.000254
0.002071
0.000287
0.000203
0.000245
0.000293
0.000191
0.000055
0.000195
0.000241
0.000229
0.000241
0.000252
0.000278
0.000247
0.000270
0.000275
0.000285
0.001761
0.000311
0.000381
0.000293
0.000458
0.000375
0.000421
0.001423
0.000242
0.000278
0.002262
0.000417
0.000255
0.000248
0.000255
0.000271
0.000525
0.000200
0.000260
0.000277
0.000198
0.000056
0.000275
0.000280
0.000384
0.000268
0.000208
0.000245
0.000257
0.000246
0.000271
0.000289
0.000225
0.000252
0.000265
0.000286
0.000506
0.000273
0.001322
0.000268
0.000272
0.001994
0.000337
0.000235
0.000232
0.000260
0.000255
0.000278
0.000268
0.000257
0.000255
0.000266
0.000204
0.000055
0.000241
0.000401
0.002034
0.000250
0.000230
0.000248
0.000289
0.000285
0.000510
0.000339
0.001302
0.000369
0.000361
0.002078
0.000211
0.000245
0.000267
0.000277
0.000254
0.000238
0.000287
0.000289
0.000262
0.000412
0.000478
0.000304
0.000335
0.002219
0.000604
0.000452
0.000327
0.000056
0.000204
0.000235
0.000247
0.001958
0.000238
0.000226
0.000245
0.000241
0.000242
0.000260
0.000242
0.000260
0.000320
0.000210
0.000554
0.001358
0.000256
0.000241
0.000261
0.000264
0.000225
0.000255
0.000266
0.000299
0.000358
0.000462
0.000395
0.000239
0.001605
0.000276
0.002017
0.000057
0.000197
0.000227
0.000247
0.000237
0.000260
0.000267
0.000227
0.000246
0.000254
0.000425
0.000310
0.001418
0.000232
0.000235
0.000245
0.000289
0.000225
0.000260
0.000356
0.000486
0.000363
0.000425
0.000230
0.001573
0.000223
0.000261
0.000288
0.000279
0.000268
0.000266
0.000195
0.000056
0.000194
0.000235
0.000284
0.000247
0.000250
0.000236
0.000238
0.000243
0.000279
0.000227
0.000256
0.000242
0.000288
0.001462
0.000362
0.000208
0.000273
0.000240
0.000275
0.000316
0.000364
0.000278
0.000253
0.000255
0.000261
0.000265
0.000254
0.001411
0.000289
0.000231
0.000174
0.000056
0.000192
0.000255
0.000239
0.000262
0.000268
0.000228
0.000254
0.000244
0.000224
0.000262
0.000246
0.000258
0.000239
0.000375
0.000348
0.000323
0.000265
0.000212
0.001638
0.000241
0.000239
0.000261
0.000260
0.000293
0.000358
0.000426
0.000433
0.000262
0.000249
0.001611
0.000157
0.000056
0.000309
0.000334
0.000417
0.000227
0.000230
0.000222
0.000248
0.000266
0.000259
0.000258
0.000227
0.000238
0.001501
0.000269
0.000282
0.000231
0.000249
0.000275
0.000250
0.000269
0.000247
0.000239
0.000253
0.000276
0.000265
0.000390
0.000403
0.000380
0.000265
0.000261
0.000195
0.000055
0.000205
0.000361
0.000436
0.000229
0.000390
0.000261
0.000252
0.000249
0.000250
0.000260
0.000245
0.000222
0.000256
0.000245
0.001296
0.000261
0.000249
0.000235
0.000270
0.000266
0.000239
0.000266
0.000251
0.000261
0.000254
0.000262
0.000325
0.000870
0.000258
0.000247
0.000166
0.000056
0.000202
0.001555
0.000260
0.000317
0.000531
0.000311
0.000217
0.000257
0.000269
0.000247
0.000240
0.000260
0.000269
0.000274
0.000254
0.001533
0.000268
0.000270
0.000262
0.000259
0.000271
0.000235
0.000265
0.000265
0.000260
0.000261
0.000435
0.000402
0.000339
0.000218
0.000209
0.000056
0.000195
0.000245
0.000255
0.001586
0.000438
0.000335
0.000222
0.000245
0.000260
0.000263
0.000283
0.000249
0.000258
0.000256
0.000248
0.000264
0.000407
0.001303
0.000254
0.000231
0.001490
0.000380
0.000565
0.000341
0.000342
0.000232
0.000270
0.000471
0.000227
0.000264
0.000185
0.000055
0.000288
0.000220
0.000247
0.000248
0.000246
0.000276
0.000221
0.000253
0.000261
0.000246
0.000242
0.000261
0.000318
0.000539
0.001620
0.001523
0.000325
0.000610
0.000266
0.000221
0.000234
0.000257
0.000248
0.000288
0.000234
0.000264
0.000255
0.000266
0.001523
0.000340
0.000175
0.000055
0.000225
0.000361
0.000334
0.000332
0.000239
0.000226
0.000248
0.000373
0.000423
0.000342
0.002187
0.000314
0.000864
0.000554
0.000254
0.000255
0.000331
0.000395
0.000346
0.000265
0.000391
0.000271
0.001521
0.000531
0.000232
0.000255
0.000252
0.000271
0.000255
0.000261
0.000209
0.000055
0.000219
0.000249
0.000259
0.000245
0.000242
0.001661
0.000878
0.000996
0.000213
0.000238
0.000267
0.000244
0.000258
0.000258
0.000252
0.000254
0.000252
0.000266
0.000267
0.000279
0.001419
0.000327
0.000246
0.000239
0.000231
0.000260
0.000258
0.000282
0.000262
0.000288
0.001896
0.000056
0.000196
0.000234
0.001538
0.000900
0.000379
0.000323
0.000248
0.000218
0.000252
0.000256
0.000253
0.000262
0.000232
0.001968
0.000478
0.000231
0.000236
0.000257
0.000262
0.000262
0.000193
