0.000093
0.017689
0.003793
0.000396
0.000247
0.000301
0.000326
0.000243
0.000313
0.000281
0.000253
0.000337
0.000534
0.000463
0.000388
0.000359
0.000284
0.000322
0.000354
0.000423
0.000313
0.001939
0.000686
0.000269
0.000234
0.000304
0.000322
0.000312
0.000417
0.000414
0.000567
0.000202
0.000058
0.000229
0.000251
0.000266
0.000297
0.000237
0.000252
0.000286
0.000280
0.000268
0.000277
0.000414
0.000432
0.000318
0.000255
0.000376
0.000353
0.000364
0.000252
0.000242
0.001700
0.000316
0.000282
0.000427
0.000244
0.000282
0.000280
0.000291
0.000290
0.000274
0.000323
0.000412
0.000057
0.000251
0.000249
0.000261
0.000262
0.000251
0.000248
0.000263
0.000257
0.000284
0.001666
0.000233
0.000231
0.000280
0.000264
0.000275
0.000247
0.000263
0.000262
0.000345
0.001790
0.000243
0.000289
0.000441
0.000433
0.000389
0.000245
0.000247
0.000488
0.000579
0.000671
0.000193
0.000057
0.000197
0.000243
0.000250
0.000238
0.000292
0.000278
0.000249
0.000666
0.000315
0.000271
0.000229
0.000261
0.000237
0.000255
0.000252
0.000255
0.000245
0.000266
0.000306
0.000329
0.001670
0.000270
0.000250
0.000411
0.000279
0.000754
0.000641
0.000521
0.000350
0.000234
0.000219
0.000056
0.000223
0.000247
0.000294
0.000208
0.000289
0.000226
0.000282
0.000396
0.001537
0.000200
0.000251
0.000249
0.000251
0.000257
0.000263
0.000294
0.000296
0.000823
0.001337
0.000304
0.000237
0.000412
0.000245
0.000241
0.000259
0.000266
0.000260
0.000274
0.000262
0.000269
0.000195
0.000055
0.000208
0.000221
0.000245
0.000268
0.000235
0.000251
0.000237
0.000252
0.000242
0.000247
0.001621
0.000275
0.000236
0.000242
0.000250
0.000249
0.000249
0.000248
0.000257
0.000250
0.000297
0.001656
0.000271
0.000257
0.000425
0.000270
0.000247
0.000258
0.000262
0.000274
0.000196
0.000056
0.000217
0.000234
0.000255
0.000244
0.000259
0.000231
0.000261
0.000240
0.000262
0.000259
0.000246
0.000260
0.000259
0.000273
0.001630
0.000271
0.000309
0.000222
0.000244
0.000275
0.000269
0.000229
0.000251
0.000267
0.001781
0.000402
0.000460
0.000251
0.000234
0.000280
0.000201
0.000055
0.000221
0.000243
0.000242
0.000269
0.000261
0.000262
0.000343
0.000318
0.000390
0.000454
0.000207
0.000250
0.000254
0.000249
0.001668
0.000423
0.000362
0.000365
0.000319
0.000228
0.000273
0.000286
0.000270
0.001775
0.000481
0.000454
0.000255
0.000243
0.000235
0.000267
0.000182
0.000056
0.000211
0.000232
0.000260
0.000274
0.000362
0.000400
0.000379
0.000283
0.000219
0.000244
0.000278
0.000225
0.000253
0.001739
0.000456
0.000303
0.000222
0.000246
0.000271
0.000292
0.000240
0.000257
0.000271
0.001896
0.000302
0.000400
0.000240
0.000251
0.000267
0.000403
0.000328
0.000057
0.000239
0.000354
0.000369
0.000260
0.000259
0.000251
0.000251
0.000254
0.000244
0.000230
0.000235
0.000256
0.001591
0.000337
0.000291
0.000220
0.000260
0.000250
0.000250
0.000310
0.000362
0.000228
0.000234
0.001817
0.000247
0.000498
0.000239
0.000258
0.000260
0.000267
0.000258
0.000057
0.000363
0.000586
0.000601
0.000210
0.000237
0.000271
0.000225
0.000223
0.000263
0.000255
0.000251
0.001705
0.000243
0.000442
0.000370
0.000219
0.000236
0.000236
0.000253
0.000255
0.000371
0.001739
0.000222
0.000474
0.001859
0.000525
0.000361
0.000261
0.000239
0.000271
0.000182
0.000056
0.000197
0.000243
0.000246
0.000242
0.000272
0.001603
0.000286
0.000203
0.000248
0.000255
0.000247
0.000284
0.000218
0.000248
0.000326
0.000336
0.000652
0.000254
0.000231
0.000270
0.000282
0.000232
0.000258
0.000426
0.000432
0.000248
0.000374
0.000537
0.000428
0.000285
0.000203
0.000056
0.000226
0.000234
0.000254
0.000248
0.000256
0.000224
0.000248
0.000408
0.000417
0.001715
0.000222
0.000235
0.000246
0.000245
0.000258
0.000280
0.000452
0.000459
0.000360
0.000216
0.000259
0.000303
0.000297
0.000234
0.000275
0.000443
0.000336
0.000709
0.000380
0.000426
0.000179
0.000056
0.000217
0.000245
0.000281
0.000203
0.000238
0.000238
0.000247
0.000261
0.000226
0.000294
0.000344
0.000491
0.001340
0.000238
0.000241
0.000240
0.000261
0.000249
0.000247
0.000272
0.000257
0.000486
0.000388
0.000257
0.000265
0.000259
0.000259
0.000263
0.000271
0.000260
0.000387
0.000055
0.000200
0.000237
0.000225
0.000308
0.000495
0.000433
0.000229
0.000268
0.000250
0.000244
0.000261
0.000226
0.000323
0.000226
0.000237
0.000471
0.000443
0.001629
0.000275
0.000233
0.000261
0.000265
0.000250
0.000241
0.000274
0.000466
0.000428
0.000387
0.000381
0.000242
0.000206
0.000056
0.000221
0.000438
0.000230
0.000217
0.000286
0.000225
0.000356
0.000547
0.000267
0.000338
0.000223
0.000283
0.000259
0.000239
0.000524
0.000333
0.000221
0.000284
0.000408
0.001608
0.000264
0.000245
0.000525
0.000262
0.000271
0.000272
0.000252
0.000393
0.000582
0.000291
0.000282
0.000056
0.000209
0.000210
0.000236
0.000249
0.000415
0.000307
0.000288
0.000227
0.000368
0.000542
0.000376
0.000224
0.000227
0.000248
0.000259
0.000265
0.000251
0.000254
0.000229
0.000356
0.000289
0.000276
0.001936
0.000206
0.000261
0.000253
0.000283
0.000342
0.000442
0.000670
0.000440
0.000057
0.000219
0.000333
0.000307
0.000463
0.000336
0.000204
0.000260
0.000275
0.000516
0.000433
0.000258
0.000240
0.000237
0.000269
0.000278
0.000218
0.000258
0.000272
0.000266
0.000258
0.000262
0.000467
0.000602
0.001361
0.000306
0.000432
0.000419
0.000241
0.000511
0.000356
0.000300
0.000056
0.000236
0.000382
0.000275
0.000222
0.000219
0.000246
0.000411
0.000235
0.000258
0.000516
0.000268
0.000442
0.000237
0.000251
0.000266
0.000249
0.000354
0.000389
0.000347
0.000253
0.000240
0.000372
0.000664
0.001678
0.000221
0.000422
0.000316
0.000225
0.000377
0.000345
0.000313
0.000056
0.000227
0.000227
0.000250
0.000256
0.000246
0.000260
0.000226
0.000361
0.000418
0.000285
0.000422
0.000397
0.000282
0.000576
0.000245
0.000241
0.000271
0.000283
0.000210
0.000350
0.000230
0.000246
0.000266
0.000431
0.000443
0.001681
0.000273
0.000240
0.000253
0.000267
0.000189
0.000056
0.000307
0.000527
0.000305
0.000218
0.000237
0.000266
0.000247
0.000239
0.000269
0.000234
0.000225
0.000262
0.000407
0.000528
0.000442
0.000243
0.000223
0.000258
0.000334
0.000395
0.000383
0.000332
0.000361
0.000397
0.000244
0.000263
0.000258
0.000275
0.001803
0.000220
0.000210
0.000057
0.000204
0.000232
0.000253
0.000294
0.000330
0.000541
0.000320
0.000217
0.000288
0.000233
0.000249
0.000250
0.000537
0.000429
0.000489
0.000273
0.000264
0.000262
0.000421
0.000465
0.000354
0.000423
0.000443
0.000482
0.000242
0.000245
0.000264
0.000245
0.000260
0.001730
0.000420
0.000056
0.000321
0.000255
0.000228
0.000221
0.000257
0.000250
0.000233
0.000496
0.000382
0.000308
0.000289
0.000284
0.000332
0.000734
0.000262
0.000230
0.000253
0.000259
0.000250
0.000268
0.000276
0.000256
0.000245
0.000286
0.000318
0.000329
0.000427
0.000334
0.000252
0.000245
0.000191
0.000055
0.000462
0.000267
0.000477
0.000253
0.000206
0.000252
0.000244
0.000255
0.000242
0.000219
0.000257
0.000277
0.000302
0.000358
0.000551
0.000442
0.000322
0.000303
0.000387
0.000341
0.000311
0.000223
0.000249
0.000265
0.001743
0.000265
0.001712
0.001040
0.000296
0.000334
0.000166
0.000056
0.000200
0.000232
0.000236
0.000245
0.000269
0.000238
0.000256
0.000247
0.000259
0.000330
0.000374
0.000385
0.000339
0.000392
0.000263
0.000225
0.000255
0.000288
0.000238
0.000243
0.000258
0.000264
0.001811
0.000238
0.000254
0.000266
0.000273
0.001719
0.000435
0.000500
0.000258
0.000057
0.000236
0.000213
0.000241
0.000239
0.000267
0.000234
0.000246
0.000254
0.000254
0.000407
0.000539
0.000318
0.000369
0.000227
0.000241
0.000259
0.000329
0.000435
0.000364
0.000259
0.001773
0.000262
0.000242
0.000253
0.000262
0.000265
0.000244
0.000255
0.000323
0.000337
0.000356
0.000057
0.000217
0.000229
0.000226
0.000272
0.000231
0.000245
0.000257
0.000251
0.000244
0.000253
0.000241
0.000258
0.000432
0.000368
0.000329
0.000277
0.000458
0.000240
0.000248
0.000256
0.000261
0.000261
0.000271
0.000257
0.000275
0.001785
0.000253
0.000247
0.000264
0.000238
0.000205
0.000071
0.000397
0.000215
0.000241
0.000219
0.000237
0.000239
0.000239
0.000255
0.000248
0.000218
0.000237
0.000263
0.000255
0.000375
0.000412
0.000344
0.000307
0.000219
0.000251
0.000253
0.000271
0.000254
0.000253
0.000267
0.000241
0.000275
0.000289
0.001649
0.000274
0.000231
0.000196
0.000055
0.000223
0.000231
0.000247
0.000260
0.000349
0.000467
0.000278
0.000335
0.000220
0.000249
0.000268
0.000228
0.000253
0.000255
0.000259
0.000259
0.000243
0.000259
0.000252
0.000265
0.000267
0.000267
0.000246
0.000235
0.000243
0.000275
0.000280
0.000262
0.000251
0.000268
0.000195
0.000056
0.000219
0.000213
0.000254
0.000278
0.000233
0.000233
0.000241
0.000260
0.000278
0.000246
0.000239
0.000238
0.000257
0.000249
0.000288
0.000243
0.000255
0.000246
0.000302
0.000257
0.000267
0.000320
0.000273
0.000219
0.000305
0.000248
0.000269
0.000250
0.000261
0.000390
0.000702
0.000055
0.000220
0.000292
0.000226
0.000223
0.000242
0.000252
0.000239
0.000252
0.000249
0.000243
0.000269
0.000298
0.000552
0.000369
0.001571
0.000226
0.000501
0.000221
0.000282
0.000435
0.000429
0.000395
0.000228
0.000280
0.000250
0.000256
0.000279
0.000254
0.000309
0.000278
0.000172
0.000055
0.000301
0.000474
0.000327
0.000342
0.000205
0.000284
0.000225
0.000239
0.000233
0.000249
0.000258
0.000250
0.000232
0.000280
0.000354
0.000487
0.000403
0.001787
0.000240
0.000251
0.000348
0.000471
0.000337
0.000346
0.000314
0.000331
0.000293
0.000240
0.000219
0.000255
0.000200
0.000056
0.000215
0.000225
0.000234
0.000306
0.000371
0.000412
0.000348
0.000256
0.000253
0.000230
0.000237
0.000267
0.000268
0.000262
0.000243
0.000260
0.000309
0.000488
0.000321
0.000451
0.000236
0.001739
0.000334
0.000547
0.000441
0.000475
0.000330
0.000228
0.000256
0.000283
0.000430
0.000055
0.000213
0.000273
0.000213
0.000253
0.000494
0.000440
0.000357
0.000238
0.000220
0.000295
0.000264
0.000238
0.000252
0.000296
0.000307
0.000239
0.000296
0.000346
0.000388
0.000390
0.000501
0.001843
0.000273
0.000492
0.000420
0.000371
0.000226
0.000257
0.000296
0.000260
0.000203
0.000057
0.000215
0.000335
0.000361
0.000380
0.000365
0.000276
0.000373
0.000211
0.000239
0.000263
0.000276
0.000222
0.000257
0.000248
0.000247
0.000264
0.000348
0.000359
0.000484
0.000378
0.000284
0.000252
0.000247
0.001712
0.000423
0.000526
0.000680
0.000230
0.000266
0.000305
0.000165
0.000057
0.000211
0.000222
0.000350
0.000232
0.000299
0.000376
0.000391
0.000296
0.000248
0.000509
0.000238
0.000251
0.000257
0.000294
0.000260
0.000258
0.000228
0.000372
0.000406
0.000473
0.000258
0.000231
0.000259
0.000247
0.000260
0.000290
0.000214
0.000270
0.000263
0.000309
0.000170
0.000056
0.000347
0.000310
0.000217
0.000257
0.000248
0.000258
0.000244
0.000300
0.000229
0.000245
0.000278
0.000333
0.000432
0.000358
0.000411
0.000240
0.000226
0.000235
0.000256
0.000271
0.000286
0.000262
0.000238
0.000272
0.000264
0.000346
0.000387
0.000362
0.000359
0.000238
0.000173
0.000056
0.000201
0.000222
0.000287
0.000241
0.000238
0.000266
0.000268
0.000225
0.000499
0.000210
0.000258
0.000263
0.000236
0.000263
0.000273
0.000298
0.000238
0.000353
0.000220
0.000244
0.000275
0.000244
0.000256
0.000268
0.000274
0.000263
0.000265
0.000249
0.000261
0.000498
0.000161
0.000055
0.000201
0.000243
0.000248
0.000290
0.000211
0.000236
0.000367
0.000402
0.000234
0.000237
0.000253
0.000256
0.000238
0.000240
0.000573
0.001680
0.000226
0.000265
0.000286
0.000329
0.000404
0.000369
0.000369
0.000433
0.000362
0.000390
0.000265
0.000247
0.000268
0.000279
0.001384
0.000055
0.000406
0.000304
0.000255
0.000224
0.000236
0.000250
0.000238
0.000251
0.000240
0.000275
0.000244
0.000260
0.000254
0.000237
0.000639
0.001587
0.000235
0.000225
0.000246
0.000269
0.000237
0.000284
0.000395
0.000358
0.000275
0.000350
0.000224
0.000268
0.000299
0.000238
0.000188
0.000056
0.001237
0.000572
0.000280
0.000270
0.000230
0.000221
0.000235
0.000235
0.000490
0.000233
0.000223
0.000254
0.000391
0.000435
0.000429
0.000346
0.000269
0.000226
0.000328
0.000354
0.000273
0.000257
0.000271
0.000245
0.000261
0.000715
0.000458
0.000227
0.000254
0.000265
0.000172
0.000056
0.000222
0.000213
0.000240
0.000248
0.001454
0.000315
0.000224
0.000255
0.000262
0.000230
0.000251
0.000257
0.000237
0.000266
0.000270
0.000257
0.000629
0.000570
0.000181
0.001758
0.000246
0.000289
0.000316
0.000372
0.000664
0.000317
0.000249
0.000251
0.000259
0.000272
0.000198
0.000057
0.000216
0.000255
0.000233
0.000289
0.001283
0.000237
0.000286
0.000228
0.000258
0.000218
0.000236
0.000258
0.000274
0.000266
0.000234
0.000321
0.000455
0.000385
0.000357
0.000235
0.000272
0.000270
0.000252
0.000230
0.000284
0.000269
0.000243
0.000277
0.000269
0.000312
0.000622
0.000055
0.000221
0.000255
0.000233
0.000267
0.000258
0.000241
0.000229
0.000268
0.000288
0.000260
0.001410
0.000227
0.000239
0.000255
0.000240
0.000250
0.000290
0.000240
0.000284
0.000239
0.000302
0.000452
0.000455
0.000390
0.000238
0.000271
0.001763
0.000252
0.000258
0.000342
0.000386
0.000056
0.000223
0.000399
0.000454
0.000506
0.000511
0.000533
0.001504
0.000413
0.000519
0.000653
0.000558
0.000829
0.000365
0.000624
0.000582
0.001880
0.000403
0.000432
0.000399
0.000322
0.000227
0.000279
0.000285
0.000268
0.000257
0.000292
0.000291
0.000287
0.000259
0.000285
0.001360
0.000055
0.000218
0.000231
0.000264
0.000220
0.000259
0.000251
0.000241
0.000240
0.000249
0.000246
0.000248
0.000238
0.000258
0.000259
0.000266
0.000271
0.001801
0.000264
0.000266
0.000249
0.000256
0.000264
0.000263
0.000257
0.000415
0.000423
0.000353
0.000245
0.000257
0.000283
0.000213
0.000056
0.000211
0.001348
0.000333
0.000292
0.000230
0.000259
0.000225
0.000234
0.000239
0.000231
0.000223
0.000245
0.000250
0.000507
0.000365
0.000307
0.000247
0.001814
0.000354
0.000237
0.000248
0.000262
0.000250
0.000268
0.000277
0.000276
0.000275
0.000248
0.000268
0.000352
0.000176
0.000057
0.000199
0.000237
0.000251
0.001436
0.000220
0.000251
0.000253
0.000243
0.000240
0.000283
0.000228
0.000251
0.000248
0.000284
0.000232
0.000253
0.000267
0.000267
0.000263
0.000256
0.000264
0.001775
0.000271
0.001748
0.000267
0.000264
0.000253
0.000277
0.000269
0.000271
0.000203
0.000056
0.000214
0.000236
0.001336
0.000233
0.000259
0.000244
0.000262
0.000249
0.000245
0.000245
0.000259
0.000254
0.000249
0.000263
0.000252
0.000266
0.000257
0.000282
0.000291
0.000236
0.001888
0.000230
0.001829
0.000236
0.000271
0.000290
0.000217
0.000243
0.000261
0.000270
0.000194
0.000055
0.001421
0.000229
0.000248
0.000228
0.000244
0.000234
0.000368
0.000295
0.000241
0.000244
0.000253
0.000260
0.000243
0.000356
0.000415
0.000265
0.000269
0.000253
0.000262
0.000263
0.000256
0.000337
0.000223
0.000259
0.000272
0.000274
0.000274
0.000362
0.000600
0.000384
0.000190
0.000056
0.000217
0.000251
0.000262
0.000304
0.000361
0.000265
0.001714
0.000278
0.000279
0.000276
0.000248
0.000279
0.000263
0.000281
0.000285
0.000307
0.000320
0.000604
0.000372
0.000255
0.000301
0.000276
0.000263
0.000273
0.000306
0.000277
0.000265
0.000254
0.000252
0.000311
0.000426
0.000056
0.000254
0.000469
0.000259
0.000265
0.000248
0.000224
0.000230
0.000250
0.000254
0.001453
0.000326
0.000216
0.000236
0.000246
0.000245
0.000286
0.000296
0.000226
0.000257
0.000263
0.000264
0.000390
0.000617
0.000247
0.000240
0.000285
0.000268
0.000274
0.000226
0.000306
0.000172
0.000056
0.000188
0.000236
0.000319
0.000419
0.000405
0.000244
0.000220
0.000250
0.000263
0.000238
0.000253
0.000231
0.000259
0.000266
0.000240
0.000241
0.000463
0.001154
0.000255
0.000221
0.000285
0.000246
0.000433
0.000344
0.000255
0.000381
0.000521
0.000341
0.000390
0.000236
0.000176
0.000056
0.000219
0.000246
0.000263
0.000259
0.000255
0.000245
0.000336
0.000385
0.000469
0.000282
0.000358
0.000393
0.000397
0.000361
0.000256
0.000236
0.000247
0.000250
0.000405
0.000455
0.001276
0.000225
0.000270
0.000270
0.000242
0.000231
0.000260
0.000322
0.000406
0.000433
0.000267
0.000055
0.000215
0.000236
0.000260
0.000239
0.000239
0.000248
0.000257
0.000250
0.000301
0.000295
0.000508
0.000345
0.000249
0.000235
0.000250
0.000257
0.000243
0.000265
0.000266
0.000272
0.000433
0.000237
0.000371
0.000440
0.000308
0.000244
0.000269
0.000264
0.000257
0.000341
0.000166
0.000056
0.000322
0.000332
0.000333
0.000376
0.000395
0.000373
0.000237
0.000237
0.000251
0.000301
0.000225
0.000264
0.000234
0.000257
0.000238
0.000258
0.000239
0.000342
0.000560
0.000299
0.000244
0.000257
0.000246
0.000242
0.000266
0.000280
0.000266
0.000282
0.000259
0.000272
0.000311
0.000056
0.000283
0.000311
0.000240
0.000264
0.000223
0.000243
0.000249
0.000255
0.000265
0.000253
0.000250
0.000252
0.000328
0.000415
0.000456
0.000291
0.000252
0.000236
0.000259
0.000264
0.000257
0.000258
0.000264
0.000282
0.000257
0.000306
0.000410
0.000597
0.000417
0.000245
0.000182
0.000056
0.000376
0.000219
0.000212
0.000246
0.000255
0.000247
0.000235
0.000252
0.000252
0.000264
0.000222
0.000242
0.000276
0.000224
0.000247
0.000264
0.000250
0.000265
0.000299
0.000242
0.000257
0.000262
0.000261
0.000267
0.000262
0.000236
0.000263
0.000285
0.000257
0.000276
0.000203
0.000056
0.000199
0.000233
0.000244
0.000247
0.000231
0.000276
0.000243
0.000239
0.000260
0.000278
0.000228
0.000236
0.000260
0.000393
0.000258
0.000296
0.000245
0.000263
0.000256
0.000282
0.000294
0.000209
0.000251
0.000251
0.000274
0.000270
0.000243
0.000258
0.000269
0.000265
0.000207
0.000056
0.000218
0.000357
0.000369
0.000283
0.000292
0.000258
0.000265
0.000259
0.000216
0.000250
0.000280
0.000234
0.000250
0.000231
0.000264
0.000280
0.000244
0.000267
0.000247
0.000260
0.000277
0.000265
0.000275
0.000261
0.000296
0.000223
0.000257
0.000266
0.000268
0.000268
0.000200
0.000055
0.000204
0.000224
0.000265
0.000267
0.000247
0.000446
0.000214
0.000274
0.000274
0.000372
0.000549
0.000278
0.000232
0.000251
0.000272
0.000272
0.000227
0.000268
0.000262
0.000269
0.000268
0.000256
0.000254
0.000248
0.000600
0.000438
0.000297
0.000299
0.000297
0.000227
0.000194
0.000056
0.000227
0.000219
0.000250
0.000248
0.000333
0.000655
0.000299
0.000385
0.000210
0.000246
0.000255
0.000250
0.000250
0.000249
0.000255
0.000271
0.000274
0.000247
0.000685
0.000313
0.000325
0.000236
0.000255
0.000298
0.000269
0.000254
0.000260
0.000291
0.000229
0.000324
0.000328
0.000056
0.000255
0.000237
0.000251
0.000239
0.000239
0.000270
0.000209
0.000252
0.000242
0.000265
0.000244
0.000248
0.000247
0.000459
0.000512
0.000385
0.000236
0.000261
0.000262
0.000244
0.000267
0.000290
0.000474
0.000215
0.000267
0.000613
0.000395
0.000477
0.000264
0.000248
0.000197
0.000056
0.000200
0.000234
0.000236
0.000249
0.000255
0.000255
0.000314
0.000393
0.000630
0.000420
0.000213
0.000261
0.000276
0.000272
0.000272
0.000231
0.000247
0.000241
0.000257
0.000398
0.000319
0.000670
0.000361
0.000254
0.000380
0.000360
0.000488
0.000235
0.000264
0.000395
0.000396
0.000056
0.000275
0.000228
0.000443
0.000213
0.000243
0.000249
0.000259
0.000262
0.000229
0.000241
0.000327
0.000347
0.000354
0.000339
0.000242
0.000247
0.000261
0.000250
0.000269
0.000270
0.000294
0.000235
0.000254
0.000271
0.000345
0.000468
0.000477
0.000235
0.000255
0.000272
0.000206
0.000056
0.000226
0.000256
0.000225
0.000249
0.000247
0.000270
0.000341
0.000468
0.000376
0.000268
0.000376
0.000233
0.000254
0.000259
0.000254
0.000240
0.000253
0.000265
0.000354
0.000318
0.000528
0.000319
0.000466
0.000269
0.000382
0.000434
0.000369
0.000243
0.000255
0.000301
0.000344
0.000056
0.000227
0.000267
0.000229
0.000254
0.000283
0.000234
0.000269
0.000241
0.000260
0.000234
0.000247
0.000504
0.000347
0.000336
0.000354
0.000229
0.000267
0.000266
0.000262
0.000238
0.000251
0.000278
0.000238
0.000278
0.000277
0.000308
0.000505
0.000475
0.000263
0.000259
0.000197
0.000056
0.000218
0.000242
0.000281
0.000245
0.000245
0.000337
0.000503
0.000512
0.000478
0.000533
0.000252
0.000232
0.000231
0.000259
0.000256
0.000262
0.000275
0.000273
0.000478
0.000469
0.001458
0.000335
0.000250
0.000279
0.000269
0.000257
0.000371
0.000424
0.000361
0.000308
0.000192
0.000056
0.000224
0.000228
0.000245
0.000290
0.000203
0.000257
0.000301
0.000229
0.000261
0.000304
0.000326
0.000382
0.000269
0.000338
0.000400
0.000345
0.000242
0.000251
0.000286
0.000242
0.000244
0.000248
0.000316
0.000214
0.000322
0.000439
0.000474
0.000242
0.000257
0.000263
0.000190
0.000055
0.000257
0.000223
0.000255
0.000257
0.000239
0.000238
0.000471
0.000217
0.000229
0.000257
0.000243
0.000253
0.000264
0.000253
0.000249
0.000270
0.000263
0.000286
0.000258
0.000246
0.000280
0.000273
0.000285
0.000245
0.000264
0.000283
0.000268
0.000263
0.000263
0.000270
0.000185
0.000056
0.000236
0.000243
0.000309
0.000414
0.000366
0.000258
0.000240
0.000245
0.000259
0.000248
0.000251
0.000253
0.000264
0.000282
0.000214
0.000253
0.000258
0.000251
0.000296
0.000380
0.000377
0.000406
0.000233
0.000261
0.000264
0.000254
0.000267
0.000275
0.000250
0.000276
0.000203
0.000056
0.000361
0.000474
0.000358
0.000202
0.000251
0.000264
0.000403
0.000230
0.000223
0.000260
0.000251
0.000293
0.000344
0.000437
0.001877
0.000253
0.000237
0.000253
0.000277
0.000240
0.000281
0.000586
0.000572
0.000254
0.000234
0.000260
0.000278
0.000429
0.000272
0.000290
0.000157
0.000056
0.000226
0.000383
0.000327
0.000305
0.000502
0.000205
0.000236
0.000249
0.000252
0.000242
0.000261
0.000262
0.000245
0.000320
0.000527
0.000345
0.000235
0.000251
0.000259
0.000257
0.000262
0.000313
0.000237
0.000281
0.000273
0.000492
0.000473
0.000511
0.000345
0.000231
0.000203
0.000055
0.000205
0.000233
0.000256
0.000236
0.000242
0.000251
0.000269
0.000293
0.000337
0.000339
0.000459
0.000336
0.000232
0.000252
0.000266
0.000283
0.000297
0.000240
0.000278
0.000289
0.000216
0.000272
0.000524
0.000345
0.000304
0.000251
0.000259
0.000438
0.000417
0.000319
0.000171
0.000057
0.000224
0.000271
0.000291
0.000448
0.000358
0.000230
0.000219
0.000258
0.000262
0.000260
0.000253
0.000247
0.000231
0.000261
0.000255
0.000342
0.000359
0.000348
0.000299
0.000351
0.000488
0.000224
0.000287
0.000268
0.000306
0.000287
0.000244
0.000283
0.000456
0.000538
0.000184
0.000055
0.000204
0.000226
0.000248
0.000253
0.000244
0.000480
0.000219
0.000253
0.000260
0.000298
0.000532
0.000578
0.000217
0.000237
0.000237
0.000256
0.000255
0.000270
0.000240
0.000243
0.000293
0.000242
0.000393
0.000379
0.000364
0.000404
0.000302
0.000305
0.000318
0.000244
0.000191
0.000055
0.000205
0.000238
0.000293
0.000438
0.000350
0.000266
0.000265
0.000245
0.000227
0.000254
0.000255
0.000262
0.000262
0.000238
0.000250
0.000261
0.000254
0.000240
0.000293
0.000345
0.000498
0.000420
0.000230
0.000243
0.000280
0.000279
0.000258
0.000256
0.000268
0.000263
0.000198
0.000072
0.000311
0.000304
0.000483
0.000237
0.000220
0.000252
0.000313
0.000458
0.000288
0.000225
0.000247
0.000258
0.000291
0.000402
0.000445
0.000295
0.000229
0.000237
0.000253
0.000263
0.000269
0.000263
0.000268
0.000269
0.000268
0.000286
0.000407
0.000397
0.000332
0.000229
0.000198
0.000056
0.000215
0.000234
0.000251
0.000252
0.000252
0.000265
0.000228
0.000273
0.000246
0.000263
0.000240
0.000237
0.000292
0.001432
0.000220
0.000259
0.000261
0.000246
0.000275
0.000275
0.000264
0.000239
0.000274
0.000253
0.000264
0.000284
0.000258
0.000267
0.000260
0.000271
0.000191
0.000056
0.000219
0.000235
0.000250
0.000267
0.000221
0.000240
0.000262
0.000255
0.000231
0.000253
0.000246
0.000265
0.000254
0.000251
0.000256
0.000255
0.000253
0.000257
0.000271
0.000252
0.000256
0.000265
0.000254
0.000239
0.001294
0.000280
0.000626
0.000343
0.000367
0.000246
0.000193
0.000055
0.000205
0.000239
0.000242
0.000252
0.000411
0.000242
0.000235
0.000242
0.000255
0.000432
0.000370
0.000353
0.000224
0.000243
0.000258
0.000263
0.000255
0.000263
0.000248
0.000259
0.000260
0.000254
0.000293
0.000419
0.000479
0.000459
0.000226
0.000260
0.001365
0.000245
0.000185
0.000056
0.000362
0.000394
0.000322
0.000271
0.000225
0.000236
0.000221
0.000253
0.000259
0.000257
0.000242
0.000262
0.000298
0.000490
0.000367
0.000316
0.000371
0.000199
0.000252
0.000258
0.000269
0.000282
0.000247
0.000267
0.000270
0.000265
0.000390
0.000503
0.000374
0.000364
0.000144
0.000056
0.000206
0.000238
0.001253
0.000455
0.000274
0.000448
0.000400
0.000474
0.000270
0.000344
0.000218
0.000244
0.000256
0.000253
0.000249
0.000268
0.000516
0.000409
0.000303
0.000373
0.000266
0.000237
0.000268
0.000506
0.000226
0.000268
0.000252
0.000276
0.000275
0.000619
0.000258
0.000056
0.000382
0.000311
0.000241
0.001383
0.000477
0.000372
0.000341
0.000215
0.000252
0.000265
0.000215
0.000240
0.000245
0.000270
0.000247
0.000261
0.000240
0.000325
0.000398
0.000352
0.000435
0.000248
0.000254
0.000265
0.000251
0.000276
0.000269
0.000240
0.000262
0.000275
0.000227
0.000058
0.000378
0.000327
0.000212
0.000243
0.000254
0.000247
0.000251
0.000247
0.000243
0.000229
0.001367
0.000486
0.000278
0.000249
0.000238
0.000259
0.000270
0.000258
0.000239
0.000302
0.000244
0.000248
0.000264
0.000459
0.000345
0.000493
0.000223
0.000264
0.000280
0.000295
0.000157
0.000056
0.000211
0.000418
0.000217
0.000238
0.000329
0.000461
0.000375
0.000313
0.000460
0.000204
0.000236
0.000252
0.000264
0.000263
0.000251
0.001390
0.000396
0.000291
0.000229
0.000271
0.000299
0.000252
0.000236
0.000249
0.000263
0.000265
0.000417
0.000482
0.000291
0.000280
0.000154
0.000056
0.000199
0.000246
0.000253
0.000258
0.000213
0.000256
0.000237
0.000251
0.000295
0.000380
0.000440
0.000287
0.000214
0.000261
0.000244
0.000279
0.000266
0.000260
0.000267
0.000228
0.000255
0.000352
0.001212
0.000248
0.000282
0.000235
0.000260
0.000265
0.000261
0.000283
0.000166
0.000057
0.000235
0.000323
0.000358
0.000339
0.000283
0.000212
0.000263
0.000289
0.000236
0.000265
0.000242
0.000261
0.000247
0.000246
0.000271
0.000253
0.000261
0.000273
0.000262
0.000248
0.000253
0.000274
0.000264
0.000282
0.000283
0.000268
0.000265
0.000267
0.000253
0.000454
0.001354
0.000055
0.000226
0.000252
0.000222
0.000263
0.000232
0.000262
0.000245
0.000226
0.000250
0.000251
0.000303
0.000230
0.000245
0.000244
0.000273
0.000240
0.001719
0.000253
0.000235
0.000265
0.000255
0.000250
0.000277
0.000252
0.000304
0.000229
0.000266
0.000283
0.000264
0.000253
0.000223
0.000056
0.000324
0.000329
0.001308
0.000232
0.000225
0.000251
0.000258
0.000250
0.000274
0.000242
0.000233
0.000329
0.000409
0.000442
0.000273
0.000240
0.000245
0.000259
0.000255
0.000266
0.000242
0.000283
0.000257
0.000281
0.000263
0.000399
0.000371
0.000349
0.000326
0.000235
0.000193
0.000056
0.000218
0.000243
0.000246
0.000242
0.000283
0.000197
0.000238
0.000263
0.000408
0.001339
0.000269
0.000216
0.000244
0.000272
0.000263
0.000284
0.000234
0.000251
0.000328
0.000455
0.000355
0.000231
0.000243
0.000243
0.000297
0.000262
0.000265
0.000295
0.000270
0.000273
0.000194
0.000057
0.000223
0.000433
0.000401
0.000216
0.000230
0.000241
0.000247
0.000279
0.000261
0.000247
0.000231
0.000251
0.000448
0.000505
0.000460
0.001459
0.000253
0.000259
0.000363
0.000348
0.000466
0.000404
0.000611
0.000250
0.000242
0.000265
0.000264
0.000278
0.000258
0.000277
0.000190
0.000055
0.000229
0.000271
0.000439
0.000481
0.000334
0.000238
0.000252
0.000238
0.000239
0.000276
0.000230
0.000269
0.000276
0.000234
0.000259
0.000303
0.000339
0.000479
0.001366
0.000341
0.000219
0.000253
0.000254
0.000266
0.000451
0.000430
0.000386
0.000269
0.000267
0.000273
0.000190
0.000055
0.000197
0.000243
0.000243
0.000268
0.000226
0.000306
0.000419
0.000378
0.000385
0.000211
0.000250
0.000254
0.000268
0.000291
0.000236
0.000257
0.000260
0.000259
0.000284
0.000259
0.000493
0.000393
0.000327
0.001391
0.000366
0.000242
0.000267
0.000438
0.000454
0.000318
0.000310
0.000058
0.000194
0.000236
0.000247
0.000244
0.000254
0.000258
0.001692
0.000233
0.000220
0.000231
0.000255
0.000249
0.000256
0.000320
0.000329
0.000289
0.000270
0.000278
0.000501
0.000427
0.000310
0.000286
0.000239
0.000245
0.001494
0.000368
0.000382
0.000451
0.000356
0.000284
0.000177
0.000056
0.000208
0.000248
0.000261
0.000256
0.000239
0.000272
0.001695
0.000229
0.000256
0.000256
0.000330
0.000401
0.001448
0.000368
0.000392
0.000246
0.000248
0.000237
0.000259
0.000283
0.001646
0.000441
0.000398
0.000307
0.000227
0.000256
0.000262
0.000282
0.000244
0.000252
0.000199
0.000056
0.000212
0.000243
0.000268
0.000253
0.000257
0.000273
0.000275
0.000256
0.000258
0.000246
0.000255
0.000245
0.000296
0.000237
0.000271
0.001477
0.000279
0.000236
0.000268
0.000270
0.000274
0.000261
0.000423
0.001274
0.000275
0.000235
0.000270
0.000259
0.000397
0.000242
0.000201
0.000057
0.000218
0.000254
0.000220
0.000243
0.000243
0.000230
0.000234
0.001684
0.000267
0.000222
0.000358
0.000287
0.000215
0.000216
0.000250
0.001382
0.000244
0.000269
0.000255
0.000256
0.000255
0.000346
0.000297
0.001300
0.000287
0.000225
0.000257
0.000267
0.001391
0.000272
0.000214
0.000056
0.000242
0.000326
0.000212
0.000240
0.000266
0.000228
0.000284
0.000247
0.000281
0.000231
0.000261
0.000263
0.000261
0.000237
0.000296
0.001541
0.000228
0.000269
0.000246
0.000247
0.000311
0.000246
0.000243
0.001517
0.000340
0.000234
0.000264
0.001279
0.000262
0.000250
0.000273
0.000056
0.000217
0.000425
0.000306
0.000212
0.000235
0.000246
0.000279
0.000237
0.000264
0.000269
0.000237
0.000257
0.000260
0.000262
0.000418
0.001231
0.000228
0.000257
0.000266
0.000271
0.000228
0.000245
0.000251
0.000418
0.001200
0.000247
0.000243
0.000258
0.000252
0.001339
0.000284
0.000057
0.000334
0.000231
0.000222
0.000240
0.000236
0.000252
0.000252
0.000296
0.000245
0.000235
0.000243
0.000248
0.000276
0.000277
0.000453
0.001452
0.000217
0.000260
0.000292
0.000514
0.000281
0.001483
0.000334
0.000240
0.000231
0.000263
0.000251
0.001306
0.000295
0.000492
0.000345
0.000055
0.000238
0.000255
0.000248
0.000262
0.000271
0.000238
0.000281
0.000253
0.000240
0.000258
0.000340
0.000469
0.001303
0.000240
0.000283
0.000259
0.000296
0.000202
0.000245
0.000253
0.000320
0.001255
0.000257
0.000244
0.000255
0.000247
0.001544
0.000368
0.000510
0.000221
0.000190
0.000059
0.000201
0.000233
0.000251
0.000245
0.000247
0.000263
0.000240
0.000246
0.000659
0.000269
0.000263
0.001496
0.000217
0.000240
0.000268
0.000271
0.000255
0.000305
0.001665
0.000246
0.000388
0.000344
0.001279
0.000365
0.000305
0.000325
0.000254
0.000256
0.000263
0.000271
0.000195
0.000056
0.000206
0.000239
0.000320
0.000260
0.000302
0.000591
0.000242
0.000293
0.001465
0.000230
0.000394
0.000258
0.000276
0.000292
0.000348
0.001327
0.000259
0.000252
0.000250
0.000262
0.001513
0.000387
0.000267
0.000282
0.000272
0.000242
0.000450
0.000328
0.000246
0.000248
0.000268
0.000057
0.000206
0.000368
0.000345
0.000258
0.000221
0.001514
0.000222
0.000251
0.000271
0.000283
0.000252
0.000248
0.000262
0.001522
0.000251
0.000233
0.000428
0.001193
0.000334
0.000449
0.000395
0.000251
0.000235
0.000256
0.000297
0.000218
0.000454
0.000227
0.000264
0.000284
0.000200
0.000056
0.000225
0.000277
0.000355
0.000313
0.001328
0.000272
0.000337
0.000241
0.000208
0.000246
0.000251
0.000301
0.001511
0.000258
0.000227
0.000252
0.001392
0.000309
0.000368
0.000431
0.000398
0.000234
0.000252
0.000254
0.000265
0.000279
0.000264
0.000279
0.000252
0.000244
0.000210
0.000056
0.000245
0.000440
0.001366
0.000206
0.000296
0.000286
0.000215
0.000244
0.000283
0.000341
0.001406
0.000223
0.000261
0.000261
0.000254
0.001254
0.000701
0.000299
0.000323
0.000412
0.000307
0.000244
0.000269
0.000257
0.000271
0.000301
0.000255
0.000345
0.000401
0.000416
0.001373
0.000056
0.000233
0.000249
0.000218
0.000253
0.000225
0.000401
0.000478
0.001306
0.000251
0.000234
0.000253
0.001425
0.000401
0.000385
0.000208
0.000418
0.000242
0.000250
0.000259
0.000289
0.000255
0.000252
0.000277
0.000254
0.000257
0.000287
0.000420
0.000518
0.001462
0.000233
0.000206
0.000056
0.000234
0.000237
0.000393
0.001497
0.000309
0.000236
0.000235
0.000253
0.000249
0.000249
0.000253
0.000296
0.000336
0.000551
0.000272
0.000241
0.000250
0.000271
0.000251
0.000306
0.000233
0.000259
0.000261
0.000264
0.000277
0.000330
0.000502
0.000344
0.000335
0.001453
0.000137
0.000056
0.000213
0.000239
0.000275
0.000466
0.000327
0.000302
0.000327
0.000336
0.000299
0.000246
0.000239
0.000261
0.000256
0.000306
0.000238
0.000319
0.000532
0.000312
0.000288
0.000394
0.000270
0.000405
0.000244
0.000242
0.000251
0.000256
0.000273
0.000295
0.000376
0.000484
0.000256
0.000056
0.000191
0.001412
0.000221
0.000334
0.000410
0.000434
0.000359
0.000332
0.000218
0.000232
0.000266
0.000246
0.000286
0.000278
0.000237
0.000252
0.000260
0.001272
0.000343
0.000256
0.000258
0.000273
0.000265
0.000277
0.000273
0.000254
0.000275
0.000250
0.000338
0.000429
0.000269
0.000057
0.000199
0.000240
0.000236
0.001534
0.000297
0.000235
0.000239
0.000242
0.000227
0.000240
0.000262
0.000282
0.000240
0.000250
0.000301
0.000226
0.000247
0.000267
0.000254
0.000258
0.001444
0.000224
0.000253
0.000267
0.000254
0.000251
0.000270
0.000258
0.000280
0.000493
0.000345
0.000055
0.000210
0.000226
0.000404
0.000278
0.000235
0.000263
0.001540
0.000368
0.000254
0.000226
0.000258
0.000325
0.000323
0.000227
0.000229
0.000247
0.000247
0.000270
0.000258
0.000256
0.000480
0.000495
0.001134
0.000276
0.000235
0.000262
0.000262
0.000258
0.000308
0.000228
0.000392
0.000056
0.000249
0.000341
0.000203
0.000229
0.000260
0.000231
0.000248
0.000235
0.000284
0.001650
0.000332
0.000299
0.000225
0.000250
0.000250
0.000249
0.000258
0.000279
0.000263
0.000312
0.000305
0.000630
0.000297
0.001377
0.000230
0.000281
0.000251
0.000264
0.000267
0.000289
0.000460
0.000056
0.000259
0.000248
0.000232
0.000218
0.000225
0.000242
0.000263
0.000280
0.000251
0.001573
0.000363
0.000258
0.000253
0.000241
0.000471
0.000251
0.000549
0.000368
0.000272
0.000272
0.000511
0.000460
0.001277
0.000260
0.000234
0.000255
0.001741
0.000420
0.000666
0.000264
0.000152
0.000055
0.000205
0.000228
0.000235
0.000237
0.000281
0.000217
0.000252
0.000492
0.000515
0.000412
0.000287
0.000214
0.000245
0.000263
0.000278
0.000275
0.000232
0.000241
0.000254
0.000292
0.000293
0.000367
0.001352
0.000228
0.000261
0.000260
0.001936
0.000346
0.000394
0.000329
0.000161
0.000056
0.000197
0.000233
0.000247
0.001643
0.000338
0.000221
0.000236
0.000265
0.000252
0.000274
0.000376
0.000368
0.000366
0.000277
0.000286
0.000534
0.000388
0.001200
0.000278
0.000236
0.000253
0.000256
0.000275
0.000401
0.000563
0.000511
0.000258
0.000285
0.000243
0.000281
0.000197
0.000055
0.000204
0.000233
0.000239
0.001576
0.000221
0.000231
0.000259
0.000233
0.000246
0.000250
0.000257
0.000270
0.000267
0.000275
0.000247
0.000390
0.000448
0.000314
0.001408
0.000234
0.000250
0.000257
0.000261
0.000265
0.000349
0.000483
0.000471
0.000265
0.000296
0.000246
0.000419
0.000057
0.000215
0.000235
0.000271
0.001529
0.000298
0.000214
0.000272
0.000251
0.000238
0.000259
0.000252
0.000284
0.000232
0.000260
0.000393
0.000727
0.001178
0.000751
0.000252
0.000343
0.000245
0.000239
0.000243
0.000273
0.001682
0.000817
0.000223
0.000261
0.000275
0.000285
0.000189
0.000056
0.000218
0.000235
0.000250
0.000248
0.000278
0.000252
0.000212
0.000249
0.000245
0.000246
0.000280
0.000292
0.000239
0.000252
0.000264
0.000241
0.000272
0.001609
0.000694
0.000357
0.000326
0.000236
0.000246
0.000313
0.000248
0.000250
0.000273
0.000250
0.001432
0.000357
0.000341
0.000056
0.000210
0.000217
0.000268
0.000232
0.000260
0.000232
0.000289
0.000218
0.000261
0.000248
0.000270
0.000432
0.000438
0.000329
0.000217
0.000245
0.000263
0.001393
0.000707
0.000443
0.000381
0.000243
0.000228
0.000250
0.000276
0.000257
0.000249
0.000266
0.001481
0.000394
0.000237
0.000055
0.000226
0.000225
0.000250
0.000248
0.000248
0.000247
0.000251
0.000252
0.000259
0.000268
0.000322
0.000474
0.000272
0.000224
0.000241
0.000246
0.000267
0.000255
0.001586
0.000605
0.000484
0.000304
0.000240
0.000249
0.000255
0.000265
0.000268
0.000275
0.000266
0.001351
0.000333
0.000056
0.000206
0.000227
0.000236
0.000255
0.000259
0.000245
0.000247
0.000302
0.000369
0.000458
0.000393
0.000346
0.000367
0.000210
0.000242
0.000253
0.000301
0.000242
0.000259
0.001940
0.000307
0.000247
0.000440
0.000237
0.000258
0.000261
0.000271
0.000262
0.000266
0.000273
0.000398
0.000056
0.000199
0.000275
0.000224
0.000242
0.000250
0.000250
0.000224
0.000242
0.000292
0.000245
0.000227
0.000239
0.000396
0.000393
0.000415
0.000441
0.000220
0.000264
0.000250
0.000252
0.000251
0.000285
0.001484
0.001042
0.000228
0.000247
0.000270
0.000265
0.000274
0.000249
0.000203
0.000055
0.000206
0.001342
0.000288
0.000220
0.000231
0.000252
0.000254
0.000233
0.000249
0.000260
0.000243
0.000265
0.000241
0.000385
0.000375
0.000449
0.000268
0.000250
0.000264
0.000269
0.000277
0.000221
0.000251
0.000272
0.001365
0.000636
0.000312
0.000381
0.000376
0.000402
0.000294
0.000056
0.000202
0.000235
0.000549
0.001135
0.000209
0.000256
0.000231
0.000259
0.000250
0.000259
0.000264
0.000231
0.000267
0.000352
0.000558
0.000318
0.000221
0.000282
0.000324
0.000220
0.000248
0.000272
0.000233
0.000269
0.000274
0.001525
0.000754
0.000318
0.000256
0.000270
0.000197
0.000056
0.000215
0.000292
0.000429
0.000442
0.001179
0.000257
0.000219
0.000249
0.000231
0.000245
0.000248
0.000260
0.000231
0.000235
0.000250
0.000262
0.000266
0.000252
0.000242
0.000253
0.000270
0.000268
0.000311
0.000327
0.000213
0.000266
0.000270
0.001455
0.000254
0.000249
0.000180
0.000056
0.000199
0.000233
0.000255
0.000275
0.000334
0.000374
0.000394
0.000281
0.001581
0.000229
0.000342
0.000561
0.000219
0.000254
0.000430
0.000234
0.000242
0.000277
0.000259
0.000265
0.000281
0.000268
0.000258
0.000267
0.000277
0.000377
0.000388
0.000340
0.001587
0.000229
0.000191
0.000055
0.000236
0.000239
0.000245
0.000252
0.000239
0.000259
0.000247
0.000317
0.000420
0.002010
0.000236
0.000250
0.000252
0.000278
0.000245
0.000257
0.000270
0.000241
0.000282
0.000440
0.000339
0.000469
0.001454
0.000218
0.000252
0.002011
0.000293
0.000239
0.000259
0.001521
0.000162
0.000055
0.000470
0.000278
0.000464
0.000242
0.000280
0.000209
0.000261
0.000296
0.000242
0.000219
0.000256
0.000413
0.000332
0.000343
0.000463
0.000213
0.000236
0.001566
0.000240
0.000544
0.001902
0.000304
0.000226
0.001613
0.001954
0.000733
0.000283
0.000249
0.000297
0.000506
0.000296
0.000056
0.000210
0.000229
0.000282
0.000218
0.001431
0.001724
0.001070
0.000205
0.000237
0.001590
0.001970
0.000217
0.000238
0.000426
0.000316
0.000318
0.000408
0.000512
0.000217
0.000232
0.000252
0.000257
0.000271
0.001699
0.001097
0.001423
0.000297
0.000269
0.000259
0.000319
0.000338
0.000056
0.000168
0.000238
0.000239
0.000240
0.000227
0.000269
0.000230
0.000255
0.000256
0.000240
0.000262
0.000312
0.000449
0.000447
0.000266
0.000261
0.000251
0.000268
0.000271
0.000281
0.000238
0.000260
0.001508
0.000476
0.002125
0.000237
0.000252
0.000311
0.000480
0.000369
0.000209
0.000056
0.000247
0.000318
0.000486
0.000306
0.000218
0.000219
0.000252
0.000244
0.000238
0.000244
0.000246
0.000263
0.000262
0.001613
0.001343
0.001242
0.000288
0.000213
0.000246
0.000271
0.000303
0.000260
0.000237
0.000260
0.002196
0.000253
0.000258
0.000297
0.000326
0.000306
0.000237
0.000056
0.000222
0.000366
0.000555
0.000326
0.000234
0.000220
0.000249
0.000272
0.001907
0.001408
0.000224
0.000319
0.000385
0.000448
0.000233
0.000237
0.000241
0.000269
0.000263
0.000271
0.000259
0.000260
0.000475
0.000233
0.000268
0.000268
0.000253
0.000272
0.000281
0.000249
0.000199
0.000056
0.000222
0.000245
0.000243
0.000241
0.000281
0.000251
0.001539
0.001414
0.001328
0.000235
0.000236
0.000238
0.000267
0.000264
0.000244
0.000274
0.000237
0.002080
0.000269
0.000230
0.000269
0.000263
0.000253
0.000274
0.000258
0.000267
0.000260
0.000258
0.000274
0.000246
0.000185
0.000055
0.000202
0.002679
0.001400
0.000220
0.000306
0.000320
0.000216
0.000304
0.000212
0.000237
0.000251
0.000252
0.000231
0.000248
0.000267
0.000260
0.000265
0.000267
0.000265
0.000257
0.000287
0.000263
0.000271
0.000263
0.000245
0.000247
0.000267
0.000274
0.000257
0.000271
0.000365
0.000055
0.001560
0.000253
0.001234
0.000239
0.000221
0.000237
0.000283
0.000254
0.000223
0.000295
0.000435
0.000286
0.000342
0.000232
0.000240
0.002155
0.000241
0.000240
0.000268
0.000531
0.000334
0.000309
0.000233
0.000254
0.000261
0.000250
0.000266
0.000276
0.000272
0.001601
0.001268
0.000056
0.000204
0.000236
0.000314
0.000388
0.000380
0.000240
0.000222
0.000231
0.000255
0.000253
0.000266
0.000244
0.000228
0.000259
0.000260
0.000240
0.000312
0.000619
0.000370
0.000235
0.000244
0.000272
0.000276
0.000247
0.000252
0.000250
0.000266
0.000272
0.000243
0.000559
0.000142
0.000057
0.001111
0.000281
0.000423
0.000384
0.000232
0.000224
0.000232
0.000239
0.000251
0.002342
0.000328
0.000385
0.000221
0.000372
0.000309
0.000256
0.000237
0.000259
0.000266
0.000226
0.000253
0.000335
0.000693
0.000316
0.001850
0.001307
0.000511
0.000562
0.000229
0.000287
0.000194
0.000055
0.000246
0.000374
0.000239
0.000237
0.000248
0.000225
0.000255
0.000251
0.000254
0.000251
0.000255
0.000223
0.000254
0.000276
0.000362
0.000491
0.001861
0.001321
0.000476
0.000439
0.000456
0.000222
0.000236
0.000261
0.002126
0.000551
0.000397
0.000243
0.000253
0.000285
0.000190
0.000055
0.000215
0.000243
0.000255
0.000247
0.000241
0.000316
0.000439
0.000321
0.000317
0.000220
0.000238
0.000252
0.000264
0.002105
0.000366
0.000389
0.000221
0.000268
0.000264
0.000240
0.000248
0.002452
0.000343
0.000219
0.000271
0.000250
0.000254
0.000281
0.000304
0.000250
0.000194
0.000058
0.000197
0.000304
0.000654
0.000301
0.000268
0.000215
0.000229
0.000252
0.000263
0.000251
0.001982
0.000359
0.000279
0.000265
0.000259
0.000252
0.000270
0.000248
0.002202
0.000449
0.000223
0.000270
0.000265
0.000255
0.000263
0.000251
0.000300
0.000230
0.000272
0.000254
0.000187
0.000057
0.000216
0.000237
0.000247
0.000222
0.000248
0.000258
0.000241
0.000242
0.000229
0.002183
0.000246
0.000266
0.000229
0.000427
0.000216
0.000251
0.000305
0.000268
0.000249
0.000250
0.001958
0.000281
0.000341
0.000364
0.000431
0.000411
0.000299
0.000257
0.000251
0.000266
0.000193
0.000055
0.000207
0.000276
0.000204
0.000249
0.000249
0.000323
0.000219
0.002302
0.000249
0.000239
0.000255
0.000257
0.000216
0.000280
0.000280
0.002124
0.000587
0.000220
0.000256
0.000245
0.000260
0.000260
0.000287
0.000264
0.000258
0.000259
0.000289
0.000249
0.000265
0.000270
0.000193
0.000056
0.001835
0.001415
0.000217
0.000223
0.000241
0.000262
0.000242
0.000298
0.000370
0.000377
0.002149
0.000265
0.000223
0.000274
0.000263
0.000492
0.000431
0.000301
0.000218
0.000256
0.000249
0.000266
0.000267
0.000226
0.000257
0.000261
0.000271
0.000271
0.000343
0.000619
0.000329
0.000057
0.000205
0.000258
0.000239
0.000256
0.000266
0.000244
0.000252
0.000245
0.001498
0.002102
0.000582
0.000269
0.000417
0.000683
0.000356
0.000239
0.000251
0.000249
0.000268
0.000258
0.000259
0.000240
0.000265
0.000261
0.003006
0.000332
0.000240
0.000264
0.000285
0.000271
0.000414
0.000057
0.001926
0.000238
0.000224
0.000245
0.000288
0.000354
0.000445
0.000314
0.000289
0.000217
0.000244
0.000249
0.000256
0.000259
0.000271
0.000243
0.000255
0.000295
0.001814
0.000241
0.000238
0.000255
0.000268
0.000280
0.000275
0.000245
0.001476
0.000335
0.000248
0.000256
0.000182
0.000055
0.000206
0.000227
0.000256
0.000223
0.000255
0.000238
0.000295
0.000369
0.000325
0.000410
0.000217
0.000234
0.000258
0.000329
0.000419
0.000321
0.000235
0.000238
0.000269
0.000420
0.000472
0.000365
0.000257
0.000262
0.000258
0.000252
0.000261
0.000270
0.000271
0.000267
0.000203
0.000056
0.001450
0.000456
0.000204
0.001930
0.000288
0.000442
0.000410
0.000316
0.000230
0.000249
0.000260
0.000246
0.000244
0.000245
0.000268
0.000257
0.000448
0.000358
0.000319
0.000377
0.000371
0.000227
0.000261
0.000268
0.000269
0.000270
0.000261
0.000264
0.000388
0.000412
0.001401
0.000056
0.000214
0.000226
0.002084
0.000306
0.000327
0.000229
0.000256
0.000251
0.000262
0.000257
0.000213
0.000256
0.000257
0.000265
0.000294
0.000319
0.000715
0.001764
0.000224
0.000250
0.000254
0.000262
0.000404
0.000376
0.001610
0.000293
0.000365
0.001919
0.000259
0.000278
0.000177
0.000056
0.000216
0.000222
0.000237
0.000245
0.000229
0.000249
0.000255
0.000298
0.000313
0.000264
0.000377
0.000362
0.000352
0.000283
0.000244
0.000272
0.000267
0.000235
0.000266
0.000252
0.000315
0.000274
0.000263
0.000268
0.000266
0.001506
0.000292
0.000386
0.002069
0.000242
0.000191
0.000058
0.000185
0.000231
0.000237
0.000249
0.000486
0.000213
0.000248
0.000344
0.000350
0.000334
0.000282
0.000216
0.000286
0.000243
0.000268
0.000328
0.000431
0.000421
0.000262
0.000416
0.000562
0.000410
0.001566
0.000227
0.000245
0.001982
0.000348
0.000229
0.000251
0.000289
0.000195
0.000056
0.000186
0.000239
0.000230
0.000245
0.000249
0.000275
0.000247
0.000272
0.000254
0.000262
0.001809
0.000307
0.000385
0.000285
0.000463
0.000375
0.000352
0.001494
0.000253
0.000263
0.002144
0.000538
0.000270
0.000250
0.000245
0.000272
0.000500
0.000223
0.000260
0.000276
0.000200
0.000055
0.000200
0.000359
0.000388
0.000261
0.000204
0.000248
0.000256
0.000253
0.000266
0.000282
0.000235
0.000252
0.000261
0.000270
0.000321
0.000506
0.001286
0.000268
0.000279
0.002006
0.000273
0.000292
0.000230
0.000262
0.000247
0.000285
0.000261
0.000267
0.000241
0.000269
0.000206
0.000056
0.000249
0.000394
0.002046
0.000247
0.000224
0.000252
0.000253
0.000301
0.000403
0.000484
0.001281
0.000373
0.000359
0.002077
0.000220
0.000235
0.000264
0.000278
0.000255
0.000241
0.000288
0.000298
0.000252
0.000617
0.000255
0.000317
0.000337
0.002223
0.000552
0.000405
0.000406
0.000056
0.000195
0.000229
0.000242
0.001964
0.000242
0.000221
0.000246
0.000241
0.000241
0.000256
0.000251
0.000258
0.000261
0.000317
0.000394
0.001466
0.000255
0.000235
0.000271
0.000266
0.000233
0.000249
0.000262
0.000279
0.000333
0.000505
0.000406
0.000233
0.001598
0.000279
0.000156
0.000057
0.000204
0.000245
0.000229
0.000233
0.000265
0.000262
0.000233
0.000243
0.000259
0.000424
0.000300
0.001424
0.000240
0.000232
0.000245
0.000290
0.000226
0.000254
0.000300
0.000475
0.000416
0.000437
0.000230
0.001569
0.000231
0.000266
0.000287
0.000279
0.000263
0.000268
0.000197
0.000056
0.000201
0.000251
0.000273
0.000246
0.000247
0.000238
0.000238
0.000248
0.000273
0.000229
0.000249
0.000254
0.000263
0.001475
0.000367
0.000206
0.000275
0.000238
0.000274
0.000320
0.000362
0.000277
0.000244
0.000259
0.000267
0.000271
0.000252
0.001401
0.000295
0.000236
0.000166
0.000056
0.000190
0.000232
0.000259
0.000263
0.000270
0.000216
0.000269
0.000238
0.000230
0.000256
0.000248
0.000256
0.000231
0.000295
0.000410
0.000316
0.000280
0.000234
0.001629
0.000250
0.000235
0.000263
0.000264
0.000297
0.000371
0.000378
0.000460
0.000259
0.000252
0.001616
0.000162
0.000056
0.000212
0.000305
0.000343
0.000327
0.000228
0.000220
0.000245
0.000273
0.000252
0.000260
0.000220
0.000241
0.001511
0.000233
0.000320
0.000226
0.000243
0.000273
0.000252
0.000281
0.000237
0.000239
0.000259
0.000268
0.000266
0.000342
0.000514
0.000343
0.000255
0.000249
0.000193
0.000057
0.000205
0.000274
0.000492
0.000241
0.000376
0.000284
0.000249
0.000246
0.000251
0.000261
0.000245
0.000225
0.000255
0.000241
0.001293
0.000268
0.000237
0.000243
0.000269
0.000265
0.000239
0.000264
0.000258
0.000263
0.000255
0.000256
0.000321
0.000750
0.000382
0.000244
0.000168
0.000055
0.000211
0.001561
0.000222
0.000328
0.000470
0.000395
0.000211
0.000253
0.000273
0.000248
0.000241
0.000261
0.000279
0.000264
0.000256
0.001529
0.000258
0.000277
0.000267
0.000259
0.000269
0.000243
0.000264
0.000256
0.000262
0.000307
0.000385
0.000370
0.000384
0.000227
0.000188
0.000055
0.000202
0.000251
0.000252
0.001599
0.000412
0.000350
0.000227
0.000239
0.000256
0.000267
0.000283
0.000251
0.000254
0.000257
0.000249
0.000254
0.000390
0.001331
0.000256
0.000232
0.001515
0.000329
0.000568
0.000360
0.000342
0.000235
0.000266
0.000472
0.000229
0.000266
0.000184
0.000056
0.000265
0.000220
0.000240
0.000248
0.000247
0.000276
0.000222
0.000255
0.000250
0.000258
0.000242
0.000257
0.000338
0.000546
0.001592
0.001494
0.000355
0.000531
0.000346
0.000226
0.000229
0.000259
0.000248
0.000271
0.000246
0.000268
0.000258
0.000261
0.001528
0.000334
0.000187
0.000056
0.000225
0.000347
0.000350
0.000335
0.000245
0.000229
0.000241
0.000302
0.000482
0.000364
0.002179
0.000311
0.000713
0.000575
0.000383
0.000258
0.000334
0.000395
0.000328
0.000279
0.000390
0.000273
0.001538
0.000526
0.000223
0.000257
0.000260
0.000250
0.000260
0.000267
0.000203
0.000056
0.000218
0.000251
0.000254
0.000252
0.000244
0.001661
0.000877
0.001000
0.000212
0.000231
0.000273
0.000254
0.000251
0.000257
0.000254
0.000251
0.000256
0.000261
0.000268
0.000282
0.001449
0.000296
0.000250
0.000230
0.000232
0.000261
0.000260
0.000285
0.000263
0.000285
0.001902
0.000057
0.000189
0.000236
0.001545
0.000856
0.000380
0.000356
0.000254
0.000223
0.000249
0.000256
0.000258
0.000238
0.000249
0.001975
0.000478
0.000222
0.000241
0.000262
0.000264
0.000259
0.000195
