0.000310
0.020730
0.000550
0.000355
0.000261
0.000293
0.000326
0.000226
0.000331
0.000281
0.000257
0.000332
0.000560
0.000445
0.000336
0.000400
0.000271
0.000340
0.000355
0.000415
0.001833
0.000367
0.000739
0.000269
0.000244
0.000303
0.000315
0.000310
0.000425
0.000388
0.000501
0.000290
0.000057
0.000207
0.000271
0.000269
0.000288
0.000249
0.000247
0.000284
0.000285
0.000268
0.000276
0.000455
0.000395
0.000310
0.000260
0.000376
0.000350
0.000365
0.000249
0.000269
0.001688
0.000310
0.000253
0.000452
0.000257
0.000268
0.000280
0.000285
0.000297
0.000278
0.000319
0.000449
0.000057
0.000199
0.000245
0.000264
0.000258
0.000250
0.000248
0.000264
0.000258
0.000284
0.001669
0.000226
0.000232
0.000275
0.000270
0.000278
0.000252
0.000264
0.000252
0.000355
0.001789
0.000241
0.000280
0.000446
0.000429
0.000388
0.000243
0.000270
0.000484
0.000442
0.000800
0.000198
0.000056
0.000228
0.000250
0.000252
0.000238
0.000291
0.000257
0.000274
0.000587
0.000413
0.000240
0.000245
0.000248
0.000241
0.000255
0.000263
0.000251
0.000267
0.000241
0.000302
0.000314
0.001673
0.000276
0.000248
0.000432
0.000628
0.000390
0.000776
0.000383
0.000350
0.000243
0.000190
0.000057
0.000199
0.000252
0.000294
0.000211
0.000287
0.000230
0.000304
0.000377
0.001513
0.000215
0.000251
0.000246
0.000256
0.000260
0.000257
0.000285
0.000253
0.000862
0.001354
0.000299
0.000241
0.000411
0.000242
0.000247
0.000260
0.000260
0.000272
0.000259
0.000262
0.000268
0.000196
0.000057
0.000215
0.000247
0.000245
0.000262
0.000236
0.000250
0.000234
0.000254
0.000235
0.000260
0.001629
0.000267
0.000229
0.000249
0.000253
0.000248
0.000246
0.000249
0.000258
0.000251
0.000311
0.001618
0.000283
0.000257
0.000439
0.000251
0.000254
0.000265
0.000260
0.000263
0.000200
0.000057
0.000192
0.000234
0.000254
0.000245
0.000242
0.000245
0.000259
0.000239
0.000262
0.000262
0.000247
0.000259
0.000253
0.000277
0.001636
0.000279
0.000286
0.000213
0.000264
0.000273
0.000269
0.000232
0.000249
0.000260
0.001785
0.000400
0.000339
0.000374
0.000239
0.000278
0.000197
0.000056
0.000221
0.000218
0.000250
0.000274
0.000250
0.000259
0.000250
0.000422
0.000371
0.000468
0.000208
0.000244
0.000257
0.000251
0.001562
0.000535
0.000319
0.000410
0.000309
0.000237
0.000264
0.000284
0.000289
0.001962
0.000241
0.000491
0.000242
0.000245
0.000255
0.000267
0.000185
0.000057
0.000190
0.000237
0.000258
0.000257
0.000337
0.000430
0.000382
0.000291
0.000216
0.000245
0.000267
0.000233
0.000255
0.001698
0.000496
0.000297
0.000227
0.000247
0.000272
0.000295
0.000244
0.000256
0.001801
0.000412
0.000258
0.000378
0.000249
0.000261
0.000269
0.000392
0.000329
0.000057
0.000208
0.000380
0.000398
0.000241
0.000254
0.000251
0.000248
0.000260
0.000238
0.000233
0.000239
0.000252
0.001542
0.000379
0.000284
0.000237
0.000256
0.000252
0.000250
0.000302
0.000255
0.000325
0.000246
0.001812
0.000254
0.000526
0.000216
0.000252
0.000253
0.000272
0.000298
0.000056
0.000364
0.000543
0.000615
0.000209
0.000234
0.000273
0.000229
0.000220
0.000260
0.000252
0.000255
0.001693
0.000249
0.000446
0.000369
0.000213
0.000252
0.000229
0.000249
0.000259
0.000259
0.001854
0.000225
0.000482
0.001849
0.000521
0.000364
0.000248
0.000255
0.000265
0.000187
0.000056
0.000219
0.000239
0.000247
0.000240
0.000254
0.001624
0.000254
0.000231
0.000253
0.000247
0.000244
0.000256
0.000243
0.000251
0.000278
0.000413
0.000623
0.000249
0.000242
0.000270
0.000291
0.000220
0.000246
0.000460
0.000410
0.000258
0.000314
0.000637
0.000392
0.000264
0.000209
0.000056
0.000181
0.000236
0.000249
0.000256
0.000244
0.000234
0.000241
0.000374
0.001869
0.000325
0.000202
0.000236
0.000248
0.000244
0.000262
0.000265
0.000434
0.000479
0.000354
0.000252
0.000248
0.000297
0.000282
0.000254
0.000276
0.000433
0.000338
0.000599
0.000399
0.000526
0.000174
0.000056
0.000188
0.000257
0.000245
0.000239
0.000231
0.000242
0.000248
0.000256
0.000229
0.000281
0.000338
0.000459
0.001379
0.000236
0.000244
0.000246
0.000261
0.000242
0.000256
0.000245
0.000282
0.000489
0.000363
0.000276
0.000271
0.000254
0.000259
0.000271
0.000261
0.000263
0.000380
0.000055
0.000218
0.000239
0.000228
0.000264
0.000531
0.000453
0.000225
0.000254
0.000239
0.000256
0.000261
0.000225
0.000298
0.000248
0.000243
0.000493
0.000425
0.001615
0.000287
0.000230
0.000270
0.000250
0.000256
0.000241
0.000269
0.000438
0.000486
0.000323
0.000419
0.000254
0.000188
0.000056
0.000219
0.000438
0.000231
0.000220
0.000283
0.000224
0.000306
0.000544
0.000333
0.000351
0.000208
0.000273
0.000254
0.000247
0.000516
0.000337
0.000235
0.000251
0.000382
0.001649
0.000301
0.000219
0.000516
0.000248
0.000282
0.000275
0.000253
0.000276
0.000624
0.000376
0.000260
0.000055
0.000215
0.000237
0.000239
0.000239
0.000419
0.000308
0.000288
0.000223
0.000402
0.000441
0.000415
0.000262
0.000231
0.000237
0.000259
0.000268
0.000253
0.000253
0.000235
0.000344
0.000291
0.000310
0.001861
0.000246
0.000257
0.000259
0.000276
0.000351
0.000414
0.000697
0.000466
0.000057
0.000229
0.000332
0.000302
0.000419
0.000385
0.000210
0.000258
0.000302
0.000485
0.000439
0.000250
0.000248
0.000234
0.000270
0.000265
0.000238
0.000250
0.000269
0.000274
0.000257
0.000266
0.000445
0.000629
0.001326
0.000329
0.000430
0.000421
0.000244
0.000360
0.000483
0.000328
0.000057
0.000232
0.000382
0.000276
0.000208
0.000236
0.000246
0.000412
0.000235
0.000236
0.000393
0.000448
0.000373
0.000266
0.000265
0.000266
0.000241
0.000348
0.000410
0.000333
0.000245
0.000248
0.000505
0.000511
0.001679
0.000236
0.000424
0.000318
0.000231
0.000258
0.000513
0.000241
0.000057
0.000197
0.000223
0.000258
0.000246
0.000246
0.000235
0.000254
0.000326
0.000450
0.000289
0.000416
0.000356
0.000338
0.000558
0.000252
0.000241
0.000273
0.000261
0.000230
0.000344
0.000230
0.000241
0.000274
0.000462
0.000423
0.001664
0.000277
0.000238
0.000247
0.000273
0.000188
0.000056
0.000388
0.000401
0.000326
0.000216
0.000256
0.000240
0.000258
0.000245
0.000265
0.000236
0.000223
0.000267
0.000385
0.000531
0.000414
0.000286
0.000236
0.000249
0.000342
0.000377
0.000382
0.000337
0.000359
0.000397
0.000255
0.000252
0.000264
0.000274
0.001789
0.000240
0.000210
0.000056
0.000209
0.000222
0.000260
0.000286
0.000332
0.000544
0.000314
0.000211
0.000291
0.000237
0.000246
0.000253
0.000521
0.000452
0.000480
0.000269
0.000265
0.000282
0.000404
0.000468
0.000353
0.000449
0.000424
0.000469
0.000237
0.000251
0.000262
0.000252
0.000266
0.001717
0.000334
0.000055
0.000372
0.000263
0.000197
0.000242
0.000255
0.000251
0.000234
0.000500
0.000376
0.000307
0.000292
0.000286
0.000445
0.000572
0.000302
0.000249
0.000251
0.000271
0.000233
0.000263
0.000279
0.000261
0.000242
0.000262
0.000328
0.000358
0.000410
0.000334
0.000255
0.000245
0.000190
0.000057
0.000455
0.000459
0.000313
0.000233
0.000204
0.000252
0.000244
0.000253
0.000244
0.000216
0.000257
0.000275
0.000293
0.000363
0.000496
0.000518
0.000295
0.000313
0.000383
0.000342
0.000297
0.000243
0.000251
0.000263
0.001733
0.000255
0.001730
0.000940
0.000395
0.000340
0.000154
0.000056
0.000204
0.000233
0.000236
0.000242
0.000276
0.000238
0.000251
0.000253
0.000240
0.000365
0.000298
0.000444
0.000350
0.000374
0.000243
0.000250
0.000257
0.000288
0.000239
0.000241
0.000252
0.000262
0.001811
0.000235
0.000256
0.000269
0.000279
0.000261
0.001888
0.000492
0.000251
0.000056
0.000212
0.000218
0.000234
0.000240
0.000256
0.000272
0.000215
0.000257
0.000251
0.000327
0.000629
0.000289
0.000396
0.000218
0.000256
0.000248
0.000322
0.000436
0.000371
0.000261
0.001776
0.000257
0.000246
0.000249
0.000263
0.000292
0.000221
0.000260
0.000317
0.000318
0.000394
0.000056
0.000250
0.000213
0.000242
0.000271
0.000238
0.000242
0.000255
0.000257
0.000242
0.000254
0.000239
0.000254
0.000371
0.000419
0.000427
0.000190
0.000463
0.000239
0.000248
0.000261
0.000255
0.000277
0.000257
0.000254
0.000283
0.001787
0.000236
0.000255
0.000262
0.000247
0.000195
0.000056
0.000244
0.000384
0.000234
0.000229
0.000237
0.000232
0.000240
0.000261
0.000242
0.000229
0.000228
0.000263
0.000263
0.000367
0.000399
0.000363
0.000280
0.000236
0.000263
0.000248
0.000260
0.000267
0.000246
0.000269
0.000255
0.000259
0.000355
0.001576
0.000268
0.000252
0.000186
0.000056
0.000193
0.000267
0.000229
0.000261
0.000341
0.000337
0.000422
0.000314
0.000228
0.000254
0.000266
0.000226
0.000250
0.000253
0.000260
0.000266
0.000240
0.000257
0.000255
0.000256
0.000269
0.000269
0.000249
0.000233
0.000244
0.000279
0.000276
0.000257
0.000266
0.000262
0.000189
0.000057
0.000198
0.000233
0.000256
0.000276
0.000235
0.000233
0.000240
0.000263
0.000280
0.000249
0.000224
0.000253
0.000255
0.000247
0.000291
0.000245
0.000249
0.000244
0.000319
0.000237
0.000271
0.000317
0.000268
0.000224
0.000307
0.000248
0.000272
0.000244
0.000265
0.000445
0.000661
0.000057
0.000221
0.000285
0.000221
0.000235
0.000234
0.000258
0.000239
0.000250
0.000251
0.000243
0.000266
0.000307
0.000499
0.000591
0.001398
0.000235
0.000497
0.000229
0.000250
0.000445
0.000432
0.000400
0.000223
0.000283
0.000249
0.000257
0.000281
0.000257
0.000305
0.000275
0.000168
0.000056
0.000290
0.000487
0.000327
0.000337
0.000200
0.000281
0.000226
0.000240
0.000236
0.000241
0.000257
0.000259
0.000228
0.000251
0.000381
0.000537
0.000362
0.001773
0.000239
0.000257
0.000351
0.000424
0.000441
0.000288
0.000319
0.000318
0.000302
0.000233
0.000226
0.000258
0.000196
0.000055
0.000227
0.000219
0.000288
0.000232
0.000338
0.000469
0.000369
0.000238
0.000251
0.000215
0.000249
0.000271
0.000266
0.000261
0.000249
0.000258
0.000314
0.000482
0.000435
0.000333
0.000237
0.001747
0.000316
0.000501
0.000496
0.000511
0.000291
0.000239
0.000249
0.000268
0.000448
0.000055
0.000200
0.000272
0.000218
0.000330
0.000411
0.000406
0.000413
0.000224
0.000255
0.000279
0.000228
0.000256
0.000255
0.000293
0.000307
0.000236
0.000231
0.000427
0.000439
0.000320
0.000532
0.001815
0.000253
0.000432
0.000498
0.000366
0.000226
0.000262
0.000284
0.000267
0.000207
0.000056
0.000206
0.000337
0.000361
0.000377
0.000350
0.000357
0.000306
0.000216
0.000239
0.000254
0.000276
0.000223
0.000262
0.000245
0.000254
0.000256
0.000320
0.000373
0.000510
0.000396
0.000267
0.000239
0.000259
0.001708
0.000494
0.000450
0.000678
0.000229
0.000266
0.000306
0.000160
0.000056
0.000182
0.000237
0.000347
0.000238
0.000260
0.000368
0.000388
0.000339
0.000266
0.000513
0.000214
0.000259
0.000255
0.000276
0.000279
0.000262
0.000210
0.000373
0.000473
0.000414
0.000264
0.000232
0.000259
0.000244
0.000266
0.000268
0.000244
0.000253
0.000264
0.000290
0.000192
0.000055
0.000366
0.000309
0.000212
0.000257
0.000255
0.000254
0.000239
0.000287
0.000242
0.000252
0.000279
0.000328
0.000419
0.000383
0.000361
0.000279
0.000222
0.000250
0.000252
0.000263
0.000283
0.000274
0.000226
0.000257
0.000285
0.000290
0.000433
0.000373
0.000352
0.000236
0.000184
0.000072
0.000195
0.000227
0.000277
0.000245
0.000236
0.000272
0.000259
0.000235
0.000497
0.000211
0.000257
0.000260
0.000240
0.000264
0.000290
0.000276
0.000239
0.000361
0.000210
0.000246
0.000250
0.000261
0.000261
0.000270
0.000273
0.000262
0.000270
0.000253
0.000255
0.000504
0.000160
0.000056
0.000200
0.000236
0.000263
0.000281
0.000202
0.000241
0.000364
0.000406
0.000236
0.000234
0.000253
0.000257
0.000235
0.000229
0.000401
0.001858
0.000240
0.000259
0.000286
0.000328
0.000413
0.000357
0.000386
0.000360
0.000396
0.000412
0.000234
0.000280
0.000268
0.000274
0.001395
0.000056
0.000394
0.000350
0.000223
0.000217
0.000235
0.000252
0.000236
0.000253
0.000247
0.000267
0.000247
0.000258
0.000254
0.000322
0.000499
0.001640
0.000230
0.000238
0.000244
0.000265
0.000260
0.000281
0.000327
0.000432
0.000239
0.000362
0.000217
0.000272
0.000278
0.000261
0.000186
0.000055
0.001211
0.000515
0.000447
0.000164
0.000241
0.000219
0.000240
0.000234
0.000497
0.000214
0.000242
0.000248
0.000344
0.000430
0.000500
0.000331
0.000259
0.000222
0.000332
0.000365
0.000275
0.000250
0.000271
0.000244
0.000268
0.000598
0.000583
0.000209
0.000266
0.000263
0.000169
0.000055
0.000199
0.000221
0.000246
0.000248
0.001462
0.000306
0.000223
0.000255
0.000259
0.000227
0.000256
0.000250
0.000244
0.000263
0.000267
0.000321
0.000377
0.000693
0.000252
0.001794
0.000226
0.000266
0.000291
0.000432
0.000555
0.000412
0.000237
0.000249
0.000252
0.000269
0.000196
0.000055
0.000219
0.000252
0.000233
0.000356
0.001220
0.000226
0.000266
0.000255
0.000245
0.000233
0.000239
0.000251
0.000281
0.000244
0.000247
0.000326
0.000453
0.000393
0.000329
0.000266
0.000265
0.000272
0.000254
0.000225
0.000288
0.000269
0.000244
0.000269
0.000277
0.000359
0.000549
0.000054
0.000224
0.000251
0.000237
0.000253
0.000281
0.000233
0.000231
0.000263
0.000273
0.000277
0.001417
0.000220
0.000240
0.000249
0.000247
0.000245
0.000287
0.000246
0.000283
0.000242
0.000270
0.000608
0.000409
0.000304
0.000237
0.000276
0.001788
0.000239
0.000250
0.000386
0.000361
0.000056
0.000163
0.000405
0.000450
0.000505
0.000511
0.000537
0.001506
0.000417
0.000516
0.000651
0.000551
0.000821
0.000393
0.000609
0.000586
0.001880
0.000400
0.000447
0.000394
0.000319
0.000234
0.000262
0.000292
0.000262
0.000259
0.000293
0.000288
0.000283
0.000261
0.000293
0.001368
0.000056
0.000192
0.000236
0.000248
0.000233
0.000261
0.000256
0.000235
0.000237
0.000251
0.000256
0.000239
0.000237
0.000262
0.000250
0.000276
0.000259
0.001803
0.000262
0.000269
0.000241
0.000263
0.000263
0.000261
0.000313
0.000401
0.000438
0.000292
0.000249
0.000262
0.000285
0.000208
0.000056
0.000194
0.001370
0.000325
0.000277
0.000248
0.000240
0.000242
0.000236
0.000232
0.000236
0.000215
0.000252
0.000245
0.000512
0.000362
0.000304
0.000240
0.001813
0.000365
0.000234
0.000248
0.000264
0.000257
0.000265
0.000267
0.000293
0.000268
0.000247
0.000267
0.000318
0.000205
0.000055
0.000223
0.000241
0.000250
0.001445
0.000212
0.000247
0.000253
0.000246
0.000235
0.000268
0.000250
0.000250
0.000246
0.000280
0.000240
0.000249
0.000268
0.000282
0.000248
0.000259
0.000256
0.001769
0.000271
0.001767
0.000256
0.000257
0.000269
0.000271
0.000259
0.000273
0.000209
0.000056
0.000195
0.000240
0.001353
0.000233
0.000250
0.000238
0.000261
0.000252
0.000249
0.000248
0.000262
0.000237
0.000261
0.000257
0.000256
0.000266
0.000286
0.000258
0.000308
0.000240
0.001852
0.000233
0.001835
0.000251
0.000245
0.000281
0.000225
0.000259
0.000249
0.000272
0.000193
0.000056
0.001448
0.000226
0.000204
0.000256
0.000238
0.000234
0.000377
0.000283
0.000235
0.000254
0.000254
0.000255
0.000247
0.000377
0.000427
0.000232
0.000246
0.000266
0.000270
0.000249
0.000269
0.000340
0.000231
0.000251
0.000274
0.000276
0.000274
0.000383
0.000606
0.000351
0.000200
0.000056
0.000200
0.000237
0.000268
0.000302
0.000367
0.000246
0.001682
0.000324
0.000275
0.000278
0.000246
0.000274
0.000267
0.000269
0.000304
0.000305
0.000350
0.000589
0.000351
0.000265
0.000283
0.000286
0.000260
0.000269
0.000331
0.000251
0.000279
0.000242
0.000259
0.000300
0.000458
0.000056
0.000274
0.000449
0.000268
0.000265
0.000249
0.000226
0.000234
0.000240
0.000261
0.000271
0.001495
0.000219
0.000232
0.000248
0.000266
0.000266
0.000291
0.000227
0.000261
0.000267
0.000262
0.000328
0.000549
0.000360
0.000265
0.000284
0.000267
0.000258
0.000238
0.000309
0.000169
0.000056
0.000205
0.000232
0.000292
0.000451
0.000385
0.000261
0.000219
0.000252
0.000251
0.000253
0.000230
0.000257
0.000257
0.000267
0.000237
0.000365
0.000261
0.001218
0.000238
0.000258
0.000273
0.000249
0.000356
0.000407
0.000266
0.000325
0.000595
0.000350
0.000370
0.000229
0.000183
0.000056
0.000238
0.000246
0.000255
0.000260
0.000265
0.000241
0.000319
0.000425
0.000444
0.000294
0.000341
0.000395
0.000394
0.000366
0.000254
0.000238
0.000254
0.000246
0.000377
0.000478
0.001269
0.000225
0.000277
0.000272
0.000234
0.000238
0.000263
0.000272
0.000455
0.000486
0.000202
0.000056
0.000213
0.000245
0.000256
0.000257
0.000226
0.000249
0.000237
0.000265
0.000304
0.000480
0.000233
0.000426
0.000244
0.000250
0.000270
0.000236
0.000244
0.000268
0.000266
0.000269
0.000415
0.000273
0.000364
0.000360
0.000363
0.000252
0.000277
0.000268
0.000250
0.000345
0.000156
0.000056
0.000303
0.000319
0.000311
0.000389
0.000396
0.000400
0.000244
0.000243
0.000243
0.000271
0.000274
0.000249
0.000234
0.000251
0.000242
0.000226
0.000266
0.000361
0.000508
0.000340
0.000222
0.000276
0.000246
0.000246
0.000260
0.000288
0.000266
0.000277
0.000269
0.000258
0.000313
0.000056
0.000370
0.000238
0.000241
0.000267
0.000226
0.000247
0.000244
0.000266
0.000253
0.000257
0.000251
0.000235
0.000415
0.000380
0.000448
0.000276
0.000230
0.000244
0.000265
0.000264
0.000261
0.000253
0.000263
0.000261
0.000275
0.000364
0.000371
0.000590
0.000400
0.000269
0.000160
0.000055
0.000409
0.000201
0.000224
0.000247
0.000248
0.000247
0.000235
0.000254
0.000256
0.000253
0.000224
0.000250
0.000267
0.000227
0.000243
0.000281
0.000241
0.000264
0.000293
0.000240
0.000261
0.000261
0.000268
0.000257
0.000266
0.000240
0.000267
0.000277
0.000257
0.000277
0.000200
0.000057
0.000186
0.000236
0.000247
0.000248
0.000230
0.000265
0.000256
0.000241
0.000259
0.000278
0.000231
0.000231
0.000265
0.000394
0.000269
0.000277
0.000249
0.000266
0.000253
0.000281
0.000268
0.000242
0.000238
0.000247
0.000272
0.000278
0.000247
0.000260
0.000274
0.000253
0.000209
0.000056
0.000218
0.000359
0.000369
0.000278
0.000298
0.000254
0.000275
0.000253
0.000221
0.000246
0.000279
0.000234
0.000269
0.000226
0.000249
0.000285
0.000239
0.000268
0.000242
0.000266
0.000277
0.000260
0.000280
0.000256
0.000288
0.000233
0.000263
0.000262
0.000273
0.000262
0.000195
0.000055
0.000210
0.000232
0.000264
0.000262
0.000256
0.000446
0.000206
0.000272
0.000287
0.000474
0.000436
0.000284
0.000226
0.000254
0.000276
0.000259
0.000235
0.000271
0.000257
0.000273
0.000264
0.000257
0.000261
0.000243
0.000580
0.000500
0.000267
0.000288
0.000255
0.000268
0.000191
0.000054
0.000202
0.000218
0.000248
0.000253
0.000314
0.000731
0.000241
0.000378
0.000214
0.000247
0.000249
0.000259
0.000246
0.000258
0.000247
0.000275
0.000271
0.000234
0.000673
0.000372
0.000276
0.000249
0.000260
0.000278
0.000280
0.000255
0.000265
0.000283
0.000226
0.000331
0.000296
0.000056
0.000288
0.000233
0.000241
0.000238
0.000258
0.000262
0.000205
0.000249
0.000244
0.000255
0.000246
0.000254
0.000246
0.000358
0.000595
0.000430
0.000204
0.000257
0.000264
0.000245
0.000271
0.000282
0.000478
0.000218
0.000267
0.000625
0.000433
0.000441
0.000264
0.000241
0.000182
0.000055
0.000224
0.000232
0.000250
0.000237
0.000255
0.000260
0.000506
0.000314
0.000566
0.000358
0.000219
0.000263
0.000275
0.000277
0.000253
0.000250
0.000238
0.000245
0.000271
0.000391
0.000380
0.000606
0.000361
0.000251
0.000358
0.000375
0.000493
0.000244
0.000264
0.000445
0.000337
0.000056
0.000271
0.000231
0.000434
0.000225
0.000227
0.000256
0.000261
0.000260
0.000232
0.000240
0.000291
0.000486
0.000216
0.000373
0.000229
0.000279
0.000241
0.000247
0.000266
0.000275
0.000274
0.000247
0.000251
0.000276
0.000307
0.000486
0.000492
0.000246
0.000250
0.000271
0.000197
0.000056
0.000195
0.000251
0.000231
0.000242
0.000248
0.000276
0.000394
0.000412
0.000374
0.000266
0.000377
0.000221
0.000253
0.000269
0.000254
0.000239
0.000260
0.000260
0.000342
0.000390
0.000463
0.000317
0.000468
0.000264
0.000382
0.000422
0.000384
0.000246
0.000259
0.000286
0.000336
0.000056
0.000246
0.000277
0.000222
0.000254
0.000257
0.000261
0.000243
0.000249
0.000267
0.000248
0.000233
0.000406
0.000400
0.000373
0.000386
0.000220
0.000264
0.000266
0.000269
0.000231
0.000249
0.000253
0.000266
0.000275
0.000276
0.000383
0.000438
0.000473
0.000257
0.000264
0.000192
0.000055
0.000220
0.000228
0.000276
0.000250
0.000239
0.000377
0.000467
0.000461
0.000366
0.000689
0.000259
0.000216
0.000241
0.000264
0.000248
0.000262
0.000279
0.000279
0.000470
0.000460
0.001477
0.000303
0.000268
0.000285
0.000263
0.000269
0.000385
0.000416
0.000340
0.000321
0.000187
0.000057
0.000202
0.000231
0.000246
0.000261
0.000228
0.000250
0.000297
0.000231
0.000243
0.000320
0.000332
0.000381
0.000268
0.000343
0.000390
0.000348
0.000259
0.000234
0.000272
0.000257
0.000245
0.000248
0.000308
0.000225
0.000325
0.000433
0.000432
0.000277
0.000268
0.000265
0.000186
0.000055
0.000195
0.000243
0.000258
0.000255
0.000241
0.000235
0.000474
0.000207
0.000238
0.000271
0.000229
0.000248
0.000277
0.000240
0.000252
0.000268
0.000259
0.000293
0.000247
0.000257
0.000282
0.000266
0.000290
0.000246
0.000264
0.000278
0.000271
0.000266
0.000259
0.000276
0.000171
0.000056
0.000207
0.000257
0.000286
0.000457
0.000340
0.000246
0.000240
0.000245
0.000263
0.000246
0.000252
0.000258
0.000258
0.000261
0.000243
0.000237
0.000272
0.000249
0.000260
0.000380
0.000415
0.000407
0.000232
0.000262
0.000261
0.000259
0.000266
0.000250
0.000274
0.000279
0.000203
0.000055
0.000346
0.000430
0.000382
0.000211
0.000254
0.000251
0.000422
0.000222
0.000226
0.000257
0.000249
0.000292
0.000346
0.000477
0.001842
0.000247
0.000246
0.000251
0.000277
0.000241
0.000284
0.000480
0.000620
0.000305
0.000235
0.000261
0.000272
0.000434
0.000274
0.000278
0.000168
0.000056
0.000256
0.000338
0.000350
0.000317
0.000498
0.000203
0.000239
0.000246
0.000252
0.000240
0.000262
0.000244
0.000266
0.000337
0.000390
0.000478
0.000224
0.000244
0.000262
0.000268
0.000253
0.000356
0.000195
0.000278
0.000278
0.000444
0.000535
0.000551
0.000280
0.000240
0.000206
0.000073
0.000199
0.000246
0.000254
0.000234
0.000247
0.000249
0.000269
0.000292
0.000386
0.000334
0.000408
0.000345
0.000223
0.000265
0.000257
0.000292
0.000295
0.000235
0.000277
0.000271
0.000235
0.000318
0.000396
0.000429
0.000290
0.000262
0.000261
0.000442
0.000412
0.000297
0.000186
0.000056
0.000184
0.000239
0.000343
0.000396
0.000402
0.000208
0.000232
0.000252
0.000286
0.000246
0.000254
0.000259
0.000223
0.000255
0.000260
0.000290
0.000411
0.000348
0.000333
0.000311
0.000489
0.000227
0.000277
0.000283
0.000298
0.000283
0.000253
0.000265
0.000467
0.000486
0.000230
0.000056
0.000218
0.000233
0.000242
0.000270
0.000230
0.000478
0.000215
0.000248
0.000268
0.000386
0.000406
0.000614
0.000213
0.000243
0.000240
0.000246
0.000263
0.000268
0.000243
0.000263
0.000270
0.000241
0.000382
0.000405
0.000349
0.000415
0.000283
0.000304
0.000319
0.000263
0.000180
0.000056
0.000223
0.000246
0.000257
0.000469
0.000353
0.000266
0.000256
0.000238
0.000242
0.000257
0.000251
0.000260
0.000263
0.000242
0.000253
0.000261
0.000244
0.000246
0.000253
0.000405
0.000424
0.000462
0.000235
0.000251
0.000277
0.000290
0.000246
0.000253
0.000265
0.000272
0.000189
0.000055
0.000324
0.000357
0.000443
0.000256
0.000202
0.000249
0.000318
0.000460
0.000287
0.000207
0.000244
0.000275
0.000276
0.000440
0.000437
0.000297
0.000211
0.000247
0.000246
0.000264
0.000269
0.000264
0.000263
0.000277
0.000262
0.000328
0.000312
0.000536
0.000240
0.000243
0.000190
0.000055
0.000217
0.000244
0.000245
0.000258
0.000248
0.000264
0.000246
0.000256
0.000250
0.000234
0.000266
0.000236
0.000288
0.001427
0.000238
0.000250
0.000249
0.000249
0.000275
0.000279
0.000263
0.000239
0.000273
0.000254
0.000270
0.000268
0.000269
0.000277
0.000257
0.000284
0.000182
0.000055
0.000199
0.000230
0.000252
0.000265
0.000225
0.000246
0.000257
0.000255
0.000232
0.000244
0.000253
0.000259
0.000263
0.000262
0.000242
0.000260
0.000252
0.000255
0.000276
0.000253
0.000254
0.000261
0.000248
0.000251
0.001296
0.000281
0.000586
0.000408
0.000346
0.000236
0.000191
0.000055
0.000182
0.000229
0.000249
0.000252
0.000418
0.000230
0.000264
0.000223
0.000253
0.000359
0.000450
0.000367
0.000208
0.000229
0.000270
0.000257
0.000260
0.000256
0.000250
0.000258
0.000264
0.000253
0.000261
0.000478
0.000465
0.000439
0.000227
0.000270
0.001365
0.000264
0.000168
0.000056
0.000312
0.000398
0.000328
0.000287
0.000214
0.000218
0.000232
0.000250
0.000261
0.000258
0.000244
0.000262
0.000299
0.000351
0.000466
0.000361
0.000345
0.000219
0.000249
0.000254
0.000267
0.000285
0.000250
0.000266
0.000269
0.000263
0.000427
0.000468
0.000365
0.000360
0.000151
0.000055
0.000198
0.000233
0.001259
0.000440
0.000288
0.000602
0.000233
0.000492
0.000263
0.000347
0.000213
0.000238
0.000260
0.000259
0.000245
0.000268
0.000316
0.000585
0.000359
0.000340
0.000259
0.000248
0.000264
0.000500
0.000233
0.000266
0.000251
0.000278
0.000331
0.000522
0.000296
0.000056
0.000355
0.000312
0.000235
0.000235
0.001588
0.000461
0.000272
0.000253
0.000246
0.000252
0.000223
0.000243
0.000243
0.000274
0.000248
0.000263
0.000241
0.000284
0.000397
0.000352
0.000470
0.000252
0.000257
0.000252
0.000263
0.000276
0.000270
0.000236
0.000265
0.000281
0.000195
0.000056
0.000378
0.000339
0.000216
0.000269
0.000230
0.000237
0.000265
0.000232
0.000242
0.000224
0.001390
0.000495
0.000260
0.000250
0.000238
0.000257
0.000269
0.000261
0.000237
0.000299
0.000247
0.000249
0.000260
0.000406
0.000414
0.000477
0.000242
0.000255
0.000275
0.000286
0.000166
0.000056
0.000205
0.000415
0.000223
0.000231
0.000331
0.000556
0.000338
0.000249
0.000468
0.000207
0.000230
0.000257
0.000258
0.000263
0.000263
0.001415
0.000360
0.000279
0.000244
0.000276
0.000295
0.000232
0.000251
0.000257
0.000259
0.000269
0.000389
0.000504
0.000297
0.000273
0.000157
0.000056
0.000204
0.000233
0.000256
0.000237
0.000232
0.000258
0.000239
0.000256
0.000267
0.000370
0.000436
0.000293
0.000248
0.000253
0.000241
0.000276
0.000272
0.000259
0.000273
0.000226
0.000253
0.000297
0.001274
0.000268
0.000231
0.000265
0.000257
0.000266
0.000263
0.000257
0.000193
0.000055
0.000254
0.000310
0.000387
0.000325
0.000247
0.000249
0.000254
0.000286
0.000239
0.000261
0.000239
0.000269
0.000235
0.000256
0.000256
0.000266
0.000263
0.000267
0.000267
0.000252
0.000250
0.000285
0.000253
0.000279
0.000287
0.000271
0.000266
0.000267
0.000250
0.000458
0.001352
0.000056
0.000191
0.000252
0.000222
0.000260
0.000231
0.000260
0.000245
0.000223
0.000246
0.000258
0.000269
0.000269
0.000243
0.000243
0.000276
0.000236
0.001709
0.000254
0.000251
0.000257
0.000245
0.000262
0.000276
0.000258
0.000289
0.000249
0.000260
0.000274
0.000276
0.000253
0.000220
0.000055
0.000276
0.000285
0.001327
0.000248
0.000210
0.000246
0.000260
0.000246
0.000274
0.000246
0.000233
0.000355
0.000365
0.000460
0.000272
0.000234
0.000245
0.000259
0.000261
0.000266
0.000240
0.000279
0.000256
0.000284
0.000260
0.000457
0.000338
0.000329
0.000315
0.000242
0.000190
0.000074
0.000209
0.000248
0.000244
0.000249
0.000278
0.000195
0.000241
0.000253
0.000417
0.001342
0.000266
0.000215
0.000252
0.000272
0.000249
0.000292
0.000235
0.000255
0.000308
0.000394
0.000433
0.000229
0.000240
0.000253
0.000278
0.000279
0.000265
0.000293
0.000269
0.000275
0.000192
0.000055
0.000211
0.000449
0.000384
0.000208
0.000238
0.000238
0.000246
0.000292
0.000253
0.000243
0.000246
0.000239
0.000443
0.000504
0.000466
0.001461
0.000242
0.000282
0.000314
0.000350
0.000473
0.000431
0.000531
0.000332
0.000241
0.000263
0.000264
0.000277
0.000266
0.000272
0.000196
0.000055
0.000201
0.000265
0.000448
0.000422
0.000404
0.000232
0.000255
0.000237
0.000239
0.000270
0.000236
0.000269
0.000278
0.000222
0.000267
0.000336
0.000365
0.000364
0.000385
0.001347
0.000243
0.000261
0.000259
0.000276
0.000425
0.000458
0.000377
0.000248
0.000276
0.000274
0.000190
0.000056
0.000200
0.000263
0.000222
0.000265
0.000231
0.000270
0.000464
0.000396
0.000349
0.000219
0.000238
0.000260
0.000272
0.000287
0.000239
0.000278
0.000246
0.000252
0.000286
0.000381
0.000335
0.000452
0.000297
0.001346
0.000424
0.000229
0.000275
0.000393
0.000474
0.000342
0.000313
0.000057
0.000205
0.000231
0.000248
0.000247
0.000253
0.000255
0.001677
0.000264
0.000199
0.000246
0.000247
0.000249
0.000252
0.000325
0.000326
0.000301
0.000236
0.000349
0.000477
0.000402
0.000315
0.000273
0.000235
0.000253
0.001503
0.000340
0.000404
0.000444
0.000351
0.000293
0.000173
0.000056
0.000231
0.000244
0.000252
0.000261
0.000244
0.000265
0.001702
0.000236
0.000236
0.000268
0.000329
0.000402
0.001447
0.000365
0.000392
0.000241
0.000253
0.000240
0.000272
0.000272
0.001527
0.000586
0.000377
0.000292
0.000245
0.000248
0.000256
0.000291
0.000240
0.000252
0.000198
0.000055
0.000214
0.000243
0.000269
0.000241
0.000266
0.000298
0.000257
0.000258
0.000244
0.000251
0.000252
0.000251
0.000291
0.000240
0.000250
0.001496
0.000277
0.000235
0.000269
0.000278
0.000272
0.000253
0.001432
0.000348
0.000198
0.000236
0.000274
0.000252
0.000403
0.000240
0.000200
0.000056
0.000189
0.000250
0.000220
0.000246
0.000239
0.000233
0.000233
0.001688
0.000256
0.000230
0.000348
0.000268
0.000226
0.000224
0.000256
0.001378
0.000246
0.000258
0.000268
0.000244
0.000260
0.000349
0.000295
0.001295
0.000290
0.000235
0.000258
0.000262
0.001392
0.000274
0.000192
0.000057
0.000265
0.000342
0.000217
0.000228
0.000268
0.000227
0.000284
0.000249
0.000261
0.000251
0.000257
0.000268
0.000250
0.000243
0.000296
0.001547
0.000221
0.000267
0.000261
0.000242
0.000284
0.000261
0.000251
0.001512
0.000336
0.000245
0.000274
0.001266
0.000277
0.000243
0.000192
0.000056
0.000234
0.000390
0.000345
0.000215
0.000232
0.000245
0.000264
0.000253
0.000263
0.000269
0.000233
0.000260
0.000261
0.000308
0.000396
0.001209
0.000228
0.000253
0.000262
0.000280
0.000225
0.000245
0.000249
0.000326
0.001317
0.000212
0.000251
0.000255
0.000260
0.001340
0.000386
0.000056
0.000308
0.000221
0.000227
0.000232
0.000242
0.000256
0.000244
0.000244
0.000295
0.000235
0.000242
0.000251
0.000246
0.000341
0.000398
0.001477
0.000219
0.000257
0.000296
0.000511
0.000278
0.000411
0.001351
0.000291
0.000236
0.000268
0.000268
0.001286
0.000348
0.000419
0.000348
0.000056
0.000230
0.000248
0.000253
0.000261
0.000249
0.000258
0.000270
0.000269
0.000242
0.000262
0.000404
0.000359
0.001347
0.000239
0.000279
0.000260
0.000280
0.000239
0.000227
0.000236
0.000340
0.001246
0.000256
0.000246
0.000256
0.000272
0.001494
0.000463
0.000440
0.000218
0.000185
0.000074
0.000187
0.000229
0.000252
0.000235
0.000256
0.000264
0.000243
0.000238
0.000530
0.000408
0.000259
0.001493
0.000219
0.000238
0.000262
0.000254
0.000264
0.000281
0.001687
0.000251
0.000390
0.000343
0.001255
0.000420
0.000276
0.000322
0.000257
0.000267
0.000264
0.000265
0.000193
0.000056
0.000188
0.000246
0.000326
0.000266
0.000300
0.000550
0.000275
0.000289
0.001472
0.000237
0.000381
0.000269
0.000231
0.000293
0.000390
0.001313
0.000293
0.000222
0.000248
0.000260
0.001529
0.000370
0.000301
0.000253
0.000270
0.000250
0.000456
0.000329
0.000264
0.000236
0.000252
0.000055
0.000252
0.000367
0.000334
0.000262
0.000224
0.001525
0.000210
0.000258
0.000263
0.000271
0.000268
0.000242
0.000299
0.001485
0.000263
0.000226
0.000436
0.001181
0.000348
0.000439
0.000403
0.000231
0.000246
0.000252
0.000295
0.000226
0.000455
0.000227
0.000264
0.000280
0.000192
0.000055
0.000205
0.000242
0.000379
0.000342
0.001312
0.000288
0.000338
0.000224
0.000234
0.000241
0.000246
0.000288
0.001525
0.000254
0.000234
0.000241
0.001387
0.000379
0.000316
0.000456
0.000366
0.000245
0.000246
0.000249
0.000266
0.000278
0.000254
0.000268
0.000275
0.000250
0.000195
0.000055
0.000224
0.000392
0.001472
0.000216
0.000262
0.000299
0.000219
0.000251
0.000261
0.000369
0.001403
0.000216
0.000262
0.000260
0.000260
0.001283
0.000633
0.000331
0.000318
0.000412
0.000305
0.000248
0.000272
0.000258
0.000265
0.000293
0.000276
0.000315
0.000434
0.000403
0.001392
0.000056
0.000197
0.000249
0.000247
0.000222
0.000257
0.000391
0.000532
0.001261
0.000245
0.000238
0.000250
0.001525
0.000266
0.000409
0.000227
0.000415
0.000236
0.000252
0.000258
0.000292
0.000247
0.000253
0.000284
0.000251
0.000253
0.000335
0.000381
0.000479
0.001511
0.000223
0.000187
0.000056
0.000188
0.000257
0.000395
0.000524
0.001223
0.000285
0.000235
0.000262
0.000252
0.000241
0.000251
0.000278
0.000426
0.000456
0.000292
0.000242
0.000255
0.000271
0.000261
0.000285
0.000237
0.000262
0.000257
0.000266
0.000257
0.000365
0.000482
0.000351
0.000333
0.001410
0.000188
0.000055
0.000199
0.000236
0.000284
0.000464
0.000321
0.000310
0.000318
0.000330
0.000293
0.000258
0.000233
0.000266
0.000251
0.000307
0.000239
0.000368
0.000381
0.000412
0.000299
0.000388
0.000274
0.000406
0.000229
0.000236
0.000270
0.000267
0.000243
0.000294
0.000336
0.000520
0.000293
0.000055
0.000203
0.001407
0.000221
0.000339
0.000403
0.000458
0.000346
0.000327
0.000206
0.000241
0.000267
0.000249
0.000283
0.000254
0.000257
0.000255
0.000263
0.001353
0.000274
0.000244
0.000255
0.000269
0.000274
0.000282
0.000266
0.000255
0.000274
0.000253
0.000307
0.000414
0.000349
0.000056
0.000206
0.000240
0.000242
0.001492
0.000350
0.000216
0.000228
0.000253
0.000227
0.000249
0.000252
0.000281
0.000247
0.000244
0.000299
0.000226
0.000267
0.000246
0.000259
0.000261
0.001420
0.000239
0.000252
0.000273
0.000262
0.000241
0.000270
0.000269
0.000267
0.000495
0.000344
0.000057
0.000199
0.000230
0.000398
0.000285
0.000241
0.000258
0.001519
0.000355
0.000295
0.000219
0.000263
0.000311
0.000331
0.000231
0.000229
0.000249
0.000255
0.000252
0.000261
0.000262
0.000482
0.000503
0.001120
0.000272
0.000249
0.000252
0.000266
0.000264
0.000299
0.000231
0.000403
0.000055
0.000212
0.000352
0.000206
0.000241
0.000252
0.000238
0.000247
0.000224
0.000289
0.001608
0.000390
0.000265
0.000232
0.000257
0.000263
0.000238
0.000266
0.000275
0.000274
0.000298
0.000322
0.000465
0.000457
0.001365
0.000238
0.000275
0.000257
0.000259
0.000269
0.000298
0.000441
0.000055
0.000268
0.000271
0.000224
0.000230
0.000229
0.000244
0.000257
0.000282
0.000254
0.001557
0.000373
0.000253
0.000247
0.000255
0.000464
0.000254
0.000546
0.000373
0.000275
0.000294
0.000467
0.000458
0.001302
0.000258
0.000241
0.000247
0.001764
0.000411
0.000604
0.000324
0.000146
0.000055
0.000201
0.000229
0.000240
0.000237
0.000258
0.000258
0.000230
0.000503
0.000572
0.000346
0.000288
0.000206
0.000251
0.000263
0.000281
0.000271
0.000232
0.000242
0.000258
0.000282
0.000286
0.000398
0.001333
0.000232
0.000248
0.000275
0.001898
0.000380
0.000394
0.000346
0.000147
0.000055
0.000247
0.000243
0.000246
0.001566
0.000424
0.000213
0.000234
0.000261
0.000256
0.000271
0.000379
0.000369
0.000367
0.000281
0.000279
0.000530
0.000406
0.001179
0.000277
0.000237
0.000256
0.000265
0.000271
0.000474
0.000494
0.000526
0.000237
0.000272
0.000268
0.000277
0.000194
0.000056
0.000182
0.000238
0.000240
0.001535
0.000263
0.000232
0.000236
0.000257
0.000239
0.000255
0.000257
0.000266
0.000266
0.000277
0.000289
0.000361
0.000436
0.000318
0.001389
0.000238
0.000261
0.000266
0.000249
0.000282
0.000455
0.000416
0.000426
0.000266
0.000278
0.000236
0.000446
0.000055
0.000205
0.000236
0.000273
0.001530
0.000321
0.000194
0.000266
0.000242
0.000251
0.000258
0.000256
0.000274
0.000240
0.000248
0.000392
0.000554
0.001355
0.000751
0.000284
0.000318
0.000238
0.000247
0.000240
0.000279
0.001678
0.000806
0.000231
0.000263
0.000281
0.000279
0.000192
0.000056
0.000225
0.000214
0.000252
0.000248
0.000262
0.000269
0.000212
0.000255
0.000234
0.000231
0.000298
0.000278
0.000257
0.000248
0.000260
0.000246
0.000275
0.001590
0.000772
0.000352
0.000270
0.000238
0.000243
0.000309
0.000250
0.000252
0.000277
0.000260
0.001382
0.000398
0.000291
0.000055
0.000201
0.000225
0.000271
0.000236
0.000259
0.000230
0.000274
0.000233
0.000254
0.000261
0.000282
0.000400
0.000450
0.000327
0.000216
0.000248
0.000269
0.001386
0.000695
0.000460
0.000356
0.000266
0.000225
0.000255
0.000302
0.000228
0.000256
0.000264
0.001525
0.000363
0.000218
0.000056
0.000187
0.000228
0.000250
0.000251
0.000247
0.000246
0.000236
0.000253
0.000270
0.000258
0.000406
0.000341
0.000335
0.000216
0.000244
0.000248
0.000263
0.000276
0.001548
0.000635
0.000491
0.000280
0.000238
0.000258
0.000252
0.000295
0.000239
0.000281
0.000268
0.001382
0.000298
0.000055
0.000212
0.000221
0.000235
0.000261
0.000283
0.000217
0.000255
0.000296
0.000358
0.000487
0.000346
0.000385
0.000348
0.000222
0.000245
0.000249
0.000296
0.000257
0.000250
0.001935
0.000308
0.000246
0.000452
0.000233
0.000254
0.000293
0.000239
0.000256
0.000283
0.000260
0.000344
0.000056
0.000230
0.000271
0.000244
0.000244
0.000258
0.000249
0.000225
0.000235
0.000278
0.000261
0.000231
0.000235
0.000370
0.000337
0.000486
0.000437
0.000234
0.000261
0.000256
0.000247
0.000256
0.000298
0.001446
0.001063
0.000225
0.000251
0.000271
0.000261
0.000276
0.000254
0.000195
0.000056
0.000200
0.001344
0.000288
0.000220
0.000231
0.000256
0.000246
0.000242
0.000244
0.000258
0.000247
0.000266
0.000243
0.000338
0.000420
0.000370
0.000340
0.000255
0.000263
0.000269
0.000277
0.000221
0.000260
0.000267
0.001314
0.000690
0.000306
0.000376
0.000375
0.000403
0.000322
0.000057
0.000193
0.000241
0.000359
0.001315
0.000208
0.000256
0.000237
0.000258
0.000252
0.000257
0.000255
0.000245
0.000284
0.000342
0.000587
0.000279
0.000224
0.000277
0.000332
0.000216
0.000243
0.000274
0.000234
0.000266
0.000281
0.001534
0.000737
0.000319
0.000261
0.000267
0.000194
0.000055
0.000226
0.000224
0.000493
0.000300
0.001309
0.000237
0.000243
0.000235
0.000230
0.000255
0.000248
0.000258
0.000236
0.000233
0.000257
0.000252
0.000267
0.000237
0.000255
0.000252
0.000269
0.000266
0.000304
0.000329
0.000223
0.000268
0.000282
0.001436
0.000274
0.000236
0.000175
0.000055
0.000202
0.000229
0.000250
0.000266
0.000345
0.000379
0.000397
0.000277
0.001579
0.000228
0.000287
0.000506
0.000353
0.000249
0.000417
0.000233
0.000239
0.000262
0.000270
0.000271
0.000283
0.000264
0.000254
0.000269
0.000250
0.000437
0.000368
0.000345
0.001572
0.000223
0.000195
0.000057
0.000222
0.000237
0.000252
0.000248
0.000235
0.000247
0.000262
0.000311
0.000414
0.002036
0.000222
0.000251
0.000254
0.000259
0.000262
0.000300
0.000224
0.000253
0.000296
0.000416
0.000388
0.000413
0.001448
0.000244
0.000283
0.001985
0.000275
0.000241
0.000272
0.001518
0.000167
0.000056
0.000329
0.000413
0.000478
0.000247
0.000271
0.000213
0.000265
0.000262
0.000262
0.000226
0.000253
0.000338
0.000414
0.000344
0.000430
0.000250
0.000223
0.001569
0.000244
0.000544
0.001901
0.000294
0.000231
0.001589
0.001980
0.000737
0.000271
0.000259
0.000279
0.000484
0.000375
0.000056
0.000214
0.000239
0.000282
0.000220
0.002858
0.000288
0.001086
0.000197
0.000237
0.001584
0.001981
0.000219
0.000244
0.000409
0.000305
0.000380
0.000370
0.000503
0.000216
0.000242
0.000244
0.000261
0.000276
0.001584
0.001206
0.001434
0.000282
0.000285
0.000252
0.000330
0.000317
0.000056
0.000202
0.000242
0.000240
0.000242
0.000230
0.000239
0.000254
0.000256
0.000254
0.000242
0.000246
0.000313
0.000411
0.000499
0.000285
0.000245
0.000266
0.000253
0.000270
0.000282
0.000254
0.000249
0.001491
0.000501
0.002113
0.000243
0.000260
0.000311
0.000439
0.000406
0.000185
0.000056
0.000211
0.000369
0.000470
0.000306
0.000199
0.000227
0.000253
0.000241
0.000240
0.000247
0.000246
0.000262
0.000276
0.001591
0.001353
0.001225
0.000282
0.000250
0.000229
0.000275
0.000284
0.000278
0.000242
0.000252
0.002210
0.000253
0.000257
0.000284
0.000322
0.000310
0.000218
0.000056
0.000219
0.000557
0.000336
0.000362
0.000217
0.000230
0.000245
0.000267
0.001898
0.001422
0.000221
0.000326
0.000383
0.000410
0.000265
0.000231
0.000258
0.000266
0.000275
0.000252
0.000256
0.000265
0.000477
0.000230
0.000270
0.000271
0.000243
0.000279
0.000275
0.000252
0.000204
0.000056
0.000200
0.000252
0.000241
0.000249
0.000273
0.000270
0.001507
0.001427
0.001329
0.000249
0.000224
0.000243
0.000268
0.000262
0.000241
0.000251
0.000246
0.002109
0.000253
0.000246
0.000255
0.000265
0.000253
0.000264
0.000262
0.000261
0.000269
0.000254
0.000281
0.000251
0.000175
0.000056
0.000224
0.002671
0.001403
0.000212
0.000301
0.000327
0.000211
0.000283
0.000236
0.000235
0.000258
0.000241
0.000234
0.000253
0.000271
0.000255
0.000270
0.000273
0.000257
0.000251
0.000269
0.000277
0.000285
0.000259
0.000249
0.000244
0.000264
0.000282
0.000252
0.000266
0.000378
0.000078
0.001614
0.000183
0.001212
0.000232
0.000230
0.000235
0.000290
0.000252
0.000221
0.000283
0.000351
0.000532
0.000203
0.000207
0.000254
0.002146
0.000234
0.000256
0.000271
0.000511
0.000405
0.000248
0.000240
0.000257
0.000263
0.000249
0.000264
0.000279
0.000265
0.001626
0.001249
0.000060
0.000197
0.000221
0.000333
0.000371
0.000331
0.000293
0.000218
0.000232
0.000250
0.000260
0.000266
0.000245
0.000226
0.000272
0.000249
0.000242
0.000368
0.000563
0.000365
0.000240
0.000236
0.000270
0.000286
0.000249
0.000251
0.000247
0.000268
0.000273
0.000244
0.000376
0.000306
0.000056
0.001129
0.000222
0.000412
0.000404
0.000278
0.000222
0.000229
0.000245
0.000252
0.002364
0.000498
0.000188
0.000224
0.000378
0.000301
0.000256
0.000240
0.000256
0.000265
0.000230
0.000249
0.000292
0.000572
0.000462
0.001876
0.001308
0.000523
0.000548
0.000221
0.000289
0.000199
0.000057
0.000289
0.000287
0.000251
0.000241
0.000260
0.000223
0.000254
0.000251
0.000255
0.000251
0.000253
0.000232
0.000242
0.000274
0.000365
0.000526
0.001829
0.001319
0.000455
0.000438
0.000458
0.000237
0.000241
0.000259
0.002129
0.000556
0.000385
0.000235
0.000279
0.000277
0.000197
0.000056
0.000207
0.000240
0.000257
0.000247
0.000235
0.000420
0.000340
0.000355
0.000272
0.000227
0.000242
0.000250
0.000265
0.002105
0.000386
0.000370
0.000217
0.000251
0.000284
0.000242
0.000250
0.002456
0.000338
0.000228
0.000247
0.000259
0.000250
0.000277
0.000307
0.000253
0.000193
0.000056
0.000203
0.000321
0.000581
0.000358
0.000256
0.000217
0.000242
0.000253
0.000261
0.000252
0.001946
0.000398
0.000271
0.000270
0.000239
0.000274
0.000269
0.000236
0.002206
0.000453
0.000222
0.000268
0.000271
0.000257
0.000253
0.000254
0.000301
0.000235
0.000268
0.000254
0.000188
0.000057
0.000215
0.000238
0.000252
0.000223
0.000245
0.000258
0.000238
0.000244
0.000235
0.002185
0.000217
0.000289
0.000217
0.000429
0.000228
0.000249
0.000302
0.000266
0.000253
0.000250
0.001972
0.000266
0.000337
0.000362
0.000432
0.000408
0.000314
0.000253
0.000253
0.000274
0.000183
0.000056
0.000190
0.000238
0.000233
0.000257
0.000247
0.000322
0.000221
0.002318
0.000232
0.000250
0.000246
0.000247
0.000244
0.000279
0.000277
0.002120
0.000595
0.000222
0.000256
0.000243
0.000250
0.000261
0.000292
0.000266
0.000261
0.000254
0.000289
0.000254
0.000262
0.000264
0.000195
0.000056
0.001819
0.001447
0.000198
0.000226
0.000244
0.000255
0.000251
0.000284
0.000416
0.000322
0.002170
0.000265
0.000228
0.000273
0.000309
0.000422
0.000464
0.000288
0.000235
0.000236
0.000252
0.000265
0.000261
0.000227
0.000261
0.000275
0.000260
0.000270
0.000279
0.000708
0.000305
0.000056
0.000189
0.000263
0.000239
0.000271
0.000251
0.000254
0.000252
0.000239
0.001489
0.002102
0.000616
0.000248
0.000396
0.000703
0.000352
0.000243
0.000250
0.000245
0.000269
0.000262
0.000251
0.000246
0.000250
0.000271
0.003012
0.000329
0.000235
0.000273
0.000282
0.000331
0.000372
0.000056
0.001923
0.000240
0.000225
0.000234
0.000287
0.000345
0.000464
0.000306
0.000273
0.000236
0.000243
0.000246
0.000259
0.000260
0.000265
0.000255
0.000252
0.000287
0.001814
0.000233
0.000247
0.000260
0.000290
0.000268
0.000264
0.000273
0.001449
0.000340
0.000239
0.000265
0.000175
0.000056
0.000203
0.000235
0.000236
0.000247
0.000245
0.000244
0.000258
0.000407
0.000326
0.000406
0.000212
0.000234
0.000263
0.000327
0.000420
0.000316
0.000224
0.000260
0.000261
0.000384
0.000399
0.000512
0.000225
0.000258
0.000260
0.000254
0.000251
0.000275
0.000278
0.000261
0.000204
0.000058
0.001425
0.000440
0.000225
0.001947
0.000322
0.000357
0.000445
0.000322
0.000217
0.000253
0.000266
0.000245
0.000244
0.000244
0.000271
0.000255
0.000455
0.000318
0.000367
0.000370
0.000358
0.000230
0.000264
0.000270
0.000269
0.000271
0.000261
0.000268
0.000382
0.000431
0.001378
0.000056
0.000205
0.000227
0.002078
0.000342
0.000293
0.000232
0.000257
0.000252
0.000260
0.000258
0.000218
0.000251
0.000258
0.000280
0.000239
0.000365
0.000708
0.001753
0.000236
0.000253
0.000253
0.000269
0.000371
0.000458
0.001556
0.000290
0.000363
0.001921
0.000256
0.000268
0.000193
0.000056
0.000206
0.000223
0.000240
0.000237
0.000234
0.000250
0.000251
0.000301
0.000312
0.000263
0.000378
0.000364
0.000341
0.000294
0.000251
0.000270
0.000257
0.000239
0.000263
0.000251
0.000311
0.000288
0.000264
0.000260
0.000272
0.001503
0.000288
0.000384
0.002072
0.000239
0.000173
0.000057
0.000215
0.000237
0.000242
0.000252
0.000483
0.000205
0.000252
0.000324
0.000393
0.000302
0.000302
0.000204
0.000266
0.000264
0.000272
0.000336
0.000429
0.000424
0.000240
0.000417
0.000522
0.000529
0.001496
0.000228
0.000253
0.001971
0.000347
0.000249
0.000240
0.000298
0.000185
0.000057
0.000212
0.000245
0.000225
0.000248
0.000249
0.000294
0.000234
0.000266
0.000256
0.000261
0.001796
0.000316
0.000388
0.000279
0.000461
0.000364
0.000364
0.001496
0.000239
0.000285
0.002089
0.000593
0.000258
0.000236
0.000264
0.000267
0.000506
0.000219
0.000261
0.000282
0.000187
0.000057
0.000269
0.000394
0.000322
0.000295
0.000203
0.000243
0.000262
0.000248
0.000263
0.000293
0.000232
0.000250
0.000263
0.000266
0.000326
0.000441
0.001350
0.000265
0.000278
0.002027
0.000249
0.000291
0.000238
0.000262
0.000245
0.000283
0.000264
0.000267
0.000257
0.000255
0.000211
0.000057
0.000290
0.000368
0.002010
0.000265
0.000220
0.000250
0.000263
0.000368
0.000374
0.000422
0.001300
0.000367
0.000357
0.002083
0.000208
0.000253
0.000259
0.000278
0.000250
0.000251
0.000280
0.000294
0.000256
0.000407
0.000428
0.000360
0.000350
0.002207
0.000491
0.000464
0.000447
0.000057
0.000215
0.000223
0.000246
0.001963
0.000228
0.000231
0.000242
0.000244
0.000243
0.000259
0.000242
0.000264
0.000258
0.000339
0.000522
0.001313
0.000260
0.000241
0.000269
0.000262
0.000230
0.000254
0.000265
0.000272
0.000456
0.000352
0.000426
0.000250
0.001602
0.000273
0.000160
0.000056
0.000195
0.000224
0.000242
0.000235
0.000264
0.000266
0.000226
0.000247
0.000254
0.000367
0.000377
0.001408
0.000239
0.000228
0.000243
0.000298
0.000224
0.000259
0.000289
0.000507
0.000406
0.000421
0.000239
0.001566
0.000229
0.000265
0.000283
0.000281
0.000263
0.000273
0.000189
0.000056
0.000199
0.000238
0.000272
0.000263
0.000255
0.000243
0.000235
0.000241
0.000277
0.000223
0.000250
0.000259
0.000265
0.001474
0.000360
0.000210
0.000249
0.000267
0.000271
0.000309
0.000374
0.000272
0.000268
0.000245
0.000267
0.000264
0.000258
0.001410
0.000283
0.000229
0.000175
0.000055
0.000215
0.000233
0.000264
0.000258
0.000268
0.000223
0.000247
0.000259
0.000217
0.000268
0.000245
0.000258
0.000227
0.000340
0.000341
0.000307
0.000341
0.000211
0.001641
0.000240
0.000240
0.000258
0.000266
0.000304
0.000381
0.000355
0.000455
0.000264
0.000272
0.001593
0.000163
0.000056
0.000391
0.000315
0.000341
0.000289
0.000234
0.000217
0.000246
0.000273
0.000251
0.000254
0.000232
0.000237
0.001459
0.000311
0.000289
0.000229
0.000251
0.000272
0.000251
0.000262
0.000257
0.000233
0.000261
0.000270
0.000240
0.000437
0.000440
0.000320
0.000274
0.000252
0.000197
0.000056
0.000208
0.000260
0.000425
0.000338
0.000392
0.000270
0.000245
0.000250
0.000251
0.000254
0.000247
0.000224
0.000257
0.000245
0.001251
0.000313
0.000241
0.000240
0.000266
0.000273
0.000232
0.000269
0.000246
0.000264
0.000256
0.000258
0.000294
0.000790
0.000365
0.000249
0.000167
0.000056
0.000214
0.001536
0.000229
0.000339
0.000468
0.000377
0.000220
0.000258
0.000267
0.000261
0.000232
0.000260
0.000269
0.000273
0.000263
0.001520
0.000254
0.000286
0.000263
0.000259
0.000272
0.000240
0.000262
0.000263
0.000257
0.000315
0.000391
0.000366
0.000348
0.000243
0.000201
0.000055
0.000208
0.000253
0.000239
0.001595
0.000484
0.000289
0.000237
0.000234
0.000268
0.000258
0.000281
0.000251
0.000256
0.000257
0.000235
0.000267
0.000330
0.001395
0.000256
0.000231
0.001484
0.000323
0.000556
0.000436
0.000298
0.000243
0.000277
0.000467
0.000229
0.000267
0.000186
0.000055
0.000286
0.000216
0.000252
0.000250
0.000249
0.000269
0.000222
0.000256
0.000275
0.000235
0.000244
0.000277
0.000307
0.000489
0.001674
0.001475
0.000363
0.000486
0.000388
0.000219
0.000237
0.000252
0.000248
0.000268
0.000253
0.000266
0.000262
0.000264
0.001538
0.000309
0.000164
0.000056
0.000187
0.000341
0.000356
0.000331
0.000238
0.000234
0.000243
0.000392
0.000398
0.000363
0.002174
0.000314
0.000686
0.000497
0.000482
0.000261
0.000333
0.000390
0.000328
0.000284
0.000400
0.000262
0.001524
0.000532
0.000216
0.000267
0.000254
0.000276
0.000255
0.000265
0.000212
0.000056
0.000202
0.000253
0.000248
0.000260
0.000236
0.001660
0.000879
0.000998
0.000209
0.000237
0.000261
0.000249
0.000261
0.000264
0.000250
0.000251
0.000268
0.000251
0.000264
0.000282
0.001423
0.000320
0.000251
0.000234
0.000238
0.000261
0.000260
0.000279
0.000262
0.000288
0.001895
0.000057
0.000187
0.000230
0.001545
0.000858
0.000386
0.000364
0.000223
0.000238
0.000246
0.000258
0.000247
0.000252
0.000243
0.001976
0.000479
0.000217
0.000246
0.000267
0.000260
0.000257
0.000197
