0.000278
0.009220
0.012273
0.000364
0.000265
0.000283
0.000303
0.000243
0.000338
0.000282
0.000250
0.000351
0.000519
0.000535
0.000323
0.000344
0.000263
0.000370
0.000350
0.000406
0.000311
0.001921
0.000700
0.000249
0.000256
0.000307
0.000307
0.000329
0.000484
0.000362
0.000520
0.000224
0.000058
0.000197
0.000268
0.000274
0.000261
0.000273
0.000245
0.000277
0.000280
0.000255
0.000320
0.000415
0.000440
0.000298
0.000267
0.000411
0.000295
0.000365
0.000249
0.000254
0.001695
0.000324
0.000249
0.000456
0.000242
0.000282
0.000277
0.000284
0.000295
0.000277
0.000387
0.000437
0.000057
0.000257
0.000250
0.000266
0.000261
0.000252
0.000246
0.000256
0.000258
0.000287
0.001671
0.000224
0.000238
0.000265
0.000272
0.000282
0.000250
0.000264
0.000258
0.000354
0.001790
0.000244
0.000276
0.000447
0.000494
0.000328
0.000237
0.000248
0.000519
0.000557
0.000660
0.000202
0.000056
0.000226
0.000243
0.000258
0.000242
0.000294
0.000252
0.000290
0.000669
0.000298
0.000246
0.000250
0.000252
0.000242
0.000250
0.000256
0.000262
0.000247
0.000263
0.000302
0.000319
0.001666
0.000283
0.000254
0.000420
0.000673
0.000316
0.000776
0.000437
0.000322
0.000242
0.000194
0.000056
0.000236
0.000248
0.000263
0.000264
0.000234
0.000254
0.000265
0.000489
0.001449
0.000214
0.000252
0.000241
0.000259
0.000253
0.000265
0.000283
0.000287
0.000829
0.001352
0.000281
0.000461
0.000257
0.000229
0.000216
0.000258
0.000260
0.000268
0.000269
0.000261
0.000268
0.000193
0.000057
0.000208
0.000240
0.000248
0.000263
0.000236
0.000246
0.000239
0.000259
0.000242
0.000253
0.001623
0.000268
0.000231
0.000244
0.000251
0.000249
0.000264
0.000236
0.000251
0.000255
0.000268
0.001654
0.000299
0.000244
0.000446
0.000266
0.000242
0.000256
0.000266
0.000268
0.000193
0.000056
0.000218
0.000228
0.000251
0.000246
0.000242
0.000251
0.000261
0.000237
0.000261
0.000260
0.000257
0.000246
0.000274
0.000256
0.001668
0.000262
0.000282
0.000219
0.000247
0.000297
0.000243
0.000242
0.000245
0.000271
0.001774
0.000396
0.000348
0.000352
0.000253
0.000279
0.000198
0.000055
0.000231
0.000234
0.000244
0.000267
0.000260
0.000237
0.000274
0.000448
0.000368
0.000447
0.000206
0.000250
0.000251
0.000251
0.001606
0.000498
0.000345
0.000379
0.000327
0.000213
0.000270
0.000282
0.000271
0.001734
0.000551
0.000420
0.000260
0.000243
0.000245
0.000265
0.000183
0.000057
0.000202
0.000239
0.000249
0.000332
0.000342
0.000417
0.000353
0.000251
0.000217
0.000252
0.000265
0.000242
0.000249
0.001701
0.000505
0.000276
0.000235
0.000258
0.000270
0.000274
0.000252
0.000259
0.000271
0.001945
0.000432
0.000265
0.000198
0.000250
0.000273
0.000409
0.000326
0.000057
0.000218
0.000426
0.000317
0.000262
0.000249
0.000257
0.000246
0.000276
0.000225
0.000229
0.000241
0.000246
0.001551
0.000409
0.000252
0.000234
0.000262
0.000244
0.000252
0.000277
0.000278
0.000331
0.000239
0.001814
0.000258
0.000493
0.000238
0.000261
0.000262
0.000267
0.000256
0.000055
0.000478
0.000490
0.000560
0.000219
0.000230
0.000274
0.000230
0.000221
0.000257
0.000254
0.000255
0.001704
0.000243
0.000441
0.000373
0.000209
0.000249
0.000229
0.000248
0.000268
0.000253
0.001850
0.000242
0.000242
0.002079
0.000519
0.000357
0.000247
0.000258
0.000265
0.000186
0.000055
0.000213
0.000246
0.000249
0.000239
0.000259
0.001615
0.000261
0.000228
0.000254
0.000254
0.000246
0.000258
0.000234
0.000253
0.000270
0.000700
0.000336
0.000264
0.000239
0.000264
0.000269
0.000245
0.000246
0.000429
0.000443
0.000269
0.000363
0.000767
0.000208
0.000278
0.000187
0.000056
0.000193
0.000250
0.000252
0.000246
0.000232
0.000249
0.000300
0.000328
0.000434
0.001722
0.000227
0.000235
0.000244
0.000242
0.000262
0.000311
0.000376
0.000500
0.000338
0.000243
0.000283
0.000286
0.000277
0.000244
0.000283
0.000433
0.000368
0.000678
0.000359
0.000464
0.000161
0.000057
0.000203
0.000256
0.000238
0.000232
0.000231
0.000243
0.000245
0.000253
0.000240
0.000337
0.000302
0.000413
0.001400
0.000242
0.000250
0.000241
0.000261
0.000251
0.000251
0.000245
0.000292
0.000415
0.000444
0.000261
0.000269
0.000255
0.000257
0.000264
0.000269
0.000266
0.000382
0.000056
0.000205
0.000236
0.000227
0.000280
0.000526
0.000430
0.000236
0.000261
0.000231
0.000261
0.000253
0.000232
0.000298
0.000268
0.000217
0.000466
0.000437
0.001645
0.000282
0.000228
0.000257
0.000267
0.000258
0.000241
0.000290
0.000530
0.000350
0.000335
0.000434
0.000236
0.000196
0.000056
0.000203
0.000433
0.000234
0.000220
0.000262
0.000239
0.000394
0.000502
0.000288
0.000342
0.000215
0.000267
0.000270
0.000232
0.000514
0.000365
0.000212
0.000261
0.000412
0.001623
0.000267
0.000293
0.000466
0.000242
0.000283
0.000277
0.000254
0.000499
0.000401
0.000408
0.000233
0.000055
0.000213
0.000230
0.000238
0.000252
0.000411
0.000302
0.000298
0.000217
0.000390
0.000581
0.000273
0.000265
0.000241
0.000236
0.000262
0.000263
0.000251
0.000257
0.000234
0.000346
0.000294
0.000484
0.001696
0.000236
0.000264
0.000249
0.000295
0.000352
0.000411
0.000845
0.000279
0.000057
0.000241
0.000328
0.000281
0.000425
0.000392
0.000221
0.000243
0.000307
0.000529
0.000387
0.000265
0.000230
0.000238
0.000270
0.000264
0.000234
0.000256
0.000272
0.000267
0.000265
0.000269
0.000419
0.000723
0.001252
0.000355
0.000505
0.000333
0.000249
0.000430
0.000480
0.000313
0.000056
0.000265
0.000380
0.000265
0.000211
0.000226
0.000240
0.000415
0.000234
0.000277
0.000330
0.000455
0.000436
0.000220
0.000262
0.000265
0.000245
0.000385
0.000368
0.000367
0.000221
0.000263
0.000408
0.000604
0.001669
0.000229
0.000454
0.000292
0.000229
0.000319
0.000415
0.000302
0.000056
0.000233
0.000232
0.000243
0.000247
0.000249
0.000248
0.000250
0.000325
0.000456
0.000315
0.000406
0.000373
0.000285
0.000575
0.000241
0.000251
0.000270
0.000262
0.000231
0.000363
0.000214
0.000249
0.000268
0.000487
0.000395
0.001678
0.000266
0.000237
0.000259
0.000260
0.000187
0.000058
0.000334
0.000469
0.000289
0.000207
0.000246
0.000250
0.000257
0.000241
0.000260
0.000247
0.000230
0.000243
0.000420
0.000537
0.000370
0.000294
0.000253
0.000251
0.000347
0.000388
0.000387
0.000323
0.000427
0.000356
0.000213
0.000261
0.000264
0.000272
0.001788
0.000246
0.000213
0.000057
0.000204
0.000212
0.000262
0.000271
0.000371
0.000539
0.000303
0.000214
0.000261
0.000256
0.000253
0.000252
0.000519
0.000450
0.000478
0.000294
0.000253
0.000270
0.000424
0.000461
0.000409
0.000373
0.000409
0.000492
0.000243
0.000243
0.000272
0.000247
0.000267
0.001711
0.000401
0.000057
0.000268
0.000341
0.000196
0.000228
0.000258
0.000248
0.000250
0.000503
0.000368
0.000301
0.000295
0.000299
0.000421
0.000587
0.000299
0.000234
0.000256
0.000250
0.000250
0.000266
0.000272
0.000262
0.000249
0.000257
0.000333
0.000334
0.000427
0.000342
0.000242
0.000257
0.000186
0.000055
0.000459
0.000276
0.000476
0.000272
0.000188
0.000251
0.000246
0.000256
0.000235
0.000226
0.000270
0.000258
0.000293
0.000460
0.000387
0.000559
0.000275
0.000316
0.000391
0.000336
0.000313
0.000216
0.000250
0.000257
0.001752
0.000270
0.001699
0.000958
0.000490
0.000214
0.000167
0.000055
0.000208
0.000234
0.000231
0.000251
0.000257
0.000247
0.000250
0.000252
0.000246
0.000325
0.000354
0.000429
0.000344
0.000372
0.000261
0.000245
0.000252
0.000294
0.000229
0.000245
0.000258
0.000261
0.001796
0.000264
0.000244
0.000262
0.000279
0.000264
0.001875
0.000474
0.000354
0.000057
0.000211
0.000216
0.000247
0.000231
0.000256
0.000247
0.000240
0.000256
0.000259
0.000418
0.000437
0.000573
0.000238
0.000205
0.000230
0.000258
0.000333
0.000444
0.000368
0.000251
0.001763
0.000262
0.000249
0.000243
0.000262
0.000274
0.000241
0.000256
0.000323
0.000361
0.000321
0.000056
0.000246
0.000217
0.000240
0.000258
0.000244
0.000244
0.000258
0.000258
0.000234
0.000264
0.000242
0.000297
0.000404
0.000306
0.000375
0.000274
0.000466
0.000249
0.000240
0.000256
0.000261
0.000258
0.000271
0.000261
0.000277
0.001784
0.000253
0.000246
0.000262
0.000234
0.000204
0.000056
0.000328
0.000251
0.000204
0.000225
0.000259
0.000217
0.000235
0.000258
0.000246
0.000222
0.000239
0.000264
0.000258
0.000349
0.000405
0.000388
0.000283
0.000247
0.000225
0.000255
0.000269
0.000255
0.000251
0.000270
0.000243
0.000272
0.000312
0.001626
0.000267
0.000240
0.000184
0.000056
0.000208
0.000239
0.000251
0.000263
0.000336
0.000491
0.000258
0.000327
0.000230
0.000255
0.000247
0.000261
0.000237
0.000253
0.000263
0.000258
0.000241
0.000259
0.000253
0.000257
0.000268
0.000271
0.000249
0.000237
0.000241
0.000279
0.000273
0.000263
0.000256
0.000265
0.000191
0.000055
0.000185
0.000234
0.000263
0.000271
0.000219
0.000253
0.000239
0.000264
0.000302
0.000214
0.000231
0.000252
0.000252
0.000249
0.000270
0.000261
0.000255
0.000251
0.000299
0.000251
0.000270
0.000300
0.000266
0.000250
0.000275
0.000280
0.000270
0.000246
0.000301
0.000477
0.000605
0.000057
0.000227
0.000284
0.000211
0.000244
0.000234
0.000254
0.000239
0.000248
0.000256
0.000241
0.000265
0.000309
0.000576
0.000415
0.001499
0.000229
0.000489
0.000234
0.000259
0.000461
0.000423
0.000391
0.000224
0.000274
0.000246
0.000271
0.000280
0.000247
0.000338
0.000228
0.000183
0.000056
0.000265
0.000493
0.000399
0.000280
0.000204
0.000259
0.000245
0.000241
0.000242
0.000243
0.000255
0.000255
0.000233
0.000268
0.000539
0.000325
0.000382
0.001794
0.000238
0.000255
0.000371
0.000422
0.000462
0.000255
0.000304
0.000319
0.000299
0.000238
0.000225
0.000256
0.000185
0.000056
0.000191
0.000227
0.000239
0.000279
0.000429
0.000492
0.000230
0.000258
0.000253
0.000213
0.000246
0.000270
0.000269
0.000261
0.000261
0.000245
0.000314
0.000469
0.000352
0.000436
0.000231
0.001749
0.000342
0.000480
0.000482
0.000492
0.000316
0.000236
0.000252
0.000285
0.000429
0.000058
0.000210
0.000250
0.000234
0.000416
0.000375
0.000375
0.000392
0.000209
0.000244
0.000289
0.000238
0.000265
0.000252
0.000293
0.000309
0.000241
0.000228
0.000409
0.000536
0.000256
0.000488
0.001846
0.000246
0.000603
0.000434
0.000267
0.000232
0.000258
0.000302
0.000255
0.000195
0.000056
0.000223
0.000344
0.000354
0.000325
0.000382
0.000289
0.000368
0.000216
0.000250
0.000258
0.000276
0.000227
0.000251
0.000257
0.000240
0.000259
0.000340
0.000359
0.000505
0.000382
0.000281
0.000243
0.000246
0.001713
0.000455
0.000505
0.000649
0.000266
0.000247
0.000306
0.000156
0.000056
0.000199
0.000232
0.000327
0.000252
0.000253
0.000427
0.000408
0.000277
0.000232
0.000551
0.000218
0.000243
0.000262
0.000280
0.000269
0.000268
0.000210
0.000412
0.000379
0.000465
0.000268
0.000229
0.000256
0.000260
0.000258
0.000270
0.000238
0.000253
0.000270
0.000285
0.000230
0.000056
0.000329
0.000339
0.000213
0.000245
0.000252
0.000261
0.000238
0.000296
0.000235
0.000249
0.000256
0.000376
0.000411
0.000407
0.000324
0.000274
0.000226
0.000240
0.000254
0.000267
0.000291
0.000260
0.000237
0.000256
0.000278
0.000299
0.000518
0.000302
0.000337
0.000230
0.000181
0.000057
0.000205
0.000225
0.000282
0.000244
0.000237
0.000253
0.000251
0.000258
0.000492
0.000212
0.000262
0.000246
0.000252
0.000263
0.000275
0.000269
0.000264
0.000348
0.000220
0.000241
0.000261
0.000265
0.000255
0.000270
0.000274
0.000283
0.000245
0.000251
0.000517
0.000246
0.000156
0.000057
0.000209
0.000234
0.000250
0.000260
0.000223
0.000245
0.000392
0.000412
0.000211
0.000233
0.000251
0.000258
0.000236
0.000293
0.000387
0.001804
0.000235
0.000270
0.000280
0.000400
0.000365
0.000349
0.000371
0.000455
0.000301
0.000427
0.000286
0.000219
0.000264
0.000278
0.001398
0.000055
0.000406
0.000254
0.000287
0.000220
0.000225
0.000259
0.000230
0.000255
0.000244
0.000268
0.000246
0.000259
0.000249
0.000300
0.000577
0.001583
0.000259
0.000223
0.000245
0.000265
0.000239
0.000379
0.000335
0.000332
0.000265
0.000347
0.000221
0.000271
0.000275
0.000263
0.000195
0.000057
0.001312
0.000421
0.000345
0.000272
0.000233
0.000228
0.000234
0.000236
0.000487
0.000224
0.000237
0.000252
0.000338
0.000566
0.000349
0.000354
0.000248
0.000231
0.000350
0.000345
0.000269
0.000257
0.000268
0.000242
0.000271
0.000686
0.000499
0.000217
0.000247
0.000267
0.000168
0.000056
0.000207
0.000228
0.000255
0.000239
0.001426
0.000331
0.000226
0.000258
0.000236
0.000250
0.000255
0.000252
0.000242
0.000281
0.000255
0.000353
0.000425
0.000641
0.000220
0.001733
0.000274
0.000270
0.000343
0.000357
0.000572
0.000407
0.000249
0.000259
0.000253
0.000265
0.000202
0.000057
0.000210
0.000240
0.000240
0.000355
0.001220
0.000227
0.000260
0.000264
0.000239
0.000235
0.000236
0.000254
0.000274
0.000267
0.000237
0.000300
0.000464
0.000419
0.000310
0.000268
0.000267
0.000269
0.000250
0.000232
0.000289
0.000263
0.000240
0.000276
0.000276
0.000344
0.000546
0.000056
0.000223
0.000245
0.000239
0.000257
0.000265
0.000243
0.000234
0.000262
0.000269
0.000258
0.001428
0.000227
0.000239
0.000254
0.000246
0.000244
0.000269
0.000259
0.000263
0.000263
0.000274
0.000489
0.000456
0.000392
0.000228
0.000270
0.001756
0.000271
0.000249
0.000313
0.000500
0.000058
0.000225
0.000411
0.000421
0.000504
0.000513
0.000539
0.001508
0.000411
0.000526
0.000647
0.000551
0.000832
0.000386
0.000608
0.000577
0.001893
0.000390
0.000448
0.000394
0.000317
0.000233
0.000297
0.000262
0.000260
0.000262
0.000284
0.000285
0.000295
0.000269
0.000273
0.001379
0.000056
0.000214
0.000220
0.000247
0.000241
0.000258
0.000258
0.000234
0.000241
0.000253
0.000251
0.000242
0.000235
0.000258
0.000261
0.000265
0.000272
0.001798
0.000301
0.000223
0.000248
0.000254
0.000266
0.000265
0.000272
0.000481
0.000348
0.000358
0.000232
0.000260
0.000274
0.000211
0.000057
0.000196
0.001354
0.000335
0.000259
0.000257
0.000244
0.000239
0.000231
0.000239
0.000243
0.000216
0.000248
0.000247
0.000501
0.000365
0.000279
0.000264
0.000260
0.001951
0.000208
0.000245
0.000265
0.000259
0.000264
0.000271
0.000284
0.000270
0.000246
0.000272
0.000318
0.000199
0.000056
0.000210
0.000237
0.000249
0.001443
0.000213
0.000258
0.000245
0.000252
0.000233
0.000265
0.000250
0.000249
0.000250
0.000254
0.000254
0.000264
0.000259
0.000267
0.000267
0.000271
0.000247
0.001765
0.000313
0.001721
0.000267
0.000250
0.000263
0.000272
0.000289
0.000257
0.000194
0.000056
0.000224
0.000224
0.001346
0.000214
0.000268
0.000238
0.000262
0.000255
0.000243
0.000252
0.000246
0.000251
0.000269
0.000250
0.000266
0.000262
0.000255
0.000285
0.000295
0.000228
0.001883
0.000239
0.001822
0.000246
0.000256
0.000280
0.000227
0.000250
0.000255
0.000268
0.000195
0.000058
0.001410
0.000233
0.000232
0.000248
0.000229
0.000236
0.000372
0.000268
0.000254
0.000266
0.000240
0.000260
0.000302
0.000323
0.000369
0.000292
0.000246
0.000267
0.000257
0.000250
0.000271
0.000344
0.000225
0.000257
0.000264
0.000280
0.000276
0.000401
0.000582
0.000352
0.000199
0.000058
0.000222
0.000251
0.000253
0.000308
0.000392
0.000236
0.001703
0.000295
0.000279
0.000267
0.000250
0.000275
0.000288
0.000258
0.000279
0.000308
0.000330
0.000609
0.000348
0.000273
0.000295
0.000302
0.000234
0.000262
0.000338
0.000295
0.000245
0.000227
0.000263
0.000312
0.000434
0.000056
0.000230
0.000470
0.000270
0.000263
0.000247
0.000229
0.000228
0.000249
0.000258
0.000293
0.001484
0.000225
0.000221
0.000250
0.000243
0.000288
0.000259
0.000246
0.000268
0.000272
0.000278
0.000336
0.000564
0.000303
0.000274
0.000284
0.000270
0.000254
0.000246
0.000308
0.000159
0.000056
0.000205
0.000221
0.000265
0.000478
0.000400
0.000250
0.000217
0.000246
0.000255
0.000251
0.000230
0.000250
0.000258
0.000270
0.000242
0.000256
0.000425
0.001214
0.000211
0.000242
0.000266
0.000245
0.000353
0.000426
0.000251
0.000322
0.000574
0.000357
0.000383
0.000228
0.000180
0.000055
0.000218
0.000246
0.000262
0.000262
0.000254
0.000265
0.000339
0.000434
0.000358
0.000314
0.000371
0.000391
0.000399
0.000346
0.000256
0.000242
0.000235
0.000279
0.000374
0.001522
0.000246
0.000198
0.000266
0.000277
0.000238
0.000234
0.000271
0.000348
0.000446
0.000368
0.000260
0.000057
0.000181
0.000234
0.000255
0.000235
0.000252
0.000249
0.000233
0.000261
0.000337
0.000365
0.000452
0.000327
0.000228
0.000231
0.000255
0.000261
0.000240
0.000261
0.000269
0.000245
0.000439
0.000283
0.000382
0.000432
0.000270
0.000252
0.000272
0.000275
0.000249
0.000343
0.000153
0.000056
0.000295
0.000324
0.000461
0.000281
0.000387
0.000343
0.000255
0.000246
0.000246
0.000273
0.000258
0.000256
0.000240
0.000252
0.000247
0.000224
0.000270
0.000436
0.000370
0.000407
0.000213
0.000278
0.000244
0.000243
0.000267
0.000277
0.000268
0.000266
0.000278
0.000258
0.000346
0.000055
0.000285
0.000353
0.000232
0.000245
0.000240
0.000252
0.000247
0.000259
0.000260
0.000255
0.000248
0.000238
0.000358
0.000557
0.000314
0.000279
0.000243
0.000240
0.000258
0.000267
0.000257
0.000264
0.000257
0.000266
0.000295
0.000401
0.000299
0.000599
0.000410
0.000243
0.000179
0.000057
0.000375
0.000198
0.000240
0.000238
0.000254
0.000248
0.000243
0.000247
0.000257
0.000257
0.000223
0.000250
0.000265
0.000230
0.000242
0.000267
0.000248
0.000260
0.000274
0.000269
0.000257
0.000259
0.000257
0.000265
0.000270
0.000234
0.000286
0.000272
0.000247
0.000279
0.000193
0.000056
0.000191
0.000236
0.000244
0.000252
0.000231
0.000255
0.000262
0.000242
0.000258
0.000273
0.000244
0.000212
0.000267
0.000401
0.000253
0.000276
0.000258
0.000270
0.000252
0.000282
0.000274
0.000234
0.000249
0.000249
0.000275
0.000291
0.000229
0.000255
0.000275
0.000259
0.000204
0.000056
0.000233
0.000332
0.000364
0.000283
0.000294
0.000255
0.000272
0.000255
0.000224
0.000247
0.000247
0.000264
0.000250
0.000237
0.000262
0.000257
0.000271
0.000260
0.000247
0.000261
0.000272
0.000266
0.000282
0.000270
0.000257
0.000250
0.000254
0.000277
0.000265
0.000261
0.000196
0.000056
0.000207
0.000233
0.000262
0.000259
0.000490
0.000209
0.000232
0.000230
0.000327
0.000377
0.000521
0.000276
0.000225
0.000248
0.000268
0.000271
0.000239
0.000272
0.000256
0.000268
0.000284
0.000242
0.000257
0.000250
0.000527
0.000542
0.000267
0.000295
0.000264
0.000263
0.000182
0.000055
0.000217
0.000229
0.000245
0.000249
0.000326
0.000629
0.000352
0.000359
0.000210
0.000246
0.000251
0.000255
0.000250
0.000253
0.000257
0.000267
0.000258
0.000255
0.000652
0.000363
0.000297
0.000251
0.000261
0.000278
0.000282
0.000257
0.000261
0.000268
0.000270
0.000319
0.000310
0.000056
0.000272
0.000230
0.000240
0.000243
0.000249
0.000256
0.000232
0.000252
0.000240
0.000255
0.000262
0.000236
0.000246
0.000525
0.000647
0.000182
0.000237
0.000259
0.000265
0.000240
0.000266
0.000277
0.000481
0.000230
0.000259
0.000736
0.000290
0.000475
0.000249
0.000253
0.000179
0.000056
0.000192
0.000225
0.000246
0.000245
0.000257
0.000253
0.000390
0.000344
0.000662
0.000350
0.000218
0.000264
0.000270
0.000277
0.000257
0.000251
0.000235
0.000249
0.000271
0.000365
0.000378
0.000620
0.000368
0.000266
0.000358
0.000367
0.000486
0.000244
0.000270
0.000525
0.000293
0.000058
0.000277
0.000225
0.000438
0.000220
0.000233
0.000251
0.000264
0.000262
0.000229
0.000256
0.000241
0.000422
0.000349
0.000348
0.000240
0.000238
0.000269
0.000243
0.000261
0.000283
0.000274
0.000255
0.000250
0.000301
0.000268
0.000491
0.000483
0.000250
0.000254
0.000268
0.000199
0.000055
0.000222
0.000257
0.000230
0.000245
0.000246
0.000290
0.000326
0.000533
0.000309
0.000311
0.000343
0.000220
0.000244
0.000270
0.000253
0.000235
0.000259
0.000256
0.000274
0.000392
0.000495
0.000341
0.000476
0.000281
0.000432
0.000387
0.000377
0.000234
0.000253
0.000424
0.000195
0.000056
0.000240
0.000268
0.000225
0.000271
0.000241
0.000254
0.000249
0.000249
0.000260
0.000256
0.000239
0.000464
0.000432
0.000279
0.000382
0.000218
0.000264
0.000268
0.000264
0.000236
0.000253
0.000251
0.000270
0.000270
0.000280
0.000346
0.000502
0.000451
0.000229
0.000284
0.000189
0.000057
0.000216
0.000232
0.000266
0.000239
0.000259
0.000337
0.000709
0.000270
0.000357
0.000686
0.000265
0.000209
0.000244
0.000268
0.000247
0.000263
0.000280
0.000287
0.000495
0.000362
0.001536
0.000309
0.000254
0.000262
0.000294
0.000252
0.000422
0.000390
0.000363
0.000331
0.000163
0.000056
0.000220
0.000232
0.000243
0.000246
0.000239
0.000258
0.000273
0.000248
0.000250
0.000341
0.000328
0.000384
0.000268
0.000357
0.000368
0.000340
0.000249
0.000241
0.000272
0.000258
0.000245
0.000250
0.000284
0.000256
0.000310
0.000452
0.000415
0.000304
0.000239
0.000270
0.000187
0.000056
0.000229
0.000250
0.000257
0.000255
0.000240
0.000238
0.000465
0.000220
0.000236
0.000251
0.000245
0.000251
0.000264
0.000250
0.000249
0.000271
0.000260
0.000265
0.000273
0.000256
0.000282
0.000266
0.000288
0.000254
0.000260
0.000283
0.000264
0.000268
0.000264
0.000270
0.000166
0.000057
0.000235
0.000239
0.000287
0.000512
0.000299
0.000256
0.000234
0.000248
0.000254
0.000256
0.000242
0.000256
0.000263
0.000266
0.000236
0.000247
0.000244
0.000268
0.000307
0.000367
0.000515
0.000266
0.000234
0.000273
0.000259
0.000251
0.000268
0.000253
0.000272
0.000275
0.000195
0.000056
0.000386
0.000442
0.000383
0.000205
0.000249
0.000254
0.000406
0.000224
0.000233
0.000256
0.000257
0.000338
0.000309
0.000432
0.001870
0.000258
0.000241
0.000245
0.000281
0.000233
0.000373
0.000536
0.000577
0.000217
0.000227
0.000263
0.000274
0.000427
0.000280
0.000276
0.000169
0.000056
0.000280
0.000335
0.000327
0.000319
0.000493
0.000200
0.000244
0.000264
0.000242
0.000235
0.000260
0.000250
0.000260
0.000391
0.000398
0.000427
0.000209
0.000247
0.000254
0.000268
0.000262
0.000319
0.000226
0.000283
0.000279
0.000494
0.000531
0.000353
0.000442
0.000231
0.000203
0.000057
0.000203
0.000230
0.000255
0.000230
0.000249
0.000250
0.000268
0.000275
0.000353
0.000441
0.000361
0.000349
0.000217
0.000255
0.000264
0.000278
0.000310
0.000234
0.000274
0.000275
0.000238
0.000345
0.000434
0.000396
0.000259
0.000249
0.000268
0.000436
0.000410
0.000317
0.000168
0.000056
0.000191
0.000289
0.000300
0.000387
0.000401
0.000208
0.000237
0.000257
0.000253
0.000260
0.000262
0.000254
0.000245
0.000245
0.000256
0.000349
0.000443
0.000267
0.000298
0.000325
0.000500
0.000227
0.000280
0.000273
0.000304
0.000285
0.000257
0.000279
0.000479
0.000503
0.000184
0.000057
0.000188
0.000227
0.000251
0.000250
0.000242
0.000479
0.000209
0.000258
0.000274
0.000335
0.000498
0.000588
0.000196
0.000238
0.000247
0.000251
0.000257
0.000243
0.000265
0.000246
0.000262
0.000269
0.000319
0.000521
0.000294
0.000429
0.000286
0.000336
0.000279
0.000250
0.000177
0.000056
0.000186
0.000241
0.000258
0.000491
0.000309
0.000297
0.000268
0.000234
0.000224
0.000263
0.000256
0.000246
0.000252
0.000259
0.000260
0.000250
0.000251
0.000246
0.000256
0.000437
0.000393
0.000470
0.000229
0.000248
0.000275
0.000271
0.000265
0.000259
0.000257
0.000273
0.000187
0.000055
0.000310
0.000338
0.000477
0.000227
0.000198
0.000263
0.000330
0.000452
0.000277
0.000217
0.000239
0.000275
0.000278
0.000426
0.000424
0.000318
0.000230
0.000223
0.000250
0.000287
0.000254
0.000257
0.000267
0.000268
0.000259
0.000315
0.000401
0.000485
0.000225
0.000245
0.000175
0.000057
0.000212
0.000236
0.000245
0.000255
0.000249
0.000267
0.000228
0.000261
0.000246
0.000246
0.000271
0.000237
0.000263
0.001455
0.000228
0.000263
0.000255
0.000245
0.000273
0.000279
0.000259
0.000243
0.000277
0.000248
0.000271
0.000284
0.000255
0.000265
0.000262
0.000279
0.000181
0.000057
0.000211
0.000224
0.000258
0.000249
0.000236
0.000261
0.000242
0.000260
0.000227
0.000252
0.000247
0.000263
0.000259
0.000251
0.000253
0.000257
0.000248
0.000258
0.000275
0.000256
0.000257
0.000258
0.000258
0.000241
0.001295
0.000272
0.000653
0.000340
0.000349
0.000244
0.000193
0.000056
0.000206
0.000231
0.000262
0.000237
0.000409
0.000235
0.000246
0.000244
0.000252
0.000362
0.000462
0.000329
0.000238
0.000228
0.000266
0.000262
0.000257
0.000262
0.000243
0.000257
0.000263
0.000250
0.000272
0.000388
0.000582
0.000407
0.000225
0.000262
0.001378
0.000239
0.000182
0.000056
0.000378
0.000385
0.000329
0.000246
0.000233
0.000244
0.000224
0.000247
0.000260
0.000253
0.000252
0.000258
0.000270
0.000331
0.000558
0.000313
0.000343
0.000223
0.000252
0.000265
0.000265
0.000274
0.000252
0.000267
0.000272
0.000264
0.000378
0.000553
0.000300
0.000401
0.000138
0.000057
0.000205
0.000239
0.001265
0.000420
0.000415
0.000343
0.000392
0.000476
0.000282
0.000336
0.000227
0.000222
0.000263
0.000249
0.000248
0.000273
0.000357
0.000451
0.000464
0.000325
0.000256
0.000242
0.000257
0.000506
0.000244
0.000265
0.000253
0.000282
0.000395
0.000456
0.000300
0.000057
0.000395
0.000333
0.000194
0.000227
0.001581
0.000460
0.000285
0.000250
0.000245
0.000248
0.000228
0.000242
0.000244
0.000272
0.000268
0.000241
0.000239
0.000293
0.000340
0.000426
0.000464
0.000240
0.000252
0.000256
0.000255
0.000277
0.000269
0.000238
0.000270
0.000272
0.000199
0.000058
0.000394
0.000332
0.000228
0.000239
0.000243
0.000242
0.000253
0.000247
0.000227
0.000231
0.001382
0.000579
0.000201
0.000226
0.000241
0.000255
0.000273
0.000262
0.000233
0.000282
0.000271
0.000247
0.000306
0.000455
0.000318
0.000469
0.000234
0.000281
0.000261
0.000287
0.000173
0.000056
0.000217
0.000414
0.000238
0.000233
0.000324
0.000446
0.000366
0.000328
0.000464
0.000199
0.000242
0.000251
0.000257
0.000264
0.000260
0.001507
0.000262
0.000292
0.000234
0.000277
0.000273
0.000255
0.000250
0.000258
0.000259
0.000271
0.000479
0.000420
0.000286
0.000279
0.000157
0.000057
0.000194
0.000239
0.000247
0.000237
0.000230
0.000263
0.000240
0.000246
0.000344
0.000302
0.000444
0.000282
0.000258
0.000248
0.000244
0.000272
0.000272
0.000260
0.000273
0.000230
0.000256
0.000376
0.001196
0.000255
0.000262
0.000249
0.000245
0.000268
0.000260
0.000261
0.000180
0.000056
0.000231
0.000350
0.000343
0.000368
0.000245
0.000241
0.000255
0.000265
0.000252
0.000250
0.000255
0.000274
0.000238
0.000258
0.000252
0.000262
0.000263
0.000276
0.000259
0.000251
0.000254
0.000267
0.000273
0.000285
0.000284
0.000268
0.000268
0.000246
0.000274
0.000437
0.001368
0.000057
0.000202
0.000236
0.000234
0.000245
0.000248
0.000260
0.000249
0.000230
0.000246
0.000250
0.000273
0.000257
0.000250
0.000242
0.000251
0.000246
0.001734
0.000246
0.000250
0.000261
0.000248
0.000256
0.000274
0.000259
0.000277
0.000251
0.000267
0.000290
0.000259
0.000257
0.000232
0.000056
0.000292
0.000344
0.001265
0.000220
0.000232
0.000246
0.000257
0.000254
0.000257
0.000258
0.000228
0.000340
0.000442
0.000440
0.000258
0.000215
0.000254
0.000249
0.000255
0.000268
0.000245
0.000266
0.000265
0.000282
0.000275
0.000440
0.000306
0.000386
0.000303
0.000238
0.000187
0.000056
0.000212
0.000244
0.000245
0.000250
0.000245
0.000224
0.000245
0.000295
0.000392
0.001332
0.000262
0.000211
0.000247
0.000266
0.000259
0.000269
0.000262
0.000249
0.000313
0.000398
0.000390
0.000272
0.000239
0.000244
0.000279
0.000274
0.000279
0.000288
0.000270
0.000276
0.000189
0.000057
0.000227
0.000440
0.000384
0.000224
0.000229
0.000242
0.000243
0.000275
0.000267
0.000248
0.000230
0.000267
0.000434
0.000549
0.000419
0.001466
0.000246
0.000265
0.000338
0.000344
0.000498
0.000471
0.000424
0.000388
0.000215
0.000262
0.000290
0.000258
0.000258
0.000276
0.000187
0.000057
0.000226
0.000352
0.000479
0.000478
0.000228
0.000261
0.000221
0.000233
0.000247
0.000259
0.000252
0.000263
0.000263
0.000244
0.000271
0.000298
0.000438
0.000374
0.000340
0.001323
0.000270
0.000247
0.000262
0.000269
0.000475
0.000424
0.000375
0.000246
0.000293
0.000255
0.000192
0.000055
0.000210
0.000239
0.000242
0.000248
0.000246
0.000277
0.000453
0.000403
0.000348
0.000219
0.000246
0.000263
0.000270
0.000262
0.000259
0.000260
0.000265
0.000265
0.000258
0.000264
0.000495
0.000420
0.000308
0.001358
0.000404
0.000239
0.000281
0.000433
0.000524
0.000246
0.000320
0.000057
0.000204
0.000254
0.000228
0.000251
0.000252
0.000250
0.001713
0.000203
0.000227
0.000236
0.000258
0.000246
0.000258
0.000331
0.000325
0.000286
0.000268
0.000277
0.000625
0.000303
0.000321
0.000275
0.000228
0.001428
0.000332
0.000367
0.000385
0.000469
0.000327
0.000292
0.000154
0.000056
0.000203
0.000246
0.000253
0.000259
0.000243
0.000254
0.001710
0.000227
0.000255
0.000262
0.000336
0.000414
0.001442
0.000342
0.000398
0.000239
0.000263
0.000237
0.000267
0.000270
0.001588
0.000531
0.000389
0.000280
0.000246
0.000246
0.000263
0.000286
0.000239
0.000263
0.000181
0.000057
0.000190
0.000242
0.000269
0.000245
0.000264
0.000269
0.000282
0.000255
0.000254
0.000253
0.000253
0.000248
0.000262
0.000290
0.000234
0.001491
0.000280
0.000234
0.000261
0.000277
0.000276
0.000275
0.000415
0.001252
0.000281
0.000240
0.000271
0.000276
0.000370
0.000252
0.000200
0.000057
0.000220
0.000252
0.000222
0.000240
0.000242
0.000229
0.000237
0.001691
0.000258
0.000229
0.000245
0.000372
0.000222
0.000229
0.000250
0.001385
0.000240
0.000262
0.000264
0.000247
0.000266
0.000348
0.000276
0.001300
0.000273
0.000274
0.000244
0.000272
0.001376
0.000280
0.000200
0.000058
0.000216
0.000365
0.000203
0.000242
0.000251
0.000236
0.000270
0.000264
0.000267
0.000251
0.000259
0.000263
0.000253
0.000264
0.000291
0.001497
0.000250
0.000268
0.000259
0.000243
0.000288
0.000255
0.000253
0.001521
0.000335
0.000242
0.000258
0.001278
0.000267
0.000247
0.000209
0.000057
0.000209
0.000445
0.000292
0.000211
0.000238
0.000239
0.000259
0.000259
0.000267
0.000273
0.000236
0.000249
0.000260
0.000334
0.000358
0.001224
0.000228
0.000249
0.000267
0.000277
0.000231
0.000244
0.000249
0.000329
0.001272
0.000285
0.000226
0.000250
0.000256
0.001339
0.000308
0.000057
0.000257
0.000226
0.000231
0.000225
0.000246
0.000254
0.000244
0.000246
0.000276
0.000251
0.000255
0.000234
0.000267
0.000293
0.000431
0.001483
0.000202
0.000257
0.000300
0.000527
0.000266
0.000412
0.001329
0.000293
0.000267
0.000246
0.000266
0.001294
0.000369
0.000452
0.000364
0.000057
0.000227
0.000253
0.000255
0.000254
0.000252
0.000250
0.000276
0.000245
0.000265
0.000258
0.000339
0.000498
0.001288
0.000237
0.000256
0.000265
0.000282
0.000231
0.000241
0.000238
0.000357
0.001224
0.000252
0.000253
0.000254
0.000249
0.001516
0.000671
0.000237
0.000220
0.000183
0.000056
0.000212
0.000225
0.000249
0.000233
0.000251
0.000270
0.000240
0.000287
0.000423
0.000489
0.000248
0.001490
0.000204
0.000245
0.000273
0.000249
0.000265
0.000346
0.001625
0.000268
0.000399
0.000323
0.001403
0.000233
0.000308
0.000317
0.000261
0.000265
0.000259
0.000270
0.000192
0.000056
0.000199
0.000246
0.000324
0.000246
0.000316
0.000566
0.000274
0.000276
0.001468
0.000237
0.000384
0.000266
0.000232
0.000310
0.000421
0.001275
0.000267
0.000239
0.000246
0.000258
0.001512
0.000389
0.000291
0.000269
0.000262
0.000246
0.000461
0.000343
0.000220
0.000243
0.000271
0.000055
0.000314
0.000294
0.000393
0.000201
0.000223
0.001526
0.000209
0.000253
0.000267
0.000269
0.000272
0.000238
0.000280
0.001505
0.000263
0.000224
0.000433
0.001193
0.000341
0.000469
0.000380
0.000225
0.000247
0.000255
0.000274
0.000242
0.000453
0.000225
0.000272
0.000281
0.000199
0.000056
0.000200
0.000276
0.000339
0.000345
0.001316
0.000278
0.000311
0.000231
0.000240
0.000248
0.000253
0.000396
0.001419
0.000252
0.000238
0.000236
0.001388
0.000308
0.000431
0.000448
0.000338
0.000223
0.000255
0.000251
0.000260
0.000296
0.000263
0.000253
0.000273
0.000245
0.000187
0.000056
0.000198
0.000393
0.001463
0.000209
0.000270
0.000277
0.000243
0.000249
0.000275
0.000385
0.001376
0.000215
0.000262
0.000253
0.000260
0.001268
0.000684
0.000322
0.000325
0.000404
0.000290
0.000242
0.000272
0.000255
0.000273
0.000286
0.000274
0.000308
0.000509
0.000349
0.001381
0.000056
0.000213
0.000247
0.000243
0.000228
0.000308
0.000479
0.000350
0.001299
0.000248
0.000243
0.000260
0.001435
0.000455
0.000293
0.000221
0.000417
0.000240
0.000235
0.000267
0.000278
0.000246
0.000274
0.000276
0.000256
0.000256
0.000323
0.000435
0.000450
0.001493
0.000232
0.000174
0.000057
0.000198
0.000314
0.000314
0.000533
0.001218
0.000282
0.000255
0.000259
0.000246
0.000248
0.000252
0.000265
0.000359
0.000484
0.000352
0.000232
0.000256
0.000279
0.000243
0.000276
0.000263
0.000261
0.000255
0.000272
0.000251
0.000425
0.000469
0.000350
0.000305
0.001402
0.000171
0.000057
0.000190
0.000242
0.000283
0.000477
0.000308
0.000329
0.000300
0.000332
0.000269
0.000257
0.000257
0.000270
0.000248
0.000306
0.000236
0.000259
0.000559
0.000352
0.000306
0.000368
0.000272
0.000402
0.000228
0.000269
0.000249
0.000260
0.000253
0.000300
0.000470
0.000383
0.000276
0.000057
0.000204
0.001400
0.000239
0.000332
0.000403
0.000430
0.000466
0.000219
0.000217
0.000246
0.000261
0.000247
0.000264
0.000269
0.000262
0.000257
0.000260
0.001237
0.000374
0.000261
0.000257
0.000271
0.000272
0.000278
0.000272
0.000247
0.000279
0.000245
0.000464
0.000247
0.000459
0.000058
0.000222
0.000261
0.000217
0.001489
0.000333
0.000233
0.000226
0.000257
0.000231
0.000237
0.000257
0.000274
0.000249
0.000252
0.000266
0.000256
0.000249
0.000269
0.000271
0.000245
0.001438
0.000227
0.000247
0.000266
0.000269
0.000244
0.000266
0.000260
0.000280
0.000482
0.000351
0.000057
0.000183
0.000234
0.000395
0.000279
0.000252
0.000257
0.001527
0.000459
0.000187
0.000221
0.000256
0.000312
0.000336
0.000232
0.000246
0.000232
0.000244
0.000287
0.000238
0.000254
0.000651
0.000345
0.001115
0.000269
0.000239
0.000263
0.000271
0.000253
0.000276
0.000258
0.000402
0.000056
0.000257
0.000341
0.000201
0.000247
0.000248
0.000241
0.000246
0.000230
0.000290
0.001586
0.000443
0.000233
0.000238
0.000250
0.000266
0.000237
0.000274
0.000261
0.000260
0.000311
0.000313
0.000496
0.000508
0.001289
0.000233
0.000267
0.000273
0.000263
0.000272
0.000269
0.000588
0.000057
0.000188
0.000236
0.000241
0.000243
0.000222
0.000240
0.000261
0.000271
0.000248
0.001596
0.000330
0.000259
0.000258
0.000266
0.000464
0.000266
0.000525
0.000374
0.000304
0.000329
0.000463
0.000463
0.001240
0.000261
0.000233
0.000262
0.001736
0.000443
0.000598
0.000316
0.000134
0.000056
0.000204
0.000241
0.000240
0.000231
0.000265
0.000242
0.000255
0.000585
0.000475
0.000323
0.000291
0.000214
0.000248
0.000256
0.000299
0.000238
0.000240
0.000249
0.000260
0.000270
0.000263
0.000470
0.001300
0.000240
0.000240
0.000280
0.001888
0.000384
0.000371
0.000354
0.000163
0.000056
0.000215
0.000244
0.000244
0.001598
0.000398
0.000214
0.000232
0.000266
0.000250
0.000292
0.000396
0.000354
0.000358
0.000269
0.000385
0.000451
0.000374
0.001202
0.000272
0.000233
0.000249
0.000262
0.000272
0.000459
0.000657
0.000367
0.000252
0.000263
0.000268
0.000283
0.000186
0.000057
0.000209
0.000233
0.000245
0.001583
0.000199
0.000238
0.000247
0.000250
0.000242
0.000251
0.000261
0.000284
0.000257
0.000268
0.000280
0.000334
0.000543
0.000244
0.001400
0.000227
0.000267
0.000261
0.000253
0.000267
0.000402
0.000553
0.000351
0.000277
0.000280
0.000222
0.000448
0.000058
0.000198
0.000240
0.000250
0.001523
0.000317
0.000224
0.000263
0.000247
0.000257
0.000254
0.000254
0.000248
0.000282
0.000271
0.000438
0.000446
0.001379
0.000748
0.000264
0.000331
0.000259
0.000229
0.000246
0.000275
0.001684
0.000802
0.000235
0.000264
0.000274
0.000291
0.000178
0.000057
0.000199
0.000238
0.000249
0.000245
0.000275
0.000226
0.000241
0.000255
0.000245
0.000233
0.000287
0.000284
0.000246
0.000248
0.000264
0.000250
0.000269
0.001608
0.000705
0.000397
0.000294
0.000227
0.000242
0.000282
0.000264
0.000264
0.000270
0.000254
0.001409
0.000382
0.000363
0.000058
0.000200
0.000228
0.000252
0.000252
0.000259
0.000231
0.000257
0.000249
0.000251
0.000267
0.000335
0.000351
0.000446
0.000341
0.000208
0.000246
0.000261
0.001395
0.000688
0.000557
0.000279
0.000256
0.000226
0.000247
0.000276
0.000251
0.000268
0.000255
0.001498
0.000417
0.000198
0.000057
0.000199
0.000231
0.000250
0.000247
0.000243
0.000251
0.000233
0.000253
0.000272
0.000276
0.000390
0.000341
0.000334
0.000215
0.000242
0.000248
0.000263
0.000255
0.001678
0.000504
0.000529
0.000277
0.000230
0.000254
0.000266
0.000260
0.000267
0.000291
0.000254
0.001404
0.000280
0.000057
0.000228
0.000216
0.000234
0.000253
0.000257
0.000247
0.000266
0.000295
0.000366
0.000503
0.000320
0.000345
0.000377
0.000228
0.000241
0.000248
0.000278
0.000257
0.000267
0.001920
0.000339
0.000237
0.000434
0.000249
0.000251
0.000263
0.000267
0.000267
0.000266
0.000278
0.000511
0.000056
0.000236
0.000283
0.000235
0.000260
0.000255
0.000234
0.000223
0.000238
0.000269
0.000249
0.000245
0.000240
0.000324
0.000432
0.000434
0.000446
0.000229
0.000264
0.000251
0.000255
0.000257
0.000288
0.001467
0.001053
0.000218
0.000247
0.000272
0.000274
0.000264
0.000255
0.000199
0.000057
0.000182
0.001346
0.000298
0.000216
0.000246
0.000236
0.000252
0.000236
0.000245
0.000249
0.000254
0.000263
0.000239
0.000334
0.000433
0.000411
0.000307
0.000252
0.000279
0.000251
0.000270
0.000226
0.000262
0.000265
0.001397
0.000613
0.000311
0.000398
0.000415
0.000354
0.000291
0.000056
0.000212
0.000243
0.001416
0.000260
0.000211
0.000268
0.000215
0.000259
0.000253
0.000256
0.000246
0.000251
0.000268
0.000363
0.000558
0.000296
0.000228
0.000280
0.000329
0.000230
0.000234
0.000272
0.000229
0.000275
0.000288
0.001521
0.000733
0.000304
0.000276
0.000278
0.000186
0.000057
0.000215
0.000275
0.000449
0.000339
0.001280
0.000241
0.000254
0.000226
0.000229
0.000244
0.000252
0.000253
0.000231
0.000254
0.000240
0.000255
0.000269
0.000233
0.000258
0.000256
0.000264
0.000268
0.000303
0.000339
0.000214
0.000261
0.000265
0.001463
0.000264
0.000234
0.000171
0.000057
0.000209
0.000245
0.000231
0.000312
0.000363
0.000337
0.000401
0.000251
0.001574
0.000253
0.000311
0.000474
0.000348
0.000222
0.000424
0.000232
0.000244
0.000261
0.000276
0.000267
0.000279
0.000267
0.000257
0.000274
0.000238
0.000443
0.000393
0.000309
0.001589
0.000227
0.000182
0.000058
0.000226
0.000250
0.000240
0.000245
0.000240
0.000247
0.000262
0.000293
0.000417
0.002043
0.000235
0.000245
0.000253
0.000258
0.000261
0.000249
0.000273
0.000259
0.000293
0.000406
0.000356
0.000461
0.001452
0.000252
0.000527
0.000230
0.001769
0.000245
0.000259
0.001530
0.000160
0.000073
0.000370
0.000401
0.000424
0.000245
0.000268
0.000218
0.000264
0.000267
0.000262
0.000232
0.000248
0.000376
0.000419
0.000332
0.000432
0.000216
0.000233
0.001560
0.000249
0.000648
0.001815
0.000276
0.000229
0.001547
0.002025
0.000739
0.000277
0.000258
0.000266
0.000509
0.000291
0.000057
0.000199
0.000242
0.000254
0.000243
0.001423
0.001725
0.001082
0.000211
0.000228
0.001580
0.001983
0.000210
0.000234
0.000425
0.000319
0.000379
0.000425
0.000433
0.000214
0.000236
0.000259
0.000252
0.000273
0.001629
0.001180
0.001419
0.000267
0.000300
0.000256
0.000319
0.000333
0.000056
0.000239
0.000215
0.000242
0.000236
0.000233
0.000242
0.000247
0.000253
0.000258
0.000247
0.000238
0.000310
0.000554
0.000335
0.000290
0.000267
0.000260
0.000263
0.000265
0.000269
0.000252
0.000264
0.001535
0.000466
0.002108
0.000229
0.000258
0.000407
0.000379
0.000394
0.000176
0.000056
0.000232
0.000455
0.000370
0.000298
0.000194
0.000233
0.000255
0.000240
0.000244
0.000242
0.000248
0.000263
0.000257
0.001607
0.001359
0.001275
0.000242
0.000218
0.000270
0.000251
0.000285
0.000280
0.000240
0.000251
0.002212
0.000244
0.000255
0.000290
0.000326
0.000305
0.000222
0.000057
0.000233
0.000381
0.000543
0.000299
0.000235
0.000240
0.000247
0.000262
0.001925
0.001446
0.000186
0.000326
0.000390
0.000405
0.000256
0.000229
0.000246
0.000274
0.000268
0.000261
0.000257
0.000265
0.000465
0.000243
0.000267
0.000269
0.000254
0.000274
0.000279
0.000249
0.000203
0.000056
0.000203
0.000246
0.000251
0.000239
0.000250
0.000272
0.001549
0.001411
0.001355
0.000226
0.000221
0.000241
0.000262
0.000264
0.000247
0.000250
0.000248
0.002107
0.000259
0.000224
0.000268
0.000259
0.000257
0.000270
0.000264
0.000261
0.000267
0.000260
0.000269
0.000254
0.000171
0.000055
0.000204
0.002703
0.001365
0.000230
0.000307
0.000292
0.000230
0.000271
0.000257
0.000239
0.000252
0.000249
0.000236
0.000250
0.000266
0.000258
0.000267
0.000266
0.000259
0.000264
0.000269
0.000281
0.000275
0.000258
0.000249
0.000247
0.000263
0.000271
0.000262
0.000266
0.000374
0.000056
0.001541
0.000254
0.001246
0.000225
0.000223
0.000244
0.000259
0.000252
0.000244
0.000270
0.000387
0.000391
0.000332
0.000196
0.000253
0.002200
0.000207
0.000229
0.000304
0.000492
0.000365
0.000294
0.000225
0.000269
0.000248
0.000246
0.000268
0.000277
0.000266
0.001629
0.001248
0.000057
0.000197
0.000230
0.000359
0.000357
0.000291
0.000329
0.000240
0.000199
0.000254
0.000255
0.000266
0.000247
0.000227
0.000255
0.000260
0.000257
0.000294
0.000622
0.000363
0.000252
0.000228
0.000268
0.000303
0.000237
0.000250
0.000246
0.000263
0.000276
0.000244
0.000287
0.000418
0.000058
0.001109
0.000356
0.000222
0.000437
0.000313
0.000224
0.000227
0.000236
0.000254
0.002420
0.000304
0.000322
0.000226
0.000377
0.000278
0.000259
0.000277
0.000246
0.000266
0.000229
0.000251
0.000293
0.000670
0.000426
0.001812
0.001349
0.000517
0.000511
0.000225
0.000289
0.000185
0.000056
0.000269
0.000299
0.000241
0.000249
0.000245
0.000224
0.000255
0.000259
0.000270
0.000230
0.000255
0.000226
0.000253
0.000257
0.000419
0.000499
0.001844
0.001282
0.000446
0.000453
0.000459
0.000231
0.000244
0.000267
0.002121
0.000570
0.000383
0.000229
0.000277
0.000283
0.000187
0.000055
0.000234
0.000210
0.000258
0.000262
0.000230
0.000318
0.000435
0.000263
0.000342
0.000244
0.000240
0.000250
0.000264
0.002136
0.000362
0.000370
0.000217
0.000247
0.000271
0.000258
0.000249
0.002506
0.000290
0.000219
0.000262
0.000251
0.000255
0.000271
0.000286
0.000278
0.000191
0.000055
0.000206
0.000338
0.000604
0.000305
0.000267
0.000231
0.000218
0.000255
0.000261
0.000252
0.001999
0.000345
0.000275
0.000296
0.000219
0.000268
0.000263
0.000247
0.002204
0.000453
0.000225
0.000262
0.000260
0.000268
0.000261
0.000245
0.000284
0.000250
0.000271
0.000269
0.000164
0.000056
0.000186
0.000241
0.000251
0.000229
0.000237
0.000260
0.000239
0.000242
0.000235
0.002181
0.000230
0.000283
0.000217
0.000423
0.000232
0.000254
0.000274
0.000287
0.000258
0.000247
0.001968
0.000292
0.000372
0.000383
0.000385
0.000409
0.000282
0.000252
0.000256
0.000257
0.000198
0.000057
0.000212
0.000238
0.000237
0.000249
0.000246
0.000335
0.000217
0.002307
0.000234
0.000237
0.000261
0.000257
0.000238
0.000252
0.000301
0.002126
0.000593
0.000215
0.000258
0.000248
0.000256
0.000262
0.000293
0.000278
0.000248
0.000251
0.000286
0.000250
0.000271
0.000269
0.000187
0.000057
0.001822
0.001443
0.000206
0.000230
0.000242
0.000253
0.000251
0.000308
0.000406
0.000351
0.002130
0.000255
0.000243
0.000267
0.000288
0.000521
0.000380
0.000311
0.000212
0.000247
0.000254
0.000264
0.000271
0.000216
0.000263
0.000267
0.000269
0.000267
0.000359
0.000616
0.000324
0.000056
0.000207
0.000254
0.000244
0.000265
0.000262
0.000243
0.000253
0.000240
0.001493
0.002106
0.000587
0.000289
0.000557
0.000554
0.000335
0.000222
0.000259
0.000246
0.000263
0.000261
0.000257
0.000241
0.000249
0.000278
0.001820
0.001459
0.000287
0.000329
0.000233
0.000254
0.000452
0.000057
0.001943
0.000233
0.000224
0.000226
0.000322
0.000427
0.000346
0.000321
0.000295
0.000202
0.000244
0.000249
0.000262
0.000256
0.000278
0.000244
0.000257
0.000264
0.001831
0.000248
0.000233
0.000256
0.000278
0.000274
0.000274
0.000254
0.001525
0.000276
0.000261
0.000249
0.000172
0.000057
0.000214
0.000221
0.000247
0.000259
0.000233
0.000240
0.000395
0.000297
0.000319
0.000375
0.000219
0.000263
0.000244
0.000382
0.000383
0.000306
0.000228
0.000250
0.000261
0.000346
0.000513
0.000389
0.000272
0.000254
0.000258
0.000258
0.000250
0.000273
0.000272
0.000267
0.000205
0.000057
0.001445
0.000430
0.000223
0.001953
0.000273
0.000469
0.000437
0.000260
0.000226
0.000247
0.000269
0.000238
0.000252
0.000250
0.000263
0.000257
0.000452
0.000297
0.000417
0.000428
0.000277
0.000230
0.000254
0.000267
0.000272
0.000273
0.000265
0.000267
0.000377
0.000392
0.001420
0.000056
0.000203
0.000223
0.002091
0.000350
0.000244
0.000264
0.000253
0.000252
0.000264
0.000258
0.000212
0.000257
0.000255
0.000257
0.000275
0.000400
0.000672
0.001745
0.000230
0.000247
0.000260
0.000263
0.000399
0.000459
0.001534
0.000290
0.000360
0.001931
0.000278
0.000233
0.000193
0.000056
0.000216
0.000230
0.000235
0.000244
0.000225
0.000251
0.000259
0.000280
0.000332
0.000278
0.000379
0.000361
0.000333
0.000303
0.000234
0.000266
0.000265
0.000244
0.000263
0.000249
0.000296
0.000298
0.000266
0.000258
0.000276
0.001501
0.000292
0.000417
0.002047
0.000237
0.000160
0.000058
0.000218
0.000237
0.000237
0.000245
0.000484
0.000213
0.000253
0.000321
0.000415
0.000276
0.000303
0.000209
0.000269
0.000258
0.000274
0.000328
0.000442
0.000411
0.000254
0.000400
0.000544
0.000470
0.001541
0.000224
0.000262
0.002036
0.000296
0.000229
0.000245
0.000294
0.000187
0.000057
0.000203
0.000247
0.000229
0.000240
0.000252
0.000270
0.000249
0.000280
0.000242
0.000269
0.001811
0.000331
0.000368
0.000317
0.000424
0.000389
0.000313
0.001509
0.000245
0.000325
0.002217
0.000429
0.000253
0.000231
0.000273
0.000261
0.000506
0.000224
0.000258
0.000279
0.000190
0.000057
0.000256
0.000403
0.000324
0.000293
0.000205
0.000240
0.000259
0.000276
0.000247
0.000291
0.000222
0.000256
0.000253
0.000263
0.000334
0.001525
0.000319
0.000211
0.000280
0.002009
0.000257
0.000288
0.000254
0.000263
0.000247
0.000280
0.000277
0.000254
0.000249
0.000269
0.000200
0.000055
0.000312
0.000333
0.002030
0.000259
0.000255
0.000216
0.000293
0.000262
0.000477
0.000385
0.001307
0.000448
0.000278
0.002081
0.000220
0.000231
0.000275
0.000275
0.000253
0.000237
0.000286
0.000293
0.000259
0.000377
0.000503
0.000315
0.000325
0.002234
0.000495
0.000527
0.000348
0.000055
0.000214
0.000235
0.000245
0.001966
0.000226
0.000228
0.000245
0.000244
0.000241
0.000256
0.000244
0.000263
0.000241
0.000348
0.000398
0.001455
0.000249
0.000261
0.000249
0.000256
0.000243
0.000249
0.000258
0.000309
0.000286
0.000462
0.000462
0.000242
0.001601
0.000283
0.000155
0.000056
0.000201
0.000221
0.000247
0.000232
0.000253
0.000254
0.000266
0.000243
0.000248
0.000374
0.000414
0.001362
0.000247
0.000216
0.000247
0.000262
0.000258
0.000250
0.000495
0.000297
0.000431
0.000413
0.000222
0.001577
0.000232
0.000263
0.000279
0.000284
0.000261
0.000271
0.000193
0.000056
0.000213
0.000231
0.000265
0.000267
0.000245
0.000250
0.000238
0.000240
0.000265
0.000229
0.000252
0.000260
0.000254
0.001480
0.000366
0.000210
0.000249
0.000267
0.000310
0.000288
0.000425
0.000216
0.000242
0.000265
0.000256
0.000266
0.000254
0.001417
0.000284
0.000235
0.000158
0.000058
0.000206
0.000231
0.000256
0.000265
0.000253
0.000235
0.000245
0.000266
0.000219
0.000265
0.000243
0.000261
0.000230
0.000320
0.000387
0.000347
0.000230
0.000255
0.001633
0.000242
0.000242
0.000255
0.000282
0.000276
0.000398
0.000357
0.000457
0.000262
0.000255
0.001607
0.000165
0.000058
0.000306
0.000328
0.000424
0.000246
0.000236
0.000222
0.000243
0.000276
0.000255
0.000236
0.000244
0.000244
0.001459
0.000293
0.000308
0.000217
0.000255
0.000260
0.000263
0.000271
0.000252
0.000234
0.000262
0.000270
0.000290
0.000378
0.000409
0.000376
0.000257
0.000257
0.000181
0.000056
0.000222
0.000237
0.000479
0.000293
0.000387
0.000277
0.000244
0.000250
0.000253
0.000255
0.000245
0.000223
0.000256
0.000244
0.001259
0.000303
0.000238
0.000241
0.000273
0.000261
0.000256
0.000248
0.000255
0.000262
0.000257
0.000256
0.000330
0.000709
0.000410
0.000231
0.000186
0.000055
0.000203
0.001563
0.000236
0.000401
0.000457
0.000311
0.000219
0.000261
0.000267
0.000243
0.000248
0.000257
0.000270
0.000273
0.000261
0.001527
0.000254
0.000280
0.000268
0.000255
0.000266
0.000244
0.000266
0.000261
0.000267
0.000301
0.000457
0.000299
0.000355
0.000246
0.000185
0.000056
0.000201
0.000252
0.000232
0.001647
0.000458
0.000272
0.000230
0.000237
0.000257
0.000271
0.000281
0.000253
0.000242
0.000266
0.000236
0.000263
0.000425
0.001303
0.000236
0.000248
0.001500
0.000341
0.000527
0.000438
0.000314
0.000231
0.000266
0.000462
0.000239
0.000260
0.000180
0.000055
0.000291
0.000225
0.000240
0.000248
0.000247
0.000258
0.000238
0.000254
0.000260
0.000236
0.000250
0.000263
0.000584
0.000290
0.001605
0.001518
0.000337
0.000511
0.000359
0.000223
0.000236
0.000253
0.000254
0.000258
0.000249
0.000266
0.000265
0.000268
0.001519
0.000353
0.000150
0.000056
0.000247
0.000342
0.000355
0.000324
0.000228
0.000225
0.000246
0.000378
0.000413
0.000352
0.002171
0.000326
0.000705
0.000510
0.000457
0.000281
0.000312
0.000407
0.000315
0.000277
0.000403
0.000232
0.001878
0.000243
0.000194
0.000251
0.000259
0.000260
0.000261
0.000258
0.000198
0.000057
0.000234
0.000245
0.000252
0.000255
0.000244
0.001662
0.000876
0.000991
0.000215
0.000233
0.000262
0.000259
0.000263
0.000259
0.000255
0.000243
0.000258
0.000260
0.000273
0.000279
0.001422
0.000320
0.000252
0.000229
0.000233
0.000264
0.000261
0.000280
0.000260
0.000290
0.001893
0.000073
0.000180
0.000225
0.001549
0.000937
0.000349
0.000321
0.000227
0.000251
0.000230
0.000257
0.000239
0.000255
0.000248
0.001980
0.000483
0.000243
0.000226
0.000252
0.000261
0.000260
0.000192
