0.000110
0.019370
0.002398
0.000296
0.000242
0.000229
0.000301
0.000258
0.000319
0.000295
0.000247
0.000380
0.000520
0.000518
0.000335
0.000323
0.000271
0.000390
0.000400
0.000409
0.000304
0.001867
0.000477
0.000449
0.000257
0.000305
0.000305
0.000408
0.000415
0.000422
0.000499
0.000222
0.000060
0.000182
0.000239
0.000264
0.000267
0.000276
0.000250
0.000273
0.000272
0.000268
0.000284
0.000415
0.000485
0.000291
0.000294
0.000395
0.000364
0.000344
0.000245
0.000226
0.001728
0.000289
0.000239
0.000491
0.000252
0.000237
0.000251
0.000285
0.000298
0.000281
0.000309
0.000432
0.000056
0.000237
0.000234
0.000278
0.000244
0.000252
0.000249
0.000265
0.000252
0.000278
0.001674
0.000241
0.000240
0.000255
0.000261
0.000275
0.000249
0.000278
0.000253
0.000339
0.001795
0.000273
0.000274
0.000431
0.000476
0.000377
0.000241
0.000298
0.000479
0.000380
0.000856
0.000173
0.000056
0.000172
0.000223
0.000255
0.000235
0.000319
0.000245
0.000335
0.000530
0.000442
0.000263
0.000210
0.000232
0.000217
0.000276
0.000240
0.000258
0.000234
0.000278
0.000292
0.000323
0.001740
0.000250
0.000253
0.000448
0.000643
0.000316
0.000650
0.000516
0.000324
0.000263
0.000204
0.000057
0.000221
0.000224
0.000255
0.000253
0.000245
0.000261
0.000251
0.000572
0.001376
0.000243
0.000243
0.000251
0.000234
0.000248
0.000266
0.000280
0.000289
0.000802
0.001378
0.000282
0.000258
0.000420
0.000255
0.000244
0.000256
0.000246
0.000266
0.000273
0.000269
0.000260
0.000213
0.000057
0.000201
0.000232
0.000223
0.000265
0.000242
0.000244
0.000242
0.000253
0.000238
0.000263
0.001695
0.000244
0.000251
0.000210
0.000220
0.000254
0.000237
0.000252
0.000250
0.000261
0.000261
0.001743
0.000240
0.000251
0.000473
0.000244
0.000229
0.000234
0.000279
0.000252
0.000212
0.000056
0.000207
0.000205
0.000255
0.000233
0.000246
0.000251
0.000254
0.000251
0.000252
0.000247
0.000265
0.000250
0.000260
0.000281
0.001631
0.000273
0.000294
0.000243
0.000232
0.000274
0.000273
0.000240
0.000253
0.000258
0.000267
0.001850
0.000410
0.000328
0.000267
0.000272
0.000222
0.000056
0.000222
0.000211
0.000237
0.000270
0.000258
0.000241
0.000306
0.000394
0.000460
0.000381
0.000215
0.000246
0.000238
0.000249
0.001676
0.000483
0.000331
0.000373
0.000293
0.000228
0.000254
0.000283
0.000268
0.001808
0.000483
0.000490
0.000232
0.000227
0.000224
0.000270
0.000196
0.000056
0.000209
0.000216
0.000227
0.000284
0.000298
0.000460
0.000418
0.000276
0.000208
0.000223
0.000262
0.000238
0.000261
0.001687
0.000492
0.000318
0.000220
0.000250
0.000265
0.000276
0.000256
0.000252
0.000283
0.001901
0.000306
0.000374
0.000235
0.000266
0.000314
0.000401
0.000326
0.000057
0.000206
0.000357
0.000362
0.000283
0.000283
0.000214
0.000243
0.000249
0.000249
0.000249
0.000221
0.000247
0.001634
0.000396
0.000232
0.000221
0.000218
0.000250
0.000252
0.000274
0.000276
0.000344
0.001779
0.000355
0.000230
0.000488
0.000222
0.000233
0.000245
0.000268
0.000278
0.000055
0.000451
0.000439
0.000666
0.000213
0.000206
0.000260
0.000228
0.000219
0.000263
0.000253
0.000254
0.001692
0.000289
0.000398
0.000409
0.000215
0.000216
0.000236
0.000239
0.000257
0.000260
0.001861
0.000244
0.000230
0.002288
0.000394
0.000260
0.000265
0.000258
0.000263
0.000207
0.000058
0.000207
0.000221
0.000249
0.000241
0.000256
0.001684
0.000231
0.000197
0.000243
0.000255
0.000243
0.000247
0.000248
0.000257
0.000276
0.000397
0.000653
0.000252
0.000215
0.000269
0.000289
0.000244
0.000270
0.000455
0.000435
0.000273
0.000396
0.000660
0.000281
0.000215
0.000199
0.000056
0.000212
0.000217
0.000253
0.000234
0.000237
0.000241
0.000244
0.000469
0.000405
0.001646
0.000261
0.000218
0.000247
0.000244
0.000256
0.000267
0.000428
0.000535
0.000377
0.000221
0.000226
0.000276
0.000304
0.000285
0.000276
0.000404
0.000429
0.000558
0.000446
0.000488
0.000136
0.000057
0.000191
0.000248
0.000223
0.000229
0.000236
0.000251
0.000239
0.000242
0.000253
0.000374
0.000340
0.001551
0.000279
0.000203
0.000199
0.000248
0.000245
0.000253
0.000251
0.000245
0.000293
0.000419
0.000442
0.000323
0.000215
0.000237
0.000259
0.000258
0.000275
0.000283
0.000409
0.000055
0.000209
0.000213
0.000227
0.000273
0.000538
0.000417
0.000254
0.000253
0.000222
0.000263
0.000248
0.000248
0.000276
0.000266
0.000235
0.000567
0.000435
0.001537
0.000270
0.000245
0.000265
0.000254
0.000267
0.000238
0.000271
0.000448
0.000523
0.000339
0.000363
0.000233
0.000208
0.000056
0.000193
0.000223
0.000411
0.000229
0.000261
0.000239
0.000315
0.000568
0.000308
0.000317
0.000227
0.000271
0.000269
0.000249
0.000585
0.000297
0.000216
0.000263
0.000342
0.001737
0.000240
0.000259
0.000295
0.000411
0.000267
0.000286
0.000263
0.000455
0.000453
0.000384
0.000264
0.000056
0.000198
0.000216
0.000230
0.000260
0.000462
0.000259
0.000284
0.000219
0.000488
0.000466
0.000358
0.000245
0.000217
0.000206
0.000265
0.000260
0.000261
0.000256
0.000226
0.000364
0.000282
0.000552
0.001636
0.000239
0.000248
0.000250
0.000306
0.000359
0.000548
0.000609
0.000399
0.000055
0.000259
0.000321
0.000316
0.000430
0.000302
0.000238
0.000228
0.000265
0.000529
0.000421
0.000326
0.000211
0.000210
0.000264
0.000270
0.000240
0.000240
0.000272
0.000270
0.000266
0.000266
0.000421
0.001768
0.000298
0.000347
0.000430
0.000372
0.000236
0.000378
0.000435
0.000429
0.000055
0.000254
0.000381
0.000278
0.000209
0.000238
0.000208
0.000470
0.000209
0.000219
0.000354
0.000402
0.000488
0.000233
0.000238
0.000263
0.000286
0.000368
0.000434
0.000302
0.000228
0.000215
0.000298
0.000704
0.001742
0.000220
0.000408
0.000306
0.000239
0.000245
0.000436
0.000348
0.000057
0.000229
0.000207
0.000240
0.000247
0.000240
0.000253
0.000246
0.000350
0.000433
0.000265
0.000630
0.000263
0.000287
0.000205
0.000531
0.000263
0.000277
0.000261
0.000236
0.000372
0.000211
0.000235
0.000273
0.000434
0.000517
0.001662
0.000232
0.000231
0.000257
0.000242
0.000211
0.000056
0.000348
0.000425
0.000384
0.000226
0.000226
0.000215
0.000264
0.000236
0.000254
0.000257
0.000220
0.000484
0.000252
0.000524
0.000371
0.000311
0.000229
0.000241
0.000360
0.000354
0.000365
0.000377
0.000380
0.000374
0.000248
0.000223
0.000245
0.000272
0.001773
0.000284
0.000203
0.000057
0.000167
0.000204
0.000246
0.000272
0.000359
0.000535
0.000335
0.000224
0.000243
0.000262
0.000250
0.000241
0.000550
0.000423
0.000476
0.000304
0.000276
0.000249
0.000440
0.000491
0.000362
0.000440
0.000642
0.000253
0.000240
0.000238
0.000242
0.000224
0.000272
0.001763
0.000374
0.000057
0.000160
0.000326
0.000206
0.000223
0.000257
0.000247
0.000318
0.000422
0.000423
0.000302
0.000305
0.000295
0.000322
0.000683
0.000330
0.000201
0.000225
0.000236
0.000258
0.000261
0.000266
0.000269
0.000245
0.000264
0.000305
0.000368
0.000499
0.000326
0.000227
0.000218
0.000197
0.000055
0.000467
0.000280
0.000466
0.000233
0.000202
0.000237
0.000250
0.000254
0.000241
0.000228
0.000244
0.000275
0.000296
0.000352
0.000594
0.000495
0.000232
0.000366
0.000381
0.000389
0.000252
0.000216
0.000229
0.000245
0.001818
0.000229
0.001756
0.000927
0.000399
0.000331
0.000132
0.000056
0.000180
0.000223
0.000231
0.000249
0.000242
0.000253
0.000264
0.000247
0.000253
0.000291
0.000390
0.000436
0.000534
0.000280
0.000211
0.000233
0.000261
0.000292
0.000210
0.000233
0.000255
0.000222
0.001820
0.000250
0.000241
0.000266
0.000273
0.000260
0.001872
0.000526
0.000310
0.000057
0.000228
0.000199
0.000229
0.000232
0.000255
0.000252
0.000239
0.000260
0.000250
0.000428
0.000517
0.000308
0.000388
0.000231
0.000242
0.000280
0.000378
0.000391
0.000374
0.000250
0.001809
0.000228
0.000219
0.000244
0.000259
0.000265
0.000245
0.000269
0.000248
0.000344
0.000434
0.000056
0.000233
0.000224
0.000207
0.000248
0.000253
0.000237
0.000267
0.000251
0.000234
0.000258
0.000244
0.000272
0.000380
0.000377
0.000461
0.000229
0.000465
0.000211
0.000216
0.000254
0.000270
0.000253
0.000277
0.000252
0.000278
0.001792
0.000256
0.000246
0.000250
0.000233
0.000230
0.000056
0.000326
0.000342
0.000193
0.000204
0.000229
0.000240
0.000231
0.000255
0.000246
0.000226
0.000236
0.000274
0.000239
0.000280
0.000526
0.000351
0.000339
0.000211
0.000224
0.000241
0.000260
0.000254
0.000251
0.000265
0.000263
0.000254
0.000331
0.001684
0.000216
0.000226
0.000205
0.000055
0.000198
0.000214
0.000251
0.000252
0.000387
0.000414
0.000296
0.000358
0.000212
0.000245
0.000248
0.000240
0.000248
0.000258
0.000271
0.000251
0.000245
0.000258
0.000254
0.000259
0.000263
0.000260
0.000268
0.000238
0.000247
0.000264
0.000270
0.000265
0.000260
0.000255
0.000214
0.000056
0.000183
0.000241
0.000226
0.000251
0.000252
0.000244
0.000247
0.000259
0.000361
0.000196
0.000203
0.000246
0.000249
0.000250
0.000259
0.000267
0.000257
0.000247
0.000395
0.000201
0.000224
0.000289
0.000278
0.000255
0.000273
0.000283
0.000261
0.000255
0.000255
0.000518
0.000664
0.000056
0.000235
0.000300
0.000218
0.000205
0.000209
0.000256
0.000242
0.000248
0.000243
0.000250
0.000265
0.000264
0.000585
0.001751
0.000252
0.000210
0.000520
0.000211
0.000230
0.000471
0.000391
0.000393
0.000237
0.000269
0.000260
0.000260
0.000272
0.000252
0.000304
0.000265
0.000202
0.000056
0.000238
0.000481
0.000380
0.000324
0.000202
0.000230
0.000269
0.000232
0.000254
0.000231
0.000252
0.000248
0.000241
0.000255
0.000450
0.000464
0.000325
0.001801
0.000263
0.000241
0.000321
0.000421
0.000553
0.000205
0.000369
0.000274
0.000299
0.000236
0.000237
0.000248
0.000198
0.000055
0.000180
0.000211
0.000234
0.000306
0.000348
0.000536
0.000241
0.000254
0.000258
0.000216
0.000239
0.000269
0.000273
0.000258
0.000244
0.000264
0.000288
0.000499
0.000354
0.000436
0.000229
0.001804
0.000299
0.000589
0.000457
0.000427
0.000280
0.000244
0.000244
0.000264
0.000497
0.000057
0.000178
0.000275
0.000206
0.000359
0.000376
0.000400
0.000440
0.000212
0.000223
0.000312
0.000223
0.000242
0.000248
0.000305
0.000356
0.000215
0.000236
0.000389
0.000454
0.000346
0.000524
0.001785
0.000255
0.000359
0.000575
0.000358
0.000243
0.000367
0.000245
0.000215
0.000225
0.000055
0.000222
0.000338
0.000347
0.000289
0.000393
0.000309
0.000381
0.000223
0.000215
0.000270
0.000271
0.000228
0.000236
0.000254
0.000257
0.000252
0.000313
0.000358
0.000533
0.000386
0.000293
0.000229
0.000251
0.001790
0.000401
0.000412
0.000716
0.000298
0.000229
0.000287
0.000186
0.000055
0.000171
0.000224
0.000319
0.000255
0.000280
0.000366
0.000399
0.000328
0.000302
0.000529
0.000211
0.000227
0.000224
0.000276
0.000278
0.000273
0.000221
0.000346
0.000529
0.000349
0.000284
0.000228
0.000262
0.000260
0.000260
0.000259
0.000239
0.000253
0.000257
0.000374
0.000161
0.000057
0.000313
0.000309
0.000239
0.000220
0.000260
0.000254
0.000246
0.000370
0.000199
0.000202
0.000265
0.000330
0.000452
0.000348
0.000373
0.000312
0.000219
0.000233
0.000253
0.000254
0.000260
0.000300
0.000234
0.000252
0.000278
0.000313
0.000590
0.000254
0.000356
0.000219
0.000156
0.000057
0.000194
0.000212
0.000270
0.000240
0.000241
0.000249
0.000254
0.000266
0.000490
0.000247
0.000227
0.000250
0.000244
0.000262
0.000270
0.000267
0.000276
0.000345
0.000245
0.000237
0.000239
0.000268
0.000257
0.000283
0.000261
0.000263
0.000261
0.000260
0.000252
0.000492
0.000183
0.000056
0.000198
0.000206
0.000254
0.000262
0.000246
0.000230
0.000303
0.000449
0.000264
0.000228
0.000253
0.000253
0.000243
0.000301
0.000494
0.001695
0.000232
0.000256
0.000307
0.000382
0.000412
0.000348
0.000381
0.000331
0.000420
0.000380
0.000248
0.000248
0.000266
0.000274
0.001413
0.000055
0.000437
0.000251
0.000309
0.000211
0.000204
0.000227
0.000231
0.000257
0.000242
0.000266
0.000253
0.000250
0.000257
0.000248
0.000606
0.001680
0.000205
0.000231
0.000204
0.000265
0.000252
0.000246
0.000452
0.000350
0.000270
0.000319
0.000255
0.000252
0.000266
0.000269
0.000212
0.000057
0.001202
0.000564
0.000321
0.000308
0.000196
0.000218
0.000221
0.000212
0.000498
0.000219
0.000232
0.000246
0.000309
0.000588
0.000375
0.000325
0.000298
0.000246
0.000372
0.000324
0.000231
0.000243
0.000263
0.000250
0.000259
0.000786
0.000345
0.000271
0.000252
0.000265
0.000203
0.000075
0.000195
0.000206
0.000216
0.000249
0.001429
0.000373
0.000200
0.000249
0.000235
0.000254
0.000249
0.000254
0.000243
0.000259
0.000266
0.000290
0.000491
0.000656
0.000220
0.001807
0.000250
0.000291
0.000333
0.000352
0.000520
0.000423
0.000232
0.000238
0.000260
0.000269
0.000219
0.000057
0.000170
0.000252
0.000209
0.001316
0.000343
0.000206
0.000245
0.000213
0.000241
0.000233
0.000234
0.000252
0.000282
0.000246
0.000245
0.000302
0.000651
0.000300
0.000310
0.000204
0.000257
0.000274
0.000257
0.000233
0.000369
0.000199
0.000231
0.000269
0.000265
0.000368
0.000606
0.000056
0.000206
0.000226
0.000227
0.000263
0.000281
0.000235
0.000251
0.000237
0.000267
0.000249
0.001444
0.000250
0.000217
0.000248
0.000250
0.000242
0.000268
0.000263
0.000257
0.000272
0.000269
0.000652
0.000395
0.000296
0.000222
0.000265
0.001840
0.000222
0.000241
0.000413
0.000409
0.000056
0.000258
0.000426
0.000460
0.000504
0.000521
0.000531
0.001480
0.000423
0.000544
0.000641
0.000577
0.000768
0.000448
0.000590
0.000581
0.001724
0.000477
0.000435
0.000387
0.000332
0.000233
0.000288
0.000288
0.000265
0.000279
0.000272
0.000319
0.000269
0.000246
0.000295
0.001318
0.000055
0.000221
0.000250
0.000221
0.000231
0.000245
0.000251
0.000237
0.000235
0.000261
0.000276
0.000239
0.000272
0.000226
0.000263
0.000279
0.000240
0.001840
0.000257
0.000268
0.000250
0.000257
0.000258
0.000267
0.000276
0.000432
0.000401
0.000319
0.000264
0.000272
0.000269
0.000170
0.000055
0.000202
0.001380
0.000266
0.000257
0.000269
0.000234
0.000257
0.000242
0.000255
0.000238
0.000244
0.000234
0.000261
0.000440
0.000283
0.000357
0.000272
0.000276
0.001914
0.000254
0.000264
0.000251
0.000262
0.000260
0.000275
0.000259
0.000286
0.000249
0.000240
0.000305
0.000240
0.000058
0.000176
0.000228
0.000257
0.001420
0.000261
0.000266
0.000231
0.000219
0.000226
0.000278
0.000263
0.000226
0.000241
0.000278
0.000270
0.000245
0.000246
0.000264
0.000268
0.000259
0.000259
0.001855
0.000250
0.001760
0.000258
0.000251
0.000254
0.000227
0.000264
0.000307
0.000187
0.000056
0.000205
0.000269
0.001346
0.000216
0.000290
0.000213
0.000220
0.000257
0.000231
0.000266
0.000228
0.000254
0.000247
0.000268
0.000259
0.000257
0.000265
0.000272
0.000298
0.000241
0.001880
0.000273
0.001782
0.000283
0.000255
0.000248
0.000256
0.000261
0.000262
0.000259
0.000190
0.000056
0.001425
0.000236
0.000245
0.000225
0.000212
0.000233
0.000272
0.000356
0.000254
0.000257
0.000253
0.000255
0.000257
0.000393
0.000437
0.000248
0.000265
0.000269
0.000224
0.000223
0.000282
0.000332
0.000234
0.000259
0.000282
0.000264
0.000254
0.000387
0.000668
0.000353
0.000179
0.000057
0.000222
0.000284
0.000282
0.000298
0.000376
0.000246
0.001652
0.000302
0.000285
0.000253
0.000268
0.000316
0.000249
0.000264
0.000297
0.000314
0.000371
0.000484
0.000390
0.000286
0.000315
0.000272
0.000268
0.000269
0.000324
0.000262
0.000260
0.000237
0.000238
0.000287
0.000412
0.000056
0.000294
0.000372
0.000268
0.000263
0.000257
0.000217
0.000231
0.000257
0.000257
0.000248
0.001508
0.000258
0.000210
0.000245
0.000241
0.000282
0.000286
0.000237
0.000259
0.000262
0.000264
0.000326
0.000562
0.000406
0.000220
0.000285
0.000267
0.000240
0.000241
0.000238
0.000258
0.000056
0.000195
0.000200
0.000259
0.000487
0.000405
0.000257
0.000203
0.000244
0.000253
0.000258
0.000231
0.000253
0.000252
0.000272
0.000235
0.000253
0.000451
0.001211
0.000211
0.000279
0.000199
0.000259
0.000349
0.000504
0.000219
0.000231
0.000613
0.000471
0.000308
0.000234
0.000156
0.000057
0.000197
0.000234
0.000258
0.000260
0.000315
0.000209
0.000414
0.000367
0.000435
0.000312
0.000373
0.000400
0.000388
0.000351
0.000241
0.000219
0.000224
0.000233
0.000422
0.000504
0.001200
0.000248
0.000246
0.000277
0.000236
0.000235
0.000265
0.000344
0.000395
0.000491
0.000246
0.000055
0.000186
0.000209
0.000253
0.000239
0.000256
0.000240
0.000238
0.000253
0.000258
0.000412
0.000542
0.000328
0.000228
0.000204
0.000220
0.000266
0.000248
0.000258
0.000264
0.000540
0.000211
0.000276
0.000349
0.000356
0.000365
0.000231
0.000241
0.000274
0.000254
0.000284
0.000238
0.000056
0.000277
0.000297
0.000334
0.000384
0.000450
0.000322
0.000253
0.000269
0.000218
0.000261
0.000265
0.000260
0.000238
0.000254
0.000248
0.000221
0.000293
0.000387
0.000512
0.000332
0.000227
0.000260
0.000219
0.000233
0.000265
0.000283
0.000265
0.000265
0.000267
0.000277
0.000382
0.000056
0.000376
0.000239
0.000222
0.000226
0.000252
0.000247
0.000252
0.000242
0.000265
0.000259
0.000254
0.000244
0.000266
0.000573
0.000423
0.000313
0.000218
0.000204
0.000246
0.000259
0.000280
0.000244
0.000266
0.000255
0.000270
0.000289
0.000406
0.000616
0.000511
0.000218
0.000145
0.000056
0.000367
0.000218
0.000192
0.000235
0.000249
0.000257
0.000245
0.000254
0.000259
0.000242
0.000230
0.000237
0.000263
0.000240
0.000233
0.000271
0.000251
0.000262
0.000271
0.000273
0.000254
0.000261
0.000268
0.000256
0.000277
0.000263
0.000234
0.000278
0.000258
0.000276
0.000215
0.000056
0.000198
0.000201
0.000244
0.000256
0.000232
0.000242
0.000263
0.000247
0.000259
0.000275
0.000231
0.000236
0.000255
0.000406
0.000242
0.000280
0.000263
0.000261
0.000259
0.000284
0.000264
0.000240
0.000249
0.000252
0.000264
0.000276
0.000261
0.000242
0.000279
0.000254
0.000218
0.000056
0.000251
0.000379
0.000347
0.000299
0.000309
0.000229
0.000194
0.000247
0.000249
0.000225
0.000246
0.000265
0.000249
0.000228
0.000268
0.000254
0.000262
0.000276
0.000248
0.000262
0.000270
0.000268
0.000272
0.000258
0.000276
0.000278
0.000238
0.000286
0.000240
0.000259
0.000214
0.000056
0.000198
0.000212
0.000251
0.000262
0.000251
0.000454
0.000216
0.000242
0.000289
0.000421
0.000503
0.000335
0.000212
0.000218
0.000259
0.000274
0.000243
0.000264
0.000262
0.000264
0.000272
0.000261
0.000255
0.000270
0.000519
0.000560
0.000250
0.000275
0.000266
0.000266
0.000197
0.000057
0.000195
0.000208
0.000246
0.000249
0.000347
0.000595
0.000343
0.000363
0.000243
0.000230
0.000253
0.000252
0.000264
0.000242
0.000256
0.000277
0.000257
0.000265
0.000600
0.000416
0.000312
0.000220
0.000251
0.000276
0.000287
0.000264
0.000260
0.000260
0.000256
0.000339
0.000631
0.000057
0.000258
0.000241
0.000211
0.000235
0.000251
0.000260
0.000229
0.000248
0.000239
0.000255
0.000248
0.000270
0.000242
0.000569
0.000374
0.000435
0.000223
0.000239
0.000260
0.000267
0.000240
0.000278
0.000465
0.000255
0.000250
0.000769
0.000277
0.000442
0.000279
0.000249
0.000187
0.000056
0.000174
0.000208
0.000244
0.000240
0.000250
0.000268
0.000416
0.000334
0.000678
0.000315
0.000246
0.000235
0.000266
0.000282
0.000290
0.000222
0.000240
0.000237
0.000258
0.000413
0.000368
0.000533
0.000433
0.000279
0.000443
0.000344
0.000485
0.000205
0.000245
0.000364
0.000487
0.000056
0.000258
0.000217
0.000476
0.000197
0.000240
0.000226
0.000244
0.000264
0.000236
0.000236
0.000262
0.000544
0.000314
0.000297
0.000221
0.000221
0.000275
0.000226
0.000270
0.000275
0.000276
0.000255
0.000255
0.000268
0.000316
0.000503
0.000447
0.000262
0.000251
0.000264
0.000220
0.000055
0.000204
0.000238
0.000232
0.000244
0.000249
0.000254
0.000390
0.000439
0.000405
0.000281
0.000345
0.000240
0.000221
0.000266
0.000260
0.000239
0.000266
0.000251
0.000275
0.000420
0.000518
0.000294
0.000451
0.000357
0.000394
0.000391
0.000377
0.000263
0.000210
0.000282
0.000398
0.000056
0.000246
0.000249
0.000214
0.000254
0.000259
0.000261
0.000244
0.000247
0.000260
0.000264
0.000244
0.000391
0.000431
0.000349
0.000366
0.000254
0.000244
0.000267
0.000265
0.000230
0.000256
0.000249
0.000272
0.000262
0.000287
0.000314
0.000536
0.000441
0.000239
0.000285
0.000206
0.000055
0.000201
0.000216
0.000268
0.000249
0.000251
0.000337
0.000672
0.000331
0.000345
0.000669
0.000292
0.000220
0.000216
0.000261
0.000247
0.000265
0.000291
0.000257
0.000483
0.000498
0.001565
0.000242
0.000258
0.000272
0.000288
0.000242
0.000364
0.000422
0.000361
0.000318
0.000160
0.000056
0.000212
0.000206
0.000241
0.000253
0.000239
0.000247
0.000271
0.000273
0.000236
0.000363
0.000369
0.000348
0.000290
0.000387
0.000380
0.000326
0.000225
0.000213
0.000247
0.000265
0.000242
0.000250
0.000274
0.000265
0.000331
0.000532
0.000368
0.000263
0.000247
0.000245
0.000204
0.000055
0.000211
0.000224
0.000258
0.000259
0.000249
0.000227
0.000454
0.000252
0.000223
0.000240
0.000246
0.000252
0.000261
0.000255
0.000250
0.000271
0.000266
0.000256
0.000277
0.000255
0.000258
0.000283
0.000304
0.000250
0.000259
0.000270
0.000268
0.000266
0.000274
0.000256
0.000194
0.000057
0.000212
0.000229
0.000251
0.000536
0.000342
0.000231
0.000226
0.000234
0.000253
0.000252
0.000244
0.000252
0.000269
0.000255
0.000241
0.000244
0.000248
0.000269
0.000253
0.000490
0.000284
0.000430
0.000232
0.000257
0.000273
0.000253
0.000263
0.000267
0.000259
0.000274
0.000215
0.000057
0.000236
0.000445
0.000349
0.000226
0.000237
0.000263
0.000467
0.000216
0.000190
0.000244
0.000293
0.000329
0.000359
0.000469
0.001736
0.000272
0.000253
0.000239
0.000292
0.000226
0.000361
0.000458
0.000556
0.000339
0.000236
0.000242
0.000273
0.000414
0.000291
0.000276
0.000179
0.000056
0.000243
0.000349
0.000309
0.000305
0.000514
0.000211
0.000230
0.000245
0.000255
0.000237
0.000259
0.000248
0.000262
0.000296
0.000416
0.000519
0.000239
0.000200
0.000257
0.000265
0.000265
0.000308
0.000265
0.000256
0.000279
0.000496
0.000458
0.000397
0.000491
0.000224
0.000211
0.000056
0.000204
0.000208
0.000252
0.000221
0.000251
0.000251
0.000268
0.000287
0.000328
0.000390
0.000412
0.000382
0.000218
0.000233
0.000262
0.000259
0.000334
0.000243
0.000266
0.000269
0.000248
0.000316
0.000472
0.000393
0.000237
0.000283
0.000249
0.000521
0.000387
0.000275
0.000160
0.000056
0.000178
0.000235
0.000490
0.000290
0.000347
0.000230
0.000209
0.000251
0.000268
0.000252
0.000264
0.000262
0.000225
0.000245
0.000265
0.000289
0.000406
0.000338
0.000317
0.000355
0.000464
0.000231
0.000266
0.000283
0.000302
0.000283
0.000265
0.000250
0.000460
0.000592
0.000167
0.000056
0.000192
0.000195
0.000247
0.000246
0.000251
0.000479
0.000209
0.000246
0.000266
0.000313
0.000555
0.000553
0.000215
0.000234
0.000240
0.000256
0.000245
0.000255
0.000267
0.000240
0.000254
0.000275
0.000409
0.000415
0.000425
0.000290
0.000336
0.000349
0.000301
0.000215
0.000174
0.000056
0.000188
0.000212
0.000238
0.000496
0.000322
0.000378
0.000251
0.000204
0.000208
0.000254
0.000250
0.000248
0.000250
0.000256
0.000309
0.000204
0.000257
0.000242
0.000244
0.000412
0.000542
0.000379
0.000231
0.000224
0.000274
0.000276
0.000260
0.000262
0.000259
0.000280
0.000208
0.000056
0.000242
0.000461
0.000461
0.000215
0.000203
0.000218
0.000304
0.000526
0.000256
0.000223
0.000208
0.000268
0.000276
0.000430
0.000457
0.000322
0.000215
0.000198
0.000305
0.000207
0.000277
0.000267
0.000253
0.000281
0.000258
0.000299
0.000431
0.000459
0.000302
0.000213
0.000161
0.000057
0.000194
0.000219
0.000247
0.000255
0.000252
0.000264
0.000230
0.000256
0.000252
0.000244
0.000262
0.000246
0.000258
0.001460
0.000242
0.000232
0.000266
0.000252
0.000268
0.000272
0.000269
0.000246
0.000269
0.000256
0.000271
0.000263
0.000282
0.000265
0.000261
0.000265
0.000209
0.000055
0.000215
0.000217
0.000233
0.000246
0.000242
0.000246
0.000251
0.000262
0.000233
0.000249
0.000246
0.000258
0.000261
0.000252
0.000265
0.000247
0.000252
0.000262
0.000268
0.000256
0.000266
0.000247
0.000274
0.000223
0.001364
0.000278
0.000535
0.000394
0.000416
0.000217
0.000178
0.000074
0.000168
0.000219
0.000238
0.000246
0.000497
0.000231
0.000194
0.000210
0.000259
0.000305
0.000569
0.000375
0.000209
0.000189
0.000234
0.000268
0.000245
0.000266
0.000247
0.000261
0.000266
0.000247
0.000257
0.000479
0.000460
0.000439
0.000255
0.000252
0.001357
0.000277
0.000179
0.000056
0.000376
0.000405
0.000354
0.000244
0.000205
0.000220
0.000205
0.000248
0.000259
0.000261
0.000244
0.000259
0.000259
0.000281
0.000635
0.000366
0.000285
0.000244
0.000239
0.000251
0.000255
0.000259
0.000273
0.000264
0.000263
0.000262
0.000320
0.000542
0.000424
0.000387
0.000149
0.000056
0.000211
0.000209
0.001310
0.000349
0.000303
0.000504
0.000318
0.000336
0.000432
0.000385
0.000222
0.000216
0.000242
0.000242
0.000257
0.000258
0.000340
0.000472
0.000455
0.000329
0.000273
0.000246
0.000269
0.000501
0.000239
0.000243
0.000260
0.000283
0.000307
0.000552
0.000320
0.000057
0.000374
0.000351
0.000221
0.000206
0.001607
0.000450
0.000304
0.000227
0.000203
0.000246
0.000228
0.000240
0.000246
0.000262
0.000255
0.000264
0.000243
0.000310
0.000438
0.000387
0.000444
0.000216
0.000222
0.000244
0.000251
0.000274
0.000274
0.000244
0.000266
0.000275
0.000213
0.000056
0.000358
0.000328
0.000262
0.000194
0.000247
0.000246
0.000259
0.000243
0.000257
0.000222
0.001541
0.000386
0.000266
0.000200
0.000228
0.000256
0.000262
0.000264
0.000232
0.000272
0.000274
0.000261
0.000252
0.000479
0.000399
0.000437
0.000209
0.000260
0.000279
0.000279
0.000191
0.000056
0.000228
0.000439
0.000206
0.000203
0.000356
0.000471
0.000326
0.000320
0.000444
0.000227
0.000218
0.000263
0.000242
0.000276
0.000251
0.001437
0.000329
0.000285
0.000251
0.000262
0.000283
0.000247
0.000257
0.000258
0.000262
0.000270
0.000453
0.000420
0.000334
0.000276
0.000147
0.000056
0.000188
0.000215
0.000249
0.000241
0.000224
0.000263
0.000251
0.000240
0.000307
0.000379
0.000440
0.000320
0.000230
0.000206
0.000231
0.000271
0.000272
0.000264
0.000297
0.000207
0.000269
0.000272
0.001347
0.000221
0.000287
0.000209
0.000237
0.000267
0.000255
0.000260
0.000199
0.000056
0.000205
0.000361
0.000389
0.000352
0.000231
0.000211
0.000239
0.000260
0.000255
0.000255
0.000251
0.000266
0.000247
0.000255
0.000256
0.000259
0.000267
0.000274
0.000262
0.000250
0.000247
0.000280
0.000267
0.000279
0.000289
0.000269
0.000288
0.000227
0.000274
0.000513
0.001312
0.000055
0.000195
0.000217
0.000232
0.000249
0.000246
0.000263
0.000246
0.000226
0.000241
0.000248
0.000265
0.000267
0.000254
0.000237
0.000250
0.001703
0.000362
0.000222
0.000230
0.000215
0.000252
0.000256
0.000268
0.000264
0.000268
0.000265
0.000257
0.000283
0.000271
0.000256
0.000244
0.000055
0.000260
0.000298
0.001376
0.000192
0.000211
0.000249
0.000241
0.000240
0.000258
0.000262
0.000225
0.000330
0.000418
0.000532
0.000234
0.000204
0.000233
0.000255
0.000247
0.000262
0.000249
0.000266
0.000268
0.000287
0.000264
0.000436
0.000384
0.000337
0.000279
0.000253
0.000202
0.000056
0.000196
0.000230
0.000239
0.000247
0.000249
0.000238
0.000233
0.000274
0.000388
0.000439
0.001164
0.000230
0.000260
0.000245
0.000257
0.000263
0.000274
0.000246
0.000322
0.000437
0.000366
0.000269
0.000245
0.000219
0.000276
0.000273
0.000269
0.000302
0.000267
0.000274
0.000218
0.000057
0.000219
0.000450
0.000390
0.000225
0.000205
0.000203
0.000238
0.000270
0.000291
0.000239
0.000218
0.000537
0.000297
0.000440
0.000477
0.001455
0.000217
0.000249
0.000354
0.000356
0.000427
0.000429
0.000457
0.000420
0.000218
0.000257
0.000269
0.000279
0.000265
0.000265
0.000216
0.000056
0.000218
0.000235
0.000496
0.000406
0.000404
0.000209
0.000245
0.000237
0.000246
0.000257
0.000249
0.000265
0.000267
0.000245
0.000260
0.000397
0.000279
0.000521
0.000274
0.001316
0.000252
0.000262
0.000253
0.000470
0.000327
0.000408
0.000412
0.000219
0.000235
0.000270
0.000213
0.000056
0.000190
0.000215
0.000254
0.000240
0.000249
0.000267
0.000567
0.000281
0.000370
0.000222
0.000242
0.000250
0.000270
0.000265
0.000254
0.000269
0.000260
0.000253
0.000268
0.000282
0.000559
0.000407
0.000331
0.001336
0.000342
0.000243
0.000293
0.000421
0.000400
0.000391
0.000337
0.000056
0.000178
0.000217
0.000242
0.000250
0.000253
0.000254
0.001696
0.000263
0.000217
0.000219
0.000250
0.000254
0.000322
0.000326
0.000331
0.000281
0.000236
0.000299
0.000512
0.000435
0.000284
0.000266
0.000232
0.000228
0.001429
0.000416
0.000430
0.000483
0.000305
0.000303
0.000162
0.000056
0.000174
0.000226
0.000256
0.000264
0.000237
0.000259
0.001782
0.000212
0.000243
0.000254
0.000388
0.000417
0.001412
0.000390
0.000369
0.000199
0.000229
0.000239
0.000262
0.000259
0.001854
0.000381
0.000342
0.000291
0.000214
0.000216
0.000252
0.000278
0.000256
0.000240
0.000213
0.000055
0.000193
0.000219
0.000261
0.000253
0.000252
0.000274
0.000286
0.000250
0.000254
0.000253
0.000255
0.000251
0.000254
0.000269
0.000255
0.001501
0.000268
0.000233
0.000271
0.000276
0.000272
0.000282
0.000405
0.001272
0.000281
0.000231
0.000273
0.000254
0.000450
0.000223
0.000193
0.000055
0.000205
0.000225
0.000230
0.000247
0.000237
0.000229
0.000228
0.001758
0.000242
0.000198
0.000248
0.000353
0.000235
0.000217
0.001453
0.000254
0.000214
0.000224
0.000267
0.000236
0.000263
0.000326
0.000318
0.001363
0.000274
0.000226
0.000227
0.000257
0.001392
0.000280
0.000214
0.000056
0.000273
0.000312
0.000204
0.000211
0.000250
0.000238
0.000259
0.000275
0.000264
0.000245
0.000274
0.000255
0.000250
0.000248
0.000349
0.001454
0.000251
0.000268
0.000251
0.000254
0.000279
0.000284
0.000241
0.001520
0.000321
0.000263
0.000248
0.001370
0.000212
0.000226
0.000204
0.000056
0.000198
0.000416
0.000300
0.000236
0.000209
0.000239
0.000259
0.000259
0.000264
0.000273
0.000242
0.000247
0.000259
0.000293
0.000438
0.001251
0.000207
0.000218
0.000256
0.000273
0.000237
0.000243
0.000249
0.001284
0.000394
0.000224
0.000211
0.000253
0.000245
0.001354
0.000304
0.000057
0.000259
0.000257
0.000215
0.000206
0.000248
0.000232
0.000253
0.000244
0.000272
0.000258
0.000238
0.000255
0.000242
0.000322
0.000423
0.001480
0.000239
0.000228
0.000281
0.000517
0.000321
0.000403
0.001322
0.000301
0.000243
0.000260
0.001284
0.000357
0.000363
0.000405
0.000310
0.000056
0.000213
0.000226
0.000256
0.000257
0.000244
0.000259
0.000277
0.000253
0.000259
0.000257
0.000331
0.000501
0.001357
0.000207
0.000235
0.000263
0.000284
0.000263
0.000218
0.000236
0.000325
0.001310
0.000223
0.000240
0.000231
0.000245
0.001491
0.000449
0.000473
0.000233
0.000199
0.000055
0.000198
0.000210
0.000248
0.000241
0.000238
0.000273
0.000240
0.000280
0.000404
0.000484
0.000317
0.001448
0.000234
0.000217
0.000265
0.000255
0.000283
0.000269
0.001641
0.000326
0.000352
0.000358
0.001345
0.000349
0.000318
0.000344
0.000231
0.000225
0.000236
0.000272
0.000213
0.000057
0.000193
0.000209
0.000319
0.000222
0.000311
0.000577
0.000291
0.000344
0.001474
0.000298
0.000327
0.000255
0.000231
0.000276
0.000401
0.001331
0.000268
0.000222
0.000216
0.000246
0.000311
0.001585
0.000354
0.000287
0.000230
0.000216
0.000519
0.000305
0.000226
0.000233
0.000257
0.000056
0.000264
0.000370
0.000344
0.000280
0.000206
0.001454
0.000255
0.000241
0.000248
0.000262
0.000269
0.000247
0.000283
0.001500
0.000266
0.000235
0.000409
0.001280
0.000278
0.000454
0.000368
0.000263
0.000229
0.000245
0.000278
0.000249
0.000448
0.000236
0.000265
0.000265
0.000218
0.000073
0.000189
0.000208
0.000361
0.001449
0.000275
0.000207
0.000312
0.000241
0.000247
0.000246
0.000262
0.000248
0.001639
0.000224
0.000208
0.000218
0.001373
0.000286
0.000513
0.000395
0.000371
0.000214
0.000240
0.000239
0.000361
0.000236
0.000231
0.000253
0.000246
0.000247
0.000216
0.000058
0.000202
0.000399
0.001421
0.000223
0.000258
0.000273
0.000254
0.000243
0.000341
0.000473
0.001225
0.000256
0.000297
0.000244
0.000214
0.001348
0.000590
0.000352
0.000308
0.000412
0.000332
0.000235
0.000229
0.000229
0.000271
0.000288
0.000271
0.000301
0.000429
0.000492
0.001374
0.000055
0.000200
0.000248
0.000224
0.000217
0.000260
0.000412
0.000511
0.001324
0.000211
0.000220
0.000237
0.001453
0.000439
0.000309
0.000463
0.000254
0.000213
0.000208
0.000239
0.000276
0.000262
0.000254
0.000287
0.000256
0.000260
0.000317
0.000412
0.000513
0.001440
0.000273
0.000196
0.000056
0.000182
0.000237
0.000471
0.000459
0.001196
0.000288
0.000250
0.000253
0.000251
0.000246
0.000256
0.000258
0.000325
0.000587
0.000319
0.000210
0.000241
0.000276
0.000247
0.000263
0.000264
0.000275
0.000256
0.000259
0.000257
0.000417
0.000483
0.000332
0.000307
0.001473
0.000151
0.000056
0.000215
0.000215
0.000285
0.000463
0.000314
0.000316
0.000299
0.000331
0.000269
0.000271
0.000257
0.000261
0.000245
0.000314
0.000249
0.000254
0.000569
0.000335
0.000288
0.000375
0.000293
0.000461
0.000229
0.000240
0.000204
0.000269
0.000250
0.000289
0.000345
0.000512
0.000313
0.000057
0.000227
0.001359
0.000279
0.000329
0.000367
0.000481
0.000383
0.000279
0.000225
0.000203
0.000256
0.000254
0.000262
0.000258
0.000275
0.000267
0.000254
0.001416
0.000258
0.000222
0.000224
0.000275
0.000267
0.000281
0.000273
0.000250
0.000271
0.000256
0.000297
0.000420
0.000305
0.000057
0.000227
0.000244
0.001423
0.000366
0.000302
0.000208
0.000214
0.000224
0.000215
0.000258
0.000232
0.000274
0.000261
0.000238
0.000263
0.000271
0.000243
0.000263
0.000260
0.000266
0.001441
0.000253
0.000230
0.000333
0.000230
0.000219
0.000248
0.000264
0.000276
0.000492
0.000393
0.000056
0.000177
0.000219
0.000387
0.000284
0.000248
0.000254
0.001522
0.000448
0.000246
0.000198
0.000252
0.000334
0.000318
0.000223
0.000224
0.000246
0.000252
0.000251
0.000264
0.000253
0.000487
0.000522
0.001172
0.000260
0.000206
0.000233
0.000267
0.000257
0.000273
0.000271
0.000313
0.000056
0.000274
0.000358
0.000201
0.000201
0.000256
0.000233
0.000243
0.000227
0.001741
0.000187
0.000452
0.000255
0.000209
0.000214
0.000244
0.000249
0.000253
0.000271
0.000257
0.000312
0.000316
0.000564
0.000369
0.001370
0.000232
0.000257
0.000271
0.000264
0.000268
0.000274
0.000618
0.000056
0.000188
0.000198
0.000246
0.000235
0.000223
0.000252
0.000255
0.000241
0.000271
0.001583
0.000350
0.000242
0.000266
0.000263
0.000472
0.000290
0.000401
0.000457
0.000339
0.000322
0.000444
0.000470
0.001315
0.000218
0.000226
0.000232
0.001763
0.000432
0.000639
0.000274
0.000155
0.000056
0.000164
0.000221
0.000235
0.000236
0.000255
0.000246
0.000357
0.000407
0.000605
0.000336
0.000285
0.000218
0.000206
0.000257
0.000259
0.000270
0.000264
0.000241
0.000250
0.000274
0.000270
0.000394
0.001389
0.000230
0.000223
0.000273
0.001893
0.000381
0.000380
0.000382
0.000155
0.000056
0.000216
0.000202
0.000246
0.001578
0.000428
0.000198
0.000238
0.000261
0.000248
0.000343
0.000364
0.000374
0.000350
0.000306
0.000298
0.000542
0.000312
0.001262
0.000264
0.000203
0.000225
0.000255
0.000378
0.000462
0.000529
0.000468
0.000221
0.000218
0.000259
0.000286
0.000207
0.000057
0.000201
0.000207
0.001455
0.000411
0.000203
0.000209
0.000229
0.000245
0.000252
0.000256
0.000243
0.000273
0.000266
0.000273
0.000254
0.000342
0.000520
0.000286
0.001404
0.000262
0.000228
0.000261
0.000258
0.000260
0.000385
0.000496
0.000437
0.000301
0.000281
0.000252
0.000400
0.000057
0.000174
0.000210
0.000257
0.000254
0.001584
0.000239
0.000252
0.000240
0.000257
0.000255
0.000260
0.000263
0.000251
0.000253
0.000420
0.000552
0.001409
0.000754
0.000192
0.000340
0.000251
0.000220
0.000225
0.000280
0.001757
0.000745
0.000254
0.000226
0.000276
0.000288
0.000206
0.000055
0.000190
0.000204
0.000256
0.000246
0.000251
0.000246
0.000250
0.000243
0.000261
0.000230
0.000270
0.000284
0.000262
0.000247
0.000256
0.000263
0.000260
0.001609
0.000672
0.000474
0.000269
0.000223
0.000226
0.000272
0.000281
0.000256
0.000270
0.000263
0.001516
0.000307
0.000367
0.000055
0.000190
0.000219
0.000230
0.000259
0.000257
0.000231
0.000254
0.000256
0.000246
0.000270
0.000222
0.000577
0.000513
0.000177
0.000213
0.000223
0.000257
0.001468
0.000699
0.000378
0.000363
0.000287
0.000221
0.000245
0.000265
0.000263
0.000247
0.000264
0.001510
0.000446
0.000194
0.000056
0.000226
0.000206
0.000245
0.000243
0.000245
0.000240
0.000241
0.000251
0.000267
0.000263
0.000374
0.000377
0.000330
0.000225
0.000239
0.000239
0.000265
0.000259
0.001574
0.000605
0.000626
0.000214
0.000221
0.000242
0.000257
0.000261
0.000266
0.000280
0.000265
0.001444
0.000289
0.000056
0.000211
0.000216
0.000208
0.000256
0.000259
0.000247
0.000286
0.000357
0.000374
0.000412
0.000358
0.000399
0.000314
0.000211
0.000233
0.000244
0.000276
0.000261
0.001394
0.000900
0.000304
0.000200
0.000472
0.000224
0.000208
0.000248
0.000281
0.000258
0.000267
0.000273
0.000349
0.000057
0.000215
0.000300
0.000208
0.000234
0.000253
0.000251
0.000221
0.000247
0.000257
0.000266
0.000239
0.000237
0.000248
0.000462
0.000497
0.000431
0.000223
0.000261
0.000258
0.000247
0.000249
0.000379
0.001384
0.001054
0.000234
0.000237
0.000284
0.000256
0.000269
0.000253
0.000220
0.000056
0.000185
0.001383
0.000259
0.000217
0.000202
0.000243
0.000253
0.000243
0.000233
0.000249
0.000258
0.000269
0.000233
0.000368
0.000377
0.000464
0.000319
0.000214
0.000257
0.000280
0.000260
0.000235
0.000256
0.000266
0.001406
0.000682
0.000297
0.000401
0.000367
0.000401
0.000256
0.000056
0.000200
0.000214
0.000345
0.001329
0.000238
0.000272
0.000204
0.000248
0.000251
0.000252
0.000264
0.000237
0.000302
0.000315
0.000557
0.000371
0.000204
0.000316
0.000267
0.000228
0.000233
0.000276
0.000232
0.000263
0.000269
0.001577
0.000721
0.000284
0.000271
0.000273
0.000211
0.000056
0.000204
0.000228
0.000459
0.000404
0.001292
0.000240
0.000205
0.000213
0.000237
0.000249
0.000233
0.000256
0.000244
0.000229
0.000254
0.000258
0.000273
0.000227
0.000251
0.000262
0.000265
0.000267
0.000333
0.000310
0.000243
0.000232
0.000273
0.001536
0.000227
0.000225
0.000163
0.000057
0.000178
0.000205
0.000254
0.000351
0.000342
0.000340
0.000402
0.000241
0.001561
0.000246
0.000396
0.000463
0.000328
0.000188
0.000485
0.000226
0.000213
0.000235
0.000260
0.000278
0.000278
0.000283
0.000245
0.000267
0.000248
0.000469
0.000406
0.000325
0.001514
0.000265
0.000172
0.000059
0.000230
0.000219
0.000254
0.000238
0.000244
0.000244
0.000267
0.000290
0.000448
0.002079
0.000207
0.000200
0.000259
0.000251
0.000264
0.000316
0.000270
0.000207
0.000256
0.000457
0.000316
0.000469
0.001518
0.000218
0.000264
0.000461
0.001783
0.000271
0.000258
0.001488
0.000194
0.000056
0.000331
0.000382
0.000459
0.000250
0.000261
0.000229
0.000259
0.000258
0.000269
0.000244
0.000245
0.000322
0.000430
0.000335
0.000417
0.000299
0.000198
0.001562
0.000505
0.001984
0.000328
0.000233
0.000211
0.001549
0.002036
0.000732
0.000272
0.000232
0.000274
0.000482
0.000350
0.000056
0.000200
0.000207
0.000258
0.000270
0.001462
0.001672
0.001070
0.000228
0.000216
0.001588
0.001964
0.000235
0.000328
0.000396
0.000314
0.000421
0.000334
0.000385
0.000247
0.000228
0.000253
0.000258
0.000270
0.001562
0.001317
0.001411
0.000266
0.000242
0.000261
0.000290
0.000378
0.000058
0.000195
0.000240
0.000200
0.000246
0.000235
0.000231
0.000257
0.000247
0.000269
0.000237
0.000243
0.000315
0.000426
0.000529
0.000296
0.000218
0.000217
0.000266
0.000268
0.000268
0.000258
0.001442
0.000497
0.000372
0.002049
0.000258
0.000242
0.000317
0.000505
0.000435
0.000154
0.000056
0.000209
0.000316
0.000479
0.000319
0.000209
0.000247
0.000215
0.000254
0.000246
0.000236
0.000259
0.000251
0.000261
0.001615
0.001425
0.001214
0.000279
0.000229
0.000216
0.000235
0.000288
0.000278
0.000257
0.000247
0.002264
0.000216
0.000230
0.000283
0.000322
0.000299
0.000263
0.000057
0.000201
0.000418
0.000545
0.000336
0.000214
0.000200
0.000228
0.000259
0.001903
0.001414
0.000270
0.000381
0.000395
0.000353
0.000263
0.000208
0.000234
0.000262
0.000261
0.000263
0.000268
0.000262
0.000465
0.000259
0.000247
0.000288
0.000236
0.000278
0.000287
0.000242
0.000218
0.000056
0.000172
0.000229
0.000250
0.000243
0.000247
0.000283
0.001519
0.001516
0.001307
0.000226
0.000215
0.000217
0.000254
0.000266
0.000248
0.000245
0.000272
0.002151
0.000218
0.000217
0.000248
0.000263
0.000260
0.000262
0.000268
0.000263
0.000259
0.000263
0.000272
0.000264
0.000185
0.000056
0.001502
0.000318
0.002389
0.000252
0.000302
0.000298
0.000242
0.000258
0.000261
0.000243
0.000257
0.000251
0.000238
0.000236
0.000263
0.000261
0.000263
0.000271
0.000255
0.000273
0.000263
0.000271
0.000279
0.000274
0.000240
0.000272
0.000242
0.000272
0.000269
0.000261
0.000388
0.000056
0.000189
0.002562
0.000341
0.000198
0.000218
0.000192
0.000256
0.000258
0.000252
0.000248
0.000477
0.000286
0.000345
0.000235
0.000233
0.002209
0.000219
0.000227
0.000243
0.000499
0.000454
0.000259
0.000219
0.000231
0.000263
0.000247
0.000263
0.000285
0.000272
0.001725
0.001184
0.000058
0.000203
0.000206
0.000300
0.000383
0.000399
0.000252
0.000223
0.000210
0.000249
0.000258
0.000264
0.000248
0.000241
0.000244
0.000261
0.000238
0.000289
0.000676
0.000363
0.000253
0.000233
0.000239
0.000272
0.000259
0.000258
0.000251
0.000246
0.000282
0.000270
0.000265
0.000413
0.000059
0.001107
0.000291
0.000294
0.000427
0.000332
0.000217
0.000193
0.000230
0.002186
0.000455
0.000328
0.000370
0.000208
0.000288
0.000337
0.000263
0.000271
0.000256
0.000263
0.000252
0.000231
0.000263
0.000687
0.000450
0.001802
0.001331
0.000535
0.000533
0.000224
0.000257
0.000226
0.000056
0.000295
0.000312
0.000226
0.000247
0.000237
0.000249
0.000231
0.000241
0.000256
0.000251
0.000257
0.000239
0.000244
0.000243
0.000369
0.000567
0.001874
0.001306
0.000440
0.000385
0.000448
0.000251
0.000243
0.000271
0.002199
0.000479
0.000377
0.000240
0.000272
0.000286
0.000211
0.000056
0.000168
0.000236
0.000248
0.000242
0.000249
0.000322
0.000449
0.000353
0.000292
0.000225
0.000221
0.000286
0.000267
0.002042
0.000398
0.000375
0.000231
0.000228
0.000263
0.000274
0.000248
0.002484
0.000312
0.000223
0.000256
0.000255
0.000252
0.000275
0.000268
0.000291
0.000216
0.000056
0.000187
0.000376
0.000553
0.000386
0.000228
0.000193
0.000218
0.000242
0.000265
0.000260
0.002068
0.000347
0.000265
0.000258
0.000200
0.000243
0.000269
0.000253
0.002265
0.000401
0.000228
0.000245
0.000278
0.000251
0.000277
0.000224
0.000285
0.000263
0.000263
0.000267
0.000194
0.000055
0.000189
0.000213
0.000256
0.000211
0.000255
0.000258
0.000260
0.000231
0.000246
0.002145
0.000241
0.000283
0.000228
0.000471
0.000212
0.000217
0.000262
0.000286
0.000256
0.002003
0.000287
0.000250
0.000377
0.000366
0.000483
0.000340
0.000289
0.000250
0.000227
0.000242
0.000220
0.000057
0.000198
0.000252
0.000197
0.000252
0.000244
0.000392
0.000208
0.002312
0.000208
0.000242
0.000226
0.000257
0.000239
0.000243
0.000305
0.002192
0.000525
0.000238
0.000244
0.000241
0.000267
0.000275
0.000264
0.000269
0.000267
0.000251
0.000290
0.000251
0.000266
0.000306
0.000169
0.000055
0.000200
0.002992
0.000255
0.000217
0.000245
0.000245
0.000252
0.000297
0.000388
0.000414
0.002090
0.000263
0.000249
0.000257
0.000293
0.000409
0.000535
0.000296
0.000219
0.000221
0.000244
0.000253
0.000269
0.000248
0.000251
0.000263
0.000268
0.000263
0.000320
0.000704
0.000300
0.000057
0.000198
0.000277
0.000271
0.000210
0.000238
0.000248
0.000253
0.000241
0.001544
0.002127
0.000515
0.000274
0.000438
0.000734
0.000349
0.000209
0.000213
0.000245
0.000271
0.000255
0.000272
0.000227
0.000243
0.000273
0.001836
0.001449
0.000294
0.000269
0.000307
0.000260
0.000459
0.000057
0.001920
0.000237
0.000234
0.000202
0.000278
0.000385
0.000457
0.000313
0.000300
0.000230
0.000223
0.000213
0.000252
0.000249
0.000268
0.000266
0.000251
0.000262
0.001912
0.000219
0.000214
0.000230
0.000267
0.000275
0.000283
0.000260
0.001543
0.000325
0.000228
0.000231
0.000159
0.000056
0.000205
0.000221
0.000223
0.000235
0.000255
0.000238
0.000398
0.000316
0.000338
0.000393
0.000205
0.000214
0.000333
0.000326
0.000378
0.000324
0.000215
0.000222
0.000261
0.000343
0.000602
0.000384
0.000216
0.000230
0.000264
0.000244
0.000255
0.000269
0.000278
0.000261
0.000229
0.000056
0.001442
0.000393
0.000247
0.002013
0.000216
0.000452
0.000364
0.000391
0.000194
0.000209
0.000268
0.000248
0.000246
0.000249
0.000266
0.000272
0.000446
0.000328
0.000429
0.000369
0.000318
0.000211
0.000244
0.000257
0.000345
0.000226
0.000243
0.000268
0.000315
0.000495
0.001444
0.000056
0.000163
0.000217
0.002077
0.000264
0.000338
0.000261
0.000256
0.000261
0.000261
0.000253
0.000222
0.000250
0.000257
0.000261
0.000257
0.000345
0.000725
0.001723
0.000265
0.000246
0.000256
0.000269
0.000341
0.000518
0.001535
0.000269
0.000358
0.002016
0.000218
0.000247
0.000199
0.000055
0.000208
0.000213
0.000223
0.000251
0.000228
0.000246
0.000250
0.000275
0.000340
0.000306
0.000381
0.000372
0.000328
0.000291
0.000233
0.000240
0.000266
0.000244
0.000255
0.000269
0.000268
0.000312
0.000260
0.000260
0.000282
0.001574
0.000291
0.000400
0.001984
0.000250
0.000183
0.000055
0.000208
0.000217
0.000235
0.000247
0.000458
0.000238
0.000245
0.000335
0.000377
0.000370
0.000226
0.000225
0.000251
0.000268
0.000276
0.000326
0.000440
0.000414
0.000263
0.000363
0.000592
0.000388
0.001606
0.000263
0.000236
0.002024
0.000346
0.000220
0.000223
0.000262
0.000205
0.000056
0.000190
0.000212
0.000229
0.000240
0.000244
0.000270
0.000258
0.000262
0.000266
0.000256
0.001880
0.000284
0.000398
0.000343
0.000448
0.000365
0.001519
0.000322
0.000207
0.000305
0.002224
0.000454
0.000241
0.000228
0.000227
0.000263
0.000492
0.000247
0.000235
0.000286
0.000217
0.000057
0.000301
0.000360
0.000382
0.000273
0.000210
0.000215
0.000250
0.000252
0.000266
0.000306
0.000217
0.000249
0.000255
0.000261
0.000365
0.000480
0.001290
0.000254
0.000433
0.001934
0.000269
0.000254
0.000222
0.000248
0.000237
0.000284
0.000264
0.000267
0.000239
0.000271
0.000220
0.000056
0.000238
0.000388
0.002086
0.000219
0.000238
0.000222
0.000221
0.000350
0.000373
0.001533
0.000325
0.000368
0.000333
0.001990
0.000238
0.000224
0.000274
0.000287
0.000252
0.000230
0.000292
0.000279
0.000270
0.000355
0.000490
0.000347
0.000360
0.002194
0.000509
0.000511
0.000392
0.000056
0.000195
0.000215
0.000222
0.002037
0.000199
0.000216
0.000227
0.000243
0.000254
0.000231
0.000245
0.000268
0.000244
0.000291
0.000494
0.000355
0.001297
0.000250
0.000264
0.000261
0.000232
0.000247
0.000275
0.000261
0.000371
0.000419
0.000453
0.000261
0.001679
0.000223
0.000155
0.000057
0.000198
0.000204
0.000236
0.000237
0.000250
0.000254
0.000253
0.000249
0.000268
0.000320
0.000402
0.001478
0.000221
0.000192
0.000248
0.000240
0.000272
0.000248
0.000273
0.000504
0.000409
0.000456
0.000229
0.001559
0.000248
0.000246
0.000272
0.000288
0.000263
0.000272
0.000202
0.000057
0.000200
0.000211
0.000257
0.000267
0.000267
0.000226
0.000241
0.000240
0.000262
0.000238
0.000256
0.000247
0.000259
0.000253
0.001582
0.000234
0.000249
0.000260
0.000332
0.000329
0.000360
0.000262
0.000202
0.000260
0.000259
0.000254
0.001487
0.000282
0.000209
0.000225
0.000178
0.000056
0.000194
0.000232
0.000235
0.000272
0.000264
0.000218
0.000243
0.000268
0.000223
0.000266
0.000239
0.000259
0.000233
0.000318
0.000351
0.000363
0.000298
0.001581
0.000339
0.000208
0.000215
0.000234
0.000261
0.000288
0.000444
0.000449
0.000407
0.000225
0.000224
0.001600
0.000191
0.000058
0.000324
0.000365
0.000427
0.000224
0.000209
0.000205
0.000239
0.000270
0.000263
0.000236
0.000268
0.000226
0.001447
0.000337
0.000294
0.000212
0.000228
0.000258
0.000267
0.000265
0.000252
0.000241
0.000267
0.000263
0.000249
0.000426
0.000480
0.000324
0.000286
0.000230
0.000178
0.000057
0.000200
0.000225
0.000438
0.000421
0.000337
0.000242
0.000227
0.000249
0.000253
0.000253
0.000244
0.000229
0.000256
0.000248
0.001326
0.000292
0.000193
0.000235
0.000260
0.000268
0.000242
0.000258
0.000250
0.000269
0.000261
0.000254
0.000303
0.000637
0.000527
0.000236
0.000180
0.000056
0.000189
0.001540
0.000267
0.000329
0.000480
0.000375
0.000194
0.000242
0.000261
0.000254
0.000243
0.000262
0.000265
0.000275
0.000270
0.001512
0.000258
0.000285
0.000263
0.000256
0.000262
0.000253
0.000259
0.000272
0.000260
0.000260
0.000437
0.000493
0.000283
0.000231
0.000162
0.000055
0.000176
0.000234
0.000237
0.001735
0.000368
0.000336
0.000207
0.000201
0.000251
0.000269
0.000272
0.000264
0.000247
0.000260
0.000243
0.000268
0.000418
0.001370
0.000215
0.000223
0.001536
0.000285
0.000581
0.000418
0.000284
0.000243
0.000244
0.000465
0.000246
0.000258
0.000198
0.000057
0.000282
0.000214
0.000226
0.000240
0.000238
0.000258
0.000243
0.000248
0.000263
0.000236
0.000258
0.000251
0.000379
0.000481
0.001619
0.001485
0.000411
0.000479
0.000335
0.000259
0.000214
0.000263
0.000249
0.000257
0.000254
0.000270
0.000262
0.000266
0.001591
0.000316
0.000146
0.000056
0.000245
0.000335
0.000350
0.000330
0.000256
0.000198
0.000226
0.000374
0.000376
0.001437
0.000350
0.001542
0.000448
0.000391
0.000451
0.000278
0.000329
0.000334
0.000347
0.000275
0.000240
0.000353
0.001564
0.000521
0.000251
0.000237
0.000273
0.000241
0.000261
0.000255
0.000222
0.000056
0.000221
0.000228
0.000257
0.000260
0.000255
0.001633
0.000959
0.000896
0.000236
0.000239
0.000249
0.000269
0.000254
0.000261
0.000253
0.000252
0.000251
0.000261
0.000267
0.000283
0.001506
0.000269
0.000253
0.000223
0.000225
0.000243
0.000265
0.000274
0.000273
0.000273
0.000216
0.000057
0.000184
0.000209
0.001541
0.000990
0.000300
0.000377
0.000199
0.000208
0.000244
0.000252
0.000247
0.000257
0.000240
0.002056
0.000462
0.000217
0.000202
0.000238
0.000263
0.000265
0.000202
