0.000090
0.019371
0.002153
0.000297
0.000248
0.000304
0.000321
0.000229
0.000326
0.000295
0.000246
0.000329
0.000530
0.000483
0.000390
0.000333
0.000280
0.000374
0.000322
0.000419
0.000314
0.001895
0.000736
0.000279
0.000222
0.000299
0.000320
0.000315
0.000422
0.000461
0.000497
0.000279
0.000057
0.000207
0.000274
0.000289
0.000283
0.000235
0.000249
0.000280
0.000291
0.000261
0.000320
0.000376
0.000454
0.000298
0.000252
0.000375
0.000354
0.000366
0.000251
0.000240
0.001757
0.000270
0.000254
0.000448
0.000264
0.000259
0.000277
0.000291
0.000310
0.000259
0.000360
0.000410
0.000056
0.000206
0.000242
0.000260
0.000262
0.000254
0.000264
0.000247
0.000251
0.000286
0.001674
0.000245
0.000214
0.000273
0.000269
0.000273
0.000270
0.000249
0.000255
0.000353
0.001791
0.000243
0.000281
0.000447
0.000439
0.000385
0.000235
0.000355
0.000417
0.000536
0.000695
0.000185
0.000057
0.000219
0.000254
0.000273
0.000219
0.000289
0.000274
0.000274
0.000736
0.000226
0.000266
0.000238
0.000250
0.000237
0.000250
0.000257
0.000259
0.000263
0.000253
0.000304
0.000330
0.001653
0.000285
0.000239
0.000428
0.000274
0.000757
0.000634
0.000524
0.000343
0.000242
0.000184
0.000056
0.000193
0.000242
0.000294
0.000211
0.000291
0.000221
0.000285
0.000549
0.001371
0.000224
0.000240
0.000239
0.000257
0.000252
0.000288
0.000277
0.000316
0.000783
0.001351
0.000305
0.000236
0.000414
0.000266
0.000223
0.000257
0.000266
0.000258
0.000274
0.000262
0.000268
0.000197
0.000057
0.000211
0.000251
0.000241
0.000266
0.000237
0.000249
0.000255
0.000232
0.000242
0.000255
0.001632
0.000260
0.000241
0.000236
0.000255
0.000243
0.000250
0.000249
0.000255
0.000253
0.000301
0.001636
0.000290
0.000255
0.000428
0.000259
0.000246
0.000265
0.000260
0.000270
0.000202
0.000055
0.000202
0.000234
0.000242
0.000251
0.000236
0.000251
0.000261
0.000236
0.000262
0.000261
0.000248
0.000261
0.000252
0.000275
0.001638
0.000284
0.000294
0.000215
0.000249
0.000271
0.000267
0.000246
0.000237
0.000263
0.001789
0.000457
0.000276
0.000375
0.000251
0.000268
0.000216
0.000056
0.000188
0.000236
0.000249
0.000265
0.000260
0.000264
0.000280
0.000418
0.000402
0.000411
0.000225
0.000222
0.000261
0.000246
0.001636
0.000525
0.000273
0.000389
0.000317
0.000231
0.000268
0.000285
0.000268
0.001733
0.000527
0.000454
0.000232
0.000263
0.000248
0.000257
0.000191
0.000057
0.000194
0.000234
0.000250
0.000289
0.000332
0.000421
0.000400
0.000261
0.000213
0.000261
0.000245
0.000242
0.000258
0.001734
0.000454
0.000299
0.000227
0.000257
0.000280
0.000276
0.000242
0.000261
0.000272
0.001940
0.000265
0.000378
0.000247
0.000253
0.000263
0.000408
0.000327
0.000056
0.000266
0.000412
0.000291
0.000247
0.000260
0.000245
0.000255
0.000252
0.000244
0.000234
0.000236
0.000253
0.001550
0.000334
0.000324
0.000229
0.000261
0.000251
0.000268
0.000288
0.000277
0.000305
0.000243
0.001808
0.000251
0.000497
0.000243
0.000262
0.000254
0.000271
0.000265
0.000057
0.000337
0.000567
0.000578
0.000212
0.000230
0.000279
0.000227
0.000238
0.000248
0.000254
0.000252
0.001698
0.000257
0.000441
0.000359
0.000228
0.000245
0.000217
0.000250
0.000264
0.000331
0.001775
0.000223
0.000469
0.001897
0.000517
0.000335
0.000245
0.000255
0.000262
0.000188
0.000057
0.000215
0.000258
0.000228
0.000244
0.000266
0.001612
0.000251
0.000228
0.000258
0.000246
0.000253
0.000241
0.000251
0.000251
0.000320
0.000433
0.000567
0.000244
0.000240
0.000264
0.000297
0.000220
0.000240
0.000442
0.000430
0.000296
0.000480
0.000379
0.000439
0.000284
0.000200
0.000055
0.000224
0.000218
0.000252
0.000253
0.000240
0.000239
0.000280
0.000489
0.000325
0.001709
0.000207
0.000238
0.000240
0.000248
0.000262
0.000314
0.000502
0.000370
0.000348
0.000239
0.000255
0.000316
0.000267
0.000253
0.000276
0.000427
0.000347
0.000688
0.000362
0.000461
0.000183
0.000056
0.000201
0.000258
0.000248
0.000229
0.000238
0.000239
0.000245
0.000264
0.000244
0.000273
0.000341
0.000551
0.001278
0.000256
0.000220
0.000250
0.000261
0.000244
0.000277
0.000271
0.000247
0.000503
0.000339
0.000278
0.000267
0.000251
0.000257
0.000270
0.000265
0.000263
0.000389
0.000057
0.000210
0.000236
0.000234
0.000274
0.000587
0.000391
0.000216
0.000255
0.000239
0.000255
0.000263
0.000229
0.000321
0.000227
0.000236
0.000487
0.000418
0.001634
0.000275
0.000238
0.000262
0.000263
0.000259
0.000236
0.000294
0.000550
0.000337
0.000335
0.000426
0.000246
0.000192
0.000056
0.000234
0.000448
0.000214
0.000233
0.000279
0.000233
0.000355
0.000602
0.000294
0.000242
0.000231
0.000273
0.000265
0.000237
0.000529
0.000323
0.000232
0.000272
0.000453
0.001575
0.000249
0.000242
0.000526
0.000251
0.000305
0.000249
0.000253
0.000427
0.000519
0.000381
0.000217
0.000056
0.000222
0.000233
0.000236
0.000241
0.000445
0.000300
0.000280
0.000216
0.000371
0.000542
0.000347
0.000234
0.000244
0.000242
0.000262
0.000266
0.000248
0.000258
0.000232
0.000355
0.000286
0.000478
0.001729
0.000215
0.000256
0.000253
0.000287
0.000364
0.000449
0.000732
0.000355
0.000057
0.000229
0.000335
0.000308
0.000412
0.000384
0.000206
0.000259
0.000406
0.000480
0.000333
0.000268
0.000244
0.000229
0.000271
0.000260
0.000232
0.000250
0.000278
0.000270
0.000256
0.000307
0.000413
0.000664
0.001290
0.000324
0.000433
0.000418
0.000272
0.000422
0.000461
0.000248
0.000057
0.000236
0.000378
0.000275
0.000223
0.000209
0.000254
0.000415
0.000235
0.000301
0.000429
0.000395
0.000377
0.000213
0.000253
0.000265
0.000245
0.000349
0.000404
0.000343
0.000235
0.000254
0.000476
0.000536
0.001691
0.000231
0.000417
0.000316
0.000232
0.000359
0.000349
0.000327
0.000057
0.000187
0.000229
0.000254
0.000257
0.000245
0.000240
0.000246
0.000324
0.000462
0.000316
0.000425
0.000358
0.000276
0.000581
0.000259
0.000225
0.000279
0.000266
0.000216
0.000359
0.000216
0.000253
0.000280
0.000417
0.000489
0.001647
0.000269
0.000238
0.000232
0.000283
0.000185
0.000056
0.000210
0.000553
0.000238
0.000204
0.000257
0.000245
0.000253
0.000247
0.000268
0.000232
0.000228
0.000261
0.000453
0.000482
0.000400
0.000262
0.000253
0.000251
0.000343
0.000382
0.000381
0.000335
0.000363
0.000394
0.000281
0.000228
0.000258
0.000277
0.001792
0.000235
0.000216
0.000056
0.000212
0.000215
0.000261
0.000276
0.000336
0.000543
0.000318
0.000217
0.000282
0.000239
0.000246
0.000249
0.000519
0.000446
0.000489
0.000272
0.000268
0.000260
0.000422
0.000467
0.000360
0.000452
0.000542
0.000336
0.000249
0.000257
0.000244
0.000255
0.000259
0.001720
0.000368
0.000057
0.000250
0.000357
0.000179
0.000232
0.000259
0.000249
0.000232
0.000504
0.000375
0.000307
0.000293
0.000329
0.000365
0.000587
0.000326
0.000232
0.000253
0.000259
0.000252
0.000267
0.000276
0.000262
0.000239
0.000266
0.000343
0.000318
0.000441
0.000351
0.000218
0.000253
0.000196
0.000056
0.000435
0.000298
0.000456
0.000260
0.000223
0.000237
0.000244
0.000257
0.000240
0.000221
0.000250
0.000278
0.000300
0.000462
0.000533
0.000348
0.000331
0.000319
0.000371
0.000342
0.000299
0.000251
0.000234
0.000265
0.001742
0.000261
0.001712
0.001033
0.000305
0.000332
0.000166
0.000057
0.000198
0.000241
0.000232
0.000239
0.000278
0.000234
0.000252
0.000253
0.000241
0.000363
0.000529
0.000207
0.000352
0.000380
0.000284
0.000212
0.000256
0.000296
0.000224
0.000250
0.000251
0.000262
0.001805
0.000245
0.000258
0.000264
0.000273
0.000266
0.001882
0.000546
0.000244
0.000057
0.000206
0.000213
0.000233
0.000244
0.000271
0.000231
0.000246
0.000256
0.000272
0.000378
0.000524
0.000338
0.000375
0.000242
0.000227
0.000249
0.000331
0.000435
0.000365
0.000259
0.001774
0.000256
0.000252
0.000248
0.000262
0.000265
0.000240
0.000255
0.000324
0.000411
0.000360
0.000055
0.000250
0.000213
0.000245
0.000273
0.000253
0.000227
0.000255
0.000255
0.000239
0.000257
0.000242
0.000315
0.000404
0.000325
0.000348
0.000260
0.000481
0.000228
0.000252
0.000260
0.000253
0.000263
0.000274
0.000256
0.000283
0.001775
0.000261
0.000259
0.000245
0.000239
0.000204
0.000055
0.000414
0.000184
0.000228
0.000233
0.000238
0.000235
0.000237
0.000261
0.000243
0.000233
0.000226
0.000260
0.000275
0.000426
0.000368
0.000319
0.000308
0.000219
0.000256
0.000269
0.000239
0.000265
0.000244
0.000275
0.000253
0.000262
0.000357
0.001575
0.000280
0.000249
0.000179
0.000056
0.000202
0.000239
0.000243
0.000274
0.000337
0.000382
0.000400
0.000285
0.000223
0.000255
0.000271
0.000227
0.000246
0.000251
0.000263
0.000261
0.000242
0.000258
0.000249
0.000264
0.000268
0.000265
0.000246
0.000237
0.000251
0.000273
0.000278
0.000276
0.000240
0.000282
0.000172
0.000056
0.000232
0.000221
0.000246
0.000281
0.000229
0.000236
0.000241
0.000263
0.000282
0.000248
0.000223
0.000275
0.000226
0.000253
0.000294
0.000236
0.000253
0.000250
0.000299
0.000249
0.000277
0.000318
0.000268
0.000225
0.000305
0.000248
0.000286
0.000225
0.000325
0.000375
0.000692
0.000056
0.000227
0.000286
0.000250
0.000203
0.000240
0.000251
0.000243
0.000246
0.000254
0.000243
0.000269
0.000400
0.000374
0.000585
0.001437
0.000238
0.000491
0.000228
0.000250
0.000443
0.000457
0.000373
0.000225
0.000287
0.000255
0.000254
0.000280
0.000253
0.000309
0.000274
0.000173
0.000056
0.000340
0.000396
0.000351
0.000309
0.000224
0.000271
0.000239
0.000229
0.000235
0.000243
0.000259
0.000271
0.000214
0.000283
0.000389
0.000454
0.000403
0.001783
0.000231
0.000269
0.000401
0.000348
0.000516
0.000229
0.000313
0.000318
0.000305
0.000228
0.000225
0.000254
0.000203
0.000056
0.000220
0.000228
0.000261
0.000396
0.000317
0.000353
0.000346
0.000255
0.000253
0.000213
0.000255
0.000266
0.000266
0.000262
0.000241
0.000267
0.000341
0.000545
0.000443
0.000237
0.000235
0.001745
0.000342
0.000479
0.000557
0.000418
0.000324
0.000237
0.000243
0.000269
0.000445
0.000055
0.000217
0.000268
0.000233
0.000281
0.000538
0.000386
0.000318
0.000238
0.000229
0.000287
0.000248
0.000258
0.000250
0.000299
0.000306
0.000227
0.000298
0.000338
0.000450
0.000346
0.000503
0.001840
0.000273
0.000543
0.000459
0.000279
0.000229
0.000261
0.000300
0.000255
0.000200
0.000056
0.000212
0.000335
0.000363
0.000358
0.000393
0.000295
0.000340
0.000218
0.000236
0.000262
0.000277
0.000222
0.000254
0.000261
0.000230
0.000263
0.000361
0.000460
0.000438
0.000317
0.000292
0.000241
0.000257
0.001703
0.000539
0.000395
0.000683
0.000239
0.000263
0.000309
0.000163
0.000055
0.000194
0.000242
0.000350
0.000230
0.000288
0.000357
0.000376
0.000337
0.000267
0.000505
0.000229
0.000253
0.000256
0.000278
0.000273
0.000261
0.000217
0.000397
0.000434
0.000432
0.000254
0.000251
0.000234
0.000264
0.000255
0.000268
0.000238
0.000253
0.000268
0.000293
0.000207
0.000057
0.000365
0.000320
0.000201
0.000262
0.000241
0.000257
0.000241
0.000279
0.000251
0.000252
0.000295
0.000316
0.000520
0.000329
0.000363
0.000232
0.000218
0.000238
0.000256
0.000267
0.000289
0.000274
0.000224
0.000253
0.000285
0.000458
0.000326
0.000307
0.000368
0.000227
0.000183
0.000056
0.000207
0.000225
0.000282
0.000246
0.000239
0.000266
0.000276
0.000220
0.000491
0.000213
0.000254
0.000285
0.000221
0.000257
0.000273
0.000296
0.000242
0.000343
0.000219
0.000243
0.000261
0.000262
0.000261
0.000271
0.000274
0.000266
0.000260
0.000250
0.000261
0.000498
0.000162
0.000056
0.000210
0.000244
0.000259
0.000278
0.000205
0.000241
0.000368
0.000409
0.000229
0.000240
0.000253
0.000254
0.000235
0.000290
0.000493
0.001708
0.000233
0.000263
0.000284
0.000334
0.000404
0.000370
0.000362
0.000462
0.000323
0.000400
0.000242
0.000276
0.000268
0.000275
0.001411
0.000056
0.000394
0.000288
0.000256
0.000204
0.000231
0.000251
0.000234
0.000278
0.000221
0.000274
0.000243
0.000260
0.000253
0.000340
0.000586
0.001537
0.000251
0.000221
0.000236
0.000272
0.000233
0.000280
0.000414
0.000367
0.000259
0.000349
0.000220
0.000265
0.000272
0.000272
0.000175
0.000057
0.001255
0.000486
0.000333
0.000255
0.000243
0.000219
0.000230
0.000248
0.000513
0.000189
0.000247
0.000246
0.000378
0.000589
0.000285
0.000351
0.000259
0.000239
0.000323
0.000352
0.000275
0.000271
0.000256
0.000243
0.000298
0.000543
0.000579
0.000235
0.000267
0.000265
0.000172
0.000056
0.000211
0.000221
0.000233
0.000247
0.001516
0.000259
0.000221
0.000248
0.000263
0.000227
0.000252
0.000254
0.000237
0.000268
0.000268
0.000438
0.000298
0.000640
0.000268
0.001736
0.000259
0.000299
0.000350
0.000433
0.000492
0.000396
0.000250
0.000238
0.000265
0.000265
0.000205
0.000056
0.000220
0.000259
0.000244
0.000347
0.001209
0.000233
0.000262
0.000252
0.000240
0.000242
0.000235
0.000257
0.000274
0.000261
0.000239
0.000325
0.000565
0.000300
0.000292
0.000277
0.000261
0.000272
0.000246
0.000236
0.000326
0.000225
0.000239
0.000281
0.000292
0.000324
0.000589
0.000055
0.000216
0.000246
0.000235
0.000265
0.000283
0.000216
0.000235
0.000265
0.000287
0.000281
0.001403
0.000211
0.000246
0.000249
0.000242
0.000245
0.000297
0.000237
0.000287
0.000238
0.000341
0.000463
0.000623
0.000179
0.000231
0.000276
0.001745
0.000274
0.000249
0.000362
0.000422
0.000056
0.000199
0.000400
0.000452
0.000501
0.000517
0.000539
0.001510
0.000412
0.000514
0.000651
0.000555
0.000724
0.000475
0.000624
0.000580
0.001936
0.000450
0.000328
0.000407
0.000319
0.000222
0.000278
0.000286
0.000257
0.000279
0.000277
0.000288
0.000291
0.000258
0.000282
0.001376
0.000056
0.000214
0.000233
0.000244
0.000248
0.000253
0.000255
0.000232
0.000246
0.000272
0.000230
0.000240
0.000240
0.000257
0.000261
0.000258
0.000267
0.001863
0.000215
0.000262
0.000249
0.000255
0.000267
0.000264
0.000263
0.000434
0.000391
0.000358
0.000252
0.000254
0.000277
0.000203
0.000056
0.000210
0.001373
0.000324
0.000272
0.000248
0.000238
0.000245
0.000227
0.000236
0.000239
0.000225
0.000261
0.000234
0.000507
0.000364
0.000308
0.000244
0.001965
0.000239
0.000193
0.000256
0.000265
0.000252
0.000265
0.000271
0.000282
0.000275
0.000244
0.000279
0.000342
0.000172
0.000056
0.000223
0.000235
0.000271
0.001435
0.000209
0.000248
0.000254
0.000241
0.000238
0.000271
0.000248
0.000242
0.000246
0.000302
0.000219
0.000258
0.000261
0.000265
0.000264
0.000259
0.000256
0.001814
0.000253
0.001739
0.000274
0.000245
0.000274
0.000265
0.000265
0.000279
0.000194
0.000056
0.000204
0.000241
0.001348
0.000229
0.000256
0.000241
0.000257
0.000283
0.000225
0.000246
0.000255
0.000240
0.000278
0.000247
0.000259
0.000266
0.000252
0.000286
0.000305
0.000218
0.001881
0.000236
0.001826
0.000239
0.000262
0.000281
0.000235
0.000247
0.000250
0.000270
0.000202
0.000056
0.001421
0.000215
0.000233
0.000243
0.000239
0.000234
0.000373
0.000290
0.000242
0.000249
0.000248
0.000257
0.000282
0.000376
0.000340
0.000290
0.000249
0.000273
0.000261
0.000246
0.000270
0.000333
0.000234
0.000247
0.000289
0.000261
0.000274
0.000316
0.000705
0.000324
0.000193
0.000057
0.000205
0.000249
0.000258
0.000302
0.000358
0.000254
0.001713
0.000288
0.000278
0.000271
0.000254
0.000277
0.000263
0.000270
0.000312
0.000294
0.000368
0.000580
0.000343
0.000264
0.000291
0.000288
0.000273
0.000251
0.000312
0.000274
0.000268
0.000253
0.000247
0.000406
0.000342
0.000057
0.000268
0.000457
0.000267
0.000263
0.000248
0.000228
0.000226
0.000249
0.000261
0.000311
0.001456
0.000233
0.000217
0.000253
0.000244
0.000291
0.000278
0.000242
0.000254
0.000273
0.000261
0.000617
0.000319
0.000291
0.000261
0.000294
0.000264
0.000256
0.000237
0.000312
0.000168
0.000056
0.000206
0.000253
0.000285
0.000436
0.000398
0.000262
0.000210
0.000253
0.000250
0.000245
0.000238
0.000247
0.000256
0.000269
0.000242
0.000297
0.000411
0.001141
0.000247
0.000233
0.000284
0.000247
0.000355
0.000412
0.000253
0.000517
0.000409
0.000380
0.000331
0.000241
0.000180
0.000057
0.000232
0.000249
0.000264
0.000255
0.000257
0.000271
0.000326
0.000476
0.000340
0.000300
0.000361
0.000394
0.000396
0.000362
0.000253
0.000230
0.000248
0.000290
0.000440
0.000407
0.001249
0.000229
0.000268
0.000270
0.000238
0.000233
0.000265
0.000346
0.000592
0.000299
0.000175
0.000057
0.000217
0.000226
0.000258
0.000243
0.000238
0.000249
0.000236
0.000269
0.000368
0.000345
0.000403
0.000331
0.000248
0.000231
0.000250
0.000264
0.000244
0.000263
0.000266
0.000270
0.000423
0.000281
0.000370
0.000450
0.000257
0.000252
0.000269
0.000270
0.000257
0.000336
0.000162
0.000057
0.000319
0.000311
0.000310
0.000499
0.000314
0.000379
0.000238
0.000242
0.000248
0.000301
0.000228
0.000265
0.000236
0.000244
0.000246
0.000227
0.000276
0.000395
0.000478
0.000334
0.000233
0.000254
0.000248
0.000244
0.000265
0.000285
0.000265
0.000276
0.000269
0.000262
0.000360
0.000057
0.000294
0.000257
0.000225
0.000270
0.000224
0.000244
0.000245
0.000257
0.000263
0.000260
0.000252
0.000235
0.000403
0.000456
0.000354
0.000313
0.000220
0.000248
0.000252
0.000293
0.000230
0.000265
0.000250
0.000274
0.000266
0.000385
0.000417
0.000564
0.000377
0.000246
0.000166
0.000055
0.000395
0.000195
0.000235
0.000243
0.000253
0.000242
0.000238
0.000256
0.000255
0.000261
0.000222
0.000241
0.000274
0.000229
0.000240
0.000260
0.000261
0.000264
0.000290
0.000242
0.000260
0.000258
0.000267
0.000262
0.000258
0.000252
0.000259
0.000277
0.000255
0.000278
0.000206
0.000055
0.000193
0.000243
0.000241
0.000250
0.000228
0.000255
0.000269
0.000233
0.000259
0.000283
0.000227
0.000242
0.000251
0.000395
0.000257
0.000297
0.000255
0.000250
0.000258
0.000279
0.000271
0.000241
0.000243
0.000247
0.000274
0.000272
0.000254
0.000249
0.000273
0.000259
0.000209
0.000056
0.000227
0.000361
0.000368
0.000279
0.000296
0.000256
0.000266
0.000255
0.000222
0.000249
0.000275
0.000237
0.000241
0.000248
0.000272
0.000264
0.000241
0.000270
0.000245
0.000263
0.000273
0.000266
0.000279
0.000252
0.000299
0.000226
0.000253
0.000275
0.000264
0.000266
0.000196
0.000056
0.000202
0.000237
0.000262
0.000261
0.000254
0.000448
0.000207
0.000276
0.000319
0.000416
0.000463
0.000280
0.000228
0.000251
0.000272
0.000262
0.000239
0.000270
0.000254
0.000279
0.000260
0.000260
0.000254
0.000287
0.000669
0.000335
0.000292
0.000300
0.000260
0.000257
0.000194
0.000055
0.000196
0.000211
0.000274
0.000226
0.000424
0.000551
0.000312
0.000388
0.000206
0.000246
0.000253
0.000252
0.000250
0.000246
0.000261
0.000275
0.000268
0.000258
0.000723
0.000272
0.000311
0.000241
0.000263
0.000279
0.000283
0.000248
0.000261
0.000290
0.000235
0.000330
0.000348
0.000057
0.000177
0.000235
0.000241
0.000238
0.000253
0.000268
0.000218
0.000250
0.000236
0.000264
0.000243
0.000254
0.000248
0.000421
0.000674
0.000283
0.000205
0.000261
0.000264
0.000267
0.000246
0.000287
0.000478
0.000228
0.000252
0.000652
0.000355
0.000483
0.000261
0.000248
0.000192
0.000056
0.000202
0.000224
0.000251
0.000232
0.000259
0.000256
0.000339
0.000495
0.000509
0.000406
0.000218
0.000262
0.000276
0.000276
0.000250
0.000258
0.000223
0.000253
0.000273
0.000499
0.000199
0.000662
0.000366
0.000250
0.000358
0.000377
0.000487
0.000246
0.000284
0.000439
0.000424
0.000056
0.000258
0.000230
0.000442
0.000211
0.000237
0.000261
0.000260
0.000261
0.000229
0.000243
0.000333
0.000351
0.000398
0.000294
0.000234
0.000249
0.000257
0.000250
0.000264
0.000278
0.000292
0.000233
0.000250
0.000271
0.000332
0.000463
0.000485
0.000238
0.000264
0.000272
0.000198
0.000056
0.000201
0.000258
0.000225
0.000244
0.000247
0.000276
0.000339
0.000640
0.000205
0.000269
0.000378
0.000227
0.000245
0.000268
0.000248
0.000248
0.000253
0.000261
0.000342
0.000364
0.000510
0.000287
0.000479
0.000266
0.000387
0.000418
0.000382
0.000248
0.000251
0.000399
0.000346
0.000056
0.000227
0.000239
0.000220
0.000251
0.000278
0.000239
0.000267
0.000225
0.000275
0.000240
0.000234
0.000440
0.000413
0.000328
0.000372
0.000230
0.000264
0.000268
0.000267
0.000230
0.000243
0.000258
0.000267
0.000278
0.000276
0.000375
0.000509
0.000413
0.000240
0.000278
0.000195
0.000056
0.000211
0.000240
0.000277
0.000249
0.000238
0.000352
0.000586
0.000380
0.000487
0.000556
0.000257
0.000217
0.000241
0.000266
0.000235
0.000277
0.000277
0.000311
0.000476
0.000606
0.001284
0.000305
0.000274
0.000268
0.000278
0.000269
0.000454
0.000361
0.000378
0.000271
0.000191
0.000057
0.000189
0.000235
0.000251
0.000261
0.000232
0.000243
0.000301
0.000228
0.000245
0.000325
0.000333
0.000379
0.000272
0.000342
0.000393
0.000341
0.000241
0.000252
0.000268
0.000257
0.000244
0.000245
0.000314
0.000223
0.000324
0.000435
0.000465
0.000246
0.000261
0.000269
0.000187
0.000056
0.000210
0.000248
0.000260
0.000252
0.000242
0.000235
0.000475
0.000211
0.000236
0.000248
0.000253
0.000246
0.000263
0.000253
0.000250
0.000272
0.000261
0.000289
0.000259
0.000246
0.000281
0.000268
0.000289
0.000248
0.000261
0.000277
0.000272
0.000265
0.000262
0.000271
0.000169
0.000056
0.000189
0.000247
0.000317
0.000485
0.000296
0.000239
0.000234
0.000250
0.000262
0.000245
0.000248
0.000256
0.000263
0.000261
0.000238
0.000248
0.000260
0.000254
0.000337
0.000374
0.000479
0.000258
0.000235
0.000267
0.000266
0.000253
0.000269
0.000245
0.000279
0.000279
0.000201
0.000056
0.000257
0.000488
0.000326
0.000210
0.000251
0.000258
0.000410
0.000218
0.000236
0.000252
0.000250
0.000295
0.000404
0.000411
0.001842
0.000249
0.000244
0.000255
0.000278
0.000244
0.000366
0.000523
0.000539
0.000268
0.000233
0.000255
0.000277
0.000422
0.000278
0.000272
0.000176
0.000056
0.000247
0.000321
0.000321
0.000321
0.000496
0.000193
0.000251
0.000239
0.000255
0.000241
0.000261
0.000247
0.000269
0.000445
0.000327
0.000447
0.000200
0.000244
0.000263
0.000257
0.000260
0.000322
0.000235
0.000278
0.000275
0.000537
0.000502
0.000404
0.000372
0.000231
0.000209
0.000055
0.000222
0.000230
0.000258
0.000234
0.000246
0.000250
0.000266
0.000320
0.000307
0.000364
0.000440
0.000335
0.000226
0.000252
0.000273
0.000284
0.000298
0.000236
0.000274
0.000274
0.000235
0.000397
0.000426
0.000342
0.000267
0.000255
0.000259
0.000439
0.000417
0.000305
0.000187
0.000055
0.000200
0.000339
0.000441
0.000236
0.000380
0.000187
0.000239
0.000253
0.000259
0.000269
0.000250
0.000254
0.000232
0.000254
0.000264
0.000365
0.000352
0.000333
0.000285
0.000358
0.000485
0.000225
0.000285
0.000276
0.000294
0.000288
0.000252
0.000259
0.000559
0.000479
0.000153
0.000057
0.000200
0.000228
0.000245
0.000248
0.000244
0.000480
0.000220
0.000246
0.000276
0.000347
0.000495
0.000566
0.000215
0.000236
0.000238
0.000252
0.000258
0.000266
0.000240
0.000244
0.000291
0.000245
0.000398
0.000419
0.000349
0.000370
0.000314
0.000293
0.000325
0.000266
0.000162
0.000055
0.000218
0.000230
0.000342
0.000455
0.000336
0.000232
0.000256
0.000231
0.000239
0.000263
0.000250
0.000265
0.000266
0.000242
0.000247
0.000257
0.000247
0.000245
0.000312
0.000376
0.000596
0.000276
0.000211
0.000248
0.000275
0.000274
0.000263
0.000253
0.000261
0.000271
0.000189
0.000056
0.000312
0.000390
0.000428
0.000238
0.000216
0.000253
0.000321
0.000465
0.000281
0.000208
0.000243
0.000273
0.000263
0.000511
0.000372
0.000278
0.000236
0.000232
0.000256
0.000260
0.000271
0.000263
0.000265
0.000272
0.000262
0.000325
0.000438
0.000336
0.000337
0.000229
0.000189
0.000056
0.000208
0.000243
0.000248
0.000254
0.000250
0.000265
0.000225
0.000274
0.000250
0.000236
0.000265
0.000234
0.000287
0.001441
0.000217
0.000254
0.000261
0.000252
0.000270
0.000276
0.000263
0.000240
0.000277
0.000254
0.000266
0.000269
0.000271
0.000268
0.000261
0.000273
0.000196
0.000056
0.000204
0.000227
0.000254
0.000268
0.000224
0.000239
0.000259
0.000257
0.000230
0.000249
0.000248
0.000266
0.000255
0.000247
0.000256
0.000267
0.000247
0.000252
0.000272
0.000257
0.000256
0.000259
0.000244
0.000250
0.001299
0.000275
0.000616
0.000528
0.000198
0.000242
0.000194
0.000056
0.000192
0.000226
0.000242
0.000259
0.000420
0.000238
0.000231
0.000241
0.000256
0.000445
0.000408
0.000293
0.000241
0.000224
0.000273
0.000253
0.000260
0.000261
0.000244
0.000264
0.000260
0.000255
0.000290
0.000477
0.000443
0.000444
0.000216
0.000270
0.001365
0.000249
0.000182
0.000056
0.000314
0.000392
0.000316
0.000275
0.000221
0.000221
0.000237
0.000247
0.000278
0.000239
0.000248
0.000262
0.000294
0.000372
0.000468
0.000361
0.000320
0.000221
0.000248
0.000260
0.000267
0.000282
0.000250
0.000263
0.000272
0.000264
0.000445
0.000454
0.000364
0.000356
0.000156
0.000056
0.000201
0.000242
0.001259
0.000437
0.000373
0.000444
0.000317
0.000497
0.000251
0.000342
0.000230
0.000225
0.000261
0.000255
0.000247
0.000266
0.000574
0.000293
0.000408
0.000328
0.000261
0.000238
0.000269
0.000500
0.000223
0.000266
0.000259
0.000281
0.000371
0.000519
0.000312
0.000057
0.000377
0.000305
0.000242
0.001392
0.000537
0.000327
0.000293
0.000238
0.000253
0.000246
0.000233
0.000240
0.000241
0.000267
0.000252
0.000268
0.000227
0.000332
0.000407
0.000345
0.000436
0.000241
0.000255
0.000253
0.000266
0.000273
0.000272
0.000231
0.000268
0.000275
0.000221
0.000055
0.000353
0.000348
0.000215
0.000236
0.000253
0.000242
0.000273
0.000226
0.000234
0.000230
0.001473
0.000422
0.000265
0.000239
0.000232
0.000257
0.000272
0.000260
0.000235
0.000297
0.000251
0.000245
0.000360
0.000364
0.000459
0.000378
0.000229
0.000269
0.000272
0.000280
0.000180
0.000056
0.000214
0.000412
0.000218
0.000262
0.000341
0.000432
0.000337
0.000338
0.000456
0.000216
0.000224
0.000271
0.000244
0.000264
0.000261
0.001528
0.000249
0.000296
0.000228
0.000269
0.000297
0.000234
0.000256
0.000242
0.000267
0.000270
0.000518
0.000388
0.000284
0.000279
0.000152
0.000056
0.000217
0.000233
0.000256
0.000246
0.000226
0.000257
0.000236
0.000257
0.000306
0.000344
0.000472
0.000252
0.000236
0.000259
0.000249
0.000268
0.000273
0.000262
0.000288
0.000209
0.000258
0.000355
0.001218
0.000259
0.000258
0.000238
0.000266
0.000264
0.000256
0.000259
0.000193
0.000055
0.000240
0.000306
0.000384
0.000325
0.000245
0.000254
0.000254
0.000288
0.000238
0.000261
0.000240
0.000269
0.000240
0.000253
0.000279
0.000236
0.000268
0.000298
0.000235
0.000250
0.000253
0.000269
0.000270
0.000282
0.000285
0.000262
0.000267
0.000267
0.000258
0.000451
0.001362
0.000056
0.000201
0.000254
0.000220
0.000265
0.000233
0.000258
0.000250
0.000226
0.000247
0.000247
0.000299
0.000261
0.000225
0.000239
0.000276
0.000218
0.001734
0.000269
0.000228
0.000258
0.000248
0.000289
0.000245
0.000258
0.000292
0.000232
0.000276
0.000281
0.000266
0.000252
0.000237
0.000055
0.000378
0.000322
0.001217
0.000223
0.000229
0.000246
0.000260
0.000248
0.000276
0.000239
0.000271
0.000321
0.000430
0.000404
0.000275
0.000221
0.000251
0.000252
0.000261
0.000266
0.000242
0.000284
0.000255
0.000284
0.000271
0.000380
0.000476
0.000253
0.000314
0.000251
0.000193
0.000056
0.000230
0.000246
0.000242
0.000248
0.000280
0.000197
0.000236
0.000326
0.000442
0.001258
0.000262
0.000210
0.000248
0.000273
0.000248
0.000296
0.000236
0.000254
0.000378
0.000422
0.000302
0.000269
0.000234
0.000251
0.000290
0.000274
0.000263
0.000289
0.000271
0.000273
0.000192
0.000056
0.000295
0.000406
0.000347
0.000240
0.000214
0.000238
0.000245
0.000279
0.000260
0.000248
0.000231
0.000252
0.000453
0.000497
0.000528
0.001398
0.000243
0.000293
0.000313
0.000354
0.000482
0.000493
0.000430
0.000350
0.000239
0.000259
0.000270
0.000275
0.000263
0.000273
0.000205
0.000056
0.000203
0.000327
0.000521
0.000383
0.000312
0.000236
0.000249
0.000239
0.000239
0.000272
0.000232
0.000271
0.000274
0.000225
0.000271
0.000299
0.000384
0.000441
0.000325
0.001328
0.000261
0.000259
0.000252
0.000261
0.000495
0.000397
0.000402
0.000255
0.000264
0.000277
0.000184
0.000055
0.000193
0.000244
0.000242
0.000266
0.000226
0.000307
0.000410
0.000385
0.000375
0.000223
0.000243
0.000278
0.000251
0.000287
0.000240
0.000260
0.000259
0.000257
0.000305
0.000419
0.000321
0.000421
0.000287
0.001353
0.000406
0.000243
0.000269
0.000424
0.000508
0.000279
0.000308
0.000057
0.000210
0.000229
0.000247
0.000248
0.000250
0.000256
0.001702
0.000222
0.000215
0.000242
0.000254
0.000249
0.000273
0.000309
0.000326
0.000286
0.000259
0.000370
0.000516
0.000363
0.000278
0.000288
0.000229
0.000247
0.001503
0.000420
0.000339
0.000469
0.000314
0.000305
0.000166
0.000055
0.000223
0.000250
0.000263
0.000247
0.000253
0.000256
0.001709
0.000245
0.000226
0.000266
0.000336
0.000421
0.001440
0.000358
0.000381
0.000247
0.000244
0.000240
0.000270
0.000276
0.001702
0.000450
0.000338
0.000292
0.000245
0.000254
0.000257
0.000282
0.000244
0.000256
0.000192
0.000057
0.000216
0.000229
0.000266
0.000244
0.000266
0.000303
0.000253
0.000260
0.000242
0.000254
0.000253
0.000251
0.000288
0.000240
0.000269
0.001478
0.000284
0.000224
0.000269
0.000275
0.000277
0.000251
0.000431
0.001272
0.000277
0.000238
0.000264
0.000254
0.000406
0.000241
0.000197
0.000056
0.000201
0.000250
0.000224
0.000249
0.000236
0.000231
0.000233
0.001694
0.000255
0.000218
0.000361
0.000286
0.000211
0.000234
0.000240
0.001384
0.000232
0.000265
0.000266
0.000248
0.000261
0.000349
0.000295
0.001295
0.000276
0.000262
0.000245
0.000267
0.001388
0.000289
0.000195
0.000057
0.000298
0.000286
0.000199
0.000240
0.000272
0.000223
0.000286
0.000249
0.000262
0.000249
0.000258
0.000263
0.000260
0.000245
0.000340
0.001492
0.000223
0.000267
0.000254
0.000246
0.000307
0.000242
0.000249
0.001501
0.000351
0.000241
0.000267
0.001267
0.000277
0.000239
0.000268
0.000056
0.000220
0.000521
0.000217
0.000216
0.000230
0.000244
0.000264
0.000253
0.000266
0.000272
0.000234
0.000253
0.000262
0.000326
0.000370
0.001209
0.000225
0.000264
0.000263
0.000273
0.000234
0.000240
0.000254
0.000358
0.001253
0.000242
0.000245
0.000259
0.000262
0.001329
0.000426
0.000057
0.000277
0.000231
0.000236
0.000228
0.000248
0.000248
0.000242
0.000251
0.000299
0.000236
0.000243
0.000241
0.000284
0.000305
0.000402
0.001475
0.000212
0.000262
0.000297
0.000514
0.000281
0.001481
0.000334
0.000236
0.000234
0.000264
0.000255
0.001295
0.000403
0.000427
0.000346
0.000057
0.000228
0.000246
0.000255
0.000256
0.000277
0.000235
0.000267
0.000266
0.000248
0.000303
0.000332
0.000543
0.001200
0.000237
0.000273
0.000257
0.000280
0.000233
0.000235
0.000247
0.000330
0.001255
0.000266
0.000225
0.000257
0.000254
0.001511
0.000452
0.000454
0.000225
0.000190
0.000056
0.000207
0.000235
0.000243
0.000243
0.000250
0.000266
0.000239
0.000297
0.000513
0.000364
0.000267
0.001497
0.000215
0.000235
0.000267
0.000252
0.000265
0.000285
0.001694
0.000261
0.000376
0.000343
0.001402
0.000308
0.000238
0.000323
0.000252
0.000257
0.000273
0.000266
0.000196
0.000056
0.000204
0.000246
0.000323
0.000281
0.000316
0.000531
0.000260
0.000296
0.001476
0.000236
0.000379
0.000263
0.000234
0.000302
0.000373
0.001330
0.000263
0.000232
0.000255
0.000261
0.001549
0.000354
0.000294
0.000281
0.000245
0.000242
0.000470
0.000322
0.000236
0.000253
0.000260
0.000056
0.000325
0.000257
0.000354
0.000253
0.000235
0.001522
0.000217
0.000238
0.000271
0.000268
0.000264
0.000244
0.000302
0.001491
0.000246
0.000236
0.000433
0.001187
0.000428
0.000438
0.000317
0.000232
0.000243
0.000259
0.000294
0.000219
0.000459
0.000225
0.000265
0.000271
0.000206
0.000055
0.000199
0.000300
0.000336
0.000314
0.001323
0.000281
0.000333
0.000228
0.000236
0.000233
0.000250
0.000411
0.001420
0.000244
0.000232
0.000249
0.001376
0.000285
0.000477
0.000369
0.000384
0.000233
0.000252
0.000250
0.000265
0.000295
0.000241
0.000266
0.000272
0.000245
0.000237
0.000056
0.000215
0.000502
0.001361
0.000208
0.000269
0.000299
0.000217
0.000250
0.000273
0.000381
0.001380
0.000223
0.000253
0.000260
0.000258
0.001282
0.000669
0.000304
0.000321
0.000412
0.000304
0.000250
0.000258
0.000261
0.000268
0.000291
0.000277
0.000342
0.000384
0.000448
0.001375
0.000056
0.000197
0.000241
0.000240
0.000226
0.000323
0.000339
0.000533
0.001238
0.000244
0.000248
0.000243
0.001426
0.000497
0.000294
0.000203
0.000413
0.000247
0.000251
0.000261
0.000285
0.000253
0.000253
0.000280
0.000251
0.000259
0.000322
0.000514
0.000370
0.001493
0.000234
0.000184
0.000056
0.000205
0.000247
0.000415
0.000459
0.001257
0.000306
0.000227
0.000255
0.000250
0.000253
0.000252
0.000289
0.000397
0.000489
0.000302
0.000217
0.000254
0.000268
0.000247
0.000307
0.000235
0.000260
0.000258
0.000267
0.000254
0.000510
0.000441
0.000257
0.000328
0.001410
0.000181
0.000056
0.000209
0.000243
0.000274
0.000468
0.000332
0.000299
0.000326
0.000327
0.000295
0.000255
0.000236
0.000264
0.000269
0.000289
0.000278
0.000276
0.000613
0.000235
0.000294
0.000388
0.000270
0.000408
0.000229
0.000234
0.000267
0.000260
0.000261
0.000309
0.000542
0.000437
0.000140
0.000056
0.000199
0.001412
0.000226
0.000334
0.000409
0.000472
0.000324
0.000329
0.000209
0.000251
0.000252
0.000249
0.000281
0.000275
0.000236
0.000257
0.000265
0.001332
0.000279
0.000257
0.000276
0.000252
0.000272
0.000275
0.000271
0.000254
0.000278
0.000247
0.000386
0.000400
0.000359
0.000056
0.000209
0.000239
0.000239
0.001495
0.000348
0.000224
0.000221
0.000264
0.000219
0.000245
0.000255
0.000282
0.000255
0.000232
0.000298
0.000225
0.000247
0.000267
0.000256
0.000256
0.001429
0.000249
0.000230
0.000305
0.000222
0.000261
0.000266
0.000266
0.000272
0.000499
0.000338
0.000055
0.000225
0.000223
0.000396
0.000289
0.000236
0.000267
0.001520
0.000415
0.000224
0.000224
0.000280
0.000295
0.000328
0.000232
0.000224
0.000258
0.000242
0.000261
0.000260
0.000256
0.000596
0.000438
0.001075
0.000274
0.000240
0.000271
0.000256
0.000263
0.000296
0.000231
0.000434
0.000055
0.000207
0.000342
0.000216
0.000234
0.000253
0.000241
0.000245
0.000242
0.000275
0.001659
0.000359
0.000249
0.000236
0.000245
0.000260
0.000241
0.000264
0.000279
0.000257
0.000313
0.000307
0.000593
0.000374
0.001334
0.000236
0.000279
0.000259
0.000249
0.000272
0.000303
0.000467
0.000057
0.000278
0.000268
0.000218
0.000233
0.000227
0.000241
0.000259
0.000281
0.000258
0.001560
0.000369
0.000258
0.000240
0.000256
0.000457
0.000260
0.000551
0.000369
0.000270
0.000274
0.000545
0.000470
0.001225
0.000261
0.000246
0.000266
0.001708
0.000449
0.000717
0.000209
0.000141
0.000057
0.000211
0.000253
0.000214
0.000236
0.000280
0.000224
0.000250
0.000506
0.000548
0.000360
0.000295
0.000204
0.000243
0.000268
0.000278
0.000271
0.000233
0.000244
0.000254
0.000283
0.000320
0.000561
0.001132
0.000235
0.000245
0.000294
0.001881
0.000375
0.000401
0.000339
0.000155
0.000056
0.000252
0.000236
0.000245
0.001720
0.000269
0.000214
0.000239
0.000255
0.000258
0.000278
0.000379
0.000366
0.000367
0.000280
0.000297
0.000607
0.000320
0.001174
0.000285
0.000231
0.000270
0.000239
0.000280
0.000422
0.000611
0.000434
0.000276
0.000263
0.000259
0.000280
0.000195
0.000056
0.000188
0.000253
0.000222
0.001572
0.000226
0.000229
0.000236
0.000258
0.000245
0.000252
0.000252
0.000269
0.000276
0.000268
0.000330
0.000421
0.000402
0.000255
0.001393
0.000233
0.000258
0.000261
0.000259
0.000298
0.000391
0.000500
0.000382
0.000264
0.000292
0.000228
0.000440
0.000055
0.000189
0.000241
0.000288
0.001533
0.000277
0.000220
0.000269
0.000242
0.000251
0.000254
0.000256
0.000276
0.000238
0.000282
0.000464
0.000453
0.001353
0.000754
0.000251
0.000344
0.000259
0.000223
0.000242
0.000280
0.001685
0.000800
0.000225
0.000266
0.000297
0.000270
0.000189
0.000056
0.000196
0.000223
0.000258
0.000239
0.000283
0.000249
0.000216
0.000272
0.000221
0.000232
0.000293
0.000292
0.000263
0.000228
0.000265
0.000242
0.000280
0.001594
0.000704
0.000407
0.000284
0.000223
0.000248
0.000309
0.000253
0.000245
0.000272
0.000264
0.001411
0.000368
0.000390
0.000056
0.000193
0.000234
0.000266
0.000232
0.000263
0.000227
0.000283
0.000231
0.000250
0.000263
0.000305
0.000401
0.000445
0.000322
0.000212
0.000238
0.000277
0.001376
0.000707
0.000517
0.000309
0.000246
0.000231
0.000247
0.000270
0.000263
0.000251
0.000258
0.001504
0.000406
0.000207
0.000056
0.000191
0.000225
0.000246
0.000248
0.000251
0.000246
0.000232
0.000257
0.000272
0.000271
0.000395
0.000363
0.000313
0.000233
0.000225
0.000245
0.000264
0.000259
0.001582
0.000638
0.000444
0.000336
0.000211
0.000254
0.000263
0.000260
0.000269
0.000280
0.000265
0.001375
0.000306
0.000056
0.000213
0.000207
0.000235
0.000255
0.000260
0.000242
0.000248
0.000305
0.000359
0.000444
0.000430
0.000360
0.000326
0.000217
0.000248
0.000248
0.000299
0.000244
0.000264
0.001968
0.000282
0.000231
0.000447
0.000244
0.000256
0.000265
0.000266
0.000256
0.000273
0.000269
0.000403
0.000056
0.000256
0.000226
0.000227
0.000243
0.000254
0.000247
0.000231
0.000238
0.000294
0.000243
0.000229
0.000239
0.000360
0.000436
0.000403
0.000437
0.000223
0.000265
0.000250
0.000247
0.000256
0.000289
0.001467
0.001052
0.000232
0.000266
0.000250
0.000262
0.000280
0.000248
0.000201
0.000056
0.000209
0.001342
0.000295
0.000200
0.000237
0.000258
0.000247
0.000240
0.000243
0.000264
0.000242
0.000266
0.000239
0.000536
0.000281
0.000373
0.000284
0.000257
0.000262
0.000270
0.000282
0.000211
0.000261
0.000272
0.001330
0.000663
0.000309
0.000388
0.000374
0.000402
0.000302
0.000056
0.000211
0.000243
0.000430
0.001244
0.000212
0.000254
0.000241
0.000246
0.000254
0.000256
0.000264
0.000236
0.000258
0.000399
0.000565
0.000260
0.000227
0.000284
0.000327
0.000215
0.000251
0.000269
0.000233
0.000274
0.000265
0.001532
0.000742
0.000326
0.000270
0.000259
0.000196
0.000055
0.000215
0.000272
0.000447
0.000309
0.001313
0.000248
0.000224
0.000243
0.000225
0.000249
0.000249
0.000254
0.000233
0.000240
0.000250
0.000255
0.000270
0.000243
0.000249
0.000254
0.000268
0.000264
0.000318
0.000326
0.000205
0.000274
0.000269
0.001462
0.000269
0.000230
0.000167
0.000056
0.000204
0.000235
0.000247
0.000267
0.000351
0.000371
0.000397
0.000281
0.001578
0.000260
0.000385
0.000359
0.000380
0.000222
0.000435
0.000231
0.000229
0.000273
0.000267
0.000273
0.000278
0.000262
0.000259
0.000269
0.000280
0.000369
0.000462
0.000287
0.001583
0.000220
0.000193
0.000056
0.000227
0.000239
0.000269
0.000227
0.000240
0.000246
0.000260
0.000314
0.000417
0.002022
0.000225
0.000254
0.000248
0.000263
0.000262
0.000259
0.000261
0.000259
0.000427
0.000316
0.000353
0.000420
0.001444
0.000253
0.000235
0.002021
0.000280
0.000236
0.000257
0.001528
0.000159
0.000057
0.000343
0.000408
0.000468
0.000226
0.000278
0.000230
0.000241
0.000290
0.000242
0.000225
0.000252
0.000407
0.000405
0.000329
0.000394
0.000235
0.000236
0.001568
0.000222
0.000651
0.001816
0.000299
0.000225
0.001578
0.002011
0.000713
0.000274
0.000283
0.000311
0.000474
0.000334
0.000056
0.000210
0.000243
0.000281
0.000218
0.001418
0.001733
0.001076
0.000201
0.000248
0.001573
0.001976
0.000224
0.000232
0.000418
0.000410
0.000352
0.000354
0.000437
0.000226
0.000233
0.000249
0.000253
0.000284
0.001577
0.001208
0.001425
0.000298
0.000273
0.000255
0.000401
0.000314
0.000056
0.000208
0.000234
0.000237
0.000241
0.000232
0.000269
0.000226
0.000255
0.000256
0.000247
0.000242
0.000305
0.000454
0.000471
0.000269
0.000249
0.000249
0.000272
0.000271
0.000280
0.000238
0.000266
0.001535
0.000449
0.002123
0.000221
0.000270
0.000361
0.000482
0.000317
0.000181
0.000057
0.000229
0.000365
0.000440
0.000302
0.000219
0.000218
0.000249
0.000242
0.000253
0.000231
0.000249
0.000260
0.000260
0.001610
0.001365
0.001216
0.000274
0.000231
0.000250
0.000272
0.000282
0.000276
0.000240
0.000256
0.002210
0.000245
0.000251
0.000300
0.000321
0.000310
0.000218
0.000056
0.000235
0.000415
0.000490
0.000338
0.000211
0.000231
0.000244
0.000276
0.001910
0.001407
0.000221
0.000323
0.000386
0.000409
0.000268
0.000244
0.000241
0.000268
0.000266
0.000258
0.000261
0.000262
0.000473
0.000234
0.000269
0.000266
0.000254
0.000275
0.000281
0.000247
0.000202
0.000057
0.000187
0.000250
0.000240
0.000244
0.000280
0.000250
0.001535
0.001428
0.001317
0.000247
0.000226
0.000241
0.000266
0.000263
0.000254
0.000258
0.000234
0.002101
0.000258
0.000234
0.000260
0.000264
0.000250
0.000270
0.000265
0.000253
0.000274
0.000250
0.000281
0.000251
0.000182
0.000056
0.000213
0.002680
0.001395
0.000220
0.000303
0.000322
0.000217
0.000284
0.000229
0.000238
0.000253
0.000242
0.000239
0.000262
0.000258
0.000256
0.000264
0.000279
0.000258
0.000253
0.000268
0.000285
0.000268
0.000256
0.000251
0.000255
0.000262
0.000265
0.000281
0.000258
0.000367
0.000055
0.001539
0.000262
0.001247
0.000219
0.000220
0.000238
0.000280
0.000256
0.000225
0.000316
0.000340
0.000371
0.000331
0.000219
0.000248
0.002152
0.000238
0.000246
0.000304
0.000516
0.000372
0.000249
0.000237
0.000251
0.000262
0.000248
0.000267
0.000277
0.000277
0.001607
0.001269
0.000057
0.000204
0.000224
0.000444
0.000300
0.000314
0.000271
0.000210
0.000238
0.000251
0.000273
0.000252
0.000243
0.000226
0.000255
0.000262
0.000248
0.000397
0.000562
0.000331
0.000244
0.000239
0.000268
0.000283
0.000251
0.000249
0.000250
0.000265
0.000277
0.000243
0.000380
0.000477
0.000075
0.001104
0.000239
0.000335
0.000460
0.000278
0.000224
0.000238
0.000241
0.000254
0.002368
0.000307
0.000375
0.000223
0.000374
0.000308
0.000251
0.000240
0.000258
0.000261
0.000233
0.000248
0.000397
0.000640
0.000290
0.001878
0.001333
0.000588
0.000450
0.000224
0.000286
0.000201
0.000056
0.000187
0.000387
0.000248
0.000243
0.000249
0.000225
0.000254
0.000250
0.000253
0.000248
0.000258
0.000226
0.000246
0.000327
0.000420
0.000455
0.001789
0.001393
0.000413
0.000411
0.000456
0.000236
0.000260
0.000239
0.002130
0.000550
0.000394
0.000231
0.000273
0.000285
0.000200
0.000056
0.000209
0.000245
0.000255
0.000242
0.000324
0.000245
0.000439
0.000358
0.000264
0.000223
0.000240
0.000251
0.000262
0.002113
0.000380
0.000373
0.000218
0.000246
0.000285
0.000244
0.000248
0.002515
0.000283
0.000228
0.000251
0.000257
0.000249
0.000275
0.000311
0.000252
0.000191
0.000056
0.000214
0.000314
0.000590
0.000347
0.000259
0.000219
0.000235
0.000255
0.000261
0.000249
0.002015
0.000338
0.000266
0.000275
0.000241
0.000268
0.000271
0.000239
0.002203
0.000448
0.000222
0.000268
0.000280
0.000248
0.000257
0.000252
0.000305
0.000243
0.000262
0.000253
0.000186
0.000056
0.000208
0.000239
0.000252
0.000221
0.000245
0.000261
0.000245
0.000229
0.000239
0.002191
0.000222
0.000280
0.000216
0.000428
0.000218
0.000257
0.000305
0.000267
0.000247
0.000259
0.001964
0.000272
0.000342
0.000360
0.000432
0.000409
0.000303
0.000257
0.000250
0.000259
0.000202
0.000056
0.000199
0.000245
0.000233
0.000251
0.000249
0.000331
0.000216
0.002311
0.000236
0.000230
0.000263
0.000258
0.000232
0.000285
0.000275
0.002128
0.000589
0.000229
0.000243
0.000248
0.000254
0.000260
0.000286
0.000271
0.000263
0.000254
0.000287
0.000254
0.000268
0.000267
0.000193
0.000056
0.001820
0.001442
0.000199
0.000228
0.000242
0.000255
0.000253
0.000443
0.000285
0.000393
0.002075
0.000263
0.000223
0.000271
0.000377
0.000408
0.000403
0.000301
0.000225
0.000242
0.000258
0.000263
0.000265
0.000226
0.000257
0.000267
0.000271
0.000263
0.000292
0.000687
0.000320
0.000072
0.000191
0.000256
0.000241
0.000257
0.000261
0.000254
0.000246
0.000245
0.001493
0.002103
0.000589
0.000268
0.000402
0.000812
0.000244
0.000232
0.000254
0.000250
0.000262
0.000262
0.000256
0.000246
0.000258
0.000263
0.003010
0.000336
0.000234
0.000263
0.000292
0.000308
0.000374
0.000056
0.001942
0.000229
0.000225
0.000238
0.000298
0.000345
0.000451
0.000305
0.000292
0.000221
0.000237
0.000254
0.000258
0.000259
0.000258
0.000258
0.000255
0.000291
0.001822
0.000236
0.000237
0.000250
0.000280
0.000273
0.000273
0.000263
0.001452
0.000347
0.000248
0.000252
0.000176
0.000056
0.000199
0.000240
0.000245
0.000235
0.000247
0.000243
0.000288
0.000402
0.000409
0.000294
0.000206
0.000242
0.000269
0.000322
0.000419
0.000327
0.000227
0.000243
0.000286
0.000436
0.000472
0.000359
0.000239
0.000253
0.000267
0.000238
0.000254
0.000275
0.000280
0.000259
0.000207
0.000056
0.001412
0.000441
0.000220
0.001954
0.000257
0.000589
0.000273
0.000320
0.000227
0.000246
0.000265
0.000243
0.000246
0.000248
0.000267
0.000255
0.000459
0.000309
0.000424
0.000318
0.000358
0.000265
0.000220
0.000289
0.000249
0.000271
0.000260
0.000269
0.000393
0.000504
0.001300
0.000056
0.000203
0.000253
0.002102
0.000311
0.000274
0.000234
0.000254
0.000253
0.000261
0.000264
0.000200
0.000254
0.000251
0.000261
0.000287
0.000326
0.000715
0.001768
0.000223
0.000260
0.000239
0.000277
0.000552
0.000279
0.001550
0.000296
0.000365
0.001916
0.000270
0.000245
0.000199
0.000056
0.000181
0.000231
0.000237
0.000246
0.000227
0.000253
0.000252
0.000279
0.000333
0.000262
0.000382
0.000358
0.000344
0.000292
0.000243
0.000268
0.000264
0.000241
0.000267
0.000251
0.000311
0.000281
0.000266
0.000258
0.000271
0.001504
0.000294
0.000418
0.002031
0.000241
0.000173
0.000056
0.000209
0.000238
0.000235
0.000252
0.000487
0.000206
0.000255
0.000443
0.000305
0.000258
0.000305
0.000212
0.000267
0.000262
0.000269
0.000330
0.000426
0.000425
0.000254
0.000408
0.000529
0.000560
0.001461
0.000226
0.000267
0.001971
0.000327
0.000254
0.000240
0.000294
0.000192
0.000056
0.000221
0.000253
0.000211
0.000243
0.000253
0.000270
0.000254
0.000267
0.000255
0.000309
0.001758
0.000314
0.000385
0.000292
0.000452
0.000393
0.000321
0.001515
0.000231
0.000284
0.002256
0.000440
0.000260
0.000225
0.000259
0.000266
0.000508
0.000221
0.000257
0.000275
0.000200
0.000056
0.000297
0.000379
0.000300
0.000290
0.000210
0.000237
0.000264
0.000247
0.000266
0.000293
0.000227
0.000253
0.000255
0.000267
0.000430
0.000496
0.001201
0.000264
0.000277
0.002074
0.000255
0.000237
0.000238
0.000259
0.000246
0.000282
0.000267
0.000266
0.000247
0.000270
0.000204
0.000055
0.000247
0.000361
0.002061
0.000239
0.000223
0.000250
0.000258
0.000352
0.000447
0.000369
0.001300
0.000368
0.000358
0.002078
0.000217
0.000232
0.000269
0.000281
0.000244
0.000251
0.000297
0.000279
0.000260
0.000390
0.000550
0.000277
0.000308
0.002225
0.000524
0.000477
0.000362
0.000056
0.000194
0.000236
0.000248
0.001948
0.000239
0.000227
0.000245
0.000238
0.000244
0.000257
0.000244
0.000261
0.000300
0.000229
0.000562
0.001352
0.000251
0.000238
0.000267
0.000264
0.000228
0.000254
0.000261
0.000344
0.000267
0.000610
0.000292
0.000240
0.001604
0.000276
0.002011
0.000057
0.000202
0.000226
0.000243
0.000235
0.000259
0.000270
0.000228
0.000246
0.000252
0.000425
0.000356
0.001375
0.000230
0.000232
0.000245
0.000289
0.000227
0.000269
0.000306
0.000494
0.000437
0.000383
0.000226
0.001574
0.000229
0.000259
0.000291
0.000276
0.000265
0.000266
0.000198
0.000055
0.000206
0.000238
0.000288
0.000248
0.000249
0.000246
0.000234
0.000248
0.000276
0.000224
0.000251
0.000253
0.000270
0.001476
0.000360
0.000205
0.000250
0.000266
0.000278
0.000312
0.000365
0.000278
0.000246
0.000257
0.000266
0.000260
0.000260
0.001416
0.000280
0.000249
0.000157
0.000056
0.000213
0.000230
0.000262
0.000258
0.000269
0.000223
0.000247
0.000261
0.000221
0.000262
0.000243
0.000258
0.000260
0.000327
0.000331
0.000364
0.000245
0.000241
0.001638
0.000241
0.000237
0.000266
0.000262
0.000296
0.000353
0.000493
0.000355
0.000269
0.000243
0.001613
0.000151
0.000055
0.000361
0.000322
0.000406
0.000238
0.000232
0.000219
0.000246
0.000272
0.000254
0.000273
0.000214
0.000235
0.001541
0.000272
0.000241
0.000235
0.000249
0.000274
0.000250
0.000264
0.000257
0.000231
0.000260
0.000274
0.000286
0.000362
0.000422
0.000385
0.000250
0.000258
0.000196
0.000055
0.000207
0.000267
0.000470
0.000315
0.000339
0.000283
0.000253
0.000244
0.000255
0.000259
0.000240
0.000223
0.000257
0.000246
0.001300
0.000253
0.000239
0.000251
0.000281
0.000255
0.000239
0.000262
0.000257
0.000259
0.000249
0.000267
0.000321
0.000826
0.000303
0.000225
0.000183
0.000055
0.000203
0.001558
0.000277
0.000372
0.000448
0.000317
0.000220
0.000254
0.000269
0.000258
0.000235
0.000259
0.000269
0.000269
0.000257
0.001540
0.000255
0.000269
0.000269
0.000255
0.000272
0.000236
0.000271
0.000260
0.000258
0.000299
0.000465
0.000378
0.000298
0.000228
0.000194
0.000056
0.000218
0.000244
0.000247
0.001595
0.000509
0.000264
0.000228
0.000240
0.000253
0.000271
0.000279
0.000249
0.000257
0.000255
0.000233
0.000269
0.000353
0.001376
0.000248
0.000228
0.001499
0.000346
0.000642
0.000287
0.000347
0.000235
0.000266
0.000463
0.000236
0.000266
0.000184
0.000055
0.000199
0.000246
0.000219
0.000246
0.000248
0.000275
0.000219
0.000255
0.000257
0.000248
0.000241
0.000253
0.000323
0.000586
0.001576
0.001499
0.000352
0.000583
0.000295
0.000212
0.000239
0.000254
0.000247
0.000272
0.000248
0.000265
0.000259
0.000264
0.001539
0.000326
0.000174
0.000056
0.000192
0.000347
0.000351
0.000333
0.000259
0.000202
0.000250
0.000326
0.000490
0.000345
0.002167
0.000313
0.000804
0.000584
0.000278
0.000262
0.000340
0.000387
0.000328
0.000280
0.000392
0.000266
0.001526
0.000533
0.000222
0.000262
0.000254
0.000252
0.000275
0.000267
0.000201
0.000056
0.000210
0.000250
0.000248
0.000255
0.000244
0.001662
0.000876
0.000994
0.000213
0.000239
0.000270
0.000239
0.000256
0.000261
0.000252
0.000254
0.000251
0.000264
0.000266
0.000282
0.001427
0.000320
0.000251
0.000248
0.000216
0.000278
0.000246
0.000284
0.000259
0.000290
0.001900
0.000056
0.000208
0.000221
0.001541
0.000850
0.000388
0.000366
0.000249
0.000213
0.000260
0.000254
0.000254
0.000245
0.000244
0.001998
0.000453
0.000247
0.000226
0.000252
0.000265
0.000259
0.000196
