0.000333
0.018443
0.002861
0.000329
0.000193
0.000250
0.000300
0.000257
0.000324
0.000293
0.000264
0.000355
0.000497
0.000531
0.000339
0.000323
0.000291
0.000385
0.000394
0.000416
0.000307
0.001887
0.000453
0.000459
0.000253
0.000291
0.000305
0.000421
0.000419
0.000416
0.000407
0.000325
0.000056
0.000206
0.000235
0.000265
0.000262
0.000302
0.000232
0.000269
0.000279
0.000261
0.000282
0.000417
0.000482
0.000314
0.000277
0.000399
0.000361
0.000350
0.000250
0.000212
0.001743
0.000287
0.000217
0.000516
0.000242
0.000248
0.000234
0.000291
0.000296
0.000311
0.000277
0.000477
0.000057
0.000201
0.000206
0.000263
0.000259
0.000253
0.000254
0.000258
0.000256
0.000280
0.001680
0.000231
0.000233
0.000248
0.000276
0.000276
0.000257
0.000269
0.000255
0.000343
0.001810
0.000255
0.000256
0.000461
0.000464
0.000380
0.000253
0.000222
0.000521
0.000406
0.000858
0.000176
0.000057
0.000227
0.000207
0.000262
0.000228
0.000328
0.000256
0.000348
0.000489
0.000456
0.000270
0.000205
0.000214
0.000235
0.000258
0.000248
0.000261
0.000243
0.000270
0.000300
0.000347
0.001721
0.000243
0.000239
0.000468
0.000330
0.000637
0.000615
0.000520
0.000355
0.000236
0.000212
0.000056
0.000193
0.000229
0.000257
0.000247
0.000253
0.000258
0.000275
0.000469
0.001465
0.000249
0.000218
0.000236
0.000251
0.000247
0.000271
0.000278
0.000309
0.000809
0.001364
0.000275
0.000255
0.000425
0.000257
0.000240
0.000255
0.000241
0.000273
0.000266
0.000262
0.000270
0.000218
0.000056
0.000240
0.000206
0.000220
0.000248
0.000254
0.000240
0.000248
0.000252
0.000238
0.000256
0.001711
0.000241
0.000222
0.000225
0.000231
0.000249
0.000231
0.000250
0.000261
0.000258
0.000258
0.001762
0.000234
0.000247
0.000477
0.000246
0.000231
0.000236
0.000258
0.000260
0.000217
0.000056
0.000183
0.000207
0.000235
0.000247
0.000241
0.000252
0.000253
0.000240
0.000265
0.000245
0.000276
0.000245
0.000266
0.000269
0.001638
0.000281
0.000283
0.000232
0.000232
0.000272
0.000270
0.000249
0.000261
0.000243
0.000279
0.001878
0.000362
0.000343
0.000274
0.000267
0.000226
0.000056
0.000195
0.000211
0.000237
0.000274
0.000253
0.000234
0.000323
0.000357
0.000442
0.000425
0.000226
0.000225
0.000255
0.000243
0.001652
0.000559
0.000273
0.000403
0.000286
0.000217
0.000251
0.000278
0.000276
0.001829
0.000440
0.000521
0.000239
0.000208
0.000221
0.000254
0.000216
0.000056
0.000209
0.000218
0.000249
0.000245
0.000313
0.000473
0.000414
0.000267
0.000209
0.000225
0.000265
0.000231
0.000276
0.001679
0.000516
0.000295
0.000231
0.000234
0.000268
0.000276
0.000258
0.000251
0.000275
0.001931
0.000279
0.000396
0.000258
0.000223
0.000326
0.000400
0.000318
0.000057
0.000201
0.000395
0.000392
0.000231
0.000277
0.000209
0.000235
0.000253
0.000243
0.000252
0.000219
0.000246
0.001627
0.000347
0.000301
0.000217
0.000220
0.000253
0.000234
0.000282
0.000272
0.000336
0.001806
0.000348
0.000215
0.000510
0.000220
0.000217
0.000259
0.000261
0.000280
0.000057
0.000325
0.000502
0.000663
0.000202
0.000202
0.000267
0.000234
0.000221
0.000250
0.000261
0.000248
0.001709
0.000281
0.000397
0.000387
0.000221
0.000252
0.000206
0.000243
0.000262
0.000263
0.001856
0.000251
0.000218
0.002262
0.000419
0.000274
0.000266
0.000255
0.000262
0.000206
0.000055
0.000202
0.000211
0.000241
0.000246
0.000260
0.001702
0.000209
0.000201
0.000252
0.000245
0.000250
0.000259
0.000233
0.000259
0.000260
0.000480
0.000603
0.000230
0.000233
0.000256
0.000269
0.000272
0.000222
0.000753
0.000216
0.000219
0.000330
0.000594
0.000443
0.000210
0.000195
0.000055
0.000180
0.000217
0.000242
0.000253
0.000256
0.000229
0.000236
0.000528
0.000410
0.001594
0.000251
0.000228
0.000238
0.000247
0.000276
0.000269
0.000437
0.000519
0.000370
0.000236
0.000213
0.000301
0.000309
0.000254
0.000281
0.000406
0.000425
0.000532
0.000483
0.000470
0.000143
0.000056
0.000213
0.000221
0.000225
0.000231
0.000228
0.000241
0.000250
0.000236
0.000262
0.000373
0.000336
0.001558
0.000281
0.000209
0.000200
0.000218
0.000254
0.000257
0.000250
0.000252
0.000269
0.000443
0.000433
0.000332
0.000231
0.000223
0.000250
0.000275
0.000266
0.000264
0.000431
0.000055
0.000178
0.000216
0.000228
0.000291
0.000532
0.000412
0.000265
0.000230
0.000240
0.000251
0.000247
0.000240
0.000284
0.000265
0.000230
0.000589
0.000382
0.001582
0.000266
0.000250
0.000249
0.000265
0.000260
0.000249
0.000258
0.000505
0.000477
0.000342
0.000359
0.000238
0.000198
0.000056
0.000215
0.000219
0.000409
0.000231
0.000262
0.000240
0.000320
0.000565
0.000379
0.000242
0.000245
0.000256
0.000264
0.000260
0.000580
0.000294
0.000226
0.000268
0.000423
0.001655
0.000237
0.000223
0.000305
0.000417
0.000273
0.000288
0.000272
0.000286
0.000611
0.000419
0.000243
0.000056
0.000211
0.000211
0.000230
0.000239
0.000485
0.000252
0.000289
0.000227
0.000386
0.000571
0.000355
0.000240
0.000212
0.000213
0.000250
0.000263
0.000261
0.000257
0.000223
0.000369
0.000278
0.000678
0.001502
0.000255
0.000234
0.000258
0.000317
0.000370
0.000585
0.000550
0.000401
0.000056
0.000269
0.000310
0.000309
0.000422
0.000327
0.000211
0.000249
0.000299
0.000483
0.000450
0.000309
0.000209
0.000206
0.000268
0.000266
0.000248
0.000237
0.000270
0.000270
0.000265
0.000260
0.000467
0.001711
0.000314
0.000342
0.000421
0.000378
0.000244
0.000480
0.000313
0.000349
0.000057
0.000241
0.000380
0.000287
0.000200
0.000235
0.000217
0.000470
0.000219
0.000204
0.000527
0.000278
0.000334
0.000328
0.000240
0.000263
0.000296
0.000369
0.000444
0.000301
0.000219
0.000217
0.000399
0.000643
0.001640
0.000277
0.000384
0.000327
0.000241
0.000282
0.000414
0.000280
0.000055
0.000191
0.000190
0.000238
0.000248
0.000241
0.000249
0.000250
0.000350
0.000445
0.000261
0.000561
0.000330
0.000295
0.000200
0.000540
0.000249
0.000272
0.000274
0.000243
0.000344
0.000227
0.000232
0.000269
0.000395
0.000561
0.001672
0.000239
0.000239
0.000228
0.000253
0.000203
0.000056
0.000362
0.000382
0.000378
0.000208
0.000234
0.000231
0.000252
0.000245
0.000246
0.000254
0.000221
0.000495
0.000355
0.000424
0.000366
0.000312
0.000231
0.000227
0.000397
0.000349
0.000357
0.000382
0.000363
0.000374
0.000245
0.000216
0.000251
0.000265
0.001790
0.000275
0.000202
0.000056
0.000191
0.000205
0.000241
0.000268
0.000368
0.000537
0.000336
0.000227
0.000224
0.000273
0.000244
0.000252
0.000549
0.000425
0.000467
0.000311
0.000274
0.000243
0.000449
0.000487
0.000366
0.000499
0.000385
0.000455
0.000241
0.000238
0.000238
0.000220
0.000255
0.001788
0.000289
0.000056
0.000246
0.000322
0.000202
0.000214
0.000257
0.000250
0.000293
0.000448
0.000427
0.000305
0.000301
0.000306
0.000379
0.000658
0.000289
0.000207
0.000221
0.000229
0.000250
0.000273
0.000261
0.000271
0.000237
0.000275
0.000286
0.000456
0.000437
0.000335
0.000214
0.000218
0.000189
0.000056
0.000454
0.000306
0.000427
0.000265
0.000195
0.000239
0.000232
0.000254
0.000254
0.000214
0.000245
0.000273
0.000305
0.000383
0.000473
0.000504
0.000322
0.000371
0.000367
0.000393
0.000264
0.000240
0.000197
0.000248
0.001824
0.000223
0.001765
0.000922
0.000367
0.000358
0.000140
0.000056
0.000197
0.000204
0.000243
0.000225
0.000262
0.000252
0.000259
0.000240
0.000271
0.000267
0.000406
0.000440
0.000373
0.000404
0.000253
0.000225
0.000263
0.000291
0.000230
0.000207
0.000258
0.000228
0.001820
0.000268
0.000218
0.000272
0.000269
0.000267
0.001912
0.000493
0.000286
0.000056
0.000188
0.000204
0.000215
0.000234
0.000252
0.000274
0.000219
0.000248
0.000262
0.000380
0.000632
0.000239
0.000396
0.000249
0.000210
0.000294
0.000380
0.000389
0.000375
0.000252
0.001805
0.000223
0.000228
0.000230
0.000248
0.000274
0.000246
0.000265
0.000253
0.000345
0.000420
0.000056
0.000253
0.000217
0.000209
0.000248
0.000258
0.000238
0.000259
0.000248
0.000244
0.000255
0.000236
0.000266
0.000448
0.000301
0.000463
0.000239
0.000482
0.000216
0.000200
0.000257
0.000262
0.000251
0.000285
0.000254
0.000278
0.001797
0.000261
0.000239
0.000248
0.000242
0.000207
0.000056
0.000283
0.000351
0.000234
0.000198
0.000217
0.000237
0.000233
0.000259
0.000254
0.000234
0.000242
0.000236
0.000255
0.000346
0.000457
0.000358
0.000341
0.000215
0.000209
0.000243
0.000254
0.000266
0.000246
0.000269
0.000280
0.000232
0.000323
0.001700
0.000219
0.000240
0.000170
0.000055
0.000197
0.000211
0.000247
0.000265
0.000353
0.000332
0.000513
0.000239
0.000211
0.000250
0.000240
0.000254
0.000243
0.000256
0.000261
0.000252
0.000254
0.000257
0.000245
0.000258
0.000269
0.000266
0.000260
0.000234
0.000240
0.000280
0.000275
0.000257
0.000261
0.000257
0.000217
0.000056
0.000220
0.000208
0.000240
0.000253
0.000246
0.000245
0.000243
0.000260
0.000375
0.000201
0.000188
0.000244
0.000248
0.000257
0.000260
0.000268
0.000250
0.000265
0.000360
0.000206
0.000241
0.000281
0.000278
0.000262
0.000263
0.000285
0.000266
0.000252
0.000259
0.000442
0.000724
0.000057
0.000231
0.000302
0.000224
0.000183
0.000219
0.000259
0.000229
0.000260
0.000248
0.000237
0.000267
0.000270
0.000510
0.000501
0.001588
0.000210
0.000503
0.000214
0.000229
0.000431
0.000499
0.000334
0.000236
0.000259
0.000262
0.000251
0.000279
0.000261
0.000294
0.000267
0.000208
0.000056
0.000361
0.000384
0.000464
0.000202
0.000205
0.000237
0.000244
0.000253
0.000234
0.000241
0.000255
0.000256
0.000236
0.000263
0.000412
0.000517
0.000328
0.001785
0.000265
0.000225
0.000366
0.000403
0.000438
0.000319
0.000380
0.000247
0.000302
0.000223
0.000245
0.000229
0.000217
0.000056
0.000219
0.000197
0.000240
0.000296
0.000413
0.000378
0.000339
0.000262
0.000244
0.000226
0.000239
0.000267
0.000264
0.000266
0.000254
0.000261
0.000315
0.000461
0.000444
0.000360
0.000238
0.001803
0.000297
0.000544
0.000476
0.000447
0.000290
0.000236
0.000230
0.000274
0.000499
0.000056
0.000197
0.000220
0.000238
0.000296
0.000432
0.000499
0.000316
0.000266
0.000210
0.000315
0.000230
0.000227
0.000246
0.000385
0.000282
0.000221
0.000225
0.000429
0.000491
0.000235
0.000559
0.001795
0.000255
0.000527
0.000395
0.000359
0.000249
0.000367
0.000251
0.000203
0.000226
0.000055
0.000228
0.000332
0.000347
0.000368
0.000312
0.000301
0.000391
0.000221
0.000210
0.000261
0.000285
0.000239
0.000226
0.000258
0.000241
0.000262
0.000316
0.000357
0.000545
0.000370
0.000332
0.000196
0.000251
0.001790
0.000429
0.000431
0.000669
0.000289
0.000239
0.000292
0.000171
0.000056
0.000177
0.000209
0.000323
0.000259
0.000255
0.000435
0.000376
0.000307
0.000617
0.000213
0.000203
0.000230
0.000230
0.000282
0.000268
0.000271
0.000237
0.000370
0.000494
0.000354
0.000276
0.000236
0.000270
0.000235
0.000261
0.000266
0.000236
0.000255
0.000265
0.000365
0.000157
0.000057
0.000368
0.000236
0.000236
0.000228
0.000250
0.000256
0.000238
0.000363
0.000210
0.000206
0.000262
0.000352
0.000454
0.000390
0.000323
0.000300
0.000207
0.000236
0.000253
0.000261
0.000256
0.000304
0.000231
0.000262
0.000274
0.000315
0.000426
0.000397
0.000372
0.000226
0.000159
0.000055
0.000208
0.000203
0.000259
0.000247
0.000239
0.000254
0.000252
0.000271
0.000500
0.000236
0.000226
0.000251
0.000239
0.000261
0.000267
0.000278
0.000266
0.000358
0.000261
0.000207
0.000241
0.000263
0.000261
0.000271
0.000265
0.000265
0.000269
0.000264
0.000246
0.000514
0.000163
0.000057
0.000211
0.000214
0.000225
0.000265
0.000250
0.000222
0.000298
0.000455
0.000264
0.000230
0.000244
0.000259
0.000264
0.000311
0.000413
0.001743
0.000245
0.000246
0.000316
0.000382
0.000409
0.000344
0.000408
0.000320
0.000408
0.000358
0.000250
0.000256
0.000269
0.000271
0.001432
0.000056
0.000339
0.000319
0.000299
0.000203
0.000200
0.000234
0.000223
0.000255
0.000248
0.000264
0.000247
0.000261
0.000268
0.000333
0.000420
0.001774
0.000214
0.000209
0.000216
0.000262
0.000245
0.000247
0.000370
0.000458
0.000239
0.000342
0.000254
0.000244
0.000271
0.000257
0.000219
0.000057
0.001209
0.000550
0.000326
0.000296
0.000215
0.000202
0.000206
0.000255
0.000458
0.000244
0.000227
0.000249
0.000357
0.000415
0.000496
0.000333
0.000294
0.000234
0.000365
0.000352
0.000221
0.000240
0.000266
0.000242
0.000275
0.000554
0.000603
0.000263
0.000224
0.000276
0.000178
0.000056
0.000217
0.000200
0.000218
0.000244
0.001430
0.000372
0.000214
0.000228
0.000243
0.000256
0.000248
0.000249
0.000246
0.000253
0.000277
0.000252
0.000514
0.000627
0.000267
0.001810
0.000254
0.000286
0.000280
0.000425
0.000574
0.000365
0.000217
0.000234
0.000259
0.000272
0.000208
0.000056
0.000207
0.000245
0.000208
0.001344
0.000322
0.000198
0.000257
0.000209
0.000243
0.000233
0.000234
0.000249
0.000276
0.000250
0.000257
0.000358
0.000514
0.000386
0.000303
0.000213
0.000237
0.000274
0.000263
0.000223
0.000358
0.000225
0.000221
0.000270
0.000269
0.000432
0.000521
0.000057
0.000206
0.000224
0.000233
0.000259
0.000260
0.000253
0.000226
0.000258
0.000270
0.000255
0.001445
0.000239
0.000218
0.000250
0.000247
0.000248
0.000259
0.000264
0.000257
0.000280
0.000259
0.000482
0.000494
0.000377
0.000234
0.000249
0.001850
0.000225
0.000229
0.000381
0.000418
0.000057
0.000233
0.000427
0.000460
0.000505
0.000521
0.000527
0.001486
0.000415
0.000546
0.000646
0.000555
0.000756
0.000436
0.000630
0.000582
0.001714
0.000449
0.000471
0.000386
0.000311
0.000257
0.000292
0.000284
0.000268
0.000279
0.000267
0.000300
0.000288
0.000252
0.000290
0.001324
0.000057
0.000211
0.000248
0.000226
0.000232
0.000247
0.000242
0.000244
0.000233
0.000256
0.000286
0.000231
0.000274
0.000236
0.000275
0.000240
0.000260
0.001835
0.000268
0.000257
0.000255
0.000251
0.000266
0.000263
0.000293
0.000364
0.000455
0.000325
0.000243
0.000265
0.000289
0.000165
0.000056
0.000187
0.001396
0.000262
0.000261
0.000265
0.000238
0.000252
0.000247
0.000252
0.000242
0.000240
0.000243
0.000290
0.000416
0.000276
0.000347
0.000269
0.000288
0.001908
0.000262
0.000253
0.000259
0.000255
0.000267
0.000276
0.000255
0.000291
0.000250
0.000232
0.000307
0.000236
0.000056
0.000213
0.000227
0.000256
0.001422
0.000265
0.000271
0.000222
0.000222
0.000228
0.000255
0.000257
0.000276
0.000221
0.000254
0.000292
0.000245
0.000246
0.000258
0.000263
0.000270
0.000253
0.001854
0.000264
0.001768
0.000250
0.000257
0.000251
0.000219
0.000271
0.000284
0.000213
0.000056
0.000205
0.000243
0.001369
0.000243
0.000265
0.000212
0.000219
0.000228
0.000250
0.000258
0.000251
0.000249
0.000248
0.000253
0.000263
0.000269
0.000247
0.000279
0.000300
0.000254
0.001859
0.000283
0.001781
0.000293
0.000252
0.000244
0.000256
0.000261
0.000260
0.000259
0.000193
0.000057
0.001433
0.000233
0.000244
0.000224
0.000211
0.000228
0.000272
0.000359
0.000249
0.000248
0.000254
0.000264
0.000249
0.000346
0.000487
0.000265
0.000255
0.000272
0.000226
0.000230
0.000256
0.000321
0.000288
0.000239
0.000265
0.000278
0.000253
0.000394
0.000654
0.000352
0.000181
0.000056
0.000203
0.000284
0.000268
0.000305
0.000351
0.000274
0.001675
0.000284
0.000285
0.000252
0.000271
0.000303
0.000259
0.000265
0.000299
0.000307
0.000372
0.000518
0.000367
0.000279
0.000309
0.000280
0.000259
0.000266
0.000328
0.000260
0.000262
0.000243
0.000242
0.000283
0.000472
0.000057
0.000286
0.000378
0.000271
0.000264
0.000256
0.000225
0.000217
0.000251
0.000271
0.000239
0.001537
0.000225
0.000215
0.000243
0.000246
0.000284
0.000268
0.000265
0.000248
0.000264
0.000274
0.000322
0.000667
0.000306
0.000216
0.000287
0.000264
0.000244
0.000243
0.000235
0.000254
0.000055
0.000221
0.000190
0.000261
0.000487
0.000358
0.000311
0.000188
0.000236
0.000250
0.000282
0.000218
0.000253
0.000245
0.000275
0.000239
0.000236
0.000417
0.001263
0.000228
0.000243
0.000234
0.000236
0.000356
0.000510
0.000208
0.000260
0.000580
0.000576
0.000213
0.000236
0.000146
0.000056
0.000219
0.000219
0.000262
0.000265
0.000317
0.000202
0.000317
0.000542
0.000379
0.000299
0.000368
0.000397
0.000401
0.000349
0.000239
0.000210
0.000230
0.000219
0.000415
0.000559
0.001163
0.000240
0.000253
0.000268
0.000239
0.000241
0.000253
0.000352
0.000372
0.000512
0.000250
0.000056
0.000201
0.000235
0.000221
0.000248
0.000242
0.000248
0.000244
0.000254
0.000250
0.000401
0.000506
0.000385
0.000228
0.000209
0.000214
0.000257
0.000253
0.000256
0.000270
0.000536
0.000221
0.000210
0.000487
0.000431
0.000200
0.000242
0.000234
0.000276
0.000249
0.000291
0.000242
0.000056
0.000284
0.000299
0.000344
0.000333
0.000560
0.000281
0.000242
0.000257
0.000218
0.000269
0.000261
0.000255
0.000237
0.000254
0.000241
0.000229
0.000256
0.000377
0.000553
0.000345
0.000216
0.000266
0.000200
0.000252
0.000282
0.000256
0.000259
0.000275
0.000285
0.000260
0.000333
0.000056
0.000355
0.000245
0.000231
0.000220
0.000248
0.000256
0.000248
0.000247
0.000253
0.000263
0.000256
0.000232
0.000312
0.000528
0.000435
0.000312
0.000217
0.000193
0.000248
0.000263
0.000311
0.000218
0.000261
0.000268
0.000263
0.000288
0.000503
0.000649
0.000383
0.000219
0.000148
0.000056
0.000397
0.000216
0.000187
0.000234
0.000252
0.000253
0.000239
0.000255
0.000250
0.000260
0.000227
0.000252
0.000258
0.000227
0.000248
0.000257
0.000249
0.000268
0.000272
0.000261
0.000263
0.000254
0.000264
0.000264
0.000275
0.000280
0.000227
0.000275
0.000251
0.000283
0.000230
0.000056
0.000230
0.000174
0.000272
0.000225
0.000243
0.000232
0.000263
0.000239
0.000265
0.000288
0.000220
0.000236
0.000259
0.000402
0.000238
0.000279
0.000266
0.000283
0.000236
0.000280
0.000274
0.000231
0.000249
0.000248
0.000270
0.000278
0.000256
0.000256
0.000258
0.000265
0.000216
0.000058
0.000249
0.000376
0.000350
0.000283
0.000331
0.000210
0.000199
0.000250
0.000234
0.000238
0.000239
0.000265
0.000255
0.000250
0.000240
0.000261
0.000269
0.000263
0.000265
0.000251
0.000277
0.000257
0.000276
0.000258
0.000272
0.000288
0.000243
0.000274
0.000251
0.000266
0.000205
0.000056
0.000225
0.000245
0.000224
0.000252
0.000254
0.000445
0.000238
0.000237
0.000261
0.000409
0.000612
0.000248
0.000199
0.000237
0.000255
0.000263
0.000239
0.000265
0.000269
0.000260
0.000261
0.000278
0.000275
0.000284
0.000502
0.000553
0.000243
0.000265
0.000269
0.000262
0.000205
0.000056
0.000187
0.000205
0.000235
0.000257
0.000274
0.000717
0.000306
0.000367
0.000239
0.000229
0.000237
0.000257
0.000257
0.000247
0.000254
0.000273
0.000259
0.000245
0.000619
0.000455
0.000288
0.000212
0.000251
0.000282
0.000278
0.000262
0.000264
0.000270
0.000259
0.000334
0.000332
0.000056
0.000290
0.000229
0.000215
0.000224
0.000254
0.000255
0.000231
0.000253
0.000236
0.000255
0.000247
0.000256
0.000252
0.000418
0.000547
0.000446
0.000207
0.000227
0.000261
0.000251
0.000255
0.000275
0.000466
0.000254
0.000247
0.000723
0.000416
0.000372
0.000272
0.000251
0.000179
0.000056
0.000220
0.000199
0.000241
0.000237
0.000273
0.000237
0.000358
0.000464
0.000665
0.000293
0.000218
0.000234
0.000276
0.000278
0.000285
0.000226
0.000227
0.000250
0.000256
0.000439
0.000370
0.000511
0.000430
0.000279
0.000447
0.000345
0.000475
0.000219
0.000242
0.000313
0.000492
0.000056
0.000261
0.000223
0.000511
0.000179
0.000231
0.000223
0.000243
0.000258
0.000238
0.000232
0.000280
0.000439
0.000340
0.000366
0.000238
0.000205
0.000278
0.000217
0.000272
0.000269
0.000272
0.000265
0.000250
0.000267
0.000284
0.000541
0.000461
0.000267
0.000237
0.000260
0.000224
0.000056
0.000176
0.000237
0.000234
0.000243
0.000239
0.000249
0.000454
0.000462
0.000332
0.000299
0.000329
0.000247
0.000210
0.000271
0.000259
0.000240
0.000255
0.000255
0.000266
0.000493
0.000494
0.000263
0.000450
0.000359
0.000395
0.000388
0.000380
0.000253
0.000217
0.000292
0.000459
0.000056
0.000217
0.000266
0.000223
0.000241
0.000274
0.000243
0.000254
0.000241
0.000251
0.000263
0.000240
0.000355
0.000450
0.000382
0.000366
0.000255
0.000255
0.000247
0.000286
0.000216
0.000248
0.000251
0.000264
0.000279
0.000273
0.000365
0.000463
0.000473
0.000248
0.000271
0.000203
0.000056
0.000194
0.000222
0.000247
0.000252
0.000252
0.000345
0.000466
0.000527
0.000351
0.000683
0.000274
0.000228
0.000212
0.000256
0.000246
0.000263
0.000280
0.000266
0.000536
0.000511
0.001516
0.000241
0.000255
0.000263
0.000300
0.000233
0.000343
0.000489
0.000308
0.000332
0.000163
0.000056
0.000199
0.000197
0.000235
0.000274
0.000219
0.000249
0.000271
0.000261
0.000248
0.000366
0.000355
0.000360
0.000282
0.000382
0.000387
0.000329
0.000225
0.000219
0.000240
0.000269
0.000239
0.000242
0.000279
0.000275
0.000329
0.000529
0.000362
0.000290
0.000215
0.000255
0.000197
0.000056
0.000189
0.000223
0.000256
0.000251
0.000250
0.000236
0.000487
0.000206
0.000229
0.000254
0.000251
0.000241
0.000259
0.000258
0.000244
0.000276
0.000266
0.000255
0.000276
0.000262
0.000250
0.000335
0.000257
0.000252
0.000251
0.000273
0.000275
0.000270
0.000259
0.000271
0.000195
0.000056
0.000206
0.000215
0.000347
0.000444
0.000383
0.000209
0.000210
0.000233
0.000258
0.000252
0.000241
0.000258
0.000263
0.000266
0.000235
0.000246
0.000242
0.000265
0.000259
0.000351
0.000442
0.000413
0.000228
0.000260
0.000265
0.000255
0.000270
0.000256
0.000262
0.000286
0.000211
0.000056
0.000345
0.000426
0.000351
0.000238
0.000235
0.000235
0.000489
0.000200
0.000217
0.000227
0.000283
0.000340
0.000429
0.000410
0.001730
0.000254
0.000252
0.000244
0.000279
0.000244
0.000353
0.000471
0.000545
0.000355
0.000235
0.000243
0.000267
0.000409
0.000283
0.000286
0.000179
0.000056
0.000303
0.000312
0.000282
0.000315
0.000520
0.000216
0.000211
0.000245
0.000257
0.000237
0.000261
0.000246
0.000261
0.000313
0.000430
0.000490
0.000233
0.000214
0.000249
0.000275
0.000246
0.000373
0.000199
0.000260
0.000285
0.000440
0.000526
0.000386
0.000493
0.000220
0.000201
0.000056
0.000220
0.000200
0.000244
0.000268
0.000208
0.000257
0.000264
0.000267
0.000439
0.000313
0.000402
0.000376
0.000222
0.000221
0.000263
0.000278
0.000330
0.000235
0.000270
0.000264
0.000251
0.000260
0.000518
0.000372
0.000267
0.000280
0.000250
0.000534
0.000379
0.000272
0.000172
0.000056
0.000181
0.000234
0.000315
0.000415
0.000385
0.000227
0.000215
0.000250
0.000263
0.000255
0.000269
0.000260
0.000218
0.000258
0.000252
0.000298
0.000387
0.000374
0.000297
0.000369
0.000457
0.000240
0.000265
0.000280
0.000306
0.000277
0.000283
0.000243
0.000509
0.000421
0.000287
0.000056
0.000207
0.000209
0.000245
0.000246
0.000272
0.000455
0.000227
0.000231
0.000266
0.000379
0.000496
0.000532
0.000246
0.000218
0.000237
0.000261
0.000245
0.000271
0.000233
0.000250
0.000254
0.000275
0.000490
0.000351
0.000388
0.000317
0.000351
0.000341
0.000304
0.000217
0.000177
0.000056
0.000210
0.000209
0.000241
0.000510
0.000304
0.000378
0.000253
0.000214
0.000197
0.000242
0.000251
0.000252
0.000250
0.000287
0.000289
0.000210
0.000242
0.000250
0.000239
0.000465
0.000547
0.000333
0.000212
0.000228
0.000282
0.000276
0.000254
0.000256
0.000263
0.000263
0.000221
0.000056
0.000237
0.000422
0.000501
0.000218
0.000210
0.000205
0.000307
0.000526
0.000272
0.000197
0.000224
0.000263
0.000343
0.000370
0.000462
0.000322
0.000213
0.000207
0.000296
0.000200
0.000268
0.000270
0.000273
0.000252
0.000272
0.000287
0.000491
0.000343
0.000369
0.000228
0.000148
0.000057
0.000200
0.000216
0.000238
0.000278
0.000253
0.000240
0.000234
0.000252
0.000268
0.000232
0.000268
0.000246
0.000258
0.001456
0.000254
0.000230
0.000260
0.000250
0.000268
0.000273
0.000264
0.000239
0.000283
0.000251
0.000261
0.000280
0.000266
0.000268
0.000262
0.000262
0.000221
0.000057
0.000184
0.000217
0.000235
0.000247
0.000241
0.000238
0.000262
0.000259
0.000231
0.000249
0.000246
0.000260
0.000262
0.000252
0.000259
0.000258
0.000252
0.000247
0.000286
0.000254
0.000249
0.000259
0.000263
0.000238
0.001368
0.000278
0.000549
0.000396
0.000407
0.000209
0.000158
0.000055
0.000186
0.000219
0.000227
0.000575
0.000181
0.000228
0.000191
0.000207
0.000260
0.000348
0.000535
0.000342
0.000224
0.000197
0.000232
0.000262
0.000250
0.000268
0.000248
0.000255
0.000269
0.000245
0.000261
0.000411
0.000555
0.000421
0.000241
0.000252
0.001361
0.000275
0.000178
0.000056
0.000285
0.000429
0.000343
0.000255
0.000193
0.000207
0.000228
0.000233
0.000260
0.000261
0.000250
0.000252
0.000263
0.000327
0.000582
0.000359
0.000303
0.000239
0.000250
0.000247
0.000246
0.000258
0.000281
0.000257
0.000265
0.000260
0.000435
0.000440
0.000423
0.000369
0.000170
0.000056
0.000184
0.000256
0.001279
0.000358
0.000309
0.000467
0.000353
0.000332
0.000435
0.000368
0.000240
0.000199
0.000241
0.000252
0.000253
0.000265
0.000357
0.000542
0.000356
0.000343
0.000271
0.000243
0.000249
0.000510
0.000250
0.000246
0.000261
0.000276
0.000308
0.000541
0.000333
0.000056
0.000332
0.000384
0.000225
0.000203
0.001598
0.000560
0.000226
0.000203
0.000211
0.000238
0.000237
0.000232
0.000245
0.000263
0.000251
0.000269
0.000227
0.000327
0.000421
0.000455
0.000400
0.000211
0.000224
0.000237
0.000255
0.000275
0.000280
0.000243
0.000256
0.000267
0.000247
0.000057
0.000365
0.000320
0.000246
0.000231
0.000222
0.000243
0.000247
0.000247
0.000240
0.000254
0.001567
0.000370
0.000252
0.000209
0.000208
0.000263
0.000258
0.000268
0.000235
0.000264
0.000280
0.000256
0.000266
0.000565
0.000335
0.000414
0.000199
0.000263
0.000278
0.000284
0.000201
0.000055
0.000189
0.000459
0.000200
0.000200
0.000395
0.000402
0.000385
0.000305
0.000472
0.000193
0.000207
0.000259
0.000253
0.000263
0.000268
0.001515
0.000263
0.000277
0.000245
0.000262
0.000280
0.000259
0.000249
0.000263
0.000250
0.000266
0.000414
0.000488
0.000312
0.000288
0.000158
0.000056
0.000196
0.000210
0.000249
0.000237
0.000243
0.000251
0.000239
0.000247
0.000281
0.000475
0.000395
0.000313
0.000200
0.000233
0.000220
0.000269
0.000277
0.000261
0.000274
0.000229
0.000245
0.000269
0.001377
0.000235
0.000272
0.000204
0.000234
0.000276
0.000251
0.000264
0.000202
0.000057
0.000235
0.000302
0.000427
0.000349
0.000222
0.000215
0.000238
0.000287
0.000229
0.000248
0.000270
0.000259
0.000241
0.000255
0.000261
0.000258
0.000263
0.000262
0.000277
0.000246
0.000254
0.000270
0.000267
0.000282
0.000289
0.000266
0.000292
0.000226
0.000271
0.000512
0.001317
0.000055
0.000207
0.000208
0.000224
0.000243
0.000257
0.000258
0.000256
0.000217
0.000249
0.000248
0.000264
0.000266
0.000255
0.000239
0.000246
0.001717
0.000373
0.000206
0.000199
0.000240
0.000247
0.000254
0.000271
0.000264
0.000255
0.000275
0.000307
0.000245
0.000261
0.000270
0.000238
0.000056
0.000306
0.000305
0.001309
0.000197
0.000214
0.000217
0.000260
0.000255
0.000247
0.000262
0.000235
0.000358
0.000391
0.000549
0.000216
0.000198
0.000231
0.000250
0.000254
0.000267
0.000244
0.000260
0.000272
0.000288
0.000267
0.000407
0.000426
0.000337
0.000266
0.000252
0.000205
0.000056
0.000222
0.000230
0.000224
0.000251
0.000252
0.000246
0.000220
0.000263
0.000408
0.000446
0.001157
0.000233
0.000252
0.000246
0.000269
0.000252
0.000270
0.000247
0.000319
0.000387
0.000413
0.000288
0.000213
0.000244
0.000269
0.000273
0.000289
0.000276
0.000271
0.000272
0.000222
0.000056
0.000306
0.000342
0.000419
0.000228
0.000209
0.000197
0.000235
0.000277
0.000266
0.000261
0.000219
0.000561
0.000236
0.000484
0.000464
0.001449
0.000234
0.000279
0.000319
0.000354
0.000442
0.000451
0.000416
0.000418
0.000228
0.000247
0.000269
0.000277
0.000270
0.000285
0.000194
0.000056
0.000195
0.000226
0.000450
0.000481
0.000384
0.000207
0.000242
0.000236
0.000244
0.000253
0.000260
0.000262
0.000267
0.000235
0.000268
0.000383
0.000335
0.000438
0.000314
0.001312
0.000261
0.000258
0.000263
0.000520
0.000450
0.000224
0.000413
0.000222
0.000237
0.000267
0.000206
0.000055
0.000185
0.000210
0.000262
0.000228
0.000246
0.000293
0.000448
0.000387
0.000380
0.000222
0.000222
0.000256
0.000267
0.000260
0.000260
0.000268
0.000256
0.000256
0.000268
0.000327
0.000529
0.000394
0.000333
0.001331
0.000346
0.000249
0.000273
0.000463
0.000420
0.000339
0.000339
0.000056
0.000198
0.000199
0.000244
0.000248
0.000249
0.000254
0.001698
0.000261
0.000226
0.000211
0.000242
0.000267
0.000321
0.000325
0.000333
0.000280
0.000296
0.000281
0.000474
0.000431
0.000292
0.000260
0.000236
0.000223
0.001438
0.000430
0.000460
0.000421
0.000322
0.000299
0.000158
0.000057
0.000201
0.000223
0.000261
0.000257
0.000244
0.000256
0.001790
0.000211
0.000233
0.000258
0.000388
0.000411
0.001431
0.000336
0.000412
0.000208
0.000216
0.000227
0.000273
0.000262
0.001613
0.000557
0.000416
0.000277
0.000217
0.000216
0.000259
0.000271
0.000255
0.000242
0.000222
0.000058
0.000204
0.000218
0.000254
0.000250
0.000264
0.000260
0.000288
0.000252
0.000257
0.000251
0.000254
0.000250
0.000252
0.000271
0.000255
0.001510
0.000280
0.000224
0.000262
0.000276
0.000273
0.000262
0.000438
0.001265
0.000286
0.000236
0.000254
0.000252
0.000471
0.000211
0.000185
0.000056
0.000173
0.000220
0.000229
0.000246
0.000238
0.000217
0.000245
0.001765
0.000215
0.000214
0.000234
0.000355
0.000240
0.000210
0.001476
0.000243
0.000212
0.000222
0.000259
0.000239
0.000265
0.000304
0.000343
0.001361
0.000282
0.000226
0.000218
0.000258
0.001395
0.000276
0.000200
0.000056
0.000277
0.000319
0.000212
0.000204
0.000245
0.000260
0.000248
0.000271
0.000263
0.000242
0.000272
0.000263
0.000256
0.000239
0.000346
0.001469
0.000259
0.000255
0.000257
0.000247
0.000282
0.000259
0.000259
0.001477
0.000384
0.000232
0.000261
0.001349
0.000240
0.000215
0.000222
0.000056
0.000258
0.000329
0.000376
0.000207
0.000205
0.000234
0.000259
0.000257
0.000270
0.000271
0.000231
0.000264
0.000251
0.000276
0.000505
0.001210
0.000206
0.000216
0.000252
0.000279
0.000233
0.000238
0.000255
0.001290
0.000389
0.000222
0.000238
0.000231
0.000240
0.001358
0.000341
0.000056
0.000236
0.000309
0.000209
0.000214
0.000242
0.000224
0.000270
0.000227
0.000276
0.000262
0.000237
0.000265
0.000233
0.000324
0.000418
0.001484
0.000243
0.000214
0.000300
0.000500
0.000308
0.000403
0.001337
0.000298
0.000252
0.000251
0.001281
0.000360
0.000329
0.000442
0.000300
0.000056
0.000188
0.000242
0.000252
0.000257
0.000252
0.000270
0.000262
0.000248
0.000262
0.000262
0.000441
0.000374
0.001381
0.000198
0.000244
0.000266
0.000276
0.000268
0.000203
0.000224
0.000331
0.001311
0.000239
0.000251
0.000207
0.000241
0.001518
0.000440
0.000462
0.000246
0.000198
0.000056
0.000189
0.000226
0.000234
0.000234
0.000247
0.000266
0.000248
0.000243
0.000461
0.000554
0.000229
0.001452
0.000237
0.000204
0.000272
0.000253
0.000323
0.000318
0.001551
0.000332
0.000358
0.000354
0.001310
0.000401
0.000300
0.000339
0.000230
0.000222
0.000236
0.000264
0.000233
0.000056
0.000210
0.000196
0.000325
0.000352
0.000173
0.000653
0.000228
0.000333
0.001485
0.000371
0.000278
0.000242
0.000191
0.000292
0.000354
0.001384
0.000274
0.000219
0.000207
0.000256
0.000322
0.001598
0.000340
0.000271
0.000236
0.000207
0.000550
0.000293
0.000227
0.000217
0.000252
0.000055
0.000258
0.000376
0.000318
0.000310
0.000205
0.001464
0.000247
0.000234
0.000237
0.000275
0.000265
0.000246
0.000304
0.001506
0.000234
0.000260
0.000393
0.001280
0.000309
0.000411
0.000378
0.000242
0.000242
0.000242
0.000283
0.000254
0.000484
0.000210
0.000254
0.000268
0.000215
0.000056
0.000225
0.000272
0.000313
0.001445
0.000267
0.000200
0.000301
0.000254
0.000243
0.000248
0.000242
0.001671
0.000252
0.000205
0.000213
0.000231
0.001360
0.000336
0.000440
0.000460
0.000347
0.000210
0.000233
0.000234
0.000378
0.000242
0.000222
0.000249
0.000239
0.000257
0.000217
0.000056
0.000214
0.000389
0.001450
0.000229
0.000242
0.000264
0.000250
0.000243
0.000332
0.000505
0.001255
0.000208
0.000304
0.000237
0.000201
0.001357
0.000708
0.000247
0.000307
0.000404
0.000332
0.000240
0.000225
0.000227
0.000270
0.000284
0.000273
0.000300
0.000502
0.000430
0.001387
0.000056
0.000187
0.000239
0.000226
0.000218
0.000245
0.000552
0.000413
0.001297
0.000223
0.000216
0.000230
0.001503
0.000434
0.000266
0.000491
0.000227
0.000208
0.000211
0.000258
0.000258
0.000272
0.000246
0.000279
0.000258
0.000248
0.000275
0.000453
0.000513
0.001466
0.000267
0.000184
0.000056
0.000192
0.000222
0.000326
0.000571
0.001233
0.000275
0.000258
0.000255
0.000248
0.000244
0.000257
0.000265
0.000324
0.000585
0.000312
0.000222
0.000252
0.000267
0.000238
0.000270
0.000264
0.000267
0.000260
0.000259
0.000258
0.000467
0.000427
0.000336
0.000316
0.001471
0.000160
0.000056
0.000193
0.000215
0.000266
0.000448
0.000351
0.000308
0.000299
0.000330
0.000277
0.000264
0.000264
0.000260
0.000238
0.000312
0.000248
0.000333
0.000517
0.000309
0.000318
0.000346
0.000297
0.000478
0.000207
0.000256
0.000209
0.000274
0.000238
0.000291
0.000384
0.000487
0.000287
0.000056
0.000227
0.001354
0.000257
0.000354
0.000466
0.000382
0.000289
0.000375
0.000216
0.000205
0.000263
0.000241
0.000263
0.000273
0.000275
0.000239
0.000279
0.001419
0.000253
0.000220
0.000219
0.000283
0.000255
0.000285
0.000270
0.000273
0.000261
0.000251
0.000290
0.000432
0.000370
0.000057
0.000226
0.000241
0.001438
0.000317
0.000339
0.000212
0.000206
0.000206
0.000227
0.000239
0.000262
0.000267
0.000251
0.000249
0.000270
0.000264
0.000234
0.000275
0.000259
0.000259
0.001430
0.000276
0.000231
0.000325
0.000224
0.000223
0.000250
0.000253
0.000296
0.000488
0.000390
0.000055
0.000193
0.000214
0.000374
0.000296
0.000242
0.000256
0.001537
0.000400
0.000288
0.000205
0.000225
0.000347
0.000321
0.000218
0.000220
0.000251
0.000251
0.000257
0.000269
0.000241
0.000564
0.000484
0.001145
0.000264
0.000207
0.000223
0.000278
0.000243
0.000272
0.000274
0.000416
0.000056
0.000268
0.000320
0.000196
0.000199
0.000250
0.000242
0.000236
0.000230
0.001434
0.000550
0.000385
0.000249
0.000220
0.000206
0.000255
0.000248
0.000251
0.000276
0.000254
0.000309
0.000310
0.000492
0.000441
0.001380
0.000266
0.000220
0.000272
0.000262
0.000281
0.000264
0.000520
0.000056
0.000257
0.000209
0.000250
0.000240
0.000224
0.000230
0.000268
0.000243
0.000275
0.001597
0.000339
0.000242
0.000271
0.000257
0.000489
0.000278
0.000401
0.000459
0.000330
0.000334
0.000447
0.000435
0.001330
0.000234
0.000220
0.000229
0.001796
0.000397
0.000616
0.000315
0.000135
0.000055
0.000193
0.000218
0.000239
0.000235
0.000244
0.000250
0.000379
0.000509
0.000366
0.000523
0.000223
0.000216
0.000200
0.000252
0.000262
0.000263
0.000254
0.000255
0.000246
0.000276
0.000253
0.000412
0.001372
0.000258
0.000230
0.000260
0.001904
0.000378
0.000382
0.000356
0.000178
0.000056
0.000236
0.000217
0.000247
0.001553
0.000406
0.000245
0.000229
0.000266
0.000249
0.000341
0.000369
0.000374
0.000352
0.000307
0.000365
0.000450
0.000308
0.001290
0.000256
0.000215
0.000215
0.000257
0.000381
0.000457
0.000594
0.000416
0.000219
0.000215
0.000259
0.000279
0.000212
0.000056
0.000169
0.000207
0.001470
0.000408
0.000203
0.000211
0.000219
0.000254
0.000237
0.000257
0.000250
0.000271
0.000270
0.000268
0.000253
0.000477
0.000345
0.000364
0.001367
0.000248
0.000242
0.000284
0.000236
0.000271
0.000434
0.000509
0.000361
0.000304
0.000291
0.000252
0.000393
0.000055
0.000192
0.000207
0.000247
0.000264
0.001591
0.000223
0.000256
0.000243
0.000261
0.000253
0.000253
0.000278
0.000243
0.000254
0.000341
0.000582
0.001465
0.000727
0.000231
0.000336
0.000251
0.000205
0.000230
0.000272
0.001768
0.000730
0.000260
0.000226
0.000276
0.000281
0.000214
0.000056
0.000190
0.000206
0.000254
0.000241
0.000246
0.000257
0.000252
0.000245
0.000254
0.000221
0.000287
0.000276
0.000258
0.000257
0.000261
0.000251
0.000266
0.001611
0.000685
0.000415
0.000322
0.000228
0.000209
0.000270
0.000279
0.000276
0.000256
0.000281
0.001479
0.000348
0.000320
0.000056
0.000188
0.000210
0.000231
0.000270
0.000241
0.000245
0.000243
0.000248
0.000254
0.000278
0.000217
0.000463
0.000442
0.000365
0.000211
0.000217
0.000268
0.001467
0.000681
0.000417
0.000326
0.000316
0.000210
0.000229
0.000265
0.000266
0.000251
0.000261
0.001505
0.000435
0.000233
0.000056
0.000178
0.000198
0.000240
0.000250
0.000265
0.000223
0.000248
0.000251
0.000262
0.000261
0.000416
0.000367
0.000306
0.000228
0.000227
0.000246
0.000264
0.000257
0.001651
0.000570
0.000441
0.000354
0.000226
0.000238
0.000248
0.000264
0.000271
0.000275
0.000270
0.001436
0.000303
0.000056
0.000204
0.000218
0.000209
0.000251
0.000257
0.000247
0.000298
0.000348
0.000373
0.000471
0.000353
0.000327
0.000335
0.000230
0.000211
0.000244
0.000272
0.000264
0.001433
0.000845
0.000329
0.000203
0.000458
0.000223
0.000210
0.000250
0.000280
0.000280
0.000245
0.000275
0.000333
0.000056
0.000219
0.000291
0.000211
0.000230
0.000253
0.000255
0.000230
0.000230
0.000262
0.000280
0.000236
0.000225
0.000248
0.000497
0.000440
0.000470
0.000211
0.000268
0.000244
0.000253
0.000255
0.000379
0.001402
0.001080
0.000217
0.000212
0.000260
0.000262
0.000277
0.000243
0.000228
0.000056
0.000192
0.001388
0.000264
0.000202
0.000202
0.000242
0.000253
0.000243
0.000227
0.000267
0.000272
0.000239
0.000237
0.000379
0.000376
0.000499
0.000275
0.000218
0.000248
0.000271
0.000273
0.000233
0.000257
0.000259
0.001414
0.000660
0.000322
0.000433
0.000366
0.000407
0.000227
0.000055
0.000192
0.000215
0.000345
0.001338
0.000215
0.000255
0.000222
0.000250
0.000249
0.000263
0.000270
0.000247
0.000259
0.000379
0.000544
0.000350
0.000198
0.000329
0.000258
0.000219
0.000233
0.000272
0.000236
0.000265
0.000273
0.001536
0.000739
0.000299
0.000281
0.000261
0.000214
0.000056
0.000192
0.000249
0.000439
0.000572
0.001129
0.000244
0.000213
0.000203
0.000226
0.000245
0.000245
0.000255
0.000239
0.000241
0.000248
0.000253
0.000269
0.000234
0.000264
0.000255
0.000261
0.000265
0.000388
0.000266
0.000224
0.000254
0.000252
0.001545
0.000251
0.000205
0.000173
0.000056
0.000174
0.000210
0.000252
0.000339
0.000347
0.000341
0.000404
0.000247
0.001559
0.000252
0.000272
0.000550
0.000290
0.000263
0.000477
0.000234
0.000216
0.000220
0.000266
0.000273
0.000278
0.000268
0.000260
0.000262
0.000260
0.000463
0.000406
0.000330
0.001518
0.000263
0.000161
0.000056
0.000227
0.000200
0.000239
0.000244
0.000247
0.000243
0.000262
0.000318
0.000450
0.002055
0.000206
0.000204
0.000242
0.000263
0.000271
0.000323
0.000259
0.000210
0.000232
0.000557
0.000270
0.000473
0.001484
0.000228
0.000224
0.000511
0.001768
0.000252
0.000262
0.001496
0.000199
0.000056
0.000319
0.000396
0.000484
0.000246
0.000237
0.000232
0.000250
0.000267
0.000274
0.000233
0.000245
0.000317
0.000441
0.000335
0.000433
0.000279
0.000209
0.001568
0.000522
0.001974
0.000315
0.000238
0.000217
0.001563
0.002031
0.000716
0.000272
0.000211
0.000277
0.000435
0.000391
0.000056
0.000201
0.000207
0.000245
0.000257
0.001494
0.001667
0.001082
0.000206
0.000219
0.001587
0.001988
0.000220
0.000324
0.000401
0.000286
0.000458
0.000308
0.000399
0.000254
0.000215
0.000257
0.000249
0.000275
0.001580
0.001293
0.001433
0.000254
0.000242
0.000261
0.000318
0.000353
0.000056
0.000237
0.000214
0.000208
0.000232
0.000232
0.000233
0.000253
0.000255
0.000255
0.000246
0.000256
0.000311
0.000587
0.000365
0.000299
0.000203
0.000233
0.000268
0.000256
0.000270
0.000252
0.001376
0.000481
0.000449
0.002084
0.000250
0.000229
0.000318
0.000465
0.000464
0.000156
0.000057
0.000201
0.000320
0.000475
0.000324
0.000220
0.000198
0.000248
0.000246
0.000248
0.000241
0.000253
0.000260
0.000253
0.001618
0.001423
0.001226
0.000273
0.000229
0.000222
0.000234
0.000280
0.000283
0.000264
0.000241
0.002272
0.000215
0.000220
0.000281
0.000323
0.000305
0.000239
0.000056
0.000194
0.000360
0.000626
0.000314
0.000213
0.000205
0.000215
0.000257
0.001906
0.001430
0.000263
0.000383
0.000389
0.000355
0.000258
0.000215
0.000216
0.000274
0.000260
0.000262
0.000268
0.000249
0.000510
0.000230
0.000244
0.000297
0.000233
0.000268
0.000281
0.000246
0.000224
0.000056
0.000182
0.000230
0.000240
0.000259
0.000231
0.000270
0.001556
0.001490
0.001341
0.000200
0.000204
0.000231
0.000247
0.000266
0.000249
0.000246
0.000251
0.002177
0.000213
0.000238
0.000229
0.000263
0.000263
0.000260
0.000271
0.000250
0.000261
0.000264
0.000276
0.000268
0.000177
0.000057
0.001507
0.000317
0.002385
0.000251
0.000293
0.000299
0.000245
0.000252
0.000271
0.000234
0.000259
0.000247
0.000236
0.000237
0.000265
0.000261
0.000264
0.000269
0.000284
0.000245
0.000257
0.000285
0.000271
0.000274
0.000247
0.000250
0.000255
0.000271
0.000269
0.000265
0.000390
0.000056
0.000195
0.002552
0.000341
0.000199
0.000192
0.000218
0.000249
0.000254
0.000256
0.000276
0.000380
0.000375
0.000340
0.000234
0.000220
0.002223
0.000215
0.000227
0.000274
0.000495
0.000392
0.000296
0.000212
0.000230
0.000264
0.000244
0.000267
0.000276
0.000279
0.001718
0.001180
0.000056
0.000182
0.000207
0.000260
0.000402
0.000388
0.000276
0.000221
0.000220
0.000241
0.000265
0.000256
0.000251
0.000247
0.000234
0.000272
0.000244
0.000407
0.000516
0.000400
0.000246
0.000230
0.000233
0.000277
0.000261
0.000257
0.000245
0.000256
0.000275
0.000255
0.000360
0.000330
0.000056
0.001113
0.000279
0.000284
0.000463
0.000322
0.000205
0.000198
0.000229
0.002223
0.000450
0.000299
0.000386
0.000194
0.000292
0.000330
0.000273
0.000267
0.000246
0.000267
0.000249
0.000248
0.000257
0.000647
0.000522
0.001756
0.001315
0.000813
0.000277
0.000244
0.000241
0.000213
0.000056
0.000287
0.000290
0.000232
0.000233
0.000250
0.000240
0.000241
0.000232
0.000255
0.000252
0.000266
0.000239
0.000247
0.000240
0.000428
0.000498
0.001871
0.001312
0.000438
0.000379
0.000458
0.000279
0.000246
0.000245
0.002221
0.000448
0.000381
0.000237
0.000266
0.000284
0.000216
0.000056
0.000181
0.000226
0.000251
0.000241
0.000245
0.000379
0.000444
0.000362
0.000244
0.000228
0.000216
0.000285
0.000236
0.002093
0.000352
0.000396
0.000228
0.000242
0.000262
0.000261
0.000248
0.002440
0.000364
0.000216
0.000252
0.000257
0.000254
0.000267
0.000276
0.000300
0.000205
0.000056
0.000193
0.000369
0.000590
0.000345
0.000233
0.000212
0.000193
0.000249
0.000264
0.000260
0.002041
0.000379
0.000268
0.000258
0.000200
0.000238
0.000274
0.000243
0.002277
0.000387
0.000217
0.000262
0.000270
0.000263
0.000267
0.000247
0.000267
0.000260
0.000260
0.000261
0.000205
0.000056
0.000211
0.000216
0.000269
0.000194
0.000251
0.000254
0.000238
0.000245
0.000235
0.002180
0.000246
0.000273
0.000214
0.000485
0.000225
0.000209
0.000248
0.000291
0.000254
0.000266
0.002028
0.000249
0.000381
0.000362
0.000488
0.000335
0.000288
0.000257
0.000231
0.000238
0.000214
0.000057
0.000185
0.000214
0.000229
0.000252
0.000251
0.000385
0.000197
0.002349
0.000209
0.000221
0.000223
0.000250
0.000245
0.000239
0.000303
0.002215
0.000512
0.000243
0.000224
0.000241
0.000265
0.000261
0.000281
0.000275
0.000256
0.000255
0.000290
0.000250
0.000276
0.000302
0.000164
0.000056
0.000199
0.003008
0.000252
0.000203
0.000245
0.000244
0.000250
0.000252
0.000453
0.000352
0.002153
0.000250
0.000254
0.000238
0.000279
0.000540
0.000432
0.000301
0.000220
0.000219
0.000223
0.000268
0.000274
0.000256
0.000213
0.000278
0.000269
0.000256
0.000400
0.000638
0.000289
0.000055
0.000199
0.000283
0.000246
0.000222
0.000237
0.000240
0.000252
0.000243
0.001561
0.002121
0.000516
0.000272
0.000391
0.000771
0.000362
0.000208
0.000208
0.000237
0.000271
0.000260
0.000272
0.000232
0.000250
0.000277
0.001815
0.001453
0.000297
0.000271
0.000305
0.000294
0.000421
0.000056
0.001941
0.000230
0.000224
0.000203
0.000272
0.000390
0.000503
0.000253
0.000330
0.000221
0.000224
0.000213
0.000246
0.000249
0.000276
0.000251
0.000261
0.000253
0.001915
0.000215
0.000210
0.000239
0.000268
0.000282
0.000272
0.000253
0.001549
0.000342
0.000231
0.000207
0.000169
0.000056
0.000186
0.000210
0.000233
0.000244
0.000256
0.000239
0.000266
0.000409
0.000390
0.000377
0.000199
0.000228
0.000332
0.000324
0.000381
0.000325
0.000218
0.000214
0.000256
0.000387
0.000525
0.000424
0.000250
0.000224
0.000231
0.000251
0.000256
0.000261
0.000280
0.000276
0.000207
0.000057
0.001452
0.000381
0.000249
0.001986
0.000238
0.000457
0.000366
0.000387
0.000203
0.000209
0.000257
0.000246
0.000245
0.000249
0.000271
0.000313
0.000421
0.000262
0.000466
0.000301
0.000386
0.000228
0.000244
0.000262
0.000338
0.000228
0.000231
0.000270
0.000329
0.000489
0.001440
0.000057
0.000189
0.000207
0.002100
0.000242
0.000334
0.000260
0.000256
0.000256
0.000262
0.000254
0.000222
0.000250
0.000255
0.000258
0.000259
0.000373
0.000700
0.001730
0.000270
0.000237
0.000262
0.000257
0.000355
0.000502
0.001544
0.000258
0.000366
0.002012
0.000273
0.000228
0.000163
0.000056
0.000189
0.000215
0.000217
0.000262
0.000216
0.000262
0.000237
0.000289
0.000332
0.000312
0.000381
0.000366
0.000335
0.000285
0.000212
0.000261
0.000261
0.000247
0.000249
0.000272
0.000273
0.000329
0.000255
0.000245
0.000269
0.001588
0.000292
0.000405
0.001976
0.000295
0.000148
0.000056
0.000210
0.000217
0.000230
0.000244
0.000462
0.000233
0.000253
0.000349
0.000366
0.000376
0.000229
0.000213
0.000251
0.000269
0.000281
0.000329
0.000439
0.000414
0.000268
0.000351
0.000614
0.000416
0.001560
0.000257
0.000233
0.002022
0.000357
0.000224
0.000217
0.000260
0.000206
0.000056
0.000216
0.000199
0.000230
0.000245
0.000249
0.000258
0.000258
0.000271
0.000245
0.000265
0.001944
0.000229
0.000394
0.000330
0.000460
0.000356
0.001517
0.000335
0.000202
0.000311
0.002041
0.000633
0.000248
0.000221
0.000227
0.000260
0.000518
0.000225
0.000236
0.000279
0.000214
0.000056
0.000289
0.000351
0.000386
0.000277
0.000204
0.000207
0.000252
0.000247
0.000281
0.000289
0.000231
0.000235
0.000261
0.000275
0.000314
0.000485
0.001326
0.000250
0.000442
0.001841
0.000347
0.000257
0.000215
0.000259
0.000237
0.000283
0.000270
0.000258
0.000246
0.000264
0.000223
0.000075
0.000311
0.000301
0.002077
0.000208
0.000262
0.000226
0.000207
0.000298
0.000718
0.001240
0.000328
0.000372
0.000334
0.001986
0.000241
0.000228
0.000262
0.000271
0.000264
0.000237
0.000285
0.000291
0.000260
0.000364
0.000492
0.000384
0.000340
0.002176
0.000552
0.000464
0.000392
0.000056
0.000204
0.000217
0.000215
0.002029
0.000199
0.000227
0.000227
0.000230
0.000233
0.000252
0.000248
0.000263
0.000248
0.000329
0.000502
0.000353
0.001267
0.000237
0.000272
0.000265
0.000233
0.000246
0.000263
0.000264
0.000410
0.000379
0.000472
0.001592
0.000342
0.000212
0.000170
0.000056
0.000196
0.000207
0.000253
0.000206
0.000249
0.000256
0.000251
0.000249
0.000266
0.000369
0.000356
0.001489
0.000220
0.000189
0.000222
0.000267
0.000254
0.000256
0.000306
0.000492
0.000386
0.000475
0.000205
0.001567
0.000254
0.000244
0.000276
0.000285
0.000264
0.000267
0.000207
0.000057
0.000198
0.000206
0.000259
0.000266
0.000251
0.000246
0.000237
0.000237
0.000258
0.000239
0.000253
0.000251
0.000263
0.000248
0.001609
0.000220
0.000226
0.000273
0.000348
0.000319
0.000366
0.000256
0.000226
0.000240
0.000239
0.000281
0.001458
0.000295
0.000217
0.000221
0.000165
0.000056
0.000191
0.000228
0.000238
0.000268
0.000280
0.000211
0.000240
0.000276
0.000213
0.000263
0.000240
0.000266
0.000222
0.000280
0.000402
0.000334
0.000332
0.001576
0.000333
0.000218
0.000214
0.000220
0.000262
0.000307
0.000443
0.000445
0.000401
0.000239
0.000219
0.001593
0.000194
0.000056
0.000285
0.000411
0.000312
0.000313
0.000192
0.000223
0.000228
0.000267
0.000258
0.000243
0.000239
0.000241
0.001461
0.000330
0.000309
0.000221
0.000214
0.000258
0.000262
0.000264
0.000261
0.000240
0.000254
0.000276
0.000263
0.000435
0.000454
0.000365
0.000260
0.000197
0.000200
0.000055
0.000212
0.000319
0.000399
0.000335
0.000372
0.000231
0.000224
0.000240
0.000257
0.000250
0.000252
0.000232
0.000243
0.000255
0.001325
0.000277
0.000235
0.000206
0.000255
0.000269
0.000242
0.000258
0.000256
0.000262
0.000259
0.000255
0.000265
0.000722
0.000514
0.000211
0.000172
0.000057
0.000181
0.001531
0.000253
0.000468
0.000414
0.000311
0.000204
0.000250
0.000246
0.000251
0.000253
0.000253
0.000272
0.000270
0.000271
0.001518
0.000260
0.000275
0.000265
0.000261
0.000253
0.000255
0.000269
0.000264
0.000251
0.000264
0.000446
0.000415
0.000358
0.000228
0.000155
0.000056
0.000204
0.000217
0.000248
0.001721
0.000399
0.000324
0.000201
0.000208
0.000233
0.000273
0.000271
0.000261
0.000252
0.000256
0.000237
0.000265
0.000397
0.001408
0.000214
0.000226
0.001536
0.000424
0.000440
0.000411
0.000290
0.000238
0.000250
0.000460
0.000265
0.000238
0.000204
0.000056
0.000285
0.000217
0.000214
0.000242
0.000242
0.000260
0.000239
0.000254
0.000258
0.000240
0.000257
0.000249
0.000336
0.000525
0.001620
0.001516
0.000361
0.000528
0.000312
0.000270
0.000204
0.000251
0.000253
0.000253
0.000254
0.000267
0.000268
0.000266
0.001607
0.000311
0.000134
0.000056
0.000205
0.000341
0.000348
0.000334
0.000251
0.000208
0.000218
0.000397
0.000428
0.001355
0.000352
0.001546
0.000353
0.000453
0.000486
0.000269
0.000341
0.000334
0.000345
0.000275
0.000238
0.000345
0.001561
0.000544
0.000241
0.000223
0.000288
0.000239
0.000246
0.000268
0.000219
0.000056
0.000179
0.000231
0.000252
0.000258
0.000235
0.001651
0.000969
0.000901
0.000234
0.000228
0.000254
0.000266
0.000246
0.000264
0.000260
0.000251
0.000250
0.000260
0.000272
0.000291
0.001491
0.000273
0.000253
0.000219
0.000231
0.000242
0.000256
0.000280
0.000290
0.000254
0.000258
0.000056
0.000199
0.000200
0.001531
0.000990
0.000299
0.000359
0.000208
0.000205
0.000252
0.000250
0.000244
0.000262
0.000242
0.002056
0.000461
0.000207
0.000218
0.000239
0.000261
0.000255
0.000207
