0.000080
0.018714
0.002876
0.000292
0.000236
0.000237
0.000301
0.000255
0.000322
0.000297
0.000242
0.000379
0.000521
0.000494
0.000358
0.000325
0.000272
0.000409
0.000376
0.000409
0.000307
0.001867
0.000481
0.000444
0.000265
0.000294
0.000314
0.000411
0.000414
0.000353
0.000499
0.000292
0.000057
0.000199
0.000237
0.000266
0.000264
0.000271
0.000264
0.000265
0.000259
0.000274
0.000280
0.000462
0.000455
0.000294
0.000282
0.000396
0.000381
0.000329
0.000249
0.000222
0.001728
0.000294
0.000219
0.000506
0.000251
0.000240
0.000264
0.000279
0.000306
0.000268
0.000305
0.000417
0.000056
0.000240
0.000232
0.000265
0.000262
0.000250
0.000247
0.000295
0.000237
0.000266
0.001672
0.000236
0.000243
0.000262
0.000263
0.000271
0.000252
0.000272
0.000247
0.000348
0.001796
0.000270
0.000254
0.000451
0.000495
0.000360
0.000240
0.000245
0.000513
0.000485
0.000775
0.000162
0.000057
0.000228
0.000221
0.000256
0.000237
0.000323
0.000245
0.000303
0.000531
0.000462
0.000268
0.000206
0.000239
0.000213
0.000258
0.000261
0.000252
0.000242
0.000274
0.000292
0.000315
0.001752
0.000252
0.000252
0.000453
0.000418
0.000540
0.000700
0.000440
0.000338
0.000267
0.000219
0.000056
0.000229
0.000218
0.000259
0.000253
0.000247
0.000258
0.000250
0.000531
0.001421
0.000239
0.000246
0.000236
0.000246
0.000249
0.000267
0.000286
0.000297
0.000760
0.001408
0.000288
0.000248
0.000427
0.000253
0.000238
0.000257
0.000248
0.000270
0.000266
0.000268
0.000265
0.000213
0.000056
0.000197
0.000222
0.000230
0.000252
0.000251
0.000246
0.000241
0.000261
0.000233
0.000256
0.001697
0.000241
0.000235
0.000224
0.000224
0.000258
0.000234
0.000273
0.000233
0.000255
0.000260
0.001749
0.000241
0.000245
0.000480
0.000244
0.000251
0.000218
0.000274
0.000247
0.000222
0.000056
0.000211
0.000197
0.000248
0.000247
0.000237
0.000248
0.000262
0.000247
0.000250
0.000243
0.000287
0.000241
0.000257
0.000273
0.001634
0.000273
0.000289
0.000234
0.000241
0.000279
0.000285
0.000228
0.000259
0.000247
0.000274
0.001851
0.000405
0.000330
0.000266
0.000274
0.000213
0.000057
0.000228
0.000200
0.000238
0.000277
0.000256
0.000241
0.000303
0.000392
0.000489
0.000349
0.000219
0.000234
0.000253
0.000251
0.001643
0.000508
0.000318
0.000417
0.000279
0.000235
0.000244
0.000273
0.000274
0.001848
0.000443
0.000485
0.000224
0.000239
0.000225
0.000255
0.000209
0.000056
0.000192
0.000224
0.000234
0.000255
0.000350
0.000544
0.000300
0.000277
0.000201
0.000232
0.000265
0.000237
0.000280
0.001663
0.000554
0.000262
0.000215
0.000244
0.000267
0.000282
0.000254
0.000259
0.000275
0.001901
0.000293
0.000400
0.000243
0.000250
0.000317
0.000401
0.000329
0.000056
0.000211
0.000368
0.000396
0.000302
0.000221
0.000208
0.000243
0.000259
0.000264
0.000227
0.000218
0.000250
0.001621
0.000320
0.000325
0.000218
0.000219
0.000248
0.000252
0.000280
0.000276
0.000342
0.001778
0.000353
0.000226
0.000495
0.000226
0.000229
0.000252
0.000265
0.000285
0.000055
0.000288
0.000559
0.000668
0.000200
0.000213
0.000262
0.000231
0.000219
0.000269
0.000249
0.000251
0.001694
0.000287
0.000424
0.000390
0.000214
0.000216
0.000229
0.000244
0.000255
0.000259
0.001861
0.000241
0.000231
0.002272
0.000413
0.000256
0.000270
0.000259
0.000262
0.000214
0.000056
0.000205
0.000215
0.000243
0.000246
0.000254
0.001687
0.000234
0.000193
0.000244
0.000256
0.000245
0.000248
0.000266
0.000239
0.000312
0.000385
0.000626
0.000258
0.000221
0.000261
0.000269
0.000258
0.000232
0.000500
0.000444
0.000254
0.000387
0.000529
0.000428
0.000220
0.000206
0.000055
0.000206
0.000214
0.000253
0.000253
0.000241
0.000234
0.000259
0.000502
0.000399
0.001605
0.000257
0.000232
0.000234
0.000254
0.000256
0.000304
0.000422
0.000502
0.000380
0.000226
0.000213
0.000287
0.000300
0.000286
0.000281
0.000400
0.000430
0.000512
0.000484
0.000491
0.000139
0.000056
0.000210
0.000247
0.000225
0.000229
0.000233
0.000249
0.000242
0.000251
0.000247
0.000372
0.000334
0.001558
0.000281
0.000207
0.000197
0.000226
0.000264
0.000254
0.000242
0.000260
0.000279
0.000494
0.000348
0.000352
0.000222
0.000227
0.000263
0.000262
0.000271
0.000281
0.000410
0.000055
0.000190
0.000214
0.000228
0.000305
0.000483
0.000437
0.000255
0.000242
0.000237
0.000263
0.000240
0.000243
0.000286
0.000262
0.000253
0.000529
0.000423
0.001574
0.000266
0.000248
0.000259
0.000263
0.000259
0.000247
0.000264
0.000490
0.000439
0.000386
0.000363
0.000230
0.000220
0.000055
0.000215
0.000223
0.000427
0.000216
0.000260
0.000240
0.000278
0.000602
0.000308
0.000324
0.000232
0.000263
0.000273
0.000244
0.000588
0.000293
0.000238
0.000224
0.000439
0.001655
0.000244
0.000226
0.000320
0.000408
0.000275
0.000297
0.000256
0.000438
0.000443
0.000426
0.000250
0.000056
0.000191
0.000214
0.000232
0.000241
0.000481
0.000257
0.000288
0.000218
0.000410
0.000521
0.000415
0.000208
0.000204
0.000227
0.000248
0.000269
0.000257
0.000261
0.000217
0.000391
0.000265
0.000602
0.001585
0.000246
0.000235
0.000252
0.000314
0.000364
0.000593
0.000566
0.000390
0.000056
0.000245
0.000319
0.000318
0.000425
0.000312
0.000233
0.000248
0.000298
0.000462
0.000442
0.000324
0.000209
0.000211
0.000260
0.000269
0.000243
0.000243
0.000278
0.000265
0.000261
0.000269
0.000435
0.001821
0.000234
0.000339
0.000426
0.000376
0.000238
0.000425
0.000393
0.000429
0.000056
0.000230
0.000380
0.000282
0.000214
0.000229
0.000211
0.000468
0.000207
0.000229
0.000487
0.000260
0.000487
0.000239
0.000231
0.000258
0.000294
0.000368
0.000433
0.000302
0.000229
0.000211
0.000321
0.000673
0.001754
0.000222
0.000387
0.000326
0.000229
0.000299
0.000415
0.000327
0.000055
0.000215
0.000198
0.000245
0.000243
0.000250
0.000247
0.000244
0.000354
0.000435
0.000300
0.000517
0.000320
0.000317
0.000196
0.000530
0.000265
0.000272
0.000264
0.000243
0.000343
0.000227
0.000238
0.000272
0.000407
0.000563
0.001647
0.000231
0.000232
0.000237
0.000262
0.000212
0.000072
0.000268
0.000454
0.000381
0.000222
0.000222
0.000221
0.000264
0.000235
0.000254
0.000260
0.000221
0.000482
0.000320
0.000454
0.000373
0.000326
0.000212
0.000239
0.000366
0.000354
0.000362
0.000377
0.000380
0.000372
0.000244
0.000225
0.000250
0.000268
0.001776
0.000281
0.000203
0.000056
0.000189
0.000205
0.000253
0.000270
0.000362
0.000538
0.000331
0.000223
0.000245
0.000267
0.000241
0.000249
0.000524
0.000447
0.000492
0.000285
0.000282
0.000245
0.000442
0.000495
0.000356
0.000437
0.000491
0.000406
0.000242
0.000257
0.000225
0.000225
0.000262
0.001769
0.000375
0.000055
0.000217
0.000330
0.000213
0.000223
0.000248
0.000250
0.000315
0.000425
0.000424
0.000303
0.000302
0.000288
0.000337
0.000720
0.000285
0.000201
0.000230
0.000239
0.000252
0.000263
0.000259
0.000278
0.000237
0.000267
0.000313
0.000365
0.000470
0.000368
0.000208
0.000219
0.000193
0.000055
0.000463
0.000339
0.000360
0.000284
0.000205
0.000235
0.000244
0.000270
0.000232
0.000220
0.000253
0.000266
0.000301
0.000371
0.000582
0.000400
0.000322
0.000384
0.000363
0.000390
0.000254
0.000215
0.000223
0.000257
0.001809
0.000234
0.001771
0.000912
0.000352
0.000373
0.000139
0.000056
0.000209
0.000225
0.000234
0.000235
0.000252
0.000257
0.000245
0.000251
0.000261
0.000294
0.000395
0.000431
0.000535
0.000280
0.000210
0.000232
0.000264
0.000291
0.000206
0.000230
0.000260
0.000238
0.001798
0.000258
0.000256
0.000252
0.000267
0.000273
0.001860
0.000547
0.000260
0.000056
0.000232
0.000200
0.000221
0.000237
0.000254
0.000247
0.000246
0.000254
0.000255
0.000426
0.000518
0.000296
0.000400
0.000235
0.000232
0.000285
0.000383
0.000387
0.000373
0.000253
0.001805
0.000237
0.000228
0.000218
0.000262
0.000269
0.000244
0.000267
0.000255
0.000386
0.000393
0.000056
0.000218
0.000233
0.000197
0.000257
0.000257
0.000233
0.000265
0.000245
0.000241
0.000259
0.000241
0.000265
0.000433
0.000331
0.000468
0.000211
0.000480
0.000209
0.000237
0.000244
0.000256
0.000249
0.000281
0.000259
0.000272
0.001790
0.000257
0.000251
0.000250
0.000235
0.000224
0.000055
0.000247
0.000377
0.000247
0.000190
0.000226
0.000256
0.000223
0.000258
0.000243
0.000234
0.000221
0.000257
0.000263
0.000290
0.000516
0.000287
0.000397
0.000213
0.000211
0.000247
0.000267
0.000257
0.000247
0.000262
0.000254
0.000259
0.000295
0.001720
0.000230
0.000212
0.000203
0.000057
0.000192
0.000205
0.000262
0.000246
0.000387
0.000472
0.000287
0.000305
0.000216
0.000240
0.000252
0.000240
0.000273
0.000237
0.000256
0.000257
0.000248
0.000253
0.000248
0.000266
0.000267
0.000265
0.000268
0.000230
0.000234
0.000284
0.000273
0.000262
0.000258
0.000255
0.000215
0.000055
0.000183
0.000238
0.000226
0.000255
0.000243
0.000252
0.000233
0.000261
0.000363
0.000203
0.000200
0.000247
0.000247
0.000253
0.000260
0.000275
0.000248
0.000253
0.000363
0.000226
0.000222
0.000290
0.000281
0.000249
0.000274
0.000283
0.000265
0.000257
0.000271
0.000448
0.000711
0.000056
0.000228
0.000300
0.000217
0.000208
0.000206
0.000260
0.000234
0.000255
0.000247
0.000245
0.000265
0.000261
0.000516
0.001822
0.000262
0.000216
0.000512
0.000205
0.000224
0.000415
0.000480
0.000368
0.000239
0.000263
0.000258
0.000256
0.000277
0.000258
0.000302
0.000281
0.000188
0.000055
0.000399
0.000332
0.000377
0.000319
0.000209
0.000229
0.000252
0.000249
0.000232
0.000242
0.000254
0.000258
0.000234
0.000294
0.000357
0.000498
0.000351
0.001801
0.000260
0.000235
0.000348
0.000443
0.000394
0.000318
0.000373
0.000271
0.000300
0.000238
0.000229
0.000241
0.000217
0.000056
0.000197
0.000228
0.000224
0.000284
0.000356
0.000424
0.000366
0.000250
0.000252
0.000225
0.000241
0.000266
0.000269
0.000262
0.000252
0.000275
0.000306
0.000479
0.000371
0.000405
0.000238
0.001800
0.000297
0.000552
0.000516
0.000407
0.000281
0.000248
0.000234
0.000268
0.000491
0.000055
0.000206
0.000270
0.000200
0.000288
0.000390
0.000452
0.000444
0.000224
0.000204
0.000325
0.000225
0.000236
0.000253
0.000304
0.000358
0.000215
0.000226
0.000394
0.000416
0.000367
0.000546
0.001777
0.000260
0.000390
0.000542
0.000361
0.000232
0.000379
0.000241
0.000213
0.000230
0.000055
0.000225
0.000339
0.000343
0.000311
0.000477
0.000220
0.000369
0.000207
0.000225
0.000265
0.000275
0.000235
0.000235
0.000252
0.000260
0.000257
0.000304
0.000373
0.000517
0.000387
0.000296
0.000218
0.000262
0.001786
0.000427
0.000423
0.000693
0.000270
0.000246
0.000293
0.000180
0.000055
0.000177
0.000226
0.000317
0.000257
0.000280
0.000367
0.000396
0.000329
0.000306
0.000528
0.000209
0.000220
0.000235
0.000275
0.000279
0.000272
0.000226
0.000390
0.000482
0.000343
0.000288
0.000243
0.000237
0.000256
0.000268
0.000263
0.000232
0.000260
0.000260
0.000347
0.000231
0.000056
0.000289
0.000291
0.000244
0.000221
0.000245
0.000265
0.000243
0.000359
0.000218
0.000196
0.000267
0.000333
0.000422
0.000373
0.000375
0.000315
0.000214
0.000226
0.000252
0.000262
0.000285
0.000276
0.000239
0.000249
0.000273
0.000339
0.000428
0.000391
0.000353
0.000221
0.000163
0.000055
0.000180
0.000212
0.000265
0.000250
0.000235
0.000248
0.000262
0.000258
0.000496
0.000240
0.000222
0.000257
0.000256
0.000253
0.000265
0.000273
0.000273
0.000351
0.000255
0.000223
0.000236
0.000268
0.000264
0.000259
0.000280
0.000260
0.000275
0.000254
0.000247
0.000512
0.000160
0.000056
0.000176
0.000214
0.000248
0.000264
0.000245
0.000228
0.000297
0.000457
0.000279
0.000219
0.000248
0.000254
0.000242
0.000293
0.000517
0.001671
0.000243
0.000247
0.000315
0.000380
0.000411
0.000347
0.000379
0.000351
0.000436
0.000345
0.000231
0.000269
0.000266
0.000291
0.001401
0.000056
0.000377
0.000311
0.000313
0.000208
0.000196
0.000233
0.000237
0.000250
0.000253
0.000255
0.000256
0.000250
0.000256
0.000353
0.000500
0.001683
0.000200
0.000228
0.000211
0.000264
0.000251
0.000246
0.000403
0.000394
0.000289
0.000305
0.000255
0.000253
0.000271
0.000263
0.000198
0.000057
0.001214
0.000558
0.000323
0.000305
0.000198
0.000214
0.000199
0.000227
0.000475
0.000249
0.000231
0.000246
0.000347
0.000473
0.000450
0.000326
0.000298
0.000244
0.000357
0.000345
0.000235
0.000236
0.000268
0.000243
0.000265
0.000579
0.000546
0.000275
0.000251
0.000272
0.000183
0.000056
0.000226
0.000202
0.000225
0.000268
0.001407
0.000371
0.000199
0.000241
0.000249
0.000246
0.000255
0.000248
0.000240
0.000262
0.000283
0.000254
0.000578
0.000542
0.000268
0.001804
0.000255
0.000305
0.000317
0.000354
0.000540
0.000409
0.000230
0.000236
0.000260
0.000269
0.000208
0.000056
0.000203
0.000256
0.000213
0.001321
0.000338
0.000206
0.000246
0.000210
0.000237
0.000240
0.000238
0.000251
0.000279
0.000249
0.000267
0.000292
0.000632
0.000274
0.000345
0.000214
0.000243
0.000275
0.000255
0.000238
0.000347
0.000229
0.000215
0.000278
0.000269
0.000493
0.000452
0.000056
0.000208
0.000230
0.000231
0.000265
0.000259
0.000254
0.000234
0.000258
0.000270
0.000250
0.001439
0.000248
0.000216
0.000256
0.000250
0.000235
0.000268
0.000256
0.000259
0.000273
0.000295
0.000448
0.000493
0.000377
0.000222
0.000263
0.001843
0.000219
0.000280
0.000314
0.000447
0.000056
0.000266
0.000426
0.000458
0.000507
0.000520
0.000587
0.001433
0.000415
0.000545
0.000644
0.000572
0.000773
0.000444
0.000590
0.000584
0.001714
0.000493
0.000421
0.000397
0.000331
0.000230
0.000289
0.000285
0.000270
0.000273
0.000273
0.000316
0.000274
0.000247
0.000297
0.001314
0.000055
0.000232
0.000250
0.000219
0.000232
0.000245
0.000246
0.000241
0.000230
0.000264
0.000279
0.000235
0.000275
0.000221
0.000263
0.000287
0.000236
0.001841
0.000258
0.000266
0.000246
0.000262
0.000257
0.000266
0.000280
0.000428
0.000405
0.000327
0.000243
0.000264
0.000288
0.000167
0.000055
0.000215
0.001381
0.000266
0.000266
0.000261
0.000228
0.000256
0.000251
0.000243
0.000245
0.000245
0.000253
0.000247
0.000432
0.000302
0.000350
0.000260
0.000281
0.001914
0.000275
0.000243
0.000254
0.000260
0.000262
0.000271
0.000257
0.000277
0.000248
0.000254
0.000307
0.000236
0.000055
0.000184
0.000227
0.000255
0.001427
0.000258
0.000270
0.000223
0.000219
0.000234
0.000260
0.000256
0.000252
0.000241
0.000249
0.000297
0.000237
0.000250
0.000256
0.000275
0.000263
0.000250
0.001861
0.000255
0.001773
0.000244
0.000249
0.000257
0.000226
0.000262
0.000294
0.000199
0.000055
0.000207
0.000271
0.001339
0.000218
0.000287
0.000215
0.000213
0.000245
0.000250
0.000248
0.000248
0.000252
0.000253
0.000260
0.000257
0.000263
0.000258
0.000280
0.000294
0.000245
0.001871
0.000284
0.001786
0.000277
0.000255
0.000242
0.000263
0.000258
0.000263
0.000259
0.000188
0.000075
0.001424
0.000230
0.000239
0.000225
0.000219
0.000229
0.000272
0.000360
0.000251
0.000255
0.000275
0.000240
0.000247
0.000361
0.000473
0.000252
0.000262
0.000269
0.000234
0.000225
0.000261
0.000320
0.000256
0.000268
0.000259
0.000282
0.000248
0.000333
0.000725
0.000354
0.000180
0.000055
0.000213
0.000285
0.000269
0.000312
0.000376
0.000254
0.001646
0.000304
0.000285
0.000250
0.000269
0.000303
0.000262
0.000264
0.000312
0.000296
0.000380
0.000480
0.000392
0.000280
0.000316
0.000278
0.000267
0.000269
0.000321
0.000286
0.000242
0.000260
0.000213
0.000282
0.000463
0.000056
0.000301
0.000377
0.000267
0.000264
0.000259
0.000218
0.000229
0.000242
0.000264
0.000264
0.001498
0.000261
0.000204
0.000242
0.000250
0.000283
0.000262
0.000256
0.000260
0.000262
0.000265
0.000323
0.000636
0.000333
0.000226
0.000287
0.000268
0.000239
0.000234
0.000248
0.000245
0.000055
0.000198
0.000199
0.000372
0.000352
0.000396
0.000284
0.000208
0.000238
0.000254
0.000254
0.000242
0.000244
0.000256
0.000270
0.000243
0.000235
0.000383
0.001293
0.000224
0.000244
0.000221
0.000359
0.000250
0.000500
0.000218
0.000236
0.000615
0.000381
0.000393
0.000230
0.000410
0.000057
0.000183
0.000227
0.000265
0.000263
0.000311
0.000204
0.000421
0.000381
0.000425
0.000308
0.000369
0.000401
0.000386
0.000356
0.000244
0.000206
0.000223
0.000243
0.000437
0.000503
0.001178
0.000247
0.000256
0.000273
0.000239
0.000232
0.000259
0.000343
0.000403
0.000491
0.000245
0.000057
0.000199
0.000209
0.000251
0.000241
0.000243
0.000250
0.000236
0.000260
0.000252
0.000410
0.000457
0.000421
0.000225
0.000203
0.000224
0.000266
0.000238
0.000268
0.000262
0.000534
0.000216
0.000209
0.000415
0.000342
0.000378
0.000236
0.000239
0.000270
0.000257
0.000282
0.000231
0.000056
0.000294
0.000297
0.000320
0.000384
0.000464
0.000341
0.000235
0.000269
0.000222
0.000265
0.000262
0.000259
0.000237
0.000253
0.000252
0.000223
0.000271
0.000344
0.000570
0.000348
0.000213
0.000257
0.000224
0.000236
0.000267
0.000271
0.000275
0.000270
0.000267
0.000270
0.000406
0.000055
0.000231
0.000371
0.000210
0.000225
0.000254
0.000238
0.000259
0.000248
0.000255
0.000261
0.000256
0.000242
0.000274
0.000632
0.000367
0.000326
0.000193
0.000213
0.000230
0.000289
0.000258
0.000237
0.000269
0.000264
0.000270
0.000280
0.000493
0.000539
0.000510
0.000216
0.000140
0.000055
0.000368
0.000213
0.000207
0.000236
0.000253
0.000244
0.000243
0.000244
0.000254
0.000261
0.000231
0.000238
0.000262
0.000233
0.000240
0.000262
0.000255
0.000257
0.000281
0.000270
0.000257
0.000254
0.000270
0.000258
0.000272
0.000269
0.000234
0.000292
0.000247
0.000272
0.000224
0.000056
0.000176
0.000221
0.000241
0.000252
0.000235
0.000236
0.000267
0.000241
0.000261
0.000275
0.000239
0.000226
0.000263
0.000401
0.000234
0.000286
0.000261
0.000268
0.000252
0.000283
0.000271
0.000237
0.000250
0.000249
0.000262
0.000282
0.000278
0.000226
0.000273
0.000256
0.000223
0.000055
0.000256
0.000376
0.000349
0.000281
0.000325
0.000213
0.000204
0.000252
0.000247
0.000230
0.000239
0.000269
0.000256
0.000225
0.000259
0.000257
0.000267
0.000272
0.000251
0.000255
0.000281
0.000265
0.000274
0.000255
0.000281
0.000270
0.000230
0.000301
0.000234
0.000263
0.000211
0.000055
0.000172
0.000220
0.000247
0.000264
0.000250
0.000450
0.000221
0.000253
0.000274
0.000426
0.000508
0.000333
0.000206
0.000218
0.000266
0.000270
0.000240
0.000262
0.000267
0.000266
0.000263
0.000270
0.000258
0.000248
0.000606
0.000489
0.000245
0.000274
0.000274
0.000256
0.000207
0.000055
0.000208
0.000204
0.000242
0.000255
0.000278
0.000765
0.000243
0.000366
0.000245
0.000224
0.000259
0.000245
0.000268
0.000240
0.000272
0.000257
0.000259
0.000258
0.000624
0.000399
0.000317
0.000209
0.000255
0.000284
0.000284
0.000263
0.000258
0.000265
0.000255
0.000341
0.000374
0.000055
0.000243
0.000247
0.000204
0.000232
0.000254
0.000258
0.000233
0.000246
0.000240
0.000257
0.000245
0.000278
0.000235
0.000362
0.000574
0.000451
0.000218
0.000234
0.000259
0.000252
0.000259
0.000271
0.000474
0.000257
0.000249
0.000628
0.000446
0.000410
0.000278
0.000253
0.000182
0.000055
0.000198
0.000208
0.000241
0.000240
0.000252
0.000264
0.000375
0.000362
0.000692
0.000317
0.000250
0.000231
0.000275
0.000278
0.000270
0.000237
0.000239
0.000245
0.000257
0.000308
0.000485
0.000510
0.000433
0.000289
0.000441
0.000341
0.000483
0.000218
0.000236
0.000332
0.000486
0.000056
0.000269
0.000216
0.000479
0.000203
0.000231
0.000227
0.000250
0.000257
0.000236
0.000244
0.000281
0.000386
0.000396
0.000351
0.000219
0.000218
0.000270
0.000234
0.000274
0.000273
0.000270
0.000261
0.000249
0.000274
0.000373
0.000451
0.000451
0.000254
0.000244
0.000275
0.000214
0.000055
0.000201
0.000242
0.000233
0.000242
0.000251
0.000245
0.000417
0.000382
0.000460
0.000257
0.000345
0.000241
0.000225
0.000271
0.000257
0.000236
0.000256
0.000264
0.000272
0.000448
0.000537
0.000252
0.000449
0.000354
0.000395
0.000390
0.000376
0.000251
0.000219
0.000265
0.000484
0.000056
0.000211
0.000251
0.000215
0.000256
0.000253
0.000259
0.000241
0.000254
0.000249
0.000266
0.000236
0.000320
0.000508
0.000373
0.000349
0.000248
0.000247
0.000261
0.000268
0.000235
0.000249
0.000251
0.000278
0.000268
0.000277
0.000315
0.000518
0.000459
0.000242
0.000280
0.000211
0.000055
0.000213
0.000216
0.000265
0.000255
0.000239
0.000349
0.000524
0.000465
0.000365
0.000661
0.000291
0.000223
0.000207
0.000269
0.000238
0.000268
0.000288
0.000270
0.000590
0.000464
0.001485
0.000243
0.000260
0.000259
0.000301
0.000225
0.000316
0.000515
0.000376
0.000273
0.000167
0.000055
0.000203
0.000207
0.000241
0.000252
0.000232
0.000256
0.000268
0.000270
0.000240
0.000359
0.000373
0.000346
0.000291
0.000390
0.000378
0.000323
0.000224
0.000213
0.000247
0.000259
0.000241
0.000251
0.000277
0.000265
0.000337
0.000529
0.000380
0.000255
0.000218
0.000273
0.000200
0.000055
0.000220
0.000221
0.000256
0.000257
0.000251
0.000226
0.000457
0.000253
0.000215
0.000254
0.000239
0.000262
0.000252
0.000259
0.000246
0.000270
0.000261
0.000263
0.000280
0.000247
0.000257
0.000304
0.000281
0.000253
0.000258
0.000276
0.000267
0.000277
0.000257
0.000269
0.000189
0.000055
0.000219
0.000222
0.000284
0.000518
0.000345
0.000227
0.000225
0.000241
0.000254
0.000250
0.000247
0.000249
0.000272
0.000256
0.000245
0.000242
0.000247
0.000262
0.000336
0.000292
0.000411
0.000425
0.000229
0.000269
0.000259
0.000258
0.000268
0.000253
0.000267
0.000278
0.000216
0.000055
0.000379
0.000447
0.000346
0.000221
0.000246
0.000253
0.000475
0.000208
0.000193
0.000245
0.000292
0.000327
0.000364
0.000474
0.001737
0.000263
0.000251
0.000241
0.000272
0.000251
0.000348
0.000424
0.000603
0.000331
0.000237
0.000244
0.000271
0.000424
0.000277
0.000284
0.000178
0.000055
0.000248
0.000382
0.000273
0.000310
0.000516
0.000201
0.000236
0.000247
0.000255
0.000241
0.000255
0.000251
0.000259
0.000340
0.000414
0.000469
0.000232
0.000223
0.000256
0.000265
0.000257
0.000329
0.000246
0.000256
0.000278
0.000441
0.000511
0.000444
0.000443
0.000216
0.000214
0.000055
0.000188
0.000208
0.000251
0.000223
0.000252
0.000249
0.000271
0.000264
0.000345
0.000447
0.000492
0.000259
0.000212
0.000226
0.000261
0.000268
0.000334
0.000227
0.000274
0.000267
0.000250
0.000295
0.000505
0.000377
0.000240
0.000275
0.000259
0.000512
0.000399
0.000270
0.000173
0.000055
0.000198
0.000234
0.000321
0.000446
0.000351
0.000236
0.000215
0.000248
0.000271
0.000253
0.000264
0.000260
0.000221
0.000256
0.000256
0.000289
0.000407
0.000356
0.000315
0.000357
0.000457
0.000230
0.000269
0.000286
0.000307
0.000277
0.000266
0.000252
0.000476
0.000545
0.000194
0.000070
0.000183
0.000201
0.000242
0.000249
0.000250
0.000481
0.000206
0.000246
0.000268
0.000290
0.000581
0.000550
0.000223
0.000229
0.000236
0.000250
0.000251
0.000251
0.000247
0.000263
0.000256
0.000269
0.000409
0.000401
0.000404
0.000333
0.000339
0.000342
0.000304
0.000219
0.000173
0.000055
0.000188
0.000209
0.000242
0.000487
0.000321
0.000389
0.000244
0.000201
0.000228
0.000231
0.000253
0.000253
0.000247
0.000256
0.000308
0.000205
0.000254
0.000250
0.000242
0.000382
0.000556
0.000396
0.000228
0.000226
0.000271
0.000279
0.000258
0.000260
0.000272
0.000255
0.000215
0.000055
0.000210
0.000475
0.000461
0.000205
0.000222
0.000212
0.000302
0.000531
0.000254
0.000215
0.000207
0.000278
0.000286
0.000417
0.000457
0.000322
0.000219
0.000213
0.000286
0.000210
0.000270
0.000269
0.000256
0.000277
0.000257
0.000302
0.000419
0.000432
0.000356
0.000202
0.000155
0.000057
0.000175
0.000217
0.000251
0.000247
0.000258
0.000256
0.000232
0.000254
0.000258
0.000248
0.000264
0.000234
0.000261
0.001460
0.000243
0.000239
0.000257
0.000253
0.000268
0.000281
0.000260
0.000246
0.000272
0.000250
0.000274
0.000262
0.000282
0.000260
0.000271
0.000254
0.000214
0.000055
0.000201
0.000218
0.000238
0.000249
0.000243
0.000241
0.000256
0.000262
0.000238
0.000246
0.000248
0.000260
0.000251
0.000252
0.000261
0.000256
0.000244
0.000267
0.000269
0.000254
0.000256
0.000256
0.000254
0.000247
0.001364
0.000279
0.000540
0.000449
0.000356
0.000217
0.000164
0.000056
0.000213
0.000216
0.000239
0.000270
0.000472
0.000235
0.000193
0.000214
0.000256
0.000333
0.000540
0.000348
0.000220
0.000203
0.000233
0.000261
0.000255
0.000267
0.000248
0.000259
0.000258
0.000250
0.000262
0.000471
0.000466
0.000433
0.000259
0.000247
0.001361
0.000274
0.000184
0.000055
0.000373
0.000476
0.000334
0.000189
0.000194
0.000209
0.000220
0.000249
0.000260
0.000255
0.000251
0.000252
0.000263
0.000293
0.000595
0.000438
0.000240
0.000234
0.000253
0.000252
0.000251
0.000263
0.000284
0.000255
0.000261
0.000257
0.000286
0.000599
0.000405
0.000375
0.000159
0.000055
0.000207
0.000229
0.001310
0.000358
0.000298
0.000451
0.000380
0.000326
0.000435
0.000380
0.000224
0.000214
0.000238
0.000252
0.000253
0.000261
0.000375
0.000487
0.000403
0.000334
0.000272
0.000242
0.000250
0.000520
0.000234
0.000259
0.000258
0.000277
0.000358
0.000503
0.000378
0.000056
0.000371
0.000355
0.000224
0.000200
0.001615
0.000446
0.000302
0.000226
0.000208
0.000247
0.000230
0.000233
0.000248
0.000261
0.000253
0.000284
0.000217
0.000345
0.000380
0.000438
0.000423
0.000219
0.000217
0.000249
0.000255
0.000273
0.000275
0.000238
0.000265
0.000274
0.000305
0.000055
0.000415
0.000257
0.000270
0.000190
0.000244
0.000246
0.000250
0.000256
0.000234
0.000245
0.001492
0.000433
0.000270
0.000202
0.000220
0.000259
0.000261
0.000265
0.000232
0.000272
0.000274
0.000257
0.000267
0.000390
0.000525
0.000392
0.000211
0.000257
0.000287
0.000270
0.000192
0.000056
0.000210
0.000458
0.000208
0.000225
0.000322
0.000486
0.000322
0.000320
0.000452
0.000224
0.000202
0.000254
0.000260
0.000268
0.000266
0.001402
0.000359
0.000290
0.000251
0.000261
0.000281
0.000247
0.000258
0.000263
0.000256
0.000267
0.000377
0.000503
0.000330
0.000278
0.000145
0.000056
0.000195
0.000209
0.000252
0.000240
0.000224
0.000264
0.000243
0.000248
0.000317
0.000450
0.000343
0.000338
0.000220
0.000206
0.000243
0.000272
0.000274
0.000257
0.000271
0.000225
0.000256
0.000279
0.001355
0.000253
0.000256
0.000210
0.000242
0.000260
0.000265
0.000256
0.000201
0.000056
0.000209
0.000357
0.000412
0.000330
0.000231
0.000202
0.000249
0.000258
0.000257
0.000249
0.000257
0.000270
0.000266
0.000229
0.000266
0.000263
0.000261
0.000268
0.000270
0.000247
0.000246
0.000276
0.000276
0.000274
0.000284
0.000269
0.000291
0.000228
0.000266
0.000508
0.001324
0.000056
0.000215
0.000212
0.000233
0.000250
0.000243
0.000266
0.000245
0.000224
0.000246
0.000254
0.000256
0.000265
0.000258
0.000239
0.000249
0.001704
0.000359
0.000229
0.000217
0.000232
0.000241
0.000257
0.000278
0.000262
0.000260
0.000260
0.000263
0.000281
0.000275
0.000250
0.000246
0.000055
0.000320
0.000343
0.001334
0.000195
0.000209
0.000249
0.000238
0.000250
0.000255
0.000260
0.000234
0.000320
0.000422
0.000531
0.000224
0.000218
0.000224
0.000254
0.000257
0.000258
0.000254
0.000266
0.000260
0.000282
0.000268
0.000399
0.000464
0.000286
0.000287
0.000255
0.000198
0.000056
0.000201
0.000225
0.000241
0.000247
0.000252
0.000235
0.000233
0.000259
0.000401
0.000462
0.001144
0.000236
0.000232
0.000268
0.000258
0.000253
0.000274
0.000249
0.000319
0.000380
0.000428
0.000302
0.000207
0.000225
0.000291
0.000273
0.000256
0.000291
0.000278
0.000278
0.000207
0.000056
0.000439
0.000193
0.000445
0.000234
0.000202
0.000209
0.000240
0.000264
0.000271
0.000259
0.000222
0.000535
0.000296
0.000451
0.000489
0.001426
0.000217
0.000253
0.000348
0.000356
0.000435
0.000464
0.000441
0.000402
0.000237
0.000245
0.000257
0.000276
0.000266
0.000272
0.000211
0.000056
0.000197
0.000255
0.000463
0.000490
0.000345
0.000204
0.000269
0.000213
0.000241
0.000259
0.000247
0.000266
0.000268
0.000243
0.000268
0.000327
0.000519
0.000308
0.000310
0.001320
0.000261
0.000253
0.000259
0.000466
0.000313
0.000426
0.000401
0.000220
0.000242
0.000286
0.000199
0.000056
0.000199
0.000209
0.000248
0.000245
0.000246
0.000275
0.000445
0.000378
0.000373
0.000239
0.000236
0.000251
0.000276
0.000258
0.000265
0.000260
0.000259
0.000256
0.000267
0.000374
0.000469
0.000424
0.000308
0.001340
0.000366
0.000219
0.000293
0.000458
0.000396
0.000376
0.000321
0.000056
0.000183
0.000211
0.000270
0.000226
0.000253
0.000254
0.001698
0.000256
0.000212
0.000218
0.000249
0.000264
0.000333
0.000309
0.000330
0.000283
0.000237
0.000351
0.000488
0.000403
0.000290
0.000267
0.000218
0.000239
0.001435
0.000412
0.000423
0.000481
0.000314
0.000296
0.000162
0.000055
0.000190
0.000220
0.000255
0.000265
0.000241
0.000266
0.001772
0.000212
0.000244
0.000250
0.000388
0.000432
0.001412
0.000327
0.000423
0.000194
0.000223
0.000234
0.000264
0.000271
0.001618
0.000613
0.000345
0.000287
0.000212
0.000229
0.000246
0.000276
0.000252
0.000246
0.000212
0.000056
0.000189
0.000222
0.000260
0.000248
0.000267
0.000265
0.000290
0.000247
0.000261
0.000249
0.000253
0.000253
0.000257
0.000266
0.000269
0.001494
0.000268
0.000233
0.000268
0.000280
0.000267
0.000261
0.000429
0.001271
0.000274
0.000237
0.000265
0.000262
0.000456
0.000226
0.000177
0.000056
0.000209
0.000230
0.000223
0.000243
0.000246
0.000225
0.000229
0.001758
0.000218
0.000217
0.000237
0.000366
0.000238
0.000213
0.001462
0.000245
0.000214
0.000224
0.000271
0.000249
0.000246
0.000311
0.000333
0.001365
0.000277
0.000224
0.000220
0.000260
0.001388
0.000270
0.000271
0.000055
0.000241
0.000329
0.000206
0.000212
0.000254
0.000237
0.000263
0.000273
0.000257
0.000250
0.000266
0.000265
0.000251
0.000251
0.000348
0.001454
0.000248
0.000271
0.000264
0.000241
0.000280
0.000265
0.000252
0.001498
0.000350
0.000244
0.000272
0.001344
0.000233
0.000220
0.000198
0.000056
0.000210
0.000351
0.000355
0.000209
0.000233
0.000239
0.000255
0.000254
0.000270
0.000272
0.000237
0.000254
0.000261
0.000462
0.000296
0.001219
0.000205
0.000219
0.000256
0.000275
0.000242
0.000233
0.000259
0.001284
0.000390
0.000217
0.000220
0.000257
0.000250
0.001344
0.000301
0.000056
0.000294
0.000256
0.000210
0.000213
0.000238
0.000244
0.000248
0.000244
0.000275
0.000259
0.000236
0.000255
0.000255
0.000313
0.000425
0.001474
0.000243
0.000227
0.000280
0.000518
0.000298
0.000421
0.001325
0.000298
0.000244
0.000256
0.001282
0.000355
0.000297
0.000477
0.000335
0.000056
0.000214
0.000232
0.000256
0.000262
0.000245
0.000259
0.000275
0.000246
0.000262
0.000262
0.000332
0.000500
0.001356
0.000206
0.000239
0.000257
0.000285
0.000264
0.000209
0.000225
0.000331
0.001319
0.000232
0.000234
0.000224
0.000245
0.001551
0.000412
0.000457
0.000236
0.000199
0.000056
0.000183
0.000210
0.000252
0.000234
0.000245
0.000273
0.000244
0.000269
0.000398
0.000504
0.000317
0.001447
0.000230
0.000223
0.000262
0.000262
0.000278
0.000254
0.001657
0.000329
0.000350
0.000358
0.001359
0.000328
0.000329
0.000334
0.000234
0.000220
0.000233
0.000271
0.000214
0.000056
0.000201
0.000203
0.000328
0.000287
0.000247
0.000575
0.000299
0.000338
0.001477
0.000302
0.000322
0.000252
0.000208
0.000371
0.000276
0.001385
0.000275
0.000214
0.000216
0.000244
0.000324
0.001612
0.000329
0.000284
0.000219
0.000227
0.000518
0.000302
0.000222
0.000231
0.000267
0.000056
0.000255
0.000361
0.000352
0.000284
0.000215
0.001442
0.000252
0.000238
0.000249
0.000269
0.000267
0.000250
0.000331
0.001447
0.000269
0.000237
0.000411
0.001272
0.000333
0.000400
0.000386
0.000245
0.000225
0.000244
0.000285
0.000247
0.000453
0.000237
0.000258
0.000266
0.000215
0.000055
0.000212
0.000259
0.000312
0.001458
0.000271
0.000207
0.000312
0.000246
0.000240
0.000254
0.000248
0.000250
0.001648
0.000209
0.000225
0.000214
0.001371
0.000289
0.000494
0.000408
0.000388
0.000223
0.000230
0.000240
0.000366
0.000230
0.000246
0.000239
0.000251
0.000253
0.000216
0.000055
0.000196
0.000389
0.001437
0.000219
0.000261
0.000270
0.000256
0.000241
0.000408
0.000508
0.001119
0.000255
0.000307
0.000241
0.000212
0.001351
0.000597
0.000348
0.000308
0.000409
0.000328
0.000237
0.000227
0.000237
0.000267
0.000296
0.000267
0.000296
0.000467
0.000456
0.001382
0.000055
0.000209
0.000250
0.000222
0.000217
0.000246
0.000395
0.000498
0.001363
0.000214
0.000219
0.000238
0.001400
0.000469
0.000333
0.000461
0.000257
0.000211
0.000211
0.000243
0.000273
0.000256
0.000260
0.000283
0.000254
0.000254
0.000459
0.000278
0.000505
0.001446
0.000276
0.000188
0.000056
0.000208
0.000229
0.000347
0.000613
0.001167
0.000281
0.000255
0.000251
0.000250
0.000254
0.000245
0.000274
0.000312
0.000591
0.000314
0.000217
0.000245
0.000277
0.000238
0.000270
0.000260
0.000270
0.000258
0.000260
0.000266
0.000485
0.000424
0.000318
0.000323
0.001456
0.000153
0.000056
0.000198
0.000218
0.000249
0.000476
0.000339
0.000310
0.000316
0.000318
0.000273
0.000263
0.000265
0.000264
0.000238
0.000313
0.000244
0.000325
0.000506
0.000333
0.000307
0.000361
0.000283
0.000477
0.000218
0.000238
0.000211
0.000268
0.000253
0.000281
0.000359
0.000490
0.000326
0.000055
0.000230
0.001346
0.000284
0.000327
0.000401
0.000437
0.000313
0.000356
0.000222
0.000209
0.000258
0.000248
0.000264
0.000284
0.000244
0.000260
0.000263
0.001410
0.000269
0.000220
0.000222
0.000276
0.000272
0.000311
0.000239
0.000254
0.000272
0.000251
0.000299
0.000428
0.000403
0.000057
0.000226
0.000236
0.001434
0.000365
0.000297
0.000211
0.000211
0.000207
0.000235
0.000233
0.000261
0.000271
0.000249
0.000253
0.000263
0.000269
0.000233
0.000264
0.000264
0.000260
0.001424
0.000275
0.000231
0.000341
0.000219
0.000218
0.000243
0.000266
0.000277
0.000497
0.000385
0.000055
0.000193
0.000214
0.000386
0.000286
0.000253
0.000248
0.001532
0.000385
0.000305
0.000201
0.000239
0.000347
0.000320
0.000216
0.000224
0.000270
0.000231
0.000258
0.000262
0.000249
0.000485
0.000522
0.001170
0.000264
0.000219
0.000225
0.000275
0.000254
0.000282
0.000241
0.000378
0.000055
0.000179
0.000358
0.000196
0.000202
0.000248
0.000245
0.000236
0.000235
0.001413
0.000535
0.000375
0.000303
0.000208
0.000210
0.000249
0.000250
0.000251
0.000291
0.000245
0.000311
0.000300
0.000496
0.000445
0.001373
0.000241
0.000251
0.000276
0.000272
0.000260
0.000273
0.000557
0.000056
0.000237
0.000202
0.000262
0.000220
0.000225
0.000276
0.000222
0.000245
0.000292
0.001553
0.000356
0.000251
0.000267
0.000259
0.000464
0.000298
0.000404
0.000456
0.000336
0.000332
0.000439
0.000469
0.001302
0.000218
0.000227
0.000242
0.001811
0.000385
0.000586
0.000319
0.000148
0.000056
0.000169
0.000224
0.000234
0.000236
0.000251
0.000247
0.000359
0.000505
0.000391
0.000433
0.000296
0.000225
0.000207
0.000255
0.000270
0.000265
0.000262
0.000245
0.000243
0.000274
0.000269
0.000470
0.001296
0.000244
0.000225
0.000278
0.001913
0.000366
0.000373
0.000367
0.000175
0.000056
0.000208
0.000196
0.000247
0.001608
0.000398
0.000197
0.000238
0.000258
0.000250
0.000345
0.000362
0.000378
0.000347
0.000305
0.000325
0.000476
0.000352
0.001265
0.000264
0.000209
0.000218
0.000278
0.000360
0.000433
0.000540
0.000486
0.000220
0.000221
0.000260
0.000281
0.000210
0.000055
0.000192
0.000201
0.001459
0.000411
0.000197
0.000216
0.000227
0.000250
0.000247
0.000252
0.000245
0.000282
0.000284
0.000253
0.000233
0.000373
0.000487
0.000310
0.001399
0.000279
0.000207
0.000265
0.000274
0.000247
0.000466
0.000412
0.000438
0.000299
0.000286
0.000250
0.000402
0.000056
0.000213
0.000214
0.000255
0.000254
0.001580
0.000229
0.000261
0.000243
0.000258
0.000251
0.000258
0.000264
0.000255
0.000256
0.000401
0.000495
0.001487
0.000734
0.000214
0.000332
0.000258
0.000213
0.000229
0.000280
0.001754
0.000734
0.000266
0.000225
0.000268
0.000296
0.000212
0.000056
0.000206
0.000211
0.000247
0.000247
0.000251
0.000248
0.000247
0.000251
0.000253
0.000222
0.000284
0.000281
0.000258
0.000255
0.000249
0.000265
0.000263
0.001601
0.000740
0.000472
0.000226
0.000217
0.000206
0.000283
0.000288
0.000250
0.000267
0.000255
0.001496
0.000341
0.000302
0.000056
0.000184
0.000218
0.000239
0.000247
0.000257
0.000232
0.000253
0.000257
0.000250
0.000265
0.000224
0.000503
0.000399
0.000362
0.000211
0.000232
0.000271
0.001451
0.000679
0.000424
0.000338
0.000296
0.000206
0.000243
0.000271
0.000257
0.000259
0.000260
0.001484
0.000449
0.000207
0.000057
0.000201
0.000200
0.000232
0.000249
0.000257
0.000238
0.000243
0.000250
0.000266
0.000261
0.000369
0.000380
0.000331
0.000225
0.000242
0.000233
0.000273
0.000253
0.001576
0.000598
0.000629
0.000208
0.000227
0.000242
0.000251
0.000258
0.000269
0.000275
0.000266
0.001438
0.000302
0.000056
0.000217
0.000221
0.000210
0.000258
0.000259
0.000240
0.000286
0.000358
0.000371
0.000488
0.000272
0.000368
0.000357
0.000211
0.000239
0.000242
0.000270
0.000262
0.001392
0.000937
0.000269
0.000201
0.000479
0.000211
0.000227
0.000241
0.000280
0.000258
0.000261
0.000276
0.000367
0.000056
0.000213
0.000298
0.000210
0.000229
0.000251
0.000260
0.000229
0.000233
0.000258
0.000267
0.000245
0.000237
0.000244
0.000450
0.000481
0.000475
0.000212
0.000253
0.000258
0.000247
0.000258
0.000392
0.001421
0.001000
0.000238
0.000229
0.000294
0.000244
0.000274
0.000247
0.000224
0.000056
0.000192
0.001391
0.000272
0.000202
0.000196
0.000268
0.000234
0.000247
0.000222
0.000263
0.000254
0.000265
0.000233
0.000404
0.000348
0.000459
0.000321
0.000209
0.000260
0.000284
0.000247
0.000248
0.000244
0.000265
0.001409
0.000668
0.000317
0.000402
0.000368
0.000398
0.000257
0.000055
0.000182
0.000213
0.000375
0.001300
0.000233
0.000275
0.000204
0.000244
0.000254
0.000261
0.000273
0.000218
0.000280
0.000321
0.000571
0.000373
0.000206
0.000312
0.000269
0.000234
0.000244
0.000251
0.000235
0.000263
0.000273
0.001549
0.000747
0.000281
0.000273
0.000274
0.000206
0.000056
0.000200
0.000233
0.000459
0.000412
0.001287
0.000238
0.000215
0.000200
0.000236
0.000246
0.000241
0.000259
0.000239
0.000237
0.000247
0.000254
0.000273
0.000234
0.000252
0.000263
0.000265
0.000263
0.000329
0.000317
0.000239
0.000244
0.000257
0.001543
0.000220
0.000236
0.000159
0.000055
0.000183
0.000214
0.000272
0.000326
0.000343
0.000342
0.000399
0.000249
0.001555
0.000288
0.000241
0.000481
0.000426
0.000190
0.000481
0.000229
0.000213
0.000232
0.000265
0.000271
0.000285
0.000265
0.000259
0.000268
0.000244
0.000457
0.000423
0.000324
0.001517
0.000253
0.000184
0.000056
0.000199
0.000221
0.000245
0.000243
0.000249
0.000242
0.000264
0.000296
0.000446
0.002084
0.000206
0.000199
0.000249
0.000264
0.000256
0.000323
0.000264
0.000209
0.000244
0.000470
0.000314
0.000467
0.001520
0.000223
0.000257
0.000462
0.001777
0.000283
0.000260
0.001488
0.000187
0.000056
0.000287
0.000441
0.000443
0.000248
0.000260
0.000230
0.000256
0.000257
0.000272
0.000241
0.000246
0.000307
0.000506
0.000293
0.000468
0.000230
0.000212
0.001545
0.000500
0.002000
0.000315
0.000241
0.000204
0.001608
0.001980
0.000738
0.000270
0.000232
0.000269
0.000421
0.000408
0.000056
0.000169
0.000217
0.000246
0.000274
0.001467
0.001672
0.001074
0.000221
0.000215
0.001588
0.001975
0.000228
0.000332
0.000398
0.000253
0.000480
0.000290
0.000426
0.000245
0.000232
0.000253
0.000255
0.000272
0.001556
0.001315
0.001414
0.000266
0.000240
0.000264
0.000287
0.000384
0.000055
0.000214
0.000234
0.000206
0.000254
0.000232
0.000225
0.000258
0.000251
0.000254
0.000252
0.000241
0.000362
0.000550
0.000350
0.000307
0.000208
0.000229
0.000286
0.000250
0.000263
0.000257
0.001362
0.000484
0.000447
0.002075
0.000245
0.000242
0.000343
0.000497
0.000410
0.000154
0.000056
0.000251
0.000268
0.000474
0.000319
0.000224
0.000226
0.000213
0.000266
0.000240
0.000241
0.000246
0.000259
0.000259
0.001614
0.001425
0.001225
0.000271
0.000234
0.000207
0.000247
0.000284
0.000277
0.000259
0.000253
0.002267
0.000213
0.000223
0.000290
0.000323
0.000299
0.000247
0.000055
0.000204
0.000390
0.000565
0.000339
0.000223
0.000197
0.000225
0.000268
0.001890
0.001430
0.000255
0.000384
0.000395
0.000353
0.000260
0.000214
0.000228
0.000263
0.000262
0.000289
0.000241
0.000257
0.000471
0.000237
0.000270
0.000285
0.000236
0.000278
0.000279
0.000247
0.000216
0.000056
0.000195
0.000229
0.000246
0.000244
0.000247
0.000284
0.001517
0.001513
0.001321
0.000217
0.000212
0.000216
0.000256
0.000262
0.000253
0.000247
0.000251
0.002183
0.000212
0.000210
0.000256
0.000262
0.000254
0.000268
0.000268
0.000251
0.000268
0.000259
0.000278
0.000258
0.000196
0.000056
0.001501
0.000317
0.002404
0.000235
0.000306
0.000295
0.000243
0.000262
0.000264
0.000244
0.000254
0.000247
0.000234
0.000238
0.000265
0.000256
0.000272
0.000264
0.000263
0.000264
0.000268
0.000275
0.000279
0.000272
0.000239
0.000250
0.000260
0.000274
0.000260
0.000285
0.000371
0.000057
0.000194
0.002552
0.000343
0.000199
0.000219
0.000197
0.000249
0.000254
0.000259
0.000252
0.000419
0.000381
0.000293
0.000253
0.000219
0.002229
0.000210
0.000219
0.000239
0.000502
0.000458
0.000263
0.000212
0.000239
0.000284
0.000227
0.000266
0.000275
0.000266
0.001684
0.001234
0.000056
0.000197
0.000214
0.000240
0.000439
0.000374
0.000275
0.000217
0.000214
0.000257
0.000257
0.000261
0.000245
0.000246
0.000238
0.000271
0.000235
0.000287
0.000635
0.000406
0.000248
0.000227
0.000244
0.000281
0.000273
0.000242
0.000233
0.000262
0.000282
0.000242
0.000308
0.000398
0.000055
0.001124
0.000247
0.000322
0.000431
0.000342
0.000205
0.000208
0.000225
0.002198
0.000451
0.000325
0.000370
0.000202
0.000291
0.000332
0.000271
0.000268
0.000264
0.000251
0.000250
0.000235
0.000259
0.000605
0.000542
0.001802
0.001337
0.000455
0.000605
0.000231
0.000245
0.000220
0.000056
0.000277
0.000306
0.000232
0.000242
0.000242
0.000246
0.000231
0.000247
0.000260
0.000263
0.000239
0.000239
0.000243
0.000250
0.000401
0.000507
0.001897
0.001317
0.000429
0.000418
0.000416
0.000254
0.000253
0.000257
0.002225
0.000457
0.000376
0.000241
0.000273
0.000280
0.000218
0.000056
0.000193
0.000237
0.000245
0.000238
0.000241
0.000347
0.000434
0.000374
0.000270
0.000230
0.000225
0.000278
0.000256
0.002064
0.000348
0.000419
0.000225
0.000232
0.000263
0.000258
0.000258
0.002445
0.000354
0.000227
0.000253
0.000261
0.000245
0.000271
0.000277
0.000288
0.000211
0.000056
0.000197
0.000383
0.000572
0.000351
0.000227
0.000200
0.000220
0.000235
0.000266
0.000259
0.002069
0.000345
0.000268
0.000256
0.000200
0.000247
0.000279
0.000245
0.002265
0.000399
0.000228
0.000243
0.000269
0.000264
0.000253
0.000252
0.000275
0.000255
0.000268
0.000265
0.000197
0.000055
0.000165
0.000222
0.000255
0.000221
0.000239
0.000261
0.000242
0.000244
0.000248
0.002162
0.000242
0.000270
0.000227
0.000472
0.000219
0.000213
0.000257
0.000289
0.000254
0.002002
0.000284
0.000256
0.000377
0.000368
0.000481
0.000339
0.000287
0.000249
0.000232
0.000241
0.000223
0.000056
0.000180
0.000223
0.000234
0.000241
0.000244
0.000389
0.000200
0.002344
0.000197
0.000233
0.000229
0.000255
0.000242
0.000243
0.000307
0.002198
0.000513
0.000240
0.000245
0.000243
0.000255
0.000269
0.000274
0.000276
0.000284
0.000230
0.000290
0.000252
0.000266
0.000309
0.000168
0.000056
0.000182
0.003008
0.000243
0.000214
0.000246
0.000247
0.000250
0.000290
0.000398
0.000441
0.002070
0.000252
0.000254
0.000255
0.000265
0.000430
0.000543
0.000292
0.000239
0.000194
0.000245
0.000266
0.000271
0.000234
0.000245
0.000272
0.000265
0.000266
0.000335
0.000664
0.000323
0.000056
0.000205
0.000275
0.000273
0.000206
0.000235
0.000249
0.000250
0.000248
0.001641
0.002026
0.000523
0.000266
0.000389
0.000780
0.000356
0.000220
0.000203
0.000247
0.000260
0.000255
0.000259
0.000246
0.000247
0.000276
0.001826
0.001452
0.000291
0.000274
0.000301
0.000304
0.000557
0.000057
0.001934
0.000235
0.000225
0.000203
0.000262
0.000378
0.000476
0.000314
0.000309
0.000246
0.000205
0.000208
0.000260
0.000260
0.000255
0.000268
0.000248
0.000261
0.001914
0.000214
0.000219
0.000228
0.000268
0.000284
0.000274
0.000257
0.001539
0.000347
0.000214
0.000242
0.000147
0.000057
0.000187
0.000214
0.000232
0.000233
0.000254
0.000238
0.000269
0.000417
0.000356
0.000406
0.000201
0.000214
0.000335
0.000322
0.000381
0.000323
0.000215
0.000219
0.000266
0.000350
0.000527
0.000461
0.000200
0.000242
0.000258
0.000251
0.000253
0.000268
0.000275
0.000266
0.000222
0.000055
0.001446
0.000397
0.000231
0.002009
0.000253
0.000435
0.000362
0.000391
0.000189
0.000221
0.000261
0.000237
0.000243
0.000254
0.000267
0.000257
0.000447
0.000266
0.000505
0.000356
0.000317
0.000218
0.000251
0.000260
0.000339
0.000226
0.000238
0.000269
0.000308
0.000504
0.001442
0.000054
0.000177
0.000222
0.002080
0.000258
0.000336
0.000266
0.000252
0.000257
0.000267
0.000239
0.000229
0.000249
0.000257
0.000253
0.000263
0.000349
0.000721
0.001726
0.000274
0.000248
0.000258
0.000261
0.000387
0.000463
0.001542
0.000264
0.000379
0.001995
0.000229
0.000245
0.000181
0.000055
0.000208
0.000215
0.000225
0.000251
0.000245
0.000230
0.000252
0.000279
0.000340
0.000306
0.000377
0.000371
0.000331
0.000289
0.000216
0.000265
0.000255
0.000243
0.000259
0.000267
0.000272
0.000308
0.000270
0.000256
0.000280
0.001570
0.000295
0.000422
0.001958
0.000256
0.000177
0.000056
0.000200
0.000221
0.000233
0.000244
0.000462
0.000237
0.000242
0.000372
0.000372
0.000343
0.000228
0.000220
0.000256
0.000268
0.000274
0.000329
0.000440
0.000419
0.000269
0.000351
0.000650
0.000354
0.001587
0.000258
0.000233
0.002015
0.000357
0.000221
0.000229
0.000256
0.000207
0.000056
0.000192
0.000213
0.000232
0.000241
0.000254
0.000259
0.000257
0.000275
0.000249
0.000247
0.001889
0.000287
0.000393
0.000347
0.000449
0.000365
0.001503
0.000340
0.000199
0.000326
0.002022
0.000642
0.000231
0.000226
0.000234
0.000270
0.000483
0.000250
0.000246
0.000271
0.000217
0.000055
0.000306
0.000333
0.000385
0.000277
0.000200
0.000217
0.000259
0.000263
0.000272
0.000283
0.000226
0.000246
0.000258
0.000255
0.000376
0.000404
0.001357
0.000260
0.000421
0.001821
0.000375
0.000270
0.000217
0.000243
0.000243
0.000280
0.000264
0.000269
0.000245
0.000262
0.000223
0.000056
0.000318
0.000341
0.002076
0.000224
0.000240
0.000223
0.000222
0.000288
0.000431
0.001518
0.000343
0.000364
0.000334
0.001991
0.000229
0.000239
0.000266
0.000276
0.000265
0.000222
0.000297
0.000282
0.000265
0.000360
0.000499
0.000402
0.000302
0.002193
0.000495
0.000503
0.000405
0.000055
0.000200
0.000220
0.000224
0.002039
0.000196
0.000224
0.000225
0.000241
0.000232
0.000257
0.000244
0.000262
0.000256
0.000287
0.000510
0.000356
0.001278
0.000244
0.000271
0.000269
0.000221
0.000254
0.000275
0.000258
0.000384
0.000386
0.000472
0.000267
0.001675
0.000227
0.000146
0.000056
0.000198
0.000203
0.000238
0.000231
0.000249
0.000248
0.000265
0.000262
0.000238
0.000362
0.000419
0.001437
0.000216
0.000200
0.000229
0.000258
0.000270
0.000248
0.000295
0.000474
0.000594
0.000277
0.000232
0.001561
0.000251
0.000244
0.000276
0.000286
0.000262
0.000262
0.000206
0.000056
0.000198
0.000203
0.000272
0.000262
0.000254
0.000240
0.000239
0.000234
0.000258
0.000263
0.000230
0.000258
0.000258
0.000247
0.001587
0.000234
0.000234
0.000271
0.000340
0.000325
0.000362
0.000259
0.000214
0.000248
0.000244
0.000271
0.001469
0.000294
0.000210
0.000228
0.000178
0.000055
0.000183
0.000227
0.000241
0.000264
0.000269
0.000221
0.000244
0.000266
0.000217
0.000271
0.000243
0.000257
0.000225
0.000302
0.000400
0.000291
0.000341
0.001585
0.000330
0.000213
0.000215
0.000232
0.000259
0.000318
0.000412
0.000453
0.000406
0.000241
0.000215
0.001595
0.000193
0.000056
0.000325
0.000483
0.000228
0.000302
0.000211
0.000206
0.000247
0.000258
0.000261
0.000241
0.000239
0.000241
0.001453
0.000337
0.000301
0.000214
0.000228
0.000258
0.000261
0.000269
0.000249
0.000243
0.000265
0.000265
0.000261
0.000403
0.000450
0.000380
0.000269
0.000220
0.000191
0.000055
0.000211
0.000258
0.000553
0.000301
0.000305
0.000242
0.000229
0.000243
0.000256
0.000255
0.000244
0.000226
0.000250
0.000252
0.001320
0.000277
0.000220
0.000222
0.000270
0.000271
0.000240
0.000260
0.000252
0.000269
0.000252
0.000263
0.000306
0.000646
0.000511
0.000241
0.000178
0.000055
0.000196
0.001535
0.000278
0.000476
0.000288
0.000409
0.000203
0.000239
0.000263
0.000249
0.000249
0.000255
0.000276
0.000270
0.000265
0.001506
0.000269
0.000277
0.000265
0.000261
0.000258
0.000249
0.000259
0.000274
0.000261
0.000255
0.000437
0.000423
0.000358
0.000231
0.000160
0.000055
0.000171
0.000236
0.000241
0.001736
0.000408
0.000290
0.000203
0.000212
0.000245
0.000266
0.000274
0.000259
0.000252
0.000264
0.000230
0.000271
0.000350
0.001439
0.000220
0.000211
0.001547
0.000282
0.000656
0.000351
0.000296
0.000227
0.000248
0.000458
0.000247
0.000255
0.000196
0.000055
0.000294
0.000206
0.000231
0.000237
0.000238
0.000264
0.000238
0.000254
0.000269
0.000232
0.000252
0.000257
0.000408
0.000374
0.001691
0.001499
0.000371
0.000593
0.000257
0.000253
0.000222
0.000260
0.000246
0.000263
0.000247
0.000263
0.000273
0.000261
0.001598
0.000311
0.000147
0.000056
0.000232
0.000337
0.000350
0.000330
0.000257
0.000198
0.000232
0.000312
0.000482
0.001383
0.000358
0.001542
0.000412
0.000378
0.000500
0.000280
0.000336
0.000329
0.000346
0.000275
0.000238
0.000348
0.001564
0.000526
0.000244
0.000251
0.000264
0.000245
0.000257
0.000256
0.000220
0.000056
0.000202
0.000232
0.000250
0.000257
0.000240
0.001652
0.000959
0.000899
0.000236
0.000238
0.000257
0.000262
0.000249
0.000263
0.000248
0.000253
0.000255
0.000260
0.000266
0.000278
0.001507
0.000271
0.000258
0.000221
0.000220
0.000253
0.000259
0.000273
0.000268
0.000281
0.000221
0.000055
0.000188
0.000209
0.001541
0.000971
0.000319
0.000362
0.000211
0.000209
0.000265
0.000234
0.000243
0.000256
0.000245
0.002052
0.000462
0.000219
0.000208
0.000223
0.000259
0.000264
0.000213
