0.000103
0.019981
0.001561
0.000383
0.000269
0.000319
0.000270
0.000248
0.000330
0.000285
0.000252
0.000353
0.000495
0.000469
0.000356
0.000394
0.000266
0.000394
0.000322
0.000406
0.000313
0.001943
0.000683
0.000246
0.000259
0.000305
0.000305
0.000328
0.000489
0.000403
0.000472
0.000284
0.000057
0.000215
0.000270
0.000271
0.000262
0.000272
0.000250
0.000279
0.000275
0.000251
0.000306
0.000417
0.000437
0.000315
0.000265
0.000410
0.000296
0.000364
0.000247
0.000258
0.001729
0.000291
0.000248
0.000461
0.000267
0.000253
0.000275
0.000286
0.000297
0.000278
0.000331
0.000420
0.000056
0.000193
0.000258
0.000262
0.000265
0.000250
0.000246
0.000259
0.000255
0.000284
0.001672
0.000229
0.000227
0.000272
0.000276
0.000278
0.000252
0.000262
0.000262
0.000353
0.001795
0.000239
0.000276
0.000446
0.000494
0.000322
0.000241
0.000244
0.000487
0.000577
0.000686
0.000197
0.000056
0.000223
0.000254
0.000256
0.000236
0.000303
0.000242
0.000265
0.000603
0.000374
0.000277
0.000243
0.000246
0.000242
0.000253
0.000253
0.000257
0.000248
0.000267
0.000299
0.000316
0.001674
0.000280
0.000253
0.000417
0.000398
0.000602
0.000685
0.000507
0.000333
0.000259
0.000178
0.000057
0.000196
0.000253
0.000260
0.000242
0.000256
0.000253
0.000269
0.000503
0.001428
0.000222
0.000243
0.000244
0.000258
0.000253
0.000261
0.000291
0.000343
0.000738
0.001383
0.000278
0.000466
0.000255
0.000226
0.000215
0.000264
0.000258
0.000267
0.000268
0.000260
0.000271
0.000189
0.000056
0.000218
0.000240
0.000241
0.000269
0.000240
0.000249
0.000234
0.000254
0.000256
0.000238
0.001631
0.000262
0.000231
0.000247
0.000255
0.000249
0.000261
0.000234
0.000252
0.000253
0.000273
0.001663
0.000292
0.000258
0.000430
0.000255
0.000256
0.000258
0.000259
0.000276
0.000192
0.000056
0.000195
0.000233
0.000258
0.000254
0.000229
0.000247
0.000261
0.000234
0.000266
0.000239
0.000268
0.000258
0.000258
0.000272
0.001640
0.000273
0.000294
0.000217
0.000253
0.000273
0.000269
0.000238
0.000245
0.000265
0.001788
0.000372
0.000361
0.000351
0.000257
0.000276
0.000221
0.000056
0.000203
0.000235
0.000250
0.000264
0.000254
0.000242
0.000266
0.000420
0.000414
0.000432
0.000206
0.000247
0.000257
0.000249
0.001565
0.000537
0.000312
0.000417
0.000321
0.000216
0.000267
0.000292
0.000264
0.001729
0.000512
0.000466
0.000290
0.000213
0.000249
0.000259
0.000186
0.000056
0.000201
0.000229
0.000256
0.000317
0.000261
0.000507
0.000326
0.000281
0.000222
0.000251
0.000261
0.000237
0.000257
0.001980
0.000218
0.000277
0.000239
0.000250
0.000273
0.000285
0.000245
0.000258
0.000277
0.001911
0.000472
0.000262
0.000217
0.000229
0.000271
0.000412
0.000325
0.000056
0.000209
0.000371
0.000379
0.000259
0.000258
0.000246
0.000252
0.000257
0.000246
0.000228
0.000238
0.000248
0.001582
0.000305
0.000322
0.000240
0.000252
0.000256
0.000243
0.000280
0.000286
0.000323
0.000244
0.001810
0.000251
0.000495
0.000264
0.000239
0.000256
0.000272
0.000262
0.000056
0.000291
0.000635
0.000584
0.000214
0.000235
0.000275
0.000226
0.000227
0.000259
0.000255
0.000248
0.001706
0.000238
0.000440
0.000370
0.000225
0.000242
0.000226
0.000253
0.000259
0.000389
0.001727
0.000231
0.000246
0.002102
0.000521
0.000343
0.000239
0.000256
0.000268
0.000186
0.000057
0.000215
0.000244
0.000246
0.000240
0.000261
0.001616
0.000255
0.000232
0.000253
0.000253
0.000247
0.000253
0.000240
0.000257
0.000311
0.000664
0.000339
0.000247
0.000234
0.000278
0.000285
0.000226
0.000239
0.000430
0.000448
0.000258
0.000399
0.000477
0.000461
0.000272
0.000200
0.000055
0.000196
0.000238
0.000256
0.000253
0.000232
0.000258
0.000237
0.000450
0.000353
0.001744
0.000210
0.000241
0.000238
0.000249
0.000277
0.000265
0.000409
0.000489
0.000354
0.000237
0.000259
0.000313
0.000277
0.000248
0.000277
0.000427
0.000370
0.000606
0.000409
0.000483
0.000171
0.000055
0.000204
0.000267
0.000233
0.000223
0.000242
0.000239
0.000248
0.000247
0.000241
0.000335
0.000295
0.000446
0.001384
0.000242
0.000241
0.000240
0.000262
0.000249
0.000252
0.000260
0.000317
0.000442
0.000365
0.000270
0.000273
0.000252
0.000261
0.000269
0.000259
0.000264
0.000387
0.000072
0.000196
0.000236
0.000232
0.000290
0.000528
0.000432
0.000217
0.000286
0.000211
0.000260
0.000243
0.000239
0.000298
0.000250
0.000239
0.000482
0.000498
0.001558
0.000276
0.000236
0.000258
0.000268
0.000271
0.000226
0.000292
0.000369
0.000482
0.000368
0.000428
0.000251
0.000180
0.000055
0.000233
0.000433
0.000234
0.000218
0.000267
0.000245
0.000500
0.000353
0.000355
0.000300
0.000222
0.000273
0.000270
0.000236
0.000512
0.000362
0.000211
0.000265
0.000428
0.001604
0.000270
0.000234
0.000519
0.000246
0.000281
0.000283
0.000254
0.000367
0.000540
0.000360
0.000265
0.000056
0.000224
0.000232
0.000235
0.000243
0.000411
0.000313
0.000294
0.000224
0.000345
0.000529
0.000386
0.000236
0.000244
0.000243
0.000256
0.000267
0.000254
0.000255
0.000236
0.000346
0.000287
0.000332
0.001845
0.000242
0.000262
0.000255
0.000284
0.000361
0.000408
0.000702
0.000416
0.000056
0.000236
0.000333
0.000278
0.000428
0.000388
0.000210
0.000258
0.000299
0.000547
0.000363
0.000269
0.000239
0.000238
0.000283
0.000254
0.000232
0.000253
0.000273
0.000269
0.000274
0.000265
0.000388
0.000664
0.001330
0.000333
0.000518
0.000340
0.000258
0.000421
0.000406
0.000323
0.000056
0.000240
0.000383
0.000263
0.000209
0.000227
0.000249
0.000409
0.000232
0.000265
0.000401
0.000351
0.000488
0.000215
0.000259
0.000265
0.000250
0.000377
0.000384
0.000355
0.000217
0.000264
0.000417
0.000612
0.001650
0.000236
0.000449
0.000291
0.000226
0.000257
0.000461
0.000342
0.000056
0.000198
0.000228
0.000245
0.000245
0.000258
0.000241
0.000243
0.000325
0.000455
0.000318
0.000396
0.000390
0.000276
0.000578
0.000241
0.000249
0.000276
0.000265
0.000227
0.000351
0.000220
0.000249
0.000284
0.000550
0.000363
0.001633
0.000269
0.000233
0.000250
0.000270
0.000186
0.000057
0.000285
0.000496
0.000324
0.000219
0.000251
0.000253
0.000254
0.000241
0.000260
0.000244
0.000225
0.000248
0.000435
0.000498
0.000437
0.000266
0.000229
0.000257
0.000350
0.000384
0.000384
0.000330
0.000420
0.000359
0.000233
0.000238
0.000265
0.000275
0.001783
0.000250
0.000206
0.000056
0.000210
0.000222
0.000266
0.000263
0.000377
0.000535
0.000301
0.000217
0.000260
0.000263
0.000247
0.000250
0.000514
0.000450
0.000481
0.000289
0.000255
0.000278
0.000420
0.000464
0.000402
0.000339
0.000502
0.000437
0.000242
0.000253
0.000265
0.000247
0.000263
0.001716
0.000316
0.000056
0.000295
0.000343
0.000191
0.000234
0.000257
0.000245
0.000250
0.000505
0.000363
0.000303
0.000297
0.000237
0.000434
0.000572
0.000359
0.000241
0.000247
0.000257
0.000252
0.000265
0.000264
0.000272
0.000242
0.000267
0.000339
0.000329
0.000463
0.000311
0.000223
0.000264
0.000189
0.000055
0.000451
0.000269
0.000474
0.000261
0.000211
0.000248
0.000246
0.000259
0.000234
0.000223
0.000253
0.000274
0.000295
0.000378
0.000459
0.000530
0.000312
0.000328
0.000380
0.000336
0.000312
0.000221
0.000243
0.000262
0.001742
0.000273
0.001707
0.000976
0.000335
0.000367
0.000156
0.000056
0.000241
0.000203
0.000237
0.000242
0.000266
0.000242
0.000252
0.000254
0.000238
0.000352
0.000390
0.000374
0.000341
0.000377
0.000266
0.000241
0.000248
0.000295
0.000224
0.000250
0.000254
0.000256
0.001798
0.000251
0.000263
0.000259
0.000275
0.000268
0.001890
0.000511
0.000269
0.000074
0.000206
0.000208
0.000243
0.000238
0.000254
0.000246
0.000244
0.000257
0.000256
0.000408
0.000547
0.000467
0.000242
0.000208
0.000230
0.000252
0.000334
0.000443
0.000363
0.000252
0.001762
0.000280
0.000237
0.000245
0.000264
0.000267
0.000243
0.000251
0.000324
0.000312
0.000402
0.000056
0.000259
0.000221
0.000237
0.000259
0.000241
0.000246
0.000260
0.000254
0.000240
0.000253
0.000245
0.000271
0.000443
0.000333
0.000338
0.000256
0.000478
0.000260
0.000232
0.000255
0.000258
0.000264
0.000271
0.000257
0.000278
0.001785
0.000243
0.000256
0.000266
0.000236
0.000198
0.000056
0.000303
0.000304
0.000242
0.000219
0.000254
0.000217
0.000238
0.000259
0.000243
0.000227
0.000231
0.000265
0.000256
0.000491
0.000295
0.000320
0.000308
0.000254
0.000239
0.000258
0.000256
0.000256
0.000254
0.000267
0.000244
0.000270
0.000329
0.001606
0.000272
0.000243
0.000188
0.000055
0.000206
0.000235
0.000250
0.000260
0.000351
0.000336
0.000402
0.000325
0.000228
0.000254
0.000249
0.000262
0.000231
0.000258
0.000261
0.000258
0.000241
0.000257
0.000255
0.000259
0.000268
0.000270
0.000244
0.000239
0.000241
0.000280
0.000276
0.000260
0.000255
0.000285
0.000169
0.000056
0.000215
0.000238
0.000258
0.000257
0.000235
0.000251
0.000243
0.000261
0.000291
0.000235
0.000228
0.000253
0.000249
0.000248
0.000271
0.000260
0.000252
0.000254
0.000294
0.000257
0.000275
0.000287
0.000274
0.000247
0.000278
0.000272
0.000275
0.000248
0.000294
0.000375
0.000722
0.000056
0.000230
0.000280
0.000215
0.000238
0.000232
0.000256
0.000241
0.000265
0.000238
0.000242
0.000266
0.000314
0.000570
0.000482
0.001426
0.000240
0.000487
0.000237
0.000256
0.000445
0.000450
0.000367
0.000236
0.000274
0.000253
0.000264
0.000276
0.000251
0.000336
0.000232
0.000187
0.000056
0.000323
0.000414
0.000337
0.000312
0.000225
0.000251
0.000250
0.000244
0.000235
0.000243
0.000258
0.000255
0.000231
0.000292
0.000351
0.000479
0.000389
0.001795
0.000241
0.000256
0.000357
0.000392
0.000431
0.000325
0.000308
0.000323
0.000305
0.000232
0.000226
0.000249
0.000194
0.000056
0.000242
0.000213
0.000238
0.000345
0.000392
0.000360
0.000335
0.000257
0.000253
0.000209
0.000248
0.000271
0.000267
0.000262
0.000243
0.000261
0.000281
0.000552
0.000322
0.000413
0.000237
0.001748
0.000338
0.000527
0.000454
0.000469
0.000326
0.000233
0.000256
0.000268
0.000442
0.000056
0.000214
0.000251
0.000238
0.000357
0.000352
0.000478
0.000354
0.000229
0.000232
0.000287
0.000247
0.000257
0.000249
0.000296
0.000311
0.000248
0.000216
0.000420
0.000406
0.000373
0.000493
0.001845
0.000285
0.000625
0.000284
0.000361
0.000224
0.000262
0.000294
0.000261
0.000201
0.000055
0.000221
0.000344
0.000357
0.000379
0.000356
0.000260
0.000374
0.000219
0.000245
0.000259
0.000272
0.000228
0.000252
0.000250
0.000249
0.000260
0.000332
0.000484
0.000411
0.000327
0.000302
0.000238
0.000263
0.001707
0.000397
0.000639
0.000584
0.000244
0.000258
0.000310
0.000159
0.000055
0.000194
0.000234
0.000323
0.000255
0.000279
0.000335
0.000441
0.000310
0.000233
0.000528
0.000239
0.000240
0.000267
0.000275
0.000274
0.000262
0.000215
0.000334
0.000456
0.000470
0.000261
0.000232
0.000258
0.000252
0.000260
0.000267
0.000246
0.000255
0.000259
0.000324
0.000147
0.000055
0.000405
0.000253
0.000235
0.000260
0.000244
0.000261
0.000237
0.000289
0.000243
0.000249
0.000257
0.000357
0.000439
0.000389
0.000379
0.000225
0.000229
0.000234
0.000258
0.000271
0.000285
0.000259
0.000235
0.000258
0.000279
0.000342
0.000400
0.000377
0.000327
0.000246
0.000175
0.000056
0.000216
0.000227
0.000277
0.000244
0.000239
0.000255
0.000253
0.000260
0.000486
0.000215
0.000274
0.000236
0.000249
0.000261
0.000274
0.000273
0.000260
0.000352
0.000229
0.000243
0.000250
0.000265
0.000254
0.000270
0.000277
0.000279
0.000248
0.000254
0.000517
0.000242
0.000150
0.000055
0.000203
0.000245
0.000261
0.000251
0.000218
0.000244
0.000373
0.000409
0.000234
0.000234
0.000248
0.000256
0.000236
0.000254
0.000537
0.001698
0.000233
0.000263
0.000284
0.000392
0.000362
0.000349
0.000362
0.000434
0.000349
0.000414
0.000241
0.000268
0.000268
0.000276
0.001391
0.000056
0.000385
0.000259
0.000280
0.000219
0.000239
0.000247
0.000234
0.000259
0.000243
0.000269
0.000243
0.000256
0.000257
0.000253
0.000608
0.001650
0.000207
0.000218
0.000244
0.000265
0.000232
0.000286
0.000409
0.000361
0.000247
0.000359
0.000233
0.000262
0.000278
0.000261
0.000194
0.000056
0.001231
0.000500
0.000346
0.000260
0.000249
0.000213
0.000236
0.000240
0.000497
0.000209
0.000241
0.000249
0.000409
0.000516
0.000341
0.000347
0.000237
0.000243
0.000343
0.000355
0.000264
0.000259
0.000266
0.000264
0.000249
0.000579
0.000572
0.000250
0.000250
0.000266
0.000166
0.000056
0.000208
0.000232
0.000257
0.000224
0.001460
0.000308
0.000227
0.000255
0.000238
0.000248
0.000253
0.000258
0.000241
0.000280
0.000253
0.000334
0.000423
0.000615
0.000269
0.001769
0.000254
0.000257
0.000284
0.000506
0.000485
0.000402
0.000255
0.000248
0.000262
0.000266
0.000193
0.000055
0.000218
0.000252
0.000235
0.000333
0.001243
0.000222
0.000266
0.000266
0.000234
0.000242
0.000235
0.000246
0.000278
0.000250
0.000254
0.000291
0.000525
0.000351
0.000326
0.000262
0.000267
0.000272
0.000248
0.000237
0.000283
0.000267
0.000241
0.000284
0.000271
0.000386
0.000526
0.000056
0.000210
0.000242
0.000242
0.000260
0.000280
0.000228
0.000229
0.000262
0.000269
0.000253
0.001438
0.000225
0.000241
0.000249
0.000244
0.000248
0.000263
0.000264
0.000262
0.000268
0.000295
0.000472
0.000432
0.000393
0.000237
0.000278
0.001753
0.000261
0.000261
0.000319
0.000449
0.000056
0.000208
0.000414
0.000425
0.000501
0.000515
0.000551
0.001495
0.000407
0.000519
0.000652
0.000555
0.000747
0.000462
0.000610
0.000578
0.001907
0.000389
0.000440
0.000401
0.000316
0.000234
0.000291
0.000250
0.000271
0.000266
0.000279
0.000294
0.000282
0.000280
0.000274
0.001376
0.000055
0.000224
0.000226
0.000245
0.000242
0.000251
0.000258
0.000238
0.000239
0.000251
0.000253
0.000244
0.000237
0.000255
0.000259
0.000264
0.000269
0.001801
0.000305
0.000218
0.000245
0.000259
0.000260
0.000279
0.000264
0.000484
0.000366
0.000333
0.000236
0.000268
0.000270
0.000212
0.000057
0.000186
0.001365
0.000325
0.000259
0.000260
0.000242
0.000243
0.000236
0.000234
0.000236
0.000223
0.000242
0.000239
0.000511
0.000365
0.000281
0.000266
0.000260
0.001936
0.000217
0.000256
0.000261
0.000251
0.000267
0.000271
0.000284
0.000269
0.000255
0.000268
0.000320
0.000200
0.000056
0.000218
0.000245
0.000251
0.001441
0.000206
0.000251
0.000256
0.000247
0.000234
0.000268
0.000249
0.000248
0.000248
0.000281
0.000240
0.000248
0.000265
0.000265
0.000267
0.000256
0.000264
0.001760
0.000307
0.001733
0.000265
0.000253
0.000280
0.000254
0.000269
0.000275
0.000202
0.000056
0.000225
0.000230
0.001347
0.000220
0.000255
0.000244
0.000263
0.000252
0.000242
0.000253
0.000248
0.000248
0.000263
0.000258
0.000258
0.000267
0.000256
0.000283
0.000305
0.000225
0.001873
0.000253
0.001820
0.000231
0.000270
0.000278
0.000228
0.000243
0.000260
0.000268
0.000192
0.000057
0.001438
0.000222
0.000226
0.000245
0.000242
0.000235
0.000369
0.000271
0.000251
0.000259
0.000251
0.000258
0.000262
0.000370
0.000420
0.000243
0.000231
0.000266
0.000276
0.000245
0.000265
0.000336
0.000233
0.000252
0.000270
0.000277
0.000276
0.000349
0.000634
0.000356
0.000198
0.000056
0.000191
0.000245
0.000261
0.000300
0.000372
0.000252
0.001699
0.000300
0.000277
0.000269
0.000259
0.000263
0.000295
0.000257
0.000284
0.000300
0.000409
0.000515
0.000368
0.000278
0.000290
0.000274
0.000260
0.000267
0.000339
0.000285
0.000228
0.000261
0.000256
0.000277
0.000447
0.000056
0.000253
0.000469
0.000275
0.000263
0.000249
0.000224
0.000235
0.000239
0.000277
0.000243
0.001512
0.000226
0.000222
0.000250
0.000247
0.000288
0.000271
0.000238
0.000266
0.000268
0.000273
0.000428
0.000498
0.000293
0.000264
0.000294
0.000263
0.000259
0.000237
0.000308
0.000164
0.000056
0.000202
0.000232
0.000265
0.000480
0.000393
0.000252
0.000222
0.000249
0.000253
0.000248
0.000235
0.000254
0.000254
0.000266
0.000245
0.000249
0.000430
0.001162
0.000239
0.000253
0.000271
0.000257
0.000354
0.000409
0.000268
0.000321
0.000565
0.000361
0.000382
0.000233
0.000184
0.000056
0.000228
0.000245
0.000259
0.000266
0.000255
0.000241
0.000368
0.000368
0.000442
0.000295
0.000364
0.000391
0.000383
0.000360
0.000248
0.000260
0.000235
0.000271
0.000349
0.001473
0.000289
0.000227
0.000273
0.000274
0.000232
0.000243
0.000260
0.000320
0.000416
0.000442
0.000248
0.000056
0.000214
0.000238
0.000252
0.000236
0.000245
0.000272
0.000216
0.000260
0.000306
0.000410
0.000409
0.000327
0.000269
0.000218
0.000249
0.000254
0.000250
0.000260
0.000264
0.000252
0.000443
0.000263
0.000391
0.000413
0.000287
0.000263
0.000268
0.000274
0.000243
0.000346
0.000147
0.000057
0.000316
0.000322
0.000358
0.000453
0.000311
0.000349
0.000255
0.000249
0.000243
0.000277
0.000254
0.000261
0.000233
0.000256
0.000242
0.000231
0.000268
0.000369
0.000527
0.000309
0.000221
0.000273
0.000247
0.000247
0.000264
0.000280
0.000272
0.000260
0.000283
0.000258
0.000272
0.000056
0.000383
0.000237
0.000239
0.000248
0.000241
0.000251
0.000241
0.000250
0.000271
0.000257
0.000253
0.000233
0.000299
0.000481
0.000430
0.000312
0.000227
0.000251
0.000253
0.000265
0.000254
0.000263
0.000262
0.000266
0.000270
0.000376
0.000358
0.000588
0.000413
0.000244
0.000174
0.000056
0.000397
0.000218
0.000217
0.000247
0.000250
0.000245
0.000239
0.000256
0.000255
0.000256
0.000223
0.000260
0.000257
0.000224
0.000249
0.000263
0.000253
0.000281
0.000258
0.000255
0.000266
0.000258
0.000268
0.000261
0.000266
0.000239
0.000264
0.000280
0.000255
0.000277
0.000198
0.000056
0.000194
0.000236
0.000245
0.000251
0.000227
0.000257
0.000263
0.000240
0.000258
0.000278
0.000226
0.000233
0.000262
0.000402
0.000252
0.000277
0.000259
0.000266
0.000257
0.000299
0.000256
0.000235
0.000244
0.000252
0.000275
0.000288
0.000238
0.000242
0.000279
0.000254
0.000205
0.000055
0.000250
0.000332
0.000367
0.000276
0.000304
0.000259
0.000276
0.000244
0.000233
0.000241
0.000249
0.000262
0.000250
0.000237
0.000275
0.000240
0.000261
0.000275
0.000239
0.000266
0.000274
0.000259
0.000284
0.000255
0.000272
0.000249
0.000263
0.000264
0.000268
0.000264
0.000192
0.000055
0.000217
0.000230
0.000265
0.000261
0.000489
0.000209
0.000212
0.000250
0.000273
0.000517
0.000430
0.000284
0.000222
0.000256
0.000274
0.000255
0.000237
0.000270
0.000257
0.000271
0.000288
0.000233
0.000262
0.000279
0.000646
0.000354
0.000300
0.000319
0.000240
0.000262
0.000191
0.000056
0.000184
0.000218
0.000253
0.000247
0.000299
0.000651
0.000339
0.000374
0.000211
0.000248
0.000249
0.000255
0.000251
0.000249
0.000257
0.000283
0.000248
0.000270
0.000660
0.000380
0.000263
0.000247
0.000257
0.000281
0.000283
0.000255
0.000264
0.000268
0.000262
0.000326
0.000506
0.000056
0.000213
0.000230
0.000242
0.000238
0.000252
0.000253
0.000227
0.000250
0.000243
0.000262
0.000242
0.000250
0.000252
0.000452
0.000505
0.000385
0.000247
0.000262
0.000262
0.000246
0.000267
0.000269
0.000493
0.000219
0.000267
0.000580
0.000402
0.000510
0.000254
0.000256
0.000182
0.000056
0.000221
0.000227
0.000249
0.000237
0.000269
0.000248
0.000298
0.000450
0.000587
0.000409
0.000221
0.000261
0.000278
0.000273
0.000257
0.000248
0.000234
0.000258
0.000260
0.000362
0.000351
0.000657
0.000361
0.000261
0.000363
0.000367
0.000491
0.000238
0.000267
0.000480
0.000335
0.000056
0.000265
0.000236
0.000432
0.000228
0.000227
0.000257
0.000259
0.000260
0.000232
0.000242
0.000369
0.000288
0.000360
0.000344
0.000249
0.000232
0.000259
0.000253
0.000263
0.000274
0.000276
0.000248
0.000260
0.000267
0.000328
0.000455
0.000503
0.000237
0.000261
0.000268
0.000194
0.000056
0.000197
0.000252
0.000229
0.000243
0.000248
0.000391
0.000246
0.000430
0.000407
0.000272
0.000361
0.000230
0.000244
0.000268
0.000255
0.000235
0.000258
0.000259
0.000288
0.000384
0.000545
0.000285
0.000477
0.000281
0.000430
0.000386
0.000376
0.000230
0.000258
0.000281
0.000440
0.000056
0.000194
0.000269
0.000222
0.000258
0.000258
0.000254
0.000252
0.000243
0.000254
0.000260
0.000236
0.000307
0.000501
0.000372
0.000382
0.000222
0.000264
0.000265
0.000270
0.000233
0.000247
0.000254
0.000267
0.000275
0.000278
0.000315
0.000510
0.000465
0.000240
0.000281
0.000189
0.000056
0.000206
0.000244
0.000265
0.000257
0.000243
0.000332
0.000525
0.000468
0.000342
0.000687
0.000268
0.000214
0.000241
0.000267
0.000244
0.000266
0.000278
0.000271
0.000504
0.000399
0.001503
0.000309
0.000257
0.000265
0.000292
0.000268
0.000370
0.000425
0.000353
0.000334
0.000174
0.000056
0.000195
0.000230
0.000246
0.000246
0.000240
0.000258
0.000275
0.000247
0.000248
0.000341
0.000329
0.000383
0.000268
0.000358
0.000369
0.000340
0.000236
0.000262
0.000268
0.000260
0.000238
0.000253
0.000282
0.000246
0.000315
0.000437
0.000430
0.000307
0.000248
0.000264
0.000192
0.000056
0.000182
0.000243
0.000257
0.000254
0.000243
0.000237
0.000470
0.000211
0.000236
0.000257
0.000246
0.000253
0.000260
0.000253
0.000250
0.000270
0.000260
0.000267
0.000271
0.000256
0.000260
0.000289
0.000293
0.000245
0.000266
0.000281
0.000274
0.000256
0.000261
0.000273
0.000176
0.000056
0.000187
0.000253
0.000291
0.000455
0.000343
0.000256
0.000233
0.000244
0.000259
0.000254
0.000242
0.000259
0.000280
0.000249
0.000231
0.000245
0.000244
0.000267
0.000301
0.000331
0.000447
0.000376
0.000238
0.000263
0.000266
0.000250
0.000277
0.000244
0.000273
0.000276
0.000198
0.000056
0.000348
0.000443
0.000362
0.000217
0.000257
0.000252
0.000411
0.000221
0.000233
0.000257
0.000253
0.000335
0.000310
0.000457
0.001853
0.000247
0.000245
0.000251
0.000277
0.000245
0.000289
0.000548
0.000635
0.000225
0.000222
0.000260
0.000277
0.000429
0.000279
0.000274
0.000165
0.000055
0.000196
0.000363
0.000312
0.000336
0.000497
0.000204
0.000241
0.000250
0.000251
0.000243
0.000280
0.000225
0.000260
0.000329
0.000446
0.000436
0.000214
0.000249
0.000263
0.000259
0.000260
0.000317
0.000226
0.000287
0.000282
0.000542
0.000425
0.000449
0.000384
0.000242
0.000208
0.000056
0.000213
0.000240
0.000250
0.000227
0.000253
0.000251
0.000271
0.000266
0.000350
0.000477
0.000323
0.000360
0.000210
0.000250
0.000274
0.000278
0.000297
0.000245
0.000292
0.000258
0.000233
0.000334
0.000484
0.000334
0.000274
0.000280
0.000247
0.000437
0.000414
0.000316
0.000177
0.000056
0.000198
0.000288
0.000404
0.000287
0.000401
0.000200
0.000242
0.000256
0.000263
0.000247
0.000263
0.000254
0.000229
0.000260
0.000254
0.000308
0.000386
0.000358
0.000296
0.000330
0.000502
0.000229
0.000277
0.000283
0.000299
0.000279
0.000257
0.000262
0.000524
0.000418
0.000241
0.000056
0.000199
0.000231
0.000246
0.000251
0.000237
0.000479
0.000216
0.000255
0.000269
0.000402
0.000397
0.000605
0.000208
0.000245
0.000242
0.000253
0.000254
0.000247
0.000262
0.000249
0.000260
0.000268
0.000353
0.000440
0.000366
0.000405
0.000277
0.000341
0.000275
0.000259
0.000182
0.000057
0.000209
0.000233
0.000264
0.000478
0.000340
0.000274
0.000269
0.000248
0.000213
0.000263
0.000249
0.000250
0.000250
0.000267
0.000246
0.000262
0.000247
0.000245
0.000273
0.000398
0.000523
0.000374
0.000216
0.000247
0.000283
0.000276
0.000259
0.000261
0.000263
0.000265
0.000190
0.000056
0.000298
0.000348
0.000476
0.000247
0.000207
0.000258
0.000331
0.000450
0.000283
0.000209
0.000247
0.000272
0.000249
0.000491
0.000389
0.000311
0.000207
0.000245
0.000259
0.000266
0.000268
0.000260
0.000263
0.000272
0.000267
0.000296
0.000395
0.000442
0.000283
0.000253
0.000180
0.000057
0.000201
0.000245
0.000245
0.000252
0.000249
0.000262
0.000233
0.000256
0.000271
0.000228
0.000267
0.000238
0.000263
0.001455
0.000228
0.000260
0.000256
0.000243
0.000279
0.000277
0.000261
0.000238
0.000269
0.000260
0.000268
0.000286
0.000252
0.000275
0.000255
0.000274
0.000194
0.000055
0.000197
0.000233
0.000255
0.000248
0.000235
0.000244
0.000260
0.000259
0.000229
0.000269
0.000230
0.000263
0.000254
0.000253
0.000252
0.000269
0.000237
0.000266
0.000273
0.000251
0.000257
0.000258
0.000246
0.000257
0.001288
0.000283
0.000615
0.000401
0.000315
0.000251
0.000192
0.000056
0.000194
0.000238
0.000246
0.000249
0.000420
0.000232
0.000240
0.000241
0.000258
0.000416
0.000429
0.000302
0.000234
0.000235
0.000266
0.000257
0.000278
0.000244
0.000244
0.000260
0.000258
0.000255
0.000327
0.000395
0.000481
0.000443
0.000220
0.000270
0.001371
0.000240
0.000179
0.000055
0.000288
0.000425
0.000316
0.000274
0.000214
0.000230
0.000237
0.000243
0.000261
0.000253
0.000247
0.000262
0.000284
0.000288
0.000640
0.000280
0.000322
0.000227
0.000256
0.000253
0.000267
0.000261
0.000272
0.000267
0.000265
0.000269
0.000417
0.000513
0.000328
0.000372
0.000138
0.000055
0.000206
0.000233
0.001261
0.000427
0.000306
0.000504
0.000318
0.000485
0.000289
0.000336
0.000228
0.000220
0.000265
0.000252
0.000250
0.000267
0.000304
0.000565
0.000357
0.000374
0.000252
0.000252
0.000253
0.000508
0.000245
0.000253
0.000255
0.000282
0.000287
0.000588
0.000261
0.000056
0.000383
0.000331
0.000191
0.000235
0.001620
0.000396
0.000309
0.000244
0.000255
0.000245
0.000234
0.000238
0.000243
0.000271
0.000249
0.000258
0.000240
0.000309
0.000434
0.000319
0.000454
0.000246
0.000255
0.000254
0.000257
0.000273
0.000271
0.000238
0.000282
0.000262
0.000233
0.000056
0.000372
0.000342
0.000222
0.000234
0.000251
0.000246
0.000263
0.000231
0.000229
0.000229
0.001454
0.000426
0.000274
0.000248
0.000234
0.000253
0.000275
0.000261
0.000236
0.000270
0.000278
0.000269
0.000240
0.000435
0.000386
0.000466
0.000234
0.000267
0.000274
0.000286
0.000168
0.000056
0.000214
0.000413
0.000214
0.000251
0.000315
0.000456
0.000374
0.000318
0.000464
0.000206
0.000229
0.000255
0.000263
0.000263
0.000258
0.001460
0.000319
0.000279
0.000245
0.000271
0.000284
0.000242
0.000252
0.000253
0.000263
0.000272
0.000484
0.000404
0.000296
0.000273
0.000159
0.000055
0.000219
0.000235
0.000247
0.000240
0.000232
0.000256
0.000243
0.000245
0.000275
0.000412
0.000401
0.000281
0.000265
0.000239
0.000243
0.000276
0.000275
0.000255
0.000275
0.000225
0.000252
0.000336
0.001241
0.000258
0.000257
0.000242
0.000265
0.000263
0.000267
0.000248
0.000191
0.000056
0.000225
0.000349
0.000352
0.000337
0.000256
0.000239
0.000259
0.000259
0.000255
0.000256
0.000250
0.000270
0.000243
0.000251
0.000256
0.000262
0.000269
0.000272
0.000261
0.000248
0.000253
0.000269
0.000270
0.000281
0.000286
0.000266
0.000271
0.000255
0.000263
0.000442
0.001368
0.000056
0.000208
0.000236
0.000234
0.000245
0.000251
0.000260
0.000248
0.000224
0.000250
0.000249
0.000273
0.000258
0.000251
0.000241
0.000247
0.000244
0.001731
0.000264
0.000239
0.000260
0.000245
0.000260
0.000271
0.000259
0.000273
0.000259
0.000269
0.000279
0.000271
0.000254
0.000226
0.000056
0.000311
0.000351
0.001251
0.000227
0.000228
0.000264
0.000239
0.000251
0.000256
0.000255
0.000237
0.000350
0.000419
0.000447
0.000247
0.000228
0.000248
0.000252
0.000264
0.000257
0.000249
0.000271
0.000266
0.000279
0.000268
0.000449
0.000302
0.000382
0.000303
0.000246
0.000188
0.000056
0.000226
0.000247
0.000240
0.000250
0.000254
0.000217
0.000244
0.000254
0.000462
0.001307
0.000257
0.000212
0.000250
0.000273
0.000251
0.000271
0.000259
0.000249
0.000320
0.000415
0.000412
0.000234
0.000233
0.000247
0.000278
0.000285
0.000259
0.000293
0.000273
0.000273
0.000191
0.000057
0.000186
0.000436
0.000395
0.000220
0.000234
0.000238
0.000243
0.000278
0.000265
0.000247
0.000235
0.000249
0.000452
0.000548
0.000436
0.001449
0.000245
0.000276
0.000323
0.000345
0.000483
0.000419
0.000463
0.000403
0.000232
0.000266
0.000265
0.000275
0.000261
0.000277
0.000195
0.000056
0.000210
0.000289
0.000500
0.000376
0.000372
0.000252
0.000230
0.000227
0.000252
0.000260
0.000251
0.000265
0.000266
0.000238
0.000271
0.000294
0.000399
0.000402
0.000359
0.001327
0.000265
0.000255
0.000251
0.000265
0.000439
0.000482
0.000350
0.000265
0.000273
0.000275
0.000186
0.000056
0.000191
0.000242
0.000246
0.000241
0.000246
0.000277
0.000455
0.000376
0.000373
0.000228
0.000237
0.000263
0.000267
0.000260
0.000261
0.000261
0.000265
0.000256
0.000264
0.000306
0.000437
0.000416
0.000334
0.001348
0.000416
0.000236
0.000271
0.000400
0.000493
0.000313
0.000327
0.000056
0.000208
0.000247
0.000234
0.000244
0.000252
0.000251
0.001692
0.000227
0.000218
0.000242
0.000256
0.000248
0.000259
0.000330
0.000322
0.000283
0.000286
0.000340
0.000466
0.000390
0.000310
0.000283
0.000227
0.001421
0.000340
0.000389
0.000405
0.000431
0.000320
0.000291
0.000165
0.000056
0.000230
0.000247
0.000251
0.000260
0.000244
0.000256
0.001709
0.000250
0.000229
0.000269
0.000328
0.000420
0.001424
0.000353
0.000400
0.000243
0.000262
0.000238
0.000265
0.000274
0.001577
0.000533
0.000373
0.000295
0.000250
0.000248
0.000261
0.000275
0.000257
0.000245
0.000194
0.000055
0.000215
0.000228
0.000271
0.000241
0.000260
0.000305
0.000252
0.000269
0.000241
0.000253
0.000257
0.000242
0.000265
0.000287
0.000229
0.001499
0.000278
0.000233
0.000269
0.000276
0.000272
0.000275
0.000418
0.001259
0.000271
0.000245
0.000271
0.000253
0.000401
0.000246
0.000196
0.000056
0.000203
0.000250
0.000223
0.000247
0.000237
0.000240
0.000233
0.001683
0.000253
0.000219
0.000264
0.000363
0.000229
0.000225
0.000253
0.001379
0.000241
0.000264
0.000269
0.000242
0.000258
0.000356
0.000273
0.001306
0.000283
0.000251
0.000256
0.000262
0.001387
0.000264
0.000194
0.000055
0.000298
0.000300
0.000205
0.000240
0.000251
0.000242
0.000264
0.000287
0.000247
0.000245
0.000261
0.000264
0.000256
0.000248
0.000314
0.001489
0.000251
0.000273
0.000256
0.000241
0.000284
0.000263
0.000258
0.001479
0.000366
0.000237
0.000272
0.001266
0.000271
0.000244
0.000250
0.000056
0.000181
0.000409
0.000314
0.000214
0.000239
0.000236
0.000266
0.000257
0.000262
0.000273
0.000237
0.000253
0.000263
0.000269
0.000417
0.001219
0.000225
0.000255
0.000276
0.000273
0.000227
0.000246
0.000244
0.000361
0.001245
0.000250
0.000245
0.000261
0.000258
0.001342
0.000318
0.000057
0.000258
0.000259
0.000234
0.000232
0.000244
0.000251
0.000244
0.000249
0.000279
0.000248
0.000242
0.000250
0.000270
0.000328
0.000404
0.001464
0.000221
0.000248
0.000298
0.000508
0.000284
0.000356
0.001388
0.000294
0.000246
0.000270
0.000252
0.001305
0.000299
0.000515
0.000321
0.000056
0.000225
0.000245
0.000260
0.000254
0.000257
0.000249
0.000271
0.000249
0.000265
0.000261
0.000330
0.000466
0.001321
0.000240
0.000260
0.000258
0.000287
0.000228
0.000246
0.000236
0.000356
0.001221
0.000256
0.000253
0.000249
0.000255
0.001418
0.000519
0.000509
0.000193
0.000191
0.000055
0.000213
0.000229
0.000248
0.000236
0.000256
0.000264
0.000243
0.000267
0.000532
0.000374
0.000259
0.001501
0.000219
0.000236
0.000269
0.000245
0.000263
0.000419
0.001557
0.000272
0.000396
0.000317
0.001237
0.000419
0.000307
0.000304
0.000262
0.000260
0.000265
0.000269
0.000189
0.000055
0.000212
0.000237
0.000331
0.000255
0.000315
0.000548
0.000268
0.000292
0.001470
0.000243
0.000379
0.000264
0.000228
0.000301
0.000394
0.001312
0.000272
0.000245
0.000240
0.000259
0.001644
0.000255
0.000307
0.000244
0.000269
0.000251
0.000458
0.000337
0.000226
0.000254
0.000259
0.000055
0.000292
0.000323
0.000385
0.000218
0.000226
0.001523
0.000210
0.000252
0.000267
0.000270
0.000265
0.000247
0.000287
0.001496
0.000257
0.000226
0.000434
0.001191
0.000479
0.000288
0.000419
0.000238
0.000239
0.000254
0.000279
0.000245
0.000443
0.000241
0.000258
0.000277
0.000200
0.000056
0.000206
0.000232
0.000420
0.000309
0.001309
0.000283
0.000308
0.000237
0.000250
0.000240
0.000247
0.000305
0.001504
0.000270
0.000218
0.000253
0.001376
0.000309
0.000428
0.000408
0.000379
0.000233
0.000253
0.000272
0.000244
0.000278
0.000274
0.000257
0.000270
0.000244
0.000194
0.000056
0.000253
0.000375
0.001457
0.000211
0.000271
0.000274
0.000239
0.000250
0.000266
0.000370
0.001405
0.000218
0.000248
0.000257
0.000270
0.001283
0.000713
0.000272
0.000326
0.000406
0.000280
0.000258
0.000264
0.000257
0.000272
0.000289
0.000270
0.000290
0.000512
0.000361
0.001387
0.000056
0.000198
0.000250
0.000243
0.000222
0.000256
0.000397
0.000538
0.001250
0.000243
0.000246
0.000248
0.001377
0.000542
0.000275
0.000220
0.000405
0.000253
0.000251
0.000259
0.000278
0.000241
0.000271
0.000277
0.000256
0.000254
0.000275
0.000432
0.000528
0.001470
0.000220
0.000198
0.000055
0.000201
0.000254
0.000469
0.000506
0.001151
0.000278
0.000255
0.000259
0.000247
0.000253
0.000250
0.000274
0.000365
0.000464
0.000356
0.000238
0.000253
0.000271
0.000244
0.000279
0.000253
0.000272
0.000261
0.000279
0.000237
0.000395
0.000474
0.000360
0.000318
0.001406
0.000191
0.000055
0.000206
0.000242
0.000276
0.000464
0.000387
0.000244
0.000319
0.000332
0.000269
0.000271
0.000247
0.000261
0.000255
0.000308
0.000232
0.000259
0.000629
0.000272
0.000296
0.000385
0.000275
0.000406
0.000223
0.000268
0.000247
0.000262
0.000249
0.000300
0.000442
0.000414
0.000285
0.000071
0.000196
0.001407
0.000235
0.000334
0.000404
0.000454
0.000328
0.000329
0.000223
0.000238
0.000265
0.000247
0.000262
0.000272
0.000260
0.000254
0.000263
0.001305
0.000314
0.000253
0.000258
0.000270
0.000273
0.000277
0.000273
0.000250
0.000275
0.000247
0.000302
0.000428
0.000359
0.000056
0.000213
0.000261
0.000219
0.001488
0.000331
0.000233
0.000238
0.000248
0.000226
0.000250
0.000248
0.000275
0.000248
0.000255
0.000288
0.000231
0.000247
0.000267
0.000265
0.000260
0.001426
0.000239
0.000242
0.000273
0.000260
0.000247
0.000268
0.000263
0.000278
0.000486
0.000343
0.000055
0.000204
0.000230
0.000393
0.000279
0.000249
0.000258
0.001576
0.000356
0.000240
0.000225
0.000262
0.000307
0.000331
0.000233
0.000233
0.000247
0.000246
0.000263
0.000262
0.000256
0.000550
0.000409
0.001147
0.000272
0.000247
0.000256
0.000270
0.000265
0.000261
0.000263
0.000348
0.000056
0.000263
0.000312
0.000216
0.000231
0.000251
0.000245
0.000242
0.000230
0.000290
0.001581
0.000386
0.000288
0.000241
0.000254
0.000256
0.000245
0.000262
0.000272
0.000279
0.000294
0.000304
0.000541
0.000398
0.001360
0.000244
0.000260
0.000275
0.000260
0.000269
0.000358
0.000400
0.000055
0.000270
0.000243
0.000233
0.000240
0.000231
0.000238
0.000261
0.000250
0.000269
0.001566
0.000357
0.000257
0.000265
0.000257
0.000462
0.000265
0.000523
0.000376
0.000297
0.000340
0.000430
0.000525
0.001204
0.000266
0.000236
0.000257
0.001705
0.000474
0.000590
0.000325
0.000144
0.000055
0.000214
0.000238
0.000231
0.000237
0.000256
0.000239
0.000249
0.000514
0.000506
0.000391
0.000297
0.000216
0.000242
0.000263
0.000287
0.000240
0.000249
0.000251
0.000254
0.000271
0.000320
0.000491
0.001220
0.000228
0.000251
0.000274
0.001894
0.000382
0.000375
0.000359
0.000150
0.000056
0.000251
0.000253
0.000232
0.001635
0.000357
0.000212
0.000238
0.000261
0.000255
0.000289
0.000379
0.000368
0.000360
0.000272
0.000274
0.000617
0.000316
0.001201
0.000275
0.000226
0.000260
0.000258
0.000272
0.000408
0.000625
0.000445
0.000263
0.000266
0.000263
0.000282
0.000196
0.000055
0.000190
0.000233
0.000239
0.001528
0.000262
0.000258
0.000223
0.000249
0.000245
0.000252
0.000256
0.000269
0.000266
0.000272
0.000278
0.000395
0.000440
0.000315
0.001371
0.000237
0.000260
0.000279
0.000239
0.000270
0.000393
0.000463
0.000442
0.000278
0.000277
0.000233
0.000442
0.000055
0.000203
0.000239
0.000256
0.001518
0.000316
0.000224
0.000289
0.000222
0.000255
0.000254
0.000251
0.000252
0.000262
0.000266
0.000357
0.000525
0.001404
0.000748
0.000260
0.000337
0.000258
0.000235
0.000244
0.000277
0.001678
0.000801
0.000232
0.000264
0.000281
0.000284
0.000191
0.000055
0.000202
0.000227
0.000257
0.000240
0.000259
0.000242
0.000243
0.000258
0.000241
0.000231
0.000287
0.000283
0.000253
0.000248
0.000266
0.000244
0.000276
0.001594
0.000699
0.000398
0.000302
0.000227
0.000246
0.000281
0.000263
0.000258
0.000277
0.000255
0.001385
0.000400
0.000293
0.000056
0.000196
0.000232
0.000248
0.000249
0.000264
0.000234
0.000257
0.000245
0.000255
0.000264
0.000278
0.000478
0.000376
0.000335
0.000214
0.000245
0.000266
0.001389
0.000685
0.000474
0.000356
0.000261
0.000230
0.000248
0.000273
0.000247
0.000264
0.000271
0.001496
0.000432
0.000190
0.000056
0.000182
0.000231
0.000245
0.000245
0.000249
0.000250
0.000237
0.000251
0.000273
0.000273
0.000387
0.000318
0.000360
0.000220
0.000238
0.000249
0.000265
0.000257
0.001568
0.000666
0.000432
0.000323
0.000219
0.000263
0.000260
0.000260
0.000267
0.000280
0.000266
0.001356
0.000336
0.000056
0.000215
0.000213
0.000235
0.000254
0.000256
0.000245
0.000265
0.000293
0.000363
0.000499
0.000300
0.000380
0.000370
0.000244
0.000225
0.000251
0.000279
0.000253
0.000269
0.001899
0.000347
0.000247
0.000445
0.000246
0.000241
0.000267
0.000277
0.000264
0.000259
0.000273
0.000434
0.000056
0.000223
0.000254
0.000237
0.000241
0.000254
0.000247
0.000226
0.000241
0.000268
0.000250
0.000243
0.000240
0.000358
0.000488
0.000349
0.000442
0.000228
0.000279
0.000235
0.000257
0.000250
0.000290
0.001465
0.001057
0.000223
0.000247
0.000271
0.000277
0.000261
0.000251
0.000199
0.000056
0.000211
0.001339
0.000297
0.000216
0.000233
0.000252
0.000251
0.000238
0.000241
0.000249
0.000258
0.000260
0.000245
0.000387
0.000364
0.000468
0.000265
0.000245
0.000269
0.000263
0.000270
0.000232
0.000256
0.000273
0.001308
0.000693
0.000314
0.000378
0.000425
0.000356
0.000294
0.000057
0.000209
0.000244
0.001415
0.000255
0.000217
0.000251
0.000231
0.000258
0.000260
0.000251
0.000245
0.000253
0.000290
0.000330
0.000590
0.000282
0.000224
0.000275
0.000337
0.000230
0.000233
0.000273
0.000230
0.000273
0.000271
0.001535
0.000742
0.000298
0.000278
0.000274
0.000191
0.000056
0.000202
0.000291
0.000427
0.000332
0.001294
0.000235
0.000236
0.000244
0.000230
0.000247
0.000251
0.000254
0.000225
0.000242
0.000261
0.000250
0.000270
0.000237
0.000254
0.000253
0.000267
0.000268
0.000317
0.000320
0.000213
0.000266
0.000266
0.001464
0.000254
0.000249
0.000174
0.000055
0.000210
0.000251
0.000231
0.000305
0.000362
0.000337
0.000390
0.000267
0.001572
0.000231
0.000300
0.000475
0.000384
0.000222
0.000429
0.000241
0.000237
0.000263
0.000276
0.000264
0.000285
0.000264
0.000256
0.000266
0.000268
0.000411
0.000389
0.000334
0.001573
0.000223
0.000192
0.000056
0.000230
0.000239
0.000249
0.000243
0.000242
0.000251
0.000257
0.000275
0.000432
0.002054
0.000229
0.000240
0.000255
0.000259
0.000266
0.000245
0.000271
0.000258
0.000363
0.000327
0.000378
0.000448
0.001451
0.000253
0.000526
0.000235
0.001768
0.000239
0.000260
0.001530
0.000151
0.000056
0.000350
0.000463
0.000421
0.000227
0.000263
0.000225
0.000263
0.000267
0.000258
0.000229
0.000249
0.000343
0.000413
0.000346
0.000424
0.000250
0.000233
0.001564
0.000246
0.000586
0.001858
0.000285
0.000246
0.001548
0.002022
0.000728
0.000278
0.000257
0.000273
0.000504
0.000383
0.000056
0.000225
0.000243
0.000245
0.000252
0.001417
0.001729
0.001082
0.000208
0.000242
0.001576
0.001976
0.000220
0.000225
0.000427
0.000288
0.000355
0.000417
0.000502
0.000206
0.000244
0.000270
0.000235
0.000279
0.001582
0.001207
0.001437
0.000267
0.000295
0.000250
0.000321
0.000346
0.000056
0.000214
0.000232
0.000263
0.000220
0.000229
0.000240
0.000247
0.000256
0.000257
0.000250
0.000243
0.000318
0.000456
0.000448
0.000266
0.000264
0.000275
0.000247
0.000269
0.000265
0.000250
0.000269
0.001545
0.000448
0.002113
0.000228
0.000260
0.000330
0.000419
0.000416
0.000193
0.000057
0.000207
0.000396
0.000431
0.000307
0.000192
0.000230
0.000254
0.000244
0.000242
0.000242
0.000246
0.000264
0.000261
0.001611
0.001357
0.001221
0.000282
0.000231
0.000242
0.000279
0.000283
0.000280
0.000235
0.000258
0.002206
0.000252
0.000249
0.000301
0.000323
0.000305
0.000215
0.000056
0.000220
0.000365
0.000544
0.000319
0.000250
0.000224
0.000245
0.000269
0.001898
0.001424
0.000223
0.000329
0.000388
0.000407
0.000251
0.000231
0.000255
0.000268
0.000285
0.000246
0.000254
0.000265
0.000473
0.000234
0.000272
0.000264
0.000250
0.000273
0.000285
0.000247
0.000206
0.000056
0.000197
0.000272
0.000221
0.000246
0.000250
0.000271
0.001602
0.001373
0.001305
0.000254
0.000221
0.000243
0.000266
0.000263
0.000248
0.000250
0.000247
0.002107
0.000258
0.000231
0.000263
0.000266
0.000255
0.000267
0.000259
0.000258
0.000265
0.000272
0.000271
0.000248
0.000175
0.000056
0.000199
0.002692
0.001386
0.000223
0.000305
0.000296
0.000230
0.000266
0.000259
0.000241
0.000255
0.000245
0.000235
0.000251
0.000268
0.000260
0.000263
0.000277
0.000244
0.000266
0.000265
0.000288
0.000272
0.000262
0.000247
0.000243
0.000268
0.000268
0.000265
0.000267
0.000371
0.000056
0.001538
0.000245
0.001255
0.000224
0.000225
0.000237
0.000263
0.000252
0.000243
0.000307
0.000384
0.000370
0.000301
0.000217
0.000252
0.002143
0.000259
0.000231
0.000263
0.000515
0.000417
0.000264
0.000214
0.000261
0.000261
0.000250
0.000264
0.000280
0.000270
0.001603
0.001270
0.000055
0.000205
0.000229
0.000304
0.000426
0.000334
0.000267
0.000214
0.000232
0.000250
0.000257
0.000268
0.000245
0.000229
0.000255
0.000264
0.000236
0.000352
0.000651
0.000300
0.000251
0.000222
0.000276
0.000300
0.000232
0.000254
0.000249
0.000261
0.000274
0.000238
0.000375
0.000319
0.000056
0.001119
0.000235
0.000363
0.000481
0.000242
0.000229
0.000226
0.000241
0.000254
0.002367
0.000289
0.000394
0.000222
0.000370
0.000283
0.000266
0.000285
0.000231
0.000273
0.000222
0.000251
0.000329
0.000652
0.000358
0.001862
0.001328
0.000581
0.000472
0.000234
0.000269
0.000197
0.000056
0.000235
0.000343
0.000248
0.000244
0.000248
0.000226
0.000255
0.000257
0.000270
0.000234
0.000254
0.000225
0.000245
0.000264
0.000386
0.000499
0.001861
0.001330
0.000444
0.000416
0.000461
0.000245
0.000241
0.000260
0.002117
0.000567
0.000384
0.000237
0.000268
0.000284
0.000196
0.000056
0.000214
0.000240
0.000257
0.000240
0.000246
0.000338
0.000418
0.000300
0.000308
0.000248
0.000241
0.000247
0.000263
0.002168
0.000344
0.000346
0.000223
0.000252
0.000261
0.000264
0.000247
0.002494
0.000303
0.000237
0.000246
0.000256
0.000251
0.000272
0.000284
0.000288
0.000181
0.000056
0.000217
0.000345
0.000548
0.000352
0.000265
0.000232
0.000221
0.000254
0.000261
0.000248
0.001945
0.000401
0.000269
0.000301
0.000216
0.000267
0.000272
0.000243
0.002240
0.000412
0.000218
0.000272
0.000265
0.000264
0.000251
0.000253
0.000282
0.000256
0.000268
0.000255
0.000186
0.000055
0.000212
0.000243
0.000249
0.000223
0.000249
0.000256
0.000237
0.000241
0.000234
0.002183
0.000223
0.000291
0.000216
0.000421
0.000235
0.000252
0.000272
0.000291
0.000243
0.000264
0.001961
0.000296
0.000375
0.000376
0.000389
0.000407
0.000292
0.000252
0.000246
0.000262
0.000199
0.000056
0.000192
0.000244
0.000234
0.000245
0.000255
0.000321
0.000225
0.002308
0.000234
0.000237
0.000259
0.000255
0.000242
0.000246
0.000307
0.002119
0.000595
0.000227
0.000249
0.000246
0.000255
0.000260
0.000291
0.000265
0.000259
0.000257
0.000284
0.000253
0.000266
0.000265
0.000197
0.000056
0.001828
0.001443
0.000195
0.000230
0.000244
0.000255
0.000250
0.000259
0.000444
0.000363
0.002129
0.000261
0.000239
0.000266
0.000274
0.000469
0.000456
0.000276
0.000239
0.000245
0.000252
0.000264
0.000267
0.000222
0.000260
0.000266
0.000271
0.000266
0.000345
0.000682
0.000258
0.000056
0.000193
0.000252
0.000242
0.000271
0.000254
0.000266
0.000234
0.000241
0.001457
0.002142
0.000583
0.000290
0.000394
0.000693
0.000369
0.000217
0.000253
0.000251
0.000266
0.000257
0.000257
0.000241
0.000258
0.000268
0.001817
0.001480
0.000272
0.000271
0.000282
0.000357
0.000357
0.000056
0.001947
0.000221
0.000233
0.000237
0.000306
0.000436
0.000339
0.000310
0.000298
0.000213
0.000246
0.000247
0.000260
0.000259
0.000257
0.000264
0.000252
0.000267
0.001842
0.000235
0.000240
0.000251
0.000278
0.000275
0.000275
0.000255
0.001468
0.000331
0.000259
0.000244
0.000178
0.000056
0.000193
0.000241
0.000238
0.000244
0.000250
0.000240
0.000317
0.000351
0.000467
0.000261
0.000219
0.000252
0.000239
0.000404
0.000366
0.000302
0.000225
0.000251
0.000267
0.000391
0.000410
0.000444
0.000278
0.000250
0.000261
0.000253
0.000256
0.000272
0.000272
0.000263
0.000207
0.000056
0.001422
0.000429
0.000238
0.001919
0.000273
0.000452
0.000410
0.000318
0.000234
0.000245
0.000268
0.000244
0.000244
0.000246
0.000270
0.000250
0.000452
0.000287
0.000386
0.000395
0.000356
0.000227
0.000262
0.000267
0.000272
0.000268
0.000260
0.000272
0.000380
0.000457
0.001356
0.000056
0.000213
0.000226
0.002065
0.000380
0.000236
0.000260
0.000259
0.000248
0.000262
0.000262
0.000213
0.000249
0.000257
0.000261
0.000305
0.000320
0.000701
0.001764
0.000230
0.000262
0.000241
0.000279
0.000371
0.000408
0.001605
0.000281
0.000367
0.001913
0.000274
0.000254
0.000186
0.000056
0.000190
0.000231
0.000237
0.000259
0.000213
0.000249
0.000253
0.000280
0.000331
0.000279
0.000385
0.000353
0.000332
0.000308
0.000229
0.000271
0.000262
0.000241
0.000265
0.000253
0.000300
0.000290
0.000263
0.000268
0.000263
0.001508
0.000293
0.000400
0.002048
0.000241
0.000176
0.000056
0.000204
0.000241
0.000239
0.000243
0.000488
0.000199
0.000260
0.000319
0.000380
0.000317
0.000307
0.000208
0.000265
0.000263
0.000272
0.000322
0.000413
0.000441
0.000245
0.000407
0.000548
0.000476
0.001539
0.000228
0.000261
0.002005
0.000298
0.000253
0.000238
0.000292
0.000190
0.000056
0.000215
0.000245
0.000221
0.000243
0.000251
0.000269
0.000256
0.000269
0.000251
0.000257
0.001808
0.000341
0.000375
0.000310
0.000426
0.000377
0.000343
0.001500
0.000238
0.000319
0.002121
0.000520
0.000258
0.000237
0.000268
0.000266
0.000502
0.000229
0.000255
0.000276
0.000197
0.000055
0.000207
0.000350
0.000384
0.000286
0.000206
0.000245
0.000256
0.000249
0.000269
0.000291
0.000227
0.000251
0.000260
0.000262
0.000328
0.001528
0.000322
0.000207
0.000281
0.001953
0.000340
0.000266
0.000249
0.000264
0.000245
0.000282
0.000285
0.000248
0.000245
0.000266
0.000205
0.000056
0.000248
0.000458
0.001979
0.000247
0.000260
0.000220
0.000246
0.000338
0.000437
0.000389
0.001311
0.000430
0.000296
0.002084
0.000212
0.000238
0.000266
0.000278
0.000256
0.000246
0.000281
0.000293
0.000259
0.000489
0.000385
0.000345
0.000308
0.002227
0.000555
0.000389
0.000413
0.000056
0.000192
0.000232
0.000243
0.001963
0.000236
0.000227
0.000244
0.000237
0.000243
0.000258
0.000245
0.000264
0.000241
0.000319
0.000462
0.001423
0.000237
0.000250
0.000263
0.000261
0.000237
0.000268
0.000247
0.000295
0.000287
0.000549
0.000385
0.000245
0.001592
0.000286
0.000159
0.000056
0.000211
0.000217
0.000245
0.000233
0.000250
0.000251
0.000253
0.000255
0.000248
0.000377
0.000379
0.001404
0.000242
0.000214
0.000250
0.000264
0.000252
0.000254
0.000495
0.000296
0.000570
0.000274
0.000226
0.001574
0.000230
0.000275
0.000271
0.000280
0.000265
0.000270
0.000191
0.000056
0.000210
0.000228
0.000264
0.000270
0.000247
0.000243
0.000240
0.000239
0.000288
0.000211
0.000253
0.000255
0.000253
0.001490
0.000360
0.000208
0.000250
0.000266
0.000310
0.000283
0.000423
0.000226
0.000239
0.000261
0.000260
0.000265
0.000259
0.001416
0.000282
0.000233
0.000169
0.000056
0.000202
0.000225
0.000264
0.000259
0.000254
0.000235
0.000252
0.000261
0.000222
0.000261
0.000241
0.000261
0.000227
0.000358
0.000308
0.000339
0.000295
0.000243
0.001634
0.000241
0.000240
0.000261
0.000266
0.000290
0.000422
0.000337
0.000453
0.000255
0.000256
0.001610
0.000165
0.000069
0.000324
0.000354
0.000330
0.000316
0.000229
0.000220
0.000242
0.000274
0.000258
0.000234
0.000243
0.000241
0.001490
0.000324
0.000245
0.000236
0.000239
0.000255
0.000271
0.000265
0.000257
0.000239
0.000256
0.000274
0.000250
0.000344
0.000467
0.000425
0.000221
0.000254
0.000198
0.000055
0.000214
0.000287
0.000451
0.000304
0.000349
0.000278
0.000253
0.000247
0.000249
0.000261
0.000240
0.000227
0.000260
0.000246
0.001286
0.000253
0.000251
0.000248
0.000270
0.000266
0.000238
0.000265
0.000258
0.000257
0.000256
0.000255
0.000354
0.000694
0.000395
0.000235
0.000183
0.000055
0.000196
0.001564
0.000270
0.000332
0.000427
0.000377
0.000222
0.000255
0.000268
0.000259
0.000237
0.000263
0.000265
0.000268
0.000266
0.001527
0.000247
0.000287
0.000265
0.000258
0.000258
0.000254
0.000262
0.000264
0.000257
0.000300
0.000505
0.000280
0.000338
0.000244
0.000190
0.000055
0.000224
0.000247
0.000236
0.001682
0.000373
0.000326
0.000227
0.000241
0.000252
0.000269
0.000276
0.000256
0.000247
0.000260
0.000240
0.000276
0.000341
0.001376
0.000241
0.000246
0.001487
0.000370
0.000522
0.000388
0.000337
0.000241
0.000268
0.000462
0.000236
0.000261
0.000188
0.000056
0.000278
0.000236
0.000241
0.000248
0.000248
0.000252
0.000238
0.000258
0.000259
0.000238
0.000249
0.000268
0.000324
0.000507
0.001637
0.001498
0.000357
0.000537
0.000335
0.000240
0.000217
0.000260
0.000243
0.000270
0.000253
0.000267
0.000255
0.000268
0.001520
0.000340
0.000152
0.000056
0.000184
0.000360
0.000353
0.000325
0.000239
0.000219
0.000244
0.000411
0.000367
0.000372
0.002169
0.000319
0.000740
0.000708
0.000219
0.000291
0.000313
0.000400
0.000320
0.000276
0.000390
0.000244
0.001819
0.000282
0.000206
0.000258
0.000259
0.000253
0.000270
0.000267
0.000193
0.000055
0.000214
0.000249
0.000254
0.000253
0.000243
0.001664
0.000873
0.000991
0.000211
0.000241
0.000257
0.000256
0.000263
0.000259
0.000254
0.000249
0.000255
0.000260
0.000269
0.000280
0.001428
0.000315
0.000253
0.000230
0.000236
0.000278
0.000245
0.000283
0.000260
0.000288
0.001900
0.000056
0.000196
0.000231
0.001548
0.000955
0.000276
0.000366
0.000237
0.000247
0.000230
0.000255
0.000246
0.000251
0.000255
0.001972
0.000472
0.000230
0.000242
0.000254
0.000266
0.000260
0.000196
