0.000087
0.019384
0.002137
0.000299
0.000246
0.000304
0.000321
0.000230
0.000327
0.000293
0.000243
0.000330
0.000532
0.000462
0.000413
0.000327
0.000285
0.000367
0.000328
0.000419
0.000314
0.001896
0.000723
0.000266
0.000254
0.000292
0.000317
0.000316
0.000422
0.000474
0.000488
0.000278
0.000057
0.000210
0.000268
0.000269
0.000304
0.000239
0.000247
0.000282
0.000289
0.000259
0.000323
0.000393
0.000405
0.000326
0.000255
0.000372
0.000353
0.000365
0.000246
0.000247
0.001751
0.000271
0.000249
0.000451
0.000264
0.000258
0.000281
0.000289
0.000313
0.000260
0.000397
0.000364
0.000058
0.000197
0.000243
0.000264
0.000263
0.000252
0.000244
0.000263
0.000253
0.000287
0.001673
0.000237
0.000221
0.000272
0.000269
0.000273
0.000255
0.000265
0.000254
0.000355
0.001788
0.000243
0.000285
0.000445
0.000434
0.000388
0.000236
0.000366
0.000422
0.000525
0.000683
0.000197
0.000058
0.000215
0.000254
0.000252
0.000238
0.000291
0.000276
0.000303
0.000749
0.000184
0.000263
0.000242
0.000248
0.000236
0.000250
0.000258
0.000261
0.000241
0.000273
0.000304
0.000394
0.001588
0.000287
0.000238
0.000430
0.000272
0.000756
0.000637
0.000551
0.000316
0.000242
0.000186
0.000057
0.000198
0.000245
0.000294
0.000213
0.000291
0.000222
0.000298
0.000564
0.001341
0.000222
0.000245
0.000242
0.000254
0.000251
0.000270
0.000298
0.000315
0.000783
0.001351
0.000307
0.000234
0.000415
0.000254
0.000236
0.000259
0.000265
0.000256
0.000281
0.000255
0.000317
0.000147
0.000056
0.000211
0.000252
0.000242
0.000265
0.000239
0.000246
0.000237
0.000252
0.000242
0.000253
0.001634
0.000259
0.000241
0.000235
0.000254
0.000241
0.000251
0.000249
0.000255
0.000254
0.000300
0.001635
0.000289
0.000257
0.000429
0.000255
0.000252
0.000263
0.000261
0.000269
0.000204
0.000056
0.000204
0.000234
0.000240
0.000250
0.000238
0.000249
0.000257
0.000239
0.000267
0.000255
0.000249
0.000261
0.000252
0.000277
0.001634
0.000286
0.000293
0.000215
0.000249
0.000269
0.000268
0.000244
0.000239
0.000264
0.001788
0.000420
0.000313
0.000375
0.000234
0.000284
0.000216
0.000056
0.000190
0.000235
0.000247
0.000287
0.000240
0.000263
0.000326
0.000373
0.000416
0.000399
0.000208
0.000239
0.000261
0.000247
0.001568
0.000542
0.000323
0.000389
0.000319
0.000231
0.000270
0.000283
0.000267
0.001734
0.000562
0.000417
0.000234
0.000260
0.000249
0.000255
0.000191
0.000056
0.000205
0.000232
0.000256
0.000277
0.000364
0.000430
0.000367
0.000263
0.000213
0.000245
0.000257
0.000243
0.000256
0.001714
0.000475
0.000300
0.000223
0.000257
0.000267
0.000291
0.000241
0.000259
0.000273
0.001941
0.000262
0.000379
0.000250
0.000250
0.000262
0.000408
0.000328
0.000056
0.000278
0.000444
0.000254
0.000242
0.000260
0.000244
0.000255
0.000253
0.000242
0.000238
0.000233
0.000256
0.001577
0.000308
0.000320
0.000240
0.000253
0.000253
0.000248
0.000306
0.000277
0.000302
0.000248
0.001803
0.000254
0.000496
0.000242
0.000261
0.000259
0.000271
0.000279
0.000056
0.000425
0.000419
0.000609
0.000206
0.000234
0.000279
0.000227
0.000222
0.000265
0.000252
0.000251
0.001697
0.000262
0.000439
0.000364
0.000224
0.000253
0.000207
0.000251
0.000266
0.000342
0.001760
0.000226
0.000469
0.001909
0.000498
0.000342
0.000247
0.000257
0.000256
0.000191
0.000057
0.000211
0.000240
0.000247
0.000246
0.000322
0.001556
0.000252
0.000229
0.000257
0.000245
0.000251
0.000245
0.000249
0.000252
0.000341
0.000393
0.000590
0.000224
0.000239
0.000266
0.000297
0.000219
0.000241
0.000437
0.000435
0.000282
0.000492
0.000448
0.000370
0.000284
0.000195
0.000057
0.000205
0.000238
0.000250
0.000255
0.000236
0.000240
0.000272
0.000514
0.000307
0.001709
0.000206
0.000240
0.000238
0.000246
0.000264
0.000310
0.000529
0.000346
0.000349
0.000236
0.000254
0.000315
0.000266
0.000254
0.000278
0.000424
0.000350
0.000732
0.000309
0.000466
0.000185
0.000057
0.000193
0.000257
0.000249
0.000231
0.000234
0.000240
0.000245
0.000264
0.000226
0.000289
0.000342
0.000566
0.001263
0.000242
0.000236
0.000248
0.000262
0.000245
0.000253
0.000254
0.000288
0.000485
0.000360
0.000276
0.000268
0.000250
0.000253
0.000270
0.000267
0.000263
0.000387
0.000057
0.000211
0.000239
0.000259
0.000250
0.000584
0.000390
0.000219
0.000255
0.000240
0.000255
0.000262
0.000227
0.000324
0.000225
0.000234
0.000524
0.000386
0.001628
0.000277
0.000237
0.000264
0.000263
0.000260
0.000233
0.000282
0.000541
0.000407
0.000286
0.000424
0.000245
0.000192
0.000056
0.000238
0.000446
0.000213
0.000217
0.000288
0.000240
0.000356
0.000612
0.000297
0.000226
0.000235
0.000271
0.000261
0.000238
0.000530
0.000324
0.000228
0.000260
0.000428
0.001616
0.000246
0.000247
0.000524
0.000254
0.000288
0.000266
0.000255
0.000500
0.000495
0.000327
0.000220
0.000056
0.000230
0.000228
0.000238
0.000240
0.000443
0.000284
0.000288
0.000224
0.000368
0.000506
0.000407
0.000214
0.000242
0.000244
0.000261
0.000267
0.000251
0.000255
0.000237
0.000350
0.000281
0.000534
0.001677
0.000215
0.000256
0.000253
0.000286
0.000344
0.000485
0.000709
0.000359
0.000058
0.000223
0.000330
0.000308
0.000411
0.000386
0.000207
0.000257
0.000388
0.000588
0.000242
0.000265
0.000247
0.000226
0.000276
0.000261
0.000230
0.000251
0.000278
0.000268
0.000259
0.000307
0.000412
0.000678
0.001275
0.000326
0.000433
0.000418
0.000272
0.000474
0.000381
0.000279
0.000056
0.000231
0.000401
0.000271
0.000216
0.000209
0.000247
0.000440
0.000222
0.000356
0.000355
0.000397
0.000395
0.000194
0.000281
0.000239
0.000244
0.000353
0.000405
0.000338
0.000240
0.000249
0.000532
0.000480
0.001695
0.000233
0.000416
0.000314
0.000231
0.000347
0.000359
0.000341
0.000057
0.000180
0.000233
0.000252
0.000257
0.000247
0.000238
0.000249
0.000324
0.000460
0.000304
0.000412
0.000383
0.000276
0.000578
0.000263
0.000223
0.000281
0.000264
0.000218
0.000358
0.000213
0.000257
0.000280
0.000427
0.000498
0.001628
0.000270
0.000235
0.000238
0.000278
0.000187
0.000057
0.000284
0.000473
0.000319
0.000203
0.000259
0.000243
0.000256
0.000244
0.000270
0.000234
0.000224
0.000263
0.000489
0.000445
0.000417
0.000250
0.000248
0.000256
0.000340
0.000382
0.000380
0.000338
0.000361
0.000393
0.000263
0.000245
0.000257
0.000278
0.001793
0.000236
0.000215
0.000057
0.000209
0.000215
0.000263
0.000290
0.000337
0.000543
0.000316
0.000219
0.000283
0.000235
0.000246
0.000253
0.000515
0.000448
0.000488
0.000273
0.000269
0.000257
0.000422
0.000466
0.000360
0.000457
0.000543
0.000335
0.000245
0.000243
0.000262
0.000255
0.000257
0.001721
0.000322
0.000057
0.000253
0.000339
0.000194
0.000233
0.000259
0.000249
0.000232
0.000505
0.000376
0.000307
0.000291
0.000285
0.000430
0.000568
0.000324
0.000238
0.000248
0.000259
0.000248
0.000267
0.000294
0.000249
0.000239
0.000261
0.000328
0.000337
0.000442
0.000336
0.000235
0.000250
0.000197
0.000056
0.000438
0.000301
0.000450
0.000260
0.000215
0.000242
0.000246
0.000255
0.000244
0.000220
0.000250
0.000298
0.000277
0.000466
0.000477
0.000401
0.000332
0.000317
0.000374
0.000342
0.000298
0.000249
0.000236
0.000262
0.001745
0.000259
0.001709
0.001061
0.000285
0.000327
0.000169
0.000057
0.000207
0.000234
0.000232
0.000240
0.000279
0.000232
0.000252
0.000255
0.000242
0.000409
0.000480
0.000211
0.000350
0.000382
0.000267
0.000226
0.000256
0.000295
0.000227
0.000247
0.000246
0.000285
0.001787
0.000245
0.000257
0.000265
0.000273
0.000265
0.001914
0.000515
0.000243
0.000057
0.000201
0.000216
0.000235
0.000244
0.000269
0.000232
0.000244
0.000257
0.000322
0.000295
0.000581
0.000317
0.000376
0.000229
0.000236
0.000250
0.000332
0.000433
0.000368
0.000258
0.001772
0.000258
0.000250
0.000251
0.000259
0.000268
0.000240
0.000254
0.000342
0.000490
0.000184
0.000057
0.000248
0.000213
0.000241
0.000273
0.000247
0.000232
0.000254
0.000257
0.000239
0.000256
0.000241
0.000352
0.000367
0.000324
0.000346
0.000262
0.000474
0.000234
0.000248
0.000263
0.000251
0.000263
0.000273
0.000256
0.000298
0.001760
0.000266
0.000237
0.000268
0.000236
0.000205
0.000057
0.000412
0.000187
0.000227
0.000231
0.000237
0.000235
0.000236
0.000260
0.000244
0.000236
0.000223
0.000261
0.000270
0.000428
0.000379
0.000311
0.000307
0.000216
0.000260
0.000252
0.000257
0.000263
0.000245
0.000275
0.000256
0.000260
0.000357
0.001575
0.000276
0.000249
0.000179
0.000056
0.000208
0.000239
0.000245
0.000275
0.000339
0.000382
0.000401
0.000283
0.000226
0.000254
0.000270
0.000228
0.000243
0.000254
0.000262
0.000262
0.000242
0.000258
0.000251
0.000264
0.000266
0.000267
0.000249
0.000236
0.000247
0.000276
0.000278
0.000258
0.000258
0.000283
0.000172
0.000056
0.000239
0.000216
0.000250
0.000282
0.000231
0.000235
0.000239
0.000263
0.000284
0.000247
0.000223
0.000258
0.000244
0.000251
0.000294
0.000237
0.000253
0.000250
0.000305
0.000244
0.000279
0.000316
0.000268
0.000223
0.000306
0.000249
0.000270
0.000240
0.000290
0.000427
0.000681
0.000058
0.000217
0.000288
0.000235
0.000217
0.000241
0.000247
0.000244
0.000247
0.000254
0.000244
0.000268
0.000314
0.000466
0.000583
0.001436
0.000235
0.000491
0.000229
0.000263
0.000467
0.000416
0.000377
0.000227
0.000283
0.000249
0.000262
0.000275
0.000255
0.000309
0.000274
0.000173
0.000056
0.000288
0.000427
0.000350
0.000311
0.000221
0.000276
0.000236
0.000227
0.000240
0.000241
0.000256
0.000256
0.000228
0.000282
0.000392
0.000455
0.000415
0.001765
0.000236
0.000252
0.000517
0.000281
0.000489
0.000224
0.000318
0.000314
0.000301
0.000229
0.000228
0.000254
0.000205
0.000057
0.000222
0.000226
0.000245
0.000412
0.000312
0.000410
0.000299
0.000254
0.000253
0.000210
0.000252
0.000269
0.000265
0.000264
0.000241
0.000264
0.000426
0.000445
0.000457
0.000239
0.000234
0.001746
0.000328
0.000615
0.000429
0.000428
0.000340
0.000216
0.000248
0.000265
0.000445
0.000057
0.000214
0.000268
0.000219
0.000295
0.000538
0.000382
0.000321
0.000254
0.000214
0.000284
0.000250
0.000259
0.000253
0.000297
0.000304
0.000228
0.000318
0.000325
0.000457
0.000352
0.000485
0.001835
0.000275
0.000594
0.000414
0.000271
0.000231
0.000257
0.000301
0.000255
0.000201
0.000057
0.000209
0.000336
0.000360
0.000404
0.000349
0.000294
0.000339
0.000216
0.000236
0.000264
0.000274
0.000226
0.000250
0.000263
0.000230
0.000265
0.000360
0.000458
0.000437
0.000318
0.000290
0.000245
0.000273
0.001687
0.000533
0.000446
0.000642
0.000234
0.000270
0.000306
0.000164
0.000056
0.000192
0.000245
0.000348
0.000235
0.000284
0.000380
0.000352
0.000336
0.000266
0.000506
0.000246
0.000237
0.000257
0.000276
0.000278
0.000260
0.000216
0.000405
0.000442
0.000415
0.000257
0.000251
0.000230
0.000261
0.000259
0.000264
0.000239
0.000251
0.000268
0.000294
0.000194
0.000057
0.000333
0.000349
0.000207
0.000259
0.000246
0.000254
0.000241
0.000279
0.000248
0.000255
0.000291
0.000319
0.000586
0.000258
0.000369
0.000233
0.000219
0.000237
0.000255
0.000269
0.000304
0.000256
0.000225
0.000255
0.000287
0.000456
0.000292
0.000342
0.000364
0.000230
0.000181
0.000056
0.000207
0.000227
0.000281
0.000249
0.000238
0.000266
0.000260
0.000232
0.000495
0.000213
0.000253
0.000266
0.000239
0.000259
0.000274
0.000294
0.000240
0.000352
0.000211
0.000246
0.000260
0.000260
0.000262
0.000267
0.000276
0.000265
0.000263
0.000250
0.000257
0.000499
0.000161
0.000056
0.000207
0.000243
0.000257
0.000281
0.000204
0.000239
0.000368
0.000410
0.000226
0.000240
0.000257
0.000251
0.000241
0.000306
0.000461
0.001717
0.000237
0.000257
0.000287
0.000335
0.000403
0.000371
0.000391
0.000382
0.000371
0.000401
0.000243
0.000273
0.000271
0.000275
0.001410
0.000057
0.000381
0.000291
0.000258
0.000203
0.000233
0.000250
0.000235
0.000254
0.000244
0.000274
0.000244
0.000273
0.000235
0.000342
0.000499
0.001620
0.000241
0.000232
0.000237
0.000270
0.000236
0.000281
0.000434
0.000344
0.000263
0.000345
0.000221
0.000267
0.000271
0.000269
0.000180
0.000056
0.001447
0.000297
0.000336
0.000255
0.000238
0.000222
0.000229
0.000245
0.000498
0.000208
0.000249
0.000243
0.000442
0.000522
0.000286
0.000351
0.000260
0.000234
0.000325
0.000354
0.000275
0.000254
0.000272
0.000243
0.000276
0.000582
0.000561
0.000235
0.000266
0.000264
0.000171
0.000056
0.000218
0.000221
0.000236
0.000244
0.001514
0.000260
0.000222
0.000250
0.000260
0.000228
0.000255
0.000251
0.000237
0.000269
0.000268
0.000361
0.000370
0.000647
0.000289
0.001713
0.000255
0.000300
0.000298
0.000484
0.000495
0.000406
0.000240
0.000237
0.000263
0.000266
0.000206
0.000056
0.000217
0.000257
0.000228
0.000367
0.001207
0.000238
0.000258
0.000253
0.000239
0.000241
0.000234
0.000257
0.000274
0.000261
0.000238
0.000291
0.000598
0.000299
0.000293
0.000280
0.000259
0.000273
0.000245
0.000237
0.000326
0.000225
0.000238
0.000282
0.000292
0.000322
0.000607
0.000057
0.000212
0.000246
0.000236
0.000263
0.000284
0.000216
0.000234
0.000265
0.000285
0.000263
0.001421
0.000210
0.000248
0.000248
0.000242
0.000243
0.000295
0.000239
0.000286
0.000240
0.000444
0.000356
0.000622
0.000181
0.000231
0.000276
0.001747
0.000269
0.000276
0.000341
0.000406
0.000057
0.000197
0.000402
0.000449
0.000504
0.000513
0.000544
0.001504
0.000411
0.000517
0.000651
0.000552
0.000719
0.000482
0.000625
0.000583
0.001965
0.000419
0.000329
0.000410
0.000315
0.000220
0.000281
0.000282
0.000260
0.000278
0.000279
0.000286
0.000291
0.000256
0.000280
0.001378
0.000056
0.000211
0.000233
0.000244
0.000244
0.000257
0.000254
0.000233
0.000248
0.000244
0.000256
0.000240
0.000235
0.000263
0.000259
0.000262
0.000271
0.001881
0.000194
0.000259
0.000255
0.000250
0.000263
0.000263
0.000271
0.000435
0.000386
0.000366
0.000243
0.000257
0.000276
0.000203
0.000059
0.000207
0.001371
0.000325
0.000271
0.000248
0.000238
0.000243
0.000225
0.000244
0.000233
0.000225
0.000269
0.000229
0.000504
0.000364
0.000309
0.000243
0.002014
0.000192
0.000204
0.000247
0.000262
0.000247
0.000275
0.000270
0.000282
0.000272
0.000243
0.000278
0.000341
0.000171
0.000057
0.000220
0.000234
0.000251
0.001454
0.000210
0.000248
0.000250
0.000243
0.000236
0.000269
0.000251
0.000241
0.000251
0.000276
0.000244
0.000254
0.000261
0.000264
0.000266
0.000258
0.000277
0.001798
0.000254
0.001728
0.000275
0.000244
0.000277
0.000265
0.000266
0.000277
0.000190
0.000058
0.000203
0.000240
0.001349
0.000227
0.000261
0.000231
0.000263
0.000258
0.000247
0.000250
0.000249
0.000242
0.000264
0.000262
0.000258
0.000261
0.000259
0.000287
0.000306
0.000216
0.001878
0.000238
0.001841
0.000224
0.000263
0.000281
0.000234
0.000250
0.000248
0.000265
0.000206
0.000057
0.001426
0.000241
0.000210
0.000243
0.000237
0.000235
0.000375
0.000287
0.000245
0.000246
0.000251
0.000256
0.000285
0.000369
0.000339
0.000291
0.000251
0.000272
0.000261
0.000246
0.000269
0.000334
0.000234
0.000246
0.000271
0.000280
0.000273
0.000318
0.000696
0.000330
0.000195
0.000057
0.000204
0.000251
0.000255
0.000306
0.000355
0.000256
0.001715
0.000289
0.000276
0.000273
0.000249
0.000280
0.000263
0.000268
0.000299
0.000322
0.000385
0.000509
0.000383
0.000269
0.000287
0.000285
0.000256
0.000270
0.000311
0.000274
0.000270
0.000249
0.000249
0.000428
0.000324
0.000058
0.000266
0.000456
0.000265
0.000268
0.000245
0.000228
0.000226
0.000250
0.000257
0.000280
0.001486
0.000235
0.000216
0.000252
0.000242
0.000291
0.000279
0.000245
0.000254
0.000258
0.000276
0.000561
0.000359
0.000308
0.000274
0.000276
0.000267
0.000256
0.000232
0.000314
0.000168
0.000056
0.000205
0.000247
0.000276
0.000452
0.000395
0.000260
0.000210
0.000249
0.000252
0.000245
0.000238
0.000250
0.000255
0.000271
0.000239
0.000262
0.000437
0.001150
0.000261
0.000223
0.000283
0.000248
0.000356
0.000410
0.000257
0.000590
0.000370
0.000340
0.000333
0.000239
0.000181
0.000057
0.000220
0.000247
0.000262
0.000257
0.000258
0.000250
0.000347
0.000477
0.000446
0.000199
0.000358
0.000412
0.000378
0.000361
0.000251
0.000234
0.000247
0.000305
0.000355
0.000482
0.001242
0.000230
0.000266
0.000269
0.000241
0.000232
0.000261
0.000378
0.000476
0.000383
0.000179
0.000057
0.000221
0.000225
0.000260
0.000246
0.000235
0.000247
0.000237
0.000269
0.000376
0.000358
0.000383
0.000363
0.000219
0.000233
0.000247
0.000264
0.000241
0.000281
0.000251
0.000270
0.000423
0.000262
0.000397
0.000442
0.000261
0.000247
0.000273
0.000272
0.000254
0.000337
0.000163
0.000057
0.000308
0.000311
0.000306
0.000511
0.000311
0.000375
0.000236
0.000241
0.000253
0.000295
0.000230
0.000263
0.000236
0.000246
0.000246
0.000227
0.000276
0.000385
0.000486
0.000350
0.000219
0.000252
0.000246
0.000245
0.000264
0.000284
0.000272
0.000274
0.000266
0.000260
0.000347
0.000057
0.000289
0.000253
0.000228
0.000273
0.000222
0.000244
0.000247
0.000255
0.000279
0.000244
0.000253
0.000235
0.000449
0.000439
0.000333
0.000304
0.000216
0.000249
0.000254
0.000296
0.000227
0.000268
0.000251
0.000271
0.000267
0.000377
0.000422
0.000565
0.000374
0.000250
0.000169
0.000056
0.000392
0.000200
0.000233
0.000242
0.000254
0.000245
0.000237
0.000256
0.000255
0.000259
0.000221
0.000243
0.000273
0.000229
0.000240
0.000259
0.000260
0.000265
0.000309
0.000224
0.000258
0.000258
0.000265
0.000266
0.000257
0.000251
0.000262
0.000275
0.000255
0.000281
0.000201
0.000056
0.000191
0.000239
0.000251
0.000247
0.000226
0.000254
0.000269
0.000236
0.000256
0.000283
0.000226
0.000240
0.000255
0.000393
0.000256
0.000298
0.000237
0.000287
0.000238
0.000279
0.000271
0.000243
0.000241
0.000249
0.000275
0.000273
0.000251
0.000254
0.000270
0.000259
0.000210
0.000056
0.000226
0.000364
0.000366
0.000279
0.000298
0.000252
0.000271
0.000253
0.000221
0.000248
0.000277
0.000233
0.000244
0.000246
0.000271
0.000281
0.000226
0.000269
0.000245
0.000263
0.000275
0.000261
0.000280
0.000254
0.000297
0.000226
0.000251
0.000280
0.000262
0.000264
0.000197
0.000056
0.000198
0.000235
0.000263
0.000258
0.000255
0.000451
0.000205
0.000272
0.000320
0.000416
0.000463
0.000280
0.000239
0.000241
0.000273
0.000261
0.000240
0.000268
0.000254
0.000279
0.000258
0.000257
0.000260
0.000279
0.000677
0.000332
0.000293
0.000298
0.000259
0.000261
0.000193
0.000056
0.000197
0.000214
0.000246
0.000254
0.000432
0.000552
0.000312
0.000376
0.000208
0.000246
0.000252
0.000250
0.000249
0.000247
0.000262
0.000274
0.000268
0.000271
0.000741
0.000239
0.000332
0.000221
0.000261
0.000278
0.000285
0.000246
0.000263
0.000288
0.000238
0.000328
0.000387
0.000057
0.000174
0.000235
0.000242
0.000238
0.000254
0.000266
0.000217
0.000248
0.000238
0.000263
0.000244
0.000254
0.000250
0.000419
0.000673
0.000297
0.000193
0.000263
0.000263
0.000265
0.000247
0.000287
0.000478
0.000216
0.000262
0.000654
0.000359
0.000493
0.000244
0.000246
0.000196
0.000056
0.000218
0.000229
0.000253
0.000233
0.000258
0.000255
0.000338
0.000442
0.000604
0.000364
0.000221
0.000265
0.000270
0.000279
0.000251
0.000255
0.000226
0.000253
0.000286
0.000434
0.000261
0.000669
0.000364
0.000246
0.000363
0.000378
0.000487
0.000245
0.000262
0.000531
0.000351
0.000057
0.000248
0.000230
0.000441
0.000208
0.000241
0.000260
0.000258
0.000259
0.000234
0.000240
0.000312
0.000339
0.000408
0.000313
0.000239
0.000262
0.000245
0.000248
0.000262
0.000278
0.000293
0.000232
0.000249
0.000271
0.000361
0.000434
0.000487
0.000239
0.000260
0.000275
0.000196
0.000057
0.000196
0.000260
0.000228
0.000248
0.000243
0.000267
0.000347
0.000628
0.000217
0.000270
0.000378
0.000224
0.000245
0.000269
0.000249
0.000244
0.000254
0.000263
0.000323
0.000380
0.000510
0.000283
0.000481
0.000267
0.000387
0.000420
0.000382
0.000251
0.000250
0.000453
0.000313
0.000056
0.000235
0.000237
0.000223
0.000252
0.000288
0.000231
0.000268
0.000226
0.000273
0.000239
0.000233
0.000403
0.000474
0.000338
0.000343
0.000229
0.000262
0.000269
0.000265
0.000231
0.000245
0.000256
0.000265
0.000278
0.000279
0.000371
0.000580
0.000342
0.000239
0.000281
0.000196
0.000056
0.000187
0.000242
0.000272
0.000251
0.000236
0.000356
0.000585
0.000397
0.000469
0.000556
0.000257
0.000220
0.000240
0.000265
0.000234
0.000277
0.000277
0.000342
0.000408
0.000643
0.001287
0.000301
0.000276
0.000269
0.000277
0.000272
0.000476
0.000314
0.000431
0.000237
0.000191
0.000057
0.000191
0.000231
0.000253
0.000262
0.000229
0.000248
0.000301
0.000225
0.000248
0.000322
0.000332
0.000381
0.000270
0.000343
0.000392
0.000360
0.000227
0.000247
0.000269
0.000256
0.000244
0.000247
0.000313
0.000224
0.000323
0.000434
0.000482
0.000232
0.000257
0.000269
0.000186
0.000056
0.000206
0.000248
0.000262
0.000251
0.000242
0.000235
0.000474
0.000211
0.000236
0.000248
0.000250
0.000247
0.000264
0.000253
0.000250
0.000272
0.000262
0.000290
0.000256
0.000244
0.000283
0.000269
0.000291
0.000246
0.000259
0.000276
0.000273
0.000278
0.000249
0.000272
0.000170
0.000056
0.000191
0.000257
0.000314
0.000400
0.000373
0.000242
0.000233
0.000251
0.000262
0.000246
0.000260
0.000244
0.000262
0.000261
0.000237
0.000248
0.000260
0.000246
0.000364
0.000322
0.000510
0.000260
0.000237
0.000264
0.000269
0.000247
0.000271
0.000244
0.000276
0.000281
0.000200
0.000056
0.000389
0.000445
0.000326
0.000211
0.000253
0.000259
0.000406
0.000218
0.000236
0.000250
0.000252
0.000295
0.000369
0.000436
0.001856
0.000247
0.000243
0.000257
0.000275
0.000242
0.000369
0.000583
0.000475
0.000266
0.000231
0.000261
0.000275
0.000423
0.000279
0.000270
0.000176
0.000057
0.000246
0.000391
0.000233
0.000340
0.000496
0.000192
0.000251
0.000242
0.000279
0.000217
0.000264
0.000244
0.000268
0.000485
0.000234
0.000488
0.000208
0.000249
0.000262
0.000257
0.000261
0.000322
0.000234
0.000276
0.000276
0.000461
0.000578
0.000407
0.000369
0.000234
0.000208
0.000057
0.000220
0.000229
0.000257
0.000236
0.000246
0.000248
0.000270
0.000318
0.000307
0.000399
0.000404
0.000340
0.000225
0.000252
0.000270
0.000285
0.000306
0.000227
0.000273
0.000277
0.000233
0.000400
0.000492
0.000259
0.000283
0.000256
0.000259
0.000440
0.000416
0.000305
0.000184
0.000057
0.000194
0.000300
0.000437
0.000252
0.000387
0.000204
0.000239
0.000251
0.000266
0.000261
0.000253
0.000271
0.000214
0.000253
0.000261
0.000404
0.000289
0.000358
0.000287
0.000358
0.000484
0.000224
0.000285
0.000276
0.000314
0.000268
0.000251
0.000263
0.000555
0.000488
0.000142
0.000056
0.000217
0.000229
0.000244
0.000249
0.000242
0.000483
0.000217
0.000244
0.000271
0.000343
0.000505
0.000569
0.000207
0.000240
0.000239
0.000252
0.000256
0.000271
0.000240
0.000248
0.000289
0.000243
0.000395
0.000444
0.000326
0.000372
0.000312
0.000294
0.000325
0.000269
0.000162
0.000056
0.000236
0.000209
0.000336
0.000431
0.000364
0.000231
0.000257
0.000232
0.000239
0.000260
0.000252
0.000262
0.000266
0.000244
0.000244
0.000259
0.000245
0.000244
0.000295
0.000454
0.000545
0.000270
0.000230
0.000246
0.000273
0.000275
0.000262
0.000257
0.000277
0.000256
0.000189
0.000056
0.000259
0.000388
0.000426
0.000246
0.000211
0.000253
0.000320
0.000467
0.000280
0.000208
0.000242
0.000274
0.000263
0.000623
0.000250
0.000290
0.000237
0.000231
0.000257
0.000261
0.000270
0.000266
0.000264
0.000270
0.000263
0.000369
0.000535
0.000196
0.000335
0.000227
0.000190
0.000058
0.000211
0.000241
0.000249
0.000255
0.000251
0.000262
0.000234
0.000265
0.000251
0.000237
0.000266
0.000235
0.000284
0.001438
0.000222
0.000255
0.000259
0.000261
0.000261
0.000277
0.000265
0.000238
0.000278
0.000253
0.000266
0.000270
0.000271
0.000267
0.000260
0.000272
0.000197
0.000057
0.000201
0.000228
0.000255
0.000266
0.000222
0.000244
0.000255
0.000255
0.000230
0.000249
0.000245
0.000270
0.000255
0.000247
0.000254
0.000268
0.000247
0.000254
0.000269
0.000258
0.000255
0.000259
0.000245
0.000250
0.001299
0.000280
0.000661
0.000427
0.000250
0.000243
0.000194
0.000056
0.000198
0.000227
0.000242
0.000256
0.000423
0.000233
0.000235
0.000241
0.000257
0.000417
0.000434
0.000297
0.000239
0.000226
0.000272
0.000253
0.000262
0.000262
0.000241
0.000265
0.000262
0.000252
0.000334
0.000373
0.000501
0.000445
0.000218
0.000268
0.001361
0.000253
0.000182
0.000056
0.000312
0.000392
0.000315
0.000275
0.000221
0.000221
0.000238
0.000250
0.000258
0.000257
0.000247
0.000261
0.000297
0.000405
0.000407
0.000376
0.000332
0.000220
0.000249
0.000259
0.000266
0.000285
0.000248
0.000263
0.000273
0.000265
0.000468
0.000433
0.000362
0.000359
0.000152
0.000056
0.000197
0.000241
0.001259
0.000454
0.000358
0.000394
0.000366
0.000496
0.000248
0.000344
0.000233
0.000220
0.000261
0.000260
0.000244
0.000267
0.000500
0.000364
0.000391
0.000347
0.000261
0.000235
0.000272
0.000498
0.000226
0.000264
0.000258
0.000285
0.000279
0.000643
0.000275
0.000056
0.000371
0.000306
0.000239
0.001392
0.000561
0.000306
0.000319
0.000212
0.000254
0.000248
0.000228
0.000240
0.000243
0.000264
0.000253
0.000263
0.000232
0.000372
0.000387
0.000367
0.000402
0.000236
0.000256
0.000254
0.000267
0.000268
0.000275
0.000231
0.000267
0.000276
0.000248
0.000056
0.000359
0.000341
0.000238
0.000217
0.000251
0.000243
0.000270
0.000229
0.000230
0.000231
0.001472
0.000421
0.000264
0.000240
0.000232
0.000258
0.000273
0.000259
0.000236
0.000297
0.000249
0.000246
0.000381
0.000330
0.000458
0.000389
0.000249
0.000250
0.000273
0.000282
0.000176
0.000057
0.000211
0.000411
0.000219
0.000253
0.000397
0.000412
0.000305
0.000346
0.000459
0.000212
0.000227
0.000252
0.000262
0.000263
0.000265
0.001527
0.000245
0.000296
0.000234
0.000269
0.000293
0.000235
0.000256
0.000243
0.000267
0.000283
0.000491
0.000389
0.000296
0.000278
0.000153
0.000056
0.000223
0.000224
0.000257
0.000242
0.000231
0.000255
0.000236
0.000255
0.000292
0.000393
0.000437
0.000251
0.000239
0.000258
0.000247
0.000270
0.000271
0.000259
0.000272
0.000228
0.000250
0.000330
0.001251
0.000260
0.000258
0.000235
0.000281
0.000249
0.000254
0.000262
0.000193
0.000056
0.000243
0.000327
0.000357
0.000331
0.000246
0.000251
0.000257
0.000288
0.000237
0.000260
0.000240
0.000270
0.000240
0.000253
0.000276
0.000239
0.000267
0.000272
0.000260
0.000253
0.000250
0.000272
0.000269
0.000282
0.000287
0.000262
0.000267
0.000269
0.000256
0.000450
0.001362
0.000056
0.000202
0.000255
0.000220
0.000267
0.000231
0.000259
0.000249
0.000223
0.000248
0.000245
0.000302
0.000245
0.000239
0.000238
0.000277
0.000217
0.001732
0.000269
0.000232
0.000257
0.000246
0.000278
0.000257
0.000261
0.000294
0.000230
0.000275
0.000282
0.000263
0.000254
0.000237
0.000056
0.000356
0.000321
0.001219
0.000224
0.000230
0.000245
0.000255
0.000252
0.000275
0.000240
0.000236
0.000355
0.000453
0.000381
0.000271
0.000223
0.000254
0.000250
0.000259
0.000268
0.000242
0.000285
0.000251
0.000287
0.000268
0.000380
0.000385
0.000346
0.000311
0.000250
0.000197
0.000056
0.000227
0.000246
0.000241
0.000251
0.000277
0.000198
0.000238
0.000314
0.000454
0.001253
0.000266
0.000211
0.000246
0.000276
0.000245
0.000296
0.000235
0.000250
0.000327
0.000484
0.000298
0.000264
0.000237
0.000248
0.000289
0.000273
0.000265
0.000290
0.000269
0.000274
0.000190
0.000057
0.000292
0.000430
0.000325
0.000220
0.000232
0.000239
0.000246
0.000279
0.000262
0.000248
0.000229
0.000239
0.000450
0.000524
0.000500
0.001398
0.000243
0.000293
0.000314
0.000355
0.000480
0.000599
0.000318
0.000353
0.000237
0.000261
0.000272
0.000279
0.000261
0.000272
0.000200
0.000057
0.000195
0.000289
0.000480
0.000460
0.000310
0.000235
0.000250
0.000238
0.000243
0.000268
0.000235
0.000272
0.000274
0.000225
0.000269
0.000303
0.000382
0.000442
0.000329
0.001324
0.000263
0.000255
0.000272
0.000241
0.000496
0.000401
0.000399
0.000254
0.000264
0.000274
0.000188
0.000057
0.000195
0.000240
0.000243
0.000267
0.000244
0.000362
0.000336
0.000391
0.000373
0.000222
0.000244
0.000258
0.000269
0.000289
0.000237
0.000261
0.000256
0.000259
0.000291
0.000451
0.000269
0.000443
0.000298
0.001351
0.000425
0.000224
0.000276
0.000421
0.000506
0.000277
0.000314
0.000057
0.000206
0.000228
0.000248
0.000251
0.000246
0.000256
0.001700
0.000224
0.000216
0.000243
0.000255
0.000248
0.000257
0.000323
0.000326
0.000287
0.000274
0.000354
0.000518
0.000363
0.000277
0.000286
0.000229
0.000250
0.001513
0.000438
0.000323
0.000453
0.000317
0.000305
0.000165
0.000056
0.000223
0.000250
0.000254
0.000257
0.000250
0.000258
0.001710
0.000242
0.000226
0.000266
0.000337
0.000403
0.001474
0.000343
0.000379
0.000245
0.000248
0.000237
0.000271
0.000276
0.001699
0.000450
0.000340
0.000290
0.000247
0.000252
0.000257
0.000283
0.000244
0.000256
0.000205
0.000058
0.000219
0.000224
0.000266
0.000245
0.000265
0.000301
0.000253
0.000263
0.000243
0.000255
0.000250
0.000247
0.000290
0.000241
0.000270
0.001477
0.000290
0.000222
0.000268
0.000276
0.000276
0.000250
0.000431
0.001274
0.000276
0.000237
0.000281
0.000238
0.000405
0.000243
0.000198
0.000057
0.000201
0.000250
0.000222
0.000243
0.000241
0.000230
0.000236
0.001693
0.000256
0.000216
0.000363
0.000285
0.000209
0.000225
0.000248
0.001390
0.000231
0.000262
0.000267
0.000247
0.000261
0.000352
0.000294
0.001293
0.000278
0.000258
0.000244
0.000271
0.001389
0.000295
0.000199
0.000056
0.000325
0.000288
0.000198
0.000242
0.000267
0.000243
0.000270
0.000248
0.000263
0.000248
0.000257
0.000264
0.000260
0.000244
0.000373
0.001460
0.000221
0.000268
0.000255
0.000247
0.000301
0.000247
0.000249
0.001502
0.000349
0.000237
0.000271
0.001269
0.000272
0.000244
0.000291
0.000056
0.000199
0.000519
0.000217
0.000217
0.000230
0.000245
0.000262
0.000255
0.000267
0.000271
0.000234
0.000252
0.000260
0.000337
0.000362
0.001208
0.000243
0.000245
0.000264
0.000274
0.000234
0.000236
0.000256
0.000409
0.001199
0.000241
0.000252
0.000260
0.000256
0.001338
0.000416
0.000057
0.000222
0.000234
0.000241
0.000224
0.000247
0.000249
0.000243
0.000252
0.000296
0.000235
0.000243
0.000244
0.000286
0.000351
0.000382
0.001445
0.000213
0.000264
0.000294
0.000513
0.000280
0.001480
0.000337
0.000237
0.000234
0.000280
0.000242
0.001291
0.000402
0.000423
0.000350
0.000056
0.000227
0.000244
0.000257
0.000262
0.000271
0.000233
0.000268
0.000264
0.000250
0.000298
0.000355
0.000603
0.001122
0.000236
0.000270
0.000260
0.000279
0.000237
0.000231
0.000253
0.000425
0.001154
0.000268
0.000228
0.000248
0.000259
0.001482
0.000447
0.000483
0.000226
0.000189
0.000057
0.000202
0.000237
0.000244
0.000241
0.000250
0.000266
0.000239
0.000284
0.000519
0.000371
0.000264
0.001496
0.000216
0.000236
0.000270
0.000247
0.000263
0.000287
0.001694
0.000262
0.000374
0.000345
0.001402
0.000305
0.000237
0.000326
0.000253
0.000256
0.000271
0.000265
0.000195
0.000056
0.000218
0.000233
0.000323
0.000323
0.000301
0.000506
0.000254
0.000297
0.001474
0.000237
0.000379
0.000268
0.000277
0.000254
0.000484
0.001218
0.000264
0.000235
0.000248
0.000281
0.001588
0.000303
0.000292
0.000280
0.000247
0.000241
0.000469
0.000323
0.000248
0.000243
0.000258
0.000056
0.000330
0.000258
0.000354
0.000253
0.000237
0.001521
0.000235
0.000220
0.000272
0.000266
0.000267
0.000244
0.000313
0.001477
0.000250
0.000234
0.000456
0.001166
0.000431
0.000429
0.000323
0.000235
0.000242
0.000253
0.000294
0.000221
0.000460
0.000224
0.000266
0.000274
0.000203
0.000056
0.000208
0.000221
0.000469
0.000261
0.001322
0.000282
0.000329
0.000229
0.000235
0.000235
0.000252
0.000325
0.001506
0.000244
0.000230
0.000254
0.001372
0.000273
0.000464
0.000480
0.000298
0.000235
0.000251
0.000250
0.000281
0.000279
0.000241
0.000267
0.000271
0.000246
0.000239
0.000057
0.000215
0.000477
0.001379
0.000212
0.000270
0.000302
0.000216
0.000249
0.000261
0.000368
0.001404
0.000222
0.000253
0.000259
0.000261
0.001279
0.000661
0.000307
0.000323
0.000412
0.000303
0.000245
0.000277
0.000247
0.000269
0.000291
0.000277
0.000335
0.000393
0.000432
0.001385
0.000057
0.000191
0.000240
0.000239
0.000227
0.000322
0.000466
0.000406
0.001240
0.000244
0.000244
0.000264
0.001403
0.000506
0.000278
0.000215
0.000414
0.000251
0.000247
0.000263
0.000283
0.000265
0.000245
0.000280
0.000251
0.000257
0.000344
0.000494
0.000364
0.001497
0.000236
0.000183
0.000057
0.000204
0.000247
0.000412
0.000492
0.001224
0.000304
0.000230
0.000277
0.000225
0.000251
0.000254
0.000327
0.000354
0.000486
0.000285
0.000243
0.000254
0.000268
0.000245
0.000307
0.000236
0.000284
0.000235
0.000267
0.000253
0.000509
0.000499
0.000202
0.000322
0.001412
0.000179
0.000057
0.000205
0.000244
0.000274
0.000471
0.000329
0.000300
0.000322
0.000330
0.000292
0.000254
0.000238
0.000263
0.000271
0.000287
0.000269
0.000283
0.000537
0.000311
0.000293
0.000388
0.000272
0.000405
0.000233
0.000236
0.000263
0.000261
0.000259
0.000311
0.000432
0.000425
0.000261
0.000057
0.000201
0.001412
0.000222
0.000334
0.000430
0.000493
0.000283
0.000332
0.000204
0.000253
0.000252
0.000253
0.000281
0.000275
0.000235
0.000258
0.000262
0.001337
0.000278
0.000254
0.000257
0.000272
0.000272
0.000277
0.000269
0.000254
0.000273
0.000253
0.000387
0.000374
0.000382
0.000056
0.000206
0.000238
0.000240
0.001498
0.000349
0.000222
0.000224
0.000257
0.000223
0.000248
0.000254
0.000283
0.000240
0.000245
0.000297
0.000230
0.000246
0.000264
0.000260
0.000273
0.001414
0.000243
0.000233
0.000287
0.000241
0.000260
0.000266
0.000265
0.000276
0.000501
0.000336
0.000056
0.000220
0.000223
0.000398
0.000288
0.000237
0.000265
0.001521
0.000420
0.000219
0.000229
0.000276
0.000297
0.000330
0.000232
0.000223
0.000277
0.000223
0.000260
0.000263
0.000255
0.000605
0.000398
0.001110
0.000269
0.000237
0.000261
0.000271
0.000263
0.000300
0.000253
0.000405
0.000057
0.000217
0.000344
0.000211
0.000238
0.000250
0.000243
0.000243
0.000225
0.000291
0.001655
0.000345
0.000267
0.000240
0.000242
0.000259
0.000241
0.000266
0.000279
0.000258
0.000315
0.000401
0.000434
0.000409
0.001360
0.000236
0.000278
0.000258
0.000253
0.000273
0.000331
0.000451
0.000057
0.000273
0.000262
0.000220
0.000233
0.000225
0.000242
0.000261
0.000277
0.000257
0.001563
0.000368
0.000256
0.000241
0.000257
0.000458
0.000259
0.000548
0.000370
0.000270
0.000272
0.000530
0.000454
0.001261
0.000261
0.000242
0.000248
0.001745
0.000610
0.000536
0.000210
0.000142
0.000057
0.000212
0.000234
0.000230
0.000236
0.000280
0.000226
0.000248
0.000545
0.000494
0.000373
0.000296
0.000204
0.000244
0.000265
0.000279
0.000272
0.000235
0.000244
0.000253
0.000284
0.000308
0.000483
0.001225
0.000229
0.000246
0.000280
0.001894
0.000378
0.000402
0.000334
0.000158
0.000057
0.000253
0.000233
0.000244
0.001723
0.000268
0.000213
0.000240
0.000253
0.000258
0.000278
0.000379
0.000364
0.000371
0.000278
0.000303
0.000600
0.000318
0.001177
0.000286
0.000226
0.000253
0.000258
0.000283
0.000427
0.000632
0.000406
0.000273
0.000261
0.000263
0.000279
0.000194
0.000056
0.000185
0.000232
0.000242
0.001592
0.000206
0.000229
0.000238
0.000254
0.000248
0.000250
0.000251
0.000271
0.000270
0.000272
0.000329
0.000448
0.000296
0.000350
0.001379
0.000230
0.000260
0.000262
0.000256
0.000280
0.000400
0.000522
0.000386
0.000244
0.000291
0.000233
0.000441
0.000057
0.000194
0.000238
0.000271
0.001553
0.000276
0.000219
0.000266
0.000244
0.000251
0.000251
0.000256
0.000275
0.000244
0.000279
0.000465
0.000490
0.001314
0.000757
0.000248
0.000344
0.000247
0.000237
0.000243
0.000279
0.001685
0.000798
0.000227
0.000265
0.000280
0.000288
0.000186
0.000056
0.000206
0.000221
0.000258
0.000240
0.000283
0.000252
0.000212
0.000256
0.000240
0.000230
0.000294
0.000293
0.000242
0.000248
0.000262
0.000243
0.000279
0.001594
0.000707
0.000428
0.000258
0.000227
0.000249
0.000311
0.000252
0.000245
0.000274
0.000264
0.001452
0.000327
0.000375
0.000056
0.000197
0.000234
0.000267
0.000232
0.000263
0.000224
0.000283
0.000232
0.000250
0.000261
0.000307
0.000401
0.000431
0.000336
0.000212
0.000240
0.000282
0.001371
0.000764
0.000406
0.000343
0.000265
0.000233
0.000246
0.000272
0.000260
0.000253
0.000278
0.001502
0.000409
0.000188
0.000057
0.000194
0.000222
0.000247
0.000249
0.000253
0.000243
0.000233
0.000255
0.000274
0.000270
0.000461
0.000296
0.000313
0.000214
0.000241
0.000246
0.000265
0.000258
0.001611
0.000599
0.000453
0.000323
0.000226
0.000256
0.000264
0.000258
0.000269
0.000278
0.000274
0.001363
0.000310
0.000056
0.000193
0.000222
0.000236
0.000254
0.000261
0.000240
0.000249
0.000326
0.000339
0.000518
0.000369
0.000349
0.000319
0.000221
0.000250
0.000247
0.000299
0.000241
0.000268
0.001967
0.000280
0.000233
0.000445
0.000245
0.000257
0.000263
0.000268
0.000253
0.000285
0.000255
0.000509
0.000057
0.000240
0.000238
0.000228
0.000244
0.000257
0.000244
0.000229
0.000239
0.000296
0.000242
0.000229
0.000249
0.000365
0.000409
0.000423
0.000428
0.000224
0.000265
0.000250
0.000246
0.000258
0.000287
0.001466
0.001054
0.000231
0.000248
0.000267
0.000262
0.000280
0.000249
0.000200
0.000057
0.000222
0.001323
0.000298
0.000204
0.000232
0.000255
0.000247
0.000242
0.000245
0.000263
0.000242
0.000261
0.000319
0.000445
0.000279
0.000388
0.000286
0.000253
0.000264
0.000270
0.000282
0.000214
0.000266
0.000267
0.001315
0.000679
0.000309
0.000386
0.000375
0.000403
0.000302
0.000057
0.000210
0.000253
0.000418
0.001247
0.000212
0.000253
0.000239
0.000249
0.000253
0.000254
0.000267
0.000232
0.000260
0.000399
0.000568
0.000257
0.000229
0.000280
0.000327
0.000220
0.000244
0.000270
0.000237
0.000272
0.000265
0.001532
0.000743
0.000325
0.000257
0.000274
0.000199
0.000056
0.000214
0.000346
0.000368
0.000311
0.001312
0.000248
0.000225
0.000239
0.000229
0.000249
0.000249
0.000254
0.000236
0.000240
0.000265
0.000240
0.000270
0.000239
0.000251
0.000256
0.000268
0.000267
0.000318
0.000326
0.000204
0.000272
0.000271
0.001461
0.000272
0.000231
0.000165
0.000057
0.000201
0.000236
0.000247
0.000270
0.000349
0.000372
0.000397
0.000299
0.001558
0.000250
0.000397
0.000428
0.000312
0.000223
0.000431
0.000233
0.000232
0.000269
0.000266
0.000277
0.000277
0.000263
0.000260
0.000269
0.000269
0.000396
0.000386
0.000345
0.001581
0.000220
0.000195
0.000057
0.000237
0.000238
0.000269
0.000231
0.000238
0.000242
0.000261
0.000316
0.000418
0.002019
0.000243
0.000237
0.000250
0.000263
0.000262
0.000260
0.000261
0.000257
0.000372
0.000349
0.000405
0.000394
0.001440
0.000258
0.000231
0.002016
0.000283
0.000243
0.000252
0.001527
0.000171
0.000057
0.000375
0.000403
0.000438
0.000225
0.000279
0.000231
0.000240
0.000290
0.000241
0.000226
0.000249
0.000408
0.000403
0.000352
0.000371
0.000237
0.000236
0.001564
0.000222
0.000651
0.001819
0.000295
0.000234
0.001595
0.001987
0.000714
0.000273
0.000264
0.000330
0.000488
0.000323
0.000056
0.000212
0.000240
0.000282
0.000220
0.001418
0.001731
0.001078
0.000202
0.000255
0.001567
0.001980
0.000221
0.000235
0.000419
0.000410
0.000348
0.000359
0.000437
0.000205
0.000252
0.000246
0.000254
0.000282
0.001580
0.001208
0.001424
0.000299
0.000278
0.000251
0.000326
0.000434
0.000057
0.000212
0.000237
0.000232
0.000243
0.000230
0.000270
0.000227
0.000255
0.000258
0.000243
0.000244
0.000484
0.000296
0.000451
0.000266
0.000250
0.000249
0.000270
0.000269
0.000285
0.000238
0.000267
0.001568
0.000412
0.002123
0.000226
0.000278
0.000351
0.000490
0.000311
0.000183
0.000056
0.000232
0.000362
0.000443
0.000303
0.000218
0.000213
0.000256
0.000240
0.000238
0.000244
0.000251
0.000260
0.000263
0.001610
0.001351
0.001232
0.000272
0.000230
0.000242
0.000273
0.000278
0.000280
0.000241
0.000254
0.002210
0.000264
0.000230
0.000302
0.000320
0.000311
0.000220
0.000057
0.000231
0.000401
0.000511
0.000336
0.000212
0.000231
0.000245
0.000275
0.001905
0.001410
0.000220
0.000329
0.000384
0.000408
0.000268
0.000242
0.000241
0.000265
0.000267
0.000259
0.000265
0.000263
0.000470
0.000233
0.000272
0.000268
0.000247
0.000279
0.000281
0.000248
0.000202
0.000056
0.000187
0.000250
0.000240
0.000246
0.000278
0.000252
0.001534
0.001426
0.001319
0.000249
0.000227
0.000241
0.000263
0.000264
0.000250
0.000260
0.000232
0.002100
0.000263
0.000237
0.000260
0.000261
0.000250
0.000271
0.000267
0.000252
0.000275
0.000251
0.000280
0.000249
0.000180
0.000057
0.000209
0.002677
0.001400
0.000219
0.000320
0.000308
0.000217
0.000282
0.000230
0.000238
0.000252
0.000244
0.000239
0.000251
0.000267
0.000260
0.000261
0.000280
0.000260
0.000251
0.000271
0.000285
0.000268
0.000257
0.000252
0.000252
0.000261
0.000265
0.000288
0.000252
0.000366
0.000057
0.001537
0.000265
0.001229
0.000235
0.000225
0.000237
0.000278
0.000256
0.000224
0.000328
0.000371
0.000328
0.000329
0.000222
0.000247
0.002149
0.000241
0.000243
0.000312
0.000490
0.000402
0.000242
0.000236
0.000254
0.000261
0.000250
0.000264
0.000280
0.000274
0.001625
0.001247
0.000056
0.000210
0.000240
0.000426
0.000298
0.000342
0.000245
0.000211
0.000238
0.000251
0.000259
0.000265
0.000244
0.000225
0.000255
0.000262
0.000249
0.000384
0.000574
0.000334
0.000245
0.000236
0.000266
0.000285
0.000247
0.000249
0.000252
0.000262
0.000278
0.000244
0.000402
0.000455
0.000057
0.001122
0.000254
0.000319
0.000460
0.000280
0.000223
0.000239
0.000241
0.000255
0.002406
0.000268
0.000375
0.000226
0.000372
0.000308
0.000249
0.000243
0.000257
0.000263
0.000229
0.000250
0.000381
0.000645
0.000298
0.001878
0.001336
0.000522
0.000517
0.000226
0.000283
0.000201
0.000056
0.000212
0.000369
0.000248
0.000243
0.000250
0.000222
0.000258
0.000250
0.000251
0.000248
0.000258
0.000229
0.000248
0.000326
0.000415
0.000460
0.001788
0.001394
0.000415
0.000412
0.000451
0.000238
0.000257
0.000241
0.002160
0.000523
0.000390
0.000229
0.000275
0.000286
0.000197
0.000057
0.000209
0.000243
0.000258
0.000243
0.000324
0.000251
0.000433
0.000355
0.000262
0.000224
0.000241
0.000250
0.000263
0.002140
0.000352
0.000372
0.000216
0.000249
0.000287
0.000242
0.000247
0.002515
0.000286
0.000227
0.000248
0.000261
0.000248
0.000275
0.000308
0.000254
0.000191
0.000056
0.000229
0.000331
0.000557
0.000349
0.000258
0.000220
0.000233
0.000254
0.000262
0.000250
0.001982
0.000386
0.000255
0.000273
0.000234
0.000271
0.000273
0.000238
0.002203
0.000449
0.000222
0.000267
0.000280
0.000246
0.000259
0.000251
0.000306
0.000230
0.000275
0.000251
0.000190
0.000057
0.000214
0.000241
0.000266
0.000207
0.000244
0.000259
0.000236
0.000240
0.000238
0.002185
0.000229
0.000279
0.000217
0.000427
0.000221
0.000253
0.000306
0.000264
0.000248
0.000258
0.001967
0.000267
0.000342
0.000362
0.000434
0.000407
0.000301
0.000261
0.000254
0.000255
0.000205
0.000057
0.000202
0.000242
0.000234
0.000249
0.000250
0.000329
0.000222
0.002305
0.000259
0.000213
0.000258
0.000257
0.000232
0.000285
0.000275
0.002126
0.000591
0.000226
0.000246
0.000247
0.000256
0.000259
0.000287
0.000268
0.000264
0.000255
0.000286
0.000254
0.000267
0.000268
0.000192
0.000057
0.001810
0.001444
0.000201
0.000228
0.000244
0.000254
0.000252
0.000333
0.000396
0.000420
0.002048
0.000263
0.000222
0.000274
0.000326
0.000457
0.000406
0.000294
0.000228
0.000242
0.000258
0.000265
0.000263
0.000227
0.000256
0.000269
0.000271
0.000261
0.000293
0.000739
0.000266
0.000056
0.000208
0.000252
0.000241
0.000257
0.000265
0.000253
0.000244
0.000247
0.001488
0.002106
0.000592
0.000267
0.000400
0.000779
0.000275
0.000233
0.000258
0.000247
0.000260
0.000266
0.000253
0.000245
0.000257
0.000266
0.003007
0.000337
0.000250
0.000249
0.000310
0.000293
0.000372
0.000058
0.001936
0.000232
0.000229
0.000234
0.000301
0.000345
0.000447
0.000308
0.000289
0.000223
0.000235
0.000252
0.000260
0.000258
0.000257
0.000259
0.000255
0.000289
0.001811
0.000252
0.000231
0.000252
0.000278
0.000278
0.000271
0.000271
0.001442
0.000350
0.000249
0.000249
0.000179
0.000057
0.000198
0.000239
0.000245
0.000239
0.000263
0.000226
0.000306
0.000361
0.000490
0.000237
0.000210
0.000239
0.000266
0.000326
0.000420
0.000325
0.000227
0.000243
0.000288
0.000417
0.000502
0.000347
0.000239
0.000253
0.000254
0.000253
0.000253
0.000277
0.000275
0.000259
0.000207
0.000058
0.001397
0.000442
0.000222
0.001948
0.000279
0.000572
0.000344
0.000247
0.000231
0.000243
0.000261
0.000245
0.000245
0.000252
0.000266
0.000249
0.000468
0.000315
0.000441
0.000292
0.000356
0.000266
0.000220
0.000271
0.000264
0.000277
0.000260
0.000265
0.000394
0.000500
0.001300
0.000057
0.000202
0.000224
0.002080
0.000362
0.000273
0.000233
0.000255
0.000254
0.000259
0.000266
0.000215
0.000250
0.000250
0.000264
0.000287
0.000368
0.000674
0.001763
0.000227
0.000258
0.000241
0.000285
0.000436
0.000402
0.001532
0.000295
0.000364
0.001920
0.000268
0.000247
0.000202
0.000056
0.000183
0.000232
0.000237
0.000244
0.000226
0.000253
0.000253
0.000277
0.000331
0.000264
0.000385
0.000361
0.000345
0.000288
0.000247
0.000268
0.000260
0.000243
0.000263
0.000251
0.000311
0.000291
0.000260
0.000257
0.000272
0.001500
0.000299
0.000399
0.002050
0.000237
0.000178
0.000056
0.000211
0.000238
0.000236
0.000251
0.000485
0.000207
0.000258
0.000462
0.000286
0.000272
0.000292
0.000211
0.000269
0.000263
0.000270
0.000327
0.000426
0.000426
0.000253
0.000409
0.000527
0.000578
0.001442
0.000228
0.000252
0.002001
0.000308
0.000256
0.000242
0.000293
0.000192
0.000057
0.000215
0.000238
0.000225
0.000244
0.000252
0.000271
0.000255
0.000268
0.000275
0.000248
0.001793
0.000317
0.000387
0.000292
0.000451
0.000399
0.000342
0.001484
0.000234
0.000282
0.002265
0.000425
0.000269
0.000223
0.000262
0.000264
0.000504
0.000218
0.000260
0.000277
0.000202
0.000057
0.000292
0.000347
0.000332
0.000288
0.000208
0.000239
0.000263
0.000247
0.000266
0.000293
0.000228
0.000257
0.000251
0.000280
0.000417
0.000444
0.001249
0.000266
0.000278
0.002075
0.000254
0.000235
0.000242
0.000257
0.000244
0.000281
0.000268
0.000260
0.000250
0.000270
0.000205
0.000055
0.000255
0.000362
0.002039
0.000263
0.000221
0.000249
0.000260
0.000353
0.000451
0.000366
0.001301
0.000365
0.000358
0.002080
0.000217
0.000233
0.000268
0.000277
0.000250
0.000251
0.000281
0.000293
0.000263
0.000367
0.000570
0.000297
0.000285
0.002227
0.000590
0.000405
0.000374
0.000057
0.000196
0.000234
0.000245
0.001955
0.000235
0.000233
0.000242
0.000242
0.000241
0.000257
0.000244
0.000260
0.000302
0.000240
0.000526
0.001376
0.000250
0.000241
0.000269
0.000260
0.000229
0.000253
0.000261
0.000332
0.000283
0.000676
0.000224
0.000241
0.001600
0.000280
0.002012
0.000057
0.000201
0.000225
0.000243
0.000238
0.000259
0.000269
0.000228
0.000247
0.000250
0.000419
0.000425
0.001315
0.000231
0.000230
0.000244
0.000292
0.000224
0.000252
0.000352
0.000467
0.000456
0.000362
0.000227
0.001572
0.000233
0.000255
0.000291
0.000280
0.000266
0.000265
0.000198
0.000056
0.000203
0.000237
0.000295
0.000241
0.000249
0.000243
0.000244
0.000237
0.000280
0.000222
0.000265
0.000239
0.000270
0.001476
0.000358
0.000206
0.000249
0.000268
0.000275
0.000313
0.000368
0.000280
0.000247
0.000252
0.000270
0.000274
0.000247
0.001411
0.000283
0.000232
0.000175
0.000056
0.000214
0.000229
0.000263
0.000260
0.000270
0.000222
0.000247
0.000260
0.000221
0.000261
0.000244
0.000260
0.000245
0.000357
0.000335
0.000348
0.000246
0.000239
0.001636
0.000243
0.000237
0.000264
0.000264
0.000297
0.000358
0.000392
0.000453
0.000269
0.000246
0.001610
0.000156
0.000057
0.000358
0.000326
0.000449
0.000195
0.000229
0.000222
0.000246
0.000272
0.000256
0.000257
0.000228
0.000239
0.001525
0.000274
0.000252
0.000232
0.000266
0.000260
0.000249
0.000266
0.000253
0.000234
0.000263
0.000273
0.000264
0.000379
0.000428
0.000377
0.000251
0.000258
0.000214
0.000056
0.000213
0.000276
0.000469
0.000301
0.000340
0.000282
0.000251
0.000247
0.000253
0.000260
0.000242
0.000223
0.000256
0.000246
0.001296
0.000259
0.000232
0.000253
0.000272
0.000279
0.000227
0.000262
0.000254
0.000262
0.000248
0.000267
0.000312
0.000855
0.000283
0.000228
0.000182
0.000057
0.000201
0.001555
0.000248
0.000402
0.000463
0.000301
0.000218
0.000256
0.000269
0.000259
0.000232
0.000263
0.000268
0.000270
0.000255
0.001536
0.000257
0.000268
0.000270
0.000273
0.000258
0.000235
0.000269
0.000261
0.000257
0.000298
0.000436
0.000405
0.000300
0.000224
0.000197
0.000056
0.000215
0.000243
0.000246
0.001597
0.000491
0.000281
0.000232
0.000241
0.000250
0.000269
0.000280
0.000264
0.000244
0.000257
0.000231
0.000291
0.000338
0.001364
0.000251
0.000228
0.001499
0.000352
0.000590
0.000339
0.000343
0.000234
0.000269
0.000462
0.000234
0.000267
0.000186
0.000057
0.000195
0.000227
0.000236
0.000248
0.000247
0.000276
0.000217
0.000258
0.000272
0.000232
0.000245
0.000251
0.000323
0.000570
0.001591
0.001559
0.000293
0.000584
0.000294
0.000212
0.000240
0.000254
0.000249
0.000270
0.000247
0.000265
0.000260
0.000265
0.001539
0.000323
0.000181
0.000056
0.000191
0.000348
0.000350
0.000333
0.000257
0.000206
0.000247
0.000330
0.000470
0.000361
0.002163
0.000315
0.000806
0.000583
0.000281
0.000258
0.000338
0.000386
0.000332
0.000279
0.000392
0.000268
0.001524
0.000531
0.000223
0.000260
0.000259
0.000250
0.000278
0.000258
0.000205
0.000058
0.000204
0.000249
0.000249
0.000255
0.000244
0.001659
0.000891
0.000980
0.000213
0.000241
0.000270
0.000239
0.000259
0.000263
0.000248
0.000254
0.000249
0.000262
0.000271
0.000293
0.001411
0.000326
0.000248
0.000230
0.000228
0.000278
0.000248
0.000284
0.000257
0.000291
0.001898
0.000057
0.000192
0.000234
0.001556
0.000923
0.000299
0.000366
0.000246
0.000214
0.000267
0.000247
0.000256
0.000241
0.000242
0.002001
0.000453
0.000244
0.000226
0.000251
0.000265
0.000262
0.000193
