0.000412
0.019646
0.001793
0.000257
0.000252
0.000301
0.000326
0.000233
0.000323
0.000285
0.000249
0.000334
0.000485
0.000498
0.000432
0.000328
0.000265
0.000348
0.000358
0.000418
0.001923
0.000323
0.000672
0.000281
0.000237
0.000322
0.000299
0.000310
0.000428
0.000386
0.000492
0.000299
0.000060
0.000199
0.000258
0.000271
0.000289
0.000251
0.000246
0.000279
0.000289
0.000265
0.000264
0.000435
0.000457
0.000294
0.000251
0.000373
0.000355
0.000361
0.000255
0.000241
0.001734
0.000305
0.000233
0.000449
0.000255
0.000272
0.000282
0.000291
0.000290
0.000278
0.000318
0.000421
0.000056
0.000239
0.000276
0.000248
0.000260
0.000250
0.000247
0.000261
0.000253
0.000288
0.001663
0.000232
0.000255
0.000241
0.000280
0.000275
0.000254
0.000262
0.000258
0.000349
0.001792
0.000260
0.000261
0.000450
0.000429
0.000390
0.000247
0.000254
0.000502
0.000486
0.000751
0.000191
0.000058
0.000225
0.000243
0.000251
0.000238
0.000305
0.000244
0.000392
0.000462
0.000407
0.000262
0.000235
0.000242
0.000261
0.000237
0.000260
0.000252
0.000243
0.000268
0.000296
0.000331
0.001663
0.000276
0.000253
0.000421
0.000282
0.000738
0.000680
0.000500
0.000341
0.000233
0.000192
0.000056
0.000227
0.000251
0.000294
0.000212
0.000279
0.000234
0.000268
0.000555
0.001375
0.000210
0.000268
0.000223
0.000259
0.000258
0.000263
0.000283
0.000302
0.000790
0.001373
0.000304
0.000235
0.000417
0.000240
0.000250
0.000258
0.000262
0.000270
0.000265
0.000259
0.000273
0.000200
0.000057
0.000194
0.000247
0.000256
0.000253
0.000244
0.000236
0.000244
0.000249
0.000241
0.000255
0.001626
0.000266
0.000233
0.000247
0.000254
0.000244
0.000248
0.000250
0.000250
0.000251
0.000295
0.001643
0.000276
0.000256
0.000439
0.000264
0.000248
0.000269
0.000253
0.000277
0.000189
0.000056
0.000206
0.000234
0.000255
0.000245
0.000242
0.000263
0.000244
0.000234
0.000268
0.000287
0.000233
0.000239
0.000256
0.000272
0.001641
0.000278
0.000296
0.000217
0.000247
0.000274
0.000282
0.000231
0.000243
0.000258
0.001792
0.000397
0.000341
0.000364
0.000237
0.000281
0.000196
0.000056
0.000219
0.000246
0.000242
0.000266
0.000257
0.000262
0.000267
0.000396
0.000479
0.000368
0.000209
0.000242
0.000254
0.000249
0.001559
0.000530
0.000405
0.000379
0.000265
0.000232
0.000267
0.000289
0.000264
0.001756
0.000485
0.000467
0.000236
0.000253
0.000248
0.000271
0.000183
0.000057
0.000186
0.000231
0.000260
0.000262
0.000319
0.000443
0.000432
0.000242
0.000212
0.000249
0.000262
0.000237
0.000253
0.001715
0.000492
0.000293
0.000215
0.000250
0.000275
0.000294
0.000243
0.000257
0.001801
0.000389
0.000277
0.000388
0.000242
0.000257
0.000266
0.000407
0.000326
0.000055
0.000229
0.000358
0.000375
0.000270
0.000250
0.000247
0.000247
0.000259
0.000263
0.000211
0.000238
0.000252
0.001546
0.000401
0.000276
0.000211
0.000269
0.000251
0.000243
0.000304
0.000258
0.000327
0.000247
0.001833
0.000228
0.000491
0.000240
0.000261
0.000266
0.000261
0.000266
0.000056
0.000336
0.000596
0.000615
0.000215
0.000223
0.000275
0.000231
0.000218
0.000258
0.000251
0.000254
0.001698
0.000253
0.000450
0.000365
0.000214
0.000239
0.000229
0.000251
0.000266
0.000254
0.001862
0.000224
0.000459
0.001874
0.000514
0.000357
0.000252
0.000253
0.000268
0.000184
0.000056
0.000210
0.000242
0.000249
0.000240
0.000255
0.001618
0.000254
0.000229
0.000270
0.000238
0.000246
0.000264
0.000228
0.000257
0.000280
0.000382
0.000654
0.000262
0.000229
0.000266
0.000284
0.000250
0.000225
0.000435
0.000435
0.000254
0.000331
0.000668
0.000348
0.000268
0.000209
0.000056
0.000222
0.000256
0.000238
0.000247
0.000241
0.000237
0.000241
0.000387
0.001833
0.000319
0.000239
0.000226
0.000246
0.000247
0.000251
0.000310
0.000384
0.000499
0.000327
0.000253
0.000265
0.000296
0.000281
0.000248
0.000288
0.000429
0.000345
0.000575
0.000513
0.000423
0.000177
0.000058
0.000206
0.000259
0.000248
0.000230
0.000239
0.000233
0.000250
0.000257
0.000228
0.000294
0.000343
0.000469
0.001355
0.000251
0.000238
0.000239
0.000254
0.000250
0.000248
0.000252
0.000285
0.000464
0.000400
0.000267
0.000256
0.000266
0.000242
0.000273
0.000283
0.000246
0.000380
0.000055
0.000209
0.000241
0.000228
0.000312
0.000491
0.000432
0.000241
0.000253
0.000236
0.000261
0.000258
0.000225
0.000295
0.000254
0.000232
0.000474
0.000431
0.001640
0.000294
0.000211
0.000251
0.000270
0.000248
0.000245
0.000260
0.000471
0.000402
0.000388
0.000422
0.000239
0.000194
0.000056
0.000205
0.000431
0.000234
0.000217
0.000288
0.000219
0.000258
0.000602
0.000333
0.000331
0.000215
0.000280
0.000262
0.000238
0.000518
0.000338
0.000227
0.000258
0.000466
0.001565
0.000271
0.000298
0.000462
0.000254
0.000278
0.000279
0.000254
0.000386
0.000505
0.000381
0.000269
0.000055
0.000211
0.000233
0.000249
0.000225
0.000412
0.000310
0.000288
0.000225
0.000403
0.000487
0.000355
0.000268
0.000224
0.000254
0.000253
0.000283
0.000240
0.000255
0.000228
0.000350
0.000292
0.000389
0.001785
0.000246
0.000256
0.000260
0.000281
0.000346
0.000468
0.000637
0.000446
0.000056
0.000227
0.000332
0.000293
0.000420
0.000380
0.000214
0.000273
0.000274
0.000531
0.000402
0.000258
0.000240
0.000236
0.000277
0.000259
0.000235
0.000256
0.000272
0.000264
0.000260
0.000263
0.000448
0.000705
0.001250
0.000335
0.000435
0.000418
0.000232
0.000445
0.000422
0.000349
0.000056
0.000241
0.000379
0.000285
0.000198
0.000229
0.000270
0.000388
0.000230
0.000244
0.000493
0.000290
0.000462
0.000237
0.000258
0.000261
0.000251
0.000367
0.000419
0.000308
0.000238
0.000253
0.000488
0.000556
0.001642
0.000239
0.000433
0.000314
0.000218
0.000257
0.000462
0.000305
0.000057
0.000237
0.000222
0.000245
0.000257
0.000249
0.000239
0.000251
0.000329
0.000450
0.000332
0.000374
0.000398
0.000278
0.000576
0.000241
0.000243
0.000275
0.000264
0.000230
0.000348
0.000230
0.000232
0.000276
0.000367
0.000517
0.001719
0.000231
0.000258
0.000222
0.000274
0.000188
0.000056
0.000400
0.000429
0.000311
0.000224
0.000236
0.000254
0.000252
0.000241
0.000274
0.000238
0.000224
0.000262
0.000396
0.000523
0.000394
0.000300
0.000254
0.000235
0.000339
0.000386
0.000382
0.000351
0.000344
0.000398
0.000243
0.000263
0.000257
0.000276
0.001794
0.000246
0.000209
0.000057
0.000204
0.000215
0.000257
0.000297
0.000330
0.000548
0.000328
0.000197
0.000289
0.000235
0.000249
0.000247
0.000529
0.000441
0.000481
0.000278
0.000273
0.000256
0.000420
0.000467
0.000355
0.000410
0.000607
0.000325
0.000245
0.000226
0.000284
0.000235
0.000266
0.001744
0.000335
0.000058
0.000260
0.000330
0.000203
0.000235
0.000253
0.000255
0.000231
0.000497
0.000381
0.000305
0.000295
0.000287
0.000344
0.000679
0.000301
0.000237
0.000251
0.000251
0.000250
0.000271
0.000274
0.000255
0.000249
0.000262
0.000324
0.000411
0.000398
0.000307
0.000242
0.000242
0.000193
0.000055
0.000465
0.000275
0.000500
0.000227
0.000202
0.000250
0.000244
0.000257
0.000236
0.000231
0.000245
0.000283
0.000285
0.000382
0.000447
0.000534
0.000314
0.000311
0.000386
0.000343
0.000297
0.000233
0.000249
0.000259
0.001757
0.000252
0.001720
0.000931
0.000409
0.000315
0.000165
0.000057
0.000208
0.000247
0.000226
0.000246
0.000268
0.000243
0.000246
0.000261
0.000232
0.000291
0.000390
0.000463
0.000318
0.000370
0.000236
0.000265
0.000253
0.000290
0.000229
0.000243
0.000255
0.000262
0.001818
0.000226
0.000262
0.000265
0.000275
0.000264
0.001881
0.000526
0.000295
0.000056
0.000213
0.000211
0.000243
0.000238
0.000255
0.000249
0.000237
0.000257
0.000256
0.000429
0.000447
0.000366
0.000396
0.000226
0.000236
0.000254
0.000340
0.000429
0.000365
0.000256
0.001787
0.000251
0.000238
0.000249
0.000267
0.000268
0.000241
0.000259
0.000328
0.000301
0.000405
0.000055
0.000250
0.000209
0.000233
0.000268
0.000260
0.000222
0.000256
0.000259
0.000239
0.000252
0.000245
0.000263
0.000383
0.000409
0.000352
0.000248
0.000471
0.000239
0.000242
0.000258
0.000259
0.000258
0.000275
0.000252
0.000279
0.001801
0.000233
0.000246
0.000265
0.000237
0.000206
0.000056
0.000277
0.000370
0.000217
0.000220
0.000242
0.000231
0.000241
0.000258
0.000246
0.000219
0.000237
0.000267
0.000258
0.000369
0.000393
0.000415
0.000239
0.000235
0.000249
0.000254
0.000283
0.000250
0.000240
0.000273
0.000250
0.000269
0.000317
0.001619
0.000266
0.000233
0.000195
0.000056
0.000202
0.000231
0.000252
0.000263
0.000341
0.000428
0.000371
0.000269
0.000235
0.000243
0.000269
0.000231
0.000245
0.000260
0.000263
0.000251
0.000245
0.000262
0.000250
0.000254
0.000270
0.000270
0.000244
0.000253
0.000233
0.000276
0.000275
0.000260
0.000257
0.000262
0.000198
0.000056
0.000195
0.000235
0.000256
0.000275
0.000230
0.000241
0.000239
0.000276
0.000260
0.000252
0.000222
0.000247
0.000254
0.000252
0.000289
0.000240
0.000259
0.000245
0.000301
0.000244
0.000279
0.000325
0.000275
0.000223
0.000289
0.000251
0.000271
0.000251
0.000273
0.000511
0.000579
0.000055
0.000228
0.000277
0.000232
0.000232
0.000224
0.000255
0.000242
0.000247
0.000253
0.000244
0.000264
0.000314
0.000554
0.000409
0.001514
0.000241
0.000497
0.000223
0.000407
0.000306
0.000464
0.000355
0.000235
0.000274
0.000243
0.000271
0.000274
0.000253
0.000306
0.000279
0.000168
0.000056
0.000282
0.000511
0.000291
0.000335
0.000212
0.000279
0.000226
0.000252
0.000223
0.000241
0.000253
0.000258
0.000234
0.000315
0.000341
0.000506
0.000352
0.001794
0.000229
0.000260
0.000305
0.000447
0.000450
0.000305
0.000356
0.000281
0.000298
0.000237
0.000221
0.000252
0.000186
0.000057
0.000196
0.000228
0.000238
0.000279
0.000356
0.000485
0.000319
0.000248
0.000255
0.000215
0.000256
0.000263
0.000268
0.000262
0.000245
0.000263
0.000365
0.000437
0.000332
0.000429
0.000238
0.001741
0.000327
0.000486
0.000496
0.000488
0.000356
0.000197
0.000257
0.000261
0.000458
0.000057
0.000219
0.000272
0.000221
0.000329
0.000532
0.000300
0.000387
0.000217
0.000281
0.000278
0.000210
0.000264
0.000255
0.000286
0.000311
0.000240
0.000232
0.000382
0.000523
0.000283
0.000505
0.001845
0.000248
0.000470
0.000465
0.000369
0.000220
0.000262
0.000313
0.000235
0.000206
0.000056
0.000212
0.000331
0.000367
0.000339
0.000374
0.000321
0.000343
0.000218
0.000241
0.000260
0.000274
0.000224
0.000251
0.000250
0.000253
0.000259
0.000329
0.000355
0.000521
0.000345
0.000322
0.000231
0.000255
0.001719
0.000436
0.000484
0.000697
0.000233
0.000268
0.000306
0.000156
0.000055
0.000190
0.000233
0.000355
0.000231
0.000274
0.000328
0.000561
0.000200
0.000230
0.000547
0.000214
0.000250
0.000260
0.000273
0.000279
0.000263
0.000214
0.000500
0.000382
0.000373
0.000272
0.000223
0.000257
0.000260
0.000248
0.000273
0.000237
0.000252
0.000272
0.000289
0.000208
0.000057
0.000319
0.000346
0.000209
0.000250
0.000252
0.000255
0.000237
0.000289
0.000246
0.000246
0.000283
0.000326
0.000418
0.000414
0.000333
0.000277
0.000223
0.000233
0.000262
0.000267
0.000287
0.000258
0.000235
0.000263
0.000281
0.000300
0.000454
0.000368
0.000328
0.000236
0.000179
0.000056
0.000198
0.000224
0.000282
0.000240
0.000240
0.000267
0.000264
0.000247
0.000478
0.000211
0.000260
0.000262
0.000236
0.000263
0.000273
0.000295
0.000247
0.000347
0.000221
0.000236
0.000261
0.000267
0.000256
0.000270
0.000271
0.000261
0.000261
0.000259
0.000252
0.000506
0.000159
0.000056
0.000210
0.000233
0.000249
0.000294
0.000200
0.000247
0.000356
0.000406
0.000239
0.000233
0.000252
0.000258
0.000230
0.000286
0.000427
0.001783
0.000226
0.000283
0.000272
0.000331
0.000410
0.000368
0.000513
0.000244
0.000402
0.000408
0.000216
0.000270
0.000267
0.000276
0.001393
0.000056
0.000383
0.000328
0.000245
0.000219
0.000226
0.000254
0.000237
0.000256
0.000238
0.000281
0.000239
0.000260
0.000250
0.000250
0.000592
0.001630
0.000220
0.000248
0.000238
0.000266
0.000233
0.000265
0.000424
0.000354
0.000289
0.000333
0.000222
0.000282
0.000256
0.000264
0.000206
0.000057
0.001189
0.000526
0.000360
0.000244
0.000238
0.000239
0.000218
0.000241
0.000493
0.000216
0.000243
0.000240
0.000345
0.000468
0.000449
0.000350
0.000251
0.000234
0.000332
0.000346
0.000278
0.000258
0.000269
0.000241
0.000269
0.000582
0.000519
0.000284
0.000266
0.000260
0.000175
0.000056
0.000187
0.000211
0.000243
0.000250
0.001570
0.000200
0.000221
0.000256
0.000259
0.000235
0.000248
0.000251
0.000244
0.000259
0.000273
0.000304
0.000439
0.000690
0.000202
0.001751
0.000252
0.000295
0.000360
0.000336
0.000627
0.000346
0.000246
0.000248
0.000264
0.000280
0.000201
0.000059
0.000190
0.000254
0.000236
0.000347
0.001223
0.000235
0.000252
0.000263
0.000241
0.000236
0.000241
0.000252
0.000270
0.000254
0.000256
0.000308
0.000424
0.000515
0.000236
0.000261
0.000276
0.000269
0.000250
0.000228
0.000295
0.000257
0.000241
0.000277
0.000276
0.000378
0.000528
0.000058
0.000227
0.000242
0.000234
0.000258
0.000266
0.000262
0.000209
0.000268
0.000267
0.000277
0.001412
0.000231
0.000234
0.000252
0.000246
0.000251
0.000303
0.000227
0.000276
0.000248
0.000274
0.000480
0.000448
0.000399
0.000224
0.000279
0.001767
0.000259
0.000248
0.000322
0.000489
0.000056
0.000214
0.000391
0.000456
0.000500
0.000511
0.000582
0.001451
0.000420
0.000523
0.000656
0.000549
0.000749
0.000453
0.000614
0.000586
0.001882
0.000423
0.000425
0.000387
0.000321
0.000221
0.000280
0.000290
0.000265
0.000261
0.000286
0.000296
0.000285
0.000258
0.000288
0.001355
0.000057
0.000209
0.000227
0.000244
0.000239
0.000267
0.000252
0.000235
0.000235
0.000253
0.000247
0.000251
0.000233
0.000259
0.000263
0.000271
0.000254
0.001813
0.000266
0.000261
0.000251
0.000248
0.000273
0.000264
0.000260
0.000498
0.000377
0.000310
0.000232
0.000269
0.000290
0.000203
0.000056
0.000211
0.001361
0.000330
0.000274
0.000249
0.000239
0.000242
0.000234
0.000236
0.000246
0.000209
0.000241
0.000263
0.000507
0.000358
0.000302
0.000242
0.001822
0.000355
0.000228
0.000244
0.000276
0.000250
0.000272
0.000268
0.000278
0.000274
0.000261
0.000259
0.000317
0.000204
0.000057
0.000201
0.000239
0.000253
0.001445
0.000217
0.000249
0.000238
0.000249
0.000237
0.000294
0.000234
0.000236
0.000251
0.000282
0.000229
0.000261
0.000269
0.000256
0.000274
0.000249
0.000265
0.001768
0.000277
0.001778
0.000247
0.000250
0.000253
0.000284
0.000276
0.000268
0.000195
0.000057
0.000192
0.000241
0.001349
0.000229
0.000252
0.000238
0.000267
0.000253
0.000264
0.000235
0.000252
0.000233
0.000261
0.000267
0.000255
0.000267
0.000257
0.000286
0.000285
0.000226
0.001888
0.000232
0.001831
0.000239
0.000255
0.000285
0.000232
0.000256
0.000249
0.000271
0.000200
0.000056
0.001418
0.000214
0.000230
0.000242
0.000246
0.000237
0.000377
0.000280
0.000234
0.000249
0.000263
0.000257
0.000246
0.000427
0.000332
0.000287
0.000240
0.000276
0.000247
0.000247
0.000296
0.000316
0.000235
0.000256
0.000261
0.000279
0.000273
0.000335
0.000642
0.000362
0.000210
0.000056
0.000217
0.000251
0.000275
0.000292
0.000359
0.000278
0.001685
0.000294
0.000272
0.000276
0.000274
0.000254
0.000269
0.000260
0.000303
0.000306
0.000358
0.000584
0.000346
0.000266
0.000289
0.000282
0.000260
0.000286
0.000303
0.000270
0.000268
0.000270
0.000237
0.000325
0.000448
0.000057
0.000234
0.000464
0.000267
0.000262
0.000269
0.000205
0.000222
0.000255
0.000253
0.000281
0.001498
0.000214
0.000230
0.000249
0.000252
0.000300
0.000259
0.000242
0.000254
0.000276
0.000257
0.000314
0.000625
0.000285
0.000279
0.000277
0.000272
0.000254
0.000233
0.000316
0.000167
0.000057
0.000192
0.000234
0.000327
0.000417
0.000397
0.000250
0.000215
0.000251
0.000257
0.000248
0.000230
0.000252
0.000261
0.000266
0.000240
0.000228
0.000522
0.001092
0.000255
0.000238
0.000272
0.000253
0.000351
0.000422
0.000246
0.000279
0.000642
0.000343
0.000372
0.000240
0.000173
0.000056
0.000221
0.000247
0.000260
0.000268
0.000244
0.000249
0.000332
0.000419
0.000468
0.000243
0.000363
0.000392
0.000396
0.000363
0.000258
0.000251
0.000221
0.000256
0.000426
0.000444
0.001263
0.000229
0.000268
0.000279
0.000231
0.000239
0.000257
0.000330
0.000403
0.000459
0.000247
0.000056
0.000191
0.000238
0.000261
0.000244
0.000235
0.000248
0.000240
0.000265
0.000304
0.000364
0.000371
0.000406
0.000251
0.000230
0.000248
0.000278
0.000233
0.000265
0.000261
0.000274
0.000428
0.000250
0.000355
0.000440
0.000312
0.000249
0.000273
0.000271
0.000254
0.000338
0.000162
0.000055
0.000302
0.000312
0.000288
0.000408
0.000433
0.000371
0.000243
0.000241
0.000244
0.000274
0.000257
0.000260
0.000237
0.000255
0.000236
0.000232
0.000267
0.000350
0.000476
0.000379
0.000218
0.000275
0.000245
0.000250
0.000262
0.000282
0.000265
0.000287
0.000259
0.000266
0.000276
0.000057
0.000339
0.000283
0.000239
0.000267
0.000224
0.000242
0.000255
0.000248
0.000266
0.000256
0.000251
0.000231
0.000325
0.000456
0.000442
0.000305
0.000215
0.000253
0.000254
0.000270
0.000251
0.000268
0.000256
0.000263
0.000294
0.000283
0.000413
0.000614
0.000409
0.000247
0.000169
0.000055
0.000371
0.000202
0.000225
0.000241
0.000252
0.000250
0.000238
0.000269
0.000245
0.000253
0.000218
0.000242
0.000279
0.000227
0.000233
0.000268
0.000254
0.000264
0.000292
0.000245
0.000257
0.000260
0.000261
0.000262
0.000274
0.000229
0.000265
0.000294
0.000243
0.000285
0.000193
0.000056
0.000183
0.000237
0.000249
0.000242
0.000231
0.000258
0.000262
0.000244
0.000254
0.000278
0.000232
0.000232
0.000263
0.000395
0.000251
0.000302
0.000244
0.000267
0.000252
0.000276
0.000272
0.000238
0.000250
0.000243
0.000275
0.000273
0.000249
0.000244
0.000279
0.000261
0.000206
0.000056
0.000201
0.000355
0.000370
0.000282
0.000312
0.000236
0.000264
0.000259
0.000222
0.000248
0.000278
0.000234
0.000255
0.000229
0.000258
0.000282
0.000242
0.000269
0.000246
0.000261
0.000280
0.000261
0.000275
0.000257
0.000289
0.000236
0.000250
0.000268
0.000279
0.000257
0.000201
0.000056
0.000195
0.000234
0.000267
0.000267
0.000247
0.000441
0.000214
0.000276
0.000281
0.000468
0.000450
0.000290
0.000220
0.000247
0.000280
0.000259
0.000237
0.000267
0.000256
0.000276
0.000257
0.000261
0.000263
0.000271
0.000596
0.000450
0.000258
0.000296
0.000262
0.000289
0.000163
0.000057
0.000214
0.000218
0.000251
0.000251
0.000367
0.000669
0.000245
0.000380
0.000207
0.000250
0.000256
0.000250
0.000255
0.000245
0.000252
0.000276
0.000272
0.000238
0.000685
0.000344
0.000299
0.000235
0.000261
0.000283
0.000277
0.000256
0.000265
0.000288
0.000230
0.000330
0.000322
0.000056
0.000261
0.000240
0.000240
0.000239
0.000255
0.000261
0.000218
0.000245
0.000243
0.000261
0.000242
0.000252
0.000246
0.000452
0.000512
0.000388
0.000247
0.000253
0.000259
0.000245
0.000288
0.000267
0.000480
0.000220
0.000262
0.000564
0.000439
0.000498
0.000245
0.000250
0.000190
0.000056
0.000210
0.000218
0.000242
0.000244
0.000255
0.000259
0.000301
0.000524
0.000497
0.000429
0.000220
0.000256
0.000274
0.000294
0.000234
0.000244
0.000239
0.000255
0.000259
0.000380
0.000355
0.000649
0.000362
0.000250
0.000363
0.000398
0.000463
0.000238
0.000269
0.000384
0.000383
0.000056
0.000268
0.000232
0.000438
0.000217
0.000242
0.000245
0.000284
0.000242
0.000228
0.000241
0.000298
0.000405
0.000368
0.000299
0.000230
0.000250
0.000259
0.000256
0.000267
0.000276
0.000282
0.000242
0.000249
0.000269
0.000318
0.000482
0.000489
0.000230
0.000262
0.000274
0.000194
0.000055
0.000222
0.000260
0.000222
0.000249
0.000247
0.000297
0.000378
0.000301
0.000484
0.000269
0.000377
0.000221
0.000247
0.000265
0.000252
0.000264
0.000242
0.000256
0.000316
0.000423
0.000424
0.000339
0.000478
0.000274
0.000378
0.000421
0.000384
0.000251
0.000251
0.000276
0.000383
0.000057
0.000242
0.000276
0.000219
0.000260
0.000254
0.000255
0.000254
0.000245
0.000274
0.000244
0.000237
0.000333
0.000473
0.000372
0.000377
0.000218
0.000267
0.000265
0.000265
0.000235
0.000255
0.000251
0.000269
0.000272
0.000274
0.000334
0.000498
0.000467
0.000234
0.000282
0.000192
0.000056
0.000217
0.000241
0.000275
0.000248
0.000266
0.000319
0.000497
0.000484
0.000348
0.000692
0.000260
0.000216
0.000239
0.000261
0.000246
0.000266
0.000298
0.000253
0.000524
0.000391
0.001502
0.000302
0.000263
0.000281
0.000288
0.000252
0.000332
0.000451
0.000351
0.000330
0.000181
0.000057
0.000206
0.000234
0.000241
0.000267
0.000221
0.000256
0.000304
0.000229
0.000241
0.000327
0.000353
0.000361
0.000285
0.000318
0.000392
0.000344
0.000245
0.000252
0.000271
0.000254
0.000256
0.000240
0.000309
0.000219
0.000326
0.000436
0.000432
0.000281
0.000260
0.000266
0.000190
0.000055
0.000229
0.000242
0.000261
0.000253
0.000241
0.000232
0.000477
0.000217
0.000228
0.000255
0.000243
0.000254
0.000258
0.000255
0.000246
0.000273
0.000262
0.000293
0.000248
0.000256
0.000278
0.000271
0.000290
0.000244
0.000263
0.000282
0.000261
0.000272
0.000259
0.000274
0.000180
0.000056
0.000245
0.000229
0.000315
0.000491
0.000289
0.000252
0.000240
0.000241
0.000265
0.000246
0.000251
0.000253
0.000263
0.000263
0.000238
0.000243
0.000268
0.000249
0.000336
0.000279
0.000457
0.000384
0.000232
0.000271
0.000256
0.000254
0.000268
0.000254
0.000273
0.000295
0.000179
0.000056
0.000376
0.000403
0.000426
0.000195
0.000259
0.000254
0.000411
0.000218
0.000235
0.000250
0.000274
0.000277
0.000404
0.000469
0.001773
0.000258
0.000246
0.000249
0.000276
0.000244
0.000350
0.000518
0.000528
0.000295
0.000227
0.000271
0.000268
0.000427
0.000280
0.000277
0.000169
0.000056
0.000248
0.000350
0.000345
0.000311
0.000492
0.000201
0.000241
0.000263
0.000242
0.000232
0.000268
0.000248
0.000260
0.000308
0.000436
0.000463
0.000223
0.000240
0.000257
0.000263
0.000261
0.000320
0.000233
0.000280
0.000272
0.000448
0.000484
0.000401
0.000486
0.000232
0.000204
0.000056
0.000194
0.000233
0.000256
0.000230
0.000253
0.000244
0.000269
0.000317
0.000313
0.000370
0.000433
0.000346
0.000210
0.000253
0.000267
0.000297
0.000298
0.000228
0.000276
0.000273
0.000237
0.000278
0.000496
0.000369
0.000298
0.000257
0.000253
0.000440
0.000414
0.000322
0.000158
0.000056
0.000203
0.000245
0.000327
0.000456
0.000357
0.000217
0.000221
0.000259
0.000259
0.000282
0.000233
0.000254
0.000228
0.000254
0.000265
0.000289
0.000377
0.000380
0.000299
0.000344
0.000491
0.000225
0.000276
0.000275
0.000305
0.000285
0.000251
0.000257
0.000479
0.000531
0.000178
0.000055
0.000201
0.000232
0.000249
0.000250
0.000242
0.000486
0.000206
0.000259
0.000260
0.000286
0.000534
0.000591
0.000213
0.000235
0.000242
0.000253
0.000259
0.000265
0.000245
0.000244
0.000289
0.000239
0.000392
0.000379
0.000367
0.000411
0.000287
0.000311
0.000328
0.000236
0.000188
0.000056
0.000200
0.000239
0.000270
0.000479
0.000332
0.000279
0.000257
0.000232
0.000244
0.000257
0.000251
0.000257
0.000266
0.000239
0.000247
0.000262
0.000251
0.000246
0.000266
0.000372
0.000571
0.000341
0.000227
0.000249
0.000279
0.000275
0.000265
0.000255
0.000263
0.000267
0.000197
0.000057
0.000293
0.000331
0.000491
0.000240
0.000216
0.000251
0.000313
0.000454
0.000293
0.000211
0.000242
0.000278
0.000255
0.000465
0.000416
0.000294
0.000235
0.000242
0.000243
0.000263
0.000274
0.000262
0.000262
0.000279
0.000254
0.000319
0.000384
0.000456
0.000268
0.000239
0.000182
0.000056
0.000185
0.000238
0.000251
0.000256
0.000255
0.000264
0.000227
0.000267
0.000252
0.000238
0.000264
0.000241
0.000288
0.001437
0.000217
0.000255
0.000262
0.000242
0.000276
0.000277
0.000260
0.000240
0.000279
0.000247
0.000272
0.000284
0.000259
0.000268
0.000264
0.000270
0.000187
0.000055
0.000211
0.000227
0.000259
0.000263
0.000219
0.000258
0.000251
0.000254
0.000226
0.000251
0.000242
0.000266
0.000257
0.000254
0.000259
0.000256
0.000242
0.000264
0.000274
0.000253
0.000252
0.000283
0.000222
0.000255
0.001300
0.000271
0.000623
0.000411
0.000329
0.000216
0.000198
0.000056
0.000199
0.000241
0.000232
0.000268
0.000403
0.000242
0.000231
0.000242
0.000256
0.000367
0.000441
0.000344
0.000232
0.000232
0.000262
0.000260
0.000260
0.000258
0.000247
0.000263
0.000260
0.000253
0.000291
0.000376
0.000570
0.000401
0.000236
0.000254
0.001382
0.000243
0.000178
0.000056
0.000372
0.000392
0.000329
0.000258
0.000243
0.000209
0.000234
0.000254
0.000258
0.000255
0.000250
0.000256
0.000295
0.000289
0.000581
0.000327
0.000337
0.000221
0.000243
0.000259
0.000265
0.000283
0.000250
0.000262
0.000269
0.000257
0.000305
0.000564
0.000414
0.000338
0.000161
0.000073
0.000189
0.000236
0.001270
0.000422
0.000284
0.000521
0.000337
0.000480
0.000286
0.000330
0.000215
0.000221
0.000285
0.000233
0.000265
0.000255
0.000372
0.000502
0.000348
0.000385
0.000260
0.000258
0.000256
0.000494
0.000230
0.000267
0.000251
0.000281
0.000298
0.000556
0.000297
0.000057
0.000378
0.000314
0.000235
0.000218
0.001682
0.000429
0.000225
0.000247
0.000235
0.000249
0.000234
0.000244
0.000242
0.000271
0.000247
0.000268
0.000233
0.000262
0.000412
0.000365
0.000471
0.000238
0.000262
0.000260
0.000256
0.000297
0.000251
0.000230
0.000266
0.000278
0.000204
0.000056
0.000426
0.000269
0.000226
0.000226
0.000255
0.000242
0.000262
0.000257
0.000218
0.000222
0.001419
0.000521
0.000210
0.000245
0.000241
0.000256
0.000270
0.000262
0.000238
0.000300
0.000242
0.000251
0.000273
0.000400
0.000417
0.000464
0.000229
0.000264
0.000278
0.000284
0.000166
0.000057
0.000186
0.000422
0.000224
0.000244
0.000337
0.000431
0.000368
0.000333
0.000453
0.000208
0.000231
0.000252
0.000286
0.000246
0.000260
0.001410
0.000360
0.000282
0.000244
0.000272
0.000297
0.000235
0.000252
0.000256
0.000255
0.000273
0.000488
0.000402
0.000299
0.000265
0.000163
0.000056
0.000191
0.000235
0.000252
0.000238
0.000224
0.000273
0.000232
0.000241
0.000275
0.000398
0.000408
0.000301
0.000240
0.000254
0.000249
0.000272
0.000273
0.000262
0.000266
0.000239
0.000244
0.000300
0.001280
0.000251
0.000244
0.000254
0.000257
0.000272
0.000260
0.000260
0.000188
0.000056
0.000209
0.000376
0.000497
0.000203
0.000240
0.000241
0.000265
0.000286
0.000238
0.000261
0.000239
0.000271
0.000242
0.000246
0.000259
0.000264
0.000269
0.000267
0.000263
0.000248
0.000250
0.000276
0.000270
0.000274
0.000289
0.000269
0.000268
0.000259
0.000261
0.000453
0.001356
0.000056
0.000214
0.000252
0.000224
0.000264
0.000231
0.000260
0.000246
0.000223
0.000250
0.000251
0.000271
0.000264
0.000245
0.000240
0.000273
0.000227
0.001735
0.000261
0.000228
0.000263
0.000246
0.000260
0.000275
0.000260
0.000295
0.000233
0.000265
0.000283
0.000260
0.000257
0.000223
0.000056
0.000294
0.000327
0.001297
0.000242
0.000213
0.000245
0.000251
0.000253
0.000274
0.000244
0.000231
0.000331
0.000402
0.000452
0.000277
0.000222
0.000255
0.000252
0.000264
0.000262
0.000245
0.000276
0.000257
0.000284
0.000266
0.000371
0.000395
0.000368
0.000303
0.000243
0.000195
0.000056
0.000202
0.000248
0.000243
0.000248
0.000276
0.000199
0.000240
0.000289
0.000387
0.001340
0.000264
0.000212
0.000243
0.000275
0.000253
0.000293
0.000235
0.000254
0.000316
0.000393
0.000416
0.000241
0.000251
0.000234
0.000281
0.000276
0.000275
0.000287
0.000270
0.000274
0.000191
0.000056
0.000252
0.000421
0.000389
0.000209
0.000231
0.000238
0.000248
0.000278
0.000264
0.000247
0.000235
0.000250
0.000451
0.000523
0.000486
0.001415
0.000260
0.000254
0.000363
0.000345
0.000450
0.000466
0.000453
0.000371
0.000245
0.000244
0.000273
0.000277
0.000263
0.000277
0.000186
0.000056
0.000215
0.000284
0.000426
0.000430
0.000392
0.000238
0.000252
0.000241
0.000242
0.000272
0.000233
0.000266
0.000284
0.000223
0.000261
0.000305
0.000397
0.000373
0.000375
0.001324
0.000276
0.000246
0.000254
0.000267
0.000519
0.000391
0.000394
0.000231
0.000265
0.000283
0.000176
0.000056
0.000204
0.000238
0.000242
0.000265
0.000225
0.000287
0.000439
0.000401
0.000363
0.000216
0.000243
0.000260
0.000269
0.000289
0.000240
0.000254
0.000267
0.000263
0.000269
0.000242
0.000486
0.000476
0.000277
0.001345
0.000412
0.000234
0.000274
0.000421
0.000490
0.000301
0.000311
0.000057
0.000191
0.000236
0.000249
0.000247
0.000251
0.000255
0.001687
0.000238
0.000230
0.000229
0.000255
0.000253
0.000248
0.000333
0.000324
0.000287
0.000256
0.000342
0.000470
0.000407
0.000310
0.000287
0.000227
0.000259
0.001487
0.000362
0.000397
0.000452
0.000335
0.000301
0.000164
0.000057
0.000184
0.000250
0.000253
0.000257
0.000242
0.000265
0.001699
0.000229
0.000268
0.000248
0.000330
0.000403
0.001449
0.000355
0.000395
0.000243
0.000261
0.000246
0.000252
0.000272
0.001532
0.000620
0.000350
0.000297
0.000221
0.000261
0.000262
0.000287
0.000245
0.000250
0.000211
0.000056
0.000194
0.000244
0.000270
0.000253
0.000255
0.000274
0.000278
0.000252
0.000253
0.000251
0.000258
0.000246
0.000285
0.000245
0.000254
0.001493
0.000281
0.000231
0.000264
0.000278
0.000288
0.000242
0.000423
0.001277
0.000273
0.000240
0.000271
0.000257
0.000398
0.000238
0.000198
0.000057
0.000199
0.000245
0.000222
0.000243
0.000243
0.000232
0.000225
0.001691
0.000261
0.000223
0.000356
0.000263
0.000232
0.000220
0.000252
0.001401
0.000225
0.000263
0.000267
0.000244
0.000295
0.000317
0.000294
0.001306
0.000272
0.000252
0.000254
0.000258
0.001393
0.000286
0.000217
0.000057
0.000213
0.000378
0.000204
0.000243
0.000262
0.000227
0.000288
0.000249
0.000264
0.000245
0.000263
0.000263
0.000250
0.000246
0.000332
0.001498
0.000235
0.000267
0.000250
0.000246
0.000301
0.000243
0.000250
0.001518
0.000344
0.000233
0.000264
0.001291
0.000264
0.000236
0.000207
0.000057
0.000217
0.000386
0.000349
0.000212
0.000234
0.000240
0.000268
0.000251
0.000266
0.000270
0.000250
0.000240
0.000260
0.000268
0.000423
0.001219
0.000237
0.000240
0.000271
0.000280
0.000229
0.000242
0.000247
0.000328
0.001309
0.000222
0.000250
0.000252
0.000257
0.001350
0.000285
0.000057
0.000256
0.000286
0.000226
0.000224
0.000245
0.000253
0.000244
0.000245
0.000303
0.000231
0.000238
0.000263
0.000232
0.000310
0.000430
0.001482
0.000212
0.000254
0.000298
0.000526
0.000266
0.000383
0.001366
0.000309
0.000227
0.000268
0.000255
0.001304
0.000269
0.000546
0.000313
0.000057
0.000219
0.000253
0.000259
0.000249
0.000254
0.000255
0.000274
0.000260
0.000250
0.000264
0.000304
0.000529
0.001277
0.000244
0.000264
0.000269
0.000274
0.000225
0.000262
0.000214
0.000344
0.001242
0.000257
0.000247
0.000252
0.000248
0.001513
0.000426
0.000492
0.000212
0.000182
0.000056
0.000199
0.000233
0.000253
0.000235
0.000250
0.000267
0.000235
0.000250
0.000431
0.000507
0.000264
0.001487
0.000211
0.000239
0.000268
0.000259
0.000269
0.000303
0.001663
0.000258
0.000386
0.000347
0.001282
0.000329
0.000327
0.000331
0.000263
0.000255
0.000263
0.000262
0.000201
0.000056
0.000179
0.000245
0.000330
0.000240
0.000357
0.000552
0.000236
0.000320
0.001449
0.000234
0.000380
0.000257
0.000229
0.000339
0.000397
0.001275
0.000268
0.000247
0.000240
0.000260
0.001519
0.000436
0.000226
0.000275
0.000273
0.000249
0.000450
0.000329
0.000260
0.000224
0.000273
0.000055
0.000262
0.000363
0.000315
0.000275
0.000216
0.001514
0.000216
0.000268
0.000261
0.000271
0.000269
0.000271
0.000242
0.001516
0.000253
0.000234
0.000432
0.001201
0.000305
0.000473
0.000394
0.000237
0.000235
0.000257
0.000299
0.000225
0.000458
0.000217
0.000270
0.000281
0.000191
0.000057
0.000177
0.000253
0.000391
0.000387
0.001245
0.000282
0.000339
0.000230
0.000222
0.000260
0.000234
0.000292
0.001520
0.000286
0.000206
0.000239
0.001400
0.000275
0.000409
0.000408
0.000412
0.000232
0.000257
0.000245
0.000265
0.000283
0.000273
0.000251
0.000261
0.000261
0.000194
0.000057
0.000210
0.000359
0.001497
0.000206
0.000280
0.000302
0.000219
0.000245
0.000277
0.000406
0.001350
0.000211
0.000270
0.000261
0.000250
0.001267
0.000739
0.000256
0.000317
0.000411
0.000308
0.000241
0.000264
0.000261
0.000268
0.000291
0.000295
0.000261
0.000424
0.000460
0.001374
0.000057
0.000211
0.000244
0.000243
0.000222
0.000250
0.000396
0.000495
0.001296
0.000255
0.000231
0.000252
0.001403
0.000460
0.000338
0.000225
0.000408
0.000241
0.000239
0.000267
0.000294
0.000253
0.000254
0.000277
0.000257
0.000270
0.000251
0.000472
0.000461
0.001497
0.000233
0.000185
0.000057
0.000201
0.000255
0.000338
0.000534
0.001256
0.000304
0.000228
0.000257
0.000242
0.000256
0.000248
0.000282
0.000357
0.000523
0.000294
0.000244
0.000246
0.000274
0.000250
0.000300
0.000237
0.000260
0.000252
0.000270
0.000261
0.000450
0.000448
0.000306
0.000341
0.001387
0.000183
0.000055
0.000223
0.000242
0.000254
0.000504
0.000313
0.000304
0.000314
0.000335
0.000296
0.000258
0.000245
0.000254
0.000249
0.000308
0.000237
0.000292
0.000608
0.000288
0.000266
0.000395
0.000271
0.000406
0.000230
0.000248
0.000257
0.000261
0.000253
0.000294
0.000350
0.000509
0.000285
0.000056
0.000201
0.001408
0.000223
0.000343
0.000471
0.000377
0.000359
0.000318
0.000204
0.000272
0.000244
0.000250
0.000281
0.000255
0.000262
0.000252
0.000259
0.001384
0.000235
0.000252
0.000258
0.000278
0.000271
0.000278
0.000269
0.000249
0.000278
0.000247
0.000394
0.000475
0.000139
0.000056
0.000206
0.000238
0.000235
0.001508
0.000327
0.000237
0.000221
0.000255
0.000243
0.000223
0.000255
0.000289
0.000238
0.000251
0.000293
0.000238
0.000242
0.000260
0.000270
0.000254
0.001431
0.000242
0.000244
0.000257
0.000258
0.000257
0.000265
0.000263
0.000277
0.000490
0.000348
0.000056
0.000198
0.000232
0.000407
0.000280
0.000241
0.000258
0.001520
0.000363
0.000290
0.000215
0.000261
0.000319
0.000328
0.000232
0.000223
0.000253
0.000244
0.000268
0.000254
0.000255
0.000524
0.000468
0.001127
0.000270
0.000238
0.000261
0.000265
0.000258
0.000302
0.000233
0.000323
0.000056
0.000270
0.000351
0.000199
0.000249
0.000243
0.000247
0.000239
0.000225
0.000292
0.001630
0.000403
0.000237
0.000232
0.000253
0.000262
0.000242
0.000255
0.000272
0.000269
0.000301
0.000328
0.000483
0.000436
0.001373
0.000229
0.000275
0.000270
0.000254
0.000273
0.000269
0.000533
0.000057
0.000235
0.000254
0.000223
0.000237
0.000221
0.000240
0.000265
0.000272
0.000262
0.001591
0.000343
0.000257
0.000239
0.000260
0.000458
0.000252
0.000566
0.000351
0.000281
0.000274
0.000486
0.000496
0.001266
0.000264
0.000230
0.000253
0.001777
0.000378
0.000623
0.000318
0.000144
0.000057
0.000184
0.000235
0.000238
0.000240
0.000254
0.000238
0.000253
0.000552
0.000468
0.000406
0.000278
0.000215
0.000243
0.000263
0.000282
0.000268
0.000240
0.000236
0.000254
0.000290
0.000247
0.000451
0.001323
0.000220
0.000251
0.000272
0.001913
0.000367
0.000394
0.000363
0.000134
0.000058
0.000206
0.000238
0.000245
0.001673
0.000326
0.000208
0.000238
0.000273
0.000238
0.000278
0.000381
0.000366
0.000366
0.000283
0.000343
0.000474
0.000379
0.001210
0.000271
0.000229
0.000252
0.000270
0.000277
0.000401
0.000693
0.000384
0.000247
0.000271
0.000267
0.000280
0.000192
0.000057
0.000184
0.000240
0.000247
0.001539
0.000243
0.000238
0.000244
0.000254
0.000245
0.000247
0.000256
0.000268
0.000273
0.000271
0.000253
0.000356
0.000540
0.000255
0.001400
0.000225
0.000261
0.000259
0.000259
0.000288
0.000400
0.000458
0.000425
0.000266
0.000288
0.000234
0.000442
0.000058
0.000189
0.000245
0.000276
0.001520
0.000302
0.000219
0.000265
0.000243
0.000252
0.000262
0.000255
0.000271
0.000241
0.000301
0.000320
0.000589
0.001341
0.000752
0.000264
0.000337
0.000240
0.000231
0.000252
0.000277
0.001680
0.000814
0.000220
0.000261
0.000282
0.000281
0.000185
0.000056
0.000205
0.000239
0.000250
0.000246
0.000263
0.000266
0.000218
0.000251
0.000261
0.000215
0.000287
0.000285
0.000251
0.000253
0.000258
0.000251
0.000263
0.001612
0.000702
0.000379
0.000338
0.000207
0.000239
0.000312
0.000242
0.000250
0.000275
0.000254
0.001394
0.000400
0.000336
0.000057
0.000178
0.000229
0.000272
0.000233
0.000260
0.000232
0.000278
0.000229
0.000255
0.000261
0.000218
0.000522
0.000400
0.000319
0.000225
0.000237
0.000268
0.001395
0.000687
0.000470
0.000329
0.000289
0.000228
0.000243
0.000278
0.000260
0.000252
0.000258
0.001492
0.000431
0.000188
0.000056
0.000209
0.000232
0.000243
0.000248
0.000252
0.000246
0.000233
0.000249
0.000277
0.000251
0.000363
0.000384
0.000339
0.000222
0.000239
0.000242
0.000270
0.000251
0.001620
0.000654
0.000440
0.000296
0.000210
0.000256
0.000258
0.000257
0.000277
0.000291
0.000254
0.001355
0.000331
0.000058
0.000197
0.000224
0.000232
0.000256
0.000257
0.000244
0.000242
0.000317
0.000361
0.000449
0.000380
0.000341
0.000384
0.000225
0.000239
0.000248
0.000303
0.000237
0.000267
0.001897
0.000360
0.000225
0.000457
0.000233
0.000250
0.000265
0.000272
0.000260
0.000269
0.000279
0.000321
0.000057
0.000305
0.000201
0.000241
0.000242
0.000275
0.000226
0.000225
0.000241
0.000270
0.000265
0.000231
0.000238
0.000254
0.000429
0.000530
0.000422
0.000224
0.000266
0.000251
0.000253
0.000253
0.000284
0.001473
0.001056
0.000224
0.000243
0.000264
0.000274
0.000274
0.000248
0.000207
0.000056
0.000183
0.001350
0.000288
0.000214
0.000226
0.000255
0.000256
0.000236
0.000238
0.000269
0.000244
0.000264
0.000238
0.000351
0.000398
0.000520
0.000213
0.000245
0.000266
0.000273
0.000270
0.000225
0.000265
0.000259
0.001392
0.000620
0.000295
0.000390
0.000374
0.000401
0.000297
0.000057
0.000200
0.000235
0.000359
0.001319
0.000205
0.000256
0.000239
0.000252
0.000268
0.000248
0.000256
0.000240
0.000292
0.000313
0.000580
0.000303
0.000222
0.000278
0.000332
0.000210
0.000257
0.000272
0.000237
0.000268
0.000283
0.001533
0.000736
0.000314
0.000255
0.000272
0.000194
0.000057
0.000219
0.000235
0.000481
0.000320
0.001295
0.000268
0.000208
0.000253
0.000224
0.000251
0.000249
0.000257
0.000231
0.000240
0.000253
0.000250
0.000274
0.000230
0.000263
0.000254
0.000263
0.000274
0.000305
0.000331
0.000216
0.000267
0.000264
0.001455
0.000259
0.000262
0.000161
0.000057
0.000182
0.000232
0.000249
0.000264
0.000353
0.000370
0.000399
0.000282
0.001576
0.000214
0.000310
0.000539
0.000303
0.000230
0.000438
0.000234
0.000231
0.000263
0.000271
0.000272
0.000297
0.000250
0.000256
0.000277
0.000237
0.000450
0.000353
0.000371
0.001552
0.000245
0.000167
0.000056
0.000239
0.000247
0.000235
0.000251
0.000241
0.000244
0.000263
0.000311
0.000411
0.002036
0.000231
0.000240
0.000254
0.000260
0.000259
0.000306
0.000222
0.000251
0.000266
0.000451
0.000344
0.000455
0.001453
0.000244
0.000254
0.002005
0.000282
0.000242
0.000254
0.001536
0.000150
0.000058
0.000316
0.000430
0.000470
0.000242
0.000274
0.000214
0.000259
0.000270
0.000259
0.000230
0.000258
0.000326
0.000435
0.000335
0.000430
0.000240
0.000225
0.001572
0.000229
0.000623
0.001856
0.000280
0.000228
0.001548
0.002011
0.000741
0.000277
0.000256
0.000302
0.000474
0.000315
0.000057
0.000199
0.000241
0.000277
0.000222
0.001421
0.001740
0.001073
0.000207
0.000225
0.001589
0.001975
0.000212
0.000246
0.000424
0.000277
0.000367
0.000452
0.000454
0.000214
0.000237
0.000249
0.000259
0.000274
0.001597
0.001213
0.001417
0.000287
0.000282
0.000258
0.000282
0.000373
0.000057
0.000206
0.000231
0.000236
0.000243
0.000230
0.000243
0.000250
0.000254
0.000254
0.000247
0.000240
0.000311
0.000528
0.000410
0.000259
0.000247
0.000245
0.000277
0.000268
0.000281
0.000242
0.000260
0.001569
0.000416
0.002122
0.000246
0.000251
0.000326
0.000441
0.000422
0.000152
0.000057
0.000220
0.000404
0.000422
0.000308
0.000199
0.000232
0.000245
0.000240
0.000245
0.000244
0.000243
0.000266
0.000264
0.001607
0.001358
0.001223
0.000276
0.000228
0.000249
0.000283
0.000276
0.000282
0.000246
0.000242
0.002211
0.000255
0.000252
0.000294
0.000320
0.000327
0.000203
0.000056
0.000223
0.000348
0.000614
0.000273
0.000234
0.000231
0.000244
0.000266
0.001910
0.001404
0.000224
0.000331
0.000385
0.000410
0.000267
0.000222
0.000260
0.000264
0.000262
0.000265
0.000256
0.000264
0.000476
0.000238
0.000264
0.000269
0.000250
0.000273
0.000284
0.000261
0.000188
0.000056
0.000185
0.000244
0.000250
0.000241
0.000274
0.000252
0.001535
0.001424
0.001318
0.000237
0.000236
0.000244
0.000269
0.000263
0.000244
0.000262
0.000236
0.002105
0.000254
0.000229
0.000267
0.000262
0.000257
0.000271
0.000262
0.000255
0.000273
0.000253
0.000283
0.000255
0.000176
0.000056
0.000200
0.002680
0.001399
0.000219
0.000305
0.000322
0.000213
0.000285
0.000233
0.000239
0.000259
0.000245
0.000232
0.000246
0.000269
0.000255
0.000269
0.000266
0.000269
0.000257
0.000258
0.000288
0.000274
0.000259
0.000265
0.000230
0.000264
0.000274
0.000264
0.000268
0.000367
0.000055
0.001533
0.000250
0.001237
0.000225
0.000227
0.000241
0.000258
0.000278
0.000225
0.000248
0.000427
0.000350
0.000338
0.000218
0.000246
0.002149
0.000237
0.000256
0.000419
0.000349
0.000395
0.000275
0.000232
0.000249
0.000272
0.000247
0.000263
0.000278
0.000277
0.001629
0.001252
0.000057
0.000188
0.000237
0.000298
0.000391
0.000358
0.000278
0.000216
0.000235
0.000253
0.000250
0.000270
0.000249
0.000222
0.000257
0.000262
0.000238
0.000302
0.000697
0.000301
0.000249
0.000222
0.000279
0.000279
0.000257
0.000247
0.000244
0.000266
0.000272
0.000242
0.000361
0.000326
0.000056
0.001113
0.000277
0.000344
0.000407
0.000297
0.000218
0.000233
0.000243
0.000248
0.002316
0.000343
0.000402
0.000210
0.000381
0.000299
0.000258
0.000238
0.000261
0.000264
0.000222
0.000258
0.000277
0.000643
0.000409
0.001891
0.001281
0.000586
0.000492
0.000224
0.000300
0.000183
0.000056
0.000373
0.000221
0.000242
0.000245
0.000261
0.000212
0.000261
0.000249
0.000255
0.000249
0.000257
0.000226
0.000246
0.000277
0.000418
0.000466
0.001837
0.001305
0.000532
0.000376
0.000445
0.000248
0.000243
0.000258
0.002165
0.000524
0.000385
0.000226
0.000277
0.000302
0.000176
0.000056
0.000179
0.000251
0.000252
0.000254
0.000234
0.000441
0.000312
0.000354
0.000284
0.000217
0.000242
0.000265
0.000248
0.002096
0.000382
0.000387
0.000210
0.000256
0.000289
0.000241
0.000249
0.002453
0.000343
0.000221
0.000255
0.000259
0.000248
0.000277
0.000301
0.000263
0.000187
0.000056
0.000176
0.000368
0.000562
0.000339
0.000254
0.000223
0.000236
0.000253
0.000275
0.000241
0.001958
0.000411
0.000248
0.000270
0.000234
0.000270
0.000273
0.000238
0.002203
0.000459
0.000216
0.000274
0.000265
0.000270
0.000244
0.000258
0.000297
0.000237
0.000262
0.000274
0.000168
0.000056
0.000204
0.000238
0.000250
0.000219
0.000243
0.000264
0.000235
0.000255
0.000224
0.002181
0.000221
0.000289
0.000208
0.000437
0.000225
0.000249
0.000310
0.000256
0.000256
0.000251
0.001970
0.000267
0.000347
0.000368
0.000423
0.000406
0.000310
0.000249
0.000258
0.000264
0.000192
0.000055
0.000204
0.000239
0.000247
0.000250
0.000244
0.000345
0.000196
0.002309
0.000259
0.000220
0.000261
0.000260
0.000228
0.000285
0.000278
0.002114
0.000599
0.000211
0.000264
0.000236
0.000279
0.000245
0.000287
0.000272
0.000267
0.000245
0.000288
0.000253
0.000270
0.000266
0.000194
0.000056
0.001825
0.001431
0.000211
0.000225
0.000242
0.000254
0.000249
0.000306
0.000372
0.000380
0.002135
0.000263
0.000232
0.000270
0.000361
0.000448
0.000389
0.000294
0.000215
0.000256
0.000245
0.000267
0.000267
0.000226
0.000264
0.000259
0.000275
0.000254
0.000311
0.000678
0.000313
0.000055
0.000201
0.000248
0.000259
0.000238
0.000270
0.000243
0.000257
0.000241
0.001498
0.002093
0.000613
0.000248
0.000400
0.000701
0.000359
0.000233
0.000252
0.000253
0.000265
0.000253
0.000262
0.000240
0.000250
0.000272
0.003005
0.000335
0.000243
0.000261
0.000290
0.000250
0.000468
0.000056
0.001911
0.000238
0.000237
0.000223
0.000295
0.000348
0.000593
0.000171
0.000291
0.000215
0.000247
0.000240
0.000262
0.000258
0.000279
0.000237
0.000258
0.000283
0.001834
0.000235
0.000237
0.000246
0.000273
0.000278
0.000273
0.000249
0.001478
0.000332
0.000243
0.000265
0.000168
0.000056
0.000204
0.000225
0.000249
0.000249
0.000243
0.000239
0.000307
0.000367
0.000377
0.000326
0.000224
0.000241
0.000265
0.000333
0.000422
0.000319
0.000227
0.000246
0.000261
0.000342
0.000496
0.000428
0.000256
0.000261
0.000255
0.000254
0.000256
0.000268
0.000278
0.000258
0.000208
0.000056
0.001439
0.000450
0.000204
0.001947
0.000251
0.000456
0.000434
0.000299
0.000232
0.000240
0.000270
0.000245
0.000246
0.000245
0.000265
0.000259
0.000452
0.000312
0.000388
0.000372
0.000355
0.000213
0.000264
0.000267
0.000273
0.000274
0.000255
0.000267
0.000388
0.000475
0.001347
0.000056
0.000190
0.000222
0.002085
0.000315
0.000314
0.000233
0.000256
0.000248
0.000262
0.000266
0.000207
0.000259
0.000251
0.000261
0.000256
0.000353
0.000750
0.001730
0.000227
0.000247
0.000255
0.000269
0.000363
0.000419
0.001613
0.000277
0.000367
0.001929
0.000245
0.000271
0.000191
0.000057
0.000190
0.000227
0.000236
0.000246
0.000228
0.000248
0.000249
0.000292
0.000323
0.000273
0.000371
0.000366
0.000338
0.000319
0.000224
0.000264
0.000258
0.000247
0.000265
0.000249
0.000310
0.000284
0.000267
0.000260
0.000274
0.001506
0.000288
0.000379
0.002076
0.000239
0.000170
0.000056
0.000215
0.000237
0.000240
0.000243
0.000494
0.000201
0.000255
0.000326
0.000366
0.000313
0.000311
0.000213
0.000260
0.000266
0.000269
0.000336
0.000427
0.000426
0.000253
0.000407
0.000574
0.000362
0.001613
0.000227
0.000249
0.002017
0.000296
0.000257
0.000239
0.000293
0.000182
0.000056
0.000184
0.000244
0.000222
0.000244
0.000253
0.000272
0.000261
0.000262
0.000250
0.000258
0.001813
0.000318
0.000383
0.000281
0.000459
0.000364
0.000370
0.001490
0.000235
0.000282
0.002100
0.000603
0.000268
0.000208
0.000261
0.000271
0.000507
0.000222
0.000256
0.000280
0.000195
0.000055
0.000282
0.000357
0.000388
0.000290
0.000197
0.000246
0.000255
0.000256
0.000264
0.000296
0.000220
0.000255
0.000255
0.000259
0.000416
0.000374
0.001342
0.000264
0.000291
0.001901
0.000362
0.000293
0.000232
0.000279
0.000231
0.000278
0.000273
0.000256
0.000251
0.000260
0.000207
0.000056
0.000250
0.000480
0.001968
0.000253
0.000221
0.000252
0.000252
0.000292
0.000467
0.000422
0.001296
0.000378
0.000362
0.002075
0.000205
0.000240
0.000289
0.000255
0.000259
0.000235
0.000288
0.000295
0.000256
0.000326
0.000496
0.000374
0.000330
0.002222
0.000498
0.000531
0.000338
0.000057
0.000209
0.000220
0.000251
0.001963
0.000228
0.000220
0.000249
0.000261
0.000230
0.000252
0.000252
0.000255
0.000258
0.000326
0.000371
0.001490
0.000249
0.000247
0.000270
0.000254
0.000233
0.000249
0.000261
0.000276
0.000303
0.000533
0.000411
0.000240
0.001604
0.000278
0.000152
0.000056
0.000201
0.000217
0.000247
0.000237
0.000254
0.000266
0.000231
0.000265
0.000237
0.000373
0.000367
0.001416
0.000230
0.000238
0.000237
0.000296
0.000224
0.000257
0.000302
0.000471
0.000466
0.000386
0.000229
0.001576
0.000235
0.000256
0.000288
0.000281
0.000262
0.000263
0.000198
0.000055
0.000213
0.000222
0.000265
0.000262
0.000249
0.000252
0.000232
0.000243
0.000273
0.000232
0.000245
0.000256
0.000266
0.001481
0.000364
0.000223
0.000228
0.000265
0.000276
0.000313
0.000370
0.000270
0.000249
0.000277
0.000249
0.000268
0.000261
0.001412
0.000279
0.000235
0.000166
0.000056
0.000189
0.000237
0.000258
0.000261
0.000267
0.000224
0.000245
0.000263
0.000215
0.000265
0.000266
0.000238
0.000229
0.000341
0.000339
0.000387
0.000246
0.000231
0.001632
0.000238
0.000240
0.000258
0.000267
0.000347
0.000336
0.000360
0.000452
0.000267
0.000255
0.001614
0.000169
0.000057
0.000292
0.000334
0.000383
0.000284
0.000232
0.000217
0.000246
0.000272
0.000254
0.000259
0.000247
0.000218
0.001456
0.000298
0.000312
0.000212
0.000255
0.000270
0.000256
0.000263
0.000254
0.000255
0.000243
0.000270
0.000318
0.000312
0.000454
0.000316
0.000318
0.000249
0.000196
0.000057
0.000193
0.000235
0.000427
0.000406
0.000321
0.000275
0.000253
0.000253
0.000248
0.000260
0.000237
0.000229
0.000256
0.000249
0.001248
0.000304
0.000241
0.000251
0.000265
0.000264
0.000234
0.000274
0.000252
0.000264
0.000265
0.000243
0.000345
0.000652
0.000459
0.000238
0.000178
0.000056
0.000200
0.001560
0.000268
0.000316
0.000457
0.000377
0.000209
0.000264
0.000265
0.000251
0.000241
0.000258
0.000269
0.000276
0.000270
0.001516
0.000253
0.000283
0.000260
0.000256
0.000275
0.000238
0.000266
0.000259
0.000271
0.000254
0.000481
0.000313
0.000359
0.000247
0.000190
0.000056
0.000202
0.000259
0.000232
0.001700
0.000371
0.000314
0.000218
0.000241
0.000253
0.000280
0.000276
0.000250
0.000255
0.000254
0.000232
0.000293
0.000428
0.001278
0.000255
0.000223
0.001500
0.000291
0.000665
0.000321
0.000356
0.000216
0.000274
0.000462
0.000236
0.000260
0.000187
0.000057
0.000245
0.000220
0.000247
0.000247
0.000247
0.000255
0.000241
0.000258
0.000253
0.000250
0.000247
0.000257
0.000319
0.000445
0.001712
0.001485
0.000362
0.000552
0.000325
0.000223
0.000230
0.000253
0.000257
0.000264
0.000248
0.000268
0.000254
0.000269
0.001528
0.000322
0.000168
0.000056
0.000229
0.000337
0.000353
0.000333
0.000237
0.000222
0.000253
0.000400
0.000395
0.000389
0.002139
0.000318
0.000694
0.000535
0.000443
0.000253
0.000332
0.000397
0.000326
0.000285
0.000396
0.000257
0.001533
0.000534
0.000218
0.000256
0.000253
0.000262
0.000257
0.000271
0.000191
0.000057
0.000226
0.000250
0.000250
0.000278
0.000222
0.001660
0.000884
0.000996
0.000221
0.000220
0.000257
0.000260
0.000263
0.000256
0.000257
0.000246
0.000250
0.000266
0.000269
0.000273
0.001438
0.000320
0.000251
0.000220
0.000234
0.000263
0.000263
0.000282
0.000265
0.000282
0.001903
0.000056
0.000189
0.000230
0.001545
0.000853
0.000443
0.000306
0.000229
0.000236
0.000250
0.000256
0.000246
0.000249
0.000246
0.001989
0.000465
0.000229
0.000239
0.000253
0.000270
0.000263
0.000187
