0.000094
0.018520
0.002856
0.000288
0.000245
0.000305
0.000324
0.000229
0.000339
0.000273
0.000254
0.000332
0.000558
0.000472
0.000420
0.000282
0.000284
0.000335
0.000352
0.000419
0.000320
0.001889
0.000736
0.000261
0.000241
0.000301
0.000323
0.000309
0.000421
0.000368
0.000541
0.000326
0.000058
0.000209
0.000272
0.000266
0.000303
0.000238
0.000248
0.000278
0.000292
0.000263
0.000270
0.000442
0.000505
0.000228
0.000256
0.000371
0.000354
0.000366
0.000250
0.000247
0.001756
0.000263
0.000250
0.000457
0.000262
0.000254
0.000284
0.000286
0.000298
0.000275
0.000319
0.000492
0.000057
0.000230
0.000254
0.000259
0.000262
0.000256
0.000245
0.000266
0.000247
0.000293
0.001668
0.000232
0.000235
0.000264
0.000271
0.000274
0.000254
0.000268
0.000245
0.000356
0.001802
0.000243
0.000277
0.000448
0.000429
0.000390
0.000232
0.000264
0.000461
0.000514
0.000759
0.000193
0.000056
0.000223
0.000246
0.000249
0.000349
0.000183
0.000275
0.000299
0.000549
0.000402
0.000248
0.000238
0.000248
0.000246
0.000248
0.000256
0.000259
0.000242
0.000273
0.000295
0.000371
0.001626
0.000300
0.000225
0.000421
0.000698
0.000322
0.000642
0.000525
0.000344
0.000247
0.000182
0.000075
0.000201
0.000246
0.000297
0.000208
0.000287
0.000228
0.000256
0.000461
0.001482
0.000210
0.000257
0.000236
0.000258
0.000252
0.000265
0.000303
0.000383
0.000732
0.001329
0.000306
0.000238
0.000429
0.000225
0.000249
0.000262
0.000258
0.000265
0.000273
0.000259
0.000271
0.000197
0.000056
0.000205
0.000249
0.000244
0.000265
0.000234
0.000246
0.000244
0.000250
0.000236
0.000257
0.001629
0.000265
0.000255
0.000216
0.000258
0.000248
0.000245
0.000253
0.000250
0.000254
0.000297
0.001643
0.000297
0.000243
0.000427
0.000258
0.000254
0.000263
0.000260
0.000272
0.000203
0.000057
0.000199
0.000238
0.000244
0.000250
0.000240
0.000248
0.000260
0.000235
0.000264
0.000261
0.000247
0.000256
0.000254
0.000282
0.001629
0.000282
0.000290
0.000218
0.000250
0.000273
0.000268
0.000241
0.000243
0.000267
0.001795
0.000417
0.000307
0.000374
0.000236
0.000282
0.000199
0.000056
0.000204
0.000238
0.000249
0.000269
0.000261
0.000260
0.000253
0.000412
0.000407
0.000440
0.000204
0.000245
0.000255
0.000246
0.001565
0.000553
0.000357
0.000417
0.000251
0.000225
0.000274
0.000280
0.000274
0.001740
0.000572
0.000399
0.000236
0.000248
0.000262
0.000258
0.000192
0.000056
0.000210
0.000239
0.000250
0.000267
0.000323
0.000458
0.000465
0.000190
0.000216
0.000247
0.000254
0.000246
0.000253
0.001716
0.000477
0.000298
0.000219
0.000259
0.000270
0.000295
0.000241
0.000255
0.000275
0.001959
0.000245
0.000380
0.000241
0.000264
0.000263
0.000398
0.000326
0.000055
0.000210
0.000384
0.000371
0.000265
0.000260
0.000242
0.000251
0.000255
0.000244
0.000236
0.000235
0.000248
0.001604
0.000348
0.000269
0.000224
0.000260
0.000253
0.000249
0.000304
0.000273
0.000309
0.000243
0.001814
0.000255
0.000490
0.000237
0.000260
0.000259
0.000269
0.000266
0.000056
0.000360
0.000580
0.000619
0.000196
0.000237
0.000280
0.000223
0.000218
0.000259
0.000254
0.000263
0.001689
0.000260
0.000446
0.000361
0.000221
0.000229
0.000233
0.000253
0.000262
0.000253
0.001876
0.000204
0.000466
0.001864
0.000548
0.000340
0.000243
0.000270
0.000250
0.000183
0.000057
0.000200
0.000235
0.000248
0.000245
0.000255
0.001618
0.000249
0.000251
0.000245
0.000248
0.000246
0.000241
0.000251
0.000255
0.000283
0.000412
0.000620
0.000252
0.000231
0.000273
0.000279
0.000233
0.000246
0.000436
0.000437
0.000231
0.000373
0.000656
0.000341
0.000267
0.000208
0.000055
0.000218
0.000236
0.000254
0.000248
0.000241
0.000241
0.000264
0.000476
0.000321
0.001719
0.000226
0.000234
0.000259
0.000235
0.000257
0.000282
0.000397
0.000574
0.000290
0.000225
0.000263
0.000313
0.000270
0.000247
0.000282
0.000425
0.000350
0.000595
0.000594
0.000319
0.000178
0.000056
0.000191
0.000257
0.000244
0.000236
0.000235
0.000240
0.000244
0.000262
0.000233
0.000286
0.000344
0.000409
0.001417
0.000249
0.000227
0.000256
0.000256
0.000257
0.000239
0.000256
0.000274
0.000515
0.000357
0.000261
0.000271
0.000250
0.000255
0.000275
0.000257
0.000272
0.000379
0.000056
0.000211
0.000251
0.000212
0.000303
0.000500
0.000443
0.000227
0.000256
0.000239
0.000256
0.000260
0.000228
0.000322
0.000224
0.000235
0.000520
0.000385
0.001634
0.000298
0.000216
0.000262
0.000264
0.000255
0.000260
0.000244
0.000472
0.000408
0.000374
0.000424
0.000243
0.000191
0.000070
0.000222
0.000489
0.000176
0.000219
0.000285
0.000220
0.000260
0.000600
0.000412
0.000240
0.000231
0.000274
0.000262
0.000238
0.000532
0.000322
0.000234
0.000252
0.000493
0.001550
0.000257
0.000252
0.000512
0.000254
0.000284
0.000266
0.000257
0.000490
0.000413
0.000425
0.000217
0.000056
0.000210
0.000237
0.000236
0.000243
0.000446
0.000279
0.000292
0.000221
0.000414
0.000479
0.000360
0.000243
0.000245
0.000244
0.000255
0.000270
0.000252
0.000256
0.000227
0.000355
0.000288
0.000313
0.001892
0.000216
0.000243
0.000253
0.000286
0.000346
0.000412
0.000699
0.000470
0.000057
0.000227
0.000332
0.000323
0.000396
0.000389
0.000203
0.000253
0.000326
0.000480
0.000438
0.000233
0.000251
0.000230
0.000275
0.000261
0.000249
0.000235
0.000275
0.000268
0.000257
0.000283
0.000370
0.000769
0.001253
0.000345
0.000416
0.000423
0.000236
0.000392
0.000447
0.000366
0.000056
0.000228
0.000377
0.000283
0.000218
0.000228
0.000234
0.000414
0.000238
0.000229
0.000473
0.000328
0.000439
0.000247
0.000253
0.000265
0.000239
0.000361
0.000405
0.000337
0.000239
0.000250
0.000457
0.000593
0.001652
0.000234
0.000421
0.000320
0.000220
0.000302
0.000417
0.000356
0.000056
0.000192
0.000236
0.000243
0.000260
0.000252
0.000232
0.000272
0.000308
0.000456
0.000289
0.000443
0.000391
0.000253
0.000580
0.000244
0.000241
0.000277
0.000264
0.000236
0.000337
0.000225
0.000252
0.000263
0.000432
0.000610
0.001524
0.000262
0.000244
0.000238
0.000279
0.000178
0.000057
0.000307
0.000545
0.000269
0.000208
0.000253
0.000239
0.000258
0.000240
0.000272
0.000242
0.000222
0.000261
0.000388
0.000646
0.000294
0.000267
0.000252
0.000259
0.000329
0.000386
0.000380
0.000339
0.000361
0.000394
0.000265
0.000247
0.000262
0.000277
0.001790
0.000236
0.000209
0.000056
0.000204
0.000221
0.000256
0.000294
0.000331
0.000540
0.000321
0.000219
0.000280
0.000236
0.000250
0.000248
0.000522
0.000442
0.000485
0.000276
0.000270
0.000259
0.000419
0.000466
0.000358
0.000414
0.000455
0.000476
0.000237
0.000251
0.000256
0.000250
0.000263
0.001719
0.000341
0.000057
0.000206
0.000326
0.000227
0.000215
0.000257
0.000250
0.000232
0.000502
0.000376
0.000307
0.000292
0.000299
0.000326
0.000630
0.000353
0.000238
0.000252
0.000249
0.000257
0.000268
0.000271
0.000258
0.000246
0.000266
0.000301
0.000361
0.000438
0.000325
0.000242
0.000255
0.000197
0.000056
0.000442
0.000305
0.000484
0.000226
0.000202
0.000256
0.000247
0.000254
0.000241
0.000218
0.000251
0.000276
0.000303
0.000393
0.000541
0.000493
0.000240
0.000317
0.000370
0.000345
0.000300
0.000249
0.000243
0.000263
0.001747
0.000254
0.001713
0.000960
0.000463
0.000243
0.000180
0.000056
0.000201
0.000268
0.000209
0.000240
0.000277
0.000233
0.000257
0.000249
0.000242
0.000312
0.000450
0.000408
0.000280
0.000396
0.000252
0.000241
0.000246
0.000299
0.000229
0.000243
0.000249
0.000263
0.001823
0.000231
0.000254
0.000267
0.000274
0.000262
0.001871
0.000530
0.000310
0.000056
0.000205
0.000220
0.000230
0.000244
0.000270
0.000232
0.000243
0.000255
0.000254
0.000331
0.000658
0.000278
0.000371
0.000218
0.000253
0.000248
0.000324
0.000439
0.000364
0.000260
0.001782
0.000252
0.000248
0.000258
0.000256
0.000268
0.000242
0.000258
0.000315
0.000274
0.000417
0.000056
0.000244
0.000213
0.000248
0.000272
0.000236
0.000243
0.000255
0.000256
0.000238
0.000261
0.000240
0.000314
0.000405
0.000374
0.000310
0.000268
0.000455
0.000231
0.000254
0.000262
0.000252
0.000262
0.000274
0.000257
0.000282
0.001784
0.000253
0.000237
0.000265
0.000239
0.000205
0.000056
0.000274
0.000381
0.000179
0.000229
0.000241
0.000226
0.000245
0.000259
0.000244
0.000228
0.000228
0.000262
0.000258
0.000379
0.000396
0.000418
0.000245
0.000240
0.000237
0.000248
0.000262
0.000258
0.000243
0.000275
0.000257
0.000260
0.000338
0.001602
0.000271
0.000233
0.000194
0.000056
0.000197
0.000228
0.000251
0.000267
0.000342
0.000405
0.000391
0.000282
0.000217
0.000254
0.000271
0.000225
0.000243
0.000254
0.000264
0.000256
0.000245
0.000261
0.000254
0.000256
0.000265
0.000270
0.000252
0.000233
0.000247
0.000276
0.000280
0.000262
0.000251
0.000260
0.000198
0.000055
0.000234
0.000215
0.000254
0.000277
0.000235
0.000236
0.000235
0.000263
0.000285
0.000239
0.000227
0.000250
0.000252
0.000253
0.000296
0.000237
0.000254
0.000248
0.000301
0.000249
0.000274
0.000318
0.000276
0.000216
0.000311
0.000249
0.000266
0.000247
0.000327
0.000342
0.000686
0.000056
0.000226
0.000289
0.000221
0.000226
0.000236
0.000255
0.000240
0.000253
0.000262
0.000231
0.000269
0.000313
0.000469
0.000462
0.001556
0.000243
0.000483
0.000221
0.000365
0.000359
0.000465
0.000338
0.000236
0.000280
0.000250
0.000255
0.000284
0.000250
0.000311
0.000280
0.000170
0.000056
0.000374
0.000431
0.000328
0.000296
0.000227
0.000275
0.000227
0.000239
0.000237
0.000243
0.000254
0.000259
0.000231
0.000276
0.000355
0.000661
0.000220
0.001810
0.000218
0.000254
0.000334
0.000422
0.000488
0.000269
0.000310
0.000318
0.000305
0.000227
0.000233
0.000254
0.000197
0.000056
0.000217
0.000232
0.000238
0.000348
0.000265
0.000553
0.000271
0.000258
0.000252
0.000210
0.000255
0.000265
0.000265
0.000267
0.000243
0.000259
0.000308
0.000517
0.000572
0.000172
0.000237
0.001751
0.000320
0.000487
0.000668
0.000311
0.000326
0.000235
0.000243
0.000266
0.000456
0.000056
0.000201
0.000273
0.000214
0.000273
0.000425
0.000567
0.000313
0.000202
0.000228
0.000293
0.000241
0.000258
0.000255
0.000295
0.000307
0.000230
0.000237
0.000397
0.000554
0.000244
0.000499
0.001849
0.000249
0.000389
0.000578
0.000328
0.000232
0.000253
0.000301
0.000256
0.000195
0.000073
0.000196
0.000334
0.000362
0.000353
0.000372
0.000287
0.000375
0.000217
0.000238
0.000262
0.000273
0.000226
0.000253
0.000266
0.000226
0.000263
0.000337
0.000345
0.000567
0.000327
0.000288
0.000240
0.000258
0.001715
0.000448
0.000747
0.000413
0.000241
0.000262
0.000308
0.000164
0.000055
0.000196
0.000243
0.000325
0.000229
0.000290
0.000384
0.000378
0.000311
0.000263
0.000505
0.000223
0.000257
0.000255
0.000280
0.000281
0.000252
0.000218
0.000419
0.000458
0.000382
0.000258
0.000231
0.000257
0.000257
0.000259
0.000270
0.000237
0.000251
0.000285
0.000277
0.000237
0.000056
0.000294
0.000354
0.000211
0.000255
0.000243
0.000259
0.000242
0.000279
0.000252
0.000247
0.000277
0.000336
0.000429
0.000432
0.000310
0.000273
0.000229
0.000227
0.000262
0.000263
0.000287
0.000266
0.000231
0.000253
0.000288
0.000313
0.000363
0.000419
0.000349
0.000226
0.000180
0.000056
0.000205
0.000227
0.000283
0.000245
0.000241
0.000264
0.000264
0.000238
0.000485
0.000221
0.000252
0.000263
0.000237
0.000282
0.000250
0.000297
0.000241
0.000342
0.000216
0.000246
0.000256
0.000283
0.000251
0.000266
0.000276
0.000266
0.000259
0.000246
0.000273
0.000483
0.000164
0.000056
0.000206
0.000243
0.000249
0.000289
0.000219
0.000230
0.000364
0.000406
0.000231
0.000241
0.000253
0.000253
0.000234
0.000314
0.000497
0.001688
0.000223
0.000265
0.000286
0.000334
0.000405
0.000367
0.000360
0.000445
0.000374
0.000369
0.000243
0.000273
0.000268
0.000277
0.001391
0.000055
0.000397
0.000358
0.000256
0.000174
0.000245
0.000247
0.000234
0.000257
0.000241
0.000270
0.000250
0.000254
0.000253
0.000382
0.000452
0.001628
0.000236
0.000227
0.000255
0.000264
0.000242
0.000260
0.000494
0.000270
0.000305
0.000336
0.000235
0.000250
0.000276
0.000267
0.000174
0.000056
0.001185
0.000662
0.000213
0.000254
0.000238
0.000224
0.000230
0.000241
0.000498
0.000215
0.000236
0.000267
0.000372
0.000545
0.000377
0.000292
0.000264
0.000229
0.000327
0.000357
0.000270
0.000257
0.000271
0.000244
0.000267
0.000614
0.000532
0.000241
0.000263
0.000263
0.000174
0.000055
0.000206
0.000222
0.000238
0.000244
0.001590
0.000186
0.000217
0.000252
0.000263
0.000247
0.000233
0.000254
0.000242
0.000264
0.000271
0.000271
0.000453
0.000689
0.000228
0.001747
0.000248
0.000291
0.000276
0.000422
0.000767
0.000220
0.000243
0.000240
0.000261
0.000268
0.000204
0.000055
0.000212
0.000255
0.000232
0.000309
0.001260
0.000248
0.000244
0.000256
0.000246
0.000235
0.000240
0.000255
0.000278
0.000262
0.000229
0.000266
0.000484
0.000545
0.000201
0.000264
0.000264
0.000272
0.000245
0.000253
0.000309
0.000228
0.000239
0.000281
0.000268
0.000449
0.000523
0.000056
0.000226
0.000248
0.000230
0.000266
0.000263
0.000244
0.000240
0.000254
0.000285
0.000263
0.001418
0.000220
0.000239
0.000247
0.000249
0.000237
0.000296
0.000241
0.000290
0.000233
0.000274
0.000536
0.000461
0.000341
0.000230
0.000272
0.001760
0.000249
0.000259
0.000349
0.000429
0.000056
0.000185
0.000407
0.000448
0.000521
0.000500
0.000565
0.001478
0.000409
0.000519
0.000656
0.000552
0.000707
0.000521
0.000594
0.000580
0.001881
0.000415
0.000431
0.000395
0.000322
0.000213
0.000283
0.000285
0.000263
0.000265
0.000293
0.000293
0.000283
0.000258
0.000286
0.001370
0.000055
0.000197
0.000237
0.000237
0.000250
0.000254
0.000261
0.000232
0.000240
0.000253
0.000250
0.000238
0.000241
0.000253
0.000257
0.000269
0.000266
0.001866
0.000212
0.000255
0.000251
0.000256
0.000261
0.000268
0.000318
0.000418
0.000525
0.000189
0.000258
0.000239
0.000278
0.000208
0.000056
0.000216
0.001349
0.000336
0.000271
0.000246
0.000233
0.000261
0.000219
0.000233
0.000242
0.000221
0.000242
0.000254
0.000507
0.000363
0.000305
0.000248
0.001844
0.000331
0.000231
0.000245
0.000267
0.000250
0.000267
0.000272
0.000282
0.000273
0.000253
0.000267
0.000363
0.000159
0.000057
0.000212
0.000239
0.000253
0.001453
0.000204
0.000246
0.000256
0.000244
0.000237
0.000270
0.000262
0.000231
0.000247
0.000283
0.000236
0.000253
0.000256
0.000271
0.000271
0.000254
0.000262
0.001814
0.000246
0.001741
0.000269
0.000248
0.000267
0.000270
0.000264
0.000278
0.000195
0.000056
0.000205
0.000238
0.001347
0.000227
0.000263
0.000241
0.000259
0.000254
0.000248
0.000247
0.000253
0.000239
0.000263
0.000262
0.000256
0.000265
0.000258
0.000290
0.000291
0.000232
0.001880
0.000228
0.001831
0.000237
0.000264
0.000275
0.000230
0.000255
0.000244
0.000277
0.000199
0.000056
0.001452
0.000218
0.000230
0.000249
0.000232
0.000240
0.000378
0.000281
0.000244
0.000248
0.000250
0.000261
0.000270
0.000495
0.000222
0.000289
0.000255
0.000264
0.000256
0.000256
0.000274
0.000333
0.000227
0.000254
0.000269
0.000276
0.000277
0.000400
0.000571
0.000371
0.000191
0.000057
0.000206
0.000263
0.000254
0.000299
0.000357
0.000263
0.001674
0.000322
0.000281
0.000268
0.000268
0.000255
0.000270
0.000262
0.000302
0.000311
0.000338
0.000632
0.000316
0.000262
0.000293
0.000286
0.000261
0.000272
0.000301
0.000279
0.000272
0.000240
0.000257
0.000288
0.000485
0.000057
0.000275
0.000457
0.000267
0.000262
0.000251
0.000222
0.000224
0.000253
0.000260
0.000269
0.001498
0.000232
0.000221
0.000252
0.000241
0.000289
0.000288
0.000236
0.000255
0.000263
0.000299
0.000286
0.000586
0.000321
0.000267
0.000287
0.000271
0.000255
0.000227
0.000323
0.000175
0.000055
0.000205
0.000233
0.000290
0.000547
0.000268
0.000287
0.000213
0.000250
0.000251
0.000250
0.000241
0.000269
0.000237
0.000268
0.000235
0.000241
0.000431
0.001181
0.000246
0.000239
0.000280
0.000245
0.000375
0.000401
0.000240
0.000329
0.000663
0.000301
0.000345
0.000240
0.000186
0.000056
0.000232
0.000248
0.000262
0.000260
0.000256
0.000245
0.000354
0.000593
0.000243
0.000274
0.000358
0.000394
0.000396
0.000361
0.000256
0.000248
0.000232
0.000434
0.000263
0.000447
0.001240
0.000229
0.000271
0.000275
0.000232
0.000254
0.000244
0.000324
0.000453
0.000458
0.000180
0.000056
0.000194
0.000242
0.000259
0.000245
0.000237
0.000244
0.000233
0.000273
0.000305
0.000302
0.000463
0.000379
0.000245
0.000234
0.000250
0.000263
0.000246
0.000260
0.000269
0.000272
0.000419
0.000287
0.000372
0.000408
0.000292
0.000246
0.000273
0.000270
0.000253
0.000337
0.000160
0.000056
0.000314
0.000313
0.000306
0.000430
0.000396
0.000371
0.000242
0.000242
0.000245
0.000295
0.000229
0.000271
0.000232
0.000250
0.000243
0.000229
0.000278
0.000352
0.000512
0.000321
0.000251
0.000251
0.000252
0.000242
0.000272
0.000281
0.000266
0.000274
0.000265
0.000312
0.000210
0.000057
0.000389
0.000244
0.000233
0.000271
0.000222
0.000246
0.000246
0.000256
0.000264
0.000256
0.000253
0.000233
0.000272
0.000509
0.000434
0.000292
0.000233
0.000255
0.000251
0.000270
0.000257
0.000261
0.000255
0.000269
0.000269
0.000354
0.000479
0.000510
0.000397
0.000249
0.000176
0.000057
0.000398
0.000195
0.000236
0.000243
0.000250
0.000244
0.000240
0.000254
0.000268
0.000250
0.000223
0.000241
0.000282
0.000223
0.000234
0.000267
0.000255
0.000256
0.000298
0.000244
0.000261
0.000255
0.000260
0.000270
0.000256
0.000251
0.000260
0.000272
0.000262
0.000279
0.000197
0.000056
0.000195
0.000241
0.000245
0.000252
0.000230
0.000256
0.000264
0.000236
0.000260
0.000276
0.000232
0.000233
0.000262
0.000388
0.000260
0.000293
0.000244
0.000268
0.000256
0.000282
0.000267
0.000262
0.000222
0.000255
0.000272
0.000266
0.000257
0.000246
0.000274
0.000264
0.000204
0.000055
0.000214
0.000366
0.000363
0.000282
0.000301
0.000254
0.000263
0.000263
0.000220
0.000252
0.000267
0.000235
0.000248
0.000245
0.000255
0.000280
0.000240
0.000270
0.000242
0.000259
0.000283
0.000263
0.000277
0.000252
0.000291
0.000254
0.000235
0.000275
0.000268
0.000261
0.000198
0.000056
0.000213
0.000236
0.000262
0.000262
0.000252
0.000451
0.000206
0.000273
0.000321
0.000382
0.000485
0.000289
0.000234
0.000244
0.000273
0.000262
0.000253
0.000259
0.000255
0.000266
0.000270
0.000256
0.000256
0.000307
0.000630
0.000352
0.000297
0.000297
0.000261
0.000280
0.000179
0.000057
0.000211
0.000213
0.000250
0.000252
0.000413
0.000558
0.000315
0.000384
0.000212
0.000247
0.000246
0.000262
0.000245
0.000247
0.000255
0.000272
0.000276
0.000234
0.000717
0.000317
0.000294
0.000242
0.000256
0.000281
0.000304
0.000229
0.000265
0.000290
0.000233
0.000328
0.000296
0.000057
0.000284
0.000238
0.000242
0.000235
0.000256
0.000266
0.000241
0.000225
0.000241
0.000265
0.000237
0.000258
0.000247
0.000391
0.000587
0.000407
0.000202
0.000261
0.000261
0.000246
0.000270
0.000288
0.000473
0.000216
0.000267
0.000681
0.000308
0.000504
0.000252
0.000250
0.000194
0.000056
0.000213
0.000235
0.000247
0.000241
0.000258
0.000264
0.000308
0.000466
0.000551
0.000419
0.000219
0.000261
0.000276
0.000280
0.000251
0.000244
0.000236
0.000247
0.000256
0.000435
0.000303
0.000653
0.000363
0.000253
0.000355
0.000385
0.000488
0.000236
0.000267
0.000417
0.000390
0.000056
0.000167
0.000235
0.000440
0.000214
0.000236
0.000279
0.000238
0.000263
0.000229
0.000242
0.000295
0.000358
0.000392
0.000329
0.000242
0.000236
0.000268
0.000246
0.000267
0.000281
0.000288
0.000239
0.000244
0.000275
0.000327
0.000585
0.000364
0.000238
0.000265
0.000273
0.000197
0.000055
0.000209
0.000270
0.000208
0.000248
0.000246
0.000305
0.000383
0.000439
0.000338
0.000265
0.000377
0.000226
0.000249
0.000268
0.000252
0.000245
0.000258
0.000256
0.000353
0.000344
0.000477
0.000330
0.000474
0.000269
0.000384
0.000421
0.000409
0.000217
0.000262
0.000274
0.000448
0.000056
0.000260
0.000277
0.000223
0.000253
0.000284
0.000240
0.000265
0.000225
0.000273
0.000242
0.000233
0.000446
0.000363
0.000379
0.000369
0.000225
0.000264
0.000266
0.000267
0.000234
0.000253
0.000249
0.000289
0.000255
0.000276
0.000343
0.000484
0.000476
0.000236
0.000280
0.000193
0.000056
0.000203
0.000242
0.000280
0.000241
0.000246
0.000350
0.000485
0.000474
0.000501
0.000550
0.000258
0.000222
0.000237
0.000262
0.000244
0.000286
0.000263
0.000271
0.000481
0.000464
0.001464
0.000309
0.000273
0.000260
0.000286
0.000266
0.000443
0.000383
0.000310
0.000327
0.000185
0.000056
0.000206
0.000227
0.000252
0.000261
0.000230
0.000244
0.000304
0.000225
0.000243
0.000330
0.000329
0.000384
0.000271
0.000340
0.000389
0.000348
0.000242
0.000256
0.000265
0.000254
0.000250
0.000241
0.000316
0.000209
0.000350
0.000420
0.000463
0.000252
0.000252
0.000269
0.000189
0.000057
0.000213
0.000250
0.000258
0.000255
0.000242
0.000235
0.000475
0.000210
0.000238
0.000246
0.000252
0.000245
0.000264
0.000258
0.000247
0.000268
0.000264
0.000292
0.000260
0.000243
0.000283
0.000268
0.000291
0.000246
0.000262
0.000277
0.000270
0.000262
0.000269
0.000269
0.000170
0.000056
0.000219
0.000272
0.000347
0.000354
0.000364
0.000256
0.000236
0.000247
0.000260
0.000250
0.000251
0.000250
0.000268
0.000262
0.000235
0.000233
0.000263
0.000250
0.000292
0.000334
0.000498
0.000330
0.000230
0.000268
0.000262
0.000257
0.000267
0.000247
0.000296
0.000264
0.000201
0.000055
0.000375
0.000381
0.000408
0.000209
0.000251
0.000261
0.000407
0.000224
0.000230
0.000247
0.000258
0.000294
0.000353
0.000453
0.001847
0.000253
0.000245
0.000253
0.000283
0.000234
0.000361
0.000457
0.000562
0.000312
0.000234
0.000263
0.000274
0.000423
0.000278
0.000282
0.000160
0.000057
0.000213
0.000359
0.000318
0.000344
0.000493
0.000197
0.000252
0.000236
0.000254
0.000245
0.000260
0.000248
0.000259
0.000345
0.000472
0.000376
0.000226
0.000251
0.000261
0.000259
0.000267
0.000320
0.000237
0.000274
0.000275
0.000464
0.000575
0.000403
0.000376
0.000232
0.000202
0.000056
0.000226
0.000231
0.000260
0.000229
0.000248
0.000251
0.000269
0.000290
0.000329
0.000340
0.000465
0.000347
0.000221
0.000255
0.000261
0.000290
0.000303
0.000239
0.000265
0.000272
0.000241
0.000327
0.000455
0.000405
0.000246
0.000260
0.000261
0.000452
0.000399
0.000304
0.000187
0.000056
0.000202
0.000252
0.000441
0.000385
0.000300
0.000207
0.000230
0.000260
0.000258
0.000265
0.000253
0.000252
0.000233
0.000250
0.000262
0.000304
0.000446
0.000305
0.000287
0.000355
0.000488
0.000230
0.000281
0.000268
0.000304
0.000289
0.000252
0.000421
0.000317
0.000524
0.000185
0.000056
0.000202
0.000232
0.000252
0.000245
0.000241
0.000479
0.000221
0.000249
0.000266
0.000322
0.000478
0.000614
0.000206
0.000241
0.000241
0.000249
0.000258
0.000270
0.000236
0.000248
0.000290
0.000244
0.000434
0.000351
0.000402
0.000350
0.000306
0.000296
0.000328
0.000242
0.000187
0.000055
0.000221
0.000239
0.000254
0.000491
0.000402
0.000213
0.000255
0.000232
0.000242
0.000262
0.000248
0.000261
0.000269
0.000245
0.000244
0.000257
0.000250
0.000242
0.000266
0.000379
0.000733
0.000185
0.000226
0.000246
0.000295
0.000259
0.000260
0.000251
0.000274
0.000265
0.000192
0.000055
0.000317
0.000357
0.000436
0.000238
0.000224
0.000252
0.000318
0.000460
0.000290
0.000205
0.000246
0.000267
0.000256
0.000457
0.000467
0.000246
0.000235
0.000233
0.000255
0.000262
0.000277
0.000255
0.000264
0.000275
0.000264
0.000352
0.000371
0.000439
0.000267
0.000227
0.000192
0.000056
0.000237
0.000236
0.000248
0.000253
0.000251
0.000266
0.000225
0.000273
0.000253
0.000234
0.000287
0.000216
0.000290
0.001440
0.000222
0.000247
0.000263
0.000245
0.000277
0.000276
0.000262
0.000255
0.000263
0.000250
0.000272
0.000261
0.000274
0.000270
0.000274
0.000258
0.000189
0.000056
0.000196
0.000228
0.000253
0.000266
0.000222
0.000254
0.000249
0.000256
0.000232
0.000242
0.000253
0.000267
0.000267
0.000239
0.000254
0.000261
0.000250
0.000255
0.000275
0.000254
0.000249
0.000268
0.000240
0.000252
0.001295
0.000283
0.000580
0.000361
0.000396
0.000237
0.000198
0.000056
0.000202
0.000229
0.000240
0.000254
0.000412
0.000249
0.000234
0.000238
0.000252
0.000348
0.000512
0.000306
0.000243
0.000213
0.000259
0.000265
0.000253
0.000262
0.000250
0.000254
0.000265
0.000254
0.000257
0.000414
0.000547
0.000456
0.000199
0.000263
0.001390
0.000220
0.000190
0.000055
0.000303
0.000422
0.000318
0.000273
0.000229
0.000218
0.000233
0.000248
0.000259
0.000260
0.000245
0.000262
0.000293
0.000297
0.000504
0.000404
0.000320
0.000221
0.000248
0.000263
0.000261
0.000287
0.000252
0.000262
0.000270
0.000264
0.000407
0.000560
0.000298
0.000367
0.000138
0.000057
0.000197
0.000225
0.001278
0.000413
0.000279
0.000472
0.000400
0.000469
0.000269
0.000342
0.000222
0.000231
0.000260
0.000256
0.000250
0.000255
0.000371
0.000504
0.000353
0.000382
0.000263
0.000248
0.000262
0.000495
0.000225
0.000268
0.000261
0.000277
0.000327
0.000527
0.000376
0.000056
0.000377
0.000313
0.000234
0.001415
0.000399
0.000440
0.000298
0.000244
0.000251
0.000251
0.000226
0.000243
0.000238
0.000271
0.000254
0.000260
0.000234
0.000342
0.000387
0.000327
0.000465
0.000242
0.000254
0.000261
0.000277
0.000259
0.000267
0.000234
0.000265
0.000281
0.000197
0.000056
0.000381
0.000338
0.000215
0.000236
0.000255
0.000242
0.000266
0.000234
0.000234
0.000227
0.001402
0.000480
0.000276
0.000238
0.000235
0.000255
0.000269
0.000274
0.000223
0.000303
0.000249
0.000249
0.000316
0.000351
0.000596
0.000300
0.000225
0.000263
0.000277
0.000277
0.000178
0.000056
0.000191
0.000413
0.000221
0.000231
0.000472
0.000389
0.000281
0.000327
0.000467
0.000212
0.000231
0.000253
0.000261
0.000266
0.000258
0.001405
0.000371
0.000297
0.000232
0.000264
0.000295
0.000232
0.000276
0.000237
0.000258
0.000269
0.000418
0.000519
0.000250
0.000273
0.000165
0.000056
0.000209
0.000232
0.000262
0.000241
0.000226
0.000259
0.000243
0.000256
0.000268
0.000356
0.000492
0.000249
0.000237
0.000262
0.000246
0.000270
0.000276
0.000262
0.000267
0.000228
0.000266
0.000324
0.001241
0.000248
0.000264
0.000245
0.000259
0.000270
0.000251
0.000266
0.000186
0.000056
0.000224
0.000343
0.000514
0.000185
0.000251
0.000253
0.000253
0.000283
0.000242
0.000262
0.000241
0.000261
0.000242
0.000273
0.000257
0.000244
0.000263
0.000278
0.000258
0.000245
0.000257
0.000267
0.000269
0.000285
0.000291
0.000257
0.000274
0.000258
0.000274
0.000436
0.001371
0.000056
0.000190
0.000252
0.000219
0.000265
0.000231
0.000259
0.000249
0.000231
0.000240
0.000248
0.000304
0.000234
0.000249
0.000236
0.000279
0.000219
0.001727
0.000269
0.000234
0.000255
0.000249
0.000263
0.000276
0.000256
0.000289
0.000234
0.000272
0.000279
0.000268
0.000258
0.000222
0.000056
0.000276
0.000334
0.001279
0.000219
0.000229
0.000252
0.000258
0.000246
0.000275
0.000240
0.000237
0.000368
0.000443
0.000382
0.000275
0.000217
0.000246
0.000262
0.000256
0.000268
0.000239
0.000282
0.000257
0.000283
0.000266
0.000405
0.000351
0.000375
0.000310
0.000235
0.000194
0.000056
0.000225
0.000249
0.000244
0.000249
0.000279
0.000199
0.000236
0.000288
0.000456
0.001278
0.000263
0.000214
0.000244
0.000278
0.000249
0.000291
0.000232
0.000255
0.000325
0.000439
0.000340
0.000263
0.000241
0.000251
0.000289
0.000268
0.000266
0.000290
0.000272
0.000276
0.000189
0.000056
0.000229
0.000488
0.000345
0.000214
0.000235
0.000237
0.000251
0.000275
0.000265
0.000243
0.000235
0.000251
0.000452
0.000500
0.000513
0.001413
0.000230
0.000297
0.000319
0.000352
0.000497
0.000489
0.000403
0.000364
0.000236
0.000264
0.000270
0.000276
0.000264
0.000272
0.000211
0.000056
0.000212
0.000243
0.000482
0.000415
0.000394
0.000237
0.000246
0.000240
0.000240
0.000271
0.000232
0.000270
0.000281
0.000220
0.000271
0.000299
0.000374
0.000427
0.000350
0.001331
0.000262
0.000259
0.000250
0.000264
0.000488
0.000436
0.000374
0.000244
0.000270
0.000269
0.000191
0.000056
0.000209
0.000246
0.000241
0.000266
0.000228
0.000295
0.000418
0.000507
0.000260
0.000217
0.000246
0.000261
0.000273
0.000283
0.000242
0.000259
0.000255
0.000259
0.000285
0.000372
0.000430
0.000417
0.000251
0.001359
0.000402
0.000247
0.000268
0.000450
0.000465
0.000288
0.000315
0.000056
0.000190
0.000233
0.000246
0.000245
0.000254
0.000256
0.001677
0.000243
0.000221
0.000237
0.000259
0.000246
0.000253
0.000329
0.000325
0.000281
0.000268
0.000324
0.000496
0.000416
0.000292
0.000291
0.000222
0.000249
0.001502
0.000342
0.000412
0.000461
0.000327
0.000315
0.000154
0.000057
0.000209
0.000247
0.000255
0.000256
0.000247
0.000261
0.001708
0.000243
0.000230
0.000260
0.000334
0.000401
0.001458
0.000345
0.000403
0.000246
0.000250
0.000238
0.000269
0.000294
0.001505
0.000707
0.000253
0.000298
0.000229
0.000259
0.000264
0.000278
0.000248
0.000249
0.000199
0.000055
0.000193
0.000241
0.000267
0.000243
0.000264
0.000304
0.000251
0.000264
0.000240
0.000275
0.000233
0.000245
0.000292
0.000243
0.000287
0.001453
0.000289
0.000226
0.000276
0.000273
0.000266
0.000264
0.000419
0.001274
0.000275
0.000241
0.000267
0.000252
0.000406
0.000236
0.000199
0.000057
0.000209
0.000249
0.000220
0.000242
0.000242
0.000230
0.000237
0.001688
0.000255
0.000232
0.000346
0.000288
0.000208
0.000222
0.000256
0.001381
0.000238
0.000259
0.000271
0.000245
0.000271
0.000342
0.000288
0.001299
0.000275
0.000261
0.000246
0.000266
0.001385
0.000313
0.000173
0.000057
0.000345
0.000251
0.000205
0.000239
0.000267
0.000225
0.000290
0.000249
0.000261
0.000248
0.000260
0.000261
0.000262
0.000242
0.000305
0.001526
0.000234
0.000263
0.000248
0.000252
0.000307
0.000239
0.000244
0.001526
0.000336
0.000232
0.000271
0.001273
0.000266
0.000251
0.000227
0.000056
0.000227
0.000379
0.000343
0.000215
0.000234
0.000245
0.000265
0.000249
0.000266
0.000276
0.000234
0.000255
0.000259
0.000368
0.000329
0.001210
0.000226
0.000260
0.000262
0.000274
0.000254
0.000224
0.000254
0.000329
0.001280
0.000242
0.000255
0.000252
0.000254
0.001339
0.000349
0.000056
0.000303
0.000268
0.000203
0.000228
0.000240
0.000254
0.000242
0.000248
0.000301
0.000228
0.000262
0.000228
0.000247
0.000413
0.000357
0.001447
0.000224
0.000251
0.000299
0.000515
0.000297
0.001485
0.000311
0.000236
0.000228
0.000265
0.000254
0.001297
0.000345
0.000553
0.000268
0.000056
0.000203
0.000247
0.000256
0.000255
0.000278
0.000235
0.000267
0.000282
0.000233
0.000258
0.000398
0.000452
0.001261
0.000237
0.000273
0.000268
0.000275
0.000226
0.000238
0.000237
0.000445
0.001150
0.000262
0.000233
0.000250
0.000258
0.001481
0.000523
0.000413
0.000218
0.000198
0.000057
0.000198
0.000234
0.000243
0.000241
0.000252
0.000264
0.000236
0.000267
0.000480
0.000433
0.000262
0.001496
0.000219
0.000243
0.000260
0.000253
0.000279
0.000304
0.001668
0.000242
0.000383
0.000344
0.001319
0.000346
0.000294
0.000314
0.000257
0.000259
0.000267
0.000273
0.000184
0.000057
0.000215
0.000240
0.000323
0.000246
0.000299
0.000602
0.000250
0.000285
0.001479
0.000231
0.000385
0.000271
0.000214
0.000313
0.000403
0.001308
0.000255
0.000238
0.000249
0.000256
0.001538
0.000378
0.000290
0.000282
0.000248
0.000245
0.000457
0.000331
0.000232
0.000251
0.000262
0.000055
0.000328
0.000307
0.000330
0.000259
0.000215
0.001531
0.000201
0.000260
0.000272
0.000267
0.000279
0.000280
0.000292
0.001454
0.000242
0.000233
0.000435
0.001191
0.000370
0.000418
0.000393
0.000232
0.000245
0.000249
0.000302
0.000218
0.000468
0.000218
0.000266
0.000278
0.000201
0.000057
0.000215
0.000226
0.000393
0.000341
0.001316
0.000280
0.000337
0.000226
0.000223
0.000246
0.000251
0.000282
0.001535
0.000257
0.000231
0.000240
0.001389
0.000264
0.000425
0.000417
0.000401
0.000239
0.000254
0.000249
0.000273
0.000283
0.000250
0.000265
0.000269
0.000249
0.000204
0.000057
0.000212
0.000395
0.001462
0.000212
0.000267
0.000300
0.000217
0.000264
0.000247
0.000351
0.001424
0.000220
0.000258
0.000261
0.000253
0.001275
0.000759
0.000232
0.000310
0.000412
0.000302
0.000250
0.000269
0.000255
0.000272
0.000287
0.000286
0.000278
0.000467
0.000424
0.001364
0.000056
0.000203
0.000247
0.000237
0.000232
0.000263
0.000390
0.000581
0.001199
0.000241
0.000249
0.000249
0.001491
0.000387
0.000322
0.000222
0.000413
0.000244
0.000240
0.000266
0.000287
0.000248
0.000259
0.000280
0.000260
0.000252
0.000257
0.000532
0.000402
0.001500
0.000237
0.000187
0.000056
0.000204
0.000270
0.000424
0.000408
0.001282
0.000314
0.000213
0.000257
0.000246
0.000254
0.000253
0.000279
0.000358
0.000531
0.000290
0.000236
0.000257
0.000269
0.000245
0.000302
0.000237
0.000265
0.000253
0.000268
0.000257
0.000404
0.000506
0.000293
0.000340
0.001396
0.000180
0.000056
0.000208
0.000238
0.000273
0.000487
0.000310
0.000310
0.000320
0.000328
0.000296
0.000254
0.000238
0.000263
0.000265
0.000293
0.000240
0.000317
0.000515
0.000338
0.000282
0.000394
0.000270
0.000407
0.000216
0.000253
0.000261
0.000266
0.000248
0.000288
0.000342
0.000558
0.000249
0.000057
0.000202
0.001411
0.000223
0.000335
0.000407
0.000511
0.000356
0.000258
0.000211
0.000240
0.000263
0.000250
0.000284
0.000272
0.000240
0.000255
0.000260
0.001323
0.000292
0.000258
0.000252
0.000277
0.000265
0.000279
0.000263
0.000257
0.000278
0.000253
0.000368
0.000407
0.000536
0.000057
0.000205
0.000228
0.000250
0.001488
0.000325
0.000241
0.000224
0.000248
0.000232
0.000255
0.000242
0.000285
0.000243
0.000243
0.000299
0.000230
0.000247
0.000267
0.000255
0.000259
0.001432
0.000244
0.000230
0.000285
0.000257
0.000244
0.000267
0.000265
0.000276
0.000490
0.000347
0.000056
0.000223
0.000239
0.000385
0.000287
0.000237
0.000263
0.001536
0.000337
0.000284
0.000228
0.000259
0.000319
0.000329
0.000229
0.000231
0.000246
0.000249
0.000259
0.000263
0.000258
0.000490
0.000512
0.001103
0.000278
0.000233
0.000255
0.000273
0.000263
0.000302
0.000231
0.000321
0.000057
0.000319
0.000299
0.000214
0.000243
0.000251
0.000237
0.000246
0.000227
0.000287
0.001588
0.000448
0.000231
0.000236
0.000248
0.000259
0.000245
0.000264
0.000271
0.000276
0.000318
0.000284
0.000509
0.000430
0.001366
0.000233
0.000280
0.000253
0.000258
0.000268
0.000346
0.000448
0.000056
0.000258
0.000267
0.000219
0.000255
0.000203
0.000241
0.000265
0.000277
0.000257
0.001571
0.000359
0.000259
0.000245
0.000255
0.000458
0.000257
0.000549
0.000370
0.000270
0.000275
0.000492
0.000455
0.001296
0.000262
0.000238
0.000256
0.001689
0.000504
0.000584
0.000321
0.000142
0.000057
0.000193
0.000229
0.000243
0.000229
0.000277
0.000226
0.000249
0.000566
0.000427
0.000421
0.000306
0.000198
0.000238
0.000264
0.000281
0.000278
0.000229
0.000243
0.000255
0.000285
0.000294
0.000354
0.001365
0.000227
0.000255
0.000272
0.001896
0.000382
0.000397
0.000336
0.000164
0.000057
0.000246
0.000238
0.000244
0.001551
0.000434
0.000220
0.000235
0.000272
0.000238
0.000280
0.000374
0.000366
0.000369
0.000284
0.000321
0.000569
0.000318
0.001189
0.000282
0.000226
0.000262
0.000257
0.000276
0.000405
0.000649
0.000420
0.000271
0.000257
0.000266
0.000267
0.000194
0.000057
0.000189
0.000234
0.000246
0.001556
0.000243
0.000227
0.000236
0.000260
0.000240
0.000251
0.000256
0.000270
0.000263
0.000284
0.000233
0.000354
0.000547
0.000268
0.001399
0.000229
0.000261
0.000256
0.000273
0.000299
0.000390
0.000492
0.000382
0.000260
0.000294
0.000231
0.000452
0.000057
0.000209
0.000246
0.000268
0.001545
0.000277
0.000226
0.000266
0.000243
0.000252
0.000254
0.000256
0.000270
0.000241
0.000253
0.000329
0.000630
0.001342
0.000756
0.000248
0.000340
0.000244
0.000239
0.000249
0.000276
0.001684
0.000797
0.000231
0.000260
0.000284
0.000288
0.000175
0.000056
0.000196
0.000233
0.000252
0.000246
0.000280
0.000249
0.000213
0.000255
0.000237
0.000251
0.000277
0.000295
0.000237
0.000251
0.000261
0.000248
0.000267
0.001607
0.000711
0.000354
0.000326
0.000233
0.000239
0.000308
0.000254
0.000249
0.000271
0.000260
0.001414
0.000371
0.000349
0.000056
0.000199
0.000226
0.000270
0.000230
0.000267
0.000230
0.000277
0.000227
0.000254
0.000276
0.000227
0.000504
0.000388
0.000339
0.000214
0.000245
0.000262
0.001386
0.000700
0.000525
0.000283
0.000267
0.000232
0.000249
0.000275
0.000257
0.000252
0.000266
0.001517
0.000400
0.000192
0.000057
0.000184
0.000227
0.000247
0.000249
0.000252
0.000250
0.000232
0.000248
0.000276
0.000255
0.000426
0.000342
0.000311
0.000217
0.000244
0.000246
0.000262
0.000261
0.001561
0.000701
0.000396
0.000319
0.000237
0.000249
0.000262
0.000264
0.000264
0.000283
0.000262
0.001484
0.000213
0.000056
0.000204
0.000218
0.000238
0.000255
0.000256
0.000244
0.000248
0.000308
0.000361
0.000435
0.000418
0.000379
0.000326
0.000220
0.000261
0.000231
0.000300
0.000240
0.000268
0.001920
0.000328
0.000233
0.000455
0.000234
0.000249
0.000271
0.000269
0.000253
0.000272
0.000275
0.000353
0.000057
0.000310
0.000210
0.000227
0.000243
0.000259
0.000247
0.000225
0.000243
0.000290
0.000242
0.000231
0.000235
0.000268
0.000433
0.000584
0.000362
0.000222
0.000261
0.000254
0.000245
0.000263
0.000279
0.001501
0.001023
0.000231
0.000248
0.000266
0.000261
0.000276
0.000250
0.000202
0.000056
0.000220
0.001410
0.000223
0.000207
0.000233
0.000255
0.000251
0.000239
0.000240
0.000265
0.000245
0.000263
0.000239
0.000401
0.000376
0.000523
0.000174
0.000252
0.000261
0.000271
0.000280
0.000221
0.000259
0.000268
0.001319
0.000680
0.000309
0.000386
0.000373
0.000404
0.000296
0.000056
0.000205
0.000257
0.000361
0.001302
0.000210
0.000264
0.000224
0.000257
0.000251
0.000262
0.000243
0.000247
0.000395
0.000231
0.000606
0.000258
0.000223
0.000286
0.000325
0.000219
0.000242
0.000273
0.000239
0.000270
0.000267
0.001536
0.000740
0.000322
0.000262
0.000271
0.000188
0.000056
0.000193
0.000266
0.000454
0.000335
0.001293
0.000248
0.000222
0.000237
0.000235
0.000249
0.000247
0.000253
0.000239
0.000236
0.000250
0.000256
0.000269
0.000230
0.000256
0.000261
0.000269
0.000266
0.000315
0.000329
0.000214
0.000262
0.000269
0.001462
0.000270
0.000233
0.000165
0.000056
0.000208
0.000235
0.000247
0.000268
0.000353
0.000373
0.000395
0.000278
0.001580
0.000253
0.000385
0.000420
0.000308
0.000237
0.000436
0.000230
0.000233
0.000272
0.000270
0.000271
0.000276
0.000264
0.000256
0.000271
0.000274
0.000391
0.000392
0.000334
0.001589
0.000224
0.000188
0.000055
0.000181
0.000236
0.000264
0.000230
0.000239
0.000247
0.000261
0.000317
0.000414
0.002030
0.000223
0.000246
0.000259
0.000257
0.000263
0.000256
0.000267
0.000254
0.000263
0.000452
0.000463
0.000334
0.001452
0.000248
0.000240
0.002019
0.000284
0.000232
0.000258
0.001527
0.000162
0.000056
0.000316
0.000479
0.000413
0.000248
0.000276
0.000224
0.000245
0.000292
0.000243
0.000241
0.000237
0.000341
0.000430
0.000349
0.000412
0.000230
0.000234
0.001573
0.000244
0.000577
0.001867
0.000295
0.000229
0.001566
0.002004
0.000730
0.000271
0.000261
0.000331
0.000532
0.000248
0.000056
0.000229
0.000237
0.000281
0.000222
0.001416
0.001732
0.001079
0.000201
0.000242
0.001576
0.001986
0.000210
0.000241
0.000416
0.000370
0.000341
0.000395
0.000447
0.000210
0.000244
0.000251
0.000253
0.000273
0.001595
0.001208
0.001425
0.000283
0.000284
0.000261
0.000307
0.000374
0.000056
0.000270
0.000178
0.000230
0.000246
0.000226
0.000271
0.000226
0.000255
0.000259
0.000241
0.000241
0.000281
0.000445
0.000542
0.000234
0.000249
0.000248
0.000292
0.000251
0.000289
0.000230
0.000263
0.001589
0.000397
0.002124
0.000222
0.000260
0.000363
0.000431
0.000371
0.000192
0.000056
0.000213
0.000344
0.000561
0.000235
0.000203
0.000217
0.000253
0.000240
0.000238
0.000248
0.000243
0.000266
0.000256
0.001612
0.001350
0.001236
0.000268
0.000241
0.000241
0.000275
0.000283
0.000273
0.000246
0.000251
0.002215
0.000246
0.000243
0.000304
0.000321
0.000308
0.000223
0.000056
0.000190
0.000376
0.000569
0.000310
0.000206
0.000237
0.000245
0.000277
0.001894
0.001419
0.000218
0.000331
0.000385
0.000409
0.000295
0.000214
0.000240
0.000264
0.000271
0.000258
0.000264
0.000272
0.000463
0.000232
0.000269
0.000273
0.000249
0.000275
0.000281
0.000250
0.000199
0.000055
0.000201
0.000248
0.000251
0.000235
0.000282
0.000245
0.001536
0.001426
0.001318
0.000231
0.000245
0.000237
0.000265
0.000266
0.000247
0.000266
0.000235
0.002100
0.000262
0.000230
0.000263
0.000259
0.000260
0.000278
0.000250
0.000256
0.000276
0.000249
0.000286
0.000243
0.000182
0.000056
0.000182
0.002679
0.001394
0.000220
0.000305
0.000320
0.000218
0.000281
0.000234
0.000240
0.000252
0.000259
0.000218
0.000256
0.000267
0.000255
0.000267
0.000266
0.000268
0.000257
0.000265
0.000286
0.000271
0.000260
0.000250
0.000251
0.000259
0.000284
0.000250
0.000272
0.000378
0.000056
0.001542
0.000254
0.001243
0.000232
0.000221
0.000259
0.000257
0.000259
0.000222
0.000315
0.000352
0.000376
0.000314
0.000224
0.000248
0.002156
0.000225
0.000264
0.000353
0.000441
0.000392
0.000252
0.000232
0.000253
0.000265
0.000246
0.000266
0.000278
0.000273
0.001718
0.001160
0.000057
0.000205
0.000225
0.000253
0.000454
0.000361
0.000265
0.000212
0.000235
0.000246
0.000260
0.000268
0.000240
0.000229
0.000258
0.000261
0.000245
0.000347
0.000677
0.000293
0.000217
0.000238
0.000264
0.000283
0.000248
0.000250
0.000255
0.000263
0.000272
0.000245
0.000413
0.000292
0.000057
0.001126
0.000231
0.000336
0.000448
0.000296
0.000231
0.000242
0.000225
0.000251
0.002303
0.000393
0.000352
0.000230
0.000383
0.000302
0.000247
0.000241
0.000258
0.000270
0.000224
0.000254
0.000328
0.000777
0.000218
0.001875
0.001384
0.000488
0.000513
0.000218
0.000284
0.000200
0.000055
0.000327
0.000257
0.000243
0.000242
0.000289
0.000189
0.000256
0.000249
0.000256
0.000247
0.000256
0.000229
0.000246
0.000278
0.000414
0.000508
0.001787
0.001326
0.000459
0.000468
0.000419
0.000237
0.000243
0.000258
0.002123
0.000559
0.000391
0.000232
0.000288
0.000270
0.000200
0.000057
0.000204
0.000239
0.000256
0.000246
0.000243
0.000379
0.000372
0.000334
0.000302
0.000223
0.000236
0.000256
0.000265
0.002229
0.000266
0.000366
0.000220
0.000246
0.000310
0.000216
0.000251
0.002484
0.000315
0.000215
0.000256
0.000277
0.000233
0.000275
0.000309
0.000253
0.000196
0.000055
0.000196
0.000332
0.000549
0.000386
0.000256
0.000213
0.000242
0.000271
0.000246
0.000246
0.001950
0.000401
0.000269
0.000279
0.000242
0.000261
0.000274
0.000238
0.002209
0.000444
0.000220
0.000270
0.000272
0.000251
0.000261
0.000255
0.000301
0.000230
0.000267
0.000253
0.000193
0.000056
0.000209
0.000242
0.000243
0.000223
0.000248
0.000262
0.000237
0.000247
0.000230
0.002184
0.000228
0.000275
0.000216
0.000436
0.000221
0.000252
0.000310
0.000262
0.000251
0.000252
0.001971
0.000271
0.000337
0.000360
0.000455
0.000387
0.000309
0.000256
0.000256
0.000251
0.000202
0.000056
0.000209
0.000235
0.000244
0.000256
0.000301
0.000275
0.000224
0.002291
0.000242
0.000234
0.000261
0.000256
0.000229
0.000288
0.000273
0.002132
0.000588
0.000226
0.000245
0.000245
0.000264
0.000255
0.000289
0.000270
0.000257
0.000256
0.000281
0.000260
0.000268
0.000263
0.000194
0.000056
0.001832
0.001441
0.000201
0.000228
0.000244
0.000256
0.000247
0.000258
0.000467
0.000298
0.002178
0.000263
0.000223
0.000281
0.000250
0.000561
0.000371
0.000295
0.000218
0.000250
0.000252
0.000270
0.000262
0.000227
0.000262
0.000266
0.000264
0.000266
0.000325
0.000642
0.000339
0.000056
0.000199
0.000245
0.000244
0.000254
0.000261
0.000247
0.000257
0.000239
0.001522
0.002079
0.000590
0.000267
0.000400
0.000700
0.000352
0.000239
0.000248
0.000249
0.000268
0.000259
0.000255
0.000248
0.000253
0.000271
0.003008
0.000332
0.000235
0.000268
0.000288
0.000327
0.000352
0.000056
0.001921
0.000231
0.000232
0.000228
0.000304
0.000388
0.000410
0.000304
0.000285
0.000223
0.000242
0.000246
0.000261
0.000254
0.000269
0.000251
0.000259
0.000286
0.001811
0.000250
0.000230
0.000260
0.000273
0.000275
0.000272
0.000264
0.001461
0.000332
0.000245
0.000261
0.000176
0.000056
0.000202
0.000232
0.000261
0.000227
0.000247
0.000246
0.000261
0.000423
0.000378
0.000318
0.000228
0.000238
0.000263
0.000328
0.000420
0.000321
0.000230
0.000252
0.000255
0.000346
0.000597
0.000356
0.000231
0.000249
0.000255
0.000253
0.000256
0.000274
0.000274
0.000263
0.000204
0.000055
0.001421
0.000472
0.000195
0.001932
0.000262
0.000467
0.000434
0.000294
0.000222
0.000250
0.000264
0.000241
0.000253
0.000243
0.000264
0.000261
0.000446
0.000287
0.000400
0.000431
0.000306
0.000253
0.000234
0.000264
0.000272
0.000272
0.000256
0.000270
0.000390
0.000467
0.001338
0.000057
0.000200
0.000223
0.002081
0.000361
0.000279
0.000235
0.000272
0.000232
0.000263
0.000249
0.000242
0.000231
0.000265
0.000254
0.000257
0.000368
0.000741
0.001728
0.000226
0.000248
0.000260
0.000261
0.000439
0.000366
0.001580
0.000294
0.000364
0.001924
0.000254
0.000263
0.000195
0.000056
0.000206
0.000230
0.000236
0.000246
0.000238
0.000241
0.000252
0.000282
0.000328
0.000265
0.000379
0.000360
0.000351
0.000294
0.000256
0.000253
0.000268
0.000236
0.000271
0.000245
0.000308
0.000283
0.000265
0.000266
0.000259
0.001505
0.000300
0.000379
0.002071
0.000235
0.000181
0.000077
0.000205
0.000241
0.000235
0.000253
0.000488
0.000205
0.000262
0.000330
0.000363
0.000311
0.000299
0.000215
0.000269
0.000259
0.000265
0.000332
0.000429
0.000426
0.000251
0.000413
0.000576
0.000446
0.001520
0.000230
0.000255
0.001990
0.000315
0.000251
0.000246
0.000297
0.000190
0.000056
0.000209
0.000243
0.000224
0.000242
0.000258
0.000263
0.000255
0.000267
0.000253
0.000267
0.001804
0.000333
0.000362
0.000293
0.000452
0.000365
0.000330
0.001534
0.000233
0.000279
0.002118
0.000643
0.000205
0.000213
0.000269
0.000264
0.000506
0.000221
0.000251
0.000287
0.000199
0.000056
0.000281
0.000342
0.000408
0.000290
0.000184
0.000236
0.000266
0.000249
0.000263
0.000302
0.000223
0.000251
0.000258
0.000255
0.000433
0.000354
0.001350
0.000263
0.000272
0.001899
0.000439
0.000234
0.000254
0.000238
0.000250
0.000281
0.000263
0.000273
0.000239
0.000271
0.000204
0.000056
0.000217
0.000479
0.001973
0.000257
0.000224
0.000262
0.000245
0.000295
0.000422
0.000453
0.001294
0.000374
0.000360
0.002074
0.000219
0.000233
0.000276
0.000280
0.000245
0.000257
0.000268
0.000298
0.000254
0.000356
0.000478
0.000402
0.000289
0.002234
0.000490
0.000504
0.000365
0.000056
0.000208
0.000231
0.000241
0.001959
0.000235
0.000231
0.000238
0.000246
0.000240
0.000262
0.000242
0.000261
0.000264
0.000275
0.000423
0.001484
0.000247
0.000248
0.000261
0.000256
0.000236
0.000253
0.000277
0.000258
0.000314
0.000482
0.000448
0.000245
0.001595
0.000276
0.002010
0.000056
0.000195
0.000226
0.000269
0.000214
0.000264
0.000269
0.000223
0.000244
0.000254
0.000376
0.000412
0.001374
0.000231
0.000225
0.000251
0.000291
0.000225
0.000250
0.000329
0.000482
0.000525
0.000301
0.000225
0.001575
0.000232
0.000257
0.000297
0.000276
0.000260
0.000271
0.000189
0.000056
0.000204
0.000242
0.000287
0.000250
0.000264
0.000224
0.000236
0.000245
0.000275
0.000227
0.000249
0.000255
0.000270
0.001479
0.000361
0.000205
0.000250
0.000268
0.000274
0.000313
0.000369
0.000280
0.000236
0.000260
0.000267
0.000261
0.000265
0.001406
0.000288
0.000231
0.000175
0.000056
0.000200
0.000233
0.000261
0.000258
0.000269
0.000221
0.000248
0.000262
0.000219
0.000282
0.000228
0.000259
0.000227
0.000342
0.000327
0.000391
0.000240
0.000239
0.001634
0.000245
0.000240
0.000254
0.000266
0.000292
0.000383
0.000394
0.000437
0.000266
0.000249
0.001610
0.000156
0.000055
0.000383
0.000287
0.000381
0.000280
0.000232
0.000218
0.000249
0.000263
0.000260
0.000256
0.000234
0.000232
0.001468
0.000292
0.000291
0.000235
0.000247
0.000276
0.000251
0.000266
0.000253
0.000233
0.000264
0.000268
0.000331
0.000344
0.000402
0.000375
0.000244
0.000266
0.000195
0.000056
0.000207
0.000240
0.000494
0.000319
0.000429
0.000197
0.000247
0.000250
0.000252
0.000256
0.000240
0.000228
0.000256
0.000248
0.001357
0.000201
0.000234
0.000248
0.000264
0.000276
0.000234
0.000264
0.000250
0.000265
0.000255
0.000261
0.000365
0.000673
0.000414
0.000234
0.000180
0.000056
0.000206
0.001558
0.000246
0.000357
0.000491
0.000321
0.000219
0.000253
0.000270
0.000260
0.000232
0.000261
0.000268
0.000293
0.000234
0.001558
0.000230
0.000275
0.000268
0.000251
0.000277
0.000238
0.000267
0.000257
0.000264
0.000386
0.000385
0.000285
0.000384
0.000224
0.000193
0.000056
0.000213
0.000250
0.000239
0.001675
0.000418
0.000280
0.000225
0.000241
0.000254
0.000272
0.000279
0.000253
0.000255
0.000253
0.000233
0.000317
0.000440
0.001242
0.000244
0.000230
0.001503
0.000435
0.000434
0.000406
0.000343
0.000235
0.000266
0.000463
0.000239
0.000258
0.000190
0.000056
0.000291
0.000215
0.000248
0.000243
0.000253
0.000269
0.000223
0.000258
0.000255
0.000252
0.000241
0.000250
0.000391
0.000509
0.001581
0.001603
0.000253
0.000593
0.000283
0.000219
0.000229
0.000255
0.000253
0.000271
0.000248
0.000280
0.000241
0.000271
0.001516
0.000349
0.000174
0.000056
0.000212
0.000347
0.000354
0.000332
0.000255
0.000207
0.000248
0.000450
0.000378
0.000340
0.002159
0.000316
0.000799
0.000443
0.000426
0.000260
0.000334
0.000389
0.000333
0.000279
0.000387
0.000272
0.001521
0.000537
0.000219
0.000261
0.000252
0.000257
0.000270
0.000262
0.000198
0.000056
0.000214
0.000251
0.000256
0.000246
0.000244
0.001662
0.000877
0.000994
0.000216
0.000233
0.000272
0.000238
0.000263
0.000262
0.000247
0.000254
0.000253
0.000269
0.000261
0.000282
0.001426
0.000320
0.000249
0.000243
0.000225
0.000261
0.000259
0.000281
0.000269
0.000284
0.001897
0.000056
0.000188
0.000231
0.001545
0.000855
0.000440
0.000303
0.000253
0.000216
0.000249
0.000269
0.000247
0.000239
0.000247
0.002002
0.000448
0.000249
0.000221
0.000261
0.000261
0.000258
0.000199
