0.000091
0.020938
0.000711
0.000389
0.000263
0.000280
0.000304
0.000249
0.000330
0.000287
0.000242
0.000351
0.000480
0.000499
0.000368
0.000400
0.000283
0.000323
0.000346
0.000414
0.000324
0.001916
0.000721
0.000222
0.000259
0.000302
0.000303
0.000341
0.000432
0.000363
0.000501
0.000305
0.000057
0.000199
0.000288
0.000255
0.000263
0.000267
0.000250
0.000281
0.000260
0.000277
0.000297
0.000431
0.000424
0.000314
0.000285
0.000398
0.000301
0.000362
0.000254
0.000232
0.001759
0.000268
0.000250
0.000480
0.000217
0.000277
0.000287
0.000279
0.000302
0.000276
0.000317
0.000434
0.000056
0.000240
0.000253
0.000261
0.000260
0.000268
0.000231
0.000265
0.000255
0.000286
0.001667
0.000231
0.000237
0.000271
0.000263
0.000283
0.000244
0.000267
0.000263
0.000357
0.001835
0.000193
0.000272
0.000448
0.000471
0.000356
0.000232
0.000242
0.000487
0.000503
0.000755
0.000197
0.000056
0.000235
0.000254
0.000240
0.000241
0.000296
0.000250
0.000254
0.000601
0.000412
0.000246
0.000240
0.000246
0.000248
0.000249
0.000265
0.000258
0.000232
0.000268
0.000299
0.000334
0.001686
0.000263
0.000254
0.000409
0.000318
0.000676
0.000673
0.000524
0.000343
0.000233
0.000185
0.000057
0.000223
0.000251
0.000267
0.000240
0.000258
0.000259
0.000254
0.000526
0.001419
0.000210
0.000252
0.000241
0.000255
0.000270
0.000251
0.000286
0.000270
0.000801
0.001386
0.000285
0.000470
0.000258
0.000194
0.000249
0.000257
0.000253
0.000262
0.000274
0.000262
0.000269
0.000192
0.000056
0.000190
0.000245
0.000249
0.000259
0.000243
0.000258
0.000222
0.000254
0.000237
0.000255
0.001633
0.000260
0.000244
0.000235
0.000266
0.000240
0.000242
0.000264
0.000239
0.000257
0.000273
0.001662
0.000288
0.000243
0.000451
0.000258
0.000254
0.000249
0.000259
0.000269
0.000193
0.000056
0.000218
0.000222
0.000251
0.000246
0.000244
0.000249
0.000262
0.000235
0.000269
0.000234
0.000266
0.000256
0.000262
0.000272
0.001645
0.000273
0.000294
0.000221
0.000246
0.000279
0.000257
0.000245
0.000243
0.000262
0.001791
0.000349
0.000414
0.000333
0.000242
0.000281
0.000189
0.000056
0.000229
0.000237
0.000247
0.000262
0.000256
0.000240
0.000297
0.000398
0.000454
0.000403
0.000195
0.000253
0.000241
0.000250
0.001560
0.000530
0.000303
0.000422
0.000321
0.000225
0.000278
0.000280
0.000267
0.001742
0.000510
0.000468
0.000238
0.000261
0.000230
0.000271
0.000182
0.000057
0.000198
0.000237
0.000253
0.000271
0.000324
0.000473
0.000368
0.000270
0.000208
0.000248
0.000269
0.000233
0.000257
0.001689
0.000502
0.000297
0.000218
0.000266
0.000266
0.000283
0.000244
0.000262
0.000278
0.001910
0.000284
0.000410
0.000246
0.000238
0.000264
0.000412
0.000329
0.000056
0.000202
0.000404
0.000307
0.000318
0.000246
0.000252
0.000247
0.000260
0.000241
0.000232
0.000236
0.000246
0.001558
0.000352
0.000312
0.000225
0.000260
0.000269
0.000230
0.000286
0.000272
0.000336
0.000238
0.001823
0.000254
0.000512
0.000215
0.000255
0.000262
0.000264
0.000288
0.000055
0.000360
0.000573
0.000601
0.000219
0.000232
0.000275
0.000228
0.000212
0.000269
0.000247
0.000258
0.001708
0.000245
0.000437
0.000373
0.000230
0.000225
0.000230
0.000246
0.000275
0.000240
0.001868
0.000235
0.000236
0.002082
0.000525
0.000350
0.000246
0.000262
0.000266
0.000182
0.000056
0.000205
0.000236
0.000246
0.000241
0.000262
0.001622
0.000251
0.000231
0.000257
0.000253
0.000241
0.000242
0.000260
0.000247
0.000263
0.000425
0.000645
0.000241
0.000226
0.000271
0.000267
0.000248
0.000242
0.000437
0.000433
0.000265
0.000412
0.000482
0.000471
0.000246
0.000196
0.000055
0.000206
0.000244
0.000253
0.000253
0.000233
0.000245
0.000237
0.000456
0.000416
0.001684
0.000222
0.000228
0.000240
0.000254
0.000257
0.000291
0.000409
0.000500
0.000338
0.000245
0.000247
0.000300
0.000292
0.000263
0.000265
0.000435
0.000348
0.000632
0.000385
0.000484
0.000177
0.000056
0.000217
0.000269
0.000228
0.000215
0.000248
0.000234
0.000253
0.000253
0.000234
0.000297
0.000339
0.000457
0.001360
0.000255
0.000225
0.000251
0.000259
0.000271
0.000225
0.000253
0.000351
0.000375
0.000432
0.000259
0.000262
0.000253
0.000257
0.000266
0.000269
0.000263
0.000390
0.000057
0.000194
0.000239
0.000226
0.000271
0.000536
0.000441
0.000232
0.000251
0.000238
0.000259
0.000244
0.000243
0.000295
0.000247
0.000237
0.000478
0.000451
0.001622
0.000270
0.000236
0.000257
0.000262
0.000256
0.000243
0.000267
0.000431
0.000475
0.000355
0.000411
0.000230
0.000204
0.000056
0.000216
0.000440
0.000250
0.000193
0.000268
0.000246
0.000297
0.000565
0.000317
0.000329
0.000220
0.000275
0.000267
0.000236
0.000520
0.000349
0.000214
0.000249
0.000433
0.001616
0.000267
0.000236
0.000536
0.000237
0.000282
0.000287
0.000242
0.000398
0.000528
0.000351
0.000275
0.000056
0.000193
0.000226
0.000240
0.000238
0.000419
0.000306
0.000291
0.000228
0.000354
0.000503
0.000379
0.000271
0.000222
0.000252
0.000252
0.000269
0.000253
0.000255
0.000239
0.000340
0.000291
0.000333
0.001850
0.000236
0.000258
0.000258
0.000299
0.000354
0.000407
0.000688
0.000435
0.000056
0.000226
0.000330
0.000284
0.000416
0.000393
0.000204
0.000256
0.000315
0.000526
0.000387
0.000255
0.000239
0.000238
0.000274
0.000260
0.000234
0.000266
0.000257
0.000273
0.000258
0.000362
0.000301
0.000674
0.001335
0.000339
0.000435
0.000436
0.000234
0.000396
0.000431
0.000323
0.000057
0.000237
0.000379
0.000271
0.000209
0.000222
0.000243
0.000422
0.000244
0.000211
0.000430
0.000415
0.000385
0.000262
0.000254
0.000263
0.000252
0.000363
0.000384
0.000359
0.000240
0.000233
0.000427
0.000594
0.001679
0.000231
0.000471
0.000279
0.000249
0.000225
0.000514
0.000247
0.000056
0.000224
0.000225
0.000243
0.000250
0.000245
0.000249
0.000251
0.000324
0.000462
0.000269
0.000445
0.000430
0.000238
0.000579
0.000242
0.000236
0.000274
0.000263
0.000236
0.000362
0.000208
0.000249
0.000266
0.000428
0.000452
0.001685
0.000274
0.000237
0.000233
0.000277
0.000197
0.000056
0.000338
0.000456
0.000317
0.000224
0.000245
0.000259
0.000245
0.000235
0.000263
0.000251
0.000221
0.000270
0.000406
0.000620
0.000284
0.000295
0.000243
0.000250
0.000357
0.000378
0.000379
0.000374
0.000380
0.000342
0.000231
0.000259
0.000261
0.000276
0.001786
0.000253
0.000217
0.000055
0.000201
0.000238
0.000237
0.000285
0.000356
0.000545
0.000308
0.000207
0.000258
0.000265
0.000248
0.000249
0.000526
0.000452
0.000472
0.000291
0.000262
0.000264
0.000424
0.000467
0.000362
0.000383
0.000446
0.000494
0.000246
0.000240
0.000257
0.000253
0.000264
0.001769
0.000312
0.000056
0.000254
0.000333
0.000206
0.000233
0.000256
0.000247
0.000250
0.000498
0.000371
0.000307
0.000299
0.000274
0.000316
0.000735
0.000283
0.000227
0.000251
0.000251
0.000251
0.000270
0.000265
0.000263
0.000243
0.000272
0.000270
0.000437
0.000388
0.000341
0.000250
0.000237
0.000184
0.000055
0.000455
0.000302
0.000452
0.000251
0.000202
0.000248
0.000246
0.000251
0.000243
0.000214
0.000279
0.000259
0.000294
0.000410
0.000429
0.000561
0.000278
0.000314
0.000393
0.000333
0.000298
0.000239
0.000241
0.000258
0.001754
0.000263
0.001716
0.000959
0.000362
0.000335
0.000169
0.000073
0.000212
0.000223
0.000229
0.000251
0.000259
0.000243
0.000253
0.000262
0.000233
0.000306
0.000441
0.000377
0.000333
0.000412
0.000216
0.000246
0.000263
0.000286
0.000226
0.000244
0.000257
0.000267
0.001817
0.000238
0.000247
0.000261
0.000277
0.000264
0.001905
0.000513
0.000249
0.000057
0.000230
0.000199
0.000242
0.000242
0.000258
0.000243
0.000246
0.000250
0.000254
0.000434
0.000550
0.000457
0.000239
0.000195
0.000230
0.000259
0.000330
0.000446
0.000372
0.000256
0.001761
0.000250
0.000246
0.000249
0.000265
0.000268
0.000239
0.000261
0.000327
0.000296
0.000367
0.000056
0.000236
0.000205
0.000236
0.000258
0.000249
0.000246
0.000259
0.000252
0.000240
0.000257
0.000234
0.000315
0.000346
0.000408
0.000331
0.000268
0.000466
0.000232
0.000245
0.000262
0.000254
0.000257
0.000281
0.000257
0.000271
0.001805
0.000239
0.000244
0.000271
0.000236
0.000197
0.000056
0.000245
0.000371
0.000252
0.000210
0.000241
0.000231
0.000241
0.000254
0.000248
0.000226
0.000239
0.000256
0.000255
0.000379
0.000380
0.000372
0.000292
0.000229
0.000272
0.000238
0.000264
0.000257
0.000257
0.000264
0.000243
0.000270
0.000323
0.001626
0.000272
0.000231
0.000183
0.000056
0.000202
0.000234
0.000257
0.000266
0.000384
0.000422
0.000279
0.000328
0.000216
0.000282
0.000229
0.000241
0.000258
0.000248
0.000256
0.000258
0.000248
0.000254
0.000253
0.000267
0.000262
0.000268
0.000250
0.000232
0.000253
0.000279
0.000288
0.000244
0.000258
0.000258
0.000196
0.000056
0.000191
0.000231
0.000256
0.000257
0.000236
0.000255
0.000238
0.000264
0.000287
0.000235
0.000253
0.000224
0.000256
0.000249
0.000270
0.000265
0.000241
0.000259
0.000296
0.000250
0.000267
0.000299
0.000274
0.000240
0.000289
0.000285
0.000264
0.000244
0.000255
0.000412
0.000693
0.000056
0.000221
0.000291
0.000222
0.000225
0.000235
0.000254
0.000239
0.000254
0.000254
0.000237
0.000268
0.000267
0.000523
0.000459
0.001551
0.000248
0.000465
0.000235
0.000255
0.000458
0.000439
0.000387
0.000218
0.000281
0.000256
0.000253
0.000283
0.000254
0.000315
0.000248
0.000189
0.000057
0.000342
0.000437
0.000320
0.000342
0.000198
0.000262
0.000248
0.000239
0.000237
0.000245
0.000272
0.000239
0.000228
0.000304
0.000369
0.000593
0.000264
0.001792
0.000232
0.000244
0.000380
0.000386
0.000472
0.000275
0.000315
0.000309
0.000308
0.000226
0.000230
0.000256
0.000193
0.000072
0.000188
0.000232
0.000231
0.000305
0.000342
0.000445
0.000345
0.000259
0.000251
0.000213
0.000247
0.000271
0.000266
0.000263
0.000244
0.000258
0.000276
0.000530
0.000402
0.000372
0.000234
0.001752
0.000328
0.000632
0.000476
0.000361
0.000316
0.000225
0.000249
0.000269
0.000444
0.000056
0.000203
0.000272
0.000218
0.000293
0.000495
0.000409
0.000355
0.000209
0.000240
0.000295
0.000242
0.000260
0.000253
0.000313
0.000289
0.000239
0.000231
0.000356
0.000453
0.000380
0.000503
0.001849
0.000242
0.000393
0.000566
0.000353
0.000223
0.000261
0.000306
0.000239
0.000209
0.000055
0.000217
0.000343
0.000360
0.000362
0.000360
0.000295
0.000355
0.000212
0.000241
0.000259
0.000281
0.000232
0.000240
0.000248
0.000253
0.000258
0.000336
0.000336
0.000553
0.000313
0.000332
0.000219
0.000269
0.001714
0.000316
0.000599
0.000717
0.000231
0.000367
0.000209
0.000144
0.000055
0.000188
0.000246
0.000321
0.000256
0.000311
0.000327
0.000485
0.000242
0.000242
0.000521
0.000241
0.000238
0.000255
0.000279
0.000276
0.000267
0.000215
0.000397
0.000482
0.000378
0.000271
0.000217
0.000257
0.000257
0.000259
0.000271
0.000236
0.000253
0.000264
0.000297
0.000197
0.000056
0.000197
0.000308
0.000243
0.000247
0.000252
0.000257
0.000239
0.000304
0.000235
0.000236
0.000263
0.000368
0.000417
0.000370
0.000452
0.000195
0.000215
0.000235
0.000255
0.000268
0.000303
0.000251
0.000229
0.000257
0.000288
0.000345
0.000392
0.000345
0.000373
0.000231
0.000176
0.000055
0.000187
0.000227
0.000274
0.000245
0.000238
0.000249
0.000260
0.000253
0.000490
0.000215
0.000258
0.000259
0.000241
0.000260
0.000276
0.000272
0.000266
0.000349
0.000228
0.000238
0.000253
0.000262
0.000256
0.000271
0.000276
0.000259
0.000264
0.000258
0.000524
0.000246
0.000144
0.000056
0.000184
0.000230
0.000252
0.000267
0.000219
0.000250
0.000362
0.000413
0.000230
0.000241
0.000248
0.000257
0.000233
0.000240
0.000487
0.001767
0.000227
0.000267
0.000286
0.000390
0.000369
0.000358
0.000356
0.000380
0.000393
0.000421
0.000234
0.000265
0.000273
0.000275
0.001395
0.000055
0.000442
0.000238
0.000285
0.000219
0.000233
0.000253
0.000236
0.000250
0.000245
0.000267
0.000246
0.000262
0.000252
0.000247
0.000610
0.001610
0.000233
0.000239
0.000232
0.000265
0.000247
0.000257
0.000376
0.000369
0.000314
0.000346
0.000227
0.000261
0.000277
0.000273
0.000185
0.000056
0.001203
0.000516
0.000351
0.000255
0.000244
0.000215
0.000236
0.000240
0.000486
0.000228
0.000234
0.000245
0.000372
0.000494
0.000399
0.000351
0.000245
0.000236
0.000336
0.000344
0.000289
0.000244
0.000273
0.000239
0.000267
0.000532
0.000647
0.000225
0.000246
0.000266
0.000176
0.000055
0.000210
0.000219
0.000245
0.000250
0.001432
0.000333
0.000222
0.000260
0.000238
0.000248
0.000259
0.000252
0.000239
0.000264
0.000266
0.000250
0.000521
0.000600
0.000279
0.001744
0.000264
0.000276
0.000311
0.000461
0.000487
0.000417
0.000239
0.000251
0.000256
0.000268
0.000201
0.000056
0.000210
0.000259
0.000230
0.000267
0.001315
0.000228
0.000248
0.000263
0.000239
0.000239
0.000235
0.000248
0.000281
0.000249
0.000244
0.000301
0.000445
0.000439
0.000323
0.000254
0.000268
0.000273
0.000251
0.000234
0.000291
0.000254
0.000245
0.000278
0.000265
0.000364
0.000647
0.000055
0.000226
0.000239
0.000238
0.000258
0.000263
0.000244
0.000233
0.000262
0.000288
0.000235
0.001441
0.000230
0.000226
0.000251
0.000244
0.000249
0.000263
0.000265
0.000263
0.000284
0.000253
0.000482
0.000450
0.000403
0.000228
0.000270
0.001766
0.000261
0.000245
0.000380
0.000415
0.000055
0.000221
0.000398
0.000452
0.000503
0.000522
0.000532
0.001501
0.000414
0.000519
0.000654
0.000553
0.000744
0.000499
0.000577
0.000584
0.001871
0.000371
0.000475
0.000397
0.000322
0.000219
0.000313
0.000253
0.000272
0.000264
0.000282
0.000287
0.000290
0.000258
0.000288
0.001370
0.000057
0.000230
0.000228
0.000226
0.000243
0.000262
0.000253
0.000241
0.000254
0.000233
0.000248
0.000243
0.000242
0.000254
0.000260
0.000273
0.000256
0.001819
0.000280
0.000247
0.000249
0.000254
0.000262
0.000261
0.000262
0.000420
0.000442
0.000316
0.000243
0.000260
0.000287
0.000204
0.000057
0.000206
0.001358
0.000323
0.000264
0.000258
0.000241
0.000245
0.000236
0.000235
0.000247
0.000219
0.000237
0.000255
0.000496
0.000365
0.000284
0.000261
0.000259
0.001924
0.000231
0.000238
0.000268
0.000254
0.000277
0.000269
0.000278
0.000271
0.000248
0.000273
0.000318
0.000202
0.000055
0.000187
0.000262
0.000234
0.001442
0.000218
0.000254
0.000238
0.000248
0.000243
0.000270
0.000243
0.000249
0.000244
0.000265
0.000257
0.000253
0.000262
0.000263
0.000274
0.000250
0.000268
0.001771
0.000282
0.001811
0.000206
0.000257
0.000258
0.000260
0.000272
0.000272
0.000199
0.000056
0.000201
0.000241
0.001344
0.000233
0.000263
0.000234
0.000259
0.000253
0.000242
0.000255
0.000245
0.000269
0.000240
0.000260
0.000260
0.000264
0.000259
0.000282
0.000292
0.000233
0.001910
0.000216
0.001839
0.000235
0.000237
0.000287
0.000230
0.000245
0.000253
0.000270
0.000212
0.000056
0.001435
0.000229
0.000232
0.000236
0.000239
0.000237
0.000372
0.000272
0.000244
0.000258
0.000252
0.000262
0.000267
0.000356
0.000354
0.000307
0.000252
0.000262
0.000252
0.000255
0.000271
0.000343
0.000228
0.000267
0.000249
0.000281
0.000270
0.000291
0.000685
0.000385
0.000186
0.000056
0.000220
0.000240
0.000269
0.000304
0.000368
0.000254
0.001665
0.000339
0.000278
0.000260
0.000256
0.000269
0.000269
0.000292
0.000276
0.000305
0.000341
0.000562
0.000393
0.000264
0.000295
0.000272
0.000270
0.000267
0.000315
0.000269
0.000273
0.000239
0.000249
0.000306
0.000418
0.000057
0.000236
0.000469
0.000268
0.000265
0.000246
0.000231
0.000230
0.000244
0.000259
0.000257
0.001536
0.000211
0.000219
0.000248
0.000254
0.000278
0.000274
0.000233
0.000287
0.000252
0.000274
0.000354
0.000556
0.000309
0.000267
0.000285
0.000269
0.000257
0.000236
0.000314
0.000170
0.000056
0.000199
0.000215
0.000273
0.000471
0.000369
0.000292
0.000206
0.000248
0.000267
0.000236
0.000238
0.000248
0.000259
0.000264
0.000240
0.000243
0.000430
0.001180
0.000242
0.000244
0.000276
0.000249
0.000362
0.000416
0.000248
0.000272
0.000637
0.000343
0.000383
0.000241
0.000166
0.000056
0.000206
0.000252
0.000259
0.000262
0.000250
0.000254
0.000334
0.000452
0.000377
0.000307
0.000361
0.000392
0.000389
0.000365
0.000251
0.000242
0.000229
0.000268
0.000449
0.000451
0.001237
0.000209
0.000277
0.000274
0.000237
0.000231
0.000266
0.000336
0.000415
0.000437
0.000248
0.000055
0.000190
0.000239
0.000248
0.000246
0.000246
0.000246
0.000238
0.000257
0.000321
0.000383
0.000351
0.000417
0.000247
0.000226
0.000249
0.000263
0.000244
0.000265
0.000263
0.000248
0.000450
0.000249
0.000372
0.000427
0.000312
0.000244
0.000268
0.000274
0.000249
0.000353
0.000170
0.000055
0.000299
0.000314
0.000291
0.000412
0.000470
0.000304
0.000266
0.000242
0.000244
0.000273
0.000259
0.000262
0.000237
0.000253
0.000244
0.000218
0.000269
0.000361
0.000468
0.000377
0.000234
0.000271
0.000243
0.000233
0.000271
0.000283
0.000262
0.000270
0.000270
0.000277
0.000291
0.000056
0.000336
0.000248
0.000240
0.000243
0.000249
0.000243
0.000246
0.000255
0.000264
0.000263
0.000248
0.000233
0.000270
0.000538
0.000420
0.000284
0.000240
0.000239
0.000253
0.000268
0.000256
0.000261
0.000262
0.000264
0.000274
0.000283
0.000495
0.000569
0.000391
0.000249
0.000163
0.000055
0.000370
0.000206
0.000224
0.000247
0.000253
0.000246
0.000239
0.000256
0.000256
0.000259
0.000218
0.000248
0.000275
0.000220
0.000240
0.000270
0.000250
0.000263
0.000279
0.000260
0.000258
0.000265
0.000261
0.000256
0.000270
0.000242
0.000261
0.000279
0.000260
0.000279
0.000195
0.000054
0.000186
0.000241
0.000243
0.000250
0.000233
0.000251
0.000262
0.000242
0.000257
0.000281
0.000225
0.000237
0.000261
0.000392
0.000255
0.000277
0.000262
0.000270
0.000251
0.000280
0.000273
0.000228
0.000259
0.000245
0.000272
0.000274
0.000243
0.000254
0.000275
0.000261
0.000202
0.000055
0.000216
0.000357
0.000370
0.000280
0.000292
0.000254
0.000261
0.000277
0.000203
0.000247
0.000253
0.000259
0.000252
0.000235
0.000260
0.000260
0.000264
0.000267
0.000244
0.000267
0.000273
0.000262
0.000278
0.000257
0.000270
0.000251
0.000257
0.000267
0.000272
0.000260
0.000195
0.000056
0.000193
0.000219
0.000266
0.000262
0.000495
0.000209
0.000203
0.000254
0.000255
0.000479
0.000488
0.000282
0.000232
0.000243
0.000270
0.000263
0.000243
0.000262
0.000260
0.000264
0.000272
0.000259
0.000260
0.000264
0.000565
0.000481
0.000260
0.000304
0.000262
0.000264
0.000187
0.000055
0.000213
0.000243
0.000228
0.000253
0.000301
0.000695
0.000294
0.000373
0.000209
0.000247
0.000249
0.000256
0.000250
0.000253
0.000255
0.000264
0.000262
0.000285
0.000603
0.000379
0.000306
0.000244
0.000249
0.000289
0.000277
0.000258
0.000263
0.000269
0.000248
0.000342
0.000373
0.000056
0.000263
0.000229
0.000239
0.000239
0.000255
0.000256
0.000228
0.000245
0.000248
0.000252
0.000245
0.000254
0.000245
0.000367
0.000603
0.000397
0.000230
0.000253
0.000260
0.000251
0.000264
0.000270
0.000506
0.000219
0.000254
0.000553
0.000486
0.000464
0.000243
0.000252
0.000182
0.000056
0.000200
0.000228
0.000246
0.000243
0.000258
0.000259
0.000283
0.000508
0.000543
0.000409
0.000216
0.000264
0.000278
0.000272
0.000257
0.000248
0.000250
0.000238
0.000270
0.000379
0.000322
0.000671
0.000364
0.000249
0.000369
0.000378
0.000470
0.000261
0.000254
0.000341
0.000459
0.000056
0.000259
0.000231
0.000432
0.000237
0.000222
0.000258
0.000259
0.000258
0.000230
0.000249
0.000271
0.000403
0.000315
0.000389
0.000220
0.000244
0.000266
0.000252
0.000261
0.000283
0.000268
0.000249
0.000252
0.000275
0.000329
0.000467
0.000499
0.000230
0.000250
0.000275
0.000197
0.000054
0.000221
0.000255
0.000224
0.000250
0.000251
0.000271
0.000337
0.000384
0.000469
0.000274
0.000375
0.000226
0.000238
0.000268
0.000255
0.000242
0.000252
0.000260
0.000318
0.000356
0.000536
0.000291
0.000478
0.000278
0.000387
0.000428
0.000377
0.000248
0.000244
0.000330
0.000344
0.000056
0.000201
0.000283
0.000220
0.000251
0.000263
0.000251
0.000246
0.000247
0.000256
0.000260
0.000238
0.000341
0.000469
0.000376
0.000376
0.000213
0.000268
0.000267
0.000264
0.000233
0.000253
0.000248
0.000269
0.000278
0.000273
0.000340
0.000473
0.000495
0.000242
0.000270
0.000185
0.000055
0.000211
0.000244
0.000262
0.000247
0.000259
0.000342
0.000499
0.000493
0.000341
0.000685
0.000264
0.000218
0.000233
0.000265
0.000243
0.000268
0.000281
0.000277
0.000480
0.000419
0.001498
0.000310
0.000261
0.000257
0.000294
0.000257
0.000413
0.000401
0.000342
0.000353
0.000156
0.000055
0.000210
0.000235
0.000239
0.000250
0.000239
0.000257
0.000276
0.000243
0.000278
0.000328
0.000311
0.000387
0.000271
0.000335
0.000396
0.000333
0.000242
0.000251
0.000267
0.000257
0.000249
0.000246
0.000282
0.000248
0.000320
0.000436
0.000426
0.000309
0.000235
0.000279
0.000181
0.000055
0.000227
0.000245
0.000256
0.000255
0.000244
0.000241
0.000470
0.000208
0.000231
0.000259
0.000241
0.000253
0.000258
0.000255
0.000247
0.000274
0.000261
0.000266
0.000276
0.000251
0.000270
0.000279
0.000292
0.000249
0.000258
0.000284
0.000266
0.000266
0.000268
0.000270
0.000167
0.000056
0.000227
0.000242
0.000287
0.000498
0.000317
0.000251
0.000239
0.000242
0.000260
0.000247
0.000250
0.000253
0.000266
0.000261
0.000238
0.000241
0.000250
0.000269
0.000261
0.000363
0.000386
0.000455
0.000219
0.000262
0.000271
0.000253
0.000259
0.000253
0.000272
0.000285
0.000199
0.000055
0.000395
0.000411
0.000410
0.000201
0.000249
0.000255
0.000414
0.000221
0.000227
0.000262
0.000252
0.000305
0.000347
0.000482
0.001819
0.000245
0.000253
0.000246
0.000277
0.000239
0.000436
0.000403
0.000589
0.000268
0.000227
0.000264
0.000275
0.000425
0.000276
0.000286
0.000161
0.000056
0.000235
0.000349
0.000359
0.000313
0.000499
0.000202
0.000237
0.000253
0.000250
0.000240
0.000256
0.000254
0.000257
0.000331
0.000454
0.000428
0.000217
0.000240
0.000256
0.000263
0.000263
0.000326
0.000221
0.000280
0.000281
0.000445
0.000572
0.000334
0.000477
0.000219
0.000206
0.000056
0.000204
0.000229
0.000262
0.000221
0.000259
0.000246
0.000268
0.000273
0.000441
0.000263
0.000450
0.000351
0.000215
0.000251
0.000270
0.000289
0.000302
0.000229
0.000276
0.000271
0.000235
0.000287
0.000519
0.000334
0.000313
0.000238
0.000266
0.000432
0.000416
0.000313
0.000172
0.000056
0.000211
0.000260
0.000305
0.000435
0.000382
0.000201
0.000237
0.000252
0.000265
0.000250
0.000267
0.000254
0.000225
0.000260
0.000261
0.000285
0.000401
0.000363
0.000304
0.000338
0.000490
0.000224
0.000286
0.000272
0.000304
0.000284
0.000252
0.000262
0.000525
0.000484
0.000184
0.000056
0.000186
0.000224
0.000251
0.000245
0.000241
0.000486
0.000219
0.000244
0.000270
0.000292
0.000550
0.000576
0.000197
0.000244
0.000246
0.000246
0.000260
0.000246
0.000259
0.000249
0.000262
0.000271
0.000339
0.000438
0.000370
0.000412
0.000289
0.000305
0.000322
0.000244
0.000178
0.000055
0.000188
0.000236
0.000279
0.000471
0.000318
0.000291
0.000280
0.000220
0.000233
0.000256
0.000260
0.000243
0.000253
0.000258
0.000251
0.000264
0.000251
0.000247
0.000251
0.000385
0.000485
0.000437
0.000225
0.000249
0.000272
0.000279
0.000257
0.000254
0.000272
0.000259
0.000199
0.000055
0.000240
0.000448
0.000515
0.000176
0.000196
0.000256
0.000332
0.000453
0.000288
0.000211
0.000232
0.000277
0.000262
0.000444
0.000462
0.000267
0.000237
0.000225
0.000250
0.000264
0.000272
0.000268
0.000262
0.000268
0.000265
0.000333
0.000367
0.000443
0.000276
0.000249
0.000185
0.000055
0.000205
0.000241
0.000246
0.000255
0.000250
0.000264
0.000229
0.000257
0.000246
0.000250
0.000266
0.000238
0.000266
0.001462
0.000221
0.000250
0.000263
0.000246
0.000274
0.000276
0.000265
0.000238
0.000277
0.000273
0.000243
0.000269
0.000272
0.000273
0.000255
0.000271
0.000195
0.000055
0.000203
0.000230
0.000257
0.000256
0.000230
0.000245
0.000259
0.000264
0.000222
0.000249
0.000250
0.000263
0.000256
0.000254
0.000252
0.000262
0.000247
0.000256
0.000276
0.000255
0.000254
0.000264
0.000247
0.000251
0.001297
0.000284
0.000646
0.000280
0.000405
0.000249
0.000181
0.000055
0.000215
0.000240
0.000244
0.000252
0.000410
0.000252
0.000224
0.000245
0.000256
0.000396
0.000405
0.000346
0.000239
0.000241
0.000253
0.000255
0.000256
0.000271
0.000245
0.000256
0.000257
0.000259
0.000261
0.000458
0.000497
0.000432
0.000222
0.000264
0.001379
0.000226
0.000185
0.000055
0.000223
0.000411
0.000322
0.000273
0.000213
0.000236
0.000228
0.000267
0.000245
0.000258
0.000250
0.000255
0.000269
0.000330
0.000494
0.000384
0.000345
0.000224
0.000239
0.000259
0.000264
0.000270
0.000262
0.000267
0.000268
0.000264
0.000282
0.000599
0.000423
0.000332
0.000146
0.000055
0.000201
0.000236
0.001268
0.000434
0.000280
0.000452
0.000384
0.000494
0.000277
0.000338
0.000229
0.000226
0.000254
0.000254
0.000247
0.000266
0.000379
0.000473
0.000379
0.000371
0.000255
0.000250
0.000253
0.000521
0.000227
0.000260
0.000257
0.000285
0.000269
0.000620
0.000253
0.000056
0.000388
0.000307
0.000242
0.000217
0.001564
0.000503
0.000261
0.000250
0.000242
0.000258
0.000219
0.000238
0.000249
0.000271
0.000249
0.000262
0.000232
0.000259
0.000421
0.000357
0.000488
0.000238
0.000255
0.000253
0.000259
0.000276
0.000273
0.000232
0.000267
0.000276
0.000208
0.000056
0.000486
0.000221
0.000228
0.000222
0.000253
0.000244
0.000253
0.000245
0.000225
0.000234
0.001397
0.000468
0.000304
0.000231
0.000234
0.000257
0.000268
0.000262
0.000233
0.000282
0.000264
0.000255
0.000262
0.000412
0.000399
0.000484
0.000231
0.000262
0.000273
0.000280
0.000178
0.000055
0.000205
0.000414
0.000223
0.000236
0.000338
0.000457
0.000366
0.000313
0.000478
0.000194
0.000232
0.000254
0.000267
0.000261
0.000264
0.001402
0.000375
0.000278
0.000237
0.000275
0.000286
0.000240
0.000254
0.000259
0.000274
0.000248
0.000498
0.000421
0.000275
0.000287
0.000144
0.000054
0.000206
0.000225
0.000260
0.000235
0.000228
0.000265
0.000234
0.000248
0.000347
0.000352
0.000418
0.000270
0.000254
0.000237
0.000237
0.000289
0.000264
0.000262
0.000265
0.000231
0.000250
0.000301
0.001280
0.000263
0.000242
0.000247
0.000256
0.000266
0.000260
0.000260
0.000188
0.000055
0.000203
0.000370
0.000345
0.000362
0.000242
0.000236
0.000262
0.000265
0.000253
0.000245
0.000259
0.000269
0.000242
0.000251
0.000262
0.000262
0.000283
0.000254
0.000272
0.000239
0.000250
0.000270
0.000269
0.000287
0.000283
0.000266
0.000268
0.000257
0.000261
0.000449
0.001367
0.000056
0.000218
0.000234
0.000241
0.000241
0.000255
0.000256
0.000249
0.000222
0.000248
0.000250
0.000292
0.000236
0.000255
0.000243
0.000251
0.000245
0.001737
0.000249
0.000241
0.000258
0.000264
0.000239
0.000272
0.000266
0.000268
0.000258
0.000270
0.000277
0.000269
0.000259
0.000214
0.000055
0.000354
0.000308
0.001317
0.000220
0.000230
0.000247
0.000255
0.000254
0.000256
0.000258
0.000230
0.000339
0.000405
0.000438
0.000290
0.000224
0.000237
0.000260
0.000254
0.000271
0.000239
0.000261
0.000275
0.000287
0.000256
0.000401
0.000389
0.000352
0.000301
0.000237
0.000194
0.000055
0.000200
0.000254
0.000241
0.000249
0.000252
0.000221
0.000236
0.000321
0.000381
0.001318
0.000269
0.000210
0.000237
0.000267
0.000263
0.000266
0.000259
0.000259
0.000293
0.000478
0.000358
0.000240
0.000237
0.000244
0.000280
0.000277
0.000269
0.000294
0.000268
0.000276
0.000188
0.000055
0.000242
0.000414
0.000420
0.000195
0.000239
0.000234
0.000246
0.000282
0.000261
0.000262
0.000215
0.000250
0.000464
0.000545
0.000425
0.001455
0.000248
0.000270
0.000325
0.000351
0.000488
0.000415
0.000546
0.000312
0.000233
0.000259
0.000272
0.000275
0.000259
0.000274
0.000193
0.000056
0.000196
0.000264
0.000463
0.000499
0.000313
0.000239
0.000250
0.000222
0.000254
0.000257
0.000245
0.000272
0.000264
0.000238
0.000265
0.000299
0.000364
0.000412
0.000387
0.001326
0.000256
0.000253
0.000261
0.000257
0.000459
0.000470
0.000349
0.000272
0.000269
0.000268
0.000187
0.000055
0.000205
0.000237
0.000246
0.000244
0.000252
0.000359
0.000368
0.000376
0.000381
0.000218
0.000254
0.000244
0.000266
0.000261
0.000260
0.000266
0.000258
0.000259
0.000271
0.000367
0.000368
0.000447
0.000311
0.001351
0.000401
0.000239
0.000279
0.000391
0.000464
0.000352
0.000318
0.000055
0.000185
0.000241
0.000247
0.000245
0.000250
0.000254
0.001681
0.000252
0.000202
0.000246
0.000254
0.000263
0.000245
0.000328
0.000328
0.000285
0.000275
0.000277
0.000525
0.000404
0.000313
0.000278
0.000235
0.000236
0.001512
0.000357
0.000389
0.000469
0.000336
0.000293
0.000149
0.000056
0.000202
0.000250
0.000254
0.000260
0.000240
0.000257
0.001712
0.000237
0.000237
0.000261
0.000343
0.000405
0.001445
0.000351
0.000394
0.000237
0.000260
0.000232
0.000273
0.000269
0.001603
0.000517
0.000374
0.000297
0.000240
0.000246
0.000267
0.000281
0.000242
0.000254
0.000194
0.000056
0.000183
0.000244
0.000269
0.000244
0.000267
0.000276
0.000279
0.000255
0.000251
0.000252
0.000253
0.000247
0.000264
0.000273
0.000253
0.001497
0.000281
0.000221
0.000266
0.000282
0.000273
0.000249
0.000442
0.001268
0.000276
0.000233
0.000270
0.000249
0.000400
0.000243
0.000206
0.000055
0.000216
0.000248
0.000233
0.000237
0.000242
0.000225
0.000230
0.001700
0.000260
0.000220
0.000244
0.000375
0.000231
0.000221
0.000254
0.001399
0.000213
0.000268
0.000267
0.000248
0.000256
0.000353
0.000277
0.001326
0.000270
0.000251
0.000245
0.000261
0.001398
0.000276
0.000191
0.000055
0.000195
0.000358
0.000209
0.000246
0.000255
0.000242
0.000263
0.000260
0.000270
0.000251
0.000260
0.000265
0.000250
0.000246
0.000310
0.001506
0.000234
0.000274
0.000259
0.000239
0.000286
0.000262
0.000250
0.001519
0.000345
0.000233
0.000259
0.001280
0.000281
0.000223
0.000198
0.000055
0.000205
0.000381
0.000364
0.000208
0.000224
0.000243
0.000261
0.000260
0.000263
0.000270
0.000239
0.000251
0.000261
0.000247
0.000439
0.001229
0.000229
0.000249
0.000265
0.000281
0.000217
0.000253
0.000242
0.000369
0.001240
0.000273
0.000234
0.000272
0.001329
0.000361
0.000194
0.000057
0.000344
0.000207
0.000227
0.000234
0.000235
0.000252
0.000248
0.000243
0.000277
0.000254
0.000244
0.000246
0.000263
0.000346
0.000409
0.001459
0.000196
0.000265
0.000294
0.000516
0.000291
0.000362
0.001374
0.000291
0.000245
0.000262
0.000253
0.001315
0.000271
0.000460
0.000425
0.000055
0.000227
0.000250
0.000253
0.000259
0.000253
0.000246
0.000279
0.000245
0.000266
0.000263
0.000312
0.000467
0.001344
0.000250
0.000259
0.000257
0.000282
0.000218
0.000238
0.000240
0.000345
0.001242
0.000256
0.000245
0.000246
0.000255
0.001450
0.000487
0.000495
0.000214
0.000180
0.000056
0.000196
0.000224
0.000251
0.000237
0.000252
0.000264
0.000238
0.000258
0.000427
0.000501
0.000271
0.001489
0.000198
0.000244
0.000266
0.000255
0.000265
0.000284
0.001698
0.000254
0.000396
0.000338
0.001260
0.000393
0.000301
0.000302
0.000260
0.000258
0.000270
0.000262
0.000196
0.000055
0.000195
0.000244
0.000328
0.000249
0.000317
0.000531
0.000295
0.000288
0.001476
0.000239
0.000423
0.000212
0.000230
0.000323
0.000377
0.001312
0.000271
0.000231
0.000248
0.000271
0.001520
0.000385
0.000266
0.000277
0.000276
0.000232
0.000520
0.000310
0.000222
0.000234
0.000259
0.000054
0.000240
0.000359
0.000356
0.000259
0.000214
0.001527
0.000210
0.000252
0.000263
0.000268
0.000270
0.000240
0.000293
0.001500
0.000253
0.000234
0.000431
0.001190
0.000314
0.000473
0.000396
0.000234
0.000242
0.000250
0.000280
0.000237
0.000465
0.000232
0.000253
0.000282
0.000193
0.000056
0.000222
0.000237
0.000396
0.000366
0.001267
0.000270
0.000314
0.000233
0.000243
0.000245
0.000252
0.000281
0.001529
0.000252
0.000246
0.000239
0.001391
0.000290
0.000399
0.000396
0.000441
0.000221
0.000241
0.000255
0.000267
0.000283
0.000268
0.000259
0.000260
0.000258
0.000190
0.000056
0.000285
0.000343
0.001416
0.000196
0.000285
0.000272
0.000241
0.000246
0.000265
0.000367
0.001416
0.000209
0.000262
0.000264
0.000248
0.001270
0.000713
0.000301
0.000301
0.000411
0.000302
0.000252
0.000255
0.000258
0.000267
0.000289
0.000272
0.000311
0.000525
0.000356
0.001359
0.000057
0.000211
0.000236
0.000244
0.000230
0.000250
0.000423
0.000490
0.001286
0.000287
0.000251
0.000252
0.001381
0.000378
0.000382
0.000210
0.000411
0.000248
0.000254
0.000255
0.000274
0.000247
0.000274
0.000281
0.000258
0.000242
0.000288
0.000425
0.000517
0.001489
0.000224
0.000182
0.000057
0.000223
0.000242
0.000341
0.000565
0.001223
0.000278
0.000255
0.000260
0.000242
0.000252
0.000251
0.000374
0.000257
0.000485
0.000349
0.000232
0.000260
0.000266
0.000242
0.000280
0.000252
0.000267
0.000260
0.000267
0.000257
0.000472
0.000377
0.000385
0.000314
0.001395
0.000170
0.000057
0.000192
0.000245
0.000345
0.000403
0.000320
0.000310
0.000315
0.000336
0.000262
0.000263
0.000252
0.000267
0.000254
0.000309
0.000231
0.000319
0.000541
0.000313
0.000285
0.000387
0.000275
0.000408
0.000220
0.000249
0.000262
0.000263
0.000249
0.000300
0.000333
0.000563
0.000247
0.000056
0.000200
0.001399
0.000238
0.000339
0.000410
0.000445
0.000349
0.000311
0.000227
0.000229
0.000263
0.000251
0.000260
0.000271
0.000259
0.000257
0.000266
0.001238
0.000374
0.000271
0.000243
0.000272
0.000267
0.000283
0.000271
0.000249
0.000278
0.000248
0.000380
0.000412
0.000355
0.000056
0.000221
0.000238
0.000219
0.001514
0.000310
0.000237
0.000218
0.000250
0.000236
0.000239
0.000261
0.000283
0.000238
0.000253
0.000264
0.000255
0.000244
0.000275
0.000251
0.000263
0.001435
0.000242
0.000241
0.000271
0.000255
0.000246
0.000265
0.000261
0.000279
0.000489
0.000344
0.000056
0.000202
0.000231
0.000397
0.000279
0.000252
0.000247
0.001584
0.000308
0.000297
0.000207
0.000265
0.000307
0.000333
0.000235
0.000229
0.000246
0.000249
0.000266
0.000256
0.000257
0.000552
0.000436
0.001127
0.000282
0.000234
0.000247
0.000266
0.000262
0.000272
0.000258
0.000389
0.000055
0.000200
0.000340
0.000206
0.000237
0.000249
0.000238
0.000248
0.000228
0.000292
0.001590
0.000386
0.000294
0.000228
0.000249
0.000266
0.000241
0.000259
0.000278
0.000260
0.000311
0.000305
0.000482
0.000458
0.001371
0.000225
0.000268
0.000269
0.000256
0.000270
0.000281
0.000464
0.000057
0.000245
0.000230
0.000247
0.000232
0.000216
0.000247
0.000258
0.000256
0.000268
0.001620
0.000309
0.000253
0.000262
0.000255
0.000459
0.000274
0.000518
0.000379
0.000302
0.000310
0.000453
0.000447
0.001283
0.000272
0.000243
0.000242
0.001688
0.000455
0.000635
0.000318
0.000138
0.000056
0.000207
0.000215
0.000238
0.000233
0.000260
0.000240
0.000244
0.000515
0.000502
0.000405
0.000297
0.000210
0.000238
0.000260
0.000265
0.000271
0.000245
0.000255
0.000248
0.000279
0.000310
0.000414
0.001307
0.000225
0.000266
0.000261
0.001899
0.000388
0.000377
0.000350
0.000158
0.000055
0.000206
0.000226
0.000247
0.001573
0.000431
0.000203
0.000232
0.000258
0.000255
0.000294
0.000382
0.000361
0.000364
0.000273
0.000259
0.000548
0.000397
0.001199
0.000269
0.000250
0.000238
0.000263
0.000280
0.000405
0.000569
0.000509
0.000249
0.000259
0.000268
0.000281
0.000187
0.000056
0.000192
0.000231
0.000245
0.001555
0.000234
0.000236
0.000243
0.000254
0.000234
0.000257
0.000258
0.000266
0.000270
0.000272
0.000233
0.000413
0.000413
0.000344
0.001395
0.000254
0.000242
0.000260
0.000261
0.000267
0.000376
0.000478
0.000454
0.000271
0.000285
0.000229
0.000440
0.000055
0.000218
0.000257
0.000235
0.001526
0.000323
0.000217
0.000267
0.000239
0.000255
0.000258
0.000254
0.000262
0.000255
0.000247
0.000472
0.000456
0.001379
0.000745
0.000270
0.000347
0.000244
0.000217
0.000249
0.000274
0.001685
0.000808
0.000227
0.000282
0.000254
0.000282
0.000191
0.000056
0.000205
0.000239
0.000250
0.000248
0.000258
0.000243
0.000238
0.000256
0.000238
0.000229
0.000300
0.000306
0.000222
0.000257
0.000254
0.000250
0.000271
0.001602
0.000751
0.000366
0.000283
0.000225
0.000242
0.000279
0.000276
0.000255
0.000271
0.000251
0.001391
0.000402
0.000315
0.000056
0.000194
0.000227
0.000252
0.000253
0.000262
0.000225
0.000259
0.000252
0.000248
0.000265
0.000312
0.000393
0.000437
0.000338
0.000200
0.000250
0.000259
0.001402
0.000682
0.000486
0.000326
0.000278
0.000221
0.000255
0.000272
0.000248
0.000265
0.000269
0.001491
0.000395
0.000216
0.000056
0.000199
0.000228
0.000248
0.000248
0.000248
0.000246
0.000237
0.000253
0.000271
0.000256
0.000389
0.000348
0.000358
0.000210
0.000240
0.000244
0.000263
0.000253
0.001596
0.000598
0.000480
0.000317
0.000227
0.000259
0.000252
0.000263
0.000264
0.000289
0.000262
0.001366
0.000324
0.000056
0.000198
0.000213
0.000240
0.000252
0.000258
0.000244
0.000269
0.000298
0.000360
0.000443
0.000339
0.000398
0.000417
0.000169
0.000250
0.000246
0.000271
0.000261
0.000268
0.001899
0.000359
0.000251
0.000423
0.000252
0.000242
0.000264
0.000271
0.000258
0.000274
0.000273
0.000533
0.000056
0.000242
0.000277
0.000224
0.000245
0.000250
0.000253
0.000225
0.000238
0.000272
0.000247
0.000249
0.000236
0.000349
0.000336
0.000517
0.000445
0.000216
0.000261
0.000256
0.000250
0.000257
0.000293
0.001469
0.001060
0.000228
0.000231
0.000266
0.000269
0.000271
0.000256
0.000200
0.000056
0.000196
0.001346
0.000294
0.000209
0.000230
0.000254
0.000256
0.000238
0.000237
0.000249
0.000260
0.000262
0.000243
0.000402
0.000369
0.000396
0.000324
0.000238
0.000266
0.000264
0.000265
0.000239
0.000256
0.000266
0.001326
0.000681
0.000317
0.000381
0.000392
0.000387
0.000294
0.000056
0.000185
0.000241
0.000356
0.001328
0.000201
0.000255
0.000235
0.000254
0.000254
0.000257
0.000245
0.000249
0.000262
0.000351
0.000576
0.000302
0.000225
0.000353
0.000257
0.000211
0.000252
0.000276
0.000230
0.000277
0.000277
0.001534
0.000730
0.000320
0.000266
0.000266
0.000186
0.000056
0.000200
0.000241
0.000481
0.000340
0.001296
0.000246
0.000217
0.000234
0.000240
0.000248
0.000249
0.000259
0.000224
0.000243
0.000254
0.000257
0.000267
0.000233
0.000252
0.000261
0.000263
0.000270
0.000318
0.000327
0.000207
0.000269
0.000268
0.001458
0.000261
0.000239
0.000173
0.000055
0.000197
0.000228
0.000249
0.000277
0.000352
0.000379
0.000392
0.000270
0.001571
0.000252
0.000248
0.000655
0.000243
0.000205
0.000429
0.000244
0.000232
0.000259
0.000276
0.000266
0.000282
0.000266
0.000254
0.000297
0.000256
0.000412
0.000360
0.000339
0.001587
0.000212
0.000191
0.000055
0.000202
0.000241
0.000250
0.000245
0.000238
0.000251
0.000263
0.000324
0.000397
0.002043
0.000231
0.000235
0.000254
0.000258
0.000260
0.000258
0.000280
0.000246
0.000257
0.000439
0.000383
0.000443
0.001450
0.000255
0.000523
0.000239
0.001764
0.000230
0.000262
0.001555
0.000128
0.000057
0.000383
0.000387
0.000435
0.000241
0.000261
0.000225
0.000255
0.000270
0.000264
0.000223
0.000257
0.000338
0.000431
0.000335
0.000433
0.000240
0.000227
0.001568
0.000224
0.000572
0.001895
0.000297
0.000230
0.001577
0.001991
0.000734
0.000281
0.000250
0.000355
0.000484
0.000285
0.000056
0.000187
0.000242
0.000247
0.000245
0.001416
0.002568
0.000252
0.000191
0.000243
0.001592
0.001979
0.000202
0.000242
0.000430
0.000338
0.000441
0.000287
0.000474
0.000211
0.000247
0.000246
0.000252
0.000274
0.001600
0.001209
0.001429
0.000270
0.000303
0.000248
0.000335
0.000328
0.000056
0.000231
0.000218
0.000243
0.000239
0.000223
0.000250
0.000254
0.000253
0.000251
0.000247
0.000238
0.000332
0.000589
0.000282
0.000330
0.000221
0.000251
0.000281
0.000259
0.000261
0.000259
0.000260
0.001498
0.000500
0.002110
0.000225
0.000270
0.000306
0.000473
0.000385
0.000197
0.000056
0.000196
0.000495
0.000339
0.000316
0.000198
0.000224
0.000254
0.000252
0.000234
0.000256
0.000234
0.000263
0.000261
0.001606
0.001358
0.001235
0.000269
0.000243
0.000236
0.000272
0.000282
0.000274
0.000250
0.000253
0.002208
0.000252
0.000239
0.000301
0.000323
0.000308
0.000216
0.000056
0.000229
0.000334
0.000556
0.000332
0.000233
0.000227
0.000246
0.000271
0.001900
0.001425
0.000216
0.000334
0.000385
0.000417
0.000260
0.000218
0.000253
0.000267
0.000263
0.000282
0.000242
0.000264
0.000474
0.000231
0.000274
0.000263
0.000255
0.000275
0.000283
0.000245
0.000207
0.000055
0.000200
0.000247
0.000249
0.000245
0.000250
0.000272
0.001547
0.001421
0.001332
0.000231
0.000227
0.000243
0.000265
0.000260
0.000250
0.000250
0.000245
0.002116
0.000259
0.000210
0.000278
0.000260
0.000254
0.000268
0.000269
0.000275
0.000251
0.000252
0.000277
0.000260
0.000171
0.000055
0.000197
0.002692
0.001395
0.000213
0.000302
0.000301
0.000227
0.000268
0.000255
0.000240
0.000258
0.000243
0.000244
0.000239
0.000268
0.000250
0.000274
0.000263
0.000253
0.000276
0.000259
0.000288
0.000271
0.000269
0.000240
0.000250
0.000263
0.000290
0.000242
0.000266
0.000375
0.000055
0.001551
0.000256
0.001242
0.000223
0.000225
0.000237
0.000263
0.000252
0.000245
0.000267
0.000409
0.000357
0.000332
0.000208
0.000251
0.002166
0.000234
0.000231
0.000279
0.000508
0.000323
0.000371
0.000202
0.000254
0.000274
0.000246
0.000259
0.000279
0.000271
0.001605
0.001270
0.000055
0.000186
0.000230
0.000275
0.000442
0.000320
0.000305
0.000208
0.000230
0.000271
0.000242
0.000261
0.000250
0.000226
0.000255
0.000263
0.000236
0.000308
0.000626
0.000374
0.000252
0.000215
0.000273
0.000284
0.000253
0.000248
0.000244
0.000270
0.000274
0.000244
0.000337
0.000366
0.000056
0.001120
0.000201
0.000382
0.000430
0.000290
0.000231
0.000228
0.000242
0.000253
0.002291
0.000371
0.000393
0.000210
0.000380
0.000278
0.000264
0.000262
0.000249
0.000270
0.000224
0.000260
0.000287
0.000573
0.000464
0.001881
0.001365
0.000508
0.000495
0.000233
0.000274
0.000197
0.000057
0.000298
0.000269
0.000241
0.000252
0.000237
0.000236
0.000249
0.000259
0.000257
0.000252
0.000255
0.000218
0.000244
0.000272
0.000394
0.000479
0.001856
0.001319
0.000451
0.000438
0.000457
0.000244
0.000239
0.000260
0.002129
0.000565
0.000392
0.000210
0.000275
0.000285
0.000193
0.000056
0.000202
0.000244
0.000255
0.000242
0.000243
0.000291
0.000471
0.000273
0.000329
0.000241
0.000248
0.000249
0.000265
0.002116
0.000333
0.000421
0.000211
0.000247
0.000268
0.000263
0.000251
0.002484
0.000308
0.000223
0.000251
0.000261
0.000250
0.000293
0.000267
0.000278
0.000194
0.000056
0.000194
0.000306
0.000581
0.000381
0.000263
0.000219
0.000221
0.000257
0.000263
0.000252
0.001987
0.000380
0.000257
0.000269
0.000231
0.000271
0.000271
0.000239
0.002215
0.000452
0.000211
0.000266
0.000273
0.000253
0.000259
0.000255
0.000284
0.000246
0.000268
0.000259
0.000181
0.000055
0.000209
0.000237
0.000248
0.000224
0.000247
0.000258
0.000238
0.000243
0.000233
0.002191
0.000215
0.000298
0.000200
0.000425
0.000242
0.000237
0.000281
0.000292
0.000236
0.000265
0.001975
0.000273
0.000343
0.000366
0.000438
0.000401
0.000298
0.000250
0.000250
0.000259
0.000194
0.000055
0.000193
0.000229
0.000245
0.000245
0.000252
0.000339
0.000207
0.002306
0.000241
0.000233
0.000263
0.000257
0.000232
0.000257
0.000308
0.002121
0.000597
0.000206
0.000265
0.000238
0.000260
0.000259
0.000290
0.000266
0.000258
0.000256
0.000294
0.000243
0.000267
0.000259
0.000199
0.000055
0.001807
0.001449
0.000187
0.000224
0.000245
0.000255
0.000251
0.000283
0.000389
0.000371
0.002155
0.000259
0.000239
0.000256
0.000260
0.000531
0.000408
0.000300
0.000216
0.000246
0.000247
0.000274
0.000262
0.000227
0.000256
0.000261
0.000277
0.000259
0.000299
0.000679
0.000341
0.000056
0.000194
0.000253
0.000254
0.000244
0.000273
0.000241
0.000256
0.000241
0.001470
0.002137
0.000584
0.000284
0.000401
0.000679
0.000351
0.000239
0.000254
0.000247
0.000270
0.000253
0.000268
0.000234
0.000251
0.001848
0.000321
0.001394
0.000280
0.000270
0.000290
0.000315
0.000391
0.000055
0.001932
0.000222
0.000224
0.000230
0.000294
0.000362
0.000500
0.000253
0.000289
0.000222
0.000227
0.000258
0.000259
0.000258
0.000282
0.000241
0.000247
0.000270
0.001846
0.000255
0.000213
0.000256
0.000272
0.000283
0.000269
0.000253
0.001471
0.000336
0.000250
0.000253
0.000167
0.000055
0.000192
0.000225
0.000244
0.000240
0.000254
0.000239
0.000284
0.000392
0.000311
0.000418
0.000203
0.000241
0.000266
0.000333
0.000428
0.000318
0.000216
0.000241
0.000262
0.000427
0.000355
0.000484
0.000255
0.000281
0.000240
0.000256
0.000259
0.000277
0.000258
0.000268
0.000202
0.000055
0.001454
0.000452
0.000191
0.001939
0.000297
0.000450
0.000391
0.000311
0.000220
0.000253
0.000268
0.000244
0.000246
0.000252
0.000257
0.000261
0.000449
0.000336
0.000402
0.000318
0.000366
0.000226
0.000277
0.000248
0.000272
0.000276
0.000255
0.000267
0.000386
0.000433
0.001386
0.000055
0.000212
0.000212
0.002074
0.000281
0.000334
0.000255
0.000258
0.000255
0.000269
0.000249
0.000213
0.000251
0.000254
0.000264
0.000253
0.000370
0.000712
0.001753
0.000227
0.000248
0.000260
0.000260
0.000419
0.000382
0.001601
0.000288
0.000350
0.001927
0.000273
0.000239
0.000195
0.000056
0.000207
0.000236
0.000249
0.000228
0.000237
0.000242
0.000251
0.000288
0.000323
0.000284
0.000372
0.000357
0.000341
0.000299
0.000234
0.000270
0.000279
0.000218
0.000269
0.000252
0.000304
0.000284
0.000271
0.000265
0.000261
0.001530
0.000277
0.000392
0.002066
0.000226
0.000175
0.000055
0.000202
0.000237
0.000237
0.000250
0.000480
0.000209
0.000254
0.000325
0.000369
0.000323
0.000302
0.000211
0.000261
0.000267
0.000269
0.000329
0.000397
0.000462
0.000257
0.000392
0.000536
0.000379
0.001644
0.000237
0.000243
0.001992
0.000317
0.000267
0.000228
0.000293
0.000186
0.000055
0.000185
0.000243
0.000228
0.000239
0.000250
0.000268
0.000254
0.000272
0.000254
0.000248
0.001816
0.000331
0.000380
0.000313
0.000432
0.000363
0.000334
0.001519
0.000249
0.000264
0.002151
0.000527
0.000264
0.000233
0.000263
0.000278
0.000494
0.000229
0.000250
0.000284
0.000192
0.000054
0.000315
0.000299
0.000442
0.000260
0.000198
0.000244
0.000262
0.000249
0.000274
0.000287
0.000222
0.000253
0.000258
0.000270
0.000344
0.001506
0.000322
0.000212
0.000281
0.002008
0.000261
0.000280
0.000255
0.000264
0.000262
0.000260
0.000276
0.000258
0.000249
0.000271
0.000206
0.000055
0.000255
0.000404
0.002037
0.000254
0.000255
0.000218
0.000246
0.000299
0.000482
0.000395
0.001302
0.000386
0.002059
0.000368
0.000207
0.000232
0.000274
0.000278
0.000255
0.000253
0.000274
0.000293
0.000257
0.000312
0.000517
0.000371
0.000358
0.002196
0.000492
0.000543
0.000324
0.000055
0.000211
0.000222
0.000240
0.001971
0.000231
0.000218
0.000248
0.000238
0.000248
0.000256
0.000238
0.000258
0.000245
0.000281
0.000473
0.001446
0.000258
0.000230
0.000267
0.000264
0.000223
0.000260
0.000260
0.000273
0.000328
0.000444
0.000485
0.000228
0.001606
0.000281
0.000161
0.000055
0.000192
0.000228
0.000248
0.000234
0.000251
0.000254
0.000250
0.000247
0.000257
0.000334
0.000403
0.001419
0.000246
0.000216
0.000242
0.000264
0.000270
0.000241
0.000494
0.000281
0.000455
0.000402
0.000213
0.001592
0.000224
0.000251
0.000293
0.000282
0.000263
0.000266
0.000189
0.000055
0.000209
0.000220
0.000265
0.000274
0.000242
0.000245
0.000240
0.000243
0.000264
0.000234
0.000249
0.000254
0.000261
0.001481
0.000368
0.000203
0.000253
0.000258
0.000292
0.000306
0.000382
0.000265
0.000241
0.000257
0.000267
0.000260
0.000261
0.001409
0.000314
0.000205
0.000165
0.000055
0.000198
0.000228
0.000259
0.000265
0.000252
0.000239
0.000246
0.000259
0.000218
0.000264
0.000246
0.000259
0.000229
0.000327
0.000347
0.000343
0.000283
0.000233
0.001639
0.000247
0.000236
0.000258
0.000271
0.000307
0.000393
0.000351
0.000458
0.000274
0.000225
0.001614
0.000172
0.000057
0.000312
0.000347
0.000358
0.000312
0.000232
0.000214
0.000245
0.000273
0.000250
0.000236
0.000254
0.000237
0.001461
0.000301
0.000308
0.000214
0.000247
0.000259
0.000263
0.000267
0.000248
0.000240
0.000261
0.000275
0.000264
0.000337
0.000469
0.000380
0.000261
0.000250
0.000189
0.000054
0.000219
0.000277
0.000339
0.000389
0.000381
0.000278
0.000249
0.000250
0.000250
0.000258
0.000243
0.000218
0.000259
0.000242
0.001262
0.000294
0.000244
0.000247
0.000267
0.000270
0.000236
0.000262
0.000253
0.000262
0.000258
0.000256
0.000290
0.000671
0.000494
0.000228
0.000183
0.000056
0.000200
0.001568
0.000207
0.000344
0.000534
0.000332
0.000212
0.000250
0.000270
0.000248
0.000242
0.000258
0.000271
0.000270
0.000262
0.001527
0.000252
0.000284
0.000266
0.000267
0.000244
0.000257
0.000261
0.000263
0.000268
0.000249
0.000466
0.000342
0.000363
0.000232
0.000190
0.000055
0.000201
0.000248
0.000231
0.001622
0.000422
0.000351
0.000221
0.000234
0.000255
0.000269
0.000283
0.000258
0.000240
0.000268
0.000235
0.000261
0.000403
0.001323
0.000244
0.000237
0.001501
0.000293
0.000579
0.000400
0.000352
0.000223
0.000273
0.000473
0.000223
0.000259
0.000190
0.000056
0.000303
0.000201
0.000238
0.000250
0.000248
0.000259
0.000238
0.000257
0.000257
0.000239
0.000255
0.000279
0.000307
0.000449
0.001705
0.001491
0.000359
0.000517
0.000374
0.000195
0.000240
0.000259
0.000255
0.000259
0.000250
0.000264
0.000272
0.000258
0.001520
0.000334
0.000163
0.000055
0.000212
0.000357
0.000359
0.000327
0.000235
0.000227
0.000239
0.000284
0.000501
0.000359
0.002180
0.000321
0.000696
0.000494
0.000476
0.000267
0.000333
0.000402
0.000319
0.000280
0.000386
0.000239
0.001561
0.000532
0.000209
0.000275
0.000244
0.000251
0.000263
0.000266
0.000200
0.000055
0.000202
0.000252
0.000256
0.000250
0.000246
0.001655
0.000885
0.000997
0.000212
0.000228
0.000263
0.000265
0.000247
0.000259
0.000254
0.000249
0.000258
0.000263
0.000269
0.000276
0.001432
0.000316
0.000262
0.000218
0.000234
0.000257
0.000261
0.000285
0.000261
0.000285
0.001902
0.000057
0.000179
0.000243
0.001543
0.000881
0.000386
0.000344
0.000223
0.000226
0.000252
0.000256
0.000244
0.000250
0.000246
0.001994
0.000471
0.000212
0.000244
0.000257
0.000264
0.000258
0.000190
