0.000371
0.019176
0.002150
0.000298
0.000247
0.000305
0.000320
0.000229
0.000325
0.000294
0.000245
0.000329
0.000532
0.000503
0.000369
0.000333
0.000280
0.000372
0.000322
0.000421
0.000315
0.001894
0.000728
0.000264
0.000255
0.000288
0.000320
0.000315
0.000420
0.000461
0.000497
0.000280
0.000058
0.000210
0.000270
0.000269
0.000304
0.000234
0.000253
0.000279
0.000290
0.000263
0.000320
0.000375
0.000454
0.000297
0.000254
0.000375
0.000352
0.000365
0.000252
0.000240
0.001770
0.000257
0.000252
0.000448
0.000263
0.000259
0.000277
0.000291
0.000308
0.000259
0.000359
0.000411
0.000058
0.000207
0.000242
0.000260
0.000262
0.000254
0.000247
0.000264
0.000252
0.000286
0.001673
0.000246
0.000211
0.000273
0.000269
0.000274
0.000254
0.000264
0.000255
0.000353
0.001805
0.000229
0.000279
0.000449
0.000438
0.000385
0.000235
0.000357
0.000418
0.000536
0.000697
0.000183
0.000058
0.000217
0.000253
0.000254
0.000236
0.000291
0.000274
0.000274
0.000737
0.000225
0.000270
0.000235
0.000252
0.000235
0.000250
0.000260
0.000257
0.000259
0.000256
0.000303
0.000329
0.001653
0.000287
0.000239
0.000428
0.000274
0.000755
0.000636
0.000526
0.000341
0.000243
0.000184
0.000058
0.000190
0.000243
0.000295
0.000213
0.000291
0.000221
0.000283
0.000549
0.001370
0.000225
0.000239
0.000239
0.000257
0.000252
0.000270
0.000295
0.000316
0.000783
0.001351
0.000307
0.000237
0.000414
0.000249
0.000240
0.000256
0.000266
0.000257
0.000273
0.000262
0.000268
0.000195
0.000056
0.000211
0.000254
0.000241
0.000265
0.000238
0.000247
0.000237
0.000251
0.000241
0.000254
0.001631
0.000276
0.000225
0.000236
0.000254
0.000243
0.000249
0.000249
0.000256
0.000251
0.000300
0.001638
0.000291
0.000255
0.000427
0.000259
0.000246
0.000265
0.000259
0.000270
0.000204
0.000056
0.000202
0.000233
0.000242
0.000250
0.000239
0.000249
0.000262
0.000235
0.000263
0.000258
0.000251
0.000259
0.000252
0.000274
0.001638
0.000283
0.000294
0.000213
0.000249
0.000271
0.000267
0.000245
0.000235
0.000264
0.001790
0.000457
0.000275
0.000375
0.000234
0.000283
0.000217
0.000056
0.000188
0.000236
0.000248
0.000267
0.000258
0.000265
0.000281
0.000418
0.000403
0.000409
0.000209
0.000238
0.000262
0.000245
0.001637
0.000524
0.000271
0.000390
0.000319
0.000230
0.000266
0.000287
0.000269
0.001750
0.000508
0.000455
0.000233
0.000263
0.000247
0.000257
0.000191
0.000057
0.000198
0.000236
0.000251
0.000288
0.000331
0.000422
0.000398
0.000260
0.000213
0.000257
0.000249
0.000241
0.000258
0.001733
0.000454
0.000297
0.000226
0.000257
0.000279
0.000277
0.000244
0.000260
0.000273
0.001941
0.000262
0.000377
0.000247
0.000256
0.000263
0.000407
0.000327
0.000056
0.000264
0.000413
0.000292
0.000249
0.000259
0.000244
0.000256
0.000253
0.000245
0.000233
0.000235
0.000255
0.001551
0.000354
0.000306
0.000227
0.000261
0.000251
0.000249
0.000306
0.000277
0.000305
0.000243
0.001808
0.000250
0.000496
0.000242
0.000263
0.000255
0.000272
0.000265
0.000058
0.000335
0.000569
0.000578
0.000212
0.000229
0.000279
0.000228
0.000221
0.000266
0.000252
0.000252
0.001698
0.000260
0.000440
0.000360
0.000228
0.000230
0.000232
0.000249
0.000266
0.000330
0.001775
0.000224
0.000469
0.001897
0.000518
0.000334
0.000246
0.000255
0.000261
0.000190
0.000057
0.000214
0.000257
0.000231
0.000245
0.000265
0.001612
0.000269
0.000214
0.000255
0.000248
0.000252
0.000241
0.000249
0.000252
0.000320
0.000434
0.000568
0.000244
0.000257
0.000249
0.000294
0.000219
0.000241
0.000440
0.000429
0.000296
0.000480
0.000379
0.000439
0.000282
0.000201
0.000057
0.000227
0.000217
0.000250
0.000253
0.000237
0.000239
0.000280
0.000489
0.000326
0.001709
0.000206
0.000238
0.000239
0.000249
0.000261
0.000313
0.000504
0.000369
0.000347
0.000239
0.000256
0.000317
0.000267
0.000253
0.000276
0.000426
0.000350
0.000687
0.000364
0.000460
0.000183
0.000057
0.000200
0.000258
0.000250
0.000229
0.000236
0.000238
0.000245
0.000263
0.000227
0.000289
0.000341
0.000551
0.001279
0.000259
0.000218
0.000248
0.000261
0.000244
0.000255
0.000295
0.000248
0.000503
0.000340
0.000278
0.000266
0.000251
0.000258
0.000292
0.000242
0.000264
0.000388
0.000056
0.000210
0.000238
0.000232
0.000277
0.000584
0.000392
0.000216
0.000256
0.000237
0.000255
0.000262
0.000228
0.000322
0.000227
0.000235
0.000486
0.000418
0.001633
0.000277
0.000238
0.000263
0.000261
0.000258
0.000236
0.000293
0.000550
0.000336
0.000336
0.000426
0.000244
0.000193
0.000057
0.000227
0.000447
0.000216
0.000215
0.000290
0.000238
0.000357
0.000599
0.000297
0.000242
0.000230
0.000272
0.000266
0.000238
0.000528
0.000323
0.000231
0.000273
0.000454
0.001575
0.000281
0.000213
0.000523
0.000252
0.000289
0.000266
0.000255
0.000426
0.000518
0.000382
0.000218
0.000056
0.000224
0.000235
0.000234
0.000242
0.000443
0.000281
0.000290
0.000224
0.000371
0.000540
0.000349
0.000237
0.000243
0.000242
0.000262
0.000263
0.000249
0.000257
0.000235
0.000353
0.000285
0.000478
0.001729
0.000216
0.000253
0.000253
0.000286
0.000345
0.000466
0.000734
0.000353
0.000056
0.000229
0.000332
0.000311
0.000410
0.000382
0.000207
0.000258
0.000404
0.000480
0.000333
0.000267
0.000245
0.000228
0.000272
0.000259
0.000233
0.000251
0.000278
0.000268
0.000258
0.000307
0.000413
0.000664
0.001290
0.000325
0.000430
0.000418
0.000257
0.000436
0.000462
0.000247
0.000056
0.000239
0.000379
0.000275
0.000239
0.000194
0.000251
0.000417
0.000234
0.000300
0.000431
0.000396
0.000377
0.000212
0.000254
0.000263
0.000245
0.000349
0.000404
0.000343
0.000236
0.000254
0.000476
0.000536
0.001690
0.000233
0.000415
0.000316
0.000232
0.000359
0.000348
0.000326
0.000057
0.000190
0.000228
0.000255
0.000256
0.000245
0.000240
0.000247
0.000323
0.000462
0.000315
0.000426
0.000358
0.000276
0.000582
0.000261
0.000223
0.000280
0.000267
0.000215
0.000360
0.000216
0.000251
0.000283
0.000416
0.000489
0.001646
0.000270
0.000237
0.000232
0.000280
0.000188
0.000058
0.000212
0.000554
0.000237
0.000206
0.000254
0.000244
0.000254
0.000247
0.000286
0.000214
0.000228
0.000261
0.000455
0.000480
0.000400
0.000263
0.000253
0.000252
0.000341
0.000396
0.000367
0.000335
0.000362
0.000395
0.000265
0.000244
0.000257
0.000277
0.001792
0.000235
0.000216
0.000057
0.000208
0.000213
0.000262
0.000292
0.000335
0.000543
0.000316
0.000217
0.000282
0.000238
0.000248
0.000267
0.000499
0.000447
0.000487
0.000272
0.000270
0.000259
0.000423
0.000463
0.000363
0.000467
0.000526
0.000340
0.000248
0.000237
0.000267
0.000255
0.000259
0.001717
0.000370
0.000058
0.000245
0.000341
0.000195
0.000231
0.000259
0.000249
0.000233
0.000503
0.000375
0.000306
0.000294
0.000330
0.000363
0.000589
0.000324
0.000234
0.000254
0.000260
0.000251
0.000266
0.000278
0.000262
0.000240
0.000265
0.000345
0.000318
0.000440
0.000337
0.000233
0.000252
0.000196
0.000057
0.000436
0.000296
0.000458
0.000258
0.000223
0.000237
0.000245
0.000256
0.000242
0.000219
0.000250
0.000278
0.000301
0.000459
0.000533
0.000348
0.000331
0.000318
0.000372
0.000343
0.000300
0.000251
0.000233
0.000266
0.001745
0.000259
0.001711
0.001035
0.000304
0.000334
0.000165
0.000057
0.000196
0.000240
0.000231
0.000241
0.000277
0.000231
0.000251
0.000257
0.000241
0.000362
0.000530
0.000207
0.000351
0.000380
0.000266
0.000230
0.000255
0.000296
0.000225
0.000249
0.000250
0.000261
0.001808
0.000242
0.000256
0.000265
0.000272
0.000265
0.001881
0.000546
0.000245
0.000057
0.000208
0.000215
0.000235
0.000243
0.000272
0.000232
0.000245
0.000258
0.000272
0.000379
0.000524
0.000337
0.000375
0.000227
0.000241
0.000249
0.000332
0.000435
0.000366
0.000259
0.001775
0.000256
0.000252
0.000251
0.000261
0.000266
0.000239
0.000254
0.000324
0.000412
0.000361
0.000058
0.000242
0.000214
0.000243
0.000273
0.000251
0.000230
0.000255
0.000256
0.000239
0.000257
0.000242
0.000314
0.000404
0.000325
0.000348
0.000259
0.000480
0.000227
0.000253
0.000261
0.000250
0.000263
0.000275
0.000256
0.000284
0.001776
0.000261
0.000259
0.000245
0.000237
0.000205
0.000056
0.000414
0.000187
0.000225
0.000232
0.000239
0.000233
0.000238
0.000261
0.000243
0.000233
0.000225
0.000260
0.000275
0.000426
0.000385
0.000302
0.000308
0.000218
0.000257
0.000252
0.000255
0.000265
0.000243
0.000275
0.000254
0.000262
0.000357
0.001576
0.000279
0.000227
0.000200
0.000057
0.000206
0.000241
0.000242
0.000275
0.000338
0.000382
0.000401
0.000285
0.000224
0.000254
0.000272
0.000228
0.000245
0.000252
0.000263
0.000261
0.000243
0.000257
0.000252
0.000263
0.000268
0.000266
0.000263
0.000220
0.000250
0.000273
0.000278
0.000261
0.000258
0.000282
0.000173
0.000056
0.000235
0.000222
0.000247
0.000281
0.000230
0.000235
0.000260
0.000243
0.000283
0.000247
0.000223
0.000256
0.000245
0.000253
0.000293
0.000237
0.000253
0.000251
0.000298
0.000250
0.000277
0.000334
0.000251
0.000225
0.000306
0.000246
0.000271
0.000242
0.000325
0.000375
0.000692
0.000056
0.000226
0.000287
0.000252
0.000202
0.000238
0.000250
0.000242
0.000249
0.000253
0.000243
0.000270
0.000399
0.000377
0.000582
0.001438
0.000237
0.000490
0.000229
0.000252
0.000444
0.000452
0.000376
0.000226
0.000286
0.000254
0.000252
0.000281
0.000252
0.000310
0.000275
0.000174
0.000058
0.000337
0.000397
0.000350
0.000309
0.000222
0.000272
0.000238
0.000228
0.000236
0.000242
0.000258
0.000255
0.000230
0.000282
0.000390
0.000454
0.000401
0.001785
0.000230
0.000249
0.000419
0.000349
0.000516
0.000227
0.000313
0.000317
0.000304
0.000246
0.000210
0.000252
0.000205
0.000058
0.000222
0.000228
0.000261
0.000397
0.000318
0.000353
0.000349
0.000254
0.000254
0.000211
0.000255
0.000268
0.000263
0.000264
0.000240
0.000266
0.000341
0.000546
0.000440
0.000241
0.000234
0.001745
0.000328
0.000493
0.000558
0.000417
0.000324
0.000237
0.000242
0.000270
0.000446
0.000057
0.000208
0.000270
0.000216
0.000297
0.000538
0.000387
0.000321
0.000235
0.000229
0.000287
0.000247
0.000260
0.000249
0.000299
0.000307
0.000227
0.000297
0.000338
0.000451
0.000347
0.000502
0.001840
0.000273
0.000543
0.000458
0.000280
0.000229
0.000259
0.000299
0.000254
0.000200
0.000057
0.000209
0.000336
0.000361
0.000356
0.000394
0.000295
0.000339
0.000216
0.000237
0.000261
0.000277
0.000223
0.000270
0.000245
0.000231
0.000261
0.000363
0.000459
0.000438
0.000317
0.000291
0.000241
0.000255
0.001707
0.000523
0.000409
0.000684
0.000238
0.000263
0.000310
0.000163
0.000056
0.000192
0.000241
0.000350
0.000231
0.000286
0.000353
0.000381
0.000335
0.000267
0.000504
0.000231
0.000253
0.000258
0.000277
0.000274
0.000261
0.000217
0.000397
0.000434
0.000434
0.000255
0.000247
0.000234
0.000264
0.000254
0.000271
0.000237
0.000251
0.000270
0.000291
0.000207
0.000057
0.000354
0.000323
0.000202
0.000262
0.000241
0.000256
0.000241
0.000280
0.000251
0.000252
0.000293
0.000317
0.000519
0.000330
0.000363
0.000232
0.000219
0.000236
0.000258
0.000267
0.000288
0.000273
0.000226
0.000251
0.000284
0.000458
0.000326
0.000308
0.000364
0.000226
0.000185
0.000057
0.000210
0.000223
0.000284
0.000247
0.000238
0.000266
0.000279
0.000217
0.000493
0.000211
0.000258
0.000267
0.000237
0.000258
0.000273
0.000295
0.000243
0.000344
0.000221
0.000242
0.000262
0.000263
0.000261
0.000270
0.000272
0.000265
0.000260
0.000251
0.000260
0.000497
0.000163
0.000058
0.000210
0.000243
0.000259
0.000278
0.000206
0.000241
0.000366
0.000409
0.000229
0.000239
0.000253
0.000254
0.000235
0.000291
0.000493
0.001708
0.000234
0.000261
0.000284
0.000335
0.000405
0.000370
0.000362
0.000461
0.000323
0.000400
0.000243
0.000275
0.000267
0.000275
0.001413
0.000057
0.000393
0.000287
0.000257
0.000203
0.000231
0.000249
0.000233
0.000278
0.000221
0.000277
0.000241
0.000260
0.000252
0.000340
0.000587
0.001537
0.000235
0.000237
0.000236
0.000273
0.000232
0.000281
0.000415
0.000367
0.000260
0.000365
0.000206
0.000264
0.000273
0.000271
0.000176
0.000057
0.001260
0.000484
0.000335
0.000257
0.000241
0.000219
0.000231
0.000248
0.000491
0.000207
0.000251
0.000244
0.000377
0.000590
0.000284
0.000351
0.000259
0.000239
0.000322
0.000352
0.000276
0.000255
0.000271
0.000243
0.000296
0.000543
0.000580
0.000235
0.000265
0.000282
0.000156
0.000058
0.000216
0.000221
0.000235
0.000246
0.001517
0.000257
0.000223
0.000249
0.000264
0.000227
0.000252
0.000252
0.000238
0.000267
0.000267
0.000439
0.000299
0.000637
0.000270
0.001739
0.000257
0.000297
0.000351
0.000434
0.000490
0.000393
0.000254
0.000238
0.000265
0.000267
0.000203
0.000058
0.000213
0.000259
0.000226
0.000367
0.001208
0.000232
0.000261
0.000253
0.000241
0.000242
0.000233
0.000258
0.000275
0.000260
0.000238
0.000324
0.000565
0.000300
0.000294
0.000278
0.000262
0.000270
0.000246
0.000239
0.000325
0.000223
0.000240
0.000281
0.000291
0.000324
0.000590
0.000057
0.000217
0.000244
0.000235
0.000265
0.000282
0.000216
0.000235
0.000264
0.000287
0.000263
0.001420
0.000211
0.000245
0.000248
0.000247
0.000238
0.000297
0.000237
0.000287
0.000238
0.000324
0.000480
0.000624
0.000180
0.000229
0.000276
0.001749
0.000271
0.000247
0.000363
0.000421
0.000057
0.000197
0.000402
0.000453
0.000503
0.000517
0.000538
0.001511
0.000412
0.000512
0.000652
0.000555
0.000720
0.000473
0.000623
0.000581
0.001939
0.000450
0.000327
0.000406
0.000319
0.000224
0.000277
0.000286
0.000257
0.000281
0.000275
0.000290
0.000292
0.000259
0.000279
0.001376
0.000057
0.000216
0.000231
0.000244
0.000247
0.000252
0.000254
0.000234
0.000245
0.000268
0.000233
0.000243
0.000236
0.000257
0.000260
0.000259
0.000266
0.001867
0.000212
0.000262
0.000249
0.000255
0.000266
0.000264
0.000263
0.000435
0.000388
0.000382
0.000233
0.000251
0.000276
0.000205
0.000058
0.000206
0.001371
0.000324
0.000272
0.000248
0.000239
0.000244
0.000225
0.000237
0.000236
0.000227
0.000260
0.000236
0.000507
0.000362
0.000309
0.000243
0.001962
0.000242
0.000196
0.000255
0.000264
0.000254
0.000265
0.000273
0.000279
0.000275
0.000244
0.000279
0.000339
0.000174
0.000056
0.000222
0.000238
0.000251
0.001453
0.000209
0.000246
0.000255
0.000241
0.000256
0.000250
0.000250
0.000242
0.000248
0.000281
0.000239
0.000257
0.000260
0.000265
0.000264
0.000257
0.000258
0.001817
0.000250
0.001735
0.000274
0.000243
0.000276
0.000287
0.000240
0.000279
0.000194
0.000057
0.000205
0.000245
0.001346
0.000229
0.000255
0.000241
0.000256
0.000284
0.000226
0.000246
0.000254
0.000240
0.000261
0.000261
0.000261
0.000266
0.000252
0.000285
0.000305
0.000217
0.001882
0.000236
0.001825
0.000239
0.000263
0.000279
0.000236
0.000248
0.000252
0.000267
0.000203
0.000056
0.001426
0.000215
0.000232
0.000244
0.000236
0.000258
0.000351
0.000291
0.000242
0.000249
0.000247
0.000258
0.000280
0.000377
0.000339
0.000289
0.000250
0.000272
0.000260
0.000270
0.000246
0.000333
0.000234
0.000246
0.000284
0.000265
0.000275
0.000318
0.000705
0.000325
0.000190
0.000058
0.000225
0.000228
0.000260
0.000301
0.000358
0.000250
0.001714
0.000291
0.000278
0.000289
0.000237
0.000274
0.000264
0.000269
0.000297
0.000310
0.000368
0.000580
0.000342
0.000263
0.000292
0.000288
0.000278
0.000246
0.000311
0.000277
0.000269
0.000252
0.000248
0.000406
0.000342
0.000058
0.000269
0.000457
0.000265
0.000283
0.000230
0.000228
0.000225
0.000247
0.000261
0.000310
0.001457
0.000233
0.000218
0.000253
0.000242
0.000278
0.000280
0.000242
0.000253
0.000259
0.000277
0.000617
0.000319
0.000291
0.000258
0.000293
0.000264
0.000256
0.000237
0.000309
0.000167
0.000056
0.000206
0.000235
0.000303
0.000437
0.000395
0.000262
0.000209
0.000252
0.000251
0.000243
0.000239
0.000247
0.000255
0.000270
0.000242
0.000297
0.000412
0.001145
0.000245
0.000234
0.000285
0.000248
0.000354
0.000414
0.000253
0.000496
0.000429
0.000379
0.000333
0.000238
0.000180
0.000058
0.000231
0.000248
0.000263
0.000255
0.000259
0.000270
0.000325
0.000475
0.000341
0.000299
0.000362
0.000391
0.000397
0.000362
0.000251
0.000231
0.000248
0.000290
0.000423
0.000423
0.001249
0.000230
0.000268
0.000270
0.000253
0.000218
0.000265
0.000347
0.000590
0.000300
0.000176
0.000057
0.000219
0.000226
0.000257
0.000245
0.000236
0.000249
0.000237
0.000269
0.000368
0.000346
0.000399
0.000334
0.000248
0.000233
0.000249
0.000264
0.000243
0.000263
0.000267
0.000271
0.000425
0.000277
0.000371
0.000450
0.000255
0.000251
0.000269
0.000271
0.000259
0.000336
0.000163
0.000057
0.000319
0.000310
0.000309
0.000498
0.000315
0.000378
0.000237
0.000243
0.000249
0.000301
0.000229
0.000265
0.000236
0.000243
0.000247
0.000227
0.000277
0.000394
0.000477
0.000333
0.000235
0.000254
0.000249
0.000245
0.000265
0.000285
0.000264
0.000277
0.000268
0.000278
0.000343
0.000057
0.000289
0.000258
0.000224
0.000270
0.000222
0.000246
0.000244
0.000258
0.000263
0.000259
0.000253
0.000234
0.000403
0.000455
0.000356
0.000311
0.000218
0.000250
0.000252
0.000294
0.000231
0.000264
0.000248
0.000276
0.000267
0.000386
0.000415
0.000563
0.000377
0.000248
0.000168
0.000057
0.000392
0.000195
0.000233
0.000244
0.000254
0.000245
0.000257
0.000233
0.000255
0.000261
0.000221
0.000243
0.000273
0.000229
0.000238
0.000262
0.000259
0.000264
0.000291
0.000241
0.000260
0.000259
0.000268
0.000262
0.000258
0.000251
0.000260
0.000277
0.000255
0.000277
0.000206
0.000057
0.000194
0.000241
0.000241
0.000251
0.000229
0.000257
0.000268
0.000234
0.000259
0.000284
0.000225
0.000241
0.000252
0.000394
0.000256
0.000297
0.000238
0.000266
0.000257
0.000280
0.000272
0.000243
0.000244
0.000245
0.000273
0.000272
0.000252
0.000249
0.000272
0.000258
0.000209
0.000056
0.000226
0.000363
0.000367
0.000294
0.000280
0.000255
0.000267
0.000255
0.000220
0.000249
0.000274
0.000236
0.000240
0.000250
0.000269
0.000264
0.000242
0.000269
0.000244
0.000264
0.000274
0.000263
0.000281
0.000252
0.000299
0.000226
0.000253
0.000276
0.000264
0.000263
0.000196
0.000056
0.000202
0.000236
0.000263
0.000263
0.000253
0.000447
0.000208
0.000275
0.000319
0.000415
0.000464
0.000280
0.000226
0.000252
0.000271
0.000261
0.000242
0.000268
0.000253
0.000279
0.000260
0.000258
0.000255
0.000287
0.000670
0.000333
0.000293
0.000301
0.000260
0.000257
0.000194
0.000057
0.000198
0.000213
0.000248
0.000251
0.000423
0.000549
0.000312
0.000388
0.000209
0.000243
0.000252
0.000236
0.000249
0.000245
0.000263
0.000273
0.000267
0.000258
0.000723
0.000273
0.000311
0.000240
0.000263
0.000278
0.000284
0.000248
0.000261
0.000290
0.000236
0.000329
0.000349
0.000057
0.000178
0.000235
0.000242
0.000238
0.000254
0.000267
0.000201
0.000250
0.000236
0.000262
0.000245
0.000254
0.000249
0.000421
0.000674
0.000281
0.000206
0.000261
0.000263
0.000268
0.000247
0.000287
0.000476
0.000213
0.000267
0.000651
0.000356
0.000483
0.000259
0.000249
0.000191
0.000057
0.000195
0.000227
0.000249
0.000234
0.000259
0.000255
0.000337
0.000496
0.000509
0.000404
0.000220
0.000261
0.000309
0.000242
0.000250
0.000257
0.000223
0.000252
0.000287
0.000500
0.000198
0.000662
0.000364
0.000252
0.000360
0.000380
0.000482
0.000246
0.000268
0.000453
0.000424
0.000056
0.000259
0.000230
0.000439
0.000212
0.000237
0.000260
0.000259
0.000260
0.000230
0.000242
0.000331
0.000352
0.000398
0.000296
0.000235
0.000250
0.000256
0.000250
0.000264
0.000278
0.000293
0.000235
0.000247
0.000270
0.000331
0.000464
0.000485
0.000239
0.000263
0.000272
0.000198
0.000057
0.000200
0.000260
0.000225
0.000244
0.000247
0.000275
0.000335
0.000644
0.000205
0.000270
0.000376
0.000228
0.000246
0.000269
0.000263
0.000231
0.000254
0.000262
0.000341
0.000363
0.000511
0.000287
0.000478
0.000266
0.000388
0.000418
0.000383
0.000246
0.000251
0.000399
0.000346
0.000058
0.000231
0.000238
0.000220
0.000253
0.000278
0.000239
0.000266
0.000227
0.000274
0.000239
0.000235
0.000441
0.000413
0.000330
0.000370
0.000231
0.000263
0.000267
0.000267
0.000230
0.000242
0.000257
0.000266
0.000278
0.000277
0.000375
0.000507
0.000415
0.000238
0.000277
0.000196
0.000058
0.000209
0.000241
0.000274
0.000250
0.000237
0.000350
0.000587
0.000378
0.000488
0.000555
0.000258
0.000217
0.000241
0.000266
0.000236
0.000275
0.000276
0.000310
0.000478
0.000606
0.001282
0.000306
0.000275
0.000286
0.000260
0.000267
0.000453
0.000347
0.000392
0.000271
0.000192
0.000057
0.000187
0.000234
0.000251
0.000263
0.000232
0.000245
0.000301
0.000230
0.000244
0.000324
0.000333
0.000379
0.000271
0.000343
0.000392
0.000341
0.000242
0.000250
0.000269
0.000258
0.000244
0.000245
0.000315
0.000224
0.000321
0.000435
0.000466
0.000249
0.000259
0.000268
0.000187
0.000056
0.000209
0.000249
0.000258
0.000252
0.000244
0.000233
0.000475
0.000210
0.000236
0.000251
0.000251
0.000246
0.000262
0.000254
0.000249
0.000272
0.000262
0.000289
0.000260
0.000245
0.000282
0.000266
0.000291
0.000247
0.000260
0.000277
0.000273
0.000264
0.000262
0.000269
0.000172
0.000057
0.000181
0.000246
0.000318
0.000462
0.000316
0.000240
0.000233
0.000251
0.000262
0.000245
0.000249
0.000255
0.000262
0.000262
0.000239
0.000248
0.000261
0.000253
0.000338
0.000373
0.000479
0.000257
0.000235
0.000267
0.000265
0.000252
0.000270
0.000246
0.000279
0.000277
0.000200
0.000057
0.000254
0.000488
0.000327
0.000208
0.000251
0.000259
0.000409
0.000219
0.000236
0.000271
0.000231
0.000296
0.000404
0.000410
0.001844
0.000248
0.000244
0.000268
0.000264
0.000244
0.000367
0.000522
0.000539
0.000268
0.000232
0.000254
0.000278
0.000421
0.000277
0.000273
0.000176
0.000056
0.000246
0.000321
0.000303
0.000337
0.000497
0.000192
0.000251
0.000241
0.000254
0.000242
0.000259
0.000246
0.000270
0.000446
0.000328
0.000435
0.000212
0.000245
0.000261
0.000257
0.000259
0.000322
0.000236
0.000276
0.000276
0.000539
0.000501
0.000405
0.000371
0.000232
0.000208
0.000056
0.000225
0.000232
0.000257
0.000234
0.000246
0.000251
0.000284
0.000301
0.000308
0.000363
0.000437
0.000339
0.000223
0.000252
0.000272
0.000284
0.000298
0.000236
0.000273
0.000274
0.000237
0.000397
0.000426
0.000326
0.000282
0.000256
0.000260
0.000439
0.000417
0.000304
0.000186
0.000058
0.000197
0.000339
0.000439
0.000237
0.000361
0.000204
0.000241
0.000252
0.000260
0.000268
0.000249
0.000254
0.000232
0.000254
0.000265
0.000366
0.000350
0.000333
0.000286
0.000357
0.000485
0.000224
0.000286
0.000276
0.000294
0.000288
0.000252
0.000259
0.000559
0.000478
0.000152
0.000056
0.000219
0.000226
0.000245
0.000251
0.000241
0.000481
0.000218
0.000246
0.000276
0.000347
0.000494
0.000564
0.000215
0.000236
0.000238
0.000250
0.000259
0.000265
0.000240
0.000242
0.000291
0.000244
0.000398
0.000420
0.000347
0.000371
0.000312
0.000294
0.000324
0.000266
0.000163
0.000056
0.000218
0.000232
0.000340
0.000457
0.000333
0.000232
0.000258
0.000230
0.000238
0.000263
0.000250
0.000263
0.000267
0.000242
0.000248
0.000257
0.000248
0.000244
0.000326
0.000363
0.000595
0.000275
0.000232
0.000247
0.000274
0.000274
0.000263
0.000254
0.000262
0.000272
0.000190
0.000057
0.000310
0.000388
0.000428
0.000238
0.000214
0.000254
0.000319
0.000466
0.000282
0.000207
0.000245
0.000272
0.000265
0.000512
0.000371
0.000278
0.000236
0.000233
0.000255
0.000260
0.000270
0.000262
0.000265
0.000271
0.000261
0.000324
0.000454
0.000321
0.000338
0.000228
0.000190
0.000057
0.000213
0.000241
0.000248
0.000254
0.000250
0.000266
0.000225
0.000274
0.000250
0.000236
0.000266
0.000233
0.000286
0.001440
0.000221
0.000253
0.000261
0.000251
0.000270
0.000276
0.000264
0.000243
0.000277
0.000254
0.000265
0.000267
0.000272
0.000269
0.000259
0.000272
0.000194
0.000057
0.000201
0.000226
0.000254
0.000267
0.000244
0.000219
0.000258
0.000257
0.000229
0.000248
0.000247
0.000267
0.000256
0.000249
0.000254
0.000266
0.000248
0.000253
0.000272
0.000258
0.000256
0.000258
0.000246
0.000250
0.001299
0.000275
0.000618
0.000527
0.000197
0.000260
0.000175
0.000057
0.000188
0.000229
0.000241
0.000258
0.000419
0.000238
0.000231
0.000240
0.000258
0.000445
0.000409
0.000293
0.000240
0.000226
0.000272
0.000252
0.000259
0.000262
0.000242
0.000265
0.000260
0.000254
0.000289
0.000476
0.000444
0.000443
0.000215
0.000270
0.001362
0.000251
0.000181
0.000057
0.000311
0.000394
0.000316
0.000276
0.000221
0.000219
0.000239
0.000247
0.000259
0.000257
0.000248
0.000262
0.000294
0.000373
0.000466
0.000362
0.000318
0.000222
0.000248
0.000261
0.000267
0.000281
0.000248
0.000265
0.000271
0.000267
0.000444
0.000454
0.000363
0.000357
0.000154
0.000057
0.000199
0.000243
0.001259
0.000438
0.000372
0.000444
0.000316
0.000499
0.000249
0.000343
0.000229
0.000226
0.000260
0.000257
0.000245
0.000266
0.000574
0.000293
0.000409
0.000330
0.000274
0.000223
0.000271
0.000500
0.000224
0.000264
0.000259
0.000282
0.000370
0.000519
0.000311
0.000057
0.000378
0.000306
0.000242
0.001391
0.000538
0.000328
0.000292
0.000240
0.000251
0.000248
0.000232
0.000240
0.000240
0.000270
0.000250
0.000268
0.000230
0.000330
0.000408
0.000344
0.000437
0.000241
0.000255
0.000254
0.000264
0.000273
0.000272
0.000232
0.000266
0.000276
0.000220
0.000056
0.000352
0.000349
0.000216
0.000237
0.000251
0.000245
0.000272
0.000226
0.000233
0.000229
0.001473
0.000423
0.000261
0.000240
0.000231
0.000258
0.000272
0.000260
0.000235
0.000297
0.000250
0.000247
0.000360
0.000364
0.000459
0.000377
0.000229
0.000268
0.000274
0.000280
0.000182
0.000058
0.000212
0.000413
0.000218
0.000260
0.000341
0.000432
0.000340
0.000337
0.000456
0.000216
0.000225
0.000274
0.000240
0.000266
0.000261
0.001530
0.000247
0.000296
0.000228
0.000269
0.000298
0.000234
0.000255
0.000242
0.000267
0.000270
0.000517
0.000389
0.000282
0.000278
0.000152
0.000057
0.000214
0.000235
0.000255
0.000246
0.000227
0.000257
0.000236
0.000255
0.000307
0.000343
0.000471
0.000254
0.000234
0.000261
0.000245
0.000268
0.000272
0.000262
0.000289
0.000209
0.000256
0.000355
0.001217
0.000259
0.000257
0.000237
0.000265
0.000264
0.000255
0.000265
0.000189
0.000057
0.000236
0.000307
0.000367
0.000340
0.000245
0.000253
0.000256
0.000287
0.000239
0.000259
0.000239
0.000270
0.000258
0.000235
0.000275
0.000240
0.000266
0.000269
0.000263
0.000249
0.000253
0.000270
0.000271
0.000283
0.000285
0.000262
0.000268
0.000284
0.000240
0.000451
0.001360
0.000057
0.000200
0.000256
0.000219
0.000266
0.000253
0.000237
0.000268
0.000208
0.000247
0.000245
0.000301
0.000245
0.000239
0.000239
0.000274
0.000218
0.001750
0.000253
0.000228
0.000259
0.000247
0.000276
0.000258
0.000258
0.000292
0.000235
0.000275
0.000281
0.000267
0.000252
0.000237
0.000057
0.000375
0.000321
0.001217
0.000223
0.000228
0.000247
0.000260
0.000247
0.000276
0.000238
0.000275
0.000317
0.000430
0.000406
0.000274
0.000221
0.000250
0.000250
0.000261
0.000267
0.000242
0.000282
0.000255
0.000284
0.000272
0.000378
0.000477
0.000254
0.000312
0.000250
0.000194
0.000057
0.000228
0.000246
0.000242
0.000249
0.000279
0.000196
0.000236
0.000326
0.000444
0.001256
0.000264
0.000211
0.000247
0.000272
0.000246
0.000296
0.000238
0.000273
0.000358
0.000420
0.000305
0.000268
0.000235
0.000250
0.000290
0.000273
0.000263
0.000290
0.000271
0.000272
0.000192
0.000059
0.000275
0.000406
0.000349
0.000221
0.000228
0.000240
0.000246
0.000278
0.000261
0.000248
0.000229
0.000253
0.000455
0.000498
0.000525
0.001399
0.000242
0.000291
0.000313
0.000356
0.000479
0.000494
0.000428
0.000352
0.000238
0.000258
0.000274
0.000275
0.000263
0.000273
0.000204
0.000056
0.000201
0.000327
0.000522
0.000384
0.000311
0.000235
0.000250
0.000238
0.000239
0.000271
0.000234
0.000272
0.000273
0.000224
0.000273
0.000300
0.000385
0.000439
0.000324
0.001329
0.000261
0.000258
0.000253
0.000261
0.000495
0.000400
0.000400
0.000253
0.000264
0.000276
0.000186
0.000056
0.000193
0.000244
0.000241
0.000267
0.000226
0.000307
0.000411
0.000385
0.000376
0.000223
0.000244
0.000259
0.000268
0.000287
0.000240
0.000259
0.000258
0.000257
0.000306
0.000418
0.000322
0.000421
0.000287
0.001350
0.000408
0.000242
0.000271
0.000424
0.000506
0.000279
0.000308
0.000058
0.000203
0.000229
0.000246
0.000247
0.000250
0.000255
0.001701
0.000223
0.000214
0.000241
0.000254
0.000249
0.000271
0.000312
0.000325
0.000286
0.000258
0.000371
0.000516
0.000363
0.000280
0.000286
0.000229
0.000248
0.001501
0.000418
0.000339
0.000470
0.000314
0.000306
0.000165
0.000057
0.000219
0.000251
0.000262
0.000248
0.000254
0.000256
0.001709
0.000245
0.000226
0.000264
0.000337
0.000405
0.001457
0.000357
0.000382
0.000247
0.000261
0.000224
0.000270
0.000276
0.001701
0.000449
0.000340
0.000290
0.000244
0.000255
0.000257
0.000281
0.000244
0.000255
0.000192
0.000057
0.000219
0.000228
0.000268
0.000244
0.000266
0.000301
0.000255
0.000259
0.000242
0.000253
0.000252
0.000250
0.000289
0.000241
0.000270
0.001479
0.000285
0.000224
0.000268
0.000290
0.000261
0.000250
0.000432
0.001271
0.000275
0.000238
0.000265
0.000253
0.000406
0.000242
0.000196
0.000058
0.000199
0.000250
0.000224
0.000249
0.000234
0.000233
0.000233
0.001698
0.000273
0.000199
0.000359
0.000286
0.000212
0.000220
0.000254
0.001386
0.000233
0.000262
0.000267
0.000265
0.000245
0.000349
0.000296
0.001296
0.000274
0.000265
0.000241
0.000267
0.001387
0.000287
0.000196
0.000057
0.000299
0.000288
0.000199
0.000239
0.000271
0.000224
0.000285
0.000250
0.000264
0.000249
0.000257
0.000265
0.000258
0.000246
0.000339
0.001492
0.000220
0.000267
0.000254
0.000264
0.000290
0.000241
0.000251
0.001500
0.000351
0.000241
0.000266
0.001271
0.000272
0.000238
0.000268
0.000057
0.000220
0.000520
0.000217
0.000216
0.000230
0.000244
0.000264
0.000252
0.000265
0.000273
0.000233
0.000252
0.000261
0.000314
0.000385
0.001211
0.000224
0.000262
0.000263
0.000273
0.000236
0.000241
0.000254
0.000357
0.001253
0.000244
0.000246
0.000260
0.000261
0.001331
0.000424
0.000058
0.000278
0.000234
0.000233
0.000231
0.000246
0.000247
0.000244
0.000251
0.000301
0.000251
0.000224
0.000242
0.000283
0.000306
0.000401
0.001477
0.000212
0.000262
0.000294
0.000514
0.000280
0.001480
0.000335
0.000236
0.000236
0.000261
0.000257
0.001295
0.000401
0.000425
0.000347
0.000057
0.000227
0.000244
0.000257
0.000255
0.000279
0.000232
0.000267
0.000265
0.000247
0.000303
0.000330
0.000542
0.001203
0.000234
0.000273
0.000254
0.000282
0.000234
0.000236
0.000245
0.000327
0.001257
0.000267
0.000224
0.000254
0.000253
0.001513
0.000451
0.000454
0.000224
0.000192
0.000057
0.000204
0.000235
0.000244
0.000243
0.000248
0.000266
0.000258
0.000281
0.000513
0.000364
0.000265
0.001496
0.000215
0.000235
0.000265
0.000252
0.000264
0.000287
0.001692
0.000264
0.000376
0.000343
0.001403
0.000304
0.000240
0.000319
0.000255
0.000256
0.000272
0.000264
0.000196
0.000057
0.000206
0.000246
0.000321
0.000299
0.000298
0.000531
0.000259
0.000296
0.001477
0.000234
0.000380
0.000263
0.000248
0.000289
0.000373
0.001327
0.000266
0.000232
0.000252
0.000261
0.001552
0.000353
0.000293
0.000281
0.000246
0.000241
0.000471
0.000323
0.000237
0.000252
0.000259
0.000056
0.000326
0.000259
0.000354
0.000252
0.000218
0.001539
0.000216
0.000239
0.000271
0.000267
0.000266
0.000242
0.000302
0.001490
0.000250
0.000235
0.000434
0.001190
0.000424
0.000438
0.000319
0.000234
0.000242
0.000258
0.000293
0.000219
0.000460
0.000225
0.000265
0.000289
0.000187
0.000057
0.000199
0.000300
0.000317
0.000331
0.001321
0.000281
0.000339
0.000222
0.000237
0.000233
0.000248
0.000410
0.001419
0.000246
0.000230
0.000248
0.001379
0.000282
0.000478
0.000369
0.000384
0.000234
0.000253
0.000249
0.000266
0.000296
0.000243
0.000265
0.000271
0.000245
0.000237
0.000057
0.000215
0.000501
0.001359
0.000211
0.000270
0.000299
0.000218
0.000249
0.000273
0.000381
0.001378
0.000224
0.000253
0.000261
0.000255
0.001283
0.000669
0.000302
0.000319
0.000411
0.000304
0.000250
0.000260
0.000261
0.000270
0.000290
0.000277
0.000343
0.000384
0.000432
0.001391
0.000056
0.000196
0.000242
0.000239
0.000228
0.000323
0.000338
0.000532
0.001239
0.000245
0.000248
0.000244
0.001430
0.000494
0.000280
0.000217
0.000412
0.000250
0.000249
0.000261
0.000285
0.000252
0.000253
0.000280
0.000267
0.000244
0.000322
0.000514
0.000370
0.001494
0.000233
0.000185
0.000057
0.000203
0.000248
0.000413
0.000461
0.001254
0.000304
0.000230
0.000255
0.000248
0.000252
0.000252
0.000291
0.000395
0.000489
0.000278
0.000240
0.000254
0.000267
0.000247
0.000308
0.000235
0.000260
0.000258
0.000267
0.000254
0.000511
0.000441
0.000258
0.000326
0.001410
0.000179
0.000058
0.000209
0.000241
0.000278
0.000466
0.000330
0.000300
0.000325
0.000327
0.000295
0.000255
0.000236
0.000262
0.000270
0.000290
0.000275
0.000293
0.000598
0.000235
0.000293
0.000387
0.000271
0.000408
0.000230
0.000234
0.000266
0.000258
0.000260
0.000309
0.000544
0.000434
0.000140
0.000057
0.000201
0.001412
0.000225
0.000334
0.000407
0.000474
0.000322
0.000330
0.000208
0.000251
0.000255
0.000248
0.000280
0.000275
0.000235
0.000257
0.000263
0.001337
0.000276
0.000255
0.000260
0.000269
0.000271
0.000274
0.000271
0.000253
0.000278
0.000248
0.000384
0.000429
0.000330
0.000058
0.000209
0.000240
0.000237
0.001497
0.000349
0.000224
0.000221
0.000261
0.000218
0.000246
0.000254
0.000283
0.000241
0.000248
0.000296
0.000227
0.000244
0.000269
0.000258
0.000256
0.001431
0.000245
0.000231
0.000289
0.000239
0.000261
0.000267
0.000264
0.000273
0.000499
0.000341
0.000057
0.000242
0.000206
0.000394
0.000290
0.000237
0.000266
0.001519
0.000415
0.000225
0.000223
0.000281
0.000296
0.000328
0.000234
0.000223
0.000256
0.000243
0.000259
0.000260
0.000255
0.000597
0.000438
0.001078
0.000271
0.000241
0.000255
0.000273
0.000264
0.000296
0.000232
0.000432
0.000057
0.000205
0.000340
0.000216
0.000233
0.000253
0.000241
0.000246
0.000226
0.000291
0.001658
0.000359
0.000248
0.000239
0.000242
0.000259
0.000242
0.000264
0.000278
0.000258
0.000314
0.000305
0.000591
0.000372
0.001336
0.000234
0.000279
0.000259
0.000251
0.000273
0.000301
0.000467
0.000057
0.000279
0.000268
0.000217
0.000234
0.000224
0.000241
0.000262
0.000281
0.000257
0.001561
0.000369
0.000256
0.000241
0.000256
0.000459
0.000258
0.000549
0.000370
0.000270
0.000275
0.000520
0.000493
0.001229
0.000261
0.000245
0.000244
0.001728
0.000448
0.000718
0.000208
0.000143
0.000057
0.000209
0.000236
0.000231
0.000237
0.000277
0.000227
0.000248
0.000506
0.000548
0.000360
0.000297
0.000203
0.000242
0.000267
0.000281
0.000271
0.000232
0.000244
0.000255
0.000283
0.000320
0.000560
0.001133
0.000234
0.000243
0.000275
0.001900
0.000374
0.000415
0.000325
0.000156
0.000057
0.000251
0.000235
0.000246
0.001720
0.000269
0.000215
0.000237
0.000256
0.000256
0.000278
0.000380
0.000366
0.000368
0.000280
0.000297
0.000606
0.000321
0.001175
0.000283
0.000233
0.000252
0.000255
0.000281
0.000423
0.000608
0.000434
0.000277
0.000263
0.000259
0.000280
0.000195
0.000057
0.000183
0.000235
0.000243
0.001572
0.000226
0.000227
0.000237
0.000259
0.000242
0.000252
0.000251
0.000269
0.000275
0.000267
0.000330
0.000420
0.000403
0.000254
0.001396
0.000231
0.000258
0.000260
0.000258
0.000299
0.000392
0.000500
0.000382
0.000264
0.000292
0.000228
0.000442
0.000056
0.000186
0.000238
0.000271
0.001549
0.000276
0.000222
0.000268
0.000242
0.000250
0.000253
0.000257
0.000276
0.000238
0.000282
0.000463
0.000455
0.001356
0.000755
0.000248
0.000344
0.000244
0.000236
0.000241
0.000282
0.001685
0.000800
0.000226
0.000264
0.000281
0.000286
0.000190
0.000056
0.000194
0.000222
0.000256
0.000241
0.000282
0.000248
0.000218
0.000272
0.000222
0.000230
0.000293
0.000292
0.000243
0.000248
0.000264
0.000242
0.000281
0.001605
0.000694
0.000406
0.000282
0.000227
0.000247
0.000308
0.000253
0.000246
0.000274
0.000265
0.001412
0.000367
0.000392
0.000057
0.000193
0.000234
0.000267
0.000232
0.000262
0.000227
0.000282
0.000232
0.000249
0.000263
0.000304
0.000401
0.000430
0.000339
0.000210
0.000240
0.000278
0.001376
0.000708
0.000515
0.000290
0.000265
0.000230
0.000247
0.000269
0.000264
0.000252
0.000257
0.001508
0.000404
0.000205
0.000056
0.000198
0.000223
0.000247
0.000247
0.000251
0.000245
0.000234
0.000255
0.000272
0.000289
0.000375
0.000362
0.000313
0.000216
0.000241
0.000243
0.000266
0.000258
0.001582
0.000638
0.000446
0.000323
0.000223
0.000255
0.000261
0.000261
0.000268
0.000281
0.000266
0.001378
0.000301
0.000058
0.000194
0.000222
0.000234
0.000256
0.000259
0.000244
0.000249
0.000305
0.000359
0.000443
0.000431
0.000360
0.000325
0.000218
0.000248
0.000249
0.000298
0.000245
0.000266
0.001967
0.000281
0.000231
0.000446
0.000245
0.000256
0.000264
0.000267
0.000257
0.000272
0.000270
0.000402
0.000057
0.000252
0.000225
0.000228
0.000241
0.000256
0.000247
0.000229
0.000238
0.000296
0.000240
0.000229
0.000237
0.000360
0.000436
0.000405
0.000436
0.000222
0.000265
0.000248
0.000246
0.000256
0.000290
0.001466
0.001054
0.000231
0.000250
0.000265
0.000264
0.000278
0.000249
0.000199
0.000056
0.000208
0.001346
0.000294
0.000199
0.000237
0.000257
0.000246
0.000241
0.000243
0.000263
0.000242
0.000265
0.000238
0.000537
0.000296
0.000357
0.000283
0.000258
0.000262
0.000269
0.000282
0.000210
0.000262
0.000272
0.001330
0.000665
0.000309
0.000389
0.000373
0.000403
0.000302
0.000057
0.000210
0.000243
0.000429
0.001245
0.000211
0.000255
0.000240
0.000246
0.000253
0.000257
0.000263
0.000233
0.000261
0.000399
0.000565
0.000261
0.000227
0.000283
0.000327
0.000215
0.000250
0.000271
0.000234
0.000274
0.000263
0.001548
0.000727
0.000325
0.000257
0.000274
0.000197
0.000056
0.000213
0.000272
0.000447
0.000311
0.001312
0.000249
0.000222
0.000243
0.000227
0.000247
0.000250
0.000253
0.000234
0.000240
0.000249
0.000256
0.000271
0.000241
0.000249
0.000255
0.000268
0.000265
0.000319
0.000327
0.000205
0.000275
0.000268
0.001461
0.000281
0.000219
0.000167
0.000056
0.000195
0.000237
0.000245
0.000270
0.000351
0.000371
0.000398
0.000279
0.001580
0.000258
0.000370
0.000374
0.000381
0.000222
0.000435
0.000231
0.000228
0.000272
0.000268
0.000289
0.000262
0.000262
0.000260
0.000270
0.000271
0.000378
0.000462
0.000287
0.001584
0.000219
0.000190
0.000056
0.000230
0.000238
0.000266
0.000229
0.000240
0.000245
0.000261
0.000314
0.000417
0.002020
0.000226
0.000254
0.000248
0.000261
0.000265
0.000259
0.000261
0.000258
0.000412
0.000331
0.000354
0.000419
0.001444
0.000253
0.000234
0.002020
0.000282
0.000236
0.000257
0.001528
0.000159
0.000057
0.000340
0.000409
0.000468
0.000226
0.000279
0.000229
0.000242
0.000290
0.000242
0.000226
0.000252
0.000406
0.000403
0.000330
0.000393
0.000235
0.000236
0.001583
0.000208
0.000650
0.001817
0.000297
0.000227
0.001575
0.002009
0.000725
0.000267
0.000281
0.000311
0.000475
0.000333
0.000056
0.000210
0.000242
0.000282
0.000219
0.001419
0.001733
0.001077
0.000202
0.000250
0.001573
0.001976
0.000224
0.000231
0.000424
0.000419
0.000339
0.000353
0.000437
0.000208
0.000249
0.000249
0.000253
0.000282
0.001578
0.001209
0.001422
0.000301
0.000274
0.000254
0.000402
0.000314
0.000057
0.000203
0.000233
0.000236
0.000242
0.000232
0.000268
0.000227
0.000256
0.000255
0.000246
0.000242
0.000306
0.000485
0.000441
0.000269
0.000249
0.000250
0.000271
0.000270
0.000282
0.000238
0.000267
0.001537
0.000449
0.002120
0.000221
0.000272
0.000362
0.000496
0.000302
0.000181
0.000057
0.000232
0.000365
0.000440
0.000304
0.000219
0.000218
0.000249
0.000243
0.000236
0.000244
0.000251
0.000260
0.000261
0.001611
0.001353
0.001229
0.000274
0.000232
0.000251
0.000272
0.000283
0.000277
0.000241
0.000255
0.002210
0.000246
0.000250
0.000300
0.000321
0.000310
0.000219
0.000057
0.000234
0.000415
0.000491
0.000337
0.000212
0.000230
0.000245
0.000276
0.001911
0.001403
0.000222
0.000323
0.000385
0.000410
0.000269
0.000241
0.000241
0.000267
0.000266
0.000257
0.000262
0.000262
0.000474
0.000234
0.000270
0.000264
0.000255
0.000276
0.000281
0.000247
0.000201
0.000057
0.000181
0.000249
0.000241
0.000244
0.000278
0.000250
0.001536
0.001429
0.001314
0.000246
0.000227
0.000242
0.000265
0.000263
0.000255
0.000257
0.000234
0.002099
0.000260
0.000234
0.000261
0.000264
0.000249
0.000271
0.000265
0.000255
0.000274
0.000252
0.000278
0.000251
0.000181
0.000056
0.000211
0.002682
0.001393
0.000222
0.000304
0.000321
0.000215
0.000285
0.000229
0.000238
0.000252
0.000242
0.000238
0.000254
0.000267
0.000255
0.000266
0.000280
0.000258
0.000252
0.000269
0.000285
0.000269
0.000272
0.000235
0.000255
0.000262
0.000264
0.000264
0.000272
0.000367
0.000056
0.001538
0.000264
0.001233
0.000235
0.000218
0.000237
0.000279
0.000257
0.000225
0.000314
0.000341
0.000369
0.000332
0.000218
0.000247
0.002152
0.000238
0.000248
0.000304
0.000519
0.000369
0.000248
0.000237
0.000252
0.000261
0.000249
0.000267
0.000278
0.000277
0.001609
0.001268
0.000059
0.000206
0.000225
0.000442
0.000301
0.000315
0.000271
0.000210
0.000236
0.000252
0.000257
0.000268
0.000242
0.000227
0.000255
0.000265
0.000244
0.000398
0.000561
0.000333
0.000242
0.000238
0.000269
0.000283
0.000250
0.000249
0.000249
0.000266
0.000275
0.000242
0.000380
0.000477
0.000058
0.001117
0.000239
0.000334
0.000460
0.000278
0.000239
0.000226
0.000240
0.000255
0.002367
0.000308
0.000374
0.000239
0.000359
0.000309
0.000252
0.000241
0.000256
0.000263
0.000231
0.000248
0.000396
0.000641
0.000290
0.001880
0.001333
0.000589
0.000450
0.000238
0.000270
0.000201
0.000057
0.000188
0.000385
0.000248
0.000244
0.000248
0.000227
0.000254
0.000250
0.000253
0.000248
0.000258
0.000226
0.000247
0.000327
0.000419
0.000456
0.001791
0.001391
0.000415
0.000410
0.000457
0.000236
0.000260
0.000239
0.002130
0.000551
0.000395
0.000230
0.000274
0.000285
0.000198
0.000057
0.000207
0.000244
0.000256
0.000241
0.000325
0.000246
0.000440
0.000356
0.000265
0.000224
0.000257
0.000235
0.000261
0.002112
0.000380
0.000374
0.000218
0.000245
0.000286
0.000244
0.000249
0.002514
0.000282
0.000228
0.000251
0.000259
0.000247
0.000274
0.000313
0.000250
0.000191
0.000056
0.000213
0.000313
0.000592
0.000348
0.000259
0.000219
0.000234
0.000255
0.000260
0.000254
0.002009
0.000341
0.000265
0.000277
0.000238
0.000268
0.000271
0.000238
0.002203
0.000448
0.000223
0.000266
0.000283
0.000246
0.000257
0.000251
0.000306
0.000239
0.000265
0.000255
0.000186
0.000057
0.000209
0.000240
0.000250
0.000222
0.000244
0.000262
0.000246
0.000228
0.000236
0.002191
0.000222
0.000279
0.000216
0.000430
0.000221
0.000254
0.000305
0.000265
0.000249
0.000259
0.001965
0.000272
0.000358
0.000344
0.000433
0.000408
0.000304
0.000257
0.000250
0.000259
0.000200
0.000057
0.000199
0.000245
0.000233
0.000249
0.000266
0.000315
0.000215
0.002310
0.000239
0.000230
0.000261
0.000256
0.000231
0.000287
0.000273
0.002127
0.000590
0.000230
0.000244
0.000247
0.000254
0.000259
0.000286
0.000270
0.000262
0.000255
0.000286
0.000255
0.000264
0.000268
0.000193
0.000057
0.001824
0.001439
0.000197
0.000228
0.000243
0.000254
0.000255
0.000443
0.000284
0.000394
0.002072
0.000262
0.000223
0.000272
0.000382
0.000405
0.000402
0.000300
0.000224
0.000242
0.000258
0.000262
0.000266
0.000227
0.000256
0.000266
0.000272
0.000262
0.000310
0.000671
0.000318
0.000057
0.000203
0.000257
0.000242
0.000259
0.000259
0.000256
0.000246
0.000245
0.001493
0.002102
0.000590
0.000267
0.000404
0.000811
0.000244
0.000231
0.000254
0.000250
0.000261
0.000263
0.000255
0.000246
0.000259
0.000263
0.003011
0.000335
0.000235
0.000262
0.000292
0.000308
0.000373
0.000056
0.001940
0.000230
0.000225
0.000238
0.000299
0.000346
0.000450
0.000305
0.000293
0.000220
0.000238
0.000252
0.000256
0.000260
0.000256
0.000257
0.000256
0.000290
0.001813
0.000246
0.000238
0.000251
0.000279
0.000272
0.000274
0.000263
0.001452
0.000345
0.000250
0.000251
0.000177
0.000057
0.000200
0.000239
0.000244
0.000234
0.000249
0.000243
0.000290
0.000415
0.000396
0.000293
0.000207
0.000243
0.000267
0.000324
0.000417
0.000327
0.000228
0.000240
0.000286
0.000436
0.000474
0.000358
0.000238
0.000253
0.000254
0.000250
0.000254
0.000277
0.000280
0.000259
0.000206
0.000057
0.001414
0.000437
0.000223
0.001954
0.000255
0.000592
0.000272
0.000318
0.000227
0.000247
0.000265
0.000241
0.000246
0.000249
0.000268
0.000253
0.000458
0.000309
0.000424
0.000322
0.000358
0.000263
0.000222
0.000269
0.000270
0.000270
0.000260
0.000270
0.000392
0.000503
0.001302
0.000056
0.000201
0.000227
0.002128
0.000310
0.000291
0.000216
0.000255
0.000253
0.000260
0.000264
0.000214
0.000253
0.000252
0.000262
0.000287
0.000328
0.000714
0.001766
0.000224
0.000260
0.000239
0.000278
0.000552
0.000280
0.001549
0.000296
0.000364
0.001919
0.000269
0.000243
0.000201
0.000057
0.000176
0.000231
0.000237
0.000246
0.000226
0.000252
0.000253
0.000280
0.000332
0.000262
0.000382
0.000358
0.000345
0.000294
0.000241
0.000268
0.000262
0.000244
0.000266
0.000251
0.000312
0.000280
0.000267
0.000258
0.000271
0.001504
0.000294
0.000414
0.002033
0.000241
0.000173
0.000058
0.000205
0.000236
0.000235
0.000253
0.000485
0.000206
0.000255
0.000440
0.000309
0.000258
0.000306
0.000211
0.000266
0.000264
0.000267
0.000330
0.000427
0.000424
0.000255
0.000408
0.000530
0.000560
0.001461
0.000226
0.000252
0.001986
0.000350
0.000233
0.000240
0.000292
0.000193
0.000056
0.000214
0.000238
0.000226
0.000244
0.000249
0.000266
0.000260
0.000265
0.000255
0.000309
0.001760
0.000310
0.000387
0.000291
0.000451
0.000393
0.000320
0.001513
0.000234
0.000281
0.002257
0.000440
0.000261
0.000224
0.000259
0.000267
0.000507
0.000221
0.000258
0.000275
0.000200
0.000057
0.000302
0.000380
0.000301
0.000290
0.000208
0.000235
0.000265
0.000247
0.000265
0.000293
0.000228
0.000251
0.000255
0.000267
0.000430
0.000497
0.001202
0.000264
0.000273
0.002076
0.000255
0.000238
0.000239
0.000258
0.000246
0.000281
0.000267
0.000267
0.000245
0.000272
0.000204
0.000057
0.000249
0.000360
0.002046
0.000254
0.000223
0.000250
0.000260
0.000351
0.000446
0.000369
0.001301
0.000368
0.000357
0.002080
0.000216
0.000249
0.000252
0.000280
0.000245
0.000251
0.000282
0.000293
0.000260
0.000389
0.000551
0.000276
0.000307
0.002227
0.000524
0.000477
0.000364
0.000057
0.000191
0.000236
0.000238
0.001957
0.000240
0.000227
0.000260
0.000224
0.000243
0.000258
0.000243
0.000262
0.000300
0.000229
0.000562
0.001353
0.000266
0.000223
0.000266
0.000264
0.000227
0.000257
0.000260
0.000344
0.000268
0.000610
0.000294
0.000238
0.001604
0.000275
0.002011
0.000057
0.000203
0.000223
0.000244
0.000237
0.000257
0.000270
0.000228
0.000248
0.000251
0.000424
0.000356
0.001375
0.000240
0.000223
0.000242
0.000289
0.000227
0.000256
0.000321
0.000494
0.000439
0.000383
0.000225
0.001576
0.000229
0.000257
0.000289
0.000277
0.000265
0.000267
0.000197
0.000056
0.000206
0.000238
0.000287
0.000265
0.000232
0.000245
0.000234
0.000249
0.000275
0.000221
0.000252
0.000254
0.000271
0.001477
0.000361
0.000205
0.000250
0.000265
0.000277
0.000313
0.000366
0.000278
0.000246
0.000256
0.000267
0.000261
0.000260
0.001418
0.000278
0.000230
0.000176
0.000057
0.000213
0.000230
0.000262
0.000260
0.000268
0.000222
0.000247
0.000262
0.000220
0.000262
0.000243
0.000260
0.000260
0.000311
0.000347
0.000366
0.000245
0.000239
0.001638
0.000241
0.000238
0.000265
0.000263
0.000294
0.000356
0.000491
0.000357
0.000270
0.000242
0.001612
0.000153
0.000058
0.000360
0.000321
0.000406
0.000238
0.000231
0.000218
0.000247
0.000273
0.000253
0.000273
0.000214
0.000235
0.001541
0.000273
0.000239
0.000235
0.000249
0.000273
0.000272
0.000243
0.000257
0.000231
0.000260
0.000275
0.000285
0.000361
0.000423
0.000383
0.000253
0.000255
0.000197
0.000057
0.000202
0.000264
0.000470
0.000316
0.000339
0.000283
0.000255
0.000244
0.000256
0.000259
0.000241
0.000239
0.000242
0.000247
0.001296
0.000256
0.000240
0.000249
0.000266
0.000268
0.000238
0.000263
0.000257
0.000260
0.000250
0.000267
0.000322
0.000826
0.000303
0.000226
0.000184
0.000056
0.000200
0.001559
0.000276
0.000370
0.000450
0.000316
0.000219
0.000253
0.000272
0.000257
0.000235
0.000259
0.000269
0.000270
0.000256
0.001538
0.000257
0.000271
0.000268
0.000255
0.000273
0.000236
0.000270
0.000261
0.000257
0.000297
0.000465
0.000377
0.000298
0.000228
0.000195
0.000056
0.000217
0.000244
0.000247
0.001596
0.000492
0.000279
0.000233
0.000238
0.000254
0.000271
0.000280
0.000249
0.000256
0.000255
0.000233
0.000269
0.000352
0.001375
0.000248
0.000229
0.001499
0.000347
0.000641
0.000286
0.000348
0.000234
0.000268
0.000463
0.000237
0.000266
0.000185
0.000058
0.000197
0.000221
0.000239
0.000248
0.000247
0.000275
0.000220
0.000257
0.000256
0.000249
0.000241
0.000253
0.000323
0.000585
0.001577
0.001499
0.000352
0.000583
0.000293
0.000215
0.000236
0.000256
0.000247
0.000273
0.000250
0.000264
0.000258
0.000265
0.001542
0.000323
0.000175
0.000056
0.000192
0.000347
0.000351
0.000332
0.000259
0.000203
0.000251
0.000326
0.000491
0.000344
0.002166
0.000314
0.000806
0.000583
0.000277
0.000263
0.000340
0.000386
0.000329
0.000279
0.000391
0.000268
0.001525
0.000534
0.000223
0.000258
0.000254
0.000254
0.000273
0.000267
0.000201
0.000058
0.000209
0.000250
0.000266
0.000237
0.000243
0.001660
0.000877
0.000997
0.000209
0.000239
0.000270
0.000238
0.000257
0.000261
0.000251
0.000253
0.000252
0.000262
0.000266
0.000282
0.001430
0.000317
0.000253
0.000232
0.000231
0.000277
0.000244
0.000285
0.000260
0.000289
0.001900
0.000057
0.000196
0.000232
0.001538
0.000851
0.000387
0.000364
0.000249
0.000212
0.000259
0.000256
0.000252
0.000247
0.000243
0.002001
0.000452
0.000246
0.000226
0.000252
0.000266
0.000259
0.000196
