0.000116
0.002127
0.019284
0.000320
0.000270
0.000280
0.000307
0.000269
0.000350
0.000299
0.000241
0.000413
0.000479
0.000366
0.000378
0.000352
0.000308
0.000331
0.000349
0.000457
0.000315
0.001878
0.000717
0.000265
0.000291
0.000351
0.000265
0.000285
0.000413
0.000477
0.000460
0.000230
0.000070
0.000236
0.000269
0.000255
0.000290
0.000240
0.000295
0.000254
0.000315
0.000234
0.000286
0.000448
0.000370
0.000313
0.000259
0.000376
0.000344
0.000364
0.000313
0.000275
0.001618
0.000307
0.000272
0.000456
0.000273
0.000273
0.000281
0.000306
0.000248
0.000291
0.000336
0.000370
0.000066
0.000288
0.000234
0.000261
0.000266
0.000287
0.000258
0.000258
0.000281
0.000275
0.001593
0.000232
0.000252
0.000260
0.000276
0.000278
0.000261
0.000252
0.000334
0.000281
0.001765
0.000283
0.000265
0.000424
0.000429
0.000387
0.000301
0.000278
0.000379
0.000539
0.000714
0.000214
0.000068
0.000247
0.000255
0.000254
0.000238
0.000257
0.000323
0.000307
0.000526
0.000376
0.000256
0.000253
0.000248
0.000244
0.000251
0.000260
0.000268
0.000269
0.000257
0.000315
0.000297
0.001620
0.000278
0.000272
0.000415
0.000652
0.000489
0.000529
0.000503
0.000345
0.000265
0.000164
0.000067
0.000241
0.000224
0.000302
0.000244
0.000249
0.000246
0.000278
0.000662
0.001226
0.000247
0.000245
0.000256
0.000239
0.000256
0.000259
0.000284
0.000453
0.001756
0.000297
0.000253
0.000263
0.000388
0.000279
0.000264
0.000224
0.000300
0.000230
0.000268
0.000260
0.000280
0.000176
0.000067
0.000199
0.000249
0.000239
0.000263
0.000238
0.000249
0.000247
0.000241
0.000245
0.000292
0.001595
0.000254
0.000252
0.000253
0.000260
0.000264
0.000258
0.000213
0.000255
0.000318
0.000272
0.001594
0.000263
0.000257
0.000455
0.000259
0.000256
0.000261
0.000312
0.000242
0.000161
0.000066
0.000232
0.000233
0.000241
0.000252
0.000244
0.000246
0.000236
0.000251
0.000276
0.000292
0.000240
0.000237
0.000299
0.000240
0.001583
0.000276
0.000293
0.000237
0.000258
0.000255
0.000263
0.000251
0.000292
0.000265
0.001731
0.000399
0.000461
0.000269
0.000244
0.000277
0.000162
0.000087
0.000227
0.000235
0.000229
0.000254
0.000258
0.000258
0.000260
0.000405
0.000383
0.000437
0.000242
0.000245
0.000235
0.000292
0.001514
0.000519
0.000343
0.000464
0.000254
0.000272
0.000283
0.000310
0.000252
0.001656
0.000518
0.000479
0.000258
0.000238
0.000263
0.000295
0.000133
0.000069
0.000243
0.000239
0.000236
0.000299
0.000272
0.000431
0.000440
0.000253
0.000247
0.000230
0.000235
0.000267
0.000307
0.001623
0.000484
0.000288
0.000259
0.000258
0.000256
0.000267
0.000245
0.000292
0.000245
0.001865
0.000323
0.000401
0.000264
0.000265
0.000270
0.000394
0.000295
0.000067
0.000242
0.000370
0.000332
0.000341
0.000240
0.000250
0.000249
0.000257
0.000238
0.000229
0.000227
0.000268
0.001522
0.000376
0.000277
0.000257
0.000263
0.000252
0.000245
0.000291
0.000307
0.000305
0.000258
0.001748
0.000279
0.000491
0.000260
0.000253
0.000245
0.000303
0.000211
0.000065
0.000428
0.000490
0.000557
0.000239
0.000252
0.000246
0.000254
0.000257
0.000234
0.000252
0.000283
0.001633
0.000248
0.000443
0.000364
0.000252
0.000223
0.000239
0.000247
0.000284
0.000349
0.001717
0.000246
0.000458
0.001899
0.000488
0.000354
0.000254
0.000278
0.000272
0.000148
0.000067
0.000237
0.000236
0.000234
0.000236
0.000276
0.001586
0.000263
0.000253
0.000235
0.000282
0.000255
0.000253
0.000249
0.000232
0.000292
0.000407
0.000574
0.000272
0.000277
0.000271
0.000223
0.000261
0.000238
0.000426
0.000415
0.000304
0.000411
0.000641
0.000266
0.000285
0.000178
0.000073
0.000233
0.000229
0.000257
0.000249
0.000253
0.000239
0.000261
0.000517
0.000295
0.001681
0.000245
0.000251
0.000247
0.000244
0.000263
0.000239
0.000514
0.000407
0.000363
0.000238
0.000266
0.000306
0.000246
0.000273
0.000262
0.000420
0.000336
0.000594
0.000468
0.000452
0.000193
0.000067
0.000239
0.000244
0.000251
0.000188
0.000227
0.000241
0.000249
0.000258
0.000225
0.000324
0.000366
0.000453
0.001326
0.000259
0.000238
0.000261
0.000256
0.000247
0.000251
0.000278
0.000252
0.000500
0.000327
0.000282
0.000270
0.000269
0.000257
0.000259
0.000264
0.000266
0.000373
0.000067
0.000220
0.000234
0.000287
0.000248
0.000500
0.000412
0.000277
0.000247
0.000241
0.000254
0.000246
0.000251
0.000295
0.000252
0.000262
0.000515
0.000349
0.001613
0.000293
0.000254
0.000266
0.000255
0.000236
0.000262
0.000270
0.000420
0.000521
0.000273
0.000428
0.000256
0.000172
0.000096
0.000197
0.000448
0.000238
0.000248
0.000238
0.000226
0.000448
0.000457
0.000322
0.000293
0.000271
0.000223
0.000262
0.000273
0.000484
0.000334
0.000248
0.000288
0.000422
0.001562
0.000268
0.000271
0.000504
0.000273
0.000312
0.000248
0.000252
0.000364
0.000507
0.000430
0.000201
0.000066
0.000244
0.000187
0.000243
0.000248
0.000421
0.000366
0.000242
0.000358
0.000278
0.000435
0.000380
0.000267
0.000252
0.000257
0.000249
0.000251
0.000274
0.000236
0.000302
0.000338
0.000226
0.000373
0.001817
0.000226
0.000266
0.000253
0.000280
0.000327
0.000415
0.000721
0.000441
0.000089
0.000236
0.000338
0.000281
0.000458
0.000341
0.000254
0.000246
0.000298
0.000464
0.000413
0.000264
0.000266
0.000275
0.000264
0.000248
0.000183
0.000256
0.000277
0.000266
0.000260
0.000259
0.000451
0.000678
0.001285
0.000344
0.000431
0.000414
0.000267
0.000360
0.000591
0.000225
0.000068
0.000242
0.000370
0.000277
0.000227
0.000244
0.000244
0.000399
0.000247
0.000235
0.000329
0.000485
0.000465
0.000244
0.000250
0.000247
0.000243
0.000312
0.000404
0.000354
0.000278
0.000269
0.000385
0.000590
0.001654
0.000235
0.000443
0.000295
0.000244
0.000243
0.000455
0.000317
0.000066
0.000222
0.000243
0.000228
0.000240
0.000248
0.000250
0.000265
0.000304
0.000442
0.000260
0.000467
0.000394
0.000311
0.000518
0.000278
0.000274
0.000243
0.000230
0.000241
0.000337
0.000256
0.000249
0.000269
0.000429
0.000541
0.001550
0.000272
0.000253
0.000259
0.000284
0.000167
0.000066
0.000272
0.000538
0.000253
0.000238
0.000237
0.000267
0.000262
0.000260
0.000230
0.000215
0.000222
0.000261
0.000399
0.000541
0.000426
0.000275
0.000238
0.000248
0.000338
0.000378
0.000400
0.000337
0.000364
0.000369
0.000276
0.000248
0.000273
0.000297
0.001736
0.000250
0.000196
0.000066
0.000221
0.000219
0.000252
0.000272
0.000366
0.000529
0.000302
0.000255
0.000253
0.000265
0.000249
0.000251
0.000486
0.000458
0.000489
0.000274
0.000305
0.000214
0.000408
0.000465
0.000381
0.000387
0.000512
0.000419
0.000262
0.000230
0.000269
0.000264
0.000282
0.001678
0.000318
0.000081
0.000278
0.000318
0.000232
0.000247
0.000292
0.000242
0.000236
0.000438
0.000376
0.000307
0.000291
0.000285
0.000404
0.000551
0.000372
0.000247
0.000292
0.000222
0.000255
0.000270
0.000266
0.000249
0.000267
0.000278
0.000300
0.000344
0.000460
0.000287
0.000276
0.000237
0.000185
0.000070
0.000441
0.000312
0.000442
0.000268
0.000208
0.000234
0.000243
0.000277
0.000264
0.000223
0.000244
0.000256
0.000284
0.000510
0.000346
0.000523
0.000376
0.000264
0.000348
0.000395
0.000274
0.000220
0.000268
0.000266
0.001733
0.000256
0.001714
0.000916
0.000419
0.000329
0.000160
0.000066
0.000230
0.000244
0.000227
0.000281
0.000257
0.000207
0.000248
0.000261
0.000266
0.000290
0.000331
0.000427
0.000338
0.000403
0.000261
0.000247
0.000247
0.000326
0.000248
0.000215
0.000257
0.000263
0.001786
0.000265
0.000237
0.000272
0.000292
0.001706
0.000429
0.000487
0.000224
0.000066
0.000220
0.000239
0.000271
0.000230
0.000229
0.000243
0.000258
0.000244
0.000223
0.000349
0.000641
0.000270
0.000380
0.000259
0.000251
0.000240
0.000338
0.000395
0.000391
0.000261
0.001745
0.000253
0.000246
0.000263
0.000300
0.000264
0.000237
0.000256
0.000292
0.000317
0.000411
0.000066
0.000263
0.000237
0.000252
0.000258
0.000232
0.000243
0.000261
0.000276
0.000254
0.000214
0.000247
0.000296
0.000352
0.000362
0.000354
0.000265
0.000478
0.000250
0.000256
0.000259
0.000288
0.000239
0.000252
0.000264
0.000270
0.001783
0.000269
0.000258
0.000240
0.000275
0.000158
0.000092
0.000354
0.000218
0.000232
0.000232
0.000229
0.000216
0.000240
0.000274
0.000255
0.000243
0.000211
0.000245
0.000292
0.000378
0.000337
0.000354
0.000314
0.000247
0.000258
0.000244
0.000249
0.000269
0.000287
0.000258
0.000233
0.000259
0.000312
0.001609
0.000278
0.000259
0.000157
0.000065
0.000262
0.000219
0.000238
0.000248
0.000325
0.000357
0.000453
0.000267
0.000257
0.000271
0.000248
0.000250
0.000253
0.000236
0.000293
0.000216
0.000256
0.000261
0.000252
0.000273
0.000264
0.000265
0.000209
0.000237
0.000235
0.000270
0.000270
0.000258
0.000259
0.000266
0.000203
0.000088
0.000229
0.000220
0.000241
0.000257
0.000249
0.000241
0.000254
0.000234
0.000282
0.000256
0.000251
0.000251
0.000253
0.000242
0.000310
0.000267
0.000212
0.000244
0.000286
0.000273
0.000268
0.000296
0.000262
0.000226
0.000303
0.000233
0.000269
0.000268
0.000298
0.000532
0.000421
0.000090
0.000211
0.000277
0.000237
0.000238
0.000251
0.000244
0.000248
0.000250
0.000248
0.000253
0.000298
0.000250
0.000501
0.000426
0.001557
0.000218
0.000482
0.000262
0.000439
0.000270
0.000442
0.000358
0.000277
0.000238
0.000267
0.000274
0.000248
0.000309
0.000294
0.000241
0.000155
0.000090
0.000540
0.000248
0.000282
0.000314
0.000255
0.000253
0.000214
0.000233
0.000244
0.000254
0.000239
0.000249
0.000238
0.000284
0.000397
0.000499
0.000326
0.001828
0.000264
0.000261
0.000321
0.000413
0.000404
0.000311
0.000330
0.000369
0.000267
0.000208
0.000233
0.000234
0.000203
0.000088
0.000190
0.000228
0.000238
0.000321
0.000402
0.000412
0.000299
0.000269
0.000245
0.000241
0.000261
0.000268
0.000234
0.000262
0.000278
0.000243
0.000280
0.000585
0.000245
0.000442
0.000274
0.001698
0.000340
0.000539
0.000516
0.000406
0.000321
0.000259
0.000261
0.000268
0.000397
0.000071
0.000256
0.000254
0.000253
0.000294
0.000340
0.000459
0.000385
0.000255
0.000262
0.000255
0.000270
0.000212
0.000250
0.000307
0.000295
0.000235
0.000257
0.000342
0.000563
0.000300
0.000462
0.001864
0.000295
0.000460
0.000491
0.000316
0.000259
0.000252
0.000277
0.000258
0.000180
0.000066
0.000231
0.000315
0.000357
0.000285
0.000458
0.000317
0.000333
0.000255
0.000244
0.000252
0.000254
0.000251
0.000252
0.000249
0.000250
0.000273
0.000347
0.000293
0.000573
0.000290
0.000315
0.000262
0.000291
0.001656
0.000478
0.000420
0.000737
0.000228
0.000273
0.000278
0.000163
0.000066
0.000230
0.000318
0.000247
0.000254
0.000257
0.000302
0.000420
0.000375
0.000254
0.000486
0.000260
0.000258
0.000257
0.000248
0.000271
0.000252
0.000228
0.000317
0.000512
0.000423
0.000292
0.000228
0.000241
0.000268
0.000264
0.000226
0.000259
0.000266
0.000268
0.000267
0.000201
0.000064
0.000355
0.000250
0.000286
0.000260
0.000230
0.000253
0.000252
0.000272
0.000257
0.000266
0.000210
0.000337
0.000402
0.000465
0.000305
0.000270
0.000270
0.000258
0.000226
0.000271
0.000263
0.000258
0.000257
0.000265
0.000241
0.000314
0.000394
0.000377
0.000368
0.000245
0.000180
0.000089
0.000208
0.000246
0.000236
0.000269
0.000263
0.000228
0.000255
0.000220
0.000493
0.000233
0.000260
0.000255
0.000265
0.000304
0.000240
0.000260
0.000256
0.000320
0.000247
0.000253
0.000265
0.000258
0.000258
0.000305
0.000265
0.000262
0.000268
0.000220
0.000301
0.000420
0.000164
0.000066
0.000243
0.000251
0.000262
0.000226
0.000220
0.000232
0.000368
0.000392
0.000233
0.000255
0.000237
0.000276
0.000248
0.000285
0.000363
0.001828
0.000263
0.000249
0.000272
0.000338
0.000404
0.000351
0.000373
0.000380
0.000375
0.000419
0.000260
0.000250
0.000264
0.000269
0.001412
0.000089
0.000429
0.000235
0.000278
0.000241
0.000242
0.000263
0.000255
0.000249
0.000220
0.000291
0.000258
0.000227
0.000248
0.000256
0.000565
0.001607
0.000242
0.000245
0.000252
0.000281
0.000261
0.000239
0.000347
0.000397
0.000269
0.000343
0.000255
0.000270
0.000286
0.000266
0.000165
0.000066
0.001224
0.000495
0.000358
0.000241
0.000258
0.000232
0.000222
0.000228
0.000479
0.000245
0.000253
0.000319
0.000330
0.000452
0.000371
0.000353
0.000253
0.000261
0.000307
0.000357
0.000270
0.000267
0.000268
0.000234
0.000323
0.000486
0.000608
0.000287
0.000284
0.000208
0.000151
0.000066
0.000260
0.000215
0.000216
0.000239
0.001551
0.000219
0.000237
0.000237
0.000259
0.000240
0.000241
0.000272
0.000273
0.000251
0.000237
0.000266
0.000476
0.000627
0.000283
0.001755
0.000241
0.000306
0.000277
0.000452
0.000587
0.000324
0.000289
0.000245
0.000267
0.000265
0.000164
0.000081
0.000236
0.000248
0.000247
0.000393
0.001145
0.000266
0.000270
0.000259
0.000241
0.000202
0.000253
0.000226
0.000273
0.000265
0.000259
0.000260
0.000542
0.000363
0.000333
0.000239
0.000265
0.000298
0.000227
0.000252
0.000278
0.000280
0.000259
0.000242
0.000268
0.000345
0.000567
0.000068
0.000258
0.000251
0.000261
0.000213
0.000248
0.000260
0.000226
0.000254
0.000275
0.000340
0.001353
0.000243
0.000258
0.000219
0.000259
0.000261
0.000250
0.000269
0.000279
0.000264
0.000265
0.000431
0.000539
0.000324
0.000251
0.000283
0.001723
0.000262
0.000278
0.000351
0.000358
0.000070
0.000217
0.000368
0.000445
0.000503
0.000539
0.000529
0.001507
0.000430
0.000519
0.000631
0.000566
0.000732
0.000499
0.000579
0.000579
0.001965
0.000347
0.000421
0.000380
0.000313
0.000262
0.000279
0.000276
0.000284
0.000240
0.000278
0.000297
0.000267
0.000274
0.000287
0.001350
0.000070
0.000226
0.000235
0.000230
0.000248
0.000258
0.000259
0.000248
0.000256
0.000222
0.000233
0.000245
0.000286
0.000257
0.000227
0.000252
0.000269
0.001785
0.000273
0.000256
0.000268
0.000287
0.000269
0.000241
0.000307
0.000455
0.000340
0.000325
0.000242
0.000274
0.000303
0.000164
0.000068
0.000233
0.001338
0.000376
0.000254
0.000259
0.000247
0.000211
0.000232
0.000248
0.000221
0.000224
0.000229
0.000271
0.000519
0.000410
0.000253
0.000254
0.001790
0.000350
0.000237
0.000256
0.000300
0.000262
0.000253
0.000243
0.000271
0.000284
0.000281
0.000251
0.000316
0.000164
0.000071
0.000233
0.000224
0.000241
0.001458
0.000243
0.000243
0.000238
0.000259
0.000246
0.000260
0.000245
0.000262
0.000256
0.000261
0.000263
0.000221
0.000298
0.000242
0.000258
0.000263
0.000262
0.001743
0.000273
0.001759
0.000263
0.000264
0.000275
0.000265
0.000273
0.000274
0.000169
0.000066
0.000226
0.000244
0.001312
0.000249
0.000253
0.000259
0.000246
0.000262
0.000240
0.000238
0.000232
0.000247
0.000255
0.000265
0.000272
0.000286
0.000240
0.000279
0.000273
0.000249
0.001889
0.000267
0.001782
0.000274
0.000289
0.000249
0.000220
0.000249
0.000244
0.000251
0.000192
0.000094
0.001435
0.000226
0.000249
0.000237
0.000252
0.000231
0.000332
0.000289
0.000254
0.000256
0.000243
0.000261
0.000301
0.000360
0.000337
0.000293
0.000262
0.000271
0.000236
0.000264
0.000269
0.000308
0.000233
0.000260
0.000268
0.000266
0.000299
0.000309
0.000660
0.000352
0.000189
0.000068
0.000232
0.000251
0.000272
0.000271
0.000376
0.000287
0.001668
0.000316
0.000282
0.000229
0.000264
0.000319
0.000262
0.000256
0.000316
0.000261
0.000357
0.000535
0.000402
0.000270
0.000287
0.000297
0.000252
0.000261
0.000305
0.000267
0.000267
0.000244
0.000258
0.000339
0.000379
0.000087
0.000310
0.000414
0.000252
0.000267
0.000256
0.000234
0.000247
0.000252
0.000253
0.000247
0.001471
0.000260
0.000232
0.000255
0.000254
0.000250
0.000287
0.000264
0.000243
0.000264
0.000266
0.000376
0.000614
0.000260
0.000269
0.000270
0.000285
0.000250
0.000217
0.000307
0.000156
0.000066
0.000233
0.000248
0.000255
0.000517
0.000311
0.000252
0.000254
0.000245
0.000252
0.000245
0.000247
0.000240
0.000244
0.000252
0.000261
0.000247
0.000353
0.001238
0.000245
0.000269
0.000272
0.000246
0.000327
0.000416
0.000280
0.000454
0.000418
0.000447
0.000281
0.000271
0.000163
0.000066
0.000252
0.000238
0.000242
0.000271
0.000265
0.000291
0.000263
0.000380
0.000592
0.000205
0.000334
0.000419
0.000370
0.000377
0.000239
0.000242
0.000228
0.000251
0.000452
0.000435
0.001251
0.000253
0.000252
0.000268
0.000241
0.000250
0.000252
0.000321
0.000376
0.000519
0.000179
0.000083
0.000221
0.000249
0.000247
0.000259
0.000233
0.000237
0.000216
0.000249
0.000321
0.000352
0.000451
0.000322
0.000265
0.000278
0.000235
0.000249
0.000260
0.000259
0.000243
0.000258
0.000422
0.000287
0.000331
0.000432
0.000317
0.000253
0.000313
0.000238
0.000261
0.000308
0.000164
0.000083
0.000350
0.000297
0.000422
0.000230
0.000400
0.000437
0.000233
0.000270
0.000244
0.000264
0.000218
0.000266
0.000246
0.000250
0.000240
0.000234
0.000265
0.000391
0.000421
0.000359
0.000249
0.000265
0.000294
0.000261
0.000216
0.000263
0.000295
0.000289
0.000258
0.000257
0.000250
0.000064
0.000240
0.000366
0.000238
0.000243
0.000260
0.000249
0.000233
0.000248
0.000252
0.000246
0.000265
0.000252
0.000296
0.000478
0.000405
0.000299
0.000254
0.000259
0.000264
0.000243
0.000259
0.000261
0.000270
0.000286
0.000274
0.000294
0.000445
0.000521
0.000420
0.000252
0.000163
0.000087
0.000375
0.000220
0.000247
0.000259
0.000245
0.000224
0.000245
0.000253
0.000246
0.000258
0.000231
0.000215
0.000266
0.000245
0.000309
0.000250
0.000237
0.000253
0.000270
0.000268
0.000271
0.000246
0.000262
0.000243
0.000256
0.000274
0.000268
0.000246
0.000275
0.000294
0.000154
0.000068
0.000229
0.000231
0.000250
0.000238
0.000243
0.000257
0.000237
0.000260
0.000234
0.000269
0.000256
0.000240
0.000252
0.000387
0.000241
0.000322
0.000262
0.000261
0.000277
0.000277
0.000242
0.000243
0.000235
0.000259
0.000279
0.000270
0.000259
0.000237
0.000297
0.000279
0.000132
0.000067
0.000227
0.000335
0.000393
0.000279
0.000313
0.000274
0.000261
0.000242
0.000243
0.000241
0.000236
0.000283
0.000250
0.000240
0.000251
0.000262
0.000266
0.000259
0.000241
0.000251
0.000266
0.000246
0.000282
0.000270
0.000261
0.000257
0.000278
0.000248
0.000277
0.000274
0.000162
0.000083
0.000209
0.000250
0.000236
0.000262
0.000259
0.000433
0.000247
0.000244
0.000251
0.000488
0.000458
0.000290
0.000254
0.000267
0.000269
0.000244
0.000241
0.000265
0.000290
0.000260
0.000264
0.000263
0.000223
0.000289
0.000525
0.000472
0.000308
0.000258
0.000287
0.000265
0.000161
0.000066
0.000227
0.000233
0.000237
0.000257
0.000405
0.000533
0.000318
0.000374
0.000248
0.000235
0.000248
0.000251
0.000249
0.000275
0.000246
0.000243
0.000266
0.000262
0.000658
0.000378
0.000277
0.000261
0.000264
0.000274
0.000256
0.000284
0.000265
0.000256
0.000262
0.000298
0.000300
0.000092
0.000299
0.000241
0.000248
0.000258
0.000259
0.000221
0.000244
0.000238
0.000238
0.000273
0.000247
0.000252
0.000242
0.000385
0.000537
0.000410
0.000244
0.000268
0.000244
0.000262
0.000283
0.000248
0.000456
0.000250
0.000274
0.000567
0.000441
0.000461
0.000284
0.000265
0.000136
0.000081
0.000219
0.000244
0.000237
0.000240
0.000252
0.000228
0.000317
0.000462
0.000543
0.000427
0.000257
0.000266
0.000249
0.000261
0.000280
0.000258
0.000235
0.000254
0.000233
0.000407
0.000308
0.000681
0.000367
0.000259
0.000352
0.000378
0.000466
0.000271
0.000257
0.000493
0.000315
0.000069
0.000273
0.000231
0.000436
0.000240
0.000241
0.000257
0.000235
0.000258
0.000256
0.000223
0.000251
0.000393
0.000420
0.000301
0.000246
0.000252
0.000261
0.000281
0.000232
0.000262
0.000285
0.000239
0.000272
0.000260
0.000301
0.000511
0.000474
0.000277
0.000277
0.000265
0.000143
0.000067
0.000234
0.000239
0.000248
0.000248
0.000250
0.000239
0.000376
0.000455
0.000347
0.000272
0.000377
0.000266
0.000270
0.000261
0.000221
0.000261
0.000231
0.000271
0.000270
0.000398
0.000501
0.000326
0.000455
0.000276
0.000408
0.000408
0.000371
0.000256
0.000317
0.000272
0.000303
0.000085
0.000291
0.000246
0.000246
0.000235
0.000276
0.000252
0.000251
0.000243
0.000241
0.000235
0.000248
0.000341
0.000484
0.000342
0.000406
0.000261
0.000256
0.000255
0.000242
0.000245
0.000253
0.000260
0.000268
0.000248
0.000400
0.000258
0.000424
0.000515
0.000272
0.000271
0.000170
0.000067
0.000240
0.000257
0.000260
0.000224
0.000311
0.000249
0.000491
0.000508
0.000530
0.000499
0.000253
0.000235
0.000251
0.000256
0.000248
0.000274
0.000280
0.000351
0.000502
0.000373
0.001432
0.000300
0.000262
0.000260
0.000289
0.000261
0.000399
0.000381
0.000383
0.000372
0.000133
0.000069
0.000240
0.000240
0.000238
0.000227
0.000245
0.000256
0.000285
0.000236
0.000277
0.000284
0.000322
0.000386
0.000307
0.000302
0.000384
0.000342
0.000277
0.000275
0.000274
0.000230
0.000250
0.000236
0.000289
0.000270
0.000269
0.000466
0.000469
0.000240
0.000289
0.000247
0.000156
0.000066
0.000252
0.000222
0.000260
0.000247
0.000260
0.000228
0.000452
0.000247
0.000268
0.000250
0.000233
0.000242
0.000254
0.000261
0.000267
0.000236
0.000255
0.000283
0.000250
0.000256
0.000270
0.000273
0.000284
0.000298
0.000262
0.000231
0.000275
0.000263
0.000271
0.000274
0.000162
0.000066
0.000247
0.000226
0.000391
0.000401
0.000306
0.000256
0.000270
0.000229
0.000247
0.000260
0.000263
0.000271
0.000261
0.000247
0.000227
0.000245
0.000237
0.000263
0.000261
0.000390
0.000401
0.000412
0.000231
0.000256
0.000271
0.000261
0.000267
0.000251
0.000275
0.000246
0.000196
0.000065
0.000286
0.000407
0.000422
0.000243
0.000217
0.000255
0.000376
0.000256
0.000242
0.000249
0.000261
0.000265
0.000354
0.000451
0.001852
0.000246
0.000261
0.000272
0.000246
0.000272
0.000313
0.000522
0.000405
0.000420
0.000244
0.000277
0.000268
0.000454
0.000283
0.000236
0.000158
0.000064
0.000321
0.000247
0.000305
0.000322
0.000524
0.000241
0.000211
0.000250
0.000248
0.000250
0.000230
0.000267
0.000232
0.000334
0.000433
0.000424
0.000255
0.000247
0.000300
0.000257
0.000214
0.000305
0.000300
0.000274
0.000437
0.000341
0.000414
0.000414
0.000425
0.000250
0.000206
0.000085
0.000217
0.000237
0.000245
0.000247
0.000247
0.000271
0.000241
0.000294
0.000347
0.000315
0.000538
0.000270
0.000299
0.000223
0.000250
0.000312
0.000264
0.000278
0.000279
0.000248
0.000240
0.000256
0.000455
0.000392
0.000294
0.000264
0.000283
0.000422
0.000456
0.000276
0.000148
0.000074
0.000221
0.000266
0.000297
0.000476
0.000303
0.000234
0.000243
0.000289
0.000254
0.000227
0.000253
0.000256
0.000265
0.000271
0.000238
0.000249
0.000386
0.000384
0.000394
0.000239
0.000522
0.000252
0.000245
0.000262
0.000280
0.000291
0.000275
0.000279
0.000487
0.000434
0.000224
0.000076
0.000217
0.000247
0.000262
0.000222
0.000245
0.000458
0.000260
0.000265
0.000260
0.000341
0.000421
0.000597
0.000257
0.000217
0.000242
0.000270
0.000254
0.000223
0.000253
0.000252
0.000271
0.000263
0.000369
0.000406
0.000368
0.000373
0.000302
0.000340
0.000328
0.000267
0.000121
0.000088
0.000229
0.000250
0.000266
0.000459
0.000288
0.000289
0.000271
0.000253
0.000232
0.000260
0.000260
0.000250
0.000250
0.000258
0.000227
0.000258
0.000255
0.000259
0.000389
0.000276
0.000445
0.000418
0.000252
0.000262
0.000322
0.000222
0.000270
0.000269
0.000268
0.000277
0.000171
0.000066
0.000296
0.000361
0.000435
0.000259
0.000243
0.000221
0.000390
0.000423
0.000245
0.000242
0.000247
0.000253
0.000334
0.000352
0.000452
0.000278
0.000230
0.000257
0.000259
0.000293
0.000271
0.000264
0.000259
0.000263
0.000274
0.000322
0.000319
0.000448
0.000269
0.000271
0.000166
0.000082
0.000221
0.000245
0.000259
0.000240
0.000250
0.000251
0.000229
0.000272
0.000256
0.000244
0.000265
0.000265
0.000262
0.001453
0.000226
0.000251
0.000262
0.000277
0.000278
0.000267
0.000237
0.000253
0.000263
0.000287
0.000265
0.000268
0.000272
0.000245
0.000296
0.000274
0.000130
0.000067
0.000221
0.000224
0.000256
0.000255
0.000221
0.000259
0.000241
0.000248
0.000256
0.000250
0.000258
0.000247
0.000298
0.000252
0.000237
0.000243
0.000257
0.000272
0.000282
0.000224
0.000257
0.000256
0.000243
0.000263
0.001288
0.000257
0.000533
0.000452
0.000330
0.000276
0.000166
0.000066
0.000240
0.000240
0.000241
0.000245
0.000391
0.000286
0.000219
0.000247
0.000306
0.000316
0.000430
0.000309
0.000252
0.000246
0.000251
0.000276
0.000254
0.000265
0.000253
0.000283
0.000270
0.000224
0.000262
0.000409
0.000479
0.000452
0.000254
0.000272
0.001396
0.000260
0.000130
0.000066
0.000271
0.000409
0.000319
0.000249
0.000245
0.000222
0.000249
0.000250
0.000225
0.000253
0.000243
0.000291
0.000277
0.000260
0.000522
0.000403
0.000326
0.000254
0.000248
0.000263
0.000268
0.000272
0.000252
0.000269
0.000313
0.000230
0.000275
0.000692
0.000350
0.000283
0.000139
0.000065
0.000229
0.000247
0.001250
0.000403
0.000295
0.000479
0.000352
0.000488
0.000261
0.000349
0.000240
0.000220
0.000252
0.000254
0.000258
0.000290
0.000369
0.000471
0.000398
0.000370
0.000248
0.000265
0.000228
0.000495
0.000252
0.000234
0.000257
0.000309
0.000270
0.000564
0.000300
0.000067
0.000377
0.000313
0.000237
0.001419
0.000394
0.000431
0.000317
0.000260
0.000261
0.000239
0.000235
0.000241
0.000233
0.000274
0.000255
0.000254
0.000254
0.000297
0.000355
0.000449
0.000383
0.000259
0.000261
0.000249
0.000262
0.000257
0.000281
0.000234
0.000264
0.000271
0.000180
0.000089
0.000368
0.000310
0.000252
0.000262
0.000254
0.000221
0.000258
0.000236
0.000211
0.000236
0.001428
0.000427
0.000283
0.000239
0.000254
0.000265
0.000257
0.000272
0.000241
0.000287
0.000239
0.000279
0.000258
0.000475
0.000351
0.000439
0.000271
0.000279
0.000281
0.000260
0.000145
0.000066
0.000214
0.000411
0.000250
0.000249
0.000370
0.000388
0.000413
0.000242
0.000443
0.000248
0.000242
0.000252
0.000244
0.000261
0.000243
0.001568
0.000249
0.000266
0.000273
0.000289
0.000248
0.000255
0.000258
0.000229
0.000277
0.000309
0.000436
0.000374
0.000330
0.000242
0.000160
0.000086
0.000210
0.000234
0.000244
0.000248
0.000257
0.000234
0.000265
0.000257
0.000251
0.000337
0.000515
0.000266
0.000228
0.000258
0.000272
0.000278
0.000266
0.000274
0.000226
0.000246
0.000251
0.000328
0.001247
0.000261
0.000231
0.000256
0.000248
0.000268
0.000263
0.000265
0.000161
0.000066
0.000319
0.000270
0.000364
0.000302
0.000304
0.000266
0.000256
0.000241
0.000250
0.000265
0.000274
0.000236
0.000247
0.000261
0.000254
0.000269
0.000267
0.000263
0.000250
0.000234
0.000299
0.000250
0.000243
0.000258
0.000287
0.000267
0.000277
0.000276
0.000273
0.000423
0.001366
0.000068
0.000209
0.000233
0.000245
0.000261
0.000260
0.000258
0.000212
0.000248
0.000238
0.000250
0.000267
0.000245
0.000253
0.000232
0.000301
0.000252
0.001657
0.000265
0.000260
0.000262
0.000237
0.000252
0.000264
0.000273
0.000310
0.000265
0.000228
0.000268
0.000282
0.000284
0.000193
0.000085
0.000272
0.000346
0.001329
0.000245
0.000217
0.000229
0.000236
0.000264
0.000256
0.000251
0.000298
0.000343
0.000411
0.000369
0.000258
0.000276
0.000279
0.000228
0.000256
0.000253
0.000261
0.000280
0.000284
0.000278
0.000243
0.000353
0.000350
0.000373
0.000337
0.000239
0.000197
0.000087
0.000217
0.000224
0.000244
0.000242
0.000275
0.000230
0.000244
0.000251
0.000403
0.001363
0.000258
0.000249
0.000226
0.000257
0.000275
0.000288
0.000226
0.000252
0.000286
0.000381
0.000420
0.000266
0.000249
0.000224
0.000317
0.000252
0.000268
0.000270
0.000271
0.000286
0.000177
0.000067
0.000240
0.000476
0.000362
0.000209
0.000240
0.000246
0.000288
0.000248
0.000252
0.000240
0.000250
0.000266
0.000406
0.000492
0.000479
0.001480
0.000255
0.000258
0.000305
0.000348
0.000608
0.000272
0.000520
0.000356
0.000252
0.000258
0.000297
0.000281
0.000257
0.000245
0.000193
0.000065
0.000237
0.000276
0.000424
0.000605
0.000237
0.000257
0.000201
0.000218
0.000267
0.000266
0.000250
0.000264
0.000242
0.000244
0.000263
0.000295
0.000360
0.000482
0.001383
0.000299
0.000241
0.000264
0.000263
0.000272
0.000414
0.000421
0.000403
0.000307
0.000272
0.000259
0.000128
0.000066
0.000235
0.000239
0.000240
0.000245
0.000229
0.000292
0.000415
0.000443
0.000339
0.000246
0.000225
0.000242
0.000276
0.000291
0.000291
0.000256
0.000223
0.000265
0.000277
0.000352
0.000424
0.000367
0.000309
0.001409
0.000348
0.000249
0.000358
0.000436
0.000429
0.000325
0.000234
0.000066
0.000219
0.000241
0.000245
0.000254
0.000286
0.000221
0.001664
0.000227
0.000240
0.000222
0.000271
0.000258
0.000245
0.000322
0.000353
0.000274
0.000240
0.000285
0.000566
0.000356
0.000299
0.000289
0.000245
0.000262
0.001497
0.000351
0.000371
0.000481
0.000325
0.000303
0.000150
0.000077
0.000233
0.000249
0.000240
0.000239
0.000244
0.000292
0.001684
0.000250
0.000256
0.000266
0.000307
0.000398
0.001519
0.000304
0.000398
0.000266
0.000230
0.000257
0.000251
0.000311
0.001504
0.000523
0.000434
0.000260
0.000251
0.000269
0.000267
0.000247
0.000266
0.000240
0.000189
0.000069
0.000231
0.000276
0.000278
0.000201
0.000235
0.000296
0.000261
0.000269
0.000233
0.000255
0.000256
0.000244
0.000305
0.000247
0.000262
0.001467
0.000281
0.000258
0.000267
0.000261
0.000275
0.000271
0.000401
0.001268
0.000283
0.000260
0.000262
0.000264
0.000364
0.000277
0.000170
0.000067
0.000237
0.000254
0.000248
0.000248
0.000202
0.000239
0.000253
0.001648
0.000243
0.000260
0.000373
0.000238
0.000218
0.000244
0.000253
0.001376
0.000269
0.000275
0.000234
0.000253
0.000257
0.000348
0.000273
0.001317
0.000250
0.000263
0.000251
0.000278
0.001355
0.000276
0.000212
0.000082
0.000317
0.000297
0.000210
0.000249
0.000244
0.000274
0.000267
0.000267
0.000248
0.000241
0.000241
0.000241
0.000268
0.000262
0.000276
0.001537
0.000252
0.000252
0.000263
0.000250
0.000285
0.000252
0.000248
0.001510
0.000328
0.000281
0.000277
0.001221
0.000300
0.000269
0.000140
0.000078
0.000247
0.000406
0.000295
0.000257
0.000240
0.000225
0.000256
0.000272
0.000261
0.000244
0.000259
0.000260
0.000234
0.000311
0.000389
0.001203
0.000269
0.000269
0.000272
0.000233
0.000237
0.000252
0.000249
0.000320
0.001291
0.000238
0.000248
0.000257
0.000269
0.001291
0.000463
0.000152
0.000208
0.000333
0.000243
0.000228
0.000224
0.000237
0.000261
0.000272
0.000238
0.000240
0.000261
0.000218
0.000280
0.000312
0.000443
0.001428
0.000240
0.000258
0.000283
0.000510
0.000303
0.001485
0.000294
0.000247
0.000263
0.000261
0.000270
0.001250
0.000357
0.000460
0.000329
0.000088
0.000244
0.000218
0.000252
0.000271
0.000255
0.000218
0.000300
0.000233
0.000245
0.000305
0.000370
0.000405
0.001304
0.000251
0.000259
0.000266
0.000248
0.000251
0.000245
0.000226
0.000335
0.001270
0.000240
0.000256
0.000260
0.000240
0.001475
0.000415
0.000500
0.000257
0.000185
0.000067
0.000225
0.000237
0.000246
0.000256
0.000276
0.000251
0.000222
0.000269
0.000489
0.000396
0.000258
0.001496
0.000242
0.000255
0.000243
0.000253
0.000266
0.000350
0.001642
0.000251
0.000340
0.000337
0.001308
0.000378
0.000283
0.000303
0.000294
0.000268
0.000270
0.000236
0.000183
0.000066
0.000226
0.000247
0.000294
0.000261
0.000361
0.000511
0.000287
0.000259
0.001491
0.000277
0.000322
0.000270
0.000253
0.000279
0.000393
0.001353
0.000269
0.000223
0.000261
0.000258
0.001506
0.000367
0.000298
0.000268
0.000264
0.000286
0.000413
0.000334
0.000265
0.000261
0.000204
0.000066
0.000250
0.000403
0.000304
0.000254
0.000229
0.001529
0.000218
0.000272
0.000236
0.000268
0.000269
0.000267
0.000278
0.001485
0.000249
0.000249
0.000428
0.001173
0.000344
0.000451
0.000392
0.000249
0.000279
0.000276
0.000242
0.000249
0.000408
0.000257
0.000272
0.000264
0.000177
0.000078
0.000263
0.000239
0.000335
0.000337
0.001339
0.000265
0.000334
0.000252
0.000223
0.000244
0.000231
0.000411
0.001408
0.000258
0.000242
0.000254
0.001358
0.000361
0.000350
0.000373
0.000460
0.000227
0.000262
0.000242
0.000271
0.000290
0.000258
0.000244
0.000265
0.000257
0.000184
0.000068
0.000243
0.000440
0.001376
0.000258
0.000255
0.000275
0.000236
0.000256
0.000245
0.000356
0.001431
0.000237
0.000244
0.000264
0.000271
0.001316
0.000561
0.000321
0.000325
0.000439
0.000276
0.000267
0.000279
0.000262
0.000264
0.000272
0.000291
0.000263
0.000431
0.000431
0.001406
0.000068
0.000242
0.000254
0.000217
0.000238
0.000244
0.000402
0.000462
0.001332
0.000235
0.000241
0.000251
0.001365
0.000449
0.000361
0.000253
0.000405
0.000264
0.000257
0.000233
0.000264
0.000281
0.000274
0.000267
0.000236
0.000256
0.000258
0.000420
0.000492
0.001533
0.000226
0.000148
0.000074
0.000235
0.000237
0.000346
0.001580
0.000267
0.000256
0.000230
0.000254
0.000263
0.000244
0.000226
0.000268
0.000457
0.000422
0.000293
0.000276
0.000257
0.000291
0.000258
0.000234
0.000259
0.000241
0.000269
0.000282
0.000252
0.000378
0.000479
0.000317
0.000324
0.001439
0.000176
0.000067
0.000237
0.000254
0.000213
0.000477
0.000310
0.000328
0.000319
0.000333
0.000302
0.000242
0.000259
0.000234
0.000244
0.000309
0.000251
0.000368
0.000443
0.000357
0.000344
0.000377
0.000256
0.000363
0.000253
0.000240
0.000254
0.000282
0.000282
0.000242
0.000396
0.000507
0.000232
0.000065
0.000236
0.001368
0.000240
0.000365
0.000370
0.000444
0.000402
0.000284
0.000229
0.000259
0.000249
0.000286
0.000256
0.000258
0.000231
0.000257
0.000255
0.001382
0.000256
0.000259
0.000247
0.000268
0.000245
0.000298
0.000234
0.000260
0.000269
0.000267
0.000357
0.000517
0.000273
0.000066
0.000229
0.000247
0.000242
0.001461
0.000327
0.000262
0.000228
0.000244
0.000235
0.000232
0.000257
0.000270
0.000252
0.000262
0.000283
0.000264
0.000255
0.000213
0.000263
0.000271
0.001418
0.000257
0.000221
0.000260
0.000269
0.000271
0.000303
0.000266
0.000230
0.000485
0.000324
0.000068
0.000219
0.000292
0.000376
0.000259
0.000248
0.000241
0.001528
0.000331
0.000322
0.000212
0.000274
0.000339
0.000273
0.000238
0.000241
0.000257
0.000252
0.000294
0.000224
0.000257
0.000443
0.000497
0.001134
0.000292
0.000248
0.000256
0.000268
0.000307
0.000272
0.000266
0.000340
0.000083
0.000260
0.000327
0.000240
0.000254
0.000252
0.000232
0.000237
0.000243
0.000256
0.001596
0.000434
0.000263
0.000238
0.000235
0.000262
0.000257
0.000245
0.000280
0.000259
0.000325
0.000312
0.000502
0.000409
0.001354
0.000267
0.000260
0.000271
0.000262
0.000313
0.000421
0.000278
0.000142
0.000231
0.000225
0.000230
0.000246
0.000238
0.000227
0.000244
0.000296
0.000277
0.001559
0.000356
0.000246
0.000230
0.000262
0.000448
0.000277
0.000556
0.000364
0.000296
0.000292
0.000456
0.000459
0.001273
0.000265
0.000267
0.000227
0.001681
0.000494
0.000594
0.000316
0.000149
0.000067
0.000228
0.000238
0.000244
0.000243
0.000275
0.000231
0.000237
0.000466
0.000552
0.000355
0.000290
0.000234
0.000270
0.000263
0.000255
0.000254
0.000243
0.000287
0.000256
0.000262
0.000239
0.000391
0.001358
0.000255
0.000231
0.000267
0.001922
0.000369
0.000391
0.000321
0.000152
0.000074
0.000229
0.000237
0.000242
0.001641
0.000354
0.000229
0.000250
0.000252
0.000264
0.000270
0.000359
0.000378
0.000369
0.000311
0.000249
0.000517
0.000475
0.001123
0.000296
0.000257
0.000266
0.000218
0.000266
0.000423
0.000588
0.000457
0.000292
0.000264
0.000268
0.000260
0.000178
0.000067
0.000211
0.000240
0.000235
0.001531
0.000273
0.000247
0.000255
0.000231
0.000231
0.000253
0.000240
0.000261
0.000272
0.000264
0.000270
0.000396
0.000394
0.000339
0.001418
0.000255
0.000260
0.000260
0.000254
0.000302
0.000318
0.000441
0.000465
0.000283
0.000285
0.000257
0.000410
0.000078
0.000250
0.000245
0.000246
0.001531
0.000275
0.000251
0.000247
0.000263
0.000256
0.000252
0.000262
0.000242
0.000247
0.000245
0.000352
0.000597
0.001348
0.000745
0.000287
0.000312
0.000250
0.000248
0.000242
0.000299
0.001651
0.000795
0.000259
0.000262
0.000258
0.000275
0.000184
0.000087
0.000202
0.000240
0.000240
0.000246
0.000263
0.000264
0.000225
0.000246
0.000237
0.000235
0.000271
0.000281
0.000255
0.000234
0.000256
0.000288
0.000257
0.001583
0.000703
0.000409
0.000275
0.000243
0.000258
0.000321
0.000255
0.000247
0.000265
0.000276
0.001369
0.000387
0.000316
0.000066
0.000259
0.000231
0.000241
0.000212
0.000259
0.000253
0.000239
0.000249
0.000240
0.000267
0.000336
0.000355
0.000505
0.000261
0.000257
0.000254
0.000245
0.001361
0.000689
0.000467
0.000356
0.000255
0.000258
0.000275
0.000270
0.000244
0.000261
0.000261
0.001439
0.000457
0.000182
0.000066
0.000236
0.000280
0.000240
0.000236
0.000233
0.000238
0.000248
0.000271
0.000262
0.000290
0.000305
0.000408
0.000277
0.000223
0.000238
0.000249
0.000307
0.000250
0.001575
0.000599
0.000448
0.000319
0.000248
0.000264
0.000302
0.000240
0.000258
0.000246
0.000260
0.001394
0.000301
0.000065
0.000235
0.000223
0.000238
0.000270
0.000249
0.000212
0.000255
0.000294
0.000367
0.000423
0.000426
0.000348
0.000348
0.000259
0.000253
0.000262
0.000305
0.000257
0.000216
0.001904
0.000341
0.000264
0.000393
0.000261
0.000295
0.000263
0.000232
0.000266
0.000269
0.000260
0.000248
0.000067
0.000227
0.000284
0.000253
0.000245
0.000247
0.000238
0.000251
0.000249
0.000258
0.000245
0.000220
0.000274
0.000318
0.000390
0.000478
0.000434
0.000234
0.000258
0.000244
0.000253
0.000304
0.000259
0.001427
0.001041
0.000248
0.000251
0.000275
0.000266
0.000304
0.000268
0.000141
0.000067
0.000248
0.001288
0.000313
0.000246
0.000248
0.000253
0.000241
0.000238
0.000248
0.000241
0.000223
0.000261
0.000305
0.000315
0.000354
0.000477
0.000262
0.000258
0.000261
0.000261
0.000268
0.000306
0.000239
0.000243
0.001384
0.000599
0.000307
0.000390
0.000369
0.000449
0.000239
0.000069
0.000233
0.000261
0.000367
0.001242
0.000244
0.000249
0.000238
0.000253
0.000281
0.000268
0.000254
0.000214
0.000267
0.000364
0.000581
0.000238
0.000253
0.000261
0.000328
0.000263
0.000266
0.000218
0.000272
0.000259
0.000233
0.002021
0.000326
0.000252
0.000288
0.000265
0.000169
0.000080
0.000212
0.000310
0.000359
0.000366
0.001261
0.000264
0.000250
0.000227
0.000242
0.000232
0.000264
0.000249
0.000227
0.000252
0.000262
0.000256
0.000235
0.000262
0.000256
0.000257
0.000264
0.000267
0.000274
0.000330
0.000247
0.000312
0.000262
0.001392
0.000266
0.000269
0.000137
0.000068
0.000250
0.000246
0.000249
0.000222
0.000348
0.000363
0.000388
0.000276
0.001570
0.000281
0.000270
0.000496
0.000358
0.000221
0.000414
0.000250
0.000272
0.000271
0.000245
0.000263
0.000258
0.000272
0.000284
0.000272
0.000279
0.000347
0.000424
0.000334
0.001555
0.000244
0.000170
0.000090
0.000208
0.000240
0.000253
0.000263
0.000257
0.000256
0.000221
0.000303
0.000429
0.002015
0.000242
0.000256
0.000253
0.000258
0.000264
0.000249
0.000267
0.000261
0.000418
0.000310
0.000444
0.000307
0.001455
0.000266
0.000251
0.002027
0.000254
0.000268
0.000265
0.001477
0.000206
0.000066
0.000207
0.000493
0.000411
0.000223
0.000269
0.000267
0.000273
0.000265
0.000241
0.000229
0.000211
0.000349
0.000435
0.000339
0.000406
0.000273
0.000224
0.001541
0.000247
0.000605
0.001839
0.000303
0.000269
0.001530
0.001995
0.000734
0.000299
0.000270
0.000289
0.000425
0.000289
0.000078
0.000243
0.000271
0.000244
0.000246
0.001357
0.001738
0.001071
0.000242
0.000246
0.001541
0.001995
0.000212
0.000287
0.000373
0.000288
0.000336
0.000455
0.000467
0.000225
0.000250
0.000244
0.000273
0.000261
0.001567
0.001211
0.001427
0.000291
0.000266
0.000284
0.000345
0.000310
0.000065
0.000240
0.000242
0.000245
0.000248
0.000203
0.000303
0.000240
0.000198
0.000246
0.000258
0.000267
0.000272
0.000449
0.000430
0.000344
0.000234
0.000279
0.000258
0.000266
0.000298
0.000229
0.000262
0.001501
0.000429
0.002149
0.000252
0.000307
0.000349
0.000342
0.000406
0.000177
0.000070
0.000225
0.000411
0.000402
0.000305
0.000219
0.000238
0.000242
0.000260
0.000258
0.000243
0.000211
0.000284
0.000257
0.001578
0.001344
0.001256
0.000259
0.000254
0.000282
0.000273
0.000235
0.000272
0.000267
0.000257
0.002187
0.000250
0.000275
0.000326
0.000312
0.000304
0.000175
0.000066
0.000259
0.000326
0.000537
0.000342
0.000234
0.000249
0.000251
0.000251
0.001863
0.001458
0.000227
0.000285
0.000386
0.000416
0.000259
0.000257
0.000290
0.000239
0.000270
0.000256
0.000267
0.000307
0.000379
0.000248
0.000271
0.000271
0.000288
0.000236
0.000291
0.000265
0.000168
0.000066
0.000241
0.000218
0.000240
0.000247
0.000285
0.000264
0.001521
0.001406
0.001339
0.000237
0.000242
0.000281
0.000264
0.000257
0.000230
0.000241
0.000259
0.002091
0.000243
0.000245
0.000262
0.000262
0.000268
0.000275
0.000270
0.000246
0.000233
0.000256
0.000280
0.000263
0.000179
0.000069
0.000233
0.002630
0.001415
0.000263
0.000257
0.000319
0.000252
0.000264
0.000247
0.000243
0.000255
0.000232
0.000248
0.000245
0.000259
0.000325
0.000265
0.000255
0.000219
0.000263
0.000288
0.000277
0.000275
0.000236
0.000248
0.000253
0.000269
0.000268
0.000274
0.000272
0.000331
0.000088
0.001533
0.000235
0.001231
0.000246
0.000241
0.000291
0.000224
0.000252
0.000237
0.000321
0.000342
0.000336
0.000321
0.000254
0.000255
0.002131
0.000246
0.000268
0.000274
0.000447
0.000370
0.000310
0.000249
0.000249
0.000257
0.000259
0.000313
0.000308
0.000237
0.001593
0.001220
0.000070
0.000223
0.000245
0.000242
0.000427
0.000380
0.000247
0.000241
0.000240
0.000224
0.000245
0.000270
0.000255
0.000288
0.000218
0.000259
0.000258
0.000348
0.000556
0.000352
0.000242
0.000252
0.000273
0.000268
0.000247
0.000260
0.000284
0.000249
0.000280
0.000266
0.000309
0.000309
0.000067
0.001128
0.000226
0.000358
0.000462
0.000290
0.000225
0.000240
0.000245
0.000258
0.002265
0.000346
0.000398
0.000252
0.000343
0.000306
0.000256
0.000237
0.000254
0.000269
0.000305
0.000244
0.000311
0.000569
0.000395
0.001857
0.001312
0.000566
0.000494
0.000268
0.000278
0.000169
0.000073
0.000316
0.000272
0.000249
0.000227
0.000253
0.000249
0.000289
0.000253
0.000255
0.000256
0.000221
0.000242
0.000251
0.000253
0.000392
0.000471
0.001816
0.001408
0.000367
0.000468
0.000430
0.000262
0.000256
0.000256
0.002106
0.000545
0.000387
0.000274
0.000276
0.000248
0.000190
0.000069
0.000240
0.000242
0.000247
0.000275
0.000269
0.000275
0.000415
0.000305
0.000315
0.000265
0.000227
0.000250
0.000273
0.002079
0.000390
0.000350
0.000244
0.000264
0.000271
0.000236
0.000249
0.002453
0.000343
0.000230
0.000266
0.000244
0.000266
0.000286
0.000281
0.000257
0.000170
0.000065
0.000265
0.000393
0.000442
0.000362
0.000272
0.000226
0.000249
0.000260
0.000232
0.000283
0.001919
0.000401
0.000275
0.000271
0.000263
0.000252
0.000264
0.000236
0.002198
0.000437
0.000261
0.000257
0.000264
0.000265
0.000249
0.000260
0.000264
0.000246
0.000273
0.000289
0.000155
0.000097
0.000222
0.000232
0.000245
0.000249
0.000264
0.000230
0.000230
0.000245
0.000221
0.002177
0.000262
0.000248
0.000250
0.000387
0.000247
0.000264
0.000284
0.000268
0.000259
0.000263
0.001936
0.000324
0.000327
0.000345
0.000444
0.000453
0.000272
0.000233
0.000284
0.000265
0.000143
0.000068
0.000229
0.000245
0.000237
0.000253
0.000238
0.000313
0.000228
0.002302
0.000258
0.000264
0.000244
0.000241
0.000246
0.000268
0.000285
0.002087
0.000593
0.000253
0.000251
0.000240
0.000265
0.000266
0.000267
0.000269
0.000267
0.000266
0.000296
0.000274
0.000260
0.000282
0.000140
0.000069
0.001813
0.001440
0.000224
0.000246
0.000252
0.000227
0.000234
0.000260
0.000495
0.000280
0.002155
0.000285
0.000268
0.000217
0.000322
0.000504
0.000384
0.000263
0.000248
0.000249
0.000227
0.000296
0.000268
0.000213
0.000286
0.000264
0.000259
0.000244
0.000330
0.000622
0.000342
0.000065
0.000227
0.000246
0.000277
0.000246
0.000232
0.000236
0.000247
0.000267
0.001486
0.002096
0.000569
0.000281
0.000400
0.000708
0.000344
0.000262
0.000257
0.000305
0.000228
0.000264
0.000230
0.000249
0.000278
0.000280
0.002967
0.000305
0.000272
0.000277
0.000256
0.000339
0.000329
0.000066
0.001936
0.000230
0.000260
0.000254
0.000259
0.000494
0.000287
0.000321
0.000268
0.000252
0.000245
0.000293
0.000253
0.000222
0.000262
0.000262
0.000261
0.000245
0.001807
0.000260
0.000261
0.000298
0.000230
0.000256
0.000262
0.000271
0.001461
0.000332
0.000275
0.000229
0.000170
0.000088
0.000225
0.000240
0.000220
0.000244
0.000245
0.000243
0.000289
0.000378
0.000305
0.000404
0.000252
0.000239
0.000253
0.000308
0.000449
0.000283
0.000249
0.000253
0.000291
0.000344
0.000457
0.000386
0.000292
0.000268
0.000271
0.000269
0.000222
0.000300
0.000253
0.000287
0.000141
0.000068
0.001416
0.000448
0.000258
0.001911
0.000323
0.000391
0.000411
0.000315
0.000244
0.000260
0.000236
0.000241
0.000255
0.000281
0.000259
0.000232
0.000451
0.000251
0.000499
0.000303
0.000367
0.000255
0.000264
0.000248
0.000261
0.000259
0.000303
0.000265
0.000373
0.000459
0.001328
0.000066
0.000238
0.000246
0.002019
0.000365
0.000275
0.000240
0.000271
0.000268
0.000239
0.000239
0.000248
0.000258
0.000299
0.000221
0.000257
0.000346
0.000687
0.001758
0.000258
0.000254
0.000274
0.000284
0.000301
0.000473
0.001566
0.000343
0.000351
0.001864
0.000274
0.000277
0.000156
0.000066
0.000237
0.000231
0.000248
0.000245
0.000247
0.000219
0.000303
0.000244
0.000281
0.000278
0.000388
0.000358
0.000385
0.000250
0.000273
0.000263
0.000255
0.000235
0.000244
0.000255
0.000334
0.000254
0.000261
0.000260
0.000280
0.001498
0.000290
0.000384
0.002082
0.000246
0.000156
0.000070
0.000238
0.000251
0.000239
0.000232
0.000463
0.000230
0.000327
0.000281
0.000326
0.000354
0.000265
0.000269
0.000260
0.000232
0.000258
0.000323
0.000432
0.000423
0.000263
0.000445
0.000494
0.000391
0.001627
0.000250
0.000254
0.001954
0.000323
0.000266
0.000261
0.000268
0.000180
0.000066
0.000229
0.000243
0.000240
0.000244
0.000268
0.000247
0.000223
0.000274
0.000254
0.000281
0.001775
0.000330
0.000382
0.000322
0.000440
0.000375
0.000350
0.001488
0.000253
0.000254
0.002159
0.000512
0.000281
0.000260
0.000276
0.000269
0.000452
0.000264
0.000298
0.000246
0.000154
0.000067
0.000285
0.000342
0.000377
0.000294
0.000240
0.000244
0.000253
0.000257
0.000239
0.000293
0.000279
0.000252
0.000249
0.000223
0.000411
0.000450
0.001260
0.000263
0.000286
0.001904
0.000386
0.000281
0.000255
0.000250
0.000305
0.000269
0.000266
0.000259
0.000221
0.000306
0.000138
0.000067
0.000285
0.000403
0.002034
0.000240
0.000221
0.000291
0.000225
0.000250
0.000562
0.000311
0.001325
0.000353
0.000357
0.002079
0.000239
0.000258
0.000234
0.000277
0.000268
0.000285
0.000273
0.000271
0.000322
0.000394
0.000347
0.000371
0.002288
0.000276
0.000506
0.000530
0.000321
0.000068
0.000228
0.000210
0.000245
0.001972
0.000253
0.000241
0.000240
0.000242
0.000243
0.000270
0.000254
0.000214
0.000278
0.000238
0.000433
0.001494
0.000255
0.000265
0.000270
0.000243
0.000240
0.000262
0.000264
0.000259
0.000422
0.000329
0.000481
0.000287
0.001551
0.000270
0.000172
0.000070
0.000208
0.000224
0.000253
0.000222
0.000257
0.000274
0.000228
0.000246
0.000242
0.000398
0.000398
0.001361
0.000247
0.000245
0.000242
0.000270
0.000253
0.000291
0.000215
0.000567
0.000458
0.000329
0.000272
0.001551
0.000231
0.000300
0.000268
0.000264
0.000310
0.000266
0.000119
0.000067
0.000243
0.000259
0.000266
0.000221
0.000260
0.000245
0.000260
0.000253
0.000250
0.000256
0.000221
0.000283
0.000256
0.001437
0.000346
0.000238
0.000259
0.000277
0.000257
0.000308
0.000365
0.000314
0.000232
0.000260
0.000244
0.000281
0.000288
0.001346
0.000278
0.000245
0.000160
0.000066
0.000254
0.000248
0.000234
0.000244
0.000260
0.000255
0.000248
0.000229
0.000233
0.000262
0.000258
0.000258
0.000225
0.000301
0.000323
0.000416
0.000280
0.000236
0.001579
0.000255
0.000261
0.000268
0.000262
0.000311
0.000341
0.000422
0.000419
0.000277
0.000250
0.001572
0.000148
0.000069
0.000309
0.000384
0.000387
0.000248
0.000252
0.000231
0.000267
0.000257
0.000240
0.000237
0.000239
0.000241
0.001481
0.000287
0.000284
0.000249
0.000259
0.000262
0.000254
0.000243
0.000264
0.000240
0.000263
0.000274
0.000240
0.000311
0.000552
0.000346
0.000248
0.000255
0.000161
0.000067
0.000240
0.000246
0.000400
0.000355
0.000396
0.000268
0.000244
0.000242
0.000242
0.000252
0.000242
0.000239
0.000263
0.000234
0.001252
0.000343
0.000225
0.000255
0.000241
0.000271
0.000275
0.000259
0.000247
0.000250
0.000258
0.000249
0.000320
0.000649
0.000490
0.000263
0.000130
0.000066
0.000234
0.001545
0.000281
0.000292
0.000498
0.000332
0.000246
0.000221
0.000260
0.000257
0.000265
0.000263
0.000260
0.000249
0.000271
0.001556
0.000297
0.000226
0.000265
0.000267
0.000239
0.000256
0.000271
0.000265
0.000236
0.000307
0.000436
0.000314
0.000359
0.000307
0.000127
0.000066
0.000200
0.000265
0.000248
0.001589
0.000412
0.000372
0.000236
0.000274
0.000248
0.000243
0.000261
0.000255
0.000245
0.000245
0.000269
0.000243
0.000436
0.001279
0.000294
0.000259
0.001436
0.000433
0.000485
0.000388
0.000313
0.000254
0.000292
0.000428
0.000258
0.000264
0.000149
0.000066
0.000276
0.000214
0.000256
0.000253
0.000279
0.000237
0.000228
0.000241
0.000272
0.000269
0.000266
0.000277
0.000262
0.000493
0.001673
0.001471
0.000352
0.000586
0.000290
0.000256
0.000217
0.000272
0.000285
0.000262
0.000241
0.000264
0.000250
0.000284
0.001480
0.000313
0.000200
0.000067
0.000234
0.000340
0.000336
0.000335
0.000260
0.000223
0.000249
0.000384
0.000378
0.000356
0.002184
0.000311
0.000716
0.000575
0.000409
0.000249
0.000314
0.000411
0.000333
0.000264
0.000422
0.000258
0.001522
0.000506
0.000243
0.000263
0.000286
0.000280
0.000234
0.000270
0.000159
0.000066
0.000251
0.000254
0.000233
0.000225
0.000239
0.001685
0.000849
0.000989
0.000231
0.000255
0.000264
0.000230
0.000242
0.000264
0.000262
0.000284
0.000218
0.000260
0.000260
0.000289
0.001416
0.000317
0.000266
0.000229
0.000258
0.000264
0.000296
0.000269
0.000241
0.000280
0.001868
0.000068
0.000216
0.000237
0.001515
0.000916
0.000339
0.000372
0.000250
0.000246
0.000256
0.000217
0.000301
0.000251
0.000208
0.002082
0.000346
0.000218
0.000227
0.000274
0.000260
0.000279
0.000169
