0.000097
0.016471
0.005194
0.000275
0.000265
0.000286
0.000306
0.000245
0.000331
0.000283
0.000247
0.000352
0.000479
0.000528
0.000365
0.000369
0.000265
0.000349
0.000350
0.000413
0.000312
0.001935
0.000685
0.000250
0.000254
0.000307
0.000297
0.000338
0.000427
0.000425
0.000503
0.000239
0.000059
0.000193
0.000268
0.000269
0.000260
0.000322
0.000195
0.000285
0.000278
0.000256
0.000285
0.000435
0.000441
0.000316
0.000258
0.000414
0.000304
0.000361
0.000256
0.000248
0.001694
0.000330
0.000241
0.000461
0.000229
0.000281
0.000289
0.000284
0.000296
0.000277
0.000317
0.000420
0.000057
0.000247
0.000258
0.000263
0.000259
0.000253
0.000242
0.000262
0.000261
0.000283
0.001670
0.000224
0.000246
0.000263
0.000276
0.000272
0.000251
0.000262
0.000262
0.000361
0.001792
0.000241
0.000266
0.000449
0.000468
0.000356
0.000238
0.000248
0.000554
0.000435
0.000748
0.000191
0.000056
0.000184
0.000249
0.000248
0.000243
0.000303
0.000253
0.000490
0.000402
0.000354
0.000254
0.000250
0.000245
0.000240
0.000262
0.000256
0.000251
0.000278
0.000236
0.000298
0.000333
0.001661
0.000292
0.000245
0.000407
0.000295
0.000704
0.000766
0.000434
0.000353
0.000224
0.000194
0.000075
0.000213
0.000247
0.000261
0.000242
0.000259
0.000255
0.000272
0.000655
0.001272
0.000212
0.000255
0.000241
0.000261
0.000246
0.000270
0.000278
0.000273
0.000822
0.001387
0.000278
0.000461
0.000259
0.000197
0.000247
0.000255
0.000257
0.000266
0.000268
0.000263
0.000271
0.000197
0.000057
0.000200
0.000245
0.000243
0.000271
0.000238
0.000237
0.000244
0.000256
0.000234
0.000256
0.001632
0.000260
0.000249
0.000233
0.000248
0.000250
0.000245
0.000250
0.000252
0.000257
0.000265
0.001668
0.000300
0.000243
0.000433
0.000256
0.000260
0.000251
0.000262
0.000265
0.000199
0.000055
0.000205
0.000223
0.000252
0.000248
0.000241
0.000249
0.000261
0.000240
0.000263
0.000240
0.000279
0.000239
0.000280
0.000254
0.001645
0.000278
0.000296
0.000213
0.000246
0.000277
0.000263
0.000241
0.000244
0.000263
0.001789
0.000399
0.000340
0.000343
0.000260
0.000278
0.000194
0.000055
0.000229
0.000237
0.000243
0.000265
0.000257
0.000237
0.000282
0.000476
0.000368
0.000405
0.000212
0.000246
0.000258
0.000245
0.001563
0.000541
0.000296
0.000424
0.000316
0.000223
0.000270
0.000282
0.000275
0.001728
0.000646
0.000343
0.000234
0.000250
0.000246
0.000268
0.000180
0.000056
0.000205
0.000227
0.000256
0.000288
0.000390
0.000365
0.000400
0.000260
0.000214
0.000243
0.000268
0.000235
0.000254
0.001695
0.000506
0.000297
0.000218
0.000252
0.000273
0.000281
0.000244
0.000261
0.000277
0.001893
0.000303
0.000390
0.000262
0.000243
0.000262
0.000411
0.000329
0.000056
0.000205
0.000383
0.000361
0.000297
0.000235
0.000245
0.000247
0.000266
0.000238
0.000232
0.000236
0.000248
0.001610
0.000340
0.000270
0.000229
0.000255
0.000256
0.000240
0.000284
0.000280
0.000329
0.000245
0.001816
0.000243
0.000506
0.000239
0.000249
0.000266
0.000264
0.000267
0.000055
0.000424
0.000534
0.000601
0.000203
0.000224
0.000278
0.000230
0.000216
0.000264
0.000253
0.000250
0.001707
0.000248
0.000434
0.000374
0.000219
0.000241
0.000221
0.000256
0.000266
0.000247
0.001881
0.000214
0.000240
0.002087
0.000511
0.000364
0.000245
0.000270
0.000250
0.000184
0.000056
0.000216
0.000237
0.000244
0.000246
0.000251
0.001634
0.000244
0.000248
0.000236
0.000252
0.000244
0.000264
0.000227
0.000256
0.000268
0.000428
0.000622
0.000257
0.000230
0.000266
0.000266
0.000250
0.000242
0.000435
0.000445
0.000250
0.000425
0.000751
0.000196
0.000244
0.000193
0.000057
0.000215
0.000234
0.000250
0.000248
0.000233
0.000254
0.000241
0.000434
0.000455
0.001657
0.000215
0.000233
0.000241
0.000251
0.000258
0.000270
0.000450
0.000468
0.000344
0.000240
0.000252
0.000301
0.000287
0.000302
0.000234
0.000432
0.000340
0.000606
0.000463
0.000448
0.000172
0.000056
0.000190
0.000298
0.000213
0.000220
0.000244
0.000239
0.000248
0.000240
0.000249
0.000299
0.000341
0.000467
0.001348
0.000246
0.000237
0.000245
0.000259
0.000253
0.000243
0.000251
0.000281
0.000441
0.000443
0.000255
0.000256
0.000258
0.000258
0.000269
0.000267
0.000265
0.000390
0.000055
0.000216
0.000237
0.000230
0.000275
0.000666
0.000297
0.000234
0.000254
0.000236
0.000257
0.000247
0.000238
0.000296
0.000248
0.000237
0.000506
0.000425
0.001624
0.000284
0.000222
0.000251
0.000266
0.000263
0.000235
0.000269
0.000477
0.000442
0.000347
0.000418
0.000228
0.000199
0.000057
0.000173
0.000432
0.000237
0.000208
0.000266
0.000243
0.000256
0.000624
0.000311
0.000330
0.000212
0.000275
0.000265
0.000233
0.000517
0.000350
0.000221
0.000283
0.000418
0.001601
0.000272
0.000261
0.000499
0.000240
0.000275
0.000277
0.000257
0.000361
0.000538
0.000370
0.000280
0.000056
0.000207
0.000231
0.000236
0.000254
0.000412
0.000299
0.000294
0.000224
0.000359
0.000584
0.000304
0.000265
0.000227
0.000242
0.000259
0.000267
0.000253
0.000256
0.000225
0.000354
0.000292
0.000343
0.001842
0.000250
0.000243
0.000250
0.000299
0.000346
0.000518
0.000570
0.000457
0.000055
0.000238
0.000329
0.000283
0.000445
0.000366
0.000205
0.000253
0.000294
0.000535
0.000487
0.000193
0.000218
0.000238
0.000270
0.000266
0.000246
0.000244
0.000264
0.000270
0.000258
0.000273
0.000513
0.000599
0.001296
0.000347
0.000414
0.000420
0.000248
0.000417
0.000420
0.000320
0.000056
0.000257
0.000380
0.000270
0.000208
0.000239
0.000227
0.000421
0.000237
0.000248
0.000415
0.000364
0.000439
0.000240
0.000259
0.000262
0.000251
0.000367
0.000387
0.000351
0.000238
0.000242
0.000329
0.000686
0.001686
0.000221
0.000485
0.000266
0.000234
0.000239
0.000498
0.000267
0.000056
0.000234
0.000233
0.000239
0.000244
0.000244
0.000254
0.000264
0.000311
0.000464
0.000257
0.000482
0.000346
0.000283
0.000585
0.000248
0.000232
0.000273
0.000269
0.000247
0.000343
0.000223
0.000234
0.000272
0.000352
0.000535
0.001683
0.000256
0.000243
0.000261
0.000259
0.000179
0.000057
0.000353
0.000504
0.000293
0.000223
0.000236
0.000252
0.000258
0.000240
0.000258
0.000256
0.000214
0.000251
0.000437
0.000570
0.000331
0.000281
0.000257
0.000237
0.000363
0.000378
0.000385
0.000368
0.000383
0.000329
0.000252
0.000244
0.000265
0.000281
0.001793
0.000245
0.000209
0.000057
0.000186
0.000216
0.000255
0.000280
0.000363
0.000542
0.000316
0.000208
0.000261
0.000259
0.000249
0.000246
0.000524
0.000453
0.000475
0.000288
0.000262
0.000263
0.000426
0.000467
0.000351
0.000398
0.000513
0.000427
0.000244
0.000233
0.000280
0.000242
0.000263
0.001712
0.000348
0.000058
0.000185
0.000324
0.000215
0.000232
0.000253
0.000251
0.000240
0.000505
0.000368
0.000310
0.000295
0.000267
0.000371
0.000659
0.000317
0.000228
0.000245
0.000254
0.000256
0.000263
0.000269
0.000266
0.000242
0.000268
0.000337
0.000334
0.000396
0.000366
0.000248
0.000246
0.000188
0.000055
0.000481
0.000250
0.000479
0.000250
0.000201
0.000243
0.000249
0.000255
0.000239
0.000222
0.000252
0.000279
0.000295
0.000388
0.000598
0.000402
0.000294
0.000317
0.000388
0.000335
0.000292
0.000254
0.000229
0.000255
0.001762
0.000250
0.001723
0.000934
0.000410
0.000320
0.000168
0.000057
0.000197
0.000236
0.000231
0.000250
0.000253
0.000247
0.000254
0.000250
0.000242
0.000363
0.000358
0.000395
0.000356
0.000362
0.000244
0.000277
0.000258
0.000293
0.000203
0.000246
0.000252
0.000275
0.001811
0.000234
0.000248
0.000263
0.000282
0.000263
0.001876
0.000542
0.000264
0.000057
0.000226
0.000203
0.000258
0.000228
0.000255
0.000258
0.000231
0.000253
0.000256
0.000381
0.000624
0.000432
0.000237
0.000201
0.000229
0.000263
0.000330
0.000443
0.000378
0.000249
0.001768
0.000250
0.000244
0.000252
0.000263
0.000270
0.000241
0.000251
0.000337
0.000298
0.000394
0.000076
0.000217
0.000223
0.000235
0.000255
0.000251
0.000243
0.000255
0.000255
0.000239
0.000255
0.000240
0.000261
0.000425
0.000403
0.000308
0.000273
0.000462
0.000227
0.000250
0.000261
0.000257
0.000257
0.000274
0.000261
0.000274
0.001800
0.000248
0.000244
0.000253
0.000240
0.000197
0.000056
0.000326
0.000309
0.000225
0.000223
0.000244
0.000229
0.000240
0.000248
0.000251
0.000222
0.000237
0.000266
0.000253
0.000354
0.000447
0.000368
0.000247
0.000239
0.000248
0.000258
0.000261
0.000262
0.000246
0.000270
0.000250
0.000271
0.000291
0.001652
0.000271
0.000222
0.000197
0.000058
0.000201
0.000241
0.000250
0.000265
0.000364
0.000445
0.000312
0.000313
0.000198
0.000261
0.000244
0.000247
0.000242
0.000261
0.000267
0.000249
0.000244
0.000260
0.000248
0.000262
0.000270
0.000268
0.000259
0.000225
0.000244
0.000278
0.000274
0.000263
0.000256
0.000261
0.000195
0.000056
0.000194
0.000232
0.000256
0.000253
0.000237
0.000252
0.000257
0.000244
0.000309
0.000215
0.000225
0.000249
0.000253
0.000250
0.000270
0.000267
0.000250
0.000255
0.000302
0.000243
0.000273
0.000296
0.000274
0.000241
0.000281
0.000277
0.000271
0.000245
0.000274
0.000564
0.000565
0.000055
0.000232
0.000284
0.000229
0.000218
0.000235
0.000253
0.000239
0.000249
0.000254
0.000242
0.000269
0.000272
0.000563
0.000504
0.001455
0.000229
0.000486
0.000238
0.000327
0.000388
0.000428
0.000392
0.000224
0.000279
0.000254
0.000253
0.000281
0.000255
0.000312
0.000254
0.000185
0.000056
0.000336
0.000444
0.000324
0.000332
0.000198
0.000261
0.000249
0.000240
0.000236
0.000242
0.000259
0.000258
0.000227
0.000291
0.000363
0.000523
0.000335
0.001805
0.000226
0.000252
0.000328
0.000434
0.000426
0.000323
0.000317
0.000313
0.000305
0.000238
0.000227
0.000249
0.000189
0.000056
0.000180
0.000224
0.000239
0.000295
0.000352
0.000433
0.000351
0.000257
0.000257
0.000210
0.000248
0.000269
0.000265
0.000266
0.000247
0.000257
0.000286
0.000514
0.000365
0.000410
0.000225
0.001750
0.000339
0.000479
0.000497
0.000537
0.000272
0.000230
0.000242
0.000270
0.000453
0.000056
0.000202
0.000253
0.000231
0.000285
0.000479
0.000397
0.000400
0.000207
0.000238
0.000286
0.000248
0.000261
0.000249
0.000307
0.000297
0.000233
0.000256
0.000347
0.000515
0.000364
0.000438
0.001854
0.000246
0.000409
0.000530
0.000372
0.000222
0.000257
0.000276
0.000268
0.000213
0.000057
0.000205
0.000333
0.000363
0.000326
0.000394
0.000315
0.000346
0.000218
0.000234
0.000265
0.000280
0.000230
0.000237
0.000264
0.000238
0.000259
0.000326
0.000362
0.000519
0.000360
0.000309
0.000220
0.000264
0.001720
0.000438
0.000479
0.000698
0.000256
0.000241
0.000315
0.000154
0.000055
0.000184
0.000255
0.000308
0.000254
0.000263
0.000336
0.000434
0.000341
0.000232
0.000567
0.000203
0.000235
0.000257
0.000279
0.000293
0.000247
0.000214
0.000436
0.000370
0.000450
0.000267
0.000222
0.000258
0.000249
0.000273
0.000264
0.000231
0.000261
0.000278
0.000278
0.000173
0.000057
0.000325
0.000319
0.000233
0.000249
0.000243
0.000261
0.000237
0.000295
0.000239
0.000244
0.000259
0.000358
0.000429
0.000397
0.000370
0.000246
0.000213
0.000237
0.000264
0.000263
0.000304
0.000252
0.000237
0.000255
0.000289
0.000317
0.000417
0.000356
0.000358
0.000228
0.000180
0.000056
0.000202
0.000228
0.000278
0.000244
0.000233
0.000253
0.000278
0.000237
0.000491
0.000213
0.000255
0.000251
0.000250
0.000264
0.000276
0.000272
0.000263
0.000347
0.000223
0.000240
0.000270
0.000271
0.000236
0.000278
0.000272
0.000275
0.000245
0.000253
0.000526
0.000244
0.000145
0.000056
0.000200
0.000238
0.000247
0.000268
0.000234
0.000231
0.000362
0.000407
0.000239
0.000237
0.000243
0.000261
0.000238
0.000290
0.000359
0.001841
0.000228
0.000270
0.000285
0.000385
0.000371
0.000363
0.000357
0.000390
0.000372
0.000433
0.000242
0.000257
0.000268
0.000274
0.001394
0.000056
0.000429
0.000258
0.000291
0.000210
0.000231
0.000253
0.000233
0.000251
0.000241
0.000271
0.000246
0.000261
0.000251
0.000337
0.000541
0.001593
0.000231
0.000228
0.000239
0.000269
0.000237
0.000269
0.000335
0.000422
0.000295
0.000346
0.000246
0.000244
0.000279
0.000257
0.000204
0.000057
0.001198
0.000531
0.000354
0.000269
0.000218
0.000223
0.000239
0.000237
0.000485
0.000220
0.000245
0.000245
0.000349
0.000540
0.000379
0.000352
0.000244
0.000223
0.000353
0.000338
0.000272
0.000257
0.000275
0.000246
0.000266
0.000677
0.000421
0.000298
0.000253
0.000267
0.000170
0.000057
0.000206
0.000215
0.000243
0.000248
0.001547
0.000222
0.000220
0.000257
0.000236
0.000268
0.000233
0.000252
0.000246
0.000259
0.000270
0.000305
0.000854
0.000283
0.000207
0.001753
0.000260
0.000273
0.000308
0.000394
0.000596
0.000374
0.000240
0.000252
0.000264
0.000269
0.000191
0.000056
0.000187
0.000247
0.000238
0.000332
0.001244
0.000229
0.000255
0.000259
0.000241
0.000256
0.000215
0.000250
0.000282
0.000249
0.000251
0.000298
0.000498
0.000388
0.000313
0.000263
0.000267
0.000269
0.000249
0.000251
0.000279
0.000257
0.000245
0.000275
0.000281
0.000777
0.000117
0.000057
0.000217
0.000245
0.000234
0.000261
0.000265
0.000240
0.000234
0.000262
0.000271
0.000256
0.001430
0.000231
0.000232
0.000255
0.000240
0.000249
0.000272
0.000257
0.000260
0.000270
0.000274
0.000494
0.000432
0.000413
0.000223
0.000270
0.001772
0.000249
0.000255
0.000353
0.000402
0.000056
0.000222
0.000388
0.000453
0.000509
0.000509
0.000535
0.001494
0.000420
0.000520
0.000658
0.000554
0.000816
0.000383
0.000616
0.000587
0.001885
0.000451
0.000405
0.000373
0.000321
0.000236
0.000300
0.000253
0.000263
0.000264
0.000295
0.000285
0.000288
0.000259
0.000282
0.001369
0.000057
0.000218
0.000218
0.000240
0.000242
0.000258
0.000254
0.000234
0.000241
0.000263
0.000237
0.000241
0.000246
0.000247
0.000262
0.000273
0.000269
0.001814
0.000283
0.000235
0.000249
0.000256
0.000261
0.000270
0.000266
0.000490
0.000334
0.000355
0.000280
0.000215
0.000284
0.000204
0.000057
0.000194
0.001369
0.000329
0.000267
0.000253
0.000240
0.000264
0.000212
0.000236
0.000237
0.000222
0.000245
0.000257
0.000497
0.000364
0.000283
0.000266
0.000255
0.001931
0.000228
0.000250
0.000257
0.000268
0.000249
0.000276
0.000282
0.000276
0.000252
0.000265
0.000337
0.000188
0.000058
0.000192
0.000244
0.000245
0.001443
0.000224
0.000247
0.000239
0.000246
0.000238
0.000272
0.000250
0.000245
0.000244
0.000263
0.000251
0.000265
0.000252
0.000272
0.000266
0.000257
0.000262
0.001778
0.000274
0.001753
0.000268
0.000257
0.000247
0.000277
0.000287
0.000249
0.000203
0.000057
0.000191
0.000242
0.001396
0.000194
0.000250
0.000240
0.000257
0.000256
0.000239
0.000249
0.000250
0.000245
0.000267
0.000256
0.000258
0.000263
0.000262
0.000286
0.000291
0.000233
0.001885
0.000226
0.001835
0.000236
0.000257
0.000277
0.000232
0.000245
0.000274
0.000256
0.000198
0.000057
0.001470
0.000186
0.000224
0.000235
0.000240
0.000243
0.000369
0.000272
0.000248
0.000254
0.000251
0.000262
0.000236
0.000470
0.000357
0.000232
0.000243
0.000269
0.000261
0.000239
0.000271
0.000350
0.000217
0.000255
0.000271
0.000269
0.000277
0.000317
0.000703
0.000335
0.000193
0.000059
0.000223
0.000261
0.000256
0.000299
0.000362
0.000270
0.001671
0.000319
0.000283
0.000253
0.000272
0.000263
0.000265
0.000264
0.000300
0.000302
0.000334
0.000629
0.000335
0.000267
0.000289
0.000282
0.000267
0.000264
0.000332
0.000254
0.000267
0.000253
0.000239
0.000303
0.000439
0.000057
0.000228
0.000474
0.000270
0.000262
0.000249
0.000226
0.000225
0.000247
0.000261
0.000274
0.001499
0.000233
0.000216
0.000252
0.000243
0.000292
0.000257
0.000247
0.000270
0.000265
0.000271
0.000472
0.000433
0.000314
0.000269
0.000283
0.000274
0.000249
0.000234
0.000316
0.000165
0.000057
0.000199
0.000216
0.000328
0.000451
0.000355
0.000262
0.000227
0.000235
0.000255
0.000249
0.000229
0.000278
0.000237
0.000266
0.000239
0.000241
0.000512
0.001103
0.000247
0.000231
0.000289
0.000242
0.000375
0.000416
0.000237
0.000349
0.000543
0.000438
0.000305
0.000240
0.000164
0.000056
0.000221
0.000244
0.000262
0.000261
0.000252
0.000252
0.000362
0.000402
0.000402
0.000305
0.000364
0.000394
0.000389
0.000360
0.000260
0.000241
0.000242
0.000258
0.000409
0.000447
0.001267
0.000221
0.000264
0.000279
0.000230
0.000256
0.000247
0.000433
0.000334
0.000411
0.000255
0.000057
0.000188
0.000240
0.000255
0.000238
0.000250
0.000241
0.000241
0.000254
0.000320
0.000284
0.000497
0.000371
0.000243
0.000227
0.000256
0.000255
0.000246
0.000263
0.000265
0.000247
0.000445
0.000246
0.000393
0.000479
0.000259
0.000238
0.000276
0.000269
0.000245
0.000351
0.000154
0.000057
0.000288
0.000318
0.000306
0.000467
0.000340
0.000391
0.000232
0.000244
0.000247
0.000273
0.000269
0.000251
0.000233
0.000251
0.000244
0.000227
0.000293
0.000335
0.000456
0.000389
0.000246
0.000257
0.000233
0.000251
0.000266
0.000288
0.000255
0.000271
0.000275
0.000265
0.000269
0.000057
0.000413
0.000207
0.000235
0.000247
0.000246
0.000248
0.000252
0.000239
0.000272
0.000255
0.000254
0.000231
0.000316
0.000464
0.000442
0.000287
0.000237
0.000249
0.000261
0.000261
0.000253
0.000269
0.000259
0.000260
0.000280
0.000290
0.000861
0.000170
0.000415
0.000243
0.000183
0.000058
0.000381
0.000211
0.000213
0.000250
0.000250
0.000249
0.000240
0.000251
0.000253
0.000264
0.000221
0.000243
0.000276
0.000225
0.000234
0.000271
0.000252
0.000263
0.000273
0.000257
0.000271
0.000252
0.000267
0.000265
0.000263
0.000236
0.000275
0.000285
0.000239
0.000284
0.000190
0.000057
0.000189
0.000239
0.000250
0.000251
0.000228
0.000252
0.000260
0.000243
0.000258
0.000284
0.000223
0.000230
0.000263
0.000398
0.000255
0.000274
0.000265
0.000266
0.000254
0.000278
0.000273
0.000250
0.000234
0.000255
0.000269
0.000273
0.000253
0.000241
0.000277
0.000266
0.000194
0.000056
0.000206
0.000356
0.000371
0.000275
0.000305
0.000250
0.000261
0.000259
0.000219
0.000249
0.000253
0.000262
0.000245
0.000240
0.000254
0.000262
0.000265
0.000270
0.000241
0.000271
0.000267
0.000267
0.000278
0.000260
0.000269
0.000252
0.000253
0.000270
0.000272
0.000257
0.000195
0.000056
0.000203
0.000225
0.000271
0.000265
0.000483
0.000211
0.000208
0.000243
0.000305
0.000424
0.000498
0.000275
0.000233
0.000250
0.000266
0.000272
0.000252
0.000253
0.000260
0.000262
0.000286
0.000239
0.000258
0.000348
0.000495
0.000472
0.000278
0.000289
0.000266
0.000274
0.000169
0.000056
0.000217
0.000221
0.000248
0.000248
0.000367
0.000629
0.000298
0.000381
0.000205
0.000242
0.000253
0.000269
0.000234
0.000251
0.000259
0.000263
0.000257
0.000255
0.000694
0.000336
0.000292
0.000241
0.000259
0.000281
0.000301
0.000242
0.000265
0.000270
0.000242
0.000345
0.000352
0.000056
0.000271
0.000230
0.000237
0.000239
0.000259
0.000249
0.000248
0.000229
0.000247
0.000261
0.000241
0.000252
0.000238
0.000462
0.000537
0.000375
0.000227
0.000256
0.000261
0.000245
0.000265
0.000274
0.000490
0.000226
0.000256
0.000765
0.000230
0.000510
0.000245
0.000252
0.000181
0.000055
0.000191
0.000220
0.000247
0.000245
0.000255
0.000256
0.000365
0.000399
0.000570
0.000408
0.000224
0.000263
0.000276
0.000268
0.000263
0.000246
0.000235
0.000253
0.000258
0.000396
0.000323
0.000661
0.000369
0.000250
0.000368
0.000377
0.000474
0.000242
0.000272
0.000421
0.000407
0.000057
0.000274
0.000231
0.000432
0.000229
0.000231
0.000265
0.000244
0.000260
0.000235
0.000238
0.000285
0.000385
0.000320
0.000402
0.000213
0.000253
0.000259
0.000248
0.000264
0.000272
0.000280
0.000251
0.000256
0.000269
0.000332
0.000456
0.000492
0.000260
0.000235
0.000269
0.000201
0.000057
0.000223
0.000274
0.000207
0.000247
0.000252
0.000272
0.000336
0.000422
0.000426
0.000304
0.000351
0.000219
0.000246
0.000268
0.000253
0.000241
0.000254
0.000257
0.000290
0.000468
0.000444
0.000297
0.000481
0.000275
0.000389
0.000426
0.000382
0.000238
0.000250
0.000298
0.000354
0.000056
0.000262
0.000260
0.000222
0.000256
0.000262
0.000250
0.000253
0.000241
0.000251
0.000265
0.000244
0.000389
0.000420
0.000372
0.000372
0.000219
0.000277
0.000255
0.000263
0.000237
0.000251
0.000252
0.000289
0.000251
0.000281
0.000338
0.000496
0.000468
0.000233
0.000273
0.000190
0.000055
0.000205
0.000243
0.000268
0.000240
0.000261
0.000338
0.000668
0.000317
0.000341
0.000691
0.000259
0.000223
0.000242
0.000261
0.000243
0.000288
0.000261
0.000274
0.000476
0.000407
0.001523
0.000303
0.000261
0.000257
0.000301
0.000258
0.000471
0.000342
0.000355
0.000330
0.000165
0.000056
0.000223
0.000223
0.000246
0.000250
0.000236
0.000257
0.000299
0.000226
0.000251
0.000339
0.000323
0.000390
0.000265
0.000338
0.000393
0.000343
0.000240
0.000238
0.000280
0.000255
0.000249
0.000249
0.000281
0.000239
0.000325
0.000432
0.000434
0.000309
0.000234
0.000268
0.000190
0.000057
0.000227
0.000248
0.000254
0.000257
0.000241
0.000237
0.000466
0.000220
0.000228
0.000257
0.000241
0.000251
0.000261
0.000253
0.000247
0.000267
0.000270
0.000266
0.000274
0.000258
0.000254
0.000365
0.000220
0.000243
0.000264
0.000276
0.000272
0.000272
0.000255
0.000271
0.000175
0.000057
0.000228
0.000240
0.000275
0.000449
0.000433
0.000210
0.000221
0.000243
0.000262
0.000249
0.000241
0.000260
0.000265
0.000261
0.000254
0.000228
0.000244
0.000270
0.000375
0.000293
0.000377
0.000422
0.000222
0.000277
0.000249
0.000252
0.000268
0.000248
0.000290
0.000263
0.000196
0.000057
0.000383
0.000387
0.000431
0.000201
0.000254
0.000256
0.000408
0.000230
0.000223
0.000255
0.000258
0.000300
0.000349
0.000426
0.001870
0.000254
0.000241
0.000256
0.000278
0.000237
0.000389
0.000375
0.000693
0.000244
0.000215
0.000268
0.000275
0.000425
0.000282
0.000281
0.000166
0.000057
0.000227
0.000349
0.000343
0.000323
0.000496
0.000201
0.000240
0.000267
0.000237
0.000237
0.000262
0.000246
0.000260
0.000309
0.000533
0.000376
0.000211
0.000241
0.000266
0.000256
0.000260
0.000326
0.000220
0.000291
0.000281
0.000502
0.000503
0.000567
0.000249
0.000227
0.000191
0.000056
0.000197
0.000230
0.000259
0.000229
0.000250
0.000251
0.000268
0.000272
0.000472
0.000250
0.000444
0.000341
0.000214
0.000253
0.000263
0.000283
0.000301
0.000242
0.000272
0.000278
0.000245
0.000387
0.000431
0.000336
0.000276
0.000251
0.000255
0.000435
0.000412
0.000315
0.000182
0.000055
0.000192
0.000261
0.000304
0.000497
0.000322
0.000203
0.000239
0.000251
0.000262
0.000249
0.000267
0.000251
0.000227
0.000259
0.000257
0.000302
0.000379
0.000369
0.000336
0.000312
0.000484
0.000228
0.000281
0.000273
0.000301
0.000286
0.000253
0.000422
0.000354
0.000439
0.000243
0.000057
0.000192
0.000226
0.000251
0.000247
0.000239
0.000483
0.000215
0.000257
0.000263
0.000302
0.000511
0.000599
0.000208
0.000243
0.000242
0.000254
0.000251
0.000245
0.000269
0.000249
0.000256
0.000271
0.000373
0.000424
0.000346
0.000409
0.000305
0.000294
0.000324
0.000241
0.000182
0.000057
0.000181
0.000243
0.000275
0.000471
0.000327
0.000279
0.000272
0.000226
0.000243
0.000249
0.000256
0.000249
0.000255
0.000258
0.000253
0.000255
0.000252
0.000246
0.000255
0.000435
0.000497
0.000372
0.000228
0.000237
0.000281
0.000279
0.000256
0.000256
0.000266
0.000270
0.000189
0.000056
0.000313
0.000329
0.000476
0.000256
0.000204
0.000253
0.000326
0.000454
0.000281
0.000219
0.000233
0.000273
0.000271
0.000408
0.000464
0.000295
0.000226
0.000246
0.000242
0.000276
0.000263
0.000260
0.000263
0.000271
0.000263
0.000287
0.000409
0.000431
0.000306
0.000237
0.000174
0.000057
0.000207
0.000235
0.000245
0.000257
0.000249
0.000265
0.000227
0.000256
0.000254
0.000244
0.000286
0.000221
0.000263
0.001460
0.000221
0.000250
0.000267
0.000240
0.000279
0.000275
0.000263
0.000258
0.000259
0.000255
0.000263
0.000284
0.000259
0.000277
0.000252
0.000269
0.000198
0.000056
0.000215
0.000231
0.000251
0.000258
0.000228
0.000270
0.000232
0.000264
0.000228
0.000248
0.000246
0.000263
0.000258
0.000255
0.000252
0.000262
0.000242
0.000259
0.000279
0.000249
0.000259
0.000262
0.000265
0.000229
0.001294
0.000267
0.000569
0.000447
0.000334
0.000248
0.000204
0.000057
0.000202
0.000230
0.000243
0.000251
0.000414
0.000246
0.000224
0.000249
0.000252
0.000391
0.000458
0.000300
0.000257
0.000215
0.000268
0.000254
0.000255
0.000267
0.000248
0.000256
0.000260
0.000255
0.000258
0.000496
0.000447
0.000468
0.000205
0.000256
0.001379
0.000240
0.000181
0.000056
0.000346
0.000415
0.000324
0.000272
0.000218
0.000250
0.000211
0.000251
0.000259
0.000259
0.000241
0.000261
0.000273
0.000330
0.000573
0.000321
0.000322
0.000224
0.000242
0.000259
0.000271
0.000264
0.000268
0.000262
0.000272
0.000262
0.000407
0.000469
0.000370
0.000387
0.000153
0.000057
0.000187
0.000241
0.001266
0.000417
0.000275
0.000478
0.000403
0.000468
0.000279
0.000340
0.000224
0.000219
0.000267
0.000255
0.000247
0.000271
0.000429
0.000412
0.000389
0.000370
0.000249
0.000248
0.000266
0.000500
0.000238
0.000264
0.000250
0.000282
0.000339
0.000531
0.000295
0.000056
0.000388
0.000306
0.000236
0.000211
0.001635
0.000389
0.000311
0.000252
0.000237
0.000244
0.000249
0.000226
0.000240
0.000273
0.000247
0.000264
0.000238
0.000268
0.000421
0.000398
0.000437
0.000242
0.000251
0.000253
0.000274
0.000258
0.000268
0.000243
0.000268
0.000267
0.000271
0.000058
0.000372
0.000351
0.000223
0.000232
0.000250
0.000243
0.000260
0.000239
0.000227
0.000232
0.001397
0.000509
0.000253
0.000233
0.000239
0.000255
0.000275
0.000283
0.000212
0.000283
0.000262
0.000257
0.000263
0.000466
0.000342
0.000478
0.000233
0.000269
0.000278
0.000282
0.000170
0.000057
0.000192
0.000426
0.000218
0.000240
0.000325
0.000458
0.000368
0.000321
0.000462
0.000204
0.000235
0.000252
0.000259
0.000264
0.000257
0.001408
0.000369
0.000287
0.000240
0.000270
0.000284
0.000246
0.000267
0.000240
0.000263
0.000270
0.000483
0.000416
0.000292
0.000277
0.000162
0.000056
0.000195
0.000234
0.000251
0.000237
0.000229
0.000259
0.000246
0.000240
0.000297
0.000360
0.000420
0.000311
0.000242
0.000254
0.000237
0.000270
0.000273
0.000259
0.000272
0.000231
0.000250
0.000475
0.001101
0.000258
0.000257
0.000235
0.000263
0.000268
0.000261
0.000261
0.000180
0.000056
0.000205
0.000385
0.000371
0.000320
0.000246
0.000242
0.000258
0.000265
0.000259
0.000242
0.000261
0.000267
0.000240
0.000263
0.000249
0.000265
0.000262
0.000274
0.000261
0.000251
0.000245
0.000274
0.000267
0.000284
0.000287
0.000269
0.000263
0.000253
0.000282
0.000432
0.001362
0.000056
0.000202
0.000235
0.000242
0.000239
0.000256
0.000259
0.000242
0.000228
0.000246
0.000251
0.000281
0.000247
0.000257
0.000240
0.000251
0.000247
0.001736
0.000259
0.000231
0.000262
0.000241
0.000256
0.000274
0.000261
0.000275
0.000254
0.000272
0.000278
0.000267
0.000254
0.000225
0.000057
0.000266
0.000354
0.001267
0.000233
0.000212
0.000249
0.000262
0.000242
0.000260
0.000260
0.000237
0.000329
0.000409
0.000437
0.000297
0.000217
0.000245
0.000253
0.000258
0.000270
0.000241
0.000272
0.000260
0.000284
0.000273
0.000375
0.000364
0.000389
0.000307
0.000239
0.000187
0.000056
0.000197
0.000262
0.000239
0.000248
0.000253
0.000219
0.000240
0.000272
0.000413
0.001354
0.000254
0.000200
0.000250
0.000268
0.000260
0.000267
0.000255
0.000258
0.000295
0.000486
0.000340
0.000249
0.000244
0.000238
0.000279
0.000274
0.000289
0.000280
0.000265
0.000281
0.000193
0.000056
0.000228
0.000433
0.000399
0.000223
0.000222
0.000240
0.000244
0.000278
0.000264
0.000244
0.000228
0.000253
0.000459
0.000548
0.000441
0.001434
0.000251
0.000272
0.000327
0.000351
0.000494
0.000417
0.000549
0.000307
0.000225
0.000266
0.000265
0.000278
0.000260
0.000276
0.000190
0.000056
0.000224
0.000254
0.000511
0.000482
0.000284
0.000271
0.000220
0.000226
0.000252
0.000254
0.000249
0.000267
0.000261
0.000244
0.000261
0.000324
0.000396
0.000390
0.000352
0.001320
0.000263
0.000259
0.000257
0.000267
0.000619
0.000294
0.000382
0.000233
0.000275
0.000269
0.000189
0.000056
0.000201
0.000240
0.000245
0.000247
0.000247
0.000273
0.000602
0.000268
0.000353
0.000207
0.000241
0.000260
0.000271
0.000261
0.000259
0.000262
0.000266
0.000267
0.000252
0.000259
0.000510
0.000404
0.000323
0.001353
0.000396
0.000238
0.000286
0.000385
0.000510
0.000317
0.000307
0.000056
0.000198
0.000235
0.000250
0.000250
0.000249
0.000254
0.001683
0.000244
0.000211
0.000244
0.000252
0.000249
0.000253
0.000331
0.000328
0.000285
0.000290
0.000279
0.000530
0.000385
0.000308
0.000283
0.000229
0.000238
0.001508
0.000379
0.000376
0.000477
0.000317
0.000315
0.000144
0.000057
0.000194
0.000248
0.000254
0.000256
0.000244
0.000258
0.001716
0.000229
0.000240
0.000267
0.000333
0.000406
0.001448
0.000396
0.000353
0.000236
0.000260
0.000240
0.000263
0.000272
0.001556
0.000586
0.000357
0.000294
0.000237
0.000247
0.000266
0.000278
0.000248
0.000248
0.000199
0.000056
0.000195
0.000248
0.000266
0.000239
0.000264
0.000277
0.000277
0.000254
0.000253
0.000273
0.000234
0.000246
0.000266
0.000269
0.000257
0.001496
0.000275
0.000232
0.000266
0.000274
0.000273
0.000258
0.000437
0.001268
0.000277
0.000226
0.000278
0.000253
0.000393
0.000238
0.000223
0.000057
0.000205
0.000254
0.000223
0.000247
0.000242
0.000224
0.000232
0.001703
0.000254
0.000232
0.000239
0.000372
0.000227
0.000225
0.000251
0.001395
0.000222
0.000267
0.000264
0.000244
0.000264
0.000354
0.000273
0.001319
0.000264
0.000266
0.000249
0.000262
0.001388
0.000282
0.000234
0.000058
0.000233
0.000346
0.000218
0.000236
0.000248
0.000244
0.000264
0.000269
0.000266
0.000262
0.000248
0.000259
0.000254
0.000245
0.000326
0.001491
0.000242
0.000270
0.000252
0.000243
0.000289
0.000274
0.000238
0.001514
0.000374
0.000208
0.000256
0.001281
0.000270
0.000240
0.000194
0.000056
0.000211
0.000398
0.000340
0.000202
0.000237
0.000234
0.000268
0.000258
0.000264
0.000287
0.000219
0.000253
0.000263
0.000272
0.000406
0.001230
0.000233
0.000250
0.000267
0.000281
0.000239
0.000234
0.000244
0.000339
0.001261
0.000271
0.000235
0.000261
0.001349
0.000339
0.000209
0.000057
0.000257
0.000255
0.000222
0.000229
0.000243
0.000250
0.000247
0.000245
0.000281
0.000248
0.000259
0.000233
0.000244
0.000322
0.000440
0.001468
0.000209
0.000247
0.000296
0.000545
0.000256
0.000339
0.001404
0.000292
0.000243
0.000280
0.000250
0.001298
0.000337
0.000479
0.000328
0.000056
0.000230
0.000247
0.000257
0.000252
0.000251
0.000252
0.000277
0.000262
0.000244
0.000259
0.000332
0.000481
0.001314
0.000240
0.000265
0.000264
0.000277
0.000219
0.000237
0.000300
0.000298
0.001229
0.000262
0.000249
0.000245
0.000244
0.001519
0.000696
0.000212
0.000218
0.000191
0.000057
0.000200
0.000230
0.000254
0.000231
0.000255
0.000265
0.000235
0.000303
0.000391
0.000487
0.000274
0.001491
0.000199
0.000245
0.000266
0.000258
0.000280
0.000286
0.001675
0.000262
0.000392
0.000336
0.001289
0.000354
0.000299
0.000324
0.000255
0.000255
0.000266
0.000265
0.000194
0.000056
0.000185
0.000241
0.000333
0.000249
0.000349
0.000533
0.000250
0.000297
0.001467
0.000240
0.000391
0.000252
0.000231
0.000340
0.000369
0.001302
0.000272
0.000244
0.000237
0.000255
0.001528
0.000382
0.000282
0.000277
0.000269
0.000231
0.000473
0.000353
0.000222
0.000240
0.000256
0.000055
0.000289
0.000298
0.000353
0.000277
0.000223
0.001514
0.000212
0.000254
0.000268
0.000265
0.000291
0.000222
0.000282
0.001509
0.000257
0.000237
0.000411
0.001205
0.000342
0.000478
0.000359
0.000237
0.000238
0.000254
0.000279
0.000246
0.000452
0.000227
0.000264
0.000278
0.000211
0.000058
0.000177
0.000285
0.000358
0.000323
0.001314
0.000275
0.000313
0.000231
0.000243
0.000245
0.000252
0.000267
0.001542
0.000270
0.000224
0.000245
0.001386
0.000331
0.000367
0.000467
0.000353
0.000228
0.000245
0.000256
0.000267
0.000296
0.000259
0.000247
0.000269
0.000251
0.000210
0.000057
0.000198
0.000361
0.001496
0.000205
0.000271
0.000278
0.000245
0.000264
0.000240
0.000374
0.001415
0.000215
0.000255
0.000247
0.000262
0.001303
0.000681
0.000294
0.000317
0.000407
0.000295
0.000246
0.000260
0.000252
0.000276
0.000286
0.000290
0.000384
0.000346
0.000509
0.001295
0.000056
0.000207
0.000239
0.000248
0.000222
0.000272
0.000394
0.000490
0.001287
0.000250
0.000239
0.000249
0.001444
0.000492
0.000260
0.000213
0.000414
0.000244
0.000248
0.000260
0.000278
0.000247
0.000276
0.000277
0.000250
0.000260
0.000273
0.000429
0.000514
0.001492
0.000215
0.000186
0.000057
0.000198
0.000273
0.000392
0.000511
0.001208
0.000277
0.000254
0.000260
0.000246
0.000249
0.000251
0.000292
0.000336
0.000488
0.000350
0.000224
0.000258
0.000274
0.000242
0.000280
0.000251
0.000276
0.000253
0.000266
0.000257
0.000453
0.000421
0.000362
0.000315
0.001395
0.000180
0.000057
0.000223
0.000240
0.000307
0.000447
0.000313
0.000311
0.000317
0.000333
0.000266
0.000259
0.000255
0.000264
0.000259
0.000305
0.000235
0.000264
0.000606
0.000301
0.000292
0.000378
0.000277
0.000402
0.000231
0.000263
0.000248
0.000265
0.000249
0.000284
0.000443
0.000438
0.000274
0.000056
0.000204
0.001405
0.000232
0.000337
0.000410
0.000461
0.000329
0.000323
0.000222
0.000233
0.000266
0.000247
0.000264
0.000270
0.000262
0.000265
0.000248
0.001301
0.000315
0.000256
0.000253
0.000275
0.000269
0.000276
0.000275
0.000254
0.000273
0.000247
0.000316
0.000408
0.000288
0.000059
0.000219
0.000256
0.000225
0.001499
0.000326
0.000238
0.000218
0.000251
0.000231
0.000238
0.000254
0.000271
0.000257
0.000253
0.000265
0.000250
0.000247
0.000274
0.000269
0.000244
0.001443
0.000232
0.000235
0.000281
0.000250
0.000245
0.000267
0.000267
0.000278
0.000486
0.000351
0.000056
0.000187
0.000285
0.000368
0.000265
0.000249
0.000244
0.001605
0.000280
0.000298
0.000214
0.000257
0.000309
0.000341
0.000230
0.000224
0.000248
0.000245
0.000270
0.000256
0.000256
0.000483
0.000507
0.001134
0.000271
0.000235
0.000248
0.000277
0.000251
0.000274
0.000266
0.000309
0.000056
0.000339
0.000269
0.000209
0.000243
0.000246
0.000240
0.000244
0.000229
0.000295
0.001594
0.000434
0.000240
0.000228
0.000248
0.000260
0.000248
0.000256
0.000278
0.000266
0.000306
0.000305
0.000497
0.000439
0.001378
0.000221
0.000268
0.000273
0.000257
0.000271
0.000277
0.000589
0.000056
0.000188
0.000234
0.000241
0.000258
0.000202
0.000242
0.000264
0.000252
0.000268
0.001628
0.000293
0.000257
0.000267
0.000255
0.000469
0.000263
0.000518
0.000380
0.000296
0.000311
0.000450
0.000456
0.001288
0.000267
0.000222
0.000261
0.001720
0.000443
0.000618
0.000320
0.000136
0.000057
0.000186
0.000234
0.000242
0.000235
0.000257
0.000243
0.000244
0.000511
0.000488
0.000424
0.000296
0.000205
0.000242
0.000260
0.000263
0.000272
0.000245
0.000252
0.000248
0.000268
0.000268
0.000423
0.001357
0.000215
0.000249
0.000277
0.001897
0.000409
0.000375
0.000339
0.000152
0.000056
0.000201
0.000244
0.000240
0.001551
0.000452
0.000209
0.000233
0.000274
0.000240
0.000286
0.000382
0.000367
0.000371
0.000263
0.000263
0.000547
0.000394
0.001210
0.000266
0.000235
0.000253
0.000262
0.000278
0.000451
0.000607
0.000427
0.000240
0.000265
0.000284
0.000268
0.000187
0.000056
0.000200
0.000235
0.000246
0.001544
0.000245
0.000234
0.000240
0.000254
0.000237
0.000260
0.000259
0.000264
0.000283
0.000263
0.000279
0.000376
0.000458
0.000283
0.001407
0.000222
0.000267
0.000260
0.000250
0.000270
0.000382
0.000393
0.000532
0.000279
0.000287
0.000220
0.000439
0.000057
0.000181
0.000238
0.000256
0.001525
0.000326
0.000217
0.000261
0.000241
0.000253
0.000260
0.000250
0.000265
0.000255
0.000246
0.000499
0.000425
0.001386
0.000747
0.000254
0.000347
0.000249
0.000229
0.000240
0.000276
0.001691
0.000813
0.000211
0.000263
0.000278
0.000281
0.000187
0.000056
0.000202
0.000233
0.000256
0.000248
0.000255
0.000243
0.000239
0.000260
0.000241
0.000229
0.000291
0.000281
0.000253
0.000251
0.000261
0.000244
0.000275
0.001601
0.000716
0.000394
0.000293
0.000220
0.000245
0.000285
0.000260
0.000274
0.000265
0.000254
0.001404
0.000421
0.000339
0.000057
0.000195
0.000229
0.000247
0.000263
0.000256
0.000226
0.000255
0.000250
0.000253
0.000298
0.000272
0.000450
0.000384
0.000336
0.000202
0.000246
0.000265
0.001404
0.000686
0.000533
0.000274
0.000274
0.000225
0.000253
0.000272
0.000249
0.000258
0.000265
0.001497
0.000426
0.000197
0.000056
0.000225
0.000226
0.000245
0.000248
0.000248
0.000251
0.000236
0.000251
0.000267
0.000261
0.000359
0.000431
0.000288
0.000215
0.000248
0.000238
0.000269
0.000255
0.001604
0.000649
0.000477
0.000255
0.000225
0.000264
0.000260
0.000262
0.000264
0.000308
0.000245
0.001357
0.000359
0.000056
0.000209
0.000210
0.000242
0.000257
0.000252
0.000249
0.000263
0.000298
0.000363
0.000441
0.000364
0.000512
0.000234
0.000218
0.000246
0.000242
0.000278
0.000258
0.000266
0.001897
0.000361
0.000240
0.000437
0.000257
0.000237
0.000262
0.000267
0.000259
0.000272
0.000275
0.000325
0.000071
0.000279
0.000225
0.000224
0.000245
0.000274
0.000234
0.000222
0.000233
0.000277
0.000248
0.000251
0.000234
0.000280
0.000523
0.000426
0.000418
0.000217
0.000260
0.000248
0.000255
0.000255
0.000291
0.001484
0.001044
0.000212
0.000247
0.000275
0.000263
0.000273
0.000251
0.000202
0.000056
0.000188
0.001345
0.000293
0.000205
0.000234
0.000253
0.000254
0.000241
0.000236
0.000249
0.000270
0.000251
0.000242
0.000359
0.000390
0.000483
0.000245
0.000250
0.000263
0.000270
0.000268
0.000231
0.000262
0.000261
0.001322
0.000688
0.000311
0.000385
0.000379
0.000397
0.000296
0.000056
0.000206
0.000277
0.000318
0.001333
0.000199
0.000256
0.000228
0.000259
0.000256
0.000254
0.000248
0.000251
0.000261
0.000407
0.000518
0.000303
0.000221
0.000335
0.000286
0.000208
0.000247
0.000276
0.000228
0.000275
0.000267
0.001554
0.000730
0.000297
0.000277
0.000281
0.000175
0.000056
0.000211
0.000239
0.000479
0.000318
0.001309
0.000258
0.000214
0.000235
0.000238
0.000250
0.000246
0.000257
0.000226
0.000243
0.000252
0.000252
0.000275
0.000229
0.000259
0.000258
0.000261
0.000273
0.000313
0.000323
0.000217
0.000261
0.000268
0.001466
0.000256
0.000242
0.000168
0.000056
0.000200
0.000226
0.000254
0.000270
0.000355
0.000380
0.000390
0.000271
0.001573
0.000223
0.000271
0.000554
0.000337
0.000220
0.000435
0.000240
0.000226
0.000259
0.000282
0.000265
0.000281
0.000264
0.000260
0.000270
0.000241
0.000531
0.000290
0.000339
0.001569
0.000230
0.000177
0.000056
0.000235
0.000258
0.000242
0.000240
0.000235
0.000248
0.000268
0.000277
0.000433
0.002037
0.000238
0.000238
0.000258
0.000259
0.000265
0.000249
0.000275
0.000250
0.000273
0.000461
0.000330
0.000460
0.001446
0.000264
0.000521
0.000226
0.001776
0.000237
0.000251
0.001541
0.000147
0.000056
0.000322
0.000462
0.000423
0.000244
0.000268
0.000219
0.000257
0.000274
0.000260
0.000241
0.000237
0.000345
0.000410
0.000351
0.000426
0.000248
0.000229
0.001567
0.000242
0.000592
0.001874
0.000281
0.000214
0.001527
0.002046
0.000739
0.000277
0.000259
0.000273
0.000456
0.000363
0.000055
0.000207
0.000247
0.000243
0.000247
0.001427
0.002597
0.000247
0.000177
0.000224
0.001577
0.001987
0.000206
0.000246
0.000426
0.000326
0.000398
0.000338
0.000484
0.000215
0.000235
0.000255
0.000255
0.000278
0.001592
0.001202
0.001464
0.000251
0.000285
0.000256
0.000298
0.000360
0.000056
0.000226
0.000214
0.000246
0.000239
0.000228
0.000246
0.000246
0.000259
0.000253
0.000248
0.000239
0.000313
0.000707
0.000228
0.000261
0.000244
0.000248
0.000271
0.000273
0.000264
0.000257
0.000258
0.001546
0.000450
0.002101
0.000252
0.000248
0.000422
0.000363
0.000387
0.000204
0.000057
0.000205
0.000416
0.000419
0.000335
0.000183
0.000223
0.000253
0.000243
0.000247
0.000237
0.000248
0.000264
0.000260
0.001609
0.001357
0.001230
0.000278
0.000219
0.000255
0.000269
0.000282
0.000299
0.000234
0.000245
0.002213
0.000258
0.000246
0.000286
0.000322
0.000308
0.000221
0.000056
0.000229
0.000346
0.000554
0.000333
0.000234
0.000235
0.000244
0.000267
0.001904
0.001414
0.000222
0.000337
0.000383
0.000415
0.000270
0.000205
0.000257
0.000269
0.000263
0.000264
0.000253
0.000263
0.000473
0.000246
0.000263
0.000265
0.000255
0.000275
0.000288
0.000242
0.000198
0.000055
0.000188
0.000246
0.000247
0.000243
0.000250
0.000271
0.001560
0.001408
0.001325
0.000248
0.000210
0.000251
0.000262
0.000264
0.000242
0.000258
0.000247
0.002130
0.000238
0.000219
0.000274
0.000254
0.000256
0.000286
0.000254
0.000254
0.000273
0.000253
0.000277
0.000256
0.000169
0.000057
0.000203
0.002688
0.001386
0.000223
0.000306
0.000293
0.000230
0.000270
0.000259
0.000242
0.000252
0.000249
0.000235
0.000238
0.000273
0.000252
0.000276
0.000259
0.000264
0.000262
0.000263
0.000287
0.000272
0.000263
0.000246
0.000249
0.000264
0.000270
0.000262
0.000275
0.000362
0.000057
0.001552
0.000247
0.001239
0.000223
0.000226
0.000245
0.000257
0.000253
0.000248
0.000262
0.000425
0.000330
0.000378
0.000178
0.000253
0.002158
0.000240
0.000238
0.000353
0.000437
0.000381
0.000289
0.000210
0.000261
0.000265
0.000248
0.000268
0.000275
0.000272
0.001611
0.001276
0.000056
0.000198
0.000237
0.000264
0.000462
0.000323
0.000281
0.000207
0.000235
0.000251
0.000260
0.000263
0.000246
0.000226
0.000253
0.000263
0.000244
0.000298
0.000657
0.000365
0.000236
0.000218
0.000277
0.000276
0.000253
0.000253
0.000243
0.000264
0.000277
0.000247
0.000318
0.000399
0.000056
0.001109
0.000235
0.000425
0.000360
0.000301
0.000233
0.000225
0.000237
0.000248
0.002343
0.000327
0.000391
0.000212
0.000376
0.000282
0.000261
0.000257
0.000269
0.000261
0.000234
0.000242
0.000275
0.000663
0.000428
0.001849
0.001331
0.000582
0.000455
0.000231
0.000276
0.000190
0.000057
0.000276
0.000296
0.000245
0.000250
0.000262
0.000209
0.000256
0.000253
0.000253
0.000251
0.000259
0.000218
0.000245
0.000262
0.000441
0.000475
0.001833
0.001304
0.000473
0.000419
0.000465
0.000239
0.000235
0.000265
0.002131
0.000556
0.000393
0.000223
0.000289
0.000264
0.000192
0.000057
0.000191
0.000245
0.000255
0.000245
0.000250
0.000365
0.000391
0.000344
0.000263
0.000240
0.000243
0.000252
0.000262
0.002138
0.000364
0.000364
0.000206
0.000258
0.000263
0.000267
0.000250
0.002517
0.000278
0.000225
0.000254
0.000271
0.000244
0.000259
0.000290
0.000278
0.000189
0.000056
0.000186
0.000308
0.000592
0.000373
0.000258
0.000215
0.000232
0.000277
0.000238
0.000258
0.001958
0.000382
0.000297
0.000251
0.000233
0.000262
0.000281
0.000241
0.002204
0.000458
0.000207
0.000270
0.000271
0.000261
0.000269
0.000240
0.000280
0.000248
0.000267
0.000277
0.000163
0.000056
0.000199
0.000239
0.000249
0.000223
0.000238
0.000263
0.000238
0.000247
0.000231
0.002176
0.000233
0.000284
0.000210
0.000423
0.000246
0.000237
0.000277
0.000291
0.000245
0.000261
0.001959
0.000284
0.000347
0.000368
0.000433
0.000418
0.000288
0.000242
0.000257
0.000257
0.000200
0.000057
0.000193
0.000270
0.000213
0.000242
0.000249
0.000341
0.000200
0.002302
0.000246
0.000241
0.000257
0.000254
0.000235
0.000255
0.000304
0.002124
0.000590
0.000220
0.000259
0.000239
0.000263
0.000262
0.000287
0.000272
0.000256
0.000256
0.000283
0.000252
0.000265
0.000265
0.000199
0.000057
0.001838
0.001430
0.000202
0.000224
0.000244
0.000256
0.000248
0.000268
0.000413
0.000322
0.002196
0.000262
0.000232
0.000266
0.000316
0.000548
0.000338
0.000290
0.000213
0.000252
0.000259
0.000257
0.000272
0.000223
0.000260
0.000262
0.000275
0.000262
0.000376
0.000707
0.000221
0.000057
0.000200
0.000254
0.000252
0.000247
0.000270
0.000243
0.000257
0.000241
0.001464
0.002141
0.000572
0.000287
0.000411
0.000677
0.000355
0.000234
0.000256
0.000252
0.000265
0.000253
0.000266
0.000235
0.000249
0.001844
0.000333
0.001379
0.000289
0.000266
0.000294
0.000258
0.000419
0.000056
0.001968
0.000254
0.000202
0.000197
0.000301
0.000375
0.000425
0.000313
0.000287
0.000216
0.000227
0.000262
0.000257
0.000255
0.000282
0.000245
0.000256
0.000269
0.001840
0.000243
0.000222
0.000258
0.000276
0.000274
0.000279
0.000251
0.001481
0.000320
0.000240
0.000260
0.000177
0.000057
0.000214
0.000220
0.000247
0.000253
0.000238
0.000239
0.000388
0.000305
0.000306
0.000389
0.000220
0.000242
0.000267
0.000332
0.000429
0.000315
0.000211
0.000259
0.000257
0.000346
0.000489
0.000493
0.000205
0.000249
0.000252
0.000258
0.000246
0.000274
0.000282
0.000255
0.000212
0.000056
0.001452
0.000417
0.000225
0.001984
0.000272
0.000430
0.000419
0.000284
0.000224
0.000253
0.000267
0.000244
0.000243
0.000247
0.000267
0.000268
0.000436
0.000323
0.000363
0.000396
0.000346
0.000225
0.000253
0.000271
0.000268
0.000272
0.000270
0.000260
0.000381
0.000427
0.001411
0.000056
0.000192
0.000221
0.002081
0.000308
0.000302
0.000261
0.000250
0.000253
0.000263
0.000265
0.000209
0.000250
0.000255
0.000265
0.000274
0.000761
0.000295
0.001759
0.000227
0.000246
0.000257
0.000269
0.000359
0.000444
0.001590
0.000278
0.000366
0.001922
0.000277
0.000241
0.000197
0.000056
0.000196
0.000239
0.000232
0.000250
0.000232
0.000240
0.000253
0.000290
0.000331
0.000273
0.000378
0.000361
0.000335
0.000302
0.000235
0.000268
0.000268
0.000234
0.000272
0.000247
0.000302
0.000289
0.000285
0.000247
0.000268
0.001506
0.000291
0.000391
0.002069
0.000230
0.000176
0.000071
0.000198
0.000245
0.000232
0.000244
0.000482
0.000225
0.000247
0.000327
0.000383
0.000317
0.000296
0.000198
0.000262
0.000266
0.000271
0.000326
0.000393
0.000462
0.000264
0.000387
0.000532
0.000407
0.001621
0.000227
0.000253
0.002036
0.000277
0.000246
0.000250
0.000287
0.000188
0.000056
0.000195
0.000246
0.000220
0.000250
0.000242
0.000274
0.000253
0.000276
0.000252
0.000247
0.001820
0.000336
0.000375
0.000312
0.000431
0.000363
0.000324
0.001518
0.000253
0.000272
0.002263
0.000419
0.000277
0.000209
0.000278
0.000267
0.000496
0.000234
0.000247
0.000282
0.000196
0.000056
0.000289
0.000350
0.000400
0.000289
0.000200
0.000236
0.000256
0.000251
0.000302
0.000261
0.000231
0.000243
0.000252
0.000264
0.000312
0.001559
0.000311
0.000201
0.000438
0.001819
0.000342
0.000247
0.000262
0.000247
0.000246
0.000282
0.000274
0.000251
0.000248
0.000269
0.000197
0.000056
0.000300
0.000420
0.001954
0.000242
0.000262
0.000207
0.000323
0.000241
0.000484
0.000383
0.001303
0.000380
0.002091
0.000339
0.000214
0.000251
0.000253
0.000272
0.000254
0.000242
0.000287
0.000294
0.000263
0.000389
0.000461
0.000336
0.000329
0.002232
0.000498
0.000533
0.000337
0.000056
0.000203
0.000222
0.000243
0.001966
0.000236
0.000231
0.000244
0.000232
0.000240
0.000258
0.000244
0.000266
0.000244
0.000312
0.000422
0.001468
0.000248
0.000260
0.000245
0.000254
0.000243
0.000255
0.000252
0.000296
0.000287
0.000470
0.000482
0.000234
0.001594
0.000288
0.000156
0.000056
0.000213
0.000213
0.000264
0.000222
0.000251
0.000253
0.000248
0.000251
0.000258
0.000437
0.000294
0.001424
0.000243
0.000207
0.000248
0.000267
0.000250
0.000259
0.000540
0.000269
0.000431
0.000393
0.000220
0.001588
0.000221
0.000256
0.000292
0.000277
0.000262
0.000271
0.000190
0.000056
0.000213
0.000225
0.000261
0.000267
0.000250
0.000243
0.000236
0.000244
0.000260
0.000235
0.000251
0.000258
0.000259
0.001488
0.000361
0.000205
0.000250
0.000261
0.000293
0.000309
0.000374
0.000261
0.000242
0.000262
0.000264
0.000266
0.000255
0.001408
0.000279
0.000240
0.000169
0.000056
0.000198
0.000235
0.000263
0.000263
0.000253
0.000232
0.000249
0.000258
0.000221
0.000283
0.000224
0.000263
0.000223
0.000312
0.000381
0.000348
0.000272
0.000232
0.001630
0.000244
0.000239
0.000262
0.000263
0.000287
0.000377
0.000391
0.000450
0.000266
0.000240
0.001614
0.000173
0.000057
0.000378
0.000300
0.000374
0.000270
0.000242
0.000216
0.000243
0.000273
0.000255
0.000253
0.000231
0.000231
0.001470
0.000283
0.000323
0.000214
0.000257
0.000244
0.000271
0.000265
0.000251
0.000237
0.000265
0.000268
0.000244
0.000400
0.000447
0.000358
0.000273
0.000242
0.000188
0.000057
0.000235
0.000235
0.000355
0.000455
0.000341
0.000246
0.000246
0.000252
0.000253
0.000257
0.000242
0.000224
0.000263
0.000238
0.001261
0.000293
0.000242
0.000246
0.000267
0.000268
0.000237
0.000265
0.000250
0.000259
0.000263
0.000252
0.000331
0.000636
0.000504
0.000219
0.000182
0.000056
0.000202
0.001564
0.000238
0.000412
0.000531
0.000235
0.000211
0.000247
0.000275
0.000241
0.000247
0.000260
0.000273
0.000289
0.000241
0.001531
0.000254
0.000280
0.000266
0.000254
0.000256
0.000254
0.000264
0.000263
0.000265
0.000289
0.000426
0.000339
0.000364
0.000256
0.000172
0.000056
0.000195
0.000257
0.000234
0.001651
0.000393
0.000345
0.000217
0.000240
0.000248
0.000271
0.000283
0.000252
0.000247
0.000265
0.000229
0.000286
0.000340
0.001371
0.000254
0.000225
0.001509
0.000296
0.000579
0.000391
0.000361
0.000218
0.000262
0.000463
0.000252
0.000252
0.000188
0.000057
0.000166
0.000216
0.000248
0.000244
0.000249
0.000259
0.000237
0.000255
0.000257
0.000236
0.000256
0.000256
0.000331
0.000515
0.001638
0.001498
0.000365
0.000520
0.000337
0.000214
0.000239
0.000259
0.000251
0.000264
0.000252
0.000265
0.000259
0.000267
0.001525
0.000331
0.000179
0.000056
0.000248
0.000339
0.000350
0.000333
0.000225
0.000230
0.000237
0.000374
0.000455
0.000347
0.002148
0.000325
0.000742
0.000456
0.000467
0.000270
0.000328
0.000401
0.000327
0.000281
0.000398
0.000219
0.001567
0.000525
0.000216
0.000263
0.000261
0.000246
0.000265
0.000269
0.000189
0.000057
0.000231
0.000249
0.000253
0.000254
0.000244
0.001665
0.000875
0.001000
0.000208
0.000227
0.000260
0.000257
0.000261
0.000260
0.000259
0.000239
0.000258
0.000264
0.000267
0.000278
0.001433
0.000317
0.000251
0.000225
0.000234
0.000260
0.000259
0.000285
0.000267
0.000281
0.001909
0.000058
0.000199
0.000216
0.001557
0.000852
0.000382
0.000358
0.000235
0.000230
0.000252
0.000258
0.000242
0.000254
0.000245
0.002080
0.000388
0.000215
0.000244
0.000248
0.000273
0.000259
0.000184
