0.000177
0.016228
0.005492
0.000264
0.000257
0.000245
0.000292
0.000255
0.000295
0.000331
0.000239
0.000381
0.000503
0.000505
0.000307
0.000335
0.000290
0.000386
0.000390
0.000413
0.000319
0.001895
0.000458
0.000450
0.000253
0.000292
0.000306
0.000426
0.000398
0.000482
0.000420
0.000246
0.000061
0.000211
0.000242
0.000242
0.000288
0.000278
0.000245
0.000317
0.000232
0.000275
0.000347
0.000346
0.000468
0.000298
0.000283
0.000396
0.000396
0.000313
0.000248
0.000248
0.001711
0.000280
0.000243
0.000494
0.000246
0.000249
0.000272
0.000270
0.000306
0.000252
0.000364
0.000408
0.000061
0.000261
0.000212
0.000246
0.000255
0.000282
0.000227
0.000267
0.000249
0.000282
0.001707
0.000236
0.000221
0.000264
0.000265
0.000269
0.000249
0.000259
0.000269
0.000344
0.001817
0.000246
0.000247
0.000462
0.000465
0.000388
0.000238
0.000261
0.000547
0.000458
0.000724
0.000173
0.000060
0.000205
0.000210
0.000254
0.000236
0.000315
0.000270
0.000336
0.000536
0.000409
0.000268
0.000229
0.000230
0.000220
0.000255
0.000236
0.000255
0.000245
0.000264
0.000290
0.000332
0.001758
0.000242
0.000247
0.000453
0.000249
0.000715
0.000665
0.000477
0.000372
0.000249
0.000214
0.000065
0.000222
0.000228
0.000231
0.000256
0.000243
0.000270
0.000240
0.000561
0.001401
0.000267
0.000235
0.000237
0.000239
0.000255
0.000245
0.000299
0.000342
0.000739
0.001379
0.000268
0.000272
0.000417
0.000252
0.000259
0.000223
0.000273
0.000258
0.000280
0.000259
0.000257
0.000214
0.000061
0.000192
0.000227
0.000238
0.000243
0.000251
0.000247
0.000226
0.000265
0.000248
0.000256
0.001688
0.000237
0.000232
0.000238
0.000236
0.000232
0.000241
0.000254
0.000249
0.000251
0.000253
0.001758
0.000238
0.000260
0.000473
0.000241
0.000230
0.000253
0.000261
0.000268
0.000203
0.000067
0.000214
0.000229
0.000205
0.000254
0.000244
0.000251
0.000234
0.000264
0.000248
0.000238
0.000303
0.000234
0.000249
0.000269
0.001660
0.000273
0.000282
0.000258
0.000221
0.000256
0.000303
0.000235
0.000259
0.000257
0.000283
0.001923
0.000279
0.000356
0.000262
0.000281
0.000193
0.000057
0.000229
0.000230
0.000228
0.000255
0.000258
0.000265
0.000295
0.000357
0.000453
0.000419
0.000223
0.000239
0.000253
0.000256
0.001747
0.000433
0.000270
0.000388
0.000297
0.000223
0.000258
0.000273
0.000272
0.001810
0.000479
0.000495
0.000232
0.000234
0.000231
0.000269
0.000174
0.000067
0.000223
0.000226
0.000215
0.000311
0.000309
0.000495
0.000304
0.000283
0.000208
0.000240
0.000246
0.000233
0.000290
0.001745
0.000428
0.000300
0.000241
0.000246
0.000270
0.000275
0.000261
0.000263
0.000302
0.001845
0.000297
0.000398
0.000262
0.000250
0.000294
0.000399
0.000316
0.000063
0.000415
0.000219
0.000300
0.000266
0.000290
0.000205
0.000254
0.000258
0.000247
0.000254
0.000226
0.000247
0.001680
0.000262
0.000307
0.000222
0.000223
0.000240
0.000248
0.000275
0.000265
0.000361
0.001772
0.000353
0.000246
0.000484
0.000219
0.000247
0.000252
0.000261
0.000274
0.000067
0.000463
0.000380
0.000657
0.000219
0.000212
0.000240
0.000233
0.000231
0.000245
0.000246
0.000257
0.001731
0.000307
0.000364
0.000376
0.000236
0.000238
0.000236
0.000227
0.000269
0.000305
0.001812
0.000237
0.000224
0.002261
0.000423
0.000274
0.000242
0.000290
0.000248
0.000183
0.000057
0.000215
0.000208
0.000253
0.000239
0.000251
0.001687
0.000212
0.000218
0.000226
0.000248
0.000249
0.000231
0.000259
0.000249
0.000283
0.000516
0.000560
0.000238
0.000242
0.000256
0.000286
0.000235
0.000243
0.000482
0.000426
0.000248
0.000701
0.000217
0.000462
0.000229
0.000170
0.000060
0.000220
0.000212
0.000234
0.000259
0.000228
0.000254
0.000273
0.000499
0.000423
0.001571
0.000250
0.000243
0.000232
0.000246
0.000264
0.000282
0.000494
0.000458
0.000369
0.000221
0.000234
0.000265
0.000357
0.000281
0.000222
0.000406
0.000477
0.000556
0.000403
0.000485
0.000133
0.000061
0.000220
0.000253
0.000218
0.000226
0.000247
0.000236
0.000250
0.000233
0.000262
0.000347
0.000369
0.001547
0.000259
0.000212
0.000202
0.000232
0.000240
0.000261
0.000255
0.000285
0.000229
0.000521
0.000357
0.000321
0.000253
0.000232
0.000269
0.000260
0.000261
0.000258
0.000417
0.000057
0.000212
0.000219
0.000221
0.000278
0.000507
0.000431
0.000265
0.000229
0.000232
0.000259
0.000242
0.000248
0.000283
0.000267
0.000242
0.000527
0.000447
0.001576
0.000267
0.000247
0.000250
0.000265
0.000251
0.000257
0.000252
0.000469
0.000501
0.000352
0.000356
0.000250
0.000202
0.000059
0.000226
0.000235
0.000392
0.000231
0.000261
0.000238
0.000350
0.000640
0.000197
0.000316
0.000243
0.000257
0.000260
0.000258
0.000596
0.000288
0.000230
0.000248
0.000360
0.001728
0.000253
0.000235
0.000290
0.000423
0.000330
0.000219
0.000255
0.000449
0.000466
0.000364
0.000286
0.000060
0.000217
0.000194
0.000238
0.000234
0.000466
0.000274
0.000297
0.000189
0.000395
0.000594
0.000330
0.000237
0.000214
0.000224
0.000248
0.000258
0.000252
0.000261
0.000238
0.000383
0.000268
0.000320
0.001848
0.000268
0.000247
0.000236
0.000324
0.000355
0.000406
0.000808
0.000405
0.000062
0.000261
0.000331
0.000467
0.000316
0.000251
0.000223
0.000235
0.000419
0.000488
0.000408
0.000227
0.000205
0.000229
0.000256
0.000260
0.000261
0.000239
0.000253
0.000265
0.000258
0.000275
0.000399
0.001789
0.000283
0.000356
0.000421
0.000387
0.000268
0.000395
0.000452
0.000264
0.000063
0.000234
0.000378
0.000284
0.000208
0.000235
0.000219
0.000468
0.000211
0.000257
0.000398
0.000344
0.000466
0.000222
0.000226
0.000264
0.000289
0.000362
0.000435
0.000318
0.000223
0.000221
0.000330
0.000662
0.001709
0.000258
0.000402
0.000344
0.000219
0.000294
0.000392
0.000359
0.000065
0.000209
0.000229
0.000223
0.000243
0.000243
0.000279
0.000233
0.000356
0.000412
0.000329
0.000502
0.000333
0.000290
0.000195
0.000535
0.000258
0.000264
0.000257
0.000264
0.000343
0.000232
0.000248
0.000260
0.000468
0.000468
0.001676
0.000231
0.000232
0.000230
0.000258
0.000193
0.000058
0.000278
0.000538
0.000281
0.000207
0.000237
0.000247
0.000236
0.000243
0.000267
0.000262
0.000211
0.000468
0.000304
0.000456
0.000454
0.000261
0.000227
0.000248
0.000372
0.000330
0.000371
0.000412
0.000325
0.000373
0.000246
0.000223
0.000249
0.000265
0.001805
0.000251
0.000210
0.000059
0.000210
0.000206
0.000243
0.000258
0.000363
0.000540
0.000347
0.000213
0.000255
0.000260
0.000243
0.000237
0.000522
0.000455
0.000468
0.000319
0.000272
0.000232
0.000447
0.000478
0.000375
0.000531
0.000464
0.000338
0.000239
0.000243
0.000244
0.000233
0.000254
0.001800
0.000326
0.000060
0.000261
0.000309
0.000223
0.000215
0.000222
0.000250
0.000316
0.000438
0.000424
0.000304
0.000302
0.000317
0.000405
0.000577
0.000336
0.000203
0.000236
0.000248
0.000259
0.000263
0.000253
0.000270
0.000242
0.000254
0.000335
0.000329
0.000506
0.000326
0.000227
0.000216
0.000181
0.000066
0.000447
0.000294
0.000450
0.000225
0.000228
0.000223
0.000242
0.000263
0.000261
0.000232
0.000232
0.000268
0.000279
0.000403
0.000681
0.000282
0.000355
0.000326
0.000371
0.000390
0.000272
0.000210
0.000230
0.000265
0.001795
0.000225
0.001767
0.000959
0.000330
0.000345
0.000152
0.000058
0.000221
0.000217
0.000226
0.000232
0.000267
0.000265
0.000253
0.000245
0.000261
0.000362
0.000416
0.000314
0.000384
0.000400
0.000233
0.000243
0.000272
0.000281
0.000232
0.000229
0.000259
0.000237
0.001790
0.000260
0.000234
0.000256
0.000266
0.000264
0.001905
0.000585
0.000234
0.000059
0.000237
0.000203
0.000221
0.000250
0.000283
0.000224
0.000236
0.000258
0.000315
0.000310
0.000557
0.000321
0.000377
0.000239
0.000223
0.000285
0.000381
0.000392
0.000370
0.000275
0.001781
0.000269
0.000204
0.000223
0.000253
0.000280
0.000261
0.000266
0.000250
0.000408
0.000417
0.000059
0.000244
0.000209
0.000209
0.000230
0.000271
0.000239
0.000244
0.000257
0.000234
0.000239
0.000255
0.000265
0.000357
0.000435
0.000315
0.000329
0.000477
0.000211
0.000231
0.000264
0.000259
0.000257
0.000282
0.000256
0.000273
0.001766
0.000270
0.000241
0.000252
0.000249
0.000191
0.000062
0.000388
0.000206
0.000241
0.000195
0.000234
0.000248
0.000221
0.000257
0.000245
0.000265
0.000215
0.000257
0.000261
0.000289
0.000500
0.000354
0.000325
0.000213
0.000223
0.000254
0.000247
0.000248
0.000253
0.000280
0.000264
0.000248
0.000319
0.001680
0.000238
0.000220
0.000184
0.000058
0.000222
0.000259
0.000209
0.000246
0.000351
0.000424
0.000363
0.000306
0.000227
0.000220
0.000251
0.000259
0.000226
0.000265
0.000253
0.000265
0.000254
0.000243
0.000262
0.000278
0.000247
0.000264
0.000263
0.000242
0.000235
0.000276
0.000266
0.000275
0.000248
0.000265
0.000203
0.000076
0.000194
0.000220
0.000238
0.000252
0.000232
0.000236
0.000244
0.000250
0.000371
0.000204
0.000231
0.000216
0.000242
0.000248
0.000278
0.000255
0.000263
0.000236
0.000370
0.000223
0.000230
0.000277
0.000288
0.000267
0.000267
0.000270
0.000264
0.000279
0.000280
0.000396
0.000677
0.000062
0.000227
0.000292
0.000226
0.000209
0.000214
0.000229
0.000259
0.000244
0.000240
0.000258
0.000260
0.000334
0.000488
0.000445
0.001598
0.000216
0.000500
0.000216
0.000257
0.000407
0.000494
0.000325
0.000236
0.000258
0.000266
0.000248
0.000276
0.000268
0.000292
0.000294
0.000186
0.000057
0.000411
0.000332
0.000411
0.000275
0.000210
0.000240
0.000246
0.000248
0.000240
0.000235
0.000249
0.000254
0.000260
0.000288
0.000365
0.000478
0.000373
0.001776
0.000282
0.000229
0.000347
0.000595
0.000262
0.000301
0.000372
0.000319
0.000245
0.000235
0.000231
0.000253
0.000192
0.000058
0.000210
0.000221
0.000236
0.000276
0.000514
0.000279
0.000367
0.000233
0.000247
0.000239
0.000242
0.000249
0.000265
0.000261
0.000259
0.000247
0.000425
0.000448
0.000294
0.000421
0.000239
0.001797
0.000307
0.000622
0.000424
0.000425
0.000280
0.000227
0.000253
0.000255
0.000495
0.000058
0.000206
0.000229
0.000236
0.000284
0.000394
0.000474
0.000383
0.000261
0.000222
0.000315
0.000221
0.000252
0.000252
0.000315
0.000322
0.000219
0.000267
0.000373
0.000343
0.000434
0.000533
0.001780
0.000276
0.000526
0.000396
0.000353
0.000254
0.000354
0.000247
0.000231
0.000196
0.000059
0.000226
0.000329
0.000353
0.000362
0.000336
0.000286
0.000406
0.000217
0.000224
0.000281
0.000245
0.000241
0.000235
0.000241
0.000254
0.000239
0.000351
0.000404
0.000488
0.000373
0.000288
0.000249
0.000229
0.001773
0.000520
0.000483
0.000564
0.000277
0.000243
0.000297
0.000152
0.000058
0.000230
0.000184
0.000303
0.000259
0.000327
0.000353
0.000397
0.000296
0.000335
0.000504
0.000208
0.000241
0.000202
0.000279
0.000271
0.000276
0.000241
0.000404
0.000457
0.000359
0.000262
0.000280
0.000234
0.000256
0.000259
0.000269
0.000240
0.000255
0.000235
0.000373
0.000202
0.000057
0.000381
0.000262
0.000239
0.000228
0.000245
0.000245
0.000409
0.000197
0.000223
0.000213
0.000243
0.000478
0.000379
0.000350
0.000411
0.000200
0.000235
0.000242
0.000237
0.000253
0.000292
0.000273
0.000230
0.000237
0.000271
0.000402
0.000387
0.000355
0.000372
0.000211
0.000168
0.000057
0.000211
0.000216
0.000235
0.000249
0.000242
0.000247
0.000248
0.000274
0.000489
0.000239
0.000242
0.000264
0.000242
0.000251
0.000259
0.000300
0.000265
0.000333
0.000254
0.000223
0.000229
0.000271
0.000253
0.000272
0.000267
0.000263
0.000274
0.000247
0.000267
0.000523
0.000158
0.000060
0.000225
0.000200
0.000235
0.000247
0.000254
0.000231
0.000296
0.000456
0.000285
0.000218
0.000246
0.000251
0.000268
0.000258
0.000504
0.001683
0.000264
0.000234
0.000309
0.000378
0.000415
0.000336
0.000382
0.000440
0.000316
0.000363
0.000284
0.000234
0.000262
0.000269
0.001437
0.000061
0.000455
0.000275
0.000266
0.000201
0.000212
0.000230
0.000228
0.000248
0.000248
0.000255
0.000254
0.000251
0.000263
0.000289
0.000627
0.001624
0.000217
0.000220
0.000238
0.000264
0.000237
0.000266
0.000399
0.000371
0.000274
0.000326
0.000247
0.000252
0.000251
0.000281
0.000190
0.000058
0.001248
0.000523
0.000327
0.000304
0.000200
0.000207
0.000218
0.000242
0.000481
0.000225
0.000246
0.000235
0.000485
0.000470
0.000298
0.000353
0.000284
0.000256
0.000337
0.000366
0.000221
0.000224
0.000259
0.000267
0.000258
0.000724
0.000367
0.000327
0.000239
0.000264
0.000171
0.000059
0.000214
0.000224
0.000232
0.000244
0.001464
0.000339
0.000203
0.000249
0.000237
0.000237
0.000244
0.000261
0.000247
0.000254
0.000257
0.000313
0.000466
0.000626
0.000267
0.001796
0.000251
0.000286
0.000480
0.000283
0.000453
0.000426
0.000232
0.000238
0.000238
0.000267
0.000217
0.000059
0.000221
0.000235
0.000227
0.001324
0.000324
0.000219
0.000233
0.000218
0.000233
0.000248
0.000242
0.000250
0.000251
0.000275
0.000247
0.000274
0.000564
0.000381
0.000333
0.000225
0.000258
0.000273
0.000246
0.000241
0.000327
0.000221
0.000236
0.000277
0.000251
0.000311
0.000676
0.000059
0.000225
0.000211
0.000241
0.000255
0.000252
0.000247
0.000241
0.000281
0.000267
0.000244
0.001445
0.000236
0.000252
0.000218
0.000234
0.000236
0.000261
0.000277
0.000262
0.000260
0.000295
0.000448
0.000557
0.000312
0.000252
0.000251
0.001828
0.000228
0.000234
0.000330
0.000465
0.000070
0.000258
0.000434
0.000441
0.000505
0.000522
0.000533
0.001460
0.000441
0.000546
0.000651
0.000604
0.000710
0.000431
0.000637
0.000575
0.001719
0.000540
0.000374
0.000417
0.000292
0.000252
0.000286
0.000284
0.000269
0.000276
0.000268
0.000298
0.000272
0.000268
0.000292
0.001327
0.000073
0.000206
0.000245
0.000222
0.000232
0.000241
0.000251
0.000253
0.000233
0.000246
0.000276
0.000239
0.000261
0.000271
0.000238
0.000256
0.000263
0.001836
0.000256
0.000264
0.000247
0.000256
0.000281
0.000259
0.000339
0.000363
0.000404
0.000314
0.000250
0.000262
0.000293
0.000160
0.000059
0.000208
0.001388
0.000252
0.000268
0.000260
0.000254
0.000239
0.000247
0.000252
0.000239
0.000246
0.000233
0.000258
0.000450
0.000310
0.000324
0.000284
0.000271
0.001899
0.000267
0.000256
0.000256
0.000260
0.000290
0.000252
0.000270
0.000268
0.000252
0.000259
0.000272
0.000244
0.000059
0.000198
0.000236
0.000241
0.001434
0.000248
0.000269
0.000226
0.000223
0.000234
0.000242
0.000271
0.000241
0.000251
0.000258
0.000289
0.000238
0.000256
0.000273
0.000274
0.000251
0.000259
0.001827
0.000262
0.001772
0.000279
0.000226
0.000246
0.000246
0.000259
0.000280
0.000194
0.000057
0.000216
0.000247
0.001362
0.000220
0.000269
0.000237
0.000220
0.000236
0.000256
0.000245
0.000241
0.000283
0.000245
0.000256
0.000264
0.000261
0.000291
0.000258
0.000283
0.000243
0.001852
0.000282
0.001794
0.000272
0.000260
0.000241
0.000260
0.000259
0.000260
0.000262
0.000187
0.000057
0.001449
0.000230
0.000250
0.000224
0.000222
0.000219
0.000272
0.000379
0.000255
0.000236
0.000256
0.000264
0.000312
0.000289
0.000459
0.000266
0.000259
0.000267
0.000230
0.000248
0.000252
0.000327
0.000257
0.000251
0.000268
0.000282
0.000255
0.000308
0.000740
0.000343
0.000181
0.000063
0.000222
0.000274
0.000265
0.000322
0.000347
0.000270
0.001665
0.000306
0.000315
0.000224
0.000259
0.000296
0.000271
0.000260
0.000297
0.000333
0.000310
0.000513
0.000416
0.000295
0.000295
0.000269
0.000270
0.000260
0.000325
0.000265
0.000262
0.000239
0.000246
0.000323
0.000414
0.000066
0.000318
0.000402
0.000212
0.000261
0.000254
0.000234
0.000249
0.000237
0.000252
0.000262
0.001539
0.000221
0.000242
0.000208
0.000232
0.000286
0.000269
0.000273
0.000241
0.000281
0.000244
0.000422
0.000567
0.000320
0.000234
0.000256
0.000279
0.000230
0.000273
0.000236
0.000229
0.000059
0.000191
0.000212
0.000258
0.000510
0.000393
0.000227
0.000229
0.000251
0.000248
0.000252
0.000226
0.000251
0.000236
0.000278
0.000237
0.000251
0.000498
0.001176
0.000216
0.000235
0.000256
0.000236
0.000343
0.000510
0.000209
0.000360
0.000481
0.000354
0.000434
0.000238
0.000145
0.000060
0.000221
0.000197
0.000260
0.000264
0.000321
0.000208
0.000293
0.000528
0.000403
0.000335
0.000351
0.000392
0.000404
0.000339
0.000241
0.000214
0.000234
0.000225
0.000405
0.000525
0.001211
0.000243
0.000233
0.000275
0.000257
0.000236
0.000254
0.000344
0.000366
0.000575
0.000181
0.000056
0.000230
0.000214
0.000228
0.000249
0.000245
0.000254
0.000244
0.000249
0.000255
0.000457
0.000484
0.000327
0.000227
0.000214
0.000225
0.000264
0.000254
0.000259
0.000260
0.000229
0.000501
0.000276
0.000380
0.000364
0.000328
0.000238
0.000256
0.000254
0.000280
0.000265
0.000232
0.000062
0.000307
0.000326
0.000433
0.000380
0.000313
0.000354
0.000236
0.000251
0.000223
0.000271
0.000256
0.000264
0.000249
0.000233
0.000259
0.000249
0.000269
0.000383
0.000504
0.000323
0.000232
0.000259
0.000227
0.000274
0.000256
0.000269
0.000259
0.000270
0.000255
0.000278
0.000328
0.000058
0.000354
0.000240
0.000222
0.000226
0.000236
0.000295
0.000225
0.000252
0.000264
0.000259
0.000232
0.000237
0.000364
0.000538
0.000367
0.000321
0.000218
0.000213
0.000227
0.000285
0.000282
0.000237
0.000267
0.000251
0.000265
0.000377
0.000369
0.000567
0.000499
0.000224
0.000144
0.000058
0.000385
0.000209
0.000217
0.000233
0.000272
0.000198
0.000238
0.000245
0.000255
0.000257
0.000246
0.000249
0.000250
0.000252
0.000231
0.000243
0.000309
0.000250
0.000256
0.000262
0.000260
0.000268
0.000259
0.000263
0.000254
0.000275
0.000253
0.000270
0.000256
0.000286
0.000187
0.000063
0.000183
0.000228
0.000234
0.000251
0.000228
0.000225
0.000261
0.000259
0.000241
0.000294
0.000233
0.000225
0.000261
0.000392
0.000244
0.000320
0.000255
0.000270
0.000243
0.000277
0.000260
0.000252
0.000234
0.000245
0.000272
0.000262
0.000271
0.000258
0.000261
0.000254
0.000232
0.000067
0.000239
0.000379
0.000347
0.000281
0.000303
0.000230
0.000204
0.000249
0.000246
0.000238
0.000245
0.000254
0.000275
0.000245
0.000245
0.000283
0.000247
0.000254
0.000263
0.000260
0.000257
0.000257
0.000281
0.000259
0.000284
0.000276
0.000235
0.000305
0.000253
0.000256
0.000182
0.000057
0.000198
0.000204
0.000236
0.000259
0.000254
0.000465
0.000211
0.000236
0.000296
0.000378
0.000561
0.000336
0.000217
0.000222
0.000242
0.000271
0.000241
0.000254
0.000269
0.000255
0.000272
0.000259
0.000270
0.000339
0.000517
0.000497
0.000268
0.000251
0.000267
0.000274
0.000190
0.000060
0.000226
0.000205
0.000235
0.000247
0.000248
0.000767
0.000268
0.000377
0.000255
0.000228
0.000246
0.000253
0.000258
0.000233
0.000267
0.000259
0.000273
0.000249
0.000679
0.000327
0.000321
0.000243
0.000225
0.000276
0.000277
0.000267
0.000259
0.000265
0.000266
0.000335
0.000355
0.000066
0.000213
0.000228
0.000212
0.000245
0.000255
0.000233
0.000255
0.000217
0.000249
0.000255
0.000257
0.000249
0.000258
0.000399
0.000602
0.000391
0.000221
0.000227
0.000253
0.000246
0.000266
0.000267
0.000518
0.000223
0.000258
0.000742
0.000338
0.000398
0.000280
0.000252
0.000175
0.000058
0.000203
0.000210
0.000240
0.000248
0.000257
0.000259
0.000332
0.000650
0.000358
0.000400
0.000216
0.000243
0.000278
0.000285
0.000275
0.000223
0.000244
0.000248
0.000253
0.000333
0.000572
0.000457
0.000417
0.000254
0.000434
0.000344
0.000481
0.000233
0.000224
0.000535
0.000451
0.000067
0.000260
0.000217
0.000470
0.000203
0.000234
0.000225
0.000239
0.000259
0.000248
0.000241
0.000299
0.000504
0.000302
0.000314
0.000221
0.000237
0.000257
0.000242
0.000263
0.000277
0.000275
0.000252
0.000254
0.000250
0.000328
0.000491
0.000481
0.000243
0.000261
0.000248
0.000212
0.000058
0.000227
0.000211
0.000238
0.000234
0.000247
0.000329
0.000368
0.000526
0.000294
0.000266
0.000350
0.000255
0.000206
0.000260
0.000261
0.000240
0.000258
0.000252
0.000387
0.000354
0.000514
0.000345
0.000442
0.000286
0.000400
0.000390
0.000377
0.000242
0.000233
0.000311
0.000376
0.000058
0.000253
0.000273
0.000194
0.000238
0.000249
0.000259
0.000242
0.000253
0.000282
0.000247
0.000235
0.000331
0.000524
0.000302
0.000374
0.000274
0.000228
0.000256
0.000273
0.000233
0.000245
0.000245
0.000281
0.000257
0.000283
0.000319
0.000738
0.000248
0.000262
0.000262
0.000192
0.000066
0.000215
0.000200
0.000247
0.000264
0.000232
0.000322
0.000524
0.000544
0.000318
0.000674
0.000304
0.000216
0.000221
0.000229
0.000257
0.000319
0.000216
0.000264
0.000544
0.000608
0.001400
0.000244
0.000258
0.000262
0.000290
0.000237
0.000380
0.000417
0.000447
0.000229
0.000154
0.000062
0.000221
0.000206
0.000238
0.000229
0.000242
0.000251
0.000265
0.000276
0.000270
0.000349
0.000341
0.000363
0.000267
0.000397
0.000385
0.000330
0.000234
0.000215
0.000241
0.000256
0.000254
0.000258
0.000255
0.000286
0.000341
0.000537
0.000390
0.000232
0.000245
0.000257
0.000173
0.000059
0.000238
0.000202
0.000251
0.000257
0.000262
0.000225
0.000457
0.000244
0.000224
0.000239
0.000257
0.000259
0.000253
0.000257
0.000251
0.000265
0.000263
0.000248
0.000285
0.000267
0.000259
0.000362
0.000229
0.000254
0.000263
0.000271
0.000253
0.000260
0.000268
0.000266
0.000187
0.000057
0.000243
0.000206
0.000340
0.000481
0.000371
0.000207
0.000202
0.000232
0.000249
0.000252
0.000266
0.000238
0.000253
0.000258
0.000247
0.000242
0.000258
0.000245
0.000294
0.000310
0.000475
0.000402
0.000239
0.000263
0.000266
0.000254
0.000237
0.000250
0.000287
0.000265
0.000217
0.000058
0.000353
0.000515
0.000177
0.000248
0.000243
0.000240
0.000455
0.000210
0.000215
0.000248
0.000268
0.000321
0.000373
0.000435
0.001790
0.000256
0.000235
0.000241
0.000277
0.000256
0.000395
0.000555
0.000468
0.000298
0.000244
0.000233
0.000264
0.000414
0.000281
0.000280
0.000183
0.000060
0.000230
0.000367
0.000292
0.000314
0.000507
0.000237
0.000230
0.000242
0.000251
0.000237
0.000254
0.000237
0.000256
0.000308
0.000496
0.000438
0.000230
0.000222
0.000248
0.000266
0.000263
0.000299
0.000256
0.000270
0.000274
0.000571
0.000408
0.000384
0.000474
0.000236
0.000189
0.000058
0.000212
0.000220
0.000218
0.000270
0.000214
0.000249
0.000261
0.000267
0.000361
0.000404
0.000401
0.000379
0.000223
0.000227
0.000256
0.000322
0.000289
0.000248
0.000245
0.000271
0.000247
0.000410
0.000418
0.000328
0.000296
0.000248
0.000268
0.000529
0.000391
0.000285
0.000148
0.000061
0.000225
0.000236
0.000500
0.000277
0.000312
0.000240
0.000230
0.000248
0.000254
0.000282
0.000239
0.000251
0.000251
0.000241
0.000259
0.000270
0.000427
0.000343
0.000293
0.000382
0.000481
0.000230
0.000263
0.000251
0.000307
0.000290
0.000259
0.000372
0.000362
0.000582
0.000159
0.000058
0.000204
0.000215
0.000211
0.000258
0.000255
0.000487
0.000241
0.000213
0.000255
0.000347
0.000605
0.000460
0.000242
0.000221
0.000263
0.000256
0.000255
0.000240
0.000265
0.000247
0.000244
0.000264
0.000331
0.000581
0.000320
0.000309
0.000375
0.000323
0.000291
0.000242
0.000138
0.000067
0.000191
0.000226
0.000275
0.000480
0.000269
0.000386
0.000245
0.000212
0.000212
0.000257
0.000254
0.000249
0.000263
0.000243
0.000290
0.000240
0.000208
0.000258
0.000295
0.000354
0.000594
0.000334
0.000234
0.000223
0.000267
0.000275
0.000263
0.000263
0.000265
0.000260
0.000212
0.000060
0.000344
0.000323
0.000486
0.000216
0.000220
0.000210
0.000319
0.000516
0.000263
0.000212
0.000243
0.000245
0.000259
0.000499
0.000408
0.000295
0.000217
0.000232
0.000283
0.000220
0.000261
0.000283
0.000263
0.000259
0.000281
0.000329
0.000444
0.000343
0.000340
0.000232
0.000152
0.000058
0.000224
0.000208
0.000253
0.000251
0.000244
0.000250
0.000231
0.000262
0.000242
0.000245
0.000267
0.000241
0.000254
0.001480
0.000278
0.000214
0.000244
0.000252
0.000260
0.000285
0.000263
0.000235
0.000269
0.000262
0.000262
0.000273
0.000294
0.000263
0.000261
0.000279
0.000184
0.000068
0.000195
0.000230
0.000240
0.000216
0.000246
0.000235
0.000258
0.000259
0.000246
0.000251
0.000252
0.000260
0.000234
0.000257
0.000286
0.000245
0.000249
0.000260
0.000262
0.000267
0.000244
0.000260
0.000261
0.000262
0.001335
0.000289
0.000584
0.000440
0.000309
0.000226
0.000146
0.000057
0.000216
0.000205
0.000231
0.000245
0.000500
0.000237
0.000207
0.000215
0.000243
0.000454
0.000422
0.000350
0.000209
0.000225
0.000240
0.000238
0.000262
0.000239
0.000280
0.000265
0.000257
0.000241
0.000347
0.000340
0.000493
0.000446
0.000264
0.000237
0.001377
0.000279
0.000179
0.000066
0.000351
0.000430
0.000358
0.000221
0.000195
0.000210
0.000249
0.000244
0.000235
0.000287
0.000238
0.000229
0.000274
0.000452
0.000420
0.000366
0.000341
0.000225
0.000242
0.000251
0.000263
0.000262
0.000274
0.000264
0.000244
0.000254
0.000462
0.000436
0.000418
0.000372
0.000143
0.000058
0.000212
0.000225
0.001312
0.000404
0.000342
0.000371
0.000366
0.000321
0.000444
0.000384
0.000226
0.000217
0.000232
0.000261
0.000246
0.000260
0.000375
0.000519
0.000395
0.000298
0.000275
0.000264
0.000258
0.000531
0.000213
0.000257
0.000257
0.000286
0.000290
0.000618
0.000241
0.000058
0.000344
0.000386
0.000221
0.000205
0.001562
0.000501
0.000317
0.000217
0.000201
0.000263
0.000220
0.000219
0.000240
0.000269
0.000250
0.000262
0.000272
0.000367
0.000395
0.000394
0.000436
0.000201
0.000226
0.000241
0.000242
0.000265
0.000271
0.000254
0.000281
0.000265
0.000195
0.000059
0.000207
0.000303
0.000252
0.000230
0.000236
0.000252
0.000245
0.000249
0.000232
0.000241
0.001436
0.000516
0.000238
0.000199
0.000223
0.000244
0.000261
0.000263
0.000263
0.000251
0.000287
0.000244
0.000259
0.000475
0.000363
0.000483
0.000226
0.000293
0.000220
0.000283
0.000185
0.000057
0.000205
0.000456
0.000202
0.000217
0.000319
0.000426
0.000397
0.000332
0.000439
0.000230
0.000209
0.000242
0.000258
0.000260
0.000267
0.001496
0.000285
0.000276
0.000262
0.000262
0.000274
0.000263
0.000251
0.000257
0.000248
0.000284
0.000520
0.000364
0.000296
0.000306
0.000129
0.000061
0.000205
0.000214
0.000228
0.000245
0.000250
0.000243
0.000236
0.000248
0.000271
0.000563
0.000320
0.000311
0.000232
0.000215
0.000236
0.000275
0.000249
0.000264
0.000265
0.000236
0.000255
0.000373
0.001263
0.000241
0.000265
0.000221
0.000243
0.000266
0.000234
0.000255
0.000205
0.000058
0.000251
0.000297
0.000433
0.000313
0.000231
0.000208
0.000273
0.000235
0.000253
0.000288
0.000225
0.000272
0.000255
0.000255
0.000241
0.000266
0.000257
0.000272
0.000257
0.000247
0.000264
0.000281
0.000264
0.000258
0.000293
0.000263
0.000298
0.000239
0.000253
0.000516
0.001325
0.000058
0.000223
0.000228
0.000238
0.000233
0.000241
0.000251
0.000248
0.000251
0.000218
0.000261
0.000254
0.000274
0.000252
0.000249
0.000259
0.001710
0.000338
0.000224
0.000202
0.000248
0.000245
0.000259
0.000259
0.000273
0.000278
0.000282
0.000258
0.000277
0.000266
0.000258
0.000210
0.000059
0.000377
0.000302
0.001324
0.000210
0.000223
0.000236
0.000220
0.000248
0.000286
0.000224
0.000241
0.000383
0.000411
0.000463
0.000248
0.000215
0.000233
0.000234
0.000292
0.000266
0.000252
0.000251
0.000261
0.000270
0.000267
0.000445
0.000409
0.000300
0.000272
0.000291
0.000170
0.000056
0.000201
0.000205
0.000249
0.000266
0.000225
0.000233
0.000230
0.000347
0.000364
0.000468
0.001099
0.000261
0.000233
0.000261
0.000266
0.000249
0.000260
0.000265
0.000310
0.000389
0.000416
0.000263
0.000232
0.000243
0.000282
0.000298
0.000223
0.000285
0.000304
0.000238
0.000218
0.000058
0.000238
0.000421
0.000426
0.000228
0.000205
0.000224
0.000218
0.000261
0.000274
0.000260
0.000235
0.000239
0.000541
0.000490
0.000460
0.001461
0.000228
0.000254
0.000353
0.000356
0.000441
0.000424
0.000526
0.000318
0.000238
0.000270
0.000253
0.000270
0.000293
0.000245
0.000199
0.000061
0.000201
0.000350
0.000392
0.000485
0.000298
0.000227
0.000235
0.000263
0.000238
0.000259
0.000258
0.000224
0.000271
0.000287
0.000221
0.000304
0.000412
0.000475
0.000279
0.001311
0.000299
0.000248
0.000249
0.000262
0.000567
0.000358
0.000413
0.000217
0.000228
0.000276
0.000206
0.000059
0.000203
0.000222
0.000238
0.000248
0.000251
0.000356
0.000397
0.000344
0.000365
0.000261
0.000227
0.000243
0.000266
0.000282
0.000253
0.000264
0.000278
0.000256
0.000261
0.000368
0.000460
0.000391
0.000324
0.001355
0.000345
0.000256
0.000273
0.000440
0.000488
0.000357
0.000248
0.000057
0.000210
0.000211
0.000219
0.000260
0.000235
0.000254
0.001735
0.000248
0.000213
0.000231
0.000221
0.000270
0.000313
0.000324
0.000328
0.000300
0.000312
0.000276
0.000577
0.000305
0.000282
0.000272
0.000229
0.000229
0.001445
0.000521
0.000309
0.000468
0.000324
0.000296
0.000159
0.000058
0.000214
0.000225
0.000245
0.000274
0.000223
0.000251
0.001790
0.000212
0.000236
0.000254
0.000388
0.000404
0.001506
0.000253
0.000430
0.000207
0.000227
0.000222
0.000250
0.000276
0.001753
0.000444
0.000390
0.000286
0.000214
0.000221
0.000237
0.000277
0.000259
0.000251
0.000204
0.000058
0.000211
0.000228
0.000241
0.000261
0.000256
0.000300
0.000276
0.000249
0.000257
0.000249
0.000249
0.000243
0.000261
0.000263
0.000264
0.001504
0.000277
0.000213
0.000256
0.000279
0.000271
0.000253
0.000441
0.001271
0.000285
0.000255
0.000263
0.000275
0.000417
0.000225
0.000167
0.000059
0.000226
0.000207
0.000239
0.000232
0.000243
0.000240
0.000235
0.001767
0.000207
0.000229
0.000220
0.000351
0.000256
0.000230
0.001453
0.000237
0.000227
0.000207
0.000263
0.000256
0.000250
0.000294
0.000348
0.001355
0.000280
0.000235
0.000236
0.000261
0.001370
0.000275
0.000217
0.000057
0.000251
0.000328
0.000228
0.000201
0.000245
0.000256
0.000260
0.000262
0.000249
0.000312
0.000207
0.000242
0.000263
0.000262
0.000376
0.001433
0.000270
0.000234
0.000248
0.000256
0.000266
0.000286
0.000248
0.001474
0.000377
0.000259
0.000266
0.001325
0.000228
0.000239
0.000169
0.000058
0.000232
0.000420
0.000280
0.000213
0.000221
0.000233
0.000256
0.000254
0.000262
0.000274
0.000245
0.000259
0.000242
0.000329
0.000430
0.001240
0.000212
0.000211
0.000250
0.000275
0.000248
0.000247
0.000224
0.001315
0.000372
0.000226
0.000239
0.000231
0.000255
0.001347
0.000303
0.000062
0.000314
0.000249
0.000224
0.000230
0.000220
0.000256
0.000268
0.000223
0.000321
0.000210
0.000243
0.000246
0.000287
0.000265
0.000415
0.001498
0.000233
0.000225
0.000366
0.000518
0.000245
0.000350
0.001344
0.000322
0.000272
0.000242
0.001271
0.000347
0.000295
0.000495
0.000286
0.000057
0.000237
0.000217
0.000250
0.000248
0.000252
0.000270
0.000260
0.000249
0.000261
0.000260
0.000346
0.000499
0.001353
0.000211
0.000248
0.000247
0.000281
0.000266
0.000218
0.000240
0.000328
0.001296
0.000248
0.000224
0.000233
0.000244
0.001512
0.000451
0.000440
0.000254
0.000178
0.000057
0.000205
0.000224
0.000235
0.000252
0.000221
0.000250
0.000261
0.000293
0.000483
0.000388
0.000306
0.001468
0.000228
0.000220
0.000247
0.000255
0.000259
0.000309
0.001647
0.000338
0.000337
0.000359
0.001445
0.000282
0.000282
0.000343
0.000228
0.000215
0.000270
0.000281
0.000160
0.000059
0.000209
0.000224
0.000292
0.000310
0.000216
0.000645
0.000230
0.000342
0.001494
0.000293
0.000314
0.000247
0.000223
0.000362
0.000286
0.001387
0.000260
0.000208
0.000236
0.000249
0.000271
0.001593
0.000371
0.000275
0.000238
0.000215
0.000510
0.000315
0.000232
0.000236
0.000245
0.000058
0.000213
0.000363
0.000335
0.000288
0.000200
0.001480
0.000264
0.000219
0.000230
0.000269
0.000271
0.000244
0.000272
0.001518
0.000279
0.000242
0.000402
0.001280
0.000301
0.000473
0.000307
0.000260
0.000259
0.000229
0.000273
0.000271
0.000435
0.000247
0.000240
0.000260
0.000216
0.000058
0.000215
0.000350
0.000279
0.001419
0.000271
0.000221
0.000279
0.000262
0.000241
0.000239
0.000258
0.000288
0.001604
0.000201
0.000235
0.000223
0.001360
0.000352
0.000433
0.000427
0.000364
0.000227
0.000233
0.000245
0.000352
0.000243
0.000245
0.000251
0.000254
0.000243
0.000191
0.000057
0.000272
0.000390
0.001371
0.000235
0.000228
0.000265
0.000261
0.000236
0.000345
0.000381
0.001314
0.000266
0.000306
0.000238
0.000218
0.001392
0.000635
0.000257
0.000305
0.000402
0.000345
0.000236
0.000229
0.000230
0.000264
0.000287
0.000270
0.000304
0.000535
0.000395
0.001373
0.000063
0.000218
0.000228
0.000213
0.000250
0.000242
0.000376
0.001574
0.000297
0.000201
0.000226
0.000248
0.001488
0.000354
0.000340
0.000442
0.000248
0.000231
0.000236
0.000218
0.000276
0.000270
0.000249
0.000273
0.000272
0.000249
0.000319
0.000402
0.000514
0.001464
0.000267
0.000184
0.000058
0.000227
0.000203
0.000390
0.000637
0.001098
0.000318
0.000254
0.000261
0.000244
0.000247
0.000252
0.000293
0.000305
0.000562
0.000309
0.000224
0.000252
0.000270
0.000247
0.000268
0.000268
0.000269
0.000244
0.000250
0.000252
0.000557
0.000438
0.000256
0.000297
0.001484
0.000132
0.000060
0.000204
0.000216
0.000258
0.000467
0.000360
0.000312
0.000285
0.000308
0.000274
0.000269
0.000275
0.000242
0.000246
0.000311
0.000254
0.000278
0.000565
0.000323
0.000283
0.000381
0.000280
0.000461
0.000259
0.000222
0.000232
0.000259
0.000248
0.000290
0.000407
0.000435
0.000290
0.000058
0.000215
0.001369
0.000354
0.000305
0.000348
0.000461
0.000350
0.000287
0.000229
0.000217
0.000266
0.000233
0.000252
0.000294
0.000252
0.000269
0.000274
0.001415
0.000225
0.000226
0.000233
0.000287
0.000268
0.000279
0.000280
0.000234
0.000248
0.000253
0.000343
0.000476
0.000282
0.000057
0.000234
0.000239
0.000232
0.001531
0.000331
0.000218
0.000215
0.000218
0.000220
0.000249
0.000258
0.000273
0.000248
0.000248
0.000260
0.000260
0.000247
0.000271
0.000271
0.000258
0.001406
0.000272
0.000248
0.000300
0.000231
0.000231
0.000261
0.000291
0.000245
0.000514
0.000344
0.000059
0.000194
0.000227
0.000360
0.000314
0.000223
0.000252
0.001612
0.000347
0.000252
0.000206
0.000227
0.000381
0.000286
0.000231
0.000232
0.000227
0.000251
0.000258
0.000261
0.000266
0.000612
0.000408
0.001148
0.000267
0.000213
0.000245
0.000252
0.000269
0.000258
0.000282
0.000301
0.000062
0.000235
0.000354
0.000201
0.000206
0.000244
0.000233
0.000242
0.000247
0.001492
0.000552
0.000273
0.000301
0.000254
0.000192
0.000237
0.000236
0.000261
0.000261
0.000287
0.000290
0.000334
0.000536
0.000365
0.001379
0.000245
0.000245
0.000269
0.000272
0.000258
0.000280
0.000663
0.000064
0.000245
0.000205
0.000264
0.000225
0.000227
0.000240
0.000234
0.000251
0.000267
0.001621
0.000321
0.000249
0.000255
0.000261
0.000463
0.000307
0.000426
0.000445
0.000331
0.000335
0.000417
0.000551
0.001225
0.000241
0.000226
0.000235
0.001808
0.000435
0.000539
0.000324
0.000135
0.000057
0.000207
0.000213
0.000231
0.000244
0.000228
0.000264
0.000359
0.000411
0.000548
0.000367
0.000296
0.000214
0.000227
0.000234
0.000276
0.000262
0.000263
0.000249
0.000248
0.000279
0.000319
0.000451
0.001249
0.000255
0.000234
0.000254
0.001910
0.000414
0.000505
0.000232
0.000131
0.000058
0.000205
0.000222
0.000229
0.001594
0.000361
0.000262
0.000248
0.000243
0.000254
0.000321
0.000366
0.000377
0.000355
0.000301
0.000365
0.000467
0.000318
0.001264
0.000263
0.000207
0.000256
0.000223
0.000370
0.000382
0.000640
0.000446
0.000220
0.000227
0.000254
0.000273
0.000209
0.000058
0.000208
0.000223
0.001465
0.000387
0.000207
0.000214
0.000222
0.000249
0.000236
0.000243
0.000245
0.000306
0.000268
0.000266
0.000317
0.000327
0.000394
0.000357
0.001383
0.000298
0.000215
0.000261
0.000238
0.000266
0.000360
0.000592
0.000398
0.000267
0.000291
0.000251
0.000389
0.000058
0.000216
0.000208
0.000259
0.000253
0.001585
0.000232
0.000245
0.000240
0.000257
0.000255
0.000251
0.000305
0.000247
0.000254
0.000383
0.000513
0.001477
0.000723
0.000267
0.000307
0.000235
0.000233
0.000234
0.000276
0.001743
0.000721
0.000257
0.000275
0.000242
0.000310
0.000181
0.000056
0.000233
0.000221
0.000242
0.000253
0.000250
0.000235
0.000245
0.000248
0.000259
0.000214
0.000276
0.000286
0.000248
0.000252
0.000259
0.000258
0.000283
0.001610
0.000663
0.000465
0.000267
0.000247
0.000223
0.000276
0.000297
0.000245
0.000264
0.000248
0.001573
0.000271
0.000329
0.000058
0.000199
0.000227
0.000262
0.000217
0.000247
0.000230
0.000256
0.000252
0.000261
0.000254
0.000391
0.000307
0.000468
0.000356
0.000188
0.000218
0.000266
0.001472
0.000680
0.000425
0.000419
0.000206
0.000222
0.000242
0.000272
0.000249
0.000272
0.000263
0.001473
0.000448
0.000208
0.000058
0.000226
0.000211
0.000228
0.000258
0.000247
0.000258
0.000255
0.000223
0.000250
0.000272
0.000331
0.000436
0.000300
0.000255
0.000234
0.000246
0.000266
0.000258
0.001620
0.000531
0.000488
0.000354
0.000225
0.000258
0.000244
0.000271
0.000265
0.000292
0.000263
0.001406
0.000300
0.000059
0.000211
0.000231
0.000217
0.000240
0.000248
0.000253
0.000298
0.000342
0.000369
0.000421
0.000367
0.000397
0.000307
0.000241
0.000231
0.000230
0.000264
0.000268
0.001395
0.000861
0.000332
0.000214
0.000457
0.000221
0.000239
0.000251
0.000272
0.000257
0.000243
0.000274
0.000318
0.000058
0.000193
0.000277
0.000232
0.000220
0.000263
0.000261
0.000223
0.000221
0.000238
0.000284
0.000249
0.000241
0.000386
0.000373
0.000426
0.000461
0.000206
0.000257
0.000267
0.000244
0.000258
0.000383
0.001391
0.001022
0.000255
0.000248
0.000261
0.000262
0.000268
0.000298
0.000159
0.000066
0.000191
0.001377
0.000272
0.000199
0.000217
0.000239
0.000245
0.000248
0.000248
0.000278
0.000216
0.000271
0.000227
0.000490
0.000294
0.000483
0.000256
0.000230
0.000246
0.000257
0.000294
0.000228
0.000256
0.000288
0.001793
0.000317
0.000250
0.000403
0.000369
0.000407
0.000248
0.000066
0.000197
0.000230
0.000456
0.001189
0.000235
0.000264
0.000214
0.000251
0.000246
0.000255
0.000289
0.000238
0.000259
0.000463
0.000413
0.000378
0.000210
0.000308
0.000296
0.000209
0.000227
0.000262
0.000264
0.000269
0.000274
0.001503
0.000754
0.000302
0.000300
0.000262
0.000179
0.000057
0.000222
0.000245
0.000458
0.000379
0.001288
0.000244
0.000211
0.000215
0.000248
0.000240
0.000242
0.000243
0.000239
0.000248
0.000253
0.000235
0.000265
0.000253
0.000259
0.000253
0.000241
0.000274
0.000343
0.000295
0.000235
0.000260
0.000280
0.001521
0.000227
0.000221
0.000148
0.000060
0.000205
0.000216
0.000255
0.000319
0.000344
0.000349
0.000394
0.000252
0.001554
0.000283
0.000288
0.000437
0.000392
0.000241
0.000469
0.000231
0.000277
0.000196
0.000239
0.000266
0.000270
0.000261
0.000259
0.000269
0.000276
0.000430
0.000492
0.000265
0.001534
0.000249
0.000163
0.000065
0.000203
0.000230
0.000241
0.000247
0.000234
0.000228
0.000286
0.000340
0.000382
0.002078
0.000209
0.000207
0.000256
0.000256
0.000263
0.000318
0.000254
0.000215
0.000341
0.000332
0.000409
0.000442
0.001498
0.000217
0.000223
0.000502
0.001817
0.000280
0.000255
0.001445
0.000204
0.000058
0.000342
0.000391
0.000493
0.000193
0.000290
0.000225
0.000259
0.000246
0.000270
0.000228
0.000247
0.000437
0.000402
0.000257
0.000466
0.000244
0.000235
0.001535
0.000519
0.001979
0.000282
0.000263
0.001405
0.000483
0.002427
0.000302
0.000205
0.000213
0.000484
0.000252
0.000347
0.000058
0.000203
0.000216
0.000250
0.000259
0.001463
0.001671
0.001079
0.000231
0.000212
0.001576
0.001989
0.000234
0.000331
0.000380
0.000385
0.000295
0.000514
0.000258
0.000257
0.000237
0.000249
0.000251
0.000283
0.001564
0.002478
0.000302
0.000199
0.000224
0.000291
0.000359
0.000372
0.000057
0.000236
0.000221
0.000214
0.000231
0.000238
0.000227
0.000257
0.000265
0.000240
0.000262
0.000233
0.000303
0.000440
0.000513
0.000328
0.000209
0.000227
0.000253
0.000271
0.000243
0.000258
0.001416
0.000466
0.000431
0.002087
0.000246
0.000259
0.000382
0.000433
0.000401
0.000168
0.000068
0.000245
0.000346
0.000390
0.000313
0.000229
0.000236
0.000226
0.000241
0.000265
0.000224
0.000266
0.000263
0.000256
0.001600
0.001414
0.001238
0.000266
0.000226
0.000220
0.000229
0.000284
0.000273
0.000250
0.000265
0.002275
0.000236
0.000217
0.000260
0.000325
0.000299
0.000246
0.000059
0.000232
0.000355
0.000632
0.000281
0.000210
0.000224
0.000225
0.000262
0.001889
0.001432
0.000279
0.000338
0.000392
0.000362
0.000269
0.000207
0.000240
0.000257
0.000269
0.000251
0.000282
0.000252
0.000474
0.000263
0.000263
0.000269
0.000242
0.000278
0.000257
0.000255
0.000205
0.000057
0.000225
0.000232
0.000235
0.000248
0.000229
0.000277
0.001554
0.001482
0.001334
0.000212
0.000215
0.000221
0.000242
0.000255
0.000260
0.000253
0.000263
0.002167
0.000209
0.000214
0.000244
0.000271
0.000259
0.000267
0.000254
0.000277
0.000262
0.000263
0.000277
0.000272
0.000153
0.000058
0.001520
0.000312
0.002399
0.000254
0.000277
0.000292
0.000257
0.000251
0.000270
0.000235
0.000255
0.000243
0.000256
0.000243
0.000264
0.000255
0.000262
0.000297
0.000230
0.000265
0.000256
0.000277
0.000271
0.000271
0.000248
0.000262
0.000245
0.000278
0.000251
0.000279
0.000385
0.000058
0.000228
0.002545
0.000328
0.000205
0.000202
0.000228
0.000224
0.000280
0.000245
0.000255
0.000479
0.000289
0.000348
0.000238
0.000222
0.002215
0.000215
0.000228
0.000251
0.000526
0.000347
0.000312
0.000220
0.000237
0.000253
0.000272
0.000267
0.000256
0.000295
0.001666
0.001210
0.000069
0.000195
0.000218
0.000358
0.000362
0.000331
0.000239
0.000239
0.000230
0.000251
0.000257
0.000266
0.000238
0.000234
0.000234
0.000269
0.000267
0.000268
0.000660
0.000379
0.000247
0.000223
0.000241
0.000272
0.000259
0.000256
0.000274
0.000254
0.000267
0.000250
0.000355
0.000400
0.000060
0.001122
0.000210
0.000344
0.000502
0.000289
0.000198
0.000208
0.000240
0.002321
0.000379
0.000252
0.000380
0.000206
0.000283
0.000357
0.000262
0.000261
0.000258
0.000268
0.000234
0.000237
0.000331
0.000748
0.000322
0.001792
0.001398
0.000484
0.000523
0.000234
0.000238
0.000213
0.000066
0.000242
0.000332
0.000301
0.000195
0.000218
0.000241
0.000245
0.000256
0.000239
0.000247
0.000260
0.000250
0.000242
0.000282
0.000328
0.000534
0.001898
0.001334
0.000433
0.000391
0.000433
0.000250
0.000253
0.000245
0.002198
0.000488
0.000380
0.000248
0.000263
0.000279
0.000212
0.000061
0.000216
0.000210
0.000251
0.000250
0.000240
0.000451
0.000333
0.000271
0.000342
0.000233
0.000239
0.000273
0.000237
0.002111
0.000396
0.000339
0.000235
0.000250
0.000267
0.000256
0.000255
0.002545
0.000259
0.000219
0.000262
0.000251
0.000246
0.000265
0.000261
0.000288
0.000200
0.000056
0.000278
0.000426
0.000454
0.000350
0.000230
0.000211
0.000218
0.000240
0.000246
0.000271
0.002090
0.000319
0.000310
0.000211
0.000219
0.000242
0.000275
0.000238
0.002259
0.000390
0.000229
0.000258
0.000247
0.000265
0.000265
0.000286
0.000276
0.000250
0.000267
0.000253
0.000175
0.000081
0.000199
0.000218
0.000244
0.000231
0.000238
0.000257
0.000234
0.000251
0.000234
0.002174
0.000236
0.000297
0.000199
0.000463
0.000208
0.000223
0.000252
0.000282
0.000267
0.000260
0.002040
0.000271
0.000354
0.000362
0.000484
0.000354
0.000286
0.000239
0.000239
0.000268
0.000176
0.000060
0.000207
0.000248
0.000217
0.000241
0.000231
0.000377
0.000209
0.002343
0.000217
0.000229
0.000209
0.000262
0.000250
0.000229
0.000302
0.002208
0.000532
0.000222
0.000254
0.000255
0.000239
0.000266
0.000266
0.000275
0.000265
0.000259
0.000278
0.000262
0.000270
0.000315
0.000154
0.000060
0.000185
0.003009
0.000241
0.000223
0.000230
0.000243
0.000250
0.000336
0.000337
0.000403
0.002137
0.000254
0.000237
0.000271
0.000314
0.000567
0.000329
0.000304
0.000228
0.000232
0.000237
0.000268
0.000267
0.000235
0.000254
0.000261
0.000272
0.000263
0.000375
0.000661
0.000270
0.000058
0.000219
0.000270
0.000260
0.000241
0.000237
0.000247
0.000249
0.000251
0.001588
0.002056
0.000515
0.000276
0.000510
0.000759
0.000251
0.000211
0.000222
0.000215
0.000268
0.000283
0.000280
0.000230
0.000239
0.000277
0.001815
0.001458
0.000293
0.000278
0.000276
0.000366
0.000386
0.000058
0.001954
0.000219
0.000235
0.000204
0.000279
0.000343
0.000510
0.000278
0.000317
0.000249
0.000203
0.000225
0.000251
0.000283
0.000220
0.000261
0.000265
0.000266
0.001896
0.000218
0.000226
0.000212
0.000308
0.000283
0.000277
0.000249
0.001523
0.000333
0.000224
0.000236
0.000153
0.000058
0.000204
0.000222
0.000231
0.000246
0.000251
0.000228
0.000377
0.000297
0.000400
0.000349
0.000207
0.000240
0.000308
0.000323
0.000385
0.000335
0.000228
0.000213
0.000252
0.000449
0.000488
0.000402
0.000224
0.000233
0.000240
0.000259
0.000263
0.000268
0.000309
0.000240
0.000187
0.000060
0.001443
0.000431
0.000224
0.001991
0.000269
0.000439
0.000337
0.000377
0.000207
0.000220
0.000249
0.000246
0.000255
0.000245
0.000288
0.000266
0.000432
0.000283
0.000450
0.000338
0.000370
0.000239
0.000228
0.000259
0.000338
0.000224
0.000227
0.000317
0.000431
0.000398
0.001380
0.000060
0.000214
0.000220
0.002052
0.000269
0.000328
0.000257
0.000260
0.000250
0.000260
0.000259
0.000239
0.000243
0.000239
0.000263
0.000275
0.000349
0.000743
0.001712
0.000264
0.000254
0.000269
0.000250
0.000400
0.000505
0.001477
0.000263
0.000358
0.002018
0.000235
0.000233
0.000184
0.000057
0.000211
0.000197
0.000219
0.000256
0.000230
0.000237
0.000246
0.000347
0.000317
0.000260
0.000392
0.000366
0.000349
0.000276
0.000221
0.000249
0.000255
0.000257
0.000269
0.000255
0.000333
0.000280
0.000248
0.000266
0.000268
0.001555
0.000297
0.000393
0.001997
0.000253
0.000180
0.000060
0.000202
0.000227
0.000224
0.000240
0.000492
0.000213
0.000230
0.000395
0.000375
0.000315
0.000227
0.000225
0.000242
0.000268
0.000276
0.000339
0.000501
0.000337
0.000277
0.000400
0.000570
0.000462
0.001515
0.000255
0.000249
0.002016
0.000341
0.000229
0.000225
0.000283
0.000168
0.000058
0.000194
0.000222
0.000228
0.000235
0.000242
0.000286
0.000231
0.000275
0.000264
0.000303
0.001818
0.000288
0.000394
0.000322
0.000469
0.000356
0.001521
0.000333
0.000228
0.000303
0.002141
0.000491
0.000264
0.000215
0.000250
0.000254
0.000487
0.000258
0.000232
0.000277
0.000214
0.000067
0.000230
0.000309
0.000377
0.000264
0.000226
0.000220
0.000236
0.000246
0.000339
0.000257
0.000224
0.000248
0.000272
0.000221
0.000563
0.000300
0.001285
0.000259
0.000344
0.002005
0.000265
0.000263
0.000214
0.000246
0.000264
0.000260
0.000261
0.000265
0.000271
0.000262
0.000199
0.000063
0.000347
0.000275
0.002070
0.000215
0.000243
0.000220
0.000234
0.000328
0.000489
0.001417
0.000328
0.000366
0.000334
0.002000
0.000242
0.000252
0.000230
0.000271
0.000263
0.000237
0.000297
0.000270
0.000271
0.000432
0.000436
0.000340
0.000358
0.002186
0.000628
0.000371
0.000417
0.000059
0.000212
0.000222
0.000208
0.002036
0.000201
0.000219
0.000246
0.000261
0.000213
0.000252
0.000241
0.000247
0.000251
0.000271
0.000623
0.000267
0.001297
0.000233
0.000255
0.000263
0.000262
0.000251
0.000266
0.000247
0.000383
0.000434
0.000433
0.000273
0.001662
0.000222
0.000151
0.000064
0.000205
0.000222
0.000225
0.000228
0.000253
0.000253
0.000246
0.000259
0.000271
0.000358
0.000414
0.001420
0.000205
0.000214
0.000235
0.000245
0.000249
0.000262
0.000259
0.000542
0.000352
0.000505
0.000222
0.001554
0.000257
0.000238
0.000279
0.000264
0.000265
0.000278
0.000200
0.000065
0.000205
0.000224
0.000236
0.000257
0.000248
0.000240
0.000253
0.000230
0.000275
0.000244
0.000252
0.000246
0.000263
0.000258
0.001567
0.000240
0.000243
0.000273
0.000322
0.000324
0.000354
0.000266
0.000224
0.000268
0.000229
0.000278
0.001453
0.000294
0.000221
0.000227
0.000149
0.000058
0.000197
0.000209
0.000254
0.000253
0.000293
0.000233
0.000216
0.000253
0.000242
0.000247
0.000244
0.000264
0.000228
0.000378
0.000302
0.000312
0.000339
0.001582
0.000333
0.000207
0.000235
0.000238
0.000241
0.000344
0.000427
0.000426
0.000387
0.000242
0.000220
0.001595
0.000186
0.000058
0.000386
0.000322
0.000343
0.000310
0.000205
0.000219
0.000237
0.000260
0.000247
0.000261
0.000244
0.000239
0.001466
0.000439
0.000198
0.000206
0.000229
0.000232
0.000267
0.000261
0.000274
0.000232
0.000251
0.000259
0.000287
0.000381
0.000444
0.000422
0.000264
0.000225
0.000163
0.000061
0.000215
0.000275
0.000498
0.000297
0.000349
0.000258
0.000213
0.000236
0.000257
0.000248
0.000245
0.000251
0.000255
0.000246
0.001359
0.000263
0.000204
0.000218
0.000248
0.000281
0.000255
0.000244
0.000262
0.000268
0.000251
0.000251
0.000306
0.000675
0.000462
0.000272
0.000166
0.000066
0.000193
0.001531
0.000273
0.000401
0.000521
0.000248
0.000235
0.000228
0.000248
0.000266
0.000243
0.000245
0.000263
0.000263
0.000269
0.001535
0.000250
0.000271
0.000263
0.000254
0.000261
0.000270
0.000253
0.000265
0.000257
0.000284
0.000520
0.000358
0.000319
0.000239
0.000140
0.000065
0.000188
0.000227
0.000266
0.001656
0.000402
0.000335
0.000207
0.000220
0.000250
0.000251
0.000261
0.000263
0.000252
0.000263
0.000249
0.000260
0.000357
0.001423
0.000225
0.000242
0.001521
0.000515
0.000476
0.000294
0.000296
0.000228
0.000271
0.000479
0.000223
0.000228
0.000192
0.000058
0.000301
0.000217
0.000221
0.000238
0.000235
0.000251
0.000260
0.000257
0.000262
0.000250
0.000245
0.000257
0.000327
0.000512
0.001651
0.001470
0.000369
0.000569
0.000277
0.000255
0.000228
0.000266
0.000219
0.000268
0.000259
0.000272
0.000273
0.000260
0.001585
0.000311
0.000139
0.000058
0.000244
0.000333
0.000361
0.000326
0.000262
0.000204
0.000221
0.000373
0.000473
0.001462
0.000230
0.001547
0.000397
0.000443
0.000438
0.000286
0.000324
0.000336
0.000344
0.000287
0.000239
0.000343
0.001566
0.000531
0.000237
0.000262
0.000251
0.000243
0.000262
0.000264
0.000196
0.000059
0.000211
0.000212
0.000244
0.000253
0.000249
0.001706
0.000914
0.000897
0.000247
0.000234
0.000250
0.000271
0.000238
0.000272
0.000248
0.000240
0.000276
0.000255
0.000276
0.000258
0.001518
0.000269
0.000251
0.000219
0.000239
0.000242
0.000258
0.000294
0.000248
0.000288
0.000224
0.000060
0.000190
0.000229
0.001527
0.000977
0.000408
0.000258
0.000222
0.000207
0.000254
0.000256
0.000242
0.000252
0.000257
0.002020
0.000477
0.000212
0.000225
0.000238
0.000247
0.000250
0.000210
