0.000100
0.019983
0.001649
0.000279
0.000240
0.000256
0.000277
0.000252
0.000329
0.000294
0.000246
0.000379
0.000510
0.000505
0.000353
0.000329
0.000272
0.000415
0.000374
0.000409
0.000307
0.001829
0.000513
0.000461
0.000240
0.000300
0.000308
0.000418
0.000417
0.000406
0.000520
0.000288
0.000058
0.000210
0.000236
0.000266
0.000262
0.000289
0.000241
0.000269
0.000266
0.000277
0.000308
0.000390
0.000490
0.000292
0.000288
0.000398
0.000365
0.000344
0.000243
0.000224
0.001732
0.000288
0.000220
0.000509
0.000266
0.000224
0.000249
0.000300
0.000280
0.000289
0.000377
0.000339
0.000056
0.000183
0.000228
0.000263
0.000261
0.000253
0.000250
0.000262
0.000258
0.000280
0.001677
0.000231
0.000241
0.000246
0.000276
0.000277
0.000254
0.000271
0.000264
0.000333
0.001806
0.000262
0.000253
0.000456
0.000475
0.000373
0.000242
0.000250
0.000554
0.000404
0.000813
0.000164
0.000056
0.000229
0.000213
0.000272
0.000222
0.000308
0.000260
0.000294
0.000660
0.000338
0.000295
0.000187
0.000235
0.000221
0.000260
0.000246
0.000250
0.000255
0.000269
0.000297
0.000335
0.001733
0.000253
0.000239
0.000459
0.000260
0.000701
0.000665
0.000473
0.000346
0.000250
0.000214
0.000057
0.000186
0.000219
0.000258
0.000248
0.000254
0.000251
0.000287
0.000474
0.001453
0.000233
0.000246
0.000238
0.000244
0.000246
0.000264
0.000282
0.000298
0.000802
0.001372
0.000281
0.000268
0.000422
0.000263
0.000232
0.000247
0.000248
0.000274
0.000279
0.000257
0.000258
0.000215
0.000055
0.000217
0.000230
0.000218
0.000248
0.000262
0.000239
0.000247
0.000255
0.000230
0.000261
0.001708
0.000271
0.000200
0.000233
0.000223
0.000246
0.000236
0.000255
0.000240
0.000270
0.000259
0.001762
0.000230
0.000250
0.000466
0.000239
0.000235
0.000245
0.000262
0.000260
0.000206
0.000056
0.000198
0.000198
0.000247
0.000243
0.000241
0.000248
0.000262
0.000245
0.000254
0.000251
0.000267
0.000254
0.000253
0.000274
0.001642
0.000274
0.000281
0.000237
0.000243
0.000273
0.000269
0.000245
0.000255
0.000247
0.000268
0.001854
0.000413
0.000330
0.000275
0.000254
0.000220
0.000056
0.000190
0.000223
0.000228
0.000265
0.000261
0.000246
0.000304
0.000362
0.000457
0.000415
0.000224
0.000224
0.000257
0.000246
0.001718
0.000436
0.000301
0.000407
0.000312
0.000201
0.000257
0.000282
0.000279
0.001799
0.000440
0.000539
0.000247
0.000205
0.000224
0.000259
0.000213
0.000056
0.000200
0.000223
0.000226
0.000272
0.000325
0.000583
0.000283
0.000270
0.000207
0.000228
0.000266
0.000231
0.000264
0.001792
0.000390
0.000304
0.000227
0.000248
0.000264
0.000280
0.000261
0.000251
0.000271
0.001909
0.000293
0.000402
0.000268
0.000229
0.000311
0.000406
0.000322
0.000055
0.000219
0.000360
0.000340
0.000296
0.000271
0.000205
0.000248
0.000250
0.000254
0.000252
0.000237
0.000225
0.001672
0.000282
0.000314
0.000215
0.000223
0.000243
0.000251
0.000275
0.000296
0.000327
0.001784
0.000345
0.000228
0.000499
0.000222
0.000235
0.000242
0.000268
0.000273
0.000056
0.000266
0.000587
0.000667
0.000208
0.000208
0.000261
0.000232
0.000222
0.000258
0.000257
0.000247
0.001709
0.000279
0.000398
0.000387
0.000241
0.000213
0.000230
0.000242
0.000265
0.000316
0.001798
0.000244
0.000231
0.002209
0.000463
0.000296
0.000238
0.000265
0.000261
0.000194
0.000057
0.000198
0.000232
0.000238
0.000241
0.000253
0.001698
0.000223
0.000196
0.000241
0.000255
0.000242
0.000256
0.000247
0.000252
0.000280
0.000405
0.000637
0.000253
0.000221
0.000267
0.000277
0.000257
0.000228
0.000507
0.000426
0.000245
0.000380
0.000511
0.000474
0.000222
0.000190
0.000056
0.000186
0.000211
0.000256
0.000251
0.000235
0.000256
0.000230
0.000492
0.000424
0.001605
0.000251
0.000228
0.000236
0.000254
0.000266
0.000257
0.000482
0.000486
0.000373
0.000236
0.000215
0.000307
0.000273
0.000281
0.000280
0.000402
0.000492
0.000479
0.000523
0.000422
0.000135
0.000056
0.000203
0.000257
0.000200
0.000240
0.000225
0.000243
0.000248
0.000240
0.000256
0.000374
0.000338
0.001561
0.000272
0.000214
0.000189
0.000229
0.000260
0.000252
0.000257
0.000248
0.000277
0.000466
0.000386
0.000346
0.000218
0.000239
0.000252
0.000258
0.000277
0.000256
0.000438
0.000071
0.000178
0.000223
0.000246
0.000253
0.000537
0.000423
0.000259
0.000243
0.000229
0.000280
0.000226
0.000242
0.000280
0.000265
0.000245
0.000548
0.000398
0.001594
0.000270
0.000240
0.000254
0.000266
0.000276
0.000232
0.000262
0.000462
0.000477
0.000372
0.000372
0.000234
0.000200
0.000056
0.000224
0.000229
0.000410
0.000232
0.000254
0.000240
0.000440
0.000443
0.000313
0.000313
0.000228
0.000270
0.000285
0.000239
0.000580
0.000309
0.000211
0.000264
0.000383
0.001699
0.000236
0.000217
0.000319
0.000420
0.000278
0.000286
0.000261
0.000329
0.000548
0.000423
0.000254
0.000055
0.000216
0.000209
0.000234
0.000240
0.000484
0.000257
0.000284
0.000215
0.000390
0.000556
0.000387
0.000224
0.000215
0.000210
0.000250
0.000274
0.000256
0.000260
0.000222
0.000371
0.000275
0.000583
0.001598
0.000252
0.000238
0.000259
0.000313
0.000367
0.000589
0.000540
0.000458
0.000055
0.000266
0.000314
0.000316
0.000428
0.000310
0.000232
0.000237
0.000325
0.000470
0.000430
0.000308
0.000211
0.000215
0.000254
0.000270
0.000244
0.000236
0.000280
0.000267
0.000259
0.000274
0.000421
0.001754
0.000310
0.000339
0.000425
0.000370
0.000261
0.000388
0.000387
0.000353
0.000056
0.000234
0.000385
0.000277
0.000203
0.000249
0.000209
0.000461
0.000213
0.000211
0.000348
0.000410
0.000415
0.000311
0.000231
0.000264
0.000288
0.000370
0.000444
0.000297
0.000221
0.000218
0.000294
0.000696
0.001703
0.000255
0.000401
0.000325
0.000237
0.000270
0.000443
0.000299
0.000056
0.000191
0.000202
0.000240
0.000245
0.000244
0.000253
0.000251
0.000344
0.000444
0.000255
0.000543
0.000347
0.000291
0.000210
0.000537
0.000252
0.000272
0.000274
0.000239
0.000347
0.000218
0.000236
0.000283
0.000415
0.000545
0.001660
0.000231
0.000228
0.000238
0.000262
0.000209
0.000057
0.000342
0.000396
0.000386
0.000226
0.000213
0.000222
0.000268
0.000246
0.000243
0.000252
0.000221
0.000494
0.000316
0.000456
0.000366
0.000323
0.000219
0.000243
0.000367
0.000353
0.000363
0.000378
0.000383
0.000373
0.000243
0.000220
0.000247
0.000267
0.001784
0.000288
0.000197
0.000056
0.000194
0.000208
0.000262
0.000257
0.000366
0.000531
0.000336
0.000216
0.000239
0.000267
0.000246
0.000255
0.000522
0.000452
0.000473
0.000303
0.000272
0.000251
0.000437
0.000493
0.000363
0.000442
0.000495
0.000401
0.000240
0.000260
0.000214
0.000248
0.000241
0.001785
0.000321
0.000056
0.000400
0.000235
0.000188
0.000204
0.000253
0.000251
0.000320
0.000429
0.000422
0.000300
0.000300
0.000265
0.000365
0.000663
0.000336
0.000201
0.000224
0.000234
0.000263
0.000266
0.000258
0.000271
0.000230
0.000268
0.000344
0.000355
0.000502
0.000314
0.000220
0.000224
0.000190
0.000055
0.000455
0.000354
0.000387
0.000251
0.000204
0.000233
0.000240
0.000265
0.000245
0.000214
0.000246
0.000277
0.000297
0.000381
0.000487
0.000481
0.000327
0.000376
0.000366
0.000393
0.000260
0.000214
0.000223
0.000267
0.001799
0.000249
0.001744
0.000923
0.000472
0.000254
0.000138
0.000056
0.000219
0.000201
0.000234
0.000225
0.000259
0.000260
0.000244
0.000256
0.000259
0.000291
0.000418
0.000406
0.000534
0.000281
0.000213
0.000226
0.000273
0.000285
0.000212
0.000224
0.000256
0.000236
0.001807
0.000265
0.000240
0.000256
0.000269
0.000269
0.001873
0.000617
0.000183
0.000077
0.000199
0.000198
0.000227
0.000233
0.000252
0.000251
0.000240
0.000255
0.000256
0.000374
0.000568
0.000306
0.000400
0.000254
0.000213
0.000283
0.000382
0.000392
0.000368
0.000278
0.001780
0.000251
0.000200
0.000239
0.000254
0.000263
0.000255
0.000256
0.000261
0.000363
0.000387
0.000056
0.000278
0.000202
0.000201
0.000251
0.000248
0.000243
0.000277
0.000242
0.000240
0.000251
0.000242
0.000257
0.000382
0.000425
0.000384
0.000263
0.000476
0.000231
0.000204
0.000245
0.000266
0.000248
0.000283
0.000254
0.000275
0.001793
0.000264
0.000252
0.000240
0.000238
0.000209
0.000055
0.000225
0.000387
0.000235
0.000194
0.000227
0.000239
0.000233
0.000255
0.000248
0.000233
0.000218
0.000273
0.000251
0.000309
0.000500
0.000358
0.000325
0.000209
0.000222
0.000251
0.000249
0.000259
0.000255
0.000263
0.000254
0.000257
0.000310
0.001706
0.000226
0.000229
0.000185
0.000056
0.000194
0.000213
0.000250
0.000258
0.000356
0.000505
0.000294
0.000296
0.000205
0.000245
0.000246
0.000246
0.000244
0.000263
0.000257
0.000254
0.000250
0.000249
0.000255
0.000258
0.000274
0.000265
0.000267
0.000222
0.000248
0.000280
0.000264
0.000269
0.000256
0.000257
0.000218
0.000055
0.000217
0.000232
0.000227
0.000249
0.000248
0.000249
0.000237
0.000262
0.000363
0.000201
0.000200
0.000262
0.000225
0.000252
0.000272
0.000270
0.000241
0.000258
0.000361
0.000224
0.000252
0.000263
0.000283
0.000258
0.000258
0.000286
0.000299
0.000220
0.000269
0.000429
0.000717
0.000055
0.000232
0.000304
0.000236
0.000176
0.000214
0.000251
0.000242
0.000269
0.000233
0.000245
0.000265
0.000286
0.000562
0.001752
0.000262
0.000209
0.000509
0.000217
0.000208
0.000441
0.000447
0.000385
0.000235
0.000265
0.000269
0.000246
0.000281
0.000256
0.000300
0.000271
0.000206
0.000056
0.000313
0.000382
0.000381
0.000313
0.000204
0.000236
0.000240
0.000260
0.000224
0.000251
0.000253
0.000265
0.000224
0.000276
0.000383
0.000461
0.000375
0.001802
0.000267
0.000232
0.000305
0.000464
0.000419
0.000331
0.000359
0.000269
0.000301
0.000239
0.000228
0.000241
0.000204
0.000055
0.000233
0.000193
0.000234
0.000286
0.000467
0.000312
0.000364
0.000253
0.000258
0.000221
0.000242
0.000265
0.000265
0.000268
0.000248
0.000262
0.000281
0.000490
0.000434
0.000364
0.000240
0.001804
0.000300
0.000547
0.000635
0.000284
0.000284
0.000247
0.000234
0.000266
0.000490
0.000055
0.000201
0.000285
0.000207
0.000279
0.000399
0.000503
0.000339
0.000265
0.000204
0.000319
0.000223
0.000241
0.000252
0.000305
0.000354
0.000241
0.000213
0.000520
0.000253
0.000372
0.000561
0.001784
0.000273
0.000501
0.000475
0.000322
0.000216
0.000377
0.000239
0.000234
0.000202
0.000055
0.000229
0.000335
0.000349
0.000306
0.000385
0.000299
0.000386
0.000205
0.000225
0.000259
0.000283
0.000232
0.000235
0.000256
0.000242
0.000268
0.000302
0.000391
0.000508
0.000377
0.000296
0.000234
0.000249
0.001787
0.000396
0.000450
0.000686
0.000288
0.000244
0.000290
0.000162
0.000055
0.000188
0.000207
0.000316
0.000261
0.000322
0.000333
0.000479
0.000229
0.000313
0.000529
0.000211
0.000215
0.000239
0.000277
0.000272
0.000270
0.000220
0.000337
0.000506
0.000404
0.000261
0.000233
0.000250
0.000259
0.000268
0.000258
0.000252
0.000241
0.000267
0.000361
0.000156
0.000057
0.000315
0.000328
0.000238
0.000225
0.000249
0.000264
0.000238
0.000363
0.000214
0.000200
0.000254
0.000338
0.000513
0.000345
0.000422
0.000211
0.000209
0.000235
0.000241
0.000266
0.000256
0.000303
0.000234
0.000259
0.000270
0.000374
0.000412
0.000370
0.000354
0.000217
0.000167
0.000055
0.000208
0.000211
0.000259
0.000251
0.000239
0.000249
0.000256
0.000269
0.000472
0.000257
0.000242
0.000243
0.000239
0.000256
0.000274
0.000272
0.000269
0.000357
0.000255
0.000216
0.000246
0.000270
0.000247
0.000264
0.000281
0.000275
0.000258
0.000257
0.000246
0.000500
0.000179
0.000055
0.000203
0.000220
0.000236
0.000257
0.000255
0.000222
0.000297
0.000461
0.000268
0.000228
0.000250
0.000245
0.000242
0.000295
0.000483
0.001715
0.000239
0.000246
0.000315
0.000379
0.000410
0.000343
0.000401
0.000354
0.000388
0.000377
0.000232
0.000265
0.000257
0.000281
0.001420
0.000056
0.000419
0.000227
0.000310
0.000213
0.000194
0.000233
0.000229
0.000256
0.000244
0.000280
0.000236
0.000252
0.000260
0.000262
0.000558
0.001717
0.000214
0.000220
0.000205
0.000265
0.000235
0.000255
0.000379
0.000425
0.000261
0.000334
0.000258
0.000248
0.000257
0.000271
0.000224
0.000057
0.001250
0.000542
0.000292
0.000297
0.000209
0.000215
0.000203
0.000246
0.000503
0.000206
0.000218
0.000259
0.000337
0.000492
0.000439
0.000328
0.000303
0.000243
0.000353
0.000349
0.000217
0.000246
0.000265
0.000240
0.000271
0.000584
0.000553
0.000267
0.000253
0.000263
0.000191
0.000056
0.000225
0.000203
0.000225
0.000233
0.001433
0.000381
0.000191
0.000256
0.000234
0.000244
0.000259
0.000244
0.000239
0.000267
0.000268
0.000282
0.000506
0.000605
0.000267
0.001802
0.000254
0.000288
0.000289
0.000470
0.000433
0.000456
0.000219
0.000235
0.000257
0.000272
0.000212
0.000056
0.000206
0.000254
0.000215
0.001324
0.000330
0.000211
0.000246
0.000209
0.000245
0.000238
0.000228
0.000254
0.000271
0.000249
0.000251
0.000348
0.000536
0.000348
0.000332
0.000208
0.000248
0.000278
0.000261
0.000229
0.000354
0.000216
0.000224
0.000295
0.000244
0.000362
0.000644
0.000056
0.000194
0.000229
0.000231
0.000276
0.000254
0.000250
0.000227
0.000260
0.000270
0.000261
0.001440
0.000239
0.000221
0.000246
0.000266
0.000226
0.000268
0.000258
0.000259
0.000283
0.000273
0.000517
0.000432
0.000385
0.000222
0.000262
0.001839
0.000223
0.000228
0.000339
0.000417
0.000055
0.000252
0.000425
0.000457
0.000504
0.000522
0.000529
0.001484
0.000420
0.000542
0.000649
0.000616
0.000633
0.000537
0.000590
0.000578
0.001729
0.000466
0.000437
0.000394
0.000332
0.000234
0.000287
0.000286
0.000270
0.000277
0.000267
0.000320
0.000269
0.000265
0.000279
0.001315
0.000056
0.000229
0.000264
0.000202
0.000241
0.000236
0.000254
0.000231
0.000238
0.000260
0.000271
0.000251
0.000264
0.000232
0.000260
0.000280
0.000237
0.001837
0.000281
0.000247
0.000249
0.000257
0.000264
0.000262
0.000355
0.000361
0.000398
0.000323
0.000245
0.000259
0.000295
0.000164
0.000056
0.000178
0.001389
0.000269
0.000261
0.000273
0.000226
0.000255
0.000245
0.000261
0.000235
0.000241
0.000240
0.000261
0.000429
0.000289
0.000357
0.000266
0.000291
0.001922
0.000241
0.000258
0.000261
0.000261
0.000255
0.000273
0.000268
0.000285
0.000247
0.000243
0.000305
0.000237
0.000055
0.000208
0.000227
0.000263
0.001418
0.000263
0.000270
0.000220
0.000233
0.000223
0.000264
0.000251
0.000264
0.000226
0.000281
0.000266
0.000238
0.000253
0.000258
0.000266
0.000266
0.000256
0.001854
0.000284
0.001739
0.000258
0.000251
0.000249
0.000229
0.000266
0.000293
0.000207
0.000055
0.000234
0.000255
0.001343
0.000223
0.000285
0.000208
0.000221
0.000236
0.000242
0.000260
0.000248
0.000253
0.000271
0.000244
0.000249
0.000263
0.000260
0.000281
0.000294
0.000254
0.001859
0.000286
0.001786
0.000279
0.000255
0.000253
0.000253
0.000260
0.000260
0.000260
0.000194
0.000057
0.001440
0.000229
0.000247
0.000220
0.000221
0.000218
0.000278
0.000353
0.000255
0.000269
0.000243
0.000255
0.000264
0.000407
0.000408
0.000268
0.000255
0.000271
0.000227
0.000220
0.000269
0.000321
0.000257
0.000258
0.000277
0.000271
0.000256
0.000414
0.000633
0.000352
0.000179
0.000056
0.000181
0.000291
0.000267
0.000313
0.000397
0.000225
0.001670
0.000287
0.000285
0.000248
0.000278
0.000299
0.000262
0.000265
0.000298
0.000310
0.000327
0.000547
0.000370
0.000281
0.000321
0.000277
0.000270
0.000255
0.000331
0.000257
0.000281
0.000226
0.000235
0.000328
0.000370
0.000055
0.000314
0.000372
0.000271
0.000267
0.000254
0.000219
0.000228
0.000257
0.000262
0.000242
0.001511
0.000261
0.000205
0.000245
0.000240
0.000287
0.000261
0.000253
0.000264
0.000284
0.000251
0.000352
0.000569
0.000359
0.000230
0.000283
0.000269
0.000248
0.000249
0.000228
0.000253
0.000056
0.000197
0.000221
0.000257
0.000483
0.000385
0.000262
0.000211
0.000241
0.000252
0.000281
0.000213
0.000257
0.000248
0.000273
0.000239
0.000226
0.000632
0.001053
0.000216
0.000251
0.000223
0.000252
0.000354
0.000507
0.000212
0.000295
0.000596
0.000407
0.000331
0.000223
0.000174
0.000057
0.000208
0.000221
0.000262
0.000264
0.000313
0.000205
0.000322
0.000537
0.000367
0.000305
0.000372
0.000404
0.000386
0.000355
0.000236
0.000215
0.000217
0.000238
0.000422
0.000506
0.001196
0.000249
0.000248
0.000278
0.000234
0.000234
0.000258
0.000334
0.000384
0.000578
0.000193
0.000055
0.000215
0.000205
0.000242
0.000242
0.000251
0.000244
0.000240
0.000263
0.000251
0.000420
0.000519
0.000340
0.000232
0.000205
0.000232
0.000254
0.000243
0.000259
0.000263
0.000536
0.000218
0.000235
0.000398
0.000347
0.000355
0.000243
0.000244
0.000267
0.000253
0.000289
0.000239
0.000056
0.000299
0.000298
0.000327
0.000403
0.000448
0.000329
0.000235
0.000263
0.000220
0.000270
0.000255
0.000261
0.000237
0.000256
0.000248
0.000228
0.000257
0.000393
0.000683
0.000197
0.000209
0.000270
0.000210
0.000237
0.000268
0.000273
0.000287
0.000254
0.000279
0.000260
0.000350
0.000055
0.000374
0.000240
0.000230
0.000226
0.000247
0.000248
0.000244
0.000257
0.000253
0.000262
0.000260
0.000237
0.000277
0.000564
0.000434
0.000308
0.000218
0.000215
0.000228
0.000261
0.000281
0.000244
0.000253
0.000267
0.000275
0.000311
0.000465
0.000533
0.000505
0.000218
0.000147
0.000055
0.000384
0.000220
0.000195
0.000230
0.000249
0.000254
0.000245
0.000246
0.000250
0.000267
0.000224
0.000256
0.000246
0.000244
0.000238
0.000259
0.000254
0.000256
0.000280
0.000274
0.000242
0.000265
0.000271
0.000258
0.000270
0.000271
0.000237
0.000285
0.000245
0.000279
0.000216
0.000056
0.000188
0.000211
0.000240
0.000261
0.000231
0.000241
0.000268
0.000236
0.000263
0.000279
0.000231
0.000234
0.000253
0.000405
0.000240
0.000282
0.000274
0.000254
0.000258
0.000280
0.000273
0.000236
0.000247
0.000255
0.000260
0.000277
0.000261
0.000249
0.000259
0.000266
0.000226
0.000057
0.000273
0.000378
0.000345
0.000280
0.000329
0.000206
0.000207
0.000253
0.000250
0.000226
0.000237
0.000266
0.000258
0.000231
0.000258
0.000264
0.000266
0.000261
0.000257
0.000251
0.000284
0.000256
0.000280
0.000252
0.000286
0.000274
0.000232
0.000283
0.000254
0.000261
0.000204
0.000055
0.000204
0.000229
0.000241
0.000259
0.000248
0.000456
0.000214
0.000262
0.000274
0.000344
0.000589
0.000326
0.000213
0.000218
0.000267
0.000264
0.000258
0.000244
0.000271
0.000265
0.000258
0.000256
0.000259
0.000311
0.000540
0.000462
0.000281
0.000268
0.000274
0.000258
0.000204
0.000056
0.000172
0.000199
0.000245
0.000252
0.000270
0.000729
0.000278
0.000377
0.000242
0.000236
0.000245
0.000248
0.000259
0.000248
0.000261
0.000283
0.000246
0.000254
0.000608
0.000447
0.000285
0.000216
0.000261
0.000272
0.000285
0.000264
0.000260
0.000268
0.000266
0.000325
0.000484
0.000056
0.000201
0.000237
0.000211
0.000233
0.000258
0.000254
0.000234
0.000246
0.000242
0.000255
0.000251
0.000252
0.000256
0.000457
0.000482
0.000448
0.000215
0.000237
0.000258
0.000256
0.000254
0.000270
0.000475
0.000268
0.000241
0.000707
0.000330
0.000449
0.000275
0.000257
0.000181
0.000056
0.000211
0.000211
0.000246
0.000229
0.000265
0.000248
0.000305
0.000470
0.000666
0.000304
0.000253
0.000236
0.000271
0.000278
0.000281
0.000221
0.000237
0.000267
0.000244
0.000314
0.000476
0.000519
0.000431
0.000282
0.000446
0.000339
0.000479
0.000213
0.000251
0.000407
0.000430
0.000056
0.000274
0.000208
0.000478
0.000201
0.000240
0.000223
0.000242
0.000262
0.000236
0.000239
0.000274
0.000419
0.000394
0.000330
0.000221
0.000223
0.000276
0.000226
0.000269
0.000268
0.000270
0.000267
0.000254
0.000262
0.000335
0.000457
0.000486
0.000262
0.000246
0.000263
0.000221
0.000056
0.000176
0.000233
0.000231
0.000241
0.000247
0.000255
0.000388
0.000421
0.000452
0.000257
0.000346
0.000236
0.000224
0.000273
0.000257
0.000237
0.000258
0.000254
0.000328
0.000402
0.000540
0.000244
0.000451
0.000358
0.000396
0.000389
0.000377
0.000246
0.000219
0.000285
0.000441
0.000056
0.000199
0.000242
0.000214
0.000247
0.000266
0.000250
0.000258
0.000240
0.000249
0.000263
0.000240
0.000430
0.000416
0.000341
0.000362
0.000257
0.000230
0.000264
0.000284
0.000223
0.000259
0.000243
0.000274
0.000267
0.000277
0.000319
0.000551
0.000426
0.000247
0.000279
0.000205
0.000056
0.000193
0.000228
0.000246
0.000251
0.000252
0.000344
0.000511
0.000505
0.000326
0.000669
0.000290
0.000222
0.000221
0.000277
0.000222
0.000263
0.000279
0.000266
0.000481
0.000578
0.001481
0.000256
0.000256
0.000257
0.000294
0.000230
0.000347
0.000501
0.000397
0.000244
0.000164
0.000055
0.000183
0.000212
0.000244
0.000250
0.000250
0.000238
0.000274
0.000260
0.000244
0.000364
0.000355
0.000364
0.000282
0.000385
0.000386
0.000321
0.000232
0.000207
0.000249
0.000267
0.000230
0.000265
0.000268
0.000262
0.000340
0.000531
0.000361
0.000280
0.000219
0.000261
0.000197
0.000055
0.000170
0.000219
0.000262
0.000250
0.000253
0.000227
0.000469
0.000241
0.000210
0.000260
0.000241
0.000247
0.000268
0.000251
0.000245
0.000276
0.000258
0.000262
0.000278
0.000258
0.000252
0.000290
0.000302
0.000238
0.000266
0.000277
0.000268
0.000263
0.000274
0.000258
0.000195
0.000056
0.000183
0.000219
0.000297
0.000491
0.000381
0.000197
0.000227
0.000235
0.000259
0.000253
0.000238
0.000266
0.000261
0.000262
0.000241
0.000244
0.000255
0.000253
0.000303
0.000330
0.000415
0.000413
0.000231
0.000257
0.000271
0.000251
0.000271
0.000256
0.000277
0.000267
0.000211
0.000056
0.000331
0.000443
0.000355
0.000220
0.000237
0.000254
0.000474
0.000208
0.000199
0.000243
0.000287
0.000333
0.000362
0.000470
0.001741
0.000266
0.000244
0.000243
0.000278
0.000251
0.000273
0.000635
0.000511
0.000286
0.000246
0.000230
0.000276
0.000417
0.000281
0.000294
0.000175
0.000056
0.000215
0.000364
0.000311
0.000271
0.000514
0.000202
0.000231
0.000255
0.000248
0.000245
0.000261
0.000239
0.000267
0.000339
0.000403
0.000495
0.000224
0.000217
0.000247
0.000274
0.000259
0.000310
0.000245
0.000279
0.000276
0.000460
0.000470
0.000490
0.000418
0.000229
0.000193
0.000056
0.000210
0.000210
0.000246
0.000233
0.000246
0.000250
0.000272
0.000263
0.000460
0.000292
0.000402
0.000377
0.000224
0.000226
0.000265
0.000264
0.000330
0.000233
0.000278
0.000269
0.000246
0.000308
0.000463
0.000406
0.000237
0.000287
0.000248
0.000533
0.000378
0.000276
0.000165
0.000055
0.000181
0.000230
0.000322
0.000440
0.000370
0.000218
0.000224
0.000251
0.000258
0.000257
0.000261
0.000259
0.000221
0.000256
0.000259
0.000283
0.000421
0.000340
0.000315
0.000353
0.000462
0.000239
0.000270
0.000279
0.000305
0.000283
0.000265
0.000252
0.000498
0.000529
0.000188
0.000057
0.000195
0.000206
0.000246
0.000236
0.000250
0.000478
0.000216
0.000244
0.000266
0.000340
0.000526
0.000555
0.000210
0.000241
0.000246
0.000244
0.000242
0.000252
0.000257
0.000250
0.000259
0.000269
0.000325
0.000543
0.000371
0.000309
0.000348
0.000338
0.000305
0.000213
0.000186
0.000055
0.000198
0.000221
0.000262
0.000457
0.000341
0.000387
0.000229
0.000225
0.000203
0.000231
0.000256
0.000252
0.000252
0.000253
0.000311
0.000203
0.000261
0.000243
0.000265
0.000371
0.000622
0.000334
0.000223
0.000221
0.000277
0.000272
0.000255
0.000264
0.000260
0.000259
0.000218
0.000055
0.000284
0.000377
0.000508
0.000228
0.000192
0.000215
0.000307
0.000527
0.000260
0.000208
0.000218
0.000271
0.000250
0.000473
0.000447
0.000311
0.000205
0.000218
0.000296
0.000211
0.000270
0.000268
0.000253
0.000275
0.000270
0.000317
0.000399
0.000435
0.000335
0.000217
0.000154
0.000057
0.000188
0.000226
0.000239
0.000267
0.000240
0.000262
0.000235
0.000250
0.000261
0.000241
0.000262
0.000246
0.000259
0.001464
0.000233
0.000245
0.000255
0.000254
0.000269
0.000293
0.000251
0.000243
0.000275
0.000255
0.000260
0.000282
0.000256
0.000269
0.000264
0.000264
0.000215
0.000056
0.000191
0.000222
0.000237
0.000245
0.000242
0.000242
0.000257
0.000262
0.000231
0.000266
0.000234
0.000256
0.000255
0.000262
0.000253
0.000258
0.000275
0.000227
0.000270
0.000262
0.000256
0.000256
0.000250
0.000249
0.001366
0.000275
0.000495
0.000491
0.000358
0.000220
0.000150
0.000056
0.000184
0.000220
0.000237
0.000246
0.000502
0.000227
0.000201
0.000208
0.000251
0.000414
0.000492
0.000330
0.000212
0.000199
0.000234
0.000258
0.000265
0.000262
0.000239
0.000263
0.000264
0.000252
0.000281
0.000386
0.000544
0.000420
0.000256
0.000250
0.001359
0.000273
0.000181
0.000056
0.000326
0.000400
0.000349
0.000246
0.000199
0.000201
0.000236
0.000234
0.000268
0.000249
0.000244
0.000260
0.000266
0.000351
0.000587
0.000318
0.000312
0.000243
0.000243
0.000244
0.000253
0.000259
0.000275
0.000267
0.000265
0.000262
0.000430
0.000438
0.000422
0.000367
0.000166
0.000056
0.000186
0.000239
0.001311
0.000349
0.000335
0.000472
0.000351
0.000303
0.000440
0.000372
0.000234
0.000202
0.000241
0.000261
0.000251
0.000256
0.000334
0.000518
0.000417
0.000332
0.000269
0.000246
0.000254
0.000511
0.000259
0.000241
0.000249
0.000275
0.000274
0.000575
0.000326
0.000056
0.000371
0.000343
0.000222
0.000205
0.001625
0.000440
0.000297
0.000225
0.000200
0.000255
0.000232
0.000233
0.000240
0.000267
0.000254
0.000268
0.000239
0.000345
0.000377
0.000444
0.000419
0.000212
0.000247
0.000232
0.000245
0.000274
0.000267
0.000239
0.000283
0.000259
0.000217
0.000056
0.000342
0.000334
0.000264
0.000196
0.000250
0.000241
0.000248
0.000251
0.000230
0.000263
0.001486
0.000434
0.000272
0.000201
0.000217
0.000253
0.000269
0.000263
0.000228
0.000268
0.000276
0.000275
0.000249
0.000473
0.000400
0.000437
0.000212
0.000263
0.000270
0.000284
0.000192
0.000055
0.000198
0.000460
0.000204
0.000217
0.000345
0.000395
0.000409
0.000321
0.000438
0.000229
0.000208
0.000241
0.000265
0.000264
0.000269
0.001450
0.000310
0.000290
0.000250
0.000264
0.000295
0.000235
0.000257
0.000248
0.000258
0.000279
0.000476
0.000413
0.000322
0.000277
0.000137
0.000055
0.000201
0.000215
0.000248
0.000245
0.000223
0.000263
0.000241
0.000247
0.000357
0.000338
0.000460
0.000308
0.000216
0.000202
0.000237
0.000282
0.000266
0.000262
0.000270
0.000237
0.000244
0.000295
0.001338
0.000227
0.000280
0.000223
0.000233
0.000257
0.000258
0.000260
0.000204
0.000055
0.000234
0.000331
0.000393
0.000331
0.000228
0.000209
0.000266
0.000236
0.000265
0.000250
0.000251
0.000269
0.000246
0.000250
0.000255
0.000260
0.000272
0.000289
0.000248
0.000245
0.000247
0.000279
0.000270
0.000274
0.000284
0.000273
0.000297
0.000223
0.000271
0.000500
0.001330
0.000056
0.000200
0.000213
0.000229
0.000257
0.000244
0.000259
0.000253
0.000224
0.000242
0.000256
0.000259
0.000280
0.000243
0.000241
0.000243
0.001710
0.000374
0.000206
0.000211
0.000234
0.000247
0.000269
0.000259
0.000253
0.000262
0.000278
0.000266
0.000271
0.000284
0.000268
0.000250
0.000055
0.000274
0.000325
0.001347
0.000201
0.000201
0.000229
0.000255
0.000256
0.000252
0.000264
0.000229
0.000357
0.000403
0.000503
0.000246
0.000207
0.000230
0.000249
0.000253
0.000263
0.000248
0.000263
0.000272
0.000279
0.000274
0.000440
0.000352
0.000384
0.000258
0.000250
0.000201
0.000056
0.000217
0.000221
0.000241
0.000251
0.000253
0.000239
0.000229
0.000244
0.000433
0.000534
0.001063
0.000232
0.000231
0.000267
0.000256
0.000268
0.000267
0.000252
0.000325
0.000416
0.000396
0.000265
0.000233
0.000239
0.000259
0.000267
0.000274
0.000294
0.000269
0.000276
0.000209
0.000055
0.000223
0.000377
0.000441
0.000229
0.000204
0.000208
0.000235
0.000272
0.000268
0.000253
0.000224
0.000536
0.000303
0.000439
0.000451
0.001472
0.000228
0.000268
0.000327
0.000360
0.000428
0.000424
0.000512
0.000370
0.000214
0.000250
0.000275
0.000272
0.000269
0.000271
0.000212
0.000056
0.000191
0.000277
0.000491
0.000340
0.000445
0.000205
0.000245
0.000230
0.000244
0.000260
0.000245
0.000274
0.000255
0.000244
0.000271
0.000398
0.000293
0.000468
0.000310
0.001324
0.000246
0.000262
0.000260
0.000461
0.000412
0.000327
0.000404
0.000225
0.000237
0.000275
0.000204
0.000056
0.000176
0.000219
0.000249
0.000236
0.000252
0.000276
0.000483
0.000405
0.000312
0.000240
0.000233
0.000266
0.000257
0.000258
0.000259
0.000267
0.000268
0.000256
0.000269
0.000417
0.000431
0.000396
0.000318
0.001347
0.000345
0.000233
0.000308
0.000447
0.000387
0.000365
0.000341
0.000056
0.000185
0.000217
0.000246
0.000244
0.000252
0.000254
0.001698
0.000257
0.000223
0.000208
0.000252
0.000259
0.000329
0.000322
0.000332
0.000278
0.000228
0.000399
0.000450
0.000409
0.000282
0.000273
0.000223
0.000231
0.001434
0.000428
0.000405
0.000483
0.000317
0.000296
0.000159
0.000056
0.000215
0.000213
0.000262
0.000257
0.000245
0.000257
0.001789
0.000203
0.000240
0.000255
0.000388
0.000418
0.001424
0.000325
0.000419
0.000201
0.000219
0.000239
0.000264
0.000268
0.001637
0.000587
0.000356
0.000303
0.000190
0.000224
0.000253
0.000273
0.000258
0.000246
0.000209
0.000055
0.000206
0.000209
0.000256
0.000249
0.000260
0.000268
0.000286
0.000252
0.000255
0.000251
0.000254
0.000246
0.000256
0.000273
0.000255
0.001500
0.000286
0.000226
0.000263
0.000275
0.000274
0.000264
0.000428
0.001274
0.000266
0.000239
0.000270
0.000248
0.000464
0.000221
0.000179
0.000056
0.000182
0.000234
0.000230
0.000243
0.000240
0.000225
0.000244
0.001752
0.000213
0.000218
0.000237
0.000361
0.000237
0.000224
0.001457
0.000243
0.000205
0.000231
0.000264
0.000242
0.000260
0.000307
0.000336
0.001368
0.000274
0.000223
0.000219
0.000265
0.001391
0.000268
0.000234
0.000057
0.000234
0.000354
0.000211
0.000216
0.000244
0.000242
0.000260
0.000274
0.000264
0.000248
0.000258
0.000258
0.000257
0.000251
0.000335
0.001471
0.000260
0.000258
0.000257
0.000247
0.000283
0.000259
0.000256
0.001543
0.000297
0.000247
0.000261
0.001352
0.000238
0.000221
0.000235
0.000055
0.000165
0.000412
0.000314
0.000207
0.000229
0.000241
0.000252
0.000270
0.000253
0.000274
0.000235
0.000251
0.000261
0.000296
0.000465
0.001226
0.000202
0.000216
0.000255
0.000280
0.000234
0.000239
0.000245
0.001489
0.000199
0.000219
0.000214
0.000248
0.000260
0.001337
0.000348
0.000056
0.000280
0.000256
0.000216
0.000214
0.000218
0.000254
0.000258
0.000235
0.000277
0.000258
0.000245
0.000245
0.000264
0.000305
0.000420
0.001486
0.000237
0.000224
0.000297
0.000498
0.000304
0.000475
0.001295
0.000286
0.000230
0.000259
0.001281
0.000360
0.000370
0.000400
0.000295
0.000056
0.000194
0.000244
0.000254
0.000256
0.000249
0.000265
0.000268
0.000246
0.000263
0.000258
0.000473
0.000406
0.001317
0.000206
0.000245
0.000256
0.000278
0.000269
0.000214
0.000216
0.001428
0.000261
0.000197
0.000220
0.000233
0.000251
0.001427
0.000569
0.000417
0.000249
0.000202
0.000056
0.000197
0.000227
0.000234
0.000233
0.000255
0.000270
0.000232
0.000306
0.000419
0.000491
0.000268
0.001459
0.000229
0.000214
0.000261
0.000267
0.000253
0.000306
0.001688
0.000284
0.000340
0.000355
0.001308
0.000440
0.000269
0.000337
0.000231
0.000223
0.000234
0.000266
0.000211
0.000055
0.000211
0.000204
0.000325
0.000261
0.000266
0.000570
0.000295
0.000346
0.001484
0.000291
0.000328
0.000250
0.000249
0.000292
0.000321
0.001386
0.000267
0.000211
0.000221
0.000246
0.000315
0.001579
0.000386
0.000257
0.000231
0.000218
0.000521
0.000306
0.000239
0.000220
0.000258
0.000056
0.000261
0.000397
0.000302
0.000303
0.000200
0.001471
0.000247
0.000232
0.000248
0.000275
0.000260
0.000253
0.000294
0.001490
0.000268
0.000221
0.000416
0.001278
0.000309
0.000410
0.000389
0.000259
0.000223
0.000245
0.000273
0.000264
0.000442
0.000245
0.000253
0.000276
0.000207
0.000055
0.000195
0.000235
0.000366
0.001439
0.000257
0.000211
0.000309
0.000253
0.000239
0.000255
0.000241
0.000277
0.001623
0.000212
0.000216
0.000210
0.001382
0.000335
0.000474
0.000405
0.000364
0.000222
0.000231
0.000249
0.000364
0.000229
0.000234
0.000253
0.000244
0.000249
0.000206
0.000056
0.000232
0.000373
0.001450
0.000216
0.000258
0.000272
0.000247
0.000244
0.000328
0.000384
0.001331
0.000251
0.000325
0.000217
0.000218
0.001326
0.000654
0.000317
0.000304
0.000414
0.000325
0.000237
0.000230
0.000225
0.000279
0.000280
0.000282
0.000413
0.000444
0.000388
0.001359
0.000056
0.000199
0.000239
0.000233
0.000207
0.000244
0.000479
0.000453
0.001329
0.000204
0.000233
0.000238
0.001420
0.000489
0.000305
0.000438
0.000266
0.000213
0.000196
0.000248
0.000276
0.000269
0.000260
0.000274
0.000266
0.000240
0.000289
0.000425
0.000551
0.001445
0.000267
0.000186
0.000055
0.000188
0.000231
0.000327
0.000632
0.001161
0.000282
0.000266
0.000239
0.000251
0.000256
0.000250
0.000265
0.000343
0.000570
0.000310
0.000220
0.000243
0.000273
0.000240
0.000265
0.000275
0.000259
0.000260
0.000263
0.000257
0.000351
0.000532
0.000346
0.000310
0.001481
0.000150
0.000056
0.000203
0.000213
0.000236
0.000500
0.000346
0.000288
0.000301
0.000334
0.000273
0.000267
0.000257
0.000261
0.000243
0.000310
0.000256
0.000272
0.000537
0.000349
0.000290
0.000367
0.000298
0.000459
0.000233
0.000233
0.000226
0.000253
0.000250
0.000282
0.000414
0.000441
0.000318
0.000072
0.000213
0.001357
0.000280
0.000323
0.000404
0.000421
0.000350
0.000336
0.000217
0.000213
0.000254
0.000269
0.000244
0.000270
0.000265
0.000259
0.000271
0.001399
0.000277
0.000217
0.000223
0.000268
0.000273
0.000275
0.000275
0.000254
0.000265
0.000258
0.000307
0.000403
0.000324
0.000055
0.000231
0.000251
0.001427
0.000358
0.000299
0.000211
0.000209
0.000207
0.000229
0.000247
0.000249
0.000277
0.000263
0.000237
0.000261
0.000269
0.000238
0.000261
0.000261
0.000262
0.001424
0.000305
0.000206
0.000321
0.000233
0.000221
0.000253
0.000258
0.000279
0.000495
0.000383
0.000054
0.000188
0.000214
0.000374
0.000300
0.000245
0.000261
0.001534
0.000379
0.000298
0.000198
0.000240
0.000346
0.000322
0.000223
0.000213
0.000258
0.000239
0.000266
0.000259
0.000261
0.000480
0.000500
0.001193
0.000261
0.000223
0.000224
0.000264
0.000255
0.000272
0.000260
0.000442
0.000056
0.000234
0.000364
0.000197
0.000202
0.000248
0.000241
0.000241
0.000234
0.001430
0.000605
0.000329
0.000267
0.000204
0.000211
0.000250
0.000247
0.000247
0.000279
0.000258
0.000309
0.000305
0.000707
0.000248
0.001353
0.000267
0.000226
0.000277
0.000259
0.000271
0.000283
0.000573
0.000056
0.000272
0.000216
0.000233
0.000229
0.000234
0.000233
0.000257
0.000251
0.000272
0.001578
0.000355
0.000246
0.000258
0.000263
0.000461
0.000307
0.000416
0.000447
0.000333
0.000323
0.000452
0.000443
0.001314
0.000233
0.000228
0.000231
0.001754
0.000436
0.000660
0.000258
0.000136
0.000056
0.000192
0.000255
0.000216
0.000227
0.000243
0.000255
0.000359
0.000436
0.000583
0.000324
0.000284
0.000215
0.000209
0.000257
0.000260
0.000260
0.000277
0.000231
0.000253
0.000266
0.000280
0.000407
0.001350
0.000259
0.000229
0.000271
0.001898
0.000369
0.000373
0.000368
0.000175
0.000056
0.000235
0.000238
0.000222
0.001683
0.000303
0.000227
0.000228
0.000270
0.000244
0.000342
0.000365
0.000376
0.000351
0.000303
0.000301
0.000502
0.000345
0.001272
0.000264
0.000205
0.000216
0.000270
0.000365
0.000384
0.000646
0.000438
0.000216
0.000225
0.000254
0.000285
0.000213
0.000055
0.000178
0.000214
0.001489
0.000379
0.000202
0.000206
0.000222
0.000260
0.000244
0.000259
0.000239
0.000274
0.000274
0.000269
0.000246
0.000422
0.000463
0.000330
0.001365
0.000242
0.000231
0.000272
0.000248
0.000263
0.000337
0.000533
0.000437
0.000304
0.000286
0.000252
0.000390
0.000056
0.000190
0.000212
0.000273
0.000235
0.001596
0.000231
0.000250
0.000239
0.000254
0.000267
0.000249
0.000273
0.000246
0.000247
0.000343
0.000616
0.001441
0.000761
0.000186
0.000329
0.000254
0.000225
0.000223
0.000275
0.001763
0.000726
0.000261
0.000230
0.000291
0.000274
0.000224
0.000056
0.000188
0.000202
0.000253
0.000241
0.000248
0.000261
0.000248
0.000246
0.000250
0.000221
0.000284
0.000277
0.000283
0.000226
0.000260
0.000267
0.000261
0.001607
0.000701
0.000398
0.000332
0.000206
0.000222
0.000271
0.000273
0.000263
0.000274
0.000269
0.001459
0.000368
0.000299
0.000056
0.000189
0.000221
0.000228
0.000258
0.000250
0.000231
0.000256
0.000259
0.000249
0.000270
0.000247
0.000470
0.000443
0.000326
0.000219
0.000218
0.000259
0.001473
0.000679
0.000398
0.000392
0.000257
0.000219
0.000229
0.000271
0.000263
0.000247
0.000265
0.001518
0.000420
0.000242
0.000055
0.000181
0.000201
0.000236
0.000240
0.000256
0.000244
0.000251
0.000245
0.000264
0.000269
0.000388
0.000372
0.000311
0.000250
0.000211
0.000246
0.000265
0.000253
0.001592
0.000592
0.000477
0.000366
0.000213
0.000242
0.000253
0.000265
0.000256
0.000284
0.000266
0.001464
0.000279
0.000055
0.000203
0.000217
0.000205
0.000257
0.000258
0.000245
0.000292
0.000349
0.000372
0.000414
0.000373
0.000383
0.000322
0.000222
0.000225
0.000240
0.000271
0.000262
0.001399
0.000895
0.000304
0.000198
0.000474
0.000226
0.000208
0.000253
0.000269
0.000265
0.000265
0.000274
0.000356
0.000056
0.000193
0.000279
0.000216
0.000225
0.000252
0.000257
0.000240
0.000223
0.000253
0.000277
0.000237
0.000233
0.000252
0.000514
0.000428
0.000444
0.000236
0.000276
0.000241
0.000253
0.000251
0.000373
0.001387
0.001042
0.000243
0.000250
0.000263
0.000249
0.000287
0.000244
0.000218
0.000056
0.000205
0.001392
0.000266
0.000202
0.000204
0.000246
0.000251
0.000242
0.000233
0.000251
0.000250
0.000270
0.000234
0.000439
0.000335
0.000485
0.000278
0.000204
0.000261
0.000283
0.000254
0.000242
0.000244
0.000272
0.001405
0.000668
0.000318
0.000421
0.000353
0.000394
0.000262
0.000056
0.000201
0.000214
0.000423
0.001251
0.000253
0.000260
0.000203
0.000241
0.000271
0.000230
0.000266
0.000242
0.000265
0.000509
0.000440
0.000331
0.000200
0.000314
0.000267
0.000217
0.000251
0.000264
0.000225
0.000275
0.000267
0.001559
0.000721
0.000304
0.000273
0.000276
0.000219
0.000055
0.000181
0.000253
0.000439
0.000468
0.001232
0.000238
0.000203
0.000212
0.000233
0.000242
0.000252
0.000256
0.000234
0.000239
0.000247
0.000255
0.000271
0.000244
0.000245
0.000258
0.000266
0.000266
0.000348
0.000300
0.000239
0.000238
0.000266
0.001543
0.000229
0.000223
0.000163
0.000055
0.000195
0.000215
0.000256
0.000338
0.000345
0.000341
0.000403
0.000243
0.001558
0.000252
0.000355
0.000405
0.000381
0.000235
0.000475
0.000236
0.000217
0.000229
0.000252
0.000278
0.000280
0.000266
0.000256
0.000272
0.000273
0.000429
0.000436
0.000313
0.001514
0.000253
0.000182
0.000056
0.000217
0.000222
0.000242
0.000247
0.000245
0.000245
0.000260
0.000295
0.000450
0.002080
0.000208
0.000204
0.000251
0.000260
0.000262
0.000313
0.000260
0.000221
0.000248
0.000431
0.000339
0.000464
0.001529
0.000224
0.000254
0.000467
0.001768
0.000272
0.000267
0.001492
0.000197
0.000055
0.000354
0.000367
0.000481
0.000224
0.000262
0.000237
0.000253
0.000261
0.000276
0.000233
0.000237
0.000330
0.000417
0.000350
0.000475
0.000242
0.000202
0.001556
0.000491
0.002006
0.000317
0.000241
0.000219
0.001556
0.002033
0.000722
0.000273
0.000226
0.000272
0.000422
0.000425
0.000055
0.000207
0.000221
0.000247
0.000248
0.001495
0.001670
0.001065
0.000224
0.000223
0.001588
0.001964
0.000230
0.000333
0.000402
0.000291
0.000359
0.000443
0.000348
0.000256
0.000228
0.000251
0.000255
0.000266
0.001557
0.001327
0.001405
0.000273
0.000226
0.000278
0.000294
0.000367
0.000056
0.000226
0.000215
0.000231
0.000225
0.000236
0.000229
0.000257
0.000250
0.000249
0.000250
0.000246
0.000340
0.000406
0.000515
0.000307
0.000217
0.000240
0.000252
0.000258
0.000268
0.000252
0.001389
0.000473
0.000444
0.002074
0.000253
0.000237
0.000346
0.000473
0.000430
0.000152
0.000056
0.000203
0.000331
0.000448
0.000326
0.000210
0.000230
0.000229
0.000251
0.000249
0.000229
0.000251
0.000264
0.000260
0.001618
0.001418
0.001221
0.000270
0.000237
0.000215
0.000229
0.000302
0.000274
0.000247
0.000246
0.002272
0.000223
0.000217
0.000284
0.000323
0.000305
0.000249
0.000056
0.000202
0.000366
0.000618
0.000302
0.000223
0.000198
0.000231
0.000251
0.001907
0.001414
0.000270
0.000378
0.000395
0.000354
0.000259
0.000217
0.000227
0.000264
0.000282
0.000255
0.000259
0.000257
0.000471
0.000237
0.000262
0.000292
0.000236
0.000269
0.000289
0.000242
0.000228
0.000055
0.000181
0.000243
0.000231
0.000246
0.000243
0.000285
0.001531
0.001499
0.001315
0.000220
0.000216
0.000222
0.000256
0.000264
0.000243
0.000262
0.000244
0.002166
0.000220
0.000216
0.000243
0.000268
0.000261
0.000262
0.000270
0.000260
0.000262
0.000270
0.000260
0.000265
0.000191
0.000056
0.001508
0.000314
0.002388
0.000252
0.000306
0.000290
0.000250
0.000255
0.000264
0.000239
0.000251
0.000255
0.000230
0.000245
0.000263
0.000278
0.000244
0.000270
0.000258
0.000273
0.000261
0.000279
0.000283
0.000264
0.000251
0.000247
0.000251
0.000281
0.000260
0.000266
0.000387
0.000056
0.000184
0.002549
0.000343
0.000205
0.000220
0.000190
0.000250
0.000257
0.000252
0.000268
0.000420
0.000410
0.000270
0.000226
0.000230
0.002236
0.000204
0.000213
0.000240
0.000540
0.000395
0.000294
0.000206
0.000243
0.000256
0.000245
0.000270
0.000279
0.000270
0.001692
0.001203
0.000056
0.000203
0.000208
0.000304
0.000407
0.000278
0.000336
0.000212
0.000222
0.000251
0.000261
0.000261
0.000247
0.000240
0.000242
0.000272
0.000244
0.000359
0.000641
0.000314
0.000245
0.000239
0.000239
0.000278
0.000265
0.000247
0.000238
0.000265
0.000282
0.000242
0.000281
0.000415
0.000055
0.001118
0.000249
0.000345
0.000417
0.000335
0.000204
0.000208
0.000230
0.002186
0.000449
0.000357
0.000348
0.000205
0.000283
0.000337
0.000268
0.000266
0.000253
0.000260
0.000257
0.000233
0.000263
0.000696
0.000448
0.001791
0.001277
0.000710
0.000416
0.000221
0.000268
0.000199
0.000057
0.000244
0.000340
0.000235
0.000236
0.000244
0.000244
0.000235
0.000244
0.000257
0.000256
0.000252
0.000239
0.000237
0.000251
0.000363
0.000548
0.001904
0.001303
0.000433
0.000384
0.000451
0.000273
0.000220
0.000273
0.002216
0.000502
0.000334
0.000249
0.000269
0.000277
0.000210
0.000055
0.000188
0.000226
0.000253
0.000247
0.000246
0.000352
0.000420
0.000295
0.000350
0.000232
0.000227
0.000278
0.000238
0.002117
0.000311
0.000422
0.000222
0.000236
0.000276
0.000249
0.000246
0.002473
0.000330
0.000237
0.000246
0.000250
0.000258
0.000263
0.000281
0.000309
0.000188
0.000056
0.000205
0.000336
0.000641
0.000329
0.000226
0.000203
0.000209
0.000244
0.000264
0.000270
0.002016
0.000393
0.000271
0.000257
0.000199
0.000240
0.000275
0.000247
0.002269
0.000397
0.000221
0.000261
0.000256
0.000262
0.000259
0.000255
0.000275
0.000258
0.000265
0.000263
0.000208
0.000056
0.000198
0.000234
0.000244
0.000215
0.000248
0.000259
0.000239
0.000248
0.000232
0.002175
0.000258
0.000262
0.000213
0.000483
0.000216
0.000217
0.000256
0.000285
0.000256
0.001990
0.000299
0.000256
0.000377
0.000366
0.000483
0.000348
0.000283
0.000247
0.000234
0.000245
0.000208
0.000055
0.000186
0.000233
0.000221
0.000242
0.000253
0.000386
0.000196
0.002339
0.000200
0.000245
0.000215
0.000259
0.000234
0.000258
0.000298
0.002207
0.000507
0.000239
0.000242
0.000243
0.000264
0.000257
0.000280
0.000274
0.000296
0.000220
0.000287
0.000251
0.000267
0.000307
0.000174
0.000057
0.000197
0.003009
0.000245
0.000210
0.000253
0.000236
0.000255
0.000289
0.000424
0.000435
0.002053
0.000265
0.000240
0.000249
0.000282
0.000607
0.000356
0.000300
0.000217
0.000212
0.000247
0.000257
0.000265
0.000237
0.000241
0.000270
0.000270
0.000280
0.000357
0.000713
0.000241
0.000056
0.000188
0.000283
0.000266
0.000209
0.000229
0.000250
0.000251
0.000247
0.001548
0.002121
0.000515
0.000278
0.000442
0.000723
0.000372
0.000196
0.000208
0.000239
0.000269
0.000257
0.000268
0.000229
0.000254
0.000275
0.001827
0.001444
0.000296
0.000268
0.000311
0.000279
0.000451
0.000055
0.001944
0.000239
0.000223
0.000200
0.000291
0.000394
0.000405
0.000337
0.000325
0.000209
0.000217
0.000212
0.000249
0.000266
0.000251
0.000264
0.000260
0.000263
0.001912
0.000211
0.000221
0.000231
0.000267
0.000276
0.000277
0.000257
0.001533
0.000339
0.000241
0.000218
0.000167
0.000056
0.000194
0.000218
0.000230
0.000237
0.000256
0.000234
0.000322
0.000351
0.000469
0.000307
0.000204
0.000210
0.000336
0.000345
0.000358
0.000318
0.000227
0.000217
0.000262
0.000398
0.000512
0.000413
0.000219
0.000231
0.000265
0.000254
0.000249
0.000268
0.000273
0.000259
0.000229
0.000055
0.001417
0.000394
0.000265
0.001974
0.000262
0.000497
0.000309
0.000379
0.000197
0.000217
0.000256
0.000246
0.000255
0.000243
0.000275
0.000255
0.000449
0.000265
0.000476
0.000343
0.000360
0.000218
0.000239
0.000276
0.000324
0.000220
0.000250
0.000267
0.000314
0.000552
0.001389
0.000055
0.000198
0.000223
0.002084
0.000244
0.000329
0.000265
0.000254
0.000257
0.000262
0.000265
0.000214
0.000243
0.000256
0.000260
0.000255
0.000358
0.000721
0.001772
0.000216
0.000246
0.000262
0.000254
0.000382
0.000563
0.001451
0.000271
0.000365
0.001998
0.000245
0.000234
0.000203
0.000056
0.000182
0.000211
0.000228
0.000266
0.000204
0.000249
0.000256
0.000275
0.000338
0.000312
0.000384
0.000361
0.000333
0.000287
0.000211
0.000269
0.000263
0.000258
0.000242
0.000270
0.000268
0.000329
0.000242
0.000257
0.000278
0.001577
0.000296
0.000415
0.001961
0.000247
0.000190
0.000056
0.000197
0.000220
0.000228
0.000251
0.000464
0.000228
0.000246
0.000328
0.000384
0.000376
0.000232
0.000219
0.000257
0.000262
0.000280
0.000323
0.000440
0.000418
0.000261
0.000355
0.000612
0.000403
0.001580
0.000259
0.000240
0.002001
0.000387
0.000201
0.000225
0.000253
0.000209
0.000056
0.000211
0.000216
0.000218
0.000247
0.000255
0.000261
0.000255
0.000274
0.000249
0.000265
0.001883
0.000278
0.000398
0.000334
0.000454
0.000361
0.001507
0.000340
0.000201
0.000312
0.002070
0.000573
0.000277
0.000207
0.000239
0.000275
0.000485
0.000248
0.000235
0.000284
0.000215
0.000056
0.000265
0.000369
0.000340
0.000274
0.000201
0.000210
0.000254
0.000250
0.000271
0.000303
0.000217
0.000249
0.000259
0.000252
0.000414
0.000459
0.001258
0.000252
0.000441
0.001889
0.000305
0.000266
0.000219
0.000250
0.000240
0.000279
0.000276
0.000255
0.000239
0.000265
0.000229
0.000056
0.000257
0.000400
0.002058
0.000229
0.000242
0.000217
0.000226
0.000342
0.000408
0.001485
0.000338
0.000367
0.000333
0.001991
0.000248
0.000222
0.000265
0.000277
0.000255
0.000230
0.000296
0.000287
0.000260
0.000360
0.000507
0.000401
0.000305
0.002182
0.000579
0.000363
0.000472
0.000055
0.000195
0.000212
0.000226
0.002029
0.000206
0.000220
0.000230
0.000229
0.000238
0.000256
0.000242
0.000277
0.000233
0.000316
0.000465
0.000374
0.001290
0.000248
0.000262
0.000275
0.000224
0.000256
0.000257
0.000264
0.000379
0.000511
0.000359
0.000263
0.001675
0.000221
0.000164
0.000056
0.000205
0.000204
0.000231
0.000233
0.000249
0.000258
0.000254
0.000248
0.000255
0.000365
0.000375
0.001481
0.000210
0.000209
0.000226
0.000255
0.000259
0.000259
0.000272
0.000521
0.000467
0.000381
0.000241
0.001540
0.000250
0.000263
0.000262
0.000276
0.000270
0.000269
0.000206
0.000055
0.000195
0.000211
0.000268
0.000267
0.000246
0.000246
0.000239
0.000235
0.000279
0.000224
0.000252
0.000259
0.000256
0.000254
0.001576
0.000245
0.000238
0.000264
0.000339
0.000328
0.000359
0.000259
0.000216
0.000243
0.000244
0.000278
0.001462
0.000297
0.000209
0.000251
0.000148
0.000055
0.000182
0.000227
0.000243
0.000260
0.000280
0.000214
0.000248
0.000265
0.000223
0.000267
0.000237
0.000256
0.000230
0.000378
0.000294
0.000327
0.000336
0.001586
0.000331
0.000212
0.000203
0.000239
0.000266
0.000308
0.000441
0.000436
0.000404
0.000228
0.000225
0.001598
0.000193
0.000072
0.000306
0.000371
0.000356
0.000292
0.000209
0.000207
0.000233
0.000271
0.000263
0.000236
0.000240
0.000239
0.001483
0.000346
0.000271
0.000221
0.000215
0.000254
0.000265
0.000270
0.000254
0.000243
0.000252
0.000273
0.000260
0.000345
0.000489
0.000415
0.000248
0.000228
0.000194
0.000056
0.000206
0.000301
0.000357
0.000416
0.000355
0.000234
0.000227
0.000255
0.000248
0.000254
0.000250
0.000225
0.000256
0.000247
0.001360
0.000245
0.000218
0.000225
0.000262
0.000264
0.000244
0.000257
0.000257
0.000257
0.000265
0.000255
0.000289
0.000741
0.000436
0.000241
0.000171
0.000055
0.000187
0.001533
0.000284
0.000368
0.000394
0.000405
0.000201
0.000241
0.000257
0.000263
0.000237
0.000261
0.000268
0.000278
0.000260
0.001520
0.000259
0.000282
0.000255
0.000264
0.000255
0.000261
0.000260
0.000260
0.000265
0.000260
0.000473
0.000389
0.000353
0.000232
0.000153
0.000056
0.000203
0.000231
0.000248
0.001703
0.000407
0.000322
0.000209
0.000205
0.000244
0.000264
0.000277
0.000263
0.000250
0.000260
0.000238
0.000266
0.000375
0.001426
0.000216
0.000208
0.001543
0.000356
0.000651
0.000282
0.000278
0.000245
0.000248
0.000459
0.000248
0.000252
0.000199
0.000056
0.000298
0.000222
0.000213
0.000237
0.000246
0.000253
0.000240
0.000256
0.000256
0.000238
0.000262
0.000248
0.000332
0.000517
0.001635
0.001485
0.000385
0.000537
0.000305
0.000259
0.000207
0.000260
0.000246
0.000264
0.000250
0.000267
0.000262
0.000274
0.001599
0.000312
0.000135
0.000056
0.000205
0.000336
0.000350
0.000326
0.000260
0.000196
0.000217
0.000331
0.000476
0.001388
0.000348
0.001538
0.000416
0.000429
0.000450
0.000287
0.000327
0.000332
0.000347
0.000275
0.000238
0.000349
0.001561
0.000547
0.000231
0.000230
0.000277
0.000251
0.000254
0.000259
0.000219
0.000056
0.000196
0.000229
0.000256
0.000250
0.000242
0.001654
0.000964
0.000896
0.000242
0.000229
0.000255
0.000258
0.000271
0.000243
0.000255
0.000248
0.000255
0.000264
0.000268
0.000298
0.001489
0.000274
0.000258
0.000225
0.000220
0.000242
0.000267
0.000273
0.000270
0.000275
0.000205
0.000056
0.000194
0.000203
0.001549
0.000978
0.000317
0.000341
0.000224
0.000207
0.000241
0.000252
0.000251
0.000255
0.000253
0.002037
0.000469
0.000217
0.000210
0.000231
0.000266
0.000257
0.000207
