0.000398
0.017624
0.003780
0.000345
0.000259
0.000285
0.000307
0.000248
0.000327
0.000286
0.000245
0.000351
0.000517
0.000463
0.000340
0.000415
0.000287
0.000326
0.000353
0.000407
0.000317
0.001904
0.000716
0.000252
0.000250
0.000310
0.000304
0.000328
0.000430
0.000407
0.000522
0.000258
0.000058
0.000206
0.000270
0.000269
0.000261
0.000269
0.000253
0.000276
0.000262
0.000271
0.000306
0.000412
0.000435
0.000319
0.000263
0.000409
0.000304
0.000363
0.000252
0.000247
0.001704
0.000334
0.000260
0.000433
0.000240
0.000288
0.000272
0.000287
0.000293
0.000274
0.000375
0.000378
0.000057
0.000245
0.000252
0.000261
0.000261
0.000257
0.000240
0.000263
0.000255
0.000286
0.001673
0.000227
0.000228
0.000294
0.000255
0.000273
0.000249
0.000265
0.000253
0.000360
0.001791
0.000241
0.000281
0.000446
0.000465
0.000357
0.000235
0.000286
0.000482
0.000496
0.000727
0.000193
0.000056
0.000189
0.000250
0.000252
0.000240
0.000295
0.000256
0.000259
0.000668
0.000317
0.000265
0.000244
0.000251
0.000239
0.000251
0.000257
0.000264
0.000246
0.000264
0.000294
0.000338
0.001659
0.000273
0.000256
0.000416
0.000498
0.000496
0.000673
0.000524
0.000360
0.000226
0.000199
0.000056
0.000222
0.000246
0.000260
0.000248
0.000254
0.000256
0.000279
0.000524
0.001401
0.000213
0.000245
0.000248
0.000254
0.000253
0.000268
0.000281
0.000311
0.000761
0.001400
0.000277
0.000462
0.000255
0.000204
0.000241
0.000262
0.000253
0.000265
0.000275
0.000257
0.000268
0.000199
0.000056
0.000184
0.000243
0.000239
0.000271
0.000238
0.000244
0.000238
0.000259
0.000233
0.000259
0.001624
0.000267
0.000232
0.000239
0.000254
0.000249
0.000249
0.000246
0.000256
0.000257
0.000267
0.001660
0.000297
0.000246
0.000437
0.000259
0.000257
0.000256
0.000259
0.000269
0.000194
0.000056
0.000221
0.000230
0.000269
0.000229
0.000237
0.000251
0.000259
0.000237
0.000266
0.000241
0.000266
0.000253
0.000262
0.000275
0.001643
0.000272
0.000295
0.000211
0.000260
0.000273
0.000264
0.000241
0.000246
0.000270
0.001782
0.000352
0.000381
0.000351
0.000255
0.000285
0.000188
0.000056
0.000223
0.000241
0.000244
0.000268
0.000254
0.000242
0.000264
0.000421
0.000426
0.000419
0.000215
0.000245
0.000252
0.000249
0.001563
0.000530
0.000304
0.000424
0.000315
0.000228
0.000274
0.000277
0.000271
0.001735
0.000498
0.000480
0.000249
0.000251
0.000237
0.000268
0.000189
0.000055
0.000211
0.000230
0.000258
0.000275
0.000427
0.000432
0.000298
0.000266
0.000221
0.000243
0.000261
0.000238
0.000256
0.001737
0.000461
0.000295
0.000223
0.000257
0.000267
0.000284
0.000248
0.000258
0.000274
0.001945
0.000256
0.000382
0.000260
0.000239
0.000267
0.000410
0.000328
0.000055
0.000193
0.000394
0.000340
0.000313
0.000243
0.000242
0.000252
0.000262
0.000238
0.000239
0.000234
0.000243
0.001551
0.000346
0.000330
0.000226
0.000255
0.000248
0.000248
0.000281
0.000286
0.000322
0.000243
0.001812
0.000251
0.000499
0.000242
0.000256
0.000264
0.000264
0.000267
0.000056
0.000445
0.000493
0.000608
0.000217
0.000228
0.000279
0.000228
0.000217
0.000263
0.000253
0.000253
0.001698
0.000245
0.000440
0.000368
0.000222
0.000247
0.000227
0.000248
0.000267
0.000379
0.001734
0.000235
0.000238
0.002082
0.000515
0.000367
0.000247
0.000252
0.000272
0.000183
0.000056
0.000196
0.000240
0.000243
0.000242
0.000262
0.001621
0.000253
0.000228
0.000256
0.000247
0.000247
0.000255
0.000242
0.000253
0.000269
0.000422
0.000624
0.000246
0.000243
0.000266
0.000269
0.000245
0.000254
0.000420
0.000440
0.000241
0.000415
0.000492
0.000462
0.000266
0.000205
0.000055
0.000218
0.000237
0.000252
0.000253
0.000232
0.000248
0.000251
0.000423
0.000366
0.001748
0.000222
0.000236
0.000239
0.000246
0.000258
0.000314
0.000438
0.000440
0.000368
0.000219
0.000256
0.000296
0.000288
0.000263
0.000266
0.000438
0.000341
0.000469
0.000549
0.000490
0.000181
0.000055
0.000243
0.000241
0.000242
0.000209
0.000246
0.000235
0.000245
0.000247
0.000249
0.000290
0.000344
0.000442
0.001404
0.000229
0.000229
0.000241
0.000265
0.000255
0.000239
0.000255
0.000262
0.000476
0.000417
0.000262
0.000258
0.000273
0.000238
0.000268
0.000266
0.000264
0.000383
0.000056
0.000194
0.000234
0.000227
0.000298
0.000520
0.000427
0.000253
0.000241
0.000228
0.000263
0.000244
0.000240
0.000300
0.000248
0.000234
0.000477
0.001852
0.000307
0.000187
0.000235
0.000259
0.000267
0.000258
0.000240
0.000261
0.000460
0.000413
0.000407
0.000415
0.000222
0.000197
0.000057
0.000221
0.000430
0.000235
0.000219
0.000266
0.000241
0.000321
0.000539
0.000324
0.000320
0.000232
0.000275
0.000263
0.000241
0.000511
0.000348
0.000229
0.000257
0.000429
0.001631
0.000254
0.000236
0.000527
0.000231
0.000280
0.000280
0.000256
0.000329
0.000568
0.000377
0.000290
0.000056
0.000177
0.000234
0.000238
0.000241
0.000421
0.000305
0.000291
0.000221
0.000379
0.000487
0.000400
0.000240
0.000239
0.000248
0.000251
0.000267
0.000246
0.000262
0.000226
0.000353
0.000293
0.000327
0.001847
0.000242
0.000261
0.000253
0.000292
0.000348
0.000434
0.000691
0.000408
0.000056
0.000223
0.000331
0.000286
0.000429
0.000387
0.000203
0.000259
0.000291
0.000526
0.000403
0.000260
0.000245
0.000249
0.000255
0.000262
0.000230
0.000258
0.000271
0.000266
0.000261
0.000267
0.000379
0.000686
0.001345
0.000323
0.000437
0.000419
0.000252
0.000397
0.000432
0.000325
0.000056
0.000245
0.000383
0.000269
0.000206
0.000222
0.000252
0.000414
0.000240
0.000256
0.000385
0.000384
0.000444
0.000249
0.000251
0.000259
0.000250
0.000363
0.000390
0.000357
0.000233
0.000242
0.000387
0.000633
0.001681
0.000233
0.000458
0.000286
0.000231
0.000257
0.000452
0.000315
0.000056
0.000224
0.000225
0.000248
0.000261
0.000229
0.000259
0.000241
0.000321
0.000468
0.000259
0.000478
0.000320
0.000325
0.000572
0.000243
0.000256
0.000261
0.000282
0.000215
0.000352
0.000225
0.000240
0.000274
0.000490
0.000395
0.001677
0.000267
0.000239
0.000247
0.000262
0.000180
0.000057
0.000299
0.000507
0.000317
0.000218
0.000251
0.000267
0.000246
0.000235
0.000258
0.000247
0.000232
0.000240
0.000439
0.000503
0.000403
0.000278
0.000241
0.000259
0.000346
0.000387
0.000381
0.000361
0.000388
0.000336
0.000235
0.000265
0.000265
0.000274
0.001784
0.000253
0.000208
0.000056
0.000212
0.000225
0.000247
0.000270
0.000366
0.000543
0.000304
0.000217
0.000261
0.000263
0.000249
0.000245
0.000523
0.000446
0.000481
0.000282
0.000261
0.000272
0.000421
0.000468
0.000356
0.000411
0.000452
0.000474
0.000239
0.000242
0.000267
0.000252
0.000256
0.001717
0.000295
0.000057
0.000253
0.000328
0.000204
0.000238
0.000256
0.000244
0.000249
0.000499
0.000372
0.000309
0.000294
0.000261
0.000419
0.000549
0.000380
0.000234
0.000249
0.000255
0.000250
0.000270
0.000261
0.000267
0.000243
0.000269
0.000334
0.000326
0.000441
0.000331
0.000237
0.000253
0.000190
0.000056
0.000462
0.000282
0.000457
0.000259
0.000203
0.000247
0.000244
0.000254
0.000243
0.000218
0.000254
0.000282
0.000306
0.000337
0.000587
0.000415
0.000321
0.000317
0.000387
0.000337
0.000303
0.000239
0.000241
0.000252
0.001749
0.000266
0.001715
0.000938
0.000395
0.000328
0.000170
0.000056
0.000205
0.000222
0.000237
0.000245
0.000259
0.000250
0.000247
0.000256
0.000256
0.000292
0.000374
0.000428
0.000347
0.000382
0.000250
0.000245
0.000258
0.000292
0.000219
0.000253
0.000255
0.000262
0.001810
0.000241
0.000253
0.000262
0.000274
0.000269
0.001874
0.000532
0.000258
0.000056
0.000245
0.000201
0.000243
0.000239
0.000252
0.000249
0.000242
0.000254
0.000273
0.000285
0.000708
0.000417
0.000240
0.000201
0.000236
0.000255
0.000331
0.000443
0.000369
0.000256
0.001765
0.000253
0.000253
0.000249
0.000256
0.000273
0.000235
0.000255
0.000339
0.000334
0.000331
0.000056
0.000216
0.000220
0.000245
0.000251
0.000245
0.000245
0.000257
0.000251
0.000241
0.000258
0.000243
0.000259
0.000440
0.000365
0.000323
0.000275
0.000464
0.000235
0.000251
0.000255
0.000253
0.000259
0.000277
0.000262
0.000275
0.001794
0.000245
0.000246
0.000258
0.000239
0.000200
0.000057
0.000388
0.000233
0.000231
0.000226
0.000239
0.000237
0.000234
0.000260
0.000244
0.000224
0.000240
0.000259
0.000259
0.000334
0.000458
0.000336
0.000289
0.000235
0.000250
0.000254
0.000264
0.000262
0.000248
0.000268
0.000244
0.000271
0.000302
0.001636
0.000277
0.000235
0.000191
0.000056
0.000217
0.000234
0.000245
0.000272
0.000377
0.000457
0.000270
0.000309
0.000229
0.000251
0.000247
0.000244
0.000244
0.000258
0.000263
0.000258
0.000242
0.000267
0.000251
0.000262
0.000260
0.000265
0.000255
0.000230
0.000241
0.000280
0.000274
0.000267
0.000249
0.000267
0.000188
0.000055
0.000190
0.000240
0.000253
0.000260
0.000238
0.000253
0.000241
0.000259
0.000284
0.000240
0.000237
0.000236
0.000257
0.000246
0.000273
0.000263
0.000253
0.000250
0.000295
0.000267
0.000260
0.000292
0.000273
0.000244
0.000281
0.000271
0.000276
0.000248
0.000273
0.000353
0.000667
0.000056
0.000222
0.000293
0.000221
0.000230
0.000230
0.000257
0.000235
0.000254
0.000253
0.000240
0.000276
0.000300
0.000477
0.000452
0.001562
0.000237
0.000477
0.000243
0.000249
0.000466
0.000407
0.000402
0.000233
0.000275
0.000255
0.000255
0.000301
0.000230
0.000314
0.000251
0.000190
0.000056
0.000363
0.000419
0.000323
0.000337
0.000204
0.000258
0.000248
0.000241
0.000241
0.000238
0.000262
0.000252
0.000233
0.000285
0.000398
0.000414
0.000428
0.001795
0.000229
0.000256
0.000340
0.000410
0.000429
0.000321
0.000317
0.000320
0.000300
0.000226
0.000236
0.000250
0.000195
0.000057
0.000206
0.000233
0.000233
0.000287
0.000435
0.000369
0.000346
0.000279
0.000231
0.000212
0.000248
0.000272
0.000265
0.000262
0.000249
0.000256
0.000278
0.000514
0.000331
0.000445
0.000241
0.001746
0.000331
0.000484
0.000499
0.000466
0.000340
0.000225
0.000252
0.000268
0.000441
0.000056
0.000203
0.000254
0.000230
0.000299
0.000407
0.000451
0.000396
0.000223
0.000229
0.000299
0.000241
0.000254
0.000261
0.000311
0.000285
0.000241
0.000287
0.000372
0.000420
0.000333
0.000504
0.001854
0.000241
0.000480
0.000456
0.000363
0.000236
0.000255
0.000289
0.000268
0.000203
0.000055
0.000214
0.000340
0.000360
0.000392
0.000350
0.000326
0.000319
0.000206
0.000249
0.000261
0.000277
0.000225
0.000249
0.000245
0.000248
0.000270
0.000339
0.000456
0.000392
0.000378
0.000300
0.000225
0.000264
0.001716
0.000463
0.000474
0.000686
0.000232
0.000254
0.000309
0.000168
0.000056
0.000202
0.000226
0.000326
0.000253
0.000303
0.000315
0.000440
0.000311
0.000236
0.000526
0.000238
0.000238
0.000262
0.000281
0.000272
0.000263
0.000210
0.000385
0.000409
0.000472
0.000258
0.000229
0.000261
0.000250
0.000263
0.000286
0.000217
0.000263
0.000260
0.000286
0.000250
0.000056
0.000337
0.000309
0.000229
0.000253
0.000245
0.000263
0.000235
0.000288
0.000247
0.000249
0.000254
0.000356
0.000488
0.000324
0.000356
0.000274
0.000223
0.000242
0.000249
0.000269
0.000297
0.000252
0.000241
0.000254
0.000277
0.000402
0.000316
0.000390
0.000348
0.000231
0.000176
0.000056
0.000205
0.000221
0.000281
0.000248
0.000232
0.000249
0.000262
0.000255
0.000488
0.000213
0.000258
0.000255
0.000245
0.000262
0.000273
0.000275
0.000266
0.000347
0.000238
0.000228
0.000265
0.000257
0.000251
0.000275
0.000268
0.000264
0.000261
0.000260
0.000519
0.000242
0.000149
0.000056
0.000203
0.000249
0.000234
0.000267
0.000218
0.000250
0.000360
0.000412
0.000242
0.000232
0.000248
0.000255
0.000233
0.000227
0.000610
0.001660
0.000231
0.000264
0.000285
0.000383
0.000365
0.000362
0.000362
0.000442
0.000350
0.000401
0.000241
0.000265
0.000268
0.000277
0.001396
0.000055
0.000441
0.000247
0.000277
0.000228
0.000234
0.000252
0.000228
0.000259
0.000241
0.000268
0.000248
0.000258
0.000253
0.000338
0.000540
0.001583
0.000245
0.000227
0.000240
0.000264
0.000245
0.000284
0.000319
0.000395
0.000306
0.000360
0.000223
0.000264
0.000276
0.000257
0.000206
0.000056
0.001314
0.000418
0.000356
0.000255
0.000236
0.000229
0.000231
0.000243
0.000481
0.000225
0.000239
0.000244
0.000376
0.000512
0.000382
0.000349
0.000241
0.000236
0.000338
0.000347
0.000275
0.000258
0.000274
0.000245
0.000259
0.000563
0.000580
0.000267
0.000246
0.000267
0.000175
0.000056
0.000220
0.000214
0.000242
0.000251
0.001427
0.000338
0.000243
0.000237
0.000261
0.000233
0.000252
0.000256
0.000242
0.000261
0.000265
0.000258
0.000603
0.000521
0.000262
0.001752
0.000252
0.000286
0.000299
0.000696
0.000264
0.000416
0.000247
0.000253
0.000251
0.000272
0.000202
0.000056
0.000218
0.000244
0.000238
0.000317
0.001259
0.000233
0.000262
0.000249
0.000240
0.000238
0.000235
0.000251
0.000278
0.000249
0.000251
0.000320
0.000608
0.000262
0.000318
0.000252
0.000285
0.000252
0.000255
0.000231
0.000284
0.000265
0.000241
0.000279
0.000269
0.000358
0.000554
0.000055
0.000222
0.000247
0.000236
0.000265
0.000257
0.000244
0.000234
0.000257
0.000274
0.000252
0.001432
0.000233
0.000236
0.000263
0.000232
0.000252
0.000262
0.000263
0.000259
0.000268
0.000316
0.000433
0.000417
0.000431
0.000235
0.000276
0.001769
0.000259
0.000248
0.000317
0.000460
0.000055
0.000221
0.000398
0.000455
0.000508
0.000511
0.000553
0.001484
0.000409
0.000522
0.000651
0.000555
0.000776
0.000460
0.000579
0.000584
0.001882
0.000386
0.000461
0.000398
0.000319
0.000215
0.000308
0.000261
0.000263
0.000256
0.000294
0.000288
0.000290
0.000251
0.000298
0.001369
0.000055
0.000230
0.000214
0.000248
0.000231
0.000265
0.000251
0.000238
0.000243
0.000250
0.000245
0.000248
0.000240
0.000252
0.000257
0.000263
0.000274
0.001810
0.000278
0.000251
0.000243
0.000257
0.000263
0.000268
0.000253
0.000474
0.000356
0.000355
0.000249
0.000257
0.000286
0.000198
0.000055
0.000202
0.001371
0.000317
0.000278
0.000243
0.000247
0.000238
0.000233
0.000239
0.000236
0.000217
0.000246
0.000253
0.000498
0.000366
0.000284
0.000263
0.000255
0.001921
0.000241
0.000248
0.000257
0.000253
0.000268
0.000273
0.000285
0.000263
0.000256
0.000265
0.000321
0.000200
0.000056
0.000186
0.000247
0.000255
0.001436
0.000221
0.000247
0.000256
0.000240
0.000233
0.000270
0.000245
0.000252
0.000244
0.000256
0.000256
0.000259
0.000267
0.000265
0.000260
0.000257
0.000268
0.001774
0.000270
0.001760
0.000250
0.000281
0.000237
0.000276
0.000266
0.000268
0.000212
0.000056
0.000215
0.000230
0.001345
0.000227
0.000262
0.000241
0.000263
0.000244
0.000248
0.000249
0.000246
0.000267
0.000247
0.000255
0.000261
0.000264
0.000258
0.000286
0.000291
0.000236
0.001884
0.000231
0.001832
0.000244
0.000248
0.000283
0.000231
0.000247
0.000262
0.000261
0.000193
0.000056
0.001433
0.000226
0.000230
0.000239
0.000237
0.000246
0.000360
0.000274
0.000256
0.000249
0.000251
0.000260
0.000264
0.000408
0.000326
0.000292
0.000241
0.000282
0.000247
0.000249
0.000273
0.000340
0.000226
0.000254
0.000274
0.000275
0.000266
0.000318
0.000678
0.000360
0.000195
0.000058
0.000224
0.000242
0.000255
0.000313
0.000373
0.000246
0.001664
0.000369
0.000248
0.000269
0.000255
0.000262
0.000266
0.000288
0.000280
0.000304
0.000329
0.000576
0.000388
0.000268
0.000299
0.000270
0.000259
0.000275
0.000331
0.000260
0.000258
0.000253
0.000253
0.000298
0.000432
0.000056
0.000235
0.000478
0.000266
0.000266
0.000243
0.000228
0.000225
0.000252
0.000258
0.000254
0.001529
0.000217
0.000234
0.000240
0.000244
0.000284
0.000262
0.000253
0.000276
0.000256
0.000267
0.000521
0.000429
0.000270
0.000279
0.000282
0.000267
0.000255
0.000242
0.000304
0.000173
0.000056
0.000188
0.000228
0.000384
0.000366
0.000367
0.000281
0.000214
0.000252
0.000273
0.000234
0.000248
0.000229
0.000258
0.000267
0.000244
0.000236
0.000490
0.001128
0.000238
0.000246
0.000282
0.000243
0.000360
0.000414
0.000251
0.000287
0.000628
0.000335
0.000388
0.000225
0.000186
0.000056
0.000221
0.000243
0.000263
0.000260
0.000257
0.000247
0.000412
0.000307
0.000461
0.000287
0.000363
0.000392
0.000391
0.000364
0.000246
0.000245
0.000243
0.000256
0.000397
0.000459
0.001275
0.000221
0.000277
0.000268
0.000240
0.000227
0.000269
0.000328
0.000403
0.000450
0.000249
0.000056
0.000205
0.000239
0.000253
0.000236
0.000269
0.000229
0.000241
0.000256
0.000311
0.000410
0.000373
0.000373
0.000250
0.000216
0.000261
0.000259
0.000246
0.000262
0.000265
0.000248
0.000443
0.000251
0.000397
0.000371
0.000338
0.000249
0.000274
0.000273
0.000250
0.000345
0.000149
0.000055
0.000311
0.000319
0.000329
0.000359
0.000457
0.000327
0.000266
0.000241
0.000246
0.000273
0.000256
0.000261
0.000236
0.000271
0.000225
0.000243
0.000258
0.000353
0.000475
0.000365
0.000232
0.000270
0.000252
0.000244
0.000265
0.000279
0.000262
0.000290
0.000265
0.000266
0.000496
0.000056
0.000281
0.000313
0.000233
0.000239
0.000250
0.000246
0.000247
0.000256
0.000263
0.000275
0.000235
0.000234
0.000411
0.000392
0.000412
0.000300
0.000240
0.000241
0.000259
0.000269
0.000256
0.000262
0.000259
0.000278
0.000263
0.000308
0.000399
0.000615
0.000411
0.000249
0.000173
0.000055
0.000368
0.000201
0.000224
0.000255
0.000250
0.000247
0.000243
0.000248
0.000252
0.000260
0.000221
0.000247
0.000268
0.000232
0.000235
0.000273
0.000245
0.000266
0.000278
0.000257
0.000260
0.000266
0.000257
0.000266
0.000272
0.000231
0.000273
0.000278
0.000252
0.000282
0.000195
0.000055
0.000201
0.000228
0.000246
0.000268
0.000213
0.000254
0.000258
0.000247
0.000256
0.000280
0.000225
0.000235
0.000259
0.000405
0.000242
0.000278
0.000264
0.000266
0.000257
0.000279
0.000272
0.000228
0.000258
0.000251
0.000268
0.000276
0.000247
0.000247
0.000278
0.000261
0.000210
0.000055
0.000217
0.000355
0.000372
0.000281
0.000296
0.000253
0.000267
0.000257
0.000222
0.000246
0.000249
0.000265
0.000247
0.000238
0.000260
0.000256
0.000268
0.000267
0.000240
0.000267
0.000274
0.000267
0.000276
0.000259
0.000269
0.000252
0.000257
0.000264
0.000272
0.000256
0.000201
0.000055
0.000202
0.000221
0.000265
0.000267
0.000488
0.000211
0.000210
0.000242
0.000304
0.000470
0.000471
0.000266
0.000228
0.000261
0.000249
0.000272
0.000231
0.000269
0.000268
0.000260
0.000269
0.000262
0.000254
0.000254
0.000571
0.000489
0.000266
0.000305
0.000257
0.000259
0.000188
0.000055
0.000233
0.000218
0.000241
0.000251
0.000311
0.000662
0.000315
0.000382
0.000233
0.000225
0.000254
0.000246
0.000254
0.000247
0.000259
0.000267
0.000278
0.000273
0.000649
0.000322
0.000311
0.000246
0.000253
0.000285
0.000285
0.000250
0.000263
0.000273
0.000251
0.000327
0.000339
0.000055
0.000272
0.000220
0.000246
0.000243
0.000240
0.000261
0.000219
0.000246
0.000248
0.000260
0.000242
0.000254
0.000245
0.000406
0.000556
0.000381
0.000257
0.000257
0.000256
0.000245
0.000266
0.000274
0.000489
0.000224
0.000261
0.000553
0.000459
0.000486
0.000253
0.000246
0.000187
0.000056
0.000201
0.000227
0.000243
0.000245
0.000253
0.000259
0.000299
0.000747
0.000272
0.000431
0.000218
0.000259
0.000277
0.000271
0.000258
0.000246
0.000259
0.000226
0.000263
0.000342
0.000373
0.000671
0.000361
0.000256
0.000362
0.000376
0.000471
0.000256
0.000262
0.000337
0.000453
0.000056
0.000270
0.000230
0.000439
0.000234
0.000228
0.000244
0.000257
0.000265
0.000230
0.000245
0.000309
0.000362
0.000373
0.000332
0.000235
0.000237
0.000263
0.000254
0.000266
0.000271
0.000274
0.000253
0.000254
0.000272
0.000324
0.000473
0.000491
0.000234
0.000252
0.000273
0.000212
0.000056
0.000230
0.000249
0.000227
0.000246
0.000250
0.000288
0.000333
0.000405
0.000426
0.000282
0.000371
0.000230
0.000250
0.000260
0.000256
0.000232
0.000259
0.000266
0.000376
0.000360
0.000477
0.000300
0.000459
0.000278
0.000400
0.000411
0.000379
0.000239
0.000253
0.000296
0.000365
0.000055
0.000219
0.000281
0.000221
0.000257
0.000255
0.000258
0.000248
0.000247
0.000246
0.000266
0.000247
0.000444
0.000387
0.000340
0.000377
0.000219
0.000267
0.000268
0.000265
0.000252
0.000235
0.000267
0.000248
0.000272
0.000281
0.000317
0.000528
0.000452
0.000248
0.000270
0.000189
0.000055
0.000216
0.000245
0.000269
0.000237
0.000259
0.000335
0.000520
0.000456
0.000365
0.000683
0.000267
0.000213
0.000260
0.000241
0.000246
0.000265
0.000281
0.000271
0.000481
0.000404
0.001516
0.000327
0.000240
0.000264
0.000293
0.000264
0.000377
0.000484
0.000307
0.000322
0.000170
0.000055
0.000220
0.000234
0.000241
0.000264
0.000224
0.000258
0.000272
0.000250
0.000245
0.000342
0.000323
0.000383
0.000266
0.000341
0.000392
0.000340
0.000250
0.000246
0.000267
0.000260
0.000248
0.000246
0.000287
0.000242
0.000320
0.000432
0.000429
0.000304
0.000248
0.000264
0.000195
0.000056
0.000231
0.000246
0.000256
0.000274
0.000224
0.000241
0.000464
0.000211
0.000241
0.000255
0.000244
0.000253
0.000258
0.000254
0.000248
0.000272
0.000265
0.000261
0.000279
0.000250
0.000262
0.000287
0.000294
0.000240
0.000267
0.000279
0.000274
0.000267
0.000259
0.000275
0.000163
0.000056
0.000231
0.000248
0.000301
0.000406
0.000390
0.000255
0.000233
0.000246
0.000262
0.000245
0.000249
0.000276
0.000246
0.000261
0.000238
0.000247
0.000248
0.000267
0.000277
0.000330
0.000493
0.000352
0.000235
0.000260
0.000266
0.000273
0.000253
0.000253
0.000268
0.000274
0.000199
0.000055
0.000365
0.000450
0.000368
0.000204
0.000257
0.000255
0.000409
0.000232
0.000223
0.000253
0.000258
0.000291
0.000349
0.000435
0.001865
0.000259
0.000243
0.000248
0.000276
0.000239
0.000350
0.000422
0.000672
0.000257
0.000230
0.000254
0.000276
0.000443
0.000260
0.000285
0.000159
0.000055
0.000243
0.000334
0.000378
0.000288
0.000500
0.000201
0.000242
0.000252
0.000249
0.000239
0.000261
0.000244
0.000259
0.000382
0.000426
0.000394
0.000228
0.000245
0.000259
0.000263
0.000263
0.000324
0.000219
0.000302
0.000266
0.000507
0.000443
0.000398
0.000472
0.000224
0.000199
0.000056
0.000209
0.000231
0.000261
0.000223
0.000258
0.000244
0.000265
0.000272
0.000350
0.000366
0.000445
0.000351
0.000212
0.000256
0.000264
0.000280
0.000298
0.000241
0.000277
0.000273
0.000237
0.000368
0.000487
0.000283
0.000307
0.000251
0.000259
0.000435
0.000409
0.000321
0.000173
0.000056
0.000217
0.000282
0.000287
0.000432
0.000381
0.000205
0.000239
0.000249
0.000264
0.000247
0.000269
0.000251
0.000225
0.000264
0.000258
0.000308
0.000429
0.000318
0.000414
0.000213
0.000495
0.000226
0.000283
0.000275
0.000305
0.000295
0.000242
0.000274
0.000462
0.000561
0.000148
0.000055
0.000196
0.000230
0.000250
0.000250
0.000240
0.000484
0.000221
0.000253
0.000262
0.000384
0.000418
0.000600
0.000211
0.000242
0.000242
0.000254
0.000255
0.000253
0.000255
0.000249
0.000281
0.000252
0.000353
0.000418
0.000367
0.000406
0.000303
0.000299
0.000317
0.000254
0.000179
0.000056
0.000201
0.000232
0.000259
0.000489
0.000316
0.000293
0.000274
0.000211
0.000249
0.000253
0.000258
0.000244
0.000254
0.000256
0.000256
0.000260
0.000252
0.000243
0.000278
0.000378
0.000450
0.000448
0.000222
0.000256
0.000280
0.000276
0.000253
0.000259
0.000265
0.000268
0.000187
0.000055
0.000313
0.000315
0.000483
0.000253
0.000211
0.000252
0.000329
0.000452
0.000283
0.000213
0.000247
0.000272
0.000251
0.000467
0.000412
0.000299
0.000227
0.000241
0.000247
0.000267
0.000270
0.000267
0.000258
0.000277
0.000258
0.000282
0.000433
0.000391
0.000311
0.000260
0.000171
0.000055
0.000213
0.000236
0.000252
0.000248
0.000255
0.000263
0.000229
0.000274
0.000230
0.000265
0.000251
0.000240
0.000263
0.001461
0.000219
0.000257
0.000262
0.000247
0.000291
0.000260
0.000260
0.000237
0.000275
0.000260
0.000263
0.000273
0.000267
0.000280
0.000256
0.000265
0.000192
0.000056
0.000217
0.000237
0.000243
0.000250
0.000243
0.000238
0.000258
0.000257
0.000232
0.000249
0.000250
0.000257
0.000260
0.000256
0.000253
0.000260
0.000241
0.000262
0.000276
0.000253
0.000250
0.000269
0.000272
0.000216
0.001302
0.000269
0.000587
0.000413
0.000343
0.000244
0.000190
0.000055
0.000205
0.000235
0.000246
0.000258
0.000405
0.000247
0.000231
0.000243
0.000255
0.000410
0.000388
0.000353
0.000228
0.000244
0.000257
0.000255
0.000259
0.000269
0.000239
0.000263
0.000258
0.000256
0.000320
0.000334
0.000552
0.000440
0.000217
0.000271
0.001377
0.000242
0.000175
0.000056
0.000365
0.000392
0.000319
0.000269
0.000218
0.000246
0.000216
0.000259
0.000253
0.000253
0.000249
0.000258
0.000274
0.000358
0.000481
0.000362
0.000347
0.000229
0.000240
0.000261
0.000263
0.000264
0.000266
0.000270
0.000264
0.000259
0.000467
0.000449
0.000337
0.000390
0.000149
0.000055
0.000204
0.000242
0.001275
0.000464
0.000265
0.000420
0.000403
0.000475
0.000278
0.000338
0.000234
0.000226
0.000255
0.000256
0.000247
0.000267
0.000420
0.000469
0.000393
0.000319
0.000253
0.000249
0.000263
0.000515
0.000223
0.000266
0.000252
0.000275
0.000277
0.000591
0.000275
0.000056
0.000385
0.000308
0.000237
0.000219
0.001562
0.000457
0.000303
0.000277
0.000226
0.000253
0.000227
0.000237
0.000245
0.000271
0.000251
0.000257
0.000243
0.000331
0.000395
0.000359
0.000433
0.000253
0.000247
0.000250
0.000247
0.000281
0.000272
0.000241
0.000263
0.000279
0.000191
0.000056
0.000361
0.000348
0.000227
0.000228
0.000249
0.000245
0.000252
0.000243
0.000239
0.000223
0.001387
0.000476
0.000288
0.000231
0.000262
0.000240
0.000280
0.000253
0.000241
0.000269
0.000268
0.000256
0.000261
0.000460
0.000368
0.000470
0.000227
0.000263
0.000280
0.000280
0.000174
0.000056
0.000202
0.000418
0.000220
0.000239
0.000330
0.000467
0.000334
0.000350
0.000466
0.000197
0.000232
0.000251
0.000262
0.000265
0.000256
0.001453
0.000327
0.000287
0.000234
0.000289
0.000272
0.000265
0.000232
0.000254
0.000258
0.000273
0.000372
0.000526
0.000291
0.000282
0.000152
0.000056
0.000211
0.000228
0.000257
0.000237
0.000226
0.000264
0.000236
0.000248
0.000285
0.000343
0.000505
0.000251
0.000254
0.000246
0.000239
0.000286
0.000262
0.000259
0.000268
0.000229
0.000252
0.000298
0.001281
0.000259
0.000261
0.000236
0.000255
0.000285
0.000250
0.000258
0.000179
0.000056
0.000193
0.000360
0.000352
0.000360
0.000252
0.000240
0.000256
0.000262
0.000257
0.000248
0.000280
0.000250
0.000242
0.000251
0.000257
0.000261
0.000267
0.000268
0.000267
0.000246
0.000251
0.000287
0.000250
0.000284
0.000285
0.000285
0.000254
0.000252
0.000263
0.000447
0.001371
0.000055
0.000227
0.000231
0.000239
0.000241
0.000255
0.000258
0.000249
0.000226
0.000249
0.000252
0.000284
0.000239
0.000256
0.000241
0.000246
0.000264
0.001716
0.000252
0.000240
0.000266
0.000244
0.000255
0.000278
0.000259
0.000274
0.000256
0.000269
0.000279
0.000268
0.000270
0.000200
0.000056
0.000329
0.000395
0.001238
0.000231
0.000223
0.000248
0.000256
0.000252
0.000259
0.000261
0.000225
0.000339
0.000400
0.000504
0.000229
0.000225
0.000245
0.000260
0.000254
0.000270
0.000239
0.000267
0.000270
0.000280
0.000269
0.000398
0.000340
0.000394
0.000305
0.000238
0.000197
0.000057
0.000204
0.000255
0.000242
0.000246
0.000261
0.000217
0.000243
0.000283
0.000392
0.001343
0.000266
0.000206
0.000248
0.000271
0.000260
0.000264
0.000261
0.000250
0.000338
0.000444
0.000360
0.000226
0.000243
0.000240
0.000285
0.000278
0.000265
0.000295
0.000270
0.000274
0.000191
0.000055
0.000221
0.000461
0.000384
0.000212
0.000232
0.000236
0.000247
0.000276
0.000267
0.000248
0.000232
0.000246
0.000462
0.000556
0.000407
0.001461
0.000250
0.000257
0.000333
0.000368
0.000467
0.000421
0.000457
0.000406
0.000231
0.000265
0.000260
0.000274
0.000267
0.000273
0.000196
0.000056
0.000224
0.000289
0.000430
0.000577
0.000230
0.000236
0.000246
0.000228
0.000252
0.000258
0.000247
0.000264
0.000264
0.000248
0.000266
0.000282
0.000380
0.000445
0.000351
0.001324
0.000258
0.000256
0.000259
0.000263
0.000435
0.000461
0.000366
0.000272
0.000274
0.000267
0.000190
0.000055
0.000189
0.000248
0.000241
0.000245
0.000252
0.000277
0.000442
0.000382
0.000381
0.000217
0.000257
0.000246
0.000267
0.000259
0.000263
0.000263
0.000265
0.000251
0.000271
0.000398
0.000336
0.000435
0.000323
0.001347
0.000408
0.000236
0.000275
0.000437
0.000452
0.000317
0.000316
0.000055
0.000192
0.000236
0.000248
0.000247
0.000249
0.000253
0.001685
0.000241
0.000218
0.000245
0.000250
0.000252
0.000249
0.000330
0.000325
0.000288
0.000275
0.000289
0.000508
0.000467
0.000250
0.000288
0.000227
0.000247
0.001501
0.000362
0.000386
0.000472
0.000327
0.000288
0.000175
0.000056
0.000202
0.000251
0.000261
0.000252
0.000242
0.000259
0.001714
0.000235
0.000238
0.000261
0.000336
0.000407
0.001440
0.000362
0.000396
0.000241
0.000261
0.000228
0.000276
0.000264
0.001575
0.000548
0.000372
0.000292
0.000245
0.000247
0.000264
0.000284
0.000239
0.000250
0.000193
0.000056
0.000202
0.000247
0.000270
0.000244
0.000260
0.000278
0.000289
0.000243
0.000253
0.000253
0.000253
0.000247
0.000262
0.000271
0.000254
0.001490
0.000281
0.000239
0.000260
0.000275
0.000272
0.000270
0.000418
0.001268
0.000277
0.000239
0.000270
0.000255
0.000396
0.000260
0.000180
0.000056
0.000220
0.000245
0.000224
0.000245
0.000241
0.000231
0.000230
0.001701
0.000261
0.000219
0.000247
0.000375
0.000226
0.000219
0.000252
0.001387
0.000230
0.000281
0.000258
0.000248
0.000258
0.000349
0.000274
0.001307
0.000295
0.000246
0.000247
0.000268
0.001391
0.000273
0.000227
0.000056
0.000240
0.000328
0.000207
0.000247
0.000247
0.000242
0.000264
0.000271
0.000263
0.000244
0.000263
0.000275
0.000245
0.000243
0.000293
0.001520
0.000253
0.000267
0.000249
0.000251
0.000280
0.000271
0.000239
0.001510
0.000357
0.000232
0.000262
0.001281
0.000267
0.000243
0.000198
0.000056
0.000223
0.000387
0.000328
0.000222
0.000235
0.000241
0.000277
0.000242
0.000261
0.000274
0.000236
0.000249
0.000264
0.000278
0.000407
0.001229
0.000232
0.000266
0.000248
0.000278
0.000217
0.000254
0.000246
0.000415
0.001198
0.000252
0.000245
0.000255
0.001353
0.000360
0.000199
0.000056
0.000328
0.000249
0.000214
0.000238
0.000231
0.000255
0.000245
0.000268
0.000253
0.000260
0.000241
0.000247
0.000255
0.000298
0.000540
0.001378
0.000205
0.000277
0.000276
0.000512
0.000283
0.000415
0.001334
0.000281
0.000257
0.000265
0.000255
0.001300
0.000323
0.000402
0.000439
0.000055
0.000232
0.000247
0.000257
0.000256
0.000253
0.000251
0.000272
0.000249
0.000267
0.000258
0.000343
0.000406
0.001367
0.000241
0.000273
0.000256
0.000279
0.000223
0.000246
0.000252
0.000320
0.001252
0.000246
0.000251
0.000258
0.000246
0.001470
0.000473
0.000483
0.000220
0.000188
0.000055
0.000193
0.000239
0.000253
0.000246
0.000243
0.000265
0.000234
0.000308
0.000465
0.000410
0.000258
0.001496
0.000210
0.000260
0.000254
0.000260
0.000251
0.000362
0.001621
0.000253
0.000398
0.000340
0.001253
0.000385
0.000302
0.000326
0.000252
0.000257
0.000262
0.000272
0.000193
0.000055
0.000209
0.000251
0.000314
0.000310
0.000260
0.000571
0.000249
0.000286
0.001473
0.000243
0.000388
0.000254
0.000223
0.000313
0.000385
0.001319
0.000274
0.000235
0.000243
0.000268
0.001525
0.000373
0.000273
0.000284
0.000267
0.000247
0.000452
0.000366
0.000224
0.000231
0.000258
0.000068
0.000221
0.000376
0.000331
0.000267
0.000216
0.001527
0.000208
0.000256
0.000267
0.000266
0.000266
0.000244
0.000271
0.001522
0.000255
0.000228
0.000428
0.001203
0.000311
0.000456
0.000407
0.000228
0.000246
0.000260
0.000273
0.000244
0.000451
0.000243
0.000250
0.000274
0.000200
0.000057
0.000215
0.000233
0.000389
0.000334
0.001329
0.000274
0.000303
0.000234
0.000242
0.000251
0.000255
0.000301
0.001506
0.000252
0.000240
0.000242
0.001399
0.000281
0.000405
0.000449
0.000367
0.000243
0.000238
0.000257
0.000267
0.000271
0.000280
0.000255
0.000272
0.000241
0.000194
0.000056
0.000186
0.000446
0.001416
0.000209
0.000292
0.000256
0.000245
0.000241
0.000266
0.000386
0.001395
0.000208
0.000263
0.000251
0.000267
0.001266
0.000710
0.000301
0.000303
0.000412
0.000302
0.000246
0.000262
0.000261
0.000267
0.000286
0.000271
0.000312
0.000446
0.000407
0.001383
0.000056
0.000213
0.000267
0.000224
0.000239
0.000257
0.000377
0.000489
0.001301
0.000241
0.000246
0.000252
0.001448
0.000434
0.000313
0.000219
0.000405
0.000271
0.000224
0.000266
0.000280
0.000251
0.000269
0.000275
0.000252
0.000252
0.000307
0.000434
0.000470
0.001496
0.000222
0.000198
0.000056
0.000227
0.000240
0.000382
0.000518
0.001234
0.000273
0.000260
0.000252
0.000246
0.000254
0.000250
0.000266
0.000359
0.000485
0.000353
0.000233
0.000254
0.000275
0.000243
0.000273
0.000263
0.000263
0.000273
0.000253
0.000263
0.000614
0.000239
0.000364
0.000318
0.001401
0.000173
0.000057
0.000204
0.000244
0.000262
0.000490
0.000313
0.000315
0.000317
0.000330
0.000267
0.000263
0.000254
0.000265
0.000254
0.000324
0.000219
0.000258
0.000626
0.000283
0.000294
0.000385
0.000273
0.000404
0.000225
0.000250
0.000260
0.000259
0.000268
0.000285
0.000377
0.000490
0.000274
0.000055
0.000189
0.001404
0.000235
0.000351
0.000396
0.000447
0.000327
0.000335
0.000220
0.000244
0.000265
0.000245
0.000309
0.000244
0.000255
0.000246
0.000263
0.001422
0.000245
0.000208
0.000253
0.000266
0.000269
0.000282
0.000270
0.000254
0.000280
0.000244
0.000345
0.000387
0.000386
0.000058
0.000205
0.000253
0.000228
0.001494
0.000328
0.000241
0.000225
0.000244
0.000226
0.000243
0.000258
0.000276
0.000249
0.000248
0.000271
0.000251
0.000247
0.000270
0.000256
0.000259
0.001441
0.000230
0.000248
0.000271
0.000250
0.000254
0.000263
0.000262
0.000277
0.000489
0.000345
0.000058
0.000192
0.000233
0.000389
0.000282
0.000249
0.000247
0.001559
0.000325
0.000298
0.000219
0.000256
0.000308
0.000334
0.000236
0.000221
0.000255
0.000245
0.000269
0.000256
0.000258
0.000497
0.000518
0.001095
0.000275
0.000231
0.000261
0.000267
0.000256
0.000277
0.000262
0.000433
0.000057
0.000311
0.000276
0.000190
0.000246
0.000249
0.000239
0.000250
0.000231
0.000286
0.001627
0.000364
0.000278
0.000231
0.000254
0.000259
0.000244
0.000261
0.000265
0.000270
0.000307
0.000320
0.000526
0.000397
0.001377
0.000218
0.000267
0.000276
0.000254
0.000278
0.000284
0.000471
0.000056
0.000257
0.000218
0.000239
0.000242
0.000220
0.000244
0.000258
0.000255
0.000268
0.001605
0.000321
0.000255
0.000264
0.000254
0.000470
0.000260
0.000521
0.000379
0.000302
0.000306
0.000454
0.000471
0.001270
0.000262
0.000236
0.000258
0.001701
0.000468
0.000600
0.000317
0.000149
0.000057
0.000199
0.000231
0.000238
0.000238
0.000253
0.000245
0.000246
0.000510
0.000502
0.000411
0.000290
0.000211
0.000246
0.000257
0.000265
0.000267
0.000249
0.000254
0.000242
0.000279
0.000318
0.000416
0.001309
0.000215
0.000265
0.000255
0.001926
0.000362
0.000375
0.000347
0.000161
0.000057
0.000194
0.000233
0.001527
0.000465
0.000247
0.000209
0.000240
0.000260
0.000250
0.000289
0.000379
0.000369
0.000368
0.000265
0.000439
0.000364
0.000406
0.001204
0.000274
0.000231
0.000249
0.000260
0.000276
0.000405
0.000586
0.000494
0.000256
0.000261
0.000270
0.000273
0.000191
0.000056
0.000196
0.000237
0.000241
0.001536
0.000283
0.000210
0.000241
0.000250
0.000242
0.000251
0.000256
0.000264
0.000271
0.000276
0.000283
0.000481
0.000298
0.000332
0.001404
0.000224
0.000268
0.000273
0.000247
0.000258
0.000506
0.000383
0.000424
0.000270
0.000284
0.000222
0.000446
0.000057
0.000206
0.000240
0.000246
0.001526
0.000318
0.000228
0.000270
0.000231
0.000255
0.000259
0.000256
0.000255
0.000257
0.000259
0.000484
0.000405
0.001407
0.000751
0.000259
0.000338
0.000251
0.000229
0.000247
0.000268
0.001692
0.000809
0.000217
0.000270
0.000274
0.000280
0.000193
0.000056
0.000212
0.000238
0.000255
0.000241
0.000256
0.000246
0.000241
0.000253
0.000240
0.000231
0.000289
0.000284
0.000254
0.000250
0.000260
0.000245
0.000273
0.001603
0.000699
0.000415
0.000283
0.000222
0.000241
0.000281
0.000276
0.000258
0.000268
0.000252
0.001408
0.000377
0.000339
0.000057
0.000193
0.000231
0.000248
0.000249
0.000261
0.000232
0.000274
0.000227
0.000254
0.000264
0.000287
0.000404
0.000445
0.000333
0.000218
0.000241
0.000261
0.001408
0.000691
0.000462
0.000356
0.000254
0.000224
0.000248
0.000281
0.000247
0.000260
0.000262
0.001501
0.000457
0.000155
0.000056
0.000229
0.000226
0.000246
0.000248
0.000245
0.000250
0.000245
0.000259
0.000252
0.000278
0.000340
0.000389
0.000334
0.000214
0.000244
0.000251
0.000259
0.000255
0.001603
0.000579
0.000502
0.000304
0.000226
0.000264
0.000256
0.000267
0.000265
0.000278
0.000268
0.001427
0.000257
0.000058
0.000217
0.000215
0.000237
0.000254
0.000265
0.000236
0.000264
0.000296
0.000364
0.000448
0.000363
0.000356
0.000398
0.000206
0.000244
0.000248
0.000275
0.000260
0.000266
0.001932
0.000321
0.000244
0.000436
0.000241
0.000260
0.000257
0.000275
0.000258
0.000271
0.000270
0.000298
0.000057
0.000224
0.000253
0.000223
0.000242
0.000248
0.000254
0.000219
0.000244
0.000271
0.000251
0.000243
0.000235
0.000370
0.000406
0.000430
0.000446
0.000219
0.000261
0.000251
0.000259
0.000251
0.000286
0.001490
0.001046
0.000211
0.000249
0.000266
0.000266
0.000280
0.000253
0.000194
0.000056
0.000207
0.001349
0.000281
0.000206
0.000243
0.000246
0.000257
0.000238
0.000242
0.000246
0.000257
0.000265
0.000238
0.000394
0.000366
0.000436
0.000286
0.000249
0.000266
0.000263
0.000270
0.000233
0.000259
0.000265
0.001330
0.000682
0.000305
0.000379
0.000382
0.000397
0.000299
0.000056
0.000198
0.000235
0.000365
0.001325
0.000206
0.000256
0.000229
0.000255
0.000255
0.000260
0.000260
0.000235
0.000257
0.000392
0.000535
0.000306
0.000221
0.000294
0.000321
0.000214
0.000248
0.000272
0.000234
0.000270
0.000291
0.001516
0.000742
0.000295
0.000284
0.000272
0.000188
0.000056
0.000213
0.000419
0.000299
0.000370
0.001265
0.000252
0.000219
0.000237
0.000236
0.000243
0.000247
0.000258
0.000225
0.000243
0.000258
0.000252
0.000270
0.000232
0.000261
0.000253
0.000267
0.000266
0.000327
0.000312
0.000214
0.000268
0.000263
0.001469
0.000259
0.000235
0.000173
0.000055
0.000199
0.000229
0.000251
0.000280
0.000341
0.000379
0.000394
0.000266
0.001594
0.000220
0.000280
0.000485
0.000373
0.000239
0.000425
0.000241
0.000232
0.000284
0.000252
0.000274
0.000275
0.000267
0.000261
0.000268
0.000252
0.000438
0.000388
0.000313
0.001584
0.000213
0.000193
0.000056
0.000223
0.000246
0.000249
0.000245
0.000243
0.000248
0.000261
0.000276
0.000433
0.002041
0.000239
0.000243
0.000248
0.000266
0.000253
0.000257
0.000278
0.000247
0.000292
0.000403
0.000342
0.000489
0.001443
0.000254
0.000527
0.000229
0.001773
0.000233
0.000263
0.001534
0.000152
0.000055
0.000423
0.000351
0.000439
0.000239
0.000263
0.000223
0.000279
0.000251
0.000263
0.000228
0.000252
0.000331
0.000453
0.000315
0.000466
0.000208
0.000225
0.001572
0.000233
0.000613
0.001840
0.000300
0.000227
0.001539
0.002036
0.000739
0.000266
0.000257
0.000292
0.000505
0.000269
0.000056
0.000193
0.000246
0.000248
0.000249
0.001415
0.001739
0.001078
0.000198
0.000240
0.001577
0.001983
0.000210
0.000240
0.000427
0.000276
0.000444
0.000398
0.000432
0.000214
0.000240
0.000249
0.000255
0.000277
0.001603
0.001200
0.001423
0.000262
0.000311
0.000267
0.000279
0.000397
0.000056
0.000160
0.000241
0.000235
0.000243
0.000227
0.000244
0.000248
0.000252
0.000258
0.000248
0.000259
0.000286
0.000448
0.000522
0.000244
0.000244
0.000248
0.000268
0.000270
0.000265
0.000252
0.000264
0.001513
0.000480
0.002106
0.000236
0.000267
0.000322
0.000471
0.000365
0.000211
0.000056
0.000264
0.000323
0.000448
0.000318
0.000193
0.000228
0.000254
0.000247
0.000235
0.000249
0.000248
0.000258
0.000264
0.001606
0.001356
0.001225
0.000274
0.000241
0.000242
0.000271
0.000285
0.000280
0.000240
0.000259
0.002195
0.000258
0.000247
0.000298
0.000327
0.000304
0.000250
0.000055
0.000220
0.000360
0.000549
0.000325
0.000227
0.000242
0.000245
0.000269
0.001899
0.001417
0.000219
0.000332
0.000386
0.000444
0.000235
0.000212
0.000266
0.000267
0.000261
0.000274
0.000256
0.000257
0.000473
0.000239
0.000266
0.000272
0.000243
0.000283
0.000279
0.000243
0.000206
0.000056
0.000215
0.000243
0.000249
0.000236
0.000256
0.000269
0.001548
0.001419
0.001319
0.000242
0.000231
0.000240
0.000270
0.000261
0.000239
0.000253
0.000251
0.002102
0.000269
0.000219
0.000282
0.000247
0.000259
0.000265
0.000265
0.000266
0.000264
0.000252
0.000282
0.000249
0.000173
0.000055
0.000204
0.002688
0.001381
0.000223
0.000306
0.000297
0.000232
0.000270
0.000252
0.000243
0.000252
0.000250
0.000233
0.000247
0.000267
0.000256
0.000274
0.000264
0.000250
0.000274
0.000267
0.000281
0.000274
0.000267
0.000244
0.000244
0.000268
0.000274
0.000260
0.000267
0.000364
0.000056
0.001555
0.000246
0.001253
0.000216
0.000226
0.000243
0.000265
0.000252
0.000240
0.000263
0.000489
0.000323
0.000294
0.000210
0.000255
0.002145
0.000245
0.000243
0.000265
0.000568
0.000307
0.000309
0.000234
0.000253
0.000261
0.000252
0.000258
0.000285
0.000268
0.001619
0.002146
0.000057
0.000206
0.000220
0.000313
0.000394
0.000363
0.000266
0.000214
0.000229
0.000249
0.000256
0.000266
0.000245
0.000229
0.000257
0.000263
0.000237
0.000285
0.000661
0.000357
0.000243
0.000227
0.000274
0.000282
0.000252
0.000250
0.000241
0.000270
0.000278
0.000242
0.000324
0.000377
0.000057
0.001107
0.000211
0.000381
0.000433
0.000295
0.000231
0.000229
0.000240
0.000250
0.002316
0.000387
0.000347
0.000221
0.000373
0.000280
0.000266
0.000262
0.000252
0.000267
0.000226
0.000258
0.000351
0.000735
0.000242
0.001880
0.001330
0.000511
0.000532
0.000222
0.000278
0.000200
0.000054
0.000234
0.000380
0.000229
0.000248
0.000249
0.000224
0.000262
0.000249
0.000254
0.000248
0.000259
0.000223
0.000249
0.000259
0.000378
0.000507
0.001861
0.001308
0.000555
0.000349
0.000448
0.000241
0.000238
0.000262
0.002119
0.000564
0.000396
0.000229
0.000270
0.000280
0.000195
0.000056
0.000210
0.000244
0.000258
0.000241
0.000246
0.000307
0.000452
0.000294
0.000315
0.000239
0.000246
0.000249
0.000258
0.002106
0.000351
0.000426
0.000199
0.000249
0.000267
0.000263
0.002277
0.000410
0.000378
0.000201
0.000265
0.000250
0.000256
0.000274
0.000280
0.000274
0.000201
0.000055
0.000205
0.000432
0.000471
0.000351
0.000256
0.000217
0.000234
0.000252
0.000260
0.000255
0.001958
0.000382
0.000280
0.000272
0.000236
0.000270
0.000273
0.000240
0.002196
0.000457
0.000220
0.000266
0.000266
0.000264
0.000261
0.000247
0.000283
0.000248
0.000270
0.000264
0.000188
0.000056
0.000207
0.000245
0.000249
0.000216
0.000246
0.000264
0.000238
0.000248
0.000226
0.002181
0.000232
0.000292
0.000221
0.000416
0.000236
0.000241
0.000273
0.000293
0.000241
0.000267
0.001981
0.000262
0.000342
0.000366
0.000433
0.000405
0.000306
0.000242
0.000252
0.000271
0.000187
0.000056
0.000207
0.000269
0.000213
0.000235
0.000250
0.000330
0.000216
0.002298
0.000248
0.000240
0.000257
0.000259
0.000231
0.000253
0.000307
0.002121
0.000601
0.000214
0.000257
0.000243
0.000261
0.000258
0.000293
0.000263
0.000249
0.000265
0.000284
0.000255
0.000267
0.000267
0.000189
0.000056
0.001824
0.001432
0.000199
0.000233
0.000238
0.000259
0.000247
0.000314
0.000358
0.000349
0.002170
0.000263
0.000252
0.000250
0.000258
0.000563
0.000366
0.000296
0.000229
0.000244
0.000249
0.000270
0.000262
0.000226
0.000258
0.000267
0.000286
0.000249
0.000336
0.000741
0.000231
0.000056
0.000204
0.000247
0.000246
0.000250
0.000275
0.000241
0.000253
0.000240
0.001532
0.002077
0.000591
0.000274
0.000393
0.000698
0.000345
0.000246
0.000250
0.000246
0.000266
0.000262
0.000257
0.000247
0.000258
0.001837
0.000323
0.001386
0.000286
0.000277
0.000275
0.000300
0.000380
0.000056
0.001941
0.000232
0.000225
0.000231
0.000276
0.000368
0.000448
0.000313
0.000284
0.000223
0.000241
0.000250
0.000259
0.000257
0.000272
0.000252
0.000251
0.000270
0.001836
0.000243
0.000237
0.000252
0.000275
0.000278
0.000272
0.000257
0.001473
0.000331
0.000236
0.000260
0.000173
0.000056
0.000203
0.000218
0.000250
0.000240
0.000254
0.000242
0.000342
0.000324
0.000350
0.000381
0.000220
0.000228
0.000264
0.000328
0.000429
0.000315
0.000215
0.000263
0.000258
0.000349
0.000467
0.000471
0.000235
0.000257
0.000258
0.000256
0.000249
0.000275
0.000272
0.000261
0.000205
0.000055
0.001462
0.000439
0.000208
0.001928
0.000323
0.000458
0.000359
0.000318
0.000225
0.000244
0.000267
0.000248
0.000246
0.000250
0.000262
0.000256
0.000449
0.000345
0.000393
0.000332
0.000352
0.000233
0.000253
0.000272
0.000270
0.000270
0.000264
0.000271
0.000374
0.000466
0.001358
0.000056
0.000208
0.000230
0.002068
0.000313
0.000305
0.000257
0.000258
0.000256
0.000255
0.000261
0.000221
0.000248
0.000253
0.000261
0.000307
0.000312
0.000716
0.001761
0.000223
0.000253
0.000256
0.000260
0.000362
0.000441
0.001600
0.000277
0.000366
0.001911
0.000278
0.000245
0.000199
0.000055
0.000217
0.000223
0.000232
0.000243
0.000230
0.000254
0.000249
0.000306
0.000309
0.000278
0.000372
0.000358
0.000345
0.000301
0.000230
0.000271
0.000271
0.000229
0.000268
0.000251
0.000305
0.000284
0.000267
0.000269
0.000263
0.001516
0.000284
0.000392
0.002071
0.000227
0.000176
0.000056
0.000192
0.000235
0.000236
0.000250
0.000522
0.000171
0.000251
0.000344
0.000376
0.000293
0.000324
0.000193
0.000262
0.000265
0.000272
0.000317
0.000395
0.000463
0.000260
0.000398
0.000551
0.000437
0.001568
0.000237
0.000247
0.001997
0.000319
0.000238
0.000250
0.000290
0.000185
0.000056
0.000183
0.000242
0.000228
0.000239
0.000250
0.000273
0.000255
0.000269
0.000253
0.000285
0.001786
0.000322
0.000378
0.000317
0.000430
0.000366
0.000332
0.001522
0.000238
0.000274
0.002251
0.000453
0.000231
0.000243
0.000268
0.000270
0.000500
0.000225
0.000257
0.000274
0.000202
0.000055
0.000215
0.000295
0.000421
0.000268
0.000200
0.000252
0.000256
0.000253
0.000269
0.000291
0.000219
0.000254
0.000273
0.000254
0.000317
0.001543
0.000316
0.000198
0.000292
0.002005
0.000282
0.000277
0.000236
0.000269
0.000246
0.000281
0.000270
0.000257
0.000248
0.000266
0.000205
0.000055
0.000246
0.000412
0.002034
0.000242
0.000255
0.000220
0.000252
0.000323
0.000456
0.000404
0.001293
0.000376
0.002125
0.000308
0.000204
0.000245
0.000266
0.000278
0.000257
0.000239
0.000286
0.000293
0.000262
0.000379
0.000436
0.000375
0.000346
0.002211
0.000564
0.000446
0.000352
0.000056
0.000195
0.000224
0.000248
0.001960
0.000238
0.000219
0.000250
0.000238
0.000244
0.000260
0.000256
0.000245
0.000245
0.000283
0.000516
0.001407
0.000244
0.000244
0.000261
0.000257
0.000240
0.000257
0.000260
0.000282
0.000332
0.000500
0.000404
0.000237
0.001605
0.000281
0.000152
0.000056
0.000204
0.000227
0.000244
0.000232
0.000250
0.000255
0.000250
0.000246
0.000275
0.000393
0.000316
0.001432
0.000246
0.000207
0.000250
0.000266
0.000254
0.000257
0.000504
0.000280
0.000457
0.000390
0.000227
0.001577
0.000221
0.000263
0.000286
0.000277
0.000266
0.000261
0.000195
0.000056
0.000205
0.000248
0.000246
0.000277
0.000235
0.000246
0.000235
0.000243
0.000259
0.000243
0.000251
0.000258
0.000255
0.001483
0.000366
0.000205
0.000275
0.000237
0.000280
0.000313
0.000375
0.000266
0.000247
0.000269
0.000259
0.000264
0.000258
0.001411
0.000292
0.000225
0.000164
0.000057
0.000185
0.000231
0.000262
0.000266
0.000251
0.000232
0.000271
0.000240
0.000225
0.000263
0.000244
0.000255
0.000229
0.000301
0.000390
0.000347
0.000254
0.000255
0.001631
0.000230
0.000246
0.000263
0.000265
0.000296
0.000375
0.000378
0.000459
0.000251
0.000258
0.001612
0.000158
0.000056
0.000166
0.000356
0.000380
0.000274
0.000241
0.000212
0.000248
0.000273
0.000257
0.000236
0.000245
0.000238
0.001508
0.000243
0.000315
0.000218
0.000253
0.000251
0.000269
0.000268
0.000251
0.000235
0.000257
0.000276
0.000258
0.000353
0.000391
0.000430
0.000289
0.000254
0.000188
0.000058
0.000201
0.000299
0.000485
0.000239
0.000361
0.000285
0.000248
0.000247
0.000251
0.000262
0.000244
0.000223
0.000253
0.000246
0.001330
0.000231
0.000235
0.000250
0.000268
0.000270
0.000233
0.000264
0.000255
0.000264
0.000257
0.000281
0.000312
0.000806
0.000310
0.000242
0.000160
0.000057
0.000207
0.001559
0.000246
0.000321
0.000464
0.000385
0.000214
0.000251
0.000269
0.000252
0.000253
0.000249
0.000276
0.000266
0.000259
0.001526
0.000255
0.000281
0.000268
0.000256
0.000258
0.000250
0.000268
0.000258
0.000263
0.000272
0.000535
0.000242
0.000378
0.000225
0.000192
0.000056
0.000194
0.000253
0.000232
0.001615
0.000424
0.000344
0.000231
0.000239
0.000256
0.000265
0.000281
0.000251
0.000248
0.000267
0.000229
0.000273
0.000388
0.001337
0.000240
0.000248
0.001490
0.000286
0.000604
0.000388
0.000345
0.000236
0.000265
0.000511
0.000194
0.000261
0.000182
0.000057
0.000262
0.000220
0.000238
0.000247
0.000250
0.000258
0.000239
0.000257
0.000254
0.000238
0.000252
0.000256
0.000333
0.000543
0.001608
0.001492
0.000359
0.000536
0.000357
0.000204
0.000233
0.000256
0.000250
0.000270
0.000241
0.000267
0.000259
0.000267
0.001539
0.000324
0.000167
0.000055
0.000228
0.000354
0.000354
0.000330
0.000233
0.000233
0.000238
0.000319
0.000455
0.000368
0.002186
0.000317
0.000777
0.000419
0.000467
0.000263
0.000333
0.000404
0.000323
0.000284
0.000385
0.000241
0.001564
0.000524
0.000214
0.000265
0.000255
0.000256
0.000257
0.000270
0.000194
0.000057
0.000212
0.000252
0.000255
0.000254
0.000242
0.001659
0.000880
0.000994
0.000211
0.000233
0.000261
0.000259
0.000259
0.000258
0.000250
0.000249
0.000258
0.000266
0.000264
0.000281
0.001450
0.000293
0.000256
0.000222
0.000237
0.000264
0.000262
0.000278
0.000265
0.000289
0.001905
0.000057
0.000204
0.000218
0.001553
0.000843
0.000373
0.000370
0.000240
0.000230
0.000253
0.000256
0.000245
0.000253
0.000246
0.001981
0.000476
0.000225
0.000246
0.000255
0.000264
0.000258
0.000187
