0.000096
0.009558
0.012070
0.000334
0.000254
0.000300
0.000323
0.000243
0.000317
0.000278
0.000247
0.000340
0.000489
0.000616
0.000256
0.000383
0.000275
0.000339
0.000350
0.000422
0.000310
0.001941
0.000686
0.000266
0.000239
0.000305
0.000319
0.000312
0.000419
0.000440
0.000492
0.000249
0.000058
0.000216
0.000250
0.000271
0.000294
0.000242
0.000253
0.000285
0.000279
0.000268
0.000270
0.000429
0.000421
0.000321
0.000256
0.000371
0.000351
0.000365
0.000255
0.000251
0.001685
0.000321
0.000260
0.000447
0.000246
0.000284
0.000278
0.000284
0.000298
0.000275
0.000428
0.000312
0.000057
0.000266
0.000241
0.000267
0.000263
0.000248
0.000240
0.000272
0.000252
0.000290
0.001665
0.000233
0.000241
0.000254
0.000276
0.000278
0.000248
0.000262
0.000262
0.000346
0.001788
0.000246
0.000285
0.000439
0.000435
0.000388
0.000245
0.000249
0.000499
0.000574
0.000662
0.000206
0.000056
0.000229
0.000244
0.000253
0.000239
0.000297
0.000273
0.000290
0.000613
0.000333
0.000259
0.000238
0.000251
0.000241
0.000256
0.000251
0.000259
0.000243
0.000268
0.000305
0.000398
0.001582
0.000288
0.000244
0.000421
0.000263
0.000745
0.000758
0.000422
0.000344
0.000236
0.000189
0.000055
0.000236
0.000253
0.000293
0.000225
0.000269
0.000227
0.000277
0.000373
0.001546
0.000217
0.000253
0.000241
0.000256
0.000259
0.000259
0.000300
0.000246
0.000828
0.001377
0.000302
0.000237
0.000409
0.000252
0.000239
0.000255
0.000263
0.000269
0.000272
0.000257
0.000273
0.000195
0.000057
0.000212
0.000244
0.000242
0.000263
0.000240
0.000241
0.000240
0.000257
0.000242
0.000249
0.001622
0.000274
0.000239
0.000240
0.000248
0.000246
0.000265
0.000238
0.000253
0.000247
0.000300
0.001635
0.000290
0.000261
0.000425
0.000289
0.000221
0.000263
0.000279
0.000256
0.000195
0.000055
0.000219
0.000229
0.000253
0.000243
0.000246
0.000248
0.000261
0.000236
0.000265
0.000275
0.000244
0.000243
0.000274
0.000257
0.001657
0.000248
0.000308
0.000220
0.000243
0.000288
0.000252
0.000233
0.000248
0.000270
0.001780
0.000405
0.000459
0.000249
0.000234
0.000279
0.000198
0.000056
0.000226
0.000239
0.000241
0.000273
0.000267
0.000253
0.000369
0.000303
0.000416
0.000418
0.000213
0.000247
0.000252
0.000250
0.001569
0.000537
0.000326
0.000392
0.000326
0.000223
0.000265
0.000287
0.000272
0.001729
0.000517
0.000461
0.000260
0.000231
0.000245
0.000265
0.000186
0.000056
0.000201
0.000239
0.000255
0.000322
0.000300
0.000412
0.000379
0.000286
0.000222
0.000242
0.000258
0.000245
0.000253
0.001704
0.000492
0.000304
0.000213
0.000259
0.000265
0.000292
0.000241
0.000257
0.000275
0.001924
0.000266
0.000394
0.000248
0.000254
0.000265
0.000399
0.000325
0.000055
0.000208
0.000397
0.000358
0.000261
0.000262
0.000248
0.000249
0.000275
0.000238
0.000215
0.000241
0.000246
0.001650
0.000333
0.000230
0.000228
0.000266
0.000252
0.000244
0.000308
0.000279
0.000312
0.000232
0.001811
0.000234
0.000516
0.000244
0.000254
0.000257
0.000273
0.000257
0.000056
0.000435
0.000490
0.000608
0.000214
0.000231
0.000274
0.000227
0.000220
0.000259
0.000254
0.000255
0.001704
0.000246
0.000441
0.000371
0.000213
0.000233
0.000233
0.000255
0.000265
0.000258
0.001847
0.000227
0.000469
0.001876
0.000509
0.000361
0.000248
0.000252
0.000268
0.000186
0.000055
0.000220
0.000244
0.000246
0.000240
0.000282
0.001594
0.000281
0.000205
0.000255
0.000253
0.000245
0.000288
0.000206
0.000252
0.000299
0.000365
0.000651
0.000273
0.000213
0.000275
0.000275
0.000237
0.000246
0.000433
0.000437
0.000260
0.000377
0.000652
0.000296
0.000297
0.000195
0.000055
0.000206
0.000243
0.000246
0.000252
0.000241
0.000239
0.000260
0.000355
0.000537
0.001633
0.000222
0.000238
0.000245
0.000244
0.000266
0.000295
0.000374
0.000513
0.000364
0.000213
0.000286
0.000275
0.000280
0.000252
0.000278
0.000438
0.000356
0.000675
0.000430
0.000393
0.000192
0.000055
0.000202
0.000244
0.000243
0.000237
0.000239
0.000240
0.000246
0.000261
0.000229
0.000290
0.000347
0.000469
0.001356
0.000245
0.000234
0.000248
0.000254
0.000249
0.000250
0.000248
0.000332
0.000437
0.000387
0.000256
0.000270
0.000254
0.000255
0.000266
0.000270
0.000264
0.000378
0.000056
0.000206
0.000236
0.000227
0.000307
0.000496
0.000422
0.000240
0.000264
0.000233
0.000258
0.000262
0.000225
0.000324
0.000243
0.000216
0.000470
0.000573
0.001501
0.000286
0.000225
0.000260
0.000269
0.000257
0.000234
0.000289
0.000438
0.000526
0.000279
0.000403
0.000250
0.000195
0.000057
0.000201
0.000435
0.000230
0.000224
0.000281
0.000219
0.000374
0.000546
0.000258
0.000342
0.000222
0.000273
0.000262
0.000234
0.000525
0.000349
0.000214
0.000261
0.000510
0.001521
0.000269
0.000255
0.000506
0.000253
0.000286
0.000267
0.000253
0.000326
0.000591
0.000353
0.000278
0.000055
0.000214
0.000231
0.000237
0.000251
0.000413
0.000312
0.000281
0.000227
0.000362
0.000531
0.000348
0.000265
0.000231
0.000245
0.000258
0.000269
0.000249
0.000256
0.000227
0.000361
0.000281
0.000405
0.001798
0.000221
0.000260
0.000251
0.000285
0.000348
0.000406
0.000713
0.000431
0.000056
0.000232
0.000327
0.000308
0.000459
0.000341
0.000221
0.000240
0.000270
0.000574
0.000421
0.000223
0.000232
0.000238
0.000273
0.000259
0.000236
0.000259
0.000271
0.000267
0.000265
0.000262
0.000455
0.000664
0.001287
0.000323
0.000433
0.000420
0.000231
0.000363
0.000581
0.000227
0.000056
0.000251
0.000379
0.000278
0.000208
0.000230
0.000248
0.000409
0.000236
0.000309
0.000412
0.000322
0.000430
0.000251
0.000251
0.000260
0.000248
0.000354
0.000393
0.000350
0.000244
0.000262
0.000474
0.000531
0.001680
0.000226
0.000430
0.000317
0.000222
0.000340
0.000390
0.000359
0.000056
0.000238
0.000228
0.000244
0.000259
0.000249
0.000234
0.000252
0.000361
0.000420
0.000266
0.000436
0.000411
0.000274
0.000567
0.000253
0.000242
0.000278
0.000256
0.000228
0.000354
0.000224
0.000250
0.000274
0.000382
0.000480
0.001681
0.000267
0.000250
0.000256
0.000259
0.000188
0.000057
0.000277
0.000523
0.000291
0.000221
0.000231
0.000251
0.000255
0.000244
0.000271
0.000236
0.000227
0.000258
0.000397
0.000566
0.000415
0.000246
0.000227
0.000255
0.000330
0.000389
0.000383
0.000336
0.000360
0.000396
0.000252
0.000252
0.000267
0.000270
0.001792
0.000235
0.000217
0.000056
0.000194
0.000226
0.000261
0.000291
0.000330
0.000540
0.000321
0.000217
0.000286
0.000231
0.000253
0.000248
0.000522
0.000441
0.000491
0.000275
0.000265
0.000254
0.000424
0.000463
0.000362
0.000419
0.000617
0.000307
0.000249
0.000228
0.000272
0.000246
0.000264
0.001711
0.000469
0.000056
0.000268
0.000322
0.000224
0.000223
0.000259
0.000246
0.000237
0.000496
0.000377
0.000309
0.000289
0.000290
0.000427
0.000621
0.000273
0.000230
0.000255
0.000256
0.000250
0.000266
0.000277
0.000255
0.000248
0.000261
0.000354
0.000362
0.000379
0.000339
0.000244
0.000253
0.000192
0.000055
0.000461
0.000270
0.000485
0.000260
0.000190
0.000250
0.000246
0.000254
0.000242
0.000217
0.000281
0.000255
0.000302
0.000254
0.000621
0.000524
0.000271
0.000310
0.000379
0.000343
0.000297
0.000239
0.000246
0.000261
0.001745
0.000284
0.001687
0.000939
0.000427
0.000309
0.000161
0.000056
0.000207
0.000235
0.000229
0.000250
0.000265
0.000238
0.000256
0.000254
0.000234
0.000342
0.000374
0.000559
0.000169
0.000394
0.000265
0.000238
0.000237
0.000292
0.000238
0.000240
0.000254
0.000267
0.001802
0.000259
0.000242
0.000265
0.000276
0.001729
0.000420
0.000488
0.000271
0.000057
0.000207
0.000220
0.000248
0.000228
0.000267
0.000235
0.000246
0.000252
0.000295
0.000394
0.000532
0.000295
0.000365
0.000228
0.000247
0.000261
0.000323
0.000436
0.000365
0.000254
0.001774
0.000270
0.000245
0.000244
0.000265
0.000268
0.000241
0.000255
0.000326
0.000369
0.000330
0.000055
0.000248
0.000234
0.000223
0.000285
0.000224
0.000240
0.000253
0.000256
0.000239
0.000259
0.000242
0.000299
0.000389
0.000350
0.000345
0.000271
0.000468
0.000249
0.000239
0.000253
0.000262
0.000263
0.000271
0.000256
0.000276
0.001780
0.000258
0.000252
0.000260
0.000238
0.000208
0.000055
0.000340
0.000212
0.000224
0.000233
0.000257
0.000219
0.000239
0.000255
0.000249
0.000219
0.000241
0.000261
0.000256
0.000369
0.000420
0.000375
0.000270
0.000219
0.000251
0.000254
0.000269
0.000259
0.000245
0.000273
0.000244
0.000278
0.000333
0.001592
0.000279
0.000233
0.000192
0.000055
0.000208
0.000241
0.000250
0.000257
0.000344
0.000438
0.000289
0.000356
0.000217
0.000259
0.000258
0.000251
0.000229
0.000258
0.000264
0.000255
0.000245
0.000257
0.000253
0.000253
0.000271
0.000271
0.000248
0.000235
0.000242
0.000278
0.000273
0.000265
0.000260
0.000267
0.000190
0.000056
0.000213
0.000210
0.000257
0.000277
0.000228
0.000237
0.000239
0.000263
0.000297
0.000225
0.000229
0.000249
0.000254
0.000249
0.000294
0.000237
0.000256
0.000246
0.000299
0.000253
0.000275
0.000323
0.000268
0.000224
0.000300
0.000251
0.000270
0.000250
0.000292
0.000372
0.000693
0.000056
0.000220
0.000291
0.000223
0.000230
0.000233
0.000255
0.000241
0.000246
0.000252
0.000243
0.000271
0.000316
0.000532
0.000448
0.001490
0.000235
0.000500
0.000224
0.000264
0.000440
0.000495
0.000341
0.000228
0.000282
0.000238
0.000265
0.000282
0.000257
0.000324
0.000260
0.000170
0.000056
0.000290
0.000479
0.000337
0.000333
0.000201
0.000288
0.000224
0.000239
0.000238
0.000244
0.000255
0.000253
0.000234
0.000282
0.000398
0.000533
0.000298
0.001789
0.000244
0.000252
0.000303
0.000455
0.000453
0.000306
0.000297
0.000330
0.000298
0.000237
0.000220
0.000253
0.000196
0.000056
0.000193
0.000228
0.000236
0.000308
0.000311
0.000543
0.000274
0.000254
0.000250
0.000215
0.000253
0.000265
0.000267
0.000265
0.000262
0.000239
0.000428
0.000368
0.000383
0.000389
0.000234
0.001736
0.000337
0.000492
0.000484
0.000484
0.000330
0.000236
0.000251
0.000282
0.000431
0.000057
0.000210
0.000272
0.000216
0.000337
0.000351
0.000539
0.000327
0.000220
0.000235
0.000281
0.000247
0.000260
0.000255
0.000293
0.000309
0.000238
0.000226
0.000445
0.000504
0.000254
0.000493
0.001833
0.000264
0.000576
0.000439
0.000283
0.000232
0.000253
0.000295
0.000263
0.000197
0.000055
0.000210
0.000336
0.000362
0.000331
0.000391
0.000351
0.000320
0.000209
0.000239
0.000262
0.000273
0.000221
0.000256
0.000257
0.000246
0.000256
0.000328
0.000388
0.000491
0.000382
0.000271
0.000259
0.000240
0.001701
0.000432
0.000534
0.000666
0.000253
0.000250
0.000299
0.000172
0.000055
0.000198
0.000234
0.000355
0.000229
0.000331
0.000368
0.000363
0.000294
0.000243
0.000541
0.000214
0.000250
0.000257
0.000276
0.000276
0.000260
0.000234
0.000391
0.000376
0.000476
0.000260
0.000230
0.000259
0.000254
0.000257
0.000268
0.000240
0.000250
0.000271
0.000314
0.000193
0.000056
0.000394
0.000259
0.000218
0.000255
0.000249
0.000260
0.000241
0.000322
0.000210
0.000246
0.000276
0.000332
0.000444
0.000419
0.000329
0.000257
0.000220
0.000233
0.000260
0.000268
0.000280
0.000265
0.000237
0.000258
0.000279
0.000357
0.000478
0.000265
0.000359
0.000232
0.000179
0.000055
0.000211
0.000225
0.000283
0.000241
0.000241
0.000265
0.000263
0.000231
0.000495
0.000208
0.000266
0.000258
0.000238
0.000264
0.000271
0.000299
0.000235
0.000353
0.000219
0.000243
0.000258
0.000264
0.000261
0.000264
0.000273
0.000282
0.000245
0.000252
0.000260
0.000499
0.000167
0.000055
0.000205
0.000239
0.000247
0.000289
0.000213
0.000233
0.000374
0.000419
0.000215
0.000237
0.000248
0.000260
0.000233
0.000267
0.000569
0.001656
0.000234
0.000263
0.000286
0.000333
0.000405
0.000370
0.000375
0.000400
0.000358
0.000414
0.000265
0.000246
0.000268
0.000281
0.001388
0.000055
0.000405
0.000292
0.000243
0.000229
0.000227
0.000251
0.000236
0.000249
0.000245
0.000276
0.000244
0.000260
0.000251
0.000284
0.000548
0.001630
0.000242
0.000221
0.000251
0.000265
0.000241
0.000301
0.000481
0.000263
0.000263
0.000351
0.000218
0.000271
0.000319
0.000218
0.000197
0.000056
0.001314
0.000516
0.000258
0.000252
0.000245
0.000219
0.000239
0.000236
0.000489
0.000236
0.000222
0.000253
0.000417
0.000467
0.000366
0.000349
0.000263
0.000234
0.000331
0.000346
0.000280
0.000248
0.000271
0.000251
0.000262
0.000710
0.000460
0.000223
0.000255
0.000267
0.000176
0.000055
0.000223
0.000211
0.000258
0.000230
0.001439
0.000331
0.000219
0.000259
0.000258
0.000232
0.000252
0.000253
0.000241
0.000277
0.000258
0.000309
0.000437
0.000617
0.000271
0.001745
0.000256
0.000293
0.000363
0.000353
0.000621
0.000333
0.000253
0.000249
0.000258
0.000267
0.000201
0.000055
0.000207
0.000242
0.000242
0.000379
0.001187
0.000247
0.000281
0.000229
0.000241
0.000233
0.000243
0.000250
0.000277
0.000281
0.000216
0.000359
0.000405
0.000415
0.000343
0.000234
0.000271
0.000269
0.000243
0.000238
0.000287
0.000265
0.000244
0.000279
0.000280
0.000267
0.000628
0.000056
0.000221
0.000251
0.000235
0.000257
0.000264
0.000236
0.000235
0.000266
0.000288
0.000261
0.001405
0.000223
0.000246
0.000254
0.000245
0.000242
0.000292
0.000245
0.000281
0.000239
0.000284
0.000548
0.000464
0.000310
0.000234
0.000270
0.001754
0.000283
0.000238
0.000369
0.000412
0.000055
0.000221
0.000386
0.000453
0.000502
0.000512
0.000553
0.001483
0.000421
0.000523
0.000651
0.000553
0.000748
0.000459
0.000611
0.000585
0.001968
0.000351
0.000396
0.000395
0.000321
0.000229
0.000281
0.000285
0.000266
0.000260
0.000288
0.000295
0.000281
0.000270
0.000279
0.001359
0.000056
0.000208
0.000227
0.000245
0.000237
0.000264
0.000251
0.000238
0.000240
0.000255
0.000243
0.000243
0.000243
0.000255
0.000264
0.000266
0.000268
0.001796
0.000294
0.000245
0.000247
0.000257
0.000263
0.000265
0.000265
0.000527
0.000297
0.000373
0.000227
0.000261
0.000282
0.000208
0.000058
0.000198
0.001352
0.000331
0.000274
0.000249
0.000234
0.000244
0.000233
0.000239
0.000239
0.000215
0.000254
0.000247
0.000508
0.000361
0.000310
0.000239
0.001811
0.000385
0.000217
0.000237
0.000265
0.000258
0.000270
0.000269
0.000282
0.000266
0.000254
0.000276
0.000343
0.000169
0.000055
0.000210
0.000241
0.000248
0.001438
0.000213
0.000254
0.000249
0.000250
0.000233
0.000276
0.000246
0.000247
0.000252
0.000275
0.000235
0.000259
0.000262
0.000265
0.000268
0.000273
0.000245
0.001764
0.000299
0.001724
0.000283
0.000248
0.000269
0.000265
0.000285
0.000254
0.000199
0.000056
0.000223
0.000225
0.001337
0.000225
0.000264
0.000251
0.000250
0.000255
0.000246
0.000253
0.000251
0.000244
0.000259
0.000262
0.000260
0.000260
0.000261
0.000284
0.000291
0.000235
0.001879
0.000237
0.001818
0.000254
0.000258
0.000275
0.000228
0.000255
0.000249
0.000269
0.000201
0.000056
0.001404
0.000233
0.000248
0.000232
0.000235
0.000235
0.000374
0.000287
0.000242
0.000262
0.000236
0.000259
0.000249
0.000388
0.000381
0.000260
0.000256
0.000273
0.000255
0.000263
0.000256
0.000339
0.000227
0.000260
0.000264
0.000276
0.000279
0.000294
0.000698
0.000343
0.000201
0.000056
0.000217
0.000258
0.000255
0.000303
0.000389
0.000239
0.001715
0.000276
0.000279
0.000274
0.000252
0.000270
0.000265
0.000267
0.000300
0.000310
0.000340
0.000606
0.000351
0.000258
0.000295
0.000301
0.000241
0.000274
0.000307
0.000272
0.000297
0.000225
0.000255
0.000300
0.000434
0.000055
0.000244
0.000467
0.000262
0.000265
0.000247
0.000223
0.000232
0.000247
0.000263
0.001448
0.000329
0.000207
0.000236
0.000247
0.000245
0.000294
0.000273
0.000245
0.000256
0.000268
0.000268
0.000364
0.000636
0.000241
0.000251
0.000287
0.000265
0.000257
0.000234
0.000316
0.000166
0.000055
0.000200
0.000229
0.000460
0.000282
0.000410
0.000236
0.000221
0.000251
0.000251
0.000252
0.000228
0.000256
0.000255
0.000270
0.000239
0.000261
0.000441
0.001154
0.000237
0.000255
0.000270
0.000243
0.000355
0.000429
0.000241
0.000330
0.000572
0.000351
0.000381
0.000236
0.000180
0.000056
0.000219
0.000248
0.000259
0.000262
0.000260
0.000261
0.000327
0.000381
0.000458
0.000277
0.000362
0.000393
0.000396
0.000363
0.000259
0.000229
0.000242
0.000297
0.000375
0.000448
0.001275
0.000221
0.000274
0.000273
0.000238
0.000234
0.000262
0.000332
0.000514
0.000313
0.000271
0.000055
0.000190
0.000229
0.000262
0.000241
0.000241
0.000243
0.000239
0.000266
0.000307
0.000425
0.000375
0.000341
0.000249
0.000235
0.000247
0.000264
0.000242
0.000262
0.000267
0.000273
0.000433
0.000238
0.000374
0.000427
0.000308
0.000253
0.000272
0.000260
0.000256
0.000342
0.000162
0.000055
0.000305
0.000313
0.000438
0.000290
0.000402
0.000368
0.000238
0.000238
0.000252
0.000297
0.000232
0.000263
0.000236
0.000249
0.000242
0.000231
0.000268
0.000378
0.000497
0.000318
0.000249
0.000255
0.000251
0.000243
0.000270
0.000284
0.000261
0.000279
0.000265
0.000263
0.000386
0.000056
0.000329
0.000308
0.000239
0.000268
0.000220
0.000246
0.000249
0.000256
0.000258
0.000260
0.000247
0.000240
0.000449
0.000373
0.000393
0.000294
0.000244
0.000236
0.000264
0.000262
0.000254
0.000271
0.000252
0.000264
0.000272
0.000409
0.000353
0.000553
0.000416
0.000252
0.000182
0.000056
0.000378
0.000222
0.000212
0.000242
0.000260
0.000242
0.000236
0.000255
0.000250
0.000259
0.000226
0.000244
0.000270
0.000229
0.000240
0.000265
0.000255
0.000267
0.000294
0.000244
0.000257
0.000259
0.000256
0.000270
0.000264
0.000242
0.000281
0.000267
0.000250
0.000282
0.000196
0.000055
0.000195
0.000235
0.000243
0.000245
0.000239
0.000255
0.000260
0.000242
0.000255
0.000279
0.000250
0.000213
0.000267
0.000388
0.000256
0.000301
0.000239
0.000269
0.000252
0.000283
0.000268
0.000237
0.000245
0.000251
0.000278
0.000289
0.000225
0.000256
0.000274
0.000261
0.000209
0.000055
0.000211
0.000359
0.000367
0.000283
0.000293
0.000256
0.000268
0.000253
0.000225
0.000244
0.000283
0.000233
0.000240
0.000241
0.000261
0.000281
0.000246
0.000266
0.000245
0.000262
0.000276
0.000266
0.000276
0.000272
0.000277
0.000228
0.000258
0.000270
0.000266
0.000265
0.000196
0.000055
0.000210
0.000228
0.000265
0.000264
0.000249
0.000447
0.000227
0.000257
0.000292
0.000316
0.000581
0.000287
0.000227
0.000252
0.000276
0.000263
0.000234
0.000273
0.000256
0.000270
0.000282
0.000242
0.000258
0.000286
0.000548
0.000449
0.000300
0.000299
0.000260
0.000262
0.000193
0.000056
0.000218
0.000228
0.000245
0.000251
0.000417
0.000539
0.000332
0.000381
0.000205
0.000250
0.000253
0.000251
0.000248
0.000253
0.000259
0.000270
0.000269
0.000259
0.000575
0.000423
0.000312
0.000236
0.000256
0.000286
0.000282
0.000252
0.000263
0.000283
0.000254
0.000307
0.000305
0.000056
0.000271
0.000234
0.000240
0.000237
0.000255
0.000268
0.000215
0.000255
0.000239
0.000256
0.000262
0.000238
0.000244
0.000473
0.000575
0.000304
0.000243
0.000259
0.000258
0.000243
0.000266
0.000291
0.000469
0.000219
0.000266
0.000752
0.000289
0.000445
0.000265
0.000254
0.000187
0.000056
0.000189
0.000228
0.000241
0.000250
0.000251
0.000259
0.000313
0.000410
0.000667
0.000360
0.000215
0.000264
0.000269
0.000280
0.000253
0.000248
0.000238
0.000255
0.000284
0.000466
0.000224
0.000670
0.000378
0.000233
0.000355
0.000383
0.000491
0.000237
0.000263
0.000398
0.000389
0.000056
0.000278
0.000227
0.000440
0.000219
0.000232
0.000248
0.000267
0.000259
0.000232
0.000258
0.000243
0.000423
0.000415
0.000272
0.000243
0.000240
0.000265
0.000246
0.000264
0.000280
0.000292
0.000233
0.000251
0.000309
0.000270
0.000540
0.000434
0.000245
0.000258
0.000265
0.000200
0.000055
0.000226
0.000253
0.000229
0.000247
0.000244
0.000311
0.000337
0.000441
0.000368
0.000275
0.000372
0.000226
0.000254
0.000262
0.000254
0.000236
0.000262
0.000257
0.000331
0.000342
0.000492
0.000335
0.000480
0.000273
0.000379
0.000422
0.000382
0.000247
0.000254
0.000382
0.000290
0.000056
0.000256
0.000246
0.000223
0.000273
0.000265
0.000239
0.000265
0.000229
0.000270
0.000245
0.000236
0.000385
0.000451
0.000355
0.000355
0.000232
0.000265
0.000265
0.000263
0.000237
0.000255
0.000251
0.000274
0.000265
0.000280
0.000309
0.000574
0.000404
0.000243
0.000280
0.000198
0.000054
0.000217
0.000236
0.000274
0.000245
0.000244
0.000335
0.000550
0.000415
0.000535
0.000532
0.000250
0.000232
0.000233
0.000259
0.000244
0.000266
0.000275
0.000288
0.000470
0.000463
0.001463
0.000316
0.000264
0.000267
0.000283
0.000261
0.000382
0.000408
0.000331
0.000340
0.000196
0.000055
0.000217
0.000235
0.000247
0.000263
0.000224
0.000254
0.000306
0.000227
0.000241
0.000322
0.000331
0.000380
0.000264
0.000345
0.000399
0.000345
0.000240
0.000246
0.000273
0.000255
0.000244
0.000251
0.000312
0.000236
0.000308
0.000447
0.000458
0.000236
0.000265
0.000273
0.000185
0.000056
0.000230
0.000249
0.000253
0.000255
0.000239
0.000239
0.000475
0.000213
0.000231
0.000259
0.000241
0.000250
0.000263
0.000258
0.000251
0.000264
0.000262
0.000289
0.000263
0.000243
0.000298
0.000253
0.000287
0.000246
0.000263
0.000279
0.000270
0.000263
0.000266
0.000270
0.000179
0.000055
0.000237
0.000244
0.000307
0.000423
0.000354
0.000256
0.000240
0.000246
0.000260
0.000257
0.000239
0.000257
0.000264
0.000261
0.000234
0.000248
0.000266
0.000247
0.000352
0.000339
0.000480
0.000292
0.000228
0.000273
0.000252
0.000259
0.000265
0.000254
0.000272
0.000277
0.000199
0.000055
0.000407
0.000412
0.000391
0.000203
0.000251
0.000264
0.000400
0.000221
0.000236
0.000256
0.000251
0.000292
0.000421
0.000403
0.001835
0.000254
0.000241
0.000253
0.000278
0.000234
0.000400
0.000478
0.000551
0.000271
0.000233
0.000262
0.000274
0.000427
0.000278
0.000276
0.000169
0.000055
0.000235
0.000394
0.000320
0.000307
0.000499
0.000205
0.000239
0.000263
0.000236
0.000240
0.000261
0.000248
0.000304
0.000330
0.000381
0.000440
0.000226
0.000254
0.000257
0.000259
0.000260
0.000321
0.000236
0.000280
0.000271
0.000503
0.000478
0.000590
0.000252
0.000230
0.000206
0.000056
0.000199
0.000236
0.000257
0.000235
0.000242
0.000254
0.000266
0.000295
0.000349
0.000346
0.000437
0.000339
0.000233
0.000250
0.000262
0.000287
0.000295
0.000240
0.000273
0.000276
0.000235
0.000325
0.000514
0.000297
0.000304
0.000248
0.000263
0.000442
0.000414
0.000298
0.000186
0.000055
0.000191
0.000325
0.000243
0.000500
0.000305
0.000227
0.000224
0.000254
0.000264
0.000267
0.000246
0.000251
0.000249
0.000244
0.000255
0.000454
0.000325
0.000287
0.000301
0.000332
0.000485
0.000223
0.000291
0.000264
0.000298
0.000291
0.000246
0.000268
0.000518
0.000422
0.000243
0.000055
0.000186
0.000228
0.000253
0.000245
0.000248
0.000480
0.000214
0.000252
0.000264
0.000378
0.000450
0.000596
0.000202
0.000235
0.000241
0.000257
0.000250
0.000276
0.000239
0.000246
0.000287
0.000239
0.000334
0.000451
0.000351
0.000419
0.000292
0.000301
0.000322
0.000245
0.000184
0.000055
0.000190
0.000242
0.000250
0.000497
0.000328
0.000267
0.000263
0.000261
0.000214
0.000258
0.000252
0.000259
0.000267
0.000235
0.000255
0.000258
0.000247
0.000245
0.000302
0.000377
0.000456
0.000422
0.000227
0.000254
0.000276
0.000274
0.000263
0.000256
0.000263
0.000269
0.000196
0.000056
0.000242
0.000379
0.000481
0.000249
0.000214
0.000250
0.000313
0.000455
0.000288
0.000224
0.000236
0.000272
0.000293
0.000409
0.000436
0.000298
0.000241
0.000221
0.000251
0.000285
0.000254
0.000259
0.000264
0.000271
0.000260
0.000332
0.000388
0.000428
0.000282
0.000225
0.000199
0.000055
0.000212
0.000238
0.000245
0.000255
0.000251
0.000261
0.000230
0.000274
0.000250
0.000234
0.000268
0.000234
0.000293
0.001435
0.000216
0.000256
0.000265
0.000242
0.000278
0.000275
0.000255
0.000246
0.000277
0.000252
0.000268
0.000277
0.000259
0.000271
0.000258
0.000278
0.000193
0.000055
0.000212
0.000224
0.000258
0.000265
0.000218
0.000259
0.000243
0.000255
0.000230
0.000250
0.000248
0.000267
0.000254
0.000252
0.000252
0.000262
0.000253
0.000250
0.000275
0.000255
0.000253
0.000263
0.000257
0.000239
0.001292
0.000274
0.000652
0.000395
0.000296
0.000241
0.000198
0.000055
0.000208
0.000235
0.000259
0.000235
0.000421
0.000237
0.000234
0.000241
0.000259
0.000417
0.000393
0.000341
0.000225
0.000244
0.000261
0.000260
0.000257
0.000261
0.000243
0.000260
0.000260
0.000259
0.000257
0.000437
0.000530
0.000424
0.000223
0.000262
0.001371
0.000242
0.000186
0.000056
0.000384
0.000377
0.000329
0.000266
0.000227
0.000238
0.000218
0.000252
0.000260
0.000255
0.000249
0.000259
0.000297
0.000342
0.000499
0.000352
0.000331
0.000214
0.000256
0.000256
0.000268
0.000298
0.000236
0.000264
0.000268
0.000260
0.000304
0.000578
0.000383
0.000361
0.000151
0.000056
0.000208
0.000237
0.001261
0.000428
0.000293
0.000493
0.000364
0.000473
0.000265
0.000344
0.000222
0.000240
0.000259
0.000253
0.000245
0.000267
0.000370
0.000485
0.000392
0.000352
0.000269
0.000238
0.000267
0.000494
0.000242
0.000260
0.000252
0.000282
0.000298
0.000565
0.000281
0.000056
0.000378
0.000309
0.000238
0.001392
0.000457
0.000406
0.000310
0.000230
0.000247
0.000247
0.000232
0.000243
0.000245
0.000269
0.000266
0.000245
0.000235
0.000302
0.000432
0.000319
0.000459
0.000243
0.000255
0.000261
0.000260
0.000276
0.000265
0.000240
0.000270
0.000273
0.000200
0.000055
0.000389
0.000336
0.000213
0.000252
0.000247
0.000245
0.000258
0.000242
0.000233
0.000237
0.001389
0.000531
0.000213
0.000242
0.000240
0.000257
0.000272
0.000258
0.000241
0.000302
0.000244
0.000249
0.000268
0.000443
0.000388
0.000453
0.000234
0.000272
0.000265
0.000286
0.000173
0.000055
0.000216
0.000419
0.000230
0.000233
0.000317
0.000468
0.000372
0.000311
0.000456
0.000206
0.000242
0.000251
0.000258
0.000264
0.000256
0.001528
0.000257
0.000297
0.000222
0.000274
0.000296
0.000233
0.000254
0.000253
0.000264
0.000267
0.000456
0.000440
0.000293
0.000262
0.000166
0.000056
0.000199
0.000233
0.000254
0.000236
0.000232
0.000255
0.000241
0.000252
0.000338
0.000296
0.000477
0.000284
0.000212
0.000263
0.000244
0.000274
0.000277
0.000259
0.000262
0.000233
0.000258
0.000315
0.001250
0.000266
0.000260
0.000252
0.000243
0.000267
0.000260
0.000264
0.000184
0.000055
0.000205
0.000419
0.000302
0.000351
0.000283
0.000214
0.000259
0.000288
0.000238
0.000264
0.000232
0.000274
0.000241
0.000247
0.000277
0.000241
0.000267
0.000274
0.000262
0.000244
0.000257
0.000269
0.000266
0.000288
0.000281
0.000271
0.000265
0.000262
0.000265
0.000444
0.001361
0.000056
0.000206
0.000249
0.000221
0.000264
0.000232
0.000260
0.000242
0.000229
0.000246
0.000253
0.000302
0.000234
0.000245
0.000238
0.000281
0.000218
0.001732
0.000249
0.000242
0.000262
0.000249
0.000263
0.000270
0.000255
0.000308
0.000228
0.000267
0.000280
0.000266
0.000254
0.000260
0.000056
0.000285
0.000304
0.001308
0.000222
0.000239
0.000248
0.000254
0.000251
0.000268
0.000246
0.000234
0.000332
0.000459
0.000412
0.000257
0.000223
0.000259
0.000253
0.000259
0.000263
0.000244
0.000282
0.000256
0.000280
0.000277
0.000432
0.000342
0.000349
0.000310
0.000237
0.000194
0.000056
0.000217
0.000243
0.000240
0.000248
0.000274
0.000199
0.000245
0.000301
0.000370
0.001338
0.000266
0.000218
0.000242
0.000272
0.000256
0.000292
0.000239
0.000247
0.000319
0.000506
0.000269
0.000277
0.000244
0.000244
0.000291
0.000269
0.000266
0.000293
0.000273
0.000274
0.000191
0.000056
0.000271
0.000431
0.000360
0.000221
0.000226
0.000236
0.000250
0.000276
0.000264
0.000245
0.000231
0.000276
0.000426
0.000503
0.000454
0.001470
0.000243
0.000270
0.000357
0.000348
0.000480
0.000459
0.000411
0.000403
0.000224
0.000267
0.000285
0.000255
0.000264
0.000276
0.000193
0.000056
0.000224
0.000341
0.000404
0.000420
0.000378
0.000255
0.000229
0.000241
0.000238
0.000275
0.000236
0.000267
0.000276
0.000229
0.000259
0.000304
0.000365
0.000448
0.001379
0.000335
0.000217
0.000258
0.000249
0.000281
0.000473
0.000414
0.000387
0.000250
0.000285
0.000255
0.000188
0.000055
0.000211
0.000238
0.000245
0.000281
0.000214
0.000334
0.000388
0.000444
0.000324
0.000217
0.000236
0.000263
0.000269
0.000292
0.000236
0.000255
0.000261
0.000266
0.000273
0.000426
0.000392
0.000358
0.000298
0.001386
0.000369
0.000243
0.000270
0.000463
0.000456
0.000291
0.000310
0.000057
0.000207
0.000255
0.000221
0.000250
0.000255
0.000251
0.001740
0.000190
0.000217
0.000231
0.000257
0.000247
0.000259
0.000324
0.000329
0.000282
0.000283
0.000323
0.000496
0.000404
0.000285
0.000281
0.000238
0.000245
0.001499
0.000360
0.000405
0.000451
0.000325
0.000298
0.000177
0.000055
0.000199
0.000247
0.000258
0.000263
0.000238
0.000270
0.001696
0.000225
0.000255
0.000261
0.000336
0.000398
0.001445
0.000362
0.000395
0.000243
0.000248
0.000242
0.000266
0.000278
0.001698
0.000321
0.000500
0.000272
0.000225
0.000258
0.000262
0.000285
0.000243
0.000267
0.000186
0.000055
0.000194
0.000243
0.000267
0.000255
0.000257
0.000275
0.000273
0.000254
0.000254
0.000251
0.000256
0.000247
0.000289
0.000258
0.000252
0.001481
0.000275
0.000235
0.000269
0.000274
0.000273
0.000254
0.000427
0.001271
0.000277
0.000238
0.000271
0.000271
0.000375
0.000249
0.000194
0.000055
0.000217
0.000253
0.000223
0.000242
0.000242
0.000234
0.000230
0.001684
0.000256
0.000234
0.000357
0.000283
0.000205
0.000228
0.000251
0.001384
0.000239
0.000262
0.000266
0.000248
0.000267
0.000342
0.000296
0.001299
0.000289
0.000236
0.000248
0.000271
0.001384
0.000276
0.000234
0.000055
0.000287
0.000290
0.000217
0.000237
0.000268
0.000223
0.000285
0.000254
0.000258
0.000250
0.000258
0.000264
0.000262
0.000263
0.000314
0.001492
0.000235
0.000267
0.000245
0.000247
0.000311
0.000238
0.000250
0.001526
0.000334
0.000243
0.000260
0.001275
0.000264
0.000250
0.000217
0.000055
0.000205
0.000473
0.000263
0.000218
0.000233
0.000245
0.000264
0.000252
0.000265
0.000272
0.000236
0.000253
0.000258
0.000345
0.000385
0.001174
0.000234
0.000250
0.000269
0.000275
0.000226
0.000246
0.000251
0.000359
0.001252
0.000251
0.000250
0.000249
0.000263
0.001332
0.000377
0.000057
0.000247
0.000245
0.000217
0.000228
0.000244
0.000257
0.000240
0.000251
0.000298
0.000229
0.000250
0.000242
0.000248
0.000322
0.000420
0.001470
0.000221
0.000248
0.000305
0.000519
0.000266
0.001489
0.000329
0.000239
0.000232
0.000266
0.000260
0.001299
0.000309
0.000534
0.000360
0.000056
0.000234
0.000253
0.000253
0.000250
0.000279
0.000234
0.000272
0.000258
0.000247
0.000320
0.000284
0.000462
0.001304
0.000239
0.000277
0.000262
0.000283
0.000225
0.000235
0.000244
0.000357
0.001232
0.000254
0.000242
0.000255
0.000249
0.001535
0.000399
0.000482
0.000223
0.000191
0.000056
0.000205
0.000234
0.000248
0.000237
0.000255
0.000265
0.000239
0.000457
0.000242
0.000493
0.000253
0.001487
0.000218
0.000245
0.000257
0.000264
0.000296
0.000280
0.001662
0.000244
0.000384
0.000348
0.001286
0.000414
0.000248
0.000322
0.000266
0.000278
0.000237
0.000271
0.000196
0.000056
0.000204
0.000239
0.000316
0.000242
0.000358
0.000543
0.000267
0.000288
0.001454
0.000230
0.000390
0.000265
0.000253
0.000320
0.000346
0.001326
0.000254
0.000245
0.000249
0.000257
0.001524
0.000379
0.000292
0.000268
0.000268
0.000245
0.000448
0.000331
0.000243
0.000262
0.000254
0.000055
0.000231
0.000365
0.000345
0.000282
0.000203
0.001514
0.000227
0.000249
0.000268
0.000267
0.000270
0.000235
0.000330
0.001466
0.000247
0.000230
0.000432
0.001192
0.000428
0.000366
0.000387
0.000250
0.000235
0.000254
0.000298
0.000217
0.000456
0.000231
0.000265
0.000278
0.000210
0.000056
0.000211
0.000266
0.000359
0.000321
0.001325
0.000275
0.000335
0.000225
0.000224
0.000246
0.000252
0.000444
0.001366
0.000279
0.000225
0.000233
0.001385
0.000323
0.000421
0.000444
0.000329
0.000230
0.000248
0.000256
0.000264
0.000294
0.000250
0.000266
0.000263
0.000250
0.000201
0.000056
0.000199
0.000481
0.001367
0.000214
0.000274
0.000304
0.000214
0.000248
0.000273
0.000355
0.001404
0.000220
0.000261
0.000258
0.000256
0.001317
0.000665
0.000276
0.000319
0.000411
0.000299
0.000253
0.000264
0.000262
0.000270
0.000287
0.000275
0.000288
0.000479
0.000396
0.001367
0.000057
0.000213
0.000244
0.000236
0.000233
0.000265
0.000383
0.000505
0.001275
0.000249
0.000254
0.000236
0.001502
0.000390
0.000318
0.000215
0.000418
0.000235
0.000241
0.000269
0.000290
0.000254
0.000247
0.000282
0.000254
0.000258
0.000285
0.000423
0.000495
0.001482
0.000240
0.000186
0.000056
0.000201
0.000252
0.000348
0.001541
0.000304
0.000239
0.000227
0.000256
0.000249
0.000248
0.000252
0.000324
0.000307
0.000532
0.000291
0.000245
0.000249
0.000271
0.000243
0.000309
0.000238
0.000259
0.000258
0.000263
0.000259
0.000321
0.000579
0.000299
0.000331
0.001454
0.000131
0.000055
0.000197
0.000237
0.000264
0.000483
0.000325
0.000320
0.000308
0.000330
0.000295
0.000256
0.000233
0.000265
0.000251
0.000310
0.000233
0.000306
0.000539
0.000341
0.000270
0.000381
0.000270
0.000401
0.000244
0.000247
0.000253
0.000254
0.000253
0.000296
0.000431
0.000441
0.000259
0.000056
0.000192
0.001445
0.000191
0.000337
0.000410
0.000477
0.000409
0.000241
0.000211
0.000229
0.000258
0.000248
0.000282
0.000271
0.000256
0.000240
0.000258
0.001277
0.000342
0.000253
0.000261
0.000270
0.000271
0.000279
0.000268
0.000253
0.000272
0.000250
0.000392
0.000446
0.000215
0.000055
0.000216
0.000246
0.000231
0.001539
0.000293
0.000230
0.000232
0.000250
0.000227
0.000242
0.000260
0.000285
0.000240
0.000250
0.000295
0.000226
0.000249
0.000267
0.000266
0.000245
0.001442
0.000231
0.000234
0.000282
0.000257
0.000250
0.000268
0.000262
0.000273
0.000494
0.000346
0.000055
0.000198
0.000227
0.000403
0.000280
0.000235
0.000257
0.001533
0.000408
0.000227
0.000224
0.000255
0.000326
0.000326
0.000222
0.000248
0.000230
0.000246
0.000285
0.000243
0.000257
0.000541
0.000435
0.001136
0.000275
0.000230
0.000261
0.000265
0.000263
0.000303
0.000226
0.000378
0.000056
0.000263
0.000320
0.000227
0.000237
0.000251
0.000236
0.000248
0.000233
0.000283
0.001656
0.000377
0.000237
0.000243
0.000243
0.000262
0.000238
0.000276
0.000260
0.000264
0.000313
0.000456
0.000337
0.000460
0.001361
0.000226
0.000298
0.000240
0.000261
0.000273
0.000289
0.000464
0.000056
0.000184
0.000263
0.000222
0.000237
0.000217
0.000246
0.000264
0.000300
0.000234
0.001608
0.000324
0.000256
0.000240
0.000258
0.000470
0.000253
0.000545
0.000370
0.000268
0.000269
0.000514
0.000447
0.001294
0.000254
0.000240
0.000253
0.001729
0.000447
0.000602
0.000315
0.000148
0.000055
0.000199
0.000232
0.000237
0.000237
0.000282
0.000219
0.000247
0.000493
0.000568
0.000358
0.000284
0.000217
0.000243
0.000261
0.000281
0.000272
0.000232
0.000246
0.000251
0.000285
0.000274
0.000556
0.001189
0.000226
0.000254
0.000272
0.001934
0.000346
0.000393
0.000339
0.000158
0.000056
0.000230
0.000235
0.000240
0.001676
0.000307
0.000226
0.000235
0.000261
0.000255
0.000274
0.000391
0.000355
0.000368
0.000276
0.000322
0.000509
0.000376
0.001209
0.000274
0.000234
0.000245
0.000264
0.000274
0.000406
0.000656
0.000409
0.000257
0.000270
0.000269
0.000280
0.000193
0.000055
0.000209
0.000236
0.000242
0.001584
0.000211
0.000231
0.000239
0.000257
0.000245
0.000245
0.000258
0.000287
0.000264
0.000261
0.000272
0.000369
0.000498
0.000272
0.001395
0.000229
0.000257
0.000258
0.000261
0.000270
0.000344
0.000531
0.000423
0.000260
0.000295
0.000228
0.000447
0.000056
0.000208
0.000232
0.000271
0.001541
0.000283
0.000222
0.000267
0.000240
0.000257
0.000254
0.000252
0.000281
0.000252
0.000252
0.000469
0.000542
0.001271
0.000761
0.000253
0.000338
0.000242
0.000240
0.000247
0.000273
0.001679
0.000807
0.000226
0.000264
0.000279
0.000285
0.000185
0.000055
0.000201
0.000236
0.000252
0.000241
0.000286
0.000245
0.000212
0.000257
0.000235
0.000239
0.000289
0.000293
0.000246
0.000245
0.000261
0.000247
0.000271
0.001604
0.000707
0.000370
0.000309
0.000239
0.000239
0.000315
0.000250
0.000247
0.000271
0.000258
0.001419
0.000386
0.000292
0.000056
0.000218
0.000215
0.000268
0.000233
0.000258
0.000227
0.000281
0.000230
0.000256
0.000260
0.000305
0.000391
0.000442
0.000333
0.000207
0.000249
0.000265
0.001387
0.000750
0.000416
0.000371
0.000243
0.000226
0.000252
0.000275
0.000258
0.000267
0.000250
0.001472
0.000448
0.000192
0.000056
0.000210
0.000229
0.000245
0.000247
0.000248
0.000252
0.000238
0.000247
0.000274
0.000277
0.000370
0.000414
0.000275
0.000223
0.000239
0.000250
0.000262
0.000255
0.001564
0.000633
0.000474
0.000310
0.000240
0.000246
0.000263
0.000261
0.000268
0.000294
0.000246
0.001448
0.000233
0.000056
0.000228
0.000218
0.000234
0.000258
0.000261
0.000240
0.000247
0.000304
0.000368
0.000478
0.000381
0.000344
0.000350
0.000225
0.000241
0.000251
0.000300
0.000239
0.000267
0.001916
0.000332
0.000233
0.000453
0.000233
0.000259
0.000259
0.000269
0.000261
0.000270
0.000274
0.000441
0.000056
0.000277
0.000246
0.000233
0.000261
0.000253
0.000228
0.000232
0.000234
0.000296
0.000244
0.000230
0.000234
0.000283
0.000491
0.000438
0.000433
0.000220
0.000268
0.000250
0.000249
0.000253
0.000287
0.001478
0.001043
0.000222
0.000253
0.000269
0.000271
0.000265
0.000254
0.000202
0.000055
0.000195
0.001332
0.000299
0.000213
0.000248
0.000236
0.000253
0.000235
0.000245
0.000265
0.000244
0.000263
0.000238
0.000356
0.000465
0.000427
0.000232
0.000254
0.000280
0.000253
0.000276
0.000223
0.000253
0.000270
0.001326
0.000678
0.000304
0.000404
0.000356
0.000404
0.000294
0.000056
0.000211
0.000241
0.000351
0.001328
0.000212
0.000270
0.000210
0.000263
0.000256
0.000253
0.000265
0.000233
0.000281
0.000359
0.000540
0.000300
0.000229
0.000285
0.000326
0.000228
0.000237
0.000268
0.000238
0.000268
0.000278
0.001522
0.000751
0.000319
0.000257
0.000270
0.000200
0.000056
0.000220
0.000302
0.000413
0.000410
0.001205
0.000263
0.000239
0.000219
0.000233
0.000247
0.000247
0.000259
0.000232
0.000258
0.000231
0.000260
0.000266
0.000238
0.000253
0.000253
0.000271
0.000268
0.000315
0.000325
0.000212
0.000269
0.000268
0.001453
0.000255
0.000250
0.000181
0.000055
0.000206
0.000250
0.000230
0.000263
0.000351
0.000375
0.000394
0.000278
0.001571
0.000230
0.000333
0.000478
0.000331
0.000238
0.000431
0.000235
0.000238
0.000260
0.000276
0.000271
0.000277
0.000264
0.000260
0.000273
0.000240
0.000447
0.000401
0.000292
0.001583
0.000235
0.000188
0.000056
0.000239
0.000240
0.000241
0.000252
0.000233
0.000247
0.000262
0.000319
0.000418
0.002012
0.000230
0.000256
0.000254
0.000256
0.000261
0.000260
0.000263
0.000258
0.000307
0.000397
0.000348
0.000465
0.001435
0.000244
0.000250
0.002012
0.000308
0.000220
0.000256
0.001521
0.000172
0.000072
0.000309
0.000499
0.000398
0.000234
0.000283
0.000209
0.000258
0.000296
0.000235
0.000225
0.000255
0.000354
0.000449
0.000312
0.000432
0.000212
0.000242
0.001562
0.000247
0.000649
0.001822
0.000275
0.000226
0.001561
0.002009
0.000730
0.000283
0.000249
0.000282
0.000486
0.000314
0.000055
0.000209
0.000240
0.000273
0.000217
0.001411
0.001743
0.001072
0.000210
0.000235
0.001583
0.001978
0.000216
0.000232
0.000425
0.000306
0.000401
0.000381
0.000489
0.000194
0.000233
0.000254
0.000257
0.000275
0.001584
0.001229
0.001408
0.000294
0.000273
0.000259
0.000315
0.000336
0.000056
0.000218
0.000230
0.000251
0.000238
0.000225
0.000274
0.000224
0.000259
0.000260
0.000238
0.000242
0.000331
0.000437
0.000459
0.000265
0.000260
0.000257
0.000268
0.000267
0.000281
0.000240
0.000263
0.001627
0.000353
0.002126
0.000235
0.000264
0.000441
0.000331
0.000384
0.000195
0.000056
0.000271
0.000305
0.000478
0.000296
0.000219
0.000213
0.000254
0.000239
0.000248
0.000240
0.000246
0.000262
0.000261
0.001608
0.001348
0.001240
0.000308
0.000194
0.000267
0.000255
0.000284
0.000279
0.000237
0.000257
0.002200
0.000245
0.000266
0.000293
0.000327
0.000303
0.000222
0.000055
0.000234
0.000364
0.000542
0.000336
0.000232
0.000222
0.000249
0.000276
0.001912
0.001398
0.000224
0.000320
0.000388
0.000412
0.000267
0.000238
0.000244
0.000268
0.000266
0.000258
0.000254
0.000272
0.000468
0.000236
0.000271
0.000260
0.000261
0.000271
0.000282
0.000248
0.000204
0.000055
0.000205
0.000245
0.000250
0.000239
0.000276
0.000249
0.001544
0.001411
0.001327
0.000240
0.000234
0.000239
0.000268
0.000263
0.000247
0.000270
0.000228
0.002099
0.000262
0.000226
0.000273
0.000259
0.000258
0.000271
0.000260
0.000262
0.000268
0.000250
0.000284
0.000243
0.000185
0.000056
0.000207
0.002689
0.001385
0.000223
0.000301
0.000322
0.000221
0.000283
0.000229
0.000239
0.000254
0.000243
0.000234
0.000252
0.000268
0.000253
0.000269
0.000267
0.000269
0.000256
0.000264
0.000286
0.000275
0.000254
0.000252
0.000251
0.000261
0.000268
0.000263
0.000268
0.000373
0.000056
0.001547
0.000257
0.001230
0.000242
0.000217
0.000238
0.000284
0.000252
0.000226
0.000289
0.000422
0.000307
0.000336
0.000231
0.000235
0.002167
0.000235
0.000235
0.000294
0.000486
0.000350
0.000313
0.000237
0.000272
0.000246
0.000253
0.000265
0.000276
0.000267
0.001635
0.001244
0.000057
0.000209
0.000227
0.000285
0.000416
0.000454
0.000176
0.000218
0.000229
0.000255
0.000256
0.000263
0.000244
0.000228
0.000257
0.000261
0.000251
0.000329
0.000595
0.000369
0.000236
0.000243
0.000262
0.000303
0.000233
0.000249
0.000253
0.000262
0.000273
0.000243
0.000297
0.000394
0.000056
0.001114
0.000279
0.000352
0.000489
0.000203
0.000226
0.000225
0.000245
0.000248
0.002412
0.000253
0.000388
0.000222
0.000376
0.000309
0.000254
0.000255
0.000241
0.000266
0.000237
0.000244
0.000266
0.000697
0.000384
0.001848
0.001361
0.000554
0.000463
0.000230
0.000286
0.000196
0.000055
0.000227
0.000340
0.000250
0.000240
0.000248
0.000230
0.000256
0.000249
0.000274
0.000231
0.000254
0.000222
0.000252
0.000279
0.000407
0.000485
0.001839
0.001359
0.000464
0.000374
0.000457
0.000239
0.000234
0.000266
0.002167
0.000515
0.000389
0.000231
0.000274
0.000286
0.000192
0.000055
0.000219
0.000231
0.000255
0.000258
0.000245
0.000359
0.000388
0.000259
0.000365
0.000221
0.000239
0.000251
0.000267
0.002106
0.000467
0.000292
0.000216
0.000252
0.000284
0.000242
0.000247
0.002508
0.000277
0.000229
0.000262
0.000252
0.000258
0.000272
0.000307
0.000256
0.000189
0.000055
0.000191
0.000388
0.000574
0.000310
0.000266
0.000209
0.000235
0.000253
0.000261
0.000247
0.002029
0.000315
0.000281
0.000266
0.000245
0.000271
0.000265
0.000242
0.002208
0.000449
0.000224
0.000266
0.000268
0.000256
0.000263
0.000248
0.000320
0.000219
0.000266
0.000269
0.000174
0.000055
0.000187
0.000244
0.000247
0.000229
0.000243
0.000259
0.000236
0.000242
0.000234
0.002185
0.000241
0.000266
0.000221
0.000424
0.000221
0.000258
0.000307
0.000261
0.000270
0.000232
0.001965
0.000272
0.000340
0.000365
0.000432
0.000431
0.000284
0.000255
0.000255
0.000260
0.000198
0.000055
0.000210
0.000247
0.000238
0.000248
0.000242
0.000333
0.000212
0.002309
0.000237
0.000246
0.000259
0.000253
0.000237
0.000281
0.000279
0.002125
0.000585
0.000220
0.000256
0.000244
0.000260
0.000259
0.000292
0.000278
0.000246
0.000258
0.000290
0.000252
0.000261
0.000271
0.000193
0.000056
0.001837
0.001424
0.000219
0.000227
0.000238
0.000257
0.000249
0.000312
0.000358
0.000359
0.002166
0.000265
0.000223
0.000271
0.000345
0.000421
0.000431
0.000310
0.000202
0.000253
0.000250
0.000263
0.000263
0.000230
0.000259
0.000261
0.000268
0.000271
0.000411
0.000645
0.000242
0.000056
0.000214
0.000253
0.000241
0.000252
0.000272
0.000240
0.000255
0.000243
0.001470
0.002130
0.000578
0.000273
0.000680
0.000416
0.000382
0.000213
0.000261
0.000248
0.000263
0.000261
0.000255
0.000243
0.000249
0.000272
0.003006
0.000336
0.000236
0.000269
0.000282
0.000247
0.000432
0.000056
0.001935
0.000227
0.000238
0.000230
0.000306
0.000340
0.000445
0.000314
0.000299
0.000206
0.000247
0.000248
0.000261
0.000252
0.000280
0.000240
0.000260
0.000281
0.001826
0.000243
0.000228
0.000257
0.000274
0.000277
0.000271
0.000249
0.001471
0.000334
0.000280
0.000233
0.000178
0.000055
0.000214
0.000229
0.000254
0.000251
0.000231
0.000239
0.000309
0.000362
0.000384
0.000322
0.000235
0.000253
0.000247
0.000332
0.000414
0.000316
0.000230
0.000250
0.000268
0.000346
0.000540
0.000405
0.000221
0.000265
0.000256
0.000253
0.000250
0.000276
0.000276
0.000262
0.000207
0.000056
0.001435
0.000462
0.000210
0.001949
0.000295
0.000442
0.000382
0.000311
0.000238
0.000242
0.000255
0.000243
0.000245
0.000251
0.000264
0.000257
0.000457
0.000303
0.000370
0.000502
0.000242
0.000228
0.000257
0.000267
0.000272
0.000272
0.000258
0.000268
0.000388
0.000397
0.001405
0.000056
0.000209
0.000219
0.002084
0.000306
0.000324
0.000234
0.000257
0.000247
0.000265
0.000260
0.000211
0.000258
0.000259
0.000261
0.000266
0.000342
0.000724
0.001754
0.000226
0.000251
0.000255
0.000266
0.000417
0.000465
0.001506
0.000294
0.000366
0.001931
0.000245
0.000260
0.000197
0.000057
0.000220
0.000228
0.000237
0.000244
0.000227
0.000246
0.000255
0.000282
0.000330
0.000267
0.000373
0.000365
0.000344
0.000293
0.000246
0.000268
0.000264
0.000239
0.000267
0.000249
0.000312
0.000279
0.000267
0.000263
0.000266
0.001502
0.000302
0.000380
0.002082
0.000225
0.000183
0.000056
0.000226
0.000230
0.000239
0.000249
0.000487
0.000207
0.000255
0.000339
0.000396
0.000290
0.000287
0.000216
0.000261
0.000263
0.000269
0.000328
0.000459
0.000394
0.000263
0.000418
0.000500
0.000530
0.001505
0.000228
0.000250
0.002001
0.000346
0.000219
0.000244
0.000294
0.000190
0.000056
0.000209
0.000238
0.000226
0.000245
0.000250
0.000270
0.000251
0.000277
0.000245
0.000271
0.001811
0.000304
0.000380
0.000285
0.000462
0.000389
0.000336
0.001495
0.000254
0.000267
0.002249
0.000424
0.000280
0.000233
0.000259
0.000267
0.000503
0.000220
0.000259
0.000278
0.000198
0.000055
0.000302
0.000343
0.000365
0.000300
0.000210
0.000242
0.000260
0.000268
0.000250
0.000283
0.000235
0.000250
0.000256
0.000259
0.000381
0.000458
0.001291
0.000264
0.000285
0.001997
0.000277
0.000289
0.000234
0.000259
0.000248
0.000286
0.000268
0.000258
0.000253
0.000267
0.000201
0.000056
0.000284
0.000350
0.002036
0.000253
0.000228
0.000250
0.000248
0.000354
0.000430
0.000391
0.001293
0.000379
0.000359
0.002080
0.000248
0.000205
0.000268
0.000278
0.000250
0.000236
0.000292
0.000294
0.000252
0.000367
0.000515
0.000336
0.000292
0.002244
0.000507
0.000472
0.000396
0.000054
0.000221
0.000247
0.000221
0.001969
0.000234
0.000219
0.000246
0.000245
0.000242
0.000259
0.000243
0.000263
0.000291
0.000213
0.000445
0.001485
0.000254
0.000258
0.000253
0.000261
0.000232
0.000259
0.000258
0.000289
0.000380
0.000364
0.000488
0.000233
0.001602
0.000291
0.000146
0.000055
0.000199
0.000224
0.000246
0.000239
0.000259
0.000265
0.000243
0.000230
0.000260
0.000427
0.000383
0.001336
0.000240
0.000228
0.000249
0.000287
0.000228
0.000257
0.000365
0.000457
0.000365
0.000441
0.000229
0.001566
0.000242
0.000266
0.000280
0.000278
0.000264
0.000267
0.000196
0.000055
0.000207
0.000236
0.000286
0.000246
0.000245
0.000246
0.000237
0.000245
0.000278
0.000226
0.000245
0.000257
0.000263
0.001475
0.000364
0.000211
0.000248
0.000266
0.000277
0.000318
0.000361
0.000279
0.000234
0.000273
0.000258
0.000264
0.000262
0.001398
0.000289
0.000236
0.000175
0.000056
0.000205
0.000235
0.000260
0.000260
0.000271
0.000219
0.000245
0.000260
0.000222
0.000266
0.000239
0.000259
0.000229
0.000343
0.000360
0.000327
0.000273
0.000238
0.001625
0.000256
0.000236
0.000257
0.000279
0.000276
0.000403
0.000390
0.000411
0.000272
0.000249
0.001611
0.000161
0.000057
0.000309
0.000363
0.000323
0.000314
0.000239
0.000219
0.000239
0.000273
0.000257
0.000255
0.000226
0.000241
0.001465
0.000283
0.000314
0.000219
0.000248
0.000278
0.000261
0.000259
0.000253
0.000232
0.000259
0.000275
0.000278
0.000387
0.000469
0.000294
0.000295
0.000243
0.000194
0.000055
0.000223
0.000247
0.000417
0.000357
0.000387
0.000262
0.000247
0.000251
0.000250
0.000257
0.000248
0.000222
0.000256
0.000241
0.001302
0.000253
0.000247
0.000246
0.000268
0.000259
0.000256
0.000256
0.000250
0.000264
0.000252
0.000258
0.000373
0.000604
0.000476
0.000234
0.000182
0.000056
0.000205
0.001563
0.000257
0.000375
0.000387
0.000394
0.000215
0.000253
0.000272
0.000245
0.000244
0.000255
0.000269
0.000276
0.000255
0.001534
0.000250
0.000285
0.000262
0.000257
0.000277
0.000236
0.000265
0.000263
0.000270
0.000356
0.000392
0.000329
0.000351
0.000232
0.000189
0.000056
0.000205
0.000250
0.000233
0.001642
0.000400
0.000343
0.000221
0.000238
0.000259
0.000267
0.000282
0.000252
0.000253
0.000260
0.000230
0.000268
0.000434
0.001290
0.000246
0.000232
0.001507
0.000333
0.000560
0.000399
0.000335
0.000214
0.000270
0.000469
0.000238
0.000266
0.000180
0.000055
0.000298
0.000219
0.000243
0.000248
0.000246
0.000276
0.000222
0.000255
0.000252
0.000253
0.000245
0.000256
0.000395
0.000451
0.001627
0.001498
0.000351
0.000529
0.000349
0.000225
0.000230
0.000259
0.000254
0.000265
0.000247
0.000268
0.000261
0.000263
0.001527
0.000345
0.000178
0.000056
0.000218
0.000351
0.000355
0.000333
0.000240
0.000228
0.000247
0.000399
0.000430
0.000340
0.002152
0.000316
0.000741
0.000509
0.000419
0.000274
0.000314
0.000394
0.000327
0.000280
0.000406
0.000263
0.001528
0.000535
0.000213
0.000265
0.000258
0.000254
0.000263
0.000266
0.000201
0.000055
0.000231
0.000250
0.000249
0.000260
0.000241
0.001662
0.000876
0.001000
0.000206
0.000239
0.000270
0.000240
0.000265
0.000261
0.000250
0.000246
0.000255
0.000267
0.000263
0.000278
0.001436
0.000312
0.000253
0.000237
0.000231
0.000257
0.000262
0.000278
0.000266
0.000285
0.001896
0.000072
0.000176
0.000234
0.001541
0.000968
0.000280
0.000346
0.000257
0.000233
0.000236
0.000257
0.000255
0.000242
0.000244
0.001978
0.000488
0.000216
0.000247
0.000254
0.000264
0.000258
0.000191
