0.000452
0.018816
0.002531
0.000290
0.000268
0.000287
0.000304
0.000248
0.000334
0.000281
0.000272
0.000335
0.000646
0.000334
0.000348
0.000406
0.000265
0.000348
0.000345
0.000409
0.000317
0.001927
0.000693
0.000251
0.000255
0.000308
0.000304
0.000329
0.000485
0.000305
0.000503
0.000308
0.000056
0.000214
0.000267
0.000269
0.000264
0.000303
0.000217
0.000280
0.000280
0.000249
0.000307
0.000411
0.000441
0.000318
0.000258
0.000412
0.000297
0.000366
0.000249
0.000253
0.001777
0.000236
0.000259
0.000445
0.000254
0.000276
0.000274
0.000290
0.000297
0.000296
0.000328
0.000360
0.000056
0.000198
0.000250
0.000262
0.000262
0.000252
0.000244
0.000260
0.000255
0.000289
0.001670
0.000234
0.000223
0.000273
0.000267
0.000281
0.000250
0.000263
0.000257
0.000356
0.001819
0.000210
0.000282
0.000440
0.000494
0.000332
0.000239
0.000267
0.000443
0.000548
0.000740
0.000177
0.000056
0.000231
0.000246
0.000255
0.000240
0.000294
0.000253
0.000308
0.000544
0.000394
0.000259
0.000254
0.000248
0.000239
0.000252
0.000259
0.000258
0.000248
0.000262
0.000295
0.000339
0.001667
0.000269
0.000256
0.000415
0.000276
0.000766
0.000608
0.000534
0.000349
0.000243
0.000192
0.000055
0.000213
0.000252
0.000264
0.000237
0.000257
0.000255
0.000267
0.000544
0.001379
0.000239
0.000236
0.000240
0.000252
0.000257
0.000265
0.000289
0.000333
0.000746
0.001392
0.000272
0.000457
0.000262
0.000226
0.000222
0.000261
0.000255
0.000264
0.000288
0.000244
0.000269
0.000192
0.000055
0.000211
0.000249
0.000248
0.000265
0.000233
0.000252
0.000244
0.000245
0.000240
0.000249
0.001627
0.000268
0.000245
0.000235
0.000254
0.000248
0.000255
0.000241
0.000254
0.000258
0.000266
0.001661
0.000288
0.000256
0.000436
0.000256
0.000256
0.000258
0.000260
0.000276
0.000187
0.000057
0.000187
0.000226
0.000253
0.000249
0.000241
0.000248
0.000255
0.000240
0.000258
0.000247
0.000262
0.000261
0.000261
0.000266
0.001637
0.000275
0.000299
0.000212
0.000254
0.000274
0.000267
0.000241
0.000244
0.000269
0.001789
0.000413
0.000321
0.000340
0.000260
0.000278
0.000199
0.000056
0.000205
0.000239
0.000250
0.000264
0.000259
0.000240
0.000323
0.000364
0.000413
0.000431
0.000206
0.000246
0.000261
0.000246
0.001562
0.000534
0.000365
0.000436
0.000259
0.000213
0.000264
0.000286
0.000277
0.001758
0.000456
0.000491
0.000254
0.000243
0.000246
0.000262
0.000183
0.000056
0.000220
0.000228
0.000256
0.000260
0.000321
0.000447
0.000382
0.000274
0.000223
0.000250
0.000264
0.000238
0.000254
0.001730
0.000466
0.000283
0.000233
0.000249
0.000274
0.000282
0.000246
0.000260
0.000274
0.001876
0.000320
0.000393
0.000257
0.000237
0.000268
0.000417
0.000329
0.000056
0.000209
0.000386
0.000364
0.000276
0.000258
0.000247
0.000250
0.000259
0.000237
0.000237
0.000232
0.000249
0.001556
0.000340
0.000322
0.000233
0.000254
0.000249
0.000247
0.000279
0.000362
0.000249
0.000241
0.001816
0.000248
0.000501
0.000241
0.000257
0.000257
0.000267
0.000253
0.000057
0.000364
0.000525
0.000586
0.000218
0.000232
0.000275
0.000226
0.000228
0.000255
0.000256
0.000250
0.001703
0.000251
0.000496
0.000316
0.000211
0.000246
0.000223
0.000253
0.000264
0.000250
0.001862
0.000234
0.000238
0.002078
0.000556
0.000325
0.000248
0.000252
0.000273
0.000180
0.000056
0.000216
0.000243
0.000244
0.000238
0.000262
0.001620
0.000251
0.000233
0.000249
0.000258
0.000242
0.000259
0.000234
0.000256
0.000269
0.000451
0.000585
0.000265
0.000234
0.000269
0.000279
0.000228
0.000243
0.000441
0.000432
0.000278
0.000342
0.000590
0.000387
0.000274
0.000212
0.000055
0.000201
0.000231
0.000252
0.000253
0.000239
0.000236
0.000241
0.000475
0.000337
0.001758
0.000200
0.000234
0.000242
0.000251
0.000267
0.000304
0.000406
0.000481
0.000347
0.000230
0.000254
0.000326
0.000262
0.000256
0.000261
0.000444
0.000347
0.000665
0.000344
0.000506
0.000166
0.000057
0.000201
0.000258
0.000236
0.000225
0.000242
0.000245
0.000249
0.000244
0.000241
0.000292
0.000338
0.000420
0.001414
0.000235
0.000242
0.000246
0.000256
0.000249
0.000268
0.000233
0.000314
0.000506
0.000341
0.000256
0.000259
0.000255
0.000260
0.000271
0.000268
0.000264
0.000383
0.000056
0.000191
0.000239
0.000233
0.000349
0.000470
0.000431
0.000214
0.000263
0.000236
0.000259
0.000247
0.000237
0.000298
0.000250
0.000238
0.000486
0.000501
0.001560
0.000273
0.000242
0.000263
0.000249
0.000260
0.000238
0.000265
0.000499
0.000408
0.000341
0.000435
0.000243
0.000185
0.000056
0.000226
0.000432
0.000242
0.000206
0.000266
0.000244
0.000315
0.000548
0.000317
0.000334
0.000224
0.000270
0.000261
0.000247
0.000514
0.000346
0.000220
0.000318
0.000449
0.001533
0.000271
0.000244
0.000513
0.000240
0.000278
0.000281
0.000257
0.000489
0.000398
0.000383
0.000275
0.000056
0.000216
0.000239
0.000240
0.000240
0.000413
0.000304
0.000294
0.000222
0.000438
0.000528
0.000299
0.000246
0.000234
0.000241
0.000262
0.000262
0.000253
0.000252
0.000236
0.000342
0.000294
0.000322
0.001857
0.000240
0.000258
0.000259
0.000285
0.000355
0.000488
0.000647
0.000401
0.000056
0.000245
0.000328
0.000282
0.000429
0.000386
0.000216
0.000247
0.000380
0.000419
0.000431
0.000250
0.000238
0.000237
0.000273
0.000262
0.000231
0.000260
0.000269
0.000268
0.000269
0.000252
0.000512
0.000564
0.001329
0.000334
0.000463
0.000389
0.000255
0.000474
0.000370
0.000343
0.000056
0.000247
0.000384
0.000270
0.000203
0.000225
0.000252
0.000407
0.000243
0.000234
0.000568
0.000200
0.000497
0.000208
0.000257
0.000266
0.000243
0.000378
0.000380
0.000345
0.000245
0.000242
0.000435
0.000602
0.001658
0.000231
0.000445
0.000298
0.000221
0.000292
0.000492
0.000270
0.000055
0.000197
0.000223
0.000253
0.000235
0.000243
0.000250
0.000251
0.000326
0.000454
0.000376
0.000361
0.000382
0.000270
0.000578
0.000239
0.000241
0.000271
0.000264
0.000236
0.000344
0.000234
0.000241
0.000271
0.000671
0.000199
0.001684
0.000272
0.000228
0.000251
0.000272
0.000191
0.000055
0.000304
0.000481
0.000330
0.000219
0.000251
0.000245
0.000253
0.000243
0.000261
0.000246
0.000223
0.000244
0.000430
0.000507
0.000446
0.000236
0.000250
0.000252
0.000354
0.000382
0.000385
0.000328
0.000425
0.000362
0.000220
0.000244
0.000270
0.000274
0.001779
0.000254
0.000213
0.000056
0.000207
0.000221
0.000260
0.000269
0.000368
0.000541
0.000310
0.000208
0.000261
0.000263
0.000249
0.000249
0.000517
0.000456
0.000477
0.000287
0.000261
0.000273
0.000423
0.000461
0.000402
0.000343
0.000482
0.000464
0.000228
0.000257
0.000266
0.000243
0.000265
0.001714
0.000322
0.000056
0.000255
0.000326
0.000206
0.000243
0.000253
0.000248
0.000244
0.000504
0.000371
0.000307
0.000287
0.000260
0.000372
0.000650
0.000334
0.000224
0.000256
0.000256
0.000250
0.000262
0.000268
0.000275
0.000243
0.000265
0.000322
0.000403
0.000343
0.000373
0.000238
0.000249
0.000183
0.000056
0.000454
0.000294
0.000466
0.000257
0.000200
0.000244
0.000249
0.000256
0.000243
0.000222
0.000234
0.000279
0.000292
0.000384
0.000483
0.000494
0.000323
0.000322
0.000378
0.000333
0.000291
0.000242
0.000244
0.000258
0.001753
0.000251
0.001731
0.000931
0.000450
0.000277
0.000153
0.000056
0.000200
0.000235
0.000239
0.000239
0.000265
0.000246
0.000251
0.000257
0.000235
0.000364
0.000305
0.000447
0.000338
0.000373
0.000276
0.000237
0.000249
0.000291
0.000229
0.000264
0.000246
0.000252
0.001808
0.000238
0.000261
0.000265
0.000276
0.000264
0.001883
0.000482
0.000296
0.000056
0.000199
0.000211
0.000236
0.000238
0.000256
0.000269
0.000216
0.000258
0.000262
0.000443
0.000494
0.000480
0.000245
0.000205
0.000234
0.000249
0.000334
0.000450
0.000361
0.000255
0.001772
0.000249
0.000255
0.000245
0.000263
0.000271
0.000237
0.000260
0.000332
0.000276
0.000421
0.000056
0.000256
0.000216
0.000244
0.000256
0.000245
0.000245
0.000254
0.000258
0.000241
0.000273
0.000220
0.000298
0.000336
0.000450
0.000298
0.000277
0.000469
0.000241
0.000246
0.000260
0.000257
0.000261
0.000272
0.000258
0.000275
0.001797
0.000232
0.000250
0.000270
0.000237
0.000203
0.000056
0.000253
0.000390
0.000217
0.000230
0.000248
0.000220
0.000239
0.000255
0.000250
0.000226
0.000248
0.000245
0.000263
0.000479
0.000278
0.000370
0.000279
0.000243
0.000259
0.000246
0.000260
0.000262
0.000245
0.000271
0.000271
0.000249
0.000392
0.001548
0.000269
0.000242
0.000182
0.000056
0.000211
0.000236
0.000243
0.000264
0.000445
0.000276
0.000405
0.000294
0.000225
0.000253
0.000249
0.000245
0.000249
0.000252
0.000264
0.000260
0.000241
0.000259
0.000254
0.000257
0.000271
0.000269
0.000244
0.000236
0.000243
0.000278
0.000276
0.000258
0.000258
0.000263
0.000188
0.000056
0.000217
0.000237
0.000258
0.000255
0.000232
0.000259
0.000239
0.000261
0.000278
0.000237
0.000236
0.000249
0.000252
0.000252
0.000270
0.000262
0.000273
0.000231
0.000297
0.000255
0.000270
0.000293
0.000272
0.000247
0.000284
0.000270
0.000272
0.000246
0.000267
0.000423
0.000663
0.000056
0.000230
0.000286
0.000211
0.000238
0.000235
0.000255
0.000241
0.000246
0.000252
0.000243
0.000263
0.000299
0.000489
0.000605
0.001401
0.000235
0.000486
0.000238
0.000254
0.000436
0.000480
0.000357
0.000224
0.000272
0.000264
0.000256
0.000279
0.000255
0.000311
0.000256
0.000188
0.000055
0.000221
0.000562
0.000318
0.000312
0.000229
0.000250
0.000246
0.000247
0.000233
0.000250
0.000256
0.000257
0.000231
0.000306
0.000307
0.000527
0.000383
0.001790
0.000231
0.000256
0.000468
0.000294
0.000423
0.000309
0.000328
0.000313
0.000308
0.000232
0.000230
0.000250
0.000195
0.000055
0.000222
0.000228
0.000234
0.000286
0.000361
0.000436
0.000355
0.000256
0.000255
0.000211
0.000247
0.000271
0.000267
0.000261
0.000247
0.000256
0.000263
0.000618
0.000316
0.000381
0.000224
0.001741
0.000339
0.000491
0.000646
0.000331
0.000323
0.000219
0.000257
0.000275
0.000443
0.000056
0.000198
0.000253
0.000236
0.000293
0.000375
0.000481
0.000408
0.000219
0.000228
0.000279
0.000252
0.000267
0.000251
0.000291
0.000311
0.000230
0.000244
0.000393
0.000403
0.000407
0.000483
0.001844
0.000247
0.000434
0.000526
0.000355
0.000223
0.000255
0.000293
0.000266
0.000198
0.000056
0.000220
0.000340
0.000359
0.000355
0.000353
0.000300
0.000368
0.000221
0.000235
0.000263
0.000278
0.000225
0.000252
0.000251
0.000238
0.000271
0.000309
0.000357
0.000526
0.000393
0.000294
0.000231
0.000248
0.001707
0.000595
0.000342
0.000687
0.000242
0.000259
0.000306
0.000154
0.000055
0.000192
0.000276
0.000288
0.000251
0.000243
0.000395
0.000432
0.000296
0.000230
0.000531
0.000239
0.000244
0.000262
0.000272
0.000278
0.000264
0.000209
0.000365
0.000530
0.000358
0.000275
0.000223
0.000281
0.000234
0.000260
0.000264
0.000243
0.000252
0.000270
0.000284
0.000195
0.000056
0.000305
0.000317
0.000235
0.000252
0.000249
0.000261
0.000243
0.000284
0.000245
0.000241
0.000258
0.000353
0.000443
0.000379
0.000368
0.000251
0.000220
0.000243
0.000258
0.000266
0.000291
0.000255
0.000238
0.000255
0.000283
0.000297
0.000406
0.000444
0.000307
0.000241
0.000174
0.000056
0.000209
0.000230
0.000275
0.000242
0.000239
0.000252
0.000253
0.000260
0.000492
0.000212
0.000258
0.000257
0.000242
0.000271
0.000272
0.000267
0.000264
0.000362
0.000221
0.000233
0.000254
0.000261
0.000266
0.000269
0.000270
0.000292
0.000243
0.000248
0.000519
0.000239
0.000151
0.000056
0.000207
0.000239
0.000260
0.000256
0.000223
0.000246
0.000361
0.000410
0.000238
0.000238
0.000250
0.000252
0.000240
0.000247
0.000433
0.001807
0.000235
0.000257
0.000287
0.000393
0.000365
0.000354
0.000359
0.000464
0.000317
0.000413
0.000238
0.000268
0.000272
0.000272
0.001387
0.000055
0.000358
0.000289
0.000281
0.000219
0.000234
0.000250
0.000235
0.000257
0.000240
0.000270
0.000247
0.000256
0.000274
0.000302
0.000456
0.001691
0.000249
0.000218
0.000238
0.000272
0.000235
0.000302
0.000315
0.000443
0.000238
0.000363
0.000226
0.000265
0.000277
0.000261
0.000192
0.000056
0.001205
0.000580
0.000303
0.000250
0.000249
0.000214
0.000233
0.000246
0.000476
0.000228
0.000235
0.000252
0.000430
0.000478
0.000350
0.000352
0.000244
0.000242
0.000335
0.000345
0.000277
0.000258
0.000266
0.000243
0.000269
0.000590
0.000605
0.000205
0.000253
0.000264
0.000168
0.000055
0.000219
0.000215
0.000243
0.000245
0.001483
0.000283
0.000222
0.000254
0.000233
0.000254
0.000253
0.000259
0.000237
0.000264
0.000265
0.000426
0.000323
0.000620
0.000280
0.001748
0.000262
0.000272
0.000300
0.000458
0.000633
0.000290
0.000243
0.000250
0.000263
0.000261
0.000200
0.000057
0.000216
0.000251
0.000235
0.000324
0.001249
0.000250
0.000240
0.000259
0.000241
0.000234
0.000243
0.000241
0.000284
0.000242
0.000259
0.000312
0.000445
0.000409
0.000327
0.000268
0.000254
0.000276
0.000251
0.000231
0.000292
0.000264
0.000240
0.000275
0.000280
0.000353
0.000647
0.000056
0.000223
0.000241
0.000244
0.000257
0.000260
0.000241
0.000239
0.000262
0.000269
0.000253
0.001437
0.000224
0.000245
0.000243
0.000244
0.000245
0.000268
0.000261
0.000268
0.000264
0.000274
0.000476
0.000466
0.000408
0.000209
0.000273
0.001767
0.000253
0.000254
0.000331
0.000443
0.000057
0.000186
0.000418
0.000429
0.000501
0.000519
0.000531
0.001509
0.000413
0.000514
0.000654
0.000549
0.000814
0.000389
0.000621
0.000575
0.001912
0.000358
0.000452
0.000419
0.000312
0.000221
0.000302
0.000254
0.000265
0.000278
0.000269
0.000291
0.000286
0.000269
0.000284
0.001373
0.000056
0.000205
0.000223
0.000250
0.000237
0.000258
0.000257
0.000240
0.000260
0.000224
0.000259
0.000235
0.000243
0.000250
0.000290
0.000234
0.000272
0.001812
0.000273
0.000252
0.000234
0.000258
0.000274
0.000264
0.000260
0.000398
0.000442
0.000352
0.000229
0.000268
0.000293
0.000200
0.000056
0.000190
0.001363
0.000324
0.000269
0.000257
0.000243
0.000244
0.000232
0.000236
0.000235
0.000226
0.000245
0.000252
0.000493
0.000372
0.000279
0.000261
0.000255
0.001942
0.000225
0.000237
0.000262
0.000270
0.000260
0.000272
0.000279
0.000272
0.000252
0.000267
0.000320
0.000198
0.000056
0.000219
0.000245
0.000251
0.001438
0.000215
0.000251
0.000261
0.000243
0.000232
0.000268
0.000250
0.000251
0.000245
0.000256
0.000257
0.000258
0.000260
0.000266
0.000295
0.000233
0.000256
0.001772
0.000281
0.001762
0.000261
0.000240
0.000268
0.000269
0.000269
0.000275
0.000202
0.000056
0.000200
0.000240
0.001343
0.000224
0.000253
0.000254
0.000258
0.000253
0.000243
0.000250
0.000245
0.000250
0.000263
0.000256
0.000260
0.000266
0.000278
0.000284
0.000290
0.000220
0.001881
0.000227
0.001837
0.000241
0.000254
0.000282
0.000228
0.000250
0.000254
0.000267
0.000187
0.000056
0.001428
0.000228
0.000222
0.000241
0.000242
0.000246
0.000364
0.000272
0.000250
0.000255
0.000253
0.000255
0.000266
0.000337
0.000443
0.000241
0.000245
0.000272
0.000265
0.000246
0.000271
0.000341
0.000225
0.000253
0.000269
0.000276
0.000275
0.000415
0.000562
0.000368
0.000195
0.000056
0.000210
0.000259
0.000241
0.000306
0.000370
0.000253
0.001736
0.000265
0.000280
0.000264
0.000256
0.000269
0.000291
0.000248
0.000289
0.000305
0.000531
0.000399
0.000367
0.000263
0.000293
0.000287
0.000266
0.000258
0.000333
0.000285
0.000232
0.000258
0.000259
0.000282
0.000456
0.000057
0.000230
0.000469
0.000277
0.000262
0.000246
0.000229
0.000233
0.000240
0.000255
0.000265
0.001507
0.000228
0.000223
0.000246
0.000249
0.000287
0.000273
0.000239
0.000267
0.000267
0.000270
0.000376
0.000523
0.000328
0.000265
0.000287
0.000267
0.000254
0.000237
0.000308
0.000164
0.000056
0.000203
0.000244
0.000249
0.000485
0.000382
0.000271
0.000211
0.000251
0.000253
0.000247
0.000240
0.000253
0.000254
0.000263
0.000246
0.000261
0.000356
0.001224
0.000252
0.000242
0.000279
0.000245
0.000358
0.000421
0.000257
0.000317
0.000574
0.000383
0.000342
0.000241
0.000177
0.000056
0.000241
0.000242
0.000261
0.000266
0.000251
0.000246
0.000344
0.000435
0.000413
0.000279
0.000367
0.000388
0.000389
0.000360
0.000251
0.000255
0.000233
0.000259
0.000384
0.001459
0.000284
0.000224
0.000276
0.000271
0.000228
0.000242
0.000264
0.000322
0.000435
0.000409
0.000261
0.000055
0.000205
0.000259
0.000230
0.000240
0.000246
0.000250
0.000235
0.000263
0.000308
0.000433
0.000276
0.000440
0.000253
0.000225
0.000258
0.000269
0.000236
0.000260
0.000266
0.000244
0.000450
0.000276
0.000381
0.000363
0.000337
0.000256
0.000269
0.000272
0.000249
0.000341
0.000155
0.000055
0.000305
0.000324
0.000283
0.000401
0.000522
0.000265
0.000259
0.000250
0.000241
0.000271
0.000258
0.000260
0.000238
0.000246
0.000247
0.000229
0.000267
0.000356
0.000521
0.000334
0.000232
0.000258
0.000252
0.000248
0.000281
0.000263
0.000265
0.000265
0.000281
0.000257
0.000363
0.000056
0.000266
0.000347
0.000239
0.000242
0.000247
0.000245
0.000265
0.000231
0.000266
0.000257
0.000253
0.000234
0.000389
0.000403
0.000444
0.000266
0.000252
0.000238
0.000263
0.000264
0.000276
0.000244
0.000257
0.000266
0.000272
0.000307
0.000409
0.000628
0.000411
0.000221
0.000167
0.000056
0.000395
0.000207
0.000230
0.000247
0.000251
0.000247
0.000238
0.000250
0.000258
0.000263
0.000218
0.000246
0.000273
0.000225
0.000244
0.000266
0.000249
0.000264
0.000290
0.000240
0.000262
0.000264
0.000264
0.000261
0.000266
0.000239
0.000266
0.000281
0.000254
0.000278
0.000200
0.000056
0.000233
0.000205
0.000249
0.000255
0.000229
0.000260
0.000256
0.000241
0.000259
0.000274
0.000226
0.000236
0.000262
0.000400
0.000252
0.000278
0.000263
0.000264
0.000253
0.000278
0.000276
0.000238
0.000242
0.000251
0.000272
0.000275
0.000247
0.000257
0.000274
0.000261
0.000199
0.000056
0.000208
0.000356
0.000367
0.000282
0.000293
0.000258
0.000269
0.000259
0.000221
0.000243
0.000253
0.000261
0.000251
0.000242
0.000259
0.000253
0.000263
0.000268
0.000245
0.000263
0.000278
0.000260
0.000282
0.000257
0.000266
0.000251
0.000265
0.000268
0.000265
0.000261
0.000193
0.000055
0.000216
0.000232
0.000262
0.000261
0.000486
0.000214
0.000209
0.000249
0.000297
0.000431
0.000509
0.000257
0.000229
0.000255
0.000271
0.000267
0.000234
0.000266
0.000260
0.000264
0.000274
0.000259
0.000258
0.000267
0.000508
0.000569
0.000233
0.000302
0.000261
0.000257
0.000191
0.000056
0.000207
0.000214
0.000250
0.000249
0.000329
0.000733
0.000228
0.000376
0.000214
0.000244
0.000250
0.000258
0.000249
0.000261
0.000245
0.000273
0.000256
0.000267
0.000610
0.000472
0.000221
0.000235
0.000266
0.000286
0.000281
0.000252
0.000267
0.000270
0.000262
0.000326
0.000328
0.000056
0.000299
0.000222
0.000246
0.000235
0.000254
0.000256
0.000226
0.000248
0.000248
0.000256
0.000246
0.000248
0.000251
0.000484
0.000494
0.000402
0.000213
0.000255
0.000265
0.000247
0.000264
0.000272
0.000488
0.000226
0.000257
0.000637
0.000438
0.000428
0.000248
0.000252
0.000179
0.000056
0.000217
0.000239
0.000246
0.000234
0.000257
0.000253
0.000278
0.000447
0.000631
0.000396
0.000217
0.000265
0.000278
0.000270
0.000258
0.000245
0.000239
0.000251
0.000265
0.000393
0.000345
0.000630
0.000359
0.000265
0.000366
0.000373
0.000491
0.000238
0.000264
0.000387
0.000430
0.000056
0.000273
0.000232
0.000434
0.000231
0.000223
0.000254
0.000265
0.000257
0.000232
0.000241
0.000295
0.000414
0.000353
0.000310
0.000252
0.000247
0.000246
0.000251
0.000262
0.000285
0.000268
0.000253
0.000251
0.000272
0.000308
0.000483
0.000495
0.000247
0.000242
0.000276
0.000188
0.000056
0.000206
0.000249
0.000230
0.000240
0.000248
0.000245
0.000492
0.000354
0.000370
0.000295
0.000354
0.000227
0.000247
0.000265
0.000259
0.000232
0.000260
0.000262
0.000268
0.000440
0.000495
0.000292
0.000480
0.000278
0.000426
0.000390
0.000376
0.000240
0.000252
0.000335
0.000310
0.000056
0.000234
0.000285
0.000236
0.000240
0.000257
0.000257
0.000252
0.000246
0.000286
0.000232
0.000231
0.000290
0.000508
0.000405
0.000357
0.000222
0.000276
0.000251
0.000272
0.000231
0.000252
0.000249
0.000267
0.000275
0.000274
0.000380
0.000440
0.000475
0.000247
0.000293
0.000172
0.000055
0.000209
0.000241
0.000260
0.000261
0.000244
0.000333
0.000497
0.000501
0.000333
0.000688
0.000262
0.000214
0.000245
0.000260
0.000247
0.000269
0.000276
0.000271
0.000482
0.000523
0.001402
0.000303
0.000260
0.000259
0.000298
0.000262
0.000388
0.000415
0.000374
0.000319
0.000161
0.000055
0.000202
0.000233
0.000244
0.000242
0.000243
0.000257
0.000276
0.000246
0.000253
0.000337
0.000320
0.000386
0.000271
0.000363
0.000363
0.000341
0.000240
0.000249
0.000271
0.000262
0.000242
0.000249
0.000284
0.000244
0.000321
0.000435
0.000428
0.000335
0.000215
0.000269
0.000191
0.000055
0.000212
0.000245
0.000254
0.000256
0.000237
0.000242
0.000470
0.000214
0.000234
0.000251
0.000251
0.000251
0.000257
0.000253
0.000252
0.000266
0.000262
0.000265
0.000272
0.000254
0.000264
0.000281
0.000296
0.000246
0.000263
0.000279
0.000274
0.000263
0.000257
0.000283
0.000159
0.000056
0.000215
0.000249
0.000278
0.000438
0.000377
0.000254
0.000229
0.000245
0.000282
0.000230
0.000247
0.000257
0.000266
0.000258
0.000239
0.000246
0.000242
0.000264
0.000326
0.000341
0.000424
0.000383
0.000241
0.000242
0.000269
0.000249
0.000268
0.000250
0.000274
0.000279
0.000197
0.000056
0.000347
0.000446
0.000367
0.000212
0.000270
0.000235
0.000414
0.000211
0.000243
0.000251
0.000253
0.000338
0.000311
0.000428
0.001879
0.000249
0.000240
0.000250
0.000280
0.000239
0.000391
0.000444
0.000548
0.000305
0.000238
0.000269
0.000264
0.000433
0.000274
0.000282
0.000166
0.000055
0.000242
0.000416
0.000270
0.000335
0.000489
0.000212
0.000248
0.000237
0.000255
0.000241
0.000259
0.000241
0.000265
0.000372
0.000379
0.000461
0.000209
0.000251
0.000262
0.000256
0.000282
0.000295
0.000232
0.000285
0.000280
0.000437
0.000505
0.000514
0.000360
0.000225
0.000202
0.000055
0.000213
0.000234
0.000258
0.000229
0.000252
0.000254
0.000266
0.000270
0.000347
0.000352
0.000452
0.000350
0.000220
0.000250
0.000270
0.000273
0.000304
0.000247
0.000272
0.000273
0.000239
0.000298
0.000514
0.000339
0.000278
0.000259
0.000258
0.000439
0.000417
0.000316
0.000168
0.000056
0.000196
0.000236
0.000335
0.000492
0.000306
0.000204
0.000244
0.000253
0.000263
0.000247
0.000265
0.000261
0.000227
0.000255
0.000259
0.000318
0.000368
0.000360
0.000346
0.000295
0.000486
0.000229
0.000280
0.000281
0.000306
0.000279
0.000257
0.000261
0.000461
0.000542
0.000187
0.000055
0.000216
0.000235
0.000250
0.000247
0.000243
0.000481
0.000206
0.000260
0.000265
0.000432
0.000362
0.000615
0.000211
0.000244
0.000243
0.000249
0.000256
0.000257
0.000251
0.000252
0.000260
0.000268
0.000304
0.000497
0.000337
0.000419
0.000281
0.000311
0.000312
0.000254
0.000178
0.000055
0.000224
0.000230
0.000263
0.000520
0.000318
0.000253
0.000273
0.000215
0.000242
0.000262
0.000252
0.000251
0.000249
0.000269
0.000245
0.000266
0.000245
0.000247
0.000254
0.000387
0.000445
0.000486
0.000205
0.000256
0.000276
0.000274
0.000261
0.000252
0.000267
0.000271
0.000186
0.000056
0.000381
0.000280
0.000540
0.000183
0.000191
0.000257
0.000422
0.000385
0.000263
0.000210
0.000239
0.000276
0.000250
0.000394
0.000494
0.000282
0.000240
0.000231
0.000258
0.000264
0.000273
0.000256
0.000266
0.000278
0.000257
0.000390
0.000241
0.000503
0.000278
0.000254
0.000176
0.000056
0.000213
0.000240
0.000247
0.000254
0.000269
0.000243
0.000235
0.000254
0.000247
0.000245
0.000266
0.000243
0.000262
0.001444
0.000240
0.000271
0.000245
0.000243
0.000279
0.000276
0.000263
0.000238
0.000275
0.000255
0.000271
0.000265
0.000269
0.000268
0.000260
0.000272
0.000188
0.000057
0.000188
0.000233
0.000252
0.000249
0.000238
0.000245
0.000259
0.000262
0.000226
0.000248
0.000253
0.000260
0.000255
0.000257
0.000250
0.000271
0.000234
0.000259
0.000278
0.000253
0.000253
0.000262
0.000250
0.000251
0.001291
0.000273
0.000630
0.000435
0.000272
0.000246
0.000195
0.000056
0.000195
0.000236
0.000240
0.000253
0.000414
0.000232
0.000242
0.000245
0.000252
0.000403
0.000435
0.000322
0.000229
0.000237
0.000255
0.000260
0.000257
0.000260
0.000245
0.000264
0.000257
0.000254
0.000318
0.000379
0.000510
0.000440
0.000225
0.000265
0.001364
0.000247
0.000182
0.000055
0.000322
0.000371
0.000351
0.000233
0.000231
0.000230
0.000225
0.000251
0.000263
0.000252
0.000250
0.000261
0.000287
0.000311
0.000501
0.000391
0.000334
0.000219
0.000249
0.000258
0.000263
0.000263
0.000273
0.000265
0.000270
0.000264
0.000406
0.000526
0.000321
0.000364
0.000152
0.000055
0.000195
0.000236
0.001257
0.000431
0.000289
0.000465
0.000380
0.000484
0.000282
0.000338
0.000230
0.000224
0.000254
0.000259
0.000246
0.000264
0.000415
0.000606
0.000197
0.000385
0.000252
0.000253
0.000255
0.000501
0.000236
0.000265
0.000257
0.000281
0.000280
0.000588
0.000279
0.000056
0.000380
0.000338
0.000202
0.000224
0.001582
0.000480
0.000266
0.000251
0.000244
0.000247
0.000232
0.000240
0.000246
0.000265
0.000252
0.000260
0.000235
0.000274
0.000430
0.000422
0.000390
0.000245
0.000256
0.000256
0.000262
0.000273
0.000272
0.000239
0.000261
0.000277
0.000190
0.000056
0.000394
0.000323
0.000250
0.000211
0.000248
0.000245
0.000264
0.000235
0.000232
0.000224
0.001412
0.000496
0.000241
0.000249
0.000237
0.000255
0.000273
0.000260
0.000231
0.000281
0.000275
0.000251
0.000256
0.000518
0.000444
0.000327
0.000236
0.000266
0.000275
0.000287
0.000172
0.000056
0.000207
0.000412
0.000221
0.000238
0.000343
0.000523
0.000281
0.000325
0.000461
0.000214
0.000224
0.000253
0.000260
0.000268
0.001379
0.000301
0.000371
0.000270
0.000240
0.000270
0.000280
0.000248
0.000252
0.000259
0.000263
0.000267
0.000460
0.000446
0.000312
0.000241
0.000170
0.000056
0.000213
0.000231
0.000255
0.000236
0.000228
0.000261
0.000240
0.000252
0.000338
0.000333
0.000409
0.000296
0.000250
0.000249
0.000238
0.000273
0.000280
0.000257
0.000272
0.000226
0.000250
0.000304
0.001310
0.000224
0.000262
0.000232
0.000265
0.000265
0.000256
0.000260
0.000188
0.000055
0.000247
0.000323
0.000355
0.000374
0.000234
0.000236
0.000258
0.000266
0.000250
0.000254
0.000253
0.000271
0.000240
0.000253
0.000259
0.000258
0.000266
0.000268
0.000269
0.000249
0.000252
0.000268
0.000285
0.000266
0.000287
0.000265
0.000265
0.000263
0.000257
0.000444
0.001357
0.000055
0.000217
0.000227
0.000242
0.000241
0.000250
0.000261
0.000247
0.000227
0.000246
0.000252
0.000275
0.000252
0.000254
0.000243
0.000256
0.000236
0.001736
0.000244
0.000249
0.000266
0.000242
0.000261
0.000273
0.000260
0.000270
0.000261
0.000280
0.000262
0.000272
0.000262
0.000223
0.000055
0.000276
0.000353
0.001262
0.000216
0.000243
0.000245
0.000255
0.000254
0.000255
0.000256
0.000231
0.000370
0.000375
0.000442
0.000289
0.000219
0.000248
0.000257
0.000252
0.000266
0.000252
0.000268
0.000263
0.000285
0.000263
0.000384
0.000361
0.000397
0.000297
0.000250
0.000182
0.000055
0.000219
0.000254
0.000244
0.000248
0.000253
0.000220
0.000237
0.000252
0.000435
0.001330
0.000275
0.000206
0.000249
0.000277
0.000250
0.000263
0.000260
0.000254
0.000299
0.000447
0.000399
0.000227
0.000248
0.000244
0.000277
0.000284
0.000257
0.000291
0.000272
0.000275
0.000190
0.000056
0.000222
0.000400
0.000427
0.000222
0.000226
0.000242
0.000242
0.000280
0.000263
0.000247
0.000237
0.000244
0.000452
0.000575
0.000408
0.001446
0.000248
0.000293
0.000302
0.000346
0.000486
0.000418
0.000465
0.000405
0.000227
0.000263
0.000269
0.000277
0.000259
0.000276
0.000201
0.000057
0.000209
0.000265
0.000455
0.000510
0.000311
0.000234
0.000243
0.000227
0.000254
0.000258
0.000245
0.000267
0.000267
0.000237
0.000268
0.000324
0.000322
0.000432
0.000377
0.001325
0.000264
0.000257
0.000260
0.000257
0.000458
0.000438
0.000371
0.000266
0.000279
0.000269
0.000192
0.000056
0.000199
0.000239
0.000244
0.000244
0.000248
0.000321
0.000409
0.000396
0.000369
0.000210
0.000238
0.000264
0.000269
0.000261
0.000260
0.000262
0.000280
0.000238
0.000270
0.000431
0.000303
0.000441
0.000310
0.001344
0.000423
0.000251
0.000257
0.000398
0.000470
0.000340
0.000322
0.000055
0.000206
0.000253
0.000230
0.000243
0.000249
0.000256
0.001683
0.000238
0.000219
0.000241
0.000252
0.000246
0.000257
0.000327
0.000328
0.000281
0.000328
0.000327
0.000422
0.000412
0.000321
0.000266
0.000230
0.001410
0.000342
0.000344
0.000414
0.000469
0.000324
0.000286
0.000167
0.000056
0.000226
0.000239
0.000256
0.000262
0.000244
0.000256
0.001708
0.000245
0.000234
0.000263
0.000332
0.000411
0.001437
0.000353
0.000400
0.000242
0.000261
0.000241
0.000265
0.000271
0.001575
0.000525
0.000385
0.000301
0.000233
0.000251
0.000262
0.000281
0.000249
0.000247
0.000193
0.000056
0.000211
0.000244
0.000267
0.000259
0.000245
0.000299
0.000256
0.000265
0.000242
0.000253
0.000247
0.000252
0.000262
0.000277
0.000246
0.001497
0.000278
0.000234
0.000264
0.000274
0.000278
0.000256
0.000432
0.001265
0.000280
0.000232
0.000275
0.000254
0.000397
0.000241
0.000205
0.000056
0.000193
0.000244
0.000218
0.000249
0.000240
0.000227
0.000234
0.001692
0.000254
0.000229
0.000251
0.000368
0.000224
0.000230
0.000253
0.001388
0.000227
0.000266
0.000271
0.000245
0.000259
0.000352
0.000277
0.001308
0.000280
0.000256
0.000245
0.000271
0.001385
0.000279
0.000188
0.000055
0.000279
0.000324
0.000211
0.000254
0.000231
0.000239
0.000268
0.000262
0.000272
0.000246
0.000258
0.000265
0.000251
0.000248
0.000286
0.001523
0.000244
0.000271
0.000260
0.000240
0.000289
0.000255
0.000255
0.001498
0.000371
0.000227
0.000269
0.001265
0.000272
0.000246
0.000250
0.000056
0.000244
0.000387
0.000331
0.000215
0.000234
0.000240
0.000259
0.000257
0.000265
0.000270
0.000234
0.000259
0.000261
0.000250
0.000431
0.001224
0.000230
0.000253
0.000272
0.000272
0.000229
0.000238
0.000256
0.000326
0.001283
0.000241
0.000252
0.000257
0.000254
0.001342
0.000331
0.000056
0.000267
0.000264
0.000230
0.000234
0.000238
0.000254
0.000242
0.000246
0.000280
0.000249
0.000244
0.000250
0.000251
0.000350
0.000387
0.001476
0.000225
0.000241
0.000306
0.000504
0.000284
0.000423
0.001327
0.000290
0.000240
0.000276
0.000246
0.001311
0.000420
0.000397
0.000358
0.000055
0.000222
0.000269
0.000239
0.000256
0.000253
0.000247
0.000277
0.000245
0.000263
0.000264
0.000412
0.000381
0.001326
0.000242
0.000261
0.000261
0.000280
0.000224
0.000251
0.000234
0.000340
0.001238
0.000257
0.000272
0.000237
0.000248
0.001470
0.000470
0.000474
0.000227
0.000197
0.000055
0.000208
0.000229
0.000247
0.000234
0.000254
0.000264
0.000246
0.000246
0.000434
0.000492
0.000271
0.001488
0.000209
0.000245
0.000263
0.000257
0.000261
0.000285
0.001686
0.000264
0.000402
0.000327
0.001283
0.000444
0.000214
0.000321
0.000262
0.000264
0.000264
0.000265
0.000193
0.000055
0.000215
0.000227
0.000338
0.000243
0.000343
0.000493
0.000304
0.000291
0.001468
0.000288
0.000383
0.000222
0.000216
0.000314
0.000454
0.001238
0.000274
0.000244
0.000247
0.000260
0.001613
0.000314
0.000267
0.000259
0.000274
0.000236
0.000470
0.000326
0.000242
0.000249
0.000256
0.000056
0.000282
0.000430
0.000235
0.000268
0.000238
0.001518
0.000219
0.000241
0.000262
0.000272
0.000267
0.000242
0.000367
0.001414
0.000267
0.000236
0.000423
0.001220
0.000299
0.000472
0.000381
0.000239
0.000238
0.000255
0.000277
0.000248
0.000454
0.000222
0.000263
0.000285
0.000195
0.000055
0.000226
0.000348
0.000255
0.000427
0.001229
0.000282
0.000311
0.000235
0.000257
0.000235
0.000251
0.000330
0.001476
0.000285
0.000212
0.000245
0.001370
0.000296
0.000431
0.000406
0.000397
0.000259
0.000228
0.000248
0.000266
0.000278
0.000274
0.000260
0.000262
0.000254
0.000185
0.000056
0.000243
0.000419
0.001411
0.000224
0.000261
0.000277
0.000242
0.000246
0.000268
0.000422
0.001346
0.000217
0.000254
0.000267
0.000260
0.001270
0.000618
0.000377
0.000321
0.000411
0.000288
0.000252
0.000267
0.000251
0.000278
0.000285
0.000276
0.000317
0.000415
0.000437
0.001374
0.000055
0.000196
0.000239
0.000253
0.000220
0.000251
0.000437
0.000548
0.001211
0.000253
0.000228
0.000247
0.001420
0.000580
0.000194
0.000226
0.000405
0.000256
0.000242
0.000272
0.000272
0.000237
0.000270
0.000284
0.000255
0.000253
0.000319
0.000403
0.000481
0.001493
0.000256
0.000158
0.000056
0.000193
0.000264
0.000360
0.000505
0.001260
0.000280
0.000253
0.000258
0.000241
0.000254
0.000251
0.000271
0.000356
0.000483
0.000352
0.000229
0.000256
0.000279
0.000245
0.000290
0.000241
0.000262
0.000261
0.000269
0.000286
0.000415
0.000407
0.000375
0.000317
0.001400
0.000184
0.000056
0.000205
0.000240
0.000348
0.000376
0.000390
0.000263
0.000313
0.000333
0.000267
0.000276
0.000262
0.000246
0.000248
0.000307
0.000238
0.000380
0.000405
0.000385
0.000285
0.000391
0.000271
0.000409
0.000218
0.000273
0.000245
0.000264
0.000248
0.000312
0.000360
0.000527
0.000241
0.000055
0.000208
0.001404
0.000248
0.000331
0.000552
0.000270
0.000359
0.000327
0.000215
0.000243
0.000270
0.000239
0.000265
0.000271
0.000271
0.000243
0.000266
0.001326
0.000293
0.000257
0.000254
0.000268
0.000270
0.000280
0.000270
0.000256
0.000274
0.000245
0.000366
0.000383
0.000262
0.000055
0.000210
0.000257
0.000220
0.001492
0.000342
0.000230
0.000220
0.000253
0.000230
0.000250
0.000245
0.000276
0.000252
0.000251
0.000270
0.000246
0.000269
0.000264
0.000246
0.000264
0.001422
0.000241
0.000238
0.000277
0.000261
0.000242
0.000275
0.000258
0.000293
0.000476
0.000344
0.000055
0.000203
0.000236
0.000396
0.000277
0.000245
0.000260
0.001538
0.000336
0.000304
0.000221
0.000259
0.000328
0.000313
0.000230
0.000228
0.000257
0.000241
0.000263
0.000260
0.000260
0.000475
0.000579
0.001059
0.000274
0.000230
0.000262
0.000268
0.000261
0.000271
0.000260
0.000388
0.000058
0.000227
0.000335
0.000213
0.000241
0.000246
0.000246
0.000241
0.000232
0.000286
0.001660
0.000345
0.000259
0.000241
0.000251
0.000256
0.000246
0.000261
0.000276
0.000271
0.000295
0.000317
0.000475
0.000453
0.001366
0.000239
0.000259
0.000274
0.000256
0.000271
0.000317
0.000468
0.000055
0.000274
0.000237
0.000236
0.000244
0.000226
0.000238
0.000259
0.000256
0.000267
0.001600
0.000326
0.000255
0.000266
0.000258
0.000454
0.000268
0.000524
0.000379
0.000296
0.000338
0.000431
0.000481
0.001258
0.000256
0.000228
0.000264
0.001758
0.000432
0.000589
0.000312
0.000142
0.000055
0.000216
0.000230
0.000235
0.000241
0.000252
0.000247
0.000241
0.000521
0.000518
0.000378
0.000293
0.000202
0.000254
0.000262
0.000265
0.000264
0.000249
0.000248
0.000253
0.000275
0.000274
0.000411
0.001353
0.000229
0.000243
0.000269
0.001907
0.000383
0.000368
0.000350
0.000156
0.000056
0.000242
0.000245
0.000244
0.001583
0.000413
0.000213
0.000233
0.000263
0.000251
0.000294
0.000376
0.000376
0.000353
0.000273
0.000290
0.000526
0.000393
0.001200
0.000282
0.000224
0.000250
0.000264
0.000271
0.000445
0.000609
0.000441
0.000253
0.000250
0.000273
0.000278
0.000187
0.000055
0.000186
0.000235
0.000240
0.001561
0.000234
0.000228
0.000243
0.000252
0.000246
0.000252
0.000246
0.000270
0.000270
0.000275
0.000238
0.000417
0.000508
0.000264
0.001376
0.000243
0.000247
0.000267
0.000253
0.000264
0.000426
0.000443
0.000433
0.000278
0.000278
0.000228
0.000447
0.000055
0.000200
0.000245
0.000248
0.001529
0.000319
0.000219
0.000261
0.000248
0.000253
0.000256
0.000251
0.000253
0.000263
0.000258
0.000308
0.000642
0.001347
0.000746
0.000278
0.000313
0.000265
0.000230
0.000246
0.000274
0.001677
0.000810
0.000230
0.000263
0.000275
0.000289
0.000183
0.000055
0.000211
0.000230
0.000257
0.000242
0.000257
0.000242
0.000242
0.000258
0.000242
0.000233
0.000288
0.000283
0.000249
0.000247
0.000260
0.000254
0.000274
0.001593
0.000705
0.000394
0.000297
0.000223
0.000245
0.000288
0.000268
0.000286
0.000244
0.000262
0.001382
0.000401
0.000319
0.000055
0.000190
0.000230
0.000248
0.000260
0.000254
0.000233
0.000252
0.000250
0.000252
0.000267
0.000284
0.000419
0.000427
0.000332
0.000221
0.000244
0.000265
0.001393
0.000681
0.000477
0.000353
0.000263
0.000230
0.000242
0.000275
0.000252
0.000259
0.000263
0.001549
0.000343
0.000226
0.000055
0.000196
0.000223
0.000243
0.000251
0.000247
0.000251
0.000238
0.000247
0.000271
0.000257
0.000392
0.000437
0.000252
0.000217
0.000244
0.000251
0.000260
0.000253
0.001587
0.000601
0.000513
0.000286
0.000229
0.000259
0.000257
0.000257
0.000269
0.000286
0.000268
0.001357
0.000330
0.000056
0.000219
0.000223
0.000233
0.000250
0.000254
0.000246
0.000271
0.000293
0.000360
0.000467
0.000360
0.000354
0.000370
0.000225
0.000247
0.000246
0.000278
0.000255
0.000270
0.001952
0.000298
0.000234
0.000438
0.000255
0.000245
0.000266
0.000267
0.000259
0.000271
0.000277
0.000328
0.000055
0.000271
0.000249
0.000239
0.000233
0.000253
0.000248
0.000230
0.000236
0.000271
0.000272
0.000222
0.000240
0.000388
0.000321
0.000477
0.000469
0.000212
0.000263
0.000256
0.000244
0.000260
0.000290
0.001467
0.001054
0.000224
0.000246
0.000267
0.000267
0.000273
0.000250
0.000199
0.000056
0.000201
0.001340
0.000287
0.000231
0.000223
0.000249
0.000255
0.000233
0.000245
0.000247
0.000268
0.000254
0.000242
0.000477
0.000285
0.000412
0.000307
0.000249
0.000263
0.000266
0.000270
0.000228
0.000261
0.000272
0.001327
0.000673
0.000309
0.000381
0.000381
0.000399
0.000299
0.000055
0.000201
0.000350
0.001326
0.000243
0.000218
0.000247
0.000230
0.000252
0.000260
0.000257
0.000248
0.000264
0.000249
0.000370
0.000581
0.000280
0.000226
0.000269
0.000334
0.000213
0.000248
0.000274
0.000232
0.000276
0.000266
0.001540
0.000736
0.000300
0.000274
0.000272
0.000196
0.000056
0.000216
0.000236
0.000473
0.000491
0.001139
0.000250
0.000219
0.000244
0.000233
0.000245
0.000249
0.000261
0.000235
0.000230
0.000256
0.000253
0.000269
0.000237
0.000258
0.000252
0.000267
0.000262
0.000304
0.000342
0.000215
0.000269
0.000262
0.001456
0.000261
0.000244
0.000171
0.000055
0.000186
0.000228
0.000256
0.000269
0.000353
0.000379
0.000395
0.000264
0.001574
0.000223
0.000323
0.000459
0.000378
0.000231
0.000434
0.000232
0.000244
0.000255
0.000276
0.000265
0.000281
0.000269
0.000254
0.000266
0.000255
0.000472
0.000322
0.001650
0.000272
0.000226
0.000189
0.000056
0.000234
0.000228
0.000249
0.000245
0.000241
0.000245
0.000259
0.000272
0.000438
0.002051
0.000229
0.000241
0.000252
0.000262
0.000259
0.000250
0.000273
0.000252
0.000264
0.000537
0.000281
0.000441
0.001442
0.000268
0.000519
0.000229
0.001774
0.000237
0.000274
0.001518
0.000171
0.000056
0.000345
0.000391
0.000483
0.000258
0.000246
0.000224
0.000264
0.000269
0.000258
0.000227
0.000252
0.000333
0.000417
0.000349
0.000442
0.000233
0.000230
0.001563
0.000229
0.000673
0.001793
0.000289
0.000236
0.001584
0.001978
0.000748
0.000280
0.000259
0.000288
0.000445
0.000416
0.000055
0.000214
0.000243
0.000242
0.000251
0.001416
0.001734
0.001077
0.000212
0.000237
0.001571
0.001987
0.000218
0.000229
0.000422
0.000283
0.000431
0.000331
0.000514
0.000208
0.000245
0.000243
0.000255
0.000285
0.001585
0.001203
0.001441
0.000259
0.000302
0.000254
0.000306
0.000350
0.000056
0.000215
0.000229
0.000244
0.000241
0.000224
0.000245
0.000247
0.000251
0.000261
0.000244
0.000242
0.000443
0.000497
0.000285
0.000260
0.000272
0.000260
0.000259
0.000263
0.000266
0.000256
0.000263
0.001573
0.000424
0.002119
0.000219
0.000288
0.000302
0.000416
0.000448
0.000167
0.000056
0.000225
0.000523
0.000301
0.000308
0.000193
0.000235
0.000253
0.000240
0.000240
0.000249
0.000244
0.000264
0.000261
0.001605
0.001363
0.001224
0.000268
0.000241
0.000249
0.000270
0.000286
0.000274
0.000242
0.000254
0.002204
0.000247
0.000250
0.000303
0.000324
0.000305
0.000220
0.000055
0.000220
0.000352
0.000549
0.000325
0.000244
0.000231
0.000244
0.000269
0.001899
0.001443
0.000200
0.000351
0.000371
0.000410
0.000258
0.000225
0.000253
0.000268
0.000273
0.000257
0.000254
0.000261
0.000472
0.000242
0.000268
0.000268
0.000247
0.000276
0.000284
0.000249
0.000200
0.000056
0.000200
0.000254
0.000238
0.000247
0.000250
0.000279
0.001539
0.001466
0.001274
0.000255
0.000216
0.000242
0.000265
0.000265
0.000241
0.000257
0.000246
0.002110
0.000249
0.000227
0.000272
0.000259
0.000262
0.000268
0.000257
0.000265
0.000267
0.000252
0.000278
0.000256
0.000173
0.000056
0.000202
0.002812
0.001263
0.000222
0.000303
0.000302
0.000228
0.000267
0.000257
0.000241
0.000254
0.000246
0.000234
0.000253
0.000267
0.000255
0.000269
0.000275
0.000266
0.000248
0.000267
0.000279
0.000274
0.000266
0.000245
0.000247
0.000271
0.000269
0.000262
0.000266
0.000365
0.000057
0.001548
0.000253
0.001258
0.000211
0.000218
0.000239
0.000261
0.000254
0.000242
0.000265
0.000378
0.000382
0.000342
0.000216
0.000248
0.002150
0.000241
0.000242
0.000287
0.000504
0.000319
0.000348
0.000216
0.000251
0.000270
0.000251
0.000265
0.000280
0.000270
0.001611
0.001255
0.000057
0.000187
0.000226
0.000320
0.000378
0.000348
0.000293
0.000207
0.000235
0.000248
0.000256
0.000263
0.000248
0.000232
0.000252
0.000282
0.000221
0.000378
0.000559
0.000362
0.000251
0.000222
0.000277
0.000277
0.000247
0.000254
0.000245
0.000266
0.000277
0.000245
0.000434
0.000234
0.000055
0.001131
0.000291
0.000303
0.000416
0.000304
0.000226
0.000229
0.000238
0.000249
0.002371
0.000493
0.000193
0.000214
0.000383
0.000273
0.000270
0.000250
0.000260
0.000272
0.000221
0.000254
0.000272
0.000587
0.000467
0.001874
0.001344
0.000525
0.000508
0.000232
0.000282
0.000192
0.000057
0.000236
0.000333
0.000249
0.000248
0.000240
0.000228
0.000257
0.000250
0.000268
0.000238
0.000254
0.000227
0.000243
0.000263
0.000380
0.000497
0.001858
0.001319
0.000486
0.000398
0.000458
0.000249
0.000239
0.000259
0.002183
0.000535
0.000354
0.000232
0.000275
0.000284
0.000192
0.000056
0.000201
0.000244
0.000255
0.000243
0.000248
0.000358
0.000397
0.000325
0.000283
0.000241
0.000247
0.000246
0.000265
0.002124
0.000516
0.000220
0.000219
0.000250
0.000263
0.000266
0.000246
0.002452
0.000344
0.000233
0.000245
0.000260
0.000253
0.000272
0.000285
0.000277
0.000194
0.000055
0.000194
0.000345
0.000564
0.000356
0.000259
0.000220
0.000229
0.000255
0.000265
0.000254
0.001956
0.000388
0.000271
0.000295
0.000217
0.000265
0.000274
0.000240
0.002211
0.000444
0.000222
0.000265
0.000280
0.000251
0.000253
0.000255
0.000282
0.000256
0.000264
0.000257
0.000192
0.000055
0.000245
0.000214
0.000258
0.000215
0.000246
0.000255
0.000245
0.000239
0.000232
0.002186
0.000221
0.000285
0.000221
0.000423
0.000235
0.000248
0.000275
0.000290
0.000239
0.000264
0.002009
0.000252
0.000376
0.000370
0.000389
0.000398
0.000305
0.000251
0.000247
0.000257
0.000201
0.000057
0.000190
0.000236
0.000238
0.000245
0.000254
0.000319
0.000237
0.002298
0.000233
0.000239
0.000259
0.000257
0.000241
0.000247
0.000305
0.002511
0.000237
0.000197
0.000251
0.000240
0.000261
0.000258
0.000285
0.000269
0.000266
0.000253
0.000281
0.000258
0.000263
0.000262
0.000195
0.000056
0.001831
0.001444
0.000188
0.000233
0.000242
0.000256
0.000258
0.000270
0.000427
0.000312
0.002180
0.000262
0.000229
0.000307
0.000251
0.000435
0.000458
0.000302
0.000231
0.000242
0.000252
0.000267
0.000267
0.000237
0.000246
0.000275
0.000263
0.000263
0.000373
0.000683
0.000236
0.000055
0.000210
0.000244
0.000245
0.000270
0.000254
0.000250
0.000253
0.000239
0.001500
0.002096
0.000582
0.000291
0.000395
0.000692
0.000351
0.000238
0.000256
0.000249
0.000266
0.000253
0.000264
0.000242
0.000256
0.000267
0.001822
0.001462
0.000285
0.000272
0.000283
0.000292
0.000472
0.000056
0.001949
0.000218
0.000221
0.000240
0.000296
0.000352
0.000467
0.000291
0.000288
0.000210
0.000250
0.000250
0.000257
0.000256
0.000270
0.000252
0.000254
0.000266
0.001846
0.000242
0.000229
0.000259
0.000267
0.000297
0.000259
0.000259
0.001459
0.000328
0.000258
0.000261
0.000168
0.000055
0.000192
0.000243
0.000254
0.000227
0.000253
0.000239
0.000340
0.000333
0.000356
0.000374
0.000228
0.000222
0.000254
0.000338
0.000429
0.000311
0.000225
0.000246
0.000264
0.000341
0.000486
0.000421
0.000285
0.000242
0.000258
0.000254
0.000253
0.000274
0.000276
0.000282
0.000186
0.000055
0.001451
0.000422
0.000234
0.001926
0.000282
0.000575
0.000282
0.000311
0.000233
0.000242
0.000266
0.000245
0.000253
0.000240
0.000268
0.000266
0.000471
0.000263
0.000445
0.000312
0.000378
0.000229
0.000254
0.000267
0.000272
0.000274
0.000258
0.000271
0.000377
0.000488
0.001328
0.000056
0.000212
0.000216
0.002075
0.000371
0.000246
0.000255
0.000260
0.000247
0.000262
0.000264
0.000211
0.000255
0.000255
0.000261
0.000270
0.000347
0.000709
0.001763
0.000228
0.000252
0.000249
0.000276
0.000415
0.000382
0.001592
0.000279
0.000365
0.001925
0.000273
0.000248
0.000189
0.000056
0.000207
0.000227
0.000235
0.000240
0.000231
0.000250
0.000250
0.000285
0.000346
0.000262
0.000382
0.000351
0.000337
0.000305
0.000237
0.000268
0.000261
0.000238
0.000267
0.000257
0.000296
0.000287
0.000279
0.000251
0.000274
0.001505
0.000291
0.000395
0.002056
0.000226
0.000182
0.000056
0.000226
0.000231
0.000235
0.000248
0.000478
0.000215
0.000252
0.000346
0.000387
0.000291
0.000293
0.000206
0.000270
0.000263
0.000270
0.000332
0.000383
0.000465
0.000250
0.000399
0.000580
0.000332
0.001645
0.000275
0.000218
0.001963
0.000348
0.000245
0.000245
0.000295
0.000183
0.000055
0.000210
0.000250
0.000222
0.000248
0.000246
0.000265
0.000262
0.000269
0.000253
0.000276
0.001795
0.000327
0.000375
0.000354
0.000406
0.000347
0.000349
0.001506
0.000267
0.000246
0.002095
0.000583
0.000268
0.000235
0.000265
0.000265
0.000501
0.000236
0.000252
0.000274
0.000196
0.000056
0.000363
0.000242
0.000401
0.000303
0.000204
0.000236
0.000258
0.000257
0.000263
0.000289
0.000231
0.000249
0.000260
0.000271
0.000355
0.001552
0.000269
0.000202
0.000277
0.001936
0.000334
0.000291
0.000246
0.000267
0.000246
0.000279
0.000264
0.000270
0.000249
0.000262
0.000198
0.000076
0.000235
0.000389
0.002043
0.000243
0.000262
0.000218
0.000257
0.000299
0.000597
0.000263
0.001328
0.000360
0.000349
0.002082
0.000202
0.000250
0.000261
0.000280
0.000256
0.000246
0.000278
0.000297
0.000257
0.000328
0.000495
0.000383
0.000310
0.002235
0.000516
0.000474
0.000370
0.000055
0.000201
0.000231
0.000243
0.001970
0.000230
0.000228
0.000240
0.000242
0.000242
0.000253
0.000247
0.000261
0.000245
0.000314
0.000416
0.001530
0.000197
0.000231
0.000267
0.000258
0.000239
0.000255
0.000259
0.000270
0.000446
0.000304
0.000506
0.000234
0.001591
0.000278
0.000166
0.000056
0.000201
0.000224
0.000245
0.000234
0.000254
0.000247
0.000254
0.000246
0.000268
0.000409
0.000341
0.001428
0.000218
0.000210
0.000245
0.000268
0.000249
0.000259
0.000536
0.000250
0.000529
0.000321
0.000231
0.001566
0.000229
0.000261
0.000285
0.000280
0.000262
0.000273
0.000186
0.000056
0.000214
0.000228
0.000264
0.000268
0.000249
0.000242
0.000237
0.000244
0.000271
0.000222
0.000255
0.000259
0.000252
0.001485
0.000361
0.000218
0.000242
0.000265
0.000314
0.000278
0.000427
0.000219
0.000245
0.000257
0.000267
0.000264
0.000259
0.001408
0.000283
0.000233
0.000173
0.000055
0.000210
0.000228
0.000263
0.000260
0.000250
0.000239
0.000250
0.000263
0.000213
0.000267
0.000243
0.000260
0.000226
0.000319
0.000345
0.000377
0.000252
0.000248
0.001634
0.000236
0.000249
0.000245
0.000275
0.000334
0.000360
0.000381
0.000488
0.000222
0.000243
0.001590
0.000166
0.000056
0.000298
0.000339
0.000487
0.000192
0.000226
0.000221
0.000241
0.000272
0.000257
0.000236
0.000243
0.000242
0.001460
0.000339
0.000264
0.000222
0.000246
0.000259
0.000267
0.000265
0.000253
0.000235
0.000263
0.000269
0.000245
0.000415
0.000344
0.000437
0.000285
0.000238
0.000196
0.000055
0.000207
0.000279
0.000524
0.000211
0.000376
0.000286
0.000252
0.000245
0.000247
0.000261
0.000242
0.000229
0.000253
0.000251
0.001245
0.000286
0.000253
0.000254
0.000266
0.000273
0.000237
0.000261
0.000253
0.000264
0.000257
0.000256
0.000309
0.000690
0.000445
0.000233
0.000182
0.000056
0.000189
0.001561
0.000241
0.000491
0.000305
0.000384
0.000215
0.000264
0.000254
0.000262
0.000231
0.000262
0.000270
0.000271
0.000261
0.001514
0.000264
0.000283
0.000265
0.000259
0.000259
0.000248
0.000268
0.000257
0.000261
0.000283
0.000442
0.000352
0.000347
0.000237
0.000200
0.000056
0.000220
0.000244
0.000235
0.001687
0.000376
0.000323
0.000226
0.000242
0.000245
0.000283
0.000266
0.000254
0.000248
0.000261
0.000237
0.000270
0.000404
0.001318
0.000255
0.000235
0.001488
0.000324
0.000611
0.000343
0.000342
0.000229
0.000272
0.000461
0.000248
0.000255
0.000189
0.000055
0.000284
0.000221
0.000242
0.000252
0.000246
0.000254
0.000238
0.000256
0.000272
0.000222
0.000253
0.000257
0.000322
0.000466
0.001692
0.001496
0.000355
0.000507
0.000366
0.000228
0.000228
0.000257
0.000247
0.000266
0.000252
0.000266
0.000264
0.000262
0.001525
0.000333
0.000167
0.000055
0.000191
0.000357
0.000354
0.000330
0.000225
0.000225
0.000244
0.000393
0.000401
0.000335
0.002194
0.000321
0.000717
0.000494
0.000456
0.000282
0.000320
0.000401
0.000325
0.000279
0.000386
0.000244
0.001556
0.000528
0.000214
0.000264
0.000250
0.000256
0.000278
0.000254
0.000199
0.000055
0.000197
0.000252
0.000250
0.000256
0.000243
0.001660
0.000876
0.000998
0.000209
0.000231
0.000293
0.000222
0.000261
0.000265
0.000250
0.000248
0.000260
0.000258
0.000269
0.000284
0.001432
0.000312
0.000255
0.000228
0.000239
0.000258
0.000257
0.000286
0.000283
0.000261
0.001896
0.000055
0.000198
0.000225
0.001542
0.000883
0.000345
0.000374
0.000232
0.000278
0.000201
0.000255
0.000247
0.000252
0.000246
0.001984
0.000471
0.000243
0.000229
0.000251
0.000269
0.000261
0.000197
