0.000091
0.020055
0.001586
0.000391
0.000253
0.000300
0.000326
0.000226
0.000333
0.000281
0.000247
0.000330
0.000617
0.000381
0.000389
0.000348
0.000295
0.000334
0.000357
0.000419
0.001845
0.000394
0.000693
0.000269
0.000237
0.000304
0.000319
0.000311
0.000420
0.000372
0.000510
0.000360
0.000058
0.000207
0.000261
0.000268
0.000285
0.000252
0.000247
0.000277
0.000298
0.000261
0.000269
0.000442
0.000415
0.000315
0.000253
0.000376
0.000353
0.000363
0.000255
0.000243
0.001706
0.000309
0.000264
0.000446
0.000253
0.000268
0.000278
0.000298
0.000287
0.000279
0.000325
0.000477
0.000057
0.000239
0.000258
0.000262
0.000259
0.000253
0.000244
0.000264
0.000256
0.000289
0.001664
0.000228
0.000239
0.000275
0.000264
0.000279
0.000250
0.000264
0.000253
0.000352
0.001800
0.000239
0.000277
0.000447
0.000425
0.000392
0.000242
0.000266
0.000443
0.000515
0.000770
0.000193
0.000057
0.000206
0.000253
0.000247
0.000241
0.000297
0.000249
0.000390
0.000481
0.000379
0.000260
0.000240
0.000252
0.000245
0.000253
0.000259
0.000256
0.000238
0.000274
0.000291
0.000331
0.001675
0.000295
0.000217
0.000432
0.000262
0.000757
0.000666
0.000508
0.000331
0.000242
0.000196
0.000072
0.000205
0.000247
0.000289
0.000211
0.000281
0.000232
0.000301
0.000659
0.001243
0.000216
0.000248
0.000243
0.000255
0.000253
0.000263
0.000288
0.000420
0.000670
0.001377
0.000299
0.000238
0.000428
0.000223
0.000255
0.000254
0.000255
0.000270
0.000276
0.000257
0.000268
0.000196
0.000057
0.000208
0.000246
0.000256
0.000249
0.000235
0.000241
0.000238
0.000253
0.000236
0.000262
0.001630
0.000258
0.000261
0.000216
0.000258
0.000249
0.000245
0.000251
0.000253
0.000251
0.000293
0.001649
0.000298
0.000235
0.000436
0.000263
0.000251
0.000252
0.000267
0.000271
0.000202
0.000057
0.000198
0.000234
0.000249
0.000249
0.000241
0.000240
0.000266
0.000240
0.000259
0.000260
0.000245
0.000260
0.000251
0.000277
0.001640
0.000275
0.000284
0.000224
0.000252
0.000272
0.000270
0.000236
0.000244
0.000266
0.001788
0.000393
0.000340
0.000372
0.000236
0.000279
0.000198
0.000056
0.000206
0.000235
0.000245
0.000269
0.000261
0.000257
0.000264
0.000403
0.000419
0.000426
0.000205
0.000250
0.000247
0.000249
0.001566
0.000509
0.000387
0.000383
0.000301
0.000225
0.000271
0.000283
0.000270
0.001800
0.000478
0.000429
0.000258
0.000237
0.000249
0.000263
0.000190
0.000058
0.000207
0.000230
0.000261
0.000265
0.000316
0.000455
0.000404
0.000263
0.000208
0.000249
0.000265
0.000231
0.000253
0.001724
0.000476
0.000292
0.000232
0.000244
0.000275
0.000290
0.000238
0.000265
0.001806
0.000381
0.000285
0.000381
0.000243
0.000259
0.000265
0.000400
0.000330
0.000057
0.000205
0.000380
0.000380
0.000318
0.000194
0.000247
0.000255
0.000253
0.000240
0.000242
0.000232
0.000251
0.001617
0.000327
0.000276
0.000223
0.000261
0.000253
0.000248
0.000298
0.000259
0.000324
0.000246
0.001814
0.000258
0.000483
0.000250
0.000255
0.000253
0.000274
0.000266
0.000056
0.000317
0.000610
0.000626
0.000190
0.000232
0.000277
0.000230
0.000213
0.000262
0.000254
0.000252
0.001697
0.000249
0.000451
0.000367
0.000218
0.000237
0.000228
0.000258
0.000260
0.000249
0.001882
0.000207
0.000466
0.001865
0.000525
0.000359
0.000243
0.000268
0.000257
0.000186
0.000056
0.000198
0.000235
0.000240
0.000241
0.000256
0.001623
0.000255
0.000248
0.000241
0.000247
0.000242
0.000246
0.000248
0.000255
0.000309
0.000357
0.000650
0.000254
0.000234
0.000272
0.000275
0.000240
0.000246
0.000432
0.000434
0.000260
0.000362
0.000649
0.000331
0.000270
0.000205
0.000055
0.000207
0.000252
0.000250
0.000250
0.000242
0.000236
0.000238
0.000414
0.001818
0.000315
0.000219
0.000235
0.000261
0.000236
0.000257
0.000355
0.000338
0.000482
0.000358
0.000232
0.000261
0.000302
0.000284
0.000268
0.000264
0.000425
0.000345
0.000604
0.000480
0.000436
0.000167
0.000057
0.000193
0.000259
0.000243
0.000234
0.000234
0.000237
0.000249
0.000261
0.000231
0.000291
0.000337
0.000531
0.001294
0.000243
0.000231
0.000260
0.000254
0.000266
0.000231
0.000258
0.000286
0.000437
0.000408
0.000273
0.000271
0.000252
0.000252
0.000273
0.000263
0.000273
0.000374
0.000056
0.000199
0.000275
0.000190
0.000295
0.000510
0.000444
0.000225
0.000259
0.000234
0.000258
0.000260
0.000227
0.000295
0.000251
0.000243
0.000516
0.000430
0.001596
0.000308
0.000208
0.000256
0.000264
0.000255
0.000243
0.000267
0.000558
0.000315
0.000376
0.000425
0.000242
0.000185
0.000071
0.000213
0.000437
0.000235
0.000218
0.000282
0.000226
0.000250
0.000595
0.000337
0.000329
0.000226
0.000273
0.000261
0.000241
0.000511
0.000335
0.000230
0.000247
0.000494
0.001555
0.000279
0.000245
0.000510
0.000248
0.000277
0.000277
0.000258
0.000408
0.000488
0.000376
0.000267
0.000055
0.000211
0.000235
0.000241
0.000243
0.000421
0.000301
0.000296
0.000221
0.000419
0.000527
0.000302
0.000262
0.000233
0.000249
0.000247
0.000272
0.000257
0.000251
0.000261
0.000322
0.000289
0.000313
0.001861
0.000260
0.000237
0.000256
0.000285
0.000347
0.000436
0.000673
0.000517
0.000056
0.000225
0.000336
0.000314
0.000405
0.000392
0.000197
0.000259
0.000330
0.000462
0.000453
0.000233
0.000242
0.000235
0.000272
0.000261
0.000248
0.000247
0.000267
0.000270
0.000256
0.000267
0.000480
0.000684
0.001245
0.000329
0.000428
0.000425
0.000229
0.000466
0.000392
0.000332
0.000055
0.000228
0.000381
0.000281
0.000204
0.000247
0.000231
0.000413
0.000236
0.000238
0.000478
0.000330
0.000382
0.000290
0.000257
0.000264
0.000245
0.000355
0.000410
0.000334
0.000240
0.000248
0.000433
0.000593
0.001673
0.000225
0.000431
0.000321
0.000222
0.000275
0.000453
0.000235
0.000056
0.000196
0.000229
0.000247
0.000253
0.000250
0.000232
0.000271
0.000314
0.000454
0.000407
0.000293
0.000405
0.000273
0.000581
0.000252
0.000239
0.000267
0.000270
0.000242
0.000322
0.000233
0.000241
0.000272
0.000549
0.000375
0.001637
0.000269
0.000235
0.000242
0.000277
0.000184
0.000056
0.000265
0.000537
0.000294
0.000217
0.000256
0.000239
0.000256
0.000239
0.000268
0.000244
0.000222
0.000264
0.000412
0.000509
0.000407
0.000271
0.000259
0.000243
0.000343
0.000381
0.000384
0.000336
0.000358
0.000414
0.000232
0.000259
0.000262
0.000281
0.001782
0.000247
0.000208
0.000056
0.000204
0.000221
0.000260
0.000288
0.000333
0.000540
0.000325
0.000206
0.000288
0.000242
0.000242
0.000253
0.000522
0.000451
0.000481
0.000275
0.000273
0.000251
0.000428
0.000463
0.000353
0.000402
0.000509
0.000437
0.000227
0.000258
0.000266
0.000237
0.000266
0.001723
0.000311
0.000056
0.000285
0.000324
0.000201
0.000241
0.000252
0.000255
0.000237
0.000498
0.000374
0.000309
0.000292
0.000308
0.000295
0.000740
0.000265
0.000236
0.000253
0.000256
0.000254
0.000268
0.000275
0.000251
0.000253
0.000264
0.000311
0.000374
0.000388
0.000355
0.000243
0.000249
0.000195
0.000056
0.000479
0.000294
0.000490
0.000200
0.000203
0.000254
0.000242
0.000256
0.000239
0.000225
0.000248
0.000279
0.000296
0.000431
0.000512
0.000406
0.000324
0.000318
0.000376
0.000342
0.000290
0.000243
0.000250
0.000264
0.001748
0.000262
0.001712
0.000941
0.000435
0.000306
0.000157
0.000058
0.000178
0.000236
0.000239
0.000238
0.000268
0.000242
0.000253
0.000251
0.000242
0.000290
0.000425
0.000450
0.000286
0.000393
0.000227
0.000254
0.000253
0.000297
0.000226
0.000245
0.000252
0.000261
0.001833
0.000230
0.000251
0.000262
0.000276
0.000266
0.001886
0.000546
0.000267
0.000061
0.000187
0.000218
0.000241
0.000239
0.000255
0.000247
0.000240
0.000255
0.000253
0.000384
0.000604
0.000262
0.000397
0.000218
0.000250
0.000250
0.000324
0.000436
0.000372
0.000255
0.001788
0.000247
0.000248
0.000251
0.000257
0.000273
0.000242
0.000248
0.000330
0.000360
0.000338
0.000075
0.000252
0.000202
0.000240
0.000265
0.000240
0.000242
0.000256
0.000255
0.000237
0.000260
0.000237
0.000261
0.000496
0.000297
0.000346
0.000274
0.000453
0.000235
0.000249
0.000254
0.000257
0.000260
0.000277
0.000260
0.000278
0.001797
0.000220
0.000254
0.000275
0.000235
0.000203
0.000056
0.000279
0.000360
0.000224
0.000220
0.000244
0.000227
0.000245
0.000264
0.000240
0.000227
0.000228
0.000262
0.000267
0.000456
0.000301
0.000393
0.000255
0.000245
0.000255
0.000245
0.000267
0.000258
0.000250
0.000273
0.000254
0.000255
0.000419
0.001533
0.000257
0.000241
0.000190
0.000056
0.000196
0.000235
0.000252
0.000261
0.000343
0.000330
0.000495
0.000259
0.000211
0.000256
0.000267
0.000230
0.000244
0.000255
0.000261
0.000253
0.000251
0.000254
0.000255
0.000257
0.000269
0.000267
0.000248
0.000242
0.000238
0.000275
0.000286
0.000253
0.000253
0.000262
0.000195
0.000057
0.000218
0.000235
0.000258
0.000274
0.000234
0.000232
0.000244
0.000260
0.000276
0.000248
0.000238
0.000238
0.000255
0.000247
0.000297
0.000237
0.000251
0.000250
0.000302
0.000252
0.000279
0.000317
0.000268
0.000219
0.000306
0.000248
0.000271
0.000252
0.000294
0.000477
0.000633
0.000056
0.000224
0.000292
0.000218
0.000222
0.000254
0.000244
0.000243
0.000247
0.000246
0.000249
0.000266
0.000288
0.000530
0.000419
0.001563
0.000233
0.000484
0.000239
0.000395
0.000330
0.000436
0.000360
0.000233
0.000283
0.000242
0.000264
0.000281
0.000251
0.000309
0.000276
0.000163
0.000056
0.000372
0.000405
0.000345
0.000302
0.000229
0.000273
0.000224
0.000241
0.000243
0.000239
0.000254
0.000257
0.000232
0.000393
0.000218
0.000528
0.000378
0.001808
0.000220
0.000257
0.000347
0.000411
0.000456
0.000289
0.000314
0.000326
0.000297
0.000227
0.000238
0.000254
0.000191
0.000058
0.000218
0.000226
0.000241
0.000281
0.000371
0.000478
0.000306
0.000254
0.000255
0.000214
0.000251
0.000269
0.000265
0.000260
0.000246
0.000260
0.000306
0.000492
0.000323
0.000447
0.000235
0.001755
0.000314
0.000503
0.000478
0.000500
0.000316
0.000226
0.000258
0.000274
0.000447
0.000057
0.000192
0.000276
0.000213
0.000382
0.000319
0.000509
0.000355
0.000209
0.000268
0.000281
0.000217
0.000263
0.000252
0.000295
0.000307
0.000235
0.000239
0.000395
0.000515
0.000278
0.000498
0.001857
0.000243
0.000474
0.000476
0.000346
0.000226
0.000262
0.000287
0.000256
0.000214
0.000056
0.000196
0.000335
0.000362
0.000373
0.000349
0.000291
0.000377
0.000214
0.000240
0.000256
0.000278
0.000220
0.000255
0.000266
0.000240
0.000257
0.000326
0.000444
0.000433
0.000382
0.000282
0.000241
0.000253
0.001731
0.000445
0.000477
0.000681
0.000230
0.000265
0.000316
0.000156
0.000056
0.000210
0.000250
0.000326
0.000235
0.000279
0.000322
0.000501
0.000258
0.000238
0.000537
0.000212
0.000262
0.000258
0.000277
0.000291
0.000245
0.000217
0.000291
0.000579
0.000381
0.000265
0.000232
0.000252
0.000252
0.000268
0.000264
0.000236
0.000258
0.000280
0.000273
0.000203
0.000056
0.000293
0.000366
0.000204
0.000256
0.000248
0.000256
0.000247
0.000286
0.000230
0.000248
0.000287
0.000327
0.000437
0.000449
0.000282
0.000279
0.000224
0.000234
0.000258
0.000265
0.000287
0.000257
0.000240
0.000262
0.000294
0.000289
0.000376
0.000416
0.000358
0.000234
0.000178
0.000057
0.000211
0.000223
0.000281
0.000240
0.000236
0.000273
0.000261
0.000233
0.000492
0.000219
0.000250
0.000262
0.000240
0.000264
0.000275
0.000289
0.000242
0.000354
0.000217
0.000232
0.000255
0.000285
0.000242
0.000271
0.000276
0.000260
0.000261
0.000255
0.000264
0.000491
0.000164
0.000057
0.000210
0.000238
0.000250
0.000288
0.000216
0.000229
0.000359
0.000409
0.000236
0.000240
0.000247
0.000260
0.000235
0.000323
0.000316
0.001864
0.000218
0.000264
0.000290
0.000328
0.000407
0.000366
0.000367
0.000412
0.000398
0.000383
0.000225
0.000278
0.000268
0.000278
0.001398
0.000055
0.000186
0.000294
0.000290
0.000205
0.000239
0.000244
0.000234
0.000254
0.000246
0.000271
0.000244
0.000262
0.000247
0.000336
0.000506
0.001622
0.000235
0.000235
0.000248
0.000265
0.000237
0.000262
0.000410
0.000367
0.000274
0.000351
0.000229
0.000257
0.000286
0.000258
0.000182
0.000056
0.001186
0.000518
0.000342
0.000269
0.000244
0.000218
0.000233
0.000239
0.000495
0.000217
0.000237
0.000250
0.000386
0.000480
0.000390
0.000353
0.000254
0.000221
0.000336
0.000360
0.000269
0.000255
0.000270
0.000247
0.000275
0.000555
0.000573
0.000254
0.000264
0.000262
0.000172
0.000056
0.000201
0.000218
0.000243
0.000241
0.001525
0.000247
0.000224
0.000254
0.000259
0.000256
0.000226
0.000256
0.000240
0.000263
0.000272
0.000348
0.000400
0.000619
0.000271
0.001757
0.000244
0.000290
0.000272
0.000485
0.000505
0.000405
0.000256
0.000246
0.000261
0.000267
0.000194
0.000056
0.000224
0.000235
0.000231
0.000269
0.001304
0.000235
0.000257
0.000259
0.000240
0.000232
0.000239
0.000254
0.000280
0.000248
0.000243
0.000305
0.000467
0.000465
0.000261
0.000259
0.000263
0.000278
0.000247
0.000247
0.000272
0.000272
0.000239
0.000277
0.000271
0.000490
0.000418
0.000056
0.000230
0.000245
0.000236
0.000258
0.000264
0.000241
0.000242
0.000254
0.000273
0.000275
0.001413
0.000225
0.000236
0.000247
0.000252
0.000241
0.000296
0.000243
0.000282
0.000244
0.000326
0.000428
0.000534
0.000312
0.000221
0.000277
0.001775
0.000265
0.000239
0.000328
0.000476
0.000055
0.000198
0.000404
0.000449
0.000522
0.000494
0.000560
0.001477
0.000419
0.000524
0.000652
0.000547
0.000637
0.000566
0.000608
0.000582
0.001900
0.000346
0.000492
0.000387
0.000323
0.000223
0.000277
0.000299
0.000253
0.000253
0.000294
0.000292
0.000286
0.000264
0.000284
0.001367
0.000055
0.000211
0.000222
0.000244
0.000236
0.000266
0.000261
0.000230
0.000238
0.000246
0.000253
0.000238
0.000243
0.000255
0.000255
0.000269
0.000260
0.001827
0.000249
0.000268
0.000246
0.000263
0.000265
0.000261
0.000325
0.000349
0.000449
0.000343
0.000240
0.000250
0.000281
0.000208
0.000058
0.000189
0.001359
0.000337
0.000274
0.000249
0.000235
0.000276
0.000226
0.000212
0.000236
0.000223
0.000241
0.000257
0.000501
0.000364
0.000301
0.000245
0.001832
0.000344
0.000228
0.000261
0.000255
0.000266
0.000254
0.000270
0.000288
0.000275
0.000243
0.000279
0.000334
0.000180
0.000058
0.000203
0.000242
0.000253
0.001443
0.000209
0.000251
0.000253
0.000242
0.000234
0.000275
0.000258
0.000236
0.000243
0.000286
0.000234
0.000260
0.000260
0.000270
0.000267
0.000254
0.000260
0.001785
0.000255
0.001768
0.000259
0.000263
0.000263
0.000263
0.000265
0.000276
0.000201
0.000056
0.000201
0.000239
0.001345
0.000231
0.000253
0.000244
0.000257
0.000253
0.000252
0.000247
0.000253
0.000242
0.000255
0.000267
0.000253
0.000265
0.000263
0.000289
0.000288
0.000223
0.001893
0.000227
0.001836
0.000230
0.000270
0.000272
0.000232
0.000246
0.000257
0.000275
0.000192
0.000056
0.001457
0.000219
0.000222
0.000245
0.000234
0.000245
0.000373
0.000277
0.000238
0.000252
0.000257
0.000260
0.000247
0.000423
0.000361
0.000269
0.000228
0.000271
0.000262
0.000252
0.000278
0.000340
0.000220
0.000254
0.000267
0.000275
0.000274
0.000397
0.000572
0.000375
0.000198
0.000058
0.000208
0.000261
0.000270
0.000283
0.000358
0.000255
0.001704
0.000299
0.000279
0.000269
0.000257
0.000289
0.000265
0.000273
0.000277
0.000311
0.000422
0.000526
0.000337
0.000262
0.000300
0.000279
0.000258
0.000277
0.000324
0.000260
0.000262
0.000255
0.000260
0.000301
0.000449
0.000057
0.000261
0.000462
0.000267
0.000269
0.000253
0.000225
0.000217
0.000250
0.000264
0.000271
0.001505
0.000207
0.000235
0.000245
0.000249
0.000289
0.000289
0.000236
0.000256
0.000262
0.000268
0.000298
0.000586
0.000338
0.000264
0.000290
0.000269
0.000251
0.000240
0.000313
0.000175
0.000056
0.000201
0.000231
0.000285
0.000476
0.000362
0.000266
0.000214
0.000251
0.000252
0.000246
0.000237
0.000277
0.000238
0.000267
0.000234
0.000239
0.000389
0.001218
0.000243
0.000254
0.000278
0.000248
0.000376
0.000398
0.000250
0.000259
0.000643
0.000371
0.000360
0.000224
0.000196
0.000056
0.000231
0.000244
0.000262
0.000263
0.000255
0.000242
0.000346
0.000414
0.000459
0.000252
0.000357
0.000402
0.000387
0.000363
0.000260
0.000241
0.000236
0.000257
0.000426
0.000428
0.001268
0.000229
0.000274
0.000277
0.000227
0.000257
0.000248
0.000288
0.000442
0.000461
0.000224
0.000056
0.000195
0.000250
0.000254
0.000243
0.000242
0.000246
0.000235
0.000284
0.000282
0.000360
0.000394
0.000389
0.000248
0.000242
0.000249
0.000265
0.000245
0.000261
0.000262
0.000277
0.000419
0.000276
0.000327
0.000449
0.000310
0.000249
0.000273
0.000267
0.000254
0.000335
0.000164
0.000056
0.000313
0.000314
0.000304
0.000447
0.000410
0.000333
0.000247
0.000243
0.000244
0.000272
0.000252
0.000264
0.000238
0.000253
0.000242
0.000225
0.000279
0.000348
0.000472
0.000372
0.000227
0.000268
0.000243
0.000251
0.000268
0.000289
0.000260
0.000282
0.000267
0.000259
0.000339
0.000057
0.000306
0.000321
0.000242
0.000265
0.000228
0.000248
0.000240
0.000255
0.000264
0.000254
0.000256
0.000235
0.000291
0.000513
0.000436
0.000270
0.000238
0.000246
0.000256
0.000264
0.000258
0.000268
0.000252
0.000268
0.000269
0.000306
0.000401
0.000639
0.000393
0.000257
0.000154
0.000055
0.000395
0.000195
0.000228
0.000247
0.000245
0.000244
0.000235
0.000256
0.000264
0.000255
0.000222
0.000241
0.000282
0.000216
0.000242
0.000269
0.000254
0.000258
0.000298
0.000240
0.000261
0.000257
0.000267
0.000264
0.000266
0.000235
0.000261
0.000277
0.000255
0.000282
0.000204
0.000056
0.000205
0.000233
0.000243
0.000248
0.000228
0.000256
0.000267
0.000240
0.000262
0.000272
0.000234
0.000230
0.000260
0.000399
0.000251
0.000296
0.000249
0.000268
0.000248
0.000280
0.000275
0.000247
0.000229
0.000259
0.000266
0.000272
0.000255
0.000255
0.000266
0.000262
0.000204
0.000056
0.000209
0.000355
0.000371
0.000280
0.000297
0.000259
0.000262
0.000268
0.000217
0.000254
0.000267
0.000238
0.000247
0.000236
0.000256
0.000282
0.000241
0.000269
0.000242
0.000267
0.000282
0.000259
0.000278
0.000253
0.000289
0.000286
0.000202
0.000269
0.000276
0.000261
0.000192
0.000055
0.000216
0.000233
0.000266
0.000278
0.000238
0.000445
0.000206
0.000274
0.000248
0.000481
0.000480
0.000275
0.000229
0.000245
0.000280
0.000259
0.000251
0.000258
0.000253
0.000269
0.000267
0.000258
0.000264
0.000260
0.000546
0.000476
0.000298
0.000296
0.000258
0.000277
0.000177
0.000057
0.000209
0.000213
0.000249
0.000253
0.000449
0.000547
0.000285
0.000389
0.000210
0.000250
0.000247
0.000257
0.000249
0.000247
0.000253
0.000270
0.000273
0.000264
0.000636
0.000360
0.000304
0.000243
0.000254
0.000282
0.000297
0.000240
0.000269
0.000283
0.000227
0.000332
0.000299
0.000056
0.000292
0.000235
0.000241
0.000240
0.000256
0.000261
0.000235
0.000230
0.000245
0.000256
0.000249
0.000250
0.000245
0.000373
0.000588
0.000382
0.000248
0.000260
0.000262
0.000245
0.000266
0.000287
0.000479
0.000216
0.000266
0.000667
0.000324
0.000508
0.000248
0.000249
0.000190
0.000055
0.000223
0.000250
0.000221
0.000238
0.000259
0.000255
0.000406
0.000340
0.000580
0.000428
0.000216
0.000259
0.000279
0.000277
0.000250
0.000250
0.000249
0.000235
0.000256
0.000346
0.000381
0.000662
0.000360
0.000260
0.000352
0.000383
0.000487
0.000257
0.000245
0.000484
0.000303
0.000056
0.000280
0.000233
0.000435
0.000218
0.000232
0.000277
0.000243
0.000260
0.000230
0.000243
0.000254
0.000399
0.000382
0.000338
0.000221
0.000252
0.000266
0.000251
0.000266
0.000274
0.000272
0.000254
0.000250
0.000268
0.000297
0.000514
0.000479
0.000239
0.000257
0.000270
0.000196
0.000056
0.000210
0.000267
0.000209
0.000243
0.000250
0.000264
0.000414
0.000314
0.000464
0.000266
0.000378
0.000227
0.000248
0.000267
0.000256
0.000239
0.000312
0.000212
0.000316
0.000396
0.000439
0.000351
0.000476
0.000298
0.000368
0.000404
0.000402
0.000232
0.000247
0.000314
0.000428
0.000057
0.000262
0.000275
0.000225
0.000252
0.000257
0.000259
0.000248
0.000245
0.000299
0.000224
0.000231
0.000383
0.000419
0.000388
0.000361
0.000224
0.000269
0.000267
0.000266
0.000230
0.000250
0.000251
0.000290
0.000260
0.000271
0.000353
0.000481
0.000466
0.000234
0.000284
0.000186
0.000057
0.000197
0.000244
0.000277
0.000245
0.000244
0.000340
0.000500
0.000479
0.000346
0.000690
0.000258
0.000218
0.000241
0.000265
0.000239
0.000285
0.000267
0.000271
0.000477
0.000489
0.001438
0.000313
0.000262
0.000286
0.000268
0.000263
0.000423
0.000409
0.000338
0.000304
0.000179
0.000057
0.000204
0.000232
0.000242
0.000268
0.000230
0.000249
0.000320
0.000205
0.000244
0.000327
0.000328
0.000385
0.000271
0.000330
0.000395
0.000346
0.000253
0.000248
0.000267
0.000275
0.000225
0.000249
0.000306
0.000220
0.000324
0.000437
0.000431
0.000293
0.000248
0.000266
0.000184
0.000056
0.000222
0.000245
0.000256
0.000257
0.000237
0.000236
0.000476
0.000209
0.000234
0.000252
0.000249
0.000249
0.000265
0.000258
0.000244
0.000271
0.000263
0.000290
0.000249
0.000252
0.000283
0.000265
0.000297
0.000244
0.000262
0.000281
0.000266
0.000265
0.000260
0.000276
0.000172
0.000056
0.000219
0.000245
0.000413
0.000289
0.000391
0.000244
0.000238
0.000245
0.000262
0.000246
0.000251
0.000252
0.000264
0.000263
0.000253
0.000228
0.000265
0.000252
0.000287
0.000411
0.000431
0.000326
0.000227
0.000266
0.000262
0.000257
0.000272
0.000250
0.000290
0.000262
0.000198
0.000057
0.000336
0.000379
0.000438
0.000212
0.000253
0.000252
0.000417
0.000226
0.000224
0.000255
0.000253
0.000294
0.000367
0.000422
0.001865
0.000252
0.000247
0.000251
0.000292
0.000229
0.000324
0.000488
0.000668
0.000205
0.000234
0.000268
0.000272
0.000426
0.000281
0.000280
0.000159
0.000058
0.000218
0.000357
0.000332
0.000331
0.000493
0.000203
0.000239
0.000254
0.000249
0.000234
0.000269
0.000244
0.000264
0.000302
0.000438
0.000458
0.000234
0.000238
0.000255
0.000265
0.000265
0.000317
0.000233
0.000277
0.000281
0.000466
0.000492
0.000414
0.000442
0.000229
0.000204
0.000058
0.000218
0.000233
0.000262
0.000230
0.000246
0.000252
0.000266
0.000306
0.000358
0.000324
0.000440
0.000345
0.000204
0.000263
0.000268
0.000295
0.000294
0.000234
0.000279
0.000269
0.000257
0.000314
0.000488
0.000328
0.000285
0.000263
0.000259
0.000454
0.000394
0.000304
0.000180
0.000056
0.000198
0.000254
0.000342
0.000440
0.000346
0.000209
0.000227
0.000259
0.000263
0.000263
0.000254
0.000250
0.000235
0.000251
0.000262
0.000268
0.000439
0.000356
0.000304
0.000322
0.000493
0.000228
0.000277
0.000274
0.000301
0.000283
0.000255
0.000329
0.000404
0.000516
0.000198
0.000057
0.000200
0.000227
0.000248
0.000248
0.000241
0.000477
0.000217
0.000254
0.000268
0.000323
0.000499
0.000593
0.000204
0.000241
0.000243
0.000249
0.000258
0.000268
0.000237
0.000254
0.000287
0.000246
0.000401
0.000401
0.000336
0.000402
0.000289
0.000308
0.000322
0.000248
0.000187
0.000056
0.000226
0.000231
0.000253
0.000532
0.000289
0.000288
0.000257
0.000224
0.000246
0.000271
0.000241
0.000260
0.000262
0.000249
0.000242
0.000260
0.000249
0.000247
0.000282
0.000388
0.000419
0.000457
0.000235
0.000248
0.000293
0.000265
0.000260
0.000256
0.000264
0.000262
0.000199
0.000056
0.000289
0.000308
0.000475
0.000239
0.000223
0.000255
0.000305
0.000458
0.000295
0.000208
0.000240
0.000278
0.000255
0.000519
0.000363
0.000311
0.000224
0.000228
0.000253
0.000261
0.000274
0.000264
0.000261
0.000278
0.000249
0.000312
0.000351
0.000472
0.000287
0.000252
0.000176
0.000056
0.000235
0.000236
0.000248
0.000254
0.000253
0.000265
0.000229
0.000266
0.000255
0.000234
0.000287
0.000221
0.000288
0.001430
0.000229
0.000243
0.000267
0.000240
0.000273
0.000283
0.000265
0.000253
0.000262
0.000254
0.000272
0.000264
0.000269
0.000273
0.000271
0.000256
0.000191
0.000057
0.000194
0.000228
0.000251
0.000268
0.000221
0.000245
0.000260
0.000261
0.000226
0.000245
0.000249
0.000263
0.000256
0.000251
0.000254
0.000264
0.000250
0.000255
0.000279
0.000246
0.000258
0.000265
0.000244
0.000253
0.001295
0.000272
0.000605
0.000357
0.000382
0.000239
0.000194
0.000057
0.000201
0.000233
0.000239
0.000251
0.000422
0.000235
0.000240
0.000239
0.000252
0.000408
0.000395
0.000354
0.000255
0.000209
0.000256
0.000261
0.000257
0.000266
0.000244
0.000261
0.000257
0.000256
0.000252
0.000456
0.000505
0.000446
0.000211
0.000270
0.001369
0.000244
0.000183
0.000056
0.000286
0.000446
0.000312
0.000274
0.000229
0.000215
0.000226
0.000250
0.000259
0.000261
0.000241
0.000264
0.000296
0.000319
0.000506
0.000347
0.000353
0.000220
0.000245
0.000262
0.000266
0.000289
0.000247
0.000265
0.000267
0.000255
0.000310
0.000564
0.000397
0.000370
0.000138
0.000058
0.000201
0.000219
0.001262
0.000427
0.000311
0.000492
0.000356
0.000463
0.000265
0.000346
0.000224
0.000223
0.000262
0.000254
0.000254
0.000264
0.000351
0.000513
0.000353
0.000382
0.000261
0.000246
0.000264
0.000506
0.000222
0.000261
0.000255
0.000284
0.000334
0.000546
0.000263
0.000056
0.000373
0.000311
0.000234
0.000229
0.001468
0.000573
0.000300
0.000227
0.000246
0.000250
0.000251
0.000221
0.000243
0.000273
0.000250
0.000259
0.000240
0.000259
0.000407
0.000460
0.000390
0.000238
0.000255
0.000255
0.000286
0.000254
0.000268
0.000238
0.000267
0.000277
0.000195
0.000056
0.000397
0.000329
0.000212
0.000238
0.000256
0.000235
0.000260
0.000238
0.000244
0.000220
0.001387
0.000503
0.000256
0.000249
0.000232
0.000261
0.000273
0.000276
0.000220
0.000304
0.000245
0.000250
0.000254
0.000425
0.000471
0.000403
0.000222
0.000268
0.000273
0.000287
0.000170
0.000057
0.000201
0.000412
0.000221
0.000244
0.000402
0.000367
0.000451
0.000245
0.000463
0.000206
0.000231
0.000252
0.000264
0.000268
0.000254
0.001395
0.000382
0.000285
0.000243
0.000267
0.000306
0.000226
0.000270
0.000240
0.000257
0.000267
0.000416
0.000487
0.000291
0.000266
0.000162
0.000056
0.000222
0.000231
0.000260
0.000236
0.000229
0.000262
0.000240
0.000246
0.000280
0.000413
0.000440
0.000240
0.000251
0.000247
0.000246
0.000272
0.000278
0.000258
0.000272
0.000232
0.000261
0.000333
0.001221
0.000254
0.000243
0.000265
0.000258
0.000266
0.000259
0.000262
0.000187
0.000057
0.000235
0.000397
0.000305
0.000343
0.000241
0.000242
0.000257
0.000293
0.000237
0.000255
0.000242
0.000266
0.000243
0.000263
0.000245
0.000272
0.000258
0.000267
0.000269
0.000249
0.000254
0.000265
0.000260
0.000283
0.000291
0.000267
0.000273
0.000259
0.000263
0.000461
0.001350
0.000059
0.000195
0.000247
0.000223
0.000262
0.000233
0.000254
0.000247
0.000230
0.000242
0.000251
0.000290
0.000247
0.000248
0.000243
0.000273
0.000224
0.001726
0.000259
0.000246
0.000255
0.000250
0.000259
0.000276
0.000255
0.000295
0.000238
0.000267
0.000272
0.000271
0.000265
0.000214
0.000056
0.000286
0.000280
0.001336
0.000230
0.000223
0.000253
0.000253
0.000249
0.000277
0.000241
0.000234
0.000358
0.000382
0.000509
0.000205
0.000221
0.000259
0.000252
0.000263
0.000262
0.000243
0.000276
0.000261
0.000286
0.000256
0.000477
0.000273
0.000391
0.000305
0.000240
0.000195
0.000057
0.000222
0.000249
0.000247
0.000249
0.000278
0.000200
0.000238
0.000281
0.000419
0.001317
0.000264
0.000206
0.000252
0.000280
0.000243
0.000291
0.000235
0.000245
0.000319
0.000415
0.000352
0.000293
0.000244
0.000239
0.000284
0.000275
0.000265
0.000294
0.000268
0.000275
0.000196
0.000057
0.000225
0.000468
0.000365
0.000209
0.000240
0.000231
0.000247
0.000284
0.000260
0.000253
0.000228
0.000251
0.000443
0.000510
0.000461
0.001463
0.000240
0.000282
0.000314
0.000349
0.000477
0.000479
0.000438
0.000382
0.000228
0.000263
0.000272
0.000272
0.000264
0.000277
0.000204
0.000057
0.000207
0.000240
0.000523
0.000431
0.000337
0.000234
0.000250
0.000244
0.000236
0.000272
0.000230
0.000270
0.000280
0.000221
0.000271
0.000327
0.000359
0.000417
0.000349
0.001326
0.000265
0.000258
0.000249
0.000267
0.000453
0.000495
0.000371
0.000210
0.000277
0.000273
0.000190
0.000056
0.000208
0.000239
0.000244
0.000268
0.000230
0.000270
0.000447
0.000455
0.000312
0.000217
0.000257
0.000246
0.000275
0.000282
0.000237
0.000256
0.000263
0.000259
0.000284
0.000284
0.000506
0.000364
0.000312
0.001348
0.000413
0.000238
0.000262
0.000514
0.000357
0.000452
0.000207
0.000056
0.000187
0.000230
0.000252
0.000249
0.000249
0.000251
0.001685
0.000273
0.000186
0.000234
0.000258
0.000248
0.000254
0.000325
0.000326
0.000285
0.000268
0.000386
0.000400
0.000424
0.000314
0.000283
0.000237
0.000239
0.001499
0.000335
0.000412
0.000474
0.000321
0.000317
0.000155
0.000056
0.000200
0.000247
0.000259
0.000256
0.000242
0.000264
0.001705
0.000240
0.000235
0.000267
0.000322
0.000399
0.001455
0.000367
0.000387
0.000244
0.000258
0.000230
0.000280
0.000265
0.001660
0.000484
0.000369
0.000285
0.000225
0.000257
0.000256
0.000285
0.000248
0.000244
0.000195
0.000056
0.000195
0.000238
0.000271
0.000240
0.000266
0.000289
0.000263
0.000262
0.000243
0.000280
0.000229
0.000248
0.000290
0.000238
0.000249
0.001504
0.000283
0.000231
0.000265
0.000279
0.000267
0.000260
0.001464
0.000307
0.000204
0.000229
0.000277
0.000257
0.000401
0.000237
0.000213
0.000057
0.000206
0.000253
0.000222
0.000247
0.000239
0.000231
0.000234
0.001690
0.000265
0.000218
0.000349
0.000266
0.000230
0.000221
0.000257
0.001383
0.000242
0.000258
0.000274
0.000238
0.000269
0.000345
0.000293
0.001327
0.000264
0.000232
0.000260
0.000263
0.001390
0.000273
0.000211
0.000056
0.000330
0.000269
0.000207
0.000233
0.000270
0.000229
0.000283
0.000249
0.000267
0.000261
0.000242
0.000271
0.000248
0.000239
0.000323
0.001515
0.000227
0.000272
0.000257
0.000240
0.000281
0.000267
0.000242
0.001511
0.000342
0.000241
0.000277
0.001281
0.000265
0.000243
0.000204
0.000057
0.000322
0.000300
0.000329
0.000215
0.000230
0.000240
0.000268
0.000254
0.000264
0.000275
0.000228
0.000259
0.000262
0.000294
0.000412
0.001201
0.000250
0.000238
0.000264
0.000277
0.000243
0.000231
0.000244
0.000327
0.001305
0.000217
0.000251
0.000259
0.000257
0.001344
0.000393
0.000056
0.000335
0.000272
0.000199
0.000230
0.000242
0.000262
0.000236
0.000244
0.000302
0.000237
0.000243
0.000244
0.000242
0.000377
0.000358
0.001483
0.000226
0.000242
0.000300
0.000517
0.000294
0.000437
0.001292
0.000307
0.000228
0.000271
0.000248
0.001306
0.000302
0.000470
0.000357
0.000056
0.000205
0.000251
0.000253
0.000255
0.000256
0.000253
0.000273
0.000277
0.000232
0.000262
0.000368
0.000380
0.001379
0.000224
0.000274
0.000263
0.000276
0.000242
0.000230
0.000234
0.000366
0.001221
0.000251
0.000242
0.000261
0.000254
0.001552
0.000366
0.000497
0.000218
0.000191
0.000055
0.000203
0.000227
0.000250
0.000237
0.000256
0.000264
0.000239
0.000274
0.000419
0.000485
0.000257
0.001497
0.000221
0.000233
0.000264
0.000253
0.000280
0.000338
0.001629
0.000247
0.000389
0.000342
0.001312
0.000336
0.000297
0.000325
0.000274
0.000243
0.000267
0.000270
0.000188
0.000055
0.000217
0.000238
0.000334
0.000252
0.000280
0.000600
0.000256
0.000284
0.001478
0.000239
0.000376
0.000270
0.000224
0.000357
0.000344
0.001306
0.000271
0.000240
0.000241
0.000264
0.001523
0.000421
0.000257
0.000275
0.000248
0.000250
0.000452
0.000338
0.000255
0.000227
0.000266
0.000055
0.000267
0.000395
0.000309
0.000237
0.000232
0.001517
0.000205
0.000260
0.000271
0.000270
0.000278
0.000231
0.000287
0.001497
0.000259
0.000226
0.000436
0.001193
0.000331
0.000475
0.000376
0.000231
0.000241
0.000253
0.000301
0.000224
0.000454
0.000226
0.000269
0.000282
0.000196
0.000056
0.000214
0.000230
0.000410
0.000314
0.001321
0.000278
0.000336
0.000226
0.000225
0.000250
0.000248
0.000345
0.001471
0.000255
0.000223
0.000250
0.001392
0.000294
0.000412
0.000396
0.000409
0.000225
0.000254
0.000256
0.000269
0.000272
0.000259
0.000269
0.000270
0.000253
0.000194
0.000056
0.000200
0.000414
0.001452
0.000208
0.000273
0.000302
0.000219
0.000252
0.000255
0.000385
0.001392
0.000204
0.000268
0.000258
0.000258
0.001306
0.000643
0.000299
0.000326
0.000415
0.000299
0.000254
0.000266
0.000253
0.000265
0.000294
0.000293
0.000273
0.000432
0.000432
0.001393
0.000057
0.000207
0.000240
0.000242
0.000225
0.000264
0.000407
0.000533
0.001233
0.000250
0.000240
0.000246
0.001418
0.000410
0.000369
0.000228
0.000413
0.000246
0.000230
0.000265
0.000296
0.000247
0.000257
0.000284
0.000255
0.000246
0.000270
0.000444
0.000480
0.001510
0.000229
0.000185
0.000056
0.000214
0.000270
0.000375
0.000502
0.001236
0.000300
0.000230
0.000258
0.000248
0.000252
0.000252
0.000275
0.000376
0.000507
0.000298
0.000238
0.000255
0.000273
0.000244
0.000306
0.000229
0.000266
0.000257
0.000269
0.000307
0.000398
0.000466
0.000284
0.000333
0.001408
0.000176
0.000056
0.000211
0.000231
0.000285
0.000506
0.000278
0.000310
0.000314
0.000331
0.000294
0.000256
0.000237
0.000259
0.000251
0.000313
0.000232
0.000276
0.000616
0.000282
0.000292
0.000377
0.000277
0.000409
0.000226
0.000236
0.000268
0.000266
0.000256
0.000305
0.000342
0.000509
0.000279
0.000057
0.000193
0.001412
0.000223
0.000338
0.000492
0.000358
0.000452
0.000228
0.000209
0.000244
0.000263
0.000249
0.000283
0.000249
0.000265
0.000255
0.000266
0.001357
0.000261
0.000248
0.000249
0.000275
0.000275
0.000279
0.000262
0.000259
0.000277
0.000244
0.000431
0.000351
0.000223
0.000057
0.000199
0.000232
0.000232
0.001499
0.000330
0.000243
0.000221
0.000248
0.000237
0.000246
0.000245
0.000286
0.000238
0.000252
0.000299
0.000226
0.000248
0.000265
0.000258
0.000259
0.001429
0.000229
0.000263
0.000264
0.000261
0.000250
0.000266
0.000258
0.000281
0.000487
0.000351
0.000055
0.000211
0.000248
0.000385
0.000283
0.000241
0.000254
0.001521
0.000373
0.000286
0.000212
0.000260
0.000316
0.000330
0.000226
0.000229
0.000250
0.000244
0.000263
0.000270
0.000254
0.000512
0.000454
0.001186
0.000242
0.000227
0.000259
0.000278
0.000250
0.000298
0.000237
0.000381
0.000056
0.000418
0.000208
0.000215
0.000235
0.000250
0.000239
0.000247
0.000225
0.000294
0.001610
0.000377
0.000276
0.000229
0.000260
0.000255
0.000249
0.000257
0.000271
0.000281
0.000293
0.000314
0.000472
0.000458
0.001380
0.000224
0.000271
0.000257
0.000256
0.000273
0.000346
0.000416
0.000056
0.000273
0.000270
0.000219
0.000254
0.000200
0.000242
0.000266
0.000280
0.000258
0.001591
0.000335
0.000259
0.000239
0.000265
0.000458
0.000251
0.000545
0.000374
0.000282
0.000265
0.000484
0.000474
0.001325
0.000226
0.000233
0.000255
0.001768
0.000391
0.000618
0.000323
0.000141
0.000056
0.000191
0.000227
0.000240
0.000235
0.000257
0.000241
0.000248
0.000586
0.000418
0.000416
0.000299
0.000197
0.000252
0.000256
0.000286
0.000262
0.000244
0.000236
0.000256
0.000284
0.000261
0.000419
0.001342
0.000228
0.000265
0.000248
0.001907
0.000384
0.000389
0.000343
0.000152
0.000056
0.000235
0.000239
0.000250
0.001583
0.000411
0.000208
0.000238
0.000263
0.000250
0.000279
0.000372
0.000376
0.000361
0.000281
0.000329
0.000495
0.000373
0.001211
0.000263
0.000233
0.000257
0.000268
0.000276
0.000398
0.000675
0.000402
0.000259
0.000263
0.000283
0.000268
0.000188
0.000055
0.000205
0.000221
0.000246
0.001550
0.000250
0.000229
0.000242
0.000250
0.000240
0.000254
0.000257
0.000269
0.000266
0.000284
0.000238
0.000373
0.000468
0.000311
0.001402
0.000227
0.000266
0.000262
0.000253
0.000299
0.000346
0.000479
0.000449
0.000267
0.000288
0.000223
0.000459
0.000056
0.000204
0.000262
0.000243
0.001528
0.000296
0.000221
0.000269
0.000238
0.000255
0.000256
0.000259
0.000271
0.000236
0.000291
0.000348
0.000546
0.001373
0.000752
0.000253
0.000342
0.000235
0.000252
0.000240
0.000279
0.001679
0.000807
0.000226
0.000263
0.000279
0.000284
0.000184
0.000056
0.000193
0.000234
0.000254
0.000245
0.000268
0.000264
0.000213
0.000256
0.000238
0.000247
0.000276
0.000285
0.000247
0.000246
0.000262
0.000250
0.000272
0.001605
0.000695
0.000393
0.000298
0.000229
0.000248
0.000311
0.000245
0.000255
0.000270
0.000257
0.001389
0.000399
0.000364
0.000056
0.000189
0.000231
0.000267
0.000235
0.000262
0.000232
0.000275
0.000232
0.000254
0.000276
0.000238
0.000635
0.000253
0.000324
0.000205
0.000257
0.000263
0.001393
0.000690
0.000460
0.000384
0.000241
0.000221
0.000254
0.000273
0.000259
0.000254
0.000260
0.001492
0.000403
0.000224
0.000056
0.000201
0.000223
0.000247
0.000253
0.000251
0.000240
0.000241
0.000248
0.000272
0.000256
0.000423
0.000308
0.000361
0.000212
0.000239
0.000245
0.000271
0.000251
0.001584
0.000665
0.000473
0.000262
0.000227
0.000256
0.000262
0.000262
0.000265
0.000279
0.000266
0.001391
0.000296
0.000056
0.000194
0.000223
0.000230
0.000260
0.000255
0.000244
0.000255
0.000309
0.000354
0.000430
0.000411
0.000386
0.000338
0.000214
0.000239
0.000253
0.000298
0.000241
0.000266
0.001935
0.000318
0.000254
0.000425
0.000239
0.000247
0.000265
0.000269
0.000259
0.000274
0.000275
0.000296
0.000072
0.000286
0.000205
0.000240
0.000247
0.000251
0.000251
0.000222
0.000245
0.000271
0.000265
0.000231
0.000230
0.000396
0.000303
0.000500
0.000441
0.000226
0.000266
0.000256
0.000249
0.000254
0.000282
0.001476
0.001053
0.000227
0.000241
0.000266
0.000268
0.000277
0.000247
0.000202
0.000055
0.000217
0.001350
0.000282
0.000216
0.000224
0.000259
0.000260
0.000234
0.000236
0.000266
0.000246
0.000265
0.000240
0.000394
0.000349
0.000502
0.000228
0.000250
0.000264
0.000272
0.000277
0.000219
0.000265
0.000259
0.001327
0.000681
0.000305
0.000380
0.000374
0.000402
0.000303
0.000056
0.000219
0.000248
0.000348
0.001315
0.000204
0.000255
0.000235
0.000260
0.000252
0.000259
0.000250
0.000245
0.000278
0.000340
0.000606
0.000288
0.000204
0.000277
0.000335
0.000206
0.000248
0.000278
0.000237
0.000269
0.000264
0.001542
0.000743
0.000316
0.000258
0.000268
0.000194
0.000056
0.000198
0.000232
0.000483
0.000331
0.001294
0.000242
0.000227
0.000241
0.000235
0.000248
0.000250
0.000259
0.000232
0.000240
0.000252
0.000256
0.000269
0.000233
0.000262
0.000249
0.000272
0.000267
0.000303
0.000335
0.000213
0.000266
0.000266
0.001467
0.000265
0.000224
0.000179
0.000055
0.000208
0.000237
0.000246
0.000303
0.000309
0.000373
0.000396
0.000277
0.001587
0.000214
0.000331
0.000460
0.000353
0.000237
0.000443
0.000238
0.000236
0.000264
0.000266
0.000269
0.000280
0.000268
0.000254
0.000271
0.000243
0.000415
0.000449
0.000283
0.001588
0.000215
0.000199
0.000056
0.000225
0.000243
0.000248
0.000251
0.000234
0.000249
0.000259
0.000313
0.000410
0.002035
0.000223
0.000250
0.000254
0.000257
0.000263
0.000302
0.000218
0.000259
0.000258
0.000462
0.000457
0.000333
0.001465
0.000240
0.000279
0.001976
0.000278
0.000243
0.000251
0.001538
0.000165
0.000055
0.000465
0.000374
0.000381
0.000245
0.000271
0.000217
0.000257
0.000269
0.000264
0.000243
0.000237
0.000335
0.000421
0.000359
0.000444
0.000210
0.000230
0.001574
0.000239
0.000573
0.001877
0.000299
0.000224
0.001541
0.002023
0.000736
0.000284
0.000256
0.000350
0.000497
0.000260
0.000056
0.000223
0.000243
0.000277
0.000223
0.002868
0.000286
0.001077
0.000200
0.000236
0.001590
0.001972
0.000207
0.000244
0.000426
0.000302
0.000402
0.000364
0.000494
0.000210
0.000236
0.000246
0.000260
0.000273
0.001593
0.001208
0.001424
0.000287
0.000279
0.000260
0.000323
0.000325
0.000055
0.000220
0.000219
0.000242
0.000241
0.000231
0.000242
0.000249
0.000258
0.000252
0.000244
0.000246
0.000308
0.000599
0.000330
0.000270
0.000241
0.000251
0.000278
0.000268
0.000292
0.000226
0.000263
0.001554
0.000432
0.002124
0.000239
0.000282
0.000333
0.000405
0.000394
0.000194
0.000057
0.000205
0.000358
0.000486
0.000326
0.000180
0.000229
0.000251
0.000248
0.000240
0.000239
0.000245
0.000268
0.000263
0.001611
0.001343
0.001224
0.000275
0.000245
0.000241
0.000277
0.000292
0.000289
0.000223
0.000255
0.002209
0.000252
0.000237
0.000305
0.000320
0.000311
0.000221
0.000056
0.000191
0.000374
0.000543
0.000312
0.000241
0.000236
0.000239
0.000273
0.001903
0.001411
0.000221
0.000329
0.000385
0.000410
0.000282
0.000211
0.000257
0.000268
0.000265
0.000261
0.000260
0.000260
0.000476
0.000234
0.000267
0.000274
0.000243
0.000276
0.000284
0.000248
0.000200
0.000056
0.000198
0.000243
0.000257
0.000241
0.000271
0.000249
0.001538
0.001425
0.001324
0.000229
0.000239
0.000243
0.000269
0.000259
0.000246
0.000245
0.000247
0.002107
0.000263
0.000239
0.000251
0.000267
0.000255
0.000283
0.000243
0.000257
0.000280
0.000246
0.000283
0.000250
0.000176
0.000056
0.000190
0.002680
0.001404
0.000213
0.000305
0.000322
0.000212
0.000285
0.000233
0.000243
0.000254
0.000245
0.000225
0.000252
0.000274
0.000252
0.000273
0.000258
0.000275
0.000254
0.000267
0.000280
0.000280
0.000260
0.000257
0.000233
0.000265
0.000283
0.000250
0.000264
0.000384
0.000057
0.001554
0.000250
0.001236
0.000228
0.000222
0.000241
0.000257
0.000280
0.000225
0.000326
0.000327
0.000407
0.000302
0.000209
0.000253
0.002144
0.000245
0.000243
0.000286
0.000502
0.000373
0.000282
0.000234
0.000256
0.000270
0.000242
0.000268
0.000275
0.000270
0.001611
0.001270
0.000055
0.000208
0.000220
0.000278
0.000427
0.000350
0.000280
0.000207
0.000241
0.000245
0.000261
0.000268
0.000242
0.000226
0.000254
0.000261
0.000248
0.000382
0.000555
0.000377
0.000226
0.000234
0.000276
0.000282
0.000247
0.000251
0.000245
0.000267
0.000273
0.000243
0.000406
0.000273
0.000057
0.001111
0.000285
0.000346
0.000389
0.000302
0.000225
0.000236
0.000231
0.000248
0.002288
0.000375
0.000387
0.000226
0.000379
0.000300
0.000257
0.000246
0.000250
0.000272
0.000221
0.000262
0.000314
0.000535
0.000471
0.001882
0.001284
0.000569
0.000517
0.000221
0.000294
0.000194
0.000055
0.000314
0.000268
0.000250
0.000237
0.000286
0.000195
0.000257
0.000251
0.000256
0.000252
0.000253
0.000228
0.000241
0.000278
0.000401
0.000488
0.001829
0.001316
0.000499
0.000398
0.000455
0.000267
0.000218
0.000262
0.002200
0.000477
0.000389
0.000234
0.000290
0.000272
0.000193
0.000056
0.000209
0.000238
0.000259
0.000246
0.000238
0.000377
0.000376
0.000279
0.000358
0.000222
0.000243
0.000252
0.000259
0.002141
0.000376
0.000344
0.000210
0.000259
0.000300
0.000230
0.000248
0.002491
0.000305
0.000216
0.000256
0.000275
0.000234
0.000275
0.000307
0.000261
0.000190
0.000055
0.000213
0.000314
0.000679
0.000261
0.000254
0.000224
0.000233
0.000264
0.000256
0.000251
0.001944
0.000401
0.000270
0.000265
0.000239
0.000269
0.000275
0.000238
0.002205
0.000454
0.000233
0.000254
0.000278
0.000254
0.000248
0.000259
0.000299
0.000239
0.000261
0.000258
0.000190
0.000055
0.000213
0.000243
0.000248
0.000227
0.000244
0.000259
0.000235
0.000245
0.000235
0.002178
0.000226
0.000282
0.000219
0.000430
0.000221
0.000259
0.000300
0.000264
0.000252
0.000253
0.001970
0.000272
0.000335
0.000367
0.000430
0.000407
0.000310
0.000252
0.000255
0.000259
0.000197
0.000056
0.000204
0.000248
0.000233
0.000254
0.000317
0.000264
0.000218
0.002303
0.000244
0.000228
0.000261
0.000256
0.000237
0.000278
0.000273
0.002127
0.000590
0.000229
0.000246
0.000244
0.000259
0.000267
0.000286
0.000268
0.000261
0.000256
0.000284
0.000254
0.000268
0.000260
0.000195
0.000056
0.001905
0.001369
0.000201
0.000230
0.000239
0.000256
0.000244
0.000262
0.000478
0.000269
0.002187
0.000265
0.000225
0.000270
0.000255
0.000568
0.000377
0.000291
0.000227
0.000252
0.000246
0.000263
0.000268
0.000222
0.000260
0.000263
0.000274
0.000266
0.000329
0.000714
0.000263
0.000055
0.000192
0.000245
0.000241
0.000252
0.000267
0.000252
0.000255
0.000243
0.001480
0.002109
0.000611
0.000250
0.000398
0.000697
0.000366
0.000213
0.000260
0.000250
0.000268
0.000262
0.000251
0.000247
0.000244
0.000273
0.003015
0.000329
0.000235
0.000271
0.000290
0.000337
0.000396
0.000058
0.001918
0.000239
0.000234
0.000226
0.000299
0.000349
0.000508
0.000249
0.000274
0.000228
0.000243
0.000246
0.000257
0.000258
0.000270
0.000258
0.000250
0.000285
0.001816
0.000235
0.000242
0.000264
0.000267
0.000282
0.000273
0.000252
0.001466
0.000338
0.000241
0.000261
0.000178
0.000057
0.000199
0.000234
0.000262
0.000224
0.000247
0.000246
0.000302
0.000375
0.000382
0.000325
0.000224
0.000235
0.000265
0.000328
0.000420
0.000321
0.000217
0.000260
0.000261
0.000481
0.000294
0.000503
0.000242
0.000260
0.000263
0.000248
0.000248
0.000276
0.000275
0.000263
0.000202
0.000056
0.001429
0.000450
0.000204
0.001939
0.000285
0.000467
0.000386
0.000313
0.000225
0.000248
0.000263
0.000248
0.000245
0.000243
0.000269
0.000259
0.000450
0.000368
0.000330
0.000416
0.000301
0.000239
0.000274
0.000252
0.000276
0.000261
0.000260
0.000270
0.000384
0.000473
0.001344
0.000056
0.000203
0.000225
0.002121
0.000314
0.000278
0.000231
0.000277
0.000230
0.000262
0.000260
0.000214
0.000254
0.000251
0.000264
0.000262
0.000350
0.000710
0.001763
0.000225
0.000258
0.000254
0.000264
0.000485
0.000329
0.001580
0.000280
0.000365
0.001915
0.000255
0.000278
0.000187
0.000057
0.000206
0.000233
0.000230
0.000242
0.000232
0.000251
0.000249
0.000289
0.000330
0.000261
0.000378
0.000362
0.000341
0.000301
0.000263
0.000249
0.000264
0.000239
0.000263
0.000250
0.000311
0.000286
0.000269
0.000262
0.000260
0.001512
0.000292
0.000377
0.002065
0.000237
0.000185
0.000070
0.000208
0.000245
0.000238
0.000245
0.000491
0.000208
0.000253
0.000342
0.000370
0.000297
0.000307
0.000207
0.000259
0.000270
0.000274
0.000334
0.000432
0.000421
0.000243
0.000415
0.000546
0.000396
0.001604
0.000240
0.000238
0.002020
0.000297
0.000246
0.000245
0.000293
0.000190
0.000056
0.000200
0.000243
0.000229
0.000239
0.000255
0.000269
0.000252
0.000270
0.000251
0.000266
0.001815
0.000302
0.000385
0.000277
0.000463
0.000397
0.000311
0.001522
0.000237
0.000279
0.002094
0.000625
0.000228
0.000232
0.000263
0.000267
0.000506
0.000223
0.000255
0.000283
0.000192
0.000056
0.000276
0.000362
0.000363
0.000313
0.000188
0.000237
0.000259
0.000253
0.000263
0.000302
0.000216
0.000254
0.000259
0.000257
0.000335
0.000452
0.001346
0.000269
0.000271
0.001997
0.000279
0.000292
0.000253
0.000245
0.000247
0.000283
0.000263
0.000268
0.000250
0.000257
0.000208
0.000055
0.000340
0.000323
0.002012
0.000253
0.000222
0.000249
0.000279
0.000264
0.000420
0.000467
0.001296
0.000374
0.000357
0.002076
0.000208
0.000245
0.000268
0.000276
0.000254
0.000255
0.000276
0.000291
0.000253
0.000347
0.000492
0.000433
0.000251
0.002236
0.000485
0.000523
0.000359
0.000056
0.000208
0.000223
0.000247
0.001960
0.000235
0.000226
0.000240
0.000245
0.000243
0.000263
0.000251
0.000254
0.000258
0.000250
0.000519
0.001415
0.000247
0.000248
0.000265
0.000261
0.000229
0.000256
0.000260
0.000284
0.000282
0.000477
0.000473
0.000241
0.001614
0.000269
0.000152
0.000055
0.000206
0.000222
0.000260
0.000216
0.000263
0.000269
0.000224
0.000245
0.000259
0.000442
0.000373
0.001337
0.000228
0.000233
0.000242
0.000301
0.000236
0.000245
0.000310
0.000486
0.000520
0.000313
0.000224
0.001582
0.000232
0.000254
0.000286
0.000284
0.000262
0.000268
0.000193
0.000057
0.000201
0.000241
0.000267
0.000269
0.000266
0.000227
0.000238
0.000237
0.000277
0.000223
0.000251
0.000261
0.000269
0.001475
0.000365
0.000202
0.000266
0.000252
0.000273
0.000310
0.000373
0.000278
0.000241
0.000264
0.000264
0.000265
0.000262
0.001400
0.000295
0.000228
0.000167
0.000055
0.000197
0.000228
0.000262
0.000259
0.000269
0.000225
0.000248
0.000260
0.000218
0.000276
0.000235
0.000257
0.000229
0.000350
0.000326
0.000381
0.000250
0.000238
0.001631
0.000246
0.000234
0.000261
0.000255
0.000291
0.000390
0.000366
0.000455
0.000267
0.000251
0.001616
0.000149
0.000056
0.000291
0.000402
0.000380
0.000261
0.000224
0.000216
0.000246
0.000270
0.000252
0.000262
0.000232
0.000234
0.001460
0.000299
0.000300
0.000219
0.000250
0.000278
0.000251
0.000264
0.000246
0.000240
0.000262
0.000271
0.000293
0.000377
0.000347
0.000485
0.000211
0.000252
0.000194
0.000056
0.000194
0.000236
0.000480
0.000324
0.000367
0.000274
0.000236
0.000256
0.000247
0.000259
0.000240
0.000227
0.000256
0.000252
0.001248
0.000302
0.000233
0.000259
0.000261
0.000271
0.000232
0.000268
0.000252
0.000258
0.000259
0.000258
0.000349
0.000732
0.000377
0.000230
0.000174
0.000055
0.000205
0.001557
0.000240
0.000314
0.000481
0.000378
0.000221
0.000257
0.000266
0.000263
0.000226
0.000265
0.000271
0.000283
0.000250
0.001531
0.000247
0.000286
0.000260
0.000251
0.000280
0.000240
0.000267
0.000261
0.000255
0.000308
0.000449
0.000302
0.000360
0.000243
0.000203
0.000055
0.000206
0.000261
0.000231
0.001646
0.000382
0.000347
0.000232
0.000237
0.000251
0.000273
0.000282
0.000251
0.000253
0.000257
0.000231
0.000293
0.000422
0.001284
0.000248
0.000236
0.001493
0.000516
0.000426
0.000352
0.000320
0.000239
0.000264
0.000467
0.000238
0.000255
0.001573
0.000057
0.000282
0.000225
0.000247
0.000245
0.000253
0.000250
0.000239
0.000256
0.000256
0.000254
0.000241
0.000255
0.000383
0.000427
0.001667
0.001572
0.000314
0.000519
0.000319
0.000226
0.000232
0.000254
0.000257
0.000261
0.000252
0.000275
0.000247
0.000274
0.001542
0.000308
0.000171
0.000057
0.000214
0.000345
0.000354
0.000332
0.000248
0.000218
0.000242
0.000489
0.000333
0.000348
0.002174
0.000304
0.000695
0.000531
0.000437
0.000257
0.000338
0.000389
0.000331
0.000284
0.000388
0.000270
0.001529
0.000526
0.000214
0.000282
0.000244
0.000251
0.000269
0.000266
0.000197
0.000056
0.000213
0.000249
0.000254
0.000258
0.000235
0.001658
0.001639
0.000245
0.000207
0.000251
0.000235
0.000257
0.000264
0.000262
0.000254
0.000249
0.000258
0.000257
0.000268
0.000282
0.001432
0.000304
0.000262
0.000222
0.000238
0.000260
0.000261
0.000285
0.000261
0.000286
0.001902
0.000055
0.000195
0.000232
0.001545
0.000906
0.000403
0.000292
0.000229
0.000227
0.000254
0.000267
0.000240
0.000250
0.000246
0.001981
0.000473
0.000216
0.000247
0.000256
0.000267
0.000259
0.000192
