0.000383
0.009351
0.011971
0.000426
0.000267
0.000281
0.000325
0.000244
0.000313
0.000278
0.000254
0.000341
0.000488
0.000490
0.000353
0.000411
0.000294
0.000311
0.000357
0.000418
0.000316
0.001900
0.000712
0.000276
0.000247
0.000290
0.000322
0.000313
0.000418
0.000423
0.000513
0.000245
0.000057
0.000223
0.000251
0.000262
0.000294
0.000246
0.000253
0.000285
0.000285
0.000260
0.000304
0.000416
0.000423
0.000304
0.000253
0.000379
0.000345
0.000366
0.000254
0.000232
0.001706
0.000317
0.000275
0.000452
0.000220
0.000285
0.000283
0.000289
0.000288
0.000279
0.000377
0.000362
0.000056
0.000260
0.000244
0.000263
0.000265
0.000254
0.000239
0.000269
0.000252
0.000289
0.001668
0.000232
0.000229
0.000286
0.000254
0.000274
0.000248
0.000262
0.000262
0.000351
0.001788
0.000254
0.000274
0.000460
0.000416
0.000390
0.000245
0.000342
0.000507
0.000389
0.000744
0.000194
0.000057
0.000192
0.000245
0.000256
0.000236
0.000297
0.000269
0.000262
0.000607
0.000399
0.000235
0.000232
0.000261
0.000234
0.000258
0.000252
0.000255
0.000246
0.000267
0.000307
0.000329
0.001654
0.000282
0.000251
0.000414
0.000278
0.000746
0.000638
0.000528
0.000357
0.000231
0.000200
0.000056
0.000228
0.000243
0.000294
0.000213
0.000288
0.000225
0.000283
0.000449
0.001462
0.000218
0.000251
0.000248
0.000251
0.000260
0.000260
0.000297
0.000303
0.000756
0.001395
0.000299
0.000235
0.000421
0.000238
0.000250
0.000259
0.000253
0.000270
0.000271
0.000257
0.000270
0.000199
0.000055
0.000188
0.000245
0.000242
0.000267
0.000239
0.000244
0.000238
0.000255
0.000241
0.000249
0.001624
0.000273
0.000232
0.000238
0.000258
0.000258
0.000239
0.000245
0.000253
0.000254
0.000297
0.001638
0.000290
0.000251
0.000431
0.000277
0.000229
0.000269
0.000260
0.000275
0.000196
0.000057
0.000221
0.000230
0.000256
0.000239
0.000240
0.000253
0.000258
0.000238
0.000264
0.000281
0.000223
0.000254
0.000263
0.000270
0.001632
0.000281
0.000303
0.000215
0.000248
0.000274
0.000262
0.000232
0.000248
0.000259
0.001819
0.000372
0.000460
0.000253
0.000238
0.000277
0.000195
0.000055
0.000232
0.000236
0.000240
0.000271
0.000263
0.000259
0.000282
0.000374
0.000431
0.000421
0.000212
0.000239
0.000257
0.000249
0.001555
0.000536
0.000338
0.000396
0.000316
0.000224
0.000272
0.000283
0.000270
0.001723
0.000529
0.000477
0.000241
0.000239
0.000237
0.000272
0.000184
0.000057
0.000210
0.000232
0.000260
0.000297
0.000364
0.000441
0.000369
0.000232
0.000215
0.000242
0.000256
0.000244
0.000253
0.001732
0.000455
0.000311
0.000218
0.000257
0.000269
0.000285
0.000246
0.000258
0.000276
0.001933
0.000253
0.000407
0.000236
0.000256
0.000269
0.000400
0.000327
0.000056
0.000240
0.000351
0.000332
0.000305
0.000250
0.000249
0.000250
0.000258
0.000242
0.000236
0.000233
0.000250
0.001550
0.000397
0.000267
0.000221
0.000264
0.000250
0.000248
0.000312
0.000275
0.000312
0.000235
0.001813
0.000257
0.000493
0.000237
0.000256
0.000268
0.000259
0.000269
0.000056
0.000314
0.000659
0.000576
0.000205
0.000241
0.000273
0.000225
0.000225
0.000259
0.000252
0.000254
0.001704
0.000245
0.000442
0.000371
0.000217
0.000234
0.000241
0.000245
0.000263
0.000362
0.001748
0.000226
0.000473
0.001861
0.000521
0.000359
0.000248
0.000249
0.000273
0.000181
0.000055
0.000195
0.000241
0.000243
0.000242
0.000276
0.001601
0.000256
0.000235
0.000248
0.000256
0.000255
0.000245
0.000240
0.000254
0.000315
0.000652
0.000351
0.000251
0.000231
0.000270
0.000292
0.000221
0.000258
0.000438
0.000413
0.000272
0.000384
0.000497
0.000443
0.000283
0.000209
0.000057
0.000224
0.000235
0.000250
0.000249
0.000252
0.000226
0.000238
0.000445
0.000397
0.001709
0.000221
0.000238
0.000242
0.000257
0.000249
0.000285
0.000519
0.000382
0.000333
0.000251
0.000255
0.000302
0.000281
0.000249
0.000273
0.000443
0.000340
0.000595
0.000408
0.000513
0.000178
0.000056
0.000213
0.000251
0.000264
0.000220
0.000237
0.000233
0.000247
0.000263
0.000227
0.000296
0.000342
0.000477
0.001350
0.000242
0.000231
0.000249
0.000261
0.000247
0.000248
0.000256
0.000275
0.000464
0.000409
0.000258
0.000268
0.000253
0.000260
0.000263
0.000268
0.000263
0.000403
0.000056
0.000186
0.000233
0.000226
0.000351
0.000452
0.000440
0.000225
0.000267
0.000231
0.000260
0.000255
0.000229
0.000340
0.000209
0.000242
0.000467
0.000435
0.001638
0.000276
0.000235
0.000263
0.000276
0.000237
0.000237
0.000267
0.000471
0.000436
0.000360
0.000410
0.000232
0.000208
0.000056
0.000225
0.000436
0.000234
0.000215
0.000285
0.000227
0.000321
0.000535
0.000318
0.000335
0.000220
0.000286
0.000256
0.000240
0.000524
0.000340
0.000217
0.000289
0.000393
0.001612
0.000269
0.000241
0.000522
0.000267
0.000269
0.000268
0.000255
0.000466
0.000449
0.000351
0.000278
0.000058
0.000190
0.000227
0.000236
0.000249
0.000431
0.000296
0.000284
0.000223
0.000441
0.000412
0.000390
0.000266
0.000232
0.000242
0.000257
0.000268
0.000252
0.000253
0.000257
0.000334
0.000284
0.000377
0.001823
0.000225
0.000254
0.000253
0.000304
0.000328
0.000409
0.000692
0.000446
0.000057
0.000223
0.000328
0.000307
0.000463
0.000353
0.000186
0.000260
0.000294
0.000535
0.000392
0.000264
0.000232
0.000240
0.000268
0.000266
0.000231
0.000260
0.000268
0.000283
0.000242
0.000265
0.000355
0.000741
0.001314
0.000327
0.000433
0.000428
0.000225
0.000396
0.000452
0.000325
0.000057
0.000238
0.000382
0.000276
0.000216
0.000218
0.000252
0.000410
0.000233
0.000257
0.000358
0.000442
0.000409
0.000260
0.000250
0.000259
0.000243
0.000361
0.000394
0.000345
0.000263
0.000229
0.000347
0.000689
0.001660
0.000238
0.000431
0.000313
0.000222
0.000291
0.000453
0.000317
0.000057
0.000221
0.000231
0.000243
0.000262
0.000247
0.000244
0.000245
0.000362
0.000437
0.000225
0.000466
0.000453
0.000213
0.000582
0.000243
0.000247
0.000269
0.000281
0.000202
0.000363
0.000219
0.000264
0.000257
0.000438
0.000434
0.001679
0.000274
0.000231
0.000264
0.000256
0.000192
0.000055
0.000353
0.000448
0.000338
0.000217
0.000241
0.000261
0.000257
0.000227
0.000272
0.000231
0.000225
0.000262
0.000415
0.000506
0.000398
0.000309
0.000217
0.000259
0.000338
0.000391
0.000382
0.000334
0.000361
0.000399
0.000246
0.000257
0.000259
0.000273
0.001788
0.000242
0.000212
0.000056
0.000198
0.000236
0.000251
0.000294
0.000333
0.000540
0.000325
0.000207
0.000291
0.000233
0.000251
0.000249
0.000542
0.000440
0.000476
0.000275
0.000262
0.000260
0.000423
0.000465
0.000359
0.000421
0.000458
0.000462
0.000239
0.000241
0.000265
0.000248
0.000260
0.001719
0.000448
0.000055
0.000266
0.000304
0.000235
0.000222
0.000259
0.000247
0.000236
0.000498
0.000377
0.000311
0.000292
0.000268
0.000464
0.000573
0.000308
0.000223
0.000258
0.000256
0.000253
0.000268
0.000274
0.000252
0.000250
0.000265
0.000329
0.000342
0.000457
0.000304
0.000238
0.000248
0.000196
0.000055
0.000448
0.000297
0.000463
0.000253
0.000206
0.000257
0.000244
0.000254
0.000239
0.000221
0.000252
0.000281
0.000299
0.000454
0.000413
0.000506
0.000305
0.000299
0.000386
0.000341
0.000308
0.000233
0.000242
0.000261
0.001748
0.000251
0.001712
0.000945
0.000374
0.000350
0.000162
0.000057
0.000188
0.000234
0.000233
0.000246
0.000268
0.000239
0.000254
0.000246
0.000262
0.000284
0.000382
0.000421
0.000376
0.000358
0.000264
0.000247
0.000235
0.000286
0.000234
0.000247
0.000251
0.000261
0.001816
0.000237
0.000251
0.000269
0.000273
0.001718
0.000410
0.000553
0.000218
0.000057
0.000232
0.000206
0.000241
0.000238
0.000273
0.000240
0.000237
0.000253
0.000265
0.000411
0.000528
0.000314
0.000374
0.000220
0.000244
0.000260
0.000330
0.000438
0.000365
0.000255
0.001793
0.000236
0.000247
0.000256
0.000262
0.000263
0.000246
0.000249
0.000330
0.000329
0.000378
0.000055
0.000220
0.000234
0.000229
0.000269
0.000236
0.000241
0.000254
0.000254
0.000247
0.000250
0.000245
0.000305
0.000348
0.000425
0.000312
0.000274
0.000468
0.000232
0.000248
0.000259
0.000255
0.000258
0.000273
0.000263
0.000274
0.001788
0.000238
0.000257
0.000263
0.000241
0.000201
0.000056
0.000420
0.000208
0.000241
0.000229
0.000223
0.000242
0.000237
0.000254
0.000250
0.000216
0.000235
0.000266
0.000255
0.000393
0.000387
0.000331
0.000332
0.000213
0.000260
0.000244
0.000267
0.000262
0.000246
0.000271
0.000245
0.000276
0.000281
0.001653
0.000265
0.000241
0.000192
0.000057
0.000218
0.000235
0.000248
0.000264
0.000348
0.000440
0.000318
0.000315
0.000217
0.000254
0.000287
0.000208
0.000248
0.000255
0.000263
0.000252
0.000253
0.000252
0.000257
0.000263
0.000270
0.000261
0.000245
0.000239
0.000251
0.000278
0.000275
0.000262
0.000253
0.000259
0.000198
0.000057
0.000220
0.000207
0.000261
0.000275
0.000235
0.000230
0.000243
0.000265
0.000282
0.000238
0.000237
0.000243
0.000261
0.000246
0.000283
0.000243
0.000253
0.000251
0.000304
0.000247
0.000275
0.000319
0.000270
0.000223
0.000300
0.000251
0.000270
0.000249
0.000284
0.000410
0.000641
0.000056
0.000222
0.000294
0.000227
0.000221
0.000238
0.000254
0.000259
0.000230
0.000245
0.000247
0.000273
0.000297
0.000477
0.000473
0.001543
0.000234
0.000489
0.000224
0.000269
0.000449
0.000453
0.000371
0.000223
0.000284
0.000243
0.000264
0.000281
0.000258
0.000327
0.000256
0.000166
0.000056
0.000344
0.000436
0.000328
0.000334
0.000212
0.000282
0.000219
0.000242
0.000238
0.000242
0.000264
0.000244
0.000233
0.000271
0.000461
0.000383
0.000410
0.001785
0.000239
0.000251
0.000369
0.000403
0.000466
0.000271
0.000314
0.000325
0.000295
0.000234
0.000225
0.000246
0.000207
0.000057
0.000181
0.000220
0.000241
0.000322
0.000454
0.000306
0.000350
0.000260
0.000251
0.000215
0.000249
0.000266
0.000272
0.000261
0.000242
0.000261
0.000329
0.000528
0.000278
0.000434
0.000233
0.001762
0.000319
0.000542
0.000448
0.000471
0.000332
0.000218
0.000257
0.000269
0.000445
0.000056
0.000214
0.000270
0.000214
0.000247
0.000450
0.000540
0.000306
0.000233
0.000227
0.000291
0.000245
0.000259
0.000249
0.000298
0.000321
0.000207
0.000299
0.000374
0.000395
0.000387
0.000483
0.001859
0.000247
0.000523
0.000415
0.000356
0.000228
0.000254
0.000293
0.000260
0.000202
0.000056
0.000219
0.000334
0.000362
0.000338
0.000404
0.000272
0.000380
0.000210
0.000238
0.000259
0.000277
0.000224
0.000254
0.000243
0.000247
0.000265
0.000353
0.000334
0.000509
0.000374
0.000311
0.000229
0.000247
0.001711
0.000372
0.000570
0.000687
0.000235
0.000255
0.000313
0.000163
0.000055
0.000195
0.000236
0.000349
0.000230
0.000299
0.000296
0.000435
0.000330
0.000240
0.000524
0.000230
0.000249
0.000258
0.000283
0.000271
0.000263
0.000235
0.000397
0.000371
0.000475
0.000255
0.000229
0.000265
0.000251
0.000259
0.000273
0.000233
0.000253
0.000268
0.000326
0.000161
0.000057
0.000360
0.000286
0.000216
0.000258
0.000251
0.000253
0.000241
0.000307
0.000227
0.000241
0.000275
0.000334
0.000522
0.000339
0.000363
0.000214
0.000224
0.000245
0.000253
0.000267
0.000288
0.000259
0.000236
0.000263
0.000275
0.000315
0.000400
0.000386
0.000365
0.000228
0.000177
0.000056
0.000203
0.000221
0.000284
0.000240
0.000239
0.000269
0.000266
0.000230
0.000495
0.000227
0.000243
0.000262
0.000233
0.000265
0.000276
0.000298
0.000236
0.000352
0.000213
0.000252
0.000263
0.000253
0.000259
0.000273
0.000284
0.000247
0.000264
0.000248
0.000265
0.000497
0.000164
0.000056
0.000201
0.000239
0.000251
0.000292
0.000209
0.000234
0.000373
0.000399
0.000231
0.000240
0.000250
0.000254
0.000230
0.000231
0.000491
0.001778
0.000226
0.000267
0.000289
0.000328
0.000406
0.000368
0.000364
0.000422
0.000355
0.000413
0.000263
0.000244
0.000269
0.000275
0.001392
0.000056
0.000440
0.000255
0.000275
0.000230
0.000229
0.000249
0.000240
0.000249
0.000241
0.000273
0.000246
0.000257
0.000252
0.000260
0.000608
0.001603
0.000236
0.000225
0.000244
0.000267
0.000240
0.000283
0.000343
0.000383
0.000302
0.000357
0.000221
0.000267
0.000266
0.000273
0.000189
0.000056
0.001222
0.000511
0.000356
0.000292
0.000204
0.000219
0.000242
0.000234
0.000493
0.000226
0.000230
0.000250
0.000319
0.000562
0.000368
0.000354
0.000260
0.000229
0.000328
0.000352
0.000272
0.000259
0.000274
0.000244
0.000275
0.000561
0.000565
0.000293
0.000225
0.000261
0.000173
0.000057
0.000228
0.000232
0.000221
0.000248
0.001429
0.000343
0.000222
0.000253
0.000263
0.000230
0.000250
0.000258
0.000239
0.000247
0.000274
0.000253
0.000622
0.000489
0.000279
0.001749
0.000250
0.000288
0.000272
0.000521
0.000492
0.000387
0.000251
0.000246
0.000255
0.000272
0.000203
0.000056
0.000235
0.000234
0.000235
0.000346
0.001228
0.000226
0.000293
0.000231
0.000238
0.000230
0.000242
0.000256
0.000278
0.000261
0.000233
0.000279
0.000504
0.000391
0.000340
0.000240
0.000268
0.000269
0.000249
0.000234
0.000293
0.000259
0.000256
0.000263
0.000269
0.000312
0.000620
0.000056
0.000221
0.000247
0.000239
0.000261
0.000262
0.000233
0.000238
0.000267
0.000287
0.000259
0.001408
0.000235
0.000233
0.000260
0.000237
0.000246
0.000288
0.000244
0.000286
0.000238
0.000266
0.000490
0.000453
0.000397
0.000230
0.000272
0.001766
0.000258
0.000243
0.000378
0.000387
0.000057
0.000209
0.000397
0.000455
0.000500
0.000513
0.000539
0.001497
0.000422
0.000521
0.000649
0.000557
0.000717
0.000483
0.000620
0.000579
0.001919
0.000355
0.000439
0.000398
0.000325
0.000232
0.000273
0.000285
0.000270
0.000250
0.000295
0.000294
0.000298
0.000249
0.000283
0.001359
0.000056
0.000217
0.000231
0.000240
0.000241
0.000265
0.000249
0.000236
0.000245
0.000245
0.000252
0.000248
0.000237
0.000253
0.000259
0.000265
0.000268
0.001831
0.000245
0.000264
0.000243
0.000258
0.000264
0.000270
0.000257
0.000447
0.000381
0.000352
0.000254
0.000256
0.000282
0.000202
0.000057
0.000201
0.001352
0.000333
0.000278
0.000242
0.000258
0.000228
0.000229
0.000233
0.000242
0.000220
0.000246
0.000253
0.000507
0.000362
0.000311
0.000237
0.001823
0.000353
0.000237
0.000241
0.000265
0.000258
0.000265
0.000273
0.000282
0.000266
0.000259
0.000263
0.000353
0.000168
0.000055
0.000203
0.000232
0.000253
0.001433
0.000217
0.000256
0.000251
0.000245
0.000237
0.000270
0.000245
0.000249
0.000270
0.000262
0.000235
0.000250
0.000268
0.000266
0.000264
0.000256
0.000262
0.001777
0.000274
0.001751
0.000269
0.000256
0.000254
0.000273
0.000265
0.000274
0.000198
0.000056
0.000200
0.000229
0.001340
0.000239
0.000254
0.000246
0.000253
0.000254
0.000243
0.000248
0.000256
0.000253
0.000253
0.000263
0.000252
0.000267
0.000261
0.000286
0.000280
0.000244
0.001886
0.000232
0.001828
0.000235
0.000273
0.000269
0.000230
0.000254
0.000250
0.000275
0.000199
0.000055
0.001415
0.000232
0.000247
0.000222
0.000250
0.000231
0.000373
0.000290
0.000242
0.000244
0.000258
0.000255
0.000242
0.000373
0.000380
0.000284
0.000278
0.000250
0.000252
0.000271
0.000252
0.000346
0.000217
0.000255
0.000277
0.000265
0.000275
0.000307
0.000664
0.000372
0.000207
0.000056
0.000220
0.000252
0.000261
0.000304
0.000363
0.000266
0.001706
0.000285
0.000280
0.000266
0.000252
0.000278
0.000263
0.000279
0.000290
0.000303
0.000330
0.000641
0.000327
0.000261
0.000300
0.000269
0.000260
0.000276
0.000321
0.000265
0.000261
0.000257
0.000253
0.000318
0.000388
0.000056
0.000257
0.000469
0.000261
0.000260
0.000251
0.000220
0.000229
0.000267
0.000241
0.001480
0.000303
0.000215
0.000237
0.000242
0.000245
0.000287
0.000293
0.000230
0.000262
0.000255
0.000265
0.000384
0.000612
0.000252
0.000250
0.000282
0.000269
0.000260
0.000249
0.000300
0.000167
0.000056
0.000186
0.000233
0.000295
0.000445
0.000373
0.000281
0.000221
0.000246
0.000248
0.000250
0.000253
0.000237
0.000256
0.000264
0.000259
0.000217
0.000454
0.001199
0.000221
0.000222
0.000289
0.000246
0.000350
0.000428
0.000244
0.000377
0.000529
0.000372
0.000351
0.000243
0.000183
0.000056
0.000219
0.000245
0.000263
0.000259
0.000251
0.000245
0.000331
0.000419
0.000476
0.000250
0.000359
0.000394
0.000393
0.000365
0.000257
0.000225
0.000245
0.000261
0.000417
0.000439
0.001275
0.000227
0.000268
0.000272
0.000236
0.000233
0.000265
0.000334
0.000396
0.000434
0.000262
0.000056
0.000217
0.000230
0.000263
0.000243
0.000235
0.000247
0.000238
0.000269
0.000303
0.000373
0.000373
0.000414
0.000229
0.000234
0.000255
0.000257
0.000246
0.000262
0.000262
0.000272
0.000433
0.000245
0.000363
0.000401
0.000343
0.000253
0.000264
0.000264
0.000257
0.000346
0.000155
0.000056
0.000324
0.000312
0.000311
0.000386
0.000459
0.000338
0.000241
0.000247
0.000242
0.000299
0.000228
0.000263
0.000231
0.000259
0.000241
0.000238
0.000252
0.000390
0.000468
0.000350
0.000245
0.000257
0.000240
0.000242
0.000269
0.000283
0.000260
0.000284
0.000265
0.000265
0.000307
0.000056
0.000242
0.000343
0.000242
0.000268
0.000221
0.000245
0.000248
0.000253
0.000268
0.000255
0.000253
0.000232
0.000343
0.000428
0.000453
0.000288
0.000249
0.000239
0.000253
0.000267
0.000254
0.000263
0.000260
0.000271
0.000269
0.000304
0.000404
0.000619
0.000399
0.000258
0.000176
0.000056
0.000374
0.000218
0.000213
0.000247
0.000253
0.000247
0.000241
0.000246
0.000260
0.000254
0.000243
0.000226
0.000272
0.000230
0.000235
0.000266
0.000256
0.000265
0.000299
0.000235
0.000263
0.000259
0.000265
0.000264
0.000269
0.000233
0.000264
0.000282
0.000253
0.000282
0.000199
0.000056
0.000194
0.000236
0.000243
0.000247
0.000233
0.000259
0.000257
0.000245
0.000257
0.000280
0.000227
0.000232
0.000259
0.000397
0.000257
0.000297
0.000242
0.000263
0.000256
0.000281
0.000275
0.000225
0.000251
0.000254
0.000272
0.000275
0.000243
0.000259
0.000269
0.000262
0.000211
0.000056
0.000222
0.000359
0.000367
0.000281
0.000295
0.000254
0.000268
0.000255
0.000224
0.000244
0.000281
0.000232
0.000245
0.000237
0.000262
0.000281
0.000240
0.000268
0.000243
0.000266
0.000274
0.000264
0.000276
0.000263
0.000291
0.000212
0.000266
0.000268
0.000273
0.000260
0.000206
0.000056
0.000202
0.000224
0.000266
0.000270
0.000248
0.000462
0.000196
0.000274
0.000238
0.000538
0.000412
0.000282
0.000232
0.000251
0.000275
0.000261
0.000237
0.000264
0.000263
0.000294
0.000240
0.000261
0.000257
0.000244
0.000647
0.000425
0.000260
0.000301
0.000274
0.000247
0.000195
0.000056
0.000217
0.000234
0.000248
0.000245
0.000367
0.000647
0.000274
0.000388
0.000210
0.000240
0.000255
0.000248
0.000256
0.000245
0.000269
0.000259
0.000274
0.000249
0.000604
0.000452
0.000251
0.000248
0.000253
0.000286
0.000283
0.000253
0.000258
0.000310
0.000212
0.000325
0.000359
0.000058
0.000256
0.000233
0.000236
0.000240
0.000257
0.000273
0.000205
0.000250
0.000247
0.000271
0.000233
0.000251
0.000242
0.000376
0.000590
0.000397
0.000233
0.000254
0.000263
0.000240
0.000270
0.000289
0.000472
0.000220
0.000262
0.000581
0.000430
0.000478
0.000261
0.000250
0.000185
0.000056
0.000207
0.000231
0.000236
0.000265
0.000237
0.000256
0.000339
0.000369
0.000622
0.000416
0.000224
0.000259
0.000272
0.000276
0.000276
0.000226
0.000242
0.000244
0.000259
0.000367
0.000370
0.000649
0.000366
0.000247
0.000366
0.000380
0.000483
0.000250
0.000259
0.000329
0.000494
0.000056
0.000273
0.000231
0.000441
0.000220
0.000230
0.000256
0.000260
0.000258
0.000249
0.000228
0.000372
0.000304
0.000396
0.000294
0.000239
0.000242
0.000266
0.000247
0.000268
0.000271
0.000294
0.000234
0.000251
0.000278
0.000280
0.000504
0.000502
0.000237
0.000253
0.000272
0.000206
0.000056
0.000223
0.000258
0.000225
0.000246
0.000246
0.000260
0.000358
0.000512
0.000328
0.000269
0.000378
0.000231
0.000245
0.000262
0.000254
0.000239
0.000257
0.000262
0.000365
0.000318
0.000521
0.000316
0.000466
0.000265
0.000392
0.000413
0.000383
0.000241
0.000260
0.000346
0.000327
0.000057
0.000226
0.000266
0.000223
0.000254
0.000287
0.000230
0.000275
0.000223
0.000275
0.000233
0.000242
0.000400
0.000413
0.000366
0.000370
0.000228
0.000267
0.000265
0.000265
0.000235
0.000252
0.000252
0.000269
0.000271
0.000279
0.000314
0.000508
0.000469
0.000250
0.000272
0.000196
0.000055
0.000225
0.000239
0.000282
0.000242
0.000246
0.000333
0.000501
0.000517
0.000512
0.000507
0.000250
0.000228
0.000233
0.000256
0.000245
0.000270
0.000276
0.000276
0.000475
0.000459
0.001469
0.000316
0.000269
0.000259
0.000287
0.000255
0.000470
0.000333
0.000369
0.000296
0.000188
0.000056
0.000218
0.000233
0.000243
0.000286
0.000207
0.000254
0.000306
0.000228
0.000263
0.000306
0.000326
0.000381
0.000268
0.000340
0.000401
0.000341
0.000242
0.000249
0.000269
0.000253
0.000252
0.000245
0.000333
0.000197
0.000333
0.000437
0.000473
0.000245
0.000244
0.000271
0.000192
0.000057
0.000234
0.000247
0.000254
0.000257
0.000234
0.000239
0.000474
0.000218
0.000225
0.000257
0.000248
0.000249
0.000264
0.000253
0.000251
0.000268
0.000259
0.000293
0.000259
0.000244
0.000277
0.000274
0.000283
0.000250
0.000265
0.000277
0.000264
0.000269
0.000262
0.000270
0.000174
0.000057
0.000236
0.000240
0.000307
0.000418
0.000364
0.000261
0.000236
0.000247
0.000259
0.000251
0.000250
0.000252
0.000266
0.000261
0.000235
0.000244
0.000264
0.000256
0.000267
0.000341
0.000404
0.000449
0.000222
0.000262
0.000268
0.000256
0.000269
0.000255
0.000265
0.000278
0.000202
0.000074
0.000347
0.000407
0.000425
0.000200
0.000250
0.000264
0.000407
0.000223
0.000227
0.000258
0.000253
0.000293
0.000407
0.000376
0.001876
0.000253
0.000235
0.000256
0.000276
0.000240
0.000344
0.000476
0.000602
0.000270
0.000235
0.000262
0.000275
0.000430
0.000273
0.000282
0.000161
0.000056
0.000223
0.000373
0.000313
0.000337
0.000496
0.000204
0.000239
0.000250
0.000247
0.000248
0.000260
0.000242
0.000264
0.000335
0.000436
0.000424
0.000231
0.000244
0.000258
0.000262
0.000267
0.000311
0.000239
0.000275
0.000275
0.000526
0.000442
0.000367
0.000495
0.000224
0.000208
0.000055
0.000197
0.000232
0.000255
0.000240
0.000243
0.000246
0.000271
0.000294
0.000337
0.000369
0.000428
0.000339
0.000227
0.000253
0.000278
0.000271
0.000294
0.000239
0.000280
0.000272
0.000234
0.000347
0.000435
0.000352
0.000359
0.000201
0.000258
0.000435
0.000417
0.000301
0.000186
0.000056
0.000222
0.000274
0.000291
0.000502
0.000299
0.000231
0.000223
0.000249
0.000266
0.000263
0.000254
0.000243
0.000229
0.000262
0.000257
0.000297
0.000399
0.000351
0.000303
0.000344
0.000488
0.000227
0.000282
0.000275
0.000301
0.000287
0.000243
0.000276
0.000463
0.000541
0.000180
0.000056
0.000195
0.000225
0.000250
0.000255
0.000235
0.000488
0.000218
0.000250
0.000266
0.000357
0.000490
0.000560
0.000214
0.000240
0.000239
0.000247
0.000259
0.000269
0.000238
0.000247
0.000292
0.000236
0.000325
0.000477
0.000340
0.000405
0.000321
0.000284
0.000322
0.000240
0.000191
0.000056
0.000205
0.000229
0.000279
0.000459
0.000354
0.000263
0.000285
0.000227
0.000226
0.000260
0.000250
0.000260
0.000266
0.000236
0.000254
0.000256
0.000246
0.000244
0.000262
0.000409
0.000560
0.000323
0.000237
0.000243
0.000281
0.000277
0.000258
0.000257
0.000264
0.000262
0.000201
0.000056
0.000285
0.000362
0.000486
0.000229
0.000211
0.000258
0.000311
0.000455
0.000286
0.000231
0.000240
0.000271
0.000332
0.000386
0.000416
0.000291
0.000229
0.000244
0.000247
0.000261
0.000273
0.000261
0.000269
0.000272
0.000259
0.000318
0.000403
0.000401
0.000309
0.000232
0.000194
0.000056
0.000205
0.000237
0.000252
0.000253
0.000252
0.000266
0.000229
0.000268
0.000251
0.000241
0.000256
0.000240
0.000291
0.001432
0.000223
0.000255
0.000264
0.000244
0.000277
0.000276
0.000256
0.000243
0.000274
0.000251
0.000281
0.000269
0.000262
0.000268
0.000258
0.000269
0.000201
0.000056
0.000218
0.000234
0.000249
0.000270
0.000217
0.000244
0.000260
0.000255
0.000244
0.000237
0.000248
0.000263
0.000256
0.000253
0.000250
0.000259
0.000253
0.000256
0.000272
0.000251
0.000255
0.000267
0.000249
0.000244
0.001294
0.000289
0.000581
0.000435
0.000311
0.000246
0.000197
0.000055
0.000220
0.000231
0.000244
0.000249
0.000417
0.000235
0.000239
0.000241
0.000253
0.000415
0.000399
0.000349
0.000218
0.000239
0.000266
0.000275
0.000240
0.000269
0.000239
0.000262
0.000255
0.000259
0.000292
0.000424
0.000481
0.000449
0.000230
0.000261
0.001362
0.000245
0.000190
0.000056
0.000315
0.000422
0.000320
0.000268
0.000228
0.000236
0.000218
0.000254
0.000258
0.000257
0.000247
0.000260
0.000300
0.000401
0.000514
0.000266
0.000344
0.000215
0.000253
0.000254
0.000271
0.000282
0.000245
0.000270
0.000267
0.000263
0.000387
0.000481
0.000400
0.000357
0.000158
0.000055
0.000217
0.000230
0.001257
0.000459
0.000289
0.000433
0.000384
0.000489
0.000266
0.000348
0.000224
0.000235
0.000256
0.000252
0.000250
0.000267
0.000281
0.000600
0.000355
0.000365
0.000265
0.000240
0.000284
0.000490
0.000224
0.000262
0.000257
0.000282
0.000274
0.000575
0.000313
0.000055
0.000383
0.000311
0.000241
0.001379
0.000461
0.000390
0.000353
0.000209
0.000246
0.000256
0.000225
0.000241
0.000245
0.000262
0.000253
0.000258
0.000236
0.000292
0.000439
0.000319
0.000474
0.000239
0.000258
0.000260
0.000255
0.000274
0.000271
0.000254
0.000244
0.000277
0.000256
0.000058
0.000361
0.000341
0.000214
0.000239
0.000257
0.000243
0.000252
0.000244
0.000249
0.000209
0.001504
0.000368
0.000276
0.000247
0.000238
0.000255
0.000273
0.000259
0.000240
0.000305
0.000253
0.000236
0.000266
0.000461
0.000378
0.000455
0.000225
0.000267
0.000280
0.000277
0.000173
0.000057
0.000233
0.000409
0.000201
0.000244
0.000333
0.000489
0.000315
0.000342
0.000461
0.000206
0.000235
0.000250
0.000261
0.000265
0.000258
0.001456
0.000323
0.000297
0.000224
0.000274
0.000295
0.000264
0.000222
0.000251
0.000268
0.000278
0.000416
0.000474
0.000289
0.000275
0.000160
0.000056
0.000204
0.000242
0.000251
0.000243
0.000230
0.000251
0.000239
0.000248
0.000310
0.000350
0.000422
0.000327
0.000211
0.000262
0.000246
0.000272
0.000265
0.000266
0.000266
0.000227
0.000251
0.000330
0.001239
0.000245
0.000285
0.000236
0.000261
0.000265
0.000254
0.000273
0.000183
0.000055
0.000187
0.000395
0.000322
0.000354
0.000275
0.000218
0.000258
0.000292
0.000238
0.000264
0.000241
0.000262
0.000247
0.000244
0.000277
0.000245
0.000267
0.000268
0.000264
0.000242
0.000263
0.000269
0.000270
0.000275
0.000292
0.000265
0.000262
0.000271
0.000246
0.000462
0.001351
0.000056
0.000225
0.000249
0.000227
0.000262
0.000230
0.000262
0.000243
0.000229
0.000245
0.000251
0.000304
0.000232
0.000242
0.000244
0.000269
0.000245
0.001711
0.000259
0.000232
0.000267
0.000253
0.000252
0.000281
0.000249
0.000305
0.000225
0.000268
0.000284
0.000264
0.000255
0.000222
0.000056
0.000322
0.000311
0.001321
0.000217
0.000246
0.000249
0.000256
0.000249
0.000273
0.000245
0.000230
0.000336
0.000401
0.000446
0.000278
0.000234
0.000243
0.000258
0.000254
0.000266
0.000244
0.000284
0.000255
0.000282
0.000268
0.000397
0.000343
0.000381
0.000324
0.000229
0.000200
0.000057
0.000213
0.000243
0.000246
0.000241
0.000282
0.000197
0.000244
0.000293
0.000379
0.001333
0.000271
0.000213
0.000245
0.000265
0.000269
0.000290
0.000231
0.000251
0.000323
0.000435
0.000374
0.000236
0.000243
0.000241
0.000293
0.000270
0.000263
0.000293
0.000272
0.000275
0.000186
0.000056
0.000225
0.000477
0.000365
0.000211
0.000226
0.000240
0.000250
0.000279
0.000260
0.000248
0.000233
0.000248
0.000451
0.000505
0.000467
0.001456
0.000253
0.000256
0.000345
0.000346
0.000470
0.000419
0.000615
0.000261
0.000227
0.000260
0.000272
0.000279
0.000259
0.000272
0.000192
0.000056
0.000213
0.000328
0.000405
0.000422
0.000401
0.000220
0.000251
0.000237
0.000242
0.000273
0.000231
0.000269
0.000276
0.000227
0.000266
0.000294
0.000357
0.000503
0.001339
0.000332
0.000226
0.000244
0.000257
0.000263
0.000440
0.000478
0.000364
0.000261
0.000264
0.000273
0.000188
0.000057
0.000183
0.000249
0.000240
0.000269
0.000224
0.000313
0.000409
0.000384
0.000387
0.000213
0.000252
0.000250
0.000268
0.000296
0.000233
0.000255
0.000280
0.000243
0.000282
0.000254
0.000467
0.000426
0.000326
0.001385
0.000370
0.000240
0.000269
0.000394
0.000465
0.000353
0.000313
0.000056
0.000208
0.000226
0.000245
0.000247
0.000249
0.000254
0.001699
0.000231
0.000224
0.000229
0.000258
0.000253
0.000251
0.000326
0.000326
0.000291
0.000248
0.000328
0.000518
0.000389
0.000293
0.000292
0.000234
0.000245
0.001498
0.000389
0.000387
0.000429
0.000338
0.000307
0.000159
0.000057
0.000207
0.000245
0.000257
0.000258
0.000244
0.000267
0.001700
0.000224
0.000252
0.000264
0.000337
0.000400
0.001449
0.000359
0.000400
0.000239
0.000242
0.000243
0.000261
0.000280
0.001563
0.000546
0.000380
0.000298
0.000229
0.000257
0.000265
0.000279
0.000239
0.000258
0.000203
0.000055
0.000211
0.000241
0.000269
0.000247
0.000260
0.000277
0.000274
0.000256
0.000252
0.000252
0.000257
0.000242
0.000311
0.000225
0.000266
0.001482
0.000284
0.000229
0.000266
0.000273
0.000273
0.000268
0.000429
0.001255
0.000279
0.000235
0.000268
0.000256
0.000403
0.000242
0.000202
0.000056
0.000218
0.000253
0.000217
0.000247
0.000243
0.000226
0.000233
0.001689
0.000270
0.000222
0.000356
0.000281
0.000211
0.000224
0.000247
0.001395
0.000224
0.000278
0.000256
0.000257
0.000266
0.000340
0.000289
0.001297
0.000297
0.000248
0.000232
0.000267
0.001383
0.000282
0.000196
0.000056
0.000228
0.000345
0.000211
0.000241
0.000258
0.000229
0.000288
0.000247
0.000263
0.000248
0.000263
0.000259
0.000262
0.000226
0.000300
0.001536
0.000227
0.000271
0.000248
0.000243
0.000316
0.000245
0.000238
0.001512
0.000340
0.000240
0.000265
0.001278
0.000264
0.000258
0.000194
0.000056
0.000387
0.000206
0.000352
0.000213
0.000229
0.000246
0.000267
0.000251
0.000261
0.000279
0.000232
0.000254
0.000275
0.000272
0.000394
0.001229
0.000232
0.000252
0.000265
0.000272
0.000230
0.000249
0.000248
0.000450
0.001169
0.000241
0.000252
0.000250
0.000257
0.001338
0.000291
0.000056
0.000346
0.000218
0.000223
0.000233
0.000237
0.000257
0.000244
0.000266
0.000279
0.000230
0.000247
0.000249
0.000268
0.000290
0.000435
0.001464
0.000226
0.000251
0.000297
0.000514
0.000277
0.001486
0.000330
0.000242
0.000234
0.000259
0.000258
0.001300
0.000327
0.000469
0.000356
0.000055
0.000229
0.000254
0.000255
0.000256
0.000280
0.000230
0.000267
0.000267
0.000243
0.000262
0.000324
0.000458
0.001328
0.000236
0.000282
0.000262
0.000278
0.000221
0.000239
0.000252
0.000346
0.001232
0.000255
0.000259
0.000238
0.000242
0.001499
0.000455
0.000475
0.000219
0.000188
0.000056
0.000202
0.000227
0.000254
0.000247
0.000242
0.000263
0.000240
0.000267
0.000526
0.000386
0.000265
0.001496
0.000218
0.000231
0.000270
0.000261
0.000250
0.000290
0.001689
0.000251
0.000390
0.000351
0.001258
0.000366
0.000317
0.000329
0.000261
0.000251
0.000260
0.000265
0.000198
0.000056
0.000194
0.000241
0.000319
0.000268
0.000316
0.000594
0.000214
0.000295
0.001465
0.000233
0.000393
0.000254
0.000235
0.000349
0.000336
0.001324
0.000270
0.000245
0.000242
0.000263
0.001518
0.000389
0.000265
0.000284
0.000269
0.000243
0.000455
0.000320
0.000250
0.000261
0.000253
0.000056
0.000235
0.000362
0.000357
0.000250
0.000220
0.001522
0.000222
0.000251
0.000265
0.000270
0.000266
0.000240
0.000265
0.001525
0.000259
0.000229
0.000424
0.001192
0.000299
0.000485
0.000393
0.000249
0.000237
0.000259
0.000296
0.000219
0.000450
0.000237
0.000260
0.000276
0.000201
0.000056
0.000221
0.000371
0.000234
0.000341
0.001330
0.000270
0.000334
0.000226
0.000222
0.000245
0.000258
0.000299
0.001510
0.000262
0.000222
0.000247
0.001385
0.000274
0.000417
0.000423
0.000404
0.000234
0.000246
0.000258
0.000264
0.000283
0.000257
0.000267
0.000257
0.000261
0.000195
0.000057
0.000196
0.000432
0.001415
0.000211
0.000273
0.000307
0.000217
0.000245
0.000265
0.000362
0.001403
0.000221
0.000261
0.000264
0.000255
0.001262
0.000762
0.000221
0.000331
0.000409
0.000309
0.000240
0.000265
0.000257
0.000270
0.000289
0.000271
0.000410
0.000408
0.000350
0.001373
0.000056
0.000232
0.000232
0.000234
0.000234
0.000261
0.000387
0.000479
0.001301
0.000260
0.000234
0.000251
0.001464
0.000418
0.000307
0.000230
0.000418
0.000244
0.000239
0.000261
0.000289
0.000257
0.000249
0.000280
0.000249
0.000260
0.000286
0.000432
0.000494
0.001476
0.000240
0.000187
0.000056
0.000217
0.000254
0.000408
0.001479
0.000309
0.000240
0.000232
0.000252
0.000245
0.000256
0.000250
0.000272
0.000361
0.000544
0.000279
0.000240
0.000248
0.000276
0.000248
0.000309
0.000227
0.000264
0.000260
0.000262
0.000269
0.000359
0.000483
0.000352
0.000334
0.001402
0.000170
0.000057
0.000211
0.000235
0.000254
0.000493
0.000334
0.000294
0.000323
0.000329
0.000305
0.000245
0.000234
0.000268
0.000255
0.000306
0.000239
0.000259
0.000631
0.000273
0.000294
0.000390
0.000265
0.000403
0.000240
0.000254
0.000247
0.000258
0.000266
0.000291
0.000382
0.000486
0.000261
0.000057
0.000183
0.001409
0.000227
0.000332
0.000408
0.000403
0.000438
0.000285
0.000220
0.000232
0.000267
0.000243
0.000283
0.000279
0.000232
0.000257
0.000265
0.001261
0.000353
0.000256
0.000251
0.000277
0.000267
0.000279
0.000265
0.000258
0.000276
0.000249
0.000321
0.000409
0.000276
0.000056
0.000204
0.000240
0.000239
0.001508
0.000324
0.000242
0.000223
0.000243
0.000233
0.000239
0.000261
0.000281
0.000243
0.000250
0.000295
0.000228
0.000250
0.000261
0.000257
0.000261
0.001442
0.000224
0.000254
0.000263
0.000255
0.000248
0.000272
0.000261
0.000278
0.000496
0.000338
0.000056
0.000215
0.000221
0.000408
0.000271
0.000239
0.000257
0.001556
0.000357
0.000260
0.000220
0.000259
0.000332
0.000317
0.000223
0.000230
0.000252
0.000243
0.000268
0.000255
0.000255
0.000532
0.000523
0.001071
0.000268
0.000225
0.000268
0.000261
0.000256
0.000305
0.000233
0.000391
0.000056
0.000241
0.000334
0.000212
0.000236
0.000254
0.000236
0.000245
0.000229
0.000289
0.001636
0.000359
0.000274
0.000237
0.000245
0.000255
0.000244
0.000267
0.000275
0.000267
0.000310
0.000305
0.000528
0.000396
0.001383
0.000226
0.000282
0.000254
0.000255
0.000271
0.000289
0.000442
0.000056
0.000240
0.000264
0.000215
0.000231
0.000227
0.000243
0.000260
0.000284
0.000249
0.001591
0.000347
0.000255
0.000237
0.000258
0.000467
0.000256
0.000551
0.000371
0.000266
0.000276
0.000485
0.000498
0.001267
0.000254
0.000234
0.000254
0.001699
0.000478
0.000609
0.000313
0.000148
0.000055
0.000207
0.000228
0.000242
0.000235
0.000279
0.000220
0.000249
0.000496
0.000505
0.000413
0.000292
0.000217
0.000237
0.000274
0.000265
0.000277
0.000234
0.000244
0.000247
0.000287
0.000300
0.000364
0.001370
0.000217
0.000262
0.000259
0.001918
0.000365
0.000391
0.000340
0.000147
0.000056
0.000187
0.000229
0.000244
0.001576
0.000413
0.000219
0.000235
0.000260
0.000256
0.000276
0.000382
0.000365
0.000370
0.000265
0.000274
0.000533
0.000402
0.001210
0.000270
0.000231
0.000255
0.000258
0.000281
0.000401
0.000580
0.000492
0.000255
0.000269
0.000268
0.000273
0.000194
0.000057
0.000204
0.000231
0.000242
0.001575
0.000221
0.000232
0.000240
0.000247
0.000249
0.000252
0.000254
0.000270
0.000266
0.000272
0.000302
0.000303
0.000453
0.000340
0.001414
0.000231
0.000263
0.000247
0.000261
0.000263
0.000384
0.000430
0.000488
0.000274
0.000294
0.000226
0.000430
0.000055
0.000207
0.000236
0.000271
0.001540
0.000288
0.000219
0.000266
0.000241
0.000251
0.000258
0.000255
0.000273
0.000240
0.000248
0.000398
0.000494
0.001407
0.000756
0.000256
0.000333
0.000244
0.000235
0.000252
0.000274
0.001679
0.000819
0.000226
0.000264
0.000267
0.000283
0.000186
0.000056
0.000227
0.000232
0.000250
0.000244
0.000281
0.000254
0.000211
0.000253
0.000238
0.000245
0.000281
0.000298
0.000236
0.000249
0.000260
0.000248
0.000271
0.001604
0.000704
0.000381
0.000301
0.000240
0.000240
0.000313
0.000244
0.000253
0.000276
0.000246
0.001406
0.000400
0.000331
0.000056
0.000205
0.000219
0.000269
0.000231
0.000259
0.000231
0.000282
0.000227
0.000261
0.000249
0.000301
0.000419
0.000415
0.000335
0.000214
0.000244
0.000263
0.001396
0.000687
0.000480
0.000332
0.000276
0.000225
0.000248
0.000277
0.000256
0.000254
0.000266
0.001484
0.000418
0.000212
0.000055
0.000224
0.000228
0.000245
0.000247
0.000247
0.000247
0.000249
0.000252
0.000260
0.000276
0.000346
0.000442
0.000270
0.000217
0.000243
0.000243
0.000272
0.000253
0.001573
0.000665
0.000534
0.000210
0.000238
0.000245
0.000272
0.000255
0.000266
0.000278
0.000270
0.001349
0.000334
0.000057
0.000205
0.000219
0.000238
0.000257
0.000256
0.000245
0.000249
0.000308
0.000361
0.000448
0.000342
0.000406
0.000366
0.000213
0.000241
0.000254
0.000302
0.000236
0.000263
0.001900
0.000353
0.000232
0.000455
0.000233
0.000251
0.000267
0.000269
0.000260
0.000270
0.000270
0.000445
0.000056
0.000190
0.000294
0.000223
0.000243
0.000254
0.000249
0.000222
0.000244
0.000292
0.000246
0.000230
0.000234
0.000336
0.000393
0.000460
0.000454
0.000239
0.000251
0.000246
0.000252
0.000254
0.000290
0.001476
0.001042
0.000229
0.000244
0.000271
0.000259
0.000280
0.000254
0.000197
0.000055
0.000205
0.001342
0.000289
0.000238
0.000210
0.000254
0.000254
0.000234
0.000248
0.000259
0.000247
0.000263
0.000236
0.000488
0.000319
0.000427
0.000246
0.000251
0.000264
0.000270
0.000277
0.000223
0.000257
0.000268
0.001313
0.000685
0.000315
0.000389
0.000376
0.000405
0.000287
0.000055
0.000200
0.000266
0.000455
0.001200
0.000211
0.000250
0.000230
0.000259
0.000256
0.000256
0.000268
0.000228
0.000374
0.000258
0.000540
0.000317
0.000224
0.000280
0.000342
0.000204
0.000248
0.000272
0.000235
0.000271
0.000270
0.001528
0.000752
0.000317
0.000256
0.000275
0.000195
0.000055
0.000224
0.000273
0.000440
0.000320
0.001301
0.000262
0.000208
0.000247
0.000240
0.000247
0.000244
0.000259
0.000231
0.000238
0.000244
0.000264
0.000268
0.000236
0.000256
0.000251
0.000267
0.000272
0.000313
0.000327
0.000215
0.000263
0.000272
0.001458
0.000255
0.000246
0.000181
0.000056
0.000214
0.000211
0.000250
0.000277
0.000343
0.000372
0.000393
0.000279
0.001579
0.000221
0.000277
0.000512
0.000355
0.000232
0.000434
0.000238
0.000233
0.000276
0.000262
0.000266
0.000280
0.000270
0.000260
0.000270
0.000267
0.000449
0.000335
0.000340
0.001574
0.000230
0.000192
0.000056
0.000227
0.000236
0.000249
0.000252
0.000235
0.000246
0.000263
0.000318
0.000420
0.002011
0.000233
0.000253
0.000249
0.000260
0.000255
0.000264
0.000265
0.000249
0.000335
0.000384
0.000358
0.000457
0.001435
0.000243
0.000246
0.002008
0.000295
0.000236
0.000261
0.001519
0.000167
0.000056
0.000320
0.000423
0.000457
0.000242
0.000281
0.000207
0.000265
0.000295
0.000234
0.000228
0.000253
0.000343
0.000459
0.000287
0.000450
0.000233
0.000226
0.001568
0.000245
0.000591
0.001855
0.000299
0.000225
0.001585
0.001975
0.000742
0.000276
0.000257
0.000289
0.000520
0.000292
0.000056
0.000208
0.000229
0.000285
0.000218
0.001415
0.001742
0.001065
0.000208
0.000240
0.001587
0.001967
0.000220
0.000240
0.000430
0.000265
0.000460
0.000347
0.000469
0.000220
0.000239
0.000251
0.000252
0.000277
0.001587
0.001206
0.001465
0.000253
0.000276
0.000253
0.000319
0.000359
0.000055
0.000224
0.000250
0.000223
0.000242
0.000229
0.000267
0.000228
0.000256
0.000257
0.000240
0.000257
0.000315
0.000490
0.000369
0.000306
0.000269
0.000242
0.000267
0.000267
0.000280
0.000243
0.000260
0.001492
0.000490
0.002136
0.000225
0.000260
0.000310
0.000451
0.000390
0.000218
0.000057
0.000229
0.000369
0.000451
0.000313
0.000216
0.000216
0.000257
0.000241
0.000239
0.000242
0.000249
0.000261
0.000262
0.001607
0.001353
0.001265
0.000262
0.000208
0.000247
0.000273
0.000281
0.000280
0.000244
0.000254
0.002192
0.000250
0.000264
0.000300
0.000320
0.000311
0.000251
0.000056
0.000215
0.000350
0.000555
0.000343
0.000228
0.000223
0.000254
0.000270
0.001902
0.001422
0.000211
0.000320
0.000388
0.000426
0.000252
0.000240
0.000236
0.000284
0.000250
0.000271
0.000250
0.000263
0.000471
0.000233
0.000274
0.000275
0.000246
0.000276
0.000278
0.000249
0.000200
0.000055
0.000219
0.000238
0.000245
0.000246
0.000279
0.000252
0.001538
0.001414
0.001323
0.000235
0.000237
0.000243
0.000266
0.000264
0.000240
0.000276
0.000232
0.002154
0.000217
0.000210
0.000274
0.000260
0.000257
0.000273
0.000264
0.000267
0.000267
0.000249
0.000272
0.000246
0.000190
0.000056
0.000202
0.002678
0.001399
0.000226
0.000301
0.000323
0.000216
0.000283
0.000230
0.000235
0.000276
0.000230
0.000234
0.000245
0.000273
0.000255
0.000261
0.000268
0.000270
0.000259
0.000261
0.000287
0.000270
0.000262
0.000247
0.000249
0.000265
0.000270
0.000262
0.000268
0.000369
0.000056
0.001559
0.000251
0.001234
0.000240
0.000221
0.000235
0.000285
0.000252
0.000226
0.000257
0.000432
0.000332
0.000338
0.000229
0.000240
0.002190
0.000201
0.000243
0.000264
0.000606
0.000292
0.000285
0.000237
0.000250
0.000262
0.000253
0.000262
0.000281
0.000268
0.001609
0.001261
0.000056
0.000200
0.000235
0.000310
0.000375
0.000381
0.000270
0.000210
0.000229
0.000257
0.000255
0.000261
0.000246
0.000228
0.000263
0.000261
0.000239
0.000304
0.000622
0.000424
0.000193
0.000241
0.000270
0.000272
0.000250
0.000251
0.000248
0.000263
0.000278
0.000238
0.000314
0.000389
0.000056
0.001108
0.000223
0.000345
0.000456
0.000293
0.000225
0.000232
0.000240
0.000250
0.002349
0.000386
0.000317
0.000219
0.000379
0.000307
0.000276
0.000219
0.000259
0.000260
0.000225
0.000257
0.000381
0.000582
0.000376
0.001857
0.001327
0.000469
0.000582
0.000227
0.000286
0.000210
0.000056
0.000220
0.000386
0.000249
0.000235
0.000253
0.000222
0.000261
0.000261
0.000239
0.000253
0.000257
0.000219
0.000256
0.000277
0.000354
0.000544
0.001822
0.001311
0.000467
0.000449
0.000442
0.000235
0.000243
0.000258
0.002198
0.000482
0.000390
0.000236
0.000271
0.000287
0.000192
0.000071
0.000196
0.000239
0.000255
0.000248
0.000246
0.000452
0.000303
0.000270
0.000359
0.000214
0.000249
0.000243
0.000263
0.002114
0.000362
0.000389
0.000219
0.000247
0.000292
0.000236
0.000249
0.002471
0.000325
0.000219
0.000263
0.000253
0.000250
0.000278
0.000311
0.000248
0.000194
0.000056
0.000225
0.000295
0.000537
0.000401
0.000267
0.000214
0.000228
0.000254
0.000264
0.000247
0.001990
0.000356
0.000275
0.000267
0.000237
0.000267
0.000273
0.000247
0.002202
0.000441
0.000228
0.000262
0.000278
0.000257
0.000260
0.000246
0.000297
0.000239
0.000271
0.000250
0.000190
0.000055
0.000213
0.000239
0.000245
0.000221
0.000252
0.000259
0.000237
0.000238
0.000236
0.002185
0.000231
0.000276
0.000220
0.000423
0.000228
0.000248
0.000313
0.000263
0.000250
0.000249
0.001964
0.000279
0.000344
0.000362
0.000432
0.000414
0.000295
0.000260
0.000253
0.000266
0.000192
0.000056
0.000203
0.000249
0.000236
0.000242
0.000245
0.000332
0.000231
0.002295
0.000239
0.000241
0.000260
0.000247
0.000239
0.000284
0.000281
0.002122
0.000586
0.000222
0.000254
0.000242
0.000265
0.000262
0.000283
0.000263
0.000263
0.000261
0.000285
0.000250
0.000264
0.000267
0.000194
0.000055
0.001830
0.001424
0.000213
0.000225
0.000241
0.000253
0.000250
0.000264
0.000399
0.000357
0.002174
0.000260
0.000231
0.000275
0.000266
0.000502
0.000415
0.000297
0.000225
0.000253
0.000246
0.000266
0.000270
0.000224
0.000258
0.000263
0.000273
0.000266
0.000298
0.000690
0.000306
0.000056
0.000192
0.000262
0.000241
0.000250
0.000271
0.000245
0.000247
0.000248
0.001475
0.002125
0.000575
0.000282
0.000399
0.000704
0.000348
0.000234
0.000254
0.000251
0.000266
0.000259
0.000263
0.000237
0.000263
0.000255
0.003012
0.000331
0.000240
0.000266
0.000289
0.000286
0.000390
0.000056
0.001918
0.000239
0.000230
0.000237
0.000281
0.000369
0.000457
0.000310
0.000278
0.000220
0.000240
0.000253
0.000254
0.000262
0.000264
0.000246
0.000256
0.000297
0.001820
0.000237
0.000239
0.000250
0.000274
0.000277
0.000272
0.000252
0.001468
0.000350
0.000230
0.000259
0.000184
0.000056
0.000203
0.000227
0.000253
0.000230
0.000246
0.000247
0.000304
0.000361
0.000333
0.000395
0.000227
0.000229
0.000260
0.000324
0.000419
0.000322
0.000235
0.000238
0.000263
0.000350
0.000443
0.000498
0.000230
0.000263
0.000252
0.000258
0.000253
0.000271
0.000274
0.000262
0.000212
0.000055
0.001445
0.000459
0.000207
0.001933
0.000298
0.000468
0.000375
0.000313
0.000227
0.000246
0.000266
0.000246
0.000243
0.000248
0.000267
0.000258
0.000450
0.000269
0.000421
0.000347
0.000397
0.000213
0.000265
0.000260
0.000272
0.000267
0.000268
0.000267
0.000388
0.000445
0.001362
0.000057
0.000221
0.000215
0.002078
0.000325
0.000311
0.000230
0.000261
0.000249
0.000264
0.000260
0.000208
0.000254
0.000259
0.000259
0.000297
0.000341
0.000693
0.001761
0.000227
0.000247
0.000247
0.000276
0.000386
0.000488
0.001514
0.000294
0.000363
0.001924
0.000263
0.000241
0.000205
0.000056
0.000225
0.000214
0.000240
0.000244
0.000227
0.000247
0.000254
0.000310
0.000304
0.000270
0.000373
0.000368
0.000342
0.000288
0.000244
0.000269
0.000268
0.000234
0.000265
0.000251
0.000318
0.000274
0.000266
0.000256
0.000269
0.001517
0.000302
0.000370
0.002071
0.000239
0.000174
0.000056
0.000194
0.000231
0.000242
0.000249
0.000486
0.000210
0.000251
0.000347
0.000341
0.000339
0.000286
0.000211
0.000269
0.000258
0.000270
0.000331
0.000428
0.000427
0.000256
0.000423
0.000517
0.000375
0.001637
0.000230
0.000249
0.001970
0.000335
0.000252
0.000249
0.000291
0.000186
0.000056
0.000184
0.000243
0.000230
0.000247
0.000253
0.000266
0.000253
0.000272
0.000251
0.000271
0.001801
0.000313
0.000381
0.000284
0.000466
0.000372
0.000340
0.001502
0.000257
0.000269
0.002215
0.000470
0.000264
0.000241
0.000252
0.000264
0.000506
0.000223
0.000255
0.000278
0.000196
0.000056
0.000198
0.000347
0.000386
0.000277
0.000202
0.000246
0.000259
0.000254
0.000263
0.000281
0.000236
0.000253
0.000261
0.000266
0.000324
0.000528
0.001267
0.000266
0.000282
0.002009
0.000268
0.000294
0.000228
0.000263
0.000245
0.000300
0.000254
0.000258
0.000242
0.000272
0.000200
0.000056
0.000234
0.000404
0.002051
0.000249
0.000227
0.000247
0.000250
0.000362
0.000386
0.000433
0.001288
0.000383
0.000355
0.002075
0.000225
0.000233
0.000268
0.000272
0.000260
0.000239
0.000281
0.000300
0.000251
0.000359
0.000472
0.000367
0.000319
0.002236
0.000511
0.000444
0.000411
0.000056
0.000200
0.000227
0.000244
0.001962
0.000241
0.000222
0.000248
0.000232
0.000246
0.000260
0.000258
0.000246
0.000259
0.000279
0.000485
0.001415
0.000263
0.000235
0.000265
0.000258
0.000251
0.000241
0.000259
0.000264
0.000346
0.000489
0.000425
0.000238
0.001585
0.000281
0.000162
0.000056
0.000198
0.000235
0.000249
0.000232
0.000267
0.000263
0.000231
0.000242
0.000259
0.000371
0.000378
0.001396
0.000237
0.000235
0.000248
0.000290
0.000226
0.000254
0.000318
0.000458
0.000447
0.000404
0.000231
0.001566
0.000255
0.000238
0.000287
0.000285
0.000260
0.000270
0.000197
0.000055
0.000197
0.000253
0.000272
0.000248
0.000251
0.000240
0.000234
0.000262
0.000257
0.000228
0.000246
0.000259
0.000262
0.001475
0.000366
0.000211
0.000278
0.000235
0.000286
0.000304
0.000364
0.000283
0.000241
0.000259
0.000265
0.000264
0.000254
0.001418
0.000286
0.000226
0.000175
0.000056
0.000188
0.000227
0.000263
0.000263
0.000270
0.000217
0.000263
0.000246
0.000218
0.000269
0.000245
0.000255
0.000246
0.000319
0.000393
0.000305
0.000263
0.000233
0.001631
0.000252
0.000233
0.000263
0.000262
0.000320
0.000343
0.000424
0.000412
0.000274
0.000246
0.001619
0.000171
0.000057
0.000318
0.000368
0.000409
0.000246
0.000223
0.000224
0.000248
0.000272
0.000254
0.000259
0.000221
0.000242
0.001511
0.000241
0.000311
0.000228
0.000238
0.000276
0.000251
0.000268
0.000255
0.000231
0.000259
0.000271
0.000268
0.000414
0.000399
0.000369
0.000271
0.000251
0.000194
0.000055
0.000208
0.000284
0.000438
0.000340
0.000316
0.000291
0.000247
0.000246
0.000251
0.000262
0.000245
0.000222
0.000257
0.000239
0.001293
0.000265
0.000235
0.000253
0.000272
0.000256
0.000249
0.000263
0.000255
0.000255
0.000263
0.000256
0.000361
0.000657
0.000431
0.000250
0.000169
0.000056
0.000206
0.001560
0.000266
0.000287
0.000534
0.000337
0.000208
0.000255
0.000270
0.000242
0.000241
0.000263
0.000269
0.000274
0.000255
0.001533
0.000252
0.000283
0.000263
0.000260
0.000271
0.000235
0.000267
0.000263
0.000256
0.000267
0.000432
0.000365
0.000380
0.000233
0.000180
0.000056
0.000199
0.000254
0.000248
0.001602
0.000420
0.000346
0.000224
0.000242
0.000256
0.000265
0.000281
0.000248
0.000258
0.000254
0.000230
0.000275
0.000359
0.001358
0.000256
0.000227
0.001504
0.000301
0.000587
0.000382
0.000354
0.000224
0.000271
0.000480
0.000220
0.000267
0.000184
0.000056
0.000286
0.000219
0.000234
0.000250
0.000246
0.000279
0.000221
0.000253
0.000256
0.000249
0.000247
0.000256
0.000341
0.000518
0.001616
0.001497
0.000352
0.000551
0.000335
0.000213
0.000235
0.000258
0.000251
0.000271
0.000250
0.000261
0.000254
0.000268
0.001529
0.000329
0.000187
0.000055
0.000221
0.000351
0.000365
0.000324
0.000239
0.000226
0.000243
0.000296
0.000507
0.000339
0.002183
0.000311
0.000764
0.000434
0.000475
0.000243
0.000336
0.000393
0.000327
0.000284
0.000385
0.000274
0.001531
0.000529
0.000226
0.000254
0.000258
0.000259
0.000257
0.000266
0.000196
0.000056
0.000220
0.000250
0.000251
0.000254
0.000246
0.001658
0.000872
0.001005
0.000210
0.000236
0.000269
0.000256
0.000242
0.000262
0.000259
0.000244
0.000258
0.000264
0.000268
0.000277
0.001451
0.000298
0.000252
0.000228
0.000236
0.000257
0.000258
0.000286
0.000262
0.000288
0.001892
0.000056
0.000188
0.000234
0.001547
0.000938
0.000318
0.000355
0.000253
0.000201
0.000253
0.000257
0.000253
0.000240
0.000250
0.001973
0.000481
0.000223
0.000243
0.000254
0.000266
0.000264
0.000190
