0.000376
0.020033
0.001403
0.000280
0.000222
0.000244
0.000304
0.000255
0.000334
0.000284
0.000262
0.000356
0.000574
0.000454
0.000325
0.000323
0.000301
0.000379
0.000399
0.000412
0.000317
0.001827
0.000523
0.000445
0.000260
0.000288
0.000308
0.000429
0.000396
0.000539
0.000354
0.000276
0.000057
0.000207
0.000236
0.000269
0.000257
0.000292
0.000233
0.000281
0.000267
0.000272
0.000305
0.000393
0.000492
0.000292
0.000283
0.000399
0.000360
0.000349
0.000253
0.000216
0.001734
0.000303
0.000222
0.000499
0.000248
0.000249
0.000232
0.000296
0.000292
0.000282
0.000354
0.000420
0.000058
0.000240
0.000228
0.000261
0.000256
0.000259
0.000245
0.000260
0.000260
0.000279
0.001680
0.000230
0.000228
0.000253
0.000280
0.000270
0.000250
0.000282
0.000254
0.000341
0.001803
0.000255
0.000257
0.000459
0.000464
0.000385
0.000245
0.000232
0.000515
0.000516
0.000738
0.000176
0.000057
0.000219
0.000206
0.000258
0.000270
0.000288
0.000274
0.000355
0.000578
0.000339
0.000276
0.000210
0.000209
0.000235
0.000262
0.000244
0.000268
0.000238
0.000278
0.000287
0.000350
0.001726
0.000244
0.000223
0.000482
0.000331
0.000665
0.000642
0.000467
0.000331
0.000266
0.000206
0.000056
0.000206
0.000222
0.000262
0.000246
0.000258
0.000250
0.000280
0.000448
0.001485
0.000232
0.000241
0.000226
0.000260
0.000251
0.000265
0.000281
0.000416
0.000684
0.001368
0.000289
0.000261
0.000417
0.000260
0.000228
0.000252
0.000256
0.000270
0.000286
0.000246
0.000265
0.000215
0.000056
0.000231
0.000203
0.000224
0.000245
0.000260
0.000242
0.000242
0.000262
0.000228
0.000264
0.001702
0.000239
0.000226
0.000236
0.000208
0.000259
0.000239
0.000251
0.000253
0.000261
0.000256
0.001755
0.000237
0.000254
0.000478
0.000236
0.000237
0.000228
0.000264
0.000264
0.000206
0.000057
0.000188
0.000209
0.000242
0.000248
0.000244
0.000246
0.000258
0.000232
0.000264
0.000249
0.000264
0.000254
0.000257
0.000276
0.001637
0.000271
0.000285
0.000245
0.000232
0.000280
0.000270
0.000242
0.000254
0.000253
0.000267
0.001908
0.000334
0.000348
0.000273
0.000270
0.000212
0.000056
0.000190
0.000211
0.000241
0.000273
0.000257
0.000229
0.000317
0.000458
0.000362
0.000417
0.000223
0.000226
0.000248
0.000273
0.001635
0.000524
0.000281
0.000428
0.000276
0.000213
0.000262
0.000276
0.000273
0.001813
0.000476
0.000491
0.000229
0.000222
0.000231
0.000254
0.000212
0.000056
0.000197
0.000236
0.000220
0.000285
0.000391
0.000426
0.000362
0.000272
0.000202
0.000231
0.000266
0.000233
0.000262
0.001702
0.000487
0.000315
0.000219
0.000241
0.000265
0.000285
0.000255
0.000258
0.000271
0.001887
0.000313
0.000398
0.000240
0.000245
0.000321
0.000402
0.000332
0.000056
0.000223
0.000373
0.000326
0.000287
0.000280
0.000209
0.000237
0.000259
0.000243
0.000247
0.000248
0.000234
0.001617
0.000357
0.000282
0.000216
0.000223
0.000253
0.000243
0.000281
0.000274
0.000344
0.001786
0.000342
0.000227
0.000502
0.000214
0.000225
0.000255
0.000265
0.000290
0.000058
0.000383
0.000448
0.000666
0.000194
0.000208
0.000271
0.000227
0.000224
0.000255
0.000262
0.000244
0.001702
0.000279
0.000403
0.000379
0.000231
0.000234
0.000226
0.000239
0.000272
0.000247
0.001856
0.000253
0.000235
0.002211
0.000459
0.000270
0.000265
0.000261
0.000255
0.000214
0.000057
0.000196
0.000212
0.000249
0.000237
0.000265
0.001694
0.000206
0.000202
0.000252
0.000253
0.000241
0.000241
0.000257
0.000257
0.000302
0.000411
0.000624
0.000234
0.000235
0.000264
0.000274
0.000255
0.000230
0.000504
0.000422
0.000270
0.000412
0.000580
0.000340
0.000233
0.000200
0.000055
0.000215
0.000207
0.000254
0.000246
0.000247
0.000233
0.000241
0.000493
0.000386
0.001649
0.000246
0.000232
0.000239
0.000250
0.000257
0.000261
0.000456
0.000531
0.000367
0.000217
0.000219
0.000275
0.000314
0.000278
0.000283
0.000404
0.000426
0.000490
0.000595
0.000406
0.000146
0.000056
0.000187
0.000236
0.000223
0.000237
0.000235
0.000241
0.000241
0.000245
0.000254
0.000373
0.000338
0.001567
0.000267
0.000212
0.000200
0.000222
0.000260
0.000254
0.000247
0.000252
0.000298
0.000426
0.000422
0.000331
0.000222
0.000225
0.000264
0.000262
0.000266
0.000261
0.000426
0.000056
0.000196
0.000216
0.000229
0.000308
0.000572
0.000374
0.000249
0.000239
0.000217
0.000259
0.000256
0.000239
0.000283
0.000264
0.000236
0.000609
0.000346
0.001586
0.000268
0.000248
0.000253
0.000268
0.000259
0.000245
0.000258
0.000571
0.000379
0.000370
0.000362
0.000240
0.000202
0.000055
0.000227
0.000226
0.000396
0.000239
0.000262
0.000247
0.000315
0.000605
0.000291
0.000285
0.000243
0.000267
0.000266
0.000248
0.000580
0.000296
0.000215
0.000265
0.000461
0.001626
0.000265
0.000224
0.000284
0.000421
0.000269
0.000298
0.000256
0.000382
0.000515
0.000373
0.000290
0.000056
0.000185
0.000213
0.000238
0.000250
0.000470
0.000256
0.000288
0.000220
0.000470
0.000524
0.000331
0.000226
0.000212
0.000223
0.000247
0.000271
0.000253
0.000262
0.000218
0.000372
0.000277
0.000608
0.001560
0.000271
0.000232
0.000257
0.000308
0.000365
0.000597
0.000640
0.000353
0.000058
0.000255
0.000313
0.000313
0.000421
0.000326
0.000218
0.000247
0.000310
0.000529
0.000410
0.000288
0.000207
0.000220
0.000261
0.000265
0.000238
0.000245
0.000276
0.000266
0.000263
0.000264
0.000456
0.001725
0.000307
0.000344
0.000422
0.000381
0.000236
0.000425
0.000483
0.000315
0.000059
0.000229
0.000380
0.000286
0.000207
0.000229
0.000216
0.000475
0.000215
0.000207
0.000348
0.000629
0.000313
0.000185
0.000238
0.000264
0.000285
0.000363
0.000459
0.000289
0.000215
0.000217
0.000291
0.000738
0.001669
0.000262
0.000392
0.000332
0.000246
0.000247
0.000428
0.000283
0.000056
0.000194
0.000200
0.000240
0.000247
0.000245
0.000242
0.000258
0.000343
0.000446
0.000314
0.000508
0.000338
0.000273
0.000227
0.000500
0.000269
0.000279
0.000269
0.000241
0.000346
0.000218
0.000240
0.000265
0.000405
0.000615
0.001617
0.000228
0.000242
0.000230
0.000253
0.000201
0.000057
0.000244
0.000543
0.000289
0.000212
0.000255
0.000201
0.000264
0.000236
0.000254
0.000254
0.000220
0.000495
0.000245
0.000548
0.000374
0.000284
0.000227
0.000239
0.000364
0.000357
0.000364
0.000377
0.000372
0.000372
0.000253
0.000222
0.000244
0.000269
0.001801
0.000267
0.000190
0.000057
0.000184
0.000204
0.000244
0.000267
0.000366
0.000534
0.000340
0.000232
0.000228
0.000268
0.000249
0.000243
0.000522
0.000462
0.000470
0.000306
0.000270
0.000245
0.000441
0.000485
0.000373
0.000453
0.000580
0.000300
0.000238
0.000235
0.000239
0.000235
0.000258
0.001789
0.000332
0.000057
0.000272
0.000325
0.000209
0.000227
0.000248
0.000248
0.000289
0.000449
0.000424
0.000303
0.000312
0.000352
0.000350
0.000625
0.000304
0.000192
0.000222
0.000245
0.000277
0.000238
0.000263
0.000273
0.000235
0.000275
0.000335
0.000350
0.000454
0.000369
0.000230
0.000211
0.000191
0.000058
0.000429
0.000385
0.000365
0.000248
0.000206
0.000224
0.000248
0.000250
0.000256
0.000235
0.000227
0.000269
0.000305
0.000435
0.000398
0.000587
0.000260
0.000365
0.000367
0.000391
0.000266
0.000221
0.000216
0.000246
0.001825
0.000221
0.001756
0.000931
0.000413
0.000327
0.000123
0.000057
0.000194
0.000215
0.000235
0.000231
0.000257
0.000249
0.000260
0.000263
0.000243
0.000373
0.000445
0.000306
0.000379
0.000391
0.000249
0.000230
0.000267
0.000292
0.000213
0.000239
0.000244
0.000222
0.001814
0.000270
0.000227
0.000264
0.000274
0.000264
0.001881
0.000481
0.000330
0.000057
0.000205
0.000209
0.000212
0.000240
0.000255
0.000246
0.000245
0.000256
0.000255
0.000333
0.000626
0.000286
0.000396
0.000247
0.000214
0.000289
0.000383
0.000404
0.000381
0.000232
0.001806
0.000235
0.000221
0.000238
0.000248
0.000275
0.000246
0.000262
0.000252
0.000400
0.000411
0.000056
0.000279
0.000198
0.000199
0.000255
0.000247
0.000243
0.000262
0.000261
0.000233
0.000268
0.000237
0.000290
0.000416
0.000354
0.000358
0.000291
0.000479
0.000207
0.000217
0.000255
0.000258
0.000253
0.000278
0.000266
0.000269
0.001788
0.000283
0.000219
0.000253
0.000240
0.000219
0.000056
0.000345
0.000217
0.000252
0.000193
0.000225
0.000239
0.000240
0.000247
0.000249
0.000242
0.000238
0.000239
0.000273
0.000283
0.000504
0.000348
0.000341
0.000212
0.000214
0.000248
0.000261
0.000260
0.000245
0.000267
0.000273
0.000241
0.000299
0.001710
0.000229
0.000232
0.000182
0.000056
0.000204
0.000203
0.000250
0.000263
0.000342
0.000422
0.000374
0.000295
0.000245
0.000219
0.000248
0.000249
0.000242
0.000260
0.000255
0.000263
0.000245
0.000259
0.000257
0.000255
0.000262
0.000269
0.000261
0.000235
0.000230
0.000289
0.000277
0.000260
0.000249
0.000260
0.000220
0.000056
0.000233
0.000194
0.000244
0.000255
0.000240
0.000251
0.000243
0.000262
0.000370
0.000195
0.000188
0.000246
0.000250
0.000255
0.000283
0.000248
0.000268
0.000230
0.000366
0.000216
0.000234
0.000292
0.000282
0.000253
0.000264
0.000287
0.000265
0.000249
0.000282
0.000499
0.000571
0.000056
0.000235
0.000301
0.000225
0.000202
0.000206
0.000252
0.000240
0.000249
0.000248
0.000241
0.000272
0.000333
0.000441
0.000492
0.001597
0.000203
0.000513
0.000201
0.000239
0.000477
0.000464
0.000315
0.000234
0.000270
0.000261
0.000256
0.000275
0.000257
0.000301
0.000266
0.000204
0.000055
0.000296
0.000487
0.000293
0.000296
0.000206
0.000249
0.000244
0.000243
0.000231
0.000256
0.000246
0.000260
0.000228
0.000270
0.000450
0.000542
0.000238
0.001812
0.000263
0.000228
0.000380
0.000372
0.000502
0.000268
0.000369
0.000259
0.000299
0.000235
0.000228
0.000246
0.000224
0.000056
0.000216
0.000197
0.000245
0.000283
0.000491
0.000409
0.000242
0.000255
0.000252
0.000223
0.000247
0.000265
0.000264
0.000265
0.000249
0.000259
0.000322
0.000480
0.000372
0.000402
0.000230
0.001814
0.000291
0.000554
0.000502
0.000420
0.000286
0.000233
0.000235
0.000273
0.000499
0.000056
0.000214
0.000231
0.000236
0.000293
0.000374
0.000489
0.000384
0.000260
0.000214
0.000319
0.000229
0.000226
0.000252
0.000362
0.000299
0.000215
0.000219
0.000539
0.000317
0.000342
0.000526
0.001798
0.000243
0.000413
0.000626
0.000258
0.000258
0.000355
0.000240
0.000218
0.000215
0.000056
0.000223
0.000331
0.000349
0.000312
0.000398
0.000339
0.000325
0.000215
0.000253
0.000233
0.000279
0.000235
0.000234
0.000256
0.000252
0.000256
0.000315
0.000353
0.000544
0.000380
0.000309
0.000199
0.000257
0.001793
0.000404
0.000415
0.000698
0.000298
0.000240
0.000287
0.000183
0.000055
0.000188
0.000222
0.000311
0.000258
0.000275
0.000400
0.000405
0.000297
0.000614
0.000212
0.000209
0.000215
0.000240
0.000281
0.000275
0.000272
0.000225
0.000310
0.000583
0.000335
0.000263
0.000240
0.000264
0.000249
0.000267
0.000264
0.000244
0.000246
0.000272
0.000346
0.000181
0.000056
0.000322
0.000270
0.000232
0.000230
0.000258
0.000254
0.000254
0.000346
0.000206
0.000211
0.000256
0.000340
0.000500
0.000439
0.000234
0.000302
0.000236
0.000237
0.000249
0.000238
0.000268
0.000296
0.000236
0.000258
0.000274
0.000321
0.000440
0.000387
0.000355
0.000227
0.000168
0.000056
0.000233
0.000170
0.000273
0.000243
0.000241
0.000253
0.000252
0.000271
0.000479
0.000256
0.000221
0.000258
0.000241
0.000255
0.000270
0.000305
0.000245
0.000350
0.000247
0.000230
0.000251
0.000256
0.000257
0.000261
0.000280
0.000261
0.000267
0.000257
0.000247
0.000506
0.000175
0.000055
0.000185
0.000223
0.000234
0.000265
0.000244
0.000234
0.000297
0.000463
0.000252
0.000227
0.000248
0.000261
0.000237
0.000294
0.000451
0.001746
0.000235
0.000253
0.000311
0.000381
0.000412
0.000346
0.000489
0.000285
0.000363
0.000359
0.000251
0.000259
0.000266
0.000279
0.001434
0.000056
0.000417
0.000279
0.000311
0.000203
0.000196
0.000243
0.000230
0.000249
0.000250
0.000256
0.000255
0.000253
0.000260
0.000275
0.000588
0.001663
0.000213
0.000210
0.000223
0.000263
0.000243
0.000265
0.000460
0.000411
0.000203
0.000317
0.000238
0.000258
0.000278
0.000257
0.000206
0.000057
0.001208
0.000642
0.000232
0.000289
0.000205
0.000201
0.000219
0.000249
0.000452
0.000256
0.000232
0.000236
0.000421
0.000591
0.000261
0.000327
0.000292
0.000250
0.000360
0.000345
0.000221
0.000241
0.000271
0.000249
0.000303
0.000526
0.000555
0.000291
0.000241
0.000264
0.000194
0.000055
0.000202
0.000211
0.000236
0.000240
0.001425
0.000363
0.000220
0.000238
0.000243
0.000252
0.000249
0.000251
0.000245
0.000259
0.000267
0.000311
0.000467
0.000610
0.000278
0.001801
0.000249
0.000290
0.000293
0.000568
0.000483
0.000280
0.000238
0.000244
0.000249
0.000267
0.000220
0.000056
0.000216
0.000243
0.000216
0.001325
0.000332
0.000199
0.000255
0.000209
0.000250
0.000232
0.000229
0.000255
0.000277
0.000246
0.000247
0.000270
0.000619
0.000358
0.000336
0.000191
0.000252
0.000274
0.000256
0.000232
0.000345
0.000218
0.000226
0.000280
0.000267
0.000297
0.000747
0.000057
0.000181
0.000218
0.000243
0.000251
0.000264
0.000256
0.000224
0.000267
0.000261
0.000249
0.001449
0.000235
0.000224
0.000252
0.000247
0.000239
0.000268
0.000264
0.000261
0.000271
0.000262
0.000510
0.000569
0.000259
0.000240
0.000264
0.001836
0.000231
0.000233
0.000323
0.000465
0.000057
0.000231
0.000432
0.000454
0.000509
0.000522
0.000540
0.001480
0.000413
0.000543
0.000650
0.000547
0.000705
0.000507
0.000613
0.000584
0.001732
0.000476
0.000428
0.000376
0.000313
0.000253
0.000298
0.000283
0.000265
0.000281
0.000270
0.000298
0.000288
0.000249
0.000292
0.001321
0.000056
0.000207
0.000237
0.000223
0.000244
0.000242
0.000248
0.000233
0.000243
0.000250
0.000272
0.000247
0.000274
0.000227
0.000269
0.000252
0.000267
0.001831
0.000264
0.000258
0.000255
0.000253
0.000261
0.000292
0.000319
0.000372
0.000391
0.000337
0.000242
0.000258
0.000291
0.000165
0.000057
0.000198
0.001400
0.000263
0.000261
0.000264
0.000234
0.000254
0.000252
0.000253
0.000233
0.000246
0.000238
0.000290
0.000395
0.000294
0.000362
0.000266
0.000282
0.001905
0.000266
0.000259
0.000256
0.000253
0.000264
0.000280
0.000257
0.000289
0.000239
0.000249
0.000301
0.000240
0.000056
0.000205
0.000233
0.000248
0.001441
0.000247
0.000268
0.000230
0.000226
0.000217
0.000266
0.000253
0.000249
0.000246
0.000250
0.000290
0.000249
0.000249
0.000254
0.000298
0.000236
0.000261
0.001852
0.000255
0.001763
0.000255
0.000254
0.000253
0.000223
0.000265
0.000292
0.000212
0.000056
0.000195
0.000248
0.001373
0.000216
0.000283
0.000220
0.000216
0.000240
0.000244
0.000252
0.000254
0.000246
0.000247
0.000261
0.000261
0.000266
0.000255
0.000301
0.000270
0.000245
0.001874
0.000273
0.001786
0.000292
0.000246
0.000247
0.000259
0.000264
0.000260
0.000263
0.000179
0.000056
0.001460
0.000219
0.000252
0.000227
0.000202
0.000227
0.000275
0.000356
0.000257
0.000255
0.000253
0.000261
0.000262
0.000394
0.000424
0.000264
0.000259
0.000269
0.000233
0.000209
0.000268
0.000332
0.000250
0.000271
0.000265
0.000270
0.000257
0.000399
0.000679
0.000321
0.000185
0.000055
0.000198
0.000291
0.000274
0.000305
0.000348
0.000274
0.001672
0.000289
0.000275
0.000259
0.000270
0.000307
0.000260
0.000263
0.000300
0.000346
0.000296
0.000620
0.000308
0.000275
0.000307
0.000282
0.000264
0.000265
0.000327
0.000260
0.000263
0.000240
0.000244
0.000334
0.000357
0.000056
0.000306
0.000371
0.000274
0.000264
0.000253
0.000233
0.000218
0.000248
0.000256
0.000259
0.001509
0.000246
0.000211
0.000248
0.000247
0.000279
0.000268
0.000252
0.000263
0.000265
0.000275
0.000309
0.000617
0.000359
0.000216
0.000292
0.000266
0.000238
0.000249
0.000226
0.000261
0.000055
0.000181
0.000210
0.000283
0.000463
0.000377
0.000279
0.000216
0.000247
0.000241
0.000274
0.000217
0.000264
0.000242
0.000273
0.000234
0.000240
0.000403
0.001283
0.000214
0.000256
0.000235
0.000240
0.000348
0.000509
0.000209
0.000308
0.000577
0.000367
0.000378
0.000229
0.000181
0.000056
0.000193
0.000230
0.000261
0.000264
0.000310
0.000199
0.000317
0.000548
0.000377
0.000294
0.000378
0.000393
0.000394
0.000351
0.000239
0.000211
0.000225
0.000242
0.000404
0.000557
0.001178
0.000233
0.000250
0.000273
0.000232
0.000238
0.000262
0.000363
0.000372
0.000497
0.000246
0.000056
0.000201
0.000224
0.000238
0.000247
0.000243
0.000252
0.000240
0.000258
0.000252
0.000382
0.000556
0.000341
0.000233
0.000214
0.000207
0.000273
0.000244
0.000261
0.000261
0.000540
0.000215
0.000294
0.000322
0.000398
0.000321
0.000242
0.000237
0.000278
0.000251
0.000287
0.000234
0.000055
0.000271
0.000320
0.000341
0.000460
0.000344
0.000373
0.000201
0.000272
0.000227
0.000251
0.000273
0.000255
0.000239
0.000252
0.000250
0.000226
0.000294
0.000368
0.000509
0.000340
0.000225
0.000257
0.000209
0.000249
0.000282
0.000270
0.000262
0.000261
0.000284
0.000273
0.000300
0.000057
0.000323
0.000250
0.000233
0.000216
0.000254
0.000254
0.000259
0.000235
0.000261
0.000253
0.000264
0.000228
0.000315
0.000606
0.000371
0.000292
0.000207
0.000202
0.000253
0.000261
0.000284
0.000244
0.000263
0.000256
0.000279
0.000315
0.000450
0.000547
0.000506
0.000213
0.000161
0.000056
0.000399
0.000206
0.000197
0.000230
0.000248
0.000255
0.000241
0.000248
0.000255
0.000258
0.000221
0.000249
0.000277
0.000215
0.000241
0.000264
0.000259
0.000258
0.000275
0.000275
0.000249
0.000258
0.000262
0.000262
0.000271
0.000272
0.000249
0.000261
0.000252
0.000281
0.000220
0.000055
0.000189
0.000216
0.000242
0.000251
0.000236
0.000245
0.000260
0.000248
0.000256
0.000279
0.000238
0.000222
0.000259
0.000405
0.000238
0.000310
0.000233
0.000262
0.000267
0.000272
0.000276
0.000241
0.000239
0.000251
0.000269
0.000276
0.000253
0.000246
0.000277
0.000257
0.000222
0.000056
0.000248
0.000374
0.000353
0.000279
0.000330
0.000203
0.000213
0.000245
0.000232
0.000245
0.000244
0.000268
0.000254
0.000236
0.000260
0.000254
0.000261
0.000267
0.000256
0.000264
0.000271
0.000259
0.000280
0.000254
0.000276
0.000282
0.000240
0.000280
0.000245
0.000267
0.000206
0.000057
0.000202
0.000216
0.000255
0.000260
0.000251
0.000453
0.000207
0.000239
0.000277
0.000394
0.000567
0.000339
0.000192
0.000227
0.000260
0.000269
0.000243
0.000261
0.000260
0.000268
0.000264
0.000263
0.000274
0.000239
0.000523
0.000534
0.000284
0.000275
0.000272
0.000256
0.000203
0.000056
0.000196
0.000205
0.000236
0.000254
0.000354
0.000679
0.000268
0.000358
0.000236
0.000244
0.000234
0.000251
0.000257
0.000253
0.000256
0.000265
0.000271
0.000263
0.000590
0.000429
0.000316
0.000211
0.000258
0.000277
0.000284
0.000262
0.000259
0.000271
0.000249
0.000337
0.000337
0.000056
0.000279
0.000248
0.000210
0.000231
0.000254
0.000254
0.000233
0.000242
0.000243
0.000256
0.000249
0.000252
0.000257
0.000392
0.000561
0.000451
0.000207
0.000226
0.000271
0.000244
0.000261
0.000268
0.000467
0.000249
0.000266
0.000670
0.000494
0.000332
0.000266
0.000251
0.000185
0.000056
0.000194
0.000219
0.000233
0.000243
0.000252
0.000255
0.000332
0.000409
0.000738
0.000274
0.000238
0.000242
0.000276
0.000275
0.000279
0.000225
0.000240
0.000248
0.000255
0.000376
0.000414
0.000532
0.000429
0.000274
0.000436
0.000349
0.000483
0.000220
0.000232
0.000469
0.000428
0.000072
0.000252
0.000217
0.000480
0.000205
0.000231
0.000233
0.000243
0.000258
0.000227
0.000247
0.000268
0.000416
0.000425
0.000317
0.000221
0.000209
0.000283
0.000222
0.000271
0.000269
0.000273
0.000259
0.000246
0.000269
0.000334
0.000480
0.000484
0.000244
0.000251
0.000265
0.000214
0.000056
0.000182
0.000242
0.000231
0.000244
0.000242
0.000282
0.000375
0.000506
0.000328
0.000286
0.000342
0.000235
0.000237
0.000256
0.000259
0.000235
0.000254
0.000270
0.000265
0.000443
0.000512
0.000284
0.000450
0.000353
0.000397
0.000392
0.000377
0.000246
0.000220
0.000343
0.000392
0.000056
0.000238
0.000277
0.000247
0.000221
0.000255
0.000256
0.000249
0.000250
0.000250
0.000276
0.000230
0.000481
0.000403
0.000287
0.000368
0.000258
0.000246
0.000263
0.000272
0.000230
0.000249
0.000254
0.000262
0.000278
0.000277
0.000318
0.000497
0.000489
0.000239
0.000292
0.000186
0.000056
0.000172
0.000218
0.000254
0.000250
0.000268
0.000327
0.000594
0.000408
0.000349
0.000668
0.000296
0.000207
0.000221
0.000263
0.000241
0.000270
0.000282
0.000307
0.000503
0.000447
0.001540
0.000251
0.000260
0.000255
0.000300
0.000223
0.000389
0.000445
0.000302
0.000366
0.000155
0.000057
0.000193
0.000213
0.000240
0.000248
0.000232
0.000253
0.000271
0.000251
0.000255
0.000365
0.000353
0.000366
0.000281
0.000374
0.000390
0.000335
0.000225
0.000222
0.000236
0.000265
0.000242
0.000248
0.000280
0.000269
0.000333
0.000532
0.000364
0.000277
0.000213
0.000268
0.000201
0.000056
0.000200
0.000231
0.000255
0.000253
0.000251
0.000232
0.000471
0.000225
0.000223
0.000253
0.000245
0.000254
0.000256
0.000257
0.000249
0.000270
0.000262
0.000259
0.000275
0.000252
0.000260
0.000288
0.000299
0.000244
0.000260
0.000272
0.000282
0.000265
0.000258
0.000267
0.000200
0.000057
0.000211
0.000228
0.000364
0.000412
0.000361
0.000227
0.000208
0.000248
0.000268
0.000245
0.000242
0.000250
0.000270
0.000262
0.000241
0.000234
0.000256
0.000263
0.000276
0.000343
0.000562
0.000270
0.000255
0.000250
0.000260
0.000258
0.000270
0.000253
0.000268
0.000277
0.000221
0.000056
0.000238
0.000453
0.000338
0.000221
0.000247
0.000253
0.000465
0.000211
0.000228
0.000217
0.000283
0.000335
0.000401
0.000432
0.001753
0.000252
0.000249
0.000243
0.000281
0.000240
0.000388
0.000506
0.000444
0.000373
0.000244
0.000241
0.000283
0.000391
0.000294
0.000282
0.000186
0.000057
0.000211
0.000343
0.000293
0.000310
0.000507
0.000206
0.000250
0.000226
0.000262
0.000240
0.000262
0.000249
0.000256
0.000348
0.000454
0.000417
0.000236
0.000210
0.000283
0.000240
0.000278
0.000304
0.000243
0.000269
0.000278
0.000477
0.000572
0.000293
0.000484
0.000244
0.000195
0.000056
0.000220
0.000201
0.000253
0.000228
0.000245
0.000252
0.000268
0.000267
0.000346
0.000565
0.000238
0.000380
0.000214
0.000235
0.000264
0.000272
0.000330
0.000237
0.000264
0.000270
0.000249
0.000375
0.000379
0.000413
0.000254
0.000270
0.000247
0.000534
0.000390
0.000269
0.000168
0.000056
0.000200
0.000292
0.000267
0.000501
0.000290
0.000223
0.000224
0.000264
0.000248
0.000289
0.000235
0.000263
0.000229
0.000238
0.000257
0.000326
0.000360
0.000368
0.000331
0.000330
0.000463
0.000242
0.000264
0.000281
0.000298
0.000286
0.000275
0.000268
0.000607
0.000410
0.000169
0.000057
0.000197
0.000212
0.000239
0.000249
0.000281
0.000451
0.000218
0.000240
0.000266
0.000325
0.000569
0.000503
0.000236
0.000236
0.000238
0.000255
0.000251
0.000262
0.000239
0.000263
0.000246
0.000278
0.000436
0.000429
0.000349
0.000326
0.000342
0.000348
0.000298
0.000218
0.000176
0.000056
0.000203
0.000208
0.000243
0.000616
0.000235
0.000350
0.000241
0.000207
0.000195
0.000251
0.000257
0.000253
0.000254
0.000250
0.000304
0.000214
0.000250
0.000251
0.000264
0.000370
0.000536
0.000405
0.000222
0.000228
0.000298
0.000257
0.000280
0.000243
0.000263
0.000258
0.000217
0.000055
0.000293
0.000389
0.000450
0.000205
0.000220
0.000214
0.000308
0.000530
0.000260
0.000207
0.000221
0.000263
0.000265
0.000428
0.000538
0.000262
0.000208
0.000220
0.000291
0.000205
0.000268
0.000261
0.000261
0.000294
0.000248
0.000298
0.000479
0.000452
0.000256
0.000223
0.000149
0.000057
0.000216
0.000220
0.000243
0.000253
0.000264
0.000248
0.000238
0.000253
0.000253
0.000244
0.000267
0.000250
0.000246
0.001470
0.000240
0.000250
0.000235
0.000257
0.000273
0.000269
0.000266
0.000240
0.000274
0.000265
0.000260
0.000264
0.000270
0.000272
0.000267
0.000259
0.000215
0.000057
0.000175
0.000220
0.000237
0.000248
0.000245
0.000243
0.000250
0.000263
0.000235
0.000245
0.000248
0.000256
0.000256
0.000259
0.000259
0.000253
0.000251
0.000255
0.000272
0.000258
0.000257
0.000254
0.000264
0.000234
0.001369
0.000269
0.000617
0.000319
0.000421
0.000201
0.000174
0.000057
0.000204
0.000219
0.000231
0.000251
0.000497
0.000226
0.000188
0.000217
0.000253
0.000387
0.000488
0.000356
0.000217
0.000197
0.000235
0.000262
0.000256
0.000268
0.000263
0.000236
0.000264
0.000255
0.000276
0.000456
0.000503
0.000404
0.000243
0.000248
0.001363
0.000268
0.000191
0.000057
0.000229
0.000431
0.000355
0.000247
0.000199
0.000208
0.000224
0.000240
0.000260
0.000257
0.000248
0.000258
0.000260
0.000330
0.000509
0.000424
0.000303
0.000240
0.000253
0.000246
0.000250
0.000264
0.000270
0.000267
0.000262
0.000263
0.000428
0.000495
0.000410
0.000342
0.000153
0.000056
0.000180
0.000236
0.001322
0.000339
0.000311
0.000500
0.000326
0.000322
0.000440
0.000365
0.000241
0.000199
0.000247
0.000257
0.000249
0.000262
0.000355
0.000497
0.000392
0.000359
0.000267
0.000235
0.000260
0.000512
0.000242
0.000254
0.000256
0.000278
0.000279
0.000574
0.000463
0.000056
0.000333
0.000386
0.000220
0.000208
0.001491
0.000590
0.000286
0.000224
0.000202
0.000250
0.000218
0.000241
0.000250
0.000265
0.000252
0.000264
0.000239
0.000365
0.000351
0.000431
0.000444
0.000209
0.000221
0.000242
0.000259
0.000274
0.000268
0.000242
0.000264
0.000272
0.000213
0.000056
0.000363
0.000318
0.000247
0.000224
0.000240
0.000236
0.000255
0.000243
0.000241
0.000251
0.001441
0.000492
0.000257
0.000203
0.000210
0.000251
0.000271
0.000275
0.000229
0.000262
0.000283
0.000251
0.000258
0.000530
0.000308
0.000475
0.000215
0.000262
0.000274
0.000281
0.000195
0.000055
0.000173
0.000465
0.000198
0.000201
0.000401
0.000377
0.000455
0.000254
0.000435
0.000229
0.000218
0.000248
0.000256
0.000271
0.000265
0.001469
0.000314
0.000263
0.000250
0.000269
0.000272
0.000259
0.000249
0.000255
0.000257
0.000275
0.000487
0.000397
0.000322
0.000282
0.000157
0.000056
0.000202
0.000216
0.000261
0.000234
0.000225
0.000265
0.000241
0.000247
0.000347
0.000407
0.000384
0.000309
0.000211
0.000212
0.000267
0.000246
0.000271
0.000269
0.000269
0.000237
0.000252
0.000341
0.001300
0.000221
0.000261
0.000219
0.000243
0.000273
0.000252
0.000263
0.000201
0.000056
0.000372
0.000184
0.000417
0.000332
0.000232
0.000223
0.000228
0.000267
0.000274
0.000232
0.000282
0.000240
0.000241
0.000256
0.000255
0.000260
0.000266
0.000273
0.000266
0.000247
0.000258
0.000257
0.000294
0.000259
0.000292
0.000288
0.000273
0.000231
0.000267
0.000500
0.001336
0.000056
0.000185
0.000207
0.000230
0.000246
0.000251
0.000254
0.000249
0.000226
0.000242
0.000254
0.000261
0.000263
0.000256
0.000247
0.000266
0.001691
0.000373
0.000206
0.000197
0.000248
0.000248
0.000256
0.000264
0.000261
0.000261
0.000281
0.000286
0.000251
0.000265
0.000266
0.000253
0.000055
0.000302
0.000268
0.001386
0.000183
0.000204
0.000231
0.000265
0.000244
0.000257
0.000259
0.000241
0.000348
0.000454
0.000453
0.000250
0.000199
0.000238
0.000240
0.000259
0.000263
0.000247
0.000268
0.000275
0.000277
0.000267
0.000444
0.000385
0.000332
0.000277
0.000251
0.000217
0.000056
0.000212
0.000221
0.000249
0.000242
0.000248
0.000243
0.000232
0.000282
0.000410
0.000441
0.001133
0.000230
0.000243
0.000281
0.000239
0.000262
0.000280
0.000241
0.000447
0.000275
0.000398
0.000270
0.000235
0.000230
0.000281
0.000269
0.000278
0.000291
0.000265
0.000277
0.000216
0.000056
0.000274
0.000396
0.000411
0.000223
0.000203
0.000211
0.000233
0.000270
0.000290
0.000236
0.000225
0.000539
0.000262
0.000487
0.000450
0.001468
0.000208
0.000272
0.000338
0.000356
0.000419
0.000453
0.000574
0.000269
0.000239
0.000253
0.000263
0.000283
0.000264
0.000270
0.000228
0.000056
0.000169
0.000278
0.000564
0.000502
0.000194
0.000213
0.000247
0.000241
0.000239
0.000261
0.000249
0.000258
0.000267
0.000242
0.000268
0.000301
0.000402
0.000470
0.000297
0.001324
0.000243
0.000267
0.000248
0.000482
0.000340
0.000389
0.000405
0.000219
0.000239
0.000269
0.000217
0.000056
0.000186
0.000229
0.000261
0.000223
0.000249
0.000283
0.000471
0.000375
0.000397
0.000202
0.000224
0.000248
0.000289
0.000240
0.000268
0.000256
0.000281
0.000239
0.000271
0.000371
0.000533
0.000339
0.000332
0.001345
0.000335
0.000246
0.000312
0.000397
0.000421
0.000364
0.000333
0.000058
0.000177
0.000222
0.000243
0.000246
0.000249
0.000259
0.001706
0.000255
0.000223
0.000209
0.000249
0.000259
0.000319
0.000325
0.000331
0.000278
0.000288
0.000252
0.000601
0.000350
0.000286
0.000266
0.000208
0.000251
0.001423
0.000474
0.000487
0.000361
0.000314
0.000301
0.000157
0.000057
0.000192
0.000225
0.000259
0.000257
0.000243
0.000259
0.001791
0.000204
0.000236
0.000254
0.000390
0.000411
0.001501
0.000261
0.000422
0.000199
0.000212
0.000249
0.000253
0.000272
0.001700
0.000538
0.000336
0.000295
0.000206
0.000217
0.000253
0.000276
0.000254
0.000247
0.000216
0.000056
0.000192
0.000227
0.000253
0.000270
0.000242
0.000267
0.000287
0.000254
0.000252
0.000260
0.000250
0.000245
0.000257
0.000270
0.000256
0.001518
0.000260
0.000235
0.000268
0.000272
0.000264
0.000262
0.000437
0.001291
0.000260
0.000220
0.000260
0.000251
0.000459
0.000212
0.000193
0.000056
0.000194
0.000226
0.000234
0.000244
0.000233
0.000234
0.000242
0.001757
0.000207
0.000216
0.000233
0.000365
0.000235
0.000214
0.001477
0.000238
0.000208
0.000223
0.000268
0.000242
0.000256
0.000313
0.001486
0.000291
0.000199
0.000224
0.000233
0.000253
0.001385
0.000284
0.000196
0.000056
0.000409
0.000196
0.000195
0.000226
0.000240
0.000238
0.000265
0.000271
0.000262
0.000244
0.000268
0.000262
0.000252
0.000246
0.000336
0.001476
0.000256
0.000258
0.000256
0.000245
0.000276
0.000265
0.000261
0.001535
0.000311
0.000243
0.000258
0.001354
0.000225
0.000241
0.000201
0.000057
0.000281
0.000388
0.000269
0.000214
0.000235
0.000224
0.000267
0.000258
0.000259
0.000274
0.000246
0.000245
0.000257
0.000327
0.001400
0.000260
0.000201
0.000226
0.000245
0.000283
0.000223
0.000244
0.000253
0.001335
0.000349
0.000239
0.000211
0.000235
0.000252
0.001331
0.000406
0.000057
0.000298
0.000308
0.000184
0.000219
0.000237
0.000249
0.000252
0.000245
0.000278
0.000252
0.000232
0.000260
0.000253
0.000350
0.000411
0.001450
0.000249
0.000224
0.000289
0.000506
0.000303
0.000507
0.001237
0.000307
0.000236
0.000259
0.001269
0.000362
0.000326
0.000449
0.000369
0.000056
0.000178
0.000254
0.000239
0.000260
0.000240
0.000267
0.000269
0.000253
0.000260
0.000260
0.000374
0.000516
0.001306
0.000208
0.000227
0.000264
0.000281
0.000266
0.000214
0.000236
0.000335
0.001302
0.000230
0.000237
0.000222
0.000243
0.001487
0.000553
0.000372
0.000244
0.000190
0.000057
0.000199
0.000206
0.000243
0.000233
0.000255
0.000265
0.000246
0.000289
0.000376
0.000522
0.000295
0.001458
0.000222
0.000227
0.000260
0.000260
0.000257
0.000347
0.001600
0.000314
0.000354
0.000354
0.001342
0.000386
0.000307
0.000321
0.000231
0.000213
0.000241
0.000275
0.000202
0.000057
0.000203
0.000210
0.000324
0.000221
0.000329
0.000604
0.000228
0.000353
0.001492
0.000275
0.000333
0.000251
0.000217
0.000294
0.000408
0.001341
0.000257
0.000224
0.000205
0.000248
0.000303
0.001589
0.000374
0.000279
0.000222
0.000231
0.000517
0.000297
0.000229
0.000247
0.000230
0.000057
0.000224
0.000381
0.000312
0.000306
0.000209
0.001473
0.000235
0.000226
0.000253
0.000268
0.000266
0.000253
0.000383
0.001409
0.000249
0.000239
0.000416
0.001312
0.000295
0.000418
0.000348
0.000243
0.000241
0.000244
0.000278
0.000262
0.000447
0.000236
0.000261
0.000270
0.000212
0.000057
0.000234
0.000265
0.000295
0.001474
0.000252
0.000208
0.000306
0.000256
0.000228
0.000258
0.000242
0.000291
0.001610
0.000202
0.000231
0.000215
0.001381
0.000316
0.000545
0.000374
0.000332
0.000214
0.000238
0.000238
0.000364
0.000242
0.000232
0.000253
0.000243
0.000253
0.000211
0.000056
0.000218
0.000417
0.001419
0.000209
0.000248
0.000264
0.000256
0.000240
0.000326
0.000379
0.001333
0.000255
0.000299
0.000244
0.000209
0.001523
0.000509
0.000267
0.000312
0.000405
0.000346
0.000227
0.000224
0.000236
0.000272
0.000285
0.000284
0.000376
0.000415
0.000425
0.001387
0.000058
0.000187
0.000241
0.000220
0.000222
0.000251
0.000481
0.000470
0.001303
0.000219
0.000204
0.000245
0.001450
0.000489
0.000272
0.000445
0.000263
0.000217
0.000194
0.000250
0.000297
0.000249
0.000247
0.000282
0.000259
0.000243
0.000331
0.000440
0.000482
0.001471
0.000257
0.000185
0.000057
0.000202
0.000236
0.000321
0.000576
0.001219
0.000300
0.000236
0.000256
0.000251
0.000248
0.000251
0.000280
0.000375
0.000517
0.000313
0.000217
0.000254
0.000292
0.000217
0.000293
0.000243
0.000272
0.000258
0.000267
0.000261
0.000381
0.000533
0.000313
0.000305
0.001479
0.000143
0.000057
0.000189
0.000202
0.000256
0.000480
0.000354
0.000294
0.000296
0.000333
0.000283
0.000252
0.000277
0.000248
0.000244
0.000310
0.000251
0.000275
0.000633
0.000244
0.000319
0.000348
0.000292
0.000466
0.000216
0.000247
0.000210
0.000269
0.000258
0.000279
0.000374
0.000506
0.000285
0.000057
0.000214
0.001364
0.000257
0.000344
0.000367
0.000499
0.000306
0.000342
0.000220
0.000212
0.000254
0.000249
0.000264
0.000262
0.000281
0.000252
0.000253
0.001326
0.000355
0.000218
0.000228
0.000273
0.000266
0.000280
0.000272
0.000261
0.000270
0.000256
0.000291
0.000428
0.000515
0.000057
0.000226
0.000237
0.001443
0.000312
0.000339
0.000219
0.000211
0.000207
0.000228
0.000247
0.000248
0.000277
0.000243
0.000247
0.000262
0.000279
0.000236
0.000277
0.000240
0.000271
0.001425
0.000270
0.000233
0.000333
0.000222
0.000219
0.000251
0.000260
0.000276
0.000499
0.000379
0.000057
0.000178
0.000223
0.000374
0.000299
0.000245
0.000250
0.001573
0.000376
0.000279
0.000202
0.000225
0.000347
0.000319
0.000217
0.000217
0.000261
0.000248
0.000259
0.000261
0.000253
0.000515
0.000511
0.001155
0.000257
0.000211
0.000227
0.000265
0.000267
0.000270
0.000264
0.000394
0.000058
0.000266
0.000354
0.000201
0.000202
0.000245
0.000248
0.000235
0.000230
0.001429
0.000677
0.000265
0.000247
0.000223
0.000199
0.000262
0.000242
0.000257
0.000281
0.000251
0.000309
0.000311
0.000507
0.000436
0.001367
0.000257
0.000229
0.000273
0.000267
0.000264
0.000345
0.000492
0.000058
0.000257
0.000206
0.000251
0.000239
0.000221
0.000237
0.000261
0.000248
0.000273
0.001620
0.000293
0.000274
0.000263
0.000252
0.000461
0.000304
0.000401
0.000467
0.000325
0.000321
0.000479
0.000462
0.001296
0.000229
0.000219
0.000222
0.001918
0.000278
0.000595
0.000325
0.000148
0.000057
0.000200
0.000199
0.000246
0.000232
0.000250
0.000244
0.000378
0.000526
0.000435
0.000357
0.000308
0.000199
0.000213
0.000258
0.000262
0.000270
0.000257
0.000246
0.000244
0.000277
0.000256
0.000493
0.001338
0.000219
0.000208
0.000268
0.001889
0.000410
0.000353
0.000369
0.000163
0.000056
0.000237
0.000216
0.000245
0.001528
0.000436
0.000240
0.000224
0.000275
0.000246
0.000333
0.000364
0.000373
0.000353
0.000312
0.000415
0.000386
0.000326
0.001280
0.000270
0.000201
0.000215
0.000279
0.000360
0.000399
0.000658
0.000411
0.000227
0.000217
0.000255
0.000283
0.000217
0.000057
0.000177
0.000212
0.001469
0.000400
0.000199
0.000226
0.000212
0.000260
0.000249
0.000241
0.000252
0.000270
0.000265
0.000282
0.000249
0.000414
0.000375
0.000379
0.001379
0.000252
0.000243
0.000258
0.000265
0.000301
0.000399
0.000408
0.000470
0.000296
0.000285
0.000256
0.000398
0.000056
0.000219
0.000199
0.000249
0.000263
0.001579
0.000239
0.000253
0.000252
0.000252
0.000253
0.000256
0.000269
0.000248
0.000247
0.000462
0.000458
0.001471
0.000736
0.000218
0.000342
0.000246
0.000215
0.000229
0.000271
0.001765
0.000724
0.000260
0.000227
0.000286
0.000284
0.000205
0.000056
0.000175
0.000217
0.000250
0.000243
0.000244
0.000258
0.000254
0.000244
0.000245
0.000221
0.000296
0.000275
0.000262
0.000252
0.000255
0.000258
0.000255
0.001618
0.000691
0.000410
0.000302
0.000235
0.000217
0.000273
0.000280
0.000258
0.000273
0.000254
0.001511
0.000424
0.000258
0.000056
0.000197
0.000209
0.000239
0.000252
0.000255
0.000233
0.000257
0.000250
0.000257
0.000269
0.000228
0.000510
0.000380
0.000368
0.000204
0.000238
0.000255
0.001472
0.000685
0.000407
0.000336
0.000295
0.000218
0.000234
0.000269
0.000274
0.000238
0.000262
0.001527
0.000434
0.000198
0.000056
0.000198
0.000208
0.000243
0.000242
0.000258
0.000254
0.000231
0.000246
0.000268
0.000259
0.000412
0.000421
0.000252
0.000225
0.000238
0.000246
0.000272
0.000245
0.001578
0.000656
0.000502
0.000267
0.000220
0.000253
0.000259
0.000260
0.000280
0.000263
0.000264
0.001431
0.000301
0.000056
0.000209
0.000206
0.000216
0.000257
0.000257
0.000265
0.000275
0.000346
0.000371
0.000412
0.000374
0.000408
0.000287
0.000220
0.000222
0.000251
0.000294
0.000239
0.001401
0.000896
0.000308
0.000196
0.000470
0.000210
0.000210
0.000263
0.000276
0.000264
0.000261
0.000273
0.000437
0.000057
0.000251
0.000251
0.000217
0.000236
0.000255
0.000253
0.000222
0.000233
0.000265
0.000263
0.000249
0.000233
0.000416
0.000353
0.000548
0.000323
0.000242
0.000247
0.000253
0.000246
0.000258
0.000376
0.001425
0.001004
0.000246
0.000230
0.000267
0.000258
0.000276
0.000254
0.000225
0.000058
0.000181
0.001397
0.000259
0.000214
0.000200
0.000242
0.000253
0.000243
0.000230
0.000249
0.000261
0.000265
0.000239
0.000428
0.000327
0.000475
0.000281
0.000217
0.000260
0.000274
0.000270
0.000229
0.000258
0.000266
0.001425
0.000657
0.000313
0.000397
0.000371
0.000397
0.000267
0.000069
0.000177
0.000243
0.000335
0.001320
0.000235
0.000239
0.000218
0.000259
0.000249
0.000250
0.000291
0.000223
0.000269
0.000316
0.000603
0.000347
0.000198
0.000335
0.000253
0.000225
0.000237
0.000270
0.000221
0.000274
0.000277
0.001533
0.000738
0.000296
0.000279
0.000271
0.000214
0.000056
0.000175
0.000248
0.000448
0.000404
0.001294
0.000244
0.000207
0.000206
0.000236
0.000237
0.000254
0.000253
0.000247
0.000224
0.000254
0.000249
0.000275
0.000235
0.000250
0.000267
0.000252
0.000284
0.000348
0.000283
0.000226
0.000266
0.000253
0.001548
0.000219
0.000229
0.000168
0.000057
0.000205
0.000206
0.000247
0.000344
0.000347
0.000337
0.000405
0.000246
0.001561
0.000278
0.000257
0.000468
0.000378
0.000237
0.000488
0.000224
0.000225
0.000221
0.000265
0.000271
0.000275
0.000273
0.000262
0.000263
0.000285
0.000396
0.000505
0.000256
0.001538
0.000249
0.000168
0.000056
0.000227
0.000214
0.000246
0.000238
0.000258
0.000236
0.000261
0.000299
0.000448
0.002068
0.000199
0.000224
0.000246
0.000255
0.000270
0.000312
0.000264
0.000217
0.000315
0.000381
0.000463
0.000345
0.001520
0.000219
0.000256
0.000457
0.001780
0.000267
0.000264
0.001499
0.000190
0.000056
0.000282
0.000399
0.000377
0.000249
0.000261
0.000232
0.000251
0.000267
0.000266
0.000235
0.000249
0.000334
0.000462
0.000303
0.000430
0.000266
0.000216
0.001568
0.000529
0.001955
0.000317
0.000239
0.000216
0.001613
0.001977
0.000731
0.000274
0.000206
0.000320
0.000433
0.000325
0.000056
0.000215
0.000214
0.000255
0.000249
0.001486
0.001671
0.001072
0.000224
0.000218
0.001587
0.001980
0.000238
0.000312
0.000401
0.000359
0.000424
0.000462
0.000209
0.000243
0.000235
0.000244
0.000263
0.000265
0.001558
0.001312
0.001428
0.000255
0.000239
0.000266
0.000387
0.000320
0.000057
0.000237
0.000215
0.000204
0.000237
0.000235
0.000233
0.000260
0.000240
0.000265
0.000251
0.000237
0.000351
0.000405
0.000503
0.000315
0.000194
0.000234
0.000266
0.000266
0.000264
0.000259
0.001492
0.000413
0.000390
0.002078
0.000257
0.000250
0.000425
0.000386
0.000425
0.000146
0.000057
0.000262
0.000326
0.000420
0.000308
0.000228
0.000205
0.000240
0.000262
0.000233
0.000242
0.000248
0.000282
0.000237
0.001624
0.001408
0.001244
0.000262
0.000226
0.000223
0.000237
0.000280
0.000279
0.000254
0.000250
0.002277
0.000203
0.000227
0.000289
0.000321
0.000305
0.000244
0.000057
0.000186
0.000378
0.000576
0.000339
0.000247
0.000182
0.000210
0.000258
0.001892
0.001444
0.000248
0.000380
0.000394
0.000354
0.000261
0.000219
0.000218
0.000271
0.000262
0.000263
0.000270
0.000256
0.000467
0.000248
0.000256
0.000295
0.000237
0.000270
0.000280
0.000240
0.000225
0.000057
0.000198
0.000219
0.000252
0.000244
0.000244
0.000263
0.001553
0.001497
0.001326
0.000216
0.000198
0.000228
0.000258
0.000264
0.000247
0.000247
0.000249
0.002179
0.000208
0.000219
0.000253
0.000269
0.000248
0.000272
0.000268
0.000250
0.000268
0.000257
0.000277
0.000259
0.000192
0.000057
0.001503
0.000308
0.002390
0.000258
0.000293
0.000299
0.000249
0.000247
0.000270
0.000240
0.000247
0.000253
0.000236
0.000240
0.000268
0.000259
0.000263
0.000271
0.000254
0.000274
0.000263
0.000278
0.000272
0.000270
0.000249
0.000248
0.000265
0.000263
0.000268
0.000270
0.000393
0.000056
0.000184
0.002565
0.000340
0.000194
0.000192
0.000224
0.000252
0.000253
0.000255
0.000301
0.000453
0.000282
0.000316
0.000247
0.000219
0.002229
0.000208
0.000223
0.000267
0.000520
0.000454
0.000223
0.000219
0.000234
0.000262
0.000245
0.000257
0.000287
0.000269
0.001698
0.001202
0.000057
0.000186
0.000215
0.000365
0.000418
0.000283
0.000256
0.000225
0.000213
0.000246
0.000268
0.000264
0.000247
0.000239
0.000241
0.000281
0.000224
0.000414
0.000616
0.000297
0.000242
0.000228
0.000243
0.000279
0.000269
0.000253
0.000241
0.000263
0.000276
0.000247
0.000417
0.000290
0.000057
0.001108
0.000226
0.000356
0.000469
0.000305
0.000204
0.000199
0.000241
0.002200
0.000446
0.000313
0.000379
0.000187
0.000299
0.000336
0.000270
0.000260
0.000258
0.000264
0.000246
0.000242
0.000334
0.000734
0.000326
0.001802
0.001289
0.000608
0.000508
0.000224
0.000261
0.000213
0.000056
0.000212
0.000367
0.000232
0.000232
0.000250
0.000244
0.000253
0.000225
0.000254
0.000253
0.000257
0.000238
0.000247
0.000241
0.000378
0.000553
0.001871
0.001373
0.000381
0.000380
0.000458
0.000269
0.000228
0.000255
0.002211
0.000539
0.000310
0.000237
0.000275
0.000290
0.000209
0.000056
0.000195
0.000223
0.000255
0.000241
0.000243
0.000335
0.000469
0.000264
0.000381
0.000202
0.000219
0.000292
0.000229
0.002094
0.000383
0.000377
0.000221
0.000231
0.000270
0.000257
0.000252
0.002437
0.000361
0.000227
0.000254
0.000257
0.000253
0.000272
0.000269
0.000286
0.000215
0.000055
0.000202
0.000540
0.000404
0.000353
0.000236
0.000206
0.000201
0.000243
0.000274
0.000258
0.002030
0.000386
0.000261
0.000256
0.000199
0.000255
0.000269
0.000244
0.002271
0.000384
0.000229
0.000257
0.000265
0.000260
0.000264
0.000240
0.000289
0.000266
0.000254
0.000259
0.000209
0.000056
0.000228
0.000203
0.000252
0.000221
0.000245
0.000261
0.000239
0.000246
0.000228
0.002185
0.000235
0.000271
0.000217
0.000489
0.000222
0.000209
0.000254
0.000282
0.000258
0.000255
0.002043
0.000249
0.000385
0.000367
0.000473
0.000337
0.000285
0.000259
0.000227
0.000241
0.000225
0.000056
0.000185
0.000219
0.000246
0.000241
0.000248
0.000386
0.000194
0.002351
0.000207
0.000231
0.000222
0.000263
0.000233
0.000255
0.000289
0.002222
0.000510
0.000248
0.000232
0.000229
0.000265
0.000263
0.000280
0.000275
0.000264
0.000246
0.000325
0.000219
0.000264
0.000317
0.000162
0.000056
0.000186
0.002995
0.000253
0.000261
0.000205
0.000242
0.000253
0.000291
0.000403
0.000385
0.002122
0.000243
0.000252
0.000262
0.000310
0.000495
0.000427
0.000306
0.000217
0.000216
0.000237
0.000265
0.000266
0.000248
0.000233
0.000273
0.000270
0.000268
0.000356
0.000651
0.000308
0.000055
0.000181
0.000283
0.000253
0.000224
0.000238
0.000242
0.000252
0.000245
0.001544
0.002149
0.000498
0.000275
0.000438
0.000769
0.000309
0.000206
0.000213
0.000247
0.000270
0.000249
0.000268
0.000252
0.000230
0.000278
0.001830
0.001449
0.000291
0.000270
0.000304
0.000344
0.000360
0.000057
0.001933
0.000228
0.000220
0.000211
0.000295
0.000331
0.000439
0.000345
0.000319
0.000236
0.000214
0.000217
0.000248
0.000253
0.000263
0.000268
0.000256
0.000256
0.001908
0.000215
0.000213
0.000243
0.000267
0.000302
0.000253
0.000259
0.001558
0.000324
0.000212
0.000229
0.000176
0.000056
0.000199
0.000207
0.000251
0.000227
0.000255
0.000238
0.000333
0.000350
0.000369
0.000402
0.000182
0.000220
0.000336
0.000327
0.000378
0.000343
0.000204
0.000214
0.000262
0.000326
0.000634
0.000384
0.000213
0.000222
0.000263
0.000255
0.000245
0.000273
0.000271
0.000275
0.000214
0.000056
0.001423
0.000394
0.000233
0.002008
0.000255
0.000506
0.000300
0.000371
0.000202
0.000215
0.000266
0.000244
0.000243
0.000254
0.000256
0.000277
0.000445
0.000258
0.000473
0.000385
0.000320
0.000202
0.000262
0.000268
0.000339
0.000221
0.000242
0.000266
0.000315
0.000555
0.001376
0.000056
0.000201
0.000200
0.002075
0.000274
0.000330
0.000262
0.000252
0.000256
0.000267
0.000238
0.000236
0.000251
0.000252
0.000253
0.000269
0.000350
0.000706
0.001743
0.000262
0.000249
0.000257
0.000259
0.000507
0.000352
0.001531
0.000271
0.000363
0.002009
0.000237
0.000238
0.000186
0.000057
0.000204
0.000206
0.000225
0.000249
0.000236
0.000239
0.000248
0.000271
0.000363
0.000288
0.000382
0.000366
0.000335
0.000290
0.000215
0.000281
0.000249
0.000241
0.000253
0.000276
0.000270
0.000309
0.000258
0.000261
0.000274
0.001568
0.000301
0.000402
0.001981
0.000253
0.000187
0.000057
0.000222
0.000214
0.000234
0.000247
0.000460
0.000236
0.000244
0.000443
0.000287
0.000364
0.000224
0.000223
0.000247
0.000266
0.000280
0.000321
0.000446
0.000411
0.000270
0.000357
0.000592
0.000447
0.001546
0.000263
0.000234
0.002036
0.000353
0.000206
0.000214
0.000269
0.000215
0.000057
0.000206
0.000214
0.000225
0.000249
0.000254
0.000264
0.000269
0.000256
0.000253
0.000245
0.001889
0.000289
0.000397
0.000324
0.000457
0.000427
0.001447
0.000341
0.000200
0.000314
0.002215
0.000434
0.000264
0.000218
0.000237
0.000268
0.000492
0.000236
0.000255
0.000270
0.000231
0.000056
0.000232
0.000396
0.000339
0.000281
0.000200
0.000211
0.000255
0.000250
0.000273
0.000296
0.000229
0.000241
0.000256
0.000265
0.000392
0.000473
0.001271
0.000263
0.000423
0.001960
0.000246
0.000247
0.000219
0.000251
0.000250
0.000272
0.000261
0.000263
0.000250
0.000281
0.000202
0.000057
0.000221
0.000393
0.002087
0.000207
0.000256
0.000243
0.000240
0.000300
0.000497
0.001412
0.000327
0.000370
0.000337
0.001994
0.000233
0.000234
0.000265
0.000271
0.000266
0.000231
0.000286
0.000287
0.000263
0.000347
0.000516
0.000357
0.000334
0.002194
0.000505
0.000519
0.000398
0.000056
0.000211
0.000221
0.000215
0.002036
0.000208
0.000224
0.000220
0.000241
0.000222
0.000260
0.000243
0.000268
0.000254
0.000313
0.000576
0.000249
0.001305
0.000243
0.000261
0.000267
0.000232
0.000245
0.000266
0.000265
0.000483
0.000331
0.000439
0.001586
0.000345
0.000218
0.000160
0.000058
0.000191
0.000204
0.000231
0.000234
0.000244
0.000258
0.000250
0.000244
0.000268
0.000389
0.000418
0.001413
0.000204
0.000204
0.000221
0.000261
0.000266
0.000256
0.000277
0.000541
0.000564
0.000282
0.000200
0.001562
0.000247
0.000244
0.000288
0.000280
0.000263
0.000267
0.000207
0.000057
0.000224
0.000198
0.000265
0.000263
0.000254
0.000238
0.000238
0.000238
0.000264
0.000240
0.000250
0.000252
0.000260
0.000254
0.001584
0.000230
0.000257
0.000248
0.000338
0.000326
0.000364
0.000255
0.000211
0.000274
0.000236
0.000259
0.001467
0.000300
0.000212
0.000223
0.000173
0.000057
0.000194
0.000220
0.000248
0.000260
0.000279
0.000221
0.000241
0.000264
0.000226
0.000257
0.000244
0.000251
0.000230
0.000307
0.000419
0.000327
0.000284
0.001589
0.000333
0.000210
0.000219
0.000224
0.000261
0.000290
0.000503
0.000481
0.000313
0.000257
0.000198
0.001594
0.000189
0.000056
0.000366
0.000359
0.000298
0.000328
0.000185
0.000219
0.000237
0.000266
0.000258
0.000247
0.000237
0.000230
0.001483
0.000358
0.000268
0.000203
0.000228
0.000261
0.000264
0.000264
0.000262
0.000229
0.000260
0.000273
0.000252
0.000371
0.000597
0.000318
0.000226
0.000210
0.000202
0.000056
0.000208
0.000222
0.000429
0.000420
0.000402
0.000193
0.000225
0.000250
0.000249
0.000253
0.000243
0.000227
0.000256
0.000247
0.001345
0.000271
0.000221
0.000215
0.000258
0.000264
0.000242
0.000264
0.000261
0.000252
0.000252
0.000254
0.000369
0.000644
0.000458
0.000234
0.000187
0.000057
0.000177
0.001527
0.000269
0.000300
0.000495
0.000377
0.000210
0.000247
0.000251
0.000260
0.000235
0.000261
0.000273
0.000265
0.000273
0.001532
0.000249
0.000273
0.000260
0.000262
0.000254
0.000261
0.000267
0.000261
0.000265
0.000340
0.000446
0.000307
0.000380
0.000239
0.000150
0.000072
0.000169
0.000241
0.000230
0.001723
0.000379
0.000340
0.000199
0.000217
0.000244
0.000284
0.000245
0.000267
0.000250
0.000261
0.000231
0.000270
0.000476
0.001326
0.000211
0.000222
0.001540
0.000509
0.000408
0.000365
0.000292
0.000210
0.000268
0.000460
0.000247
0.000260
0.000200
0.000057
0.000288
0.000214
0.000210
0.000245
0.000250
0.000253
0.000235
0.000259
0.000260
0.000240
0.000260
0.000245
0.000347
0.000517
0.001611
0.001526
0.000349
0.000576
0.000269
0.000236
0.000228
0.000264
0.000247
0.000254
0.000250
0.000270
0.000263
0.001547
0.000339
0.000302
0.000134
0.000057
0.000230
0.000342
0.000369
0.000311
0.000268
0.000190
0.000218
0.000384
0.000380
0.001425
0.000354
0.001543
0.000385
0.000453
0.000445
0.000265
0.000343
0.000335
0.000348
0.000293
0.000229
0.000349
0.001629
0.000459
0.000230
0.000254
0.000286
0.000220
0.000257
0.000272
0.000219
0.000056
0.000182
0.000230
0.000255
0.000253
0.000240
0.001656
0.000954
0.000900
0.000238
0.000231
0.000257
0.000261
0.000253
0.000257
0.000255
0.000248
0.000261
0.000279
0.000249
0.000280
0.001496
0.000277
0.000250
0.000221
0.000216
0.000259
0.000261
0.000284
0.000270
0.000274
0.000207
0.000057
0.000199
0.000195
0.002273
0.000234
0.000356
0.000322
0.000219
0.000204
0.000253
0.000248
0.000252
0.000244
0.000248
0.002101
0.000426
0.000208
0.000206
0.000238
0.000265
0.000260
0.000201
