0.000145
0.020821
0.000765
0.000332
0.000256
0.000294
0.000330
0.000223
0.000330
0.000281
0.000250
0.000330
0.000488
0.000567
0.000334
0.000369
0.000255
0.000346
0.000354
0.000422
0.001827
0.000364
0.000732
0.000271
0.000266
0.000284
0.000316
0.000314
0.000423
0.000388
0.000491
0.000312
0.000057
0.000202
0.000270
0.000267
0.000287
0.000252
0.000246
0.000279
0.000288
0.000266
0.000281
0.000415
0.000438
0.000315
0.000252
0.000376
0.000352
0.000362
0.000255
0.000238
0.001731
0.000297
0.000250
0.000446
0.000243
0.000300
0.000270
0.000277
0.000297
0.000277
0.000403
0.000336
0.000057
0.000236
0.000253
0.000264
0.000259
0.000254
0.000248
0.000262
0.000254
0.000287
0.001665
0.000224
0.000238
0.000273
0.000270
0.000278
0.000252
0.000262
0.000259
0.000352
0.001788
0.000238
0.000281
0.000452
0.000430
0.000382
0.000236
0.000259
0.000511
0.000504
0.000731
0.000195
0.000057
0.000237
0.000248
0.000250
0.000260
0.000280
0.000241
0.000271
0.000588
0.000396
0.000261
0.000241
0.000251
0.000240
0.000253
0.000257
0.000254
0.000242
0.000271
0.000302
0.000327
0.001665
0.000280
0.000259
0.000412
0.000360
0.000657
0.000778
0.000383
0.000361
0.000234
0.000189
0.000057
0.000218
0.000252
0.000298
0.000212
0.000281
0.000237
0.000298
0.001635
0.000264
0.000212
0.000248
0.000242
0.000262
0.000252
0.000265
0.000283
0.000265
0.000809
0.001395
0.000297
0.000240
0.000414
0.000238
0.000265
0.000247
0.000254
0.000269
0.000272
0.000261
0.000263
0.000196
0.000057
0.000189
0.000252
0.000244
0.000264
0.000234
0.000258
0.000231
0.000255
0.000236
0.000257
0.001623
0.000262
0.000238
0.000246
0.000254
0.000242
0.000251
0.000286
0.000220
0.000254
0.000293
0.001632
0.000280
0.000261
0.000438
0.000252
0.000251
0.000263
0.000269
0.000271
0.000191
0.000057
0.000216
0.000228
0.000253
0.000247
0.000245
0.000245
0.000262
0.000238
0.000263
0.000257
0.000248
0.000255
0.000259
0.000274
0.001638
0.000278
0.000293
0.000221
0.000249
0.000278
0.000264
0.000239
0.000249
0.000262
0.001774
0.000402
0.000338
0.000376
0.000233
0.000283
0.000196
0.000057
0.000235
0.000235
0.000242
0.000267
0.000255
0.000265
0.000230
0.000438
0.000401
0.000462
0.000190
0.000256
0.000240
0.000251
0.001554
0.000553
0.000311
0.000404
0.000320
0.000231
0.000266
0.000284
0.000270
0.001717
0.000536
0.000459
0.000239
0.000274
0.000216
0.000274
0.000181
0.000057
0.000198
0.000241
0.000251
0.000293
0.000317
0.000518
0.000286
0.000291
0.000218
0.000239
0.000265
0.000235
0.000257
0.001701
0.000487
0.000312
0.000216
0.000245
0.000275
0.000300
0.000239
0.000254
0.001795
0.000409
0.000270
0.000386
0.000238
0.000279
0.000250
0.000397
0.000329
0.000056
0.000198
0.000387
0.000341
0.000311
0.000244
0.000250
0.000252
0.000255
0.000240
0.000233
0.000236
0.000244
0.001559
0.000364
0.000299
0.000223
0.000265
0.000253
0.000241
0.000309
0.000250
0.000327
0.000243
0.001818
0.000255
0.000494
0.000242
0.000274
0.000237
0.000271
0.000289
0.000058
0.000356
0.000567
0.000608
0.000242
0.000204
0.000274
0.000232
0.000212
0.000266
0.000252
0.000251
0.001704
0.000248
0.000444
0.000373
0.000217
0.000239
0.000229
0.000242
0.000270
0.000257
0.001852
0.000227
0.000467
0.001853
0.000522
0.000368
0.000247
0.000254
0.000261
0.000185
0.000056
0.000211
0.000236
0.000249
0.000241
0.000265
0.001619
0.000248
0.000227
0.000256
0.000263
0.000229
0.000258
0.000264
0.000228
0.000280
0.000414
0.000642
0.000238
0.000223
0.000278
0.000277
0.000238
0.000242
0.000437
0.000435
0.000263
0.000354
0.000591
0.000401
0.000260
0.000207
0.000057
0.000224
0.000236
0.000249
0.000256
0.000238
0.000237
0.000260
0.000345
0.001871
0.000313
0.000223
0.000236
0.000247
0.000244
0.000258
0.000302
0.000395
0.000489
0.000335
0.000254
0.000251
0.000306
0.000289
0.000252
0.000271
0.000440
0.000338
0.000561
0.000509
0.000445
0.000174
0.000057
0.000220
0.000248
0.000240
0.000241
0.000237
0.000232
0.000247
0.000264
0.000227
0.000293
0.000342
0.000439
0.001385
0.000264
0.000219
0.000241
0.000259
0.000249
0.000250
0.000269
0.000261
0.000461
0.000407
0.000262
0.000267
0.000259
0.000247
0.000276
0.000264
0.000265
0.000390
0.000056
0.000201
0.000243
0.000228
0.000321
0.000477
0.000434
0.000233
0.000259
0.000235
0.000260
0.000259
0.000230
0.000297
0.000247
0.000239
0.000561
0.000352
0.001646
0.000263
0.000235
0.000257
0.000264
0.000253
0.000260
0.000249
0.000409
0.000524
0.000330
0.000418
0.000228
0.000204
0.000056
0.000230
0.000435
0.000243
0.000198
0.000287
0.000231
0.000358
0.000485
0.000329
0.000335
0.000225
0.000274
0.000264
0.000235
0.000521
0.000338
0.000219
0.000276
0.000408
0.001617
0.000272
0.000246
0.000518
0.000239
0.000288
0.000280
0.000246
0.000367
0.000532
0.000367
0.000277
0.000056
0.000189
0.000230
0.000239
0.000238
0.000426
0.000304
0.000287
0.000229
0.000435
0.000504
0.000305
0.000257
0.000234
0.000245
0.000258
0.000265
0.000256
0.000256
0.000224
0.000359
0.000287
0.000338
0.001840
0.000235
0.000264
0.000252
0.000284
0.000347
0.000454
0.000662
0.000438
0.000058
0.000223
0.000330
0.000293
0.000417
0.000392
0.000206
0.000255
0.000298
0.000584
0.000343
0.000255
0.000242
0.000236
0.000272
0.000268
0.000235
0.000257
0.000267
0.000263
0.000262
0.000285
0.000380
0.000677
0.001332
0.000325
0.000432
0.000421
0.000235
0.000387
0.000460
0.000327
0.000056
0.000227
0.000380
0.000278
0.000213
0.000221
0.000252
0.000412
0.000245
0.000223
0.000385
0.000400
0.000459
0.000236
0.000259
0.000266
0.000250
0.000367
0.000418
0.000303
0.000247
0.000241
0.000358
0.000661
0.001678
0.000239
0.000420
0.000317
0.000227
0.000245
0.000524
0.000232
0.000058
0.000226
0.000232
0.000241
0.000262
0.000246
0.000243
0.000242
0.000325
0.000459
0.000292
0.000446
0.000388
0.000252
0.000579
0.000248
0.000236
0.000277
0.000262
0.000234
0.000348
0.000227
0.000244
0.000266
0.000363
0.000516
0.001686
0.000271
0.000239
0.000244
0.000273
0.000184
0.000056
0.000313
0.000505
0.000303
0.000223
0.000238
0.000271
0.000236
0.000239
0.000276
0.000236
0.000225
0.000308
0.000344
0.000573
0.000404
0.000240
0.000250
0.000241
0.000343
0.000382
0.000387
0.000332
0.000361
0.000399
0.000245
0.000278
0.000247
0.000273
0.001788
0.000246
0.000213
0.000056
0.000199
0.000227
0.000257
0.000296
0.000334
0.000554
0.000320
0.000196
0.000285
0.000241
0.000246
0.000248
0.000522
0.000451
0.000497
0.000253
0.000276
0.000252
0.000425
0.000469
0.000352
0.000456
0.000440
0.000447
0.000242
0.000244
0.000262
0.000247
0.000262
0.001716
0.000489
0.000057
0.000260
0.000329
0.000223
0.000223
0.000257
0.000246
0.000234
0.000496
0.000377
0.000309
0.000295
0.000306
0.000373
0.000556
0.000379
0.000235
0.000251
0.000253
0.000250
0.000266
0.000279
0.000254
0.000245
0.000264
0.000316
0.000440
0.000334
0.000340
0.000262
0.000236
0.000183
0.000056
0.000447
0.000286
0.000477
0.000255
0.000203
0.000247
0.000246
0.000255
0.000240
0.000225
0.000254
0.000281
0.000287
0.000375
0.000564
0.000449
0.000285
0.000311
0.000387
0.000343
0.000299
0.000238
0.000242
0.000260
0.001752
0.000251
0.001727
0.000960
0.000372
0.000333
0.000160
0.000056
0.000223
0.000254
0.000216
0.000246
0.000269
0.000241
0.000246
0.000252
0.000252
0.000353
0.000330
0.000482
0.000279
0.000375
0.000246
0.000263
0.000243
0.000286
0.000236
0.000251
0.000256
0.000261
0.001809
0.000234
0.000257
0.000270
0.000279
0.000267
0.001967
0.000445
0.000240
0.000056
0.000250
0.000196
0.000238
0.000240
0.000254
0.000248
0.000240
0.000254
0.000255
0.000374
0.000638
0.000235
0.000391
0.000232
0.000250
0.000241
0.000326
0.000440
0.000367
0.000248
0.001789
0.000252
0.000259
0.000236
0.000264
0.000273
0.000241
0.000257
0.000329
0.000317
0.000373
0.000057
0.000245
0.000206
0.000236
0.000272
0.000239
0.000238
0.000256
0.000256
0.000240
0.000252
0.000243
0.000268
0.000389
0.000380
0.000352
0.000277
0.000454
0.000250
0.000260
0.000244
0.000251
0.000260
0.000278
0.000257
0.000278
0.001782
0.000242
0.000255
0.000266
0.000238
0.000202
0.000056
0.000275
0.000353
0.000226
0.000209
0.000243
0.000228
0.000244
0.000257
0.000243
0.000229
0.000231
0.000260
0.000259
0.000409
0.000356
0.000405
0.000247
0.000247
0.000261
0.000235
0.000275
0.000251
0.000250
0.000270
0.000243
0.000271
0.000326
0.001613
0.000265
0.000237
0.000193
0.000057
0.000202
0.000236
0.000253
0.000258
0.000349
0.000423
0.000328
0.000315
0.000232
0.000250
0.000265
0.000228
0.000248
0.000256
0.000259
0.000260
0.000245
0.000262
0.000245
0.000270
0.000260
0.000269
0.000249
0.000233
0.000236
0.000294
0.000273
0.000262
0.000258
0.000259
0.000196
0.000057
0.000188
0.000240
0.000254
0.000279
0.000226
0.000243
0.000237
0.000259
0.000281
0.000250
0.000232
0.000241
0.000263
0.000245
0.000291
0.000240
0.000243
0.000258
0.000303
0.000247
0.000269
0.000326
0.000266
0.000224
0.000304
0.000250
0.000271
0.000256
0.000248
0.000425
0.000653
0.000056
0.000223
0.000290
0.000232
0.000222
0.000231
0.000258
0.000237
0.000251
0.000266
0.000226
0.000272
0.000285
0.000492
0.000477
0.001533
0.000231
0.000513
0.000212
0.000261
0.000453
0.000421
0.000403
0.000222
0.000286
0.000239
0.000267
0.000277
0.000254
0.000309
0.000309
0.000144
0.000057
0.000296
0.000483
0.000345
0.000319
0.000205
0.000282
0.000226
0.000241
0.000233
0.000244
0.000256
0.000258
0.000252
0.000289
0.000296
0.000474
0.000447
0.001780
0.000234
0.000256
0.000353
0.000411
0.000406
0.000342
0.000313
0.000318
0.000301
0.000230
0.000230
0.000259
0.000192
0.000056
0.000211
0.000248
0.000215
0.000304
0.000338
0.000434
0.000361
0.000253
0.000251
0.000218
0.000251
0.000268
0.000266
0.000262
0.000250
0.000253
0.000316
0.000481
0.000316
0.000462
0.000227
0.001741
0.000328
0.000527
0.000447
0.000500
0.000327
0.000226
0.000257
0.000259
0.000451
0.000057
0.000206
0.000272
0.000217
0.000268
0.000519
0.000364
0.000383
0.000243
0.000266
0.000306
0.000197
0.000252
0.000254
0.000293
0.000314
0.000225
0.000243
0.000377
0.000430
0.000389
0.000496
0.001841
0.000248
0.000456
0.000487
0.000363
0.000221
0.000280
0.000276
0.000263
0.000197
0.000056
0.000210
0.000344
0.000358
0.000397
0.000334
0.000308
0.000345
0.000214
0.000241
0.000259
0.000272
0.000224
0.000255
0.000251
0.000248
0.000263
0.000324
0.000485
0.000388
0.000374
0.000294
0.000238
0.000256
0.001710
0.000498
0.000423
0.000723
0.000218
0.000258
0.000311
0.000157
0.000056
0.000201
0.000237
0.000344
0.000236
0.000264
0.000330
0.000457
0.000306
0.000239
0.000533
0.000225
0.000256
0.000255
0.000271
0.000280
0.000261
0.000208
0.000400
0.000454
0.000413
0.000257
0.000235
0.000253
0.000252
0.000262
0.000272
0.000235
0.000251
0.000270
0.000295
0.000229
0.000056
0.000242
0.000362
0.000208
0.000259
0.000250
0.000259
0.000234
0.000296
0.000256
0.000232
0.000277
0.000330
0.000419
0.000388
0.000364
0.000267
0.000230
0.000234
0.000256
0.000269
0.000286
0.000262
0.000231
0.000263
0.000280
0.000332
0.000381
0.000381
0.000370
0.000227
0.000175
0.000056
0.000198
0.000223
0.000279
0.000244
0.000236
0.000269
0.000264
0.000225
0.000501
0.000209
0.000259
0.000285
0.000221
0.000258
0.000273
0.000301
0.000236
0.000356
0.000213
0.000239
0.000259
0.000263
0.000263
0.000264
0.000273
0.000264
0.000282
0.000232
0.000256
0.000509
0.000152
0.000056
0.000195
0.000233
0.000247
0.000295
0.000197
0.000245
0.000366
0.000412
0.000232
0.000229
0.000256
0.000261
0.000226
0.000229
0.000442
0.001824
0.000234
0.000268
0.000284
0.000335
0.000407
0.000364
0.000363
0.000437
0.000347
0.000408
0.000230
0.000276
0.000268
0.000275
0.001393
0.000056
0.000418
0.000311
0.000240
0.000208
0.000239
0.000252
0.000237
0.000249
0.000247
0.000274
0.000239
0.000264
0.000246
0.000319
0.000503
0.001647
0.000241
0.000235
0.000230
0.000264
0.000241
0.000261
0.000351
0.000437
0.000264
0.000347
0.000221
0.000271
0.000275
0.000267
0.000190
0.000077
0.001193
0.000517
0.000351
0.000256
0.000243
0.000222
0.000232
0.000234
0.000494
0.000230
0.000235
0.000241
0.000321
0.000583
0.000351
0.000349
0.000257
0.000228
0.000336
0.000361
0.000264
0.000260
0.000271
0.000239
0.000273
0.000646
0.000490
0.000268
0.000242
0.000271
0.000174
0.000056
0.000169
0.000205
0.000245
0.000246
0.001431
0.000341
0.000220
0.000258
0.000261
0.000230
0.000252
0.000258
0.000234
0.000269
0.000284
0.000266
0.000450
0.000631
0.000271
0.001752
0.000252
0.000295
0.000328
0.000361
0.000598
0.000383
0.000245
0.000251
0.000256
0.000267
0.000200
0.000056
0.000217
0.000257
0.000232
0.000287
0.001287
0.000233
0.000252
0.000260
0.000240
0.000237
0.000236
0.000258
0.000275
0.000244
0.000249
0.000315
0.000436
0.000426
0.000329
0.000253
0.000276
0.000266
0.000249
0.000233
0.000294
0.000260
0.000233
0.000281
0.000277
0.000464
0.000439
0.000057
0.000232
0.000244
0.000228
0.000257
0.000266
0.000244
0.000233
0.000262
0.000273
0.000277
0.001412
0.000230
0.000230
0.000254
0.000245
0.000249
0.000284
0.000247
0.000283
0.000243
0.000283
0.000503
0.000416
0.000404
0.000221
0.000275
0.001764
0.000262
0.000253
0.000303
0.000453
0.000057
0.000213
0.000402
0.000454
0.000498
0.000530
0.000571
0.001452
0.000424
0.000522
0.000652
0.000549
0.000736
0.000470
0.000618
0.000584
0.001881
0.000411
0.000428
0.000385
0.000324
0.000219
0.000287
0.000287
0.000266
0.000266
0.000288
0.000282
0.000287
0.000256
0.000310
0.001343
0.000058
0.000221
0.000232
0.000248
0.000232
0.000258
0.000260
0.000229
0.000248
0.000238
0.000264
0.000232
0.000250
0.000255
0.000259
0.000260
0.000267
0.001803
0.000271
0.000286
0.000231
0.000246
0.000269
0.000261
0.000257
0.000478
0.000371
0.000341
0.000241
0.000258
0.000285
0.000207
0.000056
0.000230
0.001343
0.000329
0.000273
0.000247
0.000238
0.000240
0.000230
0.000243
0.000247
0.000215
0.000241
0.000255
0.000505
0.000362
0.000301
0.000248
0.001813
0.000358
0.000234
0.000241
0.000262
0.000260
0.000276
0.000262
0.000288
0.000261
0.000261
0.000258
0.000319
0.000211
0.000057
0.000195
0.000245
0.000247
0.001457
0.000228
0.000223
0.000250
0.000244
0.000237
0.000274
0.000248
0.000241
0.000254
0.000276
0.000255
0.000239
0.000267
0.000261
0.000269
0.000253
0.000268
0.001763
0.000284
0.001756
0.000257
0.000260
0.000256
0.000272
0.000269
0.000270
0.000197
0.000056
0.000207
0.000288
0.001327
0.000227
0.000233
0.000239
0.000261
0.000251
0.000247
0.000250
0.000258
0.000232
0.000269
0.000269
0.000245
0.000266
0.000256
0.000289
0.000290
0.000227
0.001883
0.000235
0.001839
0.000236
0.000255
0.000277
0.000232
0.000244
0.000252
0.000282
0.000198
0.000056
0.001453
0.000213
0.000230
0.000243
0.000241
0.000238
0.000374
0.000281
0.000233
0.000258
0.000250
0.000261
0.000235
0.000368
0.000414
0.000278
0.000236
0.000273
0.000261
0.000247
0.000271
0.000344
0.000222
0.000248
0.000278
0.000272
0.000275
0.000285
0.000682
0.000368
0.000207
0.000056
0.000206
0.000257
0.000266
0.000300
0.000361
0.000261
0.001687
0.000305
0.000278
0.000266
0.000254
0.000279
0.000263
0.000268
0.000304
0.000302
0.000304
0.000593
0.000399
0.000264
0.000297
0.000275
0.000260
0.000263
0.000338
0.000257
0.000271
0.000248
0.000260
0.000313
0.000421
0.000057
0.000255
0.000462
0.000267
0.000263
0.000248
0.000230
0.000228
0.000247
0.000253
0.000299
0.001493
0.000211
0.000219
0.000253
0.000248
0.000287
0.000279
0.000239
0.000261
0.000264
0.000269
0.000388
0.000546
0.000293
0.000266
0.000287
0.000263
0.000256
0.000238
0.000315
0.000170
0.000056
0.000191
0.000287
0.000282
0.000411
0.000407
0.000242
0.000215
0.000244
0.000255
0.000255
0.000227
0.000252
0.000262
0.000265
0.000240
0.000234
0.000432
0.001184
0.000240
0.000250
0.000276
0.000250
0.000345
0.000442
0.000241
0.000284
0.000620
0.000415
0.000312
0.000243
0.000169
0.000058
0.000214
0.000248
0.000257
0.000260
0.000254
0.000246
0.000451
0.000322
0.000443
0.000256
0.000365
0.000389
0.000407
0.000350
0.000252
0.000238
0.000236
0.000287
0.000355
0.000494
0.001256
0.000220
0.000274
0.000271
0.000233
0.000236
0.000267
0.000303
0.000422
0.000471
0.000236
0.000057
0.000186
0.000239
0.000258
0.000241
0.000239
0.000244
0.000241
0.000267
0.000303
0.000356
0.000429
0.000368
0.000239
0.000240
0.000245
0.000264
0.000245
0.000263
0.000264
0.000276
0.000422
0.000245
0.000353
0.000398
0.000363
0.000247
0.000269
0.000268
0.000259
0.000344
0.000167
0.000057
0.000304
0.000310
0.000288
0.000482
0.000353
0.000377
0.000242
0.000238
0.000246
0.000271
0.000259
0.000264
0.000236
0.000252
0.000235
0.000231
0.000267
0.000420
0.000459
0.000331
0.000227
0.000270
0.000247
0.000244
0.000267
0.000281
0.000263
0.000282
0.000265
0.000259
0.000359
0.000058
0.000261
0.000329
0.000245
0.000266
0.000223
0.000244
0.000241
0.000259
0.000267
0.000259
0.000246
0.000237
0.000289
0.000506
0.000427
0.000288
0.000232
0.000260
0.000251
0.000269
0.000252
0.000262
0.000264
0.000263
0.000272
0.000274
0.000455
0.000592
0.000400
0.000257
0.000179
0.000056
0.000374
0.000203
0.000228
0.000238
0.000249
0.000244
0.000237
0.000251
0.000258
0.000262
0.000214
0.000250
0.000293
0.000209
0.000236
0.000266
0.000253
0.000265
0.000292
0.000241
0.000265
0.000259
0.000262
0.000263
0.000270
0.000240
0.000258
0.000276
0.000259
0.000285
0.000200
0.000056
0.000194
0.000235
0.000243
0.000245
0.000237
0.000256
0.000263
0.000239
0.000261
0.000279
0.000231
0.000229
0.000265
0.000396
0.000249
0.000292
0.000247
0.000270
0.000250
0.000281
0.000270
0.000233
0.000255
0.000245
0.000269
0.000275
0.000253
0.000258
0.000261
0.000270
0.000207
0.000056
0.000213
0.000365
0.000367
0.000279
0.000295
0.000258
0.000261
0.000260
0.000219
0.000269
0.000257
0.000234
0.000251
0.000232
0.000263
0.000282
0.000244
0.000261
0.000243
0.000269
0.000275
0.000264
0.000277
0.000262
0.000282
0.000236
0.000258
0.000262
0.000278
0.000251
0.000210
0.000056
0.000179
0.000235
0.000263
0.000265
0.000248
0.000448
0.000209
0.000273
0.000262
0.000417
0.000515
0.000284
0.000230
0.000248
0.000278
0.000257
0.000233
0.000271
0.000258
0.000273
0.000263
0.000277
0.000241
0.000254
0.000553
0.000511
0.000259
0.000296
0.000268
0.000262
0.000189
0.000057
0.000219
0.000226
0.000244
0.000253
0.000348
0.000669
0.000269
0.000381
0.000208
0.000247
0.000249
0.000254
0.000252
0.000254
0.000247
0.000268
0.000292
0.000221
0.000638
0.000379
0.000306
0.000246
0.000258
0.000281
0.000282
0.000253
0.000264
0.000284
0.000234
0.000343
0.000286
0.000056
0.000272
0.000231
0.000243
0.000231
0.000261
0.000265
0.000214
0.000249
0.000242
0.000258
0.000243
0.000249
0.000263
0.000354
0.000598
0.000387
0.000239
0.000258
0.000262
0.000247
0.000265
0.000290
0.000479
0.000219
0.000269
0.000568
0.000445
0.000475
0.000252
0.000254
0.000187
0.000056
0.000203
0.000233
0.000249
0.000238
0.000259
0.000275
0.000286
0.000493
0.000530
0.000421
0.000217
0.000258
0.000273
0.000283
0.000249
0.000248
0.000236
0.000250
0.000281
0.000345
0.000357
0.000665
0.000362
0.000256
0.000357
0.000379
0.000480
0.000237
0.000270
0.000329
0.000484
0.000056
0.000260
0.000237
0.000437
0.000221
0.000230
0.000255
0.000261
0.000271
0.000222
0.000243
0.000328
0.000336
0.000349
0.000361
0.000217
0.000258
0.000267
0.000246
0.000269
0.000270
0.000269
0.000258
0.000252
0.000270
0.000406
0.000395
0.000493
0.000226
0.000262
0.000268
0.000196
0.000056
0.000230
0.000255
0.000225
0.000245
0.000248
0.000285
0.000370
0.000377
0.000430
0.000263
0.000375
0.000225
0.000249
0.000268
0.000257
0.000240
0.000249
0.000267
0.000291
0.000421
0.000465
0.000327
0.000477
0.000266
0.000381
0.000421
0.000386
0.000249
0.000261
0.000338
0.000299
0.000057
0.000210
0.000274
0.000220
0.000258
0.000250
0.000265
0.000241
0.000251
0.000267
0.000242
0.000241
0.000379
0.000425
0.000392
0.000358
0.000225
0.000267
0.000266
0.000263
0.000236
0.000257
0.000249
0.000269
0.000270
0.000302
0.000292
0.000505
0.000479
0.000246
0.000269
0.000194
0.000056
0.000219
0.000241
0.000278
0.000247
0.000241
0.000343
0.000505
0.000469
0.000346
0.000699
0.000259
0.000222
0.000239
0.000260
0.000246
0.000273
0.000273
0.000271
0.000481
0.000453
0.001480
0.000309
0.000263
0.000285
0.000265
0.000263
0.000354
0.000466
0.000324
0.000322
0.000184
0.000057
0.000218
0.000238
0.000236
0.000265
0.000228
0.000252
0.000300
0.000227
0.000260
0.000318
0.000333
0.000379
0.000283
0.000321
0.000392
0.000345
0.000236
0.000257
0.000266
0.000252
0.000247
0.000252
0.000311
0.000221
0.000345
0.000421
0.000426
0.000284
0.000255
0.000270
0.000184
0.000056
0.000232
0.000244
0.000256
0.000254
0.000241
0.000240
0.000472
0.000214
0.000229
0.000255
0.000245
0.000252
0.000264
0.000252
0.000242
0.000276
0.000257
0.000300
0.000242
0.000253
0.000285
0.000267
0.000287
0.000244
0.000265
0.000282
0.000268
0.000264
0.000268
0.000268
0.000174
0.000056
0.000233
0.000241
0.000280
0.000536
0.000281
0.000255
0.000237
0.000243
0.000266
0.000241
0.000253
0.000254
0.000261
0.000262
0.000236
0.000244
0.000269
0.000251
0.000336
0.000357
0.000369
0.000401
0.000216
0.000271
0.000263
0.000254
0.000267
0.000248
0.000279
0.000273
0.000201
0.000057
0.000395
0.000438
0.000391
0.000194
0.000258
0.000259
0.000411
0.000222
0.000231
0.000252
0.000255
0.000288
0.000406
0.000385
0.001872
0.000250
0.000250
0.000245
0.000276
0.000240
0.000322
0.000563
0.000601
0.000207
0.000233
0.000263
0.000272
0.000429
0.000279
0.000280
0.000168
0.000056
0.000274
0.000323
0.000381
0.000284
0.000499
0.000196
0.000238
0.000249
0.000252
0.000239
0.000262
0.000245
0.000264
0.000348
0.000337
0.000529
0.000215
0.000246
0.000251
0.000264
0.000261
0.000317
0.000240
0.000275
0.000274
0.000447
0.000502
0.000408
0.000496
0.000211
0.000192
0.000057
0.000205
0.000229
0.000259
0.000229
0.000248
0.000246
0.000271
0.000296
0.000325
0.000421
0.000385
0.000348
0.000210
0.000258
0.000268
0.000301
0.000289
0.000233
0.000271
0.000278
0.000236
0.000290
0.000457
0.000390
0.000308
0.000246
0.000259
0.000444
0.000426
0.000307
0.000162
0.000057
0.000217
0.000232
0.000341
0.000424
0.000378
0.000221
0.000221
0.000253
0.000269
0.000263
0.000252
0.000252
0.000227
0.000257
0.000259
0.000283
0.000436
0.000334
0.000297
0.000364
0.000468
0.000227
0.000280
0.000278
0.000299
0.000284
0.000252
0.000257
0.000485
0.000540
0.000176
0.000056
0.000196
0.000230
0.000245
0.000252
0.000242
0.000488
0.000214
0.000249
0.000260
0.000315
0.000494
0.000603
0.000203
0.000245
0.000246
0.000250
0.000252
0.000271
0.000240
0.000249
0.000283
0.000246
0.000412
0.000382
0.000335
0.000411
0.000311
0.000288
0.000330
0.000243
0.000180
0.000056
0.000194
0.000240
0.000279
0.000455
0.000333
0.000288
0.000259
0.000236
0.000240
0.000259
0.000247
0.000262
0.000261
0.000236
0.000258
0.000261
0.000245
0.000244
0.000278
0.000406
0.000513
0.000363
0.000233
0.000240
0.000277
0.000270
0.000262
0.000260
0.000268
0.000266
0.000191
0.000056
0.000290
0.000414
0.000428
0.000233
0.000222
0.000249
0.000315
0.000459
0.000282
0.000215
0.000245
0.000274
0.000255
0.000448
0.000437
0.000285
0.000239
0.000238
0.000253
0.000257
0.000275
0.000261
0.000267
0.000268
0.000261
0.000310
0.000363
0.000429
0.000322
0.000245
0.000182
0.000056
0.000218
0.000236
0.000248
0.000254
0.000254
0.000259
0.000230
0.000271
0.000249
0.000234
0.000267
0.000237
0.000288
0.001433
0.000215
0.000264
0.000263
0.000244
0.000275
0.000275
0.000262
0.000239
0.000278
0.000252
0.000266
0.000277
0.000282
0.000255
0.000261
0.000262
0.000191
0.000056
0.000223
0.000220
0.000252
0.000266
0.000220
0.000241
0.000265
0.000257
0.000227
0.000246
0.000266
0.000246
0.000260
0.000255
0.000251
0.000254
0.000255
0.000254
0.000272
0.000251
0.000254
0.000269
0.000244
0.000250
0.001295
0.000288
0.000600
0.000356
0.000380
0.000240
0.000187
0.000057
0.000222
0.000234
0.000243
0.000252
0.000419
0.000237
0.000237
0.000243
0.000255
0.000354
0.000463
0.000337
0.000242
0.000215
0.000267
0.000260
0.000258
0.000289
0.000222
0.000259
0.000258
0.000252
0.000283
0.000482
0.000435
0.000437
0.000233
0.000267
0.001369
0.000246
0.000180
0.000056
0.000233
0.000409
0.000327
0.000275
0.000215
0.000229
0.000233
0.000245
0.000263
0.000279
0.000226
0.000255
0.000295
0.000261
0.000535
0.000389
0.000342
0.000219
0.000252
0.000257
0.000261
0.000285
0.000247
0.000274
0.000263
0.000264
0.000365
0.000498
0.000394
0.000358
0.000157
0.000056
0.000197
0.000243
0.001256
0.000450
0.000272
0.000453
0.000380
0.000501
0.000262
0.000344
0.000222
0.000231
0.000259
0.000258
0.000247
0.000267
0.000292
0.000605
0.000319
0.000382
0.000268
0.000241
0.000266
0.000494
0.000234
0.000278
0.000244
0.000279
0.000282
0.000584
0.000295
0.000056
0.000376
0.000315
0.000247
0.000210
0.001581
0.000529
0.000222
0.000243
0.000247
0.000250
0.000228
0.000247
0.000242
0.000270
0.000245
0.000266
0.000237
0.000266
0.000411
0.000399
0.000434
0.000245
0.000253
0.000254
0.000259
0.000280
0.000268
0.000234
0.000267
0.000305
0.000190
0.000057
0.000469
0.000254
0.000226
0.000215
0.000254
0.000243
0.000257
0.000237
0.000242
0.000223
0.001381
0.000503
0.000263
0.000245
0.000241
0.000256
0.000271
0.000257
0.000240
0.000303
0.000236
0.000259
0.000343
0.000340
0.000400
0.000470
0.000238
0.000260
0.000277
0.000274
0.000174
0.000055
0.000211
0.000417
0.000223
0.000233
0.000470
0.000336
0.000331
0.000340
0.000459
0.000200
0.000235
0.000255
0.000263
0.000266
0.000256
0.001405
0.000372
0.000281
0.000236
0.000280
0.000296
0.000235
0.000255
0.000254
0.000256
0.000267
0.000400
0.000498
0.000297
0.000278
0.000149
0.000056
0.000196
0.000240
0.000254
0.000236
0.000227
0.000266
0.000234
0.000247
0.000312
0.000363
0.000447
0.000265
0.000238
0.000254
0.000242
0.000279
0.000271
0.000260
0.000268
0.000229
0.000250
0.000338
0.001245
0.000230
0.000254
0.000264
0.000257
0.000264
0.000256
0.000267
0.000190
0.000056
0.000200
0.000374
0.000347
0.000366
0.000241
0.000247
0.000252
0.000288
0.000238
0.000262
0.000237
0.000270
0.000236
0.000259
0.000251
0.000268
0.000265
0.000268
0.000275
0.000242
0.000245
0.000271
0.000267
0.000284
0.000290
0.000267
0.000267
0.000260
0.000252
0.000458
0.001362
0.000056
0.000224
0.000252
0.000224
0.000260
0.000236
0.000258
0.000242
0.000223
0.000246
0.000259
0.000268
0.000263
0.000255
0.000236
0.000268
0.000226
0.001729
0.000258
0.000230
0.000269
0.000243
0.000261
0.000292
0.000242
0.000292
0.000241
0.000265
0.000277
0.000265
0.000263
0.000220
0.000055
0.000371
0.000316
0.001281
0.000233
0.000225
0.000244
0.000255
0.000253
0.000271
0.000243
0.000228
0.000340
0.000429
0.000415
0.000298
0.000204
0.000251
0.000257
0.000265
0.000263
0.000238
0.000283
0.000259
0.000282
0.000255
0.000445
0.000323
0.000369
0.000330
0.000216
0.000196
0.000055
0.000206
0.000253
0.000244
0.000246
0.000278
0.000198
0.000236
0.000269
0.000416
0.001324
0.000273
0.000214
0.000241
0.000274
0.000251
0.000293
0.000233
0.000251
0.000301
0.000431
0.000362
0.000278
0.000241
0.000241
0.000282
0.000277
0.000268
0.000298
0.000266
0.000276
0.000197
0.000056
0.000245
0.000449
0.000373
0.000214
0.000256
0.000209
0.000251
0.000273
0.000271
0.000247
0.000225
0.000251
0.000452
0.000498
0.000564
0.001359
0.000258
0.000255
0.000342
0.000344
0.000476
0.000421
0.000527
0.000348
0.000227
0.000267
0.000265
0.000279
0.000264
0.000273
0.000187
0.000056
0.000200
0.000322
0.000395
0.000470
0.000351
0.000238
0.000267
0.000222
0.000240
0.000271
0.000232
0.000267
0.000282
0.000227
0.000256
0.000300
0.000393
0.000387
0.000379
0.001320
0.000275
0.000255
0.000253
0.000261
0.000425
0.000480
0.000373
0.000255
0.000271
0.000276
0.000184
0.000055
0.000209
0.000241
0.000240
0.000267
0.000226
0.000303
0.000426
0.000377
0.000382
0.000215
0.000242
0.000258
0.000303
0.000254
0.000241
0.000258
0.000262
0.000255
0.000284
0.000318
0.000418
0.000416
0.000322
0.001346
0.000415
0.000236
0.000269
0.000446
0.000470
0.000296
0.000313
0.000057
0.000188
0.000237
0.000252
0.000242
0.000254
0.000254
0.001679
0.000240
0.000224
0.000239
0.000253
0.000258
0.000245
0.000326
0.000324
0.000292
0.000262
0.000359
0.000446
0.000416
0.000305
0.000290
0.000220
0.000250
0.001502
0.000364
0.000393
0.000443
0.000340
0.000298
0.000167
0.000056
0.000206
0.000253
0.000252
0.000258
0.000244
0.000261
0.001699
0.000233
0.000249
0.000265
0.000330
0.000401
0.001452
0.000357
0.000396
0.000246
0.000250
0.000234
0.000271
0.000270
0.001526
0.000597
0.000372
0.000297
0.000222
0.000262
0.000262
0.000283
0.000243
0.000254
0.000196
0.000057
0.000198
0.000243
0.000270
0.000243
0.000264
0.000275
0.000277
0.000251
0.000259
0.000248
0.000253
0.000247
0.000294
0.000237
0.000269
0.001479
0.000280
0.000226
0.000261
0.000285
0.000271
0.000255
0.000426
0.001277
0.000280
0.000232
0.000269
0.000254
0.000405
0.000239
0.000196
0.000056
0.000217
0.000256
0.000219
0.000243
0.000241
0.000231
0.000233
0.001690
0.000257
0.000224
0.000360
0.000262
0.000230
0.000225
0.000250
0.001389
0.000235
0.000263
0.000264
0.000250
0.000265
0.000346
0.000295
0.001305
0.000262
0.000245
0.000258
0.000267
0.001388
0.000278
0.000249
0.000058
0.000221
0.000340
0.000209
0.000238
0.000264
0.000229
0.000285
0.000246
0.000262
0.000249
0.000258
0.000267
0.000250
0.000243
0.000320
0.001538
0.000200
0.000274
0.000250
0.000245
0.000289
0.000258
0.000246
0.001534
0.000317
0.000247
0.000262
0.001275
0.000277
0.000233
0.000202
0.000058
0.000181
0.000397
0.000344
0.000207
0.000236
0.000241
0.000263
0.000253
0.000266
0.000272
0.000236
0.000253
0.000263
0.000309
0.000396
0.001204
0.000234
0.000244
0.000267
0.000276
0.000226
0.000243
0.000252
0.000333
0.001295
0.000230
0.000243
0.000281
0.000240
0.001337
0.000353
0.000056
0.000325
0.000246
0.000219
0.000230
0.000242
0.000252
0.000246
0.000246
0.000293
0.000254
0.000223
0.000251
0.000247
0.000307
0.000448
0.001463
0.000206
0.000260
0.000300
0.000510
0.000287
0.000333
0.001410
0.000301
0.000231
0.000269
0.000252
0.001299
0.000285
0.000445
0.000440
0.000058
0.000229
0.000255
0.000255
0.000258
0.000250
0.000257
0.000269
0.000266
0.000247
0.000260
0.000345
0.000435
0.001320
0.000255
0.000252
0.000263
0.000275
0.000225
0.000242
0.000234
0.000346
0.001247
0.000252
0.000250
0.000249
0.000243
0.001492
0.000423
0.000521
0.000210
0.000187
0.000056
0.000196
0.000233
0.000250
0.000240
0.000251
0.000263
0.000237
0.000251
0.000535
0.000433
0.000228
0.001493
0.000205
0.000241
0.000273
0.000248
0.000264
0.000362
0.001612
0.000254
0.000390
0.000349
0.001264
0.000346
0.000342
0.000315
0.000257
0.000264
0.000265
0.000262
0.000199
0.000055
0.000203
0.000242
0.000332
0.000267
0.000286
0.000526
0.000303
0.000296
0.001464
0.000242
0.000381
0.000260
0.000230
0.000335
0.000345
0.001324
0.000271
0.000242
0.000252
0.000268
0.001493
0.000416
0.000257
0.000286
0.000271
0.000241
0.000451
0.000330
0.000255
0.000237
0.000267
0.000056
0.000223
0.000360
0.000360
0.000250
0.000226
0.001520
0.000209
0.000259
0.000272
0.000269
0.000264
0.000238
0.000325
0.001470
0.000261
0.000267
0.000391
0.001189
0.000348
0.000436
0.000410
0.000225
0.000241
0.000257
0.000296
0.000224
0.000456
0.000225
0.000261
0.000280
0.000200
0.000056
0.000201
0.000271
0.000345
0.000490
0.001172
0.000281
0.000335
0.000227
0.000226
0.000245
0.000257
0.000273
0.001533
0.000258
0.000236
0.000242
0.001385
0.000280
0.000459
0.000457
0.000327
0.000226
0.000248
0.000253
0.000267
0.000278
0.000256
0.000270
0.000268
0.000253
0.000232
0.000057
0.000207
0.000407
0.001437
0.000204
0.000276
0.000294
0.000220
0.000249
0.000267
0.000408
0.001360
0.000213
0.000261
0.000266
0.000250
0.001276
0.000654
0.000343
0.000299
0.000412
0.000310
0.000246
0.000271
0.000250
0.000276
0.000286
0.000274
0.000287
0.000437
0.000439
0.001382
0.000056
0.000209
0.000245
0.000246
0.000227
0.000249
0.000408
0.000472
0.001315
0.000242
0.000239
0.000245
0.001408
0.000384
0.000412
0.000242
0.000394
0.000241
0.000236
0.000264
0.000295
0.000253
0.000250
0.000279
0.000256
0.000245
0.000293
0.000426
0.000525
0.001462
0.000223
0.000191
0.000057
0.000214
0.000263
0.000415
0.000480
0.001231
0.000300
0.000231
0.000260
0.000243
0.000254
0.000246
0.000284
0.000489
0.000394
0.000294
0.000259
0.000236
0.000269
0.000243
0.000306
0.000235
0.000261
0.000258
0.000267
0.000257
0.000441
0.000417
0.000354
0.000324
0.001406
0.000181
0.000057
0.000195
0.000241
0.000425
0.000327
0.000325
0.000309
0.000333
0.000312
0.000303
0.000250
0.000233
0.000266
0.000249
0.000309
0.000233
0.000310
0.000508
0.000349
0.000292
0.000406
0.000259
0.000408
0.000221
0.000248
0.000263
0.000258
0.000255
0.000295
0.000328
0.000524
0.000285
0.000056
0.000200
0.001413
0.000221
0.000337
0.000406
0.000452
0.000354
0.000321
0.000205
0.000246
0.000264
0.000248
0.000282
0.000253
0.000257
0.000258
0.000257
0.001246
0.000375
0.000251
0.000258
0.000277
0.000271
0.000275
0.000271
0.000248
0.000282
0.000246
0.000342
0.000389
0.000358
0.000057
0.000198
0.000243
0.000258
0.001504
0.000301
0.000241
0.000226
0.000248
0.000231
0.000243
0.000256
0.000279
0.000244
0.000259
0.000288
0.000228
0.000249
0.000262
0.000257
0.000261
0.001427
0.000247
0.000236
0.000268
0.000269
0.000237
0.000269
0.000262
0.000281
0.000496
0.000342
0.000057
0.000207
0.000238
0.000394
0.000287
0.000243
0.000255
0.001528
0.000342
0.000303
0.000220
0.000262
0.000309
0.000334
0.000222
0.000226
0.000253
0.000241
0.000266
0.000264
0.000255
0.000485
0.000559
0.001065
0.000282
0.000224
0.000264
0.000267
0.000261
0.000302
0.000232
0.000390
0.000056
0.000197
0.000344
0.000209
0.000240
0.000248
0.000238
0.000249
0.000224
0.000295
0.001576
0.000402
0.000281
0.000237
0.000246
0.000269
0.000242
0.000260
0.000276
0.000260
0.000316
0.000305
0.000478
0.000466
0.001359
0.000235
0.000272
0.000260
0.000259
0.000267
0.000310
0.000441
0.000056
0.000239
0.000256
0.000224
0.000232
0.000218
0.000251
0.000261
0.000278
0.000254
0.001606
0.000325
0.000254
0.000245
0.000258
0.000461
0.000255
0.000542
0.000376
0.000273
0.000270
0.000484
0.000505
0.001260
0.000260
0.000230
0.000263
0.001713
0.000466
0.000600
0.000317
0.000144
0.000056
0.000199
0.000225
0.000269
0.000209
0.000259
0.000235
0.000254
0.000491
0.000496
0.000431
0.000278
0.000217
0.000249
0.000261
0.000279
0.000286
0.000218
0.000247
0.000250
0.000285
0.000290
0.000396
0.001334
0.000222
0.000252
0.000277
0.001900
0.000377
0.000390
0.000346
0.000155
0.000056
0.000212
0.000229
0.000268
0.001518
0.000455
0.000213
0.000232
0.000261
0.000254
0.000281
0.000376
0.000383
0.000351
0.000278
0.000251
0.000679
0.000271
0.001213
0.000257
0.000241
0.000256
0.000266
0.000279
0.000415
0.000677
0.000386
0.000247
0.000269
0.000268
0.000277
0.000188
0.000056
0.000197
0.000232
0.000246
0.001540
0.000246
0.000236
0.000240
0.000259
0.000241
0.000253
0.000255
0.000267
0.000266
0.000278
0.000231
0.000504
0.000324
0.000346
0.001392
0.000253
0.000241
0.000258
0.000277
0.000247
0.000375
0.000507
0.000431
0.000261
0.000287
0.000233
0.000435
0.000057
0.000217
0.000246
0.000271
0.001533
0.000295
0.000215
0.000269
0.000241
0.000251
0.000262
0.000250
0.000270
0.000245
0.000248
0.000439
0.000462
0.001404
0.000743
0.000265
0.000333
0.000241
0.000253
0.000241
0.000273
0.001678
0.000811
0.000225
0.000265
0.000276
0.000282
0.000192
0.000057
0.000201
0.000242
0.000252
0.000238
0.000270
0.000263
0.000216
0.000250
0.000242
0.000243
0.000280
0.000288
0.000249
0.000251
0.000258
0.000248
0.000264
0.001605
0.000698
0.000380
0.000309
0.000229
0.000250
0.000308
0.000255
0.000250
0.000270
0.000253
0.001449
0.000355
0.000276
0.000057
0.000188
0.000234
0.000270
0.000236
0.000262
0.000230
0.000275
0.000231
0.000253
0.000264
0.000258
0.000479
0.000396
0.000325
0.000216
0.000250
0.000263
0.001386
0.000684
0.000476
0.000340
0.000280
0.000229
0.000247
0.000276
0.000262
0.000250
0.000266
0.001493
0.000404
0.000216
0.000073
0.000192
0.000229
0.000248
0.000250
0.000248
0.000246
0.000234
0.000252
0.000274
0.000262
0.000346
0.000373
0.000349
0.000225
0.000253
0.000233
0.000260
0.000257
0.001568
0.000637
0.000463
0.000337
0.000219
0.000244
0.000259
0.000260
0.000265
0.000282
0.000266
0.001402
0.000308
0.000056
0.000208
0.000227
0.000228
0.000256
0.000260
0.000243
0.000249
0.000312
0.000357
0.000451
0.000389
0.000356
0.000351
0.000224
0.000266
0.000235
0.000297
0.000237
0.000264
0.001946
0.000304
0.000241
0.000459
0.000226
0.000246
0.000263
0.000267
0.000269
0.000268
0.000275
0.000318
0.000056
0.000249
0.000260
0.000241
0.000245
0.000248
0.000257
0.000226
0.000236
0.000273
0.000267
0.000228
0.000237
0.000357
0.000325
0.000541
0.000414
0.000225
0.000267
0.000272
0.000230
0.000250
0.000288
0.001467
0.001058
0.000229
0.000241
0.000271
0.000269
0.000276
0.000271
0.000181
0.000057
0.000202
0.001342
0.000289
0.000222
0.000224
0.000253
0.000253
0.000239
0.000241
0.000267
0.000241
0.000265
0.000241
0.000381
0.000375
0.000468
0.000255
0.000245
0.000267
0.000273
0.000270
0.000228
0.000260
0.000261
0.001333
0.000675
0.000311
0.000378
0.000391
0.000385
0.000301
0.000056
0.000192
0.000238
0.000354
0.001321
0.000207
0.000255
0.000233
0.000259
0.000257
0.000258
0.000253
0.000245
0.000259
0.000418
0.000496
0.000317
0.000218
0.000280
0.000335
0.000209
0.000252
0.000270
0.000239
0.000265
0.000274
0.001538
0.000746
0.000311
0.000254
0.000277
0.000197
0.000056
0.000215
0.000246
0.000505
0.000332
0.001260
0.000265
0.000208
0.000239
0.000232
0.000253
0.000245
0.000257
0.000234
0.000240
0.000257
0.000252
0.000272
0.000229
0.000263
0.000254
0.000267
0.000266
0.000307
0.000331
0.000217
0.000263
0.000270
0.001447
0.000270
0.000238
0.000172
0.000057
0.000197
0.000233
0.000249
0.000267
0.000350
0.000373
0.000397
0.000279
0.001575
0.000248
0.000251
0.000506
0.000369
0.000223
0.000439
0.000236
0.000229
0.000272
0.000271
0.000266
0.000281
0.000265
0.000257
0.000291
0.000220
0.000443
0.000365
0.000344
0.001570
0.000230
0.000197
0.000059
0.000210
0.000240
0.000249
0.000249
0.000243
0.000243
0.000264
0.000313
0.000412
0.002032
0.000230
0.000242
0.000258
0.000253
0.000260
0.000304
0.000215
0.000268
0.000260
0.000449
0.000349
0.000452
0.001449
0.000260
0.000240
0.002048
0.000240
0.000238
0.000258
0.001527
0.000159
0.000056
0.000429
0.000321
0.000466
0.000241
0.000275
0.000209
0.000263
0.000266
0.000263
0.000227
0.000252
0.000339
0.000494
0.000276
0.000411
0.000250
0.000237
0.001563
0.000229
0.000567
0.001896
0.000299
0.000225
0.001608
0.001951
0.000743
0.000282
0.000258
0.000279
0.000472
0.000303
0.000071
0.000178
0.000244
0.000278
0.000221
0.001415
0.001740
0.001072
0.000207
0.000231
0.001581
0.001980
0.000212
0.000241
0.000427
0.000292
0.000333
0.000444
0.000483
0.000207
0.000256
0.000238
0.000256
0.000273
0.001595
0.001204
0.001427
0.000285
0.000288
0.000255
0.000361
0.000290
0.000055
0.000222
0.000238
0.000236
0.000260
0.000205
0.000250
0.000248
0.000256
0.000259
0.000240
0.000237
0.000283
0.000441
0.000508
0.000297
0.000229
0.000245
0.000295
0.000248
0.000284
0.000237
0.000262
0.001497
0.000491
0.002115
0.000243
0.000249
0.000323
0.000464
0.000379
0.000187
0.000056
0.000199
0.000346
0.000488
0.000314
0.000192
0.000233
0.000254
0.000242
0.000244
0.000250
0.000235
0.000265
0.000264
0.001602
0.001349
0.001242
0.000271
0.000226
0.000251
0.000275
0.000283
0.000271
0.000247
0.000256
0.002239
0.000224
0.000240
0.000303
0.000319
0.000309
0.000222
0.000057
0.000228
0.000360
0.000563
0.000310
0.000239
0.000229
0.000250
0.000260
0.001900
0.001427
0.000220
0.000323
0.000387
0.000411
0.000264
0.000227
0.000253
0.000268
0.000269
0.000278
0.000241
0.000261
0.000483
0.000232
0.000266
0.000273
0.000248
0.000275
0.000278
0.000246
0.000205
0.000056
0.000208
0.000247
0.000267
0.000224
0.000274
0.000251
0.001535
0.001412
0.001342
0.000224
0.000238
0.000242
0.000266
0.000263
0.000245
0.000246
0.000254
0.002104
0.000244
0.000243
0.000265
0.000260
0.000258
0.000270
0.000260
0.000269
0.000261
0.000254
0.000297
0.000234
0.000175
0.000058
0.000197
0.002671
0.001420
0.000208
0.000304
0.000325
0.000214
0.000283
0.000233
0.000243
0.000252
0.000243
0.000240
0.000244
0.000276
0.000247
0.000269
0.000267
0.000268
0.000261
0.000265
0.000281
0.000275
0.000263
0.000247
0.000240
0.000266
0.000278
0.000261
0.000267
0.000370
0.000056
0.001557
0.000252
0.001233
0.000246
0.000212
0.000233
0.000266
0.000276
0.000222
0.000276
0.000389
0.000409
0.000293
0.000214
0.000249
0.002158
0.000225
0.000256
0.000274
0.000496
0.000339
0.000329
0.000237
0.000257
0.000263
0.000252
0.000261
0.000276
0.000273
0.002669
0.000203
0.000056
0.000201
0.000225
0.000285
0.000467
0.000260
0.000321
0.000212
0.000230
0.000256
0.000262
0.000259
0.000249
0.000221
0.000259
0.000266
0.000240
0.000316
0.000614
0.000391
0.000232
0.000214
0.000278
0.000286
0.000246
0.000252
0.000242
0.000271
0.000274
0.000243
0.000322
0.000366
0.000056
0.001129
0.000244
0.000341
0.000429
0.000294
0.000226
0.000235
0.000239
0.000254
0.002324
0.000339
0.000391
0.000214
0.000384
0.000299
0.000255
0.000245
0.000252
0.000266
0.000233
0.000249
0.000277
0.000580
0.000469
0.001867
0.001290
0.000552
0.000539
0.000229
0.000286
0.000200
0.000056
0.000254
0.000328
0.000252
0.000241
0.000257
0.000221
0.000260
0.000242
0.000254
0.000254
0.000257
0.000220
0.000247
0.000284
0.000420
0.000443
0.001841
0.001337
0.000448
0.000442
0.000455
0.000236
0.000245
0.000255
0.002137
0.000557
0.000380
0.000238
0.000271
0.000282
0.000197
0.000056
0.000213
0.000246
0.000254
0.000245
0.000236
0.000324
0.000437
0.000321
0.000304
0.000229
0.000240
0.000250
0.000269
0.002100
0.000555
0.000205
0.000206
0.000253
0.000290
0.000245
0.000245
0.002462
0.000334
0.000221
0.000254
0.000261
0.000249
0.000281
0.000305
0.000248
0.000210
0.000057
0.000206
0.000300
0.000615
0.000352
0.000244
0.000229
0.000225
0.000256
0.000260
0.000253
0.001953
0.000394
0.000271
0.000265
0.000250
0.000259
0.000275
0.000243
0.002207
0.000447
0.000221
0.000274
0.000267
0.000257
0.000253
0.000256
0.000298
0.000234
0.000270
0.000255
0.000193
0.000056
0.000213
0.000246
0.000244
0.000223
0.000247
0.000259
0.000238
0.000240
0.000241
0.002183
0.000209
0.000291
0.000216
0.000431
0.000230
0.000250
0.000305
0.000260
0.000252
0.000253
0.001963
0.000284
0.000336
0.000358
0.000434
0.000412
0.000314
0.000238
0.000253
0.000258
0.000200
0.000055
0.000211
0.000223
0.000239
0.000256
0.000242
0.000327
0.000212
0.002318
0.000247
0.000225
0.000261
0.000254
0.000233
0.000281
0.000276
0.002128
0.000584
0.000224
0.000256
0.000244
0.000260
0.000261
0.000287
0.000270
0.000258
0.000254
0.000290
0.000246
0.000267
0.000268
0.000192
0.000055
0.001802
0.001446
0.000198
0.000225
0.000245
0.000249
0.000253
0.000254
0.000410
0.000362
0.002168
0.000255
0.000229
0.000275
0.000266
0.000532
0.000396
0.000304
0.000213
0.000257
0.000244
0.000268
0.000256
0.000235
0.000256
0.000265
0.000267
0.000267
0.000251
0.000783
0.000263
0.000055
0.000231
0.000235
0.000246
0.000251
0.000272
0.000240
0.000257
0.000236
0.001473
0.002355
0.000377
0.000253
0.000404
0.000697
0.000355
0.000239
0.000247
0.000248
0.000268
0.000265
0.000251
0.000246
0.000246
0.000270
0.003018
0.000327
0.000240
0.000265
0.000284
0.000265
0.000479
0.000057
0.001914
0.000233
0.000232
0.000232
0.000292
0.000389
0.000477
0.000245
0.000286
0.000217
0.000251
0.000245
0.000255
0.000257
0.000273
0.000245
0.000259
0.000283
0.001822
0.000247
0.000232
0.000253
0.000275
0.000276
0.000272
0.000254
0.001475
0.000329
0.000238
0.000268
0.000175
0.000058
0.000196
0.000224
0.000244
0.000241
0.000249
0.000240
0.000378
0.000297
0.000328
0.000391
0.000207
0.000246
0.000262
0.000315
0.000420
0.000317
0.000224
0.000254
0.000255
0.000334
0.000532
0.000402
0.000261
0.000256
0.000262
0.000254
0.000247
0.000274
0.000276
0.000269
0.000206
0.000056
0.001440
0.000457
0.000215
0.001937
0.000303
0.000384
0.000448
0.000316
0.000227
0.000242
0.000266
0.000243
0.000242
0.000255
0.000265
0.000254
0.000456
0.000375
0.000331
0.000346
0.000364
0.000234
0.000250
0.000271
0.000275
0.000270
0.000257
0.000271
0.000383
0.000403
0.001408
0.000057
0.000205
0.000228
0.002080
0.000318
0.000312
0.000237
0.000266
0.000239
0.000264
0.000264
0.000231
0.000228
0.000256
0.000267
0.000255
0.000390
0.000695
0.001739
0.000241
0.000244
0.000258
0.000262
0.000382
0.000427
0.001583
0.000293
0.000361
0.001927
0.000266
0.000244
0.000200
0.000056
0.000213
0.000232
0.000233
0.000244
0.000251
0.000228
0.000249
0.000284
0.000330
0.000267
0.000376
0.000368
0.000339
0.000294
0.000246
0.000265
0.000260
0.000249
0.000265
0.000247
0.000308
0.000286
0.000267
0.000261
0.000265
0.001510
0.000289
0.000387
0.002069
0.000241
0.000170
0.000057
0.000187
0.000240
0.000241
0.000252
0.000485
0.000206
0.000257
0.000336
0.000373
0.000293
0.000314
0.000199
0.000269
0.000265
0.000270
0.000335
0.000432
0.000426
0.000247
0.000401
0.000515
0.000424
0.001608
0.000231
0.000249
0.001977
0.000337
0.000256
0.000239
0.000297
0.000181
0.000056
0.000200
0.000238
0.000231
0.000238
0.000249
0.000276
0.000247
0.000272
0.000251
0.000255
0.001805
0.000343
0.000369
0.000280
0.000460
0.000370
0.000435
0.001409
0.000242
0.000286
0.002108
0.000580
0.000257
0.000234
0.000259
0.000273
0.000505
0.000221
0.000259
0.000278
0.000195
0.000055
0.000299
0.000376
0.000366
0.000278
0.000200
0.000243
0.000262
0.000251
0.000261
0.000290
0.000236
0.000247
0.000261
0.000267
0.000366
0.000420
0.001330
0.000274
0.000269
0.001918
0.000365
0.000296
0.000234
0.000259
0.000251
0.000275
0.000279
0.000274
0.000225
0.000270
0.000206
0.000057
0.000244
0.000448
0.001996
0.000293
0.000194
0.000250
0.000252
0.000339
0.000382
0.000460
0.001292
0.000371
0.000374
0.002070
0.000199
0.000243
0.000269
0.000281
0.000252
0.000238
0.000290
0.000288
0.000255
0.000390
0.000459
0.000350
0.000347
0.002209
0.000488
0.000474
0.000407
0.000055
0.000219
0.000225
0.000243
0.001966
0.000227
0.000224
0.000248
0.000244
0.000242
0.000256
0.000248
0.000262
0.000279
0.000241
0.000589
0.001324
0.000267
0.000240
0.000262
0.000262
0.000236
0.000250
0.000277
0.000248
0.000311
0.000461
0.000493
0.000231
0.001604
0.000265
0.000170
0.000062
0.000202
0.000216
0.000245
0.000236
0.000259
0.000267
0.000226
0.000246
0.000259
0.000454
0.000270
0.001426
0.000227
0.000227
0.000248
0.000295
0.000225
0.000266
0.000289
0.000489
0.000426
0.000423
0.000222
0.001568
0.000241
0.000251
0.000310
0.000262
0.000259
0.000271
0.000188
0.000057
0.000219
0.000217
0.000262
0.000271
0.000245
0.000245
0.000244
0.000234
0.000281
0.000242
0.000237
0.000249
0.000268
0.001481
0.000355
0.000209
0.000254
0.000255
0.000279
0.000309
0.000374
0.000269
0.000257
0.000255
0.000262
0.000261
0.000261
0.001415
0.000269
0.000236
0.000176
0.000056
0.000203
0.000232
0.000258
0.000260
0.000269
0.000225
0.000241
0.000266
0.000219
0.000264
0.000248
0.000253
0.000229
0.000293
0.000373
0.000344
0.000289
0.000234
0.001631
0.000246
0.000251
0.000253
0.000262
0.000295
0.000408
0.000341
0.000453
0.000270
0.000257
0.001604
0.000162
0.000057
0.000326
0.000346
0.000411
0.000255
0.000239
0.000212
0.000246
0.000274
0.000251
0.000257
0.000228
0.000237
0.001461
0.000297
0.000308
0.000221
0.000249
0.000272
0.000258
0.000261
0.000256
0.000239
0.000258
0.000271
0.000248
0.000372
0.000492
0.000285
0.000318
0.000250
0.000190
0.000056
0.000216
0.000301
0.000422
0.000332
0.000332
0.000284
0.000248
0.000251
0.000251
0.000254
0.000246
0.000223
0.000256
0.000241
0.001253
0.000313
0.000232
0.000251
0.000264
0.000268
0.000237
0.000266
0.000252
0.000263
0.000255
0.000262
0.000294
0.000743
0.000414
0.000235
0.000178
0.000056
0.000203
0.001564
0.000227
0.000337
0.000497
0.000358
0.000211
0.000261
0.000264
0.000250
0.000241
0.000261
0.000268
0.000272
0.000260
0.001522
0.000256
0.000286
0.000264
0.000262
0.000267
0.000238
0.000265
0.000262
0.000263
0.000252
0.000443
0.000525
0.000196
0.000232
0.000195
0.000056
0.000205
0.000256
0.000253
0.001582
0.000423
0.000386
0.000193
0.000239
0.000252
0.000274
0.000279
0.000254
0.000251
0.000257
0.000232
0.000271
0.000417
0.001313
0.000246
0.000235
0.001492
0.000406
0.000464
0.000407
0.000356
0.000219
0.000269
0.000472
0.000232
0.000265
0.000185
0.000056
0.000289
0.000222
0.000248
0.000239
0.000252
0.000257
0.000237
0.000254
0.000261
0.000246
0.000247
0.000257
0.000313
0.000501
0.001666
0.001477
0.000365
0.000504
0.000370
0.000223
0.000249
0.000245
0.000251
0.000269
0.000249
0.000267
0.000270
0.000260
0.001527
0.000317
0.000176
0.000057
0.000209
0.000344
0.000353
0.000333
0.000240
0.000223
0.000249
0.000362
0.000407
0.000385
0.002168
0.000317
0.000691
0.000573
0.000407
0.000258
0.000349
0.000378
0.000328
0.000279
0.000399
0.000263
0.001531
0.000534
0.000241
0.000235
0.000259
0.000253
0.000253
0.000276
0.000205
0.000056
0.000189
0.000253
0.000251
0.000257
0.000239
0.001659
0.000876
0.001001
0.000208
0.000235
0.000256
0.000258
0.000261
0.000266
0.000247
0.000249
0.000254
0.000264
0.000269
0.000279
0.001426
0.000319
0.000258
0.000213
0.000242
0.000264
0.000262
0.000281
0.000258
0.000289
0.001889
0.000057
0.000199
0.000231
0.001535
0.000904
0.000332
0.000381
0.000215
0.000241
0.000245
0.000261
0.000246
0.000250
0.000248
0.001986
0.000483
0.000201
0.000244
0.000263
0.000265
0.000254
0.000195
