0.000204
0.015999
0.005603
0.000292
0.000264
0.000286
0.000308
0.000245
0.000333
0.000280
0.000263
0.000365
0.000559
0.000382
0.000402
0.000342
0.000300
0.000349
0.000383
0.000358
0.000333
0.001902
0.000700
0.000252
0.000265
0.000301
0.000352
0.000398
0.000420
0.000288
0.000533
0.000232
0.000058
0.000221
0.000264
0.000269
0.000262
0.000272
0.000249
0.000277
0.000259
0.000272
0.000295
0.000424
0.000436
0.000313
0.000350
0.000349
0.000314
0.000357
0.000257
0.000221
0.001707
0.000309
0.000254
0.000450
0.000259
0.000269
0.000267
0.000292
0.000297
0.000280
0.000413
0.000290
0.000056
0.000250
0.000252
0.000264
0.000262
0.000254
0.000243
0.000258
0.000257
0.000288
0.001663
0.000228
0.000237
0.000273
0.000271
0.000281
0.000249
0.000263
0.000256
0.000356
0.001802
0.000236
0.000277
0.000440
0.000535
0.000307
0.000226
0.000250
0.000507
0.000512
0.000716
0.000198
0.000055
0.000229
0.000241
0.000252
0.000283
0.000297
0.000229
0.000294
0.000589
0.000342
0.000267
0.000247
0.000250
0.000241
0.000255
0.000254
0.000256
0.000247
0.000265
0.000301
0.000324
0.001682
0.000261
0.000257
0.000414
0.000257
0.000744
0.000723
0.000462
0.000337
0.000249
0.000191
0.000055
0.000223
0.000250
0.000261
0.000245
0.000251
0.000258
0.000390
0.000419
0.001382
0.000224
0.000250
0.000242
0.000260
0.000253
0.000260
0.000287
0.000363
0.000696
0.001408
0.000286
0.000446
0.000262
0.000228
0.000219
0.000260
0.000261
0.000266
0.000273
0.000260
0.000266
0.000196
0.000057
0.000211
0.000241
0.000246
0.000265
0.000236
0.000247
0.000268
0.000223
0.000241
0.000253
0.001637
0.000261
0.000235
0.000236
0.000257
0.000250
0.000244
0.000246
0.000254
0.000257
0.000269
0.001664
0.000292
0.000244
0.000441
0.000255
0.000254
0.000261
0.000264
0.000274
0.000190
0.000057
0.000191
0.000228
0.000249
0.000246
0.000241
0.000247
0.000264
0.000234
0.000266
0.000239
0.000267
0.000258
0.000260
0.000269
0.001638
0.000275
0.000298
0.000215
0.000253
0.000276
0.000269
0.000238
0.000242
0.000272
0.001787
0.000348
0.000382
0.000355
0.000251
0.000280
0.000194
0.000056
0.000200
0.000240
0.000247
0.000265
0.000257
0.000242
0.000276
0.000407
0.000464
0.000381
0.000213
0.000273
0.000225
0.000256
0.001559
0.000509
0.000339
0.000418
0.000306
0.000234
0.000270
0.000280
0.000274
0.001728
0.000500
0.000475
0.000253
0.000253
0.000250
0.000259
0.000187
0.000058
0.000190
0.000224
0.000257
0.000300
0.000386
0.000342
0.000482
0.000195
0.000207
0.000245
0.000267
0.000238
0.000257
0.001689
0.000504
0.000280
0.000238
0.000250
0.000276
0.000285
0.000245
0.000259
0.000288
0.001856
0.000329
0.000384
0.000257
0.000245
0.000280
0.000416
0.000328
0.000055
0.000247
0.000343
0.000324
0.000319
0.000254
0.000243
0.000253
0.000257
0.000239
0.000234
0.000236
0.000251
0.001551
0.000388
0.000273
0.000239
0.000250
0.000257
0.000246
0.000277
0.000305
0.000301
0.000261
0.001794
0.000256
0.000497
0.000248
0.000251
0.000257
0.000275
0.000250
0.000057
0.000287
0.000584
0.000611
0.000212
0.000227
0.000280
0.000226
0.000225
0.000256
0.000252
0.000257
0.001700
0.000249
0.000455
0.000354
0.000219
0.000240
0.000229
0.000254
0.000260
0.000250
0.001863
0.000236
0.000241
0.002076
0.000518
0.000362
0.000249
0.000255
0.000269
0.000179
0.000055
0.000214
0.000234
0.000250
0.000246
0.000253
0.001620
0.000249
0.000234
0.000252
0.000255
0.000243
0.000242
0.000250
0.000256
0.000273
0.000418
0.000618
0.000259
0.000235
0.000272
0.000265
0.000248
0.000242
0.000433
0.000442
0.000271
0.000367
0.000726
0.000239
0.000268
0.000201
0.000055
0.000216
0.000245
0.000254
0.000250
0.000232
0.000240
0.000243
0.000478
0.000341
0.001726
0.000221
0.000240
0.000241
0.000251
0.000257
0.000261
0.000409
0.000530
0.000324
0.000253
0.000252
0.000312
0.000276
0.000248
0.000275
0.000435
0.000357
0.000566
0.000494
0.000444
0.000170
0.000056
0.000194
0.000265
0.000235
0.000227
0.000242
0.000238
0.000250
0.000245
0.000256
0.000328
0.000295
0.000478
0.001347
0.000246
0.000240
0.000242
0.000260
0.000249
0.000248
0.000276
0.000237
0.000461
0.000417
0.000269
0.000269
0.000252
0.000256
0.000276
0.000261
0.000266
0.000379
0.000055
0.000213
0.000234
0.000229
0.000264
0.000535
0.000434
0.000235
0.000264
0.000236
0.000258
0.000247
0.000237
0.000297
0.000249
0.000242
0.000489
0.000502
0.001546
0.000290
0.000225
0.000257
0.000265
0.000255
0.000241
0.000266
0.000458
0.000429
0.000360
0.000432
0.000241
0.000188
0.000056
0.000234
0.000431
0.000238
0.000216
0.000263
0.000246
0.000265
0.000590
0.000330
0.000321
0.000229
0.000269
0.000272
0.000232
0.000514
0.000349
0.000221
0.000255
0.000412
0.001635
0.000266
0.000234
0.000524
0.000243
0.000282
0.000277
0.000256
0.000375
0.000516
0.000379
0.000261
0.000055
0.000216
0.000237
0.000236
0.000244
0.000420
0.000303
0.000290
0.000226
0.000403
0.000459
0.000413
0.000235
0.000233
0.000241
0.000255
0.000269
0.000256
0.000253
0.000233
0.000348
0.000287
0.000316
0.001861
0.000240
0.000265
0.000250
0.000294
0.000354
0.000417
0.000688
0.000421
0.000056
0.000266
0.000309
0.000279
0.000432
0.000386
0.000206
0.000257
0.000312
0.000477
0.000425
0.000269
0.000236
0.000243
0.000271
0.000260
0.000231
0.000258
0.000273
0.000267
0.000259
0.000264
0.000395
0.000687
0.001316
0.000408
0.000498
0.000294
0.000246
0.000394
0.000443
0.000353
0.000056
0.000338
0.000360
0.000232
0.000190
0.000216
0.000236
0.000416
0.000241
0.000230
0.000357
0.000449
0.000432
0.000247
0.000256
0.000263
0.000254
0.000385
0.000381
0.000345
0.000221
0.000253
0.000412
0.000587
0.001693
0.000235
0.000444
0.000290
0.000230
0.000246
0.000463
0.000277
0.000058
0.000179
0.000231
0.000244
0.000245
0.000248
0.000251
0.000251
0.000321
0.000454
0.000301
0.000401
0.000446
0.000239
0.000581
0.000238
0.000244
0.000274
0.000265
0.000232
0.000376
0.000194
0.000251
0.000266
0.000422
0.000451
0.001689
0.000268
0.000236
0.000249
0.000273
0.000186
0.000056
0.000325
0.000458
0.000339
0.000207
0.000255
0.000242
0.000254
0.000243
0.000259
0.000245
0.000222
0.000244
0.000433
0.000503
0.000412
0.000266
0.000268
0.000247
0.000373
0.000369
0.000380
0.000324
0.000430
0.000348
0.000218
0.000252
0.000269
0.000276
0.001784
0.000248
0.000199
0.000055
0.000209
0.000215
0.000258
0.000280
0.000378
0.000554
0.000270
0.000229
0.000253
0.000261
0.000251
0.000251
0.000516
0.000446
0.000499
0.000274
0.000248
0.000384
0.000496
0.000455
0.000371
0.000309
0.000480
0.000377
0.000222
0.000262
0.000255
0.000238
0.000266
0.001726
0.000314
0.000059
0.000234
0.000328
0.000203
0.000237
0.000253
0.000253
0.000292
0.000464
0.000376
0.000317
0.000285
0.000306
0.000338
0.000614
0.000326
0.000239
0.000253
0.000255
0.000250
0.000266
0.000264
0.000268
0.000244
0.000264
0.000338
0.000347
0.000378
0.000374
0.000230
0.000261
0.000190
0.000057
0.000445
0.000297
0.000450
0.000256
0.000205
0.000252
0.000246
0.000250
0.000240
0.000231
0.000244
0.000277
0.000294
0.000411
0.000458
0.000553
0.000326
0.000334
0.000379
0.000329
0.000267
0.000204
0.000243
0.000258
0.001739
0.000260
0.001726
0.000938
0.000426
0.000295
0.000177
0.000056
0.000216
0.000236
0.000233
0.000240
0.000263
0.000262
0.000237
0.000250
0.000242
0.000333
0.000412
0.000410
0.000288
0.000377
0.000266
0.000244
0.000253
0.000295
0.000235
0.000240
0.000253
0.000256
0.001805
0.000239
0.000262
0.000266
0.000278
0.000265
0.001884
0.000519
0.000236
0.000056
0.000213
0.000211
0.000237
0.000242
0.000275
0.000228
0.000241
0.000256
0.000252
0.000361
0.000592
0.000481
0.000236
0.000203
0.000232
0.000315
0.000353
0.000450
0.000337
0.000210
0.001751
0.000260
0.000251
0.000246
0.000258
0.000273
0.000251
0.000247
0.000324
0.000301
0.000399
0.000057
0.000254
0.000218
0.000240
0.000262
0.000247
0.000239
0.000259
0.000250
0.000240
0.000261
0.000236
0.000325
0.000298
0.000395
0.000366
0.000276
0.000467
0.000240
0.000245
0.000257
0.000259
0.000262
0.000281
0.000250
0.000278
0.001787
0.000241
0.000253
0.000261
0.000243
0.000199
0.000057
0.000267
0.000373
0.000217
0.000225
0.000234
0.000240
0.000231
0.000259
0.000246
0.000226
0.000235
0.000261
0.000259
0.000445
0.000316
0.000396
0.000255
0.000255
0.000243
0.000251
0.000263
0.000258
0.000246
0.000276
0.000246
0.000269
0.000310
0.001630
0.000272
0.000235
0.000189
0.000055
0.000215
0.000227
0.000252
0.000256
0.000346
0.000450
0.000373
0.000248
0.000228
0.000255
0.000250
0.000247
0.000245
0.000254
0.000260
0.000259
0.000264
0.000239
0.000252
0.000261
0.000266
0.000270
0.000243
0.000241
0.000241
0.000281
0.000275
0.000261
0.000256
0.000266
0.000189
0.000056
0.000226
0.000228
0.000255
0.000256
0.000236
0.000253
0.000246
0.000257
0.000278
0.000250
0.000224
0.000247
0.000256
0.000250
0.000272
0.000252
0.000266
0.000243
0.000297
0.000259
0.000265
0.000296
0.000274
0.000243
0.000281
0.000276
0.000268
0.000249
0.000297
0.000387
0.000666
0.000057
0.000255
0.000257
0.000235
0.000211
0.000237
0.000255
0.000238
0.000252
0.000251
0.000243
0.000281
0.000324
0.000445
0.000481
0.001525
0.000235
0.000500
0.000235
0.000248
0.000448
0.000506
0.000317
0.000239
0.000263
0.000256
0.000258
0.000276
0.000259
0.000307
0.000258
0.000189
0.000056
0.000309
0.000479
0.000341
0.000298
0.000229
0.000246
0.000247
0.000242
0.000238
0.000248
0.000253
0.000257
0.000232
0.000278
0.000363
0.000477
0.000393
0.001797
0.000240
0.000249
0.000355
0.000388
0.000483
0.000271
0.000321
0.000327
0.000300
0.000228
0.000229
0.000254
0.000191
0.000056
0.000230
0.000225
0.000237
0.000328
0.000265
0.000507
0.000334
0.000254
0.000255
0.000217
0.000248
0.000265
0.000270
0.000263
0.000244
0.000258
0.000265
0.000531
0.000388
0.000387
0.000232
0.001754
0.000354
0.000528
0.000422
0.000491
0.000322
0.000228
0.000250
0.000269
0.000444
0.000057
0.000225
0.000243
0.000237
0.000249
0.000428
0.000522
0.000372
0.000193
0.000238
0.000298
0.000240
0.000261
0.000250
0.000298
0.000306
0.000236
0.000237
0.000448
0.000446
0.000302
0.000491
0.001843
0.000254
0.000492
0.000441
0.000371
0.000222
0.000262
0.000292
0.000258
0.000202
0.000056
0.000332
0.000364
0.000323
0.000274
0.000410
0.000219
0.000394
0.000205
0.000238
0.000320
0.000276
0.000186
0.000225
0.000251
0.000253
0.000260
0.000314
0.000352
0.000526
0.000386
0.000272
0.000234
0.000266
0.001721
0.000290
0.000614
0.000721
0.000232
0.000262
0.000303
0.000157
0.000055
0.000202
0.000234
0.000318
0.000257
0.000258
0.000368
0.000406
0.000333
0.000236
0.000525
0.000237
0.000245
0.000262
0.000277
0.000273
0.000266
0.000209
0.000297
0.000529
0.000435
0.000262
0.000233
0.000257
0.000254
0.000261
0.000266
0.000238
0.000254
0.000268
0.000288
0.000225
0.000055
0.000286
0.000349
0.000206
0.000257
0.000264
0.000243
0.000241
0.000284
0.000249
0.000242
0.000254
0.000356
0.000417
0.000419
0.000329
0.000273
0.000235
0.000224
0.000264
0.000265
0.000290
0.000254
0.000239
0.000260
0.000273
0.000306
0.000411
0.000387
0.000352
0.000231
0.000188
0.000056
0.000222
0.000211
0.000282
0.000241
0.000241
0.000250
0.000253
0.000262
0.000488
0.000213
0.000262
0.000252
0.000248
0.000262
0.000275
0.000270
0.000263
0.000345
0.000225
0.000245
0.000251
0.000270
0.000251
0.000274
0.000276
0.000258
0.000260
0.000256
0.000526
0.000236
0.000158
0.000056
0.000210
0.000246
0.000245
0.000266
0.000224
0.000244
0.000369
0.000407
0.000230
0.000240
0.000252
0.000254
0.000233
0.000281
0.000470
0.001741
0.000232
0.000265
0.000284
0.000425
0.000379
0.000315
0.000479
0.000289
0.000362
0.000416
0.000239
0.000269
0.000268
0.000274
0.001394
0.000056
0.000401
0.000289
0.000275
0.000221
0.000238
0.000249
0.000232
0.000256
0.000243
0.000270
0.000242
0.000264
0.000251
0.000308
0.000543
0.001607
0.000246
0.000231
0.000246
0.000266
0.000228
0.000282
0.000353
0.000377
0.000303
0.000344
0.000232
0.000269
0.000287
0.000255
0.000191
0.000055
0.001211
0.000523
0.000349
0.000248
0.000248
0.000217
0.000233
0.000240
0.000491
0.000210
0.000246
0.000299
0.000356
0.000482
0.000367
0.000351
0.000241
0.000244
0.000353
0.000335
0.000276
0.000253
0.000267
0.000248
0.000270
0.000530
0.000621
0.000247
0.000252
0.000264
0.000166
0.000056
0.000210
0.000227
0.000246
0.000247
0.001503
0.000259
0.000226
0.000256
0.000233
0.000251
0.000254
0.000255
0.000245
0.000262
0.000268
0.000257
0.000489
0.000636
0.000260
0.001747
0.000264
0.000265
0.000282
0.000442
0.000550
0.000407
0.000257
0.000249
0.000258
0.000272
0.000192
0.000056
0.000231
0.000237
0.000236
0.000305
0.001272
0.000230
0.000260
0.000258
0.000242
0.000235
0.000234
0.000250
0.000279
0.000248
0.000257
0.000259
0.000558
0.000346
0.000325
0.000261
0.000268
0.000273
0.000249
0.000238
0.000288
0.000263
0.000244
0.000278
0.000263
0.000398
0.000525
0.000056
0.000226
0.000244
0.000242
0.000257
0.000262
0.000245
0.000241
0.000255
0.000265
0.000261
0.001437
0.000223
0.000237
0.000250
0.000247
0.000242
0.000271
0.000263
0.000261
0.000267
0.000268
0.000484
0.000516
0.000336
0.000230
0.000271
0.001768
0.000258
0.000251
0.000298
0.000427
0.000059
0.000213
0.000409
0.000422
0.000500
0.000517
0.000552
0.001644
0.000392
0.000525
0.000612
0.000553
0.000673
0.000586
0.000522
0.000595
0.001851
0.000343
0.000489
0.000402
0.000288
0.000237
0.000289
0.000253
0.000267
0.000253
0.000296
0.000271
0.000315
0.000258
0.000289
0.001368
0.000071
0.000197
0.000222
0.000243
0.000237
0.000251
0.000256
0.000237
0.000239
0.000255
0.000253
0.000232
0.000247
0.000253
0.000300
0.000225
0.000271
0.001840
0.000262
0.000241
0.000257
0.000238
0.000282
0.000274
0.000320
0.000293
0.000447
0.000377
0.000230
0.000275
0.000285
0.000188
0.000061
0.000205
0.001375
0.000316
0.000261
0.000258
0.000240
0.000241
0.000237
0.000238
0.000244
0.000222
0.000251
0.000250
0.000494
0.000393
0.000255
0.000261
0.000260
0.001932
0.000229
0.000239
0.000261
0.000262
0.000293
0.000240
0.000283
0.000267
0.000262
0.000260
0.000318
0.000203
0.000059
0.000224
0.000237
0.000246
0.001489
0.000199
0.000243
0.000231
0.000243
0.000234
0.000271
0.000264
0.000233
0.000249
0.000254
0.000264
0.000255
0.000272
0.000252
0.000274
0.000251
0.000265
0.001796
0.000268
0.001779
0.000252
0.000234
0.000258
0.000265
0.000269
0.000275
0.000200
0.000060
0.000210
0.000237
0.001361
0.000224
0.000241
0.000251
0.000258
0.000245
0.000244
0.000251
0.000245
0.000248
0.000264
0.000257
0.000259
0.000263
0.000263
0.000308
0.000269
0.000230
0.001888
0.000233
0.001832
0.000247
0.000250
0.000272
0.000248
0.000235
0.000262
0.000263
0.000194
0.000059
0.001491
0.000210
0.000218
0.000246
0.000223
0.000239
0.000370
0.000265
0.000249
0.000263
0.000247
0.000263
0.000248
0.000372
0.000448
0.000243
0.000217
0.000277
0.000259
0.000244
0.000269
0.000337
0.000237
0.000249
0.000271
0.000276
0.000274
0.000331
0.000669
0.000352
0.000186
0.000060
0.000216
0.000259
0.000263
0.000298
0.000387
0.000274
0.001728
0.000258
0.000274
0.000262
0.000258
0.000293
0.000285
0.000257
0.000253
0.000361
0.000271
0.000632
0.000361
0.000320
0.000294
0.000244
0.000225
0.000262
0.000319
0.000298
0.000235
0.000243
0.000239
0.000329
0.000399
0.000057
0.000256
0.000467
0.000267
0.000266
0.000246
0.000228
0.000227
0.000248
0.000258
0.000253
0.001520
0.000223
0.000227
0.000252
0.000244
0.000287
0.000279
0.000231
0.000261
0.000270
0.000265
0.000391
0.000517
0.000322
0.000259
0.000294
0.000265
0.000258
0.000233
0.000316
0.000166
0.000056
0.000199
0.000234
0.000265
0.000480
0.000460
0.000190
0.000215
0.000252
0.000249
0.000252
0.000231
0.000253
0.000255
0.000266
0.000242
0.000232
0.000458
0.001177
0.000225
0.000247
0.000277
0.000242
0.000353
0.000423
0.000257
0.000329
0.000584
0.000331
0.000385
0.000236
0.000178
0.000057
0.000223
0.000243
0.000263
0.000261
0.000261
0.000246
0.000368
0.000340
0.000471
0.000283
0.000420
0.000345
0.000378
0.000355
0.000264
0.000242
0.000239
0.000255
0.000444
0.001398
0.000285
0.000230
0.000269
0.000273
0.000235
0.000237
0.000265
0.000325
0.000399
0.000434
0.000257
0.000055
0.000213
0.000246
0.000249
0.000239
0.000258
0.000239
0.000233
0.000261
0.000309
0.000333
0.000488
0.000323
0.000267
0.000218
0.000252
0.000255
0.000253
0.000260
0.000265
0.000248
0.000443
0.000291
0.000355
0.000439
0.000275
0.000256
0.000271
0.000269
0.000267
0.000320
0.000160
0.000056
0.000331
0.000311
0.000353
0.000382
0.000337
0.000400
0.000248
0.000241
0.000247
0.000270
0.000255
0.000265
0.000233
0.000254
0.000245
0.000227
0.000276
0.000486
0.000330
0.000376
0.000222
0.000275
0.000247
0.000247
0.000273
0.000273
0.000270
0.000269
0.000274
0.000267
0.000265
0.000058
0.000293
0.000320
0.000232
0.000249
0.000242
0.000251
0.000246
0.000276
0.000243
0.000256
0.000253
0.000233
0.000303
0.000483
0.000434
0.000279
0.000252
0.000242
0.000260
0.000271
0.000250
0.000264
0.000261
0.000261
0.000277
0.000395
0.000360
0.000558
0.000418
0.000257
0.000163
0.000056
0.000386
0.000200
0.000234
0.000246
0.000252
0.000244
0.000242
0.000248
0.000259
0.000260
0.000217
0.000269
0.000254
0.000221
0.000242
0.000269
0.000261
0.000259
0.000266
0.000261
0.000264
0.000257
0.000267
0.000262
0.000263
0.000243
0.000261
0.000278
0.000256
0.000281
0.000199
0.000075
0.000185
0.000232
0.000279
0.000220
0.000234
0.000273
0.000254
0.000223
0.000263
0.000273
0.000229
0.000230
0.000266
0.000397
0.000290
0.000243
0.000256
0.000269
0.000255
0.000280
0.000267
0.000240
0.000245
0.000249
0.000274
0.000275
0.000252
0.000247
0.000277
0.000261
0.000218
0.000056
0.000223
0.000324
0.000373
0.000274
0.000298
0.000265
0.000266
0.000256
0.000228
0.000245
0.000245
0.000274
0.000237
0.000252
0.000244
0.000264
0.000260
0.000272
0.000240
0.000262
0.000277
0.000262
0.000280
0.000256
0.000275
0.000244
0.000261
0.000266
0.000289
0.000245
0.000192
0.000056
0.000202
0.000232
0.000262
0.000264
0.000489
0.000209
0.000214
0.000246
0.000251
0.000517
0.000451
0.000284
0.000231
0.000245
0.000268
0.000268
0.000235
0.000274
0.000257
0.000268
0.000263
0.000257
0.000258
0.000286
0.000464
0.000563
0.000271
0.000305
0.000255
0.000264
0.000191
0.000056
0.000212
0.000217
0.000253
0.000250
0.000367
0.000578
0.000337
0.000381
0.000210
0.000252
0.000249
0.000253
0.000254
0.000248
0.000258
0.000269
0.000256
0.000276
0.000619
0.000387
0.000290
0.000250
0.000258
0.000281
0.000279
0.000257
0.000265
0.000269
0.000268
0.000327
0.000318
0.000057
0.000309
0.000232
0.000242
0.000236
0.000253
0.000253
0.000226
0.000253
0.000240
0.000260
0.000244
0.000252
0.000248
0.000369
0.000586
0.000385
0.000252
0.000268
0.000254
0.000246
0.000263
0.000272
0.000493
0.000218
0.000264
0.000572
0.000419
0.000507
0.000251
0.000256
0.000182
0.000056
0.000205
0.000232
0.000243
0.000243
0.000255
0.000262
0.000309
0.000445
0.000563
0.000428
0.000215
0.000261
0.000277
0.000277
0.000253
0.000247
0.000236
0.000250
0.000254
0.000408
0.000323
0.000649
0.000369
0.000261
0.000421
0.000312
0.000491
0.000240
0.000263
0.000398
0.000432
0.000057
0.000231
0.000228
0.000446
0.000216
0.000235
0.000250
0.000264
0.000257
0.000231
0.000243
0.000298
0.000373
0.000376
0.000334
0.000231
0.000239
0.000266
0.000273
0.000235
0.000275
0.000274
0.000259
0.000252
0.000269
0.000294
0.000490
0.000534
0.000232
0.000234
0.000271
0.000193
0.000056
0.000206
0.000252
0.000232
0.000245
0.000242
0.000283
0.000369
0.000462
0.000338
0.000312
0.000348
0.000232
0.000236
0.000272
0.000251
0.000241
0.000260
0.000259
0.000297
0.000358
0.000526
0.000320
0.000481
0.000293
0.000420
0.000390
0.000365
0.000238
0.000252
0.000263
0.000410
0.000057
0.000276
0.000267
0.000225
0.000252
0.000260
0.000254
0.000251
0.000244
0.000266
0.000247
0.000242
0.000369
0.000490
0.000312
0.000387
0.000222
0.000265
0.000265
0.000266
0.000236
0.000247
0.000256
0.000266
0.000269
0.000292
0.000341
0.000498
0.000453
0.000233
0.000282
0.000189
0.000056
0.000204
0.000246
0.000261
0.000240
0.000258
0.000335
0.000551
0.000428
0.000355
0.000691
0.000268
0.000211
0.000241
0.000263
0.000248
0.000265
0.000278
0.000284
0.000454
0.000440
0.001505
0.000308
0.000256
0.000259
0.000292
0.000275
0.000404
0.000378
0.000364
0.000325
0.000180
0.000056
0.000178
0.000227
0.000246
0.000247
0.000233
0.000260
0.000275
0.000248
0.000299
0.000300
0.000333
0.000385
0.000341
0.000342
0.000365
0.000311
0.000224
0.000230
0.000270
0.000255
0.000253
0.000245
0.000283
0.000248
0.000388
0.000402
0.000430
0.000273
0.000235
0.000270
0.000186
0.000056
0.000221
0.000243
0.000259
0.000251
0.000247
0.000237
0.000471
0.000207
0.000261
0.000229
0.000258
0.000243
0.000259
0.000256
0.000266
0.000252
0.000262
0.000269
0.000266
0.000257
0.000259
0.000287
0.000294
0.000246
0.000264
0.000293
0.000256
0.000264
0.000264
0.000276
0.000170
0.000055
0.000222
0.000250
0.000275
0.000427
0.000384
0.000257
0.000234
0.000251
0.000259
0.000248
0.000246
0.000257
0.000264
0.000261
0.000237
0.000249
0.000242
0.000268
0.000259
0.000390
0.000398
0.000411
0.000235
0.000262
0.000271
0.000248
0.000271
0.000254
0.000266
0.000281
0.000198
0.000056
0.000366
0.000335
0.000411
0.000214
0.000255
0.000255
0.000409
0.000224
0.000232
0.000259
0.000252
0.000343
0.000340
0.000477
0.001796
0.000239
0.000248
0.000248
0.000280
0.000240
0.000385
0.000398
0.000699
0.000220
0.000237
0.000246
0.000279
0.000422
0.000282
0.000273
0.000166
0.000055
0.000186
0.000383
0.000363
0.000260
0.000498
0.000203
0.000256
0.000236
0.000251
0.000242
0.000257
0.000246
0.000260
0.000304
0.000502
0.000400
0.000224
0.000244
0.000261
0.000262
0.000262
0.000315
0.000240
0.000273
0.000278
0.000469
0.000491
0.000382
0.000467
0.000235
0.000219
0.000055
0.000227
0.000229
0.000255
0.000229
0.000248
0.000252
0.000267
0.000268
0.000406
0.000346
0.000459
0.000298
0.000215
0.000254
0.000269
0.000289
0.000295
0.000234
0.000275
0.000271
0.000244
0.000317
0.000426
0.000407
0.000276
0.000259
0.000261
0.000468
0.000407
0.000311
0.000156
0.000058
0.000204
0.000285
0.000272
0.000459
0.000358
0.000207
0.000235
0.000277
0.000240
0.000257
0.000258
0.000254
0.000231
0.000263
0.000250
0.000313
0.000379
0.000364
0.000289
0.000342
0.000496
0.000234
0.000277
0.000273
0.000301
0.000285
0.000255
0.000279
0.000471
0.000517
0.000178
0.000056
0.000214
0.000227
0.000260
0.000241
0.000241
0.000478
0.000214
0.000250
0.000269
0.000282
0.000501
0.000630
0.000205
0.000245
0.000241
0.000254
0.000258
0.000251
0.000251
0.000251
0.000263
0.000264
0.000361
0.000409
0.000390
0.000383
0.000294
0.000353
0.000262
0.000262
0.000187
0.000056
0.000208
0.000236
0.000253
0.000484
0.000323
0.000296
0.000265
0.000214
0.000250
0.000260
0.000250
0.000250
0.000271
0.000247
0.000250
0.000253
0.000249
0.000270
0.000263
0.000401
0.000500
0.000367
0.000222
0.000254
0.000303
0.000252
0.000264
0.000250
0.000265
0.000268
0.000193
0.000057
0.000225
0.000388
0.000488
0.000237
0.000222
0.000255
0.000343
0.000464
0.000254
0.000220
0.000236
0.000272
0.000290
0.000396
0.000446
0.000294
0.000228
0.000247
0.000246
0.000269
0.000271
0.000286
0.000239
0.000272
0.000264
0.000413
0.000259
0.000481
0.000259
0.000255
0.000180
0.000056
0.000237
0.000235
0.000250
0.000254
0.000251
0.000262
0.000234
0.000255
0.000250
0.000248
0.000268
0.000237
0.000264
0.001454
0.000226
0.000261
0.000259
0.000239
0.000279
0.000273
0.000263
0.000243
0.000275
0.000254
0.000271
0.000263
0.000273
0.000272
0.000276
0.000252
0.000193
0.000057
0.000187
0.000227
0.000252
0.000248
0.000235
0.000246
0.000258
0.000258
0.000231
0.000247
0.000250
0.000261
0.000256
0.000252
0.000272
0.000250
0.000236
0.000265
0.000277
0.000247
0.000257
0.000259
0.000247
0.000251
0.001292
0.000280
0.000625
0.000418
0.000293
0.000245
0.000189
0.000055
0.000215
0.000230
0.000245
0.000253
0.000422
0.000232
0.000240
0.000239
0.000253
0.000358
0.000494
0.000290
0.000245
0.000234
0.000260
0.000259
0.000255
0.000268
0.000247
0.000260
0.000259
0.000280
0.000233
0.000439
0.000507
0.000446
0.000219
0.000268
0.001364
0.000249
0.000206
0.000057
0.000291
0.000421
0.000319
0.000257
0.000235
0.000230
0.000232
0.000248
0.000260
0.000254
0.000251
0.000265
0.000264
0.000324
0.000540
0.000353
0.000333
0.000220
0.000252
0.000261
0.000268
0.000260
0.000268
0.000269
0.000267
0.000260
0.000326
0.000548
0.000375
0.000372
0.000152
0.000056
0.000204
0.000222
0.001263
0.000448
0.000244
0.000494
0.000366
0.000494
0.000314
0.000309
0.000230
0.000216
0.000261
0.000253
0.000246
0.000266
0.000421
0.000441
0.000365
0.000376
0.000256
0.000245
0.000272
0.000493
0.000232
0.000267
0.000253
0.000284
0.000293
0.000552
0.000338
0.000057
0.000427
0.000309
0.000202
0.000211
0.001567
0.000476
0.000295
0.000230
0.000253
0.000249
0.000230
0.000237
0.000245
0.000275
0.000247
0.000259
0.000239
0.000299
0.000337
0.000469
0.000413
0.000246
0.000253
0.000257
0.000255
0.000276
0.000270
0.000241
0.000262
0.000275
0.000205
0.000057
0.000386
0.000331
0.000224
0.000233
0.000256
0.000241
0.000267
0.000230
0.000227
0.000235
0.001429
0.000474
0.000240
0.000250
0.000237
0.000257
0.000275
0.000263
0.000233
0.000278
0.000272
0.000249
0.000254
0.000465
0.000484
0.000335
0.000244
0.000266
0.000280
0.000277
0.000172
0.000056
0.000191
0.000407
0.000222
0.000239
0.000347
0.000441
0.000485
0.000199
0.000463
0.000215
0.000226
0.000251
0.000261
0.000265
0.000257
0.001389
0.000394
0.000279
0.000242
0.000271
0.000276
0.000249
0.000251
0.000256
0.000266
0.000266
0.000581
0.000312
0.000293
0.000299
0.000135
0.000057
0.000227
0.000231
0.000255
0.000234
0.000231
0.000261
0.000241
0.000246
0.000293
0.000344
0.000432
0.000300
0.000284
0.000225
0.000243
0.000270
0.000271
0.000259
0.000274
0.000228
0.000256
0.000315
0.001260
0.000252
0.000263
0.000241
0.000259
0.000270
0.000251
0.000269
0.000182
0.000056
0.000293
0.000296
0.000363
0.000357
0.000225
0.000234
0.000285
0.000244
0.000258
0.000243
0.000255
0.000264
0.000247
0.000254
0.000258
0.000264
0.000263
0.000271
0.000261
0.000251
0.000254
0.000267
0.000266
0.000287
0.000286
0.000266
0.000266
0.000255
0.000266
0.000443
0.001370
0.000055
0.000212
0.000235
0.000232
0.000241
0.000253
0.000260
0.000247
0.000224
0.000250
0.000252
0.000274
0.000253
0.000253
0.000242
0.000276
0.000218
0.001723
0.000268
0.000240
0.000260
0.000251
0.000253
0.000275
0.000257
0.000272
0.000256
0.000271
0.000284
0.000262
0.000260
0.000220
0.000056
0.000306
0.000316
0.001297
0.000216
0.000239
0.000244
0.000253
0.000250
0.000282
0.000237
0.000232
0.000352
0.000386
0.000441
0.000286
0.000232
0.000240
0.000255
0.000285
0.000236
0.000252
0.000261
0.000275
0.000277
0.000273
0.000354
0.000394
0.000369
0.000313
0.000238
0.000209
0.000056
0.000242
0.000232
0.000242
0.000250
0.000250
0.000220
0.000243
0.000309
0.000396
0.001334
0.000248
0.000220
0.000237
0.000276
0.000245
0.000270
0.000257
0.000252
0.000339
0.000428
0.000380
0.000234
0.000232
0.000249
0.000278
0.000306
0.000237
0.000298
0.000264
0.000302
0.000167
0.000056
0.000204
0.000444
0.000377
0.000215
0.000235
0.000237
0.000272
0.000252
0.000265
0.000246
0.000226
0.000254
0.000452
0.000557
0.000427
0.001451
0.000255
0.000288
0.000307
0.000436
0.000488
0.000394
0.000464
0.000322
0.000228
0.000266
0.000265
0.000275
0.000282
0.000257
0.000209
0.000056
0.000192
0.000320
0.000406
0.000430
0.000380
0.000235
0.000245
0.000239
0.000242
0.000261
0.000265
0.000244
0.000269
0.000239
0.000268
0.000321
0.000357
0.000427
0.000339
0.001331
0.000269
0.000256
0.000252
0.000261
0.000429
0.000461
0.000414
0.000232
0.000274
0.000273
0.000186
0.000056
0.000209
0.000241
0.000249
0.000244
0.000245
0.000278
0.000452
0.000454
0.000297
0.000222
0.000243
0.000256
0.000276
0.000258
0.000258
0.000265
0.000274
0.000245
0.000268
0.000367
0.000369
0.000443
0.000310
0.001352
0.000409
0.000245
0.000287
0.000409
0.000469
0.000399
0.000270
0.000057
0.000205
0.000232
0.000248
0.000250
0.000250
0.000250
0.001676
0.000236
0.000233
0.000237
0.000254
0.000248
0.000297
0.000336
0.000326
0.000276
0.000257
0.000260
0.000521
0.000426
0.000308
0.000263
0.000226
0.001446
0.000396
0.000354
0.000344
0.000442
0.000333
0.000269
0.000177
0.000056
0.000221
0.000240
0.000258
0.000257
0.000244
0.000256
0.001707
0.000249
0.000235
0.000264
0.000396
0.000438
0.001354
0.000342
0.000401
0.000243
0.000254
0.000238
0.000268
0.000270
0.001534
0.000519
0.000430
0.000295
0.000254
0.000244
0.000265
0.000278
0.000247
0.000252
0.000198
0.000055
0.000210
0.000241
0.000272
0.000241
0.000258
0.000278
0.000278
0.000265
0.000239
0.000257
0.000252
0.000249
0.000264
0.000262
0.001518
0.000307
0.000206
0.000238
0.000266
0.000270
0.000275
0.000289
0.000411
0.001252
0.000287
0.000223
0.000276
0.000254
0.000395
0.000250
0.000194
0.000056
0.000205
0.000245
0.000222
0.000247
0.000237
0.000231
0.000233
0.001694
0.000254
0.000218
0.000259
0.000363
0.000229
0.000224
0.000256
0.001379
0.000236
0.000267
0.000269
0.000242
0.000265
0.000357
0.000268
0.001311
0.000289
0.000248
0.000248
0.000267
0.001379
0.000274
0.000220
0.000055
0.000340
0.000267
0.000205
0.000239
0.000252
0.000240
0.000264
0.000262
0.000270
0.000243
0.000261
0.000266
0.000254
0.000254
0.000321
0.001475
0.000256
0.000268
0.000260
0.000239
0.000287
0.000260
0.000250
0.001542
0.000318
0.000236
0.000265
0.001279
0.000258
0.000249
0.000238
0.000057
0.000233
0.000407
0.000337
0.000203
0.000235
0.000239
0.000263
0.000257
0.000263
0.000274
0.000235
0.000253
0.000263
0.000300
0.000378
0.001223
0.000230
0.000259
0.000267
0.000276
0.000229
0.000240
0.000252
0.000330
0.001265
0.000263
0.000253
0.000249
0.000259
0.001337
0.000314
0.000056
0.000333
0.000279
0.000201
0.000244
0.000219
0.000270
0.000230
0.000253
0.000274
0.000254
0.000239
0.000251
0.000253
0.000359
0.000372
0.001479
0.000224
0.000246
0.000300
0.000509
0.000295
0.000459
0.001271
0.000288
0.000256
0.000264
0.000253
0.001300
0.000297
0.000460
0.000411
0.000056
0.000210
0.000247
0.000255
0.000255
0.000253
0.000248
0.000276
0.000247
0.000263
0.000273
0.000424
0.000399
0.001287
0.000232
0.000266
0.000264
0.000278
0.000239
0.000238
0.000240
0.000347
0.001234
0.000251
0.000268
0.000238
0.000252
0.001498
0.000453
0.000466
0.000218
0.000202
0.000057
0.000225
0.000215
0.000248
0.000233
0.000254
0.000266
0.000242
0.000298
0.000431
0.000501
0.000207
0.001500
0.000212
0.000245
0.000264
0.000250
0.000272
0.000266
0.001705
0.000281
0.000398
0.000306
0.001286
0.000376
0.000280
0.000322
0.000264
0.000255
0.000272
0.000282
0.000172
0.000057
0.000220
0.000237
0.000333
0.000234
0.000324
0.000580
0.000243
0.000289
0.001478
0.000238
0.000382
0.000267
0.000215
0.000316
0.000412
0.001296
0.000266
0.000244
0.000240
0.000261
0.001539
0.000354
0.000290
0.000285
0.000246
0.000260
0.000474
0.000314
0.000223
0.000269
0.000260
0.000055
0.000270
0.000371
0.000313
0.000265
0.000224
0.001528
0.000204
0.000258
0.000269
0.000267
0.000268
0.000240
0.000307
0.001486
0.000268
0.000209
0.000431
0.001206
0.000330
0.000438
0.000404
0.000240
0.000237
0.000257
0.000280
0.000238
0.000453
0.000230
0.000262
0.000284
0.000196
0.000056
0.000223
0.000232
0.000386
0.000337
0.001307
0.000291
0.000306
0.000236
0.000242
0.000250
0.000248
0.000321
0.001489
0.000267
0.000226
0.000246
0.001380
0.000355
0.000355
0.000463
0.000342
0.000238
0.000253
0.000246
0.000269
0.000270
0.000276
0.000255
0.000276
0.000245
0.000204
0.000056
0.000204
0.000449
0.001414
0.000208
0.000276
0.000275
0.000244
0.000247
0.000264
0.000386
0.001393
0.000222
0.000243
0.000272
0.000252
0.001253
0.000681
0.000332
0.000340
0.000399
0.000282
0.000247
0.000267
0.000261
0.000269
0.000285
0.000275
0.000313
0.000399
0.000450
0.001395
0.000056
0.000192
0.000242
0.000246
0.000220
0.000245
0.000419
0.000522
0.001262
0.000239
0.000242
0.000249
0.001407
0.000381
0.000404
0.000228
0.000406
0.000252
0.000248
0.000254
0.000286
0.000235
0.000277
0.000277
0.000258
0.000253
0.000284
0.000428
0.000492
0.001497
0.000226
0.000192
0.000057
0.000215
0.000250
0.000444
0.000475
0.001215
0.000279
0.000250
0.000261
0.000245
0.000253
0.000250
0.000277
0.000440
0.000399
0.000347
0.000233
0.000253
0.000276
0.000244
0.000277
0.000260
0.000265
0.000258
0.000269
0.000252
0.000352
0.000546
0.000363
0.000299
0.001394
0.000170
0.000056
0.000202
0.000232
0.000360
0.000382
0.000319
0.000314
0.000317
0.000354
0.000247
0.000256
0.000264
0.000259
0.000256
0.000305
0.000237
0.000283
0.000604
0.000277
0.000285
0.000393
0.000271
0.000405
0.000221
0.000258
0.000243
0.000265
0.000247
0.000292
0.000287
0.000571
0.000289
0.000055
0.000210
0.001404
0.000292
0.000290
0.000395
0.000443
0.000431
0.000235
0.000220
0.000239
0.000264
0.000246
0.000264
0.000287
0.000248
0.000270
0.000245
0.001397
0.000212
0.000259
0.000256
0.000271
0.000274
0.000277
0.000290
0.000235
0.000278
0.000247
0.000375
0.000388
0.000443
0.000057
0.000231
0.000241
0.000219
0.001549
0.000307
0.000220
0.000221
0.000243
0.000229
0.000250
0.000250
0.000265
0.000253
0.000250
0.000267
0.000258
0.000243
0.000270
0.000259
0.000257
0.001442
0.000229
0.000238
0.000281
0.000251
0.000278
0.000242
0.000264
0.000279
0.000492
0.000341
0.000056
0.000208
0.000235
0.000393
0.000280
0.000248
0.000248
0.001547
0.000334
0.000305
0.000217
0.000254
0.000318
0.000331
0.000231
0.000228
0.000252
0.000244
0.000262
0.000264
0.000273
0.000467
0.000486
0.001163
0.000257
0.000234
0.000263
0.000264
0.000254
0.000275
0.000263
0.000297
0.000057
0.000284
0.000339
0.000213
0.000236
0.000248
0.000242
0.000245
0.000230
0.000291
0.001598
0.000440
0.000214
0.000246
0.000252
0.000258
0.000242
0.000261
0.000271
0.000282
0.000292
0.000306
0.000484
0.000447
0.001375
0.000233
0.000262
0.000271
0.000261
0.000269
0.000333
0.000394
0.000055
0.000274
0.000238
0.000237
0.000238
0.000231
0.000238
0.000263
0.000248
0.000272
0.001603
0.000318
0.000256
0.000264
0.000259
0.000458
0.000272
0.000529
0.000372
0.000298
0.000386
0.000535
0.000463
0.001166
0.000244
0.000202
0.000247
0.001734
0.000434
0.000604
0.000323
0.000149
0.000058
0.000209
0.000227
0.000238
0.000239
0.000264
0.000236
0.000263
0.000507
0.000479
0.000406
0.000296
0.000215
0.000243
0.000264
0.000265
0.000266
0.000246
0.000250
0.000251
0.000285
0.000280
0.000380
0.001368
0.000221
0.000251
0.000272
0.001892
0.000387
0.000374
0.000344
0.000158
0.000057
0.000250
0.000238
0.000245
0.001593
0.000397
0.000217
0.000233
0.000263
0.000278
0.000359
0.000373
0.000357
0.000350
0.000239
0.000360
0.000437
0.000374
0.001210
0.000267
0.000239
0.000250
0.000258
0.000274
0.000487
0.000579
0.000408
0.000267
0.000266
0.000266
0.000281
0.000192
0.000056
0.000200
0.000232
0.000242
0.001530
0.000259
0.000238
0.000238
0.000253
0.000240
0.000255
0.000255
0.000271
0.000265
0.000288
0.000304
0.000448
0.000285
0.000341
0.001419
0.000223
0.000261
0.000256
0.000265
0.000282
0.000358
0.000509
0.000420
0.000295
0.000262
0.000241
0.000425
0.000055
0.000217
0.000255
0.000274
0.001509
0.000295
0.000226
0.000267
0.000243
0.000250
0.000257
0.000254
0.000256
0.000259
0.000249
0.000313
0.000633
0.001373
0.000739
0.000248
0.000338
0.000251
0.000233
0.000254
0.000271
0.001695
0.000781
0.000238
0.000263
0.000282
0.000282
0.000189
0.000056
0.000192
0.000236
0.000247
0.000247
0.000253
0.000247
0.000242
0.000254
0.000240
0.000245
0.000277
0.000280
0.000253
0.000254
0.000260
0.000245
0.000273
0.001617
0.000690
0.000371
0.000320
0.000230
0.000242
0.000285
0.000260
0.000262
0.000298
0.000233
0.001381
0.000399
0.000395
0.000056
0.000196
0.000230
0.000269
0.000239
0.000254
0.000236
0.000250
0.000249
0.000254
0.000260
0.000284
0.000406
0.000436
0.000339
0.000219
0.000245
0.000263
0.001429
0.000654
0.000492
0.000315
0.000276
0.000229
0.000251
0.000274
0.000251
0.000260
0.000264
0.001505
0.000386
0.000218
0.000056
0.000209
0.000228
0.000251
0.000268
0.000227
0.000247
0.000239
0.000249
0.000269
0.000258
0.000404
0.000344
0.000334
0.000212
0.000249
0.000244
0.000271
0.000256
0.001563
0.000673
0.000524
0.000210
0.000238
0.000261
0.000259
0.000257
0.000265
0.000285
0.000268
0.001346
0.000331
0.000057
0.000221
0.000222
0.000230
0.000260
0.000249
0.000260
0.000270
0.000337
0.000380
0.000397
0.000389
0.000320
0.000355
0.000236
0.000247
0.000251
0.000292
0.000248
0.000273
0.001882
0.000353
0.000245
0.000451
0.000241
0.000236
0.000268
0.000294
0.000238
0.000270
0.000278
0.000320
0.000057
0.000314
0.000208
0.000227
0.000244
0.000256
0.000245
0.000227
0.000243
0.000268
0.000255
0.000241
0.000236
0.000309
0.000409
0.000506
0.000427
0.000218
0.000263
0.000248
0.000257
0.000269
0.000331
0.001423
0.001038
0.000225
0.000246
0.000271
0.000266
0.000266
0.000256
0.000204
0.000057
0.000206
0.001333
0.000284
0.000211
0.000243
0.000253
0.000251
0.000241
0.000240
0.000249
0.000255
0.000266
0.000242
0.000391
0.000391
0.000500
0.000190
0.000256
0.000263
0.000271
0.000271
0.000228
0.000257
0.000289
0.001296
0.000697
0.000369
0.000373
0.000396
0.000400
0.000235
0.000058
0.000190
0.000257
0.001393
0.000260
0.000215
0.000254
0.000230
0.000253
0.000258
0.000260
0.000244
0.000250
0.000266
0.000338
0.000588
0.000302
0.000222
0.000280
0.000330
0.000209
0.000251
0.000278
0.000228
0.000278
0.000284
0.001512
0.000745
0.000301
0.000277
0.000273
0.000193
0.000057
0.000193
0.000267
0.000442
0.000315
0.001312
0.000247
0.000233
0.000236
0.000233
0.000248
0.000252
0.000251
0.000226
0.000244
0.000257
0.000252
0.000269
0.000236
0.000253
0.000257
0.000266
0.000269
0.000301
0.000333
0.000216
0.000281
0.000258
0.001464
0.000246
0.000252
0.000178
0.000057
0.000215
0.000233
0.000253
0.000326
0.000365
0.000363
0.000355
0.000250
0.001566
0.000239
0.000286
0.000485
0.000367
0.000236
0.000434
0.000249
0.000227
0.000261
0.000276
0.000266
0.000282
0.000266
0.000254
0.000268
0.000249
0.000407
0.000407
0.000330
0.001580
0.000223
0.000193
0.000055
0.000245
0.000236
0.000249
0.000246
0.000239
0.000248
0.000265
0.000270
0.000435
0.002045
0.000235
0.000240
0.000258
0.000259
0.000261
0.000245
0.000270
0.000260
0.000355
0.000344
0.000429
0.000412
0.001432
0.000247
0.000530
0.000231
0.001767
0.000245
0.000256
0.001525
0.000159
0.000056
0.000181
0.000497
0.000417
0.000243
0.000264
0.000223
0.000264
0.000269
0.000261
0.000226
0.000253
0.000384
0.000394
0.000318
0.000448
0.000226
0.000229
0.001572
0.000242
0.000584
0.001862
0.000314
0.000220
0.001508
0.002042
0.000748
0.000271
0.000260
0.000302
0.000536
0.000202
0.000055
0.000238
0.000244
0.000243
0.000269
0.001401
0.001728
0.001078
0.000215
0.000228
0.001582
0.001982
0.000209
0.000240
0.000426
0.000299
0.000351
0.000455
0.000453
0.000209
0.000238
0.000251
0.000261
0.000267
0.001590
0.001202
0.001432
0.000276
0.000293
0.000255
0.000333
0.000315
0.000055
0.000213
0.000230
0.000243
0.000240
0.000231
0.000242
0.000246
0.000274
0.000239
0.000248
0.000243
0.000380
0.000329
0.000495
0.000280
0.000274
0.000246
0.000269
0.000270
0.000277
0.000241
0.000269
0.001506
0.000484
0.002108
0.000233
0.000276
0.000329
0.000424
0.000408
0.000180
0.000056
0.000227
0.000330
0.000488
0.000314
0.000196
0.000232
0.000252
0.000240
0.000241
0.000246
0.000247
0.000266
0.000257
0.001609
0.001358
0.001216
0.000266
0.000249
0.000249
0.000271
0.000284
0.000279
0.000239
0.000256
0.002208
0.000251
0.000243
0.000306
0.000321
0.000306
0.000219
0.000056
0.000210
0.000345
0.000551
0.000327
0.000259
0.000220
0.000246
0.000265
0.001901
0.001421
0.000224
0.000386
0.000404
0.000340
0.000246
0.000236
0.000252
0.000272
0.000261
0.000262
0.000258
0.000261
0.000484
0.000221
0.000273
0.000267
0.000254
0.000271
0.000286
0.000245
0.000202
0.000056
0.000216
0.000242
0.000256
0.000241
0.000245
0.000270
0.001554
0.001405
0.001331
0.000235
0.000233
0.000242
0.000283
0.000245
0.000246
0.000251
0.000251
0.002111
0.000251
0.000232
0.000257
0.000271
0.000256
0.000266
0.000262
0.000257
0.000269
0.000254
0.000280
0.000249
0.000187
0.000056
0.000222
0.002659
0.001386
0.000225
0.000307
0.000295
0.000235
0.000259
0.000259
0.000243
0.000251
0.000247
0.000235
0.000250
0.000270
0.000252
0.000271
0.000263
0.000256
0.000269
0.000266
0.000285
0.000271
0.000263
0.000247
0.000244
0.000265
0.000270
0.000258
0.000274
0.000379
0.000056
0.001559
0.000237
0.001248
0.000224
0.000230
0.000240
0.000260
0.000256
0.000245
0.000292
0.000386
0.000339
0.000341
0.000219
0.000250
0.002148
0.000251
0.000238
0.000268
0.000569
0.000270
0.000342
0.000224
0.000256
0.000263
0.000248
0.000264
0.000278
0.000292
0.001606
0.001249
0.000058
0.000226
0.000221
0.000291
0.000402
0.000323
0.000300
0.000224
0.000220
0.000254
0.000258
0.000265
0.000246
0.000230
0.000252
0.000266
0.000237
0.000361
0.000592
0.000344
0.000252
0.000230
0.000274
0.000276
0.000253
0.000250
0.000253
0.000261
0.000290
0.000225
0.000296
0.000490
0.000057
0.001139
0.000206
0.000357
0.000428
0.000309
0.000230
0.000224
0.000240
0.000252
0.002301
0.000574
0.000186
0.000216
0.000371
0.000281
0.000263
0.000255
0.000261
0.000270
0.000224
0.000250
0.000324
0.000636
0.000399
0.001846
0.001316
0.000450
0.000609
0.000221
0.000286
0.000191
0.000057
0.000347
0.000237
0.000248
0.000244
0.000245
0.000232
0.000255
0.000252
0.000255
0.000249
0.000256
0.000227
0.000247
0.000276
0.000441
0.000468
0.001888
0.001262
0.000437
0.000423
0.000463
0.000243
0.000240
0.000261
0.002134
0.000549
0.000385
0.000240
0.000272
0.000282
0.000197
0.000056
0.000215
0.000245
0.000255
0.000239
0.000247
0.000314
0.000438
0.000370
0.000237
0.000249
0.000243
0.000251
0.000259
0.002114
0.000378
0.000369
0.000223
0.000246
0.000265
0.000262
0.000246
0.002451
0.000349
0.000223
0.000256
0.000257
0.000251
0.000273
0.000287
0.000276
0.000195
0.000056
0.000210
0.000286
0.000603
0.000365
0.000262
0.000228
0.000221
0.000255
0.000259
0.000254
0.001963
0.000381
0.000309
0.000256
0.000220
0.000267
0.000270
0.000241
0.002215
0.000442
0.000219
0.000269
0.000266
0.000260
0.000256
0.000252
0.000282
0.000253
0.000269
0.000252
0.000195
0.000056
0.000226
0.000241
0.000247
0.000225
0.000250
0.000254
0.000237
0.000247
0.000231
0.002177
0.000337
0.000174
0.000222
0.000423
0.000235
0.000245
0.000276
0.000289
0.000247
0.000259
0.001967
0.000333
0.000372
0.000377
0.000443
0.000340
0.000271
0.000242
0.000269
0.000242
0.000196
0.000057
0.000212
0.000234
0.000241
0.000247
0.000258
0.000315
0.000235
0.002296
0.000244
0.000233
0.000275
0.000236
0.000235
0.000252
0.000312
0.002120
0.000588
0.000239
0.000241
0.000244
0.000257
0.000263
0.000290
0.000264
0.000262
0.000255
0.000286
0.000253
0.000283
0.000249
0.000193
0.000056
0.001814
0.001441
0.000196
0.000231
0.000245
0.000255
0.000249
0.000252
0.000451
0.000294
0.002197
0.000260
0.000277
0.000225
0.000262
0.000533
0.000391
0.000294
0.000233
0.000243
0.000247
0.000268
0.000283
0.000215
0.000253
0.000263
0.000274
0.000265
0.000380
0.000606
0.000301
0.000057
0.000203
0.000245
0.000246
0.000299
0.000226
0.000239
0.000259
0.000240
0.001464
0.002136
0.000576
0.000311
0.000384
0.000685
0.000356
0.000230
0.000253
0.000247
0.000267
0.000338
0.000176
0.000242
0.000257
0.000267
0.001821
0.001463
0.000291
0.000266
0.000285
0.000359
0.000331
0.000056
0.001948
0.000219
0.000232
0.000230
0.000273
0.000364
0.000534
0.000230
0.000290
0.000210
0.000255
0.000245
0.000260
0.000270
0.000253
0.000257
0.000253
0.000266
0.001843
0.000242
0.000233
0.000255
0.000272
0.000280
0.000273
0.000258
0.001463
0.000330
0.000249
0.000257
0.000184
0.000055
0.000205
0.000232
0.000268
0.000220
0.000254
0.000239
0.000320
0.000352
0.000351
0.000358
0.000233
0.000235
0.000259
0.000413
0.000366
0.000303
0.000222
0.000243
0.000272
0.000339
0.000484
0.000444
0.000254
0.000251
0.000258
0.000253
0.000265
0.000264
0.000271
0.000267
0.000198
0.000056
0.001436
0.000425
0.000224
0.001939
0.000265
0.000486
0.000376
0.000311
0.000241
0.000244
0.000263
0.000243
0.000247
0.000246
0.000271
0.000252
0.000452
0.000336
0.000338
0.000396
0.000355
0.000227
0.000253
0.000270
0.000272
0.000271
0.000260
0.000266
0.000388
0.000467
0.001343
0.000056
0.000205
0.000222
0.002075
0.000366
0.000247
0.000263
0.000275
0.000234
0.000259
0.000260
0.000210
0.000253
0.000259
0.000265
0.000261
0.000533
0.000531
0.001760
0.000229
0.000256
0.000254
0.000261
0.000353
0.000513
0.001534
0.000279
0.000363
0.001924
0.000264
0.000260
0.000192
0.000057
0.000205
0.000236
0.000233
0.000238
0.000233
0.000251
0.000250
0.000289
0.000327
0.000289
0.000378
0.000350
0.000333
0.000304
0.000232
0.000273
0.000258
0.000238
0.000269
0.000251
0.000301
0.000289
0.000266
0.000266
0.000270
0.001501
0.000312
0.000503
0.001932
0.000233
0.000179
0.000057
0.000232
0.000246
0.000230
0.000248
0.000483
0.000210
0.000263
0.000335
0.000342
0.000326
0.000304
0.000213
0.000261
0.000266
0.000273
0.000324
0.000425
0.000427
0.000249
0.000404
0.000536
0.000465
0.001553
0.000234
0.000251
0.001969
0.000344
0.000252
0.000240
0.000296
0.000189
0.000055
0.000217
0.000245
0.000223
0.000245
0.000252
0.000262
0.000257
0.000270
0.000253
0.000252
0.001815
0.000350
0.000377
0.000337
0.000461
0.000356
0.000332
0.001449
0.000249
0.000344
0.002143
0.000463
0.000264
0.000250
0.000255
0.000267
0.000507
0.000227
0.000254
0.000279
0.000196
0.000056
0.000254
0.000326
0.000398
0.000296
0.000203
0.000244
0.000259
0.000250
0.000265
0.000300
0.000219
0.000251
0.000280
0.000239
0.000391
0.001467
0.000314
0.000209
0.000284
0.002029
0.000234
0.000293
0.000254
0.000263
0.000247
0.000282
0.000265
0.000260
0.000252
0.000277
0.000191
0.000060
0.000340
0.000258
0.002069
0.000258
0.000279
0.000211
0.000273
0.000437
0.000297
0.000393
0.001318
0.000430
0.000283
0.002108
0.000183
0.000245
0.000267
0.000279
0.000249
0.000253
0.000275
0.000297
0.000260
0.000358
0.000465
0.000447
0.000245
0.002230
0.000493
0.000484
0.000388
0.000055
0.000204
0.000229
0.000243
0.001968
0.000259
0.000203
0.000237
0.000244
0.000242
0.000259
0.000243
0.000264
0.000245
0.000261
0.000436
0.001508
0.000231
0.000254
0.000266
0.000259
0.000231
0.000259
0.000257
0.000266
0.000334
0.000425
0.000498
0.000235
0.001595
0.000286
0.000160
0.000069
0.000199
0.000214
0.000246
0.000231
0.000252
0.000251
0.000253
0.000248
0.000256
0.000407
0.000355
0.001400
0.000227
0.000226
0.000245
0.000268
0.000251
0.000255
0.000499
0.000296
0.000472
0.000361
0.000229
0.001573
0.000229
0.000260
0.000289
0.000279
0.000265
0.000267
0.000195
0.000057
0.000212
0.000234
0.000267
0.000264
0.000246
0.000244
0.000238
0.000241
0.000261
0.000237
0.000252
0.000259
0.000251
0.001492
0.000354
0.000213
0.000253
0.000258
0.000308
0.000340
0.000393
0.000210
0.000230
0.000257
0.000270
0.000261
0.000257
0.001411
0.000286
0.000229
0.000175
0.000055
0.000212
0.000229
0.000280
0.000245
0.000254
0.000230
0.000253
0.000255
0.000226
0.000264
0.000241
0.000259
0.000227
0.000316
0.000406
0.000328
0.000233
0.000271
0.001625
0.000234
0.000261
0.000242
0.000269
0.000297
0.000378
0.000373
0.000456
0.000254
0.000256
0.001607
0.000166
0.000056
0.000347
0.000368
0.000311
0.000312
0.000230
0.000218
0.000242
0.000271
0.000259
0.000233
0.000245
0.000240
0.001467
0.000302
0.000296
0.000222
0.000248
0.000254
0.000283
0.000253
0.000255
0.000236
0.000260
0.000273
0.000250
0.000367
0.000510
0.000359
0.000222
0.000253
0.000192
0.000056
0.000196
0.000233
0.000466
0.000310
0.000450
0.000232
0.000229
0.000250
0.000248
0.000259
0.000240
0.000229
0.000255
0.000241
0.001264
0.000296
0.000235
0.000262
0.000259
0.000268
0.000237
0.000268
0.000250
0.000265
0.000252
0.000256
0.000334
0.000692
0.000426
0.000231
0.000191
0.000057
0.000190
0.001576
0.000240
0.000296
0.000478
0.000382
0.000216
0.000264
0.000259
0.000257
0.000235
0.000260
0.000272
0.000272
0.000260
0.001529
0.000251
0.000289
0.000257
0.000258
0.000260
0.000262
0.000259
0.000256
0.000260
0.000286
0.000437
0.000305
0.000395
0.000247
0.000187
0.000057
0.000190
0.000247
0.000232
0.001669
0.000353
0.000385
0.000206
0.000238
0.000249
0.000277
0.000272
0.000256
0.000247
0.000262
0.000232
0.000274
0.000381
0.001345
0.000253
0.000220
0.001507
0.000441
0.000553
0.000278
0.000337
0.000258
0.000252
0.000483
0.000220
0.000262
0.000181
0.000056
0.000317
0.000194
0.000244
0.000245
0.000262
0.000240
0.000245
0.000252
0.000257
0.000240
0.000251
0.000263
0.000385
0.000461
0.001628
0.001501
0.000370
0.000497
0.000351
0.000229
0.000227
0.000258
0.000253
0.000268
0.000262
0.000263
0.000249
0.000265
0.001521
0.000330
0.000172
0.000056
0.000231
0.000358
0.000357
0.000313
0.000224
0.000238
0.000237
0.000417
0.000392
0.000332
0.002177
0.000325
0.000700
0.000487
0.000495
0.000331
0.000360
0.000383
0.000297
0.000248
0.000359
0.000237
0.001810
0.000277
0.000215
0.000265
0.000261
0.000251
0.000281
0.000246
0.000197
0.000056
0.000195
0.000246
0.000256
0.000249
0.000243
0.001664
0.000875
0.000990
0.000206
0.000242
0.000257
0.000257
0.000267
0.000258
0.000255
0.000244
0.000255
0.000266
0.000266
0.000280
0.001434
0.000310
0.000255
0.000226
0.000234
0.000261
0.000260
0.000281
0.000266
0.000286
0.001888
0.000057
0.000197
0.000232
0.001541
0.000850
0.000384
0.000362
0.000244
0.000222
0.000252
0.000265
0.000237
0.000252
0.000260
0.002013
0.000425
0.000223
0.000248
0.000252
0.000267
0.000258
0.000188
