0.000123
0.019020
0.002597
0.000344
0.000259
0.000289
0.000303
0.000246
0.000333
0.000284
0.000270
0.000350
0.000491
0.000456
0.000497
0.000268
0.000273
0.000351
0.000347
0.000406
0.000322
0.001903
0.000710
0.000246
0.000254
0.000312
0.000298
0.000340
0.000481
0.000308
0.000502
0.000307
0.000058
0.000207
0.000268
0.000270
0.000263
0.000271
0.000250
0.000282
0.000303
0.000228
0.000298
0.000427
0.000436
0.000316
0.000256
0.000416
0.000298
0.000367
0.000251
0.000247
0.001712
0.000300
0.000266
0.000452
0.000254
0.000254
0.000284
0.000292
0.000295
0.000290
0.000304
0.000409
0.000057
0.000200
0.000247
0.000263
0.000260
0.000251
0.000246
0.000261
0.000251
0.000290
0.001676
0.000238
0.000216
0.000274
0.000273
0.000275
0.000252
0.000261
0.000254
0.000359
0.001797
0.000233
0.000279
0.000445
0.000494
0.000335
0.000226
0.000320
0.000394
0.000496
0.000790
0.000184
0.000056
0.000226
0.000250
0.000253
0.000242
0.000297
0.000248
0.000286
0.000585
0.000381
0.000257
0.000245
0.000248
0.000241
0.000254
0.000253
0.000263
0.000240
0.000269
0.000298
0.000320
0.001679
0.000277
0.000256
0.000418
0.000317
0.000677
0.000652
0.000537
0.000347
0.000231
0.000191
0.000055
0.000209
0.000249
0.000264
0.000260
0.000232
0.000253
0.000252
0.000540
0.001408
0.000222
0.000246
0.000239
0.000258
0.000255
0.000265
0.000282
0.000325
0.000770
0.001385
0.000269
0.000462
0.000261
0.000228
0.000218
0.000262
0.000250
0.000265
0.000275
0.000259
0.000265
0.000198
0.000055
0.000212
0.000248
0.000241
0.000268
0.000236
0.000244
0.000241
0.000256
0.000235
0.000255
0.001631
0.000269
0.000239
0.000238
0.000246
0.000254
0.000257
0.000235
0.000250
0.000264
0.000267
0.001671
0.000282
0.000258
0.000432
0.000275
0.000233
0.000256
0.000264
0.000269
0.000192
0.000056
0.000188
0.000223
0.000252
0.000249
0.000246
0.000251
0.000258
0.000231
0.000265
0.000269
0.000237
0.000260
0.000257
0.000273
0.001637
0.000276
0.000299
0.000208
0.000256
0.000292
0.000250
0.000244
0.000238
0.000268
0.001788
0.000353
0.000389
0.000338
0.000260
0.000281
0.000195
0.000056
0.000202
0.000243
0.000245
0.000266
0.000260
0.000238
0.000339
0.000404
0.000360
0.000431
0.000209
0.000243
0.000254
0.000251
0.001563
0.000532
0.000295
0.000432
0.000342
0.000195
0.000274
0.000287
0.000271
0.001749
0.000511
0.000448
0.000276
0.000224
0.000233
0.000274
0.000189
0.000056
0.000210
0.000229
0.000257
0.000282
0.000335
0.000443
0.000360
0.000275
0.000218
0.000251
0.000263
0.000235
0.000256
0.001714
0.000495
0.000272
0.000223
0.000257
0.000279
0.000280
0.000246
0.000262
0.000274
0.001930
0.000275
0.000384
0.000255
0.000241
0.000272
0.000414
0.000329
0.000055
0.000209
0.000390
0.000350
0.000299
0.000231
0.000250
0.000247
0.000283
0.000217
0.000234
0.000235
0.000251
0.001550
0.000345
0.000323
0.000225
0.000260
0.000253
0.000242
0.000289
0.000276
0.000327
0.000243
0.001818
0.000243
0.000502
0.000237
0.000262
0.000258
0.000263
0.000259
0.000057
0.000266
0.000698
0.000524
0.000220
0.000221
0.000281
0.000231
0.000216
0.000262
0.000251
0.000256
0.001698
0.000254
0.000442
0.000370
0.000217
0.000243
0.000223
0.000254
0.000263
0.000260
0.001857
0.000229
0.000238
0.002084
0.000697
0.000183
0.000247
0.000256
0.000267
0.000180
0.000056
0.000209
0.000249
0.000245
0.000236
0.000259
0.001618
0.000258
0.000228
0.000254
0.000256
0.000245
0.000254
0.000234
0.000259
0.000269
0.000778
0.000261
0.000263
0.000228
0.000269
0.000262
0.000251
0.000242
0.000438
0.000438
0.000261
0.000353
0.000540
0.000434
0.000275
0.000211
0.000056
0.000199
0.000231
0.000254
0.000256
0.000234
0.000235
0.000239
0.000488
0.000341
0.001742
0.000203
0.000235
0.000245
0.000242
0.000262
0.000318
0.000420
0.000449
0.000370
0.000215
0.000262
0.000341
0.000242
0.000256
0.000267
0.000441
0.000363
0.000560
0.000490
0.000446
0.000170
0.000056
0.000201
0.000255
0.000240
0.000222
0.000241
0.000239
0.000250
0.000239
0.000248
0.000300
0.000339
0.000463
0.001361
0.000239
0.000233
0.000254
0.000257
0.000249
0.000247
0.000256
0.000351
0.000413
0.000377
0.000272
0.000253
0.000264
0.000254
0.000268
0.000265
0.000273
0.000385
0.000056
0.000187
0.000232
0.000233
0.000298
0.000550
0.000410
0.000222
0.000251
0.000237
0.000259
0.000242
0.000242
0.000295
0.000267
0.000217
0.000488
0.000427
0.001636
0.000276
0.000223
0.000275
0.000253
0.000256
0.000246
0.000259
0.000565
0.000326
0.000378
0.000423
0.000238
0.000183
0.000055
0.000233
0.000435
0.000241
0.000205
0.000266
0.000244
0.000341
0.000522
0.000322
0.000331
0.000219
0.000269
0.000264
0.000241
0.000521
0.000352
0.000213
0.000355
0.000368
0.001575
0.000270
0.000226
0.000558
0.000215
0.000275
0.000277
0.000262
0.000399
0.000522
0.000429
0.000196
0.000055
0.000223
0.000233
0.000233
0.000240
0.000414
0.000306
0.000296
0.000222
0.000401
0.000428
0.000441
0.000243
0.000232
0.000240
0.000252
0.000270
0.000256
0.000251
0.000241
0.000338
0.000298
0.000284
0.001895
0.000235
0.000261
0.000252
0.000294
0.000359
0.000476
0.000604
0.000450
0.000055
0.000242
0.000333
0.000283
0.000426
0.000382
0.000239
0.000220
0.000401
0.000463
0.000354
0.000266
0.000234
0.000243
0.000271
0.000267
0.000228
0.000259
0.000269
0.000269
0.000265
0.000260
0.000499
0.000579
0.001321
0.000342
0.000463
0.000390
0.000243
0.000481
0.000371
0.000305
0.000056
0.000250
0.000384
0.000270
0.000197
0.000228
0.000250
0.000411
0.000231
0.000246
0.000444
0.000363
0.000431
0.000239
0.000259
0.000263
0.000252
0.000373
0.000388
0.000342
0.000227
0.000276
0.000656
0.000324
0.001693
0.000233
0.000448
0.000296
0.000235
0.000250
0.000530
0.000252
0.000056
0.000191
0.000222
0.000254
0.000235
0.000243
0.000249
0.000250
0.000326
0.000457
0.000337
0.000402
0.000356
0.000290
0.000577
0.000241
0.000245
0.000269
0.000272
0.000231
0.000355
0.000226
0.000237
0.000272
0.000417
0.000482
0.001653
0.000280
0.000230
0.000244
0.000275
0.000184
0.000056
0.000324
0.000454
0.000323
0.000218
0.000261
0.000237
0.000262
0.000232
0.000266
0.000243
0.000224
0.000248
0.000482
0.000459
0.000397
0.000278
0.000250
0.000251
0.000360
0.000381
0.000383
0.000333
0.000417
0.000361
0.000210
0.000250
0.000272
0.000273
0.001778
0.000258
0.000210
0.000056
0.000202
0.000217
0.000260
0.000274
0.000373
0.000540
0.000311
0.000210
0.000255
0.000259
0.000255
0.000243
0.000517
0.000457
0.000480
0.000287
0.000263
0.000271
0.000426
0.000460
0.000403
0.000346
0.000486
0.000446
0.000250
0.000246
0.000263
0.000236
0.000267
0.001711
0.000333
0.000056
0.000255
0.000325
0.000213
0.000231
0.000255
0.000249
0.000247
0.000506
0.000369
0.000306
0.000292
0.000307
0.000332
0.000619
0.000349
0.000230
0.000253
0.000256
0.000250
0.000262
0.000265
0.000274
0.000240
0.000266
0.000286
0.000480
0.000358
0.000313
0.000229
0.000262
0.000188
0.000055
0.000446
0.000295
0.000505
0.000247
0.000185
0.000243
0.000243
0.000255
0.000247
0.000211
0.000251
0.000282
0.000293
0.000399
0.000517
0.000451
0.000312
0.000328
0.000379
0.000335
0.000291
0.000234
0.000249
0.000266
0.001747
0.000270
0.001710
0.000930
0.000396
0.000334
0.000172
0.000056
0.000202
0.000230
0.000240
0.000239
0.000259
0.000246
0.000255
0.000259
0.000235
0.000318
0.000356
0.000459
0.000327
0.000375
0.000258
0.000238
0.000261
0.000291
0.000225
0.000242
0.000260
0.000257
0.001814
0.000259
0.000232
0.000267
0.000278
0.000264
0.001880
0.000465
0.000286
0.000057
0.000180
0.000210
0.000238
0.000236
0.000257
0.000268
0.000219
0.000256
0.000256
0.000384
0.000560
0.000487
0.000244
0.000205
0.000234
0.000251
0.000331
0.000445
0.000369
0.000253
0.001768
0.000253
0.000239
0.000250
0.000263
0.000269
0.000238
0.000259
0.000335
0.000299
0.000411
0.000055
0.000257
0.000218
0.000233
0.000262
0.000250
0.000243
0.000252
0.000254
0.000238
0.000262
0.000235
0.000306
0.000384
0.000327
0.000404
0.000242
0.000465
0.000238
0.000244
0.000259
0.000258
0.000256
0.000277
0.000258
0.000275
0.001799
0.000228
0.000257
0.000265
0.000237
0.000196
0.000054
0.000256
0.000376
0.000234
0.000223
0.000261
0.000215
0.000235
0.000264
0.000243
0.000222
0.000235
0.000262
0.000267
0.000429
0.000359
0.000310
0.000306
0.000241
0.000260
0.000245
0.000264
0.000256
0.000253
0.000270
0.000250
0.000265
0.000327
0.001619
0.000259
0.000240
0.000192
0.000054
0.000213
0.000230
0.000247
0.000265
0.000350
0.000477
0.000259
0.000326
0.000230
0.000256
0.000248
0.000256
0.000232
0.000258
0.000269
0.000254
0.000244
0.000254
0.000251
0.000264
0.000264
0.000271
0.000250
0.000240
0.000239
0.000277
0.000277
0.000258
0.000257
0.000267
0.000188
0.000056
0.000211
0.000235
0.000255
0.000259
0.000230
0.000258
0.000242
0.000262
0.000286
0.000230
0.000229
0.000254
0.000249
0.000252
0.000271
0.000262
0.000251
0.000256
0.000295
0.000252
0.000267
0.000298
0.000278
0.000245
0.000280
0.000271
0.000274
0.000244
0.000261
0.000454
0.000645
0.000057
0.000229
0.000285
0.000218
0.000224
0.000238
0.000257
0.000240
0.000251
0.000249
0.000245
0.000262
0.000283
0.000515
0.000565
0.001438
0.000234
0.000476
0.000248
0.000246
0.000477
0.000450
0.000350
0.000230
0.000277
0.000251
0.000261
0.000279
0.000249
0.000367
0.000202
0.000182
0.000056
0.000416
0.000360
0.000338
0.000298
0.000223
0.000254
0.000247
0.000247
0.000236
0.000244
0.000255
0.000259
0.000226
0.000296
0.000314
0.000532
0.000383
0.001793
0.000226
0.000254
0.000353
0.000417
0.000423
0.000313
0.000320
0.000311
0.000304
0.000239
0.000226
0.000248
0.000193
0.000055
0.000225
0.000226
0.000235
0.000296
0.000351
0.000439
0.000344
0.000262
0.000249
0.000219
0.000243
0.000273
0.000268
0.000259
0.000263
0.000244
0.000278
0.000540
0.000380
0.000381
0.000225
0.001755
0.000327
0.000486
0.000474
0.000503
0.000318
0.000223
0.000256
0.000279
0.000439
0.000056
0.000197
0.000264
0.000231
0.000306
0.000396
0.000514
0.000321
0.000235
0.000219
0.000311
0.000224
0.000262
0.000253
0.000294
0.000306
0.000245
0.000240
0.000425
0.000370
0.000389
0.000489
0.001856
0.000241
0.000543
0.000403
0.000367
0.000219
0.000257
0.000295
0.000253
0.000210
0.000056
0.000218
0.000341
0.000359
0.000375
0.000335
0.000292
0.000368
0.000222
0.000235
0.000259
0.000281
0.000231
0.000239
0.000253
0.000244
0.000262
0.000319
0.000366
0.000518
0.000373
0.000287
0.000227
0.000272
0.001718
0.000498
0.000400
0.000719
0.000237
0.000256
0.000312
0.000150
0.000056
0.000196
0.000231
0.000325
0.000251
0.000269
0.000343
0.000459
0.000300
0.000229
0.000528
0.000236
0.000249
0.000262
0.000275
0.000274
0.000264
0.000215
0.000428
0.000449
0.000372
0.000278
0.000218
0.000264
0.000251
0.000263
0.000261
0.000242
0.000255
0.000261
0.000294
0.000192
0.000057
0.000302
0.000317
0.000237
0.000248
0.000248
0.000261
0.000239
0.000293
0.000244
0.000239
0.000259
0.000354
0.000425
0.000467
0.000285
0.000266
0.000221
0.000246
0.000253
0.000264
0.000288
0.000256
0.000240
0.000255
0.000288
0.000296
0.000404
0.000434
0.000321
0.000230
0.000180
0.000056
0.000208
0.000228
0.000274
0.000246
0.000237
0.000255
0.000253
0.000258
0.000490
0.000213
0.000259
0.000253
0.000246
0.000263
0.000276
0.000270
0.000261
0.000367
0.000219
0.000236
0.000256
0.000266
0.000255
0.000269
0.000275
0.000264
0.000262
0.000260
0.000511
0.000241
0.000148
0.000056
0.000214
0.000232
0.000250
0.000266
0.000220
0.000243
0.000362
0.000430
0.000222
0.000241
0.000245
0.000254
0.000242
0.000223
0.000502
0.001763
0.000225
0.000264
0.000286
0.000395
0.000364
0.000358
0.000355
0.000387
0.000399
0.000411
0.000234
0.000268
0.000272
0.000257
0.001393
0.000057
0.000348
0.000295
0.000280
0.000219
0.000228
0.000251
0.000229
0.000261
0.000242
0.000269
0.000247
0.000258
0.000251
0.000334
0.000523
0.001613
0.000247
0.000222
0.000237
0.000269
0.000239
0.000257
0.000434
0.000338
0.000270
0.000366
0.000219
0.000267
0.000277
0.000257
0.000191
0.000055
0.001210
0.000531
0.000349
0.000250
0.000245
0.000206
0.000236
0.000242
0.000490
0.000225
0.000235
0.000251
0.000352
0.000452
0.000453
0.000353
0.000244
0.000245
0.000333
0.000342
0.000267
0.000264
0.000268
0.000240
0.000273
0.000638
0.000500
0.000260
0.000256
0.000260
0.000168
0.000055
0.000218
0.000215
0.000256
0.000228
0.001439
0.000334
0.000219
0.000254
0.000234
0.000254
0.000249
0.000256
0.000236
0.000284
0.000252
0.000391
0.000364
0.000619
0.000274
0.001746
0.000280
0.000255
0.000268
0.000527
0.000555
0.000342
0.000243
0.000236
0.000265
0.000269
0.000185
0.000055
0.000207
0.000257
0.000235
0.000355
0.001223
0.000231
0.000256
0.000265
0.000235
0.000233
0.000241
0.000248
0.000282
0.000264
0.000232
0.000330
0.000596
0.000252
0.000326
0.000264
0.000251
0.000280
0.000252
0.000226
0.000295
0.000265
0.000237
0.000280
0.000293
0.000396
0.000532
0.000055
0.000216
0.000244
0.000243
0.000262
0.000260
0.000243
0.000230
0.000287
0.000244
0.000261
0.001437
0.000223
0.000234
0.000252
0.000248
0.000242
0.000262
0.000260
0.000273
0.000262
0.000296
0.000524
0.000371
0.000420
0.000220
0.000276
0.001767
0.000283
0.000219
0.000352
0.000384
0.000056
0.000207
0.000414
0.000430
0.000500
0.000519
0.000549
0.001481
0.000426
0.000512
0.000655
0.000553
0.000767
0.000431
0.000618
0.000583
0.001907
0.000373
0.000447
0.000402
0.000315
0.000230
0.000298
0.000252
0.000264
0.000255
0.000297
0.000287
0.000292
0.000264
0.000279
0.001376
0.000055
0.000205
0.000233
0.000242
0.000235
0.000261
0.000253
0.000231
0.000247
0.000255
0.000250
0.000232
0.000240
0.000260
0.000256
0.000269
0.000265
0.001817
0.000278
0.000239
0.000251
0.000261
0.000265
0.000260
0.000268
0.000572
0.000267
0.000345
0.000239
0.000255
0.000290
0.000206
0.000057
0.000189
0.001358
0.000325
0.000270
0.000260
0.000239
0.000247
0.000227
0.000237
0.000237
0.000227
0.000231
0.000263
0.000495
0.000367
0.000280
0.000263
0.000255
0.001945
0.000213
0.000248
0.000256
0.000271
0.000259
0.000275
0.000278
0.000279
0.000246
0.000267
0.000321
0.000201
0.000055
0.000225
0.000236
0.000249
0.001441
0.000214
0.000252
0.000253
0.000249
0.000232
0.000268
0.000251
0.000249
0.000241
0.000261
0.000253
0.000265
0.000260
0.000267
0.000264
0.000259
0.000261
0.001772
0.000308
0.001723
0.000270
0.000241
0.000269
0.000265
0.000270
0.000279
0.000201
0.000055
0.000209
0.000225
0.001346
0.000230
0.000253
0.000239
0.000266
0.000254
0.000242
0.000247
0.000249
0.000250
0.000258
0.000263
0.000260
0.000264
0.000259
0.000283
0.000307
0.000230
0.001881
0.000234
0.001824
0.000237
0.000260
0.000281
0.000229
0.000251
0.000247
0.000266
0.000192
0.000057
0.001426
0.000231
0.000217
0.000240
0.000242
0.000237
0.000374
0.000272
0.000246
0.000277
0.000229
0.000260
0.000309
0.000285
0.000411
0.000284
0.000244
0.000271
0.000259
0.000255
0.000263
0.000342
0.000223
0.000258
0.000263
0.000276
0.000276
0.000364
0.000666
0.000309
0.000208
0.000057
0.000206
0.000250
0.000257
0.000304
0.000387
0.000232
0.001715
0.000291
0.000275
0.000267
0.000246
0.000278
0.000289
0.000248
0.000293
0.000311
0.000317
0.000580
0.000384
0.000277
0.000297
0.000275
0.000270
0.000257
0.000326
0.000291
0.000258
0.000219
0.000266
0.000306
0.000420
0.000056
0.000237
0.000467
0.000277
0.000263
0.000248
0.000228
0.000235
0.000239
0.000261
0.000248
0.001524
0.000227
0.000220
0.000251
0.000240
0.000289
0.000263
0.000270
0.000250
0.000263
0.000272
0.000574
0.000319
0.000326
0.000274
0.000282
0.000271
0.000251
0.000234
0.000314
0.000170
0.000055
0.000196
0.000236
0.000266
0.000480
0.000375
0.000278
0.000206
0.000254
0.000254
0.000253
0.000229
0.000261
0.000254
0.000264
0.000238
0.000259
0.000442
0.001148
0.000234
0.000255
0.000277
0.000251
0.000383
0.000392
0.000260
0.000309
0.000580
0.000362
0.000373
0.000234
0.000174
0.000056
0.000230
0.000248
0.000263
0.000265
0.000253
0.000249
0.000377
0.000432
0.000417
0.000246
0.000366
0.000390
0.000388
0.000361
0.000250
0.000240
0.000242
0.000258
0.000364
0.001477
0.000285
0.000224
0.000270
0.000277
0.000229
0.000236
0.000267
0.000330
0.000416
0.000426
0.000265
0.000057
0.000197
0.000248
0.000246
0.000237
0.000253
0.000247
0.000232
0.000262
0.000310
0.000392
0.000339
0.000417
0.000247
0.000240
0.000246
0.000257
0.000250
0.000264
0.000262
0.000250
0.000444
0.000258
0.000380
0.000364
0.000357
0.000244
0.000274
0.000274
0.000252
0.000346
0.000154
0.000056
0.000306
0.000312
0.000289
0.000398
0.000443
0.000351
0.000253
0.000245
0.000244
0.000281
0.000250
0.000267
0.000235
0.000252
0.000238
0.000232
0.000266
0.000366
0.000476
0.000375
0.000225
0.000261
0.000244
0.000253
0.000260
0.000277
0.000270
0.000267
0.000276
0.000257
0.000328
0.000055
0.000415
0.000198
0.000232
0.000246
0.000251
0.000242
0.000243
0.000250
0.000267
0.000261
0.000247
0.000239
0.000315
0.000478
0.000430
0.000297
0.000234
0.000239
0.000255
0.000269
0.000251
0.000267
0.000260
0.000263
0.000275
0.000310
0.000410
0.000605
0.000409
0.000249
0.000167
0.000055
0.000388
0.000207
0.000232
0.000240
0.000256
0.000245
0.000238
0.000255
0.000256
0.000261
0.000219
0.000244
0.000276
0.000224
0.000237
0.000269
0.000253
0.000264
0.000292
0.000232
0.000269
0.000259
0.000273
0.000247
0.000274
0.000232
0.000280
0.000262
0.000263
0.000277
0.000197
0.000056
0.000222
0.000213
0.000248
0.000254
0.000233
0.000252
0.000261
0.000236
0.000262
0.000281
0.000239
0.000215
0.000262
0.000402
0.000247
0.000279
0.000262
0.000271
0.000252
0.000275
0.000274
0.000233
0.000249
0.000253
0.000272
0.000281
0.000243
0.000249
0.000274
0.000263
0.000197
0.000055
0.000213
0.000357
0.000368
0.000281
0.000296
0.000253
0.000268
0.000259
0.000221
0.000243
0.000255
0.000258
0.000249
0.000240
0.000263
0.000252
0.000262
0.000275
0.000236
0.000269
0.000272
0.000264
0.000280
0.000270
0.000253
0.000252
0.000256
0.000269
0.000272
0.000266
0.000189
0.000056
0.000214
0.000235
0.000260
0.000261
0.000488
0.000217
0.000225
0.000230
0.000291
0.000421
0.000509
0.000272
0.000243
0.000239
0.000272
0.000265
0.000238
0.000265
0.000260
0.000264
0.000278
0.000252
0.000259
0.000280
0.000484
0.000570
0.000251
0.000293
0.000258
0.000268
0.000193
0.000056
0.000203
0.000217
0.000247
0.000253
0.000357
0.000615
0.000314
0.000382
0.000210
0.000240
0.000253
0.000261
0.000250
0.000261
0.000241
0.000273
0.000257
0.000261
0.000621
0.000399
0.000284
0.000251
0.000252
0.000292
0.000280
0.000256
0.000264
0.000268
0.000266
0.000326
0.000308
0.000056
0.000289
0.000228
0.000248
0.000233
0.000258
0.000254
0.000226
0.000243
0.000245
0.000260
0.000263
0.000237
0.000243
0.000366
0.000617
0.000413
0.000201
0.000245
0.000263
0.000250
0.000269
0.000274
0.000488
0.000231
0.000252
0.000647
0.000348
0.000510
0.000246
0.000254
0.000177
0.000056
0.000218
0.000228
0.000253
0.000241
0.000251
0.000251
0.000335
0.000405
0.000591
0.000420
0.000218
0.000263
0.000279
0.000270
0.000261
0.000244
0.000237
0.000252
0.000258
0.000289
0.000509
0.000584
0.000358
0.000260
0.000371
0.000375
0.000475
0.000248
0.000262
0.000637
0.000148
0.000056
0.000271
0.000231
0.000432
0.000228
0.000227
0.000255
0.000264
0.000259
0.000232
0.000256
0.000271
0.000477
0.000299
0.000311
0.000247
0.000232
0.000263
0.000251
0.000259
0.000287
0.000261
0.000256
0.000251
0.000287
0.000291
0.000490
0.000497
0.000245
0.000237
0.000280
0.000192
0.000056
0.000198
0.000255
0.000230
0.000239
0.000244
0.000282
0.000322
0.000409
0.000461
0.000271
0.000369
0.000223
0.000247
0.000267
0.000256
0.000239
0.000254
0.000258
0.000302
0.000411
0.000471
0.000313
0.000479
0.000283
0.000428
0.000387
0.000378
0.000230
0.000258
0.000286
0.000450
0.000056
0.000234
0.000287
0.000215
0.000255
0.000261
0.000257
0.000249
0.000247
0.000263
0.000259
0.000230
0.000364
0.000439
0.000382
0.000375
0.000215
0.000263
0.000266
0.000270
0.000233
0.000254
0.000247
0.000267
0.000280
0.000283
0.000452
0.000375
0.000459
0.000240
0.000278
0.000185
0.000056
0.000211
0.000237
0.000264
0.000255
0.000244
0.000338
0.000520
0.000474
0.000340
0.000690
0.000262
0.000209
0.000244
0.000261
0.000251
0.000263
0.000276
0.000270
0.000488
0.000524
0.001396
0.000306
0.000259
0.000263
0.000300
0.000262
0.000415
0.000418
0.000335
0.000323
0.000166
0.000055
0.000201
0.000225
0.000247
0.000245
0.000237
0.000261
0.000279
0.000246
0.000253
0.000336
0.000323
0.000385
0.000281
0.000355
0.000410
0.000295
0.000242
0.000249
0.000272
0.000263
0.000241
0.000248
0.000283
0.000257
0.000308
0.000432
0.000428
0.000327
0.000229
0.000260
0.000193
0.000055
0.000205
0.000249
0.000254
0.000254
0.000241
0.000243
0.000465
0.000218
0.000231
0.000250
0.000250
0.000250
0.000256
0.000257
0.000251
0.000274
0.000258
0.000266
0.000274
0.000254
0.000281
0.000272
0.000283
0.000251
0.000262
0.000284
0.000266
0.000267
0.000261
0.000276
0.000166
0.000055
0.000215
0.000242
0.000269
0.000470
0.000352
0.000258
0.000233
0.000249
0.000258
0.000251
0.000249
0.000254
0.000265
0.000262
0.000234
0.000243
0.000247
0.000267
0.000284
0.000326
0.000458
0.000399
0.000223
0.000264
0.000266
0.000255
0.000267
0.000245
0.000277
0.000280
0.000196
0.000055
0.000344
0.000453
0.000362
0.000207
0.000254
0.000255
0.000415
0.000206
0.000244
0.000257
0.000255
0.000337
0.000309
0.000433
0.001867
0.000254
0.000239
0.000253
0.000282
0.000239
0.000331
0.000465
0.000670
0.000228
0.000218
0.000272
0.000272
0.000427
0.000278
0.000284
0.000156
0.000055
0.000276
0.000353
0.000298
0.000332
0.000490
0.000210
0.000235
0.000257
0.000247
0.000238
0.000264
0.000246
0.000265
0.000385
0.000310
0.000525
0.000203
0.000244
0.000262
0.000257
0.000266
0.000318
0.000233
0.000282
0.000280
0.000433
0.000536
0.000373
0.000478
0.000224
0.000203
0.000055
0.000217
0.000231
0.000257
0.000226
0.000254
0.000248
0.000273
0.000266
0.000350
0.000324
0.000487
0.000346
0.000214
0.000251
0.000269
0.000278
0.000303
0.000247
0.000273
0.000271
0.000236
0.000283
0.000500
0.000362
0.000298
0.000239
0.000266
0.000435
0.000414
0.000323
0.000166
0.000055
0.000198
0.000230
0.000330
0.000409
0.000397
0.000203
0.000239
0.000254
0.000268
0.000247
0.000267
0.000267
0.000217
0.000255
0.000259
0.000285
0.000427
0.000341
0.000348
0.000289
0.000487
0.000231
0.000278
0.000277
0.000311
0.000278
0.000257
0.000262
0.000515
0.000483
0.000192
0.000057
0.000212
0.000230
0.000250
0.000247
0.000246
0.000475
0.000219
0.000248
0.000270
0.000371
0.000450
0.000610
0.000192
0.000237
0.000246
0.000250
0.000260
0.000238
0.000259
0.000253
0.000263
0.000267
0.000486
0.000307
0.000352
0.000417
0.000290
0.000303
0.000311
0.000254
0.000175
0.000055
0.000223
0.000227
0.000265
0.000486
0.000343
0.000269
0.000268
0.000227
0.000231
0.000260
0.000253
0.000249
0.000253
0.000269
0.000241
0.000264
0.000248
0.000248
0.000282
0.000407
0.000444
0.000437
0.000206
0.000250
0.000286
0.000275
0.000257
0.000252
0.000266
0.000274
0.000182
0.000056
0.000274
0.000356
0.000540
0.000196
0.000221
0.000243
0.000331
0.000450
0.000281
0.000218
0.000239
0.000272
0.000259
0.000439
0.000446
0.000284
0.000244
0.000219
0.000255
0.000265
0.000273
0.000261
0.000262
0.000274
0.000258
0.000311
0.000350
0.000514
0.000253
0.000251
0.000172
0.000055
0.000206
0.000241
0.000246
0.000254
0.000250
0.000265
0.000235
0.000251
0.000254
0.000245
0.000268
0.000237
0.000265
0.001451
0.000233
0.000249
0.000265
0.000241
0.000282
0.000276
0.000265
0.000234
0.000278
0.000252
0.000267
0.000272
0.000267
0.000273
0.000259
0.000268
0.000188
0.000056
0.000193
0.000224
0.000257
0.000251
0.000236
0.000247
0.000255
0.000260
0.000227
0.000249
0.000249
0.000261
0.000256
0.000256
0.000250
0.000268
0.000244
0.000257
0.000274
0.000253
0.000258
0.000261
0.000250
0.000243
0.001291
0.000289
0.000613
0.000403
0.000320
0.000241
0.000193
0.000055
0.000194
0.000231
0.000262
0.000233
0.000417
0.000242
0.000226
0.000245
0.000254
0.000412
0.000425
0.000324
0.000226
0.000229
0.000268
0.000255
0.000259
0.000256
0.000256
0.000261
0.000258
0.000257
0.000257
0.000419
0.000529
0.000437
0.000223
0.000268
0.001370
0.000243
0.000181
0.000056
0.000283
0.000417
0.000339
0.000253
0.000228
0.000226
0.000232
0.000248
0.000261
0.000255
0.000246
0.000264
0.000288
0.000327
0.000496
0.000364
0.000349
0.000224
0.000240
0.000258
0.000263
0.000282
0.000255
0.000261
0.000274
0.000252
0.000361
0.000523
0.000369
0.000380
0.000152
0.000056
0.000189
0.000239
0.001258
0.000425
0.000296
0.000452
0.000385
0.000488
0.000287
0.000336
0.000224
0.000220
0.000261
0.000258
0.000245
0.000267
0.000385
0.000508
0.000398
0.000317
0.000246
0.000252
0.000253
0.000508
0.000230
0.000269
0.000256
0.000279
0.000295
0.000556
0.000416
0.000056
0.000380
0.000338
0.000198
0.000221
0.001617
0.000449
0.000259
0.000256
0.000242
0.000249
0.000232
0.000234
0.000246
0.000268
0.000266
0.000246
0.000232
0.000262
0.000465
0.000379
0.000419
0.000242
0.000251
0.000255
0.000263
0.000276
0.000268
0.000236
0.000261
0.000272
0.000204
0.000056
0.000438
0.000299
0.000208
0.000224
0.000250
0.000248
0.000261
0.000233
0.000232
0.000231
0.001389
0.000515
0.000239
0.000255
0.000241
0.000248
0.000269
0.000264
0.000230
0.000279
0.000275
0.000249
0.000257
0.000417
0.000405
0.000476
0.000218
0.000275
0.000279
0.000289
0.000158
0.000056
0.000205
0.000409
0.000236
0.000220
0.000436
0.000413
0.000435
0.000190
0.000461
0.000212
0.000223
0.000255
0.000261
0.000267
0.000260
0.001492
0.000280
0.000287
0.000247
0.000265
0.000285
0.000242
0.000256
0.000255
0.000256
0.000269
0.000547
0.000354
0.000297
0.000272
0.000154
0.000055
0.000210
0.000230
0.000257
0.000233
0.000227
0.000269
0.000238
0.000253
0.000271
0.000471
0.000385
0.000245
0.000255
0.000244
0.000237
0.000282
0.000275
0.000258
0.000272
0.000222
0.000258
0.000310
0.001262
0.000262
0.000243
0.000259
0.000256
0.000267
0.000260
0.000250
0.000183
0.000055
0.000220
0.000373
0.000332
0.000357
0.000246
0.000238
0.000255
0.000269
0.000253
0.000252
0.000252
0.000273
0.000239
0.000251
0.000259
0.000260
0.000267
0.000269
0.000265
0.000245
0.000257
0.000270
0.000270
0.000283
0.000282
0.000264
0.000274
0.000247
0.000263
0.000447
0.001361
0.000056
0.000204
0.000236
0.000240
0.000242
0.000254
0.000256
0.000251
0.000225
0.000245
0.000255
0.000271
0.000251
0.000257
0.000242
0.000252
0.000240
0.001736
0.000250
0.000242
0.000262
0.000243
0.000263
0.000272
0.000258
0.000275
0.000255
0.000274
0.000277
0.000265
0.000265
0.000212
0.000055
0.000285
0.000298
0.001311
0.000214
0.000237
0.000248
0.000255
0.000255
0.000258
0.000256
0.000227
0.000381
0.000384
0.000473
0.000236
0.000224
0.000241
0.000260
0.000252
0.000268
0.000250
0.000270
0.000262
0.000285
0.000271
0.000412
0.000379
0.000343
0.000296
0.000237
0.000190
0.000056
0.000218
0.000259
0.000239
0.000246
0.000258
0.000216
0.000238
0.000255
0.000438
0.001327
0.000274
0.000203
0.000248
0.000274
0.000251
0.000270
0.000256
0.000255
0.000328
0.000380
0.000457
0.000202
0.000243
0.000247
0.000279
0.000281
0.000268
0.000289
0.000273
0.000271
0.000191
0.000056
0.000246
0.000409
0.000392
0.000224
0.000222
0.000238
0.000245
0.000282
0.000264
0.000248
0.000226
0.000249
0.000462
0.000551
0.000421
0.001454
0.000251
0.000276
0.000320
0.000344
0.000485
0.000420
0.000547
0.000333
0.000209
0.000264
0.000270
0.000274
0.000257
0.000280
0.000195
0.000056
0.000210
0.000269
0.000437
0.000426
0.000397
0.000246
0.000238
0.000227
0.000250
0.000261
0.000248
0.000267
0.000267
0.000238
0.000266
0.000305
0.000382
0.000398
0.000377
0.001321
0.000256
0.000260
0.000258
0.000257
0.000464
0.000441
0.000375
0.000259
0.000290
0.000253
0.000186
0.000055
0.000194
0.000239
0.000248
0.000241
0.000249
0.000274
0.000459
0.000373
0.000391
0.000210
0.000240
0.000264
0.000267
0.000262
0.000257
0.000265
0.000264
0.000252
0.000274
0.000262
0.000473
0.000468
0.000281
0.001342
0.000423
0.000232
0.000276
0.000409
0.000443
0.000362
0.000319
0.000055
0.000205
0.000249
0.000232
0.000246
0.000249
0.000253
0.001686
0.000234
0.000220
0.000240
0.000258
0.000245
0.000261
0.000332
0.000325
0.000285
0.000272
0.000337
0.000484
0.000387
0.000314
0.000277
0.000220
0.001413
0.000347
0.000390
0.000402
0.000435
0.000327
0.000285
0.000164
0.000056
0.000226
0.000239
0.000258
0.000264
0.000240
0.000259
0.001711
0.000245
0.000229
0.000269
0.000334
0.000411
0.001439
0.000361
0.000385
0.000246
0.000257
0.000235
0.000269
0.000273
0.001527
0.000529
0.000433
0.000304
0.000237
0.000246
0.000264
0.000279
0.000246
0.000265
0.000174
0.000057
0.000203
0.000241
0.000271
0.000241
0.000261
0.000300
0.000260
0.000263
0.000242
0.000252
0.000256
0.000239
0.000265
0.000279
0.000245
0.001501
0.000285
0.000226
0.000265
0.000273
0.000275
0.000260
0.000434
0.001262
0.000278
0.000229
0.000274
0.000252
0.000395
0.000235
0.000210
0.000056
0.000188
0.000248
0.000217
0.000244
0.000242
0.000230
0.000227
0.001697
0.000262
0.000226
0.000244
0.000369
0.000229
0.000223
0.000256
0.001392
0.000224
0.000267
0.000273
0.000244
0.000256
0.000355
0.000276
0.001306
0.000288
0.000241
0.000252
0.000270
0.001390
0.000276
0.000229
0.000056
0.000292
0.000310
0.000222
0.000228
0.000247
0.000242
0.000265
0.000264
0.000270
0.000243
0.000263
0.000266
0.000249
0.000265
0.000294
0.001505
0.000231
0.000278
0.000259
0.000245
0.000284
0.000263
0.000253
0.001505
0.000372
0.000212
0.000272
0.001267
0.000275
0.000242
0.000225
0.000055
0.000232
0.000379
0.000345
0.000214
0.000229
0.000244
0.000263
0.000258
0.000267
0.000272
0.000231
0.000254
0.000262
0.000263
0.000579
0.001077
0.000232
0.000244
0.000267
0.000278
0.000226
0.000241
0.000251
0.000329
0.001294
0.000233
0.000253
0.000255
0.000251
0.001350
0.000381
0.000056
0.000232
0.000292
0.000230
0.000228
0.000239
0.000253
0.000247
0.000245
0.000279
0.000252
0.000236
0.000253
0.000248
0.000338
0.000406
0.001479
0.000217
0.000246
0.000313
0.000500
0.000281
0.000399
0.001351
0.000290
0.000240
0.000271
0.000249
0.001315
0.000284
0.000502
0.000352
0.000056
0.000218
0.000256
0.000254
0.000258
0.000253
0.000250
0.000273
0.000245
0.000263
0.000265
0.000327
0.000437
0.001357
0.000239
0.000270
0.000255
0.000284
0.000226
0.000245
0.000233
0.000343
0.001291
0.000218
0.000240
0.000246
0.000250
0.001507
0.000448
0.000465
0.000221
0.000197
0.000055
0.000198
0.000233
0.000250
0.000236
0.000253
0.000266
0.000249
0.000254
0.000413
0.000527
0.000246
0.001490
0.000206
0.000243
0.000268
0.000250
0.000265
0.000524
0.001475
0.000241
0.000400
0.000327
0.001257
0.000437
0.000248
0.000315
0.000260
0.000262
0.000265
0.000268
0.000195
0.000055
0.000211
0.000227
0.000337
0.000237
0.000322
0.000527
0.000315
0.000269
0.001479
0.000238
0.000378
0.000264
0.000209
0.000328
0.000383
0.001342
0.000252
0.000234
0.000238
0.000258
0.001518
0.000415
0.000269
0.000263
0.000262
0.000242
0.000501
0.000299
0.000254
0.000225
0.000266
0.000054
0.000260
0.000367
0.000349
0.000260
0.000215
0.001519
0.000203
0.000252
0.000267
0.000275
0.000268
0.000237
0.000294
0.001489
0.000263
0.000234
0.000427
0.001188
0.000332
0.000458
0.000405
0.000229
0.000236
0.000250
0.000286
0.000236
0.000450
0.000234
0.000264
0.000286
0.000190
0.000055
0.000217
0.000278
0.000325
0.000420
0.001242
0.000277
0.000312
0.000232
0.000251
0.000244
0.000243
0.000300
0.001510
0.000265
0.000230
0.000243
0.001377
0.000272
0.000482
0.000367
0.000414
0.000222
0.000246
0.000257
0.000264
0.000289
0.000267
0.000253
0.000269
0.000248
0.000189
0.000056
0.000251
0.000337
0.001489
0.000215
0.000265
0.000276
0.000236
0.000248
0.000265
0.000558
0.001216
0.000220
0.000262
0.000271
0.000240
0.001303
0.000676
0.000301
0.000316
0.000409
0.000293
0.000248
0.000260
0.000258
0.000270
0.000290
0.000274
0.000291
0.000414
0.000467
0.001386
0.000055
0.000197
0.000244
0.000253
0.000219
0.000250
0.000449
0.000555
0.001189
0.000235
0.000249
0.000244
0.001434
0.000396
0.000370
0.000228
0.000397
0.000255
0.000238
0.000281
0.000272
0.000233
0.000275
0.000282
0.000258
0.000244
0.000309
0.000409
0.000493
0.001497
0.000225
0.000182
0.000056
0.000193
0.000260
0.000419
0.000530
0.001181
0.000277
0.000252
0.000258
0.000243
0.000254
0.000250
0.000278
0.000357
0.000528
0.000303
0.000226
0.000255
0.000283
0.000236
0.000277
0.000257
0.000263
0.000261
0.000267
0.000323
0.000388
0.000425
0.000369
0.000303
0.001400
0.000186
0.000055
0.000204
0.000238
0.000411
0.000343
0.000312
0.000333
0.000293
0.000334
0.000266
0.000277
0.000245
0.000259
0.000254
0.000305
0.000234
0.000387
0.000483
0.000295
0.000313
0.000363
0.000281
0.000404
0.000223
0.000266
0.000246
0.000261
0.000255
0.000295
0.000434
0.000422
0.000290
0.000055
0.000186
0.001402
0.000257
0.000324
0.000499
0.000272
0.000417
0.000324
0.000212
0.000228
0.000265
0.000242
0.000269
0.000270
0.000270
0.000246
0.000262
0.001369
0.000273
0.000236
0.000251
0.000269
0.000273
0.000281
0.000270
0.000254
0.000275
0.000245
0.000354
0.000361
0.000302
0.000056
0.000211
0.000260
0.000216
0.001492
0.000351
0.000220
0.000219
0.000252
0.000233
0.000247
0.000253
0.000266
0.000251
0.000251
0.000276
0.000240
0.000271
0.000253
0.000258
0.000258
0.001427
0.000271
0.000206
0.000303
0.000235
0.000246
0.000268
0.000276
0.000263
0.000489
0.000344
0.000054
0.000199
0.000234
0.000398
0.000278
0.000248
0.000256
0.001535
0.000343
0.000299
0.000221
0.000257
0.000315
0.000330
0.000230
0.000251
0.000230
0.000248
0.000261
0.000259
0.000258
0.000477
0.000564
0.001071
0.000279
0.000237
0.000249
0.000270
0.000255
0.000274
0.000270
0.000461
0.000056
0.000228
0.000335
0.000223
0.000230
0.000249
0.000247
0.000243
0.000227
0.000288
0.001619
0.000389
0.000256
0.000230
0.000258
0.000257
0.000246
0.000279
0.000257
0.000261
0.000307
0.000311
0.000501
0.000431
0.001366
0.000241
0.000254
0.000275
0.000259
0.000273
0.000276
0.000461
0.000056
0.000274
0.000238
0.000232
0.000247
0.000228
0.000229
0.000266
0.000267
0.000254
0.001574
0.000354
0.000253
0.000260
0.000263
0.000452
0.000278
0.000521
0.000376
0.000297
0.000338
0.000431
0.000460
0.001275
0.000258
0.000231
0.000262
0.001767
0.000403
0.000608
0.000319
0.000137
0.000056
0.000208
0.000234
0.000236
0.000239
0.000253
0.000244
0.000243
0.000515
0.000484
0.000420
0.000293
0.000207
0.000249
0.000262
0.000269
0.000256
0.000253
0.000244
0.000258
0.000276
0.000274
0.000449
0.001308
0.000225
0.000244
0.000277
0.001931
0.000358
0.000374
0.000352
0.000154
0.000055
0.000242
0.000243
0.000244
0.001623
0.000379
0.000203
0.000239
0.000256
0.000256
0.000295
0.000391
0.000354
0.000364
0.000272
0.000243
0.000630
0.000356
0.001175
0.000290
0.000219
0.000248
0.000265
0.000276
0.000409
0.000658
0.000431
0.000237
0.000258
0.000273
0.000279
0.000191
0.000055
0.000183
0.000231
0.000249
0.001599
0.000196
0.000224
0.000237
0.000258
0.000240
0.000255
0.000258
0.000282
0.000250
0.000273
0.000260
0.000534
0.000304
0.000305
0.001401
0.000243
0.000251
0.000259
0.000258
0.000267
0.000411
0.000490
0.000398
0.000280
0.000287
0.000219
0.000444
0.000055
0.000199
0.000241
0.000247
0.001531
0.000318
0.000215
0.000268
0.000243
0.000252
0.000256
0.000253
0.000252
0.000276
0.000244
0.000331
0.000546
0.001424
0.000794
0.000223
0.000331
0.000256
0.000223
0.000245
0.000273
0.001678
0.000813
0.000221
0.000269
0.000273
0.000286
0.000188
0.000055
0.000204
0.000229
0.000254
0.000245
0.000255
0.000245
0.000240
0.000257
0.000242
0.000233
0.000288
0.000280
0.000255
0.000247
0.000258
0.000249
0.000281
0.002064
0.000245
0.000400
0.000288
0.000215
0.000253
0.000284
0.000263
0.000277
0.000260
0.000252
0.001395
0.000420
0.000302
0.000055
0.000183
0.000233
0.000249
0.000256
0.000259
0.000237
0.000244
0.000251
0.000257
0.000266
0.000291
0.000472
0.000380
0.000321
0.000216
0.000244
0.000266
0.001394
0.000710
0.000458
0.000339
0.000265
0.000220
0.000256
0.000268
0.000251
0.000268
0.000259
0.001503
0.000383
0.000235
0.000056
0.000180
0.000230
0.000242
0.000250
0.000246
0.000252
0.000235
0.000249
0.000269
0.000261
0.000389
0.000400
0.000299
0.000213
0.000239
0.000249
0.000265
0.000249
0.001595
0.000625
0.000474
0.000292
0.000229
0.000256
0.000263
0.000260
0.000264
0.000285
0.000265
0.001425
0.000268
0.000056
0.000219
0.000218
0.000231
0.000254
0.000254
0.000246
0.000268
0.000298
0.000362
0.000430
0.000407
0.000327
0.000388
0.000221
0.000235
0.000255
0.000278
0.000254
0.000272
0.001915
0.000336
0.000237
0.000434
0.000263
0.000238
0.000265
0.000268
0.000256
0.000272
0.000273
0.000308
0.000055
0.000284
0.000234
0.000233
0.000255
0.000236
0.000250
0.000225
0.000243
0.000267
0.000248
0.000247
0.000238
0.000366
0.000345
0.000489
0.000441
0.000223
0.000269
0.000251
0.000245
0.000262
0.000293
0.001465
0.001047
0.000220
0.000249
0.000272
0.000263
0.000277
0.000247
0.000202
0.000056
0.000190
0.001351
0.000289
0.000218
0.000245
0.000233
0.000255
0.000236
0.000242
0.000247
0.000269
0.000253
0.000240
0.000352
0.000396
0.000482
0.000256
0.000246
0.000277
0.000251
0.000269
0.000232
0.000256
0.000270
0.001328
0.000680
0.000310
0.000396
0.000404
0.000363
0.000295
0.000057
0.000198
0.000234
0.001444
0.000243
0.000235
0.000253
0.000205
0.000253
0.000259
0.000257
0.000244
0.000249
0.000263
0.000382
0.000578
0.000273
0.000213
0.000281
0.000335
0.000230
0.000229
0.000274
0.000228
0.000281
0.000263
0.001546
0.000756
0.000280
0.000269
0.000270
0.000193
0.000056
0.000204
0.000259
0.000456
0.000326
0.001309
0.000253
0.000232
0.000223
0.000232
0.000249
0.000246
0.000262
0.000228
0.000237
0.000262
0.000249
0.000270
0.000239
0.000256
0.000251
0.000263
0.000268
0.000307
0.000340
0.000212
0.000263
0.000265
0.001465
0.000259
0.000247
0.000164
0.000055
0.000188
0.000253
0.000232
0.000269
0.000352
0.000380
0.000391
0.000268
0.001575
0.000220
0.000296
0.000494
0.000372
0.000223
0.000434
0.000235
0.000234
0.000257
0.000280
0.000266
0.000287
0.000266
0.000257
0.000264
0.000247
0.000452
0.000351
0.000348
0.001582
0.000221
0.000177
0.000056
0.000210
0.000245
0.000241
0.000248
0.000242
0.000248
0.000259
0.000271
0.000437
0.002057
0.000229
0.000236
0.000253
0.000263
0.000260
0.000251
0.000273
0.000251
0.000289
0.000486
0.000298
0.000447
0.001453
0.000256
0.000526
0.000233
0.001770
0.000233
0.000277
0.001518
0.000152
0.000073
0.000289
0.000423
0.000483
0.000244
0.000266
0.000219
0.000262
0.000271
0.000260
0.000231
0.000249
0.000332
0.000476
0.000293
0.000462
0.000213
0.000226
0.001572
0.000228
0.000609
0.001848
0.000305
0.000219
0.001569
0.001996
0.000742
0.000276
0.000254
0.000310
0.000414
0.000390
0.000055
0.000206
0.000243
0.000243
0.000252
0.001425
0.001729
0.001079
0.000222
0.000223
0.001588
0.001973
0.000210
0.000233
0.000430
0.000279
0.000365
0.000409
0.000493
0.000221
0.000232
0.000248
0.000255
0.000292
0.001583
0.001217
0.001420
0.000264
0.000299
0.000248
0.000383
0.000283
0.000055
0.000225
0.000216
0.000239
0.000243
0.000230
0.000246
0.000251
0.000243
0.000265
0.000249
0.000240
0.000281
0.000425
0.000518
0.000276
0.000247
0.000276
0.000252
0.000265
0.000270
0.000251
0.000264
0.001539
0.000453
0.002117
0.000228
0.000279
0.000314
0.000430
0.000406
0.000191
0.000055
0.000207
0.000339
0.000502
0.000312
0.000190
0.000226
0.000257
0.000240
0.000239
0.000253
0.000239
0.000266
0.000261
0.001610
0.001359
0.001219
0.000266
0.000249
0.000239
0.000277
0.000285
0.000278
0.000242
0.000253
0.002207
0.000245
0.000248
0.000305
0.000323
0.000304
0.000215
0.000057
0.000215
0.000388
0.000514
0.000329
0.000239
0.000229
0.000243
0.000270
0.001913
0.001418
0.000212
0.000354
0.000369
0.000410
0.000259
0.000222
0.000252
0.000269
0.000287
0.000241
0.000254
0.000260
0.000479
0.000234
0.000270
0.000270
0.000250
0.000277
0.000284
0.000246
0.000203
0.000057
0.000197
0.000255
0.000237
0.000241
0.000254
0.000276
0.001543
0.001418
0.001323
0.000254
0.000215
0.000242
0.000268
0.000263
0.000245
0.000255
0.000241
0.002115
0.000257
0.000217
0.000277
0.000263
0.000256
0.000270
0.000258
0.000259
0.000270
0.000256
0.000273
0.000257
0.000174
0.000055
0.000199
0.002703
0.001376
0.000219
0.000303
0.000300
0.000229
0.000267
0.000255
0.000241
0.000256
0.000245
0.000234
0.000246
0.000270
0.000254
0.000273
0.000277
0.000261
0.000252
0.000270
0.000276
0.000275
0.000264
0.000249
0.000243
0.000267
0.000271
0.000259
0.000266
0.000369
0.000055
0.001547
0.000257
0.001231
0.000232
0.000225
0.000238
0.000266
0.000250
0.000238
0.000331
0.000372
0.000357
0.000326
0.000200
0.000250
0.002147
0.000236
0.000248
0.000350
0.000453
0.000321
0.000332
0.000219
0.000272
0.000252
0.000251
0.000265
0.000282
0.000260
0.001618
0.001261
0.000055
0.000203
0.000222
0.000250
0.000458
0.000312
0.000326
0.000205
0.000232
0.000248
0.000264
0.000261
0.000252
0.000227
0.000253
0.000259
0.000243
0.000408
0.000525
0.000377
0.000238
0.000234
0.000275
0.000289
0.000233
0.000257
0.000241
0.000270
0.000276
0.000241
0.000347
0.000324
0.000056
0.001122
0.000239
0.000345
0.000486
0.000245
0.000221
0.000233
0.000236
0.000251
0.002305
0.000363
0.000390
0.000213
0.000377
0.000279
0.000263
0.000272
0.000250
0.000264
0.000227
0.000253
0.000307
0.000562
0.000462
0.001873
0.001336
0.000549
0.000493
0.000229
0.000277
0.000191
0.000055
0.000272
0.000305
0.000239
0.000246
0.000244
0.000231
0.000250
0.000256
0.000273
0.000232
0.000255
0.000226
0.000242
0.000259
0.000384
0.000513
0.001863
0.001296
0.000470
0.000417
0.000459
0.000241
0.000241
0.000269
0.002120
0.000592
0.000360
0.000229
0.000276
0.000281
0.000191
0.000059
0.000212
0.000226
0.000254
0.000242
0.000244
0.000326
0.000445
0.000303
0.000299
0.000238
0.000247
0.000245
0.000266
0.002120
0.000550
0.000192
0.000220
0.000244
0.000270
0.000258
0.000251
0.002457
0.000345
0.000224
0.000251
0.000252
0.000255
0.000271
0.000285
0.000279
0.000190
0.000055
0.000189
0.000374
0.000543
0.000350
0.000257
0.000223
0.000233
0.000251
0.000263
0.000254
0.002028
0.000323
0.000271
0.000292
0.000212
0.000265
0.000276
0.000238
0.002214
0.000449
0.000213
0.000264
0.000280
0.000249
0.000260
0.000254
0.000280
0.000248
0.000270
0.000254
0.000187
0.000055
0.000222
0.000233
0.000257
0.000218
0.000247
0.000257
0.000239
0.000242
0.000234
0.002182
0.000254
0.000258
0.000213
0.000426
0.000228
0.000248
0.000281
0.000288
0.000255
0.000251
0.001963
0.000294
0.000384
0.000371
0.000390
0.000396
0.000306
0.000245
0.000249
0.000258
0.000208
0.000055
0.000188
0.000233
0.000243
0.000242
0.000261
0.000321
0.000234
0.002294
0.000229
0.000240
0.000263
0.000254
0.000241
0.000250
0.000303
0.002125
0.000594
0.000224
0.000253
0.000250
0.000250
0.000264
0.000279
0.000285
0.000253
0.000249
0.000289
0.000256
0.000262
0.000259
0.000198
0.000055
0.001832
0.001441
0.000196
0.000224
0.000248
0.000254
0.000251
0.000264
0.000486
0.002217
0.000307
0.000185
0.000235
0.000262
0.000316
0.000459
0.000416
0.000307
0.000210
0.000245
0.000251
0.000265
0.000269
0.000226
0.000252
0.000282
0.000256
0.000261
0.000287
0.000691
0.000320
0.000056
0.000199
0.000246
0.000244
0.000274
0.000254
0.000247
0.000254
0.000241
0.001464
0.002128
0.000587
0.000290
0.000393
0.000688
0.000371
0.000218
0.000256
0.000250
0.000263
0.000262
0.000263
0.000237
0.000253
0.000266
0.001828
0.001459
0.000282
0.000273
0.000295
0.000313
0.000396
0.000056
0.001947
0.000243
0.000204
0.000228
0.000314
0.000341
0.000521
0.000232
0.000309
0.000196
0.000247
0.000248
0.000259
0.000259
0.000266
0.000259
0.000248
0.000263
0.001851
0.000237
0.000226
0.000257
0.000275
0.000284
0.000273
0.000256
0.001464
0.000327
0.000268
0.000240
0.000179
0.000055
0.000191
0.000256
0.000220
0.000242
0.000253
0.000238
0.000310
0.000413
0.000267
0.000418
0.000195
0.000269
0.000243
0.000337
0.000431
0.000313
0.000216
0.000247
0.000265
0.000401
0.000439
0.000415
0.000288
0.000231
0.000257
0.000257
0.000254
0.000271
0.000281
0.000258
0.000200
0.000055
0.001448
0.000420
0.000229
0.001936
0.000270
0.000441
0.000425
0.000314
0.000223
0.000251
0.000252
0.000244
0.000241
0.000254
0.000264
0.000259
0.000440
0.000366
0.000363
0.000318
0.000402
0.000209
0.000253
0.000271
0.000273
0.000266
0.000260
0.000279
0.000369
0.000485
0.001340
0.000055
0.000208
0.000216
0.002080
0.000308
0.000308
0.000254
0.000258
0.000245
0.000262
0.000266
0.000211
0.000251
0.000255
0.000265
0.000256
0.000360
0.002227
0.000259
0.000215
0.000248
0.000252
0.000281
0.000381
0.000413
0.001590
0.000276
0.000366
0.001921
0.000277
0.000245
0.000189
0.000055
0.000203
0.000225
0.000235
0.000241
0.000229
0.000253
0.000249
0.000286
0.000328
0.000281
0.000381
0.000353
0.000341
0.000296
0.000236
0.000272
0.000261
0.000238
0.000265
0.000252
0.000302
0.000286
0.000266
0.000263
0.000269
0.001513
0.000287
0.000398
0.002052
0.000228
0.000174
0.000057
0.000227
0.000230
0.000236
0.000249
0.000477
0.000218
0.000249
0.000321
0.000400
0.000318
0.000277
0.000213
0.000261
0.000266
0.000269
0.000333
0.000386
0.000466
0.000254
0.000395
0.000591
0.000306
0.001664
0.000229
0.000254
0.001961
0.000353
0.000243
0.000243
0.000294
0.000188
0.000056
0.000218
0.000237
0.000228
0.000243
0.000247
0.000272
0.000256
0.000270
0.000252
0.000250
0.001836
0.000316
0.000377
0.000355
0.000392
0.000399
0.000302
0.001504
0.000241
0.000280
0.002098
0.000587
0.000269
0.000224
0.000264
0.000269
0.000504
0.000224
0.000252
0.000282
0.000197
0.000056
0.000289
0.000309
0.000403
0.000299
0.000204
0.000230
0.000260
0.000272
0.000254
0.000291
0.000224
0.000249
0.000257
0.000277
0.000346
0.001510
0.000315
0.000208
0.000274
0.001913
0.000390
0.000259
0.000248
0.000268
0.000243
0.000281
0.000269
0.000259
0.000258
0.000259
0.000200
0.000055
0.000280
0.000475
0.001926
0.000246
0.000266
0.000216
0.000243
0.000296
0.000423
0.000450
0.001307
0.000403
0.000334
0.002078
0.000206
0.000248
0.000264
0.000274
0.000257
0.000241
0.000282
0.000299
0.000252
0.000301
0.000623
0.000334
0.000278
0.002216
0.000529
0.000440
0.000396
0.000055
0.000200
0.000224
0.000254
0.001963
0.000230
0.000225
0.000243
0.000238
0.000241
0.000259
0.000248
0.000260
0.000246
0.000306
0.000411
0.001480
0.000248
0.000243
0.000272
0.000258
0.000234
0.000251
0.000261
0.000272
0.000393
0.000371
0.000494
0.000231
0.001595
0.000299
0.000147
0.000055
0.000196
0.000226
0.000249
0.000232
0.000249
0.000252
0.000264
0.000233
0.000266
0.000403
0.000340
0.001402
0.000254
0.000208
0.000245
0.000269
0.000247
0.000264
0.000491
0.000295
0.000417
0.000424
0.000233
0.001568
0.000228
0.000262
0.000284
0.000280
0.000262
0.000275
0.000184
0.000055
0.000216
0.000226
0.000266
0.000269
0.000246
0.000247
0.000241
0.000237
0.000273
0.000220
0.000254
0.000258
0.000253
0.001485
0.000368
0.000210
0.000246
0.000271
0.000328
0.000261
0.000430
0.000218
0.000243
0.000252
0.000266
0.000267
0.000256
0.001414
0.000279
0.000230
0.000169
0.000055
0.000204
0.000226
0.000261
0.000258
0.000258
0.000232
0.000251
0.000258
0.000227
0.000262
0.000244
0.000257
0.000227
0.000297
0.000421
0.000299
0.000283
0.000235
0.001643
0.000238
0.000237
0.000263
0.000280
0.000272
0.000359
0.000403
0.000453
0.000255
0.000261
0.001609
0.000157
0.000057
0.000340
0.000297
0.000379
0.000288
0.000236
0.000220
0.000239
0.000275
0.000251
0.000242
0.000241
0.000239
0.001469
0.000293
0.000300
0.000222
0.000246
0.000256
0.000272
0.000260
0.000253
0.000243
0.000257
0.000271
0.000278
0.000337
0.000460
0.000418
0.000216
0.000254
0.000200
0.000055
0.000201
0.000241
0.000428
0.000350
0.000411
0.000246
0.000250
0.000249
0.000254
0.000255
0.000242
0.000227
0.000257
0.000247
0.001247
0.000300
0.000235
0.000257
0.000266
0.000273
0.000228
0.000272
0.000250
0.000263
0.000260
0.000252
0.000302
0.000681
0.000474
0.000221
0.000183
0.000055
0.000195
0.001559
0.000222
0.000347
0.000488
0.000363
0.000210
0.000253
0.000266
0.000263
0.000235
0.000258
0.000268
0.000273
0.000259
0.001519
0.000260
0.000288
0.000264
0.000250
0.000266
0.000251
0.000262
0.000264
0.000260
0.000263
0.000412
0.000383
0.000370
0.000238
0.000180
0.000056
0.000210
0.000252
0.000236
0.001624
0.000461
0.000300
0.000222
0.000245
0.000249
0.000268
0.000277
0.000254
0.000248
0.000265
0.000234
0.000268
0.000374
0.001347
0.000260
0.000236
0.001484
0.000437
0.000499
0.000381
0.000308
0.000229
0.000272
0.000460
0.000244
0.000255
0.000190
0.000055
0.000286
0.000216
0.000244
0.000246
0.000250
0.000256
0.000238
0.000255
0.000275
0.000219
0.000254
0.000258
0.000384
0.000432
0.001663
0.001494
0.000374
0.000484
0.000387
0.000215
0.000225
0.000263
0.000250
0.000264
0.000244
0.000267
0.000259
0.000276
0.001523
0.000353
0.000132
0.000055
0.000187
0.000357
0.000353
0.000330
0.000226
0.000220
0.000244
0.000339
0.000445
0.000400
0.002143
0.000321
0.000688
0.000488
0.000492
0.000286
0.000315
0.000401
0.000322
0.000278
0.000386
0.000248
0.001555
0.000525
0.000219
0.000260
0.000254
0.000249
0.000268
0.000267
0.000198
0.000056
0.000199
0.000248
0.000255
0.000249
0.000247
0.001656
0.000885
0.000999
0.000210
0.000227
0.000260
0.000260
0.000257
0.000260
0.000256
0.000246
0.000257
0.000265
0.000263
0.000284
0.001434
0.000307
0.000263
0.000225
0.000230
0.000261
0.000260
0.000284
0.000267
0.000279
0.001903
0.000071
0.000180
0.000219
0.001553
0.000995
0.000225
0.000380
0.000241
0.000235
0.000235
0.000254
0.000245
0.000252
0.000247
0.001985
0.000474
0.000259
0.000209
0.000253
0.000269
0.000258
0.000193
