0.000379
0.020046
0.001388
0.000295
0.000267
0.000297
0.000322
0.000307
0.000254
0.000283
0.000252
0.000330
0.000497
0.000498
0.000363
0.000380
0.000276
0.000339
0.000358
0.000417
0.000313
0.001913
0.000700
0.000274
0.000257
0.000295
0.000314
0.000308
0.000422
0.000446
0.000435
0.000319
0.000057
0.000214
0.000267
0.000267
0.000294
0.000246
0.000255
0.000277
0.000291
0.000256
0.000278
0.000420
0.000454
0.000298
0.000251
0.000373
0.000352
0.000381
0.000236
0.000249
0.001697
0.000317
0.000254
0.000450
0.000268
0.000261
0.000291
0.000278
0.000287
0.000280
0.000330
0.000409
0.000058
0.000190
0.000254
0.000259
0.000265
0.000250
0.000248
0.000262
0.000257
0.000281
0.001668
0.000230
0.000230
0.000274
0.000267
0.000279
0.000252
0.000264
0.000257
0.000349
0.001799
0.000235
0.000287
0.000440
0.000432
0.000397
0.000222
0.000298
0.000465
0.000470
0.000771
0.000198
0.000057
0.000233
0.000244
0.000253
0.000239
0.000311
0.000253
0.000307
0.000580
0.000347
0.000262
0.000236
0.000255
0.000241
0.000254
0.000252
0.000261
0.000240
0.000271
0.000301
0.000331
0.001660
0.000280
0.000244
0.000418
0.000299
0.000733
0.000617
0.000541
0.000352
0.000245
0.000181
0.000058
0.000197
0.000243
0.000294
0.000213
0.000284
0.000230
0.000290
0.000450
0.001456
0.000231
0.000239
0.000243
0.000255
0.000254
0.000263
0.000300
0.000291
0.000779
0.001383
0.000300
0.000238
0.000408
0.000250
0.000244
0.000277
0.000240
0.000267
0.000266
0.000263
0.000263
0.000198
0.000056
0.000215
0.000242
0.000244
0.000267
0.000240
0.000248
0.000238
0.000253
0.000258
0.000234
0.001626
0.000271
0.000237
0.000236
0.000255
0.000244
0.000250
0.000248
0.000254
0.000253
0.000294
0.001642
0.000287
0.000259
0.000422
0.000252
0.000264
0.000261
0.000259
0.000278
0.000193
0.000057
0.000196
0.000228
0.000249
0.000266
0.000226
0.000245
0.000264
0.000232
0.000266
0.000263
0.000243
0.000260
0.000256
0.000270
0.001628
0.000281
0.000299
0.000213
0.000255
0.000271
0.000271
0.000231
0.000251
0.000289
0.001760
0.000399
0.000336
0.000375
0.000239
0.000276
0.000217
0.000056
0.000181
0.000235
0.000249
0.000264
0.000263
0.000263
0.000279
0.000371
0.000456
0.000399
0.000210
0.000244
0.000276
0.000228
0.001558
0.000539
0.000316
0.000410
0.000316
0.000233
0.000268
0.000285
0.000270
0.001731
0.000525
0.000452
0.000257
0.000242
0.000250
0.000259
0.000192
0.000057
0.000197
0.000230
0.000254
0.000339
0.000262
0.000431
0.000400
0.000274
0.000214
0.000248
0.000263
0.000235
0.000257
0.001695
0.000492
0.000301
0.000225
0.000250
0.000273
0.000290
0.000242
0.000258
0.000274
0.001960
0.000235
0.000390
0.000244
0.000258
0.000283
0.000383
0.000326
0.000057
0.000211
0.000429
0.000316
0.000269
0.000254
0.000251
0.000249
0.000256
0.000241
0.000235
0.000241
0.000247
0.001553
0.000342
0.000320
0.000228
0.000258
0.000246
0.000255
0.000307
0.000323
0.000254
0.000248
0.001804
0.000248
0.000505
0.000244
0.000258
0.000273
0.000253
0.000264
0.000057
0.000364
0.000529
0.000611
0.000207
0.000236
0.000274
0.000231
0.000225
0.000258
0.000256
0.000248
0.001698
0.000253
0.000442
0.000363
0.000223
0.000235
0.000236
0.000260
0.000245
0.000295
0.001813
0.000229
0.000470
0.001870
0.000548
0.000330
0.000245
0.000258
0.000265
0.000188
0.000056
0.000215
0.000243
0.000247
0.000241
0.000278
0.001600
0.000243
0.000242
0.000256
0.000251
0.000241
0.000246
0.000253
0.000256
0.000292
0.000451
0.000570
0.000249
0.000241
0.000269
0.000291
0.000221
0.000245
0.000432
0.000443
0.000310
0.000342
0.000486
0.000445
0.000286
0.000204
0.000055
0.000202
0.000244
0.000249
0.000255
0.000238
0.000237
0.000259
0.000461
0.000355
0.001730
0.000206
0.000235
0.000240
0.000249
0.000260
0.000281
0.000537
0.000366
0.000348
0.000237
0.000261
0.000307
0.000275
0.000255
0.000271
0.000431
0.000342
0.000715
0.000360
0.000448
0.000176
0.000056
0.000194
0.000253
0.000250
0.000236
0.000230
0.000239
0.000250
0.000259
0.000229
0.000288
0.000342
0.000471
0.001367
0.000238
0.000239
0.000242
0.000263
0.000247
0.000251
0.000268
0.000303
0.000364
0.000448
0.000276
0.000269
0.000257
0.000257
0.000269
0.000263
0.000266
0.000377
0.000056
0.000215
0.000233
0.000237
0.000275
0.000513
0.000461
0.000214
0.000280
0.000217
0.000260
0.000260
0.000229
0.000317
0.000227
0.000242
0.000472
0.000560
0.001501
0.000279
0.000237
0.000258
0.000271
0.000254
0.000243
0.000311
0.000345
0.000510
0.000343
0.000417
0.000252
0.000192
0.000057
0.000239
0.000432
0.000229
0.000220
0.000287
0.000240
0.000264
0.000576
0.000393
0.000255
0.000233
0.000282
0.000257
0.000238
0.000526
0.000331
0.000229
0.000267
0.000399
0.001624
0.000268
0.000237
0.000523
0.000254
0.000289
0.000273
0.000264
0.000385
0.000504
0.000367
0.000270
0.000057
0.000220
0.000232
0.000235
0.000244
0.000418
0.000312
0.000289
0.000236
0.000472
0.000424
0.000378
0.000209
0.000246
0.000243
0.000254
0.000268
0.000255
0.000256
0.000233
0.000351
0.000284
0.000370
0.001832
0.000220
0.000260
0.000251
0.000281
0.000346
0.000409
0.000716
0.000425
0.000056
0.000219
0.000333
0.000316
0.000409
0.000381
0.000208
0.000260
0.000357
0.000433
0.000426
0.000265
0.000238
0.000236
0.000278
0.000257
0.000231
0.000252
0.000278
0.000267
0.000257
0.000279
0.000341
0.000811
0.001241
0.000321
0.000433
0.000422
0.000242
0.000570
0.000278
0.000315
0.000057
0.000223
0.000381
0.000277
0.000209
0.000230
0.000249
0.000413
0.000237
0.000275
0.000328
0.000433
0.000378
0.000301
0.000258
0.000262
0.000248
0.000347
0.000396
0.000342
0.000256
0.000246
0.000454
0.000621
0.001622
0.000236
0.000415
0.000315
0.000232
0.000245
0.000478
0.000324
0.000056
0.000195
0.000227
0.000250
0.000260
0.000250
0.000235
0.000251
0.000322
0.000460
0.000312
0.000411
0.000353
0.000299
0.000578
0.000254
0.000232
0.000280
0.000263
0.000226
0.000346
0.000215
0.000258
0.000275
0.000438
0.000425
0.001696
0.000268
0.000235
0.000253
0.000262
0.000196
0.000057
0.000408
0.000378
0.000337
0.000214
0.000250
0.000245
0.000256
0.000240
0.000272
0.000232
0.000226
0.000262
0.000403
0.000520
0.000454
0.000226
0.000244
0.000261
0.000337
0.000381
0.000383
0.000334
0.000362
0.000393
0.000265
0.000238
0.000287
0.000259
0.001789
0.000229
0.000214
0.000056
0.000212
0.000222
0.000260
0.000290
0.000334
0.000538
0.000317
0.000228
0.000285
0.000233
0.000249
0.000250
0.000516
0.000450
0.000484
0.000271
0.000264
0.000265
0.000417
0.000468
0.000355
0.000413
0.000522
0.000412
0.000237
0.000246
0.000265
0.000251
0.000259
0.001716
0.000322
0.000056
0.000292
0.000336
0.000199
0.000235
0.000255
0.000252
0.000232
0.000501
0.000369
0.000312
0.000290
0.000252
0.000426
0.000569
0.000368
0.000245
0.000240
0.000255
0.000251
0.000267
0.000278
0.000263
0.000240
0.000261
0.000334
0.000347
0.000408
0.000349
0.000231
0.000269
0.000179
0.000057
0.000450
0.000286
0.000460
0.000262
0.000210
0.000248
0.000242
0.000258
0.000241
0.000220
0.000251
0.000276
0.000304
0.000433
0.000441
0.000468
0.000324
0.000315
0.000392
0.000332
0.000298
0.000237
0.000248
0.000264
0.001740
0.000253
0.001736
0.000943
0.000391
0.000320
0.000171
0.000056
0.000203
0.000240
0.000237
0.000241
0.000274
0.000238
0.000252
0.000253
0.000243
0.000340
0.000325
0.000441
0.000336
0.000385
0.000271
0.000224
0.000268
0.000288
0.000224
0.000248
0.000252
0.000263
0.001802
0.000248
0.000257
0.000262
0.000279
0.000265
0.001865
0.000587
0.000208
0.000056
0.000214
0.000208
0.000247
0.000237
0.000264
0.000237
0.000242
0.000257
0.000262
0.000340
0.000595
0.000318
0.000371
0.000232
0.000239
0.000265
0.000316
0.000434
0.000368
0.000255
0.001770
0.000265
0.000244
0.000255
0.000263
0.000264
0.000244
0.000255
0.000321
0.000335
0.000339
0.000057
0.000251
0.000217
0.000246
0.000271
0.000240
0.000239
0.000258
0.000250
0.000244
0.000253
0.000244
0.000310
0.000356
0.000391
0.000328
0.000269
0.000462
0.000240
0.000250
0.000258
0.000258
0.000266
0.000270
0.000256
0.000280
0.001771
0.000261
0.000251
0.000264
0.000238
0.000197
0.000056
0.000236
0.000367
0.000227
0.000237
0.000237
0.000236
0.000236
0.000260
0.000242
0.000225
0.000234
0.000263
0.000269
0.000366
0.000387
0.000358
0.000309
0.000223
0.000254
0.000254
0.000262
0.000262
0.000247
0.000270
0.000251
0.000265
0.000320
0.001662
0.000224
0.000238
0.000190
0.000058
0.000181
0.000233
0.000249
0.000269
0.000334
0.000365
0.000357
0.000352
0.000226
0.000255
0.000270
0.000228
0.000246
0.000256
0.000260
0.000261
0.000242
0.000255
0.000254
0.000261
0.000269
0.000265
0.000246
0.000237
0.000240
0.000288
0.000274
0.000259
0.000254
0.000282
0.000172
0.000056
0.000246
0.000214
0.000254
0.000279
0.000230
0.000234
0.000246
0.000259
0.000282
0.000242
0.000226
0.000255
0.000250
0.000267
0.000271
0.000241
0.000255
0.000250
0.000301
0.000253
0.000272
0.000318
0.000265
0.000228
0.000302
0.000250
0.000269
0.000245
0.000306
0.000388
0.000712
0.000057
0.000222
0.000293
0.000226
0.000227
0.000233
0.000253
0.000241
0.000251
0.000249
0.000245
0.000268
0.000405
0.000409
0.000507
0.001503
0.000211
0.000489
0.000243
0.000257
0.000426
0.000439
0.000394
0.000230
0.000277
0.000244
0.000264
0.000283
0.000257
0.000329
0.000255
0.000170
0.000057
0.000304
0.000417
0.000340
0.000312
0.000229
0.000275
0.000232
0.000236
0.000239
0.000238
0.000258
0.000257
0.000228
0.000426
0.000224
0.000465
0.000411
0.001785
0.000235
0.000255
0.000478
0.000313
0.000445
0.000271
0.000314
0.000322
0.000299
0.000232
0.000228
0.000257
0.000194
0.000056
0.000227
0.000227
0.000241
0.000300
0.000440
0.000344
0.000346
0.000256
0.000261
0.000208
0.000246
0.000270
0.000272
0.000261
0.000244
0.000255
0.000274
0.000518
0.000339
0.000436
0.000238
0.001748
0.000326
0.000516
0.000481
0.000471
0.000331
0.000233
0.000245
0.000267
0.000448
0.000057
0.000218
0.000265
0.000218
0.000355
0.000317
0.000544
0.000324
0.000239
0.000227
0.000289
0.000248
0.000258
0.000251
0.000297
0.000308
0.000246
0.000223
0.000414
0.000461
0.000317
0.000501
0.001838
0.000277
0.000549
0.000363
0.000366
0.000239
0.000245
0.000301
0.000259
0.000194
0.000055
0.000206
0.000337
0.000360
0.000340
0.000461
0.000261
0.000334
0.000220
0.000236
0.000256
0.000274
0.000227
0.000252
0.000260
0.000240
0.000258
0.000353
0.000444
0.000403
0.000357
0.000306
0.000244
0.000256
0.001702
0.000443
0.000585
0.000595
0.000244
0.000257
0.000310
0.000162
0.000055
0.000195
0.000233
0.000351
0.000232
0.000293
0.000304
0.000479
0.000288
0.000257
0.000506
0.000231
0.000251
0.000261
0.000277
0.000272
0.000267
0.000213
0.000326
0.000480
0.000458
0.000252
0.000233
0.000257
0.000253
0.000259
0.000269
0.000240
0.000256
0.000263
0.000290
0.000191
0.000057
0.000331
0.000363
0.000194
0.000258
0.000251
0.000257
0.000240
0.000277
0.000255
0.000244
0.000280
0.000330
0.000514
0.000292
0.000430
0.000225
0.000209
0.000235
0.000260
0.000269
0.000283
0.000274
0.000225
0.000256
0.000281
0.000350
0.000351
0.000393
0.000362
0.000253
0.000157
0.000056
0.000215
0.000224
0.000280
0.000243
0.000239
0.000270
0.000264
0.000234
0.000492
0.000216
0.000254
0.000263
0.000234
0.000267
0.000269
0.000297
0.000242
0.000354
0.000209
0.000248
0.000257
0.000267
0.000252
0.000273
0.000272
0.000262
0.000266
0.000270
0.000237
0.000497
0.000166
0.000057
0.000203
0.000237
0.000260
0.000281
0.000201
0.000240
0.000372
0.000402
0.000230
0.000238
0.000256
0.000250
0.000239
0.000252
0.000380
0.001851
0.000235
0.000263
0.000287
0.000327
0.000405
0.000376
0.000362
0.000427
0.000441
0.000317
0.000242
0.000274
0.000267
0.000276
0.001399
0.000056
0.000377
0.000263
0.000292
0.000199
0.000241
0.000249
0.000236
0.000256
0.000243
0.000275
0.000242
0.000258
0.000251
0.000357
0.000490
0.001615
0.000240
0.000229
0.000265
0.000244
0.000237
0.000275
0.000410
0.000364
0.000285
0.000329
0.000222
0.000268
0.000272
0.000264
0.000199
0.000056
0.001264
0.000511
0.000273
0.000282
0.000246
0.000218
0.000230
0.000243
0.000496
0.000205
0.000243
0.000251
0.000563
0.000270
0.000415
0.000349
0.000263
0.000233
0.000320
0.000377
0.000259
0.000255
0.000270
0.000263
0.000252
0.000558
0.000520
0.000305
0.000267
0.000266
0.000168
0.000056
0.000200
0.000222
0.000241
0.000243
0.001423
0.000345
0.000227
0.000251
0.000259
0.000232
0.000249
0.000255
0.000240
0.000265
0.000270
0.000326
0.000415
0.000627
0.000263
0.001747
0.000258
0.000288
0.000289
0.000506
0.000478
0.000401
0.000255
0.000247
0.000258
0.000273
0.000201
0.000056
0.000237
0.000241
0.000231
0.000355
0.001211
0.000239
0.000260
0.000264
0.000235
0.000232
0.000240
0.000258
0.000276
0.000260
0.000233
0.000290
0.000514
0.000371
0.000326
0.000262
0.000264
0.000271
0.000246
0.000235
0.000281
0.000272
0.000239
0.000275
0.000275
0.000346
0.000596
0.000056
0.000206
0.000242
0.000241
0.000260
0.000279
0.000219
0.000240
0.000261
0.000287
0.000260
0.001420
0.000214
0.000244
0.000250
0.000248
0.000242
0.000295
0.000240
0.000282
0.000240
0.000328
0.000448
0.000506
0.000318
0.000236
0.000273
0.001753
0.000259
0.000261
0.000375
0.000369
0.000057
0.000196
0.000400
0.000450
0.000502
0.000515
0.000534
0.001511
0.000407
0.000524
0.000645
0.000558
0.000761
0.000495
0.000565
0.000583
0.001883
0.000433
0.000408
0.000408
0.000317
0.000223
0.000264
0.000294
0.000265
0.000275
0.000280
0.000286
0.000291
0.000258
0.000286
0.001365
0.000056
0.000215
0.000230
0.000247
0.000243
0.000255
0.000253
0.000240
0.000244
0.000247
0.000254
0.000247
0.000230
0.000254
0.000263
0.000263
0.000268
0.001798
0.000269
0.000265
0.000242
0.000259
0.000268
0.000266
0.000320
0.000375
0.000391
0.000354
0.000254
0.000260
0.000274
0.000204
0.000056
0.000213
0.001366
0.000328
0.000269
0.000252
0.000239
0.000243
0.000227
0.000239
0.000234
0.000225
0.000242
0.000245
0.000517
0.000357
0.000312
0.000245
0.001808
0.000361
0.000235
0.000238
0.000276
0.000261
0.000258
0.000274
0.000282
0.000269
0.000250
0.000270
0.000345
0.000178
0.000057
0.000223
0.000235
0.000255
0.001442
0.000216
0.000244
0.000253
0.000243
0.000242
0.000269
0.000247
0.000246
0.000246
0.000285
0.000239
0.000269
0.000248
0.000260
0.000267
0.000261
0.000256
0.001777
0.000287
0.001742
0.000262
0.000248
0.000276
0.000270
0.000263
0.000279
0.000200
0.000056
0.000212
0.000237
0.001348
0.000230
0.000247
0.000252
0.000257
0.000257
0.000244
0.000248
0.000256
0.000237
0.000259
0.000264
0.000279
0.000245
0.000259
0.000283
0.000310
0.000217
0.001877
0.000227
0.001837
0.000237
0.000271
0.000276
0.000228
0.000249
0.000257
0.000272
0.000195
0.000055
0.001432
0.000223
0.000228
0.000244
0.000243
0.000235
0.000371
0.000289
0.000246
0.000246
0.000250
0.000261
0.000233
0.000353
0.000389
0.000302
0.000241
0.000277
0.000270
0.000246
0.000266
0.000339
0.000231
0.000248
0.000274
0.000277
0.000276
0.000376
0.000609
0.000359
0.000187
0.000056
0.000191
0.000241
0.000263
0.000310
0.000369
0.000246
0.001717
0.000282
0.000284
0.000274
0.000256
0.000263
0.000267
0.000268
0.000300
0.000302
0.000333
0.000575
0.000393
0.000259
0.000289
0.000278
0.000262
0.000272
0.000329
0.000253
0.000276
0.000247
0.000259
0.000290
0.000440
0.000057
0.000273
0.000458
0.000266
0.000260
0.000251
0.000222
0.000228
0.000250
0.000259
0.000271
0.001538
0.000187
0.000222
0.000250
0.000247
0.000286
0.000281
0.000242
0.000251
0.000267
0.000265
0.000375
0.000533
0.000322
0.000269
0.000289
0.000266
0.000254
0.000234
0.000312
0.000172
0.000057
0.000200
0.000232
0.000376
0.000370
0.000369
0.000286
0.000214
0.000246
0.000253
0.000245
0.000238
0.000254
0.000255
0.000269
0.000240
0.000237
0.000389
0.001221
0.000250
0.000240
0.000279
0.000250
0.000350
0.000418
0.000245
0.000340
0.000603
0.000314
0.000377
0.000248
0.000183
0.000057
0.000220
0.000247
0.000265
0.000257
0.000257
0.000248
0.000361
0.000387
0.000419
0.000306
0.000351
0.000392
0.000395
0.000363
0.000255
0.000240
0.000242
0.000273
0.000335
0.000532
0.001245
0.000224
0.000278
0.000266
0.000238
0.000237
0.000265
0.000323
0.000421
0.000451
0.000217
0.000057
0.000207
0.000234
0.000260
0.000242
0.000235
0.000268
0.000215
0.000272
0.000296
0.000441
0.000348
0.000355
0.000273
0.000214
0.000253
0.000255
0.000249
0.000261
0.000269
0.000267
0.000423
0.000277
0.000375
0.000465
0.000248
0.000251
0.000272
0.000265
0.000250
0.000340
0.000158
0.000056
0.000326
0.000311
0.000285
0.000397
0.000459
0.000356
0.000233
0.000250
0.000245
0.000299
0.000228
0.000262
0.000234
0.000254
0.000249
0.000222
0.000282
0.000349
0.000609
0.000261
0.000210
0.000259
0.000243
0.000248
0.000262
0.000276
0.000278
0.000273
0.000270
0.000266
0.000320
0.000057
0.000371
0.000250
0.000236
0.000273
0.000226
0.000244
0.000244
0.000254
0.000263
0.000260
0.000254
0.000232
0.000346
0.000428
0.000440
0.000312
0.000228
0.000244
0.000251
0.000266
0.000256
0.000264
0.000255
0.000271
0.000272
0.000337
0.000418
0.000570
0.000404
0.000245
0.000182
0.000056
0.000391
0.000206
0.000221
0.000250
0.000253
0.000244
0.000239
0.000248
0.000258
0.000255
0.000225
0.000247
0.000271
0.000218
0.000251
0.000259
0.000252
0.000291
0.000273
0.000239
0.000262
0.000258
0.000268
0.000258
0.000269
0.000236
0.000268
0.000277
0.000253
0.000281
0.000198
0.000057
0.000187
0.000233
0.000244
0.000248
0.000228
0.000262
0.000262
0.000240
0.000258
0.000277
0.000230
0.000233
0.000262
0.000394
0.000256
0.000296
0.000244
0.000260
0.000260
0.000293
0.000258
0.000240
0.000237
0.000253
0.000275
0.000269
0.000253
0.000249
0.000276
0.000259
0.000209
0.000056
0.000223
0.000363
0.000366
0.000280
0.000294
0.000257
0.000280
0.000249
0.000223
0.000247
0.000301
0.000208
0.000247
0.000246
0.000271
0.000268
0.000236
0.000271
0.000239
0.000267
0.000274
0.000260
0.000282
0.000256
0.000296
0.000222
0.000264
0.000267
0.000268
0.000264
0.000195
0.000056
0.000217
0.000231
0.000262
0.000263
0.000253
0.000447
0.000209
0.000274
0.000254
0.000530
0.000413
0.000283
0.000224
0.000254
0.000274
0.000260
0.000234
0.000270
0.000256
0.000280
0.000261
0.000255
0.000261
0.000267
0.000494
0.000561
0.000256
0.000305
0.000256
0.000263
0.000187
0.000056
0.000191
0.000217
0.000246
0.000253
0.000396
0.000581
0.000307
0.000386
0.000205
0.000248
0.000251
0.000254
0.000248
0.000248
0.000257
0.000276
0.000271
0.000245
0.000647
0.000369
0.000300
0.000241
0.000257
0.000283
0.000281
0.000253
0.000264
0.000287
0.000237
0.000315
0.000348
0.000057
0.000251
0.000194
0.000238
0.000237
0.000257
0.000264
0.000215
0.000249
0.000239
0.000266
0.000244
0.000249
0.000354
0.000291
0.000619
0.000348
0.000223
0.000267
0.000256
0.000248
0.000269
0.000287
0.000475
0.000215
0.000270
0.000589
0.000444
0.000455
0.000260
0.000259
0.000178
0.000056
0.000219
0.000231
0.000247
0.000238
0.000256
0.000257
0.000328
0.000380
0.000613
0.000431
0.000217
0.000260
0.000277
0.000274
0.000255
0.000249
0.000229
0.000258
0.000268
0.000351
0.000353
0.000666
0.000366
0.000258
0.000350
0.000376
0.000499
0.000238
0.000259
0.000540
0.000249
0.000057
0.000265
0.000230
0.000441
0.000206
0.000241
0.000257
0.000261
0.000261
0.000231
0.000241
0.000346
0.000328
0.000453
0.000240
0.000240
0.000247
0.000262
0.000251
0.000266
0.000270
0.000297
0.000233
0.000251
0.000269
0.000298
0.000500
0.000485
0.000242
0.000253
0.000276
0.000197
0.000055
0.000200
0.000254
0.000227
0.000248
0.000246
0.000272
0.000330
0.000482
0.000369
0.000271
0.000378
0.000226
0.000256
0.000265
0.000250
0.000242
0.000256
0.000262
0.000340
0.000353
0.000505
0.000301
0.000498
0.000248
0.000381
0.000422
0.000382
0.000249
0.000255
0.000281
0.000431
0.000057
0.000194
0.000274
0.000221
0.000259
0.000277
0.000234
0.000288
0.000206
0.000270
0.000239
0.000240
0.000425
0.000406
0.000485
0.000236
0.000232
0.000265
0.000264
0.000270
0.000230
0.000249
0.000255
0.000268
0.000271
0.000281
0.000312
0.000525
0.000457
0.000241
0.000284
0.000193
0.000056
0.000209
0.000244
0.000275
0.000252
0.000238
0.000333
0.000499
0.000523
0.000443
0.000558
0.000261
0.000219
0.000243
0.000261
0.000243
0.000271
0.000276
0.000284
0.000467
0.000443
0.001481
0.000320
0.000268
0.000263
0.000281
0.000261
0.000433
0.000354
0.000379
0.000304
0.000183
0.000057
0.000195
0.000230
0.000247
0.000266
0.000230
0.000248
0.000304
0.000222
0.000243
0.000324
0.000330
0.000395
0.000252
0.000340
0.000395
0.000349
0.000247
0.000246
0.000272
0.000259
0.000239
0.000251
0.000309
0.000225
0.000323
0.000437
0.000461
0.000247
0.000262
0.000265
0.000189
0.000056
0.000189
0.000242
0.000260
0.000254
0.000241
0.000234
0.000478
0.000227
0.000215
0.000255
0.000245
0.000262
0.000254
0.000247
0.000258
0.000265
0.000261
0.000290
0.000263
0.000241
0.000282
0.000272
0.000287
0.000243
0.000265
0.000283
0.000280
0.000250
0.000263
0.000271
0.000171
0.000056
0.000194
0.000252
0.000287
0.000445
0.000348
0.000259
0.000237
0.000251
0.000257
0.000251
0.000248
0.000257
0.000281
0.000245
0.000239
0.000247
0.000257
0.000249
0.000285
0.000368
0.000411
0.000399
0.000230
0.000261
0.000264
0.000253
0.000272
0.000252
0.000268
0.000282
0.000201
0.000056
0.000349
0.000359
0.000455
0.000207
0.000257
0.000257
0.000410
0.000222
0.000228
0.000260
0.000248
0.000288
0.000351
0.000505
0.001811
0.000252
0.000237
0.000256
0.000274
0.000241
0.000311
0.000569
0.000545
0.000280
0.000226
0.000255
0.000279
0.000430
0.000279
0.000271
0.000170
0.000056
0.000213
0.000355
0.000332
0.000307
0.000499
0.000198
0.000248
0.000244
0.000252
0.000244
0.000263
0.000241
0.000266
0.000303
0.000396
0.000505
0.000216
0.000264
0.000245
0.000261
0.000259
0.000321
0.000236
0.000278
0.000277
0.000501
0.000453
0.000386
0.000468
0.000259
0.000189
0.000057
0.000212
0.000240
0.000258
0.000234
0.000245
0.000250
0.000270
0.000292
0.000326
0.000443
0.000397
0.000323
0.000211
0.000250
0.000269
0.000288
0.000293
0.000241
0.000276
0.000274
0.000234
0.000274
0.000476
0.000404
0.000277
0.000278
0.000243
0.000441
0.000412
0.000299
0.000192
0.000056
0.000203
0.000285
0.000314
0.000382
0.000395
0.000208
0.000253
0.000238
0.000263
0.000264
0.000256
0.000245
0.000227
0.000260
0.000259
0.000305
0.000406
0.000344
0.000289
0.000354
0.000489
0.000223
0.000284
0.000278
0.000294
0.000291
0.000242
0.000265
0.000515
0.000505
0.000175
0.000056
0.000212
0.000245
0.000228
0.000252
0.000244
0.000479
0.000214
0.000255
0.000265
0.000293
0.000515
0.000602
0.000208
0.000243
0.000242
0.000250
0.000257
0.000270
0.000239
0.000249
0.000290
0.000236
0.000444
0.000335
0.000589
0.000172
0.000302
0.000322
0.000297
0.000259
0.000181
0.000056
0.000200
0.000239
0.000269
0.000465
0.000327
0.000292
0.000263
0.000230
0.000242
0.000260
0.000254
0.000259
0.000268
0.000242
0.000249
0.000261
0.000243
0.000245
0.000270
0.000405
0.000558
0.000328
0.000217
0.000266
0.000265
0.000276
0.000262
0.000261
0.000263
0.000266
0.000196
0.000057
0.000254
0.000392
0.000473
0.000250
0.000213
0.000250
0.000320
0.000464
0.000284
0.000214
0.000240
0.000277
0.000261
0.000477
0.000398
0.000291
0.000237
0.000232
0.000250
0.000265
0.000271
0.000262
0.000261
0.000275
0.000265
0.000344
0.000316
0.000455
0.000300
0.000233
0.000202
0.000057
0.000213
0.000234
0.000251
0.000258
0.000244
0.000263
0.000230
0.000277
0.000252
0.000229
0.000265
0.000240
0.000289
0.001432
0.000220
0.000260
0.000258
0.000247
0.000278
0.000274
0.000263
0.000240
0.000273
0.000256
0.000268
0.000265
0.000273
0.000283
0.000248
0.000271
0.000194
0.000056
0.000198
0.000232
0.000252
0.000269
0.000226
0.000235
0.000260
0.000258
0.000229
0.000249
0.000248
0.000266
0.000255
0.000252
0.000252
0.000271
0.000238
0.000261
0.000271
0.000254
0.000256
0.000256
0.000250
0.000247
0.001289
0.000277
0.000602
0.000427
0.000317
0.000251
0.000189
0.000056
0.000200
0.000231
0.000242
0.000250
0.000428
0.000227
0.000239
0.000241
0.000256
0.000415
0.000385
0.000350
0.000231
0.000233
0.000266
0.000256
0.000265
0.000254
0.000250
0.000266
0.000255
0.000256
0.000325
0.000346
0.000524
0.000455
0.000220
0.000268
0.001356
0.000256
0.000183
0.000056
0.000307
0.000387
0.000331
0.000267
0.000230
0.000222
0.000238
0.000244
0.000262
0.000253
0.000265
0.000246
0.000301
0.000611
0.000242
0.000331
0.000334
0.000221
0.000255
0.000256
0.000266
0.000283
0.000247
0.000269
0.000268
0.000267
0.000358
0.000553
0.000352
0.000365
0.000142
0.000057
0.000204
0.000231
0.001258
0.000436
0.000324
0.000430
0.000383
0.000482
0.000267
0.000339
0.000222
0.000241
0.000260
0.000258
0.000246
0.000266
0.000361
0.000592
0.000291
0.000359
0.000263
0.000238
0.000267
0.000498
0.000232
0.000263
0.000270
0.000268
0.000323
0.000580
0.000243
0.000056
0.000371
0.000303
0.000242
0.001389
0.000536
0.000315
0.000313
0.000241
0.000248
0.000252
0.000229
0.000242
0.000240
0.000272
0.000252
0.000259
0.000238
0.000299
0.000410
0.000375
0.000433
0.000237
0.000259
0.000262
0.000258
0.000273
0.000270
0.000235
0.000264
0.000280
0.000258
0.000057
0.000356
0.000343
0.000214
0.000250
0.000245
0.000244
0.000270
0.000232
0.000233
0.000224
0.001407
0.000467
0.000283
0.000232
0.000241
0.000257
0.000272
0.000263
0.000232
0.000304
0.000243
0.000254
0.000311
0.000414
0.000431
0.000398
0.000229
0.000266
0.000275
0.000286
0.000172
0.000056
0.000209
0.000420
0.000218
0.000234
0.000437
0.000347
0.000395
0.000299
0.000462
0.000207
0.000232
0.000250
0.000263
0.000264
0.000261
0.001409
0.000367
0.000298
0.000229
0.000271
0.000292
0.000234
0.000254
0.000249
0.000266
0.000269
0.000409
0.000488
0.000290
0.000270
0.000162
0.000056
0.000208
0.000237
0.000256
0.000239
0.000226
0.000257
0.000239
0.000256
0.000285
0.000349
0.000502
0.000239
0.000237
0.000256
0.000244
0.000272
0.000276
0.000259
0.000270
0.000224
0.000253
0.000270
0.001301
0.000261
0.000265
0.000235
0.000266
0.000261
0.000269
0.000251
0.000192
0.000056
0.000232
0.000316
0.000375
0.000339
0.000250
0.000244
0.000258
0.000290
0.000236
0.000260
0.000239
0.000267
0.000241
0.000252
0.000277
0.000242
0.000267
0.000274
0.000258
0.000268
0.000236
0.000268
0.000268
0.000282
0.000290
0.000264
0.000265
0.000267
0.000255
0.000453
0.001357
0.000056
0.000198
0.000254
0.000216
0.000265
0.000235
0.000259
0.000245
0.000225
0.000249
0.000250
0.000300
0.000241
0.000239
0.000262
0.000253
0.000222
0.001722
0.000271
0.000235
0.000266
0.000240
0.000263
0.000274
0.000274
0.000281
0.000234
0.000267
0.000286
0.000265
0.000253
0.000231
0.000056
0.000276
0.000358
0.001277
0.000219
0.000237
0.000264
0.000239
0.000253
0.000271
0.000242
0.000236
0.000361
0.000371
0.000458
0.000264
0.000236
0.000247
0.000254
0.000262
0.000277
0.000227
0.000287
0.000252
0.000279
0.000269
0.000392
0.000373
0.000349
0.000316
0.000265
0.000179
0.000057
0.000226
0.000249
0.000240
0.000249
0.000281
0.000195
0.000239
0.000247
0.000423
0.001339
0.000271
0.000211
0.000252
0.000273
0.000251
0.000292
0.000233
0.000249
0.000337
0.000488
0.000291
0.000253
0.000245
0.000258
0.000284
0.000267
0.000264
0.000289
0.000274
0.000272
0.000193
0.000056
0.000242
0.000408
0.000397
0.000218
0.000236
0.000251
0.000234
0.000280
0.000262
0.000246
0.000230
0.000255
0.000442
0.000503
0.000467
0.001456
0.000238
0.000293
0.000316
0.000349
0.000482
0.000432
0.000658
0.000199
0.000233
0.000264
0.000269
0.000296
0.000244
0.000274
0.000193
0.000057
0.000207
0.000291
0.000483
0.000435
0.000334
0.000236
0.000252
0.000234
0.000238
0.000276
0.000232
0.000269
0.000275
0.000229
0.000267
0.000305
0.000318
0.000460
0.000366
0.001330
0.000265
0.000257
0.000248
0.000266
0.000441
0.000465
0.000375
0.000264
0.000268
0.000271
0.000188
0.000058
0.000183
0.000243
0.000246
0.000266
0.000225
0.000296
0.000422
0.000475
0.000287
0.000225
0.000239
0.000261
0.000270
0.000296
0.000232
0.000254
0.000260
0.000262
0.000280
0.000260
0.000475
0.000418
0.000321
0.001349
0.000410
0.000234
0.000276
0.000440
0.000470
0.000358
0.000252
0.000057
0.000205
0.000233
0.000245
0.000246
0.000254
0.000253
0.001697
0.000225
0.000218
0.000241
0.000255
0.000248
0.000249
0.000325
0.000331
0.000282
0.000266
0.000310
0.000476
0.000435
0.000297
0.000294
0.000229
0.000257
0.001489
0.000380
0.000369
0.000491
0.000302
0.000300
0.000178
0.000056
0.000223
0.000242
0.000261
0.000258
0.000243
0.000267
0.001699
0.000251
0.000230
0.000263
0.000327
0.000406
0.001454
0.000358
0.000392
0.000236
0.000257
0.000242
0.000267
0.000274
0.001533
0.000625
0.000329
0.000299
0.000237
0.000253
0.000264
0.000281
0.000248
0.000249
0.000199
0.000056
0.000225
0.000227
0.000268
0.000246
0.000267
0.000298
0.000253
0.000262
0.000244
0.000250
0.000260
0.000239
0.000294
0.000241
0.000270
0.001474
0.000280
0.000236
0.000269
0.000276
0.000271
0.000254
0.000428
0.001271
0.000279
0.000251
0.000256
0.000255
0.000400
0.000238
0.000203
0.000056
0.000206
0.000249
0.000220
0.000250
0.000235
0.000242
0.000220
0.001691
0.000254
0.000231
0.000356
0.000285
0.000206
0.000226
0.000255
0.001382
0.000241
0.000264
0.000259
0.000246
0.000265
0.000352
0.000289
0.001289
0.000285
0.000279
0.000226
0.000264
0.001390
0.000278
0.000182
0.000056
0.000280
0.000314
0.000220
0.000240
0.000264
0.000227
0.000289
0.000245
0.000265
0.000246
0.000260
0.000263
0.000261
0.000242
0.000518
0.001311
0.000228
0.000268
0.000252
0.000248
0.000308
0.000239
0.000260
0.001483
0.000361
0.000240
0.000270
0.001265
0.000266
0.000256
0.000256
0.000056
0.000194
0.000390
0.000325
0.000217
0.000232
0.000241
0.000270
0.000251
0.000264
0.000274
0.000234
0.000251
0.000262
0.000306
0.000400
0.001191
0.000252
0.000245
0.000269
0.000274
0.000226
0.000240
0.000250
0.000384
0.001235
0.000249
0.000242
0.000259
0.000252
0.001336
0.000306
0.000057
0.000239
0.000285
0.000231
0.000229
0.000242
0.000253
0.000245
0.000249
0.000299
0.000229
0.000242
0.000252
0.000266
0.000309
0.000426
0.001450
0.000224
0.000253
0.000302
0.000511
0.000282
0.001478
0.000332
0.000245
0.000229
0.000268
0.000253
0.001292
0.000349
0.000464
0.000325
0.000057
0.000225
0.000249
0.000256
0.000253
0.000283
0.000249
0.000250
0.000266
0.000244
0.000262
0.000370
0.000396
0.001343
0.000232
0.000278
0.000259
0.000283
0.000229
0.000243
0.000235
0.000336
0.001254
0.000261
0.000237
0.000253
0.000252
0.001481
0.000452
0.000481
0.000239
0.000174
0.000056
0.000207
0.000233
0.000248
0.000234
0.000256
0.000266
0.000241
0.000271
0.000630
0.000271
0.000263
0.001501
0.000216
0.000238
0.000272
0.000242
0.000262
0.000288
0.001690
0.000256
0.000377
0.000344
0.001266
0.000404
0.000290
0.000318
0.000254
0.000261
0.000264
0.000272
0.000190
0.000056
0.000194
0.000242
0.000327
0.000274
0.000282
0.000576
0.000255
0.000297
0.001471
0.000236
0.000382
0.000263
0.000242
0.000313
0.000365
0.001320
0.000265
0.000242
0.000249
0.000255
0.001547
0.000364
0.000286
0.000272
0.000268
0.000237
0.000445
0.000333
0.000242
0.000253
0.000262
0.000056
0.000241
0.000381
0.000338
0.000255
0.000220
0.001526
0.000206
0.000264
0.000265
0.000268
0.000270
0.000238
0.000304
0.001484
0.000260
0.000225
0.000434
0.001191
0.000338
0.000458
0.000376
0.000247
0.000242
0.000252
0.000299
0.000225
0.000447
0.000234
0.000265
0.000272
0.000201
0.000057
0.000193
0.000243
0.000385
0.000334
0.001324
0.000274
0.000336
0.000230
0.000233
0.000239
0.000246
0.000386
0.001428
0.000257
0.000230
0.000251
0.001379
0.000322
0.000399
0.000392
0.000404
0.000237
0.000254
0.000272
0.000243
0.000292
0.000250
0.000266
0.000265
0.000252
0.000199
0.000056
0.000250
0.000361
0.001465
0.000207
0.000279
0.000304
0.000215
0.000246
0.000266
0.000353
0.001419
0.000224
0.000249
0.000264
0.000258
0.001262
0.000648
0.000377
0.000307
0.000385
0.000309
0.000254
0.000256
0.000257
0.000270
0.000293
0.000275
0.000284
0.000472
0.000434
0.001352
0.000057
0.000193
0.000245
0.000251
0.000219
0.000270
0.000376
0.000537
0.001260
0.000247
0.000238
0.000245
0.001393
0.000561
0.000246
0.000219
0.000421
0.000242
0.000249
0.000259
0.000291
0.000248
0.000254
0.000283
0.000252
0.000251
0.000315
0.000408
0.000482
0.001494
0.000244
0.000179
0.000056
0.000191
0.000252
0.000505
0.000384
0.001240
0.000304
0.000229
0.000258
0.000245
0.000255
0.000253
0.000272
0.000359
0.000528
0.000291
0.000242
0.000267
0.000260
0.000237
0.000311
0.000237
0.000259
0.000255
0.000281
0.000242
0.000369
0.000494
0.000336
0.000336
0.001402
0.000176
0.000056
0.000207
0.000243
0.000362
0.000400
0.000432
0.000185
0.000315
0.000346
0.000280
0.000254
0.000239
0.000264
0.000251
0.000306
0.000254
0.000376
0.000483
0.000289
0.000294
0.000389
0.000285
0.000393
0.000228
0.000245
0.000258
0.000260
0.000257
0.000287
0.000353
0.000530
0.000257
0.000056
0.000201
0.001414
0.000234
0.000324
0.000406
0.000459
0.000353
0.000317
0.000205
0.000249
0.000263
0.000248
0.000281
0.000281
0.000237
0.000255
0.000256
0.001356
0.000260
0.000255
0.000259
0.000271
0.000270
0.000281
0.000267
0.000255
0.000274
0.000247
0.000335
0.000457
0.000229
0.000057
0.000209
0.000257
0.000225
0.001501
0.000324
0.000231
0.000239
0.000246
0.000226
0.000248
0.000256
0.000280
0.000242
0.000250
0.000300
0.000224
0.000248
0.000263
0.000260
0.000259
0.001428
0.000236
0.000249
0.000280
0.000254
0.000262
0.000251
0.000260
0.000277
0.000499
0.000346
0.000056
0.000216
0.000226
0.000395
0.000287
0.000240
0.000266
0.001559
0.000324
0.000274
0.000226
0.000261
0.000315
0.000328
0.000231
0.000227
0.000251
0.000250
0.000263
0.000256
0.000259
0.000530
0.000437
0.001143
0.000282
0.000228
0.000260
0.000266
0.000270
0.000291
0.000232
0.000403
0.000056
0.000229
0.000340
0.000205
0.000246
0.000250
0.000239
0.000245
0.000232
0.000289
0.001624
0.000348
0.000286
0.000246
0.000247
0.000257
0.000244
0.000260
0.000276
0.000277
0.000299
0.000303
0.000509
0.000462
0.001336
0.000236
0.000277
0.000252
0.000260
0.000270
0.000289
0.000450
0.000057
0.000269
0.000268
0.000222
0.000233
0.000220
0.000244
0.000260
0.000282
0.000251
0.001567
0.000368
0.000256
0.000241
0.000258
0.000457
0.000254
0.000554
0.000385
0.000258
0.000272
0.000517
0.000462
0.001262
0.000259
0.000240
0.000256
0.001751
0.000417
0.000612
0.000316
0.000151
0.000056
0.000209
0.000238
0.000228
0.000255
0.000261
0.000225
0.000247
0.000492
0.000482
0.000450
0.000278
0.000216
0.000244
0.000260
0.000279
0.000272
0.000239
0.000237
0.000258
0.000282
0.000288
0.000375
0.001356
0.000234
0.000243
0.000277
0.001895
0.000383
0.000397
0.000335
0.000150
0.000057
0.000251
0.000239
0.000244
0.001696
0.000292
0.000218
0.000239
0.000258
0.000254
0.000276
0.000377
0.000367
0.000369
0.000281
0.000456
0.000342
0.000413
0.001189
0.000280
0.000237
0.000246
0.000268
0.000269
0.000400
0.000623
0.000433
0.000295
0.000252
0.000263
0.000284
0.000193
0.000056
0.000188
0.000235
0.000239
0.001554
0.000246
0.000227
0.000244
0.000250
0.000239
0.000254
0.000254
0.000267
0.000271
0.000272
0.000269
0.000476
0.000388
0.000267
0.001402
0.000231
0.000261
0.000262
0.000260
0.000287
0.000378
0.000487
0.000414
0.000264
0.000292
0.000233
0.000434
0.000057
0.000199
0.000238
0.000275
0.001532
0.000292
0.000222
0.000288
0.000222
0.000253
0.000256
0.000255
0.000276
0.000233
0.000288
0.000403
0.000478
0.001379
0.000757
0.000251
0.000338
0.000244
0.000249
0.000261
0.000259
0.001677
0.000803
0.000235
0.000262
0.000281
0.000279
0.000192
0.000056
0.000197
0.000228
0.000255
0.000238
0.000282
0.000255
0.000210
0.000256
0.000239
0.000236
0.000287
0.000296
0.000237
0.000253
0.000264
0.000244
0.000270
0.001596
0.000715
0.000362
0.000317
0.000234
0.000250
0.000309
0.000250
0.000248
0.000274
0.000259
0.001383
0.000394
0.000306
0.000057
0.000199
0.000226
0.000274
0.000233
0.000258
0.000234
0.000277
0.000227
0.000255
0.000262
0.000309
0.000399
0.000422
0.000342
0.000213
0.000244
0.000263
0.001390
0.000691
0.000457
0.000365
0.000257
0.000254
0.000233
0.000271
0.000259
0.000251
0.000262
0.001476
0.000408
0.000243
0.000055
0.000186
0.000236
0.000246
0.000246
0.000249
0.000249
0.000236
0.000250
0.000272
0.000263
0.000387
0.000360
0.000329
0.000220
0.000239
0.000260
0.000249
0.000259
0.001566
0.000682
0.000526
0.000214
0.000226
0.000268
0.000249
0.000260
0.000269
0.000278
0.000268
0.001414
0.000270
0.000056
0.000198
0.000221
0.000254
0.000238
0.000256
0.000246
0.000251
0.000303
0.000352
0.000450
0.000426
0.000334
0.000346
0.000228
0.000248
0.000265
0.000281
0.000237
0.000273
0.001897
0.000346
0.000226
0.000459
0.000228
0.000263
0.000268
0.000267
0.000270
0.000252
0.000279
0.000481
0.000056
0.000247
0.000229
0.000232
0.000241
0.000257
0.000249
0.000224
0.000241
0.000293
0.000245
0.000228
0.000235
0.000271
0.000516
0.000414
0.000437
0.000228
0.000266
0.000248
0.000263
0.000239
0.000286
0.001478
0.001042
0.000229
0.000256
0.000267
0.000271
0.000261
0.000254
0.000203
0.000055
0.000215
0.001368
0.000269
0.000213
0.000231
0.000253
0.000253
0.000233
0.000246
0.000261
0.000243
0.000264
0.000244
0.000431
0.000319
0.000451
0.000270
0.000257
0.000264
0.000267
0.000282
0.000214
0.000260
0.000271
0.001349
0.000647
0.000307
0.000381
0.000376
0.000402
0.000297
0.000056
0.000210
0.000340
0.000286
0.001291
0.000210
0.000256
0.000228
0.000261
0.000255
0.000282
0.000220
0.000248
0.000263
0.000358
0.000597
0.000269
0.000230
0.000277
0.000330
0.000218
0.000249
0.000271
0.000235
0.000266
0.001543
0.000278
0.000729
0.000320
0.000258
0.000270
0.000198
0.000057
0.000204
0.000328
0.000381
0.000323
0.001305
0.000253
0.000220
0.000242
0.000232
0.000249
0.000248
0.000258
0.000231
0.000234
0.000251
0.000257
0.000268
0.000241
0.000255
0.000252
0.000269
0.000268
0.000372
0.000255
0.000236
0.000253
0.000267
0.001494
0.000239
0.000226
0.000177
0.000056
0.000208
0.000227
0.000254
0.000259
0.000351
0.000372
0.000399
0.000278
0.001581
0.000231
0.000347
0.000422
0.000368
0.000237
0.000442
0.000222
0.000243
0.000258
0.000277
0.000268
0.000280
0.000268
0.000255
0.000270
0.000263
0.000427
0.000366
0.000325
0.001588
0.000218
0.000199
0.000056
0.000236
0.000234
0.000251
0.000247
0.000244
0.000243
0.000260
0.000312
0.000415
0.002017
0.000248
0.000237
0.000255
0.000257
0.000262
0.000256
0.000263
0.000258
0.000324
0.000386
0.000355
0.000458
0.001443
0.000235
0.000247
0.002016
0.000290
0.000235
0.000258
0.001525
0.000163
0.000056
0.000321
0.000440
0.000452
0.000225
0.000281
0.000226
0.000241
0.000296
0.000236
0.000219
0.000259
0.000344
0.000467
0.000365
0.000358
0.000228
0.000246
0.001563
0.000219
0.000648
0.001817
0.000286
0.000248
0.001595
0.001991
0.000714
0.000274
0.000263
0.000295
0.000426
0.000378
0.000056
0.000223
0.000247
0.000270
0.000223
0.001414
0.001732
0.001073
0.000209
0.000241
0.001577
0.001980
0.000225
0.000229
0.000427
0.000293
0.000376
0.000544
0.000338
0.000211
0.000243
0.000270
0.000237
0.000276
0.001580
0.001211
0.001418
0.000295
0.000283
0.000259
0.000300
0.000348
0.000056
0.000213
0.000232
0.000238
0.000241
0.000229
0.000268
0.000229
0.000257
0.000259
0.000239
0.000245
0.000381
0.000553
0.000280
0.000285
0.000253
0.000250
0.000272
0.000283
0.000264
0.000237
0.000268
0.001488
0.000497
0.002114
0.000229
0.000268
0.000337
0.000438
0.000376
0.000197
0.000056
0.000228
0.000316
0.000474
0.000319
0.000212
0.000210
0.000257
0.000237
0.000243
0.000242
0.000277
0.000237
0.000263
0.001608
0.001346
0.001236
0.000276
0.000227
0.000256
0.000264
0.000285
0.000279
0.000236
0.000260
0.002220
0.000229
0.000258
0.000300
0.000324
0.000307
0.000219
0.000056
0.000219
0.000403
0.000514
0.000340
0.000207
0.000237
0.000244
0.000276
0.001892
0.001422
0.000218
0.000321
0.000383
0.000411
0.000261
0.000249
0.000244
0.000265
0.000274
0.000257
0.000260
0.000248
0.000474
0.000232
0.000276
0.000262
0.000254
0.000276
0.000280
0.000248
0.000207
0.000056
0.000202
0.000246
0.000241
0.000245
0.000281
0.000255
0.001533
0.001418
0.001320
0.000250
0.000221
0.000245
0.000265
0.000266
0.000244
0.000270
0.000233
0.002090
0.000260
0.000241
0.000261
0.000270
0.000249
0.000269
0.000266
0.000253
0.000274
0.000260
0.000273
0.000260
0.000170
0.000056
0.000187
0.002681
0.001404
0.000237
0.000285
0.000327
0.000215
0.000285
0.000230
0.000236
0.000253
0.000241
0.000241
0.000249
0.000269
0.000259
0.000266
0.000278
0.000259
0.000253
0.000260
0.000292
0.000273
0.000261
0.000251
0.000242
0.000266
0.000274
0.000258
0.000267
0.000369
0.000057
0.001540
0.000251
0.001240
0.000234
0.000233
0.000223
0.000281
0.000258
0.000242
0.000290
0.000455
0.000256
0.000354
0.000202
0.000251
0.002145
0.000245
0.000240
0.000271
0.000588
0.000308
0.000277
0.000234
0.000257
0.000266
0.000245
0.000265
0.000281
0.000271
0.001601
0.001271
0.000057
0.000206
0.000239
0.000231
0.000447
0.000381
0.000256
0.000212
0.000233
0.000252
0.000251
0.000272
0.000249
0.000225
0.000254
0.000264
0.000246
0.000341
0.000582
0.000374
0.000235
0.000239
0.000272
0.000277
0.000250
0.000251
0.000252
0.000262
0.000278
0.000238
0.000345
0.000347
0.000056
0.001123
0.000236
0.000347
0.000443
0.000294
0.000229
0.000230
0.000239
0.000254
0.002347
0.000309
0.000389
0.000229
0.000375
0.000310
0.000251
0.000241
0.000260
0.000265
0.000224
0.000251
0.000425
0.000556
0.000352
0.001871
0.001317
0.000545
0.000509
0.000231
0.000284
0.000196
0.000057
0.000196
0.000386
0.000249
0.000246
0.000247
0.000223
0.000255
0.000256
0.000252
0.000252
0.000249
0.000230
0.000247
0.000281
0.000344
0.000563
0.001800
0.001362
0.000438
0.000446
0.000433
0.000237
0.000238
0.000261
0.002154
0.000522
0.000393
0.000236
0.000275
0.000283
0.000197
0.000056
0.000212
0.000238
0.000254
0.000251
0.000238
0.000384
0.000374
0.000366
0.000264
0.000226
0.000238
0.000249
0.000265
0.002107
0.000408
0.000350
0.000216
0.000249
0.000283
0.000244
0.000249
0.002473
0.000318
0.000238
0.000245
0.000257
0.000253
0.000269
0.000309
0.000257
0.000190
0.000071
0.000203
0.000406
0.000497
0.000347
0.000256
0.000230
0.000231
0.000251
0.000263
0.000251
0.001972
0.000370
0.000266
0.000272
0.000253
0.000261
0.000274
0.000244
0.002194
0.000448
0.000228
0.000269
0.000271
0.000254
0.000253
0.000256
0.000300
0.000238
0.000268
0.000256
0.000188
0.000056
0.000219
0.000240
0.000248
0.000226
0.000245
0.000258
0.000238
0.000241
0.000238
0.002180
0.000232
0.000274
0.000222
0.000428
0.000228
0.000253
0.000301
0.000264
0.000249
0.000252
0.001967
0.000276
0.000336
0.000363
0.000429
0.000415
0.000302
0.000272
0.000236
0.000259
0.000206
0.000056
0.000189
0.000260
0.000216
0.000243
0.000254
0.000325
0.000222
0.002303
0.000240
0.000238
0.000261
0.000252
0.000236
0.000282
0.000276
0.002144
0.000575
0.000224
0.000248
0.000246
0.000254
0.000259
0.000292
0.000269
0.000256
0.000260
0.000290
0.000251
0.000261
0.000266
0.000198
0.000056
0.001827
0.001438
0.000202
0.000231
0.000242
0.000253
0.000256
0.000246
0.000470
0.000327
0.002148
0.000264
0.000225
0.000274
0.000325
0.000499
0.000360
0.000295
0.000235
0.000243
0.000250
0.000267
0.000261
0.000228
0.000262
0.000265
0.000268
0.000267
0.000344
0.000627
0.000318
0.000056
0.000209
0.000268
0.000222
0.000257
0.000267
0.000263
0.000237
0.000242
0.001463
0.002138
0.000580
0.000268
0.000434
0.000682
0.000345
0.000234
0.000253
0.000249
0.000263
0.000266
0.000249
0.000244
0.000258
0.000266
0.003008
0.000336
0.000237
0.000275
0.000279
0.000307
0.000373
0.000057
0.001936
0.000233
0.000226
0.000236
0.000294
0.000363
0.000451
0.000344
0.000237
0.000222
0.000245
0.000249
0.000255
0.000258
0.000259
0.000257
0.000257
0.000288
0.001821
0.000244
0.000247
0.000239
0.000276
0.000278
0.000271
0.000250
0.001461
0.000351
0.000247
0.000253
0.000181
0.000056
0.000200
0.000224
0.000250
0.000229
0.000252
0.000243
0.000256
0.000407
0.000376
0.000354
0.000211
0.000246
0.000259
0.000337
0.000404
0.000327
0.000228
0.000248
0.000263
0.000434
0.000417
0.000404
0.000267
0.000257
0.000256
0.000257
0.000262
0.000262
0.000284
0.000255
0.000208
0.000056
0.001405
0.000445
0.000225
0.001933
0.000257
0.000447
0.000433
0.000319
0.000231
0.000244
0.000265
0.000244
0.000247
0.000249
0.000267
0.000255
0.000454
0.000427
0.000261
0.000353
0.000371
0.000232
0.000262
0.000269
0.000271
0.000277
0.000251
0.000268
0.000390
0.000414
0.001387
0.000056
0.000204
0.000225
0.002080
0.000336
0.000300
0.000233
0.000256
0.000249
0.000259
0.000270
0.000212
0.000248
0.000257
0.000260
0.000279
0.000344
0.000705
0.001765
0.000227
0.000265
0.000233
0.000306
0.000336
0.000462
0.001556
0.000292
0.000364
0.001919
0.000256
0.000264
0.000197
0.000057
0.000191
0.000227
0.000233
0.000245
0.000230
0.000252
0.000255
0.000283
0.000330
0.000262
0.000378
0.000364
0.000348
0.000289
0.000243
0.000271
0.000262
0.000240
0.000265
0.000266
0.000297
0.000280
0.000265
0.000267
0.000261
0.001501
0.000297
0.000379
0.002072
0.000242
0.000173
0.000056
0.000205
0.000235
0.000242
0.000248
0.000489
0.000223
0.000233
0.000323
0.000389
0.000297
0.000310
0.000207
0.000267
0.000261
0.000272
0.000316
0.000432
0.000429
0.000275
0.000384
0.000528
0.000486
0.001539
0.000224
0.000267
0.001954
0.000363
0.000241
0.000234
0.000297
0.000193
0.000055
0.000217
0.000241
0.000223
0.000264
0.000233
0.000272
0.000251
0.000271
0.000251
0.000261
0.001808
0.000310
0.000390
0.000285
0.000454
0.000368
0.000397
0.001467
0.000241
0.000272
0.002118
0.000565
0.000254
0.000240
0.000264
0.000265
0.000509
0.000233
0.000248
0.000273
0.000202
0.000056
0.000291
0.000325
0.000385
0.000272
0.000202
0.000247
0.000257
0.000253
0.000263
0.000294
0.000228
0.000251
0.000265
0.000275
0.000432
0.000403
0.001272
0.000264
0.000282
0.001977
0.000295
0.000296
0.000234
0.000262
0.000250
0.000276
0.000268
0.000265
0.000259
0.000253
0.000207
0.000056
0.000227
0.000370
0.002045
0.000255
0.000239
0.000234
0.000258
0.000301
0.000400
0.000469
0.001296
0.000369
0.000356
0.002082
0.000218
0.000239
0.000269
0.000272
0.000257
0.000245
0.000283
0.000293
0.000259
0.000339
0.000536
0.000341
0.000312
0.002220
0.000542
0.000412
0.000411
0.000056
0.000189
0.000233
0.000247
0.001958
0.000232
0.000235
0.000243
0.000237
0.000247
0.000256
0.000244
0.000263
0.000261
0.000305
0.000521
0.001357
0.000253
0.000237
0.000268
0.000261
0.000230
0.000258
0.000254
0.000307
0.000296
0.000447
0.000470
0.000243
0.001590
0.000280
0.000167
0.000057
0.000196
0.000228
0.000244
0.000230
0.000266
0.000269
0.000226
0.000245
0.000255
0.000338
0.000385
0.001434
0.000225
0.000237
0.000244
0.000292
0.000228
0.000256
0.000329
0.000479
0.000425
0.000397
0.000224
0.001574
0.000234
0.000261
0.000284
0.000293
0.000252
0.000267
0.000194
0.000056
0.000200
0.000243
0.000279
0.000252
0.000250
0.000242
0.000241
0.000235
0.000281
0.000223
0.000253
0.000254
0.000267
0.001481
0.000353
0.000214
0.000248
0.000266
0.000268
0.000314
0.000380
0.000274
0.000245
0.000257
0.000264
0.000263
0.000257
0.001408
0.000279
0.000233
0.000181
0.000070
0.000197
0.000226
0.000268
0.000254
0.000271
0.000220
0.000251
0.000258
0.000221
0.000264
0.000241
0.000261
0.000229
0.000406
0.000300
0.000356
0.000235
0.000240
0.001636
0.000240
0.000240
0.000266
0.000263
0.000285
0.000388
0.000368
0.000453
0.000281
0.000240
0.001609
0.000152
0.000056
0.000329
0.000343
0.000362
0.000295
0.000232
0.000215
0.000252
0.000272
0.000252
0.000261
0.000220
0.000239
0.001469
0.000331
0.000255
0.000236
0.000244
0.000278
0.000249
0.000264
0.000257
0.000232
0.000261
0.000269
0.000276
0.000340
0.000457
0.000400
0.000243
0.000253
0.000189
0.000055
0.000205
0.000278
0.000353
0.000460
0.000303
0.000285
0.000251
0.000248
0.000251
0.000259
0.000241
0.000226
0.000260
0.000241
0.001333
0.000216
0.000243
0.000256
0.000265
0.000268
0.000239
0.000264
0.000255
0.000264
0.000250
0.000259
0.000312
0.000744
0.000395
0.000234
0.000182
0.000056
0.000201
0.001562
0.000233
0.000364
0.000482
0.000338
0.000213
0.000260
0.000265
0.000262
0.000232
0.000260
0.000268
0.000271
0.000258
0.001536
0.000251
0.000280
0.000265
0.000257
0.000273
0.000240
0.000263
0.000264
0.000258
0.000262
0.000424
0.000415
0.000353
0.000206
0.000196
0.000056
0.000219
0.000249
0.000242
0.001600
0.000432
0.000350
0.000232
0.000229
0.000253
0.000271
0.000277
0.000251
0.000260
0.000256
0.000234
0.000264
0.000385
0.001345
0.000246
0.000227
0.001502
0.000371
0.000553
0.000353
0.000332
0.000248
0.000269
0.000467
0.000232
0.000266
0.000182
0.000057
0.000280
0.000239
0.000240
0.000257
0.000236
0.000273
0.000220
0.000259
0.000256
0.000248
0.000247
0.000258
0.000316
0.000519
0.001635
0.001496
0.000352
0.000511
0.000367
0.000228
0.000233
0.000246
0.000249
0.000275
0.000249
0.000270
0.000254
0.000270
0.001513
0.000347
0.000177
0.000056
0.000196
0.000340
0.000351
0.000334
0.000255
0.000216
0.000241
0.000343
0.000421
0.000376
0.002189
0.000310
0.000699
0.000508
0.000461
0.000258
0.000334
0.000392
0.000333
0.000278
0.000391
0.000269
0.001526
0.000532
0.000218
0.000265
0.000260
0.000250
0.000275
0.000264
0.000192
0.000057
0.000213
0.000248
0.000253
0.000255
0.000241
0.001659
0.000875
0.000998
0.000207
0.000240
0.000272
0.000244
0.000259
0.000261
0.000266
0.000233
0.000259
0.000261
0.000268
0.000280
0.001424
0.000321
0.000251
0.000232
0.000239
0.000274
0.000242
0.000285
0.000261
0.000290
0.001890
0.000056
0.000197
0.000229
0.001542
0.000874
0.000402
0.000323
0.000256
0.000214
0.000252
0.000256
0.000254
0.000246
0.000245
0.001971
0.000478
0.000219
0.000250
0.000253
0.000270
0.000255
0.000196
