0.000102
0.017214
0.004285
0.000333
0.000265
0.000285
0.000303
0.000246
0.000334
0.000280
0.000255
0.000348
0.000577
0.000424
0.000395
0.000315
0.000268
0.000376
0.000383
0.000364
0.000317
0.001924
0.000699
0.000254
0.000258
0.000303
0.000307
0.000368
0.000445
0.000305
0.000571
0.000230
0.000058
0.000225
0.000252
0.000268
0.000266
0.000273
0.000249
0.000282
0.000260
0.000269
0.000296
0.000466
0.000459
0.000253
0.000266
0.000409
0.000293
0.000365
0.000248
0.000254
0.001726
0.000295
0.000249
0.000462
0.000252
0.000268
0.000277
0.000289
0.000294
0.000283
0.000388
0.000425
0.000056
0.000230
0.000254
0.000266
0.000259
0.000253
0.000242
0.000260
0.000256
0.000287
0.001671
0.000222
0.000241
0.000268
0.000272
0.000280
0.000251
0.000264
0.000251
0.000357
0.001799
0.000236
0.000278
0.000446
0.000519
0.000302
0.000246
0.000237
0.000539
0.000452
0.000754
0.000191
0.000056
0.000224
0.000243
0.000255
0.000245
0.000293
0.000254
0.000319
0.000530
0.000389
0.000282
0.000232
0.000248
0.000249
0.000248
0.000258
0.000254
0.000244
0.000266
0.000295
0.000326
0.001676
0.000276
0.000254
0.000410
0.000279
0.000720
0.000637
0.000569
0.000324
0.000250
0.000192
0.000056
0.000218
0.000255
0.000264
0.000235
0.000259
0.000254
0.000253
0.000503
0.001439
0.000222
0.000249
0.000243
0.000257
0.000255
0.000262
0.000288
0.000527
0.000532
0.001409
0.000275
0.000456
0.000262
0.000234
0.000214
0.000259
0.000260
0.000270
0.000268
0.000259
0.000271
0.000193
0.000056
0.000209
0.000247
0.000246
0.000264
0.000232
0.000250
0.000239
0.000253
0.000239
0.000256
0.001628
0.000267
0.000234
0.000241
0.000249
0.000253
0.000245
0.000251
0.000252
0.000257
0.000268
0.001666
0.000285
0.000245
0.000442
0.000259
0.000254
0.000257
0.000267
0.000271
0.000192
0.000055
0.000204
0.000243
0.000242
0.000245
0.000243
0.000247
0.000262
0.000236
0.000263
0.000241
0.000265
0.000256
0.000259
0.000274
0.001637
0.000271
0.000287
0.000221
0.000256
0.000275
0.000268
0.000237
0.000247
0.000270
0.001802
0.000332
0.000385
0.000356
0.000247
0.000279
0.000198
0.000055
0.000208
0.000238
0.000245
0.000284
0.000241
0.000233
0.000277
0.000482
0.000375
0.000406
0.000210
0.000245
0.000252
0.000252
0.001617
0.000457
0.000340
0.000425
0.000295
0.000233
0.000267
0.000280
0.000272
0.001725
0.000523
0.000455
0.000256
0.000252
0.000248
0.000263
0.000184
0.000055
0.000221
0.000224
0.000259
0.000266
0.000312
0.000453
0.000385
0.000274
0.000220
0.000250
0.000261
0.000241
0.000248
0.001696
0.000509
0.000276
0.000239
0.000248
0.000274
0.000286
0.000244
0.000260
0.000274
0.001932
0.000265
0.000387
0.000254
0.000255
0.000263
0.000415
0.000325
0.000055
0.000222
0.000377
0.000343
0.000286
0.000263
0.000249
0.000250
0.000259
0.000240
0.000235
0.000237
0.000246
0.001553
0.000387
0.000272
0.000234
0.000256
0.000252
0.000248
0.000278
0.000277
0.000328
0.000248
0.001804
0.000265
0.000491
0.000246
0.000257
0.000250
0.000271
0.000249
0.000054
0.000357
0.000584
0.000610
0.000216
0.000231
0.000276
0.000228
0.000220
0.000261
0.000251
0.000257
0.001699
0.000253
0.000445
0.000364
0.000213
0.000241
0.000230
0.000250
0.000264
0.000249
0.001863
0.000237
0.000237
0.002068
0.000531
0.000362
0.000246
0.000258
0.000270
0.000181
0.000055
0.000200
0.000242
0.000244
0.000242
0.000291
0.001586
0.000252
0.000228
0.000259
0.000252
0.000243
0.000246
0.000248
0.000253
0.000267
0.000591
0.000451
0.000261
0.000237
0.000271
0.000262
0.000248
0.000242
0.000430
0.000441
0.000256
0.000350
0.000753
0.000266
0.000249
0.000199
0.000057
0.000220
0.000234
0.000255
0.000255
0.000232
0.000242
0.000247
0.000377
0.000437
0.001726
0.000220
0.000238
0.000242
0.000250
0.000258
0.000265
0.000410
0.000511
0.000357
0.000250
0.000237
0.000305
0.000282
0.000249
0.000277
0.000432
0.000356
0.000488
0.000678
0.000340
0.000171
0.000058
0.000192
0.000256
0.000243
0.000224
0.000246
0.000240
0.000250
0.000244
0.000240
0.000337
0.000294
0.000438
0.001388
0.000249
0.000240
0.000252
0.000251
0.000253
0.000240
0.000253
0.000276
0.000466
0.000395
0.000273
0.000269
0.000257
0.000255
0.000274
0.000262
0.000264
0.000381
0.000055
0.000215
0.000247
0.000219
0.000338
0.000476
0.000432
0.000217
0.000265
0.000236
0.000259
0.000247
0.000235
0.000301
0.000248
0.000243
0.000490
0.000413
0.001638
0.000300
0.000211
0.000260
0.000262
0.000255
0.000261
0.000247
0.000518
0.000355
0.000375
0.000433
0.000239
0.000188
0.000055
0.000237
0.000433
0.000239
0.000216
0.000263
0.000241
0.000256
0.000601
0.000332
0.000322
0.000228
0.000269
0.000270
0.000237
0.000516
0.000348
0.000221
0.000275
0.000376
0.001651
0.000269
0.000250
0.000504
0.000240
0.000284
0.000278
0.000257
0.000399
0.000489
0.000400
0.000248
0.000055
0.000218
0.000239
0.000236
0.000243
0.000414
0.000307
0.000295
0.000224
0.000406
0.000457
0.000389
0.000242
0.000244
0.000238
0.000258
0.000268
0.000253
0.000252
0.000236
0.000348
0.000288
0.000286
0.001895
0.000237
0.000257
0.000259
0.000290
0.000352
0.000521
0.000559
0.000464
0.000057
0.000228
0.000329
0.000279
0.000428
0.000397
0.000200
0.000261
0.000351
0.000483
0.000372
0.000275
0.000241
0.000234
0.000271
0.000260
0.000235
0.000258
0.000270
0.000270
0.000258
0.000266
0.000424
0.000655
0.001323
0.000338
0.000520
0.000333
0.000247
0.000406
0.000453
0.000362
0.000056
0.000245
0.000373
0.000275
0.000202
0.000221
0.000252
0.000413
0.000238
0.000233
0.000431
0.000359
0.000453
0.000242
0.000272
0.000246
0.000248
0.000384
0.000380
0.000352
0.000225
0.000244
0.000414
0.000701
0.001583
0.000231
0.000449
0.000292
0.000225
0.000252
0.000469
0.000314
0.000057
0.000197
0.000229
0.000246
0.000250
0.000246
0.000247
0.000250
0.000320
0.000459
0.000353
0.000355
0.000413
0.000267
0.000575
0.000242
0.000242
0.000272
0.000266
0.000230
0.000351
0.000216
0.000256
0.000267
0.000486
0.000494
0.001584
0.000266
0.000230
0.000253
0.000276
0.000184
0.000057
0.000341
0.000438
0.000326
0.000223
0.000254
0.000245
0.000260
0.000236
0.000259
0.000251
0.000220
0.000250
0.000413
0.000590
0.000336
0.000273
0.000259
0.000251
0.000370
0.000365
0.000383
0.000324
0.000424
0.000355
0.000222
0.000251
0.000271
0.000273
0.001784
0.000248
0.000213
0.000057
0.000202
0.000226
0.000258
0.000269
0.000377
0.000535
0.000299
0.000220
0.000257
0.000262
0.000251
0.000247
0.000518
0.000453
0.000490
0.000277
0.000260
0.000270
0.000425
0.000463
0.000408
0.000335
0.000577
0.000358
0.000232
0.000262
0.000268
0.000241
0.000264
0.001724
0.000353
0.000055
0.000299
0.000325
0.000208
0.000236
0.000256
0.000247
0.000249
0.000501
0.000373
0.000299
0.000298
0.000292
0.000304
0.000728
0.000281
0.000236
0.000253
0.000257
0.000245
0.000271
0.000288
0.000247
0.000245
0.000264
0.000320
0.000408
0.000353
0.000357
0.000230
0.000261
0.000189
0.000055
0.000443
0.000358
0.000404
0.000257
0.000207
0.000249
0.000246
0.000256
0.000235
0.000227
0.000250
0.000299
0.000274
0.000394
0.000497
0.000524
0.000261
0.000330
0.000380
0.000373
0.000267
0.000223
0.000248
0.000263
0.001734
0.000269
0.001712
0.000968
0.000448
0.000250
0.000170
0.000056
0.000208
0.000240
0.000237
0.000239
0.000264
0.000244
0.000255
0.000253
0.000240
0.000299
0.000470
0.000344
0.000335
0.000402
0.000236
0.000255
0.000239
0.000294
0.000231
0.000251
0.000256
0.000270
0.001787
0.000247
0.000257
0.000269
0.000278
0.000258
0.001877
0.000504
0.000310
0.000057
0.000208
0.000219
0.000231
0.000241
0.000259
0.000245
0.000240
0.000254
0.000256
0.000389
0.000515
0.000541
0.000230
0.000195
0.000242
0.000246
0.000371
0.000408
0.000362
0.000253
0.001766
0.000261
0.000248
0.000252
0.000257
0.000270
0.000243
0.000252
0.000344
0.000278
0.000442
0.000057
0.000257
0.000221
0.000239
0.000258
0.000243
0.000245
0.000260
0.000256
0.000237
0.000256
0.000243
0.000323
0.000291
0.000484
0.000293
0.000262
0.000490
0.000225
0.000248
0.000254
0.000264
0.000259
0.000267
0.000259
0.000294
0.001773
0.000248
0.000241
0.000266
0.000240
0.000200
0.000056
0.000206
0.000419
0.000198
0.000223
0.000240
0.000230
0.000240
0.000257
0.000247
0.000228
0.000232
0.000259
0.000261
0.000445
0.000311
0.000374
0.000283
0.000252
0.000243
0.000250
0.000265
0.000256
0.000252
0.000272
0.000246
0.000262
0.000342
0.001599
0.000268
0.000243
0.000187
0.000055
0.000205
0.000232
0.000248
0.000259
0.000353
0.000334
0.000453
0.000276
0.000229
0.000253
0.000254
0.000242
0.000245
0.000259
0.000252
0.000259
0.000247
0.000264
0.000245
0.000263
0.000265
0.000272
0.000247
0.000237
0.000244
0.000277
0.000276
0.000261
0.000260
0.000262
0.000187
0.000055
0.000218
0.000231
0.000259
0.000255
0.000234
0.000249
0.000249
0.000261
0.000276
0.000244
0.000235
0.000242
0.000256
0.000252
0.000263
0.000260
0.000256
0.000250
0.000302
0.000250
0.000272
0.000292
0.000270
0.000250
0.000279
0.000267
0.000273
0.000258
0.000285
0.000405
0.000634
0.000056
0.000234
0.000280
0.000218
0.000231
0.000243
0.000249
0.000237
0.000252
0.000262
0.000232
0.000272
0.000299
0.000477
0.000472
0.001536
0.000240
0.000487
0.000237
0.000344
0.000461
0.000401
0.000313
0.000234
0.000278
0.000247
0.000268
0.000280
0.000251
0.000306
0.000259
0.000185
0.000055
0.000362
0.000428
0.000425
0.000221
0.000223
0.000253
0.000250
0.000243
0.000233
0.000245
0.000252
0.000261
0.000231
0.000282
0.000323
0.000568
0.000357
0.001781
0.000235
0.000247
0.000385
0.000369
0.000456
0.000300
0.000320
0.000319
0.000301
0.000229
0.000229
0.000256
0.000188
0.000054
0.000221
0.000228
0.000274
0.000262
0.000311
0.000542
0.000289
0.000249
0.000256
0.000213
0.000250
0.000266
0.000268
0.000262
0.000244
0.000258
0.000312
0.000480
0.000325
0.000479
0.000208
0.001748
0.000337
0.000489
0.000618
0.000351
0.000343
0.000204
0.000262
0.000266
0.000445
0.000056
0.000215
0.000248
0.000234
0.000272
0.000439
0.000529
0.000326
0.000216
0.000223
0.000291
0.000242
0.000262
0.000254
0.000294
0.000307
0.000233
0.000233
0.000379
0.000527
0.000295
0.000498
0.001836
0.000269
0.000504
0.000415
0.000368
0.000227
0.000258
0.000290
0.000261
0.000199
0.000056
0.000222
0.000349
0.000351
0.000331
0.000452
0.000209
0.000378
0.000210
0.000250
0.000263
0.000268
0.000232
0.000248
0.000271
0.000229
0.000260
0.000316
0.000350
0.000568
0.000332
0.000290
0.000236
0.000291
0.001684
0.000411
0.000546
0.000661
0.000237
0.000269
0.000308
0.000157
0.000056
0.000192
0.000240
0.000323
0.000251
0.000255
0.000427
0.000391
0.000296
0.000227
0.000531
0.000250
0.000235
0.000257
0.000277
0.000272
0.000270
0.000213
0.000367
0.000476
0.000410
0.000265
0.000230
0.000258
0.000250
0.000265
0.000268
0.000240
0.000253
0.000267
0.000288
0.000224
0.000056
0.000307
0.000338
0.000234
0.000253
0.000251
0.000253
0.000244
0.000293
0.000235
0.000247
0.000260
0.000358
0.000419
0.000423
0.000329
0.000259
0.000238
0.000227
0.000260
0.000269
0.000304
0.000239
0.000241
0.000256
0.000281
0.000283
0.000401
0.000417
0.000358
0.000231
0.000180
0.000055
0.000214
0.000226
0.000279
0.000247
0.000240
0.000245
0.000259
0.000256
0.000493
0.000208
0.000265
0.000246
0.000253
0.000267
0.000270
0.000266
0.000267
0.000352
0.000212
0.000251
0.000252
0.000266
0.000256
0.000268
0.000276
0.000263
0.000263
0.000255
0.000513
0.000250
0.000152
0.000055
0.000219
0.000231
0.000249
0.000268
0.000220
0.000247
0.000369
0.000406
0.000238
0.000234
0.000252
0.000256
0.000231
0.000275
0.000362
0.001857
0.000226
0.000268
0.000285
0.000405
0.000363
0.000344
0.000354
0.000378
0.000425
0.000394
0.000242
0.000264
0.000270
0.000275
0.001382
0.000057
0.000393
0.000289
0.000273
0.000225
0.000238
0.000253
0.000231
0.000256
0.000242
0.000267
0.000250
0.000259
0.000251
0.000335
0.000492
0.001628
0.000253
0.000227
0.000248
0.000264
0.000237
0.000266
0.000414
0.000360
0.000275
0.000350
0.000224
0.000267
0.000275
0.000267
0.000175
0.000055
0.001180
0.000620
0.000256
0.000265
0.000240
0.000221
0.000230
0.000243
0.000488
0.000216
0.000241
0.000267
0.000388
0.000454
0.000490
0.000261
0.000243
0.000239
0.000345
0.000345
0.000273
0.000249
0.000273
0.000248
0.000263
0.000626
0.000530
0.000246
0.000252
0.000264
0.000170
0.000055
0.000219
0.000220
0.000240
0.000248
0.001570
0.000195
0.000224
0.000257
0.000238
0.000246
0.000257
0.000254
0.000242
0.000263
0.000272
0.000285
0.000440
0.000692
0.000239
0.001723
0.000276
0.000258
0.000284
0.000427
0.000598
0.000397
0.000232
0.000248
0.000254
0.000278
0.000195
0.000056
0.000249
0.000224
0.000230
0.000316
0.001254
0.000241
0.000255
0.000259
0.000241
0.000237
0.000233
0.000247
0.000284
0.000246
0.000247
0.000312
0.000472
0.000477
0.000243
0.000258
0.000269
0.000271
0.000247
0.000233
0.000286
0.000264
0.000243
0.000276
0.000269
0.000370
0.000585
0.000055
0.000222
0.000251
0.000237
0.000259
0.000264
0.000246
0.000241
0.000251
0.000268
0.000254
0.001432
0.000232
0.000238
0.000247
0.000244
0.000248
0.000264
0.000266
0.000260
0.000265
0.000270
0.000496
0.000526
0.000319
0.000226
0.000276
0.001758
0.000256
0.000257
0.000405
0.000512
0.000057
0.000210
0.000414
0.000412
0.000502
0.000515
0.000559
0.001480
0.000407
0.000530
0.000652
0.000551
0.000816
0.000417
0.000587
0.000586
0.001890
0.000378
0.000461
0.000396
0.000318
0.000230
0.000301
0.000257
0.000259
0.000259
0.000289
0.000290
0.000286
0.000266
0.000287
0.001373
0.000058
0.000204
0.000231
0.000241
0.000241
0.000254
0.000259
0.000236
0.000239
0.000250
0.000255
0.000238
0.000241
0.000258
0.000258
0.000261
0.000271
0.001811
0.000276
0.000233
0.000263
0.000253
0.000258
0.000270
0.000320
0.000489
0.000357
0.000300
0.000223
0.000264
0.000268
0.000214
0.000056
0.000201
0.001360
0.000341
0.000257
0.000258
0.000240
0.000247
0.000235
0.000229
0.000245
0.000217
0.000244
0.000245
0.000507
0.000368
0.000279
0.000265
0.000256
0.001926
0.000239
0.000237
0.000264
0.000258
0.000266
0.000273
0.000280
0.000274
0.000248
0.000272
0.000319
0.000202
0.000056
0.000218
0.000242
0.000251
0.001440
0.000232
0.000233
0.000250
0.000247
0.000239
0.000266
0.000260
0.000235
0.000248
0.000251
0.000268
0.000247
0.000270
0.000261
0.000269
0.000256
0.000288
0.001742
0.000284
0.001747
0.000260
0.000252
0.000270
0.000266
0.000268
0.000277
0.000198
0.000055
0.000207
0.000253
0.001332
0.000219
0.000257
0.000256
0.000259
0.000255
0.000242
0.000250
0.000250
0.000245
0.000265
0.000262
0.000256
0.000263
0.000261
0.000287
0.000291
0.000234
0.001880
0.000225
0.001857
0.000230
0.000253
0.000276
0.000227
0.000253
0.000253
0.000275
0.000189
0.000055
0.001449
0.000246
0.000214
0.000244
0.000237
0.000237
0.000375
0.000263
0.000258
0.000250
0.000254
0.000263
0.000241
0.000466
0.000269
0.000313
0.000239
0.000263
0.000267
0.000245
0.000270
0.000345
0.000226
0.000258
0.000266
0.000278
0.000275
0.000372
0.000598
0.000365
0.000190
0.000055
0.000205
0.000242
0.000271
0.000294
0.000375
0.000262
0.001699
0.000294
0.000277
0.000270
0.000249
0.000292
0.000266
0.000262
0.000277
0.000313
0.000341
0.000670
0.000275
0.000277
0.000296
0.000267
0.000263
0.000264
0.000343
0.000285
0.000236
0.000251
0.000260
0.000293
0.000526
0.000057
0.000261
0.000469
0.000269
0.000264
0.000251
0.000224
0.000223
0.000253
0.000259
0.000258
0.001565
0.000174
0.000224
0.000250
0.000242
0.000290
0.000276
0.000231
0.000269
0.000265
0.000272
0.000434
0.000452
0.000337
0.000285
0.000270
0.000264
0.000257
0.000232
0.000318
0.000169
0.000056
0.000205
0.000229
0.000269
0.000516
0.000355
0.000256
0.000219
0.000248
0.000254
0.000249
0.000236
0.000250
0.000257
0.000265
0.000241
0.000233
0.000413
0.001194
0.000269
0.000233
0.000274
0.000244
0.000350
0.000432
0.000250
0.000284
0.000653
0.000325
0.000361
0.000236
0.000189
0.000057
0.000197
0.000247
0.000259
0.000266
0.000251
0.000246
0.000450
0.000309
0.000442
0.000271
0.000403
0.000364
0.000370
0.000355
0.000259
0.000251
0.000237
0.000282
0.000437
0.001371
0.000291
0.000232
0.000272
0.000268
0.000241
0.000233
0.000266
0.000316
0.000424
0.000440
0.000252
0.000055
0.000196
0.000247
0.000243
0.000256
0.000246
0.000236
0.000236
0.000261
0.000383
0.000203
0.000480
0.000389
0.000247
0.000236
0.000252
0.000256
0.000254
0.000273
0.000251
0.000247
0.000445
0.000281
0.000367
0.000434
0.000272
0.000257
0.000274
0.000269
0.000253
0.000341
0.000152
0.000056
0.000308
0.000318
0.000287
0.000448
0.000389
0.000357
0.000255
0.000244
0.000253
0.000264
0.000258
0.000263
0.000239
0.000253
0.000244
0.000226
0.000265
0.000462
0.000406
0.000333
0.000225
0.000281
0.000243
0.000248
0.000266
0.000278
0.000273
0.000254
0.000278
0.000270
0.000267
0.000055
0.000331
0.000304
0.000238
0.000245
0.000245
0.000249
0.000241
0.000251
0.000282
0.000246
0.000257
0.000232
0.000278
0.000496
0.000439
0.000288
0.000243
0.000249
0.000260
0.000263
0.000251
0.000266
0.000258
0.000267
0.000269
0.000337
0.000453
0.000546
0.000395
0.000262
0.000167
0.000054
0.000392
0.000200
0.000240
0.000244
0.000247
0.000248
0.000243
0.000254
0.000251
0.000260
0.000219
0.000248
0.000277
0.000221
0.000238
0.000271
0.000249
0.000264
0.000291
0.000239
0.000266
0.000254
0.000269
0.000260
0.000266
0.000238
0.000267
0.000274
0.000261
0.000279
0.000195
0.000056
0.000200
0.000239
0.000248
0.000251
0.000230
0.000259
0.000261
0.000235
0.000260
0.000279
0.000231
0.000231
0.000261
0.000398
0.000255
0.000275
0.000258
0.000288
0.000234
0.000283
0.000271
0.000235
0.000243
0.000256
0.000273
0.000274
0.000254
0.000248
0.000271
0.000261
0.000207
0.000055
0.000240
0.000328
0.000368
0.000279
0.000297
0.000262
0.000271
0.000255
0.000224
0.000255
0.000236
0.000267
0.000250
0.000234
0.000259
0.000258
0.000263
0.000274
0.000240
0.000261
0.000281
0.000259
0.000279
0.000257
0.000268
0.000270
0.000243
0.000268
0.000273
0.000258
0.000200
0.000056
0.000215
0.000233
0.000265
0.000259
0.000488
0.000216
0.000208
0.000249
0.000296
0.000451
0.000517
0.000239
0.000236
0.000237
0.000270
0.000266
0.000236
0.000278
0.000253
0.000267
0.000268
0.000256
0.000260
0.000298
0.000533
0.000528
0.000217
0.000303
0.000261
0.000267
0.000185
0.000055
0.000212
0.000218
0.000247
0.000252
0.000451
0.000494
0.000336
0.000382
0.000211
0.000252
0.000245
0.000254
0.000247
0.000254
0.000259
0.000274
0.000254
0.000264
0.000684
0.000412
0.000221
0.000236
0.000259
0.000285
0.000277
0.000255
0.000267
0.000266
0.000251
0.000341
0.000311
0.000055
0.000294
0.000235
0.000237
0.000238
0.000250
0.000256
0.000223
0.000254
0.000245
0.000257
0.000250
0.000244
0.000262
0.000364
0.000636
0.000382
0.000199
0.000260
0.000261
0.000241
0.000271
0.000273
0.000484
0.000226
0.000262
0.000592
0.000394
0.000528
0.000235
0.000256
0.000176
0.000055
0.000217
0.000238
0.000242
0.000241
0.000258
0.000255
0.000265
0.000464
0.000596
0.000431
0.000209
0.000264
0.000277
0.000276
0.000256
0.000248
0.000235
0.000248
0.000256
0.000338
0.000402
0.000636
0.000368
0.000260
0.000370
0.000365
0.000482
0.000248
0.000265
0.000523
0.000348
0.000056
0.000176
0.000232
0.000432
0.000224
0.000236
0.000254
0.000262
0.000257
0.000235
0.000239
0.000257
0.000421
0.000344
0.000382
0.000199
0.000260
0.000249
0.000254
0.000263
0.000278
0.000271
0.000250
0.000254
0.000273
0.000306
0.000579
0.000390
0.000247
0.000264
0.000267
0.000195
0.000056
0.000207
0.000254
0.000232
0.000238
0.000249
0.000274
0.000384
0.000309
0.000483
0.000302
0.000359
0.000225
0.000245
0.000266
0.000254
0.000238
0.000261
0.000252
0.000317
0.000346
0.000523
0.000308
0.000479
0.000306
0.000407
0.000386
0.000375
0.000231
0.000258
0.000337
0.000387
0.000055
0.000265
0.000283
0.000220
0.000254
0.000276
0.000244
0.000246
0.000248
0.000254
0.000263
0.000228
0.000354
0.000510
0.000319
0.000378
0.000224
0.000264
0.000263
0.000271
0.000234
0.000251
0.000255
0.000261
0.000277
0.000280
0.000363
0.000449
0.000484
0.000235
0.000280
0.000190
0.000057
0.000181
0.000251
0.000262
0.000240
0.000255
0.000338
0.000594
0.000384
0.000373
0.000668
0.000268
0.000221
0.000236
0.000263
0.000249
0.000262
0.000276
0.000273
0.000489
0.000499
0.001425
0.000301
0.000259
0.000258
0.000295
0.000271
0.000459
0.000358
0.000330
0.000343
0.000163
0.000054
0.000213
0.000232
0.000247
0.000245
0.000233
0.000260
0.000275
0.000244
0.000252
0.000343
0.000330
0.000383
0.000267
0.000385
0.000332
0.000353
0.000239
0.000249
0.000268
0.000257
0.000244
0.000250
0.000285
0.000240
0.000352
0.000415
0.000433
0.000303
0.000230
0.000274
0.000189
0.000055
0.000213
0.000244
0.000257
0.000254
0.000240
0.000240
0.000470
0.000212
0.000236
0.000250
0.000249
0.000250
0.000261
0.000258
0.000247
0.000270
0.000259
0.000265
0.000271
0.000259
0.000258
0.000286
0.000299
0.000246
0.000263
0.000277
0.000269
0.000280
0.000250
0.000275
0.000170
0.000055
0.000219
0.000254
0.000273
0.000436
0.000376
0.000259
0.000231
0.000247
0.000260
0.000249
0.000258
0.000245
0.000265
0.000262
0.000238
0.000242
0.000248
0.000267
0.000290
0.000317
0.000454
0.000402
0.000224
0.000270
0.000272
0.000244
0.000268
0.000254
0.000274
0.000278
0.000192
0.000056
0.000352
0.000383
0.000425
0.000217
0.000250
0.000254
0.000414
0.000223
0.000227
0.000260
0.000255
0.000336
0.000307
0.000433
0.001873
0.000249
0.000243
0.000252
0.000276
0.000238
0.000360
0.000517
0.000545
0.000269
0.000239
0.000258
0.000275
0.000427
0.000280
0.000279
0.000157
0.000056
0.000248
0.000346
0.000334
0.000313
0.000491
0.000205
0.000249
0.000239
0.000273
0.000226
0.000256
0.000251
0.000260
0.000304
0.000553
0.000348
0.000216
0.000248
0.000259
0.000264
0.000261
0.000316
0.000241
0.000273
0.000281
0.000442
0.000619
0.000285
0.000470
0.000240
0.000194
0.000055
0.000229
0.000231
0.000254
0.000229
0.000251
0.000250
0.000272
0.000271
0.000343
0.000359
0.000467
0.000331
0.000231
0.000242
0.000268
0.000306
0.000285
0.000230
0.000274
0.000275
0.000235
0.000319
0.000460
0.000372
0.000276
0.000252
0.000272
0.000462
0.000428
0.000307
0.000148
0.000055
0.000190
0.000241
0.000325
0.000433
0.000375
0.000210
0.000235
0.000268
0.000246
0.000258
0.000262
0.000270
0.000216
0.000256
0.000257
0.000289
0.000482
0.000276
0.000302
0.000342
0.000492
0.000230
0.000274
0.000280
0.000319
0.000267
0.000254
0.000276
0.000482
0.000534
0.000153
0.000055
0.000206
0.000230
0.000251
0.000246
0.000242
0.000477
0.000211
0.000260
0.000267
0.000389
0.000415
0.000610
0.000203
0.000246
0.000243
0.000248
0.000258
0.000249
0.000257
0.000253
0.000258
0.000267
0.000365
0.000412
0.000364
0.000407
0.000291
0.000353
0.000262
0.000260
0.000182
0.000055
0.000248
0.000213
0.000257
0.000502
0.000309
0.000285
0.000273
0.000210
0.000255
0.000265
0.000246
0.000248
0.000253
0.000263
0.000249
0.000266
0.000244
0.000247
0.000271
0.000442
0.000391
0.000456
0.000216
0.000256
0.000289
0.000261
0.000265
0.000253
0.000283
0.000254
0.000192
0.000055
0.000273
0.000351
0.000484
0.000240
0.000224
0.000253
0.000330
0.000446
0.000280
0.000223
0.000239
0.000272
0.000258
0.000385
0.000525
0.000252
0.000239
0.000241
0.000251
0.000269
0.000269
0.000264
0.000263
0.000272
0.000265
0.000335
0.000348
0.000462
0.000272
0.000246
0.000184
0.000056
0.000243
0.000236
0.000246
0.000252
0.000251
0.000265
0.000237
0.000253
0.000245
0.000252
0.000270
0.000232
0.000266
0.001450
0.000236
0.000256
0.000254
0.000258
0.000267
0.000274
0.000262
0.000243
0.000274
0.000254
0.000269
0.000267
0.000271
0.000272
0.000270
0.000260
0.000187
0.000056
0.000196
0.000229
0.000250
0.000252
0.000235
0.000247
0.000259
0.000258
0.000230
0.000244
0.000249
0.000264
0.000272
0.000236
0.000258
0.000264
0.000242
0.000258
0.000277
0.000253
0.000254
0.000262
0.000247
0.000252
0.001290
0.000265
0.000572
0.000445
0.000334
0.000252
0.000182
0.000055
0.000205
0.000234
0.000245
0.000252
0.000404
0.000262
0.000228
0.000237
0.000256
0.000355
0.000471
0.000323
0.000234
0.000239
0.000260
0.000257
0.000259
0.000262
0.000251
0.000255
0.000260
0.000257
0.000256
0.000532
0.000420
0.000451
0.000212
0.000266
0.001388
0.000224
0.000185
0.000055
0.000333
0.000388
0.000317
0.000257
0.000237
0.000232
0.000231
0.000249
0.000259
0.000254
0.000246
0.000263
0.000267
0.000300
0.000572
0.000346
0.000332
0.000222
0.000254
0.000254
0.000267
0.000266
0.000267
0.000267
0.000269
0.000264
0.000295
0.000591
0.000358
0.000372
0.000150
0.000055
0.000210
0.000220
0.001279
0.000416
0.000280
0.000498
0.000353
0.000488
0.000283
0.000331
0.000219
0.000235
0.000260
0.000256
0.000244
0.000265
0.000432
0.000470
0.000317
0.000385
0.000255
0.000252
0.000265
0.000494
0.000234
0.000267
0.000259
0.000278
0.000293
0.000597
0.000250
0.000054
0.000393
0.000334
0.000209
0.000214
0.001600
0.000414
0.000303
0.000251
0.000256
0.000249
0.000225
0.000241
0.000246
0.000270
0.000249
0.000262
0.000238
0.000258
0.000429
0.000399
0.000428
0.000245
0.000260
0.000255
0.000254
0.000273
0.000274
0.000239
0.000262
0.000280
0.000190
0.000056
0.000374
0.000338
0.000248
0.000214
0.000250
0.000245
0.000263
0.000233
0.000228
0.000233
0.001378
0.000515
0.000251
0.000249
0.000231
0.000258
0.000275
0.000265
0.000235
0.000275
0.000274
0.000248
0.000279
0.000387
0.000538
0.000343
0.000230
0.000276
0.000273
0.000279
0.000174
0.000056
0.000202
0.000411
0.000219
0.000236
0.000419
0.000370
0.000371
0.000317
0.000459
0.000206
0.000233
0.000254
0.000261
0.000265
0.000260
0.001462
0.000307
0.000289
0.000249
0.000268
0.000277
0.000245
0.000257
0.000256
0.000260
0.000269
0.000377
0.000519
0.000287
0.000279
0.000154
0.000055
0.000227
0.000232
0.000256
0.000234
0.000226
0.000265
0.000243
0.000250
0.000280
0.000395
0.000451
0.000245
0.000255
0.000246
0.000240
0.000275
0.000273
0.000263
0.000266
0.000233
0.000259
0.000300
0.001262
0.000254
0.000260
0.000244
0.000275
0.000255
0.000258
0.000258
0.000189
0.000055
0.000273
0.000301
0.000345
0.000387
0.000226
0.000240
0.000257
0.000265
0.000253
0.000252
0.000253
0.000272
0.000237
0.000285
0.000229
0.000264
0.000265
0.000270
0.000266
0.000249
0.000250
0.000274
0.000266
0.000282
0.000289
0.000264
0.000270
0.000254
0.000261
0.000441
0.001367
0.000055
0.000193
0.000233
0.000237
0.000241
0.000255
0.000258
0.000248
0.000230
0.000243
0.000250
0.000275
0.000248
0.000252
0.000244
0.000268
0.000228
0.001724
0.000268
0.000237
0.000256
0.000252
0.000259
0.000270
0.000262
0.000276
0.000253
0.000269
0.000274
0.000271
0.000264
0.000219
0.000055
0.000316
0.000309
0.001300
0.000214
0.000238
0.000251
0.000255
0.000252
0.000258
0.000259
0.000229
0.000360
0.000399
0.000422
0.000296
0.000214
0.000245
0.000256
0.000260
0.000265
0.000245
0.000270
0.000261
0.000287
0.000258
0.000402
0.000370
0.000356
0.000318
0.000245
0.000194
0.000056
0.000226
0.000252
0.000246
0.000248
0.000250
0.000221
0.000240
0.000247
0.000442
0.001328
0.000266
0.000212
0.000249
0.000274
0.000248
0.000267
0.000261
0.000247
0.000316
0.000450
0.000364
0.000252
0.000236
0.000244
0.000279
0.000276
0.000265
0.000297
0.000266
0.000277
0.000191
0.000057
0.000218
0.000488
0.000351
0.000216
0.000235
0.000237
0.000247
0.000271
0.000268
0.000249
0.000226
0.000234
0.000456
0.000555
0.000433
0.001443
0.000248
0.000275
0.000327
0.000341
0.000481
0.000420
0.000456
0.000406
0.000233
0.000264
0.000268
0.000275
0.000264
0.000270
0.000204
0.000057
0.000203
0.000234
0.000495
0.000575
0.000231
0.000238
0.000244
0.000241
0.000246
0.000255
0.000247
0.000264
0.000269
0.000241
0.000268
0.000356
0.000274
0.000443
0.000381
0.001325
0.000267
0.000257
0.000263
0.000251
0.000459
0.000481
0.000367
0.000223
0.000278
0.000272
0.000191
0.000056
0.000209
0.000243
0.000242
0.000244
0.000267
0.000282
0.000439
0.000442
0.000335
0.000187
0.000239
0.000262
0.000269
0.000262
0.000260
0.000261
0.000265
0.000253
0.000280
0.000279
0.000479
0.000417
0.000298
0.001350
0.000420
0.000238
0.000269
0.000427
0.000499
0.000282
0.000325
0.000057
0.000198
0.000232
0.000244
0.000247
0.000253
0.000255
0.001673
0.000240
0.000222
0.000242
0.000261
0.000249
0.000258
0.000330
0.000323
0.000317
0.000248
0.000264
0.000486
0.000451
0.000317
0.000270
0.000229
0.001423
0.000342
0.000347
0.000400
0.000507
0.000298
0.000277
0.000165
0.000055
0.000217
0.000243
0.000254
0.000260
0.000243
0.000256
0.001710
0.000246
0.000232
0.000265
0.000331
0.000467
0.001395
0.000412
0.000326
0.000244
0.000257
0.000239
0.000270
0.000267
0.001530
0.000552
0.000405
0.000293
0.000255
0.000242
0.000263
0.000281
0.000249
0.000248
0.000193
0.000055
0.000194
0.000250
0.000264
0.000244
0.000257
0.000290
0.000264
0.000266
0.000243
0.000254
0.000249
0.000252
0.000263
0.000264
0.000253
0.001496
0.000282
0.000234
0.000265
0.000278
0.000271
0.000282
0.000411
0.001256
0.000276
0.000238
0.000292
0.000237
0.000391
0.000243
0.000208
0.000055
0.000216
0.000249
0.000221
0.000245
0.000236
0.000233
0.000232
0.001694
0.000247
0.000229
0.000257
0.000366
0.000230
0.000221
0.000258
0.001377
0.000242
0.000266
0.000266
0.000245
0.000263
0.000347
0.000275
0.001311
0.000277
0.000252
0.000257
0.000264
0.001378
0.000279
0.000215
0.000055
0.000325
0.000277
0.000207
0.000237
0.000255
0.000256
0.000247
0.000266
0.000268
0.000244
0.000262
0.000267
0.000250
0.000250
0.000304
0.001498
0.000255
0.000267
0.000257
0.000244
0.000284
0.000261
0.000253
0.001500
0.000344
0.000246
0.000272
0.001266
0.000265
0.000255
0.000214
0.000055
0.000231
0.000379
0.000339
0.000214
0.000238
0.000241
0.000263
0.000253
0.000270
0.000270
0.000241
0.000246
0.000261
0.000263
0.000474
0.001169
0.000244
0.000244
0.000268
0.000276
0.000230
0.000245
0.000247
0.000361
0.001234
0.000264
0.000245
0.000270
0.000232
0.001334
0.000337
0.000055
0.000320
0.000288
0.000198
0.000231
0.000240
0.000259
0.000239
0.000249
0.000276
0.000250
0.000241
0.000251
0.000269
0.000384
0.000381
0.001429
0.000214
0.000261
0.000298
0.000512
0.000285
0.000451
0.001284
0.000292
0.000247
0.000282
0.000241
0.001297
0.000375
0.000433
0.000337
0.000056
0.000200
0.000251
0.000253
0.000262
0.000249
0.000252
0.000273
0.000246
0.000263
0.000263
0.000340
0.000458
0.001335
0.000221
0.000259
0.000263
0.000282
0.000230
0.000244
0.000238
0.000375
0.001206
0.000254
0.000249
0.000256
0.000259
0.001483
0.000489
0.000435
0.000226
0.000200
0.000055
0.000196
0.000231
0.000246
0.000234
0.000256
0.000263
0.000241
0.000273
0.000414
0.000482
0.000272
0.001492
0.000225
0.000231
0.000268
0.000255
0.000288
0.000316
0.001633
0.000259
0.000405
0.000317
0.001308
0.000343
0.000303
0.000322
0.000261
0.000256
0.000268
0.000271
0.000184
0.000055
0.000222
0.000238
0.000334
0.000230
0.000412
0.000506
0.000236
0.000286
0.001476
0.000233
0.000384
0.000271
0.000210
0.000310
0.000457
0.001255
0.000268
0.000242
0.000239
0.000272
0.001508
0.000395
0.000332
0.000229
0.000248
0.000245
0.000464
0.000331
0.000245
0.000242
0.000262
0.000056
0.000269
0.000345
0.000352
0.000274
0.000208
0.001522
0.000220
0.000238
0.000268
0.000274
0.000270
0.000238
0.000326
0.001511
0.000207
0.000226
0.000449
0.001177
0.000306
0.000488
0.000385
0.000241
0.000241
0.000250
0.000275
0.000242
0.000456
0.000224
0.000268
0.000282
0.000190
0.000056
0.000226
0.000232
0.000381
0.000349
0.001312
0.000283
0.000305
0.000235
0.000240
0.000250
0.000255
0.000261
0.001549
0.000266
0.000224
0.000257
0.001364
0.000291
0.000415
0.000393
0.000427
0.000228
0.000253
0.000254
0.000280
0.000263
0.000274
0.000253
0.000263
0.000257
0.000188
0.000056
0.000246
0.000321
0.001505
0.000206
0.000275
0.000277
0.000240
0.000250
0.000262
0.000358
0.001416
0.000210
0.000255
0.000268
0.000259
0.001289
0.000745
0.000233
0.000330
0.000400
0.000286
0.000248
0.000286
0.000243
0.000272
0.000288
0.000278
0.000299
0.000411
0.000446
0.001387
0.000056
0.000210
0.000243
0.000241
0.000227
0.000247
0.000398
0.000544
0.001252
0.000239
0.000245
0.000263
0.001431
0.000356
0.000389
0.000232
0.000401
0.000254
0.000244
0.000265
0.000301
0.000213
0.000276
0.000279
0.000262
0.000252
0.000393
0.000333
0.000467
0.001504
0.000229
0.000187
0.000056
0.000200
0.000248
0.000389
0.000496
0.001248
0.000278
0.000249
0.000276
0.000232
0.000249
0.000254
0.000259
0.000362
0.000483
0.000349
0.000237
0.000258
0.000275
0.000244
0.000272
0.000252
0.000295
0.000238
0.000269
0.000258
0.000393
0.000512
0.000320
0.000317
0.001398
0.000170
0.000056
0.000203
0.000243
0.000310
0.000438
0.000315
0.000315
0.000308
0.000339
0.000267
0.000260
0.000257
0.000261
0.000276
0.000287
0.000232
0.000275
0.000558
0.000365
0.000261
0.000388
0.000274
0.000403
0.000227
0.000263
0.000251
0.000262
0.000251
0.000288
0.000319
0.000540
0.000293
0.000055
0.000209
0.001406
0.000256
0.000321
0.000451
0.000406
0.000409
0.000249
0.000217
0.000240
0.000269
0.000240
0.000264
0.000269
0.000266
0.000248
0.000266
0.001390
0.000221
0.000259
0.000258
0.000269
0.000271
0.000282
0.000269
0.000250
0.000277
0.000252
0.000337
0.000407
0.000391
0.000056
0.000208
0.000252
0.000223
0.001490
0.000318
0.000247
0.000235
0.000247
0.000225
0.000256
0.000247
0.000274
0.000249
0.000252
0.000266
0.000252
0.000250
0.000267
0.000262
0.000265
0.001428
0.000232
0.000242
0.000277
0.000260
0.000243
0.000270
0.000258
0.000277
0.000496
0.000341
0.000055
0.000212
0.000235
0.000393
0.000284
0.000247
0.000251
0.001535
0.000345
0.000302
0.000217
0.000255
0.000313
0.000333
0.000231
0.000229
0.000249
0.000247
0.000258
0.000261
0.000259
0.000483
0.000485
0.001139
0.000279
0.000236
0.000259
0.000267
0.000258
0.000270
0.000261
0.000373
0.000056
0.000343
0.000269
0.000213
0.000243
0.000250
0.000241
0.000247
0.000225
0.000288
0.001643
0.000391
0.000225
0.000244
0.000255
0.000257
0.000242
0.000263
0.000270
0.000281
0.000317
0.000281
0.000552
0.000378
0.001371
0.000234
0.000267
0.000272
0.000260
0.000266
0.000414
0.000460
0.000056
0.000274
0.000241
0.000235
0.000242
0.000221
0.000242
0.000265
0.000249
0.000270
0.001650
0.000274
0.000260
0.000257
0.000265
0.000457
0.000270
0.000531
0.000367
0.000301
0.000331
0.000447
0.000429
0.001288
0.000255
0.000243
0.000257
0.001782
0.000375
0.000612
0.000326
0.000144
0.000055
0.000195
0.000228
0.000239
0.000238
0.000256
0.000245
0.000244
0.000566
0.000410
0.000441
0.000276
0.000231
0.000242
0.000261
0.000265
0.000262
0.000250
0.000252
0.000255
0.000270
0.000251
0.000439
0.001346
0.000224
0.000252
0.000272
0.001899
0.000382
0.000372
0.000351
0.000164
0.000056
0.000246
0.000242
0.000243
0.001653
0.000339
0.000209
0.000238
0.000262
0.000253
0.000296
0.000375
0.000373
0.000354
0.000285
0.000314
0.000489
0.000385
0.001206
0.000270
0.000233
0.000256
0.000262
0.000273
0.000417
0.000641
0.000417
0.000258
0.000265
0.000269
0.000285
0.000189
0.000055
0.000199
0.000235
0.000240
0.001551
0.000240
0.000237
0.000239
0.000254
0.000243
0.000251
0.000259
0.000271
0.000266
0.000285
0.000237
0.000357
0.000513
0.000299
0.001383
0.000233
0.000266
0.000254
0.000261
0.000291
0.000401
0.000449
0.000443
0.000267
0.000270
0.000225
0.000462
0.000056
0.000212
0.000254
0.000240
0.001526
0.000314
0.000220
0.000269
0.000246
0.000251
0.000256
0.000252
0.000255
0.000259
0.000275
0.000336
0.000548
0.001389
0.000755
0.000257
0.000333
0.000257
0.000237
0.000248
0.000274
0.001682
0.000790
0.000242
0.000261
0.000279
0.000290
0.000184
0.000055
0.000204
0.000233
0.000253
0.000245
0.000255
0.000248
0.000236
0.000259
0.000243
0.000239
0.000280
0.000280
0.000251
0.000251
0.000262
0.000244
0.000269
0.001608
0.000702
0.000396
0.000299
0.000230
0.000239
0.000286
0.000263
0.000257
0.000277
0.000255
0.001451
0.000337
0.000405
0.000056
0.000195
0.000234
0.000252
0.000247
0.000263
0.000233
0.000254
0.000250
0.000257
0.000263
0.000276
0.000433
0.000433
0.000326
0.000212
0.000250
0.000258
0.001392
0.000693
0.000563
0.000240
0.000272
0.000234
0.000253
0.000272
0.000255
0.000257
0.000280
0.001491
0.000418
0.000185
0.000056
0.000201
0.000228
0.000245
0.000251
0.000249
0.000247
0.000237
0.000249
0.000273
0.000261
0.000438
0.000284
0.000350
0.000220
0.000249
0.000243
0.000268
0.000249
0.001559
0.000649
0.000445
0.000329
0.000237
0.000256
0.000255
0.000265
0.000263
0.000282
0.000272
0.001342
0.000334
0.000056
0.000213
0.000219
0.000230
0.000256
0.000252
0.000242
0.000272
0.000308
0.000395
0.000372
0.000412
0.000535
0.000181
0.000224
0.000260
0.000241
0.000276
0.000258
0.000266
0.001961
0.000284
0.000244
0.000443
0.000247
0.000245
0.000263
0.000272
0.000256
0.000287
0.000261
0.000355
0.000055
0.000278
0.000246
0.000230
0.000244
0.000254
0.000249
0.000222
0.000241
0.000267
0.000252
0.000248
0.000246
0.000287
0.000444
0.000568
0.000338
0.000223
0.000259
0.000253
0.000257
0.000254
0.000324
0.001425
0.001053
0.000233
0.000238
0.000272
0.000263
0.000269
0.000254
0.000197
0.000055
0.000235
0.001320
0.000290
0.000217
0.000238
0.000253
0.000254
0.000237
0.000240
0.000251
0.000252
0.000264
0.000242
0.000370
0.000394
0.000423
0.000297
0.000248
0.000268
0.000269
0.000271
0.000225
0.000261
0.000264
0.001327
0.000684
0.000354
0.000335
0.000430
0.000405
0.000239
0.000055
0.000207
0.000290
0.001356
0.000266
0.000213
0.000255
0.000230
0.000259
0.000253
0.000256
0.000246
0.000251
0.000295
0.000405
0.000497
0.000296
0.000222
0.000274
0.000334
0.000212
0.000251
0.000272
0.000234
0.000270
0.000270
0.001535
0.000739
0.000300
0.000276
0.000276
0.000189
0.000055
0.000199
0.000263
0.000450
0.000318
0.001306
0.000234
0.000247
0.000235
0.000233
0.000247
0.000247
0.000252
0.000232
0.000240
0.000273
0.000238
0.000272
0.000233
0.000255
0.000256
0.000269
0.000265
0.000302
0.000340
0.000220
0.000262
0.000267
0.001454
0.000260
0.000254
0.000162
0.000056
0.000205
0.000237
0.000247
0.000316
0.000356
0.000341
0.000386
0.000281
0.001546
0.000238
0.000298
0.000580
0.000260
0.000242
0.000429
0.000225
0.000252
0.000265
0.000271
0.000271
0.000275
0.000269
0.000254
0.000268
0.000311
0.000359
0.000395
0.000328
0.001574
0.000233
0.000192
0.000055
0.000188
0.000238
0.000268
0.000228
0.000237
0.000251
0.000259
0.000277
0.000434
0.002038
0.000255
0.000233
0.000254
0.000257
0.000259
0.000254
0.000260
0.000267
0.000256
0.000429
0.000452
0.000373
0.001456
0.000252
0.000521
0.000237
0.001766
0.000246
0.000258
0.001521
0.000161
0.000056
0.000341
0.000495
0.000380
0.000246
0.000264
0.000242
0.000245
0.000272
0.000259
0.000225
0.000252
0.000373
0.000377
0.000371
0.000406
0.000240
0.000242
0.001558
0.000247
0.000589
0.001854
0.000297
0.000236
0.001555
0.001998
0.000753
0.000279
0.000252
0.000276
0.000599
0.000232
0.000056
0.000231
0.000247
0.000244
0.000238
0.001422
0.001726
0.001082
0.000211
0.000247
0.001637
0.001906
0.000214
0.000235
0.000421
0.000323
0.000463
0.000248
0.000527
0.000212
0.000242
0.000248
0.000259
0.000265
0.001612
0.001181
0.001436
0.000269
0.000310
0.000247
0.000290
0.000363
0.000056
0.000257
0.000196
0.000235
0.000243
0.000229
0.000244
0.000249
0.000250
0.000259
0.000246
0.000246
0.000308
0.000418
0.000560
0.000207
0.000262
0.000253
0.000269
0.000269
0.000267
0.000251
0.000261
0.001630
0.000361
0.002107
0.000231
0.000273
0.000417
0.000342
0.000393
0.000205
0.000056
0.000219
0.000332
0.000492
0.000321
0.000195
0.000227
0.000259
0.000237
0.000242
0.000246
0.000247
0.000268
0.000259
0.001605
0.001356
0.001220
0.000270
0.000258
0.000239
0.000273
0.000285
0.000274
0.000240
0.000256
0.002204
0.000266
0.000240
0.000294
0.000322
0.000304
0.000223
0.000056
0.000189
0.000418
0.000521
0.000291
0.000237
0.000238
0.000245
0.000268
0.001890
0.001432
0.000223
0.000385
0.000393
0.000354
0.000251
0.000226
0.000256
0.000271
0.000259
0.000263
0.000261
0.000276
0.000454
0.000238
0.000273
0.000269
0.000249
0.000276
0.000285
0.000246
0.000204
0.000056
0.000210
0.000242
0.000252
0.000242
0.000260
0.000258
0.001545
0.001405
0.001335
0.000237
0.000235
0.000243
0.000262
0.000264
0.000247
0.000251
0.000249
0.002101
0.000260
0.000233
0.000267
0.000260
0.000256
0.000263
0.000267
0.000257
0.000269
0.000262
0.000273
0.000251
0.000181
0.000056
0.000189
0.002676
0.001392
0.000224
0.000319
0.000282
0.000236
0.000260
0.000258
0.000245
0.000255
0.000243
0.000237
0.000248
0.000271
0.000255
0.000269
0.000263
0.000256
0.000264
0.000272
0.000287
0.000267
0.000261
0.000253
0.000240
0.000267
0.000274
0.000262
0.000265
0.000385
0.000055
0.001539
0.000249
0.001241
0.000228
0.000227
0.000261
0.000242
0.000252
0.000244
0.000362
0.000268
0.000390
0.000339
0.000217
0.000249
0.002144
0.000248
0.000244
0.000340
0.000455
0.000393
0.000264
0.000227
0.000251
0.000266
0.000246
0.000267
0.000278
0.000268
0.001620
0.001244
0.000056
0.000206
0.000242
0.000253
0.000440
0.000376
0.000250
0.000211
0.000231
0.000249
0.000261
0.000266
0.000246
0.000237
0.000244
0.000261
0.000240
0.000413
0.000538
0.000349
0.000249
0.000229
0.000266
0.000286
0.000249
0.000254
0.000250
0.000263
0.000273
0.000246
0.000365
0.000322
0.000056
0.001130
0.000220
0.000514
0.000313
0.000268
0.000230
0.000235
0.000233
0.000245
0.002316
0.000402
0.000350
0.000208
0.000380
0.000270
0.000267
0.000260
0.000259
0.000268
0.000222
0.000259
0.000308
0.000590
0.000422
0.001876
0.001434
0.000439
0.000501
0.000225
0.000285
0.000202
0.000055
0.000374
0.000219
0.000240
0.000243
0.000247
0.000232
0.000249
0.000253
0.000256
0.000246
0.000259
0.000227
0.000244
0.000260
0.000414
0.000468
0.001848
0.001342
0.000424
0.000443
0.000462
0.000232
0.000248
0.000261
0.002124
0.000560
0.000387
0.000235
0.000281
0.000279
0.000199
0.000055
0.000211
0.000242
0.000255
0.000245
0.000239
0.000380
0.000382
0.000318
0.000287
0.000247
0.000244
0.000248
0.000266
0.002100
0.000342
0.000413
0.000220
0.000254
0.000261
0.000262
0.000250
0.002483
0.000311
0.000220
0.000259
0.000261
0.000252
0.000274
0.000281
0.000278
0.000195
0.000055
0.000225
0.000297
0.000593
0.000348
0.000266
0.000228
0.000224
0.000256
0.000262
0.000251
0.001965
0.000395
0.000283
0.000268
0.000222
0.000260
0.000272
0.000240
0.002211
0.000443
0.000227
0.000267
0.000268
0.000257
0.000257
0.000251
0.000284
0.000245
0.000272
0.000258
0.000191
0.000055
0.000211
0.000240
0.000265
0.000209
0.000245
0.000257
0.000233
0.000249
0.000231
0.002178
0.000230
0.000279
0.000226
0.000423
0.000231
0.000252
0.000275
0.000289
0.000243
0.000264
0.001960
0.000287
0.000380
0.000378
0.000389
0.000385
0.000317
0.000251
0.000261
0.000247
0.000198
0.000055
0.000218
0.000230
0.000240
0.000246
0.000264
0.000306
0.000238
0.002293
0.000248
0.000231
0.000259
0.000252
0.000241
0.000252
0.000308
0.002121
0.000591
0.000229
0.000250
0.000240
0.000262
0.000258
0.000290
0.000265
0.000264
0.000252
0.000285
0.000256
0.000267
0.000260
0.000195
0.000056
0.001813
0.001448
0.000198
0.000232
0.000244
0.000251
0.000250
0.000256
0.000454
0.000368
0.002117
0.000260
0.000236
0.000261
0.000292
0.000496
0.000403
0.000290
0.000232
0.000252
0.000248
0.000268
0.000263
0.000224
0.000264
0.000265
0.000268
0.000263
0.000290
0.000700
0.000312
0.000055
0.000198
0.000241
0.000260
0.000258
0.000255
0.000245
0.000254
0.000255
0.001506
0.002118
0.000545
0.000296
0.000388
0.000729
0.000307
0.000243
0.000254
0.000247
0.000266
0.000259
0.000256
0.000243
0.000252
0.000272
0.001826
0.001453
0.000352
0.000208
0.000286
0.000350
0.000341
0.000056
0.001928
0.000223
0.000229
0.000236
0.000321
0.000348
0.000504
0.000231
0.000280
0.000213
0.000258
0.000246
0.000257
0.000252
0.000271
0.000255
0.000255
0.000264
0.001845
0.000241
0.000229
0.000257
0.000273
0.000282
0.000268
0.000269
0.001474
0.000303
0.000255
0.000258
0.000173
0.000057
0.000199
0.000230
0.000262
0.000223
0.000272
0.000224
0.000288
0.000384
0.000371
0.000339
0.000227
0.000239
0.000253
0.000410
0.000369
0.000296
0.000230
0.000251
0.000264
0.000339
0.000604
0.000370
0.000214
0.000246
0.000261
0.000254
0.000253
0.000275
0.000276
0.000263
0.000202
0.000056
0.001423
0.000452
0.000210
0.001936
0.000268
0.000442
0.000465
0.000276
0.000234
0.000245
0.000264
0.000242
0.000245
0.000248
0.000269
0.000258
0.000461
0.000254
0.000451
0.000367
0.000347
0.000225
0.000246
0.000273
0.000273
0.000268
0.000258
0.000272
0.000381
0.000501
0.001302
0.000058
0.000202
0.000227
0.002108
0.000340
0.000235
0.000262
0.000276
0.000231
0.000262
0.000260
0.000229
0.000241
0.000267
0.000251
0.000253
0.000360
0.000755
0.001718
0.000229
0.000256
0.000254
0.000260
0.000470
0.000330
0.001582
0.000292
0.000362
0.001926
0.000269
0.000249
0.000196
0.000056
0.000216
0.000228
0.000232
0.000242
0.000234
0.000251
0.000261
0.000274
0.000324
0.000285
0.000378
0.000356
0.000336
0.000300
0.000256
0.000248
0.000264
0.000237
0.000273
0.000242
0.000300
0.000295
0.000266
0.000262
0.000269
0.001500
0.000287
0.000404
0.002062
0.000236
0.000174
0.000056
0.000231
0.000237
0.000237
0.000245
0.000485
0.000209
0.000259
0.000322
0.000352
0.000348
0.000295
0.000205
0.000266
0.000264
0.000269
0.000336
0.000415
0.000432
0.000246
0.000405
0.000543
0.000512
0.001490
0.000238
0.000258
0.001986
0.000324
0.000253
0.000238
0.000299
0.000188
0.000057
0.000210
0.000245
0.000227
0.000238
0.000253
0.000270
0.000250
0.000269
0.000272
0.000240
0.001803
0.000350
0.000368
0.000329
0.000408
0.000364
0.000349
0.001496
0.000248
0.000326
0.002151
0.000474
0.000277
0.000238
0.000258
0.000268
0.000499
0.000226
0.000252
0.000285
0.000193
0.000055
0.000292
0.000341
0.000373
0.000280
0.000204
0.000238
0.000266
0.000244
0.000269
0.000303
0.000221
0.000247
0.000264
0.000257
0.000377
0.001475
0.000317
0.000215
0.000280
0.001993
0.000343
0.000221
0.000246
0.000267
0.000247
0.000281
0.000265
0.000266
0.000249
0.000268
0.000205
0.000055
0.000200
0.000424
0.002016
0.000259
0.000259
0.000226
0.000271
0.000259
0.000459
0.000423
0.001301
0.000434
0.000290
0.002095
0.000199
0.000241
0.000271
0.000276
0.000252
0.000252
0.000276
0.000290
0.000257
0.000360
0.000656
0.000251
0.000256
0.002232
0.000583
0.000429
0.000356
0.000056
0.000218
0.000236
0.000241
0.001971
0.000230
0.000223
0.000238
0.000248
0.000238
0.000262
0.000243
0.000260
0.000244
0.000323
0.000425
0.001452
0.000237
0.000260
0.000267
0.000257
0.000232
0.000256
0.000270
0.000257
0.000337
0.000471
0.000452
0.000231
0.001591
0.000289
0.000163
0.000055
0.000209
0.000214
0.000244
0.000230
0.000256
0.000251
0.000250
0.000250
0.000253
0.000377
0.000374
0.001408
0.000236
0.000221
0.000252
0.000259
0.000260
0.000251
0.000496
0.000281
0.000565
0.000285
0.000232
0.001568
0.000241
0.000254
0.000292
0.000276
0.000264
0.000266
0.000193
0.000055
0.000221
0.000225
0.000268
0.000269
0.000249
0.000238
0.000239
0.000241
0.000260
0.000239
0.000253
0.000262
0.000249
0.001482
0.000362
0.000211
0.000256
0.000264
0.000306
0.000326
0.000405
0.000199
0.000245
0.000261
0.000257
0.000280
0.000246
0.001411
0.000279
0.000230
0.000172
0.000056
0.000202
0.000231
0.000257
0.000262
0.000254
0.000235
0.000246
0.000264
0.000222
0.000264
0.000244
0.000257
0.000226
0.000330
0.000355
0.000349
0.000270
0.000232
0.001633
0.000235
0.000246
0.000263
0.000262
0.000298
0.000421
0.000331
0.000450
0.000255
0.000266
0.001605
0.000164
0.000056
0.000313
0.000370
0.000352
0.000312
0.000221
0.000218
0.000245
0.000270
0.000257
0.000235
0.000255
0.000236
0.001462
0.000328
0.000265
0.000226
0.000261
0.000241
0.000271
0.000263
0.000254
0.000239
0.000257
0.000269
0.000317
0.000284
0.000525
0.000362
0.000227
0.000253
0.000189
0.000055
0.000224
0.000233
0.000448
0.000419
0.000315
0.000255
0.000249
0.000248
0.000251
0.000256
0.000240
0.000227
0.000256
0.000251
0.001251
0.000301
0.000238
0.000248
0.000270
0.000280
0.000226
0.000267
0.000254
0.000258
0.000253
0.000256
0.000361
0.000643
0.000447
0.000230
0.000185
0.000055
0.000210
0.001554
0.000294
0.000353
0.000472
0.000294
0.000219
0.000259
0.000260
0.000261
0.000232
0.000263
0.000270
0.000271
0.000256
0.001547
0.000234
0.000282
0.000264
0.000273
0.000243
0.000253
0.000264
0.000263
0.000260
0.000296
0.000482
0.000274
0.000365
0.000252
0.000188
0.000057
0.000213
0.000250
0.000235
0.001712
0.000314
0.000353
0.000225
0.000241
0.000255
0.000270
0.000280
0.000265
0.000236
0.000266
0.000233
0.000278
0.000439
0.001274
0.000256
0.000231
0.001487
0.000579
0.000287
0.000418
0.000342
0.000241
0.000262
0.000462
0.000237
0.000256
0.000190
0.000056
0.000293
0.000218
0.000249
0.000248
0.000251
0.000246
0.000241
0.000257
0.000276
0.000222
0.000260
0.000254
0.000362
0.000489
0.001629
0.001534
0.000318
0.000537
0.000325
0.000226
0.000230
0.000256
0.000255
0.000264
0.000243
0.000285
0.000243
0.000275
0.001522
0.000333
0.000163
0.000057
0.000224
0.000354
0.000352
0.000323
0.000265
0.000213
0.000242
0.000464
0.000315
0.000364
0.002151
0.000327
0.000713
0.000513
0.000453
0.000290
0.000294
0.000409
0.000311
0.000277
0.000395
0.000242
0.001805
0.000281
0.000212
0.000277
0.000246
0.000250
0.000270
0.000264
0.000200
0.000058
0.000208
0.000249
0.000254
0.000250
0.000241
0.001668
0.000885
0.000981
0.000209
0.000252
0.000248
0.000257
0.000259
0.000263
0.000253
0.000249
0.000250
0.000267
0.000264
0.000291
0.001413
0.000317
0.000253
0.000236
0.000230
0.000260
0.000262
0.000276
0.000269
0.000287
0.001884
0.000059
0.000201
0.000221
0.001560
0.000831
0.000422
0.000323
0.000247
0.000230
0.000246
0.000266
0.000236
0.000251
0.000244
0.001998
0.000459
0.000220
0.000248
0.000259
0.000265
0.000258
0.000196
