0.000209
0.018894
0.002760
0.000227
0.000264
0.000284
0.000303
0.000253
0.000329
0.000279
0.000253
0.000360
0.000459
0.000514
0.000428
0.000323
0.000266
0.000384
0.000317
0.000404
0.000318
0.001940
0.000678
0.000272
0.000233
0.000331
0.000279
0.000336
0.000477
0.000327
0.000541
0.000352
0.000057
0.000199
0.000268
0.000289
0.000248
0.000275
0.000244
0.000279
0.000265
0.000270
0.000284
0.000436
0.000519
0.000232
0.000262
0.000409
0.000299
0.000364
0.000259
0.000243
0.001694
0.000317
0.000257
0.000457
0.000243
0.000273
0.000284
0.000283
0.000297
0.000279
0.000321
0.000492
0.000056
0.000231
0.000257
0.000263
0.000260
0.000252
0.000265
0.000240
0.000260
0.000279
0.001678
0.000221
0.000233
0.000271
0.000272
0.000281
0.000266
0.000247
0.000250
0.000360
0.001787
0.000248
0.000278
0.000446
0.000489
0.000338
0.000230
0.000255
0.000460
0.000525
0.000751
0.000201
0.000056
0.000225
0.000240
0.000261
0.000233
0.000301
0.000249
0.000360
0.000483
0.000410
0.000254
0.000247
0.000248
0.000241
0.000254
0.000256
0.000259
0.000289
0.000219
0.000301
0.000320
0.001668
0.000277
0.000260
0.000413
0.000691
0.000307
0.000821
0.000373
0.000335
0.000249
0.000182
0.000058
0.000236
0.000246
0.000262
0.000238
0.000278
0.000241
0.000260
0.000465
0.001467
0.000217
0.000254
0.000241
0.000260
0.000257
0.000276
0.000266
0.000273
0.000873
0.001316
0.000284
0.000452
0.000264
0.000247
0.000202
0.000258
0.000268
0.000253
0.000272
0.000263
0.000268
0.000194
0.000057
0.000200
0.000244
0.000244
0.000270
0.000237
0.000238
0.000261
0.000238
0.000243
0.000249
0.001626
0.000266
0.000231
0.000252
0.000246
0.000252
0.000251
0.000260
0.000238
0.000255
0.000272
0.001662
0.000287
0.000245
0.000441
0.000258
0.000258
0.000260
0.000256
0.000274
0.000193
0.000055
0.000205
0.000229
0.000253
0.000245
0.000246
0.000247
0.000255
0.000236
0.000267
0.000262
0.000262
0.000233
0.000267
0.000272
0.001639
0.000273
0.000291
0.000219
0.000251
0.000278
0.000265
0.000235
0.000250
0.000270
0.001777
0.000361
0.000383
0.000340
0.000261
0.000280
0.000191
0.000056
0.000220
0.000236
0.000249
0.000265
0.000256
0.000235
0.000288
0.000409
0.000391
0.000451
0.000214
0.000244
0.000252
0.000249
0.001587
0.000507
0.000304
0.000554
0.000184
0.000239
0.000258
0.000289
0.000270
0.001753
0.000474
0.000477
0.000255
0.000252
0.000239
0.000268
0.000180
0.000056
0.000194
0.000238
0.000252
0.000265
0.000347
0.000423
0.000382
0.000280
0.000211
0.000278
0.000237
0.000252
0.000241
0.001694
0.000512
0.000278
0.000236
0.000255
0.000281
0.000264
0.000258
0.000252
0.000275
0.001925
0.000281
0.000376
0.000262
0.000247
0.000260
0.000409
0.000328
0.000057
0.000222
0.000370
0.000377
0.000256
0.000253
0.000249
0.000252
0.000257
0.000266
0.000210
0.000250
0.000238
0.001550
0.000445
0.000217
0.000235
0.000261
0.000240
0.000262
0.000266
0.000283
0.000329
0.000241
0.001820
0.000250
0.000488
0.000241
0.000259
0.000263
0.000270
0.000276
0.000055
0.000324
0.000610
0.000614
0.000212
0.000229
0.000278
0.000230
0.000239
0.000242
0.000264
0.000239
0.001707
0.000246
0.000447
0.000367
0.000211
0.000267
0.000209
0.000253
0.000257
0.000252
0.001863
0.000237
0.000238
0.002085
0.000505
0.000365
0.000252
0.000253
0.000273
0.000182
0.000057
0.000209
0.000266
0.000229
0.000239
0.000258
0.001616
0.000251
0.000233
0.000259
0.000251
0.000245
0.000262
0.000237
0.000249
0.000264
0.000391
0.000660
0.000254
0.000234
0.000272
0.000264
0.000248
0.000247
0.000428
0.000439
0.000265
0.000371
0.000708
0.000245
0.000275
0.000209
0.000055
0.000210
0.000248
0.000251
0.000250
0.000232
0.000251
0.000231
0.000464
0.000353
0.001735
0.000216
0.000239
0.000244
0.000248
0.000253
0.000281
0.000507
0.000412
0.000339
0.000232
0.000258
0.000311
0.000280
0.000248
0.000283
0.000430
0.000348
0.000571
0.000577
0.000360
0.000185
0.000056
0.000213
0.000259
0.000242
0.000221
0.000246
0.000239
0.000245
0.000250
0.000255
0.000278
0.000343
0.000368
0.001451
0.000237
0.000244
0.000249
0.000259
0.000251
0.000246
0.000252
0.000277
0.000489
0.000377
0.000266
0.000266
0.000256
0.000256
0.000272
0.000266
0.000266
0.000382
0.000056
0.000218
0.000233
0.000233
0.000291
0.000512
0.000431
0.000241
0.000255
0.000237
0.000257
0.000253
0.000233
0.000299
0.000246
0.000254
0.000490
0.000407
0.001632
0.000286
0.000220
0.000266
0.000261
0.000258
0.000244
0.000258
0.000476
0.000459
0.000366
0.000378
0.000240
0.000192
0.000056
0.000215
0.000432
0.000239
0.000211
0.000268
0.000244
0.000332
0.000525
0.000356
0.000303
0.000214
0.000274
0.000268
0.000243
0.000515
0.000346
0.000231
0.000250
0.000421
0.001613
0.000265
0.000298
0.000464
0.000244
0.000280
0.000281
0.000255
0.000455
0.000443
0.000378
0.000261
0.000056
0.000212
0.000232
0.000235
0.000241
0.000409
0.000312
0.000296
0.000219
0.000431
0.000481
0.000344
0.000254
0.000231
0.000245
0.000258
0.000268
0.000254
0.000254
0.000223
0.000361
0.000285
0.000308
0.001875
0.000236
0.000255
0.000257
0.000290
0.000350
0.000413
0.000712
0.000458
0.000056
0.000240
0.000329
0.000282
0.000429
0.000387
0.000218
0.000256
0.000254
0.000530
0.000446
0.000240
0.000239
0.000240
0.000269
0.000265
0.000227
0.000265
0.000266
0.000264
0.000260
0.000270
0.000401
0.000756
0.001246
0.000337
0.000467
0.000385
0.000260
0.000436
0.000397
0.000360
0.000056
0.000248
0.000382
0.000273
0.000206
0.000222
0.000249
0.000408
0.000239
0.000244
0.000348
0.000437
0.000453
0.000236
0.000257
0.000267
0.000246
0.000376
0.000370
0.000351
0.000245
0.000241
0.000327
0.000749
0.001630
0.000226
0.000453
0.000290
0.000232
0.000259
0.000470
0.000307
0.000057
0.000226
0.000233
0.000247
0.000245
0.000252
0.000242
0.000252
0.000331
0.000449
0.000335
0.000379
0.000410
0.000255
0.000580
0.000246
0.000243
0.000274
0.000261
0.000235
0.000349
0.000229
0.000239
0.000274
0.000432
0.000528
0.001592
0.000271
0.000230
0.000260
0.000265
0.000182
0.000089
0.000311
0.000480
0.000315
0.000219
0.000251
0.000250
0.000255
0.000242
0.000261
0.000244
0.000226
0.000245
0.000415
0.000527
0.000414
0.000260
0.000251
0.000251
0.000350
0.000383
0.000384
0.000331
0.000420
0.000361
0.000216
0.000259
0.000265
0.000275
0.001779
0.000249
0.000214
0.000055
0.000203
0.000220
0.000258
0.000274
0.000365
0.000538
0.000308
0.000215
0.000261
0.000273
0.000238
0.000249
0.000527
0.000441
0.000478
0.000290
0.000261
0.000268
0.000422
0.000463
0.000409
0.000345
0.000568
0.000364
0.000239
0.000269
0.000250
0.000260
0.000249
0.001712
0.000339
0.000057
0.000388
0.000206
0.000208
0.000229
0.000259
0.000250
0.000245
0.000500
0.000370
0.000308
0.000292
0.000293
0.000300
0.000757
0.000254
0.000228
0.000252
0.000261
0.000247
0.000265
0.000268
0.000270
0.000244
0.000258
0.000286
0.000408
0.000381
0.000396
0.000199
0.000266
0.000182
0.000055
0.000452
0.000297
0.000507
0.000208
0.000215
0.000233
0.000269
0.000233
0.000235
0.000224
0.000253
0.000282
0.000291
0.000279
0.000564
0.000549
0.000283
0.000319
0.000387
0.000334
0.000290
0.000243
0.000245
0.000260
0.001748
0.000265
0.001718
0.000946
0.000416
0.000297
0.000162
0.000056
0.000210
0.000243
0.000227
0.000250
0.000257
0.000242
0.000256
0.000251
0.000243
0.000339
0.000376
0.000419
0.000324
0.000376
0.000270
0.000223
0.000254
0.000290
0.000233
0.000243
0.000264
0.000254
0.001803
0.000251
0.000265
0.000249
0.000281
0.000259
0.001876
0.000562
0.000261
0.000057
0.000227
0.000209
0.000239
0.000240
0.000256
0.000254
0.000237
0.000252
0.000250
0.000408
0.000553
0.000472
0.000240
0.000209
0.000228
0.000256
0.000331
0.000443
0.000371
0.000251
0.001767
0.000248
0.000259
0.000240
0.000263
0.000274
0.000241
0.000254
0.000332
0.000282
0.000406
0.000056
0.000234
0.000219
0.000245
0.000258
0.000262
0.000226
0.000261
0.000248
0.000247
0.000249
0.000242
0.000277
0.000360
0.000464
0.000287
0.000267
0.000472
0.000240
0.000251
0.000254
0.000255
0.000264
0.000271
0.000258
0.000280
0.001784
0.000245
0.000266
0.000252
0.000244
0.000189
0.000055
0.000339
0.000316
0.000211
0.000220
0.000241
0.000237
0.000237
0.000253
0.000248
0.000226
0.000233
0.000266
0.000252
0.000356
0.000398
0.000411
0.000255
0.000228
0.000259
0.000278
0.000260
0.000252
0.000235
0.000275
0.000247
0.000265
0.000307
0.001635
0.000257
0.000260
0.000172
0.000057
0.000207
0.000237
0.000248
0.000260
0.000345
0.000427
0.000360
0.000288
0.000230
0.000250
0.000251
0.000244
0.000248
0.000253
0.000264
0.000260
0.000239
0.000261
0.000246
0.000265
0.000268
0.000269
0.000250
0.000237
0.000240
0.000277
0.000274
0.000281
0.000230
0.000265
0.000196
0.000055
0.000193
0.000233
0.000257
0.000258
0.000231
0.000256
0.000240
0.000260
0.000280
0.000238
0.000228
0.000253
0.000256
0.000245
0.000271
0.000258
0.000258
0.000252
0.000336
0.000211
0.000280
0.000289
0.000269
0.000257
0.000269
0.000273
0.000272
0.000252
0.000299
0.000397
0.000646
0.000056
0.000233
0.000282
0.000223
0.000224
0.000243
0.000253
0.000236
0.000247
0.000256
0.000241
0.000263
0.000274
0.000525
0.000553
0.001441
0.000235
0.000492
0.000239
0.000344
0.000442
0.000451
0.000287
0.000221
0.000282
0.000252
0.000263
0.000283
0.000252
0.000304
0.000257
0.000187
0.000057
0.000327
0.000437
0.000327
0.000323
0.000201
0.000261
0.000249
0.000240
0.000239
0.000246
0.000252
0.000257
0.000234
0.000341
0.000321
0.000477
0.000370
0.001799
0.000234
0.000265
0.000328
0.000428
0.000470
0.000268
0.000337
0.000294
0.000301
0.000240
0.000226
0.000249
0.000194
0.000056
0.000194
0.000229
0.000238
0.000283
0.000414
0.000384
0.000358
0.000254
0.000252
0.000213
0.000248
0.000273
0.000266
0.000261
0.000247
0.000262
0.000303
0.000500
0.000322
0.000445
0.000226
0.001746
0.000356
0.000470
0.000628
0.000334
0.000329
0.000228
0.000262
0.000270
0.000441
0.000057
0.000218
0.000259
0.000232
0.000284
0.000429
0.000520
0.000327
0.000207
0.000238
0.000285
0.000247
0.000263
0.000256
0.000289
0.000312
0.000233
0.000238
0.000414
0.000561
0.000225
0.000487
0.001842
0.000254
0.000549
0.000387
0.000368
0.000227
0.000257
0.000282
0.000270
0.000201
0.000056
0.000212
0.000348
0.000359
0.000284
0.000424
0.000292
0.000371
0.000215
0.000248
0.000260
0.000273
0.000230
0.000244
0.000248
0.000252
0.000260
0.000320
0.000360
0.000512
0.000378
0.000296
0.000226
0.000262
0.001708
0.000462
0.000475
0.000686
0.000235
0.000269
0.000295
0.000170
0.000055
0.000194
0.000238
0.000332
0.000244
0.000236
0.000412
0.000407
0.000308
0.000231
0.000547
0.000215
0.000250
0.000259
0.000282
0.000270
0.000268
0.000209
0.000504
0.000368
0.000381
0.000274
0.000224
0.000258
0.000258
0.000257
0.000273
0.000228
0.000259
0.000263
0.000291
0.000240
0.000057
0.000317
0.000351
0.000204
0.000251
0.000250
0.000257
0.000237
0.000295
0.000245
0.000239
0.000261
0.000346
0.000421
0.000399
0.000365
0.000258
0.000225
0.000232
0.000258
0.000271
0.000287
0.000261
0.000233
0.000260
0.000283
0.000315
0.000519
0.000436
0.000181
0.000236
0.000171
0.000055
0.000192
0.000225
0.000283
0.000246
0.000236
0.000252
0.000258
0.000254
0.000488
0.000216
0.000264
0.000248
0.000246
0.000266
0.000273
0.000270
0.000268
0.000344
0.000227
0.000248
0.000246
0.000269
0.000249
0.000274
0.000271
0.000281
0.000249
0.000256
0.000508
0.000253
0.000144
0.000056
0.000206
0.000236
0.000250
0.000272
0.000222
0.000246
0.000357
0.000409
0.000255
0.000221
0.000253
0.000253
0.000235
0.000286
0.000334
0.001866
0.000243
0.000278
0.000262
0.000397
0.000364
0.000356
0.000351
0.000406
0.000372
0.000424
0.000234
0.000267
0.000269
0.000288
0.001377
0.000055
0.000395
0.000289
0.000291
0.000212
0.000237
0.000248
0.000234
0.000268
0.000229
0.000269
0.000248
0.000255
0.000253
0.000321
0.000516
0.001624
0.000253
0.000221
0.000236
0.000270
0.000235
0.000276
0.000399
0.000344
0.000298
0.000349
0.000224
0.000275
0.000273
0.000260
0.000194
0.000057
0.001191
0.000638
0.000244
0.000250
0.000234
0.000227
0.000235
0.000238
0.000487
0.000229
0.000238
0.000246
0.000359
0.000550
0.000365
0.000338
0.000244
0.000227
0.000351
0.000346
0.000266
0.000258
0.000259
0.000246
0.000283
0.000510
0.000611
0.000256
0.000253
0.000267
0.000173
0.000056
0.000195
0.000211
0.000245
0.000254
0.001530
0.000229
0.000222
0.000256
0.000234
0.000249
0.000257
0.000255
0.000239
0.000263
0.000274
0.000280
0.000464
0.000659
0.000233
0.001743
0.000272
0.000275
0.000279
0.000481
0.000542
0.000377
0.000246
0.000251
0.000255
0.000265
0.000207
0.000057
0.000196
0.000249
0.000256
0.000258
0.001300
0.000229
0.000255
0.000264
0.000245
0.000234
0.000247
0.000238
0.000278
0.000248
0.000266
0.000284
0.000422
0.000552
0.000229
0.000259
0.000267
0.000273
0.000246
0.000234
0.000290
0.000259
0.000244
0.000281
0.000274
0.000367
0.000565
0.000056
0.000220
0.000252
0.000238
0.000262
0.000263
0.000237
0.000239
0.000264
0.000270
0.000251
0.001433
0.000225
0.000243
0.000246
0.000249
0.000241
0.000273
0.000261
0.000254
0.000265
0.000274
0.000482
0.000445
0.000412
0.000231
0.000272
0.001755
0.000254
0.000270
0.000319
0.000482
0.000056
0.000218
0.000408
0.000427
0.000505
0.000514
0.000537
0.001495
0.000419
0.000525
0.000654
0.000553
0.000776
0.000455
0.000583
0.000587
0.001883
0.000391
0.000459
0.000396
0.000318
0.000223
0.000297
0.000261
0.000263
0.000258
0.000292
0.000295
0.000286
0.000256
0.000288
0.001372
0.000057
0.000214
0.000226
0.000251
0.000237
0.000258
0.000253
0.000238
0.000243
0.000267
0.000238
0.000256
0.000225
0.000244
0.000266
0.000266
0.000261
0.001809
0.000290
0.000248
0.000242
0.000253
0.000269
0.000256
0.000321
0.000383
0.000470
0.000276
0.000240
0.000259
0.000286
0.000203
0.000055
0.000226
0.001354
0.000326
0.000263
0.000256
0.000240
0.000248
0.000231
0.000231
0.000243
0.000214
0.000256
0.000244
0.000501
0.000366
0.000298
0.000248
0.000262
0.001919
0.000232
0.000244
0.000259
0.000253
0.000280
0.000264
0.000287
0.000271
0.000252
0.000263
0.000322
0.000196
0.000055
0.000207
0.000245
0.000267
0.001423
0.000228
0.000249
0.000242
0.000249
0.000234
0.000270
0.000250
0.000245
0.000249
0.000254
0.000250
0.000267
0.000257
0.000270
0.000264
0.000253
0.000261
0.001777
0.000281
0.001741
0.000267
0.000257
0.000258
0.000274
0.000289
0.000256
0.000199
0.000056
0.000201
0.000267
0.001320
0.000223
0.000259
0.000264
0.000235
0.000259
0.000243
0.000249
0.000244
0.000252
0.000265
0.000254
0.000259
0.000266
0.000261
0.000285
0.000291
0.000234
0.001883
0.000235
0.001822
0.000244
0.000253
0.000287
0.000225
0.000252
0.000251
0.000267
0.000203
0.000056
0.001412
0.000230
0.000221
0.000252
0.000237
0.000237
0.000370
0.000267
0.000249
0.000255
0.000266
0.000248
0.000288
0.000309
0.000397
0.000295
0.000239
0.000279
0.000252
0.000255
0.000264
0.000334
0.000230
0.000260
0.000286
0.000260
0.000273
0.000428
0.000543
0.000367
0.000201
0.000057
0.000231
0.000239
0.000274
0.000296
0.000364
0.000269
0.001649
0.000342
0.000281
0.000264
0.000253
0.000271
0.000286
0.000240
0.000318
0.000292
0.000337
0.000642
0.000313
0.000270
0.000300
0.000273
0.000262
0.000267
0.000317
0.000305
0.000238
0.000255
0.000241
0.000312
0.000418
0.000057
0.000222
0.000471
0.000270
0.000263
0.000247
0.000229
0.000219
0.000255
0.000256
0.000258
0.001518
0.000225
0.000219
0.000256
0.000243
0.000287
0.000259
0.000256
0.000259
0.000271
0.000267
0.000329
0.000594
0.000291
0.000278
0.000290
0.000262
0.000254
0.000235
0.000314
0.000159
0.000055
0.000194
0.000243
0.000278
0.000479
0.000333
0.000288
0.000218
0.000245
0.000256
0.000245
0.000238
0.000254
0.000256
0.000265
0.000244
0.000228
0.000448
0.001166
0.000259
0.000231
0.000280
0.000248
0.000357
0.000419
0.000255
0.000278
0.000697
0.000287
0.000364
0.000238
0.000176
0.000056
0.000223
0.000255
0.000258
0.000262
0.000260
0.000241
0.000493
0.000324
0.000365
0.000291
0.000357
0.000394
0.000386
0.000361
0.000253
0.000249
0.000238
0.000267
0.000438
0.001380
0.000299
0.000220
0.000275
0.000276
0.000233
0.000238
0.000271
0.000305
0.000427
0.000426
0.000270
0.000056
0.000191
0.000238
0.000252
0.000243
0.000245
0.000249
0.000235
0.000258
0.000316
0.000393
0.000335
0.000422
0.000240
0.000237
0.000249
0.000272
0.000239
0.000259
0.000275
0.000241
0.000447
0.000230
0.000386
0.000451
0.000299
0.000243
0.000272
0.000270
0.000249
0.000344
0.000155
0.000057
0.000304
0.000315
0.000327
0.000401
0.000413
0.000355
0.000241
0.000249
0.000245
0.000271
0.000259
0.000258
0.000238
0.000253
0.000241
0.000228
0.000270
0.000357
0.000518
0.000344
0.000213
0.000281
0.000233
0.000246
0.000270
0.000282
0.000253
0.000273
0.000276
0.000263
0.000268
0.000057
0.000388
0.000279
0.000207
0.000257
0.000234
0.000248
0.000245
0.000250
0.000266
0.000259
0.000251
0.000243
0.000340
0.000446
0.000426
0.000303
0.000229
0.000250
0.000250
0.000266
0.000254
0.000270
0.000254
0.000263
0.000295
0.000267
0.000482
0.000550
0.000415
0.000252
0.000164
0.000057
0.000360
0.000206
0.000231
0.000244
0.000254
0.000247
0.000239
0.000247
0.000262
0.000253
0.000225
0.000246
0.000271
0.000229
0.000240
0.000261
0.000252
0.000263
0.000280
0.000256
0.000266
0.000260
0.000261
0.000260
0.000271
0.000238
0.000269
0.000288
0.000245
0.000278
0.000194
0.000057
0.000205
0.000221
0.000248
0.000252
0.000233
0.000255
0.000259
0.000244
0.000254
0.000280
0.000222
0.000254
0.000245
0.000398
0.000253
0.000279
0.000261
0.000264
0.000256
0.000279
0.000273
0.000235
0.000247
0.000253
0.000275
0.000270
0.000257
0.000246
0.000270
0.000260
0.000208
0.000056
0.000200
0.000351
0.000371
0.000281
0.000290
0.000254
0.000270
0.000259
0.000222
0.000245
0.000248
0.000262
0.000255
0.000237
0.000258
0.000260
0.000257
0.000269
0.000246
0.000261
0.000273
0.000268
0.000283
0.000252
0.000271
0.000255
0.000254
0.000271
0.000271
0.000260
0.000196
0.000055
0.000199
0.000232
0.000263
0.000263
0.000482
0.000216
0.000210
0.000254
0.000300
0.000432
0.000488
0.000279
0.000229
0.000246
0.000270
0.000266
0.000237
0.000277
0.000253
0.000265
0.000271
0.000259
0.000258
0.000277
0.000585
0.000451
0.000258
0.000307
0.000262
0.000265
0.000179
0.000055
0.000216
0.000229
0.000259
0.000236
0.000335
0.000702
0.000248
0.000373
0.000216
0.000246
0.000250
0.000260
0.000247
0.000250
0.000259
0.000268
0.000260
0.000372
0.000569
0.000335
0.000293
0.000242
0.000261
0.000288
0.000281
0.000255
0.000259
0.000273
0.000249
0.000338
0.000323
0.000057
0.000275
0.000230
0.000233
0.000241
0.000252
0.000255
0.000229
0.000245
0.000245
0.000258
0.000249
0.000259
0.000238
0.000397
0.000578
0.000373
0.000244
0.000263
0.000260
0.000244
0.000264
0.000275
0.000486
0.000231
0.000254
0.000623
0.000367
0.000513
0.000245
0.000255
0.000180
0.000056
0.000202
0.000231
0.000241
0.000245
0.000253
0.000260
0.000315
0.000504
0.000502
0.000427
0.000216
0.000263
0.000273
0.000278
0.000261
0.000240
0.000240
0.000251
0.000267
0.000365
0.000357
0.000652
0.000363
0.000254
0.000365
0.000373
0.000490
0.000232
0.000272
0.000315
0.000489
0.000056
0.000261
0.000228
0.000431
0.000220
0.000241
0.000252
0.000266
0.000255
0.000231
0.000240
0.000259
0.000420
0.000312
0.000382
0.000245
0.000236
0.000256
0.000259
0.000261
0.000282
0.000273
0.000244
0.000255
0.000276
0.000311
0.000492
0.000478
0.000235
0.000256
0.000270
0.000200
0.000056
0.000222
0.000262
0.000222
0.000244
0.000248
0.000259
0.000398
0.000430
0.000378
0.000284
0.000368
0.000219
0.000248
0.000267
0.000253
0.000238
0.000259
0.000259
0.000285
0.000407
0.000485
0.000318
0.000475
0.000286
0.000422
0.000389
0.000377
0.000248
0.000242
0.000291
0.000358
0.000055
0.000239
0.000280
0.000220
0.000255
0.000257
0.000255
0.000249
0.000252
0.000260
0.000257
0.000235
0.000317
0.000483
0.000371
0.000387
0.000211
0.000273
0.000260
0.000262
0.000238
0.000261
0.000245
0.000267
0.000273
0.000277
0.000369
0.000481
0.000447
0.000237
0.000276
0.000189
0.000055
0.000214
0.000241
0.000264
0.000241
0.000261
0.000338
0.000499
0.000472
0.000361
0.000687
0.000269
0.000210
0.000244
0.000260
0.000243
0.000267
0.000298
0.000255
0.000487
0.000408
0.001509
0.000308
0.000259
0.000257
0.000298
0.000268
0.000437
0.000399
0.000355
0.000300
0.000159
0.000056
0.000199
0.000235
0.000247
0.000245
0.000237
0.000257
0.000279
0.000245
0.000251
0.000340
0.000360
0.000351
0.000282
0.000353
0.000410
0.000292
0.000255
0.000232
0.000272
0.000256
0.000246
0.000252
0.000282
0.000249
0.000315
0.000432
0.000437
0.000318
0.000229
0.000269
0.000181
0.000055
0.000229
0.000246
0.000261
0.000252
0.000243
0.000233
0.000468
0.000219
0.000231
0.000259
0.000238
0.000260
0.000253
0.000257
0.000246
0.000273
0.000262
0.000264
0.000272
0.000259
0.000258
0.000289
0.000290
0.000248
0.000261
0.000280
0.000266
0.000269
0.000262
0.000272
0.000173
0.000056
0.000235
0.000239
0.000306
0.000438
0.000349
0.000269
0.000224
0.000246
0.000264
0.000244
0.000251
0.000256
0.000264
0.000260
0.000235
0.000250
0.000244
0.000266
0.000276
0.000322
0.000501
0.000361
0.000233
0.000269
0.000256
0.000255
0.000263
0.000251
0.000275
0.000293
0.000186
0.000056
0.000359
0.000496
0.000303
0.000205
0.000250
0.000258
0.000406
0.000214
0.000239
0.000257
0.000257
0.000334
0.000310
0.000451
0.001847
0.000257
0.000250
0.000250
0.000275
0.000242
0.000304
0.000456
0.000659
0.000278
0.000228
0.000261
0.000274
0.000426
0.000278
0.000280
0.000170
0.000056
0.000241
0.000367
0.000330
0.000323
0.000492
0.000203
0.000243
0.000262
0.000242
0.000237
0.000263
0.000244
0.000264
0.000305
0.000467
0.000448
0.000211
0.000234
0.000269
0.000254
0.000266
0.000316
0.000229
0.000283
0.000281
0.000440
0.000511
0.000640
0.000230
0.000223
0.000205
0.000056
0.000192
0.000231
0.000258
0.000232
0.000247
0.000251
0.000271
0.000273
0.000390
0.000318
0.000440
0.000350
0.000213
0.000258
0.000262
0.000280
0.000306
0.000239
0.000277
0.000271
0.000238
0.000379
0.000438
0.000346
0.000277
0.000244
0.000266
0.000432
0.000418
0.000318
0.000169
0.000056
0.000210
0.000235
0.000326
0.000502
0.000324
0.000182
0.000249
0.000249
0.000261
0.000259
0.000263
0.000253
0.000227
0.000261
0.000257
0.000313
0.000368
0.000380
0.000285
0.000339
0.000492
0.000226
0.000286
0.000272
0.000305
0.000284
0.000255
0.000271
0.000461
0.000426
0.000296
0.000072
0.000187
0.000228
0.000252
0.000244
0.000243
0.000482
0.000209
0.000257
0.000272
0.000296
0.000506
0.000611
0.000220
0.000227
0.000249
0.000241
0.000255
0.000248
0.000263
0.000250
0.000260
0.000262
0.000382
0.000401
0.000472
0.000301
0.000299
0.000297
0.000319
0.000252
0.000175
0.000055
0.000208
0.000236
0.000262
0.000474
0.000323
0.000292
0.000265
0.000223
0.000250
0.000257
0.000255
0.000246
0.000256
0.000259
0.000247
0.000270
0.000245
0.000247
0.000261
0.000402
0.000530
0.000362
0.000224
0.000252
0.000274
0.000276
0.000258
0.000258
0.000267
0.000263
0.000191
0.000055
0.000313
0.000337
0.000476
0.000229
0.000251
0.000226
0.000334
0.000450
0.000283
0.000216
0.000237
0.000271
0.000284
0.000462
0.000427
0.000256
0.000225
0.000253
0.000244
0.000263
0.000275
0.000256
0.000263
0.000275
0.000258
0.000297
0.000414
0.000448
0.000265
0.000247
0.000175
0.000056
0.000188
0.000236
0.000246
0.000253
0.000253
0.000261
0.000232
0.000256
0.000250
0.000248
0.000267
0.000239
0.000263
0.001463
0.000222
0.000251
0.000262
0.000243
0.000276
0.000280
0.000263
0.000237
0.000277
0.000249
0.000266
0.000283
0.000257
0.000267
0.000260
0.000273
0.000189
0.000055
0.000216
0.000223
0.000270
0.000234
0.000232
0.000262
0.000246
0.000255
0.000229
0.000254
0.000247
0.000260
0.000259
0.000254
0.000254
0.000255
0.000247
0.000260
0.000275
0.000255
0.000254
0.000265
0.000239
0.000258
0.001296
0.000275
0.000669
0.000330
0.000340
0.000235
0.000195
0.000055
0.000211
0.000234
0.000244
0.000250
0.000405
0.000247
0.000236
0.000244
0.000254
0.000372
0.000435
0.000345
0.000239
0.000235
0.000258
0.000259
0.000255
0.000271
0.000236
0.000260
0.000263
0.000254
0.000269
0.000488
0.000446
0.000437
0.000230
0.000263
0.001379
0.000234
0.000178
0.000057
0.000433
0.000327
0.000320
0.000265
0.000220
0.000237
0.000231
0.000248
0.000262
0.000251
0.000254
0.000253
0.000272
0.000319
0.000505
0.000393
0.000336
0.000221
0.000244
0.000257
0.000269
0.000262
0.000272
0.000257
0.000278
0.000260
0.000301
0.000566
0.000376
0.000381
0.000149
0.000055
0.000206
0.000241
0.001266
0.000415
0.000298
0.000506
0.000342
0.000480
0.000277
0.000344
0.000219
0.000232
0.000272
0.000238
0.000258
0.000254
0.000413
0.000452
0.000364
0.000377
0.000253
0.000250
0.000253
0.000513
0.000229
0.000264
0.000259
0.000277
0.000296
0.000564
0.000282
0.000057
0.000391
0.000335
0.000207
0.000214
0.001569
0.000510
0.000250
0.000252
0.000244
0.000250
0.000225
0.000243
0.000244
0.000272
0.000254
0.000262
0.000232
0.000259
0.000407
0.000375
0.000472
0.000250
0.000253
0.000253
0.000259
0.000293
0.000248
0.000236
0.000270
0.000277
0.000190
0.000055
0.000385
0.000342
0.000227
0.000228
0.000250
0.000240
0.000251
0.000249
0.000233
0.000228
0.001405
0.000470
0.000271
0.000247
0.000237
0.000254
0.000275
0.000263
0.000240
0.000271
0.000269
0.000253
0.000263
0.000405
0.000442
0.000449
0.000226
0.000265
0.000278
0.000286
0.000164
0.000056
0.000216
0.000409
0.000226
0.000251
0.000330
0.000464
0.000303
0.000360
0.000463
0.000209
0.000229
0.000251
0.000269
0.000260
0.000257
0.001387
0.000380
0.000297
0.000231
0.000277
0.000284
0.000237
0.000256
0.000257
0.000259
0.000269
0.000490
0.000403
0.000297
0.000275
0.000154
0.000055
0.000189
0.000234
0.000255
0.000235
0.000232
0.000260
0.000237
0.000246
0.000311
0.000325
0.000440
0.000301
0.000264
0.000237
0.000240
0.000280
0.000273
0.000259
0.000272
0.000227
0.000255
0.000347
0.001224
0.000257
0.000252
0.000249
0.000259
0.000264
0.000262
0.000264
0.000180
0.000057
0.000217
0.000369
0.000509
0.000204
0.000247
0.000233
0.000259
0.000265
0.000251
0.000249
0.000258
0.000272
0.000237
0.000260
0.000251
0.000263
0.000268
0.000267
0.000265
0.000247
0.000252
0.000271
0.000270
0.000285
0.000285
0.000267
0.000266
0.000259
0.000263
0.000441
0.001367
0.000056
0.000209
0.000236
0.000239
0.000245
0.000253
0.000257
0.000249
0.000228
0.000244
0.000254
0.000274
0.000250
0.000254
0.000240
0.000252
0.000244
0.001735
0.000249
0.000249
0.000254
0.000251
0.000258
0.000275
0.000260
0.000268
0.000257
0.000269
0.000275
0.000271
0.000260
0.000218
0.000056
0.000336
0.000290
0.001301
0.000218
0.000228
0.000249
0.000256
0.000252
0.000265
0.000256
0.000228
0.000343
0.000444
0.000397
0.000290
0.000217
0.000252
0.000256
0.000252
0.000267
0.000250
0.000268
0.000265
0.000282
0.000262
0.000444
0.000323
0.000363
0.000309
0.000244
0.000185
0.000055
0.000185
0.000250
0.000248
0.000248
0.000249
0.000220
0.000242
0.000252
0.000439
0.001335
0.000259
0.000211
0.000248
0.000266
0.000250
0.000275
0.000256
0.000255
0.000313
0.000458
0.000344
0.000262
0.000237
0.000249
0.000276
0.000274
0.000263
0.000298
0.000274
0.000276
0.000190
0.000056
0.000224
0.000482
0.000352
0.000226
0.000227
0.000240
0.000242
0.000274
0.000267
0.000248
0.000232
0.000251
0.000448
0.000551
0.000484
0.001400
0.000248
0.000263
0.000335
0.000345
0.000480
0.000414
0.000471
0.000403
0.000243
0.000250
0.000266
0.000275
0.000267
0.000275
0.000178
0.000055
0.000216
0.000271
0.000474
0.000391
0.000398
0.000237
0.000249
0.000228
0.000244
0.000264
0.000249
0.000262
0.000268
0.000238
0.000270
0.000288
0.000406
0.000388
0.000374
0.001321
0.000267
0.000251
0.000260
0.000264
0.000493
0.000446
0.000363
0.000216
0.000290
0.000278
0.000173
0.000056
0.000181
0.000243
0.000244
0.000243
0.000247
0.000277
0.000452
0.000461
0.000291
0.000223
0.000237
0.000266
0.000269
0.000264
0.000253
0.000267
0.000265
0.000262
0.000266
0.000324
0.000468
0.000388
0.000305
0.001351
0.000410
0.000236
0.000277
0.000439
0.000429
0.000340
0.000320
0.000056
0.000202
0.000234
0.000248
0.000248
0.000251
0.000251
0.001685
0.000243
0.000212
0.000242
0.000259
0.000248
0.000277
0.000312
0.000322
0.000288
0.000297
0.000298
0.000486
0.000451
0.000263
0.000270
0.000232
0.001419
0.000338
0.000378
0.000373
0.000459
0.000341
0.000290
0.000158
0.000056
0.000200
0.000245
0.000271
0.000243
0.000249
0.000250
0.001704
0.000229
0.000258
0.000256
0.000339
0.000421
0.001418
0.000361
0.000420
0.000220
0.000259
0.000235
0.000273
0.000265
0.001583
0.000546
0.000366
0.000292
0.000240
0.000254
0.000264
0.000280
0.000242
0.000250
0.000213
0.000056
0.000193
0.000247
0.000266
0.000247
0.000259
0.000277
0.000280
0.000248
0.000259
0.000251
0.000255
0.000247
0.000261
0.000271
0.000255
0.001490
0.000281
0.000235
0.000266
0.000275
0.000274
0.000253
0.000434
0.001260
0.000279
0.000232
0.000277
0.000255
0.000390
0.000243
0.000212
0.000056
0.000216
0.000247
0.000225
0.000254
0.000227
0.000228
0.000231
0.001694
0.000251
0.000239
0.000243
0.000373
0.000227
0.000240
0.000235
0.001397
0.000221
0.000264
0.000273
0.000245
0.000249
0.000355
0.000278
0.001314
0.000273
0.000261
0.000245
0.000272
0.001385
0.000277
0.000180
0.000057
0.000238
0.000353
0.000207
0.000240
0.000249
0.000246
0.000261
0.000265
0.000270
0.000247
0.000265
0.000264
0.000251
0.000243
0.000322
0.001490
0.000244
0.000271
0.000258
0.000244
0.000281
0.000265
0.000247
0.001515
0.000357
0.000224
0.000264
0.001280
0.000273
0.000237
0.000191
0.000056
0.000248
0.000361
0.000335
0.000216
0.000236
0.000240
0.000263
0.000252
0.000271
0.000270
0.000241
0.000249
0.000260
0.000263
0.000431
0.001215
0.000238
0.000241
0.000270
0.000275
0.000229
0.000247
0.000245
0.000330
0.001279
0.000253
0.000247
0.000252
0.000257
0.001343
0.000281
0.000056
0.000318
0.000225
0.000227
0.000231
0.000239
0.000253
0.000248
0.000244
0.000278
0.000252
0.000242
0.000258
0.000239
0.000314
0.000490
0.001416
0.000212
0.000259
0.000302
0.000518
0.000267
0.000425
0.001320
0.000288
0.000246
0.000273
0.000251
0.001304
0.000276
0.000505
0.000359
0.000057
0.000214
0.000252
0.000252
0.000257
0.000255
0.000249
0.000272
0.000251
0.000259
0.000267
0.000299
0.000496
0.001324
0.000246
0.000253
0.000261
0.000282
0.000219
0.000250
0.000239
0.000351
0.001227
0.000261
0.000252
0.000247
0.000251
0.001520
0.000387
0.000516
0.000217
0.000188
0.000057
0.000201
0.000235
0.000252
0.000232
0.000253
0.000268
0.000235
0.000273
0.000437
0.000476
0.000271
0.001483
0.000209
0.000244
0.000267
0.000251
0.000265
0.000288
0.001701
0.000247
0.000393
0.000333
0.001317
0.000309
0.000327
0.000353
0.000215
0.000268
0.000259
0.000271
0.000189
0.000057
0.000183
0.000237
0.000328
0.000255
0.000369
0.000528
0.000238
0.000298
0.001460
0.000241
0.000383
0.000270
0.000203
0.000357
0.000384
0.001288
0.000269
0.000246
0.000236
0.000259
0.001516
0.000382
0.000277
0.000290
0.000266
0.000238
0.000476
0.000317
0.000235
0.000249
0.000269
0.000056
0.000243
0.000358
0.000336
0.000271
0.000239
0.001499
0.000214
0.000263
0.000262
0.000269
0.000270
0.000242
0.000331
0.001452
0.000254
0.000235
0.000434
0.001186
0.000348
0.000468
0.000375
0.000232
0.000238
0.000257
0.000274
0.000242
0.000454
0.000222
0.000274
0.000275
0.000201
0.000057
0.000200
0.000226
0.000393
0.000392
0.001257
0.000277
0.000312
0.000230
0.000244
0.000246
0.000254
0.000291
0.001517
0.000262
0.000237
0.000240
0.001375
0.000307
0.000417
0.000371
0.000442
0.000219
0.000253
0.000254
0.000267
0.000277
0.000279
0.000254
0.000264
0.000252
0.000192
0.000057
0.000226
0.000389
0.001454
0.000208
0.000278
0.000279
0.000242
0.000246
0.000276
0.000355
0.001405
0.000213
0.000262
0.000262
0.000253
0.001259
0.000703
0.000316
0.000316
0.000406
0.000296
0.000242
0.000267
0.000258
0.000275
0.000286
0.000273
0.000287
0.000445
0.000452
0.001352
0.000056
0.000209
0.000240
0.000242
0.000230
0.000249
0.000495
0.000399
0.001296
0.000249
0.000236
0.000249
0.001426
0.000491
0.000283
0.000223
0.000408
0.000242
0.000241
0.000273
0.000274
0.000238
0.000278
0.000278
0.000255
0.000255
0.000267
0.000446
0.000492
0.001486
0.000237
0.000182
0.000055
0.000192
0.000259
0.000407
0.000465
0.001256
0.000278
0.000253
0.000261
0.000241
0.000253
0.000254
0.000259
0.000379
0.000481
0.000345
0.000228
0.000259
0.000271
0.000245
0.000277
0.000254
0.000270
0.000256
0.000273
0.000260
0.000482
0.000373
0.000363
0.000324
0.001395
0.000179
0.000056
0.000211
0.000247
0.000333
0.000446
0.000291
0.000304
0.000315
0.000335
0.000268
0.000255
0.000260
0.000264
0.000256
0.000304
0.000234
0.000465
0.000385
0.000363
0.000237
0.000393
0.000273
0.000408
0.000228
0.000255
0.000257
0.000262
0.000252
0.000292
0.000336
0.000519
0.000295
0.000055
0.000219
0.001391
0.000251
0.000327
0.000403
0.000446
0.000393
0.000273
0.000214
0.000259
0.000248
0.000258
0.000253
0.000273
0.000265
0.000253
0.000261
0.001353
0.000255
0.000258
0.000272
0.000255
0.000274
0.000278
0.000269
0.000254
0.000276
0.000249
0.000386
0.000339
0.000356
0.000056
0.000216
0.000258
0.000217
0.001495
0.000327
0.000235
0.000229
0.000250
0.000234
0.000239
0.000256
0.000272
0.000254
0.000250
0.000267
0.000254
0.000246
0.000270
0.000269
0.000249
0.001428
0.000243
0.000240
0.000272
0.000247
0.000248
0.000267
0.000263
0.000276
0.000485
0.000346
0.000055
0.000205
0.000233
0.000395
0.000280
0.000247
0.000271
0.001529
0.000345
0.000282
0.000229
0.000250
0.000320
0.000328
0.000233
0.000230
0.000255
0.000239
0.000263
0.000264
0.000253
0.000527
0.000537
0.001045
0.000280
0.000229
0.000274
0.000255
0.000259
0.000274
0.000257
0.000390
0.000057
0.000438
0.000183
0.000208
0.000278
0.000217
0.000237
0.000251
0.000238
0.000274
0.001600
0.000446
0.000224
0.000233
0.000248
0.000260
0.000247
0.000260
0.000276
0.000263
0.000303
0.000305
0.000515
0.000429
0.001362
0.000232
0.000269
0.000286
0.000245
0.000272
0.000278
0.000477
0.000055
0.000235
0.000229
0.000237
0.000240
0.000232
0.000232
0.000263
0.000254
0.000270
0.001597
0.000326
0.000258
0.000265
0.000261
0.000451
0.000269
0.000541
0.000359
0.000300
0.000334
0.000429
0.000480
0.001260
0.000263
0.000238
0.000269
0.001706
0.000442
0.000608
0.000320
0.000142
0.000055
0.000198
0.000232
0.000242
0.000235
0.000255
0.000244
0.000244
0.000513
0.000509
0.000388
0.000294
0.000216
0.000245
0.000264
0.000262
0.000264
0.000245
0.000251
0.000259
0.000266
0.000288
0.000447
0.001304
0.000221
0.000253
0.000278
0.001893
0.000388
0.000376
0.000349
0.000151
0.000055
0.000215
0.000241
0.000249
0.001594
0.000398
0.000212
0.000236
0.000271
0.000245
0.000284
0.000377
0.000369
0.000364
0.000268
0.000265
0.000572
0.000381
0.001198
0.000278
0.000217
0.000272
0.000253
0.000277
0.000400
0.000714
0.000379
0.000230
0.000265
0.000268
0.000282
0.000188
0.000056
0.000203
0.000248
0.000227
0.001534
0.000253
0.000237
0.000240
0.000253
0.000248
0.000252
0.000255
0.000266
0.000281
0.000262
0.000239
0.000408
0.000518
0.000236
0.001405
0.000225
0.000261
0.000257
0.000256
0.000276
0.000349
0.000588
0.000356
0.000277
0.000288
0.000228
0.000440
0.000056
0.000212
0.000238
0.000249
0.001515
0.000322
0.000227
0.000265
0.000249
0.000252
0.000259
0.000250
0.000256
0.000263
0.000260
0.000305
0.000613
0.001362
0.000752
0.000265
0.000342
0.000262
0.000217
0.000248
0.000274
0.001676
0.000803
0.000234
0.000260
0.000293
0.000278
0.000182
0.000055
0.000205
0.000237
0.000248
0.000247
0.000254
0.000246
0.000240
0.000253
0.000244
0.000234
0.000291
0.000280
0.000265
0.000235
0.000257
0.000255
0.000265
0.001597
0.000708
0.000432
0.000286
0.000209
0.000240
0.000285
0.000263
0.000272
0.000262
0.000253
0.001443
0.000372
0.000332
0.000057
0.000177
0.000236
0.000249
0.000256
0.000257
0.000232
0.000254
0.000252
0.000250
0.000267
0.000265
0.000431
0.000455
0.000318
0.000210
0.000245
0.000262
0.001396
0.000777
0.000422
0.000299
0.000281
0.000224
0.000248
0.000272
0.000248
0.000262
0.000268
0.001478
0.000435
0.000195
0.000057
0.000202
0.000234
0.000239
0.000251
0.000251
0.000243
0.000240
0.000248
0.000277
0.000253
0.000387
0.000434
0.000260
0.000220
0.000242
0.000244
0.000267
0.000253
0.001585
0.000590
0.000487
0.000328
0.000217
0.000273
0.000252
0.000262
0.000266
0.000294
0.000254
0.001358
0.000330
0.000056
0.000231
0.000205
0.000231
0.000253
0.000256
0.000243
0.000272
0.000293
0.000364
0.000445
0.000378
0.000345
0.000384
0.000220
0.000243
0.000252
0.000276
0.000255
0.000270
0.001895
0.000358
0.000242
0.000438
0.000245
0.000246
0.000270
0.000266
0.000263
0.000267
0.000275
0.000403
0.000056
0.000319
0.000196
0.000231
0.000244
0.000276
0.000229
0.000229
0.000235
0.000264
0.000253
0.000248
0.000235
0.000277
0.000482
0.000547
0.000339
0.000216
0.000268
0.000252
0.000253
0.000257
0.000284
0.001470
0.001054
0.000218
0.000255
0.000268
0.000267
0.000273
0.000254
0.000191
0.000055
0.000187
0.001335
0.000291
0.000228
0.000226
0.000254
0.000252
0.000239
0.000238
0.000246
0.000258
0.000265
0.000244
0.000401
0.000366
0.000462
0.000256
0.000244
0.000265
0.000274
0.000263
0.000224
0.000265
0.000263
0.001326
0.000684
0.000309
0.000381
0.000386
0.000396
0.000294
0.000055
0.000200
0.000232
0.001432
0.000252
0.000221
0.000243
0.000247
0.000244
0.000261
0.000251
0.000241
0.000252
0.000308
0.000337
0.000539
0.000301
0.000223
0.000283
0.000331
0.000220
0.000247
0.000268
0.000233
0.000274
0.000283
0.001528
0.000733
0.000300
0.000290
0.000257
0.000199
0.000058
0.000215
0.000249
0.000487
0.000324
0.001281
0.000256
0.000220
0.000260
0.000218
0.000258
0.000233
0.000256
0.000232
0.000244
0.000252
0.000254
0.000272
0.000227
0.000260
0.000259
0.000265
0.000264
0.000305
0.000341
0.000214
0.000260
0.000269
0.001452
0.000262
0.000243
0.000175
0.000056
0.000200
0.000230
0.000254
0.000266
0.000358
0.000378
0.000387
0.000266
0.001568
0.000248
0.000294
0.000561
0.000271
0.000248
0.000424
0.000231
0.000236
0.000274
0.000273
0.000271
0.000275
0.000267
0.000255
0.000271
0.000277
0.000409
0.000364
0.000350
0.001569
0.000232
0.000181
0.000055
0.000184
0.000249
0.000243
0.000240
0.000241
0.000248
0.000260
0.000277
0.000431
0.002054
0.000229
0.000240
0.000253
0.000258
0.000261
0.000254
0.000278
0.000248
0.000260
0.000431
0.000360
0.000463
0.001447
0.000261
0.000523
0.000233
0.001774
0.000231
0.000263
0.001529
0.000169
0.000055
0.000444
0.000290
0.000481
0.000246
0.000266
0.000217
0.000265
0.000267
0.000260
0.000228
0.000255
0.000331
0.000411
0.000384
0.000412
0.000223
0.000237
0.001564
0.000228
0.000602
0.001875
0.000288
0.000232
0.001513
0.002053
0.000736
0.000281
0.000256
0.000274
0.000572
0.000233
0.000056
0.000198
0.000243
0.000245
0.000252
0.001419
0.001727
0.001079
0.000216
0.000227
0.001597
0.001970
0.000196
0.000246
0.000425
0.000390
0.000298
0.000399
0.000464
0.000230
0.000232
0.000245
0.000259
0.000265
0.001603
0.001203
0.001429
0.000260
0.000313
0.000251
0.000312
0.000408
0.000057
0.000251
0.000206
0.000236
0.000242
0.000232
0.000242
0.000247
0.000255
0.000259
0.000247
0.000240
0.000349
0.000433
0.000463
0.000256
0.000258
0.000242
0.000274
0.000266
0.000268
0.000254
0.000261
0.001572
0.000418
0.002119
0.000227
0.000279
0.000339
0.000443
0.000370
0.000190
0.000056
0.000223
0.000341
0.000476
0.000315
0.000194
0.000236
0.000251
0.000243
0.000236
0.000237
0.000244
0.000264
0.000262
0.001600
0.001361
0.001226
0.000275
0.000233
0.000243
0.000281
0.000278
0.000280
0.000245
0.000253
0.002207
0.000249
0.000254
0.000283
0.000325
0.000308
0.000219
0.000055
0.000229
0.000377
0.000577
0.000278
0.000235
0.000236
0.000249
0.000264
0.001899
0.001427
0.000221
0.000332
0.000387
0.000409
0.000265
0.000208
0.000263
0.000265
0.000263
0.000270
0.000254
0.000271
0.000468
0.000232
0.000273
0.000268
0.000257
0.000269
0.000283
0.000247
0.000206
0.000055
0.000200
0.000250
0.000246
0.000245
0.000249
0.000270
0.001543
0.001412
0.001333
0.000236
0.000235
0.000241
0.000267
0.000260
0.000244
0.000258
0.000246
0.002110
0.000246
0.000226
0.000276
0.000257
0.000255
0.000272
0.000265
0.000256
0.000268
0.000259
0.000277
0.000252
0.000176
0.000056
0.000204
0.002678
0.001395
0.000221
0.000304
0.000294
0.000231
0.000269
0.000254
0.000243
0.000257
0.000252
0.000228
0.000263
0.000257
0.000251
0.000270
0.000260
0.000267
0.000261
0.000269
0.000284
0.000273
0.000266
0.000248
0.000243
0.000263
0.000273
0.000277
0.000246
0.000372
0.000057
0.001536
0.000248
0.001245
0.000231
0.000223
0.000241
0.000262
0.000249
0.000243
0.000288
0.000357
0.000413
0.000313
0.000210
0.000249
0.002151
0.000241
0.000249
0.000424
0.000365
0.000375
0.000286
0.000226
0.000255
0.000268
0.000242
0.000270
0.000275
0.000270
0.001672
0.001203
0.000056
0.000192
0.000225
0.000279
0.000421
0.000388
0.000246
0.000207
0.000235
0.000256
0.000279
0.000244
0.000251
0.000225
0.000258
0.000258
0.000245
0.000289
0.000744
0.000265
0.000253
0.000216
0.000274
0.000284
0.000250
0.000252
0.000252
0.000262
0.000279
0.000243
0.000298
0.000401
0.000071
0.001112
0.000228
0.000344
0.000439
0.000300
0.000231
0.000226
0.000241
0.000248
0.002304
0.000363
0.000386
0.000227
0.000375
0.000278
0.000258
0.000260
0.000270
0.000264
0.000222
0.000253
0.000275
0.000672
0.000382
0.001894
0.001270
0.000565
0.000524
0.000229
0.000274
0.000194
0.000056
0.000354
0.000233
0.000243
0.000246
0.000242
0.000231
0.000254
0.000255
0.000253
0.000253
0.000249
0.000226
0.000247
0.000266
0.000423
0.000474
0.001833
0.001324
0.000451
0.000439
0.000449
0.000243
0.000242
0.000263
0.002128
0.000598
0.000349
0.000227
0.000280
0.000296
0.000173
0.000055
0.000195
0.000252
0.000242
0.000253
0.000244
0.000305
0.000461
0.000260
0.000332
0.000245
0.000241
0.000243
0.000266
0.002242
0.000248
0.000371
0.000221
0.000243
0.000268
0.000261
0.000249
0.002464
0.000331
0.000223
0.000256
0.000259
0.000253
0.000279
0.000275
0.000279
0.000188
0.000056
0.000210
0.000276
0.000566
0.000393
0.000262
0.000218
0.000230
0.000257
0.000277
0.000238
0.001964
0.000376
0.000276
0.000295
0.000219
0.000264
0.000270
0.000243
0.002209
0.000451
0.000215
0.000273
0.000260
0.000261
0.000258
0.000252
0.000282
0.000264
0.000261
0.000271
0.000163
0.000056
0.000195
0.000241
0.000251
0.000218
0.000247
0.000259
0.000238
0.000242
0.000236
0.002179
0.000221
0.000289
0.000217
0.000426
0.000230
0.000251
0.000277
0.000290
0.000240
0.000263
0.001969
0.000282
0.000378
0.000371
0.000388
0.000399
0.000314
0.000247
0.000247
0.000259
0.000196
0.000055
0.000208
0.000230
0.000240
0.000251
0.000257
0.000320
0.000227
0.002295
0.000235
0.000241
0.000261
0.000261
0.000236
0.000249
0.000307
0.002117
0.000600
0.000221
0.000251
0.000250
0.000270
0.000246
0.000288
0.000262
0.000267
0.000251
0.000289
0.000250
0.000269
0.000265
0.000191
0.000055
0.001821
0.001448
0.000202
0.000225
0.000243
0.000249
0.000255
0.000334
0.000341
0.000322
0.002202
0.000259
0.000230
0.000269
0.000266
0.000553
0.000370
0.000298
0.000239
0.000238
0.000247
0.000264
0.000266
0.000225
0.000262
0.000265
0.000287
0.000247
0.000310
0.000678
0.000300
0.000056
0.000204
0.000242
0.000250
0.000266
0.000259
0.000245
0.000259
0.000240
0.001487
0.002103
0.000585
0.000290
0.000394
0.000693
0.000354
0.000240
0.000247
0.000250
0.000266
0.000254
0.000266
0.000241
0.000250
0.000270
0.001822
0.001461
0.000288
0.000269
0.000287
0.000284
0.000395
0.000057
0.001936
0.000227
0.000227
0.000227
0.000291
0.000363
0.000435
0.000318
0.000279
0.000238
0.000228
0.000257
0.000259
0.000251
0.000280
0.000246
0.000255
0.000264
0.001836
0.000247
0.000237
0.000252
0.000271
0.000280
0.000272
0.000254
0.001549
0.000241
0.000254
0.000264
0.000166
0.000056
0.000197
0.000223
0.000248
0.000257
0.000238
0.000239
0.000317
0.000353
0.000395
0.000317
0.000219
0.000244
0.000260
0.000336
0.000432
0.000309
0.000219
0.000256
0.000252
0.000357
0.000547
0.000391
0.000225
0.000261
0.000273
0.000246
0.000244
0.000272
0.000280
0.000263
0.000199
0.000056
0.001445
0.000428
0.000226
0.001946
0.000277
0.000410
0.000438
0.000318
0.000231
0.000244
0.000271
0.000240
0.000246
0.000250
0.000264
0.000261
0.000445
0.000338
0.000508
0.000245
0.000344
0.000223
0.000250
0.000266
0.000274
0.000269
0.000271
0.000264
0.000380
0.000414
0.001397
0.000056
0.000203
0.000220
0.002079
0.000318
0.000289
0.000258
0.000261
0.000252
0.000265
0.000256
0.000212
0.000258
0.000256
0.000257
0.000268
0.000347
0.000752
0.001739
0.000210
0.000254
0.000257
0.000255
0.000392
0.000399
0.001609
0.000279
0.000367
0.001928
0.000259
0.000253
0.000197
0.000057
0.000212
0.000236
0.000230
0.000245
0.000229
0.000250
0.000250
0.000284
0.000330
0.000276
0.000379
0.000359
0.000340
0.000296
0.000238
0.000271
0.000254
0.000245
0.000270
0.000249
0.000293
0.000297
0.000269
0.000260
0.000272
0.001509
0.000287
0.000409
0.002050
0.000220
0.000182
0.000056
0.000220
0.000232
0.000242
0.000240
0.000487
0.000209
0.000257
0.000395
0.000303
0.000308
0.000304
0.000216
0.000269
0.000259
0.000270
0.000334
0.000384
0.000465
0.000248
0.000403
0.000558
0.000424
0.001577
0.000228
0.000258
0.001988
0.000321
0.000251
0.000244
0.000291
0.000183
0.000056
0.000193
0.000264
0.000212
0.000245
0.000251
0.000265
0.000254
0.000271
0.000252
0.000248
0.001810
0.000349
0.000367
0.000360
0.000434
0.000362
0.000283
0.001516
0.000242
0.000295
0.002091
0.000572
0.000278
0.000224
0.000265
0.000267
0.000498
0.000239
0.000245
0.000278
0.000188
0.000057
0.000282
0.000357
0.000373
0.000301
0.000205
0.000241
0.000258
0.000256
0.000267
0.000290
0.000223
0.000255
0.000254
0.000264
0.000336
0.001516
0.000321
0.000203
0.000301
0.001899
0.000419
0.000225
0.000250
0.000262
0.000250
0.000274
0.000277
0.000258
0.000240
0.000271
0.000196
0.000058
0.000260
0.000506
0.001937
0.000257
0.000254
0.000226
0.000243
0.000292
0.000412
0.000469
0.001304
0.000384
0.000350
0.002079
0.000206
0.000244
0.000270
0.000271
0.000258
0.000241
0.000336
0.000240
0.000261
0.000358
0.000468
0.000378
0.000351
0.002196
0.000490
0.000490
0.000378
0.000056
0.000219
0.000225
0.000261
0.001952
0.000233
0.000213
0.000250
0.000241
0.000245
0.000258
0.000239
0.000268
0.000245
0.000272
0.000434
0.001493
0.000247
0.000242
0.000269
0.000252
0.000234
0.000255
0.000259
0.000268
0.000334
0.000482
0.000437
0.000239
0.001601
0.000278
0.000162
0.000057
0.000194
0.000229
0.000238
0.000236
0.000253
0.000249
0.000251
0.000270
0.000237
0.000376
0.000379
0.001400
0.000241
0.000215
0.000251
0.000265
0.000253
0.000253
0.000493
0.000280
0.000476
0.000383
0.000221
0.001578
0.000234
0.000256
0.000291
0.000278
0.000265
0.000258
0.000196
0.000056
0.000210
0.000224
0.000267
0.000268
0.000244
0.000248
0.000232
0.000242
0.000258
0.000248
0.000251
0.000256
0.000254
0.001479
0.000366
0.000209
0.000250
0.000268
0.000312
0.000282
0.000426
0.000221
0.000238
0.000268
0.000255
0.000269
0.000254
0.001411
0.000283
0.000230
0.000173
0.000057
0.000189
0.000233
0.000257
0.000265
0.000256
0.000230
0.000249
0.000264
0.000220
0.000264
0.000244
0.000258
0.000231
0.000353
0.000331
0.000374
0.000226
0.000249
0.001637
0.000241
0.000238
0.000259
0.000267
0.000303
0.000369
0.000382
0.000454
0.000254
0.000262
0.001602
0.000170
0.000056
0.000358
0.000303
0.000391
0.000275
0.000235
0.000219
0.000243
0.000276
0.000249
0.000239
0.000251
0.000235
0.001472
0.000288
0.000303
0.000219
0.000253
0.000256
0.000262
0.000268
0.000251
0.000240
0.000261
0.000268
0.000289
0.000315
0.000506
0.000290
0.000323
0.000244
0.000186
0.000055
0.000219
0.000237
0.000452
0.000322
0.000462
0.000199
0.000248
0.000251
0.000248
0.000270
0.000230
0.000222
0.000258
0.000244
0.001262
0.000297
0.000240
0.000244
0.000273
0.000267
0.000237
0.000264
0.000253
0.000260
0.000260
0.000254
0.000303
0.000665
0.000485
0.000228
0.000185
0.000055
0.000210
0.001547
0.000223
0.000388
0.000432
0.000380
0.000215
0.000261
0.000261
0.000246
0.000249
0.000259
0.000270
0.000271
0.000258
0.001523
0.000256
0.000283
0.000265
0.000258
0.000261
0.000252
0.000265
0.000260
0.000269
0.000315
0.000379
0.000351
0.000360
0.000244
0.000188
0.000056
0.000213
0.000252
0.000232
0.001691
0.000344
0.000348
0.000226
0.000240
0.000252
0.000273
0.000275
0.000259
0.000242
0.000265
0.000249
0.000283
0.000448
0.001250
0.000250
0.000234
0.001485
0.000328
0.000574
0.000386
0.000349
0.000227
0.000269
0.000461
0.000238
0.000261
0.000189
0.000055
0.000293
0.000222
0.000244
0.000246
0.000248
0.000255
0.000237
0.000257
0.000259
0.000237
0.000249
0.000260
0.000328
0.000472
0.001679
0.001488
0.000364
0.000584
0.000289
0.000228
0.000232
0.000251
0.000251
0.000270
0.000245
0.000265
0.000259
0.000269
0.001525
0.000335
0.000173
0.000057
0.000239
0.000335
0.000353
0.000329
0.000233
0.000216
0.000254
0.000453
0.000368
0.000304
0.002193
0.000323
0.000790
0.000432
0.000445
0.000265
0.000332
0.000405
0.000319
0.000280
0.000394
0.000234
0.001560
0.000523
0.000223
0.000260
0.000256
0.000251
0.000270
0.000267
0.000193
0.000055
0.000232
0.000252
0.000250
0.000255
0.000243
0.001660
0.000878
0.000991
0.000216
0.000231
0.000258
0.000254
0.000266
0.000256
0.000255
0.000250
0.000253
0.000266
0.000266
0.000274
0.001432
0.000315
0.000258
0.000244
0.000225
0.000260
0.000254
0.000284
0.000264
0.000283
0.001892
0.000055
0.000205
0.000214
0.001552
0.000953
0.000328
0.000311
0.000246
0.000231
0.000249
0.000248
0.000253
0.000247
0.000247
0.001986
0.000477
0.000235
0.000246
0.000242
0.000262
0.000257
0.000192
