0.000103
0.019733
0.001937
0.000300
0.000262
0.000330
0.000291
0.000233
0.000325
0.000283
0.000253
0.000335
0.000522
0.000463
0.000422
0.000322
0.000283
0.000343
0.000352
0.000424
0.000314
0.001925
0.000704
0.000258
0.000243
0.000303
0.000323
0.000306
0.000422
0.000460
0.000429
0.000287
0.000058
0.000210
0.000273
0.000269
0.000298
0.000242
0.000251
0.000275
0.000296
0.000258
0.000293
0.000401
0.000433
0.000319
0.000253
0.000374
0.000354
0.000364
0.000243
0.000251
0.001704
0.000311
0.000262
0.000449
0.000275
0.000248
0.000274
0.000297
0.000290
0.000278
0.000382
0.000354
0.000058
0.000201
0.000247
0.000264
0.000254
0.000261
0.000246
0.000262
0.000257
0.000282
0.001671
0.000225
0.000234
0.000280
0.000259
0.000280
0.000253
0.000259
0.000265
0.000348
0.001795
0.000242
0.000276
0.000448
0.000431
0.000383
0.000235
0.000329
0.000432
0.000506
0.000737
0.000194
0.000057
0.000232
0.000247
0.000258
0.000233
0.000312
0.000253
0.000299
0.000568
0.000362
0.000271
0.000237
0.000251
0.000239
0.000253
0.000258
0.000255
0.000245
0.000270
0.000301
0.000331
0.001660
0.000275
0.000247
0.000422
0.000305
0.000727
0.000639
0.000513
0.000356
0.000247
0.000176
0.000056
0.000194
0.000248
0.000290
0.000213
0.000289
0.000227
0.000253
0.000454
0.001493
0.000226
0.000235
0.000249
0.000254
0.000252
0.000264
0.000300
0.000296
0.000780
0.001382
0.000302
0.000240
0.000407
0.000257
0.000232
0.000259
0.000263
0.000255
0.000276
0.000261
0.000270
0.000194
0.000056
0.000221
0.000241
0.000237
0.000274
0.000240
0.000247
0.000235
0.000254
0.000232
0.000260
0.001632
0.000263
0.000239
0.000237
0.000254
0.000245
0.000269
0.000227
0.000259
0.000247
0.000298
0.001639
0.000290
0.000259
0.000428
0.000248
0.000262
0.000256
0.000261
0.000278
0.000190
0.000058
0.000195
0.000232
0.000248
0.000269
0.000224
0.000247
0.000258
0.000237
0.000263
0.000265
0.000245
0.000255
0.000261
0.000272
0.001638
0.000279
0.000296
0.000217
0.000245
0.000276
0.000270
0.000231
0.000245
0.000269
0.001783
0.000410
0.000331
0.000370
0.000239
0.000278
0.000216
0.000056
0.000200
0.000238
0.000248
0.000262
0.000264
0.000260
0.000272
0.000426
0.000458
0.000351
0.000207
0.000248
0.000258
0.000245
0.001568
0.000539
0.000339
0.000379
0.000336
0.000213
0.000267
0.000287
0.000266
0.001758
0.000485
0.000473
0.000258
0.000227
0.000257
0.000260
0.000185
0.000056
0.000202
0.000226
0.000253
0.000311
0.000277
0.000448
0.000392
0.000276
0.000213
0.000253
0.000252
0.000243
0.000256
0.001696
0.000494
0.000300
0.000225
0.000251
0.000277
0.000285
0.000243
0.000257
0.000274
0.001880
0.000320
0.000385
0.000256
0.000248
0.000257
0.000407
0.000325
0.000056
0.000207
0.000390
0.000356
0.000266
0.000256
0.000249
0.000247
0.000260
0.000238
0.000237
0.000237
0.000249
0.001557
0.000321
0.000341
0.000224
0.000255
0.000249
0.000253
0.000308
0.000280
0.000297
0.000246
0.001802
0.000254
0.000506
0.000254
0.000243
0.000257
0.000269
0.000266
0.000058
0.000370
0.000539
0.000602
0.000209
0.000232
0.000278
0.000230
0.000227
0.000257
0.000257
0.000251
0.001702
0.000244
0.000445
0.000364
0.000222
0.000241
0.000223
0.000252
0.000263
0.000389
0.001718
0.000226
0.000475
0.001860
0.000546
0.000347
0.000238
0.000256
0.000265
0.000178
0.000057
0.000218
0.000238
0.000247
0.000239
0.000260
0.001628
0.000247
0.000231
0.000255
0.000252
0.000246
0.000254
0.000238
0.000258
0.000276
0.000411
0.000635
0.000243
0.000228
0.000276
0.000295
0.000220
0.000243
0.000434
0.000437
0.000271
0.000388
0.000489
0.000443
0.000284
0.000198
0.000057
0.000199
0.000241
0.000251
0.000252
0.000236
0.000262
0.000213
0.000365
0.000488
0.001718
0.000197
0.000237
0.000245
0.000244
0.000280
0.000258
0.000530
0.000374
0.000353
0.000235
0.000261
0.000306
0.000276
0.000255
0.000266
0.000440
0.000358
0.000587
0.000478
0.000437
0.000178
0.000056
0.000201
0.000267
0.000228
0.000237
0.000231
0.000239
0.000246
0.000263
0.000230
0.000289
0.000343
0.000469
0.001360
0.000242
0.000229
0.000252
0.000261
0.000247
0.000255
0.000253
0.000273
0.000455
0.000403
0.000269
0.000265
0.000257
0.000258
0.000274
0.000258
0.000268
0.000383
0.000074
0.000194
0.000237
0.000231
0.000302
0.000499
0.000452
0.000214
0.000285
0.000210
0.000266
0.000254
0.000227
0.000321
0.000226
0.000235
0.000482
0.000454
0.001606
0.000276
0.000234
0.000263
0.000261
0.000277
0.000226
0.000273
0.000494
0.000397
0.000355
0.000412
0.000253
0.000191
0.000057
0.000239
0.000434
0.000230
0.000213
0.000288
0.000225
0.000290
0.000560
0.000340
0.000311
0.000233
0.000276
0.000260
0.000240
0.000522
0.000351
0.000212
0.000262
0.000457
0.001575
0.000264
0.000240
0.000524
0.000249
0.000289
0.000271
0.000251
0.000347
0.000551
0.000372
0.000267
0.000057
0.000229
0.000228
0.000232
0.000246
0.000421
0.000310
0.000285
0.000220
0.000361
0.000477
0.000426
0.000246
0.000223
0.000250
0.000256
0.000268
0.000255
0.000255
0.000232
0.000352
0.000283
0.000396
0.001811
0.000216
0.000259
0.000252
0.000284
0.000363
0.000395
0.000729
0.000459
0.000055
0.000226
0.000337
0.000318
0.000403
0.000386
0.000205
0.000257
0.000372
0.000497
0.000351
0.000263
0.000237
0.000237
0.000280
0.000250
0.000235
0.000254
0.000274
0.000270
0.000275
0.000270
0.000356
0.000724
0.001308
0.000317
0.000433
0.000426
0.000241
0.000427
0.000423
0.000312
0.000056
0.000229
0.000379
0.000277
0.000209
0.000226
0.000249
0.000418
0.000230
0.000262
0.000442
0.000351
0.000420
0.000239
0.000256
0.000264
0.000242
0.000357
0.000413
0.000322
0.000251
0.000265
0.000402
0.000585
0.001697
0.000222
0.000428
0.000313
0.000230
0.000264
0.000458
0.000318
0.000057
0.000199
0.000226
0.000247
0.000259
0.000253
0.000229
0.000248
0.000331
0.000459
0.000306
0.000400
0.000364
0.000305
0.000572
0.000247
0.000243
0.000273
0.000269
0.000222
0.000355
0.000204
0.000262
0.000291
0.000390
0.000457
0.001698
0.000269
0.000231
0.000252
0.000268
0.000188
0.000058
0.000347
0.000428
0.000345
0.000207
0.000255
0.000243
0.000253
0.000244
0.000270
0.000234
0.000226
0.000260
0.000406
0.000508
0.000429
0.000267
0.000238
0.000256
0.000344
0.000382
0.000382
0.000335
0.000360
0.000396
0.000264
0.000240
0.000267
0.000270
0.001796
0.000238
0.000206
0.000056
0.000212
0.000219
0.000272
0.000287
0.000333
0.000537
0.000321
0.000217
0.000284
0.000238
0.000248
0.000247
0.000521
0.000449
0.000489
0.000263
0.000274
0.000256
0.000422
0.000468
0.000354
0.000415
0.000495
0.000433
0.000242
0.000250
0.000262
0.000246
0.000258
0.001727
0.000317
0.000057
0.000298
0.000337
0.000196
0.000232
0.000254
0.000251
0.000235
0.000500
0.000375
0.000307
0.000291
0.000267
0.000400
0.000608
0.000340
0.000225
0.000254
0.000261
0.000250
0.000266
0.000278
0.000257
0.000244
0.000267
0.000338
0.000327
0.000402
0.000369
0.000225
0.000255
0.000198
0.000055
0.000446
0.000297
0.000457
0.000254
0.000209
0.000253
0.000242
0.000260
0.000240
0.000225
0.000245
0.000276
0.000306
0.000387
0.000487
0.000492
0.000305
0.000320
0.000371
0.000345
0.000296
0.000243
0.000242
0.000260
0.001746
0.000252
0.001726
0.000970
0.000351
0.000345
0.000164
0.000056
0.000225
0.000226
0.000234
0.000238
0.000273
0.000236
0.000253
0.000253
0.000237
0.000323
0.000381
0.000401
0.000343
0.000384
0.000271
0.000236
0.000243
0.000291
0.000236
0.000250
0.000248
0.000260
0.001808
0.000247
0.000253
0.000263
0.000276
0.000266
0.001879
0.000588
0.000194
0.000076
0.000198
0.000220
0.000237
0.000237
0.000265
0.000235
0.000239
0.000262
0.000264
0.000366
0.000533
0.000353
0.000360
0.000246
0.000238
0.000248
0.000333
0.000433
0.000368
0.000254
0.001773
0.000273
0.000236
0.000249
0.000258
0.000270
0.000245
0.000253
0.000325
0.000354
0.000322
0.000056
0.000255
0.000215
0.000242
0.000276
0.000239
0.000237
0.000257
0.000255
0.000234
0.000260
0.000241
0.000312
0.000350
0.000411
0.000354
0.000231
0.000463
0.000261
0.000225
0.000256
0.000261
0.000261
0.000272
0.000261
0.000273
0.001782
0.000256
0.000244
0.000269
0.000235
0.000207
0.000056
0.000398
0.000214
0.000220
0.000233
0.000257
0.000216
0.000235
0.000264
0.000242
0.000223
0.000238
0.000263
0.000259
0.000370
0.000392
0.000367
0.000305
0.000221
0.000254
0.000254
0.000259
0.000269
0.000245
0.000263
0.000258
0.000264
0.000321
0.001613
0.000266
0.000243
0.000191
0.000056
0.000206
0.000234
0.000246
0.000272
0.000342
0.000331
0.000407
0.000330
0.000224
0.000254
0.000269
0.000249
0.000220
0.000259
0.000264
0.000257
0.000244
0.000257
0.000250
0.000262
0.000270
0.000265
0.000248
0.000240
0.000242
0.000276
0.000279
0.000260
0.000255
0.000285
0.000166
0.000057
0.000242
0.000212
0.000257
0.000282
0.000228
0.000232
0.000244
0.000262
0.000278
0.000248
0.000222
0.000263
0.000242
0.000248
0.000296
0.000236
0.000256
0.000247
0.000306
0.000246
0.000277
0.000317
0.000267
0.000224
0.000305
0.000249
0.000273
0.000243
0.000288
0.000401
0.000715
0.000057
0.000216
0.000296
0.000224
0.000224
0.000233
0.000256
0.000238
0.000269
0.000235
0.000240
0.000269
0.000301
0.000476
0.000561
0.001460
0.000237
0.000484
0.000234
0.000276
0.000484
0.000420
0.000347
0.000225
0.000284
0.000247
0.000260
0.000282
0.000254
0.000346
0.000237
0.000166
0.000057
0.000289
0.000454
0.000325
0.000320
0.000232
0.000272
0.000221
0.000243
0.000236
0.000240
0.000258
0.000258
0.000228
0.000282
0.000386
0.000449
0.000397
0.001796
0.000238
0.000257
0.000332
0.000443
0.000390
0.000336
0.000319
0.000318
0.000301
0.000231
0.000231
0.000242
0.000201
0.000055
0.000244
0.000209
0.000238
0.000305
0.000353
0.000430
0.000348
0.000256
0.000261
0.000204
0.000251
0.000269
0.000270
0.000262
0.000242
0.000264
0.000308
0.000480
0.000333
0.000446
0.000229
0.001749
0.000330
0.000502
0.000512
0.000458
0.000324
0.000228
0.000251
0.000269
0.000446
0.000057
0.000214
0.000270
0.000217
0.000372
0.000294
0.000479
0.000391
0.000242
0.000222
0.000290
0.000245
0.000258
0.000253
0.000297
0.000308
0.000263
0.000236
0.000385
0.000439
0.000342
0.000494
0.001844
0.000288
0.000414
0.000486
0.000359
0.000234
0.000257
0.000305
0.000245
0.000206
0.000057
0.000213
0.000333
0.000362
0.000431
0.000336
0.000245
0.000380
0.000220
0.000236
0.000258
0.000275
0.000227
0.000249
0.000254
0.000250
0.000255
0.000417
0.000305
0.000477
0.000378
0.000285
0.000241
0.000260
0.001703
0.000599
0.000334
0.000687
0.000241
0.000259
0.000309
0.000164
0.000056
0.000196
0.000239
0.000349
0.000227
0.000285
0.000360
0.000411
0.000311
0.000255
0.000506
0.000232
0.000251
0.000259
0.000277
0.000277
0.000259
0.000220
0.000367
0.000456
0.000433
0.000255
0.000229
0.000261
0.000254
0.000259
0.000269
0.000241
0.000251
0.000267
0.000290
0.000196
0.000057
0.000360
0.000314
0.000217
0.000262
0.000245
0.000255
0.000240
0.000292
0.000239
0.000248
0.000277
0.000335
0.000489
0.000353
0.000370
0.000229
0.000224
0.000233
0.000256
0.000269
0.000287
0.000270
0.000225
0.000258
0.000278
0.000366
0.000337
0.000418
0.000344
0.000228
0.000176
0.000056
0.000217
0.000223
0.000282
0.000242
0.000238
0.000269
0.000262
0.000236
0.000485
0.000217
0.000270
0.000246
0.000238
0.000262
0.000272
0.000299
0.000240
0.000354
0.000209
0.000253
0.000248
0.000269
0.000255
0.000273
0.000273
0.000276
0.000243
0.000260
0.000261
0.000494
0.000164
0.000056
0.000206
0.000244
0.000259
0.000280
0.000195
0.000245
0.000372
0.000406
0.000228
0.000237
0.000252
0.000256
0.000238
0.000253
0.000401
0.001836
0.000232
0.000260
0.000291
0.000325
0.000408
0.000363
0.000367
0.000436
0.000355
0.000396
0.000242
0.000271
0.000271
0.000280
0.001388
0.000056
0.000363
0.000390
0.000190
0.000197
0.000240
0.000247
0.000236
0.000256
0.000243
0.000275
0.000243
0.000257
0.000252
0.000299
0.000543
0.001624
0.000236
0.000228
0.000244
0.000268
0.000236
0.000282
0.000403
0.000321
0.000428
0.000234
0.000222
0.000263
0.000277
0.000263
0.000210
0.000057
0.001315
0.000437
0.000335
0.000247
0.000241
0.000224
0.000226
0.000241
0.000516
0.000191
0.000240
0.000253
0.000354
0.000412
0.000484
0.000353
0.000255
0.000243
0.000321
0.000363
0.000265
0.000261
0.000266
0.000250
0.000257
0.000576
0.000529
0.000285
0.000268
0.000266
0.000172
0.000056
0.000203
0.000227
0.000256
0.000224
0.001458
0.000315
0.000220
0.000255
0.000259
0.000229
0.000251
0.000254
0.000242
0.000282
0.000254
0.000304
0.000389
0.000676
0.000274
0.001745
0.000254
0.000288
0.000297
0.000395
0.000568
0.000418
0.000242
0.000249
0.000267
0.000268
0.000194
0.000056
0.000219
0.000259
0.000231
0.000348
0.001223
0.000230
0.000261
0.000267
0.000236
0.000238
0.000234
0.000256
0.000276
0.000262
0.000234
0.000281
0.000522
0.000372
0.000327
0.000259
0.000267
0.000269
0.000248
0.000241
0.000278
0.000270
0.000237
0.000284
0.000276
0.000376
0.000608
0.000056
0.000212
0.000249
0.000233
0.000263
0.000276
0.000224
0.000235
0.000261
0.000291
0.000259
0.001422
0.000210
0.000245
0.000252
0.000245
0.000242
0.000296
0.000241
0.000287
0.000238
0.000326
0.000429
0.000451
0.000397
0.000232
0.000272
0.001756
0.000261
0.000259
0.000346
0.000413
0.000056
0.000196
0.000406
0.000448
0.000502
0.000515
0.000555
0.001489
0.000417
0.000512
0.000651
0.000554
0.000701
0.000500
0.000624
0.000582
0.001891
0.000394
0.000426
0.000417
0.000318
0.000220
0.000271
0.000289
0.000264
0.000265
0.000287
0.000289
0.000290
0.000273
0.000272
0.001366
0.000056
0.000218
0.000227
0.000254
0.000241
0.000253
0.000256
0.000238
0.000236
0.000247
0.000262
0.000238
0.000242
0.000257
0.000254
0.000262
0.000270
0.001806
0.000288
0.000243
0.000251
0.000247
0.000272
0.000265
0.000273
0.000437
0.000388
0.000350
0.000235
0.000267
0.000276
0.000207
0.000058
0.000181
0.001364
0.000327
0.000277
0.000244
0.000244
0.000242
0.000226
0.000243
0.000235
0.000227
0.000243
0.000245
0.000512
0.000365
0.000303
0.000241
0.001817
0.000374
0.000212
0.000249
0.000264
0.000256
0.000264
0.000280
0.000281
0.000270
0.000254
0.000261
0.000347
0.000176
0.000057
0.000226
0.000234
0.000251
0.001446
0.000214
0.000241
0.000259
0.000241
0.000238
0.000273
0.000248
0.000247
0.000243
0.000289
0.000235
0.000248
0.000264
0.000267
0.000267
0.000258
0.000255
0.001782
0.000275
0.001754
0.000267
0.000249
0.000271
0.000266
0.000266
0.000276
0.000200
0.000056
0.000225
0.000230
0.001344
0.000230
0.000249
0.000249
0.000261
0.000256
0.000241
0.000254
0.000257
0.000235
0.000258
0.000268
0.000260
0.000260
0.000261
0.000282
0.000307
0.000221
0.001880
0.000249
0.001814
0.000250
0.000257
0.000275
0.000227
0.000250
0.000262
0.000269
0.000194
0.000058
0.001432
0.000220
0.000229
0.000247
0.000239
0.000235
0.000374
0.000289
0.000242
0.000250
0.000248
0.000258
0.000257
0.000362
0.000379
0.000292
0.000241
0.000267
0.000272
0.000234
0.000283
0.000339
0.000224
0.000251
0.000266
0.000278
0.000274
0.000327
0.000666
0.000356
0.000190
0.000056
0.000185
0.000249
0.000262
0.000306
0.000364
0.000254
0.001668
0.000325
0.000281
0.000274
0.000255
0.000271
0.000267
0.000261
0.000310
0.000299
0.000330
0.000577
0.000390
0.000259
0.000289
0.000283
0.000261
0.000266
0.000336
0.000252
0.000274
0.000247
0.000252
0.000294
0.000418
0.000056
0.000361
0.000386
0.000253
0.000263
0.000249
0.000224
0.000226
0.000248
0.000280
0.000254
0.001485
0.000240
0.000220
0.000251
0.000248
0.000287
0.000282
0.000240
0.000254
0.000272
0.000256
0.000464
0.000408
0.000366
0.000262
0.000284
0.000266
0.000259
0.000239
0.000308
0.000169
0.000057
0.000207
0.000232
0.000289
0.000454
0.000362
0.000290
0.000216
0.000249
0.000252
0.000241
0.000244
0.000251
0.000255
0.000267
0.000241
0.000251
0.000444
0.001152
0.000249
0.000237
0.000284
0.000246
0.000352
0.000426
0.000247
0.000344
0.000546
0.000360
0.000394
0.000232
0.000178
0.000057
0.000227
0.000246
0.000261
0.000260
0.000253
0.000247
0.000353
0.000375
0.000437
0.000309
0.000352
0.000395
0.000394
0.000362
0.000259
0.000242
0.000235
0.000265
0.000403
0.000535
0.001183
0.000222
0.000276
0.000269
0.000235
0.000239
0.000262
0.000312
0.000434
0.000421
0.000247
0.000056
0.000219
0.000239
0.000251
0.000245
0.000237
0.000267
0.000213
0.000276
0.000298
0.000390
0.000368
0.000396
0.000250
0.000223
0.000252
0.000259
0.000248
0.000260
0.000266
0.000271
0.000421
0.000275
0.000324
0.000498
0.000265
0.000258
0.000268
0.000261
0.000255
0.000338
0.000161
0.000055
0.000328
0.000318
0.000276
0.000404
0.000425
0.000380
0.000242
0.000240
0.000240
0.000304
0.000227
0.000266
0.000235
0.000249
0.000251
0.000223
0.000264
0.000403
0.000487
0.000318
0.000237
0.000264
0.000241
0.000246
0.000263
0.000282
0.000269
0.000279
0.000270
0.000265
0.000251
0.000056
0.000370
0.000274
0.000215
0.000267
0.000227
0.000245
0.000244
0.000256
0.000261
0.000259
0.000251
0.000235
0.000300
0.000470
0.000446
0.000312
0.000220
0.000255
0.000251
0.000266
0.000256
0.000264
0.000252
0.000268
0.000278
0.000356
0.000408
0.000561
0.000404
0.000253
0.000174
0.000056
0.000396
0.000212
0.000218
0.000247
0.000255
0.000241
0.000237
0.000252
0.000253
0.000263
0.000220
0.000282
0.000235
0.000221
0.000254
0.000259
0.000253
0.000275
0.000286
0.000238
0.000261
0.000259
0.000268
0.000257
0.000264
0.000244
0.000264
0.000277
0.000257
0.000273
0.000203
0.000057
0.000194
0.000233
0.000249
0.000245
0.000228
0.000264
0.000258
0.000242
0.000257
0.000281
0.000228
0.000236
0.000255
0.000394
0.000256
0.000295
0.000247
0.000261
0.000259
0.000299
0.000255
0.000234
0.000245
0.000254
0.000271
0.000286
0.000237
0.000250
0.000275
0.000258
0.000205
0.000055
0.000230
0.000360
0.000366
0.000281
0.000292
0.000261
0.000273
0.000248
0.000231
0.000237
0.000276
0.000235
0.000245
0.000246
0.000275
0.000264
0.000239
0.000273
0.000237
0.000265
0.000280
0.000262
0.000275
0.000256
0.000303
0.000221
0.000252
0.000272
0.000269
0.000266
0.000192
0.000055
0.000218
0.000229
0.000264
0.000261
0.000255
0.000445
0.000209
0.000275
0.000270
0.000453
0.000465
0.000296
0.000219
0.000253
0.000272
0.000260
0.000240
0.000266
0.000257
0.000277
0.000280
0.000237
0.000263
0.000240
0.000667
0.000399
0.000275
0.000313
0.000246
0.000263
0.000192
0.000056
0.000189
0.000218
0.000248
0.000249
0.000391
0.000623
0.000303
0.000357
0.000205
0.000248
0.000250
0.000252
0.000251
0.000248
0.000259
0.000284
0.000258
0.000253
0.000665
0.000370
0.000276
0.000242
0.000257
0.000279
0.000280
0.000260
0.000263
0.000289
0.000247
0.000309
0.000341
0.000056
0.000215
0.000231
0.000243
0.000232
0.000258
0.000262
0.000216
0.000245
0.000242
0.000264
0.000262
0.000237
0.000242
0.000381
0.000614
0.000394
0.000201
0.000260
0.000263
0.000249
0.000265
0.000288
0.000478
0.000219
0.000263
0.000646
0.000397
0.000447
0.000258
0.000247
0.000195
0.000056
0.000224
0.000232
0.000241
0.000241
0.000272
0.000239
0.000345
0.000510
0.000472
0.000423
0.000215
0.000264
0.000274
0.000273
0.000255
0.000251
0.000236
0.000255
0.000271
0.000323
0.000434
0.000606
0.000367
0.000253
0.000359
0.000377
0.000495
0.000245
0.000261
0.000499
0.000316
0.000056
0.000267
0.000234
0.000441
0.000212
0.000242
0.000253
0.000261
0.000260
0.000230
0.000256
0.000359
0.000370
0.000313
0.000321
0.000227
0.000253
0.000260
0.000248
0.000262
0.000274
0.000295
0.000239
0.000246
0.000273
0.000418
0.000381
0.000483
0.000237
0.000262
0.000271
0.000200
0.000055
0.000192
0.000257
0.000226
0.000244
0.000249
0.000299
0.000301
0.000503
0.000350
0.000271
0.000378
0.000228
0.000253
0.000266
0.000253
0.000238
0.000255
0.000261
0.000285
0.000401
0.000527
0.000288
0.000494
0.000252
0.000391
0.000423
0.000376
0.000242
0.000261
0.000340
0.000306
0.000056
0.000190
0.000275
0.000222
0.000250
0.000283
0.000239
0.000286
0.000206
0.000272
0.000236
0.000239
0.000392
0.000491
0.000296
0.000367
0.000237
0.000261
0.000264
0.000268
0.000237
0.000242
0.000258
0.000273
0.000267
0.000276
0.000315
0.000518
0.000466
0.000237
0.000284
0.000190
0.000056
0.000243
0.000212
0.000275
0.000250
0.000238
0.000331
0.000502
0.000484
0.000481
0.000557
0.000261
0.000221
0.000238
0.000268
0.000241
0.000268
0.000280
0.000304
0.000471
0.000447
0.001454
0.000310
0.000271
0.000264
0.000284
0.000263
0.000378
0.000555
0.000231
0.000306
0.000181
0.000056
0.000198
0.000230
0.000246
0.000263
0.000231
0.000252
0.000297
0.000226
0.000244
0.000327
0.000333
0.000380
0.000266
0.000340
0.000397
0.000348
0.000246
0.000242
0.000272
0.000264
0.000240
0.000249
0.000310
0.000221
0.000325
0.000435
0.000467
0.000250
0.000257
0.000262
0.000194
0.000055
0.000184
0.000247
0.000257
0.000255
0.000240
0.000231
0.000476
0.000216
0.000231
0.000253
0.000252
0.000257
0.000256
0.000249
0.000254
0.000267
0.000263
0.000289
0.000262
0.000238
0.000287
0.000267
0.000289
0.000246
0.000267
0.000278
0.000272
0.000261
0.000263
0.000277
0.000168
0.000056
0.000197
0.000239
0.000298
0.000429
0.000358
0.000258
0.000238
0.000250
0.000255
0.000253
0.000246
0.000258
0.000276
0.000249
0.000236
0.000242
0.000267
0.000246
0.000304
0.000335
0.000553
0.000273
0.000227
0.000263
0.000262
0.000256
0.000272
0.000249
0.000276
0.000280
0.000197
0.000056
0.000346
0.000439
0.000380
0.000210
0.000252
0.000258
0.000412
0.000226
0.000221
0.000256
0.000251
0.000294
0.000351
0.000463
0.001850
0.000250
0.000239
0.000252
0.000279
0.000240
0.000389
0.000452
0.000621
0.000237
0.000229
0.000258
0.000279
0.000427
0.000279
0.000275
0.000164
0.000056
0.000191
0.000361
0.000325
0.000336
0.000496
0.000203
0.000239
0.000247
0.000252
0.000241
0.000262
0.000245
0.000263
0.000302
0.000459
0.000446
0.000216
0.000248
0.000259
0.000259
0.000266
0.000318
0.000232
0.000283
0.000272
0.000563
0.000397
0.000622
0.000241
0.000228
0.000206
0.000056
0.000213
0.000242
0.000250
0.000239
0.000242
0.000252
0.000265
0.000299
0.000333
0.000334
0.000469
0.000337
0.000221
0.000247
0.000274
0.000284
0.000294
0.000240
0.000295
0.000255
0.000233
0.000293
0.000526
0.000337
0.000279
0.000278
0.000239
0.000444
0.000411
0.000299
0.000187
0.000056
0.000202
0.000234
0.000332
0.000414
0.000390
0.000200
0.000244
0.000255
0.000260
0.000266
0.000256
0.000247
0.000226
0.000263
0.000257
0.000338
0.000361
0.000358
0.000295
0.000339
0.000497
0.000221
0.000284
0.000279
0.000294
0.000285
0.000250
0.000320
0.000446
0.000481
0.000211
0.000061
0.000195
0.000229
0.000247
0.000249
0.000241
0.000481
0.000214
0.000254
0.000271
0.000276
0.000510
0.000608
0.000221
0.000244
0.000237
0.000253
0.000256
0.000265
0.000242
0.000247
0.000289
0.000244
0.000313
0.000495
0.000328
0.000413
0.000289
0.000301
0.000324
0.000252
0.000181
0.000055
0.000207
0.000236
0.000260
0.000497
0.000306
0.000337
0.000236
0.000214
0.000242
0.000259
0.000252
0.000263
0.000263
0.000245
0.000243
0.000261
0.000246
0.000242
0.000263
0.000382
0.000557
0.000374
0.000212
0.000247
0.000283
0.000275
0.000257
0.000259
0.000264
0.000270
0.000193
0.000056
0.000303
0.000381
0.000436
0.000257
0.000208
0.000248
0.000318
0.000464
0.000288
0.000207
0.000243
0.000274
0.000261
0.000463
0.000412
0.000285
0.000248
0.000225
0.000256
0.000268
0.000268
0.000260
0.000267
0.000275
0.000261
0.000312
0.000410
0.000361
0.000333
0.000239
0.000195
0.000059
0.000202
0.000241
0.000247
0.000257
0.000248
0.000266
0.000226
0.000276
0.000256
0.000227
0.000266
0.000236
0.000290
0.001432
0.000224
0.000252
0.000258
0.000251
0.000277
0.000275
0.000262
0.000236
0.000275
0.000256
0.000267
0.000285
0.000253
0.000269
0.000269
0.000267
0.000193
0.000055
0.000204
0.000235
0.000247
0.000269
0.000221
0.000242
0.000258
0.000260
0.000227
0.000263
0.000233
0.000269
0.000254
0.000248
0.000257
0.000263
0.000248
0.000254
0.000276
0.000251
0.000255
0.000259
0.000247
0.000253
0.001295
0.000264
0.000590
0.000452
0.000309
0.000244
0.000196
0.000056
0.000201
0.000233
0.000241
0.000253
0.000427
0.000230
0.000234
0.000240
0.000267
0.000408
0.000430
0.000304
0.000233
0.000230
0.000269
0.000255
0.000279
0.000246
0.000243
0.000264
0.000257
0.000256
0.000349
0.000411
0.000431
0.000457
0.000221
0.000268
0.001359
0.000250
0.000184
0.000056
0.000381
0.000325
0.000324
0.000270
0.000224
0.000222
0.000234
0.000248
0.000260
0.000254
0.000247
0.000264
0.000295
0.000427
0.000385
0.000385
0.000325
0.000227
0.000251
0.000251
0.000268
0.000296
0.000241
0.000262
0.000269
0.000266
0.000404
0.000520
0.000338
0.000365
0.000142
0.000056
0.000211
0.000227
0.001314
0.000380
0.000388
0.000380
0.000362
0.000486
0.000269
0.000344
0.000223
0.000231
0.000261
0.000257
0.000247
0.000268
0.000275
0.000598
0.000351
0.000378
0.000262
0.000241
0.000265
0.000498
0.000239
0.000261
0.000251
0.000278
0.000272
0.000601
0.000278
0.000056
0.000368
0.000308
0.000239
0.001477
0.000341
0.000429
0.000312
0.000241
0.000248
0.000243
0.000234
0.000239
0.000239
0.000275
0.000247
0.000262
0.000241
0.000282
0.000448
0.000324
0.000464
0.000237
0.000261
0.000252
0.000258
0.000277
0.000271
0.000232
0.000286
0.000260
0.000196
0.000056
0.000366
0.000347
0.000218
0.000241
0.000251
0.000243
0.000268
0.000228
0.000234
0.000226
0.001428
0.000460
0.000269
0.000237
0.000241
0.000251
0.000273
0.000260
0.000237
0.000303
0.000244
0.000264
0.000249
0.000461
0.000466
0.000364
0.000233
0.000263
0.000274
0.000286
0.000174
0.000056
0.000214
0.000415
0.000221
0.000236
0.000422
0.000358
0.000396
0.000294
0.000466
0.000208
0.000224
0.000257
0.000263
0.000264
0.000259
0.001435
0.000341
0.000297
0.000229
0.000270
0.000295
0.000231
0.000251
0.000252
0.000262
0.000268
0.000455
0.000442
0.000294
0.000269
0.000162
0.000056
0.000214
0.000235
0.000257
0.000238
0.000227
0.000263
0.000238
0.000251
0.000333
0.000301
0.000441
0.000306
0.000238
0.000252
0.000246
0.000273
0.000274
0.000260
0.000271
0.000225
0.000249
0.000300
0.001276
0.000255
0.000265
0.000237
0.000267
0.000262
0.000269
0.000249
0.000190
0.000056
0.000230
0.000324
0.000370
0.000341
0.000239
0.000249
0.000258
0.000289
0.000235
0.000264
0.000240
0.000264
0.000243
0.000255
0.000268
0.000245
0.000267
0.000269
0.000263
0.000249
0.000253
0.000269
0.000266
0.000285
0.000287
0.000264
0.000269
0.000267
0.000253
0.000451
0.001360
0.000056
0.000206
0.000258
0.000217
0.000266
0.000234
0.000256
0.000248
0.000223
0.000244
0.000255
0.000298
0.000241
0.000244
0.000240
0.000271
0.000219
0.001729
0.000274
0.000231
0.000258
0.000244
0.000264
0.000272
0.000260
0.000296
0.000235
0.000268
0.000280
0.000271
0.000254
0.000229
0.000056
0.000281
0.000331
0.001303
0.000221
0.000229
0.000269
0.000240
0.000251
0.000269
0.000247
0.000234
0.000350
0.000377
0.000483
0.000244
0.000231
0.000251
0.000250
0.000267
0.000260
0.000244
0.000285
0.000254
0.000282
0.000275
0.000392
0.000351
0.000385
0.000292
0.000246
0.000191
0.000056
0.000226
0.000250
0.000244
0.000247
0.000281
0.000194
0.000240
0.000259
0.000415
0.001343
0.000266
0.000229
0.000229
0.000280
0.000243
0.000296
0.000233
0.000251
0.000336
0.000482
0.000311
0.000238
0.000244
0.000259
0.000283
0.000265
0.000267
0.000287
0.000270
0.000273
0.000193
0.000058
0.000212
0.000398
0.000408
0.000216
0.000237
0.000235
0.000245
0.000283
0.000259
0.000248
0.000229
0.000255
0.000442
0.000506
0.000466
0.001459
0.000233
0.000300
0.000309
0.000351
0.000478
0.000424
0.000629
0.000240
0.000230
0.000265
0.000268
0.000275
0.000263
0.000274
0.000192
0.000057
0.000210
0.000271
0.000587
0.000347
0.000333
0.000253
0.000239
0.000232
0.000240
0.000276
0.000232
0.000267
0.000276
0.000229
0.000263
0.000290
0.000391
0.000395
0.000375
0.001334
0.000262
0.000249
0.000257
0.000266
0.000455
0.000440
0.000373
0.000276
0.000265
0.000271
0.000185
0.000055
0.000193
0.000244
0.000245
0.000264
0.000227
0.000295
0.000532
0.000272
0.000386
0.000215
0.000242
0.000260
0.000272
0.000290
0.000239
0.000253
0.000261
0.000260
0.000279
0.000292
0.000428
0.000428
0.000328
0.001354
0.000405
0.000239
0.000270
0.000405
0.000446
0.000360
0.000307
0.000055
0.000208
0.000254
0.000228
0.000244
0.000250
0.000259
0.001681
0.000242
0.000214
0.000240
0.000256
0.000243
0.000258
0.000328
0.000326
0.000284
0.000262
0.000338
0.000507
0.000367
0.000310
0.000290
0.000232
0.000249
0.001500
0.000389
0.000410
0.000421
0.000314
0.000295
0.000181
0.000056
0.000228
0.000240
0.000262
0.000255
0.000247
0.000261
0.001707
0.000245
0.000226
0.000266
0.000332
0.000405
0.001449
0.000360
0.000392
0.000237
0.000257
0.000236
0.000268
0.000280
0.001530
0.000576
0.000380
0.000296
0.000241
0.000248
0.000265
0.000282
0.000247
0.000248
0.000197
0.000056
0.000215
0.000222
0.000276
0.000244
0.000268
0.000298
0.000253
0.000265
0.000240
0.000251
0.000255
0.000249
0.000292
0.000258
0.000252
0.001476
0.000280
0.000225
0.000276
0.000275
0.000272
0.000256
0.000430
0.001274
0.000276
0.000240
0.000270
0.000250
0.000409
0.000234
0.000197
0.000056
0.000207
0.000242
0.000224
0.000248
0.000239
0.000240
0.000224
0.001692
0.000261
0.000215
0.000360
0.000284
0.000209
0.000225
0.000252
0.001383
0.000232
0.000265
0.000265
0.000245
0.000262
0.000354
0.000294
0.001290
0.000280
0.000256
0.000243
0.000270
0.001389
0.000273
0.000221
0.000057
0.000272
0.000328
0.000208
0.000240
0.000264
0.000226
0.000287
0.000261
0.000249
0.000246
0.000261
0.000262
0.000264
0.000241
0.000295
0.001537
0.000224
0.000269
0.000253
0.000249
0.000306
0.000242
0.000256
0.001502
0.000337
0.000245
0.000272
0.001262
0.000265
0.000256
0.000246
0.000057
0.000184
0.000386
0.000340
0.000214
0.000230
0.000239
0.000272
0.000253
0.000262
0.000272
0.000234
0.000253
0.000262
0.000287
0.000395
0.001222
0.000230
0.000260
0.000271
0.000268
0.000231
0.000239
0.000252
0.000365
0.001259
0.000241
0.000237
0.000259
0.000258
0.001333
0.000329
0.000057
0.000287
0.000239
0.000228
0.000230
0.000243
0.000253
0.000239
0.000254
0.000298
0.000231
0.000245
0.000247
0.000273
0.000316
0.000406
0.001461
0.000226
0.000244
0.000301
0.000512
0.000281
0.001485
0.000331
0.000241
0.000232
0.000263
0.000255
0.001332
0.000326
0.000469
0.000303
0.000055
0.000224
0.000250
0.000254
0.000259
0.000279
0.000251
0.000249
0.000267
0.000243
0.000260
0.000301
0.000465
0.001343
0.000239
0.000279
0.000260
0.000278
0.000230
0.000232
0.000239
0.000345
0.001250
0.000255
0.000246
0.000248
0.000250
0.001450
0.000521
0.000443
0.000226
0.000191
0.000057
0.000211
0.000230
0.000249
0.000234
0.000253
0.000267
0.000240
0.000297
0.000497
0.000378
0.000271
0.001495
0.000218
0.000234
0.000267
0.000248
0.000264
0.000344
0.001640
0.000257
0.000377
0.000341
0.001264
0.000416
0.000265
0.000352
0.000224
0.000271
0.000260
0.000271
0.000192
0.000055
0.000209
0.000240
0.000330
0.000257
0.000365
0.000494
0.000266
0.000296
0.001473
0.000248
0.000395
0.000238
0.000228
0.000327
0.000354
0.001334
0.000260
0.000240
0.000250
0.000254
0.001521
0.000385
0.000313
0.000257
0.000249
0.000248
0.000448
0.000340
0.000235
0.000258
0.000253
0.000055
0.000247
0.000353
0.000371
0.000245
0.000244
0.001509
0.000207
0.000257
0.000268
0.000268
0.000265
0.000244
0.000322
0.001471
0.000254
0.000224
0.000433
0.001195
0.000345
0.000455
0.000377
0.000245
0.000240
0.000254
0.000301
0.000224
0.000448
0.000232
0.000267
0.000271
0.000201
0.000056
0.000202
0.000272
0.000352
0.000365
0.001296
0.000273
0.000330
0.000231
0.000233
0.000239
0.000246
0.000277
0.001546
0.000256
0.000224
0.000250
0.001375
0.000309
0.000445
0.000357
0.000408
0.000241
0.000249
0.000265
0.000248
0.000294
0.000252
0.000263
0.000266
0.000252
0.000197
0.000057
0.000266
0.000377
0.001442
0.000207
0.000274
0.000303
0.000214
0.000250
0.000263
0.000367
0.001407
0.000216
0.000261
0.000255
0.000260
0.001312
0.000658
0.000275
0.000331
0.000409
0.000302
0.000259
0.000260
0.000255
0.000269
0.000291
0.000271
0.000324
0.000381
0.000466
0.001378
0.000056
0.000201
0.000247
0.000243
0.000222
0.000258
0.000395
0.000507
0.001284
0.000243
0.000243
0.000243
0.001377
0.000592
0.000240
0.000210
0.000417
0.000246
0.000247
0.000257
0.000292
0.000249
0.000253
0.000281
0.000253
0.000249
0.000296
0.000440
0.000477
0.001496
0.000228
0.000182
0.000057
0.000196
0.000256
0.000337
0.000590
0.001202
0.000303
0.000228
0.000259
0.000246
0.000254
0.000251
0.000274
0.000357
0.000530
0.000296
0.000238
0.000251
0.000274
0.000243
0.000310
0.000236
0.000260
0.000256
0.000280
0.000243
0.000369
0.000503
0.000329
0.000337
0.001404
0.000176
0.000057
0.000206
0.000242
0.000296
0.000439
0.000328
0.000313
0.000320
0.000333
0.000293
0.000264
0.000228
0.000261
0.000254
0.000306
0.000252
0.000293
0.000583
0.000269
0.000299
0.000387
0.000273
0.000409
0.000229
0.000237
0.000264
0.000260
0.000256
0.000296
0.000357
0.000554
0.000228
0.000073
0.000188
0.001413
0.000238
0.000322
0.000413
0.000380
0.000402
0.000339
0.000207
0.000243
0.000263
0.000246
0.000286
0.000280
0.000236
0.000253
0.000263
0.001391
0.000215
0.000261
0.000260
0.000273
0.000266
0.000276
0.000268
0.000256
0.000277
0.000247
0.000312
0.000486
0.000203
0.000056
0.000210
0.000259
0.000224
0.001503
0.000321
0.000236
0.000235
0.000243
0.000229
0.000250
0.000255
0.000278
0.000243
0.000247
0.000302
0.000220
0.000249
0.000266
0.000263
0.000255
0.001427
0.000242
0.000234
0.000287
0.000256
0.000247
0.000266
0.000263
0.000278
0.000499
0.000338
0.000055
0.000210
0.000226
0.000395
0.000288
0.000234
0.000294
0.001522
0.000329
0.000288
0.000218
0.000258
0.000320
0.000329
0.000225
0.000228
0.000253
0.000252
0.000258
0.000260
0.000261
0.000492
0.000487
0.001130
0.000276
0.000235
0.000258
0.000267
0.000266
0.000296
0.000231
0.000364
0.000057
0.000263
0.000303
0.000235
0.000226
0.000249
0.000239
0.000248
0.000226
0.000290
0.001630
0.000360
0.000277
0.000237
0.000248
0.000257
0.000245
0.000261
0.000279
0.000257
0.000312
0.000324
0.000537
0.000383
0.001367
0.000236
0.000278
0.000255
0.000259
0.000270
0.000354
0.000410
0.000056
0.000274
0.000266
0.000219
0.000232
0.000223
0.000241
0.000263
0.000283
0.000254
0.001545
0.000386
0.000255
0.000244
0.000257
0.000459
0.000257
0.000550
0.000371
0.000273
0.000269
0.000488
0.000497
0.001262
0.000253
0.000240
0.000263
0.001677
0.000522
0.000583
0.000311
0.000145
0.000057
0.000215
0.000236
0.000230
0.000237
0.000277
0.000224
0.000248
0.000493
0.000507
0.000415
0.000291
0.000213
0.000245
0.000261
0.000300
0.000255
0.000231
0.000243
0.000248
0.000288
0.000287
0.000383
0.001346
0.000233
0.000245
0.000278
0.001936
0.000344
0.000392
0.000330
0.000164
0.000056
0.000256
0.000245
0.000236
0.001577
0.000409
0.000216
0.000241
0.000257
0.000258
0.000275
0.000379
0.000371
0.000368
0.000292
0.000283
0.000495
0.000421
0.001233
0.000235
0.000235
0.000251
0.000263
0.000268
0.000400
0.000598
0.000475
0.000274
0.000260
0.000262
0.000284
0.000194
0.000056
0.000192
0.000234
0.000240
0.001585
0.000214
0.000229
0.000239
0.000254
0.000240
0.000253
0.000256
0.000266
0.000272
0.000274
0.000269
0.000398
0.000444
0.000288
0.001397
0.000230
0.000263
0.000275
0.000241
0.000270
0.000424
0.000433
0.000441
0.000281
0.000277
0.000233
0.000437
0.000056
0.000202
0.000237
0.000274
0.001542
0.000287
0.000220
0.000287
0.000224
0.000252
0.000256
0.000254
0.000276
0.000233
0.000258
0.000408
0.000723
0.001170
0.000751
0.000253
0.000333
0.000244
0.000246
0.000244
0.000278
0.001676
0.000809
0.000228
0.000263
0.000280
0.000284
0.000191
0.000056
0.000200
0.000229
0.000257
0.000242
0.000277
0.000256
0.000210
0.000249
0.000243
0.000234
0.000293
0.000292
0.000241
0.000250
0.000262
0.000246
0.000275
0.001600
0.000723
0.000394
0.000266
0.000240
0.000247
0.000308
0.000250
0.000248
0.000274
0.000252
0.001388
0.000449
0.000245
0.000056
0.000196
0.000231
0.000268
0.000236
0.000259
0.000229
0.000279
0.000225
0.000253
0.000265
0.000286
0.000430
0.000413
0.000342
0.000208
0.000251
0.000256
0.001400
0.000689
0.000454
0.000368
0.000257
0.000231
0.000248
0.000271
0.000262
0.000248
0.000263
0.001481
0.000517
0.000134
0.000056
0.000183
0.000234
0.000247
0.000247
0.000251
0.000247
0.000236
0.000249
0.000273
0.000273
0.000340
0.000369
0.000360
0.000217
0.000239
0.000243
0.000262
0.000264
0.001572
0.000636
0.000455
0.000318
0.000229
0.000250
0.000271
0.000254
0.000274
0.000274
0.000267
0.001353
0.000343
0.000056
0.000206
0.000222
0.000238
0.000256
0.000254
0.000246
0.000249
0.000306
0.000358
0.000441
0.000387
0.000367
0.000360
0.000241
0.000230
0.000252
0.000296
0.000243
0.000268
0.001885
0.000358
0.000226
0.000463
0.000236
0.000250
0.000267
0.000265
0.000276
0.000249
0.000276
0.000419
0.000055
0.000184
0.000291
0.000233
0.000240
0.000262
0.000241
0.000225
0.000245
0.000293
0.000243
0.000230
0.000233
0.000339
0.000446
0.000407
0.000449
0.000222
0.000282
0.000232
0.000254
0.000253
0.000284
0.001469
0.001052
0.000229
0.000256
0.000265
0.000268
0.000271
0.000250
0.000203
0.000055
0.000218
0.001342
0.000297
0.000205
0.000234
0.000253
0.000254
0.000232
0.000244
0.000264
0.000246
0.000264
0.000242
0.000355
0.000390
0.000456
0.000280
0.000253
0.000256
0.000272
0.000278
0.000221
0.000258
0.000266
0.001306
0.000692
0.000316
0.000375
0.000378
0.000401
0.000300
0.000056
0.000210
0.000243
0.000416
0.001259
0.000216
0.000254
0.000225
0.000261
0.000255
0.000254
0.000249
0.000247
0.000270
0.000605
0.000348
0.000270
0.000220
0.000278
0.000327
0.000236
0.000228
0.000277
0.000231
0.000271
0.001492
0.000304
0.000750
0.000319
0.000257
0.000270
0.000200
0.000056
0.000200
0.000303
0.000415
0.000316
0.001311
0.000249
0.000220
0.000245
0.000229
0.000251
0.000249
0.000257
0.000233
0.000232
0.000253
0.000256
0.000269
0.000236
0.000261
0.000250
0.000267
0.000297
0.000386
0.000253
0.000187
0.000264
0.000271
0.001470
0.000267
0.000225
0.000177
0.000056
0.000208
0.000234
0.000255
0.000256
0.000349
0.000373
0.000398
0.000281
0.001581
0.000231
0.000318
0.000448
0.000364
0.000242
0.000443
0.000218
0.000241
0.000262
0.000270
0.000270
0.000280
0.000269
0.000253
0.000270
0.000259
0.000420
0.000401
0.000319
0.001579
0.000223
0.000194
0.000057
0.000232
0.000235
0.000249
0.000246
0.000242
0.000248
0.000257
0.000316
0.000415
0.002029
0.000233
0.000239
0.000256
0.000261
0.000260
0.000252
0.000266
0.000258
0.000330
0.000382
0.000422
0.000382
0.001450
0.000252
0.000228
0.002018
0.000286
0.000240
0.000257
0.001527
0.000157
0.000056
0.000306
0.000446
0.000486
0.000226
0.000278
0.000229
0.000244
0.000294
0.000235
0.000227
0.000253
0.000349
0.000419
0.000373
0.000402
0.000222
0.000233
0.001577
0.000226
0.000594
0.001865
0.000304
0.000223
0.001564
0.002019
0.000722
0.000279
0.000257
0.000272
0.000518
0.000324
0.000056
0.000225
0.000234
0.000281
0.000222
0.001420
0.001734
0.001069
0.000207
0.000234
0.001589
0.001977
0.000222
0.000230
0.000426
0.000323
0.000343
0.000389
0.000499
0.000206
0.000246
0.000274
0.000230
0.000279
0.001583
0.001204
0.001423
0.000296
0.000277
0.000261
0.000372
0.000307
0.000055
0.000230
0.000225
0.000252
0.000219
0.000228
0.000269
0.000228
0.000258
0.000259
0.000239
0.000242
0.000302
0.000469
0.000453
0.000280
0.000246
0.000273
0.000254
0.000265
0.000281
0.000239
0.000265
0.001508
0.000478
0.002121
0.000226
0.000261
0.000332
0.000455
0.000408
0.000162
0.000057
0.000245
0.000286
0.000499
0.000310
0.000210
0.000219
0.000250
0.000242
0.000242
0.000242
0.000246
0.000268
0.000259
0.001610
0.001400
0.001186
0.000277
0.000222
0.000252
0.000268
0.000293
0.000273
0.000238
0.000261
0.002198
0.000246
0.000259
0.000298
0.000323
0.000312
0.000217
0.000056
0.000222
0.000367
0.000551
0.000340
0.000212
0.000229
0.000245
0.000275
0.001965
0.001354
0.000223
0.000316
0.000387
0.000411
0.000263
0.000245
0.000247
0.000262
0.000284
0.000244
0.000252
0.000267
0.000478
0.000239
0.000267
0.000262
0.000252
0.000276
0.000280
0.000250
0.000204
0.000056
0.000206
0.000264
0.000220
0.000243
0.000283
0.000256
0.001535
0.001449
0.001285
0.000249
0.000226
0.000242
0.000263
0.000264
0.000241
0.000274
0.000230
0.002097
0.000257
0.000239
0.000262
0.000269
0.000248
0.000271
0.000264
0.000256
0.000274
0.000266
0.000266
0.000253
0.000180
0.000056
0.000210
0.002676
0.001399
0.000221
0.000304
0.000326
0.000214
0.000281
0.000229
0.000239
0.000252
0.000245
0.000234
0.000256
0.000267
0.000261
0.000263
0.000277
0.000257
0.000253
0.000268
0.000286
0.000275
0.000260
0.000249
0.000249
0.000263
0.000276
0.000255
0.000267
0.000369
0.000055
0.001547
0.000256
0.001235
0.000234
0.000215
0.000240
0.000278
0.000259
0.000227
0.000276
0.000421
0.000318
0.000345
0.000210
0.000254
0.002146
0.000245
0.000240
0.000260
0.000533
0.000409
0.000247
0.000236
0.000252
0.000263
0.000248
0.000263
0.000280
0.000264
0.001618
0.001262
0.000056
0.000203
0.000245
0.000312
0.000403
0.000319
0.000277
0.000216
0.000236
0.000249
0.000258
0.000266
0.000246
0.000226
0.000255
0.000263
0.000242
0.000352
0.000573
0.000376
0.000237
0.000235
0.000275
0.000293
0.000235
0.000251
0.000245
0.000266
0.000282
0.000235
0.000314
0.000379
0.000060
0.001117
0.000365
0.000267
0.000387
0.000304
0.000225
0.000228
0.000242
0.000254
0.002312
0.000345
0.000394
0.000223
0.000372
0.000310
0.000253
0.000254
0.000243
0.000268
0.000225
0.000252
0.000351
0.000628
0.000339
0.001883
0.001262
0.000625
0.000493
0.000237
0.000271
0.000196
0.000056
0.000208
0.000370
0.000252
0.000246
0.000247
0.000230
0.000252
0.000251
0.000271
0.000234
0.000253
0.000227
0.000248
0.000279
0.000418
0.000430
0.001859
0.001377
0.000443
0.000508
0.000356
0.000234
0.000239
0.000254
0.002125
0.000555
0.000389
0.000236
0.000275
0.000284
0.000197
0.000056
0.000212
0.000242
0.000257
0.000251
0.000240
0.000355
0.000406
0.000372
0.000253
0.000227
0.000234
0.000253
0.000264
0.002129
0.000372
0.000361
0.000209
0.000264
0.000277
0.000243
0.000248
0.002497
0.000297
0.000233
0.000246
0.000260
0.000253
0.000270
0.000310
0.000264
0.000182
0.000056
0.000204
0.000423
0.000492
0.000347
0.000262
0.000221
0.000231
0.000252
0.000263
0.000247
0.001952
0.000400
0.000266
0.000273
0.000249
0.000260
0.000274
0.000242
0.002487
0.000197
0.000195
0.000264
0.000269
0.000261
0.000251
0.000253
0.000303
0.000236
0.000265
0.000257
0.000190
0.000057
0.000217
0.000239
0.000252
0.000213
0.000251
0.000259
0.000239
0.000241
0.000233
0.002192
0.000223
0.000280
0.000216
0.000429
0.000220
0.000259
0.000298
0.000274
0.000242
0.000253
0.002006
0.000240
0.000336
0.000362
0.000446
0.000417
0.000283
0.000255
0.000249
0.000256
0.000207
0.000057
0.000190
0.000256
0.000223
0.000248
0.000253
0.000327
0.000220
0.002307
0.000231
0.000242
0.000258
0.000257
0.000237
0.000277
0.000278
0.002148
0.000570
0.000225
0.000251
0.000243
0.000258
0.000257
0.000294
0.000265
0.000261
0.000255
0.000284
0.000261
0.000260
0.000265
0.000197
0.000056
0.001834
0.001437
0.000203
0.000226
0.000242
0.000253
0.000254
0.000288
0.000406
0.000336
0.002170
0.000262
0.000222
0.000277
0.000276
0.000553
0.000351
0.000303
0.000221
0.000247
0.000256
0.000266
0.000264
0.000222
0.000261
0.000265
0.000271
0.000267
0.000636
0.000338
0.000320
0.000059
0.000194
0.000256
0.000242
0.000257
0.000263
0.000261
0.000239
0.000241
0.001462
0.002141
0.000577
0.000274
0.000459
0.000649
0.000359
0.000226
0.000249
0.000254
0.000258
0.000261
0.000259
0.000241
0.000247
0.000278
0.003004
0.000337
0.000239
0.000262
0.000285
0.000392
0.000378
0.000057
0.001954
0.000210
0.000234
0.000239
0.000294
0.000400
0.000408
0.000300
0.000306
0.000201
0.000238
0.000250
0.000260
0.000260
0.000261
0.000254
0.000254
0.000291
0.001823
0.000234
0.000237
0.000258
0.000273
0.000275
0.000273
0.000251
0.001475
0.000335
0.000265
0.000236
0.000173
0.000057
0.000203
0.000237
0.000244
0.000230
0.000251
0.000247
0.000254
0.000408
0.000323
0.000392
0.000234
0.000254
0.000243
0.000322
0.000422
0.000321
0.000224
0.000253
0.000265
0.000385
0.000462
0.000411
0.000261
0.000260
0.000256
0.000249
0.000259
0.000271
0.000275
0.000264
0.000205
0.000057
0.001410
0.000443
0.000238
0.001924
0.000266
0.000440
0.000429
0.000316
0.000229
0.000246
0.000262
0.000244
0.000247
0.000245
0.000271
0.000255
0.000446
0.000282
0.000410
0.000367
0.000358
0.000238
0.000254
0.000268
0.000276
0.000269
0.000256
0.000270
0.000390
0.000492
0.001310
0.000057
0.000209
0.000228
0.002067
0.000334
0.000311
0.000231
0.000255
0.000247
0.000263
0.000272
0.000208
0.000247
0.000255
0.000262
0.000303
0.000310
0.000714
0.001768
0.000226
0.000258
0.000241
0.000272
0.000386
0.000416
0.001581
0.000294
0.000366
0.001918
0.000272
0.000248
0.000198
0.000055
0.000194
0.000230
0.000234
0.000261
0.000211
0.000249
0.000255
0.000285
0.000330
0.000270
0.000383
0.000349
0.000344
0.000289
0.000247
0.000267
0.000263
0.000245
0.000264
0.000251
0.000314
0.000283
0.000259
0.000257
0.000268
0.001556
0.000299
0.000330
0.002065
0.000239
0.000179
0.000056
0.000197
0.000244
0.000240
0.000249
0.000490
0.000205
0.000249
0.000345
0.000351
0.000332
0.000292
0.000210
0.000265
0.000260
0.000272
0.000323
0.000429
0.000426
0.000254
0.000406
0.000530
0.000465
0.001565
0.000221
0.000259
0.001999
0.000300
0.000262
0.000232
0.000296
0.000193
0.000056
0.000215
0.000244
0.000225
0.000245
0.000249
0.000274
0.000253
0.000268
0.000250
0.000254
0.001820
0.000312
0.000386
0.000286
0.000454
0.000379
0.000338
0.001531
0.000212
0.000284
0.002149
0.000533
0.000257
0.000232
0.000271
0.000265
0.000508
0.000216
0.000261
0.000276
0.000196
0.000057
0.000262
0.000478
0.000238
0.000296
0.000202
0.000241
0.000261
0.000252
0.000261
0.000287
0.000232
0.000253
0.000260
0.000280
0.000371
0.000475
0.001261
0.000270
0.000274
0.001992
0.000286
0.000300
0.000228
0.000263
0.000248
0.000274
0.000286
0.000247
0.000248
0.000270
0.000202
0.000056
0.000240
0.000477
0.001970
0.000247
0.000221
0.000260
0.000245
0.000310
0.000444
0.000422
0.001294
0.000373
0.000361
0.002077
0.000219
0.000240
0.000261
0.000280
0.000253
0.000246
0.000284
0.000293
0.000258
0.000332
0.000516
0.000358
0.000297
0.002248
0.000539
0.000405
0.000418
0.000056
0.000194
0.000228
0.000249
0.001964
0.000234
0.000227
0.000244
0.000235
0.000247
0.000258
0.000238
0.000264
0.000264
0.000356
0.000347
0.001475
0.000252
0.000240
0.000267
0.000263
0.000234
0.000269
0.000241
0.000298
0.000320
0.000537
0.000376
0.000230
0.001593
0.000273
0.000168
0.000057
0.000208
0.000223
0.000247
0.000230
0.000262
0.000270
0.000228
0.000250
0.000248
0.000514
0.000219
0.001424
0.000224
0.000236
0.000245
0.000293
0.000226
0.000258
0.000312
0.000472
0.000482
0.000365
0.000227
0.001568
0.000228
0.000286
0.000270
0.000279
0.000263
0.000271
0.000194
0.000056
0.000195
0.000244
0.000287
0.000248
0.000250
0.000241
0.000236
0.000243
0.000295
0.000208
0.000248
0.000256
0.000269
0.001478
0.000357
0.000213
0.000244
0.000262
0.000276
0.000324
0.000359
0.000280
0.000245
0.000257
0.000266
0.000268
0.000260
0.001409
0.000281
0.000239
0.000168
0.000056
0.000198
0.000229
0.000263
0.000259
0.000269
0.000221
0.000246
0.000264
0.000221
0.000259
0.000244
0.000261
0.000229
0.000325
0.000426
0.000284
0.000266
0.000233
0.001641
0.000240
0.000236
0.000265
0.000265
0.000324
0.000367
0.000347
0.000456
0.000286
0.000235
0.001608
0.000167
0.000073
0.000310
0.000349
0.000404
0.000242
0.000245
0.000219
0.000242
0.000275
0.000252
0.000260
0.000220
0.000241
0.001494
0.000285
0.000275
0.000238
0.000244
0.000277
0.000250
0.000268
0.000254
0.000236
0.000257
0.000269
0.000264
0.000422
0.000449
0.000317
0.000260
0.000249
0.000195
0.000055
0.000206
0.000257
0.000531
0.000254
0.000364
0.000269
0.000253
0.000248
0.000250
0.000257
0.000243
0.000224
0.000258
0.000246
0.001298
0.000269
0.000220
0.000258
0.000265
0.000268
0.000239
0.000264
0.000256
0.000261
0.000248
0.000262
0.000345
0.000648
0.000460
0.000231
0.000182
0.000056
0.000201
0.001558
0.000248
0.000361
0.000496
0.000316
0.000215
0.000255
0.000267
0.000264
0.000231
0.000261
0.000266
0.000271
0.000264
0.001534
0.000249
0.000275
0.000266
0.000259
0.000269
0.000242
0.000268
0.000256
0.000261
0.000274
0.000446
0.000359
0.000362
0.000222
0.000192
0.000057
0.000224
0.000248
0.000244
0.001600
0.000462
0.000318
0.000218
0.000241
0.000257
0.000269
0.000277
0.000252
0.000257
0.000265
0.000225
0.000263
0.000386
0.001354
0.000236
0.000238
0.001492
0.000372
0.000581
0.000319
0.000346
0.000233
0.000270
0.000471
0.000232
0.000265
0.000183
0.000056
0.000287
0.000231
0.000238
0.000244
0.000248
0.000277
0.000218
0.000259
0.000255
0.000249
0.000244
0.000255
0.000330
0.000522
0.001629
0.001491
0.000375
0.000472
0.000379
0.000239
0.000216
0.000256
0.000250
0.000273
0.000247
0.000267
0.000258
0.000272
0.001517
0.000341
0.000173
0.000057
0.000186
0.000343
0.000351
0.000335
0.000247
0.000219
0.000241
0.000370
0.000427
0.000363
0.002167
0.000312
0.000768
0.000477
0.000436
0.000264
0.000326
0.000387
0.000330
0.000282
0.000386
0.000271
0.001529
0.000549
0.000203
0.000261
0.000258
0.000251
0.000268
0.000278
0.000189
0.000057
0.000212
0.000251
0.000250
0.000251
0.000246
0.001660
0.000873
0.000998
0.000211
0.000238
0.000268
0.000243
0.000259
0.000260
0.000255
0.000243
0.000264
0.000260
0.000265
0.000282
0.001423
0.000321
0.000250
0.000231
0.000233
0.000273
0.000249
0.000285
0.000260
0.000290
0.001891
0.000057
0.000200
0.000228
0.001546
0.000905
0.000345
0.000411
0.000198
0.000202
0.000238
0.000256
0.000252
0.000247
0.000245
0.002030
0.000422
0.000221
0.000249
0.000252
0.000272
0.000258
0.000192
