0.000101
0.018730
0.002495
0.000319
0.000246
0.000302
0.000321
0.000246
0.000316
0.000281
0.000273
0.000317
0.000530
0.000448
0.000349
0.000412
0.000279
0.000328
0.000355
0.000421
0.000320
0.001928
0.000676
0.000279
0.000239
0.000310
0.000312
0.000308
0.000428
0.000367
0.000530
0.000279
0.000056
0.000234
0.000247
0.000270
0.000294
0.000243
0.000258
0.000278
0.000285
0.000269
0.000284
0.000426
0.000436
0.000292
0.000254
0.000374
0.000349
0.000367
0.000245
0.000251
0.001699
0.000317
0.000260
0.000445
0.000267
0.000264
0.000274
0.000292
0.000292
0.000296
0.000308
0.000389
0.000057
0.000200
0.000248
0.000259
0.000264
0.000249
0.000245
0.000270
0.000253
0.000287
0.001664
0.000243
0.000227
0.000261
0.000273
0.000284
0.000245
0.000262
0.000259
0.000350
0.001798
0.000248
0.000271
0.000442
0.000435
0.000389
0.000243
0.000288
0.000413
0.000555
0.000733
0.000206
0.000056
0.000230
0.000250
0.000252
0.000237
0.000295
0.000275
0.000321
0.000534
0.000375
0.000268
0.000237
0.000252
0.000240
0.000250
0.000258
0.000256
0.000245
0.000270
0.000299
0.000334
0.001661
0.000281
0.000247
0.000411
0.000457
0.000570
0.000775
0.000390
0.000357
0.000227
0.000196
0.000056
0.000213
0.000251
0.000292
0.000211
0.000286
0.000230
0.000267
0.000389
0.001536
0.000223
0.000250
0.000246
0.000254
0.000256
0.000260
0.000302
0.000325
0.000799
0.001330
0.000298
0.000238
0.000405
0.000258
0.000244
0.000255
0.000262
0.000264
0.000289
0.000245
0.000267
0.000192
0.000055
0.000212
0.000250
0.000244
0.000268
0.000231
0.000249
0.000240
0.000255
0.000234
0.000259
0.001620
0.000269
0.000240
0.000240
0.000255
0.000244
0.000259
0.000237
0.000256
0.000253
0.000296
0.001646
0.000282
0.000258
0.000461
0.000237
0.000233
0.000264
0.000262
0.000270
0.000198
0.000055
0.000184
0.000232
0.000252
0.000242
0.000246
0.000250
0.000259
0.000237
0.000264
0.000261
0.000241
0.000266
0.000253
0.000274
0.001626
0.000274
0.000313
0.000221
0.000243
0.000273
0.000273
0.000227
0.000245
0.000265
0.001793
0.000401
0.000459
0.000246
0.000231
0.000283
0.000194
0.000055
0.000203
0.000242
0.000247
0.000272
0.000251
0.000265
0.000284
0.000388
0.000476
0.000358
0.000216
0.000242
0.000259
0.000246
0.001566
0.000513
0.000339
0.000401
0.000335
0.000216
0.000267
0.000285
0.000275
0.001762
0.000473
0.000502
0.000242
0.000222
0.000253
0.000258
0.000187
0.000056
0.000221
0.000227
0.000255
0.000266
0.000316
0.000448
0.000383
0.000280
0.000221
0.000246
0.000259
0.000241
0.000259
0.001693
0.000491
0.000307
0.000219
0.000250
0.000277
0.000290
0.000236
0.000259
0.000278
0.001889
0.000302
0.000395
0.000251
0.000251
0.000265
0.000403
0.000322
0.000057
0.000216
0.000389
0.000366
0.000262
0.000253
0.000250
0.000245
0.000263
0.000241
0.000235
0.000235
0.000251
0.001551
0.000335
0.000331
0.000227
0.000253
0.000249
0.000248
0.000306
0.000362
0.000232
0.000231
0.001816
0.000237
0.000510
0.000238
0.000267
0.000252
0.000266
0.000265
0.000057
0.000245
0.000629
0.000605
0.000216
0.000229
0.000277
0.000227
0.000226
0.000260
0.000253
0.000252
0.001702
0.000246
0.000445
0.000371
0.000212
0.000246
0.000226
0.000250
0.000259
0.000257
0.001856
0.000229
0.000465
0.001870
0.000524
0.000352
0.000247
0.000253
0.000270
0.000181
0.000057
0.000215
0.000241
0.000245
0.000239
0.000259
0.001620
0.000250
0.000238
0.000251
0.000254
0.000247
0.000280
0.000210
0.000255
0.000313
0.000394
0.000611
0.000253
0.000235
0.000267
0.000290
0.000222
0.000250
0.000435
0.000427
0.000287
0.000332
0.000652
0.000328
0.000276
0.000211
0.000056
0.000198
0.000238
0.000251
0.000252
0.000240
0.000238
0.000240
0.000432
0.000409
0.001725
0.000202
0.000234
0.000244
0.000248
0.000261
0.000456
0.000298
0.000426
0.000345
0.000241
0.000267
0.000304
0.000278
0.000248
0.000272
0.000441
0.000342
0.000583
0.000437
0.000497
0.000174
0.000057
0.000196
0.000249
0.000245
0.000239
0.000234
0.000240
0.000248
0.000260
0.000220
0.000295
0.000343
0.000432
0.001401
0.000233
0.000250
0.000237
0.000257
0.000249
0.000250
0.000257
0.000299
0.000460
0.000375
0.000271
0.000266
0.000252
0.000259
0.000270
0.000266
0.000265
0.000383
0.000056
0.000196
0.000240
0.000222
0.000288
0.000523
0.000441
0.000215
0.000267
0.000232
0.000263
0.000255
0.000229
0.000319
0.000228
0.000237
0.000493
0.000418
0.001632
0.000279
0.000234
0.000268
0.000255
0.000253
0.000239
0.000271
0.000420
0.000484
0.000372
0.000392
0.000250
0.000190
0.000056
0.000223
0.000433
0.000233
0.000218
0.000287
0.000220
0.000306
0.000556
0.000311
0.000335
0.000231
0.000278
0.000259
0.000239
0.000521
0.000335
0.000228
0.000300
0.000414
0.001577
0.000265
0.000244
0.000526
0.000249
0.000282
0.000271
0.000250
0.000468
0.000432
0.000380
0.000263
0.000054
0.000226
0.000225
0.000237
0.000248
0.000413
0.000309
0.000285
0.000229
0.000443
0.000475
0.000339
0.000258
0.000224
0.000242
0.000258
0.000264
0.000255
0.000252
0.000233
0.000353
0.000283
0.000413
0.001787
0.000221
0.000263
0.000256
0.000278
0.000349
0.000483
0.000616
0.000451
0.000057
0.000232
0.000333
0.000312
0.000456
0.000338
0.000204
0.000259
0.000315
0.000468
0.000453
0.000249
0.000234
0.000260
0.000247
0.000264
0.000232
0.000252
0.000281
0.000265
0.000265
0.000253
0.000476
0.000604
0.001328
0.000326
0.000432
0.000425
0.000234
0.000497
0.000355
0.000320
0.000056
0.000238
0.000378
0.000283
0.000211
0.000221
0.000249
0.000410
0.000241
0.000234
0.000545
0.000257
0.000369
0.000312
0.000252
0.000265
0.000244
0.000353
0.000404
0.000336
0.000255
0.000242
0.000502
0.000502
0.001691
0.000234
0.000426
0.000319
0.000223
0.000279
0.000441
0.000327
0.000056
0.000194
0.000222
0.000253
0.000251
0.000244
0.000238
0.000248
0.000362
0.000420
0.000303
0.000412
0.000361
0.000303
0.000584
0.000245
0.000239
0.000275
0.000260
0.000230
0.000347
0.000235
0.000242
0.000274
0.000529
0.000338
0.001676
0.000267
0.000245
0.000252
0.000271
0.000186
0.000056
0.000295
0.000491
0.000343
0.000222
0.000236
0.000240
0.000256
0.000241
0.000271
0.000238
0.000224
0.000263
0.000424
0.000484
0.000450
0.000266
0.000220
0.000258
0.000338
0.000388
0.000382
0.000334
0.000363
0.000393
0.000251
0.000254
0.000264
0.000271
0.001789
0.000240
0.000214
0.000056
0.000210
0.000219
0.000256
0.000294
0.000333
0.000541
0.000323
0.000211
0.000291
0.000231
0.000252
0.000248
0.000517
0.000453
0.000482
0.000274
0.000272
0.000257
0.000430
0.000459
0.000350
0.000408
0.000469
0.000474
0.000242
0.000243
0.000260
0.000248
0.000264
0.001714
0.000327
0.000057
0.000251
0.000327
0.000229
0.000220
0.000251
0.000254
0.000237
0.000495
0.000380
0.000305
0.000287
0.000266
0.000367
0.000778
0.000208
0.000226
0.000255
0.000258
0.000251
0.000264
0.000279
0.000263
0.000241
0.000267
0.000322
0.000375
0.000385
0.000350
0.000238
0.000248
0.000196
0.000057
0.000461
0.000288
0.000459
0.000253
0.000206
0.000254
0.000242
0.000256
0.000242
0.000217
0.000255
0.000276
0.000305
0.000317
0.000488
0.000544
0.000322
0.000310
0.000378
0.000345
0.000300
0.000243
0.000234
0.000266
0.001747
0.000264
0.001714
0.000927
0.000396
0.000341
0.000168
0.000056
0.000194
0.000244
0.000235
0.000243
0.000272
0.000233
0.000255
0.000251
0.000239
0.000274
0.000489
0.000344
0.000336
0.000394
0.000267
0.000221
0.000260
0.000285
0.000232
0.000272
0.000234
0.000260
0.001809
0.000249
0.000247
0.000265
0.000276
0.001714
0.000546
0.000410
0.000226
0.000057
0.000197
0.000210
0.000237
0.000239
0.000266
0.000254
0.000221
0.000258
0.000265
0.000458
0.000520
0.000275
0.000370
0.000224
0.000246
0.000256
0.000329
0.000434
0.000367
0.000252
0.001779
0.000257
0.000249
0.000246
0.000264
0.000269
0.000241
0.000258
0.000324
0.000307
0.000362
0.000055
0.000258
0.000235
0.000221
0.000272
0.000239
0.000240
0.000257
0.000254
0.000243
0.000271
0.000222
0.000263
0.000479
0.000336
0.000331
0.000251
0.000466
0.000245
0.000244
0.000254
0.000260
0.000261
0.000276
0.000252
0.000280
0.001781
0.000252
0.000251
0.000263
0.000237
0.000211
0.000056
0.000251
0.000376
0.000240
0.000226
0.000243
0.000221
0.000236
0.000262
0.000243
0.000220
0.000252
0.000248
0.000263
0.000363
0.000393
0.000330
0.000342
0.000220
0.000259
0.000249
0.000260
0.000265
0.000246
0.000261
0.000282
0.000241
0.000389
0.001543
0.000271
0.000243
0.000189
0.000057
0.000212
0.000237
0.000243
0.000263
0.000373
0.000343
0.000425
0.000284
0.000221
0.000249
0.000273
0.000224
0.000250
0.000258
0.000261
0.000258
0.000242
0.000254
0.000259
0.000255
0.000273
0.000267
0.000247
0.000239
0.000241
0.000274
0.000277
0.000262
0.000257
0.000263
0.000193
0.000056
0.000246
0.000207
0.000257
0.000278
0.000230
0.000234
0.000236
0.000265
0.000276
0.000252
0.000224
0.000250
0.000255
0.000250
0.000292
0.000238
0.000273
0.000229
0.000302
0.000249
0.000275
0.000316
0.000275
0.000218
0.000308
0.000240
0.000270
0.000256
0.000256
0.000407
0.000744
0.000057
0.000218
0.000295
0.000227
0.000220
0.000242
0.000253
0.000242
0.000244
0.000250
0.000243
0.000274
0.000308
0.000528
0.000386
0.001567
0.000226
0.000504
0.000222
0.000260
0.000447
0.000490
0.000338
0.000225
0.000284
0.000246
0.000259
0.000279
0.000257
0.000309
0.000272
0.000171
0.000056
0.000379
0.000501
0.000218
0.000323
0.000230
0.000268
0.000223
0.000242
0.000234
0.000248
0.000254
0.000251
0.000239
0.000258
0.000382
0.000486
0.000397
0.001780
0.000235
0.000260
0.000446
0.000311
0.000432
0.000307
0.000326
0.000320
0.000295
0.000243
0.000227
0.000248
0.000204
0.000055
0.000224
0.000231
0.000232
0.000305
0.000358
0.000426
0.000367
0.000236
0.000252
0.000216
0.000248
0.000268
0.000266
0.000263
0.000245
0.000264
0.000311
0.000570
0.000249
0.000442
0.000231
0.001745
0.000321
0.000489
0.000507
0.000471
0.000331
0.000226
0.000257
0.000269
0.000447
0.000055
0.000196
0.000272
0.000219
0.000385
0.000291
0.000515
0.000343
0.000246
0.000221
0.000290
0.000249
0.000258
0.000252
0.000295
0.000303
0.000239
0.000247
0.000415
0.000377
0.000405
0.000483
0.001840
0.000254
0.000446
0.000496
0.000362
0.000224
0.000258
0.000297
0.000254
0.000207
0.000054
0.000215
0.000331
0.000362
0.000351
0.000379
0.000279
0.000381
0.000216
0.000239
0.000256
0.000277
0.000226
0.000249
0.000251
0.000251
0.000261
0.000319
0.000386
0.000496
0.000411
0.000264
0.000229
0.000253
0.001701
0.000518
0.000417
0.000696
0.000239
0.000258
0.000301
0.000167
0.000055
0.000191
0.000237
0.000353
0.000228
0.000296
0.000343
0.000380
0.000341
0.000264
0.000508
0.000223
0.000257
0.000256
0.000272
0.000276
0.000263
0.000228
0.000443
0.000370
0.000434
0.000266
0.000229
0.000271
0.000239
0.000261
0.000261
0.000244
0.000255
0.000269
0.000319
0.000163
0.000056
0.000307
0.000324
0.000220
0.000261
0.000247
0.000261
0.000238
0.000296
0.000229
0.000250
0.000275
0.000335
0.000418
0.000393
0.000370
0.000258
0.000229
0.000234
0.000255
0.000268
0.000283
0.000283
0.000219
0.000257
0.000283
0.000412
0.000285
0.000403
0.000357
0.000227
0.000182
0.000056
0.000211
0.000225
0.000280
0.000242
0.000238
0.000273
0.000262
0.000231
0.000490
0.000215
0.000256
0.000267
0.000235
0.000264
0.000269
0.000295
0.000242
0.000355
0.000218
0.000239
0.000257
0.000265
0.000260
0.000271
0.000275
0.000281
0.000248
0.000245
0.000262
0.000495
0.000168
0.000055
0.000207
0.000241
0.000261
0.000282
0.000215
0.000229
0.000368
0.000402
0.000235
0.000238
0.000254
0.000252
0.000238
0.000248
0.000495
0.001790
0.000191
0.000258
0.000291
0.000330
0.000403
0.000367
0.000386
0.000361
0.000437
0.000368
0.000263
0.000252
0.000266
0.000278
0.001391
0.000056
0.000357
0.000354
0.000214
0.000217
0.000239
0.000246
0.000237
0.000258
0.000240
0.000273
0.000245
0.000259
0.000270
0.000441
0.000321
0.001717
0.000220
0.000217
0.000241
0.000270
0.000230
0.000309
0.000357
0.000380
0.000272
0.000352
0.000224
0.000265
0.000271
0.000271
0.000183
0.000056
0.001208
0.000595
0.000282
0.000251
0.000238
0.000233
0.000223
0.000247
0.000483
0.000233
0.000227
0.000253
0.000379
0.000425
0.000440
0.000353
0.000260
0.000238
0.000327
0.000351
0.000278
0.000253
0.000273
0.000245
0.000264
0.000722
0.000450
0.000219
0.000266
0.000259
0.000176
0.000055
0.000226
0.000216
0.000238
0.000249
0.001446
0.000319
0.000225
0.000255
0.000259
0.000228
0.000255
0.000254
0.000244
0.000261
0.000262
0.000379
0.000369
0.000626
0.000268
0.001753
0.000248
0.000286
0.000292
0.000516
0.000529
0.000352
0.000242
0.000238
0.000267
0.000266
0.000198
0.000056
0.000215
0.000253
0.000235
0.000445
0.001134
0.000238
0.000276
0.000230
0.000242
0.000233
0.000241
0.000255
0.000278
0.000264
0.000228
0.000299
0.000502
0.000371
0.000355
0.000245
0.000260
0.000271
0.000246
0.000238
0.000284
0.000267
0.000243
0.000276
0.000287
0.000365
0.000534
0.000056
0.000221
0.000248
0.000239
0.000257
0.000265
0.000241
0.000238
0.000262
0.000287
0.000260
0.001414
0.000219
0.000246
0.000245
0.000250
0.000245
0.000289
0.000243
0.000288
0.000236
0.000296
0.000500
0.000412
0.000425
0.000213
0.000263
0.001762
0.000266
0.000243
0.000325
0.000448
0.000056
0.000182
0.000399
0.000450
0.000504
0.000518
0.000577
0.001455
0.000422
0.000514
0.000653
0.000552
0.000685
0.000515
0.000623
0.000581
0.001899
0.000350
0.000475
0.000392
0.000322
0.000226
0.000275
0.000287
0.000270
0.000264
0.000280
0.000294
0.000283
0.000261
0.000282
0.001366
0.000055
0.000203
0.000232
0.000246
0.000235
0.000258
0.000256
0.000238
0.000237
0.000245
0.000260
0.000241
0.000243
0.000251
0.000285
0.000241
0.000268
0.001804
0.000287
0.000244
0.000242
0.000259
0.000268
0.000272
0.000275
0.000389
0.000417
0.000355
0.000260
0.000243
0.000288
0.000206
0.000056
0.000191
0.001364
0.000326
0.000283
0.000243
0.000240
0.000245
0.000229
0.000235
0.000238
0.000228
0.000235
0.000266
0.000498
0.000361
0.000307
0.000249
0.001814
0.000368
0.000223
0.000243
0.000260
0.000265
0.000264
0.000276
0.000272
0.000276
0.000249
0.000269
0.000344
0.000180
0.000056
0.000220
0.000244
0.000248
0.001442
0.000213
0.000252
0.000256
0.000242
0.000236
0.000269
0.000248
0.000250
0.000246
0.000282
0.000237
0.000247
0.000264
0.000267
0.000291
0.000237
0.000254
0.001777
0.000277
0.001752
0.000265
0.000246
0.000264
0.000274
0.000266
0.000275
0.000205
0.000056
0.000204
0.000234
0.001341
0.000232
0.000256
0.000237
0.000271
0.000254
0.000239
0.000256
0.000256
0.000232
0.000261
0.000266
0.000260
0.000263
0.000278
0.000286
0.000283
0.000225
0.001880
0.000225
0.001835
0.000235
0.000269
0.000275
0.000231
0.000245
0.000252
0.000276
0.000194
0.000056
0.001419
0.000240
0.000234
0.000228
0.000241
0.000234
0.000376
0.000285
0.000241
0.000248
0.000255
0.000256
0.000261
0.000317
0.000441
0.000266
0.000241
0.000273
0.000269
0.000258
0.000256
0.000336
0.000229
0.000256
0.000264
0.000279
0.000273
0.000324
0.000649
0.000370
0.000200
0.000057
0.000202
0.000246
0.000265
0.000304
0.000358
0.000259
0.001714
0.000283
0.000278
0.000275
0.000252
0.000274
0.000271
0.000264
0.000295
0.000317
0.000312
0.000587
0.000391
0.000261
0.000283
0.000292
0.000257
0.000270
0.000313
0.000269
0.000272
0.000251
0.000263
0.000402
0.000321
0.000057
0.000243
0.000463
0.000274
0.000261
0.000249
0.000226
0.000237
0.000238
0.000260
0.001454
0.000329
0.000208
0.000227
0.000252
0.000245
0.000290
0.000279
0.000242
0.000254
0.000263
0.000275
0.000330
0.000567
0.000342
0.000251
0.000290
0.000262
0.000259
0.000233
0.000310
0.000173
0.000056
0.000198
0.000235
0.000296
0.000450
0.000360
0.000293
0.000215
0.000251
0.000249
0.000247
0.000239
0.000255
0.000250
0.000268
0.000243
0.000264
0.000350
0.001239
0.000255
0.000230
0.000281
0.000246
0.000355
0.000419
0.000250
0.000283
0.000655
0.000313
0.000382
0.000238
0.000183
0.000057
0.000240
0.000244
0.000263
0.000260
0.000257
0.000262
0.000436
0.000289
0.000493
0.000245
0.000355
0.000388
0.000397
0.000362
0.000257
0.000229
0.000252
0.000279
0.000394
0.000439
0.001270
0.000223
0.000274
0.000271
0.000236
0.000234
0.000265
0.000303
0.000438
0.000419
0.000261
0.000055
0.000215
0.000255
0.000240
0.000241
0.000237
0.000249
0.000240
0.000263
0.000302
0.000289
0.000425
0.000435
0.000248
0.000236
0.000247
0.000272
0.000234
0.000260
0.000267
0.000274
0.000436
0.000247
0.000348
0.000379
0.000370
0.000254
0.000267
0.000272
0.000255
0.000333
0.000171
0.000056
0.000313
0.000313
0.000288
0.000388
0.000504
0.000314
0.000245
0.000240
0.000243
0.000303
0.000248
0.000244
0.000233
0.000253
0.000245
0.000223
0.000266
0.000544
0.000389
0.000270
0.000250
0.000252
0.000241
0.000251
0.000288
0.000260
0.000268
0.000277
0.000268
0.000265
0.000282
0.000056
0.000304
0.000304
0.000240
0.000267
0.000222
0.000246
0.000265
0.000236
0.000265
0.000252
0.000256
0.000234
0.000367
0.000419
0.000440
0.000297
0.000237
0.000236
0.000256
0.000265
0.000278
0.000240
0.000257
0.000268
0.000272
0.000427
0.000282
0.000606
0.000412
0.000261
0.000170
0.000057
0.000385
0.000222
0.000213
0.000246
0.000248
0.000246
0.000234
0.000253
0.000260
0.000256
0.000225
0.000286
0.000228
0.000229
0.000238
0.000264
0.000254
0.000267
0.000299
0.000235
0.000261
0.000261
0.000264
0.000264
0.000265
0.000236
0.000266
0.000278
0.000259
0.000276
0.000204
0.000056
0.000232
0.000210
0.000245
0.000247
0.000233
0.000258
0.000257
0.000241
0.000262
0.000277
0.000230
0.000227
0.000267
0.000392
0.000257
0.000312
0.000226
0.000269
0.000251
0.000278
0.000274
0.000237
0.000245
0.000247
0.000272
0.000275
0.000250
0.000257
0.000268
0.000262
0.000206
0.000057
0.000209
0.000357
0.000368
0.000279
0.000296
0.000256
0.000271
0.000258
0.000221
0.000247
0.000276
0.000236
0.000245
0.000240
0.000264
0.000281
0.000237
0.000269
0.000243
0.000268
0.000275
0.000259
0.000282
0.000255
0.000291
0.000230
0.000255
0.000274
0.000268
0.000264
0.000193
0.000056
0.000213
0.000232
0.000264
0.000259
0.000254
0.000444
0.000216
0.000270
0.000281
0.000485
0.000448
0.000264
0.000228
0.000249
0.000270
0.000266
0.000237
0.000265
0.000256
0.000276
0.000268
0.000253
0.000260
0.000254
0.000580
0.000529
0.000204
0.000295
0.000259
0.000269
0.000188
0.000056
0.000203
0.000224
0.000247
0.000250
0.000356
0.000715
0.000217
0.000383
0.000205
0.000249
0.000247
0.000259
0.000248
0.000264
0.000237
0.000275
0.000273
0.000246
0.000604
0.000453
0.000259
0.000235
0.000261
0.000283
0.000282
0.000253
0.000265
0.000289
0.000246
0.000311
0.000304
0.000056
0.000288
0.000237
0.000238
0.000237
0.000257
0.000264
0.000212
0.000251
0.000240
0.000262
0.000245
0.000254
0.000243
0.000374
0.000606
0.000383
0.000231
0.000255
0.000260
0.000249
0.000264
0.000293
0.000472
0.000216
0.000267
0.000657
0.000552
0.000289
0.000249
0.000259
0.000188
0.000055
0.000213
0.000238
0.000246
0.000241
0.000257
0.000256
0.000312
0.000521
0.000504
0.000415
0.000216
0.000261
0.000280
0.000271
0.000256
0.000246
0.000242
0.000245
0.000266
0.000405
0.000302
0.000668
0.000363
0.000252
0.000365
0.000381
0.000489
0.000241
0.000260
0.000306
0.000503
0.000056
0.000278
0.000232
0.000435
0.000220
0.000233
0.000252
0.000263
0.000262
0.000231
0.000242
0.000291
0.000401
0.000297
0.000378
0.000251
0.000234
0.000266
0.000246
0.000262
0.000282
0.000289
0.000232
0.000251
0.000270
0.000286
0.000504
0.000497
0.000251
0.000246
0.000266
0.000201
0.000056
0.000203
0.000251
0.000229
0.000248
0.000248
0.000308
0.000306
0.000459
0.000384
0.000280
0.000360
0.000230
0.000250
0.000263
0.000250
0.000247
0.000249
0.000264
0.000304
0.000393
0.000493
0.000312
0.000480
0.000265
0.000384
0.000420
0.000383
0.000248
0.000256
0.000279
0.000473
0.000056
0.000242
0.000274
0.000238
0.000241
0.000285
0.000231
0.000267
0.000226
0.000274
0.000240
0.000238
0.000388
0.000419
0.000422
0.000322
0.000232
0.000272
0.000257
0.000265
0.000232
0.000250
0.000252
0.000267
0.000274
0.000275
0.000319
0.000509
0.000461
0.000247
0.000295
0.000180
0.000057
0.000211
0.000239
0.000277
0.000247
0.000242
0.000333
0.000497
0.000468
0.000534
0.000538
0.000248
0.000227
0.000234
0.000257
0.000247
0.000265
0.000279
0.000295
0.000460
0.000519
0.001408
0.000314
0.000268
0.000262
0.000278
0.000263
0.000406
0.000390
0.000396
0.000278
0.000185
0.000056
0.000198
0.000232
0.000245
0.000264
0.000233
0.000247
0.000304
0.000232
0.000240
0.000320
0.000330
0.000384
0.000268
0.000339
0.000397
0.000345
0.000247
0.000248
0.000269
0.000258
0.000243
0.000246
0.000310
0.000226
0.000321
0.000435
0.000464
0.000263
0.000248
0.000264
0.000188
0.000055
0.000204
0.000252
0.000257
0.000254
0.000238
0.000235
0.000476
0.000211
0.000231
0.000259
0.000248
0.000250
0.000258
0.000255
0.000252
0.000266
0.000256
0.000294
0.000263
0.000242
0.000280
0.000270
0.000289
0.000240
0.000268
0.000284
0.000271
0.000261
0.000260
0.000280
0.000169
0.000055
0.000215
0.000250
0.000299
0.000407
0.000378
0.000251
0.000240
0.000248
0.000279
0.000230
0.000247
0.000256
0.000264
0.000261
0.000236
0.000246
0.000268
0.000242
0.000298
0.000381
0.000399
0.000393
0.000238
0.000248
0.000266
0.000250
0.000270
0.000248
0.000276
0.000272
0.000207
0.000055
0.000337
0.000419
0.000407
0.000207
0.000272
0.000249
0.000405
0.000217
0.000233
0.000255
0.000251
0.000291
0.000353
0.000433
0.001878
0.000251
0.000233
0.000256
0.000277
0.000244
0.000351
0.000511
0.000541
0.000286
0.000236
0.000267
0.000267
0.000431
0.000272
0.000275
0.000172
0.000056
0.000241
0.000361
0.000354
0.000300
0.000494
0.000207
0.000256
0.000233
0.000256
0.000240
0.000262
0.000243
0.000264
0.000299
0.000489
0.000411
0.000226
0.000246
0.000263
0.000258
0.000279
0.000305
0.000234
0.000276
0.000276
0.000443
0.000519
0.000398
0.000461
0.000228
0.000212
0.000056
0.000224
0.000238
0.000255
0.000234
0.000243
0.000252
0.000267
0.000311
0.000359
0.000269
0.000637
0.000186
0.000232
0.000253
0.000265
0.000287
0.000297
0.000239
0.000280
0.000267
0.000239
0.000288
0.000492
0.000448
0.000212
0.000250
0.000263
0.000440
0.000416
0.000301
0.000187
0.000055
0.000200
0.000230
0.000368
0.000374
0.000393
0.000230
0.000223
0.000252
0.000266
0.000262
0.000254
0.000255
0.000224
0.000258
0.000255
0.000316
0.000332
0.000403
0.000298
0.000345
0.000492
0.000228
0.000287
0.000269
0.000302
0.000286
0.000246
0.000265
0.000509
0.000505
0.000169
0.000055
0.000217
0.000230
0.000249
0.000254
0.000239
0.000484
0.000213
0.000248
0.000273
0.000325
0.000501
0.000580
0.000214
0.000239
0.000235
0.000255
0.000259
0.000286
0.000222
0.000249
0.000289
0.000237
0.000353
0.000449
0.000337
0.000419
0.000293
0.000299
0.000321
0.000252
0.000195
0.000055
0.000222
0.000233
0.000264
0.000470
0.000351
0.000300
0.000236
0.000241
0.000228
0.000256
0.000253
0.000259
0.000263
0.000245
0.000243
0.000263
0.000245
0.000246
0.000290
0.000385
0.000456
0.000437
0.000219
0.000246
0.000281
0.000274
0.000262
0.000255
0.000267
0.000268
0.000195
0.000056
0.000289
0.000375
0.000457
0.000247
0.000214
0.000249
0.000317
0.000453
0.000295
0.000221
0.000234
0.000267
0.000258
0.000464
0.000421
0.000291
0.000237
0.000234
0.000255
0.000265
0.000270
0.000260
0.000265
0.000274
0.000264
0.000302
0.000446
0.000334
0.000341
0.000239
0.000186
0.000055
0.000213
0.000239
0.000249
0.000257
0.000264
0.000249
0.000227
0.000276
0.000241
0.000240
0.000266
0.000235
0.000294
0.001425
0.000229
0.000276
0.000239
0.000245
0.000278
0.000276
0.000263
0.000238
0.000278
0.000252
0.000271
0.000264
0.000271
0.000272
0.000260
0.000270
0.000194
0.000057
0.000194
0.000235
0.000254
0.000263
0.000217
0.000242
0.000263
0.000260
0.000226
0.000285
0.000215
0.000269
0.000248
0.000253
0.000254
0.000269
0.000248
0.000250
0.000271
0.000253
0.000257
0.000261
0.000246
0.000254
0.001285
0.000282
0.000616
0.000370
0.000353
0.000239
0.000198
0.000055
0.000188
0.000242
0.000238
0.000256
0.000413
0.000237
0.000240
0.000244
0.000254
0.000356
0.000444
0.000356
0.000233
0.000232
0.000256
0.000262
0.000255
0.000262
0.000248
0.000263
0.000258
0.000255
0.000272
0.000405
0.000525
0.000450
0.000225
0.000256
0.001360
0.000254
0.000185
0.000057
0.000281
0.000431
0.000308
0.000276
0.000220
0.000222
0.000229
0.000253
0.000257
0.000258
0.000249
0.000262
0.000299
0.000317
0.000514
0.000378
0.000317
0.000216
0.000248
0.000254
0.000272
0.000283
0.000251
0.000262
0.000271
0.000265
0.000376
0.000621
0.000324
0.000292
0.000156
0.000055
0.000195
0.000235
0.001250
0.000440
0.000267
0.000480
0.000382
0.000490
0.000265
0.000346
0.000225
0.000233
0.000257
0.000257
0.000247
0.000267
0.000294
0.000585
0.000368
0.000354
0.000263
0.000237
0.000267
0.000495
0.000235
0.000264
0.000255
0.000280
0.000272
0.000588
0.000289
0.000055
0.000367
0.000312
0.000238
0.001384
0.000432
0.000424
0.000330
0.000235
0.000245
0.000249
0.000231
0.000240
0.000243
0.000264
0.000256
0.000258
0.000237
0.000275
0.000471
0.000301
0.000459
0.000249
0.000259
0.000256
0.000263
0.000274
0.000268
0.000237
0.000270
0.000272
0.000394
0.000056
0.000390
0.000330
0.000220
0.000237
0.000253
0.000249
0.000262
0.000231
0.000236
0.000241
0.001374
0.000510
0.000242
0.000250
0.000234
0.000259
0.000271
0.000258
0.000238
0.000304
0.000244
0.000250
0.000378
0.000288
0.000494
0.000394
0.000228
0.000267
0.000279
0.000284
0.000172
0.000056
0.000202
0.000418
0.000214
0.000237
0.000332
0.000459
0.000379
0.000305
0.000462
0.000206
0.000231
0.000263
0.000257
0.000263
0.000255
0.001497
0.000307
0.000282
0.000223
0.000270
0.000299
0.000228
0.000255
0.000253
0.000263
0.000263
0.000488
0.000412
0.000295
0.000264
0.000174
0.000056
0.000210
0.000236
0.000255
0.000237
0.000229
0.000258
0.000242
0.000249
0.000277
0.000401
0.000433
0.000294
0.000211
0.000261
0.000244
0.000271
0.000276
0.000259
0.000272
0.000228
0.000252
0.000345
0.001220
0.000255
0.000294
0.000222
0.000257
0.000264
0.000262
0.000260
0.000192
0.000056
0.000227
0.000346
0.000360
0.000338
0.000277
0.000222
0.000258
0.000292
0.000235
0.000262
0.000237
0.000268
0.000240
0.000258
0.000266
0.000249
0.000266
0.000268
0.000266
0.000242
0.000257
0.000271
0.000281
0.000269
0.000289
0.000265
0.000268
0.000266
0.000251
0.000451
0.001346
0.000056
0.000213
0.000251
0.000226
0.000260
0.000232
0.000258
0.000245
0.000230
0.000247
0.000248
0.000299
0.000240
0.000244
0.000239
0.000278
0.000225
0.001723
0.000268
0.000235
0.000260
0.000248
0.000260
0.000274
0.000257
0.000293
0.000236
0.000285
0.000259
0.000270
0.000259
0.000221
0.000055
0.000250
0.000368
0.001263
0.000228
0.000242
0.000245
0.000256
0.000249
0.000274
0.000242
0.000237
0.000361
0.000403
0.000436
0.000251
0.000236
0.000252
0.000247
0.000261
0.000268
0.000244
0.000277
0.000260
0.000278
0.000264
0.000382
0.000385
0.000374
0.000306
0.000233
0.000193
0.000055
0.000235
0.000243
0.000240
0.000244
0.000283
0.000194
0.000244
0.000247
0.000471
0.001286
0.000276
0.000215
0.000248
0.000270
0.000255
0.000294
0.000232
0.000247
0.000327
0.000424
0.000410
0.000216
0.000238
0.000241
0.000299
0.000266
0.000266
0.000291
0.000269
0.000275
0.000196
0.000054
0.000215
0.000394
0.000439
0.000214
0.000234
0.000241
0.000247
0.000281
0.000261
0.000248
0.000230
0.000251
0.000450
0.000503
0.000459
0.001456
0.000258
0.000278
0.000329
0.000345
0.000464
0.000421
0.000490
0.000372
0.000242
0.000259
0.000272
0.000277
0.000259
0.000278
0.000194
0.000056
0.000206
0.000255
0.000450
0.000421
0.000411
0.000238
0.000248
0.000236
0.000239
0.000279
0.000231
0.000267
0.000280
0.000221
0.000264
0.000309
0.000354
0.000402
0.001418
0.000342
0.000225
0.000259
0.000255
0.000262
0.000480
0.000413
0.000384
0.000258
0.000268
0.000273
0.000185
0.000055
0.000194
0.000264
0.000226
0.000267
0.000224
0.000301
0.000417
0.000385
0.000380
0.000221
0.000239
0.000261
0.000270
0.000289
0.000240
0.000267
0.000270
0.000234
0.000287
0.000252
0.000471
0.000433
0.000320
0.001376
0.000380
0.000253
0.000260
0.000400
0.000453
0.000352
0.000316
0.000056
0.000205
0.000253
0.000224
0.000248
0.000250
0.000258
0.001675
0.000253
0.000215
0.000233
0.000254
0.000246
0.000256
0.000326
0.000327
0.000287
0.000277
0.000355
0.000407
0.000500
0.000248
0.000285
0.000234
0.000242
0.001503
0.000341
0.000431
0.000426
0.000342
0.000303
0.000171
0.000055
0.000224
0.000246
0.000258
0.000259
0.000248
0.000267
0.001695
0.000246
0.000233
0.000268
0.000327
0.000404
0.001447
0.000366
0.000390
0.000244
0.000251
0.000234
0.000270
0.000274
0.001536
0.000575
0.000380
0.000295
0.000228
0.000261
0.000258
0.000284
0.000247
0.000250
0.000198
0.000057
0.000212
0.000240
0.000266
0.000262
0.000248
0.000297
0.000254
0.000266
0.000240
0.000253
0.000253
0.000246
0.000293
0.000242
0.000267
0.001477
0.000288
0.000226
0.000269
0.000276
0.000275
0.000250
0.000428
0.001273
0.000281
0.000238
0.000269
0.000249
0.000404
0.000235
0.000203
0.000056
0.000184
0.000250
0.000222
0.000247
0.000238
0.000228
0.000233
0.001690
0.000254
0.000233
0.000356
0.000284
0.000205
0.000227
0.000254
0.001388
0.000229
0.000267
0.000267
0.000238
0.000267
0.000350
0.000292
0.001295
0.000296
0.000244
0.000239
0.000267
0.001392
0.000273
0.000292
0.000056
0.000298
0.000305
0.000212
0.000254
0.000251
0.000224
0.000287
0.000248
0.000260
0.000249
0.000258
0.000264
0.000261
0.000240
0.000303
0.001527
0.000226
0.000270
0.000251
0.000249
0.000307
0.000239
0.000254
0.001494
0.000377
0.000215
0.000270
0.001270
0.000262
0.000255
0.000239
0.000055
0.000230
0.000379
0.000354
0.000216
0.000234
0.000234
0.000272
0.000249
0.000264
0.000271
0.000241
0.000253
0.000269
0.000240
0.000436
0.001224
0.000221
0.000261
0.000262
0.000274
0.000230
0.000244
0.000247
0.000357
0.001264
0.000244
0.000247
0.000255
0.000256
0.001340
0.000342
0.000055
0.000242
0.000289
0.000234
0.000226
0.000241
0.000256
0.000243
0.000245
0.000301
0.000237
0.000238
0.000246
0.000248
0.000332
0.000405
0.001475
0.000231
0.000246
0.000300
0.000509
0.000279
0.001479
0.000331
0.000241
0.000238
0.000267
0.000251
0.001300
0.000333
0.000463
0.000381
0.000055
0.000226
0.000266
0.000240
0.000256
0.000277
0.000234
0.000267
0.000268
0.000244
0.000257
0.000408
0.000361
0.001345
0.000236
0.000280
0.000265
0.000278
0.000222
0.000243
0.000236
0.000337
0.001252
0.000259
0.000253
0.000242
0.000258
0.001557
0.000362
0.000488
0.000229
0.000188
0.000056
0.000206
0.000229
0.000249
0.000236
0.000254
0.000265
0.000242
0.000268
0.000480
0.000424
0.000266
0.001493
0.000221
0.000236
0.000265
0.000249
0.000266
0.000302
0.001670
0.000255
0.000391
0.000344
0.001274
0.000367
0.000310
0.000322
0.000263
0.000260
0.000259
0.000267
0.000199
0.000056
0.000210
0.000234
0.000320
0.000245
0.000318
0.000648
0.000181
0.000294
0.001473
0.000227
0.000391
0.000262
0.000244
0.000317
0.000344
0.001328
0.000273
0.000236
0.000252
0.000261
0.001520
0.000427
0.000249
0.000256
0.000268
0.000251
0.000449
0.000333
0.000258
0.000237
0.000266
0.000055
0.000242
0.000386
0.000319
0.000272
0.000227
0.001516
0.000220
0.000249
0.000269
0.000267
0.000267
0.000242
0.000331
0.001453
0.000258
0.000241
0.000423
0.001186
0.000332
0.000444
0.000403
0.000250
0.000239
0.000258
0.000292
0.000224
0.000448
0.000230
0.000264
0.000277
0.000202
0.000056
0.000222
0.000334
0.000272
0.000400
0.001270
0.000270
0.000335
0.000228
0.000234
0.000242
0.000249
0.000322
0.001486
0.000315
0.000177
0.000247
0.001382
0.000278
0.000513
0.000303
0.000428
0.000228
0.000252
0.000250
0.000269
0.000281
0.000257
0.000273
0.000265
0.000251
0.000199
0.000056
0.000342
0.000324
0.001409
0.000220
0.000266
0.000299
0.000219
0.000249
0.000264
0.000466
0.001299
0.000223
0.000263
0.000263
0.000252
0.001310
0.000672
0.000271
0.000323
0.000409
0.000303
0.000251
0.000264
0.000256
0.000271
0.000289
0.000276
0.000324
0.000453
0.000385
0.001374
0.000056
0.000198
0.000243
0.000237
0.000233
0.000251
0.000558
0.000323
0.001305
0.000259
0.000226
0.000249
0.001440
0.000400
0.000365
0.000210
0.000420
0.000235
0.000254
0.000268
0.000286
0.000249
0.000251
0.000283
0.000250
0.000255
0.000367
0.000339
0.000501
0.001486
0.000238
0.000182
0.000056
0.000199
0.000255
0.000335
0.001545
0.000311
0.000260
0.000210
0.000261
0.000242
0.000251
0.000253
0.000278
0.000355
0.000532
0.000291
0.000240
0.000253
0.000276
0.000236
0.000330
0.000213
0.000261
0.000262
0.000267
0.000326
0.000395
0.000412
0.000320
0.000342
0.001399
0.000191
0.000057
0.000201
0.000244
0.000399
0.000350
0.000325
0.000295
0.000326
0.000331
0.000294
0.000254
0.000255
0.000244
0.000254
0.000304
0.000245
0.000282
0.000548
0.000330
0.000288
0.000390
0.000275
0.000403
0.000242
0.000247
0.000246
0.000264
0.000250
0.000311
0.000418
0.000464
0.000237
0.000055
0.000201
0.001415
0.000223
0.000340
0.000459
0.000319
0.000505
0.000249
0.000218
0.000234
0.000268
0.000241
0.000287
0.000274
0.000242
0.000252
0.000259
0.001290
0.000334
0.000251
0.000252
0.000275
0.000267
0.000280
0.000267
0.000258
0.000276
0.000248
0.000378
0.000348
0.000383
0.000056
0.000203
0.000240
0.000239
0.001504
0.000344
0.000218
0.000226
0.000250
0.000225
0.000246
0.000257
0.000280
0.000243
0.000251
0.000295
0.000226
0.000270
0.000260
0.000248
0.000252
0.001433
0.000231
0.000243
0.000289
0.000244
0.000246
0.000276
0.000269
0.000286
0.000475
0.000348
0.000055
0.000216
0.000234
0.000401
0.000278
0.000235
0.000265
0.001524
0.000342
0.000298
0.000222
0.000261
0.000322
0.000326
0.000227
0.000227
0.000249
0.000250
0.000263
0.000262
0.000256
0.000494
0.000474
0.001142
0.000277
0.000237
0.000255
0.000265
0.000257
0.000306
0.000233
0.000375
0.000057
0.000234
0.000328
0.000218
0.000240
0.000248
0.000242
0.000243
0.000232
0.000286
0.001671
0.000319
0.000274
0.000244
0.000244
0.000255
0.000248
0.000262
0.000272
0.000278
0.000297
0.000316
0.000471
0.000465
0.001360
0.000231
0.000280
0.000256
0.000259
0.000271
0.000374
0.000410
0.000056
0.000274
0.000266
0.000217
0.000232
0.000225
0.000239
0.000264
0.000282
0.000253
0.001552
0.000383
0.000254
0.000241
0.000258
0.000457
0.000256
0.000555
0.000368
0.000271
0.000276
0.000489
0.000502
0.001255
0.000258
0.000241
0.000250
0.001757
0.000417
0.000613
0.000308
0.000150
0.000056
0.000214
0.000227
0.000237
0.000241
0.000279
0.000225
0.000246
0.000568
0.000435
0.000417
0.000291
0.000214
0.000237
0.000264
0.000279
0.000271
0.000234
0.000244
0.000250
0.000289
0.000269
0.000429
0.001318
0.000232
0.000244
0.000273
0.001938
0.000345
0.000398
0.000331
0.000154
0.000055
0.000245
0.000246
0.000241
0.001537
0.000450
0.000219
0.000237
0.000258
0.000258
0.000274
0.000382
0.000365
0.000370
0.000277
0.000254
0.000550
0.000416
0.001186
0.000288
0.000223
0.000253
0.000255
0.000277
0.000407
0.000675
0.000403
0.000249
0.000273
0.000264
0.000278
0.000195
0.000056
0.000188
0.000230
0.000242
0.001595
0.000205
0.000224
0.000244
0.000252
0.000245
0.000252
0.000254
0.000266
0.000268
0.000271
0.000237
0.000532
0.000354
0.000276
0.001407
0.000245
0.000247
0.000264
0.000251
0.000268
0.000371
0.000500
0.000428
0.000269
0.000289
0.000233
0.000442
0.000056
0.000204
0.000234
0.000273
0.001536
0.000309
0.000209
0.000259
0.000243
0.000254
0.000258
0.000250
0.000278
0.000236
0.000263
0.000437
0.000495
0.001359
0.000751
0.000270
0.000322
0.000248
0.000243
0.000239
0.000276
0.001680
0.000806
0.000230
0.000260
0.000281
0.000281
0.000188
0.000055
0.000207
0.000235
0.000257
0.000242
0.000279
0.000251
0.000212
0.000254
0.000237
0.000239
0.000293
0.000292
0.000234
0.000254
0.000264
0.000242
0.000278
0.001595
0.000706
0.000384
0.000301
0.000231
0.000249
0.000310
0.000245
0.000277
0.000251
0.000257
0.001393
0.000438
0.000289
0.000056
0.000207
0.000214
0.000267
0.000246
0.000252
0.000230
0.000274
0.000229
0.000258
0.000260
0.000235
0.000517
0.000379
0.000329
0.000218
0.000251
0.000263
0.001387
0.000697
0.000457
0.000384
0.000240
0.000228
0.000253
0.000269
0.000282
0.000232
0.000266
0.001489
0.000415
0.000209
0.000055
0.000195
0.000228
0.000240
0.000249
0.000254
0.000243
0.000241
0.000247
0.000270
0.000261
0.000393
0.000339
0.000352
0.000217
0.000241
0.000241
0.000268
0.000257
0.001663
0.000557
0.000469
0.000292
0.000244
0.000250
0.000257
0.000261
0.000264
0.000288
0.000264
0.001348
0.000333
0.000056
0.000219
0.000215
0.000241
0.000252
0.000258
0.000245
0.000251
0.000309
0.000359
0.000466
0.000401
0.000335
0.000356
0.000218
0.000249
0.000250
0.000297
0.000239
0.000263
0.001936
0.000312
0.000228
0.000453
0.000243
0.000251
0.000261
0.000272
0.000263
0.000274
0.000268
0.000415
0.000056
0.000266
0.000258
0.000229
0.000245
0.000251
0.000247
0.000229
0.000244
0.000289
0.000264
0.000209
0.000235
0.000372
0.000307
0.000518
0.000449
0.000219
0.000268
0.000249
0.000244
0.000258
0.000287
0.001462
0.001055
0.000231
0.000251
0.000270
0.000265
0.000271
0.000250
0.000204
0.000056
0.000193
0.001346
0.000288
0.000208
0.000243
0.000250
0.000254
0.000238
0.000242
0.000261
0.000258
0.000253
0.000242
0.000423
0.000383
0.000432
0.000235
0.000258
0.000257
0.000268
0.000284
0.000217
0.000258
0.000269
0.001348
0.000653
0.000305
0.000382
0.000377
0.000404
0.000298
0.000056
0.000202
0.000232
0.000384
0.001299
0.000218
0.000249
0.000229
0.000258
0.000253
0.000260
0.000279
0.000234
0.000254
0.000346
0.000625
0.000249
0.000221
0.000280
0.000323
0.000223
0.000246
0.000271
0.000232
0.000274
0.000267
0.001531
0.000745
0.000326
0.000254
0.000271
0.000199
0.000056
0.000208
0.000363
0.000356
0.000410
0.001213
0.000256
0.000215
0.000243
0.000236
0.000249
0.000249
0.000255
0.000247
0.000225
0.000250
0.000258
0.000268
0.000238
0.000255
0.000256
0.000268
0.000266
0.000310
0.000329
0.000218
0.000267
0.000267
0.001455
0.000258
0.000245
0.000174
0.000055
0.000188
0.000231
0.000252
0.000260
0.000348
0.000376
0.000393
0.000281
0.001573
0.000222
0.000315
0.000553
0.000288
0.000233
0.000441
0.000229
0.000239
0.000256
0.000273
0.000267
0.000286
0.000266
0.000256
0.000268
0.000257
0.000424
0.000368
0.000335
0.001594
0.000222
0.000191
0.000055
0.000238
0.000219
0.000253
0.000249
0.000234
0.000251
0.000258
0.000319
0.000421
0.002012
0.000228
0.000249
0.000256
0.000260
0.000262
0.000256
0.000265
0.000253
0.000267
0.000583
0.000233
0.000440
0.001435
0.000246
0.000249
0.002015
0.000294
0.000233
0.000266
0.001511
0.000173
0.000055
0.000360
0.000382
0.000477
0.000262
0.000262
0.000206
0.000264
0.000294
0.000231
0.000229
0.000252
0.000343
0.000406
0.000337
0.000433
0.000252
0.000232
0.001563
0.000246
0.000540
0.001910
0.000298
0.000230
0.001547
0.002012
0.000740
0.000275
0.000257
0.000295
0.000461
0.000373
0.000055
0.000221
0.000229
0.000281
0.000221
0.001410
0.001737
0.001075
0.000204
0.000239
0.001597
0.001970
0.000217
0.000233
0.000424
0.000347
0.000315
0.000373
0.000519
0.000215
0.000240
0.000250
0.000250
0.000277
0.001579
0.001212
0.001440
0.000282
0.000273
0.000263
0.000294
0.000364
0.000056
0.000214
0.000236
0.000230
0.000245
0.000227
0.000272
0.000227
0.000256
0.000259
0.000239
0.000246
0.000287
0.000476
0.000435
0.000296
0.000256
0.000266
0.000257
0.000268
0.000280
0.000239
0.000267
0.001485
0.000490
0.002137
0.000221
0.000257
0.000346
0.000406
0.000407
0.000197
0.000056
0.000270
0.000290
0.000488
0.000305
0.000217
0.000215
0.000253
0.000241
0.000243
0.000242
0.000247
0.000266
0.000260
0.001654
0.001310
0.001232
0.000285
0.000216
0.000254
0.000269
0.000280
0.000279
0.000238
0.000257
0.002202
0.000250
0.000258
0.000299
0.000324
0.000307
0.000221
0.000056
0.000223
0.000398
0.000501
0.000346
0.000237
0.000217
0.000246
0.000274
0.001895
0.001438
0.000207
0.000318
0.000388
0.000409
0.000260
0.000244
0.000245
0.000262
0.000279
0.000255
0.000254
0.000263
0.000471
0.000240
0.000269
0.000266
0.000246
0.000281
0.000279
0.000250
0.000199
0.000055
0.000208
0.000244
0.000242
0.000248
0.000277
0.000251
0.001538
0.001417
0.001328
0.000254
0.000213
0.000245
0.000264
0.000262
0.000245
0.000271
0.000235
0.002104
0.000249
0.000229
0.000269
0.000268
0.000253
0.000274
0.000256
0.000260
0.000276
0.000248
0.000274
0.000254
0.000183
0.000055
0.000198
0.002682
0.001407
0.000216
0.000304
0.000326
0.000217
0.000281
0.000225
0.000238
0.000260
0.000238
0.000239
0.000254
0.000267
0.000253
0.000269
0.000271
0.000271
0.000245
0.000265
0.000288
0.000269
0.000264
0.000249
0.000244
0.000268
0.000271
0.000262
0.000266
0.000368
0.000055
0.001549
0.000253
0.001228
0.000248
0.000216
0.000235
0.000283
0.000253
0.000228
0.000318
0.000362
0.000334
0.000353
0.000217
0.000240
0.002162
0.000236
0.000233
0.000286
0.000499
0.000386
0.000280
0.000233
0.000252
0.000263
0.000250
0.000263
0.000280
0.000269
0.001608
0.001265
0.000055
0.000194
0.000221
0.000385
0.000324
0.000347
0.000279
0.000209
0.000238
0.000248
0.000258
0.000265
0.000239
0.000232
0.000258
0.000281
0.000227
0.000343
0.000578
0.000372
0.000244
0.000232
0.000276
0.000277
0.000246
0.000247
0.000251
0.000265
0.000278
0.000243
0.000461
0.000219
0.000056
0.001128
0.000222
0.000392
0.000507
0.000193
0.000227
0.000228
0.000241
0.000250
0.002301
0.000372
0.000384
0.000225
0.000376
0.000302
0.000257
0.000242
0.000257
0.000268
0.000223
0.000251
0.000278
0.000632
0.000432
0.001856
0.001317
0.000517
0.000538
0.000235
0.000284
0.000199
0.000056
0.000225
0.000347
0.000253
0.000240
0.000250
0.000229
0.000250
0.000254
0.000264
0.000239
0.000257
0.000225
0.000246
0.000281
0.000418
0.000460
0.001832
0.001339
0.000538
0.000339
0.000457
0.000243
0.000242
0.000255
0.002265
0.000431
0.000376
0.000237
0.000268
0.000285
0.000201
0.000055
0.000207
0.000240
0.000257
0.000250
0.000237
0.000363
0.000397
0.000308
0.000323
0.000222
0.000240
0.000250
0.000261
0.002128
0.000450
0.000290
0.000213
0.000248
0.000283
0.000246
0.000248
0.002452
0.000335
0.000238
0.000245
0.000257
0.000252
0.000271
0.000315
0.000251
0.000191
0.000056
0.000205
0.000322
0.000649
0.000284
0.000265
0.000220
0.000229
0.000249
0.000262
0.000255
0.001959
0.000384
0.000273
0.000271
0.000242
0.000271
0.000268
0.000241
0.002209
0.000443
0.000223
0.000266
0.000274
0.000251
0.000258
0.000252
0.000303
0.000238
0.000267
0.000251
0.000191
0.000055
0.000220
0.000225
0.000248
0.000223
0.000250
0.000259
0.000239
0.000238
0.000233
0.002194
0.000232
0.000265
0.000218
0.000430
0.000218
0.000258
0.000306
0.000263
0.000253
0.000252
0.001964
0.000274
0.000339
0.000367
0.000430
0.000417
0.000294
0.000262
0.000247
0.000263
0.000203
0.000056
0.000184
0.000243
0.000241
0.000250
0.000244
0.000325
0.000220
0.002315
0.000234
0.000239
0.000255
0.000255
0.000235
0.000286
0.000277
0.002120
0.000590
0.000229
0.000252
0.000243
0.000259
0.000257
0.000287
0.000262
0.000270
0.000252
0.000290
0.000253
0.000263
0.000266
0.000200
0.000055
0.001837
0.001432
0.000208
0.000221
0.000245
0.000255
0.000252
0.000261
0.000426
0.000385
0.002123
0.000263
0.000227
0.000268
0.000278
0.000478
0.000439
0.000293
0.000223
0.000249
0.000250
0.000267
0.000266
0.000243
0.000240
0.000273
0.000264
0.000267
0.000344
0.000621
0.000325
0.000056
0.000208
0.000255
0.000240
0.000253
0.000268
0.000244
0.000253
0.000242
0.001464
0.002135
0.000577
0.000276
0.000401
0.000695
0.000359
0.000242
0.000251
0.000245
0.000269
0.000256
0.000258
0.000241
0.000255
0.000265
0.003016
0.000333
0.000230
0.000265
0.000291
0.000320
0.000461
0.000055
0.001937
0.000226
0.000226
0.000241
0.000289
0.000356
0.000517
0.000241
0.000287
0.000218
0.000244
0.000252
0.000255
0.000261
0.000264
0.000256
0.000250
0.000291
0.001816
0.000247
0.000239
0.000251
0.000265
0.000299
0.000255
0.000256
0.001463
0.000335
0.000258
0.000252
0.000174
0.000056
0.000202
0.000231
0.000272
0.000215
0.000246
0.000244
0.000268
0.000396
0.000503
0.000226
0.000225
0.000235
0.000256
0.000327
0.000421
0.000328
0.000227
0.000240
0.000266
0.000414
0.000440
0.000405
0.000261
0.000254
0.000261
0.000253
0.000251
0.000277
0.000273
0.000281
0.000188
0.000056
0.001439
0.000437
0.000228
0.001930
0.000403
0.000385
0.000352
0.000315
0.000229
0.000250
0.000264
0.000240
0.000253
0.000243
0.000267
0.000261
0.000437
0.000310
0.000419
0.000347
0.000355
0.000225
0.000262
0.000267
0.000276
0.000266
0.000258
0.000266
0.000392
0.000463
0.001346
0.000055
0.000208
0.000223
0.002076
0.000351
0.000294
0.000226
0.000256
0.000249
0.000264
0.000259
0.000216
0.000251
0.000258
0.000263
0.000252
0.000363
0.000713
0.001763
0.000228
0.000250
0.000253
0.000269
0.000370
0.000454
0.001563
0.000290
0.000365
0.001928
0.000261
0.000250
0.000194
0.000056
0.000206
0.000227
0.000236
0.000245
0.000230
0.000247
0.000252
0.000287
0.000346
0.000248
0.000374
0.000364
0.000348
0.000290
0.000248
0.000267
0.000257
0.000243
0.000267
0.000248
0.000317
0.000279
0.000275
0.000255
0.000262
0.001512
0.000288
0.000385
0.002073
0.000237
0.000171
0.000056
0.000225
0.000231
0.000236
0.000251
0.000486
0.000210
0.000254
0.000347
0.000337
0.000337
0.000287
0.000209
0.000267
0.000264
0.000269
0.000330
0.000430
0.000422
0.000252
0.000424
0.000581
0.000415
0.001543
0.000222
0.000256
0.002003
0.000298
0.000261
0.000244
0.000294
0.000194
0.000055
0.000210
0.000245
0.000229
0.000247
0.000247
0.000267
0.000257
0.000271
0.000251
0.000260
0.001805
0.000315
0.000384
0.000284
0.000478
0.000351
0.000406
0.001446
0.000255
0.000262
0.002182
0.000499
0.000277
0.000230
0.000262
0.000263
0.000506
0.000228
0.000251
0.000278
0.000199
0.000056
0.000284
0.000303
0.000414
0.000298
0.000202
0.000243
0.000262
0.000249
0.000267
0.000287
0.000231
0.000252
0.000261
0.000260
0.000335
0.000475
0.001319
0.000267
0.000280
0.001902
0.000386
0.000281
0.000232
0.000257
0.000251
0.000282
0.000264
0.000267
0.000245
0.000266
0.000203
0.000075
0.000252
0.000366
0.002036
0.000254
0.000227
0.000249
0.000255
0.000298
0.000415
0.000465
0.001289
0.000379
0.000358
0.002079
0.000222
0.000229
0.000264
0.000281
0.000253
0.000250
0.000277
0.000298
0.000251
0.000323
0.000568
0.000326
0.000296
0.002244
0.000485
0.000522
0.000355
0.000056
0.000205
0.000225
0.000242
0.001967
0.000236
0.000227
0.000245
0.000238
0.000242
0.000257
0.000246
0.000263
0.000267
0.000330
0.000375
0.001463
0.000257
0.000238
0.000268
0.000258
0.000239
0.000247
0.000264
0.000279
0.000313
0.000426
0.000507
0.000236
0.001587
0.000277
0.000172
0.000055
0.000198
0.000225
0.000249
0.000234
0.000262
0.000266
0.000229
0.000248
0.000279
0.000376
0.000354
0.001392
0.000247
0.000221
0.000245
0.000300
0.000221
0.000257
0.000262
0.000576
0.000327
0.000464
0.000261
0.001537
0.000234
0.000261
0.000285
0.000283
0.000261
0.000269
0.000194
0.000057
0.000200
0.000242
0.000284
0.000245
0.000252
0.000239
0.000240
0.000241
0.000276
0.000225
0.000250
0.000257
0.000269
0.001470
0.000362
0.000213
0.000250
0.000260
0.000277
0.000313
0.000372
0.000274
0.000245
0.000262
0.000267
0.000257
0.000262
0.001404
0.000291
0.000233
0.000170
0.000056
0.000211
0.000229
0.000265
0.000259
0.000272
0.000218
0.000246
0.000258
0.000223
0.000265
0.000244
0.000259
0.000227
0.000353
0.000378
0.000299
0.000275
0.000232
0.001631
0.000249
0.000237
0.000262
0.000264
0.000391
0.000289
0.000362
0.000479
0.000249
0.000254
0.001607
0.000161
0.000056
0.000310
0.000476
0.000246
0.000277
0.000235
0.000218
0.000247
0.000271
0.000254
0.000257
0.000223
0.000240
0.001464
0.000292
0.000308
0.000221
0.000248
0.000279
0.000249
0.000261
0.000255
0.000241
0.000259
0.000269
0.000387
0.000242
0.000494
0.000328
0.000287
0.000228
0.000198
0.000055
0.000212
0.000252
0.000398
0.000355
0.000406
0.000256
0.000248
0.000246
0.000251
0.000260
0.000241
0.000226
0.000256
0.000244
0.001250
0.000297
0.000245
0.000253
0.000264
0.000270
0.000239
0.000261
0.000255
0.000261
0.000257
0.000260
0.000285
0.000790
0.000374
0.000231
0.000184
0.000056
0.000191
0.001565
0.000237
0.000323
0.000460
0.000399
0.000213
0.000265
0.000254
0.000254
0.000239
0.000257
0.000266
0.000270
0.000261
0.001525
0.000256
0.000280
0.000269
0.000255
0.000275
0.000237
0.000265
0.000261
0.000258
0.000259
0.000432
0.000379
0.000374
0.000230
0.000187
0.000056
0.000220
0.000247
0.000241
0.001753
0.000281
0.000341
0.000227
0.000242
0.000250
0.000291
0.000261
0.000248
0.000260
0.000253
0.000233
0.000272
0.000376
0.001338
0.000257
0.000226
0.001509
0.000321
0.000557
0.000392
0.000346
0.000228
0.000274
0.000460
0.000241
0.000263
0.000184
0.000056
0.000289
0.000215
0.000246
0.000247
0.000247
0.000274
0.000218
0.000257
0.000268
0.000242
0.000242
0.000255
0.000340
0.000505
0.001624
0.001503
0.000360
0.000500
0.000363
0.000233
0.000232
0.000252
0.000252
0.000274
0.000250
0.000266
0.000255
0.000261
0.001525
0.000327
0.000201
0.000056
0.000184
0.000347
0.000355
0.000330
0.000238
0.000231
0.000246
0.000426
0.000366
0.000364
0.002173
0.000309
0.000976
0.000211
0.000490
0.000268
0.000322
0.000390
0.000327
0.000281
0.000395
0.000269
0.001532
0.000528
0.000212
0.000264
0.000258
0.000253
0.000274
0.000264
0.000192
0.000055
0.000198
0.000252
0.000251
0.000259
0.000239
0.001656
0.000883
0.001000
0.000208
0.000232
0.000272
0.000241
0.000263
0.000265
0.000250
0.000248
0.000258
0.000263
0.000263
0.000282
0.001441
0.000303
0.000258
0.000229
0.000234
0.000256
0.000262
0.000283
0.000284
0.000265
0.001897
0.000056
0.000190
0.000232
0.001542
0.000860
0.000374
0.000370
0.000245
0.000259
0.000210
0.000255
0.000258
0.000242
0.000246
0.001976
0.000476
0.000215
0.000253
0.000255
0.000266
0.000261
0.000197
