0.000305
0.017641
0.003796
0.000323
0.000264
0.000284
0.000302
0.000256
0.000324
0.000284
0.000247
0.000351
0.000537
0.000457
0.000349
0.000395
0.000282
0.000328
0.000352
0.000410
0.000316
0.001915
0.000705
0.000248
0.000259
0.000306
0.000301
0.000330
0.000432
0.000427
0.000560
0.000191
0.000058
0.000206
0.000266
0.000272
0.000260
0.000270
0.000250
0.000281
0.000264
0.000268
0.000311
0.000420
0.000428
0.000320
0.000259
0.000407
0.000307
0.000358
0.000257
0.000233
0.001711
0.000325
0.000262
0.000441
0.000236
0.000286
0.000276
0.000281
0.000298
0.000280
0.000345
0.000363
0.000057
0.000244
0.000254
0.000260
0.000261
0.000253
0.000243
0.000263
0.000255
0.000288
0.001667
0.000233
0.000227
0.000293
0.000257
0.000273
0.000244
0.000270
0.000256
0.000359
0.001790
0.000238
0.000276
0.000448
0.000469
0.000355
0.000241
0.000248
0.000555
0.000457
0.000736
0.000186
0.000057
0.000186
0.000255
0.000245
0.000243
0.000294
0.000255
0.000266
0.000658
0.000340
0.000246
0.000236
0.000255
0.000243
0.000250
0.000254
0.000259
0.000248
0.000265
0.000307
0.000317
0.001683
0.000272
0.000255
0.000407
0.000316
0.000687
0.000668
0.000521
0.000349
0.000227
0.000198
0.000057
0.000213
0.000249
0.000263
0.000244
0.000255
0.000259
0.000291
0.000522
0.001401
0.000190
0.000261
0.000239
0.000257
0.000253
0.000264
0.000283
0.000309
0.000764
0.001395
0.000280
0.000467
0.000254
0.000207
0.000235
0.000264
0.000247
0.000271
0.000269
0.000265
0.000265
0.000190
0.000056
0.000211
0.000216
0.000248
0.000265
0.000234
0.000247
0.000238
0.000251
0.000235
0.000261
0.001685
0.000227
0.000223
0.000227
0.000257
0.000252
0.000242
0.000248
0.000257
0.000254
0.000273
0.001681
0.000275
0.000246
0.000432
0.000260
0.000251
0.000253
0.000259
0.000277
0.000198
0.000056
0.000219
0.000228
0.000251
0.000248
0.000261
0.000227
0.000263
0.000233
0.000265
0.000241
0.000268
0.000253
0.000260
0.001688
0.000330
0.000174
0.000298
0.000215
0.000250
0.000271
0.000268
0.000240
0.000237
0.000267
0.001789
0.000351
0.000387
0.000347
0.000258
0.000276
0.000192
0.000056
0.000218
0.000242
0.000246
0.000266
0.000253
0.000238
0.000271
0.000413
0.000418
0.000433
0.000209
0.000249
0.000253
0.000244
0.001576
0.000519
0.000292
0.000435
0.000319
0.000231
0.000270
0.000278
0.000270
0.001735
0.000519
0.000466
0.000242
0.000249
0.000242
0.000267
0.000180
0.000056
0.000208
0.000233
0.000261
0.000291
0.000390
0.000405
0.000327
0.000281
0.000217
0.000245
0.000288
0.000216
0.000253
0.001708
0.000487
0.000298
0.000226
0.000246
0.000273
0.000288
0.000246
0.000256
0.000277
0.001881
0.000318
0.000391
0.000255
0.000237
0.000266
0.000411
0.000326
0.000056
0.000195
0.000389
0.000374
0.000264
0.000257
0.000248
0.000248
0.000261
0.000237
0.000236
0.000233
0.000249
0.001564
0.000334
0.000324
0.000230
0.000255
0.000252
0.000242
0.000284
0.000281
0.000324
0.000244
0.001823
0.000241
0.000504
0.000242
0.000252
0.000259
0.000268
0.000258
0.000056
0.000455
0.000484
0.000605
0.000213
0.000229
0.000280
0.000233
0.000209
0.000265
0.000258
0.000248
0.001707
0.000244
0.000436
0.000371
0.000225
0.000238
0.000231
0.000245
0.000265
0.000285
0.001826
0.000237
0.000236
0.002084
0.000514
0.000365
0.000266
0.000235
0.000264
0.000192
0.000056
0.000199
0.000242
0.000241
0.000242
0.000260
0.001623
0.000256
0.000225
0.000251
0.000254
0.000246
0.000255
0.000236
0.000260
0.000310
0.000375
0.000630
0.000254
0.000227
0.000273
0.000269
0.000242
0.000253
0.000431
0.000426
0.000271
0.000460
0.000421
0.000474
0.000257
0.000197
0.000056
0.000214
0.000241
0.000253
0.000252
0.000233
0.000245
0.000254
0.000515
0.000297
0.001728
0.000219
0.000236
0.000236
0.000251
0.000264
0.000274
0.000436
0.000480
0.000360
0.000217
0.000264
0.000292
0.000311
0.000227
0.000275
0.000436
0.000347
0.000628
0.000371
0.000513
0.000171
0.000057
0.000206
0.000282
0.000258
0.000188
0.000241
0.000239
0.000248
0.000247
0.000247
0.000296
0.000340
0.000453
0.001363
0.000251
0.000231
0.000248
0.000263
0.000253
0.000242
0.000253
0.000274
0.000461
0.000421
0.000261
0.000261
0.000253
0.000255
0.000270
0.000258
0.000272
0.000389
0.000055
0.000196
0.000238
0.000223
0.000269
0.000537
0.000441
0.000232
0.000257
0.000249
0.000240
0.000249
0.000240
0.000296
0.000247
0.000238
0.000474
0.000439
0.001640
0.000271
0.000228
0.000265
0.000265
0.000258
0.000234
0.000262
0.000393
0.000566
0.000338
0.000405
0.000211
0.000205
0.000056
0.000227
0.000432
0.000239
0.000206
0.000273
0.000242
0.000260
0.000599
0.000312
0.000333
0.000228
0.000278
0.000258
0.000241
0.000516
0.000350
0.000214
0.000250
0.000421
0.001629
0.000278
0.000228
0.000530
0.000236
0.000280
0.000282
0.000255
0.000392
0.000499
0.000373
0.000282
0.000056
0.000207
0.000211
0.000236
0.000244
0.000415
0.000307
0.000289
0.000229
0.000376
0.000478
0.000392
0.000256
0.000234
0.000244
0.000254
0.000270
0.000251
0.000258
0.000235
0.000343
0.000297
0.000325
0.001865
0.000229
0.000255
0.000253
0.000289
0.000349
0.000448
0.000657
0.000437
0.000057
0.000221
0.000333
0.000282
0.000434
0.000382
0.000208
0.000254
0.000310
0.000536
0.000375
0.000262
0.000248
0.000233
0.000272
0.000281
0.000212
0.000259
0.000269
0.000267
0.000261
0.000268
0.000548
0.000509
0.001365
0.000312
0.000436
0.000416
0.000254
0.000431
0.000398
0.000329
0.000055
0.000242
0.000382
0.000269
0.000210
0.000224
0.000247
0.000416
0.000236
0.000247
0.000352
0.000433
0.000400
0.000282
0.000250
0.000264
0.000253
0.000359
0.000389
0.000352
0.000242
0.000239
0.000329
0.000689
0.001702
0.000221
0.000466
0.000265
0.000236
0.000276
0.000443
0.000329
0.000055
0.000228
0.000222
0.000246
0.000248
0.000246
0.000274
0.000225
0.000320
0.000469
0.000284
0.000423
0.000365
0.000297
0.000578
0.000253
0.000235
0.000273
0.000285
0.000213
0.000352
0.000222
0.000245
0.000272
0.000448
0.000421
0.001689
0.000271
0.000240
0.000247
0.000261
0.000181
0.000056
0.000322
0.000477
0.000325
0.000217
0.000251
0.000268
0.000250
0.000226
0.000264
0.000251
0.000223
0.000243
0.000428
0.000527
0.000376
0.000283
0.000257
0.000246
0.000359
0.000380
0.000385
0.000367
0.000380
0.000330
0.000249
0.000254
0.000263
0.000275
0.001800
0.000238
0.000204
0.000056
0.000212
0.000222
0.000252
0.000268
0.000367
0.000545
0.000308
0.000213
0.000260
0.000265
0.000243
0.000248
0.000540
0.000433
0.000478
0.000284
0.000259
0.000274
0.000416
0.000469
0.000352
0.000422
0.000583
0.000338
0.000237
0.000242
0.000272
0.000242
0.000262
0.001731
0.000327
0.000056
0.000252
0.000327
0.000210
0.000236
0.000254
0.000248
0.000247
0.000497
0.000371
0.000311
0.000295
0.000284
0.000348
0.000666
0.000314
0.000231
0.000246
0.000256
0.000249
0.000272
0.000262
0.000265
0.000248
0.000285
0.000278
0.000372
0.000420
0.000344
0.000233
0.000257
0.000187
0.000054
0.000449
0.000282
0.000483
0.000250
0.000201
0.000248
0.000244
0.000254
0.000248
0.000221
0.000248
0.000280
0.000292
0.000431
0.000471
0.000483
0.000292
0.000315
0.000393
0.000337
0.000306
0.000229
0.000242
0.000255
0.001755
0.000257
0.001719
0.000958
0.000424
0.000286
0.000153
0.000056
0.000199
0.000236
0.000228
0.000248
0.000255
0.000250
0.000252
0.000251
0.000252
0.000342
0.000383
0.000410
0.000304
0.000391
0.000247
0.000246
0.000254
0.000287
0.000229
0.000252
0.000250
0.000264
0.001811
0.000238
0.000253
0.000263
0.000279
0.000264
0.001868
0.000466
0.000320
0.000055
0.000239
0.000197
0.000250
0.000234
0.000258
0.000243
0.000247
0.000252
0.000256
0.000379
0.000569
0.000482
0.000239
0.000201
0.000235
0.000257
0.000333
0.000443
0.000372
0.000250
0.001767
0.000255
0.000249
0.000246
0.000262
0.000275
0.000234
0.000256
0.000334
0.000312
0.000387
0.000057
0.000210
0.000226
0.000233
0.000257
0.000247
0.000250
0.000253
0.000250
0.000244
0.000254
0.000243
0.000285
0.000378
0.000389
0.000338
0.000277
0.000462
0.000237
0.000245
0.000260
0.000254
0.000260
0.000277
0.000258
0.000277
0.001791
0.000248
0.000245
0.000262
0.000235
0.000202
0.000072
0.000232
0.000380
0.000238
0.000216
0.000238
0.000238
0.000239
0.000256
0.000245
0.000220
0.000238
0.000264
0.000249
0.000370
0.000463
0.000346
0.000241
0.000243
0.000242
0.000260
0.000265
0.000262
0.000248
0.000271
0.000246
0.000265
0.000303
0.001643
0.000270
0.000230
0.000186
0.000055
0.000210
0.000238
0.000250
0.000263
0.000349
0.000380
0.000417
0.000272
0.000220
0.000260
0.000251
0.000242
0.000248
0.000256
0.000263
0.000252
0.000246
0.000256
0.000253
0.000269
0.000264
0.000263
0.000256
0.000232
0.000245
0.000275
0.000275
0.000265
0.000254
0.000264
0.000190
0.000056
0.000185
0.000240
0.000255
0.000256
0.000237
0.000256
0.000239
0.000263
0.000283
0.000229
0.000252
0.000232
0.000253
0.000249
0.000269
0.000269
0.000248
0.000252
0.000300
0.000255
0.000266
0.000298
0.000272
0.000239
0.000287
0.000271
0.000269
0.000252
0.000280
0.000480
0.000569
0.000057
0.000222
0.000292
0.000224
0.000222
0.000232
0.000259
0.000242
0.000250
0.000251
0.000239
0.000272
0.000274
0.000507
0.000461
0.001544
0.000241
0.000501
0.000224
0.000274
0.000430
0.000432
0.000393
0.000223
0.000282
0.000249
0.000256
0.000283
0.000248
0.000312
0.000255
0.000188
0.000057
0.000318
0.000455
0.000325
0.000345
0.000199
0.000264
0.000252
0.000238
0.000238
0.000244
0.000258
0.000253
0.000227
0.000315
0.000337
0.000457
0.000417
0.001789
0.000231
0.000258
0.000381
0.000537
0.000251
0.000333
0.000320
0.000316
0.000305
0.000224
0.000236
0.000254
0.000187
0.000056
0.000210
0.000227
0.000240
0.000281
0.000460
0.000342
0.000353
0.000255
0.000253
0.000233
0.000227
0.000273
0.000263
0.000261
0.000251
0.000251
0.000416
0.000425
0.000327
0.000414
0.000236
0.001741
0.000333
0.000497
0.000529
0.000431
0.000333
0.000224
0.000260
0.000276
0.000428
0.000057
0.000203
0.000258
0.000229
0.000252
0.000517
0.000412
0.000369
0.000216
0.000246
0.000286
0.000265
0.000237
0.000254
0.000307
0.000301
0.000237
0.000247
0.000373
0.000421
0.000382
0.000494
0.001848
0.000246
0.000471
0.000467
0.000373
0.000221
0.000257
0.000278
0.000280
0.000195
0.000057
0.000222
0.000332
0.000359
0.000450
0.000275
0.000306
0.000354
0.000212
0.000240
0.000262
0.000278
0.000229
0.000249
0.000244
0.000249
0.000263
0.000339
0.000479
0.000381
0.000372
0.000299
0.000219
0.000272
0.001719
0.000480
0.000461
0.000684
0.000226
0.000262
0.000306
0.000165
0.000056
0.000203
0.000224
0.000325
0.000256
0.000261
0.000368
0.000428
0.000313
0.000237
0.000523
0.000239
0.000236
0.000263
0.000295
0.000259
0.000267
0.000206
0.000401
0.000388
0.000481
0.000264
0.000222
0.000260
0.000250
0.000260
0.000271
0.000237
0.000266
0.000253
0.000291
0.000199
0.000056
0.000304
0.000333
0.000241
0.000248
0.000250
0.000259
0.000244
0.000282
0.000249
0.000242
0.000260
0.000359
0.000440
0.000344
0.000404
0.000250
0.000214
0.000239
0.000260
0.000268
0.000298
0.000255
0.000231
0.000270
0.000269
0.000391
0.000345
0.000368
0.000351
0.000246
0.000168
0.000055
0.000199
0.000225
0.000281
0.000243
0.000235
0.000250
0.000265
0.000252
0.000488
0.000212
0.000259
0.000255
0.000248
0.000261
0.000273
0.000276
0.000260
0.000346
0.000227
0.000243
0.000281
0.000238
0.000260
0.000268
0.000273
0.000264
0.000258
0.000262
0.000518
0.000242
0.000145
0.000055
0.000198
0.000241
0.000249
0.000273
0.000211
0.000247
0.000368
0.000405
0.000239
0.000239
0.000246
0.000257
0.000237
0.000252
0.000478
0.001757
0.000233
0.000264
0.000288
0.000381
0.000365
0.000360
0.000362
0.000397
0.000397
0.000405
0.000239
0.000265
0.000262
0.000277
0.001398
0.000056
0.000431
0.000317
0.000222
0.000220
0.000234
0.000252
0.000236
0.000248
0.000241
0.000270
0.000244
0.000262
0.000251
0.000246
0.000618
0.001604
0.000231
0.000228
0.000246
0.000266
0.000239
0.000273
0.000329
0.000403
0.000312
0.000358
0.000219
0.000266
0.000268
0.000261
0.000202
0.000055
0.001222
0.000514
0.000356
0.000269
0.000227
0.000220
0.000235
0.000242
0.000482
0.000219
0.000245
0.000247
0.000345
0.000602
0.000315
0.000348
0.000263
0.000215
0.000338
0.000349
0.000273
0.000257
0.000275
0.000245
0.000259
0.000636
0.000465
0.000304
0.000250
0.000267
0.000168
0.000056
0.000213
0.000215
0.000246
0.000244
0.001475
0.000293
0.000229
0.000254
0.000258
0.000231
0.000252
0.000256
0.000241
0.000262
0.000269
0.000254
0.000456
0.000660
0.000267
0.001756
0.000264
0.000273
0.000308
0.000391
0.000569
0.000405
0.000242
0.000256
0.000255
0.000276
0.000198
0.000056
0.000212
0.000250
0.000240
0.000308
0.001266
0.000222
0.000263
0.000259
0.000261
0.000220
0.000233
0.000253
0.000274
0.000250
0.000257
0.000255
0.000594
0.000313
0.000326
0.000262
0.000271
0.000274
0.000254
0.000224
0.000296
0.000262
0.000234
0.000278
0.000269
0.000283
0.000716
0.000057
0.000220
0.000244
0.000239
0.000259
0.000261
0.000247
0.000233
0.000261
0.000267
0.000253
0.001444
0.000224
0.000234
0.000262
0.000236
0.000250
0.000266
0.000263
0.000260
0.000265
0.000278
0.000503
0.000508
0.000314
0.000228
0.000280
0.001764
0.000249
0.000260
0.000362
0.000398
0.000055
0.000226
0.000392
0.000453
0.000505
0.000512
0.000535
0.001506
0.000411
0.000522
0.000654
0.000554
0.000774
0.000430
0.000611
0.000582
0.001883
0.000406
0.000430
0.000405
0.000320
0.000223
0.000301
0.000258
0.000272
0.000251
0.000294
0.000290
0.000287
0.000259
0.000289
0.001368
0.000055
0.000219
0.000227
0.000255
0.000220
0.000259
0.000255
0.000239
0.000241
0.000254
0.000244
0.000243
0.000235
0.000258
0.000259
0.000261
0.000278
0.001813
0.000272
0.000249
0.000249
0.000260
0.000260
0.000265
0.000262
0.000423
0.000401
0.000359
0.000231
0.000267
0.000291
0.000198
0.000055
0.000207
0.001368
0.000315
0.000266
0.000254
0.000252
0.000238
0.000230
0.000234
0.000249
0.000209
0.000242
0.000259
0.000498
0.000364
0.000284
0.000265
0.000259
0.001924
0.000223
0.000255
0.000260
0.000254
0.000269
0.000273
0.000280
0.000267
0.000260
0.000265
0.000323
0.000199
0.000056
0.000187
0.000249
0.000251
0.001434
0.000221
0.000251
0.000255
0.000244
0.000235
0.000265
0.000248
0.000249
0.000243
0.000261
0.000251
0.000259
0.000267
0.000263
0.000266
0.000256
0.000268
0.001777
0.000271
0.001747
0.000263
0.000269
0.000250
0.000275
0.000266
0.000268
0.000208
0.000056
0.000198
0.000246
0.001348
0.000222
0.000265
0.000246
0.000251
0.000258
0.000237
0.000253
0.000243
0.000267
0.000246
0.000263
0.000261
0.000261
0.000259
0.000281
0.000298
0.000230
0.001888
0.000230
0.001836
0.000235
0.000248
0.000299
0.000216
0.000248
0.000269
0.000258
0.000199
0.000055
0.001430
0.000224
0.000235
0.000238
0.000239
0.000246
0.000359
0.000275
0.000255
0.000248
0.000253
0.000260
0.000265
0.000381
0.000360
0.000287
0.000239
0.000280
0.000247
0.000252
0.000268
0.000346
0.000222
0.000256
0.000274
0.000274
0.000270
0.000329
0.000698
0.000323
0.000192
0.000056
0.000227
0.000236
0.000260
0.000310
0.000375
0.000250
0.001664
0.000342
0.000273
0.000263
0.000257
0.000267
0.000272
0.000282
0.000283
0.000302
0.000487
0.000434
0.000379
0.000256
0.000307
0.000267
0.000268
0.000270
0.000316
0.000269
0.000257
0.000252
0.000258
0.000322
0.000453
0.000056
0.000241
0.000473
0.000264
0.000269
0.000243
0.000232
0.000223
0.000255
0.000250
0.000256
0.001521
0.000232
0.000230
0.000239
0.000252
0.000280
0.000263
0.000249
0.000272
0.000263
0.000256
0.000373
0.000580
0.000275
0.000270
0.000290
0.000265
0.000274
0.000226
0.000302
0.000175
0.000055
0.000192
0.000224
0.000263
0.000484
0.000408
0.000242
0.000222
0.000239
0.000274
0.000231
0.000254
0.000231
0.000259
0.000262
0.000241
0.000241
0.000496
0.001118
0.000242
0.000241
0.000293
0.000229
0.000361
0.000421
0.000253
0.000380
0.000518
0.000473
0.000238
0.000259
0.000174
0.000056
0.000211
0.000246
0.000263
0.000265
0.000256
0.000247
0.000413
0.000384
0.000369
0.000300
0.000365
0.000392
0.000393
0.000361
0.000262
0.000229
0.000244
0.000256
0.000352
0.000502
0.001279
0.000216
0.000281
0.000270
0.000240
0.000223
0.000272
0.000356
0.000371
0.000466
0.000231
0.000056
0.000203
0.000241
0.000252
0.000238
0.000249
0.000243
0.000259
0.000237
0.000318
0.000440
0.000363
0.000360
0.000238
0.000224
0.000262
0.000258
0.000243
0.000259
0.000264
0.000247
0.000444
0.000257
0.000414
0.000415
0.000275
0.000256
0.000264
0.000270
0.000252
0.000345
0.000150
0.000055
0.000311
0.000333
0.000274
0.000413
0.000415
0.000355
0.000264
0.000242
0.000245
0.000277
0.000255
0.000263
0.000232
0.000255
0.000242
0.000261
0.000239
0.000351
0.000452
0.000390
0.000236
0.000267
0.000249
0.000237
0.000268
0.000278
0.000262
0.000283
0.000270
0.000264
0.000307
0.000056
0.000274
0.000316
0.000231
0.000241
0.000251
0.000242
0.000249
0.000254
0.000262
0.000261
0.000252
0.000252
0.000265
0.000497
0.000435
0.000296
0.000264
0.000219
0.000259
0.000262
0.000259
0.000264
0.000259
0.000260
0.000279
0.000338
0.000368
0.000629
0.000401
0.000235
0.000177
0.000056
0.000371
0.000203
0.000228
0.000250
0.000247
0.000249
0.000244
0.000245
0.000254
0.000263
0.000220
0.000246
0.000274
0.000222
0.000240
0.000272
0.000250
0.000259
0.000282
0.000255
0.000264
0.000266
0.000256
0.000268
0.000269
0.000233
0.000270
0.000276
0.000256
0.000279
0.000191
0.000056
0.000189
0.000238
0.000247
0.000253
0.000223
0.000274
0.000244
0.000246
0.000255
0.000275
0.000225
0.000237
0.000263
0.000394
0.000256
0.000275
0.000268
0.000263
0.000255
0.000280
0.000288
0.000215
0.000252
0.000252
0.000273
0.000270
0.000248
0.000249
0.000274
0.000264
0.000200
0.000055
0.000213
0.000357
0.000371
0.000282
0.000289
0.000261
0.000263
0.000260
0.000224
0.000244
0.000249
0.000263
0.000251
0.000234
0.000259
0.000259
0.000265
0.000270
0.000239
0.000268
0.000276
0.000263
0.000280
0.000254
0.000270
0.000246
0.000265
0.000267
0.000269
0.000260
0.000194
0.000055
0.000201
0.000219
0.000272
0.000261
0.000490
0.000213
0.000206
0.000248
0.000257
0.000512
0.000455
0.000275
0.000226
0.000253
0.000267
0.000285
0.000218
0.000275
0.000260
0.000264
0.000263
0.000264
0.000256
0.000246
0.000601
0.000472
0.000255
0.000308
0.000280
0.000243
0.000186
0.000056
0.000222
0.000220
0.000244
0.000256
0.000256
0.000734
0.000303
0.000382
0.000214
0.000234
0.000256
0.000247
0.000250
0.000258
0.000255
0.000270
0.000255
0.000258
0.000623
0.000404
0.000287
0.000246
0.000262
0.000294
0.000266
0.000253
0.000261
0.000276
0.000244
0.000332
0.000340
0.000056
0.000251
0.000236
0.000238
0.000247
0.000242
0.000265
0.000217
0.000245
0.000245
0.000261
0.000245
0.000253
0.000261
0.000371
0.000623
0.000357
0.000225
0.000255
0.000261
0.000247
0.000266
0.000271
0.000488
0.000233
0.000252
0.000563
0.000436
0.000495
0.000255
0.000256
0.000186
0.000056
0.000199
0.000226
0.000248
0.000240
0.000256
0.000259
0.000287
0.000533
0.000500
0.000422
0.000223
0.000261
0.000285
0.000269
0.000250
0.000249
0.000249
0.000239
0.000257
0.000320
0.000408
0.000657
0.000359
0.000254
0.000384
0.000361
0.000471
0.000249
0.000268
0.000409
0.000409
0.000056
0.000268
0.000231
0.000441
0.000225
0.000235
0.000246
0.000258
0.000263
0.000234
0.000241
0.000262
0.000410
0.000406
0.000297
0.000226
0.000247
0.000263
0.000246
0.000270
0.000274
0.000278
0.000249
0.000255
0.000272
0.000365
0.000418
0.000504
0.000228
0.000259
0.000271
0.000209
0.000056
0.000227
0.000254
0.000223
0.000249
0.000246
0.000270
0.000335
0.000486
0.000366
0.000281
0.000369
0.000234
0.000242
0.000264
0.000255
0.000234
0.000256
0.000265
0.000278
0.000413
0.000507
0.000318
0.000459
0.000279
0.000387
0.000442
0.000363
0.000241
0.000248
0.000336
0.000332
0.000057
0.000221
0.000276
0.000221
0.000255
0.000262
0.000249
0.000256
0.000263
0.000230
0.000257
0.000252
0.000388
0.000448
0.000339
0.000379
0.000221
0.000262
0.000270
0.000263
0.000236
0.000251
0.000258
0.000261
0.000274
0.000301
0.000298
0.000490
0.000486
0.000251
0.000264
0.000193
0.000056
0.000212
0.000239
0.000272
0.000236
0.000261
0.000336
0.000603
0.000370
0.000362
0.000681
0.000267
0.000217
0.000246
0.000259
0.000261
0.000250
0.000280
0.000269
0.000488
0.000429
0.001494
0.000322
0.000244
0.000263
0.000291
0.000263
0.000341
0.000472
0.000326
0.000356
0.000161
0.000056
0.000220
0.000229
0.000245
0.000244
0.000245
0.000260
0.000270
0.000249
0.000246
0.000342
0.000322
0.000385
0.000268
0.000340
0.000392
0.000335
0.000245
0.000248
0.000289
0.000245
0.000239
0.000256
0.000282
0.000247
0.000314
0.000437
0.000427
0.000307
0.000252
0.000257
0.000188
0.000056
0.000250
0.000227
0.000255
0.000255
0.000241
0.000240
0.000470
0.000215
0.000229
0.000258
0.000244
0.000253
0.000253
0.000260
0.000247
0.000274
0.000260
0.000264
0.000279
0.000250
0.000261
0.000336
0.000249
0.000243
0.000260
0.000280
0.000271
0.000267
0.000261
0.000274
0.000162
0.000056
0.000231
0.000246
0.000274
0.000445
0.000381
0.000259
0.000228
0.000246
0.000260
0.000247
0.000247
0.000257
0.000267
0.000274
0.000222
0.000249
0.000245
0.000267
0.000284
0.000332
0.000506
0.000344
0.000223
0.000261
0.000267
0.000253
0.000268
0.000272
0.000251
0.000278
0.000199
0.000056
0.000371
0.000429
0.000390
0.000200
0.000257
0.000253
0.000407
0.000229
0.000228
0.000256
0.000258
0.000291
0.000347
0.000430
0.001876
0.000250
0.000249
0.000250
0.000276
0.000244
0.000387
0.000456
0.000580
0.000273
0.000222
0.000267
0.000274
0.000429
0.000273
0.000289
0.000154
0.000055
0.000226
0.000365
0.000326
0.000320
0.000500
0.000202
0.000242
0.000247
0.000255
0.000237
0.000265
0.000261
0.000243
0.000337
0.000483
0.000382
0.000220
0.000250
0.000259
0.000258
0.000263
0.000323
0.000226
0.000288
0.000279
0.000466
0.000533
0.000326
0.000495
0.000222
0.000202
0.000055
0.000210
0.000227
0.000255
0.000230
0.000257
0.000244
0.000271
0.000267
0.000353
0.000360
0.000444
0.000345
0.000221
0.000250
0.000271
0.000278
0.000300
0.000242
0.000273
0.000306
0.000208
0.000354
0.000435
0.000357
0.000297
0.000253
0.000259
0.000426
0.000416
0.000326
0.000162
0.000056
0.000223
0.000292
0.000264
0.000459
0.000349
0.000213
0.000233
0.000254
0.000264
0.000248
0.000269
0.000250
0.000226
0.000260
0.000260
0.000302
0.000380
0.000363
0.000301
0.000342
0.000491
0.000226
0.000277
0.000276
0.000310
0.000273
0.000260
0.000290
0.000472
0.000510
0.000187
0.000056
0.000200
0.000227
0.000252
0.000247
0.000244
0.000484
0.000220
0.000251
0.000274
0.000314
0.000476
0.000606
0.000205
0.000238
0.000245
0.000254
0.000257
0.000250
0.000254
0.000251
0.000261
0.000270
0.000317
0.000477
0.000348
0.000403
0.000300
0.000305
0.000314
0.000246
0.000185
0.000055
0.000197
0.000239
0.000253
0.000489
0.000328
0.000284
0.000280
0.000216
0.000240
0.000258
0.000256
0.000244
0.000254
0.000256
0.000256
0.000257
0.000257
0.000242
0.000257
0.000382
0.000525
0.000393
0.000233
0.000238
0.000283
0.000281
0.000253
0.000258
0.000267
0.000257
0.000202
0.000072
0.000224
0.000422
0.000447
0.000248
0.000206
0.000258
0.000328
0.000453
0.000283
0.000219
0.000247
0.000264
0.000314
0.000416
0.000410
0.000298
0.000222
0.000241
0.000249
0.000263
0.000269
0.000267
0.000255
0.000276
0.000258
0.000276
0.000452
0.000369
0.000341
0.000242
0.000174
0.000055
0.000214
0.000235
0.000249
0.000250
0.000256
0.000262
0.000231
0.000256
0.000248
0.000276
0.000240
0.000238
0.000263
0.001463
0.000210
0.000263
0.000265
0.000244
0.000275
0.000278
0.000264
0.000235
0.000277
0.000253
0.000266
0.000269
0.000270
0.000271
0.000257
0.000270
0.000199
0.000056
0.000217
0.000231
0.000257
0.000246
0.000238
0.000243
0.000259
0.000257
0.000231
0.000251
0.000245
0.000260
0.000258
0.000255
0.000253
0.000260
0.000242
0.000267
0.000269
0.000251
0.000254
0.000265
0.000254
0.000240
0.001298
0.000273
0.000552
0.000394
0.000392
0.000249
0.000191
0.000057
0.000199
0.000233
0.000245
0.000253
0.000419
0.000236
0.000238
0.000242
0.000252
0.000317
0.000492
0.000345
0.000231
0.000233
0.000261
0.000260
0.000257
0.000265
0.000249
0.000261
0.000255
0.000263
0.000317
0.000354
0.000522
0.000448
0.000225
0.000263
0.001369
0.000237
0.000189
0.000055
0.000346
0.000409
0.000319
0.000273
0.000217
0.000242
0.000222
0.000253
0.000257
0.000252
0.000251
0.000262
0.000268
0.000399
0.000487
0.000300
0.000382
0.000205
0.000243
0.000264
0.000264
0.000262
0.000269
0.000270
0.000263
0.000260
0.000394
0.000502
0.000344
0.000402
0.000140
0.000055
0.000200
0.000236
0.001266
0.000440
0.000389
0.000374
0.000350
0.000490
0.000278
0.000336
0.000225
0.000232
0.000255
0.000257
0.000250
0.000264
0.000367
0.000513
0.000383
0.000342
0.000254
0.000246
0.000263
0.000511
0.000228
0.000260
0.000257
0.000277
0.000318
0.000546
0.000281
0.000055
0.000390
0.000307
0.000240
0.000222
0.001626
0.000383
0.000325
0.000243
0.000239
0.000270
0.000208
0.000241
0.000249
0.000268
0.000247
0.000259
0.000235
0.000283
0.000404
0.000390
0.000446
0.000244
0.000248
0.000271
0.000244
0.000281
0.000264
0.000245
0.000262
0.000271
0.000217
0.000058
0.000354
0.000353
0.000218
0.000231
0.000253
0.000244
0.000255
0.000240
0.000246
0.000220
0.001479
0.000403
0.000267
0.000244
0.000236
0.000253
0.000279
0.000256
0.000239
0.000275
0.000265
0.000255
0.000259
0.000483
0.000368
0.000442
0.000233
0.000264
0.000274
0.000305
0.000153
0.000056
0.000204
0.000417
0.000231
0.000231
0.000338
0.000453
0.000348
0.000342
0.000459
0.000198
0.000235
0.000255
0.000260
0.000264
0.000262
0.001426
0.000345
0.000284
0.000245
0.000275
0.000273
0.000277
0.000232
0.000256
0.000260
0.000265
0.000492
0.000405
0.000296
0.000279
0.000148
0.000055
0.000209
0.000229
0.000255
0.000259
0.000206
0.000264
0.000239
0.000244
0.000289
0.000345
0.000480
0.000272
0.000250
0.000247
0.000239
0.000287
0.000260
0.000266
0.000268
0.000224
0.000252
0.000327
0.001249
0.000259
0.000253
0.000240
0.000263
0.000268
0.000266
0.000282
0.000160
0.000056
0.000209
0.000353
0.000340
0.000359
0.000245
0.000245
0.000252
0.000264
0.000255
0.000247
0.000270
0.000259
0.000244
0.000251
0.000259
0.000259
0.000265
0.000272
0.000263
0.000252
0.000248
0.000270
0.000267
0.000281
0.000288
0.000269
0.000266
0.000254
0.000264
0.000447
0.001363
0.000056
0.000227
0.000230
0.000235
0.000246
0.000253
0.000256
0.000257
0.000216
0.000248
0.000249
0.000287
0.000243
0.000252
0.000242
0.000252
0.000263
0.001719
0.000237
0.000244
0.000269
0.000242
0.000259
0.000276
0.000256
0.000275
0.000258
0.000265
0.000275
0.000274
0.000256
0.000218
0.000057
0.000334
0.000334
0.001293
0.000228
0.000224
0.000251
0.000256
0.000252
0.000263
0.000256
0.000229
0.000331
0.000410
0.000435
0.000294
0.000223
0.000244
0.000254
0.000254
0.000274
0.000241
0.000259
0.000275
0.000287
0.000262
0.000384
0.000375
0.000370
0.000309
0.000242
0.000190
0.000056
0.000204
0.000254
0.000242
0.000246
0.000261
0.000217
0.000242
0.000312
0.000367
0.001340
0.000264
0.000212
0.000239
0.000272
0.000267
0.000260
0.000260
0.000254
0.000296
0.000487
0.000359
0.000221
0.000249
0.000236
0.000286
0.000274
0.000269
0.000295
0.000272
0.000274
0.000198
0.000059
0.000262
0.000387
0.000406
0.000218
0.000228
0.000240
0.000242
0.000279
0.000262
0.000250
0.000231
0.000249
0.000456
0.000592
0.000368
0.001463
0.000248
0.000283
0.000320
0.000358
0.000498
0.000397
0.000554
0.000311
0.000225
0.000264
0.000269
0.000267
0.000267
0.000275
0.000191
0.000055
0.000225
0.000319
0.000396
0.000501
0.000313
0.000236
0.000245
0.000224
0.000258
0.000256
0.000252
0.000265
0.000257
0.000248
0.000273
0.000314
0.000340
0.000457
0.000334
0.001326
0.000264
0.000258
0.000257
0.000256
0.000487
0.000414
0.000372
0.000269
0.000271
0.000270
0.000190
0.000056
0.000192
0.000248
0.000239
0.000242
0.000252
0.000271
0.000614
0.000254
0.000349
0.000207
0.000262
0.000247
0.000267
0.000259
0.000264
0.000263
0.000260
0.000255
0.000272
0.000402
0.000351
0.000417
0.000324
0.001356
0.000401
0.000237
0.000278
0.000417
0.000438
0.000350
0.000314
0.000056
0.000184
0.000241
0.000251
0.000247
0.000246
0.000257
0.001693
0.000236
0.000211
0.000243
0.000257
0.000247
0.000256
0.000322
0.000330
0.000293
0.000272
0.000273
0.000617
0.000311
0.000310
0.000284
0.000229
0.000238
0.001510
0.000351
0.000405
0.000463
0.000345
0.000280
0.000159
0.000056
0.000207
0.000246
0.000256
0.000255
0.000243
0.000260
0.001707
0.000235
0.000243
0.000265
0.000332
0.000408
0.001444
0.000355
0.000401
0.000240
0.000257
0.000237
0.000266
0.000267
0.001770
0.000388
0.000354
0.000289
0.000221
0.000256
0.000260
0.000281
0.000255
0.000241
0.000193
0.000055
0.000203
0.000247
0.000266
0.000243
0.000265
0.000278
0.000274
0.000262
0.000256
0.000246
0.000253
0.000248
0.000261
0.000267
0.000255
0.001495
0.000283
0.000232
0.000264
0.000275
0.000273
0.000264
0.000424
0.001272
0.000273
0.000237
0.000270
0.000256
0.000393
0.000262
0.000182
0.000056
0.000215
0.000257
0.000220
0.000242
0.000242
0.000229
0.000230
0.001697
0.000257
0.000224
0.000250
0.000376
0.000217
0.000227
0.000256
0.001392
0.000223
0.000281
0.000257
0.000250
0.000249
0.000358
0.000274
0.001319
0.000270
0.000244
0.000262
0.000263
0.001392
0.000278
0.000193
0.000056
0.000220
0.000343
0.000214
0.000246
0.000247
0.000241
0.000268
0.000266
0.000293
0.000216
0.000263
0.000275
0.000243
0.000245
0.000298
0.001512
0.000250
0.000271
0.000248
0.000254
0.000277
0.000271
0.000240
0.001512
0.000352
0.000229
0.000267
0.001280
0.000272
0.000236
0.000189
0.000056
0.000201
0.000409
0.000345
0.000205
0.000229
0.000244
0.000259
0.000264
0.000261
0.000274
0.000234
0.000253
0.000265
0.000244
0.000440
0.001221
0.000231
0.000258
0.000265
0.000282
0.000216
0.000249
0.000246
0.000372
0.001234
0.000264
0.000238
0.000262
0.001346
0.000344
0.000205
0.000055
0.000327
0.000241
0.000227
0.000229
0.000236
0.000254
0.000250
0.000264
0.000257
0.000257
0.000238
0.000247
0.000258
0.000303
0.000460
0.001445
0.000218
0.000254
0.000292
0.000516
0.000284
0.000414
0.001332
0.000281
0.000254
0.000270
0.000253
0.001309
0.000274
0.000540
0.000350
0.000055
0.000237
0.000246
0.000255
0.000258
0.000251
0.000253
0.000289
0.000231
0.000261
0.000264
0.000344
0.000427
0.001344
0.000235
0.000279
0.000260
0.000291
0.000212
0.000238
0.000256
0.000338
0.001232
0.000254
0.000252
0.000254
0.000245
0.001518
0.000385
0.000515
0.000222
0.000184
0.000059
0.000201
0.000227
0.000256
0.000240
0.000247
0.000264
0.000243
0.000291
0.000493
0.000398
0.000263
0.001486
0.000210
0.000250
0.000262
0.000271
0.000239
0.000286
0.001703
0.000251
0.000396
0.000334
0.001290
0.000348
0.000306
0.000325
0.000261
0.000250
0.000267
0.000269
0.000188
0.000056
0.000207
0.000235
0.000329
0.000264
0.000311
0.000515
0.000296
0.000294
0.001470
0.000241
0.000391
0.000252
0.000219
0.000322
0.000369
0.001329
0.000274
0.000245
0.000242
0.000261
0.001519
0.000372
0.000276
0.000322
0.000234
0.000233
0.000475
0.000355
0.000224
0.000236
0.000256
0.000056
0.000212
0.000374
0.000326
0.000268
0.000218
0.001517
0.000212
0.000259
0.000266
0.000286
0.000253
0.000239
0.000337
0.001450
0.000258
0.000230
0.000427
0.001201
0.000320
0.000453
0.000399
0.000244
0.000242
0.000252
0.000275
0.000247
0.000449
0.000228
0.000263
0.000286
0.000192
0.000056
0.000205
0.000293
0.000331
0.000338
0.001315
0.000279
0.000308
0.000231
0.000250
0.000245
0.000250
0.000297
0.001520
0.000247
0.000237
0.000252
0.001383
0.000347
0.000400
0.000371
0.000402
0.000229
0.000241
0.000256
0.000262
0.000279
0.000275
0.000274
0.000249
0.000253
0.000190
0.000055
0.000220
0.000392
0.001436
0.000211
0.000293
0.000256
0.000247
0.000245
0.000262
0.000371
0.001408
0.000215
0.000256
0.000258
0.000261
0.001314
0.000719
0.000244
0.000312
0.000407
0.000301
0.000240
0.000269
0.000251
0.000274
0.000302
0.000259
0.000286
0.000459
0.000424
0.001392
0.000055
0.000216
0.000255
0.000234
0.000241
0.000229
0.000409
0.000486
0.001300
0.000248
0.000238
0.000248
0.001445
0.000471
0.000284
0.000212
0.000408
0.000249
0.000245
0.000268
0.000280
0.000257
0.000263
0.000274
0.000253
0.000251
0.000315
0.000396
0.000506
0.001495
0.000227
0.000195
0.000055
0.000230
0.000242
0.000340
0.000595
0.001192
0.000276
0.000255
0.000257
0.000244
0.000255
0.000250
0.000275
0.000354
0.000481
0.000357
0.000229
0.000252
0.000276
0.000244
0.000272
0.000253
0.000270
0.000259
0.000263
0.000288
0.000336
0.000505
0.000357
0.000316
0.001426
0.000140
0.000056
0.000201
0.000244
0.000248
0.000500
0.000333
0.000300
0.000316
0.000335
0.000263
0.000261
0.000260
0.000258
0.000262
0.000303
0.000236
0.000266
0.000618
0.000286
0.000293
0.000381
0.000276
0.000405
0.000233
0.000242
0.000263
0.000259
0.000271
0.000274
0.000368
0.000489
0.000286
0.000056
0.000192
0.001400
0.000236
0.000337
0.000412
0.000388
0.000384
0.000338
0.000221
0.000233
0.000273
0.000245
0.000263
0.000275
0.000255
0.000261
0.000259
0.001367
0.000250
0.000252
0.000257
0.000274
0.000267
0.000280
0.000270
0.000253
0.000279
0.000244
0.000323
0.000439
0.000306
0.000057
0.000205
0.000254
0.000229
0.001500
0.000319
0.000232
0.000242
0.000239
0.000227
0.000242
0.000261
0.000268
0.000252
0.000252
0.000271
0.000249
0.000253
0.000266
0.000258
0.000259
0.001443
0.000226
0.000244
0.000274
0.000249
0.000254
0.000266
0.000263
0.000277
0.000490
0.000341
0.000055
0.000189
0.000272
0.000374
0.000266
0.000249
0.000250
0.001560
0.000371
0.000249
0.000215
0.000262
0.000306
0.000340
0.000230
0.000230
0.000249
0.000238
0.000268
0.000260
0.000257
0.000486
0.000492
0.001144
0.000270
0.000237
0.000251
0.000264
0.000262
0.000274
0.000259
0.000575
0.000056
0.000379
0.000208
0.000188
0.000247
0.000257
0.000232
0.000252
0.000224
0.000290
0.001599
0.000377
0.000306
0.000216
0.000251
0.000257
0.000254
0.000255
0.000271
0.000271
0.000304
0.000311
0.000539
0.000394
0.001377
0.000225
0.000260
0.000272
0.000261
0.000272
0.000303
0.000496
0.000056
0.000250
0.000229
0.000247
0.000226
0.000223
0.000244
0.000261
0.000254
0.000265
0.001573
0.000353
0.000255
0.000279
0.000243
0.000465
0.000263
0.000518
0.000383
0.000301
0.000305
0.000454
0.000477
0.001264
0.000260
0.000231
0.000263
0.001717
0.000446
0.000612
0.000315
0.000151
0.000055
0.000197
0.000231
0.000242
0.000231
0.000260
0.000239
0.000246
0.000576
0.000431
0.000424
0.000281
0.000226
0.000230
0.000264
0.000264
0.000271
0.000237
0.000263
0.000247
0.000273
0.000309
0.000357
0.001376
0.000217
0.000269
0.000256
0.001904
0.000384
0.000382
0.000341
0.000159
0.000056
0.000194
0.000232
0.000246
0.001572
0.000429
0.000206
0.000237
0.000263
0.000249
0.000284
0.000383
0.000366
0.000368
0.000267
0.000375
0.000435
0.000388
0.001216
0.000268
0.000240
0.000254
0.000255
0.000276
0.000403
0.000537
0.000544
0.000241
0.000292
0.000251
0.000277
0.000191
0.000055
0.000191
0.000242
0.000245
0.001542
0.000247
0.000234
0.000259
0.000236
0.000235
0.000261
0.000252
0.000268
0.000274
0.000268
0.000326
0.000323
0.000412
0.000335
0.001417
0.000233
0.000250
0.000257
0.000262
0.000259
0.000395
0.000418
0.000502
0.000268
0.000288
0.000246
0.000418
0.000057
0.000197
0.000245
0.000254
0.001525
0.000328
0.000211
0.000267
0.000255
0.000241
0.000261
0.000249
0.000258
0.000260
0.000251
0.000341
0.000678
0.001280
0.000754
0.000264
0.000334
0.000254
0.000227
0.000246
0.000269
0.001682
0.000816
0.000222
0.000268
0.000272
0.000281
0.000191
0.000056
0.000214
0.000233
0.000257
0.000241
0.000260
0.000243
0.000241
0.000256
0.000241
0.000229
0.000290
0.000281
0.000250
0.000254
0.000258
0.000249
0.000270
0.001610
0.000699
0.000414
0.000278
0.000227
0.000245
0.000280
0.000275
0.000254
0.000273
0.000258
0.001389
0.000426
0.000304
0.000056
0.000194
0.000230
0.000250
0.000248
0.000264
0.000234
0.000253
0.000253
0.000256
0.000256
0.000273
0.000427
0.000437
0.000334
0.000205
0.000249
0.000265
0.001398
0.000683
0.000467
0.000344
0.000276
0.000229
0.000247
0.000278
0.000249
0.000255
0.000270
0.001488
0.000444
0.000181
0.000055
0.000224
0.000223
0.000252
0.000248
0.000245
0.000248
0.000236
0.000265
0.000255
0.000285
0.000298
0.000481
0.000274
0.000219
0.000246
0.000242
0.000268
0.000249
0.001683
0.000526
0.000462
0.000314
0.000234
0.000251
0.000267
0.000261
0.000268
0.000280
0.000271
0.001353
0.000323
0.000055
0.000212
0.000219
0.000236
0.000253
0.000263
0.000241
0.000264
0.000294
0.000364
0.000458
0.000357
0.000411
0.000341
0.000201
0.000249
0.000253
0.000275
0.000263
0.000263
0.001957
0.000299
0.000235
0.000439
0.000256
0.000246
0.000261
0.000264
0.000262
0.000272
0.000270
0.000410
0.000057
0.000174
0.000298
0.000227
0.000236
0.000253
0.000254
0.000220
0.000240
0.000272
0.000253
0.000242
0.000238
0.000361
0.000392
0.000481
0.000416
0.000218
0.000256
0.000253
0.000254
0.000256
0.000286
0.001470
0.001068
0.000208
0.000247
0.000273
0.000259
0.000284
0.000254
0.000194
0.000055
0.000196
0.001349
0.000289
0.000209
0.000238
0.000252
0.000256
0.000236
0.000242
0.000248
0.000257
0.000263
0.000241
0.000426
0.000351
0.000365
0.000339
0.000248
0.000264
0.000266
0.000269
0.000230
0.000264
0.000263
0.001342
0.000669
0.000307
0.000381
0.000378
0.000400
0.000298
0.000055
0.000197
0.000400
0.000219
0.001300
0.000209
0.000257
0.000229
0.000260
0.000249
0.000262
0.000246
0.000249
0.000253
0.000347
0.000580
0.000313
0.000218
0.000334
0.000282
0.000207
0.000251
0.000277
0.000230
0.000276
0.000286
0.001512
0.000749
0.000292
0.000284
0.000271
0.000183
0.000055
0.000215
0.000356
0.000362
0.000323
0.001303
0.000264
0.000220
0.000230
0.000238
0.000247
0.000248
0.000256
0.000233
0.000237
0.000256
0.000257
0.000270
0.000246
0.000243
0.000259
0.000262
0.000270
0.000310
0.000333
0.000211
0.000266
0.000266
0.001457
0.000258
0.000243
0.000170
0.000055
0.000195
0.000234
0.000256
0.000273
0.000343
0.000379
0.000391
0.000269
0.001580
0.000240
0.000310
0.000573
0.000255
0.000225
0.000428
0.000243
0.000225
0.000287
0.000259
0.000264
0.000282
0.000266
0.000261
0.000270
0.000252
0.000392
0.000406
0.000324
0.001593
0.000217
0.000196
0.000055
0.000222
0.000247
0.000249
0.000244
0.000244
0.000247
0.000249
0.000277
0.000434
0.002036
0.000244
0.000233
0.000255
0.000277
0.000244
0.000256
0.000280
0.000241
0.000321
0.000377
0.000344
0.000488
0.001461
0.000232
0.000532
0.000230
0.001767
0.000240
0.000264
0.001531
0.000143
0.000057
0.000301
0.000456
0.000453
0.000238
0.000265
0.000223
0.000259
0.000271
0.000274
0.000211
0.000256
0.000333
0.000429
0.000333
0.000474
0.000206
0.000228
0.001566
0.000226
0.000602
0.001858
0.000298
0.000223
0.001614
0.001953
0.000745
0.000276
0.000254
0.000275
0.000529
0.000324
0.000056
0.000192
0.000247
0.000244
0.000254
0.001439
0.002535
0.000256
0.000200
0.000233
0.001598
0.001963
0.000210
0.000242
0.000431
0.000320
0.000390
0.000361
0.000478
0.000207
0.000246
0.000247
0.000253
0.000277
0.001596
0.001205
0.001424
0.000294
0.000282
0.000251
0.000304
0.000356
0.000057
0.000159
0.000242
0.000236
0.000244
0.000231
0.000245
0.000245
0.000254
0.000259
0.000245
0.000259
0.000288
0.000421
0.000470
0.000308
0.000247
0.000248
0.000272
0.000270
0.000267
0.000253
0.000264
0.001536
0.000457
0.002102
0.000241
0.000267
0.000304
0.000465
0.000391
0.000205
0.000055
0.000240
0.000311
0.000495
0.000319
0.000197
0.000223
0.000252
0.000250
0.000236
0.000240
0.000246
0.000266
0.000263
0.001608
0.001357
0.001234
0.000271
0.000219
0.000251
0.000277
0.000304
0.000261
0.000243
0.000253
0.002195
0.000256
0.000250
0.000301
0.000326
0.000304
0.000255
0.000055
0.000221
0.000359
0.000550
0.000322
0.000236
0.000228
0.000248
0.000269
0.001906
0.001414
0.000223
0.000328
0.000385
0.000428
0.000252
0.000215
0.000258
0.000267
0.000267
0.000264
0.000265
0.000250
0.000478
0.000234
0.000272
0.000269
0.000250
0.000277
0.000280
0.000242
0.000206
0.000055
0.000213
0.000246
0.000248
0.000239
0.000256
0.000273
0.001549
0.001410
0.001331
0.000240
0.000223
0.000241
0.000267
0.000261
0.000243
0.000253
0.000250
0.002099
0.000265
0.000228
0.000268
0.000260
0.000263
0.000265
0.000263
0.000268
0.000256
0.000260
0.000270
0.000259
0.000175
0.000056
0.000199
0.002693
0.001388
0.000216
0.000305
0.000300
0.000230
0.000280
0.000244
0.000233
0.000257
0.000247
0.000235
0.000246
0.000269
0.000257
0.000271
0.000264
0.000256
0.000267
0.000266
0.000286
0.000270
0.000271
0.000243
0.000245
0.000268
0.000272
0.000257
0.000271
0.000363
0.000055
0.001556
0.000252
0.001246
0.000216
0.000230
0.000238
0.000266
0.000247
0.000246
0.000294
0.000406
0.000319
0.000370
0.000188
0.000252
0.002150
0.000246
0.000242
0.000449
0.000327
0.000376
0.000292
0.000231
0.000254
0.000268
0.000244
0.000268
0.000279
0.000271
0.001621
0.001247
0.000056
0.000197
0.000229
0.000311
0.000407
0.000343
0.000276
0.000215
0.000229
0.000253
0.000254
0.000265
0.000247
0.000226
0.000257
0.000264
0.000236
0.000301
0.000635
0.000369
0.000254
0.000214
0.000275
0.000280
0.000253
0.000252
0.000244
0.000263
0.000279
0.000239
0.000364
0.000336
0.000058
0.001109
0.000270
0.000348
0.000435
0.000263
0.000234
0.000222
0.000240
0.000251
0.002319
0.000345
0.000392
0.000220
0.000364
0.000286
0.000264
0.000255
0.000260
0.000265
0.000224
0.000260
0.000373
0.000488
0.000485
0.001862
0.001293
0.000537
0.000542
0.000221
0.000284
0.000196
0.000055
0.000235
0.000379
0.000233
0.000246
0.000243
0.000231
0.000254
0.000254
0.000251
0.000250
0.000260
0.000222
0.000242
0.000267
0.000399
0.000509
0.001831
0.001311
0.000514
0.000378
0.000479
0.000226
0.000233
0.000259
0.002135
0.000548
0.000399
0.000238
0.000260
0.000280
0.000195
0.000055
0.000210
0.000242
0.000259
0.000238
0.000251
0.000298
0.000475
0.000332
0.000262
0.000241
0.000238
0.000255
0.000259
0.002146
0.000304
0.000421
0.000210
0.000268
0.000248
0.000264
0.000252
0.002449
0.000343
0.000225
0.000266
0.000246
0.000255
0.000265
0.000285
0.000278
0.000200
0.000057
0.000198
0.000357
0.000624
0.000276
0.000262
0.000217
0.000233
0.000246
0.000267
0.000246
0.001968
0.000375
0.000279
0.000268
0.000262
0.000251
0.000270
0.000245
0.002200
0.000452
0.000218
0.000267
0.000267
0.000265
0.000257
0.000247
0.000283
0.000252
0.000268
0.000255
0.000184
0.000055
0.000213
0.000237
0.000254
0.000220
0.000244
0.000256
0.000242
0.000241
0.000230
0.002181
0.000231
0.000295
0.000203
0.000437
0.000230
0.000235
0.000281
0.000289
0.000243
0.000260
0.001970
0.000279
0.000343
0.000363
0.000434
0.000403
0.000303
0.000249
0.000251
0.000265
0.000193
0.000056
0.000202
0.000244
0.000233
0.000244
0.000251
0.000331
0.000212
0.002298
0.000251
0.000242
0.000255
0.000259
0.000238
0.000247
0.000304
0.002126
0.000593
0.000215
0.000259
0.000244
0.000261
0.000263
0.000285
0.000269
0.000255
0.000259
0.000289
0.000250
0.000268
0.000262
0.000191
0.000056
0.001831
0.001429
0.000198
0.000230
0.000243
0.000248
0.000253
0.000288
0.000386
0.000362
0.002159
0.000263
0.000234
0.000268
0.000262
0.000561
0.000375
0.000285
0.000218
0.000255
0.000256
0.000261
0.000269
0.000227
0.000254
0.000265
0.000270
0.000267
0.000362
0.000657
0.000287
0.000056
0.000197
0.000251
0.000256
0.000246
0.000272
0.000247
0.000253
0.000235
0.001469
0.002136
0.000588
0.000275
0.000413
0.000672
0.000353
0.000240
0.000253
0.000251
0.000265
0.000265
0.000254
0.000236
0.000271
0.001826
0.000328
0.001388
0.000278
0.000271
0.000283
0.000297
0.000636
0.000056
0.001941
0.000231
0.000217
0.000239
0.000277
0.000368
0.000464
0.000300
0.000287
0.000209
0.000240
0.000256
0.000259
0.000260
0.000271
0.000247
0.000252
0.000271
0.001844
0.000240
0.000229
0.000253
0.000272
0.000278
0.000275
0.000255
0.001476
0.000324
0.000243
0.000262
0.000174
0.000055
0.000205
0.000218
0.000247
0.000244
0.000251
0.000240
0.000288
0.000389
0.000335
0.000387
0.000208
0.000240
0.000260
0.000334
0.000422
0.000319
0.000220
0.000247
0.000264
0.000357
0.000444
0.000458
0.000263
0.000259
0.000256
0.000255
0.000255
0.000268
0.000276
0.000262
0.000198
0.000054
0.001465
0.000438
0.000206
0.001930
0.000276
0.000509
0.000352
0.000317
0.000228
0.000245
0.000267
0.000243
0.000242
0.000254
0.000266
0.000258
0.000448
0.000266
0.000421
0.000407
0.000335
0.000221
0.000255
0.000274
0.000267
0.000271
0.000264
0.000266
0.000378
0.000471
0.001355
0.000057
0.000204
0.000232
0.002064
0.000321
0.000304
0.000254
0.000260
0.000251
0.000262
0.000264
0.000210
0.000253
0.000253
0.000261
0.000297
0.000324
0.000716
0.001755
0.000229
0.000252
0.000249
0.000266
0.000404
0.000449
0.001546
0.000276
0.000363
0.001924
0.000262
0.000305
0.000143
0.000056
0.000214
0.000226
0.000233
0.000242
0.000231
0.000250
0.000250
0.000307
0.000306
0.000279
0.000375
0.000358
0.000348
0.000296
0.000232
0.000269
0.000268
0.000232
0.000272
0.000251
0.000301
0.000284
0.000265
0.000266
0.000262
0.001518
0.000284
0.000389
0.002066
0.000233
0.000198
0.000058
0.000177
0.000235
0.000244
0.000242
0.000484
0.000212
0.000250
0.000329
0.000371
0.000313
0.000311
0.000203
0.000286
0.000248
0.000269
0.000320
0.000394
0.000465
0.000255
0.000394
0.000553
0.000426
0.001585
0.000238
0.000241
0.001969
0.000363
0.000251
0.000224
0.000290
0.000188
0.000056
0.000183
0.000239
0.000227
0.000247
0.000246
0.000274
0.000249
0.000272
0.000252
0.000259
0.001813
0.000323
0.000376
0.000315
0.000430
0.000370
0.000354
0.001493
0.000239
0.000276
0.002189
0.000521
0.000248
0.000219
0.000270
0.000269
0.000500
0.000228
0.000252
0.000277
0.000194
0.000056
0.000179
0.000355
0.000417
0.000245
0.000217
0.000237
0.000253
0.000254
0.000278
0.000284
0.000227
0.000248
0.000255
0.000260
0.000518
0.001351
0.000309
0.000206
0.000400
0.001930
0.000236
0.000291
0.000232
0.000266
0.000245
0.000283
0.000267
0.000259
0.000251
0.000264
0.000203
0.000056
0.000230
0.000505
0.001956
0.000243
0.000255
0.000216
0.000258
0.000326
0.000442
0.000394
0.001312
0.000375
0.002106
0.000326
0.000207
0.000243
0.000267
0.000276
0.000257
0.000242
0.000284
0.000294
0.000260
0.000306
0.000555
0.000329
0.000330
0.002225
0.000569
0.000384
0.000407
0.000056
0.000198
0.000227
0.000239
0.001967
0.000237
0.000221
0.000244
0.000242
0.000242
0.000259
0.000258
0.000245
0.000246
0.000273
0.000455
0.001472
0.000249
0.000239
0.000267
0.000258
0.000236
0.000254
0.000261
0.000278
0.000371
0.000456
0.000423
0.000229
0.001596
0.000294
0.000154
0.000056
0.000202
0.000244
0.000230
0.000234
0.000250
0.000254
0.000252
0.000245
0.000258
0.000371
0.000362
0.001426
0.000242
0.000211
0.000248
0.000263
0.000256
0.000256
0.000518
0.000265
0.000419
0.000429
0.000219
0.001587
0.000219
0.000261
0.000286
0.000280
0.000263
0.000271
0.000189
0.000055
0.000216
0.000237
0.000248
0.000268
0.000244
0.000244
0.000239
0.000240
0.000259
0.000240
0.000253
0.000256
0.000258
0.001482
0.000366
0.000204
0.000272
0.000244
0.000280
0.000308
0.000375
0.000266
0.000247
0.000261
0.000266
0.000265
0.000252
0.001407
0.000286
0.000237
0.000174
0.000055
0.000183
0.000237
0.000260
0.000265
0.000250
0.000233
0.000274
0.000236
0.000227
0.000260
0.000244
0.000260
0.000228
0.000305
0.000366
0.000375
0.000261
0.000232
0.001631
0.000245
0.000234
0.000265
0.000264
0.000295
0.000405
0.000348
0.000457
0.000266
0.000249
0.001607
0.000171
0.000056
0.000167
0.000367
0.000344
0.000291
0.000242
0.000218
0.000244
0.000274
0.000250
0.000237
0.000248
0.000237
0.001504
0.000238
0.000326
0.000216
0.000254
0.000251
0.000269
0.000267
0.000253
0.000237
0.000257
0.000276
0.000325
0.000308
0.000408
0.000392
0.000282
0.000249
0.000196
0.000057
0.000205
0.000266
0.000373
0.000371
0.000376
0.000286
0.000239
0.000251
0.000252
0.000260
0.000240
0.000227
0.000255
0.000242
0.001262
0.000309
0.000227
0.000253
0.000264
0.000269
0.000237
0.000265
0.000251
0.000260
0.000260
0.000255
0.000288
0.000665
0.000498
0.000249
0.000161
0.000055
0.000205
0.001565
0.000248
0.000484
0.000300
0.000388
0.000206
0.000256
0.000267
0.000251
0.000239
0.000267
0.000275
0.000265
0.000259
0.001527
0.000251
0.000285
0.000266
0.000257
0.000255
0.000249
0.000267
0.000262
0.000262
0.000261
0.000435
0.000371
0.000358
0.000249
0.000173
0.000055
0.000195
0.000250
0.000237
0.001626
0.000411
0.000349
0.000222
0.000240
0.000261
0.000263
0.000282
0.000255
0.000245
0.000263
0.000248
0.000253
0.000384
0.001341
0.000238
0.000244
0.001519
0.000337
0.000566
0.000352
0.000349
0.000228
0.000270
0.000474
0.000228
0.000257
0.000186
0.000055
0.000259
0.000221
0.000246
0.000243
0.000251
0.000256
0.000238
0.000254
0.000261
0.000233
0.000255
0.000262
0.000350
0.000505
0.001625
0.001493
0.000469
0.000399
0.000377
0.000201
0.000237
0.000258
0.000250
0.000262
0.000247
0.000272
0.000254
0.000275
0.001520
0.000336
0.000168
0.000055
0.000227
0.000355
0.000353
0.000330
0.000233
0.000229
0.000240
0.000341
0.000455
0.000364
0.002169
0.000322
0.000801
0.000396
0.000467
0.000262
0.000331
0.000402
0.000323
0.000278
0.000389
0.000246
0.001563
0.000526
0.000219
0.000253
0.000264
0.000252
0.000258
0.000271
0.000187
0.000056
0.000209
0.000253
0.000258
0.000247
0.000247
0.001664
0.000871
0.001009
0.000204
0.000231
0.000260
0.000261
0.000255
0.000260
0.000252
0.000249
0.000257
0.000263
0.000270
0.000278
0.001455
0.000294
0.000251
0.000228
0.000228
0.000267
0.000255
0.000283
0.000262
0.000282
0.001912
0.000058
0.000188
0.000228
0.001554
0.000922
0.000327
0.000341
0.000233
0.000235
0.000252
0.000260
0.000242
0.000253
0.000244
0.001984
0.000485
0.000212
0.000240
0.000257
0.000273
0.000260
0.000188
