0.000242
0.020731
0.000885
0.000315
0.000220
0.000250
0.000304
0.000246
0.000328
0.000288
0.000250
0.000378
0.000502
0.000524
0.000341
0.000324
0.000290
0.000378
0.000393
0.000412
0.000309
0.001869
0.000487
0.000438
0.000261
0.000294
0.000312
0.000411
0.000416
0.000365
0.000507
0.000271
0.000057
0.000206
0.000238
0.000266
0.000263
0.000270
0.000260
0.000290
0.000237
0.000280
0.000302
0.000415
0.000467
0.000301
0.000283
0.000398
0.000364
0.000346
0.000248
0.000212
0.001742
0.000289
0.000216
0.000513
0.000254
0.000235
0.000250
0.000284
0.000290
0.000288
0.000307
0.000448
0.000056
0.000189
0.000219
0.000261
0.000262
0.000247
0.000250
0.000264
0.000257
0.000284
0.001668
0.000239
0.000237
0.000253
0.000272
0.000279
0.000249
0.000272
0.000248
0.000347
0.001802
0.000267
0.000248
0.000481
0.000444
0.000376
0.000244
0.000238
0.000517
0.000531
0.000737
0.000165
0.000056
0.000221
0.000219
0.000254
0.000243
0.000310
0.000260
0.000316
0.000544
0.000438
0.000266
0.000209
0.000210
0.000238
0.000264
0.000248
0.000264
0.000232
0.000277
0.000289
0.000345
0.001726
0.000245
0.000240
0.000525
0.000253
0.000658
0.000602
0.000532
0.000347
0.000248
0.000216
0.000056
0.000189
0.000225
0.000259
0.000243
0.000257
0.000253
0.000261
0.000520
0.001425
0.000245
0.000231
0.000227
0.000260
0.000254
0.000269
0.000283
0.000281
0.000829
0.001351
0.000284
0.000255
0.000444
0.000245
0.000243
0.000242
0.000257
0.000269
0.000262
0.000275
0.000261
0.000212
0.000056
0.000237
0.000209
0.000228
0.000241
0.000256
0.000245
0.000241
0.000251
0.000243
0.000248
0.001716
0.000223
0.000234
0.000230
0.000237
0.000249
0.000233
0.000247
0.000253
0.000262
0.000259
0.001755
0.000238
0.000256
0.000460
0.000243
0.000236
0.000240
0.000259
0.000260
0.000218
0.000055
0.000192
0.000206
0.000251
0.000241
0.000241
0.000249
0.000259
0.000241
0.000256
0.000240
0.000282
0.000243
0.000269
0.000268
0.001637
0.000287
0.000281
0.000230
0.000240
0.000273
0.000276
0.000234
0.000266
0.000255
0.000260
0.001842
0.000398
0.000347
0.000276
0.000264
0.000224
0.000056
0.000206
0.000201
0.000242
0.000271
0.000280
0.000212
0.000377
0.000302
0.000502
0.000368
0.000220
0.000232
0.000250
0.000255
0.001637
0.000522
0.000299
0.000404
0.000295
0.000219
0.000256
0.000282
0.000276
0.001815
0.000428
0.000536
0.000239
0.000210
0.000221
0.000271
0.000205
0.000057
0.000192
0.000228
0.000247
0.000246
0.000311
0.000475
0.000415
0.000262
0.000207
0.000229
0.000260
0.000238
0.000266
0.001728
0.000442
0.000323
0.000223
0.000243
0.000270
0.000278
0.000261
0.000261
0.000266
0.001904
0.000302
0.000389
0.000256
0.000236
0.000307
0.000402
0.000319
0.000055
0.000210
0.000375
0.000353
0.000275
0.000285
0.000204
0.000249
0.000254
0.000249
0.000241
0.000227
0.000242
0.001628
0.000317
0.000319
0.000218
0.000225
0.000251
0.000242
0.000280
0.000273
0.000346
0.001782
0.000350
0.000226
0.000505
0.000216
0.000221
0.000252
0.000271
0.000288
0.000057
0.000379
0.000489
0.000669
0.000199
0.000197
0.000269
0.000233
0.000231
0.000257
0.000245
0.000257
0.001701
0.000279
0.000399
0.000385
0.000219
0.000243
0.000219
0.000246
0.000266
0.000253
0.001865
0.000245
0.000228
0.002249
0.000443
0.000256
0.000266
0.000253
0.000262
0.000207
0.000056
0.000203
0.000213
0.000255
0.000246
0.000246
0.001702
0.000203
0.000206
0.000248
0.000256
0.000243
0.000246
0.000248
0.000251
0.000272
0.000413
0.000655
0.000250
0.000217
0.000260
0.000277
0.000248
0.000235
0.000501
0.000433
0.000248
0.000419
0.000470
0.000486
0.000222
0.000180
0.000057
0.000175
0.000206
0.000257
0.000247
0.000244
0.000233
0.000243
0.000479
0.000431
0.001615
0.000262
0.000223
0.000233
0.000249
0.000278
0.000248
0.000393
0.000579
0.000373
0.000234
0.000225
0.000256
0.000304
0.000292
0.000274
0.000405
0.000425
0.000576
0.000414
0.000500
0.000137
0.000057
0.000188
0.000244
0.000237
0.000226
0.000229
0.000234
0.000250
0.000240
0.000256
0.000366
0.000337
0.001566
0.000274
0.000213
0.000207
0.000209
0.000272
0.000241
0.000246
0.000250
0.000297
0.000458
0.000384
0.000338
0.000219
0.000234
0.000271
0.000255
0.000274
0.000267
0.000428
0.000057
0.000197
0.000226
0.000228
0.000281
0.000508
0.000437
0.000306
0.000199
0.000228
0.000262
0.000243
0.000246
0.000279
0.000266
0.000231
0.000575
0.000419
0.001557
0.000268
0.000240
0.000254
0.000264
0.000262
0.000246
0.000248
0.000463
0.000468
0.000389
0.000376
0.000228
0.000208
0.000056
0.000210
0.000229
0.000399
0.000242
0.000252
0.000246
0.000282
0.000608
0.000325
0.000308
0.000228
0.000262
0.000258
0.000258
0.000581
0.000295
0.000216
0.000232
0.000658
0.001461
0.000238
0.000216
0.000325
0.000414
0.000270
0.000295
0.000259
0.000275
0.000616
0.000395
0.000265
0.000058
0.000202
0.000217
0.000235
0.000240
0.000480
0.000257
0.000291
0.000216
0.000403
0.000599
0.000363
0.000200
0.000197
0.000213
0.000254
0.000275
0.000252
0.000258
0.000225
0.000368
0.000276
0.000690
0.001485
0.000257
0.000250
0.000244
0.000306
0.000368
0.000694
0.000448
0.000412
0.000080
0.000238
0.000315
0.000312
0.000423
0.000324
0.000209
0.000250
0.000275
0.000610
0.000333
0.000331
0.000197
0.000221
0.000264
0.000271
0.000234
0.000246
0.000277
0.000264
0.000258
0.000270
0.000396
0.001780
0.000314
0.000339
0.000421
0.000379
0.000239
0.000415
0.000399
0.000339
0.000056
0.000239
0.000383
0.000286
0.000203
0.000231
0.000211
0.000477
0.000216
0.000216
0.000400
0.000341
0.000410
0.000304
0.000268
0.000258
0.000269
0.000371
0.000443
0.000303
0.000208
0.000224
0.000316
0.000682
0.001697
0.000255
0.000404
0.000322
0.000245
0.000254
0.000463
0.000291
0.000056
0.000204
0.000181
0.000241
0.000260
0.000235
0.000253
0.000249
0.000345
0.000445
0.000336
0.000443
0.000389
0.000285
0.000195
0.000526
0.000266
0.000265
0.000270
0.000239
0.000351
0.000231
0.000229
0.000267
0.000373
0.000685
0.001572
0.000244
0.000231
0.000239
0.000252
0.000200
0.000056
0.000283
0.000462
0.000383
0.000206
0.000244
0.000219
0.000265
0.000240
0.000251
0.000250
0.000228
0.000486
0.000271
0.000646
0.000215
0.000322
0.000222
0.000243
0.000368
0.000363
0.000360
0.000376
0.000370
0.000374
0.000244
0.000215
0.000253
0.000281
0.001787
0.000270
0.000192
0.000057
0.000190
0.000211
0.000247
0.000265
0.000359
0.000538
0.000332
0.000233
0.000230
0.000272
0.000249
0.000243
0.000529
0.000451
0.000467
0.000307
0.000271
0.000238
0.000444
0.000490
0.000367
0.000429
0.000499
0.000410
0.000239
0.000243
0.000232
0.000230
0.000264
0.001778
0.000259
0.000059
0.000283
0.000326
0.000201
0.000228
0.000256
0.000236
0.000297
0.000444
0.000431
0.000300
0.000307
0.000312
0.000321
0.000678
0.000319
0.000207
0.000221
0.000234
0.000263
0.000260
0.000262
0.000282
0.000235
0.000262
0.000291
0.000369
0.000557
0.000297
0.000212
0.000218
0.000196
0.000058
0.000454
0.000298
0.000407
0.000279
0.000197
0.000240
0.000250
0.000253
0.000270
0.000196
0.000247
0.000272
0.000298
0.000384
0.000578
0.000417
0.000295
0.000369
0.000368
0.000394
0.000261
0.000222
0.000221
0.000243
0.001822
0.000240
0.001757
0.000919
0.000382
0.000338
0.000146
0.000056
0.000201
0.000205
0.000236
0.000233
0.000265
0.000252
0.000249
0.000246
0.000257
0.000284
0.000419
0.000422
0.000371
0.000403
0.000249
0.000223
0.000266
0.000291
0.000233
0.000211
0.000250
0.000235
0.001809
0.000280
0.000212
0.000268
0.000280
0.000266
0.001853
0.000573
0.000259
0.000057
0.000213
0.000198
0.000223
0.000241
0.000245
0.000249
0.000242
0.000254
0.000259
0.000401
0.000584
0.000269
0.000387
0.000247
0.000217
0.000286
0.000381
0.000389
0.000380
0.000243
0.001812
0.000230
0.000221
0.000232
0.000255
0.000270
0.000255
0.000253
0.000257
0.000364
0.000416
0.000057
0.000241
0.000227
0.000196
0.000259
0.000251
0.000239
0.000262
0.000253
0.000262
0.000240
0.000237
0.000342
0.000300
0.000362
0.000378
0.000324
0.000483
0.000207
0.000211
0.000256
0.000268
0.000254
0.000279
0.000255
0.000299
0.001763
0.000287
0.000224
0.000249
0.000241
0.000219
0.000056
0.000245
0.000375
0.000243
0.000198
0.000228
0.000239
0.000231
0.000255
0.000256
0.000238
0.000215
0.000262
0.000253
0.000325
0.000466
0.000384
0.000322
0.000213
0.000212
0.000248
0.000253
0.000260
0.000253
0.000271
0.000249
0.000261
0.000294
0.001705
0.000242
0.000228
0.000192
0.000057
0.000192
0.000223
0.000243
0.000250
0.000362
0.000332
0.000478
0.000283
0.000207
0.000246
0.000248
0.000239
0.000255
0.000251
0.000265
0.000259
0.000239
0.000262
0.000251
0.000258
0.000272
0.000269
0.000256
0.000233
0.000237
0.000281
0.000270
0.000268
0.000260
0.000254
0.000221
0.000057
0.000220
0.000205
0.000248
0.000250
0.000244
0.000251
0.000245
0.000255
0.000364
0.000206
0.000189
0.000249
0.000254
0.000249
0.000262
0.000271
0.000244
0.000258
0.000364
0.000212
0.000241
0.000285
0.000278
0.000256
0.000265
0.000288
0.000269
0.000248
0.000261
0.000440
0.000585
0.000078
0.000212
0.000306
0.000226
0.000186
0.000221
0.000248
0.000239
0.000254
0.000245
0.000259
0.000260
0.000262
0.000530
0.000496
0.001565
0.000208
0.000518
0.000205
0.000224
0.000433
0.000424
0.000427
0.000216
0.000266
0.000261
0.000250
0.000287
0.000258
0.000302
0.000256
0.000210
0.000057
0.000281
0.000447
0.000418
0.000287
0.000189
0.000241
0.000252
0.000240
0.000242
0.000241
0.000255
0.000258
0.000238
0.000263
0.000374
0.000479
0.000373
0.001798
0.000263
0.000242
0.000335
0.000411
0.000461
0.000311
0.000372
0.000253
0.000301
0.000231
0.000224
0.000245
0.000224
0.000058
0.000210
0.000205
0.000241
0.000403
0.000301
0.000393
0.000328
0.000265
0.000246
0.000226
0.000236
0.000269
0.000269
0.000263
0.000251
0.000251
0.000305
0.000551
0.000301
0.000430
0.000230
0.001804
0.000289
0.000556
0.000492
0.000429
0.000292
0.000246
0.000223
0.000272
0.000500
0.000056
0.000185
0.000241
0.000240
0.000294
0.000495
0.000314
0.000439
0.000268
0.000225
0.000298
0.000232
0.000225
0.000253
0.000363
0.000298
0.000211
0.000243
0.000344
0.000413
0.000404
0.000560
0.001800
0.000225
0.000488
0.000476
0.000331
0.000241
0.000372
0.000257
0.000202
0.000215
0.000056
0.000221
0.000332
0.000344
0.000364
0.000357
0.000265
0.000400
0.000211
0.000218
0.000258
0.000274
0.000238
0.000243
0.000249
0.000249
0.000259
0.000302
0.000364
0.000544
0.000358
0.000331
0.000201
0.000257
0.001828
0.000342
0.000473
0.000681
0.000279
0.000248
0.000279
0.000185
0.000057
0.000171
0.000216
0.000315
0.000258
0.000242
0.000399
0.000502
0.000227
0.000619
0.000215
0.000200
0.000245
0.000218
0.000275
0.000274
0.000273
0.000230
0.000489
0.000367
0.000365
0.000272
0.000236
0.000252
0.000250
0.000268
0.000274
0.000241
0.000240
0.000265
0.000362
0.000177
0.000056
0.000323
0.000323
0.000231
0.000231
0.000251
0.000258
0.000247
0.000374
0.000189
0.000215
0.000258
0.000340
0.000434
0.000413
0.000337
0.000280
0.000221
0.000233
0.000256
0.000256
0.000283
0.000295
0.000226
0.000242
0.000281
0.000339
0.000398
0.000403
0.000371
0.000218
0.000173
0.000058
0.000194
0.000203
0.000276
0.000244
0.000245
0.000250
0.000256
0.000263
0.000492
0.000242
0.000225
0.000254
0.000243
0.000256
0.000277
0.000270
0.000273
0.000371
0.000240
0.000218
0.000236
0.000268
0.000255
0.000263
0.000278
0.000267
0.000265
0.000258
0.000254
0.000503
0.000173
0.000058
0.000199
0.000218
0.000231
0.000265
0.000244
0.000230
0.000303
0.000457
0.000256
0.000231
0.000252
0.000254
0.000249
0.000329
0.000319
0.001824
0.000236
0.000263
0.000299
0.000387
0.000412
0.000341
0.000384
0.000341
0.000424
0.000346
0.000248
0.000272
0.000258
0.000277
0.001423
0.000056
0.000376
0.000317
0.000308
0.000202
0.000203
0.000234
0.000229
0.000259
0.000241
0.000268
0.000255
0.000257
0.000250
0.000236
0.000578
0.001721
0.000214
0.000204
0.000218
0.000271
0.000243
0.000254
0.000417
0.000400
0.000248
0.000334
0.000250
0.000246
0.000270
0.000257
0.000222
0.000056
0.001209
0.000574
0.000306
0.000292
0.000216
0.000205
0.000200
0.000235
0.000493
0.000229
0.000236
0.000241
0.000309
0.000545
0.000418
0.000324
0.000296
0.000244
0.000364
0.000348
0.000228
0.000238
0.000264
0.000247
0.000266
0.000781
0.000352
0.000288
0.000228
0.000272
0.000182
0.000056
0.000207
0.000198
0.000227
0.000246
0.001420
0.000392
0.000198
0.000234
0.000243
0.000250
0.000249
0.000249
0.000246
0.000259
0.000265
0.000279
0.000731
0.000383
0.000271
0.001808
0.000237
0.000296
0.000280
0.000428
0.000557
0.000380
0.000246
0.000219
0.000253
0.000272
0.000217
0.000056
0.000209
0.000242
0.000221
0.001316
0.000340
0.000197
0.000258
0.000212
0.000243
0.000232
0.000239
0.000249
0.000272
0.000251
0.000257
0.000271
0.000562
0.000401
0.000326
0.000220
0.000238
0.000276
0.000258
0.000232
0.000348
0.000219
0.000218
0.000287
0.000256
0.000414
0.000562
0.000057
0.000211
0.000222
0.000248
0.000256
0.000261
0.000253
0.000223
0.000266
0.000271
0.000248
0.001439
0.000236
0.000230
0.000255
0.000242
0.000244
0.000267
0.000261
0.000258
0.000279
0.000259
0.000476
0.000437
0.000408
0.000246
0.000266
0.001837
0.000225
0.000223
0.000339
0.000443
0.000056
0.000218
0.000446
0.000441
0.000503
0.000524
0.000564
0.001447
0.000421
0.000546
0.000645
0.000558
0.000685
0.000511
0.000625
0.000588
0.001767
0.000424
0.000440
0.000388
0.000308
0.000255
0.000306
0.000274
0.000263
0.000273
0.000276
0.000296
0.000289
0.000251
0.000293
0.001317
0.000056
0.000204
0.000242
0.000217
0.000248
0.000241
0.000244
0.000241
0.000232
0.000270
0.000263
0.000244
0.000273
0.000243
0.000241
0.000267
0.000258
0.001841
0.000260
0.000265
0.000252
0.000251
0.000269
0.000260
0.000322
0.000422
0.000423
0.000270
0.000247
0.000259
0.000295
0.000174
0.000056
0.000193
0.001396
0.000268
0.000263
0.000265
0.000230
0.000260
0.000233
0.000253
0.000247
0.000242
0.000236
0.000283
0.000410
0.000291
0.000358
0.000262
0.000307
0.001894
0.000255
0.000254
0.000262
0.000254
0.000264
0.000271
0.000262
0.000299
0.000229
0.000249
0.000305
0.000235
0.000056
0.000212
0.000231
0.000245
0.001433
0.000253
0.000293
0.000204
0.000226
0.000230
0.000260
0.000253
0.000262
0.000233
0.000252
0.000286
0.000246
0.000252
0.000255
0.000280
0.000258
0.000258
0.001846
0.000258
0.001769
0.000252
0.000256
0.000240
0.000233
0.000272
0.000288
0.000210
0.000056
0.000200
0.000244
0.001378
0.000244
0.000267
0.000209
0.000212
0.000236
0.000258
0.000251
0.000245
0.000251
0.000251
0.000267
0.000252
0.000266
0.000255
0.000279
0.000297
0.000247
0.001866
0.000278
0.001783
0.000295
0.000248
0.000250
0.000249
0.000265
0.000261
0.000259
0.000193
0.000057
0.001436
0.000237
0.000263
0.000196
0.000221
0.000219
0.000273
0.000362
0.000252
0.000258
0.000255
0.000255
0.000265
0.000321
0.000490
0.000266
0.000253
0.000270
0.000228
0.000220
0.000263
0.000330
0.000289
0.000222
0.000274
0.000276
0.000262
0.000360
0.000687
0.000369
0.000160
0.000056
0.000188
0.000286
0.000275
0.000305
0.000347
0.000276
0.001663
0.000294
0.000282
0.000251
0.000275
0.000302
0.000258
0.000268
0.000297
0.000309
0.000349
0.000538
0.000372
0.000267
0.000317
0.000285
0.000257
0.000267
0.000328
0.000266
0.000258
0.000241
0.000244
0.000301
0.000415
0.000056
0.000311
0.000377
0.000263
0.000271
0.000251
0.000225
0.000223
0.000251
0.000258
0.000253
0.001528
0.000233
0.000221
0.000235
0.000245
0.000293
0.000261
0.000260
0.000255
0.000265
0.000269
0.000440
0.000529
0.000317
0.000216
0.000316
0.000245
0.000245
0.000246
0.000227
0.000251
0.000056
0.000217
0.000197
0.000339
0.000512
0.000282
0.000274
0.000190
0.000263
0.000240
0.000280
0.000203
0.000251
0.000263
0.000262
0.000234
0.000240
0.000419
0.001267
0.000222
0.000283
0.000197
0.000245
0.000348
0.000509
0.000215
0.000229
0.000623
0.000345
0.000424
0.000225
0.000168
0.000058
0.000161
0.000214
0.000265
0.000264
0.000317
0.000195
0.000331
0.000431
0.000479
0.000298
0.000362
0.000402
0.000392
0.000351
0.000242
0.000212
0.000224
0.000235
0.000364
0.000567
0.001200
0.000248
0.000251
0.000274
0.000226
0.000237
0.000270
0.000327
0.000424
0.000467
0.000249
0.000056
0.000209
0.000217
0.000244
0.000245
0.000254
0.000240
0.000235
0.000266
0.000243
0.000379
0.000531
0.000381
0.000228
0.000208
0.000219
0.000253
0.000254
0.000266
0.000275
0.000532
0.000211
0.000205
0.000464
0.000273
0.000391
0.000239
0.000239
0.000277
0.000253
0.000281
0.000233
0.000073
0.000265
0.000296
0.000342
0.000357
0.000566
0.000271
0.000239
0.000245
0.000226
0.000259
0.000254
0.000265
0.000241
0.000255
0.000231
0.000232
0.000263
0.000374
0.000522
0.000367
0.000210
0.000258
0.000217
0.000267
0.000240
0.000281
0.000290
0.000251
0.000283
0.000257
0.000282
0.000057
0.000355
0.000239
0.000241
0.000218
0.000254
0.000246
0.000248
0.000248
0.000257
0.000268
0.000247
0.000244
0.000272
0.000556
0.000436
0.000312
0.000212
0.000199
0.000257
0.000263
0.000279
0.000234
0.000278
0.000252
0.000269
0.000284
0.000414
0.000642
0.000479
0.000224
0.000142
0.000056
0.000399
0.000209
0.000191
0.000241
0.000255
0.000250
0.000238
0.000249
0.000253
0.000263
0.000224
0.000241
0.000265
0.000240
0.000236
0.000257
0.000263
0.000252
0.000281
0.000273
0.000255
0.000255
0.000261
0.000262
0.000266
0.000268
0.000243
0.000277
0.000253
0.000274
0.000229
0.000057
0.000186
0.000208
0.000243
0.000265
0.000225
0.000242
0.000261
0.000246
0.000264
0.000279
0.000221
0.000239
0.000256
0.000405
0.000237
0.000281
0.000265
0.000285
0.000260
0.000256
0.000273
0.000230
0.000254
0.000252
0.000258
0.000281
0.000258
0.000243
0.000276
0.000262
0.000219
0.000055
0.000263
0.000379
0.000346
0.000280
0.000333
0.000205
0.000210
0.000255
0.000230
0.000240
0.000252
0.000255
0.000258
0.000233
0.000252
0.000269
0.000277
0.000255
0.000243
0.000268
0.000267
0.000272
0.000269
0.000257
0.000278
0.000273
0.000244
0.000290
0.000236
0.000270
0.000203
0.000076
0.000183
0.000216
0.000249
0.000266
0.000251
0.000445
0.000213
0.000263
0.000271
0.000385
0.000543
0.000337
0.000206
0.000235
0.000251
0.000274
0.000234
0.000267
0.000265
0.000271
0.000260
0.000262
0.000271
0.000290
0.000482
0.000524
0.000307
0.000258
0.000270
0.000260
0.000201
0.000056
0.000185
0.000202
0.000241
0.000252
0.000289
0.000732
0.000267
0.000374
0.000236
0.000249
0.000224
0.000254
0.000268
0.000230
0.000262
0.000271
0.000262
0.000253
0.000595
0.000426
0.000332
0.000222
0.000239
0.000281
0.000281
0.000261
0.000268
0.000255
0.000253
0.000339
0.000365
0.000057
0.000284
0.000230
0.000217
0.000236
0.000256
0.000256
0.000222
0.000252
0.000242
0.000255
0.000244
0.000254
0.000251
0.000347
0.000597
0.000472
0.000218
0.000212
0.000263
0.000251
0.000267
0.000268
0.000469
0.000255
0.000255
0.000638
0.000497
0.000346
0.000295
0.000237
0.000186
0.000057
0.000210
0.000214
0.000239
0.000244
0.000247
0.000262
0.000308
0.000409
0.000731
0.000293
0.000241
0.000247
0.000273
0.000273
0.000281
0.000234
0.000234
0.000250
0.000254
0.000461
0.000344
0.000513
0.000449
0.000256
0.000443
0.000344
0.000480
0.000220
0.000237
0.000315
0.000478
0.000055
0.000264
0.000211
0.000490
0.000194
0.000236
0.000231
0.000246
0.000258
0.000233
0.000238
0.000296
0.000380
0.000362
0.000380
0.000243
0.000240
0.000261
0.000204
0.000271
0.000274
0.000264
0.000256
0.000256
0.000264
0.000358
0.000474
0.000448
0.000259
0.000247
0.000275
0.000216
0.000057
0.000172
0.000230
0.000236
0.000240
0.000251
0.000243
0.000393
0.000448
0.000403
0.000273
0.000346
0.000249
0.000221
0.000266
0.000265
0.000230
0.000256
0.000262
0.000316
0.000385
0.000553
0.000254
0.000448
0.000354
0.000394
0.000388
0.000381
0.000252
0.000229
0.000357
0.000308
0.000056
0.000222
0.000297
0.000198
0.000244
0.000265
0.000260
0.000237
0.000245
0.000255
0.000261
0.000243
0.000373
0.000443
0.000358
0.000368
0.000254
0.000246
0.000260
0.000277
0.000227
0.000253
0.000257
0.000254
0.000280
0.000275
0.000326
0.000487
0.000484
0.000248
0.000278
0.000206
0.000056
0.000204
0.000214
0.000252
0.000252
0.000243
0.000346
0.000495
0.000518
0.000341
0.000658
0.000290
0.000228
0.000221
0.000258
0.000236
0.000265
0.000287
0.000267
0.000475
0.000568
0.001500
0.000233
0.000261
0.000259
0.000296
0.000219
0.000313
0.000469
0.000370
0.000332
0.000173
0.000055
0.000193
0.000212
0.000235
0.000257
0.000233
0.000252
0.000268
0.000264
0.000240
0.000367
0.000348
0.000363
0.000278
0.000385
0.000387
0.000329
0.000234
0.000215
0.000249
0.000261
0.000237
0.000253
0.000278
0.000264
0.000333
0.000531
0.000361
0.000279
0.000219
0.000266
0.000204
0.000057
0.000172
0.000227
0.000258
0.000252
0.000245
0.000236
0.000473
0.000214
0.000232
0.000254
0.000249
0.000239
0.000263
0.000254
0.000238
0.000271
0.000261
0.000262
0.000277
0.000258
0.000257
0.000330
0.000254
0.000250
0.000260
0.000270
0.000271
0.000279
0.000269
0.000256
0.000195
0.000056
0.000200
0.000218
0.000320
0.000466
0.000359
0.000247
0.000198
0.000239
0.000260
0.000249
0.000244
0.000261
0.000257
0.000265
0.000236
0.000240
0.000249
0.000269
0.000253
0.000392
0.000404
0.000430
0.000215
0.000256
0.000270
0.000262
0.000263
0.000251
0.000271
0.000282
0.000215
0.000056
0.000331
0.000414
0.000381
0.000238
0.000216
0.000263
0.000486
0.000189
0.000222
0.000227
0.000277
0.000337
0.000368
0.000445
0.001762
0.000270
0.000249
0.000241
0.000269
0.000255
0.000303
0.000536
0.000599
0.000277
0.000225
0.000248
0.000273
0.000433
0.000265
0.000284
0.000183
0.000056
0.000254
0.000348
0.000320
0.000293
0.000508
0.000232
0.000212
0.000241
0.000258
0.000258
0.000236
0.000252
0.000260
0.000308
0.000400
0.000516
0.000222
0.000221
0.000264
0.000272
0.000246
0.000317
0.000241
0.000286
0.000264
0.000444
0.000514
0.000418
0.000461
0.000229
0.000209
0.000056
0.000224
0.000198
0.000255
0.000226
0.000251
0.000252
0.000272
0.000264
0.000391
0.000363
0.000411
0.000367
0.000210
0.000234
0.000263
0.000263
0.000339
0.000238
0.000263
0.000270
0.000243
0.000246
0.000576
0.000333
0.000268
0.000279
0.000241
0.000528
0.000396
0.000287
0.000154
0.000057
0.000166
0.000244
0.000312
0.000404
0.000390
0.000227
0.000225
0.000249
0.000259
0.000259
0.000262
0.000256
0.000247
0.000238
0.000263
0.000267
0.000390
0.000386
0.000364
0.000305
0.000458
0.000239
0.000273
0.000268
0.000312
0.000287
0.000267
0.000253
0.000528
0.000523
0.000153
0.000057
0.000204
0.000211
0.000247
0.000243
0.000266
0.000466
0.000218
0.000239
0.000270
0.000408
0.000464
0.000525
0.000249
0.000229
0.000237
0.000255
0.000260
0.000238
0.000255
0.000261
0.000240
0.000280
0.000387
0.000434
0.000394
0.000328
0.000332
0.000345
0.000303
0.000228
0.000174
0.000057
0.000206
0.000234
0.000247
0.000488
0.000302
0.000372
0.000260
0.000212
0.000200
0.000249
0.000257
0.000245
0.000255
0.000252
0.000308
0.000209
0.000257
0.000247
0.000242
0.000446
0.000530
0.000358
0.000214
0.000236
0.000268
0.000286
0.000261
0.000257
0.000268
0.000287
0.000188
0.000055
0.000253
0.000434
0.000474
0.000221
0.000202
0.000211
0.000306
0.000526
0.000264
0.000199
0.000232
0.000266
0.000275
0.000416
0.000466
0.000336
0.000210
0.000208
0.000297
0.000200
0.000269
0.000280
0.000254
0.000270
0.000270
0.000281
0.000435
0.000484
0.000282
0.000221
0.000163
0.000056
0.000202
0.000217
0.000248
0.000274
0.000233
0.000260
0.000226
0.000262
0.000251
0.000252
0.000264
0.000238
0.000259
0.001455
0.000248
0.000237
0.000256
0.000254
0.000274
0.000268
0.000267
0.000241
0.000276
0.000252
0.000261
0.000269
0.000276
0.000268
0.000277
0.000254
0.000219
0.000055
0.000184
0.000227
0.000235
0.000246
0.000247
0.000236
0.000263
0.000248
0.000238
0.000250
0.000244
0.000260
0.000256
0.000257
0.000259
0.000261
0.000245
0.000254
0.000276
0.000255
0.000257
0.000258
0.000255
0.000244
0.001357
0.000274
0.000534
0.000434
0.000386
0.000215
0.000166
0.000056
0.000172
0.000207
0.000245
0.000535
0.000213
0.000221
0.000187
0.000224
0.000253
0.000355
0.000511
0.000356
0.000225
0.000196
0.000241
0.000251
0.000252
0.000270
0.000252
0.000261
0.000256
0.000253
0.000262
0.000393
0.000566
0.000419
0.000248
0.000244
0.001356
0.000283
0.000184
0.000056
0.000314
0.000417
0.000345
0.000252
0.000198
0.000200
0.000222
0.000254
0.000257
0.000256
0.000249
0.000256
0.000262
0.000314
0.000685
0.000278
0.000292
0.000238
0.000244
0.000253
0.000247
0.000267
0.000269
0.000269
0.000259
0.000265
0.000413
0.000473
0.000460
0.000321
0.000160
0.000057
0.000182
0.000256
0.001285
0.000356
0.000289
0.000464
0.000442
0.000261
0.000436
0.000369
0.000239
0.000197
0.000255
0.000255
0.000250
0.000267
0.000345
0.000586
0.000315
0.000348
0.000277
0.000228
0.000256
0.000513
0.000241
0.000253
0.000256
0.000282
0.000335
0.000507
0.000393
0.000057
0.000314
0.000385
0.000225
0.000205
0.001542
0.000521
0.000304
0.000223
0.000203
0.000253
0.000221
0.000242
0.000242
0.000261
0.000262
0.000264
0.000230
0.000316
0.000458
0.000388
0.000429
0.000217
0.000216
0.000252
0.000259
0.000278
0.000263
0.000239
0.000263
0.000281
0.000232
0.000058
0.000356
0.000323
0.000253
0.000243
0.000213
0.000244
0.000251
0.000247
0.000230
0.000255
0.001477
0.000450
0.000259
0.000206
0.000213
0.000257
0.000275
0.000265
0.000230
0.000276
0.000267
0.000260
0.000250
0.000396
0.000494
0.000427
0.000215
0.000280
0.000255
0.000281
0.000191
0.000057
0.000193
0.000458
0.000194
0.000198
0.000389
0.000390
0.000386
0.000331
0.000464
0.000199
0.000215
0.000249
0.000261
0.000264
0.000269
0.001455
0.000308
0.000285
0.000243
0.000276
0.000275
0.000246
0.000260
0.000255
0.000250
0.000283
0.000486
0.000391
0.000313
0.000300
0.000140
0.000056
0.000182
0.000232
0.000243
0.000236
0.000240
0.000253
0.000237
0.000246
0.000259
0.000455
0.000461
0.000285
0.000202
0.000229
0.000229
0.000264
0.000290
0.000257
0.000268
0.000231
0.000247
0.000296
0.001340
0.000242
0.000253
0.000220
0.000244
0.000264
0.000256
0.000264
0.000204
0.000056
0.000218
0.000321
0.000421
0.000346
0.000234
0.000206
0.000242
0.000261
0.000259
0.000252
0.000253
0.000270
0.000244
0.000250
0.000261
0.000258
0.000263
0.000275
0.000265
0.000251
0.000241
0.000272
0.000274
0.000276
0.000284
0.000272
0.000292
0.000233
0.000266
0.000506
0.001316
0.000055
0.000199
0.000216
0.000228
0.000244
0.000261
0.000257
0.000249
0.000219
0.000244
0.000250
0.000271
0.000260
0.000254
0.000242
0.000244
0.001713
0.000372
0.000214
0.000199
0.000238
0.000257
0.000250
0.000273
0.000262
0.000257
0.000269
0.000279
0.000270
0.000262
0.000279
0.000237
0.000056
0.000251
0.000325
0.001352
0.000215
0.000192
0.000218
0.000263
0.000251
0.000256
0.000266
0.000226
0.000356
0.000382
0.000547
0.000213
0.000218
0.000228
0.000247
0.000263
0.000255
0.000256
0.000260
0.000275
0.000281
0.000263
0.000398
0.000379
0.000385
0.000278
0.000248
0.000204
0.000056
0.000219
0.000221
0.000240
0.000251
0.000250
0.000241
0.000225
0.000243
0.000542
0.000411
0.001072
0.000241
0.000232
0.000267
0.000261
0.000262
0.000263
0.000251
0.000304
0.000406
0.000440
0.000238
0.000232
0.000241
0.000278
0.000272
0.000268
0.000295
0.000268
0.000277
0.000215
0.000055
0.000224
0.000389
0.000440
0.000226
0.000206
0.000205
0.000241
0.000266
0.000276
0.000257
0.000224
0.000538
0.000248
0.000477
0.000511
0.001416
0.000233
0.000272
0.000345
0.000338
0.000438
0.000421
0.000476
0.000374
0.000241
0.000264
0.000259
0.000279
0.000269
0.000267
0.000211
0.000058
0.000184
0.000221
0.000456
0.000600
0.000265
0.000216
0.000248
0.000233
0.000241
0.000256
0.000252
0.000262
0.000265
0.000237
0.000273
0.000296
0.000362
0.000485
0.000323
0.001312
0.000260
0.000261
0.000258
0.000468
0.000326
0.000412
0.000399
0.000226
0.000243
0.000270
0.000208
0.000056
0.000180
0.000228
0.000245
0.000232
0.000256
0.000301
0.000416
0.000390
0.000373
0.000244
0.000219
0.000255
0.000271
0.000260
0.000258
0.000274
0.000260
0.000254
0.000264
0.000277
0.000588
0.000387
0.000331
0.001335
0.000345
0.000236
0.000280
0.000461
0.000392
0.000362
0.000345
0.000056
0.000187
0.000207
0.000249
0.000248
0.000261
0.000246
0.001686
0.000266
0.000223
0.000204
0.000261
0.000251
0.000320
0.000325
0.000336
0.000295
0.000221
0.000377
0.000423
0.000450
0.000285
0.000269
0.000217
0.000232
0.001436
0.000429
0.000434
0.000452
0.000321
0.000295
0.000161
0.000056
0.000203
0.000227
0.000260
0.000262
0.000241
0.000259
0.001783
0.000210
0.000235
0.000256
0.000391
0.000412
0.001422
0.000325
0.000433
0.000209
0.000212
0.000235
0.000260
0.000273
0.001606
0.000590
0.000393
0.000263
0.000226
0.000214
0.000254
0.000279
0.000254
0.000248
0.000208
0.000056
0.000208
0.000222
0.000250
0.000259
0.000252
0.000276
0.000286
0.000251
0.000253
0.000250
0.000253
0.000250
0.000254
0.000275
0.000248
0.001498
0.000285
0.000238
0.000259
0.000275
0.000277
0.000255
0.000430
0.001276
0.000273
0.000231
0.000269
0.000264
0.000457
0.000204
0.000191
0.000057
0.000172
0.000232
0.000228
0.000237
0.000240
0.000232
0.000238
0.001756
0.000218
0.000211
0.000230
0.000378
0.000229
0.000217
0.001458
0.000251
0.000210
0.000223
0.000263
0.000242
0.000258
0.000311
0.000334
0.001367
0.000280
0.000223
0.000222
0.000254
0.001398
0.000270
0.000216
0.000056
0.000291
0.000312
0.000222
0.000196
0.000246
0.000252
0.000268
0.000250
0.000270
0.000237
0.000274
0.000259
0.000255
0.000245
0.000309
0.001491
0.000267
0.000255
0.000257
0.000246
0.000275
0.000261
0.000264
0.001514
0.000330
0.000250
0.000256
0.001354
0.000232
0.000224
0.000214
0.000056
0.000224
0.000373
0.000350
0.000225
0.000212
0.000241
0.000257
0.000258
0.000264
0.000269
0.000247
0.000242
0.000258
0.000365
0.000375
0.001241
0.000208
0.000222
0.000253
0.000272
0.000236
0.000236
0.000257
0.001282
0.000391
0.000229
0.000221
0.000235
0.000276
0.001331
0.000315
0.000057
0.000266
0.000267
0.000210
0.000208
0.000249
0.000238
0.000257
0.000237
0.000273
0.000256
0.000238
0.000268
0.000229
0.000338
0.000419
0.001460
0.000239
0.000239
0.000292
0.000503
0.000295
0.000372
0.001373
0.000296
0.000249
0.000253
0.001283
0.000355
0.000294
0.000466
0.000304
0.000056
0.000210
0.000226
0.000251
0.000261
0.000264
0.000239
0.000276
0.000246
0.000267
0.000261
0.000359
0.000490
0.001341
0.000218
0.000240
0.000247
0.000279
0.000263
0.000209
0.000221
0.000339
0.001316
0.000245
0.000231
0.000220
0.000245
0.001607
0.000358
0.000445
0.000250
0.000190
0.000056
0.000192
0.000216
0.000246
0.000237
0.000246
0.000261
0.000247
0.000244
0.000430
0.000500
0.000313
0.001443
0.000224
0.000231
0.000265
0.000260
0.000263
0.000275
0.001654
0.000313
0.000355
0.000359
0.001298
0.000447
0.000273
0.000343
0.000228
0.000211
0.000256
0.000268
0.000208
0.000056
0.000194
0.000216
0.000316
0.000226
0.000401
0.000472
0.000295
0.000342
0.001480
0.000296
0.000334
0.000245
0.000205
0.000297
0.000354
0.001388
0.000269
0.000213
0.000214
0.000252
0.000336
0.001550
0.000370
0.000282
0.000238
0.000215
0.000522
0.000309
0.000232
0.000246
0.000235
0.000056
0.000323
0.000300
0.000339
0.000298
0.000209
0.001452
0.000282
0.000220
0.000240
0.000266
0.000265
0.000248
0.000305
0.001480
0.000264
0.000229
0.000415
0.001281
0.000277
0.000441
0.000372
0.000251
0.000247
0.000240
0.000283
0.000254
0.000457
0.000234
0.000256
0.000263
0.000217
0.000057
0.000200
0.000223
0.000361
0.001460
0.000271
0.000210
0.000306
0.000249
0.000236
0.000255
0.000240
0.000255
0.001655
0.000200
0.000235
0.000210
0.001375
0.000318
0.000452
0.000432
0.000385
0.000208
0.000220
0.000255
0.000362
0.000241
0.000226
0.000261
0.000243
0.000249
0.000207
0.000056
0.000230
0.000379
0.001442
0.000229
0.000248
0.000273
0.000249
0.000249
0.000318
0.000378
0.001330
0.000262
0.000306
0.000236
0.001299
0.000315
0.000578
0.000321
0.000299
0.000408
0.000332
0.000233
0.000236
0.000248
0.000258
0.000286
0.000274
0.000319
0.000411
0.000485
0.001390
0.000055
0.000191
0.000248
0.000222
0.000225
0.000244
0.000502
0.000435
0.001324
0.000207
0.000224
0.000243
0.001362
0.000501
0.000345
0.000445
0.000252
0.000210
0.000215
0.000247
0.000274
0.000258
0.000253
0.000287
0.000259
0.000248
0.000289
0.000549
0.000399
0.001461
0.000259
0.000199
0.000056
0.000162
0.000236
0.000329
0.000591
0.001208
0.000281
0.000251
0.000277
0.000250
0.000229
0.000255
0.000262
0.000324
0.000584
0.000314
0.000217
0.000252
0.000272
0.000238
0.000275
0.000266
0.000269
0.000251
0.000261
0.000258
0.000314
0.000597
0.000322
0.000301
0.001472
0.000166
0.000059
0.000153
0.000224
0.000369
0.000349
0.000346
0.000315
0.000302
0.000334
0.000271
0.000265
0.000264
0.000258
0.000255
0.000303
0.000252
0.000287
0.000516
0.000364
0.000323
0.000329
0.000308
0.000463
0.000208
0.000245
0.000203
0.000279
0.000242
0.000282
0.000348
0.000507
0.000324
0.000057
0.000218
0.001352
0.000264
0.000349
0.000453
0.000406
0.000303
0.000344
0.000223
0.000209
0.000262
0.000250
0.000266
0.000259
0.000277
0.000255
0.000271
0.001423
0.000240
0.000225
0.000225
0.000270
0.000274
0.000283
0.000265
0.000255
0.000267
0.000262
0.000264
0.000501
0.000273
0.000056
0.000229
0.000241
0.001436
0.000318
0.000339
0.000213
0.000211
0.000211
0.000231
0.000234
0.000257
0.000272
0.000250
0.000248
0.000270
0.000265
0.000240
0.000260
0.000270
0.000259
0.001431
0.000266
0.000225
0.000341
0.000210
0.000221
0.000261
0.000256
0.000284
0.000491
0.000387
0.000058
0.000183
0.000215
0.000398
0.000273
0.000247
0.000258
0.001528
0.000348
0.000338
0.000209
0.000229
0.000344
0.000323
0.000217
0.000217
0.000254
0.000247
0.000262
0.000261
0.000249
0.000485
0.000537
0.001164
0.000267
0.000194
0.000235
0.000272
0.000265
0.000269
0.000273
0.000396
0.000058
0.000211
0.000363
0.000194
0.000208
0.000246
0.000244
0.000237
0.000232
0.001422
0.000523
0.000385
0.000279
0.000220
0.000213
0.000258
0.000246
0.000250
0.000281
0.000254
0.000303
0.000313
0.000482
0.000451
0.001376
0.000266
0.000231
0.000267
0.000265
0.000274
0.000277
0.000554
0.000056
0.000264
0.000212
0.000254
0.000234
0.000219
0.000239
0.000264
0.000247
0.000273
0.001602
0.000336
0.000243
0.000266
0.000256
0.000458
0.000304
0.000403
0.000462
0.000332
0.000318
0.000446
0.000489
0.001288
0.000225
0.000218
0.000243
0.001803
0.000385
0.000609
0.000314
0.000144
0.000059
0.000177
0.000220
0.000238
0.000237
0.000243
0.000252
0.000359
0.000405
0.000506
0.000411
0.000321
0.000201
0.000215
0.000259
0.000262
0.000263
0.000245
0.000259
0.000249
0.000274
0.000282
0.000418
0.001338
0.000252
0.000229
0.000266
0.001866
0.000411
0.000387
0.000354
0.000175
0.000056
0.000237
0.000216
0.000249
0.001553
0.000404
0.000250
0.000227
0.000272
0.000242
0.000336
0.000365
0.000374
0.000352
0.000308
0.000299
0.000501
0.000388
0.001228
0.000265
0.000207
0.000224
0.000263
0.000365
0.000453
0.000614
0.000401
0.000222
0.000216
0.000268
0.000273
0.000215
0.000057
0.000178
0.000211
0.001452
0.000419
0.000200
0.000206
0.000223
0.000253
0.000247
0.000255
0.000245
0.000272
0.000268
0.000271
0.000242
0.000356
0.000504
0.000358
0.001343
0.000255
0.000245
0.000253
0.000260
0.000267
0.000402
0.000383
0.000530
0.000290
0.000286
0.000258
0.000397
0.000055
0.000189
0.000214
0.000250
0.000264
0.001584
0.000243
0.000245
0.000244
0.000252
0.000258
0.000258
0.000265
0.000252
0.000250
0.000552
0.000379
0.001447
0.000741
0.000208
0.000351
0.000253
0.000209
0.000234
0.000270
0.001770
0.000720
0.000267
0.000226
0.000280
0.000284
0.000209
0.000055
0.000192
0.000210
0.000252
0.000244
0.000250
0.000247
0.000258
0.000241
0.000252
0.000222
0.000288
0.000285
0.000254
0.000248
0.000264
0.000255
0.000287
0.001577
0.000709
0.000426
0.000296
0.000210
0.000225
0.000271
0.000287
0.000253
0.000277
0.000262
0.001515
0.000318
0.000286
0.000056
0.000186
0.000218
0.000241
0.000251
0.000262
0.000243
0.000239
0.000253
0.000250
0.000277
0.000217
0.000479
0.000421
0.000367
0.000216
0.000220
0.000265
0.001460
0.000690
0.000422
0.000324
0.000301
0.000211
0.000241
0.000267
0.000262
0.000249
0.000270
0.001473
0.000452
0.000231
0.000056
0.000191
0.000199
0.000247
0.000250
0.000255
0.000231
0.000251
0.000251
0.000260
0.000263
0.000362
0.000368
0.000343
0.000224
0.000242
0.000248
0.000264
0.000255
0.001571
0.000606
0.000470
0.000362
0.000220
0.000254
0.000247
0.000256
0.000268
0.000285
0.000268
0.001448
0.000287
0.000057
0.000207
0.000215
0.000210
0.000263
0.000257
0.000240
0.000289
0.000347
0.000374
0.000480
0.000422
0.000383
0.000209
0.000229
0.000208
0.000252
0.000274
0.000263
0.001384
0.000915
0.000295
0.000199
0.000476
0.000209
0.000220
0.000252
0.000274
0.000265
0.000270
0.000284
0.000403
0.000056
0.000220
0.000297
0.000201
0.000235
0.000249
0.000257
0.000233
0.000232
0.000268
0.000252
0.000245
0.000239
0.000255
0.000447
0.000512
0.000424
0.000230
0.000254
0.000257
0.000250
0.000256
0.000362
0.001374
0.001055
0.000252
0.000231
0.000269
0.000256
0.000284
0.000275
0.000202
0.000056
0.000196
0.001384
0.000264
0.000197
0.000207
0.000254
0.000252
0.000244
0.000232
0.000255
0.000252
0.000265
0.000236
0.000371
0.000403
0.000487
0.000272
0.000208
0.000259
0.000266
0.000273
0.000234
0.000261
0.000262
0.001429
0.000648
0.000311
0.000395
0.000371
0.000396
0.000267
0.000056
0.000190
0.000211
0.000361
0.001309
0.000223
0.000263
0.000221
0.000258
0.000251
0.000255
0.000259
0.000238
0.000328
0.000305
0.000580
0.000334
0.000198
0.000331
0.000258
0.000222
0.000234
0.000273
0.000237
0.000258
0.000271
0.001540
0.000731
0.000312
0.000270
0.000280
0.000198
0.000056
0.000197
0.000213
0.000473
0.000414
0.001281
0.000245
0.000210
0.000203
0.000229
0.000258
0.000244
0.000264
0.000225
0.000232
0.000255
0.000272
0.000250
0.000230
0.000259
0.000267
0.000258
0.000264
0.000360
0.000285
0.000225
0.000256
0.000260
0.001534
0.000233
0.000230
0.000167
0.000055
0.000182
0.000214
0.000252
0.000336
0.000348
0.000336
0.000407
0.000244
0.001580
0.000237
0.000318
0.000427
0.000376
0.000242
0.000485
0.000231
0.000223
0.000229
0.000258
0.000278
0.000272
0.000268
0.000270
0.000257
0.000265
0.000413
0.000442
0.000333
0.001509
0.000273
0.000167
0.000056
0.000217
0.000209
0.000252
0.000267
0.000224
0.000240
0.000262
0.000308
0.000450
0.002065
0.000201
0.000224
0.000238
0.000257
0.000274
0.000313
0.000262
0.000208
0.000249
0.000425
0.000450
0.000374
0.001521
0.000223
0.000234
0.000484
0.001780
0.000276
0.000260
0.001490
0.000193
0.000056
0.000342
0.000351
0.000505
0.000232
0.000263
0.000231
0.000253
0.000257
0.000274
0.000232
0.000248
0.000315
0.000414
0.000367
0.000414
0.000291
0.000216
0.001577
0.000476
0.002003
0.000305
0.000243
0.000212
0.001568
0.002032
0.000716
0.000274
0.000220
0.000373
0.000332
0.000444
0.000055
0.000203
0.000218
0.000249
0.001538
0.000237
0.001632
0.001069
0.000233
0.000215
0.001585
0.001974
0.000227
0.000320
0.000404
0.000440
0.000195
0.000383
0.000433
0.000250
0.000230
0.000250
0.000254
0.000292
0.001590
0.001251
0.001425
0.000267
0.000246
0.000274
0.000285
0.000368
0.000057
0.000211
0.000236
0.000205
0.000242
0.000231
0.000234
0.000252
0.000258
0.000247
0.000253
0.000244
0.000365
0.000371
0.000523
0.000314
0.000198
0.000234
0.000268
0.000262
0.000274
0.000252
0.001446
0.000402
0.000452
0.002067
0.000250
0.000249
0.000342
0.000447
0.000456
0.000150
0.000056
0.000208
0.000397
0.000393
0.000321
0.000228
0.000208
0.000228
0.000257
0.000246
0.000243
0.000249
0.000260
0.000265
0.001612
0.001413
0.001234
0.000273
0.000223
0.000238
0.000221
0.000287
0.000281
0.000253
0.000243
0.002276
0.000217
0.000240
0.000264
0.000315
0.000305
0.000251
0.000058
0.000189
0.000381
0.000623
0.000321
0.000187
0.000201
0.000228
0.000258
0.001894
0.001440
0.000247
0.000390
0.000389
0.000361
0.000256
0.000206
0.000228
0.000275
0.000266
0.000261
0.000265
0.000253
0.000484
0.000245
0.000254
0.000285
0.000241
0.000263
0.000286
0.000245
0.000227
0.000057
0.000188
0.000223
0.000252
0.000249
0.000239
0.000266
0.001546
0.001489
0.001343
0.000210
0.000203
0.000229
0.000256
0.000263
0.000250
0.000253
0.000248
0.002169
0.000212
0.000237
0.000238
0.000258
0.000256
0.000266
0.000271
0.000263
0.000258
0.000256
0.000281
0.000260
0.000189
0.000055
0.001514
0.000313
0.002401
0.000252
0.000284
0.000313
0.000231
0.000252
0.000263
0.000246
0.000255
0.000247
0.000237
0.000238
0.000271
0.000253
0.000265
0.000270
0.000258
0.000268
0.000266
0.000281
0.000271
0.000275
0.000245
0.000248
0.000260
0.000276
0.000255
0.000268
0.000386
0.000057
0.000193
0.002548
0.000341
0.000199
0.000194
0.000215
0.000256
0.000262
0.000252
0.000267
0.000465
0.000301
0.000328
0.000238
0.000222
0.002247
0.000200
0.000219
0.000243
0.000632
0.000309
0.000280
0.000212
0.000228
0.000264
0.000251
0.000265
0.000274
0.000275
0.001678
0.001208
0.000058
0.000196
0.000220
0.000308
0.000421
0.000331
0.000253
0.000231
0.000210
0.000249
0.000257
0.000265
0.000253
0.000234
0.000239
0.000274
0.000274
0.000331
0.000561
0.000403
0.000239
0.000222
0.000244
0.000292
0.000258
0.000250
0.000233
0.000265
0.000284
0.000250
0.000277
0.000401
0.000057
0.001131
0.000270
0.000285
0.000457
0.000327
0.000204
0.000200
0.000230
0.002207
0.000471
0.000297
0.000376
0.000186
0.000302
0.000333
0.000274
0.000258
0.000258
0.000261
0.000242
0.000247
0.000267
0.000589
0.000549
0.001779
0.001415
0.000498
0.000506
0.000227
0.000250
0.000217
0.000056
0.000219
0.000370
0.000224
0.000237
0.000243
0.000239
0.000242
0.000244
0.000262
0.000252
0.000256
0.000239
0.000249
0.000233
0.000409
0.000669
0.001712
0.001420
0.000380
0.000361
0.000443
0.000254
0.000242
0.000254
0.002194
0.000502
0.000376
0.000236
0.000270
0.000279
0.000218
0.000056
0.000188
0.000226
0.000254
0.000244
0.000239
0.000343
0.000507
0.000262
0.000313
0.000227
0.000218
0.000290
0.000229
0.002089
0.000372
0.000397
0.000217
0.000236
0.000268
0.000252
0.000258
0.002447
0.000353
0.000217
0.000262
0.000258
0.000241
0.000274
0.000281
0.000286
0.000208
0.000057
0.000187
0.000376
0.000602
0.000342
0.000218
0.000207
0.000194
0.000254
0.000267
0.000257
0.002024
0.000389
0.000265
0.000260
0.000203
0.000238
0.000273
0.000250
0.002273
0.000395
0.000216
0.000252
0.000268
0.000263
0.000258
0.000256
0.000277
0.000249
0.000273
0.000253
0.000211
0.000056
0.000202
0.000220
0.000271
0.000223
0.000231
0.000255
0.000236
0.000245
0.000232
0.002186
0.000239
0.000265
0.000227
0.000479
0.000221
0.000215
0.000248
0.000280
0.000261
0.000270
0.002026
0.000244
0.000375
0.000364
0.000492
0.000330
0.000290
0.000251
0.000241
0.000240
0.000216
0.000058
0.000176
0.000220
0.000227
0.000255
0.000248
0.000389
0.000195
0.002350
0.000195
0.000243
0.000213
0.000263
0.000237
0.000243
0.000302
0.002208
0.000525
0.000237
0.000231
0.000240
0.000264
0.000259
0.000278
0.000272
0.000261
0.000257
0.000286
0.000259
0.000264
0.000305
0.000171
0.000071
0.000176
0.003007
0.000253
0.000214
0.000233
0.000248
0.000249
0.000252
0.000436
0.000379
0.002132
0.000258
0.000240
0.000264
0.000270
0.000579
0.000402
0.000290
0.000220
0.000207
0.000245
0.000264
0.000267
0.000241
0.000238
0.000276
0.000260
0.000270
0.000273
0.000754
0.000285
0.000055
0.000182
0.000280
0.000253
0.000216
0.000246
0.000246
0.000252
0.000247
0.001617
0.002057
0.000516
0.000269
0.000393
0.000771
0.000368
0.000194
0.000211
0.000249
0.000263
0.000261
0.000270
0.000235
0.000247
0.000281
0.001820
0.001444
0.000296
0.000326
0.000251
0.000327
0.000405
0.000056
0.001935
0.000230
0.000241
0.000186
0.000284
0.000348
0.000469
0.000324
0.000304
0.000237
0.000225
0.000206
0.000261
0.000246
0.000261
0.000268
0.000256
0.000262
0.001909
0.000209
0.000219
0.000232
0.000273
0.000285
0.000273
0.000254
0.001537
0.000346
0.000213
0.000215
0.000189
0.000057
0.000203
0.000213
0.000218
0.000239
0.000278
0.000237
0.000242
0.000401
0.000378
0.000405
0.000195
0.000215
0.000338
0.000323
0.000380
0.000321
0.000226
0.000217
0.000259
0.000364
0.000535
0.000428
0.000239
0.000219
0.000249
0.000257
0.000261
0.000255
0.000295
0.000250
0.000217
0.000055
0.001433
0.000397
0.000244
0.001993
0.000277
0.000456
0.000320
0.000386
0.000206
0.000209
0.000256
0.000252
0.000244
0.000253
0.000271
0.000261
0.000443
0.000263
0.000448
0.000338
0.000380
0.000223
0.000255
0.000256
0.000343
0.000230
0.000239
0.000274
0.000305
0.000551
0.001387
0.000058
0.000185
0.000211
0.002077
0.000292
0.000336
0.000242
0.000257
0.000252
0.000269
0.000243
0.000225
0.000249
0.000260
0.000257
0.000259
0.000349
0.000722
0.001731
0.000258
0.000251
0.000266
0.000272
0.000395
0.000443
0.001536
0.000268
0.000366
0.002013
0.000223
0.000237
0.000202
0.000056
0.000200
0.000201
0.000225
0.000248
0.000232
0.000252
0.000246
0.000271
0.000339
0.000307
0.000395
0.000355
0.000332
0.000295
0.000212
0.000262
0.000264
0.000247
0.000257
0.000264
0.000268
0.000337
0.000241
0.000261
0.000287
0.001551
0.000302
0.000400
0.001988
0.000264
0.000158
0.000057
0.000209
0.000212
0.000232
0.000250
0.000466
0.000236
0.000248
0.000319
0.000392
0.000387
0.000228
0.000212
0.000249
0.000269
0.000272
0.000324
0.000441
0.000415
0.000261
0.000359
0.000597
0.000410
0.001579
0.000264
0.000233
0.002046
0.000324
0.000231
0.000213
0.000270
0.000207
0.000055
0.000207
0.000214
0.000229
0.000241
0.000251
0.000265
0.000258
0.000262
0.000258
0.000273
0.001860
0.000285
0.000396
0.000331
0.000458
0.000361
0.001508
0.000340
0.000207
0.000315
0.002088
0.000542
0.000280
0.000225
0.000236
0.000267
0.000495
0.000232
0.000244
0.000285
0.000212
0.000056
0.000295
0.000388
0.000346
0.000279
0.000203
0.000218
0.000253
0.000244
0.000319
0.000257
0.000224
0.000242
0.000261
0.000258
0.000319
0.000481
0.001336
0.000255
0.000438
0.001831
0.000391
0.000223
0.000207
0.000270
0.000241
0.000273
0.000266
0.000267
0.000249
0.000261
0.000218
0.000057
0.000250
0.000376
0.002082
0.000208
0.000261
0.000226
0.000216
0.000340
0.000407
0.001497
0.000328
0.000371
0.000336
0.001999
0.000234
0.000236
0.000260
0.000274
0.000261
0.000231
0.000294
0.000283
0.000267
0.000345
0.000476
0.000436
0.000331
0.002164
0.000515
0.000482
0.000408
0.000057
0.000206
0.000208
0.000227
0.002032
0.000196
0.000218
0.000233
0.000243
0.000230
0.000252
0.000241
0.000272
0.000254
0.000273
0.000496
0.000355
0.001309
0.000238
0.000277
0.000259
0.000237
0.000244
0.000264
0.000262
0.000321
0.000487
0.000447
0.001588
0.000343
0.000223
0.000160
0.000058
0.000179
0.000205
0.000243
0.000229
0.000250
0.000247
0.000261
0.000245
0.000287
0.000314
0.000408
0.001469
0.000223
0.000188
0.000234
0.000256
0.000267
0.000252
0.000299
0.000458
0.000433
0.000456
0.000218
0.001560
0.000255
0.000235
0.000290
0.000277
0.000264
0.000275
0.000204
0.000057
0.000207
0.000210
0.000260
0.000268
0.000253
0.000230
0.000245
0.000239
0.000257
0.000245
0.000257
0.000250
0.000257
0.000249
0.001585
0.000232
0.000243
0.000264
0.000338
0.000321
0.000362
0.000261
0.000212
0.000251
0.000248
0.000286
0.001442
0.000294
0.000222
0.000226
0.000169
0.000057
0.000196
0.000226
0.000247
0.000265
0.000273
0.000213
0.000249
0.000268
0.000220
0.000265
0.000243
0.000256
0.000222
0.000321
0.000358
0.000364
0.000324
0.001556
0.000332
0.000219
0.000217
0.000230
0.000260
0.000303
0.000409
0.000463
0.000409
0.000237
0.000216
0.001595
0.000198
0.000056
0.000337
0.000405
0.000316
0.000284
0.000208
0.000204
0.000241
0.000271
0.000253
0.000247
0.000245
0.000229
0.001462
0.000326
0.000308
0.000216
0.000225
0.000272
0.000265
0.000252
0.000254
0.000241
0.000265
0.000263
0.000250
0.000354
0.000498
0.000468
0.000191
0.000216
0.000208
0.000058
0.000206
0.000222
0.000439
0.000431
0.000331
0.000240
0.000227
0.000251
0.000249
0.000257
0.000242
0.000234
0.000243
0.000252
0.001333
0.000272
0.000236
0.000202
0.000262
0.000270
0.000254
0.000248
0.000255
0.000265
0.000249
0.000263
0.000286
0.000716
0.000450
0.000243
0.000189
0.000057
0.000183
0.001537
0.000243
0.000329
0.000464
0.000405
0.000216
0.000228
0.000265
0.000253
0.000264
0.000239
0.000274
0.000270
0.000271
0.001511
0.000264
0.000279
0.000256
0.000261
0.000279
0.000237
0.000263
0.000263
0.000270
0.000248
0.000467
0.000401
0.000344
0.000229
0.000173
0.000056
0.000192
0.000228
0.000251
0.001699
0.000426
0.000312
0.000195
0.000210
0.000253
0.000261
0.000272
0.000265
0.000249
0.000259
0.000239
0.000260
0.000337
0.001462
0.000216
0.000237
0.001518
0.000420
0.000485
0.000387
0.000282
0.000219
0.000271
0.000459
0.000244
0.000250
0.000214
0.000058
0.000285
0.000218
0.000214
0.000248
0.000241
0.000255
0.000238
0.000261
0.000257
0.000235
0.000262
0.000250
0.000324
0.000482
0.001663
0.001503
0.000372
0.000520
0.000325
0.000233
0.000230
0.000267
0.000239
0.000268
0.000258
0.000258
0.000257
0.000288
0.001597
0.000307
0.000134
0.000056
0.000206
0.000337
0.000348
0.000333
0.000255
0.000210
0.000208
0.000342
0.000413
0.001439
0.000354
0.001542
0.000434
0.000363
0.000491
0.000263
0.000346
0.000330
0.000346
0.000277
0.000249
0.000352
0.001559
0.000538
0.000239
0.000239
0.000270
0.000233
0.000267
0.000256
0.000226
0.000072
0.000162
0.000235
0.000249
0.000257
0.000239
0.001651
0.000961
0.000908
0.000233
0.000231
0.000257
0.000264
0.000247
0.000260
0.000258
0.000255
0.000250
0.000266
0.000265
0.000292
0.001488
0.000271
0.000257
0.000219
0.000222
0.000251
0.000261
0.000297
0.000250
0.000282
0.000211
0.000057
0.000196
0.000203
0.001527
0.001006
0.000303
0.000341
0.000212
0.000208
0.000251
0.000256
0.000242
0.000260
0.000248
0.002185
0.000326
0.000207
0.000210
0.000247
0.000256
0.000266
0.000210
