0.000310
0.020741
0.000719
0.000380
0.000252
0.000294
0.000326
0.000224
0.000332
0.000284
0.000252
0.000356
0.000456
0.000503
0.000358
0.000409
0.000256
0.000348
0.000355
0.000421
0.001832
0.000417
0.000687
0.000267
0.000237
0.000305
0.000315
0.000318
0.000442
0.000380
0.000489
0.000291
0.000058
0.000212
0.000269
0.000268
0.000284
0.000249
0.000249
0.000279
0.000285
0.000285
0.000261
0.000423
0.000435
0.000305
0.000264
0.000374
0.000351
0.000364
0.000251
0.000241
0.001700
0.000312
0.000268
0.000445
0.000237
0.000285
0.000278
0.000285
0.000301
0.000277
0.000337
0.000399
0.000056
0.000234
0.000249
0.000264
0.000262
0.000254
0.000245
0.000262
0.000258
0.000284
0.001669
0.000222
0.000235
0.000275
0.000271
0.000278
0.000250
0.000264
0.000258
0.000352
0.001787
0.000240
0.000279
0.000455
0.000430
0.000390
0.000227
0.000264
0.000456
0.000484
0.000830
0.000168
0.000057
0.000231
0.000248
0.000250
0.000264
0.000281
0.000245
0.000264
0.000621
0.000370
0.000258
0.000236
0.000249
0.000246
0.000254
0.000256
0.000253
0.000243
0.000266
0.000307
0.000317
0.001676
0.000280
0.000243
0.000430
0.000375
0.000653
0.000660
0.000492
0.000357
0.000226
0.000186
0.000056
0.000216
0.000248
0.000298
0.000211
0.000283
0.000232
0.000274
0.000480
0.001446
0.000210
0.000245
0.000244
0.000254
0.000257
0.000267
0.000284
0.000253
0.000833
0.001377
0.000304
0.000240
0.000422
0.000234
0.000260
0.000244
0.000258
0.000267
0.000275
0.000255
0.000271
0.000195
0.000057
0.000196
0.000240
0.000248
0.000265
0.000235
0.000256
0.000226
0.000257
0.000244
0.000248
0.001632
0.000266
0.000224
0.000247
0.000250
0.000250
0.000248
0.000266
0.000234
0.000258
0.000295
0.001638
0.000277
0.000257
0.000448
0.000258
0.000240
0.000258
0.000269
0.000267
0.000199
0.000056
0.000211
0.000227
0.000256
0.000249
0.000238
0.000248
0.000260
0.000236
0.000269
0.000257
0.000248
0.000254
0.000260
0.000273
0.001646
0.000276
0.000287
0.000218
0.000255
0.000273
0.000267
0.000232
0.000249
0.000265
0.001793
0.000387
0.000342
0.000376
0.000231
0.000284
0.000187
0.000055
0.000234
0.000231
0.000244
0.000271
0.000254
0.000264
0.000253
0.000456
0.000410
0.000410
0.000194
0.000255
0.000240
0.000248
0.001573
0.000511
0.000343
0.000516
0.000202
0.000229
0.000262
0.000283
0.000272
0.001736
0.000515
0.000466
0.000235
0.000262
0.000226
0.000276
0.000187
0.000055
0.000203
0.000234
0.000256
0.000267
0.000354
0.000412
0.000382
0.000288
0.000218
0.000236
0.000270
0.000234
0.000263
0.001731
0.000456
0.000302
0.000220
0.000254
0.000269
0.000291
0.000246
0.000257
0.001805
0.000373
0.000300
0.000387
0.000238
0.000259
0.000258
0.000407
0.000328
0.000056
0.000207
0.000379
0.000325
0.000318
0.000247
0.000253
0.000248
0.000261
0.000237
0.000235
0.000232
0.000248
0.001567
0.000349
0.000307
0.000225
0.000258
0.000252
0.000241
0.000312
0.000252
0.000327
0.000247
0.001820
0.000263
0.000485
0.000244
0.000244
0.000261
0.000268
0.000286
0.000056
0.000397
0.000667
0.000466
0.000215
0.000232
0.000270
0.000230
0.000211
0.000266
0.000255
0.000254
0.001705
0.000245
0.000448
0.000372
0.000224
0.000229
0.000229
0.000247
0.000269
0.000257
0.001855
0.000223
0.000472
0.001856
0.000519
0.000359
0.000251
0.000252
0.000269
0.000182
0.000056
0.000220
0.000229
0.000244
0.000245
0.000255
0.001629
0.000252
0.000227
0.000252
0.000267
0.000228
0.000268
0.000240
0.000240
0.000285
0.000427
0.000626
0.000242
0.000228
0.000266
0.000282
0.000234
0.000242
0.000444
0.000430
0.000241
0.000353
0.000556
0.000468
0.000245
0.000218
0.000057
0.000218
0.000236
0.000252
0.000257
0.000239
0.000232
0.000239
0.000459
0.001781
0.000311
0.000220
0.000240
0.000248
0.000242
0.000256
0.000301
0.000452
0.000454
0.000355
0.000216
0.000250
0.000308
0.000281
0.000250
0.000282
0.000436
0.000340
0.000581
0.000416
0.000516
0.000176
0.000056
0.000209
0.000254
0.000245
0.000235
0.000236
0.000233
0.000249
0.000264
0.000225
0.000296
0.000344
0.000459
0.001364
0.000248
0.000223
0.000251
0.000261
0.000243
0.000252
0.000269
0.000268
0.000482
0.000399
0.000270
0.000249
0.000246
0.000266
0.000263
0.000267
0.000254
0.000401
0.000055
0.000206
0.000235
0.000223
0.000271
0.000546
0.000425
0.000236
0.000252
0.000239
0.000254
0.000262
0.000229
0.000294
0.000251
0.000236
0.000479
0.000427
0.001645
0.000278
0.000227
0.000255
0.000270
0.000257
0.000236
0.000263
0.000505
0.000403
0.000367
0.000414
0.000231
0.000198
0.000055
0.000227
0.000437
0.000247
0.000194
0.000286
0.000226
0.000395
0.000456
0.000348
0.000314
0.000220
0.000277
0.000260
0.000243
0.000518
0.000339
0.000214
0.000248
0.000452
0.001608
0.000261
0.000276
0.000495
0.000245
0.000277
0.000288
0.000239
0.000280
0.000621
0.000377
0.000272
0.000057
0.000182
0.000232
0.000244
0.000235
0.000422
0.000307
0.000289
0.000220
0.000412
0.000425
0.000422
0.000250
0.000230
0.000247
0.000253
0.000271
0.000256
0.000254
0.000228
0.000351
0.000289
0.000329
0.001852
0.000235
0.000262
0.000250
0.000295
0.000347
0.000413
0.000683
0.000452
0.000058
0.000223
0.000329
0.000293
0.000419
0.000390
0.000209
0.000253
0.000299
0.000529
0.000401
0.000252
0.000242
0.000236
0.000273
0.000262
0.000235
0.000265
0.000261
0.000266
0.000260
0.000266
0.000363
0.000769
0.001273
0.000337
0.000432
0.000421
0.000228
0.000439
0.000415
0.000326
0.000056
0.000230
0.000375
0.000278
0.000217
0.000219
0.000246
0.000413
0.000250
0.000223
0.000350
0.000443
0.000463
0.000221
0.000263
0.000260
0.000257
0.000360
0.000418
0.000308
0.000243
0.000240
0.000390
0.000631
0.001679
0.000230
0.000435
0.000319
0.000209
0.000263
0.000476
0.000280
0.000056
0.000230
0.000226
0.000242
0.000262
0.000248
0.000238
0.000248
0.000329
0.000463
0.000329
0.000371
0.000399
0.000270
0.000581
0.000251
0.000235
0.000273
0.000263
0.000237
0.000351
0.000215
0.000240
0.000274
0.000400
0.000598
0.001568
0.000269
0.000239
0.000242
0.000274
0.000187
0.000057
0.000312
0.000519
0.000291
0.000220
0.000255
0.000250
0.000240
0.000240
0.000273
0.000237
0.000220
0.000281
0.000387
0.000580
0.000331
0.000294
0.000252
0.000245
0.000341
0.000385
0.000384
0.000334
0.000360
0.000395
0.000247
0.000275
0.000239
0.000279
0.001790
0.000249
0.000211
0.000056
0.000205
0.000220
0.000256
0.000296
0.000337
0.000549
0.000325
0.000214
0.000261
0.000241
0.000243
0.000252
0.000523
0.000457
0.000479
0.000278
0.000278
0.000244
0.000424
0.000467
0.000353
0.000396
0.000605
0.000338
0.000246
0.000232
0.000261
0.000253
0.000271
0.001717
0.000378
0.000056
0.000256
0.000332
0.000211
0.000229
0.000258
0.000249
0.000241
0.000513
0.000363
0.000308
0.000292
0.000278
0.000345
0.000643
0.000346
0.000228
0.000257
0.000249
0.000251
0.000269
0.000283
0.000253
0.000235
0.000274
0.000282
0.000416
0.000375
0.000356
0.000255
0.000238
0.000189
0.000059
0.000453
0.000301
0.000443
0.000255
0.000204
0.000252
0.000245
0.000255
0.000240
0.000224
0.000250
0.000282
0.000290
0.000424
0.000512
0.000424
0.000316
0.000312
0.000385
0.000343
0.000300
0.000230
0.000247
0.000265
0.001750
0.000250
0.001732
0.000965
0.000354
0.000345
0.000162
0.000057
0.000225
0.000229
0.000232
0.000248
0.000268
0.000240
0.000254
0.000279
0.000213
0.000308
0.000380
0.000428
0.000343
0.000373
0.000246
0.000248
0.000256
0.000290
0.000228
0.000244
0.000251
0.000270
0.001809
0.000243
0.000249
0.000263
0.000280
0.000263
0.001888
0.000497
0.000287
0.000056
0.000230
0.000211
0.000233
0.000242
0.000257
0.000248
0.000240
0.000253
0.000253
0.000364
0.000648
0.000239
0.000386
0.000237
0.000239
0.000253
0.000330
0.000437
0.000364
0.000268
0.001768
0.000259
0.000231
0.000257
0.000263
0.000268
0.000245
0.000254
0.000334
0.000295
0.000407
0.000056
0.000220
0.000231
0.000231
0.000271
0.000237
0.000244
0.000250
0.000255
0.000245
0.000250
0.000242
0.000312
0.000319
0.000439
0.000327
0.000282
0.000450
0.000231
0.000252
0.000259
0.000257
0.000256
0.000278
0.000254
0.000289
0.001788
0.000265
0.000211
0.000281
0.000228
0.000202
0.000055
0.000231
0.000381
0.000241
0.000210
0.000235
0.000231
0.000247
0.000255
0.000246
0.000221
0.000234
0.000263
0.000258
0.000365
0.000401
0.000401
0.000248
0.000237
0.000252
0.000258
0.000265
0.000260
0.000248
0.000269
0.000247
0.000274
0.000308
0.001631
0.000292
0.000213
0.000181
0.000056
0.000204
0.000234
0.000249
0.000269
0.000349
0.000386
0.000391
0.000292
0.000214
0.000259
0.000268
0.000226
0.000251
0.000254
0.000261
0.000251
0.000255
0.000256
0.000273
0.000244
0.000263
0.000271
0.000247
0.000233
0.000253
0.000277
0.000270
0.000260
0.000261
0.000259
0.000191
0.000056
0.000208
0.000221
0.000255
0.000275
0.000231
0.000234
0.000243
0.000257
0.000287
0.000237
0.000270
0.000206
0.000265
0.000244
0.000287
0.000242
0.000248
0.000254
0.000306
0.000245
0.000269
0.000327
0.000270
0.000224
0.000304
0.000248
0.000271
0.000255
0.000246
0.000398
0.000723
0.000056
0.000229
0.000286
0.000232
0.000212
0.000236
0.000255
0.000241
0.000249
0.000254
0.000244
0.000265
0.000298
0.000483
0.000444
0.001572
0.000227
0.000517
0.000210
0.000256
0.000456
0.000433
0.000391
0.000222
0.000283
0.000240
0.000265
0.000281
0.000256
0.000306
0.000294
0.000150
0.000056
0.000323
0.000457
0.000352
0.000310
0.000203
0.000282
0.000225
0.000239
0.000236
0.000245
0.000259
0.000254
0.000243
0.000310
0.000292
0.000516
0.000398
0.001783
0.000226
0.000261
0.000334
0.000430
0.000490
0.000257
0.000314
0.000316
0.000306
0.000230
0.000227
0.000251
0.000198
0.000056
0.000213
0.000227
0.000235
0.000280
0.000448
0.000356
0.000350
0.000257
0.000250
0.000217
0.000248
0.000272
0.000263
0.000263
0.000245
0.000259
0.000287
0.000514
0.000339
0.000458
0.000208
0.001748
0.000327
0.000489
0.000484
0.000495
0.000327
0.000224
0.000247
0.000267
0.000450
0.000057
0.000213
0.000265
0.000219
0.000264
0.000435
0.000489
0.000382
0.000220
0.000260
0.000276
0.000208
0.000264
0.000253
0.000299
0.000333
0.000212
0.000230
0.000439
0.000442
0.000389
0.000454
0.001818
0.000242
0.000504
0.000455
0.000349
0.000214
0.000292
0.000279
0.000243
0.000211
0.000055
0.000213
0.000340
0.000359
0.000376
0.000358
0.000318
0.000332
0.000218
0.000250
0.000244
0.000281
0.000221
0.000250
0.000247
0.000256
0.000257
0.000333
0.000349
0.000523
0.000380
0.000284
0.000233
0.000256
0.001714
0.000374
0.000541
0.000715
0.000234
0.000274
0.000291
0.000156
0.000055
0.000199
0.000232
0.000351
0.000234
0.000261
0.000345
0.000446
0.000304
0.000237
0.000560
0.000199
0.000253
0.000253
0.000278
0.000275
0.000267
0.000213
0.000417
0.000396
0.000446
0.000267
0.000224
0.000260
0.000252
0.000257
0.000275
0.000233
0.000255
0.000268
0.000294
0.000190
0.000056
0.000244
0.000354
0.000210
0.000259
0.000251
0.000256
0.000257
0.000268
0.000241
0.000257
0.000273
0.000331
0.000431
0.000380
0.000412
0.000220
0.000224
0.000241
0.000258
0.000264
0.000286
0.000264
0.000232
0.000260
0.000280
0.000319
0.000410
0.000375
0.000356
0.000227
0.000183
0.000056
0.000199
0.000216
0.000285
0.000239
0.000237
0.000271
0.000263
0.000227
0.000502
0.000205
0.000259
0.000264
0.000239
0.000259
0.000277
0.000294
0.000239
0.000359
0.000217
0.000234
0.000257
0.000261
0.000264
0.000262
0.000278
0.000256
0.000265
0.000252
0.000264
0.000504
0.000154
0.000072
0.000176
0.000234
0.000249
0.000290
0.000202
0.000246
0.000363
0.000408
0.000231
0.000237
0.000250
0.000256
0.000234
0.000227
0.000479
0.001791
0.000228
0.000264
0.000289
0.000334
0.000408
0.000367
0.000360
0.000391
0.000383
0.000417
0.000233
0.000268
0.000265
0.000280
0.001392
0.000057
0.000387
0.000304
0.000275
0.000208
0.000237
0.000251
0.000238
0.000252
0.000241
0.000272
0.000248
0.000263
0.000246
0.000279
0.000529
0.001660
0.000231
0.000252
0.000221
0.000268
0.000244
0.000254
0.000417
0.000369
0.000257
0.000366
0.000217
0.000266
0.000277
0.000260
0.000196
0.000057
0.001213
0.000518
0.000353
0.000260
0.000238
0.000213
0.000236
0.000242
0.000490
0.000217
0.000241
0.000246
0.000451
0.000327
0.000482
0.000354
0.000253
0.000231
0.000332
0.000357
0.000261
0.000263
0.000273
0.000233
0.000273
0.000599
0.000529
0.000270
0.000249
0.000267
0.000178
0.000055
0.000225
0.000209
0.000241
0.000251
0.001538
0.000233
0.000223
0.000257
0.000258
0.000232
0.000253
0.000247
0.000242
0.000262
0.000272
0.000286
0.000451
0.000641
0.000264
0.001746
0.000254
0.000294
0.000316
0.000426
0.000530
0.000400
0.000245
0.000244
0.000262
0.000269
0.000195
0.000055
0.000219
0.000256
0.000232
0.000273
0.001301
0.000230
0.000254
0.000259
0.000239
0.000234
0.000238
0.000260
0.000273
0.000247
0.000245
0.000337
0.000358
0.000500
0.000313
0.000258
0.000271
0.000272
0.000245
0.000226
0.000302
0.000253
0.000239
0.000279
0.000277
0.000430
0.000477
0.000056
0.000233
0.000239
0.000231
0.000258
0.000267
0.000242
0.000233
0.000265
0.000267
0.000279
0.001411
0.000247
0.000215
0.000247
0.000255
0.000239
0.000287
0.000246
0.000286
0.000239
0.000271
0.000555
0.000460
0.000324
0.000221
0.000274
0.001763
0.000264
0.000250
0.000323
0.000472
0.000056
0.000216
0.000405
0.000450
0.000503
0.000520
0.000553
0.001471
0.000425
0.000518
0.000652
0.000555
0.000664
0.000538
0.000618
0.000588
0.001876
0.000361
0.000475
0.000394
0.000323
0.000250
0.000256
0.000290
0.000267
0.000264
0.000290
0.000283
0.000284
0.000260
0.000285
0.001362
0.000056
0.000226
0.000227
0.000233
0.000239
0.000258
0.000263
0.000226
0.000250
0.000243
0.000247
0.000243
0.000251
0.000247
0.000259
0.000273
0.000262
0.001809
0.000273
0.000263
0.000250
0.000251
0.000266
0.000257
0.000279
0.000548
0.000278
0.000339
0.000237
0.000257
0.000301
0.000199
0.000056
0.000222
0.001341
0.000334
0.000274
0.000250
0.000240
0.000239
0.000230
0.000244
0.000236
0.000230
0.000235
0.000257
0.000503
0.000361
0.000305
0.000253
0.001810
0.000362
0.000235
0.000238
0.000260
0.000255
0.000275
0.000263
0.000292
0.000269
0.000256
0.000258
0.000320
0.000203
0.000057
0.000197
0.000239
0.000249
0.001444
0.000233
0.000237
0.000237
0.000246
0.000237
0.000276
0.000244
0.000247
0.000250
0.000281
0.000233
0.000260
0.000265
0.000259
0.000273
0.000253
0.000264
0.001767
0.000285
0.001753
0.000265
0.000260
0.000255
0.000271
0.000261
0.000275
0.000197
0.000056
0.000207
0.000250
0.001336
0.000255
0.000237
0.000234
0.000256
0.000256
0.000240
0.000252
0.000253
0.000241
0.000261
0.000280
0.000241
0.000266
0.000259
0.000284
0.000291
0.000230
0.001877
0.000240
0.001832
0.000236
0.000256
0.000280
0.000230
0.000251
0.000251
0.000271
0.000205
0.000056
0.001449
0.000224
0.000219
0.000245
0.000239
0.000236
0.000373
0.000285
0.000230
0.000256
0.000253
0.000265
0.000235
0.000418
0.000348
0.000290
0.000241
0.000267
0.000255
0.000254
0.000266
0.000351
0.000218
0.000252
0.000273
0.000281
0.000264
0.000366
0.000693
0.000298
0.000195
0.000056
0.000215
0.000255
0.000266
0.000301
0.000362
0.000262
0.001687
0.000310
0.000273
0.000269
0.000260
0.000270
0.000267
0.000268
0.000304
0.000307
0.000348
0.000597
0.000365
0.000247
0.000294
0.000275
0.000264
0.000267
0.000318
0.000267
0.000272
0.000243
0.000262
0.000272
0.000444
0.000056
0.000261
0.000455
0.000263
0.000265
0.000247
0.000234
0.000224
0.000242
0.000260
0.000283
0.001511
0.000209
0.000218
0.000252
0.000245
0.000289
0.000278
0.000236
0.000267
0.000266
0.000268
0.000410
0.000547
0.000270
0.000263
0.000284
0.000269
0.000257
0.000235
0.000317
0.000171
0.000056
0.000195
0.000232
0.000355
0.000388
0.000408
0.000242
0.000212
0.000249
0.000255
0.000248
0.000236
0.000249
0.000260
0.000263
0.000242
0.000260
0.000504
0.001087
0.000245
0.000243
0.000276
0.000248
0.000445
0.000328
0.000248
0.000286
0.000635
0.000334
0.000381
0.000246
0.000165
0.000057
0.000217
0.000241
0.000261
0.000260
0.000252
0.000256
0.000352
0.000374
0.000480
0.000263
0.000359
0.000400
0.000400
0.000350
0.000250
0.000244
0.000230
0.000263
0.000411
0.000442
0.001290
0.000211
0.000269
0.000276
0.000232
0.000232
0.000264
0.000341
0.000395
0.000481
0.000224
0.000057
0.000191
0.000236
0.000258
0.000247
0.000241
0.000239
0.000236
0.000271
0.000305
0.000344
0.000398
0.000405
0.000251
0.000233
0.000245
0.000262
0.000250
0.000262
0.000261
0.000272
0.000425
0.000253
0.000353
0.000396
0.000360
0.000240
0.000275
0.000264
0.000253
0.000354
0.000168
0.000056
0.000297
0.000316
0.000297
0.000400
0.000416
0.000389
0.000238
0.000243
0.000245
0.000269
0.000261
0.000258
0.000240
0.000251
0.000233
0.000233
0.000261
0.000374
0.000454
0.000391
0.000219
0.000264
0.000253
0.000243
0.000267
0.000280
0.000266
0.000285
0.000262
0.000256
0.000306
0.000056
0.000264
0.000329
0.000237
0.000271
0.000223
0.000241
0.000246
0.000255
0.000263
0.000259
0.000250
0.000238
0.000268
0.000510
0.000443
0.000286
0.000237
0.000253
0.000251
0.000265
0.000251
0.000262
0.000262
0.000267
0.000277
0.000287
0.000434
0.000609
0.000400
0.000252
0.000178
0.000056
0.000376
0.000205
0.000225
0.000236
0.000249
0.000245
0.000237
0.000253
0.000258
0.000256
0.000226
0.000243
0.000276
0.000225
0.000234
0.000273
0.000247
0.000266
0.000296
0.000243
0.000262
0.000256
0.000264
0.000257
0.000274
0.000239
0.000260
0.000276
0.000253
0.000287
0.000194
0.000055
0.000187
0.000239
0.000247
0.000246
0.000235
0.000257
0.000257
0.000245
0.000258
0.000278
0.000233
0.000231
0.000262
0.000393
0.000251
0.000301
0.000244
0.000268
0.000248
0.000283
0.000270
0.000233
0.000252
0.000245
0.000277
0.000274
0.000244
0.000258
0.000273
0.000260
0.000211
0.000054
0.000236
0.000341
0.000370
0.000280
0.000295
0.000257
0.000260
0.000257
0.000218
0.000253
0.000276
0.000234
0.000247
0.000238
0.000257
0.000281
0.000248
0.000263
0.000243
0.000263
0.000284
0.000263
0.000273
0.000257
0.000290
0.000222
0.000265
0.000273
0.000277
0.000256
0.000220
0.000056
0.000176
0.000235
0.000270
0.000256
0.000255
0.000448
0.000208
0.000272
0.000255
0.000426
0.000518
0.000282
0.000228
0.000248
0.000282
0.000257
0.000232
0.000270
0.000257
0.000273
0.000264
0.000257
0.000257
0.000246
0.000599
0.000474
0.000261
0.000296
0.000261
0.000264
0.000191
0.000056
0.000218
0.000221
0.000247
0.000254
0.000311
0.000658
0.000318
0.000384
0.000206
0.000246
0.000252
0.000253
0.000255
0.000244
0.000255
0.000269
0.000272
0.000265
0.000570
0.000427
0.000305
0.000243
0.000251
0.000290
0.000278
0.000259
0.000267
0.000282
0.000229
0.000334
0.000306
0.000056
0.000270
0.000246
0.000223
0.000236
0.000258
0.000268
0.000215
0.000246
0.000245
0.000257
0.000246
0.000247
0.000251
0.000471
0.000497
0.000388
0.000237
0.000253
0.000265
0.000242
0.000272
0.000286
0.000480
0.000217
0.000261
0.000571
0.000414
0.000517
0.000245
0.000254
0.000182
0.000056
0.000204
0.000226
0.000244
0.000245
0.000261
0.000249
0.000287
0.000423
0.000661
0.000381
0.000220
0.000261
0.000276
0.000268
0.000259
0.000246
0.000237
0.000253
0.000276
0.000362
0.000343
0.000664
0.000363
0.000245
0.000369
0.000384
0.000499
0.000211
0.000268
0.000349
0.000417
0.000056
0.000261
0.000235
0.000436
0.000226
0.000228
0.000256
0.000260
0.000262
0.000226
0.000246
0.000314
0.000368
0.000365
0.000330
0.000216
0.000257
0.000260
0.000254
0.000265
0.000279
0.000271
0.000252
0.000249
0.000276
0.000350
0.000450
0.000488
0.000236
0.000247
0.000278
0.000198
0.000057
0.000226
0.000255
0.000222
0.000251
0.000246
0.000262
0.000340
0.000426
0.000435
0.000267
0.000378
0.000221
0.000245
0.000268
0.000252
0.000240
0.000251
0.000267
0.000273
0.000414
0.000548
0.000264
0.000478
0.000274
0.000405
0.000401
0.000382
0.000248
0.000253
0.000264
0.000461
0.000055
0.000218
0.000265
0.000226
0.000255
0.000259
0.000256
0.000245
0.000244
0.000274
0.000242
0.000241
0.000401
0.000404
0.000377
0.000376
0.000216
0.000266
0.000265
0.000265
0.000240
0.000253
0.000248
0.000269
0.000272
0.000275
0.000317
0.000518
0.000469
0.000242
0.000272
0.000193
0.000056
0.000208
0.000242
0.000279
0.000251
0.000237
0.000345
0.000501
0.000463
0.000363
0.000691
0.000270
0.000209
0.000234
0.000262
0.000239
0.000277
0.000276
0.000274
0.000488
0.000430
0.001490
0.000332
0.000261
0.000262
0.000294
0.000238
0.000369
0.000429
0.000361
0.000307
0.000182
0.000056
0.000218
0.000227
0.000232
0.000266
0.000223
0.000255
0.000299
0.000228
0.000259
0.000317
0.000334
0.000381
0.000284
0.000319
0.000394
0.000347
0.000240
0.000246
0.000268
0.000256
0.000247
0.000250
0.000306
0.000231
0.000322
0.000444
0.000418
0.000283
0.000248
0.000275
0.000184
0.000056
0.000235
0.000242
0.000256
0.000254
0.000238
0.000245
0.000470
0.000217
0.000221
0.000256
0.000244
0.000253
0.000262
0.000254
0.000244
0.000275
0.000261
0.000293
0.000248
0.000254
0.000281
0.000271
0.000286
0.000245
0.000260
0.000287
0.000262
0.000267
0.000265
0.000272
0.000175
0.000056
0.000234
0.000237
0.000283
0.000441
0.000375
0.000251
0.000235
0.000248
0.000260
0.000250
0.000252
0.000254
0.000264
0.000261
0.000238
0.000241
0.000270
0.000244
0.000380
0.000231
0.000440
0.000414
0.000222
0.000263
0.000269
0.000250
0.000267
0.000251
0.000278
0.000275
0.000204
0.000056
0.000398
0.000418
0.000404
0.000200
0.000252
0.000262
0.000440
0.000199
0.000221
0.000258
0.000261
0.000291
0.000348
0.000445
0.001859
0.000255
0.000245
0.000254
0.000274
0.000240
0.000358
0.000430
0.000684
0.000226
0.000222
0.000266
0.000286
0.000414
0.000276
0.000284
0.000156
0.000055
0.000243
0.000350
0.000320
0.000350
0.000496
0.000198
0.000238
0.000253
0.000242
0.000245
0.000262
0.000248
0.000262
0.000305
0.000395
0.000515
0.000219
0.000235
0.000259
0.000260
0.000265
0.000313
0.000243
0.000273
0.000275
0.000447
0.000536
0.000454
0.000393
0.000220
0.000207
0.000055
0.000201
0.000226
0.000279
0.000210
0.000246
0.000250
0.000268
0.000297
0.000321
0.000332
0.000531
0.000298
0.000211
0.000253
0.000267
0.000294
0.000300
0.000231
0.000273
0.000275
0.000234
0.000304
0.000487
0.000349
0.000304
0.000251
0.000254
0.000441
0.000432
0.000307
0.000161
0.000056
0.000216
0.000256
0.000313
0.000463
0.000350
0.000215
0.000221
0.000252
0.000267
0.000265
0.000254
0.000249
0.000226
0.000259
0.000261
0.000308
0.000412
0.000330
0.000302
0.000346
0.000481
0.000231
0.000279
0.000275
0.000303
0.000283
0.000255
0.000260
0.000521
0.000443
0.000230
0.000055
0.000194
0.000225
0.000252
0.000247
0.000241
0.000488
0.000215
0.000255
0.000267
0.000384
0.000426
0.000601
0.000202
0.000242
0.000241
0.000253
0.000253
0.000268
0.000241
0.000243
0.000294
0.000245
0.000358
0.000423
0.000350
0.000417
0.000288
0.000307
0.000330
0.000228
0.000189
0.000056
0.000193
0.000235
0.000266
0.000472
0.000333
0.000289
0.000256
0.000238
0.000240
0.000252
0.000256
0.000262
0.000259
0.000243
0.000268
0.000242
0.000250
0.000237
0.000288
0.000384
0.000515
0.000382
0.000217
0.000254
0.000276
0.000274
0.000255
0.000266
0.000266
0.000264
0.000196
0.000056
0.000299
0.000344
0.000491
0.000231
0.000221
0.000252
0.000316
0.000458
0.000283
0.000230
0.000225
0.000275
0.000256
0.000480
0.000407
0.000294
0.000239
0.000225
0.000250
0.000262
0.000281
0.000264
0.000255
0.000297
0.000236
0.000370
0.000293
0.000471
0.000295
0.000240
0.000192
0.000056
0.000211
0.000243
0.000246
0.000257
0.000256
0.000257
0.000233
0.000267
0.000252
0.000235
0.000264
0.000238
0.000288
0.001432
0.000219
0.000257
0.000265
0.000241
0.000277
0.000277
0.000263
0.000233
0.000280
0.000254
0.000269
0.000267
0.000273
0.000267
0.000261
0.000270
0.000194
0.000055
0.000224
0.000214
0.000254
0.000269
0.000224
0.000238
0.000262
0.000257
0.000224
0.000249
0.000246
0.000266
0.000282
0.000233
0.000251
0.000260
0.000255
0.000246
0.000277
0.000252
0.000257
0.000261
0.000248
0.000259
0.001287
0.000290
0.000606
0.000350
0.000396
0.000219
0.000192
0.000055
0.000223
0.000232
0.000241
0.000250
0.000437
0.000229
0.000224
0.000245
0.000257
0.000391
0.000456
0.000313
0.000223
0.000232
0.000266
0.000256
0.000258
0.000267
0.000248
0.000258
0.000254
0.000258
0.000296
0.000382
0.000593
0.000374
0.000225
0.000263
0.001374
0.000247
0.000188
0.000056
0.000252
0.000381
0.000336
0.000264
0.000232
0.000217
0.000232
0.000247
0.000266
0.000253
0.000246
0.000252
0.000302
0.000354
0.000442
0.000367
0.000367
0.000219
0.000235
0.000264
0.000273
0.000283
0.000249
0.000259
0.000273
0.000257
0.000342
0.000550
0.000376
0.000365
0.000152
0.000056
0.000200
0.000238
0.001259
0.000457
0.000250
0.000474
0.000383
0.000497
0.000262
0.000347
0.000217
0.000230
0.000261
0.000251
0.000249
0.000272
0.000285
0.000591
0.000395
0.000325
0.000268
0.000238
0.000267
0.000497
0.000233
0.000264
0.000256
0.000284
0.000281
0.000572
0.000309
0.000056
0.000383
0.000313
0.000245
0.000215
0.001659
0.000351
0.000323
0.000239
0.000240
0.000261
0.000218
0.000241
0.000254
0.000260
0.000252
0.000263
0.000232
0.000274
0.000433
0.000332
0.000484
0.000232
0.000257
0.000261
0.000260
0.000279
0.000267
0.000233
0.000268
0.000279
0.000202
0.000056
0.000364
0.000347
0.000227
0.000225
0.000254
0.000240
0.000258
0.000240
0.000241
0.000225
0.001414
0.000452
0.000281
0.000254
0.000234
0.000256
0.000266
0.000261
0.000240
0.000301
0.000240
0.000251
0.000270
0.000398
0.000397
0.000493
0.000243
0.000254
0.000269
0.000279
0.000180
0.000056
0.000215
0.000444
0.000196
0.000225
0.000566
0.000304
0.000283
0.000334
0.000454
0.000203
0.000230
0.000252
0.000268
0.000264
0.000259
0.001387
0.000384
0.000282
0.000238
0.000278
0.000295
0.000233
0.000253
0.000254
0.000258
0.000273
0.000439
0.000461
0.000290
0.000285
0.000146
0.000055
0.000203
0.000239
0.000255
0.000234
0.000226
0.000263
0.000239
0.000245
0.000321
0.000318
0.000455
0.000292
0.000230
0.000259
0.000260
0.000265
0.000267
0.000264
0.000270
0.000223
0.000253
0.000269
0.001304
0.000248
0.000249
0.000258
0.000269
0.000255
0.000265
0.000262
0.000189
0.000056
0.000203
0.000369
0.000346
0.000385
0.000217
0.000250
0.000254
0.000285
0.000257
0.000244
0.000237
0.000269
0.000244
0.000255
0.000248
0.000270
0.000263
0.000273
0.000272
0.000236
0.000252
0.000271
0.000265
0.000289
0.000285
0.000270
0.000266
0.000259
0.000258
0.000453
0.001355
0.000056
0.000217
0.000255
0.000229
0.000256
0.000235
0.000258
0.000241
0.000231
0.000239
0.000257
0.000271
0.000266
0.000240
0.000245
0.000276
0.000223
0.001734
0.000248
0.000238
0.000263
0.000248
0.000256
0.000299
0.000232
0.000301
0.000236
0.000265
0.000273
0.000271
0.000256
0.000222
0.000056
0.000352
0.000336
0.001275
0.000234
0.000222
0.000243
0.000255
0.000250
0.000276
0.000242
0.000226
0.000343
0.000394
0.000450
0.000271
0.000230
0.000249
0.000258
0.000262
0.000263
0.000258
0.000266
0.000256
0.000283
0.000254
0.000388
0.000387
0.000367
0.000298
0.000249
0.000194
0.000055
0.000214
0.000243
0.000259
0.000233
0.000275
0.000203
0.000229
0.000327
0.000355
0.001335
0.000271
0.000212
0.000243
0.000283
0.000248
0.000288
0.000232
0.000255
0.000295
0.000412
0.000440
0.000215
0.000251
0.000244
0.000277
0.000278
0.000267
0.000338
0.000226
0.000276
0.000184
0.000056
0.000255
0.000372
0.000438
0.000215
0.000226
0.000240
0.000249
0.000272
0.000268
0.000245
0.000234
0.000248
0.000458
0.000497
0.000477
0.001447
0.000259
0.000254
0.000349
0.000340
0.000474
0.000422
0.000475
0.000399
0.000225
0.000261
0.000265
0.000280
0.000266
0.000270
0.000197
0.000055
0.000201
0.000285
0.000433
0.000426
0.000392
0.000238
0.000252
0.000239
0.000236
0.000276
0.000230
0.000266
0.000302
0.000205
0.000260
0.000311
0.000415
0.000371
0.000366
0.001317
0.000266
0.000253
0.000257
0.000262
0.000423
0.000490
0.000362
0.000255
0.000278
0.000267
0.000187
0.000055
0.000211
0.000239
0.000244
0.000265
0.000230
0.000266
0.000464
0.000374
0.000382
0.000216
0.000239
0.000263
0.000268
0.000285
0.000236
0.000263
0.000263
0.000249
0.000291
0.000295
0.000428
0.000426
0.000343
0.001326
0.000418
0.000232
0.000270
0.000468
0.000417
0.000329
0.000317
0.000055
0.000188
0.000239
0.000249
0.000252
0.000247
0.000255
0.001687
0.000238
0.000215
0.000241
0.000259
0.000258
0.000248
0.000327
0.000320
0.000295
0.000266
0.000315
0.000495
0.000423
0.000287
0.000288
0.000221
0.000244
0.001510
0.000364
0.000394
0.000442
0.000346
0.000294
0.000161
0.000055
0.000208
0.000243
0.000255
0.000262
0.000241
0.000265
0.001706
0.000226
0.000247
0.000259
0.000342
0.000399
0.001449
0.000358
0.000394
0.000231
0.000260
0.000235
0.000271
0.000270
0.001527
0.000603
0.000369
0.000299
0.000229
0.000249
0.000262
0.000286
0.000240
0.000258
0.000198
0.000056
0.000203
0.000241
0.000271
0.000242
0.000269
0.000272
0.000276
0.000256
0.000252
0.000255
0.000249
0.000252
0.000293
0.000236
0.000252
0.001519
0.000262
0.000223
0.000265
0.000282
0.000273
0.000253
0.000435
0.001270
0.000279
0.000231
0.000276
0.000242
0.000441
0.000207
0.000206
0.000055
0.000225
0.000247
0.000219
0.000248
0.000240
0.000231
0.000229
0.001699
0.000261
0.000215
0.000355
0.000267
0.000230
0.000217
0.000255
0.001409
0.000206
0.000266
0.000270
0.000247
0.000268
0.000340
0.000298
0.001298
0.000271
0.000260
0.000256
0.000254
0.001395
0.000302
0.000176
0.000056
0.000196
0.000379
0.000203
0.000239
0.000265
0.000227
0.000289
0.000243
0.000266
0.000249
0.000257
0.000264
0.000255
0.000245
0.000294
0.001563
0.000203
0.000264
0.000255
0.000243
0.000291
0.000260
0.000250
0.001511
0.000342
0.000232
0.000269
0.001280
0.000276
0.000232
0.000213
0.000056
0.000194
0.000386
0.000349
0.000207
0.000226
0.000245
0.000268
0.000255
0.000265
0.000271
0.000232
0.000253
0.000262
0.000267
0.000429
0.001221
0.000235
0.000239
0.000270
0.000273
0.000221
0.000250
0.000250
0.000327
0.001309
0.000208
0.000258
0.000276
0.000235
0.001351
0.000314
0.000057
0.000316
0.000253
0.000220
0.000226
0.000241
0.000268
0.000229
0.000251
0.000294
0.000232
0.000241
0.000251
0.000245
0.000431
0.000315
0.001497
0.000192
0.000256
0.000304
0.000507
0.000291
0.000377
0.001362
0.000304
0.000232
0.000268
0.000253
0.001305
0.000250
0.000511
0.000392
0.000055
0.000232
0.000253
0.000256
0.000258
0.000250
0.000252
0.000273
0.000262
0.000248
0.000260
0.000309
0.000488
0.001323
0.000254
0.000260
0.000260
0.000279
0.000221
0.000235
0.000239
0.000344
0.001242
0.000260
0.000240
0.000258
0.000242
0.001616
0.000307
0.000514
0.000223
0.000174
0.000055
0.000203
0.000226
0.000267
0.000221
0.000256
0.000262
0.000235
0.000256
0.000419
0.000511
0.000264
0.001497
0.000207
0.000235
0.000267
0.000253
0.000266
0.000282
0.001687
0.000259
0.000390
0.000346
0.001271
0.000356
0.000321
0.000318
0.000262
0.000257
0.000255
0.000269
0.000206
0.000070
0.000190
0.000238
0.000326
0.000243
0.000305
0.000578
0.000266
0.000297
0.001462
0.000240
0.000379
0.000265
0.000233
0.000331
0.000353
0.001320
0.000270
0.000241
0.000243
0.000276
0.001503
0.000398
0.000262
0.000278
0.000280
0.000227
0.000464
0.000326
0.000268
0.000229
0.000264
0.000056
0.000280
0.000304
0.000357
0.000255
0.000225
0.001521
0.000205
0.000265
0.000265
0.000270
0.000265
0.000237
0.000330
0.001466
0.000257
0.000226
0.000438
0.001179
0.000348
0.000430
0.000411
0.000234
0.000238
0.000251
0.000304
0.000222
0.000458
0.000220
0.000270
0.000281
0.000189
0.000056
0.000202
0.000253
0.000381
0.000324
0.001334
0.000261
0.000333
0.000228
0.000219
0.000249
0.000252
0.000280
0.001534
0.000248
0.000249
0.000237
0.001385
0.000268
0.000436
0.000380
0.000437
0.000222
0.000247
0.000254
0.000271
0.000280
0.000256
0.000268
0.000269
0.000256
0.000193
0.000057
0.000190
0.000377
0.001504
0.000184
0.000275
0.000298
0.000216
0.000252
0.000260
0.000380
0.001396
0.000211
0.000266
0.000282
0.000238
0.001259
0.000706
0.000287
0.000320
0.000411
0.000310
0.000242
0.000269
0.000247
0.000277
0.000287
0.000275
0.000293
0.000457
0.000414
0.001386
0.000073
0.000201
0.000240
0.000243
0.000224
0.000254
0.000402
0.000480
0.001302
0.000251
0.000241
0.000240
0.001448
0.000351
0.000403
0.000228
0.000408
0.000243
0.000237
0.000261
0.000314
0.000240
0.000251
0.000277
0.000257
0.000246
0.000284
0.000497
0.000444
0.001497
0.000211
0.000183
0.000056
0.000215
0.000256
0.000337
0.000574
0.001215
0.000305
0.000232
0.000259
0.000240
0.000250
0.000249
0.000284
0.000349
0.000531
0.000294
0.000260
0.000239
0.000268
0.000244
0.000306
0.000232
0.000260
0.000257
0.000264
0.000258
0.000405
0.000456
0.000358
0.000323
0.001410
0.000175
0.000057
0.000197
0.000232
0.000284
0.000474
0.000330
0.000296
0.000321
0.000331
0.000302
0.000243
0.000237
0.000263
0.000253
0.000304
0.000235
0.000269
0.000506
0.000401
0.000284
0.000387
0.000278
0.000411
0.000221
0.000243
0.000264
0.000251
0.000254
0.000293
0.000370
0.000481
0.000287
0.000055
0.000203
0.001410
0.000226
0.000334
0.000409
0.000428
0.000357
0.000334
0.000220
0.000231
0.000270
0.000244
0.000287
0.000250
0.000263
0.000255
0.000262
0.001366
0.000235
0.000262
0.000260
0.000274
0.000269
0.000277
0.000272
0.000248
0.000294
0.000235
0.000326
0.000405
0.000361
0.000057
0.000203
0.000238
0.000235
0.001525
0.000303
0.000242
0.000221
0.000248
0.000230
0.000244
0.000257
0.000285
0.000240
0.000251
0.000292
0.000232
0.000243
0.000265
0.000260
0.000259
0.001428
0.000249
0.000226
0.000271
0.000275
0.000239
0.000269
0.000257
0.000285
0.000493
0.000339
0.000057
0.000211
0.000231
0.000399
0.000280
0.000244
0.000257
0.001525
0.000353
0.000300
0.000210
0.000265
0.000311
0.000328
0.000224
0.000232
0.000250
0.000247
0.000261
0.000264
0.000273
0.000466
0.000490
0.001135
0.000270
0.000237
0.000264
0.000266
0.000259
0.000304
0.000228
0.000353
0.000056
0.000188
0.000355
0.000200
0.000240
0.000247
0.000243
0.000245
0.000226
0.000291
0.001602
0.000377
0.000288
0.000230
0.000251
0.000264
0.000244
0.000262
0.000274
0.000263
0.000314
0.000299
0.000482
0.000454
0.001369
0.000230
0.000282
0.000255
0.000262
0.000265
0.000307
0.000486
0.000057
0.000228
0.000256
0.000227
0.000228
0.000221
0.000241
0.000268
0.000280
0.000252
0.001583
0.000348
0.000257
0.000238
0.000259
0.000470
0.000251
0.000540
0.000377
0.000276
0.000273
0.000484
0.000519
0.001241
0.000262
0.000225
0.000262
0.001752
0.000417
0.000616
0.000315
0.000136
0.000057
0.000191
0.000232
0.000240
0.000233
0.000260
0.000237
0.000249
0.000512
0.000494
0.000424
0.000279
0.000212
0.000245
0.000261
0.000283
0.000271
0.000231
0.000250
0.000251
0.000285
0.000284
0.000389
0.001345
0.000224
0.000251
0.000276
0.001902
0.000376
0.000393
0.000345
0.000156
0.000056
0.000201
0.000238
0.000246
0.001586
0.000414
0.000205
0.000234
0.000260
0.000253
0.000287
0.000374
0.000368
0.000374
0.000273
0.000275
0.000560
0.000360
0.001213
0.000267
0.000226
0.000257
0.000265
0.000282
0.000414
0.000598
0.000469
0.000249
0.000262
0.000266
0.000283
0.000194
0.000056
0.000200
0.000226
0.000246
0.001551
0.000234
0.000237
0.000244
0.000251
0.000239
0.000260
0.000253
0.000269
0.000268
0.000276
0.000245
0.000380
0.000437
0.000346
0.001390
0.000246
0.000248
0.000255
0.000261
0.000263
0.000404
0.000441
0.000472
0.000262
0.000290
0.000233
0.000432
0.000057
0.000223
0.000237
0.000276
0.001530
0.000296
0.000217
0.000264
0.000245
0.000253
0.000267
0.000244
0.000274
0.000239
0.000262
0.000456
0.000464
0.001374
0.000744
0.000295
0.000320
0.000234
0.000239
0.000241
0.000274
0.001684
0.000804
0.000226
0.000269
0.000268
0.000284
0.000191
0.000056
0.000215
0.000226
0.000254
0.000245
0.000265
0.000263
0.000212
0.000255
0.000237
0.000258
0.000270
0.000284
0.000251
0.000255
0.000255
0.000247
0.000269
0.001600
0.000704
0.000369
0.000320
0.000239
0.000232
0.000310
0.000250
0.000251
0.000289
0.000233
0.001396
0.000402
0.000301
0.000056
0.000195
0.000227
0.000271
0.000235
0.000265
0.000212
0.000277
0.000232
0.000253
0.000258
0.000266
0.000441
0.000467
0.000289
0.000214
0.000247
0.000269
0.001393
0.000687
0.000506
0.000304
0.000289
0.000209
0.000261
0.000272
0.000254
0.000253
0.000271
0.001567
0.000325
0.000212
0.000057
0.000209
0.000225
0.000249
0.000248
0.000248
0.000268
0.000216
0.000257
0.000269
0.000258
0.000386
0.000380
0.000338
0.000200
0.000253
0.000227
0.000265
0.000257
0.001573
0.000650
0.000447
0.000341
0.000200
0.000265
0.000256
0.000258
0.000266
0.000285
0.000270
0.001353
0.000336
0.000057
0.000208
0.000225
0.000229
0.000258
0.000254
0.000245
0.000249
0.000316
0.000356
0.000453
0.000363
0.000368
0.000371
0.000217
0.000247
0.000249
0.000302
0.000235
0.000266
0.001955
0.000303
0.000226
0.000474
0.000210
0.000259
0.000259
0.000267
0.000265
0.000266
0.000277
0.000373
0.000057
0.000232
0.000272
0.000240
0.000247
0.000252
0.000254
0.000221
0.000240
0.000274
0.000266
0.000230
0.000233
0.000338
0.000478
0.000384
0.000443
0.000217
0.000269
0.000254
0.000252
0.000246
0.000292
0.001674
0.000852
0.000231
0.000239
0.000268
0.000267
0.000277
0.000253
0.000193
0.000057
0.000204
0.001343
0.000292
0.000210
0.000231
0.000250
0.000257
0.000236
0.000241
0.000264
0.000250
0.000262
0.000237
0.000413
0.000338
0.000337
0.000394
0.000240
0.000275
0.000267
0.000269
0.000229
0.000262
0.000257
0.001332
0.000676
0.000314
0.000387
0.000384
0.000393
0.000295
0.000056
0.000188
0.000259
0.000340
0.001324
0.000200
0.000257
0.000230
0.000262
0.000257
0.000257
0.000256
0.000237
0.000262
0.000389
0.000537
0.000302
0.000226
0.000308
0.000309
0.000201
0.000252
0.000279
0.000227
0.000270
0.000291
0.001530
0.000729
0.000319
0.000259
0.000272
0.000198
0.000056
0.000224
0.000247
0.000484
0.000427
0.001179
0.000266
0.000201
0.000244
0.000232
0.000250
0.000247
0.000257
0.000231
0.000242
0.000251
0.000255
0.000270
0.000232
0.000259
0.000258
0.000263
0.000275
0.000310
0.000330
0.000213
0.000264
0.000267
0.001456
0.000263
0.000234
0.000175
0.000056
0.000199
0.000229
0.000246
0.000274
0.000348
0.000374
0.000395
0.000280
0.001574
0.000221
0.000276
0.000506
0.000377
0.000223
0.000466
0.000224
0.000210
0.000264
0.000275
0.000269
0.000277
0.000269
0.000256
0.000291
0.000227
0.000415
0.000403
0.000332
0.001574
0.000230
0.000187
0.000056
0.000221
0.000230
0.000249
0.000252
0.000236
0.000248
0.000266
0.000309
0.000411
0.002036
0.000235
0.000238
0.000258
0.000252
0.000262
0.000305
0.000229
0.000250
0.000254
0.000534
0.000250
0.000471
0.001453
0.000246
0.000251
0.002014
0.000276
0.000236
0.000264
0.001531
0.000156
0.000056
0.000317
0.000453
0.000444
0.000238
0.000275
0.000210
0.000258
0.000270
0.000263
0.000231
0.000251
0.000336
0.000426
0.000338
0.000456
0.000214
0.000227
0.001574
0.000230
0.000597
0.001866
0.000311
0.000207
0.001565
0.002009
0.000735
0.000273
0.000262
0.000296
0.000491
0.000304
0.000055
0.000193
0.000240
0.000278
0.000223
0.001424
0.001731
0.001079
0.000201
0.000231
0.001673
0.001896
0.000206
0.000246
0.000429
0.000273
0.000363
0.000419
0.000488
0.000208
0.000257
0.000239
0.000254
0.000277
0.001593
0.001206
0.001426
0.000281
0.000288
0.000256
0.000278
0.000381
0.000056
0.000233
0.000225
0.000236
0.000241
0.000222
0.000250
0.000250
0.000253
0.000257
0.000265
0.000223
0.000310
0.000459
0.000446
0.000309
0.000235
0.000241
0.000274
0.000268
0.000281
0.000241
0.000262
0.001502
0.000482
0.002129
0.000244
0.000237
0.000456
0.000339
0.000380
0.000191
0.000056
0.000225
0.000428
0.000390
0.000314
0.000191
0.000226
0.000260
0.000238
0.000245
0.000250
0.000238
0.000262
0.000260
0.001610
0.001351
0.001233
0.000274
0.000232
0.000240
0.000280
0.000280
0.000272
0.000249
0.000252
0.002210
0.000260
0.000239
0.000298
0.000318
0.000310
0.000217
0.000056
0.000227
0.000450
0.000438
0.000344
0.000241
0.000222
0.000266
0.000248
0.001903
0.001424
0.000213
0.000336
0.000386
0.000408
0.000264
0.000227
0.000252
0.000263
0.000269
0.000271
0.000246
0.000270
0.000481
0.000225
0.000291
0.000250
0.000247
0.000277
0.000277
0.000252
0.000202
0.000056
0.000204
0.000252
0.000244
0.000244
0.000277
0.000250
0.001541
0.001412
0.001334
0.000231
0.000233
0.000241
0.000266
0.000263
0.000242
0.000250
0.000249
0.002110
0.000255
0.000222
0.000273
0.000260
0.000259
0.000269
0.000263
0.000268
0.000259
0.000262
0.000265
0.000264
0.000170
0.000057
0.000203
0.002672
0.001416
0.000208
0.000304
0.000322
0.000211
0.000286
0.000233
0.000239
0.000256
0.000245
0.000239
0.000240
0.000270
0.000254
0.000268
0.000268
0.000272
0.000258
0.000254
0.000293
0.000270
0.000268
0.000242
0.000242
0.000269
0.000275
0.000261
0.000264
0.000373
0.000056
0.001561
0.000248
0.001233
0.000233
0.000226
0.000238
0.000262
0.000276
0.000223
0.000337
0.000377
0.000369
0.000285
0.000209
0.000251
0.002157
0.000247
0.000233
0.000385
0.000407
0.000367
0.000282
0.000233
0.000256
0.000267
0.000246
0.000267
0.000277
0.000270
0.001624
0.001253
0.000055
0.000194
0.000220
0.000322
0.000364
0.000375
0.000278
0.000209
0.000238
0.000248
0.000263
0.000260
0.000246
0.000221
0.000263
0.000259
0.000242
0.000287
0.000644
0.000379
0.000242
0.000221
0.000277
0.000281
0.000251
0.000249
0.000244
0.000270
0.000276
0.000239
0.000379
0.000310
0.000056
0.001131
0.000218
0.000364
0.000431
0.000298
0.000212
0.000238
0.000244
0.000252
0.002378
0.000286
0.000389
0.000216
0.000381
0.000302
0.000256
0.000244
0.000250
0.000266
0.000226
0.000253
0.000274
0.000589
0.000469
0.001871
0.001337
0.000510
0.000529
0.000228
0.000282
0.000200
0.000055
0.000208
0.000375
0.000251
0.000240
0.000259
0.000217
0.000255
0.000252
0.000249
0.000258
0.000250
0.000224
0.000248
0.000280
0.000376
0.000496
0.001838
0.001331
0.000461
0.000436
0.000450
0.000238
0.000241
0.000261
0.002192
0.000502
0.000379
0.000226
0.000275
0.000283
0.000193
0.000056
0.000218
0.000238
0.000256
0.000249
0.000236
0.000388
0.000374
0.000343
0.000284
0.000228
0.000236
0.000250
0.000266
0.002104
0.000387
0.000369
0.000210
0.000253
0.000292
0.000243
0.000249
0.002471
0.000322
0.000218
0.000260
0.000258
0.000247
0.000285
0.000303
0.000252
0.000198
0.000055
0.000199
0.000301
0.000613
0.000353
0.000251
0.000223
0.000228
0.000258
0.000258
0.000260
0.001957
0.000389
0.000275
0.000262
0.000235
0.000267
0.000276
0.000239
0.002203
0.000458
0.000215
0.000267
0.000268
0.000261
0.000255
0.000256
0.000297
0.000236
0.000263
0.000260
0.000184
0.000055
0.000216
0.000235
0.000248
0.000219
0.000253
0.000257
0.000235
0.000246
0.000237
0.002202
0.000220
0.000268
0.000212
0.000460
0.000196
0.000246
0.000310
0.000261
0.000247
0.000256
0.001972
0.000263
0.000348
0.000362
0.000430
0.000405
0.000306
0.000256
0.000253
0.000253
0.000206
0.000055
0.000207
0.000222
0.000243
0.000249
0.000244
0.000338
0.000212
0.002351
0.000210
0.000224
0.000262
0.000251
0.000233
0.000284
0.000277
0.002124
0.000586
0.000215
0.000262
0.000244
0.000256
0.000263
0.000284
0.000273
0.000260
0.000254
0.000294
0.000244
0.000270
0.000264
0.000205
0.000056
0.001795
0.001450
0.000201
0.000229
0.000235
0.000251
0.000250
0.000277
0.000396
0.000320
0.002206
0.000252
0.000232
0.000276
0.000255
0.000525
0.000420
0.000298
0.000210
0.000256
0.000243
0.000270
0.000265
0.000221
0.000261
0.000270
0.000271
0.000258
0.000303
0.000846
0.000163
0.000056
0.000207
0.000255
0.000274
0.000231
0.000266
0.000237
0.000263
0.000237
0.001510
0.002105
0.000590
0.000255
0.000621
0.000476
0.000352
0.000232
0.000253
0.000251
0.000270
0.000262
0.000260
0.000248
0.000233
0.000273
0.003019
0.000328
0.000233
0.000271
0.000291
0.000292
0.000384
0.000056
0.001967
0.000193
0.000225
0.000225
0.000277
0.000366
0.000454
0.000314
0.000285
0.000219
0.000230
0.000255
0.000258
0.000263
0.000274
0.000271
0.000225
0.000286
0.001818
0.000248
0.000231
0.000255
0.000274
0.000280
0.000268
0.000247
0.001475
0.000337
0.000247
0.000263
0.000167
0.000056
0.000197
0.000223
0.000241
0.000241
0.000254
0.000239
0.000301
0.000376
0.000329
0.000395
0.000198
0.000244
0.000268
0.000328
0.000424
0.000318
0.000226
0.000251
0.000249
0.000429
0.000476
0.000368
0.000254
0.000258
0.000258
0.000259
0.000243
0.000270
0.000277
0.000267
0.000202
0.000056
0.001445
0.000446
0.000212
0.001946
0.000264
0.000416
0.000452
0.000315
0.000213
0.000254
0.000271
0.000237
0.000249
0.000249
0.000262
0.000258
0.000457
0.000305
0.000441
0.000296
0.000373
0.000224
0.000263
0.000266
0.000271
0.000267
0.000268
0.000269
0.000387
0.000454
0.001362
0.000055
0.000210
0.000218
0.002082
0.000310
0.000320
0.000236
0.000258
0.000251
0.000259
0.000265
0.000207
0.000255
0.000251
0.000270
0.000253
0.000353
0.000715
0.001756
0.000237
0.000247
0.000251
0.000269
0.000385
0.000437
0.001578
0.000282
0.000367
0.001924
0.000260
0.000244
0.000209
0.000056
0.000216
0.000231
0.000231
0.000243
0.000231
0.000246
0.000255
0.000281
0.000336
0.000265
0.000394
0.000353
0.000341
0.000288
0.000245
0.000268
0.000261
0.000238
0.000266
0.000255
0.000312
0.000277
0.000265
0.000263
0.000268
0.001512
0.000290
0.000388
0.002065
0.000240
0.000167
0.000057
0.000200
0.000229
0.000239
0.000250
0.000483
0.000206
0.000252
0.000402
0.000302
0.000303
0.000308
0.000210
0.000263
0.000265
0.000270
0.000340
0.000433
0.000421
0.000252
0.000400
0.000517
0.000451
0.001580
0.000227
0.000246
0.001976
0.000352
0.000260
0.000230
0.000288
0.000184
0.000055
0.000197
0.000240
0.000231
0.000235
0.000254
0.000267
0.000255
0.000273
0.000252
0.000248
0.001810
0.000323
0.000389
0.000275
0.000465
0.000381
0.000354
0.001479
0.000241
0.000284
0.002090
0.000598
0.000258
0.000232
0.000261
0.000271
0.000503
0.000224
0.000254
0.000279
0.000195
0.000055
0.000292
0.000328
0.000424
0.000278
0.000196
0.000243
0.000260
0.000257
0.000254
0.000301
0.000226
0.000250
0.000258
0.000263
0.000400
0.000399
0.001328
0.000269
0.000267
0.001924
0.000361
0.000294
0.000232
0.000263
0.000249
0.000273
0.000276
0.000254
0.000253
0.000262
0.000206
0.000056
0.000255
0.000400
0.002034
0.000294
0.000192
0.000250
0.000247
0.000314
0.000413
0.000480
0.001265
0.000384
0.000359
0.002081
0.000204
0.000243
0.000263
0.000287
0.000246
0.000236
0.000293
0.000289
0.000255
0.000383
0.000456
0.000386
0.000297
0.002229
0.000505
0.000457
0.000417
0.000056
0.000219
0.000220
0.000244
0.001965
0.000230
0.000226
0.000248
0.000246
0.000241
0.000250
0.000248
0.000266
0.000258
0.000270
0.000434
0.001475
0.000252
0.000241
0.000268
0.000266
0.000228
0.000256
0.000255
0.000294
0.000324
0.000449
0.000468
0.000225
0.001610
0.000270
0.000163
0.000056
0.000199
0.000228
0.000244
0.000239
0.000256
0.000266
0.000231
0.000247
0.000256
0.000388
0.000341
0.001428
0.000214
0.000236
0.000249
0.000293
0.000231
0.000254
0.000307
0.000486
0.000399
0.000434
0.000221
0.001586
0.000231
0.000248
0.000291
0.000280
0.000259
0.000270
0.000192
0.000056
0.000178
0.000236
0.000261
0.000272
0.000243
0.000247
0.000235
0.000243
0.000271
0.000232
0.000248
0.000254
0.000269
0.001476
0.000365
0.000209
0.000246
0.000261
0.000280
0.000315
0.000371
0.000274
0.000242
0.000264
0.000259
0.000261
0.000262
0.001404
0.000283
0.000241
0.000166
0.000056
0.000199
0.000236
0.000255
0.000263
0.000284
0.000205
0.000248
0.000263
0.000212
0.000267
0.000247
0.000261
0.000223
0.000297
0.000492
0.000242
0.000285
0.000219
0.001643
0.000240
0.000237
0.000261
0.000258
0.000295
0.000368
0.000390
0.000452
0.000268
0.000250
0.001616
0.000152
0.000056
0.000337
0.000379
0.000325
0.000295
0.000236
0.000230
0.000229
0.000273
0.000251
0.000259
0.000234
0.000234
0.001456
0.000342
0.000264
0.000219
0.000259
0.000263
0.000254
0.000264
0.000251
0.000242
0.000254
0.000277
0.000259
0.000374
0.000412
0.000344
0.000333
0.000240
0.000197
0.000055
0.000211
0.000243
0.000499
0.000359
0.000291
0.000282
0.000244
0.000269
0.000238
0.000251
0.000244
0.000223
0.000257
0.000244
0.001321
0.000246
0.000235
0.000246
0.000267
0.000267
0.000233
0.000273
0.000249
0.000262
0.000253
0.000259
0.000323
0.000677
0.000462
0.000237
0.000169
0.000070
0.000185
0.001564
0.000223
0.000335
0.000476
0.000376
0.000222
0.000256
0.000267
0.000249
0.000240
0.000262
0.000265
0.000278
0.000261
0.001575
0.000204
0.000285
0.000261
0.000266
0.000263
0.000237
0.000264
0.000268
0.000259
0.000251
0.000447
0.000388
0.000335
0.000233
0.000201
0.000056
0.000204
0.000270
0.000215
0.001620
0.000481
0.000291
0.000219
0.000236
0.000255
0.000270
0.000283
0.000252
0.000250
0.000256
0.000235
0.000268
0.000424
0.001334
0.000233
0.000219
0.001498
0.000296
0.000569
0.000408
0.000352
0.000222
0.000275
0.000473
0.000224
0.000276
0.000172
0.000056
0.000297
0.000217
0.000234
0.000251
0.000248
0.000261
0.000233
0.000256
0.000258
0.000248
0.000243
0.000258
0.000312
0.000552
0.001613
0.001487
0.000365
0.000549
0.000322
0.000225
0.000232
0.000253
0.000262
0.000259
0.000250
0.000268
0.000274
0.000247
0.001539
0.000318
0.000177
0.000056
0.000215
0.000347
0.000353
0.000333
0.000247
0.000213
0.000250
0.000369
0.000422
0.000348
0.002184
0.000316
0.000723
0.000457
0.000495
0.000254
0.000337
0.000395
0.000330
0.000280
0.000393
0.000266
0.001525
0.000528
0.000229
0.000257
0.000261
0.000247
0.000263
0.000273
0.000204
0.000056
0.000201
0.000246
0.000251
0.000258
0.000239
0.001662
0.000885
0.000991
0.000213
0.000232
0.000261
0.000254
0.000259
0.000263
0.000255
0.000247
0.000252
0.000268
0.000269
0.000281
0.001421
0.000319
0.000259
0.000215
0.000242
0.000261
0.000256
0.000288
0.000262
0.000284
0.001894
0.000057
0.000194
0.000234
0.001540
0.000876
0.000357
0.000380
0.000221
0.000228
0.000256
0.000255
0.000245
0.000251
0.000245
0.001991
0.000472
0.000210
0.000245
0.000259
0.000266
0.000263
0.000193
