0.000295
0.019299
0.002190
0.000323
0.000243
0.000303
0.000323
0.000248
0.000313
0.000286
0.000245
0.000340
0.000572
0.000494
0.000263
0.000397
0.000289
0.000357
0.000329
0.000425
0.000313
0.001931
0.000691
0.000285
0.000223
0.000298
0.000319
0.000313
0.000424
0.000453
0.000506
0.000216
0.000058
0.000234
0.000245
0.000293
0.000279
0.000237
0.000251
0.000288
0.000283
0.000262
0.000329
0.000358
0.000434
0.000323
0.000254
0.000374
0.000353
0.000366
0.000246
0.000245
0.001695
0.000324
0.000260
0.000443
0.000268
0.000265
0.000272
0.000293
0.000311
0.000257
0.000388
0.000370
0.000056
0.000207
0.000241
0.000259
0.000266
0.000250
0.000263
0.000248
0.000259
0.000280
0.001668
0.000247
0.000217
0.000265
0.000274
0.000282
0.000270
0.000238
0.000265
0.000345
0.001792
0.000252
0.000276
0.000442
0.000448
0.000370
0.000242
0.000286
0.000493
0.000499
0.000724
0.000192
0.000056
0.000220
0.000254
0.000271
0.000221
0.000291
0.000276
0.000340
0.000550
0.000333
0.000275
0.000231
0.000259
0.000238
0.000252
0.000256
0.000259
0.000264
0.000252
0.000301
0.000323
0.001661
0.000279
0.000246
0.000420
0.000473
0.000563
0.000643
0.000526
0.000337
0.000239
0.000186
0.000056
0.000186
0.000250
0.000294
0.000210
0.000293
0.000221
0.000301
0.000373
0.001523
0.000234
0.000231
0.000245
0.000258
0.000256
0.000281
0.000280
0.000347
0.000777
0.001327
0.000307
0.000234
0.000404
0.000274
0.000228
0.000255
0.000264
0.000265
0.000271
0.000262
0.000265
0.000199
0.000055
0.000209
0.000252
0.000243
0.000267
0.000236
0.000248
0.000256
0.000233
0.000236
0.000260
0.001625
0.000261
0.000238
0.000244
0.000250
0.000248
0.000249
0.000254
0.000249
0.000254
0.000297
0.001638
0.000291
0.000254
0.000468
0.000232
0.000233
0.000270
0.000259
0.000271
0.000195
0.000055
0.000198
0.000237
0.000251
0.000237
0.000248
0.000247
0.000265
0.000231
0.000263
0.000263
0.000246
0.000258
0.000257
0.000273
0.001629
0.000270
0.000312
0.000223
0.000239
0.000276
0.000270
0.000232
0.000248
0.000268
0.001784
0.000502
0.000365
0.000243
0.000247
0.000277
0.000206
0.000058
0.000184
0.000240
0.000248
0.000268
0.000260
0.000265
0.000294
0.000391
0.000538
0.000280
0.000246
0.000210
0.000259
0.000248
0.001611
0.000539
0.000306
0.000360
0.000319
0.000234
0.000267
0.000286
0.000269
0.001728
0.000508
0.000504
0.000236
0.000249
0.000234
0.000256
0.000185
0.000057
0.000193
0.000233
0.000251
0.000339
0.000280
0.000415
0.000400
0.000268
0.000218
0.000268
0.000235
0.000240
0.000254
0.001710
0.000487
0.000299
0.000221
0.000248
0.000289
0.000277
0.000239
0.000263
0.000271
0.001888
0.000305
0.000392
0.000284
0.000219
0.000265
0.000399
0.000325
0.000055
0.000261
0.000381
0.000325
0.000247
0.000262
0.000243
0.000254
0.000262
0.000242
0.000228
0.000242
0.000246
0.001654
0.000274
0.000286
0.000231
0.000256
0.000249
0.000268
0.000290
0.000363
0.000226
0.000234
0.001812
0.000232
0.000524
0.000235
0.000261
0.000253
0.000268
0.000265
0.000057
0.000297
0.000599
0.000584
0.000213
0.000240
0.000268
0.000226
0.000250
0.000238
0.000255
0.000251
0.001704
0.000251
0.000437
0.000365
0.000219
0.000253
0.000215
0.000256
0.000260
0.000377
0.001725
0.000236
0.000465
0.001864
0.000524
0.000358
0.000245
0.000255
0.000267
0.000186
0.000057
0.000212
0.000266
0.000224
0.000237
0.000300
0.001587
0.000246
0.000233
0.000253
0.000248
0.000250
0.000286
0.000207
0.000255
0.000335
0.000483
0.000501
0.000250
0.000237
0.000272
0.000283
0.000229
0.000246
0.000435
0.000429
0.000293
0.000351
0.000556
0.000390
0.000287
0.000208
0.000056
0.000227
0.000219
0.000251
0.000253
0.000239
0.000237
0.000263
0.000426
0.000404
0.001715
0.000201
0.000236
0.000247
0.000245
0.000261
0.000316
0.000449
0.000432
0.000324
0.000245
0.000261
0.000306
0.000278
0.000250
0.000273
0.000441
0.000339
0.000647
0.000423
0.000442
0.000183
0.000056
0.000205
0.000249
0.000243
0.000239
0.000235
0.000241
0.000247
0.000260
0.000244
0.000272
0.000345
0.000446
0.001383
0.000252
0.000232
0.000243
0.000258
0.000244
0.000279
0.000229
0.000331
0.000435
0.000360
0.000279
0.000271
0.000252
0.000257
0.000265
0.000267
0.000263
0.000388
0.000056
0.000213
0.000238
0.000228
0.000356
0.000485
0.000412
0.000210
0.000265
0.000234
0.000256
0.000261
0.000228
0.000322
0.000224
0.000241
0.000496
0.000495
0.001551
0.000273
0.000235
0.000259
0.000267
0.000256
0.000237
0.000300
0.000488
0.000494
0.000247
0.000406
0.000256
0.000187
0.000057
0.000231
0.000434
0.000229
0.000240
0.000269
0.000234
0.000311
0.000645
0.000201
0.000333
0.000233
0.000276
0.000264
0.000232
0.000527
0.000335
0.000224
0.000265
0.000450
0.001586
0.000264
0.000241
0.000522
0.000251
0.000303
0.000248
0.000254
0.000461
0.000464
0.000347
0.000271
0.000056
0.000227
0.000230
0.000238
0.000239
0.000422
0.000326
0.000266
0.000224
0.000389
0.000579
0.000286
0.000267
0.000218
0.000249
0.000261
0.000265
0.000248
0.000258
0.000229
0.000357
0.000293
0.000355
0.001838
0.000215
0.000261
0.000247
0.000287
0.000359
0.000439
0.000786
0.000319
0.000057
0.000229
0.000332
0.000309
0.000460
0.000335
0.000206
0.000264
0.000329
0.000514
0.000372
0.000271
0.000240
0.000228
0.000269
0.000264
0.000237
0.000249
0.000274
0.000271
0.000256
0.000305
0.000464
0.000620
0.001284
0.000321
0.000435
0.000421
0.000257
0.000458
0.000391
0.000298
0.000057
0.000232
0.000383
0.000278
0.000211
0.000221
0.000250
0.000412
0.000237
0.000321
0.000361
0.000433
0.000353
0.000252
0.000252
0.000262
0.000241
0.000355
0.000403
0.000338
0.000254
0.000241
0.000515
0.000546
0.001639
0.000235
0.000418
0.000317
0.000229
0.000362
0.000358
0.000359
0.000056
0.000195
0.000225
0.000251
0.000258
0.000247
0.000231
0.000250
0.000359
0.000423
0.000370
0.000352
0.000392
0.000261
0.000582
0.000254
0.000238
0.000276
0.000265
0.000216
0.000358
0.000216
0.000254
0.000279
0.000414
0.000565
0.001570
0.000262
0.000247
0.000243
0.000275
0.000195
0.000058
0.000221
0.000478
0.000311
0.000216
0.000235
0.000247
0.000254
0.000243
0.000269
0.000236
0.000223
0.000263
0.000443
0.000464
0.000452
0.000269
0.000225
0.000254
0.000334
0.000390
0.000381
0.000334
0.000362
0.000395
0.000279
0.000225
0.000265
0.000273
0.001791
0.000234
0.000216
0.000056
0.000209
0.000216
0.000259
0.000294
0.000335
0.000542
0.000315
0.000217
0.000285
0.000235
0.000251
0.000248
0.000519
0.000446
0.000490
0.000274
0.000262
0.000258
0.000425
0.000468
0.000361
0.000451
0.000488
0.000401
0.000242
0.000257
0.000243
0.000254
0.000260
0.001718
0.000344
0.000056
0.000246
0.000357
0.000198
0.000218
0.000259
0.000249
0.000237
0.000500
0.000375
0.000306
0.000292
0.000314
0.000411
0.000578
0.000310
0.000227
0.000256
0.000257
0.000256
0.000264
0.000274
0.000263
0.000238
0.000271
0.000381
0.000285
0.000404
0.000381
0.000223
0.000250
0.000194
0.000055
0.000448
0.000295
0.000457
0.000252
0.000221
0.000238
0.000245
0.000258
0.000239
0.000218
0.000254
0.000275
0.000305
0.000378
0.000481
0.000487
0.000327
0.000316
0.000369
0.000348
0.000301
0.000245
0.000233
0.000267
0.001742
0.000267
0.001706
0.001049
0.000282
0.000344
0.000164
0.000056
0.000199
0.000239
0.000230
0.000243
0.000276
0.000234
0.000253
0.000251
0.000243
0.000290
0.000475
0.000338
0.000338
0.000389
0.000294
0.000215
0.000240
0.000288
0.000233
0.000255
0.000247
0.000263
0.001804
0.000246
0.000262
0.000261
0.000274
0.001778
0.000506
0.000391
0.000223
0.000056
0.000204
0.000214
0.000234
0.000244
0.000270
0.000230
0.000247
0.000252
0.000289
0.000365
0.000577
0.000288
0.000373
0.000241
0.000226
0.000250
0.000333
0.000434
0.000366
0.000257
0.001769
0.000265
0.000247
0.000247
0.000266
0.000265
0.000242
0.000256
0.000319
0.000412
0.000376
0.000055
0.000248
0.000238
0.000226
0.000269
0.000246
0.000231
0.000257
0.000254
0.000240
0.000255
0.000242
0.000302
0.000459
0.000315
0.000313
0.000266
0.000474
0.000235
0.000249
0.000261
0.000254
0.000265
0.000272
0.000256
0.000278
0.001775
0.000258
0.000265
0.000252
0.000233
0.000204
0.000056
0.000332
0.000263
0.000229
0.000235
0.000236
0.000240
0.000230
0.000266
0.000242
0.000231
0.000227
0.000260
0.000275
0.000371
0.000407
0.000301
0.000337
0.000216
0.000264
0.000271
0.000239
0.000261
0.000247
0.000272
0.000253
0.000261
0.000329
0.001601
0.000281
0.000267
0.000163
0.000062
0.000199
0.000238
0.000241
0.000266
0.000350
0.000462
0.000326
0.000287
0.000216
0.000249
0.000275
0.000229
0.000249
0.000249
0.000263
0.000256
0.000244
0.000257
0.000252
0.000263
0.000270
0.000266
0.000246
0.000235
0.000247
0.000275
0.000279
0.000281
0.000237
0.000281
0.000172
0.000056
0.000236
0.000213
0.000251
0.000279
0.000232
0.000232
0.000245
0.000260
0.000275
0.000253
0.000222
0.000275
0.000234
0.000246
0.000292
0.000241
0.000256
0.000248
0.000295
0.000255
0.000275
0.000317
0.000272
0.000216
0.000310
0.000244
0.000290
0.000232
0.000311
0.000424
0.000672
0.000056
0.000222
0.000296
0.000242
0.000211
0.000233
0.000251
0.000242
0.000248
0.000251
0.000243
0.000269
0.000479
0.000358
0.000439
0.001514
0.000237
0.000498
0.000219
0.000262
0.000450
0.000491
0.000338
0.000226
0.000279
0.000256
0.000251
0.000281
0.000253
0.000310
0.000276
0.000170
0.000057
0.000451
0.000397
0.000322
0.000224
0.000225
0.000272
0.000234
0.000234
0.000236
0.000239
0.000260
0.000267
0.000215
0.000297
0.000358
0.000473
0.000386
0.001790
0.000245
0.000271
0.000370
0.000464
0.000360
0.000284
0.000318
0.000327
0.000300
0.000239
0.000221
0.000249
0.000206
0.000056
0.000220
0.000229
0.000257
0.000294
0.000364
0.000500
0.000258
0.000255
0.000254
0.000215
0.000252
0.000266
0.000265
0.000263
0.000244
0.000259
0.000323
0.000554
0.000246
0.000453
0.000231
0.001741
0.000343
0.000502
0.000477
0.000480
0.000315
0.000228
0.000259
0.000267
0.000447
0.000056
0.000219
0.000268
0.000234
0.000349
0.000298
0.000528
0.000340
0.000248
0.000224
0.000287
0.000250
0.000255
0.000253
0.000297
0.000306
0.000233
0.000277
0.000368
0.000446
0.000342
0.000498
0.001831
0.000293
0.000499
0.000440
0.000334
0.000224
0.000259
0.000299
0.000249
0.000208
0.000057
0.000212
0.000333
0.000362
0.000387
0.000368
0.000272
0.000361
0.000215
0.000241
0.000259
0.000276
0.000223
0.000251
0.000262
0.000234
0.000265
0.000345
0.000431
0.000420
0.000416
0.000248
0.000247
0.000255
0.001696
0.000615
0.000335
0.000684
0.000233
0.000259
0.000311
0.000163
0.000055
0.000199
0.000239
0.000352
0.000229
0.000296
0.000459
0.000271
0.000327
0.000254
0.000517
0.000224
0.000258
0.000258
0.000272
0.000278
0.000260
0.000227
0.000466
0.000406
0.000380
0.000258
0.000249
0.000242
0.000252
0.000258
0.000269
0.000242
0.000252
0.000265
0.000324
0.000181
0.000057
0.000366
0.000303
0.000216
0.000261
0.000250
0.000256
0.000237
0.000304
0.000230
0.000247
0.000293
0.000317
0.000519
0.000340
0.000385
0.000198
0.000224
0.000240
0.000253
0.000271
0.000282
0.000281
0.000218
0.000258
0.000285
0.000352
0.000426
0.000323
0.000354
0.000234
0.000177
0.000055
0.000212
0.000225
0.000278
0.000244
0.000240
0.000268
0.000272
0.000224
0.000488
0.000216
0.000257
0.000265
0.000232
0.000264
0.000277
0.000294
0.000239
0.000349
0.000225
0.000239
0.000254
0.000268
0.000256
0.000274
0.000276
0.000260
0.000262
0.000250
0.000262
0.000496
0.000164
0.000056
0.000209
0.000242
0.000262
0.000278
0.000214
0.000237
0.000370
0.000402
0.000235
0.000232
0.000253
0.000255
0.000235
0.000373
0.000374
0.001789
0.000188
0.000260
0.000285
0.000331
0.000404
0.000368
0.000384
0.000393
0.000372
0.000403
0.000267
0.000250
0.000265
0.000278
0.001410
0.000056
0.000407
0.000239
0.000269
0.000225
0.000235
0.000248
0.000238
0.000274
0.000221
0.000277
0.000242
0.000258
0.000256
0.000250
0.000663
0.001584
0.000233
0.000205
0.000240
0.000265
0.000235
0.000281
0.000398
0.000408
0.000220
0.000359
0.000219
0.000267
0.000272
0.000269
0.000183
0.000058
0.001200
0.000588
0.000288
0.000251
0.000242
0.000224
0.000229
0.000244
0.000509
0.000207
0.000229
0.000250
0.000496
0.000384
0.000368
0.000349
0.000263
0.000236
0.000329
0.000353
0.000275
0.000269
0.000252
0.000242
0.000271
0.000715
0.000457
0.000215
0.000264
0.000260
0.000177
0.000056
0.000223
0.000214
0.000242
0.000243
0.001424
0.000346
0.000225
0.000250
0.000257
0.000231
0.000251
0.000255
0.000242
0.000267
0.000266
0.000421
0.000307
0.000652
0.000266
0.001743
0.000254
0.000294
0.000352
0.000475
0.000497
0.000349
0.000245
0.000244
0.000259
0.000276
0.000197
0.000056
0.000220
0.000257
0.000247
0.000377
0.001181
0.000241
0.000277
0.000232
0.000239
0.000235
0.000239
0.000257
0.000276
0.000266
0.000231
0.000350
0.000473
0.000362
0.000334
0.000241
0.000263
0.000270
0.000250
0.000232
0.000291
0.000264
0.000238
0.000281
0.000289
0.000263
0.000652
0.000057
0.000214
0.000247
0.000238
0.000261
0.000286
0.000215
0.000240
0.000260
0.000287
0.000282
0.001396
0.000216
0.000244
0.000248
0.000245
0.000246
0.000288
0.000242
0.000292
0.000231
0.000340
0.000410
0.000554
0.000302
0.000233
0.000269
0.001759
0.000267
0.000254
0.000349
0.000509
0.000056
0.000198
0.000402
0.000448
0.000504
0.000515
0.000591
0.001449
0.000418
0.000514
0.000653
0.000553
0.000877
0.000324
0.000623
0.000580
0.001875
0.000484
0.000365
0.000387
0.000321
0.000235
0.000273
0.000286
0.000271
0.000263
0.000281
0.000294
0.000283
0.000262
0.000285
0.001363
0.000056
0.000227
0.000222
0.000242
0.000246
0.000254
0.000254
0.000239
0.000236
0.000266
0.000237
0.000239
0.000241
0.000254
0.000262
0.000264
0.000270
0.001797
0.000269
0.000266
0.000248
0.000253
0.000264
0.000270
0.000277
0.000401
0.000422
0.000348
0.000243
0.000255
0.000281
0.000208
0.000056
0.000209
0.001367
0.000326
0.000277
0.000246
0.000240
0.000242
0.000230
0.000236
0.000246
0.000218
0.000261
0.000237
0.000503
0.000367
0.000305
0.000242
0.001813
0.000362
0.000236
0.000244
0.000269
0.000250
0.000264
0.000275
0.000276
0.000276
0.000251
0.000270
0.000343
0.000181
0.000055
0.000221
0.000241
0.000264
0.001431
0.000213
0.000247
0.000249
0.000248
0.000241
0.000265
0.000243
0.000255
0.000247
0.000300
0.000217
0.000252
0.000265
0.000261
0.000272
0.000259
0.000255
0.001766
0.000284
0.001746
0.000275
0.000247
0.000271
0.000263
0.000264
0.000276
0.000203
0.000056
0.000204
0.000244
0.001340
0.000234
0.000256
0.000246
0.000259
0.000277
0.000220
0.000251
0.000258
0.000234
0.000277
0.000249
0.000259
0.000266
0.000253
0.000287
0.000304
0.000224
0.001877
0.000234
0.001829
0.000236
0.000273
0.000273
0.000227
0.000255
0.000253
0.000271
0.000195
0.000057
0.001413
0.000220
0.000249
0.000231
0.000239
0.000237
0.000372
0.000285
0.000242
0.000251
0.000247
0.000261
0.000302
0.000353
0.000368
0.000259
0.000250
0.000276
0.000262
0.000255
0.000262
0.000331
0.000229
0.000256
0.000284
0.000262
0.000272
0.000358
0.000652
0.000331
0.000188
0.000056
0.000200
0.000245
0.000268
0.000301
0.000360
0.000252
0.001713
0.000290
0.000280
0.000268
0.000254
0.000274
0.000262
0.000266
0.000314
0.000305
0.000331
0.000576
0.000376
0.000262
0.000289
0.000283
0.000279
0.000251
0.000315
0.000270
0.000274
0.000245
0.000260
0.000387
0.000402
0.000055
0.000263
0.000466
0.000265
0.000263
0.000251
0.000224
0.000233
0.000246
0.000254
0.001462
0.000321
0.000210
0.000231
0.000250
0.000242
0.000289
0.000279
0.000241
0.000254
0.000281
0.000260
0.000596
0.000337
0.000307
0.000248
0.000289
0.000264
0.000260
0.000229
0.000314
0.000171
0.000055
0.000199
0.000290
0.000250
0.000442
0.000357
0.000290
0.000219
0.000249
0.000252
0.000247
0.000236
0.000254
0.000247
0.000270
0.000247
0.000279
0.000417
0.001154
0.000244
0.000246
0.000276
0.000246
0.000352
0.000420
0.000244
0.000465
0.000476
0.000315
0.000391
0.000232
0.000182
0.000055
0.000236
0.000246
0.000262
0.000258
0.000257
0.000280
0.000331
0.000418
0.000398
0.000287
0.000354
0.000394
0.000396
0.000360
0.000260
0.000227
0.000247
0.000279
0.000444
0.000396
0.001268
0.000230
0.000269
0.000271
0.000236
0.000238
0.000260
0.000335
0.000571
0.000345
0.000160
0.000056
0.000217
0.000229
0.000255
0.000242
0.000239
0.000253
0.000230
0.000267
0.000365
0.000338
0.000466
0.000282
0.000257
0.000228
0.000245
0.000257
0.000252
0.000261
0.000264
0.000275
0.000438
0.000323
0.000332
0.000387
0.000301
0.000251
0.000269
0.000269
0.000261
0.000332
0.000164
0.000055
0.000321
0.000312
0.000394
0.000359
0.000365
0.000379
0.000239
0.000243
0.000248
0.000299
0.000228
0.000261
0.000238
0.000251
0.000241
0.000229
0.000284
0.000519
0.000395
0.000278
0.000236
0.000256
0.000244
0.000244
0.000265
0.000278
0.000273
0.000276
0.000266
0.000269
0.000330
0.000056
0.000240
0.000350
0.000194
0.000266
0.000224
0.000243
0.000246
0.000255
0.000263
0.000260
0.000254
0.000235
0.000430
0.000429
0.000364
0.000298
0.000230
0.000242
0.000254
0.000285
0.000234
0.000268
0.000256
0.000266
0.000268
0.000428
0.000288
0.000603
0.000417
0.000254
0.000166
0.000055
0.000386
0.000220
0.000214
0.000243
0.000252
0.000249
0.000235
0.000254
0.000257
0.000259
0.000219
0.000309
0.000211
0.000226
0.000245
0.000266
0.000251
0.000264
0.000292
0.000242
0.000260
0.000259
0.000267
0.000262
0.000268
0.000233
0.000265
0.000281
0.000255
0.000277
0.000205
0.000055
0.000201
0.000228
0.000247
0.000249
0.000229
0.000263
0.000258
0.000238
0.000259
0.000280
0.000227
0.000245
0.000251
0.000390
0.000260
0.000294
0.000264
0.000246
0.000255
0.000280
0.000271
0.000241
0.000244
0.000252
0.000272
0.000269
0.000248
0.000256
0.000271
0.000258
0.000211
0.000055
0.000225
0.000361
0.000368
0.000279
0.000297
0.000256
0.000270
0.000250
0.000223
0.000245
0.000280
0.000234
0.000243
0.000241
0.000278
0.000261
0.000244
0.000268
0.000246
0.000264
0.000273
0.000260
0.000278
0.000260
0.000295
0.000223
0.000253
0.000276
0.000267
0.000262
0.000196
0.000055
0.000211
0.000226
0.000267
0.000260
0.000256
0.000440
0.000215
0.000272
0.000283
0.000493
0.000462
0.000244
0.000224
0.000250
0.000275
0.000263
0.000238
0.000269
0.000255
0.000275
0.000264
0.000257
0.000257
0.000294
0.000674
0.000346
0.000267
0.000299
0.000260
0.000261
0.000192
0.000055
0.000191
0.000219
0.000274
0.000223
0.000360
0.000638
0.000293
0.000385
0.000204
0.000248
0.000252
0.000253
0.000250
0.000248
0.000256
0.000276
0.000270
0.000238
0.000708
0.000317
0.000303
0.000238
0.000260
0.000277
0.000286
0.000253
0.000261
0.000288
0.000230
0.000327
0.000499
0.000057
0.000183
0.000235
0.000239
0.000236
0.000255
0.000265
0.000216
0.000251
0.000238
0.000261
0.000246
0.000254
0.000245
0.000391
0.000624
0.000350
0.000221
0.000260
0.000261
0.000262
0.000250
0.000289
0.000473
0.000232
0.000253
0.000601
0.000716
0.000166
0.000264
0.000258
0.000185
0.000055
0.000196
0.000232
0.000247
0.000237
0.000256
0.000256
0.000339
0.000528
0.000469
0.000418
0.000217
0.000259
0.000278
0.000272
0.000254
0.000245
0.000239
0.000269
0.000278
0.000456
0.000231
0.000662
0.000360
0.000254
0.000350
0.000383
0.000489
0.000243
0.000275
0.000436
0.000415
0.000055
0.000262
0.000231
0.000437
0.000224
0.000227
0.000253
0.000263
0.000261
0.000229
0.000241
0.000321
0.000352
0.000442
0.000257
0.000250
0.000236
0.000257
0.000251
0.000262
0.000280
0.000292
0.000230
0.000249
0.000274
0.000430
0.000362
0.000493
0.000249
0.000250
0.000269
0.000199
0.000056
0.000202
0.000255
0.000231
0.000244
0.000245
0.000315
0.000317
0.000575
0.000250
0.000268
0.000379
0.000228
0.000247
0.000264
0.000251
0.000244
0.000251
0.000266
0.000361
0.000365
0.000465
0.000312
0.000477
0.000268
0.000383
0.000419
0.000383
0.000242
0.000261
0.000305
0.000425
0.000056
0.000234
0.000226
0.000226
0.000256
0.000280
0.000235
0.000268
0.000227
0.000274
0.000239
0.000243
0.000380
0.000441
0.000371
0.000354
0.000234
0.000256
0.000270
0.000266
0.000233
0.000246
0.000261
0.000261
0.000276
0.000283
0.000301
0.000623
0.000359
0.000243
0.000285
0.000193
0.000056
0.000210
0.000242
0.000277
0.000247
0.000241
0.000356
0.000588
0.000405
0.000481
0.000534
0.000253
0.000226
0.000235
0.000267
0.000244
0.000263
0.000278
0.000282
0.000495
0.000663
0.001239
0.000314
0.000269
0.000264
0.000281
0.000262
0.000384
0.000445
0.000361
0.000283
0.000182
0.000055
0.000191
0.000238
0.000243
0.000261
0.000233
0.000250
0.000299
0.000233
0.000238
0.000324
0.000332
0.000380
0.000271
0.000336
0.000397
0.000345
0.000246
0.000247
0.000267
0.000259
0.000244
0.000247
0.000313
0.000220
0.000328
0.000434
0.000464
0.000238
0.000268
0.000266
0.000188
0.000057
0.000210
0.000247
0.000257
0.000251
0.000241
0.000237
0.000474
0.000212
0.000230
0.000259
0.000247
0.000248
0.000261
0.000253
0.000256
0.000266
0.000259
0.000295
0.000260
0.000243
0.000281
0.000268
0.000288
0.000245
0.000264
0.000280
0.000273
0.000263
0.000260
0.000272
0.000174
0.000055
0.000187
0.000257
0.000289
0.000539
0.000262
0.000236
0.000239
0.000248
0.000259
0.000250
0.000249
0.000257
0.000261
0.000261
0.000240
0.000246
0.000263
0.000254
0.000298
0.000410
0.000427
0.000324
0.000227
0.000266
0.000260
0.000257
0.000267
0.000251
0.000273
0.000272
0.000207
0.000056
0.000273
0.000515
0.000283
0.000209
0.000251
0.000264
0.000403
0.000226
0.000228
0.000256
0.000255
0.000287
0.000426
0.000379
0.001861
0.000247
0.000239
0.000257
0.000276
0.000242
0.000401
0.000495
0.000539
0.000259
0.000231
0.000257
0.000279
0.000425
0.000278
0.000272
0.000175
0.000056
0.000187
0.000388
0.000334
0.000298
0.000496
0.000205
0.000237
0.000245
0.000252
0.000246
0.000260
0.000243
0.000275
0.000364
0.000355
0.000494
0.000199
0.000245
0.000264
0.000259
0.000258
0.000320
0.000237
0.000274
0.000276
0.000479
0.000501
0.000444
0.000395
0.000227
0.000213
0.000056
0.000223
0.000234
0.000256
0.000235
0.000246
0.000252
0.000264
0.000327
0.000304
0.000314
0.000636
0.000183
0.000236
0.000248
0.000266
0.000288
0.000299
0.000236
0.000279
0.000271
0.000238
0.000339
0.000478
0.000358
0.000256
0.000260
0.000261
0.000439
0.000418
0.000297
0.000189
0.000056
0.000203
0.000272
0.000314
0.000451
0.000347
0.000211
0.000221
0.000256
0.000265
0.000260
0.000253
0.000249
0.000234
0.000257
0.000258
0.000316
0.000379
0.000348
0.000310
0.000337
0.000490
0.000225
0.000288
0.000272
0.000294
0.000290
0.000251
0.000278
0.000519
0.000481
0.000176
0.000056
0.000201
0.000226
0.000248
0.000250
0.000244
0.000479
0.000216
0.000249
0.000275
0.000473
0.000440
0.000487
0.000218
0.000236
0.000236
0.000257
0.000255
0.000270
0.000240
0.000249
0.000284
0.000242
0.000408
0.000463
0.000262
0.000405
0.000311
0.000297
0.000328
0.000262
0.000168
0.000055
0.000222
0.000234
0.000377
0.000419
0.000289
0.000265
0.000269
0.000242
0.000223
0.000260
0.000253
0.000259
0.000267
0.000240
0.000245
0.000262
0.000246
0.000243
0.000297
0.000376
0.000472
0.000404
0.000241
0.000243
0.000279
0.000276
0.000262
0.000256
0.000265
0.000267
0.000194
0.000055
0.000307
0.000359
0.000491
0.000202
0.000234
0.000243
0.000316
0.000460
0.000289
0.000218
0.000236
0.000271
0.000365
0.000409
0.000384
0.000271
0.000239
0.000232
0.000254
0.000260
0.000275
0.000258
0.000267
0.000270
0.000269
0.000305
0.000442
0.000344
0.000329
0.000241
0.000190
0.000056
0.000212
0.000240
0.000245
0.000253
0.000250
0.000266
0.000225
0.000276
0.000245
0.000239
0.000265
0.000237
0.000288
0.001437
0.000219
0.000261
0.000257
0.000248
0.000275
0.000275
0.000261
0.000241
0.000277
0.000253
0.000267
0.000266
0.000276
0.000271
0.000256
0.000273
0.000191
0.000055
0.000202
0.000228
0.000257
0.000265
0.000221
0.000237
0.000264
0.000256
0.000227
0.000251
0.000248
0.000268
0.000252
0.000247
0.000259
0.000266
0.000247
0.000251
0.000276
0.000255
0.000256
0.000260
0.000249
0.000250
0.001292
0.000276
0.000609
0.000430
0.000300
0.000246
0.000194
0.000055
0.000187
0.000232
0.000247
0.000254
0.000411
0.000242
0.000240
0.000239
0.000256
0.000431
0.000371
0.000346
0.000234
0.000236
0.000258
0.000265
0.000252
0.000263
0.000246
0.000262
0.000254
0.000255
0.000362
0.000333
0.000521
0.000437
0.000222
0.000263
0.001365
0.000248
0.000181
0.000055
0.000411
0.000311
0.000299
0.000273
0.000222
0.000227
0.000230
0.000247
0.000277
0.000239
0.000250
0.000264
0.000296
0.000476
0.000349
0.000384
0.000314
0.000225
0.000246
0.000255
0.000268
0.000284
0.000251
0.000264
0.000271
0.000264
0.000426
0.000471
0.000407
0.000307
0.000158
0.000056
0.000208
0.000233
0.001255
0.000457
0.000387
0.000369
0.000352
0.000508
0.000247
0.000343
0.000231
0.000229
0.000260
0.000253
0.000254
0.000261
0.000291
0.000601
0.000362
0.000347
0.000264
0.000238
0.000268
0.000496
0.000233
0.000265
0.000257
0.000280
0.000340
0.000536
0.000286
0.000057
0.000375
0.000307
0.000242
0.001388
0.000513
0.000357
0.000327
0.000220
0.000240
0.000245
0.000236
0.000235
0.000244
0.000268
0.000252
0.000263
0.000234
0.000285
0.000457
0.000358
0.000405
0.000251
0.000257
0.000258
0.000260
0.000276
0.000264
0.000245
0.000262
0.000276
0.000280
0.000057
0.000354
0.000347
0.000213
0.000239
0.000253
0.000243
0.000271
0.000230
0.000233
0.000239
0.001556
0.000360
0.000217
0.000249
0.000234
0.000256
0.000273
0.000258
0.000237
0.000301
0.000247
0.000247
0.000298
0.000422
0.000500
0.000338
0.000233
0.000265
0.000275
0.000282
0.000177
0.000056
0.000208
0.000416
0.000219
0.000247
0.000310
0.000470
0.000374
0.000309
0.000457
0.000213
0.000228
0.000274
0.000245
0.000261
0.000260
0.001522
0.000260
0.000294
0.000235
0.000264
0.000294
0.000234
0.000253
0.000252
0.000263
0.000267
0.000490
0.000419
0.000280
0.000279
0.000152
0.000056
0.000229
0.000223
0.000254
0.000241
0.000233
0.000252
0.000240
0.000254
0.000321
0.000357
0.000430
0.000294
0.000211
0.000255
0.000251
0.000271
0.000274
0.000257
0.000288
0.000209
0.000255
0.000381
0.001184
0.000248
0.000278
0.000238
0.000262
0.000265
0.000261
0.000253
0.000194
0.000056
0.000299
0.000291
0.000346
0.000319
0.000278
0.000220
0.000260
0.000289
0.000235
0.000262
0.000239
0.000269
0.000240
0.000251
0.000272
0.000245
0.000268
0.000283
0.000248
0.000239
0.000261
0.000271
0.000271
0.000281
0.000288
0.000263
0.000264
0.000268
0.000253
0.000454
0.001356
0.000056
0.000207
0.000250
0.000217
0.000265
0.000234
0.000258
0.000248
0.000228
0.000249
0.000246
0.000303
0.000253
0.000227
0.000242
0.000274
0.000221
0.001730
0.000263
0.000236
0.000258
0.000251
0.000256
0.000275
0.000255
0.000295
0.000232
0.000274
0.000281
0.000264
0.000257
0.000246
0.000055
0.000274
0.000367
0.001270
0.000223
0.000233
0.000250
0.000263
0.000246
0.000274
0.000238
0.000256
0.000359
0.000400
0.000420
0.000253
0.000240
0.000250
0.000247
0.000264
0.000264
0.000240
0.000280
0.000258
0.000283
0.000279
0.000401
0.000327
0.000378
0.000326
0.000236
0.000193
0.000056
0.000235
0.000243
0.000239
0.000245
0.000283
0.000195
0.000240
0.000388
0.000303
0.001321
0.000271
0.000216
0.000245
0.000266
0.000256
0.000293
0.000235
0.000252
0.000409
0.000307
0.000436
0.000228
0.000232
0.000243
0.000300
0.000264
0.000264
0.000294
0.000270
0.000275
0.000192
0.000055
0.000276
0.000385
0.000402
0.000222
0.000218
0.000241
0.000242
0.000280
0.000260
0.000248
0.000231
0.000253
0.000454
0.000515
0.000469
0.001435
0.000253
0.000282
0.000332
0.000345
0.000457
0.000542
0.000461
0.000285
0.000243
0.000255
0.000272
0.000274
0.000264
0.000275
0.000194
0.000055
0.000203
0.000301
0.000507
0.000483
0.000248
0.000237
0.000248
0.000237
0.000237
0.000277
0.000230
0.000271
0.000273
0.000228
0.000263
0.000305
0.000376
0.000417
0.001392
0.000335
0.000222
0.000249
0.000253
0.000268
0.000481
0.000438
0.000364
0.000261
0.000264
0.000278
0.000184
0.000055
0.000186
0.000247
0.000245
0.000264
0.000228
0.000348
0.000382
0.000372
0.000381
0.000219
0.000242
0.000277
0.000254
0.000287
0.000242
0.000255
0.000262
0.000259
0.000298
0.000246
0.000465
0.000412
0.000332
0.001383
0.000370
0.000239
0.000273
0.000481
0.000413
0.000311
0.000312
0.000057
0.000205
0.000234
0.000248
0.000244
0.000256
0.000254
0.001675
0.000253
0.000219
0.000231
0.000259
0.000245
0.000270
0.000310
0.000326
0.000286
0.000257
0.000303
0.000513
0.000462
0.000249
0.000287
0.000230
0.000246
0.001502
0.000359
0.000434
0.000448
0.000302
0.000304
0.000163
0.000055
0.000222
0.000248
0.000266
0.000252
0.000243
0.000268
0.001701
0.000243
0.000232
0.000265
0.000331
0.000419
0.001459
0.000339
0.000384
0.000241
0.000258
0.000240
0.000257
0.000283
0.001596
0.000511
0.000380
0.000298
0.000228
0.000264
0.000257
0.000281
0.000243
0.000250
0.000200
0.000056
0.000216
0.000233
0.000264
0.000243
0.000265
0.000300
0.000254
0.000258
0.000251
0.000248
0.000254
0.000249
0.000291
0.000236
0.000274
0.001476
0.000283
0.000230
0.000267
0.000277
0.000274
0.000243
0.000438
0.001274
0.000276
0.000236
0.000271
0.000253
0.000404
0.000241
0.000201
0.000056
0.000200
0.000252
0.000220
0.000252
0.000234
0.000241
0.000224
0.001691
0.000253
0.000229
0.000357
0.000284
0.000207
0.000241
0.000238
0.001387
0.000230
0.000270
0.000260
0.000251
0.000258
0.000351
0.000293
0.001301
0.000290
0.000226
0.000256
0.000269
0.001387
0.000284
0.000194
0.000056
0.000267
0.000314
0.000205
0.000237
0.000272
0.000222
0.000284
0.000252
0.000260
0.000248
0.000256
0.000263
0.000267
0.000238
0.000318
0.001512
0.000230
0.000265
0.000252
0.000245
0.000310
0.000239
0.000255
0.001497
0.000355
0.000237
0.000268
0.001270
0.000266
0.000253
0.000251
0.000056
0.000278
0.000347
0.000335
0.000215
0.000234
0.000233
0.000274
0.000249
0.000263
0.000274
0.000239
0.000250
0.000264
0.000320
0.000362
0.001226
0.000228
0.000256
0.000265
0.000273
0.000232
0.000243
0.000252
0.000449
0.001165
0.000249
0.000241
0.000259
0.000259
0.001335
0.000359
0.000056
0.000262
0.000252
0.000230
0.000232
0.000237
0.000258
0.000243
0.000250
0.000300
0.000231
0.000242
0.000244
0.000299
0.000280
0.000424
0.001459
0.000221
0.000250
0.000305
0.000510
0.000277
0.001487
0.000328
0.000240
0.000233
0.000266
0.000248
0.001302
0.000365
0.000441
0.000409
0.000056
0.000224
0.000249
0.000257
0.000257
0.000275
0.000238
0.000265
0.000269
0.000244
0.000327
0.000358
0.000350
0.001334
0.000239
0.000278
0.000260
0.000278
0.000235
0.000234
0.000245
0.000372
0.001208
0.000271
0.000233
0.000250
0.000253
0.001664
0.000316
0.000432
0.000224
0.000193
0.000055
0.000209
0.000228
0.000247
0.000239
0.000253
0.000266
0.000240
0.000347
0.000547
0.000278
0.000265
0.001497
0.000220
0.000235
0.000266
0.000254
0.000270
0.000301
0.001675
0.000259
0.000372
0.000342
0.001324
0.000374
0.000262
0.000315
0.000257
0.000256
0.000265
0.000270
0.000192
0.000056
0.000214
0.000235
0.000320
0.000320
0.000264
0.000631
0.000181
0.000297
0.001466
0.000227
0.000389
0.000263
0.000316
0.000236
0.000438
0.001253
0.000264
0.000239
0.000250
0.000258
0.001545
0.000359
0.000292
0.000265
0.000268
0.000243
0.000454
0.000330
0.000240
0.000262
0.000256
0.000055
0.000228
0.000400
0.000301
0.000266
0.000239
0.001505
0.000218
0.000246
0.000271
0.000266
0.000267
0.000241
0.000327
0.001466
0.000248
0.000231
0.000434
0.001182
0.000422
0.000393
0.000362
0.000253
0.000235
0.000253
0.000300
0.000223
0.000453
0.000227
0.000265
0.000274
0.000204
0.000056
0.000208
0.000327
0.000306
0.000313
0.001326
0.000274
0.000333
0.000227
0.000234
0.000238
0.000248
0.000533
0.001291
0.000246
0.000230
0.000245
0.001379
0.000427
0.000425
0.000356
0.000315
0.000237
0.000248
0.000249
0.000265
0.000284
0.000258
0.000269
0.000266
0.000251
0.000239
0.000056
0.000309
0.000410
0.001352
0.000213
0.000273
0.000297
0.000218
0.000250
0.000275
0.000377
0.001380
0.000215
0.000265
0.000262
0.000255
0.001300
0.000676
0.000278
0.000323
0.000407
0.000306
0.000250
0.000266
0.000250
0.000273
0.000289
0.000275
0.000311
0.000508
0.000356
0.001368
0.000056
0.000197
0.000240
0.000235
0.000234
0.000280
0.000381
0.000468
0.001306
0.000240
0.000245
0.000250
0.001496
0.000462
0.000265
0.000194
0.000420
0.000236
0.000259
0.000259
0.000285
0.000251
0.000252
0.000282
0.000248
0.000259
0.000371
0.000390
0.000448
0.001489
0.000233
0.000189
0.000055
0.000201
0.000253
0.000332
0.001556
0.000306
0.000240
0.000227
0.000259
0.000245
0.000251
0.000251
0.000275
0.000380
0.000512
0.000306
0.000225
0.000251
0.000270
0.000243
0.000310
0.000232
0.000262
0.000258
0.000271
0.000252
0.000399
0.000592
0.000209
0.000340
0.001407
0.000180
0.000056
0.000210
0.000240
0.000324
0.000409
0.000354
0.000285
0.000328
0.000330
0.000293
0.000253
0.000235
0.000264
0.000274
0.000288
0.000267
0.000254
0.000594
0.000284
0.000295
0.000391
0.000270
0.000405
0.000243
0.000245
0.000251
0.000259
0.000255
0.000300
0.000478
0.000406
0.000240
0.000055
0.000201
0.001413
0.000220
0.000337
0.000407
0.000479
0.000399
0.000248
0.000218
0.000246
0.000250
0.000248
0.000284
0.000276
0.000235
0.000256
0.000265
0.001286
0.000336
0.000252
0.000269
0.000255
0.000270
0.000277
0.000271
0.000254
0.000276
0.000246
0.000376
0.000351
0.000421
0.000057
0.000208
0.000241
0.000242
0.001503
0.000339
0.000219
0.000230
0.000255
0.000220
0.000246
0.000258
0.000280
0.000255
0.000235
0.000303
0.000223
0.000245
0.000269
0.000260
0.000252
0.001435
0.000229
0.000247
0.000298
0.000231
0.000258
0.000265
0.000258
0.000280
0.000493
0.000349
0.000055
0.000226
0.000226
0.000401
0.000282
0.000234
0.000264
0.001550
0.000386
0.000230
0.000221
0.000280
0.000298
0.000326
0.000227
0.000229
0.000260
0.000241
0.000263
0.000257
0.000262
0.000587
0.000442
0.001082
0.000275
0.000235
0.000273
0.000254
0.000266
0.000296
0.000224
0.000561
0.000057
0.000216
0.000322
0.000220
0.000244
0.000251
0.000239
0.000242
0.000248
0.000272
0.001710
0.000273
0.000282
0.000245
0.000242
0.000258
0.000239
0.000268
0.000275
0.000276
0.000297
0.000312
0.000530
0.000417
0.001349
0.000233
0.000280
0.000261
0.000252
0.000273
0.000321
0.000473
0.000056
0.000282
0.000264
0.000217
0.000235
0.000226
0.000240
0.000260
0.000285
0.000254
0.001703
0.000226
0.000259
0.000237
0.000257
0.000458
0.000259
0.000557
0.000367
0.000262
0.000275
0.000546
0.000477
0.001227
0.000260
0.000234
0.000273
0.001685
0.000467
0.000613
0.000316
0.000145
0.000056
0.000210
0.000254
0.000214
0.000238
0.000278
0.000220
0.000251
0.000517
0.000470
0.000427
0.000292
0.000210
0.000243
0.000262
0.000281
0.000274
0.000232
0.000241
0.000253
0.000285
0.000283
0.000465
0.001269
0.000227
0.000253
0.000292
0.001934
0.000329
0.000390
0.000340
0.000155
0.000056
0.000249
0.000243
0.000243
0.001580
0.000405
0.000220
0.000238
0.000257
0.000257
0.000273
0.000380
0.000368
0.000367
0.000276
0.000296
0.000614
0.000368
0.001132
0.000278
0.000233
0.000270
0.000240
0.000278
0.000415
0.000642
0.000410
0.000262
0.000275
0.000263
0.000282
0.000193
0.000055
0.000192
0.000249
0.000223
0.001597
0.000200
0.000229
0.000243
0.000251
0.000242
0.000253
0.000251
0.000266
0.000278
0.000268
0.000299
0.000322
0.000516
0.000281
0.001381
0.000238
0.000257
0.000260
0.000257
0.000301
0.000337
0.000549
0.000384
0.000268
0.000289
0.000230
0.000445
0.000056
0.000194
0.000234
0.000291
0.001520
0.000289
0.000226
0.000260
0.000243
0.000253
0.000253
0.000253
0.000278
0.000236
0.000290
0.000433
0.000544
0.001291
0.000746
0.000259
0.000339
0.000258
0.000228
0.000244
0.000274
0.001685
0.000802
0.000225
0.000265
0.000294
0.000271
0.000191
0.000055
0.000192
0.000234
0.000251
0.000242
0.000285
0.000248
0.000213
0.000270
0.000223
0.000235
0.000293
0.000292
0.000256
0.000231
0.000265
0.000244
0.000276
0.001602
0.000705
0.000399
0.000286
0.000223
0.000253
0.000310
0.000248
0.000250
0.000269
0.000255
0.001458
0.000334
0.000370
0.000056
0.000208
0.000218
0.000267
0.000233
0.000263
0.000228
0.000279
0.000229
0.000255
0.000260
0.000297
0.000429
0.000425
0.000314
0.000213
0.000248
0.000278
0.001378
0.000705
0.000500
0.000355
0.000216
0.000229
0.000252
0.000270
0.000260
0.000251
0.000261
0.001496
0.000425
0.000196
0.000055
0.000193
0.000225
0.000248
0.000243
0.000253
0.000247
0.000239
0.000249
0.000269
0.000336
0.000376
0.000314
0.000314
0.000233
0.000225
0.000247
0.000265
0.000258
0.001591
0.000633
0.000476
0.000301
0.000214
0.000248
0.000265
0.000264
0.000262
0.000283
0.000261
0.001391
0.000294
0.000056
0.000217
0.000203
0.000237
0.000255
0.000257
0.000245
0.000244
0.000311
0.000356
0.000583
0.000287
0.000332
0.000355
0.000217
0.000249
0.000248
0.000299
0.000238
0.000269
0.001927
0.000321
0.000237
0.000445
0.000235
0.000259
0.000262
0.000268
0.000280
0.000251
0.000270
0.000414
0.000055
0.000241
0.000241
0.000229
0.000241
0.000252
0.000248
0.000230
0.000237
0.000297
0.000239
0.000232
0.000238
0.000471
0.000410
0.000320
0.000445
0.000214
0.000265
0.000249
0.000250
0.000255
0.000290
0.001478
0.001038
0.000231
0.000266
0.000256
0.000261
0.000277
0.000247
0.000205
0.000055
0.000202
0.001341
0.000294
0.000209
0.000243
0.000250
0.000255
0.000234
0.000242
0.000264
0.000243
0.000266
0.000237
0.000434
0.000387
0.000421
0.000233
0.000260
0.000259
0.000270
0.000281
0.000215
0.000259
0.000269
0.001341
0.000655
0.000313
0.000381
0.000376
0.000405
0.000297
0.000056
0.000209
0.000276
0.000366
0.001271
0.000216
0.000253
0.000244
0.000248
0.000252
0.000257
0.000281
0.000221
0.000258
0.000434
0.000543
0.000247
0.000229
0.000279
0.000322
0.000215
0.000255
0.000273
0.000231
0.000268
0.000269
0.001532
0.000749
0.000320
0.000275
0.000252
0.000198
0.000056
0.000204
0.000361
0.000367
0.000406
0.001214
0.000260
0.000206
0.000248
0.000234
0.000246
0.000250
0.000257
0.000237
0.000231
0.000250
0.000258
0.000264
0.000241
0.000255
0.000259
0.000263
0.000268
0.000312
0.000327
0.000212
0.000271
0.000263
0.001460
0.000259
0.000244
0.000178
0.000055
0.000210
0.000232
0.000250
0.000258
0.000356
0.000373
0.000394
0.000282
0.001570
0.000261
0.000301
0.000515
0.000306
0.000225
0.000438
0.000231
0.000243
0.000259
0.000271
0.000269
0.000278
0.000265
0.000256
0.000273
0.000275
0.000376
0.000423
0.000306
0.001592
0.000223
0.000195
0.000056
0.000232
0.000233
0.000269
0.000227
0.000238
0.000250
0.000260
0.000321
0.000420
0.002016
0.000218
0.000257
0.000253
0.000258
0.000264
0.000260
0.000262
0.000255
0.000356
0.000394
0.000332
0.000436
0.001440
0.000240
0.000254
0.002014
0.000285
0.000237
0.000259
0.001521
0.000164
0.000056
0.000348
0.000454
0.000423
0.000220
0.000282
0.000225
0.000244
0.000291
0.000236
0.000227
0.000254
0.000405
0.000384
0.000340
0.000389
0.000249
0.000238
0.001562
0.000243
0.000596
0.001852
0.000298
0.000223
0.001557
0.002006
0.000744
0.000277
0.000275
0.000277
0.000466
0.000364
0.000056
0.000217
0.000232
0.000283
0.000219
0.001416
0.001739
0.001069
0.000209
0.000243
0.001585
0.001968
0.000225
0.000227
0.000424
0.000383
0.000278
0.000467
0.000430
0.000235
0.000215
0.000263
0.000246
0.000273
0.001576
0.001217
0.001422
0.000301
0.000270
0.000262
0.000335
0.000410
0.000056
0.000208
0.000242
0.000233
0.000240
0.000228
0.000272
0.000230
0.000253
0.000255
0.000241
0.000245
0.000479
0.000318
0.000399
0.000299
0.000257
0.000249
0.000273
0.000266
0.000283
0.000240
0.000264
0.001496
0.000485
0.002126
0.000227
0.000273
0.000332
0.000446
0.000368
0.000211
0.000057
0.000245
0.000313
0.000483
0.000298
0.000216
0.000217
0.000253
0.000237
0.000257
0.000229
0.000248
0.000263
0.000258
0.001656
0.001323
0.001220
0.000288
0.000212
0.000253
0.000270
0.000283
0.000278
0.000242
0.000252
0.002203
0.000244
0.000266
0.000296
0.000321
0.000307
0.000220
0.000056
0.000221
0.000426
0.000485
0.000334
0.000238
0.000218
0.000245
0.000275
0.001903
0.001415
0.000221
0.000316
0.000387
0.000411
0.000268
0.000240
0.000243
0.000265
0.000270
0.000261
0.000255
0.000268
0.000467
0.000241
0.000271
0.000262
0.000255
0.000276
0.000285
0.000244
0.000203
0.000056
0.000185
0.000246
0.000247
0.000242
0.000281
0.000249
0.001543
0.001415
0.001328
0.000244
0.000217
0.000246
0.000263
0.000265
0.000254
0.000259
0.000232
0.002099
0.000259
0.000234
0.000266
0.000268
0.000250
0.000276
0.000258
0.000256
0.000269
0.000255
0.000277
0.000250
0.000184
0.000055
0.000210
0.002675
0.001407
0.000219
0.000304
0.000324
0.000216
0.000283
0.000226
0.000235
0.000260
0.000242
0.000236
0.000264
0.000256
0.000260
0.000262
0.000278
0.000256
0.000257
0.000266
0.000284
0.000276
0.000256
0.000250
0.000250
0.000261
0.000268
0.000276
0.000258
0.000367
0.000055
0.001541
0.000262
0.001241
0.000222
0.000220
0.000240
0.000282
0.000255
0.000225
0.000314
0.000451
0.000253
0.000352
0.000217
0.000238
0.002161
0.000239
0.000235
0.000274
0.000550
0.000346
0.000274
0.000239
0.000254
0.000260
0.000250
0.000261
0.000281
0.000274
0.001631
0.001240
0.000056
0.000199
0.000224
0.000298
0.000464
0.000291
0.000274
0.000212
0.000237
0.000249
0.000275
0.000251
0.000245
0.000228
0.000255
0.000266
0.000241
0.000405
0.000521
0.000372
0.000237
0.000238
0.000269
0.000281
0.000254
0.000244
0.000251
0.000268
0.000278
0.000236
0.000401
0.000334
0.000074
0.001107
0.000223
0.000426
0.000469
0.000202
0.000217
0.000233
0.000241
0.000253
0.002336
0.000320
0.000390
0.000226
0.000375
0.000310
0.000253
0.000241
0.000254
0.000269
0.000222
0.000254
0.000414
0.000617
0.000320
0.001849
0.001317
0.000596
0.000458
0.000235
0.000282
0.000201
0.000056
0.000220
0.000353
0.000248
0.000242
0.000247
0.000222
0.000260
0.000248
0.000255
0.000253
0.000255
0.000224
0.000252
0.000281
0.000412
0.000475
0.001819
0.001373
0.000417
0.000428
0.000457
0.000239
0.000235
0.000264
0.002283
0.000399
0.000391
0.000234
0.000273
0.000280
0.000203
0.000055
0.000209
0.000244
0.000255
0.000245
0.000258
0.000342
0.000420
0.000294
0.000318
0.000216
0.000240
0.000254
0.000259
0.002117
0.000439
0.000311
0.000217
0.000248
0.000284
0.000244
0.000249
0.002508
0.000275
0.000243
0.000249
0.000259
0.000250
0.000269
0.000315
0.000268
0.000173
0.000055
0.000227
0.000521
0.000423
0.000300
0.000270
0.000214
0.000230
0.000252
0.000260
0.000250
0.002156
0.000193
0.000268
0.000274
0.000246
0.000265
0.000271
0.000241
0.002208
0.000443
0.000221
0.000272
0.000275
0.000253
0.000250
0.000255
0.000306
0.000241
0.000263
0.000253
0.000188
0.000055
0.000207
0.000237
0.000248
0.000228
0.000248
0.000258
0.000244
0.000234
0.000237
0.002189
0.000234
0.000264
0.000220
0.000426
0.000222
0.000255
0.000305
0.000267
0.000247
0.000255
0.001964
0.000270
0.000341
0.000365
0.000432
0.000413
0.000298
0.000259
0.000250
0.000260
0.000207
0.000055
0.000198
0.000253
0.000227
0.000252
0.000247
0.000328
0.000215
0.002315
0.000240
0.000231
0.000258
0.000252
0.000240
0.000282
0.000275
0.002121
0.000592
0.000230
0.000255
0.000240
0.000253
0.000262
0.000292
0.000261
0.000265
0.000254
0.000285
0.000254
0.000264
0.000270
0.000190
0.000055
0.001827
0.001433
0.000211
0.000217
0.000246
0.000257
0.000250
0.000377
0.000348
0.000387
0.002083
0.000264
0.000221
0.000273
0.000374
0.000425
0.000398
0.000291
0.000232
0.000240
0.000252
0.000264
0.000264
0.000228
0.000256
0.000263
0.000273
0.000269
0.000456
0.000585
0.000253
0.000073
0.000187
0.000258
0.000240
0.000259
0.000264
0.000258
0.000241
0.000240
0.001556
0.002044
0.000581
0.000274
0.000614
0.000542
0.000296
0.000242
0.000248
0.000247
0.000267
0.000261
0.000257
0.000242
0.000249
0.000272
0.003015
0.000328
0.000236
0.000266
0.000290
0.000314
0.000380
0.000057
0.001938
0.000227
0.000235
0.000233
0.000292
0.000353
0.000456
0.000303
0.000289
0.000218
0.000244
0.000245
0.000255
0.000261
0.000262
0.000255
0.000256
0.000288
0.001832
0.000227
0.000237
0.000257
0.000271
0.000278
0.000271
0.000259
0.001470
0.000326
0.000247
0.000261
0.000172
0.000056
0.000200
0.000232
0.000258
0.000229
0.000246
0.000246
0.000305
0.000393
0.000470
0.000206
0.000237
0.000237
0.000261
0.000325
0.000421
0.000326
0.000231
0.000238
0.000283
0.000497
0.000333
0.000413
0.000259
0.000256
0.000274
0.000240
0.000255
0.000271
0.000274
0.000264
0.000205
0.000056
0.001411
0.000440
0.000223
0.001963
0.000375
0.000385
0.000354
0.000313
0.000232
0.000246
0.000268
0.000239
0.000247
0.000247
0.000268
0.000258
0.000449
0.000294
0.000372
0.000400
0.000356
0.000224
0.000263
0.000292
0.000248
0.000269
0.000257
0.000266
0.000396
0.000489
0.001315
0.000056
0.000210
0.000240
0.002057
0.000347
0.000294
0.000232
0.000255
0.000249
0.000261
0.000290
0.000184
0.000251
0.000261
0.000264
0.000295
0.000346
0.000683
0.001766
0.000227
0.000261
0.000241
0.000270
0.000423
0.000411
0.001551
0.000293
0.000367
0.001920
0.000266
0.000249
0.000197
0.000055
0.000185
0.000223
0.000240
0.000245
0.000229
0.000247
0.000256
0.000283
0.000330
0.000263
0.000380
0.000360
0.000350
0.000286
0.000246
0.000268
0.000265
0.000236
0.000266
0.000249
0.000318
0.000278
0.000264
0.000269
0.000258
0.001505
0.000294
0.000389
0.002069
0.000241
0.000173
0.000056
0.000214
0.000234
0.000238
0.000250
0.000486
0.000207
0.000260
0.000353
0.000366
0.000301
0.000286
0.000212
0.000267
0.000261
0.000268
0.000329
0.000430
0.000424
0.000247
0.000426
0.000528
0.000465
0.001544
0.000222
0.000281
0.001947
0.000328
0.000270
0.000238
0.000292
0.000195
0.000055
0.000218
0.000254
0.000213
0.000243
0.000253
0.000272
0.000252
0.000271
0.000257
0.000291
0.001770
0.000315
0.000382
0.000284
0.000464
0.000387
0.000335
0.001501
0.000247
0.000271
0.002185
0.000522
0.000247
0.000227
0.000259
0.000268
0.000503
0.000233
0.000248
0.000281
0.000199
0.000056
0.000241
0.000401
0.000323
0.000297
0.000210
0.000239
0.000264
0.000244
0.000268
0.000282
0.000236
0.000254
0.000257
0.000259
0.000370
0.000566
0.001193
0.000266
0.000283
0.002012
0.000262
0.000294
0.000232
0.000258
0.000254
0.000278
0.000264
0.000268
0.000241
0.000269
0.000209
0.000055
0.000213
0.000389
0.002065
0.000239
0.000227
0.000251
0.000258
0.000339
0.000407
0.000421
0.001293
0.000376
0.000359
0.002081
0.000223
0.000229
0.000264
0.000277
0.000252
0.000249
0.000297
0.000278
0.000259
0.000342
0.000613
0.000252
0.000290
0.002252
0.000539
0.000415
0.000407
0.000056
0.000201
0.000228
0.000249
0.001957
0.000235
0.000231
0.000240
0.000237
0.000247
0.000254
0.000245
0.000262
0.000283
0.000279
0.000427
0.001438
0.000254
0.000242
0.000265
0.000256
0.000235
0.000257
0.000257
0.000334
0.000281
0.000597
0.000313
0.000238
0.001588
0.000275
0.000187
0.000055
0.000201
0.000227
0.000246
0.000236
0.000262
0.000268
0.000225
0.000252
0.000248
0.000412
0.000352
0.001388
0.000232
0.000235
0.000245
0.000289
0.000231
0.000266
0.000319
0.000481
0.000345
0.000467
0.000234
0.001567
0.000229
0.000262
0.000290
0.000277
0.000262
0.000267
0.000201
0.000056
0.000207
0.000238
0.000287
0.000249
0.000246
0.000241
0.000237
0.000246
0.000277
0.000224
0.000251
0.000254
0.000268
0.001474
0.000363
0.000211
0.000247
0.000270
0.000274
0.000323
0.000358
0.000282
0.000242
0.000264
0.000261
0.000258
0.000266
0.001398
0.000292
0.000279
0.000128
0.000056
0.000217
0.000227
0.000264
0.000257
0.000272
0.000217
0.000249
0.000259
0.000220
0.000261
0.000245
0.000258
0.000240
0.000320
0.000399
0.000298
0.000271
0.000240
0.001635
0.000243
0.000239
0.000263
0.000263
0.000305
0.000385
0.000437
0.000366
0.000259
0.000267
0.001606
0.000159
0.000055
0.000357
0.000406
0.000318
0.000243
0.000238
0.000220
0.000242
0.000274
0.000254
0.000270
0.000213
0.000234
0.001485
0.000371
0.000216
0.000222
0.000243
0.000276
0.000248
0.000265
0.000254
0.000239
0.000257
0.000272
0.000264
0.000362
0.000497
0.000328
0.000265
0.000249
0.000195
0.000056
0.000214
0.000302
0.000451
0.000258
0.000385
0.000278
0.000246
0.000244
0.000255
0.000258
0.000243
0.000224
0.000258
0.000240
0.001298
0.000272
0.000223
0.000252
0.000283
0.000243
0.000245
0.000267
0.000257
0.000260
0.000252
0.000261
0.000312
0.000871
0.000269
0.000232
0.000185
0.000056
0.000203
0.001563
0.000276
0.000336
0.000481
0.000321
0.000220
0.000247
0.000272
0.000253
0.000237
0.000260
0.000267
0.000271
0.000261
0.001532
0.000248
0.000283
0.000263
0.000255
0.000276
0.000234
0.000268
0.000262
0.000255
0.000276
0.000483
0.000397
0.000283
0.000229
0.000195
0.000055
0.000214
0.000252
0.000240
0.001609
0.000427
0.000340
0.000226
0.000238
0.000257
0.000271
0.000279
0.000251
0.000256
0.000258
0.000233
0.000269
0.000410
0.001313
0.000248
0.000226
0.001514
0.000352
0.000579
0.000335
0.000344
0.000233
0.000267
0.000466
0.000238
0.000263
0.000187
0.000056
0.000203
0.000239
0.000221
0.000248
0.000247
0.000275
0.000218
0.000257
0.000257
0.000251
0.000244
0.000265
0.000329
0.000571
0.001561
0.001517
0.000363
0.000503
0.000349
0.000221
0.000238
0.000258
0.000246
0.000270
0.000244
0.000270
0.000259
0.000262
0.001523
0.000329
0.000200
0.000057
0.000185
0.000354
0.000351
0.000331
0.000260
0.000206
0.000270
0.000433
0.000377
0.000316
0.002179
0.000312
0.000725
0.000485
0.000455
0.000266
0.000332
0.000389
0.000329
0.000285
0.000392
0.000272
0.001528
0.000527
0.000220
0.000260
0.000256
0.000250
0.000276
0.000263
0.000203
0.000055
0.000210
0.000252
0.000258
0.000249
0.000240
0.001662
0.000877
0.000999
0.000214
0.000229
0.000275
0.000235
0.000265
0.000262
0.000249
0.000250
0.000258
0.000262
0.000265
0.000282
0.001439
0.000309
0.000250
0.000259
0.000209
0.000271
0.000247
0.000282
0.000263
0.000285
0.001903
0.000056
0.000211
0.000218
0.001557
0.000847
0.000387
0.000348
0.000258
0.000213
0.000265
0.000239
0.000256
0.000241
0.000250
0.001972
0.000484
0.000216
0.000252
0.000255
0.000262
0.000257
0.000199
