0.000172
0.019832
0.001592
0.000323
0.000222
0.000252
0.000297
0.000262
0.000316
0.000299
0.000245
0.000391
0.000483
0.000517
0.000370
0.000286
0.000304
0.000372
0.000393
0.000416
0.000301
0.001843
0.000524
0.000447
0.000257
0.000296
0.000298
0.000434
0.000391
0.000448
0.000403
0.000324
0.000058
0.000199
0.000235
0.000276
0.000252
0.000274
0.000252
0.000277
0.000267
0.000276
0.000346
0.000353
0.000488
0.000302
0.000262
0.000408
0.000356
0.000354
0.000250
0.000215
0.001741
0.000280
0.000229
0.000513
0.000239
0.000246
0.000253
0.000289
0.000286
0.000283
0.000310
0.000469
0.000059
0.000253
0.000218
0.000260
0.000265
0.000248
0.000248
0.000263
0.000255
0.000283
0.001679
0.000228
0.000241
0.000249
0.000274
0.000278
0.000247
0.000272
0.000256
0.000343
0.001809
0.000254
0.000254
0.000451
0.000452
0.000401
0.000240
0.000247
0.000538
0.000361
0.000877
0.000170
0.000057
0.000225
0.000205
0.000260
0.000245
0.000304
0.000254
0.000315
0.000538
0.000459
0.000255
0.000215
0.000219
0.000230
0.000263
0.000259
0.000244
0.000304
0.000211
0.000297
0.000324
0.001752
0.000241
0.000254
0.000441
0.000416
0.000551
0.000664
0.000495
0.000358
0.000237
0.000205
0.000056
0.000233
0.000223
0.000250
0.000253
0.000253
0.000256
0.000252
0.000491
0.001456
0.000244
0.000244
0.000220
0.000260
0.000251
0.000266
0.000285
0.000267
0.000826
0.001376
0.000297
0.000247
0.000419
0.000251
0.000233
0.000258
0.000266
0.000256
0.000269
0.000266
0.000259
0.000218
0.000057
0.000198
0.000225
0.000234
0.000247
0.000264
0.000239
0.000244
0.000250
0.000239
0.000258
0.001697
0.000249
0.000211
0.000257
0.000204
0.000261
0.000232
0.000261
0.000255
0.000245
0.000264
0.001738
0.000244
0.000265
0.000472
0.000236
0.000246
0.000226
0.000260
0.000260
0.000215
0.000057
0.000214
0.000209
0.000240
0.000249
0.000236
0.000244
0.000261
0.000246
0.000256
0.000277
0.000231
0.000257
0.000259
0.000274
0.001641
0.000276
0.000278
0.000233
0.000250
0.000273
0.000275
0.000246
0.000254
0.000256
0.000270
0.001850
0.000372
0.000360
0.000271
0.000267
0.000216
0.000057
0.000225
0.000220
0.000234
0.000268
0.000258
0.000233
0.000312
0.000362
0.000438
0.000435
0.000216
0.000234
0.000254
0.000254
0.001646
0.000510
0.000350
0.000355
0.000294
0.000230
0.000249
0.000279
0.000271
0.001901
0.000361
0.000510
0.000236
0.000222
0.000235
0.000256
0.000206
0.000072
0.000167
0.000236
0.000244
0.000251
0.000307
0.000521
0.000442
0.000187
0.000216
0.000220
0.000268
0.000235
0.000257
0.001695
0.000491
0.000310
0.000220
0.000249
0.000275
0.000284
0.000253
0.000257
0.000267
0.001886
0.000318
0.000392
0.000249
0.000249
0.000295
0.000407
0.000316
0.000057
0.000209
0.000363
0.000405
0.000301
0.000223
0.000209
0.000239
0.000258
0.000241
0.000240
0.000228
0.000251
0.001623
0.000445
0.000211
0.000201
0.000219
0.000253
0.000256
0.000271
0.000278
0.000332
0.001784
0.000374
0.000209
0.000503
0.000219
0.000223
0.000255
0.000269
0.000275
0.000057
0.000326
0.000560
0.000662
0.000208
0.000211
0.000256
0.000233
0.000213
0.000272
0.000248
0.000255
0.001701
0.000266
0.000430
0.000366
0.000222
0.000237
0.000233
0.000248
0.000249
0.000256
0.001860
0.000253
0.000222
0.002182
0.000508
0.000261
0.000266
0.000257
0.000259
0.000209
0.000056
0.000227
0.000214
0.000235
0.000241
0.000254
0.001698
0.000205
0.000198
0.000253
0.000252
0.000250
0.000264
0.000230
0.000261
0.000276
0.000399
0.000651
0.000230
0.000238
0.000269
0.000270
0.000249
0.000250
0.000489
0.000450
0.000230
0.000366
0.000681
0.000311
0.000224
0.000204
0.000057
0.000197
0.000220
0.000265
0.000242
0.000241
0.000238
0.000395
0.000294
0.000462
0.001608
0.000257
0.000240
0.000237
0.000245
0.000258
0.000282
0.000498
0.000463
0.000365
0.000223
0.000230
0.000278
0.000324
0.000261
0.000263
0.000400
0.000426
0.000531
0.000574
0.000398
0.000132
0.000057
0.000205
0.000244
0.000223
0.000229
0.000235
0.000246
0.000245
0.000244
0.000251
0.000357
0.000344
0.001567
0.000276
0.000203
0.000213
0.000222
0.000256
0.000259
0.000243
0.000245
0.000293
0.000507
0.000349
0.000323
0.000213
0.000246
0.000274
0.000255
0.000265
0.000277
0.000419
0.000056
0.000203
0.000224
0.000245
0.000267
0.000504
0.000440
0.000260
0.000243
0.000231
0.000254
0.000260
0.000236
0.000280
0.000262
0.000240
0.000551
0.000408
0.001587
0.000275
0.000253
0.000236
0.000266
0.000261
0.000241
0.000294
0.000543
0.000392
0.000346
0.000360
0.000236
0.000211
0.000056
0.000207
0.000224
0.000413
0.000225
0.000267
0.000241
0.000269
0.000587
0.000306
0.000335
0.000247
0.000268
0.000264
0.000242
0.000592
0.000290
0.000234
0.000241
0.000473
0.001617
0.000237
0.000271
0.000263
0.000429
0.000265
0.000293
0.000260
0.000346
0.000543
0.000376
0.000281
0.000056
0.000196
0.000216
0.000230
0.000248
0.000479
0.000259
0.000288
0.000214
0.000408
0.000573
0.000333
0.000245
0.000201
0.000219
0.000256
0.000270
0.000249
0.000268
0.000220
0.000374
0.000275
0.000301
0.001873
0.000260
0.000239
0.000264
0.000296
0.000359
0.000563
0.000586
0.000413
0.000064
0.000236
0.000316
0.000333
0.000417
0.000321
0.000211
0.000242
0.000274
0.000588
0.000388
0.000291
0.000205
0.000218
0.000267
0.000262
0.000238
0.000254
0.000274
0.000261
0.000263
0.000266
0.000435
0.001741
0.000289
0.000356
0.000422
0.000379
0.000245
0.000422
0.000365
0.000417
0.000071
0.000228
0.000381
0.000281
0.000210
0.000231
0.000219
0.000472
0.000208
0.000222
0.000449
0.000313
0.000487
0.000219
0.000238
0.000264
0.000272
0.000369
0.000436
0.000313
0.000221
0.000218
0.000385
0.000630
0.001684
0.000264
0.000388
0.000333
0.000234
0.000254
0.000469
0.000314
0.000056
0.000230
0.000215
0.000238
0.000241
0.000244
0.000255
0.000242
0.000370
0.000420
0.000360
0.000456
0.000342
0.000269
0.000233
0.000512
0.000267
0.000275
0.000264
0.000234
0.000344
0.000233
0.000246
0.000264
0.000437
0.000529
0.001664
0.000223
0.000234
0.000240
0.000259
0.000207
0.000056
0.000341
0.000394
0.000403
0.000188
0.000232
0.000231
0.000260
0.000234
0.000258
0.000260
0.000217
0.000492
0.000281
0.000484
0.000429
0.000256
0.000226
0.000243
0.000353
0.000354
0.000366
0.000362
0.000386
0.000376
0.000252
0.000219
0.000246
0.000277
0.001786
0.000267
0.000210
0.000057
0.000194
0.000196
0.000257
0.000270
0.000348
0.000535
0.000372
0.000206
0.000232
0.000272
0.000247
0.000247
0.000535
0.000445
0.000468
0.000303
0.000276
0.000235
0.000438
0.000491
0.000365
0.000446
0.000525
0.000366
0.000240
0.000243
0.000236
0.000239
0.000255
0.001785
0.000461
0.000056
0.000243
0.000324
0.000208
0.000214
0.000254
0.000253
0.000278
0.000450
0.000424
0.000305
0.000302
0.000278
0.000359
0.000699
0.000300
0.000208
0.000225
0.000236
0.000276
0.000243
0.000269
0.000263
0.000251
0.000257
0.000324
0.000342
0.000495
0.000345
0.000221
0.000220
0.000197
0.000057
0.000486
0.000312
0.000417
0.000222
0.000203
0.000237
0.000248
0.000253
0.000244
0.000242
0.000222
0.000282
0.000291
0.000361
0.000530
0.000510
0.000274
0.000355
0.000385
0.000379
0.000268
0.000213
0.000239
0.000242
0.001827
0.000225
0.001758
0.000929
0.000394
0.000317
0.000145
0.000055
0.000205
0.000222
0.000223
0.000240
0.000256
0.000249
0.000264
0.000242
0.000247
0.000292
0.000409
0.000423
0.000382
0.000388
0.000233
0.000254
0.000268
0.000293
0.000208
0.000236
0.000253
0.000227
0.001800
0.000273
0.000223
0.000270
0.000279
0.000256
0.001884
0.000543
0.000279
0.000057
0.000212
0.000201
0.000230
0.000231
0.000254
0.000239
0.000251
0.000263
0.000248
0.000409
0.000531
0.000308
0.000385
0.000240
0.000239
0.000265
0.000429
0.000359
0.000359
0.000267
0.001794
0.000256
0.000226
0.000205
0.000270
0.000264
0.000241
0.000272
0.000250
0.000345
0.000435
0.000057
0.000229
0.000229
0.000205
0.000259
0.000246
0.000243
0.000263
0.000247
0.000240
0.000261
0.000242
0.000262
0.000439
0.000365
0.000321
0.000319
0.000475
0.000212
0.000211
0.000264
0.000262
0.000255
0.000290
0.000244
0.000274
0.001789
0.000277
0.000224
0.000249
0.000241
0.000220
0.000056
0.000320
0.000308
0.000222
0.000204
0.000239
0.000240
0.000232
0.000257
0.000248
0.000226
0.000227
0.000272
0.000248
0.000278
0.000518
0.000362
0.000329
0.000210
0.000226
0.000238
0.000278
0.000249
0.000247
0.000266
0.000258
0.000253
0.000358
0.001653
0.000240
0.000226
0.000186
0.000055
0.000188
0.000221
0.000265
0.000236
0.000431
0.000423
0.000240
0.000346
0.000220
0.000248
0.000253
0.000237
0.000253
0.000255
0.000256
0.000254
0.000260
0.000248
0.000262
0.000251
0.000263
0.000270
0.000261
0.000233
0.000251
0.000268
0.000272
0.000262
0.000262
0.000253
0.000211
0.000055
0.000204
0.000197
0.000247
0.000259
0.000240
0.000247
0.000244
0.000259
0.000356
0.000202
0.000196
0.000253
0.000258
0.000240
0.000264
0.000260
0.000274
0.000241
0.000360
0.000209
0.000248
0.000285
0.000280
0.000277
0.000252
0.000272
0.000273
0.000257
0.000257
0.000435
0.000752
0.000057
0.000302
0.000228
0.000220
0.000207
0.000219
0.000243
0.000241
0.000250
0.000253
0.000246
0.000261
0.000271
0.000740
0.000296
0.001552
0.000217
0.000520
0.000185
0.000268
0.000441
0.000507
0.000263
0.000239
0.000275
0.000253
0.000264
0.000275
0.000255
0.000311
0.000262
0.000201
0.000055
0.000297
0.000451
0.000359
0.000310
0.000194
0.000242
0.000249
0.000248
0.000233
0.000250
0.000251
0.000253
0.000245
0.000388
0.000255
0.000497
0.000355
0.001805
0.000273
0.000221
0.000325
0.000421
0.000478
0.000288
0.000369
0.000310
0.000253
0.000233
0.000229
0.000260
0.000199
0.000056
0.000185
0.000211
0.000246
0.000286
0.000384
0.000473
0.000293
0.000242
0.000256
0.000220
0.000237
0.000269
0.000267
0.000258
0.000253
0.000296
0.000264
0.000481
0.000386
0.000399
0.000242
0.001812
0.000280
0.000556
0.000530
0.000400
0.000285
0.000244
0.000242
0.000263
0.000504
0.000056
0.000209
0.000253
0.000223
0.000274
0.000413
0.000423
0.000481
0.000204
0.000216
0.000326
0.000212
0.000234
0.000254
0.000309
0.000355
0.000212
0.000264
0.000334
0.000481
0.000336
0.000539
0.001774
0.000260
0.000531
0.000432
0.000348
0.000222
0.000372
0.000246
0.000204
0.000214
0.000056
0.000213
0.000335
0.000353
0.000325
0.000362
0.000296
0.000422
0.000194
0.000227
0.000255
0.000268
0.000234
0.000244
0.000252
0.000247
0.000257
0.000308
0.000362
0.000546
0.000410
0.000264
0.000218
0.000277
0.001767
0.000484
0.000466
0.000584
0.000277
0.000247
0.000296
0.000178
0.000055
0.000175
0.000226
0.000322
0.000258
0.000289
0.000340
0.000474
0.000258
0.000311
0.000536
0.000192
0.000229
0.000235
0.000276
0.000280
0.000265
0.000222
0.000355
0.000536
0.000337
0.000261
0.000241
0.000270
0.000248
0.000269
0.000263
0.000236
0.000252
0.000264
0.000350
0.000156
0.000056
0.000347
0.000325
0.000193
0.000233
0.000248
0.000259
0.000239
0.000358
0.000217
0.000208
0.000252
0.000354
0.000417
0.000433
0.000305
0.000313
0.000213
0.000242
0.000270
0.000234
0.000263
0.000289
0.000242
0.000253
0.000274
0.000360
0.000453
0.000329
0.000376
0.000205
0.000168
0.000055
0.000215
0.000185
0.000274
0.000244
0.000239
0.000249
0.000255
0.000260
0.000488
0.000238
0.000230
0.000269
0.000239
0.000259
0.000273
0.000282
0.000257
0.000359
0.000250
0.000220
0.000235
0.000272
0.000261
0.000263
0.000279
0.000264
0.000265
0.000264
0.000243
0.000524
0.000155
0.000057
0.000203
0.000215
0.000243
0.000267
0.000246
0.000230
0.000291
0.000452
0.000273
0.000231
0.000242
0.000260
0.000239
0.000294
0.000493
0.001704
0.000253
0.000237
0.000296
0.000380
0.000413
0.000345
0.000369
0.000365
0.000401
0.000364
0.000253
0.000268
0.000273
0.000271
0.001424
0.000058
0.000368
0.000316
0.000309
0.000195
0.000202
0.000241
0.000236
0.000252
0.000242
0.000262
0.000262
0.000248
0.000254
0.000377
0.000420
0.001732
0.000206
0.000215
0.000216
0.000274
0.000248
0.000276
0.000391
0.000378
0.000308
0.000294
0.000251
0.000259
0.000259
0.000263
0.000210
0.000058
0.001188
0.000580
0.000301
0.000302
0.000199
0.000202
0.000214
0.000232
0.000500
0.000230
0.000214
0.000251
0.000352
0.000451
0.000454
0.000342
0.000304
0.000234
0.000324
0.000387
0.000226
0.000239
0.000272
0.000235
0.000266
0.000681
0.000398
0.000329
0.000247
0.000270
0.000177
0.000055
0.000188
0.000195
0.000236
0.000251
0.001554
0.000230
0.000208
0.000245
0.000239
0.000255
0.000256
0.000249
0.000245
0.000254
0.000274
0.000306
0.000453
0.000627
0.000272
0.001807
0.000233
0.000295
0.000340
0.000379
0.000531
0.000391
0.000234
0.000240
0.000253
0.000266
0.000232
0.000056
0.000181
0.000256
0.000220
0.001312
0.000335
0.000196
0.000263
0.000212
0.000244
0.000237
0.000244
0.000245
0.000268
0.000246
0.000248
0.000361
0.000401
0.000562
0.000245
0.000207
0.000248
0.000274
0.000262
0.000232
0.000346
0.000219
0.000224
0.000280
0.000267
0.000427
0.000591
0.000058
0.000213
0.000223
0.000234
0.000265
0.000260
0.000252
0.000234
0.000255
0.000270
0.000251
0.001430
0.000244
0.000233
0.000255
0.000246
0.000237
0.000270
0.000266
0.000253
0.000269
0.000270
0.000479
0.000461
0.000388
0.000235
0.000276
0.001831
0.000228
0.000214
0.000479
0.000300
0.000057
0.000241
0.000431
0.000454
0.000508
0.000524
0.000527
0.001452
0.000449
0.000542
0.000646
0.000558
0.000761
0.000432
0.000621
0.000583
0.001732
0.000516
0.000386
0.000398
0.000311
0.000252
0.000292
0.000284
0.000269
0.000277
0.000266
0.000298
0.000282
0.000256
0.000298
0.001319
0.000058
0.000209
0.000246
0.000216
0.000235
0.000245
0.000252
0.000245
0.000232
0.000250
0.000279
0.000232
0.000266
0.000231
0.000275
0.000265
0.000249
0.001859
0.000244
0.000264
0.000255
0.000251
0.000262
0.000289
0.000291
0.000420
0.000424
0.000279
0.000243
0.000262
0.000293
0.000162
0.000056
0.000216
0.001385
0.000265
0.000270
0.000262
0.000234
0.000248
0.000238
0.000251
0.000246
0.000236
0.000246
0.000260
0.000450
0.000269
0.000373
0.000264
0.000274
0.001913
0.000261
0.000255
0.000255
0.000257
0.000259
0.000280
0.000261
0.000272
0.000259
0.000248
0.000310
0.000237
0.000056
0.000190
0.000229
0.000243
0.001434
0.000269
0.000255
0.000225
0.000233
0.000224
0.000264
0.000249
0.000258
0.000237
0.000274
0.000257
0.000250
0.000251
0.000264
0.000298
0.000239
0.000255
0.001854
0.000254
0.001776
0.000247
0.000247
0.000243
0.000238
0.000260
0.000295
0.000206
0.000056
0.000191
0.000243
0.001375
0.000216
0.000267
0.000225
0.000230
0.000249
0.000238
0.000246
0.000247
0.000252
0.000257
0.000262
0.000263
0.000252
0.000266
0.000284
0.000290
0.000242
0.001871
0.000267
0.001797
0.000276
0.000259
0.000242
0.000245
0.000269
0.000264
0.000257
0.000182
0.000058
0.001434
0.000232
0.000243
0.000220
0.000215
0.000227
0.000270
0.000366
0.000258
0.000247
0.000256
0.000260
0.000270
0.000360
0.000450
0.000265
0.000249
0.000263
0.000226
0.000222
0.000273
0.000339
0.000243
0.000250
0.000268
0.000290
0.000245
0.000367
0.000684
0.000354
0.000179
0.000057
0.000219
0.000283
0.000267
0.000313
0.000349
0.000278
0.001669
0.000281
0.000283
0.000257
0.000269
0.000313
0.000255
0.000258
0.000303
0.000311
0.000432
0.000442
0.000380
0.000275
0.000312
0.000286
0.000253
0.000267
0.000336
0.000253
0.000266
0.000243
0.000234
0.000335
0.000428
0.000056
0.000287
0.000370
0.000271
0.000266
0.000257
0.000231
0.000217
0.000247
0.000260
0.000260
0.001497
0.000253
0.000207
0.000258
0.000242
0.000283
0.000276
0.000248
0.000255
0.000266
0.000259
0.000378
0.000556
0.000356
0.000225
0.000290
0.000272
0.000238
0.000244
0.000236
0.000256
0.000056
0.000195
0.000200
0.000271
0.000486
0.000401
0.000243
0.000218
0.000243
0.000246
0.000265
0.000226
0.000261
0.000247
0.000259
0.000246
0.000245
0.000377
0.001292
0.000228
0.000231
0.000245
0.000256
0.000351
0.000493
0.000215
0.000245
0.000601
0.000452
0.000356
0.000208
0.000162
0.000057
0.000203
0.000223
0.000264
0.000268
0.000303
0.000209
0.000335
0.000475
0.000418
0.000301
0.000363
0.000421
0.000392
0.000332
0.000241
0.000225
0.000214
0.000275
0.000373
0.000532
0.001192
0.000234
0.000263
0.000268
0.000242
0.000238
0.000282
0.000323
0.000368
0.000520
0.000243
0.000055
0.000172
0.000232
0.000251
0.000233
0.000254
0.000251
0.000233
0.000258
0.000249
0.000368
0.000532
0.000385
0.000228
0.000211
0.000214
0.000282
0.000235
0.000263
0.000263
0.000235
0.000511
0.000214
0.000385
0.000423
0.000331
0.000222
0.000241
0.000277
0.000254
0.000283
0.000234
0.000058
0.000290
0.000297
0.000313
0.000379
0.000510
0.000313
0.000228
0.000267
0.000219
0.000259
0.000264
0.000264
0.000237
0.000254
0.000250
0.000228
0.000255
0.000366
0.000543
0.000362
0.000210
0.000253
0.000217
0.000249
0.000267
0.000287
0.000259
0.000268
0.000267
0.000274
0.000358
0.000057
0.000304
0.000329
0.000227
0.000220
0.000253
0.000242
0.000265
0.000241
0.000258
0.000261
0.000252
0.000235
0.000275
0.000564
0.000434
0.000316
0.000204
0.000213
0.000238
0.000273
0.000266
0.000256
0.000251
0.000269
0.000290
0.000263
0.000432
0.000597
0.000501
0.000210
0.000162
0.000056
0.000383
0.000194
0.000200
0.000233
0.000247
0.000258
0.000238
0.000246
0.000262
0.000252
0.000228
0.000240
0.000263
0.000239
0.000239
0.000257
0.000261
0.000260
0.000272
0.000264
0.000260
0.000253
0.000274
0.000258
0.000269
0.000259
0.000236
0.000307
0.000236
0.000278
0.000218
0.000055
0.000196
0.000207
0.000249
0.000248
0.000229
0.000250
0.000263
0.000259
0.000238
0.000277
0.000239
0.000228
0.000261
0.000403
0.000243
0.000302
0.000234
0.000269
0.000258
0.000282
0.000271
0.000240
0.000253
0.000249
0.000261
0.000276
0.000271
0.000234
0.000276
0.000254
0.000226
0.000057
0.000222
0.000381
0.000350
0.000284
0.000298
0.000241
0.000209
0.000257
0.000243
0.000234
0.000236
0.000271
0.000254
0.000252
0.000236
0.000259
0.000268
0.000270
0.000246
0.000256
0.000276
0.000268
0.000279
0.000253
0.000281
0.000264
0.000245
0.000294
0.000231
0.000298
0.000181
0.000061
0.000192
0.000226
0.000240
0.000264
0.000266
0.000429
0.000220
0.000240
0.000281
0.000445
0.000515
0.000311
0.000228
0.000196
0.000270
0.000269
0.000244
0.000266
0.000263
0.000264
0.000269
0.000254
0.000261
0.000267
0.000546
0.000542
0.000252
0.000263
0.000269
0.000267
0.000201
0.000057
0.000197
0.000200
0.000251
0.000255
0.000375
0.000598
0.000307
0.000378
0.000233
0.000221
0.000256
0.000252
0.000266
0.000237
0.000258
0.000267
0.000266
0.000243
0.000707
0.000340
0.000297
0.000219
0.000257
0.000284
0.000281
0.000266
0.000257
0.000269
0.000247
0.000329
0.000348
0.000057
0.000256
0.000230
0.000222
0.000234
0.000254
0.000255
0.000247
0.000228
0.000244
0.000255
0.000247
0.000274
0.000233
0.000485
0.000452
0.000443
0.000226
0.000233
0.000270
0.000250
0.000257
0.000274
0.000478
0.000240
0.000251
0.000756
0.000320
0.000416
0.000276
0.000250
0.000194
0.000056
0.000186
0.000231
0.000229
0.000239
0.000255
0.000263
0.000341
0.000392
0.000625
0.000394
0.000207
0.000262
0.000275
0.000274
0.000266
0.000238
0.000252
0.000245
0.000261
0.000319
0.000457
0.000650
0.000364
0.000215
0.000437
0.000349
0.000499
0.000202
0.000238
0.000363
0.000410
0.000078
0.000237
0.000219
0.000492
0.000213
0.000207
0.000233
0.000247
0.000260
0.000239
0.000243
0.000279
0.000377
0.000387
0.000377
0.000210
0.000215
0.000265
0.000246
0.000265
0.000279
0.000276
0.000255
0.000246
0.000273
0.000327
0.000487
0.000459
0.000251
0.000271
0.000254
0.000216
0.000057
0.000209
0.000238
0.000234
0.000241
0.000250
0.000241
0.000401
0.000485
0.000347
0.000283
0.000343
0.000260
0.000211
0.000273
0.000259
0.000238
0.000265
0.000250
0.000263
0.000474
0.000482
0.000289
0.000457
0.000333
0.000401
0.000394
0.000378
0.000260
0.000218
0.000303
0.000472
0.000056
0.000235
0.000260
0.000237
0.000232
0.000251
0.000258
0.000250
0.000251
0.000252
0.000279
0.000231
0.000287
0.000527
0.000353
0.000364
0.000254
0.000252
0.000264
0.000261
0.000238
0.000255
0.000248
0.000263
0.000292
0.000265
0.000311
0.000605
0.000362
0.000259
0.000304
0.000180
0.000056
0.000202
0.000228
0.000258
0.000253
0.000246
0.000310
0.000484
0.000549
0.000338
0.000678
0.000316
0.000204
0.000208
0.000263
0.000242
0.000263
0.000282
0.000266
0.000507
0.000512
0.001529
0.000239
0.000262
0.000255
0.000302
0.000234
0.000429
0.000341
0.000399
0.000294
0.000162
0.000072
0.000181
0.000212
0.000249
0.000243
0.000238
0.000256
0.000276
0.000256
0.000248
0.000353
0.000370
0.000343
0.000275
0.000384
0.000388
0.000329
0.000234
0.000211
0.000257
0.000264
0.000251
0.000239
0.000273
0.000270
0.000339
0.000544
0.000348
0.000270
0.000219
0.000268
0.000204
0.000056
0.000216
0.000228
0.000254
0.000253
0.000256
0.000231
0.000459
0.000235
0.000222
0.000247
0.000264
0.000237
0.000259
0.000251
0.000255
0.000266
0.000268
0.000257
0.000281
0.000248
0.000289
0.000262
0.000309
0.000223
0.000268
0.000275
0.000272
0.000264
0.000266
0.000265
0.000202
0.000055
0.000227
0.000215
0.000295
0.000500
0.000370
0.000217
0.000209
0.000241
0.000265
0.000248
0.000240
0.000253
0.000274
0.000255
0.000234
0.000247
0.000251
0.000262
0.000318
0.000317
0.000386
0.000435
0.000249
0.000251
0.000264
0.000249
0.000269
0.000255
0.000272
0.000277
0.000220
0.000056
0.000367
0.000390
0.000401
0.000226
0.000246
0.000251
0.000479
0.000195
0.000195
0.000243
0.000279
0.000341
0.000366
0.000449
0.001764
0.000266
0.000256
0.000232
0.000280
0.000265
0.000275
0.000474
0.000739
0.000202
0.000220
0.000257
0.000276
0.000416
0.000286
0.000281
0.000184
0.000056
0.000250
0.000376
0.000289
0.000315
0.000508
0.000201
0.000236
0.000247
0.000254
0.000238
0.000256
0.000250
0.000260
0.000428
0.000350
0.000447
0.000238
0.000206
0.000260
0.000268
0.000267
0.000291
0.000259
0.000267
0.000281
0.000442
0.000494
0.000426
0.000480
0.000216
0.000215
0.000055
0.000192
0.000202
0.000246
0.000240
0.000244
0.000253
0.000266
0.000278
0.000330
0.000423
0.000396
0.000375
0.000211
0.000230
0.000279
0.000262
0.000336
0.000229
0.000264
0.000268
0.000250
0.000322
0.000497
0.000336
0.000253
0.000307
0.000232
0.000543
0.000378
0.000270
0.000171
0.000056
0.000194
0.000209
0.000358
0.000510
0.000274
0.000226
0.000223
0.000258
0.000260
0.000268
0.000252
0.000260
0.000225
0.000248
0.000268
0.000281
0.000399
0.000351
0.000359
0.000330
0.000457
0.000228
0.000277
0.000272
0.000309
0.000277
0.000268
0.000251
0.000469
0.000499
0.000240
0.000056
0.000199
0.000210
0.000241
0.000251
0.000263
0.000472
0.000210
0.000236
0.000268
0.000322
0.000546
0.000550
0.000220
0.000238
0.000240
0.000247
0.000253
0.000260
0.000245
0.000260
0.000253
0.000274
0.000435
0.000397
0.000374
0.000331
0.000332
0.000347
0.000303
0.000220
0.000172
0.000055
0.000188
0.000219
0.000246
0.000548
0.000259
0.000385
0.000243
0.000211
0.000222
0.000232
0.000254
0.000258
0.000247
0.000250
0.000302
0.000219
0.000258
0.000247
0.000240
0.000472
0.000597
0.000257
0.000222
0.000234
0.000276
0.000273
0.000278
0.000247
0.000253
0.000274
0.000210
0.000055
0.000290
0.000364
0.000502
0.000221
0.000208
0.000210
0.000315
0.000522
0.000266
0.000201
0.000216
0.000276
0.000255
0.000482
0.000418
0.000318
0.000222
0.000220
0.000278
0.000225
0.000259
0.000265
0.000267
0.000265
0.000266
0.000287
0.000427
0.000471
0.000305
0.000222
0.000160
0.000057
0.000180
0.000223
0.000245
0.000256
0.000256
0.000256
0.000232
0.000256
0.000262
0.000240
0.000268
0.000244
0.000247
0.001462
0.000263
0.000228
0.000250
0.000252
0.000272
0.000285
0.000258
0.000244
0.000271
0.000254
0.000265
0.000265
0.000283
0.000267
0.000262
0.000261
0.000230
0.000056
0.000205
0.000206
0.000239
0.000252
0.000241
0.000235
0.000281
0.000241
0.000231
0.000256
0.000239
0.000268
0.000256
0.000252
0.000251
0.000264
0.000243
0.000262
0.000275
0.000252
0.000259
0.000255
0.000258
0.000242
0.001361
0.000272
0.000575
0.000424
0.000358
0.000210
0.000168
0.000057
0.000185
0.000218
0.000236
0.000247
0.000507
0.000221
0.000182
0.000240
0.000243
0.000376
0.000518
0.000338
0.000198
0.000202
0.000242
0.000273
0.000251
0.000255
0.000254
0.000254
0.000268
0.000249
0.000263
0.000547
0.000377
0.000449
0.000253
0.000244
0.001359
0.000293
0.000174
0.000057
0.000364
0.000424
0.000351
0.000236
0.000205
0.000209
0.000223
0.000246
0.000259
0.000251
0.000253
0.000254
0.000261
0.000283
0.000689
0.000304
0.000281
0.000235
0.000250
0.000236
0.000277
0.000268
0.000281
0.000252
0.000268
0.000259
0.000329
0.000547
0.000406
0.000384
0.000155
0.000056
0.000209
0.000219
0.001321
0.000350
0.000262
0.000548
0.000311
0.000326
0.000428
0.000404
0.000223
0.000191
0.000256
0.000254
0.000249
0.000261
0.000299
0.000610
0.000378
0.000311
0.000273
0.000243
0.000256
0.000513
0.000239
0.000257
0.000260
0.000274
0.000350
0.000497
0.000341
0.000057
0.000334
0.000385
0.000232
0.000202
0.001468
0.000622
0.000271
0.000229
0.000201
0.000252
0.000219
0.000248
0.000243
0.000262
0.000250
0.000270
0.000237
0.000323
0.000398
0.000429
0.000440
0.000204
0.000214
0.000260
0.000257
0.000268
0.000274
0.000240
0.000266
0.000273
0.000249
0.000056
0.000405
0.000263
0.000244
0.000204
0.000252
0.000253
0.000245
0.000258
0.000231
0.000232
0.001508
0.000430
0.000273
0.000199
0.000209
0.000269
0.000260
0.000268
0.000232
0.000272
0.000269
0.000260
0.000261
0.000394
0.000392
0.000512
0.000216
0.000271
0.000281
0.000276
0.000189
0.000056
0.000196
0.000477
0.000192
0.000219
0.000341
0.000411
0.000398
0.000311
0.000459
0.000206
0.000223
0.000251
0.000259
0.000261
0.000268
0.001390
0.000381
0.000281
0.000246
0.000270
0.000279
0.000247
0.000256
0.000257
0.000260
0.000272
0.000368
0.000544
0.000280
0.000269
0.000170
0.000057
0.000178
0.000224
0.000243
0.000239
0.000220
0.000271
0.000236
0.000249
0.000336
0.000449
0.000320
0.000349
0.000201
0.000212
0.000251
0.000267
0.000276
0.000263
0.000269
0.000226
0.000255
0.000357
0.001288
0.000204
0.000285
0.000211
0.000249
0.000265
0.000264
0.000260
0.000192
0.000056
0.000292
0.000293
0.000407
0.000331
0.000233
0.000206
0.000243
0.000262
0.000253
0.000253
0.000257
0.000265
0.000247
0.000250
0.000268
0.000258
0.000262
0.000274
0.000266
0.000255
0.000238
0.000269
0.000283
0.000272
0.000284
0.000267
0.000286
0.000238
0.000268
0.000505
0.001317
0.000056
0.000237
0.000186
0.000236
0.000237
0.000256
0.000261
0.000253
0.000220
0.000253
0.000246
0.000261
0.000267
0.000249
0.000244
0.000251
0.001708
0.000352
0.000230
0.000202
0.000243
0.000253
0.000250
0.000276
0.000262
0.000263
0.000266
0.000269
0.000270
0.000277
0.000251
0.000240
0.000057
0.000323
0.000297
0.001339
0.000202
0.000219
0.000209
0.000258
0.000249
0.000259
0.000259
0.000232
0.000344
0.000396
0.000520
0.000248
0.000199
0.000226
0.000267
0.000251
0.000267
0.000251
0.000248
0.000280
0.000286
0.000268
0.000400
0.000423
0.000326
0.000283
0.000254
0.000198
0.000056
0.000198
0.000223
0.000244
0.000251
0.000249
0.000236
0.000231
0.000244
0.000407
0.000442
0.001179
0.000233
0.000230
0.000266
0.000258
0.000264
0.000270
0.000246
0.000335
0.000426
0.000374
0.000267
0.000225
0.000235
0.000277
0.000271
0.000286
0.000281
0.000267
0.000277
0.000213
0.000056
0.000264
0.000443
0.000377
0.000220
0.000204
0.000205
0.000245
0.000268
0.000285
0.000243
0.000221
0.000255
0.000528
0.000469
0.000515
0.001428
0.000222
0.000252
0.000339
0.000357
0.000428
0.000438
0.000448
0.000398
0.000249
0.000261
0.000259
0.000282
0.000268
0.000281
0.000201
0.000057
0.000217
0.000240
0.000500
0.000390
0.000401
0.000210
0.000254
0.000234
0.000242
0.000260
0.000246
0.000262
0.000273
0.000236
0.000270
0.000299
0.000356
0.000493
0.000323
0.001316
0.000284
0.000237
0.000245
0.000262
0.000584
0.000358
0.000410
0.000216
0.000244
0.000273
0.000207
0.000057
0.000188
0.000216
0.000271
0.000223
0.000247
0.000267
0.000449
0.000433
0.000328
0.000239
0.000233
0.000257
0.000269
0.000257
0.000271
0.000260
0.000273
0.000247
0.000286
0.000286
0.000535
0.000404
0.000326
0.001330
0.000357
0.000243
0.000275
0.000474
0.000411
0.000318
0.000336
0.000057
0.000186
0.000216
0.000251
0.000247
0.000248
0.000253
0.001687
0.000273
0.000211
0.000224
0.000246
0.000246
0.000325
0.000325
0.000328
0.000281
0.000262
0.000361
0.000465
0.000405
0.000277
0.000280
0.000226
0.000217
0.001435
0.000423
0.000424
0.000486
0.000302
0.000305
0.000152
0.000056
0.000179
0.000230
0.000254
0.000264
0.000243
0.000257
0.001773
0.000211
0.000242
0.000246
0.000388
0.000408
0.001430
0.000345
0.000425
0.000197
0.000219
0.000238
0.000262
0.000272
0.001643
0.000576
0.000356
0.000285
0.000213
0.000212
0.000260
0.000278
0.000250
0.000253
0.000206
0.000055
0.000183
0.000228
0.000261
0.000259
0.000251
0.000270
0.000288
0.000252
0.000249
0.000258
0.000251
0.000252
0.000250
0.000275
0.000259
0.001495
0.000274
0.000239
0.000262
0.000281
0.000265
0.000261
0.000412
0.001276
0.000339
0.000188
0.000264
0.000263
0.000462
0.000210
0.000179
0.000056
0.000198
0.000222
0.000248
0.000228
0.000237
0.000228
0.000237
0.001763
0.000207
0.000208
0.000263
0.000345
0.000234
0.000226
0.001452
0.000254
0.000212
0.000224
0.000275
0.000231
0.000259
0.000312
0.000319
0.001375
0.000295
0.000202
0.000232
0.000261
0.001385
0.000280
0.000230
0.000056
0.000220
0.000376
0.000199
0.000222
0.000244
0.000233
0.000268
0.000269
0.000265
0.000244
0.000274
0.000258
0.000254
0.000244
0.000292
0.001504
0.000268
0.000261
0.000261
0.000241
0.000274
0.000273
0.000252
0.001494
0.000376
0.000233
0.000254
0.001339
0.000234
0.000225
0.000227
0.000056
0.000229
0.000346
0.000353
0.000228
0.000215
0.000236
0.000261
0.000262
0.000264
0.000267
0.000265
0.000225
0.000263
0.000260
0.000461
0.001249
0.000209
0.000227
0.000251
0.000276
0.000236
0.000237
0.000250
0.001300
0.000379
0.000238
0.000231
0.000228
0.000251
0.001333
0.000320
0.000055
0.000241
0.000315
0.000216
0.000202
0.000250
0.000240
0.000248
0.000243
0.000282
0.000250
0.000246
0.000263
0.000234
0.000318
0.000410
0.001486
0.000247
0.000220
0.000290
0.000518
0.000300
0.000391
0.001339
0.000302
0.000244
0.000263
0.001277
0.000351
0.000282
0.000565
0.000224
0.000056
0.000205
0.000244
0.000245
0.000258
0.000250
0.000245
0.000282
0.000252
0.000264
0.000253
0.000287
0.000585
0.001309
0.000208
0.000237
0.000266
0.000283
0.000262
0.000211
0.000231
0.000327
0.001313
0.000250
0.000221
0.000234
0.000258
0.001466
0.000460
0.000474
0.000230
0.000198
0.000056
0.000224
0.000183
0.000239
0.000247
0.000249
0.000264
0.000247
0.000266
0.000426
0.000465
0.000329
0.001439
0.000234
0.000224
0.000264
0.000263
0.000258
0.000294
0.001642
0.000315
0.000349
0.000360
0.001330
0.000393
0.000294
0.000348
0.000232
0.000219
0.000238
0.000270
0.000210
0.000056
0.000172
0.000220
0.000327
0.000257
0.000298
0.000611
0.000219
0.000380
0.001452
0.000281
0.000341
0.000256
0.000209
0.000359
0.000358
0.001320
0.000268
0.000232
0.000197
0.000252
0.000298
0.001637
0.000321
0.000277
0.000232
0.000222
0.000527
0.000302
0.000233
0.000225
0.000253
0.000055
0.000250
0.000372
0.000332
0.000301
0.000210
0.001455
0.000248
0.000238
0.000258
0.000266
0.000269
0.000242
0.000359
0.001427
0.000259
0.000244
0.000411
0.001282
0.000418
0.000303
0.000363
0.000242
0.000254
0.000246
0.000294
0.000238
0.000463
0.000230
0.000254
0.000276
0.000209
0.000056
0.000184
0.000290
0.000286
0.001460
0.000281
0.000200
0.000307
0.000249
0.000239
0.000253
0.000245
0.000251
0.001655
0.000212
0.000209
0.000220
0.001374
0.000308
0.000472
0.000428
0.000373
0.000220
0.000249
0.000227
0.000355
0.000244
0.000207
0.000272
0.000255
0.000249
0.000211
0.000057
0.000221
0.000397
0.001421
0.000217
0.000262
0.000273
0.000250
0.000244
0.000316
0.000471
0.001252
0.000243
0.000304
0.000243
0.000214
0.001390
0.000591
0.000320
0.000298
0.000406
0.000341
0.000239
0.000217
0.000248
0.000268
0.000291
0.000272
0.000312
0.000495
0.000417
0.001370
0.000057
0.000206
0.000253
0.000217
0.000218
0.000246
0.000388
0.001575
0.000285
0.000227
0.000206
0.000250
0.001506
0.000363
0.000329
0.000462
0.000248
0.000221
0.000203
0.000246
0.000277
0.000255
0.000262
0.000285
0.000257
0.000249
0.000311
0.000431
0.000506
0.001449
0.000261
0.000186
0.000057
0.000195
0.000228
0.000427
0.000457
0.001241
0.000300
0.000241
0.000253
0.000251
0.000251
0.000253
0.000264
0.000320
0.000592
0.000307
0.000219
0.000242
0.000276
0.000245
0.000291
0.000241
0.000268
0.000260
0.000257
0.000260
0.000456
0.000441
0.000323
0.000331
0.001459
0.000154
0.000056
0.000223
0.000206
0.000312
0.000428
0.000326
0.000329
0.000286
0.000331
0.000270
0.000276
0.000268
0.000251
0.000243
0.000309
0.000248
0.000320
0.000528
0.000307
0.000286
0.000383
0.000290
0.000472
0.000208
0.000251
0.000209
0.000276
0.000241
0.000288
0.000340
0.000508
0.000320
0.000055
0.000218
0.001365
0.000274
0.000327
0.000438
0.000355
0.000459
0.000258
0.000225
0.000208
0.000267
0.000249
0.000261
0.000264
0.000269
0.000256
0.000259
0.001369
0.000309
0.000230
0.000212
0.000280
0.000276
0.000278
0.000262
0.000254
0.000277
0.000255
0.000265
0.000473
0.000329
0.000055
0.000217
0.000240
0.000228
0.001531
0.000334
0.000217
0.000211
0.000203
0.000240
0.000236
0.000262
0.000271
0.000245
0.000252
0.000267
0.000258
0.000245
0.000277
0.000245
0.000269
0.001419
0.000270
0.000240
0.000324
0.000225
0.000221
0.000249
0.000266
0.000282
0.000498
0.000381
0.000055
0.000189
0.000207
0.000395
0.000289
0.000250
0.000244
0.001529
0.000450
0.000238
0.000203
0.000243
0.000360
0.000308
0.000212
0.000229
0.000245
0.000249
0.000260
0.000258
0.000256
0.000508
0.000554
0.001116
0.000256
0.000219
0.000220
0.000277
0.000263
0.000257
0.000277
0.000348
0.000058
0.000281
0.000350
0.000195
0.000208
0.000249
0.000242
0.000243
0.000226
0.001516
0.000459
0.000410
0.000226
0.000231
0.000222
0.000236
0.000247
0.000253
0.000278
0.000258
0.000313
0.000300
0.000523
0.000406
0.001378
0.000244
0.000249
0.000277
0.000266
0.000266
0.000274
0.000614
0.000057
0.000230
0.000203
0.000252
0.000236
0.000224
0.000242
0.000257
0.000245
0.000272
0.001569
0.000355
0.000252
0.000267
0.000261
0.000467
0.000283
0.000399
0.000477
0.000335
0.000310
0.000445
0.000484
0.001296
0.000234
0.000214
0.000235
0.001813
0.000400
0.000581
0.000324
0.000147
0.000055
0.000184
0.000200
0.000241
0.000241
0.000251
0.000238
0.000356
0.000478
0.000419
0.000443
0.000307
0.000210
0.000204
0.000257
0.000274
0.000262
0.000254
0.000242
0.000257
0.000268
0.000305
0.000453
0.001285
0.000252
0.000226
0.000266
0.001881
0.000438
0.000405
0.000326
0.000135
0.000056
0.000214
0.000207
0.000244
0.001529
0.000431
0.000249
0.000234
0.000261
0.000272
0.000303
0.000367
0.000381
0.000360
0.000300
0.000348
0.000451
0.000331
0.001287
0.000262
0.000208
0.000232
0.000254
0.000359
0.000422
0.000605
0.000442
0.000217
0.000224
0.000263
0.000286
0.000207
0.000056
0.000198
0.000198
0.001457
0.000411
0.000199
0.000205
0.000227
0.000256
0.000245
0.000258
0.000245
0.000274
0.000270
0.000266
0.000258
0.000394
0.000495
0.000286
0.001368
0.000289
0.000208
0.000264
0.000260
0.000264
0.000393
0.000431
0.000488
0.000290
0.000298
0.000240
0.000413
0.000056
0.000205
0.000202
0.000262
0.000258
0.001590
0.000215
0.000263
0.000240
0.000258
0.000256
0.000262
0.000286
0.000235
0.000239
0.000448
0.000465
0.001473
0.000733
0.000234
0.000390
0.000196
0.000212
0.000224
0.000280
0.001744
0.000732
0.000259
0.000237
0.000282
0.000290
0.000201
0.000056
0.000195
0.000234
0.000236
0.000245
0.000247
0.000243
0.000255
0.000253
0.000250
0.000244
0.000261
0.000289
0.000252
0.000252
0.000261
0.000253
0.000270
0.001594
0.000676
0.000465
0.000271
0.000224
0.000224
0.000279
0.000276
0.000264
0.000278
0.000256
0.001452
0.000387
0.000286
0.000055
0.000184
0.000215
0.000237
0.000256
0.000258
0.000230
0.000255
0.000253
0.000249
0.000271
0.000215
0.000484
0.000474
0.000314
0.000209
0.000222
0.000265
0.001464
0.000685
0.000380
0.000383
0.000282
0.000212
0.000242
0.000271
0.000268
0.000241
0.000293
0.001473
0.000421
0.000237
0.000056
0.000205
0.000205
0.000246
0.000243
0.000257
0.000241
0.000241
0.000248
0.000267
0.000262
0.000380
0.000375
0.000326
0.000222
0.000249
0.000238
0.000260
0.000259
0.001563
0.000613
0.000547
0.000289
0.000217
0.000242
0.000259
0.000261
0.000285
0.000263
0.000265
0.001440
0.000300
0.000056
0.000205
0.000209
0.000213
0.000256
0.000263
0.000257
0.000262
0.000353
0.000374
0.000416
0.000355
0.000411
0.000318
0.000209
0.000234
0.000241
0.000270
0.000267
0.001388
0.000887
0.000315
0.000196
0.000493
0.000203
0.000220
0.000256
0.000290
0.000238
0.000268
0.000273
0.000313
0.000056
0.000295
0.000221
0.000206
0.000235
0.000254
0.000256
0.000218
0.000240
0.000258
0.000271
0.000241
0.000239
0.000272
0.000421
0.000531
0.000398
0.000249
0.000249
0.000261
0.000244
0.000253
0.000365
0.001484
0.000963
0.000245
0.000223
0.000274
0.000267
0.000270
0.000251
0.000225
0.000056
0.000181
0.001387
0.000262
0.000204
0.000209
0.000249
0.000255
0.000248
0.000222
0.000251
0.000257
0.000263
0.000240
0.000406
0.000370
0.000476
0.000270
0.000218
0.000258
0.000288
0.000249
0.000243
0.000252
0.000260
0.001434
0.000643
0.000301
0.000398
0.000370
0.000401
0.000263
0.000057
0.000185
0.000200
0.000349
0.001333
0.000234
0.000268
0.000193
0.000259
0.000256
0.000253
0.000265
0.000238
0.000277
0.000321
0.000589
0.000344
0.000218
0.000307
0.000275
0.000221
0.000239
0.000268
0.000232
0.000278
0.000272
0.001515
0.000761
0.000292
0.000278
0.000282
0.000195
0.000056
0.000196
0.000247
0.000461
0.000449
0.001237
0.000245
0.000195
0.000213
0.000237
0.000246
0.000239
0.000267
0.000236
0.000234
0.000252
0.000253
0.000273
0.000238
0.000247
0.000264
0.000261
0.000269
0.000329
0.000301
0.000225
0.000261
0.000261
0.001540
0.000234
0.000221
0.000176
0.000056
0.000178
0.000209
0.000267
0.000320
0.000350
0.000335
0.000407
0.000249
0.001555
0.000266
0.000355
0.000406
0.000365
0.000229
0.000504
0.000211
0.000222
0.000233
0.000266
0.000270
0.000278
0.000266
0.000256
0.000272
0.000265
0.000426
0.000432
0.000355
0.001494
0.000250
0.000185
0.000055
0.000227
0.000219
0.000250
0.000241
0.000246
0.000244
0.000263
0.000356
0.000394
0.002073
0.000201
0.000207
0.000254
0.000260
0.000259
0.000395
0.000198
0.000196
0.000265
0.000432
0.000335
0.000461
0.001533
0.000220
0.000226
0.000499
0.001763
0.000287
0.000264
0.001484
0.000195
0.000057
0.000322
0.000392
0.000469
0.000243
0.000259
0.000233
0.000252
0.000266
0.000262
0.000239
0.000247
0.000316
0.000422
0.000373
0.000411
0.000279
0.000209
0.001562
0.000513
0.001972
0.000286
0.000269
0.000213
0.001594
0.001994
0.000744
0.000281
0.000209
0.000266
0.000527
0.000287
0.000055
0.000201
0.000218
0.000250
0.000249
0.001485
0.001665
0.001087
0.000223
0.000208
0.001589
0.001974
0.000229
0.000309
0.000407
0.000328
0.000392
0.000369
0.000365
0.000253
0.000230
0.000256
0.000253
0.000271
0.001589
0.001277
0.001424
0.000300
0.000209
0.000261
0.000327
0.000329
0.000056
0.000201
0.000225
0.000207
0.000231
0.000242
0.000225
0.000251
0.000250
0.000261
0.000253
0.000238
0.000334
0.000404
0.000526
0.000298
0.000221
0.000222
0.000269
0.000268
0.000260
0.000261
0.001371
0.000583
0.000329
0.002073
0.000260
0.000248
0.000380
0.000436
0.000427
0.000148
0.000055
0.000213
0.000306
0.000480
0.000323
0.000222
0.000206
0.000236
0.000265
0.000241
0.000234
0.000258
0.000259
0.000260
0.001610
0.001418
0.001236
0.000267
0.000226
0.000212
0.000244
0.000287
0.000278
0.000260
0.000246
0.002272
0.000212
0.000215
0.000291
0.000326
0.000300
0.000250
0.000056
0.000210
0.000355
0.000765
0.000181
0.000215
0.000191
0.000226
0.000267
0.001888
0.001440
0.000243
0.000386
0.000389
0.000360
0.000269
0.000212
0.000215
0.000277
0.000267
0.000266
0.000262
0.000253
0.000487
0.000226
0.000263
0.000293
0.000235
0.000274
0.000283
0.000239
0.000226
0.000056
0.000181
0.000230
0.000254
0.000239
0.000243
0.000271
0.001538
0.001500
0.001327
0.000220
0.000202
0.000217
0.000267
0.000271
0.000249
0.000240
0.000260
0.002164
0.000217
0.000215
0.000251
0.000269
0.000252
0.000265
0.000272
0.000253
0.000262
0.000261
0.000275
0.000263
0.000185
0.000055
0.001514
0.000311
0.002383
0.000260
0.000293
0.000301
0.000239
0.000258
0.000270
0.000239
0.000253
0.000254
0.000231
0.000247
0.000271
0.000248
0.000266
0.000271
0.000257
0.000271
0.000264
0.000278
0.000279
0.000267
0.000240
0.000257
0.000259
0.000271
0.000259
0.000271
0.000392
0.000055
0.000180
0.002567
0.000329
0.000205
0.000198
0.000210
0.000253
0.000258
0.000250
0.000268
0.000396
0.000364
0.000350
0.000243
0.000203
0.002217
0.000226
0.000213
0.000249
0.000538
0.000437
0.000240
0.000208
0.000243
0.000268
0.000244
0.000260
0.000285
0.000267
0.001729
0.001182
0.000057
0.000189
0.000198
0.000279
0.000368
0.000359
0.000313
0.000225
0.000227
0.000246
0.000260
0.000262
0.000250
0.000227
0.000256
0.000263
0.000238
0.000299
0.000745
0.000288
0.000253
0.000222
0.000247
0.000276
0.000255
0.000255
0.000250
0.000254
0.000275
0.000249
0.000342
0.000350
0.000056
0.001109
0.000257
0.000300
0.000506
0.000306
0.000189
0.000194
0.000237
0.002274
0.000369
0.000398
0.000306
0.000202
0.000279
0.000346
0.000266
0.000261
0.000275
0.000254
0.000231
0.000248
0.000262
0.000600
0.000546
0.001793
0.001366
0.000472
0.000560
0.000236
0.000251
0.000211
0.000057
0.000280
0.000310
0.000229
0.000242
0.000231
0.000241
0.000244
0.000247
0.000263
0.000250
0.000254
0.000240
0.000244
0.000243
0.000391
0.000532
0.001880
0.001333
0.000437
0.000367
0.000454
0.000243
0.000272
0.000241
0.002214
0.000461
0.000403
0.000220
0.000274
0.000283
0.000213
0.000055
0.000173
0.000220
0.000255
0.000245
0.000246
0.000397
0.000374
0.000329
0.000292
0.000238
0.000232
0.000280
0.000234
0.002094
0.000381
0.000373
0.000232
0.000239
0.000270
0.000258
0.000250
0.002450
0.000367
0.000206
0.000250
0.000262
0.000248
0.000279
0.000261
0.000289
0.000206
0.000056
0.000190
0.000448
0.000442
0.000412
0.000222
0.000210
0.000201
0.000252
0.000262
0.001942
0.000377
0.000363
0.000264
0.000248
0.000193
0.000254
0.000274
0.000251
0.002266
0.000372
0.000232
0.000270
0.000262
0.000263
0.000257
0.000250
0.000284
0.000255
0.000272
0.000259
0.000196
0.000055
0.000211
0.000203
0.000260
0.000208
0.000248
0.000257
0.000245
0.000245
0.000236
0.002165
0.000243
0.000279
0.000215
0.000484
0.000213
0.000204
0.000267
0.000288
0.000258
0.000266
0.002022
0.000252
0.000368
0.000369
0.000495
0.000340
0.000278
0.000249
0.000223
0.000259
0.000230
0.000056
0.000189
0.000213
0.000248
0.000248
0.000417
0.000203
0.000210
0.002337
0.000218
0.000223
0.000225
0.000252
0.000247
0.000243
0.000299
0.002199
0.000520
0.000223
0.000259
0.000242
0.000256
0.000267
0.000276
0.000273
0.000269
0.000248
0.000292
0.000255
0.000257
0.000319
0.000160
0.000056
0.000184
0.003015
0.000253
0.000211
0.000243
0.000249
0.000254
0.000295
0.000363
0.000393
0.002142
0.000256
0.000241
0.000261
0.000271
0.000596
0.000376
0.000286
0.000224
0.000208
0.000254
0.000264
0.000263
0.000236
0.000261
0.000255
0.000264
0.000272
0.000283
0.000743
0.000300
0.000056
0.000184
0.000281
0.000261
0.000215
0.000258
0.000233
0.000251
0.000245
0.001559
0.002114
0.000509
0.000265
0.000391
0.000797
0.000352
0.000204
0.000214
0.000245
0.000270
0.000250
0.000269
0.000234
0.000250
0.000271
0.001828
0.001453
0.000293
0.000276
0.000297
0.000324
0.000392
0.000055
0.001918
0.000233
0.000231
0.000206
0.000259
0.000392
0.000538
0.000214
0.000324
0.000223
0.000223
0.000208
0.000262
0.000257
0.000264
0.000262
0.000255
0.000263
0.001907
0.000208
0.000220
0.000236
0.000270
0.000295
0.000256
0.000260
0.001539
0.000338
0.000219
0.000224
0.000170
0.000056
0.000209
0.000197
0.000261
0.000222
0.000253
0.000238
0.000329
0.000368
0.000350
0.000393
0.000207
0.000206
0.000331
0.000328
0.000377
0.000341
0.000209
0.000218
0.000262
0.000383
0.000463
0.000517
0.000202
0.000216
0.000257
0.000247
0.000261
0.000269
0.000276
0.000264
0.000224
0.000055
0.001437
0.000400
0.000228
0.002010
0.000253
0.000432
0.000379
0.000369
0.000203
0.000211
0.000262
0.000250
0.000244
0.000248
0.000271
0.000283
0.000451
0.000320
0.000416
0.000399
0.000276
0.000216
0.000244
0.000269
0.000327
0.000235
0.000243
0.000286
0.000367
0.000493
0.001368
0.000056
0.000174
0.000212
0.002076
0.000273
0.000331
0.000263
0.000261
0.000254
0.000261
0.000248
0.000228
0.000249
0.000253
0.000257
0.000283
0.000321
0.000720
0.001742
0.000263
0.000244
0.000260
0.000258
0.000337
0.000568
0.001489
0.000269
0.000360
0.002011
0.000223
0.000249
0.000193
0.000055
0.000198
0.000227
0.000224
0.000246
0.000226
0.000250
0.000251
0.000275
0.000348
0.000286
0.000386
0.000361
0.000337
0.000308
0.000235
0.000239
0.000260
0.000242
0.000287
0.000268
0.000250
0.000309
0.000258
0.000269
0.000268
0.001567
0.000284
0.000401
0.001989
0.000275
0.000161
0.000057
0.000208
0.000219
0.000249
0.000235
0.000470
0.000229
0.000247
0.000349
0.000362
0.000370
0.000230
0.000225
0.000248
0.000274
0.000274
0.000319
0.000521
0.000328
0.000267
0.000371
0.000700
0.000279
0.001596
0.000256
0.000248
0.002032
0.000348
0.000216
0.000220
0.000263
0.000211
0.000056
0.000195
0.000221
0.000216
0.000245
0.000251
0.000265
0.000292
0.000237
0.000255
0.000245
0.001898
0.000271
0.000392
0.000325
0.000461
0.000360
0.001516
0.000342
0.000231
0.000292
0.002015
0.000671
0.000225
0.000211
0.000239
0.000267
0.000504
0.000227
0.000250
0.000284
0.000213
0.000056
0.000282
0.000382
0.000374
0.000250
0.000216
0.000222
0.000261
0.000250
0.000272
0.000292
0.000232
0.000248
0.000252
0.000259
0.000317
0.000451
0.001364
0.000261
0.000317
0.001997
0.000340
0.000236
0.000205
0.000259
0.000243
0.000278
0.000266
0.000275
0.000239
0.000267
0.000222
0.000056
0.000249
0.000454
0.002035
0.000207
0.000246
0.000230
0.000282
0.000260
0.000405
0.001573
0.000268
0.000366
0.000337
0.002000
0.000233
0.000233
0.000274
0.000271
0.000262
0.000234
0.000285
0.000287
0.000260
0.000318
0.000542
0.000339
0.000350
0.002202
0.000552
0.000484
0.000387
0.000055
0.000204
0.000215
0.000221
0.002038
0.000203
0.000212
0.000229
0.000278
0.000206
0.000250
0.000240
0.000262
0.000255
0.000369
0.000394
0.000389
0.001288
0.000232
0.000295
0.000251
0.000227
0.000249
0.000267
0.000264
0.000361
0.000458
0.000420
0.000253
0.001692
0.000226
0.000145
0.000057
0.000198
0.000205
0.000227
0.000233
0.000249
0.000252
0.000249
0.000253
0.000262
0.000329
0.000388
0.001495
0.000212
0.000209
0.000224
0.000252
0.000270
0.000251
0.000285
0.000526
0.000413
0.000419
0.000220
0.001566
0.000260
0.000236
0.000276
0.000284
0.000265
0.000262
0.000221
0.000056
0.000196
0.000210
0.000265
0.000268
0.000252
0.000264
0.000217
0.000237
0.000256
0.000245
0.000249
0.000254
0.000256
0.000251
0.001584
0.000238
0.000238
0.000255
0.000341
0.000327
0.000364
0.000263
0.000208
0.000290
0.000217
0.000273
0.001462
0.000298
0.000209
0.000228
0.000179
0.000057
0.000197
0.000216
0.000247
0.000265
0.000265
0.000226
0.000242
0.000268
0.000214
0.000272
0.000241
0.000257
0.000240
0.000343
0.000320
0.000379
0.000286
0.001573
0.000336
0.000220
0.000208
0.000235
0.000256
0.000309
0.000433
0.000422
0.000417
0.000226
0.000230
0.001594
0.000200
0.000057
0.000366
0.000293
0.000338
0.000314
0.000200
0.000205
0.000248
0.000264
0.000259
0.000243
0.000252
0.000232
0.001472
0.000312
0.000305
0.000211
0.000227
0.000256
0.000274
0.000259
0.000248
0.000247
0.000260
0.000269
0.000261
0.000424
0.000458
0.000316
0.000308
0.000217
0.000191
0.000055
0.000212
0.000224
0.000583
0.000367
0.000261
0.000243
0.000206
0.000252
0.000253
0.000250
0.000246
0.000225
0.000253
0.000270
0.001313
0.000271
0.000222
0.000235
0.000245
0.000276
0.000238
0.000257
0.000254
0.000268
0.000252
0.000259
0.000307
0.000721
0.000437
0.000227
0.000197
0.000056
0.000186
0.001542
0.000283
0.000326
0.000435
0.000400
0.000207
0.000239
0.000264
0.000250
0.000246
0.000261
0.000274
0.000271
0.000262
0.001517
0.000251
0.000292
0.000257
0.000261
0.000257
0.000251
0.000267
0.000267
0.000256
0.000273
0.000468
0.000383
0.000339
0.000233
0.000172
0.000072
0.000177
0.000231
0.000242
0.001707
0.000392
0.000340
0.000206
0.000209
0.000240
0.000280
0.000262
0.000262
0.000253
0.000259
0.000236
0.000261
0.000444
0.001355
0.000208
0.000229
0.001528
0.000316
0.000607
0.000374
0.000289
0.000208
0.000274
0.000465
0.000245
0.000251
0.000205
0.000055
0.000243
0.000223
0.000220
0.000234
0.000249
0.000259
0.000248
0.000242
0.000261
0.000237
0.000253
0.000263
0.000325
0.000515
0.001636
0.001485
0.000378
0.000558
0.000283
0.000251
0.000233
0.000259
0.000251
0.000247
0.000263
0.000263
0.000265
0.000260
0.001603
0.000316
0.000127
0.000056
0.000246
0.000327
0.000363
0.000320
0.000280
0.000185
0.000219
0.000445
0.000362
0.001386
0.000350
0.001548
0.000384
0.000407
0.000481
0.000285
0.000326
0.000339
0.000340
0.000295
0.000219
0.000362
0.001560
0.000530
0.000246
0.000246
0.000246
0.000264
0.000253
0.000261
0.000210
0.000057
0.000217
0.000230
0.000254
0.000249
0.000254
0.001641
0.000960
0.000896
0.000247
0.000235
0.000248
0.000269
0.000251
0.000259
0.000255
0.000252
0.000255
0.000275
0.000252
0.000287
0.001503
0.000264
0.000255
0.000215
0.000225
0.000255
0.000268
0.000274
0.000264
0.000279
0.000218
0.000056
0.000188
0.000197
0.001548
0.000917
0.000368
0.000353
0.000227
0.000203
0.000256
0.000243
0.000252
0.000251
0.000246
0.002241
0.000276
0.000205
0.000216
0.000243
0.000257
0.000259
0.000205
