0.000099
0.019687
0.001712
0.000430
0.000262
0.000299
0.000327
0.000229
0.000325
0.000285
0.000249
0.000336
0.000480
0.000507
0.000484
0.000270
0.000277
0.000335
0.000358
0.000414
0.001863
0.000443
0.000630
0.000272
0.000240
0.000324
0.000293
0.000339
0.000396
0.000379
0.000497
0.000322
0.000058
0.000209
0.000262
0.000274
0.000284
0.000252
0.000245
0.000279
0.000286
0.000272
0.000281
0.000411
0.000447
0.000301
0.000251
0.000374
0.000348
0.000369
0.000250
0.000260
0.001720
0.000292
0.000259
0.000449
0.000242
0.000280
0.000283
0.000285
0.000296
0.000278
0.000322
0.000398
0.000058
0.000247
0.000257
0.000262
0.000262
0.000248
0.000248
0.000264
0.000252
0.000287
0.001669
0.000229
0.000230
0.000272
0.000274
0.000278
0.000252
0.000261
0.000249
0.000358
0.001795
0.000237
0.000278
0.000450
0.000425
0.000393
0.000244
0.000286
0.000469
0.000505
0.000736
0.000195
0.000057
0.000231
0.000240
0.000257
0.000237
0.000296
0.000254
0.000456
0.000390
0.000410
0.000250
0.000242
0.000253
0.000256
0.000237
0.000257
0.000260
0.000278
0.000232
0.000293
0.000332
0.001664
0.000276
0.000247
0.000427
0.000684
0.000345
0.000772
0.000380
0.000352
0.000242
0.000191
0.000055
0.000234
0.000251
0.000294
0.000212
0.000280
0.000232
0.000251
0.000501
0.001450
0.000215
0.000252
0.000240
0.000256
0.000257
0.000261
0.000280
0.000267
0.000829
0.001378
0.000299
0.000238
0.000417
0.000237
0.000250
0.000258
0.000264
0.000256
0.000274
0.000260
0.000266
0.000199
0.000056
0.000206
0.000246
0.000244
0.000261
0.000240
0.000245
0.000234
0.000257
0.000242
0.000252
0.001629
0.000260
0.000230
0.000249
0.000255
0.000245
0.000251
0.000249
0.000250
0.000253
0.000294
0.001644
0.000281
0.000255
0.000434
0.000264
0.000261
0.000247
0.000270
0.000266
0.000196
0.000057
0.000215
0.000233
0.000247
0.000246
0.000244
0.000243
0.000266
0.000235
0.000263
0.000282
0.000237
0.000245
0.000257
0.000272
0.001645
0.000269
0.000288
0.000217
0.000261
0.000274
0.000267
0.000240
0.000244
0.000268
0.001777
0.000401
0.000345
0.000367
0.000235
0.000280
0.000201
0.000056
0.000229
0.000262
0.000225
0.000265
0.000259
0.000261
0.000236
0.000430
0.000441
0.000404
0.000208
0.000246
0.000254
0.000248
0.001565
0.000525
0.000360
0.000374
0.000311
0.000237
0.000266
0.000288
0.000268
0.001753
0.000483
0.000466
0.000252
0.000251
0.000242
0.000270
0.000188
0.000073
0.000173
0.000237
0.000260
0.000257
0.000333
0.000435
0.000383
0.000284
0.000217
0.000248
0.000263
0.000237
0.000254
0.001703
0.000496
0.000292
0.000229
0.000248
0.000270
0.000291
0.000242
0.000253
0.001814
0.000367
0.000292
0.000381
0.000245
0.000259
0.000274
0.000394
0.000328
0.000056
0.000198
0.000386
0.000387
0.000260
0.000253
0.000253
0.000248
0.000258
0.000256
0.000220
0.000231
0.000252
0.001548
0.000341
0.000317
0.000246
0.000251
0.000248
0.000248
0.000304
0.000305
0.000277
0.000245
0.001817
0.000248
0.000489
0.000254
0.000258
0.000249
0.000272
0.000271
0.000056
0.000390
0.000540
0.000617
0.000206
0.000226
0.000277
0.000228
0.000217
0.000268
0.000249
0.000253
0.001700
0.000245
0.000446
0.000367
0.000221
0.000244
0.000228
0.000247
0.000259
0.000256
0.001865
0.000219
0.000473
0.001864
0.000519
0.000359
0.000249
0.000252
0.000267
0.000188
0.000055
0.000218
0.000241
0.000244
0.000240
0.000258
0.001674
0.000196
0.000234
0.000265
0.000238
0.000247
0.000253
0.000244
0.000252
0.000277
0.000371
0.000668
0.000254
0.000234
0.000268
0.000277
0.000241
0.000246
0.000425
0.000444
0.000266
0.000320
0.000662
0.000350
0.000268
0.000211
0.000056
0.000221
0.000243
0.000247
0.000249
0.000244
0.000241
0.000248
0.000343
0.001912
0.000283
0.000212
0.000246
0.000242
0.000246
0.000259
0.000310
0.000440
0.000489
0.000314
0.000220
0.000261
0.000291
0.000284
0.000247
0.000286
0.000424
0.000344
0.000528
0.000595
0.000399
0.000175
0.000056
0.000206
0.000254
0.000244
0.000233
0.000238
0.000237
0.000247
0.000260
0.000230
0.000286
0.000339
0.000414
0.001436
0.000218
0.000241
0.000249
0.000255
0.000255
0.000244
0.000249
0.000285
0.000477
0.000389
0.000264
0.000265
0.000257
0.000250
0.000278
0.000264
0.000264
0.000373
0.000055
0.000216
0.000236
0.000232
0.000261
0.000544
0.000422
0.000245
0.000255
0.000235
0.000259
0.000257
0.000227
0.000297
0.000251
0.000241
0.000468
0.000458
0.001617
0.000280
0.000231
0.000255
0.000263
0.000255
0.000247
0.000264
0.000455
0.000398
0.000397
0.000421
0.000238
0.000194
0.000055
0.000215
0.000431
0.000232
0.000220
0.000287
0.000224
0.000366
0.000485
0.000329
0.000333
0.000225
0.000272
0.000266
0.000236
0.000516
0.000335
0.000233
0.000304
0.000380
0.001606
0.000294
0.000254
0.000480
0.000256
0.000276
0.000278
0.000254
0.000331
0.000585
0.000359
0.000264
0.000055
0.000213
0.000228
0.000237
0.000244
0.000417
0.000303
0.000289
0.000227
0.000454
0.000410
0.000407
0.000231
0.000242
0.000239
0.000254
0.000271
0.000255
0.000257
0.000222
0.000353
0.000324
0.000292
0.001852
0.000243
0.000256
0.000258
0.000275
0.000354
0.000425
0.000681
0.000442
0.000057
0.000217
0.000333
0.000302
0.000416
0.000384
0.000214
0.000267
0.000337
0.000441
0.000427
0.000264
0.000236
0.000239
0.000272
0.000264
0.000233
0.000254
0.000269
0.000269
0.000257
0.000272
0.000467
0.000632
0.001304
0.000323
0.000433
0.000419
0.000251
0.000534
0.000310
0.000358
0.000056
0.000236
0.000382
0.000283
0.000206
0.000227
0.000267
0.000389
0.000242
0.000232
0.000496
0.000309
0.000453
0.000221
0.000262
0.000263
0.000248
0.000349
0.000395
0.000344
0.000253
0.000244
0.000446
0.000579
0.001665
0.000242
0.000424
0.000317
0.000221
0.000262
0.000463
0.000320
0.000056
0.000239
0.000224
0.000245
0.000256
0.000253
0.000234
0.000250
0.000332
0.000446
0.000284
0.000536
0.000262
0.000292
0.000591
0.000244
0.000240
0.000275
0.000263
0.000227
0.000341
0.000240
0.000237
0.000276
0.000599
0.000291
0.001660
0.000272
0.000261
0.000228
0.000270
0.000186
0.000056
0.000313
0.000528
0.000278
0.000204
0.000244
0.000250
0.000259
0.000237
0.000270
0.000242
0.000239
0.000247
0.000423
0.000495
0.000403
0.000275
0.000278
0.000247
0.000323
0.000379
0.000383
0.000339
0.000360
0.000391
0.000248
0.000269
0.000251
0.000278
0.001791
0.000239
0.000209
0.000057
0.000208
0.000219
0.000256
0.000294
0.000326
0.000542
0.000324
0.000211
0.000285
0.000239
0.000249
0.000250
0.000526
0.000444
0.000479
0.000277
0.000263
0.000261
0.000444
0.000453
0.000345
0.000410
0.000463
0.000471
0.000239
0.000250
0.000264
0.000248
0.000261
0.001727
0.000400
0.000058
0.000262
0.000322
0.000199
0.000240
0.000259
0.000250
0.000239
0.000490
0.000380
0.000306
0.000291
0.000296
0.000319
0.000725
0.000295
0.000213
0.000256
0.000254
0.000274
0.000245
0.000276
0.000257
0.000246
0.000265
0.000283
0.000426
0.000356
0.000363
0.000250
0.000248
0.000186
0.000056
0.000455
0.000268
0.000506
0.000229
0.000204
0.000248
0.000242
0.000256
0.000245
0.000218
0.000250
0.000281
0.000292
0.000457
0.000594
0.000356
0.000262
0.000310
0.000398
0.000328
0.000294
0.000251
0.000245
0.000255
0.001748
0.000248
0.001734
0.000932
0.000471
0.000263
0.000165
0.000056
0.000210
0.000239
0.000229
0.000249
0.000265
0.000242
0.000252
0.000248
0.000242
0.000312
0.000383
0.000501
0.000260
0.000369
0.000253
0.000255
0.000248
0.000293
0.000225
0.000252
0.000252
0.000262
0.001815
0.000237
0.000249
0.000265
0.000274
0.000267
0.001877
0.000535
0.000268
0.000056
0.000216
0.000210
0.000243
0.000238
0.000256
0.000251
0.000245
0.000250
0.000260
0.000365
0.000641
0.000234
0.000385
0.000231
0.000245
0.000254
0.000322
0.000447
0.000357
0.000251
0.001788
0.000256
0.000238
0.000252
0.000268
0.000266
0.000259
0.000241
0.000321
0.000284
0.000425
0.000056
0.000237
0.000224
0.000239
0.000270
0.000237
0.000241
0.000255
0.000260
0.000237
0.000258
0.000240
0.000298
0.000349
0.000458
0.000374
0.000198
0.000448
0.000240
0.000247
0.000260
0.000250
0.000265
0.000290
0.000236
0.000283
0.001789
0.000244
0.000244
0.000264
0.000239
0.000209
0.000056
0.000277
0.000359
0.000223
0.000224
0.000239
0.000240
0.000236
0.000259
0.000244
0.000225
0.000229
0.000269
0.000253
0.000374
0.000389
0.000382
0.000274
0.000239
0.000250
0.000253
0.000287
0.000242
0.000244
0.000271
0.000251
0.000267
0.000327
0.001607
0.000275
0.000234
0.000195
0.000057
0.000198
0.000241
0.000270
0.000242
0.000340
0.000428
0.000310
0.000333
0.000232
0.000249
0.000269
0.000229
0.000248
0.000256
0.000261
0.000259
0.000244
0.000257
0.000251
0.000262
0.000265
0.000273
0.000249
0.000234
0.000239
0.000279
0.000275
0.000265
0.000249
0.000269
0.000194
0.000056
0.000206
0.000224
0.000258
0.000276
0.000230
0.000240
0.000236
0.000260
0.000285
0.000245
0.000225
0.000250
0.000253
0.000248
0.000292
0.000240
0.000255
0.000247
0.000299
0.000256
0.000275
0.000319
0.000265
0.000238
0.000291
0.000250
0.000274
0.000252
0.000259
0.000465
0.000626
0.000056
0.000226
0.000280
0.000225
0.000226
0.000244
0.000253
0.000242
0.000244
0.000253
0.000244
0.000266
0.000287
0.000530
0.000422
0.001560
0.000225
0.000499
0.000231
0.000347
0.000365
0.000435
0.000378
0.000230
0.000281
0.000248
0.000255
0.000284
0.000253
0.000310
0.000274
0.000171
0.000055
0.000333
0.000436
0.000323
0.000335
0.000201
0.000289
0.000224
0.000240
0.000236
0.000239
0.000260
0.000253
0.000235
0.000287
0.000438
0.000407
0.000381
0.001793
0.000237
0.000256
0.000340
0.000406
0.000500
0.000256
0.000312
0.000327
0.000299
0.000238
0.000220
0.000256
0.000194
0.000056
0.000200
0.000231
0.000237
0.000295
0.000333
0.000449
0.000353
0.000257
0.000252
0.000215
0.000248
0.000270
0.000263
0.000265
0.000250
0.000264
0.000294
0.000494
0.000435
0.000330
0.000236
0.001755
0.000314
0.000494
0.000494
0.000495
0.000313
0.000234
0.000252
0.000268
0.000452
0.000057
0.000211
0.000277
0.000219
0.000334
0.000364
0.000496
0.000366
0.000207
0.000266
0.000281
0.000220
0.000260
0.000257
0.000290
0.000311
0.000242
0.000239
0.000311
0.000623
0.000241
0.000503
0.001851
0.000242
0.000461
0.000479
0.000370
0.000215
0.000263
0.000284
0.000264
0.000210
0.000056
0.000210
0.000334
0.000362
0.000351
0.000370
0.000323
0.000362
0.000198
0.000244
0.000253
0.000275
0.000223
0.000257
0.000250
0.000254
0.000258
0.000325
0.000353
0.000527
0.000334
0.000330
0.000238
0.000259
0.001716
0.000366
0.000591
0.000656
0.000225
0.000272
0.000309
0.000161
0.000055
0.000195
0.000239
0.000351
0.000234
0.000255
0.000410
0.000406
0.000281
0.000246
0.000539
0.000210
0.000257
0.000258
0.000277
0.000275
0.000263
0.000207
0.000423
0.000499
0.000346
0.000256
0.000236
0.000254
0.000252
0.000263
0.000264
0.000234
0.000258
0.000267
0.000285
0.000224
0.000055
0.000307
0.000349
0.000216
0.000255
0.000249
0.000258
0.000241
0.000290
0.000237
0.000251
0.000277
0.000326
0.000422
0.000438
0.000320
0.000267
0.000222
0.000236
0.000276
0.000251
0.000289
0.000264
0.000234
0.000257
0.000280
0.000318
0.000439
0.000349
0.000354
0.000236
0.000168
0.000055
0.000225
0.000204
0.000281
0.000241
0.000239
0.000270
0.000267
0.000232
0.000494
0.000214
0.000254
0.000263
0.000236
0.000265
0.000273
0.000298
0.000239
0.000353
0.000210
0.000245
0.000256
0.000266
0.000264
0.000265
0.000274
0.000275
0.000246
0.000256
0.000260
0.000509
0.000152
0.000056
0.000214
0.000239
0.000250
0.000290
0.000198
0.000247
0.000355
0.000406
0.000244
0.000233
0.000253
0.000259
0.000233
0.000256
0.000451
0.001787
0.000225
0.000267
0.000284
0.000328
0.000407
0.000370
0.000363
0.000395
0.000451
0.000363
0.000217
0.000277
0.000268
0.000274
0.001391
0.000057
0.000397
0.000350
0.000207
0.000226
0.000231
0.000250
0.000230
0.000258
0.000242
0.000278
0.000244
0.000259
0.000250
0.000322
0.000531
0.001605
0.000226
0.000244
0.000250
0.000264
0.000233
0.000274
0.000395
0.000356
0.000292
0.000352
0.000221
0.000275
0.000273
0.000258
0.000196
0.000056
0.001187
0.000568
0.000301
0.000279
0.000216
0.000224
0.000239
0.000237
0.000497
0.000212
0.000241
0.000245
0.000360
0.000572
0.000347
0.000334
0.000255
0.000228
0.000327
0.000361
0.000273
0.000256
0.000273
0.000241
0.000267
0.000673
0.000481
0.000233
0.000263
0.000266
0.000169
0.000056
0.000188
0.000222
0.000239
0.000253
0.001530
0.000232
0.000228
0.000250
0.000264
0.000231
0.000253
0.000252
0.000243
0.000261
0.000275
0.000401
0.000374
0.000645
0.000214
0.001750
0.000265
0.000272
0.000317
0.000413
0.000608
0.000337
0.000248
0.000252
0.000259
0.000269
0.000212
0.000058
0.000200
0.000243
0.000238
0.000326
0.001249
0.000225
0.000257
0.000265
0.000242
0.000234
0.000240
0.000253
0.000273
0.000249
0.000253
0.000325
0.000405
0.000524
0.000234
0.000264
0.000270
0.000271
0.000248
0.000227
0.000289
0.000268
0.000242
0.000276
0.000309
0.000622
0.000295
0.000067
0.000214
0.000248
0.000235
0.000261
0.000264
0.000243
0.000229
0.000267
0.000272
0.000271
0.001415
0.000228
0.000232
0.000253
0.000247
0.000242
0.000291
0.000248
0.000281
0.000243
0.000425
0.000330
0.000512
0.000330
0.000238
0.000275
0.001757
0.000257
0.000258
0.000304
0.000461
0.000058
0.000202
0.000392
0.000451
0.000503
0.000511
0.000537
0.001505
0.000417
0.000519
0.000654
0.000552
0.000778
0.000450
0.000585
0.000588
0.001880
0.000413
0.000435
0.000388
0.000324
0.000224
0.000268
0.000288
0.000266
0.000264
0.000286
0.000288
0.000286
0.000261
0.000287
0.001370
0.000056
0.000202
0.000231
0.000248
0.000233
0.000264
0.000259
0.000235
0.000235
0.000254
0.000251
0.000237
0.000242
0.000254
0.000264
0.000259
0.000272
0.001797
0.000262
0.000264
0.000253
0.000247
0.000274
0.000286
0.000281
0.000384
0.000439
0.000313
0.000242
0.000265
0.000284
0.000205
0.000056
0.000219
0.001355
0.000334
0.000272
0.000246
0.000242
0.000236
0.000241
0.000228
0.000246
0.000202
0.000260
0.000241
0.000511
0.000366
0.000289
0.000244
0.001815
0.000355
0.000233
0.000250
0.000268
0.000257
0.000258
0.000275
0.000284
0.000270
0.000253
0.000265
0.000319
0.000203
0.000055
0.000196
0.000248
0.000251
0.001439
0.000216
0.000241
0.000261
0.000244
0.000230
0.000274
0.000251
0.000242
0.000250
0.000282
0.000231
0.000257
0.000265
0.000262
0.000278
0.000250
0.000262
0.001770
0.000270
0.001764
0.000258
0.000270
0.000252
0.000269
0.000275
0.000270
0.000199
0.000056
0.000185
0.000247
0.001347
0.000228
0.000253
0.000242
0.000265
0.000250
0.000243
0.000251
0.000255
0.000241
0.000260
0.000263
0.000254
0.000269
0.000258
0.000285
0.000293
0.000224
0.001883
0.000232
0.001833
0.000244
0.000260
0.000276
0.000230
0.000258
0.000248
0.000275
0.000195
0.000055
0.001443
0.000215
0.000225
0.000258
0.000233
0.000235
0.000372
0.000285
0.000235
0.000249
0.000257
0.000259
0.000242
0.000407
0.000365
0.000275
0.000237
0.000275
0.000262
0.000249
0.000269
0.000340
0.000232
0.000251
0.000272
0.000276
0.000271
0.000678
0.000289
0.000377
0.000196
0.000056
0.000232
0.000238
0.000274
0.000296
0.000365
0.000267
0.001654
0.000331
0.000278
0.000276
0.000257
0.000261
0.000266
0.000266
0.000300
0.000308
0.000355
0.000588
0.000350
0.000261
0.000292
0.000283
0.000261
0.000271
0.000333
0.000260
0.000260
0.000260
0.000255
0.000280
0.000450
0.000056
0.000234
0.000462
0.000272
0.000261
0.000250
0.000230
0.000222
0.000251
0.000260
0.000271
0.001503
0.000212
0.000232
0.000250
0.000244
0.000285
0.000281
0.000238
0.000262
0.000269
0.000265
0.000319
0.000676
0.000223
0.000281
0.000280
0.000261
0.000263
0.000235
0.000307
0.000175
0.000056
0.000194
0.000237
0.000284
0.000484
0.000356
0.000257
0.000224
0.000251
0.000250
0.000252
0.000233
0.000253
0.000271
0.000253
0.000238
0.000246
0.000408
0.001186
0.000265
0.000235
0.000270
0.000249
0.000360
0.000436
0.000231
0.000349
0.000550
0.000362
0.000392
0.000212
0.000180
0.000056
0.000220
0.000248
0.000263
0.000264
0.000250
0.000246
0.000300
0.000463
0.000470
0.000236
0.000355
0.000393
0.000395
0.000362
0.000258
0.000241
0.000239
0.000261
0.000443
0.000454
0.001225
0.000225
0.000272
0.000279
0.000234
0.000236
0.000268
0.000315
0.000407
0.000467
0.000236
0.000056
0.000188
0.000247
0.000260
0.000239
0.000240
0.000248
0.000236
0.000269
0.000298
0.000297
0.000461
0.000385
0.000246
0.000243
0.000250
0.000272
0.000237
0.000260
0.000268
0.000270
0.000417
0.000239
0.000358
0.000421
0.000343
0.000252
0.000272
0.000267
0.000248
0.000340
0.000160
0.000057
0.000307
0.000314
0.000285
0.000510
0.000352
0.000349
0.000241
0.000241
0.000247
0.000268
0.000260
0.000263
0.000233
0.000255
0.000245
0.000221
0.000265
0.000366
0.000458
0.000374
0.000231
0.000274
0.000244
0.000252
0.000266
0.000279
0.000268
0.000277
0.000264
0.000264
0.000266
0.000055
0.000331
0.000302
0.000242
0.000267
0.000225
0.000243
0.000254
0.000251
0.000262
0.000255
0.000251
0.000231
0.000342
0.000447
0.000430
0.000304
0.000228
0.000251
0.000252
0.000268
0.000255
0.000267
0.000256
0.000267
0.000317
0.000250
0.000528
0.000498
0.000410
0.000250
0.000176
0.000055
0.000381
0.000189
0.000225
0.000248
0.000249
0.000250
0.000228
0.000252
0.000263
0.000255
0.000226
0.000242
0.000268
0.000228
0.000241
0.000267
0.000271
0.000248
0.000294
0.000242
0.000259
0.000261
0.000260
0.000267
0.000266
0.000239
0.000263
0.000286
0.000252
0.000276
0.000197
0.000055
0.000196
0.000239
0.000243
0.000249
0.000230
0.000253
0.000263
0.000240
0.000261
0.000269
0.000239
0.000227
0.000264
0.000398
0.000252
0.000297
0.000243
0.000271
0.000254
0.000278
0.000272
0.000235
0.000251
0.000246
0.000276
0.000270
0.000252
0.000245
0.000278
0.000265
0.000202
0.000056
0.000194
0.000352
0.000368
0.000292
0.000289
0.000259
0.000271
0.000253
0.000222
0.000246
0.000280
0.000236
0.000251
0.000253
0.000241
0.000278
0.000240
0.000271
0.000240
0.000265
0.000272
0.000270
0.000278
0.000253
0.000288
0.000237
0.000256
0.000270
0.000295
0.000235
0.000193
0.000057
0.000198
0.000230
0.000268
0.000267
0.000251
0.000438
0.000211
0.000276
0.000255
0.000420
0.000521
0.000293
0.000219
0.000251
0.000280
0.000257
0.000238
0.000263
0.000263
0.000273
0.000274
0.000250
0.000258
0.000264
0.000587
0.000457
0.000268
0.000304
0.000261
0.000258
0.000197
0.000056
0.000217
0.000222
0.000245
0.000258
0.000392
0.000603
0.000284
0.000384
0.000206
0.000250
0.000252
0.000256
0.000271
0.000230
0.000252
0.000274
0.000272
0.000248
0.000680
0.000328
0.000308
0.000235
0.000258
0.000286
0.000281
0.000255
0.000261
0.000285
0.000232
0.000326
0.000306
0.000057
0.000269
0.000229
0.000245
0.000238
0.000256
0.000264
0.000218
0.000245
0.000244
0.000263
0.000237
0.000262
0.000247
0.000399
0.000550
0.000393
0.000249
0.000255
0.000265
0.000239
0.000272
0.000284
0.000481
0.000213
0.000265
0.000718
0.000312
0.000467
0.000248
0.000255
0.000186
0.000055
0.000193
0.000239
0.000245
0.000238
0.000256
0.000258
0.000291
0.000451
0.000581
0.000431
0.000215
0.000260
0.000276
0.000274
0.000254
0.000243
0.000239
0.000251
0.000255
0.000423
0.000319
0.000643
0.000360
0.000265
0.000348
0.000381
0.000490
0.000235
0.000271
0.000403
0.000361
0.000080
0.000249
0.000230
0.000437
0.000220
0.000228
0.000258
0.000279
0.000240
0.000231
0.000240
0.000289
0.000387
0.000314
0.000396
0.000214
0.000252
0.000269
0.000243
0.000264
0.000282
0.000280
0.000243
0.000253
0.000269
0.000436
0.000354
0.000492
0.000227
0.000273
0.000264
0.000203
0.000055
0.000232
0.000251
0.000228
0.000248
0.000246
0.000276
0.000389
0.000307
0.000487
0.000265
0.000373
0.000230
0.000255
0.000262
0.000253
0.000241
0.000256
0.000255
0.000309
0.000386
0.000489
0.000324
0.000478
0.000264
0.000382
0.000419
0.000389
0.000243
0.000262
0.000278
0.000387
0.000056
0.000245
0.000275
0.000223
0.000253
0.000260
0.000255
0.000248
0.000247
0.000276
0.000241
0.000241
0.000296
0.000600
0.000277
0.000380
0.000225
0.000262
0.000265
0.000267
0.000233
0.000255
0.000251
0.000265
0.000277
0.000273
0.000337
0.000564
0.000395
0.000238
0.000283
0.000188
0.000056
0.000223
0.000234
0.000278
0.000248
0.000257
0.000361
0.000484
0.000475
0.000335
0.000691
0.000261
0.000217
0.000244
0.000256
0.000245
0.000268
0.000297
0.000255
0.000479
0.000437
0.001496
0.000309
0.000261
0.000287
0.000269
0.000264
0.000452
0.000345
0.000314
0.000351
0.000186
0.000073
0.000195
0.000232
0.000245
0.000263
0.000224
0.000252
0.000306
0.000229
0.000240
0.000320
0.000333
0.000379
0.000270
0.000337
0.000397
0.000340
0.000248
0.000253
0.000270
0.000255
0.000248
0.000249
0.000304
0.000226
0.000317
0.000438
0.000436
0.000281
0.000251
0.000280
0.000183
0.000057
0.000231
0.000244
0.000257
0.000254
0.000237
0.000239
0.000475
0.000209
0.000233
0.000257
0.000259
0.000234
0.000265
0.000254
0.000254
0.000265
0.000262
0.000290
0.000248
0.000253
0.000284
0.000266
0.000287
0.000247
0.000267
0.000298
0.000252
0.000264
0.000258
0.000275
0.000173
0.000056
0.000234
0.000240
0.000287
0.000428
0.000383
0.000252
0.000232
0.000248
0.000264
0.000248
0.000247
0.000251
0.000264
0.000266
0.000234
0.000244
0.000266
0.000250
0.000352
0.000282
0.000452
0.000370
0.000233
0.000271
0.000254
0.000253
0.000267
0.000256
0.000272
0.000293
0.000183
0.000056
0.000382
0.000375
0.000439
0.000209
0.000256
0.000255
0.000411
0.000219
0.000233
0.000258
0.000253
0.000289
0.000347
0.000503
0.001806
0.000254
0.000243
0.000251
0.000280
0.000241
0.000300
0.000447
0.000608
0.000335
0.000231
0.000266
0.000272
0.000428
0.000275
0.000281
0.000165
0.000056
0.000239
0.000369
0.000345
0.000314
0.000495
0.000197
0.000248
0.000256
0.000248
0.000233
0.000266
0.000243
0.000260
0.000302
0.000455
0.000444
0.000228
0.000248
0.000258
0.000258
0.000294
0.000289
0.000231
0.000282
0.000276
0.000441
0.000511
0.000381
0.000482
0.000237
0.000202
0.000056
0.000205
0.000223
0.000256
0.000231
0.000252
0.000247
0.000264
0.000328
0.000292
0.000355
0.000458
0.000339
0.000219
0.000259
0.000279
0.000275
0.000299
0.000237
0.000271
0.000273
0.000238
0.000294
0.000511
0.000361
0.000270
0.000257
0.000259
0.000455
0.000396
0.000301
0.000192
0.000057
0.000211
0.000233
0.000347
0.000553
0.000245
0.000198
0.000240
0.000255
0.000267
0.000285
0.000228
0.000257
0.000223
0.000258
0.000261
0.000310
0.000359
0.000385
0.000337
0.000304
0.000491
0.000223
0.000296
0.000259
0.000302
0.000282
0.000254
0.000346
0.000386
0.000543
0.000168
0.000055
0.000204
0.000228
0.000251
0.000252
0.000259
0.000468
0.000208
0.000255
0.000268
0.000305
0.000510
0.000594
0.000204
0.000246
0.000240
0.000257
0.000253
0.000268
0.000244
0.000247
0.000283
0.000242
0.000444
0.000336
0.000372
0.000391
0.000299
0.000302
0.000320
0.000247
0.000185
0.000056
0.000210
0.000229
0.000276
0.000460
0.000349
0.000274
0.000264
0.000224
0.000246
0.000255
0.000251
0.000262
0.000265
0.000238
0.000255
0.000257
0.000250
0.000241
0.000270
0.000397
0.000630
0.000249
0.000245
0.000243
0.000280
0.000274
0.000263
0.000253
0.000266
0.000267
0.000195
0.000055
0.000297
0.000349
0.000489
0.000225
0.000222
0.000247
0.000315
0.000455
0.000294
0.000203
0.000246
0.000274
0.000256
0.000441
0.000439
0.000313
0.000211
0.000240
0.000259
0.000261
0.000271
0.000260
0.000260
0.000280
0.000264
0.000292
0.000338
0.000547
0.000237
0.000249
0.000180
0.000056
0.000199
0.000235
0.000249
0.000254
0.000257
0.000261
0.000228
0.000273
0.000249
0.000234
0.000267
0.000238
0.000289
0.001430
0.000221
0.000260
0.000257
0.000245
0.000281
0.000271
0.000263
0.000237
0.000285
0.000245
0.000272
0.000276
0.000257
0.000272
0.000259
0.000272
0.000202
0.000057
0.000206
0.000231
0.000251
0.000267
0.000216
0.000259
0.000250
0.000256
0.000226
0.000250
0.000246
0.000261
0.000260
0.000257
0.000263
0.000243
0.000252
0.000260
0.000276
0.000250
0.000251
0.000270
0.000242
0.000255
0.001293
0.000272
0.000648
0.000305
0.000390
0.000240
0.000193
0.000056
0.000198
0.000235
0.000241
0.000261
0.000410
0.000234
0.000237
0.000259
0.000237
0.000383
0.000462
0.000314
0.000230
0.000226
0.000269
0.000260
0.000256
0.000268
0.000241
0.000264
0.000259
0.000273
0.000271
0.000429
0.000486
0.000437
0.000232
0.000261
0.001375
0.000241
0.000181
0.000057
0.000351
0.000410
0.000333
0.000275
0.000226
0.000217
0.000231
0.000248
0.000260
0.000259
0.000242
0.000261
0.000295
0.000333
0.000460
0.000417
0.000320
0.000215
0.000254
0.000256
0.000264
0.000285
0.000252
0.000262
0.000270
0.000262
0.000336
0.000527
0.000397
0.000362
0.000151
0.000056
0.000209
0.000236
0.001264
0.000430
0.000260
0.000503
0.000364
0.000494
0.000262
0.000347
0.000213
0.000233
0.000264
0.000254
0.000262
0.000255
0.000426
0.000485
0.000372
0.000321
0.000263
0.000240
0.000267
0.000498
0.000233
0.000266
0.000252
0.000281
0.000287
0.000564
0.000294
0.000056
0.000376
0.000312
0.000240
0.000225
0.001479
0.000625
0.000216
0.000256
0.000240
0.000253
0.000229
0.000238
0.000248
0.000268
0.000252
0.000262
0.000234
0.000262
0.000438
0.000334
0.000497
0.000226
0.000250
0.000258
0.000262
0.000289
0.000255
0.000238
0.000268
0.000274
0.000204
0.000056
0.000446
0.000253
0.000215
0.000237
0.000256
0.000240
0.000257
0.000241
0.000239
0.000225
0.001490
0.000375
0.000280
0.000244
0.000242
0.000253
0.000272
0.000263
0.000255
0.000284
0.000243
0.000252
0.000362
0.000298
0.000414
0.000481
0.000223
0.000267
0.000282
0.000282
0.000167
0.000055
0.000213
0.000421
0.000220
0.000245
0.000335
0.000465
0.000399
0.000270
0.000459
0.000208
0.000231
0.000251
0.000257
0.000266
0.000257
0.001428
0.000350
0.000284
0.000237
0.000275
0.000299
0.000229
0.000256
0.000256
0.000265
0.000263
0.000456
0.000441
0.000293
0.000265
0.000164
0.000056
0.000184
0.000236
0.000258
0.000236
0.000231
0.000261
0.000237
0.000246
0.000319
0.000370
0.000384
0.000306
0.000243
0.000256
0.000244
0.000273
0.000278
0.000258
0.000268
0.000227
0.000255
0.000366
0.001199
0.000304
0.000202
0.000257
0.000260
0.000269
0.000255
0.000263
0.000185
0.000055
0.000218
0.000362
0.000377
0.000327
0.000252
0.000245
0.000259
0.000287
0.000235
0.000264
0.000238
0.000269
0.000239
0.000255
0.000266
0.000253
0.000268
0.000265
0.000268
0.000255
0.000242
0.000271
0.000265
0.000278
0.000287
0.000271
0.000269
0.000265
0.000249
0.000453
0.001362
0.000056
0.000225
0.000245
0.000225
0.000264
0.000230
0.000256
0.000245
0.000224
0.000249
0.000249
0.000275
0.000260
0.000249
0.000242
0.000275
0.000224
0.001728
0.000252
0.000246
0.000258
0.000249
0.000262
0.000271
0.000257
0.000303
0.000228
0.000269
0.000278
0.000266
0.000260
0.000223
0.000054
0.000306
0.000290
0.001332
0.000230
0.000239
0.000232
0.000256
0.000249
0.000275
0.000240
0.000234
0.000350
0.000389
0.000539
0.000197
0.000210
0.000256
0.000254
0.000277
0.000248
0.000242
0.000279
0.000256
0.000283
0.000263
0.000392
0.000374
0.000361
0.000313
0.000237
0.000199
0.000055
0.000225
0.000230
0.000243
0.000247
0.000276
0.000197
0.000251
0.000238
0.000425
0.001344
0.000261
0.000208
0.000253
0.000273
0.000252
0.000294
0.000234
0.000251
0.000298
0.000422
0.000418
0.000236
0.000249
0.000235
0.000284
0.000276
0.000272
0.000286
0.000271
0.000276
0.000193
0.000056
0.000370
0.000313
0.000379
0.000217
0.000230
0.000235
0.000251
0.000274
0.000267
0.000243
0.000226
0.000254
0.000453
0.000497
0.000507
0.001425
0.000252
0.000254
0.000328
0.000350
0.000477
0.000436
0.000468
0.000391
0.000234
0.000264
0.000266
0.000278
0.000262
0.000278
0.000191
0.000056
0.000221
0.000294
0.000415
0.000432
0.000398
0.000232
0.000257
0.000236
0.000241
0.000274
0.000231
0.000267
0.000281
0.000222
0.000264
0.000305
0.000317
0.000456
0.000377
0.001319
0.000285
0.000240
0.000255
0.000260
0.000536
0.000373
0.000407
0.000217
0.000274
0.000274
0.000191
0.000055
0.000207
0.000240
0.000247
0.000261
0.000229
0.000324
0.000400
0.000435
0.000328
0.000213
0.000244
0.000262
0.000269
0.000290
0.000235
0.000257
0.000270
0.000263
0.000278
0.000379
0.000335
0.000422
0.000330
0.001345
0.000419
0.000231
0.000272
0.000438
0.000493
0.000298
0.000292
0.000056
0.000206
0.000229
0.000248
0.000246
0.000250
0.000257
0.001679
0.000253
0.000214
0.000230
0.000257
0.000243
0.000258
0.000323
0.000325
0.000291
0.000282
0.000326
0.000465
0.000430
0.000287
0.000282
0.000231
0.000256
0.001492
0.000336
0.000487
0.000373
0.000343
0.000302
0.000171
0.000055
0.000207
0.000239
0.000256
0.000258
0.000244
0.000263
0.001704
0.000230
0.000251
0.000263
0.000322
0.000401
0.001452
0.000435
0.000320
0.000246
0.000254
0.000232
0.000268
0.000277
0.001659
0.000456
0.000378
0.000300
0.000231
0.000252
0.000263
0.000279
0.000246
0.000252
0.000192
0.000055
0.000199
0.000246
0.000263
0.000254
0.000257
0.000273
0.000281
0.000254
0.000255
0.000247
0.000256
0.000248
0.000289
0.000241
0.000255
0.001485
0.000284
0.000236
0.000266
0.000279
0.000273
0.000257
0.001433
0.000337
0.000232
0.000212
0.000268
0.000254
0.000404
0.000240
0.000197
0.000056
0.000206
0.000252
0.000222
0.000242
0.000243
0.000231
0.000229
0.001695
0.000256
0.000226
0.000351
0.000270
0.000223
0.000224
0.000256
0.001389
0.000230
0.000264
0.000270
0.000242
0.000272
0.000336
0.000296
0.001298
0.000304
0.000225
0.000253
0.000261
0.001389
0.000273
0.000249
0.000056
0.000285
0.000310
0.000207
0.000241
0.000264
0.000230
0.000284
0.000247
0.000264
0.000245
0.000265
0.000261
0.000252
0.000245
0.000298
0.001534
0.000228
0.000269
0.000255
0.000242
0.000282
0.000260
0.000252
0.001523
0.000328
0.000241
0.000265
0.001279
0.000271
0.000243
0.000239
0.000055
0.000224
0.000383
0.000342
0.000217
0.000233
0.000241
0.000271
0.000250
0.000264
0.000272
0.000247
0.000245
0.000260
0.000278
0.000413
0.001217
0.000234
0.000244
0.000273
0.000275
0.000227
0.000249
0.000246
0.000327
0.001298
0.000256
0.000229
0.000255
0.000252
0.001344
0.000298
0.000056
0.000328
0.000219
0.000227
0.000231
0.000242
0.000257
0.000244
0.000241
0.000298
0.000235
0.000249
0.000245
0.000242
0.000348
0.000402
0.001468
0.000204
0.000263
0.000299
0.000525
0.000268
0.000383
0.001363
0.000316
0.000227
0.000261
0.000254
0.001308
0.000286
0.000476
0.000362
0.000056
0.000234
0.000243
0.000258
0.000251
0.000257
0.000252
0.000276
0.000259
0.000247
0.000262
0.000369
0.000431
0.001308
0.000245
0.000270
0.000267
0.000277
0.000238
0.000230
0.000233
0.000335
0.001257
0.000251
0.000242
0.000260
0.000263
0.001528
0.000403
0.000477
0.000216
0.000185
0.000056
0.000227
0.000210
0.000249
0.000239
0.000254
0.000264
0.000240
0.000247
0.000435
0.000495
0.000271
0.001480
0.000209
0.000247
0.000266
0.000255
0.000262
0.000291
0.001688
0.000248
0.000385
0.000346
0.001286
0.000341
0.000339
0.000321
0.000237
0.000267
0.000257
0.000270
0.000193
0.000057
0.000188
0.000235
0.000327
0.000254
0.000323
0.000509
0.000305
0.000294
0.001470
0.000237
0.000384
0.000265
0.000224
0.000298
0.000436
0.001267
0.000274
0.000263
0.000228
0.000252
0.001522
0.000410
0.000248
0.000282
0.000259
0.000255
0.000466
0.000320
0.000254
0.000233
0.000260
0.000056
0.000252
0.000395
0.000303
0.000260
0.000226
0.001517
0.000212
0.000262
0.000269
0.000267
0.000269
0.000254
0.000345
0.001486
0.000197
0.000229
0.000432
0.001188
0.000340
0.000425
0.000424
0.000228
0.000242
0.000260
0.000311
0.000205
0.000460
0.000226
0.000261
0.000279
0.000192
0.000056
0.000187
0.000292
0.000358
0.000349
0.001271
0.000284
0.000333
0.000225
0.000226
0.000248
0.000249
0.000306
0.001505
0.000274
0.000219
0.000245
0.001385
0.000259
0.000432
0.000397
0.000419
0.000243
0.000260
0.000238
0.000268
0.000275
0.000268
0.000257
0.000267
0.000251
0.000196
0.000056
0.000218
0.000380
0.001474
0.000210
0.000273
0.000302
0.000217
0.000242
0.000275
0.000365
0.001404
0.000215
0.000258
0.000259
0.000256
0.001264
0.000688
0.000300
0.000318
0.000414
0.000325
0.000224
0.000268
0.000264
0.000267
0.000290
0.000272
0.000384
0.000365
0.000410
0.001381
0.000056
0.000207
0.000250
0.000245
0.000223
0.000270
0.000431
0.000462
0.001272
0.000247
0.000237
0.000247
0.001423
0.000444
0.000334
0.000231
0.000412
0.000242
0.000233
0.000268
0.000294
0.000251
0.000250
0.000282
0.000250
0.000256
0.000263
0.000538
0.000392
0.001505
0.000231
0.000186
0.000056
0.000206
0.000251
0.000345
0.000618
0.001169
0.000303
0.000229
0.000258
0.000246
0.000255
0.000248
0.000276
0.000358
0.000533
0.000290
0.000240
0.000254
0.000274
0.000243
0.000303
0.000238
0.000261
0.000257
0.000269
0.000311
0.000381
0.000495
0.000273
0.000337
0.001394
0.000190
0.000057
0.000222
0.000243
0.000359
0.000426
0.000283
0.000308
0.000318
0.000329
0.000297
0.000252
0.000237
0.000269
0.000246
0.000309
0.000237
0.000319
0.000510
0.000355
0.000271
0.000387
0.000277
0.000406
0.000222
0.000261
0.000250
0.000260
0.000258
0.000294
0.000396
0.000459
0.000291
0.000057
0.000206
0.001409
0.000221
0.000341
0.000449
0.000427
0.000417
0.000239
0.000210
0.000246
0.000263
0.000252
0.000278
0.000251
0.000267
0.000250
0.000261
0.001364
0.000257
0.000244
0.000257
0.000277
0.000269
0.000280
0.000270
0.000252
0.000280
0.000248
0.000378
0.000372
0.000286
0.000056
0.000203
0.000238
0.000238
0.001500
0.000325
0.000246
0.000222
0.000252
0.000229
0.000245
0.000251
0.000284
0.000242
0.000253
0.000295
0.000232
0.000245
0.000277
0.000259
0.000245
0.001424
0.000231
0.000259
0.000265
0.000263
0.000248
0.000267
0.000257
0.000281
0.000486
0.000353
0.000056
0.000198
0.000238
0.000400
0.000285
0.000241
0.000259
0.001515
0.000366
0.000287
0.000218
0.000260
0.000317
0.000329
0.000230
0.000232
0.000244
0.000247
0.000266
0.000260
0.000256
0.000490
0.000502
0.001115
0.000273
0.000239
0.000262
0.000270
0.000258
0.000305
0.000230
0.000373
0.000057
0.000267
0.000352
0.000211
0.000237
0.000247
0.000243
0.000242
0.000225
0.000292
0.001607
0.000382
0.000279
0.000233
0.000256
0.000258
0.000243
0.000254
0.000279
0.000263
0.000309
0.000325
0.000470
0.000448
0.001374
0.000228
0.000274
0.000255
0.000267
0.000267
0.000276
0.000514
0.000056
0.000235
0.000257
0.000224
0.000236
0.000218
0.000246
0.000258
0.000276
0.001568
0.000257
0.000362
0.000261
0.000240
0.000257
0.000466
0.000247
0.000542
0.000373
0.000281
0.000273
0.000485
0.000454
0.001309
0.000258
0.000231
0.000260
0.001805
0.000355
0.000611
0.000329
0.000138
0.000056
0.000186
0.000231
0.000239
0.000239
0.000256
0.000237
0.000270
0.000531
0.000453
0.000425
0.000283
0.000211
0.000246
0.000262
0.000278
0.000270
0.000235
0.000244
0.000251
0.000303
0.000272
0.000375
0.001356
0.000223
0.000254
0.000272
0.001898
0.000388
0.000389
0.000338
0.000156
0.000056
0.000211
0.000246
0.000243
0.001558
0.000434
0.000213
0.000236
0.000273
0.000244
0.000271
0.000374
0.000369
0.000368
0.000281
0.000250
0.000576
0.000381
0.001193
0.000277
0.000237
0.000252
0.000264
0.000271
0.000430
0.000609
0.000441
0.000249
0.000268
0.000274
0.000276
0.000194
0.000056
0.000197
0.000226
0.000244
0.001537
0.000261
0.000229
0.000244
0.000253
0.000246
0.000241
0.000262
0.000268
0.000272
0.000269
0.000246
0.000479
0.000389
0.000327
0.001356
0.000227
0.000262
0.000266
0.000263
0.000281
0.000382
0.000399
0.000498
0.000263
0.000291
0.000229
0.000451
0.000055
0.000204
0.000245
0.000271
0.001523
0.000310
0.000213
0.000267
0.000243
0.000253
0.000259
0.000255
0.000273
0.000240
0.000305
0.000300
0.000569
0.001375
0.000749
0.000261
0.000339
0.000231
0.000254
0.000241
0.000278
0.001684
0.000803
0.000230
0.000262
0.000281
0.000276
0.000188
0.000056
0.000211
0.000255
0.000233
0.000244
0.000266
0.000264
0.000214
0.000255
0.000239
0.000232
0.000295
0.000284
0.000249
0.000247
0.000267
0.000245
0.000272
0.001596
0.000703
0.000418
0.000269
0.000240
0.000241
0.000311
0.000243
0.000256
0.000275
0.000247
0.001399
0.000423
0.000309
0.000056
0.000189
0.000235
0.000265
0.000232
0.000260
0.000228
0.000280
0.000231
0.000255
0.000261
0.000249
0.000462
0.000521
0.000229
0.000214
0.000245
0.000266
0.001393
0.000692
0.000496
0.000334
0.000258
0.000225
0.000251
0.000271
0.000262
0.000247
0.000264
0.001552
0.000345
0.000206
0.000056
0.000212
0.000238
0.000239
0.000248
0.000249
0.000249
0.000232
0.000251
0.000275
0.000258
0.000400
0.000343
0.000336
0.000220
0.000243
0.000241
0.000270
0.000254
0.001582
0.000660
0.000416
0.000321
0.000230
0.000262
0.000259
0.000262
0.000275
0.000286
0.000252
0.001358
0.000328
0.000056
0.000205
0.000223
0.000232
0.000258
0.000257
0.000261
0.000237
0.000299
0.000360
0.000449
0.000368
0.000379
0.000366
0.000219
0.000244
0.000253
0.000302
0.000234
0.000279
0.001922
0.000315
0.000236
0.000450
0.000241
0.000249
0.000264
0.000280
0.000245
0.000269
0.000279
0.000436
0.000055
0.000289
0.000213
0.000247
0.000243
0.000275
0.000227
0.000226
0.000239
0.000275
0.000263
0.000231
0.000234
0.000276
0.000436
0.000487
0.000433
0.000231
0.000270
0.000250
0.000248
0.000258
0.000276
0.001488
0.001045
0.000216
0.000251
0.000270
0.000267
0.000273
0.000251
0.000205
0.000056
0.000196
0.001337
0.000286
0.000214
0.000234
0.000259
0.000248
0.000244
0.000237
0.000263
0.000246
0.000265
0.000239
0.000404
0.000340
0.000437
0.000303
0.000246
0.000262
0.000278
0.000277
0.000216
0.000257
0.000259
0.001356
0.000661
0.000298
0.000380
0.000376
0.000401
0.000300
0.000056
0.000191
0.000230
0.000360
0.001321
0.000206
0.000252
0.000237
0.000261
0.000259
0.000253
0.000250
0.000248
0.000290
0.000405
0.000483
0.000310
0.000224
0.000280
0.000325
0.000215
0.000255
0.000267
0.000239
0.000271
0.000290
0.001511
0.000743
0.000322
0.000257
0.000271
0.000193
0.000056
0.000214
0.000249
0.000473
0.000331
0.001291
0.000244
0.000228
0.000245
0.000228
0.000254
0.000248
0.000255
0.000234
0.000238
0.000254
0.000251
0.000267
0.000238
0.000255
0.000254
0.000269
0.000270
0.000302
0.000334
0.000217
0.000268
0.000261
0.001463
0.000259
0.000239
0.000183
0.000055
0.000193
0.000231
0.000248
0.000263
0.000347
0.000372
0.000399
0.000277
0.001585
0.000220
0.000273
0.000539
0.000353
0.000215
0.000443
0.000226
0.000239
0.000261
0.000273
0.000268
0.000277
0.000268
0.000256
0.000269
0.000255
0.000409
0.000382
0.000396
0.001533
0.000225
0.000189
0.000055
0.000231
0.000253
0.000240
0.000248
0.000238
0.000248
0.000259
0.000313
0.000411
0.002033
0.000228
0.000246
0.000259
0.000256
0.000259
0.000300
0.000222
0.000259
0.000260
0.000472
0.000307
0.000469
0.001453
0.000242
0.000281
0.001979
0.000286
0.000239
0.000261
0.001527
0.000154
0.000056
0.000341
0.000462
0.000416
0.000245
0.000274
0.000210
0.000257
0.000268
0.000262
0.000230
0.000254
0.000336
0.000409
0.000363
0.000407
0.000245
0.000236
0.001571
0.000235
0.000589
0.001861
0.000297
0.000226
0.001508
0.002066
0.000735
0.000277
0.000287
0.000247
0.000448
0.000355
0.000055
0.000208
0.000243
0.000274
0.000228
0.002864
0.000291
0.001077
0.000197
0.000237
0.001587
0.001980
0.000207
0.000241
0.000421
0.000323
0.000341
0.000360
0.000539
0.000207
0.000243
0.000250
0.000251
0.000281
0.001591
0.001212
0.001425
0.000276
0.000284
0.000257
0.000316
0.000358
0.000056
0.000236
0.000180
0.000241
0.000243
0.000228
0.000245
0.000249
0.000257
0.000253
0.000243
0.000242
0.000329
0.000400
0.000555
0.000222
0.000247
0.000247
0.000277
0.000264
0.000280
0.000241
0.000275
0.001483
0.000493
0.002121
0.000237
0.000256
0.000364
0.000396
0.000402
0.000175
0.000056
0.000206
0.000425
0.000418
0.000312
0.000197
0.000228
0.000253
0.000241
0.000245
0.000240
0.000246
0.000267
0.000261
0.001607
0.001356
0.001232
0.000268
0.000235
0.000252
0.000262
0.000287
0.000277
0.000244
0.000253
0.002209
0.000250
0.000250
0.000298
0.000323
0.000304
0.000225
0.000057
0.000236
0.000441
0.000486
0.000300
0.000254
0.000214
0.000254
0.000257
0.001907
0.001413
0.000219
0.000349
0.000366
0.000409
0.000270
0.000224
0.000262
0.000263
0.000264
0.000265
0.000258
0.000266
0.000489
0.000219
0.000268
0.000270
0.000250
0.000274
0.000284
0.000246
0.000201
0.000055
0.000199
0.000244
0.000252
0.000246
0.000271
0.000249
0.001536
0.001422
0.001337
0.000217
0.000240
0.000243
0.000266
0.000261
0.000244
0.000248
0.000249
0.002107
0.000258
0.000226
0.000263
0.000268
0.000254
0.000267
0.000267
0.000260
0.000273
0.000248
0.000283
0.000251
0.000175
0.000055
0.000209
0.002679
0.001407
0.000206
0.000306
0.000321
0.000217
0.000282
0.000232
0.000238
0.000259
0.000246
0.000233
0.000241
0.000276
0.000249
0.000275
0.000263
0.000269
0.000253
0.000268
0.000282
0.000275
0.000264
0.000251
0.000235
0.000273
0.000274
0.000258
0.000268
0.000375
0.000056
0.001551
0.000240
0.001237
0.000228
0.000224
0.000242
0.000259
0.000290
0.000209
0.000284
0.000348
0.000406
0.000324
0.000216
0.000252
0.002148
0.000232
0.000260
0.000397
0.000387
0.000416
0.000232
0.000243
0.000246
0.000276
0.000246
0.000265
0.000278
0.000288
0.001664
0.001202
0.000056
0.000174
0.000238
0.000245
0.000435
0.000389
0.000256
0.000210
0.000237
0.000253
0.000256
0.000268
0.000246
0.000223
0.000254
0.000265
0.000248
0.000325
0.000674
0.000288
0.000254
0.000221
0.000285
0.000282
0.000248
0.000252
0.000245
0.000266
0.000270
0.000246
0.000410
0.000270
0.000055
0.001110
0.000241
0.000364
0.000471
0.000255
0.000219
0.000228
0.000246
0.000246
0.002295
0.000469
0.000288
0.000223
0.000381
0.000303
0.000258
0.000242
0.000261
0.000262
0.000228
0.000251
0.000279
0.000576
0.000470
0.001898
0.001273
0.000537
0.000539
0.000225
0.000290
0.000195
0.000055
0.000372
0.000217
0.000249
0.000245
0.000257
0.000215
0.000256
0.000256
0.000253
0.000251
0.000256
0.000226
0.000245
0.000276
0.000372
0.000507
0.001840
0.001335
0.000470
0.000413
0.000441
0.000247
0.000245
0.000260
0.002211
0.000466
0.000384
0.000236
0.000277
0.000299
0.000178
0.000055
0.000182
0.000247
0.000254
0.000252
0.000238
0.000409
0.000341
0.000345
0.000293
0.000221
0.000241
0.000250
0.000261
0.002129
0.000354
0.000379
0.000216
0.000259
0.000278
0.000247
0.000246
0.002482
0.000313
0.000225
0.000256
0.000257
0.000252
0.000278
0.000302
0.000258
0.000190
0.000056
0.000195
0.000354
0.000539
0.000360
0.000254
0.000222
0.000236
0.000252
0.000274
0.000240
0.001982
0.000367
0.000270
0.000267
0.000241
0.000271
0.000267
0.000246
0.002197
0.000455
0.000226
0.000266
0.000266
0.000264
0.000252
0.000256
0.000299
0.000232
0.000268
0.000270
0.000169
0.000056
0.000214
0.000239
0.000247
0.000216
0.000247
0.000259
0.000236
0.000244
0.000237
0.002179
0.000229
0.000278
0.000225
0.000423
0.000233
0.000252
0.000297
0.000263
0.000254
0.000251
0.001966
0.000273
0.000337
0.000369
0.000428
0.000408
0.000310
0.000250
0.000260
0.000260
0.000207
0.000056
0.000197
0.000246
0.000239
0.000250
0.000244
0.000328
0.000213
0.002317
0.000239
0.000231
0.000263
0.000257
0.000233
0.000278
0.000279
0.002122
0.000595
0.000216
0.000257
0.000248
0.000273
0.000248
0.000284
0.000273
0.000262
0.000252
0.000287
0.000253
0.000281
0.000247
0.000194
0.000055
0.001835
0.001445
0.000195
0.000224
0.000241
0.000257
0.000247
0.000319
0.000347
0.000348
0.002183
0.000262
0.000222
0.000276
0.000303
0.000508
0.000386
0.000290
0.000225
0.000249
0.000248
0.000264
0.000267
0.000229
0.000259
0.000260
0.000270
0.000266
0.000312
0.000666
0.000314
0.000056
0.000197
0.000258
0.000258
0.000238
0.000285
0.000229
0.000254
0.000238
0.001515
0.002080
0.000609
0.000247
0.000397
0.000708
0.000348
0.000252
0.000247
0.000249
0.000265
0.000260
0.000256
0.000242
0.000251
0.000273
0.003017
0.000322
0.000238
0.000263
0.000291
0.000249
0.000506
0.000055
0.001911
0.000242
0.000232
0.000228
0.000287
0.000338
0.000461
0.000306
0.000285
0.000227
0.000244
0.000248
0.000260
0.000257
0.000281
0.000246
0.000247
0.000287
0.001820
0.000232
0.000260
0.000237
0.000277
0.000283
0.000270
0.000252
0.001462
0.000336
0.000242
0.000265
0.000171
0.000056
0.000202
0.000235
0.000250
0.000250
0.000235
0.000245
0.000274
0.000399
0.000372
0.000327
0.000232
0.000238
0.000262
0.000327
0.000420
0.000335
0.000218
0.000251
0.000262
0.000374
0.000443
0.000450
0.000249
0.000263
0.000259
0.000250
0.000252
0.000273
0.000275
0.000264
0.000201
0.000055
0.001432
0.000456
0.000206
0.001944
0.000304
0.000386
0.000446
0.000308
0.000226
0.000245
0.000270
0.000246
0.000245
0.000241
0.000270
0.000259
0.000472
0.000233
0.000441
0.000401
0.000319
0.000236
0.000248
0.000275
0.000282
0.000263
0.000261
0.000268
0.000381
0.000400
0.001415
0.000056
0.000194
0.000224
0.002082
0.000327
0.000309
0.000231
0.000259
0.000251
0.000260
0.000259
0.000217
0.000252
0.000257
0.000262
0.000279
0.000334
0.000710
0.001762
0.000229
0.000249
0.000254
0.000262
0.000437
0.000351
0.001607
0.000283
0.000365
0.001924
0.000251
0.000272
0.000192
0.000055
0.000214
0.000237
0.000229
0.000244
0.000230
0.000249
0.000251
0.000289
0.000335
0.000258
0.000373
0.000361
0.000347
0.000303
0.000241
0.000268
0.000262
0.000236
0.000271
0.000246
0.000323
0.000276
0.000266
0.000254
0.000274
0.001506
0.000292
0.000372
0.002077
0.000240
0.000169
0.000057
0.000222
0.000238
0.000236
0.000249
0.000488
0.000205
0.000254
0.000340
0.000349
0.000317
0.000309
0.000209
0.000269
0.000262
0.000271
0.000326
0.000432
0.000425
0.000244
0.000417
0.000700
0.000209
0.001640
0.000226
0.000251
0.002015
0.000300
0.000246
0.000244
0.000292
0.000191
0.000056
0.000205
0.000236
0.000229
0.000243
0.000249
0.000272
0.000261
0.000263
0.000249
0.000254
0.001818
0.000308
0.000384
0.000284
0.000462
0.000360
0.000381
0.001484
0.000236
0.000279
0.002126
0.000564
0.000252
0.000241
0.000262
0.000272
0.000506
0.000221
0.000257
0.000281
0.000196
0.000057
0.000298
0.000363
0.000362
0.000296
0.000201
0.000242
0.000257
0.000253
0.000265
0.000296
0.000225
0.000253
0.000257
0.000259
0.000403
0.000377
0.001354
0.000263
0.000275
0.001903
0.000376
0.000289
0.000236
0.000275
0.000231
0.000282
0.000265
0.000267
0.000243
0.000267
0.000202
0.000057
0.000242
0.000437
0.002018
0.000259
0.000216
0.000256
0.000243
0.000317
0.000391
0.000477
0.001292
0.000374
0.000359
0.002082
0.000201
0.000247
0.000264
0.000278
0.000256
0.000242
0.000282
0.000297
0.000259
0.000318
0.000511
0.000372
0.000305
0.002241
0.000494
0.000519
0.000355
0.000056
0.000211
0.000220
0.000247
0.001963
0.000227
0.000226
0.000246
0.000247
0.000247
0.000255
0.000244
0.000264
0.000254
0.000404
0.000454
0.001325
0.000250
0.000246
0.000268
0.000258
0.000233
0.000253
0.000264
0.000279
0.000330
0.000438
0.000466
0.000241
0.001605
0.000274
0.000154
0.000056
0.000201
0.000215
0.000244
0.000235
0.000260
0.000267
0.000228
0.000258
0.000247
0.000363
0.000352
0.001441
0.000225
0.000220
0.000256
0.000297
0.000224
0.000256
0.000287
0.000496
0.000441
0.000404
0.000223
0.001580
0.000229
0.000260
0.000289
0.000280
0.000261
0.000268
0.000192
0.000056
0.000195
0.000244
0.000265
0.000266
0.000246
0.000251
0.000233
0.000241
0.000277
0.000226
0.000248
0.000255
0.000269
0.001478
0.000364
0.000199
0.000254
0.000262
0.000279
0.000304
0.000376
0.000268
0.000253
0.000299
0.000229
0.000264
0.000262
0.001403
0.000289
0.000227
0.000171
0.000056
0.000201
0.000239
0.000255
0.000262
0.000266
0.000222
0.000247
0.000256
0.000222
0.000266
0.000266
0.000238
0.000223
0.000298
0.000377
0.000404
0.000233
0.000247
0.001622
0.000240
0.000237
0.000260
0.000259
0.000308
0.000366
0.000373
0.000461
0.000261
0.000260
0.001608
0.000165
0.000055
0.000297
0.000332
0.000387
0.000296
0.000218
0.000222
0.000240
0.000271
0.000255
0.000258
0.000228
0.000238
0.001460
0.000281
0.000333
0.000211
0.000250
0.000271
0.000257
0.000265
0.000250
0.000250
0.000240
0.000273
0.000264
0.000426
0.000425
0.000309
0.000311
0.000236
0.000190
0.000055
0.000206
0.000239
0.000429
0.000399
0.000382
0.000245
0.000227
0.000253
0.000252
0.000255
0.000242
0.000227
0.000256
0.000249
0.001249
0.000312
0.000223
0.000276
0.000245
0.000268
0.000239
0.000264
0.000259
0.000252
0.000271
0.000250
0.000311
0.000683
0.000464
0.000232
0.000174
0.000056
0.000209
0.001553
0.000255
0.000321
0.000458
0.000386
0.000213
0.000257
0.000270
0.000249
0.000242
0.000259
0.000270
0.000275
0.000267
0.001517
0.000251
0.000301
0.000249
0.000255
0.000274
0.000240
0.000265
0.000258
0.000272
0.000273
0.000447
0.000310
0.000382
0.000241
0.000189
0.000071
0.000199
0.000254
0.000248
0.001629
0.000384
0.000345
0.000236
0.000232
0.000256
0.000273
0.000278
0.000254
0.000251
0.000258
0.000235
0.000269
0.000463
0.001263
0.000255
0.000225
0.001489
0.000298
0.000578
0.000411
0.000343
0.000223
0.000270
0.000465
0.000238
0.000266
0.000182
0.000055
0.000241
0.000223
0.000247
0.000245
0.000251
0.000251
0.000258
0.000242
0.000255
0.000248
0.000244
0.000268
0.000321
0.000468
0.001677
0.001505
0.000346
0.000597
0.000281
0.000217
0.000236
0.000252
0.000253
0.000271
0.000264
0.000245
0.000259
0.000270
0.001535
0.000311
0.000171
0.000055
0.000233
0.000335
0.000369
0.000322
0.000246
0.000218
0.000248
0.000313
0.000480
0.000374
0.002161
0.000313
0.000682
0.000670
0.000314
0.000254
0.000336
0.000395
0.000329
0.000289
0.000387
0.000262
0.001529
0.000527
0.000220
0.000269
0.000252
0.000255
0.000278
0.000252
0.000193
0.000056
0.000234
0.000249
0.000250
0.000259
0.000238
0.001660
0.000884
0.000999
0.000206
0.000234
0.000259
0.000257
0.000265
0.000258
0.000254
0.000248
0.000247
0.000270
0.000266
0.000278
0.001426
0.000311
0.000252
0.000236
0.000240
0.000258
0.000258
0.000281
0.000267
0.000286
0.001901
0.000056
0.000192
0.000227
0.001547
0.000851
0.000384
0.000372
0.000223
0.000235
0.000250
0.000260
0.000245
0.000250
0.000248
0.001979
0.000469
0.000228
0.000246
0.000250
0.000268
0.000259
0.000193
