0.000103
0.009207
0.012237
0.000281
0.000262
0.000283
0.000308
0.000245
0.000331
0.000285
0.000247
0.000362
0.000466
0.000491
0.000406
0.000366
0.000281
0.000334
0.000351
0.000405
0.000313
0.001942
0.000675
0.000252
0.000250
0.000317
0.000298
0.000328
0.000481
0.000406
0.000493
0.000233
0.000057
0.000199
0.000265
0.000269
0.000265
0.000273
0.000249
0.000274
0.000262
0.000269
0.000305
0.000425
0.000479
0.000268
0.000260
0.000412
0.000297
0.000369
0.000254
0.000240
0.001691
0.000325
0.000281
0.000433
0.000234
0.000285
0.000284
0.000286
0.000292
0.000277
0.000495
0.000232
0.000056
0.000252
0.000255
0.000259
0.000264
0.000254
0.000243
0.000261
0.000255
0.000288
0.001672
0.000224
0.000233
0.000283
0.000262
0.000274
0.000252
0.000262
0.000252
0.000357
0.001787
0.000246
0.000283
0.000439
0.000491
0.000334
0.000233
0.000281
0.000474
0.000528
0.000715
0.000195
0.000057
0.000189
0.000245
0.000254
0.000236
0.000303
0.000248
0.000265
0.000597
0.000394
0.000244
0.000252
0.000259
0.000236
0.000253
0.000253
0.000261
0.000237
0.000271
0.000299
0.000316
0.001671
0.000292
0.000250
0.000411
0.000268
0.000733
0.000797
0.000411
0.000318
0.000242
0.000186
0.000056
0.000221
0.000251
0.000258
0.000242
0.000259
0.000259
0.000258
0.000550
0.001383
0.000214
0.000257
0.000247
0.000250
0.000263
0.000260
0.000284
0.000288
0.000779
0.001395
0.000282
0.000456
0.000259
0.000234
0.000217
0.000258
0.000258
0.000266
0.000270
0.000258
0.000272
0.000193
0.000055
0.000178
0.000250
0.000248
0.000265
0.000239
0.000241
0.000241
0.000259
0.000237
0.000247
0.001627
0.000278
0.000222
0.000252
0.000234
0.000253
0.000249
0.000244
0.000253
0.000257
0.000267
0.001665
0.000293
0.000248
0.000435
0.000255
0.000263
0.000249
0.000269
0.000270
0.000192
0.000055
0.000221
0.000231
0.000252
0.000242
0.000242
0.000246
0.000262
0.000238
0.000263
0.000240
0.000267
0.000251
0.000266
0.000270
0.001639
0.000277
0.000294
0.000214
0.000252
0.000276
0.000268
0.000237
0.000247
0.000269
0.001778
0.000357
0.000385
0.000344
0.000259
0.000280
0.000191
0.000055
0.000233
0.000232
0.000249
0.000263
0.000256
0.000236
0.000291
0.000406
0.000460
0.000381
0.000210
0.000245
0.000254
0.000248
0.001555
0.000537
0.000324
0.000437
0.000283
0.000229
0.000270
0.000283
0.000270
0.001727
0.000532
0.000448
0.000256
0.000258
0.000236
0.000264
0.000187
0.000057
0.000212
0.000232
0.000260
0.000271
0.000337
0.000416
0.000391
0.000274
0.000217
0.000251
0.000266
0.000237
0.000254
0.001785
0.000410
0.000291
0.000228
0.000254
0.000271
0.000279
0.000245
0.000265
0.000273
0.001860
0.000339
0.000392
0.000250
0.000246
0.000270
0.000407
0.000332
0.000056
0.000199
0.000427
0.000337
0.000280
0.000239
0.000250
0.000250
0.000258
0.000242
0.000237
0.000231
0.000253
0.001607
0.000269
0.000338
0.000232
0.000259
0.000252
0.000244
0.000278
0.000279
0.000334
0.000239
0.001818
0.000263
0.000476
0.000249
0.000256
0.000265
0.000260
0.000262
0.000054
0.000367
0.000564
0.000609
0.000210
0.000240
0.000276
0.000228
0.000220
0.000259
0.000254
0.000251
0.001701
0.000249
0.000453
0.000358
0.000220
0.000248
0.000223
0.000245
0.000263
0.000355
0.001764
0.000235
0.000239
0.002080
0.000510
0.000371
0.000249
0.000253
0.000267
0.000183
0.000056
0.000191
0.000245
0.000244
0.000242
0.000258
0.001613
0.000263
0.000226
0.000254
0.000252
0.000249
0.000262
0.000228
0.000263
0.000328
0.000343
0.000638
0.000253
0.000229
0.000276
0.000267
0.000246
0.000248
0.000424
0.000435
0.000271
0.000353
0.000524
0.000446
0.000285
0.000203
0.000055
0.000214
0.000241
0.000270
0.000236
0.000256
0.000222
0.000248
0.000421
0.000400
0.001716
0.000220
0.000255
0.000227
0.000247
0.000260
0.000277
0.000488
0.000428
0.000332
0.000251
0.000256
0.000310
0.000274
0.000250
0.000282
0.000432
0.000346
0.000609
0.000481
0.000421
0.000176
0.000056
0.000207
0.000269
0.000249
0.000208
0.000246
0.000237
0.000246
0.000247
0.000241
0.000295
0.000340
0.000493
0.001329
0.000241
0.000239
0.000260
0.000249
0.000261
0.000239
0.000252
0.000273
0.000502
0.000369
0.000261
0.000265
0.000262
0.000255
0.000263
0.000268
0.000275
0.000374
0.000055
0.000184
0.000227
0.000232
0.000335
0.000464
0.000445
0.000229
0.000261
0.000231
0.000255
0.000254
0.000235
0.000300
0.000247
0.000243
0.000472
0.000494
0.001569
0.000284
0.000240
0.000248
0.000285
0.000239
0.000237
0.000263
0.000424
0.000514
0.000359
0.000377
0.000240
0.000196
0.000055
0.000223
0.000435
0.000239
0.000213
0.000271
0.000237
0.000298
0.000581
0.000304
0.000331
0.000219
0.000279
0.000262
0.000241
0.000516
0.000349
0.000218
0.000260
0.000476
0.001559
0.000269
0.000261
0.000505
0.000240
0.000278
0.000280
0.000261
0.000352
0.000587
0.000335
0.000259
0.000055
0.000188
0.000235
0.000237
0.000242
0.000415
0.000308
0.000294
0.000222
0.000357
0.000483
0.000401
0.000266
0.000236
0.000247
0.000252
0.000269
0.000251
0.000258
0.000227
0.000353
0.000292
0.000358
0.001819
0.000244
0.000254
0.000258
0.000280
0.000357
0.000442
0.000673
0.000421
0.000056
0.000227
0.000333
0.000283
0.000445
0.000372
0.000214
0.000249
0.000269
0.000530
0.000416
0.000265
0.000241
0.000238
0.000268
0.000267
0.000236
0.000256
0.000272
0.000267
0.000261
0.000261
0.000412
0.000658
0.001367
0.000300
0.000466
0.000392
0.000249
0.000457
0.000377
0.000321
0.000056
0.000252
0.000379
0.000271
0.000212
0.000219
0.000244
0.000414
0.000243
0.000247
0.000388
0.000391
0.000468
0.000219
0.000256
0.000268
0.000250
0.000371
0.000369
0.000360
0.000241
0.000240
0.000350
0.000679
0.001700
0.000203
0.000451
0.000289
0.000229
0.000256
0.000476
0.000313
0.000055
0.000214
0.000235
0.000245
0.000252
0.000240
0.000257
0.000242
0.000345
0.000434
0.000304
0.000414
0.000353
0.000318
0.000569
0.000248
0.000240
0.000275
0.000284
0.000210
0.000370
0.000207
0.000252
0.000269
0.000422
0.000444
0.001711
0.000244
0.000232
0.000259
0.000263
0.000188
0.000055
0.000314
0.000490
0.000317
0.000223
0.000247
0.000268
0.000257
0.000223
0.000260
0.000243
0.000224
0.000251
0.000425
0.000518
0.000411
0.000258
0.000254
0.000249
0.000354
0.000385
0.000385
0.000331
0.000421
0.000362
0.000213
0.000256
0.000258
0.000278
0.001776
0.000257
0.000210
0.000056
0.000197
0.000228
0.000251
0.000275
0.000366
0.000540
0.000306
0.000210
0.000267
0.000257
0.000249
0.000253
0.000534
0.000430
0.000482
0.000285
0.000259
0.000270
0.000423
0.000466
0.000404
0.000361
0.000446
0.000470
0.000246
0.000249
0.000269
0.000240
0.000266
0.001707
0.000339
0.000057
0.000249
0.000333
0.000207
0.000237
0.000253
0.000251
0.000248
0.000493
0.000371
0.000308
0.000292
0.000272
0.000355
0.000685
0.000298
0.000230
0.000248
0.000261
0.000249
0.000268
0.000262
0.000267
0.000247
0.000264
0.000338
0.000350
0.000400
0.000357
0.000223
0.000261
0.000180
0.000055
0.000454
0.000288
0.000469
0.000260
0.000208
0.000242
0.000249
0.000251
0.000242
0.000224
0.000250
0.000280
0.000292
0.000302
0.000636
0.000457
0.000282
0.000317
0.000395
0.000329
0.000299
0.000240
0.000236
0.000263
0.001742
0.000261
0.001723
0.000934
0.000446
0.000287
0.000163
0.000056
0.000190
0.000234
0.000234
0.000246
0.000256
0.000249
0.000254
0.000248
0.000258
0.000328
0.000366
0.000410
0.000337
0.000385
0.000255
0.000233
0.000257
0.000293
0.000229
0.000249
0.000258
0.000253
0.001805
0.000241
0.000258
0.000265
0.000277
0.000264
0.001873
0.000586
0.000211
0.000056
0.000234
0.000204
0.000241
0.000242
0.000258
0.000243
0.000250
0.000246
0.000254
0.000394
0.000527
0.000507
0.000243
0.000201
0.000231
0.000258
0.000333
0.000446
0.000366
0.000254
0.001770
0.000247
0.000255
0.000244
0.000266
0.000269
0.000240
0.000259
0.000327
0.000293
0.000383
0.000055
0.000216
0.000219
0.000245
0.000255
0.000245
0.000243
0.000255
0.000259
0.000241
0.000254
0.000236
0.000279
0.000392
0.000361
0.000362
0.000286
0.000445
0.000240
0.000254
0.000254
0.000259
0.000264
0.000272
0.000256
0.000277
0.001787
0.000238
0.000255
0.000268
0.000232
0.000201
0.000055
0.000247
0.000394
0.000230
0.000217
0.000241
0.000238
0.000234
0.000253
0.000248
0.000225
0.000231
0.000267
0.000252
0.000449
0.000362
0.000351
0.000261
0.000233
0.000255
0.000254
0.000262
0.000257
0.000249
0.000277
0.000246
0.000268
0.000304
0.001638
0.000257
0.000243
0.000194
0.000056
0.000217
0.000233
0.000253
0.000257
0.000351
0.000468
0.000256
0.000346
0.000226
0.000254
0.000250
0.000240
0.000250
0.000256
0.000260
0.000260
0.000243
0.000259
0.000250
0.000268
0.000261
0.000270
0.000254
0.000230
0.000258
0.000269
0.000274
0.000263
0.000251
0.000265
0.000185
0.000055
0.000201
0.000229
0.000258
0.000254
0.000234
0.000256
0.000240
0.000262
0.000282
0.000234
0.000243
0.000236
0.000270
0.000238
0.000263
0.000267
0.000257
0.000248
0.000335
0.000217
0.000274
0.000288
0.000273
0.000260
0.000264
0.000273
0.000273
0.000250
0.000258
0.000478
0.000592
0.000056
0.000233
0.000283
0.000207
0.000237
0.000259
0.000237
0.000260
0.000231
0.000250
0.000239
0.000272
0.000313
0.000473
0.000472
0.001530
0.000247
0.000477
0.000247
0.000266
0.000444
0.000414
0.000398
0.000224
0.000278
0.000250
0.000264
0.000283
0.000248
0.000312
0.000255
0.000189
0.000056
0.000321
0.000507
0.000289
0.000328
0.000207
0.000258
0.000247
0.000242
0.000241
0.000241
0.000263
0.000248
0.000228
0.000286
0.000382
0.000480
0.000380
0.001790
0.000227
0.000257
0.000408
0.000371
0.000454
0.000271
0.000340
0.000296
0.000300
0.000231
0.000232
0.000267
0.000176
0.000055
0.000186
0.000226
0.000236
0.000295
0.000405
0.000384
0.000352
0.000259
0.000253
0.000210
0.000249
0.000271
0.000266
0.000263
0.000248
0.000252
0.000344
0.000450
0.000316
0.000468
0.000227
0.001747
0.000335
0.000486
0.000614
0.000352
0.000332
0.000226
0.000269
0.000261
0.000438
0.000057
0.000205
0.000255
0.000232
0.000279
0.000386
0.000519
0.000374
0.000206
0.000237
0.000291
0.000241
0.000263
0.000252
0.000295
0.000308
0.000238
0.000311
0.000342
0.000392
0.000376
0.000503
0.001842
0.000251
0.000521
0.000418
0.000371
0.000221
0.000260
0.000288
0.000262
0.000203
0.000055
0.000220
0.000343
0.000358
0.000343
0.000454
0.000233
0.000343
0.000219
0.000243
0.000261
0.000273
0.000227
0.000255
0.000245
0.000263
0.000250
0.000336
0.000482
0.000369
0.000359
0.000309
0.000234
0.000261
0.001714
0.000502
0.000434
0.000694
0.000232
0.000263
0.000302
0.000158
0.000055
0.000196
0.000236
0.000338
0.000235
0.000261
0.000357
0.000409
0.000335
0.000234
0.000529
0.000230
0.000249
0.000260
0.000278
0.000277
0.000261
0.000209
0.000499
0.000293
0.000469
0.000268
0.000223
0.000262
0.000253
0.000261
0.000270
0.000231
0.000261
0.000264
0.000304
0.000164
0.000056
0.000313
0.000326
0.000233
0.000254
0.000248
0.000259
0.000241
0.000282
0.000244
0.000247
0.000261
0.000350
0.000504
0.000278
0.000401
0.000265
0.000224
0.000242
0.000246
0.000268
0.000295
0.000255
0.000236
0.000265
0.000276
0.000401
0.000368
0.000331
0.000353
0.000229
0.000179
0.000056
0.000198
0.000227
0.000280
0.000244
0.000233
0.000248
0.000264
0.000253
0.000492
0.000210
0.000262
0.000249
0.000248
0.000269
0.000272
0.000270
0.000265
0.000346
0.000228
0.000242
0.000259
0.000259
0.000251
0.000270
0.000279
0.000261
0.000263
0.000258
0.000514
0.000245
0.000144
0.000056
0.000194
0.000246
0.000252
0.000265
0.000216
0.000245
0.000367
0.000411
0.000238
0.000236
0.000253
0.000249
0.000239
0.000254
0.000502
0.001730
0.000243
0.000258
0.000284
0.000391
0.000365
0.000354
0.000360
0.000452
0.000320
0.000425
0.000237
0.000264
0.000268
0.000274
0.001396
0.000057
0.000407
0.000281
0.000282
0.000225
0.000230
0.000252
0.000237
0.000251
0.000239
0.000271
0.000250
0.000254
0.000253
0.000314
0.000513
0.001632
0.000241
0.000234
0.000239
0.000269
0.000243
0.000271
0.000416
0.000314
0.000302
0.000354
0.000227
0.000282
0.000257
0.000267
0.000186
0.000056
0.001216
0.000519
0.000362
0.000250
0.000236
0.000227
0.000240
0.000236
0.000482
0.000224
0.000240
0.000249
0.000335
0.000517
0.000408
0.000353
0.000242
0.000240
0.000338
0.000349
0.000267
0.000259
0.000272
0.000245
0.000262
0.000633
0.000514
0.000254
0.000252
0.000266
0.000174
0.000073
0.000205
0.000217
0.000242
0.000245
0.001506
0.000277
0.000209
0.000259
0.000255
0.000230
0.000253
0.000259
0.000235
0.000268
0.000267
0.000253
0.000633
0.000489
0.000265
0.001743
0.000273
0.000275
0.000274
0.000533
0.000512
0.000352
0.000252
0.000255
0.000246
0.000273
0.000198
0.000057
0.000214
0.000249
0.000234
0.000332
0.001252
0.000224
0.000257
0.000261
0.000243
0.000236
0.000235
0.000250
0.000276
0.000248
0.000253
0.000262
0.000558
0.000367
0.000313
0.000260
0.000269
0.000270
0.000254
0.000224
0.000316
0.000237
0.000243
0.000276
0.000267
0.000304
0.000621
0.000056
0.000218
0.000247
0.000239
0.000260
0.000261
0.000243
0.000255
0.000239
0.000273
0.000251
0.001439
0.000228
0.000238
0.000257
0.000238
0.000251
0.000263
0.000281
0.000241
0.000267
0.000270
0.000480
0.000460
0.000398
0.000232
0.000271
0.001760
0.000249
0.000267
0.000315
0.000458
0.000055
0.000215
0.000413
0.000427
0.000506
0.000513
0.000535
0.001501
0.000416
0.000520
0.000652
0.000560
0.000719
0.000481
0.000620
0.000582
0.001878
0.000419
0.000425
0.000404
0.000316
0.000239
0.000287
0.000255
0.000269
0.000247
0.000295
0.000298
0.000289
0.000257
0.000286
0.001372
0.000055
0.000218
0.000225
0.000249
0.000232
0.000265
0.000254
0.000238
0.000241
0.000250
0.000254
0.000234
0.000244
0.000249
0.000266
0.000263
0.000269
0.001810
0.000286
0.000244
0.000244
0.000253
0.000267
0.000259
0.000325
0.000357
0.000477
0.000292
0.000238
0.000275
0.000277
0.000195
0.000057
0.000207
0.001362
0.000317
0.000266
0.000254
0.000242
0.000247
0.000232
0.000238
0.000242
0.000213
0.000234
0.000256
0.000505
0.000367
0.000305
0.000240
0.000254
0.001929
0.000229
0.000256
0.000259
0.000253
0.000264
0.000277
0.000290
0.000268
0.000254
0.000258
0.000322
0.000199
0.000056
0.000188
0.000241
0.000248
0.001437
0.000223
0.000253
0.000248
0.000249
0.000237
0.000262
0.000263
0.000236
0.000253
0.000250
0.000256
0.000257
0.000266
0.000265
0.000269
0.000255
0.000263
0.001777
0.000279
0.001738
0.000270
0.000249
0.000266
0.000269
0.000270
0.000288
0.000180
0.000056
0.000207
0.000244
0.001338
0.000221
0.000265
0.000246
0.000256
0.000255
0.000237
0.000270
0.000231
0.000260
0.000258
0.000257
0.000262
0.000257
0.000266
0.000279
0.000296
0.000233
0.001883
0.000232
0.001827
0.000245
0.000262
0.000270
0.000229
0.000243
0.000266
0.000265
0.000187
0.000055
0.001422
0.000234
0.000226
0.000240
0.000240
0.000241
0.000363
0.000277
0.000245
0.000251
0.000259
0.000255
0.000244
0.000343
0.000395
0.000314
0.000233
0.000284
0.000239
0.000259
0.000274
0.000338
0.000232
0.000250
0.000266
0.000286
0.000267
0.000328
0.000695
0.000318
0.000203
0.000056
0.000227
0.000240
0.000281
0.000291
0.000367
0.000255
0.001657
0.000343
0.000276
0.000269
0.000252
0.000289
0.000271
0.000257
0.000286
0.000304
0.000326
0.000623
0.000344
0.000272
0.000293
0.000278
0.000257
0.000269
0.000330
0.000293
0.000231
0.000254
0.000254
0.000304
0.000450
0.000056
0.000240
0.000475
0.000263
0.000265
0.000245
0.000245
0.000210
0.000254
0.000249
0.000261
0.001523
0.000219
0.000235
0.000244
0.000244
0.000282
0.000276
0.000235
0.000277
0.000260
0.000261
0.000476
0.000510
0.000241
0.000267
0.000290
0.000264
0.000263
0.000235
0.000309
0.000161
0.000055
0.000187
0.000225
0.000327
0.000414
0.000382
0.000274
0.000219
0.000249
0.000243
0.000253
0.000258
0.000226
0.000263
0.000260
0.000246
0.000236
0.000453
0.001162
0.000238
0.000244
0.000285
0.000243
0.000365
0.000411
0.000254
0.000343
0.000554
0.000353
0.000381
0.000229
0.000181
0.000056
0.000221
0.000245
0.000262
0.000262
0.000257
0.000246
0.000395
0.000361
0.000411
0.000306
0.000362
0.000392
0.000390
0.000361
0.000254
0.000237
0.000246
0.000258
0.000367
0.001458
0.000297
0.000217
0.000276
0.000276
0.000237
0.000234
0.000286
0.000301
0.000454
0.000393
0.000267
0.000056
0.000207
0.000236
0.000249
0.000240
0.000250
0.000242
0.000245
0.000255
0.000317
0.000398
0.000408
0.000343
0.000240
0.000230
0.000263
0.000253
0.000246
0.000265
0.000266
0.000246
0.000446
0.000250
0.000370
0.000427
0.000314
0.000253
0.000267
0.000274
0.000248
0.000349
0.000153
0.000055
0.000311
0.000315
0.000351
0.000323
0.000468
0.000338
0.000257
0.000243
0.000242
0.000280
0.000257
0.000263
0.000237
0.000246
0.000250
0.000237
0.000257
0.000364
0.000515
0.000319
0.000231
0.000273
0.000239
0.000247
0.000263
0.000281
0.000260
0.000270
0.000280
0.000267
0.000340
0.000056
0.000359
0.000230
0.000230
0.000245
0.000246
0.000245
0.000245
0.000257
0.000265
0.000257
0.000253
0.000234
0.000400
0.000382
0.000438
0.000284
0.000244
0.000246
0.000261
0.000265
0.000255
0.000264
0.000266
0.000255
0.000271
0.000348
0.000453
0.000525
0.000417
0.000242
0.000182
0.000056
0.000356
0.000199
0.000236
0.000247
0.000250
0.000249
0.000244
0.000245
0.000277
0.000236
0.000241
0.000224
0.000277
0.000227
0.000238
0.000268
0.000248
0.000264
0.000275
0.000256
0.000262
0.000262
0.000262
0.000263
0.000272
0.000232
0.000272
0.000276
0.000255
0.000280
0.000195
0.000056
0.000190
0.000235
0.000244
0.000256
0.000229
0.000257
0.000257
0.000243
0.000256
0.000282
0.000220
0.000233
0.000266
0.000404
0.000246
0.000278
0.000262
0.000264
0.000251
0.000284
0.000275
0.000229
0.000257
0.000245
0.000278
0.000267
0.000248
0.000252
0.000275
0.000260
0.000203
0.000056
0.000219
0.000357
0.000370
0.000282
0.000296
0.000273
0.000248
0.000262
0.000217
0.000247
0.000248
0.000263
0.000251
0.000236
0.000259
0.000258
0.000262
0.000271
0.000254
0.000254
0.000273
0.000268
0.000276
0.000259
0.000271
0.000244
0.000263
0.000268
0.000270
0.000263
0.000195
0.000055
0.000199
0.000229
0.000263
0.000263
0.000486
0.000211
0.000213
0.000247
0.000286
0.000525
0.000412
0.000278
0.000227
0.000252
0.000265
0.000271
0.000234
0.000270
0.000259
0.000265
0.000271
0.000257
0.000257
0.000319
0.000656
0.000339
0.000259
0.000314
0.000258
0.000265
0.000175
0.000056
0.000220
0.000227
0.000242
0.000249
0.000368
0.000609
0.000311
0.000373
0.000225
0.000233
0.000257
0.000251
0.000272
0.000232
0.000259
0.000272
0.000255
0.000253
0.000638
0.000372
0.000303
0.000248
0.000259
0.000287
0.000281
0.000253
0.000262
0.000274
0.000249
0.000334
0.000335
0.000056
0.000259
0.000229
0.000237
0.000246
0.000250
0.000263
0.000220
0.000248
0.000243
0.000262
0.000244
0.000251
0.000245
0.000525
0.000520
0.000318
0.000235
0.000255
0.000258
0.000248
0.000264
0.000270
0.000491
0.000225
0.000261
0.000603
0.000413
0.000481
0.000254
0.000247
0.000186
0.000055
0.000200
0.000248
0.000229
0.000240
0.000258
0.000257
0.000324
0.000591
0.000417
0.000415
0.000219
0.000262
0.000274
0.000278
0.000256
0.000246
0.000254
0.000236
0.000257
0.000367
0.000359
0.000655
0.000365
0.000260
0.000365
0.000375
0.000476
0.000256
0.000257
0.000391
0.000396
0.000056
0.000276
0.000229
0.000435
0.000215
0.000234
0.000259
0.000262
0.000259
0.000232
0.000246
0.000322
0.000356
0.000375
0.000314
0.000242
0.000244
0.000255
0.000256
0.000259
0.000279
0.000272
0.000254
0.000255
0.000271
0.000349
0.000433
0.000511
0.000230
0.000252
0.000271
0.000212
0.000056
0.000220
0.000263
0.000223
0.000247
0.000250
0.000257
0.000374
0.000443
0.000375
0.000291
0.000368
0.000219
0.000250
0.000265
0.000254
0.000240
0.000273
0.000240
0.000311
0.000378
0.000521
0.000308
0.000462
0.000282
0.000423
0.000390
0.000377
0.000261
0.000227
0.000323
0.000317
0.000055
0.000218
0.000282
0.000224
0.000251
0.000259
0.000256
0.000251
0.000245
0.000261
0.000256
0.000245
0.000362
0.000460
0.000346
0.000384
0.000216
0.000263
0.000270
0.000261
0.000240
0.000251
0.000249
0.000266
0.000292
0.000260
0.000324
0.000497
0.000482
0.000238
0.000273
0.000192
0.000056
0.000224
0.000239
0.000268
0.000238
0.000261
0.000337
0.000497
0.000475
0.000364
0.000682
0.000273
0.000212
0.000241
0.000260
0.000246
0.000266
0.000296
0.000262
0.000475
0.000429
0.001495
0.000324
0.000243
0.000261
0.000293
0.000275
0.000427
0.000374
0.000381
0.000305
0.000164
0.000055
0.000212
0.000237
0.000245
0.000249
0.000235
0.000257
0.000276
0.000247
0.000247
0.000344
0.000322
0.000384
0.000286
0.000354
0.000411
0.000292
0.000253
0.000236
0.000266
0.000259
0.000244
0.000256
0.000282
0.000247
0.000314
0.000438
0.000427
0.000307
0.000250
0.000263
0.000188
0.000055
0.000234
0.000245
0.000259
0.000254
0.000234
0.000245
0.000470
0.000211
0.000233
0.000255
0.000245
0.000256
0.000257
0.000254
0.000245
0.000273
0.000258
0.000265
0.000276
0.000259
0.000260
0.000288
0.000292
0.000246
0.000268
0.000276
0.000268
0.000266
0.000261
0.000275
0.000166
0.000056
0.000232
0.000267
0.000285
0.000420
0.000397
0.000231
0.000233
0.000247
0.000261
0.000246
0.000251
0.000254
0.000266
0.000263
0.000239
0.000246
0.000242
0.000267
0.000284
0.000357
0.000376
0.000441
0.000229
0.000268
0.000267
0.000249
0.000267
0.000252
0.000263
0.000299
0.000186
0.000056
0.000372
0.000470
0.000350
0.000203
0.000255
0.000255
0.000412
0.000210
0.000240
0.000257
0.000259
0.000335
0.000314
0.000432
0.001862
0.000256
0.000253
0.000244
0.000276
0.000257
0.000304
0.000508
0.000590
0.000278
0.000233
0.000255
0.000278
0.000429
0.000277
0.000280
0.000166
0.000056
0.000233
0.000355
0.000336
0.000319
0.000499
0.000200
0.000247
0.000253
0.000250
0.000235
0.000262
0.000249
0.000259
0.000302
0.000436
0.000472
0.000207
0.000255
0.000264
0.000253
0.000266
0.000323
0.000223
0.000281
0.000279
0.000569
0.000387
0.000639
0.000229
0.000224
0.000199
0.000055
0.000203
0.000231
0.000257
0.000230
0.000255
0.000250
0.000266
0.000268
0.000375
0.000338
0.000440
0.000355
0.000217
0.000254
0.000260
0.000276
0.000304
0.000240
0.000279
0.000275
0.000238
0.000406
0.000393
0.000353
0.000294
0.000241
0.000265
0.000430
0.000418
0.000325
0.000165
0.000056
0.000228
0.000230
0.000347
0.000425
0.000366
0.000199
0.000246
0.000253
0.000259
0.000253
0.000268
0.000251
0.000228
0.000257
0.000260
0.000336
0.000396
0.000316
0.000300
0.000334
0.000497
0.000225
0.000282
0.000281
0.000304
0.000280
0.000251
0.000278
0.000460
0.000555
0.000156
0.000056
0.000192
0.000234
0.000248
0.000249
0.000240
0.000484
0.000220
0.000252
0.000265
0.000300
0.000587
0.000525
0.000206
0.000239
0.000245
0.000251
0.000253
0.000243
0.000268
0.000248
0.000260
0.000268
0.000379
0.000431
0.000329
0.000412
0.000296
0.000301
0.000315
0.000251
0.000187
0.000055
0.000204
0.000232
0.000260
0.000480
0.000323
0.000292
0.000266
0.000224
0.000246
0.000256
0.000259
0.000243
0.000251
0.000257
0.000257
0.000262
0.000252
0.000240
0.000261
0.000460
0.000380
0.000455
0.000233
0.000243
0.000278
0.000276
0.000260
0.000256
0.000262
0.000263
0.000197
0.000055
0.000303
0.000362
0.000458
0.000240
0.000222
0.000243
0.000338
0.000449
0.000279
0.000216
0.000244
0.000268
0.000261
0.000483
0.000393
0.000295
0.000224
0.000243
0.000252
0.000263
0.000275
0.000256
0.000272
0.000269
0.000260
0.000359
0.000339
0.000466
0.000255
0.000249
0.000178
0.000055
0.000212
0.000236
0.000246
0.000252
0.000255
0.000264
0.000233
0.000253
0.000246
0.000257
0.000258
0.000240
0.000262
0.001456
0.000228
0.000253
0.000266
0.000234
0.000284
0.000280
0.000260
0.000242
0.000271
0.000254
0.000270
0.000281
0.000258
0.000269
0.000256
0.000276
0.000193
0.000056
0.000215
0.000229
0.000257
0.000244
0.000237
0.000244
0.000286
0.000231
0.000231
0.000250
0.000248
0.000261
0.000260
0.000255
0.000249
0.000255
0.000250
0.000256
0.000277
0.000249
0.000260
0.000258
0.000256
0.000241
0.001303
0.000279
0.000615
0.000400
0.000314
0.000246
0.000190
0.000056
0.000212
0.000235
0.000250
0.000247
0.000411
0.000238
0.000234
0.000249
0.000253
0.000369
0.000446
0.000378
0.000194
0.000230
0.000267
0.000259
0.000259
0.000267
0.000239
0.000262
0.000256
0.000260
0.000347
0.000416
0.000438
0.000435
0.000226
0.000270
0.001374
0.000235
0.000182
0.000055
0.000430
0.000304
0.000327
0.000267
0.000218
0.000245
0.000224
0.000248
0.000259
0.000253
0.000252
0.000255
0.000277
0.000392
0.000448
0.000364
0.000341
0.000229
0.000237
0.000263
0.000269
0.000262
0.000264
0.000265
0.000274
0.000261
0.000452
0.000417
0.000453
0.000304
0.000149
0.000056
0.000223
0.000220
0.001265
0.000444
0.000427
0.000304
0.000379
0.000486
0.000283
0.000342
0.000226
0.000228
0.000255
0.000255
0.000248
0.000266
0.000362
0.000518
0.000334
0.000388
0.000250
0.000253
0.000271
0.000501
0.000226
0.000259
0.000261
0.000275
0.000427
0.000427
0.000288
0.000056
0.000394
0.000335
0.000205
0.000217
0.001621
0.000395
0.000312
0.000255
0.000241
0.000255
0.000228
0.000241
0.000243
0.000266
0.000252
0.000257
0.000237
0.000301
0.000394
0.000384
0.000437
0.000243
0.000258
0.000256
0.000257
0.000293
0.000252
0.000234
0.000271
0.000271
0.000206
0.000056
0.000363
0.000345
0.000226
0.000231
0.000246
0.000247
0.000254
0.000239
0.000254
0.000212
0.001388
0.000508
0.000248
0.000254
0.000237
0.000251
0.000273
0.000260
0.000237
0.000273
0.000269
0.000253
0.000262
0.000456
0.000445
0.000395
0.000224
0.000267
0.000283
0.000274
0.000178
0.000056
0.000230
0.000396
0.000225
0.000242
0.000323
0.000455
0.000335
0.000352
0.000469
0.000205
0.000234
0.000251
0.000263
0.000263
0.000259
0.001431
0.000344
0.000289
0.000234
0.000273
0.000283
0.000271
0.000226
0.000255
0.000256
0.000276
0.000440
0.000451
0.000374
0.000209
0.000146
0.000056
0.000203
0.000240
0.000257
0.000234
0.000233
0.000256
0.000242
0.000244
0.000304
0.000325
0.000444
0.000304
0.000256
0.000246
0.000248
0.000277
0.000264
0.000259
0.000270
0.000232
0.000271
0.000346
0.001202
0.000261
0.000255
0.000245
0.000258
0.000268
0.000262
0.000259
0.000184
0.000055
0.000193
0.000402
0.000334
0.000350
0.000239
0.000239
0.000260
0.000264
0.000252
0.000247
0.000268
0.000261
0.000239
0.000256
0.000275
0.000244
0.000267
0.000268
0.000261
0.000252
0.000247
0.000271
0.000275
0.000280
0.000288
0.000268
0.000266
0.000249
0.000263
0.000454
0.001360
0.000057
0.000225
0.000234
0.000241
0.000242
0.000249
0.000261
0.000245
0.000231
0.000265
0.000235
0.000284
0.000241
0.000249
0.000247
0.000253
0.000257
0.001723
0.000255
0.000253
0.000244
0.000256
0.000253
0.000271
0.000259
0.000272
0.000259
0.000264
0.000281
0.000268
0.000255
0.000215
0.000055
0.000348
0.000322
0.001299
0.000217
0.000231
0.000252
0.000253
0.000253
0.000264
0.000255
0.000227
0.000339
0.000404
0.000441
0.000283
0.000225
0.000253
0.000257
0.000252
0.000268
0.000246
0.000268
0.000264
0.000279
0.000273
0.000429
0.000378
0.000320
0.000307
0.000241
0.000188
0.000056
0.000203
0.000255
0.000245
0.000247
0.000252
0.000218
0.000249
0.000239
0.000442
0.001329
0.000270
0.000214
0.000241
0.000266
0.000272
0.000257
0.000257
0.000257
0.000351
0.000451
0.000338
0.000218
0.000249
0.000245
0.000283
0.000275
0.000263
0.000299
0.000272
0.000277
0.000193
0.000055
0.000233
0.000441
0.000388
0.000224
0.000229
0.000235
0.000245
0.000277
0.000263
0.000250
0.000233
0.000247
0.000454
0.000553
0.000409
0.001467
0.000250
0.000264
0.000331
0.000347
0.000478
0.000418
0.000484
0.000387
0.000231
0.000266
0.000262
0.000276
0.000264
0.000274
0.000184
0.000055
0.000227
0.000254
0.000551
0.000355
0.000366
0.000236
0.000248
0.000228
0.000251
0.000263
0.000246
0.000264
0.000263
0.000242
0.000272
0.000302
0.000399
0.000382
0.000368
0.001321
0.000265
0.000255
0.000260
0.000262
0.000442
0.000453
0.000374
0.000257
0.000281
0.000270
0.000183
0.000055
0.000186
0.000249
0.000241
0.000246
0.000249
0.000271
0.000456
0.000370
0.000391
0.000218
0.000256
0.000248
0.000264
0.000260
0.000255
0.000271
0.000263
0.000259
0.000264
0.000273
0.000463
0.000427
0.000325
0.001350
0.000416
0.000238
0.000273
0.000391
0.000533
0.000284
0.000321
0.000055
0.000200
0.000235
0.000246
0.000250
0.000247
0.000253
0.001698
0.000227
0.000215
0.000244
0.000258
0.000251
0.000256
0.000327
0.000326
0.000291
0.000293
0.000299
0.000482
0.000395
0.000315
0.000281
0.000228
0.001413
0.000337
0.000349
0.000404
0.000462
0.000340
0.000294
0.000160
0.000056
0.000206
0.000245
0.000257
0.000255
0.000248
0.000252
0.001704
0.000239
0.000246
0.000259
0.000344
0.000407
0.001432
0.000369
0.000405
0.000225
0.000253
0.000237
0.000291
0.000248
0.001699
0.000475
0.000320
0.000296
0.000234
0.000252
0.000268
0.000287
0.000241
0.000253
0.000194
0.000055
0.000203
0.000243
0.000273
0.000244
0.000262
0.000272
0.000279
0.000255
0.000256
0.000253
0.000251
0.000250
0.000261
0.000266
0.000255
0.001498
0.000279
0.000237
0.000264
0.000268
0.000277
0.000273
0.000418
0.001262
0.000275
0.000238
0.000272
0.000255
0.000396
0.000262
0.000187
0.000055
0.000219
0.000252
0.000227
0.000235
0.000265
0.000211
0.000235
0.001688
0.000257
0.000227
0.000269
0.000355
0.000230
0.000219
0.000249
0.001387
0.000233
0.000275
0.000257
0.000253
0.000246
0.000364
0.000271
0.001315
0.000268
0.000259
0.000256
0.000267
0.001387
0.000276
0.000209
0.000056
0.000217
0.000353
0.000201
0.000248
0.000250
0.000238
0.000268
0.000265
0.000268
0.000248
0.000258
0.000269
0.000249
0.000244
0.000329
0.001484
0.000249
0.000265
0.000257
0.000245
0.000283
0.000275
0.000235
0.001513
0.000348
0.000233
0.000265
0.001285
0.000268
0.000235
0.000265
0.000057
0.000212
0.000427
0.000301
0.000214
0.000242
0.000241
0.000259
0.000262
0.000258
0.000276
0.000258
0.000232
0.000261
0.000274
0.000417
0.001217
0.000232
0.000246
0.000273
0.000274
0.000231
0.000238
0.000252
0.000363
0.001253
0.000239
0.000251
0.000259
0.000257
0.001342
0.000302
0.000056
0.000339
0.000223
0.000232
0.000233
0.000238
0.000254
0.000242
0.000262
0.000260
0.000254
0.000244
0.000268
0.000258
0.000290
0.000437
0.001463
0.000211
0.000260
0.000297
0.000506
0.000301
0.000365
0.001367
0.000286
0.000243
0.000274
0.000253
0.001311
0.000294
0.000522
0.000298
0.000056
0.000232
0.000252
0.000253
0.000255
0.000253
0.000253
0.000271
0.000247
0.000265
0.000265
0.000297
0.000490
0.001329
0.000239
0.000264
0.000257
0.000282
0.000228
0.000242
0.000255
0.000324
0.001239
0.000253
0.000259
0.000247
0.000253
0.001500
0.000403
0.000518
0.000218
0.000189
0.000056
0.000206
0.000229
0.000254
0.000243
0.000242
0.000264
0.000240
0.000286
0.000530
0.000382
0.000248
0.001493
0.000209
0.000245
0.000269
0.000250
0.000265
0.000273
0.001707
0.000254
0.000399
0.000333
0.001243
0.000374
0.000318
0.000355
0.000212
0.000267
0.000269
0.000269
0.000192
0.000055
0.000192
0.000234
0.000326
0.000257
0.000322
0.000527
0.000287
0.000292
0.001465
0.000242
0.000386
0.000261
0.000225
0.000340
0.000343
0.001326
0.000272
0.000244
0.000240
0.000267
0.001521
0.000365
0.000279
0.000292
0.000259
0.000241
0.000475
0.000318
0.000224
0.000253
0.000280
0.000055
0.000244
0.000369
0.000322
0.000268
0.000225
0.001517
0.000210
0.000259
0.000267
0.000271
0.000265
0.000243
0.000334
0.001444
0.000262
0.000228
0.000437
0.001196
0.000349
0.000440
0.000392
0.000237
0.000242
0.000256
0.000272
0.000241
0.000448
0.000232
0.000269
0.000278
0.000205
0.000071
0.000191
0.000358
0.000261
0.000340
0.001319
0.000275
0.000313
0.000233
0.000246
0.000245
0.000249
0.000295
0.001516
0.000267
0.000228
0.000246
0.001394
0.000278
0.000451
0.000389
0.000395
0.000223
0.000247
0.000262
0.000261
0.000275
0.000277
0.000254
0.000267
0.000250
0.000196
0.000056
0.000189
0.000425
0.001423
0.000209
0.000280
0.000275
0.000244
0.000246
0.000285
0.000359
0.001395
0.000221
0.000252
0.000261
0.000252
0.001279
0.000688
0.000317
0.000314
0.000407
0.000298
0.000239
0.000260
0.000267
0.000272
0.000287
0.000270
0.000289
0.000509
0.000373
0.001373
0.000056
0.000227
0.000235
0.000240
0.000227
0.000259
0.000394
0.000491
0.001290
0.000244
0.000246
0.000251
0.001449
0.000432
0.000318
0.000218
0.000405
0.000251
0.000239
0.000268
0.000276
0.000263
0.000260
0.000276
0.000251
0.000258
0.000305
0.000399
0.000500
0.001492
0.000226
0.000185
0.000055
0.000216
0.000258
0.000420
0.000494
0.001214
0.000277
0.000256
0.000258
0.000243
0.000254
0.000256
0.000268
0.000377
0.000458
0.000351
0.000237
0.000256
0.000272
0.000243
0.000273
0.000260
0.000265
0.000256
0.000268
0.000260
0.000328
0.000527
0.000369
0.000318
0.001400
0.000176
0.000055
0.000208
0.000244
0.000264
0.000524
0.000278
0.000311
0.000314
0.000338
0.000263
0.000261
0.000257
0.000263
0.000257
0.000305
0.000236
0.000259
0.000606
0.000301
0.000288
0.000389
0.000274
0.000403
0.000224
0.000259
0.000258
0.000260
0.000264
0.000294
0.000361
0.000483
0.000294
0.000055
0.000188
0.001400
0.000250
0.000329
0.000403
0.000447
0.000360
0.000303
0.000221
0.000237
0.000265
0.000245
0.000265
0.000270
0.000261
0.000256
0.000263
0.001363
0.000252
0.000254
0.000259
0.000268
0.000272
0.000280
0.000270
0.000254
0.000276
0.000243
0.000366
0.000347
0.000298
0.000056
0.000206
0.000257
0.000223
0.001489
0.000331
0.000240
0.000225
0.000251
0.000229
0.000253
0.000246
0.000276
0.000249
0.000250
0.000270
0.000246
0.000251
0.000271
0.000259
0.000257
0.001439
0.000235
0.000241
0.000258
0.000261
0.000253
0.000269
0.000260
0.000280
0.000486
0.000342
0.000056
0.000195
0.000236
0.000395
0.000279
0.000248
0.000255
0.001552
0.000328
0.000292
0.000225
0.000261
0.000308
0.000331
0.000232
0.000230
0.000249
0.000252
0.000260
0.000259
0.000253
0.000486
0.000583
0.001052
0.000273
0.000227
0.000263
0.000264
0.000257
0.000276
0.000255
0.000426
0.000055
0.000385
0.000190
0.000205
0.000242
0.000254
0.000236
0.000251
0.000230
0.000286
0.001591
0.000395
0.000276
0.000242
0.000248
0.000263
0.000242
0.000259
0.000269
0.000271
0.000304
0.000308
0.000540
0.000395
0.001370
0.000234
0.000260
0.000274
0.000257
0.000273
0.000312
0.000479
0.000055
0.000239
0.000239
0.000241
0.000234
0.000229
0.000241
0.000259
0.000254
0.000265
0.001607
0.000318
0.000256
0.000264
0.000261
0.000467
0.000258
0.000524
0.000379
0.000299
0.000332
0.000429
0.000481
0.001262
0.000263
0.000230
0.000257
0.001703
0.000472
0.000595
0.000326
0.000156
0.000056
0.000202
0.000235
0.000234
0.000239
0.000256
0.000241
0.000247
0.000541
0.000476
0.000403
0.000290
0.000208
0.000251
0.000262
0.000262
0.000265
0.000244
0.000257
0.000251
0.000276
0.000313
0.000424
0.001304
0.000216
0.000266
0.000259
0.001967
0.000312
0.000378
0.000345
0.000173
0.000056
0.000184
0.000229
0.000246
0.001645
0.000347
0.000214
0.000235
0.000263
0.000267
0.000275
0.000380
0.000367
0.000364
0.000269
0.000277
0.000541
0.000397
0.001198
0.000269
0.000224
0.000257
0.000262
0.000274
0.000569
0.000374
0.000558
0.000228
0.000272
0.000263
0.000282
0.000192
0.000055
0.000203
0.000230
0.000240
0.001588
0.000205
0.000235
0.000243
0.000249
0.000245
0.000255
0.000254
0.000265
0.000271
0.000273
0.000268
0.000387
0.000399
0.000350
0.001425
0.000214
0.000252
0.000261
0.000257
0.000265
0.000377
0.000571
0.000362
0.000273
0.000281
0.000231
0.000437
0.000057
0.000198
0.000243
0.000250
0.001520
0.000323
0.000218
0.000266
0.000242
0.000257
0.000260
0.000252
0.000256
0.000268
0.000251
0.000321
0.000605
0.001361
0.000771
0.000241
0.000347
0.000251
0.000223
0.000251
0.000271
0.001676
0.000821
0.000223
0.000258
0.000276
0.000289
0.000182
0.000055
0.000223
0.000235
0.000251
0.000246
0.000254
0.000245
0.000238
0.000260
0.000238
0.000250
0.000270
0.000285
0.000251
0.000251
0.000259
0.000252
0.000271
0.001599
0.000707
0.000423
0.000277
0.000215
0.000248
0.000280
0.000269
0.000259
0.000275
0.000251
0.001394
0.000394
0.000292
0.000056
0.000186
0.000231
0.000260
0.000245
0.000263
0.000232
0.000253
0.000251
0.000251
0.000269
0.000295
0.000399
0.000441
0.000333
0.000212
0.000247
0.000260
0.001395
0.000697
0.000464
0.000335
0.000277
0.000230
0.000248
0.000271
0.000253
0.000262
0.000263
0.001510
0.000418
0.000181
0.000055
0.000225
0.000227
0.000249
0.000247
0.000249
0.000246
0.000248
0.000251
0.000260
0.000276
0.000366
0.000442
0.000259
0.000211
0.000242
0.000252
0.000260
0.000261
0.001562
0.000628
0.000473
0.000318
0.000224
0.000267
0.000258
0.000259
0.000270
0.000280
0.000267
0.001390
0.000297
0.000056
0.000212
0.000219
0.000235
0.000253
0.000255
0.000246
0.000268
0.000294
0.000361
0.000448
0.000366
0.000355
0.000395
0.000210
0.000238
0.000251
0.000278
0.000257
0.000271
0.001961
0.000296
0.000238
0.000437
0.000251
0.000247
0.000265
0.000265
0.000260
0.000273
0.000268
0.000408
0.000057
0.000189
0.000293
0.000228
0.000241
0.000250
0.000252
0.000224
0.000242
0.000268
0.000250
0.000242
0.000235
0.000377
0.000426
0.000399
0.000448
0.000219
0.000261
0.000251
0.000257
0.000256
0.000284
0.001474
0.001055
0.000216
0.000248
0.000270
0.000261
0.000276
0.000256
0.000188
0.000055
0.000202
0.001341
0.000293
0.000224
0.000229
0.000249
0.000255
0.000237
0.000250
0.000243
0.000256
0.000264
0.000238
0.000416
0.000343
0.000413
0.000306
0.000254
0.000264
0.000266
0.000271
0.000224
0.000262
0.000268
0.001319
0.000708
0.000290
0.000380
0.000383
0.000397
0.000297
0.000055
0.000197
0.000273
0.001398
0.000248
0.000220
0.000244
0.000229
0.000258
0.000258
0.000255
0.000244
0.000254
0.000258
0.000388
0.000536
0.000313
0.000221
0.000277
0.000331
0.000218
0.000251
0.000269
0.000233
0.000274
0.000286
0.001522
0.000737
0.000298
0.000277
0.000274
0.000187
0.000055
0.000220
0.000321
0.000393
0.000320
0.001307
0.000252
0.000225
0.000245
0.000229
0.000247
0.000248
0.000255
0.000230
0.000238
0.000254
0.000260
0.000267
0.000235
0.000260
0.000252
0.000268
0.000263
0.000305
0.000339
0.000213
0.000267
0.000263
0.001458
0.000259
0.000243
0.000173
0.000056
0.000192
0.000229
0.000255
0.000275
0.000349
0.000379
0.000389
0.000264
0.001574
0.000244
0.000335
0.000506
0.000279
0.000248
0.000426
0.000240
0.000230
0.000281
0.000264
0.000269
0.000278
0.000269
0.000257
0.000272
0.000277
0.000390
0.000379
0.000340
0.001584
0.000229
0.000194
0.000056
0.000229
0.000244
0.000247
0.000242
0.000244
0.000248
0.000261
0.000271
0.000434
0.002049
0.000236
0.000241
0.000250
0.000261
0.000262
0.000250
0.000280
0.000245
0.000378
0.000311
0.000357
0.000483
0.001439
0.000248
0.000540
0.000223
0.001774
0.000234
0.000271
0.001522
0.000150
0.000056
0.000430
0.000299
0.000478
0.000240
0.000262
0.000220
0.000265
0.000270
0.000260
0.000233
0.000248
0.000336
0.000408
0.000355
0.000442
0.000232
0.000231
0.001562
0.000230
0.000591
0.001874
0.000295
0.000233
0.001595
0.001966
0.000741
0.000275
0.000254
0.000311
0.000442
0.000321
0.000056
0.000194
0.000246
0.000248
0.000249
0.001415
0.001741
0.001072
0.000214
0.000230
0.001577
0.001980
0.000208
0.000245
0.000424
0.000390
0.000313
0.000369
0.000480
0.000216
0.000243
0.000245
0.000257
0.000268
0.001596
0.001213
0.001420
0.000262
0.000314
0.000252
0.000285
0.000431
0.000057
0.000226
0.000204
0.000236
0.000242
0.000232
0.000242
0.000251
0.000248
0.000259
0.000249
0.000257
0.000309
0.000552
0.000332
0.000289
0.000255
0.000249
0.000269
0.000265
0.000272
0.000254
0.000263
0.001503
0.000494
0.002102
0.000230
0.000266
0.000364
0.000438
0.000365
0.000206
0.000058
0.000218
0.000407
0.000430
0.000310
0.000196
0.000228
0.000253
0.000245
0.000238
0.000246
0.000248
0.000259
0.000269
0.001602
0.001361
0.001216
0.000277
0.000235
0.000243
0.000280
0.000280
0.000281
0.000241
0.000253
0.002203
0.000262
0.000239
0.000297
0.000326
0.000305
0.000242
0.000055
0.000217
0.000344
0.000575
0.000305
0.000235
0.000233
0.000252
0.000269
0.001906
0.001407
0.000226
0.000331
0.000386
0.000421
0.000252
0.000219
0.000259
0.000260
0.000272
0.000270
0.000262
0.000245
0.000483
0.000229
0.000278
0.000266
0.000255
0.000275
0.000279
0.000247
0.000204
0.000056
0.000214
0.000241
0.000245
0.000243
0.000252
0.000271
0.001545
0.001420
0.001319
0.000240
0.000235
0.000243
0.000265
0.000262
0.000242
0.000259
0.000248
0.002097
0.000264
0.000222
0.000272
0.000262
0.000253
0.000268
0.000284
0.000248
0.000257
0.000256
0.000279
0.000250
0.000180
0.000056
0.000203
0.002690
0.001381
0.000224
0.000308
0.000294
0.000233
0.000268
0.000255
0.000243
0.000249
0.000247
0.000238
0.000249
0.000263
0.000260
0.000270
0.000260
0.000257
0.000269
0.000264
0.000283
0.000274
0.000263
0.000252
0.000263
0.000247
0.000272
0.000255
0.000270
0.000372
0.000055
0.001556
0.000249
0.001245
0.000227
0.000225
0.000240
0.000262
0.000253
0.000245
0.000275
0.000377
0.000397
0.000310
0.000216
0.000255
0.002140
0.000243
0.000247
0.000261
0.000564
0.000295
0.000331
0.000233
0.000250
0.000265
0.000249
0.000265
0.000273
0.000277
0.001600
0.001264
0.000056
0.000198
0.000229
0.000269
0.000432
0.000390
0.000245
0.000212
0.000232
0.000252
0.000256
0.000267
0.000244
0.000229
0.000259
0.000260
0.000240
0.000288
0.000647
0.000362
0.000255
0.000218
0.000276
0.000276
0.000254
0.000249
0.000253
0.000264
0.000275
0.000239
0.000328
0.000357
0.000057
0.001106
0.000214
0.000362
0.000445
0.000302
0.000223
0.000232
0.000258
0.000232
0.002361
0.000302
0.000390
0.000216
0.000377
0.000283
0.000259
0.000262
0.000256
0.000273
0.000224
0.000253
0.000420
0.000448
0.000456
0.001879
0.001327
0.000462
0.000584
0.000227
0.000278
0.000208
0.000056
0.000299
0.000309
0.000243
0.000242
0.000246
0.000229
0.000255
0.000254
0.000254
0.000249
0.000253
0.000227
0.000250
0.000259
0.000374
0.000510
0.001856
0.001332
0.000471
0.000397
0.000455
0.000244
0.000242
0.000260
0.002183
0.000508
0.000392
0.000228
0.000269
0.000293
0.000179
0.000055
0.000207
0.000240
0.000256
0.000241
0.000248
0.000361
0.000398
0.000295
0.000309
0.000236
0.000248
0.000247
0.000289
0.002081
0.000335
0.000423
0.000218
0.000247
0.000265
0.000263
0.000252
0.002464
0.000330
0.000223
0.000260
0.000253
0.000256
0.000273
0.000280
0.000283
0.000189
0.000055
0.000198
0.000445
0.000432
0.000381
0.000256
0.000223
0.000225
0.000259
0.000280
0.000230
0.001964
0.000382
0.000281
0.000289
0.000220
0.000261
0.000275
0.000248
0.002200
0.000454
0.000219
0.000262
0.000266
0.000261
0.000260
0.000247
0.000283
0.000250
0.000270
0.000253
0.000194
0.000055
0.000214
0.000236
0.000252
0.000217
0.000245
0.000263
0.000238
0.000247
0.000245
0.002157
0.000238
0.000291
0.000207
0.000419
0.000242
0.000240
0.000282
0.000289
0.000239
0.000266
0.001963
0.000290
0.000382
0.000367
0.000388
0.000399
0.000310
0.000246
0.000248
0.000269
0.000186
0.000056
0.000211
0.000250
0.000216
0.000252
0.000246
0.000325
0.000246
0.002273
0.000236
0.000251
0.000257
0.000258
0.000240
0.000250
0.000305
0.002111
0.000604
0.000216
0.000257
0.000247
0.000259
0.000262
0.000288
0.000264
0.000264
0.000252
0.000288
0.000252
0.000267
0.000262
0.000190
0.000055
0.001826
0.001429
0.000204
0.000225
0.000248
0.000249
0.000253
0.000331
0.000400
0.000281
0.002185
0.000261
0.000236
0.000265
0.000257
0.000577
0.000356
0.000295
0.000228
0.000253
0.000242
0.000269
0.000264
0.000229
0.000255
0.000266
0.000274
0.000258
0.000351
0.000727
0.000225
0.000056
0.000197
0.000252
0.000249
0.000265
0.000260
0.000264
0.000233
0.000237
0.001473
0.002126
0.000586
0.000291
0.000393
0.000688
0.000357
0.000236
0.000254
0.000249
0.000263
0.000259
0.000262
0.000236
0.000265
0.000257
0.001827
0.001460
0.000285
0.000275
0.000277
0.000257
0.000429
0.000057
0.001924
0.000235
0.000224
0.000233
0.000275
0.000370
0.000445
0.000414
0.000181
0.000230
0.000238
0.000252
0.000261
0.000254
0.000275
0.000250
0.000249
0.000269
0.001838
0.000243
0.000232
0.000254
0.000276
0.000275
0.000272
0.000256
0.001490
0.000306
0.000256
0.000250
0.000182
0.000056
0.000204
0.000222
0.000240
0.000249
0.000253
0.000235
0.000314
0.000361
0.000320
0.000405
0.000211
0.000240
0.000258
0.000333
0.000430
0.000314
0.000221
0.000249
0.000258
0.000423
0.000401
0.000460
0.000241
0.000256
0.000258
0.000257
0.000251
0.000268
0.000280
0.000265
0.000194
0.000056
0.001459
0.000443
0.000210
0.001931
0.000305
0.000386
0.000443
0.000314
0.000235
0.000245
0.000264
0.000244
0.000252
0.000246
0.000266
0.000260
0.000441
0.000292
0.000525
0.000254
0.000369
0.000213
0.000262
0.000267
0.000266
0.000269
0.000267
0.000267
0.000376
0.000476
0.001348
0.000056
0.000216
0.000219
0.002075
0.000318
0.000295
0.000258
0.000273
0.000237
0.000260
0.000261
0.000210
0.000253
0.000258
0.000261
0.000295
0.000330
0.000707
0.001762
0.000226
0.000246
0.000253
0.000266
0.000382
0.000477
0.001545
0.000272
0.000364
0.001930
0.000269
0.000242
0.000195
0.000056
0.000213
0.000226
0.000234
0.000244
0.000232
0.000250
0.000253
0.000301
0.000312
0.000277
0.000379
0.000363
0.000334
0.000303
0.000247
0.000254
0.000268
0.000234
0.000265
0.000247
0.000302
0.000287
0.000269
0.000268
0.000263
0.001516
0.000286
0.000394
0.002058
0.000224
0.000191
0.000056
0.000197
0.000237
0.000237
0.000244
0.000479
0.000213
0.000250
0.000327
0.000379
0.000323
0.000284
0.000221
0.000264
0.000262
0.000273
0.000329
0.000383
0.000467
0.000250
0.000396
0.000551
0.000458
0.001556
0.000239
0.000239
0.002002
0.000312
0.000251
0.000240
0.000291
0.000186
0.000056
0.000184
0.000243
0.000226
0.000241
0.000257
0.000269
0.000251
0.000273
0.000245
0.000269
0.001809
0.000326
0.000377
0.000359
0.000435
0.000370
0.000295
0.001495
0.000246
0.000273
0.002170
0.000518
0.000259
0.000254
0.000245
0.000267
0.000501
0.000223
0.000261
0.000274
0.000197
0.000055
0.000241
0.000299
0.000386
0.000285
0.000207
0.000239
0.000254
0.000259
0.000263
0.000295
0.000228
0.000244
0.000262
0.000264
0.000364
0.001493
0.000319
0.000206
0.000277
0.001994
0.000269
0.000306
0.000236
0.000267
0.000247
0.000280
0.000271
0.000264
0.000245
0.000267
0.000202
0.000055
0.000222
0.000431
0.002036
0.000248
0.000256
0.000221
0.000247
0.000338
0.000385
0.000442
0.001312
0.000381
0.000344
0.002080
0.000210
0.000245
0.000265
0.000276
0.000253
0.000247
0.000281
0.000298
0.000255
0.000363
0.000493
0.000352
0.000323
0.002220
0.000560
0.000390
0.000413
0.000056
0.000197
0.000229
0.000240
0.001966
0.000234
0.000221
0.000247
0.000238
0.000261
0.000242
0.000258
0.000246
0.000245
0.000275
0.000459
0.001469
0.000246
0.000239
0.000282
0.000246
0.000238
0.000252
0.000255
0.000277
0.000377
0.000493
0.000378
0.000235
0.001606
0.000277
0.000161
0.000055
0.000204
0.000228
0.000243
0.000238
0.000250
0.000251
0.000253
0.000242
0.000263
0.000526
0.000229
0.001399
0.000247
0.000211
0.000273
0.000242
0.000257
0.000252
0.000494
0.000318
0.000435
0.000382
0.000229
0.001576
0.000222
0.000266
0.000283
0.000277
0.000272
0.000265
0.000182
0.000056
0.000208
0.000236
0.000257
0.000267
0.000248
0.000259
0.000220
0.000245
0.000258
0.000240
0.000251
0.000257
0.000252
0.001484
0.000365
0.000212
0.000270
0.000243
0.000307
0.000283
0.000420
0.000226
0.000241
0.000263
0.000261
0.000266
0.000257
0.001416
0.000282
0.000231
0.000173
0.000055
0.000197
0.000221
0.000261
0.000268
0.000248
0.000234
0.000268
0.000245
0.000221
0.000266
0.000239
0.000259
0.000231
0.000354
0.000364
0.000327
0.000243
0.000251
0.001635
0.000229
0.000253
0.000258
0.000259
0.000328
0.000336
0.000398
0.000447
0.000259
0.000258
0.001609
0.000154
0.000056
0.000316
0.000365
0.000377
0.000269
0.000238
0.000223
0.000239
0.000275
0.000253
0.000238
0.000247
0.000259
0.001479
0.000298
0.000267
0.000222
0.000248
0.000259
0.000265
0.000264
0.000258
0.000232
0.000259
0.000269
0.000278
0.000411
0.000310
0.000440
0.000277
0.000257
0.000185
0.000056
0.000202
0.000306
0.000449
0.000250
0.000382
0.000283
0.000247
0.000251
0.000248
0.000260
0.000239
0.000226
0.000254
0.000258
0.001290
0.000246
0.000251
0.000245
0.000267
0.000268
0.000241
0.000260
0.000260
0.000251
0.000263
0.000260
0.000299
0.000687
0.000458
0.000247
0.000166
0.000055
0.000202
0.001560
0.000256
0.000314
0.000465
0.000383
0.000217
0.000256
0.000265
0.000243
0.000250
0.000256
0.000274
0.000269
0.000277
0.001501
0.000261
0.000286
0.000264
0.000262
0.000259
0.000247
0.000264
0.000265
0.000256
0.000269
0.000420
0.000346
0.000390
0.000233
0.000187
0.000055
0.000203
0.000248
0.000235
0.001609
0.000420
0.000346
0.000224
0.000249
0.000254
0.000265
0.000278
0.000258
0.000246
0.000262
0.000230
0.000269
0.000403
0.001321
0.000254
0.000236
0.001489
0.000314
0.000556
0.000413
0.000344
0.000234
0.000265
0.000476
0.000227
0.000257
0.000181
0.000056
0.000274
0.000222
0.000241
0.000250
0.000246
0.000259
0.000238
0.000254
0.000259
0.000237
0.000252
0.000264
0.000323
0.000499
0.001652
0.001491
0.000359
0.000514
0.000379
0.000212
0.000230
0.000255
0.000249
0.000270
0.000245
0.000267
0.000258
0.000269
0.001524
0.000329
0.000170
0.000056
0.000231
0.000354
0.000353
0.000330
0.000230
0.000224
0.000250
0.000300
0.000480
0.000372
0.002170
0.000317
0.000696
0.000490
0.000484
0.000265
0.000333
0.000400
0.000323
0.000282
0.000385
0.000243
0.001560
0.000524
0.000227
0.000253
0.000260
0.000249
0.000271
0.000258
0.000201
0.000055
0.000225
0.000242
0.000255
0.000251
0.000265
0.001638
0.000877
0.001000
0.000212
0.000249
0.000243
0.000270
0.000250
0.000256
0.000254
0.000252
0.000255
0.000263
0.000264
0.000275
0.001450
0.000298
0.000257
0.000224
0.000239
0.000260
0.000262
0.000280
0.000265
0.000285
0.001896
0.000056
0.000193
0.000228
0.001554
0.000855
0.000364
0.000370
0.000246
0.000227
0.000249
0.000253
0.000245
0.000252
0.000246
0.001985
0.000473
0.000245
0.000228
0.000253
0.000264
0.000260
0.000189
