0.000110
0.019883
0.001519
0.000283
0.000225
0.000249
0.000310
0.000257
0.000315
0.000291
0.000248
0.000391
0.000613
0.000389
0.000325
0.000340
0.000302
0.000363
0.000396
0.000414
0.000298
0.001882
0.000490
0.000435
0.000270
0.000293
0.000299
0.000401
0.000416
0.000370
0.000492
0.000294
0.000058
0.000197
0.000237
0.000269
0.000257
0.000277
0.000251
0.000283
0.000264
0.000271
0.000293
0.000406
0.000502
0.000285
0.000262
0.000403
0.000360
0.000358
0.000248
0.000219
0.001737
0.000287
0.000239
0.000489
0.000255
0.000256
0.000231
0.000295
0.000286
0.000284
0.000309
0.000460
0.000057
0.000239
0.000228
0.000258
0.000260
0.000255
0.000247
0.000264
0.000260
0.000275
0.001665
0.000241
0.000246
0.000249
0.000273
0.000278
0.000246
0.000292
0.000237
0.000338
0.001810
0.000263
0.000259
0.000433
0.000454
0.000408
0.000241
0.000239
0.000537
0.000377
0.000858
0.000172
0.000056
0.000215
0.000210
0.000262
0.000234
0.000311
0.000247
0.000404
0.000446
0.000461
0.000254
0.000215
0.000221
0.000229
0.000265
0.000252
0.000256
0.000242
0.000315
0.000243
0.000328
0.001757
0.000239
0.000238
0.000450
0.000651
0.000318
0.000621
0.000513
0.000358
0.000262
0.000209
0.000056
0.000207
0.000231
0.000258
0.000246
0.000253
0.000280
0.000230
0.000425
0.001512
0.000255
0.000239
0.000229
0.000259
0.000249
0.000262
0.000297
0.000384
0.000709
0.001354
0.000291
0.000256
0.000417
0.000259
0.000248
0.000243
0.000261
0.000261
0.000265
0.000269
0.000266
0.000213
0.000057
0.000200
0.000219
0.000241
0.000250
0.000261
0.000246
0.000242
0.000248
0.000245
0.000254
0.001691
0.000246
0.000224
0.000238
0.000226
0.000254
0.000236
0.000252
0.000266
0.000244
0.000265
0.001739
0.000244
0.000259
0.000461
0.000243
0.000245
0.000254
0.000246
0.000263
0.000204
0.000057
0.000200
0.000217
0.000235
0.000250
0.000235
0.000247
0.000259
0.000239
0.000260
0.000251
0.000263
0.000268
0.000244
0.000275
0.001621
0.000290
0.000284
0.000233
0.000249
0.000271
0.000272
0.000258
0.000247
0.000250
0.000271
0.001833
0.000388
0.000354
0.000271
0.000279
0.000212
0.000058
0.000187
0.000222
0.000238
0.000268
0.000260
0.000235
0.000316
0.000357
0.000435
0.000436
0.000212
0.000239
0.000253
0.000254
0.001634
0.000517
0.000359
0.000402
0.000238
0.000223
0.000280
0.000258
0.000275
0.001834
0.000468
0.000468
0.000225
0.000235
0.000228
0.000264
0.000203
0.000056
0.000202
0.000237
0.000237
0.000254
0.000417
0.000434
0.000381
0.000231
0.000202
0.000230
0.000285
0.000215
0.000256
0.001725
0.000450
0.000326
0.000230
0.000243
0.000264
0.000303
0.000234
0.000266
0.000263
0.001912
0.000302
0.000370
0.000245
0.000257
0.000296
0.000406
0.000315
0.000056
0.000214
0.000364
0.000397
0.000265
0.000262
0.000198
0.000250
0.000250
0.000250
0.000258
0.000217
0.000243
0.001611
0.000393
0.000268
0.000201
0.000221
0.000269
0.000236
0.000277
0.000271
0.000324
0.001798
0.000354
0.000225
0.000507
0.000206
0.000234
0.000255
0.000268
0.000276
0.000056
0.000389
0.000488
0.000668
0.000195
0.000207
0.000269
0.000234
0.000225
0.000256
0.000246
0.000258
0.001689
0.000278
0.000412
0.000388
0.000224
0.000236
0.000234
0.000239
0.000270
0.000241
0.001864
0.000253
0.000221
0.002270
0.000414
0.000263
0.000265
0.000262
0.000261
0.000211
0.000056
0.000202
0.000212
0.000236
0.000241
0.000279
0.001662
0.000208
0.000205
0.000255
0.000254
0.000248
0.000237
0.000254
0.000259
0.000261
0.000394
0.000673
0.000235
0.000234
0.000268
0.000275
0.000241
0.000244
0.000497
0.000437
0.000260
0.000330
0.000679
0.000333
0.000231
0.000199
0.000057
0.000197
0.000223
0.000255
0.000251
0.000242
0.000238
0.000461
0.000357
0.000311
0.001622
0.000264
0.000227
0.000246
0.000246
0.000251
0.000268
0.000484
0.000486
0.000372
0.000221
0.000235
0.000272
0.000324
0.000269
0.000249
0.000407
0.000425
0.000574
0.000476
0.000455
0.000134
0.000056
0.000199
0.000243
0.000225
0.000225
0.000237
0.000247
0.000248
0.000249
0.000238
0.000374
0.000329
0.001562
0.000283
0.000204
0.000215
0.000232
0.000243
0.000254
0.000243
0.000259
0.000266
0.000436
0.000422
0.000343
0.000230
0.000223
0.000276
0.000251
0.000268
0.000275
0.000418
0.000056
0.000192
0.000243
0.000212
0.000260
0.000564
0.000384
0.000267
0.000249
0.000220
0.000270
0.000244
0.000242
0.000279
0.000261
0.000236
0.000597
0.000351
0.001593
0.000272
0.000250
0.000258
0.000262
0.000256
0.000247
0.000249
0.000544
0.000459
0.000319
0.000363
0.000235
0.000208
0.000056
0.000220
0.000234
0.000410
0.000222
0.000263
0.000239
0.000269
0.000593
0.000367
0.000268
0.000238
0.000271
0.000275
0.000238
0.000597
0.000291
0.000205
0.000259
0.000425
0.001664
0.000247
0.000236
0.000303
0.000417
0.000274
0.000292
0.000260
0.000400
0.000480
0.000391
0.000273
0.000056
0.000220
0.000202
0.000235
0.000243
0.000476
0.000268
0.000285
0.000213
0.000403
0.000538
0.000369
0.000245
0.000204
0.000222
0.000258
0.000264
0.000253
0.000261
0.000239
0.000360
0.000279
0.000285
0.001876
0.000269
0.000234
0.000256
0.000301
0.000357
0.000500
0.000654
0.000416
0.000056
0.000252
0.000316
0.000337
0.000420
0.000313
0.000217
0.000248
0.000281
0.000492
0.000546
0.000216
0.000206
0.000215
0.000269
0.000267
0.000238
0.000245
0.000284
0.000262
0.000262
0.000267
0.000395
0.001766
0.000291
0.000357
0.000420
0.000389
0.000239
0.000443
0.000346
0.000420
0.000057
0.000229
0.000378
0.000300
0.000202
0.000227
0.000213
0.000474
0.000217
0.000214
0.000411
0.000400
0.000406
0.000253
0.000245
0.000265
0.000266
0.000369
0.000460
0.000290
0.000216
0.000229
0.000507
0.000520
0.001662
0.000269
0.000391
0.000331
0.000223
0.000250
0.000434
0.000364
0.000057
0.000182
0.000217
0.000239
0.000241
0.000243
0.000247
0.000261
0.000355
0.000417
0.000349
0.000444
0.000355
0.000295
0.000208
0.000526
0.000273
0.000272
0.000262
0.000241
0.000367
0.000226
0.000213
0.000279
0.000466
0.000546
0.001608
0.000229
0.000235
0.000245
0.000250
0.000207
0.000057
0.000263
0.000458
0.000385
0.000201
0.000236
0.000229
0.000265
0.000241
0.000250
0.000258
0.000216
0.000486
0.000274
0.000503
0.000366
0.000309
0.000231
0.000242
0.000353
0.000352
0.000370
0.000357
0.000386
0.000383
0.000237
0.000232
0.000247
0.000281
0.001773
0.000279
0.000202
0.000057
0.000183
0.000201
0.000257
0.000266
0.000345
0.000540
0.000364
0.000209
0.000231
0.000268
0.000257
0.000243
0.000545
0.000431
0.000466
0.000310
0.000269
0.000240
0.000432
0.000491
0.000370
0.000427
0.000489
0.000423
0.000240
0.000233
0.000265
0.000210
0.000262
0.001776
0.000281
0.000056
0.000270
0.000328
0.000214
0.000225
0.000245
0.000249
0.000269
0.000451
0.000424
0.000309
0.000304
0.000365
0.000277
0.000719
0.000289
0.000196
0.000215
0.000242
0.000264
0.000254
0.000273
0.000265
0.000248
0.000264
0.000313
0.000346
0.000580
0.000264
0.000214
0.000218
0.000203
0.000057
0.000468
0.000319
0.000453
0.000208
0.000194
0.000243
0.000249
0.000252
0.000247
0.000221
0.000243
0.000273
0.000302
0.000371
0.000550
0.000507
0.000257
0.000337
0.000372
0.000389
0.000266
0.000223
0.000228
0.000265
0.001815
0.000218
0.001751
0.000931
0.000397
0.000319
0.000155
0.000057
0.000212
0.000200
0.000249
0.000228
0.000256
0.000252
0.000250
0.000253
0.000250
0.000293
0.000388
0.000474
0.000344
0.000397
0.000230
0.000253
0.000269
0.000290
0.000206
0.000236
0.000257
0.000226
0.001861
0.000219
0.000222
0.000285
0.000255
0.000268
0.001856
0.000560
0.000309
0.000057
0.000186
0.000219
0.000214
0.000234
0.000253
0.000248
0.000242
0.000257
0.000252
0.000363
0.000606
0.000283
0.000381
0.000249
0.000236
0.000265
0.000378
0.000387
0.000375
0.000267
0.001801
0.000251
0.000224
0.000230
0.000246
0.000275
0.000241
0.000261
0.000247
0.000345
0.000452
0.000056
0.000258
0.000219
0.000199
0.000258
0.000254
0.000236
0.000259
0.000258
0.000241
0.000254
0.000245
0.000287
0.000328
0.000424
0.000327
0.000337
0.000473
0.000215
0.000210
0.000267
0.000260
0.000255
0.000279
0.000252
0.000278
0.001790
0.000275
0.000231
0.000264
0.000225
0.000218
0.000056
0.000253
0.000383
0.000223
0.000206
0.000231
0.000230
0.000256
0.000242
0.000248
0.000235
0.000220
0.000262
0.000258
0.000289
0.000500
0.000366
0.000337
0.000210
0.000221
0.000242
0.000264
0.000256
0.000252
0.000261
0.000259
0.000253
0.000281
0.001729
0.000231
0.000234
0.000184
0.000056
0.000195
0.000208
0.000247
0.000245
0.000367
0.000334
0.000464
0.000276
0.000223
0.000247
0.000250
0.000241
0.000248
0.000275
0.000245
0.000255
0.000252
0.000258
0.000245
0.000263
0.000264
0.000268
0.000259
0.000232
0.000241
0.000281
0.000292
0.000242
0.000257
0.000259
0.000212
0.000056
0.000211
0.000219
0.000241
0.000256
0.000242
0.000252
0.000244
0.000262
0.000346
0.000208
0.000199
0.000235
0.000264
0.000253
0.000274
0.000252
0.000253
0.000251
0.000370
0.000200
0.000251
0.000288
0.000278
0.000251
0.000265
0.000287
0.000265
0.000255
0.000257
0.000482
0.000545
0.000057
0.000228
0.000300
0.000222
0.000210
0.000206
0.000253
0.000247
0.000247
0.000247
0.000245
0.000266
0.000260
0.000509
0.000490
0.001597
0.000221
0.000512
0.000201
0.000299
0.000431
0.000434
0.000315
0.000245
0.000270
0.000256
0.000258
0.000282
0.000253
0.000302
0.000262
0.000224
0.000057
0.000335
0.000389
0.000382
0.000314
0.000190
0.000253
0.000248
0.000241
0.000239
0.000244
0.000252
0.000255
0.000242
0.000325
0.000328
0.000476
0.000372
0.001792
0.000279
0.000221
0.000389
0.000365
0.000489
0.000265
0.000374
0.000312
0.000254
0.000228
0.000227
0.000245
0.000217
0.000056
0.000212
0.000203
0.000246
0.000281
0.000335
0.000531
0.000307
0.000221
0.000260
0.000218
0.000240
0.000270
0.000263
0.000264
0.000249
0.000262
0.000290
0.000490
0.000373
0.000406
0.000250
0.001801
0.000285
0.000551
0.000523
0.000408
0.000291
0.000236
0.000240
0.000271
0.000498
0.000056
0.000185
0.000229
0.000249
0.000275
0.000426
0.000488
0.000403
0.000205
0.000206
0.000337
0.000224
0.000225
0.000250
0.000302
0.000359
0.000220
0.000200
0.000409
0.000455
0.000361
0.000523
0.001777
0.000253
0.000425
0.000508
0.000364
0.000238
0.000379
0.000236
0.000213
0.000207
0.000056
0.000215
0.000331
0.000359
0.000338
0.000368
0.000278
0.000393
0.000233
0.000209
0.000260
0.000290
0.000239
0.000215
0.000254
0.000252
0.000258
0.000298
0.000358
0.000549
0.000387
0.000292
0.000213
0.000255
0.001790
0.000393
0.000498
0.000644
0.000278
0.000246
0.000295
0.000177
0.000056
0.000187
0.000228
0.000313
0.000259
0.000252
0.000380
0.000411
0.000320
0.000314
0.000529
0.000196
0.000234
0.000233
0.000277
0.000278
0.000272
0.000217
0.000293
0.000582
0.000354
0.000266
0.000235
0.000262
0.000252
0.000269
0.000263
0.000245
0.000247
0.000262
0.000347
0.000184
0.000057
0.000373
0.000285
0.000202
0.000237
0.000247
0.000252
0.000250
0.000352
0.000209
0.000220
0.000246
0.000348
0.000426
0.000450
0.000272
0.000319
0.000223
0.000232
0.000248
0.000258
0.000259
0.000290
0.000249
0.000249
0.000277
0.000297
0.000485
0.000376
0.000377
0.000191
0.000168
0.000056
0.000207
0.000205
0.000272
0.000243
0.000241
0.000253
0.000257
0.000262
0.000485
0.000237
0.000239
0.000283
0.000223
0.000260
0.000260
0.000274
0.000269
0.000359
0.000250
0.000218
0.000240
0.000272
0.000256
0.000263
0.000279
0.000266
0.000267
0.000257
0.000245
0.000507
0.000174
0.000056
0.000192
0.000230
0.000237
0.000267
0.000247
0.000227
0.000296
0.000455
0.000268
0.000239
0.000234
0.000256
0.000240
0.000268
0.000493
0.001725
0.000254
0.000237
0.000313
0.000366
0.000408
0.000346
0.000377
0.000348
0.000414
0.000362
0.000255
0.000264
0.000269
0.000275
0.001407
0.000057
0.000169
0.000313
0.000317
0.000191
0.000198
0.000245
0.000230
0.000257
0.000242
0.000265
0.000247
0.000258
0.000257
0.000257
0.000524
0.001744
0.000206
0.000229
0.000220
0.000260
0.000253
0.000251
0.000442
0.000340
0.000284
0.000324
0.000240
0.000257
0.000269
0.000257
0.000211
0.000056
0.001190
0.000559
0.000325
0.000292
0.000213
0.000204
0.000207
0.000239
0.000491
0.000231
0.000239
0.000234
0.000333
0.000513
0.000409
0.000338
0.000303
0.000241
0.000316
0.000388
0.000246
0.000223
0.000267
0.000241
0.000270
0.000596
0.000517
0.000284
0.000248
0.000273
0.000181
0.000056
0.000213
0.000202
0.000221
0.000248
0.001572
0.000219
0.000205
0.000250
0.000240
0.000249
0.000254
0.000253
0.000240
0.000264
0.000266
0.000284
0.000444
0.000664
0.000270
0.001809
0.000226
0.000295
0.000266
0.000434
0.000553
0.000384
0.000243
0.000243
0.000253
0.000264
0.000220
0.000056
0.000257
0.000192
0.000219
0.001317
0.000332
0.000204
0.000260
0.000212
0.000240
0.000238
0.000229
0.000252
0.000277
0.000251
0.000244
0.000290
0.000549
0.000472
0.000251
0.000207
0.000253
0.000275
0.000262
0.000227
0.000351
0.000223
0.000224
0.000272
0.000272
0.000403
0.000586
0.000057
0.000218
0.000217
0.000236
0.000261
0.000264
0.000254
0.000227
0.000255
0.000272
0.000253
0.001428
0.000243
0.000230
0.000255
0.000246
0.000242
0.000265
0.000267
0.000255
0.000273
0.000262
0.000595
0.000366
0.000369
0.000245
0.000266
0.001834
0.000226
0.000220
0.000315
0.000475
0.000057
0.000240
0.000433
0.000453
0.000504
0.000525
0.000598
0.001387
0.000440
0.000549
0.000641
0.000559
0.000699
0.000498
0.000619
0.000584
0.001731
0.000498
0.000417
0.000387
0.000308
0.000255
0.000284
0.000287
0.000265
0.000283
0.000273
0.000291
0.000287
0.000251
0.000295
0.001327
0.000057
0.000207
0.000246
0.000220
0.000233
0.000244
0.000248
0.000241
0.000241
0.000255
0.000293
0.000216
0.000259
0.000236
0.000296
0.000244
0.000251
0.001856
0.000238
0.000269
0.000250
0.000257
0.000255
0.000273
0.000325
0.000482
0.000338
0.000296
0.000236
0.000261
0.000295
0.000164
0.000056
0.000191
0.001397
0.000266
0.000264
0.000264
0.000234
0.000253
0.000236
0.000245
0.000254
0.000233
0.000238
0.000290
0.000424
0.000267
0.000370
0.000270
0.000270
0.001915
0.000249
0.000264
0.000249
0.000255
0.000270
0.000272
0.000265
0.000278
0.000246
0.000257
0.000311
0.000239
0.000057
0.000194
0.000224
0.000254
0.001429
0.000267
0.000256
0.000227
0.000228
0.000224
0.000268
0.000251
0.000259
0.000235
0.000255
0.000279
0.000247
0.000248
0.000262
0.000270
0.000261
0.000259
0.001857
0.000255
0.001765
0.000249
0.000255
0.000243
0.000233
0.000267
0.000288
0.000210
0.000056
0.000196
0.000239
0.001379
0.000215
0.000268
0.000222
0.000222
0.000261
0.000240
0.000257
0.000245
0.000237
0.000259
0.000263
0.000262
0.000260
0.000260
0.000269
0.000300
0.000250
0.001873
0.000264
0.001796
0.000275
0.000250
0.000253
0.000247
0.000262
0.000262
0.000269
0.000181
0.000056
0.001454
0.000230
0.000237
0.000226
0.000217
0.000233
0.000263
0.000369
0.000254
0.000257
0.000248
0.000285
0.000224
0.000372
0.000457
0.000261
0.000254
0.000260
0.000231
0.000218
0.000276
0.000329
0.000242
0.000262
0.000267
0.000302
0.000239
0.000364
0.000690
0.000344
0.000182
0.000056
0.000183
0.000293
0.000277
0.000302
0.000345
0.000270
0.001663
0.000299
0.000276
0.000255
0.000286
0.000298
0.000255
0.000267
0.000291
0.000326
0.000429
0.000487
0.000335
0.000263
0.000318
0.000281
0.000258
0.000271
0.000335
0.000249
0.000267
0.000243
0.000270
0.000257
0.000458
0.000056
0.000317
0.000372
0.000271
0.000266
0.000267
0.000214
0.000219
0.000249
0.000262
0.000249
0.001530
0.000231
0.000203
0.000259
0.000241
0.000282
0.000271
0.000257
0.000255
0.000261
0.000281
0.000314
0.000625
0.000333
0.000228
0.000282
0.000274
0.000242
0.000241
0.000232
0.000254
0.000056
0.000203
0.000199
0.000295
0.000447
0.000363
0.000286
0.000213
0.000244
0.000245
0.000253
0.000237
0.000253
0.000255
0.000263
0.000242
0.000238
0.000377
0.001291
0.000214
0.000238
0.000257
0.000249
0.000330
0.000512
0.000219
0.000224
0.000628
0.000398
0.000381
0.000221
0.000175
0.000056
0.000219
0.000221
0.000266
0.000267
0.000303
0.000205
0.000348
0.000526
0.000382
0.000272
0.000363
0.000400
0.000394
0.000351
0.000240
0.000231
0.000211
0.000238
0.000414
0.000532
0.001186
0.000243
0.000255
0.000271
0.000237
0.000236
0.000266
0.000321
0.000390
0.000542
0.000209
0.000058
0.000181
0.000224
0.000250
0.000236
0.000253
0.000247
0.000239
0.000259
0.000251
0.000413
0.000504
0.000385
0.000206
0.000201
0.000227
0.000261
0.000253
0.000260
0.000265
0.000239
0.000499
0.000221
0.000401
0.000438
0.000293
0.000240
0.000238
0.000274
0.000248
0.000287
0.000227
0.000057
0.000300
0.000295
0.000289
0.000389
0.000515
0.000313
0.000246
0.000248
0.000232
0.000259
0.000260
0.000265
0.000242
0.000244
0.000253
0.000226
0.000260
0.000676
0.000234
0.000348
0.000235
0.000251
0.000216
0.000246
0.000250
0.000284
0.000277
0.000254
0.000279
0.000268
0.000336
0.000057
0.000301
0.000323
0.000226
0.000239
0.000249
0.000246
0.000250
0.000248
0.000256
0.000262
0.000255
0.000237
0.000271
0.000565
0.000435
0.000308
0.000221
0.000200
0.000242
0.000266
0.000275
0.000240
0.000264
0.000268
0.000271
0.000288
0.000501
0.000523
0.000498
0.000222
0.000147
0.000056
0.000408
0.000198
0.000193
0.000238
0.000251
0.000253
0.000242
0.000243
0.000257
0.000260
0.000230
0.000239
0.000254
0.000248
0.000234
0.000257
0.000263
0.000258
0.000281
0.000255
0.000262
0.000252
0.000275
0.000260
0.000269
0.000254
0.000251
0.000278
0.000274
0.000260
0.000219
0.000057
0.000195
0.000213
0.000249
0.000250
0.000231
0.000255
0.000252
0.000243
0.000259
0.000283
0.000226
0.000232
0.000279
0.000386
0.000245
0.000272
0.000266
0.000258
0.000259
0.000278
0.000279
0.000239
0.000238
0.000262
0.000262
0.000274
0.000259
0.000257
0.000261
0.000262
0.000222
0.000056
0.000239
0.000380
0.000349
0.000281
0.000305
0.000232
0.000214
0.000257
0.000231
0.000244
0.000247
0.000266
0.000253
0.000230
0.000262
0.000260
0.000263
0.000264
0.000247
0.000261
0.000275
0.000270
0.000269
0.000260
0.000273
0.000295
0.000225
0.000289
0.000239
0.000266
0.000203
0.000055
0.000213
0.000223
0.000242
0.000263
0.000249
0.000450
0.000217
0.000239
0.000290
0.000429
0.000506
0.000324
0.000221
0.000228
0.000264
0.000257
0.000243
0.000265
0.000259
0.000269
0.000268
0.000261
0.000263
0.000274
0.000543
0.000453
0.000331
0.000262
0.000277
0.000258
0.000205
0.000056
0.000191
0.000206
0.000245
0.000254
0.000403
0.000526
0.000342
0.000384
0.000240
0.000244
0.000229
0.000254
0.000258
0.000246
0.000256
0.000274
0.000259
0.000247
0.000675
0.000339
0.000320
0.000223
0.000265
0.000280
0.000282
0.000270
0.000261
0.000260
0.000248
0.000321
0.000341
0.000056
0.000282
0.000232
0.000217
0.000247
0.000249
0.000256
0.000245
0.000232
0.000244
0.000254
0.000250
0.000252
0.000259
0.000346
0.000577
0.000445
0.000221
0.000238
0.000268
0.000248
0.000268
0.000267
0.000473
0.000243
0.000259
0.000656
0.000435
0.000402
0.000260
0.000254
0.000200
0.000055
0.000209
0.000218
0.000239
0.000243
0.000251
0.000264
0.000334
0.000427
0.000689
0.000296
0.000215
0.000257
0.000277
0.000270
0.000275
0.000234
0.000247
0.000244
0.000258
0.000385
0.000399
0.000539
0.000426
0.000262
0.000436
0.000349
0.000498
0.000204
0.000234
0.000491
0.000280
0.000057
0.000279
0.000202
0.000497
0.000219
0.000201
0.000237
0.000248
0.000262
0.000234
0.000238
0.000261
0.000428
0.000387
0.000342
0.000214
0.000213
0.000271
0.000248
0.000263
0.000273
0.000269
0.000262
0.000250
0.000272
0.000353
0.000454
0.000466
0.000258
0.000253
0.000268
0.000220
0.000056
0.000188
0.000238
0.000235
0.000238
0.000246
0.000249
0.000437
0.000355
0.000440
0.000272
0.000350
0.000250
0.000222
0.000267
0.000264
0.000251
0.000252
0.000246
0.000280
0.000439
0.000510
0.000274
0.000454
0.000335
0.000400
0.000393
0.000378
0.000274
0.000202
0.000282
0.000444
0.000057
0.000241
0.000274
0.000214
0.000259
0.000247
0.000259
0.000251
0.000244
0.000251
0.000277
0.000230
0.000377
0.000408
0.000407
0.000347
0.000248
0.000253
0.000265
0.000269
0.000233
0.000252
0.000253
0.000260
0.000275
0.000279
0.000316
0.000498
0.000476
0.000244
0.000284
0.000202
0.000055
0.000183
0.000232
0.000259
0.000247
0.000254
0.000315
0.000497
0.000539
0.000328
0.000674
0.000316
0.000199
0.000216
0.000261
0.000246
0.000265
0.000282
0.000259
0.000472
0.000592
0.001484
0.000245
0.000258
0.000262
0.000298
0.000235
0.000355
0.000442
0.000325
0.000352
0.000162
0.000056
0.000203
0.000208
0.000244
0.000247
0.000240
0.000253
0.000270
0.000253
0.000254
0.000346
0.000352
0.000364
0.000277
0.000383
0.000380
0.000335
0.000229
0.000225
0.000248
0.000265
0.000241
0.000245
0.000280
0.000256
0.000350
0.000543
0.000349
0.000273
0.000218
0.000268
0.000199
0.000057
0.000210
0.000228
0.000254
0.000251
0.000253
0.000228
0.000471
0.000223
0.000222
0.000257
0.000244
0.000250
0.000263
0.000251
0.000249
0.000268
0.000266
0.000263
0.000278
0.000248
0.000258
0.000284
0.000320
0.000227
0.000264
0.000271
0.000273
0.000273
0.000259
0.000270
0.000198
0.000055
0.000204
0.000231
0.000280
0.000499
0.000399
0.000196
0.000205
0.000245
0.000267
0.000238
0.000253
0.000251
0.000270
0.000258
0.000241
0.000239
0.000250
0.000268
0.000277
0.000323
0.000442
0.000398
0.000240
0.000263
0.000267
0.000254
0.000272
0.000254
0.000265
0.000283
0.000214
0.000055
0.000333
0.000442
0.000346
0.000218
0.000243
0.000252
0.000484
0.000195
0.000189
0.000258
0.000268
0.000339
0.000378
0.000530
0.001667
0.000274
0.000254
0.000235
0.000284
0.000238
0.000428
0.000348
0.000733
0.000210
0.000206
0.000259
0.000278
0.000415
0.000287
0.000285
0.000180
0.000057
0.000221
0.000356
0.000300
0.000342
0.000489
0.000208
0.000232
0.000243
0.000260
0.000237
0.000254
0.000252
0.000261
0.000287
0.000512
0.000415
0.000239
0.000210
0.000259
0.000267
0.000259
0.000309
0.000253
0.000270
0.000280
0.000441
0.000509
0.000373
0.000516
0.000225
0.000207
0.000056
0.000228
0.000222
0.000234
0.000226
0.000250
0.000248
0.000275
0.000262
0.000362
0.000357
0.000446
0.000374
0.000203
0.000235
0.000268
0.000274
0.000317
0.000237
0.000274
0.000273
0.000244
0.000333
0.000454
0.000353
0.000272
0.000300
0.000233
0.000540
0.000378
0.000271
0.000163
0.000056
0.000183
0.000212
0.000369
0.000447
0.000326
0.000224
0.000228
0.000254
0.000256
0.000260
0.000263
0.000254
0.000225
0.000252
0.000263
0.000284
0.000391
0.000369
0.000297
0.000383
0.000463
0.000232
0.000268
0.000273
0.000311
0.000279
0.000263
0.000252
0.000464
0.000530
0.000222
0.000055
0.000194
0.000202
0.000249
0.000245
0.000252
0.000484
0.000213
0.000242
0.000263
0.000296
0.000571
0.000541
0.000224
0.000255
0.000227
0.000249
0.000253
0.000249
0.000255
0.000255
0.000251
0.000269
0.000461
0.000411
0.000341
0.000329
0.000331
0.000348
0.000299
0.000228
0.000174
0.000056
0.000214
0.000210
0.000252
0.000538
0.000270
0.000376
0.000244
0.000207
0.000204
0.000270
0.000242
0.000249
0.000249
0.000257
0.000294
0.000216
0.000258
0.000250
0.000257
0.000452
0.000607
0.000266
0.000205
0.000237
0.000284
0.000274
0.000260
0.000263
0.000255
0.000261
0.000217
0.000056
0.000337
0.000317
0.000516
0.000191
0.000210
0.000227
0.000303
0.000504
0.000290
0.000197
0.000212
0.000274
0.000260
0.000477
0.000433
0.000317
0.000219
0.000222
0.000279
0.000207
0.000273
0.000263
0.000257
0.000290
0.000245
0.000373
0.000336
0.000457
0.000322
0.000224
0.000159
0.000056
0.000241
0.000212
0.000233
0.000255
0.000256
0.000260
0.000231
0.000254
0.000255
0.000247
0.000269
0.000239
0.000256
0.001452
0.000269
0.000222
0.000258
0.000248
0.000276
0.000272
0.000266
0.000243
0.000275
0.000253
0.000268
0.000267
0.000268
0.000276
0.000261
0.000262
0.000211
0.000057
0.000198
0.000203
0.000241
0.000253
0.000238
0.000242
0.000258
0.000261
0.000234
0.000242
0.000248
0.000266
0.000252
0.000252
0.000264
0.000256
0.000247
0.000258
0.000273
0.000255
0.000254
0.000264
0.000245
0.000248
0.001363
0.000273
0.000556
0.000388
0.000414
0.000204
0.000168
0.000055
0.000194
0.000219
0.000240
0.000249
0.000501
0.000224
0.000190
0.000216
0.000257
0.000298
0.000618
0.000311
0.000200
0.000203
0.000248
0.000264
0.000251
0.000264
0.000273
0.000236
0.000259
0.000255
0.000273
0.000385
0.000529
0.000453
0.000233
0.000255
0.001361
0.000285
0.000179
0.000056
0.000297
0.000435
0.000354
0.000248
0.000201
0.000203
0.000227
0.000244
0.000264
0.000253
0.000246
0.000256
0.000260
0.000281
0.000533
0.000455
0.000295
0.000238
0.000234
0.000255
0.000263
0.000264
0.000266
0.000291
0.000248
0.000258
0.000299
0.000581
0.000408
0.000385
0.000147
0.000056
0.000193
0.000213
0.001317
0.000359
0.000262
0.000510
0.000350
0.000318
0.000429
0.000403
0.000225
0.000196
0.000256
0.000264
0.000241
0.000258
0.000347
0.000637
0.000259
0.000358
0.000269
0.000256
0.000261
0.000497
0.000232
0.000254
0.000263
0.000279
0.000308
0.000531
0.000341
0.000056
0.000327
0.000388
0.000229
0.000203
0.001473
0.000664
0.000225
0.000230
0.000197
0.000255
0.000222
0.000243
0.000249
0.000263
0.000252
0.000268
0.000255
0.000277
0.000416
0.000418
0.000448
0.000214
0.000218
0.000263
0.000249
0.000276
0.000270
0.000238
0.000263
0.000275
0.000213
0.000057
0.000373
0.000315
0.000240
0.000209
0.000256
0.000238
0.000256
0.000246
0.000237
0.000231
0.001495
0.000458
0.000254
0.000200
0.000213
0.000252
0.000284
0.000264
0.000226
0.000278
0.000269
0.000256
0.000259
0.000399
0.000471
0.000436
0.000215
0.000265
0.000279
0.000282
0.000193
0.000056
0.000189
0.000465
0.000194
0.000201
0.000379
0.000458
0.000335
0.000298
0.000465
0.000207
0.000219
0.000252
0.000265
0.000261
0.000268
0.001504
0.000265
0.000279
0.000246
0.000268
0.000277
0.000253
0.000251
0.000264
0.000255
0.000275
0.000433
0.000475
0.000294
0.000269
0.000157
0.000056
0.000209
0.000220
0.000250
0.000238
0.000221
0.000259
0.000248
0.000256
0.000250
0.000484
0.000392
0.000315
0.000207
0.000209
0.000256
0.000260
0.000282
0.000264
0.000271
0.000237
0.000296
0.000261
0.001321
0.000218
0.000279
0.000212
0.000236
0.000271
0.000264
0.000264
0.000197
0.000055
0.000226
0.000302
0.000438
0.000339
0.000218
0.000199
0.000246
0.000258
0.000264
0.000253
0.000262
0.000253
0.000249
0.000252
0.000255
0.000263
0.000265
0.000269
0.000268
0.000254
0.000257
0.000256
0.000271
0.000278
0.000286
0.000272
0.000282
0.000230
0.000270
0.000522
0.001305
0.000056
0.000182
0.000211
0.000235
0.000234
0.000252
0.000267
0.000250
0.000249
0.000219
0.000250
0.000261
0.000268
0.000248
0.000248
0.000245
0.001710
0.000368
0.000217
0.000203
0.000232
0.000248
0.000264
0.000267
0.000261
0.000269
0.000265
0.000270
0.000267
0.000271
0.000267
0.000234
0.000056
0.000292
0.000299
0.001362
0.000200
0.000196
0.000231
0.000261
0.000249
0.000262
0.000253
0.000233
0.000397
0.000406
0.000465
0.000231
0.000214
0.000219
0.000262
0.000254
0.000264
0.000241
0.000264
0.000271
0.000289
0.000263
0.000410
0.000380
0.000361
0.000283
0.000258
0.000194
0.000057
0.000215
0.000226
0.000245
0.000246
0.000249
0.000239
0.000233
0.000270
0.000379
0.000483
0.001149
0.000214
0.000234
0.000267
0.000260
0.000260
0.000271
0.000248
0.000362
0.000339
0.000442
0.000261
0.000259
0.000201
0.000276
0.000272
0.000281
0.000288
0.000264
0.000279
0.000210
0.000056
0.000244
0.000452
0.000382
0.000226
0.000203
0.000206
0.000246
0.000267
0.000267
0.000256
0.000221
0.000264
0.000521
0.000468
0.000471
0.001478
0.000219
0.000263
0.000327
0.000356
0.000449
0.000444
0.000425
0.000398
0.000252
0.000273
0.000254
0.000272
0.000263
0.000272
0.000227
0.000056
0.000198
0.000249
0.000466
0.000437
0.000373
0.000221
0.000245
0.000252
0.000234
0.000251
0.000249
0.000260
0.000271
0.000239
0.000270
0.000313
0.000418
0.000405
0.000331
0.001311
0.000268
0.000257
0.000240
0.000264
0.000561
0.000409
0.000387
0.000218
0.000245
0.000265
0.000222
0.000056
0.000187
0.000220
0.000256
0.000234
0.000254
0.000275
0.000440
0.000405
0.000352
0.000243
0.000228
0.000252
0.000291
0.000244
0.000265
0.000258
0.000266
0.000257
0.000267
0.000313
0.000537
0.000387
0.000330
0.001334
0.000346
0.000240
0.000297
0.000419
0.000440
0.000413
0.000257
0.000056
0.000179
0.000212
0.000244
0.000273
0.000229
0.000254
0.001675
0.000283
0.000209
0.000221
0.000252
0.000251
0.000315
0.000326
0.000327
0.000281
0.000229
0.000365
0.000471
0.000445
0.000260
0.000277
0.000223
0.000224
0.001454
0.000416
0.000417
0.000478
0.000304
0.000308
0.000149
0.000057
0.000179
0.000229
0.000261
0.000284
0.000226
0.000254
0.001769
0.000217
0.000235
0.000251
0.000383
0.000408
0.001455
0.000324
0.000419
0.000207
0.000211
0.000257
0.000270
0.000240
0.001614
0.000593
0.000374
0.000283
0.000215
0.000231
0.000241
0.000279
0.000254
0.000246
0.000207
0.000077
0.000167
0.000225
0.000254
0.000251
0.000257
0.000271
0.000284
0.000251
0.000252
0.000258
0.000256
0.000248
0.000248
0.000275
0.000259
0.001484
0.000299
0.000222
0.000265
0.000274
0.000273
0.000262
0.000407
0.001280
0.000303
0.000219
0.000269
0.000253
0.000466
0.000210
0.000188
0.000056
0.000201
0.000225
0.000236
0.000239
0.000242
0.000228
0.000249
0.001735
0.000210
0.000223
0.000235
0.000367
0.000242
0.000218
0.001454
0.000244
0.000212
0.000216
0.000281
0.000236
0.000280
0.000296
0.000323
0.001364
0.000273
0.000220
0.000240
0.000257
0.001384
0.000282
0.000236
0.000056
0.000312
0.000288
0.000204
0.000206
0.000253
0.000237
0.000270
0.000269
0.000265
0.000246
0.000264
0.000263
0.000251
0.000244
0.000316
0.001484
0.000271
0.000252
0.000262
0.000249
0.000275
0.000266
0.000261
0.001545
0.000278
0.000272
0.000249
0.001367
0.000213
0.000226
0.000210
0.000057
0.000237
0.000336
0.000354
0.000224
0.000218
0.000236
0.000258
0.000260
0.000262
0.000270
0.000240
0.000253
0.000254
0.000268
0.000472
0.001232
0.000212
0.000230
0.000239
0.000284
0.000231
0.000243
0.000249
0.001307
0.000367
0.000226
0.000246
0.000219
0.000252
0.001344
0.000406
0.000056
0.000307
0.000299
0.000198
0.000205
0.000237
0.000251
0.000246
0.000244
0.000275
0.000253
0.000243
0.000248
0.000247
0.000318
0.000412
0.001484
0.000254
0.000220
0.000305
0.000502
0.000298
0.000430
0.001310
0.000293
0.000253
0.000252
0.001288
0.000344
0.000269
0.000453
0.000355
0.000057
0.000183
0.000237
0.000255
0.000253
0.000254
0.000258
0.000267
0.000251
0.000263
0.000264
0.000397
0.000471
0.001314
0.000207
0.000258
0.000239
0.000330
0.000222
0.000204
0.000237
0.000309
0.001325
0.000245
0.000233
0.000233
0.000228
0.001501
0.000485
0.000444
0.000226
0.000207
0.000057
0.000184
0.000218
0.000240
0.000235
0.000250
0.000267
0.000240
0.000276
0.000434
0.000458
0.000323
0.001432
0.000240
0.000223
0.000260
0.000273
0.000254
0.000413
0.001520
0.000312
0.000352
0.000357
0.001320
0.000414
0.000284
0.000344
0.000234
0.000213
0.000249
0.000268
0.000205
0.000057
0.000209
0.000227
0.000312
0.000224
0.000306
0.000551
0.000313
0.000351
0.001466
0.000286
0.000342
0.000255
0.000219
0.000274
0.000363
0.001396
0.000261
0.000213
0.000214
0.000249
0.000298
0.001605
0.000356
0.000274
0.000234
0.000220
0.000511
0.000319
0.000235
0.000223
0.000254
0.000055
0.000250
0.000415
0.000288
0.000302
0.000207
0.001456
0.000253
0.000229
0.000268
0.000266
0.000265
0.000249
0.000351
0.001425
0.000265
0.000235
0.000417
0.001287
0.000274
0.000453
0.000354
0.000258
0.000238
0.000246
0.000279
0.000247
0.000462
0.000237
0.000247
0.000277
0.000207
0.000055
0.000220
0.000299
0.000312
0.001424
0.000279
0.000200
0.000304
0.000253
0.000241
0.000251
0.000245
0.000277
0.001626
0.000206
0.000225
0.000210
0.001380
0.000286
0.000484
0.000462
0.000347
0.000217
0.000218
0.000242
0.000362
0.000242
0.000229
0.000246
0.000255
0.000261
0.000209
0.000056
0.000195
0.000394
0.001436
0.000220
0.000261
0.000267
0.000259
0.000242
0.000308
0.000438
0.001291
0.000251
0.000293
0.000245
0.000215
0.001444
0.000623
0.000241
0.000287
0.000406
0.000340
0.000242
0.000221
0.000242
0.000272
0.000292
0.000279
0.000287
0.000446
0.000477
0.001370
0.000056
0.000200
0.000251
0.000212
0.000229
0.000243
0.000475
0.001487
0.000288
0.000220
0.000210
0.000246
0.001436
0.000499
0.000268
0.000461
0.000241
0.000217
0.000203
0.000257
0.000267
0.000266
0.000257
0.000287
0.000259
0.000250
0.000291
0.000428
0.000526
0.001448
0.000272
0.000181
0.000057
0.000196
0.000235
0.000437
0.000460
0.001228
0.000285
0.000255
0.000253
0.000252
0.000250
0.000252
0.000265
0.000355
0.000570
0.000297
0.000218
0.000246
0.000292
0.000222
0.000274
0.000259
0.000265
0.000262
0.000269
0.000251
0.000502
0.000389
0.000335
0.000300
0.001480
0.000156
0.000056
0.000205
0.000209
0.000286
0.000436
0.000337
0.000333
0.000286
0.000326
0.000280
0.000262
0.000259
0.000266
0.000238
0.000312
0.000255
0.000282
0.000556
0.000383
0.000222
0.000376
0.000295
0.000465
0.000217
0.000230
0.000216
0.000282
0.000241
0.000287
0.000324
0.000526
0.000322
0.000057
0.000208
0.001363
0.000279
0.000330
0.000509
0.000288
0.000375
0.000335
0.000227
0.000218
0.000276
0.000229
0.000263
0.000265
0.000272
0.000253
0.000265
0.001460
0.000207
0.000224
0.000224
0.000281
0.000270
0.000277
0.000269
0.000257
0.000270
0.000254
0.000265
0.000525
0.000242
0.000056
0.000219
0.000234
0.000222
0.001534
0.000332
0.000219
0.000217
0.000217
0.000231
0.000244
0.000242
0.000277
0.000249
0.000251
0.000264
0.000264
0.000242
0.000268
0.000258
0.000262
0.001433
0.000259
0.000244
0.000323
0.000221
0.000224
0.000253
0.000265
0.000268
0.000510
0.000378
0.000055
0.000196
0.000215
0.000390
0.000293
0.000250
0.000251
0.001587
0.000283
0.000335
0.000209
0.000233
0.000366
0.000307
0.000218
0.000223
0.000245
0.000267
0.000246
0.000258
0.000256
0.000487
0.000521
0.001172
0.000254
0.000231
0.000211
0.000269
0.000259
0.000270
0.000261
0.000435
0.000058
0.000286
0.000354
0.000195
0.000211
0.000251
0.000247
0.000236
0.000230
0.001424
0.000510
0.000465
0.000204
0.000234
0.000206
0.000250
0.000246
0.000255
0.000279
0.000271
0.000295
0.000299
0.000611
0.000323
0.001380
0.000241
0.000255
0.000274
0.000279
0.000250
0.000380
0.000371
0.000056
0.000271
0.000216
0.000242
0.000239
0.000216
0.000236
0.000265
0.000247
0.000281
0.001571
0.000345
0.000263
0.000255
0.000266
0.000474
0.000269
0.000404
0.000480
0.000329
0.000306
0.000446
0.000506
0.001281
0.000233
0.000237
0.000219
0.001825
0.000395
0.000565
0.000325
0.000143
0.000057
0.000185
0.000212
0.000233
0.000237
0.000253
0.000243
0.000342
0.000485
0.000433
0.000428
0.000317
0.000197
0.000207
0.000261
0.000269
0.000258
0.000271
0.000239
0.000247
0.000270
0.000265
0.000486
0.001296
0.000248
0.000229
0.000262
0.001875
0.000416
0.000372
0.000381
0.000151
0.000056
0.000230
0.000210
0.000248
0.001532
0.000422
0.000246
0.000238
0.000269
0.000246
0.000321
0.000368
0.000374
0.000356
0.000308
0.000463
0.000375
0.000296
0.001287
0.000266
0.000210
0.000221
0.000264
0.000351
0.000435
0.000604
0.000430
0.000219
0.000228
0.000265
0.000279
0.000208
0.000057
0.000190
0.000208
0.001460
0.000419
0.000193
0.000211
0.000223
0.000257
0.000249
0.000252
0.000244
0.000273
0.000268
0.000286
0.000232
0.000505
0.000320
0.000346
0.001384
0.000274
0.000225
0.000252
0.000260
0.000269
0.000424
0.000453
0.000441
0.000285
0.000297
0.000240
0.000419
0.000056
0.000195
0.000209
0.000251
0.000261
0.001574
0.000235
0.000260
0.000248
0.000259
0.000250
0.000253
0.000263
0.000257
0.000244
0.000476
0.000458
0.001447
0.000745
0.000210
0.000350
0.000233
0.000227
0.000230
0.000273
0.001744
0.000791
0.000217
0.000228
0.000280
0.000304
0.000185
0.000057
0.000179
0.000214
0.000254
0.000245
0.000243
0.000249
0.000253
0.000254
0.000250
0.000240
0.000269
0.000289
0.000248
0.000252
0.000260
0.000255
0.000263
0.001592
0.000748
0.000359
0.000317
0.000222
0.000209
0.000285
0.000275
0.000262
0.000273
0.000256
0.001445
0.000394
0.000308
0.000057
0.000177
0.000216
0.000245
0.000249
0.000257
0.000233
0.000255
0.000254
0.000249
0.000273
0.000213
0.000472
0.000446
0.000371
0.000194
0.000223
0.000262
0.001465
0.000693
0.000362
0.000373
0.000300
0.000224
0.000221
0.000279
0.000259
0.000249
0.000271
0.001475
0.000450
0.000223
0.000056
0.000198
0.000209
0.000238
0.000247
0.000252
0.000237
0.000247
0.000243
0.000268
0.000262
0.000426
0.000292
0.000364
0.000228
0.000238
0.000244
0.000281
0.000237
0.001629
0.000639
0.000399
0.000334
0.000228
0.000244
0.000259
0.000259
0.000263
0.000280
0.000268
0.001430
0.000334
0.000056
0.000199
0.000203
0.000223
0.000250
0.000255
0.000247
0.000272
0.000359
0.000370
0.000421
0.000398
0.000357
0.000328
0.000210
0.000241
0.000233
0.000280
0.000257
0.001418
0.000864
0.000302
0.000218
0.000478
0.000207
0.000203
0.000262
0.000273
0.000259
0.000271
0.000269
0.000440
0.000056
0.000294
0.000220
0.000207
0.000238
0.000253
0.000266
0.000211
0.000241
0.000255
0.000260
0.000250
0.000235
0.000281
0.000421
0.000502
0.000428
0.000232
0.000260
0.000253
0.000257
0.000253
0.000356
0.001457
0.000998
0.000248
0.000221
0.000267
0.000264
0.000272
0.000254
0.000221
0.000056
0.000198
0.001388
0.000267
0.000205
0.000204
0.000256
0.000264
0.000230
0.000234
0.000251
0.000255
0.000264
0.000240
0.000445
0.000320
0.000480
0.000282
0.000205
0.000264
0.000270
0.000289
0.000218
0.000255
0.000262
0.001393
0.000695
0.000287
0.000394
0.000388
0.000384
0.000266
0.000057
0.000210
0.000205
0.000370
0.001312
0.000230
0.000271
0.000194
0.000274
0.000238
0.000256
0.000260
0.000233
0.000299
0.000307
0.000609
0.000325
0.000201
0.000317
0.000276
0.000223
0.000234
0.000274
0.000236
0.000267
0.000265
0.001525
0.000749
0.000304
0.000282
0.000284
0.000193
0.000057
0.000176
0.000238
0.000451
0.000388
0.001300
0.000252
0.000200
0.000203
0.000256
0.000231
0.000237
0.000260
0.000238
0.000248
0.000235
0.000260
0.000273
0.000232
0.000251
0.000259
0.000266
0.000271
0.000331
0.000301
0.000237
0.000246
0.000267
0.001531
0.000230
0.000240
0.000159
0.000056
0.000184
0.000209
0.000255
0.000331
0.000347
0.000336
0.000403
0.000279
0.001528
0.000266
0.000304
0.000500
0.000284
0.000272
0.000491
0.000215
0.000226
0.000231
0.000271
0.000266
0.000282
0.000265
0.000261
0.000271
0.000247
0.000424
0.000450
0.000322
0.001521
0.000253
0.000188
0.000057
0.000217
0.000222
0.000252
0.000242
0.000248
0.000240
0.000260
0.000340
0.000406
0.002068
0.000213
0.000200
0.000255
0.000263
0.000259
0.000331
0.000242
0.000216
0.000248
0.000429
0.000422
0.000390
0.001529
0.000222
0.000216
0.000512
0.001764
0.000287
0.000263
0.001483
0.000193
0.000057
0.000471
0.000285
0.000435
0.000239
0.000262
0.000237
0.000242
0.000269
0.000268
0.000228
0.000255
0.000314
0.000421
0.000348
0.000506
0.000208
0.000207
0.001552
0.000505
0.001993
0.000286
0.000261
0.000217
0.001594
0.002002
0.000735
0.000279
0.000216
0.000283
0.000549
0.000256
0.000055
0.000222
0.000213
0.000245
0.000260
0.001477
0.001664
0.001083
0.000223
0.000215
0.001579
0.001982
0.000229
0.000309
0.000408
0.000297
0.000451
0.000345
0.000366
0.000248
0.000233
0.000250
0.000254
0.000268
0.001557
0.001312
0.001421
0.000272
0.000238
0.000264
0.000293
0.000359
0.000056
0.000202
0.000242
0.000208
0.000234
0.000244
0.000226
0.000248
0.000251
0.000258
0.000250
0.000244
0.000301
0.000454
0.000532
0.000267
0.000216
0.000233
0.000269
0.000267
0.000265
0.000260
0.001366
0.000497
0.000423
0.002070
0.000254
0.000243
0.000338
0.000463
0.000448
0.000157
0.000056
0.000214
0.000338
0.000457
0.000316
0.000224
0.000210
0.000235
0.000275
0.000227
0.000259
0.000239
0.000270
0.000246
0.001612
0.001414
0.001223
0.000271
0.000237
0.000216
0.000243
0.000284
0.000279
0.000255
0.000246
0.002268
0.000219
0.000212
0.000291
0.000323
0.000303
0.000247
0.000057
0.000189
0.000352
0.000631
0.000304
0.000206
0.000215
0.000218
0.000264
0.001882
0.001434
0.000255
0.000378
0.000394
0.000356
0.000264
0.000227
0.000218
0.000282
0.000262
0.000259
0.000270
0.000258
0.000473
0.000257
0.000260
0.000303
0.000214
0.000257
0.000280
0.000249
0.000223
0.000056
0.000178
0.000230
0.000260
0.000241
0.000238
0.000267
0.001536
0.001502
0.001330
0.000213
0.000203
0.000218
0.000269
0.000266
0.000249
0.000248
0.000247
0.002172
0.000226
0.000203
0.000251
0.000269
0.000255
0.000266
0.000268
0.000256
0.000267
0.000258
0.000276
0.000264
0.000188
0.000056
0.001491
0.000312
0.002390
0.000252
0.000301
0.000296
0.000241
0.000252
0.000270
0.000241
0.000254
0.000248
0.000238
0.000237
0.000267
0.000261
0.000261
0.000270
0.000253
0.000279
0.000257
0.000279
0.000275
0.000275
0.000244
0.000261
0.000239
0.000279
0.000263
0.000270
0.000403
0.000056
0.000200
0.002561
0.000333
0.000203
0.000198
0.000207
0.000257
0.000257
0.000250
0.000278
0.000387
0.000371
0.000313
0.000269
0.000209
0.002212
0.000227
0.000221
0.000297
0.000548
0.000371
0.000242
0.000202
0.000243
0.000266
0.000266
0.000246
0.000274
0.000274
0.001724
0.001165
0.000056
0.000201
0.000215
0.000233
0.000405
0.000412
0.000255
0.000236
0.000220
0.000246
0.000255
0.000263
0.000252
0.000233
0.000249
0.000262
0.000240
0.000406
0.000647
0.000293
0.000238
0.000217
0.000247
0.000279
0.000257
0.000267
0.000229
0.000263
0.000279
0.000234
0.000363
0.000332
0.000055
0.001120
0.000262
0.000305
0.000524
0.000271
0.000191
0.000197
0.000239
0.002323
0.000307
0.000357
0.000349
0.000214
0.000277
0.000347
0.000265
0.000256
0.000260
0.000281
0.000216
0.000254
0.000294
0.000563
0.000535
0.001802
0.001404
0.000478
0.000523
0.000227
0.000254
0.000215
0.000057
0.000303
0.000273
0.000237
0.000245
0.000232
0.000234
0.000240
0.000263
0.000253
0.000250
0.000255
0.000242
0.000243
0.000247
0.000411
0.000503
0.001884
0.001314
0.000423
0.000402
0.000446
0.000246
0.000275
0.000237
0.002213
0.000468
0.000369
0.000260
0.000269
0.000282
0.000213
0.000056
0.000186
0.000225
0.000265
0.000229
0.000249
0.000322
0.000451
0.000368
0.000251
0.000244
0.000229
0.000272
0.000240
0.002088
0.000342
0.000415
0.000234
0.000234
0.000271
0.000255
0.000255
0.002444
0.000376
0.000203
0.000252
0.000268
0.000241
0.000277
0.000269
0.000289
0.000213
0.000057
0.000196
0.000376
0.000541
0.000390
0.000223
0.000212
0.000202
0.000248
0.000266
0.001937
0.000331
0.000408
0.000249
0.000262
0.000202
0.000255
0.000269
0.000256
0.002265
0.000370
0.000231
0.000269
0.000266
0.000264
0.000260
0.000245
0.000280
0.000255
0.000282
0.000239
0.000209
0.000056
0.000195
0.000222
0.000257
0.000215
0.000242
0.000264
0.000235
0.000260
0.000230
0.002163
0.000257
0.000265
0.000215
0.000489
0.000203
0.000208
0.000269
0.000286
0.000258
0.000255
0.002032
0.000248
0.000365
0.000364
0.000502
0.000340
0.000282
0.000248
0.000241
0.000236
0.000225
0.000056
0.000196
0.000218
0.000243
0.000239
0.000255
0.000380
0.000203
0.002340
0.000208
0.000223
0.000238
0.000253
0.000244
0.000244
0.000300
0.002210
0.000510
0.000220
0.000255
0.000248
0.000256
0.000263
0.000282
0.000272
0.000262
0.000272
0.000269
0.000258
0.000259
0.000314
0.000160
0.000057
0.000185
0.003024
0.000240
0.000221
0.000245
0.000241
0.000255
0.000280
0.000420
0.000372
0.002127
0.000259
0.000257
0.000248
0.000270
0.000541
0.000419
0.000292
0.000219
0.000223
0.000245
0.000259
0.000264
0.000236
0.000247
0.000268
0.000273
0.000259
0.000306
0.000724
0.000306
0.000056
0.000179
0.000266
0.000259
0.000226
0.000250
0.000239
0.000247
0.000256
0.001557
0.002110
0.000506
0.000265
0.000391
0.000798
0.000346
0.000214
0.000219
0.000236
0.000272
0.000247
0.000272
0.000232
0.000246
0.000277
0.001828
0.001446
0.000292
0.000276
0.000305
0.000296
0.000438
0.000056
0.001926
0.000229
0.000231
0.000202
0.000291
0.000360
0.000498
0.000273
0.000304
0.000229
0.000233
0.000212
0.000252
0.000255
0.000260
0.000267
0.000249
0.000264
0.001909
0.000201
0.000220
0.000244
0.000268
0.000285
0.000275
0.000259
0.001531
0.000344
0.000209
0.000223
0.000198
0.000057
0.000206
0.000200
0.000235
0.000246
0.000254
0.000241
0.000314
0.000358
0.000384
0.000412
0.000179
0.000202
0.000331
0.000325
0.000377
0.000326
0.000231
0.000223
0.000254
0.000348
0.000543
0.000437
0.000237
0.000223
0.000252
0.000247
0.000264
0.000265
0.000273
0.000267
0.000218
0.000056
0.001424
0.000406
0.000231
0.002008
0.000229
0.000452
0.000409
0.000337
0.000205
0.000212
0.000266
0.000264
0.000234
0.000243
0.000265
0.000281
0.000436
0.000290
0.000510
0.000308
0.000325
0.000223
0.000245
0.000266
0.000322
0.000222
0.000242
0.000270
0.000371
0.000563
0.001309
0.000056
0.000188
0.000209
0.002068
0.000271
0.000337
0.000261
0.000257
0.000256
0.000264
0.000244
0.000228
0.000248
0.000254
0.000259
0.000262
0.000340
0.000718
0.001745
0.000259
0.000253
0.000254
0.000259
0.000375
0.000509
0.001508
0.000271
0.000360
0.002007
0.000225
0.000255
0.000189
0.000057
0.000204
0.000207
0.000234
0.000240
0.000232
0.000248
0.000252
0.000273
0.000342
0.000291
0.000384
0.000366
0.000335
0.000305
0.000233
0.000240
0.000269
0.000238
0.000277
0.000245
0.000276
0.000310
0.000257
0.000262
0.000269
0.001575
0.000277
0.000402
0.001995
0.000276
0.000160
0.000056
0.000212
0.000222
0.000238
0.000249
0.000465
0.000225
0.000251
0.000323
0.000385
0.000370
0.000232
0.000220
0.000251
0.000276
0.000275
0.000322
0.000527
0.000326
0.000263
0.000368
0.000616
0.000392
0.001565
0.000256
0.000248
0.002048
0.000327
0.000223
0.000219
0.000267
0.000209
0.000056
0.000194
0.000228
0.000227
0.000241
0.000246
0.000264
0.000258
0.000266
0.000254
0.000251
0.001887
0.000270
0.000397
0.000321
0.000460
0.000360
0.001521
0.000341
0.000231
0.000296
0.002006
0.000692
0.000203
0.000229
0.000231
0.000274
0.000497
0.000231
0.000258
0.000263
0.000217
0.000056
0.000282
0.000377
0.000375
0.000245
0.000209
0.000230
0.000260
0.000248
0.000272
0.000303
0.000219
0.000249
0.000254
0.000253
0.000321
0.000452
0.001366
0.000262
0.000314
0.001930
0.000371
0.000271
0.000210
0.000253
0.000240
0.000287
0.000262
0.000270
0.000243
0.000261
0.000225
0.000056
0.000228
0.000405
0.002079
0.000216
0.000237
0.000232
0.000219
0.000298
0.000424
0.001583
0.000268
0.000364
0.000335
0.002001
0.000238
0.000238
0.000266
0.000273
0.000262
0.000231
0.000286
0.000301
0.000249
0.000308
0.000535
0.000473
0.000265
0.002184
0.000484
0.000469
0.000452
0.000056
0.000214
0.000218
0.000212
0.002036
0.000196
0.000217
0.000231
0.000277
0.000201
0.000251
0.000251
0.000255
0.000252
0.000347
0.000456
0.000349
0.001293
0.000235
0.000273
0.000281
0.000219
0.000243
0.000263
0.000265
0.000338
0.000481
0.000420
0.000252
0.001694
0.000223
0.000155
0.000057
0.000198
0.000213
0.000224
0.000234
0.000248
0.000254
0.000251
0.000247
0.000273
0.000391
0.000338
0.001479
0.000196
0.000222
0.000231
0.000244
0.000265
0.000260
0.000254
0.000518
0.000591
0.000289
0.000221
0.001552
0.000261
0.000236
0.000282
0.000277
0.000263
0.000267
0.000210
0.000056
0.000193
0.000219
0.000260
0.000267
0.000251
0.000240
0.000243
0.000239
0.000256
0.000244
0.000257
0.000249
0.000263
0.000247
0.001582
0.000230
0.000258
0.000244
0.000333
0.000324
0.000368
0.000265
0.000207
0.000245
0.000269
0.000265
0.001464
0.000294
0.000210
0.000225
0.000179
0.000057
0.000174
0.000236
0.000237
0.000263
0.000263
0.000228
0.000251
0.000262
0.000217
0.000266
0.000248
0.000253
0.000230
0.000309
0.000448
0.000289
0.000284
0.001581
0.000338
0.000215
0.000208
0.000238
0.000252
0.000316
0.000420
0.000431
0.000415
0.000241
0.000214
0.001597
0.000193
0.000056
0.000320
0.000386
0.000315
0.000316
0.000203
0.000213
0.000242
0.000268
0.000259
0.000242
0.000246
0.000229
0.001465
0.000326
0.000305
0.000216
0.000217
0.000263
0.000267
0.000267
0.000259
0.000236
0.000261
0.000267
0.000252
0.000327
0.000584
0.000356
0.000237
0.000220
0.000198
0.000056
0.000205
0.000259
0.000468
0.000409
0.000300
0.000226
0.000225
0.000249
0.000252
0.000254
0.000245
0.000227
0.000247
0.000253
0.001335
0.000268
0.000221
0.000228
0.000258
0.000271
0.000245
0.000251
0.000262
0.000255
0.000259
0.000254
0.000327
0.000750
0.000389
0.000239
0.000181
0.000056
0.000198
0.001529
0.000267
0.000297
0.000483
0.000403
0.000196
0.000243
0.000269
0.000248
0.000241
0.000265
0.000270
0.000274
0.000267
0.001518
0.000247
0.000286
0.000261
0.000260
0.000258
0.000252
0.000267
0.000263
0.000265
0.000257
0.000467
0.000359
0.000374
0.000234
0.000174
0.000056
0.000196
0.000226
0.000245
0.001756
0.000345
0.000345
0.000193
0.000205
0.000247
0.000268
0.000276
0.000265
0.000251
0.000261
0.000236
0.000271
0.000431
0.001358
0.000212
0.000221
0.001537
0.000552
0.000315
0.000422
0.000289
0.000228
0.000257
0.000460
0.000246
0.000243
0.000206
0.000055
0.000282
0.000219
0.000232
0.000226
0.000249
0.000255
0.000244
0.000253
0.000259
0.000233
0.000258
0.000260
0.000390
0.000434
0.001647
0.001487
0.000385
0.000541
0.000294
0.000248
0.000237
0.000253
0.000251
0.000259
0.000251
0.000281
0.000249
0.000265
0.001593
0.000319
0.000139
0.000074
0.000200
0.000343
0.000350
0.000330
0.000268
0.000196
0.000216
0.000445
0.000372
0.001385
0.000346
0.001554
0.000372
0.000470
0.000432
0.000257
0.000345
0.000342
0.000342
0.000288
0.000232
0.000356
0.001562
0.000531
0.000236
0.000244
0.000254
0.000246
0.000267
0.000267
0.000213
0.000056
0.000193
0.000233
0.000259
0.000254
0.000242
0.001650
0.000953
0.000900
0.000251
0.000236
0.000246
0.000267
0.000252
0.000256
0.000257
0.000249
0.000256
0.000265
0.000267
0.000278
0.001508
0.000259
0.000254
0.000226
0.000214
0.000255
0.000271
0.000270
0.000270
0.000284
0.000231
0.000057
0.000196
0.000198
0.001540
0.000947
0.000349
0.000349
0.000235
0.000205
0.000239
0.000271
0.000231
0.000250
0.000248
0.002201
0.000319
0.000205
0.000213
0.000259
0.000242
0.000261
0.000198
