0.000119
0.020970
0.000724
0.000397
0.000210
0.000252
0.000339
0.000216
0.000328
0.000290
0.000247
0.000395
0.000525
0.000474
0.000329
0.000324
0.000302
0.000373
0.000396
0.000414
0.000298
0.001873
0.000489
0.000453
0.000289
0.000265
0.000302
0.000406
0.000416
0.000399
0.000445
0.000311
0.000057
0.000198
0.000237
0.000275
0.000261
0.000264
0.000262
0.000277
0.000258
0.000278
0.000281
0.000433
0.000499
0.000271
0.000273
0.000402
0.000412
0.000301
0.000245
0.000218
0.001728
0.000300
0.000235
0.000495
0.000249
0.000260
0.000242
0.000272
0.000295
0.000281
0.000315
0.000408
0.000056
0.000234
0.000226
0.000259
0.000260
0.000256
0.000245
0.000266
0.000256
0.000282
0.001670
0.000243
0.000234
0.000279
0.000245
0.000278
0.000247
0.000275
0.000255
0.000345
0.001796
0.000263
0.000254
0.000450
0.000462
0.000395
0.000239
0.000224
0.000521
0.000471
0.000805
0.000170
0.000056
0.000226
0.000217
0.000252
0.000265
0.000291
0.000248
0.000294
0.000532
0.000484
0.000257
0.000216
0.000223
0.000229
0.000259
0.000243
0.000267
0.000243
0.000272
0.000291
0.000343
0.001722
0.000250
0.000232
0.000469
0.000283
0.000668
0.000620
0.000561
0.000325
0.000258
0.000205
0.000056
0.000206
0.000224
0.000264
0.000255
0.000249
0.000255
0.000265
0.000468
0.001468
0.000241
0.000241
0.000233
0.000253
0.000251
0.000267
0.000287
0.000282
0.000767
0.001412
0.000287
0.000258
0.000435
0.000243
0.000257
0.000234
0.000248
0.000274
0.000266
0.000269
0.000254
0.000226
0.000056
0.000186
0.000219
0.000242
0.000246
0.000255
0.000247
0.000250
0.000250
0.000235
0.000253
0.001699
0.000249
0.000218
0.000238
0.000220
0.000260
0.000234
0.000261
0.000247
0.000254
0.000262
0.001735
0.000246
0.000269
0.000470
0.000231
0.000229
0.000249
0.000263
0.000261
0.000203
0.000057
0.000219
0.000209
0.000236
0.000247
0.000248
0.000243
0.000257
0.000244
0.000259
0.000249
0.000265
0.000249
0.000253
0.000280
0.001639
0.000276
0.000280
0.000236
0.000246
0.000274
0.000271
0.000248
0.000254
0.000254
0.000271
0.001836
0.000392
0.000349
0.000267
0.000277
0.000215
0.000056
0.000214
0.000216
0.000238
0.000283
0.000258
0.000230
0.000381
0.000523
0.000236
0.000403
0.000219
0.000250
0.000235
0.000246
0.001649
0.000503
0.000327
0.000383
0.000298
0.000220
0.000260
0.000277
0.000273
0.001802
0.000445
0.000525
0.000215
0.000235
0.000241
0.000260
0.000204
0.000057
0.000190
0.000244
0.000223
0.000266
0.000321
0.000454
0.000394
0.000296
0.000218
0.000211
0.000267
0.000244
0.000251
0.001719
0.000485
0.000299
0.000219
0.000245
0.000272
0.000276
0.000255
0.000263
0.000264
0.001907
0.000302
0.000384
0.000270
0.000239
0.000297
0.000392
0.000318
0.000056
0.000196
0.000374
0.000362
0.000280
0.000283
0.000211
0.000239
0.000258
0.000241
0.000246
0.000231
0.000241
0.001612
0.000460
0.000208
0.000198
0.000226
0.000250
0.000247
0.000275
0.000277
0.000322
0.001795
0.000354
0.000231
0.000500
0.000220
0.000249
0.000226
0.000267
0.000314
0.000056
0.000393
0.000484
0.000658
0.000204
0.000208
0.000270
0.000234
0.000217
0.000267
0.000241
0.000257
0.001721
0.000246
0.000408
0.000384
0.000228
0.000235
0.000249
0.000226
0.000256
0.000258
0.001858
0.000258
0.000222
0.002282
0.000400
0.000262
0.000262
0.000263
0.000253
0.000218
0.000056
0.000224
0.000211
0.000234
0.000241
0.000249
0.001741
0.000182
0.000189
0.000242
0.000256
0.000246
0.000257
0.000233
0.000264
0.000257
0.000501
0.000584
0.000219
0.000237
0.000274
0.000266
0.000247
0.000247
0.000490
0.000463
0.000206
0.000419
0.000497
0.000456
0.000226
0.000204
0.000057
0.000197
0.000228
0.000249
0.000248
0.000241
0.000241
0.000457
0.000234
0.000475
0.001632
0.000213
0.000235
0.000254
0.000244
0.000246
0.000284
0.000399
0.000545
0.000380
0.000233
0.000231
0.000266
0.000321
0.000270
0.000261
0.000405
0.000427
0.000549
0.000456
0.000495
0.000130
0.000056
0.000205
0.000250
0.000230
0.000221
0.000238
0.000243
0.000241
0.000250
0.000251
0.000357
0.000340
0.001567
0.000278
0.000205
0.000209
0.000218
0.000262
0.000253
0.000244
0.000273
0.000279
0.000462
0.000376
0.000342
0.000206
0.000243
0.000271
0.000255
0.000270
0.000267
0.000419
0.000056
0.000197
0.000210
0.000241
0.000254
0.000521
0.000437
0.000258
0.000252
0.000228
0.000262
0.000245
0.000242
0.000287
0.000256
0.000248
0.000538
0.000403
0.001600
0.000268
0.000237
0.000294
0.000227
0.000256
0.000270
0.000238
0.000488
0.000458
0.000377
0.000350
0.000247
0.000212
0.000057
0.000205
0.000231
0.000397
0.000242
0.000268
0.000239
0.000242
0.000627
0.000307
0.000328
0.000234
0.000261
0.000269
0.000240
0.000601
0.000284
0.000216
0.000252
0.000421
0.001670
0.000238
0.000232
0.000313
0.000420
0.000275
0.000300
0.000249
0.000417
0.000469
0.000383
0.000277
0.000056
0.000174
0.000213
0.000237
0.000246
0.000475
0.000267
0.000290
0.000214
0.000442
0.000547
0.000339
0.000221
0.000210
0.000212
0.000259
0.000273
0.000251
0.000261
0.000221
0.000381
0.000270
0.000279
0.001882
0.000274
0.000239
0.000246
0.000319
0.000351
0.000431
0.000730
0.000402
0.000060
0.000239
0.000318
0.000331
0.000416
0.000317
0.000213
0.000256
0.000249
0.000581
0.000380
0.000324
0.000198
0.000220
0.000268
0.000269
0.000242
0.000236
0.000281
0.000264
0.000262
0.000269
0.000427
0.001736
0.000298
0.000359
0.000419
0.000386
0.000250
0.000403
0.000376
0.000374
0.000056
0.000222
0.000382
0.000292
0.000207
0.000229
0.000224
0.000467
0.000211
0.000217
0.000451
0.000285
0.000553
0.000186
0.000235
0.000256
0.000286
0.000357
0.000440
0.000317
0.000223
0.000216
0.000320
0.000671
0.001696
0.000267
0.000392
0.000335
0.000228
0.000248
0.000477
0.000283
0.000056
0.000229
0.000204
0.000234
0.000248
0.000244
0.000252
0.000253
0.000363
0.000419
0.000272
0.000516
0.000374
0.000279
0.000203
0.000524
0.000274
0.000267
0.000269
0.000242
0.000348
0.000234
0.000229
0.000265
0.000508
0.000449
0.001667
0.000238
0.000232
0.000247
0.000248
0.000206
0.000056
0.000283
0.000470
0.000381
0.000203
0.000238
0.000224
0.000266
0.000230
0.000260
0.000259
0.000227
0.000480
0.000256
0.000514
0.000362
0.000315
0.000231
0.000250
0.000349
0.000354
0.000364
0.000366
0.000384
0.000377
0.000257
0.000235
0.000225
0.000278
0.001773
0.000284
0.000201
0.000057
0.000187
0.000201
0.000259
0.000283
0.000338
0.000535
0.000364
0.000207
0.000234
0.000262
0.000258
0.000241
0.000537
0.000442
0.000470
0.000312
0.000272
0.000235
0.000436
0.000491
0.000365
0.000428
0.000459
0.000448
0.000242
0.000247
0.000235
0.000225
0.000267
0.001775
0.000280
0.000057
0.000244
0.000323
0.000229
0.000209
0.000246
0.000250
0.000280
0.000446
0.000428
0.000303
0.000305
0.000274
0.000378
0.000697
0.000296
0.000205
0.000212
0.000239
0.000253
0.000271
0.000261
0.000275
0.000234
0.000273
0.000329
0.000329
0.000583
0.000254
0.000226
0.000209
0.000195
0.000056
0.000473
0.000291
0.000415
0.000262
0.000204
0.000241
0.000247
0.000252
0.000247
0.000220
0.000242
0.000276
0.000301
0.000394
0.000630
0.000328
0.000317
0.000358
0.000374
0.000392
0.000267
0.000218
0.000229
0.000246
0.001815
0.000232
0.001760
0.000921
0.000355
0.000362
0.000158
0.000057
0.000218
0.000211
0.000228
0.000239
0.000263
0.000248
0.000244
0.000258
0.000247
0.000311
0.000375
0.000429
0.000397
0.000397
0.000227
0.000252
0.000268
0.000290
0.000210
0.000230
0.000256
0.000225
0.001797
0.000288
0.000215
0.000271
0.000273
0.000271
0.001859
0.000571
0.000242
0.000057
0.000257
0.000176
0.000217
0.000245
0.000248
0.000244
0.000246
0.000254
0.000254
0.000464
0.000471
0.000304
0.000399
0.000256
0.000225
0.000269
0.000377
0.000392
0.000371
0.000257
0.001800
0.000246
0.000253
0.000201
0.000254
0.000266
0.000247
0.000269
0.000246
0.000345
0.000416
0.000057
0.000254
0.000195
0.000207
0.000249
0.000255
0.000244
0.000255
0.000248
0.000245
0.000256
0.000246
0.000263
0.000343
0.000500
0.000333
0.000265
0.000475
0.000203
0.000251
0.000236
0.000261
0.000250
0.000276
0.000256
0.000280
0.001782
0.000283
0.000216
0.000267
0.000237
0.000222
0.000056
0.000225
0.000382
0.000233
0.000205
0.000224
0.000239
0.000237
0.000253
0.000252
0.000226
0.000232
0.000262
0.000257
0.000292
0.000509
0.000346
0.000340
0.000211
0.000229
0.000238
0.000260
0.000257
0.000255
0.000265
0.000254
0.000259
0.000264
0.001740
0.000234
0.000228
0.000190
0.000056
0.000185
0.000224
0.000247
0.000250
0.000356
0.000386
0.000349
0.000346
0.000223
0.000247
0.000254
0.000233
0.000253
0.000255
0.000257
0.000260
0.000250
0.000257
0.000251
0.000253
0.000269
0.000263
0.000267
0.000226
0.000244
0.000276
0.000276
0.000266
0.000271
0.000250
0.000207
0.000056
0.000191
0.000211
0.000244
0.000258
0.000238
0.000253
0.000238
0.000258
0.000364
0.000203
0.000185
0.000252
0.000274
0.000235
0.000259
0.000270
0.000252
0.000245
0.000366
0.000210
0.000241
0.000290
0.000283
0.000247
0.000274
0.000285
0.000264
0.000263
0.000248
0.000346
0.000714
0.000057
0.000227
0.000301
0.000226
0.000204
0.000208
0.000254
0.000237
0.000253
0.000270
0.000224
0.000271
0.000273
0.000505
0.000473
0.001605
0.000216
0.000519
0.000199
0.000225
0.000423
0.000529
0.000304
0.000232
0.000277
0.000251
0.000262
0.000282
0.000256
0.000300
0.000266
0.000207
0.000057
0.000344
0.000392
0.000391
0.000301
0.000198
0.000236
0.000255
0.000252
0.000228
0.000247
0.000256
0.000256
0.000254
0.000264
0.000392
0.000457
0.000370
0.001790
0.000279
0.000220
0.000384
0.000384
0.000424
0.000323
0.000369
0.000312
0.000259
0.000227
0.000224
0.000246
0.000219
0.000056
0.000200
0.000204
0.000243
0.000274
0.000471
0.000374
0.000328
0.000242
0.000248
0.000220
0.000240
0.000267
0.000269
0.000263
0.000253
0.000259
0.000317
0.000470
0.000365
0.000414
0.000227
0.001817
0.000287
0.000552
0.000525
0.000408
0.000283
0.000234
0.000242
0.000266
0.000505
0.000056
0.000189
0.000242
0.000242
0.000269
0.000465
0.000446
0.000367
0.000249
0.000217
0.000321
0.000220
0.000230
0.000254
0.000303
0.000365
0.000198
0.000216
0.000395
0.000422
0.000375
0.000558
0.001773
0.000260
0.000487
0.000436
0.000372
0.000234
0.000374
0.000243
0.000212
0.000214
0.000055
0.000219
0.000334
0.000351
0.000369
0.000344
0.000264
0.000400
0.000208
0.000231
0.000258
0.000270
0.000236
0.000238
0.000256
0.000254
0.000273
0.000292
0.000355
0.000540
0.000353
0.000321
0.000225
0.000250
0.001788
0.000429
0.000462
0.000647
0.000283
0.000242
0.000293
0.000182
0.000056
0.000177
0.000227
0.000311
0.000259
0.000250
0.000386
0.000422
0.000315
0.000308
0.000532
0.000204
0.000225
0.000230
0.000273
0.000279
0.000272
0.000229
0.000301
0.000602
0.000320
0.000264
0.000232
0.000262
0.000253
0.000265
0.000272
0.000235
0.000251
0.000264
0.000345
0.000170
0.000056
0.000255
0.000331
0.000216
0.000241
0.000247
0.000251
0.000249
0.000355
0.000212
0.000211
0.000255
0.000340
0.000461
0.000411
0.000300
0.000302
0.000216
0.000239
0.000252
0.000253
0.000290
0.000261
0.000241
0.000259
0.000270
0.000337
0.000434
0.000411
0.000334
0.000210
0.000167
0.000056
0.000182
0.000211
0.000269
0.000249
0.000235
0.000251
0.000257
0.000257
0.000494
0.000229
0.000236
0.000281
0.000234
0.000242
0.000283
0.000267
0.000272
0.000351
0.000257
0.000222
0.000236
0.000269
0.000259
0.000262
0.000275
0.000261
0.000293
0.000239
0.000251
0.000508
0.000164
0.000056
0.000181
0.000211
0.000248
0.000263
0.000252
0.000229
0.000292
0.000461
0.000258
0.000234
0.000244
0.000260
0.000240
0.000269
0.000413
0.001795
0.000262
0.000238
0.000295
0.000383
0.000412
0.000343
0.000379
0.000339
0.000428
0.000348
0.000251
0.000274
0.000271
0.000268
0.001415
0.000057
0.000376
0.000316
0.000314
0.000190
0.000201
0.000241
0.000241
0.000248
0.000252
0.000255
0.000256
0.000258
0.000249
0.000325
0.000577
0.001626
0.000215
0.000212
0.000215
0.000280
0.000249
0.000247
0.000326
0.000461
0.000275
0.000329
0.000248
0.000251
0.000279
0.000252
0.000216
0.000073
0.001197
0.000552
0.000325
0.000306
0.000196
0.000197
0.000215
0.000228
0.000501
0.000268
0.000185
0.000241
0.000319
0.000539
0.000403
0.000341
0.000304
0.000238
0.000319
0.000387
0.000238
0.000225
0.000281
0.000229
0.000271
0.000642
0.000529
0.000229
0.000247
0.000276
0.000183
0.000057
0.000217
0.000195
0.000228
0.000248
0.001427
0.000369
0.000197
0.000249
0.000248
0.000246
0.000254
0.000252
0.000242
0.000258
0.000269
0.000269
0.000482
0.000643
0.000272
0.001801
0.000235
0.000299
0.000282
0.000384
0.000517
0.000446
0.000243
0.000231
0.000259
0.000264
0.000219
0.000057
0.000225
0.000228
0.000222
0.001318
0.000337
0.000191
0.000260
0.000214
0.000234
0.000237
0.000239
0.000249
0.000277
0.000251
0.000244
0.000265
0.000666
0.000340
0.000295
0.000209
0.000250
0.000280
0.000255
0.000222
0.000353
0.000230
0.000217
0.000277
0.000275
0.000353
0.000589
0.000056
0.000205
0.000231
0.000239
0.000257
0.000258
0.000259
0.000229
0.000262
0.000265
0.000255
0.001430
0.000242
0.000229
0.000247
0.000254
0.000238
0.000272
0.000252
0.000269
0.000265
0.000270
0.000477
0.000568
0.000268
0.000246
0.000271
0.001830
0.000231
0.000223
0.000333
0.000407
0.000057
0.000260
0.000425
0.000456
0.000509
0.000521
0.000546
0.001446
0.000439
0.000543
0.000646
0.000561
0.000692
0.000504
0.000623
0.000587
0.001715
0.000462
0.000456
0.000392
0.000309
0.000246
0.000297
0.000289
0.000265
0.000275
0.000269
0.000302
0.000273
0.000260
0.000320
0.001302
0.000056
0.000228
0.000248
0.000214
0.000239
0.000241
0.000251
0.000237
0.000239
0.000254
0.000276
0.000239
0.000264
0.000229
0.000270
0.000264
0.000268
0.001831
0.000257
0.000285
0.000236
0.000248
0.000263
0.000268
0.000302
0.000456
0.000361
0.000316
0.000246
0.000259
0.000295
0.000166
0.000057
0.000230
0.001376
0.000254
0.000273
0.000256
0.000234
0.000259
0.000235
0.000250
0.000258
0.000226
0.000242
0.000264
0.000444
0.000274
0.000363
0.000260
0.000284
0.001904
0.000268
0.000256
0.000255
0.000254
0.000260
0.000279
0.000257
0.000288
0.000256
0.000235
0.000311
0.000236
0.000056
0.000188
0.000229
0.000246
0.001424
0.000291
0.000240
0.000221
0.000228
0.000231
0.000268
0.000247
0.000252
0.000233
0.000261
0.000307
0.000220
0.000253
0.000261
0.000279
0.000254
0.000258
0.001843
0.000268
0.001761
0.000253
0.000255
0.000253
0.000225
0.000270
0.000291
0.000200
0.000056
0.000212
0.000230
0.001383
0.000217
0.000262
0.000227
0.000221
0.000246
0.000256
0.000239
0.000254
0.000247
0.000255
0.000286
0.000236
0.000266
0.000253
0.000278
0.000298
0.000247
0.001861
0.000276
0.001799
0.000269
0.000254
0.000242
0.000260
0.000260
0.000267
0.000260
0.000187
0.000057
0.001447
0.000228
0.000241
0.000223
0.000218
0.000225
0.000272
0.000361
0.000256
0.000255
0.000249
0.000260
0.000327
0.000255
0.000533
0.000231
0.000249
0.000262
0.000228
0.000232
0.000267
0.000332
0.000244
0.000249
0.000280
0.000277
0.000257
0.000501
0.000548
0.000353
0.000186
0.000057
0.000210
0.000276
0.000267
0.000314
0.000354
0.000287
0.001660
0.000282
0.000279
0.000255
0.000271
0.000303
0.000260
0.000266
0.000300
0.000306
0.000376
0.000476
0.000405
0.000272
0.000326
0.000275
0.000263
0.000261
0.000331
0.000266
0.000258
0.000244
0.000246
0.000330
0.000370
0.000056
0.000309
0.000371
0.000262
0.000270
0.000257
0.000218
0.000242
0.000240
0.000253
0.000295
0.001469
0.000243
0.000219
0.000243
0.000251
0.000283
0.000268
0.000248
0.000264
0.000260
0.000279
0.000356
0.000517
0.000406
0.000226
0.000284
0.000268
0.000237
0.000236
0.000250
0.000248
0.000056
0.000201
0.000189
0.000471
0.000267
0.000387
0.000270
0.000233
0.000231
0.000251
0.000253
0.000242
0.000251
0.000251
0.000262
0.000238
0.000241
0.000367
0.001310
0.000224
0.000285
0.000197
0.000246
0.000365
0.000473
0.000234
0.000224
0.000627
0.000351
0.000425
0.000219
0.000170
0.000057
0.000192
0.000233
0.000262
0.000260
0.000312
0.000198
0.000331
0.000446
0.000458
0.000299
0.000361
0.000398
0.000392
0.000356
0.000235
0.000220
0.000224
0.000245
0.000357
0.000571
0.001186
0.000244
0.000256
0.000273
0.000240
0.000235
0.000258
0.000333
0.000388
0.000553
0.000205
0.000056
0.000179
0.000214
0.000245
0.000239
0.000249
0.000254
0.000232
0.000259
0.000254
0.000383
0.000511
0.000390
0.000228
0.000204
0.000228
0.000262
0.000241
0.000266
0.000262
0.000239
0.000507
0.000203
0.000435
0.000330
0.000384
0.000213
0.000254
0.000284
0.000250
0.000277
0.000238
0.000056
0.000285
0.000295
0.000307
0.000397
0.000467
0.000315
0.000259
0.000265
0.000223
0.000256
0.000262
0.000264
0.000244
0.000247
0.000257
0.000215
0.000268
0.000386
0.000666
0.000199
0.000226
0.000261
0.000210
0.000245
0.000259
0.000285
0.000268
0.000268
0.000275
0.000267
0.000365
0.000056
0.000216
0.000371
0.000230
0.000225
0.000245
0.000249
0.000254
0.000244
0.000264
0.000254
0.000257
0.000240
0.000266
0.000686
0.000321
0.000308
0.000208
0.000212
0.000248
0.000263
0.000269
0.000244
0.000267
0.000261
0.000268
0.000282
0.000457
0.000581
0.000518
0.000196
0.000153
0.000056
0.000353
0.000199
0.000193
0.000253
0.000246
0.000245
0.000238
0.000247
0.000254
0.000257
0.000228
0.000244
0.000289
0.000211
0.000242
0.000254
0.000264
0.000255
0.000289
0.000249
0.000269
0.000245
0.000269
0.000258
0.000277
0.000271
0.000230
0.000278
0.000259
0.000275
0.000226
0.000057
0.000180
0.000211
0.000255
0.000253
0.000225
0.000252
0.000262
0.000242
0.000254
0.000278
0.000245
0.000226
0.000267
0.000398
0.000236
0.000280
0.000263
0.000267
0.000252
0.000277
0.000278
0.000240
0.000242
0.000246
0.000272
0.000279
0.000245
0.000259
0.000264
0.000268
0.000222
0.000057
0.000246
0.000379
0.000353
0.000280
0.000303
0.000232
0.000213
0.000256
0.000240
0.000254
0.000224
0.000259
0.000259
0.000233
0.000252
0.000269
0.000258
0.000273
0.000245
0.000262
0.000274
0.000261
0.000284
0.000257
0.000269
0.000268
0.000251
0.000285
0.000242
0.000264
0.000210
0.000056
0.000172
0.000224
0.000249
0.000259
0.000249
0.000451
0.000216
0.000242
0.000302
0.000357
0.000551
0.000337
0.000224
0.000210
0.000266
0.000270
0.000236
0.000265
0.000266
0.000264
0.000264
0.000266
0.000258
0.000281
0.000486
0.000561
0.000281
0.000264
0.000271
0.000262
0.000204
0.000056
0.000201
0.000206
0.000243
0.000268
0.000250
0.000769
0.000247
0.000377
0.000234
0.000230
0.000262
0.000244
0.000268
0.000237
0.000260
0.000269
0.000274
0.000235
0.000666
0.000371
0.000304
0.000218
0.000260
0.000281
0.000280
0.000266
0.000265
0.000257
0.000251
0.000346
0.000313
0.000057
0.000251
0.000238
0.000220
0.000235
0.000253
0.000256
0.000253
0.000223
0.000246
0.000250
0.000254
0.000250
0.000244
0.000428
0.000532
0.000439
0.000217
0.000230
0.000268
0.000251
0.000261
0.000269
0.000475
0.000246
0.000262
0.000680
0.000408
0.000406
0.000256
0.000252
0.000192
0.000055
0.000200
0.000207
0.000247
0.000231
0.000258
0.000269
0.000257
0.000574
0.000561
0.000349
0.000217
0.000254
0.000281
0.000272
0.000273
0.000241
0.000239
0.000243
0.000279
0.000422
0.000355
0.000525
0.000427
0.000270
0.000436
0.000345
0.000496
0.000203
0.000239
0.000372
0.000458
0.000057
0.000258
0.000214
0.000487
0.000200
0.000227
0.000228
0.000249
0.000263
0.000231
0.000241
0.000301
0.000387
0.000364
0.000368
0.000213
0.000235
0.000256
0.000242
0.000268
0.000270
0.000268
0.000267
0.000241
0.000277
0.000445
0.000372
0.000455
0.000247
0.000270
0.000257
0.000219
0.000056
0.000206
0.000240
0.000230
0.000242
0.000249
0.000287
0.000371
0.000415
0.000404
0.000278
0.000344
0.000261
0.000213
0.000266
0.000262
0.000233
0.000252
0.000267
0.000276
0.000460
0.000502
0.000266
0.000455
0.000341
0.000397
0.000392
0.000381
0.000258
0.000215
0.000318
0.000344
0.000057
0.000197
0.000262
0.000228
0.000231
0.000261
0.000257
0.000246
0.000250
0.000252
0.000277
0.000226
0.000394
0.000426
0.000358
0.000369
0.000255
0.000240
0.000260
0.000272
0.000237
0.000248
0.000258
0.000261
0.000275
0.000276
0.000317
0.000565
0.000417
0.000241
0.000279
0.000211
0.000056
0.000213
0.000210
0.000265
0.000249
0.000250
0.000313
0.000503
0.000527
0.000350
0.000668
0.000318
0.000196
0.000214
0.000259
0.000237
0.000271
0.000280
0.000260
0.000479
0.000573
0.001498
0.000246
0.000261
0.000252
0.000303
0.000222
0.000380
0.000403
0.000353
0.000343
0.000171
0.000057
0.000209
0.000203
0.000244
0.000252
0.000232
0.000253
0.000274
0.000261
0.000245
0.000355
0.000351
0.000365
0.000274
0.000388
0.000385
0.000329
0.000234
0.000213
0.000253
0.000263
0.000241
0.000250
0.000274
0.000256
0.000370
0.000526
0.000362
0.000248
0.000216
0.000278
0.000193
0.000056
0.000208
0.000234
0.000250
0.000258
0.000247
0.000235
0.000481
0.000205
0.000234
0.000250
0.000242
0.000265
0.000248
0.000256
0.000250
0.000271
0.000269
0.000255
0.000277
0.000252
0.000252
0.000290
0.000320
0.000229
0.000260
0.000268
0.000279
0.000265
0.000263
0.000274
0.000190
0.000056
0.000226
0.000214
0.000303
0.000497
0.000367
0.000224
0.000202
0.000245
0.000261
0.000245
0.000250
0.000243
0.000268
0.000265
0.000240
0.000234
0.000258
0.000261
0.000260
0.000371
0.000399
0.000439
0.000225
0.000260
0.000267
0.000257
0.000264
0.000252
0.000270
0.000279
0.000216
0.000056
0.000389
0.000439
0.000343
0.000229
0.000240
0.000253
0.000482
0.000191
0.000200
0.000246
0.000281
0.000333
0.000359
0.000466
0.001757
0.000262
0.000256
0.000237
0.000276
0.000247
0.000354
0.000575
0.000451
0.000337
0.000218
0.000250
0.000281
0.000419
0.000283
0.000277
0.000185
0.000056
0.000234
0.000377
0.000275
0.000333
0.000510
0.000201
0.000239
0.000236
0.000255
0.000243
0.000255
0.000253
0.000268
0.000340
0.000363
0.000504
0.000246
0.000211
0.000266
0.000264
0.000251
0.000311
0.000262
0.000257
0.000283
0.000444
0.000509
0.000425
0.000478
0.000207
0.000205
0.000056
0.000193
0.000211
0.000251
0.000233
0.000244
0.000248
0.000272
0.000268
0.000340
0.000416
0.000393
0.000387
0.000212
0.000231
0.000261
0.000277
0.000325
0.000235
0.000267
0.000272
0.000248
0.000250
0.000566
0.000323
0.000281
0.000288
0.000235
0.000539
0.000387
0.000266
0.000168
0.000056
0.000201
0.000216
0.000330
0.000458
0.000367
0.000238
0.000191
0.000256
0.000254
0.000260
0.000266
0.000261
0.000222
0.000264
0.000251
0.000279
0.000499
0.000285
0.000279
0.000390
0.000454
0.000230
0.000268
0.000274
0.000314
0.000277
0.000261
0.000260
0.000541
0.000508
0.000161
0.000057
0.000188
0.000200
0.000248
0.000247
0.000246
0.000491
0.000217
0.000231
0.000270
0.000334
0.000528
0.000565
0.000212
0.000239
0.000236
0.000247
0.000255
0.000249
0.000249
0.000254
0.000258
0.000267
0.000431
0.000403
0.000374
0.000337
0.000348
0.000328
0.000309
0.000237
0.000163
0.000057
0.000185
0.000220
0.000247
0.000487
0.000314
0.000411
0.000222
0.000205
0.000198
0.000264
0.000255
0.000242
0.000251
0.000255
0.000305
0.000218
0.000244
0.000256
0.000246
0.000388
0.000725
0.000218
0.000222
0.000227
0.000274
0.000277
0.000257
0.000262
0.000270
0.000258
0.000219
0.000057
0.000243
0.000465
0.000466
0.000203
0.000214
0.000216
0.000319
0.000505
0.000275
0.000211
0.000208
0.000270
0.000256
0.000466
0.000484
0.000276
0.000223
0.000226
0.000275
0.000203
0.000276
0.000272
0.000251
0.000275
0.000261
0.000313
0.000425
0.000401
0.000376
0.000201
0.000157
0.000057
0.000199
0.000223
0.000244
0.000254
0.000252
0.000261
0.000232
0.000253
0.000251
0.000248
0.000270
0.000239
0.000256
0.001455
0.000270
0.000229
0.000244
0.000255
0.000268
0.000283
0.000258
0.000248
0.000268
0.000254
0.000274
0.000263
0.000298
0.000242
0.000273
0.000257
0.000213
0.000056
0.000222
0.000202
0.000238
0.000248
0.000243
0.000237
0.000260
0.000254
0.000240
0.000249
0.000241
0.000263
0.000255
0.000255
0.000257
0.000260
0.000247
0.000269
0.000265
0.000254
0.000255
0.000256
0.000255
0.000246
0.001362
0.000276
0.000519
0.000505
0.000328
0.000217
0.000154
0.000055
0.000210
0.000218
0.000243
0.000243
0.000502
0.000226
0.000192
0.000218
0.000259
0.000358
0.000518
0.000348
0.000205
0.000202
0.000241
0.000265
0.000255
0.000261
0.000255
0.000256
0.000259
0.000254
0.000256
0.000527
0.000406
0.000440
0.000250
0.000255
0.001359
0.000289
0.000170
0.000057
0.000238
0.000424
0.000369
0.000226
0.000201
0.000214
0.000216
0.000249
0.000259
0.000275
0.000230
0.000255
0.000260
0.000312
0.000538
0.000396
0.000319
0.000246
0.000233
0.000236
0.000272
0.000265
0.000267
0.000271
0.000260
0.000263
0.000514
0.000348
0.000450
0.000354
0.000147
0.000056
0.000199
0.000221
0.001313
0.000357
0.000333
0.000421
0.000370
0.000320
0.000433
0.000396
0.000224
0.000208
0.000247
0.000256
0.000251
0.000263
0.000329
0.000672
0.000269
0.000321
0.000272
0.000238
0.000254
0.000517
0.000231
0.000274
0.000250
0.000271
0.000281
0.000572
0.000314
0.000055
0.000333
0.000385
0.000228
0.000206
0.001509
0.000555
0.000296
0.000227
0.000204
0.000251
0.000226
0.000241
0.000245
0.000265
0.000258
0.000263
0.000230
0.000305
0.000441
0.000409
0.000430
0.000223
0.000214
0.000253
0.000253
0.000275
0.000271
0.000238
0.000261
0.000300
0.000196
0.000057
0.000380
0.000289
0.000249
0.000213
0.000251
0.000247
0.000238
0.000256
0.000227
0.000250
0.001443
0.000484
0.000270
0.000201
0.000211
0.000265
0.000266
0.000267
0.000238
0.000269
0.000267
0.000265
0.000273
0.000460
0.000364
0.000470
0.000207
0.000265
0.000279
0.000278
0.000195
0.000057
0.000199
0.000470
0.000190
0.000205
0.000374
0.000420
0.000354
0.000327
0.000463
0.000204
0.000220
0.000253
0.000261
0.000262
0.000269
0.001403
0.000367
0.000281
0.000241
0.000274
0.000278
0.000250
0.000260
0.000254
0.000253
0.000275
0.000559
0.000316
0.000316
0.000277
0.000162
0.000056
0.000183
0.000221
0.000248
0.000241
0.000220
0.000267
0.000239
0.000246
0.000310
0.000417
0.000417
0.000308
0.000219
0.000201
0.000253
0.000263
0.000276
0.000265
0.000267
0.000228
0.000254
0.000320
0.001326
0.000223
0.000272
0.000207
0.000239
0.000271
0.000266
0.000248
0.000228
0.000056
0.000215
0.000371
0.000381
0.000342
0.000232
0.000200
0.000249
0.000259
0.000257
0.000250
0.000262
0.000263
0.000263
0.000238
0.000257
0.000263
0.000259
0.000274
0.000289
0.000232
0.000241
0.000272
0.000270
0.000282
0.000289
0.000265
0.000284
0.000235
0.000272
0.000563
0.001262
0.000058
0.000208
0.000212
0.000234
0.000256
0.000243
0.000263
0.000246
0.000225
0.000243
0.000252
0.000264
0.000259
0.000279
0.000221
0.000253
0.001705
0.000354
0.000227
0.000203
0.000233
0.000264
0.000245
0.000292
0.000244
0.000264
0.000273
0.000264
0.000276
0.000266
0.000257
0.000236
0.000056
0.000324
0.000436
0.001243
0.000200
0.000201
0.000226
0.000260
0.000258
0.000256
0.000257
0.000231
0.000324
0.000411
0.000533
0.000253
0.000184
0.000225
0.000262
0.000255
0.000263
0.000249
0.000264
0.000267
0.000287
0.000258
0.000408
0.000371
0.000381
0.000298
0.000242
0.000194
0.000056
0.000195
0.000221
0.000248
0.000248
0.000246
0.000233
0.000237
0.000237
0.000509
0.000392
0.001130
0.000234
0.000234
0.000268
0.000255
0.000266
0.000267
0.000246
0.000310
0.000457
0.000375
0.000254
0.000238
0.000225
0.000276
0.000271
0.000271
0.000298
0.000265
0.000284
0.000209
0.000056
0.000224
0.000424
0.000427
0.000234
0.000227
0.000177
0.000248
0.000263
0.000270
0.000256
0.000243
0.000234
0.000536
0.000466
0.000504
0.001442
0.000221
0.000245
0.000348
0.000349
0.000435
0.000419
0.000493
0.000379
0.000237
0.000267
0.000257
0.000276
0.000268
0.000272
0.000215
0.000056
0.000196
0.000250
0.000447
0.000399
0.000434
0.000212
0.000249
0.000243
0.000243
0.000254
0.000244
0.000265
0.000274
0.000235
0.000270
0.000345
0.000315
0.000481
0.000323
0.001321
0.000262
0.000253
0.000257
0.000257
0.000529
0.000422
0.000398
0.000220
0.000245
0.000269
0.000208
0.000057
0.000187
0.000220
0.000249
0.000238
0.000249
0.000282
0.000438
0.000373
0.000381
0.000242
0.000233
0.000254
0.000291
0.000245
0.000261
0.000260
0.000278
0.000240
0.000269
0.000364
0.000470
0.000409
0.000320
0.001338
0.000352
0.000245
0.000286
0.000458
0.000374
0.000442
0.000267
0.000057
0.000173
0.000217
0.000247
0.000253
0.000249
0.000255
0.001682
0.000277
0.000208
0.000219
0.000257
0.000243
0.000320
0.000327
0.000327
0.000284
0.000276
0.000306
0.000492
0.000414
0.000284
0.000276
0.000226
0.000215
0.001439
0.000580
0.000286
0.000471
0.000302
0.000305
0.000143
0.000056
0.000184
0.000232
0.000261
0.000261
0.000237
0.000260
0.001774
0.000220
0.000232
0.000248
0.000389
0.000410
0.001425
0.000335
0.000428
0.000203
0.000221
0.000236
0.000258
0.000271
0.001624
0.000563
0.000404
0.000271
0.000215
0.000224
0.000247
0.000280
0.000253
0.000258
0.000195
0.000059
0.000181
0.000228
0.000257
0.000253
0.000258
0.000270
0.000284
0.000257
0.000254
0.000248
0.000257
0.000248
0.000254
0.000269
0.000262
0.001501
0.000266
0.000242
0.000267
0.000275
0.000269
0.000263
0.000418
0.001273
0.000293
0.000234
0.000260
0.000253
0.000467
0.000211
0.000182
0.000055
0.000209
0.000228
0.000231
0.000239
0.000245
0.000225
0.000237
0.001753
0.000213
0.000210
0.000243
0.000369
0.000232
0.000219
0.001454
0.000251
0.000215
0.000216
0.000275
0.000250
0.000248
0.000310
0.000325
0.001371
0.000278
0.000221
0.000238
0.000241
0.001388
0.000285
0.000250
0.000058
0.000220
0.000343
0.000203
0.000210
0.000248
0.000243
0.000263
0.000263
0.000270
0.000247
0.000262
0.000264
0.000261
0.000238
0.000350
0.001451
0.000257
0.000265
0.000261
0.000250
0.000270
0.000265
0.000259
0.001484
0.000352
0.000255
0.000262
0.001353
0.000230
0.000230
0.000193
0.000057
0.000192
0.000340
0.000368
0.000223
0.000210
0.000242
0.000260
0.000256
0.000265
0.000268
0.000239
0.000254
0.000259
0.000286
0.000444
0.001242
0.000208
0.000231
0.000246
0.000273
0.000238
0.000236
0.000256
0.001437
0.000237
0.000214
0.000250
0.000223
0.000255
0.001346
0.000355
0.000055
0.000314
0.000253
0.000220
0.000206
0.000232
0.000250
0.000254
0.000243
0.000272
0.000259
0.000239
0.000248
0.000248
0.000318
0.000434
0.001476
0.000237
0.000231
0.000286
0.000516
0.000295
0.000369
0.001365
0.000301
0.000246
0.000261
0.001281
0.000349
0.000302
0.000565
0.000221
0.000055
0.000199
0.000239
0.000258
0.000261
0.000246
0.000255
0.000275
0.000250
0.000260
0.000261
0.000307
0.000538
0.001346
0.000217
0.000223
0.000258
0.000284
0.000263
0.000208
0.000231
0.000370
0.001276
0.000242
0.000225
0.000239
0.000236
0.001505
0.000432
0.000495
0.000218
0.000199
0.000056
0.000192
0.000207
0.000244
0.000241
0.000251
0.000268
0.000243
0.000254
0.000413
0.000493
0.000325
0.001441
0.000236
0.000220
0.000263
0.000262
0.000280
0.000328
0.001585
0.000315
0.000347
0.000372
0.001361
0.000346
0.000307
0.000353
0.000219
0.000216
0.000239
0.000271
0.000211
0.000056
0.000186
0.000234
0.000311
0.000278
0.000246
0.000582
0.000282
0.000376
0.001462
0.000296
0.000319
0.000256
0.000216
0.000322
0.000309
0.001403
0.000266
0.000208
0.000211
0.000250
0.000306
0.001600
0.000360
0.000291
0.000219
0.000220
0.000513
0.000313
0.000233
0.000229
0.000253
0.000056
0.000228
0.000365
0.000344
0.000298
0.000201
0.001463
0.000248
0.000235
0.000257
0.000267
0.000268
0.000248
0.000263
0.001513
0.000265
0.000236
0.000422
0.001314
0.000262
0.000461
0.000333
0.000239
0.000253
0.000248
0.000269
0.000249
0.000464
0.000225
0.000261
0.000271
0.000209
0.000057
0.000204
0.000248
0.000352
0.001438
0.000287
0.000191
0.000307
0.000248
0.000240
0.000249
0.000247
0.000257
0.001650
0.000213
0.000208
0.000219
0.001375
0.000337
0.000441
0.000403
0.000398
0.000227
0.000223
0.000245
0.000360
0.000239
0.000223
0.000259
0.000246
0.000257
0.000210
0.000056
0.000186
0.000406
0.001425
0.000222
0.000253
0.000269
0.000257
0.000241
0.000315
0.000391
0.001331
0.000247
0.000302
0.000258
0.000202
0.001518
0.000492
0.000304
0.000275
0.000411
0.000340
0.000240
0.000237
0.000228
0.000270
0.000291
0.000270
0.000327
0.000426
0.000471
0.001372
0.000056
0.000215
0.000240
0.000221
0.000221
0.000249
0.000477
0.001481
0.000293
0.000213
0.000215
0.000250
0.001405
0.000516
0.000270
0.000467
0.000243
0.000216
0.000200
0.000252
0.000275
0.000262
0.000255
0.000287
0.000256
0.000253
0.000284
0.000438
0.000539
0.001439
0.000265
0.000193
0.000056
0.000207
0.000230
0.000344
0.000587
0.001189
0.000287
0.000254
0.000251
0.000253
0.000251
0.000251
0.000265
0.000319
0.000595
0.000306
0.000231
0.000236
0.000276
0.000243
0.000264
0.000260
0.000277
0.000251
0.000266
0.000264
0.000451
0.000426
0.000351
0.000297
0.001483
0.000148
0.000056
0.000191
0.000217
0.000336
0.000389
0.000334
0.000334
0.000292
0.000330
0.000268
0.000265
0.000271
0.000256
0.000241
0.000312
0.000243
0.000264
0.000580
0.000322
0.000301
0.000385
0.000269
0.000478
0.000206
0.000234
0.000214
0.000277
0.000251
0.000286
0.000337
0.000511
0.000323
0.000057
0.000211
0.001366
0.000268
0.000329
0.000365
0.000426
0.000379
0.000346
0.000222
0.000211
0.000261
0.000249
0.000266
0.000265
0.000258
0.000264
0.000258
0.001455
0.000229
0.000221
0.000216
0.000276
0.000276
0.000276
0.000262
0.000263
0.000272
0.000260
0.000264
0.000563
0.000227
0.000057
0.000213
0.000240
0.000243
0.001524
0.000322
0.000222
0.000212
0.000210
0.000232
0.000238
0.000253
0.000278
0.000255
0.000266
0.000242
0.000271
0.000236
0.000271
0.000255
0.000263
0.001416
0.000278
0.000229
0.000332
0.000229
0.000218
0.000252
0.000259
0.000280
0.000503
0.000372
0.000055
0.000198
0.000212
0.000384
0.000288
0.000274
0.000228
0.001528
0.000408
0.000280
0.000205
0.000237
0.000361
0.000309
0.000215
0.000223
0.000249
0.000248
0.000262
0.000256
0.000250
0.000496
0.000549
0.001140
0.000261
0.000222
0.000215
0.000271
0.000268
0.000260
0.000267
0.000359
0.000057
0.000187
0.000363
0.000203
0.000198
0.000250
0.000238
0.000244
0.000232
0.001447
0.000484
0.000428
0.000255
0.000224
0.000208
0.000256
0.000247
0.000246
0.000281
0.000259
0.000309
0.000308
0.000487
0.000441
0.001372
0.000250
0.000250
0.000267
0.000272
0.000263
0.000275
0.000553
0.000057
0.000224
0.000209
0.000265
0.000218
0.000221
0.000240
0.000264
0.000248
0.000270
0.001649
0.000274
0.000261
0.000260
0.000259
0.000467
0.000292
0.000397
0.000476
0.000330
0.000310
0.000436
0.000460
0.001325
0.000239
0.000229
0.000222
0.001811
0.000390
0.000585
0.000322
0.000148
0.000057
0.000189
0.000201
0.000286
0.000191
0.000251
0.000247
0.000348
0.000460
0.000474
0.000402
0.000311
0.000213
0.000201
0.000263
0.000261
0.000275
0.000244
0.000257
0.000252
0.000270
0.000268
0.000373
0.001392
0.000251
0.000226
0.000268
0.001889
0.000409
0.000365
0.000363
0.000169
0.000056
0.000207
0.000199
0.000263
0.001555
0.000385
0.000251
0.000237
0.000264
0.000242
0.000333
0.000363
0.000396
0.000336
0.000308
0.000305
0.000516
0.000324
0.001272
0.000263
0.000201
0.000227
0.000279
0.000346
0.000420
0.000595
0.000451
0.000219
0.000216
0.000274
0.000274
0.000210
0.000056
0.000203
0.000193
0.001455
0.000412
0.000205
0.000211
0.000223
0.000248
0.000252
0.000248
0.000251
0.000276
0.000271
0.000271
0.000236
0.000507
0.000301
0.000371
0.001372
0.000295
0.000213
0.000253
0.000293
0.000236
0.000372
0.000499
0.000444
0.000280
0.000302
0.000238
0.000420
0.000056
0.000215
0.000212
0.000254
0.000281
0.001576
0.000213
0.000260
0.000242
0.000259
0.000253
0.000258
0.000259
0.000262
0.000241
0.000346
0.000556
0.001483
0.000731
0.000226
0.000342
0.000240
0.000239
0.000213
0.000271
0.001752
0.000726
0.000271
0.000227
0.000280
0.000291
0.000210
0.000057
0.000193
0.000211
0.000253
0.000245
0.000249
0.000241
0.000257
0.000250
0.000246
0.000228
0.000282
0.000287
0.000257
0.000258
0.000252
0.000260
0.000254
0.001601
0.000693
0.000438
0.000290
0.000229
0.000217
0.000282
0.000277
0.000259
0.000274
0.000256
0.001450
0.000381
0.000327
0.000058
0.000185
0.000219
0.000240
0.000247
0.000259
0.000234
0.000254
0.000259
0.000243
0.000274
0.000226
0.000505
0.000389
0.000364
0.000212
0.000222
0.000262
0.001458
0.000691
0.000392
0.000343
0.000321
0.000212
0.000234
0.000269
0.000258
0.000257
0.000267
0.001477
0.000461
0.000208
0.000073
0.000193
0.000192
0.000248
0.000254
0.000246
0.000243
0.000246
0.000247
0.000266
0.000260
0.000330
0.000466
0.000289
0.000225
0.000250
0.000233
0.000260
0.000257
0.001558
0.000613
0.000482
0.000358
0.000231
0.000228
0.000261
0.000256
0.000266
0.000285
0.000267
0.001425
0.000314
0.000056
0.000205
0.000225
0.000201
0.000253
0.000264
0.000239
0.000282
0.000354
0.000369
0.000418
0.000361
0.000424
0.000301
0.000206
0.000252
0.000227
0.000275
0.000263
0.001376
0.000913
0.000291
0.000219
0.000498
0.000184
0.000229
0.000240
0.000275
0.000263
0.000267
0.000273
0.000298
0.000056
0.000268
0.000243
0.000209
0.000240
0.000253
0.000258
0.000225
0.000235
0.000258
0.000262
0.000254
0.000232
0.000242
0.000521
0.000419
0.000475
0.000203
0.000259
0.000276
0.000233
0.000258
0.000359
0.001385
0.001058
0.000252
0.000225
0.000273
0.000259
0.000271
0.000255
0.000221
0.000057
0.000192
0.001384
0.000280
0.000187
0.000212
0.000250
0.000249
0.000243
0.000231
0.000256
0.000256
0.000258
0.000241
0.000476
0.000307
0.000460
0.000272
0.000214
0.000274
0.000259
0.000267
0.000245
0.000250
0.000264
0.001401
0.000672
0.000308
0.000395
0.000378
0.000392
0.000267
0.000056
0.000188
0.000202
0.000373
0.001314
0.000232
0.000264
0.000197
0.000264
0.000249
0.000252
0.000261
0.000239
0.000281
0.000333
0.000555
0.000372
0.000203
0.000317
0.000271
0.000224
0.000233
0.000274
0.000226
0.000278
0.000262
0.001530
0.000768
0.000286
0.000275
0.000271
0.000210
0.000057
0.000211
0.000254
0.000433
0.000392
0.001298
0.000245
0.000206
0.000205
0.000232
0.000252
0.000240
0.000257
0.000238
0.000235
0.000254
0.000254
0.000270
0.000233
0.000254
0.000266
0.000261
0.000269
0.000335
0.000316
0.000217
0.000242
0.000272
0.001526
0.000242
0.000220
0.000168
0.000057
0.000178
0.000216
0.000251
0.000335
0.000349
0.000333
0.000408
0.000244
0.001555
0.000267
0.000296
0.000461
0.000399
0.000203
0.000488
0.000229
0.000217
0.000237
0.000256
0.000275
0.000280
0.000262
0.000262
0.000267
0.000246
0.000434
0.000457
0.000310
0.001524
0.000258
0.000174
0.000058
0.000202
0.000221
0.000245
0.000249
0.000242
0.000245
0.000263
0.000333
0.000413
0.002080
0.000199
0.000204
0.000253
0.000258
0.000261
0.000335
0.000247
0.000213
0.000249
0.000434
0.000349
0.000458
0.001528
0.000222
0.000221
0.000498
0.001770
0.000289
0.000254
0.001488
0.000197
0.000055
0.000323
0.000356
0.000504
0.000230
0.000267
0.000230
0.000254
0.000262
0.000269
0.000236
0.000247
0.000319
0.000436
0.000350
0.000415
0.000282
0.000218
0.001542
0.000503
0.002002
0.000277
0.000266
0.000217
0.001585
0.002007
0.000732
0.000286
0.000212
0.000251
0.000451
0.000385
0.000072
0.000165
0.000218
0.000247
0.000260
0.001475
0.001666
0.001087
0.000224
0.000209
0.001583
0.001980
0.000231
0.000305
0.000408
0.000308
0.000437
0.000319
0.000394
0.000248
0.000253
0.000226
0.000258
0.000264
0.001580
0.001290
0.001430
0.000268
0.000237
0.000266
0.000278
0.000373
0.000056
0.000233
0.000227
0.000217
0.000227
0.000237
0.000229
0.000252
0.000260
0.000251
0.000252
0.000240
0.000329
0.000412
0.000510
0.000313
0.000218
0.000217
0.000302
0.000239
0.000262
0.000255
0.001492
0.000369
0.000432
0.002077
0.000247
0.000241
0.000330
0.000495
0.000427
0.000145
0.000057
0.000218
0.000286
0.000493
0.000318
0.000220
0.000205
0.000233
0.000263
0.000247
0.000268
0.000213
0.000267
0.000261
0.001606
0.001419
0.001231
0.000268
0.000240
0.000206
0.000249
0.000281
0.000276
0.000260
0.000245
0.002272
0.000221
0.000215
0.000283
0.000325
0.000298
0.000247
0.000057
0.000207
0.000373
0.000595
0.000329
0.000201
0.000198
0.000237
0.000276
0.001870
0.001440
0.000261
0.000374
0.000392
0.000358
0.000264
0.000216
0.000225
0.000272
0.000261
0.000298
0.000235
0.000249
0.000486
0.000227
0.000272
0.000272
0.000247
0.000279
0.000279
0.000249
0.000220
0.000056
0.000189
0.000229
0.000269
0.000223
0.000244
0.000273
0.001524
0.001511
0.001336
0.000203
0.000226
0.000203
0.000262
0.000265
0.000251
0.000248
0.000245
0.002184
0.000210
0.000212
0.000256
0.000266
0.000250
0.000267
0.000274
0.000242
0.000279
0.000254
0.000283
0.000250
0.000193
0.000055
0.001510
0.000309
0.002397
0.000246
0.000298
0.000298
0.000244
0.000257
0.000263
0.000245
0.000252
0.000244
0.000242
0.000239
0.000268
0.000259
0.000271
0.000256
0.000265
0.000269
0.000269
0.000275
0.000272
0.000275
0.000245
0.000251
0.000256
0.000269
0.000261
0.000284
0.000389
0.000056
0.000199
0.002562
0.000335
0.000204
0.000199
0.000216
0.000251
0.000252
0.000257
0.000297
0.000299
0.000495
0.000253
0.000276
0.000201
0.002217
0.000224
0.000216
0.000261
0.000498
0.000391
0.000313
0.000205
0.000242
0.000268
0.000249
0.000262
0.000274
0.000273
0.001679
0.001212
0.000058
0.000194
0.000218
0.000270
0.000379
0.000346
0.000321
0.000215
0.000223
0.000243
0.000265
0.000265
0.000246
0.000230
0.000256
0.000264
0.000236
0.000297
0.000633
0.000408
0.000250
0.000216
0.000234
0.000289
0.000260
0.000253
0.000238
0.000260
0.000282
0.000236
0.000306
0.000403
0.000057
0.001119
0.000216
0.000364
0.000483
0.000294
0.000193
0.000194
0.000244
0.002267
0.000367
0.000320
0.000385
0.000200
0.000288
0.000343
0.000268
0.000264
0.000257
0.000266
0.000233
0.000256
0.000273
0.000614
0.000516
0.001788
0.001460
0.000379
0.000565
0.000236
0.000241
0.000219
0.000057
0.000258
0.000322
0.000231
0.000245
0.000237
0.000244
0.000235
0.000249
0.000261
0.000249
0.000254
0.000238
0.000246
0.000246
0.000417
0.000502
0.001882
0.001321
0.000401
0.000455
0.000417
0.000243
0.000273
0.000233
0.002226
0.000467
0.000364
0.000246
0.000278
0.000283
0.000214
0.000056
0.000196
0.000227
0.000255
0.000240
0.000248
0.000316
0.000454
0.000359
0.000267
0.000242
0.000224
0.000282
0.000238
0.002147
0.000315
0.000391
0.000210
0.000251
0.000265
0.000264
0.000244
0.002444
0.000383
0.000208
0.000244
0.000268
0.000241
0.000276
0.000276
0.000280
0.000215
0.000056
0.000201
0.000345
0.000567
0.000390
0.000221
0.000214
0.000197
0.000252
0.000265
0.001983
0.000318
0.000381
0.000249
0.000260
0.000209
0.000245
0.000272
0.000251
0.002266
0.000387
0.000231
0.000254
0.000266
0.000257
0.000266
0.000251
0.000280
0.000246
0.000280
0.000253
0.000204
0.000056
0.000196
0.000221
0.000258
0.000216
0.000247
0.000257
0.000233
0.000253
0.000226
0.002179
0.000242
0.000279
0.000210
0.000490
0.000209
0.000220
0.000254
0.000288
0.000254
0.000261
0.002035
0.000241
0.000369
0.000369
0.000503
0.000330
0.000292
0.000246
0.000217
0.000267
0.000201
0.000057
0.000198
0.000197
0.000249
0.000244
0.000367
0.000263
0.000192
0.002352
0.000212
0.000220
0.000227
0.000259
0.000237
0.000246
0.000303
0.002197
0.000525
0.000226
0.000247
0.000239
0.000265
0.000266
0.000277
0.000270
0.000261
0.000256
0.000291
0.000250
0.000264
0.000310
0.000171
0.000057
0.000171
0.003017
0.000238
0.000226
0.000234
0.000252
0.000243
0.000302
0.000361
0.000392
0.002147
0.000260
0.000234
0.000268
0.000262
0.000607
0.000359
0.000297
0.000223
0.000218
0.000246
0.000260
0.000262
0.000239
0.000243
0.000279
0.000262
0.000267
0.000320
0.000687
0.000318
0.000057
0.000211
0.000260
0.000263
0.000219
0.000238
0.000254
0.000246
0.000251
0.001546
0.002154
0.000490
0.000262
0.000390
0.000785
0.000352
0.000223
0.000199
0.000249
0.000261
0.000257
0.000258
0.000242
0.000252
0.000276
0.001816
0.001458
0.000301
0.000261
0.000302
0.000337
0.000407
0.000056
0.001921
0.000234
0.000227
0.000215
0.000250
0.000406
0.000425
0.000328
0.000311
0.000242
0.000213
0.000201
0.000265
0.000257
0.000253
0.000269
0.000248
0.000266
0.001910
0.000216
0.000214
0.000231
0.000276
0.000275
0.000276
0.000259
0.001536
0.000348
0.000210
0.000215
0.000187
0.000058
0.000187
0.000198
0.000244
0.000233
0.000262
0.000237
0.000295
0.000370
0.000371
0.000402
0.000209
0.000204
0.000345
0.000311
0.000376
0.000330
0.000229
0.000218
0.000256
0.000407
0.000508
0.000411
0.000242
0.000219
0.000255
0.000270
0.000233
0.000275
0.000272
0.000265
0.000218
0.000056
0.001443
0.000405
0.000219
0.002024
0.000278
0.000402
0.000365
0.000380
0.000201
0.000214
0.000261
0.000265
0.000230
0.000253
0.000260
0.000280
0.000442
0.000250
0.000497
0.000274
0.000414
0.000209
0.000248
0.000270
0.000334
0.000234
0.000235
0.000270
0.000316
0.000527
0.001398
0.000057
0.000189
0.000206
0.002078
0.000270
0.000329
0.000268
0.000260
0.000253
0.000265
0.000255
0.000231
0.000234
0.000251
0.000267
0.000258
0.000336
0.000716
0.001746
0.000266
0.000244
0.000264
0.000257
0.000372
0.000486
0.001534
0.000267
0.000363
0.002004
0.000237
0.000239
0.000190
0.000057
0.000202
0.000217
0.000223
0.000249
0.000264
0.000218
0.000243
0.000277
0.000342
0.000294
0.000382
0.000371
0.000335
0.000301
0.000210
0.000260
0.000262
0.000243
0.000271
0.000259
0.000268
0.000311
0.000263
0.000258
0.000270
0.001578
0.000285
0.000400
0.001990
0.000275
0.000164
0.000056
0.000181
0.000218
0.000235
0.000269
0.000459
0.000209
0.000253
0.000341
0.000371
0.000372
0.000228
0.000231
0.000244
0.000278
0.000268
0.000328
0.000516
0.000348
0.000252
0.000369
0.000595
0.000396
0.001584
0.000264
0.000235
0.002029
0.000346
0.000220
0.000219
0.000271
0.000201
0.000056
0.000187
0.000226
0.000240
0.000220
0.000252
0.000270
0.000259
0.000267
0.000253
0.000252
0.001880
0.000294
0.000382
0.000329
0.000462
0.000362
0.001503
0.000348
0.000229
0.000293
0.001997
0.000643
0.000259
0.000223
0.000234
0.000272
0.000505
0.000223
0.000251
0.000282
0.000213
0.000056
0.000286
0.000345
0.000408
0.000250
0.000222
0.000222
0.000250
0.000264
0.000260
0.000301
0.000218
0.000250
0.000259
0.000257
0.000319
0.000451
0.001366
0.000267
0.000303
0.002001
0.000318
0.000257
0.000205
0.000255
0.000241
0.000281
0.000265
0.000283
0.000235
0.000266
0.000222
0.000056
0.000238
0.000414
0.002077
0.000233
0.000228
0.000232
0.000211
0.000301
0.000454
0.001554
0.000272
0.000363
0.000354
0.001981
0.000234
0.000240
0.000264
0.000274
0.000268
0.000227
0.000285
0.000295
0.000252
0.000331
0.000535
0.000336
0.000385
0.002169
0.000503
0.000587
0.000334
0.000055
0.000220
0.000217
0.000210
0.002035
0.000195
0.000222
0.000232
0.000275
0.000199
0.000248
0.000244
0.000268
0.000264
0.000353
0.000432
0.000337
0.001310
0.000239
0.000265
0.000263
0.000232
0.000247
0.000298
0.000237
0.000368
0.000425
0.000464
0.000246
0.001676
0.000229
0.000146
0.000057
0.000202
0.000208
0.000224
0.000234
0.000252
0.000248
0.000255
0.000249
0.000252
0.000403
0.000372
0.001445
0.000208
0.000208
0.000225
0.000263
0.000266
0.000251
0.000274
0.000498
0.000431
0.000443
0.000214
0.001569
0.000263
0.000235
0.000290
0.000269
0.000262
0.000270
0.000208
0.000058
0.000197
0.000201
0.000268
0.000262
0.000256
0.000240
0.000238
0.000243
0.000255
0.000251
0.000247
0.000253
0.000259
0.000246
0.001580
0.000238
0.000241
0.000266
0.000334
0.000323
0.000363
0.000269
0.000207
0.000253
0.000248
0.000265
0.001469
0.000293
0.000209
0.000229
0.000177
0.000058
0.000188
0.000231
0.000237
0.000266
0.000274
0.000213
0.000252
0.000264
0.000223
0.000262
0.000241
0.000260
0.000234
0.000356
0.000383
0.000270
0.000326
0.001574
0.000334
0.000219
0.000214
0.000235
0.000274
0.000262
0.000420
0.000469
0.000408
0.000247
0.000223
0.001588
0.000187
0.000057
0.000375
0.000325
0.000345
0.000300
0.000208
0.000210
0.000250
0.000260
0.000255
0.000248
0.000238
0.000234
0.001460
0.000330
0.000305
0.000213
0.000231
0.000248
0.000270
0.000267
0.000252
0.000247
0.000260
0.000266
0.000248
0.000351
0.000484
0.000403
0.000270
0.000214
0.000199
0.000057
0.000220
0.000244
0.000480
0.000326
0.000364
0.000245
0.000223
0.000248
0.000254
0.000256
0.000245
0.000226
0.000244
0.000252
0.001335
0.000266
0.000234
0.000217
0.000259
0.000270
0.000242
0.000258
0.000255
0.000260
0.000264
0.000255
0.000282
0.000678
0.000496
0.000247
0.000183
0.000057
0.000199
0.001524
0.000290
0.000271
0.000486
0.000408
0.000198
0.000238
0.000263
0.000254
0.000243
0.000263
0.000268
0.000275
0.000268
0.001519
0.000250
0.000281
0.000267
0.000275
0.000244
0.000247
0.000264
0.000269
0.000263
0.000259
0.000425
0.000417
0.000362
0.000239
0.000161
0.000056
0.000194
0.000221
0.000244
0.001710
0.000399
0.000329
0.000202
0.000212
0.000244
0.000268
0.000279
0.000259
0.000252
0.000260
0.000236
0.000267
0.000432
0.001365
0.000215
0.000208
0.001537
0.000292
0.000600
0.000405
0.000317
0.000198
0.000257
0.000468
0.000238
0.000247
0.000210
0.000056
0.000294
0.000219
0.000234
0.000217
0.000248
0.000256
0.000241
0.000255
0.000281
0.000216
0.000253
0.000257
0.000346
0.000453
0.001685
0.001469
0.000383
0.000623
0.000233
0.000238
0.000231
0.000260
0.000253
0.000258
0.000249
0.000264
0.000264
0.000268
0.001684
0.000228
0.000141
0.000058
0.000218
0.000337
0.000352
0.000332
0.000263
0.000201
0.000228
0.000360
0.000396
0.001434
0.000350
0.001545
0.000348
0.000443
0.000493
0.000254
0.000349
0.000332
0.000347
0.000277
0.000237
0.000362
0.001552
0.000532
0.000264
0.000227
0.000266
0.000238
0.000261
0.000256
0.000238
0.000056
0.000176
0.000228
0.000256
0.000254
0.000242
0.001654
0.000952
0.000900
0.000246
0.000232
0.000258
0.000261
0.000251
0.000277
0.000238
0.000252
0.000256
0.000264
0.000265
0.000279
0.001499
0.000267
0.000257
0.000224
0.000226
0.000252
0.000264
0.000274
0.000269
0.000282
0.000219
0.000056
0.000190
0.000219
0.001521
0.000926
0.000372
0.000360
0.000215
0.000200
0.000249
0.000257
0.000240
0.000261
0.000247
0.002046
0.000475
0.000208
0.000208
0.000246
0.000252
0.000261
0.000209
