0.000249
0.017789
0.003870
0.000273
0.000222
0.000247
0.000310
0.000247
0.000324
0.000295
0.000245
0.000395
0.000484
0.000519
0.000330
0.000329
0.000300
0.000363
0.000397
0.000413
0.000302
0.001839
0.000532
0.000434
0.000268
0.000294
0.000305
0.000400
0.000415
0.000406
0.000565
0.000190
0.000056
0.000208
0.000229
0.000273
0.000258
0.000275
0.000253
0.000274
0.000267
0.000273
0.000297
0.000398
0.000495
0.000296
0.000263
0.000404
0.000377
0.000334
0.000250
0.000222
0.001731
0.000294
0.000222
0.000508
0.000254
0.000239
0.000254
0.000282
0.000291
0.000285
0.000398
0.000319
0.000056
0.000238
0.000223
0.000262
0.000267
0.000252
0.000247
0.000262
0.000254
0.000278
0.001673
0.000244
0.000235
0.000266
0.000258
0.000276
0.000245
0.000276
0.000253
0.000347
0.001801
0.000265
0.000251
0.000444
0.000459
0.000401
0.000244
0.000227
0.000536
0.000453
0.000806
0.000162
0.000057
0.000188
0.000206
0.000268
0.000238
0.000310
0.000250
0.000314
0.000522
0.000470
0.000260
0.000232
0.000198
0.000238
0.000273
0.000240
0.000250
0.000245
0.000271
0.000296
0.000333
0.001739
0.000245
0.000245
0.000452
0.000561
0.000374
0.000660
0.000502
0.000373
0.000248
0.000240
0.000057
0.000209
0.000225
0.000259
0.000249
0.000257
0.000249
0.000257
0.000629
0.001316
0.000236
0.000248
0.000226
0.000259
0.000252
0.000268
0.000277
0.000269
0.000790
0.001410
0.000282
0.000265
0.000426
0.000242
0.000238
0.000256
0.000252
0.000268
0.000272
0.000262
0.000262
0.000220
0.000055
0.000209
0.000189
0.000243
0.000244
0.000258
0.000244
0.000244
0.000249
0.000235
0.000267
0.001687
0.000245
0.000226
0.000235
0.000229
0.000245
0.000238
0.000258
0.000253
0.000252
0.000261
0.001741
0.000247
0.000263
0.000466
0.000238
0.000239
0.000240
0.000262
0.000257
0.000215
0.000056
0.000222
0.000209
0.000237
0.000252
0.000258
0.000225
0.000266
0.000236
0.000265
0.000244
0.000265
0.000255
0.000257
0.000274
0.001635
0.000281
0.000287
0.000238
0.000237
0.000274
0.000271
0.000246
0.000259
0.000249
0.000274
0.001846
0.000375
0.000361
0.000262
0.000275
0.000216
0.000057
0.000217
0.000207
0.000240
0.000273
0.000258
0.000230
0.000321
0.000385
0.000422
0.000419
0.000216
0.000234
0.000252
0.000250
0.001674
0.000479
0.000302
0.000406
0.000295
0.000214
0.000268
0.000280
0.000273
0.001804
0.000486
0.000487
0.000220
0.000231
0.000236
0.000258
0.000205
0.000057
0.000192
0.000243
0.000231
0.000327
0.000282
0.000567
0.000322
0.000225
0.000204
0.000233
0.000269
0.000235
0.000247
0.001783
0.000397
0.000325
0.000218
0.000253
0.000274
0.000268
0.000261
0.000268
0.000253
0.001935
0.000287
0.000369
0.000254
0.000251
0.000299
0.000400
0.000318
0.000056
0.000201
0.000410
0.000372
0.000215
0.000291
0.000230
0.000223
0.000258
0.000246
0.000247
0.000216
0.000256
0.001700
0.000263
0.000305
0.000208
0.000219
0.000254
0.000248
0.000277
0.000268
0.000327
0.001792
0.000356
0.000232
0.000500
0.000214
0.000233
0.000255
0.000265
0.000281
0.000055
0.000295
0.000597
0.000666
0.000199
0.000214
0.000263
0.000236
0.000220
0.000258
0.000249
0.000256
0.001694
0.000274
0.000406
0.000392
0.000219
0.000243
0.000227
0.000242
0.000259
0.000416
0.001696
0.000253
0.000225
0.002222
0.000464
0.000263
0.000277
0.000248
0.000257
0.000210
0.000057
0.000205
0.000215
0.000234
0.000241
0.000253
0.001692
0.000215
0.000203
0.000248
0.000252
0.000247
0.000240
0.000251
0.000265
0.000290
0.000443
0.000594
0.000237
0.000230
0.000269
0.000274
0.000244
0.000245
0.000493
0.000434
0.000259
0.000429
0.000498
0.000421
0.000221
0.000208
0.000057
0.000207
0.000211
0.000260
0.000248
0.000244
0.000236
0.000391
0.000355
0.000432
0.001582
0.000257
0.000235
0.000241
0.000247
0.000257
0.000267
0.000523
0.000439
0.000375
0.000224
0.000234
0.000267
0.000366
0.000228
0.000257
0.000401
0.000458
0.000572
0.000412
0.000488
0.000128
0.000056
0.000203
0.000255
0.000242
0.000206
0.000240
0.000242
0.000245
0.000249
0.000247
0.000354
0.000344
0.001566
0.000299
0.000185
0.000217
0.000207
0.000265
0.000258
0.000240
0.000262
0.000278
0.000402
0.000442
0.000342
0.000221
0.000254
0.000247
0.000260
0.000267
0.000260
0.000433
0.000055
0.000183
0.000219
0.000242
0.000271
0.000521
0.000439
0.000242
0.000243
0.000237
0.000257
0.000244
0.000250
0.000277
0.000261
0.000243
0.000538
0.000406
0.001610
0.000263
0.000233
0.000260
0.000261
0.000260
0.000250
0.000250
0.000521
0.000442
0.000350
0.000362
0.000255
0.000211
0.000056
0.000215
0.000225
0.000408
0.000228
0.000266
0.000246
0.000268
0.000588
0.000332
0.000312
0.000234
0.000272
0.000270
0.000240
0.000594
0.000290
0.000215
0.000233
0.000407
0.001707
0.000244
0.000224
0.000316
0.000408
0.000278
0.000295
0.000259
0.000410
0.000476
0.000370
0.000295
0.000055
0.000200
0.000190
0.000235
0.000241
0.000475
0.000269
0.000280
0.000214
0.000403
0.000561
0.000350
0.000245
0.000204
0.000220
0.000260
0.000265
0.000254
0.000260
0.000226
0.000374
0.000269
0.000444
0.001743
0.000247
0.000242
0.000250
0.000308
0.000354
0.000429
0.000734
0.000402
0.000058
0.000239
0.000320
0.000329
0.000422
0.000315
0.000221
0.000249
0.000276
0.000494
0.000433
0.000330
0.000200
0.000224
0.000262
0.000281
0.000226
0.000243
0.000276
0.000265
0.000259
0.000273
0.000447
0.001717
0.000312
0.000331
0.000420
0.000388
0.000241
0.000465
0.000344
0.000342
0.000055
0.000227
0.000387
0.000280
0.000218
0.000228
0.000214
0.000478
0.000211
0.000211
0.000344
0.000404
0.000480
0.000230
0.000248
0.000267
0.000278
0.000365
0.000432
0.000317
0.000225
0.000217
0.000296
0.000695
0.001724
0.000256
0.000377
0.000334
0.000240
0.000249
0.000446
0.000353
0.000057
0.000225
0.000206
0.000234
0.000246
0.000245
0.000268
0.000232
0.000360
0.000427
0.000298
0.000481
0.000350
0.000301
0.000205
0.000535
0.000269
0.000276
0.000279
0.000220
0.000340
0.000238
0.000232
0.000274
0.000387
0.000563
0.001690
0.000214
0.000231
0.000251
0.000243
0.000207
0.000057
0.000287
0.000492
0.000367
0.000206
0.000233
0.000224
0.000272
0.000225
0.000255
0.000256
0.000222
0.000484
0.000278
0.000502
0.000381
0.000288
0.000231
0.000248
0.000347
0.000361
0.000378
0.000343
0.000386
0.000376
0.000248
0.000220
0.000257
0.000275
0.001776
0.000280
0.000199
0.000056
0.000191
0.000210
0.000247
0.000267
0.000351
0.000535
0.000366
0.000206
0.000254
0.000252
0.000244
0.000253
0.000529
0.000445
0.000467
0.000309
0.000273
0.000237
0.000433
0.000491
0.000368
0.000431
0.000475
0.000432
0.000234
0.000243
0.000248
0.000229
0.000260
0.001790
0.000339
0.000056
0.000232
0.000336
0.000208
0.000216
0.000254
0.000250
0.000274
0.000476
0.000399
0.000309
0.000304
0.000282
0.000406
0.000690
0.000260
0.000203
0.000218
0.000241
0.000260
0.000266
0.000264
0.000272
0.000243
0.000281
0.000324
0.000308
0.000592
0.000258
0.000221
0.000209
0.000205
0.000055
0.000519
0.000240
0.000434
0.000250
0.000197
0.000239
0.000249
0.000257
0.000242
0.000219
0.000247
0.000274
0.000301
0.000305
0.000672
0.000359
0.000351
0.000336
0.000376
0.000391
0.000266
0.000215
0.000223
0.000260
0.001814
0.000223
0.001757
0.000967
0.000336
0.000344
0.000152
0.000056
0.000194
0.000209
0.000240
0.000230
0.000262
0.000251
0.000255
0.000246
0.000251
0.000313
0.000385
0.000428
0.000374
0.000394
0.000238
0.000244
0.000274
0.000287
0.000207
0.000236
0.000256
0.000226
0.001808
0.000270
0.000225
0.000263
0.000275
0.000270
0.001854
0.000581
0.000260
0.000055
0.000229
0.000195
0.000229
0.000237
0.000252
0.000246
0.000245
0.000256
0.000258
0.000377
0.000543
0.000312
0.000393
0.000244
0.000227
0.000277
0.000382
0.000388
0.000373
0.000263
0.001798
0.000257
0.000213
0.000219
0.000267
0.000263
0.000248
0.000269
0.000244
0.000336
0.000448
0.000057
0.000225
0.000205
0.000207
0.000260
0.000252
0.000239
0.000258
0.000253
0.000243
0.000252
0.000247
0.000266
0.000366
0.000417
0.000322
0.000333
0.000475
0.000212
0.000215
0.000262
0.000265
0.000246
0.000276
0.000264
0.000273
0.001790
0.000278
0.000223
0.000252
0.000243
0.000224
0.000070
0.000230
0.000383
0.000219
0.000212
0.000234
0.000241
0.000233
0.000252
0.000251
0.000224
0.000225
0.000265
0.000255
0.000308
0.000508
0.000270
0.000409
0.000204
0.000223
0.000241
0.000267
0.000254
0.000261
0.000261
0.000258
0.000252
0.000274
0.001730
0.000244
0.000215
0.000201
0.000056
0.000201
0.000215
0.000256
0.000248
0.000363
0.000394
0.000337
0.000350
0.000220
0.000244
0.000255
0.000243
0.000246
0.000258
0.000256
0.000259
0.000251
0.000253
0.000250
0.000266
0.000269
0.000262
0.000261
0.000232
0.000240
0.000279
0.000271
0.000261
0.000258
0.000258
0.000208
0.000056
0.000181
0.000225
0.000239
0.000257
0.000247
0.000245
0.000244
0.000257
0.000355
0.000200
0.000206
0.000244
0.000251
0.000249
0.000266
0.000266
0.000246
0.000260
0.000358
0.000207
0.000250
0.000300
0.000267
0.000250
0.000269
0.000282
0.000272
0.000246
0.000270
0.000431
0.000611
0.000056
0.000230
0.000296
0.000231
0.000201
0.000207
0.000253
0.000244
0.000249
0.000252
0.000239
0.000267
0.000271
0.000494
0.000485
0.001605
0.000217
0.000523
0.000191
0.000219
0.000456
0.000537
0.000271
0.000243
0.000266
0.000260
0.000259
0.000277
0.000254
0.000303
0.000262
0.000208
0.000057
0.000373
0.000376
0.000346
0.000335
0.000197
0.000240
0.000252
0.000246
0.000236
0.000245
0.000253
0.000254
0.000238
0.000322
0.000349
0.000442
0.000391
0.001790
0.000272
0.000228
0.000323
0.000424
0.000461
0.000297
0.000373
0.000316
0.000247
0.000237
0.000226
0.000252
0.000205
0.000057
0.000197
0.000206
0.000242
0.000276
0.000441
0.000376
0.000357
0.000238
0.000251
0.000224
0.000239
0.000271
0.000265
0.000267
0.000242
0.000263
0.000289
0.000613
0.000249
0.000417
0.000232
0.001809
0.000292
0.000553
0.000561
0.000367
0.000285
0.000243
0.000240
0.000268
0.000493
0.000056
0.000199
0.000235
0.000232
0.000248
0.000518
0.000388
0.000389
0.000262
0.000205
0.000332
0.000238
0.000214
0.000252
0.000302
0.000361
0.000212
0.000276
0.000298
0.000420
0.000375
0.000578
0.001776
0.000257
0.000608
0.000323
0.000373
0.000228
0.000376
0.000243
0.000212
0.000212
0.000057
0.000214
0.000333
0.000351
0.000327
0.000363
0.000305
0.000399
0.000199
0.000232
0.000261
0.000264
0.000236
0.000264
0.000240
0.000255
0.000243
0.000348
0.000373
0.000528
0.000321
0.000318
0.000221
0.000254
0.001781
0.000397
0.000467
0.000678
0.000268
0.000251
0.000305
0.000181
0.000056
0.000203
0.000206
0.000311
0.000258
0.000299
0.000323
0.000443
0.000292
0.000318
0.000530
0.000195
0.000233
0.000238
0.000281
0.000264
0.000273
0.000227
0.000252
0.000624
0.000360
0.000253
0.000241
0.000260
0.000254
0.000265
0.000256
0.000251
0.000267
0.000245
0.000346
0.000182
0.000056
0.000299
0.000324
0.000238
0.000240
0.000242
0.000252
0.000249
0.000361
0.000209
0.000211
0.000254
0.000343
0.000509
0.000301
0.000405
0.000259
0.000208
0.000248
0.000244
0.000256
0.000277
0.000276
0.000245
0.000254
0.000271
0.000375
0.000399
0.000387
0.000345
0.000217
0.000163
0.000056
0.000196
0.000200
0.000274
0.000247
0.000238
0.000245
0.000260
0.000261
0.000497
0.000223
0.000237
0.000253
0.000255
0.000257
0.000270
0.000272
0.000268
0.000353
0.000255
0.000217
0.000261
0.000244
0.000266
0.000261
0.000273
0.000271
0.000259
0.000265
0.000251
0.000505
0.000159
0.000056
0.000189
0.000214
0.000245
0.000282
0.000231
0.000232
0.000296
0.000454
0.000265
0.000225
0.000258
0.000252
0.000244
0.000267
0.000444
0.001768
0.000258
0.000234
0.000293
0.000381
0.000407
0.000347
0.000382
0.000401
0.000376
0.000343
0.000258
0.000260
0.000273
0.000274
0.001430
0.000055
0.000437
0.000276
0.000296
0.000189
0.000204
0.000243
0.000233
0.000255
0.000242
0.000262
0.000252
0.000252
0.000258
0.000370
0.000463
0.001694
0.000210
0.000218
0.000216
0.000277
0.000254
0.000247
0.000376
0.000454
0.000234
0.000326
0.000244
0.000247
0.000273
0.000262
0.000206
0.000056
0.001228
0.000549
0.000317
0.000323
0.000184
0.000205
0.000206
0.000231
0.000499
0.000237
0.000215
0.000245
0.000364
0.000460
0.000435
0.000338
0.000315
0.000231
0.000319
0.000387
0.000240
0.000226
0.000270
0.000237
0.000272
0.000613
0.000551
0.000239
0.000250
0.000271
0.000181
0.000056
0.000213
0.000202
0.000234
0.000245
0.001437
0.000354
0.000207
0.000246
0.000273
0.000220
0.000255
0.000250
0.000243
0.000262
0.000268
0.000272
0.000468
0.000642
0.000276
0.001808
0.000232
0.000287
0.000334
0.000385
0.000479
0.000449
0.000227
0.000246
0.000250
0.000277
0.000212
0.000056
0.000199
0.000254
0.000210
0.001327
0.000338
0.000191
0.000262
0.000208
0.000265
0.000216
0.000240
0.000250
0.000273
0.000250
0.000247
0.000307
0.000509
0.000422
0.000320
0.000217
0.000245
0.000276
0.000281
0.000211
0.000346
0.000220
0.000229
0.000272
0.000270
0.000330
0.000646
0.000056
0.000204
0.000232
0.000234
0.000261
0.000262
0.000254
0.000225
0.000259
0.000287
0.000231
0.001441
0.000235
0.000231
0.000249
0.000256
0.000249
0.000248
0.000263
0.000262
0.000277
0.000265
0.000473
0.000484
0.000359
0.000254
0.000265
0.001835
0.000228
0.000217
0.000354
0.000444
0.000056
0.000260
0.000427
0.000457
0.000508
0.000522
0.000526
0.001460
0.000445
0.000545
0.000643
0.000617
0.000714
0.000419
0.000627
0.000578
0.001729
0.000467
0.000437
0.000399
0.000307
0.000251
0.000286
0.000291
0.000272
0.000257
0.000273
0.000293
0.000282
0.000255
0.000296
0.001330
0.000056
0.000219
0.000246
0.000231
0.000222
0.000243
0.000250
0.000238
0.000241
0.000254
0.000273
0.000235
0.000259
0.000240
0.000263
0.000264
0.000260
0.001857
0.000242
0.000270
0.000242
0.000263
0.000260
0.000275
0.000281
0.000518
0.000309
0.000333
0.000226
0.000268
0.000290
0.000169
0.000057
0.000192
0.001401
0.000264
0.000269
0.000260
0.000251
0.000231
0.000234
0.000254
0.000245
0.000235
0.000242
0.000262
0.000454
0.000261
0.000372
0.000266
0.000272
0.001916
0.000260
0.000255
0.000254
0.000252
0.000268
0.000276
0.000259
0.000274
0.000250
0.000262
0.000305
0.000236
0.000056
0.000179
0.000230
0.000246
0.001426
0.000270
0.000260
0.000220
0.000229
0.000240
0.000259
0.000246
0.000254
0.000239
0.000255
0.000280
0.000247
0.000249
0.000258
0.000279
0.000263
0.000262
0.001845
0.000248
0.001775
0.000248
0.000269
0.000230
0.000244
0.000249
0.000286
0.000208
0.000056
0.000212
0.000237
0.001370
0.000221
0.000264
0.000230
0.000219
0.000249
0.000247
0.000246
0.000246
0.000248
0.000259
0.000265
0.000261
0.000259
0.000264
0.000272
0.000301
0.000249
0.001864
0.000263
0.001802
0.000266
0.000262
0.000259
0.000240
0.000266
0.000257
0.000257
0.000188
0.000056
0.001439
0.000217
0.000249
0.000221
0.000215
0.000235
0.000267
0.000372
0.000251
0.000253
0.000250
0.000261
0.000261
0.000424
0.000401
0.000262
0.000247
0.000267
0.000223
0.000246
0.000256
0.000347
0.000224
0.000257
0.000263
0.000288
0.000260
0.000343
0.000722
0.000334
0.000174
0.000056
0.000215
0.000278
0.000264
0.000316
0.000351
0.000274
0.001680
0.000286
0.000270
0.000267
0.000259
0.000302
0.000264
0.000263
0.000297
0.000310
0.000395
0.000447
0.000418
0.000261
0.000332
0.000276
0.000256
0.000272
0.000334
0.000249
0.000266
0.000242
0.000247
0.000282
0.000408
0.000056
0.000303
0.000394
0.000251
0.000260
0.000262
0.000221
0.000218
0.000256
0.000258
0.000261
0.001494
0.000252
0.000208
0.000252
0.000309
0.000221
0.000268
0.000249
0.000259
0.000266
0.000258
0.000507
0.000389
0.000390
0.000224
0.000285
0.000268
0.000266
0.000226
0.000222
0.000263
0.000056
0.000184
0.000206
0.000320
0.000429
0.000388
0.000246
0.000226
0.000243
0.000251
0.000263
0.000251
0.000234
0.000250
0.000258
0.000252
0.000238
0.000351
0.001323
0.000204
0.000242
0.000270
0.000235
0.000332
0.000509
0.000221
0.000236
0.000616
0.000370
0.000412
0.000231
0.000155
0.000056
0.000205
0.000221
0.000266
0.000262
0.000309
0.000202
0.000362
0.000457
0.000410
0.000296
0.000369
0.000399
0.000392
0.000369
0.000227
0.000221
0.000231
0.000233
0.000374
0.000557
0.001196
0.000233
0.000261
0.000274
0.000244
0.000231
0.000263
0.000346
0.000363
0.000506
0.000256
0.000056
0.000196
0.000215
0.000250
0.000243
0.000249
0.000243
0.000247
0.000247
0.000263
0.000375
0.000569
0.000332
0.000225
0.000213
0.000232
0.000254
0.000243
0.000265
0.000265
0.000240
0.000506
0.000208
0.000407
0.000354
0.000380
0.000225
0.000248
0.000276
0.000246
0.000285
0.000236
0.000055
0.000304
0.000314
0.000279
0.000390
0.000492
0.000323
0.000235
0.000256
0.000235
0.000259
0.000269
0.000257
0.000243
0.000249
0.000254
0.000233
0.000251
0.000406
0.000531
0.000312
0.000222
0.000256
0.000221
0.000252
0.000249
0.000285
0.000264
0.000274
0.000273
0.000273
0.000314
0.000056
0.000233
0.000349
0.000227
0.000225
0.000256
0.000240
0.000249
0.000252
0.000260
0.000262
0.000252
0.000242
0.000274
0.000621
0.000370
0.000314
0.000203
0.000217
0.000244
0.000261
0.000270
0.000253
0.000268
0.000256
0.000268
0.000334
0.000427
0.000550
0.000502
0.000217
0.000150
0.000056
0.000383
0.000195
0.000190
0.000255
0.000240
0.000250
0.000239
0.000247
0.000254
0.000261
0.000225
0.000238
0.000262
0.000240
0.000237
0.000267
0.000248
0.000265
0.000275
0.000261
0.000263
0.000256
0.000273
0.000259
0.000271
0.000258
0.000239
0.000287
0.000248
0.000277
0.000222
0.000055
0.000185
0.000212
0.000248
0.000252
0.000224
0.000266
0.000250
0.000240
0.000259
0.000277
0.000233
0.000233
0.000262
0.000398
0.000239
0.000283
0.000264
0.000265
0.000252
0.000286
0.000287
0.000221
0.000250
0.000254
0.000265
0.000270
0.000256
0.000244
0.000271
0.000267
0.000222
0.000056
0.000245
0.000379
0.000350
0.000284
0.000302
0.000232
0.000216
0.000255
0.000243
0.000232
0.000245
0.000260
0.000252
0.000231
0.000261
0.000260
0.000271
0.000267
0.000242
0.000264
0.000278
0.000267
0.000273
0.000258
0.000276
0.000262
0.000244
0.000291
0.000237
0.000267
0.000208
0.000056
0.000201
0.000214
0.000241
0.000263
0.000249
0.000445
0.000220
0.000240
0.000289
0.000429
0.000506
0.000323
0.000230
0.000204
0.000278
0.000282
0.000217
0.000261
0.000264
0.000263
0.000271
0.000263
0.000257
0.000308
0.000459
0.000568
0.000269
0.000270
0.000292
0.000240
0.000202
0.000056
0.000213
0.000203
0.000240
0.000257
0.000273
0.000689
0.000313
0.000381
0.000240
0.000222
0.000271
0.000233
0.000266
0.000234
0.000260
0.000275
0.000253
0.000292
0.000602
0.000415
0.000288
0.000213
0.000257
0.000286
0.000267
0.000256
0.000263
0.000267
0.000254
0.000339
0.000375
0.000056
0.000248
0.000221
0.000225
0.000235
0.000257
0.000263
0.000235
0.000236
0.000241
0.000254
0.000250
0.000251
0.000250
0.000440
0.000505
0.000434
0.000220
0.000244
0.000263
0.000248
0.000264
0.000268
0.000492
0.000219
0.000261
0.000662
0.000432
0.000386
0.000274
0.000251
0.000205
0.000056
0.000197
0.000211
0.000242
0.000233
0.000254
0.000260
0.000328
0.000465
0.000577
0.000385
0.000233
0.000236
0.000281
0.000270
0.000263
0.000242
0.000253
0.000236
0.000264
0.000362
0.000431
0.000525
0.000429
0.000260
0.000443
0.000341
0.000505
0.000197
0.000235
0.000358
0.000565
0.000056
0.000264
0.000214
0.000499
0.000205
0.000212
0.000227
0.000251
0.000259
0.000239
0.000239
0.000259
0.000437
0.000382
0.000328
0.000225
0.000218
0.000265
0.000243
0.000273
0.000269
0.000270
0.000263
0.000254
0.000263
0.000322
0.000502
0.000449
0.000245
0.000265
0.000271
0.000246
0.000055
0.000226
0.000219
0.000233
0.000243
0.000247
0.000246
0.000411
0.000453
0.000366
0.000277
0.000376
0.000234
0.000225
0.000261
0.000260
0.000237
0.000250
0.000259
0.000354
0.000357
0.000532
0.000265
0.000458
0.000335
0.000399
0.000410
0.000360
0.000255
0.000220
0.000307
0.000457
0.000056
0.000197
0.000274
0.000220
0.000245
0.000263
0.000253
0.000250
0.000249
0.000245
0.000280
0.000230
0.000368
0.000416
0.000515
0.000242
0.000244
0.000258
0.000260
0.000267
0.000240
0.000251
0.000292
0.000223
0.000276
0.000277
0.000326
0.000487
0.000481
0.000247
0.000276
0.000203
0.000056
0.000202
0.000220
0.000266
0.000251
0.000252
0.000321
0.000614
0.000461
0.000280
0.000676
0.000314
0.000200
0.000219
0.000261
0.000270
0.000237
0.000287
0.000258
0.000471
0.000566
0.001507
0.000247
0.000261
0.000262
0.000293
0.000228
0.000362
0.000517
0.000363
0.000232
0.000168
0.000056
0.000214
0.000208
0.000246
0.000245
0.000240
0.000275
0.000247
0.000256
0.000253
0.000357
0.000342
0.000361
0.000278
0.000386
0.000387
0.000329
0.000229
0.000214
0.000260
0.000266
0.000239
0.000251
0.000278
0.000262
0.000342
0.000543
0.000361
0.000257
0.000217
0.000268
0.000205
0.000056
0.000215
0.000230
0.000258
0.000253
0.000253
0.000233
0.000461
0.000227
0.000228
0.000251
0.000240
0.000257
0.000257
0.000256
0.000249
0.000270
0.000272
0.000253
0.000280
0.000248
0.000265
0.000278
0.000315
0.000232
0.000261
0.000274
0.000279
0.000258
0.000268
0.000267
0.000193
0.000057
0.000225
0.000215
0.000272
0.000522
0.000374
0.000216
0.000211
0.000242
0.000259
0.000254
0.000244
0.000248
0.000273
0.000273
0.000227
0.000238
0.000255
0.000259
0.000276
0.000324
0.000409
0.000447
0.000234
0.000260
0.000270
0.000252
0.000266
0.000273
0.000258
0.000270
0.000218
0.000056
0.000346
0.000471
0.000345
0.000208
0.000238
0.000261
0.000476
0.000195
0.000195
0.000251
0.000268
0.000334
0.000360
0.000459
0.001765
0.000287
0.000230
0.000247
0.000272
0.000249
0.000379
0.000485
0.000534
0.000314
0.000202
0.000268
0.000281
0.000419
0.000277
0.000302
0.000164
0.000055
0.000226
0.000373
0.000285
0.000316
0.000515
0.000200
0.000232
0.000252
0.000249
0.000242
0.000260
0.000246
0.000262
0.000284
0.000496
0.000443
0.000233
0.000216
0.000253
0.000271
0.000257
0.000303
0.000254
0.000270
0.000283
0.000508
0.000439
0.000439
0.000448
0.000224
0.000206
0.000056
0.000205
0.000204
0.000251
0.000229
0.000267
0.000236
0.000265
0.000265
0.000340
0.000436
0.000374
0.000388
0.000205
0.000234
0.000267
0.000272
0.000315
0.000240
0.000271
0.000289
0.000223
0.000291
0.000590
0.000288
0.000239
0.000309
0.000237
0.000538
0.000379
0.000290
0.000155
0.000057
0.000209
0.000219
0.000323
0.000457
0.000354
0.000218
0.000222
0.000254
0.000263
0.000252
0.000270
0.000259
0.000219
0.000255
0.000266
0.000278
0.000423
0.000351
0.000420
0.000240
0.000468
0.000223
0.000278
0.000279
0.000302
0.000285
0.000261
0.000271
0.000445
0.000572
0.000183
0.000057
0.000198
0.000199
0.000252
0.000246
0.000256
0.000484
0.000221
0.000241
0.000254
0.000368
0.000575
0.000475
0.000222
0.000229
0.000241
0.000249
0.000250
0.000258
0.000246
0.000254
0.000254
0.000272
0.000323
0.000504
0.000378
0.000344
0.000324
0.000340
0.000307
0.000222
0.000172
0.000056
0.000195
0.000218
0.000244
0.000476
0.000327
0.000389
0.000242
0.000203
0.000201
0.000253
0.000253
0.000261
0.000246
0.000256
0.000292
0.000220
0.000265
0.000231
0.000275
0.000378
0.000546
0.000378
0.000218
0.000235
0.000282
0.000274
0.000258
0.000263
0.000266
0.000257
0.000214
0.000072
0.000240
0.000401
0.000500
0.000201
0.000208
0.000216
0.000323
0.000504
0.000278
0.000202
0.000216
0.000277
0.000252
0.000461
0.000436
0.000333
0.000214
0.000228
0.000268
0.000218
0.000273
0.000265
0.000255
0.000274
0.000280
0.000280
0.000448
0.000403
0.000343
0.000223
0.000159
0.000056
0.000199
0.000220
0.000242
0.000252
0.000257
0.000261
0.000239
0.000250
0.000252
0.000261
0.000248
0.000244
0.000255
0.001450
0.000265
0.000231
0.000253
0.000243
0.000278
0.000281
0.000276
0.000224
0.000271
0.000258
0.000269
0.000266
0.000280
0.000260
0.000270
0.000260
0.000214
0.000056
0.000218
0.000206
0.000257
0.000236
0.000245
0.000235
0.000257
0.000262
0.000236
0.000245
0.000246
0.000260
0.000254
0.000258
0.000247
0.000266
0.000249
0.000258
0.000274
0.000256
0.000255
0.000256
0.000274
0.000224
0.001355
0.000278
0.000573
0.000430
0.000356
0.000199
0.000184
0.000056
0.000198
0.000215
0.000239
0.000251
0.000499
0.000219
0.000197
0.000215
0.000254
0.000408
0.000511
0.000309
0.000203
0.000206
0.000243
0.000261
0.000254
0.000267
0.000250
0.000257
0.000256
0.000253
0.000320
0.000343
0.000526
0.000447
0.000243
0.000255
0.001360
0.000289
0.000178
0.000056
0.000369
0.000401
0.000391
0.000203
0.000208
0.000221
0.000213
0.000260
0.000240
0.000256
0.000251
0.000252
0.000263
0.000341
0.000552
0.000359
0.000329
0.000210
0.000246
0.000246
0.000271
0.000264
0.000268
0.000271
0.000261
0.000262
0.000390
0.000472
0.000426
0.000390
0.000140
0.000056
0.000193
0.000228
0.001314
0.000366
0.000319
0.000470
0.000325
0.000316
0.000438
0.000387
0.000239
0.000194
0.000249
0.000255
0.000253
0.000262
0.000498
0.000390
0.000443
0.000263
0.000276
0.000239
0.000257
0.000515
0.000230
0.000262
0.000262
0.000276
0.000298
0.000611
0.000251
0.000057
0.000331
0.000386
0.000226
0.000207
0.001505
0.000554
0.000303
0.000225
0.000210
0.000281
0.000194
0.000239
0.000249
0.000262
0.000255
0.000261
0.000241
0.000305
0.000457
0.000335
0.000495
0.000200
0.000214
0.000290
0.000221
0.000278
0.000273
0.000235
0.000266
0.000277
0.000214
0.000060
0.000352
0.000322
0.000244
0.000211
0.000254
0.000242
0.000246
0.000251
0.000242
0.000224
0.001535
0.000400
0.000275
0.000204
0.000200
0.000264
0.000293
0.000245
0.000233
0.000273
0.000279
0.000249
0.000280
0.000406
0.000413
0.000463
0.000216
0.000264
0.000288
0.000271
0.000191
0.000056
0.000209
0.000463
0.000191
0.000210
0.000322
0.000444
0.000350
0.000354
0.000462
0.000201
0.000227
0.000252
0.000254
0.000261
0.000266
0.001403
0.000375
0.000271
0.000252
0.000264
0.000283
0.000269
0.000242
0.000259
0.000255
0.000267
0.000476
0.000393
0.000320
0.000275
0.000169
0.000056
0.000193
0.000229
0.000243
0.000244
0.000219
0.000267
0.000242
0.000275
0.000267
0.000383
0.000468
0.000310
0.000211
0.000201
0.000248
0.000271
0.000279
0.000260
0.000275
0.000224
0.000253
0.000314
0.001320
0.000217
0.000287
0.000208
0.000245
0.000262
0.000269
0.000270
0.000185
0.000056
0.000220
0.000341
0.000380
0.000346
0.000241
0.000198
0.000245
0.000259
0.000262
0.000244
0.000265
0.000268
0.000267
0.000225
0.000261
0.000255
0.000265
0.000276
0.000269
0.000247
0.000243
0.000281
0.000267
0.000275
0.000286
0.000273
0.000288
0.000251
0.000246
0.000515
0.001311
0.000056
0.000226
0.000204
0.000240
0.000253
0.000239
0.000262
0.000254
0.000221
0.000240
0.000255
0.000257
0.000262
0.000262
0.000239
0.000244
0.001827
0.000248
0.000220
0.000201
0.000235
0.000256
0.000252
0.000272
0.000265
0.000266
0.000267
0.000259
0.000278
0.000272
0.000254
0.000239
0.000056
0.000323
0.000433
0.001240
0.000206
0.000198
0.000230
0.000259
0.000257
0.000256
0.000252
0.000235
0.000317
0.000433
0.000524
0.000230
0.000210
0.000225
0.000256
0.000254
0.000266
0.000246
0.000268
0.000265
0.000286
0.000261
0.000406
0.000399
0.000343
0.000286
0.000253
0.000202
0.000056
0.000203
0.000221
0.000247
0.000244
0.000270
0.000218
0.000245
0.000253
0.000380
0.000474
0.001161
0.000224
0.000226
0.000269
0.000257
0.000283
0.000256
0.000249
0.000356
0.000396
0.000385
0.000262
0.000218
0.000235
0.000277
0.000270
0.000284
0.000285
0.000277
0.000275
0.000204
0.000057
0.000263
0.000417
0.000396
0.000228
0.000198
0.000213
0.000239
0.000272
0.000264
0.000259
0.000225
0.000254
0.000528
0.000469
0.000470
0.001475
0.000225
0.000248
0.000337
0.000355
0.000427
0.000426
0.000496
0.000366
0.000249
0.000264
0.000266
0.000276
0.000267
0.000265
0.000218
0.000056
0.000228
0.000229
0.000479
0.000393
0.000407
0.000218
0.000251
0.000234
0.000241
0.000258
0.000248
0.000265
0.000266
0.000242
0.000278
0.000278
0.000426
0.000436
0.000312
0.001322
0.000266
0.000254
0.000256
0.000250
0.000550
0.000400
0.000404
0.000217
0.000243
0.000277
0.000207
0.000057
0.000176
0.000226
0.000248
0.000241
0.000248
0.000277
0.000445
0.000401
0.000352
0.000242
0.000232
0.000254
0.000272
0.000256
0.000259
0.000273
0.000261
0.000255
0.000268
0.000282
0.000554
0.000433
0.000298
0.001344
0.000341
0.000243
0.000288
0.000412
0.000460
0.000325
0.000333
0.000057
0.000175
0.000218
0.000247
0.000250
0.000246
0.000256
0.001702
0.000261
0.000228
0.000202
0.000249
0.000248
0.000316
0.000328
0.000328
0.000289
0.000261
0.000322
0.000481
0.000420
0.000280
0.000279
0.000227
0.000228
0.001428
0.000444
0.000406
0.000482
0.000312
0.000295
0.000148
0.000055
0.000181
0.000236
0.000259
0.000258
0.000242
0.000260
0.001788
0.000195
0.000242
0.000244
0.000389
0.000405
0.001465
0.000305
0.000428
0.000208
0.000207
0.000243
0.000260
0.000267
0.001819
0.000391
0.000372
0.000275
0.000234
0.000211
0.000244
0.000287
0.000246
0.000246
0.000212
0.000057
0.000187
0.000229
0.000267
0.000245
0.000263
0.000271
0.000281
0.000256
0.000268
0.000234
0.000258
0.000247
0.000253
0.000276
0.000261
0.001479
0.000286
0.000258
0.000248
0.000276
0.000265
0.000262
0.000413
0.001280
0.000306
0.000216
0.000266
0.000255
0.000465
0.000214
0.000177
0.000056
0.000204
0.000230
0.000242
0.000233
0.000244
0.000224
0.000234
0.001757
0.000216
0.000206
0.000247
0.000363
0.000233
0.000223
0.001473
0.000230
0.000222
0.000236
0.000249
0.000257
0.000244
0.000306
0.000319
0.001376
0.000276
0.000226
0.000236
0.000247
0.001377
0.000301
0.000183
0.000056
0.000222
0.000350
0.000199
0.000217
0.000253
0.000243
0.000259
0.000266
0.000287
0.000228
0.000267
0.000257
0.000257
0.000254
0.000320
0.001473
0.000261
0.000271
0.000245
0.000252
0.000273
0.000271
0.000254
0.001475
0.000351
0.000273
0.000248
0.001350
0.000229
0.000228
0.000221
0.000056
0.000213
0.000419
0.000296
0.000217
0.000219
0.000242
0.000252
0.000264
0.000264
0.000269
0.000241
0.000249
0.000262
0.000284
0.000447
0.001244
0.000204
0.000227
0.000246
0.000298
0.000225
0.000232
0.000253
0.001298
0.000373
0.000218
0.000249
0.000227
0.000255
0.001339
0.000321
0.000056
0.000279
0.000287
0.000220
0.000218
0.000227
0.000259
0.000241
0.000247
0.000271
0.000263
0.000240
0.000245
0.000273
0.000307
0.000392
0.001494
0.000230
0.000235
0.000293
0.000514
0.000303
0.000384
0.001354
0.000284
0.000255
0.000255
0.001286
0.000350
0.000276
0.000449
0.000346
0.000057
0.000211
0.000240
0.000250
0.000259
0.000250
0.000255
0.000285
0.000237
0.000263
0.000260
0.000282
0.000578
0.001322
0.000214
0.000242
0.000249
0.000283
0.000269
0.000217
0.000235
0.000308
0.001326
0.000244
0.000225
0.000233
0.000250
0.001482
0.000453
0.000491
0.000225
0.000189
0.000057
0.000194
0.000217
0.000240
0.000234
0.000267
0.000249
0.000257
0.000259
0.000458
0.000453
0.000305
0.001439
0.000237
0.000221
0.000273
0.000269
0.000241
0.000282
0.001658
0.000315
0.000341
0.000365
0.001354
0.000354
0.000313
0.000340
0.000230
0.000218
0.000236
0.000271
0.000212
0.000056
0.000192
0.000230
0.000311
0.000284
0.000241
0.000560
0.000300
0.000365
0.001470
0.000304
0.000323
0.000257
0.000198
0.000316
0.000328
0.001406
0.000261
0.000220
0.000222
0.000240
0.000297
0.001591
0.000364
0.000277
0.000232
0.000223
0.000519
0.000312
0.000234
0.000225
0.000254
0.000056
0.000213
0.000360
0.000339
0.000302
0.000203
0.001459
0.000248
0.000234
0.000265
0.000279
0.000251
0.000246
0.000305
0.001474
0.000269
0.000226
0.000426
0.001299
0.000248
0.000440
0.000381
0.000244
0.000250
0.000248
0.000283
0.000237
0.000465
0.000232
0.000252
0.000282
0.000206
0.000056
0.000207
0.000361
0.000277
0.001402
0.000280
0.000201
0.000305
0.000242
0.000241
0.000253
0.000251
0.000288
0.001612
0.000201
0.000228
0.000207
0.001383
0.000319
0.000484
0.000386
0.000387
0.000223
0.000237
0.000238
0.000346
0.000242
0.000221
0.000264
0.000258
0.000252
0.000211
0.000056
0.000187
0.000393
0.001433
0.000220
0.000265
0.000267
0.000263
0.000235
0.000310
0.000436
0.001292
0.000246
0.000300
0.000240
0.000216
0.001400
0.000647
0.000254
0.000293
0.000410
0.000340
0.000236
0.000232
0.000233
0.000273
0.000313
0.000254
0.000293
0.000443
0.000483
0.001377
0.000056
0.000215
0.000261
0.000207
0.000239
0.000231
0.000375
0.001583
0.000288
0.000220
0.000212
0.000247
0.001445
0.000480
0.000274
0.000455
0.000249
0.000218
0.000203
0.000248
0.000278
0.000261
0.000273
0.000274
0.000249
0.000252
0.000305
0.000426
0.000513
0.001452
0.000266
0.000194
0.000055
0.000224
0.000217
0.000497
0.000450
0.001176
0.000283
0.000255
0.000253
0.000249
0.000256
0.000246
0.000286
0.000301
0.000649
0.000253
0.000214
0.000251
0.000275
0.000255
0.000253
0.000261
0.000270
0.000260
0.000262
0.000272
0.000401
0.000440
0.000372
0.000296
0.001483
0.000145
0.000056
0.000208
0.000206
0.000241
0.000509
0.000324
0.000319
0.000295
0.000324
0.000273
0.000268
0.000263
0.000258
0.000247
0.000312
0.000245
0.000300
0.000683
0.000177
0.000280
0.000384
0.000287
0.000476
0.000209
0.000232
0.000221
0.000265
0.000259
0.000288
0.000402
0.000441
0.000317
0.000055
0.000198
0.001362
0.000274
0.000331
0.000387
0.000482
0.000299
0.000341
0.000226
0.000214
0.000256
0.000249
0.000270
0.000268
0.000259
0.000259
0.000262
0.001337
0.000333
0.000223
0.000225
0.000278
0.000271
0.000278
0.000267
0.000261
0.000270
0.000252
0.000300
0.000384
0.000417
0.000055
0.000212
0.000238
0.000225
0.001544
0.000326
0.000220
0.000219
0.000207
0.000227
0.000241
0.000254
0.000273
0.000250
0.000255
0.000264
0.000258
0.000254
0.000279
0.000234
0.000270
0.001422
0.000275
0.000224
0.000329
0.000220
0.000226
0.000250
0.000270
0.000274
0.000504
0.000376
0.000055
0.000187
0.000206
0.000389
0.000287
0.000249
0.000253
0.001533
0.000371
0.000311
0.000198
0.000242
0.000361
0.000309
0.000212
0.000228
0.000251
0.000247
0.000259
0.000259
0.000255
0.000516
0.000554
0.001109
0.000262
0.000216
0.000238
0.000254
0.000254
0.000270
0.000262
0.000378
0.000056
0.000264
0.000332
0.000198
0.000193
0.000255
0.000247
0.000243
0.000227
0.001430
0.000573
0.000329
0.000289
0.000219
0.000205
0.000251
0.000247
0.000252
0.000279
0.000258
0.000310
0.000303
0.000493
0.000437
0.001381
0.000246
0.000244
0.000279
0.000259
0.000267
0.000318
0.000589
0.000057
0.000249
0.000212
0.000267
0.000198
0.000228
0.000242
0.000254
0.000245
0.000271
0.001556
0.000368
0.000258
0.000264
0.000259
0.000491
0.000261
0.000402
0.000479
0.000332
0.000308
0.000442
0.000468
0.001319
0.000229
0.000221
0.000234
0.001813
0.000397
0.000581
0.000312
0.000145
0.000056
0.000196
0.000204
0.000240
0.000237
0.000247
0.000243
0.000351
0.000418
0.000528
0.000407
0.000288
0.000213
0.000205
0.000268
0.000261
0.000265
0.000249
0.000260
0.000239
0.000278
0.000306
0.000387
0.001342
0.000257
0.000221
0.000264
0.001869
0.000431
0.000364
0.000380
0.000146
0.000056
0.000195
0.000201
0.000243
0.001608
0.000374
0.000224
0.000248
0.000259
0.000245
0.000321
0.000368
0.000377
0.000351
0.000306
0.000436
0.000418
0.000279
0.001287
0.000262
0.000218
0.000218
0.000261
0.000348
0.000391
0.000602
0.000480
0.000219
0.000245
0.000248
0.000283
0.000209
0.000056
0.000205
0.000199
0.001542
0.000332
0.000197
0.000211
0.000219
0.000260
0.000241
0.000257
0.000245
0.000269
0.000272
0.000268
0.000272
0.000490
0.000319
0.000354
0.001365
0.000290
0.000204
0.000264
0.000261
0.000266
0.000353
0.000532
0.000427
0.000280
0.000301
0.000259
0.000389
0.000056
0.000200
0.000210
0.000255
0.000256
0.001582
0.000234
0.000260
0.000238
0.000254
0.000259
0.000260
0.000253
0.000262
0.000240
0.000369
0.000608
0.001407
0.000740
0.000225
0.000342
0.000233
0.000219
0.000235
0.000279
0.001743
0.000738
0.000258
0.000246
0.000270
0.000292
0.000201
0.000055
0.000209
0.000204
0.000255
0.000247
0.000250
0.000245
0.000254
0.000250
0.000244
0.000229
0.000279
0.000286
0.000256
0.000253
0.000260
0.000256
0.000262
0.001599
0.000678
0.000440
0.000299
0.000218
0.000229
0.000279
0.000273
0.000263
0.000276
0.000252
0.001489
0.000345
0.000294
0.000055
0.000181
0.000221
0.000240
0.000263
0.000252
0.000228
0.000258
0.000254
0.000262
0.000256
0.000240
0.000457
0.000454
0.000338
0.000199
0.000229
0.000268
0.001461
0.000684
0.000388
0.000345
0.000309
0.000225
0.000229
0.000283
0.000252
0.000244
0.000285
0.001482
0.000447
0.000207
0.000055
0.000218
0.000201
0.000251
0.000238
0.000254
0.000242
0.000248
0.000244
0.000268
0.000299
0.000353
0.000338
0.000338
0.000245
0.000228
0.000244
0.000271
0.000249
0.001582
0.000594
0.000495
0.000334
0.000217
0.000253
0.000256
0.000259
0.000272
0.000276
0.000264
0.001441
0.000299
0.000056
0.000208
0.000208
0.000217
0.000259
0.000255
0.000247
0.000276
0.000350
0.000371
0.000419
0.000381
0.000346
0.000367
0.000195
0.000243
0.000243
0.000276
0.000258
0.001386
0.000921
0.000290
0.000203
0.000484
0.000203
0.000211
0.000258
0.000275
0.000258
0.000270
0.000274
0.000350
0.000057
0.000162
0.000304
0.000202
0.000233
0.000254
0.000257
0.000229
0.000234
0.000259
0.000265
0.000242
0.000235
0.000247
0.000571
0.000388
0.000441
0.000218
0.000258
0.000261
0.000246
0.000253
0.000359
0.001391
0.001063
0.000249
0.000226
0.000268
0.000263
0.000277
0.000248
0.000224
0.000056
0.000196
0.001387
0.000273
0.000190
0.000204
0.000258
0.000254
0.000243
0.000226
0.000253
0.000258
0.000262
0.000236
0.000540
0.000243
0.000456
0.000285
0.000213
0.000260
0.000271
0.000266
0.000243
0.000250
0.000263
0.001399
0.000679
0.000301
0.000396
0.000373
0.000398
0.000261
0.000056
0.000193
0.000207
0.000377
0.001306
0.000234
0.000268
0.000198
0.000253
0.000256
0.000255
0.000260
0.000241
0.000290
0.000311
0.000560
0.000377
0.000204
0.000319
0.000270
0.000220
0.000241
0.000269
0.000235
0.000269
0.000271
0.001518
0.000770
0.000289
0.000276
0.000278
0.000203
0.000056
0.000202
0.000288
0.000409
0.000390
0.001303
0.000244
0.000199
0.000208
0.000237
0.000247
0.000243
0.000265
0.000231
0.000232
0.000254
0.000253
0.000269
0.000242
0.000251
0.000257
0.000259
0.000271
0.000333
0.000301
0.000233
0.000245
0.000273
0.001528
0.000240
0.000224
0.000155
0.000056
0.000185
0.000214
0.000248
0.000333
0.000347
0.000336
0.000403
0.000250
0.001559
0.000284
0.000306
0.000431
0.000354
0.000238
0.000497
0.000219
0.000222
0.000262
0.000240
0.000271
0.000283
0.000260
0.000261
0.000268
0.000262
0.000474
0.000379
0.000329
0.001534
0.000249
0.000176
0.000056
0.000216
0.000228
0.000243
0.000240
0.000249
0.000245
0.000262
0.000341
0.000402
0.002069
0.000209
0.000207
0.000253
0.000260
0.000261
0.000330
0.000242
0.000222
0.000250
0.000427
0.000388
0.000424
0.001538
0.000204
0.000226
0.000502
0.001764
0.000287
0.000264
0.001485
0.000176
0.000056
0.000354
0.000351
0.000476
0.000239
0.000262
0.000230
0.000254
0.000263
0.000283
0.000224
0.000247
0.000323
0.000439
0.000322
0.000492
0.000213
0.000207
0.001564
0.000498
0.001992
0.000280
0.000271
0.000219
0.001580
0.002008
0.000741
0.000279
0.000214
0.000258
0.000518
0.000349
0.000055
0.000186
0.000220
0.000247
0.000254
0.001495
0.001648
0.001087
0.000232
0.000207
0.001578
0.001976
0.000240
0.000302
0.000409
0.000370
0.000335
0.000395
0.000356
0.000255
0.000222
0.000254
0.000256
0.000276
0.001580
0.001283
0.001425
0.000269
0.000236
0.000267
0.000273
0.000379
0.000056
0.000174
0.000228
0.000214
0.000238
0.000236
0.000226
0.000260
0.000249
0.000259
0.000249
0.000243
0.000342
0.000439
0.000468
0.000309
0.000212
0.000229
0.000270
0.000267
0.000265
0.000260
0.001367
0.000483
0.000448
0.002061
0.000252
0.000248
0.000304
0.000544
0.000398
0.000168
0.000056
0.000235
0.000310
0.000467
0.000315
0.000222
0.000210
0.000232
0.000262
0.000243
0.000239
0.000253
0.000256
0.000264
0.001621
0.001407
0.001221
0.000273
0.000238
0.000216
0.000237
0.000285
0.000278
0.000257
0.000251
0.002263
0.000228
0.000213
0.000289
0.000340
0.000282
0.000246
0.000056
0.000204
0.000378
0.000587
0.000328
0.000199
0.000207
0.000231
0.000280
0.001880
0.001418
0.000255
0.000380
0.000391
0.000396
0.000239
0.000211
0.000219
0.000272
0.000271
0.000261
0.000269
0.000251
0.000479
0.000229
0.000272
0.000279
0.000244
0.000279
0.000277
0.000248
0.000219
0.000056
0.000194
0.000237
0.000273
0.000217
0.000244
0.000268
0.001531
0.001506
0.001326
0.000215
0.000203
0.000222
0.000269
0.000267
0.000247
0.000246
0.000250
0.002169
0.000220
0.000201
0.000264
0.000268
0.000272
0.000252
0.000267
0.000255
0.000261
0.000260
0.000276
0.000264
0.000188
0.000056
0.001505
0.000314
0.002390
0.000254
0.000302
0.000294
0.000240
0.000264
0.000263
0.000242
0.000250
0.000247
0.000243
0.000231
0.000265
0.000257
0.000264
0.000272
0.000261
0.000268
0.000262
0.000299
0.000258
0.000274
0.000237
0.000248
0.000261
0.000273
0.000260
0.000271
0.000397
0.000056
0.000199
0.002582
0.000323
0.000196
0.000199
0.000212
0.000257
0.000260
0.000252
0.000257
0.000377
0.000420
0.000297
0.000263
0.000215
0.002200
0.000233
0.000224
0.000236
0.000596
0.000317
0.000306
0.000205
0.000244
0.000265
0.000246
0.000263
0.000279
0.000265
0.001685
0.001211
0.000056
0.000201
0.000206
0.000316
0.000336
0.000390
0.000277
0.000236
0.000205
0.000261
0.000254
0.000264
0.000250
0.000227
0.000256
0.000264
0.000233
0.000306
0.000639
0.000387
0.000255
0.000212
0.000245
0.000285
0.000258
0.000249
0.000252
0.000252
0.000280
0.000241
0.000281
0.000414
0.000057
0.001104
0.000206
0.000468
0.000361
0.000326
0.000196
0.000193
0.000234
0.002265
0.000373
0.000327
0.000378
0.000213
0.000272
0.000348
0.000264
0.000268
0.000255
0.000260
0.000242
0.000244
0.000287
0.000686
0.000420
0.001808
0.001271
0.000550
0.000581
0.000235
0.000256
0.000205
0.000055
0.000236
0.000378
0.000218
0.000249
0.000226
0.000237
0.000246
0.000248
0.000261
0.000254
0.000254
0.000233
0.000249
0.000247
0.000363
0.000549
0.001894
0.001307
0.000528
0.000299
0.000450
0.000249
0.000268
0.000241
0.002250
0.000421
0.000371
0.000313
0.000219
0.000280
0.000207
0.000055
0.000197
0.000222
0.000258
0.000244
0.000247
0.000329
0.000443
0.000298
0.000328
0.000230
0.000236
0.000276
0.000235
0.002121
0.000431
0.000296
0.000226
0.000242
0.000263
0.000262
0.000256
0.002444
0.000372
0.000205
0.000281
0.000229
0.000248
0.000277
0.000269
0.000283
0.000215
0.000058
0.000194
0.000434
0.000516
0.000353
0.000225
0.000212
0.000211
0.000239
0.000258
0.001959
0.000373
0.000347
0.000253
0.000255
0.000201
0.000256
0.000277
0.000247
0.002262
0.000381
0.000225
0.000265
0.000269
0.000259
0.000286
0.000215
0.000290
0.000257
0.000269
0.000261
0.000195
0.000056
0.000196
0.000227
0.000256
0.000210
0.000249
0.000258
0.000240
0.000247
0.000231
0.002174
0.000257
0.000269
0.000207
0.000501
0.000199
0.000209
0.000265
0.000287
0.000258
0.000261
0.002027
0.000245
0.000371
0.000367
0.000504
0.000335
0.000279
0.000244
0.000226
0.000250
0.000227
0.000056
0.000189
0.000245
0.000224
0.000242
0.000245
0.000379
0.000205
0.002340
0.000211
0.000220
0.000233
0.000259
0.000244
0.000244
0.000299
0.002193
0.000526
0.000225
0.000245
0.000262
0.000249
0.000267
0.000280
0.000271
0.000261
0.000253
0.000287
0.000251
0.000267
0.000311
0.000165
0.000055
0.000188
0.003008
0.000241
0.000224
0.000240
0.000243
0.000255
0.000314
0.000342
0.000409
0.002132
0.000260
0.000236
0.000259
0.000315
0.000461
0.000467
0.000288
0.000226
0.000212
0.000247
0.000260
0.000269
0.000235
0.000251
0.000266
0.000269
0.000272
0.000333
0.000717
0.000263
0.000056
0.000195
0.000269
0.000259
0.000221
0.000261
0.000236
0.000244
0.000252
0.001573
0.002095
0.000510
0.000294
0.000422
0.000735
0.000350
0.000208
0.000211
0.000253
0.000262
0.000259
0.000266
0.000231
0.000251
0.000294
0.001807
0.001455
0.000286
0.000279
0.000291
0.000316
0.000441
0.000057
0.001934
0.000239
0.000230
0.000211
0.000264
0.000387
0.000434
0.000391
0.000247
0.000220
0.000222
0.000211
0.000268
0.000249
0.000265
0.000270
0.000249
0.000261
0.001914
0.000208
0.000201
0.000248
0.000274
0.000279
0.000274
0.000260
0.001540
0.000338
0.000211
0.000221
0.000188
0.000057
0.000202
0.000202
0.000243
0.000233
0.000258
0.000237
0.000272
0.000403
0.000358
0.000411
0.000199
0.000201
0.000330
0.000330
0.000377
0.000328
0.000224
0.000220
0.000308
0.000350
0.000577
0.000352
0.000240
0.000214
0.000264
0.000251
0.000251
0.000271
0.000272
0.000271
0.000219
0.000055
0.001450
0.000401
0.000228
0.001999
0.000260
0.000445
0.000354
0.000382
0.000198
0.000215
0.000268
0.000245
0.000243
0.000249
0.000268
0.000276
0.000440
0.000337
0.000380
0.000385
0.000331
0.000214
0.000254
0.000263
0.000318
0.000240
0.000245
0.000271
0.000349
0.000483
0.001412
0.000056
0.000198
0.000206
0.002074
0.000290
0.000323
0.000262
0.000255
0.000259
0.000259
0.000247
0.000226
0.000249
0.000255
0.000263
0.000256
0.000340
0.000719
0.001750
0.000254
0.000250
0.000257
0.000265
0.000426
0.000470
0.001492
0.000268
0.000365
0.001997
0.000240
0.000257
0.000171
0.000055
0.000207
0.000207
0.000227
0.000245
0.000243
0.000239
0.000246
0.000280
0.000338
0.000291
0.000383
0.000363
0.000350
0.000295
0.000221
0.000251
0.000262
0.000238
0.000267
0.000263
0.000272
0.000311
0.000264
0.000255
0.000271
0.001577
0.000281
0.000402
0.001982
0.000284
0.000190
0.000056
0.000165
0.000221
0.000239
0.000248
0.000466
0.000225
0.000253
0.000343
0.000370
0.000370
0.000230
0.000223
0.000251
0.000267
0.000283
0.000361
0.000481
0.000379
0.000242
0.000335
0.000619
0.000404
0.001557
0.000270
0.000231
0.002016
0.000352
0.000246
0.000201
0.000268
0.000199
0.000056
0.000181
0.000221
0.000216
0.000244
0.000258
0.000275
0.000246
0.000269
0.000261
0.000245
0.001894
0.000265
0.000396
0.000327
0.000459
0.000362
0.001536
0.000324
0.000224
0.000297
0.001997
0.000691
0.000216
0.000229
0.000229
0.000271
0.000496
0.000227
0.000253
0.000278
0.000215
0.000056
0.000172
0.000390
0.000390
0.000226
0.000213
0.000230
0.000253
0.000250
0.000268
0.000296
0.000227
0.000249
0.000258
0.000258
0.000372
0.000456
0.001313
0.000256
0.000311
0.002003
0.000299
0.000278
0.000203
0.000256
0.000247
0.000276
0.000266
0.000264
0.000245
0.000267
0.000221
0.000055
0.000237
0.000449
0.002044
0.000207
0.000238
0.000228
0.000216
0.000342
0.000426
0.001562
0.000249
0.000361
0.000336
0.002000
0.000246
0.000233
0.000262
0.000273
0.000262
0.000244
0.000278
0.000285
0.000262
0.000365
0.000483
0.000511
0.000227
0.002163
0.000591
0.000359
0.000470
0.000057
0.000198
0.000216
0.000213
0.002036
0.000203
0.000207
0.000239
0.000272
0.000209
0.000253
0.000242
0.000259
0.000257
0.000274
0.000528
0.000323
0.001311
0.000243
0.000264
0.000272
0.000226
0.000249
0.000275
0.000256
0.000359
0.000424
0.000454
0.000268
0.001682
0.000227
0.000138
0.000056
0.000211
0.000241
0.000198
0.000235
0.000244
0.000262
0.000250
0.000245
0.000298
0.000323
0.000426
0.001446
0.000189
0.000213
0.000224
0.000261
0.000259
0.000253
0.000300
0.000459
0.000483
0.000399
0.000222
0.001571
0.000254
0.000236
0.000283
0.000279
0.000265
0.000266
0.000208
0.000055
0.000194
0.000207
0.000274
0.000262
0.000252
0.000240
0.000239
0.000242
0.000254
0.000242
0.000260
0.000253
0.000254
0.000252
0.001579
0.000239
0.000237
0.000264
0.000329
0.000327
0.000361
0.000265
0.000212
0.000256
0.000257
0.000263
0.001474
0.000290
0.000224
0.000213
0.000177
0.000056
0.000174
0.000230
0.000244
0.000267
0.000259
0.000228
0.000246
0.000261
0.000240
0.000247
0.000241
0.000259
0.000227
0.000384
0.000346
0.000279
0.000331
0.001575
0.000337
0.000209
0.000213
0.000237
0.000261
0.000264
0.000434
0.000466
0.000414
0.000232
0.000237
0.001589
0.000186
0.000055
0.000164
0.000379
0.000328
0.000317
0.000208
0.000196
0.000268
0.000256
0.000258
0.000242
0.000243
0.000237
0.001473
0.000337
0.000283
0.000210
0.000225
0.000256
0.000272
0.000268
0.000250
0.000240
0.000270
0.000257
0.000244
0.000339
0.000498
0.000388
0.000300
0.000201
0.000208
0.000056
0.000205
0.000318
0.000340
0.000393
0.000360
0.000254
0.000220
0.000249
0.000250
0.000255
0.000248
0.000226
0.000253
0.000248
0.001375
0.000234
0.000217
0.000222
0.000262
0.000273
0.000236
0.000257
0.000262
0.000261
0.000252
0.000256
0.000300
0.000643
0.000518
0.000238
0.000188
0.000056
0.000193
0.001536
0.000246
0.000345
0.000531
0.000328
0.000194
0.000244
0.000265
0.000253
0.000242
0.000263
0.000287
0.000254
0.000267
0.001518
0.000254
0.000283
0.000262
0.000258
0.000257
0.000260
0.000261
0.000265
0.000261
0.000256
0.000474
0.000359
0.000375
0.000229
0.000175
0.000055
0.000190
0.000218
0.000248
0.001703
0.000398
0.000331
0.000208
0.000207
0.000265
0.000251
0.000273
0.000267
0.000252
0.000256
0.000238
0.000263
0.000494
0.001302
0.000224
0.000212
0.001547
0.000354
0.000493
0.000428
0.000294
0.000216
0.000263
0.000468
0.000240
0.000247
0.000201
0.000056
0.000266
0.000218
0.000220
0.000233
0.000248
0.000257
0.000237
0.000255
0.000262
0.000241
0.000250
0.000258
0.000320
0.000574
0.001585
0.001480
0.000377
0.000567
0.000276
0.000252
0.000232
0.000261
0.000244
0.000255
0.000260
0.000263
0.000266
0.000263
0.001600
0.000312
0.000136
0.000055
0.000237
0.000337
0.000353
0.000328
0.000261
0.000209
0.000222
0.000340
0.000414
0.001441
0.000352
0.001543
0.000411
0.000444
0.000424
0.000257
0.000345
0.000336
0.000343
0.000280
0.000239
0.000361
0.001564
0.000528
0.000243
0.000244
0.000253
0.000252
0.000259
0.000262
0.000221
0.000056
0.000197
0.000234
0.000261
0.000249
0.000240
0.001657
0.000953
0.000895
0.000252
0.000232
0.000250
0.000264
0.000246
0.000268
0.000253
0.000250
0.000254
0.000266
0.000261
0.000284
0.001512
0.000258
0.000255
0.000224
0.000209
0.000265
0.000263
0.000272
0.000268
0.000283
0.000210
0.000057
0.000189
0.000205
0.001541
0.000923
0.000392
0.000328
0.000218
0.000209
0.000247
0.000249
0.000247
0.000258
0.000246
0.002039
0.000480
0.000209
0.000209
0.000238
0.000260
0.000262
0.000206
