0.000090
0.009445
0.012086
0.000303
0.000263
0.000289
0.000302
0.000248
0.000328
0.000284
0.000247
0.000350
0.000504
0.000477
0.000334
0.000416
0.000275
0.000345
0.000349
0.000413
0.000308
0.001922
0.000705
0.000250
0.000256
0.000307
0.000304
0.000318
0.000436
0.000442
0.000502
0.000256
0.000058
0.000198
0.000269
0.000272
0.000262
0.000269
0.000251
0.000275
0.000281
0.000256
0.000316
0.000431
0.000414
0.000308
0.000257
0.000415
0.000301
0.000362
0.000248
0.000263
0.001687
0.000330
0.000251
0.000449
0.000240
0.000281
0.000285
0.000285
0.000292
0.000277
0.000323
0.000452
0.000057
0.000252
0.000250
0.000264
0.000257
0.000254
0.000246
0.000259
0.000257
0.000288
0.001666
0.000226
0.000238
0.000263
0.000279
0.000281
0.000244
0.000264
0.000260
0.000354
0.001790
0.000243
0.000279
0.000442
0.000463
0.000356
0.000240
0.000311
0.000508
0.000432
0.000735
0.000192
0.000057
0.000224
0.000243
0.000257
0.000241
0.000293
0.000256
0.000306
0.000619
0.000327
0.000252
0.000248
0.000251
0.000239
0.000258
0.000252
0.000257
0.000245
0.000267
0.000304
0.000324
0.001665
0.000269
0.000261
0.000415
0.000321
0.000678
0.000687
0.000518
0.000336
0.000239
0.000186
0.000056
0.000235
0.000246
0.000267
0.000242
0.000254
0.000258
0.000247
0.000552
0.001398
0.000214
0.000252
0.000245
0.000257
0.000261
0.000255
0.000286
0.000280
0.000838
0.001352
0.000279
0.000457
0.000256
0.000207
0.000239
0.000260
0.000259
0.000264
0.000271
0.000264
0.000263
0.000196
0.000057
0.000203
0.000245
0.000241
0.000265
0.000238
0.000244
0.000239
0.000252
0.000246
0.000254
0.001623
0.000270
0.000238
0.000238
0.000253
0.000244
0.000265
0.000237
0.000252
0.000254
0.000265
0.001662
0.000294
0.000255
0.000429
0.000250
0.000269
0.000253
0.000267
0.000265
0.000191
0.000055
0.000219
0.000228
0.000257
0.000239
0.000244
0.000252
0.000258
0.000235
0.000265
0.000239
0.000279
0.000241
0.000275
0.000258
0.001644
0.000271
0.000301
0.000208
0.000260
0.000271
0.000268
0.000239
0.000247
0.000263
0.001779
0.000380
0.000357
0.000358
0.000252
0.000280
0.000198
0.000056
0.000224
0.000240
0.000251
0.000264
0.000257
0.000235
0.000317
0.000382
0.000399
0.000438
0.000207
0.000250
0.000251
0.000249
0.001567
0.000533
0.000374
0.000346
0.000342
0.000210
0.000267
0.000290
0.000264
0.001722
0.000518
0.000472
0.000260
0.000230
0.000248
0.000265
0.000186
0.000055
0.000199
0.000237
0.000256
0.000344
0.000448
0.000241
0.000384
0.000281
0.000220
0.000245
0.000263
0.000242
0.000251
0.001706
0.000492
0.000286
0.000233
0.000256
0.000266
0.000283
0.000252
0.000254
0.000272
0.001886
0.000309
0.000385
0.000265
0.000241
0.000262
0.000405
0.000327
0.000055
0.000202
0.000388
0.000434
0.000188
0.000267
0.000249
0.000248
0.000255
0.000243
0.000233
0.000236
0.000249
0.001652
0.000289
0.000280
0.000224
0.000265
0.000249
0.000246
0.000279
0.000280
0.000331
0.000243
0.001802
0.000260
0.000501
0.000248
0.000250
0.000260
0.000268
0.000257
0.000056
0.000254
0.000710
0.000568
0.000215
0.000230
0.000274
0.000229
0.000222
0.000258
0.000252
0.000255
0.001699
0.000243
0.000443
0.000370
0.000220
0.000246
0.000223
0.000252
0.000265
0.000256
0.001858
0.000235
0.000242
0.002119
0.000489
0.000353
0.000249
0.000252
0.000268
0.000187
0.000056
0.000219
0.000244
0.000241
0.000246
0.000255
0.001620
0.000252
0.000228
0.000254
0.000256
0.000247
0.000265
0.000224
0.000254
0.000301
0.000385
0.000631
0.000268
0.000220
0.000270
0.000262
0.000251
0.000245
0.000425
0.000444
0.000283
0.000282
0.000681
0.000357
0.000278
0.000192
0.000056
0.000196
0.000248
0.000249
0.000247
0.000239
0.000240
0.000262
0.000328
0.000477
0.001726
0.000214
0.000243
0.000238
0.000245
0.000260
0.000320
0.000379
0.000496
0.000345
0.000236
0.000275
0.000275
0.000285
0.000266
0.000264
0.000437
0.000339
0.000689
0.000418
0.000414
0.000176
0.000056
0.000193
0.000267
0.000237
0.000221
0.000243
0.000239
0.000246
0.000252
0.000241
0.000291
0.000337
0.000414
0.001411
0.000253
0.000229
0.000248
0.000259
0.000251
0.000248
0.000247
0.000279
0.000504
0.000375
0.000255
0.000280
0.000245
0.000256
0.000273
0.000261
0.000262
0.000380
0.000056
0.000218
0.000236
0.000226
0.000268
0.000592
0.000390
0.000222
0.000260
0.000235
0.000258
0.000256
0.000232
0.000297
0.000249
0.000239
0.000536
0.000478
0.001531
0.000279
0.000228
0.000266
0.000258
0.000261
0.000239
0.000277
0.000483
0.000457
0.000335
0.000383
0.000243
0.000193
0.000057
0.000197
0.000433
0.000235
0.000217
0.000263
0.000243
0.000395
0.000520
0.000261
0.000342
0.000219
0.000271
0.000271
0.000233
0.000516
0.000344
0.000222
0.000254
0.000527
0.001522
0.000273
0.000278
0.000479
0.000239
0.000282
0.000277
0.000257
0.000337
0.000570
0.000371
0.000254
0.000056
0.000209
0.000231
0.000237
0.000248
0.000410
0.000309
0.000291
0.000227
0.000417
0.000436
0.000379
0.000273
0.000241
0.000233
0.000260
0.000267
0.000251
0.000257
0.000223
0.000357
0.000291
0.000315
0.001860
0.000246
0.000259
0.000256
0.000284
0.000346
0.000411
0.000813
0.000315
0.000072
0.000223
0.000327
0.000282
0.000425
0.000396
0.000208
0.000255
0.000385
0.000459
0.000436
0.000208
0.000228
0.000244
0.000271
0.000261
0.000233
0.000259
0.000271
0.000265
0.000258
0.000278
0.000465
0.000690
0.001246
0.000319
0.000439
0.000417
0.000256
0.000383
0.000521
0.000277
0.000055
0.000253
0.000381
0.000273
0.000212
0.000224
0.000243
0.000419
0.000240
0.000316
0.000286
0.000440
0.000440
0.000229
0.000258
0.000263
0.000245
0.000359
0.000384
0.000358
0.000245
0.000240
0.000552
0.000510
0.001635
0.000230
0.000458
0.000285
0.000232
0.000349
0.000387
0.000248
0.000056
0.000234
0.000227
0.000246
0.000246
0.000251
0.000248
0.000248
0.000321
0.000465
0.000353
0.000346
0.000389
0.000291
0.000573
0.000249
0.000247
0.000269
0.000264
0.000230
0.000350
0.000228
0.000249
0.000274
0.000462
0.000540
0.001552
0.000269
0.000235
0.000261
0.000259
0.000182
0.000055
0.000265
0.000563
0.000255
0.000219
0.000243
0.000250
0.000258
0.000244
0.000258
0.000249
0.000224
0.000245
0.000427
0.000528
0.000417
0.000242
0.000259
0.000251
0.000342
0.000382
0.000383
0.000365
0.000386
0.000329
0.000253
0.000261
0.000260
0.000275
0.001789
0.000252
0.000205
0.000055
0.000191
0.000228
0.000255
0.000272
0.000361
0.000542
0.000308
0.000218
0.000275
0.000245
0.000249
0.000249
0.000522
0.000450
0.000473
0.000284
0.000263
0.000266
0.000416
0.000466
0.000361
0.000429
0.000589
0.000320
0.000232
0.000248
0.000277
0.000246
0.000261
0.001712
0.000344
0.000055
0.000265
0.000328
0.000209
0.000232
0.000262
0.000245
0.000233
0.000504
0.000372
0.000307
0.000301
0.000277
0.000403
0.000633
0.000292
0.000239
0.000248
0.000252
0.000253
0.000264
0.000272
0.000261
0.000244
0.000264
0.000351
0.000319
0.000437
0.000333
0.000229
0.000260
0.000186
0.000057
0.000501
0.000218
0.000487
0.000255
0.000206
0.000249
0.000244
0.000253
0.000237
0.000226
0.000248
0.000283
0.000291
0.000521
0.000382
0.000455
0.000321
0.000312
0.000388
0.000338
0.000293
0.000247
0.000250
0.000255
0.001742
0.000267
0.001731
0.000922
0.000477
0.000247
0.000166
0.000056
0.000208
0.000235
0.000232
0.000244
0.000259
0.000248
0.000253
0.000249
0.000267
0.000265
0.000371
0.000490
0.000303
0.000373
0.000252
0.000250
0.000252
0.000294
0.000227
0.000251
0.000258
0.000251
0.001804
0.000245
0.000259
0.000262
0.000276
0.000272
0.001889
0.000500
0.000256
0.000056
0.000230
0.000206
0.000255
0.000227
0.000258
0.000242
0.000247
0.000249
0.000255
0.000477
0.000503
0.000452
0.000237
0.000209
0.000230
0.000257
0.000326
0.000439
0.000372
0.000257
0.001762
0.000272
0.000242
0.000246
0.000261
0.000269
0.000242
0.000257
0.000322
0.000349
0.000396
0.000057
0.000242
0.000224
0.000232
0.000261
0.000246
0.000245
0.000252
0.000259
0.000238
0.000258
0.000243
0.000270
0.000377
0.000410
0.000325
0.000276
0.000466
0.000250
0.000239
0.000254
0.000263
0.000260
0.000270
0.000261
0.000276
0.001789
0.000250
0.000247
0.000259
0.000238
0.000201
0.000056
0.000327
0.000230
0.000220
0.000223
0.000254
0.000221
0.000239
0.000253
0.000249
0.000226
0.000236
0.000262
0.000252
0.000420
0.000353
0.000388
0.000259
0.000250
0.000236
0.000256
0.000268
0.000259
0.000250
0.000269
0.000244
0.000270
0.000360
0.001570
0.000282
0.000237
0.000181
0.000056
0.000206
0.000239
0.000251
0.000264
0.000335
0.000565
0.000223
0.000291
0.000226
0.000259
0.000248
0.000244
0.000247
0.000252
0.000263
0.000259
0.000242
0.000260
0.000250
0.000275
0.000259
0.000265
0.000251
0.000239
0.000239
0.000279
0.000272
0.000267
0.000250
0.000267
0.000196
0.000056
0.000188
0.000234
0.000256
0.000278
0.000215
0.000254
0.000241
0.000263
0.000298
0.000218
0.000231
0.000249
0.000249
0.000255
0.000268
0.000263
0.000254
0.000255
0.000292
0.000253
0.000280
0.000290
0.000271
0.000248
0.000275
0.000281
0.000267
0.000250
0.000292
0.000445
0.000630
0.000057
0.000198
0.000289
0.000217
0.000241
0.000234
0.000254
0.000238
0.000249
0.000255
0.000238
0.000271
0.000334
0.000515
0.000462
0.001480
0.000235
0.000488
0.000238
0.000261
0.000514
0.000450
0.000307
0.000223
0.000276
0.000249
0.000267
0.000275
0.000253
0.000313
0.000254
0.000190
0.000055
0.000250
0.000528
0.000327
0.000329
0.000205
0.000260
0.000246
0.000238
0.000241
0.000238
0.000260
0.000253
0.000229
0.000308
0.000342
0.000565
0.000302
0.001792
0.000245
0.000248
0.000349
0.000433
0.000442
0.000292
0.000302
0.000322
0.000304
0.000237
0.000223
0.000250
0.000191
0.000056
0.000193
0.000227
0.000236
0.000284
0.000358
0.000563
0.000229
0.000256
0.000253
0.000214
0.000250
0.000265
0.000265
0.000265
0.000250
0.000256
0.000299
0.000494
0.000353
0.000423
0.000251
0.001732
0.000326
0.000516
0.000473
0.000481
0.000320
0.000230
0.000252
0.000271
0.000443
0.000056
0.000203
0.000258
0.000232
0.000378
0.000412
0.000436
0.000330
0.000210
0.000249
0.000275
0.000253
0.000253
0.000257
0.000305
0.000301
0.000238
0.000287
0.000291
0.000554
0.000306
0.000482
0.001837
0.000257
0.000486
0.000452
0.000362
0.000235
0.000254
0.000290
0.000269
0.000194
0.000056
0.000207
0.000339
0.000360
0.000311
0.000404
0.000331
0.000343
0.000209
0.000244
0.000279
0.000254
0.000231
0.000248
0.000262
0.000240
0.000260
0.000310
0.000375
0.000542
0.000348
0.000289
0.000250
0.000243
0.001706
0.000409
0.000542
0.000668
0.000254
0.000256
0.000323
0.000137
0.000056
0.000197
0.000233
0.000325
0.000255
0.000313
0.000471
0.000288
0.000294
0.000241
0.000541
0.000225
0.000239
0.000258
0.000275
0.000273
0.000271
0.000201
0.000480
0.000334
0.000455
0.000255
0.000238
0.000258
0.000248
0.000261
0.000273
0.000238
0.000250
0.000267
0.000286
0.000224
0.000057
0.000340
0.000296
0.000243
0.000246
0.000251
0.000256
0.000241
0.000311
0.000223
0.000244
0.000256
0.000353
0.000441
0.000360
0.000368
0.000275
0.000224
0.000234
0.000262
0.000264
0.000297
0.000254
0.000234
0.000257
0.000280
0.000280
0.000562
0.000266
0.000351
0.000228
0.000180
0.000056
0.000203
0.000228
0.000281
0.000263
0.000227
0.000242
0.000257
0.000257
0.000495
0.000205
0.000267
0.000248
0.000247
0.000268
0.000272
0.000270
0.000265
0.000344
0.000223
0.000252
0.000250
0.000268
0.000254
0.000270
0.000275
0.000281
0.000247
0.000251
0.000517
0.000244
0.000157
0.000055
0.000206
0.000246
0.000240
0.000267
0.000221
0.000245
0.000363
0.000408
0.000241
0.000234
0.000250
0.000257
0.000234
0.000292
0.000497
0.001691
0.000239
0.000265
0.000284
0.000385
0.000368
0.000359
0.000548
0.000281
0.000304
0.000416
0.000251
0.000263
0.000269
0.000277
0.001389
0.000055
0.000412
0.000275
0.000247
0.000217
0.000237
0.000256
0.000235
0.000249
0.000242
0.000270
0.000249
0.000255
0.000255
0.000250
0.000591
0.001620
0.000240
0.000233
0.000244
0.000265
0.000237
0.000261
0.000455
0.000345
0.000267
0.000331
0.000222
0.000269
0.000276
0.000266
0.000195
0.000055
0.001242
0.000629
0.000206
0.000265
0.000239
0.000225
0.000234
0.000241
0.000489
0.000214
0.000247
0.000249
0.000331
0.000557
0.000411
0.000363
0.000194
0.000229
0.000341
0.000353
0.000270
0.000254
0.000270
0.000249
0.000263
0.000574
0.000528
0.000296
0.000253
0.000263
0.000173
0.000056
0.000221
0.000206
0.000245
0.000247
0.001491
0.000273
0.000226
0.000255
0.000236
0.000255
0.000251
0.000252
0.000240
0.000266
0.000267
0.000330
0.000474
0.000576
0.000259
0.001747
0.000273
0.000262
0.000296
0.000444
0.000581
0.000355
0.000258
0.000253
0.000257
0.000264
0.000204
0.000057
0.000205
0.000245
0.000242
0.000383
0.001188
0.000227
0.000258
0.000262
0.000248
0.000230
0.000239
0.000248
0.000277
0.000251
0.000251
0.000306
0.000428
0.000455
0.000295
0.000270
0.000275
0.000267
0.000249
0.000229
0.000292
0.000264
0.000244
0.000279
0.000272
0.000298
0.000650
0.000057
0.000214
0.000277
0.000214
0.000261
0.000261
0.000239
0.000236
0.000263
0.000270
0.000257
0.001423
0.000223
0.000250
0.000254
0.000241
0.000244
0.000267
0.000266
0.000261
0.000268
0.000274
0.000478
0.000536
0.000308
0.000237
0.000273
0.001756
0.000258
0.000256
0.000364
0.000386
0.000057
0.000222
0.000395
0.000437
0.000506
0.000511
0.000536
0.001510
0.000405
0.000524
0.000657
0.000555
0.000738
0.000471
0.000606
0.000586
0.001970
0.000317
0.000438
0.000397
0.000320
0.000222
0.000320
0.000233
0.000268
0.000257
0.000296
0.000292
0.000286
0.000259
0.000286
0.001379
0.000056
0.000212
0.000222
0.000247
0.000237
0.000262
0.000251
0.000234
0.000244
0.000251
0.000248
0.000241
0.000239
0.000256
0.000251
0.000273
0.000271
0.001797
0.000297
0.000229
0.000254
0.000260
0.000255
0.000270
0.000263
0.000493
0.000348
0.000345
0.000230
0.000271
0.000280
0.000206
0.000055
0.000204
0.001351
0.000337
0.000256
0.000260
0.000235
0.000247
0.000231
0.000239
0.000245
0.000215
0.000248
0.000241
0.000511
0.000362
0.000280
0.000261
0.000283
0.001928
0.000210
0.000242
0.000266
0.000262
0.000263
0.000270
0.000285
0.000269
0.000248
0.000270
0.000315
0.000200
0.000056
0.000206
0.000244
0.000250
0.001438
0.000215
0.000276
0.000227
0.000245
0.000235
0.000272
0.000245
0.000249
0.000248
0.000257
0.000256
0.000261
0.000260
0.000267
0.000267
0.000269
0.000243
0.001769
0.000281
0.001749
0.000266
0.000255
0.000273
0.000267
0.000277
0.000266
0.000204
0.000056
0.000220
0.000224
0.001339
0.000228
0.000292
0.000219
0.000255
0.000256
0.000242
0.000250
0.000248
0.000249
0.000264
0.000257
0.000264
0.000263
0.000257
0.000280
0.000294
0.000230
0.001881
0.000235
0.001825
0.000244
0.000267
0.000275
0.000229
0.000258
0.000247
0.000269
0.000198
0.000056
0.001412
0.000226
0.000251
0.000225
0.000239
0.000237
0.000370
0.000271
0.000252
0.000250
0.000253
0.000261
0.000266
0.000418
0.000303
0.000300
0.000239
0.000272
0.000261
0.000249
0.000266
0.000344
0.000223
0.000258
0.000269
0.000280
0.000272
0.000420
0.000566
0.000392
0.000161
0.000056
0.000216
0.000259
0.000249
0.000303
0.000374
0.000254
0.001716
0.000284
0.000278
0.000269
0.000250
0.000269
0.000268
0.000267
0.000294
0.000318
0.000325
0.000614
0.000351
0.000261
0.000292
0.000281
0.000264
0.000260
0.000334
0.000262
0.000262
0.000255
0.000251
0.000322
0.000455
0.000056
0.000225
0.000480
0.000266
0.000262
0.000243
0.000228
0.000228
0.000253
0.000256
0.000268
0.001507
0.000237
0.000209
0.000256
0.000240
0.000290
0.000258
0.000252
0.000262
0.000268
0.000275
0.000457
0.000501
0.000255
0.000271
0.000290
0.000264
0.000253
0.000246
0.000305
0.000166
0.000056
0.000192
0.000235
0.000274
0.000484
0.000364
0.000271
0.000223
0.000244
0.000254
0.000253
0.000226
0.000255
0.000261
0.000266
0.000243
0.000241
0.000431
0.001167
0.000249
0.000266
0.000254
0.000251
0.000352
0.000427
0.000249
0.000490
0.000408
0.000346
0.000375
0.000237
0.000189
0.000058
0.000204
0.000253
0.000260
0.000260
0.000260
0.000242
0.000374
0.000419
0.000367
0.000313
0.000351
0.000394
0.000392
0.000360
0.000253
0.000247
0.000238
0.000276
0.000403
0.000438
0.001272
0.000226
0.000268
0.000275
0.000233
0.000239
0.000269
0.000347
0.000418
0.000401
0.000251
0.000056
0.000183
0.000241
0.000254
0.000237
0.000248
0.000247
0.000238
0.000255
0.000318
0.000355
0.000442
0.000349
0.000251
0.000232
0.000250
0.000257
0.000244
0.000260
0.000273
0.000244
0.000440
0.000292
0.000374
0.000393
0.000307
0.000252
0.000271
0.000271
0.000247
0.000385
0.000109
0.000057
0.000280
0.000316
0.000457
0.000289
0.000424
0.000315
0.000249
0.000248
0.000249
0.000269
0.000257
0.000262
0.000233
0.000255
0.000238
0.000231
0.000301
0.000430
0.000354
0.000393
0.000212
0.000284
0.000245
0.000240
0.000268
0.000275
0.000271
0.000266
0.000276
0.000268
0.000396
0.000056
0.000331
0.000300
0.000233
0.000247
0.000245
0.000248
0.000249
0.000254
0.000261
0.000254
0.000252
0.000236
0.000411
0.000362
0.000434
0.000305
0.000239
0.000244
0.000255
0.000265
0.000254
0.000267
0.000262
0.000257
0.000277
0.000442
0.000275
0.000601
0.000417
0.000243
0.000183
0.000055
0.000375
0.000198
0.000233
0.000262
0.000236
0.000246
0.000239
0.000250
0.000256
0.000256
0.000227
0.000245
0.000262
0.000235
0.000236
0.000268
0.000254
0.000265
0.000271
0.000272
0.000251
0.000265
0.000258
0.000266
0.000264
0.000241
0.000262
0.000284
0.000245
0.000288
0.000191
0.000056
0.000188
0.000237
0.000244
0.000251
0.000229
0.000256
0.000261
0.000242
0.000257
0.000272
0.000231
0.000236
0.000265
0.000399
0.000250
0.000280
0.000257
0.000268
0.000253
0.000286
0.000268
0.000233
0.000249
0.000250
0.000270
0.000277
0.000251
0.000247
0.000276
0.000260
0.000198
0.000055
0.000210
0.000352
0.000367
0.000282
0.000294
0.000251
0.000279
0.000256
0.000216
0.000247
0.000250
0.000262
0.000253
0.000237
0.000255
0.000259
0.000274
0.000260
0.000249
0.000258
0.000272
0.000267
0.000280
0.000253
0.000276
0.000247
0.000259
0.000270
0.000270
0.000261
0.000192
0.000073
0.000190
0.000227
0.000266
0.000261
0.000488
0.000208
0.000213
0.000244
0.000362
0.000356
0.000505
0.000281
0.000225
0.000254
0.000268
0.000272
0.000234
0.000269
0.000261
0.000264
0.000288
0.000242
0.000259
0.000449
0.000363
0.000507
0.000265
0.000296
0.000262
0.000263
0.000184
0.000056
0.000215
0.000227
0.000245
0.000250
0.000400
0.000549
0.000343
0.000398
0.000191
0.000242
0.000253
0.000255
0.000248
0.000253
0.000257
0.000265
0.000286
0.000221
0.000604
0.000458
0.000263
0.000246
0.000258
0.000284
0.000284
0.000255
0.000262
0.000267
0.000271
0.000310
0.000301
0.000056
0.000273
0.000231
0.000241
0.000240
0.000251
0.000253
0.000230
0.000252
0.000238
0.000258
0.000252
0.000250
0.000243
0.000424
0.000638
0.000293
0.000252
0.000246
0.000261
0.000242
0.000266
0.000276
0.000518
0.000191
0.000261
0.000744
0.000288
0.000466
0.000256
0.000249
0.000179
0.000055
0.000189
0.000227
0.000245
0.000242
0.000256
0.000259
0.000354
0.000491
0.000499
0.000420
0.000200
0.000262
0.000276
0.000278
0.000259
0.000241
0.000238
0.000257
0.000261
0.000421
0.000294
0.000655
0.000389
0.000244
0.000347
0.000376
0.000488
0.000246
0.000264
0.000471
0.000395
0.000057
0.000266
0.000236
0.000437
0.000231
0.000222
0.000256
0.000258
0.000263
0.000229
0.000239
0.000269
0.000411
0.000401
0.000305
0.000233
0.000235
0.000268
0.000247
0.000262
0.000276
0.000274
0.000256
0.000250
0.000276
0.000317
0.000453
0.000505
0.000231
0.000268
0.000272
0.000183
0.000056
0.000223
0.000256
0.000232
0.000240
0.000246
0.000260
0.000401
0.000403
0.000394
0.000279
0.000368
0.000245
0.000230
0.000265
0.000255
0.000237
0.000261
0.000256
0.000302
0.000352
0.000490
0.000357
0.000478
0.000273
0.000384
0.000427
0.000381
0.000246
0.000255
0.000344
0.000275
0.000057
0.000301
0.000210
0.000216
0.000270
0.000249
0.000254
0.000249
0.000248
0.000249
0.000261
0.000242
0.000393
0.000405
0.000377
0.000382
0.000220
0.000266
0.000267
0.000267
0.000233
0.000252
0.000255
0.000267
0.000270
0.000278
0.000341
0.000472
0.000485
0.000238
0.000277
0.000190
0.000056
0.000210
0.000238
0.000265
0.000240
0.000260
0.000335
0.000691
0.000284
0.000362
0.000684
0.000263
0.000215
0.000241
0.000264
0.000246
0.000264
0.000281
0.000296
0.000456
0.000429
0.001499
0.000307
0.000263
0.000260
0.000291
0.000271
0.000381
0.000410
0.000357
0.000335
0.000164
0.000056
0.000211
0.000236
0.000248
0.000246
0.000241
0.000256
0.000273
0.000253
0.000244
0.000333
0.000327
0.000388
0.000268
0.000334
0.000392
0.000345
0.000254
0.000242
0.000269
0.000254
0.000248
0.000253
0.000282
0.000249
0.000317
0.000452
0.000416
0.000298
0.000244
0.000271
0.000197
0.000056
0.000225
0.000251
0.000254
0.000259
0.000244
0.000231
0.000469
0.000213
0.000237
0.000251
0.000241
0.000257
0.000256
0.000265
0.000242
0.000268
0.000258
0.000269
0.000274
0.000256
0.000259
0.000287
0.000288
0.000254
0.000261
0.000279
0.000268
0.000268
0.000265
0.000269
0.000165
0.000055
0.000237
0.000256
0.000259
0.000462
0.000358
0.000251
0.000236
0.000245
0.000261
0.000251
0.000245
0.000257
0.000262
0.000264
0.000238
0.000246
0.000247
0.000270
0.000262
0.000420
0.000456
0.000322
0.000229
0.000270
0.000259
0.000253
0.000265
0.000249
0.000275
0.000276
0.000201
0.000056
0.000463
0.000350
0.000396
0.000201
0.000252
0.000261
0.000413
0.000214
0.000235
0.000253
0.000255
0.000293
0.000410
0.000385
0.001861
0.000261
0.000238
0.000248
0.000281
0.000237
0.000423
0.000420
0.000596
0.000258
0.000231
0.000263
0.000271
0.000429
0.000277
0.000280
0.000164
0.000055
0.000251
0.000338
0.000426
0.000244
0.000494
0.000200
0.000254
0.000253
0.000239
0.000236
0.000260
0.000247
0.000306
0.000326
0.000418
0.000415
0.000218
0.000253
0.000259
0.000257
0.000262
0.000323
0.000221
0.000289
0.000278
0.000482
0.000534
0.000366
0.000437
0.000237
0.000195
0.000056
0.000193
0.000238
0.000260
0.000246
0.000230
0.000249
0.000268
0.000271
0.000357
0.000328
0.000467
0.000352
0.000221
0.000254
0.000263
0.000279
0.000309
0.000237
0.000275
0.000270
0.000237
0.000396
0.000506
0.000249
0.000284
0.000248
0.000269
0.000439
0.000406
0.000336
0.000159
0.000056
0.000189
0.000253
0.000324
0.000468
0.000331
0.000206
0.000243
0.000251
0.000257
0.000253
0.000262
0.000258
0.000249
0.000238
0.000258
0.000399
0.000306
0.000349
0.000334
0.000295
0.000497
0.000226
0.000278
0.000273
0.000316
0.000273
0.000254
0.000286
0.000507
0.000431
0.000215
0.000056
0.000188
0.000228
0.000252
0.000247
0.000241
0.000487
0.000220
0.000243
0.000265
0.000395
0.000427
0.000585
0.000215
0.000239
0.000244
0.000253
0.000256
0.000244
0.000264
0.000246
0.000259
0.000270
0.000370
0.000454
0.000311
0.000417
0.000290
0.000304
0.000318
0.000253
0.000175
0.000055
0.000194
0.000232
0.000267
0.000522
0.000298
0.000264
0.000271
0.000218
0.000248
0.000254
0.000256
0.000246
0.000255
0.000254
0.000261
0.000275
0.000230
0.000244
0.000270
0.000441
0.000415
0.000427
0.000227
0.000254
0.000279
0.000270
0.000263
0.000254
0.000265
0.000274
0.000192
0.000056
0.000237
0.000412
0.000444
0.000258
0.000211
0.000249
0.000327
0.000450
0.000286
0.000213
0.000243
0.000254
0.000255
0.000587
0.000300
0.000316
0.000207
0.000235
0.000253
0.000285
0.000255
0.000257
0.000265
0.000274
0.000273
0.000323
0.000347
0.000495
0.000241
0.000250
0.000181
0.000057
0.000205
0.000240
0.000245
0.000259
0.000250
0.000265
0.000228
0.000259
0.000247
0.000249
0.000266
0.000236
0.000261
0.001457
0.000225
0.000256
0.000259
0.000251
0.000269
0.000283
0.000259
0.000244
0.000274
0.000258
0.000267
0.000279
0.000256
0.000273
0.000260
0.000273
0.000189
0.000056
0.000219
0.000241
0.000238
0.000249
0.000235
0.000258
0.000246
0.000256
0.000229
0.000247
0.000251
0.000262
0.000258
0.000249
0.000255
0.000261
0.000241
0.000279
0.000260
0.000254
0.000253
0.000266
0.000254
0.000241
0.001283
0.000294
0.000649
0.000392
0.000289
0.000243
0.000194
0.000056
0.000206
0.000233
0.000246
0.000249
0.000421
0.000229
0.000245
0.000239
0.000252
0.000411
0.000431
0.000305
0.000234
0.000246
0.000257
0.000264
0.000251
0.000266
0.000245
0.000261
0.000261
0.000257
0.000270
0.000472
0.000486
0.000421
0.000220
0.000261
0.001376
0.000240
0.000180
0.000057
0.000341
0.000442
0.000295
0.000261
0.000230
0.000245
0.000216
0.000254
0.000261
0.000253
0.000251
0.000257
0.000272
0.000305
0.000518
0.000397
0.000323
0.000230
0.000252
0.000257
0.000265
0.000263
0.000269
0.000263
0.000276
0.000263
0.000278
0.000593
0.000360
0.000399
0.000140
0.000057
0.000205
0.000235
0.001259
0.000426
0.000266
0.000518
0.000367
0.000474
0.000268
0.000340
0.000231
0.000228
0.000260
0.000252
0.000249
0.000268
0.000388
0.000435
0.000448
0.000329
0.000255
0.000251
0.000257
0.000501
0.000241
0.000262
0.000255
0.000278
0.000334
0.000578
0.000249
0.000057
0.000385
0.000306
0.000235
0.000224
0.001569
0.000493
0.000315
0.000199
0.000245
0.000249
0.000227
0.000242
0.000245
0.000269
0.000250
0.000256
0.000242
0.000286
0.000436
0.000363
0.000429
0.000243
0.000259
0.000250
0.000257
0.000277
0.000273
0.000234
0.000268
0.000278
0.000193
0.000056
0.000393
0.000341
0.000228
0.000234
0.000245
0.000244
0.000250
0.000248
0.000228
0.000229
0.001431
0.000524
0.000201
0.000229
0.000243
0.000264
0.000266
0.000263
0.000240
0.000275
0.000270
0.000250
0.000257
0.000473
0.000333
0.000483
0.000233
0.000281
0.000265
0.000281
0.000177
0.000057
0.000218
0.000413
0.000223
0.000263
0.000346
0.000416
0.000403
0.000283
0.000469
0.000197
0.000234
0.000258
0.000256
0.000263
0.000263
0.001533
0.000236
0.000287
0.000241
0.000273
0.000274
0.000255
0.000255
0.000259
0.000260
0.000268
0.000463
0.000452
0.000278
0.000268
0.000159
0.000055
0.000203
0.000231
0.000253
0.000235
0.000232
0.000259
0.000236
0.000250
0.000309
0.000339
0.000462
0.000266
0.000254
0.000246
0.000241
0.000292
0.000253
0.000262
0.000275
0.000229
0.000252
0.000301
0.001275
0.000258
0.000249
0.000262
0.000246
0.000269
0.000257
0.000263
0.000181
0.000056
0.000217
0.000379
0.000388
0.000308
0.000243
0.000240
0.000254
0.000262
0.000258
0.000252
0.000254
0.000266
0.000240
0.000262
0.000252
0.000262
0.000267
0.000272
0.000262
0.000246
0.000253
0.000270
0.000267
0.000287
0.000286
0.000270
0.000258
0.000262
0.000264
0.000441
0.001364
0.000055
0.000198
0.000234
0.000244
0.000261
0.000234
0.000258
0.000243
0.000230
0.000248
0.000251
0.000272
0.000253
0.000254
0.000242
0.000251
0.000248
0.001728
0.000251
0.000243
0.000261
0.000249
0.000257
0.000274
0.000254
0.000276
0.000255
0.000271
0.000280
0.000266
0.000260
0.000221
0.000056
0.000303
0.000277
0.001315
0.000225
0.000232
0.000250
0.000257
0.000267
0.000244
0.000255
0.000234
0.000336
0.000445
0.000416
0.000274
0.000216
0.000247
0.000258
0.000253
0.000269
0.000240
0.000297
0.000240
0.000285
0.000269
0.000419
0.000335
0.000377
0.000309
0.000240
0.000186
0.000055
0.000210
0.000247
0.000245
0.000264
0.000232
0.000228
0.000243
0.000345
0.000327
0.001342
0.000259
0.000208
0.000257
0.000267
0.000270
0.000253
0.000263
0.000246
0.000300
0.000528
0.000291
0.000248
0.000246
0.000246
0.000278
0.000281
0.000262
0.000296
0.000286
0.000264
0.000187
0.000055
0.000271
0.000418
0.000370
0.000228
0.000228
0.000234
0.000245
0.000274
0.000267
0.000247
0.000228
0.000274
0.000426
0.000548
0.000437
0.001453
0.000244
0.000264
0.000332
0.000353
0.000500
0.000394
0.000469
0.000397
0.000238
0.000264
0.000283
0.000258
0.000263
0.000275
0.000198
0.000055
0.000231
0.000272
0.000532
0.000333
0.000395
0.000257
0.000232
0.000230
0.000252
0.000254
0.000251
0.000268
0.000257
0.000266
0.000244
0.000302
0.000385
0.000428
0.000339
0.001322
0.000270
0.000257
0.000249
0.000272
0.000449
0.000453
0.000389
0.000230
0.000282
0.000270
0.000189
0.000056
0.000204
0.000244
0.000244
0.000247
0.000247
0.000286
0.000598
0.000235
0.000361
0.000224
0.000242
0.000259
0.000274
0.000259
0.000259
0.000263
0.000263
0.000269
0.000255
0.000297
0.000460
0.000423
0.000313
0.001348
0.000407
0.000241
0.000274
0.000403
0.000482
0.000323
0.000309
0.000057
0.000200
0.000235
0.000243
0.000253
0.000256
0.000247
0.001672
0.000245
0.000226
0.000240
0.000253
0.000245
0.000253
0.000326
0.000327
0.000286
0.000286
0.000302
0.000544
0.000352
0.000313
0.000273
0.000237
0.000252
0.001495
0.000372
0.000387
0.000489
0.000300
0.000293
0.000167
0.000056
0.000194
0.000251
0.000254
0.000255
0.000244
0.000260
0.001706
0.000226
0.000259
0.000258
0.000330
0.000407
0.001437
0.000366
0.000398
0.000251
0.000249
0.000231
0.000269
0.000273
0.001575
0.000526
0.000406
0.000276
0.000241
0.000251
0.000261
0.000286
0.000246
0.000247
0.000194
0.000056
0.000187
0.000246
0.000269
0.000246
0.000260
0.000275
0.000282
0.000253
0.000258
0.000250
0.000249
0.000251
0.000262
0.000290
0.000236
0.001483
0.000297
0.000226
0.000261
0.000277
0.000270
0.000257
0.000426
0.001272
0.000276
0.000236
0.000271
0.000276
0.000370
0.000256
0.000195
0.000055
0.000213
0.000254
0.000227
0.000240
0.000242
0.000226
0.000237
0.001694
0.000252
0.000265
0.000214
0.000376
0.000218
0.000230
0.000253
0.001381
0.000236
0.000268
0.000264
0.000246
0.000260
0.000353
0.000272
0.001309
0.000286
0.000250
0.000251
0.000287
0.001364
0.000281
0.000221
0.000055
0.000249
0.000329
0.000210
0.000245
0.000257
0.000230
0.000269
0.000267
0.000264
0.000250
0.000260
0.000267
0.000249
0.000252
0.000343
0.001456
0.000269
0.000257
0.000247
0.000249
0.000283
0.000263
0.000249
0.001519
0.000364
0.000213
0.000264
0.001271
0.000269
0.000250
0.000245
0.000056
0.000222
0.000408
0.000308
0.000221
0.000237
0.000234
0.000264
0.000259
0.000267
0.000272
0.000234
0.000251
0.000261
0.000296
0.000394
0.001263
0.000198
0.000237
0.000267
0.000280
0.000232
0.000239
0.000247
0.000334
0.001264
0.000265
0.000250
0.000250
0.001352
0.000350
0.000210
0.000056
0.000222
0.000270
0.000227
0.000229
0.000242
0.000254
0.000243
0.000249
0.000273
0.000256
0.000254
0.000235
0.000249
0.000308
0.001685
0.000264
0.000185
0.000246
0.000294
0.000530
0.000289
0.000372
0.001344
0.000309
0.000235
0.000267
0.000265
0.001283
0.000332
0.000489
0.000385
0.000057
0.000229
0.000250
0.000257
0.000252
0.000255
0.000251
0.000275
0.000250
0.000263
0.000261
0.000284
0.000507
0.001353
0.000211
0.000266
0.000258
0.000280
0.000225
0.000246
0.000242
0.000356
0.001227
0.000250
0.000250
0.000256
0.000251
0.001570
0.000360
0.000484
0.000229
0.000184
0.000056
0.000207
0.000232
0.000250
0.000230
0.000244
0.000264
0.000231
0.000327
0.000364
0.000489
0.000269
0.001490
0.000209
0.000248
0.000266
0.000255
0.000259
0.000470
0.001511
0.000251
0.000394
0.000331
0.001388
0.000278
0.000299
0.000310
0.000255
0.000262
0.000264
0.000265
0.000196
0.000055
0.000197
0.000242
0.000329
0.000239
0.000397
0.000490
0.000256
0.000305
0.001463
0.000234
0.000390
0.000262
0.000236
0.000331
0.000368
0.001304
0.000266
0.000245
0.000237
0.000257
0.001554
0.000348
0.000293
0.000276
0.000260
0.000247
0.000451
0.000366
0.000224
0.000244
0.000246
0.000057
0.000261
0.000341
0.000347
0.000259
0.000214
0.001529
0.000213
0.000260
0.000263
0.000267
0.000270
0.000241
0.000296
0.001494
0.000258
0.000224
0.000429
0.001199
0.000440
0.000351
0.000392
0.000234
0.000243
0.000253
0.000277
0.000245
0.000453
0.000233
0.000262
0.000269
0.000210
0.000056
0.000197
0.000283
0.000333
0.000386
0.001273
0.000298
0.000295
0.000232
0.000244
0.000245
0.000256
0.000327
0.001479
0.000256
0.000235
0.000249
0.001386
0.000380
0.000354
0.000521
0.000252
0.000243
0.000239
0.000258
0.000262
0.000290
0.000257
0.000266
0.000266
0.000246
0.000195
0.000056
0.000247
0.000337
0.001467
0.000208
0.000273
0.000276
0.000243
0.000249
0.000259
0.000477
0.001307
0.000212
0.000253
0.000259
0.000278
0.001256
0.000711
0.000288
0.000311
0.000410
0.000294
0.000253
0.000268
0.000259
0.000273
0.000283
0.000274
0.000282
0.000489
0.000393
0.001373
0.000056
0.000204
0.000253
0.000245
0.000225
0.000377
0.000272
0.000525
0.001263
0.000250
0.000240
0.000246
0.001400
0.000462
0.000351
0.000204
0.000424
0.000233
0.000249
0.000264
0.000276
0.000244
0.000276
0.000276
0.000255
0.000261
0.000314
0.000397
0.000494
0.001487
0.000229
0.000185
0.000056
0.000199
0.000252
0.000338
0.000561
0.001231
0.000277
0.000254
0.000255
0.000245
0.000256
0.000250
0.000262
0.000360
0.000485
0.000350
0.000231
0.000259
0.000273
0.000248
0.000274
0.000267
0.000259
0.000259
0.000264
0.000258
0.000386
0.000555
0.000276
0.000317
0.001402
0.000172
0.000056
0.000194
0.000238
0.000250
0.000491
0.000318
0.000312
0.000318
0.000333
0.000268
0.000260
0.000258
0.000268
0.000250
0.000305
0.000233
0.000277
0.000592
0.000295
0.000303
0.000390
0.000268
0.000401
0.000234
0.000244
0.000266
0.000261
0.000252
0.000300
0.000489
0.000355
0.000292
0.000056
0.000209
0.001404
0.000227
0.000342
0.000407
0.000456
0.000338
0.000319
0.000216
0.000251
0.000262
0.000247
0.000261
0.000273
0.000261
0.000256
0.000256
0.001298
0.000332
0.000247
0.000254
0.000275
0.000270
0.000282
0.000273
0.000250
0.000278
0.000239
0.000381
0.000376
0.000279
0.000057
0.000219
0.000256
0.000225
0.001500
0.000320
0.000236
0.000234
0.000250
0.000227
0.000246
0.000256
0.000274
0.000249
0.000250
0.000266
0.000256
0.000249
0.000268
0.000269
0.000248
0.001435
0.000233
0.000242
0.000277
0.000257
0.000245
0.000271
0.000263
0.000274
0.000486
0.000352
0.000056
0.000189
0.000231
0.000397
0.000279
0.000249
0.000250
0.001543
0.000452
0.000183
0.000224
0.000252
0.000309
0.000345
0.000226
0.000229
0.000249
0.000244
0.000288
0.000238
0.000257
0.000484
0.000497
0.001131
0.000276
0.000232
0.000259
0.000267
0.000263
0.000269
0.000258
0.000404
0.000057
0.000252
0.000337
0.000203
0.000250
0.000241
0.000242
0.000243
0.000232
0.000289
0.001619
0.000385
0.000262
0.000235
0.000255
0.000257
0.000245
0.000256
0.000274
0.000265
0.000308
0.000334
0.000476
0.000455
0.001350
0.000230
0.000258
0.000281
0.000259
0.000264
0.000273
0.000583
0.000072
0.000171
0.000234
0.000242
0.000239
0.000223
0.000244
0.000262
0.000251
0.000267
0.001624
0.000299
0.000259
0.000261
0.000262
0.000465
0.000259
0.000521
0.000380
0.000302
0.000294
0.000478
0.000448
0.001281
0.000259
0.000242
0.000256
0.001729
0.000458
0.000583
0.000317
0.000146
0.000055
0.000201
0.000229
0.000238
0.000234
0.000259
0.000246
0.000240
0.000549
0.000552
0.000335
0.000277
0.000217
0.000240
0.000261
0.000288
0.000242
0.000245
0.000256
0.000255
0.000267
0.000257
0.000419
0.001368
0.000219
0.000253
0.001913
0.000253
0.000387
0.000375
0.000350
0.000154
0.000056
0.000221
0.000243
0.001509
0.000401
0.000317
0.000217
0.000238
0.000263
0.000250
0.000283
0.000378
0.000369
0.000364
0.000271
0.000301
0.000557
0.000399
0.001159
0.000272
0.000233
0.000251
0.000263
0.000270
0.000413
0.000697
0.000391
0.000231
0.000269
0.000271
0.000278
0.000192
0.000056
0.000210
0.000232
0.000239
0.001540
0.000264
0.000221
0.000241
0.000257
0.000245
0.000246
0.000257
0.000268
0.000277
0.000269
0.000313
0.000369
0.000473
0.000251
0.001391
0.000227
0.000271
0.000266
0.000250
0.000283
0.000373
0.000500
0.000421
0.000267
0.000273
0.000229
0.000453
0.000056
0.000198
0.000243
0.000246
0.001519
0.000325
0.000229
0.000263
0.000237
0.000262
0.000252
0.000254
0.000257
0.000260
0.000251
0.000561
0.000372
0.001360
0.000761
0.000255
0.000336
0.000262
0.000222
0.000246
0.000275
0.001676
0.000803
0.000239
0.000262
0.000275
0.000287
0.000186
0.000056
0.000198
0.000238
0.000250
0.000240
0.000277
0.000227
0.000243
0.000253
0.000244
0.000229
0.000294
0.000282
0.000249
0.000250
0.000261
0.000251
0.000269
0.001595
0.000712
0.000376
0.000308
0.000236
0.000246
0.000280
0.000264
0.000265
0.000272
0.000255
0.001416
0.000360
0.000323
0.000055
0.000200
0.000229
0.000249
0.000253
0.000261
0.000230
0.000254
0.000252
0.000250
0.000264
0.000284
0.000463
0.000386
0.000341
0.000205
0.000248
0.000266
0.001391
0.000707
0.000539
0.000250
0.000279
0.000225
0.000255
0.000273
0.000249
0.000275
0.000253
0.001509
0.000401
0.000199
0.000055
0.000214
0.000231
0.000247
0.000246
0.000244
0.000254
0.000236
0.000250
0.000270
0.000265
0.000364
0.000373
0.000331
0.000221
0.000248
0.000243
0.000266
0.000257
0.001587
0.000611
0.000458
0.000325
0.000229
0.000262
0.000249
0.000266
0.000271
0.000290
0.000255
0.001451
0.000227
0.000056
0.000226
0.000217
0.000233
0.000260
0.000253
0.000240
0.000267
0.000292
0.000365
0.000496
0.000332
0.000362
0.000369
0.000221
0.000249
0.000246
0.000275
0.000261
0.000265
0.001934
0.000320
0.000236
0.000444
0.000248
0.000247
0.000263
0.000272
0.000258
0.000271
0.000276
0.000495
0.000056
0.000323
0.000197
0.000234
0.000242
0.000270
0.000232
0.000227
0.000238
0.000268
0.000252
0.000247
0.000237
0.000311
0.000492
0.000396
0.000442
0.000219
0.000265
0.000248
0.000257
0.000251
0.000287
0.001475
0.001055
0.000217
0.000251
0.000266
0.000271
0.000266
0.000254
0.000198
0.000055
0.000198
0.001332
0.000292
0.000206
0.000240
0.000254
0.000251
0.000237
0.000243
0.000251
0.000255
0.000263
0.000237
0.000420
0.000369
0.000442
0.000253
0.000249
0.000267
0.000265
0.000273
0.000228
0.000257
0.000267
0.001346
0.000663
0.000298
0.000386
0.000380
0.000397
0.000298
0.000055
0.000206
0.000244
0.000383
0.001300
0.000205
0.000258
0.000230
0.000259
0.000250
0.000261
0.000243
0.000257
0.000350
0.000445
0.000507
0.000181
0.000223
0.000292
0.000327
0.000209
0.000251
0.000272
0.000233
0.000272
0.000292
0.001510
0.000740
0.000303
0.000276
0.000277
0.000186
0.000056
0.000214
0.000250
0.000470
0.000419
0.001207
0.000253
0.000221
0.000246
0.000224
0.000253
0.000247
0.000258
0.000230
0.000257
0.000235
0.000258
0.000265
0.000235
0.000259
0.000254
0.000268
0.000268
0.000317
0.000315
0.000217
0.000267
0.000272
0.001454
0.000261
0.000244
0.000169
0.000056
0.000201
0.000235
0.000249
0.000260
0.000358
0.000377
0.000393
0.000270
0.001575
0.000252
0.000369
0.000428
0.000345
0.000219
0.000429
0.000242
0.000239
0.000260
0.000269
0.000268
0.000279
0.000266
0.000257
0.000271
0.000253
0.000446
0.000380
0.000297
0.001592
0.000226
0.000192
0.000056
0.000221
0.000260
0.000240
0.000246
0.000235
0.000248
0.000265
0.000276
0.000431
0.002043
0.000242
0.000241
0.000255
0.000254
0.000262
0.000256
0.000271
0.000254
0.000313
0.000382
0.000501
0.000324
0.001445
0.000247
0.000535
0.000232
0.001768
0.000239
0.000261
0.001522
0.000156
0.000056
0.000385
0.000422
0.000404
0.000246
0.000265
0.000221
0.000262
0.000265
0.000260
0.000231
0.000255
0.000339
0.000408
0.000375
0.000400
0.000250
0.000230
0.001564
0.000238
0.000643
0.001822
0.000279
0.000237
0.001538
0.002032
0.000738
0.000273
0.000262
0.000272
0.000499
0.000263
0.000055
0.000203
0.000254
0.000238
0.000250
0.001410
0.001736
0.001081
0.000202
0.000242
0.001570
0.001991
0.000201
0.000248
0.000425
0.000298
0.000351
0.000466
0.000444
0.000202
0.000246
0.000252
0.000257
0.000271
0.001588
0.001205
0.001429
0.000269
0.000308
0.000253
0.000346
0.000365
0.000057
0.000217
0.000238
0.000243
0.000235
0.000232
0.000243
0.000249
0.000250
0.000257
0.000251
0.000239
0.000289
0.000456
0.000471
0.000284
0.000253
0.000255
0.000266
0.000270
0.000264
0.000256
0.000261
0.001556
0.000442
0.002100
0.000242
0.000287
0.000276
0.000459
0.000395
0.000196
0.000056
0.000234
0.000304
0.000495
0.000320
0.000192
0.000237
0.000252
0.000241
0.000243
0.000243
0.000242
0.000270
0.000257
0.001603
0.001351
0.001236
0.000276
0.000245
0.000257
0.000247
0.000287
0.000277
0.000241
0.000255
0.002199
0.000252
0.000258
0.000291
0.000329
0.000304
0.000222
0.000056
0.000247
0.000336
0.000544
0.000337
0.000225
0.000238
0.000253
0.000280
0.001876
0.001424
0.000222
0.000334
0.000385
0.000409
0.000259
0.000227
0.000262
0.000260
0.000272
0.000258
0.000262
0.000268
0.000468
0.000235
0.000271
0.000280
0.000237
0.000278
0.000280
0.000247
0.000207
0.000056
0.000200
0.000247
0.000250
0.000239
0.000253
0.000268
0.001550
0.001409
0.001324
0.000250
0.000225
0.000257
0.000250
0.000264
0.000245
0.000252
0.000249
0.002100
0.000261
0.000227
0.000265
0.000259
0.000254
0.000276
0.000262
0.000262
0.000268
0.000257
0.000274
0.000252
0.000171
0.000056
0.000206
0.002687
0.001383
0.000221
0.000305
0.000301
0.000228
0.000267
0.000260
0.000242
0.000251
0.000253
0.000228
0.000250
0.000270
0.000256
0.000272
0.000261
0.000272
0.000251
0.000267
0.000283
0.000278
0.000259
0.000249
0.000249
0.000259
0.000267
0.000265
0.000270
0.000367
0.000055
0.001543
0.000254
0.001248
0.000221
0.000221
0.000243
0.000259
0.000250
0.000249
0.000297
0.000346
0.000426
0.000299
0.000207
0.000254
0.002151
0.000235
0.000267
0.000270
0.000550
0.000333
0.000280
0.000228
0.000258
0.000264
0.000249
0.000267
0.000278
0.000267
0.001630
0.001248
0.000056
0.000188
0.000236
0.000330
0.000382
0.000318
0.000305
0.000212
0.000227
0.000260
0.000253
0.000269
0.000246
0.000226
0.000251
0.000266
0.000249
0.000302
0.000629
0.000352
0.000254
0.000231
0.000266
0.000286
0.000251
0.000251
0.000251
0.000260
0.000277
0.000242
0.000302
0.000381
0.000055
0.001114
0.000249
0.000325
0.000484
0.000271
0.000223
0.000232
0.000241
0.000248
0.002404
0.000264
0.000388
0.000218
0.000378
0.000275
0.000266
0.000260
0.000261
0.000263
0.000229
0.000250
0.000265
0.000681
0.000376
0.001876
0.001306
0.000606
0.000463
0.000225
0.000288
0.000196
0.000055
0.000325
0.000239
0.000249
0.000247
0.000244
0.000229
0.000262
0.000252
0.000264
0.000238
0.000253
0.000224
0.000250
0.000260
0.000440
0.000469
0.001824
0.001339
0.000417
0.000464
0.000452
0.000239
0.000240
0.000266
0.002125
0.000572
0.000374
0.000236
0.000271
0.000279
0.000195
0.000056
0.000203
0.000245
0.000254
0.000264
0.000227
0.000471
0.000294
0.000330
0.000271
0.000242
0.000241
0.000249
0.000265
0.002132
0.000379
0.000350
0.000218
0.000252
0.000265
0.000264
0.002277
0.000495
0.000265
0.000231
0.000253
0.000256
0.000258
0.000266
0.000285
0.000278
0.000195
0.000055
0.000208
0.000390
0.000535
0.000336
0.000249
0.000218
0.000237
0.000250
0.000263
0.000256
0.002086
0.000257
0.000271
0.000269
0.000247
0.000266
0.000274
0.000236
0.002206
0.000456
0.000212
0.000267
0.000270
0.000263
0.000267
0.000239
0.000285
0.000249
0.000268
0.000273
0.000173
0.000055
0.000184
0.000257
0.000236
0.000231
0.000238
0.000258
0.000238
0.000242
0.000231
0.002182
0.000230
0.000274
0.000231
0.000419
0.000234
0.000253
0.000275
0.000282
0.000245
0.000265
0.001966
0.000277
0.000339
0.000363
0.000432
0.000425
0.000291
0.000249
0.000247
0.000266
0.000198
0.000055
0.000219
0.000247
0.000224
0.000248
0.000246
0.000328
0.000215
0.002302
0.000247
0.000236
0.000263
0.000258
0.000248
0.000241
0.000304
0.002124
0.000593
0.000213
0.000260
0.000244
0.000260
0.000261
0.000290
0.000266
0.000259
0.000253
0.000288
0.000255
0.000262
0.000266
0.000194
0.000070
0.001817
0.001438
0.000205
0.000224
0.000243
0.000256
0.000247
0.000298
0.000380
0.000354
0.002170
0.000260
0.000230
0.000270
0.000340
0.000493
0.000349
0.000306
0.000224
0.000251
0.000250
0.000263
0.000265
0.000228
0.000259
0.000264
0.000266
0.000270
0.000373
0.000690
0.000222
0.000056
0.000203
0.000252
0.000250
0.000254
0.000267
0.000246
0.000256
0.000256
0.001468
0.002120
0.000580
0.000276
0.000396
0.000710
0.000336
0.000243
0.000254
0.000249
0.000265
0.000257
0.000260
0.000240
0.000251
0.001833
0.000337
0.001385
0.000285
0.000278
0.000277
0.000286
0.000401
0.000056
0.001947
0.000222
0.000240
0.000224
0.000278
0.000400
0.000483
0.000284
0.000240
0.000215
0.000251
0.000247
0.000259
0.000252
0.000279
0.000244
0.000258
0.000262
0.001842
0.000240
0.000235
0.000257
0.000275
0.000273
0.000273
0.000256
0.001506
0.000291
0.000262
0.000249
0.000172
0.000056
0.000209
0.000227
0.000246
0.000263
0.000232
0.000239
0.000349
0.000322
0.000332
0.000384
0.000217
0.000244
0.000262
0.000327
0.000428
0.000316
0.000227
0.000243
0.000284
0.000340
0.000524
0.000381
0.000254
0.000268
0.000250
0.000259
0.000254
0.000271
0.000275
0.000263
0.000200
0.000056
0.001449
0.000440
0.000214
0.001939
0.000273
0.000483
0.000370
0.000319
0.000236
0.000239
0.000267
0.000243
0.000246
0.000251
0.000258
0.000263
0.000449
0.000292
0.000438
0.000314
0.000378
0.000232
0.000251
0.000267
0.000273
0.000269
0.000268
0.000265
0.000380
0.000420
0.001394
0.000055
0.000208
0.000222
0.002073
0.000354
0.000257
0.000261
0.000256
0.000249
0.000266
0.000259
0.000215
0.000251
0.000255
0.000262
0.000276
0.000363
0.000689
0.001760
0.000228
0.000248
0.000263
0.000258
0.000414
0.000456
0.001528
0.000285
0.000356
0.001935
0.000253
0.000258
0.000194
0.000056
0.000208
0.000243
0.000232
0.000248
0.000223
0.000248
0.000257
0.000290
0.000325
0.000274
0.000388
0.000348
0.000331
0.000306
0.000239
0.000267
0.000268
0.000239
0.000263
0.000253
0.000306
0.000286
0.000264
0.000265
0.000268
0.001502
0.000286
0.000395
0.002076
0.000222
0.000177
0.000056
0.000222
0.000236
0.000243
0.000237
0.000490
0.000208
0.000254
0.000436
0.000276
0.000306
0.000306
0.000204
0.000265
0.000259
0.000274
0.000316
0.000391
0.000466
0.000256
0.000402
0.000532
0.000514
0.001505
0.000235
0.000259
0.002067
0.000257
0.000238
0.000244
0.000291
0.000189
0.000056
0.000212
0.000235
0.000228
0.000246
0.000249
0.000266
0.000255
0.000271
0.000255
0.000254
0.001806
0.000336
0.000374
0.000317
0.000426
0.000385
0.000330
0.001505
0.000237
0.000277
0.002243
0.000489
0.000204
0.000244
0.000265
0.000266
0.000505
0.000222
0.000258
0.000278
0.000193
0.000056
0.000282
0.000409
0.000332
0.000277
0.000204
0.000248
0.000257
0.000254
0.000267
0.000289
0.000227
0.000251
0.000269
0.000245
0.000352
0.001505
0.000322
0.000201
0.000293
0.002027
0.000243
0.000284
0.000254
0.000260
0.000249
0.000280
0.000274
0.000252
0.000250
0.000269
0.000196
0.000057
0.000254
0.000438
0.001981
0.000257
0.000250
0.000217
0.000263
0.000336
0.000379
0.000445
0.001306
0.000371
0.002153
0.000283
0.000211
0.000247
0.000271
0.000271
0.000257
0.000236
0.000286
0.000293
0.000253
0.000510
0.000365
0.000347
0.000297
0.002236
0.000498
0.000517
0.000346
0.000057
0.000205
0.000231
0.000243
0.001972
0.000226
0.000225
0.000245
0.000242
0.000244
0.000261
0.000237
0.000266
0.000239
0.000304
0.000392
0.001509
0.000244
0.000262
0.000252
0.000253
0.000237
0.000259
0.000255
0.000347
0.000281
0.000441
0.000451
0.000254
0.001585
0.000278
0.000158
0.000056
0.000193
0.000224
0.000245
0.000236
0.000256
0.000248
0.000248
0.000257
0.000254
0.000392
0.000367
0.001392
0.000244
0.000216
0.000252
0.000259
0.000259
0.000254
0.000493
0.000347
0.000385
0.000406
0.000221
0.001582
0.000226
0.000264
0.000286
0.000278
0.000263
0.000261
0.000192
0.000056
0.000232
0.000214
0.000261
0.000268
0.000246
0.000252
0.000230
0.000243
0.000267
0.000234
0.000252
0.000259
0.000253
0.001482
0.000369
0.000213
0.000244
0.000267
0.000278
0.000308
0.000376
0.000272
0.000239
0.000268
0.000262
0.000263
0.000260
0.001406
0.000287
0.000228
0.000177
0.000055
0.000207
0.000233
0.000263
0.000259
0.000255
0.000237
0.000242
0.000265
0.000216
0.000269
0.000241
0.000260
0.000226
0.000330
0.000472
0.000259
0.000241
0.000243
0.001624
0.000248
0.000243
0.000257
0.000263
0.000294
0.000408
0.000346
0.000459
0.000261
0.000256
0.001603
0.000159
0.000057
0.000317
0.000339
0.000329
0.000330
0.000226
0.000222
0.000263
0.000256
0.000255
0.000236
0.000249
0.000239
0.001484
0.000317
0.000263
0.000224
0.000245
0.000265
0.000263
0.000266
0.000253
0.000231
0.000261
0.000274
0.000259
0.000347
0.000570
0.000294
0.000241
0.000255
0.000194
0.000056
0.000210
0.000245
0.000478
0.000352
0.000343
0.000255
0.000247
0.000250
0.000270
0.000239
0.000248
0.000222
0.000255
0.000241
0.001264
0.000309
0.000225
0.000251
0.000267
0.000265
0.000255
0.000253
0.000252
0.000260
0.000258
0.000251
0.000336
0.000670
0.000450
0.000232
0.000176
0.000056
0.000194
0.001570
0.000238
0.000373
0.000517
0.000285
0.000210
0.000262
0.000260
0.000254
0.000243
0.000257
0.000271
0.000271
0.000260
0.001527
0.000252
0.000284
0.000263
0.000258
0.000260
0.000251
0.000264
0.000263
0.000261
0.000298
0.000480
0.000299
0.000339
0.000243
0.000186
0.000056
0.000198
0.000251
0.000233
0.001661
0.000388
0.000332
0.000223
0.000243
0.000253
0.000269
0.000281
0.000252
0.000249
0.000262
0.000236
0.000301
0.000435
0.001256
0.000241
0.000238
0.001507
0.000287
0.000654
0.000332
0.000345
0.000228
0.000268
0.000459
0.000238
0.000267
0.000188
0.000057
0.000287
0.000228
0.000242
0.000247
0.000247
0.000255
0.000253
0.000240
0.000258
0.000256
0.000237
0.000258
0.000324
0.000522
0.001627
0.001495
0.000356
0.000544
0.000333
0.000224
0.000231
0.000260
0.000248
0.000267
0.000246
0.000265
0.000263
0.000281
0.001526
0.000316
0.000160
0.000055
0.000239
0.000338
0.000355
0.000329
0.000225
0.000237
0.000246
0.000386
0.000406
0.000380
0.002138
0.000341
0.000770
0.000427
0.000485
0.000234
0.000326
0.000401
0.000325
0.000277
0.000420
0.000217
0.001566
0.000523
0.000217
0.000268
0.000254
0.000256
0.000260
0.000271
0.000189
0.000072
0.000213
0.000254
0.000247
0.000260
0.000241
0.001658
0.000879
0.001002
0.000201
0.000242
0.000255
0.000260
0.000264
0.000260
0.000251
0.000249
0.000254
0.000265
0.000265
0.000282
0.001424
0.000317
0.000254
0.000229
0.000242
0.000256
0.000260
0.000283
0.000263
0.000287
0.001892
0.000056
0.000192
0.000230
0.001548
0.000928
0.000320
0.000343
0.000239
0.000235
0.000252
0.000255
0.000240
0.000254
0.000248
0.001976
0.000491
0.000212
0.000250
0.000257
0.000258
0.000262
0.000190
