0.000137
0.002480
0.019189
0.000328
0.000354
0.000304
0.000213
0.000246
0.000291
0.000272
0.000286
0.000322
0.000499
0.000475
0.000410
0.000359
0.000324
0.000325
0.000336
0.000395
0.000323
0.001918
0.000721
0.000246
0.000301
0.000291
0.000286
0.000290
0.000427
0.000393
0.000549
0.000254
0.000068
0.000260
0.000264
0.000268
0.000253
0.000263
0.000267
0.000263
0.000264
0.000275
0.000296
0.000458
0.000347
0.000312
0.000280
0.000398
0.000346
0.000339
0.000259
0.000255
0.001673
0.000318
0.000308
0.000441
0.000280
0.000287
0.000251
0.000259
0.000266
0.000292
0.000371
0.000447
0.000069
0.000261
0.000258
0.000250
0.000250
0.000298
0.000246
0.000245
0.000275
0.000261
0.001652
0.000257
0.000264
0.000270
0.000268
0.000269
0.000240
0.000243
0.000269
0.000321
0.001781
0.000273
0.000259
0.000494
0.000401
0.000378
0.000240
0.000404
0.000301
0.000556
0.000736
0.000185
0.000067
0.000234
0.000257
0.000243
0.000249
0.000239
0.000266
0.000283
0.000558
0.000394
0.000279
0.000250
0.000270
0.000232
0.000246
0.000255
0.000267
0.000202
0.000268
0.000303
0.000318
0.001670
0.000301
0.000264
0.000411
0.000299
0.000706
0.000672
0.000485
0.000355
0.000263
0.000175
0.000068
0.000230
0.000240
0.000284
0.000274
0.000248
0.000222
0.000277
0.000656
0.001241
0.000278
0.000235
0.000253
0.000251
0.000287
0.000275
0.000253
0.000297
0.001854
0.000314
0.000247
0.000249
0.000442
0.000249
0.000229
0.000249
0.000251
0.000270
0.000273
0.000264
0.000259
0.000187
0.000067
0.000228
0.000256
0.000244
0.000250
0.000242
0.000248
0.000238
0.000240
0.000269
0.000232
0.001581
0.000270
0.000243
0.000232
0.000261
0.000293
0.000258
0.000216
0.000245
0.000238
0.000285
0.001650
0.000290
0.000262
0.000435
0.000290
0.000250
0.000258
0.000275
0.000279
0.000137
0.000076
0.000220
0.000243
0.000241
0.000264
0.000246
0.000235
0.000247
0.000243
0.000263
0.000292
0.000220
0.000266
0.000259
0.000254
0.001625
0.000276
0.000295
0.000249
0.000254
0.000306
0.000258
0.000202
0.000272
0.000245
0.001770
0.000395
0.000451
0.000286
0.000268
0.000249
0.000155
0.000078
0.000223
0.000246
0.000263
0.000267
0.000259
0.000247
0.000253
0.000373
0.000425
0.000448
0.000261
0.000264
0.000246
0.000215
0.001524
0.000517
0.000345
0.000503
0.000262
0.000213
0.000274
0.000261
0.000273
0.001722
0.000513
0.000510
0.000233
0.000245
0.000246
0.000264
0.000148
0.000068
0.000244
0.000246
0.000257
0.000240
0.000348
0.000394
0.000388
0.000273
0.000270
0.000244
0.000230
0.000256
0.000237
0.001747
0.000439
0.000310
0.000254
0.000284
0.000288
0.000236
0.000237
0.000264
0.000263
0.001898
0.000256
0.000442
0.000219
0.000253
0.000272
0.000388
0.000314
0.000069
0.000280
0.000331
0.000374
0.000266
0.000251
0.000247
0.000254
0.000264
0.000241
0.000234
0.000247
0.000241
0.001521
0.000333
0.000329
0.000252
0.000255
0.000284
0.000258
0.000258
0.000265
0.000318
0.000265
0.001777
0.000279
0.000508
0.000262
0.000265
0.000262
0.000248
0.000207
0.000072
0.000418
0.000508
0.000610
0.000236
0.000234
0.000260
0.000260
0.000237
0.000212
0.000254
0.000258
0.001686
0.000266
0.000438
0.000352
0.000270
0.000218
0.000223
0.000259
0.000260
0.000353
0.001722
0.000239
0.000457
0.001892
0.000507
0.000346
0.000275
0.000275
0.000249
0.000172
0.000067
0.000246
0.000244
0.000244
0.000234
0.000254
0.001570
0.000257
0.000229
0.000249
0.000265
0.000275
0.000235
0.000230
0.000256
0.000286
0.000368
0.000651
0.000271
0.000267
0.000266
0.000252
0.000255
0.000265
0.000419
0.000393
0.000257
0.000359
0.000553
0.000441
0.000256
0.000212
0.000068
0.000237
0.000248
0.000220
0.000249
0.000299
0.000255
0.000196
0.000447
0.000368
0.001703
0.000247
0.000227
0.000275
0.000262
0.000277
0.000272
0.000453
0.000388
0.000343
0.000254
0.000262
0.000271
0.000302
0.000266
0.000240
0.000439
0.000387
0.000626
0.000394
0.000458
0.000176
0.000072
0.000229
0.000245
0.000246
0.000258
0.000242
0.000248
0.000241
0.000256
0.000217
0.000256
0.000338
0.000525
0.001300
0.000269
0.000237
0.000242
0.000247
0.000298
0.000257
0.000219
0.000255
0.000442
0.000413
0.000307
0.000261
0.000261
0.000260
0.000268
0.000267
0.000265
0.000370
0.000086
0.000232
0.000204
0.000231
0.000335
0.000432
0.000421
0.000247
0.000248
0.000259
0.000237
0.000252
0.000233
0.000356
0.000244
0.000208
0.000434
0.000589
0.001491
0.000280
0.000250
0.000276
0.000297
0.000242
0.000219
0.000254
0.000479
0.000403
0.000348
0.000424
0.000263
0.000182
0.000068
0.000260
0.000390
0.000262
0.000253
0.000233
0.000242
0.000279
0.000550
0.000351
0.000302
0.000257
0.000263
0.000259
0.000251
0.000489
0.000358
0.000256
0.000255
0.000444
0.001538
0.000299
0.000255
0.000481
0.000308
0.000257
0.000241
0.000276
0.000391
0.000492
0.000356
0.000279
0.000065
0.000228
0.000242
0.000244
0.000236
0.000400
0.000288
0.000263
0.000233
0.000441
0.000429
0.000374
0.000269
0.000235
0.000254
0.000245
0.000262
0.000247
0.000259
0.000296
0.000305
0.000264
0.000415
0.001792
0.000263
0.000249
0.000244
0.000321
0.000323
0.000403
0.000680
0.000438
0.000074
0.000221
0.000363
0.000351
0.000385
0.000349
0.000235
0.000210
0.000336
0.000483
0.000397
0.000293
0.000230
0.000261
0.000259
0.000260
0.000249
0.000253
0.000241
0.000281
0.000279
0.000233
0.000493
0.000591
0.001297
0.000338
0.000434
0.000449
0.000284
0.000425
0.000337
0.000327
0.000067
0.000238
0.000383
0.000275
0.000231
0.000245
0.000234
0.000399
0.000278
0.000281
0.000289
0.000421
0.000416
0.000256
0.000248
0.000260
0.000260
0.000340
0.000395
0.000346
0.000280
0.000268
0.000382
0.000620
0.001638
0.000269
0.000407
0.000299
0.000283
0.000261
0.000404
0.000331
0.000088
0.000221
0.000245
0.000253
0.000227
0.000253
0.000253
0.000237
0.000310
0.000472
0.000271
0.000415
0.000373
0.000313
0.000555
0.000255
0.000270
0.000258
0.000265
0.000247
0.000318
0.000272
0.000285
0.000261
0.000439
0.000352
0.001687
0.000268
0.000254
0.000253
0.000257
0.000198
0.000096
0.000285
0.000484
0.000334
0.000241
0.000246
0.000262
0.000250
0.000246
0.000250
0.000242
0.000247
0.000261
0.000424
0.000460
0.000407
0.000287
0.000253
0.000267
0.000288
0.000405
0.000402
0.000334
0.000361
0.000393
0.000263
0.000236
0.000254
0.000256
0.001787
0.000269
0.000184
0.000067
0.000243
0.000260
0.000246
0.000272
0.000303
0.000522
0.000323
0.000245
0.000272
0.000246
0.000239
0.000251
0.000518
0.000452
0.000482
0.000261
0.000258
0.000264
0.000418
0.000466
0.000370
0.000409
0.000519
0.000403
0.000281
0.000266
0.000216
0.000266
0.000261
0.001680
0.000386
0.000067
0.000315
0.000279
0.000209
0.000228
0.000248
0.000246
0.000252
0.000487
0.000372
0.000309
0.000300
0.000299
0.000345
0.000619
0.000372
0.000234
0.000256
0.000258
0.000255
0.000264
0.000258
0.000258
0.000266
0.000261
0.000318
0.000312
0.000484
0.000282
0.000258
0.000269
0.000160
0.000068
0.000457
0.000269
0.000473
0.000282
0.000226
0.000243
0.000243
0.000231
0.000244
0.000249
0.000257
0.000273
0.000265
0.000419
0.000503
0.000418
0.000349
0.000312
0.000372
0.000346
0.000302
0.000250
0.000258
0.000260
0.001739
0.000275
0.001698
0.000902
0.000387
0.000347
0.000164
0.000085
0.000215
0.000226
0.000230
0.000254
0.000248
0.000243
0.000259
0.000232
0.000254
0.000314
0.000358
0.000400
0.000348
0.000438
0.000241
0.000211
0.000266
0.000253
0.000254
0.000252
0.000273
0.000278
0.001756
0.000297
0.000241
0.000242
0.000253
0.001720
0.000445
0.000439
0.000312
0.000095
0.000239
0.000229
0.000226
0.000252
0.000251
0.000244
0.000247
0.000255
0.000278
0.000329
0.000611
0.000268
0.000382
0.000252
0.000237
0.000265
0.000290
0.000427
0.000370
0.000251
0.001816
0.000275
0.000228
0.000240
0.000261
0.000252
0.000262
0.000259
0.000302
0.000320
0.000394
0.000065
0.000223
0.000241
0.000254
0.000299
0.000236
0.000206
0.000236
0.000255
0.000244
0.000248
0.000246
0.000283
0.000341
0.000409
0.000338
0.000285
0.000492
0.000258
0.000261
0.000252
0.000231
0.000262
0.000270
0.000266
0.000266
0.001751
0.000283
0.000248
0.000252
0.000261
0.000157
0.000068
0.000321
0.000308
0.000264
0.000256
0.000244
0.000225
0.000211
0.000239
0.000254
0.000222
0.000261
0.000255
0.000266
0.000288
0.000444
0.000350
0.000302
0.000241
0.000302
0.000242
0.000237
0.000250
0.000250
0.000260
0.000256
0.000289
0.000260
0.001638
0.000300
0.000272
0.000139
0.000077
0.000218
0.000242
0.000254
0.000258
0.000321
0.000391
0.000378
0.000309
0.000233
0.000244
0.000296
0.000241
0.000217
0.000253
0.000261
0.000247
0.000244
0.000265
0.000258
0.000265
0.000265
0.000257
0.000246
0.000250
0.000275
0.000260
0.000293
0.000272
0.000226
0.000262
0.000161
0.000067
0.000224
0.000258
0.000255
0.000225
0.000249
0.000243
0.000237
0.000240
0.000290
0.000258
0.000266
0.000252
0.000219
0.000238
0.000269
0.000241
0.000273
0.000251
0.000293
0.000258
0.000270
0.000312
0.000267
0.000259
0.000292
0.000288
0.000264
0.000264
0.000233
0.000393
0.000603
0.000067
0.000236
0.000269
0.000236
0.000236
0.000231
0.000246
0.000294
0.000235
0.000247
0.000236
0.000257
0.000275
0.000476
0.000443
0.001580
0.000281
0.000448
0.000256
0.000257
0.000409
0.000439
0.000388
0.000253
0.000250
0.000250
0.000268
0.000272
0.000261
0.000344
0.000244
0.000158
0.000067
0.000320
0.000459
0.000320
0.000336
0.000241
0.000254
0.000250
0.000244
0.000246
0.000245
0.000273
0.000256
0.000251
0.000318
0.000252
0.000463
0.000412
0.001782
0.000276
0.000230
0.000447
0.000290
0.000464
0.000284
0.000328
0.000322
0.000288
0.000239
0.000263
0.000264
0.000158
0.000088
0.000223
0.000213
0.000215
0.000272
0.000328
0.000451
0.000362
0.000257
0.000256
0.000233
0.000262
0.000235
0.000253
0.000290
0.000259
0.000241
0.000288
0.000479
0.000423
0.000357
0.000256
0.001777
0.000304
0.000502
0.000458
0.000486
0.000316
0.000243
0.000255
0.000253
0.000457
0.000068
0.000226
0.000284
0.000240
0.000215
0.000429
0.000430
0.000401
0.000255
0.000244
0.000277
0.000288
0.000258
0.000254
0.000259
0.000327
0.000249
0.000225
0.000351
0.000412
0.000386
0.000490
0.001924
0.000358
0.000336
0.000414
0.000365
0.000259
0.000263
0.000279
0.000262
0.000189
0.000067
0.000231
0.000319
0.000375
0.000340
0.000376
0.000293
0.000362
0.000239
0.000248
0.000260
0.000250
0.000213
0.000269
0.000256
0.000228
0.000261
0.000405
0.000419
0.000371
0.000356
0.000338
0.000234
0.000261
0.001701
0.000423
0.000502
0.000692
0.000262
0.000276
0.000261
0.000161
0.000067
0.000201
0.000248
0.000331
0.000241
0.000321
0.000344
0.000422
0.000254
0.000256
0.000519
0.000252
0.000237
0.000262
0.000264
0.000276
0.000257
0.000244
0.000473
0.000340
0.000426
0.000256
0.000252
0.000266
0.000242
0.000267
0.000286
0.000192
0.000252
0.000290
0.000273
0.000190
0.000088
0.000337
0.000293
0.000232
0.000248
0.000246
0.000250
0.000260
0.000279
0.000245
0.000248
0.000259
0.000329
0.000515
0.000318
0.000349
0.000257
0.000238
0.000254
0.000252
0.000268
0.000269
0.000289
0.000231
0.000233
0.000272
0.000356
0.000379
0.000387
0.000347
0.000250
0.000153
0.000066
0.000230
0.000243
0.000236
0.000261
0.000241
0.000248
0.000272
0.000245
0.000472
0.000285
0.000257
0.000247
0.000207
0.000255
0.000289
0.000271
0.000261
0.000304
0.000222
0.000242
0.000268
0.000272
0.000243
0.000264
0.000309
0.000259
0.000245
0.000251
0.000276
0.000487
0.000152
0.000067
0.000227
0.000247
0.000250
0.000257
0.000242
0.000239
0.000348
0.000408
0.000242
0.000237
0.000249
0.000229
0.000253
0.000249
0.000494
0.001723
0.000290
0.000273
0.000263
0.000289
0.000404
0.000370
0.000371
0.000405
0.000370
0.000409
0.000283
0.000262
0.000291
0.000278
0.001338
0.000274
0.000226
0.000263
0.000265
0.000240
0.000226
0.000247
0.000272
0.000238
0.000230
0.000262
0.000245
0.000254
0.000257
0.000436
0.000481
0.001578
0.000246
0.000218
0.000265
0.000232
0.000250
0.000260
0.000366
0.000390
0.000267
0.000358
0.000254
0.000256
0.000262
0.000316
0.000150
0.000079
0.001219
0.000513
0.000354
0.000251
0.000247
0.000248
0.000222
0.000257
0.000481
0.000256
0.000193
0.000258
0.000332
0.000487
0.000399
0.000350
0.000255
0.000254
0.000312
0.000391
0.000280
0.000250
0.000247
0.000273
0.000263
0.000568
0.000525
0.000279
0.000260
0.000252
0.000158
0.000068
0.000250
0.000278
0.000243
0.000243
0.001454
0.000259
0.000252
0.000249
0.000224
0.000247
0.000245
0.000266
0.000285
0.000256
0.000239
0.000284
0.000529
0.000512
0.000284
0.001752
0.000286
0.000268
0.000327
0.000421
0.000481
0.000409
0.000253
0.000244
0.000262
0.000273
0.000199
0.000066
0.000245
0.000250
0.000262
0.000259
0.001259
0.000241
0.000277
0.000244
0.000251
0.000249
0.000251
0.000254
0.000296
0.000247
0.000215
0.000275
0.000487
0.000366
0.000371
0.000272
0.000276
0.000266
0.000226
0.000247
0.000249
0.000273
0.000316
0.000266
0.000233
0.000339
0.000563
0.000067
0.000255
0.000228
0.000253
0.000248
0.000250
0.000242
0.000281
0.000292
0.000268
0.000272
0.001335
0.000239
0.000255
0.000240
0.000230
0.000247
0.000284
0.000249
0.000274
0.000297
0.000291
0.000405
0.000482
0.000372
0.000257
0.000281
0.001741
0.000300
0.000239
0.000311
0.000418
0.000068
0.000229
0.000376
0.000457
0.000493
0.000516
0.000559
0.001490
0.000425
0.000516
0.000649
0.000576
0.000768
0.000430
0.000600
0.000584
0.001884
0.000383
0.000434
0.000417
0.000307
0.000248
0.000272
0.000274
0.000279
0.000271
0.000275
0.000302
0.000324
0.000270
0.000251
0.001319
0.000070
0.000230
0.000224
0.000226
0.000250
0.000249
0.000250
0.000250
0.000284
0.000239
0.000230
0.000239
0.000253
0.000252
0.000266
0.000261
0.000278
0.001813
0.000264
0.000258
0.000226
0.000262
0.000258
0.000268
0.000266
0.000361
0.000452
0.000346
0.000264
0.000257
0.000270
0.000208
0.000072
0.000207
0.001347
0.000320
0.000280
0.000251
0.000251
0.000218
0.000234
0.000253
0.000246
0.000261
0.000229
0.000228
0.000481
0.000363
0.000314
0.000262
0.001799
0.000372
0.000245
0.000241
0.000270
0.000255
0.000276
0.000266
0.000280
0.000264
0.000265
0.000266
0.000324
0.000164
0.000067
0.000234
0.000277
0.000257
0.001359
0.000234
0.000254
0.000242
0.000228
0.000245
0.000257
0.000245
0.000260
0.000308
0.000249
0.000224
0.000276
0.000257
0.000271
0.000263
0.000255
0.000247
0.001768
0.000303
0.001719
0.000271
0.000288
0.000231
0.000249
0.000262
0.000275
0.000197
0.000086
0.000227
0.000203
0.001309
0.000253
0.000265
0.000259
0.000242
0.000254
0.000255
0.000257
0.000245
0.000281
0.000266
0.000248
0.000238
0.000262
0.000259
0.000308
0.000244
0.000243
0.001875
0.000240
0.001801
0.000246
0.000255
0.000285
0.000245
0.000235
0.000267
0.000301
0.000161
0.000069
0.001412
0.000236
0.000247
0.000235
0.000244
0.000233
0.000429
0.000252
0.000264
0.000253
0.000234
0.000249
0.000237
0.000361
0.000359
0.000295
0.000268
0.000260
0.000260
0.000252
0.000267
0.000337
0.000262
0.000281
0.000262
0.000280
0.000248
0.000337
0.000607
0.000361
0.000187
0.000084
0.000199
0.000256
0.000262
0.000493
0.000239
0.000219
0.001625
0.000347
0.000341
0.000243
0.000248
0.000255
0.000268
0.000295
0.000279
0.000317
0.000306
0.000587
0.000359
0.000287
0.000284
0.000268
0.000259
0.000293
0.000289
0.000320
0.000268
0.000227
0.000261
0.000296
0.000392
0.000066
0.000295
0.000429
0.000254
0.000270
0.000243
0.000236
0.000258
0.000286
0.000236
0.000241
0.001468
0.000243
0.000260
0.000215
0.000276
0.000258
0.000283
0.000259
0.000293
0.000230
0.000265
0.000335
0.000532
0.000348
0.000247
0.000282
0.000271
0.000267
0.000258
0.000284
0.000176
0.000067
0.000238
0.000248
0.000290
0.000370
0.000405
0.000259
0.000250
0.000254
0.000243
0.000230
0.000245
0.000243
0.000240
0.000263
0.000298
0.000262
0.000390
0.001142
0.000254
0.000251
0.000272
0.000260
0.000336
0.000438
0.000267
0.000404
0.000481
0.000346
0.000356
0.000260
0.000157
0.000067
0.000215
0.000243
0.000263
0.000258
0.000253
0.000281
0.000365
0.000395
0.000378
0.000306
0.000366
0.000398
0.000399
0.000349
0.000277
0.000224
0.000251
0.000269
0.000424
0.000418
0.001249
0.000273
0.000273
0.000250
0.000234
0.000258
0.000260
0.000312
0.000407
0.000404
0.000261
0.000068
0.000231
0.000248
0.000248
0.000234
0.000259
0.000251
0.000246
0.000251
0.000275
0.000408
0.000394
0.000363
0.000236
0.000244
0.000261
0.000246
0.000265
0.000255
0.000245
0.000261
0.000441
0.000335
0.000275
0.000503
0.000248
0.000274
0.000270
0.000248
0.000258
0.000312
0.000161
0.000067
0.000317
0.000311
0.000355
0.000305
0.000455
0.000381
0.000246
0.000256
0.000260
0.000278
0.000252
0.000259
0.000241
0.000237
0.000234
0.000263
0.000291
0.000322
0.000485
0.000346
0.000268
0.000230
0.000240
0.000257
0.000293
0.000265
0.000264
0.000265
0.000265
0.000332
0.000173
0.000065
0.000357
0.000256
0.000248
0.000239
0.000235
0.000252
0.000242
0.000264
0.000267
0.000258
0.000216
0.000246
0.000329
0.000424
0.000473
0.000298
0.000245
0.000239
0.000268
0.000266
0.000248
0.000277
0.000242
0.000265
0.000271
0.000298
0.000576
0.000442
0.000396
0.000258
0.000159
0.000067
0.000372
0.000235
0.000258
0.000219
0.000253
0.000216
0.000242
0.000246
0.000259
0.000270
0.000292
0.000250
0.000246
0.000199
0.000235
0.000274
0.000257
0.000278
0.000256
0.000262
0.000262
0.000263
0.000262
0.000274
0.000232
0.000265
0.000308
0.000268
0.000233
0.000266
0.000164
0.000067
0.000211
0.000249
0.000247
0.000225
0.000237
0.000230
0.000260
0.000248
0.000251
0.000290
0.000272
0.000249
0.000215
0.000399
0.000285
0.000267
0.000269
0.000253
0.000250
0.000283
0.000250
0.000244
0.000222
0.000267
0.000290
0.000250
0.000262
0.000263
0.000254
0.000306
0.000147
0.000067
0.000237
0.000333
0.000371
0.000289
0.000293
0.000279
0.000237
0.000281
0.000248
0.000250
0.000230
0.000227
0.000267
0.000257
0.000263
0.000260
0.000239
0.000263
0.000264
0.000266
0.000260
0.000281
0.000256
0.000325
0.000265
0.000203
0.000266
0.000279
0.000263
0.000266
0.000161
0.000067
0.000213
0.000212
0.000256
0.000262
0.000253
0.000472
0.000251
0.000250
0.000253
0.000372
0.000527
0.000290
0.000255
0.000253
0.000255
0.000263
0.000239
0.000243
0.000279
0.000314
0.000230
0.000248
0.000263
0.000300
0.000519
0.000473
0.000271
0.000297
0.000274
0.000274
0.000167
0.000073
0.000232
0.000277
0.000253
0.000238
0.000306
0.000594
0.000363
0.000337
0.000254
0.000246
0.000256
0.000244
0.000240
0.000260
0.000310
0.000259
0.000215
0.000253
0.000635
0.000340
0.000308
0.000244
0.000266
0.000269
0.000284
0.000262
0.000251
0.000323
0.000265
0.000282
0.000327
0.000067
0.000274
0.000240
0.000235
0.000246
0.000249
0.000243
0.000221
0.000247
0.000269
0.000284
0.000214
0.000246
0.000240
0.000370
0.000623
0.000342
0.000255
0.000249
0.000249
0.000251
0.000263
0.000305
0.000500
0.000263
0.000265
0.000496
0.000438
0.000480
0.000257
0.000269
0.000167
0.000067
0.000228
0.000247
0.000247
0.000283
0.000249
0.000244
0.000246
0.000407
0.000600
0.000425
0.000235
0.000245
0.000278
0.000267
0.000280
0.000233
0.000292
0.000252
0.000256
0.000329
0.000324
0.000737
0.000320
0.000260
0.000328
0.000380
0.000488
0.000293
0.000236
0.000360
0.000396
0.000067
0.000305
0.000239
0.000401
0.000212
0.000233
0.000251
0.000258
0.000264
0.000284
0.000260
0.000297
0.000298
0.000375
0.000339
0.000261
0.000252
0.000259
0.000255
0.000254
0.000301
0.000262
0.000236
0.000290
0.000291
0.000305
0.000396
0.000498
0.000247
0.000255
0.000265
0.000202
0.000073
0.000219
0.000247
0.000230
0.000246
0.000250
0.000295
0.000351
0.000441
0.000377
0.000262
0.000370
0.000241
0.000262
0.000257
0.000236
0.000262
0.000263
0.000257
0.000332
0.000319
0.000519
0.000427
0.000368
0.000280
0.000376
0.000428
0.000374
0.000260
0.000255
0.000324
0.000315
0.000069
0.000276
0.000224
0.000255
0.000260
0.000247
0.000242
0.000261
0.000250
0.000275
0.000252
0.000244
0.000366
0.000502
0.000252
0.000381
0.000253
0.000272
0.000262
0.000243
0.000252
0.000237
0.000231
0.000289
0.000250
0.000280
0.000360
0.000479
0.000446
0.000264
0.000282
0.000181
0.000077
0.000234
0.000226
0.000272
0.000248
0.000236
0.000341
0.000506
0.000466
0.000509
0.000531
0.000264
0.000237
0.000248
0.000234
0.000248
0.000332
0.000231
0.000260
0.000498
0.000447
0.001455
0.000330
0.000268
0.000263
0.000290
0.000262
0.000316
0.000491
0.000309
0.000328
0.000183
0.000067
0.000229
0.000239
0.000239
0.000275
0.000196
0.000251
0.000314
0.000238
0.000267
0.000336
0.000316
0.000350
0.000268
0.000356
0.000386
0.000342
0.000252
0.000260
0.000259
0.000270
0.000248
0.000227
0.000334
0.000241
0.000285
0.000431
0.000463
0.000260
0.000273
0.000266
0.000147
0.000070
0.000225
0.000243
0.000258
0.000253
0.000250
0.000278
0.000447
0.000210
0.000240
0.000249
0.000256
0.000256
0.000252
0.000245
0.000262
0.000257
0.000266
0.000291
0.000277
0.000282
0.000279
0.000293
0.000229
0.000246
0.000262
0.000257
0.000276
0.000266
0.000266
0.000246
0.000170
0.000074
0.000226
0.000237
0.000319
0.000431
0.000409
0.000219
0.000243
0.000252
0.000253
0.000251
0.000245
0.000264
0.000251
0.000246
0.000257
0.000262
0.000253
0.000287
0.000253
0.000353
0.000326
0.000457
0.000264
0.000267
0.000264
0.000247
0.000242
0.000250
0.000280
0.000264
0.000199
0.000104
0.000336
0.000358
0.000453
0.000238
0.000246
0.000271
0.000370
0.000243
0.000251
0.000254
0.000260
0.000264
0.000334
0.000466
0.001888
0.000244
0.000212
0.000242
0.000277
0.000241
0.000413
0.000490
0.000505
0.000292
0.000241
0.000278
0.000272
0.000410
0.000279
0.000273
0.000174
0.000066
0.000254
0.000413
0.000250
0.000323
0.000497
0.000228
0.000254
0.000248
0.000240
0.000253
0.000254
0.000216
0.000258
0.000461
0.000466
0.000297
0.000265
0.000226
0.000265
0.000240
0.000256
0.000300
0.000265
0.000289
0.000237
0.000579
0.000361
0.000427
0.000480
0.000244
0.000173
0.000067
0.000231
0.000246
0.000239
0.000246
0.000243
0.000221
0.000261
0.000303
0.000332
0.000338
0.000492
0.000312
0.000233
0.000239
0.000279
0.000330
0.000248
0.000261
0.000268
0.000266
0.000244
0.000317
0.000561
0.000268
0.000282
0.000274
0.000267
0.000393
0.000467
0.000290
0.000153
0.000075
0.000214
0.000233
0.000350
0.000430
0.000381
0.000251
0.000215
0.000251
0.000258
0.000240
0.000256
0.000248
0.000253
0.000247
0.000255
0.000327
0.000346
0.000350
0.000315
0.000346
0.000471
0.000295
0.000231
0.000259
0.000344
0.000251
0.000268
0.000248
0.000471
0.000508
0.000197
0.000088
0.000218
0.000197
0.000242
0.000246
0.000251
0.000471
0.000227
0.000248
0.000259
0.000309
0.000497
0.000607
0.000232
0.000222
0.000263
0.000254
0.000236
0.000266
0.000267
0.000238
0.000270
0.000237
0.000338
0.000437
0.000373
0.000465
0.000316
0.000269
0.000265
0.000263
0.000172
0.000067
0.000234
0.000250
0.000272
0.000411
0.000325
0.000316
0.000287
0.000249
0.000251
0.000233
0.000246
0.000248
0.000252
0.000249
0.000258
0.000246
0.000259
0.000229
0.000255
0.000413
0.000464
0.000427
0.000249
0.000237
0.000250
0.000272
0.000264
0.000266
0.000269
0.000259
0.000201
0.000066
0.000273
0.000349
0.000527
0.000218
0.000240
0.000250
0.000294
0.000456
0.000275
0.000245
0.000252
0.000258
0.000309
0.000359
0.000449
0.000304
0.000257
0.000254
0.000242
0.000266
0.000261
0.000254
0.000266
0.000273
0.000262
0.000290
0.000371
0.000387
0.000359
0.000303
0.000134
0.000085
0.000215
0.000242
0.000244
0.000237
0.000273
0.000228
0.000262
0.000237
0.000242
0.000250
0.000257
0.000247
0.000281
0.001441
0.000234
0.000268
0.000242
0.000249
0.000267
0.000278
0.000261
0.000230
0.000272
0.000272
0.000315
0.000232
0.000275
0.000261
0.000267
0.000276
0.000156
0.000076
0.000213
0.000241
0.000238
0.000262
0.000228
0.000240
0.000247
0.000264
0.000304
0.000248
0.000248
0.000206
0.000253
0.000239
0.000267
0.000267
0.000251
0.000255
0.000266
0.000256
0.000264
0.000262
0.000252
0.000273
0.001254
0.000278
0.000673
0.000316
0.000332
0.000263
0.000175
0.000067
0.000236
0.000258
0.000244
0.000246
0.000395
0.000232
0.000229
0.000257
0.000248
0.000354
0.000437
0.000352
0.000244
0.000239
0.000276
0.000294
0.000205
0.000255
0.000265
0.000264
0.000238
0.000270
0.000256
0.000373
0.000571
0.000420
0.000258
0.000233
0.001381
0.000267
0.000150
0.000072
0.000327
0.000409
0.000322
0.000272
0.000242
0.000236
0.000246
0.000270
0.000262
0.000225
0.000242
0.000259
0.000275
0.000353
0.000432
0.000359
0.000355
0.000266
0.000260
0.000268
0.000292
0.000269
0.000263
0.000210
0.000237
0.000258
0.000435
0.000431
0.000412
0.000355
0.000147
0.000073
0.000213
0.000250
0.001240
0.000444
0.000367
0.000378
0.000378
0.000468
0.000271
0.000351
0.000242
0.000280
0.000265
0.000247
0.000230
0.000247
0.000351
0.000526
0.000335
0.000381
0.000260
0.000259
0.000263
0.000509
0.000264
0.000268
0.000229
0.000272
0.000301
0.000505
0.000294
0.000068
0.000378
0.000311
0.000258
0.001423
0.000458
0.000347
0.000311
0.000252
0.000260
0.000242
0.000222
0.000240
0.000247
0.000256
0.000260
0.000246
0.000253
0.000308
0.000384
0.000316
0.000493
0.000256
0.000231
0.000269
0.000255
0.000278
0.000269
0.000326
0.000271
0.000256
0.000159
0.000069
0.000409
0.000303
0.000243
0.000248
0.000243
0.000250
0.000247
0.000242
0.000231
0.000246
0.001339
0.000467
0.000301
0.000245
0.000249
0.000262
0.000239
0.000256
0.000253
0.000295
0.000294
0.000260
0.000303
0.000359
0.000352
0.000478
0.000259
0.000250
0.000280
0.000279
0.000154
0.000074
0.000252
0.000409
0.000210
0.000238
0.000288
0.000468
0.000347
0.000346
0.000445
0.000232
0.000217
0.000246
0.000265
0.000264
0.000256
0.001478
0.000301
0.000300
0.000256
0.000270
0.000266
0.000264
0.000252
0.000249
0.000293
0.000306
0.000394
0.000412
0.000291
0.000289
0.000141
0.000066
0.000228
0.000246
0.000220
0.000241
0.000240
0.000251
0.000265
0.000245
0.000260
0.000349
0.000433
0.000317
0.000262
0.000263
0.000228
0.000268
0.000261
0.000264
0.000258
0.000251
0.000260
0.000368
0.001185
0.000233
0.000269
0.000265
0.000267
0.000254
0.000222
0.000276
0.000177
0.000067
0.000258
0.000353
0.000294
0.000393
0.000243
0.000248
0.000245
0.000267
0.000246
0.000256
0.000268
0.000251
0.000263
0.000251
0.000249
0.000259
0.000315
0.000257
0.000237
0.000233
0.000274
0.000267
0.000261
0.000299
0.000250
0.000289
0.000255
0.000253
0.000263
0.000447
0.001341
0.000098
0.000217
0.000250
0.000251
0.000219
0.000248
0.000245
0.000238
0.000242
0.000243
0.000279
0.000302
0.000247
0.000252
0.000255
0.000209
0.000253
0.001689
0.000272
0.000239
0.000265
0.000286
0.000243
0.000260
0.000258
0.000280
0.000247
0.000287
0.000273
0.000260
0.000290
0.000197
0.000107
0.000309
0.000339
0.001301
0.000232
0.000240
0.000252
0.000220
0.000268
0.000256
0.000245
0.000240
0.000345
0.000381
0.000449
0.000284
0.000244
0.000232
0.000254
0.000285
0.000265
0.000270
0.000240
0.000272
0.000265
0.000260
0.000414
0.000336
0.000395
0.000328
0.000268
0.000136
0.000068
0.000234
0.000236
0.000257
0.000237
0.000253
0.000197
0.000244
0.000294
0.000386
0.001341
0.000263
0.000244
0.000267
0.000257
0.000259
0.000272
0.000251
0.000251
0.000306
0.000404
0.000380
0.000278
0.000226
0.000273
0.000264
0.000257
0.000293
0.000255
0.000306
0.000259
0.000169
0.000066
0.000246
0.000453
0.000361
0.000242
0.000241
0.000227
0.000230
0.000268
0.000261
0.000249
0.000260
0.000236
0.000445
0.000508
0.000469
0.001467
0.000236
0.000272
0.000328
0.000349
0.000467
0.000417
0.000488
0.000415
0.000238
0.000267
0.000268
0.000258
0.000254
0.000279
0.000162
0.000070
0.000239
0.000239
0.000554
0.000445
0.000323
0.000246
0.000247
0.000201
0.000266
0.000248
0.000241
0.000257
0.000262
0.000257
0.000254
0.000262
0.000377
0.000458
0.001372
0.000330
0.000250
0.000262
0.000267
0.000241
0.000448
0.000426
0.000386
0.000291
0.000278
0.000269
0.000155
0.000086
0.000199
0.000220
0.000269
0.000237
0.000249
0.000285
0.000401
0.000383
0.000389
0.000239
0.000290
0.000232
0.000266
0.000261
0.000257
0.000259
0.000267
0.000259
0.000244
0.000308
0.000431
0.000400
0.000341
0.001366
0.000409
0.000256
0.000254
0.000388
0.000474
0.000341
0.000298
0.000066
0.000252
0.000203
0.000227
0.000258
0.000234
0.000253
0.001680
0.000248
0.000249
0.000246
0.000251
0.000271
0.000252
0.000298
0.000306
0.000288
0.000291
0.000265
0.000504
0.000466
0.000257
0.000287
0.000243
0.000260
0.001477
0.000358
0.000395
0.000458
0.000334
0.000295
0.000160
0.000067
0.000246
0.000289
0.000254
0.000241
0.000224
0.000254
0.001666
0.000254
0.000231
0.000252
0.000377
0.000383
0.001428
0.000356
0.000407
0.000263
0.000236
0.000251
0.000263
0.000264
0.001541
0.000595
0.000340
0.000298
0.000245
0.000250
0.000261
0.000275
0.000264
0.000301
0.000137
0.000089
0.000217
0.000244
0.000255
0.000248
0.000273
0.000299
0.000276
0.000237
0.000261
0.000244
0.000240
0.000250
0.000317
0.000244
0.000252
0.001437
0.000278
0.000240
0.000268
0.000256
0.000275
0.000273
0.000446
0.001231
0.000296
0.000274
0.000266
0.000248
0.000363
0.000252
0.000186
0.000067
0.000243
0.000242
0.000259
0.000238
0.000245
0.000231
0.000210
0.001656
0.000278
0.000239
0.000333
0.000277
0.000266
0.000204
0.000259
0.001345
0.000251
0.000263
0.000265
0.000260
0.000255
0.000330
0.000300
0.001292
0.000274
0.000261
0.000255
0.000269
0.001372
0.000284
0.000198
0.000067
0.000240
0.000323
0.000226
0.000258
0.000258
0.000255
0.000266
0.000251
0.000251
0.000289
0.000217
0.000284
0.000283
0.000248
0.000254
0.001512
0.000247
0.000246
0.000247
0.000242
0.000312
0.000274
0.000251
0.001490
0.000349
0.000272
0.000249
0.001246
0.000277
0.000307
0.000151
0.000069
0.000216
0.000364
0.000353
0.000233
0.000235
0.000240
0.000252
0.000247
0.000262
0.000273
0.000239
0.000255
0.000312
0.000226
0.000409
0.001221
0.000246
0.000240
0.000275
0.000273
0.000228
0.000240
0.000273
0.000426
0.001172
0.000238
0.000262
0.000259
0.000241
0.001340
0.000332
0.000069
0.000320
0.000236
0.000240
0.000245
0.000257
0.000252
0.000248
0.000258
0.000276
0.000238
0.000252
0.000247
0.000295
0.000298
0.000415
0.001414
0.000232
0.000265
0.000530
0.000325
0.000260
0.001431
0.000323
0.000261
0.000257
0.000260
0.000248
0.001269
0.000383
0.000465
0.000282
0.000088
0.000229
0.000255
0.000228
0.000249
0.000287
0.000281
0.000211
0.000261
0.000261
0.000255
0.000387
0.000410
0.001311
0.000259
0.000256
0.000261
0.000274
0.000244
0.000260
0.000258
0.000364
0.001186
0.000245
0.000261
0.000254
0.000255
0.001464
0.000437
0.000485
0.000245
0.000164
0.000067
0.000233
0.000243
0.000261
0.000218
0.000246
0.000252
0.000257
0.000265
0.000471
0.000431
0.000264
0.001474
0.000233
0.000250
0.000261
0.000239
0.000260
0.000290
0.001680
0.000244
0.000389
0.000349
0.001295
0.000392
0.000330
0.000315
0.000236
0.000250
0.000271
0.000256
0.000163
0.000067
0.000209
0.000245
0.000289
0.000274
0.000316
0.000510
0.000336
0.000249
0.001466
0.000255
0.000374
0.000257
0.000247
0.000295
0.000368
0.001362
0.000268
0.000231
0.000252
0.000261
0.001502
0.000391
0.000287
0.000255
0.000272
0.000260
0.000415
0.000324
0.000261
0.000270
0.000243
0.000067
0.000265
0.000319
0.000355
0.000279
0.000245
0.001481
0.000238
0.000244
0.000253
0.000265
0.000264
0.000252
0.000271
0.001512
0.000254
0.000263
0.000399
0.001191
0.000352
0.000442
0.000409
0.000257
0.000243
0.000247
0.000259
0.000264
0.000410
0.000251
0.000246
0.000273
0.000197
0.000066
0.000239
0.000283
0.000320
0.000342
0.001342
0.000312
0.000275
0.000234
0.000251
0.000254
0.000230
0.000308
0.001480
0.000256
0.000264
0.000241
0.001363
0.000297
0.000400
0.000449
0.000365
0.000252
0.000254
0.000276
0.000279
0.000249
0.000269
0.000286
0.000251
0.000273
0.000158
0.000067
0.000248
0.000441
0.001357
0.000226
0.000255
0.000301
0.000217
0.000253
0.000256
0.000441
0.001331
0.000241
0.000273
0.000249
0.000253
0.001229
0.000794
0.000235
0.000302
0.000402
0.000309
0.000255
0.000266
0.000260
0.000256
0.000286
0.000272
0.000343
0.000350
0.000480
0.001373
0.000069
0.000233
0.000255
0.000231
0.000246
0.000256
0.000386
0.000471
0.001279
0.000257
0.000265
0.000263
0.001429
0.000406
0.000323
0.000249
0.000385
0.000256
0.000257
0.000270
0.000268
0.000246
0.000272
0.000272
0.000267
0.000264
0.000279
0.000454
0.000457
0.001469
0.000246
0.000169
0.000067
0.000216
0.000252
0.000419
0.001475
0.000298
0.000262
0.000259
0.000247
0.000246
0.000258
0.000257
0.000240
0.000342
0.000559
0.000311
0.000255
0.000254
0.000219
0.000267
0.000272
0.000262
0.000256
0.000260
0.000254
0.000245
0.000405
0.000465
0.000374
0.000283
0.001405
0.000179
0.000067
0.000234
0.000244
0.000260
0.000500
0.000300
0.000348
0.000286
0.000312
0.000302
0.000247
0.000259
0.000229
0.000301
0.000266
0.000260
0.000276
0.000530
0.000323
0.000310
0.000385
0.000260
0.000396
0.000252
0.000273
0.000273
0.000244
0.000270
0.000276
0.000310
0.000531
0.000262
0.000088
0.000223
0.001345
0.000308
0.000316
0.000355
0.000448
0.000362
0.000297
0.000277
0.000224
0.000255
0.000248
0.000246
0.000287
0.000253
0.000269
0.000260
0.001207
0.000391
0.000301
0.000264
0.000252
0.000273
0.000265
0.000248
0.000271
0.000249
0.000271
0.000347
0.000372
0.000254
0.000067
0.000230
0.000227
0.000241
0.001480
0.000348
0.000248
0.000239
0.000245
0.000246
0.000241
0.000286
0.000274
0.000249
0.000254
0.000250
0.000209
0.000266
0.000264
0.000259
0.000244
0.001420
0.000241
0.000277
0.000246
0.000266
0.000251
0.000262
0.000266
0.000283
0.000452
0.000353
0.000067
0.000231
0.000253
0.000395
0.000254
0.000281
0.000260
0.001489
0.000365
0.000252
0.000245
0.000234
0.000367
0.000280
0.000280
0.000201
0.000241
0.000268
0.000246
0.000240
0.000266
0.000549
0.000488
0.001074
0.000281
0.000285
0.000264
0.000265
0.000232
0.000264
0.000249
0.000374
0.000066
0.000237
0.000335
0.000235
0.000239
0.000225
0.000249
0.000280
0.000231
0.000250
0.001625
0.000357
0.000276
0.000278
0.000248
0.000249
0.000284
0.000258
0.000257
0.000268
0.000268
0.000303
0.000557
0.000368
0.001374
0.000252
0.000274
0.000244
0.000277
0.000252
0.000285
0.000472
0.000066
0.000256
0.000250
0.000237
0.000235
0.000248
0.000231
0.000248
0.000299
0.000261
0.001540
0.000350
0.000254
0.000226
0.000270
0.000460
0.000268
0.000549
0.000359
0.000266
0.000274
0.000494
0.000504
0.001251
0.000278
0.000274
0.000273
0.001657
0.000450
0.000611
0.000305
0.000139
0.000069
0.000230
0.000215
0.000243
0.000240
0.000254
0.000235
0.000260
0.000470
0.000535
0.000398
0.000274
0.000233
0.000272
0.000301
0.000253
0.000244
0.000240
0.000266
0.000278
0.000263
0.000222
0.000394
0.001352
0.000235
0.000294
0.000270
0.001848
0.000400
0.000455
0.000254
0.000143
0.000065
0.000252
0.000245
0.000249
0.001510
0.000407
0.000239
0.000245
0.000258
0.000252
0.000250
0.000392
0.000352
0.000367
0.000302
0.000345
0.000438
0.000489
0.001088
0.000293
0.000286
0.000261
0.000263
0.000261
0.000382
0.000553
0.000498
0.000252
0.000258
0.000269
0.000270
0.000197
0.000067
0.000246
0.000217
0.000250
0.001536
0.000252
0.000247
0.000240
0.000238
0.000240
0.000246
0.000277
0.000301
0.000276
0.000212
0.000263
0.000396
0.000371
0.000344
0.001413
0.000262
0.000289
0.000202
0.000260
0.000249
0.000468
0.000426
0.000405
0.000271
0.000297
0.000269
0.000381
0.000067
0.000222
0.000268
0.000255
0.001509
0.000280
0.000239
0.000252
0.000242
0.000253
0.000260
0.000246
0.000346
0.000254
0.000288
0.000296
0.000503
0.001389
0.000743
0.000320
0.000311
0.000261
0.000223
0.000250
0.000272
0.001644
0.000814
0.000266
0.000282
0.000253
0.000283
0.000143
0.000085
0.000224
0.000247
0.000253
0.000262
0.000240
0.000238
0.000248
0.000250
0.000233
0.000261
0.000248
0.000318
0.000251
0.000256
0.000263
0.000233
0.000235
0.001594
0.000727
0.000393
0.000280
0.000252
0.000264
0.000283
0.000244
0.000275
0.000266
0.000260
0.001371
0.000417
0.000280
0.000069
0.000211
0.000243
0.000256
0.000242
0.000223
0.000265
0.000253
0.000234
0.000260
0.000250
0.000342
0.000362
0.000422
0.000330
0.000229
0.000239
0.000261
0.001394
0.000680
0.000488
0.000347
0.000278
0.000256
0.000237
0.000249
0.000262
0.000283
0.000238
0.001472
0.000432
0.000194
0.000076
0.000243
0.000244
0.000230
0.000261
0.000253
0.000251
0.000246
0.000242
0.000237
0.000295
0.000337
0.000428
0.000304
0.000250
0.000252
0.000215
0.000259
0.000266
0.001538
0.000653
0.000481
0.000268
0.000265
0.000256
0.000252
0.000270
0.000283
0.000271
0.000246
0.001347
0.000313
0.000087
0.000222
0.000245
0.000244
0.000229
0.000223
0.000272
0.000235
0.000277
0.000368
0.000456
0.000326
0.000403
0.000413
0.000225
0.000229
0.000254
0.000271
0.000265
0.000259
0.001920
0.000300
0.000287
0.000428
0.000232
0.000262
0.000267
0.000264
0.000264
0.000263
0.000271
0.000347
0.000065
0.000236
0.000264
0.000270
0.000216
0.000255
0.000241
0.000215
0.000247
0.000265
0.000250
0.000251
0.000234
0.000295
0.000401
0.000477
0.000441
0.000277
0.000265
0.000256
0.000256
0.000227
0.000270
0.001452
0.001054
0.000289
0.000234
0.000261
0.000268
0.000252
0.000256
0.000175
0.000067
0.000224
0.001320
0.000291
0.000256
0.000242
0.000251
0.000215
0.000250
0.000253
0.000251
0.000261
0.000227
0.000273
0.000366
0.000400
0.000469
0.000254
0.000283
0.000243
0.000252
0.000259
0.000229
0.000226
0.000276
0.001308
0.000678
0.000320
0.000416
0.000373
0.000391
0.000273
0.000068
0.000230
0.000249
0.000320
0.001316
0.000237
0.000272
0.000221
0.000262
0.000255
0.000256
0.000239
0.000262
0.000259
0.000333
0.000529
0.000330
0.000245
0.000271
0.000325
0.000252
0.000247
0.000232
0.000262
0.000269
0.000257
0.001992
0.000342
0.000286
0.000241
0.000285
0.000146
0.000093
0.000191
0.000348
0.000360
0.000363
0.001268
0.000252
0.000261
0.000247
0.000245
0.000229
0.000242
0.000229
0.000251
0.000257
0.000244
0.000260
0.000251
0.000256
0.000259
0.000250
0.000230
0.000271
0.000343
0.000287
0.000250
0.000268
0.000255
0.001450
0.000255
0.000262
0.000150
0.000067
0.000248
0.000249
0.000244
0.000225
0.000331
0.000370
0.000389
0.000275
0.001586
0.000293
0.000234
0.000594
0.000254
0.000254
0.000410
0.000243
0.000247
0.000260
0.000270
0.000273
0.000253
0.000269
0.000254
0.000307
0.000283
0.000379
0.000357
0.000340
0.001572
0.000259
0.000182
0.000072
0.000258
0.000244
0.000244
0.000253
0.000221
0.000227
0.000303
0.000281
0.000429
0.001996
0.000238
0.000241
0.000293
0.000248
0.000261
0.000263
0.000261
0.000274
0.000262
0.000510
0.000232
0.000464
0.001440
0.000248
0.000241
0.002026
0.000280
0.000271
0.000246
0.001503
0.000159
0.000087
0.000277
0.000435
0.000464
0.000284
0.000249
0.000241
0.000262
0.000252
0.000233
0.000257
0.000266
0.000322
0.000407
0.000338
0.000432
0.000232
0.000252
0.001543
0.000250
0.000609
0.001838
0.000296
0.000253
0.001573
0.001980
0.000723
0.000309
0.000237
0.000272
0.000448
0.000410
0.000069
0.000231
0.000242
0.000247
0.000234
0.001397
0.001735
0.001060
0.000242
0.000241
0.001563
0.001966
0.000265
0.000220
0.000396
0.000342
0.000302
0.000405
0.000523
0.000251
0.000256
0.000212
0.000254
0.000245
0.001589
0.001232
0.001399
0.000294
0.000263
0.000262
0.000329
0.000333
0.000090
0.000220
0.000246
0.000245
0.000245
0.000197
0.000254
0.000248
0.000249
0.000249
0.000262
0.000237
0.000305
0.000474
0.000397
0.000338
0.000295
0.000207
0.000265
0.000253
0.000263
0.000243
0.000265
0.001498
0.000503
0.002108
0.000268
0.000260
0.000333
0.000412
0.000397
0.000186
0.000070
0.000252
0.000384
0.000403
0.000311
0.000231
0.000237
0.000258
0.000255
0.000253
0.000216
0.000254
0.000261
0.000248
0.001579
0.001358
0.001226
0.000275
0.000250
0.000242
0.000271
0.000274
0.000272
0.000247
0.000271
0.002198
0.000256
0.000270
0.000265
0.000319
0.000313
0.000237
0.000070
0.000243
0.000349
0.000513
0.000346
0.000248
0.000246
0.000249
0.000251
0.001921
0.001400
0.000236
0.000286
0.000388
0.000422
0.000258
0.000261
0.000266
0.000302
0.000208
0.000270
0.000246
0.000245
0.000479
0.000276
0.000274
0.000240
0.000274
0.000273
0.000260
0.000261
0.000167
0.000071
0.000254
0.000259
0.000250
0.000244
0.000230
0.000279
0.001490
0.001443
0.001297
0.000265
0.000237
0.000252
0.000247
0.000256
0.000276
0.000249
0.000243
0.002069
0.000250
0.000266
0.000285
0.000255
0.000255
0.000266
0.000257
0.000285
0.000286
0.000221
0.000278
0.000230
0.000166
0.000070
0.000220
0.002692
0.001356
0.000251
0.000276
0.000321
0.000237
0.000265
0.000247
0.000259
0.000217
0.000257
0.000294
0.000225
0.000257
0.000251
0.000249
0.000255
0.000267
0.000268
0.000249
0.000285
0.000273
0.000251
0.000262
0.000255
0.000280
0.000294
0.000265
0.000270
0.000314
0.000068
0.001553
0.000250
0.001245
0.000245
0.000224
0.000235
0.000268
0.000256
0.000247
0.000267
0.000379
0.000359
0.000323
0.000249
0.000244
0.002146
0.000259
0.000246
0.000260
0.000527
0.000281
0.000337
0.000296
0.000259
0.000227
0.000267
0.000269
0.000271
0.000256
0.001588
0.001263
0.000067
0.000236
0.000233
0.000256
0.000431
0.000375
0.000243
0.000251
0.000246
0.000251
0.000242
0.000269
0.000226
0.000214
0.000262
0.000265
0.000266
0.000271
0.000606
0.000386
0.000248
0.000252
0.000295
0.000255
0.000273
0.000253
0.000232
0.000241
0.000266
0.000270
0.000359
0.000324
0.000069
0.001092
0.000309
0.000281
0.000446
0.000291
0.000242
0.000244
0.000233
0.000261
0.002311
0.000314
0.000411
0.000236
0.000411
0.000272
0.000299
0.000198
0.000265
0.000256
0.000216
0.000248
0.000342
0.000663
0.000314
0.001903
0.001261
0.000520
0.000556
0.000255
0.000266
0.000206
0.000072
0.000319
0.000295
0.000273
0.000226
0.000244
0.000227
0.000249
0.000280
0.000262
0.000238
0.000212
0.000247
0.000267
0.000255
0.000436
0.000442
0.001819
0.001310
0.000468
0.000440
0.000459
0.000254
0.000250
0.000237
0.002135
0.000528
0.000397
0.000263
0.000261
0.000264
0.000188
0.000092
0.000232
0.000229
0.000252
0.000240
0.000234
0.000332
0.000399
0.000340
0.000292
0.000235
0.000260
0.000242
0.000258
0.002086
0.000362
0.000387
0.000260
0.000263
0.000268
0.000258
0.000258
0.002404
0.000330
0.000260
0.000273
0.000249
0.000266
0.000250
0.000319
0.000247
0.000165
0.000081
0.000233
0.000406
0.000448
0.000354
0.000257
0.000246
0.000251
0.000246
0.000256
0.000261
0.001914
0.000390
0.000294
0.000253
0.000274
0.000291
0.000232
0.000236
0.002189
0.000443
0.000253
0.000260
0.000251
0.000264
0.000273
0.000304
0.000246
0.000253
0.000266
0.000240
0.000158
0.000067
0.000239
0.000241
0.000232
0.000234
0.000250
0.000258
0.000257
0.000233
0.000237
0.002141
0.000254
0.000254
0.000252
0.000402
0.000235
0.000239
0.000306
0.000303
0.000262
0.000236
0.001925
0.000277
0.000378
0.000335
0.000437
0.000474
0.000257
0.000237
0.000270
0.000259
0.000178
0.000067
0.000219
0.000237
0.000245
0.000246
0.000244
0.000315
0.000255
0.002271
0.000248
0.000236
0.000258
0.000261
0.000252
0.000257
0.000284
0.002114
0.000584
0.000254
0.000256
0.000244
0.000262
0.000247
0.000266
0.000302
0.000232
0.000268
0.000281
0.000263
0.000262
0.000277
0.000163
0.000066
0.001859
0.001381
0.000238
0.000230
0.000246
0.000255
0.000251
0.000305
0.000326
0.000387
0.002146
0.000258
0.000251
0.000263
0.000265
0.000581
0.000328
0.000325
0.000250
0.000258
0.000238
0.000232
0.000258
0.000254
0.000271
0.000251
0.000282
0.000267
0.000312
0.000700
0.000253
0.000083
0.000211
0.000256
0.000231
0.000275
0.000261
0.000248
0.000244
0.000245
0.001484
0.002078
0.000587
0.000266
0.000408
0.000699
0.000360
0.000244
0.000258
0.000222
0.000266
0.000258
0.000268
0.000270
0.000246
0.000282
0.003004
0.000300
0.000266
0.000267
0.000261
0.000295
0.000391
0.000067
0.001916
0.000241
0.000255
0.000237
0.000240
0.000373
0.000458
0.000300
0.000316
0.000248
0.000217
0.000261
0.000253
0.000254
0.000255
0.000227
0.000285
0.000264
0.001822
0.000247
0.000236
0.000251
0.000300
0.000279
0.000267
0.000230
0.001465
0.000350
0.000265
0.000270
0.000136
0.000068
0.000211
0.000250
0.000243
0.000252
0.000230
0.000256
0.000316
0.000303
0.000328
0.000403
0.000287
0.000251
0.000225
0.000280
0.000415
0.000323
0.000238
0.000267
0.000254
0.000380
0.000494
0.000399
0.000275
0.000267
0.000263
0.000214
0.000259
0.000288
0.000251
0.000285
0.000161
0.000074
0.001435
0.000479
0.000216
0.001897
0.000278
0.000471
0.000388
0.000333
0.000234
0.000284
0.000251
0.000264
0.000242
0.000224
0.000233
0.000278
0.000417
0.000287
0.000419
0.000364
0.000380
0.000259
0.000280
0.000243
0.000263
0.000273
0.000263
0.000252
0.000433
0.000382
0.001362
0.000070
0.000256
0.000243
0.002013
0.000352
0.000279
0.000251
0.000249
0.000257
0.000294
0.000220
0.000239
0.000237
0.000237
0.000260
0.000269
0.000351
0.000713
0.001791
0.000260
0.000228
0.000240
0.000247
0.000340
0.000475
0.001576
0.000325
0.000337
0.001901
0.000274
0.000253
0.000181
0.000067
0.000229
0.000237
0.000252
0.000244
0.000244
0.000196
0.000259
0.000289
0.000307
0.000265
0.000386
0.000373
0.000387
0.000265
0.000268
0.000250
0.000278
0.000230
0.000266
0.000256
0.000325
0.000246
0.000278
0.000274
0.000255
0.001476
0.000326
0.000379
0.002043
0.000248
0.000158
0.000067
0.000238
0.000238
0.000238
0.000266
0.000417
0.000245
0.000253
0.000298
0.000360
0.000324
0.000281
0.000248
0.000234
0.000292
0.000240
0.000330
0.000461
0.000399
0.000252
0.000412
0.000526
0.000396
0.001632
0.000268
0.000231
0.001938
0.000344
0.000262
0.000305
0.000275
0.000160
0.000067
0.000236
0.000245
0.000246
0.000221
0.000241
0.000238
0.000289
0.000241
0.000266
0.000248
0.001825
0.000285
0.000384
0.000301
0.000456
0.000371
0.000325
0.001502
0.000284
0.000269
0.002210
0.000442
0.000263
0.000256
0.000264
0.000283
0.000462
0.000247
0.000245
0.000266
0.000194
0.000066
0.000211
0.000320
0.000430
0.000253
0.000234
0.000245
0.000248
0.000275
0.000326
0.000246
0.000234
0.000231
0.000241
0.000295
0.000286
0.000518
0.001266
0.000306
0.000318
0.001837
0.000357
0.000290
0.000254
0.000252
0.000264
0.000316
0.000262
0.000231
0.000235
0.000288
0.000178
0.000067
0.000226
0.000453
0.002012
0.000241
0.000260
0.000243
0.000259
0.000280
0.000402
0.000458
0.001299
0.000394
0.000352
0.002058
0.000252
0.000232
0.000240
0.000272
0.000265
0.000292
0.000261
0.000268
0.000268
0.000365
0.000456
0.000351
0.002339
0.000257
0.000544
0.000370
0.000411
0.000067
0.000231
0.000246
0.000237
0.001912
0.000248
0.000247
0.000259
0.000238
0.000262
0.000245
0.000256
0.000261
0.000258
0.000354
0.000303
0.001466
0.000278
0.000214
0.000265
0.000296
0.000274
0.000239
0.000233
0.000271
0.000299
0.000434
0.000487
0.000273
0.001552
0.000322
0.000139
0.000072
0.000231
0.000244
0.000238
0.000247
0.000240
0.000284
0.000216
0.000248
0.000277
0.000342
0.000347
0.001400
0.000253
0.000251
0.000262
0.000240
0.000285
0.000259
0.000323
0.000385
0.000454
0.000392
0.000265
0.001543
0.000287
0.000255
0.000248
0.000264
0.000262
0.000266
0.000197
0.000067
0.000227
0.000242
0.000249
0.000239
0.000256
0.000235
0.000263
0.000306
0.000246
0.000234
0.000211
0.000261
0.000256
0.001461
0.000355
0.000253
0.000242
0.000250
0.000277
0.000290
0.000368
0.000276
0.000263
0.000266
0.000269
0.000267
0.000250
0.001392
0.000317
0.000259
0.000138
0.000088
0.000193
0.000244
0.000219
0.000292
0.000250
0.000227
0.000252
0.000244
0.000245
0.000243
0.000250
0.000245
0.000289
0.000300
0.000294
0.000373
0.000273
0.000256
0.001597
0.000255
0.000254
0.000263
0.000310
0.000254
0.000355
0.000376
0.000457
0.000270
0.000265
0.001584
0.000180
0.000078
0.000307
0.000343
0.000398
0.000264
0.000243
0.000248
0.000232
0.000272
0.000247
0.000269
0.000244
0.000252
0.001459
0.000225
0.000323
0.000259
0.000238
0.000261
0.000259
0.000250
0.000261
0.000255
0.000227
0.000268
0.000339
0.000338
0.000408
0.000336
0.000303
0.000280
0.000165
0.000068
0.000236
0.000353
0.000394
0.000285
0.000323
0.000312
0.000254
0.000223
0.000240
0.000270
0.000249
0.000249
0.000254
0.000218
0.001270
0.000266
0.000261
0.000261
0.000264
0.000260
0.000253
0.000255
0.000268
0.000268
0.000254
0.000266
0.000313
0.000780
0.000309
0.000259
0.000155
0.000067
0.000218
0.001537
0.000291
0.000495
0.000280
0.000355
0.000254
0.000246
0.000285
0.000240
0.000244
0.000233
0.000258
0.000268
0.000250
0.001543
0.000257
0.000271
0.000267
0.000263
0.000270
0.000253
0.000272
0.000260
0.000269
0.000255
0.000457
0.000315
0.000384
0.000250
0.000158
0.000067
0.000246
0.000255
0.000222
0.001578
0.000436
0.000351
0.000243
0.000234
0.000267
0.000237
0.000269
0.000263
0.000265
0.000249
0.000246
0.000308
0.000350
0.001311
0.000244
0.000257
0.001471
0.000277
0.000747
0.000334
0.000278
0.000254
0.000265
0.000439
0.000240
0.000254
0.000174
0.000067
0.000298
0.000250
0.000235
0.000245
0.000249
0.000228
0.000248
0.000252
0.000256
0.000261
0.000249
0.000261
0.000288
0.000478
0.001666
0.001490
0.000358
0.000580
0.000341
0.000235
0.000217
0.000243
0.000256
0.000255
0.000250
0.000280
0.000262
0.000271
0.001484
0.000364
0.000164
0.000090
0.000211
0.000333
0.000365
0.000319
0.000242
0.000246
0.000246
0.000281
0.000477
0.000338
0.002210
0.000306
0.000703
0.000502
0.000514
0.000262
0.000315
0.000365
0.000332
0.000278
0.000378
0.000277
0.001534
0.000552
0.000223
0.000260
0.000257
0.000258
0.000263
0.000257
0.000175
0.000066
0.000238
0.000231
0.000247
0.000251
0.000245
0.001706
0.000833
0.000992
0.000256
0.000219
0.000272
0.000291
0.000231
0.000254
0.000259
0.000253
0.000237
0.000258
0.000261
0.000269
0.001451
0.000288
0.000282
0.000219
0.000248
0.000268
0.000259
0.000251
0.000300
0.000268
0.001872
0.000069
0.000214
0.000245
0.001504
0.000927
0.000390
0.000275
0.000302
0.000256
0.000254
0.000245
0.000255
0.000214
0.000220
0.001958
0.000472
0.000249
0.000249
0.000269
0.000263
0.000262
0.000156
