0.000497
0.018112
0.003133
0.000426
0.000243
0.000296
0.000323
0.000249
0.000310
0.000281
0.000251
0.000341
0.000499
0.000487
0.000416
0.000322
0.000290
0.000335
0.000358
0.000419
0.000314
0.001951
0.000657
0.000281
0.000262
0.000287
0.000309
0.000311
0.000422
0.000413
0.000525
0.000243
0.000059
0.000213
0.000245
0.000270
0.000295
0.000245
0.000255
0.000279
0.000282
0.000276
0.000264
0.000455
0.000396
0.000315
0.000263
0.000372
0.000350
0.000365
0.000255
0.000244
0.001685
0.000331
0.000275
0.000428
0.000269
0.000260
0.000275
0.000286
0.000296
0.000276
0.000331
0.000424
0.000055
0.000271
0.000238
0.000266
0.000262
0.000245
0.000244
0.000265
0.000252
0.000290
0.001666
0.000236
0.000234
0.000271
0.000263
0.000269
0.000257
0.000262
0.000261
0.000344
0.001788
0.000252
0.000290
0.000434
0.000434
0.000388
0.000241
0.000246
0.000541
0.000426
0.000775
0.000200
0.000057
0.000188
0.000239
0.000256
0.000238
0.000291
0.000276
0.000325
0.000531
0.000383
0.000272
0.000224
0.000256
0.000235
0.000258
0.000249
0.000261
0.000256
0.000258
0.000298
0.000330
0.001717
0.000240
0.000235
0.000416
0.000673
0.000350
0.000663
0.000512
0.000346
0.000242
0.000186
0.000057
0.000231
0.000247
0.000295
0.000213
0.000280
0.000229
0.000248
0.000447
0.001500
0.000217
0.000259
0.000245
0.000251
0.000258
0.000259
0.000300
0.000267
0.001942
0.000311
0.000236
0.000236
0.000412
0.000245
0.000249
0.000253
0.000266
0.000268
0.000265
0.000264
0.000265
0.000200
0.000056
0.000206
0.000251
0.000244
0.000262
0.000242
0.000239
0.000240
0.000255
0.000243
0.000251
0.001622
0.000272
0.000237
0.000236
0.000257
0.000238
0.000254
0.000254
0.000247
0.000250
0.000297
0.001672
0.000260
0.000256
0.000424
0.000262
0.000240
0.000273
0.000269
0.000268
0.000194
0.000056
0.000214
0.000228
0.000249
0.000246
0.000239
0.000252
0.000261
0.000238
0.000264
0.000279
0.000237
0.000241
0.000276
0.000255
0.001636
0.000274
0.000305
0.000227
0.000238
0.000274
0.000269
0.000230
0.000249
0.000268
0.001785
0.000412
0.000437
0.000259
0.000235
0.000278
0.000196
0.000056
0.000231
0.000237
0.000241
0.000271
0.000258
0.000264
0.000255
0.000399
0.000487
0.000364
0.000217
0.000242
0.000252
0.000251
0.001551
0.000548
0.000372
0.000344
0.000315
0.000236
0.000268
0.000284
0.000274
0.001729
0.000498
0.000477
0.000245
0.000247
0.000247
0.000270
0.000186
0.000057
0.000205
0.000236
0.000254
0.000323
0.000293
0.000435
0.000385
0.000262
0.000229
0.000237
0.000256
0.000248
0.000250
0.001694
0.000517
0.000286
0.000220
0.000255
0.000267
0.000291
0.000241
0.000258
0.000274
0.001884
0.000305
0.000396
0.000251
0.000251
0.000268
0.000396
0.000327
0.000056
0.000209
0.000416
0.000350
0.000252
0.000256
0.000248
0.000251
0.000255
0.000259
0.000220
0.000239
0.000248
0.001546
0.000325
0.000335
0.000246
0.000253
0.000244
0.000248
0.000312
0.000273
0.000317
0.000233
0.001818
0.000254
0.000487
0.000250
0.000247
0.000257
0.000269
0.000268
0.000055
0.000292
0.000655
0.000604
0.000211
0.000235
0.000276
0.000226
0.000226
0.000258
0.000249
0.000256
0.001699
0.000246
0.000458
0.000357
0.000214
0.000237
0.000228
0.000295
0.000222
0.000259
0.001854
0.000233
0.000455
0.001881
0.000510
0.000358
0.000251
0.000249
0.000268
0.000189
0.000058
0.000221
0.000239
0.000248
0.000237
0.000263
0.001611
0.000244
0.000259
0.000240
0.000255
0.000241
0.000259
0.000241
0.000253
0.000292
0.000381
0.000641
0.000254
0.000237
0.000267
0.000281
0.000235
0.000259
0.000416
0.000435
0.000303
0.000319
0.000694
0.000289
0.000268
0.000210
0.000056
0.000214
0.000242
0.000269
0.000229
0.000243
0.000239
0.000253
0.000332
0.000477
0.001719
0.000229
0.000250
0.000230
0.000242
0.000259
0.000286
0.000398
0.000514
0.000328
0.000232
0.000273
0.000295
0.000283
0.000251
0.000283
0.000424
0.000344
0.000634
0.000428
0.000446
0.000190
0.000056
0.000215
0.000243
0.000246
0.000228
0.000242
0.000237
0.000243
0.000259
0.000231
0.000292
0.000346
0.000528
0.001296
0.000238
0.000240
0.000260
0.000245
0.000245
0.000256
0.000246
0.000291
0.000441
0.000420
0.000265
0.000265
0.000257
0.000253
0.000289
0.000250
0.000275
0.000359
0.000055
0.000222
0.000235
0.000228
0.000287
0.000676
0.000273
0.000250
0.000248
0.000233
0.000258
0.000261
0.000226
0.000327
0.000221
0.000239
0.000464
0.000436
0.001633
0.000286
0.000247
0.000245
0.000265
0.000257
0.000239
0.000291
0.000368
0.000523
0.000397
0.000355
0.000247
0.000200
0.000055
0.000198
0.000435
0.000234
0.000221
0.000287
0.000222
0.000246
0.000614
0.000319
0.000340
0.000221
0.000277
0.000260
0.000238
0.000520
0.000328
0.000237
0.000273
0.000499
0.001512
0.000266
0.000285
0.000482
0.000258
0.000291
0.000262
0.000254
0.000298
0.000607
0.000366
0.000272
0.000056
0.000215
0.000230
0.000239
0.000249
0.000408
0.000316
0.000281
0.000227
0.000421
0.000475
0.000342
0.000269
0.000233
0.000246
0.000262
0.000260
0.000251
0.000253
0.000233
0.000359
0.000283
0.000272
0.001923
0.000235
0.000253
0.000254
0.000279
0.000343
0.000410
0.000797
0.000352
0.000057
0.000235
0.000332
0.000308
0.000464
0.000325
0.000218
0.000255
0.000318
0.000498
0.000397
0.000261
0.000234
0.000243
0.000274
0.000259
0.000236
0.000256
0.000269
0.000272
0.000258
0.000257
0.000401
0.000680
0.001331
0.000351
0.000412
0.000423
0.000229
0.000440
0.000420
0.000315
0.000056
0.000252
0.000383
0.000274
0.000210
0.000228
0.000247
0.000407
0.000241
0.000251
0.000417
0.000363
0.000445
0.000245
0.000251
0.000262
0.000243
0.000360
0.000396
0.000347
0.000240
0.000247
0.000349
0.000689
0.001654
0.000243
0.000433
0.000307
0.000214
0.000263
0.000492
0.000266
0.000057
0.000243
0.000222
0.000249
0.000256
0.000249
0.000233
0.000248
0.000356
0.000426
0.000289
0.000449
0.000368
0.000275
0.000579
0.000240
0.000249
0.000277
0.000261
0.000223
0.000374
0.000204
0.000244
0.000271
0.000427
0.000448
0.001674
0.000276
0.000242
0.000266
0.000253
0.000188
0.000057
0.000361
0.000458
0.000340
0.000221
0.000229
0.000249
0.000259
0.000243
0.000270
0.000239
0.000222
0.000260
0.000409
0.000503
0.000437
0.000255
0.000251
0.000252
0.000333
0.000393
0.000378
0.000338
0.000361
0.000394
0.000256
0.000250
0.000265
0.000268
0.001788
0.000241
0.000218
0.000056
0.000186
0.000222
0.000257
0.000295
0.000332
0.000539
0.000329
0.000208
0.000285
0.000237
0.000250
0.000271
0.000514
0.000573
0.000412
0.000215
0.000257
0.000262
0.000420
0.000464
0.000359
0.000428
0.000457
0.000459
0.000243
0.000234
0.000256
0.000259
0.000264
0.001709
0.000364
0.000057
0.000183
0.000324
0.000225
0.000218
0.000259
0.000249
0.000241
0.000492
0.000378
0.000312
0.000288
0.000280
0.000420
0.000622
0.000290
0.000226
0.000260
0.000252
0.000256
0.000262
0.000279
0.000249
0.000253
0.000262
0.000325
0.000364
0.000420
0.000342
0.000225
0.000247
0.000195
0.000055
0.000453
0.000283
0.000501
0.000230
0.000213
0.000238
0.000248
0.000256
0.000239
0.000222
0.000255
0.000280
0.000298
0.000437
0.000522
0.000437
0.000276
0.000308
0.000384
0.000343
0.000300
0.000246
0.000241
0.000255
0.001751
0.000263
0.001712
0.000979
0.000412
0.000284
0.000159
0.000056
0.000201
0.000233
0.000234
0.000249
0.000269
0.000234
0.000258
0.000248
0.000243
0.000309
0.000352
0.000437
0.000342
0.000413
0.000245
0.000237
0.000242
0.000291
0.000234
0.000248
0.000262
0.000256
0.001815
0.000233
0.000257
0.000264
0.000273
0.001748
0.000403
0.000567
0.000251
0.000057
0.000232
0.000213
0.000246
0.000234
0.000269
0.000243
0.000234
0.000250
0.000265
0.000380
0.000515
0.000360
0.000363
0.000236
0.000240
0.000258
0.000328
0.000436
0.000363
0.000254
0.001778
0.000254
0.000253
0.000249
0.000258
0.000268
0.000245
0.000257
0.000320
0.000338
0.000355
0.000056
0.000252
0.000220
0.000227
0.000266
0.000240
0.000238
0.000260
0.000256
0.000236
0.000256
0.000245
0.000305
0.000308
0.000390
0.000385
0.000290
0.000448
0.000243
0.000245
0.000259
0.000258
0.000260
0.000270
0.000260
0.000274
0.001790
0.000243
0.000258
0.000260
0.000240
0.000208
0.000056
0.000265
0.000384
0.000212
0.000229
0.000237
0.000242
0.000234
0.000255
0.000244
0.000220
0.000241
0.000266
0.000256
0.000414
0.000349
0.000379
0.000289
0.000213
0.000257
0.000251
0.000273
0.000251
0.000252
0.000272
0.000239
0.000283
0.000292
0.001640
0.000256
0.000251
0.000189
0.000056
0.000212
0.000237
0.000252
0.000256
0.000342
0.000382
0.000445
0.000267
0.000213
0.000248
0.000266
0.000227
0.000254
0.000252
0.000261
0.000254
0.000250
0.000252
0.000258
0.000256
0.000270
0.000267
0.000261
0.000219
0.000266
0.000259
0.000274
0.000261
0.000262
0.000262
0.000194
0.000056
0.000225
0.000213
0.000255
0.000272
0.000235
0.000234
0.000250
0.000255
0.000294
0.000223
0.000233
0.000244
0.000253
0.000253
0.000289
0.000239
0.000258
0.000243
0.000301
0.000255
0.000266
0.000331
0.000269
0.000237
0.000282
0.000254
0.000264
0.000249
0.000286
0.000469
0.000669
0.000057
0.000235
0.000275
0.000237
0.000214
0.000263
0.000238
0.000233
0.000250
0.000254
0.000243
0.000269
0.000341
0.000484
0.000509
0.001460
0.000227
0.000491
0.000242
0.000271
0.000432
0.000482
0.000340
0.000228
0.000279
0.000240
0.000274
0.000276
0.000256
0.000329
0.000254
0.000167
0.000056
0.000359
0.000414
0.000332
0.000331
0.000207
0.000283
0.000220
0.000243
0.000248
0.000234
0.000255
0.000253
0.000234
0.000262
0.000373
0.000517
0.000356
0.001805
0.000238
0.000250
0.000340
0.000418
0.000434
0.000310
0.000313
0.000332
0.000289
0.000253
0.000219
0.000267
0.000175
0.000057
0.000192
0.000224
0.000238
0.000308
0.000349
0.000428
0.000353
0.000253
0.000251
0.000216
0.000252
0.000266
0.000270
0.000261
0.000243
0.000262
0.000343
0.000451
0.000322
0.000448
0.000239
0.001745
0.000337
0.000479
0.000489
0.000482
0.000327
0.000238
0.000248
0.000273
0.000446
0.000057
0.000196
0.000272
0.000217
0.000336
0.000484
0.000386
0.000343
0.000225
0.000229
0.000294
0.000240
0.000260
0.000253
0.000292
0.000304
0.000245
0.000222
0.000392
0.000489
0.000327
0.000485
0.001848
0.000250
0.000397
0.000535
0.000372
0.000227
0.000256
0.000292
0.000267
0.000199
0.000056
0.000214
0.000335
0.000360
0.000331
0.000392
0.000328
0.000341
0.000213
0.000237
0.000260
0.000280
0.000220
0.000251
0.000261
0.000261
0.000241
0.000335
0.000345
0.000519
0.000337
0.000332
0.000242
0.000246
0.001714
0.000436
0.000487
0.000697
0.000251
0.000251
0.000293
0.000176
0.000055
0.000196
0.000231
0.000376
0.000211
0.000275
0.000341
0.000430
0.000309
0.000247
0.000534
0.000228
0.000243
0.000257
0.000281
0.000271
0.000261
0.000229
0.000332
0.000472
0.000444
0.000262
0.000226
0.000260
0.000255
0.000256
0.000265
0.000240
0.000257
0.000269
0.000302
0.000186
0.000055
0.000308
0.000342
0.000221
0.000258
0.000251
0.000257
0.000246
0.000301
0.000224
0.000246
0.000280
0.000330
0.000414
0.000395
0.000361
0.000275
0.000241
0.000218
0.000261
0.000266
0.000284
0.000268
0.000237
0.000255
0.000276
0.000309
0.000450
0.000341
0.000356
0.000243
0.000175
0.000055
0.000223
0.000209
0.000284
0.000241
0.000240
0.000266
0.000268
0.000228
0.000492
0.000212
0.000260
0.000264
0.000237
0.000264
0.000269
0.000301
0.000234
0.000383
0.000202
0.000235
0.000256
0.000259
0.000261
0.000266
0.000272
0.000276
0.000249
0.000253
0.000260
0.000497
0.000164
0.000055
0.000210
0.000241
0.000247
0.000288
0.000220
0.000228
0.000371
0.000398
0.000231
0.000244
0.000247
0.000257
0.000233
0.000290
0.000477
0.001727
0.000233
0.000262
0.000285
0.000333
0.000405
0.000374
0.000384
0.000360
0.000392
0.000420
0.000255
0.000244
0.000265
0.000277
0.001391
0.000056
0.000452
0.000312
0.000202
0.000219
0.000239
0.000244
0.000241
0.000250
0.000244
0.000273
0.000246
0.000255
0.000254
0.000241
0.000603
0.001623
0.000232
0.000240
0.000240
0.000264
0.000234
0.000282
0.000370
0.000402
0.000290
0.000325
0.000247
0.000260
0.000253
0.000268
0.000192
0.000056
0.001206
0.000579
0.000298
0.000250
0.000255
0.000220
0.000233
0.000232
0.000488
0.000234
0.000224
0.000256
0.000363
0.000552
0.000337
0.000349
0.000257
0.000239
0.000326
0.000341
0.000279
0.000255
0.000273
0.000254
0.000270
0.000741
0.000408
0.000242
0.000249
0.000272
0.000170
0.000075
0.000195
0.000208
0.000240
0.000252
0.001535
0.000229
0.000225
0.000253
0.000259
0.000230
0.000250
0.000256
0.000240
0.000263
0.000276
0.000302
0.000425
0.000632
0.000274
0.001751
0.000247
0.000293
0.000294
0.000407
0.000605
0.000367
0.000248
0.000247
0.000260
0.000271
0.000204
0.000057
0.000183
0.000252
0.000234
0.000338
0.001234
0.000230
0.000292
0.000228
0.000239
0.000235
0.000243
0.000256
0.000273
0.000268
0.000230
0.000316
0.000454
0.000411
0.000341
0.000237
0.000268
0.000269
0.000247
0.000242
0.000298
0.000246
0.000240
0.000284
0.000270
0.000513
0.000422
0.000056
0.000222
0.000248
0.000236
0.000262
0.000264
0.000236
0.000249
0.000252
0.000289
0.000263
0.001404
0.000239
0.000227
0.000253
0.000245
0.000246
0.000292
0.000256
0.000266
0.000242
0.000267
0.000484
0.000524
0.000321
0.000245
0.000268
0.001757
0.000263
0.000274
0.000326
0.000461
0.000057
0.000219
0.000390
0.000454
0.000505
0.000513
0.000537
0.001497
0.000417
0.000522
0.000650
0.000556
0.000757
0.000444
0.000620
0.000582
0.001873
0.000382
0.000465
0.000397
0.000319
0.000244
0.000256
0.000287
0.000271
0.000252
0.000293
0.000294
0.000280
0.000261
0.000282
0.001368
0.000056
0.000217
0.000232
0.000238
0.000245
0.000254
0.000258
0.000238
0.000241
0.000247
0.000248
0.000245
0.000242
0.000254
0.000263
0.000263
0.000262
0.001808
0.000265
0.000266
0.000251
0.000254
0.000265
0.000271
0.000259
0.000456
0.000395
0.000318
0.000266
0.000271
0.000277
0.000190
0.000057
0.000189
0.001371
0.000327
0.000276
0.000245
0.000238
0.000242
0.000240
0.000233
0.000228
0.000226
0.000250
0.000245
0.000506
0.000359
0.000319
0.000235
0.001819
0.000354
0.000236
0.000242
0.000259
0.000261
0.000272
0.000270
0.000280
0.000266
0.000257
0.000267
0.000351
0.000172
0.000057
0.000195
0.000237
0.000251
0.001443
0.000228
0.000239
0.000242
0.000250
0.000237
0.000270
0.000267
0.000230
0.000247
0.000283
0.000232
0.000259
0.000264
0.000260
0.000267
0.000272
0.000245
0.001772
0.000276
0.001743
0.000277
0.000256
0.000257
0.000274
0.000302
0.000263
0.000176
0.000058
0.000210
0.000237
0.001337
0.000229
0.000260
0.000240
0.000256
0.000257
0.000246
0.000262
0.000244
0.000238
0.000262
0.000259
0.000263
0.000264
0.000254
0.000290
0.000284
0.000244
0.001875
0.000251
0.001800
0.000250
0.000267
0.000274
0.000241
0.000243
0.000256
0.000265
0.000199
0.000057
0.001424
0.000228
0.000248
0.000224
0.000244
0.000254
0.000353
0.000286
0.000245
0.000243
0.000254
0.000263
0.000268
0.000371
0.000356
0.000282
0.000250
0.000276
0.000242
0.000258
0.000270
0.000339
0.000232
0.000256
0.000264
0.000280
0.000273
0.000389
0.000584
0.000364
0.000198
0.000056
0.000227
0.000260
0.000276
0.000275
0.000384
0.000249
0.001663
0.000322
0.000280
0.000273
0.000260
0.000281
0.000247
0.000267
0.000301
0.000310
0.000365
0.000559
0.000368
0.000262
0.000292
0.000279
0.000267
0.000266
0.000308
0.000279
0.000266
0.000257
0.000251
0.000299
0.000440
0.000057
0.000288
0.000427
0.000263
0.000265
0.000247
0.000245
0.000210
0.000249
0.000256
0.000279
0.001485
0.000241
0.000223
0.000248
0.000245
0.000289
0.000286
0.000233
0.000252
0.000272
0.000265
0.000432
0.000481
0.000337
0.000240
0.000285
0.000272
0.000255
0.000240
0.000310
0.000167
0.000057
0.000213
0.000217
0.000343
0.000411
0.000395
0.000236
0.000225
0.000250
0.000249
0.000250
0.000228
0.000255
0.000257
0.000269
0.000240
0.000239
0.000464
0.001143
0.000249
0.000238
0.000281
0.000250
0.000353
0.000425
0.000247
0.000435
0.000466
0.000396
0.000324
0.000254
0.000173
0.000056
0.000221
0.000248
0.000262
0.000262
0.000260
0.000239
0.000402
0.000334
0.000427
0.000299
0.000371
0.000390
0.000393
0.000363
0.000258
0.000238
0.000244
0.000255
0.000433
0.000418
0.001272
0.000228
0.000268
0.000267
0.000240
0.000242
0.000275
0.000325
0.000387
0.000477
0.000224
0.000055
0.000201
0.000230
0.000264
0.000238
0.000239
0.000246
0.000235
0.000273
0.000308
0.000397
0.000417
0.000323
0.000248
0.000241
0.000245
0.000261
0.000241
0.000267
0.000263
0.000270
0.000436
0.000230
0.000376
0.000410
0.000337
0.000249
0.000272
0.000265
0.000251
0.000345
0.000161
0.000056
0.000309
0.000309
0.000286
0.000472
0.000383
0.000354
0.000239
0.000241
0.000247
0.000298
0.000236
0.000254
0.000236
0.000254
0.000241
0.000226
0.000270
0.000386
0.000424
0.000389
0.000242
0.000261
0.000245
0.000246
0.000269
0.000283
0.000265
0.000277
0.000261
0.000271
0.000320
0.000057
0.000292
0.000338
0.000234
0.000267
0.000226
0.000240
0.000254
0.000249
0.000263
0.000260
0.000249
0.000231
0.000305
0.000475
0.000434
0.000298
0.000258
0.000229
0.000257
0.000265
0.000253
0.000270
0.000252
0.000267
0.000286
0.000331
0.000346
0.000632
0.000410
0.000256
0.000166
0.000056
0.000378
0.000218
0.000217
0.000246
0.000252
0.000244
0.000260
0.000232
0.000272
0.000233
0.000233
0.000240
0.000271
0.000227
0.000248
0.000258
0.000257
0.000268
0.000299
0.000234
0.000258
0.000262
0.000261
0.000269
0.000265
0.000234
0.000269
0.000284
0.000246
0.000281
0.000198
0.000055
0.000226
0.000209
0.000245
0.000247
0.000232
0.000254
0.000264
0.000240
0.000258
0.000278
0.000230
0.000230
0.000262
0.000392
0.000255
0.000301
0.000238
0.000267
0.000254
0.000280
0.000270
0.000248
0.000241
0.000243
0.000274
0.000274
0.000246
0.000253
0.000281
0.000260
0.000203
0.000056
0.000212
0.000358
0.000371
0.000281
0.000294
0.000274
0.000246
0.000257
0.000224
0.000245
0.000282
0.000229
0.000246
0.000237
0.000259
0.000285
0.000243
0.000270
0.000243
0.000262
0.000276
0.000267
0.000275
0.000256
0.000292
0.000225
0.000260
0.000272
0.000265
0.000262
0.000203
0.000055
0.000212
0.000226
0.000260
0.000269
0.000266
0.000421
0.000225
0.000265
0.000305
0.000395
0.000493
0.000286
0.000231
0.000245
0.000278
0.000258
0.000236
0.000268
0.000260
0.000271
0.000283
0.000241
0.000259
0.000280
0.000579
0.000435
0.000281
0.000305
0.000256
0.000266
0.000194
0.000057
0.000208
0.000229
0.000247
0.000251
0.000376
0.000598
0.000314
0.000377
0.000209
0.000248
0.000252
0.000259
0.000243
0.000252
0.000254
0.000270
0.000275
0.000248
0.000650
0.000357
0.000309
0.000244
0.000251
0.000284
0.000283
0.000255
0.000262
0.000285
0.000234
0.000328
0.000332
0.000057
0.000277
0.000226
0.000239
0.000243
0.000254
0.000268
0.000212
0.000249
0.000241
0.000265
0.000242
0.000254
0.000244
0.000433
0.000587
0.000337
0.000258
0.000238
0.000259
0.000242
0.000272
0.000290
0.000467
0.000224
0.000262
0.000735
0.000277
0.000477
0.000262
0.000246
0.000191
0.000056
0.000186
0.000259
0.000210
0.000248
0.000258
0.000256
0.000304
0.000788
0.000231
0.000420
0.000224
0.000258
0.000291
0.000258
0.000273
0.000231
0.000237
0.000257
0.000253
0.000396
0.000502
0.000498
0.000367
0.000231
0.000366
0.000379
0.000485
0.000242
0.000266
0.000401
0.000415
0.000055
0.000263
0.000233
0.000436
0.000218
0.000234
0.000257
0.000263
0.000256
0.000233
0.000238
0.000252
0.000420
0.000351
0.000352
0.000246
0.000234
0.000265
0.000243
0.000265
0.000280
0.000293
0.000236
0.000250
0.000270
0.000309
0.000481
0.000490
0.000269
0.000231
0.000270
0.000203
0.000056
0.000230
0.000254
0.000229
0.000248
0.000245
0.000269
0.000334
0.000498
0.000357
0.000272
0.000374
0.000242
0.000229
0.000266
0.000264
0.000234
0.000269
0.000245
0.000274
0.000410
0.000535
0.000287
0.000475
0.000269
0.000391
0.000411
0.000389
0.000266
0.000235
0.000316
0.000433
0.000057
0.000273
0.000248
0.000227
0.000266
0.000273
0.000232
0.000269
0.000226
0.000277
0.000241
0.000236
0.000402
0.000405
0.000372
0.000378
0.000223
0.000265
0.000262
0.000258
0.000243
0.000252
0.000253
0.000275
0.000277
0.000265
0.000335
0.000549
0.000406
0.000245
0.000281
0.000197
0.000055
0.000242
0.000217
0.000280
0.000241
0.000249
0.000332
0.000703
0.000269
0.000523
0.000533
0.000256
0.000224
0.000230
0.000264
0.000243
0.000271
0.000274
0.000277
0.000475
0.000450
0.001479
0.000312
0.000272
0.000279
0.000266
0.000269
0.000383
0.000404
0.000335
0.000339
0.000191
0.000056
0.000223
0.000232
0.000242
0.000263
0.000229
0.000251
0.000312
0.000246
0.000257
0.000311
0.000316
0.000377
0.000259
0.000343
0.000396
0.000347
0.000237
0.000248
0.000274
0.000252
0.000249
0.000251
0.000311
0.000226
0.000323
0.000449
0.000465
0.000231
0.000257
0.000270
0.000188
0.000057
0.000223
0.000252
0.000252
0.000259
0.000250
0.000227
0.000467
0.000212
0.000236
0.000258
0.000241
0.000256
0.000258
0.000251
0.000250
0.000271
0.000263
0.000288
0.000265
0.000241
0.000278
0.000275
0.000282
0.000251
0.000264
0.000278
0.000268
0.000266
0.000262
0.000274
0.000178
0.000056
0.000223
0.000272
0.000270
0.000425
0.000382
0.000244
0.000235
0.000246
0.000260
0.000249
0.000247
0.000256
0.000262
0.000264
0.000237
0.000245
0.000265
0.000245
0.000255
0.000402
0.000444
0.000360
0.000231
0.000276
0.000248
0.000259
0.000267
0.000252
0.000272
0.000278
0.000201
0.000055
0.000250
0.000456
0.000368
0.000210
0.000253
0.000265
0.000397
0.000222
0.000234
0.000279
0.000234
0.000296
0.000343
0.000500
0.001801
0.000260
0.000241
0.000253
0.000276
0.000252
0.000303
0.000487
0.000646
0.000251
0.000226
0.000264
0.000273
0.000429
0.000275
0.000276
0.000174
0.000055
0.000243
0.000356
0.000369
0.000286
0.000496
0.000210
0.000242
0.000258
0.000238
0.000243
0.000259
0.000248
0.000272
0.000292
0.000469
0.000440
0.000221
0.000241
0.000268
0.000251
0.000263
0.000319
0.000242
0.000273
0.000266
0.000447
0.000573
0.000375
0.000435
0.000231
0.000202
0.000056
0.000212
0.000232
0.000253
0.000232
0.000248
0.000248
0.000285
0.000281
0.000338
0.000422
0.000372
0.000337
0.000229
0.000252
0.000265
0.000338
0.000248
0.000235
0.000276
0.000277
0.000233
0.000292
0.000530
0.000332
0.000285
0.000271
0.000243
0.000437
0.000464
0.000284
0.000154
0.000056
0.000198
0.000296
0.000289
0.000421
0.000368
0.000231
0.000219
0.000254
0.000260
0.000267
0.000246
0.000250
0.000236
0.000260
0.000260
0.000344
0.000366
0.000344
0.000400
0.000234
0.000491
0.000224
0.000287
0.000272
0.000301
0.000284
0.000248
0.000270
0.000522
0.000478
0.000181
0.000057
0.000193
0.000224
0.000249
0.000249
0.000244
0.000482
0.000215
0.000248
0.000266
0.000373
0.000438
0.000591
0.000225
0.000234
0.000237
0.000259
0.000252
0.000270
0.000242
0.000244
0.000292
0.000236
0.000384
0.000408
0.000352
0.000400
0.000303
0.000299
0.000326
0.000246
0.000182
0.000055
0.000200
0.000238
0.000260
0.000477
0.000319
0.000293
0.000262
0.000227
0.000243
0.000259
0.000256
0.000253
0.000268
0.000233
0.000257
0.000256
0.000251
0.000242
0.000257
0.000434
0.000403
0.000456
0.000242
0.000243
0.000280
0.000276
0.000259
0.000262
0.000262
0.000266
0.000197
0.000055
0.000299
0.000386
0.000443
0.000245
0.000218
0.000250
0.000321
0.000454
0.000283
0.000219
0.000233
0.000271
0.000265
0.000446
0.000430
0.000295
0.000224
0.000245
0.000251
0.000281
0.000254
0.000257
0.000266
0.000277
0.000256
0.000287
0.000402
0.000439
0.000294
0.000247
0.000184
0.000056
0.000211
0.000239
0.000249
0.000254
0.000251
0.000264
0.000225
0.000272
0.000247
0.000238
0.000265
0.000239
0.000293
0.001430
0.000239
0.000237
0.000267
0.000243
0.000276
0.000279
0.000256
0.000244
0.000277
0.000252
0.000268
0.000281
0.000260
0.000267
0.000259
0.000270
0.000195
0.000055
0.000226
0.000226
0.000256
0.000266
0.000217
0.000261
0.000261
0.000239
0.000227
0.000251
0.000255
0.000262
0.000252
0.000251
0.000252
0.000260
0.000252
0.000255
0.000274
0.000250
0.000258
0.000263
0.000257
0.000242
0.001293
0.000279
0.000594
0.000357
0.000382
0.000242
0.000207
0.000072
0.000190
0.000231
0.000241
0.000251
0.000416
0.000252
0.000221
0.000244
0.000253
0.000424
0.000458
0.000263
0.000248
0.000233
0.000256
0.000259
0.000257
0.000262
0.000246
0.000260
0.000259
0.000256
0.000261
0.000408
0.000528
0.000453
0.000231
0.000252
0.001377
0.000238
0.000189
0.000055
0.000348
0.000423
0.000325
0.000278
0.000224
0.000227
0.000220
0.000249
0.000262
0.000257
0.000247
0.000257
0.000300
0.000270
0.000545
0.000364
0.000342
0.000222
0.000244
0.000264
0.000268
0.000280
0.000251
0.000264
0.000271
0.000253
0.000293
0.000641
0.000344
0.000363
0.000143
0.000056
0.000220
0.000215
0.001262
0.000420
0.000334
0.000456
0.000351
0.000488
0.000270
0.000345
0.000232
0.000225
0.000260
0.000250
0.000248
0.000269
0.000363
0.000476
0.000428
0.000354
0.000247
0.000235
0.000278
0.000481
0.000246
0.000256
0.000253
0.000283
0.000294
0.000560
0.000295
0.000056
0.000391
0.000304
0.000241
0.001392
0.000452
0.000388
0.000310
0.000253
0.000246
0.000242
0.000237
0.000240
0.000245
0.000268
0.000254
0.000255
0.000234
0.000267
0.000415
0.000358
0.000473
0.000240
0.000260
0.000261
0.000258
0.000274
0.000265
0.000244
0.000264
0.000276
0.000251
0.000056
0.000385
0.000337
0.000235
0.000224
0.000250
0.000247
0.000254
0.000244
0.000245
0.000211
0.001418
0.000449
0.000287
0.000241
0.000238
0.000258
0.000267
0.000261
0.000239
0.000306
0.000242
0.000251
0.000263
0.000465
0.000397
0.000424
0.000233
0.000266
0.000279
0.000284
0.000173
0.000056
0.000235
0.000394
0.000234
0.000226
0.000348
0.000455
0.000364
0.000317
0.000446
0.000214
0.000236
0.000253
0.000259
0.000265
0.000254
0.001420
0.000364
0.000295
0.000230
0.000269
0.000299
0.000231
0.000255
0.000248
0.000267
0.000268
0.000494
0.000415
0.000275
0.000272
0.000166
0.000055
0.000200
0.000237
0.000253
0.000238
0.000229
0.000257
0.000244
0.000246
0.000321
0.000359
0.000356
0.000342
0.000244
0.000257
0.000246
0.000266
0.000273
0.000262
0.000268
0.000230
0.000270
0.000272
0.001285
0.000248
0.000275
0.000238
0.000257
0.000268
0.000251
0.000270
0.000183
0.000055
0.000228
0.000410
0.000282
0.000373
0.000264
0.000211
0.000259
0.000291
0.000236
0.000263
0.000242
0.000265
0.000241
0.000252
0.000285
0.000232
0.000264
0.000273
0.000262
0.000244
0.000259
0.000270
0.000268
0.000284
0.000281
0.000273
0.000263
0.000262
0.000267
0.000444
0.001353
0.000055
0.000210
0.000250
0.000225
0.000262
0.000232
0.000258
0.000280
0.000190
0.000257
0.000240
0.000305
0.000231
0.000246
0.000238
0.000278
0.000226
0.001725
0.000267
0.000245
0.000246
0.000243
0.000264
0.000274
0.000256
0.000304
0.000223
0.000269
0.000290
0.000256
0.000260
0.000233
0.000056
0.000349
0.000219
0.001324
0.000240
0.000220
0.000250
0.000248
0.000254
0.000271
0.000246
0.000238
0.000351
0.000396
0.000449
0.000255
0.000227
0.000249
0.000256
0.000261
0.000262
0.000245
0.000277
0.000257
0.000281
0.000280
0.000410
0.000404
0.000305
0.000317
0.000235
0.000195
0.000056
0.000222
0.000239
0.000242
0.000250
0.000278
0.000194
0.000245
0.000267
0.000421
0.001327
0.000264
0.000233
0.000228
0.000267
0.000256
0.000295
0.000233
0.000261
0.000338
0.000399
0.000364
0.000261
0.000246
0.000239
0.000291
0.000268
0.000275
0.000288
0.000267
0.000281
0.000188
0.000055
0.000270
0.000392
0.000381
0.000226
0.000224
0.000229
0.000249
0.000279
0.000261
0.000248
0.000230
0.000256
0.000451
0.000500
0.000496
0.001427
0.000248
0.000265
0.000335
0.000348
0.000482
0.000443
0.000447
0.000396
0.000229
0.000262
0.000284
0.000262
0.000266
0.000270
0.000194
0.000056
0.000228
0.000287
0.000455
0.000452
0.000347
0.000248
0.000237
0.000239
0.000241
0.000270
0.000232
0.000271
0.000274
0.000229
0.000262
0.000285
0.000415
0.000393
0.001394
0.000344
0.000221
0.000254
0.000248
0.000270
0.000468
0.000434
0.000393
0.000246
0.000265
0.000273
0.000186
0.000056
0.000212
0.000237
0.000249
0.000262
0.000226
0.000299
0.000431
0.000440
0.000327
0.000210
0.000241
0.000260
0.000270
0.000294
0.000235
0.000251
0.000265
0.000267
0.000272
0.000229
0.000496
0.000419
0.000329
0.001352
0.000402
0.000245
0.000273
0.000423
0.000473
0.000311
0.000311
0.000057
0.000202
0.000232
0.000242
0.000250
0.000255
0.000253
0.001677
0.000254
0.000215
0.000233
0.000253
0.000251
0.000254
0.000330
0.000325
0.000288
0.000260
0.000380
0.000481
0.000345
0.000314
0.000291
0.000236
0.000241
0.001494
0.000366
0.000392
0.000468
0.000319
0.000298
0.000174
0.000057
0.000192
0.000249
0.000255
0.000258
0.000241
0.000271
0.001695
0.000234
0.000242
0.000264
0.000337
0.000400
0.001442
0.000368
0.000386
0.000254
0.000246
0.000236
0.000281
0.000259
0.001534
0.000538
0.000422
0.000296
0.000250
0.000238
0.000265
0.000281
0.000238
0.000256
0.000198
0.000055
0.000205
0.000244
0.000268
0.000247
0.000261
0.000280
0.000274
0.000252
0.000255
0.000249
0.000253
0.000246
0.000290
0.000241
0.000273
0.001478
0.000279
0.000229
0.000267
0.000283
0.000267
0.000258
0.000422
0.001270
0.000282
0.000244
0.000259
0.000258
0.000398
0.000247
0.000197
0.000055
0.000216
0.000252
0.000223
0.000245
0.000242
0.000230
0.000236
0.001685
0.000267
0.000224
0.000356
0.000282
0.000205
0.000226
0.000252
0.001393
0.000223
0.000268
0.000262
0.000254
0.000274
0.000331
0.000293
0.001297
0.000282
0.000252
0.000242
0.000278
0.001385
0.000274
0.000190
0.000057
0.000232
0.000346
0.000216
0.000240
0.000265
0.000226
0.000289
0.000244
0.000264
0.000249
0.000261
0.000261
0.000261
0.000240
0.000295
0.001531
0.000233
0.000269
0.000246
0.000247
0.000314
0.000257
0.000229
0.001517
0.000365
0.000219
0.000256
0.001284
0.000267
0.000240
0.000197
0.000057
0.000214
0.000387
0.000346
0.000217
0.000225
0.000244
0.000271
0.000249
0.000265
0.000280
0.000252
0.000231
0.000259
0.000290
0.000391
0.001219
0.000232
0.000258
0.000269
0.000268
0.000233
0.000251
0.000240
0.000362
0.001258
0.000246
0.000245
0.000253
0.000258
0.001339
0.000304
0.000056
0.000259
0.000257
0.000222
0.000222
0.000248
0.000255
0.000239
0.000253
0.000299
0.000229
0.000251
0.000262
0.000227
0.000416
0.000323
0.001473
0.000215
0.000256
0.000305
0.000520
0.000296
0.001452
0.000332
0.000246
0.000238
0.000261
0.000246
0.001310
0.000360
0.000433
0.000350
0.000057
0.000232
0.000253
0.000251
0.000258
0.000278
0.000234
0.000266
0.000259
0.000247
0.000264
0.000287
0.000492
0.001334
0.000241
0.000265
0.000269
0.000278
0.000225
0.000236
0.000255
0.000325
0.001250
0.000258
0.000245
0.000252
0.000246
0.001578
0.000326
0.000520
0.000223
0.000184
0.000057
0.000222
0.000218
0.000250
0.000234
0.000256
0.000261
0.000241
0.000258
0.000468
0.000452
0.000262
0.001498
0.000219
0.000234
0.000267
0.000254
0.000258
0.000289
0.001692
0.000252
0.000390
0.000342
0.001285
0.000396
0.000264
0.000325
0.000266
0.000248
0.000266
0.000264
0.000201
0.000056
0.000200
0.000238
0.000318
0.000258
0.000353
0.000558
0.000230
0.000301
0.001456
0.000254
0.000370
0.000259
0.000247
0.000335
0.000349
0.001310
0.000271
0.000245
0.000245
0.000255
0.001537
0.000366
0.000282
0.000275
0.000271
0.000242
0.000444
0.000329
0.000248
0.000250
0.000264
0.000056
0.000256
0.000356
0.000342
0.000265
0.000225
0.001512
0.000230
0.000246
0.000269
0.000267
0.000268
0.000241
0.000329
0.001457
0.000259
0.000248
0.000412
0.001191
0.000301
0.000486
0.000397
0.000244
0.000230
0.000260
0.000297
0.000219
0.000450
0.000233
0.000266
0.000276
0.000220
0.000074
0.000182
0.000353
0.000254
0.000335
0.001331
0.000272
0.000334
0.000229
0.000219
0.000247
0.000256
0.000273
0.001532
0.000272
0.000224
0.000241
0.001409
0.000297
0.000383
0.000436
0.000380
0.000237
0.000249
0.000251
0.000263
0.000297
0.000253
0.000258
0.000265
0.000252
0.000212
0.000056
0.000230
0.000372
0.001463
0.000205
0.000278
0.000303
0.000219
0.000261
0.000245
0.000387
0.001363
0.000222
0.000258
0.000259
0.000258
0.001276
0.000678
0.000312
0.000314
0.000410
0.000306
0.000248
0.000252
0.000270
0.000272
0.000283
0.000276
0.000310
0.000423
0.000434
0.001369
0.000056
0.000227
0.000231
0.000235
0.000231
0.000284
0.000366
0.000505
0.001275
0.000241
0.000250
0.000253
0.001430
0.000532
0.000233
0.000231
0.000411
0.000245
0.000238
0.000269
0.000288
0.000254
0.000250
0.000282
0.000257
0.000250
0.000295
0.000522
0.000392
0.001484
0.000235
0.000189
0.000056
0.000207
0.000250
0.000459
0.001430
0.000308
0.000240
0.000224
0.000262
0.000244
0.000249
0.000254
0.000275
0.000410
0.000477
0.000295
0.000243
0.000243
0.000275
0.000243
0.000314
0.000233
0.000262
0.000253
0.000266
0.000255
0.000382
0.000505
0.000316
0.000334
0.001401
0.000177
0.000057
0.000227
0.000237
0.000267
0.000503
0.000296
0.000310
0.000324
0.000328
0.000291
0.000256
0.000234
0.000266
0.000250
0.000308
0.000235
0.000394
0.000463
0.000336
0.000259
0.000399
0.000268
0.000398
0.000249
0.000251
0.000244
0.000261
0.000253
0.000290
0.000425
0.000458
0.000258
0.000056
0.000211
0.001411
0.000231
0.000333
0.000404
0.000441
0.000397
0.000292
0.000215
0.000237
0.000262
0.000249
0.000278
0.000276
0.000252
0.000242
0.000262
0.001346
0.000278
0.000244
0.000256
0.000278
0.000271
0.000276
0.000267
0.000260
0.000266
0.000253
0.000343
0.000478
0.000259
0.000056
0.000209
0.000242
0.000236
0.001507
0.000337
0.000225
0.000222
0.000256
0.000225
0.000255
0.000244
0.000285
0.000237
0.000252
0.000297
0.000230
0.000245
0.000266
0.000270
0.000242
0.001446
0.000223
0.000241
0.000278
0.000257
0.000250
0.000266
0.000264
0.000276
0.000491
0.000346
0.000056
0.000207
0.000244
0.000430
0.000236
0.000234
0.000259
0.001522
0.000350
0.000298
0.000217
0.000262
0.000367
0.000287
0.000222
0.000228
0.000246
0.000246
0.000280
0.000244
0.000257
0.000493
0.000557
0.001078
0.000262
0.000232
0.000261
0.000264
0.000260
0.000304
0.000230
0.000303
0.000056
0.000283
0.000338
0.000212
0.000233
0.000253
0.000237
0.000244
0.000237
0.000281
0.001636
0.000364
0.000271
0.000245
0.000238
0.000260
0.000248
0.000255
0.000279
0.000260
0.000311
0.000305
0.000481
0.000452
0.001376
0.000227
0.000283
0.000253
0.000265
0.000266
0.000303
0.000489
0.000056
0.000186
0.000263
0.000220
0.000232
0.000225
0.000238
0.000267
0.000277
0.000254
0.001624
0.000314
0.000257
0.000238
0.000262
0.000456
0.000294
0.000618
0.000349
0.000222
0.000242
0.000491
0.000454
0.001315
0.000249
0.000231
0.000253
0.001715
0.000450
0.000615
0.000315
0.000150
0.000057
0.000187
0.000230
0.000238
0.000235
0.000281
0.000222
0.000249
0.000498
0.000736
0.000227
0.000249
0.000210
0.000245
0.000258
0.000279
0.000275
0.000233
0.000238
0.000257
0.000284
0.000281
0.000361
0.001396
0.000210
0.000247
0.000276
0.001895
0.000383
0.000402
0.000331
0.000174
0.000058
0.000220
0.000236
0.000241
0.001568
0.000423
0.000220
0.000236
0.000266
0.000265
0.000264
0.000374
0.000367
0.000370
0.000306
0.000275
0.000519
0.000443
0.001177
0.000241
0.000224
0.000259
0.000255
0.000285
0.000427
0.000566
0.000478
0.000272
0.000253
0.000268
0.000281
0.000192
0.000057
0.000217
0.000223
0.000245
0.001572
0.000222
0.000231
0.000241
0.000251
0.000247
0.000248
0.000255
0.000269
0.000276
0.000268
0.000259
0.000371
0.000480
0.000281
0.001421
0.000209
0.000268
0.000262
0.000259
0.000261
0.000335
0.000484
0.000482
0.000271
0.000295
0.000228
0.000435
0.000057
0.000194
0.000233
0.000271
0.001524
0.000299
0.000222
0.000271
0.000239
0.000250
0.000256
0.000253
0.000280
0.000233
0.000251
0.000468
0.000456
0.001377
0.000752
0.000258
0.000342
0.000243
0.000238
0.000245
0.000275
0.001706
0.000790
0.000218
0.000259
0.000285
0.000289
0.000179
0.000056
0.000206
0.000232
0.000256
0.000244
0.000281
0.000250
0.000209
0.000258
0.000234
0.000260
0.000271
0.000292
0.000241
0.000250
0.000253
0.000250
0.000273
0.001603
0.000749
0.000349
0.000293
0.000234
0.000240
0.000314
0.000249
0.000244
0.000277
0.000253
0.001413
0.000376
0.000298
0.000057
0.000218
0.000213
0.000269
0.000234
0.000256
0.000229
0.000282
0.000226
0.000258
0.000255
0.000291
0.000422
0.000427
0.000323
0.000225
0.000242
0.000263
0.001395
0.000700
0.000498
0.000294
0.000281
0.000225
0.000251
0.000274
0.000253
0.000256
0.000267
0.001479
0.000446
0.000185
0.000055
0.000226
0.000228
0.000246
0.000248
0.000249
0.000247
0.000239
0.000248
0.000273
0.000262
0.000350
0.000441
0.000287
0.000215
0.000243
0.000242
0.000270
0.000256
0.001565
0.000699
0.000446
0.000269
0.000245
0.000239
0.000267
0.000261
0.000268
0.000288
0.000254
0.001365
0.000329
0.000057
0.000216
0.000224
0.000235
0.000259
0.000258
0.000240
0.000248
0.000307
0.000368
0.000446
0.000411
0.000328
0.000365
0.000220
0.000245
0.000254
0.000299
0.000238
0.000264
0.001898
0.000353
0.000226
0.000457
0.000237
0.000256
0.000264
0.000269
0.000257
0.000272
0.000276
0.000366
0.000057
0.000262
0.000260
0.000227
0.000244
0.000270
0.000230
0.000224
0.000241
0.000294
0.000245
0.000228
0.000236
0.000285
0.000454
0.000493
0.000410
0.000226
0.000263
0.000245
0.000251
0.000259
0.000284
0.001468
0.001052
0.000226
0.000253
0.000267
0.000264
0.000271
0.000254
0.000205
0.000056
0.000203
0.001330
0.000292
0.000209
0.000238
0.000252
0.000251
0.000242
0.000242
0.000267
0.000242
0.000259
0.000241
0.000365
0.000436
0.000422
0.000253
0.000261
0.000258
0.000272
0.000275
0.000219
0.000258
0.000272
0.001316
0.000696
0.000296
0.000382
0.000374
0.000405
0.000293
0.000057
0.000210
0.000240
0.000373
0.001307
0.000211
0.000253
0.000227
0.000262
0.000254
0.000255
0.000268
0.000230
0.000281
0.000342
0.000557
0.000308
0.000224
0.000286
0.000319
0.000234
0.000237
0.000266
0.000239
0.000275
0.000283
0.002003
0.000330
0.000248
0.000255
0.000272
0.000196
0.000056
0.000223
0.000236
0.000475
0.000327
0.001302
0.000254
0.000227
0.000231
0.000234
0.000253
0.000240
0.000262
0.000231
0.000255
0.000231
0.000257
0.000273
0.000234
0.000254
0.000256
0.000271
0.000266
0.000310
0.000329
0.000212
0.000268
0.000272
0.001454
0.000261
0.000241
0.000179
0.000056
0.000199
0.000224
0.000253
0.000264
0.000352
0.000370
0.000399
0.000280
0.001573
0.000217
0.000329
0.000488
0.000345
0.000226
0.000431
0.000236
0.000231
0.000261
0.000281
0.000284
0.000262
0.000271
0.000251
0.000272
0.000253
0.000458
0.000344
0.000339
0.001576
0.000229
0.000204
0.000058
0.000256
0.000238
0.000241
0.000251
0.000237
0.000248
0.000264
0.000315
0.000424
0.002014
0.000229
0.000249
0.000252
0.000258
0.000263
0.000262
0.000266
0.000253
0.000346
0.000358
0.000334
0.000481
0.001440
0.000239
0.000249
0.002016
0.000304
0.000252
0.000221
0.001529
0.000158
0.000056
0.000360
0.000433
0.000423
0.000240
0.000281
0.000208
0.000263
0.000295
0.000237
0.000226
0.000249
0.000351
0.000413
0.000331
0.000468
0.000211
0.000229
0.001567
0.000249
0.000570
0.001893
0.000285
0.000223
0.001547
0.002015
0.000729
0.000302
0.000246
0.000268
0.000454
0.000352
0.000056
0.000219
0.000238
0.000277
0.000216
0.001415
0.001741
0.001069
0.000211
0.000235
0.001582
0.001979
0.000216
0.000235
0.000426
0.000354
0.000392
0.000317
0.000492
0.000222
0.000232
0.000242
0.000259
0.000274
0.001591
0.001213
0.001421
0.000292
0.000276
0.000249
0.000298
0.000369
0.000056
0.000249
0.000186
0.000237
0.000239
0.000229
0.000269
0.000227
0.000256
0.000255
0.000241
0.000242
0.000344
0.000466
0.000383
0.000318
0.000237
0.000254
0.000273
0.000267
0.000278
0.000245
0.000263
0.001496
0.000508
0.002094
0.000241
0.000260
0.000330
0.000427
0.000413
0.000196
0.000057
0.000221
0.000333
0.000558
0.000253
0.000214
0.000216
0.000254
0.000234
0.000248
0.000243
0.000242
0.000270
0.000260
0.001604
0.001354
0.001232
0.000271
0.000244
0.000231
0.000277
0.000286
0.000280
0.000248
0.000251
0.002204
0.000255
0.000247
0.000300
0.000321
0.000306
0.000241
0.000057
0.000244
0.000335
0.000547
0.000339
0.000236
0.000228
0.000251
0.000273
0.001903
0.001403
0.000231
0.000324
0.000387
0.000409
0.000267
0.000249
0.000233
0.000263
0.000268
0.000262
0.000256
0.000267
0.000468
0.000242
0.000265
0.000264
0.000257
0.000272
0.000282
0.000244
0.000203
0.000056
0.000196
0.000245
0.000249
0.000238
0.000280
0.000252
0.001537
0.001419
0.001316
0.000246
0.000229
0.000246
0.000263
0.000260
0.000245
0.000277
0.000230
0.002092
0.000254
0.000238
0.000270
0.000258
0.000259
0.000268
0.000278
0.000246
0.000266
0.000255
0.000280
0.000244
0.000185
0.000057
0.000208
0.002685
0.001385
0.000230
0.000303
0.000324
0.000216
0.000282
0.000230
0.000240
0.000252
0.000244
0.000238
0.000244
0.000272
0.000258
0.000266
0.000267
0.000266
0.000252
0.000271
0.000284
0.000274
0.000260
0.000250
0.000259
0.000252
0.000267
0.000264
0.000268
0.000375
0.000057
0.001547
0.000254
0.001238
0.000243
0.000212
0.000238
0.000281
0.000256
0.000228
0.000255
0.000457
0.000306
0.000334
0.000234
0.000239
0.002150
0.000253
0.000233
0.000254
0.000534
0.000399
0.000256
0.000238
0.000247
0.000269
0.000248
0.000268
0.000274
0.000269
0.001612
0.001268
0.000057
0.000205
0.000225
0.000304
0.000389
0.000365
0.000274
0.000218
0.000229
0.000257
0.000252
0.000267
0.000242
0.000227
0.000262
0.000257
0.000243
0.000313
0.000684
0.000301
0.000250
0.000237
0.000265
0.000275
0.000250
0.000250
0.000256
0.000260
0.000277
0.000243
0.000279
0.000403
0.000059
0.001107
0.000332
0.000249
0.000447
0.000284
0.000250
0.000220
0.000250
0.000238
0.002332
0.000323
0.000395
0.000233
0.000366
0.000309
0.000248
0.000240
0.000260
0.000266
0.000227
0.000249
0.000285
0.000698
0.000346
0.001879
0.001247
0.000692
0.000424
0.000248
0.000270
0.000211
0.000056
0.000281
0.000323
0.000248
0.000241
0.000265
0.000209
0.000257
0.000254
0.000251
0.000251
0.000255
0.000226
0.000248
0.000279
0.000349
0.000523
0.001846
0.001447
0.000353
0.000439
0.000429
0.000238
0.000241
0.000261
0.002144
0.000540
0.000395
0.000224
0.000274
0.000302
0.000176
0.000057
0.000190
0.000243
0.000254
0.000264
0.000231
0.000447
0.000313
0.000313
0.000313
0.000217
0.000260
0.000230
0.000286
0.002079
0.000393
0.000373
0.000221
0.000253
0.000282
0.000237
0.000249
0.002489
0.000302
0.000231
0.000254
0.000254
0.000255
0.000270
0.000307
0.000259
0.000190
0.000056
0.000212
0.000384
0.000485
0.000378
0.000262
0.000220
0.000232
0.000251
0.000261
0.000246
0.001968
0.000381
0.000278
0.000269
0.000242
0.000269
0.000263
0.000249
0.002197
0.000463
0.000220
0.000262
0.000268
0.000256
0.000263
0.000247
0.000299
0.000237
0.000270
0.000269
0.000173
0.000057
0.000203
0.000240
0.000248
0.000215
0.000250
0.000262
0.000240
0.000240
0.000252
0.002156
0.000243
0.000276
0.000216
0.000426
0.000230
0.000258
0.000302
0.000260
0.000253
0.000252
0.001963
0.000274
0.000345
0.000361
0.000432
0.000461
0.000247
0.000262
0.000253
0.000257
0.000203
0.000057
0.000204
0.000264
0.000216
0.000253
0.000245
0.000337
0.000223
0.002275
0.000250
0.000240
0.000262
0.000247
0.000243
0.000279
0.000285
0.002116
0.000595
0.000215
0.000259
0.000241
0.000264
0.000260
0.000285
0.000265
0.000261
0.000258
0.000290
0.000249
0.000261
0.000269
0.000196
0.000056
0.001840
0.001415
0.000227
0.000218
0.000241
0.000256
0.000251
0.000286
0.000417
0.000292
0.002195
0.000268
0.000234
0.000266
0.000316
0.000549
0.000324
0.000294
0.000220
0.000256
0.000242
0.000271
0.000266
0.000227
0.000261
0.000259
0.000272
0.000267
0.000300
0.000663
0.000331
0.000057
0.000216
0.000252
0.000240
0.000255
0.000269
0.000243
0.000253
0.000243
0.001531
0.002070
0.000581
0.000274
0.000397
0.000699
0.000360
0.000234
0.000251
0.000250
0.000261
0.000261
0.000261
0.000238
0.000255
0.000268
0.003004
0.000331
0.000251
0.000261
0.000280
0.000256
0.000446
0.000057
0.001915
0.000241
0.000233
0.000231
0.000293
0.000352
0.000438
0.000325
0.000286
0.000223
0.000242
0.000246
0.000255
0.000259
0.000278
0.000240
0.000260
0.000284
0.001827
0.000239
0.000230
0.000255
0.000273
0.000276
0.000276
0.000247
0.001480
0.000329
0.000254
0.000250
0.000184
0.000056
0.000214
0.000222
0.000262
0.000247
0.000230
0.000242
0.000317
0.000365
0.000307
0.000388
0.000239
0.000233
0.000264
0.000331
0.000418
0.000319
0.000230
0.000248
0.000261
0.000387
0.000418
0.000507
0.000221
0.000246
0.000251
0.000258
0.000255
0.000271
0.000277
0.000261
0.000210
0.000057
0.001443
0.000452
0.000211
0.001935
0.000273
0.000451
0.000406
0.000319
0.000229
0.000245
0.000261
0.000249
0.000244
0.000247
0.000262
0.000260
0.000449
0.000253
0.000488
0.000387
0.000314
0.000210
0.000252
0.000273
0.000273
0.000270
0.000263
0.000265
0.000392
0.000413
0.001398
0.000058
0.000186
0.000225
0.002079
0.000325
0.000310
0.000230
0.000275
0.000231
0.000261
0.000261
0.000214
0.000250
0.000264
0.000259
0.000254
0.000357
0.000718
0.001760
0.000223
0.000253
0.000257
0.000263
0.000373
0.000461
0.001562
0.000286
0.000363
0.001923
0.000264
0.000243
0.000200
0.000057
0.000237
0.000212
0.000236
0.000244
0.000226
0.000248
0.000253
0.000289
0.000318
0.000276
0.000371
0.000371
0.000338
0.000296
0.000256
0.000253
0.000256
0.000249
0.000266
0.000249
0.000316
0.000275
0.000265
0.000266
0.000267
0.001511
0.000291
0.000384
0.002072
0.000233
0.000178
0.000057
0.000220
0.000239
0.000239
0.000246
0.000484
0.000211
0.000249
0.000327
0.000360
0.000344
0.000282
0.000214
0.000264
0.000266
0.000267
0.000326
0.000429
0.000427
0.000260
0.000417
0.000506
0.000397
0.001637
0.000228
0.000251
0.001967
0.000337
0.000262
0.000239
0.000293
0.000196
0.000057
0.000196
0.000236
0.000232
0.000245
0.000253
0.000269
0.000250
0.000272
0.000251
0.000263
0.001811
0.000332
0.000369
0.000274
0.000466
0.000367
0.000343
0.001512
0.000253
0.000270
0.002138
0.000536
0.000263
0.000261
0.000239
0.000266
0.000505
0.000220
0.000260
0.000278
0.000198
0.000057
0.000293
0.000376
0.000342
0.000305
0.000213
0.000233
0.000256
0.000252
0.000266
0.000290
0.000226
0.000251
0.000257
0.000271
0.000360
0.000478
0.001283
0.000264
0.000288
0.001987
0.000317
0.000263
0.000219
0.000264
0.000252
0.000285
0.000275
0.000253
0.000249
0.000267
0.000200
0.000057
0.000258
0.000464
0.001951
0.000249
0.000228
0.000252
0.000248
0.000352
0.000402
0.000419
0.001299
0.000381
0.000358
0.002072
0.000228
0.000238
0.000269
0.000266
0.000249
0.000238
0.000289
0.000297
0.000255
0.000305
0.000556
0.000373
0.002241
0.000271
0.000486
0.000499
0.000379
0.000056
0.000203
0.000222
0.000249
0.001965
0.000236
0.000219
0.000252
0.000238
0.000257
0.000242
0.000245
0.000261
0.000257
0.000477
0.000223
0.001489
0.000248
0.000261
0.000256
0.000248
0.000235
0.000258
0.000254
0.000298
0.000339
0.000393
0.000488
0.000242
0.001600
0.000272
0.000157
0.000056
0.000212
0.000218
0.000246
0.000238
0.000260
0.000268
0.000228
0.000246
0.000255
0.000354
0.000394
0.001406
0.000245
0.000222
0.000259
0.000277
0.000224
0.000257
0.000279
0.000510
0.000444
0.000394
0.000223
0.001581
0.000223
0.000264
0.000290
0.000277
0.000263
0.000267
0.000197
0.000057
0.000208
0.000234
0.000284
0.000241
0.000251
0.000264
0.000213
0.000248
0.000278
0.000226
0.000245
0.000261
0.000262
0.001485
0.000361
0.000212
0.000262
0.000247
0.000282
0.000308
0.000364
0.000283
0.000235
0.000268
0.000260
0.000263
0.000256
0.001407
0.000291
0.000233
0.000173
0.000056
0.000207
0.000235
0.000258
0.000263
0.000269
0.000219
0.000246
0.000262
0.000219
0.000288
0.000223
0.000253
0.000227
0.000306
0.000366
0.000382
0.000255
0.000235
0.001627
0.000251
0.000239
0.000254
0.000270
0.000302
0.000393
0.000358
0.000450
0.000271
0.000241
0.001614
0.000163
0.000057
0.000326
0.000330
0.000375
0.000306
0.000230
0.000222
0.000241
0.000276
0.000253
0.000262
0.000223
0.000257
0.001443
0.000329
0.000271
0.000223
0.000241
0.000278
0.000254
0.000264
0.000253
0.000234
0.000260
0.000270
0.000275
0.000368
0.000371
0.000422
0.000286
0.000248
0.000191
0.000058
0.000205
0.000246
0.000395
0.000412
0.000373
0.000244
0.000245
0.000254
0.000249
0.000254
0.000247
0.000224
0.000260
0.000252
0.001244
0.000294
0.000257
0.000235
0.000272
0.000257
0.000243
0.000267
0.000255
0.000259
0.000262
0.000254
0.000297
0.000674
0.000480
0.000230
0.000185
0.000057
0.000210
0.001559
0.000257
0.000324
0.000459
0.000373
0.000217
0.000257
0.000270
0.000245
0.000237
0.000261
0.000270
0.000271
0.000258
0.001528
0.000259
0.000279
0.000265
0.000255
0.000277
0.000235
0.000268
0.000260
0.000264
0.000268
0.000510
0.000265
0.000388
0.000237
0.000180
0.000056
0.000202
0.000254
0.000229
0.001615
0.000437
0.000330
0.000222
0.000242
0.000254
0.000269
0.000280
0.000251
0.000257
0.000253
0.000230
0.000276
0.000474
0.001245
0.000253
0.000227
0.001505
0.000284
0.000580
0.000430
0.000331
0.000222
0.000271
0.000459
0.000249
0.000257
0.000183
0.000057
0.000281
0.000220
0.000245
0.000245
0.000245
0.000277
0.000223
0.000254
0.000251
0.000256
0.000245
0.000258
0.000328
0.000481
0.001658
0.001500
0.000376
0.000489
0.000370
0.000218
0.000233
0.000255
0.000257
0.000263
0.000249
0.000268
0.000256
0.000265
0.001524
0.000330
0.000193
0.000056
0.000220
0.000351
0.000353
0.000333
0.000237
0.000227
0.000247
0.000383
0.000402
0.000360
0.002179
0.000314
0.000719
0.000522
0.000441
0.000246
0.000334
0.000397
0.000325
0.000284
0.000402
0.000254
0.001537
0.000527
0.000220
0.000259
0.000256
0.000254
0.000267
0.000260
0.000201
0.000057
0.000239
0.000244
0.000271
0.000241
0.000259
0.001643
0.000878
0.000999
0.000214
0.000241
0.000261
0.000238
0.000264
0.000262
0.000252
0.000245
0.000255
0.000266
0.000268
0.000277
0.001449
0.000297
0.000255
0.000235
0.000223
0.000265
0.000264
0.000278
0.000267
0.000284
0.001905
0.000057
0.000203
0.000221
0.001546
0.000961
0.000284
0.000364
0.000241
0.000218
0.000248
0.000255
0.000256
0.000243
0.000245
0.001983
0.000469
0.000246
0.000215
0.000264
0.000263
0.000262
0.000191
