0.000097
0.017479
0.004223
0.000319
0.000241
0.000302
0.000324
0.000249
0.000315
0.000278
0.000252
0.000339
0.000578
0.000421
0.000374
0.000350
0.000293
0.000328
0.000354
0.000426
0.000313
0.001931
0.000675
0.000284
0.000249
0.000293
0.000317
0.000310
0.000424
0.000376
0.000523
0.000279
0.000057
0.000231
0.000250
0.000270
0.000300
0.000238
0.000253
0.000285
0.000280
0.000267
0.000306
0.000430
0.000426
0.000278
0.000259
0.000369
0.000349
0.000371
0.000251
0.000237
0.001704
0.000312
0.000266
0.000448
0.000257
0.000266
0.000277
0.000292
0.000293
0.000278
0.000331
0.000488
0.000057
0.000236
0.000249
0.000262
0.000261
0.000249
0.000246
0.000267
0.000253
0.000286
0.001664
0.000237
0.000230
0.000263
0.000272
0.000279
0.000252
0.000263
0.000253
0.000349
0.001802
0.000251
0.000273
0.000439
0.000433
0.000384
0.000258
0.000237
0.000476
0.000505
0.000752
0.000208
0.000056
0.000221
0.000248
0.000250
0.000244
0.000284
0.000279
0.000364
0.000498
0.000369
0.000264
0.000246
0.000246
0.000245
0.000258
0.000252
0.000256
0.000242
0.000270
0.000376
0.000245
0.001672
0.000280
0.000241
0.000416
0.000420
0.000605
0.000760
0.000413
0.000346
0.000234
0.000189
0.000056
0.000214
0.000255
0.000296
0.000208
0.000286
0.000223
0.000269
0.000371
0.001538
0.000226
0.000242
0.000249
0.000258
0.000256
0.000257
0.000302
0.000392
0.000711
0.001345
0.000301
0.000242
0.000417
0.000245
0.000241
0.000255
0.000265
0.000266
0.000268
0.000263
0.000271
0.000196
0.000056
0.000206
0.000249
0.000240
0.000269
0.000234
0.000244
0.000243
0.000253
0.000236
0.000257
0.001624
0.000263
0.000240
0.000245
0.000251
0.000250
0.000243
0.000251
0.000250
0.000277
0.000275
0.001645
0.000280
0.000250
0.000473
0.000238
0.000234
0.000260
0.000285
0.000255
0.000202
0.000056
0.000196
0.000246
0.000245
0.000241
0.000247
0.000244
0.000262
0.000236
0.000263
0.000260
0.000246
0.000261
0.000274
0.000255
0.001624
0.000273
0.000308
0.000224
0.000244
0.000274
0.000270
0.000229
0.000248
0.000266
0.001796
0.000394
0.000469
0.000239
0.000232
0.000279
0.000196
0.000057
0.000197
0.000239
0.000241
0.000271
0.000260
0.000257
0.000279
0.000390
0.000435
0.000407
0.000213
0.000248
0.000249
0.000251
0.001603
0.000474
0.000371
0.000370
0.000318
0.000231
0.000273
0.000295
0.000258
0.001732
0.000502
0.000501
0.000232
0.000234
0.000251
0.000281
0.000167
0.000057
0.000216
0.000229
0.000256
0.000263
0.000411
0.000355
0.000402
0.000268
0.000218
0.000245
0.000254
0.000251
0.000242
0.001703
0.000494
0.000299
0.000229
0.000249
0.000270
0.000291
0.000241
0.000260
0.000275
0.001915
0.000273
0.000394
0.000249
0.000257
0.000262
0.000396
0.000325
0.000057
0.000223
0.000376
0.000364
0.000263
0.000257
0.000247
0.000247
0.000259
0.000240
0.000232
0.000238
0.000255
0.001553
0.000377
0.000282
0.000221
0.000265
0.000254
0.000244
0.000307
0.000277
0.000302
0.000232
0.001810
0.000255
0.000500
0.000235
0.000262
0.000253
0.000272
0.000278
0.000056
0.000280
0.000656
0.000609
0.000211
0.000229
0.000280
0.000228
0.000220
0.000263
0.000250
0.000257
0.001699
0.000247
0.000446
0.000368
0.000215
0.000233
0.000239
0.000248
0.000263
0.000246
0.001863
0.000228
0.000462
0.001870
0.000523
0.000358
0.000246
0.000254
0.000270
0.000180
0.000057
0.000202
0.000232
0.000252
0.000242
0.000258
0.001620
0.000249
0.000235
0.000256
0.000250
0.000242
0.000288
0.000207
0.000255
0.000287
0.000392
0.000637
0.000252
0.000234
0.000272
0.000275
0.000234
0.000244
0.000437
0.000432
0.000282
0.000323
0.000690
0.000298
0.000282
0.000206
0.000056
0.000222
0.000239
0.000249
0.000255
0.000240
0.000236
0.000242
0.000447
0.000368
0.001733
0.000219
0.000237
0.000257
0.000233
0.000256
0.000286
0.000403
0.000497
0.000355
0.000230
0.000261
0.000302
0.000282
0.000252
0.000271
0.000436
0.000342
0.000575
0.000545
0.000388
0.000187
0.000058
0.000196
0.000248
0.000245
0.000239
0.000232
0.000245
0.000244
0.000259
0.000223
0.000295
0.000358
0.000393
0.001414
0.000244
0.000246
0.000243
0.000258
0.000262
0.000235
0.000257
0.000299
0.000458
0.000378
0.000270
0.000269
0.000254
0.000254
0.000271
0.000269
0.000264
0.000378
0.000056
0.000215
0.000251
0.000208
0.000309
0.000500
0.000438
0.000222
0.000263
0.000237
0.000254
0.000261
0.000227
0.000321
0.000225
0.000239
0.000544
0.000519
0.001474
0.000313
0.000199
0.000263
0.000262
0.000256
0.000261
0.000247
0.000419
0.000523
0.000316
0.000410
0.000254
0.000186
0.000056
0.000234
0.000434
0.000238
0.000216
0.000287
0.000216
0.000285
0.000591
0.000301
0.000331
0.000235
0.000276
0.000261
0.000238
0.000527
0.000334
0.000225
0.000247
0.000473
0.001576
0.000267
0.000239
0.000520
0.000252
0.000286
0.000273
0.000252
0.000388
0.000529
0.000351
0.000268
0.000056
0.000212
0.000241
0.000236
0.000243
0.000417
0.000310
0.000287
0.000225
0.000397
0.000511
0.000338
0.000263
0.000232
0.000240
0.000258
0.000270
0.000253
0.000253
0.000235
0.000349
0.000286
0.000312
0.001889
0.000219
0.000257
0.000257
0.000282
0.000347
0.000410
0.000695
0.000461
0.000057
0.000220
0.000337
0.000308
0.000457
0.000346
0.000200
0.000256
0.000311
0.000472
0.000483
0.000218
0.000247
0.000229
0.000270
0.000264
0.000231
0.000258
0.000271
0.000267
0.000255
0.000264
0.000518
0.000664
0.001226
0.000329
0.000431
0.000425
0.000230
0.000420
0.000440
0.000356
0.000057
0.000216
0.000377
0.000286
0.000212
0.000220
0.000249
0.000410
0.000233
0.000242
0.000427
0.000386
0.000441
0.000228
0.000254
0.000263
0.000248
0.000353
0.000405
0.000333
0.000250
0.000249
0.000389
0.000636
0.001667
0.000236
0.000427
0.000317
0.000222
0.000243
0.000478
0.000267
0.000057
0.000192
0.000233
0.000246
0.000256
0.000250
0.000230
0.000254
0.000362
0.000419
0.000248
0.000462
0.000377
0.000284
0.000587
0.000250
0.000239
0.000276
0.000256
0.000231
0.000347
0.000222
0.000255
0.000268
0.000417
0.000519
0.001618
0.000275
0.000227
0.000256
0.000276
0.000187
0.000056
0.000288
0.000548
0.000290
0.000215
0.000244
0.000241
0.000253
0.000243
0.000270
0.000237
0.000222
0.000264
0.000402
0.000505
0.000448
0.000268
0.000230
0.000245
0.000334
0.000390
0.000381
0.000336
0.000363
0.000393
0.000248
0.000259
0.000271
0.000266
0.001790
0.000240
0.000213
0.000056
0.000200
0.000226
0.000260
0.000293
0.000331
0.000542
0.000319
0.000221
0.000282
0.000235
0.000252
0.000249
0.000519
0.000446
0.000486
0.000276
0.000267
0.000258
0.000417
0.000469
0.000359
0.000399
0.000480
0.000462
0.000241
0.000243
0.000263
0.000251
0.000268
0.001713
0.000325
0.000057
0.000297
0.000311
0.000237
0.000218
0.000269
0.000234
0.000236
0.000500
0.000376
0.000306
0.000295
0.000304
0.000315
0.000678
0.000314
0.000227
0.000262
0.000256
0.000249
0.000266
0.000274
0.000256
0.000245
0.000267
0.000308
0.000425
0.000338
0.000354
0.000245
0.000255
0.000196
0.000056
0.000454
0.000302
0.000446
0.000251
0.000207
0.000254
0.000246
0.000256
0.000243
0.000215
0.000254
0.000299
0.000283
0.000279
0.000551
0.000535
0.000300
0.000319
0.000367
0.000346
0.000298
0.000246
0.000241
0.000268
0.001740
0.000264
0.001712
0.000952
0.000461
0.000261
0.000163
0.000057
0.000208
0.000241
0.000238
0.000259
0.000251
0.000234
0.000255
0.000251
0.000241
0.000270
0.000497
0.000374
0.000299
0.000400
0.000255
0.000241
0.000236
0.000289
0.000239
0.000248
0.000251
0.000259
0.001814
0.000238
0.000256
0.000267
0.000293
0.001701
0.000535
0.000366
0.000332
0.000056
0.000212
0.000215
0.000249
0.000227
0.000267
0.000234
0.000243
0.000254
0.000252
0.000398
0.000592
0.000273
0.000375
0.000216
0.000257
0.000252
0.000322
0.000436
0.000364
0.000263
0.001770
0.000262
0.000244
0.000257
0.000274
0.000253
0.000240
0.000256
0.000324
0.000326
0.000350
0.000056
0.000257
0.000238
0.000221
0.000268
0.000239
0.000239
0.000260
0.000254
0.000239
0.000258
0.000241
0.000258
0.000403
0.000409
0.000319
0.000278
0.000460
0.000235
0.000245
0.000258
0.000268
0.000257
0.000271
0.000254
0.000280
0.001780
0.000257
0.000245
0.000264
0.000239
0.000204
0.000056
0.000242
0.000369
0.000200
0.000236
0.000239
0.000225
0.000245
0.000277
0.000230
0.000224
0.000235
0.000257
0.000263
0.000384
0.000369
0.000401
0.000277
0.000220
0.000250
0.000257
0.000264
0.000253
0.000254
0.000272
0.000250
0.000264
0.000351
0.001579
0.000266
0.000248
0.000191
0.000056
0.000198
0.000234
0.000249
0.000258
0.000357
0.000367
0.000423
0.000281
0.000219
0.000251
0.000274
0.000230
0.000241
0.000254
0.000280
0.000237
0.000246
0.000262
0.000253
0.000259
0.000266
0.000270
0.000242
0.000242
0.000241
0.000276
0.000280
0.000262
0.000252
0.000266
0.000191
0.000057
0.000235
0.000206
0.000259
0.000278
0.000231
0.000235
0.000240
0.000267
0.000274
0.000252
0.000236
0.000236
0.000255
0.000252
0.000296
0.000234
0.000253
0.000247
0.000306
0.000247
0.000274
0.000320
0.000275
0.000221
0.000302
0.000246
0.000269
0.000253
0.000277
0.000412
0.000568
0.000057
0.000221
0.000294
0.000225
0.000225
0.000244
0.000247
0.000241
0.000248
0.000259
0.000236
0.000273
0.000308
0.000524
0.000393
0.001559
0.000231
0.000500
0.000227
0.000354
0.000367
0.000501
0.000310
0.000229
0.000283
0.000241
0.000265
0.000276
0.000256
0.000306
0.000277
0.000168
0.000056
0.000432
0.000460
0.000208
0.000333
0.000220
0.000278
0.000223
0.000243
0.000239
0.000236
0.000257
0.000251
0.000243
0.000354
0.000275
0.000555
0.000328
0.001788
0.000243
0.000249
0.000304
0.000506
0.000413
0.000277
0.000325
0.000320
0.000300
0.000239
0.000221
0.000253
0.000200
0.000057
0.000219
0.000231
0.000234
0.000310
0.000350
0.000464
0.000319
0.000249
0.000254
0.000215
0.000253
0.000266
0.000266
0.000264
0.000239
0.000267
0.000297
0.000512
0.000325
0.000433
0.000229
0.001744
0.000328
0.000491
0.000608
0.000372
0.000324
0.000219
0.000266
0.000265
0.000448
0.000056
0.000207
0.000276
0.000214
0.000342
0.000336
0.000503
0.000367
0.000236
0.000221
0.000289
0.000243
0.000263
0.000251
0.000296
0.000307
0.000240
0.000231
0.000374
0.000592
0.000231
0.000499
0.001835
0.000255
0.000517
0.000428
0.000356
0.000229
0.000259
0.000287
0.000260
0.000211
0.000056
0.000211
0.000335
0.000363
0.000347
0.000377
0.000292
0.000372
0.000216
0.000240
0.000262
0.000272
0.000223
0.000251
0.000270
0.000231
0.000255
0.000330
0.000375
0.000521
0.000392
0.000244
0.000248
0.000254
0.001705
0.000519
0.000442
0.000669
0.000228
0.000269
0.000301
0.000167
0.000056
0.000192
0.000237
0.000353
0.000227
0.000296
0.000381
0.000353
0.000331
0.000243
0.000532
0.000221
0.000253
0.000258
0.000277
0.000274
0.000263
0.000221
0.000452
0.000493
0.000309
0.000263
0.000229
0.000255
0.000257
0.000255
0.000269
0.000242
0.000248
0.000269
0.000325
0.000212
0.000057
0.000305
0.000358
0.000229
0.000241
0.000249
0.000255
0.000238
0.000302
0.000234
0.000249
0.000273
0.000333
0.000419
0.000431
0.000322
0.000275
0.000222
0.000234
0.000256
0.000273
0.000276
0.000274
0.000229
0.000261
0.000282
0.000281
0.000431
0.000374
0.000366
0.000234
0.000178
0.000057
0.000209
0.000227
0.000281
0.000240
0.000246
0.000266
0.000261
0.000234
0.000489
0.000213
0.000260
0.000263
0.000236
0.000269
0.000266
0.000297
0.000238
0.000355
0.000217
0.000243
0.000257
0.000264
0.000260
0.000262
0.000276
0.000267
0.000264
0.000250
0.000273
0.000481
0.000168
0.000055
0.000219
0.000232
0.000246
0.000292
0.000210
0.000236
0.000369
0.000402
0.000232
0.000237
0.000256
0.000254
0.000233
0.000281
0.000462
0.001761
0.000221
0.000262
0.000290
0.000336
0.000404
0.000363
0.000367
0.000390
0.000398
0.000393
0.000259
0.000257
0.000264
0.000281
0.001388
0.000057
0.000395
0.000294
0.000278
0.000217
0.000239
0.000253
0.000229
0.000255
0.000242
0.000271
0.000250
0.000255
0.000253
0.000334
0.000535
0.001624
0.000216
0.000222
0.000249
0.000267
0.000231
0.000263
0.000375
0.000396
0.000294
0.000336
0.000225
0.000269
0.000266
0.000271
0.000178
0.000056
0.001226
0.000554
0.000282
0.000257
0.000232
0.000232
0.000226
0.000244
0.000487
0.000232
0.000228
0.000292
0.000347
0.000382
0.000532
0.000297
0.000266
0.000224
0.000335
0.000358
0.000271
0.000251
0.000272
0.000243
0.000265
0.000713
0.000457
0.000221
0.000261
0.000260
0.000175
0.000057
0.000224
0.000209
0.000245
0.000249
0.001571
0.000198
0.000217
0.000256
0.000260
0.000231
0.000253
0.000253
0.000246
0.000262
0.000267
0.000356
0.000378
0.000697
0.000205
0.001756
0.000251
0.000284
0.000278
0.000422
0.000692
0.000294
0.000241
0.000246
0.000260
0.000273
0.000195
0.000056
0.000218
0.000249
0.000236
0.000322
0.001247
0.000261
0.000264
0.000231
0.000243
0.000230
0.000237
0.000261
0.000277
0.000260
0.000232
0.000298
0.000503
0.000409
0.000315
0.000237
0.000259
0.000276
0.000244
0.000236
0.000286
0.000267
0.000246
0.000272
0.000270
0.000415
0.000533
0.000057
0.000228
0.000243
0.000240
0.000258
0.000264
0.000237
0.000245
0.000258
0.000283
0.000261
0.001415
0.000228
0.000233
0.000247
0.000255
0.000235
0.000290
0.000246
0.000284
0.000240
0.000267
0.000481
0.000456
0.000402
0.000229
0.000272
0.001760
0.000263
0.000250
0.000317
0.000631
0.000057
0.000186
0.000403
0.000448
0.000500
0.000518
0.000556
0.001479
0.000414
0.000527
0.000650
0.000553
0.000702
0.000524
0.000592
0.000585
0.001883
0.000372
0.000479
0.000385
0.000322
0.000223
0.000277
0.000286
0.000270
0.000253
0.000296
0.000297
0.000282
0.000253
0.000291
0.001364
0.000057
0.000210
0.000226
0.000245
0.000241
0.000250
0.000265
0.000231
0.000242
0.000249
0.000251
0.000234
0.000245
0.000256
0.000262
0.000266
0.000271
0.001801
0.000261
0.000267
0.000250
0.000267
0.000246
0.000269
0.000345
0.000334
0.000437
0.000330
0.000241
0.000265
0.000274
0.000246
0.000057
0.000202
0.001360
0.000331
0.000281
0.000244
0.000236
0.000247
0.000226
0.000239
0.000249
0.000211
0.000244
0.000257
0.000501
0.000359
0.000310
0.000246
0.001813
0.000357
0.000236
0.000246
0.000276
0.000240
0.000269
0.000275
0.000280
0.000266
0.000257
0.000268
0.000346
0.000180
0.000056
0.000216
0.000241
0.000248
0.001446
0.000209
0.000247
0.000256
0.000242
0.000245
0.000264
0.000266
0.000230
0.000248
0.000279
0.000241
0.000251
0.000263
0.000260
0.000273
0.000258
0.000259
0.001772
0.000275
0.001747
0.000277
0.000251
0.000263
0.000270
0.000262
0.000273
0.000203
0.000056
0.000203
0.000245
0.001337
0.000229
0.000263
0.000241
0.000266
0.000247
0.000246
0.000251
0.000255
0.000237
0.000256
0.000270
0.000256
0.000263
0.000256
0.000293
0.000287
0.000229
0.001879
0.000236
0.001829
0.000238
0.000266
0.000278
0.000221
0.000256
0.000249
0.000278
0.000194
0.000056
0.001441
0.000223
0.000253
0.000231
0.000238
0.000235
0.000376
0.000283
0.000243
0.000246
0.000252
0.000259
0.000235
0.000393
0.000366
0.000285
0.000252
0.000270
0.000257
0.000265
0.000257
0.000333
0.000233
0.000256
0.000270
0.000271
0.000274
0.000331
0.000640
0.000368
0.000198
0.000056
0.000202
0.000250
0.000269
0.000302
0.000355
0.000260
0.001714
0.000285
0.000280
0.000269
0.000256
0.000269
0.000273
0.000261
0.000302
0.000311
0.000352
0.000620
0.000317
0.000260
0.000290
0.000288
0.000263
0.000267
0.000307
0.000278
0.000271
0.000243
0.000257
0.000334
0.000411
0.000059
0.000268
0.000466
0.000261
0.000264
0.000254
0.000217
0.000224
0.000254
0.000257
0.001457
0.000326
0.000212
0.000225
0.000253
0.000242
0.000290
0.000282
0.000238
0.000256
0.000263
0.000280
0.000327
0.000571
0.000345
0.000236
0.000290
0.000270
0.000258
0.000226
0.000318
0.000172
0.000056
0.000195
0.000242
0.000339
0.000463
0.000326
0.000259
0.000223
0.000247
0.000252
0.000248
0.000240
0.000249
0.000257
0.000265
0.000239
0.000236
0.000375
0.001240
0.000245
0.000247
0.000274
0.000246
0.000354
0.000428
0.000241
0.000334
0.000658
0.000410
0.000240
0.000232
0.000180
0.000057
0.000201
0.000250
0.000261
0.000258
0.000253
0.000242
0.000365
0.000413
0.000439
0.000255
0.000354
0.000394
0.000398
0.000360
0.000254
0.000242
0.000242
0.000257
0.000415
0.000443
0.001273
0.000219
0.000275
0.000268
0.000238
0.000242
0.000256
0.000379
0.000406
0.000377
0.000254
0.000056
0.000205
0.000235
0.000253
0.000244
0.000240
0.000249
0.000232
0.000270
0.000305
0.000328
0.000480
0.000341
0.000240
0.000242
0.000245
0.000260
0.000253
0.000257
0.000266
0.000270
0.000441
0.000265
0.000327
0.000465
0.000282
0.000252
0.000285
0.000258
0.000249
0.000340
0.000159
0.000056
0.000317
0.000313
0.000288
0.000508
0.000334
0.000367
0.000240
0.000239
0.000254
0.000295
0.000231
0.000262
0.000233
0.000256
0.000243
0.000226
0.000262
0.000627
0.000305
0.000272
0.000247
0.000256
0.000244
0.000244
0.000269
0.000284
0.000265
0.000272
0.000263
0.000273
0.000257
0.000056
0.000335
0.000300
0.000238
0.000270
0.000219
0.000250
0.000244
0.000253
0.000284
0.000235
0.000253
0.000237
0.000292
0.000492
0.000429
0.000289
0.000250
0.000238
0.000255
0.000272
0.000248
0.000260
0.000261
0.000270
0.000267
0.000424
0.000324
0.000590
0.000391
0.000264
0.000167
0.000056
0.000386
0.000220
0.000214
0.000243
0.000250
0.000245
0.000237
0.000254
0.000259
0.000251
0.000223
0.000289
0.000237
0.000220
0.000253
0.000251
0.000253
0.000266
0.000296
0.000244
0.000259
0.000254
0.000263
0.000267
0.000261
0.000239
0.000266
0.000275
0.000259
0.000293
0.000185
0.000057
0.000205
0.000232
0.000255
0.000238
0.000236
0.000256
0.000258
0.000242
0.000257
0.000279
0.000227
0.000235
0.000263
0.000390
0.000258
0.000294
0.000242
0.000268
0.000253
0.000280
0.000270
0.000239
0.000242
0.000254
0.000275
0.000267
0.000255
0.000248
0.000290
0.000242
0.000210
0.000056
0.000212
0.000365
0.000366
0.000278
0.000301
0.000250
0.000269
0.000255
0.000223
0.000260
0.000268
0.000235
0.000244
0.000238
0.000259
0.000281
0.000243
0.000269
0.000239
0.000264
0.000281
0.000258
0.000277
0.000258
0.000289
0.000247
0.000257
0.000261
0.000270
0.000261
0.000195
0.000055
0.000217
0.000234
0.000266
0.000260
0.000252
0.000449
0.000210
0.000272
0.000246
0.000564
0.000375
0.000295
0.000235
0.000234
0.000278
0.000264
0.000235
0.000276
0.000252
0.000269
0.000266
0.000253
0.000259
0.000311
0.000523
0.000485
0.000266
0.000298
0.000259
0.000264
0.000194
0.000055
0.000205
0.000222
0.000247
0.000250
0.000441
0.000506
0.000344
0.000376
0.000211
0.000253
0.000243
0.000257
0.000246
0.000254
0.000257
0.000273
0.000270
0.000235
0.000659
0.000357
0.000315
0.000235
0.000260
0.000286
0.000279
0.000252
0.000267
0.000282
0.000233
0.000324
0.000302
0.000058
0.000289
0.000233
0.000236
0.000241
0.000255
0.000262
0.000215
0.000252
0.000243
0.000259
0.000241
0.000252
0.000269
0.000359
0.000600
0.000380
0.000231
0.000260
0.000256
0.000241
0.000271
0.000293
0.000469
0.000218
0.000267
0.000602
0.000416
0.000469
0.000263
0.000250
0.000188
0.000056
0.000215
0.000233
0.000244
0.000243
0.000255
0.000256
0.000311
0.000510
0.000516
0.000414
0.000219
0.000260
0.000275
0.000279
0.000253
0.000250
0.000235
0.000249
0.000267
0.000413
0.000323
0.000643
0.000363
0.000247
0.000362
0.000384
0.000486
0.000240
0.000260
0.000305
0.000503
0.000056
0.000177
0.000229
0.000436
0.000219
0.000234
0.000253
0.000262
0.000260
0.000234
0.000240
0.000275
0.000394
0.000349
0.000395
0.000199
0.000237
0.000267
0.000251
0.000262
0.000275
0.000294
0.000232
0.000251
0.000273
0.000302
0.000537
0.000444
0.000244
0.000256
0.000264
0.000195
0.000056
0.000206
0.000251
0.000234
0.000244
0.000247
0.000337
0.000329
0.000419
0.000374
0.000265
0.000380
0.000227
0.000247
0.000264
0.000253
0.000243
0.000260
0.000255
0.000314
0.000391
0.000470
0.000327
0.000478
0.000269
0.000382
0.000421
0.000381
0.000252
0.000254
0.000347
0.000353
0.000056
0.000272
0.000271
0.000225
0.000257
0.000286
0.000229
0.000271
0.000223
0.000271
0.000241
0.000235
0.000300
0.000507
0.000392
0.000356
0.000228
0.000264
0.000266
0.000265
0.000233
0.000255
0.000249
0.000268
0.000274
0.000277
0.000450
0.000410
0.000429
0.000246
0.000277
0.000195
0.000055
0.000203
0.000246
0.000274
0.000243
0.000243
0.000338
0.000501
0.000464
0.000539
0.000527
0.000246
0.000236
0.000232
0.000258
0.000246
0.000265
0.000279
0.000275
0.000490
0.000508
0.001415
0.000304
0.000275
0.000258
0.000285
0.000259
0.000397
0.000412
0.000308
0.000359
0.000179
0.000056
0.000206
0.000235
0.000244
0.000259
0.000232
0.000250
0.000303
0.000228
0.000244
0.000322
0.000328
0.000383
0.000275
0.000329
0.000396
0.000350
0.000248
0.000246
0.000269
0.000257
0.000243
0.000246
0.000314
0.000220
0.000326
0.000451
0.000451
0.000245
0.000255
0.000269
0.000191
0.000056
0.000206
0.000253
0.000256
0.000251
0.000239
0.000240
0.000471
0.000216
0.000235
0.000249
0.000250
0.000251
0.000261
0.000258
0.000249
0.000268
0.000259
0.000294
0.000257
0.000249
0.000275
0.000275
0.000283
0.000256
0.000255
0.000276
0.000269
0.000268
0.000261
0.000275
0.000173
0.000055
0.000221
0.000251
0.000324
0.000396
0.000363
0.000255
0.000238
0.000246
0.000264
0.000247
0.000254
0.000249
0.000265
0.000258
0.000234
0.000245
0.000267
0.000249
0.000305
0.000372
0.000423
0.000361
0.000225
0.000268
0.000265
0.000253
0.000266
0.000252
0.000275
0.000272
0.000207
0.000056
0.000344
0.000410
0.000412
0.000207
0.000250
0.000268
0.000404
0.000222
0.000228
0.000257
0.000251
0.000292
0.000352
0.000503
0.001803
0.000252
0.000244
0.000252
0.000284
0.000237
0.000350
0.000512
0.000538
0.000298
0.000251
0.000239
0.000269
0.000431
0.000276
0.000278
0.000167
0.000056
0.000230
0.000367
0.000305
0.000335
0.000493
0.000211
0.000247
0.000236
0.000271
0.000228
0.000259
0.000246
0.000263
0.000315
0.000446
0.000436
0.000227
0.000244
0.000262
0.000259
0.000263
0.000314
0.000241
0.000275
0.000278
0.000489
0.000468
0.000425
0.000437
0.000230
0.000205
0.000057
0.000225
0.000231
0.000255
0.000235
0.000244
0.000254
0.000267
0.000292
0.000330
0.000318
0.000635
0.000182
0.000248
0.000241
0.000263
0.000287
0.000297
0.000238
0.000276
0.000272
0.000235
0.000309
0.000476
0.000374
0.000270
0.000258
0.000265
0.000445
0.000409
0.000300
0.000186
0.000056
0.000191
0.000237
0.000335
0.000427
0.000375
0.000230
0.000218
0.000266
0.000250
0.000267
0.000255
0.000250
0.000231
0.000255
0.000255
0.000305
0.000490
0.000255
0.000302
0.000341
0.000498
0.000220
0.000288
0.000267
0.000302
0.000286
0.000247
0.000279
0.000458
0.000444
0.000267
0.000056
0.000205
0.000224
0.000252
0.000247
0.000246
0.000479
0.000216
0.000249
0.000270
0.000290
0.000538
0.000581
0.000211
0.000240
0.000237
0.000256
0.000253
0.000275
0.000234
0.000253
0.000289
0.000237
0.000371
0.000399
0.000397
0.000370
0.000311
0.000295
0.000325
0.000249
0.000182
0.000056
0.000227
0.000238
0.000254
0.000473
0.000357
0.000260
0.000268
0.000247
0.000225
0.000259
0.000266
0.000241
0.000270
0.000245
0.000239
0.000262
0.000247
0.000245
0.000269
0.000397
0.000447
0.000446
0.000233
0.000240
0.000295
0.000255
0.000267
0.000254
0.000264
0.000271
0.000193
0.000055
0.000278
0.000453
0.000378
0.000234
0.000227
0.000257
0.000311
0.000451
0.000291
0.000222
0.000234
0.000271
0.000262
0.000438
0.000453
0.000277
0.000241
0.000228
0.000255
0.000283
0.000256
0.000256
0.000268
0.000274
0.000266
0.000300
0.000383
0.000454
0.000281
0.000237
0.000194
0.000056
0.000236
0.000241
0.000245
0.000257
0.000246
0.000266
0.000233
0.000269
0.000246
0.000238
0.000268
0.000230
0.000296
0.001433
0.000225
0.000248
0.000265
0.000248
0.000273
0.000275
0.000262
0.000240
0.000275
0.000255
0.000267
0.000267
0.000268
0.000274
0.000270
0.000261
0.000188
0.000056
0.000198
0.000224
0.000256
0.000266
0.000219
0.000242
0.000263
0.000258
0.000226
0.000250
0.000246
0.000272
0.000267
0.000234
0.000253
0.000265
0.000249
0.000258
0.000273
0.000252
0.000253
0.000264
0.000246
0.000251
0.001292
0.000276
0.000579
0.000462
0.000299
0.000245
0.000192
0.000056
0.000208
0.000234
0.000238
0.000251
0.000408
0.000247
0.000243
0.000236
0.000257
0.000356
0.000509
0.000305
0.000215
0.000240
0.000255
0.000264
0.000251
0.000266
0.000249
0.000273
0.000241
0.000258
0.000273
0.000412
0.000518
0.000450
0.000225
0.000259
0.001383
0.000228
0.000190
0.000056
0.000301
0.000417
0.000322
0.000269
0.000235
0.000222
0.000230
0.000246
0.000260
0.000258
0.000243
0.000266
0.000294
0.000317
0.000513
0.000361
0.000335
0.000221
0.000248
0.000253
0.000267
0.000286
0.000251
0.000265
0.000280
0.000248
0.000383
0.000491
0.000423
0.000320
0.000159
0.000056
0.000207
0.000222
0.001275
0.000414
0.000265
0.000505
0.000404
0.000450
0.000264
0.000344
0.000219
0.000240
0.000260
0.000252
0.000246
0.000264
0.000367
0.000490
0.000385
0.000361
0.000268
0.000240
0.000263
0.000496
0.000229
0.000268
0.000260
0.000279
0.000314
0.000540
0.000295
0.000056
0.000375
0.000307
0.000241
0.001404
0.000403
0.000473
0.000286
0.000232
0.000245
0.000250
0.000233
0.000240
0.000240
0.000268
0.000252
0.000264
0.000236
0.000325
0.000419
0.000459
0.000304
0.000249
0.000257
0.000259
0.000259
0.000274
0.000270
0.000243
0.000259
0.000280
0.000198
0.000058
0.000367
0.000340
0.000213
0.000246
0.000252
0.000246
0.000262
0.000236
0.000234
0.000242
0.001376
0.000483
0.000265
0.000252
0.000232
0.000257
0.000277
0.000257
0.000238
0.000306
0.000245
0.000246
0.000271
0.000425
0.000571
0.000296
0.000224
0.000276
0.000266
0.000283
0.000178
0.000056
0.000192
0.000417
0.000219
0.000235
0.000394
0.000427
0.000451
0.000207
0.000455
0.000211
0.000234
0.000253
0.000263
0.000263
0.000253
0.001491
0.000293
0.000295
0.000230
0.000270
0.000291
0.000231
0.000256
0.000253
0.000266
0.000261
0.000469
0.000436
0.000287
0.000264
0.000167
0.000056
0.000224
0.000227
0.000260
0.000237
0.000230
0.000258
0.000242
0.000249
0.000275
0.000389
0.000493
0.000242
0.000215
0.000256
0.000245
0.000275
0.000274
0.000258
0.000269
0.000226
0.000264
0.000361
0.001200
0.000243
0.000279
0.000236
0.000276
0.000254
0.000260
0.000263
0.000186
0.000056
0.000234
0.000329
0.000365
0.000342
0.000295
0.000205
0.000257
0.000288
0.000240
0.000260
0.000239
0.000268
0.000238
0.000271
0.000256
0.000246
0.000262
0.000271
0.000265
0.000247
0.000257
0.000268
0.000268
0.000285
0.000286
0.000267
0.000269
0.000261
0.000258
0.000449
0.001356
0.000056
0.000190
0.000249
0.000222
0.000265
0.000230
0.000261
0.000246
0.000239
0.000235
0.000253
0.000301
0.000233
0.000244
0.000238
0.000281
0.000221
0.001723
0.000268
0.000235
0.000260
0.000252
0.000256
0.000277
0.000254
0.000296
0.000233
0.000271
0.000275
0.000269
0.000262
0.000220
0.000055
0.000272
0.000367
0.001275
0.000225
0.000232
0.000251
0.000256
0.000246
0.000272
0.000244
0.000236
0.000363
0.000418
0.000415
0.000252
0.000240
0.000259
0.000243
0.000260
0.000266
0.000240
0.000279
0.000259
0.000285
0.000259
0.000409
0.000355
0.000363
0.000324
0.000234
0.000193
0.000056
0.000237
0.000240
0.000243
0.000246
0.000279
0.000201
0.000237
0.000322
0.000356
0.001349
0.000253
0.000215
0.000246
0.000271
0.000253
0.000294
0.000234
0.000247
0.000325
0.000446
0.000331
0.000268
0.000243
0.000247
0.000294
0.000264
0.000264
0.000298
0.000267
0.000274
0.000195
0.000056
0.000232
0.000449
0.000381
0.000213
0.000237
0.000237
0.000250
0.000268
0.000267
0.000247
0.000235
0.000249
0.000448
0.000579
0.000387
0.001459
0.000245
0.000286
0.000334
0.000347
0.000453
0.000422
0.000581
0.000289
0.000234
0.000264
0.000267
0.000267
0.000282
0.000256
0.000200
0.000058
0.000201
0.000257
0.000455
0.000430
0.000398
0.000233
0.000253
0.000236
0.000258
0.000254
0.000234
0.000271
0.000276
0.000226
0.000267
0.000302
0.000336
0.000457
0.001408
0.000319
0.000221
0.000261
0.000243
0.000271
0.000437
0.000489
0.000372
0.000242
0.000266
0.000273
0.000191
0.000056
0.000207
0.000244
0.000243
0.000268
0.000229
0.000295
0.000421
0.000445
0.000325
0.000218
0.000239
0.000260
0.000272
0.000286
0.000235
0.000256
0.000261
0.000258
0.000284
0.000356
0.000386
0.000454
0.000277
0.001388
0.000368
0.000236
0.000272
0.000503
0.000478
0.000228
0.000313
0.000056
0.000195
0.000234
0.000244
0.000246
0.000272
0.000236
0.001676
0.000253
0.000223
0.000231
0.000254
0.000247
0.000256
0.000324
0.000328
0.000281
0.000271
0.000344
0.000450
0.000413
0.000312
0.000293
0.000226
0.000248
0.001497
0.000345
0.000441
0.000411
0.000344
0.000299
0.000169
0.000056
0.000211
0.000245
0.000256
0.000259
0.000241
0.000270
0.001697
0.000244
0.000232
0.000269
0.000325
0.000401
0.001455
0.000371
0.000381
0.000245
0.000247
0.000240
0.000269
0.000271
0.001617
0.000515
0.000354
0.000297
0.000229
0.000265
0.000262
0.000283
0.000246
0.000249
0.000199
0.000057
0.000196
0.000247
0.000260
0.000243
0.000265
0.000304
0.000248
0.000263
0.000246
0.000252
0.000251
0.000251
0.000290
0.000242
0.000270
0.001475
0.000283
0.000232
0.000265
0.000279
0.000269
0.000260
0.000420
0.001276
0.000273
0.000241
0.000269
0.000253
0.000399
0.000239
0.000202
0.000056
0.000215
0.000250
0.000215
0.000250
0.000237
0.000234
0.000233
0.001686
0.000253
0.000233
0.000356
0.000284
0.000204
0.000227
0.000256
0.001378
0.000245
0.000261
0.000263
0.000247
0.000264
0.000347
0.000288
0.001305
0.000295
0.000230
0.000248
0.000276
0.001383
0.000274
0.000188
0.000056
0.000387
0.000205
0.000219
0.000229
0.000269
0.000225
0.000286
0.000250
0.000259
0.000249
0.000260
0.000262
0.000261
0.000237
0.000314
0.001514
0.000235
0.000266
0.000251
0.000249
0.000306
0.000240
0.000248
0.001507
0.000352
0.000238
0.000266
0.001271
0.000264
0.000254
0.000228
0.000056
0.000213
0.000439
0.000301
0.000215
0.000234
0.000235
0.000273
0.000248
0.000270
0.000270
0.000236
0.000253
0.000262
0.000253
0.000430
0.001218
0.000239
0.000253
0.000266
0.000273
0.000232
0.000239
0.000254
0.000357
0.001255
0.000251
0.000247
0.000255
0.000248
0.001340
0.000346
0.000055
0.000286
0.000318
0.000197
0.000233
0.000236
0.000264
0.000237
0.000251
0.000299
0.000230
0.000244
0.000248
0.000248
0.000334
0.000439
0.001436
0.000221
0.000251
0.000309
0.000511
0.000326
0.001457
0.000307
0.000242
0.000236
0.000254
0.000258
0.001298
0.000314
0.000526
0.000332
0.000058
0.000194
0.000250
0.000254
0.000255
0.000280
0.000232
0.000269
0.000264
0.000247
0.000258
0.000407
0.000440
0.001264
0.000236
0.000273
0.000269
0.000280
0.000222
0.000244
0.000238
0.000333
0.001254
0.000263
0.000238
0.000254
0.000252
0.001594
0.000331
0.000483
0.000228
0.000197
0.000057
0.000191
0.000233
0.000248
0.000235
0.000258
0.000263
0.000241
0.000273
0.000422
0.000475
0.000265
0.001494
0.000224
0.000234
0.000264
0.000250
0.000267
0.000289
0.001697
0.000241
0.000384
0.000346
0.001252
0.000410
0.000290
0.000322
0.000265
0.000264
0.000254
0.000270
0.000189
0.000056
0.000219
0.000239
0.000317
0.000248
0.000297
0.000669
0.000188
0.000291
0.001472
0.000226
0.000390
0.000258
0.000233
0.000340
0.000379
0.001298
0.000260
0.000243
0.000244
0.000259
0.001519
0.000395
0.000277
0.000283
0.000256
0.000239
0.000452
0.000336
0.000240
0.000249
0.000269
0.000056
0.000258
0.000385
0.000308
0.000273
0.000225
0.001511
0.000223
0.000249
0.000270
0.000266
0.000270
0.000237
0.000373
0.001424
0.000249
0.000232
0.000430
0.001187
0.000319
0.000473
0.000389
0.000249
0.000251
0.000239
0.000294
0.000225
0.000457
0.000223
0.000266
0.000282
0.000197
0.000056
0.000227
0.000226
0.000378
0.000398
0.001276
0.000273
0.000336
0.000224
0.000228
0.000242
0.000252
0.000283
0.001531
0.000265
0.000224
0.000255
0.001372
0.000251
0.000463
0.000397
0.000417
0.000224
0.000245
0.000253
0.000272
0.000282
0.000259
0.000260
0.000269
0.000252
0.000199
0.000056
0.000273
0.000380
0.001415
0.000208
0.000276
0.000302
0.000219
0.000244
0.000267
0.000446
0.001323
0.000213
0.000265
0.000262
0.000256
0.001350
0.000653
0.000243
0.000327
0.000410
0.000302
0.000249
0.000265
0.000263
0.000268
0.000293
0.000270
0.000300
0.000501
0.000365
0.001373
0.000056
0.000208
0.000243
0.000235
0.000232
0.000252
0.000406
0.000516
0.001263
0.000245
0.000238
0.000245
0.001401
0.000446
0.000366
0.000214
0.000434
0.000225
0.000238
0.000271
0.000284
0.000252
0.000256
0.000280
0.000261
0.000251
0.000311
0.000387
0.000501
0.001489
0.000237
0.000191
0.000055
0.000201
0.000249
0.000423
0.001465
0.000305
0.000255
0.000213
0.000254
0.000249
0.000253
0.000252
0.000273
0.000361
0.000579
0.000236
0.000242
0.000255
0.000273
0.000243
0.000301
0.000234
0.000275
0.000243
0.000272
0.000267
0.000377
0.000518
0.000288
0.000340
0.001404
0.000174
0.000057
0.000204
0.000240
0.000364
0.000377
0.000324
0.000305
0.000323
0.000328
0.000298
0.000254
0.000237
0.000260
0.000273
0.000290
0.000234
0.000309
0.000528
0.000335
0.000284
0.000395
0.000270
0.000402
0.000249
0.000229
0.000259
0.000261
0.000250
0.000291
0.000293
0.000591
0.000253
0.000057
0.000199
0.001409
0.000223
0.000341
0.000405
0.000465
0.000402
0.000257
0.000222
0.000232
0.000270
0.000243
0.000285
0.000272
0.000241
0.000254
0.000260
0.001293
0.000330
0.000251
0.000256
0.000274
0.000266
0.000283
0.000264
0.000254
0.000273
0.000251
0.000409
0.000355
0.000402
0.000057
0.000205
0.000235
0.000246
0.001497
0.000316
0.000244
0.000225
0.000246
0.000227
0.000257
0.000248
0.000282
0.000241
0.000249
0.000294
0.000232
0.000245
0.000265
0.000258
0.000265
0.001429
0.000226
0.000248
0.000280
0.000252
0.000245
0.000273
0.000259
0.000277
0.000487
0.000348
0.000057
0.000218
0.000231
0.000402
0.000281
0.000233
0.000259
0.001526
0.000346
0.000297
0.000221
0.000261
0.000324
0.000323
0.000223
0.000231
0.000253
0.000248
0.000256
0.000260
0.000257
0.000515
0.000462
0.001138
0.000278
0.000236
0.000258
0.000265
0.000254
0.000307
0.000228
0.000340
0.000056
0.000342
0.000271
0.000220
0.000244
0.000250
0.000240
0.000242
0.000229
0.000285
0.001646
0.000382
0.000240
0.000243
0.000241
0.000261
0.000243
0.000264
0.000268
0.000284
0.000312
0.000286
0.000500
0.000449
0.001357
0.000230
0.000279
0.000253
0.000260
0.000285
0.000395
0.000313
0.000056
0.000272
0.000267
0.000220
0.000232
0.000220
0.000244
0.000265
0.000280
0.000254
0.001580
0.000355
0.000257
0.000240
0.000257
0.000462
0.000253
0.000555
0.000371
0.000265
0.000270
0.000486
0.000508
0.001258
0.000252
0.000244
0.000253
0.001715
0.000457
0.000605
0.000318
0.000145
0.000056
0.000188
0.000233
0.000242
0.000234
0.000280
0.000225
0.000246
0.000497
0.000482
0.000437
0.000284
0.000214
0.000249
0.000260
0.000280
0.000274
0.000232
0.000263
0.000233
0.000283
0.000249
0.000431
0.001341
0.000228
0.000255
0.000268
0.001978
0.000301
0.000399
0.000334
0.000157
0.000056
0.000246
0.000241
0.000244
0.001549
0.000432
0.000219
0.000235
0.000264
0.000251
0.000275
0.000376
0.000366
0.000369
0.000274
0.000287
0.000529
0.000406
0.001186
0.000277
0.000238
0.000253
0.000257
0.000278
0.000403
0.000650
0.000417
0.000264
0.000267
0.000267
0.000279
0.000191
0.000056
0.000198
0.000235
0.000240
0.001599
0.000202
0.000226
0.000238
0.000256
0.000238
0.000254
0.000254
0.000269
0.000269
0.000282
0.000277
0.000422
0.000446
0.000251
0.001403
0.000227
0.000265
0.000256
0.000261
0.000343
0.000264
0.000504
0.000455
0.000261
0.000293
0.000232
0.000446
0.000056
0.000219
0.000241
0.000264
0.001536
0.000290
0.000219
0.000271
0.000242
0.000252
0.000256
0.000254
0.000274
0.000240
0.000286
0.000290
0.000617
0.001359
0.000752
0.000253
0.000338
0.000248
0.000241
0.000245
0.000279
0.001681
0.000796
0.000231
0.000268
0.000280
0.000284
0.000181
0.000056
0.000198
0.000237
0.000250
0.000246
0.000283
0.000248
0.000211
0.000258
0.000240
0.000247
0.000278
0.000298
0.000234
0.000250
0.000260
0.000250
0.000264
0.001601
0.000705
0.000417
0.000274
0.000234
0.000238
0.000318
0.000247
0.000251
0.000269
0.000263
0.001407
0.000381
0.000340
0.000056
0.000231
0.000199
0.000271
0.000226
0.000266
0.000228
0.000275
0.000228
0.000259
0.000258
0.000291
0.000402
0.000496
0.000280
0.000212
0.000253
0.000262
0.001390
0.000701
0.000509
0.000326
0.000235
0.000228
0.000256
0.000273
0.000259
0.000252
0.000264
0.001480
0.000442
0.000189
0.000056
0.000196
0.000247
0.000226
0.000247
0.000251
0.000249
0.000233
0.000253
0.000271
0.000258
0.000371
0.000350
0.000354
0.000220
0.000241
0.000247
0.000270
0.000251
0.001565
0.000677
0.000429
0.000313
0.000234
0.000257
0.000255
0.000263
0.000262
0.000282
0.000271
0.001337
0.000338
0.000057
0.000207
0.000224
0.000227
0.000259
0.000256
0.000241
0.000251
0.000308
0.000357
0.000448
0.000422
0.000333
0.000353
0.000219
0.000263
0.000235
0.000297
0.000243
0.000262
0.001898
0.000355
0.000228
0.000452
0.000241
0.000266
0.000247
0.000273
0.000259
0.000269
0.000273
0.000409
0.000056
0.000312
0.000215
0.000226
0.000245
0.000252
0.000250
0.000225
0.000241
0.000287
0.000251
0.000228
0.000236
0.000302
0.000381
0.000590
0.000377
0.000217
0.000264
0.000250
0.000249
0.000265
0.000277
0.001476
0.001046
0.000238
0.000240
0.000266
0.000269
0.000270
0.000250
0.000211
0.000057
0.000219
0.001431
0.000201
0.000212
0.000238
0.000254
0.000250
0.000237
0.000240
0.000265
0.000242
0.000267
0.000237
0.000407
0.000481
0.000354
0.000235
0.000254
0.000261
0.000272
0.000272
0.000239
0.000246
0.000263
0.001386
0.000612
0.000310
0.000386
0.000375
0.000421
0.000275
0.000056
0.000205
0.000247
0.000358
0.001304
0.000213
0.000258
0.000227
0.000258
0.000254
0.000262
0.000262
0.000235
0.000272
0.000342
0.000626
0.000243
0.000231
0.000276
0.000321
0.000222
0.000251
0.000269
0.000254
0.000250
0.000268
0.001533
0.000744
0.000325
0.000255
0.000271
0.000194
0.000056
0.000190
0.000349
0.000367
0.000409
0.001212
0.000265
0.000212
0.000241
0.000237
0.000249
0.000245
0.000255
0.000236
0.000237
0.000251
0.000259
0.000261
0.000235
0.000263
0.000256
0.000270
0.000265
0.000312
0.000329
0.000219
0.000262
0.000263
0.001459
0.000257
0.000270
0.000154
0.000056
0.000207
0.000236
0.000250
0.000258
0.000350
0.000374
0.000396
0.000281
0.001567
0.000228
0.000316
0.000546
0.000279
0.000246
0.000435
0.000227
0.000242
0.000264
0.000272
0.000271
0.000277
0.000269
0.000255
0.000268
0.000251
0.000436
0.000415
0.000279
0.001588
0.000232
0.000191
0.000058
0.000186
0.000234
0.000267
0.000227
0.000240
0.000246
0.000262
0.000319
0.000420
0.002017
0.000220
0.000257
0.000256
0.000256
0.000264
0.000255
0.000263
0.000258
0.000259
0.000453
0.000466
0.000337
0.001441
0.000244
0.000245
0.002017
0.000289
0.000235
0.000256
0.001520
0.000170
0.000056
0.000371
0.000435
0.000413
0.000246
0.000278
0.000222
0.000246
0.000295
0.000238
0.000222
0.000258
0.000342
0.000403
0.000338
0.000443
0.000231
0.000243
0.001559
0.000246
0.000554
0.001892
0.000297
0.000231
0.001513
0.002053
0.000740
0.000280
0.000254
0.000359
0.000500
0.000257
0.000056
0.000234
0.000249
0.000268
0.000218
0.001414
0.001734
0.001073
0.000207
0.001606
0.000284
0.001908
0.000218
0.000249
0.000410
0.000353
0.000341
0.000378
0.000483
0.000213
0.000241
0.000250
0.000255
0.000268
0.001610
0.001188
0.001424
0.000295
0.000281
0.000257
0.000294
0.000366
0.000057
0.000212
0.000235
0.000240
0.000239
0.000232
0.000284
0.000212
0.000258
0.000259
0.000237
0.000247
0.000331
0.000452
0.000498
0.000212
0.000258
0.000254
0.000281
0.000258
0.000288
0.000228
0.000260
0.001522
0.000458
0.002132
0.000235
0.000251
0.000362
0.000402
0.000399
0.000189
0.000055
0.000237
0.000315
0.000493
0.000310
0.000214
0.000218
0.000252
0.000244
0.000235
0.000246
0.000244
0.000271
0.000255
0.001621
0.001343
0.001234
0.000293
0.000207
0.000255
0.000270
0.000278
0.000280
0.000245
0.000251
0.002202
0.000244
0.000263
0.000296
0.000320
0.000304
0.000223
0.000056
0.000197
0.000443
0.000523
0.000283
0.000233
0.000217
0.000247
0.000276
0.001886
0.001431
0.000218
0.000324
0.000384
0.000411
0.000264
0.000242
0.000241
0.000267
0.000268
0.000259
0.000259
0.000278
0.000461
0.000230
0.000271
0.000263
0.000253
0.000276
0.000283
0.000250
0.000201
0.000057
0.000206
0.000247
0.000252
0.000238
0.000276
0.000251
0.001538
0.001409
0.001338
0.000236
0.000225
0.000244
0.000267
0.000266
0.000245
0.000266
0.000234
0.002099
0.000258
0.000237
0.000266
0.000263
0.000253
0.000268
0.000260
0.000257
0.000273
0.000248
0.000283
0.000249
0.000180
0.000057
0.000182
0.002671
0.001413
0.000213
0.000304
0.000321
0.000226
0.000272
0.000232
0.000241
0.000253
0.000245
0.000232
0.000253
0.000271
0.000252
0.000274
0.000259
0.000266
0.000257
0.000270
0.000284
0.000270
0.000259
0.000250
0.000246
0.000262
0.000284
0.000252
0.000269
0.000377
0.000057
0.001542
0.000248
0.001236
0.000248
0.000211
0.000258
0.000262
0.000254
0.000227
0.000347
0.000366
0.000301
0.000339
0.000237
0.000237
0.002158
0.000237
0.000241
0.000333
0.000460
0.000373
0.000271
0.000239
0.000254
0.000265
0.000247
0.000283
0.000262
0.000267
0.001672
0.001198
0.000056
0.000203
0.000223
0.000302
0.000403
0.000415
0.000212
0.000216
0.000231
0.000251
0.000255
0.000266
0.000242
0.000240
0.000244
0.000265
0.000241
0.000337
0.000638
0.000335
0.000231
0.000233
0.000268
0.000282
0.000254
0.000247
0.000271
0.000247
0.000274
0.000244
0.000347
0.000328
0.000055
0.001132
0.000311
0.000256
0.000505
0.000242
0.000229
0.000236
0.000229
0.000248
0.002329
0.000394
0.000332
0.000223
0.000382
0.000302
0.000251
0.000240
0.000259
0.000264
0.000250
0.000229
0.000308
0.000605
0.000427
0.001853
0.001368
0.000502
0.000511
0.000231
0.000283
0.000204
0.000057
0.000315
0.000270
0.000248
0.000234
0.000257
0.000222
0.000258
0.000250
0.000254
0.000252
0.000254
0.000243
0.000232
0.000279
0.000413
0.000431
0.001855
0.001333
0.000470
0.000434
0.000442
0.000240
0.000239
0.000260
0.002133
0.000551
0.000387
0.000234
0.000277
0.000280
0.000198
0.000057
0.000208
0.000244
0.000251
0.000246
0.000237
0.000350
0.000416
0.000320
0.000311
0.000222
0.000240
0.000248
0.000262
0.002168
0.000361
0.000337
0.000220
0.000245
0.000288
0.000239
0.000250
0.002489
0.000304
0.000225
0.000263
0.000253
0.000256
0.000270
0.000314
0.000250
0.000193
0.000056
0.000244
0.000271
0.000646
0.000303
0.000272
0.000209
0.000235
0.000254
0.000262
0.000249
0.001972
0.000371
0.000272
0.000277
0.000239
0.000269
0.000274
0.000235
0.002213
0.000442
0.000226
0.000264
0.000271
0.000259
0.000254
0.000253
0.000298
0.000237
0.000271
0.000250
0.000186
0.000055
0.000209
0.000241
0.000246
0.000225
0.000247
0.000259
0.000234
0.000248
0.000234
0.002183
0.000236
0.000266
0.000219
0.000431
0.000215
0.000262
0.000306
0.000265
0.000252
0.000247
0.001968
0.000265
0.000339
0.000364
0.000432
0.000409
0.000307
0.000259
0.000257
0.000251
0.000197
0.000056
0.000210
0.000235
0.000238
0.000249
0.000282
0.000292
0.000220
0.002307
0.000248
0.000230
0.000263
0.000250
0.000241
0.000278
0.000279
0.002122
0.000585
0.000232
0.000249
0.000241
0.000260
0.000260
0.000288
0.000264
0.000261
0.000258
0.000301
0.000243
0.000266
0.000263
0.000191
0.000056
0.001833
0.001436
0.000210
0.000225
0.000243
0.000251
0.000250
0.000261
0.000431
0.000342
0.002163
0.000263
0.000225
0.000270
0.000252
0.000502
0.000436
0.000301
0.000217
0.000257
0.000250
0.000263
0.000265
0.000234
0.000257
0.000263
0.000268
0.000270
0.000320
0.000641
0.000335
0.000056
0.000201
0.000243
0.000246
0.000250
0.000266
0.000245
0.000255
0.000242
0.001479
0.002120
0.000585
0.000268
0.000403
0.000762
0.000294
0.000237
0.000252
0.000263
0.000253
0.000258
0.000252
0.000249
0.000244
0.000275
0.003018
0.000327
0.000236
0.000262
0.000290
0.000357
0.000313
0.000055
0.001923
0.000224
0.000237
0.000234
0.000291
0.000388
0.000424
0.000298
0.000294
0.000218
0.000244
0.000249
0.000257
0.000254
0.000266
0.000252
0.000259
0.000287
0.001822
0.000241
0.000230
0.000259
0.000272
0.000277
0.000273
0.000269
0.001455
0.000326
0.000250
0.000261
0.000178
0.000073
0.000186
0.000229
0.000263
0.000225
0.000245
0.000247
0.000266
0.000394
0.000525
0.000185
0.000237
0.000242
0.000258
0.000327
0.000423
0.000318
0.000230
0.000250
0.000266
0.000346
0.000474
0.000490
0.000210
0.000254
0.000257
0.000258
0.000248
0.000279
0.000269
0.000267
0.000203
0.000056
0.001418
0.000456
0.000213
0.001934
0.000402
0.000344
0.000447
0.000254
0.000236
0.000244
0.000264
0.000241
0.000254
0.000240
0.000267
0.000259
0.000454
0.000247
0.000480
0.000348
0.000349
0.000225
0.000257
0.000268
0.000272
0.000266
0.000256
0.000276
0.000389
0.000463
0.001336
0.000055
0.000207
0.000226
0.002074
0.000345
0.000294
0.000231
0.000274
0.000228
0.000264
0.000260
0.000229
0.000238
0.000267
0.000253
0.000252
0.000362
0.000750
0.001722
0.000228
0.000257
0.000254
0.000258
0.000365
0.000440
0.001580
0.000294
0.000366
0.001932
0.000258
0.000251
0.000193
0.000056
0.000208
0.000237
0.000233
0.000247
0.000227
0.000250
0.000267
0.000269
0.000325
0.000266
0.000377
0.000365
0.000341
0.000295
0.000266
0.000252
0.000262
0.000240
0.000264
0.000252
0.000309
0.000281
0.000268
0.000258
0.000270
0.001503
0.000295
0.000380
0.002080
0.000233
0.000177
0.000056
0.000231
0.000238
0.000234
0.000249
0.000487
0.000210
0.000267
0.000327
0.000346
0.000339
0.000281
0.000216
0.000268
0.000261
0.000272
0.000330
0.000428
0.000426
0.000244
0.000430
0.000498
0.000484
0.001546
0.000230
0.000247
0.002027
0.000280
0.000266
0.000237
0.000299
0.000189
0.000055
0.000208
0.000241
0.000225
0.000242
0.000256
0.000266
0.000253
0.000273
0.000252
0.000264
0.001798
0.000320
0.000383
0.000281
0.000462
0.000364
0.000390
0.001468
0.000250
0.000270
0.002122
0.000565
0.000263
0.000236
0.000260
0.000263
0.000505
0.000223
0.000258
0.000278
0.000199
0.000055
0.000278
0.000339
0.000421
0.000264
0.000203
0.000242
0.000264
0.000248
0.000266
0.000294
0.000241
0.000238
0.000260
0.000253
0.000337
0.000480
0.001317
0.000264
0.000281
0.001946
0.000333
0.000288
0.000232
0.000258
0.000251
0.000280
0.000266
0.000266
0.000246
0.000268
0.000202
0.000055
0.000192
0.000386
0.002055
0.000262
0.000223
0.000262
0.000287
0.000244
0.000424
0.000459
0.001298
0.000372
0.000359
0.002078
0.000224
0.000228
0.000275
0.000273
0.000248
0.000256
0.000273
0.000296
0.000254
0.000320
0.000516
0.000383
0.000291
0.002245
0.000488
0.000546
0.000331
0.000056
0.000221
0.000229
0.000238
0.001970
0.000228
0.000230
0.000240
0.000243
0.000243
0.000257
0.000244
0.000264
0.000261
0.000306
0.000365
0.001508
0.000252
0.000246
0.000266
0.000257
0.000231
0.000257
0.000271
0.000253
0.000301
0.000524
0.000435
0.000236
0.001590
0.000274
0.000167
0.000056
0.000198
0.000220
0.000252
0.000228
0.000269
0.000266
0.000221
0.000247
0.000255
0.000380
0.000399
0.001379
0.000226
0.000235
0.000247
0.000295
0.000222
0.000256
0.000265
0.000541
0.000531
0.000286
0.000233
0.001569
0.000236
0.000256
0.000295
0.000277
0.000263
0.000267
0.000193
0.000056
0.000210
0.000233
0.000290
0.000245
0.000265
0.000225
0.000234
0.000245
0.000278
0.000227
0.000250
0.000274
0.000248
0.001475
0.000361
0.000212
0.000253
0.000263
0.000276
0.000307
0.000372
0.000283
0.000238
0.000258
0.000264
0.000264
0.000259
0.001407
0.000280
0.000244
0.000162
0.000056
0.000217
0.000218
0.000261
0.000260
0.000272
0.000217
0.000248
0.000262
0.000218
0.000264
0.000247
0.000256
0.000237
0.000315
0.000375
0.000353
0.000252
0.000231
0.001633
0.000251
0.000232
0.000262
0.000265
0.000312
0.000385
0.000346
0.000454
0.000261
0.000262
0.001606
0.000166
0.000056
0.000308
0.000470
0.000280
0.000275
0.000238
0.000220
0.000244
0.000268
0.000259
0.000252
0.000233
0.000238
0.001478
0.000269
0.000316
0.000219
0.000249
0.000274
0.000249
0.000267
0.000254
0.000235
0.000261
0.000270
0.000318
0.000256
0.000551
0.000320
0.000275
0.000248
0.000188
0.000056
0.000221
0.000244
0.000449
0.000333
0.000387
0.000260
0.000248
0.000249
0.000252
0.000256
0.000241
0.000226
0.000256
0.000239
0.001262
0.000299
0.000233
0.000260
0.000259
0.000268
0.000239
0.000266
0.000255
0.000256
0.000255
0.000256
0.000323
0.000723
0.000411
0.000231
0.000180
0.000056
0.000206
0.001561
0.000253
0.000352
0.000416
0.000398
0.000214
0.000257
0.000266
0.000253
0.000234
0.000266
0.000264
0.000275
0.000253
0.001550
0.000233
0.000284
0.000265
0.000254
0.000280
0.000237
0.000264
0.000265
0.000256
0.000305
0.000425
0.000313
0.000395
0.000233
0.000185
0.000056
0.000213
0.000251
0.000235
0.001731
0.000444
0.000207
0.000216
0.000247
0.000256
0.000270
0.000280
0.000260
0.000243
0.000255
0.000234
0.000272
0.000504
0.001216
0.000250
0.000238
0.001497
0.000416
0.000464
0.000391
0.000345
0.000233
0.000281
0.000455
0.000225
0.000265
0.000185
0.000056
0.000293
0.000218
0.000250
0.000246
0.000252
0.000265
0.000222
0.000257
0.000256
0.000252
0.000245
0.000252
0.000346
0.000502
0.001624
0.001525
0.000334
0.000557
0.000314
0.000227
0.000230
0.000252
0.000270
0.000255
0.000248
0.000277
0.000247
0.000262
0.001525
0.000327
0.000198
0.000056
0.000206
0.000354
0.000349
0.000332
0.000251
0.000219
0.000246
0.000424
0.000366
0.000356
0.002176
0.000318
0.000701
0.000519
0.000446
0.000258
0.000333
0.000390
0.000315
0.000285
0.000387
0.000275
0.001525
0.000533
0.000217
0.000262
0.000271
0.000241
0.000271
0.000259
0.000195
0.000056
0.000214
0.000249
0.000255
0.000252
0.000242
0.001664
0.000871
0.001007
0.000242
0.000211
0.000260
0.000241
0.000257
0.000264
0.000252
0.000251
0.000245
0.000273
0.000263
0.000282
0.001435
0.000308
0.000254
0.000237
0.000228
0.000257
0.000263
0.000280
0.000268
0.000286
0.001887
0.000057
0.000200
0.000224
0.001564
0.000838
0.000429
0.000303
0.000263
0.000215
0.000248
0.000265
0.000265
0.000221
0.000250
0.002053
0.000409
0.000214
0.000242
0.000267
0.000260
0.000259
0.000196
