0.000136
0.016286
0.005339
0.000334
0.000257
0.000296
0.000327
0.000230
0.000328
0.000309
0.000225
0.000334
0.000514
0.000493
0.000372
0.000368
0.000262
0.000342
0.000350
0.000422
0.000326
0.001915
0.000703
0.000264
0.000233
0.000307
0.000319
0.000316
0.000414
0.000576
0.000357
0.000247
0.000059
0.000206
0.000268
0.000270
0.000298
0.000238
0.000249
0.000301
0.000266
0.000267
0.000332
0.000378
0.000422
0.000315
0.000248
0.000375
0.000350
0.000360
0.000254
0.000264
0.001689
0.000315
0.000274
0.000431
0.000264
0.000262
0.000281
0.000293
0.000310
0.000255
0.000387
0.000347
0.000056
0.000245
0.000255
0.000264
0.000263
0.000253
0.000246
0.000264
0.000254
0.000282
0.001677
0.000222
0.000231
0.000289
0.000258
0.000279
0.000242
0.000268
0.000257
0.000349
0.001789
0.000247
0.000283
0.000443
0.000430
0.000389
0.000242
0.000252
0.000519
0.000483
0.000741
0.000192
0.000057
0.000206
0.000243
0.000255
0.000239
0.000285
0.000278
0.000393
0.000500
0.000364
0.000237
0.000239
0.000255
0.000243
0.000255
0.000252
0.000258
0.000242
0.000269
0.000306
0.000322
0.001661
0.000290
0.000239
0.000422
0.000353
0.000676
0.000634
0.000523
0.000355
0.000236
0.000204
0.000058
0.000224
0.000246
0.000292
0.000212
0.000288
0.000226
0.000297
0.000470
0.001433
0.000216
0.000249
0.000241
0.000258
0.000256
0.000262
0.000300
0.000278
0.000790
0.001383
0.000302
0.000238
0.000413
0.000243
0.000246
0.000263
0.000256
0.000288
0.000248
0.000264
0.000262
0.000198
0.000058
0.000189
0.000239
0.000248
0.000264
0.000238
0.000241
0.000244
0.000253
0.000235
0.000255
0.001632
0.000264
0.000236
0.000237
0.000255
0.000250
0.000244
0.000253
0.000251
0.000254
0.000316
0.001617
0.000296
0.000247
0.000431
0.000245
0.000262
0.000263
0.000265
0.000270
0.000200
0.000058
0.000206
0.000233
0.000254
0.000243
0.000258
0.000233
0.000263
0.000231
0.000269
0.000256
0.000245
0.000256
0.000262
0.000274
0.001636
0.000272
0.000303
0.000215
0.000252
0.000273
0.000266
0.000232
0.000255
0.000260
0.001779
0.000463
0.000270
0.000383
0.000236
0.000280
0.000193
0.000057
0.000224
0.000241
0.000244
0.000271
0.000255
0.000265
0.000263
0.000405
0.000486
0.000357
0.000206
0.000246
0.000253
0.000250
0.001576
0.000578
0.000356
0.000307
0.000324
0.000230
0.000268
0.000288
0.000266
0.001741
0.000534
0.000437
0.000232
0.000267
0.000236
0.000266
0.000187
0.000059
0.000196
0.000235
0.000254
0.000331
0.000412
0.000290
0.000387
0.000281
0.000217
0.000244
0.000264
0.000238
0.000255
0.001903
0.000293
0.000300
0.000221
0.000252
0.000266
0.000294
0.000240
0.000257
0.000282
0.001878
0.000308
0.000391
0.000237
0.000262
0.000267
0.000395
0.000326
0.000057
0.000291
0.000292
0.000340
0.000296
0.000257
0.000250
0.000246
0.000260
0.000239
0.000235
0.000234
0.000251
0.001563
0.000375
0.000280
0.000220
0.000264
0.000245
0.000256
0.000304
0.000376
0.000206
0.000245
0.001806
0.000243
0.000504
0.000243
0.000260
0.000258
0.000266
0.000258
0.000057
0.000425
0.000471
0.000613
0.000206
0.000232
0.000278
0.000228
0.000223
0.000257
0.000255
0.000255
0.001698
0.000252
0.000437
0.000370
0.000217
0.000239
0.000229
0.000253
0.000260
0.000311
0.001797
0.000231
0.000468
0.001862
0.000543
0.000344
0.000248
0.000253
0.000266
0.000186
0.000056
0.000200
0.000242
0.000245
0.000243
0.000287
0.001593
0.000246
0.000237
0.000247
0.000257
0.000252
0.000259
0.000240
0.000243
0.000335
0.000429
0.000551
0.000249
0.000236
0.000271
0.000282
0.000228
0.000251
0.000431
0.000435
0.000263
0.000441
0.000445
0.000439
0.000282
0.000209
0.000057
0.000211
0.000245
0.000256
0.000251
0.000241
0.000234
0.000256
0.000474
0.000392
0.001666
0.000223
0.000236
0.000246
0.000243
0.000262
0.000332
0.000463
0.000402
0.000339
0.000236
0.000254
0.000303
0.000302
0.000234
0.000268
0.000434
0.000344
0.000685
0.000362
0.000474
0.000174
0.000057
0.000213
0.000255
0.000260
0.000219
0.000235
0.000240
0.000246
0.000261
0.000232
0.000282
0.000341
0.000507
0.001321
0.000247
0.000238
0.000250
0.000255
0.000243
0.000255
0.000304
0.000259
0.000396
0.000442
0.000260
0.000264
0.000261
0.000259
0.000263
0.000268
0.000261
0.000380
0.000057
0.000200
0.000235
0.000229
0.000400
0.000409
0.000426
0.000232
0.000264
0.000231
0.000260
0.000260
0.000230
0.000321
0.000225
0.000242
0.000476
0.000464
0.001595
0.000275
0.000235
0.000262
0.000267
0.000256
0.000234
0.000275
0.000596
0.000355
0.000297
0.000418
0.000236
0.000206
0.000056
0.000225
0.000433
0.000227
0.000221
0.000288
0.000232
0.000383
0.000529
0.000253
0.000328
0.000235
0.000278
0.000260
0.000237
0.000528
0.000331
0.000232
0.000251
0.000457
0.001578
0.000273
0.000241
0.000516
0.000253
0.000283
0.000272
0.000253
0.000375
0.000587
0.000311
0.000265
0.000057
0.000190
0.000229
0.000240
0.000243
0.000418
0.000314
0.000289
0.000221
0.000627
0.000271
0.000343
0.000254
0.000241
0.000243
0.000260
0.000268
0.000248
0.000258
0.000231
0.000352
0.000295
0.000360
0.001835
0.000217
0.000263
0.000249
0.000282
0.000346
0.000446
0.000772
0.000334
0.000058
0.000216
0.000328
0.000316
0.000410
0.000386
0.000206
0.000257
0.000336
0.000456
0.000425
0.000265
0.000242
0.000235
0.000270
0.000266
0.000233
0.000257
0.000270
0.000271
0.000257
0.000299
0.000409
0.000661
0.001300
0.000324
0.000433
0.000423
0.000241
0.000446
0.000498
0.000221
0.000057
0.000229
0.000382
0.000276
0.000210
0.000228
0.000249
0.000416
0.000230
0.000258
0.000350
0.000501
0.000355
0.000253
0.000255
0.000266
0.000247
0.000343
0.000393
0.000348
0.000246
0.000251
0.000492
0.000549
0.001658
0.000233
0.000419
0.000313
0.000233
0.000394
0.000349
0.000367
0.000059
0.000209
0.000229
0.000248
0.000259
0.000247
0.000240
0.000242
0.000322
0.000465
0.000268
0.000425
0.000374
0.000311
0.000559
0.000246
0.000238
0.000280
0.000262
0.000224
0.000354
0.000229
0.000240
0.000273
0.000539
0.000352
0.001669
0.000268
0.000239
0.000249
0.000266
0.000192
0.000056
0.000272
0.000546
0.000268
0.000219
0.000236
0.000266
0.000242
0.000240
0.000268
0.000237
0.000226
0.000258
0.000427
0.000493
0.000416
0.000266
0.000258
0.000248
0.000336
0.000382
0.000383
0.000336
0.000360
0.000394
0.000246
0.000267
0.000263
0.000273
0.001793
0.000235
0.000207
0.000057
0.000206
0.000220
0.000260
0.000294
0.000331
0.000542
0.000314
0.000221
0.000284
0.000238
0.000248
0.000250
0.000520
0.000445
0.000487
0.000275
0.000257
0.000264
0.000419
0.000465
0.000361
0.000449
0.000475
0.000421
0.000236
0.000248
0.000268
0.000244
0.000263
0.001722
0.000382
0.000057
0.000255
0.000327
0.000206
0.000236
0.000259
0.000246
0.000237
0.000496
0.000375
0.000309
0.000291
0.000306
0.000471
0.000496
0.000333
0.000244
0.000251
0.000256
0.000253
0.000265
0.000272
0.000259
0.000244
0.000272
0.000335
0.000317
0.000554
0.000218
0.000241
0.000254
0.000190
0.000058
0.000428
0.000305
0.000454
0.000255
0.000201
0.000256
0.000244
0.000256
0.000265
0.000195
0.000250
0.000279
0.000303
0.000389
0.000599
0.000357
0.000321
0.000309
0.000379
0.000344
0.000322
0.000225
0.000239
0.000260
0.001744
0.000247
0.001799
0.000933
0.000315
0.000358
0.000155
0.000056
0.000232
0.000224
0.000233
0.000245
0.000272
0.000237
0.000252
0.000251
0.000259
0.000331
0.000391
0.000359
0.000347
0.000382
0.000268
0.000231
0.000253
0.000289
0.000247
0.000232
0.000256
0.000259
0.001804
0.000247
0.000257
0.000266
0.000275
0.000265
0.001880
0.000557
0.000230
0.000057
0.000238
0.000211
0.000237
0.000239
0.000273
0.000235
0.000246
0.000251
0.000301
0.000390
0.000591
0.000237
0.000362
0.000230
0.000245
0.000255
0.000325
0.000438
0.000367
0.000252
0.001776
0.000265
0.000242
0.000255
0.000265
0.000267
0.000242
0.000252
0.000319
0.000430
0.000266
0.000057
0.000213
0.000221
0.000243
0.000272
0.000236
0.000243
0.000255
0.000257
0.000261
0.000231
0.000244
0.000306
0.000382
0.000355
0.000342
0.000280
0.000450
0.000242
0.000251
0.000257
0.000262
0.000255
0.000277
0.000257
0.000280
0.001770
0.000250
0.000263
0.000260
0.000242
0.000199
0.000058
0.000299
0.000293
0.000238
0.000220
0.000239
0.000239
0.000237
0.000258
0.000247
0.000241
0.000214
0.000262
0.000254
0.000402
0.000397
0.000365
0.000270
0.000222
0.000247
0.000257
0.000264
0.000261
0.000249
0.000294
0.000219
0.000273
0.000323
0.001612
0.000276
0.000231
0.000191
0.000057
0.000218
0.000249
0.000242
0.000259
0.000338
0.000472
0.000286
0.000321
0.000227
0.000252
0.000273
0.000227
0.000244
0.000256
0.000261
0.000260
0.000241
0.000261
0.000251
0.000263
0.000266
0.000265
0.000251
0.000230
0.000244
0.000280
0.000277
0.000256
0.000259
0.000262
0.000199
0.000077
0.000193
0.000216
0.000253
0.000280
0.000231
0.000234
0.000241
0.000261
0.000286
0.000233
0.000239
0.000242
0.000268
0.000240
0.000287
0.000261
0.000235
0.000247
0.000303
0.000248
0.000274
0.000321
0.000270
0.000223
0.000311
0.000246
0.000267
0.000249
0.000315
0.000376
0.000693
0.000057
0.000210
0.000291
0.000225
0.000228
0.000238
0.000249
0.000244
0.000250
0.000251
0.000239
0.000271
0.000460
0.000395
0.000366
0.001573
0.000235
0.000491
0.000222
0.000264
0.000459
0.000420
0.000395
0.000225
0.000283
0.000247
0.000259
0.000283
0.000254
0.000327
0.000258
0.000169
0.000056
0.000409
0.000367
0.000331
0.000333
0.000212
0.000278
0.000226
0.000244
0.000233
0.000243
0.000262
0.000254
0.000228
0.000267
0.000405
0.000517
0.000333
0.001782
0.000240
0.000255
0.000365
0.000402
0.000484
0.000256
0.000314
0.000320
0.000302
0.000230
0.000230
0.000250
0.000202
0.000056
0.000204
0.000238
0.000237
0.000324
0.000401
0.000380
0.000338
0.000254
0.000247
0.000213
0.000251
0.000267
0.000267
0.000264
0.000245
0.000257
0.000316
0.000563
0.000293
0.000389
0.000246
0.001737
0.000333
0.000489
0.000490
0.000491
0.000320
0.000237
0.000248
0.000266
0.000445
0.000057
0.000202
0.000271
0.000212
0.000265
0.000419
0.000497
0.000358
0.000240
0.000229
0.000290
0.000246
0.000257
0.000255
0.000293
0.000313
0.000225
0.000288
0.000367
0.000538
0.000235
0.000509
0.001834
0.000284
0.000498
0.000439
0.000336
0.000231
0.000256
0.000295
0.000258
0.000201
0.000056
0.000211
0.000337
0.000360
0.000401
0.000346
0.000302
0.000346
0.000216
0.000234
0.000269
0.000264
0.000230
0.000254
0.000248
0.000243
0.000268
0.000363
0.000410
0.000462
0.000333
0.000292
0.000245
0.000253
0.001704
0.000474
0.000475
0.000684
0.000225
0.000267
0.000310
0.000161
0.000056
0.000199
0.000234
0.000352
0.000230
0.000289
0.000331
0.000428
0.000311
0.000285
0.000478
0.000229
0.000252
0.000259
0.000278
0.000274
0.000264
0.000218
0.000485
0.000347
0.000426
0.000255
0.000257
0.000235
0.000251
0.000263
0.000272
0.000234
0.000255
0.000269
0.000284
0.000200
0.000057
0.000308
0.000349
0.000219
0.000257
0.000249
0.000255
0.000239
0.000288
0.000243
0.000250
0.000270
0.000340
0.000506
0.000356
0.000352
0.000227
0.000224
0.000243
0.000253
0.000265
0.000289
0.000257
0.000236
0.000261
0.000280
0.000366
0.000417
0.000309
0.000363
0.000233
0.000177
0.000056
0.000199
0.000223
0.000282
0.000249
0.000237
0.000263
0.000267
0.000229
0.000496
0.000209
0.000259
0.000262
0.000239
0.000260
0.000281
0.000293
0.000239
0.000343
0.000218
0.000251
0.000263
0.000258
0.000257
0.000272
0.000276
0.000260
0.000261
0.000249
0.000262
0.000497
0.000164
0.000057
0.000215
0.000222
0.000252
0.000290
0.000196
0.000248
0.000372
0.000399
0.000238
0.000234
0.000247
0.000262
0.000250
0.000211
0.000566
0.001691
0.000243
0.000266
0.000281
0.000330
0.000432
0.000341
0.000387
0.000484
0.000279
0.000393
0.000246
0.000276
0.000266
0.000277
0.001391
0.000057
0.000450
0.000240
0.000290
0.000205
0.000241
0.000251
0.000233
0.000254
0.000243
0.000271
0.000244
0.000276
0.000234
0.000325
0.000559
0.001579
0.000243
0.000227
0.000244
0.000266
0.000244
0.000296
0.000386
0.000373
0.000269
0.000340
0.000224
0.000266
0.000274
0.000266
0.000195
0.000057
0.001246
0.000510
0.000328
0.000258
0.000241
0.000221
0.000235
0.000237
0.000492
0.000213
0.000244
0.000248
0.000365
0.000597
0.000288
0.000348
0.000263
0.000237
0.000319
0.000361
0.000277
0.000255
0.000269
0.000242
0.000299
0.000535
0.000490
0.000331
0.000265
0.000269
0.000169
0.000057
0.000214
0.000218
0.000241
0.000245
0.001428
0.000359
0.000208
0.000253
0.000263
0.000228
0.000251
0.000252
0.000247
0.000261
0.000267
0.000302
0.000431
0.000637
0.000264
0.001748
0.000255
0.000296
0.000318
0.000514
0.000447
0.000389
0.000245
0.000260
0.000253
0.000272
0.000200
0.000056
0.000230
0.000238
0.000238
0.000410
0.001163
0.000226
0.000258
0.000261
0.000243
0.000230
0.000242
0.000253
0.000281
0.000260
0.000232
0.000294
0.000560
0.000332
0.000315
0.000257
0.000268
0.000272
0.000250
0.000230
0.000286
0.000267
0.000247
0.000272
0.000289
0.000300
0.000595
0.000058
0.000222
0.000249
0.000233
0.000262
0.000263
0.000240
0.000233
0.000267
0.000288
0.000260
0.001413
0.000216
0.000251
0.000250
0.000243
0.000256
0.000283
0.000235
0.000288
0.000239
0.000342
0.000413
0.000603
0.000241
0.000241
0.000268
0.001757
0.000251
0.000269
0.000403
0.000384
0.000058
0.000206
0.000401
0.000452
0.000504
0.000510
0.000549
0.001499
0.000405
0.000517
0.000654
0.000554
0.000889
0.000340
0.000597
0.000577
0.001965
0.000379
0.000381
0.000403
0.000316
0.000220
0.000280
0.000274
0.000285
0.000246
0.000291
0.000291
0.000290
0.000257
0.000290
0.001365
0.000056
0.000208
0.000227
0.000241
0.000244
0.000261
0.000250
0.000236
0.000245
0.000248
0.000254
0.000237
0.000247
0.000279
0.000234
0.000264
0.000270
0.001797
0.000265
0.000270
0.000246
0.000255
0.000256
0.000274
0.000333
0.000371
0.000394
0.000346
0.000246
0.000259
0.000279
0.000208
0.000056
0.000208
0.001362
0.000326
0.000271
0.000249
0.000251
0.000230
0.000236
0.000231
0.000239
0.000216
0.000247
0.000252
0.000514
0.000365
0.000302
0.000246
0.001811
0.000353
0.000228
0.000255
0.000268
0.000255
0.000269
0.000274
0.000276
0.000273
0.000258
0.000262
0.000344
0.000177
0.000056
0.000197
0.000233
0.000252
0.001448
0.000213
0.000253
0.000255
0.000239
0.000245
0.000262
0.000248
0.000245
0.000251
0.000278
0.000240
0.000256
0.000260
0.000266
0.000270
0.000254
0.000260
0.001773
0.000279
0.001755
0.000256
0.000262
0.000257
0.000266
0.000267
0.000281
0.000199
0.000057
0.000212
0.000237
0.001345
0.000222
0.000261
0.000247
0.000259
0.000251
0.000243
0.000248
0.000258
0.000253
0.000254
0.000258
0.000258
0.000264
0.000286
0.000259
0.000288
0.000237
0.001880
0.000238
0.001824
0.000243
0.000260
0.000279
0.000231
0.000256
0.000241
0.000275
0.000203
0.000057
0.001442
0.000219
0.000231
0.000244
0.000241
0.000240
0.000369
0.000287
0.000246
0.000242
0.000249
0.000265
0.000257
0.000449
0.000271
0.000299
0.000274
0.000246
0.000258
0.000254
0.000272
0.000340
0.000225
0.000253
0.000270
0.000274
0.000275
0.000334
0.000655
0.000356
0.000193
0.000057
0.000212
0.000251
0.000264
0.000306
0.000367
0.000249
0.001672
0.000327
0.000279
0.000271
0.000251
0.000280
0.000264
0.000276
0.000282
0.000310
0.000312
0.000594
0.000393
0.000272
0.000283
0.000271
0.000266
0.000265
0.000335
0.000255
0.000273
0.000254
0.000255
0.000383
0.000379
0.000058
0.000264
0.000463
0.000257
0.000264
0.000249
0.000222
0.000228
0.000254
0.000251
0.000273
0.001494
0.000235
0.000229
0.000246
0.000242
0.000289
0.000279
0.000242
0.000254
0.000265
0.000263
0.000509
0.000435
0.000283
0.000269
0.000287
0.000268
0.000258
0.000237
0.000314
0.000163
0.000057
0.000191
0.000236
0.000289
0.000451
0.000414
0.000234
0.000225
0.000264
0.000232
0.000251
0.000249
0.000235
0.000258
0.000264
0.000241
0.000254
0.000443
0.001157
0.000245
0.000243
0.000279
0.000245
0.000348
0.000426
0.000244
0.000363
0.000539
0.000354
0.000375
0.000249
0.000176
0.000057
0.000220
0.000245
0.000260
0.000265
0.000253
0.000275
0.000294
0.000491
0.000377
0.000274
0.000355
0.000393
0.000393
0.000364
0.000263
0.000229
0.000246
0.000268
0.000441
0.000451
0.001232
0.000234
0.000261
0.000272
0.000237
0.000233
0.000265
0.000343
0.000426
0.000525
0.000126
0.000057
0.000225
0.000224
0.000262
0.000244
0.000234
0.000247
0.000238
0.000267
0.000353
0.000388
0.000362
0.000377
0.000228
0.000219
0.000270
0.000246
0.000243
0.000263
0.000266
0.000273
0.000416
0.000340
0.000331
0.000448
0.000251
0.000246
0.000269
0.000265
0.000255
0.000338
0.000157
0.000056
0.000323
0.000312
0.000335
0.000393
0.000485
0.000281
0.000241
0.000242
0.000250
0.000302
0.000225
0.000261
0.000237
0.000249
0.000244
0.000241
0.000252
0.000429
0.000548
0.000227
0.000246
0.000255
0.000245
0.000270
0.000242
0.000281
0.000265
0.000281
0.000268
0.000262
0.000321
0.000057
0.000304
0.000296
0.000229
0.000274
0.000224
0.000263
0.000228
0.000254
0.000263
0.000257
0.000251
0.000234
0.000287
0.000505
0.000434
0.000282
0.000240
0.000248
0.000254
0.000289
0.000235
0.000258
0.000265
0.000268
0.000271
0.000385
0.000373
0.000565
0.000407
0.000243
0.000179
0.000057
0.000380
0.000195
0.000233
0.000250
0.000251
0.000241
0.000242
0.000248
0.000254
0.000261
0.000221
0.000241
0.000275
0.000224
0.000248
0.000261
0.000258
0.000256
0.000297
0.000238
0.000263
0.000262
0.000263
0.000263
0.000268
0.000235
0.000265
0.000279
0.000256
0.000274
0.000202
0.000057
0.000182
0.000239
0.000244
0.000244
0.000235
0.000253
0.000266
0.000241
0.000256
0.000278
0.000229
0.000234
0.000264
0.000393
0.000258
0.000294
0.000244
0.000262
0.000255
0.000284
0.000271
0.000237
0.000242
0.000254
0.000273
0.000270
0.000248
0.000254
0.000276
0.000257
0.000206
0.000057
0.000208
0.000355
0.000371
0.000283
0.000298
0.000256
0.000265
0.000258
0.000219
0.000247
0.000282
0.000231
0.000251
0.000237
0.000262
0.000281
0.000239
0.000267
0.000249
0.000262
0.000280
0.000259
0.000280
0.000260
0.000291
0.000228
0.000262
0.000266
0.000270
0.000258
0.000201
0.000056
0.000193
0.000226
0.000267
0.000262
0.000256
0.000446
0.000210
0.000272
0.000266
0.000470
0.000456
0.000289
0.000219
0.000253
0.000267
0.000270
0.000239
0.000262
0.000261
0.000274
0.000260
0.000257
0.000259
0.000332
0.000582
0.000404
0.000260
0.000305
0.000277
0.000244
0.000192
0.000056
0.000225
0.000218
0.000250
0.000250
0.000335
0.000648
0.000303
0.000386
0.000205
0.000245
0.000254
0.000252
0.000256
0.000245
0.000255
0.000274
0.000270
0.000245
0.000663
0.000334
0.000316
0.000247
0.000256
0.000284
0.000283
0.000253
0.000259
0.000290
0.000234
0.000322
0.000326
0.000059
0.000237
0.000211
0.000255
0.000220
0.000255
0.000270
0.000214
0.000252
0.000235
0.000262
0.000248
0.000252
0.000245
0.000430
0.000661
0.000267
0.000230
0.000264
0.000261
0.000241
0.000270
0.000287
0.000480
0.000222
0.000257
0.000688
0.000371
0.000432
0.000257
0.000249
0.000196
0.000056
0.000199
0.000235
0.000245
0.000240
0.000260
0.000254
0.000363
0.000542
0.000418
0.000430
0.000215
0.000263
0.000274
0.000273
0.000258
0.000246
0.000249
0.000239
0.000265
0.000302
0.000416
0.000658
0.000367
0.000255
0.000351
0.000378
0.000496
0.000238
0.000266
0.000430
0.000451
0.000059
0.000263
0.000229
0.000441
0.000216
0.000240
0.000252
0.000260
0.000257
0.000231
0.000245
0.000315
0.000346
0.000380
0.000340
0.000222
0.000249
0.000263
0.000249
0.000264
0.000277
0.000293
0.000237
0.000248
0.000272
0.000347
0.000438
0.000545
0.000186
0.000269
0.000275
0.000191
0.000057
0.000228
0.000256
0.000224
0.000251
0.000246
0.000302
0.000342
0.000456
0.000375
0.000246
0.000375
0.000232
0.000252
0.000262
0.000253
0.000240
0.000261
0.000261
0.000351
0.000324
0.000538
0.000301
0.000468
0.000264
0.000382
0.000422
0.000382
0.000252
0.000253
0.000359
0.000307
0.000057
0.000230
0.000292
0.000205
0.000247
0.000285
0.000237
0.000265
0.000229
0.000273
0.000234
0.000246
0.000375
0.000464
0.000334
0.000373
0.000258
0.000239
0.000267
0.000267
0.000231
0.000252
0.000252
0.000262
0.000277
0.000279
0.000315
0.000639
0.000341
0.000248
0.000272
0.000191
0.000057
0.000212
0.000238
0.000281
0.000245
0.000243
0.000376
0.000454
0.000542
0.000431
0.000557
0.000254
0.000220
0.000245
0.000262
0.000248
0.000263
0.000278
0.000291
0.000468
0.000464
0.001454
0.000313
0.000271
0.000264
0.000283
0.000256
0.000417
0.000389
0.000384
0.000285
0.000182
0.000058
0.000222
0.000228
0.000311
0.000221
0.000210
0.000247
0.000304
0.000223
0.000244
0.000326
0.000327
0.000382
0.000266
0.000363
0.000376
0.000344
0.000242
0.000251
0.000271
0.000253
0.000249
0.000250
0.000311
0.000218
0.000327
0.000435
0.000491
0.000219
0.000261
0.000269
0.000191
0.000056
0.000236
0.000241
0.000260
0.000256
0.000240
0.000237
0.000475
0.000208
0.000236
0.000270
0.000228
0.000253
0.000260
0.000252
0.000257
0.000264
0.000262
0.000294
0.000261
0.000244
0.000274
0.000271
0.000291
0.000244
0.000262
0.000282
0.000272
0.000266
0.000260
0.000272
0.000174
0.000057
0.000239
0.000242
0.000296
0.000490
0.000320
0.000237
0.000241
0.000267
0.000241
0.000248
0.000248
0.000254
0.000264
0.000264
0.000238
0.000245
0.000263
0.000251
0.000287
0.000363
0.000501
0.000330
0.000210
0.000264
0.000266
0.000254
0.000261
0.000260
0.000267
0.000281
0.000196
0.000056
0.000337
0.000411
0.000339
0.000223
0.000233
0.000260
0.000407
0.000222
0.000230
0.000255
0.000249
0.000293
0.000361
0.000428
0.001875
0.000253
0.000235
0.000253
0.000277
0.000242
0.000366
0.000474
0.000568
0.000282
0.000239
0.000258
0.000279
0.000424
0.000278
0.000280
0.000162
0.000055
0.000232
0.000360
0.000318
0.000343
0.000501
0.000220
0.000222
0.000244
0.000252
0.000244
0.000259
0.000242
0.000308
0.000327
0.000387
0.000448
0.000220
0.000249
0.000260
0.000270
0.000245
0.000323
0.000231
0.000282
0.000275
0.000535
0.000534
0.000481
0.000273
0.000233
0.000202
0.000056
0.000208
0.000235
0.000256
0.000237
0.000243
0.000249
0.000262
0.000294
0.000359
0.000393
0.000383
0.000340
0.000224
0.000262
0.000264
0.000281
0.000300
0.000239
0.000273
0.000277
0.000233
0.000345
0.000502
0.000288
0.000300
0.000253
0.000263
0.000437
0.000418
0.000320
0.000169
0.000056
0.000229
0.000317
0.000245
0.000427
0.000379
0.000204
0.000240
0.000255
0.000265
0.000266
0.000249
0.000251
0.000232
0.000259
0.000259
0.000368
0.000362
0.000321
0.000292
0.000352
0.000488
0.000227
0.000282
0.000271
0.000303
0.000285
0.000247
0.000277
0.000486
0.000506
0.000179
0.000056
0.000205
0.000227
0.000251
0.000251
0.000242
0.000479
0.000222
0.000249
0.000261
0.000386
0.000502
0.000524
0.000210
0.000242
0.000245
0.000252
0.000270
0.000252
0.000240
0.000245
0.000286
0.000245
0.000379
0.000409
0.000334
0.000408
0.000312
0.000299
0.000320
0.000276
0.000158
0.000057
0.000192
0.000241
0.000409
0.000457
0.000209
0.000280
0.000255
0.000231
0.000247
0.000259
0.000253
0.000259
0.000267
0.000232
0.000256
0.000258
0.000245
0.000245
0.000267
0.000500
0.000389
0.000392
0.000230
0.000256
0.000277
0.000277
0.000257
0.000257
0.000272
0.000263
0.000191
0.000056
0.000373
0.000295
0.000443
0.000246
0.000225
0.000244
0.000318
0.000467
0.000279
0.000216
0.000246
0.000265
0.000276
0.000459
0.000401
0.000285
0.000237
0.000237
0.000257
0.000261
0.000274
0.000260
0.000263
0.000272
0.000271
0.000306
0.000475
0.000327
0.000306
0.000231
0.000201
0.000055
0.000215
0.000244
0.000244
0.000275
0.000233
0.000262
0.000228
0.000274
0.000250
0.000242
0.000254
0.000238
0.000290
0.001431
0.000249
0.000231
0.000263
0.000246
0.000273
0.000276
0.000264
0.000241
0.000275
0.000253
0.000268
0.000277
0.000263
0.000274
0.000253
0.000271
0.000193
0.000057
0.000208
0.000232
0.000249
0.000269
0.000219
0.000242
0.000260
0.000253
0.000229
0.000251
0.000247
0.000271
0.000250
0.000253
0.000255
0.000259
0.000249
0.000256
0.000272
0.000256
0.000255
0.000261
0.000246
0.000250
0.001287
0.000288
0.000622
0.000421
0.000290
0.000241
0.000195
0.000057
0.000212
0.000231
0.000245
0.000254
0.000412
0.000237
0.000245
0.000237
0.000253
0.000413
0.000418
0.000327
0.000224
0.000236
0.000266
0.000261
0.000254
0.000265
0.000246
0.000256
0.000264
0.000261
0.000346
0.000305
0.000534
0.000456
0.000220
0.000269
0.001358
0.000246
0.000191
0.000058
0.000350
0.000404
0.000325
0.000262
0.000228
0.000236
0.000223
0.000254
0.000260
0.000253
0.000247
0.000259
0.000323
0.000306
0.000506
0.000325
0.000363
0.000223
0.000248
0.000260
0.000268
0.000279
0.000247
0.000269
0.000271
0.000267
0.000431
0.000512
0.000315
0.000362
0.000142
0.000057
0.000208
0.000241
0.001254
0.000456
0.000410
0.000379
0.000341
0.000471
0.000262
0.000341
0.000229
0.000236
0.000257
0.000256
0.000248
0.000261
0.000404
0.000520
0.000297
0.000386
0.000265
0.000239
0.000270
0.000496
0.000227
0.000270
0.000256
0.000278
0.000368
0.000514
0.000263
0.000057
0.000379
0.000310
0.000247
0.001387
0.000461
0.000388
0.000314
0.000244
0.000245
0.000256
0.000223
0.000243
0.000248
0.000262
0.000251
0.000262
0.000238
0.000349
0.000396
0.000349
0.000421
0.000241
0.000258
0.000256
0.000257
0.000279
0.000268
0.000239
0.000262
0.000281
0.000220
0.000057
0.000197
0.000347
0.000210
0.000244
0.000255
0.000239
0.000258
0.000243
0.000238
0.000224
0.001576
0.000303
0.000279
0.000232
0.000237
0.000263
0.000269
0.000258
0.000239
0.000297
0.000247
0.000250
0.000312
0.000459
0.000428
0.000360
0.000231
0.000264
0.000275
0.000278
0.000175
0.000057
0.000208
0.000425
0.000213
0.000266
0.000456
0.000314
0.000363
0.000320
0.000459
0.000204
0.000234
0.000247
0.000264
0.000264
0.000260
0.001412
0.000368
0.000295
0.000224
0.000272
0.000298
0.000253
0.000235
0.000250
0.000265
0.000267
0.000466
0.000433
0.000284
0.000292
0.000146
0.000057
0.000205
0.000236
0.000255
0.000243
0.000226
0.000255
0.000242
0.000251
0.000310
0.000353
0.000475
0.000238
0.000241
0.000256
0.000246
0.000278
0.000264
0.000262
0.000268
0.000234
0.000252
0.000359
0.001209
0.000263
0.000261
0.000237
0.000259
0.000266
0.000260
0.000261
0.000190
0.000056
0.000280
0.000334
0.000298
0.000352
0.000246
0.000247
0.000257
0.000289
0.000234
0.000267
0.000233
0.000271
0.000245
0.000249
0.000270
0.000245
0.000268
0.000273
0.000264
0.000241
0.000256
0.000299
0.000245
0.000276
0.000288
0.000264
0.000269
0.000263
0.000258
0.000452
0.001364
0.000056
0.000226
0.000253
0.000221
0.000264
0.000232
0.000258
0.000250
0.000227
0.000244
0.000251
0.000301
0.000229
0.000249
0.000240
0.000276
0.000244
0.001709
0.000258
0.000232
0.000268
0.000242
0.000261
0.000274
0.000259
0.000301
0.000249
0.000250
0.000281
0.000262
0.000251
0.000227
0.000056
0.000387
0.000289
0.001293
0.000241
0.000217
0.000245
0.000259
0.000251
0.000271
0.000239
0.000234
0.000349
0.000421
0.000435
0.000248
0.000238
0.000248
0.000259
0.000257
0.000261
0.000240
0.000286
0.000252
0.000280
0.000268
0.000398
0.000333
0.000401
0.000303
0.000247
0.000197
0.000056
0.000194
0.000246
0.000243
0.000252
0.000276
0.000197
0.000240
0.000265
0.000433
0.001313
0.000263
0.000227
0.000242
0.000268
0.000268
0.000279
0.000237
0.000251
0.000373
0.000436
0.000352
0.000203
0.000251
0.000240
0.000296
0.000276
0.000254
0.000292
0.000277
0.000273
0.000189
0.000056
0.000310
0.000358
0.000395
0.000222
0.000230
0.000238
0.000246
0.000280
0.000266
0.000241
0.000234
0.000249
0.000441
0.000549
0.000440
0.001441
0.000259
0.000253
0.000332
0.000348
0.000507
0.000534
0.000423
0.000304
0.000238
0.000266
0.000262
0.000278
0.000269
0.000267
0.000196
0.000056
0.000203
0.000297
0.000450
0.000545
0.000242
0.000238
0.000250
0.000239
0.000236
0.000281
0.000230
0.000266
0.000275
0.000234
0.000263
0.000320
0.000372
0.000410
0.000343
0.001328
0.000271
0.000258
0.000250
0.000264
0.000524
0.000368
0.000389
0.000260
0.000267
0.000272
0.000185
0.000056
0.000207
0.000262
0.000226
0.000265
0.000226
0.000311
0.000427
0.000372
0.000369
0.000218
0.000252
0.000251
0.000271
0.000291
0.000236
0.000281
0.000243
0.000255
0.000282
0.000383
0.000388
0.000385
0.000316
0.001351
0.000423
0.000230
0.000266
0.000427
0.000494
0.000310
0.000285
0.000055
0.000209
0.000229
0.000246
0.000251
0.000254
0.001725
0.000248
0.000200
0.000218
0.000240
0.000260
0.000247
0.000248
0.000324
0.000326
0.000288
0.000270
0.000362
0.000561
0.000337
0.000259
0.000283
0.000227
0.000260
0.001518
0.000381
0.000344
0.000450
0.000341
0.000298
0.000177
0.000056
0.000209
0.000250
0.000256
0.000258
0.000237
0.000270
0.001732
0.000216
0.000230
0.000263
0.000327
0.000401
0.001451
0.000364
0.000390
0.000252
0.000242
0.000239
0.000266
0.000275
0.001553
0.000606
0.000327
0.000298
0.000230
0.000261
0.000263
0.000280
0.000248
0.000246
0.000194
0.000056
0.000214
0.000237
0.000290
0.000232
0.000261
0.000277
0.000272
0.000259
0.000253
0.000248
0.000254
0.000248
0.000292
0.000239
0.000272
0.001474
0.000285
0.000227
0.000269
0.000273
0.000276
0.000253
0.000424
0.001274
0.000275
0.000238
0.000270
0.000257
0.000401
0.000237
0.000200
0.000056
0.000223
0.000253
0.000222
0.000245
0.000239
0.000232
0.000234
0.001693
0.000254
0.000225
0.000358
0.000282
0.000208
0.000227
0.000248
0.001387
0.000250
0.000254
0.000265
0.000252
0.000255
0.000347
0.000296
0.001287
0.000285
0.000255
0.000245
0.000270
0.001383
0.000281
0.000264
0.000057
0.000208
0.000361
0.000234
0.000226
0.000263
0.000227
0.000286
0.000251
0.000263
0.000245
0.000261
0.000267
0.000255
0.000236
0.000286
0.001549
0.000233
0.000269
0.000250
0.000241
0.000311
0.000239
0.000251
0.001504
0.000349
0.000238
0.000267
0.001266
0.000269
0.000249
0.000221
0.000056
0.000212
0.000519
0.000215
0.000214
0.000235
0.000241
0.000267
0.000252
0.000263
0.000272
0.000234
0.000251
0.000264
0.000328
0.000369
0.001210
0.000243
0.000241
0.000265
0.000277
0.000223
0.000250
0.000248
0.000359
0.001262
0.000243
0.000246
0.000252
0.000259
0.001335
0.000296
0.000057
0.000294
0.000268
0.000229
0.000233
0.000238
0.000253
0.000252
0.000239
0.000297
0.000236
0.000238
0.000247
0.000282
0.000286
0.000437
0.001456
0.000213
0.000258
0.000299
0.000515
0.000276
0.001487
0.000351
0.000221
0.000231
0.000260
0.000259
0.001295
0.000293
0.000530
0.000368
0.000056
0.000264
0.000226
0.000256
0.000256
0.000278
0.000236
0.000267
0.000263
0.000246
0.000287
0.000258
0.000505
0.001366
0.000192
0.000271
0.000257
0.000285
0.000219
0.000249
0.000372
0.000213
0.001247
0.000268
0.000226
0.000253
0.000247
0.001560
0.000364
0.000499
0.000223
0.000187
0.000056
0.000198
0.000229
0.000248
0.000247
0.000242
0.000263
0.000242
0.000346
0.000464
0.000366
0.000263
0.001501
0.000215
0.000234
0.000268
0.000266
0.000248
0.000286
0.001697
0.000258
0.000374
0.000349
0.001318
0.000397
0.000229
0.000332
0.000248
0.000263
0.000262
0.000275
0.000192
0.000057
0.000210
0.000238
0.000324
0.000264
0.000331
0.000548
0.000240
0.000305
0.001496
0.000203
0.000387
0.000265
0.000278
0.000314
0.000319
0.001326
0.000263
0.000243
0.000250
0.000262
0.001521
0.000369
0.000304
0.000280
0.000240
0.000252
0.000457
0.000327
0.000241
0.000250
0.000259
0.000055
0.000196
0.000377
0.000347
0.000237
0.000223
0.001529
0.000216
0.000251
0.000270
0.000270
0.000262
0.000240
0.000291
0.001501
0.000258
0.000223
0.000438
0.001184
0.000353
0.000580
0.000241
0.000244
0.000247
0.000258
0.000297
0.000218
0.000457
0.000224
0.000264
0.000276
0.000201
0.000056
0.000217
0.000287
0.000358
0.000310
0.001329
0.000275
0.000331
0.000229
0.000227
0.000249
0.000245
0.000438
0.001392
0.000238
0.000237
0.000244
0.001384
0.000365
0.000329
0.000489
0.000321
0.000239
0.000252
0.000253
0.000264
0.000292
0.000249
0.000268
0.000268
0.000247
0.000231
0.000057
0.000210
0.000374
0.001470
0.000206
0.000274
0.000305
0.000215
0.000246
0.000307
0.000335
0.001393
0.000216
0.000260
0.000254
0.000269
0.001262
0.000706
0.000308
0.000289
0.000409
0.000310
0.000246
0.000272
0.000261
0.000268
0.000287
0.000273
0.000343
0.000507
0.000313
0.001378
0.000056
0.000217
0.000228
0.000243
0.000233
0.000297
0.000365
0.000466
0.001325
0.000226
0.000240
0.000248
0.001520
0.000437
0.000240
0.000223
0.000418
0.000248
0.000250
0.000254
0.000288
0.000257
0.000247
0.000278
0.000255
0.000252
0.000317
0.000444
0.000447
0.001487
0.000251
0.000173
0.000056
0.000221
0.000254
0.000423
0.000479
0.001228
0.000303
0.000232
0.000256
0.000248
0.000252
0.000250
0.000326
0.000320
0.000519
0.000291
0.000243
0.000251
0.000270
0.000247
0.000306
0.000236
0.000260
0.000258
0.000266
0.000267
0.000395
0.000585
0.000209
0.000329
0.001406
0.000176
0.000057
0.000204
0.000238
0.000265
0.000485
0.000328
0.000302
0.000320
0.000332
0.000297
0.000285
0.000209
0.000260
0.000254
0.000305
0.000233
0.000260
0.000641
0.000261
0.000298
0.000390
0.000267
0.000410
0.000234
0.000242
0.000258
0.000271
0.000245
0.000299
0.000511
0.000353
0.000262
0.000056
0.000195
0.001409
0.000236
0.000324
0.000406
0.000525
0.000307
0.000300
0.000209
0.000241
0.000265
0.000247
0.000282
0.000282
0.000233
0.000257
0.000267
0.001347
0.000262
0.000257
0.000249
0.000280
0.000264
0.000278
0.000296
0.000232
0.000277
0.000247
0.000351
0.000412
0.000490
0.000056
0.000208
0.000250
0.000237
0.001504
0.000322
0.000232
0.000239
0.000243
0.000223
0.000246
0.000264
0.000278
0.000241
0.000250
0.000298
0.000228
0.000262
0.000252
0.000254
0.000258
0.001432
0.000238
0.000245
0.000273
0.000247
0.000261
0.000263
0.000279
0.000260
0.000491
0.000344
0.000056
0.000202
0.000227
0.000393
0.000290
0.000237
0.000264
0.001541
0.000445
0.000176
0.000226
0.000258
0.000312
0.000329
0.000230
0.000228
0.000254
0.000247
0.000262
0.000263
0.000251
0.000605
0.000433
0.001080
0.000271
0.000236
0.000257
0.000275
0.000255
0.000302
0.000250
0.000377
0.000057
0.000237
0.000344
0.000209
0.000238
0.000254
0.000234
0.000250
0.000231
0.000287
0.001626
0.000353
0.000286
0.000236
0.000253
0.000257
0.000238
0.000264
0.000278
0.000263
0.000315
0.000303
0.000632
0.000413
0.001258
0.000235
0.000276
0.000249
0.000265
0.000267
0.000337
0.000444
0.000056
0.000246
0.000263
0.000228
0.000227
0.000224
0.000243
0.000261
0.000286
0.000250
0.001568
0.000363
0.000258
0.000240
0.000260
0.000464
0.000250
0.000550
0.000371
0.000266
0.000274
0.000486
0.000506
0.001254
0.000256
0.000246
0.000252
0.001676
0.000488
0.000615
0.000319
0.000144
0.000057
0.000205
0.000232
0.000237
0.000236
0.000277
0.000240
0.000235
0.000488
0.000594
0.000334
0.000291
0.000210
0.000245
0.000262
0.000276
0.000280
0.000231
0.000244
0.000254
0.000284
0.000280
0.000388
0.001346
0.000225
0.000267
0.000263
0.001890
0.000392
0.000386
0.000338
0.000153
0.000056
0.000195
0.000242
0.000247
0.001641
0.000350
0.000211
0.000237
0.000260
0.000252
0.000277
0.000378
0.000367
0.000365
0.000286
0.000472
0.000382
0.000366
0.001180
0.000290
0.000228
0.000251
0.000258
0.000271
0.000403
0.000693
0.000405
0.000245
0.000261
0.000262
0.000282
0.000192
0.000056
0.000205
0.000233
0.000239
0.001540
0.000261
0.000229
0.000237
0.000259
0.000239
0.000250
0.000252
0.000272
0.000268
0.000274
0.000294
0.000346
0.000458
0.000299
0.001390
0.000239
0.000256
0.000257
0.000263
0.000273
0.000365
0.000518
0.000414
0.000260
0.000299
0.000225
0.000439
0.000056
0.000218
0.000241
0.000269
0.001534
0.000292
0.000219
0.000270
0.000242
0.000257
0.000254
0.000253
0.000277
0.000235
0.000319
0.000483
0.000409
0.001344
0.000753
0.000254
0.000337
0.000239
0.000248
0.000243
0.000274
0.001688
0.000796
0.000234
0.000262
0.000276
0.000287
0.000182
0.000056
0.000232
0.000227
0.000254
0.000241
0.000280
0.000255
0.000213
0.000255
0.000234
0.000245
0.000282
0.000295
0.000239
0.000251
0.000264
0.000244
0.000291
0.001579
0.000713
0.000374
0.000301
0.000237
0.000244
0.000310
0.000261
0.000241
0.000272
0.000269
0.001368
0.000395
0.000342
0.000056
0.000193
0.000241
0.000266
0.000234
0.000260
0.000231
0.000277
0.000228
0.000254
0.000261
0.000290
0.000451
0.000390
0.000341
0.000212
0.000240
0.000280
0.001373
0.000719
0.000431
0.000353
0.000268
0.000238
0.000251
0.000296
0.000237
0.000251
0.000264
0.001472
0.000416
0.000218
0.000057
0.000227
0.000229
0.000246
0.000253
0.000250
0.000245
0.000247
0.000240
0.000271
0.000308
0.000336
0.000401
0.000291
0.000224
0.000238
0.000248
0.000259
0.000261
0.001590
0.000672
0.000515
0.000205
0.000226
0.000258
0.000268
0.000262
0.000264
0.000279
0.000262
0.001387
0.000297
0.000056
0.000222
0.000221
0.000233
0.000257
0.000263
0.000238
0.000252
0.000295
0.000363
0.000449
0.000373
0.000437
0.000293
0.000227
0.000248
0.000246
0.000300
0.000250
0.000260
0.001932
0.000313
0.000231
0.000458
0.000241
0.000245
0.000269
0.000266
0.000263
0.000268
0.000273
0.000397
0.000057
0.000195
0.000279
0.000233
0.000247
0.000249
0.000251
0.000229
0.000236
0.000301
0.000238
0.000228
0.000239
0.000472
0.000290
0.000428
0.000451
0.000218
0.000268
0.000252
0.000251
0.000249
0.000285
0.001464
0.001060
0.000226
0.000249
0.000267
0.000266
0.000273
0.000274
0.000185
0.000057
0.000203
0.001341
0.000295
0.000210
0.000230
0.000254
0.000251
0.000237
0.000245
0.000267
0.000240
0.000263
0.000235
0.000441
0.000367
0.000325
0.000345
0.000257
0.000262
0.000263
0.000282
0.000220
0.000260
0.000270
0.001458
0.000541
0.000302
0.000386
0.000376
0.000404
0.000296
0.000058
0.000199
0.000268
0.000408
0.001243
0.000205
0.000254
0.000231
0.000263
0.000248
0.000255
0.000270
0.000234
0.000254
0.000498
0.000411
0.000316
0.000229
0.000280
0.000327
0.000218
0.000251
0.000269
0.000230
0.000270
0.001615
0.000193
0.000744
0.000319
0.000259
0.000272
0.000192
0.000056
0.000222
0.000509
0.000209
0.000322
0.001303
0.000250
0.000231
0.000237
0.000230
0.000248
0.000250
0.000278
0.000210
0.000238
0.000251
0.000258
0.000265
0.000238
0.000256
0.000257
0.000268
0.000271
0.000375
0.000262
0.000211
0.000269
0.000269
0.001464
0.000269
0.000230
0.000175
0.000056
0.000207
0.000230
0.000252
0.000265
0.000344
0.000383
0.000391
0.000275
0.001583
0.000250
0.000242
0.000509
0.000367
0.000235
0.000440
0.000229
0.000252
0.000248
0.000272
0.000267
0.000279
0.000265
0.000261
0.000268
0.000262
0.000404
0.000387
0.000332
0.001591
0.000223
0.000190
0.000058
0.000208
0.000233
0.000244
0.000250
0.000241
0.000244
0.000263
0.000315
0.000414
0.002017
0.000250
0.000235
0.000254
0.000260
0.000258
0.000259
0.000263
0.000259
0.000417
0.000338
0.000296
0.000479
0.001433
0.000242
0.000244
0.002037
0.000265
0.000240
0.000261
0.001519
0.000161
0.000057
0.000338
0.000424
0.000473
0.000221
0.000282
0.000209
0.000255
0.000293
0.000243
0.000224
0.000251
0.000416
0.000378
0.000322
0.000444
0.000209
0.000248
0.001552
0.000229
0.000670
0.001798
0.000291
0.000254
0.001628
0.001919
0.000740
0.000266
0.000264
0.000270
0.000476
0.000386
0.000055
0.000201
0.000239
0.000281
0.000221
0.001417
0.001733
0.001077
0.000204
0.000237
0.001574
0.001989
0.000206
0.000242
0.000421
0.000372
0.000369
0.000355
0.000456
0.000206
0.000251
0.000251
0.000253
0.000298
0.001565
0.001209
0.001427
0.000292
0.000281
0.000252
0.000466
0.000267
0.000057
0.000233
0.000225
0.000239
0.000238
0.000228
0.000268
0.000229
0.000258
0.000258
0.000243
0.000258
0.000396
0.000509
0.000280
0.000301
0.000253
0.000246
0.000272
0.000269
0.000297
0.000233
0.000253
0.001561
0.000428
0.002120
0.000230
0.000270
0.000318
0.000477
0.000348
0.000191
0.000057
0.000332
0.000330
0.000374
0.000315
0.000208
0.000215
0.000256
0.000241
0.000244
0.000242
0.000247
0.000264
0.000279
0.001584
0.001351
0.001240
0.000275
0.000221
0.000251
0.000278
0.000285
0.000274
0.000242
0.000257
0.002209
0.000241
0.000257
0.000297
0.000324
0.000306
0.000222
0.000056
0.000226
0.000364
0.000555
0.000342
0.000205
0.000235
0.000248
0.000276
0.001896
0.001420
0.000212
0.000318
0.000389
0.000410
0.000277
0.000238
0.000246
0.000263
0.000266
0.000268
0.000256
0.000262
0.000486
0.000222
0.000274
0.000260
0.000258
0.000273
0.000281
0.000245
0.000203
0.000056
0.000222
0.000244
0.000244
0.000242
0.000280
0.000257
0.001530
0.001417
0.001330
0.000232
0.000238
0.000241
0.000262
0.000263
0.000246
0.000270
0.000227
0.002109
0.000257
0.000228
0.000271
0.000257
0.000254
0.000271
0.000264
0.000267
0.000259
0.000263
0.000273
0.000247
0.000182
0.000057
0.000209
0.002678
0.001404
0.000215
0.000305
0.000323
0.000215
0.000285
0.000227
0.000238
0.000257
0.000241
0.000233
0.000255
0.000264
0.000260
0.000265
0.000284
0.000252
0.000256
0.000282
0.000268
0.000273
0.000262
0.000251
0.000245
0.000263
0.000275
0.000259
0.000270
0.000367
0.000056
0.001559
0.000251
0.001245
0.000229
0.000219
0.000242
0.000287
0.000250
0.000222
0.000302
0.000416
0.000300
0.000337
0.000217
0.000256
0.002151
0.000237
0.000252
0.000254
0.000544
0.000358
0.000283
0.000230
0.000262
0.000261
0.000248
0.000266
0.000281
0.000270
0.001598
0.001280
0.000058
0.000192
0.000242
0.000328
0.000371
0.000326
0.000294
0.000217
0.000230
0.000250
0.000257
0.000264
0.000248
0.000223
0.000279
0.000244
0.000243
0.000399
0.000535
0.000354
0.000242
0.000239
0.000273
0.000281
0.000248
0.000248
0.000253
0.000267
0.000275
0.000239
0.000311
0.000427
0.000056
0.001117
0.000296
0.000276
0.000481
0.000269
0.000225
0.000224
0.000241
0.000255
0.002410
0.000244
0.000390
0.000229
0.000372
0.000311
0.000254
0.000236
0.000256
0.000270
0.000228
0.000250
0.000424
0.000563
0.000338
0.001882
0.001308
0.000531
0.000532
0.000235
0.000280
0.000196
0.000058
0.000221
0.000356
0.000252
0.000240
0.000251
0.000224
0.000255
0.000251
0.000254
0.000251
0.000255
0.000225
0.000251
0.000356
0.000277
0.000500
0.001856
0.001363
0.000430
0.000430
0.000450
0.000236
0.000238
0.000263
0.002122
0.000555
0.000386
0.000237
0.000277
0.000279
0.000197
0.000056
0.000219
0.000239
0.000255
0.000250
0.000269
0.000349
0.000384
0.000379
0.000250
0.000222
0.000240
0.000251
0.000263
0.002205
0.000235
0.000423
0.000217
0.000253
0.000280
0.000242
0.000254
0.002537
0.000249
0.000228
0.000263
0.000252
0.000255
0.000269
0.000316
0.000247
0.000197
0.000056
0.000224
0.000267
0.000672
0.000299
0.000256
0.000218
0.000233
0.000254
0.000259
0.000251
0.001992
0.000360
0.000265
0.000276
0.000245
0.000262
0.000271
0.000243
0.002203
0.000443
0.000232
0.000265
0.000266
0.000267
0.000253
0.000249
0.000304
0.000227
0.000273
0.000255
0.000192
0.000076
0.000197
0.000240
0.000249
0.000224
0.000245
0.000259
0.000237
0.000243
0.000236
0.002189
0.000222
0.000275
0.000223
0.000424
0.000227
0.000252
0.000308
0.000263
0.000247
0.000251
0.001971
0.000276
0.000334
0.000362
0.000430
0.000414
0.000303
0.000255
0.000251
0.000269
0.000190
0.000056
0.000209
0.000239
0.000237
0.000255
0.000240
0.000327
0.000215
0.002316
0.000232
0.000240
0.000256
0.000257
0.000236
0.000279
0.000276
0.002129
0.000591
0.000214
0.000258
0.000243
0.000261
0.000263
0.000285
0.000267
0.000263
0.000256
0.000286
0.000251
0.000269
0.000266
0.000191
0.000057
0.001811
0.001441
0.000202
0.000224
0.000257
0.000241
0.000249
0.000351
0.000324
0.000381
0.002141
0.000255
0.000229
0.000272
0.000276
0.000541
0.000376
0.000287
0.000232
0.000253
0.000248
0.000265
0.000271
0.000223
0.000258
0.000262
0.000270
0.000272
0.000415
0.000683
0.000188
0.000057
0.000221
0.000251
0.000240
0.000270
0.000255
0.000242
0.000253
0.000245
0.001530
0.002070
0.000578
0.000270
0.000435
0.000722
0.000302
0.000238
0.000252
0.000249
0.000267
0.000255
0.000257
0.000245
0.000265
0.000256
0.003016
0.000327
0.000236
0.000265
0.000282
0.000285
0.000420
0.000056
0.001945
0.000224
0.000224
0.000244
0.000287
0.000355
0.000459
0.000321
0.000272
0.000212
0.000245
0.000249
0.000259
0.000261
0.000262
0.000253
0.000267
0.000277
0.001820
0.000237
0.000241
0.000252
0.000292
0.000261
0.000272
0.000253
0.001457
0.000348
0.000248
0.000253
0.000176
0.000057
0.000199
0.000252
0.000232
0.000235
0.000248
0.000241
0.000313
0.000374
0.000297
0.000403
0.000217
0.000242
0.000262
0.000326
0.000419
0.000328
0.000235
0.000237
0.000289
0.000387
0.000465
0.000381
0.000261
0.000268
0.000254
0.000255
0.000253
0.000270
0.000291
0.000248
0.000203
0.000057
0.001438
0.000468
0.000200
0.001942
0.000283
0.000478
0.000368
0.000320
0.000231
0.000244
0.000266
0.000242
0.000245
0.000248
0.000293
0.000233
0.000462
0.000282
0.000391
0.000351
0.000386
0.000236
0.000252
0.000270
0.000272
0.000267
0.000258
0.000300
0.000358
0.000533
0.001272
0.000056
0.000213
0.000226
0.002076
0.000325
0.000312
0.000232
0.000260
0.000247
0.000261
0.000258
0.000217
0.000253
0.000261
0.000259
0.000278
0.000360
0.000685
0.001767
0.000226
0.000250
0.000256
0.000318
0.000468
0.000313
0.001553
0.000293
0.000367
0.001921
0.000251
0.000262
0.000196
0.000056
0.000206
0.000220
0.000237
0.000245
0.000228
0.000251
0.000254
0.000297
0.000316
0.000260
0.000377
0.000365
0.000349
0.000289
0.000246
0.000270
0.000261
0.000242
0.000267
0.000250
0.000312
0.000295
0.000249
0.000268
0.000262
0.001503
0.000299
0.000378
0.002080
0.000235
0.000175
0.000057
0.000191
0.000241
0.000238
0.000250
0.000488
0.000204
0.000257
0.000360
0.000366
0.000277
0.000310
0.000204
0.000270
0.000264
0.000266
0.000325
0.000433
0.000424
0.000256
0.000408
0.000580
0.000492
0.001482
0.000225
0.000254
0.001972
0.000356
0.000227
0.000250
0.000292
0.000188
0.000055
0.000194
0.000242
0.000229
0.000242
0.000254
0.000273
0.000250
0.000270
0.000251
0.000258
0.001815
0.000306
0.000384
0.000287
0.000459
0.000373
0.000396
0.001453
0.000241
0.000278
0.002270
0.000419
0.000243
0.000239
0.000273
0.000269
0.000506
0.000215
0.000262
0.000293
0.000180
0.000056
0.000220
0.000334
0.000377
0.000262
0.000214
0.000241
0.000259
0.000249
0.000264
0.000286
0.000238
0.000250
0.000262
0.000275
0.000434
0.000450
0.001225
0.000266
0.000273
0.001995
0.000282
0.000296
0.000234
0.000261
0.000248
0.000282
0.000267
0.000264
0.000248
0.000277
0.000195
0.000059
0.000264
0.000346
0.002046
0.000246
0.000229
0.000247
0.000262
0.000343
0.000430
0.000397
0.001293
0.000368
0.000356
0.002085
0.000211
0.000244
0.000263
0.000278
0.000257
0.000238
0.000289
0.000297
0.000247
0.000366
0.000517
0.000326
0.000294
0.002252
0.000564
0.000414
0.000387
0.000056
0.000207
0.000233
0.000242
0.001969
0.000231
0.000230
0.000241
0.000240
0.000246
0.000260
0.000243
0.000261
0.000259
0.000255
0.000512
0.001410
0.000253
0.000243
0.000264
0.000261
0.000238
0.000247
0.000262
0.000298
0.000282
0.000578
0.000359
0.000242
0.001600
0.000282
0.000154
0.000057
0.000195
0.000227
0.000250
0.000234
0.000266
0.000263
0.000229
0.000243
0.000260
0.000410
0.000414
0.001328
0.000232
0.000231
0.000248
0.000285
0.000228
0.000259
0.000301
0.000514
0.000351
0.000461
0.000230
0.001568
0.000231
0.000261
0.000290
0.000278
0.000264
0.000290
0.000173
0.000058
0.000203
0.000236
0.000284
0.000250
0.000247
0.000242
0.000243
0.000239
0.000276
0.000226
0.000251
0.000252
0.000266
0.001477
0.000363
0.000209
0.000271
0.000244
0.000272
0.000318
0.000359
0.000276
0.000256
0.000252
0.000264
0.000270
0.000256
0.001409
0.000285
0.000231
0.000176
0.000057
0.000198
0.000231
0.000259
0.000263
0.000270
0.000232
0.000250
0.000246
0.000223
0.000263
0.000245
0.000259
0.000242
0.000307
0.000376
0.000353
0.000249
0.000240
0.001629
0.000239
0.000247
0.000261
0.000266
0.000330
0.000333
0.000379
0.000454
0.000269
0.000251
0.001611
0.000152
0.000055
0.000357
0.000336
0.000430
0.000213
0.000233
0.000216
0.000251
0.000264
0.000260
0.000259
0.000223
0.000239
0.001510
0.000280
0.000273
0.000221
0.000255
0.000270
0.000252
0.000267
0.000252
0.000235
0.000255
0.000278
0.000275
0.000377
0.000339
0.000492
0.000230
0.000254
0.000193
0.000056
0.000209
0.000262
0.000505
0.000277
0.000344
0.000292
0.000245
0.000244
0.000254
0.000259
0.000244
0.000224
0.000257
0.000243
0.001285
0.000271
0.000251
0.000237
0.000270
0.000260
0.000247
0.000262
0.000249
0.000267
0.000255
0.000257
0.000335
0.000849
0.000274
0.000244
0.000166
0.000057
0.000210
0.001554
0.000270
0.000533
0.000285
0.000325
0.000234
0.000241
0.000267
0.000246
0.000240
0.000259
0.000274
0.000271
0.000259
0.001530
0.000254
0.000283
0.000264
0.000253
0.000270
0.000243
0.000266
0.000261
0.000262
0.000276
0.000469
0.000364
0.000332
0.000227
0.000194
0.000057
0.000193
0.000246
0.000256
0.001587
0.000430
0.000336
0.000234
0.000234
0.000264
0.000265
0.000276
0.000251
0.000261
0.000253
0.000234
0.000274
0.000441
0.001279
0.000248
0.000246
0.001487
0.000524
0.000386
0.000370
0.000331
0.000240
0.000269
0.000476
0.000227
0.000262
0.000178
0.000055
0.000290
0.000222
0.000247
0.000245
0.000250
0.000272
0.000222
0.000255
0.000257
0.000251
0.000240
0.000281
0.000306
0.000661
0.001487
0.001502
0.000346
0.000541
0.000336
0.000220
0.000233
0.000254
0.000252
0.000268
0.000251
0.000268
0.000255
0.000266
0.001521
0.000344
0.000175
0.000057
0.000225
0.000345
0.000355
0.000329
0.000238
0.000229
0.000249
0.000378
0.000428
0.000333
0.002186
0.000309
0.000697
0.000521
0.000449
0.000261
0.000331
0.000391
0.000331
0.000278
0.000399
0.000290
0.001511
0.000528
0.000229
0.000255
0.000257
0.000259
0.000265
0.000262
0.000206
0.000057
0.000213
0.000246
0.000254
0.000255
0.000239
0.001663
0.000874
0.001000
0.000204
0.000241
0.000274
0.000250
0.000252
0.000257
0.000252
0.000255
0.000250
0.000265
0.000266
0.000280
0.001425
0.000320
0.000251
0.000239
0.000229
0.000258
0.000262
0.000302
0.000246
0.000285
0.001899
0.000056
0.000194
0.000231
0.001543
0.000956
0.000276
0.000365
0.000253
0.000218
0.000250
0.000257
0.000255
0.000243
0.000251
0.001976
0.000477
0.000208
0.000256
0.000255
0.000268
0.000258
0.000207
