0.000111
0.019696
0.001493
0.000285
0.000243
0.000229
0.000301
0.000255
0.000321
0.000294
0.000246
0.000380
0.000512
0.000506
0.000322
0.000329
0.000311
0.000400
0.000380
0.000405
0.000306
0.001809
0.000543
0.000446
0.000257
0.000306
0.000294
0.000418
0.000417
0.000421
0.000408
0.000311
0.000056
0.000226
0.000222
0.000269
0.000266
0.000282
0.000256
0.000263
0.000259
0.000276
0.000321
0.000431
0.000450
0.000287
0.000281
0.000400
0.000363
0.000342
0.000246
0.000222
0.001734
0.000294
0.000226
0.000503
0.000261
0.000222
0.000244
0.000293
0.000292
0.000282
0.000349
0.000398
0.000057
0.000174
0.000227
0.000263
0.000264
0.000256
0.000247
0.000259
0.000278
0.000255
0.001683
0.000230
0.000238
0.000252
0.000277
0.000272
0.000247
0.000281
0.000265
0.000332
0.001806
0.000249
0.000261
0.000457
0.000474
0.000366
0.000248
0.000243
0.000585
0.000408
0.000785
0.000172
0.000057
0.000235
0.000205
0.000282
0.000218
0.000314
0.000267
0.000307
0.000521
0.000453
0.000286
0.000193
0.000231
0.000221
0.000257
0.000257
0.000252
0.000244
0.000275
0.000295
0.000354
0.001718
0.000244
0.000244
0.000451
0.000313
0.000652
0.000613
0.000526
0.000333
0.000272
0.000199
0.000056
0.000191
0.000218
0.000257
0.000248
0.000255
0.000251
0.000267
0.000562
0.001374
0.000233
0.000249
0.000239
0.000248
0.000251
0.000265
0.000281
0.000295
0.000785
0.001384
0.000285
0.000262
0.000426
0.000267
0.000218
0.000257
0.000256
0.000265
0.000269
0.000265
0.000260
0.000219
0.000055
0.000222
0.000224
0.000226
0.000247
0.000260
0.000240
0.000247
0.000254
0.000240
0.000257
0.001699
0.000239
0.000230
0.000227
0.000224
0.000252
0.000237
0.000251
0.000261
0.000249
0.000262
0.001742
0.000234
0.000266
0.000474
0.000240
0.000237
0.000237
0.000259
0.000261
0.000211
0.000071
0.000186
0.000203
0.000242
0.000246
0.000244
0.000244
0.000258
0.000248
0.000259
0.000248
0.000262
0.000253
0.000258
0.000276
0.001635
0.000288
0.000280
0.000245
0.000229
0.000270
0.000275
0.000241
0.000257
0.000248
0.000270
0.001849
0.000396
0.000357
0.000258
0.000265
0.000240
0.000055
0.000184
0.000213
0.000252
0.000254
0.000257
0.000230
0.000318
0.000368
0.000513
0.000353
0.000223
0.000226
0.000255
0.000254
0.001641
0.000497
0.000313
0.000447
0.000260
0.000216
0.000255
0.000279
0.000275
0.001797
0.000454
0.000528
0.000227
0.000239
0.000226
0.000251
0.000203
0.000056
0.000212
0.000205
0.000235
0.000286
0.000283
0.000457
0.000431
0.000271
0.000211
0.000224
0.000267
0.000249
0.000247
0.001732
0.000466
0.000295
0.000227
0.000242
0.000262
0.000288
0.000256
0.000255
0.000272
0.001883
0.000308
0.000400
0.000259
0.000238
0.000321
0.000397
0.000327
0.000056
0.000217
0.000354
0.000387
0.000278
0.000261
0.000211
0.000240
0.000255
0.000243
0.000239
0.000259
0.000221
0.001681
0.000270
0.000311
0.000217
0.000225
0.000250
0.000250
0.000277
0.000293
0.000320
0.001780
0.000350
0.000232
0.000495
0.000240
0.000218
0.000248
0.000266
0.000275
0.000056
0.000468
0.000390
0.000669
0.000197
0.000218
0.000256
0.000234
0.000220
0.000259
0.000278
0.000225
0.001692
0.000294
0.000396
0.000388
0.000217
0.000240
0.000240
0.000230
0.000261
0.000273
0.001843
0.000245
0.000233
0.002270
0.000401
0.000265
0.000266
0.000266
0.000257
0.000201
0.000055
0.000203
0.000219
0.000249
0.000242
0.000256
0.001687
0.000224
0.000208
0.000237
0.000254
0.000242
0.000240
0.000258
0.000254
0.000303
0.000447
0.000587
0.000226
0.000242
0.000270
0.000266
0.000256
0.000232
0.000497
0.000436
0.000272
0.000364
0.000497
0.000490
0.000222
0.000188
0.000056
0.000188
0.000221
0.000250
0.000255
0.000240
0.000238
0.000243
0.000509
0.000390
0.001614
0.000258
0.000229
0.000241
0.000254
0.000265
0.000256
0.000499
0.000469
0.000371
0.000238
0.000215
0.000299
0.000284
0.000274
0.000281
0.000405
0.000523
0.000490
0.000412
0.000507
0.000116
0.000055
0.000197
0.000242
0.000229
0.000230
0.000228
0.000242
0.000256
0.000232
0.000256
0.000369
0.000338
0.001559
0.000276
0.000214
0.000221
0.000203
0.000259
0.000251
0.000247
0.000259
0.000305
0.000426
0.000391
0.000346
0.000225
0.000231
0.000265
0.000262
0.000265
0.000259
0.000426
0.000056
0.000200
0.000219
0.000242
0.000255
0.000604
0.000357
0.000248
0.000261
0.000224
0.000260
0.000245
0.000246
0.000280
0.000263
0.000242
0.000551
0.000414
0.001569
0.000266
0.000253
0.000258
0.000263
0.000264
0.000242
0.000253
0.000445
0.000574
0.000301
0.000370
0.000236
0.000197
0.000055
0.000231
0.000230
0.000399
0.000242
0.000251
0.000245
0.000308
0.000566
0.000356
0.000266
0.000237
0.000271
0.000275
0.000234
0.000586
0.000291
0.000238
0.000249
0.000378
0.001701
0.000246
0.000214
0.000315
0.000426
0.000266
0.000300
0.000254
0.000269
0.000641
0.000367
0.000275
0.000057
0.000212
0.000221
0.000227
0.000247
0.000477
0.000254
0.000293
0.000214
0.000428
0.000612
0.000268
0.000243
0.000227
0.000199
0.000259
0.000270
0.000246
0.000264
0.000231
0.000364
0.000275
0.000557
0.001612
0.000260
0.000245
0.000253
0.000306
0.000368
0.000660
0.000485
0.000454
0.000056
0.000254
0.000323
0.000307
0.000422
0.000318
0.000224
0.000243
0.000395
0.000408
0.000426
0.000304
0.000214
0.000220
0.000255
0.000266
0.000242
0.000241
0.000278
0.000265
0.000259
0.000271
0.000402
0.001768
0.000313
0.000344
0.000426
0.000372
0.000245
0.000471
0.000336
0.000332
0.000057
0.000231
0.000384
0.000273
0.000197
0.000246
0.000209
0.000470
0.000218
0.000220
0.000340
0.000404
0.000434
0.000289
0.000230
0.000269
0.000290
0.000371
0.000442
0.000296
0.000220
0.000220
0.000313
0.000673
0.001701
0.000255
0.000425
0.000327
0.000224
0.000260
0.000425
0.000347
0.000056
0.000198
0.000201
0.000238
0.000244
0.000245
0.000251
0.000252
0.000352
0.000434
0.000245
0.000557
0.000337
0.000293
0.000218
0.000528
0.000263
0.000275
0.000264
0.000239
0.000347
0.000228
0.000237
0.000271
0.000413
0.000544
0.001677
0.000216
0.000233
0.000246
0.000257
0.000207
0.000057
0.000312
0.000430
0.000397
0.000266
0.000173
0.000219
0.000264
0.000240
0.000252
0.000259
0.000213
0.000493
0.000284
0.000483
0.000381
0.000308
0.000226
0.000233
0.000373
0.000350
0.000363
0.000374
0.000387
0.000369
0.000239
0.000230
0.000249
0.000268
0.001783
0.000275
0.000204
0.000056
0.000206
0.000196
0.000253
0.000265
0.000368
0.000529
0.000351
0.000216
0.000228
0.000270
0.000246
0.000256
0.000516
0.000456
0.000473
0.000303
0.000269
0.000252
0.000457
0.000479
0.000359
0.000440
0.000433
0.000482
0.000215
0.000256
0.000226
0.000244
0.000248
0.001777
0.000291
0.000055
0.000281
0.000335
0.000203
0.000215
0.000252
0.000250
0.000315
0.000430
0.000419
0.000301
0.000305
0.000300
0.000378
0.000607
0.000342
0.000221
0.000208
0.000240
0.000255
0.000271
0.000257
0.000270
0.000237
0.000275
0.000344
0.000307
0.000514
0.000338
0.000224
0.000219
0.000189
0.000056
0.000454
0.000331
0.000410
0.000235
0.000220
0.000232
0.000253
0.000244
0.000251
0.000225
0.000239
0.000274
0.000301
0.000377
0.000435
0.000531
0.000330
0.000375
0.000369
0.000396
0.000253
0.000211
0.000227
0.000265
0.001796
0.000227
0.001764
0.001005
0.000288
0.000350
0.000151
0.000056
0.000211
0.000206
0.000241
0.000228
0.000262
0.000252
0.000251
0.000232
0.000259
0.000284
0.000413
0.000412
0.000538
0.000285
0.000203
0.000236
0.000269
0.000290
0.000206
0.000232
0.000257
0.000226
0.001804
0.000269
0.000232
0.000266
0.000276
0.000264
0.001884
0.000550
0.000281
0.000056
0.000225
0.000198
0.000211
0.000236
0.000255
0.000247
0.000241
0.000260
0.000250
0.000336
0.000587
0.000318
0.000399
0.000263
0.000211
0.000287
0.000377
0.000397
0.000368
0.000243
0.001805
0.000240
0.000217
0.000229
0.000261
0.000262
0.000251
0.000276
0.000243
0.000384
0.000372
0.000055
0.000247
0.000235
0.000201
0.000259
0.000241
0.000245
0.000278
0.000242
0.000234
0.000255
0.000248
0.000291
0.000404
0.000348
0.000319
0.000334
0.000477
0.000217
0.000219
0.000250
0.000264
0.000254
0.000276
0.000267
0.000266
0.001791
0.000261
0.000250
0.000246
0.000259
0.000198
0.000057
0.000333
0.000261
0.000248
0.000202
0.000231
0.000237
0.000238
0.000248
0.000249
0.000229
0.000224
0.000269
0.000252
0.000335
0.000453
0.000351
0.000354
0.000205
0.000226
0.000253
0.000249
0.000281
0.000229
0.000271
0.000258
0.000252
0.000305
0.001697
0.000230
0.000239
0.000185
0.000056
0.000186
0.000206
0.000253
0.000277
0.000331
0.000494
0.000285
0.000314
0.000223
0.000232
0.000252
0.000243
0.000249
0.000253
0.000257
0.000264
0.000245
0.000271
0.000240
0.000255
0.000269
0.000265
0.000263
0.000229
0.000242
0.000279
0.000272
0.000265
0.000261
0.000252
0.000213
0.000055
0.000219
0.000247
0.000213
0.000254
0.000244
0.000246
0.000250
0.000256
0.000365
0.000202
0.000202
0.000232
0.000256
0.000251
0.000267
0.000268
0.000250
0.000251
0.000364
0.000212
0.000241
0.000284
0.000279
0.000251
0.000270
0.000286
0.000261
0.000254
0.000278
0.000427
0.000732
0.000056
0.000237
0.000301
0.000222
0.000206
0.000204
0.000250
0.000247
0.000250
0.000244
0.000246
0.000270
0.000322
0.000466
0.000516
0.001554
0.000212
0.000512
0.000210
0.000223
0.000424
0.000539
0.000298
0.000241
0.000266
0.000258
0.000250
0.000280
0.000256
0.000301
0.000265
0.000208
0.000057
0.000314
0.000424
0.000334
0.000306
0.000206
0.000237
0.000245
0.000253
0.000231
0.000278
0.000225
0.000253
0.000241
0.000288
0.000367
0.000473
0.000365
0.001797
0.000268
0.000236
0.000349
0.000574
0.000276
0.000311
0.000365
0.000268
0.000304
0.000234
0.000225
0.000242
0.000210
0.000056
0.000221
0.000200
0.000236
0.000322
0.000405
0.000411
0.000295
0.000254
0.000253
0.000222
0.000244
0.000263
0.000271
0.000261
0.000248
0.000255
0.000292
0.000565
0.000298
0.000420
0.000239
0.001811
0.000292
0.000555
0.000476
0.000451
0.000279
0.000229
0.000250
0.000260
0.000502
0.000056
0.000198
0.000236
0.000252
0.000295
0.000415
0.000490
0.000353
0.000218
0.000229
0.000330
0.000213
0.000238
0.000250
0.000304
0.000354
0.000227
0.000230
0.000406
0.000342
0.000407
0.000553
0.001782
0.000255
0.000559
0.000371
0.000358
0.000256
0.000368
0.000239
0.000221
0.000216
0.000056
0.000227
0.000338
0.000344
0.000308
0.000387
0.000275
0.000398
0.000233
0.000204
0.000266
0.000267
0.000236
0.000244
0.000255
0.000249
0.000253
0.000303
0.000490
0.000426
0.000365
0.000302
0.000224
0.000257
0.001781
0.000405
0.000445
0.000680
0.000311
0.000222
0.000302
0.000164
0.000056
0.000186
0.000212
0.000314
0.000260
0.000277
0.000391
0.000489
0.000217
0.000300
0.000531
0.000213
0.000220
0.000234
0.000274
0.000278
0.000268
0.000233
0.000343
0.000511
0.000390
0.000244
0.000241
0.000257
0.000249
0.000271
0.000260
0.000257
0.000241
0.000259
0.000351
0.000170
0.000055
0.000305
0.000347
0.000231
0.000235
0.000249
0.000267
0.000229
0.000358
0.000219
0.000208
0.000247
0.000349
0.000471
0.000330
0.000462
0.000211
0.000222
0.000225
0.000240
0.000295
0.000231
0.000305
0.000236
0.000253
0.000274
0.000361
0.000393
0.000379
0.000373
0.000233
0.000155
0.000056
0.000211
0.000228
0.000247
0.000243
0.000239
0.000255
0.000256
0.000264
0.000484
0.000243
0.000228
0.000247
0.000251
0.000256
0.000274
0.000272
0.000276
0.000354
0.000233
0.000237
0.000247
0.000267
0.000255
0.000257
0.000281
0.000265
0.000266
0.000256
0.000254
0.000497
0.000173
0.000056
0.000204
0.000208
0.000240
0.000258
0.000255
0.000225
0.000306
0.000459
0.000252
0.000224
0.000251
0.000254
0.000239
0.000287
0.000506
0.001695
0.000244
0.000248
0.000319
0.000372
0.000412
0.000343
0.000375
0.000392
0.000371
0.000360
0.000247
0.000263
0.000273
0.000270
0.001426
0.000055
0.000378
0.000281
0.000293
0.000207
0.000191
0.000240
0.000231
0.000253
0.000244
0.000276
0.000241
0.000256
0.000249
0.000282
0.001987
0.000264
0.000232
0.000209
0.000205
0.000267
0.000242
0.000254
0.000337
0.000484
0.000243
0.000329
0.000254
0.000247
0.000268
0.000263
0.000217
0.000057
0.001232
0.000520
0.000336
0.000292
0.000210
0.000214
0.000215
0.000221
0.000536
0.000188
0.000226
0.000247
0.000307
0.000599
0.000356
0.000333
0.000299
0.000247
0.000350
0.000351
0.000233
0.000229
0.000271
0.000244
0.000275
0.000596
0.000495
0.000300
0.000252
0.000274
0.000178
0.000056
0.000211
0.000210
0.000218
0.000247
0.001549
0.000244
0.000210
0.000249
0.000234
0.000249
0.000251
0.000256
0.000241
0.000257
0.000270
0.000302
0.000616
0.000494
0.000249
0.001790
0.000261
0.000292
0.000359
0.000416
0.000439
0.000434
0.000222
0.000241
0.000249
0.000277
0.000212
0.000056
0.000255
0.000204
0.000219
0.001319
0.000367
0.000178
0.000248
0.000211
0.000243
0.000232
0.000238
0.000253
0.000273
0.000248
0.000260
0.000274
0.000553
0.000386
0.000342
0.000215
0.000240
0.000274
0.000266
0.000224
0.000348
0.000219
0.000229
0.000277
0.000264
0.000420
0.000551
0.000057
0.000195
0.000217
0.000231
0.000261
0.000264
0.000255
0.000226
0.000261
0.000266
0.000252
0.001465
0.000219
0.000225
0.000249
0.000245
0.000247
0.000259
0.000269
0.000254
0.000272
0.000268
0.000602
0.000385
0.000332
0.000290
0.000230
0.001827
0.000227
0.000233
0.000332
0.000460
0.000056
0.000251
0.000428
0.000457
0.000505
0.000519
0.000530
0.001487
0.000417
0.000547
0.000640
0.000620
0.000734
0.000438
0.000613
0.000556
0.001709
0.000496
0.000427
0.000388
0.000339
0.000225
0.000284
0.000291
0.000273
0.000270
0.000267
0.000326
0.000271
0.000245
0.000295
0.001321
0.000057
0.000223
0.000266
0.000209
0.000233
0.000243
0.000250
0.000229
0.000234
0.000266
0.000269
0.000258
0.000259
0.000229
0.000264
0.000279
0.000238
0.001836
0.000269
0.000258
0.000251
0.000256
0.000259
0.000266
0.000301
0.000395
0.000422
0.000316
0.000247
0.000263
0.000288
0.000170
0.000056
0.000205
0.001395
0.000268
0.000264
0.000272
0.000227
0.000253
0.000238
0.000261
0.000238
0.000239
0.000243
0.000257
0.000443
0.000279
0.000375
0.000251
0.000287
0.001908
0.000256
0.000260
0.000255
0.000262
0.000258
0.000289
0.000244
0.000289
0.000249
0.000236
0.000320
0.000233
0.000056
0.000213
0.000227
0.000258
0.001442
0.000241
0.000263
0.000229
0.000223
0.000226
0.000268
0.000248
0.000263
0.000230
0.000257
0.000285
0.000242
0.000254
0.000254
0.000276
0.000261
0.000252
0.001849
0.000265
0.001765
0.000253
0.000252
0.000250
0.000227
0.000270
0.000288
0.000210
0.000055
0.000220
0.000243
0.001370
0.000223
0.000283
0.000213
0.000224
0.000241
0.000239
0.000249
0.000251
0.000255
0.000270
0.000245
0.000254
0.000269
0.000256
0.000274
0.000296
0.000256
0.001855
0.000278
0.001793
0.000281
0.000255
0.000248
0.000255
0.000261
0.000260
0.000263
0.000184
0.000056
0.001451
0.000218
0.000246
0.000225
0.000213
0.000227
0.000270
0.000361
0.000250
0.000271
0.000242
0.000253
0.000259
0.000372
0.000474
0.000240
0.000261
0.000267
0.000228
0.000223
0.000280
0.000312
0.000258
0.000249
0.000278
0.000269
0.000260
0.000359
0.000694
0.000345
0.000180
0.000055
0.000195
0.000285
0.000267
0.000316
0.000372
0.000248
0.001661
0.000294
0.000285
0.000249
0.000277
0.000298
0.000258
0.000267
0.000297
0.000311
0.000379
0.000484
0.000390
0.000276
0.000320
0.000273
0.000265
0.000264
0.000328
0.000264
0.000259
0.000241
0.000238
0.000297
0.000418
0.000066
0.000277
0.000376
0.000270
0.000269
0.000249
0.000228
0.000226
0.000253
0.000255
0.000259
0.001568
0.000192
0.000200
0.000247
0.000247
0.000286
0.000264
0.000254
0.000266
0.000258
0.000271
0.000436
0.000476
0.000361
0.000237
0.000283
0.000268
0.000242
0.000251
0.000226
0.000253
0.000056
0.000205
0.000210
0.000252
0.000483
0.000364
0.000303
0.000196
0.000247
0.000246
0.000273
0.000216
0.000258
0.000246
0.000274
0.000241
0.000242
0.000566
0.001113
0.000209
0.000268
0.000205
0.000260
0.000341
0.000501
0.000224
0.000296
0.000543
0.000378
0.000415
0.000244
0.000152
0.000056
0.000216
0.000232
0.000237
0.000267
0.000302
0.000213
0.000381
0.000405
0.000437
0.000313
0.000390
0.000388
0.000384
0.000351
0.000242
0.000210
0.000213
0.000247
0.000411
0.000519
0.001195
0.000251
0.000248
0.000273
0.000237
0.000232
0.000272
0.000325
0.000385
0.000517
0.000248
0.000055
0.000210
0.000205
0.000248
0.000237
0.000247
0.000245
0.000242
0.000258
0.000255
0.000427
0.000478
0.000366
0.000236
0.000202
0.000226
0.000264
0.000249
0.000256
0.000271
0.000534
0.000210
0.000285
0.000328
0.000410
0.000316
0.000242
0.000244
0.000266
0.000252
0.000302
0.000220
0.000057
0.000298
0.000303
0.000342
0.000329
0.000495
0.000329
0.000247
0.000273
0.000214
0.000259
0.000261
0.000266
0.000239
0.000251
0.000249
0.000223
0.000263
0.000424
0.000495
0.000345
0.000217
0.000260
0.000220
0.000235
0.000255
0.000287
0.000282
0.000253
0.000280
0.000265
0.000294
0.000055
0.000254
0.000359
0.000230
0.000228
0.000250
0.000250
0.000243
0.000250
0.000259
0.000257
0.000261
0.000239
0.000271
0.000557
0.000437
0.000314
0.000213
0.000224
0.000221
0.000263
0.000282
0.000242
0.000262
0.000259
0.000275
0.000348
0.000418
0.000544
0.000509
0.000216
0.000140
0.000055
0.000393
0.000223
0.000192
0.000233
0.000246
0.000256
0.000246
0.000242
0.000253
0.000263
0.000223
0.000271
0.000245
0.000231
0.000237
0.000264
0.000256
0.000275
0.000257
0.000267
0.000250
0.000260
0.000276
0.000258
0.000271
0.000263
0.000239
0.000278
0.000258
0.000276
0.000217
0.000056
0.000189
0.000206
0.000234
0.000261
0.000221
0.000255
0.000264
0.000243
0.000259
0.000272
0.000234
0.000235
0.000255
0.000408
0.000239
0.000284
0.000270
0.000252
0.000258
0.000280
0.000272
0.000239
0.000250
0.000246
0.000263
0.000287
0.000254
0.000246
0.000270
0.000262
0.000221
0.000070
0.000261
0.000379
0.000345
0.000276
0.000334
0.000206
0.000229
0.000229
0.000231
0.000243
0.000240
0.000269
0.000259
0.000229
0.000275
0.000237
0.000271
0.000263
0.000255
0.000257
0.000277
0.000264
0.000271
0.000256
0.000287
0.000271
0.000235
0.000287
0.000240
0.000282
0.000195
0.000056
0.000212
0.000214
0.000241
0.000264
0.000249
0.000450
0.000216
0.000241
0.000302
0.000373
0.000547
0.000339
0.000207
0.000213
0.000265
0.000276
0.000253
0.000247
0.000270
0.000260
0.000272
0.000257
0.000262
0.000254
0.000574
0.000487
0.000282
0.000271
0.000269
0.000263
0.000203
0.000055
0.000180
0.000201
0.000242
0.000250
0.000351
0.000656
0.000295
0.000353
0.000247
0.000250
0.000221
0.000255
0.000265
0.000245
0.000253
0.000274
0.000256
0.000263
0.000606
0.000415
0.000312
0.000216
0.000261
0.000270
0.000283
0.000263
0.000268
0.000260
0.000249
0.000340
0.000396
0.000056
0.000220
0.000219
0.000212
0.000235
0.000257
0.000255
0.000236
0.000239
0.000242
0.000256
0.000249
0.000258
0.000251
0.000379
0.000606
0.000414
0.000215
0.000229
0.000261
0.000250
0.000260
0.000268
0.000471
0.000271
0.000235
0.000677
0.000394
0.000435
0.000263
0.000242
0.000197
0.000055
0.000221
0.000200
0.000243
0.000244
0.000244
0.000257
0.000297
0.000566
0.000599
0.000284
0.000252
0.000234
0.000269
0.000285
0.000267
0.000233
0.000242
0.000242
0.000257
0.000341
0.000455
0.000520
0.000433
0.000285
0.000440
0.000343
0.000482
0.000215
0.000239
0.000328
0.000447
0.000056
0.000266
0.000203
0.000489
0.000203
0.000238
0.000218
0.000253
0.000259
0.000230
0.000248
0.000299
0.000396
0.000387
0.000323
0.000246
0.000212
0.000266
0.000237
0.000263
0.000268
0.000274
0.000258
0.000258
0.000263
0.000304
0.000518
0.000449
0.000258
0.000255
0.000281
0.000206
0.000056
0.000181
0.000239
0.000231
0.000241
0.000251
0.000251
0.000383
0.000460
0.000391
0.000280
0.000344
0.000238
0.000228
0.000268
0.000260
0.000237
0.000248
0.000267
0.000335
0.000388
0.000540
0.000246
0.000465
0.000340
0.000399
0.000386
0.000376
0.000247
0.000239
0.000295
0.000356
0.000056
0.000201
0.000252
0.000215
0.000253
0.000250
0.000260
0.000247
0.000251
0.000253
0.000259
0.000240
0.000409
0.000463
0.000305
0.000364
0.000253
0.000247
0.000261
0.000269
0.000239
0.000250
0.000255
0.000260
0.000278
0.000276
0.000319
0.000516
0.000461
0.000242
0.000280
0.000210
0.000056
0.000194
0.000233
0.000249
0.000249
0.000248
0.000345
0.000570
0.000414
0.000352
0.000700
0.000282
0.000213
0.000217
0.000273
0.000230
0.000263
0.000281
0.000267
0.000463
0.000544
0.001529
0.000253
0.000260
0.000254
0.000302
0.000232
0.000311
0.000462
0.000457
0.000245
0.000170
0.000055
0.000209
0.000191
0.000239
0.000248
0.000256
0.000233
0.000275
0.000260
0.000244
0.000365
0.000356
0.000363
0.000275
0.000383
0.000394
0.000317
0.000235
0.000205
0.000256
0.000264
0.000240
0.000250
0.000277
0.000266
0.000335
0.000534
0.000357
0.000274
0.000230
0.000260
0.000197
0.000056
0.000176
0.000219
0.000261
0.000255
0.000247
0.000233
0.000470
0.000220
0.000231
0.000252
0.000249
0.000265
0.000264
0.000234
0.000251
0.000265
0.000267
0.000259
0.000275
0.000263
0.000250
0.000288
0.000302
0.000245
0.000264
0.000268
0.000291
0.000253
0.000262
0.000264
0.000190
0.000056
0.000187
0.000219
0.000305
0.000482
0.000359
0.000230
0.000219
0.000233
0.000260
0.000253
0.000242
0.000259
0.000268
0.000258
0.000237
0.000244
0.000249
0.000265
0.000279
0.000318
0.000451
0.000392
0.000248
0.000258
0.000266
0.000258
0.000268
0.000252
0.000275
0.000277
0.000214
0.000055
0.000388
0.000395
0.000341
0.000220
0.000251
0.000252
0.000473
0.000204
0.000195
0.000247
0.000286
0.000336
0.000360
0.000452
0.001762
0.000261
0.000246
0.000246
0.000275
0.000246
0.000355
0.000497
0.000479
0.000382
0.000227
0.000242
0.000279
0.000411
0.000286
0.000286
0.000179
0.000056
0.000200
0.000366
0.000330
0.000266
0.000513
0.000206
0.000228
0.000256
0.000252
0.000240
0.000259
0.000240
0.000272
0.000357
0.000342
0.000521
0.000240
0.000208
0.000252
0.000272
0.000255
0.000319
0.000230
0.000287
0.000281
0.000546
0.000420
0.000399
0.000460
0.000231
0.000206
0.000056
0.000222
0.000218
0.000235
0.000226
0.000255
0.000248
0.000269
0.000266
0.000343
0.000397
0.000443
0.000353
0.000220
0.000223
0.000268
0.000279
0.000310
0.000237
0.000274
0.000268
0.000250
0.000312
0.000458
0.000387
0.000251
0.000287
0.000247
0.000529
0.000383
0.000274
0.000175
0.000055
0.000191
0.000229
0.000321
0.000435
0.000363
0.000222
0.000229
0.000249
0.000261
0.000256
0.000270
0.000254
0.000222
0.000257
0.000266
0.000282
0.000430
0.000360
0.000406
0.000226
0.000461
0.000240
0.000268
0.000294
0.000289
0.000282
0.000265
0.000257
0.000451
0.000576
0.000184
0.000055
0.000208
0.000202
0.000251
0.000244
0.000244
0.000489
0.000201
0.000251
0.000266
0.000332
0.000532
0.000563
0.000202
0.000242
0.000248
0.000244
0.000244
0.000252
0.000262
0.000251
0.000247
0.000269
0.000342
0.000513
0.000366
0.000358
0.000308
0.000341
0.000307
0.000212
0.000187
0.000057
0.000194
0.000208
0.000249
0.000483
0.000322
0.000382
0.000248
0.000210
0.000221
0.000230
0.000255
0.000251
0.000252
0.000256
0.000297
0.000225
0.000249
0.000242
0.000251
0.000445
0.000662
0.000224
0.000227
0.000227
0.000273
0.000276
0.000256
0.000270
0.000252
0.000259
0.000221
0.000055
0.000283
0.000399
0.000483
0.000214
0.000206
0.000216
0.000308
0.000527
0.000272
0.000200
0.000216
0.000267
0.000297
0.000400
0.000533
0.000252
0.000222
0.000238
0.000263
0.000213
0.000274
0.000265
0.000251
0.000286
0.000256
0.000307
0.000423
0.000444
0.000303
0.000240
0.000155
0.000055
0.000194
0.000236
0.000233
0.000269
0.000237
0.000258
0.000240
0.000250
0.000258
0.000242
0.000265
0.000238
0.000261
0.001457
0.000239
0.000242
0.000261
0.000252
0.000268
0.000281
0.000258
0.000247
0.000273
0.000254
0.000268
0.000265
0.000269
0.000277
0.000267
0.000255
0.000213
0.000057
0.000182
0.000220
0.000245
0.000243
0.000245
0.000237
0.000260
0.000259
0.000233
0.000247
0.000246
0.000259
0.000259
0.000258
0.000257
0.000265
0.000231
0.000262
0.000275
0.000254
0.000250
0.000261
0.000251
0.000249
0.001358
0.000280
0.000552
0.000440
0.000359
0.000216
0.000161
0.000055
0.000197
0.000209
0.000237
0.000247
0.000501
0.000225
0.000207
0.000207
0.000256
0.000306
0.000567
0.000347
0.000217
0.000215
0.000221
0.000262
0.000254
0.000268
0.000245
0.000263
0.000256
0.000255
0.000310
0.000340
0.000559
0.000421
0.000257
0.000242
0.001361
0.000274
0.000193
0.000056
0.000333
0.000379
0.000354
0.000247
0.000200
0.000208
0.000212
0.000253
0.000267
0.000249
0.000251
0.000254
0.000261
0.000328
0.000610
0.000343
0.000279
0.000231
0.000259
0.000244
0.000254
0.000269
0.000270
0.000267
0.000262
0.000261
0.000318
0.000723
0.000241
0.000378
0.000161
0.000056
0.000189
0.000232
0.001309
0.000354
0.000423
0.000346
0.000386
0.000304
0.000432
0.000382
0.000236
0.000202
0.000239
0.000252
0.000265
0.000258
0.000296
0.000614
0.000339
0.000341
0.000271
0.000246
0.000256
0.000516
0.000237
0.000253
0.000265
0.000270
0.000268
0.000573
0.000323
0.000056
0.000372
0.000346
0.000214
0.000206
0.001578
0.000551
0.000245
0.000211
0.000219
0.000241
0.000227
0.000237
0.000247
0.000261
0.000258
0.000263
0.000237
0.000325
0.000425
0.000417
0.000419
0.000210
0.000233
0.000241
0.000248
0.000276
0.000272
0.000242
0.000259
0.000275
0.000224
0.000055
0.000353
0.000318
0.000260
0.000203
0.000245
0.000247
0.000244
0.000248
0.000241
0.000243
0.001529
0.000420
0.000246
0.000202
0.000216
0.000256
0.000266
0.000267
0.000232
0.000269
0.000279
0.000251
0.000260
0.000454
0.000367
0.000492
0.000225
0.000245
0.000285
0.000273
0.000195
0.000055
0.000206
0.000455
0.000210
0.000214
0.000305
0.000434
0.000513
0.000205
0.000449
0.000225
0.000210
0.000245
0.000261
0.000259
0.000272
0.001426
0.000337
0.000291
0.000247
0.000262
0.000291
0.000239
0.000257
0.000256
0.000257
0.000271
0.000498
0.000408
0.000302
0.000274
0.000149
0.000056
0.000197
0.000205
0.000262
0.000241
0.000224
0.000264
0.000236
0.000255
0.000304
0.000409
0.000437
0.000300
0.000219
0.000207
0.000247
0.000253
0.000283
0.000263
0.000274
0.000233
0.000246
0.000271
0.001361
0.000223
0.000280
0.000218
0.000232
0.000268
0.000268
0.000254
0.000202
0.000055
0.000206
0.000324
0.000425
0.000337
0.000236
0.000212
0.000255
0.000243
0.000258
0.000251
0.000263
0.000258
0.000245
0.000258
0.000249
0.000258
0.000267
0.000275
0.000262
0.000253
0.000251
0.000271
0.000262
0.000282
0.000288
0.000268
0.000286
0.000233
0.000269
0.000513
0.001317
0.000056
0.000194
0.000227
0.000224
0.000247
0.000246
0.000261
0.000248
0.000227
0.000241
0.000250
0.000268
0.000260
0.000259
0.000240
0.000245
0.001702
0.000374
0.000212
0.000210
0.000235
0.000246
0.000262
0.000268
0.000259
0.000254
0.000287
0.000262
0.000273
0.000269
0.000261
0.000263
0.000055
0.000270
0.000303
0.001373
0.000201
0.000208
0.000238
0.000244
0.000249
0.000255
0.000260
0.000234
0.000371
0.000364
0.000517
0.000248
0.000204
0.000235
0.000249
0.000257
0.000273
0.000234
0.000264
0.000277
0.000279
0.000264
0.000410
0.000372
0.000380
0.000275
0.000257
0.000200
0.000056
0.000227
0.000236
0.000223
0.000244
0.000251
0.000239
0.000232
0.000340
0.000374
0.000405
0.001150
0.000232
0.000231
0.000268
0.000256
0.000269
0.000267
0.000247
0.000326
0.000438
0.000394
0.000249
0.000220
0.000266
0.000244
0.000271
0.000270
0.000295
0.000269
0.000278
0.000209
0.000055
0.000238
0.000395
0.000438
0.000226
0.000217
0.000200
0.000239
0.000265
0.000269
0.000259
0.000223
0.000531
0.000305
0.000442
0.000478
0.001439
0.000227
0.000287
0.000312
0.000359
0.000423
0.000429
0.000493
0.000378
0.000223
0.000265
0.000257
0.000277
0.000267
0.000296
0.000164
0.000056
0.000213
0.000217
0.000539
0.000351
0.000425
0.000207
0.000242
0.000238
0.000239
0.000259
0.000248
0.000265
0.000260
0.000254
0.000262
0.000304
0.000391
0.000513
0.000261
0.001346
0.000241
0.000258
0.000244
0.000461
0.000357
0.000403
0.000382
0.000232
0.000230
0.000272
0.000213
0.000055
0.000181
0.000213
0.000246
0.000244
0.000243
0.000272
0.000476
0.000360
0.000370
0.000237
0.000232
0.000249
0.000275
0.000262
0.000261
0.000263
0.000268
0.000256
0.000266
0.000252
0.000573
0.000411
0.000328
0.001391
0.000300
0.000241
0.000287
0.000433
0.000447
0.000331
0.000348
0.000056
0.000191
0.000211
0.000247
0.000247
0.000251
0.000250
0.001695
0.000251
0.000228
0.000213
0.000255
0.000258
0.000324
0.000323
0.000330
0.000277
0.000251
0.000292
0.000502
0.000432
0.000288
0.000266
0.000230
0.000232
0.001452
0.000429
0.000390
0.000496
0.000304
0.000289
0.000161
0.000056
0.000213
0.000220
0.000259
0.000256
0.000254
0.000249
0.001783
0.000213
0.000228
0.000263
0.000391
0.000416
0.001432
0.000310
0.000422
0.000218
0.000206
0.000233
0.000267
0.000266
0.001718
0.000536
0.000330
0.000301
0.000198
0.000221
0.000246
0.000278
0.000254
0.000249
0.000209
0.000056
0.000224
0.000200
0.000254
0.000252
0.000258
0.000269
0.000287
0.000256
0.000249
0.000254
0.000252
0.000246
0.000257
0.000277
0.000246
0.001498
0.000283
0.000234
0.000266
0.000276
0.000267
0.000266
0.000427
0.001271
0.000263
0.000266
0.000247
0.000256
0.000464
0.000212
0.000188
0.000056
0.000195
0.000224
0.000234
0.000242
0.000242
0.000228
0.000244
0.001751
0.000212
0.000212
0.000233
0.000370
0.000237
0.000223
0.001458
0.000238
0.000214
0.000218
0.000272
0.000241
0.000257
0.000315
0.000332
0.001359
0.000278
0.000239
0.000219
0.000251
0.001388
0.000268
0.000230
0.000055
0.000339
0.000259
0.000216
0.000206
0.000253
0.000235
0.000264
0.000270
0.000271
0.000243
0.000259
0.000260
0.000256
0.000251
0.000296
0.001502
0.000258
0.000258
0.000265
0.000248
0.000281
0.000262
0.000268
0.001486
0.000339
0.000249
0.000264
0.001349
0.000236
0.000222
0.000234
0.000055
0.000186
0.000396
0.000325
0.000201
0.000227
0.000241
0.000254
0.000262
0.000263
0.000268
0.000237
0.000257
0.000254
0.000328
0.000421
0.001235
0.000216
0.000217
0.000245
0.000277
0.000238
0.000231
0.000253
0.001386
0.000295
0.000231
0.000241
0.000217
0.000255
0.001337
0.000525
0.000055
0.000286
0.000250
0.000221
0.000211
0.000228
0.000248
0.000254
0.000246
0.000268
0.000255
0.000242
0.000248
0.000302
0.000252
0.000423
0.001495
0.000230
0.000234
0.000297
0.000493
0.000316
0.000389
0.001347
0.000294
0.000250
0.000258
0.001279
0.000357
0.000359
0.000435
0.000276
0.000055
0.000203
0.000240
0.000253
0.000254
0.000249
0.000259
0.000275
0.000242
0.000261
0.000267
0.000401
0.000405
0.001378
0.000212
0.000234
0.000253
0.000286
0.000261
0.000225
0.000216
0.000337
0.001309
0.000230
0.000235
0.000227
0.000251
0.001455
0.000482
0.000473
0.000241
0.000202
0.000056
0.000208
0.000223
0.000220
0.000237
0.000253
0.000266
0.000245
0.000289
0.000405
0.000480
0.000304
0.001458
0.000225
0.000222
0.000267
0.000263
0.000252
0.000499
0.001434
0.000340
0.000357
0.000336
0.001315
0.000427
0.000270
0.000340
0.000230
0.000224
0.000237
0.000273
0.000207
0.000057
0.000197
0.000218
0.000316
0.000274
0.000247
0.000613
0.000271
0.000339
0.001476
0.000288
0.000333
0.000250
0.000209
0.000318
0.000335
0.001383
0.000267
0.000217
0.000241
0.000224
0.000310
0.001585
0.000378
0.000264
0.000226
0.000220
0.000516
0.000318
0.000222
0.000234
0.000244
0.000056
0.000260
0.000395
0.000308
0.000295
0.000209
0.001466
0.000242
0.000238
0.000250
0.000265
0.000267
0.000244
0.000306
0.001481
0.000269
0.000217
0.000426
0.001276
0.000305
0.000405
0.000412
0.000230
0.000247
0.000236
0.000279
0.000271
0.000425
0.000241
0.000262
0.000268
0.000216
0.000055
0.000209
0.000327
0.000247
0.001466
0.000256
0.000214
0.000305
0.000251
0.000244
0.000252
0.000239
0.000279
0.001624
0.000211
0.000221
0.000218
0.001373
0.000338
0.000441
0.000466
0.000334
0.000201
0.000242
0.000264
0.000353
0.000233
0.000232
0.000254
0.000240
0.000254
0.000213
0.000056
0.000228
0.000376
0.001451
0.000217
0.000255
0.000268
0.000253
0.000243
0.000328
0.000378
0.001328
0.000256
0.000319
0.000216
0.000224
0.001515
0.000476
0.000307
0.000316
0.000403
0.000325
0.000231
0.000233
0.000235
0.000272
0.000286
0.000276
0.000356
0.000435
0.000534
0.001281
0.000056
0.000197
0.000241
0.000226
0.000214
0.000248
0.000393
0.000538
0.001327
0.000215
0.000216
0.000236
0.001450
0.000431
0.000320
0.000456
0.000260
0.000216
0.000205
0.000243
0.000271
0.000265
0.000264
0.000275
0.000262
0.000249
0.000299
0.000415
0.000522
0.001463
0.000269
0.000191
0.000055
0.000179
0.000228
0.000619
0.000356
0.001152
0.000293
0.000252
0.000244
0.000251
0.000248
0.000259
0.000256
0.000339
0.000569
0.000308
0.000232
0.000246
0.000274
0.000241
0.000268
0.000262
0.000269
0.000256
0.000262
0.000265
0.000443
0.000409
0.000372
0.000299
0.001491
0.000148
0.000057
0.000205
0.000213
0.000281
0.000437
0.000370
0.000300
0.000285
0.000333
0.000274
0.000265
0.000253
0.000269
0.000240
0.000310
0.000266
0.000305
0.000512
0.000322
0.000295
0.000374
0.000294
0.000468
0.000216
0.000257
0.000207
0.000251
0.000260
0.000282
0.000402
0.000446
0.000321
0.000055
0.000229
0.001361
0.000266
0.000335
0.000484
0.000297
0.000368
0.000352
0.000220
0.000217
0.000254
0.000265
0.000253
0.000261
0.000267
0.000262
0.000267
0.001444
0.000227
0.000219
0.000229
0.000273
0.000273
0.000274
0.000268
0.000261
0.000263
0.000261
0.000311
0.000423
0.000305
0.000056
0.000235
0.000244
0.001451
0.000343
0.000297
0.000207
0.000205
0.000214
0.000232
0.000247
0.000247
0.000276
0.000257
0.000242
0.000265
0.000263
0.000242
0.000262
0.000267
0.000259
0.001475
0.000224
0.000228
0.000332
0.000227
0.000218
0.000249
0.000263
0.000276
0.000501
0.000382
0.000055
0.000208
0.000201
0.000379
0.000311
0.000235
0.000254
0.001527
0.000339
0.000346
0.000199
0.000240
0.000346
0.000324
0.000219
0.000219
0.000252
0.000251
0.000252
0.000266
0.000261
0.000473
0.000579
0.001114
0.000267
0.000225
0.000231
0.000262
0.000270
0.000247
0.000267
0.000398
0.000057
0.000233
0.000358
0.000195
0.000207
0.000241
0.000247
0.000239
0.000231
0.001450
0.000565
0.000303
0.000312
0.000204
0.000210
0.000253
0.000247
0.000254
0.000275
0.000254
0.000313
0.000306
0.000517
0.000413
0.001373
0.000250
0.000250
0.000274
0.000257
0.000273
0.000289
0.000487
0.000055
0.000260
0.000240
0.000223
0.000231
0.000229
0.000233
0.000267
0.000245
0.000272
0.001571
0.000347
0.000255
0.000266
0.000261
0.000459
0.000311
0.000400
0.000460
0.000329
0.000329
0.000449
0.000455
0.001303
0.000238
0.000213
0.000239
0.001792
0.000398
0.000629
0.000291
0.000147
0.000057
0.000205
0.000201
0.000240
0.000239
0.000246
0.000248
0.000357
0.000409
0.000536
0.000381
0.000305
0.000214
0.000212
0.000252
0.000265
0.000266
0.000251
0.000255
0.000245
0.000274
0.000303
0.000363
0.001367
0.000242
0.000240
0.000265
0.001891
0.000380
0.000379
0.000366
0.000175
0.000056
0.000249
0.000207
0.000241
0.001647
0.000315
0.000255
0.000227
0.000265
0.000241
0.000346
0.000368
0.000379
0.000344
0.000301
0.000375
0.000435
0.000355
0.001293
0.000218
0.000208
0.000234
0.000257
0.000370
0.000381
0.000549
0.000531
0.000220
0.000218
0.000262
0.000277
0.000209
0.000056
0.000184
0.000210
0.001480
0.000382
0.000211
0.000206
0.000224
0.000260
0.000240
0.000250
0.000242
0.000278
0.000271
0.000273
0.000265
0.000360
0.000505
0.000286
0.001383
0.000243
0.000254
0.000256
0.000260
0.000262
0.000500
0.000395
0.000422
0.000291
0.000295
0.000250
0.000396
0.000056
0.000198
0.000208
0.000249
0.000266
0.001576
0.000232
0.000256
0.000243
0.000257
0.000254
0.000254
0.000267
0.000256
0.000246
0.000370
0.000545
0.001477
0.000726
0.000225
0.000326
0.000251
0.000223
0.000230
0.000272
0.001759
0.000731
0.000261
0.000233
0.000274
0.000291
0.000222
0.000056
0.000179
0.000214
0.000267
0.000234
0.000238
0.000258
0.000244
0.000248
0.000250
0.000227
0.000284
0.000278
0.000261
0.000251
0.000276
0.000247
0.000252
0.001602
0.000730
0.000425
0.000286
0.000204
0.000224
0.000281
0.000268
0.000268
0.000270
0.000269
0.001459
0.000364
0.000308
0.000056
0.000204
0.000213
0.000230
0.000253
0.000259
0.000227
0.000257
0.000257
0.000246
0.000276
0.000250
0.000421
0.000489
0.000314
0.000223
0.000225
0.000262
0.001457
0.000690
0.000408
0.000322
0.000310
0.000218
0.000236
0.000272
0.000259
0.000257
0.000261
0.001523
0.000417
0.000233
0.000054
0.000187
0.000211
0.000237
0.000236
0.000269
0.000224
0.000252
0.000246
0.000264
0.000260
0.000402
0.000352
0.000319
0.000249
0.000219
0.000249
0.000266
0.000249
0.001605
0.000571
0.000476
0.000364
0.000219
0.000246
0.000258
0.000256
0.000265
0.000280
0.000269
0.001440
0.000296
0.000056
0.000206
0.000243
0.000183
0.000247
0.000256
0.000247
0.000291
0.000353
0.000375
0.000445
0.000330
0.000396
0.000310
0.000218
0.000233
0.000239
0.000279
0.000260
0.001406
0.000868
0.000320
0.000197
0.000473
0.000231
0.000212
0.000244
0.000274
0.000291
0.000241
0.000262
0.000353
0.000056
0.000177
0.000295
0.000214
0.000230
0.000251
0.000256
0.000238
0.000224
0.000258
0.000258
0.000251
0.000235
0.000282
0.000484
0.000413
0.000477
0.000216
0.000256
0.000257
0.000245
0.000259
0.000373
0.001422
0.001008
0.000247
0.000238
0.000264
0.000257
0.000279
0.000251
0.000221
0.000056
0.000213
0.001380
0.000256
0.000214
0.000203
0.000250
0.000247
0.000242
0.000236
0.000249
0.000257
0.000259
0.000243
0.000375
0.000371
0.000360
0.000419
0.000213
0.000260
0.000268
0.000266
0.000247
0.000245
0.000265
0.001404
0.000670
0.000316
0.000399
0.000390
0.000383
0.000258
0.000055
0.000220
0.000206
0.000491
0.001175
0.000235
0.000265
0.000218
0.000235
0.000270
0.000233
0.000284
0.000220
0.000277
0.000354
0.000560
0.000348
0.000224
0.000296
0.000271
0.000224
0.000236
0.000270
0.000237
0.000266
0.000269
0.001530
0.000749
0.000299
0.000269
0.000285
0.000221
0.000055
0.000190
0.000280
0.000404
0.000404
0.001293
0.000240
0.000206
0.000216
0.000228
0.000249
0.000239
0.000258
0.000234
0.000235
0.000252
0.000256
0.000272
0.000234
0.000255
0.000256
0.000259
0.000275
0.000324
0.000317
0.000229
0.000248
0.000269
0.001542
0.000214
0.000233
0.000164
0.000056
0.000211
0.000201
0.000252
0.000346
0.000343
0.000340
0.000403
0.000237
0.001562
0.000246
0.000331
0.000427
0.000390
0.000227
0.000491
0.000219
0.000220
0.000227
0.000257
0.000277
0.000286
0.000262
0.000257
0.000268
0.000263
0.000416
0.000446
0.000326
0.001526
0.000249
0.000178
0.000055
0.000242
0.000210
0.000244
0.000240
0.000247
0.000245
0.000264
0.000308
0.000437
0.002067
0.000219
0.000202
0.000246
0.000264
0.000256
0.000310
0.000262
0.000222
0.000374
0.000297
0.000367
0.000480
0.001503
0.000219
0.000254
0.000465
0.001771
0.000281
0.000262
0.001490
0.000193
0.000056
0.000400
0.000271
0.000493
0.000236
0.000264
0.000226
0.000259
0.000263
0.000265
0.000234
0.000250
0.000345
0.000407
0.000359
0.000482
0.000217
0.000205
0.001558
0.000490
0.001993
0.000342
0.000217
0.000218
0.001542
0.002050
0.000720
0.000277
0.000237
0.000283
0.000402
0.000463
0.000055
0.000206
0.000217
0.000253
0.000251
0.001487
0.001659
0.001078
0.000232
0.000214
0.001580
0.001968
0.000237
0.000332
0.000395
0.000242
0.000546
0.000297
0.000361
0.000256
0.000224
0.000249
0.000254
0.000271
0.001566
0.001309
0.001415
0.000271
0.000228
0.000274
0.000300
0.000372
0.000056
0.000212
0.000236
0.000205
0.000242
0.000237
0.000227
0.000253
0.000258
0.000247
0.000253
0.000244
0.000306
0.000593
0.000355
0.000319
0.000212
0.000217
0.000270
0.000270
0.000261
0.000255
0.001386
0.000465
0.000450
0.002064
0.000256
0.000243
0.000335
0.000462
0.000445
0.000156
0.000089
0.000199
0.000264
0.000478
0.000321
0.000220
0.000234
0.000214
0.000261
0.000266
0.000217
0.000251
0.000257
0.000260
0.001640
0.002374
0.000313
0.000208
0.000222
0.000222
0.000236
0.000287
0.000281
0.000249
0.000247
0.002272
0.000219
0.000224
0.000281
0.000326
0.000299
0.000249
0.000056
0.000196
0.000408
0.000582
0.000303
0.000231
0.000223
0.000213
0.000243
0.001897
0.001422
0.000268
0.000383
0.000396
0.000348
0.000253
0.000221
0.000222
0.000268
0.000271
0.000265
0.000262
0.000259
0.000470
0.000262
0.000242
0.000272
0.000249
0.000275
0.000283
0.000244
0.000226
0.000056
0.000184
0.000223
0.000248
0.000255
0.000241
0.000262
0.001550
0.001497
0.001308
0.000233
0.000207
0.000221
0.000259
0.000261
0.000249
0.000250
0.000248
0.002182
0.000209
0.000217
0.000244
0.000268
0.000255
0.000265
0.000272
0.000255
0.000269
0.000257
0.000274
0.000256
0.000194
0.000057
0.001492
0.000313
0.002388
0.000276
0.000282
0.000295
0.000246
0.000253
0.000268
0.000239
0.000252
0.000250
0.000237
0.000236
0.000262
0.000281
0.000246
0.000270
0.000257
0.000271
0.000260
0.000280
0.000273
0.000276
0.000246
0.000241
0.000265
0.000268
0.000263
0.000268
0.000387
0.000057
0.000194
0.002543
0.000340
0.000203
0.000218
0.000195
0.000248
0.000258
0.000272
0.000237
0.000409
0.000342
0.000368
0.000227
0.000224
0.002233
0.000204
0.000222
0.000278
0.000459
0.000394
0.000321
0.000227
0.000231
0.000255
0.000250
0.000266
0.000279
0.000272
0.001684
0.001214
0.000057
0.000188
0.000203
0.000278
0.000419
0.000366
0.000272
0.000209
0.000233
0.000246
0.000258
0.000261
0.000264
0.000222
0.000247
0.000267
0.000243
0.000333
0.000584
0.000414
0.000227
0.000241
0.000231
0.000283
0.000264
0.000248
0.000243
0.000264
0.000269
0.000242
0.000354
0.000353
0.000056
0.001112
0.000209
0.000410
0.000476
0.000261
0.000196
0.000215
0.000229
0.002180
0.000481
0.000429
0.000246
0.000216
0.000279
0.000336
0.000267
0.000265
0.000256
0.000263
0.000252
0.000234
0.000313
0.000555
0.000558
0.001772
0.001243
0.000657
0.000506
0.000216
0.000263
0.000211
0.000056
0.000312
0.000274
0.000235
0.000238
0.000243
0.000239
0.000239
0.000244
0.000261
0.000250
0.000248
0.000242
0.000250
0.000251
0.000356
0.000547
0.001887
0.001324
0.000521
0.000286
0.000458
0.000260
0.000232
0.000263
0.002247
0.000430
0.000375
0.000258
0.000262
0.000284
0.000212
0.000056
0.000195
0.000221
0.000251
0.000247
0.000250
0.000325
0.000444
0.000327
0.000316
0.000226
0.000224
0.000277
0.000233
0.002082
0.000358
0.000409
0.000221
0.000248
0.000265
0.000260
0.000243
0.002475
0.000326
0.000229
0.000256
0.000258
0.000245
0.000273
0.000270
0.000290
0.000214
0.000055
0.000214
0.000413
0.000524
0.000368
0.000257
0.000186
0.000190
0.000250
0.000262
0.000262
0.002087
0.000333
0.000262
0.000253
0.000201
0.000244
0.000272
0.000251
0.002269
0.000384
0.000217
0.000271
0.000264
0.000258
0.000266
0.000244
0.000286
0.000250
0.000280
0.000255
0.000193
0.000055
0.000216
0.000216
0.000252
0.000206
0.000251
0.000259
0.000243
0.000243
0.000231
0.002177
0.000236
0.000277
0.000220
0.000486
0.000211
0.000222
0.000252
0.000285
0.000263
0.000253
0.002036
0.000265
0.000369
0.000378
0.000465
0.000334
0.000290
0.000246
0.000234
0.000241
0.000225
0.000056
0.000179
0.000250
0.000197
0.000244
0.000259
0.000381
0.000204
0.002337
0.000203
0.000227
0.000234
0.000252
0.000242
0.000248
0.000300
0.002205
0.000517
0.000215
0.000267
0.000236
0.000263
0.000256
0.000286
0.000270
0.000265
0.000253
0.000283
0.000261
0.000263
0.000330
0.000151
0.000056
0.000200
0.002997
0.000265
0.000208
0.000237
0.000245
0.000253
0.000294
0.000390
0.000440
0.002073
0.000253
0.000253
0.000253
0.000292
0.000590
0.000354
0.000302
0.000214
0.000222
0.000244
0.000252
0.000269
0.000238
0.000246
0.000275
0.000262
0.000274
0.000293
0.000733
0.000286
0.000056
0.000207
0.000275
0.000266
0.000207
0.000234
0.000268
0.000229
0.000250
0.001602
0.002065
0.000518
0.000275
0.000388
0.000783
0.000353
0.000206
0.000216
0.000237
0.000267
0.000261
0.000276
0.000219
0.000250
0.000272
0.001831
0.001460
0.000283
0.000279
0.000310
0.000274
0.000444
0.000056
0.001935
0.000242
0.000224
0.000203
0.000293
0.000371
0.000405
0.000348
0.000322
0.000230
0.000210
0.000224
0.000252
0.000260
0.000253
0.000267
0.000248
0.000267
0.001911
0.000213
0.000213
0.000237
0.000278
0.000273
0.000275
0.000260
0.001522
0.000352
0.000219
0.000237
0.000170
0.000056
0.000211
0.000201
0.000232
0.000243
0.000247
0.000237
0.000263
0.000424
0.000400
0.000354
0.000207
0.000218
0.000333
0.000345
0.000353
0.000319
0.000246
0.000201
0.000251
0.000367
0.000543
0.000415
0.000230
0.000226
0.000263
0.000255
0.000257
0.000264
0.000275
0.000267
0.000221
0.000056
0.001406
0.000406
0.000234
0.002002
0.000241
0.000504
0.000319
0.000377
0.000204
0.000205
0.000262
0.000247
0.000255
0.000244
0.000271
0.000252
0.000457
0.000250
0.000498
0.000296
0.000399
0.000213
0.000249
0.000261
0.000332
0.000246
0.000225
0.000271
0.000314
0.000566
0.001362
0.000055
0.000195
0.000227
0.002079
0.000266
0.000312
0.000264
0.000254
0.000255
0.000262
0.000256
0.000230
0.000237
0.000263
0.000257
0.000262
0.000345
0.000711
0.001743
0.000262
0.000248
0.000259
0.000255
0.000445
0.000415
0.001528
0.000276
0.002131
0.000287
0.000188
0.000241
0.000190
0.000056
0.000183
0.000215
0.000225
0.000247
0.000229
0.000246
0.000256
0.000275
0.000340
0.000310
0.000382
0.000368
0.000326
0.000289
0.000218
0.000259
0.000263
0.000240
0.000258
0.000271
0.000272
0.000323
0.000246
0.000267
0.000271
0.001572
0.000300
0.000400
0.002028
0.000217
0.000169
0.000056
0.000193
0.000231
0.000226
0.000246
0.000463
0.000224
0.000255
0.000358
0.000396
0.000332
0.000232
0.000217
0.000253
0.000272
0.000281
0.000321
0.000442
0.000415
0.000257
0.000384
0.000591
0.000449
0.001525
0.000263
0.000239
0.002028
0.000358
0.000204
0.000227
0.000258
0.000207
0.000055
0.000205
0.000222
0.000223
0.000247
0.000245
0.000269
0.000257
0.000270
0.000250
0.000250
0.001888
0.000288
0.000399
0.000328
0.000455
0.000360
0.001507
0.000340
0.000207
0.000311
0.002066
0.000586
0.000262
0.000221
0.000224
0.000281
0.000480
0.000245
0.000259
0.000269
0.000214
0.000057
0.000291
0.000376
0.000315
0.000280
0.000211
0.000205
0.000260
0.000250
0.000266
0.000301
0.000223
0.000245
0.000266
0.000250
0.000360
0.000504
0.001268
0.000258
0.000434
0.001892
0.000296
0.000267
0.000225
0.000246
0.000247
0.000275
0.000268
0.000265
0.000244
0.000266
0.000223
0.000055
0.000287
0.000318
0.002068
0.000230
0.000244
0.000216
0.000228
0.000306
0.000425
0.001504
0.000340
0.000372
0.000325
0.001994
0.000229
0.000240
0.000266
0.000273
0.000266
0.000230
0.000293
0.000281
0.000265
0.000367
0.000526
0.000330
0.000319
0.002204
0.000534
0.000421
0.000466
0.000055
0.000201
0.000212
0.000221
0.002031
0.000201
0.000226
0.000225
0.000237
0.000234
0.000257
0.000240
0.000261
0.000257
0.000404
0.000390
0.000358
0.001281
0.000249
0.000265
0.000274
0.000228
0.000248
0.000264
0.000261
0.000340
0.000434
0.000488
0.000232
0.001692
0.000225
0.000154
0.000056
0.000198
0.000205
0.000231
0.000234
0.000253
0.000250
0.000255
0.000246
0.000252
0.000414
0.000318
0.001498
0.000200
0.000210
0.000226
0.000259
0.000263
0.000262
0.000280
0.000534
0.000432
0.000393
0.000226
0.001556
0.000262
0.000234
0.000282
0.000279
0.000261
0.000275
0.000209
0.000056
0.000198
0.000204
0.000267
0.000266
0.000257
0.000236
0.000243
0.000236
0.000262
0.000242
0.000259
0.000251
0.000251
0.000257
0.001583
0.000230
0.000244
0.000262
0.000339
0.000324
0.000362
0.000259
0.000206
0.000254
0.000262
0.000258
0.001469
0.000298
0.000208
0.000247
0.000160
0.000056
0.000206
0.000218
0.000242
0.000260
0.000276
0.000212
0.000252
0.000269
0.000221
0.000260
0.000242
0.000256
0.000233
0.000299
0.000467
0.000278
0.000289
0.001583
0.000333
0.000209
0.000218
0.000230
0.000267
0.000294
0.000422
0.000458
0.000407
0.000224
0.000221
0.001620
0.000172
0.000056
0.000374
0.000317
0.000386
0.000261
0.000215
0.000206
0.000233
0.000274
0.000253
0.000240
0.000244
0.000238
0.001472
0.000314
0.000308
0.000222
0.000218
0.000256
0.000268
0.000268
0.000257
0.000238
0.000257
0.000272
0.000249
0.000332
0.000501
0.000378
0.000303
0.000226
0.000178
0.000056
0.000262
0.000276
0.000417
0.000314
0.000365
0.000241
0.000237
0.000240
0.000251
0.000256
0.000250
0.000218
0.000254
0.000245
0.001360
0.000257
0.000215
0.000227
0.000264
0.000256
0.000246
0.000252
0.000263
0.000257
0.000259
0.000254
0.000273
0.000768
0.000423
0.000232
0.000186
0.000057
0.000192
0.001533
0.000262
0.000325
0.000450
0.000412
0.000195
0.000240
0.000262
0.000259
0.000244
0.000255
0.000268
0.000277
0.000264
0.001521
0.000254
0.000280
0.000276
0.000249
0.000260
0.000251
0.000259
0.000267
0.000265
0.000258
0.000472
0.000383
0.000359
0.000233
0.000159
0.000056
0.000234
0.000199
0.000248
0.001751
0.000363
0.000318
0.000217
0.000202
0.000246
0.000266
0.000273
0.000262
0.000248
0.000261
0.000241
0.000264
0.000360
0.001436
0.000208
0.000251
0.001555
0.000319
0.000522
0.000394
0.000293
0.000232
0.000258
0.000478
0.000229
0.000258
0.000201
0.000055
0.000295
0.000225
0.000215
0.000236
0.000245
0.000254
0.000240
0.000271
0.000245
0.000238
0.000255
0.000263
0.000340
0.000528
0.001593
0.001557
0.000331
0.000513
0.000315
0.000248
0.000219
0.000262
0.000260
0.000247
0.000259
0.000280
0.000248
0.000270
0.001593
0.000313
0.000140
0.000056
0.000213
0.000338
0.000344
0.000331
0.000256
0.000214
0.000202
0.000388
0.000375
0.001428
0.000352
0.001541
0.000338
0.000532
0.000420
0.000272
0.000344
0.000334
0.000346
0.000273
0.000246
0.000346
0.001553
0.000536
0.000233
0.000253
0.000267
0.000258
0.000252
0.000273
0.000201
0.000056
0.000200
0.000222
0.000257
0.000254
0.000243
0.001654
0.000963
0.000890
0.000240
0.000239
0.000252
0.000259
0.000253
0.000257
0.000259
0.000250
0.000254
0.000266
0.000266
0.000290
0.001485
0.000281
0.000249
0.000225
0.000227
0.000238
0.000270
0.000272
0.000273
0.000274
0.000207
0.000056
0.000201
0.000204
0.001533
0.000973
0.000317
0.000347
0.000219
0.000210
0.000251
0.000249
0.000251
0.000257
0.000261
0.002026
0.000473
0.000216
0.000208
0.000240
0.000259
0.000258
0.000209
