0.000096
0.019988
0.001430
0.000260
0.000251
0.000298
0.000329
0.000227
0.000333
0.000275
0.000260
0.000325
0.000623
0.000497
0.000287
0.000327
0.000273
0.000346
0.000355
0.000423
0.001838
0.000391
0.000699
0.000274
0.000244
0.000299
0.000321
0.000328
0.000403
0.000448
0.000432
0.000301
0.000057
0.000219
0.000261
0.000272
0.000286
0.000277
0.000220
0.000280
0.000291
0.000265
0.000308
0.000386
0.000452
0.000299
0.000255
0.000372
0.000354
0.000365
0.000250
0.000241
0.001713
0.000309
0.000261
0.000482
0.000218
0.000274
0.000277
0.000286
0.000298
0.000274
0.000335
0.000411
0.000057
0.000238
0.000264
0.000263
0.000259
0.000248
0.000249
0.000266
0.000254
0.000288
0.001660
0.000232
0.000235
0.000277
0.000266
0.000276
0.000251
0.000261
0.000259
0.000350
0.001795
0.000244
0.000276
0.000477
0.000402
0.000378
0.000246
0.000352
0.000384
0.000497
0.000757
0.000205
0.000056
0.000217
0.000251
0.000252
0.000236
0.000303
0.000243
0.000380
0.000587
0.000288
0.000262
0.000237
0.000258
0.000240
0.000258
0.000254
0.000255
0.000244
0.000271
0.000292
0.000329
0.001673
0.000271
0.000251
0.000450
0.000651
0.000388
0.000609
0.000507
0.000354
0.000235
0.000194
0.000056
0.000219
0.000249
0.000295
0.000218
0.000276
0.000231
0.000363
0.001597
0.000240
0.000223
0.000239
0.000240
0.000260
0.000253
0.000265
0.000281
0.000389
0.000681
0.001405
0.000295
0.000242
0.000420
0.000228
0.000253
0.000262
0.000259
0.000265
0.000277
0.000258
0.000265
0.000195
0.000056
0.000202
0.000248
0.000246
0.000267
0.000237
0.000250
0.000231
0.000252
0.000234
0.000265
0.001625
0.000266
0.000234
0.000235
0.000258
0.000250
0.000240
0.000257
0.000248
0.000260
0.000293
0.001643
0.000274
0.000261
0.000436
0.000245
0.000262
0.000258
0.000269
0.000271
0.000196
0.000057
0.000207
0.000218
0.000253
0.000238
0.000247
0.000245
0.000270
0.000228
0.000264
0.000262
0.000248
0.000253
0.000261
0.000272
0.001635
0.000279
0.000295
0.000210
0.000255
0.000276
0.000268
0.000235
0.000246
0.000267
0.001785
0.000492
0.000241
0.000375
0.000232
0.000284
0.000194
0.000055
0.000196
0.000263
0.000230
0.000269
0.000254
0.000260
0.000261
0.000433
0.000399
0.000422
0.000204
0.000251
0.000253
0.000249
0.001561
0.000575
0.000279
0.000425
0.000299
0.000231
0.000272
0.000279
0.000272
0.001725
0.000531
0.000455
0.000241
0.000244
0.000259
0.000259
0.000184
0.000056
0.000211
0.000244
0.000239
0.000301
0.000299
0.000573
0.000258
0.000272
0.000209
0.000252
0.000261
0.000237
0.000254
0.001713
0.000481
0.000299
0.000222
0.000249
0.000277
0.000293
0.000240
0.000262
0.001802
0.000378
0.000291
0.000383
0.000239
0.000257
0.000272
0.000396
0.000354
0.000056
0.000269
0.000329
0.000340
0.000286
0.000261
0.000242
0.000256
0.000254
0.000243
0.000231
0.000239
0.000249
0.001556
0.000379
0.000280
0.000231
0.000256
0.000249
0.000254
0.000301
0.000385
0.000191
0.000247
0.001816
0.000256
0.000495
0.000239
0.000257
0.000258
0.000265
0.000261
0.000056
0.000366
0.000528
0.000596
0.000210
0.000230
0.000271
0.000232
0.000218
0.000263
0.000252
0.000253
0.001703
0.000244
0.000453
0.000366
0.000217
0.000237
0.000230
0.000251
0.000257
0.000269
0.001847
0.000230
0.000467
0.001859
0.000586
0.000296
0.000252
0.000251
0.000266
0.000184
0.000056
0.000206
0.000238
0.000247
0.000242
0.000258
0.001622
0.000253
0.000231
0.000254
0.000249
0.000243
0.000263
0.000226
0.000260
0.000293
0.000377
0.000643
0.000259
0.000235
0.000269
0.000279
0.000235
0.000247
0.000435
0.000434
0.000256
0.000353
0.000600
0.000384
0.000270
0.000214
0.000056
0.000216
0.000241
0.000253
0.000249
0.000245
0.000232
0.000249
0.000443
0.001785
0.000311
0.000222
0.000236
0.000268
0.000227
0.000258
0.000276
0.000450
0.000438
0.000361
0.000241
0.000262
0.000309
0.000277
0.000252
0.000273
0.000441
0.000336
0.000559
0.000569
0.000389
0.000185
0.000056
0.000214
0.000225
0.000241
0.000238
0.000235
0.000237
0.000244
0.000262
0.000229
0.000287
0.000341
0.000387
0.001449
0.000256
0.000224
0.000240
0.000260
0.000249
0.000248
0.000279
0.000254
0.000428
0.000436
0.000263
0.000271
0.000251
0.000252
0.000280
0.000258
0.000264
0.000387
0.000057
0.000209
0.000243
0.000228
0.000349
0.000527
0.000351
0.000242
0.000257
0.000234
0.000261
0.000260
0.000226
0.000294
0.000251
0.000241
0.000544
0.000455
0.001544
0.000288
0.000221
0.000256
0.000265
0.000255
0.000240
0.000273
0.000471
0.000436
0.000334
0.000427
0.000245
0.000192
0.000056
0.000234
0.000441
0.000230
0.000215
0.000282
0.000226
0.000349
0.000601
0.000251
0.000309
0.000227
0.000274
0.000266
0.000233
0.000523
0.000341
0.000226
0.000275
0.000442
0.001577
0.000269
0.000242
0.000528
0.000241
0.000279
0.000272
0.000257
0.000336
0.000562
0.000378
0.000264
0.000056
0.000194
0.000237
0.000239
0.000244
0.000419
0.000305
0.000290
0.000271
0.000406
0.000491
0.000299
0.000267
0.000230
0.000250
0.000252
0.000266
0.000258
0.000252
0.000230
0.000350
0.000288
0.000340
0.001842
0.000234
0.000258
0.000255
0.000282
0.000347
0.000411
0.000720
0.000424
0.000057
0.000220
0.000334
0.000298
0.000415
0.000392
0.000202
0.000260
0.000282
0.000590
0.000346
0.000262
0.000245
0.000235
0.000272
0.000259
0.000235
0.000259
0.000268
0.000266
0.000259
0.000263
0.000371
0.000749
0.001288
0.000325
0.000434
0.000421
0.000236
0.000432
0.000540
0.000203
0.000056
0.000234
0.000370
0.000282
0.000204
0.000230
0.000245
0.000417
0.000230
0.000248
0.000522
0.000392
0.000350
0.000209
0.000263
0.000263
0.000251
0.000373
0.000429
0.000287
0.000244
0.000247
0.000399
0.000635
0.001660
0.000230
0.000426
0.000315
0.000224
0.000296
0.000433
0.000316
0.000057
0.000192
0.000233
0.000248
0.000254
0.000247
0.000233
0.000256
0.000322
0.000459
0.000328
0.000431
0.000347
0.000279
0.000576
0.000244
0.000237
0.000282
0.000262
0.000228
0.000342
0.000219
0.000255
0.000267
0.000419
0.000552
0.001593
0.000271
0.000239
0.000245
0.000275
0.000185
0.000056
0.000303
0.000557
0.000200
0.000217
0.000263
0.000234
0.000258
0.000236
0.000273
0.000239
0.000221
0.000266
0.000430
0.000540
0.000383
0.000251
0.000277
0.000222
0.000338
0.000382
0.000383
0.000334
0.000364
0.000393
0.000253
0.000255
0.000265
0.000277
0.001789
0.000244
0.000209
0.000057
0.000194
0.000225
0.000261
0.000291
0.000335
0.000572
0.000302
0.000207
0.000274
0.000242
0.000246
0.000246
0.000527
0.000442
0.000491
0.000268
0.000268
0.000264
0.000415
0.000466
0.000363
0.000461
0.000484
0.000397
0.000245
0.000236
0.000276
0.000237
0.000268
0.001718
0.000329
0.000057
0.000289
0.000327
0.000205
0.000240
0.000258
0.000246
0.000236
0.000500
0.000379
0.000302
0.000294
0.000331
0.000442
0.000570
0.000272
0.000225
0.000258
0.000255
0.000275
0.000248
0.000274
0.000257
0.000245
0.000266
0.000362
0.000303
0.000418
0.000340
0.000259
0.000244
0.000189
0.000056
0.000426
0.000334
0.000437
0.000239
0.000205
0.000253
0.000245
0.000254
0.000243
0.000235
0.000238
0.000275
0.000296
0.000468
0.000438
0.000539
0.000229
0.000318
0.000374
0.000348
0.000294
0.000245
0.000249
0.000262
0.001744
0.000249
0.001725
0.000941
0.000399
0.000331
0.000165
0.000057
0.000195
0.000241
0.000237
0.000241
0.000272
0.000232
0.000258
0.000252
0.000241
0.000356
0.000320
0.000436
0.000339
0.000381
0.000237
0.000264
0.000248
0.000287
0.000231
0.000261
0.000240
0.000266
0.001807
0.000237
0.000255
0.000269
0.000275
0.000264
0.001889
0.000537
0.000252
0.000056
0.000202
0.000215
0.000234
0.000243
0.000256
0.000248
0.000239
0.000253
0.000279
0.000366
0.000628
0.000229
0.000393
0.000225
0.000245
0.000255
0.000320
0.000455
0.000371
0.000233
0.001786
0.000248
0.000253
0.000252
0.000261
0.000266
0.000242
0.000252
0.000325
0.000334
0.000398
0.000056
0.000266
0.000208
0.000238
0.000269
0.000239
0.000242
0.000254
0.000256
0.000237
0.000268
0.000236
0.000293
0.000321
0.000448
0.000333
0.000261
0.000471
0.000238
0.000246
0.000258
0.000260
0.000261
0.000292
0.000242
0.000273
0.001787
0.000252
0.000244
0.000262
0.000242
0.000200
0.000057
0.000267
0.000297
0.000229
0.000234
0.000237
0.000232
0.000241
0.000255
0.000246
0.000226
0.000234
0.000258
0.000300
0.000326
0.000394
0.000390
0.000265
0.000243
0.000245
0.000258
0.000265
0.000256
0.000253
0.000270
0.000258
0.000255
0.000320
0.001619
0.000270
0.000233
0.000197
0.000056
0.000209
0.000231
0.000272
0.000235
0.000371
0.000314
0.000468
0.000268
0.000223
0.000256
0.000266
0.000231
0.000242
0.000257
0.000262
0.000259
0.000244
0.000258
0.000252
0.000257
0.000273
0.000261
0.000251
0.000232
0.000241
0.000282
0.000283
0.000257
0.000253
0.000264
0.000195
0.000057
0.000234
0.000215
0.000257
0.000279
0.000229
0.000238
0.000242
0.000262
0.000296
0.000231
0.000220
0.000253
0.000253
0.000253
0.000295
0.000242
0.000256
0.000236
0.000295
0.000254
0.000280
0.000317
0.000268
0.000219
0.000310
0.000249
0.000270
0.000246
0.000311
0.000385
0.000611
0.000057
0.000224
0.000285
0.000223
0.000238
0.000232
0.000250
0.000237
0.000255
0.000248
0.000246
0.000264
0.000305
0.000684
0.000253
0.001552
0.000231
0.000501
0.000232
0.000277
0.000421
0.000514
0.000319
0.000223
0.000285
0.000247
0.000257
0.000284
0.000252
0.000305
0.000278
0.000166
0.000055
0.000377
0.000349
0.000355
0.000307
0.000214
0.000278
0.000230
0.000245
0.000232
0.000243
0.000258
0.000257
0.000229
0.000258
0.000352
0.000573
0.000333
0.001790
0.000237
0.000261
0.000364
0.000389
0.000499
0.000242
0.000317
0.000332
0.000303
0.000229
0.000226
0.000260
0.000195
0.000056
0.000217
0.000229
0.000239
0.000320
0.000476
0.000322
0.000315
0.000256
0.000252
0.000215
0.000255
0.000266
0.000264
0.000262
0.000246
0.000258
0.000443
0.000424
0.000353
0.000353
0.000236
0.001745
0.000317
0.000491
0.000528
0.000456
0.000320
0.000232
0.000259
0.000264
0.000448
0.000057
0.000210
0.000275
0.000222
0.000251
0.000576
0.000400
0.000327
0.000205
0.000280
0.000277
0.000220
0.000260
0.000253
0.000291
0.000311
0.000239
0.000227
0.000339
0.000632
0.000232
0.000496
0.001852
0.000254
0.000497
0.000492
0.000323
0.000203
0.000258
0.000283
0.000271
0.000195
0.000056
0.000215
0.000330
0.000363
0.000330
0.000430
0.000304
0.000324
0.000215
0.000247
0.000254
0.000272
0.000223
0.000255
0.000251
0.000249
0.000277
0.000312
0.000346
0.000640
0.000356
0.000210
0.000228
0.000250
0.001743
0.000441
0.000442
0.000708
0.000233
0.000271
0.000304
0.000165
0.000055
0.000197
0.000240
0.000347
0.000249
0.000249
0.000491
0.000278
0.000320
0.000243
0.000533
0.000223
0.000253
0.000263
0.000277
0.000270
0.000266
0.000206
0.000384
0.000488
0.000395
0.000254
0.000238
0.000257
0.000257
0.000258
0.000267
0.000233
0.000256
0.000268
0.000290
0.000222
0.000056
0.000340
0.000288
0.000207
0.000267
0.000243
0.000257
0.000245
0.000283
0.000238
0.000253
0.000277
0.000335
0.000414
0.000413
0.000334
0.000279
0.000236
0.000224
0.000278
0.000252
0.000283
0.000272
0.000226
0.000261
0.000276
0.000320
0.000417
0.000403
0.000309
0.000239
0.000178
0.000056
0.000237
0.000197
0.000283
0.000241
0.000239
0.000271
0.000261
0.000237
0.000487
0.000217
0.000251
0.000265
0.000238
0.000280
0.000256
0.000306
0.000234
0.000339
0.000222
0.000242
0.000253
0.000271
0.000258
0.000271
0.000274
0.000259
0.000265
0.000248
0.000267
0.000486
0.000167
0.000055
0.000193
0.000243
0.000247
0.000285
0.000205
0.000240
0.000368
0.000410
0.000238
0.000225
0.000257
0.000258
0.000233
0.000295
0.000418
0.001774
0.000240
0.000260
0.000281
0.000335
0.000404
0.000366
0.000383
0.000395
0.000357
0.000420
0.000237
0.000273
0.000267
0.000274
0.001404
0.000055
0.000506
0.000206
0.000263
0.000208
0.000237
0.000253
0.000236
0.000253
0.000244
0.000267
0.000247
0.000259
0.000257
0.000260
0.000620
0.001581
0.000244
0.000225
0.000248
0.000265
0.000236
0.000276
0.000394
0.000338
0.000298
0.000352
0.000220
0.000271
0.000280
0.000263
0.000197
0.000057
0.001225
0.000485
0.000347
0.000268
0.000237
0.000229
0.000232
0.000237
0.000493
0.000217
0.000241
0.000259
0.000323
0.000598
0.000326
0.000351
0.000254
0.000230
0.000329
0.000361
0.000266
0.000254
0.000273
0.000248
0.000267
0.000583
0.000607
0.000208
0.000248
0.000261
0.000171
0.000056
0.000241
0.000207
0.000233
0.000240
0.001510
0.000263
0.000224
0.000251
0.000261
0.000228
0.000251
0.000254
0.000244
0.000264
0.000273
0.000311
0.000571
0.000481
0.000266
0.001754
0.000247
0.000289
0.000278
0.000448
0.000545
0.000404
0.000254
0.000250
0.000252
0.000278
0.000196
0.000057
0.000276
0.000199
0.000231
0.000386
0.001190
0.000236
0.000254
0.000256
0.000242
0.000238
0.000238
0.000255
0.000276
0.000244
0.000247
0.000266
0.000462
0.000461
0.000312
0.000259
0.000269
0.000272
0.000248
0.000237
0.000287
0.000266
0.000238
0.000277
0.000266
0.000326
0.000579
0.000057
0.000186
0.000248
0.000238
0.000260
0.000259
0.000244
0.000242
0.000255
0.000270
0.000278
0.001422
0.000219
0.000236
0.000243
0.000255
0.000239
0.000292
0.000243
0.000288
0.000234
0.000283
0.000484
0.000485
0.000358
0.000223
0.000274
0.001770
0.000265
0.000246
0.000416
0.000354
0.000057
0.000184
0.000398
0.000451
0.000503
0.000515
0.000553
0.001490
0.000413
0.000518
0.000656
0.000550
0.000742
0.000489
0.000593
0.000583
0.001904
0.000472
0.000354
0.000381
0.000322
0.000232
0.000272
0.000285
0.000276
0.000241
0.000301
0.000293
0.000287
0.000254
0.000286
0.001365
0.000055
0.000200
0.000221
0.000249
0.000241
0.000259
0.000259
0.000228
0.000243
0.000254
0.000246
0.000237
0.000249
0.000249
0.000268
0.000259
0.000261
0.001815
0.000254
0.000262
0.000250
0.000264
0.000251
0.000310
0.000276
0.000393
0.000396
0.000369
0.000206
0.000281
0.000281
0.000196
0.000056
0.000202
0.001363
0.000340
0.000266
0.000250
0.000236
0.000242
0.000232
0.000235
0.000252
0.000208
0.000246
0.000260
0.000506
0.000357
0.000308
0.000248
0.001814
0.000357
0.000226
0.000249
0.000271
0.000247
0.000266
0.000278
0.000279
0.000273
0.000263
0.000260
0.000316
0.000205
0.000056
0.000211
0.000249
0.000246
0.001459
0.000211
0.000235
0.000257
0.000240
0.000240
0.000270
0.000249
0.000251
0.000238
0.000282
0.000241
0.000257
0.000260
0.000265
0.000300
0.000227
0.000263
0.001765
0.000277
0.001758
0.000268
0.000242
0.000266
0.000275
0.000268
0.000273
0.000209
0.000056
0.000194
0.000245
0.001341
0.000234
0.000254
0.000242
0.000265
0.000249
0.000244
0.000251
0.000257
0.000235
0.000262
0.000262
0.000259
0.000264
0.000257
0.000295
0.000284
0.000228
0.001882
0.000223
0.001840
0.000232
0.000278
0.000270
0.000230
0.000250
0.000262
0.000265
0.000195
0.000056
0.001466
0.000209
0.000223
0.000248
0.000241
0.000238
0.000372
0.000287
0.000231
0.000255
0.000251
0.000261
0.000277
0.000361
0.000360
0.000308
0.000225
0.000269
0.000258
0.000252
0.000272
0.000337
0.000233
0.000249
0.000271
0.000272
0.000277
0.000351
0.000676
0.000307
0.000194
0.000057
0.000199
0.000257
0.000263
0.000293
0.000364
0.000253
0.001684
0.000317
0.000277
0.000271
0.000255
0.000266
0.000272
0.000266
0.000301
0.000337
0.000291
0.000625
0.000365
0.000250
0.000281
0.000286
0.000262
0.000267
0.000331
0.000258
0.000275
0.000250
0.000259
0.000317
0.000402
0.000057
0.000260
0.000463
0.000266
0.000266
0.000250
0.000223
0.000242
0.000234
0.000255
0.000276
0.001488
0.000227
0.000233
0.000250
0.000245
0.000289
0.000281
0.000233
0.000261
0.000274
0.000275
0.000352
0.000528
0.000327
0.000264
0.000295
0.000266
0.000258
0.000241
0.000307
0.000163
0.000056
0.000186
0.000258
0.000271
0.000598
0.000238
0.000263
0.000235
0.000236
0.000249
0.000253
0.000252
0.000239
0.000256
0.000263
0.000237
0.000242
0.000439
0.001174
0.000241
0.000249
0.000275
0.000244
0.000352
0.000425
0.000253
0.000378
0.000523
0.000432
0.000289
0.000245
0.000185
0.000057
0.000213
0.000255
0.000259
0.000258
0.000257
0.000303
0.000281
0.000468
0.000369
0.000294
0.000357
0.000390
0.000399
0.000359
0.000254
0.000242
0.000241
0.000259
0.000441
0.000454
0.001235
0.000229
0.000269
0.000273
0.000230
0.000236
0.000264
0.000392
0.000331
0.000464
0.000233
0.000056
0.000207
0.000245
0.000258
0.000240
0.000243
0.000242
0.000240
0.000264
0.000302
0.000336
0.000502
0.000307
0.000266
0.000217
0.000250
0.000275
0.000233
0.000259
0.000268
0.000272
0.000421
0.000380
0.000291
0.000388
0.000300
0.000257
0.000265
0.000271
0.000249
0.000343
0.000156
0.000056
0.000295
0.000311
0.000429
0.000309
0.000374
0.000396
0.000232
0.000243
0.000248
0.000270
0.000256
0.000263
0.000238
0.000250
0.000244
0.000230
0.000317
0.000363
0.000395
0.000394
0.000229
0.000273
0.000242
0.000245
0.000275
0.000277
0.000263
0.000277
0.000267
0.000273
0.000250
0.000056
0.000305
0.000276
0.000237
0.000269
0.000225
0.000245
0.000255
0.000249
0.000265
0.000255
0.000252
0.000233
0.000281
0.000627
0.000314
0.000291
0.000231
0.000251
0.000253
0.000268
0.000255
0.000282
0.000241
0.000265
0.000273
0.000461
0.000279
0.000585
0.000401
0.000253
0.000172
0.000055
0.000412
0.000191
0.000227
0.000244
0.000248
0.000254
0.000232
0.000254
0.000258
0.000259
0.000214
0.000264
0.000261
0.000224
0.000246
0.000268
0.000247
0.000249
0.000294
0.000237
0.000266
0.000254
0.000270
0.000260
0.000266
0.000235
0.000265
0.000277
0.000261
0.000274
0.000199
0.000055
0.000199
0.000233
0.000245
0.000248
0.000230
0.000259
0.000261
0.000246
0.000253
0.000275
0.000238
0.000232
0.000260
0.000398
0.000252
0.000314
0.000227
0.000266
0.000254
0.000278
0.000269
0.000240
0.000244
0.000251
0.000267
0.000275
0.000251
0.000249
0.000280
0.000258
0.000206
0.000056
0.000201
0.000364
0.000366
0.000281
0.000296
0.000258
0.000260
0.000260
0.000227
0.000244
0.000277
0.000238
0.000242
0.000265
0.000234
0.000275
0.000246
0.000271
0.000240
0.000265
0.000281
0.000259
0.000277
0.000260
0.000291
0.000224
0.000262
0.000271
0.000271
0.000262
0.000191
0.000055
0.000216
0.000235
0.000259
0.000268
0.000250
0.000442
0.000214
0.000268
0.000259
0.000418
0.000520
0.000282
0.000232
0.000245
0.000272
0.000268
0.000235
0.000273
0.000253
0.000278
0.000258
0.000257
0.000263
0.000274
0.000593
0.000455
0.000256
0.000300
0.000265
0.000260
0.000190
0.000056
0.000211
0.000214
0.000251
0.000251
0.000424
0.000567
0.000293
0.000383
0.000208
0.000254
0.000247
0.000254
0.000246
0.000252
0.000255
0.000278
0.000274
0.000229
0.000628
0.000432
0.000266
0.000245
0.000252
0.000284
0.000286
0.000257
0.000261
0.000287
0.000231
0.000323
0.000311
0.000056
0.000294
0.000236
0.000234
0.000239
0.000253
0.000264
0.000219
0.000251
0.000239
0.000258
0.000245
0.000255
0.000264
0.000356
0.000585
0.000390
0.000238
0.000267
0.000258
0.000247
0.000270
0.000287
0.000476
0.000211
0.000268
0.000587
0.000495
0.000405
0.000260
0.000254
0.000183
0.000055
0.000197
0.000243
0.000255
0.000233
0.000250
0.000260
0.000336
0.000432
0.000569
0.000414
0.000215
0.000262
0.000275
0.000278
0.000250
0.000249
0.000238
0.000253
0.000255
0.000441
0.000331
0.000635
0.000349
0.000250
0.000349
0.000384
0.000489
0.000242
0.000265
0.000446
0.000377
0.000076
0.000255
0.000228
0.000440
0.000216
0.000236
0.000257
0.000258
0.000261
0.000231
0.000244
0.000251
0.000424
0.000383
0.000340
0.000198
0.000254
0.000263
0.000261
0.000249
0.000283
0.000273
0.000253
0.000252
0.000274
0.000305
0.000478
0.000497
0.000236
0.000296
0.000239
0.000192
0.000055
0.000208
0.000254
0.000232
0.000243
0.000247
0.000300
0.000343
0.000484
0.000336
0.000263
0.000377
0.000225
0.000248
0.000269
0.000255
0.000239
0.000255
0.000265
0.000325
0.000369
0.000473
0.000332
0.000477
0.000265
0.000385
0.000419
0.000385
0.000238
0.000260
0.000294
0.000445
0.000055
0.000264
0.000272
0.000234
0.000244
0.000257
0.000261
0.000248
0.000246
0.000271
0.000242
0.000243
0.000419
0.000434
0.000320
0.000381
0.000218
0.000272
0.000262
0.000266
0.000235
0.000248
0.000255
0.000272
0.000271
0.000293
0.000335
0.000476
0.000468
0.000235
0.000303
0.000171
0.000056
0.000188
0.000242
0.000273
0.000243
0.000256
0.000334
0.000547
0.000421
0.000362
0.000682
0.000265
0.000213
0.000241
0.000260
0.000250
0.000264
0.000278
0.000389
0.000379
0.000387
0.001524
0.000314
0.000268
0.000279
0.000266
0.000271
0.000352
0.000537
0.000226
0.000343
0.000182
0.000055
0.000202
0.000235
0.000245
0.000261
0.000233
0.000243
0.000301
0.000233
0.000242
0.000336
0.000329
0.000380
0.000292
0.000302
0.000394
0.000351
0.000246
0.000266
0.000246
0.000251
0.000253
0.000245
0.000312
0.000221
0.000321
0.000437
0.000434
0.000283
0.000254
0.000267
0.000192
0.000055
0.000224
0.000245
0.000258
0.000256
0.000243
0.000231
0.000476
0.000209
0.000249
0.000234
0.000270
0.000232
0.000259
0.000253
0.000252
0.000267
0.000263
0.000293
0.000244
0.000255
0.000288
0.000261
0.000286
0.000250
0.000267
0.000295
0.000256
0.000260
0.000262
0.000273
0.000176
0.000056
0.000224
0.000250
0.000408
0.000356
0.000324
0.000249
0.000235
0.000247
0.000266
0.000239
0.000252
0.000254
0.000261
0.000266
0.000238
0.000246
0.000266
0.000246
0.000256
0.000414
0.000463
0.000331
0.000235
0.000254
0.000266
0.000253
0.000263
0.000256
0.000274
0.000277
0.000206
0.000056
0.000250
0.000395
0.000420
0.000208
0.000260
0.000249
0.000413
0.000222
0.000234
0.000255
0.000254
0.000285
0.000415
0.000378
0.001881
0.000237
0.000244
0.000252
0.000280
0.000239
0.000373
0.000446
0.000546
0.000332
0.000224
0.000269
0.000277
0.000419
0.000279
0.000279
0.000166
0.000056
0.000184
0.000361
0.000315
0.000346
0.000494
0.000202
0.000250
0.000235
0.000254
0.000239
0.000262
0.000249
0.000274
0.000372
0.000411
0.000409
0.000224
0.000242
0.000258
0.000266
0.000265
0.000309
0.000240
0.000276
0.000276
0.000501
0.000525
0.000303
0.000483
0.000235
0.000206
0.000056
0.000250
0.000208
0.000258
0.000230
0.000245
0.000255
0.000265
0.000291
0.000321
0.000421
0.000385
0.000343
0.000238
0.000237
0.000285
0.000284
0.000291
0.000238
0.000268
0.000275
0.000239
0.000354
0.000410
0.000427
0.000238
0.000263
0.000262
0.000471
0.000389
0.000312
0.000170
0.000055
0.000215
0.000319
0.000237
0.000416
0.000399
0.000209
0.000235
0.000270
0.000247
0.000290
0.000226
0.000253
0.000233
0.000257
0.000259
0.000302
0.000432
0.000317
0.000298
0.000347
0.000486
0.000228
0.000293
0.000263
0.000292
0.000286
0.000260
0.000276
0.000626
0.000389
0.000158
0.000056
0.000204
0.000232
0.000256
0.000247
0.000256
0.000461
0.000217
0.000253
0.000269
0.000334
0.000486
0.000590
0.000202
0.000246
0.000240
0.000254
0.000258
0.000267
0.000239
0.000246
0.000287
0.000246
0.000305
0.000566
0.000274
0.000397
0.000293
0.000305
0.000322
0.000249
0.000190
0.000055
0.000204
0.000237
0.000296
0.000460
0.000310
0.000316
0.000231
0.000234
0.000241
0.000259
0.000252
0.000260
0.000267
0.000244
0.000247
0.000260
0.000242
0.000249
0.000278
0.000435
0.000483
0.000360
0.000224
0.000247
0.000301
0.000259
0.000276
0.000240
0.000269
0.000266
0.000197
0.000056
0.000265
0.000377
0.000455
0.000232
0.000223
0.000247
0.000318
0.000465
0.000275
0.000228
0.000234
0.000275
0.000257
0.000421
0.000490
0.000258
0.000234
0.000242
0.000250
0.000263
0.000274
0.000261
0.000269
0.000276
0.000253
0.000396
0.000306
0.000434
0.000282
0.000251
0.000185
0.000057
0.000228
0.000242
0.000250
0.000254
0.000252
0.000262
0.000227
0.000272
0.000251
0.000236
0.000266
0.000237
0.000286
0.001440
0.000220
0.000253
0.000260
0.000243
0.000283
0.000274
0.000262
0.000241
0.000271
0.000257
0.000267
0.000268
0.000275
0.000270
0.000269
0.000259
0.000212
0.000057
0.000190
0.000228
0.000252
0.000264
0.000221
0.000242
0.000263
0.000257
0.000226
0.000249
0.000249
0.000258
0.000271
0.000242
0.000256
0.000264
0.000241
0.000263
0.000274
0.000251
0.000257
0.000258
0.000245
0.000256
0.001299
0.000269
0.000608
0.000391
0.000339
0.000246
0.000189
0.000056
0.000211
0.000232
0.000242
0.000254
0.000420
0.000233
0.000244
0.000253
0.000238
0.000429
0.000416
0.000306
0.000241
0.000224
0.000268
0.000272
0.000238
0.000261
0.000254
0.000252
0.000263
0.000255
0.000285
0.000386
0.000548
0.000417
0.000229
0.000268
0.001376
0.000244
0.000180
0.000057
0.000262
0.000386
0.000342
0.000244
0.000232
0.000224
0.000229
0.000251
0.000261
0.000255
0.000246
0.000263
0.000294
0.000293
0.000539
0.000351
0.000344
0.000220
0.000251
0.000257
0.000263
0.000282
0.000254
0.000263
0.000270
0.000267
0.000285
0.000649
0.000320
0.000363
0.000153
0.000056
0.000194
0.000258
0.001251
0.000421
0.000263
0.000610
0.000266
0.000486
0.000263
0.000340
0.000220
0.000239
0.000259
0.000257
0.000243
0.000266
0.000497
0.000321
0.000462
0.000324
0.000265
0.000242
0.000267
0.000500
0.000225
0.000269
0.000256
0.000276
0.000351
0.000508
0.000290
0.000056
0.000371
0.000311
0.000235
0.000229
0.001627
0.000407
0.000290
0.000255
0.000242
0.000252
0.000225
0.000240
0.000247
0.000273
0.000249
0.000262
0.000235
0.000323
0.000341
0.000389
0.000480
0.000226
0.000258
0.000252
0.000260
0.000279
0.000269
0.000239
0.000263
0.000275
0.000202
0.000056
0.000461
0.000254
0.000218
0.000240
0.000252
0.000241
0.000258
0.000241
0.000236
0.000226
0.001400
0.000496
0.000245
0.000254
0.000232
0.000259
0.000271
0.000259
0.000241
0.000301
0.000249
0.000247
0.000261
0.000464
0.000472
0.000360
0.000229
0.000265
0.000281
0.000271
0.000179
0.000056
0.000192
0.000415
0.000225
0.000227
0.000332
0.000554
0.000308
0.000282
0.000460
0.000206
0.000238
0.000252
0.000263
0.000262
0.000260
0.001465
0.000314
0.000284
0.000240
0.000267
0.000295
0.000236
0.000253
0.000254
0.000260
0.000262
0.000407
0.000490
0.000299
0.000270
0.000163
0.000056
0.000215
0.000235
0.000259
0.000235
0.000233
0.000256
0.000243
0.000266
0.000302
0.000410
0.000382
0.000267
0.000234
0.000258
0.000253
0.000270
0.000271
0.000258
0.000269
0.000232
0.000265
0.000296
0.001262
0.000242
0.000260
0.000259
0.000257
0.000267
0.000256
0.000267
0.000187
0.000056
0.000280
0.000290
0.000378
0.000319
0.000253
0.000250
0.000256
0.000294
0.000239
0.000258
0.000234
0.000270
0.000241
0.000249
0.000261
0.000270
0.000260
0.000265
0.000264
0.000250
0.000250
0.000270
0.000280
0.000272
0.000294
0.000258
0.000265
0.000266
0.000260
0.000447
0.001374
0.000056
0.000204
0.000238
0.000219
0.000262
0.000234
0.000257
0.000244
0.000228
0.000249
0.000254
0.000269
0.000262
0.000246
0.000240
0.000276
0.000222
0.001725
0.000264
0.000236
0.000263
0.000249
0.000256
0.000273
0.000255
0.000294
0.000235
0.000275
0.000275
0.000266
0.000261
0.000219
0.000056
0.000297
0.000306
0.001319
0.000227
0.000248
0.000225
0.000258
0.000245
0.000274
0.000240
0.000237
0.000349
0.000510
0.000319
0.000278
0.000241
0.000239
0.000258
0.000259
0.000262
0.000242
0.000279
0.000260
0.000281
0.000289
0.000495
0.000288
0.000316
0.000319
0.000237
0.000193
0.000056
0.000222
0.000247
0.000242
0.000249
0.000274
0.000203
0.000238
0.000365
0.000309
0.001340
0.000265
0.000208
0.000257
0.000275
0.000245
0.000287
0.000242
0.000256
0.000304
0.000400
0.000362
0.000295
0.000247
0.000244
0.000285
0.000275
0.000270
0.000292
0.000266
0.000274
0.000196
0.000056
0.000244
0.000453
0.000364
0.000209
0.000236
0.000237
0.000264
0.000264
0.000279
0.000232
0.000236
0.000245
0.000446
0.000520
0.000504
0.001406
0.000238
0.000282
0.000322
0.000351
0.000478
0.000417
0.000574
0.000303
0.000232
0.000265
0.000264
0.000277
0.000260
0.000272
0.000202
0.000057
0.000178
0.000277
0.000492
0.000426
0.000340
0.000240
0.000249
0.000240
0.000238
0.000272
0.000236
0.000265
0.000276
0.000231
0.000264
0.000344
0.000304
0.000470
0.000322
0.001336
0.000282
0.000246
0.000244
0.000268
0.000458
0.000468
0.000365
0.000239
0.000277
0.000276
0.000191
0.000057
0.000206
0.000245
0.000266
0.000241
0.000228
0.000270
0.000466
0.000446
0.000305
0.000213
0.000243
0.000261
0.000272
0.000286
0.000241
0.000254
0.000274
0.000246
0.000308
0.000266
0.000529
0.000361
0.000299
0.001346
0.000408
0.000244
0.000255
0.000455
0.000437
0.000336
0.000296
0.000056
0.000198
0.000235
0.000248
0.000247
0.000250
0.000255
0.001728
0.000199
0.000228
0.000228
0.000256
0.000248
0.000253
0.000325
0.000325
0.000284
0.000285
0.000294
0.000552
0.000383
0.000279
0.000284
0.000232
0.000251
0.001503
0.000366
0.000398
0.000446
0.000328
0.000297
0.000170
0.000055
0.000213
0.000253
0.000253
0.000260
0.000245
0.000258
0.001700
0.000237
0.000244
0.000263
0.000328
0.000403
0.001504
0.000337
0.000361
0.000246
0.000256
0.000235
0.000269
0.000277
0.001591
0.000576
0.000315
0.000302
0.000233
0.000260
0.000259
0.000283
0.000245
0.000250
0.000197
0.000055
0.000208
0.000245
0.000266
0.000263
0.000244
0.000294
0.000254
0.000270
0.000238
0.000253
0.000262
0.000241
0.000291
0.000238
0.000249
0.001498
0.000283
0.000234
0.000266
0.000274
0.000275
0.000280
0.000400
0.001276
0.000303
0.000205
0.000270
0.000260
0.000400
0.000245
0.000192
0.000056
0.000203
0.000252
0.000219
0.000246
0.000239
0.000232
0.000233
0.001695
0.000246
0.000229
0.000354
0.000272
0.000221
0.000228
0.000253
0.001387
0.000234
0.000260
0.000270
0.000250
0.000258
0.000346
0.000294
0.001301
0.000270
0.000252
0.000259
0.000261
0.001388
0.000273
0.000223
0.000056
0.000364
0.000231
0.000216
0.000249
0.000250
0.000229
0.000286
0.000254
0.000258
0.000247
0.000264
0.000263
0.000250
0.000256
0.000363
0.001464
0.000231
0.000268
0.000255
0.000241
0.000285
0.000262
0.000251
0.001514
0.000341
0.000237
0.000270
0.001275
0.000272
0.000265
0.000212
0.000057
0.000229
0.000434
0.000296
0.000219
0.000246
0.000223
0.000270
0.000252
0.000263
0.000272
0.000234
0.000259
0.000262
0.000305
0.000383
0.001222
0.000228
0.000253
0.000265
0.000275
0.000231
0.000242
0.000248
0.000329
0.001305
0.000234
0.000246
0.000250
0.000260
0.001332
0.000353
0.000056
0.000336
0.000270
0.000201
0.000235
0.000237
0.000262
0.000239
0.000248
0.000296
0.000236
0.000240
0.000243
0.000254
0.000474
0.000295
0.001442
0.000225
0.000247
0.000302
0.000512
0.000309
0.000471
0.001250
0.000324
0.000209
0.000263
0.000257
0.001297
0.000375
0.000444
0.000378
0.000055
0.000203
0.000255
0.000251
0.000256
0.000250
0.000263
0.000270
0.000262
0.000249
0.000282
0.000325
0.000433
0.001333
0.000235
0.000273
0.000263
0.000279
0.000217
0.000250
0.000248
0.000331
0.001248
0.000256
0.000243
0.000252
0.000251
0.001528
0.000446
0.000443
0.000220
0.000201
0.000056
0.000230
0.000211
0.000243
0.000241
0.000249
0.000265
0.000241
0.000330
0.000376
0.000469
0.000270
0.001499
0.000197
0.000244
0.000270
0.000252
0.000271
0.000287
0.001687
0.000241
0.000392
0.000343
0.001278
0.000405
0.000277
0.000310
0.000296
0.000226
0.000264
0.000270
0.000188
0.000056
0.000202
0.000242
0.000328
0.000239
0.000313
0.000601
0.000233
0.000291
0.001465
0.000237
0.000382
0.000267
0.000275
0.000273
0.000374
0.001332
0.000257
0.000256
0.000225
0.000265
0.001510
0.000385
0.000289
0.000265
0.000286
0.000234
0.000457
0.000334
0.000249
0.000235
0.000270
0.000055
0.000250
0.000385
0.000275
0.000265
0.000227
0.001522
0.000202
0.000266
0.000270
0.000269
0.000264
0.000242
0.000386
0.001411
0.000248
0.000235
0.000428
0.001187
0.000337
0.000460
0.000383
0.000245
0.000239
0.000251
0.000316
0.000207
0.000457
0.000230
0.000260
0.000283
0.000195
0.000055
0.000244
0.000213
0.000370
0.000348
0.001311
0.000287
0.000333
0.000231
0.000223
0.000250
0.000247
0.000358
0.001452
0.000264
0.000222
0.000248
0.001389
0.000305
0.000416
0.000364
0.000425
0.000233
0.000271
0.000233
0.000267
0.000271
0.000267
0.000264
0.000275
0.000250
0.000210
0.000055
0.000237
0.000377
0.001456
0.000199
0.000277
0.000296
0.000221
0.000247
0.000291
0.000334
0.001418
0.000206
0.000258
0.000267
0.000250
0.001299
0.000672
0.000282
0.000326
0.000411
0.000320
0.000231
0.000272
0.000255
0.000269
0.000291
0.000275
0.000289
0.000528
0.000360
0.001373
0.000056
0.000188
0.000252
0.000243
0.000222
0.000318
0.000421
0.000474
0.001225
0.000251
0.000235
0.000246
0.001434
0.000396
0.000394
0.000200
0.000415
0.000238
0.000243
0.000267
0.000290
0.000247
0.000257
0.000280
0.000256
0.000247
0.000321
0.000487
0.000394
0.001505
0.000219
0.000194
0.000055
0.000214
0.000251
0.000407
0.000503
0.001219
0.000319
0.000216
0.000257
0.000245
0.000255
0.000249
0.000291
0.000374
0.000496
0.000298
0.000235
0.000255
0.000276
0.000236
0.000313
0.000230
0.000263
0.000252
0.000269
0.000255
0.000419
0.000452
0.000333
0.000333
0.001406
0.000167
0.000057
0.000193
0.000235
0.000247
0.000509
0.000314
0.000307
0.000317
0.000333
0.000295
0.000251
0.000244
0.000261
0.000250
0.000309
0.000270
0.000235
0.000593
0.000304
0.000288
0.000397
0.000268
0.000405
0.000227
0.000245
0.000264
0.000261
0.000254
0.000288
0.000380
0.000492
0.000282
0.000055
0.000194
0.001417
0.000217
0.000338
0.000406
0.000458
0.000434
0.000236
0.000203
0.000250
0.000268
0.000245
0.000286
0.000249
0.000266
0.000272
0.000241
0.001342
0.000268
0.000252
0.000261
0.000280
0.000266
0.000280
0.000268
0.000252
0.000281
0.000245
0.000336
0.000438
0.000333
0.000056
0.000204
0.000241
0.000235
0.001508
0.000322
0.000234
0.000230
0.000251
0.000233
0.000247
0.000248
0.000281
0.000241
0.000248
0.000298
0.000232
0.000243
0.000273
0.000249
0.000252
0.001437
0.000239
0.000238
0.000273
0.000254
0.000261
0.000265
0.000255
0.000288
0.000491
0.000344
0.000055
0.000193
0.000236
0.000396
0.000288
0.000236
0.000260
0.001565
0.000312
0.000304
0.000211
0.000257
0.000312
0.000333
0.000227
0.000228
0.000252
0.000243
0.000267
0.000262
0.000256
0.000590
0.000393
0.001127
0.000276
0.000231
0.000264
0.000270
0.000256
0.000302
0.000235
0.000431
0.000057
0.000284
0.000313
0.000223
0.000236
0.000251
0.000236
0.000244
0.000228
0.000291
0.001711
0.000330
0.000218
0.000243
0.000250
0.000260
0.000244
0.000258
0.000274
0.000276
0.000304
0.000306
0.000485
0.000458
0.001358
0.000230
0.000279
0.000259
0.000257
0.000267
0.000423
0.000317
0.000056
0.000263
0.000264
0.000224
0.000230
0.000222
0.000245
0.000259
0.000283
0.000257
0.001616
0.000312
0.000260
0.000245
0.000255
0.000458
0.000255
0.000549
0.000370
0.000276
0.000264
0.000528
0.000468
0.001262
0.000259
0.000231
0.000254
0.001782
0.000399
0.000605
0.000314
0.000151
0.000056
0.000204
0.000229
0.000243
0.000231
0.000265
0.000242
0.000238
0.000576
0.000473
0.000358
0.000283
0.000216
0.000246
0.000261
0.000282
0.000269
0.000237
0.000238
0.000257
0.000300
0.000228
0.000439
0.001339
0.000222
0.000252
0.000269
0.001911
0.000367
0.000392
0.000339
0.000159
0.000056
0.000242
0.000242
0.000242
0.001541
0.000452
0.000212
0.000236
0.000263
0.000249
0.000279
0.000372
0.000368
0.000367
0.000282
0.000336
0.000518
0.000358
0.001199
0.000263
0.000243
0.000248
0.000261
0.000274
0.000399
0.000607
0.000474
0.000251
0.000270
0.000273
0.000281
0.000187
0.000055
0.000199
0.000230
0.000242
0.001581
0.000210
0.000235
0.000238
0.000259
0.000241
0.000252
0.000255
0.000265
0.000268
0.000276
0.000309
0.000352
0.000411
0.000327
0.001402
0.000227
0.000266
0.000258
0.000263
0.000313
0.000258
0.000623
0.000374
0.000258
0.000291
0.000228
0.000443
0.000056
0.000218
0.000243
0.000270
0.001540
0.000286
0.000220
0.000269
0.000240
0.000253
0.000258
0.000253
0.000271
0.000246
0.000241
0.000419
0.000532
0.001355
0.000748
0.000262
0.000341
0.000246
0.000234
0.000242
0.000287
0.001678
0.000801
0.000223
0.000267
0.000283
0.000283
0.000179
0.000055
0.000198
0.000253
0.000234
0.000242
0.000266
0.000261
0.000216
0.000259
0.000242
0.000235
0.000280
0.000288
0.000249
0.000250
0.000262
0.000246
0.000267
0.001602
0.000725
0.000371
0.000297
0.000237
0.000238
0.000311
0.000247
0.000252
0.000294
0.000239
0.001381
0.000442
0.000317
0.000056
0.000195
0.000233
0.000272
0.000229
0.000264
0.000232
0.000277
0.000226
0.000257
0.000257
0.000271
0.000446
0.000420
0.000328
0.000216
0.000251
0.000261
0.001390
0.000690
0.000475
0.000341
0.000268
0.000248
0.000234
0.000275
0.000282
0.000227
0.000263
0.001518
0.000389
0.000204
0.000056
0.000209
0.000225
0.000251
0.000248
0.000249
0.000251
0.000231
0.000251
0.000272
0.000269
0.000443
0.000349
0.000271
0.000226
0.000238
0.000250
0.000266
0.000258
0.001612
0.000610
0.000432
0.000340
0.000216
0.000254
0.000258
0.000265
0.000280
0.000264
0.000258
0.001490
0.000202
0.000057
0.000216
0.000217
0.000233
0.000263
0.000256
0.000263
0.000227
0.000310
0.000355
0.000514
0.000313
0.000413
0.000312
0.000220
0.000252
0.000247
0.000301
0.000238
0.000289
0.001884
0.000351
0.000240
0.000438
0.000232
0.000255
0.000267
0.000296
0.000237
0.000270
0.000275
0.000320
0.000058
0.000231
0.000276
0.000238
0.000245
0.000253
0.000250
0.000224
0.000243
0.000270
0.000266
0.000230
0.000237
0.000295
0.000442
0.000459
0.000451
0.000220
0.000263
0.000248
0.000252
0.000258
0.000278
0.001472
0.001056
0.000223
0.000251
0.000267
0.000264
0.000276
0.000251
0.000206
0.000056
0.000196
0.001335
0.000291
0.000231
0.000224
0.000253
0.000251
0.000239
0.000239
0.000264
0.000245
0.000267
0.000293
0.000341
0.000381
0.000440
0.000259
0.000255
0.000260
0.000271
0.000274
0.000223
0.000262
0.000266
0.001464
0.000539
0.000305
0.000382
0.000373
0.000405
0.000303
0.000070
0.000183
0.000264
0.000367
0.001289
0.000208
0.000248
0.000240
0.000260
0.000254
0.000254
0.000255
0.000249
0.000305
0.000335
0.000562
0.000283
0.000220
0.000282
0.000337
0.000212
0.000245
0.000275
0.000233
0.000270
0.000271
0.001532
0.000739
0.000327
0.000259
0.000266
0.000195
0.000056
0.000202
0.000268
0.000545
0.000408
0.001153
0.000221
0.000210
0.000243
0.000235
0.000249
0.000245
0.000262
0.000243
0.000226
0.000248
0.000256
0.000269
0.000240
0.000257
0.000252
0.000271
0.000264
0.000310
0.000330
0.000215
0.000275
0.000256
0.001463
0.000255
0.000252
0.000176
0.000055
0.000209
0.000239
0.000246
0.000260
0.000353
0.000373
0.000395
0.000286
0.001614
0.000219
0.000298
0.000448
0.000356
0.000238
0.000445
0.000234
0.000240
0.000256
0.000271
0.000267
0.000277
0.000268
0.000257
0.000269
0.000247
0.000422
0.000425
0.000293
0.001587
0.000225
0.000190
0.000055
0.000238
0.000236
0.000249
0.000243
0.000243
0.000244
0.000262
0.000310
0.000411
0.002035
0.000224
0.000250
0.000257
0.000257
0.000262
0.000296
0.000222
0.000262
0.000330
0.000383
0.000511
0.000286
0.001501
0.000213
0.000237
0.002006
0.000278
0.000243
0.000254
0.001528
0.000160
0.000056
0.000208
0.000492
0.000403
0.000246
0.000271
0.000210
0.000261
0.000270
0.000262
0.000229
0.000251
0.000366
0.000436
0.000318
0.000395
0.000250
0.001546
0.000266
0.000224
0.000586
0.001875
0.000295
0.000232
0.001556
0.002003
0.000743
0.000275
0.000261
0.000273
0.000555
0.000229
0.000056
0.000230
0.000238
0.000281
0.000222
0.001423
0.001730
0.001069
0.000206
0.000237
0.001578
0.001981
0.000213
0.000240
0.000426
0.000329
0.000343
0.000438
0.000446
0.000214
0.000236
0.000248
0.000259
0.000272
0.001593
0.001210
0.001437
0.000269
0.000283
0.000261
0.000362
0.000300
0.000056
0.000217
0.000224
0.000243
0.000241
0.000230
0.000243
0.000249
0.000258
0.000261
0.000241
0.000238
0.000348
0.000424
0.000421
0.000313
0.000250
0.000253
0.000268
0.000267
0.000295
0.000229
0.000276
0.001560
0.000411
0.002116
0.000247
0.000257
0.000421
0.000347
0.000386
0.000194
0.000056
0.000229
0.000384
0.000435
0.000305
0.000203
0.000230
0.000248
0.000242
0.000242
0.000246
0.000242
0.000270
0.000255
0.001610
0.001360
0.001232
0.000259
0.000228
0.000259
0.000272
0.000284
0.000276
0.000237
0.000255
0.002211
0.000251
0.000248
0.000298
0.000319
0.000311
0.000219
0.000055
0.000206
0.000347
0.000538
0.000339
0.000265
0.000207
0.000249
0.000265
0.001904
0.001433
0.000201
0.000324
0.000387
0.000411
0.000265
0.000233
0.000254
0.000268
0.000259
0.000267
0.000256
0.000271
0.000468
0.000234
0.000269
0.000267
0.000253
0.000272
0.000294
0.000239
0.000203
0.000056
0.000210
0.000248
0.000249
0.000240
0.000277
0.000249
0.001544
0.001408
0.001343
0.000215
0.000242
0.000241
0.000268
0.000263
0.000246
0.000247
0.000252
0.002103
0.000243
0.000239
0.000267
0.000270
0.000249
0.000268
0.000265
0.000252
0.000276
0.000249
0.000282
0.000254
0.000174
0.000056
0.000196
0.002672
0.001420
0.000205
0.000302
0.000325
0.000211
0.000286
0.000231
0.000246
0.000251
0.000244
0.000229
0.000254
0.000269
0.000258
0.000262
0.000269
0.000263
0.000277
0.000249
0.000283
0.000273
0.000260
0.000246
0.000245
0.000264
0.000284
0.000251
0.000272
0.000379
0.000057
0.001553
0.000242
0.001236
0.000229
0.000230
0.000255
0.000241
0.000295
0.000206
0.000393
0.000229
0.000423
0.000314
0.000221
0.000248
0.002157
0.000227
0.000257
0.000498
0.000277
0.000380
0.000284
0.000233
0.000255
0.000265
0.000248
0.000265
0.000279
0.000273
0.001608
0.001273
0.000056
0.000187
0.000235
0.000332
0.000466
0.000273
0.000264
0.000204
0.000240
0.000251
0.000258
0.000266
0.000241
0.000227
0.000257
0.000273
0.000232
0.000387
0.000628
0.000286
0.000230
0.000246
0.000267
0.000279
0.000256
0.000246
0.000246
0.000271
0.000272
0.000239
0.000327
0.000347
0.000055
0.001121
0.000238
0.000354
0.000447
0.000277
0.000228
0.000228
0.000243
0.000250
0.002404
0.000331
0.000308
0.000234
0.000375
0.000305
0.000266
0.000228
0.000258
0.000272
0.000217
0.000257
0.000333
0.000619
0.000379
0.001870
0.001354
0.000480
0.000539
0.000223
0.000288
0.000200
0.000056
0.000212
0.000356
0.000251
0.000243
0.000255
0.000223
0.000256
0.000254
0.000253
0.000249
0.000257
0.000221
0.000252
0.000289
0.000568
0.000277
0.001856
0.001326
0.000465
0.000427
0.000456
0.000237
0.000240
0.000262
0.002145
0.000740
0.000188
0.000233
0.000276
0.000282
0.000195
0.000056
0.000212
0.000247
0.000256
0.000248
0.000237
0.000355
0.000405
0.000294
0.000336
0.000220
0.000243
0.000253
0.000262
0.002123
0.000356
0.000379
0.000213
0.000254
0.000283
0.000245
0.000250
0.002459
0.000331
0.000227
0.000254
0.000255
0.000259
0.000267
0.000314
0.000251
0.000198
0.000055
0.000213
0.000295
0.000576
0.000381
0.000252
0.000221
0.000236
0.000251
0.000269
0.000247
0.001972
0.000371
0.000268
0.000277
0.000240
0.000264
0.000276
0.000240
0.002207
0.000450
0.000215
0.000273
0.000269
0.000258
0.000248
0.000259
0.000302
0.000237
0.000275
0.000243
0.000193
0.000056
0.000235
0.000231
0.000244
0.000225
0.000244
0.000264
0.000233
0.000247
0.000233
0.002187
0.000231
0.000265
0.000219
0.000433
0.000221
0.000251
0.000308
0.000260
0.000251
0.000255
0.001963
0.000273
0.000339
0.000361
0.000434
0.000406
0.000311
0.000250
0.000255
0.000261
0.000199
0.000055
0.000199
0.000235
0.000243
0.000251
0.000242
0.000321
0.000233
0.002306
0.000246
0.000226
0.000258
0.000257
0.000237
0.000276
0.000280
0.002121
0.000589
0.000229
0.000249
0.000243
0.000257
0.000258
0.000290
0.000269
0.000263
0.000246
0.000293
0.000253
0.000263
0.000267
0.000190
0.000055
0.001819
0.001449
0.000189
0.000259
0.000213
0.000255
0.000249
0.000288
0.000424
0.000345
0.002133
0.000260
0.000228
0.000273
0.000301
0.000605
0.000286
0.000299
0.000226
0.000240
0.000255
0.000265
0.000270
0.000227
0.000253
0.000264
0.000272
0.000265
0.000327
0.000638
0.000341
0.000056
0.000200
0.000245
0.000252
0.000245
0.000295
0.000221
0.000257
0.000235
0.001528
0.002285
0.000392
0.000252
0.000396
0.000710
0.000349
0.000240
0.000247
0.000247
0.000272
0.000256
0.000256
0.000245
0.000246
0.000274
0.003014
0.000331
0.000237
0.000264
0.000288
0.000347
0.000372
0.000056
0.001926
0.000231
0.000229
0.000228
0.000308
0.000331
0.000459
0.000309
0.000280
0.000223
0.000246
0.000250
0.000255
0.000255
0.000265
0.000257
0.000254
0.000286
0.001817
0.000240
0.000236
0.000254
0.000276
0.000286
0.000263
0.000257
0.001459
0.000340
0.000241
0.000267
0.000173
0.000056
0.000204
0.000231
0.000264
0.000222
0.000248
0.000245
0.000360
0.000313
0.000336
0.000364
0.000227
0.000242
0.000260
0.000333
0.000420
0.000333
0.000219
0.000246
0.000257
0.000357
0.000570
0.000337
0.000271
0.000244
0.000260
0.000253
0.000252
0.000273
0.000273
0.000267
0.000200
0.000055
0.001419
0.000441
0.000219
0.001947
0.000356
0.000399
0.000371
0.000311
0.000234
0.000247
0.000267
0.000242
0.000242
0.000249
0.000272
0.000256
0.000456
0.000274
0.000440
0.000374
0.000326
0.000230
0.000259
0.000268
0.000274
0.000263
0.000259
0.000267
0.000393
0.000503
0.001303
0.000056
0.000207
0.000221
0.002077
0.000388
0.000252
0.000234
0.000268
0.000234
0.000262
0.000262
0.000212
0.000256
0.000257
0.000260
0.000283
0.000401
0.000637
0.001765
0.000224
0.000254
0.000259
0.000289
0.000495
0.000347
0.001523
0.000287
0.000363
0.001922
0.000261
0.000263
0.000187
0.000056
0.000207
0.000232
0.000232
0.000243
0.000232
0.000253
0.000260
0.000271
0.000335
0.000257
0.000380
0.000360
0.000343
0.000294
0.000247
0.000270
0.000260
0.000242
0.000267
0.000249
0.000311
0.000283
0.000266
0.000261
0.000260
0.001512
0.000294
0.000378
0.002075
0.000238
0.000182
0.000056
0.000227
0.000244
0.000237
0.000248
0.000486
0.000201
0.000281
0.000309
0.000404
0.000271
0.000307
0.000211
0.000262
0.000267
0.000268
0.000326
0.000434
0.000429
0.000242
0.000411
0.000533
0.000356
0.001666
0.000227
0.000248
0.002052
0.000261
0.000258
0.000240
0.000298
0.000189
0.000056
0.000210
0.000245
0.000227
0.000243
0.000255
0.000266
0.000272
0.000252
0.000254
0.000308
0.001758
0.000326
0.000376
0.000279
0.000461
0.000392
0.000344
0.001484
0.000228
0.000291
0.002245
0.000441
0.000266
0.000235
0.000265
0.000261
0.000503
0.000221
0.000253
0.000286
0.000197
0.000056
0.000272
0.000349
0.000382
0.000300
0.000200
0.000243
0.000260
0.000251
0.000264
0.000298
0.000223
0.000252
0.000254
0.000259
0.000351
0.000626
0.001153
0.000265
0.000277
0.002010
0.000283
0.000270
0.000244
0.000259
0.000247
0.000275
0.000271
0.000262
0.000254
0.000273
0.000195
0.000056
0.000224
0.000409
0.002033
0.000260
0.000217
0.000250
0.000290
0.000315
0.000403
0.000423
0.001308
0.000355
0.000359
0.002084
0.000205
0.000246
0.000270
0.000279
0.000249
0.000255
0.000275
0.000293
0.000251
0.000403
0.000471
0.000350
0.000286
0.002240
0.000505
0.000599
0.000266
0.000055
0.000216
0.000228
0.000239
0.001969
0.000242
0.000211
0.000240
0.000247
0.000243
0.000258
0.000246
0.000262
0.000284
0.000303
0.000405
0.001446
0.000257
0.000239
0.000268
0.000265
0.000226
0.000257
0.000255
0.000305
0.000351
0.000421
0.000440
0.000244
0.001600
0.000271
0.000162
0.000056
0.000194
0.000224
0.000244
0.000233
0.000262
0.000270
0.000223
0.000248
0.000314
0.000267
0.000467
0.001363
0.000228
0.000228
0.000247
0.000295
0.000227
0.000258
0.000289
0.000491
0.000549
0.000304
0.000223
0.001592
0.000213
0.000254
0.000292
0.000277
0.000265
0.000268
0.000207
0.000056
0.000224
0.000223
0.000266
0.000270
0.000245
0.000244
0.000236
0.000242
0.000276
0.000225
0.000253
0.000257
0.000265
0.001481
0.000356
0.000208
0.000250
0.000265
0.000271
0.000313
0.000371
0.000271
0.000251
0.000273
0.000252
0.000262
0.000261
0.001403
0.000280
0.000238
0.000178
0.000056
0.000203
0.000238
0.000262
0.000261
0.000265
0.000224
0.000250
0.000256
0.000223
0.000261
0.000245
0.000258
0.000226
0.000322
0.000352
0.000394
0.000240
0.000235
0.001631
0.000237
0.000244
0.000265
0.000266
0.000293
0.000405
0.000340
0.000450
0.000260
0.000269
0.001608
0.000162
0.000056
0.000396
0.000289
0.000360
0.000299
0.000212
0.000222
0.000241
0.000274
0.000256
0.000256
0.000232
0.000237
0.001458
0.000351
0.000267
0.000203
0.000252
0.000272
0.000254
0.000259
0.000262
0.000231
0.000262
0.000272
0.000259
0.000470
0.000347
0.000377
0.000271
0.000239
0.000191
0.000056
0.000203
0.000247
0.000381
0.000390
0.000395
0.000257
0.000252
0.000249
0.000252
0.000257
0.000242
0.000226
0.000254
0.000253
0.001249
0.000320
0.000218
0.000269
0.000249
0.000262
0.000244
0.000267
0.000250
0.000258
0.000252
0.000265
0.000357
0.000657
0.000438
0.000231
0.000185
0.000056
0.000177
0.001584
0.000246
0.000305
0.000472
0.000364
0.000219
0.000261
0.000262
0.000264
0.000230
0.000259
0.000271
0.000272
0.000259
0.001549
0.000233
0.000303
0.000244
0.000256
0.000272
0.000241
0.000271
0.000257
0.000253
0.000326
0.000464
0.000287
0.000338
0.000250
0.000199
0.000073
0.000191
0.000245
0.000240
0.001605
0.000436
0.000342
0.000218
0.000239
0.000252
0.000287
0.000263
0.000252
0.000254
0.000258
0.000233
0.000297
0.000482
0.001217
0.000242
0.000228
0.001511
0.000652
0.000221
0.000437
0.000298
0.000240
0.000271
0.000464
0.000238
0.000271
0.000176
0.000056
0.000279
0.000221
0.000251
0.000243
0.000256
0.000244
0.000262
0.000238
0.000255
0.000250
0.000248
0.000274
0.000341
0.000600
0.001517
0.001586
0.000266
0.000524
0.000346
0.000223
0.000226
0.000260
0.000253
0.000268
0.000248
0.000267
0.000260
0.000270
0.001521
0.000323
0.000180
0.000056
0.000205
0.000353
0.000368
0.000316
0.000230
0.000238
0.000249
0.000474
0.000305
0.000366
0.002176
0.000314
0.000763
0.000457
0.000445
0.000260
0.000330
0.000391
0.000329
0.000299
0.000393
0.000252
0.001528
0.000533
0.000218
0.000277
0.000249
0.000240
0.000293
0.000246
0.000194
0.000055
0.000195
0.000251
0.000258
0.000252
0.000239
0.001664
0.000881
0.000995
0.000204
0.000236
0.000258
0.000257
0.000258
0.000263
0.000250
0.000250
0.000253
0.000279
0.000253
0.000282
0.001426
0.000318
0.000257
0.000220
0.000241
0.000253
0.000266
0.000281
0.000269
0.000283
0.001897
0.000056
0.000196
0.000230
0.001542
0.000868
0.000366
0.000363
0.000231
0.000238
0.000247
0.000255
0.000249
0.000250
0.000247
0.002035
0.000416
0.000226
0.000244
0.000250
0.000270
0.000259
0.000197
