0.000496
0.017967
0.003302
0.000340
0.000264
0.000286
0.000302
0.000251
0.000327
0.000286
0.000249
0.000349
0.000474
0.000500
0.000418
0.000338
0.000274
0.000343
0.000354
0.000409
0.000312
0.001907
0.000714
0.000253
0.000254
0.000321
0.000289
0.000345
0.000416
0.000373
0.000516
0.000307
0.000057
0.000199
0.000271
0.000272
0.000263
0.000273
0.000248
0.000279
0.000262
0.000273
0.000288
0.000430
0.000457
0.000297
0.000257
0.000411
0.000303
0.000362
0.000256
0.000242
0.001704
0.000332
0.000244
0.000454
0.000236
0.000286
0.000272
0.000284
0.000294
0.000279
0.000390
0.000357
0.000056
0.000249
0.000252
0.000261
0.000262
0.000253
0.000242
0.000265
0.000250
0.000289
0.001673
0.000227
0.000231
0.000272
0.000269
0.000278
0.000247
0.000268
0.000251
0.000359
0.001811
0.000228
0.000274
0.000448
0.000462
0.000358
0.000241
0.000275
0.000433
0.000503
0.000768
0.000205
0.000057
0.000223
0.000248
0.000253
0.000240
0.000299
0.000256
0.000311
0.000538
0.000410
0.000250
0.000247
0.000239
0.000258
0.000240
0.000256
0.000263
0.000254
0.000255
0.000292
0.000331
0.001698
0.000245
0.000255
0.000418
0.000318
0.000677
0.000742
0.000459
0.000339
0.000239
0.000183
0.000057
0.000235
0.000246
0.000264
0.000242
0.000258
0.000256
0.000246
0.000514
0.001445
0.000217
0.000241
0.000242
0.000263
0.000252
0.000264
0.000285
0.000312
0.000774
0.001386
0.000277
0.000458
0.000256
0.000206
0.000242
0.000259
0.000268
0.000251
0.000273
0.000267
0.000263
0.000198
0.000056
0.000201
0.000249
0.000241
0.000266
0.000238
0.000238
0.000242
0.000254
0.000244
0.000255
0.001626
0.000266
0.000240
0.000249
0.000237
0.000254
0.000245
0.000250
0.000246
0.000256
0.000278
0.001665
0.000287
0.000248
0.000437
0.000257
0.000256
0.000252
0.000273
0.000265
0.000196
0.000056
0.000208
0.000234
0.000250
0.000247
0.000237
0.000250
0.000263
0.000240
0.000259
0.000253
0.000268
0.000239
0.000261
0.000275
0.001645
0.000270
0.000293
0.000211
0.000259
0.000274
0.000262
0.000243
0.000247
0.000268
0.001783
0.000354
0.000380
0.000350
0.000252
0.000283
0.000196
0.000055
0.000226
0.000262
0.000227
0.000268
0.000255
0.000240
0.000268
0.000422
0.000441
0.000397
0.000212
0.000247
0.000259
0.000239
0.001569
0.000545
0.000303
0.000409
0.000316
0.000233
0.000268
0.000278
0.000275
0.001762
0.000476
0.000469
0.000252
0.000248
0.000242
0.000265
0.000189
0.000071
0.000177
0.000231
0.000261
0.000259
0.000327
0.000458
0.000368
0.000274
0.000225
0.000247
0.000259
0.000243
0.000249
0.001696
0.000508
0.000279
0.000242
0.000247
0.000270
0.000283
0.000250
0.000258
0.000277
0.001942
0.000254
0.000384
0.000251
0.000248
0.000264
0.000412
0.000327
0.000055
0.000217
0.000373
0.000345
0.000322
0.000223
0.000254
0.000244
0.000263
0.000239
0.000232
0.000238
0.000249
0.001553
0.000388
0.000277
0.000242
0.000246
0.000250
0.000249
0.000282
0.000279
0.000329
0.000243
0.001812
0.000243
0.000508
0.000236
0.000259
0.000261
0.000266
0.000268
0.000056
0.000439
0.000495
0.000603
0.000217
0.000224
0.000280
0.000231
0.000218
0.000260
0.000252
0.000253
0.001702
0.000246
0.000445
0.000368
0.000214
0.000249
0.000226
0.000256
0.000261
0.000252
0.001865
0.000234
0.000236
0.002085
0.000520
0.000355
0.000246
0.000258
0.000272
0.000185
0.000056
0.000210
0.000246
0.000246
0.000242
0.000285
0.001596
0.000249
0.000228
0.000275
0.000235
0.000244
0.000272
0.000222
0.000257
0.000268
0.000375
0.000677
0.000243
0.000241
0.000265
0.000268
0.000249
0.000245
0.000425
0.000443
0.000259
0.000311
0.000590
0.000454
0.000265
0.000205
0.000055
0.000220
0.000242
0.000247
0.000250
0.000235
0.000247
0.000238
0.000353
0.000460
0.001735
0.000215
0.000243
0.000233
0.000251
0.000258
0.000293
0.000451
0.000449
0.000364
0.000221
0.000249
0.000304
0.000284
0.000265
0.000266
0.000434
0.000344
0.000582
0.000482
0.000448
0.000184
0.000055
0.000216
0.000256
0.000230
0.000221
0.000247
0.000246
0.000238
0.000245
0.000244
0.000295
0.000338
0.000488
0.001359
0.000229
0.000231
0.000241
0.000263
0.000248
0.000248
0.000253
0.000264
0.000514
0.000377
0.000261
0.000263
0.000254
0.000252
0.000274
0.000266
0.000261
0.000377
0.000055
0.000211
0.000236
0.000235
0.000263
0.000540
0.000432
0.000238
0.000252
0.000235
0.000260
0.000244
0.000243
0.000293
0.000249
0.000243
0.000469
0.001852
0.000304
0.000207
0.000237
0.000249
0.000256
0.000264
0.000241
0.000261
0.000468
0.000447
0.000363
0.000392
0.000244
0.000191
0.000056
0.000211
0.000430
0.000237
0.000221
0.000266
0.000240
0.000273
0.000595
0.000337
0.000306
0.000221
0.000274
0.000269
0.000237
0.000517
0.000344
0.000229
0.000340
0.000399
0.001550
0.000297
0.000249
0.000540
0.000199
0.000273
0.000279
0.000258
0.000426
0.000485
0.000365
0.000268
0.000055
0.000206
0.000234
0.000239
0.000241
0.000418
0.000305
0.000287
0.000224
0.000383
0.000501
0.000386
0.000239
0.000231
0.000252
0.000257
0.000264
0.000253
0.000257
0.000222
0.000351
0.000301
0.000398
0.001776
0.000240
0.000259
0.000252
0.000296
0.000345
0.000446
0.000654
0.000449
0.000056
0.000226
0.000333
0.000284
0.000424
0.000390
0.000210
0.000250
0.000322
0.000489
0.000442
0.000237
0.000242
0.000235
0.000272
0.000256
0.000235
0.000261
0.000273
0.000259
0.000258
0.000268
0.000460
0.000696
0.001251
0.000333
0.000436
0.000418
0.000250
0.000475
0.000371
0.000345
0.000056
0.000252
0.000378
0.000281
0.000192
0.000235
0.000271
0.000387
0.000240
0.000240
0.000480
0.000289
0.000422
0.000286
0.000256
0.000260
0.000246
0.000365
0.000392
0.000354
0.000230
0.000250
0.000529
0.000528
0.001635
0.000239
0.000463
0.000279
0.000227
0.000282
0.000431
0.000248
0.000055
0.000234
0.000229
0.000245
0.000244
0.000247
0.000251
0.000247
0.000326
0.000459
0.000257
0.000479
0.000340
0.000301
0.000580
0.000240
0.000242
0.000269
0.000267
0.000236
0.000343
0.000236
0.000237
0.000271
0.000363
0.000552
0.001647
0.000266
0.000254
0.000230
0.000268
0.000187
0.000055
0.000277
0.000496
0.000340
0.000208
0.000245
0.000249
0.000263
0.000237
0.000258
0.000247
0.000242
0.000234
0.000407
0.000524
0.000412
0.000277
0.000258
0.000243
0.000345
0.000383
0.000383
0.000363
0.000388
0.000334
0.000239
0.000269
0.000264
0.000270
0.001791
0.000245
0.000212
0.000056
0.000207
0.000219
0.000253
0.000270
0.000367
0.000544
0.000314
0.000210
0.000265
0.000259
0.000250
0.000244
0.000528
0.000445
0.000472
0.000289
0.000265
0.000266
0.000423
0.000464
0.000355
0.000406
0.000733
0.000196
0.000241
0.000248
0.000266
0.000244
0.000261
0.001717
0.000299
0.000056
0.000256
0.000326
0.000209
0.000235
0.000257
0.000247
0.000238
0.000505
0.000371
0.000310
0.000294
0.000301
0.000341
0.000688
0.000277
0.000232
0.000256
0.000252
0.000262
0.000261
0.000268
0.000255
0.000250
0.000263
0.000325
0.000375
0.000370
0.000372
0.000235
0.000250
0.000191
0.000058
0.000464
0.000274
0.000527
0.000192
0.000202
0.000249
0.000246
0.000251
0.000237
0.000238
0.000240
0.000282
0.000294
0.000351
0.000478
0.000582
0.000262
0.000321
0.000397
0.000323
0.000291
0.000272
0.000220
0.000258
0.001755
0.000251
0.001729
0.000925
0.000420
0.000309
0.000170
0.000057
0.000211
0.000239
0.000224
0.000248
0.000259
0.000243
0.000261
0.000258
0.000231
0.000306
0.000365
0.000433
0.000346
0.000379
0.000244
0.000260
0.000254
0.000290
0.000225
0.000247
0.000256
0.000265
0.001811
0.000241
0.000259
0.000255
0.000273
0.000267
0.001923
0.000527
0.000232
0.000056
0.000219
0.000207
0.000245
0.000237
0.000253
0.000244
0.000247
0.000253
0.000252
0.000387
0.000631
0.000417
0.000238
0.000202
0.000236
0.000252
0.000337
0.000438
0.000366
0.000253
0.001770
0.000249
0.000251
0.000250
0.000260
0.000268
0.000261
0.000234
0.000375
0.000273
0.000354
0.000057
0.000241
0.000220
0.000239
0.000255
0.000248
0.000247
0.000249
0.000254
0.000244
0.000259
0.000236
0.000264
0.000469
0.000362
0.000294
0.000278
0.000465
0.000236
0.000249
0.000252
0.000261
0.000260
0.000293
0.000237
0.000281
0.001793
0.000247
0.000243
0.000261
0.000237
0.000206
0.000055
0.000250
0.000400
0.000211
0.000222
0.000242
0.000231
0.000238
0.000253
0.000250
0.000224
0.000237
0.000259
0.000258
0.000328
0.000464
0.000345
0.000276
0.000242
0.000248
0.000255
0.000288
0.000234
0.000249
0.000270
0.000254
0.000259
0.000362
0.001581
0.000271
0.000242
0.000180
0.000056
0.000196
0.000242
0.000265
0.000253
0.000331
0.000459
0.000314
0.000306
0.000233
0.000248
0.000249
0.000245
0.000241
0.000260
0.000265
0.000251
0.000248
0.000259
0.000253
0.000258
0.000266
0.000268
0.000255
0.000229
0.000243
0.000277
0.000276
0.000265
0.000253
0.000258
0.000197
0.000055
0.000207
0.000220
0.000254
0.000258
0.000236
0.000255
0.000240
0.000259
0.000286
0.000241
0.000224
0.000247
0.000254
0.000250
0.000267
0.000268
0.000254
0.000251
0.000295
0.000250
0.000275
0.000294
0.000269
0.000264
0.000261
0.000274
0.000270
0.000250
0.000281
0.000479
0.000639
0.000056
0.000223
0.000287
0.000221
0.000228
0.000236
0.000260
0.000233
0.000249
0.000255
0.000241
0.000272
0.000271
0.000518
0.000459
0.001545
0.000237
0.000478
0.000246
0.000305
0.000440
0.000455
0.000317
0.000236
0.000275
0.000252
0.000261
0.000277
0.000251
0.000311
0.000255
0.000187
0.000055
0.000347
0.000418
0.000327
0.000335
0.000198
0.000258
0.000248
0.000241
0.000238
0.000244
0.000256
0.000256
0.000233
0.000366
0.000311
0.000464
0.000378
0.001800
0.000233
0.000249
0.000327
0.000423
0.000489
0.000266
0.000318
0.000316
0.000304
0.000227
0.000231
0.000251
0.000193
0.000055
0.000195
0.000238
0.000233
0.000284
0.000393
0.000466
0.000293
0.000256
0.000251
0.000217
0.000247
0.000270
0.000262
0.000265
0.000248
0.000270
0.000286
0.000494
0.000362
0.000411
0.000236
0.001755
0.000329
0.000481
0.000490
0.000481
0.000336
0.000228
0.000246
0.000275
0.000444
0.000056
0.000211
0.000264
0.000225
0.000448
0.000259
0.000464
0.000391
0.000208
0.000238
0.000288
0.000243
0.000262
0.000256
0.000306
0.000289
0.000248
0.000227
0.000393
0.000507
0.000286
0.000501
0.001856
0.000240
0.000496
0.000439
0.000378
0.000220
0.000254
0.000297
0.000265
0.000199
0.000054
0.000218
0.000335
0.000361
0.000395
0.000322
0.000372
0.000311
0.000197
0.000245
0.000255
0.000279
0.000231
0.000244
0.000247
0.000257
0.000256
0.000321
0.000358
0.000516
0.000371
0.000305
0.000223
0.000272
0.001706
0.000464
0.000471
0.000679
0.000247
0.000254
0.000300
0.000169
0.000055
0.000191
0.000239
0.000337
0.000241
0.000288
0.000332
0.000511
0.000239
0.000238
0.000534
0.000229
0.000236
0.000261
0.000280
0.000271
0.000267
0.000211
0.000363
0.000492
0.000401
0.000263
0.000228
0.000258
0.000251
0.000264
0.000264
0.000242
0.000253
0.000266
0.000284
0.000268
0.000057
0.000356
0.000299
0.000219
0.000249
0.000247
0.000264
0.000237
0.000292
0.000238
0.000255
0.000255
0.000353
0.000420
0.000407
0.000340
0.000273
0.000221
0.000238
0.000273
0.000251
0.000299
0.000256
0.000231
0.000255
0.000279
0.000285
0.000481
0.000339
0.000356
0.000225
0.000177
0.000055
0.000218
0.000209
0.000278
0.000243
0.000237
0.000254
0.000258
0.000254
0.000486
0.000213
0.000262
0.000254
0.000246
0.000262
0.000276
0.000282
0.000252
0.000347
0.000219
0.000254
0.000247
0.000267
0.000254
0.000274
0.000272
0.000274
0.000247
0.000258
0.000518
0.000262
0.000133
0.000055
0.000212
0.000231
0.000254
0.000268
0.000221
0.000252
0.000349
0.000410
0.000250
0.000226
0.000249
0.000257
0.000235
0.000258
0.000492
0.001743
0.000227
0.000270
0.000285
0.000386
0.000365
0.000367
0.000358
0.000365
0.000408
0.000431
0.000226
0.000267
0.000265
0.000274
0.001392
0.000055
0.000392
0.000293
0.000273
0.000222
0.000231
0.000253
0.000232
0.000257
0.000244
0.000271
0.000243
0.000259
0.000255
0.000331
0.000506
0.001632
0.000230
0.000235
0.000242
0.000263
0.000247
0.000272
0.000333
0.000408
0.000290
0.000354
0.000223
0.000280
0.000266
0.000260
0.000210
0.000055
0.001186
0.000520
0.000382
0.000228
0.000234
0.000229
0.000238
0.000235
0.000489
0.000218
0.000245
0.000242
0.000384
0.000498
0.000391
0.000345
0.000243
0.000228
0.000344
0.000344
0.000276
0.000255
0.000272
0.000246
0.000263
0.000656
0.000480
0.000263
0.000253
0.000262
0.000171
0.000055
0.000194
0.000213
0.000243
0.000247
0.001557
0.000207
0.000230
0.000252
0.000240
0.000250
0.000250
0.000257
0.000238
0.000269
0.000268
0.000375
0.000381
0.000674
0.000213
0.001745
0.000259
0.000276
0.000291
0.000711
0.000283
0.000393
0.000250
0.000253
0.000253
0.000268
0.000207
0.000055
0.000208
0.000241
0.000236
0.000271
0.001302
0.000232
0.000251
0.000265
0.000236
0.000243
0.000240
0.000249
0.000274
0.000247
0.000257
0.000391
0.000347
0.000532
0.000231
0.000245
0.000270
0.000274
0.000251
0.000236
0.000293
0.000260
0.000242
0.000271
0.000299
0.000416
0.000485
0.000056
0.000222
0.000250
0.000232
0.000268
0.000261
0.000242
0.000237
0.000256
0.000271
0.000256
0.001427
0.000227
0.000243
0.000252
0.000243
0.000242
0.000271
0.000268
0.000255
0.000271
0.000276
0.000473
0.000490
0.000360
0.000230
0.000278
0.001760
0.000266
0.000254
0.000304
0.000484
0.000062
0.000210
0.000387
0.000449
0.000500
0.000513
0.000596
0.001443
0.000420
0.000515
0.000656
0.000553
0.000763
0.000443
0.000610
0.000582
0.001888
0.000437
0.000404
0.000398
0.000337
0.000205
0.000308
0.000252
0.000265
0.000262
0.000288
0.000283
0.000290
0.000258
0.000291
0.001368
0.000059
0.000207
0.000224
0.000243
0.000237
0.000266
0.000245
0.000241
0.000243
0.000246
0.000246
0.000247
0.000245
0.000247
0.000260
0.000270
0.000266
0.001803
0.000278
0.000259
0.000245
0.000249
0.000263
0.000293
0.000234
0.000409
0.000467
0.000307
0.000249
0.000263
0.000277
0.000209
0.000057
0.000219
0.001361
0.000323
0.000264
0.000263
0.000236
0.000244
0.000236
0.000226
0.000254
0.000203
0.000245
0.000253
0.000504
0.000368
0.000283
0.000261
0.000258
0.001921
0.000235
0.000246
0.000262
0.000254
0.000270
0.000272
0.000281
0.000266
0.000257
0.000269
0.000316
0.000201
0.000056
0.000199
0.000242
0.000245
0.001449
0.000221
0.000249
0.000243
0.000244
0.000237
0.000266
0.000248
0.000254
0.000242
0.000255
0.000258
0.000257
0.000266
0.000265
0.000276
0.000245
0.000263
0.001773
0.000273
0.001758
0.000258
0.000256
0.000257
0.000275
0.000281
0.000261
0.000208
0.000055
0.000194
0.000237
0.001349
0.000229
0.000255
0.000235
0.000264
0.000255
0.000243
0.000255
0.000243
0.000252
0.000255
0.000263
0.000259
0.000265
0.000259
0.000283
0.000296
0.000228
0.001889
0.000225
0.001832
0.000238
0.000255
0.000279
0.000231
0.000254
0.000246
0.000273
0.000199
0.000055
0.001429
0.000229
0.000230
0.000241
0.000239
0.000239
0.000371
0.000269
0.000255
0.000245
0.000255
0.000261
0.000247
0.000377
0.000368
0.000301
0.000234
0.000280
0.000256
0.000243
0.000274
0.000334
0.000229
0.000258
0.000263
0.000283
0.000268
0.000330
0.000650
0.000372
0.000197
0.000055
0.000227
0.000243
0.000274
0.000298
0.000371
0.000265
0.001648
0.000340
0.000277
0.000262
0.000258
0.000277
0.000263
0.000258
0.000305
0.000301
0.000316
0.000633
0.000344
0.000275
0.000283
0.000282
0.000264
0.000264
0.000326
0.000265
0.000260
0.000260
0.000249
0.000305
0.000453
0.000056
0.000218
0.000475
0.000274
0.000261
0.000247
0.000229
0.000221
0.000249
0.000258
0.000257
0.001520
0.000226
0.000219
0.000248
0.000248
0.000288
0.000260
0.000257
0.000258
0.000275
0.000258
0.000392
0.000518
0.000294
0.000274
0.000280
0.000271
0.000258
0.000235
0.000305
0.000179
0.000055
0.000194
0.000236
0.000286
0.000461
0.000392
0.000254
0.000206
0.000257
0.000250
0.000255
0.000231
0.000251
0.000258
0.000263
0.000242
0.000248
0.000460
0.001140
0.000263
0.000237
0.000272
0.000246
0.000358
0.000419
0.000251
0.000262
0.000639
0.000350
0.000399
0.000215
0.000176
0.000056
0.000218
0.000245
0.000261
0.000264
0.000259
0.000242
0.000415
0.000366
0.000417
0.000270
0.000362
0.000391
0.000393
0.000363
0.000247
0.000250
0.000239
0.000260
0.000430
0.000422
0.001275
0.000222
0.000274
0.000271
0.000240
0.000229
0.000269
0.000303
0.000432
0.000443
0.000253
0.000055
0.000191
0.000238
0.000256
0.000238
0.000246
0.000252
0.000238
0.000253
0.000312
0.000396
0.000349
0.000407
0.000250
0.000227
0.000251
0.000274
0.000235
0.000266
0.000262
0.000246
0.000447
0.000241
0.000385
0.000448
0.000290
0.000243
0.000274
0.000274
0.000249
0.000337
0.000159
0.000055
0.000301
0.000318
0.000295
0.000387
0.000490
0.000303
0.000259
0.000244
0.000245
0.000277
0.000253
0.000268
0.000231
0.000255
0.000241
0.000225
0.000265
0.000365
0.000504
0.000333
0.000228
0.000272
0.000249
0.000248
0.000266
0.000281
0.000255
0.000275
0.000275
0.000267
0.000265
0.000055
0.000407
0.000236
0.000230
0.000244
0.000245
0.000248
0.000252
0.000242
0.000269
0.000257
0.000253
0.000233
0.000303
0.000491
0.000422
0.000313
0.000223
0.000242
0.000257
0.000268
0.000255
0.000272
0.000251
0.000262
0.000319
0.000266
0.000440
0.000575
0.000419
0.000249
0.000154
0.000056
0.000362
0.000205
0.000224
0.000249
0.000246
0.000253
0.000238
0.000245
0.000260
0.000260
0.000220
0.000247
0.000268
0.000231
0.000236
0.000269
0.000271
0.000245
0.000275
0.000259
0.000261
0.000264
0.000258
0.000262
0.000266
0.000240
0.000266
0.000290
0.000242
0.000284
0.000190
0.000055
0.000200
0.000230
0.000249
0.000251
0.000231
0.000249
0.000264
0.000244
0.000256
0.000276
0.000229
0.000232
0.000267
0.000394
0.000249
0.000297
0.000245
0.000270
0.000258
0.000274
0.000274
0.000230
0.000258
0.000245
0.000271
0.000275
0.000250
0.000252
0.000269
0.000262
0.000209
0.000056
0.000199
0.000349
0.000371
0.000283
0.000291
0.000256
0.000270
0.000257
0.000225
0.000241
0.000252
0.000266
0.000247
0.000260
0.000235
0.000257
0.000265
0.000269
0.000242
0.000263
0.000279
0.000264
0.000283
0.000250
0.000270
0.000254
0.000251
0.000277
0.000288
0.000239
0.000197
0.000056
0.000201
0.000227
0.000267
0.000265
0.000479
0.000218
0.000207
0.000247
0.000306
0.000436
0.000484
0.000280
0.000233
0.000246
0.000263
0.000269
0.000235
0.000273
0.000254
0.000265
0.000273
0.000260
0.000255
0.000310
0.000557
0.000447
0.000260
0.000310
0.000257
0.000262
0.000189
0.000055
0.000217
0.000219
0.000242
0.000254
0.000414
0.000581
0.000292
0.000383
0.000202
0.000246
0.000261
0.000252
0.000260
0.000242
0.000252
0.000268
0.000282
0.000265
0.000649
0.000339
0.000309
0.000236
0.000260
0.000279
0.000279
0.000259
0.000262
0.000269
0.000251
0.000335
0.000371
0.000055
0.000271
0.000226
0.000243
0.000237
0.000257
0.000252
0.000232
0.000242
0.000248
0.000257
0.000244
0.000252
0.000242
0.000491
0.000496
0.000360
0.000252
0.000259
0.000259
0.000243
0.000266
0.000278
0.000485
0.000225
0.000260
0.000646
0.000355
0.000502
0.000243
0.000257
0.000178
0.000055
0.000192
0.000240
0.000241
0.000243
0.000253
0.000256
0.000364
0.000433
0.000523
0.000435
0.000211
0.000266
0.000276
0.000269
0.000264
0.000242
0.000237
0.000247
0.000261
0.000382
0.000351
0.000647
0.000363
0.000256
0.000362
0.000375
0.000478
0.000252
0.000263
0.000343
0.000426
0.000077
0.000251
0.000223
0.000438
0.000232
0.000226
0.000249
0.000284
0.000236
0.000239
0.000235
0.000260
0.000412
0.000370
0.000345
0.000227
0.000238
0.000261
0.000253
0.000266
0.000275
0.000279
0.000244
0.000257
0.000268
0.000317
0.000481
0.000480
0.000238
0.000260
0.000272
0.000196
0.000055
0.000230
0.000246
0.000238
0.000236
0.000252
0.000256
0.000413
0.000316
0.000468
0.000279
0.000371
0.000230
0.000245
0.000263
0.000252
0.000246
0.000252
0.000258
0.000267
0.000405
0.000580
0.000251
0.000474
0.000280
0.000382
0.000426
0.000380
0.000249
0.000244
0.000303
0.000377
0.000055
0.000238
0.000283
0.000218
0.000254
0.000261
0.000253
0.000250
0.000251
0.000246
0.000272
0.000236
0.000395
0.000425
0.000359
0.000376
0.000216
0.000270
0.000270
0.000266
0.000234
0.000253
0.000250
0.000263
0.000275
0.000276
0.000348
0.000529
0.000425
0.000236
0.000277
0.000187
0.000055
0.000220
0.000238
0.000264
0.000239
0.000259
0.000338
0.000509
0.000465
0.000366
0.000681
0.000273
0.000209
0.000243
0.000260
0.000245
0.000265
0.000302
0.000253
0.000484
0.000419
0.001507
0.000302
0.000262
0.000258
0.000295
0.000262
0.000366
0.000434
0.000361
0.000335
0.000161
0.000073
0.000190
0.000236
0.000242
0.000246
0.000240
0.000259
0.000277
0.000263
0.000232
0.000334
0.000326
0.000386
0.000268
0.000335
0.000392
0.000342
0.000245
0.000249
0.000269
0.000261
0.000245
0.000248
0.000282
0.000247
0.000313
0.000432
0.000439
0.000302
0.000239
0.000272
0.000188
0.000055
0.000223
0.000251
0.000258
0.000253
0.000241
0.000241
0.000463
0.000215
0.000233
0.000256
0.000263
0.000236
0.000256
0.000254
0.000250
0.000274
0.000262
0.000265
0.000275
0.000250
0.000287
0.000261
0.000292
0.000246
0.000264
0.000301
0.000249
0.000264
0.000263
0.000273
0.000168
0.000055
0.000234
0.000241
0.000302
0.000417
0.000378
0.000254
0.000233
0.000248
0.000258
0.000252
0.000243
0.000259
0.000262
0.000262
0.000237
0.000245
0.000247
0.000266
0.000318
0.000280
0.000455
0.000406
0.000235
0.000272
0.000254
0.000251
0.000271
0.000247
0.000277
0.000295
0.000180
0.000055
0.000382
0.000449
0.000367
0.000205
0.000251
0.000258
0.000407
0.000222
0.000230
0.000256
0.000255
0.000299
0.000345
0.000436
0.001864
0.000252
0.000248
0.000250
0.000277
0.000246
0.000312
0.000536
0.000502
0.000344
0.000226
0.000261
0.000271
0.000428
0.000277
0.000281
0.000170
0.000055
0.000250
0.000352
0.000353
0.000309
0.000495
0.000203
0.000244
0.000259
0.000237
0.000241
0.000263
0.000244
0.000262
0.000369
0.000455
0.000375
0.000230
0.000243
0.000259
0.000261
0.000263
0.000326
0.000222
0.000284
0.000280
0.000443
0.000512
0.000381
0.000484
0.000231
0.000200
0.000055
0.000212
0.000211
0.000260
0.000221
0.000259
0.000244
0.000271
0.000268
0.000353
0.000347
0.000464
0.000353
0.000210
0.000257
0.000277
0.000268
0.000308
0.000227
0.000281
0.000268
0.000240
0.000401
0.000367
0.000371
0.000302
0.000244
0.000267
0.000455
0.000396
0.000317
0.000168
0.000056
0.000206
0.000299
0.000281
0.000460
0.000344
0.000204
0.000240
0.000255
0.000258
0.000268
0.000247
0.000255
0.000223
0.000261
0.000264
0.000288
0.000443
0.000322
0.000367
0.000265
0.000490
0.000236
0.000291
0.000254
0.000308
0.000283
0.000256
0.000259
0.000475
0.000526
0.000185
0.000055
0.000202
0.000237
0.000247
0.000245
0.000293
0.000434
0.000209
0.000260
0.000268
0.000287
0.000510
0.000607
0.000203
0.000245
0.000242
0.000257
0.000254
0.000245
0.000259
0.000252
0.000261
0.000264
0.000441
0.000340
0.000362
0.000406
0.000311
0.000298
0.000314
0.000248
0.000181
0.000055
0.000209
0.000225
0.000259
0.000532
0.000310
0.000261
0.000264
0.000215
0.000252
0.000255
0.000255
0.000248
0.000254
0.000256
0.000255
0.000264
0.000247
0.000247
0.000260
0.000381
0.000477
0.000438
0.000228
0.000247
0.000280
0.000272
0.000263
0.000260
0.000257
0.000276
0.000187
0.000055
0.000235
0.000402
0.000481
0.000250
0.000212
0.000246
0.000327
0.000450
0.000290
0.000209
0.000241
0.000280
0.000248
0.000461
0.000424
0.000292
0.000227
0.000245
0.000245
0.000272
0.000265
0.000266
0.000264
0.000274
0.000252
0.000284
0.000419
0.000426
0.000293
0.000255
0.000171
0.000056
0.000197
0.000231
0.000251
0.000252
0.000253
0.000267
0.000228
0.000260
0.000243
0.000252
0.000266
0.000240
0.000262
0.001464
0.000217
0.000256
0.000265
0.000249
0.000275
0.000273
0.000264
0.000237
0.000278
0.000251
0.000268
0.000282
0.000254
0.000274
0.000263
0.000270
0.000203
0.000055
0.000201
0.000235
0.000248
0.000256
0.000234
0.000257
0.000245
0.000255
0.000232
0.000247
0.000249
0.000261
0.000258
0.000252
0.000275
0.000241
0.000242
0.000261
0.000277
0.000260
0.000248
0.000268
0.000244
0.000250
0.001297
0.000268
0.000569
0.000487
0.000285
0.000246
0.000194
0.000056
0.000188
0.000241
0.000243
0.000250
0.000413
0.000244
0.000234
0.000255
0.000239
0.000372
0.000432
0.000344
0.000232
0.000243
0.000259
0.000259
0.000256
0.000272
0.000236
0.000260
0.000263
0.000278
0.000238
0.000518
0.000431
0.000440
0.000220
0.000268
0.001373
0.000243
0.000175
0.000056
0.000350
0.000417
0.000339
0.000248
0.000221
0.000240
0.000226
0.000251
0.000260
0.000255
0.000244
0.000261
0.000270
0.000313
0.000518
0.000397
0.000327
0.000216
0.000253
0.000258
0.000264
0.000266
0.000271
0.000261
0.000272
0.000261
0.000372
0.000538
0.000329
0.000397
0.000139
0.000056
0.000214
0.000227
0.001277
0.000415
0.000412
0.000341
0.000390
0.000481
0.000285
0.000330
0.000226
0.000227
0.000255
0.000253
0.000261
0.000258
0.000373
0.000517
0.000407
0.000304
0.000257
0.000244
0.000260
0.000506
0.000232
0.000267
0.000255
0.000276
0.000361
0.000498
0.000283
0.000055
0.000389
0.000306
0.000231
0.000225
0.001558
0.000462
0.000302
0.000251
0.000246
0.000249
0.000235
0.000239
0.000245
0.000268
0.000249
0.000262
0.000238
0.000264
0.000371
0.000415
0.000486
0.000226
0.000254
0.000249
0.000257
0.000298
0.000247
0.000237
0.000271
0.000273
0.000198
0.000055
0.000444
0.000260
0.000226
0.000228
0.000251
0.000243
0.000255
0.000243
0.000223
0.000234
0.001415
0.000455
0.000280
0.000231
0.000246
0.000257
0.000277
0.000256
0.000265
0.000251
0.000267
0.000254
0.000266
0.000395
0.000412
0.000487
0.000216
0.000271
0.000280
0.000285
0.000166
0.000055
0.000211
0.000414
0.000226
0.000245
0.000339
0.000438
0.000361
0.000327
0.000463
0.000201
0.000235
0.000250
0.000267
0.000260
0.000261
0.001399
0.000377
0.000286
0.000239
0.000271
0.000288
0.000242
0.000256
0.000257
0.000255
0.000270
0.000641
0.000263
0.000287
0.000277
0.000161
0.000055
0.000192
0.000225
0.000256
0.000237
0.000231
0.000260
0.000235
0.000252
0.000286
0.000370
0.000478
0.000243
0.000261
0.000239
0.000241
0.000277
0.000270
0.000262
0.000272
0.000223
0.000254
0.000333
0.001254
0.000262
0.000245
0.000240
0.000257
0.000266
0.000264
0.000253
0.000182
0.000055
0.000234
0.000367
0.000350
0.000345
0.000246
0.000236
0.000260
0.000262
0.000254
0.000250
0.000256
0.000271
0.000240
0.000252
0.000257
0.000264
0.000265
0.000270
0.000263
0.000253
0.000248
0.000270
0.000274
0.000276
0.000285
0.000266
0.000271
0.000250
0.000266
0.000444
0.001371
0.000054
0.000225
0.000225
0.000243
0.000240
0.000254
0.000257
0.000247
0.000224
0.000250
0.000247
0.000276
0.000252
0.000255
0.000241
0.000249
0.000253
0.001731
0.000240
0.000254
0.000257
0.000251
0.000255
0.000275
0.000257
0.000280
0.000255
0.000268
0.000278
0.000267
0.000262
0.000209
0.000055
0.000305
0.000298
0.001314
0.000231
0.000243
0.000226
0.000257
0.000249
0.000261
0.000257
0.000231
0.000342
0.000397
0.000495
0.000238
0.000220
0.000250
0.000247
0.000256
0.000257
0.000245
0.000271
0.000265
0.000280
0.000265
0.000407
0.000361
0.000360
0.000313
0.000238
0.000196
0.000056
0.000199
0.000256
0.000240
0.000249
0.000253
0.000223
0.000249
0.000249
0.000421
0.001338
0.000266
0.000204
0.000249
0.000270
0.000256
0.000268
0.000259
0.000249
0.000306
0.000424
0.000374
0.000271
0.000239
0.000250
0.000272
0.000281
0.000260
0.000298
0.000271
0.000274
0.000192
0.000056
0.000280
0.000397
0.000384
0.000220
0.000226
0.000239
0.000243
0.000278
0.000270
0.000244
0.000230
0.000246
0.000460
0.000588
0.000377
0.001458
0.000255
0.000256
0.000331
0.000353
0.000485
0.000427
0.000520
0.000339
0.000230
0.000266
0.000264
0.000272
0.000262
0.000279
0.000189
0.000055
0.000217
0.000278
0.000456
0.000421
0.000383
0.000239
0.000251
0.000225
0.000252
0.000259
0.000247
0.000265
0.000266
0.000239
0.000267
0.000294
0.000367
0.000448
0.000352
0.001319
0.000283
0.000234
0.000257
0.000265
0.000531
0.000361
0.000406
0.000234
0.000270
0.000271
0.000190
0.000055
0.000197
0.000244
0.000250
0.000240
0.000254
0.000276
0.000441
0.000409
0.000352
0.000218
0.000246
0.000263
0.000267
0.000258
0.000260
0.000265
0.000269
0.000258
0.000274
0.000257
0.000461
0.000449
0.000313
0.001343
0.000413
0.000234
0.000282
0.000431
0.000470
0.000312
0.000309
0.000055
0.000200
0.000233
0.000251
0.000244
0.000251
0.000257
0.001682
0.000243
0.000214
0.000244
0.000255
0.000249
0.000257
0.000325
0.000325
0.000289
0.000292
0.000313
0.000463
0.000450
0.000271
0.000284
0.000232
0.000244
0.001502
0.000348
0.000420
0.000449
0.000332
0.000287
0.000160
0.000055
0.000197
0.000248
0.000257
0.000257
0.000245
0.000255
0.001713
0.000234
0.000244
0.000258
0.000335
0.000406
0.001443
0.000425
0.000332
0.000248
0.000253
0.000232
0.000272
0.000266
0.001792
0.000312
0.000394
0.000290
0.000249
0.000248
0.000258
0.000279
0.000251
0.000248
0.000198
0.000055
0.000196
0.000244
0.000270
0.000243
0.000259
0.000275
0.000282
0.000255
0.000252
0.000250
0.000251
0.000251
0.000259
0.000273
0.000251
0.001491
0.000282
0.000238
0.000259
0.000283
0.000268
0.000255
0.000429
0.001269
0.000297
0.000213
0.000279
0.000250
0.000395
0.000248
0.000198
0.000055
0.000205
0.000251
0.000220
0.000244
0.000244
0.000226
0.000229
0.001706
0.000257
0.000221
0.000250
0.000372
0.000223
0.000227
0.000251
0.001392
0.000233
0.000261
0.000271
0.000238
0.000263
0.000346
0.000275
0.001312
0.000285
0.000252
0.000251
0.000263
0.001394
0.000274
0.000216
0.000055
0.000258
0.000332
0.000210
0.000237
0.000252
0.000241
0.000263
0.000270
0.000268
0.000243
0.000263
0.000264
0.000254
0.000246
0.000295
0.001509
0.000254
0.000270
0.000251
0.000253
0.000279
0.000263
0.000250
0.001502
0.000360
0.000233
0.000258
0.001277
0.000275
0.000246
0.000196
0.000055
0.000245
0.000359
0.000347
0.000221
0.000234
0.000236
0.000260
0.000259
0.000262
0.000278
0.000249
0.000236
0.000258
0.000277
0.000407
0.001225
0.000239
0.000245
0.000268
0.000279
0.000227
0.000243
0.000249
0.000331
0.001289
0.000265
0.000222
0.000258
0.001347
0.000355
0.000328
0.000056
0.000304
0.000251
0.000217
0.000229
0.000241
0.000257
0.000246
0.000246
0.000274
0.000252
0.000243
0.000261
0.000238
0.000344
0.000405
0.001465
0.000217
0.000255
0.000295
0.000530
0.000267
0.000404
0.001336
0.000305
0.000236
0.000272
0.000251
0.001305
0.000316
0.000474
0.000386
0.000055
0.000223
0.000255
0.000254
0.000252
0.000256
0.000251
0.000274
0.000245
0.000263
0.000262
0.000346
0.000474
0.001296
0.000247
0.000263
0.000263
0.000284
0.000215
0.000250
0.000241
0.000383
0.001196
0.000255
0.000244
0.000255
0.000264
0.001492
0.000448
0.000478
0.000222
0.000175
0.000056
0.000226
0.000209
0.000248
0.000233
0.000257
0.000267
0.000231
0.000279
0.000474
0.000434
0.000263
0.001485
0.000216
0.000244
0.000267
0.000256
0.000260
0.000302
0.001681
0.000255
0.000394
0.000339
0.001235
0.000375
0.000329
0.000347
0.000232
0.000262
0.000261
0.000270
0.000192
0.000055
0.000182
0.000239
0.000329
0.000237
0.000385
0.000520
0.000244
0.000299
0.001469
0.000234
0.000390
0.000256
0.000241
0.000291
0.000401
0.001305
0.000275
0.000260
0.000215
0.000259
0.001521
0.000450
0.000213
0.000282
0.000268
0.000246
0.000467
0.000352
0.000223
0.000228
0.000256
0.000055
0.000266
0.000360
0.000323
0.000272
0.000210
0.001527
0.000213
0.000260
0.000266
0.000260
0.000273
0.000239
0.000307
0.001484
0.000255
0.000229
0.000432
0.001195
0.000358
0.000424
0.000402
0.000224
0.000243
0.000258
0.000293
0.000228
0.000457
0.000225
0.000267
0.000280
0.000190
0.000055
0.000187
0.000373
0.000249
0.000379
0.001276
0.000278
0.000304
0.000235
0.000242
0.000248
0.000252
0.000284
0.001518
0.000275
0.000218
0.000248
0.001389
0.000282
0.000419
0.000399
0.000411
0.000244
0.000255
0.000239
0.000264
0.000278
0.000278
0.000255
0.000265
0.000251
0.000192
0.000055
0.000249
0.000344
0.001478
0.000202
0.000281
0.000274
0.000242
0.000248
0.000285
0.000388
0.001367
0.000209
0.000269
0.000253
0.000261
0.001274
0.000704
0.000302
0.000306
0.000412
0.000312
0.000227
0.000270
0.000253
0.000279
0.000280
0.000275
0.000308
0.000398
0.000455
0.001378
0.000055
0.000204
0.000246
0.000251
0.000222
0.000249
0.000436
0.000485
0.001269
0.000249
0.000240
0.000250
0.001391
0.000456
0.000353
0.000213
0.000407
0.000265
0.000228
0.000263
0.000282
0.000243
0.000275
0.000279
0.000250
0.000255
0.000277
0.000524
0.000409
0.001489
0.000240
0.000174
0.000056
0.000202
0.000256
0.000385
0.000512
0.001237
0.000286
0.000244
0.000254
0.000245
0.000254
0.000250
0.000264
0.000382
0.000464
0.000349
0.000236
0.000257
0.000272
0.000242
0.000281
0.000251
0.000274
0.000247
0.000278
0.000322
0.000388
0.000409
0.000364
0.000321
0.001390
0.000174
0.000056
0.000215
0.000248
0.000332
0.000456
0.000274
0.000316
0.000312
0.000332
0.000271
0.000264
0.000258
0.000257
0.000256
0.000305
0.000237
0.000407
0.000490
0.000268
0.000298
0.000379
0.000279
0.000402
0.000228
0.000268
0.000244
0.000258
0.000253
0.000292
0.000355
0.000523
0.000271
0.000056
0.000210
0.001400
0.000234
0.000337
0.000457
0.000354
0.000445
0.000263
0.000216
0.000250
0.000261
0.000250
0.000261
0.000273
0.000265
0.000249
0.000262
0.001359
0.000283
0.000225
0.000258
0.000270
0.000270
0.000280
0.000275
0.000250
0.000281
0.000244
0.000399
0.000337
0.000370
0.000055
0.000208
0.000253
0.000224
0.001497
0.000324
0.000245
0.000220
0.000249
0.000231
0.000240
0.000261
0.000274
0.000248
0.000254
0.000266
0.000256
0.000244
0.000280
0.000259
0.000250
0.001433
0.000236
0.000243
0.000272
0.000256
0.000249
0.000267
0.000264
0.000274
0.000489
0.000346
0.000055
0.000202
0.000237
0.000395
0.000279
0.000246
0.000251
0.001531
0.000355
0.000298
0.000214
0.000258
0.000311
0.000338
0.000232
0.000228
0.000245
0.000253
0.000265
0.000254
0.000260
0.000485
0.000499
0.001123
0.000283
0.000221
0.000263
0.000270
0.000256
0.000277
0.000266
0.000339
0.000054
0.000275
0.000345
0.000210
0.000235
0.000252
0.000236
0.000252
0.000228
0.000288
0.001596
0.000432
0.000235
0.000231
0.000259
0.000256
0.000244
0.000259
0.000273
0.000257
0.000313
0.000323
0.000481
0.000446
0.001371
0.000220
0.000266
0.000273
0.000258
0.000273
0.000282
0.000531
0.000056
0.000233
0.000236
0.000241
0.000240
0.000216
0.000247
0.000257
0.000258
0.000269
0.001570
0.000353
0.000257
0.000266
0.000253
0.000459
0.000265
0.000520
0.000380
0.000306
0.000305
0.000455
0.000480
0.001254
0.000264
0.000231
0.000263
0.001767
0.000403
0.000602
0.000317
0.000152
0.000055
0.000187
0.000229
0.000239
0.000237
0.000257
0.000247
0.000259
0.000545
0.000473
0.000380
0.000299
0.000209
0.000243
0.000267
0.000259
0.000269
0.000246
0.000253
0.000252
0.000291
0.000262
0.000441
0.001317
0.000223
0.000247
0.000269
0.001903
0.000392
0.000371
0.000353
0.000158
0.000055
0.000210
0.000248
0.001544
0.000288
0.000399
0.000218
0.000234
0.000269
0.000245
0.000285
0.000377
0.000367
0.000365
0.000274
0.000292
0.000519
0.000403
0.001196
0.000283
0.000231
0.000247
0.000265
0.000269
0.000408
0.000673
0.000400
0.000251
0.000270
0.000270
0.000273
0.000189
0.000055
0.000192
0.000232
0.000243
0.001535
0.000268
0.000220
0.000241
0.000254
0.000245
0.000246
0.000257
0.000267
0.000279
0.000264
0.000326
0.000416
0.000393
0.000273
0.001388
0.000234
0.000263
0.000272
0.000250
0.000263
0.000423
0.000461
0.000415
0.000281
0.000286
0.000219
0.000448
0.000055
0.000205
0.000246
0.000246
0.001520
0.000325
0.000224
0.000268
0.000236
0.000254
0.000261
0.000258
0.000253
0.000258
0.000266
0.000473
0.000458
0.001354
0.000753
0.000252
0.000342
0.000258
0.000231
0.000244
0.000273
0.001687
0.000799
0.000232
0.000258
0.000281
0.000284
0.000183
0.000055
0.000203
0.000258
0.000236
0.000249
0.000254
0.000248
0.000242
0.000249
0.000243
0.000233
0.000292
0.000281
0.000253
0.000250
0.000262
0.000244
0.000272
0.001606
0.000705
0.000420
0.000265
0.000231
0.000243
0.000282
0.000266
0.000266
0.000266
0.000252
0.001399
0.000388
0.000361
0.000055
0.000185
0.000241
0.000246
0.000246
0.000268
0.000227
0.000260
0.000249
0.000253
0.000261
0.000289
0.000604
0.000246
0.000339
0.000208
0.000242
0.000263
0.001399
0.000686
0.000493
0.000314
0.000273
0.000233
0.000245
0.000276
0.000260
0.000250
0.000263
0.001487
0.000424
0.000204
0.000056
0.000214
0.000230
0.000238
0.000248
0.000248
0.000252
0.000233
0.000252
0.000269
0.000257
0.000361
0.000388
0.000333
0.000217
0.000243
0.000245
0.000263
0.000254
0.001734
0.000449
0.000483
0.000322
0.000223
0.000269
0.000256
0.000260
0.000271
0.000289
0.000255
0.001351
0.000337
0.000055
0.000211
0.000210
0.000241
0.000253
0.000257
0.000259
0.000252
0.000295
0.000364
0.000446
0.000353
0.000369
0.000386
0.000218
0.000247
0.000245
0.000273
0.000265
0.000281
0.001906
0.000335
0.000232
0.000444
0.000240
0.000251
0.000265
0.000286
0.000242
0.000269
0.000275
0.000337
0.000056
0.000302
0.000214
0.000239
0.000236
0.000278
0.000225
0.000229
0.000231
0.000272
0.000252
0.000247
0.000236
0.000302
0.000412
0.000492
0.000444
0.000220
0.000257
0.000253
0.000256
0.000259
0.000281
0.001472
0.001060
0.000214
0.000245
0.000273
0.000266
0.000276
0.000248
0.000198
0.000056
0.000193
0.001338
0.000294
0.000207
0.000238
0.000248
0.000255
0.000244
0.000235
0.000249
0.000260
0.000259
0.000244
0.000389
0.000355
0.000477
0.000263
0.000245
0.000265
0.000276
0.000260
0.000233
0.000255
0.000265
0.001347
0.000663
0.000307
0.000379
0.000379
0.000399
0.000297
0.000057
0.000176
0.000239
0.000360
0.001324
0.000209
0.000259
0.000227
0.000259
0.000262
0.000252
0.000258
0.000236
0.000263
0.000368
0.000553
0.000300
0.000228
0.000286
0.000327
0.000210
0.000254
0.000272
0.000230
0.000275
0.000302
0.001500
0.000741
0.000303
0.000279
0.000266
0.000189
0.000055
0.000208
0.000254
0.000471
0.000324
0.001303
0.000254
0.000216
0.000240
0.000228
0.000249
0.000251
0.000256
0.000227
0.000244
0.000259
0.000245
0.000275
0.000230
0.000261
0.000253
0.000266
0.000269
0.000324
0.000311
0.000221
0.000264
0.000264
0.001470
0.000255
0.000236
0.000178
0.000056
0.000191
0.000231
0.000250
0.000265
0.000351
0.000381
0.000393
0.000266
0.001586
0.000229
0.000280
0.000527
0.000353
0.000211
0.000436
0.000241
0.000227
0.000269
0.000268
0.000270
0.000276
0.000265
0.000260
0.000272
0.000236
0.000495
0.000329
0.000371
0.001545
0.000211
0.000194
0.000055
0.000228
0.000258
0.000234
0.000248
0.000246
0.000242
0.000264
0.000272
0.000435
0.002047
0.000238
0.000236
0.000255
0.000261
0.000257
0.000252
0.000283
0.000246
0.000253
0.000442
0.000344
0.000480
0.001450
0.000256
0.000522
0.000228
0.001777
0.000238
0.000259
0.001530
0.000153
0.000055
0.000328
0.000453
0.000432
0.000243
0.000266
0.000222
0.000259
0.000271
0.000261
0.000227
0.000255
0.000325
0.000423
0.000497
0.000314
0.000208
0.000223
0.001575
0.000231
0.000562
0.001902
0.000293
0.000231
0.001512
0.002055
0.000734
0.000278
0.000246
0.000343
0.000467
0.000256
0.000054
0.000210
0.000243
0.000243
0.000251
0.001416
0.001740
0.001077
0.000194
0.000244
0.001578
0.001988
0.000199
0.000247
0.000424
0.000277
0.000421
0.000357
0.000494
0.000212
0.000240
0.000250
0.000256
0.000278
0.001626
0.001173
0.001432
0.000261
0.000306
0.000249
0.000315
0.000346
0.000055
0.000180
0.000234
0.000241
0.000241
0.000229
0.000246
0.000247
0.000249
0.000259
0.000246
0.000242
0.000303
0.000466
0.000473
0.000267
0.000252
0.000240
0.000277
0.000270
0.000262
0.000255
0.000278
0.001558
0.000421
0.002109
0.000240
0.000297
0.000365
0.000411
0.000349
0.000190
0.000056
0.000204
0.000419
0.000417
0.000318
0.000197
0.000226
0.000256
0.000246
0.000235
0.000250
0.000242
0.000267
0.000260
0.001606
0.001363
0.001233
0.000260
0.000240
0.000248
0.000269
0.000281
0.000281
0.000242
0.000255
0.002203
0.000257
0.000251
0.000291
0.000325
0.000306
0.000222
0.000055
0.000231
0.000366
0.000600
0.000274
0.000242
0.000220
0.000246
0.000263
0.001905
0.001419
0.000219
0.000351
0.000367
0.000413
0.000260
0.000224
0.000255
0.000266
0.000259
0.000274
0.000253
0.000269
0.000465
0.000242
0.000267
0.000266
0.000253
0.000274
0.000285
0.000244
0.000206
0.000055
0.000195
0.000245
0.000252
0.000239
0.000254
0.000268
0.001551
0.001418
0.001335
0.000224
0.000233
0.000237
0.000272
0.000262
0.000244
0.000248
0.000251
0.002106
0.000260
0.000218
0.000271
0.000258
0.000256
0.000275
0.000260
0.000256
0.000278
0.000246
0.000285
0.000251
0.000174
0.000055
0.000201
0.002696
0.001392
0.000213
0.000303
0.000296
0.000233
0.000268
0.000256
0.000237
0.000255
0.000247
0.000238
0.000243
0.000269
0.000256
0.000272
0.000257
0.000262
0.000267
0.000268
0.000282
0.000275
0.000263
0.000248
0.000243
0.000267
0.000276
0.000259
0.000270
0.000368
0.000055
0.001534
0.000254
0.001250
0.000224
0.000214
0.000242
0.000267
0.000264
0.000226
0.000261
0.000395
0.000416
0.000308
0.000210
0.000240
0.002152
0.000239
0.000248
0.000260
0.000523
0.000388
0.000275
0.000230
0.000254
0.000268
0.000248
0.000264
0.000278
0.000285
0.001625
0.002127
0.000056
0.000191
0.000216
0.000300
0.000382
0.000391
0.000261
0.000210
0.000235
0.000248
0.000260
0.000266
0.000242
0.000228
0.000257
0.000263
0.000240
0.000299
0.000635
0.000358
0.000254
0.000228
0.000275
0.000279
0.000256
0.000248
0.000241
0.000271
0.000273
0.000245
0.000353
0.000322
0.000055
0.001111
0.000295
0.000284
0.000498
0.000247
0.000225
0.000229
0.000251
0.000236
0.002310
0.000383
0.000364
0.000216
0.000384
0.000275
0.000261
0.000257
0.000268
0.000258
0.000227
0.000257
0.000265
0.000765
0.000294
0.001893
0.001368
0.000546
0.000444
0.000223
0.000279
0.000198
0.000055
0.000356
0.000232
0.000243
0.000254
0.000240
0.000228
0.000261
0.000247
0.000258
0.000243
0.000258
0.000225
0.000241
0.000262
0.000419
0.000474
0.001853
0.001332
0.000449
0.000419
0.000459
0.000245
0.000243
0.000255
0.002179
0.000507
0.000396
0.000229
0.000265
0.000306
0.000173
0.000055
0.000183
0.000246
0.000255
0.000240
0.000246
0.000389
0.000373
0.000272
0.000333
0.000244
0.000240
0.000249
0.000264
0.002180
0.000286
0.000400
0.000212
0.000252
0.000264
0.000267
0.002280
0.000464
0.000306
0.000217
0.000258
0.000254
0.000254
0.000277
0.000273
0.000279
0.000197
0.000055
0.000184
0.000423
0.000446
0.000386
0.000268
0.000213
0.000237
0.000253
0.000280
0.000234
0.001965
0.000381
0.000275
0.000275
0.000235
0.000267
0.000269
0.000246
0.002201
0.000450
0.000224
0.000267
0.000271
0.000261
0.000251
0.000255
0.000282
0.000258
0.000259
0.000270
0.000181
0.000055
0.000212
0.000236
0.000249
0.000219
0.000245
0.000260
0.000239
0.000246
0.000230
0.002183
0.000225
0.000281
0.000218
0.000429
0.000239
0.000247
0.000269
0.000292
0.000239
0.000268
0.001966
0.000280
0.000337
0.000369
0.000432
0.000404
0.000307
0.000247
0.000253
0.000258
0.000213
0.000055
0.000206
0.000233
0.000244
0.000245
0.000246
0.000330
0.000219
0.002297
0.000249
0.000231
0.000262
0.000259
0.000230
0.000254
0.000306
0.002128
0.000593
0.000215
0.000258
0.000241
0.000276
0.000245
0.000292
0.000265
0.000261
0.000257
0.000286
0.000247
0.000285
0.000249
0.000193
0.000055
0.001830
0.001456
0.000188
0.000226
0.000237
0.000254
0.000251
0.000299
0.000376
0.000341
0.002187
0.000257
0.000236
0.000264
0.000295
0.000664
0.000241
0.000294
0.000228
0.000241
0.000246
0.000269
0.000266
0.000225
0.000258
0.000262
0.000270
0.000261
0.000290
0.000901
0.000113
0.000055
0.000201
0.000242
0.000263
0.000241
0.000290
0.000223
0.000258
0.000244
0.001483
0.002116
0.000585
0.000274
0.000395
0.000695
0.000348
0.000247
0.000251
0.000251
0.000266
0.000258
0.000257
0.000244
0.000251
0.001841
0.000344
0.001373
0.000283
0.000270
0.000285
0.000299
0.000425
0.000056
0.001929
0.000224
0.000220
0.000234
0.000282
0.000361
0.000485
0.000279
0.000279
0.000224
0.000241
0.000252
0.000258
0.000257
0.000276
0.000247
0.000253
0.000270
0.001835
0.000246
0.000238
0.000248
0.000277
0.000282
0.000272
0.000255
0.001466
0.000336
0.000242
0.000261
0.000166
0.000056
0.000205
0.000228
0.000250
0.000249
0.000243
0.000238
0.000293
0.000378
0.000353
0.000362
0.000222
0.000245
0.000260
0.000327
0.000429
0.000329
0.000213
0.000253
0.000256
0.000333
0.000497
0.000470
0.000221
0.000255
0.000254
0.000255
0.000255
0.000268
0.000278
0.000257
0.000208
0.000056
0.001443
0.000438
0.000212
0.001939
0.000272
0.000527
0.000346
0.000304
0.000224
0.000246
0.000268
0.000244
0.000244
0.000248
0.000267
0.000261
0.000467
0.000296
0.000426
0.000356
0.000324
0.000236
0.000252
0.000268
0.000269
0.000279
0.000257
0.000271
0.000374
0.000398
0.001423
0.000054
0.000187
0.000228
0.002087
0.000295
0.000309
0.000254
0.000260
0.000247
0.000266
0.000256
0.000221
0.000250
0.000248
0.000267
0.000276
0.000378
0.000705
0.001734
0.000226
0.000246
0.000258
0.000266
0.000426
0.000365
0.001605
0.000276
0.000366
0.001924
0.000261
0.000267
0.000190
0.000055
0.000213
0.000236
0.000227
0.000250
0.000228
0.000250
0.000246
0.000291
0.000329
0.000276
0.000372
0.000358
0.000337
0.000308
0.000237
0.000267
0.000266
0.000237
0.000268
0.000246
0.000324
0.000271
0.000265
0.000263
0.000274
0.001504
0.000290
0.000385
0.002069
0.000232
0.000172
0.000054
0.000224
0.000238
0.000234
0.000244
0.000527
0.000172
0.000282
0.000317
0.000363
0.000302
0.000312
0.000210
0.000265
0.000262
0.000271
0.000317
0.000393
0.000464
0.000260
0.000399
0.000596
0.000317
0.001639
0.000237
0.000256
0.001996
0.000315
0.000244
0.000247
0.000287
0.000192
0.000055
0.000201
0.000239
0.000227
0.000251
0.000248
0.000267
0.000268
0.000255
0.000251
0.000253
0.001816
0.000330
0.000374
0.000317
0.000427
0.000362
0.000340
0.001518
0.000244
0.000268
0.002114
0.000590
0.000238
0.000240
0.000268
0.000265
0.000503
0.000230
0.000248
0.000286
0.000193
0.000054
0.000277
0.000329
0.000420
0.000287
0.000199
0.000256
0.000257
0.000247
0.000272
0.000293
0.000220
0.000255
0.000269
0.000245
0.000362
0.001501
0.000319
0.000200
0.000291
0.001905
0.000364
0.000291
0.000248
0.000281
0.000225
0.000279
0.000274
0.000259
0.000246
0.000266
0.000204
0.000055
0.000240
0.000461
0.002001
0.000250
0.000254
0.000220
0.000249
0.000313
0.000407
0.000450
0.001309
0.000377
0.002127
0.000307
0.000204
0.000245
0.000267
0.000276
0.000256
0.000237
0.000287
0.000295
0.000256
0.000359
0.000466
0.000366
0.000333
0.002227
0.000504
0.000584
0.000274
0.000056
0.000204
0.000229
0.000247
0.001961
0.000241
0.000215
0.000254
0.000239
0.000245
0.000257
0.000238
0.000269
0.000239
0.000331
0.000395
0.001482
0.000243
0.000242
0.000272
0.000252
0.000233
0.000260
0.000265
0.000270
0.000330
0.000443
0.000473
0.000234
0.001602
0.000280
0.000157
0.000056
0.000190
0.000225
0.000241
0.000235
0.000253
0.000255
0.000250
0.000264
0.000240
0.000337
0.000394
0.001430
0.000239
0.000213
0.000246
0.000265
0.000256
0.000255
0.000494
0.000293
0.000504
0.000338
0.000228
0.001579
0.000226
0.000258
0.000287
0.000279
0.000262
0.000261
0.000231
0.000055
0.000215
0.000226
0.000264
0.000265
0.000244
0.000255
0.000230
0.000244
0.000256
0.000243
0.000251
0.000257
0.000254
0.001488
0.000368
0.000203
0.000248
0.000258
0.000288
0.000310
0.000377
0.000264
0.000245
0.000281
0.000243
0.000265
0.000262
0.001408
0.000291
0.000220
0.000169
0.000056
0.000198
0.000232
0.000260
0.000261
0.000258
0.000236
0.000244
0.000258
0.000224
0.000265
0.000270
0.000233
0.000226
0.000344
0.000346
0.000411
0.000197
0.000258
0.001625
0.000243
0.000238
0.000256
0.000264
0.000341
0.000334
0.000378
0.000457
0.000257
0.000258
0.001609
0.000167
0.000055
0.000276
0.000349
0.000393
0.000294
0.000217
0.000223
0.000241
0.000271
0.000256
0.000236
0.000250
0.000235
0.001467
0.000280
0.000330
0.000204
0.000253
0.000256
0.000264
0.000273
0.000247
0.000247
0.000249
0.000273
0.000255
0.000387
0.000392
0.000369
0.000325
0.000244
0.000180
0.000054
0.000208
0.000228
0.000480
0.000371
0.000316
0.000292
0.000231
0.000252
0.000250
0.000257
0.000247
0.000219
0.000255
0.000251
0.001256
0.000297
0.000240
0.000263
0.000250
0.000271
0.000237
0.000266
0.000253
0.000266
0.000259
0.000247
0.000350
0.000709
0.000401
0.000226
0.000177
0.000055
0.000208
0.001558
0.000240
0.000412
0.000378
0.000391
0.000204
0.000261
0.000264
0.000252
0.000242
0.000262
0.000269
0.000273
0.000280
0.001509
0.000248
0.000300
0.000253
0.000251
0.000261
0.000254
0.000266
0.000255
0.000273
0.000330
0.000412
0.000308
0.000360
0.000234
0.000192
0.000071
0.000194
0.000253
0.000233
0.001680
0.000361
0.000344
0.000232
0.000233
0.000249
0.000276
0.000273
0.000253
0.000247
0.000263
0.000233
0.000284
0.000364
0.001348
0.000245
0.000245
0.001489
0.000290
0.000576
0.000410
0.000351
0.000224
0.000269
0.000459
0.000243
0.000262
0.000189
0.000055
0.000248
0.000215
0.000248
0.000244
0.000245
0.000262
0.000255
0.000237
0.000255
0.000238
0.000252
0.000258
0.000320
0.000473
0.001685
0.001493
0.000365
0.000577
0.000293
0.000222
0.000232
0.000259
0.000248
0.000264
0.000261
0.000250
0.000261
0.000269
0.001545
0.000304
0.000179
0.000055
0.000245
0.000338
0.000361
0.000326
0.000241
0.000214
0.000245
0.000375
0.000408
0.000370
0.002172
0.000318
0.000785
0.000419
0.000460
0.000267
0.000331
0.000404
0.000320
0.000299
0.000377
0.000234
0.001565
0.000525
0.000214
0.000266
0.000250
0.000256
0.000278
0.000252
0.000198
0.000056
0.000229
0.000254
0.000252
0.000253
0.000242
0.001657
0.000883
0.000997
0.000208
0.000240
0.000252
0.000258
0.000269
0.000255
0.000250
0.000250
0.000253
0.000270
0.000264
0.000278
0.001431
0.000313
0.000254
0.000234
0.000229
0.000266
0.000255
0.000283
0.000264
0.000283
0.001905
0.000056
0.000204
0.000211
0.001555
0.000844
0.000400
0.000338
0.000242
0.000238
0.000242
0.000261
0.000245
0.000247
0.000249
0.001983
0.000474
0.000221
0.000246
0.000260
0.000258
0.000262
0.000193
