0.000097
0.009190
0.012259
0.000303
0.000249
0.000290
0.000332
0.000226
0.000329
0.000282
0.000253
0.000332
0.000519
0.000467
0.000355
0.000411
0.000265
0.000336
0.000355
0.000419
0.001830
0.000398
0.000707
0.000270
0.000238
0.000308
0.000312
0.000311
0.000424
0.000488
0.000477
0.000228
0.000058
0.000213
0.000268
0.000267
0.000284
0.000250
0.000248
0.000290
0.000275
0.000272
0.000314
0.000388
0.000433
0.000309
0.000250
0.000376
0.000349
0.000367
0.000245
0.000268
0.001690
0.000317
0.000274
0.000429
0.000242
0.000288
0.000277
0.000285
0.000298
0.000272
0.000455
0.000300
0.000076
0.000226
0.000252
0.000262
0.000267
0.000244
0.000251
0.000263
0.000257
0.000285
0.001683
0.000211
0.000233
0.000288
0.000255
0.000280
0.000250
0.000259
0.000257
0.000356
0.001787
0.000239
0.000284
0.000445
0.000428
0.000386
0.000233
0.000285
0.000512
0.000474
0.000748
0.000190
0.000057
0.000203
0.000244
0.000252
0.000240
0.000295
0.000254
0.000275
0.000639
0.000336
0.000254
0.000264
0.000239
0.000237
0.000255
0.000256
0.000258
0.000237
0.000269
0.000305
0.000396
0.001592
0.000281
0.000250
0.000421
0.000313
0.000720
0.000654
0.000492
0.000357
0.000236
0.000208
0.000057
0.000214
0.000247
0.000293
0.000215
0.000286
0.000229
0.000284
0.000685
0.001251
0.000197
0.000245
0.000248
0.000254
0.000256
0.000263
0.000285
0.000317
0.000799
0.001350
0.000298
0.000243
0.000417
0.000233
0.000255
0.000261
0.000251
0.000269
0.000271
0.000266
0.000265
0.000195
0.000056
0.000212
0.000219
0.000245
0.000266
0.000236
0.000244
0.000240
0.000254
0.000241
0.000254
0.001627
0.000268
0.000226
0.000242
0.000258
0.000246
0.000251
0.000247
0.000252
0.000255
0.000317
0.001607
0.000292
0.000255
0.000438
0.000252
0.000256
0.000254
0.000267
0.000279
0.000193
0.000057
0.000216
0.000227
0.000253
0.000246
0.000262
0.000226
0.000259
0.000235
0.000267
0.000258
0.000248
0.000257
0.000262
0.000272
0.001658
0.000258
0.000286
0.000219
0.000257
0.000277
0.000266
0.000239
0.000247
0.000265
0.001772
0.000449
0.000287
0.000384
0.000232
0.000282
0.000198
0.000056
0.000224
0.000238
0.000243
0.000271
0.000255
0.000262
0.000371
0.000302
0.000438
0.000405
0.000199
0.000253
0.000250
0.000253
0.001557
0.000527
0.000322
0.000407
0.000320
0.000231
0.000268
0.000286
0.000282
0.001774
0.000488
0.000434
0.000242
0.000257
0.000241
0.000266
0.000187
0.000056
0.000201
0.000244
0.000251
0.000314
0.000339
0.000420
0.000354
0.000273
0.000213
0.000251
0.000265
0.000233
0.000254
0.001762
0.000476
0.000253
0.000227
0.000253
0.000266
0.000292
0.000243
0.000257
0.001839
0.000307
0.000322
0.000394
0.000230
0.000266
0.000265
0.000396
0.000329
0.000056
0.000255
0.000375
0.000340
0.000253
0.000258
0.000250
0.000249
0.000258
0.000244
0.000228
0.000245
0.000247
0.001571
0.000312
0.000334
0.000224
0.000257
0.000256
0.000244
0.000311
0.000251
0.000328
0.000242
0.001834
0.000231
0.000493
0.000249
0.000258
0.000258
0.000264
0.000257
0.000056
0.000365
0.000575
0.000545
0.000209
0.000232
0.000271
0.000229
0.000219
0.000260
0.000255
0.000252
0.001717
0.000234
0.000440
0.000374
0.000218
0.000241
0.000231
0.000248
0.000263
0.000413
0.001691
0.000230
0.000472
0.001939
0.000457
0.000343
0.000256
0.000250
0.000262
0.000192
0.000056
0.000185
0.000243
0.000246
0.000239
0.000279
0.001596
0.000262
0.000225
0.000248
0.000256
0.000245
0.000261
0.000242
0.000244
0.000312
0.000397
0.000606
0.000257
0.000228
0.000274
0.000268
0.000234
0.000246
0.000432
0.000437
0.000272
0.000671
0.000246
0.000406
0.000276
0.000202
0.000072
0.000201
0.000238
0.000253
0.000252
0.000243
0.000235
0.000257
0.000457
0.001757
0.000331
0.000210
0.000233
0.000248
0.000242
0.000266
0.000280
0.000590
0.000300
0.000343
0.000252
0.000260
0.000298
0.000318
0.000222
0.000274
0.000435
0.000336
0.000661
0.000398
0.000466
0.000169
0.000057
0.000210
0.000254
0.000273
0.000210
0.000234
0.000240
0.000245
0.000261
0.000231
0.000282
0.000341
0.000578
0.001273
0.000227
0.000235
0.000244
0.000263
0.000250
0.000248
0.000273
0.000269
0.000486
0.000371
0.000257
0.000267
0.000260
0.000253
0.000274
0.000262
0.000264
0.000387
0.000055
0.000192
0.000234
0.000243
0.000339
0.000481
0.000398
0.000236
0.000265
0.000249
0.000239
0.000261
0.000230
0.000296
0.000252
0.000239
0.000509
0.000395
0.001640
0.000273
0.000234
0.000262
0.000263
0.000255
0.000238
0.000282
0.000443
0.000533
0.000296
0.000394
0.000233
0.000198
0.000057
0.000223
0.000437
0.000228
0.000217
0.000288
0.000238
0.000543
0.000345
0.000287
0.000322
0.000226
0.000294
0.000244
0.000238
0.000517
0.000339
0.000227
0.000260
0.000406
0.001629
0.000272
0.000234
0.000528
0.000245
0.000278
0.000275
0.000255
0.000507
0.000411
0.000348
0.000281
0.000057
0.000209
0.000212
0.000238
0.000245
0.000420
0.000305
0.000288
0.000229
0.000385
0.000594
0.000262
0.000264
0.000228
0.000264
0.000239
0.000265
0.000253
0.000257
0.000236
0.000344
0.000289
0.000414
0.001766
0.000241
0.000260
0.000253
0.000279
0.000347
0.000441
0.000738
0.000375
0.000057
0.000205
0.000347
0.000283
0.000419
0.000393
0.000206
0.000278
0.000346
0.000616
0.000295
0.000207
0.000241
0.000233
0.000273
0.000267
0.000228
0.000253
0.000277
0.000265
0.000257
0.000294
0.000413
0.000678
0.001294
0.000315
0.000433
0.000420
0.000248
0.000547
0.000431
0.000227
0.000055
0.000218
0.000384
0.000277
0.000219
0.000226
0.000242
0.000413
0.000234
0.000262
0.000499
0.000338
0.000387
0.000228
0.000260
0.000265
0.000253
0.000345
0.000392
0.000344
0.000256
0.000238
0.000514
0.000602
0.001586
0.000216
0.000436
0.000320
0.000217
0.000356
0.000433
0.000314
0.000056
0.000203
0.000229
0.000243
0.000261
0.000248
0.000245
0.000242
0.000320
0.000462
0.000361
0.000346
0.000418
0.000256
0.000572
0.000250
0.000242
0.000271
0.000270
0.000226
0.000343
0.000227
0.000252
0.000268
0.000484
0.000407
0.001676
0.000246
0.000241
0.000264
0.000267
0.000189
0.000057
0.000329
0.000540
0.000209
0.000217
0.000243
0.000267
0.000240
0.000240
0.000272
0.000237
0.000224
0.000262
0.000463
0.000452
0.000406
0.000282
0.000251
0.000248
0.000343
0.000379
0.000386
0.000334
0.000360
0.000397
0.000244
0.000266
0.000259
0.000280
0.001800
0.000229
0.000205
0.000057
0.000206
0.000220
0.000258
0.000291
0.000330
0.000541
0.000320
0.000214
0.000289
0.000235
0.000251
0.000251
0.000520
0.000449
0.000486
0.000266
0.000262
0.000263
0.000426
0.000463
0.000361
0.000496
0.000414
0.000428
0.000241
0.000245
0.000266
0.000250
0.000264
0.001737
0.000384
0.000059
0.000249
0.000329
0.000204
0.000235
0.000258
0.000251
0.000234
0.000497
0.000375
0.000308
0.000296
0.000377
0.000323
0.000535
0.000371
0.000237
0.000253
0.000258
0.000250
0.000266
0.000275
0.000254
0.000251
0.000282
0.000298
0.000342
0.000443
0.000333
0.000236
0.000255
0.000187
0.000056
0.000509
0.000258
0.000430
0.000256
0.000200
0.000252
0.000248
0.000274
0.000221
0.000223
0.000250
0.000281
0.000291
0.000501
0.000462
0.000407
0.000325
0.000287
0.000384
0.000346
0.000316
0.000230
0.000241
0.000259
0.001737
0.000259
0.001721
0.001005
0.000310
0.000356
0.000153
0.000057
0.000208
0.000234
0.000234
0.000244
0.000271
0.000241
0.000252
0.000250
0.000253
0.000331
0.000379
0.000382
0.000345
0.000372
0.000259
0.000249
0.000254
0.000293
0.000228
0.000248
0.000254
0.000257
0.001810
0.000242
0.000251
0.000267
0.000278
0.000265
0.001904
0.000550
0.000196
0.000056
0.000234
0.000203
0.000243
0.000241
0.000260
0.000243
0.000247
0.000246
0.000293
0.000423
0.000513
0.000277
0.000384
0.000229
0.000240
0.000258
0.000322
0.000436
0.000370
0.000245
0.001791
0.000266
0.000235
0.000251
0.000264
0.000271
0.000241
0.000254
0.000324
0.000472
0.000212
0.000057
0.000202
0.000224
0.000241
0.000270
0.000240
0.000242
0.000253
0.000257
0.000242
0.000251
0.000245
0.000374
0.000344
0.000344
0.000313
0.000300
0.000443
0.000246
0.000249
0.000252
0.000262
0.000274
0.000257
0.000259
0.000279
0.001780
0.000245
0.000260
0.000266
0.000235
0.000200
0.000056
0.000261
0.000334
0.000229
0.000228
0.000240
0.000240
0.000236
0.000254
0.000248
0.000220
0.000227
0.000270
0.000260
0.000389
0.000439
0.000302
0.000278
0.000240
0.000251
0.000256
0.000269
0.000256
0.000249
0.000272
0.000239
0.000272
0.000326
0.001604
0.000281
0.000235
0.000190
0.000056
0.000219
0.000246
0.000242
0.000258
0.000351
0.000369
0.000373
0.000317
0.000235
0.000251
0.000268
0.000230
0.000247
0.000254
0.000258
0.000260
0.000242
0.000261
0.000252
0.000263
0.000264
0.000272
0.000244
0.000233
0.000249
0.000275
0.000279
0.000263
0.000249
0.000269
0.000197
0.000056
0.000185
0.000234
0.000258
0.000277
0.000227
0.000239
0.000243
0.000260
0.000280
0.000249
0.000230
0.000245
0.000259
0.000242
0.000290
0.000242
0.000252
0.000251
0.000298
0.000259
0.000267
0.000324
0.000262
0.000224
0.000308
0.000245
0.000275
0.000246
0.000304
0.000449
0.000598
0.000056
0.000245
0.000281
0.000210
0.000232
0.000235
0.000257
0.000238
0.000250
0.000253
0.000238
0.000272
0.000289
0.000491
0.000444
0.001571
0.000227
0.000496
0.000236
0.000314
0.000392
0.000464
0.000359
0.000228
0.000296
0.000226
0.000264
0.000281
0.000252
0.000308
0.000276
0.000171
0.000056
0.000333
0.000394
0.000331
0.000340
0.000210
0.000295
0.000206
0.000242
0.000236
0.000241
0.000261
0.000250
0.000232
0.000344
0.000337
0.000441
0.000401
0.001778
0.000249
0.000248
0.000501
0.000338
0.000450
0.000210
0.000320
0.000321
0.000300
0.000217
0.000227
0.000249
0.000203
0.000055
0.000207
0.000230
0.000249
0.000303
0.000353
0.000434
0.000332
0.000260
0.000247
0.000238
0.000228
0.000270
0.000263
0.000265
0.000246
0.000256
0.000466
0.000414
0.000318
0.000378
0.000235
0.001733
0.000326
0.000607
0.000399
0.000480
0.000317
0.000220
0.000266
0.000276
0.000429
0.000058
0.000194
0.000272
0.000221
0.000274
0.000386
0.000575
0.000300
0.000229
0.000268
0.000297
0.000221
0.000246
0.000254
0.000296
0.000311
0.000233
0.000269
0.000381
0.000457
0.000320
0.000500
0.001834
0.000278
0.000524
0.000473
0.000277
0.000229
0.000261
0.000291
0.000271
0.000192
0.000058
0.000208
0.000336
0.000362
0.000437
0.000311
0.000260
0.000379
0.000215
0.000242
0.000261
0.000268
0.000229
0.000258
0.000243
0.000250
0.000261
0.000340
0.000404
0.000464
0.000459
0.000198
0.000240
0.000256
0.001707
0.000604
0.000342
0.000684
0.000220
0.000270
0.000312
0.000158
0.000055
0.000201
0.000231
0.000347
0.000242
0.000275
0.000348
0.000398
0.000330
0.000243
0.000527
0.000220
0.000260
0.000258
0.000283
0.000271
0.000265
0.000209
0.000358
0.000551
0.000353
0.000250
0.000239
0.000259
0.000246
0.000264
0.000269
0.000234
0.000262
0.000262
0.000290
0.000225
0.000057
0.000357
0.000290
0.000219
0.000254
0.000256
0.000255
0.000240
0.000291
0.000244
0.000240
0.000281
0.000334
0.000492
0.000352
0.000368
0.000218
0.000229
0.000253
0.000244
0.000270
0.000286
0.000260
0.000237
0.000277
0.000262
0.000374
0.000397
0.000323
0.000363
0.000230
0.000174
0.000056
0.000192
0.000222
0.000284
0.000242
0.000238
0.000267
0.000262
0.000234
0.000497
0.000211
0.000258
0.000260
0.000242
0.000258
0.000296
0.000276
0.000238
0.000350
0.000219
0.000237
0.000271
0.000258
0.000254
0.000268
0.000281
0.000255
0.000259
0.000257
0.000260
0.000495
0.000164
0.000056
0.000205
0.000236
0.000246
0.000292
0.000200
0.000245
0.000366
0.000405
0.000236
0.000233
0.000249
0.000259
0.000235
0.000270
0.000519
0.001696
0.000237
0.000266
0.000288
0.000324
0.000427
0.000348
0.000390
0.000391
0.000379
0.000394
0.000243
0.000273
0.000271
0.000273
0.001438
0.000056
0.000443
0.000261
0.000252
0.000221
0.000241
0.000251
0.000233
0.000255
0.000240
0.000271
0.000246
0.000262
0.000252
0.000272
0.000551
0.001638
0.000242
0.000230
0.000244
0.000264
0.000238
0.000357
0.000364
0.000339
0.000238
0.000368
0.000221
0.000269
0.000276
0.000257
0.000187
0.000056
0.001246
0.000562
0.000266
0.000290
0.000224
0.000226
0.000232
0.000241
0.000492
0.000213
0.000242
0.000249
0.000348
0.000622
0.000279
0.000354
0.000269
0.000217
0.000324
0.000365
0.000274
0.000252
0.000271
0.000241
0.000271
0.000597
0.000456
0.000339
0.000257
0.000267
0.000173
0.000056
0.000214
0.000223
0.000243
0.000250
0.001437
0.000347
0.000208
0.000254
0.000261
0.000230
0.000257
0.000252
0.000240
0.000265
0.000269
0.000276
0.000505
0.000588
0.000272
0.001738
0.000259
0.000284
0.000306
0.000483
0.000500
0.000383
0.000252
0.000251
0.000273
0.000259
0.000198
0.000057
0.000212
0.000248
0.000236
0.000359
0.001210
0.000237
0.000252
0.000261
0.000240
0.000232
0.000242
0.000256
0.000277
0.000241
0.000256
0.000295
0.000520
0.000357
0.000314
0.000269
0.000268
0.000270
0.000250
0.000227
0.000292
0.000264
0.000240
0.000273
0.000293
0.000352
0.000607
0.000057
0.000217
0.000249
0.000236
0.000259
0.000265
0.000243
0.000227
0.000268
0.000272
0.000275
0.001405
0.000229
0.000244
0.000258
0.000244
0.000245
0.000278
0.000250
0.000284
0.000240
0.000377
0.000374
0.000542
0.000311
0.000224
0.000276
0.001759
0.000271
0.000275
0.000321
0.000458
0.000056
0.000212
0.000403
0.000451
0.000504
0.000513
0.000553
0.001491
0.000412
0.000521
0.000653
0.000554
0.000786
0.000419
0.000618
0.000579
0.001907
0.000617
0.000208
0.000383
0.000323
0.000229
0.000270
0.000279
0.000296
0.000240
0.000286
0.000293
0.000288
0.000263
0.000287
0.001363
0.000055
0.000216
0.000228
0.000261
0.000219
0.000264
0.000256
0.000233
0.000241
0.000250
0.000251
0.000241
0.000240
0.000259
0.000258
0.000260
0.000269
0.001806
0.000265
0.000268
0.000234
0.000258
0.000261
0.000268
0.000353
0.000358
0.000435
0.000314
0.000225
0.000267
0.000283
0.000209
0.000056
0.000195
0.001354
0.000340
0.000269
0.000249
0.000252
0.000229
0.000241
0.000227
0.000248
0.000210
0.000242
0.000253
0.000511
0.000364
0.000302
0.000245
0.001814
0.000355
0.000237
0.000243
0.000272
0.000251
0.000268
0.000268
0.000285
0.000268
0.000252
0.000286
0.000299
0.000206
0.000056
0.000198
0.000243
0.000249
0.001436
0.000220
0.000244
0.000261
0.000242
0.000240
0.000261
0.000253
0.000241
0.000249
0.000280
0.000239
0.000260
0.000264
0.000265
0.000266
0.000259
0.000261
0.001769
0.000262
0.001770
0.000256
0.000268
0.000253
0.000274
0.000269
0.000276
0.000197
0.000055
0.000208
0.000243
0.001345
0.000235
0.000246
0.000248
0.000256
0.000254
0.000245
0.000250
0.000256
0.000255
0.000248
0.000258
0.000258
0.000266
0.000259
0.000282
0.000294
0.000232
0.001875
0.000244
0.001828
0.000231
0.000273
0.000281
0.000218
0.000254
0.000256
0.000267
0.000195
0.000056
0.001449
0.000208
0.000229
0.000259
0.000237
0.000238
0.000368
0.000288
0.000238
0.000250
0.000252
0.000259
0.000300
0.000330
0.000469
0.000190
0.000266
0.000237
0.000265
0.000256
0.000271
0.000346
0.000229
0.000245
0.000273
0.000277
0.000267
0.000383
0.000640
0.000317
0.000196
0.000055
0.000229
0.000237
0.000260
0.000308
0.000366
0.000241
0.001673
0.000338
0.000279
0.000272
0.000245
0.000283
0.000255
0.000283
0.000282
0.000314
0.000333
0.000634
0.000325
0.000253
0.000309
0.000267
0.000271
0.000259
0.000342
0.000254
0.000262
0.000257
0.000261
0.000451
0.000324
0.000057
0.000244
0.000472
0.000264
0.000262
0.000248
0.000227
0.000228
0.000249
0.000253
0.000281
0.001504
0.000218
0.000226
0.000249
0.000244
0.000286
0.000280
0.000235
0.000270
0.000261
0.000264
0.000453
0.000454
0.000316
0.000268
0.000287
0.000272
0.000263
0.000227
0.000316
0.000163
0.000055
0.000187
0.000253
0.000282
0.000446
0.000367
0.000278
0.000221
0.000249
0.000252
0.000251
0.000233
0.000248
0.000261
0.000268
0.000237
0.000265
0.000405
0.001174
0.000243
0.000248
0.000282
0.000425
0.000171
0.000423
0.000255
0.000406
0.000498
0.000346
0.000382
0.000235
0.000181
0.000056
0.000215
0.000262
0.000246
0.000259
0.000257
0.000244
0.000382
0.000463
0.000351
0.000280
0.000347
0.000403
0.000401
0.000367
0.000235
0.000244
0.000237
0.000285
0.000392
0.000494
0.001214
0.000222
0.000277
0.000273
0.000240
0.000234
0.000267
0.000354
0.000420
0.000481
0.000166
0.000057
0.000211
0.000234
0.000258
0.000243
0.000238
0.000246
0.000260
0.000244
0.000321
0.000396
0.000413
0.000326
0.000231
0.000247
0.000254
0.000254
0.000247
0.000265
0.000265
0.000271
0.000423
0.000298
0.000372
0.000374
0.000318
0.000244
0.000277
0.000265
0.000251
0.000342
0.000156
0.000056
0.000330
0.000311
0.000367
0.000369
0.000420
0.000340
0.000240
0.000243
0.000248
0.000272
0.000256
0.000262
0.000236
0.000250
0.000242
0.000240
0.000274
0.000332
0.000544
0.000307
0.000225
0.000273
0.000250
0.000240
0.000267
0.000285
0.000263
0.000283
0.000264
0.000271
0.000393
0.000057
0.000207
0.000362
0.000240
0.000269
0.000221
0.000245
0.000246
0.000255
0.000266
0.000256
0.000246
0.000261
0.000418
0.000410
0.000393
0.000261
0.000242
0.000250
0.000257
0.000261
0.000260
0.000258
0.000264
0.000268
0.000273
0.000419
0.000308
0.000594
0.000402
0.000259
0.000169
0.000056
0.000386
0.000196
0.000227
0.000251
0.000250
0.000245
0.000236
0.000248
0.000259
0.000260
0.000220
0.000244
0.000274
0.000222
0.000239
0.000289
0.000235
0.000263
0.000295
0.000239
0.000262
0.000282
0.000244
0.000262
0.000263
0.000241
0.000266
0.000282
0.000251
0.000282
0.000197
0.000056
0.000187
0.000237
0.000241
0.000252
0.000226
0.000282
0.000237
0.000244
0.000256
0.000273
0.000234
0.000236
0.000263
0.000398
0.000253
0.000288
0.000248
0.000265
0.000252
0.000282
0.000276
0.000225
0.000249
0.000249
0.000274
0.000274
0.000252
0.000254
0.000272
0.000257
0.000204
0.000056
0.000214
0.000355
0.000368
0.000284
0.000286
0.000264
0.000268
0.000252
0.000219
0.000249
0.000280
0.000231
0.000254
0.000233
0.000255
0.000283
0.000245
0.000267
0.000265
0.000247
0.000271
0.000266
0.000275
0.000260
0.000293
0.000228
0.000257
0.000272
0.000267
0.000260
0.000199
0.000055
0.000191
0.000223
0.000271
0.000261
0.000251
0.000448
0.000211
0.000268
0.000258
0.000556
0.000450
0.000218
0.000225
0.000251
0.000281
0.000259
0.000233
0.000270
0.000253
0.000278
0.000261
0.000257
0.000261
0.000260
0.000568
0.000476
0.000272
0.000306
0.000276
0.000246
0.000194
0.000056
0.000222
0.000221
0.000245
0.000251
0.000402
0.000579
0.000319
0.000377
0.000202
0.000251
0.000252
0.000252
0.000253
0.000246
0.000256
0.000271
0.000272
0.000269
0.000682
0.000333
0.000272
0.000247
0.000256
0.000294
0.000274
0.000252
0.000259
0.000290
0.000233
0.000317
0.000377
0.000056
0.000240
0.000232
0.000253
0.000222
0.000257
0.000266
0.000212
0.000251
0.000237
0.000263
0.000247
0.000249
0.000245
0.000404
0.000644
0.000295
0.000246
0.000258
0.000279
0.000229
0.000268
0.000283
0.000483
0.000217
0.000258
0.000613
0.000412
0.000470
0.000255
0.000258
0.000182
0.000057
0.000204
0.000229
0.000246
0.000242
0.000256
0.000259
0.000321
0.000436
0.000598
0.000396
0.000216
0.000263
0.000271
0.000283
0.000253
0.000244
0.000257
0.000234
0.000318
0.000282
0.000390
0.000755
0.000297
0.000220
0.000353
0.000371
0.000497
0.000240
0.000266
0.000577
0.000307
0.000056
0.000268
0.000228
0.000440
0.000224
0.000230
0.000255
0.000254
0.000263
0.000228
0.000247
0.000321
0.000345
0.000455
0.000254
0.000218
0.000260
0.000264
0.000244
0.000286
0.000259
0.000272
0.000258
0.000247
0.000277
0.000311
0.000481
0.000497
0.000225
0.000267
0.000290
0.000179
0.000055
0.000228
0.000255
0.000226
0.000248
0.000246
0.000291
0.000351
0.000468
0.000351
0.000265
0.000376
0.000228
0.000251
0.000263
0.000254
0.000239
0.000254
0.000263
0.000376
0.000346
0.000488
0.000305
0.000467
0.000264
0.000381
0.000440
0.000364
0.000253
0.000253
0.000302
0.000443
0.000057
0.000214
0.000276
0.000220
0.000254
0.000257
0.000258
0.000247
0.000266
0.000264
0.000238
0.000235
0.000466
0.000374
0.000367
0.000336
0.000234
0.000265
0.000266
0.000266
0.000235
0.000249
0.000259
0.000264
0.000271
0.000280
0.000314
0.000679
0.000303
0.000245
0.000273
0.000188
0.000055
0.000211
0.000239
0.000294
0.000230
0.000242
0.000369
0.000478
0.000548
0.000271
0.000692
0.000264
0.000212
0.000248
0.000257
0.000254
0.000260
0.000279
0.000276
0.000466
0.000551
0.001389
0.000314
0.000269
0.000277
0.000270
0.000253
0.000390
0.000422
0.000376
0.000287
0.000195
0.000056
0.000223
0.000231
0.000269
0.000264
0.000206
0.000252
0.000302
0.000227
0.000240
0.000331
0.000324
0.000377
0.000268
0.000341
0.000395
0.000348
0.000245
0.000249
0.000284
0.000243
0.000245
0.000249
0.000310
0.000221
0.000325
0.000437
0.000430
0.000280
0.000258
0.000268
0.000188
0.000056
0.000256
0.000227
0.000256
0.000253
0.000244
0.000233
0.000473
0.000216
0.000231
0.000268
0.000235
0.000251
0.000260
0.000252
0.000254
0.000280
0.000247
0.000290
0.000247
0.000252
0.000282
0.000271
0.000291
0.000244
0.000266
0.000277
0.000271
0.000267
0.000262
0.000270
0.000176
0.000056
0.000237
0.000238
0.000274
0.000509
0.000339
0.000224
0.000233
0.000252
0.000262
0.000249
0.000244
0.000259
0.000261
0.000268
0.000232
0.000246
0.000263
0.000253
0.000345
0.000425
0.000341
0.000346
0.000229
0.000258
0.000268
0.000258
0.000257
0.000267
0.000265
0.000275
0.000204
0.000055
0.000265
0.000490
0.000330
0.000204
0.000254
0.000254
0.000414
0.000222
0.000231
0.000258
0.000252
0.000285
0.000378
0.000466
0.001819
0.000252
0.000240
0.000253
0.000277
0.000245
0.000386
0.000488
0.000505
0.000308
0.000232
0.000262
0.000273
0.000431
0.000275
0.000282
0.000160
0.000056
0.000223
0.000390
0.000337
0.000305
0.000496
0.000199
0.000245
0.000246
0.000255
0.000237
0.000256
0.000271
0.000241
0.000333
0.000486
0.000391
0.000217
0.000251
0.000249
0.000264
0.000262
0.000312
0.000243
0.000279
0.000274
0.000609
0.000427
0.000315
0.000468
0.000229
0.000206
0.000055
0.000172
0.000246
0.000257
0.000234
0.000248
0.000249
0.000267
0.000322
0.000368
0.000350
0.000382
0.000345
0.000222
0.000254
0.000263
0.000289
0.000298
0.000236
0.000278
0.000276
0.000232
0.000304
0.000565
0.000288
0.000282
0.000249
0.000264
0.000438
0.000415
0.000295
0.000200
0.000056
0.000225
0.000280
0.000293
0.000420
0.000374
0.000210
0.000237
0.000255
0.000270
0.000254
0.000254
0.000250
0.000231
0.000259
0.000271
0.000453
0.000246
0.000335
0.000298
0.000343
0.000494
0.000225
0.000281
0.000276
0.000299
0.000286
0.000253
0.000272
0.000478
0.000548
0.000153
0.000056
0.000200
0.000233
0.000246
0.000256
0.000239
0.000481
0.000215
0.000254
0.000266
0.000412
0.000536
0.000462
0.000206
0.000244
0.000239
0.000252
0.000255
0.000269
0.000239
0.000249
0.000287
0.000245
0.000405
0.000450
0.000276
0.000409
0.000291
0.000307
0.000318
0.000256
0.000184
0.000056
0.000189
0.000234
0.000376
0.000453
0.000301
0.000231
0.000255
0.000230
0.000246
0.000260
0.000252
0.000260
0.000265
0.000236
0.000260
0.000257
0.000247
0.000242
0.000342
0.000392
0.000467
0.000354
0.000229
0.000246
0.000277
0.000279
0.000257
0.000260
0.000267
0.000268
0.000189
0.000057
0.000273
0.000340
0.000466
0.000244
0.000223
0.000249
0.000310
0.000455
0.000287
0.000216
0.000257
0.000263
0.000289
0.000560
0.000342
0.000238
0.000233
0.000237
0.000257
0.000259
0.000274
0.000268
0.000261
0.000268
0.000262
0.000363
0.000377
0.000365
0.000315
0.000250
0.000184
0.000056
0.000215
0.000243
0.000246
0.000256
0.000254
0.000262
0.000226
0.000270
0.000253
0.000245
0.000256
0.000233
0.000290
0.001435
0.000224
0.000259
0.000253
0.000249
0.000275
0.000279
0.000262
0.000239
0.000271
0.000255
0.000268
0.000277
0.000266
0.000270
0.000256
0.000272
0.000191
0.000056
0.000216
0.000231
0.000254
0.000262
0.000221
0.000246
0.000257
0.000257
0.000229
0.000253
0.000246
0.000259
0.000260
0.000255
0.000256
0.000254
0.000246
0.000263
0.000271
0.000272
0.000240
0.000262
0.000247
0.000248
0.001298
0.000287
0.000611
0.000391
0.000325
0.000243
0.000184
0.000056
0.000203
0.000231
0.000245
0.000251
0.000414
0.000232
0.000251
0.000239
0.000254
0.000389
0.000425
0.000343
0.000227
0.000230
0.000267
0.000260
0.000251
0.000267
0.000246
0.000258
0.000264
0.000253
0.000333
0.000443
0.000424
0.000437
0.000236
0.000262
0.001362
0.000247
0.000191
0.000055
0.000327
0.000403
0.000434
0.000172
0.000217
0.000225
0.000227
0.000254
0.000261
0.000252
0.000244
0.000284
0.000274
0.000409
0.000459
0.000300
0.000358
0.000219
0.000251
0.000253
0.000267
0.000287
0.000244
0.000269
0.000267
0.000263
0.000415
0.000456
0.000390
0.000385
0.000129
0.000057
0.000210
0.000232
0.001260
0.000487
0.000254
0.000438
0.000387
0.000492
0.000257
0.000346
0.000215
0.000245
0.000257
0.000253
0.000250
0.000267
0.000306
0.000558
0.000341
0.000396
0.000261
0.000244
0.000266
0.000506
0.000222
0.000266
0.000256
0.000276
0.000300
0.000579
0.000293
0.000055
0.000378
0.000311
0.000242
0.000227
0.001670
0.000361
0.000293
0.000250
0.000238
0.000261
0.000217
0.000246
0.000245
0.000270
0.000250
0.000260
0.000237
0.000372
0.000348
0.000392
0.000403
0.000242
0.000256
0.000262
0.000254
0.000277
0.000270
0.000240
0.000268
0.000274
0.000211
0.000055
0.000185
0.000343
0.000211
0.000243
0.000253
0.000263
0.000234
0.000241
0.000238
0.000228
0.001584
0.000335
0.000225
0.000240
0.000242
0.000260
0.000276
0.000256
0.000238
0.000299
0.000248
0.000251
0.000283
0.000444
0.000331
0.000481
0.000246
0.000265
0.000277
0.000298
0.000152
0.000055
0.000216
0.000415
0.000221
0.000236
0.000421
0.000372
0.000364
0.000323
0.000456
0.000210
0.000231
0.000249
0.000263
0.000264
0.000260
0.001522
0.000250
0.000287
0.000239
0.000274
0.000301
0.000255
0.000230
0.000248
0.000267
0.000282
0.000405
0.000529
0.000237
0.000287
0.000145
0.000055
0.000209
0.000234
0.000254
0.000273
0.000199
0.000257
0.000240
0.000243
0.000328
0.000315
0.000396
0.000341
0.000248
0.000250
0.000246
0.000281
0.000267
0.000260
0.000269
0.000229
0.000256
0.000296
0.001266
0.000249
0.000254
0.000265
0.000257
0.000267
0.000261
0.000268
0.000179
0.000056
0.000194
0.000381
0.000356
0.000339
0.000239
0.000243
0.000256
0.000289
0.000236
0.000262
0.000237
0.000270
0.000244
0.000250
0.000252
0.000268
0.000265
0.000268
0.000266
0.000249
0.000248
0.000275
0.000266
0.000277
0.000287
0.000271
0.000264
0.000270
0.000252
0.000460
0.001344
0.000056
0.000223
0.000249
0.000223
0.000265
0.000234
0.000255
0.000247
0.000226
0.000247
0.000248
0.000282
0.000251
0.000247
0.000245
0.000275
0.000243
0.001700
0.000259
0.000244
0.000261
0.000244
0.000263
0.000278
0.000251
0.000303
0.000232
0.000266
0.000278
0.000270
0.000253
0.000219
0.000056
0.000454
0.000247
0.001248
0.000239
0.000213
0.000253
0.000254
0.000250
0.000274
0.000260
0.000213
0.000353
0.000450
0.000379
0.000281
0.000229
0.000246
0.000258
0.000253
0.000271
0.000240
0.000285
0.000250
0.000295
0.000248
0.000445
0.000295
0.000395
0.000307
0.000244
0.000195
0.000056
0.000184
0.000246
0.000243
0.000251
0.000274
0.000197
0.000244
0.000266
0.000417
0.001326
0.000264
0.000222
0.000246
0.000266
0.000259
0.000288
0.000237
0.000251
0.000296
0.000518
0.000342
0.000206
0.000254
0.000239
0.000285
0.000280
0.000263
0.000297
0.000272
0.000272
0.000196
0.000055
0.000233
0.000533
0.000288
0.000228
0.000221
0.000239
0.000247
0.000278
0.000264
0.000241
0.000230
0.000259
0.000448
0.000495
0.000512
0.001417
0.000237
0.000270
0.000333
0.000352
0.000498
0.000528
0.000386
0.000353
0.000238
0.000267
0.000261
0.000283
0.000261
0.000272
0.000187
0.000056
0.000208
0.000339
0.000499
0.000476
0.000224
0.000235
0.000255
0.000239
0.000241
0.000269
0.000237
0.000266
0.000275
0.000232
0.000264
0.000289
0.000375
0.000430
0.000355
0.001326
0.000267
0.000261
0.000249
0.000262
0.000484
0.000456
0.000342
0.000251
0.000276
0.000271
0.000187
0.000056
0.000202
0.000241
0.000244
0.000265
0.000225
0.000344
0.000502
0.000263
0.000376
0.000217
0.000255
0.000248
0.000271
0.000290
0.000240
0.000260
0.000261
0.000256
0.000288
0.000403
0.000358
0.000379
0.000322
0.001350
0.000413
0.000240
0.000267
0.000425
0.000528
0.000291
0.000276
0.000057
0.000201
0.000229
0.000249
0.000249
0.000256
0.000252
0.001714
0.000225
0.000192
0.000252
0.000248
0.000251
0.000251
0.000322
0.000326
0.000291
0.000258
0.000421
0.000459
0.000345
0.000304
0.000279
0.000236
0.000257
0.001509
0.000523
0.000199
0.000459
0.000342
0.000296
0.000178
0.000055
0.000203
0.000246
0.000252
0.000262
0.000237
0.000268
0.001721
0.000202
0.000261
0.000259
0.000326
0.000402
0.001449
0.000347
0.000413
0.000245
0.000252
0.000234
0.000269
0.000274
0.001527
0.000668
0.000295
0.000296
0.000250
0.000238
0.000264
0.000285
0.000243
0.000248
0.000193
0.000056
0.000217
0.000236
0.000266
0.000255
0.000256
0.000274
0.000276
0.000259
0.000255
0.000250
0.000252
0.000248
0.000295
0.000237
0.000252
0.001490
0.000291
0.000230
0.000264
0.000278
0.000270
0.000255
0.001433
0.000333
0.000214
0.000232
0.000267
0.000259
0.000400
0.000251
0.000191
0.000056
0.000220
0.000257
0.000218
0.000246
0.000240
0.000232
0.000232
0.001688
0.000261
0.000225
0.000354
0.000264
0.000228
0.000228
0.000250
0.001380
0.000253
0.000254
0.000263
0.000255
0.000259
0.000348
0.000293
0.001300
0.000302
0.000217
0.000256
0.001402
0.000317
0.000210
0.000215
0.000057
0.000223
0.000332
0.000203
0.000243
0.000264
0.000228
0.000285
0.000248
0.000265
0.000247
0.000260
0.000267
0.000250
0.000242
0.000356
0.001484
0.000225
0.000270
0.000254
0.000244
0.000279
0.000267
0.000244
0.001513
0.000347
0.000233
0.000266
0.001280
0.000264
0.000250
0.000214
0.000056
0.000183
0.000455
0.000283
0.000212
0.000235
0.000241
0.000265
0.000258
0.000262
0.000272
0.000238
0.000251
0.000259
0.000307
0.000384
0.001218
0.000236
0.000246
0.000266
0.000280
0.000219
0.000254
0.000244
0.000409
0.001226
0.000219
0.000255
0.000256
0.000257
0.001341
0.000350
0.000056
0.000304
0.000260
0.000222
0.000233
0.000239
0.000253
0.000255
0.000235
0.000298
0.000239
0.000235
0.000251
0.000325
0.000225
0.000480
0.001435
0.000212
0.000257
0.000298
0.000510
0.000289
0.000390
0.001346
0.000311
0.000234
0.000261
0.000257
0.001290
0.000335
0.000493
0.000353
0.000056
0.000240
0.000249
0.000254
0.000258
0.000251
0.000252
0.000276
0.000264
0.000246
0.000294
0.000324
0.000411
0.001343
0.000241
0.000276
0.000257
0.000295
0.000220
0.000232
0.000277
0.000401
0.001145
0.000244
0.000252
0.000256
0.000251
0.001592
0.000339
0.000490
0.000224
0.000186
0.000056
0.000176
0.000234
0.000250
0.000243
0.000246
0.000263
0.000240
0.000325
0.000537
0.000312
0.000272
0.001483
0.000214
0.000244
0.000269
0.000255
0.000330
0.000215
0.001695
0.000239
0.000391
0.000343
0.001371
0.000351
0.000240
0.000319
0.000251
0.000264
0.000262
0.000268
0.000191
0.000055
0.000207
0.000238
0.000333
0.000258
0.000320
0.000547
0.000257
0.000296
0.001467
0.000236
0.000385
0.000266
0.000287
0.000257
0.000371
0.001317
0.000273
0.000240
0.000245
0.000264
0.001509
0.000383
0.000291
0.000274
0.000270
0.000237
0.000460
0.000325
0.000259
0.000235
0.000261
0.000056
0.000197
0.000379
0.000341
0.000234
0.000230
0.001522
0.000210
0.000268
0.000264
0.000279
0.000258
0.000247
0.000300
0.001479
0.000262
0.000222
0.000437
0.001188
0.000313
0.000517
0.000352
0.000236
0.000244
0.000257
0.000297
0.000221
0.000451
0.000231
0.000264
0.000275
0.000199
0.000056
0.000201
0.000254
0.000401
0.000309
0.001312
0.000285
0.000336
0.000240
0.000207
0.000252
0.000250
0.000331
0.001478
0.000266
0.000229
0.000247
0.001376
0.000309
0.000395
0.000520
0.000298
0.000232
0.000250
0.000256
0.000265
0.000274
0.000263
0.000298
0.000251
0.000241
0.000232
0.000057
0.000190
0.000475
0.001388
0.000208
0.000275
0.000304
0.000221
0.000243
0.000271
0.000354
0.001411
0.000212
0.000256
0.000257
0.000271
0.001273
0.000689
0.000287
0.000316
0.000411
0.000308
0.000239
0.000278
0.000255
0.000271
0.000308
0.000261
0.000327
0.000483
0.000340
0.001387
0.000056
0.000218
0.000230
0.000244
0.000229
0.000298
0.000503
0.000355
0.001281
0.000248
0.000235
0.000253
0.001502
0.000418
0.000269
0.000228
0.000417
0.000247
0.000245
0.000252
0.000300
0.000248
0.000249
0.000286
0.000250
0.000254
0.000339
0.000439
0.000435
0.001488
0.000225
0.000186
0.000056
0.000224
0.000251
0.000359
0.000512
0.001253
0.000304
0.000227
0.000258
0.000251
0.000254
0.000262
0.000300
0.000322
0.000520
0.000300
0.000240
0.000251
0.000278
0.000241
0.000311
0.000232
0.000260
0.000256
0.000268
0.000257
0.000457
0.000494
0.000243
0.000334
0.001411
0.000178
0.000056
0.000206
0.000240
0.000245
0.000510
0.000317
0.000306
0.000322
0.000330
0.000303
0.000243
0.000242
0.000263
0.000249
0.000308
0.000254
0.000241
0.000628
0.000277
0.000295
0.000387
0.000273
0.000409
0.000240
0.000236
0.000258
0.000261
0.000253
0.000298
0.000415
0.000433
0.000285
0.000057
0.000192
0.001413
0.000217
0.000336
0.000422
0.000415
0.000362
0.000343
0.000209
0.000237
0.000267
0.000252
0.000280
0.000251
0.000257
0.000259
0.000260
0.001353
0.000272
0.000246
0.000252
0.000277
0.000271
0.000276
0.000279
0.000243
0.000276
0.000249
0.000375
0.000367
0.000339
0.000057
0.000202
0.000244
0.000238
0.001507
0.000322
0.000237
0.000245
0.000236
0.000223
0.000248
0.000255
0.000283
0.000243
0.000252
0.000290
0.000236
0.000241
0.000269
0.000255
0.000256
0.001430
0.000236
0.000256
0.000265
0.000258
0.000251
0.000269
0.000259
0.000276
0.000497
0.000339
0.000056
0.000196
0.000226
0.000395
0.000290
0.000242
0.000255
0.001525
0.000354
0.000295
0.000220
0.000260
0.000310
0.000335
0.000230
0.000226
0.000253
0.000244
0.000268
0.000259
0.000253
0.000493
0.000532
0.001088
0.000263
0.000246
0.000262
0.000278
0.000246
0.000299
0.000237
0.000400
0.000056
0.000261
0.000323
0.000209
0.000231
0.000257
0.000237
0.000242
0.000231
0.000287
0.001590
0.000464
0.000206
0.000238
0.000252
0.000260
0.000243
0.000261
0.000275
0.000262
0.000314
0.000327
0.000583
0.000331
0.001368
0.000232
0.000276
0.000258
0.000258
0.000271
0.000324
0.000509
0.000056
0.000246
0.000261
0.000226
0.000229
0.000222
0.000243
0.000263
0.000278
0.000253
0.001620
0.000311
0.000259
0.000257
0.000244
0.000462
0.000251
0.000545
0.000376
0.000273
0.000265
0.000486
0.000508
0.001262
0.000260
0.000234
0.000252
0.001700
0.000458
0.000631
0.000313
0.000143
0.000057
0.000202
0.000232
0.000238
0.000234
0.000259
0.000260
0.000232
0.000535
0.000506
0.000375
0.000284
0.000218
0.000241
0.000262
0.000280
0.000276
0.000232
0.000243
0.000254
0.000284
0.000340
0.000428
0.001252
0.000222
0.000267
0.000259
0.001894
0.000481
0.000397
0.000284
0.000110
0.000057
0.000189
0.000245
0.000244
0.001717
0.000272
0.000215
0.000239
0.000259
0.000254
0.000278
0.000370
0.000371
0.000366
0.000278
0.000301
0.000555
0.000353
0.001195
0.000274
0.000249
0.000245
0.000262
0.000269
0.000417
0.000704
0.000359
0.000252
0.000289
0.000248
0.000278
0.000192
0.000056
0.000199
0.000238
0.000240
0.001565
0.000238
0.000225
0.000257
0.000239
0.000242
0.000252
0.000259
0.000264
0.000266
0.000275
0.000279
0.000498
0.000284
0.000352
0.001392
0.000223
0.000262
0.000263
0.000262
0.000270
0.000292
0.000617
0.000393
0.000258
0.000287
0.000252
0.000429
0.000056
0.000216
0.000240
0.000270
0.001534
0.000293
0.000219
0.000267
0.000258
0.000238
0.000258
0.000256
0.000283
0.000228
0.000261
0.000425
0.000547
0.001311
0.000756
0.000297
0.000361
0.000201
0.000222
0.000245
0.000278
0.001669
0.000818
0.000227
0.000268
0.000272
0.000286
0.000188
0.000057
0.000227
0.000235
0.000249
0.000243
0.000270
0.000261
0.000216
0.000255
0.000237
0.000245
0.000282
0.000280
0.000251
0.000252
0.000259
0.000248
0.000270
0.001591
0.000726
0.000403
0.000271
0.000237
0.000240
0.000308
0.000251
0.000251
0.000273
0.000255
0.001416
0.000369
0.000346
0.000057
0.000198
0.000225
0.000270
0.000232
0.000265
0.000228
0.000277
0.000231
0.000254
0.000263
0.000383
0.000401
0.000345
0.000333
0.000212
0.000249
0.000266
0.001389
0.000730
0.000424
0.000346
0.000283
0.000222
0.000252
0.000276
0.000255
0.000250
0.000284
0.001490
0.000441
0.000162
0.000055
0.000224
0.000231
0.000245
0.000250
0.000249
0.000250
0.000249
0.000235
0.000274
0.000294
0.000371
0.000388
0.000282
0.000218
0.000246
0.000253
0.000259
0.000260
0.001673
0.000511
0.000480
0.000317
0.000224
0.000256
0.000263
0.000265
0.000267
0.000278
0.000265
0.001512
0.000175
0.000056
0.000219
0.000219
0.000242
0.000254
0.000261
0.000240
0.000252
0.000295
0.000362
0.000519
0.000303
0.000426
0.000319
0.000214
0.000246
0.000251
0.000297
0.000252
0.000253
0.001968
0.000279
0.000245
0.000447
0.000250
0.000241
0.000260
0.000273
0.000262
0.000266
0.000268
0.000431
0.000056
0.000195
0.000274
0.000233
0.000248
0.000255
0.000250
0.000220
0.000242
0.000270
0.000267
0.000230
0.000240
0.000446
0.000333
0.000425
0.000429
0.000227
0.000262
0.000256
0.000249
0.000257
0.000276
0.001469
0.001060
0.000220
0.000250
0.000274
0.000259
0.000277
0.000251
0.000198
0.000056
0.000206
0.001338
0.000290
0.000220
0.000226
0.000256
0.000252
0.000238
0.000245
0.000262
0.000242
0.000265
0.000267
0.000407
0.000319
0.000453
0.000273
0.000245
0.000269
0.000267
0.000280
0.000218
0.000265
0.000262
0.001316
0.000692
0.000300
0.000384
0.000373
0.000405
0.000295
0.000055
0.000200
0.000271
0.000556
0.001085
0.000212
0.000247
0.000236
0.000264
0.000251
0.000257
0.000251
0.000247
0.000275
0.000366
0.000545
0.000299
0.000229
0.000280
0.000331
0.000208
0.000251
0.000271
0.000236
0.000273
0.000272
0.001525
0.000750
0.000318
0.000257
0.000272
0.000195
0.000056
0.000222
0.000404
0.000308
0.000321
0.001301
0.000250
0.000230
0.000241
0.000234
0.000245
0.000249
0.000257
0.000232
0.000241
0.000252
0.000256
0.000266
0.000253
0.000239
0.000256
0.000268
0.000269
0.000303
0.000326
0.000222
0.000267
0.000267
0.001454
0.000260
0.000247
0.000176
0.000056
0.000194
0.000231
0.000250
0.000266
0.000346
0.000379
0.000393
0.000277
0.001585
0.000259
0.000367
0.000405
0.000340
0.000235
0.000427
0.000242
0.000241
0.000256
0.000272
0.000270
0.000278
0.000267
0.000258
0.000270
0.000267
0.000379
0.000449
0.000302
0.001571
0.000229
0.000193
0.000056
0.000209
0.000246
0.000247
0.000249
0.000241
0.000260
0.000247
0.000318
0.000408
0.002022
0.000230
0.000250
0.000253
0.000275
0.000250
0.000309
0.000230
0.000235
0.000311
0.000409
0.000320
0.000492
0.001437
0.000241
0.000281
0.001978
0.000277
0.000246
0.000260
0.001530
0.000158
0.000056
0.000316
0.000461
0.000438
0.000246
0.000274
0.000211
0.000258
0.000267
0.000264
0.000228
0.000252
0.000492
0.000277
0.000470
0.000304
0.000223
0.000236
0.001568
0.000235
0.000572
0.001877
0.000306
0.000239
0.001616
0.001932
0.000746
0.000273
0.000257
0.000283
0.000605
0.000254
0.000056
0.000196
0.000238
0.000279
0.000220
0.002873
0.000276
0.001083
0.000203
0.000229
0.001588
0.001972
0.000213
0.000243
0.000426
0.000317
0.000440
0.000383
0.000415
0.000208
0.000244
0.000248
0.000257
0.000275
0.001586
0.001211
0.001429
0.000285
0.000284
0.000244
0.000323
0.000405
0.000056
0.000244
0.000208
0.000232
0.000244
0.000226
0.000247
0.000250
0.000255
0.000256
0.000245
0.000259
0.000363
0.000484
0.000420
0.000237
0.000231
0.000246
0.000274
0.000269
0.000283
0.000250
0.000252
0.001491
0.000497
0.002115
0.000254
0.000251
0.000397
0.000387
0.000368
0.000205
0.000056
0.000266
0.000379
0.000451
0.000254
0.000195
0.000230
0.000255
0.000239
0.000247
0.000239
0.000252
0.000261
0.000260
0.001606
0.001347
0.001233
0.000280
0.000241
0.000239
0.000275
0.000293
0.000269
0.000242
0.000252
0.002203
0.000260
0.000249
0.000294
0.000323
0.000305
0.000222
0.000056
0.000250
0.000325
0.000601
0.000305
0.000213
0.000230
0.000250
0.000265
0.001899
0.001419
0.000214
0.000329
0.000387
0.000410
0.000273
0.000219
0.000261
0.000266
0.000263
0.000273
0.000262
0.000258
0.000479
0.000224
0.000279
0.000264
0.000251
0.000274
0.000279
0.000247
0.000205
0.000055
0.000221
0.000242
0.000248
0.000243
0.000279
0.000257
0.001541
0.001399
0.001329
0.000229
0.000242
0.000244
0.000266
0.000278
0.000224
0.000256
0.000247
0.002096
0.000256
0.000241
0.000263
0.000256
0.000266
0.000265
0.000266
0.000266
0.000261
0.000260
0.000272
0.000252
0.000179
0.000056
0.000209
0.002673
0.001411
0.000214
0.000306
0.000321
0.000215
0.000286
0.000227
0.000239
0.000259
0.000248
0.000229
0.000246
0.000272
0.000258
0.000267
0.000262
0.000269
0.000256
0.000282
0.000271
0.000267
0.000265
0.000249
0.000246
0.000263
0.000275
0.000261
0.000271
0.000364
0.000055
0.001578
0.000232
0.001235
0.000235
0.000229
0.000237
0.000259
0.000276
0.000225
0.000328
0.000340
0.000357
0.000338
0.000214
0.000252
0.002147
0.000231
0.000267
0.000283
0.000585
0.000265
0.000297
0.000240
0.000253
0.000262
0.000253
0.000264
0.000281
0.000269
0.001634
0.001233
0.000055
0.000188
0.000232
0.000414
0.000328
0.000326
0.000265
0.000212
0.000233
0.000257
0.000255
0.000267
0.000243
0.000229
0.000255
0.000259
0.000249
0.000323
0.000691
0.000287
0.000238
0.000224
0.000276
0.000285
0.000252
0.000249
0.000243
0.000269
0.000276
0.000240
0.000375
0.000364
0.000057
0.001114
0.000253
0.000317
0.000456
0.000292
0.000223
0.000229
0.000239
0.000253
0.002358
0.000299
0.000397
0.000215
0.000382
0.000300
0.000262
0.000238
0.000255
0.000268
0.000225
0.000250
0.000394
0.000602
0.000350
0.001862
0.001350
0.000479
0.000541
0.000234
0.000282
0.000194
0.000057
0.000220
0.000366
0.000248
0.000240
0.000256
0.000220
0.000255
0.000253
0.000254
0.000252
0.000255
0.000224
0.000247
0.000371
0.000410
0.000361
0.001846
0.001380
0.000446
0.000387
0.000477
0.000218
0.000248
0.000259
0.002164
0.000514
0.000389
0.000241
0.000270
0.000284
0.000190
0.000055
0.000215
0.000243
0.000253
0.000252
0.000265
0.000433
0.000311
0.000330
0.000285
0.000225
0.000241
0.000250
0.000263
0.002144
0.000323
0.000409
0.000203
0.000266
0.000273
0.000241
0.000251
0.002493
0.000291
0.000224
0.000268
0.000251
0.000259
0.000269
0.000310
0.000250
0.000226
0.000056
0.000274
0.000292
0.000594
0.000313
0.000248
0.000221
0.000236
0.000254
0.000259
0.000251
0.002033
0.000314
0.000268
0.000277
0.000248
0.000257
0.000272
0.000241
0.002208
0.000437
0.000227
0.000272
0.000269
0.000259
0.000258
0.000249
0.000301
0.000233
0.000266
0.000258
0.000193
0.000055
0.000210
0.000245
0.000247
0.000225
0.000244
0.000275
0.000220
0.000244
0.000235
0.002184
0.000220
0.000283
0.000222
0.000443
0.000216
0.000240
0.000307
0.000263
0.000251
0.000259
0.001958
0.000273
0.000340
0.000365
0.000436
0.000408
0.000302
0.000255
0.000255
0.000264
0.000191
0.000055
0.000209
0.000239
0.000238
0.000254
0.000243
0.000326
0.000212
0.002323
0.000247
0.000223
0.000259
0.000271
0.000221
0.000281
0.000275
0.002123
0.000590
0.000219
0.000270
0.000237
0.000255
0.000264
0.000292
0.000262
0.000260
0.000257
0.000291
0.000249
0.000269
0.000270
0.000186
0.000055
0.001814
0.001446
0.000195
0.000229
0.000243
0.000254
0.000249
0.000397
0.000261
0.000418
0.002118
0.000259
0.000227
0.000275
0.000290
0.000579
0.000322
0.000295
0.000223
0.000256
0.000251
0.000265
0.000264
0.000226
0.000263
0.000260
0.000276
0.000263
0.000401
0.000637
0.000257
0.000056
0.000214
0.000257
0.000241
0.000278
0.000243
0.000248
0.000255
0.000237
0.001547
0.002050
0.000609
0.000248
0.000616
0.000631
0.000208
0.000237
0.000256
0.000247
0.000266
0.000260
0.000258
0.000242
0.000265
0.000260
0.003011
0.000331
0.000232
0.000269
0.000300
0.000309
0.000381
0.000056
0.001927
0.000246
0.000226
0.000236
0.000260
0.000394
0.000446
0.000293
0.000288
0.000225
0.000243
0.000250
0.000259
0.000259
0.000270
0.000248
0.000263
0.000274
0.001817
0.000238
0.000242
0.000257
0.000276
0.000279
0.000267
0.000254
0.001464
0.000338
0.000241
0.000263
0.000178
0.000056
0.000190
0.000228
0.000244
0.000243
0.000249
0.000241
0.000375
0.000295
0.000320
0.000392
0.000222
0.000242
0.000262
0.000321
0.000424
0.000324
0.000233
0.000248
0.000275
0.000395
0.000501
0.000348
0.000264
0.000262
0.000258
0.000251
0.000251
0.000274
0.000270
0.000270
0.000204
0.000056
0.001447
0.000458
0.000199
0.001957
0.000322
0.000372
0.000424
0.000320
0.000228
0.000244
0.000265
0.000244
0.000245
0.000251
0.000264
0.000292
0.000418
0.000265
0.000402
0.000393
0.000355
0.000233
0.000249
0.000273
0.000269
0.000273
0.000262
0.000264
0.000514
0.000460
0.001220
0.000056
0.000207
0.000231
0.002074
0.000314
0.000319
0.000238
0.000261
0.000248
0.000260
0.000262
0.000214
0.000253
0.000255
0.000265
0.000282
0.000382
0.000654
0.001764
0.000234
0.000246
0.000259
0.000275
0.000397
0.000390
0.001587
0.000294
0.000366
0.001919
0.000251
0.000280
0.000182
0.000056
0.000197
0.000235
0.000233
0.000244
0.000229
0.000252
0.000251
0.000298
0.000317
0.000258
0.000383
0.000361
0.000340
0.000300
0.000246
0.000268
0.000268
0.000232
0.000265
0.000252
0.000310
0.000281
0.000272
0.000265
0.000256
0.001505
0.000291
0.000384
0.002073
0.000237
0.000183
0.000057
0.000202
0.000230
0.000239
0.000246
0.000491
0.000204
0.000261
0.000325
0.000380
0.000297
0.000308
0.000208
0.000276
0.000252
0.000272
0.000329
0.000436
0.000423
0.000248
0.000401
0.000537
0.000564
0.001448
0.000230
0.000257
0.002047
0.000264
0.000271
0.000228
0.000291
0.000182
0.000055
0.000197
0.000241
0.000223
0.000244
0.000253
0.000272
0.000252
0.000272
0.000273
0.000256
0.001789
0.000307
0.000384
0.000283
0.000465
0.000364
0.000436
0.001417
0.000248
0.000276
0.002194
0.000491
0.000256
0.000242
0.000259
0.000268
0.000508
0.000222
0.000257
0.000278
0.000193
0.000056
0.000195
0.000354
0.000389
0.000270
0.000206
0.000243
0.000256
0.000254
0.000262
0.000295
0.000225
0.000253
0.000262
0.000278
0.000375
0.000478
0.001249
0.000270
0.000274
0.001978
0.000295
0.000302
0.000233
0.000261
0.000247
0.000282
0.000269
0.000257
0.000251
0.000271
0.000204
0.000055
0.000236
0.000414
0.002029
0.000254
0.000218
0.000254
0.000285
0.000336
0.000360
0.000450
0.001286
0.000371
0.000357
0.002090
0.000204
0.000248
0.000264
0.000280
0.000255
0.000239
0.000286
0.000290
0.000260
0.000459
0.000431
0.000303
0.000332
0.002230
0.000583
0.000444
0.000336
0.000057
0.000211
0.000226
0.000244
0.001956
0.000238
0.000229
0.000245
0.000240
0.000243
0.000262
0.000240
0.000266
0.000257
0.000307
0.000523
0.001345
0.000261
0.000246
0.000264
0.000259
0.000233
0.000256
0.000257
0.000304
0.000336
0.000507
0.000369
0.000242
0.001605
0.000276
0.000155
0.000055
0.000205
0.000224
0.000248
0.000236
0.000257
0.000270
0.000227
0.000246
0.000260
0.000422
0.000402
0.001332
0.000220
0.000228
0.000247
0.000297
0.000227
0.000257
0.000337
0.000480
0.000439
0.000374
0.000229
0.001567
0.000231
0.000260
0.000291
0.000278
0.000266
0.000264
0.000197
0.000055
0.000200
0.000237
0.000266
0.000268
0.000248
0.000245
0.000234
0.000245
0.000274
0.000228
0.000259
0.000244
0.000269
0.001469
0.000366
0.000210
0.000262
0.000253
0.000270
0.000313
0.000365
0.000279
0.000252
0.000264
0.000262
0.000264
0.000259
0.001408
0.000283
0.000230
0.000179
0.000055
0.000197
0.000228
0.000259
0.000262
0.000274
0.000225
0.000258
0.000240
0.000224
0.000264
0.000242
0.000259
0.000242
0.000419
0.000281
0.000292
0.000286
0.000253
0.001622
0.000238
0.000245
0.000263
0.000256
0.000298
0.000419
0.000327
0.000456
0.000269
0.000253
0.001606
0.000157
0.000056
0.000353
0.000280
0.000441
0.000226
0.000226
0.000217
0.000248
0.000271
0.000254
0.000258
0.000224
0.000241
0.001474
0.000296
0.000289
0.000220
0.000257
0.000268
0.000252
0.000287
0.000236
0.000234
0.000254
0.000277
0.000326
0.000277
0.000506
0.000321
0.000283
0.000255
0.000193
0.000056
0.000206
0.000326
0.000370
0.000324
0.000390
0.000259
0.000256
0.000248
0.000249
0.000261
0.000237
0.000232
0.000253
0.000242
0.001296
0.000273
0.000244
0.000231
0.000268
0.000267
0.000235
0.000272
0.000269
0.000242
0.000259
0.000256
0.000289
0.000887
0.000278
0.000248
0.000164
0.000056
0.000204
0.001553
0.000271
0.000314
0.000454
0.000377
0.000220
0.000258
0.000270
0.000245
0.000241
0.000259
0.000273
0.000273
0.000259
0.001525
0.000253
0.000288
0.000261
0.000262
0.000265
0.000241
0.000279
0.000246
0.000257
0.000297
0.000419
0.000363
0.000339
0.000234
0.000211
0.000056
0.000198
0.000247
0.000253
0.001582
0.000467
0.000302
0.000229
0.000240
0.000262
0.000262
0.000279
0.000257
0.000252
0.000258
0.000249
0.000295
0.000372
0.001312
0.000248
0.000227
0.001511
0.000329
0.000579
0.000364
0.000327
0.000239
0.000268
0.000479
0.000227
0.000265
0.000178
0.000056
0.000290
0.000222
0.000242
0.000248
0.000251
0.000256
0.000238
0.000253
0.000255
0.000251
0.000244
0.000274
0.000301
0.000529
0.001633
0.001537
0.000304
0.000603
0.000270
0.000235
0.000229
0.000257
0.000251
0.000268
0.000252
0.000266
0.000253
0.000266
0.001546
0.000315
0.000155
0.000056
0.000228
0.000340
0.000353
0.000332
0.000249
0.000225
0.000245
0.000308
0.000500
0.000333
0.002279
0.000225
0.000714
0.000554
0.000393
0.000257
0.000329
0.000394
0.000332
0.000275
0.000405
0.000262
0.001529
0.000527
0.000234
0.000254
0.000258
0.000254
0.000264
0.000264
0.000202
0.000056
0.000217
0.000245
0.000265
0.000244
0.000241
0.001661
0.000910
0.000968
0.000210
0.000238
0.000254
0.000260
0.000260
0.000262
0.000253
0.000253
0.000248
0.000265
0.000267
0.000276
0.001432
0.000310
0.000254
0.000233
0.000234
0.000259
0.000263
0.000282
0.000262
0.000288
0.001930
0.000057
0.000195
0.000232
0.001543
0.001040
0.000183
0.000382
0.000229
0.000233
0.000251
0.000260
0.000245
0.000252
0.000248
0.001968
0.000484
0.000227
0.000244
0.000252
0.000266
0.000262
0.000189
