0.000157
0.008965
0.012272
0.000395
0.000264
0.000284
0.000305
0.000245
0.000333
0.000283
0.000246
0.000363
0.000479
0.000478
0.000414
0.000350
0.000323
0.000401
0.000319
0.000367
0.000306
0.001896
0.000696
0.000253
0.000261
0.000304
0.000314
0.000369
0.000453
0.000375
0.000465
0.000280
0.000056
0.000213
0.000262
0.000269
0.000266
0.000267
0.000252
0.000275
0.000259
0.000274
0.000317
0.000399
0.000436
0.000318
0.000266
0.000411
0.000304
0.000352
0.000244
0.000263
0.001693
0.000318
0.000260
0.000448
0.000248
0.000280
0.000282
0.000281
0.000297
0.000277
0.000320
0.000386
0.000057
0.000254
0.000257
0.000260
0.000262
0.000250
0.000245
0.000264
0.000251
0.000291
0.001662
0.000227
0.000238
0.000268
0.000276
0.000277
0.000250
0.000268
0.000257
0.000353
0.001793
0.000243
0.000285
0.000549
0.000454
0.000258
0.000232
0.000260
0.000458
0.000513
0.000765
0.000188
0.000056
0.000237
0.000248
0.000252
0.000243
0.000293
0.000269
0.000286
0.000540
0.000396
0.000279
0.000237
0.000248
0.000244
0.000249
0.000255
0.000259
0.000241
0.000273
0.000297
0.000329
0.001661
0.000281
0.000260
0.000404
0.000342
0.000690
0.000653
0.000498
0.000350
0.000242
0.000189
0.000056
0.000241
0.000249
0.000261
0.000243
0.000274
0.000235
0.000279
0.000452
0.001462
0.000221
0.000252
0.000244
0.000258
0.000257
0.000260
0.000289
0.000255
0.000811
0.001398
0.000276
0.000455
0.000259
0.000230
0.000239
0.000243
0.000256
0.000265
0.000269
0.000263
0.000268
0.000192
0.000057
0.000195
0.000248
0.000248
0.000262
0.000236
0.000239
0.000258
0.000245
0.000234
0.000254
0.001623
0.000272
0.000231
0.000246
0.000256
0.000247
0.000246
0.000261
0.000243
0.000252
0.000272
0.001655
0.000289
0.000255
0.000436
0.000259
0.000264
0.000248
0.000262
0.000272
0.000194
0.000057
0.000208
0.000232
0.000249
0.000244
0.000243
0.000250
0.000262
0.000236
0.000263
0.000238
0.000290
0.000235
0.000260
0.000270
0.001640
0.000274
0.000294
0.000215
0.000257
0.000277
0.000281
0.000221
0.000244
0.000268
0.001776
0.000359
0.000383
0.000349
0.000256
0.000281
0.000199
0.000056
0.000225
0.000243
0.000247
0.000265
0.000252
0.000242
0.000305
0.000377
0.000447
0.000420
0.000190
0.000251
0.000253
0.000250
0.001558
0.000530
0.000361
0.000403
0.000280
0.000249
0.000256
0.000281
0.000270
0.001724
0.000494
0.000486
0.000257
0.000257
0.000233
0.000270
0.000180
0.000056
0.000194
0.000237
0.000251
0.000266
0.000318
0.000445
0.000389
0.000277
0.000214
0.000268
0.000245
0.000237
0.000260
0.001703
0.000496
0.000273
0.000242
0.000247
0.000287
0.000274
0.000241
0.000258
0.000277
0.001930
0.000262
0.000388
0.000259
0.000247
0.000346
0.000364
0.000328
0.000056
0.000205
0.000382
0.000392
0.000245
0.000257
0.000251
0.000249
0.000257
0.000262
0.000218
0.000231
0.000253
0.001543
0.000338
0.000326
0.000239
0.000254
0.000248
0.000250
0.000282
0.000366
0.000239
0.000244
0.001813
0.000256
0.000490
0.000246
0.000260
0.000257
0.000266
0.000268
0.000058
0.000292
0.000749
0.000464
0.000214
0.000226
0.000277
0.000227
0.000228
0.000261
0.000247
0.000256
0.001695
0.000345
0.000395
0.000326
0.000213
0.000247
0.000228
0.000254
0.000254
0.000288
0.001826
0.000234
0.000245
0.002075
0.000515
0.000369
0.000248
0.000257
0.000267
0.000190
0.000057
0.000217
0.000236
0.000249
0.000243
0.000255
0.001615
0.000251
0.000238
0.000254
0.000251
0.000245
0.000251
0.000253
0.000246
0.000278
0.000427
0.000625
0.000238
0.000231
0.000269
0.000267
0.000249
0.000252
0.000422
0.000453
0.000231
0.000389
0.000623
0.000348
0.000269
0.000204
0.000056
0.000224
0.000237
0.000283
0.000223
0.000233
0.000244
0.000240
0.000429
0.000402
0.001709
0.000226
0.000245
0.000236
0.000247
0.000260
0.000315
0.000461
0.000410
0.000337
0.000248
0.000255
0.000302
0.000287
0.000243
0.000279
0.000439
0.000480
0.000483
0.000478
0.000421
0.000167
0.000057
0.000219
0.000265
0.000235
0.000222
0.000247
0.000237
0.000247
0.000251
0.000308
0.000295
0.000338
0.000388
0.001371
0.000244
0.000237
0.000246
0.000258
0.000249
0.000249
0.000263
0.000276
0.000440
0.000430
0.000261
0.000257
0.000255
0.000259
0.000272
0.000267
0.000259
0.000381
0.000057
0.000200
0.000233
0.000228
0.000310
0.000483
0.000438
0.000242
0.000257
0.000234
0.000262
0.000246
0.000236
0.000295
0.000252
0.000256
0.000462
0.000433
0.001630
0.000276
0.000236
0.000260
0.000265
0.000259
0.000245
0.000260
0.000420
0.000458
0.000366
0.000428
0.000236
0.000200
0.000056
0.000228
0.000430
0.000239
0.000214
0.000268
0.000243
0.000340
0.000514
0.000311
0.000337
0.000227
0.000270
0.000269
0.000237
0.000517
0.000347
0.000246
0.000289
0.000470
0.001514
0.000271
0.000242
0.000513
0.000244
0.000283
0.000290
0.000244
0.000450
0.000442
0.000381
0.000263
0.000056
0.000197
0.000237
0.000241
0.000240
0.000412
0.000309
0.000293
0.000223
0.000431
0.000473
0.000347
0.000245
0.000249
0.000241
0.000259
0.000265
0.000256
0.000251
0.000232
0.000362
0.000276
0.000577
0.001598
0.000242
0.000260
0.000252
0.000311
0.000358
0.000425
0.000673
0.000420
0.000057
0.000306
0.000303
0.000288
0.000373
0.000384
0.000212
0.000268
0.000229
0.000568
0.000396
0.000272
0.000241
0.000240
0.000269
0.000264
0.000233
0.000259
0.000267
0.000269
0.000257
0.000266
0.000479
0.000601
0.001314
0.000348
0.000524
0.000321
0.000252
0.000405
0.000428
0.000317
0.000056
0.000257
0.000370
0.000258
0.000217
0.000221
0.000245
0.000408
0.000243
0.000228
0.000455
0.000346
0.000453
0.000229
0.000254
0.000267
0.000305
0.000398
0.000366
0.000294
0.000227
0.000244
0.000340
0.000653
0.001698
0.000234
0.000452
0.000293
0.000242
0.000351
0.000404
0.000265
0.000057
0.000217
0.000232
0.000243
0.000248
0.000242
0.000256
0.000242
0.000326
0.000459
0.000295
0.000478
0.000294
0.000319
0.000574
0.000236
0.000247
0.000274
0.000258
0.000235
0.000350
0.000225
0.000248
0.000268
0.000484
0.000413
0.001657
0.000275
0.000238
0.000245
0.000269
0.000193
0.000074
0.000269
0.000496
0.000317
0.000227
0.000251
0.000263
0.000240
0.000238
0.000263
0.000245
0.000227
0.000245
0.000439
0.000500
0.000390
0.000289
0.000251
0.000254
0.000405
0.000351
0.000375
0.000326
0.000434
0.000335
0.000218
0.000256
0.000262
0.000273
0.001780
0.000247
0.000209
0.000057
0.000208
0.000219
0.000258
0.000291
0.000380
0.000536
0.000279
0.000220
0.000259
0.000263
0.000248
0.000247
0.000519
0.000450
0.000502
0.000280
0.000243
0.000278
0.000430
0.000464
0.000401
0.000518
0.000310
0.000453
0.000232
0.000261
0.000253
0.000241
0.000265
0.001714
0.000359
0.000057
0.000243
0.000324
0.000209
0.000235
0.000254
0.000250
0.000375
0.000493
0.000344
0.000252
0.000257
0.000232
0.000406
0.000659
0.000305
0.000239
0.000249
0.000255
0.000252
0.000264
0.000265
0.000268
0.000244
0.000266
0.000309
0.000387
0.000372
0.000370
0.000239
0.000248
0.000185
0.000056
0.000456
0.000315
0.000437
0.000256
0.000223
0.000236
0.000242
0.000259
0.000234
0.000222
0.000255
0.000278
0.000292
0.000431
0.000507
0.000416
0.000332
0.000338
0.000375
0.000372
0.000260
0.000221
0.000248
0.000255
0.001739
0.000260
0.001740
0.000926
0.000379
0.000345
0.000167
0.000057
0.000229
0.000236
0.000230
0.000241
0.000262
0.000243
0.000255
0.000254
0.000257
0.000307
0.000374
0.000404
0.000348
0.000374
0.000260
0.000249
0.000253
0.000289
0.000238
0.000236
0.000258
0.000259
0.001797
0.000253
0.000269
0.000253
0.000275
0.000264
0.001889
0.000541
0.000183
0.000056
0.000239
0.000206
0.000239
0.000243
0.000253
0.000247
0.000244
0.000253
0.000254
0.000426
0.000523
0.000479
0.000241
0.000202
0.000236
0.000256
0.000382
0.000407
0.000359
0.000237
0.001767
0.000269
0.000249
0.000247
0.000261
0.000271
0.000241
0.000255
0.000325
0.000355
0.000365
0.000055
0.000234
0.000217
0.000239
0.000259
0.000262
0.000223
0.000259
0.000256
0.000258
0.000238
0.000240
0.000318
0.000409
0.000358
0.000295
0.000287
0.000445
0.000248
0.000253
0.000256
0.000259
0.000260
0.000275
0.000254
0.000278
0.001780
0.000246
0.000271
0.000262
0.000228
0.000201
0.000056
0.000294
0.000342
0.000235
0.000218
0.000234
0.000246
0.000230
0.000256
0.000244
0.000222
0.000234
0.000264
0.000254
0.000372
0.000383
0.000397
0.000265
0.000251
0.000240
0.000256
0.000265
0.000254
0.000247
0.000279
0.000237
0.000272
0.000319
0.001615
0.000272
0.000237
0.000190
0.000058
0.000202
0.000233
0.000255
0.000253
0.000348
0.000437
0.000306
0.000328
0.000232
0.000252
0.000251
0.000245
0.000262
0.000240
0.000260
0.000256
0.000247
0.000261
0.000252
0.000266
0.000262
0.000267
0.000249
0.000235
0.000263
0.000259
0.000280
0.000257
0.000263
0.000254
0.000210
0.000056
0.000195
0.000235
0.000257
0.000255
0.000235
0.000252
0.000242
0.000263
0.000278
0.000248
0.000230
0.000243
0.000255
0.000248
0.000265
0.000264
0.000255
0.000255
0.000293
0.000256
0.000270
0.000291
0.000276
0.000243
0.000280
0.000275
0.000273
0.000253
0.000286
0.000401
0.000722
0.000057
0.000237
0.000266
0.000230
0.000227
0.000237
0.000251
0.000242
0.000249
0.000252
0.000244
0.000264
0.000265
0.000518
0.000440
0.001568
0.000230
0.000503
0.000234
0.000246
0.000457
0.000400
0.000418
0.000225
0.000278
0.000258
0.000258
0.000279
0.000253
0.000313
0.000273
0.000171
0.000058
0.000385
0.000390
0.000356
0.000308
0.000211
0.000249
0.000255
0.000241
0.000235
0.000245
0.000260
0.000254
0.000233
0.000261
0.000354
0.000492
0.000414
0.001779
0.000239
0.000256
0.000357
0.000400
0.000457
0.000288
0.000317
0.000322
0.000300
0.000233
0.000227
0.000255
0.000192
0.000056
0.000213
0.000235
0.000233
0.000281
0.000386
0.000413
0.000354
0.000257
0.000251
0.000217
0.000249
0.000265
0.000267
0.000265
0.000247
0.000270
0.000290
0.000492
0.000340
0.000435
0.000232
0.001745
0.000345
0.000486
0.000469
0.000501
0.000318
0.000232
0.000254
0.000268
0.000445
0.000056
0.000217
0.000250
0.000231
0.000266
0.000410
0.000508
0.000357
0.000230
0.000229
0.000291
0.000242
0.000264
0.000253
0.000295
0.000309
0.000227
0.000293
0.000366
0.000413
0.000352
0.000508
0.001834
0.000252
0.000462
0.000480
0.000365
0.000222
0.000280
0.000271
0.000271
0.000198
0.000055
0.000229
0.000352
0.000352
0.000308
0.000387
0.000297
0.000375
0.000211
0.000243
0.000257
0.000275
0.000246
0.000234
0.000248
0.000251
0.000260
0.000313
0.000363
0.000517
0.000336
0.000328
0.000229
0.000266
0.001712
0.000463
0.000504
0.000663
0.000233
0.000257
0.000308
0.000156
0.000056
0.000201
0.000239
0.000321
0.000262
0.000270
0.000367
0.000418
0.000305
0.000238
0.000521
0.000235
0.000249
0.000257
0.000279
0.000277
0.000265
0.000206
0.000412
0.000437
0.000414
0.000260
0.000236
0.000254
0.000250
0.000262
0.000270
0.000237
0.000257
0.000266
0.000279
0.000194
0.000057
0.000346
0.000247
0.000234
0.000259
0.000243
0.000260
0.000236
0.000293
0.000245
0.000241
0.000264
0.000352
0.000427
0.000342
0.000445
0.000223
0.000225
0.000234
0.000263
0.000266
0.000288
0.000254
0.000236
0.000263
0.000278
0.000402
0.000300
0.000391
0.000362
0.000235
0.000174
0.000056
0.000194
0.000222
0.000280
0.000240
0.000244
0.000245
0.000257
0.000257
0.000498
0.000207
0.000260
0.000254
0.000248
0.000263
0.000279
0.000263
0.000263
0.000353
0.000217
0.000246
0.000253
0.000267
0.000254
0.000269
0.000276
0.000263
0.000265
0.000254
0.000532
0.000231
0.000152
0.000056
0.000191
0.000239
0.000245
0.000269
0.000218
0.000246
0.000370
0.000402
0.000257
0.000225
0.000244
0.000257
0.000234
0.000236
0.000398
0.001853
0.000235
0.000279
0.000272
0.000406
0.000362
0.000335
0.000357
0.000402
0.000423
0.000371
0.000241
0.000272
0.000269
0.000290
0.001369
0.000056
0.000397
0.000287
0.000278
0.000223
0.000237
0.000248
0.000232
0.000257
0.000227
0.000269
0.000243
0.000271
0.000244
0.000287
0.000523
0.001643
0.000252
0.000231
0.000243
0.000276
0.000221
0.000308
0.000377
0.000318
0.000308
0.000347
0.000227
0.000269
0.000277
0.000260
0.000195
0.000057
0.001209
0.000609
0.000273
0.000251
0.000240
0.000218
0.000236
0.000243
0.000491
0.000214
0.000243
0.000251
0.000428
0.000357
0.000468
0.000350
0.000247
0.000283
0.000405
0.000245
0.000274
0.000254
0.000269
0.000237
0.000270
0.000611
0.000572
0.000218
0.000252
0.000264
0.000169
0.000056
0.000213
0.000229
0.000244
0.000259
0.001425
0.000327
0.000225
0.000259
0.000236
0.000252
0.000252
0.000255
0.000239
0.000261
0.000278
0.000282
0.000466
0.000606
0.000279
0.001741
0.000288
0.000307
0.000256
0.000420
0.000542
0.000405
0.000254
0.000250
0.000258
0.000270
0.000199
0.000056
0.000226
0.000248
0.000236
0.000372
0.001198
0.000237
0.000255
0.000261
0.000237
0.000239
0.000240
0.000247
0.000280
0.000246
0.000267
0.000345
0.000306
0.000494
0.000346
0.000251
0.000269
0.000271
0.000247
0.000234
0.000289
0.000263
0.000241
0.000277
0.000268
0.000386
0.000516
0.000056
0.000224
0.000253
0.000237
0.000260
0.000262
0.000237
0.000237
0.000265
0.000267
0.000253
0.001432
0.000233
0.000235
0.000255
0.000241
0.000249
0.000260
0.000283
0.000245
0.000268
0.000282
0.000519
0.000460
0.000342
0.000224
0.000278
0.001760
0.000246
0.000279
0.000291
0.000453
0.000056
0.000311
0.000393
0.000451
0.000509
0.000513
0.000642
0.001441
0.000381
0.000523
0.000660
0.000539
0.000709
0.000527
0.000551
0.000529
0.001885
0.000420
0.000409
0.000408
0.000313
0.000248
0.000287
0.000273
0.000262
0.000263
0.000279
0.000298
0.000248
0.000287
0.000306
0.001340
0.000065
0.000245
0.000222
0.000226
0.000237
0.000258
0.000253
0.000235
0.000246
0.000277
0.000229
0.000232
0.000261
0.000263
0.000235
0.000258
0.000270
0.001835
0.000254
0.000258
0.000256
0.000232
0.000284
0.000262
0.000261
0.000376
0.000437
0.000373
0.000225
0.000283
0.000280
0.000198
0.000058
0.000221
0.001364
0.000315
0.000266
0.000253
0.000242
0.000245
0.000234
0.000240
0.000237
0.000233
0.000258
0.000244
0.000497
0.000357
0.000274
0.000258
0.000262
0.001937
0.000258
0.000218
0.000252
0.000261
0.000264
0.000274
0.000284
0.000263
0.000261
0.000261
0.000320
0.000205
0.000058
0.000198
0.000238
0.000247
0.001449
0.000232
0.000241
0.000237
0.000243
0.000239
0.000266
0.000262
0.000235
0.000246
0.000258
0.000270
0.000242
0.000266
0.000267
0.000262
0.000259
0.000262
0.001795
0.000258
0.001809
0.000213
0.000257
0.000251
0.000268
0.000264
0.000272
0.000204
0.000058
0.000205
0.000276
0.001310
0.000226
0.000248
0.000256
0.000251
0.000250
0.000244
0.000260
0.000239
0.000264
0.000245
0.000266
0.000255
0.000290
0.000235
0.000282
0.000294
0.000231
0.001892
0.000243
0.001833
0.000240
0.000237
0.000277
0.000233
0.000246
0.000268
0.000262
0.000193
0.000091
0.001425
0.000218
0.000217
0.000243
0.000241
0.000231
0.000376
0.000266
0.000253
0.000254
0.000285
0.000229
0.000230
0.000368
0.000465
0.000224
0.000239
0.000262
0.000273
0.000247
0.000269
0.000341
0.000225
0.000256
0.000299
0.000257
0.000267
0.000337
0.000660
0.000345
0.000193
0.000073
0.000219
0.000284
0.000266
0.000302
0.000349
0.000288
0.001696
0.000318
0.000250
0.000247
0.000251
0.000309
0.000243
0.000271
0.000327
0.000281
0.000386
0.000538
0.000367
0.000288
0.000268
0.000266
0.000264
0.000262
0.000294
0.000306
0.000221
0.000281
0.000227
0.000377
0.000336
0.000057
0.000242
0.000466
0.000276
0.000261
0.000247
0.000231
0.000220
0.000252
0.000259
0.000261
0.001514
0.000220
0.000224
0.000251
0.000246
0.000287
0.000271
0.000238
0.000267
0.000268
0.000262
0.000321
0.000675
0.000235
0.000262
0.000284
0.000272
0.000255
0.000237
0.000309
0.000168
0.000057
0.000195
0.000229
0.000274
0.000469
0.000404
0.000243
0.000226
0.000244
0.000254
0.000248
0.000233
0.000248
0.000260
0.000267
0.000241
0.000233
0.000390
0.001225
0.000247
0.000248
0.000269
0.000251
0.000349
0.000430
0.000258
0.000311
0.000603
0.000332
0.000371
0.000245
0.000179
0.000059
0.000200
0.000246
0.000262
0.000262
0.000263
0.000239
0.000339
0.000424
0.000455
0.000289
0.000393
0.000392
0.000327
0.000356
0.000271
0.000232
0.000236
0.000263
0.000374
0.001456
0.000292
0.000220
0.000274
0.000277
0.000233
0.000232
0.000267
0.000332
0.000421
0.000414
0.000261
0.000057
0.000203
0.000241
0.000248
0.000238
0.000261
0.000233
0.000241
0.000256
0.000307
0.000376
0.000373
0.000410
0.000235
0.000244
0.000247
0.000257
0.000249
0.000263
0.000264
0.000250
0.000442
0.000246
0.000383
0.000411
0.000341
0.000237
0.000271
0.000264
0.000257
0.000333
0.000164
0.000057
0.000324
0.000315
0.000331
0.000344
0.000456
0.000357
0.000240
0.000248
0.000240
0.000276
0.000252
0.000265
0.000235
0.000256
0.000237
0.000227
0.000267
0.000374
0.000493
0.000348
0.000221
0.000270
0.000241
0.000263
0.000249
0.000283
0.000264
0.000266
0.000277
0.000273
0.000295
0.000057
0.000257
0.000361
0.000218
0.000241
0.000248
0.000264
0.000225
0.000248
0.000269
0.000259
0.000249
0.000238
0.000351
0.000471
0.000388
0.000312
0.000231
0.000243
0.000257
0.000266
0.000259
0.000254
0.000264
0.000266
0.000272
0.000302
0.000415
0.000602
0.000419
0.000249
0.000167
0.000057
0.000375
0.000199
0.000233
0.000251
0.000253
0.000234
0.000240
0.000254
0.000259
0.000263
0.000217
0.000242
0.000272
0.000228
0.000242
0.000266
0.000251
0.000265
0.000273
0.000259
0.000262
0.000266
0.000260
0.000263
0.000266
0.000239
0.000264
0.000295
0.000242
0.000279
0.000198
0.000056
0.000189
0.000240
0.000244
0.000251
0.000227
0.000271
0.000254
0.000232
0.000259
0.000268
0.000236
0.000249
0.000249
0.000398
0.000249
0.000278
0.000260
0.000267
0.000250
0.000281
0.000276
0.000233
0.000249
0.000247
0.000274
0.000272
0.000266
0.000239
0.000270
0.000262
0.000207
0.000056
0.000248
0.000316
0.000374
0.000278
0.000299
0.000279
0.000246
0.000259
0.000219
0.000247
0.000250
0.000261
0.000251
0.000236
0.000261
0.000257
0.000265
0.000268
0.000246
0.000262
0.000277
0.000266
0.000273
0.000258
0.000283
0.000234
0.000261
0.000271
0.000274
0.000254
0.000200
0.000057
0.000186
0.000226
0.000265
0.000263
0.000485
0.000210
0.000212
0.000265
0.000238
0.000492
0.000472
0.000287
0.000224
0.000248
0.000271
0.000268
0.000236
0.000267
0.000263
0.000265
0.000272
0.000262
0.000256
0.000278
0.000512
0.000518
0.000264
0.000305
0.000261
0.000266
0.000189
0.000057
0.000224
0.000223
0.000246
0.000254
0.000270
0.000735
0.000275
0.000382
0.000210
0.000247
0.000252
0.000253
0.000250
0.000253
0.000258
0.000270
0.000257
0.000267
0.000598
0.000396
0.000306
0.000246
0.000261
0.000280
0.000280
0.000256
0.000268
0.000267
0.000286
0.000371
0.000289
0.000057
0.000258
0.000231
0.000237
0.000240
0.000254
0.000261
0.000219
0.000251
0.000243
0.000260
0.000243
0.000276
0.000238
0.000464
0.000481
0.000395
0.000238
0.000259
0.000261
0.000245
0.000267
0.000270
0.000495
0.000218
0.000268
0.000623
0.000356
0.000515
0.000249
0.000257
0.000182
0.000056
0.000208
0.000243
0.000231
0.000242
0.000254
0.000259
0.000357
0.000345
0.000613
0.000433
0.000215
0.000263
0.000278
0.000271
0.000257
0.000251
0.000234
0.000253
0.000261
0.000332
0.000389
0.000647
0.000370
0.000261
0.000434
0.000331
0.000459
0.000239
0.000266
0.000376
0.000408
0.000058
0.000272
0.000231
0.000438
0.000222
0.000224
0.000258
0.000260
0.000259
0.000233
0.000243
0.000329
0.000335
0.000353
0.000353
0.000235
0.000248
0.000265
0.000242
0.000267
0.000278
0.000272
0.000257
0.000250
0.000271
0.000304
0.000485
0.000511
0.000226
0.000260
0.000263
0.000203
0.000056
0.000232
0.000250
0.000231
0.000245
0.000244
0.000306
0.000337
0.000433
0.000477
0.000389
0.000213
0.000186
0.000233
0.000268
0.000251
0.000241
0.000256
0.000260
0.000274
0.000430
0.000498
0.000306
0.000478
0.000310
0.000416
0.000391
0.000358
0.000230
0.000252
0.000272
0.000378
0.000060
0.000218
0.000274
0.000218
0.000257
0.000255
0.000260
0.000247
0.000248
0.000260
0.000254
0.000240
0.000374
0.000452
0.000347
0.000379
0.000225
0.000264
0.000265
0.000267
0.000233
0.000257
0.000247
0.000264
0.000276
0.000308
0.000373
0.000436
0.000456
0.000252
0.000268
0.000191
0.000057
0.000225
0.000242
0.000266
0.000241
0.000259
0.000346
0.000591
0.000384
0.000352
0.000689
0.000264
0.000216
0.000239
0.000262
0.000252
0.000261
0.000279
0.000273
0.000477
0.000477
0.001455
0.000305
0.000257
0.000260
0.000294
0.000261
0.000498
0.000357
0.000278
0.000350
0.000176
0.000057
0.000205
0.000235
0.000245
0.000243
0.000240
0.000256
0.000275
0.000248
0.000359
0.000315
0.000365
0.000333
0.000217
0.000378
0.000329
0.000337
0.000256
0.000238
0.000270
0.000261
0.000243
0.000250
0.000285
0.000247
0.000347
0.000431
0.000436
0.000277
0.000242
0.000265
0.000185
0.000056
0.000240
0.000241
0.000256
0.000256
0.000242
0.000235
0.000475
0.000209
0.000232
0.000254
0.000245
0.000252
0.000264
0.000253
0.000249
0.000266
0.000264
0.000266
0.000274
0.000254
0.000257
0.000305
0.000278
0.000249
0.000258
0.000286
0.000266
0.000265
0.000262
0.000274
0.000173
0.000056
0.000236
0.000244
0.000305
0.000390
0.000426
0.000229
0.000235
0.000261
0.000245
0.000252
0.000246
0.000250
0.000267
0.000266
0.000234
0.000250
0.000241
0.000264
0.000317
0.000322
0.000379
0.000440
0.000230
0.000264
0.000269
0.000252
0.000264
0.000258
0.000267
0.000280
0.000200
0.000056
0.000424
0.000407
0.000382
0.000213
0.000249
0.000254
0.000411
0.000215
0.000240
0.000257
0.000301
0.000321
0.000320
0.000420
0.001844
0.000254
0.000237
0.000250
0.000274
0.000236
0.000399
0.000424
0.000607
0.000271
0.000232
0.000258
0.000279
0.000430
0.000272
0.000278
0.000169
0.000056
0.000266
0.000330
0.000421
0.000247
0.000495
0.000201
0.000244
0.000245
0.000255
0.000239
0.000259
0.000245
0.000266
0.000378
0.000363
0.000462
0.000227
0.000239
0.000255
0.000264
0.000265
0.000313
0.000229
0.000283
0.000281
0.000474
0.000483
0.000373
0.000489
0.000231
0.000203
0.000056
0.000196
0.000232
0.000255
0.000229
0.000250
0.000250
0.000268
0.000267
0.000398
0.000269
0.000505
0.000335
0.000218
0.000257
0.000262
0.000283
0.000298
0.000238
0.000277
0.000273
0.000238
0.000276
0.000501
0.000372
0.000296
0.000241
0.000276
0.000419
0.000430
0.000325
0.000157
0.000057
0.000223
0.000253
0.000302
0.000426
0.000393
0.000206
0.000237
0.000251
0.000271
0.000246
0.000266
0.000254
0.000227
0.000261
0.000260
0.000305
0.000431
0.000307
0.000294
0.000345
0.000497
0.000227
0.000279
0.000276
0.000306
0.000277
0.000257
0.000279
0.000464
0.000550
0.000153
0.000074
0.000182
0.000229
0.000251
0.000247
0.000240
0.000483
0.000216
0.000247
0.000268
0.000292
0.000491
0.000628
0.000222
0.000229
0.000246
0.000249
0.000259
0.000242
0.000265
0.000246
0.000261
0.000270
0.000387
0.000376
0.000447
0.000378
0.000274
0.000334
0.000296
0.000218
0.000189
0.000056
0.000191
0.000237
0.000251
0.000516
0.000292
0.000292
0.000274
0.000217
0.000265
0.000240
0.000254
0.000249
0.000254
0.000254
0.000261
0.000253
0.000252
0.000245
0.000270
0.000374
0.000498
0.000414
0.000227
0.000249
0.000279
0.000276
0.000259
0.000257
0.000269
0.000266
0.000190
0.000056
0.000284
0.000355
0.000464
0.000246
0.000236
0.000236
0.000324
0.000456
0.000274
0.000219
0.000241
0.000272
0.000253
0.000446
0.000448
0.000273
0.000238
0.000255
0.000238
0.000266
0.000270
0.000265
0.000263
0.000276
0.000257
0.000276
0.000434
0.000376
0.000326
0.000254
0.000185
0.000058
0.000189
0.000240
0.000247
0.000253
0.000251
0.000263
0.000232
0.000256
0.000248
0.000245
0.000269
0.000238
0.000268
0.001442
0.000259
0.000239
0.000256
0.000245
0.000271
0.000281
0.000261
0.000240
0.000277
0.000255
0.000272
0.000278
0.000259
0.000266
0.000263
0.000267
0.000193
0.000057
0.000208
0.000234
0.000252
0.000249
0.000242
0.000240
0.000260
0.000255
0.000231
0.000252
0.000250
0.000260
0.000257
0.000251
0.000255
0.000257
0.000251
0.000260
0.000272
0.000252
0.000256
0.000261
0.000247
0.000250
0.001293
0.000282
0.000584
0.000334
0.000411
0.000248
0.000186
0.000057
0.000223
0.000236
0.000241
0.000275
0.000391
0.000237
0.000245
0.000239
0.000250
0.000441
0.000360
0.000349
0.000228
0.000246
0.000256
0.000259
0.000259
0.000268
0.000245
0.000259
0.000257
0.000256
0.000288
0.000392
0.000529
0.000437
0.000221
0.000268
0.001362
0.000256
0.000178
0.000056
0.000363
0.000385
0.000405
0.000192
0.000219
0.000236
0.000232
0.000247
0.000261
0.000261
0.000244
0.000259
0.000271
0.000335
0.000523
0.000351
0.000341
0.000217
0.000253
0.000258
0.000264
0.000265
0.000290
0.000245
0.000269
0.000263
0.000308
0.000625
0.000302
0.000386
0.000150
0.000057
0.000212
0.000241
0.001260
0.000443
0.000249
0.000481
0.000376
0.000494
0.000298
0.000325
0.000218
0.000232
0.000278
0.000236
0.000249
0.000265
0.000501
0.000358
0.000431
0.000313
0.000251
0.000252
0.000257
0.000499
0.000237
0.000270
0.000256
0.000281
0.000277
0.000580
0.000294
0.000057
0.000405
0.000326
0.000209
0.000212
0.001576
0.000519
0.000231
0.000248
0.000245
0.000255
0.000232
0.000234
0.000243
0.000268
0.000252
0.000279
0.000224
0.000258
0.000444
0.000446
0.000369
0.000242
0.000255
0.000255
0.000260
0.000273
0.000269
0.000238
0.000266
0.000277
0.000202
0.000058
0.000420
0.000289
0.000222
0.000231
0.000254
0.000248
0.000249
0.000245
0.000225
0.000237
0.001415
0.000450
0.000276
0.000242
0.000245
0.000262
0.000270
0.000261
0.000232
0.000279
0.000267
0.000254
0.000272
0.000401
0.000375
0.000496
0.000241
0.000268
0.000279
0.000276
0.000176
0.000056
0.000216
0.000418
0.000223
0.000258
0.000307
0.000452
0.000348
0.000340
0.000469
0.000201
0.000232
0.000255
0.000260
0.000267
0.000256
0.001460
0.000318
0.000282
0.000244
0.000270
0.000280
0.000249
0.000254
0.000259
0.000261
0.000266
0.000477
0.000405
0.000308
0.000280
0.000147
0.000056
0.000211
0.000228
0.000256
0.000236
0.000229
0.000257
0.000244
0.000256
0.000283
0.000344
0.000387
0.000350
0.000258
0.000244
0.000242
0.000283
0.000266
0.000259
0.000272
0.000227
0.000251
0.000383
0.001186
0.000281
0.000241
0.000245
0.000252
0.000269
0.000259
0.000259
0.000191
0.000056
0.000214
0.000351
0.000348
0.000372
0.000251
0.000234
0.000258
0.000263
0.000249
0.000255
0.000252
0.000272
0.000242
0.000256
0.000255
0.000262
0.000262
0.000271
0.000271
0.000244
0.000258
0.000266
0.000267
0.000283
0.000284
0.000269
0.000267
0.000252
0.000271
0.000438
0.001357
0.000057
0.000223
0.000231
0.000241
0.000244
0.000250
0.000259
0.000248
0.000228
0.000248
0.000251
0.000269
0.000256
0.000249
0.000245
0.000251
0.000248
0.001747
0.000238
0.000239
0.000263
0.000251
0.000255
0.000273
0.000255
0.000281
0.000252
0.000267
0.000282
0.000265
0.000257
0.000217
0.000056
0.000366
0.000343
0.001260
0.000226
0.000231
0.000247
0.000257
0.000250
0.000263
0.000252
0.000234
0.000332
0.000416
0.000434
0.000289
0.000234
0.000234
0.000257
0.000252
0.000268
0.000244
0.000266
0.000266
0.000286
0.000259
0.000411
0.000364
0.000357
0.000315
0.000241
0.000196
0.000057
0.000207
0.000250
0.000242
0.000249
0.000253
0.000223
0.000239
0.000245
0.000459
0.001323
0.000257
0.000213
0.000246
0.000268
0.000265
0.000258
0.000264
0.000245
0.000304
0.000415
0.000426
0.000268
0.000205
0.000245
0.000279
0.000281
0.000259
0.000295
0.000268
0.000277
0.000191
0.000056
0.000268
0.000415
0.000376
0.000222
0.000235
0.000235
0.000246
0.000276
0.000267
0.000244
0.000228
0.000249
0.000534
0.000498
0.000400
0.001454
0.000272
0.000355
0.000337
0.000337
0.000397
0.000404
0.000478
0.000371
0.000257
0.000249
0.000264
0.000278
0.000264
0.000270
0.000192
0.000057
0.000220
0.000248
0.000453
0.000514
0.000321
0.000236
0.000252
0.000224
0.000253
0.000256
0.000247
0.000265
0.000268
0.000243
0.000263
0.000431
0.000199
0.000476
0.000344
0.001323
0.000272
0.000254
0.000256
0.000261
0.000441
0.000462
0.000363
0.000263
0.000281
0.000284
0.000172
0.000058
0.000210
0.000236
0.000246
0.000239
0.000250
0.000278
0.000442
0.000377
0.000385
0.000225
0.000236
0.000260
0.000273
0.000258
0.000259
0.000266
0.000262
0.000255
0.000267
0.000331
0.000431
0.000399
0.000330
0.001345
0.000422
0.000230
0.000279
0.000403
0.000464
0.000344
0.000329
0.000057
0.000202
0.000233
0.000252
0.000241
0.000254
0.000252
0.001679
0.000236
0.000224
0.000242
0.000258
0.000248
0.000338
0.000320
0.000310
0.000274
0.000243
0.000353
0.000429
0.000416
0.000314
0.000266
0.000229
0.001418
0.000355
0.000355
0.000377
0.000484
0.000389
0.000215
0.000171
0.000056
0.000202
0.000247
0.000271
0.000248
0.000236
0.000257
0.001706
0.000226
0.000257
0.000262
0.000336
0.000487
0.001403
0.000311
0.000399
0.000252
0.000245
0.000237
0.000267
0.000272
0.001715
0.000426
0.000346
0.000295
0.000250
0.000246
0.000265
0.000281
0.000246
0.000253
0.000190
0.000057
0.000209
0.000237
0.000293
0.000220
0.000262
0.000275
0.000277
0.000260
0.000251
0.000245
0.000258
0.000248
0.000266
0.000262
0.001519
0.000310
0.000196
0.000240
0.000263
0.000281
0.000272
0.000296
0.000414
0.001235
0.000277
0.000242
0.000273
0.000254
0.000398
0.000237
0.000207
0.000056
0.000228
0.000248
0.000223
0.000259
0.000225
0.000226
0.000234
0.001689
0.000253
0.000236
0.000252
0.000366
0.000230
0.000225
0.000261
0.001397
0.000214
0.000261
0.000271
0.000251
0.000255
0.000352
0.000278
0.001305
0.000270
0.000266
0.000249
0.000268
0.001380
0.000278
0.000206
0.000057
0.000208
0.000362
0.000226
0.000226
0.000248
0.000243
0.000266
0.000264
0.000268
0.000245
0.000262
0.000262
0.000256
0.000245
0.000323
0.001479
0.000252
0.000272
0.000261
0.000239
0.000290
0.000256
0.000250
0.001517
0.000336
0.000239
0.000263
0.001274
0.000276
0.000242
0.000207
0.000059
0.000218
0.000404
0.000308
0.000219
0.000233
0.000245
0.000257
0.000258
0.000264
0.000274
0.000232
0.000259
0.000258
0.000296
0.000399
0.001213
0.000225
0.000259
0.000268
0.000277
0.000227
0.000248
0.000249
0.000346
0.001255
0.000257
0.000242
0.000277
0.000241
0.001338
0.000346
0.000060
0.000293
0.000241
0.000233
0.000233
0.000240
0.000254
0.000246
0.000244
0.000278
0.000252
0.000244
0.000248
0.000270
0.000304
0.000415
0.001474
0.000213
0.000262
0.000300
0.000509
0.000288
0.000372
0.001364
0.000292
0.000248
0.000267
0.000251
0.001303
0.000298
0.000479
0.000369
0.000057
0.000244
0.000244
0.000256
0.000259
0.000248
0.000253
0.000273
0.000247
0.000263
0.000266
0.000420
0.000372
0.001319
0.000242
0.000259
0.000258
0.000281
0.000226
0.000249
0.000247
0.000333
0.001242
0.000255
0.000250
0.000250
0.000255
0.001460
0.000461
0.000499
0.000217
0.000188
0.000057
0.000195
0.000229
0.000246
0.000248
0.000241
0.000266
0.000238
0.000258
0.000431
0.000490
0.000288
0.001469
0.000212
0.000247
0.000267
0.000252
0.000262
0.000278
0.001693
0.000290
0.000406
0.000298
0.001250
0.000418
0.000281
0.000329
0.000250
0.000258
0.000265
0.000264
0.000196
0.000056
0.000205
0.000237
0.000331
0.000253
0.000298
0.000579
0.000253
0.000307
0.001456
0.000237
0.000386
0.000263
0.000220
0.000309
0.000376
0.001324
0.000275
0.000243
0.000246
0.000265
0.001518
0.000430
0.000213
0.000283
0.000266
0.000260
0.000457
0.000327
0.000235
0.000252
0.000262
0.000056
0.000357
0.000312
0.000303
0.000231
0.000226
0.001526
0.000206
0.000257
0.000272
0.000263
0.000268
0.000243
0.000336
0.001453
0.000260
0.000221
0.000438
0.001186
0.000354
0.000418
0.000416
0.000235
0.000243
0.000258
0.000274
0.000241
0.000455
0.000234
0.000256
0.000282
0.000195
0.000055
0.000211
0.000384
0.000234
0.000401
0.001250
0.000285
0.000309
0.000234
0.000240
0.000253
0.000248
0.000283
0.001533
0.000261
0.000230
0.000247
0.001371
0.000328
0.000417
0.000375
0.000406
0.000229
0.000255
0.000251
0.000263
0.000281
0.000273
0.000254
0.000271
0.000248
0.000196
0.000056
0.000266
0.000305
0.001484
0.000210
0.000277
0.000272
0.000245
0.000245
0.000268
0.000433
0.001335
0.000243
0.000234
0.000275
0.000245
0.001257
0.000748
0.000300
0.000388
0.000386
0.000247
0.000237
0.000245
0.000259
0.000270
0.000288
0.000273
0.000303
0.000530
0.000328
0.001383
0.000056
0.000220
0.000244
0.000245
0.000230
0.000245
0.000478
0.000413
0.001317
0.000234
0.000236
0.000249
0.001463
0.000332
0.000406
0.000218
0.000411
0.000246
0.000240
0.000264
0.000275
0.000258
0.000261
0.000282
0.000250
0.000258
0.000322
0.000385
0.000499
0.001488
0.000233
0.000187
0.000057
0.000220
0.000254
0.000355
0.000561
0.001217
0.000276
0.000254
0.000257
0.000251
0.000249
0.000250
0.000266
0.000361
0.000486
0.000344
0.000244
0.000250
0.000271
0.000249
0.000271
0.000256
0.000271
0.000259
0.000270
0.000297
0.000421
0.000397
0.000374
0.000319
0.001388
0.000174
0.000056
0.000210
0.000241
0.000397
0.000386
0.000286
0.000313
0.000319
0.000327
0.000286
0.000244
0.000256
0.000261
0.000256
0.000305
0.000235
0.000258
0.000605
0.000298
0.000298
0.000386
0.000275
0.000410
0.000217
0.000266
0.000245
0.000267
0.000252
0.000304
0.000338
0.000505
0.000291
0.000055
0.000233
0.001374
0.000334
0.000353
0.000489
0.000248
0.000333
0.000340
0.000218
0.000254
0.000254
0.000244
0.000264
0.000270
0.000263
0.000257
0.000265
0.001228
0.000380
0.000256
0.000257
0.000277
0.000267
0.000283
0.000268
0.000250
0.000281
0.000244
0.000386
0.000357
0.000285
0.000057
0.000221
0.000247
0.000224
0.001489
0.000327
0.000244
0.000227
0.000249
0.000226
0.000244
0.000260
0.000270
0.000248
0.000256
0.000267
0.000256
0.000244
0.000267
0.000260
0.000258
0.001432
0.000268
0.000210
0.000273
0.000255
0.000250
0.000268
0.000281
0.000258
0.000492
0.000339
0.000055
0.000216
0.000233
0.000391
0.000277
0.000249
0.000269
0.001528
0.000343
0.000291
0.000222
0.000259
0.000311
0.000336
0.000224
0.000233
0.000262
0.000233
0.000266
0.000260
0.000269
0.000470
0.000500
0.001123
0.000276
0.000235
0.000261
0.000274
0.000254
0.000274
0.000256
0.000308
0.000056
0.000241
0.000282
0.000212
0.000235
0.000251
0.000238
0.000251
0.000225
0.000292
0.001616
0.000373
0.000286
0.000222
0.000255
0.000259
0.000241
0.000264
0.000287
0.000249
0.000311
0.000311
0.000479
0.000460
0.001352
0.000241
0.000262
0.000282
0.000254
0.000267
0.000293
0.000461
0.000056
0.000237
0.000243
0.000238
0.000240
0.000225
0.000243
0.000260
0.000252
0.000283
0.001565
0.000342
0.000256
0.000266
0.000261
0.000467
0.000275
0.000543
0.000345
0.000297
0.000348
0.000441
0.000479
0.001245
0.000238
0.000245
0.000255
0.001849
0.000320
0.000603
0.000319
0.000150
0.000056
0.000192
0.000231
0.000238
0.000237
0.000257
0.000238
0.000348
0.000565
0.000360
0.000395
0.000281
0.000219
0.000245
0.000265
0.000265
0.000271
0.000236
0.000254
0.000253
0.000273
0.000312
0.000338
0.001385
0.000225
0.000251
0.000271
0.001907
0.000375
0.000377
0.000354
0.000150
0.000057
0.000205
0.000236
0.000247
0.001648
0.000344
0.000211
0.000237
0.000259
0.000256
0.000306
0.000373
0.000370
0.000355
0.000287
0.000239
0.000566
0.000385
0.001194
0.000274
0.000238
0.000248
0.000267
0.000262
0.000474
0.000580
0.000430
0.000256
0.000265
0.000267
0.000281
0.000193
0.000057
0.000204
0.000226
0.000247
0.001530
0.000254
0.000239
0.000238
0.000259
0.000238
0.000252
0.000254
0.000270
0.000281
0.000261
0.000236
0.000387
0.000425
0.000346
0.001405
0.000247
0.000248
0.000260
0.000262
0.000274
0.000395
0.000456
0.000449
0.000277
0.000271
0.000235
0.000438
0.000056
0.000226
0.000240
0.000250
0.001524
0.000315
0.000224
0.000267
0.000246
0.000252
0.000259
0.000255
0.000253
0.000258
0.000268
0.000482
0.000436
0.001366
0.000748
0.000262
0.000329
0.000256
0.000241
0.000242
0.000274
0.001677
0.000798
0.000240
0.000263
0.000276
0.000285
0.000184
0.000057
0.000222
0.000235
0.000248
0.000246
0.000254
0.000252
0.000253
0.000235
0.000241
0.000231
0.000293
0.000279
0.000258
0.000247
0.000257
0.000251
0.000269
0.001602
0.000716
0.000336
0.000356
0.000220
0.000237
0.000290
0.000265
0.000256
0.000273
0.000261
0.001391
0.000383
0.000315
0.000059
0.000187
0.000234
0.000252
0.000247
0.000260
0.000232
0.000254
0.000251
0.000254
0.000263
0.000275
0.000413
0.000437
0.000346
0.000216
0.000241
0.000264
0.001392
0.000699
0.000467
0.000354
0.000254
0.000226
0.000259
0.000271
0.000248
0.000259
0.000265
0.001474
0.000443
0.000196
0.000059
0.000202
0.000227
0.000248
0.000244
0.000252
0.000246
0.000239
0.000244
0.000274
0.000265
0.000365
0.000404
0.000305
0.000218
0.000259
0.000233
0.000263
0.000257
0.001557
0.000766
0.000440
0.000213
0.000231
0.000261
0.000265
0.000256
0.000265
0.000286
0.000270
0.001362
0.000313
0.000056
0.000231
0.000220
0.000237
0.000255
0.000252
0.000246
0.000270
0.000295
0.000412
0.000395
0.000335
0.000404
0.000360
0.000222
0.000250
0.000249
0.000276
0.000256
0.000270
0.001916
0.000349
0.000220
0.000445
0.000249
0.000241
0.000268
0.000279
0.000250
0.000270
0.000273
0.000450
0.000057
0.000276
0.000240
0.000234
0.000242
0.000271
0.000234
0.000222
0.000242
0.000272
0.000248
0.000244
0.000234
0.000380
0.000358
0.000472
0.000432
0.000228
0.000264
0.000250
0.000252
0.000256
0.000356
0.001392
0.001061
0.000232
0.000235
0.000272
0.000267
0.000274
0.000275
0.000176
0.000057
0.000206
0.001334
0.000293
0.000221
0.000226
0.000274
0.000233
0.000236
0.000246
0.000250
0.000254
0.000266
0.000240
0.000335
0.000411
0.000439
0.000293
0.000252
0.000265
0.000269
0.000262
0.000233
0.000260
0.000268
0.001317
0.000687
0.000363
0.000332
0.000433
0.000402
0.000241
0.000055
0.000196
0.000228
0.001416
0.000266
0.000213
0.000248
0.000251
0.000242
0.000254
0.000255
0.000250
0.000247
0.000283
0.000320
0.000576
0.000308
0.000227
0.000279
0.000330
0.000212
0.000264
0.000259
0.000235
0.000275
0.000266
0.001531
0.000748
0.000297
0.000276
0.000274
0.000191
0.000056
0.000222
0.000246
0.000492
0.000314
0.001290
0.000237
0.000247
0.000250
0.000220
0.000249
0.000247
0.000252
0.000226
0.000244
0.000257
0.000256
0.000265
0.000241
0.000254
0.000256
0.000268
0.000267
0.000297
0.000335
0.000219
0.000267
0.000266
0.001457
0.000259
0.000243
0.000185
0.000057
0.000200
0.000232
0.000268
0.000299
0.000361
0.000339
0.000383
0.000262
0.001571
0.000257
0.000245
0.000550
0.000296
0.000264
0.000431
0.000230
0.000247
0.000263
0.000272
0.000268
0.000285
0.000261
0.000255
0.000285
0.000290
0.000384
0.000366
0.000326
0.001589
0.000229
0.000189
0.000057
0.000215
0.000239
0.000246
0.000248
0.000240
0.000248
0.000260
0.000277
0.000433
0.002049
0.000230
0.000241
0.000253
0.000263
0.000258
0.000247
0.000274
0.000256
0.000261
0.000439
0.000355
0.000472
0.001443
0.000253
0.000527
0.000233
0.001765
0.000246
0.000261
0.001519
0.000161
0.000058
0.000299
0.000443
0.000472
0.000240
0.000265
0.000220
0.000261
0.000270
0.000261
0.000228
0.000255
0.000335
0.000430
0.000331
0.000463
0.000205
0.000234
0.001570
0.000240
0.000652
0.001795
0.000292
0.000241
0.001564
0.002000
0.000741
0.000274
0.000253
0.000288
0.000477
0.000352
0.000061
0.000184
0.000237
0.000250
0.000250
0.001417
0.001729
0.001086
0.000210
0.000224
0.001580
0.001988
0.000204
0.000240
0.000425
0.000307
0.000454
0.000261
0.000528
0.000210
0.000255
0.000244
0.000267
0.000263
0.001589
0.001202
0.001441
0.000269
0.000298
0.000251
0.000286
0.000371
0.000057
0.000230
0.000225
0.000240
0.000243
0.000221
0.000246
0.000248
0.000256
0.000254
0.000248
0.000241
0.000356
0.000456
0.000392
0.000279
0.000275
0.000246
0.000278
0.000264
0.000262
0.000257
0.000262
0.001494
0.000500
0.002121
0.000233
0.000278
0.000355
0.000388
0.000389
0.000197
0.000063
0.000214
0.000387
0.000428
0.000315
0.000191
0.000231
0.000255
0.000247
0.000238
0.000252
0.000239
0.000266
0.000258
0.001602
0.001357
0.001229
0.000262
0.000252
0.000245
0.000270
0.000283
0.000278
0.000244
0.000256
0.002205
0.000247
0.000246
0.000303
0.000325
0.000305
0.000217
0.000056
0.000231
0.000367
0.000537
0.000320
0.000241
0.000233
0.000250
0.000265
0.001896
0.001434
0.000279
0.000350
0.000405
0.000369
0.000219
0.000206
0.000254
0.000269
0.000265
0.000266
0.000255
0.000263
0.000476
0.000230
0.000273
0.000270
0.000251
0.000271
0.000284
0.000244
0.000206
0.000057
0.000223
0.000238
0.000249
0.000241
0.000250
0.000273
0.001544
0.001410
0.001338
0.000230
0.000235
0.000240
0.000267
0.000260
0.000248
0.000249
0.000247
0.002118
0.000248
0.000227
0.000269
0.000262
0.000259
0.000265
0.000262
0.000263
0.000267
0.000258
0.000267
0.000254
0.000176
0.000056
0.000207
0.002686
0.001392
0.000220
0.000308
0.000295
0.000228
0.000269
0.000258
0.000238
0.000258
0.000244
0.000234
0.000250
0.000270
0.000252
0.000274
0.000262
0.000256
0.000269
0.000267
0.000284
0.000269
0.000268
0.000248
0.000242
0.000267
0.000277
0.000256
0.000272
0.000366
0.000057
0.001542
0.000254
0.001246
0.000227
0.000229
0.000235
0.000265
0.000250
0.000245
0.000264
0.000447
0.000313
0.000340
0.000218
0.000247
0.002159
0.000238
0.000240
0.000285
0.000496
0.000397
0.000276
0.000224
0.000250
0.000269
0.000249
0.000265
0.000276
0.000268
0.001616
0.001261
0.000059
0.000200
0.000238
0.000285
0.000400
0.000351
0.000290
0.000214
0.000230
0.000248
0.000259
0.000267
0.000246
0.000229
0.000255
0.000263
0.000238
0.000324
0.000625
0.000349
0.000256
0.000226
0.000274
0.000276
0.000264
0.000240
0.000248
0.000265
0.000275
0.000243
0.000487
0.000194
0.000055
0.001130
0.000233
0.000352
0.000420
0.000306
0.000229
0.000227
0.000240
0.000252
0.002316
0.000362
0.000381
0.000214
0.000375
0.000280
0.000263
0.000258
0.000260
0.000266
0.000224
0.000255
0.000275
0.000585
0.000509
0.001848
0.001313
0.000522
0.000524
0.000225
0.000290
0.000194
0.000057
0.000265
0.000344
0.000239
0.000226
0.000247
0.000232
0.000253
0.000251
0.000256
0.000258
0.000263
0.000228
0.000248
0.000259
0.000405
0.000485
0.001835
0.001328
0.000444
0.000420
0.000460
0.000235
0.000249
0.000260
0.002136
0.000550
0.000383
0.000233
0.000276
0.000284
0.000194
0.000057
0.000218
0.000256
0.000236
0.000245
0.000246
0.000309
0.000442
0.000368
0.000239
0.000246
0.000244
0.000252
0.000265
0.002126
0.000324
0.000409
0.000216
0.000256
0.000262
0.000264
0.000252
0.002463
0.000326
0.000224
0.000262
0.000256
0.000254
0.000276
0.000283
0.000277
0.000192
0.000058
0.000196
0.000510
0.000442
0.000305
0.000262
0.000227
0.000225
0.000254
0.000262
0.000249
0.001964
0.000384
0.000314
0.000247
0.000224
0.000264
0.000276
0.000238
0.002213
0.000445
0.000222
0.000264
0.000272
0.000260
0.000250
0.000258
0.000280
0.000269
0.000254
0.000251
0.000190
0.000057
0.000183
0.000238
0.000248
0.000225
0.000243
0.000253
0.000242
0.000245
0.000237
0.002181
0.000223
0.000290
0.000213
0.000423
0.000235
0.000248
0.000276
0.000288
0.000240
0.000285
0.001940
0.000300
0.000384
0.000376
0.000386
0.000383
0.000321
0.000240
0.000247
0.000259
0.000193
0.000057
0.000188
0.000233
0.000240
0.000249
0.000248
0.000318
0.000227
0.002340
0.000202
0.000243
0.000257
0.000256
0.000241
0.000247
0.000305
0.002135
0.000581
0.000216
0.000260
0.000242
0.000261
0.000263
0.000284
0.000269
0.000285
0.000232
0.000284
0.000251
0.000267
0.000261
0.000199
0.000057
0.001815
0.001448
0.000193
0.000226
0.000244
0.000254
0.000249
0.000323
0.000347
0.000342
0.002185
0.000255
0.000244
0.000260
0.000271
0.000546
0.000373
0.000300
0.000242
0.000230
0.000254
0.000261
0.000266
0.000225
0.000258
0.000262
0.000272
0.000264
0.000302
0.000664
0.000328
0.000056
0.000216
0.000254
0.000256
0.000257
0.000251
0.000245
0.000251
0.000245
0.001463
0.002135
0.000583
0.000321
0.000372
0.000686
0.000355
0.000244
0.000242
0.000245
0.000267
0.000255
0.000264
0.000237
0.000255
0.000268
0.001824
0.001465
0.000282
0.000275
0.000274
0.000257
0.000483
0.000056
0.001948
0.000223
0.000222
0.000237
0.000275
0.000369
0.000502
0.000261
0.000284
0.000230
0.000235
0.000248
0.000259
0.000256
0.000273
0.000247
0.000256
0.000263
0.001840
0.000258
0.000220
0.000255
0.000274
0.000286
0.000266
0.000256
0.001458
0.000336
0.000258
0.000271
0.000161
0.000057
0.000192
0.000234
0.000237
0.000243
0.000255
0.000235
0.000325
0.000373
0.000421
0.000283
0.000211
0.000242
0.000314
0.000374
0.000413
0.000259
0.000204
0.000241
0.000263
0.000349
0.000442
0.000451
0.000281
0.000252
0.000260
0.000259
0.000248
0.000277
0.000270
0.000266
0.000201
0.000056
0.001449
0.000456
0.000204
0.001937
0.000259
0.000423
0.000445
0.000313
0.000234
0.000250
0.000281
0.000225
0.000250
0.000244
0.000268
0.000258
0.000445
0.000290
0.000426
0.000349
0.000361
0.000230
0.000253
0.000273
0.000273
0.000268
0.000264
0.000279
0.000360
0.000467
0.001354
0.000057
0.000200
0.000224
0.002077
0.000314
0.000298
0.000259
0.000259
0.000250
0.000261
0.000255
0.000218
0.000253
0.000257
0.000257
0.000272
0.000504
0.000565
0.001765
0.000220
0.000250
0.000259
0.000261
0.000417
0.000370
0.001603
0.000289
0.000390
0.001962
0.000233
0.000223
0.000188
0.000060
0.000211
0.000235
0.000233
0.000245
0.000253
0.000228
0.000246
0.000302
0.000332
0.000290
0.000373
0.000392
0.000291
0.000290
0.000236
0.000269
0.000257
0.000238
0.000274
0.000249
0.000302
0.000288
0.000266
0.000257
0.000272
0.001508
0.000291
0.000474
0.001985
0.000227
0.000174
0.000056
0.000211
0.000240
0.000234
0.000247
0.000490
0.000202
0.000253
0.000348
0.000327
0.000335
0.000304
0.000212
0.000267
0.000263
0.000275
0.000336
0.000427
0.000426
0.000245
0.000391
0.000644
0.000266
0.001648
0.000229
0.000259
0.002017
0.000300
0.000247
0.000238
0.000298
0.000186
0.000057
0.000200
0.000242
0.000230
0.000243
0.000245
0.000273
0.000250
0.000271
0.000253
0.000260
0.001821
0.000441
0.000324
0.000263
0.000408
0.000410
0.000303
0.001494
0.000247
0.000352
0.002028
0.000587
0.000250
0.000240
0.000267
0.000268
0.000503
0.000220
0.000261
0.000275
0.000193
0.000057
0.000263
0.000327
0.000406
0.000275
0.000211
0.000243
0.000259
0.000251
0.000288
0.000271
0.000227
0.000247
0.000263
0.000254
0.000396
0.001465
0.000320
0.000204
0.000301
0.001982
0.000333
0.000223
0.000254
0.000261
0.000252
0.000275
0.000267
0.000265
0.000250
0.000263
0.000203
0.000057
0.000311
0.000436
0.001955
0.000256
0.000263
0.000209
0.000245
0.000296
0.000415
0.000467
0.001333
0.000434
0.000304
0.002044
0.000201
0.000249
0.000265
0.000275
0.000255
0.000242
0.000283
0.000301
0.000251
0.000364
0.000521
0.000303
0.000335
0.002236
0.000487
0.000548
0.000399
0.000057
0.000205
0.000237
0.000243
0.001953
0.000230
0.000223
0.000247
0.000237
0.000242
0.000257
0.000246
0.000264
0.000246
0.000264
0.000439
0.001495
0.000245
0.000240
0.000270
0.000255
0.000237
0.000252
0.000264
0.000267
0.000331
0.000456
0.000464
0.000238
0.001601
0.000285
0.000151
0.000062
0.000202
0.000220
0.000249
0.000232
0.000253
0.000250
0.000254
0.000270
0.000248
0.000370
0.000357
0.001413
0.000240
0.000216
0.000254
0.000263
0.000257
0.000252
0.000505
0.000321
0.000345
0.000454
0.000226
0.001577
0.000228
0.000260
0.000294
0.000277
0.000262
0.000268
0.000190
0.000056
0.000212
0.000228
0.000264
0.000268
0.000245
0.000247
0.000239
0.000240
0.000259
0.000251
0.000242
0.000254
0.000259
0.001478
0.000367
0.000211
0.000253
0.000291
0.000282
0.000376
0.000340
0.000219
0.000232
0.000259
0.000268
0.000264
0.000255
0.001406
0.000288
0.000229
0.000180
0.000060
0.000193
0.000236
0.000260
0.000261
0.000260
0.000231
0.000262
0.000242
0.000226
0.000262
0.000244
0.000260
0.000225
0.000282
0.000431
0.000350
0.000234
0.000247
0.001632
0.000238
0.000245
0.000256
0.000264
0.000321
0.000360
0.000434
0.000389
0.000260
0.000257
0.001607
0.000164
0.000057
0.000385
0.000284
0.000356
0.000304
0.000236
0.000220
0.000244
0.000273
0.000253
0.000233
0.000248
0.000242
0.001460
0.000291
0.000308
0.000221
0.000254
0.000256
0.000269
0.000263
0.000250
0.000240
0.000256
0.000279
0.000284
0.000336
0.000426
0.000397
0.000265
0.000257
0.000191
0.000056
0.000220
0.000242
0.000508
0.000267
0.000377
0.000274
0.000247
0.000248
0.000252
0.000261
0.000242
0.000225
0.000257
0.000242
0.001260
0.000290
0.000240
0.000254
0.000269
0.000268
0.000240
0.000259
0.000260
0.000263
0.000254
0.000257
0.000374
0.000575
0.000498
0.000239
0.000174
0.000056
0.000207
0.001565
0.000217
0.000349
0.000545
0.000306
0.000212
0.000255
0.000267
0.000248
0.000243
0.000262
0.000270
0.000271
0.000260
0.001526
0.000257
0.000281
0.000269
0.000256
0.000256
0.000253
0.000267
0.000259
0.000264
0.000254
0.000424
0.000388
0.000356
0.000235
0.000199
0.000056
0.000197
0.000248
0.000233
0.001628
0.000396
0.000379
0.000209
0.000237
0.000255
0.000266
0.000279
0.000254
0.000248
0.000264
0.000231
0.000273
0.000345
0.001379
0.000248
0.000256
0.001472
0.000297
0.000571
0.000465
0.000285
0.000238
0.000275
0.000466
0.000224
0.000268
0.000181
0.000056
0.000296
0.000216
0.000250
0.000243
0.000250
0.000254
0.000239
0.000254
0.000262
0.000235
0.000250
0.000259
0.000330
0.000483
0.001665
0.001492
0.000376
0.000473
0.000378
0.000224
0.000248
0.000249
0.000246
0.000269
0.000247
0.000269
0.000256
0.000266
0.001531
0.000321
0.000170
0.000059
0.000323
0.000339
0.000352
0.000294
0.000200
0.000201
0.000245
0.000355
0.000429
0.000349
0.002184
0.000321
0.000752
0.000440
0.000477
0.000325
0.000330
0.000361
0.000315
0.000267
0.000404
0.000230
0.001814
0.000273
0.000228
0.000261
0.000251
0.000257
0.000258
0.000270
0.000192
0.000057
0.000225
0.000243
0.000253
0.000252
0.000246
0.001658
0.000880
0.000993
0.000206
0.000240
0.000259
0.000255
0.000263
0.000262
0.000256
0.000248
0.000250
0.000264
0.000267
0.000278
0.001432
0.000313
0.000254
0.000222
0.000247
0.000254
0.000263
0.000280
0.000264
0.000286
0.001889
0.000057
0.000199
0.000234
0.001540
0.000886
0.000332
0.000385
0.000234
0.000231
0.000262
0.000242
0.000244
0.000253
0.000244
0.001986
0.000472
0.000219
0.000267
0.000238
0.000264
0.000256
0.000196
