0.000169
0.018699
0.002940
0.000321
0.000250
0.000297
0.000329
0.000227
0.000325
0.000286
0.000258
0.000324
0.000488
0.000495
0.000412
0.000352
0.000261
0.000350
0.000353
0.000424
0.001834
0.000397
0.000694
0.000270
0.000240
0.000303
0.000321
0.000312
0.000422
0.000440
0.000497
0.000241
0.000058
0.000199
0.000264
0.000271
0.000284
0.000253
0.000247
0.000278
0.000291
0.000264
0.000271
0.000425
0.000438
0.000308
0.000254
0.000376
0.000352
0.000364
0.000257
0.000247
0.001702
0.000312
0.000259
0.000443
0.000254
0.000276
0.000277
0.000282
0.000298
0.000280
0.000326
0.000399
0.000057
0.000247
0.000259
0.000264
0.000258
0.000253
0.000247
0.000266
0.000249
0.000289
0.001665
0.000225
0.000236
0.000286
0.000257
0.000276
0.000248
0.000263
0.000258
0.000353
0.001794
0.000237
0.000276
0.000455
0.000427
0.000386
0.000236
0.000259
0.000533
0.000445
0.000765
0.000201
0.000056
0.000194
0.000241
0.000252
0.000240
0.000298
0.000242
0.000317
0.000571
0.000378
0.000254
0.000235
0.000253
0.000242
0.000261
0.000255
0.000256
0.000244
0.000263
0.000304
0.000378
0.001623
0.000274
0.000249
0.000420
0.000271
0.000748
0.000657
0.000509
0.000354
0.000228
0.000193
0.000056
0.000238
0.000244
0.000292
0.000213
0.000280
0.000234
0.000249
0.001695
0.000256
0.000215
0.000243
0.000252
0.000257
0.000246
0.000266
0.000283
0.000286
0.000809
0.001377
0.000299
0.000238
0.000410
0.000239
0.000256
0.000253
0.000257
0.000273
0.000284
0.000243
0.000270
0.000202
0.000055
0.000204
0.000244
0.000249
0.000263
0.000239
0.000243
0.000237
0.000259
0.000235
0.000255
0.001632
0.000254
0.000234
0.000247
0.000253
0.000245
0.000249
0.000251
0.000253
0.000254
0.000295
0.001642
0.000273
0.000261
0.000440
0.000251
0.000248
0.000271
0.000256
0.000277
0.000192
0.000056
0.000199
0.000229
0.000258
0.000239
0.000249
0.000243
0.000261
0.000235
0.000263
0.000260
0.000260
0.000244
0.000273
0.000253
0.001647
0.000275
0.000296
0.000214
0.000254
0.000275
0.000266
0.000238
0.000244
0.000268
0.001778
0.000417
0.000319
0.000369
0.000236
0.000284
0.000197
0.000056
0.000223
0.000238
0.000248
0.000267
0.000256
0.000261
0.000230
0.000436
0.000445
0.000404
0.000206
0.000246
0.000256
0.000246
0.001563
0.000541
0.000308
0.000417
0.000310
0.000230
0.000269
0.000285
0.000270
0.001724
0.000515
0.000476
0.000240
0.000244
0.000247
0.000268
0.000187
0.000055
0.000196
0.000229
0.000261
0.000302
0.000291
0.000440
0.000414
0.000252
0.000214
0.000246
0.000265
0.000236
0.000254
0.001700
0.000493
0.000305
0.000219
0.000253
0.000273
0.000291
0.000244
0.000256
0.001803
0.000403
0.000266
0.000393
0.000245
0.000247
0.000273
0.000395
0.000330
0.000056
0.000222
0.000361
0.000404
0.000242
0.000250
0.000251
0.000249
0.000259
0.000259
0.000218
0.000234
0.000247
0.001562
0.000387
0.000267
0.000231
0.000257
0.000250
0.000246
0.000307
0.000253
0.000328
0.000245
0.001816
0.000253
0.000495
0.000250
0.000248
0.000257
0.000271
0.000253
0.000075
0.000387
0.000539
0.000610
0.000236
0.000206
0.000271
0.000230
0.000221
0.000257
0.000257
0.000253
0.001705
0.000247
0.000441
0.000369
0.000217
0.000237
0.000229
0.000250
0.000264
0.000257
0.001858
0.000224
0.000470
0.001860
0.000522
0.000360
0.000247
0.000256
0.000261
0.000191
0.000055
0.000213
0.000244
0.000243
0.000244
0.000255
0.001636
0.000239
0.000251
0.000237
0.000252
0.000239
0.000252
0.000242
0.000261
0.000320
0.000356
0.000633
0.000261
0.000231
0.000269
0.000276
0.000241
0.000240
0.000438
0.000435
0.000258
0.000383
0.000689
0.000266
0.000274
0.000201
0.000055
0.000214
0.000241
0.000249
0.000249
0.000240
0.000245
0.000233
0.000362
0.001879
0.000308
0.000216
0.000241
0.000250
0.000243
0.000257
0.000265
0.000407
0.000512
0.000333
0.000250
0.000267
0.000295
0.000285
0.000249
0.000274
0.000442
0.000337
0.000734
0.000300
0.000490
0.000171
0.000056
0.000198
0.000253
0.000247
0.000232
0.000235
0.000240
0.000244
0.000261
0.000232
0.000293
0.000341
0.000420
0.001407
0.000258
0.000217
0.000248
0.000252
0.000255
0.000251
0.000246
0.000287
0.000459
0.000407
0.000264
0.000263
0.000258
0.000249
0.000274
0.000260
0.000267
0.000389
0.000054
0.000217
0.000237
0.000225
0.000270
0.000545
0.000420
0.000239
0.000259
0.000232
0.000264
0.000257
0.000228
0.000295
0.000250
0.000239
0.000522
0.000388
0.001645
0.000276
0.000223
0.000257
0.000264
0.000260
0.000244
0.000283
0.000405
0.000466
0.000363
0.000426
0.000234
0.000194
0.000055
0.000183
0.000433
0.000234
0.000204
0.000294
0.000223
0.000430
0.000470
0.000280
0.000339
0.000215
0.000278
0.000265
0.000231
0.000518
0.000341
0.000225
0.000261
0.000418
0.001632
0.000269
0.000267
0.000489
0.000238
0.000282
0.000277
0.000257
0.000435
0.000468
0.000362
0.000278
0.000056
0.000211
0.000226
0.000234
0.000254
0.000412
0.000307
0.000289
0.000229
0.000345
0.000547
0.000352
0.000265
0.000227
0.000247
0.000254
0.000264
0.000258
0.000255
0.000227
0.000354
0.000292
0.000277
0.001904
0.000228
0.000266
0.000248
0.000286
0.000348
0.000409
0.000718
0.000427
0.000057
0.000223
0.000329
0.000299
0.000437
0.000366
0.000206
0.000255
0.000264
0.000619
0.000357
0.000240
0.000244
0.000235
0.000274
0.000265
0.000233
0.000259
0.000267
0.000266
0.000261
0.000274
0.000388
0.000679
0.001341
0.000339
0.000410
0.000421
0.000241
0.000352
0.000496
0.000326
0.000058
0.000241
0.000381
0.000273
0.000207
0.000227
0.000247
0.000417
0.000232
0.000256
0.000338
0.000425
0.000441
0.000261
0.000255
0.000265
0.000248
0.000373
0.000417
0.000299
0.000245
0.000253
0.000304
0.000875
0.001513
0.000244
0.000414
0.000315
0.000232
0.000254
0.000475
0.000262
0.000055
0.000243
0.000225
0.000241
0.000255
0.000253
0.000235
0.000249
0.000331
0.000455
0.000266
0.000463
0.000387
0.000261
0.000578
0.000248
0.000237
0.000276
0.000264
0.000231
0.000342
0.000231
0.000239
0.000268
0.000363
0.000518
0.001682
0.000272
0.000241
0.000256
0.000258
0.000187
0.000056
0.000450
0.000383
0.000318
0.000225
0.000235
0.000252
0.000258
0.000239
0.000274
0.000244
0.000215
0.000259
0.000410
0.000511
0.000454
0.000238
0.000246
0.000249
0.000342
0.000383
0.000383
0.000338
0.000360
0.000394
0.000248
0.000258
0.000256
0.000283
0.001792
0.000243
0.000210
0.000057
0.000188
0.000219
0.000262
0.000296
0.000332
0.000553
0.000326
0.000200
0.000280
0.000238
0.000250
0.000261
0.000512
0.000446
0.000484
0.000271
0.000266
0.000262
0.000422
0.000464
0.000355
0.000412
0.000617
0.000319
0.000240
0.000243
0.000254
0.000253
0.000265
0.001724
0.000439
0.000056
0.000186
0.000324
0.000209
0.000240
0.000257
0.000246
0.000239
0.000499
0.000376
0.000304
0.000296
0.000292
0.000344
0.000615
0.000359
0.000235
0.000246
0.000262
0.000254
0.000262
0.000279
0.000254
0.000243
0.000267
0.000310
0.000356
0.000428
0.000339
0.000243
0.000249
0.000190
0.000055
0.000439
0.000282
0.000503
0.000229
0.000203
0.000247
0.000250
0.000254
0.000242
0.000221
0.000237
0.000284
0.000288
0.000373
0.000489
0.000582
0.000231
0.000312
0.000385
0.000343
0.000297
0.000257
0.000227
0.000255
0.001757
0.000245
0.001727
0.000939
0.000422
0.000305
0.000164
0.000056
0.000198
0.000243
0.000224
0.000251
0.000269
0.000236
0.000251
0.000256
0.000241
0.000336
0.000321
0.000452
0.000345
0.000372
0.000244
0.000261
0.000246
0.000288
0.000232
0.000273
0.000234
0.000259
0.001818
0.000227
0.000255
0.000266
0.000278
0.000264
0.001873
0.000463
0.000324
0.000056
0.000230
0.000210
0.000252
0.000228
0.000252
0.000263
0.000225
0.000255
0.000269
0.000360
0.000640
0.000231
0.000389
0.000233
0.000238
0.000261
0.000323
0.000437
0.000371
0.000250
0.001787
0.000251
0.000241
0.000253
0.000261
0.000276
0.000240
0.000256
0.000326
0.000349
0.000339
0.000056
0.000252
0.000209
0.000234
0.000269
0.000237
0.000241
0.000257
0.000257
0.000236
0.000272
0.000227
0.000276
0.000352
0.000410
0.000348
0.000267
0.000471
0.000232
0.000252
0.000258
0.000257
0.000258
0.000276
0.000253
0.000287
0.001786
0.000234
0.000255
0.000262
0.000240
0.000207
0.000056
0.000243
0.000403
0.000205
0.000227
0.000241
0.000234
0.000237
0.000259
0.000245
0.000220
0.000252
0.000248
0.000255
0.000456
0.000348
0.000342
0.000270
0.000243
0.000247
0.000248
0.000275
0.000256
0.000248
0.000274
0.000257
0.000255
0.000329
0.001617
0.000265
0.000237
0.000191
0.000055
0.000212
0.000234
0.000254
0.000257
0.000370
0.000445
0.000288
0.000330
0.000213
0.000255
0.000263
0.000231
0.000252
0.000254
0.000263
0.000250
0.000252
0.000256
0.000251
0.000263
0.000267
0.000266
0.000260
0.000223
0.000234
0.000288
0.000277
0.000262
0.000258
0.000263
0.000196
0.000055
0.000192
0.000237
0.000255
0.000278
0.000228
0.000241
0.000252
0.000249
0.000296
0.000222
0.000227
0.000250
0.000255
0.000254
0.000289
0.000239
0.000268
0.000236
0.000300
0.000251
0.000275
0.000322
0.000269
0.000220
0.000300
0.000253
0.000268
0.000253
0.000296
0.000417
0.000696
0.000057
0.000227
0.000280
0.000234
0.000217
0.000236
0.000257
0.000240
0.000247
0.000249
0.000243
0.000272
0.000292
0.000486
0.000609
0.001404
0.000225
0.000506
0.000230
0.000287
0.000416
0.000471
0.000354
0.000231
0.000280
0.000247
0.000259
0.000278
0.000252
0.000312
0.000275
0.000173
0.000056
0.000286
0.000486
0.000322
0.000342
0.000199
0.000286
0.000228
0.000236
0.000232
0.000243
0.000262
0.000252
0.000235
0.000262
0.000374
0.000507
0.000372
0.001794
0.000232
0.000255
0.000351
0.000408
0.000450
0.000295
0.000313
0.000326
0.000295
0.000247
0.000215
0.000254
0.000192
0.000055
0.000189
0.000226
0.000240
0.000284
0.000349
0.000480
0.000321
0.000257
0.000252
0.000215
0.000252
0.000260
0.000265
0.000268
0.000244
0.000261
0.000274
0.000522
0.000310
0.000466
0.000224
0.001749
0.000325
0.000530
0.000496
0.000448
0.000321
0.000231
0.000255
0.000263
0.000455
0.000055
0.000200
0.000275
0.000218
0.000344
0.000365
0.000474
0.000371
0.000212
0.000275
0.000311
0.000189
0.000253
0.000250
0.000296
0.000314
0.000229
0.000248
0.000324
0.000618
0.000255
0.000483
0.001852
0.000241
0.000502
0.000465
0.000333
0.000227
0.000257
0.000293
0.000265
0.000202
0.000056
0.000213
0.000335
0.000363
0.000317
0.000408
0.000296
0.000368
0.000218
0.000242
0.000255
0.000277
0.000227
0.000244
0.000260
0.000244
0.000262
0.000323
0.000463
0.000414
0.000372
0.000312
0.000217
0.000256
0.001716
0.000425
0.000620
0.000570
0.000253
0.000240
0.000318
0.000154
0.000055
0.000184
0.000238
0.000350
0.000235
0.000277
0.000314
0.000471
0.000295
0.000239
0.000543
0.000208
0.000258
0.000260
0.000275
0.000277
0.000263
0.000210
0.000405
0.000432
0.000426
0.000257
0.000237
0.000266
0.000241
0.000261
0.000266
0.000238
0.000258
0.000266
0.000290
0.000178
0.000056
0.000318
0.000347
0.000211
0.000257
0.000246
0.000259
0.000237
0.000294
0.000237
0.000252
0.000275
0.000330
0.000429
0.000409
0.000328
0.000274
0.000226
0.000234
0.000261
0.000268
0.000286
0.000262
0.000233
0.000263
0.000272
0.000326
0.000428
0.000368
0.000343
0.000232
0.000173
0.000056
0.000213
0.000221
0.000278
0.000243
0.000235
0.000273
0.000265
0.000227
0.000501
0.000203
0.000260
0.000263
0.000239
0.000259
0.000279
0.000312
0.000223
0.000347
0.000218
0.000244
0.000255
0.000267
0.000260
0.000264
0.000275
0.000279
0.000247
0.000249
0.000263
0.000498
0.000159
0.000055
0.000204
0.000239
0.000242
0.000293
0.000201
0.000246
0.000359
0.000407
0.000239
0.000231
0.000254
0.000259
0.000232
0.000274
0.000485
0.001735
0.000230
0.000264
0.000288
0.000328
0.000406
0.000372
0.000365
0.000381
0.000382
0.000431
0.000244
0.000259
0.000269
0.000277
0.001394
0.000056
0.000443
0.000251
0.000274
0.000213
0.000237
0.000249
0.000235
0.000257
0.000241
0.000276
0.000238
0.000265
0.000265
0.000317
0.000519
0.001618
0.000231
0.000233
0.000238
0.000269
0.000234
0.000296
0.000375
0.000383
0.000271
0.000341
0.000238
0.000253
0.000279
0.000260
0.000197
0.000056
0.001207
0.000609
0.000263
0.000256
0.000246
0.000212
0.000243
0.000230
0.000497
0.000216
0.000242
0.000246
0.000367
0.000586
0.000310
0.000349
0.000248
0.000229
0.000339
0.000359
0.000260
0.000263
0.000272
0.000240
0.000279
0.000671
0.000453
0.000270
0.000243
0.000270
0.000174
0.000056
0.000207
0.000211
0.000242
0.000249
0.001570
0.000202
0.000219
0.000259
0.000259
0.000232
0.000249
0.000254
0.000237
0.000262
0.000274
0.000334
0.000435
0.000630
0.000237
0.001759
0.000245
0.000290
0.000332
0.000394
0.000567
0.000378
0.000247
0.000253
0.000262
0.000266
0.000204
0.000056
0.000191
0.000247
0.000242
0.000326
0.001249
0.000227
0.000257
0.000264
0.000235
0.000241
0.000235
0.000258
0.000271
0.000246
0.000257
0.000384
0.000376
0.000441
0.000291
0.000263
0.000267
0.000268
0.000247
0.000236
0.000292
0.000261
0.000237
0.000277
0.000277
0.000372
0.000529
0.000056
0.000217
0.000245
0.000235
0.000257
0.000267
0.000239
0.000232
0.000265
0.000272
0.000274
0.001413
0.000229
0.000234
0.000249
0.000249
0.000247
0.000287
0.000246
0.000285
0.000234
0.000274
0.000489
0.000429
0.000435
0.000204
0.000281
0.001766
0.000259
0.000250
0.000346
0.000438
0.000073
0.000201
0.000390
0.000451
0.000505
0.000510
0.000540
0.001495
0.000421
0.000517
0.000661
0.000548
0.000744
0.000458
0.000626
0.000578
0.001920
0.000422
0.000387
0.000379
0.000322
0.000226
0.000281
0.000287
0.000266
0.000260
0.000290
0.000292
0.000286
0.000256
0.000288
0.001362
0.000056
0.000211
0.000227
0.000249
0.000236
0.000257
0.000261
0.000233
0.000238
0.000258
0.000242
0.000248
0.000245
0.000252
0.000278
0.000250
0.000267
0.001805
0.000260
0.000265
0.000247
0.000262
0.000256
0.000273
0.000249
0.000437
0.000415
0.000340
0.000244
0.000256
0.000287
0.000209
0.000055
0.000208
0.001400
0.000291
0.000270
0.000247
0.000238
0.000239
0.000231
0.000242
0.000237
0.000212
0.000253
0.000253
0.000514
0.000355
0.000304
0.000243
0.001825
0.000354
0.000231
0.000239
0.000263
0.000267
0.000258
0.000276
0.000281
0.000271
0.000252
0.000268
0.000316
0.000207
0.000056
0.000198
0.000240
0.000253
0.001494
0.000183
0.000233
0.000251
0.000241
0.000233
0.000279
0.000244
0.000241
0.000250
0.000283
0.000236
0.000257
0.000262
0.000265
0.000279
0.000245
0.000264
0.001772
0.000275
0.001756
0.000261
0.000261
0.000252
0.000272
0.000285
0.000254
0.000205
0.000055
0.000192
0.000245
0.001374
0.000205
0.000250
0.000245
0.000256
0.000259
0.000242
0.000248
0.000257
0.000237
0.000260
0.000265
0.000259
0.000263
0.000254
0.000304
0.000276
0.000222
0.001892
0.000234
0.001831
0.000242
0.000253
0.000281
0.000230
0.000246
0.000262
0.000268
0.000195
0.000055
0.001435
0.000217
0.000224
0.000240
0.000246
0.000241
0.000368
0.000287
0.000233
0.000254
0.000252
0.000260
0.000234
0.000360
0.000427
0.000274
0.000243
0.000276
0.000243
0.000250
0.000270
0.000351
0.000223
0.000253
0.000271
0.000271
0.000274
0.000569
0.000410
0.000359
0.000208
0.000056
0.000217
0.000266
0.000252
0.000306
0.000363
0.000268
0.001679
0.000304
0.000277
0.000269
0.000259
0.000274
0.000259
0.000268
0.000299
0.000306
0.000368
0.000553
0.000376
0.000268
0.000291
0.000274
0.000269
0.000267
0.000332
0.000252
0.000267
0.000254
0.000257
0.000308
0.000434
0.000057
0.000241
0.000463
0.000268
0.000262
0.000248
0.000229
0.000225
0.000251
0.000263
0.000268
0.001496
0.000215
0.000233
0.000253
0.000248
0.000286
0.000275
0.000241
0.000259
0.000271
0.000270
0.000385
0.000545
0.000287
0.000274
0.000286
0.000260
0.000259
0.000240
0.000311
0.000168
0.000056
0.000196
0.000231
0.000315
0.000432
0.000378
0.000268
0.000218
0.000248
0.000253
0.000252
0.000230
0.000250
0.000261
0.000266
0.000243
0.000239
0.000452
0.001157
0.000245
0.000243
0.000275
0.000249
0.000347
0.000434
0.000249
0.000370
0.000525
0.000379
0.000354
0.000244
0.000166
0.000056
0.000224
0.000245
0.000259
0.000262
0.000251
0.000249
0.000450
0.000287
0.000433
0.000301
0.000375
0.000381
0.000409
0.000348
0.000255
0.000239
0.000236
0.000263
0.000430
0.000420
0.001276
0.000219
0.000273
0.000277
0.000230
0.000250
0.000252
0.000356
0.000368
0.000469
0.000238
0.000056
0.000192
0.000259
0.000245
0.000241
0.000240
0.000243
0.000238
0.000268
0.000303
0.000359
0.000428
0.000356
0.000246
0.000235
0.000259
0.000277
0.000223
0.000265
0.000266
0.000268
0.000427
0.000257
0.000346
0.000512
0.000245
0.000253
0.000266
0.000272
0.000246
0.000346
0.000162
0.000056
0.000299
0.000311
0.000286
0.000408
0.000488
0.000312
0.000244
0.000241
0.000244
0.000270
0.000276
0.000248
0.000235
0.000254
0.000241
0.000225
0.000274
0.000348
0.000461
0.000389
0.000222
0.000285
0.000233
0.000256
0.000282
0.000271
0.000260
0.000280
0.000261
0.000261
0.000340
0.000057
0.000263
0.000365
0.000235
0.000267
0.000227
0.000247
0.000267
0.000233
0.000265
0.000253
0.000257
0.000232
0.000299
0.000479
0.000445
0.000281
0.000236
0.000257
0.000257
0.000265
0.000267
0.000260
0.000252
0.000257
0.000276
0.000309
0.000588
0.000427
0.000408
0.000254
0.000176
0.000057
0.000411
0.000188
0.000215
0.000245
0.000250
0.000245
0.000234
0.000252
0.000269
0.000248
0.000222
0.000244
0.000274
0.000224
0.000239
0.000266
0.000257
0.000264
0.000292
0.000245
0.000258
0.000261
0.000265
0.000266
0.000262
0.000238
0.000265
0.000287
0.000251
0.000277
0.000196
0.000056
0.000215
0.000216
0.000245
0.000255
0.000226
0.000260
0.000261
0.000238
0.000259
0.000280
0.000231
0.000230
0.000263
0.000400
0.000246
0.000313
0.000226
0.000273
0.000249
0.000283
0.000264
0.000236
0.000254
0.000248
0.000269
0.000276
0.000254
0.000247
0.000269
0.000269
0.000196
0.000057
0.000205
0.000357
0.000366
0.000282
0.000299
0.000256
0.000263
0.000261
0.000220
0.000246
0.000276
0.000238
0.000249
0.000229
0.000264
0.000274
0.000247
0.000270
0.000246
0.000261
0.000276
0.000260
0.000284
0.000254
0.000289
0.000232
0.000283
0.000240
0.000273
0.000260
0.000202
0.000056
0.000196
0.000238
0.000265
0.000264
0.000250
0.000444
0.000210
0.000273
0.000272
0.000408
0.000541
0.000261
0.000223
0.000253
0.000277
0.000260
0.000236
0.000270
0.000260
0.000273
0.000281
0.000238
0.000258
0.000309
0.000481
0.000530
0.000260
0.000302
0.000258
0.000261
0.000190
0.000056
0.000220
0.000217
0.000249
0.000249
0.000386
0.000568
0.000332
0.000388
0.000207
0.000246
0.000253
0.000265
0.000237
0.000251
0.000259
0.000264
0.000274
0.000252
0.000629
0.000380
0.000297
0.000249
0.000253
0.000282
0.000281
0.000257
0.000264
0.000290
0.000230
0.000326
0.000303
0.000055
0.000275
0.000242
0.000227
0.000243
0.000251
0.000260
0.000220
0.000249
0.000242
0.000260
0.000246
0.000245
0.000246
0.000517
0.000499
0.000351
0.000229
0.000257
0.000263
0.000244
0.000265
0.000290
0.000481
0.000214
0.000264
0.000755
0.000268
0.000477
0.000250
0.000247
0.000194
0.000055
0.000188
0.000227
0.000249
0.000240
0.000261
0.000253
0.000355
0.000409
0.000567
0.000420
0.000219
0.000257
0.000275
0.000292
0.000240
0.000243
0.000240
0.000249
0.000263
0.000412
0.000306
0.000666
0.000364
0.000251
0.000358
0.000377
0.000483
0.000240
0.000271
0.000319
0.000453
0.000055
0.000273
0.000236
0.000437
0.000219
0.000231
0.000252
0.000264
0.000257
0.000237
0.000240
0.000409
0.000244
0.000405
0.000316
0.000231
0.000249
0.000256
0.000254
0.000263
0.000275
0.000276
0.000251
0.000251
0.000273
0.000396
0.000410
0.000480
0.000264
0.000234
0.000268
0.000199
0.000055
0.000234
0.000247
0.000231
0.000246
0.000248
0.000257
0.000454
0.000375
0.000377
0.000284
0.000356
0.000224
0.000248
0.000268
0.000254
0.000245
0.000247
0.000257
0.000323
0.000349
0.000517
0.000327
0.000474
0.000265
0.000386
0.000423
0.000382
0.000248
0.000255
0.000341
0.000318
0.000055
0.000258
0.000269
0.000235
0.000250
0.000249
0.000253
0.000247
0.000252
0.000271
0.000235
0.000247
0.000301
0.000537
0.000339
0.000370
0.000229
0.000291
0.000239
0.000257
0.000239
0.000253
0.000250
0.000286
0.000255
0.000275
0.000333
0.000507
0.000458
0.000241
0.000295
0.000171
0.000057
0.000205
0.000238
0.000277
0.000250
0.000241
0.000340
0.000505
0.000469
0.000350
0.000696
0.000256
0.000220
0.000243
0.000261
0.000248
0.000269
0.000279
0.000271
0.000474
0.000452
0.001489
0.000302
0.000270
0.000284
0.000266
0.000259
0.000510
0.000280
0.000355
0.000325
0.000186
0.000055
0.000224
0.000224
0.000249
0.000263
0.000226
0.000251
0.000308
0.000223
0.000247
0.000331
0.000335
0.000376
0.000285
0.000318
0.000396
0.000344
0.000239
0.000250
0.000270
0.000251
0.000251
0.000251
0.000313
0.000222
0.000319
0.000436
0.000432
0.000302
0.000232
0.000274
0.000180
0.000056
0.000234
0.000242
0.000256
0.000256
0.000239
0.000238
0.000475
0.000214
0.000232
0.000254
0.000245
0.000249
0.000261
0.000256
0.000246
0.000272
0.000263
0.000285
0.000255
0.000249
0.000288
0.000264
0.000290
0.000250
0.000260
0.000280
0.000269
0.000267
0.000265
0.000272
0.000173
0.000055
0.000232
0.000239
0.000275
0.000539
0.000285
0.000245
0.000243
0.000245
0.000280
0.000233
0.000243
0.000257
0.000260
0.000265
0.000233
0.000243
0.000272
0.000247
0.000286
0.000424
0.000319
0.000437
0.000232
0.000266
0.000247
0.000255
0.000263
0.000259
0.000271
0.000275
0.000201
0.000055
0.000388
0.000427
0.000392
0.000199
0.000275
0.000239
0.000410
0.000228
0.000231
0.000268
0.000233
0.000295
0.000404
0.000418
0.001837
0.000253
0.000243
0.000250
0.000280
0.000242
0.000359
0.000521
0.000600
0.000215
0.000223
0.000269
0.000270
0.000428
0.000278
0.000282
0.000164
0.000056
0.000275
0.000340
0.000379
0.000264
0.000497
0.000199
0.000259
0.000247
0.000238
0.000236
0.000262
0.000248
0.000259
0.000321
0.000462
0.000434
0.000214
0.000241
0.000267
0.000252
0.000284
0.000301
0.000233
0.000280
0.000271
0.000468
0.000480
0.000394
0.000476
0.000234
0.000204
0.000055
0.000203
0.000237
0.000248
0.000233
0.000249
0.000250
0.000265
0.000299
0.000330
0.000390
0.000416
0.000339
0.000217
0.000258
0.000268
0.000293
0.000291
0.000238
0.000270
0.000273
0.000237
0.000368
0.000385
0.000394
0.000295
0.000254
0.000257
0.000442
0.000424
0.000310
0.000166
0.000055
0.000196
0.000298
0.000269
0.000476
0.000334
0.000207
0.000241
0.000254
0.000267
0.000259
0.000250
0.000252
0.000226
0.000258
0.000258
0.000308
0.000399
0.000346
0.000298
0.000350
0.000486
0.000228
0.000274
0.000276
0.000300
0.000283
0.000254
0.000266
0.000492
0.000507
0.000191
0.000055
0.000196
0.000226
0.000245
0.000256
0.000238
0.000489
0.000213
0.000248
0.000265
0.000392
0.000414
0.000600
0.000215
0.000238
0.000242
0.000252
0.000255
0.000286
0.000227
0.000246
0.000284
0.000239
0.000398
0.000411
0.000333
0.000421
0.000277
0.000308
0.000330
0.000239
0.000198
0.000055
0.000185
0.000242
0.000264
0.000471
0.000328
0.000292
0.000261
0.000225
0.000248
0.000256
0.000252
0.000264
0.000258
0.000241
0.000255
0.000262
0.000246
0.000246
0.000249
0.000433
0.000513
0.000363
0.000221
0.000248
0.000282
0.000279
0.000258
0.000259
0.000255
0.000271
0.000195
0.000055
0.000269
0.000442
0.000415
0.000253
0.000202
0.000253
0.000313
0.000456
0.000287
0.000212
0.000245
0.000273
0.000259
0.000440
0.000450
0.000283
0.000227
0.000240
0.000257
0.000276
0.000263
0.000256
0.000268
0.000274
0.000255
0.000311
0.000385
0.000443
0.000280
0.000245
0.000183
0.000055
0.000209
0.000236
0.000251
0.000254
0.000267
0.000249
0.000229
0.000270
0.000248
0.000238
0.000262
0.000243
0.000288
0.001431
0.000215
0.000277
0.000249
0.000247
0.000278
0.000275
0.000260
0.000238
0.000278
0.000249
0.000269
0.000284
0.000257
0.000274
0.000256
0.000268
0.000200
0.000057
0.000219
0.000227
0.000254
0.000263
0.000221
0.000261
0.000240
0.000259
0.000228
0.000249
0.000248
0.000265
0.000259
0.000253
0.000256
0.000257
0.000245
0.000263
0.000274
0.000251
0.000255
0.000264
0.000256
0.000245
0.001293
0.000266
0.000600
0.000435
0.000312
0.000237
0.000208
0.000055
0.000199
0.000230
0.000242
0.000255
0.000417
0.000231
0.000241
0.000240
0.000255
0.000432
0.000402
0.000323
0.000254
0.000209
0.000267
0.000254
0.000253
0.000272
0.000242
0.000260
0.000260
0.000252
0.000271
0.000488
0.000442
0.000440
0.000226
0.000263
0.001378
0.000237
0.000187
0.000057
0.000347
0.000418
0.000324
0.000262
0.000229
0.000241
0.000216
0.000249
0.000259
0.000255
0.000248
0.000260
0.000293
0.000281
0.000616
0.000296
0.000336
0.000223
0.000248
0.000257
0.000262
0.000281
0.000253
0.000268
0.000262
0.000260
0.000435
0.000489
0.000344
0.000357
0.000159
0.000055
0.000194
0.000237
0.001260
0.000428
0.000282
0.000464
0.000381
0.000496
0.000266
0.000346
0.000231
0.000219
0.000262
0.000254
0.000250
0.000267
0.000590
0.000386
0.000242
0.000383
0.000266
0.000238
0.000268
0.000499
0.000238
0.000258
0.000248
0.000283
0.000399
0.000459
0.000309
0.000055
0.000376
0.000316
0.000236
0.000218
0.001561
0.000481
0.000296
0.000241
0.000239
0.000249
0.000237
0.000240
0.000246
0.000272
0.000242
0.000269
0.000234
0.000263
0.000451
0.000367
0.000429
0.000239
0.000262
0.000263
0.000250
0.000274
0.000271
0.000240
0.000265
0.000280
0.000260
0.000056
0.000383
0.000345
0.000226
0.000225
0.000248
0.000247
0.000255
0.000242
0.000234
0.000225
0.001472
0.000429
0.000253
0.000246
0.000231
0.000264
0.000268
0.000283
0.000219
0.000298
0.000241
0.000256
0.000264
0.000437
0.000403
0.000449
0.000227
0.000266
0.000281
0.000285
0.000162
0.000055
0.000211
0.000421
0.000218
0.000244
0.000346
0.000435
0.000355
0.000336
0.000453
0.000205
0.000231
0.000256
0.000263
0.000267
0.000252
0.001435
0.000362
0.000264
0.000245
0.000268
0.000298
0.000236
0.000253
0.000249
0.000269
0.000265
0.000487
0.000408
0.000295
0.000267
0.000182
0.000057
0.000197
0.000229
0.000252
0.000240
0.000224
0.000262
0.000238
0.000252
0.000303
0.000349
0.000463
0.000265
0.000232
0.000264
0.000243
0.000272
0.000274
0.000260
0.000266
0.000233
0.000251
0.000338
0.001239
0.000236
0.000283
0.000239
0.000258
0.000260
0.000255
0.000263
0.000189
0.000055
0.000201
0.000371
0.000393
0.000322
0.000238
0.000246
0.000256
0.000290
0.000238
0.000261
0.000235
0.000266
0.000244
0.000259
0.000250
0.000267
0.000264
0.000272
0.000263
0.000247
0.000252
0.000274
0.000283
0.000266
0.000286
0.000271
0.000265
0.000258
0.000268
0.000442
0.001366
0.000055
0.000207
0.000253
0.000223
0.000261
0.000234
0.000260
0.000244
0.000224
0.000245
0.000256
0.000271
0.000264
0.000246
0.000240
0.000274
0.000229
0.001722
0.000266
0.000237
0.000260
0.000245
0.000258
0.000274
0.000261
0.000298
0.000234
0.000277
0.000264
0.000266
0.000257
0.000228
0.000055
0.000266
0.000316
0.001317
0.000234
0.000223
0.000245
0.000253
0.000251
0.000278
0.000242
0.000235
0.000336
0.000392
0.000462
0.000278
0.000213
0.000258
0.000250
0.000264
0.000266
0.000240
0.000275
0.000261
0.000283
0.000264
0.000385
0.000424
0.000324
0.000311
0.000231
0.000198
0.000056
0.000207
0.000250
0.000244
0.000248
0.000277
0.000197
0.000241
0.000268
0.000406
0.001343
0.000264
0.000208
0.000252
0.000271
0.000252
0.000289
0.000241
0.000243
0.000309
0.000421
0.000352
0.000292
0.000242
0.000240
0.000284
0.000281
0.000282
0.000275
0.000271
0.000274
0.000196
0.000056
0.000241
0.000424
0.000400
0.000217
0.000226
0.000233
0.000249
0.000281
0.000263
0.000244
0.000229
0.000260
0.000448
0.000515
0.000447
0.001463
0.000250
0.000262
0.000334
0.000353
0.000471
0.000453
0.000538
0.000309
0.000228
0.000263
0.000271
0.000273
0.000262
0.000276
0.000193
0.000056
0.000231
0.000236
0.000502
0.000539
0.000251
0.000252
0.000235
0.000244
0.000235
0.000279
0.000231
0.000266
0.000274
0.000231
0.000258
0.000308
0.000345
0.000496
0.000306
0.001323
0.000269
0.000257
0.000253
0.000265
0.000445
0.000462
0.000398
0.000229
0.000270
0.000276
0.000184
0.000055
0.000204
0.000245
0.000241
0.000263
0.000230
0.000268
0.000459
0.000438
0.000329
0.000205
0.000245
0.000260
0.000268
0.000291
0.000239
0.000253
0.000282
0.000250
0.000273
0.000295
0.000430
0.000459
0.000294
0.001366
0.000388
0.000254
0.000255
0.000390
0.000493
0.000336
0.000304
0.000056
0.000201
0.000231
0.000253
0.000244
0.000255
0.000256
0.001713
0.000205
0.000211
0.000245
0.000254
0.000249
0.000259
0.000325
0.000324
0.000291
0.000262
0.000280
0.000623
0.000326
0.000296
0.000287
0.000220
0.000256
0.001495
0.000368
0.000490
0.000380
0.000305
0.000307
0.000171
0.000056
0.000199
0.000251
0.000253
0.000258
0.000242
0.000261
0.001705
0.000233
0.000250
0.000260
0.000330
0.000401
0.001457
0.000351
0.000396
0.000240
0.000260
0.000233
0.000266
0.000277
0.001537
0.000587
0.000368
0.000300
0.000221
0.000261
0.000265
0.000281
0.000243
0.000250
0.000199
0.000055
0.000201
0.000244
0.000269
0.000273
0.000238
0.000276
0.000276
0.000253
0.000250
0.000253
0.000258
0.000248
0.000292
0.000238
0.000250
0.001499
0.000281
0.000225
0.000270
0.000273
0.000273
0.000256
0.000429
0.001276
0.000273
0.000238
0.000272
0.000253
0.000401
0.000237
0.000203
0.000055
0.000212
0.000252
0.000222
0.000247
0.000241
0.000230
0.000231
0.001697
0.000256
0.000222
0.000357
0.000261
0.000226
0.000225
0.000252
0.001395
0.000233
0.000258
0.000266
0.000252
0.000269
0.000339
0.000295
0.001305
0.000268
0.000244
0.000257
0.000268
0.001385
0.000276
0.000195
0.000056
0.000245
0.000345
0.000202
0.000262
0.000243
0.000231
0.000289
0.000245
0.000264
0.000247
0.000260
0.000267
0.000250
0.000241
0.000308
0.001535
0.000219
0.000276
0.000250
0.000247
0.000283
0.000271
0.000230
0.001524
0.000365
0.000210
0.000262
0.001283
0.000276
0.000238
0.000193
0.000055
0.000213
0.000383
0.000352
0.000212
0.000232
0.000239
0.000265
0.000256
0.000264
0.000272
0.000231
0.000258
0.000259
0.000301
0.000412
0.001201
0.000232
0.000250
0.000268
0.000274
0.000225
0.000245
0.000252
0.000332
0.001292
0.000244
0.000244
0.000252
0.000253
0.001341
0.000306
0.000056
0.000270
0.000247
0.000224
0.000229
0.000238
0.000254
0.000250
0.000242
0.000298
0.000242
0.000243
0.000243
0.000245
0.000318
0.000434
0.001466
0.000214
0.000250
0.000300
0.000526
0.000268
0.000338
0.001410
0.000307
0.000230
0.000267
0.000255
0.001304
0.000262
0.000548
0.000319
0.000056
0.000226
0.000270
0.000241
0.000251
0.000253
0.000258
0.000274
0.000261
0.000245
0.000261
0.000287
0.000521
0.001311
0.000238
0.000270
0.000260
0.000283
0.000223
0.000244
0.000235
0.000351
0.001236
0.000256
0.000257
0.000241
0.000245
0.001472
0.000455
0.000506
0.000214
0.000189
0.000055
0.000202
0.000234
0.000251
0.000234
0.000253
0.000265
0.000238
0.000279
0.000398
0.000505
0.000270
0.001490
0.000210
0.000238
0.000267
0.000255
0.000263
0.000280
0.001692
0.000255
0.000394
0.000339
0.001222
0.000411
0.000316
0.000320
0.000256
0.000267
0.000258
0.000267
0.000194
0.000057
0.000188
0.000240
0.000331
0.000244
0.000331
0.000505
0.000307
0.000298
0.001451
0.000249
0.000380
0.000259
0.000247
0.000312
0.000406
0.001275
0.000268
0.000253
0.000245
0.000253
0.001647
0.000275
0.000266
0.000266
0.000274
0.000242
0.000453
0.000333
0.000260
0.000236
0.000259
0.000055
0.000243
0.000362
0.000351
0.000258
0.000226
0.001516
0.000215
0.000258
0.000269
0.000268
0.000267
0.000234
0.000306
0.001490
0.000255
0.000243
0.000411
0.001198
0.000343
0.000424
0.000406
0.000244
0.000238
0.000255
0.000300
0.000228
0.000450
0.000225
0.000264
0.000282
0.000209
0.000055
0.000177
0.000331
0.000298
0.000339
0.001308
0.000286
0.000334
0.000226
0.000221
0.000251
0.000255
0.000408
0.001400
0.000275
0.000213
0.000245
0.001392
0.000256
0.000468
0.000360
0.000426
0.000233
0.000252
0.000249
0.000267
0.000277
0.000269
0.000256
0.000272
0.000248
0.000194
0.000056
0.000233
0.000412
0.001414
0.000209
0.000270
0.000302
0.000218
0.000266
0.000243
0.000411
0.001368
0.000206
0.000272
0.000253
0.000260
0.001276
0.000686
0.000288
0.000324
0.000417
0.000298
0.000256
0.000258
0.000255
0.000270
0.000287
0.000274
0.000338
0.000412
0.000422
0.001376
0.000056
0.000202
0.000252
0.000242
0.000221
0.000252
0.000399
0.000553
0.001235
0.000273
0.000216
0.000247
0.001383
0.000557
0.000255
0.000226
0.000423
0.000231
0.000238
0.000268
0.000291
0.000252
0.000254
0.000281
0.000253
0.000250
0.000286
0.000513
0.000416
0.001486
0.000231
0.000179
0.000056
0.000200
0.000257
0.000413
0.000485
0.001227
0.000329
0.000210
0.000260
0.000240
0.000253
0.000246
0.000282
0.000346
0.000578
0.000256
0.000234
0.000253
0.000273
0.000247
0.000324
0.000216
0.000264
0.000252
0.000263
0.000253
0.000399
0.000498
0.000314
0.000332
0.001402
0.000189
0.000055
0.000217
0.000246
0.000282
0.000465
0.000325
0.000309
0.000314
0.000331
0.000292
0.000254
0.000257
0.000245
0.000252
0.000313
0.000232
0.000326
0.000493
0.000348
0.000288
0.000389
0.000275
0.000407
0.000226
0.000261
0.000247
0.000264
0.000253
0.000286
0.000394
0.000470
0.000282
0.000055
0.000207
0.001415
0.000217
0.000341
0.000409
0.000440
0.000348
0.000331
0.000209
0.000249
0.000259
0.000253
0.000279
0.000251
0.000276
0.000245
0.000257
0.001272
0.000340
0.000259
0.000254
0.000279
0.000265
0.000278
0.000272
0.000261
0.000267
0.000249
0.000337
0.000376
0.000352
0.000056
0.000214
0.000242
0.000236
0.001506
0.000326
0.000236
0.000223
0.000252
0.000230
0.000237
0.000259
0.000279
0.000244
0.000252
0.000293
0.000231
0.000245
0.000285
0.000251
0.000248
0.001430
0.000244
0.000238
0.000264
0.000267
0.000253
0.000257
0.000265
0.000302
0.000471
0.000345
0.000055
0.000186
0.000253
0.000386
0.000284
0.000242
0.000252
0.001529
0.000380
0.000266
0.000216
0.000260
0.000314
0.000334
0.000226
0.000229
0.000251
0.000240
0.000271
0.000261
0.000253
0.000532
0.000446
0.001138
0.000262
0.000241
0.000265
0.000272
0.000250
0.000305
0.000238
0.000450
0.000056
0.000263
0.000342
0.000217
0.000238
0.000247
0.000241
0.000243
0.000225
0.000294
0.001597
0.000409
0.000259
0.000239
0.000241
0.000263
0.000248
0.000257
0.000273
0.000264
0.000309
0.000309
0.000593
0.000338
0.001370
0.000232
0.000278
0.000262
0.000258
0.000267
0.000280
0.000527
0.000056
0.000187
0.000257
0.000223
0.000236
0.000224
0.000242
0.000262
0.000279
0.000256
0.001574
0.000353
0.000262
0.000241
0.000256
0.000471
0.000244
0.000543
0.000376
0.000280
0.000268
0.000484
0.000501
0.001266
0.000258
0.000227
0.000264
0.001725
0.000439
0.000613
0.000316
0.000149
0.000055
0.000187
0.000235
0.000240
0.000235
0.000261
0.000240
0.000247
0.000497
0.000579
0.000341
0.000301
0.000202
0.000245
0.000258
0.000282
0.000273
0.000233
0.000245
0.000249
0.000293
0.000253
0.000377
0.001391
0.000223
0.000255
0.000269
0.001894
0.000388
0.000388
0.000343
0.000151
0.000055
0.000218
0.000240
0.000240
0.001557
0.000438
0.000212
0.000238
0.000269
0.000246
0.000278
0.000377
0.000368
0.000367
0.000279
0.000268
0.000550
0.000381
0.001211
0.000265
0.000236
0.000254
0.000263
0.000278
0.000400
0.000636
0.000441
0.000250
0.000268
0.000271
0.000278
0.000186
0.000055
0.000204
0.000228
0.000246
0.001545
0.000247
0.000235
0.000240
0.000253
0.000243
0.000252
0.000257
0.000269
0.000276
0.000270
0.000315
0.000440
0.000380
0.000280
0.001381
0.000227
0.000260
0.000265
0.000261
0.000258
0.000352
0.000541
0.000413
0.000277
0.000277
0.000230
0.000438
0.000055
0.000188
0.000243
0.000273
0.001532
0.000295
0.000215
0.000268
0.000241
0.000253
0.000261
0.000252
0.000274
0.000239
0.000249
0.000490
0.000454
0.001364
0.000744
0.000261
0.000335
0.000236
0.000242
0.000255
0.000275
0.001681
0.000814
0.000212
0.000266
0.000280
0.000281
0.000188
0.000055
0.000203
0.000239
0.000253
0.000243
0.000268
0.000263
0.000215
0.000256
0.000237
0.000234
0.000286
0.000284
0.000253
0.000253
0.000260
0.000248
0.000266
0.001609
0.000698
0.000410
0.000280
0.000225
0.000250
0.000311
0.000252
0.000256
0.000261
0.000259
0.001394
0.000406
0.000322
0.000055
0.000193
0.000233
0.000269
0.000237
0.000258
0.000230
0.000277
0.000229
0.000255
0.000278
0.000247
0.000470
0.000403
0.000322
0.000221
0.000247
0.000262
0.001396
0.000682
0.000478
0.000335
0.000272
0.000230
0.000251
0.000276
0.000275
0.000234
0.000265
0.001625
0.000291
0.000197
0.000056
0.000222
0.000235
0.000241
0.000249
0.000248
0.000251
0.000233
0.000250
0.000274
0.000264
0.000385
0.000339
0.000345
0.000224
0.000242
0.000241
0.000266
0.000258
0.001573
0.000630
0.000531
0.000268
0.000209
0.000260
0.000257
0.000259
0.000290
0.000272
0.000252
0.001359
0.000352
0.000056
0.000208
0.000217
0.000239
0.000258
0.000257
0.000245
0.000248
0.000306
0.000364
0.000449
0.000399
0.000348
0.000347
0.000227
0.000247
0.000255
0.000298
0.000237
0.000268
0.001927
0.000323
0.000240
0.000446
0.000246
0.000245
0.000260
0.000264
0.000270
0.000268
0.000273
0.000299
0.000055
0.000252
0.000250
0.000246
0.000241
0.000270
0.000233
0.000225
0.000242
0.000265
0.000282
0.000222
0.000231
0.000272
0.000411
0.000511
0.000446
0.000221
0.000273
0.000247
0.000250
0.000256
0.000280
0.001475
0.001053
0.000223
0.000240
0.000275
0.000267
0.000273
0.000251
0.000205
0.000056
0.000194
0.001335
0.000293
0.000213
0.000234
0.000250
0.000257
0.000237
0.000237
0.000267
0.000255
0.000253
0.000241
0.000378
0.000393
0.000454
0.000253
0.000246
0.000264
0.000278
0.000267
0.000228
0.000260
0.000263
0.001319
0.000688
0.000307
0.000381
0.000375
0.000403
0.000297
0.000056
0.000212
0.000242
0.000348
0.001324
0.000209
0.000252
0.000234
0.000261
0.000254
0.000259
0.000251
0.000265
0.000258
0.000368
0.000532
0.000312
0.000216
0.000289
0.000328
0.000211
0.000250
0.000272
0.000235
0.000271
0.000270
0.001550
0.000731
0.000317
0.000253
0.000273
0.000194
0.000057
0.000215
0.000245
0.000483
0.000355
0.001262
0.000269
0.000201
0.000239
0.000235
0.000253
0.000248
0.000259
0.000245
0.000239
0.000237
0.000260
0.000264
0.000238
0.000255
0.000251
0.000269
0.000273
0.000307
0.000328
0.000214
0.000268
0.000264
0.001462
0.000255
0.000242
0.000173
0.000055
0.000207
0.000224
0.000252
0.000263
0.000352
0.000375
0.000396
0.000280
0.001580
0.000238
0.000282
0.000478
0.000377
0.000218
0.000447
0.000226
0.000240
0.000260
0.000275
0.000262
0.000282
0.000263
0.000265
0.000268
0.000249
0.000446
0.000351
0.000347
0.001576
0.000227
0.000189
0.000055
0.000265
0.000224
0.000242
0.000243
0.000241
0.000246
0.000261
0.000313
0.000412
0.002032
0.000230
0.000246
0.000253
0.000258
0.000261
0.000298
0.000221
0.000260
0.000311
0.000415
0.000343
0.000446
0.001453
0.000256
0.000238
0.002054
0.000267
0.000213
0.000258
0.001527
0.000151
0.000055
0.000410
0.000362
0.000444
0.000260
0.000258
0.000210
0.000259
0.000268
0.000260
0.000233
0.000248
0.000343
0.000422
0.000331
0.000428
0.000236
0.000234
0.001580
0.000242
0.000656
0.001803
0.000286
0.000225
0.001532
0.002022
0.000750
0.000275
0.000267
0.000308
0.000508
0.000232
0.000056
0.000209
0.000243
0.000274
0.000226
0.001420
0.001731
0.001076
0.000207
0.000225
0.001596
0.001970
0.000216
0.000237
0.000423
0.000332
0.000286
0.000456
0.000478
0.000210
0.000238
0.000250
0.000260
0.000278
0.001589
0.001207
0.001450
0.000262
0.000276
0.000266
0.000298
0.000348
0.000056
0.000214
0.000235
0.000237
0.000243
0.000225
0.000245
0.000250
0.000257
0.000261
0.000243
0.000234
0.000328
0.000521
0.000379
0.000277
0.000251
0.000247
0.000274
0.000267
0.000282
0.000240
0.000258
0.001520
0.000478
0.002119
0.000237
0.000258
0.000400
0.000371
0.000379
0.000207
0.000056
0.000226
0.000330
0.000493
0.000311
0.000193
0.000234
0.000254
0.000240
0.000247
0.000238
0.000244
0.000269
0.000259
0.001608
0.001352
0.001232
0.000280
0.000233
0.000245
0.000267
0.000285
0.000280
0.000238
0.000255
0.002214
0.000254
0.000248
0.000295
0.000322
0.000306
0.000220
0.000056
0.000236
0.000352
0.000572
0.000299
0.000243
0.000230
0.000244
0.000266
0.001905
0.001409
0.000227
0.000328
0.000386
0.000410
0.000267
0.000222
0.000256
0.000269
0.000267
0.000254
0.000259
0.000273
0.000471
0.000236
0.000268
0.000266
0.000252
0.000275
0.000278
0.000249
0.000202
0.000055
0.000200
0.000244
0.000247
0.000246
0.000274
0.000248
0.001546
0.001407
0.001324
0.000240
0.000231
0.000247
0.000267
0.000263
0.000244
0.000247
0.000256
0.002115
0.000234
0.000236
0.000264
0.000265
0.000256
0.000274
0.000260
0.000254
0.000276
0.000249
0.000280
0.000257
0.000177
0.000055
0.000207
0.002676
0.001398
0.000223
0.000304
0.000322
0.000212
0.000287
0.000234
0.000234
0.000259
0.000244
0.000230
0.000249
0.000276
0.000250
0.000270
0.000267
0.000274
0.000253
0.000265
0.000280
0.000276
0.000259
0.000249
0.000246
0.000268
0.000265
0.000268
0.000269
0.000371
0.000055
0.001557
0.000244
0.001233
0.000229
0.000225
0.000240
0.000262
0.000277
0.000224
0.000259
0.000400
0.000413
0.000297
0.000208
0.000247
0.002160
0.000231
0.000249
0.000273
0.000636
0.000199
0.000335
0.000232
0.000259
0.000264
0.000246
0.000272
0.000270
0.000269
0.002687
0.000199
0.000055
0.000188
0.000232
0.000297
0.000447
0.000312
0.000274
0.000216
0.000230
0.000254
0.000263
0.000264
0.000244
0.000222
0.000257
0.000281
0.000226
0.000321
0.000610
0.000380
0.000238
0.000223
0.000284
0.000272
0.000254
0.000251
0.000242
0.000268
0.000274
0.000245
0.000298
0.000418
0.000055
0.001110
0.000286
0.000305
0.000445
0.000287
0.000226
0.000230
0.000241
0.000246
0.002375
0.000291
0.000402
0.000207
0.000380
0.000306
0.000255
0.000241
0.000259
0.000266
0.000231
0.000247
0.000276
0.000655
0.000397
0.001872
0.001270
0.000584
0.000527
0.000223
0.000281
0.000200
0.000057
0.000253
0.000322
0.000245
0.000249
0.000270
0.000207
0.000257
0.000247
0.000257
0.000248
0.000252
0.000220
0.000253
0.000282
0.000565
0.000312
0.001836
0.001335
0.000472
0.000412
0.000457
0.000240
0.000239
0.000260
0.002150
0.000538
0.000380
0.000234
0.000272
0.000284
0.000192
0.000056
0.000201
0.000237
0.000260
0.000244
0.000240
0.000366
0.000392
0.000303
0.000326
0.000225
0.000239
0.000254
0.000262
0.002130
0.000342
0.000387
0.000212
0.000254
0.000288
0.000246
0.000244
0.002507
0.000292
0.000227
0.000249
0.000256
0.000261
0.000269
0.000307
0.000257
0.000188
0.000055
0.000200
0.000316
0.000558
0.000393
0.000248
0.000219
0.000236
0.000269
0.000245
0.000250
0.001964
0.000386
0.000272
0.000267
0.000243
0.000264
0.000273
0.000246
0.002202
0.000453
0.000221
0.000269
0.000269
0.000256
0.000265
0.000245
0.000300
0.000236
0.000272
0.000264
0.000166
0.000056
0.000212
0.000224
0.000249
0.000222
0.000245
0.000258
0.000238
0.000247
0.000232
0.002178
0.000228
0.000284
0.000210
0.000434
0.000233
0.000247
0.000303
0.000262
0.000254
0.000250
0.001958
0.000293
0.000335
0.000362
0.000433
0.000425
0.000284
0.000250
0.000258
0.000263
0.000191
0.000056
0.000196
0.000260
0.000218
0.000253
0.000244
0.000326
0.000212
0.002312
0.000253
0.000227
0.000260
0.000254
0.000234
0.000276
0.000282
0.002126
0.000582
0.000225
0.000256
0.000243
0.000263
0.000257
0.000288
0.000267
0.000263
0.000251
0.000291
0.000250
0.000264
0.000266
0.000192
0.000055
0.001836
0.001427
0.000211
0.000220
0.000247
0.000255
0.000248
0.000275
0.000397
0.000373
0.002150
0.000255
0.000235
0.000269
0.000315
0.000485
0.000403
0.000289
0.000214
0.000261
0.000245
0.000270
0.000269
0.000243
0.000239
0.000260
0.000271
0.000267
0.000338
0.000625
0.000333
0.000056
0.000213
0.000254
0.000237
0.000261
0.000271
0.000239
0.000254
0.000242
0.001574
0.002246
0.000382
0.000251
0.000429
0.000678
0.000352
0.000240
0.000250
0.000251
0.000263
0.000254
0.000264
0.000237
0.000247
0.000274
0.003006
0.000334
0.000241
0.000269
0.000281
0.000270
0.000494
0.000056
0.001931
0.000243
0.000229
0.000224
0.000295
0.000349
0.000518
0.000245
0.000284
0.000219
0.000240
0.000256
0.000253
0.000260
0.000275
0.000243
0.000258
0.000282
0.001828
0.000233
0.000234
0.000256
0.000278
0.000287
0.000264
0.000251
0.001492
0.000310
0.000241
0.000269
0.000175
0.000056
0.000211
0.000229
0.000268
0.000239
0.000231
0.000237
0.000338
0.000354
0.000295
0.000396
0.000224
0.000237
0.000266
0.000330
0.000420
0.000320
0.000230
0.000248
0.000257
0.000362
0.000448
0.000451
0.000257
0.000264
0.000257
0.000251
0.000257
0.000263
0.000283
0.000284
0.000184
0.000054
0.001440
0.000445
0.000211
0.001956
0.000287
0.000409
0.000422
0.000320
0.000214
0.000256
0.000265
0.000246
0.000238
0.000255
0.000262
0.000275
0.000436
0.000264
0.000484
0.000361
0.000314
0.000232
0.000253
0.000268
0.000271
0.000270
0.000257
0.000271
0.000389
0.000432
0.001381
0.000056
0.000194
0.000222
0.002077
0.000324
0.000316
0.000238
0.000254
0.000247
0.000266
0.000261
0.000212
0.000250
0.000259
0.000260
0.000260
0.000356
0.000723
0.001749
0.000227
0.000249
0.000258
0.000265
0.000379
0.000495
0.001515
0.000290
0.000362
0.001923
0.000260
0.000248
0.000201
0.000056
0.000212
0.000227
0.000238
0.000244
0.000223
0.000251
0.000250
0.000289
0.000346
0.000252
0.000373
0.000362
0.000345
0.000298
0.000240
0.000265
0.000262
0.000259
0.000249
0.000247
0.000315
0.000280
0.000291
0.000240
0.000266
0.001511
0.000289
0.000384
0.002074
0.000232
0.000170
0.000056
0.000214
0.000238
0.000242
0.000243
0.000492
0.000206
0.000256
0.000338
0.000375
0.000308
0.000298
0.000201
0.000266
0.000267
0.000266
0.000326
0.000431
0.000427
0.000256
0.000400
0.000518
0.000413
0.001624
0.000227
0.000252
0.001969
0.000348
0.000246
0.000243
0.000294
0.000195
0.000055
0.000196
0.000246
0.000224
0.000247
0.000252
0.000273
0.000249
0.000273
0.000252
0.000255
0.001817
0.000317
0.000381
0.000279
0.000478
0.000351
0.000400
0.001453
0.000230
0.000290
0.002193
0.000496
0.000260
0.000224
0.000266
0.000270
0.000508
0.000222
0.000250
0.000283
0.000195
0.000056
0.000295
0.000416
0.000307
0.000295
0.000205
0.000240
0.000258
0.000253
0.000263
0.000289
0.000238
0.000246
0.000257
0.000264
0.000335
0.000519
0.001271
0.000266
0.000276
0.001960
0.000329
0.000280
0.000228
0.000271
0.000248
0.000280
0.000282
0.000249
0.000245
0.000269
0.000199
0.000072
0.000213
0.000436
0.002005
0.000247
0.000226
0.000249
0.000255
0.000294
0.000460
0.000423
0.001298
0.000370
0.000356
0.002086
0.000210
0.000250
0.000258
0.000270
0.000262
0.000235
0.000292
0.000293
0.000247
0.000436
0.000438
0.000353
0.000290
0.002243
0.000528
0.000512
0.000332
0.000056
0.000204
0.000225
0.000244
0.001972
0.000225
0.000223
0.000255
0.000233
0.000245
0.000255
0.000247
0.000260
0.000258
0.000330
0.000503
0.001347
0.000258
0.000260
0.000245
0.000264
0.000233
0.000255
0.000254
0.000296
0.000293
0.000478
0.000464
0.000232
0.001598
0.000274
0.000158
0.000056
0.000213
0.000215
0.000247
0.000234
0.000262
0.000270
0.000225
0.000249
0.000261
0.000363
0.000363
0.001425
0.000226
0.000224
0.000249
0.000298
0.000226
0.000260
0.000264
0.000521
0.000454
0.000388
0.000227
0.001569
0.000235
0.000254
0.000293
0.000277
0.000266
0.000266
0.000188
0.000057
0.000203
0.000236
0.000262
0.000269
0.000249
0.000245
0.000239
0.000242
0.000278
0.000226
0.000248
0.000254
0.000266
0.001495
0.000349
0.000207
0.000248
0.000261
0.000279
0.000317
0.000364
0.000271
0.000247
0.000272
0.000256
0.000268
0.000263
0.001416
0.000260
0.000241
0.000173
0.000055
0.000206
0.000233
0.000259
0.000262
0.000268
0.000224
0.000245
0.000256
0.000222
0.000283
0.000228
0.000256
0.000229
0.000327
0.000338
0.000349
0.000288
0.000239
0.001631
0.000248
0.000236
0.000264
0.000261
0.000299
0.000404
0.000355
0.000456
0.000248
0.000257
0.001609
0.000153
0.000055
0.000345
0.000323
0.000399
0.000265
0.000238
0.000218
0.000242
0.000273
0.000256
0.000262
0.000221
0.000238
0.001460
0.000300
0.000302
0.000221
0.000256
0.000269
0.000254
0.000262
0.000254
0.000238
0.000255
0.000275
0.000265
0.000344
0.000505
0.000279
0.000337
0.000232
0.000192
0.000054
0.000205
0.000232
0.000548
0.000281
0.000351
0.000253
0.000259
0.000251
0.000251
0.000255
0.000244
0.000230
0.000257
0.000241
0.001254
0.000312
0.000226
0.000254
0.000267
0.000267
0.000241
0.000262
0.000251
0.000262
0.000252
0.000256
0.000337
0.000626
0.000500
0.000232
0.000179
0.000057
0.000197
0.001561
0.000255
0.000318
0.000525
0.000314
0.000219
0.000271
0.000257
0.000250
0.000239
0.000257
0.000269
0.000294
0.000237
0.001531
0.000253
0.000284
0.000266
0.000255
0.000271
0.000239
0.000268
0.000257
0.000271
0.000252
0.000482
0.000338
0.000337
0.000235
0.000194
0.000055
0.000203
0.000254
0.000235
0.001669
0.000371
0.000345
0.000221
0.000241
0.000253
0.000287
0.000263
0.000255
0.000251
0.000258
0.000230
0.000271
0.000448
0.001280
0.000252
0.000226
0.001506
0.000369
0.000493
0.000404
0.000353
0.000222
0.000273
0.000469
0.000232
0.000266
0.000181
0.000055
0.000166
0.000219
0.000249
0.000244
0.000248
0.000256
0.000240
0.000255
0.000256
0.000249
0.000243
0.000256
0.000328
0.000478
0.001673
0.001491
0.000361
0.000574
0.000299
0.000223
0.000229
0.000253
0.000257
0.000266
0.000252
0.000265
0.000264
0.000264
0.001521
0.000330
0.000178
0.000055
0.000221
0.000353
0.000354
0.000331
0.000236
0.000220
0.000248
0.000400
0.000408
0.000370
0.002154
0.000314
0.000694
0.000525
0.000451
0.000256
0.000336
0.000393
0.000327
0.000281
0.000403
0.000255
0.001541
0.000521
0.000225
0.000252
0.000263
0.000255
0.000258
0.000267
0.000193
0.000056
0.000231
0.000253
0.000250
0.000257
0.000239
0.001664
0.000881
0.000996
0.000208
0.000229
0.000261
0.000251
0.000268
0.000258
0.000252
0.000251
0.000250
0.000264
0.000274
0.000279
0.001426
0.000315
0.000252
0.000223
0.000240
0.000263
0.000259
0.000288
0.000275
0.000271
0.001904
0.000056
0.000196
0.000226
0.001547
0.000930
0.000311
0.000356
0.000229
0.000244
0.000244
0.000259
0.000245
0.000252
0.000251
0.001983
0.000477
0.000217
0.000240
0.000258
0.000267
0.000255
0.000199
