0.000110
0.019561
0.002053
0.000384
0.000262
0.000283
0.000301
0.000250
0.000328
0.000295
0.000243
0.000354
0.000518
0.000462
0.000325
0.000408
0.000263
0.000395
0.000324
0.000405
0.000318
0.001940
0.000684
0.000245
0.000259
0.000304
0.000305
0.000332
0.000484
0.000626
0.000269
0.000297
0.000058
0.000212
0.000264
0.000268
0.000266
0.000273
0.000250
0.000281
0.000272
0.000251
0.000389
0.000354
0.000419
0.000313
0.000267
0.000408
0.000297
0.000362
0.000248
0.000256
0.001729
0.000291
0.000248
0.000461
0.000243
0.000277
0.000280
0.000284
0.000315
0.000260
0.000382
0.000366
0.000057
0.000200
0.000245
0.000262
0.000264
0.000249
0.000249
0.000257
0.000257
0.000282
0.001674
0.000226
0.000230
0.000269
0.000275
0.000279
0.000252
0.000262
0.000257
0.000353
0.001792
0.000242
0.000280
0.000443
0.000495
0.000322
0.000242
0.000244
0.000508
0.000558
0.000678
0.000200
0.000057
0.000218
0.000250
0.000250
0.000241
0.000292
0.000254
0.000296
0.000602
0.000348
0.000273
0.000238
0.000252
0.000240
0.000253
0.000253
0.000257
0.000247
0.000268
0.000301
0.000316
0.001674
0.000279
0.000251
0.000417
0.000334
0.000664
0.000698
0.000521
0.000306
0.000249
0.000184
0.000057
0.000198
0.000250
0.000265
0.000237
0.000260
0.000255
0.000316
0.000538
0.001343
0.000226
0.000241
0.000245
0.000252
0.000258
0.000263
0.000288
0.000355
0.000757
0.001350
0.000284
0.000460
0.000257
0.000229
0.000214
0.000262
0.000257
0.000283
0.000254
0.000259
0.000293
0.000169
0.000056
0.000221
0.000241
0.000246
0.000263
0.000239
0.000248
0.000238
0.000250
0.000241
0.000256
0.001636
0.000255
0.000237
0.000240
0.000255
0.000247
0.000249
0.000248
0.000252
0.000256
0.000269
0.001661
0.000293
0.000252
0.000435
0.000254
0.000262
0.000256
0.000259
0.000274
0.000195
0.000057
0.000202
0.000239
0.000248
0.000241
0.000242
0.000245
0.000259
0.000239
0.000263
0.000242
0.000265
0.000263
0.000254
0.000273
0.001638
0.000277
0.000292
0.000222
0.000249
0.000270
0.000268
0.000239
0.000241
0.000265
0.001787
0.000448
0.000288
0.000348
0.000257
0.000279
0.000217
0.000056
0.000194
0.000235
0.000249
0.000265
0.000258
0.000237
0.000352
0.000361
0.000388
0.000434
0.000205
0.000249
0.000256
0.000247
0.001572
0.000562
0.000279
0.000415
0.000305
0.000234
0.000271
0.000287
0.000264
0.001737
0.000518
0.000450
0.000273
0.000236
0.000243
0.000264
0.000182
0.000059
0.000198
0.000233
0.000256
0.000333
0.000284
0.000464
0.000328
0.000279
0.000226
0.000245
0.000262
0.000238
0.000257
0.001737
0.000453
0.000284
0.000244
0.000248
0.000285
0.000274
0.000242
0.000262
0.000275
0.001911
0.000471
0.000261
0.000211
0.000233
0.000270
0.000413
0.000325
0.000057
0.000363
0.000231
0.000358
0.000264
0.000255
0.000246
0.000252
0.000259
0.000243
0.000232
0.000238
0.000248
0.001595
0.000286
0.000325
0.000240
0.000253
0.000252
0.000242
0.000282
0.000282
0.000328
0.000247
0.001804
0.000258
0.000489
0.000247
0.000259
0.000256
0.000272
0.000278
0.000057
0.000284
0.000587
0.000577
0.000217
0.000230
0.000273
0.000231
0.000224
0.000256
0.000253
0.000253
0.001706
0.000250
0.000429
0.000376
0.000218
0.000240
0.000231
0.000247
0.000260
0.000390
0.001725
0.000232
0.000247
0.002132
0.000465
0.000360
0.000250
0.000256
0.000264
0.000186
0.000056
0.000210
0.000246
0.000246
0.000237
0.000300
0.001588
0.000248
0.000233
0.000252
0.000252
0.000248
0.000236
0.000257
0.000251
0.000336
0.000651
0.000335
0.000246
0.000237
0.000276
0.000286
0.000224
0.000242
0.000432
0.000442
0.000296
0.000402
0.000455
0.000448
0.000272
0.000191
0.000056
0.000208
0.000238
0.000249
0.000255
0.000233
0.000244
0.000266
0.000437
0.000446
0.001650
0.000210
0.000242
0.000239
0.000250
0.000257
0.000310
0.000427
0.000468
0.000330
0.000235
0.000261
0.000309
0.000276
0.000251
0.000273
0.000429
0.000353
0.000651
0.000390
0.000474
0.000168
0.000057
0.000205
0.000256
0.000240
0.000224
0.000244
0.000238
0.000249
0.000243
0.000243
0.000331
0.000296
0.000514
0.001315
0.000244
0.000241
0.000239
0.000268
0.000242
0.000252
0.000284
0.000296
0.000458
0.000349
0.000269
0.000272
0.000256
0.000253
0.000271
0.000265
0.000261
0.000386
0.000056
0.000215
0.000234
0.000256
0.000267
0.000534
0.000420
0.000221
0.000259
0.000232
0.000261
0.000249
0.000236
0.000300
0.000251
0.000236
0.000534
0.000392
0.001613
0.000275
0.000238
0.000260
0.000269
0.000255
0.000242
0.000290
0.000389
0.000609
0.000230
0.000421
0.000244
0.000183
0.000056
0.000241
0.000429
0.000235
0.000217
0.000267
0.000250
0.000513
0.000406
0.000281
0.000305
0.000224
0.000272
0.000269
0.000235
0.000515
0.000347
0.000226
0.000262
0.000429
0.001607
0.000270
0.000229
0.000519
0.000248
0.000276
0.000285
0.000252
0.000536
0.000391
0.000347
0.000264
0.000055
0.000230
0.000233
0.000234
0.000242
0.000412
0.000311
0.000295
0.000222
0.000389
0.000500
0.000370
0.000230
0.000252
0.000241
0.000259
0.000267
0.000251
0.000252
0.000238
0.000346
0.000311
0.000346
0.001814
0.000241
0.000260
0.000253
0.000285
0.000356
0.000440
0.000727
0.000367
0.000057
0.000237
0.000329
0.000276
0.000430
0.000390
0.000210
0.000261
0.000326
0.000550
0.000334
0.000271
0.000242
0.000229
0.000272
0.000264
0.000233
0.000252
0.000274
0.000266
0.000259
0.000314
0.000442
0.000593
0.001315
0.000336
0.000516
0.000339
0.000291
0.000511
0.000371
0.000231
0.000058
0.000231
0.000383
0.000266
0.000208
0.000222
0.000253
0.000411
0.000226
0.000383
0.000357
0.000301
0.000473
0.000208
0.000259
0.000262
0.000251
0.000375
0.000383
0.000355
0.000220
0.000251
0.000639
0.000365
0.001689
0.000234
0.000446
0.000289
0.000231
0.000301
0.000429
0.000328
0.000059
0.000185
0.000230
0.000245
0.000249
0.000242
0.000248
0.000252
0.000323
0.000457
0.000323
0.000411
0.000369
0.000297
0.000556
0.000254
0.000240
0.000272
0.000268
0.000228
0.000353
0.000217
0.000247
0.000293
0.000543
0.000391
0.001607
0.000269
0.000226
0.000254
0.000271
0.000183
0.000056
0.000249
0.000604
0.000212
0.000220
0.000250
0.000249
0.000256
0.000240
0.000261
0.000242
0.000222
0.000249
0.000436
0.000497
0.000467
0.000252
0.000219
0.000254
0.000351
0.000384
0.000383
0.000328
0.000423
0.000360
0.000227
0.000245
0.000264
0.000277
0.001786
0.000247
0.000200
0.000056
0.000208
0.000218
0.000260
0.000272
0.000373
0.000541
0.000299
0.000214
0.000264
0.000258
0.000252
0.000250
0.000514
0.000448
0.000482
0.000289
0.000250
0.000275
0.000423
0.000462
0.000410
0.000391
0.000459
0.000425
0.000240
0.000254
0.000263
0.000249
0.000263
0.001718
0.000349
0.000057
0.000255
0.000341
0.000195
0.000234
0.000257
0.000245
0.000253
0.000502
0.000363
0.000300
0.000298
0.000277
0.000485
0.000469
0.000371
0.000244
0.000250
0.000272
0.000232
0.000266
0.000265
0.000274
0.000241
0.000264
0.000342
0.000324
0.000465
0.000311
0.000227
0.000259
0.000189
0.000057
0.000438
0.000289
0.000457
0.000262
0.000217
0.000241
0.000241
0.000259
0.000251
0.000205
0.000254
0.000291
0.000276
0.000530
0.000395
0.000434
0.000323
0.000326
0.000380
0.000337
0.000316
0.000220
0.000240
0.000263
0.001740
0.000260
0.001717
0.001001
0.000314
0.000364
0.000153
0.000055
0.000211
0.000232
0.000242
0.000238
0.000267
0.000244
0.000249
0.000254
0.000239
0.000383
0.000395
0.000345
0.000337
0.000363
0.000271
0.000248
0.000243
0.000294
0.000242
0.000237
0.000254
0.000258
0.001791
0.000254
0.000260
0.000266
0.000276
0.000266
0.001927
0.000480
0.000264
0.000056
0.000220
0.000210
0.000246
0.000234
0.000256
0.000243
0.000246
0.000253
0.000395
0.000299
0.000540
0.000445
0.000241
0.000207
0.000235
0.000253
0.000332
0.000444
0.000364
0.000250
0.001760
0.000270
0.000248
0.000241
0.000265
0.000268
0.000243
0.000253
0.000320
0.000407
0.000325
0.000057
0.000253
0.000217
0.000240
0.000260
0.000256
0.000231
0.000254
0.000257
0.000259
0.000236
0.000240
0.000277
0.000450
0.000321
0.000336
0.000262
0.000475
0.000246
0.000244
0.000258
0.000258
0.000262
0.000272
0.000254
0.000279
0.001783
0.000245
0.000255
0.000268
0.000236
0.000195
0.000058
0.000281
0.000315
0.000244
0.000217
0.000235
0.000236
0.000239
0.000258
0.000244
0.000232
0.000230
0.000259
0.000269
0.000471
0.000309
0.000314
0.000309
0.000254
0.000244
0.000250
0.000259
0.000256
0.000252
0.000282
0.000237
0.000266
0.000334
0.001601
0.000275
0.000238
0.000189
0.000057
0.000210
0.000240
0.000250
0.000261
0.000341
0.000350
0.000402
0.000319
0.000228
0.000256
0.000248
0.000247
0.000245
0.000257
0.000260
0.000259
0.000244
0.000259
0.000251
0.000260
0.000272
0.000267
0.000245
0.000241
0.000235
0.000285
0.000276
0.000256
0.000257
0.000283
0.000171
0.000075
0.000200
0.000238
0.000256
0.000257
0.000235
0.000251
0.000245
0.000263
0.000286
0.000239
0.000225
0.000254
0.000247
0.000253
0.000266
0.000279
0.000235
0.000256
0.000296
0.000254
0.000272
0.000291
0.000273
0.000246
0.000281
0.000269
0.000274
0.000250
0.000298
0.000417
0.000680
0.000060
0.000236
0.000280
0.000224
0.000232
0.000230
0.000256
0.000240
0.000252
0.000250
0.000239
0.000269
0.000383
0.000513
0.000471
0.001423
0.000240
0.000494
0.000237
0.000270
0.000429
0.000451
0.000363
0.000236
0.000274
0.000254
0.000263
0.000280
0.000247
0.000323
0.000246
0.000186
0.000056
0.000347
0.000376
0.000349
0.000303
0.000225
0.000251
0.000250
0.000241
0.000235
0.000239
0.000261
0.000253
0.000231
0.000296
0.000353
0.000478
0.000386
0.001793
0.000242
0.000264
0.000443
0.000354
0.000395
0.000297
0.000316
0.000320
0.000301
0.000233
0.000228
0.000248
0.000197
0.000056
0.000225
0.000227
0.000243
0.000343
0.000412
0.000401
0.000280
0.000251
0.000252
0.000212
0.000254
0.000267
0.000267
0.000260
0.000247
0.000260
0.000355
0.000485
0.000309
0.000420
0.000236
0.001743
0.000337
0.000572
0.000435
0.000448
0.000326
0.000237
0.000252
0.000267
0.000439
0.000057
0.000214
0.000248
0.000239
0.000392
0.000323
0.000502
0.000327
0.000234
0.000224
0.000290
0.000243
0.000263
0.000248
0.000293
0.000312
0.000237
0.000271
0.000406
0.000455
0.000303
0.000490
0.001833
0.000278
0.000709
0.000290
0.000283
0.000225
0.000261
0.000290
0.000261
0.000208
0.000056
0.000219
0.000345
0.000356
0.000374
0.000359
0.000270
0.000364
0.000216
0.000248
0.000258
0.000275
0.000229
0.000251
0.000252
0.000245
0.000262
0.000333
0.000540
0.000381
0.000304
0.000300
0.000236
0.000263
0.001705
0.000391
0.000670
0.000569
0.000237
0.000265
0.000305
0.000159
0.000056
0.000197
0.000242
0.000321
0.000260
0.000273
0.000435
0.000339
0.000311
0.000249
0.000511
0.000239
0.000246
0.000264
0.000276
0.000275
0.000263
0.000211
0.000340
0.000588
0.000331
0.000263
0.000252
0.000237
0.000253
0.000258
0.000265
0.000246
0.000252
0.000262
0.000332
0.000187
0.000056
0.000406
0.000248
0.000240
0.000255
0.000249
0.000254
0.000241
0.000288
0.000244
0.000247
0.000257
0.000359
0.000448
0.000372
0.000396
0.000220
0.000222
0.000235
0.000260
0.000269
0.000286
0.000259
0.000238
0.000254
0.000284
0.000431
0.000383
0.000289
0.000340
0.000250
0.000168
0.000056
0.000215
0.000228
0.000274
0.000246
0.000239
0.000252
0.000254
0.000256
0.000487
0.000208
0.000265
0.000253
0.000247
0.000263
0.000274
0.000272
0.000260
0.000352
0.000218
0.000250
0.000250
0.000265
0.000256
0.000268
0.000282
0.000262
0.000261
0.000256
0.000515
0.000243
0.000151
0.000057
0.000208
0.000242
0.000257
0.000255
0.000219
0.000246
0.000375
0.000407
0.000235
0.000233
0.000253
0.000253
0.000249
0.000277
0.000506
0.001689
0.000237
0.000264
0.000278
0.000398
0.000366
0.000348
0.000383
0.000419
0.000334
0.000420
0.000236
0.000272
0.000269
0.000272
0.001397
0.000058
0.000383
0.000273
0.000269
0.000219
0.000235
0.000251
0.000232
0.000255
0.000242
0.000269
0.000246
0.000275
0.000238
0.000255
0.000610
0.001643
0.000209
0.000218
0.000242
0.000266
0.000249
0.000332
0.000350
0.000342
0.000267
0.000358
0.000226
0.000270
0.000276
0.000262
0.000175
0.000056
0.001235
0.000497
0.000345
0.000264
0.000250
0.000214
0.000229
0.000245
0.000493
0.000211
0.000243
0.000247
0.000400
0.000612
0.000251
0.000346
0.000240
0.000239
0.000345
0.000348
0.000272
0.000256
0.000267
0.000247
0.000301
0.000648
0.000466
0.000249
0.000250
0.000267
0.000166
0.000056
0.000208
0.000234
0.000237
0.000245
0.001461
0.000302
0.000229
0.000256
0.000236
0.000247
0.000255
0.000252
0.000242
0.000265
0.000267
0.000367
0.000361
0.000638
0.000290
0.001748
0.000257
0.000261
0.000373
0.000413
0.000496
0.000393
0.000260
0.000245
0.000255
0.000270
0.000196
0.000056
0.000223
0.000255
0.000231
0.000442
0.001133
0.000240
0.000253
0.000259
0.000238
0.000240
0.000235
0.000246
0.000279
0.000248
0.000253
0.000291
0.000548
0.000346
0.000313
0.000264
0.000266
0.000269
0.000246
0.000235
0.000290
0.000263
0.000240
0.000278
0.000290
0.000320
0.000595
0.000057
0.000210
0.000244
0.000245
0.000259
0.000283
0.000223
0.000232
0.000263
0.000270
0.000252
0.001438
0.000221
0.000245
0.000250
0.000240
0.000248
0.000266
0.000268
0.000261
0.000267
0.000378
0.000387
0.000549
0.000281
0.000238
0.000274
0.001753
0.000265
0.000289
0.000310
0.000425
0.000058
0.000210
0.000413
0.000422
0.000502
0.000514
0.000582
0.001468
0.000404
0.000522
0.000648
0.000557
0.000743
0.000483
0.000595
0.000581
0.001935
0.000510
0.000285
0.000406
0.000313
0.000238
0.000287
0.000256
0.000266
0.000266
0.000275
0.000291
0.000290
0.000266
0.000285
0.001373
0.000058
0.000229
0.000215
0.000251
0.000241
0.000256
0.000257
0.000235
0.000242
0.000246
0.000250
0.000243
0.000237
0.000276
0.000242
0.000266
0.000266
0.001797
0.000288
0.000237
0.000243
0.000267
0.000257
0.000275
0.000272
0.000475
0.000374
0.000333
0.000231
0.000267
0.000266
0.000220
0.000057
0.000212
0.001369
0.000324
0.000264
0.000258
0.000242
0.000243
0.000233
0.000233
0.000242
0.000216
0.000245
0.000247
0.000507
0.000370
0.000277
0.000263
0.000260
0.001919
0.000235
0.000249
0.000265
0.000253
0.000269
0.000272
0.000281
0.000270
0.000253
0.000267
0.000319
0.000199
0.000056
0.000220
0.000245
0.000249
0.001448
0.000202
0.000253
0.000253
0.000252
0.000233
0.000267
0.000254
0.000247
0.000245
0.000253
0.000265
0.000254
0.000266
0.000283
0.000249
0.000256
0.000260
0.001758
0.000308
0.001727
0.000270
0.000250
0.000284
0.000257
0.000266
0.000275
0.000199
0.000057
0.000209
0.000240
0.001349
0.000225
0.000249
0.000247
0.000261
0.000254
0.000242
0.000250
0.000249
0.000248
0.000261
0.000259
0.000259
0.000267
0.000274
0.000267
0.000302
0.000227
0.001868
0.000238
0.001836
0.000239
0.000263
0.000276
0.000232
0.000253
0.000246
0.000273
0.000192
0.000056
0.001437
0.000214
0.000231
0.000240
0.000240
0.000237
0.000371
0.000265
0.000254
0.000257
0.000252
0.000258
0.000322
0.000359
0.000373
0.000244
0.000234
0.000259
0.000274
0.000251
0.000267
0.000335
0.000234
0.000251
0.000273
0.000277
0.000275
0.000348
0.000669
0.000322
0.000195
0.000056
0.000204
0.000240
0.000266
0.000296
0.000377
0.000248
0.001705
0.000301
0.000274
0.000268
0.000254
0.000270
0.000291
0.000260
0.000284
0.000300
0.000329
0.000589
0.000375
0.000277
0.000297
0.000268
0.000263
0.000265
0.000336
0.000285
0.000231
0.000253
0.000267
0.000291
0.000503
0.000058
0.000250
0.000464
0.000271
0.000265
0.000251
0.000225
0.000230
0.000245
0.000256
0.000316
0.001467
0.000217
0.000224
0.000249
0.000243
0.000290
0.000273
0.000239
0.000261
0.000272
0.000280
0.000495
0.000432
0.000279
0.000271
0.000288
0.000268
0.000259
0.000230
0.000313
0.000161
0.000057
0.000205
0.000243
0.000264
0.000469
0.000397
0.000247
0.000223
0.000249
0.000253
0.000250
0.000232
0.000275
0.000234
0.000269
0.000241
0.000256
0.000427
0.001167
0.000235
0.000253
0.000270
0.000253
0.000354
0.000408
0.000262
0.000377
0.000572
0.000300
0.000390
0.000224
0.000188
0.000057
0.000229
0.000246
0.000261
0.000264
0.000255
0.000244
0.000379
0.000370
0.000450
0.000292
0.000341
0.000393
0.000382
0.000360
0.000244
0.000254
0.000242
0.000327
0.000312
0.001458
0.000286
0.000229
0.000272
0.000269
0.000237
0.000244
0.000253
0.000356
0.000417
0.000499
0.000150
0.000056
0.000219
0.000234
0.000251
0.000248
0.000238
0.000249
0.000233
0.000260
0.000364
0.000383
0.000361
0.000366
0.000231
0.000239
0.000267
0.000238
0.000248
0.000259
0.000264
0.000251
0.000444
0.000264
0.000471
0.000331
0.000293
0.000258
0.000267
0.000270
0.000250
0.000340
0.000148
0.000056
0.000305
0.000322
0.000448
0.000381
0.000280
0.000364
0.000256
0.000252
0.000238
0.000276
0.000255
0.000261
0.000235
0.000252
0.000244
0.000229
0.000283
0.000345
0.000533
0.000310
0.000223
0.000271
0.000248
0.000264
0.000244
0.000280
0.000274
0.000260
0.000283
0.000260
0.000374
0.000056
0.000249
0.000293
0.000230
0.000251
0.000243
0.000267
0.000226
0.000250
0.000280
0.000246
0.000252
0.000234
0.000398
0.000378
0.000439
0.000312
0.000222
0.000246
0.000258
0.000292
0.000228
0.000265
0.000260
0.000262
0.000273
0.000377
0.000369
0.000575
0.000408
0.000244
0.000172
0.000056
0.000399
0.000208
0.000222
0.000247
0.000249
0.000249
0.000239
0.000254
0.000255
0.000255
0.000223
0.000248
0.000269
0.000229
0.000238
0.000266
0.000256
0.000260
0.000274
0.000258
0.000262
0.000261
0.000266
0.000263
0.000269
0.000235
0.000267
0.000278
0.000255
0.000278
0.000196
0.000060
0.000188
0.000237
0.000249
0.000249
0.000229
0.000255
0.000265
0.000236
0.000261
0.000278
0.000225
0.000236
0.000258
0.000401
0.000255
0.000275
0.000261
0.000262
0.000257
0.000279
0.000275
0.000239
0.000238
0.000251
0.000277
0.000272
0.000257
0.000245
0.000277
0.000255
0.000208
0.000058
0.000251
0.000329
0.000369
0.000276
0.000304
0.000253
0.000279
0.000244
0.000228
0.000244
0.000250
0.000262
0.000251
0.000240
0.000272
0.000242
0.000261
0.000274
0.000242
0.000266
0.000271
0.000262
0.000282
0.000255
0.000271
0.000250
0.000262
0.000266
0.000271
0.000258
0.000196
0.000056
0.000209
0.000234
0.000262
0.000260
0.000491
0.000212
0.000207
0.000247
0.000330
0.000456
0.000437
0.000280
0.000232
0.000247
0.000263
0.000267
0.000237
0.000273
0.000257
0.000266
0.000267
0.000255
0.000261
0.000309
0.000728
0.000261
0.000281
0.000301
0.000261
0.000261
0.000191
0.000056
0.000196
0.000218
0.000253
0.000243
0.000303
0.000692
0.000316
0.000355
0.000212
0.000254
0.000246
0.000253
0.000252
0.000249
0.000259
0.000273
0.000255
0.000291
0.000655
0.000360
0.000263
0.000248
0.000258
0.000282
0.000284
0.000251
0.000263
0.000269
0.000248
0.000337
0.000387
0.000058
0.000179
0.000231
0.000242
0.000235
0.000251
0.000254
0.000228
0.000249
0.000243
0.000260
0.000247
0.000247
0.000275
0.000426
0.000634
0.000257
0.000247
0.000258
0.000264
0.000262
0.000253
0.000269
0.000488
0.000217
0.000268
0.000695
0.000335
0.000468
0.000254
0.000251
0.000183
0.000056
0.000223
0.000228
0.000247
0.000235
0.000257
0.000261
0.000365
0.000396
0.000573
0.000411
0.000217
0.000259
0.000279
0.000278
0.000255
0.000245
0.000234
0.000254
0.000291
0.000405
0.000283
0.000655
0.000362
0.000259
0.000364
0.000371
0.000486
0.000237
0.000274
0.000605
0.000262
0.000058
0.000254
0.000232
0.000434
0.000225
0.000236
0.000253
0.000259
0.000258
0.000230
0.000242
0.000412
0.000259
0.000396
0.000308
0.000247
0.000234
0.000259
0.000254
0.000265
0.000271
0.000277
0.000247
0.000255
0.000274
0.000327
0.000445
0.000511
0.000235
0.000262
0.000267
0.000200
0.000055
0.000206
0.000250
0.000228
0.000242
0.000250
0.000362
0.000303
0.000515
0.000298
0.000270
0.000360
0.000227
0.000245
0.000268
0.000252
0.000238
0.000257
0.000261
0.000366
0.000309
0.000539
0.000282
0.000478
0.000281
0.000429
0.000387
0.000376
0.000238
0.000252
0.000345
0.000434
0.000057
0.000227
0.000263
0.000207
0.000253
0.000277
0.000237
0.000250
0.000247
0.000254
0.000258
0.000238
0.000360
0.000455
0.000383
0.000361
0.000230
0.000255
0.000266
0.000269
0.000232
0.000248
0.000258
0.000262
0.000275
0.000280
0.000316
0.000673
0.000303
0.000237
0.000285
0.000187
0.000056
0.000207
0.000243
0.000259
0.000261
0.000238
0.000337
0.000519
0.000581
0.000234
0.000686
0.000269
0.000212
0.000248
0.000262
0.000244
0.000268
0.000275
0.000272
0.000467
0.000552
0.001390
0.000311
0.000251
0.000265
0.000292
0.000274
0.000379
0.000408
0.000429
0.000256
0.000169
0.000058
0.000193
0.000230
0.000245
0.000245
0.000236
0.000259
0.000274
0.000250
0.000244
0.000344
0.000326
0.000381
0.000270
0.000370
0.000353
0.000341
0.000243
0.000250
0.000270
0.000259
0.000240
0.000252
0.000284
0.000246
0.000318
0.000436
0.000452
0.000286
0.000245
0.000267
0.000184
0.000057
0.000210
0.000251
0.000254
0.000252
0.000241
0.000236
0.000470
0.000211
0.000239
0.000256
0.000245
0.000251
0.000260
0.000252
0.000253
0.000267
0.000261
0.000264
0.000269
0.000256
0.000260
0.000289
0.000293
0.000247
0.000261
0.000280
0.000266
0.000269
0.000261
0.000272
0.000170
0.000056
0.000191
0.000249
0.000292
0.000471
0.000335
0.000242
0.000228
0.000269
0.000243
0.000248
0.000257
0.000247
0.000262
0.000266
0.000235
0.000242
0.000246
0.000273
0.000306
0.000370
0.000496
0.000291
0.000223
0.000262
0.000273
0.000248
0.000267
0.000250
0.000271
0.000283
0.000193
0.000056
0.000395
0.000390
0.000361
0.000239
0.000239
0.000249
0.000414
0.000220
0.000233
0.000260
0.000253
0.000331
0.000355
0.000413
0.001857
0.000249
0.000242
0.000253
0.000273
0.000243
0.000295
0.000555
0.000615
0.000230
0.000235
0.000253
0.000275
0.000428
0.000277
0.000277
0.000165
0.000055
0.000194
0.000359
0.000312
0.000342
0.000496
0.000224
0.000221
0.000253
0.000267
0.000225
0.000258
0.000248
0.000262
0.000382
0.000327
0.000500
0.000213
0.000252
0.000262
0.000276
0.000241
0.000322
0.000230
0.000279
0.000280
0.000594
0.000482
0.000338
0.000387
0.000246
0.000206
0.000056
0.000225
0.000229
0.000254
0.000229
0.000250
0.000254
0.000269
0.000274
0.000349
0.000503
0.000287
0.000364
0.000210
0.000257
0.000272
0.000276
0.000297
0.000243
0.000276
0.000271
0.000236
0.000333
0.000525
0.000290
0.000273
0.000260
0.000267
0.000437
0.000416
0.000317
0.000172
0.000057
0.000193
0.000338
0.000441
0.000199
0.000403
0.000201
0.000242
0.000255
0.000263
0.000252
0.000262
0.000252
0.000232
0.000258
0.000254
0.000411
0.000299
0.000344
0.000297
0.000330
0.000501
0.000226
0.000281
0.000283
0.000300
0.000280
0.000255
0.000274
0.000485
0.000461
0.000224
0.000057
0.000217
0.000231
0.000246
0.000253
0.000242
0.000477
0.000216
0.000253
0.000269
0.000416
0.000447
0.000544
0.000213
0.000242
0.000241
0.000247
0.000270
0.000229
0.000268
0.000248
0.000261
0.000269
0.000402
0.000428
0.000328
0.000389
0.000293
0.000340
0.000276
0.000280
0.000157
0.000057
0.000232
0.000216
0.000411
0.000346
0.000327
0.000273
0.000272
0.000232
0.000229
0.000259
0.000253
0.000248
0.000254
0.000262
0.000248
0.000264
0.000245
0.000242
0.000346
0.000416
0.000496
0.000298
0.000236
0.000241
0.000281
0.000296
0.000242
0.000261
0.000266
0.000269
0.000183
0.000056
0.000252
0.000374
0.000448
0.000240
0.000220
0.000253
0.000330
0.000460
0.000273
0.000215
0.000244
0.000272
0.000283
0.000463
0.000380
0.000317
0.000207
0.000243
0.000253
0.000272
0.000267
0.000268
0.000258
0.000270
0.000269
0.000354
0.000532
0.000238
0.000293
0.000250
0.000180
0.000056
0.000213
0.000244
0.000246
0.000258
0.000242
0.000265
0.000241
0.000251
0.000249
0.000248
0.000266
0.000238
0.000261
0.001454
0.000244
0.000251
0.000250
0.000249
0.000275
0.000277
0.000261
0.000239
0.000274
0.000259
0.000266
0.000268
0.000270
0.000274
0.000255
0.000290
0.000177
0.000057
0.000203
0.000224
0.000258
0.000246
0.000237
0.000247
0.000259
0.000259
0.000228
0.000246
0.000248
0.000262
0.000259
0.000255
0.000254
0.000265
0.000237
0.000265
0.000272
0.000253
0.000262
0.000255
0.000244
0.000258
0.001284
0.000289
0.000642
0.000407
0.000286
0.000248
0.000188
0.000056
0.000192
0.000236
0.000244
0.000250
0.000412
0.000236
0.000241
0.000246
0.000257
0.000417
0.000421
0.000306
0.000235
0.000231
0.000268
0.000261
0.000259
0.000257
0.000249
0.000258
0.000259
0.000256
0.000328
0.000415
0.000491
0.000413
0.000219
0.000269
0.001371
0.000244
0.000175
0.000057
0.000302
0.000402
0.000313
0.000270
0.000218
0.000231
0.000235
0.000248
0.000261
0.000256
0.000247
0.000263
0.000296
0.000432
0.000480
0.000282
0.000318
0.000231
0.000247
0.000255
0.000271
0.000261
0.000271
0.000266
0.000267
0.000262
0.000488
0.000416
0.000361
0.000366
0.000142
0.000057
0.000204
0.000235
0.001259
0.000431
0.000393
0.000416
0.000312
0.000508
0.000266
0.000336
0.000229
0.000223
0.000264
0.000250
0.000252
0.000264
0.000309
0.000573
0.000365
0.000356
0.000252
0.000254
0.000250
0.000509
0.000232
0.000269
0.000252
0.000283
0.000381
0.000540
0.000216
0.000057
0.000390
0.000333
0.000191
0.000234
0.001648
0.000364
0.000313
0.000243
0.000253
0.000249
0.000240
0.000227
0.000245
0.000271
0.000250
0.000263
0.000235
0.000389
0.000366
0.000519
0.000246
0.000243
0.000255
0.000257
0.000259
0.000274
0.000267
0.000240
0.000262
0.000276
0.000240
0.000057
0.000361
0.000338
0.000225
0.000233
0.000249
0.000241
0.000268
0.000230
0.000229
0.000229
0.001575
0.000352
0.000233
0.000236
0.000237
0.000253
0.000277
0.000260
0.000236
0.000274
0.000274
0.000251
0.000298
0.000395
0.000399
0.000455
0.000237
0.000268
0.000273
0.000283
0.000168
0.000055
0.000216
0.000410
0.000223
0.000245
0.000364
0.000426
0.000356
0.000320
0.000462
0.000205
0.000231
0.000269
0.000246
0.000263
0.000258
0.001553
0.000220
0.000284
0.000254
0.000263
0.000280
0.000244
0.000254
0.000252
0.000264
0.000280
0.000473
0.000401
0.000299
0.000278
0.000153
0.000057
0.000224
0.000228
0.000253
0.000238
0.000235
0.000254
0.000241
0.000249
0.000274
0.000428
0.000382
0.000283
0.000266
0.000238
0.000249
0.000270
0.000277
0.000259
0.000285
0.000212
0.000253
0.000362
0.001209
0.000277
0.000242
0.000240
0.000272
0.000254
0.000260
0.000263
0.000187
0.000055
0.000267
0.000294
0.000378
0.000333
0.000248
0.000238
0.000260
0.000258
0.000258
0.000248
0.000253
0.000273
0.000240
0.000250
0.000260
0.000258
0.000271
0.000266
0.000262
0.000252
0.000252
0.000286
0.000250
0.000282
0.000288
0.000267
0.000265
0.000256
0.000265
0.000441
0.001365
0.000073
0.000195
0.000232
0.000234
0.000245
0.000252
0.000261
0.000246
0.000228
0.000246
0.000251
0.000272
0.000251
0.000256
0.000240
0.000248
0.000243
0.001733
0.000259
0.000241
0.000262
0.000247
0.000260
0.000269
0.000261
0.000272
0.000272
0.000258
0.000281
0.000268
0.000253
0.000227
0.000055
0.000336
0.000306
0.001252
0.000229
0.000227
0.000242
0.000262
0.000250
0.000255
0.000252
0.000236
0.000410
0.000370
0.000425
0.000261
0.000226
0.000250
0.000253
0.000260
0.000260
0.000247
0.000274
0.000263
0.000283
0.000264
0.000449
0.000312
0.000358
0.000318
0.000246
0.000184
0.000055
0.000229
0.000246
0.000240
0.000250
0.000251
0.000217
0.000246
0.000264
0.000461
0.001294
0.000262
0.000211
0.000247
0.000271
0.000248
0.000274
0.000260
0.000250
0.000319
0.000451
0.000378
0.000234
0.000229
0.000248
0.000280
0.000287
0.000256
0.000295
0.000273
0.000271
0.000191
0.000055
0.000251
0.000411
0.000391
0.000216
0.000234
0.000238
0.000245
0.000275
0.000266
0.000247
0.000232
0.000252
0.000448
0.000549
0.000443
0.001442
0.000251
0.000274
0.000320
0.000347
0.000509
0.000444
0.000408
0.000404
0.000231
0.000266
0.000268
0.000275
0.000263
0.000271
0.000192
0.000056
0.000208
0.000339
0.000446
0.000379
0.000372
0.000237
0.000245
0.000231
0.000252
0.000255
0.000252
0.000262
0.000268
0.000234
0.000276
0.000328
0.000385
0.000382
0.000357
0.001325
0.000264
0.000253
0.000254
0.000268
0.000471
0.000447
0.000348
0.000269
0.000269
0.000276
0.000184
0.000055
0.000193
0.000259
0.000227
0.000242
0.000245
0.000369
0.000378
0.000383
0.000349
0.000230
0.000242
0.000258
0.000269
0.000262
0.000257
0.000282
0.000245
0.000258
0.000276
0.000272
0.000480
0.000397
0.000330
0.001340
0.000431
0.000226
0.000274
0.000484
0.000475
0.000244
0.000327
0.000056
0.000206
0.000229
0.000250
0.000247
0.000251
0.000253
0.001693
0.000226
0.000212
0.000247
0.000257
0.000248
0.000257
0.000330
0.000322
0.000283
0.000294
0.000332
0.000522
0.000331
0.000315
0.000278
0.000230
0.001416
0.000369
0.000453
0.000312
0.000435
0.000322
0.000284
0.000168
0.000055
0.000233
0.000245
0.000251
0.000261
0.000244
0.000255
0.001710
0.000245
0.000234
0.000265
0.000331
0.000417
0.001432
0.000352
0.000395
0.000244
0.000261
0.000236
0.000267
0.000272
0.001551
0.000562
0.000372
0.000294
0.000250
0.000251
0.000261
0.000276
0.000253
0.000248
0.000200
0.000055
0.000223
0.000228
0.000286
0.000226
0.000258
0.000303
0.000254
0.000266
0.000247
0.000251
0.000254
0.000242
0.000268
0.000266
0.000252
0.001497
0.000286
0.000226
0.000264
0.000278
0.000271
0.000273
0.000420
0.001257
0.000275
0.000243
0.000274
0.000254
0.000392
0.000249
0.000200
0.000056
0.000205
0.000248
0.000222
0.000245
0.000241
0.000237
0.000237
0.001689
0.000246
0.000223
0.000262
0.000365
0.000226
0.000225
0.000254
0.001378
0.000237
0.000269
0.000264
0.000247
0.000255
0.000359
0.000272
0.001305
0.000283
0.000256
0.000255
0.000263
0.001386
0.000272
0.000207
0.000055
0.000305
0.000306
0.000222
0.000218
0.000251
0.000239
0.000265
0.000270
0.000265
0.000246
0.000261
0.000265
0.000254
0.000249
0.000323
0.001479
0.000251
0.000274
0.000255
0.000241
0.000285
0.000266
0.000252
0.001482
0.000368
0.000240
0.000267
0.001269
0.000277
0.000240
0.000275
0.000056
0.000210
0.000467
0.000259
0.000214
0.000237
0.000239
0.000265
0.000255
0.000265
0.000271
0.000239
0.000249
0.000264
0.000269
0.000417
0.001223
0.000236
0.000247
0.000266
0.000275
0.000226
0.000243
0.000248
0.000398
0.001203
0.000260
0.000247
0.000256
0.000259
0.001341
0.000372
0.000056
0.000208
0.000251
0.000235
0.000230
0.000247
0.000250
0.000241
0.000252
0.000273
0.000250
0.000240
0.000250
0.000323
0.000298
0.000391
0.001455
0.000223
0.000247
0.000301
0.000508
0.000283
0.000355
0.001385
0.000296
0.000248
0.000272
0.000251
0.001305
0.000325
0.000490
0.000364
0.000056
0.000245
0.000229
0.000257
0.000253
0.000255
0.000248
0.000271
0.000252
0.000261
0.000296
0.000295
0.000461
0.001331
0.000235
0.000261
0.000256
0.000284
0.000241
0.000241
0.000255
0.000330
0.001224
0.000279
0.000226
0.000256
0.000255
0.001489
0.000484
0.000469
0.000197
0.000187
0.000056
0.000208
0.000229
0.000248
0.000234
0.000258
0.000266
0.000239
0.000272
0.000569
0.000333
0.000260
0.001498
0.000222
0.000232
0.000269
0.000249
0.000265
0.000413
0.001560
0.000270
0.000395
0.000318
0.001321
0.000389
0.000256
0.000303
0.000261
0.000263
0.000260
0.000271
0.000192
0.000057
0.000214
0.000238
0.000329
0.000272
0.000303
0.000562
0.000250
0.000290
0.001475
0.000237
0.000379
0.000269
0.000254
0.000285
0.000383
0.001308
0.000276
0.000246
0.000236
0.000257
0.001711
0.000184
0.000302
0.000256
0.000270
0.000252
0.000462
0.000328
0.000235
0.000251
0.000257
0.000055
0.000269
0.000365
0.000345
0.000215
0.000218
0.001537
0.000202
0.000256
0.000264
0.000273
0.000265
0.000245
0.000298
0.001482
0.000264
0.000227
0.000451
0.001174
0.000588
0.000193
0.000404
0.000236
0.000238
0.000253
0.000280
0.000240
0.000450
0.000232
0.000268
0.000270
0.000203
0.000056
0.000204
0.000264
0.000383
0.000365
0.001262
0.000283
0.000306
0.000236
0.000253
0.000239
0.000248
0.000370
0.001455
0.000249
0.000226
0.000263
0.001360
0.000337
0.000437
0.000408
0.000350
0.000224
0.000257
0.000250
0.000266
0.000277
0.000275
0.000254
0.000268
0.000250
0.000218
0.000056
0.000246
0.000384
0.001445
0.000207
0.000273
0.000277
0.000237
0.000252
0.000263
0.000395
0.001377
0.000218
0.000250
0.000261
0.000267
0.001289
0.000691
0.000285
0.000328
0.000405
0.000287
0.000246
0.000267
0.000257
0.000268
0.000292
0.000276
0.000296
0.000583
0.000282
0.001388
0.000056
0.000189
0.000242
0.000243
0.000224
0.000330
0.000344
0.000518
0.001260
0.000222
0.000248
0.000250
0.001397
0.000583
0.000214
0.000218
0.000407
0.000249
0.000255
0.000261
0.000277
0.000243
0.000269
0.000282
0.000256
0.000252
0.000334
0.000404
0.000493
0.001478
0.000221
0.000190
0.000057
0.000203
0.000252
0.000467
0.000510
0.001147
0.000282
0.000252
0.000262
0.000244
0.000249
0.000253
0.000299
0.000367
0.000480
0.000311
0.000239
0.000254
0.000274
0.000257
0.000264
0.000256
0.000279
0.000245
0.000269
0.000251
0.000463
0.000495
0.000271
0.000314
0.001411
0.000188
0.000055
0.000210
0.000243
0.000285
0.000458
0.000385
0.000245
0.000319
0.000332
0.000268
0.000292
0.000225
0.000263
0.000270
0.000290
0.000231
0.000312
0.000632
0.000219
0.000299
0.000384
0.000274
0.000405
0.000224
0.000266
0.000249
0.000265
0.000247
0.000303
0.000568
0.000290
0.000276
0.000057
0.000205
0.001413
0.000229
0.000336
0.000399
0.000500
0.000356
0.000257
0.000219
0.000241
0.000265
0.000250
0.000261
0.000278
0.000254
0.000256
0.000260
0.001308
0.000307
0.000262
0.000255
0.000270
0.000273
0.000279
0.000270
0.000252
0.000277
0.000246
0.000386
0.000364
0.000339
0.000055
0.000212
0.000259
0.000222
0.001486
0.000332
0.000231
0.000235
0.000258
0.000220
0.000247
0.000252
0.000273
0.000248
0.000252
0.000285
0.000233
0.000268
0.000248
0.000264
0.000265
0.001421
0.000236
0.000243
0.000269
0.000265
0.000247
0.000268
0.000280
0.000256
0.000490
0.000343
0.000055
0.000212
0.000226
0.000397
0.000280
0.000248
0.000258
0.001577
0.000351
0.000250
0.000219
0.000280
0.000286
0.000332
0.000237
0.000226
0.000252
0.000246
0.000259
0.000262
0.000262
0.000605
0.000387
0.001111
0.000271
0.000245
0.000258
0.000268
0.000265
0.000263
0.000285
0.000376
0.000057
0.000228
0.000339
0.000214
0.000234
0.000252
0.000243
0.000241
0.000228
0.000288
0.001606
0.000365
0.000287
0.000248
0.000250
0.000256
0.000243
0.000262
0.000277
0.000273
0.000296
0.000432
0.000471
0.000349
0.001351
0.000243
0.000258
0.000278
0.000258
0.000270
0.000366
0.000422
0.000056
0.000277
0.000238
0.000235
0.000243
0.000223
0.000243
0.000263
0.000250
0.000267
0.001629
0.000296
0.000259
0.000261
0.000261
0.000457
0.000268
0.000526
0.000374
0.000295
0.000357
0.000424
0.000456
0.001264
0.000266
0.000240
0.000248
0.001717
0.000460
0.000598
0.000323
0.000143
0.000056
0.000213
0.000234
0.000233
0.000237
0.000255
0.000245
0.000247
0.000551
0.000518
0.000342
0.000298
0.000214
0.000239
0.000262
0.000266
0.000260
0.000244
0.000257
0.000254
0.000274
0.000382
0.000459
0.001187
0.000230
0.000248
0.000274
0.001903
0.000369
0.000380
0.000355
0.000155
0.000056
0.000255
0.000237
0.000244
0.001676
0.000316
0.000215
0.000235
0.000260
0.000256
0.000286
0.000378
0.000369
0.000359
0.000272
0.000354
0.000535
0.000336
0.001186
0.000273
0.000223
0.000263
0.000259
0.000274
0.000489
0.000587
0.000402
0.000252
0.000271
0.000265
0.000282
0.000194
0.000055
0.000191
0.000238
0.000236
0.001552
0.000242
0.000235
0.000239
0.000251
0.000244
0.000253
0.000253
0.000267
0.000271
0.000268
0.000288
0.000411
0.000434
0.000311
0.001356
0.000237
0.000260
0.000259
0.000260
0.000316
0.000292
0.000587
0.000376
0.000270
0.000280
0.000232
0.000450
0.000058
0.000190
0.000240
0.000253
0.001595
0.000243
0.000222
0.000269
0.000246
0.000254
0.000252
0.000254
0.000251
0.000262
0.000278
0.000359
0.000599
0.001312
0.000750
0.000263
0.000335
0.000255
0.000238
0.000246
0.000273
0.001685
0.000796
0.000233
0.000266
0.000278
0.000283
0.000187
0.000056
0.000217
0.000214
0.000254
0.000238
0.000257
0.000246
0.000245
0.000255
0.000241
0.000229
0.000289
0.000281
0.000252
0.000248
0.000267
0.000246
0.000291
0.001572
0.000754
0.000379
0.000272
0.000229
0.000244
0.000283
0.000270
0.000251
0.000278
0.000253
0.001390
0.000414
0.000287
0.000056
0.000201
0.000230
0.000248
0.000251
0.000262
0.000233
0.000253
0.000250
0.000252
0.000267
0.000301
0.000403
0.000425
0.000340
0.000211
0.000241
0.000279
0.001375
0.000716
0.000482
0.000318
0.000257
0.000235
0.000244
0.000290
0.000233
0.000261
0.000267
0.001513
0.000440
0.000158
0.000056
0.000190
0.000233
0.000245
0.000245
0.000250
0.000248
0.000240
0.000249
0.000272
0.000344
0.000348
0.000285
0.000360
0.000215
0.000241
0.000247
0.000266
0.000274
0.001632
0.000589
0.000431
0.000316
0.000221
0.000267
0.000259
0.000278
0.000249
0.000277
0.000273
0.001463
0.000218
0.000056
0.000200
0.000216
0.000236
0.000254
0.000253
0.000244
0.000267
0.000295
0.000360
0.000610
0.000226
0.000360
0.000352
0.000227
0.000248
0.000246
0.000283
0.000249
0.000269
0.001898
0.000346
0.000249
0.000441
0.000247
0.000241
0.000269
0.000273
0.000254
0.000271
0.000273
0.000424
0.000055
0.000254
0.000226
0.000230
0.000245
0.000254
0.000248
0.000222
0.000243
0.000290
0.000229
0.000240
0.000247
0.000404
0.000453
0.000363
0.000414
0.000224
0.000265
0.000249
0.000252
0.000255
0.000310
0.001444
0.001056
0.000225
0.000249
0.000272
0.000261
0.000277
0.000265
0.000185
0.000057
0.000203
0.001335
0.000293
0.000219
0.000235
0.000255
0.000250
0.000239
0.000240
0.000252
0.000254
0.000261
0.000309
0.000386
0.000304
0.000464
0.000263
0.000247
0.000267
0.000264
0.000273
0.000225
0.000263
0.000266
0.001314
0.000691
0.000312
0.000378
0.000424
0.000356
0.000296
0.000058
0.000212
0.000323
0.001330
0.000259
0.000215
0.000250
0.000245
0.000245
0.000258
0.000253
0.000265
0.000234
0.000295
0.000350
0.000562
0.000282
0.000224
0.000277
0.000337
0.000212
0.000249
0.000271
0.000233
0.000272
0.000269
0.001538
0.000740
0.000296
0.000272
0.000278
0.000192
0.000057
0.000222
0.000366
0.000341
0.000330
0.001290
0.000229
0.000244
0.000245
0.000229
0.000246
0.000248
0.000274
0.000213
0.000236
0.000259
0.000254
0.000270
0.000234
0.000257
0.000257
0.000264
0.000268
0.000300
0.000335
0.000216
0.000268
0.000261
0.001465
0.000262
0.000239
0.000178
0.000056
0.000205
0.000231
0.000249
0.000310
0.000361
0.000338
0.000387
0.000267
0.001570
0.000247
0.000277
0.000487
0.000391
0.000214
0.000427
0.000238
0.000242
0.000258
0.000274
0.000269
0.000282
0.000262
0.000258
0.000270
0.000267
0.000412
0.000393
0.000326
0.001571
0.000217
0.000197
0.000058
0.000216
0.000236
0.000270
0.000227
0.000237
0.000250
0.000261
0.000275
0.000432
0.002052
0.000231
0.000240
0.000254
0.000257
0.000265
0.000247
0.000277
0.000250
0.000362
0.000329
0.000381
0.000453
0.001444
0.000254
0.000524
0.000237
0.001767
0.000241
0.000260
0.001526
0.000164
0.000055
0.000340
0.000454
0.000426
0.000220
0.000265
0.000242
0.000246
0.000266
0.000263
0.000228
0.000251
0.000386
0.000387
0.000387
0.000366
0.000252
0.000232
0.001559
0.000246
0.000589
0.001858
0.000287
0.000245
0.001600
0.001961
0.000739
0.000279
0.000314
0.000220
0.000542
0.000330
0.000055
0.000221
0.000243
0.000242
0.000250
0.001418
0.001727
0.001086
0.000208
0.000247
0.001567
0.001976
0.000224
0.000226
0.000425
0.000290
0.000374
0.000423
0.000471
0.000204
0.000246
0.000249
0.000257
0.000290
0.001697
0.001079
0.001438
0.000264
0.000307
0.000245
0.000340
0.000404
0.000055
0.000215
0.000228
0.000243
0.000240
0.000231
0.000243
0.000246
0.000252
0.000262
0.000245
0.000245
0.000504
0.000305
0.000411
0.000265
0.000265
0.000257
0.000262
0.000268
0.000270
0.000249
0.000268
0.001563
0.000427
0.002115
0.000223
0.000276
0.000318
0.000501
0.000333
0.000188
0.000056
0.000232
0.000415
0.000389
0.000307
0.000190
0.000230
0.000259
0.000241
0.000239
0.000242
0.000250
0.000264
0.000285
0.001585
0.001355
0.001223
0.000278
0.000233
0.000248
0.000275
0.000284
0.000279
0.000237
0.000253
0.002212
0.000248
0.000249
0.000297
0.000322
0.000306
0.000216
0.000056
0.000233
0.000363
0.000540
0.000309
0.000252
0.000221
0.000246
0.000270
0.001900
0.001425
0.000215
0.000337
0.000385
0.000407
0.000251
0.000229
0.000256
0.000267
0.000267
0.000263
0.000256
0.000262
0.000476
0.000230
0.000275
0.000262
0.000253
0.000273
0.000280
0.000249
0.000205
0.000055
0.000189
0.000249
0.000244
0.000248
0.000247
0.000272
0.001599
0.001357
0.001330
0.000248
0.000221
0.000244
0.000267
0.000262
0.000258
0.000238
0.000252
0.002102
0.000259
0.000230
0.000264
0.000264
0.000249
0.000270
0.000267
0.000255
0.000269
0.000261
0.000276
0.000248
0.000175
0.000056
0.000206
0.002685
0.001393
0.000219
0.000307
0.000296
0.000232
0.000263
0.000258
0.000240
0.000256
0.000246
0.000233
0.000249
0.000268
0.000262
0.000263
0.000279
0.000244
0.000265
0.000267
0.000287
0.000273
0.000259
0.000247
0.000245
0.000266
0.000266
0.000264
0.000267
0.000369
0.000055
0.001537
0.000257
0.001240
0.000224
0.000226
0.000239
0.000263
0.000252
0.000245
0.000402
0.000337
0.000320
0.000305
0.000216
0.000251
0.002142
0.000256
0.000232
0.000275
0.000520
0.000410
0.000250
0.000223
0.000260
0.000261
0.000249
0.000265
0.000281
0.000269
0.001634
0.001234
0.000058
0.000216
0.000219
0.000342
0.000386
0.000339
0.000263
0.000214
0.000233
0.000249
0.000256
0.000268
0.000245
0.000228
0.000271
0.000249
0.000236
0.000375
0.000575
0.000350
0.000250
0.000226
0.000268
0.000284
0.000253
0.000250
0.000252
0.000262
0.000276
0.000239
0.000372
0.000358
0.000057
0.001129
0.000245
0.000361
0.000420
0.000287
0.000230
0.000225
0.000244
0.000250
0.002393
0.000259
0.000393
0.000224
0.000374
0.000279
0.000262
0.000263
0.000259
0.000266
0.000226
0.000250
0.000431
0.000573
0.000334
0.001861
0.001340
0.000570
0.000471
0.000224
0.000282
0.000199
0.000058
0.000231
0.000343
0.000240
0.000247
0.000249
0.000222
0.000256
0.000256
0.000258
0.000249
0.000253
0.000224
0.000254
0.000317
0.000325
0.000513
0.001833
0.001406
0.000384
0.000416
0.000464
0.000243
0.000237
0.000262
0.002155
0.000530
0.000385
0.000234
0.000273
0.000282
0.000194
0.000055
0.000215
0.000239
0.000254
0.000244
0.000283
0.000393
0.000324
0.000297
0.000310
0.000246
0.000244
0.000248
0.000263
0.002185
0.000411
0.000260
0.000223
0.000250
0.000265
0.000261
0.000247
0.002493
0.000301
0.000236
0.000249
0.000256
0.000253
0.000272
0.000281
0.000280
0.000188
0.000055
0.000217
0.000301
0.000643
0.000303
0.000266
0.000233
0.000216
0.000257
0.000259
0.000254
0.002054
0.000284
0.000275
0.000296
0.000223
0.000263
0.000274
0.000236
0.002243
0.000413
0.000220
0.000273
0.000272
0.000255
0.000252
0.000253
0.000280
0.000258
0.000264
0.000260
0.000184
0.000057
0.000196
0.000243
0.000253
0.000219
0.000252
0.000254
0.000235
0.000241
0.000235
0.002182
0.000220
0.000290
0.000220
0.000419
0.000233
0.000252
0.000275
0.000286
0.000240
0.000270
0.001959
0.000294
0.000376
0.000375
0.000389
0.000392
0.000307
0.000252
0.000251
0.000258
0.000199
0.000058
0.000204
0.000242
0.000233
0.000246
0.000254
0.000328
0.000218
0.002307
0.000233
0.000236
0.000261
0.000256
0.000241
0.000249
0.000304
0.002123
0.000596
0.000227
0.000250
0.000246
0.000253
0.000260
0.000291
0.000265
0.000260
0.000259
0.000281
0.000258
0.000265
0.000268
0.000186
0.000055
0.001809
0.001454
0.000193
0.000229
0.000243
0.000253
0.000256
0.000362
0.000339
0.000441
0.002051
0.000262
0.000235
0.000262
0.000412
0.000336
0.000446
0.000288
0.000243
0.000238
0.000251
0.000266
0.000268
0.000222
0.000258
0.000267
0.000269
0.000270
0.000343
0.000704
0.000239
0.000056
0.000204
0.000251
0.000242
0.000271
0.000258
0.000263
0.000238
0.000243
0.001596
0.001999
0.000585
0.000290
0.000421
0.000680
0.000337
0.000238
0.000249
0.000250
0.000266
0.000256
0.000257
0.000244
0.000257
0.000268
0.001817
0.001467
0.000285
0.000273
0.000297
0.000342
0.000359
0.000055
0.001950
0.000223
0.000222
0.000244
0.000314
0.000427
0.000343
0.000323
0.000276
0.000221
0.000246
0.000250
0.000261
0.000256
0.000261
0.000260
0.000252
0.000269
0.001840
0.000242
0.000232
0.000252
0.000296
0.000260
0.000272
0.000267
0.001443
0.000346
0.000244
0.000262
0.000173
0.000056
0.000197
0.000261
0.000218
0.000243
0.000249
0.000244
0.000339
0.000326
0.000467
0.000260
0.000220
0.000235
0.000263
0.000399
0.000363
0.000304
0.000229
0.000248
0.000275
0.000481
0.000349
0.000407
0.000279
0.000253
0.000255
0.000258
0.000249
0.000274
0.000296
0.000243
0.000204
0.000057
0.001409
0.000431
0.000228
0.001939
0.000278
0.000539
0.000311
0.000318
0.000238
0.000237
0.000270
0.000243
0.000243
0.000251
0.000266
0.000250
0.000464
0.000333
0.000323
0.000401
0.000354
0.000229
0.000257
0.000266
0.000275
0.000271
0.000259
0.000323
0.000329
0.000542
0.001268
0.000056
0.000210
0.000225
0.002073
0.000370
0.000236
0.000261
0.000261
0.000249
0.000260
0.000255
0.000221
0.000249
0.000258
0.000262
0.000332
0.000358
0.000637
0.001760
0.000231
0.000263
0.000242
0.000294
0.000370
0.000431
0.001565
0.000285
0.000363
0.001918
0.000273
0.000250
0.000190
0.000056
0.000186
0.000230
0.000238
0.000240
0.000229
0.000249
0.000255
0.000282
0.000328
0.000278
0.000383
0.000361
0.000331
0.000301
0.000234
0.000268
0.000264
0.000236
0.000270
0.000252
0.000298
0.000304
0.000250
0.000270
0.000260
0.001507
0.000293
0.000397
0.002058
0.000236
0.000176
0.000056
0.000211
0.000240
0.000239
0.000247
0.000483
0.000200
0.000267
0.000333
0.000354
0.000334
0.000291
0.000210
0.000268
0.000261
0.000272
0.000324
0.000412
0.000439
0.000246
0.000406
0.000552
0.000608
0.001396
0.000230
0.000265
0.002041
0.000264
0.000252
0.000240
0.000295
0.000185
0.000056
0.000219
0.000239
0.000223
0.000243
0.000252
0.000280
0.000241
0.000268
0.000275
0.000243
0.001794
0.000339
0.000376
0.000313
0.000428
0.000384
0.000369
0.001464
0.000237
0.000326
0.002192
0.000441
0.000264
0.000239
0.000266
0.000265
0.000504
0.000227
0.000253
0.000291
0.000181
0.000055
0.000220
0.000364
0.000341
0.000293
0.000209
0.000237
0.000260
0.000248
0.000269
0.000293
0.000224
0.000249
0.000264
0.000278
0.000392
0.001448
0.000322
0.000206
0.000281
0.001950
0.000341
0.000265
0.000254
0.000262
0.000243
0.000282
0.000266
0.000262
0.000251
0.000265
0.000206
0.000058
0.000374
0.000285
0.002001
0.000261
0.000255
0.000218
0.000276
0.000311
0.000443
0.000382
0.001308
0.000428
0.000294
0.002085
0.000211
0.000243
0.000268
0.000277
0.000255
0.000247
0.000278
0.000290
0.000262
0.000458
0.000449
0.000312
0.000306
0.002225
0.000537
0.000412
0.000414
0.000056
0.000197
0.000232
0.000244
0.001964
0.000231
0.000230
0.000241
0.000242
0.000242
0.000256
0.000247
0.000258
0.000315
0.000234
0.000474
0.001422
0.000241
0.000273
0.000244
0.000257
0.000237
0.000253
0.000259
0.000320
0.000270
0.000565
0.000360
0.000246
0.001595
0.000282
0.000157
0.000057
0.000204
0.000222
0.000245
0.000234
0.000249
0.000252
0.000250
0.000254
0.000252
0.000414
0.000391
0.001352
0.000239
0.000217
0.000251
0.000261
0.000256
0.000251
0.000502
0.000347
0.000435
0.000352
0.000229
0.001571
0.000232
0.000258
0.000288
0.000276
0.000264
0.000286
0.000173
0.000056
0.000213
0.000228
0.000267
0.000269
0.000248
0.000241
0.000239
0.000239
0.000267
0.000232
0.000265
0.000245
0.000252
0.001488
0.000361
0.000213
0.000249
0.000266
0.000308
0.000284
0.000422
0.000223
0.000242
0.000260
0.000262
0.000265
0.000257
0.001411
0.000281
0.000232
0.000175
0.000056
0.000218
0.000227
0.000264
0.000257
0.000255
0.000236
0.000249
0.000258
0.000220
0.000266
0.000242
0.000258
0.000243
0.000357
0.000345
0.000288
0.000292
0.000248
0.001627
0.000245
0.000242
0.000258
0.000261
0.000294
0.000380
0.000378
0.000451
0.000257
0.000263
0.001605
0.000162
0.000056
0.000407
0.000290
0.000342
0.000304
0.000220
0.000221
0.000242
0.000277
0.000252
0.000235
0.000245
0.000240
0.001510
0.000317
0.000234
0.000228
0.000245
0.000256
0.000267
0.000267
0.000253
0.000239
0.000257
0.000272
0.000261
0.000389
0.000419
0.000431
0.000208
0.000254
0.000195
0.000055
0.000214
0.000305
0.000459
0.000267
0.000357
0.000283
0.000252
0.000248
0.000249
0.000259
0.000243
0.000221
0.000263
0.000248
0.001291
0.000258
0.000246
0.000247
0.000266
0.000268
0.000235
0.000270
0.000253
0.000258
0.000257
0.000258
0.000350
0.000843
0.000253
0.000232
0.000181
0.000057
0.000198
0.001558
0.000272
0.000339
0.000463
0.000332
0.000234
0.000248
0.000261
0.000262
0.000233
0.000263
0.000269
0.000266
0.000267
0.001518
0.000259
0.000286
0.000261
0.000261
0.000260
0.000250
0.000265
0.000265
0.000256
0.000341
0.000393
0.000418
0.000268
0.000240
0.000191
0.000057
0.000208
0.000245
0.000238
0.001681
0.000358
0.000341
0.000231
0.000237
0.000265
0.000256
0.000277
0.000265
0.000238
0.000260
0.000237
0.000274
0.000376
0.001340
0.000251
0.000253
0.001476
0.000397
0.000534
0.000346
0.000333
0.000244
0.000268
0.000463
0.000237
0.000262
0.000184
0.000056
0.000188
0.000230
0.000242
0.000249
0.000248
0.000255
0.000237
0.000259
0.000257
0.000237
0.000253
0.000257
0.000335
0.000531
0.001611
0.001531
0.000321
0.000614
0.000259
0.000226
0.000227
0.000260
0.000248
0.000263
0.000255
0.000268
0.000256
0.000265
0.001522
0.000339
0.000147
0.000056
0.000196
0.000357
0.000355
0.000324
0.000246
0.000214
0.000244
0.000410
0.000370
0.000369
0.002168
0.000320
0.000816
0.000631
0.000220
0.000269
0.000330
0.000400
0.000329
0.000270
0.000393
0.000241
0.001811
0.000274
0.000221
0.000257
0.000263
0.000250
0.000272
0.000264
0.000200
0.000056
0.000204
0.000247
0.000265
0.000246
0.000240
0.001662
0.000876
0.000991
0.000213
0.000243
0.000254
0.000257
0.000262
0.000258
0.000256
0.000247
0.000255
0.000262
0.000266
0.000277
0.001427
0.000318
0.000258
0.000225
0.000238
0.000272
0.000245
0.000294
0.000251
0.000289
0.001893
0.000057
0.000191
0.000237
0.001563
0.001012
0.000203
0.000369
0.000233
0.000225
0.000267
0.000243
0.000243
0.000251
0.000256
0.001980
0.000470
0.000222
0.000242
0.000258
0.000264
0.000257
0.000196
