0.000213
0.017645
0.003788
0.000419
0.000244
0.000300
0.000322
0.000226
0.000330
0.000283
0.000254
0.000330
0.000503
0.000508
0.000481
0.000260
0.000263
0.000348
0.000356
0.000419
0.001837
0.000416
0.000681
0.000267
0.000233
0.000305
0.000322
0.000318
0.000419
0.000412
0.000525
0.000246
0.000056
0.000216
0.000268
0.000266
0.000285
0.000246
0.000251
0.000279
0.000283
0.000271
0.000280
0.000418
0.000455
0.000290
0.000257
0.000377
0.000353
0.000365
0.000249
0.000249
0.001701
0.000306
0.000279
0.000433
0.000240
0.000273
0.000288
0.000283
0.000299
0.000275
0.000375
0.000368
0.000057
0.000246
0.000247
0.000263
0.000263
0.000255
0.000244
0.000260
0.000257
0.000288
0.001671
0.000220
0.000235
0.000286
0.000265
0.000270
0.000249
0.000261
0.000264
0.000351
0.001791
0.000235
0.000277
0.000459
0.000432
0.000392
0.000232
0.000269
0.000488
0.000525
0.000750
0.000162
0.000057
0.000196
0.000244
0.000249
0.000238
0.000303
0.000250
0.000263
0.000645
0.000346
0.000259
0.000227
0.000258
0.000242
0.000254
0.000256
0.000256
0.000245
0.000265
0.000304
0.000321
0.001671
0.000285
0.000239
0.000430
0.000288
0.000734
0.000653
0.000504
0.000375
0.000208
0.000196
0.000055
0.000220
0.000244
0.000294
0.000214
0.000281
0.000232
0.000276
0.000477
0.001453
0.000206
0.000246
0.000250
0.000252
0.000255
0.000264
0.000282
0.000286
0.000800
0.001387
0.000298
0.000247
0.000418
0.000231
0.000246
0.000261
0.000252
0.000272
0.000272
0.000257
0.000272
0.000193
0.000056
0.000183
0.000244
0.000245
0.000266
0.000234
0.000247
0.000234
0.000257
0.000247
0.000242
0.001636
0.000263
0.000223
0.000246
0.000258
0.000246
0.000250
0.000248
0.000251
0.000256
0.000298
0.001639
0.000276
0.000257
0.000446
0.000258
0.000238
0.000262
0.000259
0.000276
0.000194
0.000056
0.000218
0.000226
0.000272
0.000231
0.000242
0.000243
0.000260
0.000236
0.000269
0.000259
0.000251
0.000252
0.000257
0.000271
0.001650
0.000274
0.000289
0.000217
0.000254
0.000272
0.000268
0.000231
0.000246
0.000268
0.001798
0.000375
0.000347
0.000377
0.000232
0.000278
0.000191
0.000055
0.000225
0.000232
0.000248
0.000265
0.000257
0.000264
0.000254
0.000410
0.000495
0.000351
0.000207
0.000249
0.000256
0.000244
0.001574
0.000510
0.000343
0.000410
0.000309
0.000221
0.000273
0.000278
0.000271
0.001743
0.000507
0.000468
0.000237
0.000238
0.000253
0.000271
0.000182
0.000056
0.000211
0.000230
0.000253
0.000307
0.000321
0.000485
0.000307
0.000283
0.000216
0.000243
0.000264
0.000236
0.000259
0.001749
0.000448
0.000298
0.000216
0.000259
0.000266
0.000294
0.000239
0.000259
0.001811
0.000395
0.000272
0.000388
0.000234
0.000258
0.000261
0.000409
0.000331
0.000056
0.000217
0.000361
0.000333
0.000319
0.000249
0.000250
0.000249
0.000261
0.000234
0.000243
0.000229
0.000252
0.001557
0.000362
0.000295
0.000227
0.000256
0.000260
0.000236
0.000315
0.000251
0.000329
0.000245
0.001823
0.000256
0.000489
0.000244
0.000242
0.000265
0.000267
0.000264
0.000056
0.000407
0.000532
0.000614
0.000206
0.000241
0.000266
0.000230
0.000210
0.000266
0.000254
0.000254
0.001706
0.000242
0.000445
0.000368
0.000215
0.000244
0.000232
0.000244
0.000268
0.000302
0.001816
0.000221
0.000471
0.001864
0.000508
0.000361
0.000253
0.000252
0.000267
0.000184
0.000055
0.000204
0.000225
0.000246
0.000242
0.000276
0.001608
0.000257
0.000221
0.000253
0.000254
0.000242
0.000266
0.000239
0.000245
0.000282
0.000509
0.000542
0.000244
0.000227
0.000267
0.000281
0.000239
0.000243
0.000443
0.000428
0.000237
0.000395
0.000512
0.000460
0.000263
0.000212
0.000056
0.000221
0.000234
0.000250
0.000252
0.000246
0.000232
0.000247
0.000451
0.001779
0.000312
0.000220
0.000233
0.000248
0.000249
0.000252
0.000312
0.000410
0.000472
0.000366
0.000213
0.000252
0.000316
0.000277
0.000245
0.000283
0.000443
0.000339
0.000602
0.000388
0.000521
0.000178
0.000055
0.000231
0.000239
0.000262
0.000213
0.000232
0.000239
0.000249
0.000259
0.000230
0.000295
0.000341
0.000492
0.001340
0.000240
0.000228
0.000248
0.000259
0.000258
0.000241
0.000286
0.000246
0.000486
0.000395
0.000251
0.000259
0.000279
0.000242
0.000261
0.000266
0.000256
0.000402
0.000055
0.000203
0.000228
0.000226
0.000269
0.000547
0.000429
0.000253
0.000234
0.000236
0.000255
0.000261
0.000229
0.000295
0.000248
0.000237
0.000480
0.000440
0.001635
0.000276
0.000224
0.000258
0.000266
0.000261
0.000235
0.000265
0.000376
0.000535
0.000355
0.000441
0.000208
0.000204
0.000055
0.000225
0.000439
0.000231
0.000211
0.000287
0.000240
0.000377
0.000458
0.000332
0.000333
0.000219
0.000276
0.000260
0.000245
0.000513
0.000339
0.000220
0.000263
0.000454
0.001591
0.000263
0.000268
0.000503
0.000240
0.000276
0.000272
0.000258
0.000356
0.000544
0.000371
0.000296
0.000056
0.000179
0.000227
0.000240
0.000253
0.000416
0.000301
0.000289
0.000225
0.000481
0.000410
0.000361
0.000261
0.000226
0.000245
0.000250
0.000273
0.000250
0.000258
0.000232
0.000349
0.000292
0.000319
0.001865
0.000232
0.000260
0.000249
0.000298
0.000346
0.000437
0.000686
0.000421
0.000057
0.000220
0.000332
0.000290
0.000429
0.000379
0.000209
0.000256
0.000289
0.000541
0.000395
0.000252
0.000242
0.000252
0.000259
0.000262
0.000233
0.000259
0.000266
0.000271
0.000258
0.000264
0.000368
0.000721
0.001321
0.000331
0.000431
0.000420
0.000238
0.000403
0.000445
0.000329
0.000056
0.000240
0.000382
0.000276
0.000207
0.000219
0.000249
0.000413
0.000234
0.000261
0.000449
0.000331
0.000454
0.000225
0.000256
0.000262
0.000250
0.000365
0.000417
0.000312
0.000243
0.000247
0.000372
0.000669
0.001655
0.000233
0.000428
0.000323
0.000211
0.000259
0.000466
0.000329
0.000055
0.000222
0.000229
0.000245
0.000273
0.000233
0.000244
0.000240
0.000326
0.000467
0.000242
0.000455
0.000406
0.000266
0.000579
0.000248
0.000251
0.000257
0.000290
0.000211
0.000351
0.000210
0.000249
0.000275
0.000417
0.000463
0.001683
0.000274
0.000238
0.000244
0.000266
0.000191
0.000055
0.000318
0.000492
0.000320
0.000215
0.000242
0.000269
0.000244
0.000236
0.000272
0.000234
0.000221
0.000268
0.000420
0.000508
0.000388
0.000297
0.000247
0.000249
0.000338
0.000390
0.000382
0.000334
0.000360
0.000397
0.000247
0.000251
0.000265
0.000276
0.001790
0.000248
0.000207
0.000056
0.000212
0.000226
0.000245
0.000296
0.000335
0.000551
0.000324
0.000199
0.000281
0.000236
0.000246
0.000249
0.000525
0.000452
0.000482
0.000278
0.000265
0.000263
0.000421
0.000464
0.000352
0.000431
0.000577
0.000340
0.000243
0.000232
0.000260
0.000254
0.000268
0.001716
0.000365
0.000057
0.000251
0.000328
0.000203
0.000236
0.000254
0.000255
0.000236
0.000497
0.000382
0.000308
0.000288
0.000279
0.000431
0.000541
0.000359
0.000226
0.000260
0.000253
0.000251
0.000267
0.000282
0.000253
0.000242
0.000265
0.000325
0.000378
0.000387
0.000343
0.000239
0.000251
0.000188
0.000056
0.000449
0.000280
0.000467
0.000260
0.000205
0.000247
0.000247
0.000255
0.000244
0.000227
0.000247
0.000282
0.000306
0.000408
0.000515
0.000423
0.000311
0.000313
0.000390
0.000340
0.000311
0.000217
0.000249
0.000256
0.001756
0.000246
0.001734
0.000968
0.000364
0.000336
0.000158
0.000056
0.000196
0.000232
0.000233
0.000246
0.000270
0.000243
0.000246
0.000252
0.000251
0.000306
0.000376
0.000427
0.000341
0.000381
0.000244
0.000242
0.000260
0.000291
0.000225
0.000251
0.000246
0.000266
0.001821
0.000235
0.000246
0.000266
0.000278
0.000265
0.001948
0.000388
0.000327
0.000057
0.000235
0.000207
0.000235
0.000244
0.000257
0.000249
0.000242
0.000251
0.000275
0.000342
0.000652
0.000238
0.000392
0.000226
0.000236
0.000257
0.000335
0.000439
0.000364
0.000260
0.001777
0.000257
0.000228
0.000261
0.000258
0.000272
0.000241
0.000251
0.000335
0.000353
0.000348
0.000056
0.000207
0.000233
0.000234
0.000268
0.000239
0.000243
0.000252
0.000258
0.000239
0.000256
0.000239
0.000306
0.000330
0.000426
0.000335
0.000274
0.000462
0.000227
0.000252
0.000259
0.000259
0.000257
0.000272
0.000265
0.000275
0.001799
0.000259
0.000214
0.000272
0.000236
0.000200
0.000057
0.000248
0.000376
0.000240
0.000216
0.000236
0.000236
0.000238
0.000259
0.000245
0.000220
0.000236
0.000266
0.000255
0.000367
0.000424
0.000357
0.000268
0.000235
0.000257
0.000255
0.000261
0.000265
0.000245
0.000270
0.000250
0.000269
0.000288
0.001656
0.000288
0.000212
0.000179
0.000058
0.000211
0.000238
0.000251
0.000264
0.000354
0.000386
0.000414
0.000257
0.000225
0.000258
0.000267
0.000228
0.000248
0.000252
0.000260
0.000258
0.000246
0.000256
0.000250
0.000269
0.000265
0.000263
0.000250
0.000233
0.000252
0.000275
0.000269
0.000260
0.000261
0.000263
0.000191
0.000056
0.000210
0.000218
0.000256
0.000275
0.000231
0.000241
0.000239
0.000257
0.000289
0.000231
0.000285
0.000193
0.000256
0.000252
0.000290
0.000243
0.000249
0.000249
0.000305
0.000262
0.000257
0.000326
0.000271
0.000223
0.000301
0.000253
0.000271
0.000239
0.000264
0.000521
0.000591
0.000056
0.000225
0.000289
0.000226
0.000214
0.000242
0.000251
0.000240
0.000250
0.000254
0.000242
0.000270
0.000310
0.000470
0.000445
0.001569
0.000232
0.000512
0.000207
0.000256
0.000459
0.000440
0.000381
0.000225
0.000283
0.000245
0.000256
0.000305
0.000229
0.000310
0.000278
0.000164
0.000056
0.000327
0.000455
0.000328
0.000331
0.000208
0.000282
0.000223
0.000241
0.000234
0.000244
0.000261
0.000252
0.000227
0.000324
0.000321
0.000546
0.000336
0.001791
0.000221
0.000260
0.000340
0.000450
0.000460
0.000263
0.000311
0.000324
0.000296
0.000235
0.000224
0.000251
0.000194
0.000056
0.000211
0.000224
0.000234
0.000293
0.000440
0.000358
0.000345
0.000278
0.000232
0.000214
0.000245
0.000270
0.000264
0.000265
0.000246
0.000257
0.000426
0.000375
0.000337
0.000437
0.000226
0.001753
0.000326
0.000517
0.000514
0.000440
0.000326
0.000221
0.000252
0.000266
0.000452
0.000057
0.000208
0.000272
0.000214
0.000245
0.000508
0.000438
0.000380
0.000215
0.000266
0.000273
0.000212
0.000263
0.000248
0.000299
0.000339
0.000208
0.000254
0.000374
0.000528
0.000260
0.000532
0.001825
0.000240
0.000507
0.000479
0.000322
0.000217
0.000263
0.000316
0.000235
0.000207
0.000055
0.000213
0.000335
0.000363
0.000378
0.000368
0.000282
0.000358
0.000215
0.000234
0.000262
0.000285
0.000220
0.000251
0.000248
0.000247
0.000266
0.000359
0.000422
0.000425
0.000376
0.000283
0.000234
0.000256
0.001724
0.000361
0.000577
0.000683
0.000232
0.000255
0.000314
0.000156
0.000056
0.000195
0.000233
0.000348
0.000236
0.000262
0.000343
0.000419
0.000332
0.000236
0.000561
0.000197
0.000254
0.000259
0.000275
0.000276
0.000262
0.000212
0.000418
0.000399
0.000447
0.000269
0.000220
0.000260
0.000245
0.000261
0.000286
0.000221
0.000273
0.000246
0.000299
0.000201
0.000055
0.000323
0.000333
0.000210
0.000261
0.000253
0.000257
0.000234
0.000289
0.000237
0.000258
0.000274
0.000331
0.000438
0.000359
0.000428
0.000217
0.000223
0.000241
0.000262
0.000262
0.000290
0.000255
0.000239
0.000256
0.000279
0.000368
0.000399
0.000383
0.000311
0.000233
0.000179
0.000056
0.000207
0.000213
0.000284
0.000247
0.000230
0.000273
0.000268
0.000226
0.000501
0.000204
0.000263
0.000262
0.000233
0.000266
0.000277
0.000294
0.000239
0.000359
0.000228
0.000221
0.000276
0.000254
0.000255
0.000267
0.000278
0.000254
0.000267
0.000252
0.000262
0.000503
0.000158
0.000056
0.000203
0.000253
0.000229
0.000291
0.000201
0.000239
0.000369
0.000404
0.000242
0.000232
0.000247
0.000260
0.000236
0.000226
0.000528
0.001743
0.000220
0.000266
0.000290
0.000331
0.000406
0.000372
0.000361
0.000381
0.000411
0.000405
0.000230
0.000266
0.000270
0.000278
0.001398
0.000056
0.000424
0.000271
0.000278
0.000212
0.000232
0.000254
0.000236
0.000254
0.000239
0.000274
0.000247
0.000260
0.000251
0.000251
0.000647
0.001568
0.000228
0.000232
0.000245
0.000265
0.000245
0.000258
0.000390
0.000392
0.000264
0.000359
0.000217
0.000263
0.000275
0.000264
0.000196
0.000056
0.001292
0.000441
0.000353
0.000260
0.000236
0.000224
0.000231
0.000243
0.000488
0.000216
0.000243
0.000247
0.000391
0.000400
0.000471
0.000354
0.000243
0.000238
0.000329
0.000353
0.000268
0.000258
0.000274
0.000241
0.000264
0.000605
0.000526
0.000270
0.000250
0.000266
0.000181
0.000056
0.000217
0.000215
0.000245
0.000251
0.001423
0.000343
0.000241
0.000237
0.000264
0.000225
0.000255
0.000253
0.000239
0.000266
0.000271
0.000254
0.000596
0.000515
0.000276
0.001752
0.000249
0.000292
0.000312
0.000419
0.000527
0.000408
0.000241
0.000252
0.000261
0.000271
0.000192
0.000056
0.000211
0.000259
0.000234
0.000274
0.001303
0.000227
0.000270
0.000246
0.000238
0.000232
0.000239
0.000262
0.000270
0.000248
0.000250
0.000312
0.000374
0.000495
0.000318
0.000259
0.000289
0.000253
0.000257
0.000222
0.000292
0.000260
0.000242
0.000279
0.000265
0.000404
0.000545
0.000056
0.000227
0.000243
0.000231
0.000259
0.000264
0.000239
0.000237
0.000266
0.000267
0.000277
0.001415
0.000231
0.000229
0.000256
0.000246
0.000240
0.000290
0.000243
0.000287
0.000236
0.000321
0.000442
0.000526
0.000323
0.000222
0.000274
0.001775
0.000258
0.000241
0.000348
0.000483
0.000055
0.000218
0.000406
0.000455
0.000508
0.000511
0.000537
0.001495
0.000421
0.000518
0.000655
0.000551
0.000790
0.000407
0.000624
0.000581
0.001880
0.000375
0.000461
0.000391
0.000323
0.000236
0.000269
0.000289
0.000267
0.000263
0.000282
0.000300
0.000280
0.000260
0.000289
0.001360
0.000056
0.000229
0.000219
0.000234
0.000237
0.000259
0.000261
0.000228
0.000242
0.000250
0.000251
0.000250
0.000240
0.000251
0.000255
0.000265
0.000268
0.001817
0.000266
0.000261
0.000249
0.000253
0.000265
0.000259
0.000259
0.000472
0.000387
0.000330
0.000246
0.000252
0.000290
0.000201
0.000055
0.000210
0.001351
0.000327
0.000295
0.000228
0.000259
0.000222
0.000233
0.000236
0.000231
0.000228
0.000248
0.000255
0.000502
0.000360
0.000307
0.000241
0.001829
0.000350
0.000238
0.000237
0.000263
0.000251
0.000271
0.000268
0.000288
0.000265
0.000257
0.000264
0.000319
0.000204
0.000057
0.000193
0.000244
0.000247
0.001442
0.000217
0.000250
0.000241
0.000245
0.000237
0.000274
0.000244
0.000246
0.000246
0.000284
0.000231
0.000261
0.000266
0.000264
0.000267
0.000254
0.000265
0.001775
0.000277
0.001749
0.000267
0.000268
0.000244
0.000270
0.000267
0.000271
0.000200
0.000056
0.000206
0.000246
0.001345
0.000236
0.000250
0.000239
0.000258
0.000254
0.000240
0.000251
0.000255
0.000259
0.000243
0.000263
0.000256
0.000265
0.000259
0.000287
0.000288
0.000228
0.001886
0.000239
0.001830
0.000231
0.000268
0.000269
0.000232
0.000245
0.000262
0.000268
0.000199
0.000056
0.001439
0.000216
0.000230
0.000240
0.000240
0.000241
0.000365
0.000288
0.000232
0.000254
0.000255
0.000259
0.000250
0.000394
0.000361
0.000278
0.000270
0.000258
0.000246
0.000252
0.000269
0.000352
0.000216
0.000253
0.000270
0.000280
0.000267
0.000336
0.000702
0.000320
0.000192
0.000056
0.000216
0.000260
0.000259
0.000304
0.000361
0.000258
0.001683
0.000344
0.000247
0.000269
0.000257
0.000272
0.000264
0.000279
0.000292
0.000304
0.000344
0.000543
0.000400
0.000265
0.000301
0.000279
0.000256
0.000274
0.000316
0.000264
0.000274
0.000239
0.000259
0.000277
0.000460
0.000057
0.000253
0.000462
0.000264
0.000263
0.000249
0.000228
0.000227
0.000247
0.000258
0.000283
0.001491
0.000227
0.000237
0.000234
0.000246
0.000288
0.000279
0.000235
0.000278
0.000251
0.000258
0.000451
0.000516
0.000268
0.000265
0.000286
0.000268
0.000257
0.000232
0.000319
0.000173
0.000057
0.000187
0.000232
0.000302
0.000442
0.000407
0.000242
0.000213
0.000252
0.000267
0.000238
0.000252
0.000229
0.000258
0.000266
0.000243
0.000240
0.000505
0.001110
0.000232
0.000255
0.000274
0.000252
0.000351
0.000419
0.000254
0.000305
0.000596
0.000348
0.000385
0.000239
0.000166
0.000056
0.000223
0.000241
0.000259
0.000258
0.000253
0.000258
0.000351
0.000383
0.000438
0.000294
0.000363
0.000396
0.000412
0.000342
0.000257
0.000229
0.000238
0.000259
0.000435
0.000421
0.001276
0.000221
0.000282
0.000265
0.000232
0.000231
0.000266
0.000333
0.000403
0.000463
0.000242
0.000057
0.000204
0.000241
0.000258
0.000241
0.000261
0.000226
0.000237
0.000270
0.000303
0.000416
0.000371
0.000354
0.000261
0.000219
0.000258
0.000254
0.000250
0.000265
0.000259
0.000277
0.000428
0.000247
0.000381
0.000411
0.000326
0.000236
0.000271
0.000269
0.000250
0.000352
0.000155
0.000056
0.000312
0.000318
0.000295
0.000439
0.000413
0.000348
0.000239
0.000247
0.000244
0.000269
0.000257
0.000264
0.000235
0.000266
0.000225
0.000247
0.000251
0.000368
0.000460
0.000391
0.000219
0.000263
0.000252
0.000244
0.000262
0.000288
0.000262
0.000287
0.000259
0.000260
0.000347
0.000056
0.000255
0.000334
0.000235
0.000267
0.000225
0.000241
0.000244
0.000263
0.000260
0.000277
0.000233
0.000236
0.000364
0.000434
0.000424
0.000286
0.000236
0.000256
0.000253
0.000265
0.000255
0.000264
0.000256
0.000289
0.000254
0.000317
0.000404
0.000605
0.000404
0.000250
0.000174
0.000056
0.000376
0.000200
0.000218
0.000245
0.000252
0.000246
0.000236
0.000251
0.000253
0.000261
0.000220
0.000245
0.000280
0.000219
0.000236
0.000274
0.000249
0.000265
0.000296
0.000237
0.000265
0.000260
0.000269
0.000257
0.000269
0.000240
0.000266
0.000278
0.000250
0.000282
0.000196
0.000057
0.000186
0.000241
0.000241
0.000251
0.000217
0.000252
0.000262
0.000244
0.000258
0.000280
0.000227
0.000233
0.000262
0.000395
0.000252
0.000299
0.000247
0.000262
0.000253
0.000278
0.000272
0.000232
0.000250
0.000253
0.000272
0.000273
0.000245
0.000255
0.000273
0.000263
0.000211
0.000056
0.000219
0.000358
0.000370
0.000282
0.000293
0.000255
0.000260
0.000258
0.000220
0.000249
0.000280
0.000235
0.000245
0.000240
0.000258
0.000280
0.000245
0.000268
0.000242
0.000271
0.000273
0.000264
0.000274
0.000255
0.000300
0.000212
0.000266
0.000275
0.000272
0.000254
0.000202
0.000056
0.000200
0.000225
0.000265
0.000260
0.000256
0.000445
0.000207
0.000276
0.000256
0.000427
0.000516
0.000285
0.000225
0.000264
0.000267
0.000257
0.000234
0.000267
0.000255
0.000276
0.000258
0.000261
0.000260
0.000406
0.000442
0.000460
0.000270
0.000296
0.000261
0.000261
0.000189
0.000056
0.000227
0.000217
0.000247
0.000251
0.000322
0.000654
0.000311
0.000384
0.000235
0.000219
0.000257
0.000252
0.000252
0.000245
0.000257
0.000266
0.000274
0.000262
0.000586
0.000412
0.000299
0.000247
0.000252
0.000281
0.000281
0.000259
0.000263
0.000290
0.000221
0.000335
0.000354
0.000056
0.000253
0.000227
0.000242
0.000255
0.000238
0.000271
0.000214
0.000246
0.000241
0.000259
0.000248
0.000248
0.000264
0.000378
0.000585
0.000368
0.000243
0.000256
0.000268
0.000241
0.000268
0.000288
0.000480
0.000219
0.000257
0.000599
0.000397
0.000504
0.000250
0.000258
0.000179
0.000057
0.000198
0.000228
0.000240
0.000243
0.000264
0.000250
0.000290
0.000445
0.000609
0.000412
0.000220
0.000256
0.000275
0.000269
0.000263
0.000242
0.000258
0.000229
0.000261
0.000360
0.000370
0.000656
0.000363
0.000245
0.000372
0.000378
0.000503
0.000210
0.000269
0.000371
0.000446
0.000056
0.000270
0.000231
0.000445
0.000216
0.000238
0.000246
0.000260
0.000262
0.000231
0.000241
0.000323
0.000363
0.000365
0.000329
0.000217
0.000255
0.000262
0.000253
0.000260
0.000276
0.000273
0.000256
0.000246
0.000277
0.000340
0.000468
0.000479
0.000239
0.000250
0.000271
0.000216
0.000056
0.000230
0.000248
0.000224
0.000252
0.000247
0.000260
0.000344
0.000429
0.000434
0.000264
0.000376
0.000222
0.000245
0.000268
0.000255
0.000235
0.000254
0.000264
0.000324
0.000380
0.000515
0.000300
0.000466
0.000268
0.000421
0.000390
0.000382
0.000245
0.000242
0.000284
0.000460
0.000055
0.000227
0.000268
0.000221
0.000258
0.000258
0.000254
0.000248
0.000247
0.000273
0.000241
0.000239
0.000407
0.000400
0.000379
0.000374
0.000218
0.000268
0.000265
0.000259
0.000255
0.000239
0.000254
0.000262
0.000278
0.000272
0.000318
0.000519
0.000465
0.000246
0.000270
0.000192
0.000056
0.000212
0.000244
0.000279
0.000247
0.000241
0.000340
0.000498
0.000504
0.000329
0.000688
0.000260
0.000217
0.000260
0.000241
0.000246
0.000271
0.000277
0.000268
0.000488
0.000425
0.001529
0.000312
0.000259
0.000264
0.000292
0.000233
0.000376
0.000433
0.000358
0.000308
0.000181
0.000056
0.000223
0.000227
0.000245
0.000285
0.000209
0.000253
0.000300
0.000225
0.000245
0.000337
0.000327
0.000381
0.000287
0.000317
0.000395
0.000344
0.000236
0.000249
0.000269
0.000259
0.000245
0.000249
0.000316
0.000220
0.000323
0.000437
0.000424
0.000292
0.000242
0.000275
0.000182
0.000056
0.000243
0.000236
0.000253
0.000275
0.000221
0.000237
0.000475
0.000220
0.000223
0.000259
0.000244
0.000250
0.000258
0.000258
0.000244
0.000273
0.000264
0.000290
0.000250
0.000251
0.000283
0.000271
0.000292
0.000239
0.000265
0.000284
0.000268
0.000259
0.000266
0.000269
0.000171
0.000057
0.000238
0.000246
0.000273
0.000441
0.000376
0.000254
0.000234
0.000249
0.000260
0.000247
0.000251
0.000272
0.000248
0.000262
0.000232
0.000248
0.000264
0.000251
0.000288
0.000333
0.000431
0.000410
0.000224
0.000261
0.000265
0.000271
0.000251
0.000255
0.000270
0.000279
0.000206
0.000055
0.000406
0.000395
0.000384
0.000203
0.000252
0.000256
0.000444
0.000199
0.000222
0.000255
0.000263
0.000287
0.000348
0.000442
0.001860
0.000255
0.000242
0.000252
0.000278
0.000240
0.000362
0.000437
0.000676
0.000224
0.000221
0.000264
0.000274
0.000443
0.000261
0.000285
0.000158
0.000056
0.000232
0.000349
0.000322
0.000346
0.000497
0.000202
0.000237
0.000255
0.000244
0.000240
0.000264
0.000244
0.000258
0.000320
0.000471
0.000424
0.000220
0.000237
0.000260
0.000261
0.000263
0.000315
0.000241
0.000292
0.000261
0.000512
0.000474
0.000445
0.000395
0.000217
0.000207
0.000056
0.000212
0.000228
0.000254
0.000233
0.000245
0.000249
0.000268
0.000296
0.000323
0.000400
0.000414
0.000347
0.000209
0.000253
0.000268
0.000293
0.000292
0.000243
0.000272
0.000273
0.000234
0.000402
0.000425
0.000318
0.000303
0.000251
0.000257
0.000442
0.000410
0.000322
0.000171
0.000057
0.000226
0.000250
0.000309
0.000459
0.000355
0.000196
0.000239
0.000256
0.000263
0.000263
0.000254
0.000250
0.000224
0.000260
0.000256
0.000316
0.000408
0.000334
0.000323
0.000326
0.000482
0.000223
0.000279
0.000273
0.000304
0.000300
0.000235
0.000275
0.000498
0.000456
0.000226
0.000057
0.000198
0.000228
0.000248
0.000249
0.000240
0.000488
0.000222
0.000248
0.000268
0.000366
0.000445
0.000598
0.000206
0.000237
0.000242
0.000250
0.000256
0.000267
0.000247
0.000243
0.000307
0.000230
0.000339
0.000443
0.000354
0.000427
0.000271
0.000310
0.000327
0.000236
0.000186
0.000056
0.000195
0.000240
0.000264
0.000474
0.000332
0.000289
0.000253
0.000233
0.000247
0.000252
0.000254
0.000260
0.000258
0.000246
0.000252
0.000253
0.000259
0.000231
0.000279
0.000376
0.000534
0.000378
0.000220
0.000254
0.000276
0.000278
0.000254
0.000259
0.000266
0.000267
0.000190
0.000056
0.000299
0.000330
0.000491
0.000236
0.000215
0.000251
0.000318
0.000456
0.000285
0.000211
0.000249
0.000269
0.000270
0.000468
0.000399
0.000301
0.000237
0.000222
0.000252
0.000265
0.000275
0.000264
0.000260
0.000281
0.000249
0.000312
0.000392
0.000492
0.000227
0.000254
0.000190
0.000057
0.000211
0.000236
0.000249
0.000253
0.000256
0.000260
0.000232
0.000282
0.000235
0.000243
0.000256
0.000239
0.000285
0.001442
0.000212
0.000258
0.000259
0.000242
0.000294
0.000265
0.000260
0.000235
0.000282
0.000252
0.000264
0.000269
0.000274
0.000272
0.000255
0.000270
0.000198
0.000055
0.000214
0.000238
0.000246
0.000268
0.000219
0.000242
0.000263
0.000256
0.000227
0.000250
0.000243
0.000265
0.000261
0.000258
0.000249
0.000260
0.000246
0.000256
0.000278
0.000253
0.000259
0.000261
0.000279
0.000226
0.001293
0.000282
0.000595
0.000345
0.000413
0.000223
0.000189
0.000056
0.000204
0.000235
0.000240
0.000252
0.000431
0.000232
0.000228
0.000241
0.000255
0.000327
0.000525
0.000312
0.000227
0.000227
0.000262
0.000262
0.000254
0.000270
0.000242
0.000257
0.000258
0.000259
0.000317
0.000359
0.000556
0.000410
0.000225
0.000261
0.001382
0.000241
0.000179
0.000056
0.000360
0.000388
0.000333
0.000263
0.000234
0.000232
0.000215
0.000253
0.000265
0.000252
0.000246
0.000256
0.000300
0.000358
0.000485
0.000319
0.000369
0.000225
0.000235
0.000259
0.000271
0.000277
0.000251
0.000264
0.000263
0.000263
0.000346
0.000532
0.000399
0.000362
0.000147
0.000056
0.000209
0.000236
0.001263
0.000449
0.000291
0.000437
0.000376
0.000492
0.000271
0.000346
0.000215
0.000230
0.000262
0.000254
0.000250
0.000270
0.000336
0.000572
0.000376
0.000308
0.000269
0.000236
0.000269
0.000512
0.000220
0.000264
0.000252
0.000279
0.000317
0.000571
0.000259
0.000056
0.000382
0.000310
0.000244
0.000214
0.001715
0.000306
0.000310
0.000271
0.000212
0.000263
0.000224
0.000237
0.000249
0.000268
0.000247
0.000265
0.000233
0.000292
0.000480
0.000291
0.000459
0.000250
0.000241
0.000263
0.000250
0.000280
0.000271
0.000236
0.000266
0.000280
0.000200
0.000056
0.000356
0.000353
0.000224
0.000227
0.000252
0.000242
0.000251
0.000249
0.000234
0.000226
0.001423
0.000460
0.000265
0.000252
0.000249
0.000243
0.000270
0.000259
0.000243
0.000295
0.000242
0.000252
0.000268
0.000461
0.000337
0.000498
0.000216
0.000269
0.000274
0.000281
0.000179
0.000056
0.000204
0.000447
0.000200
0.000230
0.000560
0.000253
0.000333
0.000340
0.000455
0.000201
0.000233
0.000248
0.000266
0.000267
0.000254
0.001450
0.000326
0.000286
0.000239
0.000287
0.000286
0.000256
0.000231
0.000248
0.000265
0.000270
0.000447
0.000452
0.000290
0.000279
0.000149
0.000056
0.000204
0.000238
0.000255
0.000236
0.000226
0.000264
0.000238
0.000246
0.000315
0.000326
0.000453
0.000292
0.000227
0.000263
0.000242
0.000282
0.000270
0.000260
0.000266
0.000230
0.000251
0.000272
0.001300
0.000244
0.000252
0.000257
0.000271
0.000268
0.000245
0.000273
0.000183
0.000055
0.000215
0.000354
0.000343
0.000353
0.000240
0.000256
0.000254
0.000286
0.000237
0.000259
0.000268
0.000237
0.000243
0.000255
0.000251
0.000265
0.000265
0.000275
0.000264
0.000243
0.000252
0.000271
0.000265
0.000290
0.000284
0.000283
0.000249
0.000264
0.000260
0.000450
0.001366
0.000056
0.000219
0.000259
0.000224
0.000259
0.000238
0.000259
0.000240
0.000229
0.000241
0.000254
0.000292
0.000246
0.000247
0.000240
0.000273
0.000237
0.001723
0.000254
0.000228
0.000268
0.000244
0.000258
0.000282
0.000253
0.000303
0.000231
0.000269
0.000273
0.000273
0.000268
0.000204
0.000056
0.000324
0.000371
0.001271
0.000233
0.000221
0.000245
0.000254
0.000258
0.000274
0.000240
0.000228
0.000340
0.000403
0.000442
0.000277
0.000226
0.000251
0.000253
0.000258
0.000266
0.000248
0.000273
0.000258
0.000283
0.000261
0.000392
0.000379
0.000367
0.000302
0.000244
0.000192
0.000055
0.000221
0.000238
0.000244
0.000244
0.000282
0.000197
0.000234
0.000325
0.000354
0.001342
0.000267
0.000214
0.000240
0.000269
0.000259
0.000290
0.000233
0.000257
0.000334
0.000452
0.000365
0.000216
0.000247
0.000240
0.000280
0.000277
0.000271
0.000291
0.000273
0.000273
0.000190
0.000056
0.000287
0.000360
0.000420
0.000208
0.000231
0.000237
0.000248
0.000282
0.000261
0.000247
0.000234
0.000248
0.000460
0.000496
0.000473
0.001450
0.000259
0.000251
0.000344
0.000361
0.000457
0.000431
0.000468
0.000398
0.000225
0.000258
0.000270
0.000276
0.000266
0.000273
0.000193
0.000055
0.000238
0.000299
0.000446
0.000372
0.000397
0.000235
0.000248
0.000238
0.000239
0.000275
0.000228
0.000271
0.000276
0.000232
0.000264
0.000299
0.000346
0.000493
0.000320
0.001324
0.000265
0.000258
0.000251
0.000261
0.000441
0.000461
0.000383
0.000252
0.000275
0.000268
0.000189
0.000055
0.000192
0.000244
0.000245
0.000266
0.000227
0.000270
0.000464
0.000374
0.000382
0.000217
0.000253
0.000249
0.000265
0.000289
0.000235
0.000262
0.000260
0.000251
0.000291
0.000254
0.000469
0.000426
0.000343
0.001333
0.000406
0.000238
0.000271
0.000486
0.000391
0.000331
0.000318
0.000055
0.000192
0.000234
0.000251
0.000248
0.000250
0.000254
0.001689
0.000235
0.000211
0.000250
0.000254
0.000245
0.000256
0.000334
0.000320
0.000298
0.000262
0.000291
0.000577
0.000363
0.000284
0.000293
0.000223
0.000238
0.001508
0.000369
0.000420
0.000416
0.000338
0.000298
0.000163
0.000055
0.000206
0.000246
0.000259
0.000254
0.000241
0.000267
0.001708
0.000232
0.000234
0.000268
0.000343
0.000395
0.001449
0.000366
0.000388
0.000236
0.000256
0.000234
0.000268
0.000278
0.001747
0.000384
0.000370
0.000297
0.000223
0.000257
0.000260
0.000278
0.000246
0.000256
0.000192
0.000056
0.000209
0.000238
0.000272
0.000242
0.000270
0.000270
0.000293
0.000236
0.000252
0.000256
0.000256
0.000244
0.000296
0.000235
0.000254
0.001500
0.000276
0.000229
0.000264
0.000276
0.000274
0.000269
0.000420
0.001271
0.000275
0.000230
0.000271
0.000255
0.000441
0.000224
0.000180
0.000056
0.000216
0.000253
0.000220
0.000246
0.000242
0.000227
0.000232
0.001698
0.000266
0.000211
0.000358
0.000263
0.000228
0.000221
0.000259
0.001397
0.000220
0.000276
0.000260
0.000245
0.000272
0.000337
0.000297
0.001299
0.000270
0.000259
0.000238
0.000272
0.001396
0.000277
0.000225
0.000056
0.000218
0.000362
0.000206
0.000233
0.000266
0.000228
0.000304
0.000229
0.000263
0.000247
0.000262
0.000278
0.000239
0.000242
0.000303
0.001542
0.000221
0.000267
0.000252
0.000243
0.000288
0.000275
0.000240
0.001506
0.000344
0.000235
0.000262
0.001293
0.000269
0.000236
0.000206
0.000055
0.000216
0.000390
0.000347
0.000206
0.000229
0.000249
0.000274
0.000244
0.000263
0.000272
0.000233
0.000255
0.000262
0.000266
0.000453
0.001199
0.000230
0.000259
0.000251
0.000272
0.000224
0.000254
0.000245
0.000411
0.001223
0.000209
0.000264
0.000251
0.000258
0.001350
0.000310
0.000055
0.000323
0.000254
0.000219
0.000230
0.000236
0.000252
0.000245
0.000268
0.000278
0.000235
0.000239
0.000249
0.000290
0.000270
0.000435
0.001482
0.000208
0.000266
0.000284
0.000508
0.000284
0.000411
0.001339
0.000306
0.000227
0.000270
0.000254
0.001306
0.000265
0.000535
0.000348
0.000056
0.000228
0.000256
0.000257
0.000255
0.000250
0.000256
0.000271
0.000263
0.000246
0.000260
0.000307
0.000518
0.001297
0.000233
0.000283
0.000257
0.000281
0.000219
0.000236
0.000253
0.000362
0.001214
0.000253
0.000246
0.000250
0.000254
0.001553
0.000387
0.000486
0.000216
0.000189
0.000056
0.000204
0.000228
0.000252
0.000236
0.000254
0.000263
0.000243
0.000296
0.000444
0.000440
0.000265
0.001495
0.000205
0.000249
0.000257
0.000264
0.000248
0.000287
0.001692
0.000259
0.000389
0.000352
0.001268
0.000395
0.000273
0.000323
0.000257
0.000254
0.000262
0.000270
0.000198
0.000056
0.000204
0.000255
0.000315
0.000266
0.000279
0.000572
0.000275
0.000295
0.001458
0.000245
0.000377
0.000261
0.000245
0.000348
0.000325
0.001323
0.000266
0.000246
0.000244
0.000267
0.001514
0.000386
0.000266
0.000284
0.000270
0.000237
0.000456
0.000326
0.000262
0.000239
0.000257
0.000056
0.000229
0.000355
0.000362
0.000256
0.000220
0.001518
0.000202
0.000266
0.000269
0.000269
0.000264
0.000238
0.000325
0.001476
0.000254
0.000227
0.000433
0.001190
0.000331
0.000468
0.000380
0.000238
0.000241
0.000246
0.000310
0.000218
0.000452
0.000240
0.000252
0.000283
0.000186
0.000055
0.000206
0.000265
0.000351
0.000441
0.001224
0.000274
0.000337
0.000226
0.000222
0.000252
0.000247
0.000328
0.001489
0.000246
0.000244
0.000242
0.001393
0.000274
0.000417
0.000507
0.000315
0.000223
0.000251
0.000254
0.000268
0.000276
0.000263
0.000268
0.000263
0.000258
0.000192
0.000056
0.000187
0.000385
0.001485
0.000196
0.000296
0.000282
0.000214
0.000251
0.000262
0.000380
0.001395
0.000208
0.000271
0.000259
0.000251
0.001270
0.000686
0.000299
0.000325
0.000413
0.000304
0.000249
0.000256
0.000256
0.000273
0.000288
0.000273
0.000374
0.000379
0.000409
0.001390
0.000056
0.000220
0.000254
0.000226
0.000224
0.000257
0.000400
0.000484
0.001297
0.000255
0.000237
0.000247
0.001454
0.000452
0.000294
0.000230
0.000405
0.000251
0.000234
0.000260
0.000297
0.000255
0.000250
0.000277
0.000253
0.000251
0.000295
0.000485
0.000439
0.001487
0.000222
0.000200
0.000057
0.000214
0.000258
0.000333
0.000579
0.001211
0.000305
0.000234
0.000257
0.000243
0.000254
0.000246
0.000284
0.000351
0.000528
0.000300
0.000239
0.000257
0.000269
0.000246
0.000304
0.000236
0.000256
0.000275
0.000246
0.000266
0.000349
0.000503
0.000349
0.000334
0.001409
0.000173
0.000056
0.000212
0.000230
0.000278
0.000480
0.000334
0.000286
0.000324
0.000330
0.000305
0.000239
0.000239
0.000263
0.000255
0.000319
0.000226
0.000321
0.000543
0.000301
0.000292
0.000384
0.000276
0.000408
0.000230
0.000240
0.000263
0.000262
0.000266
0.000287
0.000367
0.000479
0.000288
0.000056
0.000191
0.001412
0.000218
0.000355
0.000394
0.000392
0.000392
0.000341
0.000208
0.000239
0.000266
0.000248
0.000285
0.000249
0.000265
0.000255
0.000263
0.001372
0.000232
0.000261
0.000260
0.000268
0.000274
0.000275
0.000271
0.000250
0.000276
0.000250
0.000326
0.000415
0.000314
0.000056
0.000203
0.000241
0.000233
0.001511
0.000326
0.000238
0.000225
0.000242
0.000229
0.000241
0.000261
0.000279
0.000246
0.000251
0.000291
0.000229
0.000248
0.000260
0.000261
0.000263
0.001436
0.000236
0.000249
0.000252
0.000264
0.000248
0.000265
0.000263
0.000283
0.000492
0.000345
0.000057
0.000190
0.000233
0.000397
0.000282
0.000245
0.000255
0.001553
0.000322
0.000300
0.000213
0.000262
0.000311
0.000329
0.000230
0.000227
0.000246
0.000250
0.000265
0.000259
0.000269
0.000474
0.000505
0.001120
0.000268
0.000245
0.000257
0.000267
0.000255
0.000304
0.000237
0.000379
0.000056
0.000231
0.000354
0.000198
0.000239
0.000250
0.000243
0.000240
0.000230
0.000293
0.001607
0.000372
0.000290
0.000232
0.000245
0.000262
0.000243
0.000263
0.000275
0.000262
0.000316
0.000297
0.000519
0.000498
0.001297
0.000219
0.000280
0.000255
0.000261
0.000272
0.000306
0.000449
0.000055
0.000258
0.000243
0.000241
0.000213
0.000220
0.000243
0.000264
0.000283
0.000251
0.001570
0.000361
0.000257
0.000239
0.000259
0.000472
0.000248
0.000538
0.000380
0.000275
0.000276
0.000485
0.000517
0.001242
0.000261
0.000234
0.000246
0.001731
0.000448
0.000611
0.000315
0.000135
0.000056
0.000199
0.000231
0.000240
0.000233
0.000254
0.000243
0.000250
0.000503
0.000494
0.000431
0.000281
0.000205
0.000250
0.000261
0.000285
0.000270
0.000237
0.000243
0.000252
0.000288
0.000330
0.000442
0.001248
0.000224
0.000266
0.000253
0.001904
0.000378
0.000389
0.000342
0.000161
0.000056
0.000195
0.000232
0.000251
0.001663
0.000331
0.000204
0.000238
0.000259
0.000252
0.000283
0.000377
0.000370
0.000377
0.000265
0.000267
0.000552
0.000381
0.001209
0.000275
0.000221
0.000257
0.000264
0.000279
0.000402
0.000626
0.000457
0.000245
0.000262
0.000267
0.000282
0.000195
0.000056
0.000203
0.000225
0.000249
0.001536
0.000274
0.000211
0.000247
0.000249
0.000242
0.000256
0.000256
0.000268
0.000269
0.000276
0.000284
0.000348
0.000430
0.000349
0.001394
0.000218
0.000269
0.000254
0.000261
0.000266
0.000402
0.000531
0.000378
0.000269
0.000291
0.000232
0.000425
0.000056
0.000204
0.000245
0.000266
0.001537
0.000293
0.000219
0.000263
0.000240
0.000251
0.000265
0.000248
0.000276
0.000238
0.000262
0.000463
0.000460
0.001377
0.000746
0.000282
0.000327
0.000235
0.000228
0.000247
0.000276
0.001689
0.000813
0.000220
0.000269
0.000272
0.000278
0.000193
0.000056
0.000218
0.000230
0.000255
0.000246
0.000267
0.000265
0.000210
0.000255
0.000240
0.000230
0.000295
0.000284
0.000259
0.000249
0.000256
0.000245
0.000275
0.001604
0.000710
0.000354
0.000325
0.000236
0.000232
0.000316
0.000244
0.000250
0.000275
0.000248
0.001401
0.000401
0.000299
0.000056
0.000194
0.000225
0.000268
0.000231
0.000265
0.000231
0.000295
0.000211
0.000256
0.000257
0.000281
0.000409
0.000453
0.000314
0.000225
0.000242
0.000271
0.001397
0.000684
0.000470
0.000339
0.000288
0.000209
0.000256
0.000275
0.000252
0.000260
0.000264
0.001582
0.000333
0.000197
0.000056
0.000219
0.000225
0.000250
0.000247
0.000248
0.000248
0.000237
0.000266
0.000256
0.000272
0.000373
0.000382
0.000316
0.000216
0.000244
0.000239
0.000268
0.000256
0.001577
0.000645
0.000452
0.000335
0.000205
0.000255
0.000257
0.000262
0.000261
0.000290
0.000265
0.001365
0.000329
0.000057
0.000214
0.000221
0.000230
0.000260
0.000258
0.000244
0.000246
0.000314
0.000365
0.000446
0.000364
0.000366
0.000385
0.000206
0.000243
0.000250
0.000304
0.000230
0.000265
0.001965
0.000294
0.000231
0.000474
0.000214
0.000249
0.000259
0.000269
0.000265
0.000266
0.000277
0.000412
0.000056
0.000182
0.000288
0.000226
0.000243
0.000254
0.000254
0.000219
0.000241
0.000272
0.000267
0.000230
0.000235
0.000347
0.000473
0.000397
0.000432
0.000212
0.000270
0.000251
0.000250
0.000247
0.000293
0.001481
0.001048
0.000222
0.000243
0.000276
0.000261
0.000278
0.000248
0.000198
0.000055
0.000202
0.001351
0.000284
0.000203
0.000238
0.000252
0.000256
0.000238
0.000242
0.000262
0.000247
0.000263
0.000239
0.000416
0.000352
0.000317
0.000398
0.000242
0.000276
0.000264
0.000271
0.000228
0.000264
0.000259
0.001323
0.000680
0.000313
0.000386
0.000375
0.000403
0.000295
0.000055
0.000198
0.000241
0.000518
0.001163
0.000202
0.000251
0.000234
0.000260
0.000256
0.000259
0.000256
0.000238
0.000254
0.000391
0.000539
0.000314
0.000215
0.000305
0.000309
0.000205
0.000251
0.000281
0.000228
0.000266
0.000291
0.001529
0.000732
0.000320
0.000255
0.000274
0.000189
0.000056
0.000222
0.000280
0.000433
0.000320
0.001301
0.000274
0.000201
0.000240
0.000234
0.000249
0.000249
0.000253
0.000234
0.000241
0.000245
0.000263
0.000265
0.000236
0.000258
0.000252
0.000266
0.000276
0.000311
0.000330
0.000208
0.000264
0.000270
0.001461
0.000257
0.000241
0.000176
0.000056
0.000203
0.000223
0.000249
0.000280
0.000340
0.000374
0.000398
0.000279
0.001584
0.000224
0.000266
0.000532
0.000346
0.000222
0.000471
0.000206
0.000229
0.000286
0.000249
0.000266
0.000280
0.000269
0.000258
0.000272
0.000269
0.000383
0.000431
0.000312
0.001579
0.000225
0.000187
0.000056
0.000226
0.000244
0.000245
0.000247
0.000242
0.000246
0.000264
0.000310
0.000410
0.002034
0.000236
0.000239
0.000258
0.000253
0.000261
0.000306
0.000225
0.000254
0.000317
0.000394
0.000328
0.000492
0.001434
0.000240
0.000253
0.002009
0.000279
0.000240
0.000263
0.001532
0.000148
0.000056
0.000314
0.000455
0.000448
0.000234
0.000277
0.000211
0.000276
0.000253
0.000265
0.000229
0.000250
0.000336
0.000427
0.000381
0.000416
0.000213
0.000222
0.001577
0.000228
0.000661
0.001797
0.000303
0.000225
0.001567
0.001993
0.000739
0.000276
0.000255
0.000313
0.000484
0.000300
0.000056
0.000190
0.000247
0.000277
0.000221
0.001428
0.001728
0.001078
0.000201
0.000227
0.001597
0.001966
0.000212
0.000247
0.000432
0.000270
0.000418
0.000374
0.000485
0.000209
0.000244
0.000250
0.000251
0.000280
0.001599
0.001205
0.001422
0.000283
0.000280
0.000277
0.000284
0.000358
0.000056
0.000175
0.000231
0.000229
0.000243
0.000220
0.000251
0.000251
0.000253
0.000259
0.000246
0.000265
0.000287
0.000571
0.000312
0.000317
0.000246
0.000242
0.000274
0.000268
0.000283
0.000240
0.000263
0.001516
0.000470
0.002119
0.000250
0.000240
0.000414
0.000383
0.000375
0.000205
0.000055
0.000226
0.000439
0.000388
0.000312
0.000191
0.000229
0.000258
0.000238
0.000241
0.000250
0.000247
0.000260
0.000261
0.001612
0.001354
0.001228
0.000271
0.000232
0.000241
0.000284
0.000277
0.000276
0.000246
0.000253
0.002205
0.000262
0.000235
0.000305
0.000322
0.000306
0.000251
0.000056
0.000221
0.000385
0.000513
0.000331
0.000242
0.000225
0.000247
0.000264
0.001914
0.001405
0.000221
0.000334
0.000385
0.000428
0.000248
0.000230
0.000250
0.000267
0.000268
0.000264
0.000259
0.000256
0.000482
0.000224
0.000274
0.000267
0.000254
0.000274
0.000280
0.000245
0.000201
0.000056
0.000210
0.000253
0.000241
0.000245
0.000278
0.000248
0.001544
0.001417
0.001316
0.000241
0.000230
0.000245
0.000269
0.000260
0.000241
0.000253
0.000248
0.002102
0.000264
0.000222
0.000291
0.000245
0.000262
0.000260
0.000260
0.000270
0.000260
0.000261
0.000268
0.000267
0.000170
0.000056
0.000200
0.002681
0.001398
0.000218
0.000303
0.000341
0.000194
0.000287
0.000231
0.000232
0.000259
0.000249
0.000226
0.000248
0.000273
0.000253
0.000271
0.000266
0.000270
0.000260
0.000257
0.000289
0.000273
0.000267
0.000242
0.000247
0.000264
0.000272
0.000264
0.000265
0.000370
0.000056
0.001565
0.000245
0.001236
0.000226
0.000233
0.000234
0.000264
0.000275
0.000225
0.000328
0.000395
0.000358
0.000287
0.000207
0.000252
0.002151
0.000231
0.000262
0.000302
0.000492
0.000333
0.000311
0.000228
0.000257
0.000262
0.000250
0.000265
0.000277
0.000268
0.001617
0.001267
0.000055
0.000194
0.000227
0.000354
0.000331
0.000375
0.000274
0.000213
0.000232
0.000252
0.000264
0.000256
0.000243
0.000230
0.000258
0.000260
0.000242
0.000285
0.000645
0.000378
0.000239
0.000230
0.000281
0.000276
0.000248
0.000251
0.000245
0.000269
0.000273
0.000240
0.000395
0.000302
0.000057
0.001107
0.000223
0.000491
0.000312
0.000292
0.000221
0.000231
0.000245
0.000248
0.002385
0.000301
0.000376
0.000211
0.000376
0.000312
0.000255
0.000243
0.000250
0.000268
0.000224
0.000255
0.000368
0.000595
0.000418
0.001828
0.001301
0.000542
0.000532
0.000218
0.000282
0.000198
0.000056
0.000230
0.000384
0.000234
0.000245
0.000252
0.000219
0.000252
0.000253
0.000252
0.000253
0.000255
0.000222
0.000247
0.000310
0.000332
0.000508
0.001852
0.001331
0.000464
0.000436
0.000434
0.000240
0.000241
0.000259
0.002188
0.000503
0.000388
0.000225
0.000274
0.000282
0.000191
0.000056
0.000217
0.000238
0.000254
0.000251
0.000239
0.000383
0.000373
0.000281
0.000351
0.000222
0.000238
0.000251
0.000261
0.002099
0.000354
0.000428
0.000189
0.000260
0.000285
0.000245
0.000250
0.002482
0.000330
0.000208
0.000261
0.000248
0.000248
0.000275
0.000317
0.000245
0.000200
0.000055
0.000197
0.000365
0.000551
0.000350
0.000253
0.000219
0.000231
0.000254
0.000259
0.000255
0.001965
0.000384
0.000279
0.000268
0.000232
0.000262
0.000276
0.000245
0.002198
0.000460
0.000221
0.000260
0.000271
0.000257
0.000264
0.000246
0.000301
0.000234
0.000266
0.000257
0.000186
0.000055
0.000214
0.000237
0.000247
0.000221
0.000247
0.000262
0.000234
0.000245
0.000237
0.002196
0.000217
0.000283
0.000266
0.000400
0.000205
0.000241
0.000304
0.000270
0.000246
0.000254
0.001982
0.000256
0.000353
0.000359
0.000429
0.000404
0.000302
0.000262
0.000247
0.000254
0.000204
0.000056
0.000203
0.000258
0.000224
0.000244
0.000246
0.000334
0.000216
0.002344
0.000216
0.000227
0.000257
0.000253
0.000235
0.000280
0.000279
0.002119
0.000593
0.000215
0.000260
0.000244
0.000260
0.000270
0.000280
0.000271
0.000255
0.000257
0.000293
0.000243
0.000275
0.000258
0.000196
0.000055
0.001824
0.001428
0.000211
0.000216
0.000245
0.000262
0.000242
0.000296
0.000376
0.000327
0.002199
0.000255
0.000257
0.000249
0.000283
0.000495
0.000428
0.000290
0.000222
0.000244
0.000244
0.000270
0.000272
0.000218
0.000257
0.000273
0.000284
0.000246
0.000355
0.000791
0.000158
0.000056
0.000199
0.000255
0.000250
0.000251
0.000270
0.000237
0.000255
0.000241
0.001515
0.002108
0.000585
0.000254
0.000400
0.000701
0.000358
0.000218
0.000260
0.000252
0.000261
0.000271
0.000254
0.000238
0.000262
0.000259
0.003010
0.000337
0.000232
0.000274
0.000289
0.000290
0.000383
0.000055
0.001980
0.000194
0.000225
0.000228
0.000271
0.000366
0.000456
0.000310
0.000287
0.000223
0.000223
0.000260
0.000260
0.000260
0.000275
0.000234
0.000260
0.000293
0.001819
0.000232
0.000242
0.000254
0.000273
0.000275
0.000276
0.000248
0.001485
0.000325
0.000247
0.000258
0.000165
0.000056
0.000204
0.000231
0.000238
0.000239
0.000255
0.000235
0.000349
0.000333
0.000332
0.000392
0.000199
0.000243
0.000272
0.000323
0.000427
0.000319
0.000224
0.000244
0.000264
0.000523
0.000330
0.000414
0.000250
0.000264
0.000261
0.000245
0.000252
0.000278
0.000277
0.000263
0.000206
0.000056
0.001504
0.000394
0.000212
0.001933
0.000304
0.000394
0.000443
0.000307
0.000224
0.000247
0.000271
0.000240
0.000250
0.000244
0.000265
0.000259
0.000453
0.000337
0.000362
0.000347
0.000375
0.000222
0.000263
0.000272
0.000266
0.000264
0.000267
0.000273
0.000381
0.000445
0.001379
0.000056
0.000210
0.000222
0.002081
0.000353
0.000284
0.000234
0.000260
0.000254
0.000260
0.000261
0.000212
0.000249
0.000254
0.000267
0.000310
0.000307
0.000715
0.001751
0.000230
0.000248
0.000254
0.000268
0.000387
0.000400
0.001616
0.000278
0.000366
0.001923
0.000262
0.000246
0.000200
0.000055
0.000219
0.000217
0.000233
0.000243
0.000233
0.000246
0.000251
0.000303
0.000317
0.000265
0.000392
0.000349
0.000348
0.000288
0.000242
0.000270
0.000260
0.000238
0.000266
0.000254
0.000316
0.000276
0.000264
0.000262
0.000264
0.001518
0.000293
0.000383
0.002071
0.000228
0.000179
0.000056
0.000192
0.000232
0.000240
0.000247
0.000488
0.000209
0.000250
0.000341
0.000361
0.000308
0.000321
0.000192
0.000264
0.000265
0.000270
0.000336
0.000428
0.000426
0.000256
0.000397
0.000632
0.000353
0.001572
0.000233
0.000237
0.001975
0.000352
0.000256
0.000224
0.000291
0.000188
0.000056
0.000191
0.000236
0.000224
0.000242
0.000257
0.000268
0.000253
0.000272
0.000255
0.000332
0.001740
0.000315
0.000390
0.000275
0.000465
0.000376
0.000391
0.001448
0.000235
0.000285
0.002117
0.000575
0.000257
0.000222
0.000266
0.000275
0.000498
0.000228
0.000257
0.000274
0.000202
0.000055
0.000184
0.000328
0.000423
0.000276
0.000194
0.000243
0.000260
0.000254
0.000263
0.000294
0.000229
0.000251
0.000257
0.000274
0.000372
0.000463
0.001285
0.000270
0.000268
0.002050
0.000232
0.000292
0.000232
0.000267
0.000244
0.000275
0.000280
0.000257
0.000242
0.000265
0.000209
0.000056
0.000237
0.000465
0.001982
0.000244
0.000233
0.000243
0.000256
0.000302
0.000470
0.000433
0.001267
0.000380
0.000357
0.002080
0.000205
0.000244
0.000262
0.000277
0.000254
0.000237
0.000292
0.000294
0.000253
0.000375
0.000504
0.000322
0.000335
0.002215
0.000646
0.000312
0.000412
0.000057
0.000197
0.000222
0.000247
0.001956
0.000235
0.000221
0.000257
0.000247
0.000233
0.000255
0.000258
0.000254
0.000260
0.000286
0.000486
0.001411
0.000254
0.000235
0.000267
0.000267
0.000226
0.000258
0.000253
0.000281
0.000349
0.000454
0.000444
0.000240
0.001601
0.000276
0.000162
0.000056
0.000203
0.000229
0.000240
0.000238
0.000261
0.000266
0.000224
0.000248
0.000255
0.000392
0.000372
0.001393
0.000221
0.000232
0.000252
0.000292
0.000235
0.000253
0.000309
0.000473
0.000415
0.000430
0.000215
0.001590
0.000228
0.000252
0.000294
0.000280
0.000259
0.000269
0.000190
0.000056
0.000196
0.000252
0.000246
0.000272
0.000247
0.000245
0.000235
0.000245
0.000273
0.000230
0.000247
0.000255
0.000269
0.001480
0.000363
0.000209
0.000265
0.000239
0.000277
0.000323
0.000364
0.000274
0.000247
0.000264
0.000256
0.000265
0.000259
0.001411
0.000285
0.000228
0.000176
0.000056
0.000191
0.000231
0.000261
0.000259
0.000269
0.000219
0.000271
0.000242
0.000233
0.000250
0.000245
0.000260
0.000227
0.000299
0.000373
0.000359
0.000281
0.000222
0.001643
0.000235
0.000237
0.000264
0.000263
0.000330
0.000352
0.000371
0.000450
0.000265
0.000247
0.001622
0.000145
0.000056
0.000326
0.000197
0.000362
0.000299
0.000229
0.000216
0.000245
0.000274
0.000248
0.000265
0.000226
0.000239
0.001479
0.000312
0.000265
0.000221
0.000258
0.000270
0.000251
0.000263
0.000255
0.000233
0.000255
0.000277
0.000267
0.000377
0.000491
0.000313
0.000278
0.000240
0.000196
0.000058
0.000193
0.000260
0.000485
0.000269
0.000381
0.000274
0.000246
0.000250
0.000254
0.000259
0.000245
0.000218
0.000256
0.000244
0.001352
0.000224
0.000230
0.000244
0.000264
0.000265
0.000238
0.000272
0.000254
0.000256
0.000256
0.000278
0.000300
0.000794
0.000346
0.000243
0.000165
0.000056
0.000203
0.001566
0.000255
0.000302
0.000475
0.000377
0.000220
0.000254
0.000271
0.000247
0.000255
0.000248
0.000273
0.000275
0.000253
0.001582
0.000204
0.000281
0.000262
0.000263
0.000268
0.000237
0.000260
0.000264
0.000262
0.000278
0.000445
0.000370
0.000329
0.000242
0.000191
0.000056
0.000194
0.000250
0.000251
0.001692
0.000328
0.000351
0.000219
0.000237
0.000262
0.000264
0.000284
0.000256
0.000269
0.000238
0.000231
0.000266
0.000464
0.001298
0.000234
0.000208
0.001505
0.000292
0.000577
0.000403
0.000347
0.000228
0.000269
0.000486
0.000220
0.000258
0.000187
0.000057
0.000264
0.000219
0.000239
0.000247
0.000244
0.000260
0.000237
0.000260
0.000252
0.000254
0.000240
0.000260
0.000313
0.000558
0.001611
0.001487
0.000356
0.000553
0.000335
0.000210
0.000234
0.000253
0.000260
0.000260
0.000251
0.000266
0.000254
0.000267
0.001537
0.000317
0.000180
0.000056
0.000222
0.000354
0.000353
0.000332
0.000239
0.000216
0.000247
0.000377
0.000418
0.000350
0.002190
0.000313
0.000730
0.000457
0.000483
0.000259
0.000332
0.000395
0.000329
0.000281
0.000387
0.000267
0.001537
0.000524
0.000225
0.000261
0.000252
0.000256
0.000265
0.000268
0.000187
0.000056
0.000215
0.000248
0.000252
0.000256
0.000240
0.001665
0.000881
0.000994
0.000210
0.000232
0.000262
0.000266
0.000249
0.000257
0.000261
0.000243
0.000253
0.000269
0.000267
0.000279
0.001450
0.000297
0.000251
0.000225
0.000234
0.000264
0.000254
0.000288
0.000263
0.000282
0.001911
0.000057
0.000196
0.000223
0.001547
0.000878
0.000349
0.000376
0.000232
0.000224
0.000258
0.000254
0.000244
0.000255
0.000246
0.001983
0.000469
0.000224
0.000241
0.000252
0.000270
0.000262
0.000194
