0.000278
0.019931
0.001566
0.000318
0.000243
0.000234
0.000308
0.000248
0.000321
0.000291
0.000245
0.000380
0.000596
0.000422
0.000379
0.000301
0.000282
0.000379
0.000396
0.000407
0.000302
0.001872
0.000490
0.000463
0.000244
0.000290
0.000300
0.000416
0.000418
0.000466
0.000403
0.000296
0.000058
0.000202
0.000233
0.000267
0.000263
0.000273
0.000249
0.000280
0.000264
0.000271
0.000343
0.000360
0.000568
0.000200
0.000294
0.000395
0.000365
0.000348
0.000244
0.000225
0.001736
0.000285
0.000242
0.000486
0.000248
0.000265
0.000231
0.000291
0.000294
0.000274
0.000319
0.000454
0.000056
0.000228
0.000235
0.000262
0.000260
0.000253
0.000248
0.000263
0.000255
0.000282
0.001669
0.000255
0.000230
0.000244
0.000277
0.000273
0.000251
0.000270
0.000254
0.000342
0.001810
0.000267
0.000260
0.000432
0.000473
0.000369
0.000252
0.000255
0.000618
0.000402
0.000746
0.000170
0.000057
0.000197
0.000224
0.000260
0.000234
0.000316
0.000252
0.000387
0.000430
0.000482
0.000267
0.000216
0.000230
0.000213
0.000264
0.000256
0.000257
0.000237
0.000271
0.000289
0.000328
0.001750
0.000265
0.000226
0.000443
0.000532
0.000440
0.000654
0.000487
0.000335
0.000274
0.000208
0.000075
0.000186
0.000230
0.000258
0.000253
0.000248
0.000265
0.000256
0.000437
0.001487
0.000251
0.000239
0.000236
0.000252
0.000249
0.000263
0.000284
0.000458
0.000611
0.001396
0.000289
0.000259
0.000428
0.000243
0.000253
0.000239
0.000269
0.000251
0.000266
0.000272
0.000257
0.000218
0.000057
0.000199
0.000233
0.000231
0.000249
0.000258
0.000243
0.000244
0.000248
0.000244
0.000255
0.001689
0.000241
0.000247
0.000222
0.000215
0.000262
0.000238
0.000255
0.000256
0.000253
0.000260
0.001747
0.000264
0.000228
0.000463
0.000252
0.000223
0.000243
0.000270
0.000261
0.000212
0.000057
0.000199
0.000208
0.000246
0.000249
0.000235
0.000248
0.000265
0.000233
0.000263
0.000249
0.000259
0.000255
0.000262
0.000274
0.001623
0.000277
0.000293
0.000236
0.000243
0.000274
0.000272
0.000249
0.000251
0.000255
0.000264
0.001852
0.000406
0.000329
0.000269
0.000274
0.000219
0.000056
0.000198
0.000212
0.000236
0.000276
0.000255
0.000244
0.000290
0.000454
0.000355
0.000433
0.000221
0.000231
0.000257
0.000246
0.001636
0.000537
0.000294
0.000392
0.000288
0.000232
0.000261
0.000274
0.000274
0.001812
0.000466
0.000497
0.000235
0.000215
0.000245
0.000250
0.000209
0.000057
0.000207
0.000227
0.000234
0.000282
0.000283
0.000473
0.000420
0.000262
0.000205
0.000237
0.000262
0.000236
0.000262
0.001708
0.000469
0.000302
0.000238
0.000247
0.000263
0.000283
0.000256
0.000257
0.000270
0.001910
0.000278
0.000407
0.000238
0.000252
0.000317
0.000396
0.000322
0.000058
0.000208
0.000387
0.000352
0.000318
0.000229
0.000209
0.000243
0.000258
0.000245
0.000246
0.000225
0.000250
0.001616
0.000382
0.000261
0.000216
0.000220
0.000271
0.000233
0.000272
0.000280
0.000339
0.001788
0.000352
0.000219
0.000504
0.000211
0.000233
0.000254
0.000266
0.000270
0.000057
0.000328
0.000542
0.000692
0.000180
0.000214
0.000261
0.000236
0.000220
0.000256
0.000247
0.000258
0.001695
0.000284
0.000402
0.000387
0.000238
0.000225
0.000220
0.000244
0.000275
0.000240
0.001881
0.000225
0.000235
0.002237
0.000442
0.000255
0.000272
0.000258
0.000264
0.000206
0.000058
0.000184
0.000221
0.000242
0.000245
0.000251
0.001693
0.000224
0.000214
0.000231
0.000250
0.000248
0.000239
0.000259
0.000251
0.000259
0.000478
0.000594
0.000234
0.000233
0.000269
0.000274
0.000241
0.000251
0.000493
0.000433
0.000247
0.000406
0.000631
0.000318
0.000222
0.000204
0.000059
0.000208
0.000212
0.000249
0.000250
0.000242
0.000239
0.000239
0.000458
0.000420
0.001640
0.000268
0.000224
0.000240
0.000252
0.000256
0.000307
0.000431
0.000490
0.000380
0.000218
0.000221
0.000280
0.000305
0.000296
0.000267
0.000398
0.000427
0.000593
0.000443
0.000452
0.000140
0.000057
0.000189
0.000250
0.000222
0.000230
0.000233
0.000243
0.000245
0.000255
0.000242
0.000366
0.000342
0.001560
0.000277
0.000212
0.000201
0.000222
0.000260
0.000273
0.000228
0.000248
0.000299
0.000444
0.000382
0.000348
0.000227
0.000221
0.000275
0.000255
0.000269
0.000270
0.000422
0.000057
0.000178
0.000231
0.000239
0.000327
0.000446
0.000435
0.000259
0.000245
0.000229
0.000263
0.000249
0.000242
0.000282
0.000262
0.000234
0.000571
0.000382
0.001594
0.000290
0.000220
0.000267
0.000256
0.000257
0.000247
0.000254
0.000516
0.000484
0.000320
0.000373
0.000221
0.000215
0.000075
0.000207
0.000228
0.000417
0.000213
0.000268
0.000242
0.000262
0.000611
0.000377
0.000249
0.000234
0.000271
0.000269
0.000245
0.000585
0.000298
0.000224
0.000316
0.000369
0.001651
0.000237
0.000242
0.000299
0.000414
0.000273
0.000299
0.000255
0.000443
0.000427
0.000386
0.000292
0.000057
0.000211
0.000207
0.000238
0.000245
0.000473
0.000259
0.000286
0.000218
0.000515
0.000419
0.000376
0.000238
0.000214
0.000220
0.000259
0.000269
0.000252
0.000259
0.000255
0.000337
0.000278
0.000605
0.001561
0.000264
0.000242
0.000258
0.000300
0.000362
0.000565
0.000570
0.000428
0.000056
0.000255
0.000320
0.000336
0.000408
0.000311
0.000217
0.000256
0.000312
0.000509
0.000410
0.000305
0.000208
0.000212
0.000265
0.000264
0.000241
0.000244
0.000282
0.000266
0.000261
0.000265
0.000510
0.001651
0.000323
0.000343
0.000422
0.000379
0.000239
0.000446
0.000340
0.000418
0.000057
0.000235
0.000377
0.000282
0.000209
0.000249
0.000195
0.000467
0.000217
0.000213
0.000473
0.000311
0.000442
0.000252
0.000234
0.000268
0.000281
0.000371
0.000434
0.000299
0.000223
0.000226
0.000434
0.000597
0.001656
0.000256
0.000409
0.000329
0.000243
0.000291
0.000401
0.000292
0.000057
0.000187
0.000206
0.000242
0.000246
0.000246
0.000250
0.000250
0.000344
0.000430
0.000358
0.000436
0.000358
0.000291
0.000220
0.000524
0.000264
0.000269
0.000267
0.000250
0.000326
0.000240
0.000248
0.000253
0.000343
0.000659
0.001616
0.000229
0.000232
0.000254
0.000251
0.000206
0.000058
0.000317
0.000402
0.000383
0.000223
0.000222
0.000226
0.000262
0.000243
0.000248
0.000276
0.000203
0.000485
0.000318
0.000459
0.000364
0.000314
0.000224
0.000236
0.000366
0.000355
0.000366
0.000376
0.000375
0.000376
0.000239
0.000228
0.000246
0.000276
0.001777
0.000271
0.000205
0.000057
0.000181
0.000210
0.000251
0.000274
0.000350
0.000531
0.000334
0.000238
0.000237
0.000268
0.000248
0.000247
0.000547
0.000429
0.000464
0.000307
0.000263
0.000256
0.000435
0.000493
0.000366
0.000444
0.000465
0.000425
0.000243
0.000232
0.000245
0.000230
0.000260
0.001775
0.000286
0.000057
0.000259
0.000325
0.000215
0.000216
0.000258
0.000247
0.000314
0.000427
0.000423
0.000300
0.000305
0.000305
0.000316
0.000712
0.000302
0.000202
0.000222
0.000238
0.000261
0.000258
0.000267
0.000265
0.000249
0.000262
0.000352
0.000341
0.000464
0.000345
0.000217
0.000224
0.000202
0.000056
0.000441
0.000419
0.000390
0.000203
0.000193
0.000237
0.000251
0.000252
0.000246
0.000221
0.000248
0.000272
0.000299
0.000426
0.000492
0.000539
0.000216
0.000368
0.000367
0.000395
0.000254
0.000223
0.000222
0.000264
0.001809
0.000227
0.001755
0.000928
0.000434
0.000294
0.000144
0.000056
0.000180
0.000207
0.000243
0.000232
0.000252
0.000253
0.000253
0.000255
0.000254
0.000325
0.000350
0.000442
0.000530
0.000282
0.000214
0.000227
0.000264
0.000295
0.000214
0.000231
0.000254
0.000226
0.001814
0.000264
0.000226
0.000269
0.000274
0.000268
0.001855
0.000567
0.000278
0.000060
0.000196
0.000207
0.000225
0.000232
0.000261
0.000247
0.000242
0.000257
0.000255
0.000452
0.000522
0.000262
0.000406
0.000236
0.000239
0.000268
0.000378
0.000392
0.000370
0.000253
0.001815
0.000236
0.000220
0.000238
0.000249
0.000277
0.000242
0.000262
0.000257
0.000341
0.000409
0.000073
0.000248
0.000212
0.000202
0.000257
0.000250
0.000240
0.000260
0.000251
0.000239
0.000259
0.000242
0.000289
0.000436
0.000372
0.000292
0.000312
0.000477
0.000217
0.000220
0.000262
0.000258
0.000249
0.000280
0.000260
0.000270
0.001832
0.000227
0.000228
0.000253
0.000251
0.000220
0.000057
0.000340
0.000275
0.000245
0.000198
0.000230
0.000238
0.000236
0.000255
0.000254
0.000234
0.000233
0.000244
0.000267
0.000312
0.000473
0.000365
0.000330
0.000206
0.000234
0.000236
0.000262
0.000258
0.000251
0.000263
0.000261
0.000254
0.000305
0.001723
0.000207
0.000214
0.000210
0.000057
0.000188
0.000205
0.000250
0.000247
0.000365
0.000371
0.000364
0.000375
0.000191
0.000253
0.000243
0.000242
0.000250
0.000256
0.000252
0.000262
0.000249
0.000257
0.000253
0.000256
0.000267
0.000267
0.000261
0.000235
0.000238
0.000282
0.000291
0.000245
0.000256
0.000255
0.000216
0.000056
0.000204
0.000244
0.000224
0.000254
0.000247
0.000251
0.000240
0.000266
0.000343
0.000210
0.000218
0.000221
0.000258
0.000246
0.000280
0.000254
0.000251
0.000254
0.000353
0.000229
0.000235
0.000287
0.000298
0.000235
0.000263
0.000283
0.000273
0.000256
0.000258
0.000425
0.000598
0.000058
0.000231
0.000302
0.000213
0.000212
0.000210
0.000255
0.000238
0.000251
0.000246
0.000254
0.000259
0.000276
0.000538
0.001826
0.000220
0.000217
0.000508
0.000206
0.000241
0.000455
0.000469
0.000323
0.000235
0.000262
0.000264
0.000260
0.000273
0.000255
0.000303
0.000260
0.000206
0.000056
0.000349
0.000387
0.000380
0.000312
0.000197
0.000247
0.000250
0.000246
0.000235
0.000242
0.000253
0.000251
0.000240
0.000303
0.000345
0.000518
0.000331
0.001870
0.000202
0.000226
0.000319
0.000431
0.000529
0.000230
0.000366
0.000273
0.000303
0.000230
0.000234
0.000238
0.000218
0.000057
0.000208
0.000211
0.000236
0.000308
0.000346
0.000504
0.000274
0.000258
0.000250
0.000221
0.000241
0.000270
0.000263
0.000267
0.000248
0.000258
0.000315
0.000512
0.000442
0.000303
0.000242
0.001799
0.000294
0.000552
0.000479
0.000442
0.000290
0.000240
0.000238
0.000269
0.000498
0.000058
0.000186
0.000270
0.000210
0.000329
0.000376
0.000417
0.000454
0.000200
0.000229
0.000316
0.000232
0.000231
0.000252
0.000304
0.000356
0.000219
0.000212
0.000360
0.000483
0.000340
0.000549
0.001783
0.000252
0.000357
0.000572
0.000365
0.000246
0.000368
0.000233
0.000231
0.000210
0.000057
0.000208
0.000331
0.000346
0.000299
0.000383
0.000308
0.000396
0.000206
0.000230
0.000262
0.000268
0.000242
0.000231
0.000278
0.000231
0.000259
0.000321
0.000356
0.000525
0.000376
0.000306
0.000223
0.000253
0.001788
0.000358
0.000495
0.000681
0.000278
0.000246
0.000288
0.000184
0.000057
0.000184
0.000226
0.000314
0.000265
0.000280
0.000341
0.000417
0.000316
0.000316
0.000530
0.000202
0.000225
0.000234
0.000281
0.000275
0.000273
0.000215
0.000502
0.000372
0.000351
0.000282
0.000235
0.000257
0.000253
0.000263
0.000259
0.000243
0.000255
0.000274
0.000333
0.000182
0.000057
0.000272
0.000359
0.000225
0.000215
0.000262
0.000257
0.000245
0.000355
0.000214
0.000208
0.000254
0.000339
0.000430
0.000486
0.000270
0.000298
0.000232
0.000210
0.000252
0.000260
0.000259
0.000305
0.000230
0.000254
0.000278
0.000337
0.000449
0.000346
0.000372
0.000226
0.000168
0.000056
0.000205
0.000209
0.000266
0.000249
0.000237
0.000253
0.000253
0.000272
0.000469
0.000253
0.000226
0.000250
0.000250
0.000257
0.000272
0.000273
0.000273
0.000353
0.000242
0.000216
0.000256
0.000285
0.000243
0.000264
0.000278
0.000259
0.000272
0.000257
0.000249
0.000488
0.000185
0.000056
0.000195
0.000229
0.000232
0.000270
0.000262
0.000215
0.000291
0.000460
0.000262
0.000229
0.000250
0.000257
0.000242
0.000275
0.000433
0.001776
0.000232
0.000251
0.000310
0.000382
0.000409
0.000341
0.000417
0.000327
0.000410
0.000373
0.000226
0.000263
0.000267
0.000278
0.001413
0.000055
0.000237
0.000298
0.000272
0.000190
0.000196
0.000235
0.000234
0.000254
0.000245
0.000265
0.000252
0.000256
0.000256
0.000318
0.000529
0.001685
0.000210
0.000220
0.000208
0.000270
0.000244
0.000246
0.000394
0.000403
0.000272
0.000350
0.000250
0.000235
0.000274
0.000260
0.000204
0.000057
0.001180
0.000595
0.000294
0.000295
0.000203
0.000221
0.000205
0.000230
0.000495
0.000226
0.000240
0.000236
0.000318
0.000534
0.000410
0.000328
0.000292
0.000248
0.000351
0.000359
0.000233
0.000231
0.000271
0.000236
0.000268
0.000585
0.000534
0.000283
0.000255
0.000271
0.000183
0.000056
0.000208
0.000210
0.000213
0.000248
0.001564
0.000229
0.000210
0.000242
0.000241
0.000272
0.000230
0.000253
0.000239
0.000264
0.000270
0.000315
0.000515
0.000559
0.000266
0.001809
0.000238
0.000297
0.000274
0.000440
0.000475
0.000434
0.000236
0.000244
0.000259
0.000265
0.000218
0.000058
0.000218
0.000223
0.000226
0.001311
0.000340
0.000206
0.000254
0.000215
0.000237
0.000234
0.000238
0.000249
0.000277
0.000248
0.000241
0.000326
0.000435
0.000544
0.000263
0.000220
0.000239
0.000271
0.000267
0.000241
0.000333
0.000224
0.000221
0.000277
0.000274
0.000433
0.000517
0.000057
0.000206
0.000228
0.000243
0.000262
0.000260
0.000252
0.000226
0.000257
0.000273
0.000250
0.001433
0.000252
0.000219
0.000256
0.000243
0.000241
0.000280
0.000249
0.000260
0.000271
0.000265
0.000482
0.000561
0.000300
0.000229
0.000270
0.001844
0.000214
0.000220
0.000317
0.000466
0.000056
0.000246
0.000430
0.000458
0.000509
0.000520
0.000553
0.001460
0.000416
0.000543
0.000647
0.000568
0.000676
0.000542
0.000588
0.000582
0.001724
0.000511
0.000402
0.000395
0.000329
0.000222
0.000296
0.000283
0.000272
0.000276
0.000270
0.000317
0.000274
0.000245
0.000296
0.001316
0.000056
0.000217
0.000246
0.000206
0.000251
0.000234
0.000253
0.000242
0.000239
0.000253
0.000273
0.000234
0.000280
0.000220
0.000282
0.000270
0.000238
0.001856
0.000248
0.000264
0.000244
0.000260
0.000259
0.000264
0.000340
0.000410
0.000371
0.000312
0.000248
0.000283
0.000265
0.000164
0.000057
0.000189
0.001394
0.000264
0.000270
0.000259
0.000243
0.000261
0.000226
0.000249
0.000241
0.000241
0.000237
0.000265
0.000449
0.000271
0.000365
0.000263
0.000280
0.001914
0.000248
0.000264
0.000260
0.000253
0.000257
0.000276
0.000263
0.000278
0.000264
0.000242
0.000306
0.000236
0.000058
0.000203
0.000226
0.000251
0.001425
0.000247
0.000280
0.000225
0.000221
0.000234
0.000281
0.000233
0.000255
0.000241
0.000257
0.000277
0.000252
0.000243
0.000257
0.000282
0.000256
0.000255
0.001863
0.000251
0.001759
0.000254
0.000259
0.000241
0.000227
0.000293
0.000308
0.000165
0.000062
0.000194
0.000272
0.001346
0.000217
0.000290
0.000209
0.000209
0.000254
0.000253
0.000258
0.000234
0.000246
0.000256
0.000264
0.000253
0.000260
0.000268
0.000271
0.000296
0.000246
0.001877
0.000272
0.001787
0.000273
0.000256
0.000261
0.000249
0.000275
0.000252
0.000254
0.000181
0.000058
0.001442
0.000231
0.000249
0.000222
0.000219
0.000229
0.000272
0.000363
0.000259
0.000255
0.000244
0.000266
0.000251
0.000411
0.000411
0.000265
0.000252
0.000268
0.000235
0.000212
0.000277
0.000313
0.000257
0.000261
0.000270
0.000274
0.000256
0.000340
0.000721
0.000346
0.000174
0.000061
0.000195
0.000290
0.000270
0.000310
0.000375
0.000243
0.001667
0.000288
0.000278
0.000257
0.000277
0.000307
0.000251
0.000270
0.000297
0.000315
0.000468
0.000431
0.000364
0.000256
0.000323
0.000283
0.000253
0.000277
0.000323
0.000254
0.000267
0.000241
0.000255
0.000297
0.000457
0.000058
0.000309
0.000375
0.000274
0.000266
0.000263
0.000217
0.000224
0.000241
0.000265
0.000250
0.001501
0.000269
0.000197
0.000252
0.000249
0.000280
0.000265
0.000248
0.000267
0.000262
0.000267
0.000330
0.000595
0.000358
0.000220
0.000291
0.000270
0.000242
0.000240
0.000237
0.000253
0.000057
0.000197
0.000201
0.000273
0.000506
0.000351
0.000265
0.000222
0.000243
0.000251
0.000252
0.000230
0.000271
0.000242
0.000266
0.000243
0.000237
0.000406
0.001270
0.000218
0.000248
0.000214
0.000273
0.000369
0.000485
0.000204
0.000253
0.000687
0.000287
0.000401
0.000222
0.000174
0.000056
0.000215
0.000228
0.000264
0.000266
0.000303
0.000205
0.000371
0.000430
0.000454
0.000277
0.000366
0.000402
0.000387
0.000358
0.000237
0.000219
0.000212
0.000246
0.000371
0.000559
0.001201
0.000246
0.000247
0.000275
0.000235
0.000252
0.000245
0.000332
0.000372
0.000572
0.000197
0.000058
0.000196
0.000215
0.000249
0.000235
0.000252
0.000245
0.000242
0.000258
0.000251
0.000388
0.000456
0.000439
0.000225
0.000210
0.000219
0.000257
0.000253
0.000265
0.000259
0.000545
0.000204
0.000278
0.000346
0.000376
0.000339
0.000225
0.000265
0.000269
0.000247
0.000287
0.000234
0.000057
0.000290
0.000298
0.000318
0.000366
0.000576
0.000228
0.000257
0.000265
0.000225
0.000263
0.000263
0.000261
0.000239
0.000249
0.000252
0.000225
0.000257
0.000396
0.000519
0.000343
0.000222
0.000266
0.000220
0.000234
0.000269
0.000278
0.000276
0.000259
0.000275
0.000271
0.000285
0.000058
0.000319
0.000302
0.000229
0.000225
0.000260
0.000244
0.000247
0.000256
0.000248
0.000262
0.000259
0.000237
0.000312
0.000524
0.000434
0.000306
0.000220
0.000199
0.000242
0.000271
0.000276
0.000244
0.000263
0.000263
0.000272
0.000280
0.000498
0.000548
0.000492
0.000213
0.000143
0.000056
0.000374
0.000211
0.000205
0.000232
0.000248
0.000255
0.000244
0.000245
0.000254
0.000261
0.000229
0.000244
0.000271
0.000226
0.000232
0.000260
0.000261
0.000262
0.000279
0.000256
0.000259
0.000261
0.000270
0.000259
0.000266
0.000267
0.000238
0.000277
0.000254
0.000281
0.000220
0.000057
0.000192
0.000218
0.000242
0.000252
0.000228
0.000247
0.000267
0.000237
0.000264
0.000277
0.000229
0.000234
0.000261
0.000402
0.000243
0.000279
0.000267
0.000258
0.000262
0.000282
0.000270
0.000238
0.000245
0.000257
0.000268
0.000267
0.000260
0.000250
0.000271
0.000258
0.000223
0.000057
0.000248
0.000377
0.000351
0.000274
0.000332
0.000208
0.000212
0.000255
0.000231
0.000247
0.000240
0.000266
0.000251
0.000232
0.000258
0.000264
0.000262
0.000269
0.000248
0.000259
0.000283
0.000263
0.000271
0.000262
0.000273
0.000290
0.000217
0.000300
0.000243
0.000260
0.000204
0.000056
0.000211
0.000228
0.000246
0.000278
0.000233
0.000449
0.000213
0.000243
0.000259
0.000409
0.000577
0.000305
0.000208
0.000217
0.000273
0.000269
0.000240
0.000269
0.000257
0.000267
0.000266
0.000264
0.000262
0.000273
0.000509
0.000555
0.000258
0.000273
0.000272
0.000261
0.000187
0.000058
0.000196
0.000209
0.000234
0.000252
0.000342
0.000697
0.000297
0.000317
0.000248
0.000243
0.000228
0.000273
0.000240
0.000247
0.000259
0.000268
0.000260
0.000245
0.000744
0.000406
0.000197
0.000224
0.000252
0.000280
0.000284
0.000263
0.000261
0.000263
0.000254
0.000331
0.000340
0.000056
0.000338
0.000188
0.000209
0.000244
0.000251
0.000254
0.000249
0.000226
0.000242
0.000259
0.000245
0.000259
0.000254
0.000398
0.000534
0.000457
0.000209
0.000234
0.000263
0.000254
0.000262
0.000269
0.000481
0.000238
0.000259
0.000695
0.000465
0.000324
0.000278
0.000246
0.000192
0.000056
0.000218
0.000204
0.000242
0.000251
0.000248
0.000255
0.000296
0.000777
0.000353
0.000324
0.000241
0.000235
0.000276
0.000274
0.000276
0.000230
0.000251
0.000239
0.000256
0.000394
0.000380
0.000531
0.000438
0.000275
0.000441
0.000345
0.000489
0.000202
0.000242
0.000307
0.000575
0.000058
0.000274
0.000209
0.000494
0.000194
0.000231
0.000243
0.000234
0.000260
0.000234
0.000243
0.000269
0.000442
0.000338
0.000399
0.000199
0.000210
0.000263
0.000238
0.000271
0.000270
0.000272
0.000261
0.000249
0.000270
0.000314
0.000497
0.000464
0.000254
0.000249
0.000275
0.000218
0.000056
0.000194
0.000248
0.000219
0.000238
0.000250
0.000239
0.000407
0.000386
0.000452
0.000278
0.000344
0.000238
0.000231
0.000269
0.000261
0.000249
0.000240
0.000259
0.000282
0.000462
0.000506
0.000260
0.000450
0.000355
0.000395
0.000386
0.000384
0.000238
0.000233
0.000329
0.000396
0.000057
0.000250
0.000268
0.000214
0.000256
0.000257
0.000256
0.000253
0.000243
0.000256
0.000277
0.000220
0.000312
0.000478
0.000463
0.000293
0.000245
0.000257
0.000260
0.000275
0.000227
0.000253
0.000252
0.000277
0.000260
0.000273
0.000339
0.000524
0.000437
0.000242
0.000281
0.000204
0.000058
0.000185
0.000225
0.000258
0.000254
0.000247
0.000335
0.000496
0.000510
0.000344
0.000666
0.000291
0.000226
0.000216
0.000268
0.000236
0.000286
0.000265
0.000265
0.000465
0.000545
0.001531
0.000247
0.000264
0.000257
0.000299
0.000220
0.000406
0.000422
0.000387
0.000275
0.000163
0.000056
0.000202
0.000206
0.000240
0.000254
0.000236
0.000256
0.000283
0.000244
0.000244
0.000358
0.000354
0.000357
0.000282
0.000379
0.000387
0.000329
0.000227
0.000220
0.000247
0.000270
0.000240
0.000251
0.000270
0.000259
0.000338
0.000532
0.000366
0.000279
0.000221
0.000261
0.000204
0.000057
0.000206
0.000227
0.000259
0.000251
0.000252
0.000236
0.000461
0.000232
0.000218
0.000257
0.000245
0.000253
0.000257
0.000255
0.000249
0.000269
0.000260
0.000264
0.000279
0.000249
0.000262
0.000281
0.000307
0.000239
0.000266
0.000273
0.000269
0.000272
0.000258
0.000270
0.000201
0.000056
0.000209
0.000232
0.000314
0.000450
0.000365
0.000228
0.000225
0.000241
0.000261
0.000246
0.000246
0.000256
0.000266
0.000260
0.000243
0.000238
0.000253
0.000262
0.000340
0.000298
0.000489
0.000325
0.000235
0.000267
0.000260
0.000259
0.000271
0.000250
0.000282
0.000263
0.000215
0.000057
0.000321
0.000464
0.000333
0.000220
0.000247
0.000255
0.000479
0.000204
0.000188
0.000253
0.000276
0.000339
0.000362
0.000454
0.001754
0.000270
0.000253
0.000240
0.000295
0.000249
0.000310
0.000441
0.000553
0.000381
0.000240
0.000236
0.000274
0.000418
0.000285
0.000285
0.000175
0.000058
0.000224
0.000354
0.000330
0.000281
0.000512
0.000210
0.000233
0.000243
0.000253
0.000243
0.000258
0.000252
0.000258
0.000295
0.000415
0.000509
0.000240
0.000209
0.000275
0.000251
0.000256
0.000305
0.000258
0.000271
0.000277
0.000438
0.000561
0.000379
0.000458
0.000222
0.000213
0.000058
0.000217
0.000208
0.000250
0.000227
0.000250
0.000250
0.000274
0.000275
0.000433
0.000327
0.000374
0.000392
0.000213
0.000223
0.000265
0.000267
0.000325
0.000238
0.000275
0.000277
0.000239
0.000260
0.000580
0.000318
0.000259
0.000281
0.000247
0.000525
0.000392
0.000273
0.000175
0.000058
0.000185
0.000265
0.000334
0.000427
0.000322
0.000233
0.000224
0.000260
0.000255
0.000256
0.000265
0.000255
0.000230
0.000245
0.000261
0.000287
0.000408
0.000349
0.000456
0.000223
0.000456
0.000234
0.000281
0.000269
0.000307
0.000281
0.000275
0.000347
0.000348
0.000505
0.000251
0.000057
0.000190
0.000206
0.000246
0.000243
0.000254
0.000475
0.000217
0.000243
0.000266
0.000357
0.000511
0.000545
0.000217
0.000241
0.000236
0.000249
0.000254
0.000254
0.000255
0.000256
0.000249
0.000277
0.000365
0.000479
0.000364
0.000348
0.000320
0.000347
0.000299
0.000220
0.000175
0.000057
0.000217
0.000218
0.000238
0.000533
0.000274
0.000384
0.000248
0.000202
0.000213
0.000244
0.000257
0.000250
0.000252
0.000251
0.000301
0.000223
0.000250
0.000245
0.000292
0.000345
0.000668
0.000275
0.000221
0.000224
0.000280
0.000275
0.000259
0.000261
0.000265
0.000256
0.000222
0.000056
0.000332
0.000325
0.000509
0.000185
0.000215
0.000209
0.000309
0.000524
0.000268
0.000206
0.000210
0.000277
0.000268
0.000458
0.000430
0.000330
0.000206
0.000207
0.000295
0.000221
0.000264
0.000273
0.000257
0.000289
0.000245
0.000381
0.000394
0.000421
0.000295
0.000217
0.000160
0.000057
0.000222
0.000221
0.000244
0.000256
0.000254
0.000259
0.000231
0.000252
0.000262
0.000239
0.000267
0.000240
0.000257
0.001462
0.000230
0.000251
0.000256
0.000251
0.000274
0.000275
0.000267
0.000250
0.000263
0.000255
0.000274
0.000262
0.000270
0.000273
0.000267
0.000258
0.000213
0.000057
0.000179
0.000225
0.000239
0.000250
0.000242
0.000259
0.000235
0.000261
0.000233
0.000247
0.000245
0.000264
0.000254
0.000259
0.000255
0.000259
0.000246
0.000262
0.000265
0.000261
0.000253
0.000259
0.000252
0.000251
0.001355
0.000278
0.000557
0.000342
0.000453
0.000209
0.000169
0.000057
0.000190
0.000219
0.000237
0.000253
0.000491
0.000227
0.000186
0.000226
0.000254
0.000382
0.000499
0.000341
0.000231
0.000184
0.000240
0.000265
0.000253
0.000261
0.000272
0.000242
0.000252
0.000259
0.000257
0.000521
0.000440
0.000413
0.000251
0.000252
0.001362
0.000271
0.000182
0.000057
0.000293
0.000437
0.000350
0.000270
0.000186
0.000205
0.000218
0.000266
0.000245
0.000255
0.000250
0.000254
0.000265
0.000273
0.000615
0.000354
0.000318
0.000236
0.000244
0.000251
0.000262
0.000268
0.000265
0.000276
0.000253
0.000260
0.000305
0.000601
0.000383
0.000376
0.000156
0.000058
0.000170
0.000243
0.001311
0.000350
0.000348
0.000417
0.000386
0.000300
0.000435
0.000383
0.000221
0.000217
0.000238
0.000258
0.000256
0.000261
0.000434
0.000479
0.000333
0.000349
0.000273
0.000259
0.000239
0.000515
0.000236
0.000254
0.000256
0.000281
0.000304
0.000526
0.000338
0.000057
0.000365
0.000356
0.000220
0.000194
0.001491
0.000631
0.000251
0.000230
0.000204
0.000246
0.000225
0.000242
0.000245
0.000269
0.000254
0.000263
0.000237
0.000313
0.000431
0.000419
0.000414
0.000218
0.000210
0.000269
0.000269
0.000254
0.000274
0.000237
0.000263
0.000276
0.000210
0.000058
0.000381
0.000318
0.000251
0.000194
0.000253
0.000240
0.000249
0.000254
0.000243
0.000234
0.001454
0.000489
0.000258
0.000198
0.000223
0.000252
0.000268
0.000284
0.000213
0.000270
0.000276
0.000255
0.000258
0.000423
0.000566
0.000321
0.000212
0.000264
0.000281
0.000275
0.000190
0.000059
0.000181
0.000466
0.000200
0.000192
0.000353
0.000415
0.000461
0.000257
0.000453
0.000222
0.000209
0.000253
0.000260
0.000265
0.000264
0.001411
0.000352
0.000288
0.000248
0.000266
0.000277
0.000251
0.000272
0.000248
0.000253
0.000278
0.000418
0.000455
0.000327
0.000279
0.000145
0.000057
0.000203
0.000222
0.000253
0.000237
0.000222
0.000269
0.000242
0.000260
0.000288
0.000521
0.000337
0.000289
0.000218
0.000201
0.000246
0.000269
0.000279
0.000259
0.000276
0.000235
0.000242
0.000332
0.001301
0.000231
0.000279
0.000207
0.000238
0.000271
0.000259
0.000270
0.000196
0.000057
0.000252
0.000326
0.000502
0.000225
0.000233
0.000222
0.000227
0.000258
0.000266
0.000247
0.000256
0.000268
0.000240
0.000272
0.000239
0.000263
0.000264
0.000273
0.000268
0.000254
0.000262
0.000251
0.000270
0.000279
0.000284
0.000273
0.000291
0.000226
0.000290
0.000481
0.001327
0.000057
0.000183
0.000225
0.000231
0.000246
0.000246
0.000259
0.000251
0.000244
0.000224
0.000251
0.000260
0.000269
0.000253
0.000249
0.000241
0.001698
0.000377
0.000213
0.000225
0.000223
0.000249
0.000254
0.000274
0.000261
0.000262
0.000271
0.000269
0.000268
0.000276
0.000254
0.000245
0.000057
0.000285
0.000305
0.001344
0.000199
0.000203
0.000234
0.000258
0.000250
0.000260
0.000254
0.000232
0.000348
0.000459
0.000448
0.000245
0.000218
0.000221
0.000256
0.000256
0.000265
0.000244
0.000265
0.000271
0.000286
0.000263
0.000402
0.000388
0.000355
0.000290
0.000251
0.000199
0.000058
0.000214
0.000231
0.000244
0.000246
0.000252
0.000232
0.000236
0.000251
0.000459
0.000419
0.001138
0.000220
0.000242
0.000273
0.000259
0.000257
0.000273
0.000245
0.000310
0.000391
0.000441
0.000249
0.000238
0.000231
0.000277
0.000274
0.000270
0.000292
0.000272
0.000278
0.000212
0.000057
0.000285
0.000385
0.000415
0.000222
0.000203
0.000203
0.000246
0.000268
0.000267
0.000258
0.000226
0.000533
0.000290
0.000443
0.000496
0.001428
0.000225
0.000253
0.000342
0.000358
0.000429
0.000424
0.000485
0.000398
0.000221
0.000264
0.000269
0.000271
0.000263
0.000279
0.000222
0.000057
0.000187
0.000285
0.000392
0.000530
0.000345
0.000212
0.000237
0.000249
0.000233
0.000260
0.000248
0.000262
0.000268
0.000243
0.000267
0.000306
0.000348
0.000500
0.000311
0.001316
0.000262
0.000259
0.000246
0.000506
0.000368
0.000358
0.000376
0.000234
0.000238
0.000271
0.000205
0.000057
0.000191
0.000226
0.000250
0.000236
0.000253
0.000279
0.000435
0.000427
0.000363
0.000210
0.000230
0.000254
0.000282
0.000250
0.000263
0.000260
0.000260
0.000265
0.000263
0.000265
0.000616
0.000357
0.000333
0.001348
0.000335
0.000241
0.000291
0.000480
0.000375
0.000350
0.000339
0.000057
0.000170
0.000218
0.000246
0.000248
0.000248
0.000255
0.001694
0.000259
0.000222
0.000209
0.000254
0.000262
0.000316
0.000326
0.000331
0.000277
0.000234
0.000378
0.000431
0.000441
0.000288
0.000294
0.000207
0.000231
0.001420
0.000414
0.000497
0.000413
0.000317
0.000311
0.000146
0.000059
0.000186
0.000227
0.000252
0.000262
0.000246
0.000253
0.001782
0.000219
0.000228
0.000253
0.000384
0.000412
0.001431
0.000327
0.000424
0.000198
0.000223
0.000261
0.000278
0.000233
0.001721
0.000445
0.000407
0.000280
0.000218
0.000217
0.000259
0.000276
0.000257
0.000240
0.000219
0.000058
0.000181
0.000218
0.000264
0.000248
0.000256
0.000272
0.000286
0.000253
0.000249
0.000279
0.000236
0.000248
0.000252
0.000273
0.000255
0.001483
0.000280
0.000247
0.000265
0.000274
0.000273
0.000259
0.000421
0.001285
0.000259
0.000247
0.000264
0.000261
0.000457
0.000204
0.000213
0.000058
0.000205
0.000222
0.000229
0.000242
0.000236
0.000227
0.000252
0.001733
0.000235
0.000209
0.000230
0.000366
0.000238
0.000224
0.001447
0.000252
0.000206
0.000228
0.000270
0.000240
0.000284
0.000287
0.000329
0.001368
0.000277
0.000220
0.000234
0.000251
0.001395
0.000266
0.000231
0.000056
0.000331
0.000267
0.000208
0.000201
0.000255
0.000239
0.000265
0.000267
0.000269
0.000240
0.000272
0.000259
0.000252
0.000247
0.000329
0.001466
0.000258
0.000274
0.000260
0.000239
0.000280
0.000270
0.000254
0.001514
0.000322
0.000249
0.000264
0.001359
0.000229
0.000222
0.000223
0.000057
0.000230
0.000375
0.000314
0.000215
0.000237
0.000240
0.000251
0.000263
0.000264
0.000282
0.000226
0.000252
0.000260
0.000323
0.000421
0.001230
0.000216
0.000212
0.000255
0.000279
0.000226
0.000231
0.000251
0.001291
0.000385
0.000225
0.000209
0.000254
0.000244
0.001347
0.000346
0.000057
0.000314
0.000291
0.000191
0.000213
0.000228
0.000254
0.000251
0.000238
0.000281
0.000250
0.000261
0.000238
0.000243
0.000318
0.000419
0.001482
0.000246
0.000224
0.000296
0.000519
0.000284
0.000505
0.001241
0.000288
0.000254
0.000252
0.001290
0.000349
0.000382
0.000340
0.000353
0.000057
0.000177
0.000241
0.000253
0.000255
0.000249
0.000254
0.000280
0.000244
0.000269
0.000262
0.000315
0.000561
0.001314
0.000207
0.000228
0.000265
0.000275
0.000262
0.000223
0.000231
0.000320
0.001321
0.000226
0.000245
0.000214
0.000250
0.001500
0.000439
0.000468
0.000242
0.000202
0.000057
0.000191
0.000218
0.000239
0.000238
0.000248
0.000267
0.000245
0.000277
0.000416
0.000469
0.000323
0.001446
0.000237
0.000214
0.000265
0.000268
0.000268
0.000284
0.001635
0.000315
0.000357
0.000353
0.001340
0.000410
0.000271
0.000338
0.000232
0.000229
0.000237
0.000266
0.000213
0.000058
0.000215
0.000205
0.000323
0.000265
0.000284
0.000574
0.000273
0.000349
0.001483
0.000292
0.000327
0.000251
0.000208
0.000298
0.000403
0.001338
0.000263
0.000212
0.000217
0.000254
0.000314
0.001591
0.000350
0.000276
0.000234
0.000220
0.000519
0.000311
0.000225
0.000226
0.000260
0.000056
0.000271
0.000389
0.000288
0.000309
0.000202
0.001462
0.000250
0.000234
0.000254
0.000270
0.000268
0.000247
0.000331
0.001453
0.000260
0.000234
0.000410
0.001287
0.000279
0.000456
0.000357
0.000274
0.000213
0.000249
0.000280
0.000253
0.000453
0.000234
0.000253
0.000275
0.000218
0.000058
0.000216
0.000226
0.000344
0.001454
0.000277
0.000208
0.000311
0.000249
0.000240
0.000247
0.000250
0.000255
0.001646
0.000207
0.000218
0.000222
0.001374
0.000317
0.000452
0.000404
0.000407
0.000216
0.000222
0.000243
0.000369
0.000229
0.000241
0.000248
0.000249
0.000255
0.000209
0.000057
0.000211
0.000382
0.001437
0.000224
0.000256
0.000267
0.000259
0.000255
0.000311
0.000500
0.001212
0.000259
0.000300
0.000232
0.000224
0.001330
0.000720
0.000246
0.000304
0.000412
0.000326
0.000227
0.000238
0.000245
0.000261
0.000293
0.000277
0.000308
0.000448
0.000454
0.001372
0.000056
0.000198
0.000247
0.000220
0.000224
0.000245
0.000377
0.000545
0.001314
0.000206
0.000228
0.000236
0.001382
0.000468
0.000349
0.000466
0.000246
0.000217
0.000212
0.000241
0.000275
0.000261
0.000260
0.000285
0.000256
0.000252
0.000337
0.000491
0.000456
0.001397
0.000285
0.000180
0.000056
0.000199
0.000240
0.000311
0.000575
0.001216
0.000282
0.000252
0.000259
0.000248
0.000252
0.000248
0.000268
0.000315
0.000592
0.000314
0.000215
0.000246
0.000296
0.000224
0.000270
0.000262
0.000263
0.000264
0.000264
0.000257
0.000500
0.000394
0.000325
0.000309
0.001473
0.000158
0.000056
0.000204
0.000207
0.000419
0.000303
0.000370
0.000287
0.000296
0.000333
0.000271
0.000266
0.000264
0.000263
0.000241
0.000312
0.000251
0.000286
0.000561
0.000317
0.000300
0.000356
0.000291
0.000474
0.000213
0.000245
0.000211
0.000267
0.000248
0.000288
0.000386
0.000459
0.000324
0.000057
0.000217
0.001353
0.000285
0.000327
0.000441
0.000393
0.000326
0.000340
0.000217
0.000228
0.000252
0.000251
0.000262
0.000263
0.000271
0.000253
0.000263
0.001445
0.000227
0.000229
0.000227
0.000270
0.000269
0.000280
0.000269
0.000253
0.000274
0.000251
0.000279
0.000455
0.000477
0.000058
0.000216
0.000231
0.001434
0.000361
0.000295
0.000220
0.000213
0.000210
0.000235
0.000237
0.000255
0.000276
0.000249
0.000249
0.000267
0.000262
0.000241
0.000270
0.000257
0.000261
0.001434
0.000259
0.000245
0.000321
0.000218
0.000231
0.000246
0.000267
0.000271
0.000498
0.000388
0.000056
0.000198
0.000230
0.000364
0.000295
0.000250
0.000248
0.001527
0.000346
0.000343
0.000201
0.000233
0.000351
0.000320
0.000218
0.000222
0.000252
0.000246
0.000256
0.000265
0.000257
0.000485
0.000526
0.001167
0.000260
0.000214
0.000223
0.000273
0.000258
0.000266
0.000264
0.000360
0.000057
0.000415
0.000229
0.000211
0.000186
0.000251
0.000248
0.000239
0.000226
0.001408
0.000539
0.000430
0.000252
0.000225
0.000190
0.000252
0.000249
0.000253
0.000280
0.000252
0.000311
0.000303
0.000500
0.000431
0.001388
0.000231
0.000257
0.000273
0.000262
0.000270
0.000322
0.000469
0.000056
0.000275
0.000199
0.000256
0.000234
0.000220
0.000237
0.000264
0.000245
0.000280
0.001590
0.000330
0.000259
0.000258
0.000258
0.000467
0.000289
0.000406
0.000464
0.000326
0.000328
0.000471
0.000467
0.001286
0.000214
0.000231
0.000235
0.001813
0.000404
0.000573
0.000313
0.000155
0.000056
0.000181
0.000208
0.000239
0.000235
0.000246
0.000244
0.000360
0.000528
0.000378
0.000419
0.000322
0.000209
0.000203
0.000253
0.000268
0.000265
0.000267
0.000240
0.000248
0.000269
0.000253
0.000463
0.001325
0.000247
0.000229
0.000264
0.001912
0.000375
0.000367
0.000369
0.000170
0.000057
0.000238
0.000203
0.000251
0.001611
0.000369
0.000221
0.000238
0.000287
0.000225
0.000333
0.000364
0.000376
0.000352
0.000304
0.000359
0.000473
0.000309
0.001281
0.000263
0.000201
0.000237
0.000249
0.000373
0.000467
0.000557
0.000434
0.000230
0.000213
0.000263
0.000284
0.000208
0.000057
0.000186
0.000214
0.001457
0.000417
0.000199
0.000201
0.000230
0.000254
0.000248
0.000251
0.000244
0.000278
0.000272
0.000269
0.000239
0.000467
0.000461
0.000231
0.001413
0.000259
0.000221
0.000265
0.000255
0.000274
0.000450
0.000331
0.000522
0.000292
0.000289
0.000254
0.000403
0.000057
0.000208
0.000201
0.000252
0.000259
0.001578
0.000228
0.000262
0.000246
0.000259
0.000256
0.000253
0.000263
0.000259
0.000247
0.000369
0.000523
0.001489
0.000741
0.000203
0.000341
0.000256
0.000224
0.000225
0.000267
0.001760
0.000733
0.000262
0.000246
0.000263
0.000286
0.000205
0.000057
0.000186
0.000209
0.000252
0.000248
0.000244
0.000256
0.000249
0.000246
0.000257
0.000221
0.000280
0.000292
0.000247
0.000252
0.000262
0.000258
0.000260
0.001596
0.000705
0.000450
0.000277
0.000212
0.000228
0.000278
0.000270
0.000269
0.000273
0.000248
0.001457
0.000375
0.000360
0.000056
0.000178
0.000219
0.000241
0.000259
0.000255
0.000231
0.000256
0.000251
0.000254
0.000286
0.000212
0.000468
0.000441
0.000336
0.000221
0.000220
0.000266
0.001460
0.000694
0.000406
0.000331
0.000310
0.000205
0.000240
0.000275
0.000255
0.000250
0.000277
0.001479
0.000461
0.000207
0.000057
0.000194
0.000205
0.000233
0.000251
0.000251
0.000238
0.000247
0.000245
0.000268
0.000260
0.000439
0.000284
0.000379
0.000205
0.000243
0.000241
0.000282
0.000237
0.001576
0.000692
0.000376
0.000377
0.000215
0.000235
0.000263
0.000256
0.000265
0.000281
0.000267
0.001431
0.000322
0.000057
0.000187
0.000214
0.000216
0.000252
0.000258
0.000245
0.000285
0.000352
0.000374
0.000445
0.000343
0.000352
0.000366
0.000190
0.000232
0.000248
0.000273
0.000261
0.001392
0.000927
0.000272
0.000220
0.000460
0.000220
0.000212
0.000254
0.000274
0.000265
0.000260
0.000276
0.000403
0.000075
0.000265
0.000236
0.000210
0.000230
0.000253
0.000253
0.000223
0.000239
0.000261
0.000254
0.000257
0.000237
0.000246
0.000458
0.000472
0.000455
0.000236
0.000251
0.000259
0.000250
0.000253
0.000379
0.001377
0.001055
0.000241
0.000232
0.000271
0.000262
0.000271
0.000252
0.000221
0.000056
0.000202
0.001453
0.000225
0.000193
0.000195
0.000244
0.000254
0.000248
0.000227
0.000255
0.000254
0.000267
0.000237
0.000397
0.000351
0.000478
0.000303
0.000207
0.000259
0.000275
0.000289
0.000214
0.000258
0.000261
0.001406
0.000688
0.000296
0.000397
0.000369
0.000399
0.000260
0.000057
0.000218
0.000222
0.000322
0.001377
0.000203
0.000261
0.000205
0.000240
0.000252
0.000255
0.000256
0.000244
0.000265
0.000365
0.000559
0.000366
0.000194
0.000315
0.000266
0.000232
0.000224
0.000278
0.000231
0.000273
0.000264
0.001546
0.000730
0.000307
0.000275
0.000270
0.000210
0.000057
0.000188
0.000216
0.000473
0.000395
0.001289
0.000243
0.000204
0.000212
0.000246
0.000240
0.000244
0.000257
0.000236
0.000240
0.000244
0.000262
0.000270
0.000233
0.000250
0.000266
0.000267
0.000260
0.000334
0.000308
0.000247
0.000232
0.000260
0.001556
0.000217
0.000236
0.000168
0.000057
0.000195
0.000215
0.000253
0.000337
0.000344
0.000342
0.000404
0.000244
0.001564
0.000249
0.000274
0.000503
0.000302
0.000291
0.000487
0.000224
0.000213
0.000237
0.000272
0.000264
0.000286
0.000267
0.000256
0.000274
0.000243
0.000443
0.000443
0.000315
0.001524
0.000258
0.000178
0.000056
0.000220
0.000217
0.000250
0.000242
0.000244
0.000243
0.000265
0.000296
0.000449
0.002071
0.000213
0.000204
0.000250
0.000263
0.000258
0.000318
0.000259
0.000218
0.000242
0.000440
0.000492
0.000315
0.001525
0.000238
0.000237
0.000472
0.001766
0.000283
0.000266
0.001483
0.000202
0.000057
0.000341
0.000447
0.000397
0.000246
0.000259
0.000239
0.000243
0.000266
0.000271
0.000232
0.000254
0.000306
0.000430
0.000336
0.000464
0.000259
0.000207
0.001562
0.000498
0.001989
0.000323
0.000236
0.000211
0.001591
0.002006
0.000731
0.000269
0.000221
0.000247
0.000598
0.000264
0.000056
0.000224
0.000212
0.000249
0.000252
0.001485
0.001671
0.001069
0.000227
0.000218
0.001584
0.001976
0.000227
0.000324
0.000397
0.000349
0.000455
0.000251
0.000400
0.000251
0.000229
0.000257
0.000252
0.000267
0.001602
0.001272
0.001412
0.000267
0.000242
0.000265
0.000309
0.000353
0.000058
0.000206
0.000239
0.000202
0.000243
0.000234
0.000237
0.000248
0.000252
0.000255
0.000256
0.000239
0.000312
0.000434
0.000523
0.000289
0.000217
0.000231
0.000262
0.000272
0.000268
0.000254
0.001430
0.000420
0.000435
0.002077
0.000249
0.000243
0.000382
0.000445
0.000423
0.000156
0.000057
0.000230
0.000415
0.000384
0.000294
0.000215
0.000237
0.000220
0.000276
0.000219
0.000258
0.000237
0.000262
0.000262
0.001610
0.001421
0.001225
0.000271
0.000231
0.000205
0.000250
0.000284
0.000280
0.000255
0.000249
0.002268
0.000218
0.000216
0.000290
0.000322
0.000307
0.000251
0.000057
0.000183
0.000339
0.000625
0.000313
0.000218
0.000203
0.000224
0.000259
0.001921
0.001401
0.000257
0.000387
0.000395
0.000350
0.000272
0.000205
0.000243
0.000256
0.000260
0.000269
0.000270
0.000246
0.000471
0.000251
0.000257
0.000274
0.000247
0.000275
0.000283
0.000244
0.000228
0.000058
0.000184
0.000232
0.000246
0.000250
0.000238
0.000284
0.001521
0.001509
0.001319
0.000220
0.000206
0.000225
0.000262
0.000262
0.000247
0.000246
0.000250
0.002170
0.000216
0.000221
0.000250
0.000265
0.000254
0.000276
0.000263
0.000248
0.000264
0.000266
0.000277
0.000258
0.000191
0.000057
0.001494
0.000313
0.002394
0.000251
0.000299
0.000297
0.000239
0.000258
0.000265
0.000248
0.000247
0.000254
0.000237
0.000238
0.000267
0.000261
0.000264
0.000261
0.000261
0.000274
0.000267
0.000271
0.000276
0.000271
0.000249
0.000244
0.000257
0.000272
0.000268
0.000266
0.000391
0.000059
0.000184
0.002564
0.000338
0.000206
0.000220
0.000192
0.000248
0.000257
0.000256
0.000327
0.000394
0.000311
0.000314
0.000245
0.000233
0.002219
0.000217
0.000222
0.000371
0.000382
0.000502
0.000201
0.000221
0.000227
0.000267
0.000247
0.000260
0.000275
0.000275
0.001876
0.001017
0.000058
0.000206
0.000214
0.000258
0.000445
0.000344
0.000273
0.000210
0.000232
0.000248
0.000259
0.000258
0.000250
0.000229
0.000254
0.000265
0.000236
0.000454
0.000584
0.000308
0.000238
0.000225
0.000242
0.000277
0.000253
0.000257
0.000243
0.000261
0.000275
0.000244
0.000404
0.000296
0.000058
0.001120
0.000268
0.000327
0.000432
0.000310
0.000207
0.000217
0.000220
0.002241
0.000412
0.000325
0.000357
0.000215
0.000285
0.000336
0.000265
0.000265
0.000251
0.000286
0.000225
0.000246
0.000345
0.000511
0.000601
0.001735
0.001353
0.000508
0.000551
0.000219
0.000259
0.000214
0.000056
0.000322
0.000261
0.000239
0.000236
0.000253
0.000231
0.000234
0.000251
0.000252
0.000254
0.000255
0.000243
0.000244
0.000237
0.000395
0.000538
0.001870
0.001425
0.000346
0.000362
0.000448
0.000257
0.000253
0.000253
0.002223
0.000458
0.000375
0.000248
0.000293
0.000263
0.000211
0.000056
0.000187
0.000230
0.000254
0.000240
0.000245
0.000384
0.000408
0.000334
0.000291
0.000224
0.000232
0.000280
0.000239
0.002076
0.000361
0.000411
0.000224
0.000231
0.000273
0.000257
0.000252
0.002448
0.000361
0.000218
0.000247
0.000279
0.000230
0.000276
0.000272
0.000293
0.000207
0.000057
0.000199
0.000379
0.000524
0.000407
0.000229
0.000204
0.000198
0.000269
0.000252
0.000254
0.002015
0.000406
0.000266
0.000243
0.000209
0.000246
0.000280
0.000252
0.002269
0.000384
0.000219
0.000263
0.000265
0.000263
0.000259
0.000247
0.000277
0.000255
0.000276
0.000252
0.000210
0.000057
0.000196
0.000226
0.000260
0.000211
0.000245
0.000261
0.000235
0.000258
0.000221
0.002174
0.000245
0.000268
0.000227
0.000481
0.000209
0.000218
0.000254
0.000286
0.000260
0.001996
0.000288
0.000255
0.000370
0.000367
0.000493
0.000333
0.000285
0.000252
0.000234
0.000245
0.000219
0.000057
0.000198
0.000225
0.000233
0.000244
0.000261
0.000376
0.000201
0.002335
0.000202
0.000231
0.000235
0.000256
0.000237
0.000254
0.000296
0.002207
0.000508
0.000235
0.000250
0.000241
0.000257
0.000266
0.000288
0.000269
0.000263
0.000256
0.000280
0.000264
0.000256
0.000317
0.000154
0.000057
0.000193
0.003015
0.000240
0.000224
0.000247
0.000239
0.000252
0.000277
0.000436
0.000363
0.002121
0.000257
0.000242
0.000265
0.000259
0.000597
0.000380
0.000293
0.000219
0.000227
0.000237
0.000261
0.000265
0.000238
0.000245
0.000276
0.000262
0.000265
0.000309
0.000707
0.000309
0.000058
0.000170
0.000274
0.000278
0.000210
0.000232
0.000250
0.000252
0.000246
0.001541
0.002130
0.000509
0.000268
0.000390
0.000793
0.000347
0.000214
0.000203
0.000254
0.000267
0.000251
0.000273
0.000233
0.000243
0.000273
0.001828
0.001451
0.000302
0.000264
0.000302
0.000321
0.000456
0.000057
0.001927
0.000228
0.000232
0.000205
0.000279
0.000375
0.000502
0.000260
0.000312
0.000232
0.000231
0.000209
0.000249
0.000259
0.000257
0.000272
0.000256
0.000254
0.001915
0.000211
0.000220
0.000232
0.000270
0.000279
0.000277
0.000257
0.001533
0.000336
0.000229
0.000228
0.000168
0.000057
0.000198
0.000215
0.000229
0.000245
0.000253
0.000239
0.000344
0.000326
0.000493
0.000278
0.000201
0.000215
0.000337
0.000322
0.000380
0.000320
0.000216
0.000221
0.000268
0.000321
0.000597
0.000414
0.000210
0.000241
0.000250
0.000255
0.000256
0.000265
0.000275
0.000262
0.000221
0.000056
0.001429
0.000395
0.000237
0.001996
0.000267
0.000419
0.000377
0.000381
0.000197
0.000231
0.000249
0.000246
0.000249
0.000242
0.000267
0.000265
0.000452
0.000242
0.000516
0.000360
0.000321
0.000220
0.000246
0.000269
0.000325
0.000227
0.000248
0.000270
0.000306
0.000531
0.001408
0.000057
0.000198
0.000200
0.002065
0.000296
0.000314
0.000275
0.000246
0.000258
0.000258
0.000248
0.000232
0.000246
0.000256
0.000257
0.000264
0.000348
0.000734
0.001712
0.000268
0.000251
0.000255
0.000256
0.000392
0.000465
0.001535
0.000271
0.000360
0.002011
0.000233
0.000240
0.000190
0.000057
0.000198
0.000210
0.000229
0.000244
0.000228
0.000247
0.000252
0.000272
0.000344
0.000304
0.000387
0.000364
0.000331
0.000297
0.000217
0.000256
0.000267
0.000239
0.000274
0.000254
0.000272
0.000306
0.000265
0.000259
0.000272
0.001575
0.000293
0.000400
0.001986
0.000254
0.000183
0.000070
0.000208
0.000219
0.000236
0.000249
0.000462
0.000231
0.000248
0.000335
0.000388
0.000359
0.000230
0.000228
0.000246
0.000272
0.000278
0.000314
0.000448
0.000410
0.000264
0.000364
0.000693
0.000363
0.001526
0.000279
0.000220
0.002047
0.000330
0.000216
0.000225
0.000255
0.000214
0.000057
0.000199
0.000210
0.000228
0.000245
0.000258
0.000256
0.000254
0.000270
0.000256
0.000278
0.001866
0.000276
0.000396
0.000327
0.000458
0.000360
0.001525
0.000332
0.000201
0.000308
0.002036
0.000629
0.000248
0.000225
0.000237
0.000274
0.000479
0.000256
0.000256
0.000263
0.000214
0.000057
0.000272
0.000350
0.000381
0.000296
0.000180
0.000223
0.000256
0.000245
0.000272
0.000303
0.000223
0.000242
0.000262
0.000257
0.000330
0.000446
0.001351
0.000268
0.000423
0.001848
0.000367
0.000253
0.000227
0.000235
0.000245
0.000279
0.000263
0.000275
0.000239
0.000264
0.000223
0.000056
0.000247
0.000373
0.002095
0.000218
0.000241
0.000213
0.000256
0.000287
0.000404
0.001519
0.000338
0.000371
0.000332
0.001993
0.000237
0.000234
0.000269
0.000273
0.000262
0.000245
0.000275
0.000289
0.000256
0.000322
0.000540
0.000375
0.000314
0.002202
0.000573
0.000429
0.000415
0.000057
0.000194
0.000225
0.000221
0.002037
0.000194
0.000213
0.000236
0.000242
0.000233
0.000253
0.000254
0.000255
0.000249
0.000276
0.000572
0.000312
0.001277
0.000257
0.000262
0.000264
0.000228
0.000250
0.000264
0.000270
0.000352
0.000415
0.000474
0.000263
0.001673
0.000221
0.000160
0.000057
0.000194
0.000204
0.000242
0.000230
0.000252
0.000257
0.000253
0.000245
0.000274
0.000386
0.000357
0.001455
0.000209
0.000219
0.000216
0.000260
0.000260
0.000254
0.000341
0.000458
0.000523
0.000327
0.000238
0.001540
0.000248
0.000245
0.000289
0.000274
0.000265
0.000266
0.000209
0.000056
0.000197
0.000215
0.000266
0.000268
0.000260
0.000232
0.000242
0.000233
0.000257
0.000251
0.000251
0.000249
0.000264
0.000248
0.001579
0.000241
0.000254
0.000240
0.000344
0.000322
0.000369
0.000253
0.000212
0.000258
0.000254
0.000265
0.001468
0.000289
0.000216
0.000217
0.000183
0.000056
0.000184
0.000230
0.000240
0.000261
0.000269
0.000224
0.000248
0.000260
0.000214
0.000293
0.000222
0.000255
0.000229
0.000332
0.000358
0.000368
0.000274
0.001581
0.000348
0.000205
0.000211
0.000237
0.000262
0.000305
0.000446
0.000453
0.000385
0.000225
0.000215
0.001601
0.000201
0.000057
0.000315
0.000383
0.000329
0.000306
0.000208
0.000209
0.000240
0.000266
0.000262
0.000240
0.000242
0.000234
0.001457
0.000327
0.000311
0.000210
0.000227
0.000257
0.000267
0.000265
0.000258
0.000242
0.000255
0.000267
0.000252
0.000356
0.000564
0.000330
0.000261
0.000218
0.000194
0.000057
0.000192
0.000298
0.000341
0.000518
0.000290
0.000217
0.000227
0.000252
0.000252
0.000251
0.000246
0.000230
0.000265
0.000236
0.001329
0.000276
0.000209
0.000227
0.000262
0.000276
0.000241
0.000259
0.000253
0.000259
0.000257
0.000257
0.000374
0.000686
0.000412
0.000227
0.000189
0.000057
0.000191
0.001542
0.000252
0.000334
0.000472
0.000381
0.000208
0.000232
0.000273
0.000254
0.000241
0.000264
0.000270
0.000285
0.000252
0.001519
0.000254
0.000279
0.000263
0.000259
0.000261
0.000251
0.000265
0.000264
0.000266
0.000303
0.000508
0.000276
0.000376
0.000225
0.000172
0.000056
0.000201
0.000224
0.000243
0.001702
0.000397
0.000331
0.000209
0.000211
0.000244
0.000269
0.000272
0.000263
0.000254
0.000264
0.000230
0.000264
0.000473
0.001331
0.000213
0.000218
0.001542
0.000535
0.000342
0.000410
0.000279
0.000237
0.000252
0.000463
0.000242
0.000253
0.000206
0.000058
0.000287
0.000216
0.000234
0.000226
0.000247
0.000257
0.000240
0.000255
0.000263
0.000232
0.000257
0.000253
0.000343
0.000583
0.001552
0.001552
0.000325
0.000565
0.000269
0.000248
0.000233
0.000257
0.000241
0.000255
0.000257
0.000275
0.000257
0.000272
0.001587
0.000316
0.000139
0.000057
0.000229
0.000341
0.000348
0.000329
0.000258
0.000208
0.000217
0.000397
0.000351
0.001448
0.000344
0.001544
0.000435
0.000401
0.000448
0.000266
0.000345
0.000330
0.000344
0.000270
0.000250
0.000355
0.001563
0.000532
0.000239
0.000279
0.000231
0.000266
0.000231
0.000267
0.000217
0.000055
0.000202
0.000232
0.000253
0.000258
0.000237
0.001654
0.000958
0.000901
0.000236
0.000234
0.000253
0.000265
0.000250
0.000258
0.000255
0.000256
0.000252
0.000262
0.000268
0.000281
0.001507
0.000269
0.000253
0.000226
0.000228
0.000242
0.000260
0.000272
0.000272
0.000281
0.000215
0.000057
0.000193
0.000204
0.001540
0.001004
0.000331
0.000309
0.000221
0.000208
0.000241
0.000256
0.000259
0.000240
0.000247
0.002081
0.000439
0.000214
0.000199
0.000252
0.000257
0.000259
0.000202
