0.000102
0.016157
0.005363
0.000319
0.000262
0.000284
0.000303
0.000250
0.000328
0.000293
0.000239
0.000349
0.000549
0.000448
0.000349
0.000395
0.000264
0.000344
0.000352
0.000412
0.000325
0.001905
0.000709
0.000247
0.000259
0.000304
0.000302
0.000337
0.000428
0.000458
0.000478
0.000231
0.000057
0.000206
0.000264
0.000272
0.000261
0.000266
0.000250
0.000299
0.000244
0.000270
0.000317
0.000405
0.000431
0.000324
0.000258
0.000410
0.000306
0.000357
0.000258
0.000231
0.001704
0.000329
0.000245
0.000466
0.000233
0.000283
0.000275
0.000283
0.000313
0.000263
0.000343
0.000381
0.000056
0.000244
0.000257
0.000257
0.000262
0.000253
0.000244
0.000263
0.000254
0.000287
0.001670
0.000232
0.000228
0.000286
0.000261
0.000277
0.000246
0.000266
0.000255
0.000360
0.001783
0.000247
0.000270
0.000452
0.000471
0.000359
0.000235
0.000244
0.000562
0.000489
0.000694
0.000199
0.000055
0.000196
0.000252
0.000246
0.000244
0.000295
0.000251
0.000293
0.000647
0.000326
0.000243
0.000240
0.000253
0.000242
0.000252
0.000254
0.000260
0.000245
0.000268
0.000306
0.000315
0.001663
0.000292
0.000245
0.000418
0.000315
0.000687
0.000673
0.000518
0.000349
0.000227
0.000208
0.000056
0.000214
0.000253
0.000266
0.000241
0.000259
0.000252
0.000353
0.000432
0.001418
0.000208
0.000256
0.000237
0.000259
0.000254
0.000266
0.000285
0.000311
0.000780
0.001379
0.000277
0.000465
0.000255
0.000207
0.000239
0.000258
0.000247
0.000291
0.000250
0.000266
0.000262
0.000198
0.000056
0.000190
0.000236
0.000248
0.000262
0.000235
0.000244
0.000243
0.000251
0.000233
0.000263
0.001688
0.000219
0.000222
0.000233
0.000258
0.000252
0.000239
0.000251
0.000259
0.000252
0.000276
0.001659
0.000292
0.000244
0.000439
0.000260
0.000250
0.000251
0.000264
0.000275
0.000203
0.000057
0.000208
0.000224
0.000252
0.000249
0.000253
0.000233
0.000267
0.000232
0.000265
0.000241
0.000263
0.000253
0.000263
0.001697
0.000302
0.000194
0.000294
0.000217
0.000250
0.000272
0.000265
0.000243
0.000238
0.000263
0.001790
0.000406
0.000330
0.000346
0.000258
0.000279
0.000190
0.000056
0.000218
0.000245
0.000246
0.000267
0.000254
0.000234
0.000295
0.000435
0.000449
0.000361
0.000206
0.000251
0.000253
0.000246
0.001580
0.000512
0.000380
0.000353
0.000319
0.000222
0.000274
0.000282
0.000269
0.001734
0.000521
0.000467
0.000238
0.000252
0.000238
0.000271
0.000179
0.000059
0.000193
0.000234
0.000255
0.000298
0.000427
0.000365
0.000329
0.000282
0.000212
0.000249
0.000264
0.000238
0.000252
0.001733
0.000461
0.000300
0.000227
0.000246
0.000272
0.000285
0.000249
0.000263
0.000273
0.001879
0.000321
0.000390
0.000258
0.000240
0.000260
0.000408
0.000328
0.000056
0.000221
0.000435
0.000283
0.000285
0.000258
0.000241
0.000252
0.000265
0.000233
0.000240
0.000231
0.000248
0.001569
0.000325
0.000329
0.000227
0.000259
0.000248
0.000241
0.000286
0.000277
0.000330
0.000239
0.001824
0.000237
0.000508
0.000245
0.000248
0.000259
0.000268
0.000260
0.000057
0.000388
0.000506
0.000608
0.000211
0.000232
0.000276
0.000232
0.000213
0.000265
0.000255
0.000255
0.001703
0.000246
0.000436
0.000372
0.000216
0.000249
0.000226
0.000244
0.000268
0.000292
0.001816
0.000237
0.000237
0.002083
0.000516
0.000366
0.000243
0.000257
0.000256
0.000194
0.000055
0.000198
0.000246
0.000240
0.000245
0.000282
0.001602
0.000252
0.000224
0.000251
0.000253
0.000248
0.000255
0.000237
0.000256
0.000312
0.000441
0.000566
0.000253
0.000233
0.000265
0.000265
0.000246
0.000247
0.000436
0.000426
0.000285
0.000677
0.000197
0.000470
0.000258
0.000194
0.000057
0.000212
0.000240
0.000251
0.000255
0.000228
0.000247
0.000252
0.000605
0.000234
0.001700
0.000218
0.000237
0.000240
0.000250
0.000265
0.000271
0.000627
0.000284
0.000365
0.000217
0.000263
0.000290
0.000310
0.000231
0.000276
0.000437
0.000345
0.000678
0.000393
0.000443
0.000168
0.000056
0.000207
0.000281
0.000239
0.000203
0.000248
0.000236
0.000248
0.000248
0.000249
0.000290
0.000340
0.000501
0.001319
0.000255
0.000225
0.000247
0.000266
0.000250
0.000243
0.000278
0.000265
0.000447
0.000421
0.000259
0.000259
0.000262
0.000252
0.000270
0.000261
0.000267
0.000389
0.000055
0.000195
0.000240
0.000224
0.000278
0.000594
0.000371
0.000234
0.000258
0.000229
0.000262
0.000250
0.000239
0.000296
0.000246
0.000238
0.000476
0.000437
0.001640
0.000272
0.000229
0.000259
0.000267
0.000259
0.000238
0.000257
0.000454
0.000509
0.000340
0.000390
0.000225
0.000202
0.000057
0.000226
0.000433
0.000236
0.000210
0.000268
0.000270
0.000403
0.000475
0.000265
0.000334
0.000228
0.000276
0.000259
0.000242
0.000519
0.000351
0.000211
0.000250
0.000496
0.001556
0.000274
0.000229
0.000530
0.000237
0.000279
0.000286
0.000252
0.000433
0.000461
0.000383
0.000269
0.000056
0.000188
0.000233
0.000237
0.000241
0.000417
0.000307
0.000290
0.000227
0.000387
0.000538
0.000318
0.000260
0.000238
0.000240
0.000254
0.000267
0.000254
0.000258
0.000233
0.000347
0.000294
0.000381
0.001796
0.000243
0.000253
0.000255
0.000293
0.000348
0.000442
0.000732
0.000370
0.000056
0.000218
0.000333
0.000281
0.000424
0.000398
0.000204
0.000254
0.000371
0.000537
0.000310
0.000262
0.000249
0.000229
0.000273
0.000263
0.000233
0.000257
0.000270
0.000268
0.000258
0.000299
0.000515
0.000551
0.001306
0.000331
0.000436
0.000415
0.000252
0.000544
0.000360
0.000251
0.000057
0.000238
0.000382
0.000270
0.000206
0.000229
0.000244
0.000419
0.000232
0.000252
0.000450
0.000377
0.000398
0.000239
0.000256
0.000265
0.000252
0.000352
0.000392
0.000355
0.000234
0.000244
0.000405
0.000631
0.001671
0.000233
0.000464
0.000268
0.000236
0.000307
0.000430
0.000331
0.000057
0.000206
0.000230
0.000246
0.000247
0.000247
0.000257
0.000238
0.000324
0.000468
0.000288
0.000460
0.000363
0.000264
0.000573
0.000254
0.000233
0.000275
0.000262
0.000232
0.000357
0.000219
0.000248
0.000270
0.000447
0.000522
0.001591
0.000269
0.000238
0.000250
0.000261
0.000179
0.000056
0.000273
0.000538
0.000259
0.000214
0.000249
0.000273
0.000238
0.000235
0.000262
0.000249
0.000224
0.000243
0.000428
0.000528
0.000377
0.000284
0.000258
0.000245
0.000357
0.000380
0.000385
0.000366
0.000381
0.000330
0.000243
0.000259
0.000264
0.000275
0.001789
0.000245
0.000211
0.000055
0.000209
0.000214
0.000260
0.000268
0.000371
0.000547
0.000303
0.000212
0.000261
0.000266
0.000242
0.000250
0.000528
0.000446
0.000478
0.000286
0.000258
0.000272
0.000418
0.000467
0.000359
0.000509
0.000492
0.000337
0.000238
0.000239
0.000267
0.000246
0.000264
0.001715
0.000392
0.000058
0.000248
0.000329
0.000205
0.000241
0.000252
0.000248
0.000243
0.000500
0.000371
0.000310
0.000294
0.000288
0.000488
0.000527
0.000312
0.000228
0.000248
0.000253
0.000252
0.000268
0.000267
0.000264
0.000243
0.000270
0.000315
0.000352
0.000426
0.000345
0.000228
0.000256
0.000186
0.000058
0.000422
0.000324
0.000442
0.000250
0.000202
0.000249
0.000243
0.000257
0.000256
0.000208
0.000244
0.000283
0.000293
0.000430
0.000492
0.000461
0.000292
0.000314
0.000396
0.000335
0.000310
0.000225
0.000244
0.000258
0.001751
0.000258
0.001722
0.000940
0.000438
0.000285
0.000162
0.000057
0.000217
0.000237
0.000227
0.000249
0.000258
0.000250
0.000250
0.000248
0.000259
0.000328
0.000407
0.000421
0.000280
0.000389
0.000251
0.000243
0.000258
0.000282
0.000245
0.000236
0.000251
0.000261
0.001809
0.000243
0.000255
0.000265
0.000278
0.000266
0.001868
0.000470
0.000320
0.000056
0.000239
0.000200
0.000250
0.000236
0.000264
0.000237
0.000249
0.000252
0.000278
0.000364
0.000559
0.000482
0.000241
0.000203
0.000229
0.000258
0.000329
0.000445
0.000372
0.000265
0.001750
0.000253
0.000256
0.000240
0.000266
0.000271
0.000239
0.000256
0.000328
0.000398
0.000323
0.000058
0.000213
0.000224
0.000234
0.000255
0.000248
0.000250
0.000249
0.000255
0.000255
0.000243
0.000242
0.000280
0.000399
0.000362
0.000348
0.000274
0.000466
0.000234
0.000246
0.000255
0.000261
0.000260
0.000276
0.000256
0.000278
0.001785
0.000249
0.000255
0.000256
0.000237
0.000205
0.000057
0.000336
0.000263
0.000229
0.000222
0.000236
0.000234
0.000241
0.000258
0.000243
0.000242
0.000218
0.000264
0.000254
0.000405
0.000405
0.000366
0.000241
0.000245
0.000242
0.000255
0.000269
0.000260
0.000247
0.000291
0.000221
0.000273
0.000332
0.001602
0.000279
0.000231
0.000185
0.000055
0.000207
0.000240
0.000252
0.000263
0.000346
0.000416
0.000357
0.000298
0.000220
0.000257
0.000251
0.000241
0.000251
0.000251
0.000262
0.000259
0.000244
0.000256
0.000250
0.000273
0.000260
0.000264
0.000251
0.000233
0.000245
0.000281
0.000276
0.000261
0.000251
0.000264
0.000184
0.000072
0.000167
0.000240
0.000253
0.000258
0.000237
0.000254
0.000240
0.000258
0.000288
0.000229
0.000246
0.000243
0.000258
0.000240
0.000269
0.000284
0.000229
0.000256
0.000296
0.000254
0.000266
0.000296
0.000274
0.000240
0.000288
0.000271
0.000269
0.000253
0.000317
0.000412
0.000636
0.000056
0.000214
0.000290
0.000218
0.000230
0.000232
0.000260
0.000239
0.000247
0.000256
0.000234
0.000276
0.000278
0.000532
0.000431
0.001541
0.000238
0.000499
0.000229
0.000276
0.000431
0.000430
0.000396
0.000216
0.000280
0.000251
0.000265
0.000282
0.000245
0.000314
0.000258
0.000184
0.000056
0.000459
0.000315
0.000319
0.000345
0.000196
0.000265
0.000253
0.000239
0.000239
0.000241
0.000261
0.000251
0.000230
0.000301
0.000353
0.000459
0.000415
0.001780
0.000238
0.000257
0.000365
0.000554
0.000264
0.000320
0.000317
0.000314
0.000307
0.000225
0.000237
0.000255
0.000188
0.000056
0.000206
0.000231
0.000242
0.000303
0.000440
0.000358
0.000331
0.000255
0.000253
0.000216
0.000246
0.000272
0.000267
0.000260
0.000247
0.000250
0.000455
0.000393
0.000319
0.000415
0.000228
0.001743
0.000335
0.000501
0.000546
0.000409
0.000333
0.000226
0.000259
0.000265
0.000439
0.000055
0.000194
0.000261
0.000228
0.000253
0.000530
0.000399
0.000368
0.000215
0.000245
0.000286
0.000246
0.000259
0.000254
0.000304
0.000301
0.000235
0.000249
0.000381
0.000416
0.000378
0.000500
0.001837
0.000269
0.000509
0.000432
0.000353
0.000220
0.000257
0.000282
0.000274
0.000199
0.000056
0.000217
0.000338
0.000360
0.000365
0.000358
0.000343
0.000313
0.000213
0.000246
0.000264
0.000269
0.000231
0.000247
0.000245
0.000248
0.000265
0.000336
0.000477
0.000384
0.000374
0.000295
0.000222
0.000272
0.001710
0.000555
0.000391
0.000684
0.000227
0.000265
0.000306
0.000153
0.000055
0.000192
0.000238
0.000325
0.000263
0.000266
0.000382
0.000397
0.000314
0.000256
0.000506
0.000239
0.000234
0.000264
0.000279
0.000273
0.000265
0.000208
0.000395
0.000453
0.000419
0.000260
0.000243
0.000245
0.000250
0.000262
0.000269
0.000235
0.000255
0.000267
0.000292
0.000240
0.000057
0.000301
0.000338
0.000241
0.000243
0.000253
0.000256
0.000242
0.000287
0.000244
0.000240
0.000259
0.000363
0.000441
0.000343
0.000406
0.000245
0.000218
0.000251
0.000247
0.000267
0.000298
0.000252
0.000231
0.000254
0.000287
0.000362
0.000488
0.000251
0.000355
0.000229
0.000176
0.000056
0.000191
0.000227
0.000280
0.000243
0.000237
0.000251
0.000260
0.000256
0.000486
0.000212
0.000260
0.000253
0.000249
0.000259
0.000284
0.000267
0.000259
0.000343
0.000230
0.000241
0.000269
0.000251
0.000260
0.000267
0.000272
0.000268
0.000257
0.000256
0.000545
0.000224
0.000145
0.000057
0.000193
0.000242
0.000247
0.000269
0.000218
0.000247
0.000364
0.000409
0.000243
0.000235
0.000246
0.000257
0.000250
0.000269
0.000360
0.001840
0.000239
0.000266
0.000286
0.000382
0.000376
0.000352
0.000356
0.000461
0.000316
0.000426
0.000237
0.000266
0.000266
0.000276
0.001403
0.000056
0.000464
0.000269
0.000242
0.000213
0.000234
0.000256
0.000230
0.000249
0.000243
0.000270
0.000245
0.000277
0.000234
0.000261
0.000665
0.001543
0.000234
0.000229
0.000243
0.000267
0.000243
0.000272
0.000411
0.000319
0.000313
0.000355
0.000214
0.000267
0.000279
0.000258
0.000202
0.000056
0.001227
0.000504
0.000353
0.000254
0.000238
0.000222
0.000238
0.000240
0.000484
0.000218
0.000245
0.000250
0.000411
0.000538
0.000313
0.000347
0.000246
0.000226
0.000348
0.000346
0.000276
0.000253
0.000272
0.000246
0.000304
0.000649
0.000425
0.000291
0.000247
0.000266
0.000169
0.000055
0.000223
0.000211
0.000248
0.000245
0.001477
0.000312
0.000207
0.000254
0.000236
0.000250
0.000253
0.000254
0.000239
0.000263
0.000271
0.000257
0.000471
0.000637
0.000272
0.001745
0.000269
0.000274
0.000308
0.000478
0.000481
0.000401
0.000251
0.000249
0.000256
0.000271
0.000206
0.000055
0.000211
0.000252
0.000239
0.000425
0.001151
0.000226
0.000258
0.000256
0.000241
0.000241
0.000234
0.000254
0.000275
0.000248
0.000253
0.000280
0.000617
0.000282
0.000315
0.000258
0.000272
0.000272
0.000253
0.000226
0.000297
0.000264
0.000230
0.000280
0.000289
0.000320
0.000579
0.000057
0.000218
0.000250
0.000234
0.000262
0.000261
0.000243
0.000233
0.000266
0.000268
0.000251
0.001446
0.000221
0.000246
0.000245
0.000241
0.000253
0.000261
0.000265
0.000262
0.000264
0.000321
0.000436
0.000533
0.000314
0.000230
0.000274
0.001757
0.000265
0.000252
0.000412
0.000350
0.000056
0.000213
0.000394
0.000452
0.000508
0.000511
0.000543
0.001496
0.000411
0.000523
0.000653
0.000555
0.000746
0.000463
0.000611
0.000582
0.001928
0.000496
0.000298
0.000398
0.000317
0.000228
0.000302
0.000262
0.000271
0.000245
0.000295
0.000290
0.000289
0.000250
0.000293
0.001368
0.000057
0.000212
0.000225
0.000239
0.000238
0.000260
0.000255
0.000238
0.000243
0.000253
0.000249
0.000234
0.000242
0.000272
0.000241
0.000266
0.000274
0.001802
0.000279
0.000250
0.000255
0.000253
0.000260
0.000270
0.000258
0.000449
0.000394
0.000347
0.000228
0.000264
0.000290
0.000199
0.000057
0.000201
0.001369
0.000317
0.000264
0.000257
0.000241
0.000245
0.000234
0.000233
0.000248
0.000208
0.000253
0.000253
0.000497
0.000366
0.000279
0.000269
0.000260
0.001921
0.000228
0.000245
0.000270
0.000254
0.000268
0.000266
0.000285
0.000267
0.000256
0.000267
0.000320
0.000201
0.000055
0.000187
0.000247
0.000250
0.001437
0.000219
0.000250
0.000251
0.000248
0.000238
0.000264
0.000245
0.000251
0.000244
0.000262
0.000253
0.000256
0.000267
0.000260
0.000276
0.000250
0.000272
0.001762
0.000281
0.001753
0.000256
0.000270
0.000247
0.000277
0.000265
0.000275
0.000203
0.000056
0.000202
0.000239
0.001346
0.000228
0.000263
0.000242
0.000253
0.000255
0.000241
0.000250
0.000246
0.000266
0.000248
0.000263
0.000261
0.000261
0.000285
0.000259
0.000293
0.000231
0.001883
0.000239
0.001833
0.000230
0.000252
0.000283
0.000234
0.000259
0.000250
0.000265
0.000196
0.000056
0.001441
0.000221
0.000236
0.000234
0.000241
0.000240
0.000367
0.000272
0.000259
0.000247
0.000248
0.000263
0.000280
0.000378
0.000351
0.000292
0.000256
0.000245
0.000257
0.000250
0.000269
0.000345
0.000223
0.000255
0.000273
0.000275
0.000271
0.000302
0.000731
0.000320
0.000184
0.000056
0.000226
0.000233
0.000267
0.000307
0.000368
0.000250
0.001667
0.000339
0.000280
0.000258
0.000261
0.000265
0.000265
0.000284
0.000282
0.000306
0.000569
0.000407
0.000321
0.000276
0.000288
0.000272
0.000268
0.000262
0.000321
0.000267
0.000261
0.000250
0.000257
0.000446
0.000369
0.000055
0.000243
0.000471
0.000263
0.000267
0.000243
0.000229
0.000230
0.000254
0.000249
0.000258
0.001517
0.000235
0.000227
0.000241
0.000252
0.000278
0.000264
0.000245
0.000276
0.000261
0.000256
0.000550
0.000400
0.000282
0.000273
0.000282
0.000269
0.000252
0.000243
0.000307
0.000172
0.000056
0.000192
0.000233
0.000259
0.000482
0.000409
0.000241
0.000218
0.000261
0.000234
0.000252
0.000238
0.000245
0.000261
0.000264
0.000236
0.000266
0.000481
0.001115
0.000237
0.000246
0.000291
0.000230
0.000360
0.000422
0.000244
0.000423
0.000481
0.000476
0.000239
0.000254
0.000176
0.000055
0.000209
0.000251
0.000262
0.000264
0.000255
0.000279
0.000380
0.000511
0.000259
0.000283
0.000364
0.000393
0.000391
0.000363
0.000259
0.000227
0.000241
0.000264
0.000461
0.000434
0.001241
0.000232
0.000257
0.000277
0.000233
0.000231
0.000272
0.000357
0.000390
0.000531
0.000144
0.000056
0.000218
0.000225
0.000252
0.000238
0.000251
0.000243
0.000240
0.000255
0.000341
0.000417
0.000372
0.000350
0.000240
0.000222
0.000259
0.000243
0.000245
0.000260
0.000267
0.000253
0.000437
0.000383
0.000302
0.000363
0.000313
0.000256
0.000265
0.000272
0.000253
0.000348
0.000143
0.000055
0.000311
0.000316
0.000374
0.000339
0.000403
0.000357
0.000265
0.000241
0.000244
0.000289
0.000243
0.000265
0.000231
0.000254
0.000244
0.000240
0.000271
0.000453
0.000342
0.000389
0.000232
0.000273
0.000243
0.000257
0.000250
0.000278
0.000263
0.000268
0.000283
0.000264
0.000308
0.000057
0.000277
0.000318
0.000227
0.000247
0.000246
0.000264
0.000233
0.000250
0.000264
0.000261
0.000252
0.000234
0.000434
0.000343
0.000435
0.000295
0.000266
0.000216
0.000260
0.000299
0.000226
0.000260
0.000260
0.000262
0.000272
0.000364
0.000345
0.000613
0.000418
0.000237
0.000169
0.000056
0.000373
0.000208
0.000222
0.000251
0.000246
0.000247
0.000243
0.000244
0.000252
0.000267
0.000215
0.000246
0.000276
0.000221
0.000240
0.000272
0.000254
0.000254
0.000284
0.000254
0.000260
0.000263
0.000263
0.000263
0.000276
0.000230
0.000269
0.000278
0.000254
0.000282
0.000191
0.000056
0.000178
0.000239
0.000246
0.000248
0.000228
0.000256
0.000262
0.000241
0.000258
0.000279
0.000224
0.000238
0.000262
0.000396
0.000260
0.000276
0.000261
0.000266
0.000254
0.000279
0.000269
0.000239
0.000250
0.000250
0.000271
0.000272
0.000249
0.000247
0.000275
0.000260
0.000208
0.000056
0.000207
0.000357
0.000369
0.000282
0.000292
0.000255
0.000265
0.000259
0.000225
0.000244
0.000251
0.000263
0.000251
0.000235
0.000258
0.000256
0.000267
0.000265
0.000246
0.000266
0.000276
0.000263
0.000281
0.000254
0.000271
0.000249
0.000258
0.000268
0.000271
0.000258
0.000195
0.000056
0.000197
0.000215
0.000269
0.000263
0.000493
0.000210
0.000208
0.000249
0.000259
0.000500
0.000465
0.000278
0.000221
0.000252
0.000268
0.000274
0.000233
0.000274
0.000255
0.000271
0.000262
0.000265
0.000258
0.000391
0.000475
0.000450
0.000263
0.000298
0.000278
0.000250
0.000186
0.000057
0.000216
0.000225
0.000244
0.000253
0.000265
0.000743
0.000287
0.000380
0.000201
0.000245
0.000256
0.000251
0.000249
0.000256
0.000255
0.000267
0.000258
0.000265
0.000677
0.000343
0.000286
0.000245
0.000264
0.000273
0.000288
0.000253
0.000259
0.000275
0.000249
0.000330
0.000340
0.000056
0.000213
0.000232
0.000258
0.000218
0.000256
0.000259
0.000221
0.000251
0.000242
0.000259
0.000247
0.000250
0.000264
0.000370
0.000623
0.000356
0.000228
0.000255
0.000261
0.000246
0.000266
0.000273
0.000486
0.000231
0.000255
0.000658
0.000350
0.000485
0.000255
0.000257
0.000183
0.000055
0.000198
0.000230
0.000249
0.000238
0.000258
0.000258
0.000316
0.000579
0.000427
0.000421
0.000218
0.000264
0.000275
0.000278
0.000254
0.000248
0.000247
0.000242
0.000281
0.000266
0.000437
0.000656
0.000364
0.000254
0.000359
0.000378
0.000473
0.000255
0.000267
0.000426
0.000513
0.000057
0.000259
0.000228
0.000435
0.000233
0.000227
0.000250
0.000264
0.000260
0.000234
0.000240
0.000264
0.000410
0.000423
0.000286
0.000222
0.000247
0.000262
0.000247
0.000271
0.000271
0.000277
0.000249
0.000256
0.000272
0.000364
0.000418
0.000508
0.000225
0.000261
0.000286
0.000183
0.000056
0.000219
0.000263
0.000224
0.000246
0.000249
0.000270
0.000332
0.000530
0.000348
0.000257
0.000373
0.000229
0.000241
0.000266
0.000253
0.000243
0.000250
0.000267
0.000361
0.000339
0.000499
0.000316
0.000461
0.000276
0.000388
0.000422
0.000379
0.000243
0.000247
0.000340
0.000351
0.000056
0.000223
0.000299
0.000200
0.000252
0.000263
0.000252
0.000250
0.000248
0.000254
0.000258
0.000248
0.000385
0.000452
0.000337
0.000379
0.000242
0.000241
0.000266
0.000263
0.000239
0.000246
0.000252
0.000268
0.000273
0.000278
0.000322
0.000577
0.000401
0.000248
0.000268
0.000191
0.000055
0.000203
0.000244
0.000265
0.000242
0.000258
0.000374
0.000571
0.000393
0.000330
0.000686
0.000264
0.000218
0.000246
0.000258
0.000246
0.000265
0.000280
0.000291
0.000463
0.000628
0.001300
0.000311
0.000258
0.000260
0.000288
0.000271
0.000340
0.000467
0.000333
0.000352
0.000158
0.000056
0.000212
0.000234
0.000268
0.000224
0.000243
0.000252
0.000275
0.000249
0.000250
0.000339
0.000320
0.000386
0.000271
0.000354
0.000377
0.000335
0.000245
0.000248
0.000273
0.000262
0.000239
0.000255
0.000282
0.000248
0.000315
0.000438
0.000440
0.000291
0.000250
0.000259
0.000191
0.000055
0.000232
0.000247
0.000255
0.000257
0.000238
0.000238
0.000466
0.000217
0.000228
0.000262
0.000241
0.000253
0.000257
0.000259
0.000244
0.000277
0.000256
0.000267
0.000279
0.000251
0.000262
0.000336
0.000250
0.000242
0.000258
0.000284
0.000265
0.000272
0.000259
0.000271
0.000171
0.000056
0.000238
0.000237
0.000276
0.000493
0.000332
0.000262
0.000225
0.000266
0.000241
0.000245
0.000245
0.000260
0.000266
0.000257
0.000239
0.000246
0.000246
0.000270
0.000284
0.000414
0.000485
0.000302
0.000203
0.000259
0.000266
0.000256
0.000264
0.000255
0.000271
0.000275
0.000200
0.000056
0.000365
0.000429
0.000289
0.000220
0.000233
0.000256
0.000405
0.000233
0.000224
0.000258
0.000254
0.000294
0.000452
0.000331
0.001874
0.000248
0.000242
0.000253
0.000277
0.000247
0.000379
0.000469
0.000607
0.000236
0.000227
0.000265
0.000273
0.000426
0.000277
0.000284
0.000160
0.000056
0.000229
0.000369
0.000324
0.000324
0.000497
0.000253
0.000191
0.000247
0.000257
0.000241
0.000260
0.000240
0.000296
0.000326
0.000490
0.000364
0.000206
0.000254
0.000255
0.000261
0.000262
0.000320
0.000224
0.000287
0.000277
0.000475
0.000526
0.000328
0.000494
0.000223
0.000204
0.000057
0.000205
0.000233
0.000252
0.000232
0.000256
0.000244
0.000269
0.000272
0.000354
0.000447
0.000352
0.000342
0.000226
0.000245
0.000274
0.000279
0.000301
0.000236
0.000275
0.000274
0.000243
0.000333
0.000462
0.000351
0.000294
0.000248
0.000261
0.000426
0.000421
0.000333
0.000158
0.000056
0.000223
0.000305
0.000265
0.000444
0.000352
0.000216
0.000232
0.000256
0.000262
0.000248
0.000264
0.000253
0.000228
0.000260
0.000263
0.000384
0.000302
0.000367
0.000365
0.000267
0.000488
0.000228
0.000282
0.000274
0.000307
0.000277
0.000256
0.000276
0.000497
0.000502
0.000181
0.000056
0.000197
0.000230
0.000248
0.000249
0.000246
0.000480
0.000222
0.000246
0.000270
0.000342
0.000501
0.000566
0.000206
0.000234
0.000246
0.000255
0.000271
0.000233
0.000256
0.000248
0.000262
0.000270
0.000302
0.000563
0.000277
0.000403
0.000302
0.000303
0.000318
0.000258
0.000166
0.000057
0.000189
0.000235
0.000252
0.000492
0.000326
0.000284
0.000272
0.000221
0.000240
0.000260
0.000255
0.000241
0.000261
0.000254
0.000252
0.000258
0.000252
0.000248
0.000254
0.000394
0.000502
0.000407
0.000226
0.000241
0.000281
0.000281
0.000256
0.000257
0.000267
0.000256
0.000203
0.000056
0.000238
0.000487
0.000382
0.000242
0.000215
0.000257
0.000325
0.000456
0.000282
0.000207
0.000260
0.000261
0.000312
0.000416
0.000410
0.000296
0.000228
0.000233
0.000255
0.000265
0.000274
0.000264
0.000258
0.000272
0.000262
0.000314
0.000413
0.000382
0.000324
0.000242
0.000174
0.000055
0.000215
0.000237
0.000250
0.000268
0.000240
0.000261
0.000231
0.000257
0.000246
0.000261
0.000257
0.000238
0.000257
0.001462
0.000229
0.000247
0.000263
0.000248
0.000270
0.000279
0.000266
0.000236
0.000281
0.000251
0.000264
0.000272
0.000269
0.000271
0.000259
0.000268
0.000197
0.000056
0.000204
0.000229
0.000259
0.000244
0.000234
0.000249
0.000259
0.000256
0.000228
0.000250
0.000249
0.000257
0.000257
0.000254
0.000256
0.000256
0.000247
0.000262
0.000268
0.000254
0.000256
0.000263
0.000254
0.000242
0.001293
0.000286
0.000595
0.000431
0.000302
0.000251
0.000189
0.000056
0.000202
0.000236
0.000246
0.000253
0.000422
0.000232
0.000238
0.000242
0.000254
0.000437
0.000406
0.000310
0.000230
0.000235
0.000261
0.000262
0.000257
0.000266
0.000247
0.000255
0.000262
0.000259
0.000318
0.000376
0.000503
0.000444
0.000228
0.000264
0.001368
0.000239
0.000187
0.000056
0.000435
0.000321
0.000318
0.000270
0.000218
0.000242
0.000219
0.000254
0.000258
0.000253
0.000250
0.000262
0.000285
0.000383
0.000487
0.000297
0.000367
0.000224
0.000243
0.000263
0.000259
0.000267
0.000269
0.000268
0.000267
0.000265
0.000394
0.000473
0.000361
0.000391
0.000147
0.000056
0.000206
0.000237
0.001266
0.000442
0.000432
0.000330
0.000350
0.000490
0.000278
0.000338
0.000225
0.000233
0.000255
0.000257
0.000247
0.000265
0.000424
0.000457
0.000380
0.000347
0.000253
0.000248
0.000256
0.000516
0.000227
0.000266
0.000253
0.000278
0.000309
0.000573
0.000266
0.000056
0.000386
0.000310
0.000230
0.000230
0.001728
0.000292
0.000312
0.000240
0.000241
0.000260
0.000215
0.000244
0.000252
0.000264
0.000249
0.000263
0.000229
0.000320
0.000404
0.000487
0.000315
0.000246
0.000249
0.000256
0.000259
0.000282
0.000262
0.000239
0.000264
0.000271
0.000220
0.000057
0.000191
0.000349
0.000222
0.000232
0.000252
0.000239
0.000258
0.000240
0.000230
0.000236
0.001620
0.000271
0.000265
0.000239
0.000234
0.000253
0.000279
0.000260
0.000240
0.000270
0.000268
0.000253
0.000260
0.000529
0.000284
0.000482
0.000230
0.000269
0.000272
0.000285
0.000176
0.000056
0.000203
0.000416
0.000227
0.000233
0.000340
0.000467
0.000339
0.000333
0.000461
0.000198
0.000237
0.000253
0.000265
0.000258
0.000266
0.001496
0.000272
0.000287
0.000243
0.000270
0.000273
0.000275
0.000236
0.000255
0.000265
0.000268
0.000512
0.000393
0.000277
0.000281
0.000149
0.000055
0.000208
0.000226
0.000256
0.000242
0.000224
0.000266
0.000239
0.000244
0.000292
0.000359
0.000463
0.000271
0.000254
0.000243
0.000240
0.000285
0.000261
0.000263
0.000270
0.000227
0.000249
0.000302
0.001280
0.000272
0.000239
0.000241
0.000263
0.000265
0.000266
0.000266
0.000178
0.000057
0.000212
0.000356
0.000369
0.000331
0.000245
0.000240
0.000259
0.000261
0.000259
0.000260
0.000243
0.000272
0.000244
0.000251
0.000256
0.000264
0.000262
0.000272
0.000258
0.000254
0.000248
0.000285
0.000257
0.000278
0.000289
0.000271
0.000261
0.000253
0.000267
0.000448
0.001366
0.000056
0.000223
0.000231
0.000238
0.000246
0.000254
0.000255
0.000246
0.000230
0.000248
0.000251
0.000284
0.000245
0.000253
0.000244
0.000251
0.000270
0.001710
0.000239
0.000243
0.000269
0.000242
0.000262
0.000270
0.000263
0.000274
0.000269
0.000257
0.000278
0.000269
0.000252
0.000237
0.000056
0.000430
0.000245
0.001291
0.000233
0.000220
0.000252
0.000255
0.000252
0.000260
0.000254
0.000232
0.000374
0.000425
0.000379
0.000294
0.000224
0.000243
0.000257
0.000256
0.000273
0.000238
0.000260
0.000272
0.000284
0.000269
0.000391
0.000372
0.000360
0.000314
0.000242
0.000190
0.000056
0.000182
0.000254
0.000242
0.000250
0.000252
0.000221
0.000241
0.000324
0.000377
0.001318
0.000264
0.000215
0.000239
0.000271
0.000266
0.000260
0.000257
0.000250
0.000338
0.000473
0.000343
0.000216
0.000248
0.000236
0.000291
0.000279
0.000262
0.000292
0.000272
0.000274
0.000192
0.000056
0.000270
0.000386
0.000405
0.000218
0.000228
0.000244
0.000242
0.000281
0.000259
0.000251
0.000229
0.000251
0.000458
0.000544
0.000443
0.001434
0.000250
0.000283
0.000320
0.000353
0.000480
0.000485
0.000416
0.000377
0.000228
0.000266
0.000265
0.000268
0.000271
0.000270
0.000191
0.000056
0.000192
0.000337
0.000406
0.000545
0.000251
0.000237
0.000249
0.000223
0.000255
0.000258
0.000254
0.000261
0.000262
0.000245
0.000266
0.000320
0.000366
0.000429
0.000337
0.001323
0.000262
0.000257
0.000258
0.000261
0.000463
0.000446
0.000356
0.000265
0.000279
0.000271
0.000186
0.000055
0.000202
0.000265
0.000221
0.000244
0.000253
0.000282
0.000616
0.000237
0.000349
0.000207
0.000261
0.000246
0.000272
0.000257
0.000261
0.000282
0.000246
0.000260
0.000272
0.000413
0.000369
0.000373
0.000331
0.001352
0.000420
0.000220
0.000281
0.000412
0.000446
0.000357
0.000299
0.000055
0.000194
0.000240
0.000247
0.000251
0.000248
0.000257
0.001676
0.000254
0.000208
0.000241
0.000257
0.000249
0.000258
0.000320
0.000327
0.000288
0.000278
0.000288
0.000617
0.000327
0.000284
0.000279
0.000228
0.000243
0.001524
0.000388
0.000356
0.000454
0.000336
0.000299
0.000153
0.000056
0.000207
0.000245
0.000257
0.000257
0.000242
0.000255
0.001712
0.000227
0.000250
0.000265
0.000331
0.000407
0.001444
0.000345
0.000408
0.000242
0.000259
0.000233
0.000266
0.000271
0.001627
0.000586
0.000299
0.000290
0.000223
0.000255
0.000264
0.000283
0.000245
0.000246
0.000190
0.000056
0.000201
0.000247
0.000286
0.000224
0.000267
0.000275
0.000275
0.000259
0.000252
0.000248
0.000254
0.000251
0.000262
0.000269
0.000251
0.001497
0.000285
0.000228
0.000263
0.000277
0.000278
0.000253
0.000433
0.001269
0.000277
0.000236
0.000266
0.000260
0.000390
0.000254
0.000190
0.000056
0.000217
0.000255
0.000221
0.000244
0.000240
0.000230
0.000231
0.001700
0.000249
0.000228
0.000250
0.000372
0.000220
0.000231
0.000252
0.001393
0.000238
0.000252
0.000265
0.000252
0.000256
0.000353
0.000274
0.001324
0.000268
0.000246
0.000261
0.000264
0.001392
0.000295
0.000203
0.000056
0.000252
0.000317
0.000222
0.000237
0.000241
0.000243
0.000267
0.000270
0.000262
0.000249
0.000259
0.000265
0.000253
0.000245
0.000335
0.001475
0.000251
0.000268
0.000250
0.000249
0.000280
0.000267
0.000245
0.001515
0.000351
0.000230
0.000267
0.001274
0.000277
0.000238
0.000203
0.000056
0.000202
0.000576
0.000178
0.000205
0.000227
0.000242
0.000258
0.000262
0.000261
0.000272
0.000239
0.000247
0.000266
0.000257
0.000427
0.001224
0.000230
0.000255
0.000266
0.000277
0.000223
0.000250
0.000244
0.000366
0.001239
0.000266
0.000236
0.000263
0.001344
0.000347
0.000205
0.000057
0.000319
0.000240
0.000226
0.000229
0.000241
0.000251
0.000254
0.000242
0.000276
0.000255
0.000237
0.000246
0.000284
0.000334
0.000398
0.001453
0.000216
0.000255
0.000295
0.000513
0.000293
0.000407
0.001328
0.000286
0.000255
0.000261
0.000261
0.001302
0.000275
0.000537
0.000353
0.000055
0.000252
0.000233
0.000255
0.000259
0.000250
0.000251
0.000277
0.000244
0.000264
0.000313
0.000290
0.000437
0.001342
0.000237
0.000273
0.000258
0.000276
0.000228
0.000239
0.000256
0.000348
0.001223
0.000269
0.000239
0.000247
0.000246
0.001529
0.000417
0.000474
0.000220
0.000191
0.000056
0.000187
0.000232
0.000249
0.000246
0.000241
0.000268
0.000239
0.000300
0.000536
0.000353
0.000264
0.001483
0.000207
0.000252
0.000262
0.000261
0.000256
0.000295
0.001689
0.000255
0.000393
0.000334
0.001280
0.000427
0.000237
0.000326
0.000263
0.000247
0.000265
0.000278
0.000181
0.000056
0.000203
0.000238
0.000329
0.000265
0.000326
0.000528
0.000267
0.000294
0.001468
0.000240
0.000389
0.000253
0.000225
0.000329
0.000359
0.001330
0.000275
0.000241
0.000241
0.000268
0.001553
0.000335
0.000277
0.000322
0.000240
0.000255
0.000453
0.000353
0.000227
0.000233
0.000255
0.000055
0.000209
0.000377
0.000311
0.000268
0.000221
0.001515
0.000209
0.000258
0.000270
0.000273
0.000265
0.000245
0.000342
0.001439
0.000260
0.000226
0.000433
0.001191
0.000404
0.000379
0.000392
0.000246
0.000240
0.000256
0.000276
0.000241
0.000457
0.000225
0.000265
0.000280
0.000202
0.000056
0.000213
0.000295
0.000368
0.000318
0.001297
0.000278
0.000309
0.000232
0.000244
0.000252
0.000252
0.000298
0.001529
0.000234
0.000236
0.000250
0.001384
0.000430
0.000324
0.000395
0.000377
0.000226
0.000244
0.000256
0.000263
0.000280
0.000272
0.000259
0.000261
0.000257
0.000220
0.000055
0.000220
0.000380
0.001448
0.000211
0.000275
0.000275
0.000243
0.000248
0.000264
0.000369
0.001406
0.000213
0.000259
0.000260
0.000259
0.001316
0.000671
0.000291
0.000310
0.000406
0.000303
0.000240
0.000265
0.000257
0.000274
0.000285
0.000275
0.000311
0.000553
0.000305
0.001396
0.000056
0.000216
0.000223
0.000246
0.000230
0.000308
0.000460
0.000370
0.001319
0.000228
0.000241
0.000248
0.001489
0.000441
0.000273
0.000208
0.000408
0.000250
0.000261
0.000251
0.000277
0.000265
0.000256
0.000276
0.000256
0.000252
0.000355
0.000409
0.000457
0.001495
0.000237
0.000162
0.000057
0.000217
0.000254
0.000372
0.000564
0.001192
0.000277
0.000254
0.000260
0.000244
0.000254
0.000249
0.000273
0.000387
0.000468
0.000337
0.000231
0.000256
0.000274
0.000245
0.000274
0.000253
0.000273
0.000254
0.000265
0.000269
0.000415
0.000587
0.000213
0.000318
0.001430
0.000144
0.000056
0.000193
0.000248
0.000247
0.000499
0.000334
0.000296
0.000317
0.000335
0.000264
0.000280
0.000241
0.000259
0.000259
0.000307
0.000231
0.000352
0.000556
0.000265
0.000295
0.000379
0.000275
0.000409
0.000232
0.000242
0.000259
0.000259
0.000251
0.000295
0.000447
0.000473
0.000221
0.000055
0.000198
0.001399
0.000234
0.000339
0.000413
0.000386
0.000384
0.000339
0.000219
0.000240
0.000266
0.000247
0.000259
0.000279
0.000253
0.000257
0.000271
0.001359
0.000250
0.000254
0.000257
0.000276
0.000267
0.000282
0.000281
0.000241
0.000279
0.000244
0.000327
0.000434
0.000329
0.000056
0.000214
0.000260
0.000223
0.001500
0.000322
0.000235
0.000233
0.000244
0.000228
0.000242
0.000258
0.000268
0.000253
0.000253
0.000268
0.000252
0.000270
0.000248
0.000255
0.000262
0.001437
0.000230
0.000246
0.000277
0.000248
0.000262
0.000262
0.000273
0.000263
0.000490
0.000343
0.000057
0.000183
0.000267
0.000375
0.000267
0.000251
0.000252
0.001560
0.000375
0.000248
0.000209
0.000265
0.000306
0.000340
0.000231
0.000229
0.000250
0.000238
0.000270
0.000263
0.000256
0.000583
0.000438
0.001094
0.000275
0.000233
0.000253
0.000267
0.000261
0.000272
0.000275
0.000470
0.000056
0.000380
0.000206
0.000200
0.000238
0.000258
0.000232
0.000250
0.000224
0.000292
0.001633
0.000342
0.000294
0.000233
0.000244
0.000258
0.000249
0.000259
0.000271
0.000269
0.000307
0.000313
0.000544
0.000386
0.001376
0.000224
0.000261
0.000273
0.000261
0.000273
0.000315
0.000495
0.000056
0.000247
0.000235
0.000245
0.000232
0.000223
0.000243
0.000258
0.000257
0.000268
0.001623
0.000298
0.000260
0.000260
0.000261
0.000462
0.000265
0.000520
0.000383
0.000298
0.000321
0.000439
0.000511
0.001228
0.000262
0.000233
0.000259
0.001721
0.000439
0.000616
0.000317
0.000151
0.000056
0.000200
0.000229
0.000242
0.000230
0.000262
0.000236
0.000251
0.000587
0.000546
0.000292
0.000286
0.000221
0.000232
0.000265
0.000263
0.000269
0.000239
0.000263
0.000251
0.000272
0.000311
0.000449
0.001275
0.000215
0.000267
0.000263
0.001927
0.000357
0.000379
0.000349
0.000159
0.000056
0.000206
0.000228
0.000244
0.001649
0.000356
0.000203
0.000235
0.000264
0.000251
0.000286
0.000382
0.000365
0.000368
0.000271
0.000375
0.000443
0.000379
0.001215
0.000266
0.000244
0.000248
0.000259
0.000272
0.000536
0.000422
0.000529
0.000241
0.000274
0.000267
0.000281
0.000186
0.000056
0.000190
0.000243
0.000238
0.001571
0.000223
0.000230
0.000244
0.000255
0.000238
0.000262
0.000248
0.000270
0.000272
0.000269
0.000325
0.000342
0.000415
0.000320
0.001407
0.000241
0.000250
0.000256
0.000260
0.000264
0.000407
0.000405
0.000502
0.000264
0.000287
0.000227
0.000441
0.000056
0.000209
0.000241
0.000253
0.001528
0.000323
0.000211
0.000271
0.000238
0.000258
0.000261
0.000249
0.000255
0.000262
0.000250
0.000368
0.000699
0.001234
0.000747
0.000266
0.000337
0.000256
0.000226
0.000247
0.000268
0.001690
0.000806
0.000224
0.000270
0.000265
0.000288
0.000186
0.000056
0.000224
0.000229
0.000255
0.000241
0.000260
0.000242
0.000242
0.000252
0.000239
0.000235
0.000290
0.000283
0.000247
0.000256
0.000255
0.000250
0.000285
0.001592
0.000701
0.000417
0.000279
0.000221
0.000248
0.000277
0.000288
0.000246
0.000271
0.000277
0.001378
0.000428
0.000337
0.000056
0.000197
0.000227
0.000256
0.000244
0.000263
0.000228
0.000255
0.000256
0.000250
0.000261
0.000273
0.000465
0.000399
0.000340
0.000199
0.000250
0.000278
0.001384
0.000704
0.000449
0.000341
0.000278
0.000227
0.000245
0.000278
0.000251
0.000254
0.000267
0.001525
0.000408
0.000184
0.000055
0.000226
0.000221
0.000251
0.000246
0.000249
0.000251
0.000242
0.000242
0.000270
0.000338
0.000323
0.000398
0.000274
0.000224
0.000244
0.000244
0.000267
0.000253
0.001698
0.000508
0.000468
0.000311
0.000227
0.000257
0.000269
0.000260
0.000268
0.000276
0.000267
0.001503
0.000177
0.000055
0.000221
0.000218
0.000232
0.000257
0.000265
0.000237
0.000262
0.000297
0.000361
0.000449
0.000369
0.000407
0.000340
0.000204
0.000249
0.000247
0.000278
0.000269
0.000255
0.001957
0.000306
0.000231
0.000439
0.000255
0.000246
0.000258
0.000267
0.000265
0.000270
0.000275
0.000406
0.000056
0.000187
0.000287
0.000231
0.000241
0.000251
0.000250
0.000222
0.000240
0.000289
0.000237
0.000243
0.000239
0.000470
0.000269
0.000467
0.000440
0.000216
0.000260
0.000251
0.000249
0.000258
0.000291
0.001467
0.001062
0.000216
0.000243
0.000271
0.000267
0.000278
0.000272
0.000177
0.000056
0.000190
0.001344
0.000297
0.000209
0.000235
0.000253
0.000252
0.000241
0.000241
0.000265
0.000240
0.000263
0.000235
0.000519
0.000259
0.000366
0.000342
0.000248
0.000260
0.000273
0.000269
0.000231
0.000263
0.000262
0.001392
0.000619
0.000315
0.000375
0.000381
0.000400
0.000297
0.000055
0.000192
0.000255
0.000396
0.001269
0.000208
0.000255
0.000230
0.000257
0.000253
0.000257
0.000263
0.000240
0.000253
0.000357
0.000566
0.000303
0.000227
0.000335
0.000287
0.000201
0.000252
0.000277
0.000228
0.000275
0.000290
0.001511
0.000751
0.000291
0.000282
0.000274
0.000183
0.000056
0.000214
0.000326
0.000392
0.000415
0.001212
0.000261
0.000220
0.000234
0.000234
0.000249
0.000246
0.000273
0.000214
0.000242
0.000256
0.000255
0.000270
0.000230
0.000257
0.000262
0.000262
0.000266
0.000314
0.000335
0.000209
0.000266
0.000265
0.001458
0.000258
0.000248
0.000164
0.000056
0.000197
0.000231
0.000255
0.000270
0.000348
0.000385
0.000387
0.000266
0.001575
0.000279
0.000262
0.000589
0.000255
0.000227
0.000429
0.000238
0.000250
0.000247
0.000276
0.000263
0.000283
0.000262
0.000265
0.000265
0.000261
0.000401
0.000439
0.000279
0.001591
0.000220
0.000196
0.000057
0.000195
0.000244
0.000250
0.000241
0.000244
0.000247
0.000265
0.000278
0.000436
0.002037
0.000237
0.000236
0.000259
0.000256
0.000261
0.000258
0.000277
0.000240
0.000435
0.000263
0.000349
0.000495
0.001436
0.000247
0.000535
0.000231
0.001764
0.000241
0.000263
0.001533
0.000149
0.000055
0.000309
0.000538
0.000382
0.000220
0.000264
0.000224
0.000257
0.000270
0.000264
0.000227
0.000253
0.000372
0.000384
0.000359
0.000452
0.000208
0.000235
0.001559
0.000226
0.000601
0.001868
0.000296
0.000229
0.001601
0.001959
0.000743
0.000279
0.000249
0.000307
0.000467
0.000356
0.000055
0.000192
0.000247
0.000246
0.000252
0.001425
0.002558
0.000250
0.000194
0.000236
0.001596
0.001973
0.000207
0.000243
0.000424
0.000300
0.000367
0.000409
0.000476
0.000208
0.000251
0.000241
0.000255
0.000293
0.001576
0.001214
0.001422
0.000289
0.000287
0.000252
0.000464
0.000261
0.000056
0.000210
0.000245
0.000231
0.000247
0.000228
0.000245
0.000249
0.000250
0.000259
0.000247
0.000260
0.000331
0.000408
0.000440
0.000312
0.000244
0.000246
0.000275
0.000263
0.000299
0.000227
0.000265
0.001570
0.000427
0.002103
0.000232
0.000278
0.000338
0.000496
0.000320
0.000200
0.000056
0.000227
0.000349
0.000452
0.000318
0.000198
0.000222
0.000256
0.000246
0.000240
0.000240
0.000247
0.000262
0.000281
0.001588
0.001359
0.001235
0.000269
0.000220
0.000256
0.000277
0.000284
0.000275
0.000243
0.000253
0.002198
0.000250
0.000256
0.000299
0.000323
0.000304
0.000221
0.000056
0.000220
0.000364
0.000558
0.000334
0.000216
0.000225
0.000253
0.000267
0.001902
0.001429
0.000216
0.000324
0.000385
0.000415
0.000272
0.000211
0.000256
0.000270
0.000264
0.000264
0.000262
0.000261
0.000474
0.000234
0.000276
0.000263
0.000253
0.000275
0.000282
0.000243
0.000205
0.000055
0.000214
0.000246
0.000247
0.000241
0.000257
0.000266
0.001556
0.001406
0.001341
0.000233
0.000227
0.000241
0.000264
0.000261
0.000248
0.000251
0.000251
0.002105
0.000258
0.000225
0.000268
0.000262
0.000254
0.000271
0.000264
0.000266
0.000259
0.000257
0.000275
0.000256
0.000176
0.000055
0.000206
0.002685
0.001400
0.000212
0.000304
0.000298
0.000229
0.000267
0.000259
0.000236
0.000254
0.000246
0.000235
0.000246
0.000270
0.000258
0.000268
0.000275
0.000246
0.000266
0.000284
0.000268
0.000271
0.000267
0.000247
0.000246
0.000265
0.000278
0.000254
0.000267
0.000375
0.000056
0.001556
0.000251
0.001246
0.000228
0.000216
0.000238
0.000271
0.000249
0.000245
0.000316
0.000419
0.000290
0.000339
0.000213
0.000254
0.002156
0.000239
0.000244
0.000325
0.000480
0.000343
0.000294
0.000231
0.000250
0.000269
0.000245
0.000263
0.000281
0.000276
0.001617
0.001247
0.000057
0.000187
0.000227
0.000314
0.000402
0.000344
0.000274
0.000212
0.000230
0.000254
0.000256
0.000268
0.000246
0.000227
0.000276
0.000246
0.000237
0.000409
0.000632
0.000263
0.000254
0.000214
0.000274
0.000287
0.000248
0.000251
0.000242
0.000266
0.000280
0.000243
0.000361
0.000370
0.000055
0.001121
0.000265
0.000347
0.000456
0.000240
0.000234
0.000224
0.000241
0.000252
0.002412
0.000250
0.000397
0.000215
0.000372
0.000281
0.000262
0.000258
0.000259
0.000265
0.000223
0.000261
0.000372
0.000573
0.000401
0.001862
0.001344
0.000484
0.000538
0.000232
0.000276
0.000200
0.000057
0.000212
0.000363
0.000244
0.000245
0.000244
0.000228
0.000257
0.000251
0.000255
0.000251
0.000260
0.000219
0.000247
0.000273
0.000391
0.000509
0.001829
0.001321
0.000508
0.000380
0.000459
0.000240
0.000239
0.000259
0.002143
0.000543
0.000395
0.000228
0.000273
0.000281
0.000195
0.000056
0.000209
0.000244
0.000258
0.000240
0.000258
0.000286
0.000477
0.000347
0.000239
0.000247
0.000237
0.000255
0.000259
0.002114
0.000352
0.000402
0.000210
0.000254
0.000261
0.000266
0.000251
0.002543
0.000244
0.000231
0.000263
0.000247
0.000263
0.000261
0.000285
0.000278
0.000199
0.000055
0.000217
0.000435
0.000533
0.000279
0.000259
0.000220
0.000228
0.000252
0.000267
0.000247
0.002008
0.000336
0.000278
0.000273
0.000237
0.000269
0.000269
0.000242
0.002209
0.000450
0.000218
0.000268
0.000262
0.000269
0.000255
0.000250
0.000280
0.000254
0.000266
0.000262
0.000177
0.000074
0.000200
0.000237
0.000247
0.000223
0.000248
0.000258
0.000241
0.000241
0.000231
0.002190
0.000223
0.000297
0.000201
0.000423
0.000245
0.000238
0.000279
0.000288
0.000243
0.000263
0.001968
0.000280
0.000339
0.000365
0.000435
0.000402
0.000305
0.000256
0.000249
0.000264
0.000190
0.000055
0.000205
0.000234
0.000240
0.000249
0.000249
0.000332
0.000207
0.002313
0.000241
0.000239
0.000256
0.000258
0.000239
0.000251
0.000302
0.002125
0.000597
0.000216
0.000255
0.000244
0.000263
0.000257
0.000286
0.000271
0.000255
0.000258
0.000293
0.000254
0.000267
0.000260
0.000190
0.000056
0.001815
0.001443
0.000190
0.000232
0.000251
0.000237
0.000254
0.000364
0.000313
0.000354
0.002167
0.000258
0.000233
0.000266
0.000308
0.000514
0.000375
0.000293
0.000210
0.000255
0.000255
0.000267
0.000270
0.000221
0.000256
0.000263
0.000272
0.000266
0.000553
0.000469
0.000277
0.000056
0.000206
0.000252
0.000259
0.000246
0.000274
0.000241
0.000256
0.000238
0.001554
0.002051
0.000581
0.000282
0.000414
0.000761
0.000264
0.000237
0.000255
0.000250
0.000268
0.000262
0.000254
0.000237
0.000269
0.001819
0.000334
0.001389
0.000279
0.000273
0.000283
0.000290
0.000682
0.000056
0.001951
0.000225
0.000217
0.000236
0.000294
0.000354
0.000462
0.000300
0.000289
0.000212
0.000232
0.000257
0.000260
0.000264
0.000269
0.000247
0.000265
0.000257
0.001842
0.000241
0.000225
0.000258
0.000278
0.000263
0.000273
0.000257
0.001466
0.000334
0.000245
0.000259
0.000174
0.000056
0.000200
0.000237
0.000228
0.000244
0.000252
0.000242
0.000357
0.000317
0.000337
0.000382
0.000210
0.000242
0.000261
0.000334
0.000425
0.000321
0.000219
0.000247
0.000284
0.000472
0.000413
0.000351
0.000264
0.000263
0.000252
0.000253
0.000255
0.000268
0.000289
0.000249
0.000200
0.000056
0.001456
0.000444
0.000201
0.001943
0.000322
0.000453
0.000377
0.000292
0.000230
0.000246
0.000265
0.000243
0.000240
0.000257
0.000293
0.000230
0.000461
0.000272
0.000413
0.000400
0.000330
0.000225
0.000259
0.000266
0.000275
0.000270
0.000262
0.000287
0.000356
0.000492
0.001328
0.000055
0.000209
0.000225
0.002071
0.000317
0.000303
0.000256
0.000260
0.000247
0.000264
0.000265
0.000211
0.000254
0.000251
0.000261
0.000298
0.000339
0.000698
0.001752
0.000235
0.000244
0.000254
0.000281
0.000391
0.000469
0.001524
0.000278
0.000363
0.001928
0.000260
0.000252
0.000195
0.000056
0.000196
0.000231
0.000236
0.000240
0.000230
0.000249
0.000253
0.000305
0.000310
0.000278
0.000375
0.000360
0.000341
0.000301
0.000229
0.000272
0.000264
0.000237
0.000266
0.000256
0.000298
0.000301
0.000250
0.000266
0.000264
0.001514
0.000291
0.000385
0.002072
0.000229
0.000180
0.000056
0.000193
0.000235
0.000244
0.000243
0.000485
0.000211
0.000250
0.000368
0.000331
0.000317
0.000306
0.000205
0.000270
0.000261
0.000270
0.000326
0.000392
0.000465
0.000254
0.000392
0.000553
0.000467
0.001548
0.000223
0.000254
0.002011
0.000319
0.000228
0.000248
0.000292
0.000184
0.000057
0.000187
0.000245
0.000226
0.000249
0.000245
0.000276
0.000245
0.000274
0.000256
0.000255
0.001807
0.000331
0.000378
0.000315
0.000430
0.000372
0.000374
0.001470
0.000239
0.000274
0.002247
0.000425
0.000286
0.000222
0.000264
0.000274
0.000501
0.000224
0.000257
0.000290
0.000181
0.000056
0.000175
0.000364
0.000387
0.000267
0.000219
0.000232
0.000257
0.000250
0.000281
0.000286
0.000227
0.000250
0.000255
0.000280
0.000498
0.001342
0.000319
0.000203
0.000401
0.001938
0.000227
0.000276
0.000252
0.000263
0.000250
0.000282
0.000268
0.000260
0.000249
0.000272
0.000193
0.000057
0.000201
0.000507
0.001949
0.000247
0.000255
0.000215
0.000260
0.000382
0.000409
0.000371
0.001309
0.000378
0.002117
0.000319
0.000210
0.000236
0.000274
0.000272
0.000260
0.000237
0.000285
0.000292
0.000261
0.000307
0.000562
0.000321
0.000336
0.002220
0.000632
0.000340
0.000391
0.000056
0.000212
0.000225
0.000239
0.001974
0.000234
0.000217
0.000246
0.000240
0.000247
0.000259
0.000239
0.000261
0.000247
0.000279
0.000523
0.001401
0.000251
0.000235
0.000267
0.000257
0.000235
0.000254
0.000268
0.000291
0.000365
0.000419
0.000447
0.000229
0.001594
0.000291
0.000156
0.000056
0.000195
0.000230
0.000242
0.000240
0.000246
0.000256
0.000251
0.000247
0.000257
0.000441
0.000329
0.001388
0.000238
0.000221
0.000247
0.000260
0.000262
0.000248
0.000494
0.000293
0.000417
0.000429
0.000218
0.001586
0.000221
0.000259
0.000287
0.000280
0.000269
0.000279
0.000170
0.000056
0.000219
0.000219
0.000266
0.000268
0.000244
0.000244
0.000236
0.000247
0.000259
0.000240
0.000254
0.000256
0.000260
0.001482
0.000365
0.000203
0.000253
0.000266
0.000278
0.000311
0.000376
0.000265
0.000251
0.000257
0.000266
0.000264
0.000259
0.001403
0.000283
0.000237
0.000177
0.000055
0.000187
0.000235
0.000263
0.000266
0.000251
0.000247
0.000257
0.000238
0.000218
0.000265
0.000245
0.000260
0.000239
0.000281
0.000390
0.000362
0.000260
0.000238
0.001626
0.000248
0.000234
0.000266
0.000262
0.000297
0.000428
0.000364
0.000415
0.000270
0.000244
0.001608
0.000165
0.000057
0.000336
0.000391
0.000318
0.000291
0.000243
0.000217
0.000248
0.000269
0.000256
0.000236
0.000249
0.000241
0.001499
0.000285
0.000281
0.000214
0.000258
0.000250
0.000266
0.000267
0.000254
0.000236
0.000258
0.000276
0.000325
0.000342
0.000373
0.000394
0.000279
0.000252
0.000192
0.000055
0.000219
0.000264
0.000402
0.000365
0.000351
0.000286
0.000242
0.000250
0.000253
0.000260
0.000241
0.000222
0.000256
0.000241
0.001263
0.000313
0.000223
0.000251
0.000269
0.000261
0.000244
0.000265
0.000252
0.000260
0.000257
0.000257
0.000321
0.000687
0.000451
0.000239
0.000161
0.000055
0.000194
0.001565
0.000253
0.000482
0.000330
0.000356
0.000224
0.000241
0.000269
0.000250
0.000239
0.000266
0.000268
0.000276
0.000260
0.001521
0.000254
0.000287
0.000264
0.000264
0.000251
0.000249
0.000269
0.000262
0.000262
0.000294
0.000394
0.000388
0.000347
0.000265
0.000156
0.000058
0.000180
0.000251
0.000248
0.001683
0.000345
0.000347
0.000220
0.000239
0.000260
0.000266
0.000279
0.000260
0.000243
0.000262
0.000233
0.000273
0.000434
0.001287
0.000240
0.000257
0.001487
0.000401
0.000531
0.000337
0.000353
0.000221
0.000273
0.000475
0.000224
0.000259
0.000188
0.000055
0.000289
0.000221
0.000242
0.000246
0.000252
0.000254
0.000238
0.000254
0.000257
0.000235
0.000260
0.000276
0.000447
0.000395
0.001624
0.001501
0.000459
0.000422
0.000342
0.000212
0.000239
0.000257
0.000252
0.000263
0.000247
0.000272
0.000252
0.000275
0.001520
0.000342
0.000158
0.000056
0.000221
0.000358
0.000358
0.000324
0.000234
0.000224
0.000241
0.000375
0.000445
0.000340
0.002173
0.000316
0.000825
0.000443
0.000393
0.000269
0.000330
0.000401
0.000322
0.000280
0.000394
0.000240
0.001563
0.000528
0.000222
0.000253
0.000258
0.000254
0.000268
0.000267
0.000186
0.000056
0.000202
0.000252
0.000261
0.000242
0.000248
0.001660
0.000874
0.001006
0.000204
0.000230
0.000265
0.000258
0.000254
0.000262
0.000254
0.000247
0.000257
0.000265
0.000265
0.000279
0.001432
0.000318
0.000253
0.000221
0.000236
0.000262
0.000256
0.000303
0.000244
0.000288
0.001906
0.000055
0.000190
0.000231
0.001555
0.000927
0.000322
0.000342
0.000229
0.000236
0.000252
0.000260
0.000242
0.000253
0.000242
0.001986
0.000482
0.000213
0.000241
0.000256
0.000269
0.000263
0.000201
