0.000105
0.020167
0.001365
0.000328
0.000275
0.000281
0.000306
0.000316
0.000262
0.000284
0.000254
0.000351
0.000477
0.000525
0.000311
0.000402
0.000268
0.000392
0.000386
0.000339
0.000326
0.001939
0.000674
0.000251
0.000259
0.000305
0.000306
0.000370
0.000447
0.000317
0.000556
0.000227
0.000057
0.000231
0.000253
0.000268
0.000267
0.000272
0.000249
0.000281
0.000275
0.000250
0.000297
0.000425
0.000439
0.000315
0.000265
0.000411
0.000291
0.000380
0.000231
0.000260
0.001705
0.000310
0.000248
0.000459
0.000250
0.000278
0.000291
0.000269
0.000295
0.000280
0.000350
0.000403
0.000056
0.000193
0.000252
0.000264
0.000262
0.000252
0.000245
0.000259
0.000261
0.000277
0.001671
0.000225
0.000235
0.000274
0.000268
0.000279
0.000252
0.000265
0.000260
0.000351
0.001801
0.000233
0.000279
0.000443
0.000520
0.000313
0.000225
0.000251
0.000523
0.000433
0.000787
0.000195
0.000057
0.000229
0.000248
0.000254
0.000237
0.000316
0.000231
0.000310
0.000608
0.000323
0.000282
0.000232
0.000247
0.000244
0.000253
0.000257
0.000256
0.000244
0.000269
0.000298
0.000320
0.001678
0.000277
0.000252
0.000413
0.000653
0.000349
0.000670
0.000511
0.000351
0.000250
0.000179
0.000057
0.000194
0.000251
0.000262
0.000239
0.000255
0.000257
0.000296
0.000457
0.001441
0.000232
0.000240
0.000241
0.000257
0.000255
0.000264
0.000289
0.000301
0.000760
0.001405
0.000278
0.000464
0.000252
0.000235
0.000219
0.000269
0.000243
0.000268
0.000268
0.000260
0.000266
0.000194
0.000057
0.000218
0.000244
0.000241
0.000267
0.000234
0.000252
0.000237
0.000253
0.000263
0.000228
0.001631
0.000262
0.000240
0.000236
0.000257
0.000249
0.000246
0.000246
0.000255
0.000255
0.000267
0.001669
0.000282
0.000250
0.000441
0.000258
0.000256
0.000255
0.000260
0.000273
0.000196
0.000057
0.000198
0.000229
0.000247
0.000265
0.000228
0.000244
0.000261
0.000236
0.000263
0.000242
0.000266
0.000260
0.000256
0.000271
0.001642
0.000280
0.000287
0.000213
0.000261
0.000270
0.000268
0.000244
0.000240
0.000289
0.001776
0.000376
0.000350
0.000345
0.000264
0.000273
0.000219
0.000056
0.000184
0.000235
0.000253
0.000255
0.000256
0.000243
0.000289
0.000396
0.000479
0.000367
0.000210
0.000244
0.000274
0.000233
0.001619
0.000467
0.000354
0.000404
0.000297
0.000229
0.000263
0.000287
0.000272
0.001725
0.000528
0.000447
0.000251
0.000252
0.000245
0.000263
0.000188
0.000057
0.000198
0.000226
0.000259
0.000281
0.000296
0.000495
0.000351
0.000273
0.000222
0.000250
0.000262
0.000238
0.000255
0.001765
0.000430
0.000281
0.000239
0.000249
0.000274
0.000284
0.000244
0.000261
0.000273
0.001935
0.000260
0.000384
0.000274
0.000233
0.000282
0.000406
0.000325
0.000055
0.000212
0.000376
0.000411
0.000229
0.000249
0.000253
0.000252
0.000256
0.000246
0.000229
0.000239
0.000248
0.001548
0.000332
0.000331
0.000235
0.000256
0.000252
0.000246
0.000276
0.000283
0.000327
0.000245
0.001804
0.000260
0.000496
0.000253
0.000248
0.000268
0.000254
0.000254
0.000057
0.000439
0.000453
0.000609
0.000214
0.000235
0.000275
0.000227
0.000224
0.000262
0.000250
0.000251
0.001703
0.000251
0.000446
0.000361
0.000218
0.000242
0.000226
0.000265
0.000245
0.000284
0.001833
0.000230
0.000246
0.002078
0.000520
0.000361
0.000250
0.000255
0.000267
0.000188
0.000055
0.000214
0.000246
0.000246
0.000241
0.000259
0.001617
0.000251
0.000237
0.000252
0.000253
0.000246
0.000243
0.000251
0.000252
0.000268
0.000520
0.000523
0.000256
0.000238
0.000269
0.000286
0.000229
0.000240
0.000432
0.000443
0.000248
0.000375
0.000518
0.000464
0.000265
0.000199
0.000056
0.000208
0.000236
0.000253
0.000254
0.000232
0.000241
0.000253
0.000434
0.000391
0.001729
0.000200
0.000240
0.000239
0.000248
0.000261
0.000291
0.000393
0.000510
0.000342
0.000240
0.000252
0.000307
0.000275
0.000255
0.000277
0.000435
0.000351
0.000695
0.000334
0.000480
0.000165
0.000056
0.000195
0.000263
0.000245
0.000218
0.000242
0.000240
0.000251
0.000245
0.000241
0.000339
0.000294
0.000452
0.001382
0.000240
0.000241
0.000240
0.000260
0.000246
0.000252
0.000260
0.000277
0.000458
0.000391
0.000273
0.000270
0.000255
0.000254
0.000272
0.000263
0.000263
0.000385
0.000055
0.000219
0.000229
0.000237
0.000260
0.000550
0.000438
0.000216
0.000281
0.000217
0.000258
0.000245
0.000239
0.000300
0.000249
0.000239
0.000495
0.000419
0.001626
0.000276
0.000234
0.000258
0.000268
0.000256
0.000238
0.000338
0.000403
0.000404
0.000374
0.000423
0.000246
0.000182
0.000055
0.000240
0.000431
0.000240
0.000210
0.000270
0.000257
0.000250
0.000585
0.000325
0.000330
0.000229
0.000268
0.000272
0.000235
0.000514
0.000346
0.000221
0.000247
0.000482
0.001573
0.000273
0.000229
0.000524
0.000242
0.000280
0.000279
0.000272
0.000400
0.000480
0.000374
0.000267
0.000055
0.000223
0.000232
0.000237
0.000242
0.000419
0.000307
0.000295
0.000241
0.000369
0.000492
0.000382
0.000233
0.000246
0.000243
0.000257
0.000267
0.000254
0.000255
0.000234
0.000347
0.000288
0.000343
0.001836
0.000241
0.000260
0.000255
0.000285
0.000356
0.000429
0.000667
0.000439
0.000056
0.000232
0.000330
0.000281
0.000427
0.000393
0.000204
0.000261
0.000284
0.000551
0.000373
0.000273
0.000235
0.000241
0.000278
0.000257
0.000232
0.000255
0.000277
0.000265
0.000258
0.000278
0.000427
0.000658
0.001297
0.000338
0.000522
0.000330
0.000259
0.000456
0.000372
0.000312
0.000056
0.000246
0.000379
0.000265
0.000210
0.000220
0.000240
0.000420
0.000239
0.000251
0.000442
0.000330
0.000450
0.000243
0.000255
0.000266
0.000247
0.000380
0.000383
0.000354
0.000224
0.000245
0.000401
0.000611
0.001684
0.000236
0.000443
0.000295
0.000230
0.000355
0.000365
0.000313
0.000056
0.000198
0.000226
0.000248
0.000249
0.000253
0.000240
0.000251
0.000318
0.000460
0.000255
0.000450
0.000412
0.000268
0.000575
0.000239
0.000249
0.000277
0.000262
0.000228
0.000354
0.000215
0.000255
0.000269
0.000482
0.000383
0.001695
0.000268
0.000226
0.000260
0.000266
0.000194
0.000056
0.000331
0.000452
0.000326
0.000220
0.000252
0.000252
0.000256
0.000242
0.000260
0.000245
0.000225
0.000249
0.000465
0.000466
0.000404
0.000274
0.000272
0.000240
0.000374
0.000363
0.000383
0.000324
0.000424
0.000355
0.000227
0.000242
0.000285
0.000262
0.001783
0.000246
0.000209
0.000056
0.000215
0.000222
0.000270
0.000253
0.000382
0.000532
0.000300
0.000219
0.000258
0.000263
0.000252
0.000250
0.000511
0.000454
0.000495
0.000291
0.000235
0.000280
0.000426
0.000460
0.000409
0.000343
0.000460
0.000470
0.000233
0.000257
0.000268
0.000247
0.000258
0.001722
0.000353
0.000056
0.000293
0.000337
0.000199
0.000234
0.000259
0.000245
0.000249
0.000504
0.000373
0.000297
0.000296
0.000248
0.000383
0.000680
0.000290
0.000253
0.000236
0.000256
0.000249
0.000265
0.000265
0.000272
0.000240
0.000264
0.000322
0.000357
0.000416
0.000346
0.000231
0.000275
0.000174
0.000055
0.000442
0.000349
0.000412
0.000254
0.000206
0.000252
0.000245
0.000257
0.000235
0.000225
0.000251
0.000275
0.000297
0.000398
0.000426
0.000534
0.000324
0.000326
0.000399
0.000360
0.000269
0.000216
0.000251
0.000259
0.001732
0.000270
0.001724
0.000942
0.000360
0.000357
0.000165
0.000055
0.000207
0.000235
0.000238
0.000241
0.000263
0.000243
0.000256
0.000250
0.000240
0.000302
0.000442
0.000364
0.000340
0.000401
0.000240
0.000251
0.000264
0.000277
0.000225
0.000250
0.000253
0.000259
0.001795
0.000248
0.000264
0.000259
0.000283
0.000260
0.001870
0.000480
0.000263
0.000056
0.000214
0.000212
0.000241
0.000236
0.000253
0.000248
0.000242
0.000255
0.000255
0.000387
0.000489
0.000556
0.000235
0.000203
0.000235
0.000269
0.000363
0.000404
0.000366
0.000247
0.001765
0.000263
0.000248
0.000244
0.000266
0.000268
0.000244
0.000251
0.000327
0.000309
0.000428
0.000056
0.000253
0.000220
0.000240
0.000261
0.000242
0.000244
0.000264
0.000251
0.000243
0.000252
0.000242
0.000320
0.000294
0.000429
0.000342
0.000266
0.000466
0.000242
0.000252
0.000261
0.000240
0.000265
0.000271
0.000258
0.000277
0.001781
0.000257
0.000245
0.000267
0.000238
0.000196
0.000055
0.000322
0.000283
0.000241
0.000224
0.000234
0.000235
0.000238
0.000259
0.000246
0.000224
0.000229
0.000266
0.000256
0.000460
0.000324
0.000339
0.000294
0.000251
0.000245
0.000254
0.000260
0.000259
0.000248
0.000273
0.000238
0.000272
0.000328
0.001608
0.000271
0.000238
0.000190
0.000056
0.000183
0.000231
0.000252
0.000263
0.000342
0.000342
0.000435
0.000291
0.000226
0.000259
0.000248
0.000248
0.000246
0.000257
0.000260
0.000261
0.000240
0.000256
0.000256
0.000260
0.000267
0.000270
0.000245
0.000240
0.000243
0.000280
0.000274
0.000260
0.000254
0.000281
0.000171
0.000056
0.000224
0.000242
0.000247
0.000260
0.000234
0.000246
0.000247
0.000265
0.000282
0.000240
0.000227
0.000253
0.000253
0.000265
0.000253
0.000261
0.000256
0.000253
0.000296
0.000255
0.000272
0.000287
0.000273
0.000247
0.000279
0.000273
0.000270
0.000249
0.000283
0.000456
0.000627
0.000056
0.000236
0.000284
0.000209
0.000236
0.000237
0.000253
0.000241
0.000254
0.000249
0.000245
0.000246
0.000436
0.000534
0.000371
0.001453
0.000238
0.000487
0.000255
0.000241
0.000437
0.000460
0.000367
0.000232
0.000274
0.000255
0.000263
0.000280
0.000248
0.000314
0.000255
0.000187
0.000057
0.000364
0.000382
0.000398
0.000233
0.000227
0.000249
0.000258
0.000235
0.000235
0.000242
0.000257
0.000259
0.000232
0.000284
0.000426
0.000452
0.000348
0.001793
0.000241
0.000254
0.000377
0.000367
0.000414
0.000346
0.000313
0.000321
0.000300
0.000230
0.000232
0.000251
0.000196
0.000055
0.000228
0.000226
0.000239
0.000282
0.000407
0.000389
0.000355
0.000255
0.000254
0.000214
0.000251
0.000266
0.000268
0.000261
0.000247
0.000256
0.000276
0.000515
0.000364
0.000422
0.000229
0.001739
0.000344
0.000513
0.000486
0.000486
0.000304
0.000218
0.000267
0.000261
0.000443
0.000056
0.000219
0.000248
0.000234
0.000358
0.000330
0.000485
0.000370
0.000233
0.000227
0.000289
0.000248
0.000259
0.000248
0.000298
0.000307
0.000234
0.000290
0.000347
0.000421
0.000364
0.000502
0.001841
0.000258
0.000561
0.000374
0.000364
0.000243
0.000243
0.000288
0.000264
0.000201
0.000056
0.000218
0.000350
0.000352
0.000354
0.000432
0.000220
0.000364
0.000216
0.000248
0.000257
0.000275
0.000227
0.000249
0.000251
0.000243
0.000263
0.000325
0.000450
0.000428
0.000367
0.000286
0.000236
0.000270
0.001702
0.000416
0.000609
0.000600
0.000245
0.000253
0.000314
0.000155
0.000055
0.000198
0.000235
0.000325
0.000253
0.000253
0.000365
0.000476
0.000271
0.000232
0.000528
0.000236
0.000245
0.000265
0.000278
0.000273
0.000263
0.000217
0.000319
0.000486
0.000450
0.000257
0.000235
0.000259
0.000248
0.000260
0.000267
0.000245
0.000253
0.000262
0.000288
0.000202
0.000056
0.000344
0.000312
0.000238
0.000253
0.000248
0.000259
0.000239
0.000291
0.000241
0.000246
0.000256
0.000358
0.000476
0.000347
0.000354
0.000274
0.000205
0.000240
0.000259
0.000270
0.000286
0.000259
0.000237
0.000256
0.000281
0.000356
0.000355
0.000372
0.000365
0.000256
0.000158
0.000055
0.000210
0.000231
0.000276
0.000246
0.000240
0.000250
0.000255
0.000255
0.000496
0.000205
0.000262
0.000251
0.000249
0.000267
0.000275
0.000271
0.000261
0.000349
0.000226
0.000239
0.000257
0.000265
0.000252
0.000269
0.000278
0.000262
0.000263
0.000275
0.000500
0.000246
0.000148
0.000055
0.000198
0.000244
0.000258
0.000254
0.000220
0.000247
0.000370
0.000410
0.000234
0.000232
0.000257
0.000252
0.000237
0.000268
0.000494
0.001722
0.000234
0.000264
0.000285
0.000402
0.000362
0.000351
0.000349
0.000392
0.000389
0.000418
0.000241
0.000269
0.000266
0.000277
0.001395
0.000055
0.000383
0.000252
0.000275
0.000225
0.000239
0.000247
0.000234
0.000258
0.000240
0.000270
0.000246
0.000256
0.000251
0.000256
0.000603
0.001605
0.000254
0.000222
0.000264
0.000244
0.000232
0.000275
0.000425
0.000323
0.000280
0.000363
0.000226
0.000264
0.000274
0.000263
0.000182
0.000056
0.001300
0.000482
0.000282
0.000266
0.000245
0.000220
0.000233
0.000241
0.000493
0.000208
0.000247
0.000215
0.000440
0.000409
0.000405
0.000356
0.000241
0.000241
0.000345
0.000358
0.000261
0.000251
0.000270
0.000265
0.000250
0.000625
0.000527
0.000245
0.000251
0.000267
0.000165
0.000056
0.000205
0.000229
0.000241
0.000244
0.001439
0.000330
0.000224
0.000253
0.000241
0.000244
0.000252
0.000260
0.000246
0.000261
0.000272
0.000376
0.000323
0.000664
0.000272
0.001742
0.000278
0.000260
0.000313
0.000451
0.000541
0.000388
0.000244
0.000246
0.000262
0.000266
0.000199
0.000056
0.000237
0.000233
0.000240
0.000367
0.001207
0.000234
0.000256
0.000262
0.000235
0.000241
0.000230
0.000249
0.000278
0.000246
0.000255
0.000310
0.000485
0.000373
0.000328
0.000263
0.000267
0.000269
0.000250
0.000237
0.000285
0.000261
0.000246
0.000276
0.000277
0.000386
0.000529
0.000055
0.000201
0.000246
0.000241
0.000261
0.000280
0.000226
0.000235
0.000259
0.000267
0.000253
0.001437
0.000224
0.000244
0.000250
0.000246
0.000243
0.000265
0.000267
0.000263
0.000262
0.000315
0.000470
0.000441
0.000377
0.000229
0.000274
0.001759
0.000262
0.000249
0.000324
0.000449
0.000056
0.000218
0.000409
0.000418
0.000501
0.000515
0.000536
0.001504
0.000415
0.000518
0.000650
0.000555
0.000846
0.000357
0.000617
0.000581
0.001891
0.000405
0.000433
0.000407
0.000313
0.000230
0.000297
0.000259
0.000262
0.000269
0.000277
0.000285
0.000292
0.000256
0.000291
0.001375
0.000055
0.000225
0.000219
0.000249
0.000243
0.000257
0.000253
0.000239
0.000241
0.000247
0.000254
0.000246
0.000232
0.000254
0.000265
0.000262
0.000275
0.001800
0.000279
0.000235
0.000249
0.000270
0.000252
0.000267
0.000274
0.000535
0.000289
0.000350
0.000240
0.000266
0.000272
0.000220
0.000055
0.000218
0.001358
0.000333
0.000257
0.000261
0.000241
0.000243
0.000237
0.000234
0.000234
0.000223
0.000240
0.000244
0.000513
0.000366
0.000279
0.000262
0.000264
0.001922
0.000237
0.000243
0.000263
0.000259
0.000262
0.000274
0.000280
0.000270
0.000251
0.000271
0.000316
0.000199
0.000056
0.000227
0.000235
0.000252
0.001435
0.000243
0.000228
0.000249
0.000247
0.000235
0.000270
0.000248
0.000249
0.000248
0.000252
0.000263
0.000272
0.000247
0.000261
0.000271
0.000262
0.000259
0.001765
0.000294
0.001750
0.000254
0.000241
0.000285
0.000264
0.000267
0.000274
0.000203
0.000054
0.000214
0.000264
0.001321
0.000222
0.000248
0.000260
0.000256
0.000256
0.000239
0.000255
0.000246
0.000248
0.000263
0.000258
0.000280
0.000244
0.000258
0.000284
0.000302
0.000226
0.001877
0.000243
0.001826
0.000246
0.000256
0.000274
0.000231
0.000245
0.000257
0.000275
0.000189
0.000056
0.001435
0.000220
0.000232
0.000243
0.000245
0.000235
0.000367
0.000271
0.000251
0.000258
0.000251
0.000260
0.000231
0.000359
0.000382
0.000316
0.000239
0.000262
0.000277
0.000242
0.000269
0.000340
0.000230
0.000252
0.000268
0.000280
0.000277
0.000310
0.000675
0.000350
0.000196
0.000057
0.000197
0.000235
0.000268
0.000299
0.000376
0.000257
0.001679
0.000313
0.000282
0.000269
0.000249
0.000271
0.000293
0.000258
0.000273
0.000307
0.000459
0.000451
0.000381
0.000280
0.000288
0.000273
0.000263
0.000269
0.000338
0.000288
0.000226
0.000257
0.000259
0.000304
0.000431
0.000055
0.000256
0.000466
0.000273
0.000263
0.000246
0.000226
0.000228
0.000250
0.000257
0.000251
0.001560
0.000182
0.000228
0.000249
0.000246
0.000287
0.000274
0.000237
0.000263
0.000270
0.000268
0.000445
0.000409
0.000379
0.000263
0.000288
0.000266
0.000258
0.000235
0.000316
0.000166
0.000056
0.000204
0.000230
0.000288
0.000456
0.000384
0.000263
0.000221
0.000251
0.000252
0.000248
0.000230
0.000257
0.000257
0.000266
0.000243
0.000233
0.000419
0.001188
0.000254
0.000243
0.000278
0.000245
0.000352
0.000424
0.000254
0.000310
0.000577
0.000371
0.000370
0.000241
0.000183
0.000056
0.000223
0.000244
0.000261
0.000265
0.000259
0.000241
0.000472
0.000278
0.000411
0.000317
0.000400
0.000351
0.000380
0.000359
0.000250
0.000254
0.000237
0.000276
0.000425
0.001387
0.000291
0.000229
0.000274
0.000274
0.000238
0.000233
0.000267
0.000325
0.000389
0.000467
0.000247
0.000056
0.000208
0.000232
0.000253
0.000237
0.000258
0.000255
0.000220
0.000259
0.000318
0.000382
0.000370
0.000384
0.000265
0.000222
0.000251
0.000258
0.000251
0.000259
0.000266
0.000247
0.000443
0.000277
0.000373
0.000375
0.000339
0.000254
0.000269
0.000268
0.000254
0.000342
0.000151
0.000055
0.000323
0.000316
0.000306
0.000431
0.000371
0.000370
0.000252
0.000252
0.000241
0.000275
0.000253
0.000263
0.000236
0.000253
0.000242
0.000230
0.000271
0.000455
0.000417
0.000323
0.000231
0.000276
0.000236
0.000251
0.000262
0.000278
0.000274
0.000262
0.000284
0.000263
0.000265
0.000055
0.000318
0.000307
0.000236
0.000249
0.000243
0.000248
0.000247
0.000250
0.000269
0.000257
0.000253
0.000232
0.000299
0.000464
0.000448
0.000312
0.000224
0.000253
0.000255
0.000266
0.000254
0.000265
0.000254
0.000273
0.000266
0.000344
0.000388
0.000588
0.000410
0.000247
0.000178
0.000055
0.000384
0.000222
0.000211
0.000250
0.000250
0.000245
0.000240
0.000249
0.000259
0.000258
0.000219
0.000248
0.000270
0.000227
0.000243
0.000267
0.000249
0.000279
0.000257
0.000253
0.000267
0.000259
0.000267
0.000262
0.000267
0.000237
0.000268
0.000275
0.000255
0.000280
0.000192
0.000055
0.000186
0.000239
0.000244
0.000254
0.000226
0.000261
0.000255
0.000242
0.000259
0.000277
0.000228
0.000225
0.000266
0.000404
0.000253
0.000275
0.000257
0.000265
0.000254
0.000295
0.000263
0.000235
0.000238
0.000257
0.000272
0.000273
0.000251
0.000249
0.000281
0.000256
0.000205
0.000055
0.000253
0.000328
0.000367
0.000278
0.000297
0.000259
0.000282
0.000244
0.000227
0.000246
0.000268
0.000241
0.000250
0.000238
0.000279
0.000237
0.000260
0.000276
0.000241
0.000266
0.000273
0.000263
0.000280
0.000253
0.000276
0.000248
0.000259
0.000268
0.000269
0.000265
0.000191
0.000055
0.000212
0.000232
0.000264
0.000261
0.000488
0.000210
0.000212
0.000249
0.000318
0.000431
0.000473
0.000283
0.000222
0.000256
0.000274
0.000257
0.000233
0.000275
0.000256
0.000271
0.000268
0.000251
0.000260
0.000319
0.000540
0.000461
0.000261
0.000303
0.000259
0.000262
0.000186
0.000055
0.000192
0.000216
0.000250
0.000251
0.000352
0.000597
0.000329
0.000392
0.000209
0.000246
0.000249
0.000254
0.000250
0.000253
0.000255
0.000274
0.000256
0.000285
0.000640
0.000431
0.000215
0.000245
0.000263
0.000277
0.000283
0.000255
0.000261
0.000272
0.000244
0.000339
0.000385
0.000058
0.000211
0.000232
0.000239
0.000238
0.000253
0.000253
0.000222
0.000252
0.000244
0.000260
0.000244
0.000248
0.000265
0.000419
0.000541
0.000411
0.000203
0.000263
0.000261
0.000243
0.000268
0.000268
0.000489
0.000224
0.000262
0.000622
0.000367
0.000510
0.000253
0.000255
0.000182
0.000056
0.000219
0.000230
0.000245
0.000237
0.000254
0.000261
0.000307
0.000620
0.000412
0.000409
0.000219
0.000260
0.000278
0.000275
0.000255
0.000250
0.000233
0.000252
0.000267
0.000391
0.000319
0.000656
0.000365
0.000265
0.000367
0.000361
0.000491
0.000243
0.000264
0.000500
0.000332
0.000055
0.000263
0.000234
0.000435
0.000221
0.000238
0.000254
0.000259
0.000259
0.000231
0.000241
0.000259
0.000424
0.000378
0.000313
0.000245
0.000238
0.000256
0.000254
0.000265
0.000273
0.000275
0.000252
0.000253
0.000268
0.000331
0.000474
0.000480
0.000238
0.000262
0.000268
0.000198
0.000056
0.000198
0.000258
0.000227
0.000246
0.000245
0.000250
0.000352
0.000484
0.000361
0.000306
0.000358
0.000226
0.000246
0.000267
0.000255
0.000235
0.000256
0.000261
0.000299
0.000373
0.000525
0.000298
0.000495
0.000270
0.000429
0.000388
0.000373
0.000228
0.000260
0.000342
0.000365
0.000057
0.000186
0.000281
0.000225
0.000252
0.000257
0.000255
0.000252
0.000244
0.000256
0.000255
0.000246
0.000416
0.000445
0.000327
0.000359
0.000228
0.000261
0.000266
0.000270
0.000234
0.000244
0.000256
0.000266
0.000273
0.000278
0.000403
0.000415
0.000469
0.000247
0.000282
0.000189
0.000055
0.000202
0.000248
0.000263
0.000254
0.000240
0.000337
0.000607
0.000371
0.000358
0.000681
0.000270
0.000210
0.000246
0.000265
0.000247
0.000260
0.000280
0.000309
0.000443
0.000510
0.001426
0.000298
0.000258
0.000260
0.000293
0.000272
0.000378
0.000430
0.000339
0.000333
0.000173
0.000055
0.000198
0.000229
0.000247
0.000244
0.000236
0.000262
0.000272
0.000243
0.000251
0.000342
0.000333
0.000398
0.000253
0.000387
0.000335
0.000340
0.000253
0.000241
0.000274
0.000256
0.000245
0.000248
0.000283
0.000242
0.000338
0.000438
0.000421
0.000303
0.000242
0.000264
0.000190
0.000056
0.000193
0.000241
0.000258
0.000252
0.000241
0.000235
0.000470
0.000236
0.000210
0.000257
0.000246
0.000262
0.000249
0.000253
0.000250
0.000268
0.000261
0.000274
0.000265
0.000258
0.000255
0.000291
0.000293
0.000244
0.000266
0.000277
0.000287
0.000248
0.000267
0.000271
0.000169
0.000055
0.000194
0.000253
0.000271
0.000440
0.000387
0.000247
0.000229
0.000252
0.000257
0.000249
0.000245
0.000258
0.000281
0.000249
0.000235
0.000246
0.000246
0.000265
0.000281
0.000332
0.000446
0.000404
0.000232
0.000259
0.000269
0.000249
0.000275
0.000247
0.000274
0.000279
0.000195
0.000054
0.000360
0.000372
0.000423
0.000218
0.000255
0.000249
0.000415
0.000218
0.000233
0.000260
0.000253
0.000339
0.000307
0.000431
0.001881
0.000242
0.000243
0.000251
0.000279
0.000243
0.000360
0.000512
0.000553
0.000268
0.000234
0.000253
0.000278
0.000430
0.000279
0.000275
0.000164
0.000056
0.000218
0.000322
0.000356
0.000311
0.000500
0.000197
0.000241
0.000249
0.000252
0.000247
0.000259
0.000242
0.000264
0.000401
0.000350
0.000467
0.000208
0.000266
0.000247
0.000257
0.000258
0.000319
0.000229
0.000284
0.000284
0.000470
0.000502
0.000379
0.000455
0.000252
0.000190
0.000055
0.000208
0.000244
0.000254
0.000226
0.000252
0.000250
0.000271
0.000270
0.000350
0.000459
0.000343
0.000369
0.000200
0.000254
0.000269
0.000293
0.000286
0.000238
0.000276
0.000275
0.000238
0.000342
0.000415
0.000397
0.000310
0.000233
0.000251
0.000438
0.000437
0.000313
0.000156
0.000057
0.000199
0.000271
0.000292
0.000413
0.000397
0.000205
0.000257
0.000241
0.000257
0.000259
0.000264
0.000249
0.000227
0.000261
0.000256
0.000290
0.000426
0.000333
0.000301
0.000340
0.000492
0.000226
0.000281
0.000286
0.000293
0.000281
0.000256
0.000266
0.000490
0.000399
0.000297
0.000055
0.000209
0.000251
0.000232
0.000248
0.000239
0.000478
0.000214
0.000255
0.000261
0.000342
0.000491
0.000582
0.000207
0.000248
0.000240
0.000250
0.000258
0.000242
0.000266
0.000251
0.000257
0.000270
0.000337
0.000461
0.000332
0.000418
0.000286
0.000350
0.000269
0.000265
0.000174
0.000056
0.000208
0.000230
0.000259
0.000499
0.000350
0.000246
0.000274
0.000216
0.000247
0.000257
0.000256
0.000247
0.000252
0.000265
0.000245
0.000263
0.000248
0.000243
0.000263
0.000392
0.000494
0.000421
0.000214
0.000272
0.000254
0.000277
0.000259
0.000257
0.000265
0.000267
0.000189
0.000055
0.000256
0.000372
0.000490
0.000239
0.000219
0.000255
0.000330
0.000452
0.000281
0.000220
0.000240
0.000275
0.000255
0.000455
0.000424
0.000286
0.000230
0.000247
0.000251
0.000269
0.000272
0.000262
0.000258
0.000275
0.000266
0.000341
0.000335
0.000421
0.000322
0.000252
0.000181
0.000055
0.000215
0.000238
0.000249
0.000250
0.000251
0.000265
0.000229
0.000258
0.000266
0.000232
0.000268
0.000236
0.000265
0.001446
0.000234
0.000258
0.000262
0.000244
0.000280
0.000274
0.000263
0.000240
0.000272
0.000256
0.000271
0.000264
0.000274
0.000288
0.000244
0.000269
0.000191
0.000054
0.000200
0.000231
0.000251
0.000247
0.000242
0.000242
0.000260
0.000258
0.000230
0.000247
0.000249
0.000263
0.000259
0.000253
0.000252
0.000274
0.000231
0.000259
0.000281
0.000249
0.000255
0.000260
0.000245
0.000251
0.001295
0.000270
0.000616
0.000419
0.000307
0.000256
0.000187
0.000055
0.000195
0.000237
0.000242
0.000250
0.000431
0.000236
0.000227
0.000240
0.000299
0.000378
0.000429
0.000299
0.000228
0.000238
0.000266
0.000254
0.000265
0.000258
0.000247
0.000260
0.000258
0.000255
0.000311
0.000469
0.000426
0.000444
0.000220
0.000268
0.001359
0.000247
0.000187
0.000055
0.000319
0.000386
0.000321
0.000256
0.000230
0.000234
0.000232
0.000248
0.000259
0.000257
0.000263
0.000244
0.000283
0.000284
0.000578
0.000338
0.000333
0.000224
0.000253
0.000258
0.000263
0.000264
0.000273
0.000264
0.000269
0.000264
0.000448
0.000428
0.000366
0.000375
0.000154
0.000055
0.000206
0.000232
0.001259
0.000429
0.000331
0.000449
0.000344
0.000491
0.000289
0.000333
0.000220
0.000235
0.000253
0.000256
0.000252
0.000265
0.000503
0.000364
0.000350
0.000383
0.000250
0.000250
0.000260
0.000506
0.000234
0.000264
0.000273
0.000265
0.000334
0.000516
0.000288
0.000055
0.000388
0.000332
0.000207
0.000215
0.001628
0.000393
0.000294
0.000256
0.000249
0.000251
0.000227
0.000239
0.000245
0.000268
0.000253
0.000263
0.000235
0.000321
0.000426
0.000394
0.000376
0.000245
0.000255
0.000254
0.000256
0.000274
0.000273
0.000236
0.000265
0.000279
0.000250
0.000057
0.000358
0.000341
0.000234
0.000230
0.000252
0.000241
0.000266
0.000232
0.000228
0.000231
0.001442
0.000451
0.000248
0.000257
0.000230
0.000256
0.000276
0.000264
0.000234
0.000273
0.000275
0.000252
0.000255
0.000466
0.000484
0.000347
0.000227
0.000265
0.000278
0.000285
0.000165
0.000056
0.000216
0.000405
0.000225
0.000235
0.000380
0.000400
0.000374
0.000319
0.000463
0.000208
0.000230
0.000252
0.000261
0.000266
0.000259
0.001464
0.000310
0.000285
0.000243
0.000270
0.000286
0.000241
0.000254
0.000252
0.000265
0.000266
0.000437
0.000454
0.000294
0.000278
0.000153
0.000056
0.000215
0.000231
0.000253
0.000237
0.000229
0.000260
0.000242
0.000253
0.000295
0.000378
0.000415
0.000284
0.000253
0.000240
0.000252
0.000269
0.000274
0.000259
0.000271
0.000227
0.000254
0.000362
0.001207
0.000258
0.000256
0.000246
0.000265
0.000259
0.000271
0.000253
0.000188
0.000055
0.000197
0.000360
0.000341
0.000383
0.000239
0.000233
0.000261
0.000262
0.000254
0.000250
0.000256
0.000270
0.000242
0.000252
0.000256
0.000260
0.000269
0.000268
0.000263
0.000269
0.000234
0.000268
0.000267
0.000284
0.000286
0.000266
0.000267
0.000256
0.000263
0.000445
0.001358
0.000056
0.000202
0.000238
0.000230
0.000241
0.000254
0.000260
0.000246
0.000225
0.000248
0.000252
0.000274
0.000254
0.000254
0.000267
0.000223
0.000241
0.001731
0.000264
0.000239
0.000262
0.000240
0.000265
0.000272
0.000277
0.000251
0.000263
0.000263
0.000280
0.000271
0.000257
0.000233
0.000057
0.000275
0.000318
0.001312
0.000224
0.000234
0.000268
0.000234
0.000248
0.000264
0.000256
0.000230
0.000360
0.000405
0.000418
0.000280
0.000231
0.000246
0.000260
0.000257
0.000256
0.000250
0.000271
0.000261
0.000284
0.000270
0.000378
0.000372
0.000367
0.000317
0.000262
0.000172
0.000056
0.000225
0.000248
0.000245
0.000248
0.000252
0.000221
0.000240
0.000264
0.000422
0.001331
0.000268
0.000208
0.000250
0.000273
0.000251
0.000265
0.000262
0.000250
0.000320
0.000402
0.000402
0.000254
0.000238
0.000252
0.000270
0.000277
0.000263
0.000296
0.000268
0.000278
0.000193
0.000056
0.000214
0.000450
0.000434
0.000179
0.000220
0.000258
0.000226
0.000279
0.000263
0.000245
0.000232
0.000248
0.000453
0.000555
0.000399
0.001473
0.000255
0.000277
0.000324
0.000341
0.000484
0.000421
0.000466
0.000394
0.000231
0.000266
0.000267
0.000295
0.000242
0.000271
0.000203
0.000056
0.000210
0.000292
0.000558
0.000380
0.000304
0.000239
0.000246
0.000223
0.000257
0.000258
0.000248
0.000262
0.000268
0.000237
0.000276
0.000294
0.000373
0.000416
0.000369
0.001324
0.000265
0.000254
0.000252
0.000266
0.000521
0.000377
0.000375
0.000267
0.000272
0.000272
0.000190
0.000056
0.000187
0.000242
0.000242
0.000242
0.000245
0.000278
0.000454
0.000378
0.000384
0.000221
0.000236
0.000259
0.000269
0.000277
0.000244
0.000260
0.000266
0.000259
0.000266
0.000293
0.000454
0.000414
0.000331
0.001338
0.000423
0.000232
0.000275
0.000461
0.000428
0.000334
0.000315
0.000055
0.000205
0.000233
0.000247
0.000245
0.000250
0.000254
0.001678
0.000231
0.000232
0.000237
0.000256
0.000250
0.000258
0.000329
0.000325
0.000317
0.000245
0.000326
0.000484
0.000393
0.000316
0.000280
0.000224
0.001416
0.000347
0.000337
0.000399
0.000504
0.000306
0.000272
0.000173
0.000055
0.000225
0.000244
0.000253
0.000261
0.000247
0.000252
0.001709
0.000250
0.000226
0.000269
0.000330
0.000470
0.001370
0.000365
0.000390
0.000244
0.000258
0.000240
0.000269
0.000270
0.001724
0.000388
0.000375
0.000293
0.000249
0.000245
0.000266
0.000279
0.000249
0.000250
0.000192
0.000056
0.000225
0.000227
0.000271
0.000243
0.000256
0.000302
0.000253
0.000269
0.000244
0.000250
0.000251
0.000247
0.000267
0.000263
0.000254
0.001499
0.000275
0.000233
0.000268
0.000277
0.000274
0.000277
0.000417
0.001254
0.000277
0.000252
0.000258
0.000254
0.000395
0.000243
0.000204
0.000056
0.000211
0.000245
0.000219
0.000249
0.000237
0.000241
0.000221
0.001700
0.000245
0.000231
0.000253
0.000365
0.000229
0.000228
0.000251
0.001382
0.000238
0.000270
0.000263
0.000242
0.000258
0.000356
0.000273
0.001308
0.000282
0.000257
0.000247
0.000265
0.001381
0.000272
0.000239
0.000055
0.000319
0.000289
0.000205
0.000238
0.000249
0.000241
0.000270
0.000261
0.000270
0.000245
0.000262
0.000264
0.000255
0.000251
0.000319
0.001477
0.000258
0.000262
0.000263
0.000241
0.000287
0.000259
0.000255
0.001490
0.000357
0.000245
0.000267
0.001267
0.000272
0.000248
0.000222
0.000055
0.000220
0.000350
0.000337
0.000214
0.000241
0.000237
0.000268
0.000256
0.000261
0.000276
0.000236
0.000252
0.000261
0.000300
0.000433
0.001173
0.000223
0.000259
0.000274
0.000273
0.000224
0.000242
0.000253
0.000367
0.001233
0.000263
0.000255
0.000247
0.000252
0.001336
0.000338
0.000056
0.000267
0.000257
0.000231
0.000229
0.000241
0.000257
0.000242
0.000249
0.000278
0.000250
0.000238
0.000253
0.000304
0.000315
0.000388
0.001454
0.000223
0.000246
0.000302
0.000509
0.000283
0.000475
0.001264
0.000289
0.000256
0.000265
0.000244
0.001314
0.000440
0.000358
0.000327
0.000056
0.000227
0.000252
0.000253
0.000255
0.000253
0.000252
0.000272
0.000249
0.000263
0.000263
0.000353
0.000418
0.001344
0.000240
0.000265
0.000258
0.000280
0.000233
0.000248
0.000233
0.000352
0.001230
0.000259
0.000250
0.000251
0.000251
0.001506
0.000461
0.000447
0.000235
0.000184
0.000056
0.000215
0.000223
0.000246
0.000239
0.000270
0.000248
0.000244
0.000267
0.000505
0.000397
0.000273
0.001487
0.000224
0.000233
0.000277
0.000242
0.000288
0.000329
0.001618
0.000276
0.000398
0.000314
0.001268
0.000386
0.000293
0.000322
0.000261
0.000260
0.000262
0.000274
0.000187
0.000056
0.000196
0.000244
0.000333
0.000246
0.000288
0.000555
0.000293
0.000291
0.001470
0.000238
0.000387
0.000260
0.000221
0.000330
0.000362
0.001319
0.000268
0.000246
0.000248
0.000255
0.001551
0.000346
0.000297
0.000260
0.000286
0.000232
0.000455
0.000336
0.000226
0.000248
0.000272
0.000054
0.000300
0.000316
0.000345
0.000277
0.000203
0.001523
0.000208
0.000257
0.000268
0.000271
0.000266
0.000243
0.000296
0.001487
0.000263
0.000224
0.000434
0.001191
0.000399
0.000375
0.000409
0.000237
0.000244
0.000254
0.000276
0.000246
0.000442
0.000232
0.000271
0.000278
0.000198
0.000055
0.000206
0.000280
0.000336
0.000342
0.001311
0.000284
0.000307
0.000236
0.000257
0.000239
0.000247
0.000341
0.001467
0.000266
0.000220
0.000253
0.001372
0.000288
0.000453
0.000431
0.000357
0.000229
0.000252
0.000277
0.000242
0.000270
0.000285
0.000255
0.000266
0.000252
0.000191
0.000055
0.000265
0.000331
0.001485
0.000207
0.000272
0.000278
0.000236
0.000252
0.000269
0.000342
0.001423
0.000214
0.000260
0.000265
0.000259
0.001251
0.000733
0.000279
0.000341
0.000393
0.000291
0.000253
0.000257
0.000263
0.000267
0.000287
0.000276
0.000287
0.000421
0.000453
0.001387
0.000055
0.000203
0.000242
0.000244
0.000225
0.000256
0.000391
0.000505
0.001287
0.000248
0.000242
0.000249
0.001382
0.000448
0.000357
0.000222
0.000410
0.000253
0.000249
0.000261
0.000278
0.000244
0.000270
0.000281
0.000253
0.000259
0.000365
0.000356
0.000475
0.001503
0.000224
0.000187
0.000056
0.000195
0.000250
0.000336
0.000539
0.001253
0.000280
0.000252
0.000256
0.000251
0.000250
0.000250
0.000278
0.000344
0.000484
0.000352
0.000238
0.000270
0.000260
0.000241
0.000277
0.000258
0.000267
0.000255
0.000278
0.000246
0.000412
0.000449
0.000366
0.000315
0.001405
0.000172
0.000056
0.000204
0.000243
0.000267
0.000472
0.000326
0.000315
0.000313
0.000351
0.000252
0.000277
0.000240
0.000264
0.000251
0.000308
0.000233
0.000302
0.000532
0.000335
0.000293
0.000384
0.000286
0.000389
0.000228
0.000266
0.000248
0.000260
0.000254
0.000289
0.000370
0.000484
0.000292
0.000056
0.000212
0.001405
0.000237
0.000336
0.000403
0.000446
0.000336
0.000326
0.000226
0.000237
0.000265
0.000243
0.000264
0.000274
0.000255
0.000256
0.000265
0.001389
0.000226
0.000259
0.000252
0.000277
0.000268
0.000279
0.000268
0.000250
0.000277
0.000242
0.000316
0.000395
0.000298
0.000056
0.000219
0.000258
0.000217
0.001490
0.000325
0.000249
0.000226
0.000248
0.000227
0.000246
0.000250
0.000274
0.000251
0.000254
0.000288
0.000233
0.000245
0.000268
0.000266
0.000254
0.001433
0.000236
0.000240
0.000276
0.000258
0.000258
0.000257
0.000265
0.000275
0.000492
0.000345
0.000055
0.000208
0.000231
0.000393
0.000282
0.000247
0.000255
0.001567
0.000311
0.000303
0.000214
0.000262
0.000310
0.000334
0.000233
0.000230
0.000250
0.000245
0.000262
0.000260
0.000262
0.000507
0.000476
0.001123
0.000281
0.000236
0.000258
0.000267
0.000269
0.000258
0.000262
0.000370
0.000055
0.000272
0.000300
0.000220
0.000232
0.000248
0.000242
0.000243
0.000229
0.000290
0.001640
0.000328
0.000288
0.000244
0.000252
0.000254
0.000250
0.000257
0.000273
0.000279
0.000297
0.000303
0.000499
0.000428
0.001372
0.000241
0.000260
0.000272
0.000262
0.000267
0.000337
0.000539
0.000056
0.000269
0.000243
0.000239
0.000240
0.000221
0.000241
0.000265
0.000253
0.000265
0.001582
0.000343
0.000256
0.000265
0.000263
0.000453
0.000275
0.000531
0.000384
0.000281
0.000355
0.000431
0.000447
0.001265
0.000264
0.000233
0.000257
0.001728
0.000441
0.000605
0.000321
0.000146
0.000055
0.000211
0.000236
0.000232
0.000257
0.000233
0.000246
0.000247
0.000599
0.000384
0.000427
0.000286
0.000227
0.000242
0.000258
0.000268
0.000262
0.000245
0.000256
0.000256
0.000269
0.000300
0.000369
0.001367
0.000226
0.000248
0.000278
0.001898
0.000379
0.000373
0.000350
0.000165
0.000055
0.000257
0.000233
0.000247
0.001653
0.000340
0.000210
0.000236
0.000265
0.000253
0.000303
0.000373
0.000368
0.000358
0.000273
0.000323
0.000473
0.000399
0.001207
0.000268
0.000241
0.000250
0.000259
0.000271
0.000468
0.000574
0.000438
0.000257
0.000268
0.000264
0.000281
0.000194
0.000056
0.000188
0.000237
0.000240
0.001529
0.000264
0.000232
0.000242
0.000253
0.000243
0.000251
0.000254
0.000272
0.000268
0.000273
0.000253
0.000460
0.000403
0.000273
0.001412
0.000236
0.000256
0.000265
0.000259
0.000277
0.000516
0.000345
0.000432
0.000283
0.000267
0.000223
0.000449
0.000055
0.000201
0.000236
0.000253
0.001528
0.000319
0.000220
0.000264
0.000245
0.000251
0.000260
0.000250
0.000254
0.000260
0.000260
0.000548
0.000411
0.001334
0.000750
0.000258
0.000333
0.000258
0.000236
0.000262
0.000259
0.001683
0.000794
0.000239
0.000260
0.000282
0.000280
0.000192
0.000056
0.000196
0.000228
0.000256
0.000240
0.000254
0.000246
0.000243
0.000256
0.000241
0.000232
0.000284
0.000285
0.000250
0.000250
0.000268
0.000243
0.000270
0.001595
0.000704
0.000360
0.000335
0.000231
0.000249
0.000280
0.000265
0.000257
0.000277
0.000258
0.001387
0.000399
0.000288
0.000056
0.000201
0.000229
0.000250
0.000250
0.000260
0.000233
0.000256
0.000246
0.000257
0.000265
0.000282
0.000411
0.000433
0.000342
0.000210
0.000246
0.000264
0.001392
0.000684
0.000470
0.000356
0.000266
0.000247
0.000232
0.000268
0.000253
0.000259
0.000269
0.001475
0.000445
0.000206
0.000055
0.000188
0.000213
0.000247
0.000246
0.000251
0.000247
0.000240
0.000249
0.000269
0.000277
0.000380
0.000338
0.000346
0.000217
0.000243
0.000263
0.000246
0.000258
0.001572
0.000632
0.000450
0.000333
0.000222
0.000279
0.000241
0.000264
0.000264
0.000283
0.000268
0.001349
0.000363
0.000055
0.000208
0.000214
0.000253
0.000238
0.000254
0.000242
0.000271
0.000293
0.000406
0.000373
0.000419
0.000408
0.000301
0.000227
0.000249
0.000266
0.000263
0.000256
0.000265
0.001891
0.000361
0.000237
0.000445
0.000244
0.000248
0.000268
0.000265
0.000271
0.000257
0.000271
0.000402
0.000055
0.000232
0.000247
0.000231
0.000241
0.000255
0.000251
0.000220
0.000247
0.000268
0.000247
0.000246
0.000240
0.000392
0.000433
0.000381
0.000431
0.000226
0.000262
0.000252
0.000267
0.000239
0.000325
0.001427
0.001057
0.000224
0.000254
0.000269
0.000281
0.000256
0.000254
0.000194
0.000055
0.000213
0.001342
0.000291
0.000219
0.000232
0.000251
0.000255
0.000233
0.000246
0.000247
0.000254
0.000265
0.000241
0.000411
0.000332
0.000431
0.000303
0.000257
0.000265
0.000266
0.000268
0.000225
0.000265
0.000269
0.001314
0.000689
0.000356
0.000332
0.000431
0.000405
0.000242
0.000056
0.000226
0.000228
0.001409
0.000257
0.000219
0.000251
0.000232
0.000257
0.000257
0.000273
0.000229
0.000248
0.000293
0.000405
0.000499
0.000298
0.000221
0.000271
0.000334
0.000217
0.000249
0.000273
0.000232
0.000276
0.000265
0.001535
0.000746
0.000297
0.000276
0.000276
0.000193
0.000057
0.000202
0.000324
0.000391
0.000307
0.001312
0.000237
0.000236
0.000241
0.000234
0.000249
0.000248
0.000257
0.000227
0.000240
0.000260
0.000249
0.000269
0.000240
0.000254
0.000253
0.000264
0.000270
0.000301
0.000337
0.000233
0.000249
0.000266
0.001462
0.000258
0.000240
0.000171
0.000056
0.000205
0.000234
0.000251
0.000312
0.000357
0.000342
0.000386
0.000262
0.001571
0.000247
0.000263
0.000499
0.000376
0.000228
0.000431
0.000232
0.000249
0.000258
0.000278
0.000265
0.000279
0.000269
0.000253
0.000271
0.000248
0.000462
0.000348
0.000329
0.001581
0.000227
0.000195
0.000056
0.000237
0.000236
0.000249
0.000246
0.000240
0.000250
0.000260
0.000271
0.000436
0.002038
0.000239
0.000249
0.000252
0.000258
0.000263
0.000247
0.000265
0.000264
0.000331
0.000355
0.000383
0.000451
0.001448
0.000254
0.000527
0.000227
0.001767
0.000246
0.000257
0.001531
0.000154
0.000056
0.000343
0.000398
0.000465
0.000228
0.000268
0.000234
0.000253
0.000269
0.000257
0.000227
0.000253
0.000345
0.000404
0.000348
0.000431
0.000246
0.000227
0.001567
0.000244
0.000617
0.001826
0.000285
0.000244
0.001584
0.001962
0.000754
0.000283
0.000257
0.000267
0.000462
0.000424
0.000055
0.000221
0.000252
0.000237
0.000251
0.001416
0.001728
0.001079
0.000212
0.000244
0.001567
0.001979
0.000223
0.000225
0.000430
0.000303
0.000337
0.000386
0.000527
0.000210
0.000245
0.000269
0.000237
0.000276
0.001613
0.001171
0.001437
0.000270
0.000299
0.000256
0.000343
0.000306
0.000055
0.000253
0.000192
0.000238
0.000241
0.000229
0.000245
0.000247
0.000250
0.000261
0.000245
0.000244
0.000290
0.000554
0.000356
0.000283
0.000272
0.000255
0.000265
0.000285
0.000249
0.000251
0.000267
0.001520
0.000477
0.002101
0.000229
0.000270
0.000348
0.000438
0.000378
0.000197
0.000057
0.000186
0.000359
0.000477
0.000317
0.000190
0.000232
0.000257
0.000242
0.000239
0.000243
0.000283
0.000231
0.000262
0.001606
0.001356
0.001217
0.000277
0.000240
0.000245
0.000276
0.000281
0.000284
0.000235
0.000257
0.002198
0.000253
0.000262
0.000295
0.000321
0.000305
0.000218
0.000056
0.000222
0.000381
0.000538
0.000304
0.000239
0.000238
0.000246
0.000266
0.001893
0.001430
0.000225
0.000377
0.000396
0.000358
0.000249
0.000226
0.000257
0.000268
0.000267
0.000258
0.000258
0.000267
0.000466
0.000237
0.000275
0.000268
0.000251
0.000273
0.000284
0.000244
0.000210
0.000055
0.000192
0.000251
0.000247
0.000243
0.000250
0.000270
0.001550
0.001402
0.001332
0.000259
0.000215
0.000242
0.000268
0.000258
0.000257
0.000245
0.000248
0.002096
0.000265
0.000230
0.000260
0.000270
0.000251
0.000268
0.000264
0.000262
0.000266
0.000259
0.000272
0.000265
0.000166
0.000056
0.000188
0.002682
0.001391
0.000239
0.000290
0.000295
0.000233
0.000263
0.000258
0.000244
0.000256
0.000244
0.000234
0.000251
0.000268
0.000258
0.000265
0.000279
0.000246
0.000262
0.000269
0.000287
0.000270
0.000265
0.000247
0.000243
0.000267
0.000268
0.000263
0.000270
0.000366
0.000056
0.001537
0.000243
0.001246
0.000228
0.000237
0.000229
0.000262
0.000250
0.000245
0.000270
0.000409
0.000343
0.000341
0.000212
0.000252
0.002138
0.000264
0.000234
0.000270
0.000537
0.000351
0.000294
0.000223
0.000255
0.000265
0.000248
0.000264
0.000280
0.000268
0.001622
0.001245
0.000056
0.000200
0.000231
0.000330
0.000371
0.000391
0.000246
0.000213
0.000228
0.000255
0.000253
0.000270
0.000248
0.000225
0.000256
0.000263
0.000243
0.000337
0.000592
0.000363
0.000253
0.000224
0.000275
0.000278
0.000252
0.000254
0.000251
0.000259
0.000276
0.000240
0.000316
0.000369
0.000055
0.001125
0.000210
0.000470
0.000367
0.000269
0.000227
0.000230
0.000240
0.000255
0.002312
0.000349
0.000395
0.000217
0.000371
0.000279
0.000265
0.000259
0.000259
0.000269
0.000221
0.000252
0.000304
0.000695
0.000324
0.001880
0.001319
0.000574
0.000485
0.000225
0.000279
0.000202
0.000055
0.000270
0.000314
0.000241
0.000247
0.000247
0.000231
0.000252
0.000258
0.000252
0.000249
0.000254
0.000228
0.000247
0.000256
0.000375
0.000512
0.001848
0.001380
0.000406
0.000415
0.000471
0.000236
0.000241
0.000263
0.002190
0.000488
0.000387
0.000243
0.000272
0.000281
0.000197
0.000056
0.000212
0.000243
0.000253
0.000241
0.000243
0.000339
0.000422
0.000358
0.000241
0.000249
0.000241
0.000249
0.000264
0.002108
0.000343
0.000410
0.000220
0.000248
0.000264
0.000261
0.000252
0.002474
0.000320
0.000236
0.000244
0.000259
0.000248
0.000274
0.000282
0.000280
0.000186
0.000070
0.000195
0.000456
0.000434
0.000366
0.000262
0.000230
0.000224
0.000255
0.000263
0.000252
0.001963
0.000381
0.000304
0.000262
0.000224
0.000259
0.000275
0.000243
0.002205
0.000446
0.000223
0.000271
0.000263
0.000267
0.000248
0.000255
0.000280
0.000257
0.000268
0.000259
0.000184
0.000055
0.000218
0.000240
0.000252
0.000222
0.000246
0.000257
0.000236
0.000244
0.000231
0.002179
0.000228
0.000280
0.000224
0.000423
0.000227
0.000258
0.000274
0.000287
0.000245
0.000263
0.001959
0.000298
0.000378
0.000377
0.000388
0.000384
0.000316
0.000258
0.000240
0.000259
0.000202
0.000055
0.000189
0.000273
0.000206
0.000242
0.000254
0.000319
0.000231
0.002299
0.000228
0.000246
0.000261
0.000252
0.000243
0.000248
0.000308
0.002135
0.000577
0.000228
0.000252
0.000247
0.000252
0.000261
0.000291
0.000265
0.000259
0.000259
0.000282
0.000255
0.000266
0.000267
0.000193
0.000055
0.001821
0.001448
0.000199
0.000227
0.000243
0.000254
0.000252
0.000250
0.000459
0.000322
0.002162
0.000261
0.000242
0.000263
0.000329
0.000452
0.000429
0.000266
0.000236
0.000244
0.000292
0.000227
0.000265
0.000225
0.000260
0.000264
0.000271
0.000267
0.000354
0.000623
0.000310
0.000055
0.000205
0.000264
0.000234
0.000268
0.000249
0.000271
0.000232
0.000242
0.001543
0.002056
0.000576
0.000302
0.000390
0.000697
0.000339
0.000242
0.000255
0.000246
0.000267
0.000259
0.000255
0.000239
0.000258
0.000268
0.001819
0.001483
0.000268
0.000273
0.000282
0.000345
0.000348
0.000056
0.001942
0.000227
0.000223
0.000242
0.000310
0.000330
0.000534
0.000229
0.000284
0.000211
0.000256
0.000251
0.000254
0.000259
0.000259
0.000261
0.000253
0.000268
0.001841
0.000242
0.000247
0.000242
0.000276
0.000276
0.000274
0.000253
0.001454
0.000338
0.000253
0.000263
0.000170
0.000056
0.000188
0.000240
0.000237
0.000244
0.000251
0.000244
0.000255
0.000417
0.000330
0.000395
0.000215
0.000234
0.000255
0.000408
0.000363
0.000301
0.000229
0.000248
0.000268
0.000412
0.000488
0.000373
0.000245
0.000255
0.000256
0.000256
0.000263
0.000263
0.000279
0.000259
0.000201
0.000055
0.001415
0.000433
0.000228
0.001931
0.000293
0.000431
0.000414
0.000317
0.000236
0.000242
0.000266
0.000245
0.000244
0.000246
0.000282
0.000244
0.000455
0.000287
0.000347
0.000439
0.000352
0.000226
0.000258
0.000265
0.000268
0.000280
0.000253
0.000267
0.000383
0.000536
0.001270
0.000056
0.000205
0.000228
0.002101
0.000349
0.000234
0.000260
0.000255
0.000253
0.000260
0.000262
0.000215
0.000250
0.000258
0.000261
0.000282
0.000349
0.000699
0.001760
0.000230
0.000298
0.000205
0.000270
0.000468
0.000322
0.001593
0.000289
0.000362
0.001915
0.000272
0.000258
0.000192
0.000056
0.000189
0.000232
0.000232
0.000240
0.000239
0.000246
0.000252
0.000283
0.000329
0.000283
0.000381
0.000355
0.000334
0.000303
0.000235
0.000269
0.000260
0.000238
0.000269
0.000270
0.000280
0.000291
0.000266
0.000267
0.000258
0.001511
0.000284
0.000408
0.002051
0.000243
0.000171
0.000055
0.000206
0.000237
0.000240
0.000248
0.000483
0.000223
0.000237
0.000317
0.000362
0.000347
0.000298
0.000206
0.000263
0.000266
0.000273
0.000331
0.000412
0.000436
0.000274
0.000372
0.000562
0.000462
0.001533
0.000229
0.000267
0.001970
0.000342
0.000248
0.000235
0.000295
0.000187
0.000056
0.000219
0.000242
0.000222
0.000262
0.000232
0.000266
0.000259
0.000269
0.000251
0.000256
0.001807
0.000346
0.000369
0.000329
0.000407
0.000373
0.000371
0.001465
0.000246
0.000330
0.002117
0.000514
0.000263
0.000237
0.000267
0.000266
0.000503
0.000243
0.000237
0.000278
0.000197
0.000056
0.000217
0.000360
0.000354
0.000296
0.000204
0.000244
0.000255
0.000252
0.000269
0.000291
0.000228
0.000249
0.000260
0.000264
0.000453
0.001400
0.000319
0.000210
0.000279
0.002044
0.000247
0.000266
0.000253
0.000263
0.000247
0.000281
0.000269
0.000262
0.000260
0.000252
0.000206
0.000056
0.000329
0.000282
0.002028
0.000254
0.000281
0.000202
0.000244
0.000433
0.000261
0.000477
0.001300
0.000437
0.000292
0.002084
0.000203
0.000249
0.000283
0.000259
0.000256
0.000244
0.000280
0.000292
0.000264
0.000355
0.000586
0.000262
0.000318
0.002227
0.000540
0.000403
0.000449
0.000055
0.000195
0.000231
0.000245
0.001964
0.000230
0.000230
0.000242
0.000243
0.000239
0.000254
0.000250
0.000258
0.000250
0.000302
0.000457
0.001437
0.000238
0.000256
0.000265
0.000256
0.000238
0.000256
0.000261
0.000321
0.000274
0.000472
0.000454
0.000238
0.001594
0.000280
0.000159
0.000056
0.000206
0.000215
0.000246
0.000232
0.000252
0.000255
0.000250
0.000247
0.000255
0.000368
0.000381
0.001406
0.000240
0.000215
0.000251
0.000266
0.000254
0.000255
0.000509
0.000281
0.000481
0.000358
0.000229
0.001570
0.000234
0.000257
0.000288
0.000293
0.000251
0.000270
0.000189
0.000055
0.000217
0.000225
0.000269
0.000264
0.000252
0.000241
0.000238
0.000240
0.000269
0.000232
0.000255
0.000254
0.000257
0.001482
0.000358
0.000212
0.000252
0.000263
0.000309
0.000330
0.000383
0.000225
0.000243
0.000255
0.000261
0.000265
0.000258
0.001411
0.000281
0.000234
0.000170
0.000071
0.000194
0.000236
0.000256
0.000255
0.000259
0.000236
0.000247
0.000261
0.000223
0.000263
0.000244
0.000259
0.000227
0.000370
0.000292
0.000348
0.000286
0.000243
0.001631
0.000242
0.000240
0.000266
0.000261
0.000268
0.000451
0.000324
0.000455
0.000261
0.000258
0.001604
0.000162
0.000055
0.000342
0.000328
0.000365
0.000303
0.000228
0.000216
0.000244
0.000270
0.000255
0.000238
0.000241
0.000242
0.001500
0.000268
0.000289
0.000236
0.000241
0.000256
0.000269
0.000265
0.000255
0.000238
0.000261
0.000272
0.000262
0.000344
0.000442
0.000440
0.000220
0.000255
0.000193
0.000055
0.000211
0.000288
0.000460
0.000330
0.000336
0.000266
0.000250
0.000246
0.000249
0.000257
0.000242
0.000227
0.000259
0.000245
0.001297
0.000247
0.000244
0.000254
0.000267
0.000264
0.000239
0.000268
0.000258
0.000254
0.000256
0.000255
0.000340
0.000703
0.000411
0.000228
0.000182
0.000055
0.000203
0.001558
0.000283
0.000364
0.000453
0.000309
0.000217
0.000262
0.000264
0.000260
0.000238
0.000260
0.000265
0.000271
0.000262
0.001522
0.000253
0.000287
0.000265
0.000259
0.000258
0.000248
0.000269
0.000263
0.000258
0.000281
0.000410
0.000395
0.000349
0.000226
0.000190
0.000056
0.000215
0.000253
0.000241
0.001598
0.000431
0.000345
0.000252
0.000221
0.000251
0.000271
0.000275
0.000255
0.000246
0.000266
0.000235
0.000266
0.000368
0.001354
0.000244
0.000247
0.001484
0.000363
0.000518
0.000405
0.000338
0.000243
0.000265
0.000461
0.000238
0.000262
0.000181
0.000056
0.000284
0.000228
0.000243
0.000268
0.000228
0.000252
0.000239
0.000262
0.000256
0.000240
0.000250
0.000259
0.000333
0.000495
0.001649
0.001496
0.000357
0.000538
0.000330
0.000231
0.000230
0.000257
0.000247
0.000267
0.000249
0.000265
0.000259
0.000271
0.001517
0.000341
0.000161
0.000056
0.000202
0.000356
0.000353
0.000323
0.000242
0.000217
0.000244
0.000450
0.000334
0.000355
0.002170
0.000323
0.000760
0.000439
0.000484
0.000295
0.000293
0.000413
0.000316
0.000270
0.000392
0.000240
0.001808
0.000279
0.000221
0.000259
0.000259
0.000249
0.000273
0.000270
0.000186
0.000055
0.000210
0.000249
0.000253
0.000254
0.000245
0.001660
0.000877
0.000994
0.000208
0.000240
0.000259
0.000252
0.000265
0.000259
0.000272
0.000232
0.000254
0.000263
0.000268
0.000278
0.001429
0.000314
0.000250
0.000228
0.000241
0.000277
0.000247
0.000281
0.000258
0.000291
0.001886
0.000056
0.000197
0.000230
0.001544
0.000857
0.000367
0.000372
0.000244
0.000225
0.000251
0.000254
0.000248
0.000250
0.000251
0.001970
0.000477
0.000228
0.000245
0.000256
0.000268
0.000254
0.000191
