0.000148
0.020300
0.001393
0.000271
0.000225
0.000242
0.000310
0.000252
0.000348
0.000271
0.000247
0.000382
0.000576
0.000435
0.000327
0.000326
0.000298
0.000375
0.000395
0.000417
0.000300
0.001834
0.000537
0.000438
0.000269
0.000287
0.000307
0.000423
0.000391
0.000495
0.000488
0.000214
0.000059
0.000205
0.000237
0.000266
0.000262
0.000271
0.000260
0.000272
0.000265
0.000271
0.000332
0.000374
0.000477
0.000309
0.000266
0.000401
0.000363
0.000354
0.000246
0.000225
0.001735
0.000279
0.000224
0.000508
0.000252
0.000260
0.000232
0.000291
0.000290
0.000284
0.000338
0.000412
0.000058
0.000241
0.000227
0.000260
0.000261
0.000254
0.000249
0.000262
0.000256
0.000278
0.001680
0.000232
0.000239
0.000244
0.000274
0.000278
0.000246
0.000281
0.000251
0.000345
0.001808
0.000251
0.000256
0.000454
0.000454
0.000399
0.000260
0.000326
0.000404
0.000563
0.000698
0.000177
0.000058
0.000205
0.000224
0.000257
0.000235
0.000310
0.000259
0.000328
0.000523
0.000463
0.000248
0.000220
0.000209
0.000237
0.000264
0.000255
0.000262
0.000231
0.000274
0.000289
0.000352
0.001724
0.000246
0.000227
0.000466
0.000660
0.000350
0.000638
0.000452
0.000358
0.000261
0.000197
0.000056
0.000211
0.000222
0.000261
0.000244
0.000260
0.000253
0.000271
0.000483
0.001445
0.000239
0.000239
0.000237
0.000250
0.000253
0.000262
0.000285
0.000398
0.000657
0.001410
0.000290
0.000261
0.000417
0.000265
0.000238
0.000241
0.000274
0.000249
0.000289
0.000242
0.000268
0.000219
0.000057
0.000197
0.000218
0.000248
0.000244
0.000261
0.000246
0.000246
0.000253
0.000231
0.000259
0.001700
0.000242
0.000220
0.000242
0.000218
0.000250
0.000239
0.000256
0.000262
0.000248
0.000257
0.001743
0.000244
0.000261
0.000475
0.000234
0.000221
0.000241
0.000274
0.000265
0.000205
0.000056
0.000193
0.000216
0.000234
0.000249
0.000244
0.000245
0.000259
0.000235
0.000259
0.000249
0.000265
0.000253
0.000259
0.000277
0.001635
0.000277
0.000283
0.000232
0.000250
0.000273
0.000267
0.000250
0.000258
0.000249
0.000273
0.001844
0.000384
0.000346
0.000267
0.000281
0.000209
0.000057
0.000190
0.000212
0.000242
0.000275
0.000259
0.000238
0.000314
0.000361
0.000446
0.000423
0.000207
0.000245
0.000250
0.000267
0.001642
0.000565
0.000308
0.000393
0.000228
0.000219
0.000260
0.000278
0.000274
0.001834
0.000465
0.000480
0.000222
0.000229
0.000236
0.000254
0.000208
0.000056
0.000196
0.000239
0.000238
0.000320
0.000279
0.000439
0.000385
0.000292
0.000209
0.000224
0.000266
0.000238
0.000253
0.001760
0.000423
0.000318
0.000219
0.000245
0.000274
0.000277
0.000255
0.000273
0.000257
0.001924
0.000279
0.000391
0.000248
0.000251
0.000296
0.000404
0.000336
0.000056
0.000317
0.000258
0.000355
0.000318
0.000249
0.000201
0.000244
0.000258
0.000244
0.000245
0.000237
0.000243
0.001615
0.000369
0.000281
0.000202
0.000228
0.000251
0.000248
0.000275
0.000274
0.000333
0.001789
0.000352
0.000228
0.000507
0.000210
0.000230
0.000247
0.000268
0.000284
0.000057
0.000323
0.000532
0.000636
0.000196
0.000213
0.000270
0.000233
0.000216
0.000260
0.000253
0.000248
0.001702
0.000271
0.000413
0.000389
0.000217
0.000237
0.000232
0.000238
0.000272
0.000241
0.001861
0.000253
0.000229
0.002248
0.000437
0.000262
0.000259
0.000260
0.000258
0.000211
0.000056
0.000211
0.000218
0.000237
0.000236
0.000256
0.001704
0.000203
0.000195
0.000255
0.000251
0.000244
0.000252
0.000242
0.000261
0.000283
0.000441
0.000629
0.000213
0.000235
0.000265
0.000272
0.000255
0.000227
0.000506
0.000431
0.000259
0.000313
0.000708
0.000326
0.000223
0.000202
0.000056
0.000201
0.000224
0.000252
0.000248
0.000241
0.000237
0.000392
0.000379
0.000350
0.001642
0.000251
0.000232
0.000243
0.000250
0.000253
0.000265
0.000403
0.000571
0.000368
0.000224
0.000236
0.000291
0.000306
0.000260
0.000259
0.000407
0.000424
0.000588
0.000524
0.000395
0.000141
0.000057
0.000187
0.000249
0.000223
0.000223
0.000242
0.000241
0.000243
0.000241
0.000253
0.000358
0.000347
0.001570
0.000271
0.000204
0.000212
0.000210
0.000268
0.000253
0.000247
0.000252
0.000298
0.000423
0.000426
0.000326
0.000226
0.000222
0.000273
0.000257
0.000266
0.000260
0.000438
0.000056
0.000196
0.000223
0.000237
0.000254
0.000555
0.000415
0.000252
0.000250
0.000240
0.000249
0.000244
0.000243
0.000286
0.000262
0.000231
0.000600
0.000353
0.001599
0.000275
0.000231
0.000257
0.000269
0.000256
0.000246
0.000265
0.000571
0.000399
0.000334
0.000356
0.000252
0.000204
0.000056
0.000219
0.000229
0.000402
0.000232
0.000267
0.000246
0.000346
0.000548
0.000285
0.000317
0.000242
0.000268
0.000268
0.000242
0.000595
0.000291
0.000211
0.000235
0.000424
0.001714
0.000216
0.000245
0.000298
0.000418
0.000271
0.000292
0.000253
0.000366
0.000532
0.000418
0.000235
0.000057
0.000185
0.000216
0.000237
0.000245
0.000472
0.000264
0.000287
0.000215
0.000465
0.000525
0.000319
0.000242
0.000219
0.000218
0.000252
0.000259
0.000258
0.000259
0.000223
0.000381
0.000266
0.000320
0.001876
0.000243
0.000233
0.000259
0.000306
0.000354
0.000415
0.000764
0.000391
0.000057
0.000243
0.000317
0.000334
0.000414
0.000324
0.000214
0.000247
0.000320
0.000493
0.000409
0.000312
0.000204
0.000224
0.000267
0.000264
0.000231
0.000251
0.000274
0.000268
0.000265
0.000263
0.000465
0.001714
0.000281
0.000358
0.000423
0.000380
0.000246
0.000405
0.000531
0.000286
0.000059
0.000221
0.000379
0.000290
0.000212
0.000230
0.000211
0.000483
0.000208
0.000219
0.000333
0.000490
0.000434
0.000198
0.000250
0.000263
0.000273
0.000367
0.000453
0.000299
0.000223
0.000217
0.000428
0.000566
0.001706
0.000259
0.000385
0.000338
0.000225
0.000258
0.000470
0.000330
0.000056
0.000185
0.000215
0.000241
0.000242
0.000245
0.000249
0.000255
0.000358
0.000427
0.000274
0.000559
0.000329
0.000266
0.000230
0.000515
0.000266
0.000273
0.000269
0.000239
0.000337
0.000237
0.000229
0.000266
0.000449
0.000687
0.001499
0.000230
0.000228
0.000245
0.000252
0.000204
0.000057
0.000380
0.000478
0.000217
0.000206
0.000237
0.000227
0.000268
0.000237
0.000250
0.000254
0.000220
0.000498
0.000232
0.000552
0.000360
0.000299
0.000231
0.000238
0.000355
0.000353
0.000367
0.000362
0.000387
0.000378
0.000248
0.000223
0.000252
0.000273
0.001786
0.000257
0.000222
0.000056
0.000178
0.000212
0.000254
0.000263
0.000355
0.000536
0.000365
0.000208
0.000240
0.000261
0.000251
0.000245
0.000551
0.000428
0.000472
0.000306
0.000274
0.000233
0.000435
0.000486
0.000376
0.000451
0.000518
0.000359
0.000242
0.000237
0.000244
0.000224
0.000268
0.001800
0.000302
0.000058
0.000272
0.000324
0.000221
0.000211
0.000256
0.000244
0.000281
0.000451
0.000423
0.000311
0.000302
0.000402
0.000510
0.000400
0.000323
0.000210
0.000223
0.000237
0.000277
0.000244
0.000262
0.000270
0.000243
0.000268
0.000350
0.000308
0.000588
0.000260
0.000224
0.000209
0.000211
0.000057
0.000457
0.000309
0.000376
0.000278
0.000211
0.000233
0.000249
0.000253
0.000247
0.000261
0.000207
0.000275
0.000296
0.000391
0.000551
0.000397
0.000367
0.000328
0.000370
0.000389
0.000270
0.000229
0.000216
0.000252
0.001822
0.000221
0.001755
0.000947
0.000381
0.000318
0.000152
0.000056
0.000193
0.000216
0.000238
0.000228
0.000261
0.000247
0.000263
0.000261
0.000238
0.000296
0.000429
0.000465
0.000308
0.000397
0.000230
0.000254
0.000270
0.000290
0.000204
0.000259
0.000234
0.000228
0.001798
0.000279
0.000213
0.000274
0.000276
0.000265
0.001877
0.000602
0.000194
0.000057
0.000197
0.000201
0.000226
0.000240
0.000251
0.000246
0.000247
0.000254
0.000258
0.000392
0.000617
0.000239
0.000392
0.000233
0.000226
0.000278
0.000379
0.000406
0.000379
0.000239
0.001805
0.000256
0.000208
0.000228
0.000263
0.000269
0.000244
0.000262
0.000253
0.000359
0.000413
0.000057
0.000274
0.000203
0.000196
0.000259
0.000251
0.000241
0.000258
0.000261
0.000232
0.000269
0.000237
0.000283
0.000363
0.000361
0.000383
0.000315
0.000503
0.000183
0.000211
0.000264
0.000259
0.000253
0.000277
0.000263
0.000273
0.001791
0.000271
0.000232
0.000247
0.000242
0.000218
0.000057
0.000300
0.000298
0.000195
0.000214
0.000228
0.000237
0.000243
0.000251
0.000243
0.000241
0.000237
0.000243
0.000281
0.000254
0.000512
0.000382
0.000321
0.000198
0.000225
0.000247
0.000261
0.000261
0.000254
0.000267
0.000258
0.000248
0.000308
0.001704
0.000230
0.000231
0.000180
0.000056
0.000211
0.000197
0.000251
0.000251
0.000356
0.000335
0.000467
0.000281
0.000221
0.000248
0.000247
0.000244
0.000250
0.000255
0.000260
0.000260
0.000245
0.000254
0.000251
0.000261
0.000265
0.000265
0.000261
0.000233
0.000238
0.000285
0.000274
0.000259
0.000255
0.000267
0.000204
0.000055
0.000227
0.000200
0.000241
0.000257
0.000241
0.000251
0.000242
0.000258
0.000358
0.000201
0.000197
0.000240
0.000260
0.000253
0.000281
0.000250
0.000275
0.000227
0.000355
0.000221
0.000241
0.000287
0.000281
0.000254
0.000265
0.000284
0.000266
0.000252
0.000278
0.000498
0.000529
0.000057
0.000230
0.000298
0.000223
0.000206
0.000216
0.000247
0.000242
0.000246
0.000255
0.000242
0.000265
0.000351
0.000519
0.000386
0.001601
0.000206
0.000533
0.000189
0.000240
0.000466
0.000455
0.000325
0.000237
0.000278
0.000257
0.000253
0.000277
0.000255
0.000308
0.000267
0.000199
0.000056
0.000393
0.000311
0.000373
0.000318
0.000186
0.000246
0.000251
0.000241
0.000233
0.000248
0.000254
0.000254
0.000239
0.000252
0.000395
0.000556
0.000295
0.001798
0.000278
0.000217
0.000368
0.000387
0.000528
0.000239
0.000360
0.000317
0.000251
0.000239
0.000223
0.000243
0.000216
0.000055
0.000207
0.000208
0.000242
0.000281
0.000335
0.000547
0.000283
0.000237
0.000251
0.000221
0.000245
0.000266
0.000265
0.000264
0.000253
0.000255
0.000312
0.000502
0.000364
0.000392
0.000235
0.001813
0.000282
0.000572
0.000460
0.000451
0.000283
0.000246
0.000233
0.000270
0.000499
0.000055
0.000204
0.000232
0.000244
0.000393
0.000278
0.000552
0.000317
0.000269
0.000207
0.000327
0.000214
0.000227
0.000262
0.000303
0.000358
0.000199
0.000225
0.000439
0.000421
0.000344
0.000538
0.001780
0.000254
0.000444
0.000595
0.000253
0.000242
0.000372
0.000246
0.000210
0.000210
0.000056
0.000220
0.000330
0.000352
0.000290
0.000457
0.000290
0.000352
0.000211
0.000241
0.000242
0.000264
0.000233
0.000244
0.000264
0.000249
0.000246
0.000307
0.000381
0.000582
0.000357
0.000283
0.000200
0.000257
0.001786
0.000403
0.000430
0.000701
0.000278
0.000246
0.000298
0.000181
0.000055
0.000191
0.000220
0.000307
0.000262
0.000291
0.000397
0.000384
0.000302
0.000302
0.000533
0.000192
0.000232
0.000231
0.000274
0.000284
0.000269
0.000219
0.000414
0.000453
0.000371
0.000250
0.000244
0.000274
0.000246
0.000263
0.000264
0.000239
0.000252
0.000270
0.000347
0.000181
0.000055
0.000250
0.000381
0.000197
0.000237
0.000247
0.000255
0.000250
0.000351
0.000209
0.000225
0.000244
0.000352
0.000459
0.000387
0.000335
0.000282
0.000220
0.000235
0.000269
0.000240
0.000260
0.000287
0.000245
0.000258
0.000275
0.000322
0.000483
0.000358
0.000340
0.000229
0.000170
0.000056
0.000234
0.000177
0.000267
0.000246
0.000243
0.000247
0.000255
0.000272
0.000492
0.000219
0.000240
0.000251
0.000248
0.000265
0.000261
0.000308
0.000235
0.000356
0.000252
0.000218
0.000257
0.000256
0.000259
0.000260
0.000280
0.000264
0.000265
0.000260
0.000252
0.000500
0.000172
0.000056
0.000188
0.000219
0.000242
0.000258
0.000245
0.000237
0.000293
0.000463
0.000254
0.000224
0.000256
0.000261
0.000233
0.000283
0.000559
0.001647
0.000257
0.000240
0.000293
0.000384
0.000410
0.000344
0.000389
0.000480
0.000267
0.000371
0.000250
0.000265
0.000268
0.000266
0.001434
0.000056
0.000483
0.000212
0.000317
0.000189
0.000198
0.000250
0.000231
0.000247
0.000250
0.000261
0.000248
0.000261
0.000270
0.000277
0.000546
0.001693
0.000214
0.000205
0.000227
0.000265
0.000252
0.000296
0.000327
0.000449
0.000233
0.000334
0.000253
0.000247
0.000277
0.000256
0.000209
0.000056
0.001218
0.000603
0.000260
0.000285
0.000209
0.000202
0.000216
0.000234
0.000485
0.000244
0.000231
0.000236
0.000332
0.000465
0.000465
0.000335
0.000299
0.000237
0.000322
0.000390
0.000236
0.000227
0.000263
0.000253
0.000292
0.000537
0.000580
0.000257
0.000245
0.000269
0.000188
0.000056
0.000226
0.000191
0.000235
0.000236
0.001553
0.000246
0.000204
0.000245
0.000243
0.000248
0.000254
0.000252
0.000238
0.000263
0.000266
0.000289
0.000473
0.000665
0.000236
0.001807
0.000234
0.000291
0.000267
0.000492
0.000509
0.000374
0.000240
0.000238
0.000259
0.000255
0.000223
0.000056
0.000204
0.000260
0.000212
0.001328
0.000330
0.000194
0.000257
0.000217
0.000237
0.000242
0.000229
0.000254
0.000276
0.000255
0.000244
0.000276
0.000648
0.000329
0.000319
0.000207
0.000243
0.000276
0.000256
0.000233
0.000350
0.000245
0.000189
0.000284
0.000266
0.000310
0.000665
0.000056
0.000170
0.000233
0.000241
0.000259
0.000257
0.000254
0.000228
0.000270
0.000253
0.000254
0.001440
0.000245
0.000222
0.000249
0.000249
0.000240
0.000262
0.000263
0.000265
0.000269
0.000259
0.000561
0.000460
0.000327
0.000236
0.000262
0.001838
0.000225
0.000234
0.000317
0.000429
0.000056
0.000226
0.000435
0.000453
0.000508
0.000525
0.000532
0.001459
0.000440
0.000538
0.000652
0.000553
0.000710
0.000499
0.000616
0.000585
0.001771
0.000445
0.000418
0.000378
0.000314
0.000254
0.000292
0.000286
0.000262
0.000282
0.000271
0.000298
0.000279
0.000255
0.000300
0.001323
0.000056
0.000208
0.000235
0.000212
0.000242
0.000245
0.000252
0.000233
0.000239
0.000258
0.000274
0.000232
0.000265
0.000241
0.000284
0.000242
0.000255
0.001857
0.000246
0.000264
0.000247
0.000259
0.000262
0.000288
0.000394
0.000365
0.000335
0.000322
0.000237
0.000264
0.000295
0.000182
0.000055
0.000197
0.001398
0.000265
0.000267
0.000262
0.000233
0.000253
0.000242
0.000250
0.000246
0.000236
0.000243
0.000255
0.000450
0.000266
0.000373
0.000255
0.000284
0.001913
0.000257
0.000253
0.000262
0.000258
0.000258
0.000279
0.000262
0.000273
0.000258
0.000252
0.000300
0.000238
0.000056
0.000203
0.000232
0.000246
0.001440
0.000249
0.000265
0.000225
0.000224
0.000236
0.000264
0.000245
0.000253
0.000241
0.000257
0.000280
0.000249
0.000247
0.000260
0.000295
0.000237
0.000263
0.001856
0.000262
0.001756
0.000251
0.000252
0.000248
0.000234
0.000263
0.000291
0.000207
0.000056
0.000192
0.000244
0.001377
0.000217
0.000264
0.000233
0.000218
0.000249
0.000245
0.000247
0.000253
0.000243
0.000256
0.000262
0.000262
0.000269
0.000252
0.000297
0.000273
0.000253
0.001867
0.000267
0.001797
0.000278
0.000248
0.000248
0.000248
0.000271
0.000258
0.000264
0.000178
0.000056
0.001466
0.000218
0.000242
0.000217
0.000215
0.000234
0.000267
0.000375
0.000246
0.000263
0.000244
0.000259
0.000287
0.000317
0.000478
0.000261
0.000250
0.000263
0.000239
0.000222
0.000266
0.000332
0.000244
0.000245
0.000277
0.000278
0.000260
0.000350
0.000735
0.000314
0.000182
0.000057
0.000191
0.000291
0.000280
0.000298
0.000350
0.000268
0.001676
0.000291
0.000273
0.000258
0.000263
0.000315
0.000254
0.000264
0.000296
0.000325
0.000432
0.000469
0.000351
0.000266
0.000310
0.000282
0.000268
0.000258
0.000339
0.000250
0.000264
0.000247
0.000241
0.000337
0.000355
0.000057
0.000311
0.000371
0.000268
0.000266
0.000255
0.000231
0.000217
0.000248
0.000262
0.000253
0.001503
0.000263
0.000196
0.000261
0.000238
0.000282
0.000267
0.000271
0.000238
0.000272
0.000269
0.000369
0.000593
0.000320
0.000213
0.000290
0.000298
0.000213
0.000244
0.000239
0.000253
0.000055
0.000192
0.000202
0.000297
0.000462
0.000397
0.000235
0.000224
0.000250
0.000246
0.000256
0.000228
0.000267
0.000249
0.000263
0.000240
0.000271
0.000378
0.001267
0.000212
0.000236
0.000254
0.000255
0.000328
0.000509
0.000219
0.000307
0.000568
0.000378
0.000380
0.000220
0.000187
0.000056
0.000197
0.000227
0.000259
0.000271
0.000301
0.000202
0.000321
0.000543
0.000373
0.000300
0.000365
0.000402
0.000393
0.000349
0.000238
0.000227
0.000207
0.000242
0.000477
0.000481
0.001190
0.000223
0.000257
0.000273
0.000232
0.000241
0.000264
0.000375
0.000333
0.000605
0.000156
0.000055
0.000191
0.000226
0.000251
0.000244
0.000241
0.000254
0.000238
0.000256
0.000253
0.000382
0.000574
0.000315
0.000233
0.000211
0.000219
0.000282
0.000231
0.000260
0.000263
0.000239
0.000508
0.000325
0.000314
0.000425
0.000278
0.000237
0.000242
0.000276
0.000251
0.000288
0.000234
0.000056
0.000288
0.000286
0.000343
0.000403
0.000417
0.000362
0.000217
0.000259
0.000236
0.000251
0.000270
0.000259
0.000242
0.000253
0.000242
0.000229
0.000272
0.000401
0.000465
0.000379
0.000219
0.000257
0.000219
0.000253
0.000273
0.000263
0.000268
0.000266
0.000281
0.000267
0.000343
0.000058
0.000208
0.000362
0.000224
0.000226
0.000256
0.000249
0.000267
0.000233
0.000255
0.000256
0.000261
0.000235
0.000302
0.000582
0.000391
0.000304
0.000206
0.000222
0.000237
0.000267
0.000280
0.000245
0.000262
0.000264
0.000273
0.000344
0.000370
0.000590
0.000498
0.000212
0.000156
0.000057
0.000410
0.000195
0.000199
0.000231
0.000249
0.000255
0.000244
0.000244
0.000253
0.000260
0.000222
0.000249
0.000260
0.000236
0.000241
0.000265
0.000253
0.000258
0.000279
0.000266
0.000255
0.000263
0.000257
0.000270
0.000264
0.000261
0.000240
0.000279
0.000253
0.000280
0.000214
0.000056
0.000200
0.000202
0.000248
0.000251
0.000223
0.000257
0.000265
0.000240
0.000259
0.000271
0.000232
0.000241
0.000258
0.000404
0.000237
0.000309
0.000239
0.000258
0.000266
0.000271
0.000277
0.000239
0.000242
0.000256
0.000268
0.000277
0.000245
0.000254
0.000270
0.000259
0.000222
0.000057
0.000232
0.000381
0.000351
0.000279
0.000309
0.000229
0.000212
0.000256
0.000227
0.000246
0.000239
0.000268
0.000255
0.000232
0.000265
0.000259
0.000255
0.000268
0.000248
0.000268
0.000271
0.000262
0.000274
0.000254
0.000279
0.000271
0.000250
0.000284
0.000243
0.000261
0.000210
0.000056
0.000198
0.000236
0.000243
0.000263
0.000245
0.000455
0.000215
0.000237
0.000280
0.000411
0.000556
0.000306
0.000226
0.000207
0.000268
0.000269
0.000243
0.000260
0.000268
0.000261
0.000268
0.000260
0.000260
0.000255
0.000514
0.000528
0.000309
0.000267
0.000269
0.000262
0.000204
0.000056
0.000198
0.000199
0.000248
0.000252
0.000393
0.000602
0.000292
0.000372
0.000228
0.000242
0.000248
0.000251
0.000257
0.000248
0.000252
0.000267
0.000267
0.000261
0.000586
0.000474
0.000265
0.000221
0.000264
0.000275
0.000283
0.000262
0.000263
0.000263
0.000248
0.000325
0.000344
0.000055
0.000286
0.000240
0.000204
0.000244
0.000251
0.000257
0.000247
0.000227
0.000245
0.000250
0.000251
0.000253
0.000254
0.000384
0.000572
0.000422
0.000221
0.000235
0.000274
0.000249
0.000261
0.000272
0.000467
0.000244
0.000264
0.000692
0.000373
0.000428
0.000258
0.000258
0.000193
0.000056
0.000195
0.000218
0.000242
0.000239
0.000253
0.000262
0.000367
0.000711
0.000296
0.000370
0.000218
0.000255
0.000279
0.000271
0.000274
0.000235
0.000244
0.000242
0.000261
0.000406
0.000410
0.000522
0.000459
0.000212
0.000439
0.000352
0.000495
0.000201
0.000237
0.000442
0.000545
0.000077
0.000246
0.000218
0.000492
0.000219
0.000205
0.000228
0.000250
0.000263
0.000230
0.000239
0.000252
0.000514
0.000357
0.000304
0.000205
0.000217
0.000279
0.000238
0.000263
0.000273
0.000271
0.000260
0.000245
0.000273
0.000366
0.000434
0.000492
0.000242
0.000254
0.000268
0.000214
0.000056
0.000189
0.000238
0.000235
0.000240
0.000248
0.000296
0.000427
0.000450
0.000305
0.000281
0.000344
0.000251
0.000227
0.000262
0.000260
0.000234
0.000255
0.000272
0.000270
0.000416
0.000528
0.000291
0.000446
0.000340
0.000399
0.000391
0.000379
0.000259
0.000208
0.000345
0.000401
0.000056
0.000243
0.000274
0.000231
0.000235
0.000252
0.000265
0.000241
0.000250
0.000250
0.000281
0.000226
0.000465
0.000363
0.000344
0.000363
0.000252
0.000260
0.000258
0.000270
0.000233
0.000247
0.000262
0.000259
0.000273
0.000276
0.000327
0.000507
0.000470
0.000234
0.000304
0.000185
0.000056
0.000166
0.000223
0.000264
0.000250
0.000247
0.000308
0.000579
0.000455
0.000334
0.000683
0.000318
0.000194
0.000217
0.000261
0.000243
0.000266
0.000278
0.000266
0.000537
0.000472
0.001529
0.000250
0.000262
0.000250
0.000299
0.000238
0.000353
0.000500
0.000318
0.000296
0.000178
0.000056
0.000190
0.000215
0.000241
0.000247
0.000235
0.000259
0.000267
0.000259
0.000251
0.000349
0.000352
0.000368
0.000289
0.000369
0.000388
0.000327
0.000231
0.000226
0.000243
0.000265
0.000238
0.000250
0.000281
0.000262
0.000341
0.000539
0.000352
0.000273
0.000207
0.000275
0.000201
0.000056
0.000204
0.000231
0.000256
0.000251
0.000251
0.000234
0.000478
0.000213
0.000235
0.000240
0.000251
0.000253
0.000255
0.000255
0.000248
0.000271
0.000261
0.000262
0.000279
0.000248
0.000259
0.000284
0.000315
0.000230
0.000273
0.000264
0.000281
0.000263
0.000263
0.000283
0.000184
0.000056
0.000211
0.000228
0.000406
0.000393
0.000353
0.000226
0.000201
0.000238
0.000272
0.000244
0.000247
0.000251
0.000265
0.000259
0.000251
0.000240
0.000245
0.000260
0.000258
0.000368
0.000530
0.000304
0.000250
0.000246
0.000267
0.000251
0.000277
0.000245
0.000271
0.000277
0.000220
0.000056
0.000254
0.000377
0.000397
0.000224
0.000253
0.000246
0.000474
0.000200
0.000194
0.000252
0.000269
0.000341
0.000360
0.000454
0.001776
0.000264
0.000239
0.000247
0.000279
0.000243
0.000415
0.000433
0.000656
0.000206
0.000207
0.000275
0.000285
0.000391
0.000291
0.000280
0.000185
0.000056
0.000185
0.000427
0.000230
0.000319
0.000515
0.000197
0.000257
0.000216
0.000260
0.000246
0.000260
0.000240
0.000264
0.000351
0.000495
0.000377
0.000239
0.000209
0.000268
0.000255
0.000282
0.000286
0.000251
0.000273
0.000276
0.000482
0.000492
0.000389
0.000477
0.000231
0.000199
0.000055
0.000251
0.000177
0.000252
0.000231
0.000248
0.000252
0.000263
0.000268
0.000343
0.000432
0.000374
0.000393
0.000215
0.000220
0.000269
0.000270
0.000316
0.000248
0.000265
0.000268
0.000253
0.000289
0.000520
0.000348
0.000275
0.000276
0.000237
0.000543
0.000381
0.000270
0.000163
0.000056
0.000199
0.000301
0.000320
0.000419
0.000311
0.000223
0.000228
0.000259
0.000250
0.000295
0.000228
0.000258
0.000225
0.000253
0.000267
0.000310
0.000459
0.000274
0.000292
0.000377
0.000463
0.000235
0.000264
0.000281
0.000303
0.000286
0.000261
0.000294
0.000448
0.000545
0.000179
0.000056
0.000203
0.000202
0.000273
0.000231
0.000238
0.000485
0.000219
0.000240
0.000262
0.000321
0.000611
0.000471
0.000232
0.000231
0.000244
0.000255
0.000248
0.000264
0.000243
0.000256
0.000248
0.000280
0.000385
0.000497
0.000347
0.000307
0.000331
0.000350
0.000305
0.000218
0.000184
0.000057
0.000197
0.000219
0.000244
0.000512
0.000294
0.000394
0.000228
0.000215
0.000195
0.000256
0.000254
0.000257
0.000248
0.000255
0.000301
0.000213
0.000255
0.000254
0.000338
0.000292
0.000560
0.000378
0.000211
0.000242
0.000291
0.000262
0.000276
0.000245
0.000261
0.000257
0.000223
0.000058
0.000350
0.000285
0.000499
0.000210
0.000212
0.000210
0.000339
0.000497
0.000267
0.000210
0.000214
0.000266
0.000267
0.000467
0.000462
0.000287
0.000223
0.000225
0.000275
0.000211
0.000271
0.000267
0.000256
0.000292
0.000246
0.000290
0.000498
0.000390
0.000315
0.000215
0.000156
0.000056
0.000218
0.000220
0.000243
0.000255
0.000268
0.000249
0.000233
0.000253
0.000255
0.000243
0.000266
0.000247
0.000253
0.001515
0.000203
0.000239
0.000244
0.000250
0.000273
0.000270
0.000271
0.000239
0.000272
0.000263
0.000262
0.000266
0.000267
0.000276
0.000283
0.000241
0.000216
0.000056
0.000190
0.000206
0.000241
0.000250
0.000246
0.000237
0.000256
0.000257
0.000231
0.000248
0.000247
0.000256
0.000259
0.000257
0.000260
0.000259
0.000241
0.000256
0.000278
0.000255
0.000254
0.000256
0.000263
0.000241
0.001365
0.000264
0.000583
0.000347
0.000433
0.000205
0.000165
0.000057
0.000210
0.000203
0.000248
0.000247
0.000499
0.000222
0.000199
0.000207
0.000255
0.000430
0.000479
0.000327
0.000197
0.000211
0.000240
0.000269
0.000246
0.000272
0.000263
0.000242
0.000256
0.000248
0.000267
0.000472
0.000454
0.000450
0.000247
0.000249
0.001362
0.000286
0.000179
0.000057
0.000279
0.000387
0.000357
0.000244
0.000198
0.000203
0.000223
0.000247
0.000262
0.000256
0.000248
0.000261
0.000256
0.000338
0.000523
0.000392
0.000304
0.000240
0.000244
0.000239
0.000277
0.000266
0.000265
0.000266
0.000266
0.000260
0.000331
0.000567
0.000385
0.000381
0.000156
0.000056
0.000186
0.000235
0.001321
0.000344
0.000295
0.000499
0.000338
0.000311
0.000430
0.000398
0.000227
0.000193
0.000256
0.000252
0.000287
0.000228
0.000352
0.000480
0.000413
0.000354
0.000268
0.000237
0.000260
0.000522
0.000227
0.000256
0.000265
0.000269
0.000305
0.000547
0.000332
0.000057
0.000324
0.000386
0.000229
0.000206
0.001593
0.000473
0.000296
0.000227
0.000207
0.000245
0.000222
0.000243
0.000249
0.000265
0.000252
0.000265
0.000240
0.000396
0.000343
0.000391
0.000452
0.000213
0.000220
0.000251
0.000259
0.000271
0.000272
0.000236
0.000264
0.000273
0.000218
0.000056
0.000358
0.000328
0.000238
0.000212
0.000256
0.000240
0.000247
0.000250
0.000238
0.000237
0.001461
0.000483
0.000257
0.000199
0.000213
0.000254
0.000274
0.000269
0.000234
0.000269
0.000275
0.000256
0.000255
0.000434
0.000517
0.000353
0.000221
0.000263
0.000274
0.000282
0.000197
0.000056
0.000179
0.000468
0.000198
0.000197
0.000367
0.000431
0.000436
0.000244
0.000451
0.000220
0.000213
0.000255
0.000256
0.000267
0.000267
0.001490
0.000291
0.000267
0.000247
0.000273
0.000274
0.000253
0.000253
0.000258
0.000255
0.000271
0.000474
0.000401
0.000325
0.000269
0.000171
0.000056
0.000204
0.000230
0.000246
0.000236
0.000224
0.000265
0.000245
0.000252
0.000326
0.000425
0.000394
0.000296
0.000207
0.000206
0.000271
0.000254
0.000268
0.000264
0.000269
0.000236
0.000248
0.000294
0.001346
0.000212
0.000288
0.000204
0.000245
0.000267
0.000261
0.000258
0.000199
0.000056
0.000268
0.000304
0.000469
0.000269
0.000234
0.000200
0.000245
0.000266
0.000276
0.000226
0.000253
0.000272
0.000242
0.000250
0.000256
0.000260
0.000267
0.000267
0.000269
0.000250
0.000270
0.000247
0.000291
0.000258
0.000292
0.000272
0.000278
0.000231
0.000275
0.000516
0.001316
0.000056
0.000207
0.000185
0.000231
0.000243
0.000256
0.000257
0.000248
0.000224
0.000245
0.000253
0.000261
0.000264
0.000252
0.000242
0.000266
0.001701
0.000374
0.000203
0.000191
0.000246
0.000252
0.000255
0.000267
0.000261
0.000263
0.000277
0.000277
0.000266
0.000261
0.000276
0.000236
0.000056
0.000311
0.000269
0.001378
0.000189
0.000198
0.000239
0.000257
0.000250
0.000256
0.000259
0.000236
0.000340
0.000472
0.000439
0.000248
0.000209
0.000220
0.000259
0.000256
0.000267
0.000252
0.000256
0.000275
0.000285
0.000258
0.000424
0.000385
0.000345
0.000285
0.000256
0.000205
0.000056
0.000206
0.000227
0.000249
0.000242
0.000251
0.000243
0.000227
0.000249
0.000550
0.000361
0.001111
0.000235
0.000235
0.000274
0.000248
0.000260
0.000273
0.000243
0.000407
0.000294
0.000411
0.000284
0.000236
0.000219
0.000282
0.000272
0.000286
0.000286
0.000270
0.000275
0.000215
0.000056
0.000241
0.000427
0.000409
0.000223
0.000205
0.000206
0.000268
0.000244
0.000289
0.000237
0.000226
0.000254
0.000521
0.000513
0.000454
0.001462
0.000204
0.000290
0.000316
0.000352
0.000450
0.000398
0.000629
0.000239
0.000245
0.000260
0.000258
0.000282
0.000258
0.000281
0.000228
0.000056
0.000176
0.000312
0.000500
0.000495
0.000227
0.000213
0.000245
0.000245
0.000232
0.000260
0.000252
0.000261
0.000266
0.000244
0.000271
0.000296
0.000403
0.000455
0.000304
0.001326
0.000282
0.000232
0.000246
0.000267
0.000592
0.000381
0.000372
0.000225
0.000240
0.000277
0.000207
0.000056
0.000184
0.000230
0.000269
0.000223
0.000247
0.000297
0.000423
0.000394
0.000371
0.000237
0.000223
0.000254
0.000283
0.000243
0.000270
0.000260
0.000277
0.000250
0.000258
0.000430
0.000498
0.000322
0.000323
0.001339
0.000339
0.000256
0.000284
0.000425
0.000441
0.000339
0.000322
0.000058
0.000176
0.000225
0.000245
0.000249
0.000249
0.000255
0.001706
0.000258
0.000210
0.000218
0.000250
0.000248
0.000320
0.000325
0.000329
0.000283
0.000259
0.000388
0.000469
0.000373
0.000280
0.000268
0.000215
0.000239
0.001433
0.000480
0.000437
0.000417
0.000305
0.000305
0.000145
0.000056
0.000189
0.000232
0.000259
0.000257
0.000242
0.000260
0.001780
0.000208
0.000241
0.000245
0.000390
0.000407
0.001497
0.000324
0.000372
0.000206
0.000213
0.000234
0.000267
0.000272
0.001606
0.000586
0.000383
0.000292
0.000206
0.000208
0.000259
0.000279
0.000256
0.000249
0.000206
0.000056
0.000190
0.000242
0.000248
0.000271
0.000236
0.000271
0.000289
0.000251
0.000251
0.000258
0.000251
0.000248
0.000249
0.000279
0.000252
0.001517
0.000264
0.000232
0.000267
0.000271
0.000270
0.000259
0.000419
0.001277
0.000332
0.000197
0.000257
0.000266
0.000450
0.000208
0.000192
0.000055
0.000194
0.000228
0.000244
0.000234
0.000240
0.000226
0.000248
0.001748
0.000200
0.000216
0.000243
0.000362
0.000235
0.000223
0.001469
0.000236
0.000212
0.000222
0.000274
0.000240
0.000257
0.000308
0.000322
0.001378
0.000269
0.000227
0.000229
0.000254
0.001395
0.000278
0.000239
0.000056
0.000328
0.000277
0.000204
0.000224
0.000233
0.000238
0.000269
0.000271
0.000259
0.000249
0.000266
0.000263
0.000255
0.000257
0.000362
0.001430
0.000256
0.000265
0.000253
0.000248
0.000275
0.000264
0.000268
0.001518
0.000312
0.000262
0.000252
0.001349
0.000228
0.000250
0.000196
0.000057
0.000230
0.000435
0.000277
0.000221
0.000217
0.000233
0.000264
0.000260
0.000268
0.000271
0.000237
0.000247
0.000259
0.000307
0.000421
0.001255
0.000199
0.000230
0.000246
0.000278
0.000240
0.000234
0.000252
0.001339
0.000332
0.000249
0.000219
0.000228
0.000249
0.001345
0.000338
0.000055
0.000332
0.000271
0.000207
0.000199
0.000248
0.000252
0.000245
0.000245
0.000273
0.000252
0.000240
0.000251
0.000259
0.000346
0.000374
0.001486
0.000247
0.000226
0.000299
0.000499
0.000302
0.000454
0.001291
0.000298
0.000242
0.000258
0.001279
0.000349
0.000269
0.000454
0.000393
0.000056
0.000180
0.000257
0.000234
0.000261
0.000246
0.000263
0.000259
0.000260
0.000260
0.000258
0.000410
0.000395
0.001391
0.000202
0.000231
0.000263
0.000282
0.000265
0.000210
0.000240
0.000310
0.001324
0.000237
0.000241
0.000220
0.000239
0.001506
0.000424
0.000479
0.000240
0.000212
0.000057
0.000197
0.000213
0.000247
0.000241
0.000241
0.000266
0.000247
0.000288
0.000431
0.000457
0.000301
0.001456
0.000228
0.000228
0.000262
0.000261
0.000255
0.000315
0.001627
0.000308
0.000351
0.000360
0.001333
0.000434
0.000250
0.000346
0.000230
0.000212
0.000243
0.000272
0.000206
0.000057
0.000195
0.000220
0.000322
0.000222
0.000324
0.000568
0.000267
0.000363
0.001484
0.000265
0.000344
0.000254
0.000207
0.000332
0.000343
0.001376
0.000258
0.000239
0.000188
0.000246
0.000297
0.001597
0.000370
0.000271
0.000237
0.000230
0.000518
0.000302
0.000229
0.000226
0.000257
0.000056
0.000218
0.000397
0.000430
0.000176
0.000208
0.001467
0.000238
0.000229
0.000260
0.000268
0.000267
0.000252
0.000373
0.001411
0.000255
0.000239
0.000416
0.001295
0.000464
0.000250
0.000360
0.000234
0.000260
0.000241
0.000283
0.000255
0.000456
0.000226
0.000261
0.000273
0.000209
0.000056
0.000229
0.000211
0.000357
0.001474
0.000270
0.000202
0.000300
0.000254
0.000244
0.000245
0.000245
0.000334
0.001572
0.000204
0.000227
0.000210
0.001373
0.000349
0.000485
0.000414
0.000333
0.000217
0.000225
0.000243
0.000361
0.000244
0.000231
0.000244
0.000259
0.000253
0.000212
0.000056
0.000241
0.000406
0.001404
0.000209
0.000253
0.000267
0.000257
0.000238
0.000315
0.000424
0.001304
0.000244
0.000296
0.000248
0.000216
0.001386
0.000658
0.000250
0.000298
0.000406
0.000356
0.000223
0.000219
0.000248
0.000271
0.000285
0.000281
0.000375
0.000401
0.000440
0.001381
0.000056
0.000189
0.000248
0.000212
0.000224
0.000251
0.000383
0.001587
0.000274
0.000226
0.000211
0.000249
0.001405
0.000422
0.000367
0.000455
0.000251
0.000218
0.000208
0.000243
0.000298
0.000246
0.000254
0.000280
0.000259
0.000246
0.000298
0.000433
0.000520
0.001465
0.000252
0.000190
0.000055
0.000198
0.000242
0.000327
0.000590
0.001196
0.000301
0.000239
0.000255
0.000257
0.000247
0.000248
0.000282
0.000394
0.000523
0.000284
0.000222
0.000248
0.000294
0.000215
0.000296
0.000244
0.000272
0.000253
0.000265
0.000264
0.000394
0.000507
0.000310
0.000310
0.001489
0.000142
0.000056
0.000189
0.000204
0.000263
0.000488
0.000312
0.000333
0.000291
0.000324
0.000283
0.000256
0.000279
0.000243
0.000252
0.000307
0.000250
0.000252
0.000608
0.000306
0.000272
0.000383
0.000286
0.000473
0.000210
0.000229
0.000224
0.000267
0.000257
0.000296
0.000343
0.000501
0.000311
0.000055
0.000207
0.001367
0.000274
0.000328
0.000360
0.000510
0.000325
0.000314
0.000225
0.000210
0.000273
0.000239
0.000264
0.000261
0.000277
0.000254
0.000260
0.001321
0.000349
0.000229
0.000224
0.000270
0.000274
0.000278
0.000269
0.000257
0.000271
0.000256
0.000300
0.000459
0.000269
0.000055
0.000225
0.000237
0.000221
0.001534
0.000332
0.000229
0.000203
0.000215
0.000236
0.000237
0.000250
0.000277
0.000245
0.000250
0.000259
0.000279
0.000234
0.000282
0.000239
0.000262
0.001429
0.000266
0.000237
0.000324
0.000233
0.000219
0.000253
0.000258
0.000284
0.000499
0.000376
0.000055
0.000181
0.000214
0.000384
0.000295
0.000244
0.000251
0.001538
0.000414
0.000261
0.000212
0.000232
0.000359
0.000305
0.000222
0.000218
0.000259
0.000244
0.000254
0.000265
0.000251
0.000579
0.000473
0.001127
0.000269
0.000217
0.000214
0.000275
0.000255
0.000269
0.000261
0.000421
0.000057
0.000255
0.000364
0.000194
0.000206
0.000250
0.000249
0.000236
0.000227
0.001496
0.000482
0.000396
0.000236
0.000231
0.000210
0.000246
0.000251
0.000246
0.000285
0.000251
0.000309
0.000321
0.000511
0.000449
0.001335
0.000235
0.000252
0.000280
0.000264
0.000264
0.000372
0.000458
0.000057
0.000253
0.000224
0.000237
0.000241
0.000225
0.000234
0.000262
0.000246
0.000276
0.001642
0.000277
0.000269
0.000258
0.000255
0.000470
0.000284
0.000403
0.000475
0.000336
0.000298
0.000479
0.000536
0.001215
0.000233
0.000220
0.000230
0.001826
0.000372
0.000588
0.000326
0.000152
0.000056
0.000201
0.000200
0.000239
0.000234
0.000251
0.000250
0.000373
0.000508
0.000447
0.000361
0.000305
0.000200
0.000211
0.000262
0.000265
0.000270
0.000266
0.000239
0.000244
0.000277
0.000254
0.000584
0.001200
0.000249
0.000231
0.000260
0.001879
0.000429
0.000401
0.000338
0.000140
0.000056
0.000231
0.000216
0.000242
0.001600
0.000358
0.000249
0.000230
0.000275
0.000248
0.000315
0.000368
0.000376
0.000369
0.000292
0.000280
0.000535
0.000392
0.001221
0.000260
0.000206
0.000217
0.000262
0.000355
0.000389
0.000630
0.000455
0.000227
0.000225
0.000260
0.000277
0.000210
0.000056
0.000188
0.000208
0.001474
0.000396
0.000211
0.000204
0.000222
0.000253
0.000249
0.000245
0.000250
0.000272
0.000269
0.000271
0.000267
0.000373
0.000419
0.000363
0.001377
0.000274
0.000225
0.000257
0.000259
0.000304
0.000424
0.000494
0.000365
0.000283
0.000299
0.000243
0.000411
0.000056
0.000215
0.000202
0.000252
0.000271
0.001571
0.000237
0.000257
0.000248
0.000249
0.000262
0.000248
0.000287
0.000231
0.000248
0.000359
0.000566
0.001463
0.000729
0.000227
0.000347
0.000236
0.000217
0.000228
0.000277
0.001752
0.000728
0.000263
0.000237
0.000280
0.000284
0.000207
0.000056
0.000179
0.000215
0.000252
0.000247
0.000247
0.000250
0.000253
0.000245
0.000245
0.000223
0.000294
0.000278
0.000260
0.000251
0.000255
0.000254
0.000265
0.001602
0.000693
0.000444
0.000283
0.000215
0.000224
0.000285
0.000269
0.000262
0.000271
0.000258
0.001454
0.000457
0.000276
0.000056
0.000181
0.000226
0.000237
0.000253
0.000262
0.000234
0.000251
0.000253
0.000254
0.000266
0.000233
0.000501
0.000396
0.000361
0.000200
0.000235
0.000256
0.001467
0.000701
0.000384
0.000360
0.000281
0.000226
0.000226
0.000266
0.000279
0.000238
0.000277
0.001542
0.000384
0.000223
0.000054
0.000206
0.000193
0.000253
0.000244
0.000253
0.000254
0.000235
0.000246
0.000262
0.000258
0.000451
0.000295
0.000335
0.000228
0.000241
0.000241
0.000276
0.000243
0.001633
0.000645
0.000365
0.000370
0.000209
0.000246
0.000259
0.000261
0.000287
0.000259
0.000263
0.001579
0.000168
0.000055
0.000220
0.000202
0.000218
0.000252
0.000260
0.000262
0.000260
0.000352
0.000367
0.000426
0.000371
0.000400
0.000311
0.000210
0.000241
0.000228
0.000298
0.000237
0.001397
0.000892
0.000309
0.000199
0.000487
0.000202
0.000212
0.000261
0.000276
0.000256
0.000272
0.000271
0.000458
0.000056
0.000221
0.000297
0.000200
0.000242
0.000251
0.000256
0.000227
0.000227
0.000263
0.000264
0.000246
0.000240
0.000313
0.000444
0.000455
0.000424
0.000232
0.000257
0.000257
0.000247
0.000257
0.000357
0.001472
0.000975
0.000257
0.000214
0.000276
0.000255
0.000281
0.000251
0.000230
0.000056
0.000186
0.001382
0.000268
0.000217
0.000196
0.000251
0.000256
0.000237
0.000233
0.000250
0.000261
0.000263
0.000255
0.000477
0.000255
0.000450
0.000328
0.000214
0.000256
0.000269
0.000268
0.000238
0.000255
0.000264
0.001453
0.000634
0.000297
0.000394
0.000370
0.000398
0.000266
0.000073
0.000173
0.000238
0.000330
0.001324
0.000235
0.000259
0.000198
0.000266
0.000252
0.000250
0.000267
0.000244
0.000269
0.000328
0.000604
0.000335
0.000196
0.000319
0.000270
0.000216
0.000243
0.000275
0.000232
0.000272
0.000267
0.001524
0.000749
0.000308
0.000270
0.000279
0.000206
0.000056
0.000182
0.000239
0.000460
0.000382
0.001305
0.000245
0.000196
0.000210
0.000239
0.000241
0.000244
0.000259
0.000249
0.000223
0.000252
0.000259
0.000268
0.000238
0.000250
0.000261
0.000267
0.000263
0.000332
0.000307
0.000232
0.000255
0.000258
0.001537
0.000229
0.000229
0.000161
0.000056
0.000193
0.000216
0.000253
0.000331
0.000351
0.000338
0.000404
0.000255
0.001543
0.000284
0.000292
0.000451
0.000351
0.000250
0.000500
0.000219
0.000215
0.000232
0.000265
0.000272
0.000275
0.000268
0.000262
0.000270
0.000259
0.000419
0.000501
0.000289
0.001502
0.000252
0.000175
0.000056
0.000229
0.000206
0.000256
0.000241
0.000250
0.000238
0.000263
0.000343
0.000403
0.002066
0.000209
0.000214
0.000250
0.000253
0.000271
0.000331
0.000233
0.000224
0.000333
0.000358
0.000397
0.000405
0.001529
0.000216
0.000216
0.000505
0.001763
0.000292
0.000261
0.001491
0.000193
0.000056
0.000221
0.000449
0.000402
0.000240
0.000262
0.000230
0.000247
0.000268
0.000267
0.000239
0.000245
0.000347
0.000406
0.000371
0.000386
0.000293
0.000206
0.001558
0.000561
0.001925
0.000288
0.000263
0.000216
0.001587
0.002014
0.000731
0.000279
0.000209
0.000256
0.000486
0.000353
0.000055
0.000216
0.000212
0.000256
0.000247
0.001487
0.001672
0.001075
0.000226
0.000216
0.001576
0.001982
0.000226
0.000313
0.000406
0.000278
0.000476
0.000473
0.000229
0.000250
0.000230
0.000250
0.000258
0.000269
0.001560
0.001313
0.001419
0.000265
0.000240
0.000264
0.000350
0.000322
0.000056
0.000233
0.000222
0.000208
0.000229
0.000236
0.000238
0.000257
0.000242
0.000257
0.000260
0.000233
0.000325
0.000407
0.000518
0.000334
0.000194
0.000223
0.000274
0.000264
0.000258
0.000260
0.001445
0.000420
0.000428
0.002075
0.000256
0.000242
0.000586
0.000225
0.000425
0.000160
0.000056
0.000254
0.000251
0.000504
0.000309
0.000222
0.000203
0.000233
0.000269
0.000233
0.000256
0.000240
0.000269
0.000253
0.001612
0.001415
0.001242
0.000253
0.000235
0.000215
0.000242
0.000283
0.000281
0.000256
0.000246
0.002273
0.000217
0.000217
0.000288
0.000325
0.000301
0.000245
0.000055
0.000190
0.000365
0.000601
0.000322
0.000224
0.000186
0.000230
0.000265
0.001880
0.001447
0.000237
0.000382
0.000392
0.000359
0.000266
0.000218
0.000222
0.000274
0.000266
0.000260
0.000273
0.000256
0.000471
0.000233
0.000264
0.000288
0.000242
0.000276
0.000275
0.000252
0.000220
0.000056
0.000190
0.000230
0.000250
0.000246
0.000243
0.000266
0.001546
0.001492
0.001334
0.000208
0.000208
0.000216
0.000270
0.000262
0.000253
0.000250
0.000241
0.002178
0.000214
0.000211
0.000257
0.000268
0.000248
0.000270
0.000271
0.000248
0.000266
0.000260
0.000278
0.000258
0.000193
0.000056
0.001507
0.000311
0.002381
0.000263
0.000292
0.000301
0.000246
0.000254
0.000260
0.000245
0.000246
0.000258
0.000230
0.000240
0.000268
0.000260
0.000258
0.000275
0.000256
0.000274
0.000261
0.000278
0.000275
0.000272
0.000248
0.000246
0.000257
0.000261
0.000269
0.000274
0.000406
0.000056
0.000196
0.002559
0.000331
0.000201
0.000195
0.000219
0.000248
0.000260
0.000252
0.000345
0.000362
0.000304
0.000337
0.000272
0.000200
0.002221
0.000220
0.000222
0.000243
0.000519
0.000456
0.000241
0.000206
0.000244
0.000263
0.000241
0.000269
0.000279
0.000264
0.001773
0.001128
0.000057
0.000187
0.000213
0.000313
0.000387
0.000372
0.000246
0.000225
0.000214
0.000249
0.000266
0.000259
0.000248
0.000242
0.000246
0.000278
0.000223
0.000429
0.000587
0.000319
0.000250
0.000218
0.000240
0.000281
0.000259
0.000257
0.000238
0.000262
0.000274
0.000252
0.000278
0.000412
0.000056
0.001112
0.000207
0.000401
0.000561
0.000197
0.000193
0.000200
0.000233
0.002319
0.000386
0.000329
0.000306
0.000207
0.000281
0.000342
0.000262
0.000271
0.000250
0.000269
0.000235
0.000248
0.000318
0.000670
0.000417
0.001799
0.001319
0.000542
0.000529
0.000226
0.000264
0.000212
0.000056
0.000214
0.000364
0.000227
0.000246
0.000239
0.000238
0.000253
0.000238
0.000254
0.000257
0.000254
0.000244
0.000238
0.000247
0.000364
0.000557
0.001878
0.001386
0.000337
0.000420
0.000449
0.000245
0.000270
0.000237
0.002203
0.000475
0.000367
0.000252
0.000275
0.000284
0.000211
0.000056
0.000195
0.000224
0.000253
0.000242
0.000247
0.000335
0.000456
0.000286
0.000320
0.000241
0.000227
0.000277
0.000238
0.002097
0.000363
0.000388
0.000233
0.000234
0.000264
0.000264
0.000255
0.002438
0.000378
0.000212
0.000246
0.000253
0.000247
0.000282
0.000266
0.000287
0.000216
0.000055
0.000214
0.000406
0.000497
0.000393
0.000221
0.000212
0.000201
0.000251
0.000267
0.001981
0.000326
0.000365
0.000261
0.000255
0.000198
0.000259
0.000265
0.000252
0.002271
0.000370
0.000223
0.000270
0.000269
0.000258
0.000264
0.000241
0.000290
0.000259
0.000263
0.000254
0.000210
0.000055
0.000228
0.000203
0.000253
0.000224
0.000241
0.000257
0.000243
0.000247
0.000227
0.002180
0.000278
0.000235
0.000221
0.000488
0.000203
0.000216
0.000261
0.000281
0.000261
0.000265
0.002025
0.000252
0.000366
0.000369
0.000501
0.000336
0.000279
0.000259
0.000216
0.000254
0.000229
0.000057
0.000178
0.000221
0.000248
0.000240
0.000252
0.000380
0.000204
0.002344
0.000201
0.000227
0.000226
0.000263
0.000236
0.000250
0.000297
0.002215
0.000504
0.000224
0.000256
0.000246
0.000256
0.000262
0.000283
0.000273
0.000264
0.000252
0.000280
0.000260
0.000258
0.000321
0.000158
0.000056
0.000176
0.003014
0.000246
0.000238
0.000227
0.000247
0.000247
0.000294
0.000383
0.000478
0.002045
0.000258
0.000236
0.000260
0.000316
0.000548
0.000376
0.000295
0.000226
0.000201
0.000250
0.000264
0.000266
0.000249
0.000235
0.000271
0.000262
0.000273
0.000392
0.000614
0.000313
0.000057
0.000182
0.000268
0.000267
0.000217
0.000239
0.000252
0.000251
0.000246
0.001542
0.002128
0.000512
0.000267
0.000452
0.000754
0.000328
0.000206
0.000211
0.000245
0.000271
0.000250
0.000270
0.000245
0.000265
0.000248
0.001829
0.001446
0.000293
0.000277
0.000289
0.000365
0.000387
0.000057
0.001928
0.000226
0.000234
0.000206
0.000291
0.000327
0.000487
0.000309
0.000317
0.000223
0.000225
0.000217
0.000246
0.000263
0.000260
0.000265
0.000253
0.000260
0.001913
0.000206
0.000212
0.000246
0.000263
0.000301
0.000259
0.000257
0.001600
0.000274
0.000213
0.000219
0.000194
0.000056
0.000200
0.000205
0.000260
0.000219
0.000258
0.000235
0.000301
0.000396
0.000364
0.000389
0.000192
0.000203
0.000338
0.000330
0.000375
0.000351
0.000203
0.000217
0.000259
0.000382
0.000586
0.000365
0.000236
0.000215
0.000255
0.000250
0.000253
0.000271
0.000273
0.000281
0.000205
0.000057
0.001459
0.000366
0.000227
0.002009
0.000338
0.000409
0.000302
0.000385
0.000198
0.000213
0.000263
0.000253
0.000240
0.000251
0.000266
0.000278
0.000441
0.000226
0.000568
0.000258
0.000375
0.000233
0.000228
0.000272
0.000325
0.000229
0.000249
0.000268
0.000373
0.000557
0.001314
0.000056
0.000190
0.000206
0.002077
0.000291
0.000313
0.000268
0.000255
0.000255
0.000263
0.000244
0.000223
0.000257
0.000254
0.000252
0.000268
0.000335
0.000778
0.001686
0.000258
0.000251
0.000258
0.000264
0.000372
0.000546
0.001466
0.000272
0.000363
0.002002
0.000230
0.000250
0.000187
0.000056
0.000206
0.000208
0.000224
0.000246
0.000239
0.000241
0.000253
0.000276
0.000353
0.000277
0.000385
0.000360
0.000335
0.000308
0.000218
0.000270
0.000251
0.000237
0.000260
0.000269
0.000275
0.000306
0.000272
0.000246
0.000280
0.001567
0.000288
0.000399
0.001990
0.000275
0.000160
0.000056
0.000217
0.000218
0.000237
0.000248
0.000471
0.000226
0.000246
0.000346
0.000411
0.000327
0.000229
0.000231
0.000244
0.000269
0.000277
0.000326
0.000517
0.000327
0.000262
0.000374
0.000643
0.000364
0.001572
0.000248
0.000247
0.002060
0.000313
0.000217
0.000216
0.000269
0.000215
0.000057
0.000202
0.000233
0.000214
0.000243
0.000258
0.000262
0.000276
0.000245
0.000260
0.000305
0.001831
0.000275
0.000395
0.000326
0.000461
0.000380
0.001491
0.000348
0.000229
0.000296
0.002111
0.000554
0.000238
0.000223
0.000235
0.000271
0.000496
0.000232
0.000259
0.000262
0.000230
0.000057
0.000311
0.000324
0.000397
0.000241
0.000210
0.000221
0.000260
0.000255
0.000262
0.000295
0.000234
0.000246
0.000257
0.000261
0.000319
0.000562
0.001257
0.000255
0.000316
0.002019
0.000319
0.000237
0.000207
0.000251
0.000236
0.000294
0.000265
0.000265
0.000244
0.000280
0.000205
0.000056
0.000224
0.000435
0.002048
0.000215
0.000239
0.000238
0.000232
0.000314
0.000474
0.001490
0.000272
0.000368
0.000335
0.002004
0.000238
0.000230
0.000267
0.000271
0.000261
0.000234
0.000292
0.000285
0.000255
0.000322
0.000519
0.000433
0.000276
0.002198
0.000514
0.000512
0.000411
0.000056
0.000213
0.000223
0.000214
0.002034
0.000194
0.000233
0.000211
0.000281
0.000199
0.000251
0.000246
0.000266
0.000250
0.000300
0.000494
0.000359
0.001290
0.000244
0.000263
0.000270
0.000225
0.000255
0.000263
0.000265
0.000409
0.000461
0.000368
0.000253
0.001691
0.000224
0.000144
0.000057
0.000195
0.000210
0.000226
0.000231
0.000248
0.000259
0.000247
0.000251
0.000254
0.000362
0.000434
0.001427
0.000210
0.000200
0.000232
0.000257
0.000258
0.000259
0.000269
0.000524
0.000530
0.000319
0.000219
0.001564
0.000264
0.000230
0.000300
0.000262
0.000269
0.000260
0.000214
0.000057
0.000198
0.000218
0.000273
0.000262
0.000259
0.000236
0.000241
0.000229
0.000263
0.000240
0.000251
0.000258
0.000253
0.000261
0.001571
0.000234
0.000262
0.000237
0.000338
0.000329
0.000361
0.000262
0.000217
0.000265
0.000244
0.000260
0.001461
0.000297
0.000215
0.000221
0.000179
0.000056
0.000192
0.000228
0.000240
0.000264
0.000271
0.000223
0.000252
0.000259
0.000225
0.000258
0.000246
0.000251
0.000234
0.000309
0.000415
0.000345
0.000264
0.001584
0.000333
0.000212
0.000211
0.000236
0.000257
0.000334
0.000389
0.000442
0.000407
0.000237
0.000230
0.001589
0.000190
0.000056
0.000308
0.000417
0.000391
0.000227
0.000195
0.000220
0.000237
0.000267
0.000257
0.000243
0.000236
0.000242
0.001468
0.000339
0.000305
0.000195
0.000230
0.000255
0.000267
0.000266
0.000255
0.000242
0.000260
0.000269
0.000251
0.000467
0.000430
0.000337
0.000280
0.000203
0.000203
0.000055
0.000211
0.000224
0.000509
0.000358
0.000325
0.000251
0.000220
0.000251
0.000250
0.000252
0.000248
0.000225
0.000258
0.000248
0.001342
0.000261
0.000221
0.000216
0.000271
0.000271
0.000233
0.000258
0.000259
0.000263
0.000250
0.000257
0.000414
0.000594
0.000470
0.000230
0.000188
0.000057
0.000166
0.001544
0.000303
0.000246
0.000564
0.000329
0.000200
0.000253
0.000251
0.000256
0.000249
0.000255
0.000272
0.000265
0.000270
0.001529
0.000234
0.000294
0.000266
0.000256
0.000257
0.000256
0.000266
0.000258
0.000265
0.000342
0.000414
0.000337
0.000368
0.000247
0.000151
0.000075
0.000173
0.000234
0.000234
0.001765
0.000336
0.000347
0.000198
0.000207
0.000238
0.000288
0.000258
0.000259
0.000257
0.000259
0.000237
0.000265
0.000514
0.001288
0.000204
0.000225
0.001540
0.000470
0.000530
0.000287
0.000292
0.000208
0.000270
0.000466
0.000242
0.000254
0.000206
0.000055
0.000282
0.000217
0.000222
0.000238
0.000246
0.000258
0.000237
0.000262
0.000257
0.000237
0.000255
0.000252
0.000342
0.000537
0.001600
0.001565
0.000296
0.000609
0.000233
0.000249
0.000240
0.000253
0.000246
0.000254
0.000254
0.000266
0.000264
0.000267
0.001602
0.000316
0.000139
0.000056
0.000223
0.000338
0.000367
0.000316
0.000263
0.000195
0.000229
0.000390
0.000364
0.001440
0.000346
0.001547
0.000315
0.000502
0.000456
0.000259
0.000344
0.000338
0.000344
0.000297
0.000223
0.000364
0.001552
0.000532
0.000240
0.000243
0.000256
0.000246
0.000264
0.000274
0.000215
0.000056
0.000199
0.000210
0.000260
0.000252
0.000241
0.001656
0.000950
0.000899
0.000255
0.000221
0.000252
0.000262
0.000252
0.000260
0.000254
0.000252
0.000256
0.000280
0.000250
0.000277
0.001511
0.000271
0.000244
0.000231
0.000204
0.000262
0.000262
0.000283
0.000267
0.000277
0.000205
0.000057
0.000207
0.000192
0.001533
0.000924
0.000398
0.000321
0.000225
0.000205
0.000244
0.000255
0.000248
0.000249
0.000245
0.002147
0.000380
0.000207
0.000202
0.000244
0.000264
0.000258
0.000203
