0.000111
0.021108
0.000438
0.000411
0.000261
0.000281
0.000307
0.000252
0.000331
0.000282
0.000253
0.000344
0.000487
0.000487
0.000350
0.000419
0.000258
0.000342
0.000354
0.000407
0.000319
0.001936
0.000691
0.000249
0.000259
0.000297
0.000312
0.000318
0.000434
0.000389
0.000487
0.000310
0.000056
0.000210
0.000270
0.000272
0.000262
0.000276
0.000243
0.000286
0.000282
0.000247
0.000351
0.000371
0.000430
0.000321
0.000259
0.000410
0.000300
0.000367
0.000246
0.000254
0.001703
0.000317
0.000259
0.000450
0.000254
0.000264
0.000280
0.000289
0.000294
0.000276
0.000330
0.000418
0.000058
0.000198
0.000244
0.000263
0.000259
0.000252
0.000248
0.000260
0.000257
0.000285
0.001666
0.000231
0.000236
0.000265
0.000278
0.000276
0.000249
0.000264
0.000255
0.000359
0.001800
0.000228
0.000283
0.000441
0.000463
0.000356
0.000245
0.000247
0.000453
0.000578
0.000702
0.000191
0.000058
0.000226
0.000248
0.000252
0.000240
0.000291
0.000258
0.000246
0.000617
0.000376
0.000261
0.000258
0.000244
0.000244
0.000248
0.000256
0.000258
0.000240
0.000275
0.000295
0.000316
0.001686
0.000263
0.000260
0.000413
0.000308
0.000687
0.000758
0.000462
0.000321
0.000237
0.000186
0.000057
0.000204
0.000246
0.000269
0.000237
0.000259
0.000260
0.000275
0.000457
0.001461
0.000219
0.000248
0.000243
0.000257
0.000259
0.000258
0.000288
0.000254
0.000844
0.001373
0.000276
0.000459
0.000262
0.000203
0.000242
0.000257
0.000261
0.000262
0.000271
0.000254
0.000295
0.000173
0.000057
0.000207
0.000249
0.000241
0.000266
0.000235
0.000250
0.000236
0.000254
0.000237
0.000258
0.001626
0.000269
0.000239
0.000236
0.000251
0.000252
0.000242
0.000253
0.000249
0.000260
0.000268
0.001666
0.000291
0.000255
0.000427
0.000254
0.000260
0.000258
0.000263
0.000270
0.000188
0.000056
0.000195
0.000247
0.000234
0.000247
0.000245
0.000246
0.000259
0.000235
0.000260
0.000241
0.000274
0.000256
0.000255
0.000274
0.001636
0.000273
0.000301
0.000209
0.000262
0.000271
0.000264
0.000243
0.000243
0.000266
0.001789
0.000366
0.000364
0.000346
0.000266
0.000273
0.000200
0.000056
0.000208
0.000232
0.000249
0.000271
0.000236
0.000238
0.000324
0.000382
0.000374
0.000452
0.000211
0.000243
0.000256
0.000247
0.001567
0.000516
0.000329
0.000411
0.000319
0.000222
0.000274
0.000283
0.000269
0.001733
0.000482
0.000500
0.000238
0.000248
0.000254
0.000263
0.000184
0.000057
0.000202
0.000231
0.000256
0.000261
0.000352
0.000415
0.000382
0.000279
0.000221
0.000251
0.000260
0.000237
0.000256
0.001865
0.000324
0.000297
0.000228
0.000247
0.000275
0.000284
0.000248
0.000259
0.000273
0.001946
0.000249
0.000392
0.000257
0.000242
0.000264
0.000405
0.000324
0.000056
0.000215
0.000379
0.000332
0.000296
0.000248
0.000251
0.000245
0.000261
0.000243
0.000234
0.000233
0.000251
0.001631
0.000254
0.000333
0.000231
0.000256
0.000248
0.000252
0.000278
0.000279
0.000325
0.000248
0.001800
0.000265
0.000497
0.000244
0.000256
0.000252
0.000269
0.000283
0.000055
0.000320
0.000600
0.000601
0.000225
0.000226
0.000271
0.000231
0.000226
0.000258
0.000249
0.000256
0.001698
0.000241
0.000445
0.000372
0.000220
0.000245
0.000226
0.000246
0.000259
0.000260
0.001863
0.000232
0.000242
0.002067
0.000529
0.000367
0.000244
0.000253
0.000268
0.000187
0.000057
0.000212
0.000243
0.000247
0.000241
0.000260
0.001621
0.000251
0.000231
0.000255
0.000249
0.000251
0.000260
0.000227
0.000258
0.000282
0.000396
0.000651
0.000234
0.000240
0.000273
0.000261
0.000252
0.000243
0.000429
0.000430
0.000295
0.000341
0.000545
0.000442
0.000255
0.000206
0.000057
0.000192
0.000234
0.000253
0.000251
0.000234
0.000240
0.000240
0.000416
0.000457
0.001704
0.000196
0.000240
0.000236
0.000252
0.000255
0.000271
0.000440
0.000477
0.000351
0.000272
0.000227
0.000294
0.000287
0.000261
0.000257
0.000443
0.000344
0.000563
0.000433
0.000518
0.000172
0.000057
0.000183
0.000264
0.000237
0.000220
0.000246
0.000237
0.000254
0.000246
0.000241
0.000286
0.000338
0.000538
0.001295
0.000248
0.000238
0.000243
0.000258
0.000248
0.000249
0.000259
0.000291
0.000428
0.000416
0.000267
0.000270
0.000253
0.000256
0.000275
0.000262
0.000259
0.000381
0.000056
0.000217
0.000233
0.000229
0.000265
0.000554
0.000448
0.000206
0.000261
0.000235
0.000257
0.000248
0.000237
0.000292
0.000252
0.000240
0.000481
0.000426
0.001637
0.000270
0.000236
0.000270
0.000252
0.000257
0.000240
0.000265
0.000446
0.000425
0.000564
0.000238
0.000254
0.000181
0.000057
0.000226
0.000433
0.000238
0.000211
0.000267
0.000243
0.000340
0.000519
0.000479
0.000169
0.000226
0.000265
0.000275
0.000238
0.000517
0.000348
0.000223
0.000256
0.000444
0.001589
0.000278
0.000229
0.000528
0.000238
0.000283
0.000279
0.000253
0.000333
0.000559
0.000459
0.000191
0.000055
0.000216
0.000232
0.000242
0.000240
0.000421
0.000300
0.000293
0.000221
0.000379
0.000447
0.000513
0.000175
0.000235
0.000239
0.000256
0.000265
0.000255
0.000252
0.000239
0.000346
0.000291
0.000310
0.001868
0.000241
0.000254
0.000258
0.000284
0.000348
0.000436
0.000685
0.000422
0.000058
0.000224
0.000327
0.000286
0.000425
0.000393
0.000209
0.000252
0.000314
0.000497
0.000410
0.000262
0.000259
0.000225
0.000266
0.000264
0.000239
0.000248
0.000274
0.000268
0.000261
0.000259
0.000351
0.000729
0.001331
0.000326
0.000436
0.000417
0.000251
0.000425
0.000408
0.000336
0.000057
0.000256
0.000366
0.000276
0.000210
0.000226
0.000243
0.000417
0.000236
0.000225
0.000405
0.000386
0.000470
0.000226
0.000277
0.000243
0.000247
0.000359
0.000393
0.000354
0.000234
0.000246
0.000474
0.000537
0.001691
0.000234
0.000451
0.000289
0.000232
0.000251
0.000454
0.000320
0.000057
0.000202
0.000219
0.000259
0.000233
0.000247
0.000246
0.000251
0.000320
0.000464
0.000231
0.000479
0.000385
0.000290
0.000568
0.000255
0.000237
0.000272
0.000264
0.000231
0.000347
0.000219
0.000256
0.000265
0.000457
0.000447
0.001662
0.000268
0.000239
0.000237
0.000276
0.000187
0.000056
0.000295
0.000485
0.000327
0.000226
0.000250
0.000247
0.000255
0.000240
0.000258
0.000251
0.000225
0.000249
0.000410
0.000545
0.000427
0.000236
0.000251
0.000250
0.000348
0.000375
0.000383
0.000365
0.000387
0.000327
0.000256
0.000255
0.000266
0.000272
0.001791
0.000304
0.000164
0.000056
0.000205
0.000232
0.000315
0.000206
0.000358
0.000548
0.000303
0.000219
0.000260
0.000266
0.000247
0.000244
0.000523
0.000455
0.000478
0.000282
0.000258
0.000273
0.000420
0.000468
0.000358
0.000389
0.000507
0.000439
0.000240
0.000248
0.000261
0.000243
0.000265
0.001712
0.000315
0.000058
0.000296
0.000329
0.000209
0.000235
0.000257
0.000246
0.000239
0.000502
0.000369
0.000309
0.000300
0.000239
0.000354
0.000791
0.000226
0.000226
0.000252
0.000258
0.000252
0.000267
0.000281
0.000255
0.000238
0.000267
0.000315
0.000369
0.000402
0.000354
0.000231
0.000257
0.000190
0.000057
0.000446
0.000276
0.000475
0.000259
0.000210
0.000241
0.000246
0.000252
0.000243
0.000220
0.000251
0.000295
0.000275
0.000392
0.000523
0.000449
0.000313
0.000319
0.000378
0.000339
0.000295
0.000252
0.000242
0.000263
0.001742
0.000254
0.001719
0.000957
0.000364
0.000345
0.000167
0.000056
0.000203
0.000236
0.000234
0.000246
0.000260
0.000248
0.000255
0.000249
0.000241
0.000314
0.000408
0.000392
0.000333
0.000385
0.000246
0.000261
0.000245
0.000287
0.000232
0.000252
0.000253
0.000279
0.001783
0.000250
0.000254
0.000263
0.000272
0.000267
0.001873
0.000538
0.000222
0.000058
0.000213
0.000215
0.000236
0.000241
0.000253
0.000261
0.000226
0.000254
0.000255
0.000350
0.000592
0.000486
0.000241
0.000200
0.000240
0.000254
0.000321
0.000444
0.000370
0.000261
0.001815
0.000210
0.000245
0.000248
0.000258
0.000274
0.000242
0.000258
0.000338
0.000315
0.000404
0.000056
0.000248
0.000214
0.000243
0.000259
0.000245
0.000245
0.000253
0.000257
0.000242
0.000255
0.000237
0.000329
0.000325
0.000426
0.000319
0.000259
0.000476
0.000233
0.000247
0.000263
0.000251
0.000263
0.000277
0.000255
0.000299
0.001808
0.000205
0.000248
0.000260
0.000241
0.000192
0.000057
0.000253
0.000376
0.000239
0.000221
0.000234
0.000233
0.000236
0.000256
0.000252
0.000226
0.000232
0.000259
0.000266
0.000378
0.000371
0.000374
0.000284
0.000240
0.000253
0.000258
0.000258
0.000260
0.000253
0.000268
0.000245
0.000266
0.000366
0.001603
0.000245
0.000242
0.000182
0.000057
0.000199
0.000240
0.000253
0.000262
0.000465
0.000217
0.000385
0.000349
0.000228
0.000257
0.000250
0.000239
0.000247
0.000259
0.000259
0.000261
0.000240
0.000260
0.000253
0.000260
0.000263
0.000268
0.000251
0.000240
0.000234
0.000282
0.000282
0.000259
0.000257
0.000267
0.000190
0.000056
0.000214
0.000235
0.000254
0.000260
0.000233
0.000255
0.000241
0.000264
0.000281
0.000239
0.000227
0.000252
0.000249
0.000254
0.000271
0.000259
0.000257
0.000243
0.000323
0.000231
0.000274
0.000290
0.000274
0.000250
0.000277
0.000271
0.000272
0.000250
0.000260
0.000435
0.000682
0.000059
0.000214
0.000291
0.000211
0.000240
0.000232
0.000257
0.000239
0.000249
0.000255
0.000236
0.000270
0.000287
0.000512
0.000477
0.001519
0.000225
0.000497
0.000236
0.000247
0.000452
0.000428
0.000396
0.000228
0.000274
0.000264
0.000250
0.000286
0.000248
0.000313
0.000252
0.000193
0.000057
0.000380
0.000399
0.000351
0.000305
0.000205
0.000257
0.000250
0.000240
0.000236
0.000244
0.000259
0.000254
0.000231
0.000301
0.000308
0.000469
0.000472
0.001762
0.000234
0.000255
0.000362
0.000391
0.000458
0.000290
0.000321
0.000308
0.000309
0.000232
0.000232
0.000251
0.000190
0.000056
0.000213
0.000233
0.000236
0.000282
0.000383
0.000427
0.000360
0.000236
0.000253
0.000216
0.000246
0.000271
0.000269
0.000259
0.000248
0.000255
0.000261
0.000540
0.000417
0.000362
0.000228
0.001748
0.000325
0.000483
0.000602
0.000389
0.000338
0.000209
0.000254
0.000269
0.000440
0.000056
0.000198
0.000257
0.000226
0.000345
0.000388
0.000439
0.000381
0.000243
0.000217
0.000284
0.000249
0.000258
0.000252
0.000306
0.000300
0.000231
0.000236
0.000358
0.000451
0.000448
0.000457
0.001818
0.000249
0.000560
0.000376
0.000365
0.000232
0.000272
0.000278
0.000266
0.000193
0.000055
0.000209
0.000340
0.000360
0.000361
0.000378
0.000285
0.000356
0.000214
0.000241
0.000262
0.000276
0.000228
0.000250
0.000250
0.000251
0.000257
0.000308
0.000356
0.000529
0.000394
0.000277
0.000229
0.000286
0.001685
0.000569
0.000484
0.000569
0.000233
0.000269
0.000310
0.000157
0.000056
0.000190
0.000237
0.000322
0.000256
0.000282
0.000356
0.000408
0.000320
0.000258
0.000510
0.000247
0.000221
0.000265
0.000269
0.000279
0.000266
0.000213
0.000290
0.000546
0.000424
0.000255
0.000238
0.000257
0.000253
0.000263
0.000266
0.000243
0.000254
0.000266
0.000287
0.000182
0.000057
0.000369
0.000295
0.000232
0.000253
0.000246
0.000259
0.000242
0.000289
0.000248
0.000240
0.000258
0.000356
0.000419
0.000398
0.000359
0.000263
0.000224
0.000238
0.000256
0.000268
0.000305
0.000241
0.000238
0.000253
0.000285
0.000331
0.000371
0.000381
0.000375
0.000236
0.000173
0.000056
0.000207
0.000231
0.000273
0.000249
0.000238
0.000248
0.000259
0.000257
0.000491
0.000212
0.000260
0.000249
0.000249
0.000266
0.000269
0.000273
0.000262
0.000357
0.000214
0.000241
0.000258
0.000261
0.000262
0.000269
0.000279
0.000261
0.000262
0.000260
0.000511
0.000243
0.000158
0.000056
0.000210
0.000234
0.000257
0.000259
0.000218
0.000248
0.000365
0.000410
0.000234
0.000236
0.000254
0.000256
0.000234
0.000255
0.000411
0.001818
0.000241
0.000266
0.000281
0.000381
0.000366
0.000358
0.000385
0.000423
0.000335
0.000409
0.000245
0.000267
0.000268
0.000274
0.001394
0.000057
0.000375
0.000284
0.000281
0.000223
0.000232
0.000251
0.000236
0.000256
0.000245
0.000264
0.000247
0.000259
0.000252
0.000317
0.000467
0.001685
0.000235
0.000222
0.000252
0.000269
0.000235
0.000272
0.000404
0.000376
0.000256
0.000358
0.000223
0.000267
0.000276
0.000256
0.000198
0.000056
0.001209
0.000518
0.000338
0.000274
0.000249
0.000216
0.000228
0.000241
0.000488
0.000219
0.000245
0.000248
0.000339
0.000613
0.000323
0.000339
0.000241
0.000231
0.000338
0.000350
0.000276
0.000252
0.000272
0.000249
0.000264
0.000492
0.000647
0.000261
0.000250
0.000265
0.000168
0.000056
0.000213
0.000212
0.000241
0.000247
0.001535
0.000228
0.000228
0.000251
0.000239
0.000252
0.000248
0.000257
0.000243
0.000261
0.000269
0.000306
0.000407
0.000665
0.000283
0.001724
0.000267
0.000270
0.000279
0.000462
0.000542
0.000424
0.000221
0.000252
0.000252
0.000263
0.000204
0.000056
0.000221
0.000254
0.000234
0.000324
0.001244
0.000244
0.000246
0.000259
0.000241
0.000244
0.000233
0.000246
0.000282
0.000247
0.000250
0.000306
0.000498
0.000375
0.000312
0.000277
0.000259
0.000271
0.000253
0.000227
0.000291
0.000287
0.000221
0.000274
0.000269
0.000308
0.000591
0.000055
0.000228
0.000247
0.000241
0.000255
0.000264
0.000242
0.000241
0.000257
0.000269
0.000254
0.001431
0.000236
0.000240
0.000245
0.000244
0.000245
0.000269
0.000269
0.000259
0.000269
0.000263
0.000547
0.000378
0.000402
0.000243
0.000287
0.001738
0.000266
0.000250
0.000318
0.000455
0.000055
0.000203
0.000391
0.000452
0.000503
0.000516
0.000532
0.001508
0.000411
0.000517
0.000653
0.000552
0.000732
0.000513
0.000573
0.000585
0.001887
0.000370
0.000469
0.000402
0.000322
0.000215
0.000303
0.000261
0.000269
0.000268
0.000269
0.000295
0.000285
0.000260
0.000297
0.001365
0.000059
0.000186
0.000235
0.000240
0.000238
0.000256
0.000257
0.000235
0.000244
0.000247
0.000253
0.000239
0.000237
0.000259
0.000250
0.000270
0.000291
0.001784
0.000274
0.000251
0.000242
0.000258
0.000260
0.000267
0.000262
0.000466
0.000392
0.000326
0.000242
0.000269
0.000285
0.000206
0.000055
0.000205
0.001361
0.000328
0.000261
0.000258
0.000237
0.000245
0.000234
0.000238
0.000231
0.000218
0.000250
0.000246
0.000505
0.000369
0.000282
0.000284
0.000237
0.001926
0.000222
0.000255
0.000266
0.000258
0.000262
0.000271
0.000286
0.000267
0.000251
0.000266
0.000316
0.000208
0.000055
0.000217
0.000243
0.000247
0.001443
0.000217
0.000249
0.000254
0.000240
0.000241
0.000268
0.000247
0.000249
0.000243
0.000259
0.000259
0.000255
0.000264
0.000262
0.000274
0.000252
0.000282
0.001751
0.000276
0.001758
0.000264
0.000241
0.000279
0.000261
0.000269
0.000281
0.000201
0.000055
0.000206
0.000234
0.001339
0.000231
0.000256
0.000248
0.000257
0.000257
0.000239
0.000253
0.000248
0.000249
0.000258
0.000262
0.000252
0.000270
0.000280
0.000263
0.000301
0.000242
0.001862
0.000234
0.001850
0.000215
0.000259
0.000285
0.000227
0.000248
0.000258
0.000276
0.000191
0.000055
0.001434
0.000233
0.000217
0.000245
0.000242
0.000237
0.000370
0.000272
0.000248
0.000256
0.000249
0.000259
0.000234
0.000382
0.000359
0.000309
0.000245
0.000272
0.000262
0.000247
0.000273
0.000336
0.000230
0.000252
0.000270
0.000271
0.000272
0.000420
0.000560
0.000368
0.000187
0.000056
0.000196
0.000242
0.000266
0.000305
0.000374
0.000249
0.001726
0.000276
0.000275
0.000274
0.000252
0.000268
0.000268
0.000267
0.000295
0.000302
0.000354
0.000593
0.000358
0.000262
0.000285
0.000289
0.000256
0.000274
0.000330
0.000258
0.000260
0.000257
0.000252
0.000403
0.000356
0.000057
0.000266
0.000457
0.000274
0.000258
0.000248
0.000226
0.000241
0.000237
0.000258
0.000254
0.001512
0.000232
0.000219
0.000256
0.000240
0.000290
0.000265
0.000252
0.000262
0.000267
0.000273
0.000330
0.000548
0.000335
0.000294
0.000265
0.000268
0.000257
0.000235
0.000313
0.000158
0.000055
0.000202
0.000232
0.000372
0.000369
0.000374
0.000277
0.000218
0.000251
0.000253
0.000247
0.000239
0.000252
0.000254
0.000261
0.000242
0.000235
0.000460
0.001154
0.000272
0.000217
0.000277
0.000248
0.000384
0.000391
0.000253
0.000366
0.000523
0.000355
0.000395
0.000229
0.000177
0.000057
0.000221
0.000248
0.000257
0.000260
0.000261
0.000255
0.000336
0.000443
0.000366
0.000315
0.000351
0.000409
0.000377
0.000359
0.000253
0.000250
0.000254
0.000242
0.000362
0.000491
0.001276
0.000221
0.000274
0.000273
0.000229
0.000239
0.000268
0.000325
0.000576
0.000273
0.000234
0.000057
0.000216
0.000238
0.000254
0.000262
0.000221
0.000247
0.000233
0.000261
0.000314
0.000410
0.000321
0.000427
0.000242
0.000234
0.000248
0.000252
0.000257
0.000277
0.000251
0.000247
0.000441
0.000264
0.000405
0.000343
0.000347
0.000252
0.000268
0.000274
0.000253
0.000340
0.000152
0.000057
0.000299
0.000315
0.000386
0.000312
0.000476
0.000319
0.000247
0.000242
0.000246
0.000274
0.000257
0.000263
0.000237
0.000248
0.000242
0.000228
0.000273
0.000358
0.000478
0.000359
0.000235
0.000273
0.000240
0.000249
0.000264
0.000279
0.000271
0.000263
0.000282
0.000268
0.000254
0.000057
0.000240
0.000363
0.000242
0.000245
0.000245
0.000248
0.000246
0.000246
0.000286
0.000238
0.000255
0.000235
0.000295
0.000486
0.000433
0.000306
0.000234
0.000243
0.000258
0.000260
0.000264
0.000258
0.000263
0.000262
0.000276
0.000325
0.000392
0.000599
0.000411
0.000244
0.000178
0.000056
0.000394
0.000201
0.000233
0.000248
0.000245
0.000249
0.000234
0.000253
0.000256
0.000259
0.000218
0.000248
0.000265
0.000232
0.000248
0.000264
0.000254
0.000255
0.000311
0.000224
0.000263
0.000261
0.000266
0.000261
0.000262
0.000242
0.000266
0.000280
0.000255
0.000278
0.000199
0.000055
0.000200
0.000231
0.000266
0.000230
0.000232
0.000256
0.000262
0.000240
0.000256
0.000274
0.000232
0.000236
0.000257
0.000399
0.000252
0.000281
0.000263
0.000284
0.000238
0.000278
0.000270
0.000243
0.000241
0.000252
0.000264
0.000277
0.000247
0.000261
0.000274
0.000256
0.000205
0.000056
0.000219
0.000355
0.000370
0.000277
0.000299
0.000256
0.000271
0.000256
0.000220
0.000245
0.000250
0.000263
0.000246
0.000243
0.000254
0.000297
0.000225
0.000270
0.000246
0.000263
0.000277
0.000261
0.000279
0.000256
0.000266
0.000254
0.000255
0.000272
0.000270
0.000261
0.000196
0.000057
0.000200
0.000231
0.000263
0.000259
0.000489
0.000210
0.000208
0.000249
0.000302
0.000454
0.000460
0.000288
0.000242
0.000232
0.000271
0.000270
0.000236
0.000270
0.000255
0.000266
0.000269
0.000260
0.000262
0.000284
0.000492
0.000563
0.000233
0.000308
0.000262
0.000261
0.000186
0.000057
0.000194
0.000223
0.000252
0.000250
0.000301
0.000690
0.000296
0.000388
0.000199
0.000253
0.000246
0.000259
0.000248
0.000256
0.000249
0.000275
0.000278
0.000223
0.000590
0.000446
0.000311
0.000225
0.000261
0.000279
0.000279
0.000257
0.000264
0.000269
0.000250
0.000328
0.000297
0.000058
0.000286
0.000238
0.000241
0.000232
0.000259
0.000249
0.000230
0.000245
0.000248
0.000259
0.000243
0.000252
0.000245
0.000365
0.000591
0.000403
0.000241
0.000251
0.000262
0.000248
0.000265
0.000271
0.000518
0.000195
0.000261
0.000564
0.000452
0.000501
0.000235
0.000250
0.000177
0.000057
0.000223
0.000226
0.000252
0.000238
0.000252
0.000260
0.000288
0.000560
0.000474
0.000424
0.000215
0.000259
0.000282
0.000276
0.000255
0.000248
0.000239
0.000249
0.000267
0.000365
0.000348
0.000652
0.000370
0.000257
0.000359
0.000368
0.000500
0.000239
0.000265
0.000406
0.000407
0.000056
0.000270
0.000225
0.000433
0.000236
0.000224
0.000257
0.000260
0.000258
0.000229
0.000242
0.000281
0.000422
0.000330
0.000347
0.000235
0.000274
0.000233
0.000249
0.000263
0.000273
0.000275
0.000248
0.000253
0.000280
0.000276
0.000512
0.000486
0.000234
0.000263
0.000277
0.000194
0.000056
0.000192
0.000250
0.000234
0.000239
0.000250
0.000261
0.000337
0.000419
0.000440
0.000277
0.000370
0.000232
0.000240
0.000268
0.000258
0.000239
0.000253
0.000264
0.000270
0.000384
0.000522
0.000321
0.000480
0.000267
0.000389
0.000423
0.000382
0.000236
0.000260
0.000266
0.000466
0.000057
0.000246
0.000279
0.000221
0.000254
0.000274
0.000241
0.000244
0.000249
0.000248
0.000267
0.000237
0.000302
0.000494
0.000437
0.000320
0.000226
0.000266
0.000268
0.000269
0.000231
0.000249
0.000254
0.000261
0.000278
0.000273
0.000329
0.000560
0.000413
0.000236
0.000283
0.000187
0.000075
0.000183
0.000249
0.000262
0.000254
0.000246
0.000333
0.000499
0.000497
0.000340
0.000685
0.000264
0.000230
0.000236
0.000255
0.000250
0.000269
0.000274
0.000272
0.000544
0.000434
0.001435
0.000302
0.000263
0.000259
0.000293
0.000267
0.000422
0.000407
0.000322
0.000336
0.000163
0.000055
0.000198
0.000232
0.000243
0.000244
0.000245
0.000252
0.000274
0.000248
0.000251
0.000332
0.000325
0.000386
0.000266
0.000340
0.000389
0.000362
0.000229
0.000248
0.000270
0.000261
0.000239
0.000254
0.000282
0.000245
0.000320
0.000434
0.000431
0.000304
0.000247
0.000267
0.000192
0.000056
0.000195
0.000246
0.000255
0.000256
0.000242
0.000234
0.000470
0.000209
0.000241
0.000252
0.000243
0.000256
0.000265
0.000247
0.000248
0.000272
0.000260
0.000267
0.000272
0.000252
0.000263
0.000285
0.000292
0.000249
0.000261
0.000283
0.000270
0.000265
0.000263
0.000271
0.000168
0.000056
0.000207
0.000246
0.000358
0.000360
0.000377
0.000248
0.000230
0.000248
0.000266
0.000243
0.000266
0.000243
0.000263
0.000259
0.000243
0.000242
0.000247
0.000266
0.000271
0.000375
0.000431
0.000390
0.000224
0.000267
0.000282
0.000234
0.000264
0.000253
0.000273
0.000277
0.000196
0.000056
0.000342
0.000428
0.000390
0.000200
0.000256
0.000254
0.000413
0.000225
0.000228
0.000253
0.000257
0.000295
0.000347
0.000504
0.001815
0.000241
0.000247
0.000246
0.000279
0.000245
0.000315
0.000467
0.000659
0.000249
0.000235
0.000261
0.000275
0.000425
0.000278
0.000280
0.000165
0.000056
0.000234
0.000355
0.000344
0.000324
0.000497
0.000209
0.000238
0.000244
0.000271
0.000220
0.000261
0.000248
0.000263
0.000368
0.000362
0.000469
0.000224
0.000250
0.000255
0.000265
0.000266
0.000312
0.000247
0.000265
0.000280
0.000439
0.000499
0.000507
0.000369
0.000237
0.000207
0.000056
0.000211
0.000235
0.000259
0.000224
0.000251
0.000250
0.000272
0.000268
0.000470
0.000288
0.000398
0.000350
0.000219
0.000248
0.000269
0.000280
0.000322
0.000219
0.000274
0.000276
0.000239
0.000312
0.000419
0.000417
0.000284
0.000251
0.000268
0.000432
0.000419
0.000313
0.000179
0.000057
0.000190
0.000232
0.000329
0.000409
0.000403
0.000209
0.000236
0.000256
0.000263
0.000248
0.000268
0.000277
0.000202
0.000260
0.000259
0.000316
0.000397
0.000342
0.000384
0.000242
0.000492
0.000233
0.000279
0.000275
0.000320
0.000264
0.000254
0.000267
0.000493
0.000516
0.000176
0.000056
0.000219
0.000230
0.000244
0.000251
0.000241
0.000482
0.000213
0.000254
0.000269
0.000328
0.000482
0.000594
0.000213
0.000243
0.000244
0.000246
0.000259
0.000248
0.000260
0.000273
0.000234
0.000273
0.000334
0.000465
0.000343
0.000406
0.000291
0.000305
0.000315
0.000258
0.000178
0.000057
0.000239
0.000209
0.000257
0.000488
0.000354
0.000314
0.000219
0.000216
0.000244
0.000262
0.000250
0.000249
0.000256
0.000259
0.000255
0.000261
0.000243
0.000247
0.000255
0.000445
0.000371
0.000482
0.000226
0.000255
0.000273
0.000274
0.000264
0.000254
0.000285
0.000252
0.000182
0.000056
0.000273
0.000395
0.000449
0.000262
0.000206
0.000247
0.000327
0.000453
0.000287
0.000211
0.000241
0.000279
0.000248
0.000432
0.000454
0.000317
0.000205
0.000237
0.000254
0.000265
0.000269
0.000264
0.000264
0.000275
0.000262
0.000308
0.000333
0.000447
0.000318
0.000254
0.000179
0.000056
0.000216
0.000238
0.000251
0.000257
0.000247
0.000265
0.000250
0.000237
0.000248
0.000248
0.000267
0.000238
0.000261
0.001448
0.000248
0.000242
0.000263
0.000262
0.000262
0.000273
0.000265
0.000238
0.000277
0.000254
0.000270
0.000263
0.000272
0.000272
0.000263
0.000265
0.000187
0.000056
0.000219
0.000212
0.000249
0.000254
0.000237
0.000243
0.000259
0.000260
0.000228
0.000245
0.000253
0.000263
0.000255
0.000258
0.000248
0.000263
0.000245
0.000257
0.000274
0.000257
0.000253
0.000264
0.000246
0.000252
0.001288
0.000291
0.000582
0.000384
0.000355
0.000254
0.000187
0.000055
0.000194
0.000229
0.000244
0.000253
0.000414
0.000237
0.000239
0.000237
0.000255
0.000404
0.000472
0.000270
0.000240
0.000237
0.000259
0.000260
0.000254
0.000259
0.000252
0.000257
0.000260
0.000256
0.000273
0.000464
0.000461
0.000452
0.000221
0.000263
0.001365
0.000249
0.000181
0.000055
0.000317
0.000393
0.000321
0.000273
0.000223
0.000225
0.000235
0.000248
0.000259
0.000257
0.000269
0.000241
0.000284
0.000283
0.000552
0.000361
0.000331
0.000264
0.000224
0.000247
0.000263
0.000265
0.000271
0.000260
0.000274
0.000261
0.000329
0.000559
0.000419
0.000327
0.000139
0.000056
0.000202
0.000236
0.001251
0.000433
0.000261
0.000484
0.000396
0.000480
0.000274
0.000336
0.000229
0.000228
0.000258
0.000261
0.000243
0.000265
0.000297
0.000559
0.000370
0.000374
0.000260
0.000250
0.000254
0.000503
0.000230
0.000271
0.000257
0.000276
0.000290
0.000577
0.000286
0.000057
0.000359
0.000310
0.000231
0.000235
0.001670
0.000442
0.000230
0.000225
0.000248
0.000254
0.000226
0.000238
0.000250
0.000265
0.000251
0.000260
0.000238
0.000282
0.000431
0.000352
0.000450
0.000248
0.000252
0.000249
0.000263
0.000275
0.000269
0.000235
0.000263
0.000284
0.000192
0.000056
0.000376
0.000348
0.000242
0.000217
0.000246
0.000241
0.000262
0.000231
0.000232
0.000234
0.001392
0.000494
0.000260
0.000253
0.000231
0.000253
0.000272
0.000261
0.000237
0.000275
0.000272
0.000249
0.000312
0.000352
0.000399
0.000480
0.000260
0.000232
0.000281
0.000279
0.000168
0.000055
0.000207
0.000405
0.000223
0.000241
0.000341
0.000533
0.000290
0.000310
0.000466
0.000209
0.000222
0.000254
0.000259
0.000268
0.000259
0.001428
0.000348
0.000283
0.000252
0.000260
0.000281
0.000249
0.000253
0.000253
0.000258
0.000270
0.000477
0.000428
0.000282
0.000277
0.000152
0.000056
0.000223
0.000215
0.000255
0.000237
0.000226
0.000264
0.000239
0.000252
0.000261
0.000365
0.000478
0.000273
0.000251
0.000244
0.000237
0.000278
0.000271
0.000262
0.000270
0.000228
0.000255
0.000297
0.001275
0.000261
0.000244
0.000252
0.000278
0.000251
0.000265
0.000249
0.000193
0.000055
0.000232
0.000354
0.000336
0.000373
0.000239
0.000239
0.000248
0.000266
0.000254
0.000255
0.000251
0.000271
0.000239
0.000253
0.000259
0.000263
0.000266
0.000269
0.000264
0.000247
0.000253
0.000279
0.000262
0.000276
0.000296
0.000262
0.000268
0.000259
0.000261
0.000443
0.001363
0.000055
0.000210
0.000229
0.000241
0.000242
0.000253
0.000259
0.000246
0.000229
0.000243
0.000252
0.000269
0.000255
0.000256
0.000243
0.000247
0.000250
0.001731
0.000244
0.000249
0.000259
0.000248
0.000260
0.000271
0.000264
0.000264
0.000267
0.000269
0.000271
0.000275
0.000256
0.000218
0.000055
0.000295
0.000321
0.001268
0.000228
0.000235
0.000246
0.000261
0.000246
0.000262
0.000253
0.000236
0.000359
0.000376
0.000464
0.000266
0.000222
0.000254
0.000251
0.000254
0.000274
0.000240
0.000275
0.000264
0.000276
0.000265
0.000395
0.000368
0.000352
0.000323
0.000247
0.000189
0.000057
0.000223
0.000249
0.000245
0.000251
0.000252
0.000221
0.000236
0.000246
0.000430
0.001344
0.000265
0.000206
0.000258
0.000267
0.000257
0.000260
0.000263
0.000257
0.000291
0.000430
0.000406
0.000232
0.000245
0.000252
0.000274
0.000285
0.000260
0.000296
0.000267
0.000276
0.000195
0.000056
0.000211
0.000421
0.000405
0.000224
0.000229
0.000236
0.000247
0.000274
0.000270
0.000245
0.000247
0.000213
0.000445
0.000555
0.000409
0.001473
0.000249
0.000281
0.000327
0.000335
0.000498
0.000405
0.000462
0.000401
0.000234
0.000266
0.000264
0.000276
0.000259
0.000275
0.000206
0.000057
0.000191
0.000311
0.000521
0.000328
0.000375
0.000239
0.000247
0.000224
0.000252
0.000260
0.000248
0.000261
0.000270
0.000242
0.000266
0.000294
0.000343
0.000443
0.000374
0.001321
0.000265
0.000253
0.000278
0.000244
0.000430
0.000463
0.000366
0.000261
0.000289
0.000270
0.000192
0.000056
0.000198
0.000259
0.000222
0.000245
0.000265
0.000256
0.000450
0.000401
0.000363
0.000220
0.000238
0.000261
0.000269
0.000257
0.000267
0.000273
0.000252
0.000254
0.000292
0.000287
0.000423
0.000426
0.000337
0.001346
0.000414
0.000232
0.000278
0.000424
0.000466
0.000333
0.000298
0.000055
0.000201
0.000233
0.000249
0.000243
0.000251
0.000254
0.001673
0.000245
0.000228
0.000249
0.000244
0.000248
0.000250
0.000326
0.000326
0.000286
0.000278
0.000293
0.000514
0.000439
0.000274
0.000282
0.000220
0.000256
0.001507
0.000384
0.000369
0.000474
0.000318
0.000291
0.000174
0.000056
0.000221
0.000248
0.000254
0.000259
0.000242
0.000257
0.001710
0.000241
0.000239
0.000258
0.000333
0.000409
0.001435
0.000373
0.000393
0.000248
0.000248
0.000239
0.000266
0.000275
0.001597
0.000519
0.000375
0.000293
0.000240
0.000243
0.000269
0.000281
0.000244
0.000256
0.000191
0.000056
0.000210
0.000245
0.000265
0.000247
0.000262
0.000304
0.000253
0.000260
0.000245
0.000254
0.000253
0.000246
0.000262
0.000273
0.000249
0.001491
0.000286
0.000230
0.000269
0.000274
0.000276
0.000252
0.000435
0.001271
0.000271
0.000235
0.000275
0.000247
0.000400
0.000245
0.000197
0.000056
0.000187
0.000249
0.000222
0.000248
0.000240
0.000226
0.000237
0.001696
0.000247
0.000231
0.000251
0.000372
0.000222
0.000223
0.000258
0.001380
0.000239
0.000264
0.000267
0.000246
0.000265
0.000348
0.000272
0.001307
0.000287
0.000242
0.000262
0.000261
0.001383
0.000280
0.000210
0.000055
0.000285
0.000339
0.000193
0.000232
0.000254
0.000256
0.000244
0.000267
0.000272
0.000243
0.000261
0.000267
0.000252
0.000245
0.000289
0.001517
0.000248
0.000275
0.000258
0.000244
0.000280
0.000261
0.000253
0.001509
0.000345
0.000238
0.000275
0.001252
0.000278
0.000250
0.000213
0.000056
0.000243
0.000369
0.000349
0.000222
0.000234
0.000238
0.000263
0.000256
0.000264
0.000272
0.000239
0.000253
0.000258
0.000311
0.000378
0.001217
0.000252
0.000242
0.000259
0.000279
0.000231
0.000238
0.000255
0.000416
0.001177
0.000266
0.000240
0.000273
0.001325
0.000370
0.000214
0.000056
0.000278
0.000243
0.000220
0.000237
0.000240
0.000253
0.000246
0.000246
0.000275
0.000257
0.000235
0.000252
0.000248
0.000340
0.000401
0.001475
0.000224
0.000247
0.000298
0.000510
0.000284
0.000444
0.001296
0.000294
0.000252
0.000278
0.000238
0.001294
0.000308
0.000529
0.000323
0.000055
0.000224
0.000250
0.000254
0.000272
0.000235
0.000251
0.000277
0.000246
0.000267
0.000261
0.000334
0.000453
0.001323
0.000252
0.000260
0.000258
0.000284
0.000223
0.000249
0.000234
0.000338
0.001247
0.000254
0.000251
0.000250
0.000271
0.001439
0.000534
0.000425
0.000223
0.000195
0.000056
0.000201
0.000236
0.000247
0.000238
0.000253
0.000261
0.000248
0.000244
0.000442
0.000482
0.000273
0.001482
0.000233
0.000231
0.000260
0.000258
0.000258
0.000312
0.001666
0.000250
0.000398
0.000343
0.001256
0.000364
0.000330
0.000312
0.000254
0.000264
0.000261
0.000269
0.000192
0.000056
0.000192
0.000240
0.000334
0.000273
0.000304
0.000542
0.000262
0.000294
0.001474
0.000239
0.000383
0.000266
0.000221
0.000381
0.000358
0.001270
0.000270
0.000231
0.000254
0.000268
0.001503
0.000392
0.000294
0.000259
0.000278
0.000239
0.000454
0.000364
0.000242
0.000221
0.000251
0.000056
0.000288
0.000329
0.000323
0.000278
0.000215
0.001529
0.000222
0.000244
0.000262
0.000268
0.000270
0.000243
0.000268
0.001518
0.000260
0.000226
0.000449
0.001173
0.000340
0.000430
0.000413
0.000238
0.000243
0.000259
0.000273
0.000245
0.000455
0.000225
0.000263
0.000281
0.000192
0.000055
0.000225
0.000221
0.000381
0.000347
0.001312
0.000283
0.000306
0.000236
0.000254
0.000238
0.000251
0.000253
0.001555
0.000261
0.000231
0.000261
0.001364
0.000256
0.000442
0.000414
0.000405
0.000240
0.000251
0.000250
0.000268
0.000275
0.000264
0.000266
0.000266
0.000251
0.000202
0.000055
0.000255
0.000458
0.001366
0.000220
0.000266
0.000271
0.000244
0.000252
0.000260
0.000364
0.001409
0.000221
0.000253
0.000261
0.000264
0.001278
0.000695
0.000292
0.000309
0.000408
0.000301
0.000248
0.000271
0.000245
0.000268
0.000288
0.000277
0.000309
0.000427
0.000421
0.001383
0.000056
0.000198
0.000248
0.000248
0.000221
0.000252
0.000495
0.000435
0.001263
0.000244
0.000239
0.000263
0.001394
0.000472
0.000313
0.000218
0.000412
0.000245
0.000254
0.000264
0.000280
0.000237
0.000273
0.000280
0.000253
0.000257
0.000269
0.000429
0.000516
0.001481
0.000232
0.000184
0.000056
0.000185
0.000254
0.000397
0.000516
0.001218
0.000277
0.000258
0.000269
0.000229
0.000252
0.000252
0.000284
0.000340
0.000484
0.000353
0.000234
0.000252
0.000279
0.000235
0.000282
0.000252
0.000282
0.000247
0.000270
0.000255
0.000363
0.000498
0.000357
0.000322
0.001400
0.000195
0.000056
0.000192
0.000237
0.000384
0.000342
0.000350
0.000300
0.000314
0.000333
0.000271
0.000274
0.000241
0.000262
0.000271
0.000291
0.000229
0.000326
0.000570
0.000270
0.000295
0.000387
0.000277
0.000402
0.000232
0.000237
0.000269
0.000265
0.000246
0.000308
0.000308
0.000533
0.000285
0.000055
0.000204
0.001398
0.000237
0.000340
0.000403
0.000381
0.000411
0.000319
0.000220
0.000244
0.000268
0.000246
0.000259
0.000274
0.000259
0.000257
0.000259
0.001286
0.000337
0.000249
0.000257
0.000269
0.000273
0.000281
0.000268
0.000253
0.000277
0.000247
0.000337
0.000462
0.000348
0.000056
0.000211
0.000261
0.000217
0.001496
0.000345
0.000214
0.000234
0.000248
0.000227
0.000248
0.000254
0.000271
0.000249
0.000249
0.000272
0.000250
0.000270
0.000246
0.000262
0.000277
0.001406
0.000237
0.000242
0.000281
0.000250
0.000247
0.000273
0.000268
0.000269
0.000499
0.000333
0.000057
0.000195
0.000230
0.000396
0.000277
0.000247
0.000255
0.001533
0.000420
0.000230
0.000215
0.000262
0.000304
0.000339
0.000229
0.000230
0.000253
0.000249
0.000261
0.000259
0.000257
0.000479
0.000518
0.001112
0.000277
0.000230
0.000260
0.000264
0.000262
0.000272
0.000263
0.000360
0.000057
0.000218
0.000335
0.000212
0.000247
0.000247
0.000236
0.000248
0.000232
0.000289
0.001626
0.000356
0.000278
0.000241
0.000248
0.000257
0.000245
0.000263
0.000275
0.000259
0.000313
0.000303
0.000487
0.000452
0.001362
0.000239
0.000262
0.000272
0.000261
0.000267
0.000279
0.000500
0.000057
0.000268
0.000242
0.000240
0.000238
0.000221
0.000245
0.000257
0.000255
0.000267
0.001570
0.000355
0.000259
0.000266
0.000252
0.000458
0.000271
0.000526
0.000376
0.000300
0.000301
0.000444
0.000448
0.001303
0.000265
0.000233
0.000253
0.001722
0.000452
0.000611
0.000311
0.000140
0.000055
0.000205
0.000230
0.000238
0.000238
0.000259
0.000241
0.000242
0.000643
0.000408
0.000365
0.000294
0.000213
0.000244
0.000262
0.000266
0.000262
0.000253
0.000251
0.000252
0.000274
0.000270
0.000384
0.001378
0.000231
0.000245
0.000272
0.001903
0.000380
0.000373
0.000356
0.000147
0.000057
0.000241
0.000249
0.001506
0.000317
0.000403
0.000222
0.000236
0.000260
0.000252
0.000284
0.000377
0.000365
0.000368
0.000274
0.000312
0.000518
0.000386
0.001195
0.000288
0.000222
0.000252
0.000262
0.000272
0.000460
0.000566
0.000464
0.000245
0.000264
0.000263
0.000288
0.000194
0.000056
0.000186
0.000236
0.000237
0.001561
0.000246
0.000223
0.000235
0.000254
0.000241
0.000255
0.000254
0.000266
0.000265
0.000277
0.000239
0.000513
0.000330
0.000332
0.001378
0.000238
0.000264
0.000269
0.000253
0.000270
0.000386
0.000535
0.000400
0.000246
0.000282
0.000230
0.000449
0.000057
0.000203
0.000240
0.000256
0.001516
0.000345
0.000196
0.000268
0.000241
0.000253
0.000252
0.000258
0.000260
0.000256
0.000288
0.000328
0.000524
0.001412
0.000758
0.000247
0.000343
0.000255
0.000235
0.000243
0.000276
0.001680
0.000799
0.000234
0.000266
0.000279
0.000286
0.000185
0.000056
0.000205
0.000238
0.000245
0.000260
0.000246
0.000247
0.000241
0.000253
0.000240
0.000234
0.000290
0.000284
0.000250
0.000253
0.000257
0.000248
0.000273
0.001599
0.000713
0.000352
0.000328
0.000238
0.000241
0.000277
0.000273
0.000259
0.000274
0.000261
0.001421
0.000384
0.000269
0.000056
0.000200
0.000228
0.000247
0.000258
0.000261
0.000231
0.000247
0.000255
0.000248
0.000264
0.000274
0.000421
0.000482
0.000297
0.000207
0.000249
0.000262
0.001396
0.000690
0.000455
0.000360
0.000266
0.000229
0.000249
0.000273
0.000248
0.000264
0.000279
0.001498
0.000399
0.000196
0.000056
0.000192
0.000229
0.000239
0.000250
0.000255
0.000244
0.000237
0.000252
0.000272
0.000256
0.000376
0.000435
0.000266
0.000219
0.000245
0.000248
0.000264
0.000259
0.001561
0.000640
0.000452
0.000324
0.000227
0.000264
0.000260
0.000259
0.000265
0.000282
0.000285
0.001356
0.000308
0.000057
0.000220
0.000212
0.000237
0.000258
0.000256
0.000244
0.000259
0.000318
0.000337
0.000432
0.000362
0.000400
0.000368
0.000220
0.000244
0.000248
0.000279
0.000256
0.000268
0.001935
0.000310
0.000244
0.000439
0.000246
0.000253
0.000274
0.000257
0.000264
0.000264
0.000275
0.000283
0.000056
0.000316
0.000196
0.000226
0.000240
0.000251
0.000253
0.000227
0.000242
0.000264
0.000249
0.000245
0.000258
0.000313
0.000429
0.000435
0.000451
0.000215
0.000264
0.000254
0.000253
0.000254
0.000284
0.001531
0.000992
0.000226
0.000248
0.000266
0.000263
0.000280
0.000264
0.000187
0.000056
0.000216
0.001330
0.000293
0.000207
0.000240
0.000253
0.000251
0.000235
0.000243
0.000248
0.000256
0.000266
0.000241
0.000366
0.000375
0.000433
0.000308
0.000248
0.000264
0.000264
0.000271
0.000229
0.000258
0.000272
0.001333
0.000667
0.000309
0.000377
0.000380
0.000400
0.000297
0.000056
0.000196
0.000234
0.000367
0.001318
0.000208
0.000259
0.000226
0.000254
0.000255
0.000259
0.000244
0.000258
0.000255
0.000387
0.000544
0.000301
0.000228
0.000282
0.000324
0.000212
0.000253
0.000270
0.000234
0.000269
0.000270
0.001531
0.000745
0.000299
0.000278
0.000271
0.000193
0.000055
0.000220
0.000329
0.000389
0.000402
0.001214
0.000252
0.000218
0.000239
0.000230
0.000247
0.000250
0.000261
0.000225
0.000238
0.000277
0.000236
0.000268
0.000238
0.000254
0.000252
0.000269
0.000269
0.000314
0.000312
0.000227
0.000265
0.000263
0.001463
0.000259
0.000244
0.000171
0.000056
0.000201
0.000231
0.000247
0.000263
0.000350
0.000378
0.000394
0.000287
0.001561
0.000237
0.000276
0.000489
0.000371
0.000237
0.000431
0.000234
0.000245
0.000261
0.000269
0.000268
0.000278
0.000268
0.000254
0.000267
0.000250
0.000439
0.000403
0.000313
0.001569
0.000230
0.000190
0.000056
0.000214
0.000248
0.000265
0.000227
0.000244
0.000248
0.000261
0.000274
0.000444
0.002034
0.000252
0.000222
0.000259
0.000260
0.000257
0.000253
0.000275
0.000250
0.000260
0.000438
0.000368
0.000456
0.001448
0.000248
0.000527
0.000240
0.001762
0.000241
0.000271
0.001517
0.000155
0.000056
0.000422
0.000317
0.000474
0.000241
0.000262
0.000245
0.000248
0.000264
0.000261
0.000227
0.000253
0.000333
0.000414
0.000351
0.000466
0.000207
0.000232
0.001566
0.000235
0.000563
0.001890
0.000295
0.000242
0.001587
0.001974
0.000736
0.000278
0.000252
0.000312
0.000485
0.000349
0.000056
0.000216
0.000250
0.000236
0.000251
0.001412
0.001732
0.001087
0.000193
0.000262
0.001558
0.001990
0.000205
0.000261
0.000395
0.000346
0.000323
0.000394
0.000496
0.000215
0.000246
0.000242
0.000259
0.000279
0.001579
0.001203
0.001436
0.000272
0.000308
0.000249
0.000295
0.000400
0.000057
0.000203
0.000241
0.000233
0.000239
0.000228
0.000243
0.000248
0.000253
0.000255
0.000253
0.000242
0.000306
0.000552
0.000368
0.000278
0.000252
0.000263
0.000259
0.000269
0.000259
0.000254
0.000267
0.001569
0.000425
0.002107
0.000226
0.000283
0.000383
0.000368
0.000392
0.000202
0.000056
0.000271
0.000354
0.000408
0.000325
0.000192
0.000232
0.000252
0.000242
0.000241
0.000245
0.000250
0.000265
0.000262
0.001599
0.001355
0.001235
0.000276
0.000245
0.000242
0.000270
0.000279
0.000276
0.000243
0.000253
0.002201
0.000264
0.000253
0.000286
0.000322
0.000305
0.000223
0.000055
0.000215
0.000426
0.000470
0.000337
0.000231
0.000235
0.000244
0.000270
0.001889
0.001435
0.000228
0.000335
0.000365
0.000411
0.000263
0.000217
0.000266
0.000269
0.000270
0.000259
0.000255
0.000266
0.000472
0.000231
0.000273
0.000270
0.000252
0.000268
0.000288
0.000246
0.000201
0.000057
0.000202
0.000249
0.000246
0.000245
0.000251
0.000271
0.001544
0.001416
0.001332
0.000249
0.000223
0.000237
0.000266
0.000261
0.000243
0.000253
0.000252
0.002099
0.000256
0.000252
0.000251
0.000261
0.000254
0.000266
0.000263
0.000259
0.000271
0.000259
0.000275
0.000252
0.000172
0.000056
0.000204
0.002687
0.001399
0.000214
0.000302
0.000304
0.000229
0.000262
0.000257
0.000247
0.000247
0.000249
0.000232
0.000251
0.000273
0.000252
0.000269
0.000275
0.000261
0.000254
0.000265
0.000281
0.000275
0.000263
0.000251
0.000245
0.000265
0.000270
0.000257
0.000270
0.000371
0.000056
0.001545
0.000255
0.001246
0.000222
0.000226
0.000236
0.000265
0.000251
0.000248
0.000282
0.000342
0.000446
0.000301
0.000205
0.000251
0.002149
0.000234
0.000253
0.000272
0.000507
0.000339
0.000332
0.000221
0.000263
0.000261
0.000247
0.000262
0.000279
0.000274
0.001596
0.001273
0.000056
0.000185
0.000236
0.000326
0.000401
0.000320
0.000285
0.000213
0.000232
0.000250
0.000258
0.000268
0.000241
0.000234
0.000251
0.000267
0.000241
0.000341
0.000588
0.000366
0.000257
0.000223
0.000266
0.000286
0.000250
0.000248
0.000250
0.000274
0.000268
0.000242
0.000353
0.000327
0.000057
0.001127
0.000206
0.000430
0.000377
0.000305
0.000232
0.000221
0.000242
0.000253
0.002291
0.000367
0.000399
0.000215
0.000377
0.000279
0.000262
0.000260
0.000258
0.000266
0.000222
0.000254
0.000299
0.000619
0.000407
0.001873
0.001308
0.000634
0.000441
0.000220
0.000286
0.000196
0.000056
0.000226
0.000352
0.000244
0.000247
0.000244
0.000227
0.000260
0.000254
0.000254
0.000251
0.000254
0.000227
0.000243
0.000265
0.000379
0.000510
0.001844
0.001337
0.000431
0.000437
0.000463
0.000240
0.000238
0.000263
0.002124
0.000566
0.000389
0.000225
0.000276
0.000278
0.000196
0.000056
0.000201
0.000243
0.000256
0.000242
0.000243
0.000329
0.000435
0.000301
0.000304
0.000246
0.000240
0.000252
0.000265
0.002105
0.000376
0.000383
0.000210
0.000251
0.000267
0.000260
0.002281
0.000424
0.000333
0.000240
0.000240
0.000258
0.000255
0.000274
0.000279
0.000282
0.000194
0.000055
0.000211
0.000285
0.000613
0.000349
0.000264
0.000219
0.000233
0.000254
0.000260
0.000255
0.001945
0.000413
0.000245
0.000284
0.000247
0.000265
0.000271
0.000237
0.002208
0.000441
0.000226
0.000268
0.000273
0.000257
0.000250
0.000253
0.000285
0.000252
0.000271
0.000253
0.000189
0.000056
0.000229
0.000234
0.000268
0.000206
0.000247
0.000258
0.000238
0.000243
0.000231
0.002186
0.000224
0.000278
0.000224
0.000423
0.000234
0.000251
0.000275
0.000287
0.000241
0.000266
0.001965
0.000275
0.000341
0.000365
0.000433
0.000399
0.000313
0.000248
0.000253
0.000258
0.000199
0.000055
0.000208
0.000215
0.000239
0.000245
0.000258
0.000319
0.000225
0.002302
0.000250
0.000226
0.000260
0.000258
0.000239
0.000247
0.000307
0.002124
0.000596
0.000224
0.000249
0.000250
0.000251
0.000261
0.000291
0.000261
0.000262
0.000255
0.000284
0.000254
0.000264
0.000268
0.000195
0.000057
0.001804
0.001450
0.000195
0.000229
0.000242
0.000251
0.000254
0.000267
0.000451
0.000294
0.002189
0.000260
0.000225
0.000269
0.000335
0.000468
0.000381
0.000303
0.000232
0.000240
0.000253
0.000262
0.000267
0.000225
0.000256
0.000267
0.000266
0.000272
0.000339
0.000632
0.000322
0.000056
0.000199
0.000250
0.000247
0.000266
0.000260
0.000243
0.000255
0.000243
0.001504
0.002099
0.000582
0.000277
0.000429
0.000662
0.000346
0.000249
0.000250
0.000245
0.000269
0.000253
0.000258
0.000248
0.000255
0.001832
0.000325
0.001391
0.000297
0.000279
0.000268
0.000325
0.000496
0.000057
0.001948
0.000214
0.000231
0.000236
0.000293
0.000349
0.000445
0.000363
0.000241
0.000209
0.000251
0.000246
0.000256
0.000261
0.000262
0.000261
0.000253
0.000265
0.001838
0.000244
0.000233
0.000254
0.000276
0.000277
0.000275
0.000269
0.001451
0.000333
0.000267
0.000242
0.000172
0.000057
0.000192
0.000238
0.000242
0.000239
0.000270
0.000223
0.000286
0.000409
0.000450
0.000253
0.000216
0.000233
0.000257
0.000330
0.000430
0.000311
0.000224
0.000249
0.000267
0.000403
0.000369
0.000490
0.000266
0.000247
0.000262
0.000255
0.000250
0.000271
0.000277
0.000265
0.000200
0.000056
0.001410
0.000429
0.000230
0.001932
0.000265
0.000441
0.000426
0.000320
0.000234
0.000238
0.000270
0.000241
0.000245
0.000250
0.000264
0.000259
0.000469
0.000248
0.000410
0.000397
0.000351
0.000225
0.000259
0.000267
0.000272
0.000269
0.000260
0.000280
0.000371
0.000485
0.001327
0.000056
0.000210
0.000228
0.002071
0.000369
0.000242
0.000260
0.000257
0.000251
0.000260
0.000258
0.000218
0.000251
0.000254
0.000261
0.000261
0.000358
0.000716
0.001754
0.000236
0.000247
0.000258
0.000267
0.000464
0.000339
0.001586
0.000284
0.000361
0.001920
0.000266
0.000261
0.000184
0.000055
0.000200
0.000233
0.000236
0.000241
0.000231
0.000248
0.000252
0.000287
0.000330
0.000268
0.000381
0.000353
0.000341
0.000310
0.000232
0.000270
0.000263
0.000240
0.000264
0.000255
0.000303
0.000289
0.000264
0.000258
0.000275
0.001498
0.000283
0.000401
0.002068
0.000230
0.000174
0.000056
0.000217
0.000241
0.000234
0.000253
0.000481
0.000208
0.000251
0.000343
0.000360
0.000339
0.000285
0.000202
0.000268
0.000261
0.000269
0.000318
0.000396
0.000463
0.000244
0.000410
0.000532
0.000475
0.001546
0.000230
0.000258
0.001994
0.000313
0.000257
0.000245
0.000291
0.000186
0.000056
0.000218
0.000241
0.000224
0.000245
0.000249
0.000272
0.000252
0.000269
0.000270
0.000236
0.001805
0.000331
0.000376
0.000321
0.000421
0.000367
0.000340
0.001517
0.000243
0.000274
0.002099
0.000576
0.000268
0.000230
0.000272
0.000264
0.000505
0.000219
0.000257
0.000279
0.000193
0.000055
0.000289
0.000372
0.000382
0.000264
0.000199
0.000246
0.000259
0.000252
0.000268
0.000291
0.000225
0.000249
0.000272
0.000257
0.000409
0.001440
0.000321
0.000213
0.000277
0.001932
0.000358
0.000268
0.000251
0.000262
0.000247
0.000280
0.000266
0.000265
0.000255
0.000258
0.000208
0.000055
0.000224
0.000436
0.002016
0.000255
0.000250
0.000224
0.000245
0.000329
0.000453
0.000395
0.001303
0.000376
0.002125
0.000314
0.000202
0.000247
0.000268
0.000276
0.000251
0.000251
0.000280
0.000291
0.000255
0.000344
0.000538
0.000346
0.000317
0.002215
0.000489
0.000525
0.000347
0.000056
0.000194
0.000232
0.000247
0.001964
0.000235
0.000224
0.000242
0.000241
0.000239
0.000257
0.000245
0.000266
0.000246
0.000342
0.000400
0.001455
0.000243
0.000250
0.000267
0.000254
0.000233
0.000257
0.000262
0.000266
0.000309
0.000452
0.000494
0.000242
0.001589
0.000283
0.000163
0.000056
0.000186
0.000228
0.000245
0.000231
0.000251
0.000249
0.000251
0.000251
0.000255
0.000356
0.000371
0.001429
0.000242
0.000224
0.000242
0.000268
0.000253
0.000255
0.000490
0.000299
0.000448
0.000386
0.000247
0.001558
0.000230
0.000262
0.000289
0.000278
0.000262
0.000266
0.000185
0.000056
0.000221
0.000220
0.000269
0.000269
0.000245
0.000244
0.000239
0.000243
0.000265
0.000229
0.000257
0.000253
0.000250
0.001489
0.000364
0.000211
0.000249
0.000264
0.000277
0.000308
0.000380
0.000253
0.000258
0.000265
0.000263
0.000280
0.000240
0.001406
0.000291
0.000223
0.000173
0.000056
0.000207
0.000233
0.000265
0.000264
0.000254
0.000234
0.000250
0.000260
0.000222
0.000259
0.000246
0.000260
0.000227
0.000282
0.000436
0.000339
0.000251
0.000229
0.001631
0.000249
0.000237
0.000262
0.000266
0.000287
0.000395
0.000365
0.000455
0.000260
0.000275
0.001590
0.000160
0.000056
0.000321
0.000374
0.000360
0.000291
0.000229
0.000212
0.000251
0.000268
0.000257
0.000237
0.000248
0.000239
0.001465
0.000283
0.000317
0.000219
0.000255
0.000251
0.000270
0.000262
0.000255
0.000236
0.000261
0.000272
0.000249
0.000379
0.000470
0.000394
0.000218
0.000256
0.000195
0.000055
0.000208
0.000228
0.000439
0.000344
0.000382
0.000283
0.000244
0.000248
0.000253
0.000260
0.000239
0.000229
0.000252
0.000248
0.001253
0.000293
0.000263
0.000233
0.000266
0.000293
0.000217
0.000266
0.000252
0.000260
0.000261
0.000253
0.000290
0.000688
0.000469
0.000232
0.000180
0.000056
0.000194
0.001563
0.000220
0.000353
0.000455
0.000392
0.000212
0.000252
0.000268
0.000265
0.000230
0.000262
0.000267
0.000269
0.000262
0.001528
0.000253
0.000285
0.000265
0.000284
0.000233
0.000254
0.000263
0.000259
0.000260
0.000260
0.000417
0.000385
0.000361
0.000241
0.000196
0.000056
0.000212
0.000246
0.000236
0.001653
0.000380
0.000354
0.000224
0.000240
0.000251
0.000271
0.000278
0.000267
0.000235
0.000264
0.000235
0.000264
0.000435
0.001285
0.000251
0.000240
0.001489
0.000312
0.000624
0.000344
0.000342
0.000240
0.000266
0.000462
0.000236
0.000265
0.000189
0.000055
0.000284
0.000222
0.000243
0.000249
0.000243
0.000255
0.000240
0.000256
0.000290
0.000209
0.000254
0.000257
0.000323
0.000513
0.001640
0.001505
0.000341
0.000479
0.000404
0.000224
0.000228
0.000262
0.000248
0.000269
0.000243
0.000267
0.000257
0.000273
0.001509
0.000336
0.000161
0.000055
0.000191
0.000347
0.000356
0.000330
0.000248
0.000214
0.000246
0.000332
0.000446
0.000351
0.002189
0.000321
0.000786
0.000418
0.000462
0.000262
0.000338
0.000395
0.000326
0.000277
0.000397
0.000244
0.001552
0.000527
0.000217
0.000282
0.000238
0.000250
0.000275
0.000263
0.000216
0.000070
0.000182
0.000245
0.000249
0.000257
0.000237
0.001667
0.000872
0.001000
0.000204
0.000236
0.000262
0.000254
0.000259
0.000261
0.000250
0.000251
0.000258
0.000261
0.000266
0.000302
0.001406
0.000312
0.000260
0.000230
0.000240
0.000253
0.000261
0.000284
0.000260
0.000288
0.001931
0.000078
0.000183
0.000212
0.001571
0.000819
0.000386
0.000364
0.000234
0.000233
0.000248
0.000257
0.000245
0.000250
0.000252
0.001974
0.000482
0.000222
0.000246
0.000254
0.000261
0.000259
0.000195
