0.000147
0.019181
0.002183
0.000310
0.000261
0.000283
0.000304
0.000245
0.000335
0.000291
0.000241
0.000346
0.000554
0.000492
0.000371
0.000324
0.000266
0.000372
0.000328
0.000411
0.000314
0.001935
0.000686
0.000250
0.000255
0.000304
0.000303
0.000335
0.000429
0.000425
0.000453
0.000290
0.000058
0.000209
0.000268
0.000289
0.000246
0.000272
0.000249
0.000280
0.000277
0.000252
0.000356
0.000373
0.000465
0.000286
0.000255
0.000413
0.000307
0.000362
0.000250
0.000241
0.001697
0.000334
0.000253
0.000445
0.000253
0.000272
0.000268
0.000292
0.000316
0.000261
0.000382
0.000377
0.000057
0.000207
0.000241
0.000262
0.000261
0.000256
0.000247
0.000254
0.000265
0.000279
0.001667
0.000239
0.000225
0.000269
0.000270
0.000281
0.000252
0.000262
0.000263
0.000351
0.001802
0.000227
0.000275
0.000446
0.000482
0.000344
0.000241
0.000252
0.000567
0.000506
0.000685
0.000172
0.000057
0.000213
0.000256
0.000256
0.000236
0.000292
0.000255
0.000297
0.000582
0.000360
0.000278
0.000233
0.000253
0.000239
0.000256
0.000267
0.000247
0.000258
0.000254
0.000299
0.000361
0.001633
0.000284
0.000248
0.000417
0.000295
0.000702
0.000744
0.000463
0.000335
0.000228
0.000192
0.000058
0.000182
0.000249
0.000268
0.000236
0.000264
0.000254
0.000312
0.000380
0.001503
0.000230
0.000240
0.000241
0.000257
0.000255
0.000262
0.000290
0.000318
0.000788
0.001361
0.000279
0.000478
0.000244
0.000202
0.000240
0.000255
0.000254
0.000269
0.000273
0.000258
0.000269
0.000199
0.000056
0.000204
0.000254
0.000242
0.000266
0.000237
0.000244
0.000245
0.000252
0.000234
0.000265
0.001632
0.000279
0.000212
0.000240
0.000251
0.000256
0.000243
0.000249
0.000247
0.000266
0.000267
0.001662
0.000295
0.000253
0.000425
0.000277
0.000246
0.000242
0.000267
0.000271
0.000199
0.000056
0.000199
0.000235
0.000242
0.000248
0.000240
0.000251
0.000266
0.000234
0.000260
0.000247
0.000262
0.000256
0.000257
0.001682
0.000312
0.000202
0.000296
0.000213
0.000246
0.000275
0.000268
0.000246
0.000237
0.000267
0.001863
0.000374
0.000287
0.000344
0.000258
0.000280
0.000222
0.000058
0.000194
0.000234
0.000247
0.000266
0.000256
0.000237
0.000341
0.000374
0.000403
0.000419
0.000212
0.000245
0.000257
0.000244
0.001600
0.000559
0.000253
0.000407
0.000320
0.000228
0.000271
0.000281
0.000273
0.001758
0.000487
0.000473
0.000236
0.000259
0.000247
0.000256
0.000181
0.000057
0.000195
0.000237
0.000245
0.000299
0.000335
0.000473
0.000315
0.000283
0.000206
0.000264
0.000249
0.000239
0.000253
0.001761
0.000437
0.000292
0.000227
0.000255
0.000281
0.000270
0.000249
0.000260
0.000271
0.001917
0.000277
0.000402
0.000268
0.000224
0.000262
0.000417
0.000326
0.000056
0.000264
0.000349
0.000356
0.000246
0.000251
0.000247
0.000253
0.000261
0.000238
0.000233
0.000235
0.000255
0.001563
0.000345
0.000310
0.000223
0.000260
0.000252
0.000245
0.000280
0.000285
0.000322
0.000246
0.001811
0.000247
0.000513
0.000238
0.000251
0.000257
0.000266
0.000268
0.000057
0.000362
0.000510
0.000606
0.000212
0.000230
0.000277
0.000232
0.000212
0.000265
0.000258
0.000248
0.001703
0.000258
0.000427
0.000374
0.000218
0.000240
0.000232
0.000243
0.000269
0.000344
0.001763
0.000235
0.000240
0.002095
0.000505
0.000359
0.000248
0.000259
0.000262
0.000184
0.000057
0.000216
0.000259
0.000223
0.000243
0.000260
0.001628
0.000255
0.000223
0.000251
0.000253
0.000241
0.000253
0.000243
0.000252
0.000305
0.000486
0.000532
0.000249
0.000257
0.000243
0.000295
0.000217
0.000246
0.000440
0.000424
0.000298
0.000420
0.000441
0.000472
0.000255
0.000188
0.000057
0.000227
0.000214
0.000250
0.000252
0.000235
0.000242
0.000292
0.000424
0.000385
0.001716
0.000196
0.000237
0.000234
0.000253
0.000261
0.000314
0.000507
0.000356
0.000345
0.000248
0.000257
0.000303
0.000283
0.000255
0.000270
0.000444
0.000342
0.000664
0.000361
0.000487
0.000168
0.000057
0.000199
0.000280
0.000228
0.000220
0.000239
0.000243
0.000244
0.000241
0.000249
0.000296
0.000340
0.000535
0.001292
0.000261
0.000217
0.000240
0.000266
0.000248
0.000248
0.000301
0.000260
0.000563
0.000272
0.000274
0.000257
0.000260
0.000257
0.000284
0.000252
0.000260
0.000393
0.000056
0.000208
0.000243
0.000226
0.000261
0.000595
0.000400
0.000211
0.000261
0.000238
0.000256
0.000247
0.000240
0.000299
0.000248
0.000239
0.000496
0.000550
0.001503
0.000272
0.000230
0.000262
0.000264
0.000260
0.000237
0.000280
0.000510
0.000410
0.000332
0.000417
0.000239
0.000186
0.000057
0.000222
0.000439
0.000234
0.000214
0.000267
0.000267
0.000342
0.000578
0.000229
0.000327
0.000233
0.000269
0.000269
0.000233
0.000520
0.000353
0.000206
0.000279
0.000447
0.001585
0.000306
0.000195
0.000527
0.000238
0.000280
0.000288
0.000247
0.000423
0.000488
0.000357
0.000278
0.000056
0.000224
0.000237
0.000228
0.000242
0.000420
0.000303
0.000293
0.000221
0.000387
0.000575
0.000299
0.000250
0.000229
0.000250
0.000266
0.000252
0.000254
0.000258
0.000235
0.000342
0.000305
0.000301
0.001875
0.000231
0.000259
0.000253
0.000296
0.000344
0.000474
0.000746
0.000332
0.000056
0.000236
0.000331
0.000280
0.000423
0.000396
0.000201
0.000262
0.000321
0.000571
0.000333
0.000259
0.000247
0.000229
0.000267
0.000259
0.000238
0.000254
0.000274
0.000265
0.000261
0.000319
0.000409
0.000683
0.001257
0.000334
0.000435
0.000412
0.000263
0.000432
0.000456
0.000261
0.000056
0.000246
0.000381
0.000271
0.000225
0.000208
0.000244
0.000419
0.000235
0.000291
0.000298
0.000451
0.000384
0.000290
0.000254
0.000265
0.000244
0.000362
0.000403
0.000342
0.000245
0.000233
0.000429
0.000617
0.001662
0.000228
0.000467
0.000271
0.000237
0.000419
0.000316
0.000330
0.000056
0.000198
0.000223
0.000245
0.000247
0.000244
0.000250
0.000249
0.000317
0.000469
0.000352
0.000368
0.000377
0.000287
0.000563
0.000258
0.000232
0.000272
0.000269
0.000232
0.000353
0.000215
0.000244
0.000280
0.000458
0.000459
0.001643
0.000271
0.000229
0.000245
0.000272
0.000182
0.000057
0.000166
0.000573
0.000249
0.000216
0.000272
0.000228
0.000258
0.000236
0.000286
0.000225
0.000224
0.000246
0.000463
0.000469
0.000433
0.000252
0.000255
0.000245
0.000360
0.000395
0.000363
0.000372
0.000384
0.000327
0.000268
0.000238
0.000268
0.000270
0.001793
0.000250
0.000206
0.000057
0.000206
0.000214
0.000262
0.000268
0.000369
0.000543
0.000303
0.000218
0.000257
0.000265
0.000243
0.000268
0.000506
0.000448
0.000477
0.000283
0.000264
0.000269
0.000418
0.000468
0.000357
0.000485
0.000499
0.000355
0.000234
0.000240
0.000277
0.000242
0.000265
0.001720
0.000356
0.000057
0.000242
0.000340
0.000201
0.000232
0.000253
0.000251
0.000240
0.000509
0.000362
0.000309
0.000298
0.000318
0.000473
0.000509
0.000315
0.000224
0.000252
0.000253
0.000251
0.000268
0.000266
0.000273
0.000240
0.000266
0.000408
0.000291
0.000422
0.000321
0.000234
0.000249
0.000195
0.000056
0.000437
0.000340
0.000440
0.000235
0.000221
0.000231
0.000249
0.000250
0.000237
0.000230
0.000245
0.000283
0.000287
0.000587
0.000353
0.000426
0.000320
0.000325
0.000378
0.000337
0.000296
0.000238
0.000246
0.000257
0.001752
0.000266
0.001708
0.001032
0.000302
0.000337
0.000158
0.000058
0.000189
0.000240
0.000233
0.000246
0.000264
0.000241
0.000253
0.000253
0.000243
0.000380
0.000287
0.000441
0.000338
0.000387
0.000249
0.000253
0.000253
0.000287
0.000226
0.000252
0.000255
0.000256
0.001811
0.000247
0.000251
0.000270
0.000270
0.000267
0.001883
0.000556
0.000203
0.000058
0.000205
0.000208
0.000244
0.000240
0.000253
0.000245
0.000249
0.000247
0.000303
0.000393
0.000506
0.000488
0.000239
0.000207
0.000236
0.000247
0.000331
0.000444
0.000376
0.000255
0.001760
0.000256
0.000241
0.000252
0.000264
0.000270
0.000237
0.000263
0.000323
0.000372
0.000319
0.000057
0.000255
0.000203
0.000241
0.000257
0.000272
0.000221
0.000251
0.000265
0.000231
0.000262
0.000238
0.000335
0.000367
0.000353
0.000338
0.000270
0.000472
0.000225
0.000254
0.000259
0.000252
0.000262
0.000278
0.000254
0.000276
0.001791
0.000255
0.000259
0.000246
0.000235
0.000198
0.000055
0.000221
0.000387
0.000235
0.000213
0.000238
0.000235
0.000236
0.000265
0.000242
0.000235
0.000222
0.000260
0.000273
0.000376
0.000389
0.000364
0.000276
0.000238
0.000248
0.000257
0.000259
0.000263
0.000251
0.000268
0.000245
0.000274
0.000359
0.001577
0.000276
0.000233
0.000187
0.000056
0.000202
0.000237
0.000250
0.000265
0.000346
0.000377
0.000405
0.000290
0.000218
0.000259
0.000249
0.000242
0.000249
0.000255
0.000264
0.000254
0.000242
0.000259
0.000250
0.000264
0.000264
0.000267
0.000269
0.000218
0.000244
0.000279
0.000280
0.000257
0.000255
0.000286
0.000169
0.000056
0.000214
0.000239
0.000252
0.000253
0.000237
0.000252
0.000266
0.000239
0.000283
0.000235
0.000226
0.000259
0.000247
0.000250
0.000272
0.000263
0.000250
0.000256
0.000291
0.000252
0.000279
0.000286
0.000278
0.000240
0.000285
0.000272
0.000269
0.000249
0.000316
0.000506
0.000550
0.000057
0.000229
0.000294
0.000238
0.000208
0.000232
0.000253
0.000242
0.000250
0.000254
0.000236
0.000270
0.000304
0.000513
0.000528
0.001446
0.000242
0.000486
0.000239
0.000254
0.000448
0.000453
0.000377
0.000217
0.000278
0.000267
0.000246
0.000282
0.000248
0.000314
0.000257
0.000185
0.000057
0.000295
0.000527
0.000260
0.000309
0.000218
0.000254
0.000266
0.000224
0.000242
0.000239
0.000256
0.000259
0.000227
0.000298
0.000519
0.000308
0.000389
0.001800
0.000236
0.000248
0.000392
0.000393
0.000420
0.000301
0.000321
0.000312
0.000310
0.000246
0.000213
0.000252
0.000195
0.000056
0.000222
0.000230
0.000263
0.000280
0.000509
0.000350
0.000267
0.000254
0.000253
0.000218
0.000247
0.000271
0.000266
0.000259
0.000247
0.000257
0.000471
0.000391
0.000302
0.000415
0.000232
0.001740
0.000333
0.000503
0.000490
0.000504
0.000295
0.000219
0.000260
0.000266
0.000445
0.000056
0.000203
0.000258
0.000230
0.000392
0.000317
0.000462
0.000378
0.000237
0.000222
0.000287
0.000251
0.000257
0.000252
0.000307
0.000300
0.000239
0.000278
0.000361
0.000432
0.000349
0.000499
0.001837
0.000268
0.000518
0.000433
0.000349
0.000219
0.000257
0.000293
0.000256
0.000204
0.000058
0.000213
0.000340
0.000357
0.000330
0.000428
0.000326
0.000293
0.000221
0.000236
0.000261
0.000275
0.000234
0.000259
0.000233
0.000251
0.000253
0.000332
0.000527
0.000385
0.000347
0.000281
0.000223
0.000266
0.001775
0.000477
0.000404
0.000679
0.000236
0.000259
0.000317
0.000153
0.000055
0.000191
0.000242
0.000324
0.000257
0.000295
0.000425
0.000350
0.000295
0.000233
0.000526
0.000239
0.000239
0.000263
0.000275
0.000277
0.000264
0.000214
0.000392
0.000432
0.000437
0.000261
0.000247
0.000236
0.000262
0.000256
0.000264
0.000247
0.000248
0.000265
0.000294
0.000204
0.000057
0.000420
0.000230
0.000234
0.000253
0.000246
0.000255
0.000243
0.000290
0.000246
0.000240
0.000277
0.000345
0.000483
0.000339
0.000413
0.000200
0.000220
0.000239
0.000252
0.000271
0.000301
0.000245
0.000241
0.000249
0.000289
0.000371
0.000366
0.000429
0.000294
0.000228
0.000179
0.000056
0.000212
0.000221
0.000279
0.000243
0.000239
0.000249
0.000282
0.000236
0.000483
0.000216
0.000261
0.000255
0.000248
0.000255
0.000274
0.000276
0.000263
0.000345
0.000220
0.000244
0.000257
0.000266
0.000259
0.000265
0.000282
0.000260
0.000264
0.000258
0.000517
0.000242
0.000146
0.000056
0.000206
0.000241
0.000261
0.000254
0.000226
0.000243
0.000363
0.000416
0.000232
0.000238
0.000246
0.000259
0.000236
0.000288
0.000515
0.001679
0.000237
0.000266
0.000280
0.000391
0.000365
0.000364
0.000353
0.000438
0.000345
0.000415
0.000239
0.000270
0.000265
0.000276
0.001402
0.000056
0.000399
0.000303
0.000220
0.000218
0.000233
0.000251
0.000230
0.000276
0.000225
0.000269
0.000240
0.000262
0.000254
0.000303
0.000642
0.001521
0.000243
0.000229
0.000240
0.000268
0.000235
0.000297
0.000384
0.000356
0.000271
0.000376
0.000202
0.000270
0.000275
0.000258
0.000199
0.000056
0.001259
0.000456
0.000366
0.000255
0.000247
0.000214
0.000227
0.000247
0.000489
0.000213
0.000250
0.000244
0.000528
0.000453
0.000276
0.000353
0.000244
0.000232
0.000340
0.000351
0.000265
0.000258
0.000270
0.000248
0.000267
0.000638
0.000522
0.000243
0.000247
0.000282
0.000148
0.000057
0.000211
0.000214
0.000247
0.000243
0.001432
0.000338
0.000230
0.000246
0.000232
0.000257
0.000255
0.000253
0.000244
0.000260
0.000270
0.000343
0.000394
0.000636
0.000271
0.001747
0.000269
0.000277
0.000348
0.000486
0.000429
0.000401
0.000247
0.000251
0.000262
0.000267
0.000198
0.000058
0.000213
0.000252
0.000234
0.000359
0.001214
0.000242
0.000244
0.000261
0.000238
0.000243
0.000229
0.000255
0.000276
0.000250
0.000252
0.000321
0.000539
0.000345
0.000294
0.000258
0.000263
0.000274
0.000249
0.000234
0.000292
0.000259
0.000237
0.000283
0.000288
0.000319
0.000578
0.000056
0.000212
0.000250
0.000235
0.000261
0.000282
0.000224
0.000230
0.000260
0.000272
0.000260
0.001436
0.000219
0.000238
0.000255
0.000240
0.000246
0.000266
0.000267
0.000260
0.000265
0.000343
0.000465
0.000467
0.000333
0.000226
0.000272
0.001763
0.000265
0.000253
0.000413
0.000318
0.000057
0.000205
0.000395
0.000446
0.000506
0.000513
0.000547
0.001501
0.000407
0.000520
0.000652
0.000553
0.000863
0.000343
0.000615
0.000584
0.001926
0.000364
0.000437
0.000397
0.000312
0.000230
0.000305
0.000254
0.000273
0.000263
0.000278
0.000292
0.000289
0.000259
0.000285
0.001370
0.000057
0.000222
0.000220
0.000243
0.000251
0.000250
0.000255
0.000233
0.000242
0.000278
0.000222
0.000249
0.000231
0.000255
0.000254
0.000271
0.000268
0.001810
0.000271
0.000255
0.000252
0.000253
0.000262
0.000261
0.000276
0.000432
0.000427
0.000337
0.000210
0.000275
0.000274
0.000208
0.000056
0.000197
0.001378
0.000316
0.000270
0.000257
0.000237
0.000244
0.000235
0.000230
0.000240
0.000213
0.000273
0.000234
0.000500
0.000368
0.000278
0.000267
0.000249
0.001933
0.000229
0.000252
0.000265
0.000253
0.000262
0.000269
0.000284
0.000269
0.000249
0.000267
0.000322
0.000202
0.000056
0.000210
0.000248
0.000252
0.001445
0.000214
0.000247
0.000248
0.000239
0.000268
0.000241
0.000246
0.000251
0.000239
0.000265
0.000252
0.000261
0.000266
0.000264
0.000265
0.000258
0.000259
0.001776
0.000281
0.001745
0.000272
0.000245
0.000275
0.000283
0.000245
0.000276
0.000195
0.000056
0.000201
0.000251
0.001344
0.000224
0.000259
0.000243
0.000256
0.000275
0.000220
0.000254
0.000246
0.000248
0.000265
0.000258
0.000262
0.000265
0.000256
0.000279
0.000303
0.000227
0.001875
0.000238
0.001835
0.000243
0.000243
0.000287
0.000231
0.000255
0.000251
0.000263
0.000205
0.000056
0.001426
0.000218
0.000235
0.000231
0.000246
0.000261
0.000346
0.000270
0.000248
0.000258
0.000247
0.000261
0.000258
0.000400
0.000330
0.000312
0.000236
0.000275
0.000249
0.000267
0.000252
0.000339
0.000232
0.000251
0.000286
0.000256
0.000278
0.000346
0.000653
0.000347
0.000193
0.000057
0.000222
0.000236
0.000247
0.000309
0.000363
0.000248
0.001696
0.000311
0.000278
0.000259
0.000259
0.000269
0.000270
0.000266
0.000298
0.000311
0.000542
0.000369
0.000381
0.000256
0.000296
0.000280
0.000281
0.000248
0.000330
0.000259
0.000265
0.000239
0.000263
0.000377
0.000439
0.000057
0.000250
0.000469
0.000266
0.000289
0.000227
0.000229
0.000222
0.000249
0.000262
0.000270
0.001495
0.000237
0.000215
0.000253
0.000241
0.000293
0.000258
0.000252
0.000267
0.000268
0.000277
0.000470
0.000450
0.000295
0.000259
0.000292
0.000266
0.000255
0.000240
0.000310
0.000160
0.000057
0.000210
0.000232
0.000347
0.000393
0.000382
0.000266
0.000222
0.000244
0.000251
0.000254
0.000230
0.000255
0.000259
0.000259
0.000239
0.000268
0.000412
0.001182
0.000242
0.000235
0.000283
0.000243
0.000364
0.000419
0.000243
0.000485
0.000434
0.000464
0.000244
0.000252
0.000170
0.000057
0.000229
0.000246
0.000261
0.000262
0.000262
0.000245
0.000394
0.000461
0.000321
0.000288
0.000363
0.000393
0.000394
0.000363
0.000252
0.000233
0.000234
0.000310
0.000349
0.000468
0.001269
0.000224
0.000273
0.000270
0.000250
0.000216
0.000271
0.000327
0.000498
0.000398
0.000196
0.000056
0.000214
0.000229
0.000253
0.000247
0.000237
0.000247
0.000234
0.000259
0.000318
0.000361
0.000444
0.000377
0.000217
0.000225
0.000256
0.000253
0.000249
0.000260
0.000265
0.000252
0.000449
0.000280
0.000404
0.000354
0.000315
0.000254
0.000268
0.000276
0.000250
0.000344
0.000150
0.000056
0.000314
0.000313
0.000470
0.000249
0.000425
0.000339
0.000252
0.000247
0.000244
0.000276
0.000258
0.000258
0.000237
0.000248
0.000247
0.000225
0.000297
0.000409
0.000380
0.000394
0.000222
0.000274
0.000244
0.000242
0.000269
0.000274
0.000268
0.000266
0.000282
0.000281
0.000372
0.000057
0.000250
0.000295
0.000230
0.000243
0.000248
0.000243
0.000244
0.000250
0.000268
0.000261
0.000254
0.000232
0.000405
0.000431
0.000418
0.000274
0.000249
0.000221
0.000251
0.000292
0.000232
0.000266
0.000255
0.000260
0.000279
0.000396
0.000349
0.000574
0.000415
0.000241
0.000172
0.000057
0.000397
0.000214
0.000222
0.000241
0.000255
0.000244
0.000262
0.000228
0.000257
0.000258
0.000218
0.000247
0.000275
0.000219
0.000241
0.000270
0.000256
0.000255
0.000280
0.000261
0.000257
0.000260
0.000271
0.000255
0.000265
0.000241
0.000266
0.000275
0.000257
0.000279
0.000194
0.000057
0.000188
0.000242
0.000243
0.000252
0.000232
0.000250
0.000259
0.000246
0.000257
0.000278
0.000223
0.000248
0.000250
0.000395
0.000255
0.000278
0.000261
0.000265
0.000256
0.000279
0.000269
0.000248
0.000245
0.000244
0.000270
0.000274
0.000250
0.000248
0.000276
0.000263
0.000203
0.000057
0.000222
0.000366
0.000364
0.000278
0.000298
0.000249
0.000278
0.000248
0.000224
0.000245
0.000250
0.000264
0.000249
0.000235
0.000272
0.000241
0.000265
0.000270
0.000245
0.000268
0.000274
0.000257
0.000286
0.000249
0.000278
0.000250
0.000251
0.000274
0.000270
0.000256
0.000191
0.000056
0.000206
0.000228
0.000263
0.000262
0.000492
0.000211
0.000207
0.000247
0.000304
0.000519
0.000404
0.000276
0.000225
0.000253
0.000263
0.000269
0.000243
0.000271
0.000248
0.000272
0.000264
0.000264
0.000257
0.000249
0.000548
0.000502
0.000276
0.000305
0.000261
0.000262
0.000193
0.000057
0.000185
0.000223
0.000249
0.000249
0.000342
0.000651
0.000302
0.000380
0.000202
0.000247
0.000257
0.000253
0.000246
0.000251
0.000260
0.000271
0.000258
0.000271
0.000654
0.000349
0.000297
0.000242
0.000264
0.000275
0.000286
0.000257
0.000259
0.000269
0.000248
0.000336
0.000300
0.000057
0.000186
0.000227
0.000243
0.000231
0.000259
0.000251
0.000231
0.000248
0.000244
0.000257
0.000241
0.000261
0.000240
0.000409
0.000666
0.000312
0.000208
0.000253
0.000263
0.000263
0.000245
0.000273
0.000489
0.000234
0.000251
0.000705
0.000311
0.000475
0.000258
0.000263
0.000177
0.000057
0.000192
0.000224
0.000247
0.000237
0.000256
0.000261
0.000387
0.000472
0.000493
0.000391
0.000217
0.000262
0.000308
0.000247
0.000254
0.000245
0.000238
0.000245
0.000291
0.000437
0.000269
0.000652
0.000363
0.000255
0.000360
0.000374
0.000483
0.000244
0.000267
0.000526
0.000276
0.000056
0.000256
0.000232
0.000430
0.000229
0.000235
0.000251
0.000262
0.000257
0.000237
0.000236
0.000328
0.000336
0.000429
0.000290
0.000217
0.000264
0.000251
0.000252
0.000260
0.000275
0.000278
0.000252
0.000249
0.000273
0.000388
0.000421
0.000474
0.000230
0.000263
0.000275
0.000193
0.000056
0.000198
0.000260
0.000229
0.000239
0.000251
0.000294
0.000311
0.000581
0.000270
0.000279
0.000373
0.000226
0.000247
0.000260
0.000271
0.000226
0.000255
0.000259
0.000301
0.000441
0.000470
0.000287
0.000480
0.000278
0.000388
0.000424
0.000380
0.000245
0.000244
0.000276
0.000501
0.000057
0.000237
0.000227
0.000222
0.000252
0.000260
0.000253
0.000253
0.000243
0.000251
0.000261
0.000240
0.000399
0.000456
0.000331
0.000377
0.000222
0.000259
0.000270
0.000269
0.000230
0.000250
0.000249
0.000267
0.000276
0.000276
0.000327
0.000635
0.000341
0.000237
0.000280
0.000186
0.000056
0.000204
0.000242
0.000261
0.000268
0.000241
0.000356
0.000528
0.000472
0.000308
0.000682
0.000266
0.000219
0.000238
0.000265
0.000240
0.000274
0.000273
0.000312
0.000505
0.000449
0.001415
0.000304
0.000272
0.000276
0.000274
0.000272
0.000357
0.000492
0.000375
0.000260
0.000161
0.000057
0.000193
0.000229
0.000245
0.000245
0.000241
0.000256
0.000272
0.000251
0.000248
0.000337
0.000325
0.000388
0.000265
0.000341
0.000389
0.000341
0.000237
0.000249
0.000274
0.000261
0.000246
0.000249
0.000278
0.000250
0.000314
0.000436
0.000424
0.000310
0.000249
0.000259
0.000191
0.000056
0.000207
0.000250
0.000253
0.000254
0.000245
0.000237
0.000468
0.000215
0.000233
0.000253
0.000245
0.000253
0.000256
0.000256
0.000248
0.000276
0.000256
0.000266
0.000276
0.000252
0.000260
0.000339
0.000251
0.000243
0.000262
0.000280
0.000266
0.000272
0.000261
0.000274
0.000164
0.000056
0.000177
0.000242
0.000304
0.000489
0.000342
0.000227
0.000217
0.000247
0.000260
0.000247
0.000249
0.000254
0.000267
0.000258
0.000244
0.000241
0.000245
0.000280
0.000318
0.000355
0.000481
0.000303
0.000226
0.000263
0.000263
0.000252
0.000264
0.000253
0.000269
0.000283
0.000200
0.000056
0.000279
0.000380
0.000409
0.000203
0.000255
0.000256
0.000412
0.000226
0.000234
0.000263
0.000236
0.000300
0.000369
0.000407
0.001890
0.000242
0.000243
0.000265
0.000260
0.000244
0.000406
0.000522
0.000551
0.000223
0.000230
0.000248
0.000281
0.000421
0.000279
0.000280
0.000172
0.000056
0.000185
0.000357
0.000333
0.000326
0.000498
0.000213
0.000232
0.000249
0.000256
0.000238
0.000259
0.000244
0.000297
0.000389
0.000438
0.000361
0.000207
0.000249
0.000265
0.000256
0.000257
0.000320
0.000236
0.000276
0.000278
0.000527
0.000580
0.000251
0.000462
0.000228
0.000201
0.000055
0.000221
0.000236
0.000255
0.000225
0.000259
0.000245
0.000282
0.000262
0.000390
0.000468
0.000297
0.000337
0.000227
0.000248
0.000268
0.000281
0.000304
0.000240
0.000269
0.000276
0.000240
0.000348
0.000549
0.000253
0.000284
0.000251
0.000263
0.000432
0.000418
0.000317
0.000174
0.000056
0.000203
0.000292
0.000321
0.000377
0.000375
0.000216
0.000230
0.000253
0.000263
0.000250
0.000264
0.000261
0.000220
0.000262
0.000261
0.000385
0.000350
0.000319
0.000291
0.000340
0.000490
0.000226
0.000282
0.000278
0.000301
0.000286
0.000258
0.000269
0.000581
0.000410
0.000191
0.000057
0.000214
0.000229
0.000250
0.000243
0.000245
0.000480
0.000217
0.000252
0.000265
0.000333
0.000499
0.000581
0.000215
0.000231
0.000245
0.000250
0.000258
0.000249
0.000257
0.000249
0.000264
0.000264
0.000339
0.000518
0.000294
0.000399
0.000304
0.000301
0.000315
0.000244
0.000185
0.000057
0.000216
0.000230
0.000309
0.000459
0.000322
0.000295
0.000245
0.000221
0.000244
0.000259
0.000250
0.000248
0.000256
0.000266
0.000244
0.000257
0.000246
0.000250
0.000280
0.000447
0.000417
0.000412
0.000224
0.000250
0.000279
0.000276
0.000258
0.000256
0.000271
0.000261
0.000193
0.000056
0.000338
0.000388
0.000395
0.000254
0.000200
0.000258
0.000326
0.000456
0.000282
0.000211
0.000244
0.000270
0.000312
0.000445
0.000399
0.000282
0.000237
0.000226
0.000253
0.000261
0.000272
0.000261
0.000262
0.000274
0.000261
0.000325
0.000481
0.000300
0.000320
0.000241
0.000187
0.000056
0.000212
0.000240
0.000246
0.000257
0.000245
0.000268
0.000225
0.000260
0.000254
0.000246
0.000264
0.000239
0.000259
0.001463
0.000220
0.000251
0.000261
0.000251
0.000273
0.000280
0.000258
0.000244
0.000273
0.000255
0.000260
0.000273
0.000272
0.000275
0.000257
0.000273
0.000181
0.000055
0.000192
0.000234
0.000258
0.000244
0.000255
0.000225
0.000261
0.000258
0.000228
0.000246
0.000248
0.000259
0.000260
0.000254
0.000254
0.000261
0.000247
0.000255
0.000269
0.000264
0.000257
0.000261
0.000243
0.000248
0.001291
0.000285
0.000712
0.000302
0.000319
0.000266
0.000172
0.000057
0.000177
0.000235
0.000249
0.000250
0.000413
0.000243
0.000226
0.000245
0.000255
0.000433
0.000408
0.000311
0.000245
0.000224
0.000260
0.000260
0.000258
0.000262
0.000249
0.000257
0.000260
0.000252
0.000344
0.000353
0.000526
0.000431
0.000215
0.000271
0.001367
0.000238
0.000186
0.000056
0.000305
0.000402
0.000331
0.000276
0.000190
0.000235
0.000230
0.000252
0.000254
0.000254
0.000250
0.000259
0.000287
0.000400
0.000472
0.000329
0.000334
0.000228
0.000240
0.000263
0.000262
0.000264
0.000269
0.000266
0.000272
0.000258
0.000524
0.000435
0.000277
0.000388
0.000151
0.000056
0.000204
0.000236
0.001262
0.000453
0.000273
0.000481
0.000353
0.000500
0.000259
0.000338
0.000232
0.000223
0.000259
0.000254
0.000249
0.000266
0.000469
0.000368
0.000421
0.000346
0.000271
0.000231
0.000252
0.000506
0.000238
0.000261
0.000261
0.000274
0.000319
0.000612
0.000224
0.000056
0.000384
0.000306
0.000223
0.000237
0.001681
0.000383
0.000265
0.000242
0.000247
0.000244
0.000233
0.000234
0.000249
0.000268
0.000250
0.000265
0.000234
0.000325
0.000390
0.000359
0.000445
0.000240
0.000256
0.000253
0.000262
0.000273
0.000268
0.000238
0.000265
0.000278
0.000215
0.000057
0.000349
0.000354
0.000218
0.000232
0.000249
0.000242
0.000270
0.000226
0.000231
0.000236
0.001620
0.000278
0.000257
0.000245
0.000228
0.000255
0.000276
0.000261
0.000233
0.000279
0.000269
0.000248
0.000318
0.000395
0.000408
0.000434
0.000224
0.000276
0.000267
0.000286
0.000173
0.000058
0.000201
0.000414
0.000231
0.000264
0.000437
0.000329
0.000371
0.000310
0.000454
0.000206
0.000237
0.000268
0.000246
0.000263
0.000262
0.001553
0.000218
0.000284
0.000248
0.000269
0.000278
0.000249
0.000257
0.000248
0.000262
0.000276
0.000523
0.000374
0.000287
0.000282
0.000145
0.000057
0.000220
0.000229
0.000252
0.000238
0.000232
0.000261
0.000236
0.000262
0.000347
0.000289
0.000459
0.000274
0.000247
0.000247
0.000240
0.000273
0.000274
0.000258
0.000294
0.000208
0.000247
0.000404
0.001178
0.000259
0.000249
0.000241
0.000265
0.000269
0.000253
0.000264
0.000188
0.000056
0.000203
0.000367
0.000352
0.000336
0.000244
0.000243
0.000260
0.000257
0.000259
0.000248
0.000256
0.000274
0.000256
0.000237
0.000258
0.000254
0.000268
0.000271
0.000263
0.000251
0.000252
0.000267
0.000272
0.000282
0.000290
0.000259
0.000268
0.000252
0.000274
0.000444
0.001361
0.000056
0.000203
0.000231
0.000240
0.000238
0.000270
0.000244
0.000266
0.000210
0.000246
0.000250
0.000276
0.000253
0.000253
0.000243
0.000249
0.000245
0.001749
0.000242
0.000228
0.000269
0.000247
0.000255
0.000271
0.000258
0.000270
0.000262
0.000271
0.000281
0.000272
0.000248
0.000238
0.000057
0.000356
0.000277
0.001275
0.000229
0.000224
0.000249
0.000257
0.000250
0.000255
0.000255
0.000265
0.000333
0.000441
0.000376
0.000292
0.000224
0.000246
0.000249
0.000258
0.000271
0.000242
0.000269
0.000258
0.000287
0.000270
0.000410
0.000359
0.000344
0.000316
0.000250
0.000181
0.000056
0.000218
0.000256
0.000242
0.000246
0.000257
0.000218
0.000243
0.000286
0.000441
0.001295
0.000259
0.000208
0.000246
0.000279
0.000247
0.000266
0.000262
0.000274
0.000279
0.000574
0.000274
0.000240
0.000222
0.000252
0.000278
0.000272
0.000267
0.000295
0.000269
0.000276
0.000192
0.000073
0.000204
0.000427
0.000403
0.000221
0.000229
0.000236
0.000246
0.000276
0.000267
0.000249
0.000227
0.000251
0.000459
0.000547
0.000476
0.001402
0.000247
0.000284
0.000316
0.000351
0.000490
0.000457
0.000439
0.000379
0.000226
0.000265
0.000267
0.000274
0.000259
0.000278
0.000215
0.000056
0.000199
0.000337
0.000561
0.000411
0.000228
0.000244
0.000244
0.000223
0.000253
0.000259
0.000253
0.000262
0.000260
0.000243
0.000268
0.000383
0.000312
0.000462
0.000296
0.001328
0.000259
0.000263
0.000247
0.000266
0.000472
0.000425
0.000376
0.000251
0.000287
0.000273
0.000188
0.000056
0.000195
0.000231
0.000246
0.000243
0.000252
0.000296
0.000549
0.000294
0.000348
0.000213
0.000241
0.000259
0.000270
0.000260
0.000261
0.000268
0.000257
0.000255
0.000296
0.000298
0.000449
0.000399
0.000326
0.001351
0.000401
0.000234
0.000281
0.000389
0.000570
0.000245
0.000314
0.000056
0.000191
0.000238
0.000246
0.000250
0.000249
0.000255
0.001737
0.000196
0.000213
0.000237
0.000256
0.000244
0.000259
0.000327
0.000327
0.000285
0.000275
0.000313
0.000629
0.000298
0.000279
0.000289
0.000221
0.000243
0.001507
0.000374
0.000488
0.000371
0.000321
0.000294
0.000153
0.000058
0.000220
0.000246
0.000265
0.000251
0.000247
0.000251
0.001710
0.000245
0.000234
0.000260
0.000339
0.000409
0.001448
0.000344
0.000400
0.000243
0.000270
0.000223
0.000265
0.000270
0.001686
0.000502
0.000308
0.000292
0.000235
0.000251
0.000267
0.000279
0.000248
0.000248
0.000193
0.000057
0.000214
0.000234
0.000267
0.000240
0.000263
0.000303
0.000253
0.000262
0.000246
0.000251
0.000254
0.000245
0.000263
0.000271
0.000250
0.001498
0.000280
0.000228
0.000268
0.000292
0.000257
0.000254
0.000436
0.001272
0.000271
0.000233
0.000271
0.000259
0.000390
0.000257
0.000187
0.000056
0.000192
0.000254
0.000223
0.000249
0.000236
0.000226
0.000238
0.001700
0.000267
0.000208
0.000247
0.000375
0.000231
0.000218
0.000256
0.001386
0.000233
0.000266
0.000264
0.000264
0.000245
0.000347
0.000273
0.001319
0.000273
0.000252
0.000251
0.000267
0.001388
0.000284
0.000192
0.000057
0.000257
0.000313
0.000217
0.000239
0.000254
0.000233
0.000264
0.000268
0.000265
0.000252
0.000258
0.000264
0.000256
0.000248
0.000319
0.001490
0.000245
0.000269
0.000257
0.000262
0.000265
0.000264
0.000257
0.001509
0.000342
0.000232
0.000273
0.001270
0.000276
0.000239
0.000242
0.000057
0.000212
0.000501
0.000250
0.000211
0.000226
0.000239
0.000261
0.000257
0.000265
0.000274
0.000241
0.000249
0.000263
0.000296
0.000406
0.001203
0.000233
0.000258
0.000258
0.000280
0.000232
0.000241
0.000246
0.000405
0.001214
0.000258
0.000226
0.000267
0.001342
0.000318
0.000226
0.000056
0.000295
0.000228
0.000225
0.000232
0.000239
0.000253
0.000241
0.000251
0.000277
0.000271
0.000224
0.000247
0.000292
0.000326
0.000399
0.001450
0.000223
0.000240
0.000300
0.000513
0.000281
0.000492
0.001254
0.000289
0.000248
0.000267
0.000257
0.001306
0.000334
0.000489
0.000358
0.000057
0.000224
0.000247
0.000255
0.000256
0.000255
0.000247
0.000274
0.000250
0.000265
0.000361
0.000255
0.000412
0.001350
0.000239
0.000269
0.000262
0.000280
0.000226
0.000244
0.000238
0.000347
0.001236
0.000268
0.000235
0.000245
0.000254
0.001580
0.000384
0.000448
0.000228
0.000195
0.000056
0.000202
0.000236
0.000245
0.000235
0.000257
0.000265
0.000258
0.000272
0.000530
0.000357
0.000272
0.001487
0.000214
0.000235
0.000268
0.000252
0.000266
0.000276
0.001702
0.000268
0.000381
0.000333
0.001364
0.000341
0.000245
0.000317
0.000251
0.000261
0.000273
0.000269
0.000189
0.000056
0.000204
0.000240
0.000333
0.000273
0.000342
0.000508
0.000258
0.000293
0.001470
0.000247
0.000380
0.000255
0.000263
0.000327
0.000337
0.001315
0.000274
0.000238
0.000242
0.000252
0.001555
0.000346
0.000295
0.000301
0.000240
0.000233
0.000476
0.000350
0.000221
0.000233
0.000265
0.000056
0.000230
0.000503
0.000198
0.000262
0.000234
0.001515
0.000201
0.000255
0.000269
0.000268
0.000269
0.000244
0.000273
0.001512
0.000256
0.000229
0.000430
0.001197
0.000411
0.000381
0.000382
0.000247
0.000235
0.000249
0.000283
0.000243
0.000455
0.000227
0.000263
0.000293
0.000183
0.000057
0.000189
0.000400
0.000222
0.000339
0.001315
0.000285
0.000331
0.000213
0.000255
0.000235
0.000246
0.000390
0.001422
0.000265
0.000226
0.000246
0.001380
0.000329
0.000471
0.000366
0.000357
0.000235
0.000233
0.000266
0.000260
0.000278
0.000280
0.000248
0.000270
0.000253
0.000230
0.000057
0.000210
0.000422
0.001436
0.000215
0.000266
0.000276
0.000239
0.000251
0.000262
0.000383
0.001397
0.000211
0.000261
0.000264
0.000256
0.001284
0.000675
0.000317
0.000306
0.000406
0.000293
0.000254
0.000261
0.000257
0.000272
0.000286
0.000275
0.000318
0.000443
0.000404
0.001397
0.000056
0.000191
0.000242
0.000243
0.000224
0.000266
0.000494
0.000440
0.001250
0.000245
0.000238
0.000250
0.001481
0.000495
0.000218
0.000217
0.000408
0.000248
0.000252
0.000259
0.000285
0.000235
0.000276
0.000279
0.000267
0.000239
0.000348
0.000450
0.000416
0.001498
0.000229
0.000177
0.000056
0.000198
0.000251
0.000370
0.000547
0.001211
0.000277
0.000254
0.000262
0.000240
0.000253
0.000250
0.000308
0.000331
0.000472
0.000353
0.000233
0.000255
0.000274
0.000235
0.000280
0.000253
0.000279
0.000254
0.000265
0.000250
0.000412
0.000561
0.000257
0.000318
0.001402
0.000170
0.000056
0.000201
0.000244
0.000260
0.000487
0.000328
0.000303
0.000315
0.000331
0.000266
0.000275
0.000249
0.000262
0.000271
0.000288
0.000240
0.000336
0.000537
0.000287
0.000298
0.000378
0.000275
0.000407
0.000229
0.000245
0.000258
0.000267
0.000256
0.000298
0.000501
0.000346
0.000291
0.000057
0.000204
0.001399
0.000231
0.000340
0.000407
0.000464
0.000322
0.000325
0.000219
0.000254
0.000253
0.000245
0.000262
0.000271
0.000260
0.000257
0.000256
0.001409
0.000207
0.000262
0.000248
0.000276
0.000270
0.000280
0.000270
0.000251
0.000279
0.000242
0.000351
0.000395
0.000274
0.000057
0.000208
0.000261
0.000223
0.001498
0.000322
0.000239
0.000223
0.000263
0.000216
0.000248
0.000256
0.000266
0.000254
0.000251
0.000285
0.000232
0.000250
0.000264
0.000264
0.000255
0.001439
0.000226
0.000243
0.000285
0.000244
0.000258
0.000263
0.000261
0.000272
0.000496
0.000346
0.000056
0.000205
0.000270
0.000373
0.000270
0.000246
0.000278
0.001558
0.000367
0.000238
0.000215
0.000279
0.000280
0.000343
0.000234
0.000226
0.000249
0.000241
0.000268
0.000259
0.000258
0.000548
0.000443
0.001125
0.000274
0.000234
0.000251
0.000267
0.000255
0.000279
0.000259
0.000441
0.000056
0.000342
0.000202
0.000215
0.000238
0.000252
0.000238
0.000248
0.000225
0.000294
0.001721
0.000269
0.000274
0.000229
0.000256
0.000259
0.000243
0.000259
0.000279
0.000259
0.000310
0.000309
0.000532
0.000439
0.001339
0.000229
0.000260
0.000276
0.000252
0.000278
0.000359
0.000510
0.000056
0.000281
0.000238
0.000233
0.000246
0.000224
0.000238
0.000259
0.000258
0.000265
0.001626
0.000300
0.000255
0.000260
0.000262
0.000456
0.000273
0.000520
0.000379
0.000295
0.000308
0.000471
0.000528
0.001199
0.000264
0.000236
0.000253
0.001712
0.000469
0.000639
0.000276
0.000139
0.000056
0.000211
0.000233
0.000228
0.000239
0.000256
0.000244
0.000246
0.000628
0.000440
0.000344
0.000298
0.000206
0.000246
0.000264
0.000263
0.000268
0.000244
0.000252
0.000260
0.000270
0.000289
0.000404
0.001344
0.000224
0.000241
0.000274
0.001911
0.000383
0.000386
0.000337
0.000157
0.000056
0.000240
0.000244
0.000244
0.001773
0.000226
0.000206
0.000238
0.000263
0.000252
0.000287
0.000380
0.000364
0.000365
0.000274
0.000300
0.000563
0.000373
0.001170
0.000275
0.000232
0.000252
0.000266
0.000273
0.000437
0.000672
0.000369
0.000251
0.000265
0.000266
0.000280
0.000194
0.000057
0.000182
0.000237
0.000241
0.001564
0.000229
0.000231
0.000240
0.000252
0.000243
0.000256
0.000255
0.000266
0.000270
0.000272
0.000308
0.000441
0.000384
0.000296
0.001376
0.000229
0.000257
0.000262
0.000253
0.000291
0.000311
0.000586
0.000390
0.000267
0.000286
0.000232
0.000439
0.000057
0.000180
0.000239
0.000253
0.001531
0.000318
0.000213
0.000267
0.000240
0.000259
0.000255
0.000253
0.000261
0.000256
0.000310
0.000299
0.000621
0.001327
0.000746
0.000258
0.000344
0.000253
0.000227
0.000243
0.000271
0.001689
0.000801
0.000224
0.000263
0.000278
0.000287
0.000196
0.000056
0.000188
0.000225
0.000263
0.000236
0.000258
0.000248
0.000241
0.000276
0.000223
0.000229
0.000291
0.000280
0.000253
0.000249
0.000266
0.000247
0.000270
0.001612
0.000689
0.000422
0.000273
0.000218
0.000259
0.000275
0.000267
0.000265
0.000266
0.000268
0.001419
0.000365
0.000357
0.000057
0.000190
0.000236
0.000243
0.000258
0.000260
0.000229
0.000256
0.000249
0.000255
0.000266
0.000314
0.000438
0.000388
0.000335
0.000207
0.000239
0.000281
0.001385
0.000713
0.000506
0.000286
0.000263
0.000233
0.000244
0.000273
0.000252
0.000260
0.000258
0.001512
0.000416
0.000192
0.000056
0.000198
0.000225
0.000244
0.000241
0.000257
0.000246
0.000241
0.000248
0.000266
0.000293
0.000330
0.000460
0.000253
0.000220
0.000246
0.000244
0.000266
0.000251
0.001575
0.000647
0.000513
0.000260
0.000215
0.000268
0.000261
0.000256
0.000265
0.000285
0.000266
0.001458
0.000226
0.000057
0.000198
0.000217
0.000237
0.000257
0.000250
0.000249
0.000263
0.000298
0.000359
0.000442
0.000403
0.000376
0.000338
0.000217
0.000245
0.000253
0.000274
0.000259
0.000267
0.001931
0.000324
0.000233
0.000434
0.000252
0.000253
0.000260
0.000269
0.000259
0.000270
0.000277
0.000395
0.000057
0.000189
0.000292
0.000225
0.000238
0.000253
0.000252
0.000225
0.000234
0.000272
0.000251
0.000249
0.000238
0.000395
0.000445
0.000360
0.000451
0.000210
0.000261
0.000257
0.000245
0.000257
0.000292
0.001477
0.001048
0.000221
0.000251
0.000266
0.000267
0.000272
0.000261
0.000187
0.000055
0.000197
0.001350
0.000292
0.000205
0.000242
0.000252
0.000254
0.000239
0.000238
0.000247
0.000260
0.000266
0.000234
0.000435
0.000320
0.000502
0.000232
0.000246
0.000259
0.000270
0.000265
0.000235
0.000255
0.000267
0.001359
0.000648
0.000311
0.000380
0.000379
0.000401
0.000303
0.000055
0.000203
0.000301
0.000435
0.001188
0.000207
0.000260
0.000241
0.000237
0.000256
0.000259
0.000245
0.000250
0.000258
0.000458
0.000515
0.000263
0.000220
0.000335
0.000281
0.000212
0.000251
0.000268
0.000233
0.000277
0.000272
0.001545
0.000721
0.000304
0.000277
0.000273
0.000194
0.000055
0.000200
0.000356
0.000371
0.000314
0.001309
0.000259
0.000215
0.000239
0.000238
0.000240
0.000250
0.000260
0.000231
0.000237
0.000254
0.000257
0.000268
0.000239
0.000252
0.000254
0.000266
0.000268
0.000311
0.000325
0.000215
0.000278
0.000255
0.001462
0.000277
0.000225
0.000167
0.000056
0.000198
0.000231
0.000251
0.000260
0.000360
0.000378
0.000391
0.000270
0.001575
0.000278
0.000269
0.000456
0.000373
0.000234
0.000428
0.000240
0.000230
0.000268
0.000274
0.000282
0.000266
0.000262
0.000260
0.000269
0.000295
0.000391
0.000469
0.000225
0.001594
0.000217
0.000191
0.000056
0.000224
0.000237
0.000276
0.000217
0.000244
0.000248
0.000263
0.000279
0.000438
0.002042
0.000229
0.000241
0.000252
0.000258
0.000260
0.000259
0.000274
0.000246
0.000406
0.000335
0.000346
0.000438
0.001442
0.000257
0.000527
0.000234
0.001763
0.000238
0.000260
0.001542
0.000176
0.000056
0.000305
0.000464
0.000444
0.000226
0.000264
0.000246
0.000239
0.000269
0.000261
0.000228
0.000251
0.000401
0.000416
0.000391
0.000312
0.000263
0.000226
0.001578
0.000206
0.000657
0.001812
0.000297
0.000224
0.001567
0.001995
0.000761
0.000263
0.000272
0.000288
0.000465
0.000292
0.000056
0.000204
0.000246
0.000247
0.000249
0.001471
0.002513
0.000250
0.000194
0.000253
0.001605
0.001945
0.000221
0.000236
0.000421
0.000339
0.000370
0.000362
0.000478
0.000215
0.000235
0.000253
0.000259
0.001577
0.000312
0.001179
0.001427
0.000296
0.000284
0.000248
0.000471
0.000241
0.000057
0.000201
0.000230
0.000246
0.000239
0.000230
0.000246
0.000250
0.000246
0.000262
0.000250
0.000239
0.000325
0.000487
0.000408
0.000287
0.000248
0.000248
0.000273
0.000265
0.000262
0.000260
0.000259
0.001529
0.000462
0.002115
0.000233
0.000270
0.000382
0.000460
0.000311
0.000196
0.000056
0.000224
0.000327
0.000484
0.000313
0.000196
0.000220
0.000259
0.000242
0.000244
0.000236
0.000253
0.000262
0.000260
0.001606
0.001363
0.001226
0.000273
0.000236
0.000235
0.000280
0.000288
0.000275
0.000243
0.000251
0.002203
0.000256
0.000243
0.000305
0.000322
0.000304
0.000220
0.000056
0.000239
0.000475
0.000426
0.000311
0.000238
0.000227
0.000248
0.000265
0.001915
0.001414
0.000214
0.000330
0.000385
0.000415
0.000264
0.000220
0.000259
0.000263
0.000263
0.000259
0.000263
0.000261
0.000480
0.000233
0.000272
0.000265
0.000257
0.000272
0.000289
0.000237
0.000205
0.000056
0.000179
0.000248
0.000248
0.000242
0.000252
0.000268
0.001550
0.001411
0.001333
0.000253
0.000206
0.000244
0.000267
0.000262
0.000262
0.000237
0.000244
0.002104
0.000257
0.000238
0.000256
0.000267
0.000250
0.000270
0.000265
0.000255
0.000274
0.000258
0.000273
0.000254
0.000173
0.000055
0.000200
0.002692
0.001398
0.000211
0.000305
0.000302
0.000232
0.000265
0.000260
0.000242
0.000247
0.000246
0.000234
0.000250
0.000267
0.000262
0.000263
0.000283
0.000234
0.000270
0.000267
0.000284
0.000273
0.000281
0.000232
0.000246
0.000266
0.000264
0.000265
0.000271
0.000369
0.000056
0.001540
0.000269
0.001225
0.000218
0.000223
0.000243
0.000265
0.000251
0.000244
0.000307
0.000411
0.000301
0.000356
0.000197
0.000255
0.002154
0.000243
0.000243
0.000265
0.000574
0.000290
0.000316
0.000227
0.000259
0.000259
0.000250
0.000264
0.000279
0.000273
0.001625
0.001249
0.000057
0.000198
0.000234
0.000437
0.000261
0.000367
0.000270
0.000206
0.000238
0.000248
0.000263
0.000260
0.000248
0.000231
0.000250
0.000267
0.000236
0.000376
0.000574
0.000352
0.000256
0.000218
0.000277
0.000282
0.000246
0.000252
0.000242
0.000273
0.000273
0.000240
0.000423
0.000284
0.000055
0.001124
0.000208
0.000448
0.000406
0.000243
0.000249
0.000213
0.000238
0.000250
0.002351
0.000315
0.000392
0.000238
0.000355
0.000278
0.000266
0.000257
0.000258
0.000264
0.000230
0.000249
0.000355
0.000688
0.000295
0.001870
0.001448
0.000476
0.000449
0.000237
0.000268
0.000199
0.000056
0.000235
0.000335
0.000246
0.000248
0.000238
0.000230
0.000258
0.000253
0.000254
0.000253
0.000258
0.000224
0.000238
0.000271
0.000398
0.000517
0.001816
0.001315
0.000484
0.000405
0.000462
0.000247
0.000234
0.000260
0.002143
0.000546
0.000390
0.000228
0.000277
0.000276
0.000202
0.000056
0.000202
0.000244
0.000257
0.000241
0.000262
0.000365
0.000386
0.000377
0.000218
0.000253
0.000252
0.000234
0.000263
0.002120
0.000386
0.000358
0.000216
0.000251
0.000268
0.000258
0.000246
0.002546
0.000243
0.000242
0.000249
0.000256
0.000246
0.000273
0.000282
0.000280
0.000195
0.000055
0.000212
0.000403
0.000672
0.000183
0.000258
0.000224
0.000226
0.000252
0.000263
0.000257
0.002026
0.000306
0.000277
0.000277
0.000244
0.000267
0.000274
0.000235
0.002209
0.000448
0.000213
0.000273
0.000277
0.000255
0.000250
0.000253
0.000283
0.000264
0.000253
0.000258
0.000188
0.000055
0.000211
0.000236
0.000252
0.000222
0.000243
0.000257
0.000259
0.000224
0.000233
0.002186
0.000227
0.000284
0.000216
0.000422
0.000239
0.000247
0.000275
0.000289
0.000239
0.000269
0.001955
0.000284
0.000357
0.000354
0.000431
0.000404
0.000304
0.000245
0.000254
0.000264
0.000187
0.000056
0.000190
0.000250
0.000236
0.000240
0.000278
0.000304
0.000226
0.002301
0.000244
0.000232
0.000258
0.000259
0.000241
0.000249
0.000301
0.002125
0.000593
0.000225
0.000252
0.000246
0.000254
0.000254
0.000288
0.000271
0.000254
0.000259
0.000288
0.000258
0.000266
0.000258
0.000194
0.000056
0.001829
0.001440
0.000191
0.000226
0.000244
0.000250
0.000254
0.000337
0.000406
0.000262
0.002193
0.000260
0.000229
0.000268
0.000358
0.000506
0.000328
0.000299
0.000225
0.000240
0.000252
0.000268
0.000264
0.000223
0.000255
0.000277
0.000261
0.000267
0.000516
0.000557
0.000224
0.000057
0.000197
0.000250
0.000248
0.000255
0.000269
0.000268
0.000233
0.000244
0.001487
0.002115
0.000580
0.000286
0.000403
0.000683
0.000355
0.000231
0.000257
0.000245
0.000275
0.000255
0.000258
0.000240
0.000248
0.001841
0.000332
0.001385
0.000285
0.000294
0.000268
0.000323
0.000376
0.000056
0.001953
0.000224
0.000218
0.000234
0.000331
0.000320
0.000536
0.000225
0.000283
0.000220
0.000230
0.000261
0.000254
0.000260
0.000262
0.000259
0.000256
0.000262
0.001845
0.000240
0.000232
0.000259
0.000271
0.000278
0.000271
0.000267
0.001469
0.000320
0.000240
0.000267
0.000169
0.000057
0.000200
0.000236
0.000231
0.000243
0.000249
0.000245
0.000332
0.000360
0.000299
0.000405
0.000211
0.000240
0.000268
0.000326
0.000432
0.000318
0.000219
0.000244
0.000284
0.000403
0.000387
0.000456
0.000266
0.000246
0.000257
0.000259
0.000244
0.000273
0.000282
0.000258
0.000204
0.000057
0.001425
0.000419
0.000226
0.001962
0.000290
0.000459
0.000366
0.000313
0.000231
0.000244
0.000269
0.000242
0.000240
0.000250
0.000271
0.000256
0.000446
0.000296
0.000443
0.000361
0.000326
0.000228
0.000252
0.000270
0.000274
0.000269
0.000258
0.000269
0.000385
0.000554
0.001260
0.000057
0.000200
0.000226
0.002076
0.000341
0.000290
0.000241
0.000257
0.000250
0.000261
0.000264
0.000212
0.000254
0.000251
0.000261
0.000332
0.000290
0.000710
0.001758
0.000229
0.000247
0.000259
0.000271
0.000564
0.000230
0.001591
0.000284
0.000365
0.001922
0.000263
0.000250
0.000198
0.000057
0.000181
0.000228
0.000232
0.000243
0.000233
0.000249
0.000256
0.000280
0.000328
0.000278
0.000379
0.000354
0.000338
0.000308
0.000231
0.000275
0.000252
0.000240
0.000269
0.000252
0.000302
0.000285
0.000266
0.000264
0.000264
0.001512
0.000286
0.000401
0.002061
0.000231
0.000174
0.000057
0.000204
0.000238
0.000237
0.000248
0.000486
0.000214
0.000247
0.000349
0.000373
0.000296
0.000310
0.000207
0.000260
0.000264
0.000270
0.000327
0.000393
0.000465
0.000250
0.000398
0.000600
0.000455
0.001509
0.000223
0.000266
0.001989
0.000341
0.000229
0.000242
0.000291
0.000184
0.000056
0.000206
0.000245
0.000225
0.000247
0.000243
0.000270
0.000255
0.000273
0.000256
0.000280
0.001780
0.000332
0.000379
0.000313
0.000430
0.000417
0.000369
0.001433
0.000242
0.000269
0.002159
0.000537
0.000266
0.000223
0.000262
0.000261
0.000506
0.000238
0.000246
0.000275
0.000204
0.000055
0.000266
0.000416
0.000302
0.000284
0.000216
0.000227
0.000259
0.000254
0.000277
0.000285
0.000226
0.000247
0.000258
0.000274
0.000439
0.001407
0.000320
0.000197
0.000407
0.001927
0.000240
0.000271
0.000255
0.000265
0.000250
0.000277
0.000264
0.000263
0.000248
0.000269
0.000197
0.000056
0.000224
0.000376
0.002059
0.000248
0.000252
0.000219
0.000252
0.000415
0.000361
0.000396
0.001309
0.000373
0.002091
0.000342
0.000209
0.000251
0.000257
0.000280
0.000253
0.000239
0.000284
0.000291
0.000261
0.000393
0.000478
0.000327
0.000331
0.002220
0.000548
0.000441
0.000372
0.000057
0.000196
0.000229
0.000237
0.001971
0.000235
0.000222
0.000257
0.000225
0.000241
0.000257
0.000244
0.000262
0.000247
0.000273
0.000498
0.001428
0.000238
0.000242
0.000261
0.000259
0.000238
0.000252
0.000263
0.000344
0.000313
0.000548
0.000321
0.000227
0.001593
0.000295
0.000166
0.000056
0.000199
0.000226
0.000240
0.000241
0.000242
0.000257
0.000250
0.000252
0.000249
0.000444
0.000323
0.001394
0.000244
0.000211
0.000252
0.000261
0.000248
0.000260
0.000497
0.000326
0.000449
0.000367
0.000216
0.001585
0.000228
0.000258
0.000281
0.000279
0.000266
0.000269
0.000198
0.000055
0.000225
0.000220
0.000272
0.000278
0.000226
0.000246
0.000238
0.000240
0.000272
0.000227
0.000256
0.000255
0.000259
0.001483
0.000363
0.000204
0.000249
0.000270
0.000277
0.000315
0.000374
0.000267
0.000241
0.000262
0.000258
0.000272
0.000258
0.001406
0.000281
0.000232
0.000178
0.000055
0.000202
0.000239
0.000264
0.000260
0.000252
0.000235
0.000248
0.000260
0.000220
0.000260
0.000246
0.000259
0.000235
0.000347
0.000372
0.000284
0.000297
0.000238
0.001624
0.000251
0.000240
0.000262
0.000257
0.000344
0.000305
0.000473
0.000381
0.000254
0.000264
0.001605
0.000169
0.000056
0.000392
0.000294
0.000369
0.000275
0.000231
0.000216
0.000243
0.000274
0.000251
0.000255
0.000230
0.000239
0.001510
0.000350
0.000216
0.000209
0.000250
0.000255
0.000292
0.000242
0.000255
0.000240
0.000255
0.000273
0.000278
0.000345
0.000572
0.000264
0.000256
0.000251
0.000199
0.000056
0.000207
0.000271
0.000425
0.000326
0.000378
0.000274
0.000243
0.000248
0.000252
0.000257
0.000247
0.000237
0.000238
0.000250
0.001316
0.000249
0.000222
0.000249
0.000269
0.000268
0.000237
0.000265
0.000253
0.000262
0.000251
0.000270
0.000314
0.000668
0.000468
0.000222
0.000183
0.000057
0.000189
0.001572
0.000266
0.000328
0.000465
0.000355
0.000206
0.000259
0.000270
0.000260
0.000226
0.000264
0.000270
0.000268
0.000264
0.001526
0.000255
0.000284
0.000260
0.000258
0.000259
0.000252
0.000265
0.000265
0.000256
0.000299
0.000454
0.000404
0.000267
0.000243
0.000184
0.000057
0.000207
0.000249
0.000238
0.001614
0.000431
0.000341
0.000229
0.000236
0.000252
0.000272
0.000274
0.000256
0.000243
0.000265
0.000236
0.000267
0.000417
0.001309
0.000239
0.000248
0.001496
0.000544
0.000420
0.000306
0.000351
0.000225
0.000270
0.000464
0.000233
0.000267
0.000192
0.000057
0.000194
0.000231
0.000229
0.000244
0.000251
0.000258
0.000239
0.000254
0.000263
0.000237
0.000250
0.000255
0.000339
0.000633
0.001515
0.001508
0.000457
0.000427
0.000330
0.000216
0.000234
0.000258
0.000255
0.000264
0.000244
0.000271
0.000257
0.000267
0.001524
0.000333
0.000166
0.000056
0.000191
0.000357
0.000351
0.000330
0.000247
0.000220
0.000232
0.000335
0.000527
0.000304
0.002163
0.000320
0.000768
0.000480
0.000416
0.000266
0.000336
0.000393
0.000322
0.000277
0.000397
0.000239
0.001563
0.000525
0.000223
0.000256
0.000256
0.000250
0.000273
0.000261
0.000195
0.000057
0.000202
0.000254
0.000278
0.000224
0.000244
0.001665
0.000878
0.001001
0.000205
0.000231
0.000260
0.000258
0.000256
0.000261
0.000255
0.000245
0.000252
0.000269
0.000267
0.000280
0.001438
0.000311
0.000256
0.000229
0.000228
0.000274
0.000248
0.000282
0.000264
0.000293
0.001902
0.000056
0.000190
0.000236
0.001565
0.000877
0.000357
0.000342
0.000231
0.000231
0.000256
0.000259
0.000243
0.000252
0.000245
0.001979
0.000484
0.000218
0.000244
0.000249
0.000267
0.000263
0.000188
