0.000231
0.008533
0.012995
0.000361
0.000265
0.000280
0.000305
0.000252
0.000327
0.000284
0.000273
0.000338
0.000478
0.000511
0.000417
0.000312
0.000278
0.000383
0.000367
0.000350
0.000312
0.001918
0.000703
0.000253
0.000261
0.000318
0.000296
0.000394
0.000435
0.000381
0.000438
0.000289
0.000057
0.000213
0.000260
0.000269
0.000263
0.000272
0.000250
0.000278
0.000268
0.000264
0.000282
0.000435
0.000490
0.000266
0.000268
0.000410
0.000287
0.000367
0.000246
0.000260
0.001749
0.000264
0.000256
0.000451
0.000243
0.000281
0.000284
0.000281
0.000296
0.000289
0.000376
0.000437
0.000058
0.000235
0.000249
0.000266
0.000259
0.000257
0.000243
0.000260
0.000256
0.000289
0.001667
0.000222
0.000248
0.000257
0.000275
0.000281
0.000252
0.000267
0.000253
0.000355
0.001794
0.000241
0.000342
0.000521
0.000476
0.000236
0.000214
0.000247
0.000488
0.000489
0.000761
0.000195
0.000056
0.000236
0.000242
0.000254
0.000241
0.000299
0.000252
0.000312
0.000528
0.000412
0.000274
0.000234
0.000239
0.000255
0.000243
0.000254
0.000255
0.000242
0.000272
0.000310
0.000313
0.001675
0.000275
0.000252
0.000413
0.000679
0.000322
0.000652
0.000541
0.000337
0.000244
0.000186
0.000057
0.000237
0.000249
0.000264
0.000243
0.000255
0.000257
0.000301
0.000380
0.001509
0.000222
0.000251
0.000241
0.000256
0.000259
0.000263
0.000283
0.000272
0.000963
0.001229
0.000284
0.000452
0.000257
0.000234
0.000219
0.000258
0.000256
0.000266
0.000294
0.000238
0.000272
0.000191
0.000057
0.000205
0.000246
0.000245
0.000262
0.000235
0.000243
0.000257
0.000238
0.000244
0.000253
0.001638
0.000250
0.000246
0.000240
0.000250
0.000243
0.000253
0.000263
0.000240
0.000253
0.000269
0.001661
0.000289
0.000247
0.000440
0.000261
0.000249
0.000264
0.000268
0.000264
0.000197
0.000060
0.000199
0.000232
0.000250
0.000245
0.000247
0.000244
0.000263
0.000234
0.000263
0.000256
0.000267
0.000238
0.000260
0.000275
0.001642
0.000273
0.000290
0.000213
0.000258
0.000277
0.000265
0.000236
0.000248
0.000269
0.001779
0.000367
0.000369
0.000342
0.000261
0.000282
0.000193
0.000055
0.000234
0.000237
0.000249
0.000262
0.000259
0.000239
0.000325
0.000365
0.000411
0.000432
0.000206
0.000250
0.000254
0.000249
0.001577
0.000519
0.000383
0.000377
0.000284
0.000230
0.000267
0.000284
0.000276
0.001735
0.000511
0.000452
0.000252
0.000260
0.000234
0.000271
0.000180
0.000056
0.000200
0.000236
0.000252
0.000267
0.000319
0.000591
0.000318
0.000197
0.000223
0.000249
0.000266
0.000236
0.000253
0.001692
0.000515
0.000276
0.000233
0.000257
0.000269
0.000277
0.000260
0.000250
0.000274
0.001933
0.000261
0.000385
0.000261
0.000247
0.000384
0.000410
0.000327
0.000060
0.000207
0.000378
0.000392
0.000248
0.000259
0.000249
0.000247
0.000262
0.000238
0.000235
0.000248
0.000236
0.001551
0.000391
0.000268
0.000241
0.000255
0.000247
0.000249
0.000279
0.000285
0.000325
0.000240
0.001811
0.000259
0.000493
0.000239
0.000263
0.000253
0.000271
0.000254
0.000079
0.000306
0.000613
0.000608
0.000214
0.000229
0.000277
0.000227
0.000226
0.000258
0.000250
0.000258
0.001702
0.000286
0.000437
0.000338
0.000207
0.000246
0.000230
0.000249
0.000261
0.000270
0.001848
0.000227
0.000244
0.002086
0.000509
0.000369
0.000248
0.000251
0.000270
0.000188
0.000056
0.000215
0.000240
0.000252
0.000241
0.000254
0.001621
0.000245
0.000240
0.000248
0.000254
0.000246
0.000257
0.000245
0.000248
0.000263
0.000412
0.000639
0.000255
0.000231
0.000272
0.000265
0.000247
0.000251
0.000429
0.000443
0.000290
0.000276
0.000794
0.000240
0.000265
0.000205
0.000056
0.000208
0.000251
0.000246
0.000256
0.000235
0.000244
0.000237
0.000373
0.000449
0.001728
0.000219
0.000241
0.000240
0.000251
0.000257
0.000326
0.000354
0.000532
0.000320
0.000246
0.000258
0.000300
0.000285
0.000247
0.000275
0.000436
0.000427
0.000512
0.000584
0.000352
0.000167
0.000057
0.000212
0.000263
0.000237
0.000222
0.000249
0.000234
0.000248
0.000252
0.000270
0.000314
0.000331
0.000533
0.001244
0.000252
0.000231
0.000248
0.000256
0.000254
0.000251
0.000247
0.000281
0.000460
0.000471
0.000200
0.000267
0.000254
0.000257
0.000272
0.000263
0.000261
0.000384
0.000057
0.000228
0.000225
0.000242
0.000290
0.000524
0.000403
0.000241
0.000262
0.000233
0.000259
0.000250
0.000235
0.000295
0.000248
0.000254
0.000546
0.000351
0.001635
0.000281
0.000231
0.000260
0.000261
0.000255
0.000243
0.000262
0.000390
0.000566
0.000294
0.000430
0.000233
0.000196
0.000057
0.000219
0.000426
0.000239
0.000215
0.000265
0.000244
0.000242
0.000666
0.000267
0.000344
0.000220
0.000266
0.000273
0.000234
0.000517
0.000350
0.000234
0.000264
0.000397
0.001624
0.000269
0.000254
0.000497
0.000248
0.000284
0.000280
0.000252
0.000368
0.000526
0.000381
0.000260
0.000057
0.000214
0.000232
0.000238
0.000241
0.000413
0.000311
0.000294
0.000219
0.000443
0.000503
0.000352
0.000204
0.000243
0.000243
0.000260
0.000265
0.000255
0.000250
0.000229
0.000352
0.000291
0.000349
0.001830
0.000239
0.000256
0.000258
0.000350
0.000366
0.000434
0.000578
0.000499
0.000058
0.000301
0.000281
0.000313
0.000383
0.000382
0.000209
0.000266
0.000237
0.000582
0.000431
0.000223
0.000243
0.000234
0.000273
0.000259
0.000233
0.000262
0.000269
0.000265
0.000259
0.000264
0.000440
0.000732
0.001229
0.000371
0.000509
0.000315
0.000248
0.000353
0.000482
0.000359
0.000059
0.000264
0.000372
0.000264
0.000206
0.000227
0.000244
0.000410
0.000244
0.000226
0.000373
0.000470
0.000347
0.000293
0.000258
0.000263
0.000266
0.000385
0.000409
0.000305
0.000224
0.000249
0.000346
0.000686
0.001663
0.000230
0.000449
0.000291
0.000232
0.000282
0.000422
0.000359
0.000057
0.000232
0.000230
0.000244
0.000250
0.000247
0.000246
0.000250
0.000328
0.000457
0.000256
0.000544
0.000276
0.000305
0.000584
0.000234
0.000246
0.000269
0.000269
0.000229
0.000355
0.000223
0.000245
0.000268
0.000428
0.000520
0.001611
0.000269
0.000233
0.000250
0.000274
0.000185
0.000057
0.000371
0.000437
0.000320
0.000225
0.000253
0.000244
0.000256
0.000242
0.000257
0.000250
0.000223
0.000245
0.000420
0.000604
0.000317
0.000282
0.000267
0.000388
0.000405
0.000349
0.000370
0.000331
0.000423
0.000211
0.000212
0.000250
0.000259
0.000275
0.001790
0.000234
0.000210
0.000059
0.000203
0.000220
0.000255
0.000400
0.000337
0.000584
0.000191
0.000195
0.000255
0.000265
0.000245
0.000250
0.000529
0.000444
0.000514
0.000327
0.000201
0.000260
0.000437
0.000458
0.000400
0.000505
0.000430
0.000349
0.000226
0.000252
0.000269
0.000263
0.000246
0.001721
0.000397
0.000059
0.000258
0.000329
0.000212
0.000232
0.000255
0.000249
0.000302
0.000478
0.000362
0.000293
0.000290
0.000273
0.000346
0.000722
0.000255
0.000235
0.000252
0.000253
0.000254
0.000264
0.000269
0.000268
0.000244
0.000260
0.000293
0.000412
0.000379
0.000355
0.000233
0.000257
0.000192
0.000063
0.000444
0.000271
0.000521
0.000212
0.000206
0.000249
0.000265
0.000234
0.000239
0.000243
0.000232
0.000279
0.000292
0.000529
0.000411
0.000481
0.000261
0.000321
0.000391
0.000373
0.000260
0.000257
0.000218
0.000255
0.001738
0.000265
0.001731
0.000934
0.000429
0.000291
0.000167
0.000058
0.000218
0.000238
0.000224
0.000251
0.000257
0.000249
0.000256
0.000251
0.000240
0.000300
0.000401
0.000393
0.000353
0.000371
0.000258
0.000258
0.000247
0.000287
0.000246
0.000259
0.000237
0.000257
0.001792
0.000255
0.000262
0.000260
0.000277
0.000258
0.001886
0.000501
0.000317
0.000057
0.000229
0.000212
0.000236
0.000239
0.000254
0.000260
0.000232
0.000256
0.000247
0.000424
0.000571
0.000438
0.000235
0.000209
0.000232
0.000257
0.000389
0.000421
0.000337
0.000242
0.001767
0.000264
0.000247
0.000247
0.000261
0.000273
0.000239
0.000257
0.000324
0.000271
0.000458
0.000057
0.000198
0.000218
0.000237
0.000260
0.000247
0.000241
0.000257
0.000257
0.000241
0.000286
0.000211
0.000302
0.000366
0.000445
0.000269
0.000268
0.000466
0.000248
0.000258
0.000245
0.000259
0.000257
0.000274
0.000262
0.000276
0.001779
0.000255
0.000245
0.000266
0.000236
0.000205
0.000061
0.000372
0.000273
0.000205
0.000228
0.000241
0.000260
0.000214
0.000256
0.000246
0.000221
0.000252
0.000248
0.000255
0.000370
0.000389
0.000399
0.000260
0.000253
0.000231
0.000258
0.000280
0.000240
0.000252
0.000270
0.000270
0.000250
0.000305
0.001625
0.000272
0.000236
0.000190
0.000057
0.000207
0.000239
0.000252
0.000259
0.000342
0.000446
0.000404
0.000224
0.000229
0.000252
0.000256
0.000243
0.000272
0.000230
0.000259
0.000259
0.000244
0.000259
0.000254
0.000258
0.000269
0.000270
0.000248
0.000238
0.000242
0.000274
0.000278
0.000265
0.000255
0.000258
0.000197
0.000056
0.000195
0.000241
0.000251
0.000258
0.000235
0.000252
0.000243
0.000261
0.000275
0.000244
0.000230
0.000248
0.000255
0.000248
0.000266
0.000264
0.000282
0.000224
0.000300
0.000255
0.000273
0.000290
0.000273
0.000253
0.000269
0.000275
0.000268
0.000256
0.000316
0.000410
0.000678
0.000059
0.000240
0.000272
0.000219
0.000232
0.000237
0.000256
0.000237
0.000248
0.000253
0.000241
0.000267
0.000263
0.000526
0.000557
0.001440
0.000231
0.000501
0.000238
0.000411
0.000301
0.000493
0.000317
0.000229
0.000273
0.000256
0.000256
0.000283
0.000256
0.000303
0.000280
0.000166
0.000058
0.000361
0.000424
0.000320
0.000312
0.000208
0.000253
0.000251
0.000240
0.000234
0.000248
0.000254
0.000254
0.000233
0.000297
0.000317
0.000568
0.000332
0.001796
0.000237
0.000251
0.000319
0.000471
0.000490
0.000229
0.000310
0.000325
0.000298
0.000237
0.000225
0.000252
0.000196
0.000057
0.000197
0.000235
0.000231
0.000281
0.000371
0.000516
0.000266
0.000256
0.000252
0.000214
0.000247
0.000271
0.000264
0.000265
0.000247
0.000258
0.000300
0.000554
0.000313
0.000403
0.000232
0.001741
0.000350
0.000480
0.000592
0.000377
0.000320
0.000232
0.000254
0.000271
0.000447
0.000057
0.000230
0.000249
0.000238
0.000341
0.000383
0.000457
0.000363
0.000224
0.000232
0.000292
0.000244
0.000261
0.000255
0.000292
0.000310
0.000230
0.000253
0.000367
0.000559
0.000271
0.000482
0.001833
0.000263
0.000458
0.000471
0.000366
0.000227
0.000260
0.000295
0.000263
0.000198
0.000057
0.000226
0.000349
0.000353
0.000297
0.000394
0.000322
0.000354
0.000213
0.000244
0.000262
0.000270
0.000246
0.000233
0.000250
0.000254
0.000259
0.000315
0.000361
0.000579
0.000295
0.000329
0.000207
0.000266
0.001710
0.000464
0.000472
0.000685
0.000251
0.000253
0.000305
0.000160
0.000056
0.000196
0.000238
0.000331
0.000242
0.000283
0.000360
0.000465
0.000262
0.000238
0.000545
0.000219
0.000242
0.000257
0.000279
0.000271
0.000267
0.000211
0.000442
0.000445
0.000376
0.000262
0.000231
0.000278
0.000234
0.000260
0.000269
0.000231
0.000258
0.000268
0.000285
0.000228
0.000056
0.000368
0.000270
0.000211
0.000255
0.000250
0.000260
0.000237
0.000296
0.000236
0.000247
0.000260
0.000358
0.000430
0.000349
0.000403
0.000254
0.000221
0.000238
0.000258
0.000271
0.000289
0.000253
0.000240
0.000256
0.000281
0.000327
0.000439
0.000325
0.000365
0.000236
0.000175
0.000055
0.000195
0.000225
0.000281
0.000244
0.000240
0.000245
0.000258
0.000256
0.000493
0.000211
0.000260
0.000252
0.000248
0.000265
0.000274
0.000270
0.000263
0.000347
0.000220
0.000248
0.000253
0.000268
0.000256
0.000272
0.000275
0.000277
0.000247
0.000252
0.000542
0.000225
0.000153
0.000058
0.000204
0.000240
0.000248
0.000267
0.000223
0.000243
0.000366
0.000406
0.000245
0.000226
0.000253
0.000256
0.000234
0.000302
0.000411
0.001774
0.000231
0.000270
0.000283
0.000413
0.000363
0.000338
0.000345
0.000441
0.000341
0.000418
0.000238
0.000270
0.000267
0.000277
0.001391
0.000057
0.000394
0.000290
0.000275
0.000222
0.000235
0.000251
0.000229
0.000256
0.000242
0.000271
0.000248
0.000254
0.000282
0.000297
0.000481
0.001650
0.000250
0.000221
0.000252
0.000266
0.000234
0.000301
0.000312
0.000432
0.000273
0.000340
0.000232
0.000278
0.000265
0.000265
0.000194
0.000057
0.001200
0.000614
0.000266
0.000249
0.000242
0.000219
0.000238
0.000237
0.000494
0.000211
0.000261
0.000231
0.000376
0.000492
0.000421
0.000314
0.000245
0.000240
0.000416
0.000279
0.000276
0.000253
0.000265
0.000247
0.000264
0.000621
0.000558
0.000221
0.000250
0.000265
0.000171
0.000057
0.000189
0.000223
0.000242
0.000268
0.001540
0.000205
0.000230
0.000253
0.000235
0.000250
0.000256
0.000254
0.000241
0.000262
0.000278
0.000323
0.000382
0.000715
0.000212
0.001741
0.000269
0.000277
0.000297
0.000411
0.000729
0.000237
0.000251
0.000253
0.000252
0.000273
0.000202
0.000056
0.000200
0.000246
0.000238
0.000373
0.001201
0.000230
0.000258
0.000262
0.000240
0.000236
0.000241
0.000253
0.000272
0.000246
0.000262
0.000281
0.000463
0.000570
0.000188
0.000248
0.000268
0.000272
0.000248
0.000234
0.000287
0.000263
0.000241
0.000279
0.000277
0.000342
0.000644
0.000058
0.000214
0.000248
0.000238
0.000261
0.000262
0.000239
0.000235
0.000264
0.000267
0.000259
0.001432
0.000220
0.000246
0.000243
0.000250
0.000241
0.000271
0.000267
0.000260
0.000267
0.000268
0.000493
0.000419
0.000450
0.000204
0.000275
0.001757
0.000253
0.000269
0.000304
0.000612
0.000066
0.000273
0.000418
0.000457
0.000468
0.000513
0.000588
0.001502
0.000443
0.000523
0.000609
0.000562
0.000664
0.000516
0.000643
0.000557
0.001786
0.000477
0.000357
0.000394
0.000339
0.000232
0.000272
0.000285
0.000263
0.000266
0.000283
0.000292
0.000249
0.000285
0.000298
0.001355
0.000069
0.000235
0.000215
0.000231
0.000239
0.000260
0.000249
0.000239
0.000238
0.000255
0.000253
0.000233
0.000252
0.000247
0.000304
0.000219
0.000272
0.001834
0.000254
0.000268
0.000239
0.000253
0.000261
0.000268
0.000275
0.000391
0.000442
0.000326
0.000238
0.000287
0.000276
0.000198
0.000060
0.000223
0.001379
0.000309
0.000260
0.000253
0.000241
0.000244
0.000236
0.000235
0.000242
0.000223
0.000236
0.000269
0.000484
0.000371
0.000285
0.000253
0.000260
0.001931
0.000262
0.000210
0.000262
0.000262
0.000260
0.000288
0.000274
0.000264
0.000255
0.000266
0.000314
0.000202
0.000059
0.000204
0.000246
0.000246
0.001453
0.000227
0.000242
0.000240
0.000244
0.000233
0.000273
0.000248
0.000246
0.000246
0.000260
0.000261
0.000252
0.000263
0.000265
0.000306
0.000224
0.000256
0.001792
0.000260
0.001799
0.000229
0.000253
0.000254
0.000266
0.000293
0.000266
0.000184
0.000058
0.000210
0.000268
0.001334
0.000209
0.000248
0.000260
0.000245
0.000255
0.000242
0.000252
0.000245
0.000250
0.000264
0.000259
0.000255
0.000268
0.000259
0.000323
0.000256
0.000231
0.001891
0.000232
0.001845
0.000244
0.000236
0.000279
0.000224
0.000273
0.000245
0.000265
0.000192
0.000059
0.001463
0.000207
0.000218
0.000245
0.000240
0.000233
0.000377
0.000265
0.000255
0.000253
0.000261
0.000254
0.000266
0.000453
0.000359
0.000211
0.000233
0.000266
0.000269
0.000269
0.000276
0.000333
0.000236
0.000249
0.000271
0.000288
0.000266
0.000404
0.000619
0.000341
0.000154
0.000079
0.000227
0.000279
0.000252
0.000265
0.000390
0.000297
0.001720
0.000273
0.000266
0.000242
0.000257
0.000283
0.000257
0.000263
0.000298
0.000328
0.000309
0.000639
0.000295
0.000283
0.000302
0.000274
0.000277
0.000259
0.000298
0.000288
0.000232
0.000269
0.000245
0.000330
0.000402
0.000062
0.000217
0.000464
0.000268
0.000262
0.000249
0.000226
0.000226
0.000250
0.000261
0.000254
0.001518
0.000222
0.000229
0.000250
0.000245
0.000291
0.000255
0.000256
0.000261
0.000269
0.000293
0.000293
0.000639
0.000270
0.000264
0.000284
0.000265
0.000259
0.000235
0.000310
0.000167
0.000057
0.000197
0.000230
0.000295
0.000496
0.000310
0.000292
0.000223
0.000245
0.000253
0.000249
0.000232
0.000252
0.000258
0.000268
0.000239
0.000240
0.000417
0.001196
0.000240
0.000250
0.000269
0.000249
0.000352
0.000459
0.000224
0.000327
0.000579
0.000340
0.000370
0.000252
0.000174
0.000057
0.000229
0.000249
0.000259
0.000261
0.000259
0.000244
0.000335
0.000514
0.000362
0.000331
0.000395
0.000379
0.000340
0.000344
0.000239
0.000230
0.000242
0.000321
0.000377
0.001397
0.000288
0.000219
0.000277
0.000272
0.000232
0.000235
0.000274
0.000307
0.000467
0.000377
0.000267
0.000058
0.000190
0.000275
0.000218
0.000237
0.000257
0.000239
0.000237
0.000258
0.000310
0.000340
0.000469
0.000341
0.000246
0.000236
0.000249
0.000294
0.000213
0.000265
0.000267
0.000244
0.000446
0.000244
0.000435
0.000395
0.000297
0.000243
0.000270
0.000272
0.000255
0.000335
0.000156
0.000057
0.000320
0.000314
0.000332
0.000380
0.000402
0.000360
0.000258
0.000248
0.000245
0.000267
0.000267
0.000256
0.000235
0.000252
0.000239
0.000231
0.000266
0.000444
0.000354
0.000401
0.000229
0.000278
0.000238
0.000249
0.000296
0.000257
0.000261
0.000266
0.000280
0.000267
0.000362
0.000057
0.000281
0.000365
0.000233
0.000246
0.000247
0.000242
0.000271
0.000227
0.000265
0.000258
0.000253
0.000238
0.000301
0.000453
0.000456
0.000292
0.000251
0.000240
0.000261
0.000261
0.000285
0.000237
0.000253
0.000273
0.000275
0.000298
0.000447
0.000565
0.000420
0.000246
0.000175
0.000057
0.000388
0.000185
0.000229
0.000245
0.000254
0.000243
0.000236
0.000253
0.000260
0.000258
0.000221
0.000245
0.000266
0.000235
0.000237
0.000264
0.000257
0.000266
0.000273
0.000263
0.000258
0.000259
0.000263
0.000265
0.000262
0.000242
0.000266
0.000290
0.000243
0.000279
0.000199
0.000056
0.000217
0.000214
0.000243
0.000251
0.000231
0.000270
0.000250
0.000238
0.000256
0.000276
0.000233
0.000231
0.000269
0.000388
0.000257
0.000278
0.000259
0.000268
0.000251
0.000280
0.000273
0.000235
0.000249
0.000248
0.000273
0.000274
0.000268
0.000237
0.000269
0.000261
0.000204
0.000062
0.000235
0.000344
0.000371
0.000280
0.000296
0.000248
0.000244
0.000258
0.000221
0.000246
0.000247
0.000265
0.000252
0.000234
0.000260
0.000264
0.000256
0.000269
0.000246
0.000259
0.000281
0.000263
0.000282
0.000253
0.000289
0.000236
0.000257
0.000272
0.000266
0.000261
0.000194
0.000058
0.000201
0.000233
0.000262
0.000263
0.000486
0.000212
0.000215
0.000246
0.000275
0.000512
0.000465
0.000257
0.000221
0.000249
0.000265
0.000271
0.000235
0.000272
0.000259
0.000266
0.000283
0.000243
0.000258
0.000314
0.000471
0.000527
0.000265
0.000303
0.000264
0.000258
0.000192
0.000058
0.000219
0.000225
0.000244
0.000252
0.000470
0.000471
0.000350
0.000372
0.000212
0.000248
0.000250
0.000256
0.000250
0.000249
0.000258
0.000270
0.000258
0.000249
0.000735
0.000288
0.000296
0.000247
0.000260
0.000279
0.000280
0.000256
0.000266
0.000270
0.000271
0.000335
0.000339
0.000057
0.000276
0.000224
0.000239
0.000240
0.000254
0.000252
0.000232
0.000249
0.000241
0.000256
0.000247
0.000273
0.000249
0.000408
0.000545
0.000371
0.000246
0.000260
0.000262
0.000242
0.000264
0.000273
0.000492
0.000220
0.000260
0.000668
0.000384
0.000449
0.000249
0.000253
0.000183
0.000057
0.000198
0.000236
0.000238
0.000246
0.000256
0.000258
0.000316
0.000426
0.000577
0.000430
0.000217
0.000260
0.000275
0.000277
0.000256
0.000247
0.000234
0.000251
0.000259
0.000388
0.000350
0.000642
0.000363
0.000262
0.000439
0.000327
0.000459
0.000238
0.000263
0.000327
0.000443
0.000057
0.000265
0.000230
0.000435
0.000219
0.000238
0.000250
0.000280
0.000239
0.000234
0.000240
0.000264
0.000402
0.000339
0.000378
0.000230
0.000241
0.000267
0.000246
0.000263
0.000278
0.000272
0.000260
0.000243
0.000275
0.000365
0.000520
0.000392
0.000251
0.000258
0.000264
0.000197
0.000056
0.000233
0.000250
0.000226
0.000247
0.000246
0.000322
0.000294
0.000432
0.000407
0.000331
0.000331
0.000223
0.000240
0.000267
0.000253
0.000241
0.000259
0.000257
0.000345
0.000376
0.000458
0.000349
0.000471
0.000375
0.000377
0.000431
0.000318
0.000207
0.000230
0.000282
0.000357
0.000056
0.000239
0.000274
0.000250
0.000231
0.000254
0.000256
0.000247
0.000252
0.000257
0.000253
0.000240
0.000409
0.000389
0.000374
0.000379
0.000222
0.000284
0.000249
0.000265
0.000230
0.000256
0.000253
0.000263
0.000274
0.000280
0.000536
0.000293
0.000465
0.000242
0.000298
0.000170
0.000057
0.000213
0.000241
0.000263
0.000242
0.000260
0.000382
0.000510
0.000420
0.000359
0.000711
0.000239
0.000219
0.000243
0.000257
0.000250
0.000263
0.000295
0.000270
0.000454
0.000470
0.001481
0.000305
0.000251
0.000259
0.000295
0.000270
0.000452
0.000410
0.000258
0.000358
0.000173
0.000056
0.000212
0.000235
0.000241
0.000245
0.000240
0.000253
0.000278
0.000246
0.000333
0.000279
0.000343
0.000372
0.000248
0.000388
0.000337
0.000328
0.000257
0.000245
0.000267
0.000259
0.000247
0.000246
0.000281
0.000247
0.000339
0.000437
0.000424
0.000321
0.000213
0.000269
0.000189
0.000056
0.000233
0.000246
0.000256
0.000254
0.000242
0.000235
0.000471
0.000226
0.000221
0.000255
0.000247
0.000252
0.000259
0.000251
0.000257
0.000264
0.000261
0.000263
0.000274
0.000257
0.000258
0.000286
0.000292
0.000249
0.000262
0.000282
0.000268
0.000264
0.000264
0.000272
0.000177
0.000058
0.000235
0.000246
0.000307
0.000412
0.000371
0.000264
0.000228
0.000246
0.000289
0.000226
0.000238
0.000260
0.000264
0.000261
0.000238
0.000247
0.000242
0.000266
0.000306
0.000297
0.000430
0.000424
0.000256
0.000251
0.000255
0.000255
0.000267
0.000252
0.000273
0.000296
0.000176
0.000056
0.000287
0.000432
0.000385
0.000207
0.000285
0.000228
0.000406
0.000221
0.000236
0.000254
0.000256
0.000360
0.000330
0.000509
0.001750
0.000248
0.000243
0.000258
0.000274
0.000240
0.000383
0.000388
0.000649
0.000269
0.000240
0.000273
0.000263
0.000425
0.000275
0.000280
0.000166
0.000056
0.000250
0.000360
0.000395
0.000264
0.000492
0.000200
0.000265
0.000239
0.000243
0.000238
0.000263
0.000249
0.000259
0.000383
0.000462
0.000361
0.000222
0.000245
0.000254
0.000267
0.000288
0.000289
0.000229
0.000284
0.000278
0.000472
0.000506
0.000635
0.000205
0.000232
0.000203
0.000056
0.000196
0.000230
0.000254
0.000232
0.000247
0.000252
0.000262
0.000273
0.000368
0.000377
0.000407
0.000352
0.000219
0.000255
0.000264
0.000289
0.000294
0.000244
0.000274
0.000272
0.000240
0.000501
0.000253
0.000404
0.000272
0.000251
0.000268
0.000443
0.000422
0.000319
0.000157
0.000058
0.000210
0.000234
0.000343
0.000443
0.000354
0.000200
0.000243
0.000254
0.000264
0.000250
0.000264
0.000255
0.000226
0.000260
0.000258
0.000307
0.000451
0.000286
0.000294
0.000347
0.000495
0.000226
0.000281
0.000273
0.000304
0.000284
0.000250
0.000295
0.000444
0.000456
0.000257
0.000058
0.000204
0.000231
0.000249
0.000250
0.000240
0.000485
0.000204
0.000262
0.000264
0.000360
0.000426
0.000626
0.000204
0.000248
0.000241
0.000253
0.000254
0.000264
0.000246
0.000245
0.000262
0.000269
0.000419
0.000365
0.000365
0.000429
0.000273
0.000356
0.000280
0.000220
0.000200
0.000058
0.000209
0.000234
0.000273
0.000462
0.000336
0.000274
0.000278
0.000217
0.000250
0.000253
0.000256
0.000247
0.000255
0.000258
0.000254
0.000258
0.000248
0.000248
0.000255
0.000383
0.000546
0.000370
0.000229
0.000244
0.000278
0.000276
0.000277
0.000239
0.000267
0.000267
0.000194
0.000056
0.000271
0.000381
0.000469
0.000245
0.000232
0.000238
0.000330
0.000452
0.000279
0.000218
0.000244
0.000271
0.000250
0.000463
0.000466
0.000239
0.000227
0.000250
0.000250
0.000267
0.000274
0.000260
0.000266
0.000272
0.000260
0.000279
0.000417
0.000482
0.000240
0.000250
0.000176
0.000057
0.000196
0.000237
0.000244
0.000255
0.000277
0.000241
0.000226
0.000261
0.000247
0.000248
0.000269
0.000236
0.000265
0.001453
0.000229
0.000283
0.000232
0.000247
0.000275
0.000277
0.000261
0.000240
0.000276
0.000252
0.000266
0.000290
0.000252
0.000271
0.000257
0.000269
0.000189
0.000058
0.000211
0.000229
0.000251
0.000253
0.000234
0.000263
0.000245
0.000255
0.000230
0.000247
0.000250
0.000257
0.000259
0.000254
0.000254
0.000260
0.000249
0.000256
0.000276
0.000253
0.000254
0.000263
0.000245
0.000253
0.001293
0.000270
0.000636
0.000337
0.000374
0.000245
0.000186
0.000057
0.000209
0.000235
0.000244
0.000253
0.000408
0.000241
0.000241
0.000240
0.000256
0.000416
0.000505
0.000242
0.000219
0.000243
0.000263
0.000252
0.000256
0.000269
0.000243
0.000260
0.000259
0.000254
0.000270
0.000416
0.000519
0.000447
0.000217
0.000270
0.001368
0.000244
0.000185
0.000060
0.000357
0.000390
0.000325
0.000253
0.000235
0.000231
0.000234
0.000249
0.000261
0.000257
0.000248
0.000260
0.000268
0.000315
0.000505
0.000407
0.000326
0.000216
0.000256
0.000255
0.000269
0.000261
0.000292
0.000241
0.000272
0.000258
0.000294
0.000593
0.000358
0.000377
0.000153
0.000056
0.000207
0.000239
0.001265
0.000419
0.000272
0.000518
0.000359
0.000477
0.000295
0.000326
0.000222
0.000223
0.000263
0.000251
0.000258
0.000258
0.000391
0.000470
0.000427
0.000312
0.000255
0.000249
0.000258
0.000504
0.000234
0.000265
0.000255
0.000281
0.000311
0.000544
0.000288
0.000057
0.000408
0.000326
0.000213
0.000209
0.001587
0.000477
0.000257
0.000251
0.000253
0.000247
0.000226
0.000246
0.000242
0.000272
0.000249
0.000268
0.000232
0.000264
0.000390
0.000462
0.000402
0.000242
0.000257
0.000251
0.000261
0.000294
0.000248
0.000239
0.000263
0.000278
0.000215
0.000057
0.000388
0.000338
0.000223
0.000236
0.000248
0.000246
0.000251
0.000247
0.000229
0.000233
0.001419
0.000467
0.000254
0.000241
0.000245
0.000257
0.000275
0.000262
0.000238
0.000273
0.000272
0.000253
0.000261
0.000407
0.000426
0.000456
0.000235
0.000267
0.000278
0.000281
0.000170
0.000057
0.000215
0.000420
0.000219
0.000258
0.000321
0.000485
0.000291
0.000351
0.000465
0.000209
0.000227
0.000256
0.000261
0.000264
0.000258
0.001416
0.000384
0.000266
0.000239
0.000268
0.000283
0.000248
0.000255
0.000251
0.000266
0.000264
0.000432
0.000462
0.000289
0.000280
0.000161
0.000057
0.000197
0.000228
0.000256
0.000233
0.000230
0.000259
0.000239
0.000249
0.000297
0.000345
0.000387
0.000344
0.000263
0.000239
0.000246
0.000269
0.000275
0.000258
0.000269
0.000230
0.000255
0.000386
0.001186
0.000257
0.000281
0.000219
0.000261
0.000263
0.000258
0.000267
0.000180
0.000057
0.000228
0.000362
0.000381
0.000325
0.000248
0.000239
0.000259
0.000264
0.000247
0.000251
0.000254
0.000276
0.000236
0.000256
0.000257
0.000260
0.000267
0.000268
0.000266
0.000245
0.000251
0.000271
0.000286
0.000270
0.000283
0.000265
0.000268
0.000251
0.000267
0.000441
0.001365
0.000056
0.000217
0.000234
0.000237
0.000242
0.000255
0.000258
0.000247
0.000225
0.000251
0.000248
0.000277
0.000251
0.000255
0.000238
0.000256
0.000245
0.001720
0.000266
0.000240
0.000261
0.000247
0.000257
0.000274
0.000259
0.000273
0.000257
0.000289
0.000257
0.000267
0.000257
0.000214
0.000056
0.000327
0.000274
0.001319
0.000216
0.000234
0.000247
0.000261
0.000247
0.000261
0.000256
0.000230
0.000343
0.000433
0.000407
0.000287
0.000252
0.000222
0.000254
0.000260
0.000265
0.000240
0.000274
0.000263
0.000284
0.000263
0.000374
0.000435
0.000312
0.000316
0.000242
0.000197
0.000057
0.000205
0.000249
0.000243
0.000247
0.000252
0.000217
0.000246
0.000276
0.000441
0.001314
0.000249
0.000212
0.000250
0.000266
0.000255
0.000266
0.000264
0.000255
0.000293
0.000450
0.000367
0.000265
0.000240
0.000241
0.000278
0.000279
0.000264
0.000296
0.000269
0.000277
0.000192
0.000055
0.000262
0.000435
0.000363
0.000225
0.000230
0.000235
0.000249
0.000275
0.000267
0.000250
0.000227
0.000250
0.000563
0.000520
0.000366
0.001436
0.000241
0.000338
0.000333
0.000298
0.000472
0.000505
0.000450
0.000313
0.000239
0.000263
0.000267
0.000277
0.000260
0.000276
0.000190
0.000056
0.000205
0.000253
0.000492
0.000486
0.000310
0.000234
0.000252
0.000230
0.000249
0.000255
0.000253
0.000261
0.000268
0.000239
0.000269
0.000283
0.000422
0.000387
0.000357
0.001325
0.000269
0.000254
0.000259
0.000259
0.000446
0.000517
0.000326
0.000241
0.000282
0.000268
0.000190
0.000055
0.000194
0.000238
0.000266
0.000227
0.000242
0.000274
0.000490
0.000445
0.000268
0.000223
0.000244
0.000261
0.000268
0.000260
0.000261
0.000262
0.000285
0.000248
0.000255
0.000293
0.000453
0.000435
0.000307
0.001354
0.000407
0.000258
0.000258
0.000456
0.000510
0.000249
0.000325
0.000057
0.000208
0.000233
0.000254
0.000236
0.000254
0.000254
0.001710
0.000207
0.000221
0.000241
0.000257
0.000245
0.000308
0.000335
0.000314
0.000278
0.000277
0.000313
0.000458
0.000404
0.000313
0.000273
0.000254
0.001396
0.000348
0.000462
0.000266
0.000497
0.000390
0.000226
0.000149
0.000058
0.000203
0.000246
0.000253
0.000262
0.000242
0.000255
0.001711
0.000225
0.000254
0.000260
0.000338
0.000474
0.001422
0.000304
0.000401
0.000252
0.000243
0.000237
0.000270
0.000274
0.001535
0.000577
0.000373
0.000294
0.000246
0.000250
0.000264
0.000280
0.000242
0.000254
0.000196
0.000056
0.000201
0.000240
0.000266
0.000266
0.000239
0.000273
0.000279
0.000257
0.000251
0.000247
0.000259
0.000247
0.000262
0.000266
0.001532
0.000299
0.000193
0.000238
0.000266
0.000278
0.000272
0.000375
0.000396
0.001179
0.000276
0.000241
0.000272
0.000252
0.000398
0.000241
0.000206
0.000056
0.000218
0.000245
0.000222
0.000245
0.000240
0.000228
0.000231
0.001695
0.000248
0.000237
0.000250
0.000366
0.000227
0.000226
0.000253
0.001408
0.000218
0.000258
0.000269
0.000243
0.000260
0.000352
0.000276
0.001308
0.000272
0.000269
0.000247
0.000266
0.001378
0.000287
0.000216
0.000057
0.000268
0.000323
0.000206
0.000265
0.000229
0.000242
0.000263
0.000267
0.000268
0.000246
0.000262
0.000266
0.000252
0.000244
0.000300
0.001503
0.000252
0.000274
0.000255
0.000244
0.000284
0.000262
0.000251
0.001523
0.000358
0.000222
0.000256
0.001270
0.000272
0.000250
0.000251
0.000058
0.000240
0.000357
0.000352
0.000224
0.000226
0.000242
0.000259
0.000258
0.000265
0.000273
0.000241
0.000244
0.000262
0.000297
0.000386
0.001235
0.000224
0.000252
0.000267
0.000275
0.000230
0.000246
0.000250
0.000329
0.001269
0.000259
0.000250
0.000250
0.000257
0.001337
0.000311
0.000057
0.000306
0.000249
0.000229
0.000229
0.000242
0.000253
0.000246
0.000247
0.000280
0.000248
0.000250
0.000249
0.000242
0.000333
0.000442
0.001445
0.000207
0.000260
0.000302
0.000525
0.000267
0.000387
0.001358
0.000290
0.000254
0.000261
0.000253
0.001302
0.000269
0.000559
0.000350
0.000057
0.000218
0.000274
0.000232
0.000258
0.000254
0.000250
0.000272
0.000247
0.000262
0.000262
0.000425
0.000420
0.001272
0.000243
0.000253
0.000260
0.000282
0.000223
0.000255
0.000240
0.000336
0.001247
0.000253
0.000270
0.000234
0.000247
0.001521
0.000429
0.000474
0.000212
0.000187
0.000057
0.000205
0.000235
0.000244
0.000236
0.000258
0.000264
0.000239
0.000255
0.000429
0.000490
0.000295
0.001464
0.000212
0.000246
0.000266
0.000252
0.000262
0.000298
0.001690
0.000357
0.000397
0.000258
0.001236
0.000359
0.000321
0.000353
0.000228
0.000259
0.000264
0.000265
0.000188
0.000057
0.000189
0.000242
0.000326
0.000249
0.000349
0.000583
0.000202
0.000311
0.001454
0.000234
0.000388
0.000263
0.000227
0.000331
0.000406
0.001275
0.000269
0.000236
0.000250
0.000257
0.001601
0.000290
0.000279
0.000280
0.000267
0.000257
0.000458
0.000331
0.000234
0.000252
0.000258
0.000056
0.000319
0.000304
0.000339
0.000234
0.000226
0.001524
0.000212
0.000260
0.000267
0.000262
0.000272
0.000252
0.000352
0.001431
0.000249
0.000240
0.000424
0.001184
0.000328
0.000503
0.000362
0.000233
0.000241
0.000252
0.000280
0.000244
0.000452
0.000232
0.000257
0.000283
0.000194
0.000056
0.000196
0.000270
0.000340
0.000379
0.001287
0.000280
0.000308
0.000235
0.000243
0.000251
0.000249
0.000260
0.001549
0.000292
0.000203
0.000244
0.001373
0.000278
0.000470
0.000355
0.000420
0.000236
0.000250
0.000254
0.000265
0.000269
0.000279
0.000259
0.000267
0.000250
0.000195
0.000057
0.000210
0.000382
0.001483
0.000209
0.000275
0.000273
0.000244
0.000246
0.000283
0.000390
0.001370
0.000232
0.000270
0.000252
0.000240
0.001255
0.000761
0.000246
0.000356
0.000396
0.000299
0.000244
0.000247
0.000259
0.000268
0.000290
0.000272
0.000304
0.000541
0.000318
0.001383
0.000057
0.000199
0.000247
0.000244
0.000229
0.000245
0.000421
0.000476
0.001298
0.000268
0.000217
0.000249
0.001516
0.000385
0.000294
0.000228
0.000416
0.000240
0.000237
0.000274
0.000264
0.000248
0.000270
0.000284
0.000250
0.000261
0.000260
0.000513
0.000427
0.001491
0.000233
0.000195
0.000057
0.000212
0.000250
0.000385
0.000610
0.001136
0.000277
0.000239
0.000255
0.000243
0.000255
0.000253
0.000259
0.000441
0.000408
0.000348
0.000233
0.000259
0.000272
0.000249
0.000292
0.000234
0.000270
0.000259
0.000265
0.000258
0.000509
0.000374
0.000347
0.000328
0.001389
0.000168
0.000058
0.000212
0.000239
0.000285
0.000461
0.000323
0.000309
0.000317
0.000329
0.000269
0.000257
0.000284
0.000241
0.000253
0.000306
0.000239
0.000265
0.000593
0.000358
0.000237
0.000390
0.000275
0.000407
0.000220
0.000275
0.000240
0.000264
0.000248
0.000292
0.000371
0.000485
0.000292
0.000056
0.000280
0.001337
0.000314
0.000348
0.000376
0.000354
0.000428
0.000297
0.000191
0.000241
0.000265
0.000249
0.000260
0.000267
0.000277
0.000242
0.000264
0.001271
0.000349
0.000247
0.000263
0.000268
0.000275
0.000281
0.000265
0.000253
0.000275
0.000250
0.000354
0.000353
0.000378
0.000056
0.000226
0.000249
0.000220
0.001493
0.000325
0.000245
0.000231
0.000246
0.000225
0.000247
0.000255
0.000274
0.000246
0.000255
0.000266
0.000251
0.000252
0.000286
0.000248
0.000249
0.001431
0.000243
0.000237
0.000274
0.000262
0.000246
0.000264
0.000261
0.000305
0.000464
0.000344
0.000056
0.000197
0.000237
0.000394
0.000282
0.000248
0.000250
0.001547
0.000341
0.000294
0.000215
0.000258
0.000318
0.000332
0.000228
0.000230
0.000248
0.000251
0.000260
0.000262
0.000255
0.000521
0.000468
0.001115
0.000278
0.000236
0.000263
0.000266
0.000262
0.000274
0.000257
0.000266
0.000057
0.000308
0.000304
0.000210
0.000244
0.000246
0.000240
0.000244
0.000230
0.000288
0.001584
0.000470
0.000219
0.000229
0.000250
0.000258
0.000245
0.000262
0.000287
0.000246
0.000313
0.000302
0.000582
0.000432
0.001307
0.000226
0.000257
0.000266
0.000263
0.000269
0.000293
0.000479
0.000067
0.000220
0.000232
0.000236
0.000241
0.000222
0.000244
0.000260
0.000249
0.000275
0.001631
0.000286
0.000262
0.000263
0.000259
0.000480
0.000310
0.000488
0.000350
0.000303
0.000339
0.000452
0.000477
0.001239
0.000234
0.000253
0.000254
0.001710
0.000473
0.000586
0.000320
0.000148
0.000059
0.000196
0.000228
0.000241
0.000236
0.000258
0.000242
0.000247
0.000583
0.000433
0.000399
0.000282
0.000227
0.000240
0.000263
0.000267
0.000275
0.000239
0.000251
0.000252
0.000273
0.000298
0.000375
0.001361
0.000226
0.000251
0.000276
0.001905
0.000373
0.000376
0.000349
0.000158
0.000058
0.000215
0.000241
0.000246
0.001542
0.000448
0.000209
0.000236
0.000275
0.000243
0.000299
0.000375
0.000366
0.000358
0.000287
0.000335
0.000485
0.000403
0.001170
0.000268
0.000238
0.000252
0.000266
0.000263
0.000461
0.000628
0.000421
0.000228
0.000272
0.000263
0.000282
0.000191
0.000057
0.000206
0.000235
0.000239
0.001537
0.000253
0.000236
0.000242
0.000255
0.000245
0.000245
0.000260
0.000269
0.000290
0.000247
0.000247
0.000444
0.000475
0.000232
0.001405
0.000229
0.000264
0.000255
0.000264
0.000282
0.000405
0.000466
0.000425
0.000270
0.000270
0.000229
0.000446
0.000057
0.000209
0.000242
0.000248
0.001552
0.000285
0.000230
0.000268
0.000244
0.000252
0.000260
0.000251
0.000253
0.000256
0.000289
0.000488
0.000477
0.001306
0.000744
0.000262
0.000331
0.000252
0.000240
0.000248
0.000272
0.001686
0.000787
0.000235
0.000267
0.000279
0.000285
0.000186
0.000058
0.000213
0.000236
0.000250
0.000243
0.000259
0.000243
0.000253
0.000247
0.000238
0.000234
0.000292
0.000280
0.000251
0.000249
0.000260
0.000247
0.000272
0.001605
0.000769
0.000295
0.000331
0.000229
0.000244
0.000283
0.000265
0.000296
0.000243
0.000253
0.001409
0.000367
0.000374
0.000057
0.000191
0.000227
0.000252
0.000254
0.000256
0.000229
0.000254
0.000253
0.000252
0.000263
0.000311
0.000377
0.000456
0.000323
0.000216
0.000244
0.000263
0.001397
0.000683
0.000547
0.000261
0.000283
0.000218
0.000256
0.000274
0.000270
0.000242
0.000264
0.001481
0.000405
0.000222
0.000057
0.000201
0.000224
0.000244
0.000246
0.000252
0.000248
0.000233
0.000250
0.000273
0.000262
0.000387
0.000419
0.000263
0.000222
0.000248
0.000240
0.000271
0.000254
0.001558
0.000668
0.000530
0.000218
0.000239
0.000257
0.000254
0.000262
0.000296
0.000268
0.000254
0.001394
0.000284
0.000058
0.000213
0.000222
0.000231
0.000256
0.000252
0.000246
0.000271
0.000294
0.000414
0.000441
0.000304
0.000388
0.000363
0.000219
0.000249
0.000251
0.000276
0.000257
0.000267
0.001920
0.000345
0.000223
0.000454
0.000238
0.000243
0.000263
0.000281
0.000257
0.000268
0.000273
0.000338
0.000057
0.000298
0.000215
0.000231
0.000241
0.000281
0.000224
0.000239
0.000228
0.000267
0.000288
0.000211
0.000236
0.000264
0.000449
0.000594
0.000328
0.000228
0.000264
0.000252
0.000249
0.000260
0.000336
0.001412
0.001061
0.000223
0.000248
0.000268
0.000270
0.000268
0.000251
0.000225
0.000061
0.000180
0.001425
0.000198
0.000219
0.000233
0.000262
0.000247
0.000241
0.000237
0.000252
0.000269
0.000252
0.000233
0.000346
0.000445
0.000439
0.000259
0.000245
0.000269
0.000275
0.000266
0.000219
0.000266
0.000262
0.001330
0.000683
0.000360
0.000336
0.000431
0.000402
0.000240
0.000056
0.000208
0.000231
0.001414
0.000263
0.000222
0.000251
0.000227
0.000261
0.000259
0.000254
0.000242
0.000282
0.000239
0.000382
0.000554
0.000282
0.000227
0.000284
0.000330
0.000211
0.000267
0.000256
0.000230
0.000276
0.000270
0.001528
0.000743
0.000303
0.000277
0.000272
0.000197
0.000057
0.000226
0.000243
0.000477
0.000328
0.001289
0.000241
0.000240
0.000235
0.000232
0.000249
0.000247
0.000255
0.000257
0.000217
0.000255
0.000256
0.000266
0.000233
0.000256
0.000260
0.000267
0.000266
0.000301
0.000339
0.000211
0.000268
0.000270
0.001457
0.000259
0.000237
0.000183
0.000056
0.000198
0.000229
0.000274
0.000295
0.000364
0.000341
0.000384
0.000255
0.001563
0.000233
0.000287
0.000536
0.000301
0.000261
0.000443
0.000222
0.000252
0.000253
0.000273
0.000269
0.000279
0.000263
0.000255
0.000273
0.000268
0.000425
0.000349
0.000352
0.001580
0.000226
0.000188
0.000057
0.000215
0.000220
0.000237
0.000248
0.000238
0.000246
0.000262
0.000279
0.000436
0.002045
0.000228
0.000245
0.000256
0.000255
0.000260
0.000251
0.000272
0.000259
0.000268
0.000509
0.000266
0.000472
0.001454
0.000245
0.000528
0.000232
0.001776
0.000243
0.000256
0.001517
0.000165
0.000057
0.000373
0.000364
0.000478
0.000272
0.000237
0.000221
0.000260
0.000269
0.000262
0.000228
0.000257
0.000350
0.000408
0.000378
0.000418
0.000206
0.000237
0.001561
0.000243
0.000591
0.001865
0.000285
0.000247
0.001592
0.001977
0.000730
0.000272
0.000259
0.000301
0.000563
0.000201
0.000058
0.000201
0.000240
0.000250
0.000247
0.001419
0.001724
0.001087
0.000209
0.000230
0.001678
0.001890
0.000217
0.000283
0.000416
0.000276
0.000420
0.000427
0.000382
0.000211
0.000245
0.000253
0.000250
0.000273
0.001602
0.001196
0.001460
0.000243
0.000301
0.000250
0.000341
0.000323
0.000057
0.000227
0.000230
0.000236
0.000242
0.000226
0.000246
0.000246
0.000254
0.000260
0.000246
0.000242
0.000322
0.000396
0.000548
0.000217
0.000273
0.000244
0.000274
0.000270
0.000261
0.000260
0.000258
0.001632
0.000362
0.002124
0.000229
0.000259
0.000323
0.000431
0.000401
0.000202
0.000061
0.000201
0.000535
0.000299
0.000315
0.000194
0.000237
0.000250
0.000240
0.000241
0.000244
0.000248
0.000265
0.000259
0.001603
0.001358
0.001227
0.000284
0.000227
0.000253
0.000270
0.000282
0.000274
0.000256
0.000242
0.002220
0.000242
0.000251
0.000290
0.000328
0.000305
0.000220
0.000057
0.000235
0.000369
0.000583
0.000270
0.000238
0.000240
0.000243
0.000265
0.001894
0.001451
0.000214
0.000384
0.000404
0.000342
0.000248
0.000221
0.000252
0.000270
0.000266
0.000264
0.000256
0.000263
0.000473
0.000255
0.000251
0.000268
0.000255
0.000275
0.000279
0.000248
0.000200
0.000057
0.000198
0.000248
0.000274
0.000217
0.000247
0.000272
0.001550
0.001403
0.001334
0.000242
0.000230
0.000240
0.000265
0.000262
0.000248
0.000253
0.000245
0.002115
0.000244
0.000230
0.000270
0.000255
0.000261
0.000266
0.000264
0.000261
0.000268
0.000256
0.000273
0.000253
0.000182
0.000057
0.000203
0.002687
0.001385
0.000227
0.000306
0.000295
0.000228
0.000266
0.000257
0.000241
0.000256
0.000246
0.000230
0.000255
0.000268
0.000263
0.000260
0.000264
0.000282
0.000245
0.000266
0.000285
0.000271
0.000262
0.000252
0.000243
0.000267
0.000273
0.000255
0.000267
0.000371
0.000056
0.001541
0.000252
0.001245
0.000227
0.000226
0.000237
0.000261
0.000250
0.000252
0.000312
0.000394
0.000309
0.000350
0.000209
0.000247
0.002157
0.000244
0.000237
0.000438
0.000367
0.000371
0.000271
0.000220
0.000260
0.000265
0.000248
0.000264
0.000281
0.000274
0.001690
0.001181
0.000079
0.000187
0.000237
0.000243
0.000437
0.000352
0.000286
0.000213
0.000233
0.000252
0.000258
0.000265
0.000245
0.000229
0.000256
0.000287
0.000216
0.000322
0.000622
0.000360
0.000251
0.000223
0.000268
0.000284
0.000267
0.000233
0.000249
0.000261
0.000279
0.000247
0.000320
0.000410
0.000057
0.001127
0.000263
0.000302
0.000511
0.000237
0.000230
0.000226
0.000235
0.000255
0.002339
0.000353
0.000364
0.000218
0.000378
0.000276
0.000264
0.000256
0.000266
0.000261
0.000230
0.000251
0.000294
0.000577
0.000456
0.001892
0.001383
0.000467
0.000509
0.000226
0.000285
0.000194
0.000086
0.000376
0.000227
0.000196
0.000252
0.000245
0.000218
0.000250
0.000254
0.000255
0.000255
0.000253
0.000225
0.000248
0.000256
0.000445
0.000504
0.001784
0.001332
0.000458
0.000470
0.000410
0.000234
0.000246
0.000258
0.002134
0.000551
0.000383
0.000237
0.000274
0.000295
0.000181
0.000057
0.000198
0.000249
0.000246
0.000247
0.000244
0.000319
0.000434
0.000368
0.000237
0.000249
0.000244
0.000247
0.000264
0.002192
0.000264
0.000405
0.000217
0.000252
0.000266
0.000262
0.000249
0.002465
0.000323
0.000227
0.000261
0.000252
0.000261
0.000281
0.000273
0.000277
0.000198
0.000057
0.000210
0.000274
0.000628
0.000336
0.000264
0.000229
0.000221
0.000254
0.000273
0.000245
0.001969
0.000408
0.000327
0.000206
0.000220
0.000267
0.000265
0.000241
0.002210
0.000442
0.000228
0.000266
0.000264
0.000262
0.000250
0.000256
0.000279
0.000255
0.000273
0.000263
0.000172
0.000057
0.000229
0.000215
0.000245
0.000219
0.000246
0.000255
0.000239
0.000243
0.000239
0.002184
0.000220
0.000284
0.000222
0.000423
0.000232
0.000248
0.000277
0.000287
0.000241
0.000265
0.001965
0.000292
0.000381
0.000376
0.000385
0.000384
0.000315
0.000246
0.000245
0.000265
0.000195
0.000060
0.000203
0.000241
0.000236
0.000249
0.000384
0.000183
0.000229
0.002318
0.000225
0.000241
0.000256
0.000261
0.000233
0.000252
0.000306
0.002128
0.000585
0.000214
0.000265
0.000242
0.000277
0.000242
0.000293
0.000260
0.000263
0.000257
0.000286
0.000255
0.000261
0.000265
0.000190
0.000059
0.001813
0.001452
0.000199
0.000228
0.000239
0.000253
0.000251
0.000323
0.000345
0.000364
0.002170
0.000253
0.000243
0.000260
0.000268
0.000550
0.000370
0.000305
0.000229
0.000239
0.000250
0.000264
0.000266
0.000247
0.000242
0.000264
0.000268
0.000263
0.000323
0.000734
0.000239
0.000057
0.000201
0.000261
0.000258
0.000251
0.000250
0.000248
0.000254
0.000243
0.001480
0.002125
0.000580
0.000393
0.000344
0.000697
0.000292
0.000247
0.000242
0.000247
0.000270
0.000255
0.000262
0.000242
0.000246
0.000273
0.001821
0.001464
0.000288
0.000269
0.000276
0.000257
0.000442
0.000058
0.001947
0.000213
0.000231
0.000232
0.000278
0.000398
0.000418
0.000312
0.000277
0.000237
0.000240
0.000244
0.000261
0.000253
0.000282
0.000241
0.000256
0.000264
0.001843
0.000240
0.000242
0.000248
0.000272
0.000312
0.000244
0.000252
0.001469
0.000322
0.000247
0.000281
0.000162
0.000056
0.000199
0.000224
0.000272
0.000233
0.000238
0.000238
0.000321
0.000359
0.000493
0.000215
0.000219
0.000243
0.000266
0.000406
0.000378
0.000286
0.000229
0.000245
0.000257
0.000330
0.000505
0.000473
0.000214
0.000260
0.000253
0.000259
0.000249
0.000277
0.000278
0.000282
0.000184
0.000058
0.001442
0.000451
0.000207
0.001949
0.000269
0.000486
0.000397
0.000286
0.000235
0.000240
0.000268
0.000242
0.000247
0.000246
0.000268
0.000264
0.000445
0.000288
0.000368
0.000484
0.000281
0.000228
0.000256
0.000266
0.000274
0.000268
0.000266
0.000263
0.000388
0.000409
0.001398
0.000057
0.000199
0.000228
0.002078
0.000308
0.000299
0.000262
0.000260
0.000249
0.000259
0.000256
0.000221
0.000256
0.000251
0.000261
0.000258
0.000514
0.000599
0.001715
0.000232
0.000251
0.000258
0.000259
0.000386
0.000400
0.001607
0.000286
0.000363
0.001930
0.000276
0.000237
0.000194
0.000057
0.000216
0.000232
0.000234
0.000243
0.000236
0.000241
0.000256
0.000310
0.000359
0.000330
0.000373
0.000349
0.000293
0.000255
0.000232
0.000266
0.000266
0.000238
0.000268
0.000250
0.000304
0.000289
0.000287
0.000239
0.000272
0.001506
0.000290
0.000465
0.001999
0.000230
0.000167
0.000056
0.000221
0.000239
0.000239
0.000247
0.000486
0.000203
0.000259
0.000341
0.000351
0.000313
0.000310
0.000208
0.000269
0.000260
0.000272
0.000429
0.000387
0.000373
0.000243
0.000397
0.000565
0.000348
0.001639
0.000233
0.000257
0.002015
0.000302
0.000242
0.000247
0.000294
0.000185
0.000056
0.000202
0.000249
0.000224
0.000243
0.000249
0.000269
0.000252
0.000275
0.000246
0.000256
0.001811
0.000377
0.000354
0.000318
0.000431
0.000387
0.000302
0.001494
0.000245
0.000331
0.002074
0.000574
0.000239
0.000243
0.000266
0.000266
0.000503
0.000239
0.000243
0.000280
0.000195
0.000059
0.000285
0.000354
0.000363
0.000296
0.000212
0.000242
0.000258
0.000250
0.000264
0.000295
0.000227
0.000252
0.000258
0.000262
0.000345
0.001508
0.000316
0.000208
0.000281
0.001917
0.000383
0.000262
0.000251
0.000257
0.000252
0.000279
0.000272
0.000258
0.000245
0.000270
0.000204
0.000056
0.000262
0.000508
0.001939
0.000259
0.000259
0.000214
0.000243
0.000291
0.000471
0.000421
0.001316
0.000440
0.000301
0.002052
0.000202
0.000246
0.000272
0.000295
0.000234
0.000241
0.000283
0.000295
0.000258
0.000361
0.000481
0.000344
0.000371
0.002197
0.000516
0.000563
0.000281
0.000056
0.000216
0.000227
0.000244
0.001969
0.000227
0.000226
0.000245
0.000241
0.000241
0.000259
0.000244
0.000266
0.000241
0.000289
0.000404
0.001507
0.000249
0.000243
0.000268
0.000255
0.000233
0.000257
0.000262
0.000275
0.000305
0.000563
0.000370
0.000240
0.001598
0.000274
0.000164
0.000059
0.000200
0.000221
0.000240
0.000233
0.000256
0.000251
0.000253
0.000267
0.000235
0.000350
0.000398
0.001404
0.000242
0.000218
0.000247
0.000265
0.000256
0.000254
0.000492
0.000283
0.000575
0.000277
0.000228
0.001575
0.000229
0.000260
0.000290
0.000279
0.000260
0.000272
0.000192
0.000059
0.000210
0.000226
0.000265
0.000268
0.000247
0.000246
0.000234
0.000243
0.000257
0.000250
0.000243
0.000255
0.000259
0.001482
0.000365
0.000209
0.000252
0.000267
0.000310
0.000351
0.000361
0.000221
0.000232
0.000264
0.000262
0.000264
0.000263
0.001402
0.000289
0.000231
0.000172
0.000055
0.000206
0.000230
0.000253
0.000262
0.000258
0.000232
0.000249
0.000263
0.000220
0.000262
0.000262
0.000242
0.000228
0.000389
0.000271
0.000402
0.000224
0.000252
0.001635
0.000254
0.000228
0.000260
0.000261
0.000307
0.000359
0.000391
0.000470
0.000250
0.000246
0.001608
0.000158
0.000055
0.000316
0.000356
0.000353
0.000308
0.000233
0.000220
0.000244
0.000270
0.000260
0.000234
0.000247
0.000237
0.001498
0.000258
0.000323
0.000205
0.000247
0.000262
0.000266
0.000267
0.000252
0.000249
0.000247
0.000272
0.000276
0.000441
0.000376
0.000322
0.000314
0.000237
0.000184
0.000057
0.000218
0.000238
0.000528
0.000283
0.000439
0.000188
0.000243
0.000251
0.000251
0.000260
0.000241
0.000222
0.000255
0.000247
0.001262
0.000278
0.000253
0.000253
0.000265
0.000267
0.000238
0.000266
0.000255
0.000261
0.000256
0.000260
0.000358
0.000622
0.000469
0.000227
0.000184
0.000061
0.000202
0.001552
0.000225
0.000440
0.000370
0.000384
0.000215
0.000277
0.000248
0.000245
0.000247
0.000256
0.000272
0.000270
0.000258
0.001530
0.000253
0.000282
0.000267
0.000253
0.000262
0.000249
0.000267
0.000261
0.000268
0.000316
0.000431
0.000293
0.000379
0.000235
0.000193
0.000056
0.000215
0.000251
0.000230
0.001719
0.000314
0.000368
0.000211
0.000237
0.000252
0.000292
0.000262
0.000254
0.000241
0.000265
0.000249
0.000286
0.000417
0.001281
0.000243
0.000234
0.001499
0.000293
0.000571
0.000421
0.000343
0.000225
0.000270
0.000459
0.000242
0.000265
0.000179
0.000055
0.000296
0.000218
0.000243
0.000248
0.000248
0.000254
0.000240
0.000257
0.000257
0.000237
0.000254
0.000262
0.000322
0.000491
0.001663
0.001507
0.000362
0.000572
0.000282
0.000226
0.000233
0.000255
0.000244
0.000272
0.000254
0.000263
0.000258
0.000264
0.001524
0.000338
0.000166
0.000056
0.000303
0.000300
0.000372
0.000293
0.000238
0.000205
0.000248
0.000382
0.000419
0.000358
0.002158
0.000320
0.000840
0.000358
0.000470
0.000325
0.000324
0.000371
0.000309
0.000265
0.000419
0.000222
0.001808
0.000274
0.000225
0.000259
0.000253
0.000261
0.000261
0.000271
0.000193
0.000057
0.000236
0.000246
0.000250
0.000254
0.000244
0.001663
0.000873
0.000997
0.000209
0.000236
0.000260
0.000258
0.000265
0.000259
0.000255
0.000245
0.000254
0.000266
0.000266
0.000280
0.001427
0.000317
0.000257
0.000228
0.000239
0.000257
0.000262
0.000276
0.000291
0.000261
0.001890
0.000058
0.000198
0.000225
0.001550
0.000865
0.000441
0.000293
0.000233
0.000229
0.000264
0.000242
0.000247
0.000250
0.000246
0.002040
0.000421
0.000216
0.000249
0.000254
0.000264
0.000258
0.000193
