0.000174
0.019746
0.001932
0.000325
0.000222
0.000248
0.000303
0.000261
0.000316
0.000293
0.000242
0.000382
0.000522
0.000499
0.000328
0.000321
0.000305
0.000404
0.000375
0.000413
0.000302
0.001861
0.000493
0.000452
0.000254
0.000299
0.000298
0.000415
0.000415
0.000364
0.000475
0.000344
0.000058
0.000189
0.000240
0.000289
0.000243
0.000271
0.000257
0.000269
0.000264
0.000274
0.000284
0.000417
0.000512
0.000279
0.000275
0.000398
0.000362
0.000351
0.000240
0.000222
0.001733
0.000299
0.000218
0.000511
0.000247
0.000237
0.000252
0.000286
0.000293
0.000283
0.000308
0.000488
0.000057
0.000240
0.000226
0.000265
0.000257
0.000255
0.000245
0.000268
0.000252
0.000281
0.001673
0.000234
0.000240
0.000248
0.000276
0.000281
0.000268
0.000251
0.000253
0.000341
0.001802
0.000258
0.000269
0.000447
0.000462
0.000380
0.000250
0.000239
0.000628
0.000398
0.000742
0.000176
0.000057
0.000226
0.000214
0.000248
0.000243
0.000325
0.000263
0.000291
0.000510
0.000480
0.000267
0.000208
0.000214
0.000239
0.000254
0.000260
0.000253
0.000269
0.000241
0.000295
0.000326
0.001744
0.000247
0.000235
0.000468
0.000472
0.000486
0.000678
0.000468
0.000348
0.000249
0.000212
0.000056
0.000217
0.000228
0.000260
0.000253
0.000268
0.000244
0.000240
0.000481
0.001475
0.000245
0.000234
0.000228
0.000261
0.000252
0.000281
0.000268
0.000257
0.000849
0.001351
0.000308
0.000247
0.000418
0.000247
0.000243
0.000253
0.000266
0.000253
0.000272
0.000265
0.000254
0.000222
0.000056
0.000227
0.000204
0.000223
0.000247
0.000261
0.000243
0.000266
0.000227
0.000239
0.000257
0.001695
0.000248
0.000221
0.000231
0.000232
0.000250
0.000237
0.000250
0.000253
0.000255
0.000262
0.001746
0.000246
0.000253
0.000466
0.000246
0.000241
0.000239
0.000265
0.000254
0.000210
0.000057
0.000214
0.000210
0.000243
0.000253
0.000232
0.000245
0.000262
0.000243
0.000260
0.000274
0.000253
0.000236
0.000261
0.000276
0.001624
0.000278
0.000292
0.000243
0.000238
0.000267
0.000277
0.000243
0.000253
0.000254
0.000264
0.001863
0.000380
0.000347
0.000267
0.000275
0.000223
0.000057
0.000234
0.000192
0.000251
0.000264
0.000255
0.000236
0.000299
0.000376
0.000442
0.000430
0.000222
0.000232
0.000251
0.000252
0.001634
0.000515
0.000345
0.000367
0.000305
0.000224
0.000247
0.000272
0.000273
0.001805
0.000491
0.000482
0.000227
0.000246
0.000211
0.000260
0.000215
0.000055
0.000177
0.000229
0.000230
0.000267
0.000317
0.000493
0.000381
0.000273
0.000210
0.000243
0.000248
0.000239
0.000250
0.001690
0.000492
0.000319
0.000231
0.000236
0.000289
0.000261
0.000258
0.000253
0.000271
0.001956
0.000247
0.000385
0.000246
0.000252
0.000312
0.000399
0.000323
0.000056
0.000210
0.000375
0.000369
0.000248
0.000304
0.000205
0.000235
0.000248
0.000274
0.000224
0.000222
0.000245
0.001617
0.000387
0.000267
0.000215
0.000214
0.000254
0.000242
0.000280
0.000281
0.000324
0.001796
0.000375
0.000196
0.000503
0.000225
0.000223
0.000257
0.000264
0.000286
0.000056
0.000367
0.000527
0.000669
0.000198
0.000209
0.000261
0.000237
0.000232
0.000251
0.000242
0.000257
0.001691
0.000284
0.000424
0.000361
0.000226
0.000260
0.000213
0.000242
0.000255
0.000256
0.001859
0.000243
0.000235
0.002259
0.000429
0.000258
0.000265
0.000263
0.000252
0.000221
0.000056
0.000208
0.000230
0.000233
0.000241
0.000260
0.001684
0.000220
0.000199
0.000248
0.000261
0.000238
0.000264
0.000231
0.000258
0.000258
0.000400
0.000679
0.000226
0.000231
0.000273
0.000271
0.000252
0.000238
0.000489
0.000444
0.000227
0.000553
0.000606
0.000208
0.000234
0.000193
0.000056
0.000201
0.000231
0.000247
0.000245
0.000243
0.000238
0.000248
0.000435
0.000450
0.001627
0.000250
0.000237
0.000238
0.000252
0.000253
0.000265
0.000562
0.000402
0.000380
0.000222
0.000216
0.000272
0.000313
0.000280
0.000284
0.000401
0.000424
0.000566
0.000449
0.000477
0.000144
0.000057
0.000217
0.000230
0.000232
0.000230
0.000256
0.000218
0.000251
0.000247
0.000260
0.000355
0.000346
0.001573
0.000259
0.000205
0.000203
0.000222
0.000261
0.000253
0.000247
0.000252
0.000315
0.000399
0.000427
0.000331
0.000212
0.000237
0.000272
0.000258
0.000272
0.000264
0.000412
0.000055
0.000201
0.000225
0.000239
0.000266
0.000535
0.000412
0.000251
0.000256
0.000224
0.000257
0.000252
0.000240
0.000282
0.000260
0.000257
0.000516
0.000426
0.001591
0.000291
0.000219
0.000269
0.000251
0.000259
0.000242
0.000255
0.000404
0.000517
0.000454
0.000309
0.000227
0.000221
0.000057
0.000196
0.000225
0.000397
0.000242
0.000263
0.000236
0.000360
0.000502
0.000343
0.000292
0.000246
0.000264
0.000271
0.000250
0.000579
0.000296
0.000229
0.000245
0.000429
0.001651
0.000251
0.000296
0.000235
0.000443
0.000250
0.000291
0.000262
0.000335
0.000548
0.000387
0.000285
0.000058
0.000195
0.000213
0.000234
0.000246
0.000480
0.000256
0.000284
0.000217
0.000427
0.000544
0.000342
0.000247
0.000212
0.000210
0.000257
0.000268
0.000255
0.000261
0.000224
0.000374
0.000279
0.000602
0.001556
0.000271
0.000243
0.000250
0.000299
0.000364
0.000559
0.000590
0.000406
0.000056
0.000254
0.000320
0.000314
0.000422
0.000323
0.000219
0.000285
0.000241
0.000561
0.000417
0.000278
0.000207
0.000216
0.000265
0.000266
0.000244
0.000244
0.000282
0.000258
0.000264
0.000266
0.000402
0.001766
0.000311
0.000350
0.000429
0.000369
0.000254
0.000367
0.000414
0.000368
0.000056
0.000246
0.000382
0.000284
0.000200
0.000233
0.000214
0.000472
0.000219
0.000233
0.000442
0.000280
0.000436
0.000292
0.000243
0.000267
0.000282
0.000368
0.000434
0.000310
0.000220
0.000211
0.000412
0.000635
0.001647
0.000270
0.000397
0.000325
0.000244
0.000273
0.000400
0.000308
0.000056
0.000230
0.000201
0.000240
0.000243
0.000249
0.000249
0.000246
0.000357
0.000429
0.000288
0.000589
0.000259
0.000308
0.000199
0.000537
0.000269
0.000270
0.000264
0.000238
0.000348
0.000232
0.000232
0.000276
0.000416
0.000526
0.001679
0.000240
0.000258
0.000210
0.000250
0.000207
0.000076
0.000305
0.000445
0.000394
0.000205
0.000235
0.000222
0.000260
0.000231
0.000261
0.000254
0.000218
0.000486
0.000331
0.000440
0.000379
0.000306
0.000233
0.000236
0.000363
0.000359
0.000367
0.000375
0.000369
0.000371
0.000253
0.000211
0.000247
0.000272
0.001783
0.000273
0.000205
0.000057
0.000185
0.000204
0.000257
0.000262
0.000358
0.000533
0.000344
0.000227
0.000235
0.000266
0.000253
0.000246
0.000520
0.000448
0.000477
0.000305
0.000270
0.000252
0.000434
0.000491
0.000362
0.000437
0.000433
0.000473
0.000239
0.000251
0.000219
0.000229
0.000268
0.001776
0.000370
0.000055
0.000240
0.000333
0.000205
0.000218
0.000257
0.000245
0.000283
0.000449
0.000425
0.000304
0.000312
0.000308
0.000314
0.000728
0.000277
0.000200
0.000218
0.000245
0.000261
0.000264
0.000267
0.000267
0.000241
0.000267
0.000281
0.000398
0.000506
0.000339
0.000197
0.000226
0.000187
0.000056
0.000456
0.000330
0.000416
0.000245
0.000223
0.000218
0.000247
0.000256
0.000247
0.000225
0.000237
0.000283
0.000286
0.000381
0.000436
0.000567
0.000290
0.000368
0.000373
0.000392
0.000263
0.000208
0.000241
0.000239
0.001819
0.000229
0.001754
0.000926
0.000383
0.000345
0.000147
0.000055
0.000206
0.000229
0.000220
0.000236
0.000260
0.000247
0.000266
0.000242
0.000260
0.000280
0.000386
0.000471
0.000360
0.000388
0.000268
0.000218
0.000260
0.000295
0.000205
0.000232
0.000255
0.000232
0.001809
0.000270
0.000240
0.000253
0.000275
0.000262
0.001867
0.000557
0.000337
0.000056
0.000233
0.000196
0.000225
0.000235
0.000254
0.000246
0.000252
0.000248
0.000257
0.000401
0.000566
0.000277
0.000390
0.000247
0.000226
0.000277
0.000396
0.000376
0.000374
0.000251
0.001810
0.000235
0.000239
0.000211
0.000257
0.000274
0.000246
0.000266
0.000246
0.000361
0.000459
0.000057
0.000229
0.000238
0.000198
0.000257
0.000267
0.000226
0.000258
0.000254
0.000238
0.000259
0.000243
0.000250
0.000418
0.000395
0.000308
0.000337
0.000477
0.000207
0.000215
0.000261
0.000265
0.000253
0.000275
0.000258
0.000280
0.001779
0.000277
0.000253
0.000229
0.000240
0.000226
0.000057
0.000307
0.000325
0.000242
0.000187
0.000231
0.000249
0.000225
0.000257
0.000249
0.000225
0.000240
0.000257
0.000250
0.000302
0.000508
0.000347
0.000336
0.000219
0.000209
0.000246
0.000267
0.000244
0.000252
0.000256
0.000258
0.000258
0.000320
0.001688
0.000239
0.000243
0.000176
0.000056
0.000185
0.000220
0.000247
0.000259
0.000343
0.000413
0.000417
0.000273
0.000229
0.000227
0.000248
0.000238
0.000253
0.000257
0.000257
0.000257
0.000252
0.000250
0.000253
0.000267
0.000258
0.000271
0.000263
0.000233
0.000256
0.000263
0.000269
0.000261
0.000263
0.000265
0.000211
0.000056
0.000195
0.000207
0.000252
0.000245
0.000244
0.000248
0.000251
0.000254
0.000366
0.000203
0.000191
0.000245
0.000253
0.000251
0.000258
0.000272
0.000254
0.000245
0.000368
0.000210
0.000243
0.000285
0.000283
0.000260
0.000268
0.000277
0.000261
0.000261
0.000269
0.000421
0.000699
0.000057
0.000230
0.000301
0.000224
0.000198
0.000213
0.000254
0.000239
0.000246
0.000249
0.000250
0.000259
0.000262
0.000515
0.000527
0.001564
0.000214
0.000506
0.000200
0.000272
0.000439
0.000460
0.000322
0.000239
0.000275
0.000255
0.000256
0.000277
0.000259
0.000295
0.000279
0.000192
0.000056
0.000225
0.000491
0.000376
0.000312
0.000199
0.000253
0.000250
0.000240
0.000237
0.000245
0.000254
0.000254
0.000245
0.000342
0.000299
0.000469
0.000385
0.001799
0.000259
0.000248
0.000310
0.000557
0.000382
0.000248
0.000380
0.000258
0.000302
0.000225
0.000235
0.000256
0.000196
0.000057
0.000183
0.000223
0.000234
0.000278
0.000421
0.000448
0.000277
0.000259
0.000249
0.000227
0.000237
0.000274
0.000257
0.000268
0.000244
0.000288
0.000259
0.000516
0.000341
0.000431
0.000226
0.001822
0.000304
0.000535
0.000493
0.000435
0.000285
0.000224
0.000248
0.000269
0.000499
0.000056
0.000220
0.000231
0.000234
0.000315
0.000389
0.000459
0.000421
0.000205
0.000223
0.000325
0.000220
0.000235
0.000263
0.000335
0.000305
0.000226
0.000233
0.000355
0.000484
0.000333
0.000543
0.001785
0.000251
0.000516
0.000409
0.000360
0.000250
0.000368
0.000244
0.000216
0.000214
0.000056
0.000222
0.000335
0.000347
0.000315
0.000366
0.000294
0.000402
0.000209
0.000234
0.000250
0.000278
0.000241
0.000237
0.000249
0.000254
0.000256
0.000304
0.000376
0.000528
0.000416
0.000276
0.000205
0.000256
0.001788
0.000479
0.000403
0.000644
0.000287
0.000243
0.000290
0.000183
0.000056
0.000183
0.000215
0.000320
0.000255
0.000263
0.000374
0.000431
0.000308
0.000612
0.000215
0.000207
0.000225
0.000230
0.000276
0.000282
0.000271
0.000233
0.000309
0.000574
0.000332
0.000275
0.000236
0.000251
0.000266
0.000263
0.000260
0.000247
0.000238
0.000267
0.000350
0.000160
0.000057
0.000388
0.000283
0.000195
0.000217
0.000265
0.000253
0.000243
0.000354
0.000216
0.000214
0.000254
0.000331
0.000425
0.000434
0.000389
0.000230
0.000234
0.000225
0.000243
0.000263
0.000262
0.000299
0.000235
0.000251
0.000277
0.000301
0.000482
0.000364
0.000359
0.000227
0.000154
0.000056
0.000195
0.000203
0.000277
0.000237
0.000244
0.000252
0.000253
0.000260
0.000484
0.000257
0.000223
0.000262
0.000237
0.000263
0.000271
0.000270
0.000264
0.000361
0.000245
0.000223
0.000246
0.000275
0.000250
0.000262
0.000275
0.000271
0.000261
0.000262
0.000244
0.000511
0.000167
0.000056
0.000207
0.000212
0.000240
0.000272
0.000240
0.000232
0.000297
0.000451
0.000280
0.000219
0.000248
0.000260
0.000235
0.000312
0.000527
0.001651
0.000232
0.000278
0.000292
0.000377
0.000413
0.000346
0.000424
0.000305
0.000444
0.000322
0.000247
0.000269
0.000263
0.000294
0.001395
0.000057
0.000380
0.000305
0.000315
0.000203
0.000190
0.000246
0.000233
0.000263
0.000229
0.000261
0.000262
0.000253
0.000249
0.000325
0.000550
0.001655
0.000230
0.000190
0.000229
0.000264
0.000239
0.000261
0.000431
0.000371
0.000263
0.000340
0.000247
0.000245
0.000270
0.000264
0.000219
0.000057
0.001286
0.000460
0.000320
0.000312
0.000193
0.000203
0.000214
0.000233
0.000479
0.000245
0.000218
0.000253
0.000329
0.000578
0.000354
0.000330
0.000298
0.000253
0.000354
0.000346
0.000227
0.000234
0.000274
0.000241
0.000266
0.000635
0.000550
0.000228
0.000244
0.000268
0.000179
0.000057
0.000177
0.000210
0.000228
0.000258
0.001564
0.000213
0.000206
0.000252
0.000238
0.000260
0.000243
0.000253
0.000243
0.000264
0.000268
0.000279
0.000468
0.000722
0.000186
0.001802
0.000248
0.000296
0.000357
0.000333
0.000645
0.000293
0.000231
0.000249
0.000252
0.000273
0.000227
0.000057
0.000183
0.000243
0.000229
0.001307
0.000341
0.000202
0.000255
0.000211
0.000251
0.000224
0.000252
0.000240
0.000281
0.000248
0.000261
0.000264
0.000519
0.000452
0.000312
0.000206
0.000246
0.000283
0.000249
0.000232
0.000340
0.000235
0.000228
0.000271
0.000269
0.000530
0.000532
0.000056
0.000217
0.000220
0.000240
0.000257
0.000267
0.000250
0.000238
0.000242
0.000273
0.000251
0.001428
0.000250
0.000224
0.000255
0.000253
0.000231
0.000270
0.000264
0.000254
0.000278
0.000268
0.000466
0.000478
0.000373
0.000246
0.000271
0.001842
0.000227
0.000224
0.000329
0.000459
0.000057
0.000257
0.000426
0.000459
0.000504
0.000522
0.000611
0.001397
0.000429
0.000539
0.000645
0.000556
0.000744
0.000451
0.000626
0.000581
0.001718
0.000472
0.000451
0.000389
0.000315
0.000242
0.000299
0.000282
0.000267
0.000270
0.000292
0.000290
0.000289
0.000239
0.000300
0.001314
0.000058
0.000216
0.000247
0.000216
0.000236
0.000247
0.000250
0.000239
0.000232
0.000279
0.000257
0.000241
0.000274
0.000220
0.000264
0.000268
0.000256
0.001839
0.000259
0.000268
0.000249
0.000253
0.000265
0.000262
0.000295
0.000408
0.000420
0.000314
0.000241
0.000270
0.000285
0.000168
0.000056
0.000215
0.001396
0.000264
0.000262
0.000265
0.000234
0.000247
0.000243
0.000254
0.000238
0.000249
0.000251
0.000271
0.000406
0.000288
0.000366
0.000268
0.000281
0.001897
0.000257
0.000265
0.000261
0.000255
0.000257
0.000277
0.000266
0.000286
0.000237
0.000253
0.000306
0.000233
0.000057
0.000199
0.000224
0.000274
0.001406
0.000262
0.000263
0.000221
0.000229
0.000231
0.000263
0.000265
0.000238
0.000239
0.000282
0.000264
0.000236
0.000254
0.000260
0.000269
0.000277
0.000250
0.001851
0.000259
0.001767
0.000249
0.000250
0.000248
0.000235
0.000262
0.000291
0.000199
0.000057
0.000201
0.000238
0.001374
0.000220
0.000287
0.000208
0.000210
0.000260
0.000237
0.000249
0.000246
0.000258
0.000248
0.000265
0.000262
0.000254
0.000262
0.000281
0.000291
0.000241
0.001877
0.000280
0.001780
0.000274
0.000258
0.000257
0.000254
0.000259
0.000267
0.000255
0.000186
0.000057
0.001406
0.000230
0.000250
0.000222
0.000215
0.000229
0.000268
0.000360
0.000259
0.000251
0.000270
0.000242
0.000260
0.000422
0.000405
0.000259
0.000259
0.000267
0.000223
0.000229
0.000263
0.000319
0.000257
0.000267
0.000288
0.000255
0.000257
0.000443
0.000609
0.000346
0.000186
0.000056
0.000223
0.000283
0.000262
0.000315
0.000346
0.000278
0.001666
0.000295
0.000279
0.000250
0.000281
0.000289
0.000274
0.000259
0.000313
0.000305
0.000310
0.000602
0.000334
0.000268
0.000324
0.000275
0.000258
0.000276
0.000322
0.000257
0.000267
0.000245
0.000240
0.000286
0.000413
0.000057
0.000281
0.000379
0.000270
0.000268
0.000252
0.000231
0.000217
0.000250
0.000260
0.000260
0.001500
0.000245
0.000210
0.000256
0.000241
0.000281
0.000271
0.000251
0.000259
0.000265
0.000266
0.000323
0.000620
0.000343
0.000231
0.000286
0.000265
0.000241
0.000241
0.000236
0.000254
0.000056
0.000196
0.000201
0.000288
0.000481
0.000339
0.000293
0.000210
0.000242
0.000248
0.000261
0.000237
0.000252
0.000245
0.000270
0.000239
0.000242
0.000490
0.001180
0.000222
0.000256
0.000234
0.000248
0.000339
0.000506
0.000219
0.000218
0.000634
0.000352
0.000426
0.000224
0.000162
0.000057
0.000212
0.000228
0.000257
0.000263
0.000312
0.000200
0.000334
0.000526
0.000374
0.000305
0.000364
0.000400
0.000390
0.000354
0.000249
0.000213
0.000213
0.000251
0.000333
0.000642
0.001149
0.000246
0.000245
0.000273
0.000236
0.000239
0.000269
0.000301
0.000407
0.000545
0.000206
0.000057
0.000174
0.000223
0.000251
0.000240
0.000250
0.000249
0.000233
0.000259
0.000255
0.000369
0.000490
0.000423
0.000227
0.000204
0.000226
0.000261
0.000242
0.000268
0.000259
0.000540
0.000218
0.000203
0.000368
0.000430
0.000335
0.000235
0.000244
0.000274
0.000261
0.000276
0.000232
0.000057
0.000281
0.000305
0.000327
0.000347
0.000560
0.000263
0.000237
0.000282
0.000212
0.000261
0.000259
0.000260
0.000243
0.000252
0.000246
0.000229
0.000267
0.000352
0.000520
0.000398
0.000202
0.000257
0.000218
0.000247
0.000262
0.000283
0.000260
0.000272
0.000275
0.000272
0.000273
0.000057
0.000290
0.000339
0.000217
0.000225
0.000255
0.000242
0.000265
0.000233
0.000264
0.000260
0.000252
0.000240
0.000281
0.000547
0.000461
0.000303
0.000205
0.000198
0.000253
0.000261
0.000280
0.000254
0.000246
0.000272
0.000286
0.000269
0.000408
0.000621
0.000513
0.000213
0.000136
0.000057
0.000354
0.000211
0.000201
0.000230
0.000252
0.000259
0.000241
0.000237
0.000267
0.000247
0.000234
0.000237
0.000273
0.000228
0.000239
0.000253
0.000265
0.000261
0.000274
0.000261
0.000264
0.000252
0.000270
0.000257
0.000276
0.000265
0.000231
0.000294
0.000241
0.000283
0.000219
0.000057
0.000179
0.000215
0.000247
0.000253
0.000228
0.000250
0.000266
0.000238
0.000260
0.000276
0.000245
0.000239
0.000246
0.000400
0.000240
0.000280
0.000262
0.000267
0.000258
0.000283
0.000269
0.000234
0.000257
0.000244
0.000265
0.000275
0.000270
0.000236
0.000266
0.000267
0.000221
0.000056
0.000238
0.000378
0.000349
0.000281
0.000334
0.000206
0.000203
0.000256
0.000251
0.000224
0.000239
0.000277
0.000251
0.000228
0.000258
0.000254
0.000272
0.000273
0.000248
0.000252
0.000278
0.000266
0.000278
0.000260
0.000276
0.000275
0.000241
0.000288
0.000230
0.000275
0.000201
0.000056
0.000194
0.000215
0.000256
0.000263
0.000251
0.000445
0.000215
0.000264
0.000316
0.000360
0.000524
0.000336
0.000202
0.000234
0.000255
0.000271
0.000244
0.000263
0.000255
0.000271
0.000265
0.000267
0.000265
0.000295
0.000551
0.000461
0.000280
0.000271
0.000273
0.000266
0.000198
0.000056
0.000212
0.000186
0.000255
0.000247
0.000333
0.000718
0.000235
0.000378
0.000238
0.000220
0.000255
0.000255
0.000267
0.000240
0.000255
0.000268
0.000269
0.000281
0.000641
0.000405
0.000265
0.000211
0.000253
0.000286
0.000280
0.000262
0.000259
0.000264
0.000252
0.000339
0.000411
0.000057
0.000268
0.000229
0.000212
0.000234
0.000257
0.000257
0.000230
0.000246
0.000241
0.000251
0.000253
0.000266
0.000243
0.000482
0.000480
0.000415
0.000232
0.000231
0.000264
0.000256
0.000255
0.000273
0.000470
0.000237
0.000262
0.000661
0.000393
0.000439
0.000276
0.000249
0.000193
0.000057
0.000188
0.000226
0.000227
0.000239
0.000253
0.000264
0.000307
0.000684
0.000424
0.000328
0.000232
0.000246
0.000267
0.000280
0.000283
0.000228
0.000242
0.000245
0.000256
0.000298
0.000481
0.000534
0.000433
0.000273
0.000441
0.000360
0.000472
0.000212
0.000237
0.000351
0.000432
0.000057
0.000256
0.000222
0.000491
0.000194
0.000227
0.000230
0.000253
0.000258
0.000237
0.000240
0.000274
0.000420
0.000398
0.000329
0.000219
0.000209
0.000285
0.000220
0.000274
0.000276
0.000277
0.000262
0.000245
0.000268
0.000311
0.000490
0.000470
0.000256
0.000271
0.000256
0.000218
0.000056
0.000210
0.000234
0.000229
0.000246
0.000242
0.000256
0.000425
0.000395
0.000412
0.000285
0.000344
0.000244
0.000220
0.000272
0.000260
0.000234
0.000261
0.000259
0.000284
0.000439
0.000534
0.000248
0.000449
0.000351
0.000395
0.000392
0.000381
0.000253
0.000220
0.000270
0.000378
0.000057
0.000215
0.000274
0.000232
0.000234
0.000256
0.000262
0.000249
0.000244
0.000255
0.000274
0.000248
0.000338
0.000443
0.000380
0.000366
0.000247
0.000251
0.000267
0.000261
0.000239
0.000250
0.000252
0.000258
0.000279
0.000283
0.000312
0.000536
0.000432
0.000256
0.000280
0.000205
0.000056
0.000204
0.000223
0.000261
0.000246
0.000251
0.000339
0.000518
0.000541
0.000296
0.000661
0.000294
0.000223
0.000211
0.000265
0.000244
0.000263
0.000285
0.000260
0.000474
0.000502
0.001574
0.000242
0.000262
0.000259
0.000302
0.000219
0.000422
0.000395
0.000346
0.000328
0.000157
0.000057
0.000199
0.000207
0.000249
0.000247
0.000238
0.000250
0.000276
0.000255
0.000253
0.000351
0.000376
0.000341
0.000275
0.000384
0.000387
0.000333
0.000237
0.000222
0.000240
0.000261
0.000251
0.000236
0.000275
0.000271
0.000335
0.000532
0.000361
0.000271
0.000224
0.000264
0.000211
0.000055
0.000208
0.000233
0.000259
0.000252
0.000255
0.000227
0.000454
0.000233
0.000233
0.000256
0.000241
0.000256
0.000251
0.000259
0.000249
0.000270
0.000265
0.000258
0.000277
0.000254
0.000259
0.000302
0.000296
0.000244
0.000254
0.000278
0.000265
0.000275
0.000253
0.000273
0.000200
0.000056
0.000229
0.000214
0.000317
0.000469
0.000362
0.000222
0.000214
0.000244
0.000266
0.000242
0.000243
0.000256
0.000270
0.000258
0.000236
0.000251
0.000244
0.000269
0.000282
0.000331
0.000391
0.000467
0.000231
0.000250
0.000261
0.000254
0.000268
0.000255
0.000272
0.000284
0.000213
0.000056
0.000393
0.000424
0.000351
0.000216
0.000241
0.000255
0.000473
0.000200
0.000226
0.000225
0.000292
0.000325
0.000377
0.000450
0.001745
0.000267
0.000254
0.000241
0.000280
0.000257
0.000361
0.000416
0.000533
0.000386
0.000241
0.000239
0.000269
0.000420
0.000284
0.000278
0.000187
0.000055
0.000244
0.000369
0.000370
0.000236
0.000505
0.000210
0.000248
0.000229
0.000259
0.000237
0.000254
0.000253
0.000262
0.000305
0.000484
0.000454
0.000222
0.000204
0.000255
0.000272
0.000251
0.000326
0.000250
0.000260
0.000275
0.000446
0.000524
0.000391
0.000475
0.000230
0.000203
0.000057
0.000186
0.000210
0.000252
0.000229
0.000248
0.000251
0.000269
0.000280
0.000360
0.000363
0.000428
0.000372
0.000210
0.000227
0.000265
0.000273
0.000327
0.000231
0.000274
0.000274
0.000244
0.000336
0.000437
0.000391
0.000248
0.000291
0.000245
0.000561
0.000356
0.000268
0.000168
0.000056
0.000198
0.000230
0.000326
0.000516
0.000272
0.000237
0.000222
0.000246
0.000260
0.000259
0.000267
0.000259
0.000224
0.000249
0.000261
0.000287
0.000378
0.000383
0.000380
0.000293
0.000464
0.000234
0.000272
0.000275
0.000304
0.000278
0.000275
0.000245
0.000475
0.000512
0.000214
0.000078
0.000172
0.000211
0.000245
0.000245
0.000262
0.000473
0.000211
0.000239
0.000267
0.000322
0.000546
0.000556
0.000230
0.000218
0.000244
0.000245
0.000252
0.000258
0.000240
0.000265
0.000251
0.000277
0.000418
0.000395
0.000398
0.000327
0.000341
0.000343
0.000300
0.000213
0.000182
0.000057
0.000199
0.000210
0.000245
0.000542
0.000263
0.000386
0.000251
0.000212
0.000210
0.000241
0.000248
0.000258
0.000247
0.000252
0.000308
0.000207
0.000255
0.000254
0.000246
0.000400
0.000543
0.000389
0.000231
0.000210
0.000281
0.000283
0.000255
0.000264
0.000255
0.000280
0.000204
0.000056
0.000263
0.000391
0.000499
0.000210
0.000215
0.000223
0.000294
0.000530
0.000267
0.000199
0.000224
0.000270
0.000298
0.000365
0.000501
0.000328
0.000211
0.000218
0.000282
0.000221
0.000255
0.000271
0.000267
0.000262
0.000262
0.000291
0.000426
0.000504
0.000277
0.000221
0.000151
0.000058
0.000177
0.000221
0.000237
0.000256
0.000253
0.000262
0.000232
0.000257
0.000257
0.000244
0.000264
0.000244
0.000251
0.001464
0.000248
0.000240
0.000250
0.000252
0.000272
0.000280
0.000264
0.000234
0.000276
0.000254
0.000266
0.000269
0.000281
0.000264
0.000265
0.000263
0.000211
0.000057
0.000202
0.000215
0.000245
0.000249
0.000236
0.000246
0.000271
0.000244
0.000234
0.000253
0.000241
0.000260
0.000256
0.000255
0.000254
0.000255
0.000249
0.000272
0.000267
0.000253
0.000255
0.000257
0.000251
0.000250
0.001360
0.000268
0.000587
0.000414
0.000359
0.000206
0.000176
0.000057
0.000187
0.000234
0.000236
0.000258
0.000482
0.000231
0.000185
0.000222
0.000255
0.000325
0.000616
0.000295
0.000206
0.000202
0.000243
0.000262
0.000252
0.000261
0.000251
0.000253
0.000266
0.000252
0.000258
0.000478
0.000453
0.000452
0.000248
0.000235
0.001364
0.000282
0.000199
0.000057
0.000361
0.000423
0.000348
0.000251
0.000206
0.000199
0.000220
0.000254
0.000259
0.000259
0.000247
0.000255
0.000262
0.000282
0.000592
0.000384
0.000306
0.000238
0.000258
0.000242
0.000253
0.000265
0.000282
0.000246
0.000274
0.000255
0.000327
0.000547
0.000415
0.000382
0.000161
0.000055
0.000209
0.000259
0.001304
0.000324
0.000279
0.000500
0.000349
0.000324
0.000435
0.000370
0.000240
0.000201
0.000273
0.000224
0.000255
0.000261
0.000287
0.000597
0.000359
0.000361
0.000266
0.000246
0.000261
0.000510
0.000234
0.000258
0.000261
0.000274
0.000314
0.000544
0.000309
0.000056
0.000341
0.000386
0.000228
0.000199
0.001545
0.000537
0.000273
0.000235
0.000208
0.000243
0.000223
0.000244
0.000249
0.000257
0.000255
0.000269
0.000233
0.000318
0.000448
0.000352
0.000476
0.000208
0.000217
0.000257
0.000247
0.000280
0.000270
0.000238
0.000262
0.000277
0.000230
0.000056
0.000473
0.000195
0.000249
0.000221
0.000230
0.000249
0.000251
0.000253
0.000232
0.000246
0.001473
0.000449
0.000275
0.000198
0.000213
0.000255
0.000272
0.000265
0.000229
0.000276
0.000272
0.000257
0.000262
0.000386
0.000443
0.000477
0.000206
0.000265
0.000290
0.000271
0.000193
0.000056
0.000199
0.000462
0.000190
0.000216
0.000365
0.000394
0.000385
0.000330
0.000450
0.000219
0.000216
0.000255
0.000256
0.000261
0.000267
0.001411
0.000357
0.000284
0.000241
0.000277
0.000282
0.000247
0.000255
0.000259
0.000249
0.000282
0.000442
0.000447
0.000298
0.000291
0.000150
0.000056
0.000176
0.000217
0.000255
0.000238
0.000229
0.000266
0.000240
0.000247
0.000292
0.000476
0.000376
0.000302
0.000211
0.000210
0.000254
0.000263
0.000279
0.000265
0.000270
0.000229
0.000252
0.000293
0.001349
0.000239
0.000242
0.000225
0.000239
0.000269
0.000257
0.000265
0.000193
0.000055
0.000242
0.000309
0.000449
0.000318
0.000240
0.000201
0.000245
0.000260
0.000259
0.000247
0.000261
0.000264
0.000245
0.000252
0.000259
0.000254
0.000265
0.000275
0.000267
0.000260
0.000247
0.000258
0.000278
0.000275
0.000287
0.000288
0.000272
0.000236
0.000253
0.000510
0.001326
0.000057
0.000205
0.000220
0.000234
0.000234
0.000257
0.000265
0.000249
0.000218
0.000245
0.000250
0.000265
0.000257
0.000262
0.000242
0.000246
0.001700
0.000364
0.000217
0.000214
0.000237
0.000256
0.000254
0.000275
0.000261
0.000268
0.000255
0.000262
0.000285
0.000270
0.000252
0.000243
0.000055
0.000309
0.000290
0.001361
0.000194
0.000204
0.000230
0.000258
0.000246
0.000261
0.000256
0.000241
0.000359
0.000370
0.000528
0.000250
0.000204
0.000224
0.000258
0.000256
0.000263
0.000251
0.000257
0.000266
0.000290
0.000266
0.000406
0.000400
0.000345
0.000282
0.000259
0.000194
0.000055
0.000196
0.000222
0.000242
0.000250
0.000246
0.000238
0.000233
0.000261
0.000396
0.000429
0.001181
0.000227
0.000238
0.000266
0.000256
0.000268
0.000267
0.000247
0.000329
0.000391
0.000431
0.000275
0.000196
0.000245
0.000271
0.000272
0.000272
0.000296
0.000267
0.000280
0.000215
0.000057
0.000245
0.000432
0.000401
0.000246
0.000184
0.000209
0.000244
0.000265
0.000270
0.000257
0.000225
0.000535
0.000278
0.000477
0.000535
0.001370
0.000229
0.000242
0.000346
0.000361
0.000435
0.000421
0.000464
0.000385
0.000262
0.000247
0.000258
0.000276
0.000268
0.000277
0.000209
0.000056
0.000200
0.000219
0.000519
0.000373
0.000428
0.000217
0.000257
0.000227
0.000245
0.000257
0.000252
0.000255
0.000272
0.000243
0.000265
0.000346
0.000303
0.000494
0.000331
0.001313
0.000254
0.000259
0.000260
0.000494
0.000291
0.000413
0.000405
0.000218
0.000248
0.000276
0.000203
0.000056
0.000180
0.000221
0.000253
0.000232
0.000251
0.000290
0.000426
0.000414
0.000357
0.000235
0.000227
0.000255
0.000270
0.000261
0.000262
0.000264
0.000265
0.000245
0.000270
0.000279
0.000550
0.000436
0.000308
0.001341
0.000348
0.000240
0.000283
0.000426
0.000449
0.000336
0.000336
0.000054
0.000178
0.000221
0.000246
0.000252
0.000251
0.000251
0.001691
0.000271
0.000216
0.000221
0.000250
0.000250
0.000326
0.000329
0.000325
0.000283
0.000243
0.000348
0.000446
0.000451
0.000279
0.000269
0.000218
0.000240
0.001426
0.000414
0.000433
0.000478
0.000313
0.000302
0.000156
0.000057
0.000177
0.000229
0.000273
0.000242
0.000242
0.000255
0.001782
0.000216
0.000231
0.000253
0.000394
0.000408
0.001420
0.000388
0.000374
0.000202
0.000221
0.000237
0.000259
0.000268
0.001706
0.000482
0.000396
0.000283
0.000213
0.000207
0.000262
0.000280
0.000262
0.000236
0.000231
0.000057
0.000192
0.000207
0.000267
0.000257
0.000255
0.000277
0.000280
0.000254
0.000255
0.000252
0.000254
0.000249
0.000247
0.000277
0.000264
0.001486
0.000277
0.000237
0.000269
0.000274
0.000271
0.000265
0.000416
0.001279
0.000290
0.000224
0.000264
0.000258
0.000462
0.000208
0.000194
0.000056
0.000192
0.000229
0.000232
0.000253
0.000226
0.000230
0.000232
0.001758
0.000222
0.000211
0.000243
0.000351
0.000240
0.000217
0.001454
0.000258
0.000212
0.000221
0.000271
0.000237
0.000262
0.000307
0.001433
0.000348
0.000196
0.000226
0.000235
0.000242
0.001393
0.000273
0.000246
0.000057
0.000218
0.000368
0.000206
0.000216
0.000250
0.000240
0.000264
0.000267
0.000268
0.000241
0.000274
0.000263
0.000247
0.000246
0.000340
0.001463
0.000263
0.000255
0.000264
0.000244
0.000275
0.000267
0.000259
0.001532
0.000310
0.000257
0.000247
0.001361
0.000227
0.000217
0.000213
0.000057
0.000212
0.000385
0.000327
0.000210
0.000233
0.000241
0.000259
0.000260
0.000265
0.000264
0.000242
0.000248
0.000258
0.000281
0.001424
0.000275
0.000203
0.000216
0.000260
0.000277
0.000233
0.000249
0.000242
0.001285
0.000394
0.000233
0.000213
0.000249
0.000250
0.001346
0.000326
0.000057
0.000289
0.000261
0.000208
0.000222
0.000235
0.000241
0.000248
0.000255
0.000271
0.000250
0.000251
0.000242
0.000249
0.000321
0.000441
0.001448
0.000238
0.000240
0.000276
0.000525
0.000298
0.000406
0.001323
0.000306
0.000249
0.000256
0.001279
0.000356
0.000240
0.000516
0.000323
0.000055
0.000199
0.000245
0.000251
0.000253
0.000256
0.000248
0.000277
0.000254
0.000265
0.000256
0.000293
0.000588
0.001294
0.000221
0.000235
0.000261
0.000285
0.000259
0.000209
0.000231
0.000324
0.001324
0.000235
0.000234
0.000225
0.000244
0.001482
0.000455
0.000482
0.000241
0.000191
0.000057
0.000200
0.000207
0.000251
0.000232
0.000247
0.000275
0.000243
0.000245
0.000441
0.000479
0.000325
0.001434
0.000226
0.000235
0.000256
0.000262
0.000268
0.000267
0.001664
0.000315
0.000353
0.000361
0.001384
0.000335
0.000289
0.000347
0.000232
0.000225
0.000237
0.000269
0.000210
0.000056
0.000188
0.000210
0.000321
0.000249
0.000285
0.000546
0.000372
0.000310
0.001459
0.000296
0.000334
0.000247
0.000200
0.000325
0.000383
0.001346
0.000261
0.000214
0.000215
0.000246
0.000313
0.001588
0.000361
0.000275
0.000230
0.000210
0.000525
0.000315
0.000224
0.000246
0.000234
0.000056
0.000294
0.000344
0.000305
0.000313
0.000216
0.001443
0.000257
0.000236
0.000245
0.000271
0.000264
0.000254
0.000344
0.001441
0.000253
0.000234
0.000419
0.001286
0.000274
0.000447
0.000366
0.000247
0.000246
0.000238
0.000282
0.000257
0.000447
0.000241
0.000249
0.000275
0.000216
0.000055
0.000190
0.000251
0.000350
0.001431
0.000277
0.000199
0.000312
0.000251
0.000243
0.000247
0.000245
0.000259
0.001645
0.000201
0.000236
0.000210
0.001383
0.000368
0.000398
0.000416
0.000391
0.000207
0.000240
0.000246
0.000366
0.000234
0.000228
0.000250
0.000249
0.000253
0.000213
0.000055
0.000214
0.000427
0.001399
0.000232
0.000247
0.000268
0.000256
0.000241
0.000323
0.000493
0.001220
0.000257
0.000301
0.000242
0.000205
0.001368
0.000640
0.000294
0.000308
0.000408
0.000333
0.000245
0.000217
0.000237
0.000275
0.000293
0.000267
0.000319
0.000453
0.000469
0.001349
0.000057
0.000204
0.000245
0.000220
0.000220
0.000247
0.000416
0.000481
0.001364
0.000210
0.000206
0.000251
0.001521
0.000320
0.000362
0.000455
0.000255
0.000212
0.000208
0.000244
0.000275
0.000262
0.000259
0.000280
0.000259
0.000247
0.000307
0.000414
0.000531
0.001440
0.000281
0.000187
0.000055
0.000194
0.000232
0.000347
0.000559
0.001215
0.000285
0.000252
0.000256
0.000248
0.000251
0.000253
0.000262
0.000318
0.000584
0.000318
0.000220
0.000243
0.000275
0.000243
0.000268
0.000266
0.000267
0.000259
0.000259
0.000261
0.000475
0.000439
0.000320
0.000327
0.001440
0.000150
0.000055
0.000213
0.000222
0.000307
0.000431
0.000326
0.000316
0.000298
0.000328
0.000274
0.000269
0.000261
0.000260
0.000239
0.000311
0.000252
0.000293
0.000563
0.000296
0.000314
0.000355
0.000292
0.000474
0.000201
0.000256
0.000207
0.000279
0.000242
0.000288
0.000327
0.000527
0.000316
0.000056
0.000224
0.001359
0.000259
0.000342
0.000368
0.000474
0.000400
0.000266
0.000222
0.000225
0.000250
0.000247
0.000264
0.000263
0.000271
0.000255
0.000268
0.001416
0.000255
0.000229
0.000211
0.000280
0.000272
0.000275
0.000269
0.000252
0.000273
0.000258
0.000260
0.000461
0.000345
0.000058
0.000230
0.000239
0.001424
0.000327
0.000341
0.000217
0.000210
0.000204
0.000238
0.000238
0.000249
0.000279
0.000248
0.000250
0.000263
0.000268
0.000241
0.000288
0.000233
0.000261
0.001431
0.000278
0.000224
0.000350
0.000202
0.000224
0.000240
0.000269
0.000285
0.000489
0.000383
0.000056
0.000193
0.000206
0.000390
0.000292
0.000250
0.000275
0.001495
0.000421
0.000275
0.000209
0.000227
0.000353
0.000317
0.000218
0.000222
0.000260
0.000239
0.000256
0.000262
0.000248
0.000491
0.000516
0.001178
0.000264
0.000198
0.000241
0.000264
0.000266
0.000263
0.000267
0.000353
0.000056
0.000293
0.000344
0.000197
0.000206
0.000252
0.000245
0.000233
0.000251
0.001403
0.000514
0.000413
0.000264
0.000225
0.000214
0.000246
0.000249
0.000253
0.000278
0.000257
0.000313
0.000299
0.000524
0.000419
0.001369
0.000264
0.000228
0.000286
0.000251
0.000269
0.000274
0.000629
0.000055
0.000231
0.000201
0.000255
0.000234
0.000218
0.000252
0.000257
0.000237
0.000283
0.001573
0.000334
0.000262
0.000262
0.000266
0.000460
0.000291
0.000403
0.000465
0.000331
0.000325
0.000443
0.000486
0.001294
0.000224
0.000222
0.000238
0.001804
0.000389
0.000596
0.000319
0.000149
0.000055
0.000187
0.000207
0.000253
0.000228
0.000251
0.000243
0.000352
0.000545
0.000345
0.000444
0.000303
0.000215
0.000206
0.000266
0.000257
0.000271
0.000253
0.000251
0.000246
0.000278
0.000296
0.000388
0.001345
0.000253
0.000222
0.000272
0.001895
0.000429
0.000334
0.000362
0.000176
0.000057
0.000214
0.000208
0.000257
0.001546
0.000404
0.000250
0.000221
0.000268
0.000252
0.000330
0.000369
0.000374
0.000351
0.000307
0.000285
0.000528
0.000311
0.001286
0.000272
0.000198
0.000225
0.000269
0.000365
0.000446
0.000586
0.000428
0.000225
0.000213
0.000268
0.000275
0.000216
0.000057
0.000187
0.000228
0.001436
0.000414
0.000197
0.000220
0.000216
0.000255
0.000247
0.000248
0.000252
0.000277
0.000286
0.000246
0.000246
0.000407
0.000475
0.000294
0.001383
0.000244
0.000250
0.000261
0.000265
0.000248
0.000520
0.000322
0.000473
0.000300
0.000286
0.000251
0.000405
0.000058
0.000190
0.000214
0.000254
0.000261
0.001605
0.000209
0.000256
0.000242
0.000260
0.000250
0.000257
0.000265
0.000255
0.000264
0.000412
0.000497
0.001461
0.000739
0.000217
0.000336
0.000264
0.000203
0.000225
0.000273
0.001757
0.000734
0.000262
0.000227
0.000300
0.000266
0.000207
0.000056
0.000197
0.000212
0.000255
0.000245
0.000244
0.000250
0.000254
0.000253
0.000253
0.000237
0.000265
0.000279
0.000276
0.000237
0.000254
0.000263
0.000256
0.001607
0.000673
0.000483
0.000275
0.000221
0.000214
0.000278
0.000271
0.000258
0.000284
0.000250
0.001493
0.000342
0.000310
0.000058
0.000181
0.000215
0.000233
0.000248
0.000262
0.000231
0.000252
0.000254
0.000251
0.000271
0.000245
0.000445
0.000494
0.000304
0.000209
0.000226
0.000255
0.001466
0.000690
0.000387
0.000357
0.000303
0.000211
0.000236
0.000268
0.000268
0.000243
0.000266
0.001483
0.000451
0.000220
0.000057
0.000204
0.000200
0.000242
0.000243
0.000254
0.000241
0.000247
0.000250
0.000265
0.000259
0.000377
0.000436
0.000256
0.000243
0.000238
0.000235
0.000270
0.000253
0.001571
0.000611
0.000473
0.000347
0.000241
0.000235
0.000258
0.000256
0.000271
0.000276
0.000262
0.001424
0.000317
0.000057
0.000213
0.000200
0.000213
0.000250
0.000260
0.000246
0.000284
0.000354
0.000374
0.000412
0.000355
0.000373
0.000348
0.000209
0.000227
0.000251
0.000274
0.000268
0.001385
0.000890
0.000313
0.000197
0.000475
0.000215
0.000210
0.000270
0.000267
0.000258
0.000269
0.000273
0.000457
0.000057
0.000311
0.000192
0.000223
0.000235
0.000266
0.000237
0.000221
0.000245
0.000248
0.000264
0.000254
0.000231
0.000252
0.000464
0.000510
0.000414
0.000236
0.000255
0.000251
0.000247
0.000263
0.000368
0.001403
0.001036
0.000242
0.000230
0.000269
0.000269
0.000265
0.000252
0.000229
0.000056
0.000189
0.001386
0.000256
0.000206
0.000206
0.000254
0.000248
0.000253
0.000219
0.000259
0.000251
0.000261
0.000244
0.000372
0.000418
0.000467
0.000258
0.000218
0.000261
0.000287
0.000250
0.000232
0.000261
0.000264
0.001404
0.000666
0.000314
0.000399
0.000372
0.000396
0.000266
0.000057
0.000194
0.000217
0.000344
0.001332
0.000219
0.000259
0.000233
0.000242
0.000251
0.000252
0.000285
0.000217
0.000290
0.000334
0.000547
0.000374
0.000210
0.000315
0.000261
0.000235
0.000226
0.000269
0.000238
0.000270
0.000269
0.001529
0.000754
0.000288
0.000295
0.000256
0.000214
0.000057
0.000197
0.000237
0.000455
0.000465
0.001238
0.000241
0.000208
0.000222
0.000217
0.000243
0.000245
0.000264
0.000230
0.000239
0.000249
0.000259
0.000275
0.000229
0.000249
0.000266
0.000263
0.000271
0.000349
0.000285
0.000221
0.000260
0.000261
0.001543
0.000228
0.000222
0.000177
0.000057
0.000181
0.000209
0.000257
0.000333
0.000347
0.000338
0.000402
0.000250
0.001559
0.000255
0.000289
0.000562
0.000301
0.000207
0.000493
0.000222
0.000226
0.000224
0.000260
0.000280
0.000275
0.000272
0.000256
0.000270
0.000286
0.000438
0.000394
0.000336
0.001515
0.000253
0.000183
0.000059
0.000229
0.000211
0.000251
0.000243
0.000243
0.000243
0.000270
0.000297
0.000446
0.002072
0.000207
0.000205
0.000250
0.000259
0.000262
0.000321
0.000266
0.000205
0.000267
0.000420
0.000360
0.000463
0.001515
0.000224
0.000254
0.000465
0.001772
0.000280
0.000264
0.001478
0.000199
0.000055
0.000334
0.000358
0.000490
0.000245
0.000264
0.000229
0.000251
0.000264
0.000269
0.000239
0.000243
0.000316
0.000423
0.000390
0.000393
0.000270
0.000220
0.001560
0.000494
0.001994
0.000323
0.000237
0.000211
0.001539
0.002043
0.000739
0.000271
0.000217
0.000253
0.000500
0.000321
0.000056
0.000187
0.000220
0.000248
0.000256
0.001479
0.001671
0.001073
0.000234
0.000207
0.001585
0.001975
0.000243
0.000309
0.000406
0.000268
0.000478
0.000360
0.000343
0.000260
0.000220
0.000251
0.000248
0.000277
0.001557
0.001313
0.001421
0.000259
0.000244
0.000263
0.000300
0.000367
0.000057
0.000227
0.000222
0.000198
0.000245
0.000240
0.000226
0.000253
0.000254
0.000251
0.000260
0.000236
0.000310
0.000543
0.000438
0.000278
0.000210
0.000223
0.000269
0.000269
0.000265
0.000258
0.001453
0.000399
0.000442
0.002067
0.000256
0.000243
0.000341
0.000478
0.000437
0.000137
0.000058
0.000209
0.000303
0.000485
0.000320
0.000231
0.000201
0.000233
0.000260
0.000246
0.000243
0.000241
0.000266
0.000257
0.001617
0.001427
0.001214
0.000273
0.000229
0.000211
0.000254
0.000278
0.000280
0.000255
0.000241
0.002278
0.000216
0.000216
0.000292
0.000323
0.000296
0.000246
0.000057
0.000204
0.000379
0.000583
0.000338
0.000222
0.000204
0.000213
0.000263
0.001886
0.001432
0.000259
0.000386
0.000390
0.000354
0.000266
0.000218
0.000217
0.000276
0.000260
0.000258
0.000271
0.000251
0.000477
0.000248
0.000260
0.000282
0.000240
0.000277
0.000279
0.000239
0.000228
0.000056
0.000179
0.000227
0.000255
0.000238
0.000245
0.000264
0.001536
0.001512
0.001312
0.000229
0.000193
0.000236
0.000251
0.000270
0.000249
0.000244
0.000263
0.002166
0.000208
0.000221
0.000251
0.000262
0.000260
0.000264
0.000268
0.000248
0.000273
0.000256
0.000276
0.000264
0.000183
0.000057
0.001500
0.000320
0.002390
0.000257
0.000299
0.000297
0.000241
0.000254
0.000268
0.000250
0.000244
0.000249
0.000234
0.000257
0.000251
0.000262
0.000259
0.000272
0.000258
0.000277
0.000251
0.000284
0.000273
0.000273
0.000244
0.000248
0.000259
0.000281
0.000257
0.000267
0.000389
0.000057
0.000171
0.002564
0.000356
0.000171
0.000195
0.000227
0.000253
0.000255
0.000260
0.000250
0.000412
0.000357
0.000355
0.000220
0.000229
0.002216
0.000205
0.000232
0.000283
0.000513
0.000400
0.000268
0.000216
0.000229
0.000268
0.000247
0.000262
0.000279
0.001601
0.000348
0.001227
0.000058
0.000207
0.000198
0.000258
0.000398
0.000397
0.000278
0.000212
0.000219
0.000251
0.000275
0.000252
0.000246
0.000229
0.000257
0.000257
0.000239
0.000304
0.000740
0.000282
0.000239
0.000228
0.000263
0.000276
0.000259
0.000252
0.000251
0.000255
0.000273
0.000247
0.000310
0.000415
0.000072
0.001087
0.000230
0.000323
0.000516
0.000290
0.000199
0.000200
0.000245
0.002188
0.000438
0.000352
0.000360
0.000206
0.000281
0.000341
0.000267
0.000263
0.000268
0.000250
0.000241
0.000248
0.000277
0.000697
0.000428
0.001803
0.001318
0.000568
0.000510
0.000235
0.000247
0.000215
0.000057
0.000347
0.000242
0.000232
0.000244
0.000243
0.000237
0.000236
0.000249
0.000254
0.000254
0.000254
0.000239
0.000246
0.000251
0.000372
0.000549
0.001875
0.001317
0.000416
0.000394
0.000460
0.000250
0.000244
0.000256
0.002227
0.000462
0.000377
0.000236
0.000281
0.000278
0.000212
0.000056
0.000168
0.000244
0.000240
0.000243
0.000250
0.000376
0.000400
0.000337
0.000304
0.000224
0.000223
0.000288
0.000229
0.002077
0.000428
0.000334
0.000230
0.000239
0.000270
0.000257
0.000246
0.002435
0.000365
0.000226
0.000262
0.000258
0.000245
0.000269
0.000270
0.000285
0.000227
0.000057
0.000180
0.000380
0.000545
0.000373
0.000240
0.000204
0.000203
0.000249
0.000266
0.000254
0.002091
0.000330
0.000258
0.000258
0.000204
0.000254
0.000269
0.000251
0.002254
0.000394
0.000228
0.000261
0.000261
0.000266
0.000257
0.000255
0.000280
0.000265
0.000262
0.000261
0.000191
0.000057
0.000202
0.000211
0.000255
0.000212
0.000245
0.000261
0.000242
0.000246
0.000238
0.002166
0.000243
0.000276
0.000212
0.000492
0.000218
0.000222
0.000242
0.000280
0.000266
0.000261
0.002033
0.000239
0.000376
0.000369
0.000484
0.000338
0.000286
0.000257
0.000223
0.000261
0.000204
0.000056
0.000193
0.000218
0.000245
0.000246
0.000246
0.000388
0.000201
0.002338
0.000218
0.000225
0.000222
0.000267
0.000233
0.000242
0.000305
0.002197
0.000528
0.000243
0.000230
0.000242
0.000258
0.000263
0.000285
0.000268
0.000268
0.000247
0.000288
0.000254
0.000266
0.000307
0.000171
0.000056
0.000199
0.002996
0.000257
0.000217
0.000246
0.000245
0.000247
0.000325
0.000350
0.000399
0.002126
0.000264
0.000236
0.000268
0.000261
0.000530
0.000439
0.000299
0.000221
0.000215
0.000241
0.000260
0.000268
0.000242
0.000262
0.000255
0.000259
0.000272
0.000262
0.000723
0.000342
0.000074
0.000166
0.000275
0.000261
0.000215
0.000241
0.000249
0.000255
0.000246
0.001541
0.002134
0.000515
0.000261
0.000389
0.000784
0.000356
0.000214
0.000195
0.000256
0.000274
0.000255
0.000257
0.000239
0.000245
0.000273
0.001826
0.001450
0.000309
0.000264
0.000303
0.000279
0.000475
0.000056
0.001922
0.000232
0.000229
0.000204
0.000294
0.000374
0.000487
0.000269
0.000310
0.000235
0.000222
0.000206
0.000260
0.000259
0.000257
0.000268
0.000247
0.000265
0.001918
0.000206
0.000222
0.000233
0.000265
0.000274
0.000275
0.000265
0.001528
0.000349
0.000214
0.000228
0.000172
0.000056
0.000205
0.000193
0.000264
0.000219
0.000255
0.000238
0.000298
0.000390
0.000380
0.000375
0.000202
0.000222
0.000327
0.000322
0.000380
0.000327
0.000230
0.000208
0.000261
0.000404
0.000535
0.000387
0.000222
0.000235
0.000253
0.000255
0.000255
0.000270
0.000269
0.000273
0.000223
0.000056
0.001438
0.000394
0.000235
0.002007
0.000239
0.000484
0.000468
0.000244
0.000200
0.000210
0.000277
0.000235
0.000248
0.000245
0.000266
0.000275
0.000440
0.000397
0.000336
0.000373
0.000333
0.000212
0.000261
0.000258
0.000339
0.000224
0.000242
0.000276
0.000307
0.000493
0.001438
0.000056
0.000173
0.000215
0.002074
0.000258
0.000338
0.000265
0.000255
0.000256
0.000264
0.000248
0.000228
0.000243
0.000254
0.000265
0.000254
0.000348
0.000715
0.001760
0.000245
0.000245
0.000260
0.000258
0.000327
0.000535
0.001528
0.000269
0.000375
0.002001
0.000223
0.000244
0.000200
0.000056
0.000204
0.000215
0.000225
0.000254
0.000252
0.000220
0.000245
0.000276
0.000342
0.000301
0.000379
0.000373
0.000330
0.000289
0.000229
0.000246
0.000267
0.000237
0.000268
0.000262
0.000275
0.000311
0.000266
0.000255
0.000277
0.001571
0.000290
0.000400
0.001985
0.000252
0.000184
0.000056
0.000204
0.000229
0.000234
0.000246
0.000458
0.000240
0.000243
0.000353
0.000356
0.000379
0.000226
0.000224
0.000248
0.000271
0.000278
0.000315
0.000445
0.000416
0.000270
0.000356
0.000598
0.000405
0.001582
0.000267
0.000239
0.002037
0.000337
0.000219
0.000227
0.000253
0.000204
0.000055
0.000188
0.000210
0.000227
0.000248
0.000249
0.000259
0.000258
0.000265
0.000258
0.000256
0.001884
0.000279
0.000394
0.000330
0.000455
0.000362
0.001520
0.000338
0.000198
0.000317
0.002096
0.000551
0.000280
0.000200
0.000238
0.000266
0.000492
0.000250
0.000241
0.000279
0.000223
0.000056
0.000306
0.000418
0.000310
0.000275
0.000193
0.000226
0.000255
0.000248
0.000286
0.000287
0.000225
0.000238
0.000255
0.000258
0.000345
0.000442
0.001356
0.000263
0.000430
0.001819
0.000372
0.000260
0.000206
0.000258
0.000236
0.000282
0.000267
0.000278
0.000236
0.000265
0.000225
0.000055
0.000244
0.000439
0.002065
0.000193
0.000266
0.000226
0.000209
0.000304
0.000417
0.001530
0.000320
0.000372
0.000339
0.001989
0.000239
0.000230
0.000269
0.000272
0.000263
0.000230
0.000305
0.000272
0.000259
0.000359
0.000474
0.000380
0.000343
0.002206
0.000492
0.000487
0.000423
0.000057
0.000204
0.000216
0.000239
0.002012
0.000206
0.000215
0.000236
0.000236
0.000238
0.000255
0.000241
0.000267
0.000245
0.000293
0.000477
0.000397
0.001275
0.000236
0.000291
0.000250
0.000234
0.000239
0.000268
0.000263
0.000395
0.000404
0.000467
0.001576
0.000339
0.000230
0.000164
0.000057
0.000191
0.000208
0.000236
0.000230
0.000250
0.000254
0.000253
0.000266
0.000268
0.000321
0.000371
0.001505
0.000203
0.000211
0.000223
0.000260
0.000263
0.000251
0.000270
0.000506
0.000550
0.000330
0.000206
0.001566
0.000272
0.000228
0.000281
0.000285
0.000260
0.000265
0.000213
0.000057
0.000200
0.000207
0.000259
0.000269
0.000251
0.000258
0.000229
0.000229
0.000263
0.000250
0.000241
0.000257
0.000257
0.000251
0.001589
0.000237
0.000228
0.000272
0.000333
0.000324
0.000364
0.000255
0.000213
0.000261
0.000246
0.000267
0.001470
0.000290
0.000215
0.000223
0.000178
0.000056
0.000178
0.000225
0.000240
0.000266
0.000272
0.000218
0.000252
0.000261
0.000225
0.000256
0.000245
0.000255
0.000238
0.000357
0.000408
0.000271
0.000293
0.001584
0.000332
0.000216
0.000220
0.000228
0.000255
0.000325
0.000392
0.000461
0.000411
0.000240
0.000215
0.001598
0.000201
0.000056
0.000289
0.000366
0.000378
0.000270
0.000206
0.000206
0.000253
0.000260
0.000253
0.000242
0.000274
0.000206
0.001463
0.000318
0.000316
0.000210
0.000223
0.000260
0.000271
0.000264
0.000252
0.000241
0.000266
0.000267
0.000239
0.000390
0.000541
0.000299
0.000300
0.000215
0.000185
0.000056
0.000205
0.000228
0.000466
0.000484
0.000289
0.000189
0.000228
0.000249
0.000253
0.000253
0.000240
0.000228
0.000258
0.000250
0.001387
0.000212
0.000228
0.000222
0.000253
0.000271
0.000248
0.000255
0.000252
0.000270
0.000255
0.000255
0.000283
0.000735
0.000442
0.000242
0.000184
0.000057
0.000195
0.001529
0.000260
0.000421
0.000369
0.000397
0.000198
0.000246
0.000267
0.000249
0.000242
0.000263
0.000271
0.000278
0.000262
0.001521
0.000256
0.000276
0.000262
0.000263
0.000258
0.000249
0.000270
0.000268
0.000264
0.000250
0.000511
0.000356
0.000339
0.000240
0.000159
0.000056
0.000191
0.000238
0.000233
0.001735
0.000379
0.000333
0.000202
0.000206
0.000249
0.000267
0.000273
0.000263
0.000250
0.000262
0.000238
0.000263
0.000468
0.001329
0.000216
0.000221
0.001538
0.000295
0.000575
0.000405
0.000297
0.000224
0.000259
0.000457
0.000255
0.000244
0.000203
0.000056
0.000257
0.000210
0.000226
0.000237
0.000249
0.000255
0.000235
0.000256
0.000266
0.000233
0.000258
0.000256
0.000319
0.000524
0.001629
0.001485
0.000384
0.000583
0.000272
0.000234
0.000239
0.000255
0.000239
0.000267
0.000250
0.000266
0.000265
0.001507
0.000358
0.000314
0.000156
0.000057
0.000246
0.000331
0.000349
0.000331
0.000258
0.000201
0.000221
0.000346
0.000429
0.001413
0.000351
0.001543
0.000378
0.000428
0.000484
0.000278
0.000324
0.000339
0.000345
0.000276
0.000239
0.000354
0.001561
0.000533
0.000233
0.000248
0.000273
0.000237
0.000262
0.000273
0.000205
0.000056
0.000221
0.000228
0.000253
0.000254
0.000253
0.001642
0.000961
0.000900
0.000242
0.000236
0.000246
0.000265
0.000256
0.000257
0.000256
0.000250
0.000254
0.000260
0.000268
0.000284
0.001492
0.000269
0.000255
0.000243
0.000197
0.000263
0.000271
0.000269
0.000271
0.000273
0.000241
0.000057
0.000208
0.000184
0.001539
0.000988
0.000306
0.000351
0.000216
0.000207
0.000265
0.000242
0.000248
0.000249
0.000243
0.002116
0.000407
0.000206
0.000222
0.000236
0.000256
0.000261
0.000202
