0.000241
0.002628
0.018925
0.000358
0.000293
0.000300
0.000270
0.000245
0.000293
0.000307
0.000253
0.000318
0.000485
0.000486
0.000414
0.000359
0.000295
0.000319
0.000350
0.000403
0.000375
0.001881
0.000689
0.000273
0.000303
0.000314
0.000275
0.000291
0.000424
0.000392
0.000462
0.000304
0.000068
0.000240
0.000247
0.000310
0.000291
0.000248
0.000279
0.000275
0.000281
0.000257
0.000283
0.000394
0.000386
0.000312
0.000274
0.000357
0.000354
0.000360
0.000265
0.000315
0.001637
0.000300
0.000294
0.000422
0.000288
0.000291
0.000282
0.000245
0.000296
0.000287
0.000328
0.000337
0.000069
0.000260
0.000245
0.000256
0.000262
0.000257
0.000263
0.000266
0.000271
0.000270
0.001647
0.000247
0.000251
0.000275
0.000255
0.000279
0.000238
0.000263
0.000270
0.000319
0.001801
0.000255
0.000262
0.000447
0.000452
0.000367
0.000239
0.000360
0.000357
0.000512
0.000766
0.000190
0.000071
0.000262
0.000241
0.000253
0.000245
0.000262
0.000284
0.000306
0.000556
0.000361
0.000284
0.000249
0.000251
0.000242
0.000245
0.000264
0.000222
0.000241
0.000270
0.000298
0.000319
0.001680
0.000281
0.000263
0.000408
0.000324
0.000682
0.000716
0.000486
0.000328
0.000262
0.000151
0.000070
0.000237
0.000247
0.000284
0.000245
0.000276
0.000228
0.000274
0.000673
0.001226
0.000257
0.000244
0.000252
0.000261
0.000270
0.000268
0.000272
0.000251
0.001920
0.000307
0.000236
0.000248
0.000406
0.000279
0.000238
0.000254
0.000251
0.000282
0.000262
0.000270
0.000264
0.000164
0.000068
0.000221
0.000259
0.000238
0.000250
0.000243
0.000242
0.000246
0.000263
0.000257
0.000226
0.001625
0.000237
0.000241
0.000234
0.000272
0.000243
0.000252
0.000260
0.000243
0.000242
0.000323
0.001635
0.000260
0.000261
0.000436
0.000268
0.000273
0.000267
0.000270
0.000271
0.000157
0.000083
0.000230
0.000250
0.000213
0.000257
0.000241
0.000226
0.000257
0.000258
0.000261
0.000245
0.000253
0.000266
0.000260
0.000248
0.001628
0.000269
0.000298
0.000258
0.000223
0.000303
0.000241
0.000267
0.000274
0.000222
0.001838
0.000322
0.000453
0.000259
0.000261
0.000279
0.000159
0.000079
0.000273
0.000241
0.000224
0.000264
0.000257
0.000246
0.000260
0.000372
0.000430
0.000422
0.000259
0.000259
0.000255
0.000261
0.001511
0.000505
0.000348
0.000387
0.000334
0.000256
0.000277
0.000261
0.000294
0.001689
0.000514
0.000464
0.000260
0.000255
0.000275
0.000267
0.000131
0.000087
0.000228
0.000249
0.000219
0.000229
0.000365
0.000391
0.000393
0.000271
0.000245
0.000257
0.000246
0.000253
0.000235
0.001716
0.000458
0.000310
0.000267
0.000274
0.000282
0.000248
0.000259
0.000275
0.000284
0.001763
0.000346
0.000389
0.000264
0.000259
0.000273
0.000381
0.000314
0.000068
0.000239
0.000368
0.000378
0.000270
0.000240
0.000259
0.000247
0.000252
0.000247
0.000266
0.000251
0.000220
0.001528
0.000326
0.000333
0.000241
0.000267
0.000246
0.000270
0.000275
0.000328
0.000259
0.000271
0.001773
0.000265
0.000487
0.000267
0.000275
0.000263
0.000284
0.000206
0.000087
0.000308
0.000564
0.000607
0.000228
0.000245
0.000272
0.000201
0.000248
0.000244
0.000256
0.000263
0.001681
0.000264
0.000430
0.000356
0.000239
0.000238
0.000246
0.000278
0.000228
0.000293
0.001793
0.000230
0.000462
0.001880
0.000516
0.000344
0.000258
0.000280
0.000258
0.000160
0.000067
0.000239
0.000257
0.000251
0.000256
0.000253
0.001571
0.000229
0.000237
0.000254
0.000274
0.000224
0.000259
0.000253
0.000252
0.000281
0.000379
0.000657
0.000255
0.000267
0.000268
0.000239
0.000246
0.000259
0.000408
0.000423
0.000270
0.000349
0.000577
0.000449
0.000228
0.000205
0.000066
0.000233
0.000246
0.000235
0.000245
0.000249
0.000249
0.000301
0.000401
0.000415
0.001652
0.000244
0.000231
0.000255
0.000266
0.000272
0.000338
0.000371
0.000445
0.000362
0.000258
0.000272
0.000223
0.000281
0.000278
0.000243
0.000439
0.000349
0.000654
0.000406
0.000455
0.000171
0.000087
0.000219
0.000249
0.000245
0.000239
0.000246
0.000248
0.000244
0.000234
0.000240
0.000267
0.000337
0.000561
0.001271
0.000261
0.000242
0.000236
0.000267
0.000239
0.000260
0.000261
0.000255
0.000464
0.000392
0.000300
0.000264
0.000269
0.000242
0.000271
0.000268
0.000266
0.000342
0.000067
0.000233
0.000239
0.000247
0.000400
0.000496
0.000299
0.000220
0.000246
0.000240
0.000264
0.000246
0.000248
0.000307
0.000237
0.000260
0.000423
0.000473
0.001608
0.000273
0.000255
0.000275
0.000253
0.000269
0.000235
0.000275
0.000540
0.000345
0.000343
0.000411
0.000259
0.000176
0.000067
0.000262
0.000391
0.000236
0.000255
0.000257
0.000233
0.000338
0.000507
0.000343
0.000305
0.000252
0.000259
0.000254
0.000261
0.000495
0.000331
0.000267
0.000313
0.000346
0.001612
0.000283
0.000241
0.000496
0.000257
0.000284
0.000273
0.000277
0.000468
0.000427
0.000336
0.000273
0.000067
0.000232
0.000237
0.000241
0.000239
0.000379
0.000310
0.000276
0.000255
0.000508
0.000363
0.000361
0.000263
0.000232
0.000256
0.000237
0.000272
0.000240
0.000268
0.000242
0.000340
0.000274
0.000350
0.001855
0.000265
0.000246
0.000262
0.000279
0.000313
0.000436
0.000746
0.000377
0.000074
0.000220
0.000359
0.000353
0.000387
0.000321
0.000239
0.000242
0.000352
0.000452
0.000411
0.000288
0.000226
0.000253
0.000250
0.000263
0.000250
0.000259
0.000265
0.000233
0.000284
0.000271
0.000434
0.000637
0.001310
0.000329
0.000434
0.000415
0.000278
0.000360
0.000463
0.000301
0.000068
0.000229
0.000377
0.000276
0.000226
0.000243
0.000239
0.000389
0.000253
0.000311
0.000288
0.000412
0.000453
0.000268
0.000262
0.000261
0.000220
0.000341
0.000395
0.000345
0.000252
0.000251
0.000569
0.000419
0.001692
0.000257
0.000417
0.000299
0.000246
0.000270
0.000429
0.000322
0.000089
0.000231
0.000217
0.000251
0.000240
0.000258
0.000254
0.000225
0.000311
0.000445
0.000297
0.000408
0.000361
0.000367
0.000525
0.000247
0.000263
0.000256
0.000253
0.000261
0.000323
0.000254
0.000272
0.000284
0.000329
0.000481
0.001696
0.000257
0.000242
0.000256
0.000272
0.000170
0.000102
0.000249
0.000508
0.000329
0.000239
0.000252
0.000248
0.000240
0.000248
0.000249
0.000242
0.000244
0.000263
0.000393
0.000484
0.000392
0.000359
0.000256
0.000254
0.000266
0.000399
0.000406
0.000335
0.000360
0.000360
0.000264
0.000267
0.000254
0.000253
0.001787
0.000259
0.000195
0.000067
0.000237
0.000236
0.000258
0.000271
0.000317
0.000563
0.000331
0.000257
0.000269
0.000213
0.000230
0.000237
0.000501
0.000448
0.000489
0.000281
0.000260
0.000294
0.000390
0.000471
0.000352
0.000396
0.000537
0.000409
0.000258
0.000246
0.000262
0.000265
0.000254
0.001694
0.000377
0.000067
0.000280
0.000276
0.000233
0.000234
0.000238
0.000247
0.000262
0.000475
0.000373
0.000310
0.000288
0.000311
0.000319
0.000711
0.000298
0.000267
0.000253
0.000282
0.000264
0.000258
0.000270
0.000206
0.000267
0.000246
0.000295
0.000380
0.000398
0.000315
0.000272
0.000272
0.000161
0.000075
0.000472
0.000314
0.000398
0.000263
0.000245
0.000262
0.000253
0.000213
0.000268
0.000235
0.000265
0.000273
0.000274
0.000398
0.000416
0.000497
0.000324
0.000350
0.000349
0.000345
0.000321
0.000251
0.000241
0.000263
0.001712
0.000274
0.001754
0.000880
0.000379
0.000354
0.000167
0.000079
0.000231
0.000239
0.000253
0.000255
0.000277
0.000229
0.000245
0.000225
0.000257
0.000313
0.000359
0.000394
0.000343
0.000402
0.000264
0.000244
0.000260
0.000257
0.000278
0.000257
0.000253
0.000256
0.001761
0.000264
0.000265
0.000251
0.000251
0.001727
0.000520
0.000402
0.000269
0.000081
0.000249
0.000241
0.000254
0.000250
0.000268
0.000244
0.000253
0.000255
0.000273
0.000289
0.000604
0.000294
0.000332
0.000259
0.000260
0.000268
0.000285
0.000449
0.000350
0.000250
0.001772
0.000287
0.000241
0.000265
0.000276
0.000228
0.000288
0.000261
0.000274
0.000449
0.000266
0.000067
0.000231
0.000255
0.000257
0.000248
0.000227
0.000249
0.000233
0.000259
0.000263
0.000230
0.000241
0.000287
0.000384
0.000361
0.000337
0.000298
0.000450
0.000266
0.000268
0.000256
0.000260
0.000307
0.000256
0.000277
0.000258
0.001707
0.000246
0.000270
0.000257
0.000267
0.000158
0.000119
0.000240
0.000338
0.000247
0.000226
0.000249
0.000240
0.000250
0.000228
0.000262
0.000238
0.000244
0.000263
0.000256
0.000278
0.000426
0.000363
0.000312
0.000253
0.000266
0.000236
0.000267
0.000240
0.000258
0.000290
0.000227
0.000289
0.000331
0.001553
0.000281
0.000266
0.000155
0.000067
0.000236
0.000282
0.000244
0.000251
0.000301
0.000363
0.000372
0.000319
0.000234
0.000258
0.000268
0.000227
0.000259
0.000251
0.000259
0.000243
0.000263
0.000255
0.000261
0.000252
0.000263
0.000249
0.000254
0.000248
0.000261
0.000260
0.000297
0.000254
0.000259
0.000277
0.000166
0.000107
0.000229
0.000237
0.000255
0.000206
0.000255
0.000249
0.000231
0.000233
0.000280
0.000257
0.000251
0.000241
0.000254
0.000237
0.000278
0.000287
0.000220
0.000246
0.000298
0.000245
0.000266
0.000317
0.000269
0.000259
0.000281
0.000262
0.000280
0.000250
0.000281
0.000418
0.000676
0.000088
0.000210
0.000270
0.000231
0.000235
0.000248
0.000247
0.000263
0.000232
0.000251
0.000259
0.000260
0.000315
0.000433
0.000450
0.001561
0.000244
0.000502
0.000267
0.000296
0.000423
0.000410
0.000347
0.000259
0.000245
0.000242
0.000268
0.000275
0.000261
0.000307
0.000297
0.000145
0.000101
0.000226
0.000514
0.000322
0.000342
0.000250
0.000236
0.000247
0.000241
0.000245
0.000250
0.000254
0.000264
0.000242
0.000348
0.000276
0.000450
0.000437
0.001751
0.000243
0.000265
0.000514
0.000239
0.000436
0.000289
0.000328
0.000311
0.000296
0.000240
0.000253
0.000266
0.000152
0.000067
0.000242
0.000238
0.000243
0.000251
0.000353
0.000484
0.000303
0.000262
0.000250
0.000212
0.000269
0.000244
0.000257
0.000287
0.000227
0.000268
0.000277
0.000500
0.000416
0.000361
0.000268
0.001716
0.000330
0.000623
0.000428
0.000457
0.000305
0.000251
0.000217
0.000255
0.000456
0.000067
0.000244
0.000236
0.000242
0.000260
0.000495
0.000351
0.000406
0.000250
0.000240
0.000285
0.000273
0.000252
0.000253
0.000264
0.000294
0.000254
0.000245
0.000375
0.000470
0.000347
0.000474
0.001838
0.000297
0.000437
0.000451
0.000373
0.000252
0.000263
0.000285
0.000265
0.000176
0.000067
0.000222
0.000320
0.000361
0.000332
0.000404
0.000299
0.000387
0.000252
0.000258
0.000245
0.000210
0.000215
0.000256
0.000254
0.000241
0.000275
0.000331
0.000330
0.000520
0.000361
0.000315
0.000256
0.000255
0.001690
0.000404
0.000530
0.000722
0.000248
0.000284
0.000257
0.000151
0.000067
0.000199
0.000239
0.000345
0.000243
0.000277
0.000341
0.000465
0.000259
0.000293
0.000488
0.000239
0.000248
0.000257
0.000258
0.000274
0.000257
0.000264
0.000478
0.000322
0.000426
0.000277
0.000256
0.000271
0.000270
0.000275
0.000213
0.000200
0.000253
0.000278
0.000283
0.000190
0.000081
0.000305
0.000296
0.000238
0.000251
0.000247
0.000246
0.000254
0.000282
0.000252
0.000239
0.000259
0.000332
0.000424
0.000351
0.000400
0.000268
0.000239
0.000274
0.000266
0.000260
0.000241
0.000280
0.000239
0.000222
0.000280
0.000327
0.000408
0.000362
0.000363
0.000256
0.000157
0.000100
0.000180
0.000246
0.000237
0.000259
0.000249
0.000244
0.000267
0.000233
0.000484
0.000271
0.000260
0.000233
0.000255
0.000255
0.000326
0.000269
0.000271
0.000272
0.000199
0.000232
0.000266
0.000266
0.000254
0.000266
0.000274
0.000265
0.000276
0.000254
0.000274
0.000481
0.000154
0.000067
0.000221
0.000244
0.000230
0.000266
0.000237
0.000239
0.000357
0.000382
0.000273
0.000252
0.000253
0.000211
0.000269
0.000257
0.000315
0.001876
0.000258
0.000283
0.000276
0.000297
0.000410
0.000366
0.000368
0.000390
0.000372
0.000419
0.000268
0.000272
0.000279
0.000276
0.001360
0.000088
0.000371
0.000294
0.000258
0.000231
0.000237
0.000256
0.000230
0.000249
0.000251
0.000257
0.000250
0.000281
0.000230
0.000381
0.000443
0.001635
0.000257
0.000258
0.000265
0.000234
0.000267
0.000362
0.000308
0.000309
0.000323
0.000294
0.000246
0.000274
0.000264
0.000279
0.000164
0.000076
0.001208
0.000521
0.000357
0.000245
0.000254
0.000236
0.000237
0.000261
0.000442
0.000243
0.000255
0.000255
0.000395
0.000454
0.000368
0.000333
0.000254
0.000253
0.000317
0.000396
0.000242
0.000281
0.000255
0.000272
0.000286
0.000437
0.000622
0.000271
0.000262
0.000255
0.000161
0.000067
0.000244
0.000231
0.000263
0.000241
0.001407
0.000353
0.000254
0.000254
0.000215
0.000234
0.000247
0.000274
0.000257
0.000248
0.000266
0.000335
0.000314
0.000694
0.000277
0.001744
0.000276
0.000265
0.000336
0.000363
0.000592
0.000397
0.000258
0.000207
0.000262
0.000270
0.000197
0.000067
0.000250
0.000221
0.000269
0.000275
0.001259
0.000245
0.000271
0.000246
0.000243
0.000249
0.000250
0.000251
0.000287
0.000247
0.000265
0.000398
0.000347
0.000383
0.000363
0.000250
0.000268
0.000270
0.000225
0.000249
0.000273
0.000269
0.000284
0.000248
0.000268
0.000407
0.000458
0.000088
0.000241
0.000233
0.000249
0.000239
0.000255
0.000236
0.000263
0.000289
0.000250
0.000265
0.001418
0.000261
0.000241
0.000207
0.000229
0.000238
0.000291
0.000255
0.000271
0.000276
0.000261
0.000460
0.000447
0.000400
0.000266
0.000270
0.001730
0.000267
0.000279
0.000315
0.000415
0.000090
0.000213
0.000376
0.000450
0.000499
0.000519
0.000581
0.001460
0.000429
0.000509
0.000655
0.000570
0.000781
0.000413
0.000631
0.000577
0.001854
0.000390
0.000441
0.000423
0.000300
0.000251
0.000261
0.000275
0.000274
0.000271
0.000280
0.000279
0.000289
0.000282
0.000287
0.001345
0.000098
0.000215
0.000224
0.000220
0.000246
0.000254
0.000254
0.000261
0.000235
0.000256
0.000251
0.000238
0.000254
0.000285
0.000231
0.000260
0.000276
0.001772
0.000288
0.000263
0.000259
0.000257
0.000286
0.000272
0.000248
0.000399
0.000394
0.000338
0.000261
0.000261
0.000285
0.000177
0.000067
0.000226
0.001338
0.000320
0.000281
0.000245
0.000251
0.000232
0.000228
0.000244
0.000240
0.000240
0.000246
0.000268
0.000467
0.000382
0.000331
0.000270
0.001753
0.000346
0.000276
0.000229
0.000277
0.000249
0.000301
0.000244
0.000278
0.000273
0.000252
0.000268
0.000310
0.000172
0.000068
0.000248
0.000245
0.000246
0.001414
0.000249
0.000250
0.000202
0.000227
0.000238
0.000266
0.000250
0.000265
0.000265
0.000252
0.000268
0.000266
0.000262
0.000304
0.000230
0.000242
0.000249
0.001761
0.000286
0.001767
0.000249
0.000264
0.000253
0.000249
0.000266
0.000276
0.000194
0.000067
0.000225
0.000241
0.001309
0.000252
0.000257
0.000254
0.000245
0.000251
0.000259
0.000236
0.000275
0.000272
0.000266
0.000259
0.000255
0.000267
0.000288
0.000274
0.000259
0.000256
0.001806
0.000266
0.001800
0.000243
0.000261
0.000266
0.000258
0.000234
0.000269
0.000276
0.000169
0.000067
0.001443
0.000225
0.000239
0.000245
0.000229
0.000229
0.000425
0.000267
0.000256
0.000230
0.000257
0.000252
0.000256
0.000418
0.000319
0.000277
0.000243
0.000275
0.000251
0.000255
0.000268
0.000323
0.000268
0.000274
0.000266
0.000294
0.000269
0.000366
0.000606
0.000356
0.000138
0.000069
0.000212
0.000251
0.000266
0.000468
0.000226
0.000264
0.001618
0.000350
0.000318
0.000245
0.000250
0.000260
0.000265
0.000296
0.000265
0.000308
0.000320
0.000617
0.000376
0.000265
0.000314
0.000239
0.000258
0.000284
0.000299
0.000296
0.000255
0.000269
0.000256
0.000307
0.000385
0.000069
0.000289
0.000419
0.000264
0.000264
0.000244
0.000253
0.000253
0.000255
0.000261
0.000234
0.001502
0.000262
0.000229
0.000204
0.000269
0.000265
0.000288
0.000263
0.000248
0.000266
0.000265
0.000315
0.000558
0.000342
0.000252
0.000272
0.000270
0.000263
0.000257
0.000287
0.000163
0.000067
0.000219
0.000229
0.000316
0.000397
0.000416
0.000289
0.000241
0.000219
0.000262
0.000212
0.000211
0.000266
0.000246
0.000267
0.000264
0.000269
0.000512
0.001051
0.000255
0.000247
0.000267
0.000257
0.000339
0.000436
0.000264
0.000388
0.000499
0.000347
0.000388
0.000265
0.000156
0.000072
0.000190
0.000243
0.000262
0.000258
0.000256
0.000280
0.000330
0.000466
0.000364
0.000308
0.000334
0.000403
0.000398
0.000352
0.000258
0.000244
0.000250
0.000266
0.000401
0.000439
0.001260
0.000272
0.000280
0.000241
0.000218
0.000257
0.000264
0.000285
0.000404
0.000439
0.000266
0.000067
0.000247
0.000238
0.000244
0.000230
0.000249
0.000245
0.000258
0.000244
0.000287
0.000349
0.000416
0.000376
0.000263
0.000260
0.000283
0.000256
0.000267
0.000266
0.000192
0.000249
0.000437
0.000259
0.000344
0.000507
0.000261
0.000276
0.000273
0.000244
0.000277
0.000290
0.000155
0.000076
0.000309
0.000311
0.000354
0.000308
0.000442
0.000391
0.000262
0.000254
0.000256
0.000294
0.000253
0.000224
0.000247
0.000239
0.000232
0.000269
0.000235
0.000448
0.000374
0.000356
0.000286
0.000242
0.000243
0.000279
0.000260
0.000272
0.000252
0.000272
0.000257
0.000342
0.000170
0.000070
0.000341
0.000255
0.000261
0.000251
0.000253
0.000274
0.000249
0.000270
0.000259
0.000220
0.000204
0.000244
0.000333
0.000419
0.000446
0.000303
0.000254
0.000258
0.000267
0.000285
0.000219
0.000273
0.000254
0.000261
0.000276
0.000272
0.000420
0.000605
0.000401
0.000271
0.000159
0.000067
0.000389
0.000251
0.000221
0.000230
0.000255
0.000212
0.000233
0.000255
0.000261
0.000268
0.000260
0.000243
0.000246
0.000227
0.000245
0.000257
0.000277
0.000268
0.000265
0.000254
0.000268
0.000255
0.000263
0.000269
0.000255
0.000268
0.000276
0.000257
0.000281
0.000276
0.000162
0.000086
0.000232
0.000250
0.000251
0.000177
0.000231
0.000230
0.000262
0.000239
0.000257
0.000299
0.000220
0.000247
0.000260
0.000395
0.000326
0.000246
0.000240
0.000261
0.000245
0.000276
0.000250
0.000253
0.000226
0.000267
0.000269
0.000274
0.000255
0.000277
0.000273
0.000284
0.000148
0.000087
0.000225
0.000325
0.000365
0.000278
0.000296
0.000263
0.000254
0.000258
0.000249
0.000251
0.000256
0.000236
0.000307
0.000236
0.000245
0.000252
0.000242
0.000265
0.000273
0.000265
0.000230
0.000288
0.000274
0.000280
0.000253
0.000259
0.000279
0.000300
0.000265
0.000270
0.000146
0.000087
0.000172
0.000211
0.000258
0.000263
0.000267
0.000429
0.000235
0.000289
0.000256
0.000373
0.000535
0.000281
0.000254
0.000251
0.000250
0.000260
0.000242
0.000254
0.000262
0.000267
0.000266
0.000286
0.000270
0.000253
0.000548
0.000491
0.000250
0.000300
0.000260
0.000277
0.000178
0.000071
0.000248
0.000235
0.000232
0.000252
0.000294
0.000663
0.000304
0.000375
0.000242
0.000252
0.000261
0.000237
0.000261
0.000264
0.000264
0.000273
0.000240
0.000275
0.000642
0.000382
0.000272
0.000211
0.000259
0.000266
0.000284
0.000253
0.000263
0.000284
0.000247
0.000334
0.000328
0.000068
0.000274
0.000231
0.000247
0.000255
0.000230
0.000246
0.000217
0.000254
0.000256
0.000246
0.000261
0.000258
0.000257
0.000337
0.000618
0.000367
0.000246
0.000254
0.000249
0.000243
0.000273
0.000286
0.000480
0.000245
0.000266
0.000598
0.000391
0.000473
0.000261
0.000274
0.000163
0.000067
0.000224
0.000246
0.000254
0.000251
0.000262
0.000237
0.000260
0.000417
0.000605
0.000416
0.000241
0.000243
0.000274
0.000273
0.000258
0.000261
0.000254
0.000254
0.000261
0.000351
0.000571
0.000582
0.000246
0.000254
0.000326
0.000374
0.000496
0.000258
0.000260
0.000412
0.000358
0.000089
0.000256
0.000277
0.000388
0.000209
0.000233
0.000248
0.000260
0.000265
0.000262
0.000247
0.000290
0.000339
0.000361
0.000363
0.000246
0.000250
0.000263
0.000254
0.000257
0.000288
0.000261
0.000254
0.000274
0.000276
0.000249
0.000482
0.000528
0.000278
0.000209
0.000253
0.000185
0.000075
0.000212
0.000254
0.000226
0.000251
0.000246
0.000264
0.000427
0.000307
0.000492
0.000243
0.000366
0.000245
0.000264
0.000253
0.000229
0.000271
0.000254
0.000248
0.000315
0.000405
0.000477
0.000444
0.000365
0.000279
0.000364
0.000418
0.000374
0.000258
0.000276
0.000275
0.000336
0.000068
0.000272
0.000253
0.000221
0.000250
0.000258
0.000246
0.000246
0.000247
0.000275
0.000256
0.000253
0.000341
0.000449
0.000359
0.000360
0.000293
0.000257
0.000233
0.000239
0.000251
0.000232
0.000238
0.000283
0.000256
0.000311
0.000392
0.000394
0.000471
0.000317
0.000251
0.000158
0.000096
0.000211
0.000235
0.000264
0.000239
0.000249
0.000343
0.000492
0.000480
0.000514
0.000560
0.000256
0.000243
0.000214
0.000236
0.000245
0.000324
0.000242
0.000264
0.000468
0.000461
0.001472
0.000322
0.000264
0.000267
0.000282
0.000256
0.000335
0.000479
0.000314
0.000347
0.000171
0.000086
0.000232
0.000202
0.000238
0.000249
0.000224
0.000250
0.000307
0.000260
0.000267
0.000284
0.000323
0.000377
0.000269
0.000372
0.000368
0.000340
0.000254
0.000265
0.000243
0.000267
0.000251
0.000239
0.000301
0.000238
0.000301
0.000438
0.000512
0.000274
0.000276
0.000227
0.000128
0.000068
0.000227
0.000248
0.000253
0.000254
0.000258
0.000243
0.000462
0.000225
0.000239
0.000282
0.000235
0.000250
0.000255
0.000240
0.000265
0.000264
0.000253
0.000273
0.000272
0.000257
0.000278
0.000317
0.000256
0.000263
0.000300
0.000256
0.000259
0.000235
0.000259
0.000246
0.000172
0.000070
0.000228
0.000245
0.000314
0.000402
0.000413
0.000240
0.000240
0.000290
0.000219
0.000245
0.000250
0.000259
0.000247
0.000250
0.000254
0.000254
0.000259
0.000244
0.000318
0.000336
0.000334
0.000490
0.000274
0.000265
0.000255
0.000209
0.000247
0.000241
0.000286
0.000264
0.000198
0.000203
0.000244
0.000377
0.000453
0.000287
0.000208
0.000260
0.000371
0.000244
0.000259
0.000245
0.000248
0.000262
0.000353
0.000479
0.001877
0.000236
0.000211
0.000241
0.000276
0.000259
0.000398
0.000472
0.000517
0.000297
0.000277
0.000240
0.000266
0.000408
0.000274
0.000275
0.000169
0.000115
0.000231
0.000371
0.000276
0.000329
0.000490
0.000252
0.000253
0.000259
0.000252
0.000255
0.000234
0.000189
0.000262
0.000316
0.000516
0.000356
0.000257
0.000262
0.000273
0.000278
0.000239
0.000286
0.000268
0.000248
0.000267
0.000462
0.000474
0.000427
0.000464
0.000279
0.000166
0.000090
0.000218
0.000258
0.000249
0.000212
0.000247
0.000219
0.000264
0.000313
0.000318
0.000311
0.000553
0.000279
0.000241
0.000248
0.000289
0.000307
0.000238
0.000261
0.000263
0.000267
0.000246
0.000240
0.000596
0.000319
0.000295
0.000284
0.000249
0.000428
0.000468
0.000249
0.000147
0.000068
0.000216
0.000230
0.000353
0.000405
0.000380
0.000248
0.000250
0.000260
0.000295
0.000201
0.000258
0.000238
0.000244
0.000257
0.000263
0.000278
0.000348
0.000389
0.000297
0.000376
0.000463
0.000290
0.000266
0.000262
0.000310
0.000253
0.000261
0.000237
0.000501
0.000485
0.000198
0.000066
0.000241
0.000210
0.000235
0.000293
0.000232
0.000442
0.000227
0.000255
0.000245
0.000293
0.000515
0.000595
0.000232
0.000261
0.000269
0.000245
0.000248
0.000256
0.000267
0.000226
0.000262
0.000227
0.000462
0.000319
0.000376
0.000397
0.000347
0.000280
0.000304
0.000286
0.000153
0.000067
0.000218
0.000239
0.000291
0.000414
0.000314
0.000314
0.000266
0.000260
0.000262
0.000255
0.000250
0.000258
0.000274
0.000252
0.000208
0.000246
0.000257
0.000221
0.000279
0.000389
0.000462
0.000413
0.000253
0.000250
0.000258
0.000301
0.000251
0.000234
0.000280
0.000254
0.000196
0.000068
0.000247
0.000380
0.000466
0.000246
0.000244
0.000276
0.000280
0.000484
0.000281
0.000256
0.000251
0.000218
0.000307
0.000363
0.000434
0.000294
0.000246
0.000269
0.000253
0.000270
0.000269
0.000274
0.000246
0.000264
0.000253
0.000281
0.000394
0.000379
0.000339
0.000278
0.000165
0.000067
0.000253
0.000248
0.000253
0.000229
0.000272
0.000211
0.000258
0.000236
0.000242
0.000241
0.000262
0.000240
0.000292
0.001430
0.000289
0.000228
0.000238
0.000249
0.000262
0.000274
0.000261
0.000239
0.000274
0.000266
0.000254
0.000284
0.000287
0.000277
0.000252
0.000313
0.000139
0.000088
0.000229
0.000252
0.000195
0.000261
0.000215
0.000242
0.000259
0.000263
0.000251
0.000251
0.000254
0.000254
0.000255
0.000276
0.000251
0.000243
0.000251
0.000253
0.000260
0.000266
0.000254
0.000258
0.000244
0.000277
0.001253
0.000321
0.000518
0.000444
0.000332
0.000259
0.000176
0.000069
0.000239
0.000249
0.000236
0.000266
0.000367
0.000255
0.000288
0.000239
0.000215
0.000321
0.000498
0.000308
0.000250
0.000246
0.000273
0.000241
0.000250
0.000282
0.000272
0.000266
0.000215
0.000299
0.000293
0.000420
0.000423
0.000453
0.000250
0.000245
0.001359
0.000291
0.000148
0.000154
0.000263
0.000396
0.000416
0.000187
0.000231
0.000241
0.000249
0.000269
0.000256
0.000252
0.000257
0.000256
0.000291
0.000315
0.000435
0.000352
0.000357
0.000256
0.000254
0.000258
0.000276
0.000266
0.000266
0.000251
0.000236
0.000262
0.000460
0.000413
0.000456
0.000303
0.000146
0.000073
0.000218
0.000241
0.001236
0.000476
0.000315
0.000393
0.000398
0.000470
0.000268
0.000348
0.000254
0.000234
0.000261
0.000258
0.000259
0.000252
0.000339
0.000487
0.000377
0.000385
0.000255
0.000259
0.000251
0.000496
0.000274
0.000264
0.000274
0.000274
0.000277
0.000584
0.000210
0.000068
0.000377
0.000311
0.000260
0.001363
0.000542
0.000392
0.000242
0.000252
0.000262
0.000234
0.000223
0.000234
0.000248
0.000260
0.000258
0.000249
0.000272
0.000273
0.000442
0.000315
0.000481
0.000228
0.000236
0.000265
0.000262
0.000270
0.000277
0.000263
0.000271
0.000270
0.000264
0.000067
0.000425
0.000303
0.000247
0.000226
0.000244
0.000259
0.000240
0.000242
0.000213
0.000261
0.001362
0.000483
0.000272
0.000249
0.000250
0.000260
0.000233
0.000260
0.000249
0.000299
0.000249
0.000266
0.000272
0.000365
0.000434
0.000468
0.000254
0.000258
0.000274
0.000261
0.000167
0.000086
0.000261
0.000352
0.000235
0.000262
0.000327
0.000426
0.000375
0.000333
0.000457
0.000204
0.000209
0.000253
0.000262
0.000263
0.000258
0.001480
0.000306
0.000304
0.000259
0.000248
0.000270
0.000255
0.000254
0.000252
0.000284
0.000269
0.000450
0.000403
0.000291
0.000302
0.000152
0.000069
0.000222
0.000244
0.000224
0.000237
0.000236
0.000246
0.000251
0.000253
0.000283
0.000395
0.000382
0.000318
0.000306
0.000232
0.000215
0.000261
0.000265
0.000255
0.000267
0.000240
0.000263
0.000350
0.001202
0.000300
0.000275
0.000267
0.000255
0.000218
0.000224
0.000266
0.000186
0.000066
0.000242
0.000323
0.000356
0.000392
0.000246
0.000259
0.000252
0.000250
0.000249
0.000255
0.000273
0.000250
0.000261
0.000238
0.000259
0.000265
0.000275
0.000269
0.000236
0.000271
0.000266
0.000298
0.000254
0.000260
0.000251
0.000288
0.000255
0.000244
0.000260
0.000440
0.001354
0.000102
0.000218
0.000230
0.000250
0.000229
0.000259
0.000227
0.000238
0.000237
0.000247
0.000270
0.000276
0.000241
0.000254
0.000254
0.000258
0.000286
0.001658
0.000259
0.000249
0.000266
0.000257
0.000258
0.000272
0.000260
0.000281
0.000286
0.000259
0.000269
0.000263
0.000247
0.000201
0.000116
0.000339
0.000318
0.001278
0.000277
0.000250
0.000246
0.000189
0.000275
0.000252
0.000241
0.000226
0.000361
0.000397
0.000420
0.000307
0.000232
0.000234
0.000271
0.000309
0.000227
0.000256
0.000254
0.000271
0.000246
0.000257
0.000423
0.000349
0.000359
0.000320
0.000278
0.000153
0.000085
0.000232
0.000250
0.000252
0.000220
0.000249
0.000193
0.000241
0.000291
0.000394
0.001326
0.000266
0.000261
0.000255
0.000264
0.000254
0.000262
0.000259
0.000261
0.000292
0.000444
0.000334
0.000269
0.000274
0.000277
0.000266
0.000261
0.000284
0.000233
0.000299
0.000264
0.000165
0.000066
0.000320
0.000383
0.000350
0.000253
0.000243
0.000220
0.000231
0.000294
0.000249
0.000235
0.000250
0.000247
0.000446
0.000501
0.000472
0.001440
0.000306
0.000272
0.000303
0.000351
0.000488
0.000377
0.000482
0.000387
0.000269
0.000271
0.000272
0.000266
0.000264
0.000255
0.000163
0.000094
0.000217
0.000245
0.000536
0.000474
0.000259
0.000257
0.000256
0.000258
0.000254
0.000253
0.000264
0.000259
0.000211
0.000257
0.000258
0.000312
0.000319
0.000450
0.001370
0.000376
0.000263
0.000213
0.000270
0.000248
0.000480
0.000380
0.000388
0.000282
0.000255
0.000265
0.000187
0.000067
0.000241
0.000253
0.000255
0.000251
0.000257
0.000237
0.000400
0.000388
0.000384
0.000260
0.000240
0.000264
0.000270
0.000264
0.000261
0.000288
0.000234
0.000263
0.000234
0.000327
0.000404
0.000407
0.000347
0.001336
0.000466
0.000266
0.000209
0.000433
0.000404
0.000359
0.000299
0.000067
0.000217
0.000237
0.000232
0.000255
0.000231
0.000256
0.001678
0.000253
0.000235
0.000249
0.000244
0.000253
0.000244
0.000315
0.000326
0.000304
0.000291
0.000392
0.000321
0.000505
0.000257
0.000283
0.000245
0.000275
0.001493
0.000329
0.000395
0.000442
0.000349
0.000293
0.000160
0.000067
0.000247
0.000254
0.000266
0.000244
0.000256
0.000255
0.001649
0.000240
0.000238
0.000248
0.000343
0.000403
0.001462
0.000344
0.000391
0.000260
0.000244
0.000242
0.000261
0.000264
0.001563
0.000562
0.000372
0.000291
0.000247
0.000242
0.000260
0.000280
0.000276
0.000252
0.000170
0.000066
0.000242
0.000251
0.000284
0.000215
0.000266
0.000288
0.000276
0.000239
0.000261
0.000245
0.000244
0.000274
0.000259
0.000260
0.000239
0.001485
0.000262
0.000252
0.000262
0.000259
0.000273
0.000255
0.000427
0.001270
0.000332
0.000230
0.000272
0.000254
0.000363
0.000245
0.000183
0.000069
0.000232
0.000231
0.000237
0.000240
0.000255
0.000251
0.000222
0.001668
0.000250
0.000242
0.000336
0.000292
0.000218
0.000242
0.000261
0.001352
0.000257
0.000250
0.000268
0.000267
0.000237
0.000327
0.000298
0.001299
0.000317
0.000261
0.000225
0.000265
0.001363
0.000282
0.000203
0.000066
0.000213
0.000354
0.000261
0.000232
0.000236
0.000258
0.000270
0.000245
0.000254
0.000295
0.000215
0.000269
0.000260
0.000248
0.000279
0.001555
0.000230
0.000236
0.000251
0.000240
0.000311
0.000259
0.000271
0.001515
0.000323
0.000270
0.000244
0.001245
0.000268
0.000277
0.000161
0.000068
0.000240
0.000345
0.000379
0.000246
0.000190
0.000245
0.000251
0.000245
0.000261
0.000270
0.000240
0.000271
0.000251
0.000297
0.000389
0.001226
0.000239
0.000247
0.000263
0.000265
0.000237
0.000245
0.000264
0.000335
0.001279
0.000262
0.000269
0.000247
0.000210
0.001325
0.000289
0.000068
0.000325
0.000243
0.000242
0.000262
0.000236
0.000260
0.000232
0.000265
0.000258
0.000246
0.000244
0.000245
0.000257
0.000318
0.000395
0.001470
0.000237
0.000259
0.000507
0.000333
0.000239
0.001450
0.000371
0.000263
0.000218
0.000260
0.000256
0.001259
0.000276
0.000553
0.000315
0.000090
0.000225
0.000250
0.000254
0.000262
0.000283
0.000254
0.000239
0.000240
0.000249
0.000264
0.000366
0.000435
0.001319
0.000249
0.000253
0.000256
0.000280
0.000240
0.000254
0.000252
0.000299
0.001247
0.000284
0.000263
0.000263
0.000225
0.001456
0.000435
0.000493
0.000249
0.000165
0.000096
0.000229
0.000206
0.000259
0.000227
0.000255
0.000252
0.000253
0.000220
0.000433
0.000468
0.000291
0.001503
0.000237
0.000224
0.000256
0.000241
0.000258
0.000275
0.001689
0.000277
0.000371
0.000348
0.001284
0.000448
0.000270
0.000297
0.000264
0.000276
0.000264
0.000272
0.000150
0.000069
0.000219
0.000247
0.000293
0.000270
0.000319
0.000508
0.000332
0.000274
0.001460
0.000247
0.000368
0.000255
0.000251
0.000327
0.000338
0.001317
0.000312
0.000272
0.000259
0.000248
0.001451
0.000435
0.000248
0.000268
0.000272
0.000267
0.000431
0.000306
0.000248
0.000270
0.000243
0.000088
0.000240
0.000375
0.000311
0.000251
0.000259
0.001505
0.000232
0.000240
0.000247
0.000268
0.000268
0.000243
0.000301
0.001482
0.000288
0.000237
0.000401
0.001184
0.000330
0.000439
0.000426
0.000272
0.000245
0.000239
0.000293
0.000273
0.000382
0.000243
0.000247
0.000272
0.000194
0.000068
0.000240
0.000238
0.000353
0.000404
0.001307
0.000319
0.000263
0.000219
0.000249
0.000250
0.000238
0.000325
0.001483
0.000269
0.000231
0.000243
0.001355
0.000317
0.000367
0.000401
0.000426
0.000299
0.000261
0.000223
0.000284
0.000253
0.000273
0.000272
0.000239
0.000274
0.000156
0.000066
0.000233
0.000331
0.001516
0.000210
0.000250
0.000300
0.000211
0.000248
0.000265
0.000481
0.001284
0.000272
0.000243
0.000255
0.000261
0.001230
0.000765
0.000271
0.000285
0.000402
0.000345
0.000237
0.000251
0.000264
0.000253
0.000284
0.000273
0.000298
0.000389
0.000473
0.001393
0.000090
0.000205
0.000247
0.000244
0.000251
0.000218
0.000406
0.000460
0.001346
0.000263
0.000267
0.000266
0.001388
0.000371
0.000341
0.000275
0.000364
0.000256
0.000300
0.000234
0.000254
0.000252
0.000266
0.000269
0.000269
0.000264
0.000247
0.000467
0.000481
0.001477
0.000240
0.000165
0.000067
0.000213
0.000254
0.000414
0.001476
0.000345
0.000243
0.000231
0.000251
0.000246
0.000259
0.000251
0.000246
0.000346
0.000527
0.000317
0.000256
0.000280
0.000239
0.000275
0.000279
0.000275
0.000238
0.000234
0.000254
0.000261
0.000411
0.000424
0.000348
0.000324
0.001417
0.000169
0.000078
0.000225
0.000226
0.000316
0.000448
0.000306
0.000329
0.000295
0.000328
0.000307
0.000283
0.000247
0.000204
0.000300
0.000262
0.000262
0.000306
0.000500
0.000321
0.000293
0.000397
0.000267
0.000410
0.000276
0.000239
0.000267
0.000252
0.000281
0.000273
0.000310
0.000519
0.000263
0.000067
0.000245
0.001385
0.000285
0.000318
0.000442
0.000344
0.000349
0.000331
0.000239
0.000259
0.000257
0.000254
0.000239
0.000322
0.000227
0.000261
0.000254
0.001214
0.000400
0.000266
0.000278
0.000275
0.000283
0.000268
0.000252
0.000263
0.000232
0.000263
0.000361
0.000375
0.000230
0.000068
0.000208
0.000247
0.000246
0.001482
0.000336
0.000248
0.000254
0.000244
0.000221
0.000243
0.000274
0.000260
0.000238
0.000256
0.000261
0.000254
0.000288
0.000262
0.000266
0.000234
0.001383
0.000268
0.000228
0.000278
0.000261
0.000262
0.000271
0.000293
0.000236
0.000453
0.000357
0.000071
0.000228
0.000252
0.000405
0.000262
0.000262
0.000253
0.001487
0.000389
0.000250
0.000245
0.000231
0.000370
0.000282
0.000260
0.000217
0.000257
0.000258
0.000235
0.000242
0.000305
0.000505
0.000439
0.001118
0.000277
0.000262
0.000254
0.000265
0.000281
0.000263
0.000281
0.000322
0.000072
0.000178
0.000333
0.000226
0.000231
0.000238
0.000261
0.000236
0.000256
0.000255
0.001592
0.000388
0.000274
0.000285
0.000233
0.000244
0.000258
0.000265
0.000276
0.000304
0.000276
0.000311
0.000475
0.000414
0.001368
0.000266
0.000250
0.000264
0.000275
0.000247
0.000281
0.000438
0.000069
0.000256
0.000251
0.000245
0.000218
0.000241
0.000233
0.000244
0.000272
0.000272
0.001600
0.000323
0.000258
0.000221
0.000264
0.000473
0.000267
0.000527
0.000368
0.000275
0.000306
0.000465
0.000508
0.001235
0.000267
0.000266
0.000281
0.001713
0.000406
0.000596
0.000320
0.000146
0.000067
0.000214
0.000222
0.000268
0.000223
0.000245
0.000274
0.000258
0.000434
0.000513
0.000414
0.000278
0.000227
0.000259
0.000265
0.000262
0.000263
0.000262
0.000252
0.000272
0.000270
0.000272
0.000379
0.001313
0.000270
0.000245
0.000284
0.001871
0.000381
0.000461
0.000263
0.000151
0.000066
0.000236
0.000250
0.000256
0.001538
0.000403
0.000233
0.000248
0.000257
0.000250
0.000268
0.000362
0.000373
0.000364
0.000301
0.000282
0.000516
0.000458
0.001106
0.000281
0.000257
0.000265
0.000271
0.000263
0.000403
0.000664
0.000395
0.000252
0.000257
0.000269
0.000275
0.000192
0.000067
0.000218
0.000240
0.000253
0.001508
0.000267
0.000247
0.000243
0.000236
0.000243
0.000261
0.000287
0.000271
0.000265
0.000247
0.000263
0.000423
0.000357
0.000314
0.001403
0.000262
0.000249
0.000248
0.000266
0.000274
0.000390
0.000489
0.000391
0.000274
0.000294
0.000253
0.000394
0.000068
0.000241
0.000247
0.000257
0.001549
0.000285
0.000252
0.000215
0.000238
0.000247
0.000257
0.000271
0.000311
0.000227
0.000286
0.000376
0.000505
0.001362
0.000736
0.000346
0.000252
0.000266
0.000257
0.000274
0.000272
0.001625
0.000795
0.000275
0.000282
0.000271
0.000276
0.000130
0.000078
0.000264
0.000257
0.000200
0.000265
0.000241
0.000244
0.000255
0.000255
0.000209
0.000251
0.000268
0.000288
0.000246
0.000266
0.000260
0.000266
0.000255
0.001572
0.000711
0.000376
0.000304
0.000263
0.000267
0.000289
0.000280
0.000240
0.000261
0.000246
0.001383
0.000372
0.000306
0.000068
0.000237
0.000253
0.000258
0.000240
0.000197
0.000263
0.000248
0.000236
0.000251
0.000253
0.000261
0.000445
0.000425
0.000339
0.000228
0.000243
0.000286
0.001363
0.000674
0.000522
0.000293
0.000284
0.000266
0.000269
0.000261
0.000277
0.000266
0.000215
0.001451
0.000401
0.000224
0.000068
0.000220
0.000242
0.000247
0.000266
0.000237
0.000262
0.000220
0.000254
0.000231
0.000273
0.000352
0.000354
0.000373
0.000240
0.000252
0.000261
0.000261
0.000273
0.001513
0.000622
0.000457
0.000325
0.000273
0.000242
0.000277
0.000282
0.000254
0.000257
0.000248
0.001443
0.000217
0.000067
0.000235
0.000238
0.000257
0.000264
0.000235
0.000266
0.000245
0.000281
0.000350
0.000440
0.000333
0.000398
0.000374
0.000246
0.000243
0.000264
0.000273
0.000315
0.000235
0.001884
0.000303
0.000251
0.000453
0.000267
0.000258
0.000300
0.000257
0.000233
0.000247
0.000272
0.000302
0.000068
0.000257
0.000275
0.000253
0.000259
0.000246
0.000234
0.000221
0.000232
0.000296
0.000224
0.000245
0.000242
0.000295
0.000411
0.000477
0.000423
0.000253
0.000267
0.000237
0.000257
0.000268
0.000313
0.001560
0.000901
0.000271
0.000253
0.000269
0.000271
0.000249
0.000298
0.000141
0.000068
0.000229
0.001312
0.000286
0.000231
0.000247
0.000265
0.000244
0.000258
0.000254
0.000256
0.000259
0.000194
0.000271
0.000352
0.000354
0.000528
0.000248
0.000271
0.000272
0.000264
0.000240
0.000235
0.000239
0.000331
0.001241
0.000678
0.000313
0.000384
0.000381
0.000402
0.000282
0.000088
0.000228
0.000307
0.000233
0.001305
0.000237
0.000248
0.000248
0.000267
0.000257
0.000258
0.000268
0.000232
0.000256
0.000328
0.000532
0.000319
0.000247
0.000265
0.000306
0.000242
0.000267
0.000272
0.000272
0.000291
0.000256
0.001939
0.000342
0.000279
0.000273
0.000273
0.000137
0.000081
0.000244
0.000295
0.000393
0.000338
0.001270
0.000254
0.000240
0.000243
0.000269
0.000250
0.000230
0.000242
0.000256
0.000263
0.000230
0.000242
0.000251
0.000233
0.000266
0.000252
0.000251
0.000275
0.000295
0.000318
0.000259
0.000273
0.000297
0.001398
0.000256
0.000257
0.000163
0.000067
0.000215
0.000238
0.000250
0.000263
0.000345
0.000386
0.000374
0.000267
0.001577
0.000263
0.000254
0.000611
0.000257
0.000294
0.000378
0.000238
0.000249
0.000264
0.000272
0.000269
0.000246
0.000263
0.000260
0.000282
0.000305
0.000360
0.000373
0.000365
0.001557
0.000243
0.000165
0.000087
0.000220
0.000249
0.000242
0.000248
0.000245
0.000215
0.000296
0.000288
0.000436
0.001994
0.000226
0.000250
0.000280
0.000250
0.000258
0.000260
0.000258
0.000266
0.000269
0.000426
0.000339
0.000487
0.001416
0.000249
0.000243
0.002066
0.000259
0.000277
0.000263
0.001456
0.000186
0.000168
0.000223
0.000406
0.000517
0.000245
0.000249
0.000251
0.000246
0.000260
0.000229
0.000248
0.000270
0.000324
0.000378
0.000353
0.000420
0.000265
0.000278
0.001514
0.000274
0.000579
0.001836
0.000298
0.000249
0.001544
0.002030
0.000708
0.000297
0.000239
0.000293
0.000437
0.000395
0.000068
0.000224
0.000241
0.000247
0.000252
0.001372
0.001730
0.001090
0.000222
0.000241
0.001550
0.001982
0.000253
0.000234
0.000387
0.000343
0.000286
0.000390
0.000532
0.000232
0.000252
0.000273
0.000249
0.000256
0.001574
0.001199
0.001438
0.000294
0.000255
0.000261
0.000361
0.000294
0.000068
0.000232
0.000237
0.000240
0.000238
0.000240
0.000259
0.000256
0.000268
0.000261
0.000211
0.000226
0.000313
0.000396
0.000470
0.000340
0.000251
0.000270
0.000266
0.000235
0.000264
0.000291
0.000249
0.001463
0.000507
0.002139
0.000278
0.000266
0.000299
0.000393
0.000398
0.000177
0.000070
0.000215
0.000404
0.000405
0.000306
0.000232
0.000244
0.000262
0.000236
0.000241
0.000260
0.000262
0.000260
0.000248
0.001557
0.001355
0.001245
0.000258
0.000248
0.000245
0.000272
0.000271
0.000269
0.000242
0.000265
0.002230
0.000253
0.000267
0.000272
0.000324
0.000285
0.000213
0.000080
0.000224
0.000359
0.000524
0.000376
0.000235
0.000234
0.000243
0.000262
0.001881
0.001446
0.000227
0.000285
0.000386
0.000410
0.000265
0.000247
0.000267
0.000264
0.000276
0.000271
0.000230
0.000250
0.000494
0.000250
0.000271
0.000258
0.000280
0.000277
0.000241
0.000244
0.000173
0.000068
0.000245
0.000248
0.000240
0.000245
0.000264
0.000308
0.001468
0.001415
0.001343
0.000239
0.000239
0.000249
0.000248
0.000243
0.000281
0.000251
0.000247
0.002111
0.000218
0.000264
0.000273
0.000257
0.000249
0.000273
0.000252
0.000278
0.000267
0.000278
0.000262
0.000239
0.000159
0.000067
0.000247
0.002639
0.001417
0.000259
0.000259
0.000305
0.000226
0.000276
0.000237
0.000256
0.000237
0.000267
0.000240
0.000261
0.000259
0.000262
0.000245
0.000275
0.000243
0.000265
0.000250
0.000286
0.000271
0.000258
0.000254
0.000259
0.000277
0.000269
0.000247
0.000271
0.000359
0.000066
0.001563
0.000238
0.001241
0.000253
0.000220
0.000240
0.000288
0.000245
0.000257
0.000286
0.000337
0.000349
0.000328
0.000245
0.000246
0.002172
0.000266
0.000261
0.000283
0.000417
0.000324
0.000341
0.000269
0.000251
0.000258
0.000269
0.000273
0.000298
0.000243
0.001568
0.001255
0.000083
0.000234
0.000214
0.000246
0.000465
0.000344
0.000242
0.000240
0.000256
0.000262
0.000260
0.000243
0.000224
0.000226
0.000285
0.000234
0.000256
0.000268
0.000614
0.000380
0.000251
0.000248
0.000288
0.000248
0.000278
0.000257
0.000272
0.000217
0.000295
0.000268
0.000504
0.000151
0.000068
0.001139
0.000258
0.000314
0.000436
0.000289
0.000242
0.000239
0.000255
0.000226
0.002300
0.000343
0.000403
0.000238
0.000400
0.000269
0.000266
0.000274
0.000254
0.000245
0.000221
0.000238
0.000326
0.000508
0.000486
0.001871
0.001300
0.000525
0.000548
0.000248
0.000267
0.000191
0.000071
0.000301
0.000300
0.000262
0.000226
0.000242
0.000236
0.000260
0.000258
0.000242
0.000238
0.000255
0.000263
0.000263
0.000268
0.000336
0.000532
0.001790
0.001345
0.000444
0.000430
0.000448
0.000265
0.000241
0.000251
0.002210
0.000464
0.000379
0.000255
0.000258
0.000277
0.000190
0.000068
0.000240
0.000250
0.000255
0.000249
0.000231
0.000346
0.000380
0.000311
0.000330
0.000230
0.000255
0.000240
0.000250
0.002127
0.000319
0.000410
0.000245
0.000266
0.000269
0.000249
0.000258
0.002420
0.000330
0.000267
0.000271
0.000231
0.000265
0.000264
0.000287
0.000245
0.000194
0.000066
0.000229
0.000349
0.000555
0.000365
0.000251
0.000252
0.000221
0.000227
0.000255
0.000257
0.001937
0.000387
0.000293
0.000255
0.000249
0.000290
0.000245
0.000251
0.002203
0.000431
0.000247
0.000259
0.000246
0.000274
0.000262
0.000291
0.000268
0.000253
0.000269
0.000241
0.000157
0.000085
0.000202
0.000237
0.000229
0.000234
0.000254
0.000252
0.000253
0.000217
0.000226
0.002199
0.000253
0.000240
0.000231
0.000398
0.000235
0.000238
0.000311
0.000259
0.000271
0.000268
0.001936
0.000270
0.000378
0.000330
0.000435
0.000452
0.000243
0.000274
0.000277
0.000317
0.000145
0.000074
0.000192
0.000234
0.000245
0.000247
0.000234
0.000325
0.000238
0.002308
0.000225
0.000243
0.000260
0.000255
0.000256
0.000249
0.000282
0.002143
0.000566
0.000240
0.000256
0.000241
0.000252
0.000260
0.000274
0.000257
0.000265
0.000281
0.000283
0.000262
0.000273
0.000257
0.000166
0.000068
0.001820
0.001443
0.000250
0.000190
0.000241
0.000241
0.000254
0.000311
0.000412
0.000271
0.002194
0.000249
0.000254
0.000257
0.000266
0.000597
0.000311
0.000322
0.000213
0.000282
0.000278
0.000218
0.000280
0.000260
0.000276
0.000213
0.000270
0.000263
0.000259
0.000754
0.000242
0.000075
0.000239
0.000254
0.000240
0.000320
0.000220
0.000226
0.000246
0.000252
0.001426
0.002141
0.000573
0.000272
0.000400
0.000699
0.000357
0.000265
0.000251
0.000224
0.000267
0.000285
0.000239
0.000265
0.000258
0.000281
0.003027
0.000293
0.000266
0.000244
0.000263
0.000280
0.000416
0.000067
0.001935
0.000226
0.000247
0.000253
0.000230
0.000389
0.000466
0.000280
0.000287
0.000256
0.000256
0.000256
0.000258
0.000261
0.000264
0.000195
0.000287
0.000259
0.001808
0.000269
0.000226
0.000258
0.000345
0.000255
0.000258
0.000225
0.001460
0.000321
0.000268
0.000268
0.000172
0.000066
0.000215
0.000264
0.000256
0.000246
0.000252
0.000216
0.000309
0.000301
0.000462
0.000268
0.000225
0.000272
0.000246
0.000299
0.000419
0.000339
0.000216
0.000263
0.000266
0.000352
0.000515
0.000381
0.000278
0.000259
0.000247
0.000251
0.000285
0.000291
0.000252
0.000289
0.000134
0.000090
0.001406
0.000470
0.000250
0.001896
0.000246
0.000437
0.000435
0.000323
0.000256
0.000253
0.000236
0.000264
0.000250
0.000260
0.000257
0.000254
0.000408
0.000304
0.000426
0.000337
0.000370
0.000262
0.000257
0.000274
0.000271
0.000270
0.000278
0.000345
0.000427
0.000320
0.001313
0.000070
0.000235
0.000218
0.002049
0.000336
0.000294
0.000232
0.000266
0.000261
0.000263
0.000249
0.000245
0.000233
0.000234
0.000260
0.000294
0.000355
0.000697
0.001754
0.000264
0.000271
0.000228
0.000264
0.000288
0.000468
0.001602
0.000287
0.000383
0.001915
0.000265
0.000241
0.000187
0.000067
0.000222
0.000236
0.000247
0.000228
0.000241
0.000254
0.000258
0.000292
0.000290
0.000265
0.000387
0.000370
0.000387
0.000263
0.000232
0.000266
0.000278
0.000266
0.000256
0.000232
0.000350
0.000291
0.000267
0.000272
0.000268
0.001426
0.000286
0.000391
0.002068
0.000241
0.000159
0.000068
0.000239
0.000243
0.000227
0.000252
0.000454
0.000253
0.000258
0.000315
0.000347
0.000315
0.000274
0.000263
0.000217
0.000289
0.000244
0.000327
0.000433
0.000425
0.000258
0.000414
0.000527
0.000388
0.001625
0.000257
0.000252
0.001981
0.000300
0.000271
0.000276
0.000283
0.000157
0.000067
0.000224
0.000224
0.000249
0.000256
0.000257
0.000267
0.000256
0.000228
0.000265
0.000249
0.001795
0.000319
0.000378
0.000278
0.000500
0.000345
0.000331
0.001508
0.000262
0.000262
0.002120
0.000554
0.000266
0.000241
0.000275
0.000269
0.000491
0.000240
0.000248
0.000308
0.000164
0.000090
0.000284
0.000317
0.000423
0.000254
0.000239
0.000247
0.000250
0.000245
0.000330
0.000243
0.000254
0.000262
0.000230
0.000263
0.000300
0.000454
0.001321
0.000278
0.000363
0.001822
0.000375
0.000278
0.000247
0.000248
0.000276
0.000282
0.000244
0.000261
0.000278
0.000285
0.000172
0.000076
0.000232
0.000448
0.002005
0.000259
0.000260
0.000248
0.000288
0.000278
0.000364
0.000468
0.001288
0.000376
0.000353
0.002079
0.000235
0.000243
0.000241
0.000278
0.000262
0.000267
0.000276
0.000276
0.000267
0.000495
0.000337
0.000363
0.002275
0.000288
0.000454
0.000518
0.000369
0.000069
0.000232
0.000251
0.000239
0.001928
0.000242
0.000255
0.000247
0.000223
0.000246
0.000258
0.000248
0.000261
0.000241
0.000253
0.000412
0.001502
0.000257
0.000233
0.000265
0.000275
0.000255
0.000254
0.000256
0.000276
0.000358
0.000416
0.000444
0.000264
0.001562
0.000290
0.000148
0.000067
0.000220
0.000244
0.000243
0.000238
0.000256
0.000266
0.000252
0.000231
0.000262
0.000324
0.000389
0.001403
0.000240
0.000240
0.000247
0.000267
0.000257
0.000236
0.000311
0.000447
0.000518
0.000362
0.000232
0.001542
0.000242
0.000279
0.000267
0.000263
0.000261
0.000329
0.000143
0.000088
0.000211
0.000250
0.000229
0.000244
0.000249
0.000240
0.000266
0.000267
0.000244
0.000248
0.000258
0.000256
0.000283
0.001423
0.000347
0.000236
0.000238
0.000261
0.000272
0.000303
0.000375
0.000271
0.000304
0.000274
0.000276
0.000267
0.000207
0.001377
0.000282
0.000260
0.000147
0.000068
0.000223
0.000250
0.000225
0.000287
0.000239
0.000237
0.000238
0.000250
0.000244
0.000239
0.000254
0.000267
0.000232
0.000329
0.000313
0.000366
0.000274
0.000295
0.001562
0.000256
0.000254
0.000277
0.000273
0.000295
0.000341
0.000368
0.000460
0.000279
0.000250
0.001583
0.000163
0.000067
0.000371
0.000284
0.000383
0.000315
0.000240
0.000248
0.000256
0.000257
0.000219
0.000266
0.000221
0.000250
0.001417
0.000287
0.000324
0.000250
0.000241
0.000264
0.000256
0.000242
0.000256
0.000257
0.000238
0.000270
0.000258
0.000380
0.000446
0.000300
0.000369
0.000258
0.000146
0.000070
0.000242
0.000244
0.000529
0.000257
0.000330
0.000308
0.000248
0.000230
0.000245
0.000266
0.000241
0.000247
0.000254
0.000241
0.001223
0.000302
0.000291
0.000263
0.000259
0.000269
0.000219
0.000256
0.000268
0.000265
0.000240
0.000266
0.000294
0.000623
0.000491
0.000299
0.000117
0.000082
0.000207
0.001541
0.000249
0.000537
0.000247
0.000407
0.000272
0.000256
0.000244
0.000226
0.000244
0.000246
0.000248
0.000270
0.000252
0.001526
0.000269
0.000272
0.000266
0.000268
0.000265
0.000252
0.000252
0.000265
0.000266
0.000249
0.000411
0.000380
0.000383
0.000258
0.000161
0.000087
0.000233
0.000252
0.000255
0.001519
0.000489
0.000290
0.000253
0.000250
0.000281
0.000229
0.000257
0.000261
0.000264
0.000239
0.000253
0.000266
0.000370
0.001319
0.000265
0.000289
0.001445
0.000293
0.000708
0.000306
0.000320
0.000279
0.000270
0.000405
0.000246
0.000250
0.000177
0.000067
0.000290
0.000256
0.000257
0.000242
0.000255
0.000262
0.000256
0.000254
0.000254
0.000231
0.000244
0.000255
0.000276
0.000468
0.001695
0.001474
0.000359
0.000487
0.000383
0.000256
0.000246
0.000241
0.000253
0.000257
0.000287
0.000266
0.000237
0.000266
0.001495
0.000330
0.000175
0.000067
0.000242
0.000317
0.000349
0.000330
0.000240
0.000253
0.000243
0.000278
0.000489
0.000348
0.002227
0.000300
0.000702
0.000466
0.000503
0.000259
0.000330
0.000386
0.000326
0.000280
0.000378
0.000277
0.001525
0.000530
0.000256
0.000257
0.000257
0.000275
0.000284
0.000267
0.000128
0.000075
0.000234
0.000222
0.000245
0.000254
0.001665
0.000282
0.000837
0.000992
0.000234
0.000255
0.000273
0.000264
0.000260
0.000245
0.000255
0.000250
0.000280
0.000268
0.000258
0.000267
0.001377
0.000312
0.000250
0.000244
0.000256
0.000262
0.000273
0.000259
0.000280
0.000261
0.001881
0.000068
0.000223
0.000245
0.001494
0.000912
0.000409
0.000293
0.000251
0.000236
0.000253
0.000258
0.000249
0.000255
0.000226
0.001961
0.000473
0.000264
0.000236
0.000272
0.000260
0.000268
0.000161
