0.000084
0.019148
0.002311
0.000297
0.000264
0.000285
0.000303
0.000245
0.000336
0.000289
0.000245
0.000352
0.000537
0.000514
0.000312
0.000364
0.000279
0.000372
0.000318
0.000408
0.000313
0.001937
0.000719
0.000221
0.000255
0.000306
0.000307
0.000326
0.000481
0.000465
0.000425
0.000242
0.000058
0.000211
0.000270
0.000292
0.000242
0.000274
0.000248
0.000285
0.000271
0.000256
0.000339
0.000383
0.000436
0.000314
0.000256
0.000416
0.000301
0.000362
0.000250
0.000254
0.001712
0.000301
0.000264
0.000448
0.000248
0.000273
0.000272
0.000291
0.000318
0.000256
0.000349
0.000445
0.000057
0.000206
0.000246
0.000258
0.000262
0.000253
0.000247
0.000264
0.000261
0.000277
0.001673
0.000243
0.000214
0.000267
0.000278
0.000280
0.000248
0.000261
0.000264
0.000351
0.001809
0.000224
0.000281
0.000438
0.000494
0.000330
0.000241
0.000290
0.000532
0.000449
0.000738
0.000176
0.000056
0.000217
0.000254
0.000257
0.000235
0.000292
0.000257
0.000266
0.000812
0.000189
0.000252
0.000241
0.000249
0.000236
0.000254
0.000264
0.000249
0.000256
0.000258
0.000300
0.000330
0.001658
0.000282
0.000254
0.000410
0.000300
0.000703
0.000655
0.000547
0.000333
0.000235
0.000188
0.000059
0.000188
0.000248
0.000263
0.000244
0.000257
0.000250
0.000259
0.000444
0.001488
0.000240
0.000237
0.000241
0.000256
0.000254
0.000266
0.000287
0.000358
0.000748
0.001357
0.000281
0.000458
0.000255
0.000233
0.000219
0.000257
0.000259
0.000266
0.000266
0.000262
0.000270
0.000192
0.000057
0.000211
0.000250
0.000244
0.000263
0.000239
0.000242
0.000242
0.000254
0.000236
0.000260
0.001625
0.000278
0.000226
0.000238
0.000253
0.000253
0.000244
0.000251
0.000252
0.000254
0.000270
0.001657
0.000293
0.000254
0.000434
0.000254
0.000265
0.000251
0.000264
0.000270
0.000195
0.000055
0.000200
0.000237
0.000248
0.000244
0.000240
0.000248
0.000265
0.000234
0.000262
0.000242
0.000267
0.000259
0.000256
0.000274
0.001632
0.000278
0.000303
0.000206
0.000256
0.000273
0.000268
0.000240
0.000246
0.000262
0.001809
0.000462
0.000252
0.000347
0.000257
0.000281
0.000217
0.000056
0.000195
0.000236
0.000247
0.000266
0.000261
0.000239
0.000282
0.000410
0.000409
0.000434
0.000200
0.000250
0.000255
0.000248
0.001668
0.000508
0.000246
0.000405
0.000318
0.000230
0.000260
0.000293
0.000262
0.001756
0.000484
0.000468
0.000249
0.000253
0.000252
0.000257
0.000189
0.000057
0.000197
0.000237
0.000253
0.000311
0.000308
0.000452
0.000336
0.000283
0.000225
0.000258
0.000252
0.000235
0.000256
0.001746
0.000448
0.000293
0.000230
0.000249
0.000285
0.000267
0.000248
0.000262
0.000273
0.001864
0.000331
0.000385
0.000273
0.000236
0.000259
0.000418
0.000329
0.000055
0.000205
0.000418
0.000352
0.000238
0.000262
0.000244
0.000252
0.000256
0.000241
0.000234
0.000236
0.000251
0.001555
0.000373
0.000279
0.000237
0.000257
0.000248
0.000245
0.000283
0.000279
0.000329
0.000246
0.001811
0.000254
0.000494
0.000245
0.000256
0.000254
0.000266
0.000255
0.000056
0.000341
0.000525
0.000615
0.000212
0.000236
0.000275
0.000224
0.000247
0.000235
0.000255
0.000252
0.001700
0.000256
0.000432
0.000368
0.000215
0.000245
0.000234
0.000245
0.000265
0.000382
0.001727
0.000239
0.000239
0.002081
0.000538
0.000340
0.000248
0.000262
0.000260
0.000189
0.000056
0.000217
0.000261
0.000225
0.000240
0.000326
0.001560
0.000261
0.000217
0.000251
0.000253
0.000250
0.000234
0.000255
0.000255
0.000295
0.000489
0.000518
0.000264
0.000258
0.000250
0.000288
0.000220
0.000246
0.000437
0.000438
0.000300
0.000399
0.000443
0.000440
0.000290
0.000194
0.000056
0.000227
0.000219
0.000252
0.000248
0.000238
0.000240
0.000263
0.000435
0.000451
0.001665
0.000195
0.000237
0.000240
0.000252
0.000257
0.000312
0.000439
0.000429
0.000351
0.000244
0.000259
0.000313
0.000269
0.000259
0.000272
0.000437
0.000345
0.000617
0.000426
0.000468
0.000166
0.000056
0.000207
0.000260
0.000238
0.000224
0.000244
0.000241
0.000244
0.000249
0.000241
0.000294
0.000336
0.000487
0.001345
0.000259
0.000226
0.000244
0.000258
0.000248
0.000262
0.000255
0.000294
0.000454
0.000371
0.000269
0.000271
0.000254
0.000257
0.000290
0.000242
0.000264
0.000390
0.000056
0.000214
0.000233
0.000232
0.000274
0.000538
0.000436
0.000217
0.000265
0.000232
0.000260
0.000246
0.000237
0.000300
0.000250
0.000241
0.000495
0.000414
0.001634
0.000276
0.000234
0.000257
0.000265
0.000262
0.000240
0.000278
0.000520
0.000405
0.000304
0.000431
0.000242
0.000186
0.000058
0.000226
0.000435
0.000235
0.000209
0.000271
0.000258
0.000370
0.000596
0.000209
0.000322
0.000226
0.000267
0.000272
0.000235
0.000518
0.000346
0.000225
0.000256
0.000540
0.001504
0.000282
0.000212
0.000532
0.000233
0.000280
0.000285
0.000256
0.000359
0.000642
0.000293
0.000241
0.000057
0.000223
0.000239
0.000234
0.000239
0.000413
0.000312
0.000293
0.000222
0.000504
0.000427
0.000328
0.000238
0.000247
0.000240
0.000279
0.000242
0.000252
0.000255
0.000241
0.000340
0.000318
0.000271
0.001885
0.000238
0.000259
0.000252
0.000283
0.000356
0.000442
0.000813
0.000294
0.000057
0.000235
0.000329
0.000280
0.000432
0.000387
0.000217
0.000249
0.000411
0.000594
0.000218
0.000257
0.000249
0.000230
0.000270
0.000261
0.000236
0.000253
0.000274
0.000268
0.000260
0.000319
0.000361
0.000700
0.001281
0.000340
0.000456
0.000391
0.000263
0.000486
0.000400
0.000269
0.000058
0.000246
0.000380
0.000270
0.000225
0.000207
0.000248
0.000411
0.000233
0.000315
0.000432
0.000419
0.000321
0.000231
0.000258
0.000265
0.000244
0.000372
0.000393
0.000335
0.000246
0.000240
0.000446
0.000662
0.001597
0.000215
0.000457
0.000288
0.000235
0.000304
0.000462
0.000298
0.000057
0.000199
0.000225
0.000245
0.000250
0.000254
0.000236
0.000251
0.000319
0.000458
0.000318
0.000401
0.000390
0.000281
0.000573
0.000244
0.000242
0.000272
0.000274
0.000225
0.000350
0.000219
0.000251
0.000280
0.000429
0.000661
0.001463
0.000266
0.000234
0.000254
0.000266
0.000193
0.000056
0.000209
0.000528
0.000253
0.000224
0.000247
0.000251
0.000255
0.000243
0.000274
0.000230
0.000222
0.000249
0.000468
0.000486
0.000401
0.000262
0.000254
0.000252
0.000346
0.000400
0.000366
0.000331
0.000421
0.000357
0.000237
0.000245
0.000264
0.000271
0.001789
0.000240
0.000216
0.000057
0.000202
0.000226
0.000259
0.000267
0.000368
0.000539
0.000302
0.000221
0.000261
0.000263
0.000248
0.000268
0.000490
0.000456
0.000479
0.000285
0.000259
0.000276
0.000416
0.000467
0.000406
0.000474
0.000385
0.000426
0.000231
0.000281
0.000241
0.000245
0.000268
0.001720
0.000378
0.000057
0.000241
0.000340
0.000200
0.000235
0.000257
0.000248
0.000247
0.000502
0.000373
0.000303
0.000286
0.000277
0.000360
0.000626
0.000350
0.000240
0.000244
0.000255
0.000256
0.000259
0.000269
0.000271
0.000244
0.000262
0.000373
0.000300
0.000429
0.000340
0.000239
0.000248
0.000185
0.000057
0.000428
0.000301
0.000489
0.000241
0.000214
0.000231
0.000246
0.000258
0.000236
0.000227
0.000248
0.000278
0.000294
0.000475
0.000521
0.000393
0.000286
0.000328
0.000378
0.000339
0.000284
0.000256
0.000236
0.000267
0.001740
0.000264
0.001716
0.000993
0.000346
0.000332
0.000165
0.000057
0.000193
0.000239
0.000237
0.000241
0.000266
0.000246
0.000250
0.000252
0.000240
0.000314
0.000543
0.000255
0.000338
0.000378
0.000263
0.000254
0.000242
0.000295
0.000219
0.000257
0.000253
0.000257
0.001796
0.000257
0.000252
0.000265
0.000277
0.000264
0.001920
0.000398
0.000342
0.000055
0.000214
0.000208
0.000246
0.000239
0.000251
0.000249
0.000244
0.000257
0.000278
0.000410
0.000536
0.000454
0.000246
0.000206
0.000229
0.000250
0.000333
0.000441
0.000368
0.000264
0.001760
0.000257
0.000248
0.000248
0.000263
0.000267
0.000245
0.000251
0.000327
0.000394
0.000382
0.000058
0.000241
0.000218
0.000243
0.000261
0.000257
0.000229
0.000254
0.000259
0.000237
0.000257
0.000241
0.000312
0.000357
0.000363
0.000363
0.000259
0.000475
0.000229
0.000253
0.000259
0.000255
0.000262
0.000273
0.000258
0.000276
0.001782
0.000259
0.000260
0.000249
0.000235
0.000197
0.000056
0.000218
0.000416
0.000200
0.000230
0.000238
0.000236
0.000236
0.000259
0.000247
0.000232
0.000226
0.000261
0.000302
0.000369
0.000351
0.000371
0.000280
0.000245
0.000252
0.000252
0.000258
0.000260
0.000249
0.000274
0.000241
0.000270
0.000361
0.001575
0.000270
0.000239
0.000191
0.000057
0.000210
0.000237
0.000249
0.000250
0.000355
0.000359
0.000367
0.000348
0.000224
0.000254
0.000254
0.000245
0.000248
0.000250
0.000264
0.000259
0.000244
0.000257
0.000251
0.000260
0.000270
0.000268
0.000259
0.000225
0.000241
0.000278
0.000278
0.000264
0.000253
0.000282
0.000167
0.000056
0.000212
0.000241
0.000253
0.000259
0.000233
0.000251
0.000263
0.000243
0.000297
0.000221
0.000230
0.000257
0.000245
0.000252
0.000270
0.000261
0.000256
0.000252
0.000288
0.000263
0.000270
0.000291
0.000272
0.000247
0.000282
0.000272
0.000269
0.000254
0.000299
0.000435
0.000632
0.000057
0.000233
0.000283
0.000237
0.000220
0.000235
0.000252
0.000239
0.000250
0.000253
0.000241
0.000267
0.000429
0.000371
0.000518
0.001524
0.000208
0.000472
0.000237
0.000260
0.000443
0.000457
0.000369
0.000224
0.000272
0.000265
0.000250
0.000281
0.000252
0.000311
0.000255
0.000186
0.000056
0.000421
0.000417
0.000330
0.000217
0.000222
0.000253
0.000265
0.000232
0.000235
0.000241
0.000260
0.000255
0.000227
0.000293
0.000413
0.000423
0.000387
0.001851
0.000193
0.000245
0.000368
0.000393
0.000400
0.000335
0.000315
0.000325
0.000303
0.000246
0.000214
0.000247
0.000202
0.000056
0.000222
0.000232
0.000267
0.000277
0.000481
0.000391
0.000256
0.000257
0.000251
0.000215
0.000253
0.000264
0.000268
0.000263
0.000246
0.000255
0.000435
0.000391
0.000340
0.000413
0.000226
0.001775
0.000304
0.000516
0.000474
0.000477
0.000312
0.000232
0.000261
0.000266
0.000443
0.000057
0.000208
0.000255
0.000230
0.000430
0.000266
0.000517
0.000328
0.000241
0.000224
0.000282
0.000257
0.000261
0.000247
0.000296
0.000313
0.000223
0.000265
0.000361
0.000466
0.000345
0.000497
0.001831
0.000281
0.000542
0.000406
0.000341
0.000222
0.000259
0.000290
0.000271
0.000191
0.000058
0.000214
0.000342
0.000358
0.000369
0.000350
0.000339
0.000318
0.000212
0.000247
0.000256
0.000278
0.000226
0.000266
0.000235
0.000241
0.000269
0.000328
0.000386
0.000501
0.000368
0.000270
0.000258
0.000249
0.001703
0.000496
0.000454
0.000679
0.000228
0.000267
0.000309
0.000156
0.000056
0.000196
0.000241
0.000323
0.000259
0.000249
0.000409
0.000391
0.000306
0.000235
0.000528
0.000238
0.000247
0.000258
0.000275
0.000278
0.000263
0.000209
0.000387
0.000528
0.000344
0.000269
0.000245
0.000243
0.000252
0.000259
0.000264
0.000246
0.000253
0.000266
0.000285
0.000230
0.000056
0.000364
0.000315
0.000209
0.000249
0.000248
0.000260
0.000237
0.000290
0.000247
0.000244
0.000276
0.000334
0.000517
0.000310
0.000403
0.000210
0.000222
0.000238
0.000260
0.000267
0.000289
0.000254
0.000239
0.000258
0.000281
0.000382
0.000402
0.000318
0.000342
0.000241
0.000180
0.000056
0.000213
0.000226
0.000276
0.000244
0.000236
0.000252
0.000273
0.000242
0.000486
0.000215
0.000261
0.000253
0.000243
0.000265
0.000270
0.000276
0.000262
0.000350
0.000224
0.000242
0.000253
0.000267
0.000254
0.000272
0.000275
0.000267
0.000259
0.000259
0.000513
0.000240
0.000154
0.000056
0.000208
0.000243
0.000261
0.000255
0.000221
0.000245
0.000363
0.000414
0.000238
0.000230
0.000253
0.000255
0.000235
0.000342
0.000416
0.001722
0.000246
0.000257
0.000284
0.000388
0.000365
0.000359
0.000385
0.000414
0.000329
0.000424
0.000239
0.000272
0.000268
0.000274
0.001404
0.000056
0.000410
0.000230
0.000288
0.000210
0.000237
0.000253
0.000229
0.000277
0.000225
0.000270
0.000243
0.000258
0.000251
0.000288
0.000548
0.001629
0.000239
0.000232
0.000242
0.000271
0.000232
0.000288
0.000451
0.000345
0.000349
0.000261
0.000192
0.000271
0.000271
0.000263
0.000199
0.000056
0.001220
0.000561
0.000282
0.000270
0.000248
0.000219
0.000233
0.000242
0.000499
0.000208
0.000242
0.000247
0.000557
0.000406
0.000291
0.000356
0.000238
0.000237
0.000346
0.000351
0.000270
0.000257
0.000268
0.000247
0.000280
0.000680
0.000466
0.000240
0.000252
0.000278
0.000157
0.000057
0.000221
0.000220
0.000239
0.000240
0.001486
0.000292
0.000220
0.000250
0.000240
0.000249
0.000252
0.000255
0.000245
0.000259
0.000268
0.000367
0.000400
0.000601
0.000270
0.001748
0.000270
0.000270
0.000385
0.000493
0.000390
0.000412
0.000254
0.000245
0.000254
0.000269
0.000206
0.000057
0.000218
0.000250
0.000229
0.000395
0.001186
0.000244
0.000240
0.000264
0.000237
0.000241
0.000236
0.000242
0.000281
0.000247
0.000254
0.000311
0.000515
0.000350
0.000323
0.000262
0.000266
0.000270
0.000248
0.000236
0.000291
0.000262
0.000239
0.000275
0.000296
0.000284
0.000637
0.000057
0.000218
0.000241
0.000241
0.000261
0.000279
0.000228
0.000234
0.000254
0.000269
0.000258
0.001433
0.000220
0.000244
0.000249
0.000244
0.000247
0.000265
0.000265
0.000264
0.000265
0.000305
0.000472
0.000555
0.000272
0.000229
0.000273
0.001760
0.000271
0.000256
0.000332
0.000413
0.000057
0.000204
0.000410
0.000431
0.000504
0.000514
0.000558
0.001486
0.000407
0.000522
0.000652
0.000554
0.000861
0.000345
0.000609
0.000579
0.001915
0.000529
0.000283
0.000408
0.000315
0.000233
0.000291
0.000256
0.000261
0.000277
0.000271
0.000292
0.000288
0.000258
0.000293
0.001377
0.000056
0.000224
0.000220
0.000251
0.000241
0.000251
0.000258
0.000238
0.000237
0.000275
0.000228
0.000243
0.000231
0.000262
0.000261
0.000266
0.000269
0.001803
0.000279
0.000241
0.000249
0.000264
0.000253
0.000268
0.000276
0.000414
0.000421
0.000336
0.000226
0.000262
0.000270
0.000217
0.000057
0.000203
0.001372
0.000327
0.000262
0.000258
0.000241
0.000242
0.000238
0.000224
0.000243
0.000223
0.000253
0.000233
0.000510
0.000365
0.000279
0.000264
0.000258
0.001925
0.000230
0.000244
0.000270
0.000255
0.000260
0.000281
0.000283
0.000268
0.000252
0.000269
0.000318
0.000203
0.000057
0.000222
0.000240
0.000252
0.001434
0.000216
0.000253
0.000255
0.000243
0.000258
0.000242
0.000253
0.000248
0.000244
0.000260
0.000262
0.000255
0.000261
0.000264
0.000266
0.000264
0.000256
0.001766
0.000293
0.001735
0.000277
0.000240
0.000277
0.000282
0.000250
0.000275
0.000196
0.000056
0.000210
0.000242
0.001340
0.000227
0.000254
0.000252
0.000255
0.000280
0.000215
0.000253
0.000244
0.000250
0.000261
0.000261
0.000262
0.000263
0.000260
0.000277
0.000309
0.000223
0.001874
0.000238
0.001832
0.000245
0.000261
0.000270
0.000234
0.000252
0.000255
0.000267
0.000192
0.000056
0.001425
0.000217
0.000233
0.000240
0.000239
0.000264
0.000347
0.000266
0.000255
0.000256
0.000248
0.000257
0.000251
0.000388
0.000352
0.000301
0.000247
0.000269
0.000258
0.000270
0.000241
0.000341
0.000234
0.000249
0.000288
0.000259
0.000274
0.000382
0.000625
0.000335
0.000194
0.000057
0.000224
0.000219
0.000263
0.000300
0.000371
0.000252
0.001721
0.000281
0.000277
0.000288
0.000233
0.000268
0.000294
0.000239
0.000298
0.000308
0.000555
0.000365
0.000376
0.000259
0.000297
0.000285
0.000275
0.000246
0.000334
0.000290
0.000235
0.000248
0.000257
0.000336
0.000423
0.000056
0.000253
0.000471
0.000272
0.000280
0.000230
0.000227
0.000227
0.000247
0.000258
0.000296
0.001473
0.000227
0.000228
0.000251
0.000240
0.000276
0.000271
0.000237
0.000266
0.000269
0.000274
0.000551
0.000350
0.000318
0.000263
0.000293
0.000264
0.000259
0.000232
0.000314
0.000162
0.000056
0.000207
0.000235
0.000431
0.000305
0.000391
0.000261
0.000217
0.000250
0.000252
0.000251
0.000233
0.000250
0.000255
0.000266
0.000242
0.000294
0.000403
0.001154
0.000244
0.000242
0.000273
0.000258
0.000353
0.000419
0.000244
0.000488
0.000468
0.000298
0.000371
0.000252
0.000174
0.000057
0.000234
0.000248
0.000259
0.000258
0.000260
0.000268
0.000334
0.000381
0.000412
0.000313
0.000364
0.000391
0.000388
0.000359
0.000253
0.000249
0.000237
0.000304
0.000384
0.001410
0.000291
0.000227
0.000271
0.000271
0.000252
0.000223
0.000260
0.000323
0.000521
0.000388
0.000188
0.000056
0.000220
0.000222
0.000256
0.000244
0.000237
0.000256
0.000233
0.000262
0.000376
0.000320
0.000544
0.000238
0.000236
0.000219
0.000256
0.000255
0.000253
0.000258
0.000265
0.000249
0.000451
0.000313
0.000410
0.000334
0.000297
0.000252
0.000271
0.000272
0.000259
0.000334
0.000155
0.000057
0.000314
0.000317
0.000318
0.000484
0.000315
0.000364
0.000255
0.000249
0.000239
0.000278
0.000253
0.000257
0.000241
0.000251
0.000243
0.000229
0.000301
0.000415
0.000447
0.000326
0.000215
0.000268
0.000242
0.000249
0.000263
0.000276
0.000277
0.000263
0.000275
0.000277
0.000362
0.000057
0.000180
0.000364
0.000233
0.000245
0.000244
0.000251
0.000238
0.000258
0.000262
0.000261
0.000251
0.000235
0.000438
0.000356
0.000419
0.000306
0.000228
0.000245
0.000256
0.000287
0.000237
0.000265
0.000259
0.000259
0.000275
0.000390
0.000393
0.000534
0.000415
0.000250
0.000177
0.000056
0.000399
0.000200
0.000232
0.000247
0.000251
0.000245
0.000258
0.000233
0.000255
0.000259
0.000220
0.000249
0.000272
0.000221
0.000249
0.000267
0.000249
0.000263
0.000269
0.000264
0.000262
0.000260
0.000268
0.000254
0.000273
0.000236
0.000266
0.000281
0.000254
0.000274
0.000202
0.000056
0.000195
0.000240
0.000244
0.000250
0.000230
0.000258
0.000263
0.000237
0.000255
0.000283
0.000223
0.000244
0.000250
0.000398
0.000254
0.000279
0.000260
0.000270
0.000254
0.000279
0.000271
0.000243
0.000243
0.000250
0.000272
0.000271
0.000253
0.000251
0.000273
0.000257
0.000203
0.000055
0.000226
0.000356
0.000365
0.000278
0.000295
0.000257
0.000279
0.000251
0.000224
0.000241
0.000255
0.000260
0.000251
0.000238
0.000271
0.000243
0.000265
0.000268
0.000249
0.000268
0.000267
0.000265
0.000280
0.000253
0.000273
0.000251
0.000259
0.000268
0.000271
0.000259
0.000192
0.000056
0.000210
0.000233
0.000260
0.000267
0.000486
0.000212
0.000208
0.000247
0.000280
0.000420
0.000538
0.000269
0.000228
0.000247
0.000265
0.000269
0.000240
0.000271
0.000256
0.000267
0.000269
0.000257
0.000260
0.000280
0.000600
0.000484
0.000213
0.000301
0.000263
0.000259
0.000189
0.000057
0.000192
0.000220
0.000249
0.000250
0.000355
0.000631
0.000309
0.000368
0.000214
0.000248
0.000248
0.000238
0.000252
0.000251
0.000261
0.000269
0.000254
0.000250
0.000746
0.000296
0.000279
0.000245
0.000259
0.000284
0.000284
0.000252
0.000261
0.000272
0.000246
0.000334
0.000376
0.000057
0.000187
0.000231
0.000240
0.000234
0.000260
0.000248
0.000230
0.000247
0.000244
0.000259
0.000246
0.000252
0.000243
0.000442
0.000566
0.000380
0.000209
0.000256
0.000262
0.000265
0.000249
0.000271
0.000490
0.000229
0.000255
0.000741
0.000299
0.000451
0.000258
0.000253
0.000189
0.000057
0.000192
0.000230
0.000247
0.000237
0.000255
0.000263
0.000352
0.000712
0.000276
0.000402
0.000220
0.000263
0.000290
0.000259
0.000254
0.000250
0.000236
0.000254
0.000293
0.000337
0.000398
0.000614
0.000358
0.000260
0.000356
0.000372
0.000495
0.000240
0.000262
0.000489
0.000384
0.000056
0.000261
0.000232
0.000434
0.000228
0.000227
0.000262
0.000255
0.000261
0.000230
0.000241
0.000305
0.000359
0.000485
0.000232
0.000238
0.000243
0.000253
0.000252
0.000260
0.000280
0.000273
0.000251
0.000254
0.000272
0.000297
0.000478
0.000508
0.000237
0.000256
0.000276
0.000191
0.000056
0.000205
0.000256
0.000228
0.000241
0.000249
0.000251
0.000353
0.000564
0.000289
0.000280
0.000370
0.000228
0.000246
0.000267
0.000268
0.000224
0.000256
0.000264
0.000371
0.000349
0.000473
0.000306
0.000474
0.000278
0.000425
0.000389
0.000379
0.000241
0.000252
0.000336
0.000313
0.000057
0.000232
0.000233
0.000223
0.000253
0.000262
0.000257
0.000260
0.000238
0.000278
0.000238
0.000234
0.000385
0.000438
0.000349
0.000388
0.000222
0.000263
0.000266
0.000267
0.000232
0.000246
0.000258
0.000265
0.000270
0.000276
0.000336
0.000573
0.000384
0.000243
0.000283
0.000186
0.000057
0.000212
0.000240
0.000259
0.000260
0.000241
0.000452
0.000381
0.000509
0.000321
0.000688
0.000265
0.000217
0.000247
0.000261
0.000248
0.000264
0.000276
0.000348
0.000396
0.000551
0.001384
0.000310
0.000258
0.000277
0.000276
0.000271
0.000449
0.000347
0.000392
0.000302
0.000163
0.000057
0.000192
0.000234
0.000245
0.000244
0.000237
0.000258
0.000274
0.000250
0.000250
0.000333
0.000328
0.000384
0.000271
0.000375
0.000353
0.000342
0.000250
0.000239
0.000272
0.000260
0.000240
0.000252
0.000286
0.000244
0.000317
0.000433
0.000437
0.000304
0.000249
0.000262
0.000191
0.000057
0.000213
0.000247
0.000256
0.000252
0.000247
0.000231
0.000472
0.000216
0.000234
0.000256
0.000242
0.000253
0.000261
0.000250
0.000254
0.000267
0.000261
0.000264
0.000270
0.000259
0.000258
0.000292
0.000293
0.000247
0.000261
0.000284
0.000269
0.000263
0.000260
0.000273
0.000166
0.000058
0.000181
0.000248
0.000390
0.000410
0.000296
0.000246
0.000233
0.000248
0.000260
0.000248
0.000247
0.000255
0.000263
0.000264
0.000240
0.000246
0.000243
0.000273
0.000350
0.000295
0.000528
0.000284
0.000228
0.000264
0.000267
0.000250
0.000265
0.000252
0.000272
0.000278
0.000199
0.000056
0.000347
0.000318
0.000395
0.000216
0.000255
0.000249
0.000413
0.000217
0.000240
0.000275
0.000233
0.000329
0.000379
0.000367
0.001880
0.000249
0.000243
0.000262
0.000264
0.000243
0.000365
0.000475
0.000644
0.000216
0.000229
0.000257
0.000275
0.000425
0.000275
0.000281
0.000172
0.000057
0.000188
0.000372
0.000337
0.000307
0.000493
0.000204
0.000242
0.000253
0.000251
0.000239
0.000261
0.000245
0.000276
0.000385
0.000324
0.000490
0.000213
0.000246
0.000261
0.000257
0.000260
0.000312
0.000250
0.000269
0.000279
0.000546
0.000461
0.000510
0.000292
0.000241
0.000207
0.000056
0.000213
0.000244
0.000256
0.000229
0.000250
0.000254
0.000285
0.000261
0.000345
0.000372
0.000433
0.000336
0.000223
0.000254
0.000267
0.000278
0.000299
0.000249
0.000273
0.000271
0.000239
0.000385
0.000503
0.000257
0.000287
0.000256
0.000265
0.000436
0.000414
0.000317
0.000174
0.000057
0.000200
0.000267
0.000550
0.000175
0.000376
0.000216
0.000236
0.000252
0.000266
0.000251
0.000259
0.000258
0.000231
0.000256
0.000257
0.000339
0.000461
0.000249
0.000298
0.000338
0.000494
0.000224
0.000281
0.000281
0.000301
0.000278
0.000257
0.000267
0.000516
0.000487
0.000180
0.000056
0.000214
0.000231
0.000248
0.000248
0.000242
0.000478
0.000217
0.000254
0.000275
0.000327
0.000542
0.000534
0.000212
0.000237
0.000247
0.000247
0.000257
0.000242
0.000265
0.000250
0.000261
0.000264
0.000481
0.000341
0.000318
0.000411
0.000289
0.000310
0.000313
0.000275
0.000161
0.000056
0.000219
0.000230
0.000398
0.000442
0.000285
0.000242
0.000261
0.000219
0.000243
0.000264
0.000245
0.000250
0.000254
0.000260
0.000249
0.000266
0.000246
0.000243
0.000365
0.000334
0.000569
0.000297
0.000227
0.000247
0.000275
0.000278
0.000259
0.000256
0.000268
0.000267
0.000190
0.000058
0.000363
0.000293
0.000465
0.000238
0.000230
0.000246
0.000340
0.000450
0.000268
0.000224
0.000237
0.000274
0.000427
0.000340
0.000358
0.000297
0.000228
0.000243
0.000253
0.000268
0.000271
0.000259
0.000265
0.000272
0.000265
0.000333
0.000416
0.000363
0.000302
0.000249
0.000189
0.000056
0.000215
0.000240
0.000244
0.000255
0.000245
0.000264
0.000230
0.000260
0.000251
0.000247
0.000268
0.000236
0.000260
0.001458
0.000226
0.000261
0.000255
0.000249
0.000273
0.000277
0.000262
0.000241
0.000274
0.000254
0.000269
0.000268
0.000266
0.000279
0.000258
0.000270
0.000186
0.000056
0.000196
0.000235
0.000252
0.000249
0.000252
0.000232
0.000260
0.000258
0.000228
0.000248
0.000245
0.000262
0.000257
0.000254
0.000255
0.000266
0.000236
0.000264
0.000271
0.000257
0.000256
0.000259
0.000247
0.000251
0.001298
0.000271
0.000628
0.000351
0.000362
0.000265
0.000168
0.000057
0.000185
0.000234
0.000244
0.000252
0.000413
0.000236
0.000245
0.000238
0.000257
0.000445
0.000376
0.000329
0.000232
0.000238
0.000259
0.000263
0.000252
0.000259
0.000253
0.000259
0.000260
0.000256
0.000346
0.000350
0.000509
0.000440
0.000225
0.000266
0.001369
0.000239
0.000185
0.000056
0.000329
0.000361
0.000330
0.000266
0.000224
0.000230
0.000231
0.000251
0.000260
0.000253
0.000249
0.000262
0.000282
0.000435
0.000405
0.000360
0.000333
0.000227
0.000249
0.000255
0.000265
0.000264
0.000271
0.000262
0.000273
0.000262
0.000540
0.000337
0.000456
0.000283
0.000159
0.000058
0.000207
0.000234
0.001263
0.000452
0.000292
0.000439
0.000373
0.000505
0.000257
0.000339
0.000226
0.000226
0.000262
0.000255
0.000249
0.000267
0.000442
0.000450
0.000340
0.000371
0.000270
0.000228
0.000256
0.000508
0.000237
0.000262
0.000259
0.000278
0.000358
0.000538
0.000255
0.000057
0.000383
0.000335
0.000205
0.000228
0.001638
0.000415
0.000275
0.000250
0.000242
0.000248
0.000229
0.000237
0.000251
0.000266
0.000251
0.000263
0.000238
0.000368
0.000350
0.000362
0.000453
0.000231
0.000249
0.000255
0.000258
0.000277
0.000266
0.000236
0.000266
0.000280
0.000208
0.000057
0.000390
0.000310
0.000228
0.000228
0.000251
0.000244
0.000267
0.000232
0.000227
0.000233
0.001489
0.000390
0.000265
0.000255
0.000234
0.000253
0.000276
0.000262
0.000234
0.000273
0.000270
0.000253
0.000259
0.000478
0.000341
0.000472
0.000231
0.000273
0.000276
0.000277
0.000172
0.000056
0.000213
0.000411
0.000221
0.000269
0.000302
0.000453
0.000367
0.000321
0.000458
0.000209
0.000233
0.000269
0.000242
0.000264
0.001416
0.000368
0.000248
0.000284
0.000252
0.000263
0.000278
0.000253
0.000253
0.000252
0.000263
0.000271
0.000514
0.000389
0.000283
0.000278
0.000152
0.000055
0.000220
0.000233
0.000252
0.000237
0.000233
0.000258
0.000237
0.000253
0.000335
0.000334
0.000402
0.000303
0.000255
0.000240
0.000252
0.000269
0.000273
0.000258
0.000288
0.000213
0.000253
0.000387
0.001181
0.000263
0.000245
0.000257
0.000258
0.000269
0.000259
0.000260
0.000184
0.000057
0.000257
0.000302
0.000352
0.000360
0.000241
0.000238
0.000255
0.000263
0.000257
0.000255
0.000249
0.000267
0.000263
0.000237
0.000255
0.000263
0.000265
0.000272
0.000260
0.000251
0.000251
0.000272
0.000268
0.000283
0.000287
0.000264
0.000269
0.000272
0.000247
0.000445
0.001354
0.000056
0.000207
0.000233
0.000238
0.000241
0.000275
0.000235
0.000265
0.000213
0.000246
0.000248
0.000274
0.000254
0.000256
0.000241
0.000248
0.000240
0.001751
0.000243
0.000240
0.000258
0.000245
0.000263
0.000270
0.000263
0.000266
0.000262
0.000273
0.000280
0.000269
0.000251
0.000248
0.000058
0.000328
0.000288
0.001298
0.000216
0.000235
0.000248
0.000260
0.000249
0.000256
0.000253
0.000253
0.000360
0.000419
0.000393
0.000282
0.000224
0.000248
0.000253
0.000260
0.000267
0.000245
0.000267
0.000263
0.000280
0.000274
0.000406
0.000357
0.000356
0.000311
0.000249
0.000187
0.000058
0.000219
0.000256
0.000240
0.000249
0.000252
0.000218
0.000242
0.000411
0.000294
0.001319
0.000262
0.000209
0.000250
0.000270
0.000254
0.000265
0.000261
0.000278
0.000279
0.000511
0.000324
0.000254
0.000220
0.000248
0.000274
0.000286
0.000262
0.000292
0.000269
0.000276
0.000191
0.000057
0.000218
0.000528
0.000295
0.000214
0.000232
0.000238
0.000243
0.000278
0.000265
0.000247
0.000231
0.000252
0.000446
0.000628
0.000355
0.001451
0.000252
0.000274
0.000318
0.000351
0.000496
0.000435
0.000486
0.000351
0.000229
0.000262
0.000267
0.000270
0.000266
0.000274
0.000193
0.000056
0.000207
0.000326
0.000487
0.000507
0.000218
0.000236
0.000245
0.000230
0.000251
0.000257
0.000251
0.000263
0.000266
0.000243
0.000268
0.000303
0.000363
0.000489
0.000295
0.001327
0.000266
0.000253
0.000254
0.000266
0.000491
0.000408
0.000373
0.000258
0.000278
0.000275
0.000187
0.000056
0.000188
0.000247
0.000243
0.000243
0.000242
0.000289
0.000566
0.000259
0.000377
0.000222
0.000235
0.000261
0.000270
0.000263
0.000257
0.000266
0.000264
0.000256
0.000292
0.000282
0.000476
0.000377
0.000330
0.001345
0.000414
0.000232
0.000277
0.000557
0.000373
0.000287
0.000307
0.000056
0.000201
0.000232
0.000249
0.000246
0.000252
0.000255
0.001676
0.000252
0.000206
0.000246
0.000256
0.000246
0.000272
0.000307
0.000328
0.000283
0.000347
0.000264
0.000603
0.000326
0.000259
0.000274
0.000232
0.001419
0.000333
0.000359
0.000479
0.000397
0.000320
0.000284
0.000174
0.000058
0.000224
0.000246
0.000261
0.000253
0.000246
0.000252
0.001716
0.000238
0.000233
0.000267
0.000333
0.000411
0.001459
0.000341
0.000379
0.000248
0.000276
0.000221
0.000269
0.000272
0.001561
0.000598
0.000335
0.000291
0.000243
0.000253
0.000257
0.000278
0.000249
0.000253
0.000198
0.000056
0.000222
0.000229
0.000268
0.000242
0.000261
0.000301
0.000257
0.000260
0.000247
0.000251
0.000253
0.000245
0.000266
0.000268
0.000251
0.001493
0.000288
0.000232
0.000264
0.000293
0.000258
0.000252
0.000436
0.001263
0.000272
0.000239
0.000274
0.000255
0.000397
0.000246
0.000198
0.000057
0.000204
0.000246
0.000220
0.000254
0.000232
0.000226
0.000237
0.001693
0.000277
0.000205
0.000253
0.000371
0.000226
0.000224
0.000257
0.001381
0.000239
0.000262
0.000264
0.000262
0.000247
0.000352
0.000269
0.001318
0.000270
0.000260
0.000252
0.000265
0.001378
0.000295
0.000185
0.000057
0.000259
0.000320
0.000208
0.000240
0.000252
0.000235
0.000264
0.000270
0.000265
0.000252
0.000255
0.000265
0.000256
0.000250
0.000289
0.001516
0.000246
0.000272
0.000257
0.000258
0.000269
0.000265
0.000255
0.001501
0.000345
0.000241
0.000266
0.001273
0.000276
0.000241
0.000223
0.000057
0.000258
0.000419
0.000278
0.000214
0.000236
0.000239
0.000261
0.000256
0.000265
0.000274
0.000239
0.000250
0.000264
0.000292
0.000392
0.001222
0.000239
0.000252
0.000262
0.000275
0.000235
0.000241
0.000248
0.000370
0.001239
0.000254
0.000242
0.000259
0.000255
0.001343
0.000320
0.000057
0.000299
0.000216
0.000235
0.000234
0.000240
0.000255
0.000241
0.000250
0.000275
0.000270
0.000219
0.000252
0.000359
0.000256
0.000397
0.001456
0.000208
0.000258
0.000302
0.000507
0.000327
0.000356
0.001346
0.000291
0.000249
0.000268
0.000250
0.001306
0.000320
0.000490
0.000372
0.000056
0.000225
0.000248
0.000256
0.000253
0.000255
0.000252
0.000274
0.000248
0.000264
0.000358
0.000233
0.000457
0.001334
0.000237
0.000263
0.000256
0.000284
0.000231
0.000247
0.000240
0.000348
0.001222
0.000276
0.000234
0.000254
0.000249
0.001456
0.000535
0.000426
0.000218
0.000200
0.000056
0.000206
0.000234
0.000245
0.000238
0.000254
0.000264
0.000258
0.000304
0.000499
0.000359
0.000270
0.001492
0.000215
0.000235
0.000265
0.000253
0.000262
0.000276
0.001702
0.000263
0.000394
0.000325
0.001401
0.000286
0.000265
0.000315
0.000254
0.000272
0.000264
0.000270
0.000188
0.000056
0.000214
0.000238
0.000330
0.000279
0.000336
0.000507
0.000259
0.000295
0.001469
0.000271
0.000349
0.000262
0.000239
0.000369
0.000322
0.001306
0.000274
0.000241
0.000239
0.000260
0.001648
0.000255
0.000281
0.000276
0.000266
0.000245
0.000472
0.000324
0.000225
0.000254
0.000267
0.000056
0.000277
0.000317
0.000341
0.000257
0.000241
0.001519
0.000200
0.000255
0.000268
0.000267
0.000270
0.000239
0.000302
0.001481
0.000262
0.000224
0.000434
0.001191
0.000345
0.000492
0.000347
0.000243
0.000236
0.000252
0.000282
0.000245
0.000453
0.000224
0.000271
0.000288
0.000184
0.000056
0.000195
0.000325
0.000319
0.000452
0.001170
0.000292
0.000329
0.000212
0.000260
0.000234
0.000245
0.000341
0.001489
0.000246
0.000226
0.000244
0.001374
0.000338
0.000509
0.000303
0.000379
0.000236
0.000244
0.000254
0.000264
0.000284
0.000272
0.000258
0.000265
0.000251
0.000238
0.000057
0.000235
0.000375
0.001458
0.000209
0.000279
0.000273
0.000243
0.000250
0.000263
0.000379
0.001397
0.000213
0.000253
0.000263
0.000263
0.001315
0.000623
0.000330
0.000316
0.000409
0.000294
0.000238
0.000281
0.000253
0.000268
0.000290
0.000276
0.000376
0.000372
0.000414
0.001381
0.000056
0.000196
0.000238
0.000249
0.000224
0.000272
0.000509
0.000411
0.001250
0.000239
0.000248
0.000243
0.001571
0.000401
0.000228
0.000218
0.000404
0.000250
0.000252
0.000263
0.000276
0.000243
0.000268
0.000279
0.000275
0.000242
0.000332
0.000446
0.000424
0.001489
0.000230
0.000187
0.000056
0.000199
0.000251
0.000370
0.000519
0.001238
0.000281
0.000253
0.000261
0.000241
0.000255
0.000250
0.000316
0.000335
0.000464
0.000347
0.000233
0.000256
0.000274
0.000242
0.000277
0.000257
0.000266
0.000258
0.000265
0.000258
0.000405
0.000483
0.000337
0.000312
0.001409
0.000174
0.000056
0.000209
0.000240
0.000266
0.000470
0.000331
0.000313
0.000313
0.000334
0.000263
0.000279
0.000244
0.000263
0.000270
0.000291
0.000252
0.000344
0.000575
0.000228
0.000294
0.000382
0.000274
0.000409
0.000217
0.000260
0.000258
0.000263
0.000250
0.000301
0.000627
0.000218
0.000290
0.000058
0.000200
0.001406
0.000244
0.000327
0.000406
0.000457
0.000398
0.000251
0.000221
0.000250
0.000257
0.000247
0.000263
0.000270
0.000262
0.000254
0.000264
0.001299
0.000320
0.000255
0.000255
0.000270
0.000272
0.000278
0.000268
0.000255
0.000277
0.000245
0.000372
0.000413
0.000337
0.000057
0.000214
0.000256
0.000226
0.001488
0.000328
0.000243
0.000219
0.000261
0.000222
0.000247
0.000251
0.000272
0.000255
0.000248
0.000286
0.000232
0.000253
0.000265
0.000266
0.000254
0.001435
0.000237
0.000240
0.000277
0.000258
0.000250
0.000266
0.000257
0.000279
0.000490
0.000354
0.000056
0.000217
0.000215
0.000389
0.000279
0.000248
0.000280
0.001552
0.000352
0.000254
0.000218
0.000280
0.000292
0.000332
0.000232
0.000232
0.000251
0.000237
0.000270
0.000259
0.000258
0.000571
0.000429
0.001112
0.000270
0.000240
0.000254
0.000266
0.000266
0.000269
0.000256
0.000471
0.000056
0.000206
0.000341
0.000215
0.000236
0.000252
0.000240
0.000243
0.000229
0.000291
0.001706
0.000267
0.000284
0.000242
0.000249
0.000260
0.000244
0.000258
0.000280
0.000278
0.000288
0.000310
0.000564
0.000385
0.001353
0.000238
0.000256
0.000282
0.000256
0.000265
0.000304
0.000446
0.000056
0.000282
0.000238
0.000238
0.000242
0.000223
0.000240
0.000259
0.000260
0.000266
0.001574
0.000349
0.000260
0.000261
0.000258
0.000457
0.000270
0.000525
0.000377
0.000294
0.000332
0.000458
0.000517
0.001200
0.000260
0.000240
0.000248
0.001722
0.000480
0.000579
0.000317
0.000145
0.000056
0.000210
0.000235
0.000231
0.000236
0.000253
0.000247
0.000247
0.000550
0.000487
0.000378
0.000297
0.000202
0.000250
0.000261
0.000265
0.000267
0.000247
0.000253
0.000254
0.000269
0.000294
0.000465
0.001276
0.000225
0.000251
0.000270
0.001899
0.000379
0.000377
0.000357
0.000157
0.000056
0.000248
0.000240
0.000247
0.001653
0.000336
0.000212
0.000237
0.000264
0.000254
0.000287
0.000374
0.000369
0.000361
0.000272
0.000406
0.000401
0.000430
0.001175
0.000279
0.000230
0.000251
0.000260
0.000272
0.000419
0.000568
0.000494
0.000267
0.000260
0.000266
0.000277
0.000193
0.000056
0.000183
0.000238
0.000240
0.001558
0.000231
0.000234
0.000243
0.000252
0.000242
0.000253
0.000254
0.000269
0.000272
0.000269
0.000281
0.000466
0.000409
0.000266
0.001384
0.000231
0.000262
0.000262
0.000258
0.000289
0.000341
0.000547
0.000391
0.000269
0.000290
0.000229
0.000440
0.000057
0.000183
0.000243
0.000255
0.001524
0.000314
0.000223
0.000263
0.000248
0.000253
0.000255
0.000251
0.000259
0.000258
0.000270
0.000372
0.000564
0.001345
0.000747
0.000267
0.000332
0.000253
0.000238
0.000246
0.000277
0.001681
0.000798
0.000238
0.000257
0.000277
0.000290
0.000187
0.000056
0.000196
0.000228
0.000255
0.000236
0.000261
0.000244
0.000244
0.000271
0.000224
0.000235
0.000285
0.000284
0.000251
0.000248
0.000264
0.000249
0.000269
0.001608
0.000697
0.000361
0.000333
0.000224
0.000248
0.000278
0.000272
0.000258
0.000272
0.000259
0.001402
0.000384
0.000320
0.000057
0.000193
0.000232
0.000247
0.000256
0.000260
0.000231
0.000255
0.000251
0.000254
0.000264
0.000320
0.000368
0.000447
0.000320
0.000226
0.000244
0.000275
0.001380
0.000682
0.000546
0.000295
0.000243
0.000239
0.000247
0.000272
0.000246
0.000263
0.000270
0.001492
0.000430
0.000179
0.000056
0.000197
0.000229
0.000243
0.000248
0.000252
0.000246
0.000239
0.000247
0.000271
0.000313
0.000340
0.000432
0.000259
0.000209
0.000244
0.000253
0.000262
0.000255
0.001606
0.000580
0.000469
0.000331
0.000218
0.000269
0.000262
0.000257
0.000264
0.000283
0.000263
0.001501
0.000182
0.000059
0.000200
0.000216
0.000238
0.000255
0.000253
0.000244
0.000259
0.000301
0.000359
0.000427
0.000425
0.000331
0.000373
0.000224
0.000244
0.000250
0.000279
0.000261
0.000262
0.001891
0.000362
0.000239
0.000435
0.000252
0.000249
0.000264
0.000264
0.000267
0.000266
0.000274
0.000452
0.000059
0.000285
0.000191
0.000232
0.000242
0.000249
0.000249
0.000228
0.000244
0.000286
0.000235
0.000245
0.000238
0.000379
0.000490
0.000340
0.000440
0.000217
0.000262
0.000247
0.000256
0.000255
0.000290
0.001483
0.001039
0.000224
0.000245
0.000272
0.000262
0.000274
0.000251
0.000199
0.000057
0.000204
0.001398
0.000270
0.000194
0.000223
0.000253
0.000252
0.000234
0.000243
0.000251
0.000256
0.000262
0.000244
0.000511
0.000268
0.000418
0.000286
0.000250
0.000259
0.000267
0.000268
0.000229
0.000262
0.000267
0.001333
0.000679
0.000303
0.000380
0.000383
0.000398
0.000298
0.000056
0.000210
0.000281
0.001417
0.000223
0.000218
0.000247
0.000243
0.000240
0.000260
0.000255
0.000251
0.000240
0.000264
0.000362
0.000580
0.000286
0.000229
0.000273
0.000335
0.000213
0.000249
0.000274
0.000230
0.000275
0.000271
0.001550
0.000727
0.000295
0.000275
0.000276
0.000194
0.000056
0.000209
0.000397
0.000323
0.000385
0.001241
0.000258
0.000210
0.000249
0.000230
0.000247
0.000246
0.000261
0.000227
0.000239
0.000257
0.000254
0.000268
0.000239
0.000253
0.000258
0.000263
0.000265
0.000303
0.000338
0.000214
0.000269
0.000268
0.001515
0.000228
0.000220
0.000173
0.000055
0.000201
0.000233
0.000251
0.000264
0.000355
0.000378
0.000391
0.000268
0.001572
0.000245
0.000286
0.000482
0.000370
0.000229
0.000430
0.000235
0.000246
0.000263
0.000267
0.000285
0.000263
0.000265
0.000258
0.000268
0.000357
0.000306
0.000394
0.001685
0.000264
0.000201
0.000184
0.000056
0.000225
0.000241
0.000274
0.000220
0.000243
0.000248
0.000265
0.000269
0.000439
0.002050
0.000231
0.000239
0.000255
0.000257
0.000265
0.000247
0.000275
0.000255
0.000416
0.000327
0.000348
0.000425
0.001481
0.000229
0.000520
0.000232
0.001758
0.000250
0.000262
0.001520
0.000170
0.000057
0.000316
0.000461
0.000445
0.000222
0.000263
0.000243
0.000244
0.000267
0.000262
0.000225
0.000251
0.000391
0.000410
0.000322
0.000443
0.000211
0.000235
0.001571
0.000216
0.000656
0.001802
0.000289
0.000247
0.001579
0.001976
0.000767
0.000262
0.000309
0.000242
0.000450
0.000390
0.000057
0.000210
0.000243
0.000245
0.000248
0.001417
0.001735
0.001077
0.000215
0.000242
0.001568
0.001978
0.000226
0.000226
0.000421
0.000383
0.000280
0.000441
0.000452
0.000206
0.000249
0.000243
0.000259
0.000280
0.001579
0.001209
0.001430
0.000270
0.000302
0.000252
0.000367
0.000351
0.000058
0.000213
0.000221
0.000244
0.000240
0.000231
0.000246
0.000247
0.000250
0.000261
0.000246
0.000240
0.000361
0.000346
0.000517
0.000261
0.000268
0.000253
0.000271
0.000270
0.000263
0.000258
0.000258
0.001510
0.000490
0.002109
0.000226
0.000273
0.000470
0.000370
0.000317
0.000204
0.000056
0.000225
0.000351
0.000467
0.000308
0.000188
0.000234
0.000254
0.000243
0.000239
0.000243
0.000251
0.000263
0.000260
0.001606
0.001362
0.001223
0.000274
0.000237
0.000247
0.000272
0.000283
0.000279
0.000241
0.000252
0.002202
0.000250
0.000253
0.000303
0.000337
0.000292
0.000213
0.000056
0.000231
0.000355
0.000540
0.000338
0.000216
0.000242
0.000248
0.000265
0.001911
0.001413
0.000224
0.000324
0.000386
0.000409
0.000267
0.000215
0.000263
0.000266
0.000269
0.000258
0.000261
0.000264
0.000470
0.000234
0.000274
0.000262
0.000257
0.000272
0.000288
0.000244
0.000202
0.000056
0.000184
0.000245
0.000246
0.000242
0.000252
0.000274
0.001544
0.001413
0.001326
0.000257
0.000216
0.000239
0.000265
0.000263
0.000261
0.000238
0.000250
0.002102
0.000262
0.000226
0.000265
0.000268
0.000246
0.000272
0.000264
0.000254
0.000271
0.000260
0.000274
0.000249
0.000177
0.000056
0.000206
0.002689
0.001397
0.000216
0.000304
0.000301
0.000226
0.000268
0.000256
0.000245
0.000253
0.000242
0.000237
0.000252
0.000265
0.000261
0.000265
0.000279
0.000246
0.000263
0.000271
0.000283
0.000273
0.000273
0.000237
0.000247
0.000261
0.000267
0.000264
0.000269
0.000366
0.000056
0.001539
0.000268
0.001220
0.000231
0.000228
0.000238
0.000263
0.000249
0.000247
0.000325
0.000422
0.000268
0.000357
0.000203
0.000250
0.002149
0.000245
0.000247
0.000286
0.000556
0.000301
0.000306
0.000216
0.000263
0.000261
0.000253
0.000261
0.000281
0.000274
0.001619
0.001240
0.000059
0.000205
0.000229
0.000467
0.000258
0.000331
0.000272
0.000210
0.000238
0.000248
0.000257
0.000267
0.000251
0.000223
0.000253
0.000268
0.000236
0.000415
0.000578
0.000307
0.000252
0.000220
0.000272
0.000286
0.000248
0.000253
0.000248
0.000266
0.000276
0.000242
0.000374
0.000344
0.000057
0.001125
0.000286
0.000335
0.000439
0.000253
0.000242
0.000215
0.000241
0.000250
0.002410
0.000283
0.000349
0.000243
0.000361
0.000277
0.000267
0.000256
0.000258
0.000271
0.000221
0.000255
0.000477
0.000574
0.000269
0.001878
0.001389
0.000541
0.000454
0.000238
0.000263
0.000201
0.000056
0.000315
0.000258
0.000248
0.000247
0.000241
0.000230
0.000257
0.000252
0.000255
0.000247
0.000257
0.000227
0.000247
0.000259
0.000379
0.000578
0.001780
0.001403
0.000379
0.000418
0.000460
0.000247
0.000240
0.000260
0.002130
0.000560
0.000384
0.000232
0.000274
0.000277
0.000201
0.000056
0.000204
0.000245
0.000254
0.000242
0.000257
0.000456
0.000307
0.000297
0.000293
0.000242
0.000260
0.000237
0.000262
0.002112
0.000415
0.000332
0.000222
0.000247
0.000267
0.000261
0.000249
0.002618
0.000179
0.000232
0.000248
0.000254
0.000255
0.000270
0.000280
0.000284
0.000192
0.000057
0.000234
0.000326
0.000638
0.000270
0.000260
0.000216
0.000236
0.000255
0.000261
0.000255
0.002070
0.000274
0.000267
0.000296
0.000221
0.000265
0.000271
0.000240
0.002207
0.000450
0.000216
0.000270
0.000275
0.000256
0.000249
0.000254
0.000281
0.000261
0.000263
0.000258
0.000186
0.000055
0.000211
0.000239
0.000252
0.000223
0.000247
0.000252
0.000254
0.000234
0.000230
0.002184
0.000219
0.000289
0.000222
0.000421
0.000237
0.000246
0.000274
0.000288
0.000243
0.000270
0.001955
0.000290
0.000380
0.000369
0.000390
0.000396
0.000308
0.000253
0.000251
0.000259
0.000200
0.000057
0.000202
0.000238
0.000236
0.000263
0.000257
0.000302
0.000228
0.002305
0.000231
0.000241
0.000258
0.000257
0.000241
0.000250
0.000303
0.002114
0.000600
0.000232
0.000247
0.000246
0.000253
0.000259
0.000292
0.000265
0.000259
0.000256
0.000281
0.000261
0.000263
0.000263
0.000195
0.000056
0.001823
0.001445
0.000184
0.000237
0.000244
0.000250
0.000256
0.000453
0.000243
0.000343
0.002159
0.000262
0.000226
0.000269
0.000382
0.000428
0.000386
0.000298
0.000233
0.000237
0.000252
0.000263
0.000267
0.000225
0.000260
0.000265
0.000272
0.000264
0.000605
0.000372
0.000307
0.000056
0.000203
0.000251
0.000243
0.000272
0.000254
0.000264
0.000236
0.000241
0.001541
0.002056
0.000581
0.000289
0.000578
0.000527
0.000346
0.000232
0.000250
0.000249
0.000268
0.000259
0.000257
0.000244
0.000254
0.000268
0.001819
0.001459
0.000294
0.000267
0.000293
0.000350
0.000364
0.000056
0.001947
0.000223
0.000224
0.000240
0.000303
0.000343
0.000447
0.000300
0.000293
0.000217
0.000254
0.000246
0.000258
0.000256
0.000264
0.000261
0.000250
0.000268
0.001843
0.000239
0.000235
0.000254
0.000280
0.000273
0.000274
0.000260
0.001455
0.000326
0.000256
0.000260
0.000168
0.000057
0.000194
0.000242
0.000237
0.000245
0.000248
0.000241
0.000316
0.000401
0.000432
0.000236
0.000239
0.000225
0.000259
0.000331
0.000431
0.000304
0.000237
0.000241
0.000284
0.000470
0.000393
0.000369
0.000277
0.000246
0.000258
0.000257
0.000257
0.000271
0.000271
0.000264
0.000204
0.000056
0.001424
0.000426
0.000231
0.001925
0.000360
0.000398
0.000387
0.000313
0.000230
0.000243
0.000271
0.000242
0.000244
0.000248
0.000267
0.000255
0.000460
0.000274
0.000386
0.000408
0.000349
0.000226
0.000257
0.000269
0.000273
0.000269
0.000262
0.000275
0.000371
0.000501
0.001318
0.000057
0.000209
0.000222
0.002070
0.000380
0.000246
0.000247
0.000258
0.000251
0.000260
0.000262
0.000214
0.000251
0.000259
0.000259
0.000318
0.000314
0.000694
0.001765
0.000226
0.000259
0.000245
0.000270
0.000543
0.000358
0.001492
0.000284
0.000362
0.001915
0.000264
0.000257
0.000194
0.000057
0.000186
0.000224
0.000236
0.000245
0.000230
0.000250
0.000253
0.000281
0.000331
0.000277
0.000382
0.000351
0.000343
0.000302
0.000233
0.000269
0.000260
0.000243
0.000266
0.000256
0.000297
0.000292
0.000265
0.000267
0.000258
0.001512
0.000289
0.000398
0.002058
0.000231
0.000177
0.000058
0.000211
0.000234
0.000237
0.000251
0.000481
0.000207
0.000261
0.000431
0.000290
0.000284
0.000304
0.000213
0.000264
0.000263
0.000271
0.000324
0.000389
0.000467
0.000245
0.000404
0.000553
0.000511
0.001498
0.000227
0.000263
0.002031
0.000297
0.000236
0.000235
0.000292
0.000187
0.000057
0.000215
0.000237
0.000226
0.000243
0.000253
0.000265
0.000259
0.000270
0.000256
0.000260
0.001809
0.000324
0.000378
0.000350
0.000390
0.000461
0.000246
0.001507
0.000244
0.000273
0.002228
0.000473
0.000246
0.000237
0.000262
0.000268
0.000502
0.000232
0.000250
0.000279
0.000198
0.000056
0.000306
0.000444
0.000220
0.000304
0.000205
0.000241
0.000259
0.000247
0.000267
0.000292
0.000227
0.000251
0.000260
0.000264
0.000375
0.001487
0.000316
0.000204
0.000278
0.002039
0.000237
0.000287
0.000251
0.000262
0.000250
0.000279
0.000264
0.000266
0.000246
0.000266
0.000207
0.000055
0.000252
0.000372
0.002037
0.000253
0.000250
0.000217
0.000250
0.000346
0.000464
0.000361
0.001301
0.000380
0.000349
0.002084
0.000209
0.000263
0.000246
0.000279
0.000255
0.000247
0.000277
0.000294
0.000262
0.000354
0.000529
0.000311
0.000330
0.002225
0.000578
0.000515
0.000268
0.000058
0.000188
0.000236
0.000256
0.001950
0.000236
0.000225
0.000259
0.000224
0.000243
0.000260
0.000240
0.000261
0.000243
0.000275
0.000539
0.001389
0.000255
0.000234
0.000264
0.000260
0.000239
0.000255
0.000262
0.000327
0.000458
0.000362
0.000376
0.000233
0.001595
0.000275
0.000179
0.000054
0.000199
0.000232
0.000242
0.000238
0.000244
0.000255
0.000252
0.000248
0.000253
0.000491
0.000296
0.001370
0.000255
0.000204
0.000250
0.000260
0.000254
0.000255
0.000496
0.000326
0.000394
0.000417
0.000234
0.001563
0.000238
0.000255
0.000284
0.000278
0.000268
0.000270
0.000191
0.000056
0.000215
0.000233
0.000268
0.000284
0.000230
0.000241
0.000239
0.000242
0.000266
0.000235
0.000249
0.000255
0.000260
0.001476
0.000366
0.000213
0.000248
0.000268
0.000300
0.000292
0.000418
0.000224
0.000242
0.000265
0.000256
0.000268
0.000260
0.001414
0.000270
0.000245
0.000166
0.000056
0.000211
0.000235
0.000259
0.000260
0.000254
0.000238
0.000251
0.000260
0.000217
0.000265
0.000243
0.000258
0.000242
0.000329
0.000345
0.000365
0.000240
0.000250
0.001629
0.000248
0.000239
0.000263
0.000265
0.000316
0.000381
0.000374
0.000431
0.000269
0.000244
0.001604
0.000165
0.000057
0.000364
0.000347
0.000311
0.000309
0.000230
0.000221
0.000238
0.000276
0.000252
0.000254
0.000231
0.000238
0.001508
0.000288
0.000266
0.000226
0.000246
0.000259
0.000288
0.000242
0.000258
0.000235
0.000257
0.000271
0.000264
0.000356
0.000443
0.000414
0.000234
0.000256
0.000193
0.000057
0.000202
0.000305
0.000487
0.000220
0.000380
0.000286
0.000247
0.000244
0.000254
0.000259
0.000243
0.000238
0.000244
0.000240
0.001297
0.000255
0.000240
0.000253
0.000266
0.000266
0.000239
0.000267
0.000256
0.000262
0.000250
0.000262
0.000346
0.000744
0.000362
0.000223
0.000181
0.000057
0.000202
0.001559
0.000240
0.000489
0.000360
0.000322
0.000214
0.000257
0.000266
0.000265
0.000229
0.000261
0.000269
0.000271
0.000261
0.001523
0.000251
0.000288
0.000262
0.000257
0.000260
0.000249
0.000268
0.000264
0.000258
0.000332
0.000430
0.000412
0.000240
0.000247
0.000195
0.000056
0.000214
0.000245
0.000242
0.001618
0.000417
0.000341
0.000231
0.000240
0.000251
0.000272
0.000276
0.000256
0.000246
0.000263
0.000235
0.000266
0.000382
0.001347
0.000251
0.000231
0.001493
0.000530
0.000380
0.000368
0.000343
0.000229
0.000271
0.000462
0.000238
0.000264
0.000184
0.000057
0.000192
0.000223
0.000245
0.000251
0.000246
0.000251
0.000238
0.000258
0.000255
0.000243
0.000252
0.000272
0.000327
0.000536
0.001600
0.001493
0.000356
0.000541
0.000328
0.000230
0.000228
0.000259
0.000247
0.000270
0.000245
0.000271
0.000259
0.000264
0.001528
0.000325
0.000164
0.000057
0.000193
0.000357
0.000355
0.000328
0.000244
0.000214
0.000247
0.000414
0.000398
0.000330
0.002174
0.000322
0.000760
0.000463
0.000442
0.000267
0.000334
0.000400
0.000319
0.000276
0.000400
0.000243
0.001558
0.000524
0.000221
0.000261
0.000257
0.000253
0.000271
0.000262
0.000198
0.000056
0.000209
0.000252
0.000277
0.000229
0.000238
0.001667
0.000876
0.000998
0.000204
0.000238
0.000259
0.000257
0.000262
0.000258
0.000253
0.000250
0.000253
0.000263
0.000267
0.000281
0.001434
0.000313
0.000259
0.000221
0.000234
0.000277
0.000247
0.000286
0.000257
0.000290
0.001896
0.000056
0.000211
0.000213
0.001564
0.000921
0.000334
0.000324
0.000244
0.000222
0.000261
0.000246
0.000249
0.000251
0.000245
0.002016
0.000438
0.000245
0.000226
0.000259
0.000258
0.000257
0.000197
