0.000088
0.019955
0.001505
0.000366
0.000261
0.000283
0.000306
0.000247
0.000336
0.000280
0.000250
0.000345
0.000555
0.000424
0.000449
0.000297
0.000291
0.000343
0.000348
0.000419
0.000309
0.001939
0.000675
0.000255
0.000255
0.000303
0.000295
0.000343
0.000429
0.000415
0.000451
0.000330
0.000060
0.000195
0.000267
0.000271
0.000258
0.000278
0.000247
0.000279
0.000262
0.000270
0.000291
0.000432
0.000433
0.000321
0.000261
0.000411
0.000304
0.000368
0.000251
0.000238
0.001750
0.000278
0.000255
0.000454
0.000244
0.000263
0.000282
0.000291
0.000297
0.000277
0.000317
0.000407
0.000056
0.000231
0.000259
0.000260
0.000263
0.000253
0.000244
0.000258
0.000260
0.000286
0.001666
0.000269
0.000270
0.000252
0.000243
0.000262
0.000258
0.000267
0.000353
0.000309
0.001734
0.000228
0.000276
0.000448
0.000467
0.000355
0.000243
0.000378
0.000330
0.000518
0.000749
0.000206
0.000057
0.000205
0.000245
0.000253
0.000241
0.000296
0.000261
0.000316
0.000540
0.000398
0.000255
0.000240
0.000242
0.000244
0.000253
0.000260
0.000255
0.000240
0.000273
0.000297
0.000323
0.001676
0.000303
0.000228
0.000411
0.000277
0.000722
0.000688
0.000512
0.000345
0.000230
0.000188
0.000072
0.000190
0.000254
0.000267
0.000238
0.000258
0.000252
0.000259
0.000557
0.001389
0.000211
0.000247
0.000249
0.000257
0.000257
0.000260
0.000282
0.000510
0.000596
0.001364
0.000275
0.000464
0.000261
0.000208
0.000239
0.000254
0.000258
0.000259
0.000279
0.000257
0.000271
0.000199
0.000056
0.000201
0.000245
0.000247
0.000264
0.000231
0.000247
0.000237
0.000256
0.000233
0.000266
0.001623
0.000268
0.000253
0.000219
0.000251
0.000255
0.000246
0.000244
0.000259
0.000250
0.000277
0.001671
0.000296
0.000237
0.000433
0.000263
0.000239
0.000261
0.000264
0.000274
0.000196
0.000055
0.000196
0.000230
0.000250
0.000248
0.000244
0.000242
0.000265
0.000238
0.000262
0.000245
0.000263
0.000253
0.000262
0.000270
0.001643
0.000274
0.000299
0.000218
0.000246
0.000275
0.000265
0.000246
0.000240
0.000267
0.001801
0.000342
0.000383
0.000357
0.000239
0.000282
0.000199
0.000055
0.000204
0.000231
0.000252
0.000263
0.000259
0.000236
0.000271
0.000431
0.000428
0.000400
0.000217
0.000246
0.000253
0.000249
0.001562
0.000535
0.000309
0.000427
0.000312
0.000227
0.000268
0.000276
0.000279
0.001801
0.000426
0.000484
0.000249
0.000238
0.000257
0.000261
0.000183
0.000056
0.000208
0.000228
0.000257
0.000267
0.000327
0.000446
0.000383
0.000284
0.000205
0.000249
0.000260
0.000239
0.000257
0.001700
0.000500
0.000293
0.000219
0.000255
0.000268
0.000284
0.000247
0.000262
0.000274
0.001953
0.000244
0.000387
0.000267
0.000230
0.000268
0.000417
0.000326
0.000055
0.000216
0.000380
0.000339
0.000309
0.000235
0.000248
0.000245
0.000257
0.000242
0.000231
0.000238
0.000250
0.001553
0.000396
0.000273
0.000223
0.000259
0.000254
0.000243
0.000286
0.000278
0.000326
0.000245
0.001822
0.000257
0.000493
0.000227
0.000260
0.000252
0.000272
0.000270
0.000056
0.000359
0.000557
0.000622
0.000198
0.000231
0.000278
0.000228
0.000214
0.000264
0.000251
0.000255
0.001702
0.000249
0.000442
0.000366
0.000221
0.000241
0.000228
0.000246
0.000274
0.000243
0.001891
0.000214
0.000236
0.002078
0.000525
0.000356
0.000244
0.000273
0.000251
0.000181
0.000058
0.000188
0.000235
0.000246
0.000241
0.000258
0.001625
0.000247
0.000250
0.000245
0.000251
0.000242
0.000244
0.000246
0.000255
0.000273
0.000393
0.000653
0.000254
0.000232
0.000268
0.000263
0.000253
0.000241
0.000433
0.000442
0.000272
0.000336
0.000647
0.000355
0.000260
0.000198
0.000056
0.000207
0.000243
0.000250
0.000251
0.000237
0.000239
0.000236
0.000370
0.000454
0.001738
0.000219
0.000232
0.000243
0.000246
0.000261
0.000299
0.000420
0.000484
0.000338
0.000233
0.000257
0.000304
0.000286
0.000278
0.000250
0.000426
0.000351
0.000576
0.000484
0.000467
0.000153
0.000056
0.000190
0.000279
0.000222
0.000218
0.000247
0.000242
0.000247
0.000244
0.000243
0.000299
0.000339
0.000451
0.001366
0.000248
0.000229
0.000257
0.000253
0.000265
0.000231
0.000254
0.000283
0.000481
0.000376
0.000276
0.000252
0.000264
0.000251
0.000273
0.000266
0.000264
0.000379
0.000056
0.000188
0.000264
0.000206
0.000275
0.000549
0.000428
0.000222
0.000257
0.000235
0.000275
0.000226
0.000241
0.000296
0.000247
0.000237
0.000497
0.000417
0.001637
0.000297
0.000212
0.000259
0.000264
0.000254
0.000242
0.000258
0.000521
0.000365
0.000373
0.000428
0.000222
0.000203
0.000076
0.000209
0.000433
0.000238
0.000210
0.000267
0.000248
0.000424
0.000438
0.000310
0.000336
0.000221
0.000277
0.000265
0.000239
0.000517
0.000349
0.000215
0.000355
0.000358
0.001581
0.000263
0.000262
0.000509
0.000248
0.000273
0.000275
0.000256
0.000537
0.000359
0.000383
0.000271
0.000056
0.000209
0.000243
0.000228
0.000243
0.000418
0.000302
0.000295
0.000226
0.000447
0.000435
0.000360
0.000272
0.000218
0.000244
0.000261
0.000272
0.000253
0.000253
0.000254
0.000322
0.000295
0.000280
0.001897
0.000236
0.000247
0.000255
0.000292
0.000351
0.000474
0.000651
0.000422
0.000056
0.000233
0.000335
0.000279
0.000423
0.000385
0.000210
0.000254
0.000293
0.000554
0.000377
0.000256
0.000240
0.000241
0.000268
0.000265
0.000243
0.000243
0.000271
0.000272
0.000261
0.000265
0.000455
0.000652
0.001291
0.000346
0.000435
0.000422
0.000243
0.000483
0.000345
0.000364
0.000057
0.000237
0.000381
0.000285
0.000197
0.000242
0.000223
0.000418
0.000243
0.000225
0.000397
0.000411
0.000441
0.000235
0.000256
0.000266
0.000244
0.000375
0.000396
0.000342
0.000236
0.000239
0.000669
0.000366
0.001659
0.000234
0.000474
0.000279
0.000226
0.000263
0.000459
0.000304
0.000057
0.000187
0.000228
0.000247
0.000247
0.000244
0.000246
0.000269
0.000310
0.000458
0.000292
0.000465
0.000328
0.000292
0.000592
0.000238
0.000237
0.000274
0.000270
0.000244
0.000337
0.000224
0.000236
0.000275
0.000426
0.000496
0.001639
0.000273
0.000240
0.000237
0.000270
0.000185
0.000055
0.000260
0.000584
0.000245
0.000219
0.000257
0.000235
0.000257
0.000237
0.000262
0.000252
0.000216
0.000251
0.000484
0.000498
0.000390
0.000249
0.000244
0.000252
0.000361
0.000379
0.000381
0.000375
0.000379
0.000346
0.000222
0.000260
0.000260
0.000277
0.001786
0.000256
0.000209
0.000056
0.000199
0.000217
0.000256
0.000272
0.000367
0.000546
0.000311
0.000216
0.000253
0.000258
0.000252
0.000246
0.000797
0.000213
0.000439
0.000291
0.000267
0.000266
0.000418
0.000467
0.000373
0.000443
0.000464
0.000407
0.000245
0.000234
0.000275
0.000239
0.000261
0.001719
0.000331
0.000057
0.000282
0.000325
0.000204
0.000236
0.000256
0.000250
0.000241
0.000505
0.000369
0.000312
0.000300
0.000293
0.000360
0.000674
0.000276
0.000233
0.000244
0.000253
0.000256
0.000268
0.000262
0.000268
0.000240
0.000271
0.000338
0.000353
0.000383
0.000363
0.000244
0.000238
0.000198
0.000055
0.000474
0.000330
0.000476
0.000190
0.000197
0.000247
0.000245
0.000258
0.000240
0.000218
0.000250
0.000282
0.000294
0.000415
0.000455
0.000525
0.000287
0.000319
0.000382
0.000337
0.000294
0.000233
0.000247
0.000263
0.001761
0.000255
0.001712
0.000932
0.000401
0.000329
0.000171
0.000056
0.000170
0.000246
0.000235
0.000237
0.000264
0.000248
0.000250
0.000257
0.000240
0.000324
0.000361
0.000431
0.000340
0.000392
0.000225
0.000265
0.000245
0.000295
0.000225
0.000236
0.000261
0.000261
0.001833
0.000226
0.000247
0.000264
0.000277
0.000263
0.001873
0.000514
0.000306
0.000058
0.000183
0.000223
0.000232
0.000244
0.000257
0.000247
0.000240
0.000255
0.000253
0.000492
0.000495
0.000454
0.000234
0.000200
0.000241
0.000250
0.000332
0.000443
0.000371
0.000257
0.001768
0.000245
0.000254
0.000251
0.000253
0.000274
0.000238
0.000252
0.000337
0.000293
0.000387
0.000073
0.000251
0.000199
0.000231
0.000263
0.000244
0.000247
0.000255
0.000260
0.000233
0.000257
0.000240
0.000294
0.000409
0.000350
0.000355
0.000258
0.000472
0.000232
0.000240
0.000264
0.000254
0.000260
0.000275
0.000257
0.000278
0.001810
0.000237
0.000230
0.000271
0.000244
0.000197
0.000055
0.000294
0.000393
0.000180
0.000212
0.000236
0.000233
0.000243
0.000257
0.000247
0.000224
0.000239
0.000257
0.000260
0.000453
0.000329
0.000397
0.000234
0.000243
0.000258
0.000244
0.000264
0.000257
0.000247
0.000274
0.000250
0.000266
0.000322
0.001633
0.000261
0.000231
0.000184
0.000056
0.000192
0.000229
0.000252
0.000269
0.000344
0.000357
0.000401
0.000331
0.000205
0.000256
0.000247
0.000243
0.000242
0.000261
0.000262
0.000251
0.000252
0.000257
0.000250
0.000264
0.000261
0.000271
0.000252
0.000239
0.000236
0.000283
0.000278
0.000258
0.000253
0.000260
0.000198
0.000057
0.000210
0.000242
0.000250
0.000260
0.000234
0.000255
0.000244
0.000263
0.000279
0.000231
0.000249
0.000230
0.000263
0.000243
0.000274
0.000265
0.000244
0.000258
0.000297
0.000251
0.000271
0.000295
0.000278
0.000239
0.000281
0.000275
0.000270
0.000247
0.000277
0.000409
0.000696
0.000056
0.000224
0.000287
0.000223
0.000217
0.000240
0.000257
0.000241
0.000245
0.000252
0.000243
0.000268
0.000291
0.000497
0.000615
0.001403
0.000226
0.000492
0.000225
0.000364
0.000384
0.000420
0.000364
0.000231
0.000274
0.000258
0.000255
0.000280
0.000253
0.000311
0.000256
0.000183
0.000055
0.000352
0.000428
0.000316
0.000326
0.000219
0.000260
0.000243
0.000244
0.000245
0.000239
0.000255
0.000257
0.000228
0.000339
0.000280
0.000651
0.000247
0.001815
0.000215
0.000256
0.000346
0.000422
0.000467
0.000272
0.000317
0.000312
0.000308
0.000224
0.000235
0.000250
0.000196
0.000057
0.000216
0.000230
0.000236
0.000301
0.000337
0.000501
0.000294
0.000257
0.000253
0.000214
0.000249
0.000269
0.000268
0.000263
0.000246
0.000251
0.000316
0.000509
0.000410
0.000344
0.000235
0.001753
0.000326
0.000483
0.000625
0.000345
0.000339
0.000220
0.000255
0.000263
0.000450
0.000057
0.000187
0.000260
0.000232
0.000412
0.000316
0.000442
0.000379
0.000220
0.000229
0.000299
0.000241
0.000258
0.000255
0.000311
0.000295
0.000241
0.000242
0.000420
0.000474
0.000296
0.000482
0.001859
0.000235
0.000498
0.000457
0.000357
0.000221
0.000254
0.000296
0.000252
0.000212
0.000058
0.000200
0.000337
0.000360
0.000316
0.000401
0.000288
0.000375
0.000222
0.000228
0.000266
0.000281
0.000232
0.000232
0.000274
0.000228
0.000255
0.000329
0.000346
0.000527
0.000391
0.000280
0.000219
0.000273
0.001723
0.000406
0.000597
0.000608
0.000238
0.000365
0.000201
0.000156
0.000056
0.000196
0.000256
0.000308
0.000256
0.000279
0.000344
0.000434
0.000309
0.000235
0.000518
0.000247
0.000242
0.000254
0.000278
0.000290
0.000252
0.000218
0.000339
0.000528
0.000387
0.000269
0.000223
0.000248
0.000263
0.000263
0.000267
0.000226
0.000262
0.000277
0.000279
0.000201
0.000057
0.000380
0.000279
0.000205
0.000250
0.000242
0.000264
0.000243
0.000302
0.000224
0.000245
0.000262
0.000368
0.000416
0.000450
0.000293
0.000271
0.000233
0.000227
0.000248
0.000264
0.000310
0.000247
0.000228
0.000262
0.000296
0.000275
0.000425
0.000366
0.000372
0.000238
0.000178
0.000055
0.000209
0.000223
0.000277
0.000241
0.000238
0.000250
0.000261
0.000262
0.000479
0.000219
0.000253
0.000256
0.000244
0.000263
0.000278
0.000273
0.000258
0.000350
0.000224
0.000237
0.000256
0.000287
0.000241
0.000271
0.000270
0.000261
0.000266
0.000256
0.000523
0.000240
0.000152
0.000055
0.000202
0.000239
0.000251
0.000269
0.000233
0.000239
0.000355
0.000412
0.000235
0.000241
0.000252
0.000254
0.000234
0.000305
0.000422
0.001768
0.000225
0.000262
0.000285
0.000392
0.000365
0.000359
0.000515
0.000253
0.000389
0.000404
0.000234
0.000266
0.000263
0.000275
0.001399
0.000055
0.000202
0.000284
0.000286
0.000203
0.000228
0.000253
0.000231
0.000253
0.000247
0.000266
0.000251
0.000256
0.000252
0.000351
0.000506
0.001615
0.000245
0.000222
0.000240
0.000263
0.000236
0.000269
0.000442
0.000341
0.000262
0.000358
0.000238
0.000245
0.000288
0.000251
0.000178
0.000055
0.001182
0.000587
0.000284
0.000261
0.000248
0.000211
0.000237
0.000239
0.000487
0.000223
0.000239
0.000245
0.000381
0.000524
0.000369
0.000352
0.000235
0.000229
0.000349
0.000342
0.000283
0.000246
0.000274
0.000244
0.000265
0.000577
0.000626
0.000198
0.000256
0.000261
0.000172
0.000056
0.000199
0.000216
0.000246
0.000244
0.001569
0.000198
0.000225
0.000257
0.000231
0.000273
0.000240
0.000247
0.000241
0.000263
0.000269
0.000396
0.000345
0.000634
0.000276
0.001760
0.000254
0.000268
0.000270
0.000428
0.000616
0.000354
0.000249
0.000251
0.000260
0.000269
0.000196
0.000059
0.000201
0.000246
0.000242
0.000296
0.001278
0.000225
0.000261
0.000261
0.000241
0.000236
0.000219
0.000248
0.000281
0.000249
0.000246
0.000328
0.000421
0.000527
0.000234
0.000248
0.000272
0.000270
0.000252
0.000251
0.000272
0.000256
0.000257
0.000269
0.000275
0.000430
0.000530
0.000056
0.000224
0.000241
0.000240
0.000263
0.000256
0.000246
0.000250
0.000248
0.000267
0.000255
0.001438
0.000228
0.000235
0.000246
0.000247
0.000240
0.000272
0.000262
0.000259
0.000272
0.000304
0.000469
0.000466
0.000368
0.000222
0.000275
0.001773
0.000248
0.000254
0.000340
0.000443
0.000056
0.000205
0.000394
0.000447
0.000523
0.000498
0.000536
0.001498
0.000422
0.000523
0.000651
0.000551
0.000789
0.000412
0.000614
0.000580
0.001890
0.000390
0.000446
0.000402
0.000321
0.000223
0.000304
0.000248
0.000278
0.000250
0.000296
0.000292
0.000284
0.000261
0.000285
0.001364
0.000057
0.000211
0.000226
0.000227
0.000249
0.000258
0.000258
0.000239
0.000233
0.000250
0.000258
0.000234
0.000240
0.000255
0.000264
0.000262
0.000273
0.001817
0.000276
0.000244
0.000249
0.000258
0.000265
0.000265
0.000326
0.000317
0.000483
0.000336
0.000238
0.000246
0.000287
0.000200
0.000056
0.000187
0.001371
0.000321
0.000269
0.000258
0.000235
0.000269
0.000211
0.000230
0.000247
0.000211
0.000243
0.000267
0.000484
0.000364
0.000286
0.000262
0.000260
0.001929
0.000232
0.000239
0.000256
0.000263
0.000265
0.000267
0.000287
0.000264
0.000252
0.000271
0.000338
0.000188
0.000056
0.000204
0.000236
0.000251
0.001446
0.000217
0.000253
0.000237
0.000246
0.000241
0.000271
0.000259
0.000234
0.000244
0.000262
0.000252
0.000267
0.000257
0.000271
0.000262
0.000251
0.000270
0.001778
0.000274
0.001753
0.000270
0.000253
0.000255
0.000266
0.000268
0.000276
0.000199
0.000055
0.000188
0.000241
0.001345
0.000236
0.000257
0.000237
0.000267
0.000249
0.000240
0.000248
0.000251
0.000266
0.000241
0.000263
0.000255
0.000267
0.000261
0.000294
0.000284
0.000231
0.001903
0.000214
0.001839
0.000242
0.000241
0.000283
0.000231
0.000248
0.000257
0.000264
0.000200
0.000056
0.001444
0.000225
0.000229
0.000242
0.000235
0.000236
0.000379
0.000270
0.000244
0.000255
0.000251
0.000262
0.000242
0.000389
0.000372
0.000295
0.000239
0.000268
0.000249
0.000254
0.000443
0.000188
0.000211
0.000246
0.000266
0.000279
0.000274
0.000376
0.000712
0.000267
0.000196
0.000059
0.000200
0.000263
0.000268
0.000288
0.000358
0.000267
0.001671
0.000330
0.000272
0.000261
0.000262
0.000297
0.000254
0.000273
0.000283
0.000306
0.000397
0.000515
0.000376
0.000266
0.000292
0.000286
0.000255
0.000276
0.000334
0.000251
0.000264
0.000244
0.000254
0.000286
0.000482
0.000057
0.000249
0.000468
0.000269
0.000267
0.000250
0.000230
0.000223
0.000244
0.000264
0.000246
0.001521
0.000232
0.000212
0.000255
0.000242
0.000292
0.000275
0.000234
0.000271
0.000262
0.000284
0.000327
0.000577
0.000306
0.000262
0.000290
0.000266
0.000257
0.000231
0.000315
0.000175
0.000058
0.000199
0.000224
0.000281
0.000492
0.000339
0.000287
0.000207
0.000250
0.000252
0.000250
0.000236
0.000273
0.000241
0.000262
0.000244
0.000235
0.000425
0.001189
0.000251
0.000238
0.000283
0.000242
0.000379
0.000404
0.000239
0.000275
0.000629
0.000436
0.000301
0.000238
0.000164
0.000055
0.000227
0.000245
0.000262
0.000265
0.000251
0.000248
0.000378
0.000349
0.000473
0.000269
0.000365
0.000391
0.000392
0.000363
0.000254
0.000234
0.000245
0.000255
0.000415
0.000443
0.001275
0.000215
0.000278
0.000270
0.000228
0.000258
0.000253
0.000315
0.000431
0.000435
0.000238
0.000056
0.000188
0.000246
0.000251
0.000240
0.000246
0.000247
0.000236
0.000257
0.000317
0.000448
0.000302
0.000409
0.000248
0.000217
0.000256
0.000258
0.000249
0.000260
0.000263
0.000256
0.000437
0.000300
0.000329
0.000443
0.000290
0.000254
0.000266
0.000272
0.000248
0.000345
0.000160
0.000056
0.000304
0.000315
0.000375
0.000289
0.000479
0.000352
0.000249
0.000237
0.000246
0.000279
0.000256
0.000264
0.000233
0.000250
0.000240
0.000228
0.000331
0.000317
0.000512
0.000319
0.000228
0.000268
0.000245
0.000244
0.000271
0.000278
0.000265
0.000264
0.000281
0.000260
0.000283
0.000057
0.000354
0.000271
0.000236
0.000245
0.000247
0.000248
0.000245
0.000247
0.000271
0.000255
0.000250
0.000238
0.000288
0.000499
0.000430
0.000291
0.000239
0.000238
0.000263
0.000270
0.000255
0.000266
0.000249
0.000269
0.000282
0.000299
0.000520
0.000515
0.000395
0.000250
0.000164
0.000056
0.000372
0.000208
0.000229
0.000243
0.000248
0.000246
0.000239
0.000255
0.000256
0.000261
0.000219
0.000245
0.000282
0.000210
0.000247
0.000266
0.000253
0.000262
0.000278
0.000255
0.000264
0.000259
0.000269
0.000263
0.000263
0.000239
0.000263
0.000276
0.000261
0.000278
0.000196
0.000056
0.000198
0.000234
0.000248
0.000248
0.000238
0.000246
0.000265
0.000243
0.000255
0.000283
0.000223
0.000232
0.000261
0.000394
0.000254
0.000280
0.000256
0.000271
0.000252
0.000275
0.000274
0.000255
0.000232
0.000253
0.000273
0.000269
0.000252
0.000250
0.000276
0.000260
0.000201
0.000055
0.000211
0.000354
0.000371
0.000277
0.000304
0.000253
0.000258
0.000259
0.000231
0.000237
0.000252
0.000264
0.000246
0.000240
0.000264
0.000250
0.000263
0.000268
0.000242
0.000264
0.000283
0.000262
0.000276
0.000255
0.000269
0.000277
0.000232
0.000270
0.000266
0.000265
0.000191
0.000055
0.000224
0.000223
0.000264
0.000260
0.000492
0.000214
0.000202
0.000251
0.000248
0.000481
0.000493
0.000282
0.000232
0.000240
0.000269
0.000265
0.000253
0.000253
0.000260
0.000265
0.000272
0.000256
0.000256
0.000320
0.000453
0.000525
0.000284
0.000303
0.000262
0.000274
0.000171
0.000056
0.000196
0.000221
0.000251
0.000251
0.000400
0.000639
0.000262
0.000366
0.000210
0.000248
0.000247
0.000259
0.000248
0.000252
0.000252
0.000267
0.000257
0.000271
0.000690
0.000331
0.000291
0.000239
0.000256
0.000284
0.000298
0.000243
0.000260
0.000274
0.000242
0.000348
0.000299
0.000055
0.000293
0.000230
0.000241
0.000233
0.000264
0.000248
0.000251
0.000224
0.000244
0.000261
0.000247
0.000250
0.000297
0.000330
0.000594
0.000420
0.000198
0.000252
0.000265
0.000248
0.000264
0.000274
0.000490
0.000231
0.000251
0.000655
0.000352
0.000494
0.000251
0.000250
0.000188
0.000055
0.000218
0.000225
0.000245
0.000243
0.000252
0.000257
0.000299
0.000503
0.000524
0.000426
0.000219
0.000262
0.000277
0.000274
0.000256
0.000244
0.000258
0.000233
0.000263
0.000450
0.000265
0.000665
0.000366
0.000247
0.000367
0.000380
0.000462
0.000259
0.000265
0.000464
0.000293
0.000056
0.000270
0.000230
0.000435
0.000236
0.000220
0.000274
0.000243
0.000259
0.000232
0.000242
0.000255
0.000451
0.000315
0.000363
0.000221
0.000247
0.000254
0.000264
0.000258
0.000272
0.000276
0.000250
0.000253
0.000272
0.000337
0.000493
0.000455
0.000239
0.000255
0.000275
0.000191
0.000056
0.000199
0.000275
0.000209
0.000247
0.000256
0.000250
0.000418
0.000309
0.000473
0.000277
0.000372
0.000229
0.000239
0.000265
0.000256
0.000238
0.000275
0.000245
0.000295
0.000402
0.000442
0.000357
0.000482
0.000278
0.000389
0.000422
0.000384
0.000242
0.000241
0.000376
0.000337
0.000056
0.000256
0.000284
0.000218
0.000255
0.000259
0.000255
0.000254
0.000247
0.000247
0.000268
0.000234
0.000341
0.000471
0.000380
0.000372
0.000217
0.000265
0.000270
0.000265
0.000230
0.000250
0.000254
0.000292
0.000251
0.000277
0.000330
0.000506
0.000466
0.000228
0.000282
0.000190
0.000055
0.000196
0.000245
0.000256
0.000246
0.000261
0.000340
0.000558
0.000417
0.000359
0.000687
0.000260
0.000224
0.000233
0.000264
0.000246
0.000280
0.000265
0.000270
0.000487
0.000533
0.001391
0.000303
0.000265
0.000259
0.000295
0.000268
0.000433
0.000397
0.000324
0.000339
0.000157
0.000056
0.000207
0.000226
0.000244
0.000247
0.000237
0.000262
0.000277
0.000246
0.000247
0.000342
0.000322
0.000391
0.000263
0.000334
0.000395
0.000345
0.000248
0.000234
0.000280
0.000253
0.000246
0.000244
0.000289
0.000241
0.000316
0.000434
0.000462
0.000285
0.000240
0.000262
0.000193
0.000055
0.000214
0.000249
0.000256
0.000255
0.000244
0.000236
0.000469
0.000210
0.000240
0.000249
0.000246
0.000255
0.000256
0.000253
0.000256
0.000263
0.000266
0.000270
0.000272
0.000254
0.000258
0.000291
0.000293
0.000244
0.000261
0.000281
0.000267
0.000263
0.000268
0.000269
0.000173
0.000056
0.000213
0.000251
0.000509
0.000203
0.000383
0.000249
0.000232
0.000244
0.000263
0.000248
0.000245
0.000259
0.000262
0.000261
0.000258
0.000224
0.000252
0.000261
0.000312
0.000355
0.000463
0.000340
0.000218
0.000271
0.000264
0.000247
0.000268
0.000256
0.000286
0.000263
0.000199
0.000055
0.000335
0.000381
0.000441
0.000202
0.000254
0.000257
0.000410
0.000229
0.000223
0.000253
0.000261
0.000299
0.000348
0.000481
0.001817
0.000250
0.000246
0.000250
0.000282
0.000236
0.000302
0.000494
0.000493
0.000410
0.000223
0.000269
0.000275
0.000424
0.000276
0.000284
0.000164
0.000057
0.000237
0.000340
0.000325
0.000334
0.000498
0.000201
0.000240
0.000249
0.000248
0.000240
0.000264
0.000244
0.000263
0.000443
0.000384
0.000385
0.000222
0.000234
0.000267
0.000251
0.000268
0.000322
0.000220
0.000288
0.000276
0.000464
0.000508
0.000401
0.000454
0.000219
0.000207
0.000055
0.000210
0.000234
0.000260
0.000223
0.000256
0.000249
0.000269
0.000266
0.000396
0.000448
0.000320
0.000345
0.000207
0.000260
0.000263
0.000295
0.000300
0.000237
0.000268
0.000274
0.000250
0.000335
0.000476
0.000369
0.000252
0.000249
0.000264
0.000432
0.000414
0.000315
0.000171
0.000056
0.000188
0.000272
0.000316
0.000412
0.000389
0.000210
0.000230
0.000255
0.000258
0.000250
0.000264
0.000256
0.000230
0.000253
0.000264
0.000318
0.000372
0.000361
0.000293
0.000344
0.000487
0.000229
0.000280
0.000274
0.000304
0.000284
0.000258
0.000271
0.000467
0.000528
0.000179
0.000057
0.000186
0.000231
0.000265
0.000228
0.000240
0.000486
0.000215
0.000252
0.000269
0.000286
0.000523
0.000612
0.000197
0.000239
0.000245
0.000251
0.000256
0.000254
0.000251
0.000252
0.000260
0.000267
0.000454
0.000341
0.000385
0.000375
0.000306
0.000295
0.000317
0.000252
0.000173
0.000055
0.000220
0.000237
0.000272
0.000510
0.000285
0.000288
0.000271
0.000221
0.000236
0.000267
0.000252
0.000245
0.000250
0.000270
0.000242
0.000263
0.000245
0.000243
0.000296
0.000378
0.000409
0.000474
0.000228
0.000252
0.000285
0.000266
0.000256
0.000263
0.000259
0.000263
0.000198
0.000056
0.000274
0.000365
0.000531
0.000179
0.000205
0.000261
0.000317
0.000453
0.000298
0.000206
0.000230
0.000279
0.000313
0.000412
0.000410
0.000306
0.000234
0.000223
0.000250
0.000268
0.000267
0.000266
0.000258
0.000275
0.000259
0.000321
0.000429
0.000381
0.000302
0.000238
0.000183
0.000056
0.000230
0.000234
0.000248
0.000254
0.000252
0.000267
0.000228
0.000255
0.000251
0.000253
0.000280
0.000217
0.000264
0.001468
0.000213
0.000253
0.000262
0.000245
0.000279
0.000274
0.000265
0.000257
0.000258
0.000255
0.000267
0.000266
0.000270
0.000271
0.000280
0.000251
0.000194
0.000055
0.000191
0.000227
0.000255
0.000251
0.000235
0.000246
0.000258
0.000258
0.000225
0.000247
0.000247
0.000266
0.000255
0.000254
0.000260
0.000260
0.000246
0.000258
0.000273
0.000251
0.000254
0.000268
0.000242
0.000255
0.001293
0.000278
0.000588
0.000386
0.000361
0.000243
0.000194
0.000056
0.000190
0.000232
0.000246
0.000255
0.000406
0.000254
0.000227
0.000244
0.000258
0.000376
0.000433
0.000337
0.000265
0.000210
0.000257
0.000257
0.000258
0.000261
0.000248
0.000255
0.000264
0.000254
0.000258
0.000426
0.000530
0.000460
0.000191
0.000272
0.001380
0.000236
0.000177
0.000055
0.000301
0.000400
0.000375
0.000234
0.000217
0.000229
0.000228
0.000249
0.000259
0.000255
0.000248
0.000265
0.000264
0.000267
0.000583
0.000348
0.000361
0.000216
0.000244
0.000259
0.000267
0.000264
0.000268
0.000277
0.000262
0.000254
0.000314
0.000569
0.000425
0.000330
0.000136
0.000057
0.000195
0.000225
0.001266
0.000417
0.000311
0.000465
0.000362
0.000484
0.000280
0.000342
0.000220
0.000219
0.000260
0.000253
0.000251
0.000267
0.000315
0.000520
0.000410
0.000363
0.000249
0.000254
0.000269
0.000505
0.000215
0.000263
0.000259
0.000284
0.000326
0.000529
0.000305
0.000056
0.000384
0.000309
0.000232
0.000213
0.001523
0.000598
0.000217
0.000251
0.000237
0.000249
0.000248
0.000219
0.000245
0.000271
0.000252
0.000259
0.000231
0.000292
0.000366
0.000421
0.000451
0.000228
0.000270
0.000248
0.000280
0.000256
0.000266
0.000240
0.000269
0.000270
0.000205
0.000055
0.000401
0.000323
0.000223
0.000226
0.000250
0.000246
0.000250
0.000241
0.000233
0.000232
0.001402
0.000515
0.000234
0.000253
0.000231
0.000251
0.000275
0.000272
0.000215
0.000287
0.000271
0.000251
0.000258
0.000410
0.000513
0.000379
0.000222
0.000263
0.000275
0.000283
0.000172
0.000058
0.000187
0.000417
0.000222
0.000233
0.000339
0.000457
0.000446
0.000235
0.000462
0.000200
0.000236
0.000250
0.000267
0.000262
0.000260
0.001487
0.000290
0.000277
0.000239
0.000275
0.000286
0.000244
0.000275
0.000238
0.000257
0.000267
0.000431
0.000469
0.000320
0.000245
0.000154
0.000056
0.000217
0.000232
0.000260
0.000231
0.000227
0.000269
0.000234
0.000256
0.000255
0.000393
0.000465
0.000265
0.000250
0.000246
0.000237
0.000277
0.000270
0.000262
0.000270
0.000233
0.000256
0.000330
0.001240
0.000261
0.000246
0.000252
0.000259
0.000256
0.000262
0.000259
0.000181
0.000056
0.000264
0.000300
0.000375
0.000357
0.000221
0.000237
0.000262
0.000267
0.000251
0.000248
0.000258
0.000267
0.000238
0.000270
0.000248
0.000263
0.000267
0.000264
0.000267
0.000252
0.000248
0.000266
0.000268
0.000284
0.000285
0.000268
0.000270
0.000247
0.000275
0.000437
0.001376
0.000056
0.000186
0.000235
0.000238
0.000244
0.000254
0.000260
0.000244
0.000232
0.000240
0.000248
0.000297
0.000234
0.000257
0.000238
0.000248
0.000252
0.001738
0.000261
0.000226
0.000262
0.000245
0.000259
0.000270
0.000262
0.000268
0.000259
0.000267
0.000276
0.000273
0.000259
0.000222
0.000055
0.000283
0.000312
0.001302
0.000226
0.000225
0.000247
0.000256
0.000251
0.000262
0.000258
0.000226
0.000364
0.000390
0.000439
0.000285
0.000225
0.000238
0.000255
0.000253
0.000270
0.000246
0.000263
0.000268
0.000292
0.000257
0.000388
0.000387
0.000359
0.000319
0.000227
0.000186
0.000055
0.000218
0.000254
0.000240
0.000251
0.000252
0.000222
0.000237
0.000290
0.000423
0.001316
0.000266
0.000204
0.000246
0.000278
0.000246
0.000267
0.000263
0.000245
0.000424
0.000300
0.000435
0.000220
0.000238
0.000247
0.000277
0.000279
0.000266
0.000292
0.000275
0.000274
0.000191
0.000056
0.000272
0.000405
0.000376
0.000212
0.000242
0.000235
0.000237
0.000281
0.000265
0.000250
0.000229
0.000245
0.000466
0.000550
0.000421
0.001451
0.000254
0.000287
0.000306
0.000354
0.000482
0.000457
0.000437
0.000388
0.000226
0.000257
0.000276
0.000269
0.000268
0.000272
0.000203
0.000056
0.000196
0.000320
0.000445
0.000485
0.000288
0.000237
0.000247
0.000243
0.000233
0.000260
0.000247
0.000271
0.000263
0.000238
0.000266
0.000381
0.000298
0.000410
0.000369
0.001327
0.000255
0.000259
0.000250
0.000268
0.000574
0.000373
0.000358
0.000234
0.000274
0.000268
0.000186
0.000055
0.000205
0.000237
0.000245
0.000244
0.000253
0.000267
0.000457
0.000457
0.000315
0.000211
0.000244
0.000252
0.000270
0.000260
0.000259
0.000258
0.000268
0.000253
0.000273
0.000254
0.000531
0.000403
0.000308
0.001350
0.000406
0.000231
0.000283
0.000420
0.000499
0.000276
0.000326
0.000057
0.000180
0.000233
0.000251
0.000247
0.000249
0.000252
0.001687
0.000246
0.000207
0.000243
0.000257
0.000246
0.000263
0.000332
0.000324
0.000284
0.000280
0.000323
0.000424
0.000490
0.000275
0.000286
0.000223
0.000240
0.001510
0.000350
0.000443
0.000436
0.000327
0.000304
0.000141
0.000056
0.000194
0.000248
0.000252
0.000262
0.000244
0.000258
0.001711
0.000253
0.000232
0.000266
0.000326
0.000408
0.001440
0.000360
0.000388
0.000241
0.000255
0.000241
0.000275
0.000260
0.001548
0.000599
0.000360
0.000283
0.000238
0.000247
0.000266
0.000281
0.000242
0.000252
0.000196
0.000056
0.000181
0.000245
0.000274
0.000241
0.000260
0.000297
0.000260
0.000259
0.000240
0.000286
0.000237
0.000234
0.000261
0.000268
0.000255
0.001497
0.000287
0.000224
0.000265
0.000276
0.000271
0.000262
0.000434
0.001268
0.000273
0.000227
0.000273
0.000259
0.000395
0.000243
0.000216
0.000057
0.000206
0.000247
0.000226
0.000244
0.000242
0.000227
0.000234
0.001695
0.000256
0.000230
0.000242
0.000370
0.000226
0.000229
0.000251
0.001390
0.000226
0.000268
0.000276
0.000239
0.000266
0.000345
0.000268
0.001328
0.000283
0.000234
0.000260
0.000262
0.001393
0.000274
0.000208
0.000055
0.000336
0.000249
0.000222
0.000232
0.000249
0.000244
0.000266
0.000262
0.000271
0.000260
0.000247
0.000257
0.000254
0.000251
0.000325
0.001483
0.000238
0.000278
0.000255
0.000246
0.000283
0.000266
0.000247
0.001520
0.000343
0.000229
0.000275
0.001275
0.000264
0.000240
0.000231
0.000055
0.000215
0.000414
0.000328
0.000204
0.000230
0.000237
0.000263
0.000261
0.000266
0.000270
0.000234
0.000253
0.000261
0.000256
0.000450
0.001203
0.000229
0.000255
0.000266
0.000276
0.000239
0.000226
0.000249
0.000332
0.001270
0.000270
0.000226
0.000266
0.001358
0.000386
0.000266
0.000055
0.000339
0.000265
0.000195
0.000232
0.000242
0.000261
0.000240
0.000242
0.000284
0.000250
0.000244
0.000243
0.000246
0.000433
0.000324
0.001469
0.000227
0.000236
0.000301
0.000517
0.000279
0.000462
0.001280
0.000290
0.000245
0.000270
0.000254
0.001312
0.000302
0.000493
0.000353
0.000057
0.000197
0.000248
0.000258
0.000259
0.000250
0.000248
0.000279
0.000263
0.000249
0.000259
0.000379
0.000435
0.001321
0.000230
0.000268
0.000266
0.000277
0.000217
0.000241
0.000235
0.000361
0.001228
0.000256
0.000254
0.000246
0.000242
0.001541
0.000439
0.000440
0.000222
0.000197
0.000055
0.000200
0.000229
0.000251
0.000232
0.000256
0.000263
0.000243
0.000270
0.000423
0.000488
0.000266
0.001487
0.000212
0.000243
0.000265
0.000254
0.000275
0.000334
0.001640
0.000251
0.000400
0.000333
0.001289
0.000361
0.000291
0.000318
0.000258
0.000255
0.000270
0.000268
0.000189
0.000055
0.000216
0.000233
0.000333
0.000248
0.000293
0.000586
0.000265
0.000284
0.001474
0.000243
0.000425
0.000214
0.000251
0.000293
0.000411
0.001286
0.000273
0.000227
0.000253
0.000258
0.001551
0.000369
0.000280
0.000280
0.000246
0.000246
0.000510
0.000308
0.000227
0.000227
0.000268
0.000056
0.000270
0.000381
0.000296
0.000272
0.000220
0.001519
0.000206
0.000258
0.000261
0.000272
0.000283
0.000227
0.000333
0.001457
0.000250
0.000233
0.000432
0.001204
0.000311
0.000476
0.000387
0.000236
0.000234
0.000255
0.000280
0.000238
0.000457
0.000235
0.000256
0.000278
0.000197
0.000056
0.000181
0.000232
0.000394
0.000333
0.001318
0.000272
0.000312
0.000231
0.000245
0.000249
0.000248
0.000317
0.001493
0.000259
0.000232
0.000245
0.001398
0.000369
0.000317
0.000395
0.000430
0.000235
0.000237
0.000254
0.000271
0.000284
0.000266
0.000252
0.000269
0.000249
0.000193
0.000056
0.000200
0.000348
0.001510
0.000211
0.000271
0.000278
0.000235
0.000264
0.000248
0.000451
0.001335
0.000216
0.000254
0.000264
0.000245
0.001299
0.000619
0.000369
0.000313
0.000408
0.000296
0.000248
0.000263
0.000254
0.000266
0.000291
0.000290
0.000304
0.000394
0.000457
0.001378
0.000055
0.000202
0.000235
0.000250
0.000217
0.000273
0.000385
0.000569
0.001218
0.000251
0.000244
0.000246
0.001401
0.000488
0.000307
0.000207
0.000414
0.000273
0.000215
0.000269
0.000293
0.000227
0.000278
0.000280
0.000261
0.000254
0.000269
0.000430
0.000497
0.001502
0.000237
0.000177
0.000056
0.000205
0.000275
0.000387
0.000574
0.001150
0.000277
0.000254
0.000259
0.000243
0.000254
0.000251
0.000273
0.000412
0.000428
0.000351
0.000227
0.000256
0.000278
0.000239
0.000278
0.000253
0.000269
0.000261
0.000263
0.000280
0.000421
0.000459
0.000328
0.000321
0.001395
0.000171
0.000057
0.000193
0.000244
0.000453
0.000320
0.000308
0.000290
0.000320
0.000334
0.000268
0.000262
0.000255
0.000262
0.000253
0.000309
0.000231
0.000307
0.000580
0.000291
0.000291
0.000373
0.000278
0.000404
0.000224
0.000257
0.000252
0.000271
0.000245
0.000290
0.000328
0.000578
0.000251
0.000056
0.000198
0.001404
0.000237
0.000339
0.000520
0.000351
0.000416
0.000237
0.000211
0.000238
0.000259
0.000247
0.000268
0.000271
0.000263
0.000258
0.000257
0.001404
0.000219
0.000251
0.000256
0.000267
0.000270
0.000279
0.000268
0.000255
0.000277
0.000249
0.000356
0.000369
0.000286
0.000056
0.000200
0.000254
0.000219
0.001489
0.000330
0.000245
0.000214
0.000248
0.000232
0.000251
0.000247
0.000268
0.000252
0.000247
0.000274
0.000252
0.000247
0.000264
0.000262
0.000261
0.001447
0.000221
0.000254
0.000265
0.000253
0.000249
0.000271
0.000262
0.000281
0.000484
0.000349
0.000056
0.000198
0.000258
0.000377
0.000280
0.000247
0.000252
0.001533
0.000351
0.000302
0.000209
0.000261
0.000314
0.000333
0.000232
0.000228
0.000245
0.000245
0.000273
0.000251
0.000262
0.000497
0.000470
0.001155
0.000273
0.000229
0.000245
0.000274
0.000256
0.000274
0.000270
0.000404
0.000056
0.000284
0.000342
0.000201
0.000244
0.000247
0.000239
0.000247
0.000229
0.000295
0.001582
0.000453
0.000228
0.000231
0.000252
0.000256
0.000245
0.000261
0.000271
0.000284
0.000290
0.000329
0.000460
0.000461
0.001378
0.000223
0.000255
0.000275
0.000252
0.000275
0.000484
0.000239
0.000056
0.000273
0.000236
0.000241
0.000260
0.000196
0.000246
0.000263
0.000252
0.000272
0.001588
0.000336
0.000256
0.000257
0.000262
0.000470
0.000262
0.000515
0.000380
0.000303
0.000309
0.000442
0.000458
0.001295
0.000262
0.000240
0.000250
0.001767
0.000407
0.000605
0.000311
0.000147
0.000057
0.000180
0.000227
0.000239
0.000238
0.000252
0.000247
0.000244
0.000714
0.000277
0.000426
0.000331
0.000210
0.000211
0.000261
0.000264
0.000262
0.000258
0.000247
0.000247
0.000279
0.000247
0.000465
0.001330
0.000212
0.000275
0.000245
0.001908
0.000391
0.000376
0.000349
0.000155
0.000057
0.000234
0.000239
0.000243
0.001582
0.000422
0.000201
0.000238
0.000266
0.000250
0.000287
0.000378
0.000365
0.000365
0.000270
0.000268
0.000540
0.000399
0.001205
0.000278
0.000222
0.000252
0.000264
0.000285
0.000421
0.000663
0.000388
0.000258
0.000260
0.000284
0.000267
0.000190
0.000056
0.000202
0.000223
0.000246
0.001575
0.000211
0.000238
0.000240
0.000253
0.000241
0.000250
0.000258
0.000268
0.000268
0.000285
0.000239
0.000396
0.000518
0.000236
0.001410
0.000228
0.000258
0.000260
0.000253
0.000288
0.000356
0.000499
0.000433
0.000279
0.000285
0.000223
0.000446
0.000057
0.000195
0.000250
0.000243
0.001521
0.000327
0.000217
0.000266
0.000238
0.000258
0.000257
0.000254
0.000261
0.000255
0.000279
0.000362
0.000518
0.001396
0.000750
0.000248
0.000353
0.000254
0.000218
0.000243
0.000277
0.001688
0.000810
0.000221
0.000259
0.000285
0.000276
0.000186
0.000057
0.000194
0.000228
0.000249
0.000252
0.000252
0.000248
0.000236
0.000255
0.000244
0.000248
0.000272
0.000283
0.000250
0.000250
0.000262
0.000249
0.000271
0.001612
0.000701
0.000349
0.000344
0.000218
0.000250
0.000277
0.000266
0.000262
0.000277
0.000251
0.001391
0.000395
0.000336
0.000056
0.000187
0.000228
0.000253
0.000251
0.000264
0.000229
0.000252
0.000251
0.000254
0.000281
0.000221
0.000479
0.000475
0.000277
0.000211
0.000241
0.000266
0.001406
0.000689
0.000509
0.000289
0.000274
0.000230
0.000253
0.000271
0.000248
0.000257
0.000271
0.001496
0.000397
0.000211
0.000056
0.000180
0.000237
0.000243
0.000250
0.000252
0.000244
0.000236
0.000254
0.000269
0.000258
0.000447
0.000286
0.000347
0.000218
0.000243
0.000241
0.000270
0.000253
0.001596
0.000606
0.000468
0.000323
0.000224
0.000254
0.000265
0.000249
0.000272
0.000281
0.000270
0.001356
0.000330
0.000057
0.000190
0.000214
0.000239
0.000256
0.000258
0.000247
0.000262
0.000302
0.000360
0.000437
0.000417
0.000381
0.000333
0.000196
0.000246
0.000255
0.000274
0.000258
0.000272
0.001890
0.000369
0.000230
0.000434
0.000253
0.000248
0.000258
0.000275
0.000256
0.000273
0.000274
0.000466
0.000072
0.000274
0.000232
0.000227
0.000238
0.000255
0.000246
0.000225
0.000239
0.000271
0.000250
0.000249
0.000232
0.000343
0.000475
0.000398
0.000440
0.000210
0.000264
0.000252
0.000247
0.000262
0.000290
0.001473
0.001054
0.000230
0.000227
0.000274
0.000265
0.000272
0.000251
0.000203
0.000056
0.000206
0.001348
0.000295
0.000207
0.000234
0.000253
0.000256
0.000236
0.000239
0.000250
0.000260
0.000261
0.000241
0.000403
0.000350
0.000508
0.000227
0.000243
0.000261
0.000269
0.000275
0.000223
0.000258
0.000263
0.001341
0.000674
0.000311
0.000383
0.000377
0.000401
0.000298
0.000058
0.000206
0.000235
0.000376
0.001311
0.000198
0.000272
0.000221
0.000254
0.000257
0.000257
0.000252
0.000247
0.000265
0.000339
0.000621
0.000264
0.000221
0.000338
0.000274
0.000215
0.000246
0.000279
0.000228
0.000275
0.000264
0.001549
0.000729
0.000305
0.000278
0.000267
0.000194
0.000056
0.000185
0.000262
0.000464
0.000329
0.001299
0.000255
0.000212
0.000236
0.000235
0.000245
0.000249
0.000259
0.000225
0.000239
0.000260
0.000255
0.000270
0.000239
0.000253
0.000253
0.000270
0.000270
0.000311
0.000331
0.000209
0.000263
0.000268
0.001464
0.000255
0.000246
0.000172
0.000056
0.000205
0.000229
0.000254
0.000267
0.000354
0.000380
0.000390
0.000276
0.001576
0.000220
0.000290
0.000549
0.000301
0.000241
0.000433
0.000244
0.000219
0.000268
0.000275
0.000268
0.000282
0.000265
0.000258
0.000273
0.000242
0.000408
0.000437
0.000298
0.001592
0.000226
0.000186
0.000056
0.000227
0.000239
0.000246
0.000244
0.000246
0.000245
0.000262
0.000327
0.000395
0.002041
0.000235
0.000232
0.000254
0.000264
0.000257
0.000258
0.000280
0.000242
0.000257
0.000437
0.000459
0.000372
0.001453
0.000265
0.000508
0.000238
0.001768
0.000229
0.000261
0.001534
0.000157
0.000056
0.000301
0.000485
0.000427
0.000270
0.000241
0.000221
0.000258
0.000274
0.000260
0.000242
0.000237
0.000333
0.000441
0.000370
0.000381
0.000250
0.000225
0.001575
0.000238
0.000581
0.001873
0.000297
0.000224
0.001573
0.001997
0.000729
0.000286
0.000242
0.000391
0.000351
0.000309
0.000055
0.000223
0.000251
0.000243
0.000248
0.001418
0.002562
0.000254
0.000198
0.000239
0.001581
0.001985
0.000203
0.000244
0.000426
0.000348
0.000405
0.000335
0.000462
0.000210
0.000240
0.000250
0.000254
0.000278
0.001590
0.001213
0.001425
0.000289
0.000289
0.000251
0.000302
0.000364
0.000056
0.000199
0.000237
0.000237
0.000241
0.000228
0.000248
0.000251
0.000246
0.000260
0.000247
0.000242
0.000354
0.000360
0.000525
0.000268
0.000244
0.000250
0.000270
0.000271
0.000263
0.000261
0.000260
0.001498
0.000492
0.002112
0.000230
0.000285
0.000294
0.000523
0.000368
0.000166
0.000056
0.000236
0.000341
0.000470
0.000326
0.000189
0.000222
0.000251
0.000243
0.000240
0.000244
0.000247
0.000266
0.000261
0.001609
0.001366
0.001219
0.000276
0.000229
0.000246
0.000269
0.000285
0.000280
0.000238
0.000257
0.002213
0.000247
0.000239
0.000304
0.000324
0.000307
0.000224
0.000056
0.000184
0.000377
0.000598
0.000263
0.000231
0.000234
0.000242
0.000269
0.001908
0.001424
0.000211
0.000340
0.000383
0.000414
0.000284
0.000188
0.000259
0.000268
0.000259
0.000266
0.000258
0.000267
0.000471
0.000234
0.000268
0.000277
0.000243
0.000277
0.000281
0.000253
0.000200
0.000056
0.000192
0.000244
0.000255
0.000238
0.000253
0.000270
0.001551
0.001418
0.001327
0.000237
0.000220
0.000243
0.000270
0.000260
0.000249
0.000247
0.000248
0.002110
0.000261
0.000222
0.000265
0.000259
0.000255
0.000291
0.000245
0.000254
0.000272
0.000253
0.000287
0.000253
0.000172
0.000057
0.000181
0.002697
0.001395
0.000210
0.000303
0.000299
0.000229
0.000267
0.000255
0.000239
0.000258
0.000246
0.000232
0.000245
0.000272
0.000254
0.000278
0.000258
0.000250
0.000273
0.000261
0.000290
0.000272
0.000268
0.000242
0.000243
0.000267
0.000277
0.000257
0.000266
0.000374
0.000057
0.001546
0.000251
0.001247
0.000234
0.000208
0.000243
0.000260
0.000252
0.000242
0.000301
0.000358
0.000489
0.000223
0.000210
0.000248
0.002161
0.000242
0.000238
0.000257
0.000525
0.000449
0.000225
0.000219
0.000247
0.000275
0.000242
0.000267
0.000272
0.000273
0.001656
0.001226
0.000055
0.000199
0.000224
0.000352
0.000367
0.000347
0.000284
0.000198
0.000234
0.000252
0.000259
0.000263
0.000252
0.000224
0.000258
0.000260
0.000242
0.000390
0.000545
0.000396
0.000232
0.000211
0.000283
0.000275
0.000246
0.000251
0.000249
0.000269
0.000274
0.000245
0.000357
0.000316
0.000059
0.001116
0.000249
0.000334
0.000481
0.000244
0.000233
0.000237
0.000223
0.000252
0.002320
0.000347
0.000395
0.000214
0.000377
0.000278
0.000264
0.000257
0.000256
0.000272
0.000223
0.000251
0.000324
0.000556
0.000451
0.001879
0.001369
0.000475
0.000530
0.000225
0.000282
0.000195
0.000056
0.000335
0.000248
0.000238
0.000245
0.000260
0.000216
0.000260
0.000252
0.000249
0.000251
0.000259
0.000226
0.000244
0.000257
0.000401
0.000482
0.001862
0.001313
0.000512
0.000381
0.000452
0.000247
0.000235
0.000265
0.002224
0.000465
0.000393
0.000217
0.000292
0.000271
0.000194
0.000055
0.000196
0.000247
0.000253
0.000241
0.000246
0.000405
0.000358
0.000294
0.000307
0.000247
0.000241
0.000253
0.000256
0.002115
0.000386
0.000369
0.000212
0.000254
0.000266
0.000268
0.000242
0.002471
0.000335
0.000213
0.000254
0.000271
0.000236
0.000276
0.000284
0.000278
0.000189
0.000055
0.000195
0.000366
0.000535
0.000364
0.000268
0.000214
0.000230
0.000269
0.000250
0.000250
0.001955
0.000385
0.000282
0.000277
0.000226
0.000267
0.000274
0.000239
0.002214
0.000451
0.000212
0.000264
0.000274
0.000255
0.000257
0.000257
0.000277
0.000257
0.000262
0.000257
0.000187
0.000055
0.000206
0.000243
0.000245
0.000222
0.000248
0.000261
0.000231
0.000245
0.000237
0.002183
0.000228
0.000282
0.000215
0.000422
0.000241
0.000240
0.000276
0.000292
0.000240
0.000262
0.001973
0.000276
0.000343
0.000367
0.000434
0.000402
0.000304
0.000255
0.000248
0.000248
0.000205
0.000055
0.000202
0.000238
0.000242
0.000243
0.000256
0.000335
0.000228
0.002280
0.000245
0.000244
0.000254
0.000253
0.000236
0.000256
0.000302
0.002126
0.000597
0.000221
0.000248
0.000243
0.000259
0.000264
0.000284
0.000271
0.000261
0.000254
0.000285
0.000248
0.000266
0.000261
0.000197
0.000055
0.001833
0.001444
0.000188
0.000228
0.000247
0.000254
0.000248
0.000259
0.000475
0.000292
0.002174
0.000258
0.000234
0.000260
0.000403
0.000461
0.000338
0.000289
0.000220
0.000250
0.000256
0.000261
0.000271
0.000225
0.000250
0.000269
0.000270
0.000260
0.000386
0.000589
0.000334
0.000056
0.000189
0.000239
0.000255
0.000244
0.000266
0.000250
0.000256
0.000238
0.001498
0.002104
0.000584
0.000281
0.000409
0.000707
0.000326
0.000242
0.000247
0.000246
0.000269
0.000261
0.000264
0.000233
0.000246
0.001841
0.000336
0.001385
0.000281
0.000292
0.000272
0.000333
0.000435
0.000056
0.001938
0.000219
0.000232
0.000225
0.000307
0.000359
0.000488
0.000255
0.000289
0.000219
0.000235
0.000249
0.000262
0.000257
0.000272
0.000251
0.000252
0.000266
0.001848
0.000244
0.000223
0.000267
0.000264
0.000279
0.000274
0.000252
0.001477
0.000331
0.000240
0.000260
0.000169
0.000056
0.000195
0.000229
0.000247
0.000248
0.000243
0.000242
0.000314
0.000360
0.000411
0.000305
0.000224
0.000235
0.000268
0.000333
0.000429
0.000316
0.000214
0.000247
0.000266
0.000364
0.000449
0.000476
0.000226
0.000264
0.000258
0.000246
0.000255
0.000271
0.000277
0.000265
0.000202
0.000056
0.001442
0.000429
0.000208
0.001935
0.000267
0.000516
0.000355
0.000313
0.000226
0.000254
0.000262
0.000242
0.000246
0.000244
0.000272
0.000258
0.000444
0.000309
0.000404
0.000426
0.000294
0.000223
0.000273
0.000252
0.000275
0.000268
0.000258
0.000267
0.000390
0.000459
0.001362
0.000057
0.000196
0.000223
0.002073
0.000336
0.000280
0.000264
0.000270
0.000228
0.000265
0.000258
0.000215
0.000251
0.000247
0.000273
0.000255
0.000369
0.000710
0.001754
0.000229
0.000244
0.000261
0.000263
0.000403
0.000402
0.001595
0.000272
0.000364
0.001927
0.000274
0.000245
0.000191
0.000055
0.000207
0.000229
0.000227
0.000244
0.000227
0.000250
0.000253
0.000285
0.000328
0.000283
0.000377
0.000359
0.000337
0.000303
0.000244
0.000257
0.000261
0.000233
0.000278
0.000244
0.000304
0.000285
0.000268
0.000261
0.000266
0.001517
0.000292
0.000385
0.002065
0.000233
0.000176
0.000071
0.000210
0.000240
0.000236
0.000248
0.000482
0.000213
0.000250
0.000321
0.000412
0.000285
0.000302
0.000209
0.000259
0.000272
0.000270
0.000329
0.000392
0.000463
0.000257
0.000390
0.000640
0.000369
0.001552
0.000243
0.000233
0.002022
0.000351
0.000210
0.000222
0.000296
0.000188
0.000056
0.000190
0.000250
0.000224
0.000245
0.000249
0.000270
0.000254
0.000272
0.000251
0.000304
0.001765
0.000332
0.000378
0.000308
0.000432
0.000364
0.000337
0.001523
0.000236
0.000299
0.002091
0.000559
0.000275
0.000238
0.000254
0.000270
0.000500
0.000229
0.000248
0.000287
0.000195
0.000055
0.000305
0.000324
0.000374
0.000308
0.000187
0.000237
0.000257
0.000251
0.000278
0.000294
0.000215
0.000254
0.000253
0.000259
0.000355
0.001517
0.000313
0.000208
0.000289
0.001897
0.000376
0.000275
0.000263
0.000257
0.000244
0.000278
0.000263
0.000265
0.000245
0.000265
0.000208
0.000055
0.000221
0.000406
0.002050
0.000240
0.000266
0.000213
0.000278
0.000271
0.000404
0.000471
0.001308
0.000377
0.002103
0.000340
0.000196
0.000233
0.000273
0.000275
0.000257
0.000254
0.000267
0.000299
0.000250
0.000316
0.000528
0.000369
0.000334
0.002206
0.000488
0.000567
0.000307
0.000056
0.000200
0.000234
0.000232
0.001971
0.000239
0.000211
0.000252
0.000239
0.000239
0.000261
0.000240
0.000265
0.000247
0.000320
0.000413
0.001472
0.000233
0.000249
0.000264
0.000259
0.000233
0.000254
0.000259
0.000269
0.000336
0.000421
0.000506
0.000221
0.001603
0.000289
0.000157
0.000055
0.000198
0.000226
0.000258
0.000215
0.000255
0.000251
0.000250
0.000252
0.000249
0.000419
0.000373
0.001376
0.000236
0.000215
0.000249
0.000264
0.000265
0.000242
0.000496
0.000414
0.000439
0.000286
0.000225
0.001579
0.000225
0.000251
0.000290
0.000283
0.000265
0.000266
0.000187
0.000056
0.000215
0.000223
0.000270
0.000265
0.000252
0.000241
0.000236
0.000240
0.000263
0.000235
0.000255
0.000257
0.000254
0.001493
0.000367
0.000201
0.000249
0.000266
0.000280
0.000311
0.000380
0.000264
0.000237
0.000266
0.000260
0.000266
0.000257
0.001410
0.000294
0.000225
0.000165
0.000055
0.000198
0.000222
0.000262
0.000258
0.000258
0.000235
0.000248
0.000258
0.000226
0.000273
0.000235
0.000257
0.000227
0.000298
0.000373
0.000398
0.000232
0.000240
0.001636
0.000238
0.000243
0.000252
0.000269
0.000355
0.000315
0.000382
0.000455
0.000256
0.000252
0.001609
0.000174
0.000056
0.000301
0.000345
0.000408
0.000278
0.000216
0.000222
0.000243
0.000270
0.000254
0.000238
0.000257
0.000227
0.001472
0.000295
0.000309
0.000206
0.000252
0.000263
0.000265
0.000261
0.000255
0.000236
0.000267
0.000265
0.000258
0.000411
0.000484
0.000277
0.000280
0.000259
0.000186
0.000057
0.000193
0.000243
0.000469
0.000354
0.000376
0.000231
0.000246
0.000249
0.000252
0.000258
0.000239
0.000221
0.000263
0.000255
0.001254
0.000298
0.000236
0.000241
0.000273
0.000270
0.000231
0.000262
0.000259
0.000257
0.000255
0.000257
0.000344
0.000651
0.000468
0.000222
0.000185
0.000056
0.000197
0.001571
0.000230
0.000419
0.000383
0.000380
0.000215
0.000260
0.000256
0.000261
0.000230
0.000265
0.000270
0.000288
0.000245
0.001528
0.000246
0.000288
0.000265
0.000245
0.000270
0.000253
0.000261
0.000265
0.000254
0.000328
0.000472
0.000267
0.000357
0.000240
0.000184
0.000055
0.000207
0.000253
0.000224
0.001636
0.000414
0.000344
0.000219
0.000244
0.000245
0.000270
0.000281
0.000255
0.000249
0.000261
0.000239
0.000281
0.000423
0.001286
0.000239
0.000234
0.001512
0.000523
0.000345
0.000402
0.000347
0.000230
0.000267
0.000459
0.000231
0.000265
0.000189
0.000057
0.000287
0.000214
0.000248
0.000241
0.000249
0.000254
0.000237
0.000257
0.000262
0.000232
0.000254
0.000257
0.000360
0.000481
0.001641
0.001604
0.000266
0.000557
0.000299
0.000213
0.000239
0.000257
0.000251
0.000260
0.000249
0.000275
0.000251
0.000273
0.001552
0.000306
0.000170
0.000057
0.000213
0.000356
0.000355
0.000330
0.000244
0.000211
0.000241
0.000488
0.000348
0.000321
0.002172
0.000321
0.000708
0.000509
0.000448
0.000265
0.000333
0.000398
0.000322
0.000280
0.000387
0.000244
0.001556
0.000535
0.000209
0.000276
0.000243
0.000247
0.000271
0.000267
0.000198
0.000055
0.000208
0.000252
0.000261
0.000251
0.000236
0.001662
0.000882
0.000996
0.000204
0.000242
0.000252
0.000258
0.000260
0.000268
0.000245
0.000249
0.000255
0.000264
0.000265
0.000279
0.001437
0.000310
0.000255
0.000219
0.000239
0.000259
0.000265
0.000279
0.000263
0.000285
0.001907
0.000054
0.000191
0.000226
0.001559
0.000854
0.000370
0.000363
0.000239
0.000227
0.000254
0.000265
0.000235
0.000251
0.000247
0.002100
0.000362
0.000219
0.000236
0.000262
0.000264
0.000262
0.000194
