0.000094
0.015882
0.005949
0.000230
0.000237
0.000226
0.000299
0.000250
0.000328
0.000293
0.000238
0.000420
0.000519
0.000524
0.000302
0.000310
0.000287
0.000389
0.000389
0.000417
0.000299
0.001854
0.000511
0.000442
0.000260
0.000312
0.000279
0.000419
0.000411
0.000374
0.000477
0.000301
0.000057
0.000207
0.000223
0.000270
0.000257
0.000291
0.000256
0.000257
0.000262
0.000269
0.000284
0.000453
0.000484
0.000277
0.000282
0.000395
0.000371
0.000361
0.000235
0.000225
0.001710
0.000300
0.000238
0.000496
0.000248
0.000247
0.000240
0.000278
0.000300
0.000273
0.000313
0.000459
0.000056
0.000244
0.000213
0.000246
0.000264
0.000254
0.000246
0.000259
0.000285
0.000258
0.001683
0.000244
0.000236
0.000253
0.000254
0.000277
0.000248
0.000277
0.000269
0.000328
0.001797
0.000279
0.000242
0.000459
0.000461
0.000411
0.000224
0.000451
0.000406
0.000284
0.000867
0.000170
0.000057
0.000225
0.000202
0.000261
0.000234
0.000338
0.000252
0.000278
0.000536
0.000471
0.000267
0.000222
0.000220
0.000207
0.000266
0.000249
0.000256
0.000265
0.000259
0.000304
0.000297
0.001791
0.000229
0.000220
0.000456
0.000303
0.000688
0.000613
0.000528
0.000331
0.000258
0.000207
0.000056
0.000240
0.000209
0.000250
0.000253
0.000259
0.000246
0.000271
0.000456
0.001483
0.000238
0.000262
0.000217
0.000235
0.000253
0.000264
0.000289
0.000300
0.000836
0.001338
0.000284
0.000252
0.000424
0.000255
0.000257
0.000233
0.000250
0.000273
0.000268
0.000260
0.000288
0.000198
0.000058
0.000206
0.000224
0.000218
0.000244
0.000262
0.000238
0.000256
0.000249
0.000268
0.000217
0.001703
0.000245
0.000233
0.000237
0.000228
0.000235
0.000239
0.000263
0.000246
0.000251
0.000267
0.001751
0.000244
0.000253
0.000470
0.000243
0.000238
0.000254
0.000240
0.000261
0.000207
0.000057
0.000209
0.000218
0.000220
0.000252
0.000242
0.000241
0.000253
0.000245
0.000261
0.000244
0.000268
0.000253
0.000261
0.000269
0.001645
0.000269
0.000301
0.000260
0.000217
0.000259
0.000274
0.000255
0.000261
0.000241
0.000274
0.001859
0.000380
0.000339
0.000268
0.000266
0.000226
0.000057
0.000225
0.000212
0.000215
0.000277
0.000257
0.000232
0.000312
0.000371
0.000442
0.000429
0.000216
0.000237
0.000247
0.000248
0.001654
0.000507
0.000364
0.000344
0.000295
0.000243
0.000231
0.000286
0.000259
0.001883
0.000519
0.000389
0.000229
0.000242
0.000219
0.000247
0.000204
0.000057
0.000200
0.000231
0.000210
0.000267
0.000306
0.000484
0.000420
0.000264
0.000211
0.000212
0.000260
0.000269
0.000238
0.001719
0.000454
0.000325
0.000217
0.000244
0.000263
0.000276
0.000292
0.000240
0.000258
0.001908
0.000300
0.000393
0.000249
0.000237
0.000328
0.000384
0.000312
0.000057
0.000221
0.000339
0.000374
0.000270
0.000292
0.000208
0.000246
0.000251
0.000233
0.000262
0.000251
0.000216
0.001628
0.000368
0.000276
0.000216
0.000221
0.000239
0.000237
0.000291
0.000288
0.000337
0.001776
0.000353
0.000222
0.000500
0.000226
0.000246
0.000231
0.000253
0.000289
0.000056
0.000342
0.000553
0.000660
0.000222
0.000215
0.000235
0.000233
0.000224
0.000255
0.000267
0.000228
0.001718
0.000274
0.000419
0.000371
0.000229
0.000221
0.000242
0.000261
0.000225
0.000280
0.001849
0.000252
0.000216
0.002286
0.000408
0.000265
0.000247
0.000262
0.000259
0.000206
0.000056
0.000224
0.000216
0.000219
0.000266
0.000234
0.001700
0.000222
0.000202
0.000235
0.000250
0.000243
0.000263
0.000253
0.000237
0.000279
0.000405
0.000661
0.000229
0.000230
0.000260
0.000281
0.000259
0.000233
0.000501
0.000444
0.000241
0.000321
0.000713
0.000318
0.000237
0.000183
0.000057
0.000225
0.000187
0.000262
0.000242
0.000238
0.000244
0.000257
0.000448
0.000423
0.001638
0.000265
0.000220
0.000237
0.000245
0.000256
0.000272
0.000441
0.000536
0.000374
0.000220
0.000234
0.000260
0.000331
0.000268
0.000274
0.000396
0.000427
0.000618
0.000480
0.000396
0.000140
0.000056
0.000208
0.000254
0.000228
0.000214
0.000233
0.000233
0.000251
0.000244
0.000252
0.000375
0.000339
0.001562
0.000270
0.000221
0.000203
0.000223
0.000246
0.000248
0.000250
0.000250
0.000303
0.000395
0.000452
0.000337
0.000221
0.000229
0.000274
0.000242
0.000269
0.000260
0.000439
0.000055
0.000214
0.000210
0.000252
0.000343
0.000443
0.000413
0.000267
0.000237
0.000223
0.000256
0.000245
0.000249
0.000283
0.000258
0.000238
0.000545
0.000418
0.001588
0.000261
0.000260
0.000248
0.000256
0.000256
0.000266
0.000255
0.000434
0.000597
0.000279
0.000362
0.000236
0.000204
0.000056
0.000217
0.000206
0.000405
0.000228
0.000267
0.000241
0.000248
0.000621
0.000349
0.000294
0.000232
0.000256
0.000272
0.000255
0.000601
0.000290
0.000233
0.000246
0.000375
0.001701
0.000233
0.000278
0.000272
0.000417
0.000279
0.000278
0.000267
0.000282
0.000606
0.000377
0.000286
0.000056
0.000220
0.000196
0.000224
0.000240
0.000488
0.000271
0.000275
0.000213
0.000736
0.000264
0.000321
0.000231
0.000221
0.000207
0.000251
0.000264
0.000262
0.000252
0.000234
0.000386
0.000261
0.000408
0.001758
0.000269
0.000236
0.000250
0.000325
0.000351
0.000414
0.000732
0.000448
0.000056
0.000262
0.000312
0.000347
0.000410
0.000308
0.000206
0.000247
0.000316
0.000618
0.000335
0.000283
0.000206
0.000216
0.000265
0.000252
0.000238
0.000252
0.000265
0.000269
0.000264
0.000267
0.000450
0.001722
0.000295
0.000364
0.000421
0.000380
0.000245
0.000429
0.000366
0.000371
0.000056
0.000238
0.000383
0.000292
0.000203
0.000239
0.000215
0.000464
0.000211
0.000232
0.000371
0.000365
0.000440
0.000285
0.000227
0.000258
0.000297
0.000362
0.000435
0.000314
0.000228
0.000205
0.000275
0.000762
0.001658
0.000272
0.000394
0.000359
0.000214
0.000251
0.000422
0.000357
0.000056
0.000234
0.000207
0.000227
0.000239
0.000253
0.000247
0.000247
0.000389
0.000403
0.000277
0.000537
0.000337
0.000296
0.000209
0.000535
0.000248
0.000272
0.000264
0.000244
0.000354
0.000227
0.000236
0.000252
0.000394
0.000605
0.001638
0.000243
0.000223
0.000234
0.000260
0.000198
0.000056
0.000313
0.000474
0.000377
0.000205
0.000232
0.000218
0.000262
0.000232
0.000261
0.000253
0.000232
0.000475
0.000254
0.000564
0.000331
0.000316
0.000224
0.000242
0.000355
0.000350
0.000370
0.000361
0.000386
0.000378
0.000252
0.000225
0.000235
0.000271
0.001785
0.000268
0.000217
0.000056
0.000193
0.000204
0.000238
0.000275
0.000367
0.000531
0.000353
0.000213
0.000228
0.000263
0.000251
0.000247
0.000536
0.000486
0.000500
0.000255
0.000272
0.000233
0.000437
0.000485
0.000373
0.000457
0.000422
0.000453
0.000241
0.000245
0.000233
0.000237
0.000256
0.001764
0.000359
0.000056
0.000262
0.000320
0.000226
0.000189
0.000248
0.000250
0.000295
0.000444
0.000430
0.000307
0.000299
0.000302
0.000692
0.000378
0.000260
0.000227
0.000197
0.000235
0.000253
0.000263
0.000258
0.000274
0.000242
0.000265
0.000307
0.000366
0.000487
0.000352
0.000230
0.000238
0.000164
0.000055
0.000479
0.000262
0.000479
0.000226
0.000221
0.000206
0.000267
0.000237
0.000244
0.000255
0.000216
0.000271
0.000296
0.000306
0.000684
0.000442
0.000290
0.000324
0.000387
0.000373
0.000267
0.000235
0.000200
0.000242
0.001834
0.000222
0.001764
0.000937
0.000396
0.000312
0.000147
0.000056
0.000216
0.000221
0.000205
0.000242
0.000256
0.000252
0.000266
0.000234
0.000269
0.000277
0.000422
0.000496
0.000302
0.000403
0.000225
0.000244
0.000288
0.000267
0.000212
0.000237
0.000250
0.000232
0.001803
0.000272
0.000217
0.000265
0.000278
0.000260
0.001870
0.000572
0.000308
0.000056
0.000227
0.000215
0.000211
0.000237
0.000246
0.000247
0.000251
0.000249
0.000253
0.000417
0.000607
0.000237
0.000393
0.000242
0.000216
0.000299
0.000384
0.000368
0.000376
0.000260
0.001793
0.000241
0.000227
0.000227
0.000253
0.000275
0.000243
0.000262
0.000249
0.000350
0.000408
0.000056
0.000242
0.000223
0.000210
0.000235
0.000252
0.000240
0.000283
0.000234
0.000236
0.000262
0.000237
0.000281
0.000330
0.000509
0.000268
0.000326
0.000486
0.000204
0.000237
0.000224
0.000263
0.000260
0.000271
0.000266
0.000267
0.001794
0.000281
0.000240
0.000245
0.000249
0.000200
0.000055
0.000328
0.000351
0.000180
0.000211
0.000208
0.000269
0.000207
0.000260
0.000246
0.000221
0.000236
0.000280
0.000239
0.000276
0.000532
0.000377
0.000314
0.000213
0.000216
0.000239
0.000256
0.000276
0.000231
0.000270
0.000259
0.000252
0.000302
0.001717
0.000225
0.000235
0.000180
0.000074
0.000195
0.000208
0.000233
0.000262
0.000354
0.000427
0.000413
0.000255
0.000221
0.000231
0.000247
0.000239
0.000265
0.000241
0.000266
0.000253
0.000253
0.000246
0.000255
0.000261
0.000267
0.000268
0.000255
0.000237
0.000249
0.000273
0.000267
0.000263
0.000259
0.000279
0.000194
0.000057
0.000196
0.000222
0.000227
0.000248
0.000238
0.000256
0.000239
0.000264
0.000363
0.000212
0.000198
0.000235
0.000248
0.000248
0.000261
0.000266
0.000259
0.000247
0.000369
0.000224
0.000222
0.000293
0.000280
0.000249
0.000272
0.000289
0.000257
0.000252
0.000262
0.000445
0.000698
0.000056
0.000229
0.000304
0.000234
0.000196
0.000221
0.000229
0.000248
0.000240
0.000254
0.000243
0.000262
0.000307
0.000474
0.000513
0.001574
0.000227
0.000506
0.000201
0.000265
0.000430
0.000516
0.000261
0.000229
0.000273
0.000266
0.000241
0.000281
0.000277
0.000284
0.000262
0.000207
0.000056
0.000298
0.000405
0.000371
0.000322
0.000200
0.000231
0.000257
0.000239
0.000236
0.000248
0.000246
0.000268
0.000236
0.000350
0.000286
0.000492
0.000376
0.001799
0.000274
0.000208
0.000317
0.000515
0.000440
0.000254
0.000369
0.000319
0.000247
0.000241
0.000212
0.000242
0.000219
0.000055
0.000197
0.000193
0.000239
0.000278
0.000379
0.000552
0.000245
0.000226
0.000252
0.000219
0.000243
0.000269
0.000270
0.000263
0.000244
0.000258
0.000307
0.000500
0.000389
0.000391
0.000235
0.001805
0.000298
0.000562
0.000604
0.000294
0.000293
0.000228
0.000248
0.000264
0.000501
0.000056
0.000229
0.000221
0.000236
0.000251
0.000467
0.000554
0.000329
0.000195
0.000210
0.000330
0.000225
0.000220
0.000248
0.000306
0.000359
0.000225
0.000240
0.000400
0.000401
0.000374
0.000532
0.001777
0.000258
0.000430
0.000516
0.000354
0.000246
0.000353
0.000251
0.000225
0.000209
0.000056
0.000223
0.000329
0.000354
0.000302
0.000399
0.000348
0.000323
0.000221
0.000218
0.000254
0.000279
0.000237
0.000234
0.000245
0.000270
0.000238
0.000334
0.000350
0.000579
0.000342
0.000291
0.000241
0.000220
0.001790
0.000400
0.000522
0.000623
0.000290
0.000244
0.000303
0.000156
0.000055
0.000186
0.000215
0.000305
0.000256
0.000270
0.000393
0.000431
0.000289
0.000308
0.000524
0.000208
0.000221
0.000219
0.000280
0.000274
0.000277
0.000240
0.000326
0.000562
0.000350
0.000253
0.000240
0.000240
0.000256
0.000263
0.000264
0.000234
0.000260
0.000260
0.000369
0.000202
0.000056
0.000298
0.000359
0.000218
0.000227
0.000232
0.000265
0.000408
0.000184
0.000231
0.000202
0.000245
0.000350
0.000424
0.000442
0.000310
0.000320
0.000214
0.000233
0.000239
0.000255
0.000254
0.000286
0.000240
0.000250
0.000277
0.000321
0.000476
0.000397
0.000323
0.000237
0.000142
0.000056
0.000202
0.000218
0.000238
0.000242
0.000251
0.000236
0.000253
0.000264
0.000490
0.000242
0.000231
0.000259
0.000250
0.000255
0.000266
0.000270
0.000276
0.000385
0.000225
0.000219
0.000233
0.000278
0.000247
0.000267
0.000277
0.000258
0.000273
0.000252
0.000243
0.000529
0.000170
0.000056
0.000214
0.000197
0.000239
0.000268
0.000248
0.000228
0.000292
0.000465
0.000302
0.000207
0.000247
0.000241
0.000246
0.000333
0.000307
0.001834
0.000266
0.000224
0.000323
0.000379
0.000409
0.000345
0.000476
0.000234
0.000428
0.000358
0.000269
0.000237
0.000274
0.000267
0.001425
0.000055
0.000376
0.000312
0.000316
0.000198
0.000207
0.000225
0.000229
0.000253
0.000248
0.000280
0.000234
0.000257
0.000251
0.000405
0.000442
0.001692
0.000214
0.000225
0.000209
0.000257
0.000264
0.000260
0.000334
0.000450
0.000295
0.000304
0.000243
0.000247
0.000259
0.000268
0.000225
0.000056
0.001228
0.000679
0.000170
0.000290
0.000216
0.000208
0.000214
0.000215
0.000477
0.000258
0.000225
0.000235
0.000347
0.000559
0.000393
0.000312
0.000303
0.000235
0.000332
0.000376
0.000224
0.000230
0.000264
0.000248
0.000269
0.000661
0.000511
0.000256
0.000213
0.000280
0.000180
0.000057
0.000183
0.000220
0.000214
0.000272
0.001569
0.000200
0.000208
0.000240
0.000243
0.000242
0.000254
0.000253
0.000245
0.000251
0.000283
0.000255
0.000475
0.000705
0.000225
0.001803
0.000247
0.000315
0.000299
0.000364
0.000538
0.000398
0.000248
0.000230
0.000252
0.000267
0.000218
0.000056
0.000186
0.000250
0.000223
0.001320
0.000331
0.000221
0.000237
0.000211
0.000230
0.000240
0.000229
0.000250
0.000278
0.000258
0.000237
0.000283
0.000509
0.000494
0.000288
0.000226
0.000229
0.000270
0.000259
0.000237
0.000354
0.000223
0.000220
0.000268
0.000260
0.000359
0.000663
0.000056
0.000230
0.000201
0.000237
0.000260
0.000267
0.000248
0.000229
0.000255
0.000274
0.000243
0.001451
0.000264
0.000199
0.000243
0.000256
0.000234
0.000264
0.000263
0.000260
0.000272
0.000273
0.000517
0.000440
0.000365
0.000262
0.000252
0.001834
0.000233
0.000251
0.000305
0.000476
0.000056
0.000255
0.000427
0.000453
0.000510
0.000518
0.000532
0.001452
0.000448
0.000545
0.000649
0.000554
0.000699
0.000498
0.000624
0.000578
0.001721
0.000490
0.000431
0.000397
0.000299
0.000262
0.000287
0.000280
0.000268
0.000280
0.000269
0.000296
0.000283
0.000257
0.000296
0.001324
0.000057
0.000223
0.000245
0.000226
0.000231
0.000240
0.000257
0.000232
0.000235
0.000263
0.000274
0.000260
0.000235
0.000238
0.000267
0.000260
0.000260
0.001834
0.000265
0.000264
0.000253
0.000251
0.000260
0.000271
0.000301
0.000391
0.000434
0.000295
0.000254
0.000262
0.000291
0.000168
0.000056
0.000228
0.001380
0.000256
0.000267
0.000258
0.000235
0.000263
0.000240
0.000259
0.000241
0.000240
0.000235
0.000263
0.000427
0.000292
0.000350
0.000263
0.000298
0.001892
0.000271
0.000260
0.000257
0.000254
0.000264
0.000277
0.000256
0.000284
0.000247
0.000244
0.000296
0.000237
0.000056
0.000204
0.000230
0.000255
0.001425
0.000263
0.000265
0.000224
0.000229
0.000223
0.000255
0.000262
0.000238
0.000237
0.000266
0.000290
0.000245
0.000256
0.000251
0.000261
0.000275
0.000256
0.001838
0.000269
0.001751
0.000268
0.000250
0.000257
0.000225
0.000266
0.000290
0.000186
0.000056
0.000208
0.000247
0.001362
0.000220
0.000268
0.000237
0.000210
0.000233
0.000265
0.000248
0.000246
0.000249
0.000253
0.000258
0.000276
0.000234
0.000273
0.000271
0.000300
0.000266
0.001851
0.000280
0.001807
0.000260
0.000256
0.000238
0.000263
0.000262
0.000265
0.000258
0.000195
0.000057
0.001435
0.000246
0.000233
0.000230
0.000218
0.000212
0.000273
0.000353
0.000256
0.000248
0.000261
0.000264
0.000267
0.000411
0.000401
0.000262
0.000261
0.000263
0.000232
0.000223
0.000254
0.000333
0.000265
0.000255
0.000271
0.000275
0.000266
0.000501
0.000532
0.000355
0.000183
0.000057
0.000230
0.000277
0.000267
0.000316
0.000346
0.000280
0.001660
0.000293
0.000279
0.000259
0.000269
0.000296
0.000266
0.000265
0.000298
0.000311
0.000320
0.000569
0.000364
0.000267
0.000323
0.000282
0.000261
0.000262
0.000323
0.000269
0.000263
0.000242
0.000238
0.000288
0.000553
0.000057
0.000301
0.000400
0.000220
0.000261
0.000254
0.000234
0.000224
0.000247
0.000251
0.000281
0.001493
0.000256
0.000211
0.000234
0.000246
0.000284
0.000260
0.000250
0.000265
0.000286
0.000246
0.000370
0.000603
0.000330
0.000228
0.000268
0.000273
0.000235
0.000256
0.000237
0.000242
0.000057
0.000196
0.000206
0.000283
0.000482
0.000341
0.000287
0.000208
0.000235
0.000253
0.000268
0.000226
0.000260
0.000243
0.000278
0.000236
0.000229
0.000401
0.001288
0.000213
0.000241
0.000239
0.000251
0.000351
0.000506
0.000219
0.000245
0.000609
0.000332
0.000432
0.000233
0.000160
0.000057
0.000230
0.000203
0.000263
0.000262
0.000323
0.000194
0.000328
0.000548
0.000390
0.000266
0.000361
0.000401
0.000391
0.000357
0.000243
0.000220
0.000226
0.000224
0.000373
0.000583
0.001181
0.000234
0.000248
0.000277
0.000230
0.000238
0.000260
0.000323
0.000466
0.000461
0.000238
0.000056
0.000186
0.000210
0.000240
0.000241
0.000258
0.000247
0.000231
0.000260
0.000253
0.000404
0.000507
0.000382
0.000242
0.000195
0.000225
0.000251
0.000245
0.000252
0.000273
0.000240
0.000506
0.000219
0.000428
0.000410
0.000298
0.000234
0.000235
0.000272
0.000252
0.000285
0.000237
0.000057
0.000301
0.000291
0.000329
0.000349
0.000496
0.000330
0.000234
0.000284
0.000214
0.000245
0.000260
0.000267
0.000236
0.000258
0.000243
0.000231
0.000255
0.000358
0.000574
0.000356
0.000198
0.000277
0.000201
0.000233
0.000282
0.000279
0.000249
0.000278
0.000264
0.000275
0.000310
0.000055
0.000431
0.000201
0.000237
0.000228
0.000230
0.000242
0.000246
0.000259
0.000258
0.000260
0.000255
0.000237
0.000342
0.000503
0.000429
0.000320
0.000217
0.000218
0.000213
0.000269
0.000292
0.000233
0.000251
0.000263
0.000308
0.000250
0.000480
0.000560
0.000505
0.000219
0.000151
0.000056
0.000362
0.000205
0.000201
0.000221
0.000251
0.000253
0.000246
0.000250
0.000268
0.000238
0.000234
0.000236
0.000278
0.000233
0.000250
0.000246
0.000249
0.000263
0.000279
0.000269
0.000243
0.000269
0.000260
0.000258
0.000275
0.000283
0.000218
0.000274
0.000253
0.000291
0.000209
0.000056
0.000212
0.000188
0.000235
0.000251
0.000242
0.000242
0.000257
0.000239
0.000260
0.000296
0.000222
0.000222
0.000268
0.000399
0.000240
0.000291
0.000256
0.000262
0.000253
0.000279
0.000272
0.000254
0.000240
0.000241
0.000270
0.000276
0.000273
0.000236
0.000263
0.000264
0.000220
0.000056
0.000231
0.000377
0.000349
0.000280
0.000305
0.000235
0.000209
0.000241
0.000246
0.000232
0.000242
0.000267
0.000259
0.000230
0.000255
0.000261
0.000268
0.000268
0.000255
0.000248
0.000271
0.000267
0.000277
0.000260
0.000268
0.000293
0.000247
0.000275
0.000235
0.000267
0.000213
0.000056
0.000197
0.000213
0.000243
0.000261
0.000248
0.000461
0.000206
0.000242
0.000272
0.000455
0.000507
0.000328
0.000218
0.000209
0.000254
0.000274
0.000238
0.000269
0.000259
0.000267
0.000258
0.000273
0.000257
0.000266
0.000519
0.000571
0.000261
0.000260
0.000264
0.000263
0.000213
0.000056
0.000219
0.000197
0.000224
0.000254
0.000353
0.000683
0.000289
0.000343
0.000235
0.000227
0.000252
0.000251
0.000265
0.000233
0.000260
0.000265
0.000272
0.000247
0.000689
0.000334
0.000319
0.000221
0.000255
0.000282
0.000276
0.000273
0.000247
0.000268
0.000248
0.000351
0.000339
0.000057
0.000273
0.000219
0.000206
0.000240
0.000250
0.000262
0.000249
0.000230
0.000245
0.000249
0.000250
0.000276
0.000257
0.000397
0.000589
0.000373
0.000235
0.000223
0.000250
0.000265
0.000259
0.000266
0.000484
0.000245
0.000249
0.000665
0.000409
0.000412
0.000289
0.000247
0.000174
0.000057
0.000198
0.000216
0.000220
0.000241
0.000252
0.000262
0.000322
0.000745
0.000341
0.000331
0.000214
0.000256
0.000275
0.000280
0.000279
0.000229
0.000234
0.000243
0.000264
0.000311
0.000476
0.000548
0.000431
0.000263
0.000436
0.000348
0.000485
0.000205
0.000250
0.000370
0.000401
0.000056
0.000255
0.000216
0.000480
0.000201
0.000233
0.000229
0.000234
0.000257
0.000240
0.000235
0.000268
0.000428
0.000398
0.000331
0.000229
0.000218
0.000275
0.000212
0.000275
0.000276
0.000275
0.000248
0.000257
0.000266
0.000348
0.000531
0.000404
0.000269
0.000253
0.000246
0.000217
0.000055
0.000226
0.000213
0.000229
0.000244
0.000246
0.000320
0.000427
0.000298
0.000448
0.000287
0.000343
0.000260
0.000194
0.000270
0.000263
0.000229
0.000256
0.000263
0.000359
0.000442
0.000439
0.000320
0.000413
0.000343
0.000392
0.000397
0.000376
0.000260
0.000236
0.000283
0.000338
0.000057
0.000238
0.000240
0.000211
0.000248
0.000252
0.000256
0.000250
0.000248
0.000252
0.000296
0.000203
0.000369
0.000438
0.000382
0.000369
0.000254
0.000228
0.000262
0.000292
0.000223
0.000242
0.000248
0.000271
0.000273
0.000273
0.000400
0.000474
0.000428
0.000251
0.000266
0.000204
0.000056
0.000214
0.000197
0.000258
0.000249
0.000252
0.000316
0.000603
0.000421
0.000362
0.000674
0.000304
0.000209
0.000207
0.000245
0.000247
0.000270
0.000282
0.000261
0.000485
0.000537
0.001527
0.000245
0.000259
0.000256
0.000302
0.000228
0.000461
0.000428
0.000271
0.000328
0.000153
0.000056
0.000199
0.000206
0.000231
0.000248
0.000239
0.000258
0.000264
0.000258
0.000263
0.000378
0.000350
0.000345
0.000270
0.000383
0.000387
0.000332
0.000235
0.000209
0.000241
0.000262
0.000243
0.000247
0.000280
0.000271
0.000356
0.000544
0.000346
0.000255
0.000230
0.000252
0.000197
0.000056
0.000230
0.000205
0.000255
0.000251
0.000257
0.000226
0.000460
0.000231
0.000231
0.000249
0.000250
0.000250
0.000259
0.000252
0.000249
0.000274
0.000262
0.000261
0.000275
0.000253
0.000258
0.000313
0.000298
0.000237
0.000245
0.000278
0.000270
0.000269
0.000267
0.000273
0.000193
0.000056
0.000234
0.000212
0.000348
0.000480
0.000332
0.000235
0.000202
0.000223
0.000256
0.000253
0.000247
0.000249
0.000267
0.000258
0.000254
0.000231
0.000245
0.000271
0.000321
0.000297
0.000400
0.000443
0.000237
0.000252
0.000267
0.000255
0.000265
0.000252
0.000268
0.000292
0.000206
0.000055
0.000329
0.000413
0.000372
0.000219
0.000239
0.000253
0.000480
0.000203
0.000212
0.000222
0.000301
0.000326
0.000364
0.000602
0.001605
0.000260
0.000258
0.000229
0.000284
0.000245
0.000352
0.000421
0.000711
0.000243
0.000218
0.000238
0.000279
0.000417
0.000283
0.000280
0.000188
0.000056
0.000246
0.000353
0.000308
0.000339
0.000484
0.000209
0.000225
0.000241
0.000258
0.000236
0.000262
0.000249
0.000258
0.000308
0.000495
0.000428
0.000246
0.000234
0.000214
0.000273
0.000258
0.000327
0.000237
0.000263
0.000280
0.000444
0.000516
0.000382
0.000508
0.000231
0.000193
0.000057
0.000190
0.000200
0.000232
0.000233
0.000251
0.000250
0.000270
0.000272
0.000432
0.000300
0.000441
0.000357
0.000223
0.000218
0.000258
0.000293
0.000323
0.000231
0.000258
0.000276
0.000246
0.000265
0.000549
0.000369
0.000234
0.000316
0.000219
0.000545
0.000383
0.000295
0.000133
0.000057
0.000198
0.000196
0.000379
0.000458
0.000311
0.000228
0.000220
0.000242
0.000258
0.000260
0.000262
0.000256
0.000252
0.000226
0.000262
0.000283
0.000419
0.000348
0.000401
0.000286
0.000451
0.000228
0.000278
0.000260
0.000311
0.000285
0.000260
0.000254
0.000476
0.000566
0.000175
0.000056
0.000210
0.000188
0.000240
0.000254
0.000240
0.000495
0.000229
0.000216
0.000264
0.000313
0.000602
0.000502
0.000244
0.000211
0.000264
0.000232
0.000249
0.000252
0.000259
0.000248
0.000249
0.000285
0.000407
0.000431
0.000428
0.000281
0.000348
0.000361
0.000283
0.000222
0.000157
0.000056
0.000214
0.000200
0.000233
0.000557
0.000286
0.000358
0.000250
0.000211
0.000217
0.000225
0.000264
0.000243
0.000252
0.000266
0.000302
0.000211
0.000239
0.000248
0.000272
0.000354
0.000600
0.000364
0.000221
0.000228
0.000264
0.000282
0.000252
0.000259
0.000264
0.000262
0.000217
0.000056
0.000277
0.000382
0.000513
0.000205
0.000230
0.000190
0.000332
0.000508
0.000269
0.000209
0.000203
0.000267
0.000267
0.000447
0.000502
0.000280
0.000208
0.000214
0.000301
0.000206
0.000254
0.000268
0.000282
0.000258
0.000259
0.000300
0.000415
0.000522
0.000264
0.000223
0.000144
0.000057
0.000197
0.000218
0.000220
0.000251
0.000256
0.000257
0.000233
0.000257
0.000252
0.000247
0.000268
0.000238
0.000257
0.001480
0.000256
0.000210
0.000252
0.000241
0.000277
0.000288
0.000257
0.000244
0.000275
0.000254
0.000257
0.000277
0.000285
0.000260
0.000257
0.000261
0.000219
0.000057
0.000210
0.000223
0.000220
0.000244
0.000244
0.000238
0.000261
0.000259
0.000235
0.000241
0.000246
0.000264
0.000253
0.000262
0.000275
0.000234
0.000260
0.000240
0.000280
0.000255
0.000257
0.000256
0.000249
0.000257
0.001367
0.000275
0.000553
0.000375
0.000425
0.000220
0.000149
0.000056
0.000212
0.000192
0.000242
0.000249
0.000521
0.000216
0.000191
0.000216
0.000241
0.000291
0.000599
0.000357
0.000199
0.000224
0.000219
0.000256
0.000257
0.000267
0.000244
0.000262
0.000252
0.000258
0.000259
0.000416
0.000525
0.000440
0.000260
0.000230
0.001379
0.000279
0.000164
0.000057
0.000351
0.000428
0.000346
0.000249
0.000195
0.000207
0.000226
0.000236
0.000263
0.000257
0.000254
0.000249
0.000263
0.000278
0.000611
0.000407
0.000278
0.000248
0.000239
0.000225
0.000268
0.000263
0.000302
0.000234
0.000269
0.000258
0.000270
0.000629
0.000406
0.000376
0.000147
0.000056
0.000211
0.000217
0.001324
0.000341
0.000335
0.000456
0.000344
0.000317
0.000440
0.000392
0.000225
0.000205
0.000232
0.000260
0.000270
0.000241
0.000371
0.000647
0.000268
0.000307
0.000279
0.000234
0.000261
0.000514
0.000233
0.000250
0.000261
0.000282
0.000332
0.000512
0.000363
0.000056
0.000339
0.000384
0.000230
0.000193
0.001431
0.000647
0.000288
0.000235
0.000200
0.000243
0.000235
0.000223
0.000249
0.000266
0.000246
0.000265
0.000235
0.000358
0.000391
0.000376
0.000473
0.000219
0.000219
0.000238
0.000264
0.000264
0.000268
0.000249
0.000255
0.000283
0.000214
0.000057
0.000387
0.000301
0.000266
0.000206
0.000237
0.000242
0.000243
0.000249
0.000235
0.000260
0.001469
0.000452
0.000271
0.000202
0.000228
0.000250
0.000252
0.000273
0.000240
0.000258
0.000283
0.000247
0.000270
0.000404
0.000387
0.000523
0.000214
0.000286
0.000252
0.000270
0.000194
0.000056
0.000201
0.000462
0.000196
0.000219
0.000476
0.000291
0.000342
0.000361
0.000440
0.000227
0.000213
0.000235
0.000263
0.000264
0.000267
0.001424
0.000348
0.000275
0.000249
0.000273
0.000271
0.000262
0.000254
0.000249
0.000249
0.000278
0.000507
0.000424
0.000272
0.000285
0.000175
0.000056
0.000184
0.000208
0.000242
0.000244
0.000247
0.000239
0.000240
0.000250
0.000332
0.000394
0.000442
0.000291
0.000212
0.000218
0.000223
0.000274
0.000265
0.000270
0.000270
0.000236
0.000255
0.000342
0.001301
0.000214
0.000286
0.000213
0.000228
0.000258
0.000259
0.000261
0.000204
0.000057
0.000221
0.000337
0.000510
0.000256
0.000227
0.000211
0.000230
0.000261
0.000255
0.000248
0.000265
0.000266
0.000241
0.000251
0.000256
0.000267
0.000257
0.000277
0.000266
0.000252
0.000243
0.000277
0.000267
0.000282
0.000283
0.000267
0.000291
0.000233
0.000262
0.000514
0.001328
0.000056
0.000201
0.000208
0.000234
0.000238
0.000254
0.000263
0.000250
0.000241
0.000225
0.000253
0.000262
0.000264
0.000258
0.000240
0.000247
0.001719
0.000357
0.000229
0.000197
0.000229
0.000244
0.000262
0.000273
0.000262
0.000275
0.000255
0.000269
0.000277
0.000265
0.000267
0.000231
0.000056
0.000309
0.000296
0.001353
0.000199
0.000226
0.000234
0.000220
0.000248
0.000258
0.000255
0.000234
0.000351
0.000428
0.000490
0.000251
0.000208
0.000226
0.000236
0.000260
0.000269
0.000268
0.000236
0.000267
0.000293
0.000263
0.000400
0.000419
0.000357
0.000260
0.000256
0.000198
0.000056
0.000179
0.000215
0.000245
0.000267
0.000232
0.000229
0.000230
0.000288
0.000419
0.000433
0.001145
0.000244
0.000215
0.000262
0.000259
0.000276
0.000260
0.000248
0.000315
0.000433
0.000403
0.000255
0.000240
0.000240
0.000260
0.000266
0.000271
0.000298
0.000261
0.000282
0.000215
0.000056
0.000234
0.000478
0.000371
0.000229
0.000203
0.000213
0.000222
0.000271
0.000270
0.000257
0.000225
0.000250
0.000546
0.000470
0.000507
0.001441
0.000215
0.000251
0.000353
0.000355
0.000431
0.000417
0.000461
0.000407
0.000235
0.000254
0.000275
0.000258
0.000280
0.000271
0.000196
0.000057
0.000205
0.000229
0.000457
0.000542
0.000295
0.000212
0.000251
0.000224
0.000246
0.000259
0.000253
0.000263
0.000264
0.000239
0.000266
0.000309
0.000395
0.000463
0.000309
0.001315
0.000291
0.000220
0.000255
0.000264
0.000613
0.000339
0.000411
0.000217
0.000244
0.000257
0.000208
0.000057
0.000179
0.000216
0.000227
0.000240
0.000249
0.000297
0.000437
0.000454
0.000297
0.000228
0.000231
0.000259
0.000272
0.000255
0.000266
0.000262
0.000264
0.000260
0.000261
0.000397
0.000461
0.000396
0.000325
0.001351
0.000341
0.000241
0.000295
0.000412
0.000524
0.000261
0.000333
0.000056
0.000199
0.000200
0.000246
0.000242
0.000255
0.000246
0.001697
0.000281
0.000211
0.000214
0.000234
0.000272
0.000319
0.000324
0.000329
0.000281
0.000328
0.000225
0.000581
0.000346
0.000293
0.000271
0.000231
0.000214
0.001440
0.000434
0.000407
0.000480
0.000317
0.000300
0.000153
0.000055
0.000198
0.000209
0.000249
0.000263
0.000271
0.000235
0.001784
0.000214
0.000239
0.000250
0.000391
0.000404
0.001432
0.000323
0.000430
0.000209
0.000208
0.000226
0.000268
0.000267
0.001687
0.000520
0.000377
0.000289
0.000215
0.000230
0.000227
0.000282
0.000250
0.000246
0.000221
0.000056
0.000211
0.000193
0.000255
0.000251
0.000258
0.000271
0.000290
0.000247
0.000260
0.000243
0.000257
0.000250
0.000256
0.000271
0.000268
0.001498
0.000276
0.000234
0.000253
0.000279
0.000273
0.000257
0.000431
0.001280
0.000270
0.000249
0.000248
0.000254
0.000465
0.000222
0.000184
0.000056
0.000214
0.000211
0.000222
0.000239
0.000244
0.000250
0.000210
0.001776
0.000209
0.000237
0.000211
0.000358
0.000245
0.000220
0.001456
0.000254
0.000206
0.000221
0.000263
0.000237
0.000257
0.000310
0.000340
0.001364
0.000282
0.000229
0.000228
0.000239
0.001401
0.000274
0.000240
0.000056
0.000251
0.000344
0.000206
0.000213
0.000242
0.000238
0.000266
0.000261
0.000267
0.000259
0.000261
0.000260
0.000246
0.000255
0.000340
0.001469
0.000257
0.000248
0.000257
0.000249
0.000279
0.000269
0.000266
0.001592
0.000251
0.000250
0.000247
0.001364
0.000234
0.000223
0.000181
0.000057
0.000253
0.000302
0.000363
0.000208
0.000222
0.000229
0.000266
0.000260
0.000262
0.000272
0.000239
0.000250
0.000261
0.000254
0.000506
0.001223
0.000218
0.000213
0.000244
0.000275
0.000246
0.000236
0.000244
0.001313
0.000377
0.000225
0.000237
0.000231
0.000230
0.001363
0.000365
0.000057
0.000308
0.000253
0.000223
0.000201
0.000234
0.000238
0.000254
0.000237
0.000290
0.000246
0.000238
0.000251
0.000248
0.000389
0.000370
0.001475
0.000235
0.000226
0.000290
0.000521
0.000320
0.000385
0.001321
0.000304
0.000238
0.000258
0.001300
0.000348
0.000250
0.000583
0.000233
0.000057
0.000200
0.000229
0.000246
0.000258
0.000249
0.000256
0.000275
0.000249
0.000263
0.000260
0.000324
0.000565
0.001305
0.000218
0.000230
0.000258
0.000281
0.000263
0.000212
0.000222
0.000343
0.001307
0.000243
0.000232
0.000231
0.000220
0.001512
0.000451
0.000473
0.000264
0.000163
0.000057
0.000206
0.000224
0.000228
0.000225
0.000248
0.000271
0.000245
0.000249
0.000414
0.000518
0.000311
0.001442
0.000231
0.000218
0.000258
0.000260
0.000261
0.000305
0.001648
0.000314
0.000348
0.000362
0.001364
0.000359
0.000286
0.000344
0.000239
0.000222
0.000233
0.000257
0.000208
0.000057
0.000182
0.000219
0.000292
0.000236
0.000319
0.000550
0.000295
0.000372
0.001468
0.000277
0.000338
0.000244
0.000223
0.000322
0.000372
0.001354
0.000252
0.000220
0.000219
0.000239
0.000298
0.001611
0.000356
0.000283
0.000247
0.000228
0.000477
0.000313
0.000232
0.000238
0.000249
0.000056
0.000245
0.000354
0.000352
0.000297
0.000205
0.001456
0.000248
0.000223
0.000260
0.000265
0.000266
0.000243
0.000371
0.001429
0.000272
0.000218
0.000421
0.001279
0.000308
0.000426
0.000353
0.000256
0.000245
0.000231
0.000277
0.000250
0.000465
0.000248
0.000235
0.000273
0.000212
0.000056
0.000205
0.000217
0.000350
0.001462
0.000274
0.000206
0.000293
0.000248
0.000236
0.000251
0.000247
0.000267
0.001644
0.000228
0.000208
0.000222
0.001366
0.000263
0.000504
0.000405
0.000411
0.000203
0.000230
0.000240
0.000375
0.000235
0.000220
0.000265
0.000236
0.000250
0.000219
0.000057
0.000216
0.000422
0.001404
0.000245
0.000225
0.000268
0.000251
0.000252
0.000324
0.000385
0.001330
0.000252
0.000302
0.000248
0.000209
0.001334
0.000683
0.000277
0.000323
0.000386
0.000340
0.000243
0.000228
0.000226
0.000272
0.000280
0.000275
0.000332
0.000481
0.000421
0.001363
0.000056
0.000208
0.000242
0.000208
0.000222
0.000246
0.000398
0.001581
0.000281
0.000218
0.000226
0.000245
0.001381
0.000454
0.000352
0.000451
0.000247
0.000219
0.000215
0.000231
0.000275
0.000273
0.000244
0.000280
0.000262
0.000253
0.000274
0.000461
0.000523
0.001443
0.000273
0.000187
0.000056
0.000206
0.000210
0.000440
0.000451
0.001232
0.000285
0.000255
0.000245
0.000255
0.000250
0.000250
0.000269
0.000321
0.000604
0.000302
0.000220
0.000238
0.000272
0.000230
0.000280
0.000263
0.000261
0.000281
0.000251
0.000257
0.000392
0.000522
0.000306
0.000340
0.001452
0.000151
0.000057
0.000214
0.000216
0.000250
0.000479
0.000319
0.000350
0.000286
0.000315
0.000265
0.000265
0.000265
0.000262
0.000240
0.000310
0.000254
0.000273
0.000525
0.000427
0.000244
0.000365
0.000275
0.000473
0.000251
0.000221
0.000210
0.000251
0.000254
0.000275
0.000342
0.000535
0.000319
0.000056
0.000220
0.001354
0.000287
0.000326
0.000359
0.000496
0.000294
0.000365
0.000221
0.000207
0.000250
0.000270
0.000243
0.000261
0.000273
0.000253
0.000261
0.001346
0.000341
0.000224
0.000221
0.000266
0.000283
0.000272
0.000267
0.000257
0.000265
0.000255
0.000264
0.000510
0.000331
0.000057
0.000226
0.000240
0.000238
0.001517
0.000334
0.000222
0.000210
0.000193
0.000239
0.000237
0.000254
0.000270
0.000251
0.000247
0.000282
0.000261
0.000246
0.000270
0.000238
0.000263
0.001444
0.000272
0.000241
0.000313
0.000223
0.000245
0.000224
0.000255
0.000282
0.000500
0.000380
0.000055
0.000204
0.000198
0.000391
0.000312
0.000215
0.000248
0.001539
0.000361
0.000324
0.000209
0.000222
0.000386
0.000289
0.000234
0.000198
0.000247
0.000251
0.000261
0.000261
0.000247
0.000520
0.000544
0.001129
0.000268
0.000211
0.000221
0.000253
0.000285
0.000248
0.000273
0.000377
0.000056
0.000316
0.000330
0.000195
0.000206
0.000233
0.000247
0.000238
0.000231
0.001434
0.000533
0.000428
0.000236
0.000224
0.000230
0.000222
0.000245
0.000250
0.000276
0.000255
0.000315
0.000302
0.000476
0.000464
0.001378
0.000245
0.000236
0.000282
0.000258
0.000264
0.000274
0.000550
0.000056
0.000233
0.000206
0.000234
0.000230
0.000232
0.000226
0.000267
0.000242
0.000279
0.001584
0.000373
0.000222
0.000263
0.000261
0.000469
0.000314
0.000589
0.000373
0.000279
0.000260
0.000443
0.000476
0.001298
0.000231
0.000232
0.000221
0.001805
0.000404
0.000599
0.000305
0.000154
0.000056
0.000199
0.000206
0.000226
0.000233
0.000252
0.000248
0.000361
0.000415
0.000519
0.000402
0.000294
0.000224
0.000201
0.000246
0.000265
0.000278
0.000247
0.000249
0.000247
0.000276
0.000273
0.000531
0.001241
0.000258
0.000211
0.000270
0.001876
0.000432
0.000439
0.000284
0.000161
0.000058
0.000218
0.000199
0.000240
0.001586
0.000382
0.000256
0.000215
0.000273
0.000262
0.000325
0.000360
0.000381
0.000365
0.000296
0.000379
0.000415
0.000337
0.001284
0.000267
0.000206
0.000241
0.000234
0.000380
0.000438
0.000610
0.000405
0.000227
0.000219
0.000260
0.000276
0.000211
0.000056
0.000200
0.000209
0.001450
0.000418
0.000205
0.000208
0.000207
0.000252
0.000244
0.000261
0.000242
0.000280
0.000268
0.000265
0.000244
0.000395
0.000510
0.000274
0.001383
0.000292
0.000210
0.000245
0.000274
0.000250
0.000411
0.000373
0.000539
0.000298
0.000294
0.000252
0.000396
0.000057
0.000207
0.000196
0.000258
0.000255
0.001588
0.000231
0.000252
0.000240
0.000259
0.000256
0.000257
0.000289
0.000229
0.000241
0.000464
0.000481
0.001455
0.000734
0.000249
0.000317
0.000240
0.000236
0.000205
0.000276
0.001766
0.000725
0.000259
0.000227
0.000281
0.000292
0.000221
0.000056
0.000204
0.000215
0.000224
0.000248
0.000247
0.000246
0.000252
0.000248
0.000253
0.000255
0.000258
0.000284
0.000247
0.000261
0.000279
0.000225
0.000264
0.001616
0.000671
0.000461
0.000285
0.000226
0.000249
0.000237
0.000278
0.000262
0.000280
0.000243
0.001516
0.000339
0.000318
0.000055
0.000188
0.000225
0.000210
0.000263
0.000245
0.000234
0.000253
0.000253
0.000247
0.000272
0.000284
0.000407
0.000460
0.000346
0.000228
0.000197
0.000261
0.001472
0.000691
0.000378
0.000353
0.000314
0.000238
0.000204
0.000265
0.000264
0.000247
0.000269
0.001488
0.000446
0.000236
0.000056
0.000210
0.000207
0.000219
0.000244
0.000259
0.000238
0.000244
0.000247
0.000270
0.000262
0.000412
0.000357
0.000308
0.000236
0.000237
0.000230
0.000272
0.000265
0.001583
0.000594
0.000480
0.000352
0.000228
0.000234
0.000251
0.000264
0.000262
0.000290
0.000265
0.001429
0.000311
0.000056
0.000206
0.000218
0.000211
0.000246
0.000253
0.000249
0.000294
0.000352
0.000365
0.000425
0.000351
0.000384
0.000339
0.000236
0.000229
0.000210
0.000279
0.000254
0.001399
0.000894
0.000311
0.000211
0.000477
0.000210
0.000221
0.000249
0.000260
0.000278
0.000247
0.000276
0.000300
0.000056
0.000335
0.000182
0.000207
0.000221
0.000254
0.000255
0.000241
0.000219
0.000253
0.000278
0.000236
0.000232
0.000253
0.000496
0.000538
0.000355
0.000236
0.000248
0.000262
0.000240
0.000261
0.000378
0.001381
0.001053
0.000255
0.000227
0.000256
0.000274
0.000262
0.000264
0.000214
0.000056
0.000185
0.001420
0.000223
0.000205
0.000219
0.000224
0.000249
0.000266
0.000239
0.000228
0.000255
0.000260
0.000244
0.000377
0.000427
0.000467
0.000255
0.000214
0.000261
0.000285
0.000248
0.000256
0.000233
0.000259
0.001490
0.000599
0.000314
0.000397
0.000368
0.000401
0.000261
0.000056
0.000193
0.000217
0.000366
0.001301
0.000233
0.000267
0.000212
0.000234
0.000268
0.000238
0.000280
0.000228
0.000274
0.000331
0.000586
0.000352
0.000215
0.000293
0.000275
0.000240
0.000228
0.000264
0.000232
0.000271
0.000267
0.001539
0.000731
0.000306
0.000286
0.000265
0.000224
0.000056
0.000225
0.000245
0.000430
0.000412
0.001275
0.000252
0.000205
0.000208
0.000220
0.000269
0.000220
0.000251
0.000241
0.000231
0.000258
0.000252
0.000270
0.000235
0.000253
0.000260
0.000263
0.000274
0.000348
0.000297
0.000237
0.000234
0.000264
0.001545
0.000231
0.000230
0.000163
0.000056
0.000201
0.000191
0.000246
0.000349
0.000347
0.000335
0.000405
0.000249
0.001550
0.000289
0.000240
0.000559
0.000328
0.000215
0.000483
0.000228
0.000223
0.000222
0.000253
0.000274
0.000278
0.000268
0.000254
0.000271
0.000279
0.000430
0.000423
0.000329
0.001525
0.000251
0.000178
0.000057
0.000183
0.000220
0.000234
0.000242
0.000239
0.000246
0.000268
0.000348
0.000397
0.002087
0.000202
0.000205
0.000245
0.000251
0.000264
0.000338
0.000258
0.000216
0.000228
0.000448
0.000361
0.000445
0.001529
0.000220
0.000231
0.000505
0.001764
0.000282
0.000265
0.001474
0.000196
0.000055
0.000320
0.000391
0.000471
0.000232
0.000269
0.000229
0.000245
0.000267
0.000270
0.000245
0.000242
0.000321
0.000426
0.000378
0.000401
0.000290
0.000212
0.001551
0.000482
0.002000
0.000295
0.000264
0.001413
0.000430
0.002450
0.000307
0.000212
0.000222
0.000245
0.000596
0.000199
0.000056
0.000203
0.000199
0.000245
0.000253
0.001483
0.001677
0.001076
0.000237
0.000201
0.001649
0.001920
0.000233
0.000303
0.000409
0.000306
0.000456
0.000419
0.000275
0.000250
0.000231
0.000257
0.000231
0.000278
0.001598
0.002451
0.000319
0.000199
0.000253
0.000243
0.000290
0.000384
0.000056
0.000228
0.000233
0.000205
0.000231
0.000230
0.000232
0.000257
0.000250
0.000252
0.000255
0.000249
0.000322
0.000449
0.000590
0.000198
0.000227
0.000206
0.000287
0.000250
0.000267
0.000258
0.001373
0.000469
0.000460
0.002070
0.000257
0.000231
0.000319
0.000485
0.000452
0.000151
0.000056
0.000229
0.000377
0.000405
0.000323
0.000199
0.000221
0.000222
0.000258
0.000246
0.000237
0.000252
0.000265
0.000262
0.001606
0.001425
0.001231
0.000271
0.000229
0.000219
0.000223
0.000293
0.000274
0.000248
0.000256
0.002278
0.000227
0.000220
0.000265
0.000321
0.000305
0.000249
0.000057
0.000217
0.000382
0.000602
0.000306
0.000203
0.000223
0.000203
0.000255
0.001908
0.001434
0.000257
0.000378
0.000390
0.000361
0.000267
0.000211
0.000219
0.000259
0.000269
0.000261
0.000263
0.000260
0.000490
0.000241
0.000261
0.000279
0.000245
0.000262
0.000280
0.000244
0.000224
0.000055
0.000192
0.000238
0.000236
0.000220
0.000252
0.000277
0.001539
0.001503
0.001323
0.000219
0.000217
0.000223
0.000232
0.000267
0.000256
0.000240
0.000256
0.002184
0.000208
0.000223
0.000235
0.000268
0.000264
0.000251
0.000273
0.000254
0.000276
0.000250
0.000274
0.000268
0.000182
0.000056
0.001501
0.000318
0.002398
0.000259
0.000280
0.000297
0.000242
0.000256
0.000271
0.000233
0.000261
0.000239
0.000238
0.000243
0.000265
0.000277
0.000252
0.000265
0.000257
0.000275
0.000258
0.000279
0.000280
0.000273
0.000242
0.000252
0.000250
0.000283
0.000254
0.000270
0.000399
0.000056
0.000189
0.002554
0.000329
0.000207
0.000200
0.000203
0.000247
0.000258
0.000249
0.000245
0.000546
0.000244
0.000340
0.000254
0.000216
0.002213
0.000218
0.000228
0.000356
0.000424
0.000410
0.000258
0.000221
0.000224
0.000278
0.000231
0.000275
0.000261
0.000283
0.001761
0.001150
0.000057
0.000194
0.000213
0.000252
0.000384
0.000414
0.000247
0.000241
0.000203
0.000248
0.000268
0.000261
0.000258
0.000217
0.000250
0.000265
0.000263
0.000240
0.000714
0.000376
0.000236
0.000236
0.000217
0.000284
0.000259
0.000263
0.000233
0.000264
0.000272
0.000255
0.000312
0.000373
0.000056
0.001119
0.000257
0.000311
0.000454
0.000335
0.000195
0.000212
0.000213
0.002274
0.000419
0.000292
0.000369
0.000207
0.000285
0.000327
0.000265
0.000265
0.000274
0.000245
0.000249
0.000237
0.000256
0.000600
0.000553
0.001790
0.001261
0.000701
0.000435
0.000245
0.000237
0.000217
0.000057
0.000369
0.000221
0.000268
0.000208
0.000233
0.000249
0.000235
0.000231
0.000257
0.000261
0.000244
0.000255
0.000252
0.000233
0.000420
0.000502
0.001882
0.001329
0.000416
0.000408
0.000434
0.000256
0.000239
0.000251
0.002260
0.000432
0.000374
0.000241
0.000267
0.000287
0.000211
0.000057
0.000185
0.000207
0.000253
0.000263
0.000234
0.000434
0.000342
0.000386
0.000238
0.000243
0.000224
0.000281
0.000234
0.002113
0.000370
0.000367
0.000226
0.000231
0.000267
0.000259
0.000255
0.002445
0.000385
0.000215
0.000225
0.000256
0.000257
0.000265
0.000274
0.000290
0.000225
0.000056
0.000192
0.000480
0.000468
0.000354
0.000230
0.000206
0.000204
0.000237
0.000265
0.000261
0.002066
0.000350
0.000264
0.000261
0.000207
0.000227
0.000280
0.000242
0.002283
0.000378
0.000232
0.000249
0.000264
0.000262
0.000266
0.000260
0.000262
0.000256
0.000270
0.000274
0.000188
0.000056
0.000196
0.000204
0.000247
0.000225
0.000238
0.000254
0.000240
0.000249
0.000232
0.002183
0.000247
0.000280
0.000210
0.000480
0.000208
0.000227
0.000253
0.000274
0.000261
0.000258
0.002044
0.000243
0.000373
0.000369
0.000487
0.000347
0.000288
0.000269
0.000206
0.000252
0.000198
0.000056
0.000208
0.000210
0.000228
0.000250
0.000318
0.000314
0.000204
0.002328
0.000221
0.000230
0.000223
0.000252
0.000234
0.000250
0.000303
0.002203
0.000527
0.000228
0.000235
0.000262
0.000246
0.000261
0.000281
0.000272
0.000267
0.000251
0.000290
0.000256
0.000265
0.000308
0.000165
0.000056
0.000207
0.002992
0.000249
0.000217
0.000233
0.000252
0.000247
0.000316
0.000372
0.000397
0.002127
0.000255
0.000242
0.000257
0.000286
0.000628
0.000325
0.000304
0.000219
0.000221
0.000237
0.000253
0.000265
0.000238
0.000242
0.000269
0.000266
0.000268
0.000321
0.000686
0.000333
0.000056
0.000203
0.000270
0.000264
0.000214
0.000230
0.000247
0.000248
0.000246
0.001555
0.002125
0.000517
0.000269
0.000391
0.000868
0.000268
0.000205
0.000214
0.000235
0.000271
0.000252
0.000276
0.000225
0.000264
0.000270
0.001826
0.001447
0.000283
0.000279
0.000278
0.000272
0.000474
0.000057
0.001924
0.000234
0.000231
0.000204
0.000267
0.000387
0.000470
0.000291
0.000312
0.000254
0.000207
0.000215
0.000240
0.000254
0.000262
0.000263
0.000251
0.000273
0.001910
0.000215
0.000234
0.000221
0.000255
0.000283
0.000268
0.000262
0.001549
0.000337
0.000213
0.000242
0.000153
0.000058
0.000186
0.000210
0.000229
0.000237
0.000254
0.000240
0.000325
0.000361
0.000441
0.000328
0.000199
0.000209
0.000336
0.000337
0.000367
0.000326
0.000222
0.000214
0.000256
0.000318
0.000538
0.000497
0.000212
0.000213
0.000255
0.000260
0.000260
0.000256
0.000277
0.000257
0.000225
0.000057
0.001436
0.000404
0.000235
0.002017
0.000264
0.000471
0.000397
0.000282
0.000208
0.000212
0.000253
0.000249
0.000265
0.000228
0.000266
0.000288
0.000435
0.000265
0.000501
0.000344
0.000332
0.000226
0.000219
0.000267
0.000354
0.000240
0.000217
0.000283
0.000331
0.000528
0.001381
0.000057
0.000184
0.000226
0.002063
0.000276
0.000318
0.000267
0.000253
0.000257
0.000260
0.000260
0.000242
0.000230
0.000242
0.000261
0.000266
0.000368
0.000699
0.001739
0.000257
0.000260
0.000249
0.000258
0.000384
0.000483
0.001530
0.000270
0.000355
0.002023
0.000227
0.000230
0.000198
0.000056
0.000210
0.000207
0.000218
0.000267
0.000226
0.000242
0.000243
0.000288
0.000332
0.000306
0.000378
0.000369
0.000335
0.000293
0.000231
0.000235
0.000261
0.000239
0.000269
0.000275
0.000273
0.000309
0.000250
0.000265
0.000269
0.001584
0.000292
0.000397
0.001995
0.000254
0.000156
0.000056
0.000215
0.000209
0.000228
0.000245
0.000470
0.000238
0.000240
0.000346
0.000372
0.000396
0.000200
0.000220
0.000248
0.000275
0.000271
0.000336
0.000504
0.000340
0.000290
0.000392
0.000560
0.000381
0.001594
0.000265
0.000245
0.002034
0.000327
0.000227
0.000223
0.000248
0.000208
0.000057
0.000193
0.000224
0.000231
0.000216
0.000249
0.000273
0.000251
0.000271
0.000256
0.000248
0.001886
0.000299
0.000395
0.000317
0.000460
0.000360
0.001511
0.000340
0.000233
0.000313
0.002058
0.000597
0.000232
0.000214
0.000242
0.000253
0.000509
0.000255
0.000222
0.000277
0.000214
0.000057
0.000295
0.000358
0.000377
0.000259
0.000225
0.000213
0.000244
0.000252
0.000281
0.000300
0.000227
0.000237
0.000251
0.000258
0.000331
0.000523
0.001297
0.000260
0.000337
0.001909
0.000367
0.000270
0.000213
0.000243
0.000253
0.000269
0.000268
0.000270
0.000238
0.000275
0.000210
0.000056
0.000258
0.000463
0.002024
0.000219
0.000241
0.000210
0.000208
0.000369
0.000384
0.001500
0.000330
0.000370
0.000338
0.001996
0.000234
0.000239
0.000266
0.000261
0.000257
0.000228
0.000299
0.000279
0.000281
0.000357
0.000482
0.000361
0.000374
0.002167
0.000498
0.000508
0.000409
0.000056
0.000223
0.000206
0.000220
0.002043
0.000192
0.000217
0.000233
0.000270
0.000213
0.000233
0.000249
0.000264
0.000247
0.000366
0.000423
0.000388
0.001279
0.000235
0.000265
0.000264
0.000237
0.000244
0.000272
0.000257
0.000396
0.000460
0.000397
0.000276
0.001667
0.000230
0.000151
0.000056
0.000198
0.000207
0.000222
0.000239
0.000238
0.000259
0.000252
0.000250
0.000290
0.000316
0.000389
0.001491
0.000208
0.000211
0.000210
0.000266
0.000257
0.000258
0.000276
0.000634
0.000340
0.000411
0.000215
0.001557
0.000269
0.000229
0.000277
0.000276
0.000253
0.000270
0.000211
0.000057
0.000200
0.000213
0.000245
0.000271
0.000250
0.000243
0.000241
0.000230
0.000258
0.000252
0.000244
0.000257
0.000255
0.000254
0.001588
0.000234
0.000225
0.000282
0.000341
0.000319
0.000383
0.000249
0.000208
0.000250
0.000241
0.000264
0.001474
0.000300
0.000206
0.000241
0.000151
0.000056
0.000191
0.000216
0.000229
0.000269
0.000287
0.000208
0.000242
0.000269
0.000214
0.000265
0.000250
0.000256
0.000229
0.000366
0.000326
0.000420
0.000225
0.001574
0.000342
0.000218
0.000219
0.000241
0.000239
0.000323
0.000439
0.000413
0.000416
0.000238
0.000220
0.001590
0.000201
0.000056
0.000316
0.000381
0.000338
0.000299
0.000210
0.000205
0.000239
0.000264
0.000262
0.000241
0.000258
0.000219
0.001475
0.000319
0.000298
0.000230
0.000207
0.000256
0.000269
0.000263
0.000255
0.000241
0.000258
0.000268
0.000254
0.000405
0.000488
0.000317
0.000315
0.000218
0.000181
0.000055
0.000219
0.000234
0.000396
0.000564
0.000243
0.000232
0.000242
0.000218
0.000251
0.000254
0.000246
0.000227
0.000256
0.000247
0.001360
0.000256
0.000219
0.000225
0.000249
0.000263
0.000256
0.000252
0.000260
0.000253
0.000261
0.000251
0.000270
0.000702
0.000498
0.000244
0.000180
0.000056
0.000197
0.001526
0.000391
0.000279
0.000378
0.000406
0.000198
0.000225
0.000269
0.000263
0.000231
0.000257
0.000269
0.000275
0.000262
0.001541
0.000250
0.000268
0.000257
0.000265
0.000261
0.000249
0.000275
0.000262
0.000257
0.000286
0.000482
0.000357
0.000360
0.000217
0.000156
0.000056
0.000212
0.000204
0.000240
0.001802
0.000317
0.000338
0.000220
0.000184
0.000238
0.000268
0.000275
0.000264
0.000248
0.000261
0.000232
0.000267
0.000452
0.001354
0.000202
0.000232
0.001534
0.000304
0.000578
0.000416
0.000288
0.000222
0.000253
0.000463
0.000245
0.000245
0.000206
0.000055
0.000296
0.000224
0.000203
0.000248
0.000239
0.000258
0.000238
0.000254
0.000260
0.000243
0.000246
0.000260
0.000332
0.000512
0.001636
0.001488
0.000394
0.000582
0.000256
0.000244
0.000225
0.000256
0.000249
0.000256
0.000246
0.000267
0.000262
0.000270
0.001612
0.000306
0.000136
0.000056
0.000247
0.000326
0.000348
0.000333
0.000263
0.000203
0.000222
0.000379
0.000374
0.001453
0.000334
0.001544
0.000418
0.000374
0.000495
0.000276
0.000323
0.000340
0.000342
0.000279
0.000244
0.000332
0.001572
0.000541
0.000238
0.000234
0.000256
0.000255
0.000255
0.000261
0.000217
0.000056
0.000232
0.000210
0.000250
0.000256
0.000242
0.001662
0.000957
0.000896
0.000244
0.000229
0.000254
0.000263
0.000251
0.000258
0.000254
0.000251
0.000256
0.000268
0.000260
0.000280
0.001510
0.000270
0.000254
0.000222
0.000240
0.000246
0.000247
0.000270
0.000271
0.000279
0.000208
0.000056
0.000186
0.000218
0.001532
0.000999
0.000334
0.000312
0.000229
0.000203
0.000252
0.000231
0.000245
0.000251
0.000250
0.002147
0.000383
0.000210
0.000216
0.000226
0.000270
0.000246
0.000211
