0.000106
0.017795
0.003682
0.000291
0.000256
0.000306
0.000323
0.000229
0.000332
0.000277
0.000258
0.000332
0.000559
0.000467
0.000408
0.000290
0.000292
0.000331
0.000352
0.000422
0.000317
0.001925
0.000699
0.000265
0.000238
0.000305
0.000319
0.000308
0.000424
0.000384
0.000602
0.000284
0.000057
0.000214
0.000268
0.000267
0.000302
0.000240
0.000251
0.000274
0.000294
0.000263
0.000284
0.000410
0.000518
0.000232
0.000251
0.000374
0.000354
0.000367
0.000248
0.000251
0.001701
0.000311
0.000262
0.000456
0.000249
0.000263
0.000281
0.000289
0.000296
0.000277
0.000338
0.000431
0.000056
0.000234
0.000256
0.000263
0.000258
0.000252
0.000247
0.000266
0.000249
0.000291
0.001667
0.000224
0.000235
0.000282
0.000260
0.000275
0.000255
0.000265
0.000249
0.000356
0.001800
0.000248
0.000269
0.000448
0.000427
0.000390
0.000242
0.000248
0.000551
0.000493
0.000698
0.000201
0.000058
0.000225
0.000245
0.000245
0.000247
0.000289
0.000273
0.000391
0.000497
0.000362
0.000244
0.000247
0.000244
0.000246
0.000255
0.000248
0.000259
0.000243
0.000270
0.000294
0.000391
0.001610
0.000291
0.000228
0.000422
0.000684
0.000364
0.000593
0.000568
0.000334
0.000236
0.000188
0.000076
0.000202
0.000251
0.000295
0.000208
0.000286
0.000227
0.000288
0.000474
0.001441
0.000219
0.000244
0.000242
0.000257
0.000257
0.000260
0.000303
0.000293
0.000822
0.001330
0.000306
0.000241
0.000418
0.000236
0.000248
0.000257
0.000260
0.000262
0.000272
0.000261
0.000271
0.000196
0.000056
0.000214
0.000241
0.000244
0.000267
0.000237
0.000243
0.000244
0.000248
0.000237
0.000257
0.001627
0.000266
0.000272
0.000209
0.000248
0.000252
0.000245
0.000251
0.000255
0.000253
0.000292
0.001643
0.000303
0.000236
0.000432
0.000257
0.000252
0.000256
0.000270
0.000273
0.000194
0.000056
0.000205
0.000243
0.000238
0.000245
0.000253
0.000242
0.000259
0.000233
0.000270
0.000261
0.000248
0.000255
0.000257
0.000277
0.001634
0.000277
0.000293
0.000220
0.000249
0.000270
0.000279
0.000226
0.000246
0.000266
0.001793
0.000415
0.000316
0.000372
0.000236
0.000283
0.000194
0.000057
0.000201
0.000241
0.000248
0.000268
0.000262
0.000261
0.000248
0.000456
0.000356
0.000448
0.000206
0.000251
0.000252
0.000249
0.001574
0.000549
0.000321
0.000380
0.000321
0.000229
0.000267
0.000281
0.000275
0.001756
0.000520
0.000434
0.000243
0.000250
0.000252
0.000259
0.000183
0.000057
0.000220
0.000231
0.000250
0.000303
0.000293
0.000454
0.000425
0.000226
0.000216
0.000247
0.000256
0.000240
0.000258
0.001701
0.000490
0.000302
0.000220
0.000254
0.000269
0.000292
0.000242
0.000258
0.000274
0.001958
0.000244
0.000384
0.000243
0.000260
0.000262
0.000399
0.000323
0.000057
0.000207
0.000400
0.000352
0.000266
0.000263
0.000244
0.000249
0.000257
0.000238
0.000237
0.000237
0.000252
0.001555
0.000410
0.000257
0.000217
0.000263
0.000245
0.000253
0.000307
0.000347
0.000233
0.000241
0.001812
0.000254
0.000500
0.000240
0.000259
0.000252
0.000272
0.000262
0.000056
0.000363
0.000581
0.000628
0.000190
0.000234
0.000277
0.000226
0.000221
0.000262
0.000248
0.000260
0.001694
0.000257
0.000440
0.000367
0.000215
0.000238
0.000226
0.000253
0.000263
0.000256
0.001874
0.000202
0.000472
0.001854
0.000555
0.000339
0.000249
0.000274
0.000250
0.000181
0.000056
0.000200
0.000234
0.000250
0.000240
0.000257
0.001622
0.000246
0.000264
0.000232
0.000250
0.000244
0.000239
0.000252
0.000257
0.000283
0.000407
0.000626
0.000250
0.000234
0.000272
0.000279
0.000234
0.000244
0.000434
0.000435
0.000258
0.000365
0.000732
0.000261
0.000257
0.000210
0.000056
0.000223
0.000238
0.000250
0.000251
0.000240
0.000238
0.000248
0.000369
0.000447
0.001723
0.000222
0.000232
0.000265
0.000232
0.000253
0.000341
0.000331
0.000607
0.000262
0.000229
0.000261
0.000308
0.000281
0.000252
0.000268
0.000436
0.000343
0.000601
0.000528
0.000384
0.000179
0.000056
0.000200
0.000253
0.000238
0.000242
0.000239
0.000235
0.000248
0.000261
0.000232
0.000285
0.000338
0.000444
0.001387
0.000244
0.000232
0.000250
0.000257
0.000264
0.000232
0.000286
0.000253
0.000542
0.000331
0.000252
0.000274
0.000248
0.000250
0.000287
0.000257
0.000271
0.000374
0.000057
0.000212
0.000252
0.000210
0.000375
0.000433
0.000437
0.000220
0.000262
0.000241
0.000257
0.000258
0.000228
0.000322
0.000224
0.000235
0.000484
0.000460
0.001599
0.000299
0.000211
0.000260
0.000264
0.000257
0.000265
0.000235
0.000476
0.000464
0.000319
0.000414
0.000249
0.000196
0.000072
0.000223
0.000431
0.000237
0.000215
0.000287
0.000224
0.000250
0.000620
0.000319
0.000312
0.000231
0.000278
0.000260
0.000238
0.000530
0.000327
0.000223
0.000255
0.000427
0.001619
0.000260
0.000256
0.000511
0.000254
0.000283
0.000274
0.000250
0.000408
0.000500
0.000371
0.000263
0.000055
0.000216
0.000232
0.000242
0.000240
0.000421
0.000304
0.000290
0.000218
0.000421
0.000448
0.000384
0.000251
0.000230
0.000248
0.000254
0.000272
0.000256
0.000253
0.000239
0.000346
0.000289
0.000310
0.001892
0.000217
0.000259
0.000249
0.000288
0.000342
0.000411
0.000714
0.000512
0.000056
0.000226
0.000335
0.000337
0.000387
0.000386
0.000203
0.000254
0.000379
0.000489
0.000360
0.000253
0.000245
0.000235
0.000267
0.000264
0.000246
0.000240
0.000271
0.000272
0.000258
0.000263
0.000433
0.000745
0.001233
0.000341
0.000415
0.000426
0.000230
0.000408
0.000449
0.000357
0.000056
0.000225
0.000380
0.000285
0.000204
0.000242
0.000234
0.000415
0.000235
0.000232
0.000463
0.000415
0.000369
0.000237
0.000259
0.000261
0.000242
0.000355
0.000412
0.000330
0.000244
0.000248
0.000420
0.000628
0.001657
0.000225
0.000424
0.000317
0.000221
0.000261
0.000456
0.000361
0.000057
0.000198
0.000228
0.000245
0.000258
0.000249
0.000235
0.000272
0.000308
0.000459
0.000357
0.000350
0.000423
0.000247
0.000578
0.000247
0.000240
0.000276
0.000264
0.000238
0.000340
0.000221
0.000244
0.000268
0.000416
0.000578
0.001574
0.000260
0.000241
0.000248
0.000271
0.000187
0.000057
0.000464
0.000428
0.000232
0.000210
0.000252
0.000240
0.000256
0.000245
0.000266
0.000241
0.000225
0.000259
0.000399
0.000638
0.000306
0.000263
0.000253
0.000250
0.000332
0.000381
0.000383
0.000340
0.000361
0.000394
0.000247
0.000266
0.000263
0.000269
0.001796
0.000241
0.000202
0.000058
0.000204
0.000218
0.000257
0.000298
0.000327
0.000542
0.000323
0.000218
0.000278
0.000244
0.000245
0.000248
0.000529
0.000441
0.000489
0.000272
0.000267
0.000260
0.000417
0.000468
0.000360
0.000425
0.000564
0.000354
0.000230
0.000250
0.000260
0.000252
0.000263
0.001722
0.000335
0.000057
0.000210
0.000316
0.000233
0.000218
0.000255
0.000249
0.000235
0.000498
0.000379
0.000307
0.000293
0.000310
0.000310
0.000706
0.000286
0.000235
0.000251
0.000257
0.000253
0.000267
0.000276
0.000257
0.000240
0.000269
0.000328
0.000336
0.000442
0.000322
0.000240
0.000249
0.000195
0.000057
0.000447
0.000362
0.000426
0.000225
0.000206
0.000254
0.000241
0.000257
0.000243
0.000220
0.000250
0.000279
0.000302
0.000392
0.000445
0.000577
0.000264
0.000332
0.000348
0.000347
0.000295
0.000246
0.000237
0.000269
0.001759
0.000237
0.001719
0.000967
0.000455
0.000248
0.000160
0.000058
0.000200
0.000263
0.000211
0.000239
0.000273
0.000237
0.000255
0.000252
0.000245
0.000307
0.000478
0.000316
0.000343
0.000393
0.000256
0.000238
0.000242
0.000287
0.000235
0.000252
0.000246
0.000265
0.001817
0.000238
0.000252
0.000264
0.000279
0.000265
0.001867
0.000649
0.000184
0.000057
0.000192
0.000227
0.000228
0.000244
0.000267
0.000238
0.000240
0.000255
0.000261
0.000340
0.000612
0.000300
0.000376
0.000220
0.000255
0.000247
0.000323
0.000435
0.000368
0.000266
0.001774
0.000258
0.000242
0.000251
0.000261
0.000270
0.000243
0.000255
0.000320
0.000296
0.000396
0.000057
0.000231
0.000214
0.000240
0.000273
0.000235
0.000243
0.000254
0.000257
0.000239
0.000257
0.000241
0.000309
0.000351
0.000435
0.000348
0.000226
0.000457
0.000233
0.000262
0.000249
0.000255
0.000263
0.000272
0.000260
0.000274
0.001789
0.000250
0.000241
0.000265
0.000236
0.000209
0.000056
0.000407
0.000263
0.000189
0.000226
0.000242
0.000227
0.000241
0.000262
0.000243
0.000223
0.000235
0.000261
0.000261
0.000369
0.000392
0.000428
0.000246
0.000248
0.000227
0.000252
0.000258
0.000262
0.000251
0.000273
0.000250
0.000261
0.000320
0.001624
0.000268
0.000236
0.000192
0.000057
0.000197
0.000230
0.000250
0.000268
0.000345
0.000406
0.000393
0.000294
0.000203
0.000252
0.000272
0.000230
0.000237
0.000255
0.000264
0.000257
0.000246
0.000262
0.000248
0.000263
0.000266
0.000265
0.000254
0.000237
0.000244
0.000274
0.000280
0.000261
0.000256
0.000252
0.000200
0.000057
0.000235
0.000220
0.000251
0.000280
0.000231
0.000235
0.000238
0.000269
0.000272
0.000244
0.000232
0.000243
0.000256
0.000249
0.000295
0.000235
0.000255
0.000246
0.000307
0.000247
0.000268
0.000326
0.000271
0.000217
0.000311
0.000245
0.000270
0.000250
0.000285
0.000428
0.000556
0.000056
0.000220
0.000296
0.000220
0.000221
0.000250
0.000245
0.000241
0.000249
0.000262
0.000232
0.000271
0.000307
0.000467
0.000483
0.001543
0.000246
0.000474
0.000227
0.000397
0.000334
0.000500
0.000301
0.000224
0.000291
0.000247
0.000256
0.000283
0.000249
0.000327
0.000260
0.000168
0.000057
0.000326
0.000452
0.000327
0.000320
0.000228
0.000278
0.000219
0.000245
0.000239
0.000243
0.000254
0.000256
0.000237
0.000308
0.000319
0.000550
0.000332
0.001805
0.000230
0.000250
0.000296
0.000459
0.000499
0.000254
0.000315
0.000319
0.000300
0.000233
0.000233
0.000252
0.000188
0.000056
0.000219
0.000226
0.000240
0.000306
0.000330
0.000508
0.000293
0.000253
0.000253
0.000214
0.000255
0.000266
0.000269
0.000262
0.000240
0.000266
0.000277
0.000525
0.000390
0.000375
0.000229
0.001754
0.000324
0.000486
0.000608
0.000375
0.000327
0.000232
0.000248
0.000269
0.000450
0.000060
0.000205
0.000264
0.000216
0.000374
0.000337
0.000506
0.000318
0.000241
0.000229
0.000290
0.000246
0.000259
0.000254
0.000295
0.000306
0.000229
0.000241
0.000343
0.000623
0.000234
0.000496
0.001850
0.000253
0.000566
0.000419
0.000302
0.000233
0.000259
0.000293
0.000260
0.000198
0.000086
0.000191
0.000327
0.000359
0.000383
0.000340
0.000292
0.000374
0.000218
0.000236
0.000257
0.000278
0.000228
0.000249
0.000276
0.000224
0.000258
0.000356
0.000341
0.000553
0.000330
0.000288
0.000235
0.000259
0.001718
0.000586
0.000374
0.000650
0.000235
0.000263
0.000313
0.000157
0.000056
0.000200
0.000240
0.000328
0.000231
0.000287
0.000414
0.000360
0.000305
0.000257
0.000505
0.000223
0.000254
0.000259
0.000279
0.000288
0.000250
0.000212
0.000411
0.000495
0.000354
0.000261
0.000232
0.000252
0.000258
0.000264
0.000266
0.000238
0.000255
0.000294
0.000265
0.000234
0.000056
0.000318
0.000324
0.000215
0.000257
0.000245
0.000260
0.000238
0.000289
0.000244
0.000242
0.000282
0.000338
0.000437
0.000538
0.000232
0.000233
0.000234
0.000224
0.000251
0.000270
0.000288
0.000271
0.000228
0.000261
0.000279
0.000304
0.000357
0.000430
0.000370
0.000227
0.000184
0.000056
0.000211
0.000225
0.000280
0.000248
0.000241
0.000263
0.000266
0.000233
0.000489
0.000220
0.000254
0.000260
0.000241
0.000268
0.000262
0.000300
0.000239
0.000349
0.000212
0.000247
0.000255
0.000288
0.000242
0.000267
0.000273
0.000264
0.000263
0.000249
0.000270
0.000486
0.000168
0.000057
0.000216
0.000234
0.000248
0.000293
0.000217
0.000230
0.000372
0.000396
0.000233
0.000236
0.000253
0.000257
0.000239
0.000283
0.000435
0.001778
0.000226
0.000264
0.000288
0.000327
0.000406
0.000366
0.000359
0.000441
0.000344
0.000405
0.000243
0.000273
0.000269
0.000275
0.001385
0.000056
0.000410
0.000332
0.000263
0.000179
0.000242
0.000250
0.000233
0.000256
0.000242
0.000271
0.000246
0.000260
0.000250
0.000326
0.000521
0.001624
0.000233
0.000221
0.000256
0.000262
0.000239
0.000264
0.000388
0.000386
0.000439
0.000191
0.000239
0.000248
0.000275
0.000263
0.000207
0.000056
0.001184
0.000617
0.000270
0.000248
0.000230
0.000237
0.000220
0.000244
0.000499
0.000220
0.000226
0.000292
0.000295
0.000530
0.000435
0.000303
0.000255
0.000232
0.000336
0.000359
0.000266
0.000255
0.000272
0.000246
0.000268
0.000596
0.000504
0.000289
0.000267
0.000262
0.000176
0.000058
0.000198
0.000226
0.000241
0.000243
0.001553
0.000223
0.000215
0.000255
0.000263
0.000248
0.000229
0.000253
0.000246
0.000259
0.000270
0.000303
0.000421
0.000700
0.000213
0.001757
0.000251
0.000281
0.000271
0.000426
0.000644
0.000336
0.000252
0.000242
0.000260
0.000273
0.000196
0.000057
0.000207
0.000259
0.000233
0.000316
0.001251
0.000244
0.000251
0.000256
0.000249
0.000227
0.000240
0.000256
0.000278
0.000260
0.000231
0.000284
0.000471
0.000500
0.000256
0.000254
0.000265
0.000268
0.000246
0.000257
0.000264
0.000272
0.000235
0.000282
0.000271
0.000368
0.000597
0.000056
0.000229
0.000248
0.000230
0.000266
0.000263
0.000244
0.000240
0.000255
0.000286
0.000263
0.001417
0.000220
0.000239
0.000247
0.000248
0.000244
0.000293
0.000243
0.000284
0.000241
0.000269
0.000485
0.000464
0.000392
0.000223
0.000275
0.001765
0.000250
0.000260
0.000312
0.000475
0.000057
0.000188
0.000405
0.000451
0.000516
0.000501
0.000538
0.001505
0.000409
0.000523
0.000654
0.000548
0.000700
0.000505
0.000618
0.000578
0.001886
0.000413
0.000418
0.000412
0.000319
0.000229
0.000265
0.000286
0.000267
0.000253
0.000296
0.000288
0.000288
0.000261
0.000284
0.001370
0.000056
0.000210
0.000222
0.000250
0.000242
0.000247
0.000263
0.000229
0.000240
0.000247
0.000261
0.000239
0.000239
0.000260
0.000247
0.000274
0.000266
0.001812
0.000257
0.000261
0.000248
0.000261
0.000263
0.000265
0.000385
0.000394
0.000456
0.000233
0.000242
0.000242
0.000277
0.000210
0.000058
0.000223
0.001341
0.000333
0.000274
0.000249
0.000233
0.000271
0.000206
0.000234
0.000234
0.000217
0.000253
0.000257
0.000503
0.000364
0.000304
0.000247
0.001824
0.000350
0.000225
0.000248
0.000270
0.000254
0.000260
0.000281
0.000281
0.000268
0.000251
0.000269
0.000368
0.000159
0.000057
0.000213
0.000240
0.000255
0.001449
0.000213
0.000238
0.000261
0.000238
0.000237
0.000275
0.000259
0.000233
0.000245
0.000285
0.000239
0.000249
0.000261
0.000267
0.000267
0.000257
0.000259
0.001790
0.000274
0.001745
0.000269
0.000241
0.000263
0.000277
0.000274
0.000269
0.000202
0.000056
0.000212
0.000235
0.001341
0.000234
0.000252
0.000248
0.000258
0.000254
0.000246
0.000246
0.000258
0.000238
0.000251
0.000270
0.000260
0.000257
0.000260
0.000291
0.000289
0.000229
0.001891
0.000217
0.001840
0.000250
0.000254
0.000273
0.000224
0.000257
0.000247
0.000280
0.000195
0.000056
0.001448
0.000221
0.000231
0.000244
0.000239
0.000238
0.000378
0.000282
0.000245
0.000245
0.000250
0.000260
0.000289
0.000412
0.000288
0.000308
0.000237
0.000267
0.000256
0.000247
0.000278
0.000344
0.000217
0.000259
0.000263
0.000281
0.000276
0.000433
0.000535
0.000374
0.000195
0.000058
0.000201
0.000258
0.000260
0.000303
0.000365
0.000256
0.001655
0.000339
0.000287
0.000263
0.000260
0.000264
0.000280
0.000250
0.000306
0.000318
0.000349
0.000631
0.000299
0.000260
0.000293
0.000287
0.000264
0.000266
0.000324
0.000261
0.000274
0.000246
0.000250
0.000296
0.000481
0.000056
0.000351
0.000396
0.000251
0.000262
0.000255
0.000218
0.000225
0.000252
0.000257
0.000274
0.001488
0.000238
0.000227
0.000249
0.000243
0.000288
0.000286
0.000235
0.000254
0.000272
0.000256
0.000317
0.000589
0.000323
0.000274
0.000284
0.000266
0.000256
0.000229
0.000319
0.000173
0.000057
0.000201
0.000237
0.000350
0.000494
0.000262
0.000284
0.000220
0.000246
0.000252
0.000245
0.000243
0.000269
0.000239
0.000267
0.000238
0.000240
0.000444
0.001167
0.000246
0.000241
0.000278
0.000248
0.000385
0.000398
0.000247
0.000284
0.000661
0.000356
0.000330
0.000237
0.000178
0.000057
0.000235
0.000245
0.000262
0.000261
0.000248
0.000259
0.000326
0.000481
0.000392
0.000268
0.000347
0.000393
0.000397
0.000360
0.000257
0.000241
0.000240
0.000303
0.000423
0.000466
0.001199
0.000221
0.000275
0.000271
0.000233
0.000252
0.000248
0.000338
0.000419
0.000410
0.000251
0.000058
0.000197
0.000247
0.000256
0.000245
0.000236
0.000248
0.000234
0.000268
0.000299
0.000308
0.000446
0.000393
0.000247
0.000235
0.000251
0.000260
0.000249
0.000258
0.000269
0.000273
0.000422
0.000273
0.000317
0.000478
0.000291
0.000245
0.000277
0.000264
0.000256
0.000337
0.000159
0.000056
0.000319
0.000328
0.000289
0.000487
0.000346
0.000361
0.000240
0.000235
0.000252
0.000295
0.000230
0.000266
0.000236
0.000249
0.000243
0.000230
0.000285
0.000338
0.000561
0.000291
0.000235
0.000253
0.000249
0.000247
0.000269
0.000282
0.000267
0.000275
0.000266
0.000270
0.000249
0.000057
0.000378
0.000276
0.000216
0.000275
0.000218
0.000247
0.000246
0.000257
0.000263
0.000255
0.000255
0.000233
0.000297
0.000495
0.000423
0.000289
0.000235
0.000248
0.000260
0.000275
0.000249
0.000257
0.000256
0.000269
0.000275
0.000357
0.000461
0.000519
0.000394
0.000255
0.000169
0.000056
0.000397
0.000195
0.000239
0.000244
0.000251
0.000244
0.000235
0.000256
0.000258
0.000259
0.000220
0.000263
0.000263
0.000211
0.000250
0.000262
0.000256
0.000260
0.000296
0.000244
0.000258
0.000254
0.000269
0.000264
0.000266
0.000239
0.000263
0.000276
0.000266
0.000270
0.000204
0.000057
0.000199
0.000236
0.000248
0.000249
0.000230
0.000261
0.000260
0.000239
0.000255
0.000282
0.000231
0.000233
0.000259
0.000388
0.000262
0.000293
0.000246
0.000262
0.000256
0.000282
0.000271
0.000259
0.000221
0.000251
0.000277
0.000266
0.000251
0.000249
0.000274
0.000265
0.000207
0.000056
0.000214
0.000365
0.000364
0.000281
0.000300
0.000249
0.000271
0.000255
0.000223
0.000253
0.000272
0.000234
0.000251
0.000235
0.000262
0.000278
0.000243
0.000267
0.000242
0.000262
0.000282
0.000258
0.000278
0.000254
0.000290
0.000252
0.000238
0.000270
0.000272
0.000257
0.000200
0.000056
0.000219
0.000231
0.000262
0.000271
0.000243
0.000449
0.000209
0.000273
0.000249
0.000518
0.000422
0.000292
0.000229
0.000247
0.000268
0.000263
0.000261
0.000251
0.000253
0.000269
0.000268
0.000260
0.000258
0.000292
0.000627
0.000389
0.000273
0.000295
0.000264
0.000278
0.000177
0.000057
0.000213
0.000211
0.000250
0.000254
0.000497
0.000526
0.000278
0.000368
0.000208
0.000247
0.000248
0.000268
0.000236
0.000248
0.000256
0.000275
0.000272
0.000254
0.000682
0.000324
0.000304
0.000241
0.000256
0.000282
0.000302
0.000234
0.000262
0.000286
0.000236
0.000329
0.000297
0.000056
0.000293
0.000234
0.000239
0.000241
0.000250
0.000266
0.000234
0.000231
0.000241
0.000263
0.000242
0.000252
0.000267
0.000381
0.000591
0.000393
0.000209
0.000259
0.000259
0.000247
0.000265
0.000291
0.000473
0.000218
0.000267
0.000640
0.000346
0.000506
0.000253
0.000254
0.000187
0.000056
0.000218
0.000232
0.000244
0.000244
0.000256
0.000260
0.000340
0.000430
0.000550
0.000428
0.000214
0.000264
0.000274
0.000276
0.000254
0.000248
0.000238
0.000247
0.000278
0.000323
0.000435
0.000609
0.000369
0.000245
0.000361
0.000387
0.000484
0.000241
0.000264
0.000538
0.000253
0.000056
0.000169
0.000233
0.000441
0.000215
0.000241
0.000278
0.000238
0.000257
0.000229
0.000245
0.000274
0.000468
0.000437
0.000203
0.000224
0.000245
0.000265
0.000246
0.000261
0.000282
0.000295
0.000234
0.000250
0.000270
0.000295
0.000584
0.000397
0.000239
0.000264
0.000270
0.000199
0.000056
0.000200
0.000283
0.000210
0.000245
0.000247
0.000296
0.000364
0.000365
0.000433
0.000268
0.000382
0.000219
0.000252
0.000266
0.000254
0.000246
0.000265
0.000248
0.000307
0.000380
0.000474
0.000339
0.000479
0.000264
0.000388
0.000422
0.000400
0.000220
0.000263
0.000342
0.000339
0.000056
0.000267
0.000272
0.000219
0.000255
0.000284
0.000239
0.000267
0.000228
0.000268
0.000241
0.000235
0.000336
0.000470
0.000380
0.000362
0.000234
0.000266
0.000267
0.000263
0.000237
0.000248
0.000256
0.000283
0.000253
0.000278
0.000345
0.000481
0.000471
0.000238
0.000283
0.000190
0.000056
0.000225
0.000222
0.000273
0.000250
0.000243
0.000332
0.000557
0.000426
0.000490
0.000551
0.000255
0.000222
0.000241
0.000262
0.000249
0.000281
0.000261
0.000272
0.000475
0.000469
0.001466
0.000307
0.000265
0.000266
0.000288
0.000261
0.000544
0.000263
0.000324
0.000339
0.000180
0.000057
0.000209
0.000228
0.000246
0.000263
0.000234
0.000246
0.000306
0.000222
0.000247
0.000325
0.000332
0.000382
0.000272
0.000330
0.000395
0.000351
0.000248
0.000245
0.000267
0.000260
0.000244
0.000243
0.000314
0.000217
0.000349
0.000416
0.000468
0.000246
0.000253
0.000269
0.000195
0.000056
0.000219
0.000250
0.000260
0.000257
0.000241
0.000233
0.000471
0.000215
0.000230
0.000249
0.000245
0.000253
0.000264
0.000257
0.000254
0.000264
0.000259
0.000294
0.000260
0.000240
0.000283
0.000269
0.000287
0.000245
0.000268
0.000279
0.000265
0.000266
0.000262
0.000273
0.000171
0.000056
0.000225
0.000247
0.000469
0.000232
0.000384
0.000255
0.000238
0.000247
0.000263
0.000246
0.000249
0.000257
0.000263
0.000257
0.000234
0.000252
0.000265
0.000248
0.000320
0.000318
0.000541
0.000284
0.000221
0.000267
0.000263
0.000257
0.000267
0.000256
0.000298
0.000251
0.000202
0.000056
0.000343
0.000432
0.000391
0.000209
0.000251
0.000259
0.000409
0.000223
0.000227
0.000251
0.000257
0.000292
0.000356
0.000554
0.001748
0.000252
0.000241
0.000255
0.000287
0.000232
0.000312
0.000498
0.000625
0.000257
0.000238
0.000258
0.000277
0.000423
0.000279
0.000280
0.000159
0.000057
0.000207
0.000372
0.000311
0.000346
0.000493
0.000204
0.000241
0.000243
0.000255
0.000242
0.000260
0.000249
0.000262
0.000302
0.000554
0.000336
0.000228
0.000246
0.000264
0.000258
0.000260
0.000320
0.000240
0.000276
0.000274
0.000480
0.000501
0.000390
0.000454
0.000230
0.000198
0.000056
0.000213
0.000241
0.000257
0.000235
0.000244
0.000249
0.000267
0.000296
0.000340
0.000404
0.000389
0.000344
0.000223
0.000250
0.000266
0.000291
0.000301
0.000236
0.000275
0.000267
0.000239
0.000326
0.000449
0.000405
0.000253
0.000259
0.000259
0.000453
0.000401
0.000298
0.000189
0.000056
0.000207
0.000259
0.000307
0.000490
0.000312
0.000213
0.000231
0.000258
0.000259
0.000269
0.000248
0.000254
0.000228
0.000256
0.000261
0.000354
0.000297
0.000398
0.000297
0.000345
0.000494
0.000225
0.000278
0.000273
0.000302
0.000288
0.000248
0.000272
0.000467
0.000477
0.000237
0.000056
0.000209
0.000226
0.000250
0.000250
0.000236
0.000482
0.000220
0.000250
0.000264
0.000279
0.000517
0.000606
0.000220
0.000244
0.000238
0.000254
0.000255
0.000271
0.000233
0.000251
0.000289
0.000246
0.000355
0.000448
0.000328
0.000403
0.000307
0.000296
0.000326
0.000252
0.000181
0.000056
0.000228
0.000232
0.000252
0.000496
0.000326
0.000283
0.000277
0.000216
0.000237
0.000263
0.000251
0.000256
0.000269
0.000245
0.000245
0.000262
0.000245
0.000251
0.000254
0.000394
0.000527
0.000369
0.000238
0.000245
0.000293
0.000261
0.000260
0.000254
0.000265
0.000268
0.000193
0.000057
0.000272
0.000398
0.000437
0.000242
0.000220
0.000262
0.000312
0.000461
0.000290
0.000203
0.000245
0.000270
0.000259
0.000639
0.000285
0.000235
0.000246
0.000230
0.000258
0.000266
0.000263
0.000264
0.000264
0.000279
0.000261
0.000310
0.000434
0.000470
0.000206
0.000240
0.000194
0.000057
0.000230
0.000242
0.000245
0.000255
0.000252
0.000265
0.000226
0.000274
0.000250
0.000233
0.000289
0.000215
0.000292
0.001432
0.000221
0.000254
0.000261
0.000244
0.000282
0.000271
0.000263
0.000251
0.000266
0.000252
0.000273
0.000260
0.000273
0.000268
0.000271
0.000261
0.000189
0.000056
0.000197
0.000229
0.000251
0.000271
0.000219
0.000252
0.000253
0.000256
0.000226
0.000243
0.000255
0.000269
0.000268
0.000232
0.000259
0.000260
0.000252
0.000256
0.000277
0.000253
0.000252
0.000266
0.000243
0.000254
0.001291
0.000270
0.000634
0.000434
0.000278
0.000248
0.000195
0.000057
0.000202
0.000230
0.000240
0.000255
0.000411
0.000251
0.000238
0.000233
0.000254
0.000347
0.000612
0.000206
0.000241
0.000212
0.000263
0.000260
0.000256
0.000260
0.000248
0.000257
0.000259
0.000259
0.000258
0.000413
0.000571
0.000432
0.000197
0.000266
0.001389
0.000219
0.000189
0.000056
0.000331
0.000387
0.000319
0.000260
0.000245
0.000215
0.000234
0.000253
0.000256
0.000260
0.000242
0.000264
0.000295
0.000273
0.000557
0.000369
0.000322
0.000226
0.000246
0.000256
0.000269
0.000280
0.000254
0.000264
0.000268
0.000265
0.000328
0.000537
0.000408
0.000345
0.000153
0.000058
0.000201
0.000222
0.001312
0.000377
0.000344
0.000405
0.000411
0.000461
0.000267
0.000343
0.000220
0.000229
0.000261
0.000255
0.000247
0.000266
0.000474
0.000372
0.000358
0.000394
0.000269
0.000244
0.000263
0.000497
0.000228
0.000269
0.000258
0.000278
0.000362
0.000495
0.000291
0.000056
0.000375
0.000317
0.000232
0.001432
0.000395
0.000416
0.000322
0.000229
0.000254
0.000250
0.000225
0.000244
0.000244
0.000275
0.000246
0.000260
0.000234
0.000275
0.000397
0.000421
0.000429
0.000244
0.000251
0.000256
0.000281
0.000257
0.000270
0.000231
0.000268
0.000280
0.000201
0.000056
0.000372
0.000340
0.000224
0.000235
0.000255
0.000242
0.000267
0.000232
0.000239
0.000224
0.001419
0.000462
0.000275
0.000235
0.000233
0.000260
0.000269
0.000279
0.000215
0.000309
0.000242
0.000251
0.000290
0.000436
0.000532
0.000296
0.000231
0.000267
0.000267
0.000282
0.000177
0.000057
0.000191
0.000413
0.000221
0.000230
0.000448
0.000366
0.000409
0.000265
0.000452
0.000214
0.000228
0.000249
0.000267
0.000261
0.000261
0.001410
0.000368
0.000294
0.000233
0.000267
0.000295
0.000229
0.000278
0.000231
0.000263
0.000270
0.000442
0.000470
0.000269
0.000275
0.000167
0.000057
0.000214
0.000233
0.000257
0.000240
0.000221
0.000265
0.000237
0.000262
0.000300
0.000308
0.000486
0.000271
0.000238
0.000257
0.000250
0.000271
0.000274
0.000258
0.000272
0.000229
0.000261
0.000377
0.001192
0.000244
0.000271
0.000238
0.000259
0.000273
0.000253
0.000263
0.000185
0.000057
0.000259
0.000303
0.000412
0.000305
0.000241
0.000246
0.000254
0.000287
0.000240
0.000262
0.000242
0.000262
0.000242
0.000272
0.000255
0.000244
0.000266
0.000273
0.000263
0.000246
0.000257
0.000271
0.000262
0.000287
0.000287
0.000262
0.000265
0.000270
0.000272
0.000436
0.001365
0.000056
0.000192
0.000249
0.000221
0.000264
0.000234
0.000259
0.000248
0.000226
0.000243
0.000249
0.000303
0.000233
0.000249
0.000238
0.000277
0.000220
0.001730
0.000263
0.000237
0.000255
0.000250
0.000257
0.000275
0.000260
0.000290
0.000235
0.000273
0.000276
0.000264
0.000263
0.000220
0.000056
0.000254
0.000320
0.001311
0.000217
0.000236
0.000251
0.000258
0.000244
0.000271
0.000245
0.000238
0.000395
0.000365
0.000435
0.000266
0.000221
0.000254
0.000249
0.000263
0.000266
0.000238
0.000283
0.000259
0.000280
0.000259
0.000514
0.000246
0.000371
0.000314
0.000242
0.000196
0.000056
0.000228
0.000246
0.000248
0.000246
0.000279
0.000197
0.000240
0.000287
0.000389
0.001341
0.000265
0.000210
0.000250
0.000276
0.000245
0.000297
0.000233
0.000250
0.000318
0.000466
0.000324
0.000256
0.000246
0.000250
0.000290
0.000269
0.000266
0.000293
0.000268
0.000274
0.000188
0.000056
0.000250
0.000453
0.000359
0.000215
0.000240
0.000232
0.000251
0.000273
0.000264
0.000245
0.000232
0.000251
0.000448
0.000503
0.000492
0.001437
0.000231
0.000295
0.000314
0.000347
0.000473
0.000482
0.000417
0.000399
0.000229
0.000267
0.000263
0.000277
0.000263
0.000275
0.000195
0.000057
0.000214
0.000243
0.000498
0.000456
0.000335
0.000238
0.000247
0.000237
0.000242
0.000272
0.000232
0.000268
0.000284
0.000225
0.000263
0.000303
0.000362
0.000396
0.000390
0.001326
0.000266
0.000251
0.000254
0.000272
0.000496
0.000431
0.000373
0.000241
0.000268
0.000268
0.000192
0.000056
0.000212
0.000241
0.000245
0.000265
0.000231
0.000301
0.000412
0.000492
0.000281
0.000215
0.000239
0.000264
0.000273
0.000285
0.000239
0.000256
0.000256
0.000258
0.000286
0.000266
0.000470
0.000445
0.000289
0.001358
0.000401
0.000240
0.000270
0.000399
0.000565
0.000243
0.000314
0.000058
0.000191
0.000231
0.000243
0.000250
0.000251
0.000255
0.001679
0.000245
0.000223
0.000236
0.000257
0.000246
0.000252
0.000323
0.000327
0.000285
0.000280
0.000307
0.000521
0.000406
0.000280
0.000288
0.000231
0.000242
0.001502
0.000355
0.000446
0.000398
0.000342
0.000310
0.000159
0.000056
0.000208
0.000242
0.000262
0.000253
0.000245
0.000262
0.001707
0.000244
0.000229
0.000261
0.000333
0.000400
0.001459
0.000364
0.000389
0.000237
0.000253
0.000240
0.000267
0.000292
0.001511
0.000532
0.000432
0.000290
0.000231
0.000260
0.000265
0.000281
0.000239
0.000256
0.000198
0.000057
0.000196
0.000237
0.000268
0.000246
0.000263
0.000306
0.000250
0.000259
0.000244
0.000271
0.000234
0.000248
0.000291
0.000242
0.000290
0.001456
0.000284
0.000224
0.000280
0.000273
0.000264
0.000263
0.000420
0.001277
0.000273
0.000240
0.000271
0.000255
0.000402
0.000238
0.000197
0.000058
0.000210
0.000245
0.000220
0.000250
0.000237
0.000228
0.000236
0.001691
0.000255
0.000239
0.000341
0.000288
0.000210
0.000220
0.000262
0.001377
0.000241
0.000259
0.000267
0.000244
0.000272
0.000341
0.000290
0.001291
0.000282
0.000255
0.000248
0.000268
0.001383
0.000309
0.000316
0.000058
0.000311
0.000282
0.000207
0.000242
0.000266
0.000225
0.000290
0.000248
0.000258
0.000249
0.000244
0.000261
0.000264
0.000242
0.000314
0.001514
0.000232
0.000266
0.000246
0.000253
0.000308
0.000240
0.000250
0.001524
0.000323
0.000240
0.000277
0.001263
0.000260
0.000261
0.000227
0.000056
0.000219
0.000382
0.000353
0.000213
0.000233
0.000238
0.000273
0.000249
0.000268
0.000271
0.000235
0.000250
0.000263
0.000280
0.000406
0.001218
0.000237
0.000249
0.000265
0.000271
0.000253
0.000229
0.000249
0.000335
0.001279
0.000247
0.000243
0.000252
0.000252
0.001338
0.000347
0.000057
0.000262
0.000311
0.000193
0.000235
0.000237
0.000257
0.000241
0.000250
0.000300
0.000233
0.000257
0.000233
0.000251
0.000419
0.000445
0.001344
0.000220
0.000258
0.000297
0.000514
0.000298
0.001483
0.000311
0.000239
0.000231
0.000260
0.000257
0.001327
0.000348
0.000359
0.000413
0.000057
0.000199
0.000252
0.000254
0.000255
0.000280
0.000231
0.000269
0.000286
0.000229
0.000260
0.000361
0.000447
0.001303
0.000234
0.000275
0.000266
0.000278
0.000225
0.000243
0.000237
0.000345
0.001247
0.000261
0.000237
0.000252
0.000251
0.001594
0.000383
0.000439
0.000222
0.000193
0.000058
0.000197
0.000232
0.000247
0.000240
0.000252
0.000264
0.000240
0.000299
0.000482
0.000396
0.000266
0.001497
0.000219
0.000235
0.000263
0.000252
0.000281
0.000277
0.001696
0.000238
0.000384
0.000346
0.001324
0.000294
0.000336
0.000322
0.000246
0.000268
0.000265
0.000271
0.000192
0.000057
0.000220
0.000235
0.000331
0.000205
0.000415
0.000538
0.000232
0.000288
0.001477
0.000247
0.000392
0.000244
0.000218
0.000336
0.000375
0.001311
0.000261
0.000240
0.000238
0.000263
0.001535
0.000373
0.000293
0.000284
0.000247
0.000241
0.000453
0.000340
0.000235
0.000254
0.000263
0.000056
0.000268
0.000336
0.000357
0.000252
0.000243
0.001512
0.000213
0.000252
0.000269
0.000271
0.000282
0.000221
0.000357
0.001443
0.000245
0.000230
0.000433
0.001193
0.000355
0.000442
0.000377
0.000239
0.000245
0.000255
0.000295
0.000224
0.000459
0.000224
0.000266
0.000280
0.000200
0.000058
0.000236
0.000267
0.000326
0.000378
0.001294
0.000273
0.000333
0.000229
0.000223
0.000253
0.000242
0.000279
0.001540
0.000263
0.000224
0.000242
0.001384
0.000249
0.000441
0.000402
0.000421
0.000241
0.000243
0.000250
0.000273
0.000286
0.000255
0.000263
0.000263
0.000259
0.000195
0.000056
0.000269
0.000359
0.001445
0.000203
0.000276
0.000302
0.000218
0.000261
0.000260
0.000342
0.001421
0.000221
0.000256
0.000260
0.000255
0.001326
0.000686
0.000252
0.000310
0.000413
0.000302
0.000251
0.000268
0.000261
0.000267
0.000289
0.000292
0.000465
0.000267
0.000419
0.001374
0.000056
0.000202
0.000249
0.000234
0.000230
0.000270
0.000400
0.000504
0.001264
0.000257
0.000234
0.000249
0.001412
0.000521
0.000259
0.000226
0.000424
0.000235
0.000241
0.000270
0.000285
0.000250
0.000256
0.000277
0.000264
0.000250
0.000280
0.000467
0.000454
0.001494
0.000227
0.000191
0.000056
0.000206
0.000284
0.000371
0.000522
0.001207
0.000318
0.000213
0.000254
0.000247
0.000256
0.000249
0.000281
0.000400
0.000486
0.000286
0.000243
0.000253
0.000273
0.000246
0.000302
0.000238
0.000263
0.000253
0.000267
0.000262
0.000407
0.000511
0.000284
0.000335
0.001400
0.000188
0.000057
0.000203
0.000242
0.000291
0.000452
0.000325
0.000309
0.000317
0.000335
0.000293
0.000252
0.000239
0.000260
0.000274
0.000288
0.000234
0.000295
0.000568
0.000384
0.000213
0.000391
0.000269
0.000406
0.000215
0.000254
0.000264
0.000264
0.000252
0.000288
0.000337
0.000662
0.000149
0.000057
0.000201
0.001410
0.000242
0.000322
0.000412
0.000449
0.000392
0.000275
0.000210
0.000243
0.000268
0.000243
0.000281
0.000280
0.000239
0.000252
0.000264
0.001390
0.000222
0.000257
0.000256
0.000277
0.000261
0.000281
0.000265
0.000260
0.000279
0.000249
0.000351
0.000419
0.000343
0.000058
0.000206
0.000229
0.000249
0.001492
0.000321
0.000243
0.000229
0.000243
0.000233
0.000251
0.000244
0.000285
0.000243
0.000246
0.000297
0.000231
0.000242
0.000265
0.000259
0.000254
0.001432
0.000245
0.000244
0.000270
0.000258
0.000249
0.000264
0.000259
0.000284
0.000489
0.000346
0.000056
0.000220
0.000251
0.000376
0.000290
0.000236
0.000266
0.001535
0.000340
0.000288
0.000221
0.000258
0.000320
0.000325
0.000229
0.000229
0.000250
0.000249
0.000261
0.000257
0.000258
0.000486
0.000509
0.001118
0.000277
0.000229
0.000264
0.000265
0.000260
0.000303
0.000228
0.000331
0.000057
0.000341
0.000277
0.000221
0.000240
0.000252
0.000233
0.000248
0.000227
0.000286
0.001692
0.000341
0.000236
0.000237
0.000247
0.000258
0.000243
0.000267
0.000273
0.000276
0.000314
0.000289
0.000476
0.000458
0.001367
0.000236
0.000276
0.000256
0.000260
0.000265
0.000325
0.000445
0.000058
0.000260
0.000266
0.000219
0.000251
0.000199
0.000246
0.000262
0.000280
0.000255
0.001546
0.000386
0.000257
0.000245
0.000255
0.000460
0.000255
0.000548
0.000373
0.000272
0.000270
0.000517
0.000427
0.001301
0.000255
0.000238
0.000261
0.001710
0.000511
0.000559
0.000314
0.000145
0.000057
0.000194
0.000226
0.000242
0.000237
0.000273
0.000228
0.000246
0.000576
0.000403
0.000437
0.000308
0.000197
0.000238
0.000264
0.000281
0.000312
0.000198
0.000241
0.000251
0.000282
0.000250
0.000436
0.001332
0.000222
0.000260
0.000271
0.001939
0.000343
0.000392
0.000336
0.000163
0.000057
0.000243
0.000241
0.000242
0.001552
0.000443
0.000210
0.000237
0.000276
0.000237
0.000276
0.000376
0.000393
0.000397
0.000256
0.000278
0.000501
0.000404
0.001256
0.000216
0.000233
0.000247
0.000265
0.000269
0.000401
0.000688
0.000384
0.000273
0.000260
0.000258
0.000294
0.000187
0.000058
0.000192
0.000234
0.000243
0.001583
0.000215
0.000231
0.000236
0.000255
0.000241
0.000246
0.000259
0.000267
0.000268
0.000287
0.000228
0.000373
0.000513
0.000304
0.001379
0.000222
0.000262
0.000259
0.000272
0.000319
0.000360
0.000410
0.000474
0.000276
0.000276
0.000232
0.000451
0.000057
0.000208
0.000253
0.000261
0.001614
0.000212
0.000221
0.000269
0.000242
0.000252
0.000256
0.000254
0.000273
0.000235
0.000262
0.000319
0.000617
0.001359
0.000754
0.000247
0.000337
0.000242
0.000249
0.000248
0.000282
0.001669
0.000805
0.000230
0.000260
0.000284
0.000286
0.000180
0.000057
0.000198
0.000236
0.000250
0.000246
0.000280
0.000251
0.000214
0.000255
0.000237
0.000247
0.000278
0.000296
0.000238
0.000250
0.000257
0.000253
0.000265
0.001609
0.000702
0.000378
0.000302
0.000238
0.000239
0.000311
0.000249
0.000252
0.000269
0.000261
0.001407
0.000407
0.000343
0.000057
0.000199
0.000228
0.000269
0.000232
0.000264
0.000228
0.000277
0.000229
0.000255
0.000282
0.000232
0.000442
0.000475
0.000304
0.000204
0.000250
0.000257
0.001396
0.000699
0.000508
0.000311
0.000251
0.000232
0.000249
0.000276
0.000257
0.000251
0.000259
0.001485
0.000431
0.000206
0.000057
0.000179
0.000231
0.000249
0.000244
0.000251
0.000247
0.000238
0.000248
0.000273
0.000260
0.000360
0.000440
0.000278
0.000218
0.000244
0.000242
0.000266
0.000258
0.001565
0.000792
0.000300
0.000327
0.000235
0.000247
0.000263
0.000258
0.000266
0.000285
0.000264
0.001356
0.000359
0.000057
0.000200
0.000230
0.000229
0.000258
0.000254
0.000246
0.000249
0.000304
0.000362
0.000468
0.000359
0.000374
0.000340
0.000237
0.000262
0.000237
0.000295
0.000238
0.000269
0.001921
0.000326
0.000231
0.000466
0.000227
0.000250
0.000265
0.000267
0.000256
0.000275
0.000274
0.000318
0.000057
0.000314
0.000206
0.000228
0.000246
0.000254
0.000246
0.000226
0.000244
0.000291
0.000244
0.000230
0.000238
0.000294
0.000411
0.000592
0.000343
0.000224
0.000267
0.000247
0.000253
0.000259
0.000276
0.001466
0.001057
0.000232
0.000249
0.000265
0.000261
0.000277
0.000250
0.000209
0.000056
0.000226
0.001443
0.000190
0.000203
0.000233
0.000258
0.000252
0.000236
0.000238
0.000266
0.000243
0.000265
0.000240
0.000357
0.000447
0.000464
0.000208
0.000255
0.000262
0.000271
0.000279
0.000218
0.000257
0.000262
0.001415
0.000595
0.000306
0.000383
0.000374
0.000402
0.000300
0.000057
0.000213
0.000227
0.000361
0.001326
0.000212
0.000257
0.000225
0.000257
0.000253
0.000257
0.000246
0.000246
0.000296
0.000312
0.000616
0.000270
0.000227
0.000277
0.000322
0.000225
0.000239
0.000279
0.000232
0.000271
0.001481
0.000317
0.000744
0.000320
0.000262
0.000273
0.000186
0.000057
0.000192
0.000306
0.000413
0.000318
0.001309
0.000247
0.000221
0.000239
0.000238
0.000243
0.000247
0.000256
0.000231
0.000241
0.000250
0.000256
0.000272
0.000233
0.000259
0.000255
0.000268
0.000281
0.000382
0.000247
0.000213
0.000266
0.000263
0.001465
0.000267
0.000236
0.000175
0.000057
0.000215
0.000234
0.000242
0.000265
0.000353
0.000374
0.000395
0.000278
0.001580
0.000218
0.000296
0.000553
0.000290
0.000246
0.000447
0.000219
0.000234
0.000270
0.000269
0.000273
0.000277
0.000265
0.000255
0.000269
0.000256
0.000479
0.000352
0.000305
0.001587
0.000222
0.000190
0.000056
0.000187
0.000233
0.000265
0.000227
0.000240
0.000248
0.000256
0.000322
0.000415
0.002026
0.000232
0.000244
0.000255
0.000259
0.000259
0.000258
0.000266
0.000259
0.000258
0.000455
0.000400
0.000398
0.001455
0.000242
0.000243
0.002012
0.000289
0.000239
0.000254
0.001526
0.000169
0.000056
0.000343
0.000461
0.000408
0.000245
0.000277
0.000224
0.000244
0.000292
0.000242
0.000245
0.000231
0.000360
0.000416
0.000380
0.000367
0.000237
0.000240
0.001574
0.000272
0.000558
0.001860
0.000299
0.000226
0.001559
0.002007
0.000740
0.000275
0.000260
0.000282
0.000583
0.000212
0.000057
0.000231
0.000234
0.000284
0.000220
0.001420
0.001730
0.001073
0.000207
0.000248
0.001686
0.001869
0.000210
0.000239
0.000418
0.000328
0.000409
0.000387
0.000433
0.000216
0.000234
0.000255
0.000253
0.000271
0.001648
0.001151
0.001420
0.000291
0.000285
0.000258
0.000333
0.000412
0.000059
0.000261
0.000183
0.000234
0.000240
0.000227
0.000272
0.000232
0.000250
0.000261
0.000240
0.000243
0.000333
0.000487
0.000465
0.000219
0.000248
0.000256
0.000286
0.000244
0.000296
0.000231
0.000262
0.001626
0.000360
0.002119
0.000226
0.000273
0.000396
0.000383
0.000417
0.000144
0.000058
0.000235
0.000344
0.000481
0.000317
0.000195
0.000216
0.000251
0.000242
0.000240
0.000245
0.000242
0.000269
0.000261
0.001608
0.001357
0.001227
0.000269
0.000231
0.000259
0.000270
0.000280
0.000273
0.000246
0.000256
0.002209
0.000240
0.000259
0.000296
0.000322
0.000311
0.000218
0.000057
0.000193
0.000441
0.000465
0.000345
0.000210
0.000239
0.000240
0.000276
0.001945
0.001374
0.000214
0.000328
0.000385
0.000410
0.000285
0.000260
0.000213
0.000261
0.000267
0.000255
0.000260
0.000277
0.000464
0.000231
0.000272
0.000270
0.000245
0.000275
0.000280
0.000256
0.000197
0.000057
0.000207
0.000244
0.000252
0.000236
0.000275
0.000259
0.001533
0.001450
0.001288
0.000234
0.000240
0.000241
0.000267
0.000261
0.000246
0.000268
0.000230
0.002099
0.000251
0.000245
0.000264
0.000259
0.000256
0.000283
0.000245
0.000262
0.000275
0.000248
0.000285
0.000246
0.000181
0.000057
0.000188
0.002675
0.001403
0.000214
0.000306
0.000323
0.000220
0.000278
0.000230
0.000245
0.000250
0.000261
0.000216
0.000257
0.000269
0.000250
0.000271
0.000262
0.000274
0.000253
0.000264
0.000287
0.000272
0.000263
0.000252
0.000246
0.000262
0.000284
0.000246
0.000271
0.000381
0.000057
0.001548
0.000252
0.001240
0.000232
0.000219
0.000258
0.000262
0.000258
0.000225
0.000300
0.000385
0.000333
0.000340
0.000221
0.000250
0.002153
0.000225
0.000255
0.000349
0.000430
0.000446
0.000216
0.000243
0.000247
0.000269
0.000245
0.000265
0.000278
0.000269
0.001750
0.001121
0.000057
0.000199
0.000247
0.000251
0.000461
0.000315
0.000286
0.000211
0.000236
0.000246
0.000258
0.000270
0.000242
0.000240
0.000242
0.000262
0.000247
0.000375
0.000635
0.000305
0.000222
0.000231
0.000274
0.000284
0.000246
0.000247
0.000253
0.000269
0.000273
0.000240
0.000350
0.000357
0.000057
0.001123
0.000365
0.000214
0.000439
0.000303
0.000224
0.000245
0.000222
0.000251
0.002303
0.000391
0.000357
0.000224
0.000385
0.000299
0.000254
0.000240
0.000256
0.000272
0.000224
0.000251
0.000374
0.000535
0.000411
0.001880
0.001324
0.000580
0.000483
0.000222
0.000283
0.000200
0.000056
0.000268
0.000314
0.000250
0.000239
0.000291
0.000189
0.000256
0.000250
0.000257
0.000245
0.000257
0.000225
0.000251
0.000276
0.000406
0.000445
0.001852
0.001341
0.000444
0.000517
0.000380
0.000237
0.000237
0.000261
0.002128
0.000547
0.000388
0.000241
0.000298
0.000259
0.000196
0.000056
0.000207
0.000237
0.000258
0.000245
0.000250
0.000405
0.000344
0.000382
0.000248
0.000225
0.000239
0.000249
0.000265
0.002184
0.000272
0.000408
0.000216
0.000247
0.000307
0.000221
0.000251
0.002454
0.000339
0.000217
0.000259
0.000277
0.000232
0.000273
0.000308
0.000251
0.000201
0.000056
0.000215
0.000334
0.000534
0.000379
0.000265
0.000212
0.000239
0.000277
0.000239
0.000249
0.001948
0.000401
0.000266
0.000281
0.000237
0.000269
0.000268
0.000235
0.002454
0.000204
0.000224
0.000270
0.000267
0.000259
0.000251
0.000255
0.000299
0.000232
0.000267
0.000256
0.000190
0.000056
0.000213
0.000241
0.000243
0.000222
0.000251
0.000263
0.000232
0.000249
0.000235
0.002181
0.000229
0.000277
0.000217
0.000431
0.000224
0.000256
0.000302
0.000261
0.000250
0.000253
0.001997
0.000242
0.000336
0.000365
0.000470
0.000375
0.000308
0.000254
0.000256
0.000250
0.000202
0.000057
0.000210
0.000243
0.000233
0.000253
0.000254
0.000326
0.000225
0.002290
0.000249
0.000228
0.000262
0.000257
0.000239
0.000279
0.000277
0.002127
0.000583
0.000232
0.000244
0.000248
0.000261
0.000260
0.000284
0.000268
0.000267
0.000253
0.000278
0.000262
0.000265
0.000263
0.000192
0.000056
0.001836
0.001438
0.000207
0.000221
0.000243
0.000258
0.000249
0.000289
0.000412
0.000313
0.002183
0.000259
0.000226
0.000271
0.000295
0.000535
0.000359
0.000299
0.000214
0.000255
0.000252
0.000263
0.000267
0.000227
0.000262
0.000266
0.000264
0.000267
0.000338
0.000629
0.000338
0.000058
0.000202
0.000242
0.000245
0.000254
0.000267
0.000243
0.000258
0.000240
0.001490
0.002113
0.000580
0.000274
0.000401
0.000769
0.000284
0.000241
0.000250
0.000247
0.000271
0.000250
0.000258
0.000247
0.000247
0.000273
0.003014
0.000332
0.000237
0.000265
0.000288
0.000328
0.000399
0.000058
0.001930
0.000215
0.000229
0.000238
0.000287
0.000406
0.000415
0.000297
0.000286
0.000224
0.000244
0.000243
0.000261
0.000254
0.000271
0.000248
0.000254
0.000290
0.001817
0.000245
0.000226
0.000260
0.000274
0.000278
0.000270
0.000267
0.001449
0.000339
0.000247
0.000261
0.000176
0.000058
0.000203
0.000231
0.000260
0.000229
0.000246
0.000243
0.000277
0.000407
0.000382
0.000312
0.000228
0.000237
0.000266
0.000327
0.000421
0.000320
0.000234
0.000247
0.000255
0.000369
0.000411
0.000485
0.000267
0.000250
0.000258
0.000252
0.000254
0.000276
0.000271
0.000264
0.000203
0.000056
0.001421
0.000460
0.000209
0.001928
0.000259
0.000520
0.000361
0.000319
0.000226
0.000245
0.000267
0.000243
0.000254
0.000238
0.000264
0.000265
0.000448
0.000293
0.000363
0.000500
0.000268
0.000229
0.000252
0.000271
0.000272
0.000271
0.000255
0.000271
0.000390
0.000458
0.001348
0.000058
0.000203
0.000222
0.002080
0.000323
0.000316
0.000235
0.000268
0.000231
0.000260
0.000258
0.000234
0.000240
0.000261
0.000253
0.000260
0.000354
0.000749
0.001727
0.000225
0.000253
0.000256
0.000260
0.000393
0.000413
0.001583
0.000294
0.000364
0.001925
0.000254
0.000265
0.000191
0.000057
0.000210
0.000230
0.000231
0.000245
0.000244
0.000239
0.000248
0.000286
0.000326
0.000273
0.000382
0.000349
0.000348
0.000291
0.000242
0.000270
0.000261
0.000251
0.000262
0.000250
0.000309
0.000285
0.000262
0.000260
0.000266
0.001555
0.000260
0.000370
0.002073
0.000232
0.000180
0.000079
0.000211
0.000237
0.000234
0.000256
0.000484
0.000206
0.000256
0.000340
0.000349
0.000317
0.000313
0.000204
0.000268
0.000260
0.000268
0.000336
0.000425
0.000424
0.000251
0.000412
0.000542
0.001773
0.000270
0.000189
0.000249
0.002011
0.000301
0.000255
0.000238
0.000297
0.000191
0.000057
0.000219
0.000234
0.000227
0.000242
0.000252
0.000271
0.000252
0.000271
0.000249
0.000260
0.001815
0.000328
0.000364
0.000288
0.000455
0.000365
0.000353
0.001536
0.000211
0.000278
0.002107
0.000591
0.000244
0.000245
0.000258
0.000265
0.000504
0.000224
0.000256
0.000275
0.000201
0.000056
0.000288
0.000351
0.000373
0.000315
0.000180
0.000242
0.000264
0.000246
0.000264
0.000295
0.000229
0.000248
0.000260
0.000267
0.000338
0.000449
0.001340
0.000262
0.000270
0.002003
0.000337
0.000241
0.000249
0.000240
0.000251
0.000280
0.000261
0.000268
0.000245
0.000275
0.000202
0.000057
0.000223
0.000509
0.001940
0.000252
0.000223
0.000266
0.000278
0.000258
0.000436
0.000444
0.001294
0.000374
0.000359
0.002074
0.000212
0.000243
0.000271
0.000279
0.000248
0.000253
0.000272
0.000299
0.000252
0.000323
0.000512
0.000369
0.000294
0.002257
0.000492
0.000464
0.000408
0.000057
0.000202
0.000237
0.000242
0.001962
0.000232
0.000233
0.000242
0.000244
0.000242
0.000263
0.000241
0.000260
0.000308
0.000255
0.000401
0.001476
0.000254
0.000254
0.000254
0.000263
0.000231
0.000253
0.000275
0.000256
0.000320
0.000478
0.000458
0.000235
0.001597
0.000270
0.000167
0.000056
0.000197
0.000226
0.000271
0.000208
0.000266
0.000272
0.000223
0.000242
0.000257
0.000385
0.000369
0.001402
0.000225
0.000237
0.000248
0.000289
0.000224
0.000258
0.000330
0.000500
0.000613
0.000187
0.000226
0.001572
0.000226
0.000264
0.000295
0.000276
0.000261
0.000266
0.000194
0.000056
0.000207
0.000239
0.000286
0.000249
0.000267
0.000225
0.000234
0.000243
0.000280
0.000223
0.000248
0.000261
0.000267
0.001476
0.000357
0.000213
0.000252
0.000262
0.000273
0.000314
0.000367
0.000284
0.000237
0.000261
0.000263
0.000269
0.000256
0.001408
0.000273
0.000241
0.000176
0.000056
0.000193
0.000235
0.000262
0.000262
0.000266
0.000224
0.000248
0.000264
0.000219
0.000287
0.000222
0.000259
0.000229
0.000357
0.000390
0.000320
0.000233
0.000236
0.001631
0.000251
0.000237
0.000256
0.000266
0.000318
0.000367
0.000358
0.000484
0.000260
0.000229
0.001612
0.000154
0.000058
0.000350
0.000335
0.000391
0.000250
0.000239
0.000214
0.000248
0.000267
0.000258
0.000254
0.000233
0.000236
0.001469
0.000292
0.000292
0.000228
0.000251
0.000274
0.000253
0.000265
0.000257
0.000233
0.000261
0.000271
0.000337
0.000450
0.000346
0.000318
0.000264
0.000247
0.000196
0.000058
0.000208
0.000235
0.000397
0.000486
0.000354
0.000203
0.000252
0.000252
0.000246
0.000260
0.000241
0.000225
0.000264
0.000240
0.001280
0.000267
0.000245
0.000252
0.000264
0.000273
0.000236
0.000264
0.000250
0.000264
0.000254
0.000258
0.000380
0.000638
0.000439
0.000225
0.000185
0.000056
0.000206
0.001562
0.000227
0.000391
0.000409
0.000384
0.000218
0.000252
0.000270
0.000258
0.000234
0.000260
0.000271
0.000290
0.000236
0.001560
0.000226
0.000282
0.000263
0.000251
0.000282
0.000234
0.000270
0.000256
0.000268
0.000341
0.000386
0.000327
0.000382
0.000230
0.000188
0.000058
0.000213
0.000252
0.000235
0.001685
0.000374
0.000324
0.000217
0.000236
0.000258
0.000270
0.000279
0.000256
0.000255
0.000253
0.000232
0.000317
0.000385
0.001299
0.000243
0.000236
0.001496
0.000643
0.000311
0.000316
0.000344
0.000238
0.000267
0.000465
0.000234
0.000261
0.000190
0.000058
0.000280
0.000225
0.000247
0.000245
0.000250
0.000267
0.000231
0.000251
0.000257
0.000249
0.000243
0.000271
0.000352
0.000524
0.001588
0.001561
0.000289
0.000581
0.000290
0.000225
0.000230
0.000256
0.000251
0.000270
0.000253
0.000279
0.000245
0.000265
0.001547
0.000314
0.000175
0.000056
0.000214
0.000348
0.000353
0.000331
0.000252
0.000217
0.000240
0.000409
0.000400
0.000355
0.002155
0.000319
0.000794
0.000447
0.000438
0.000251
0.000336
0.000389
0.000329
0.000282
0.000387
0.000276
0.001518
0.000539
0.000217
0.000263
0.000256
0.000249
0.000273
0.000265
0.000197
0.000057
0.000218
0.000249
0.000257
0.000246
0.000245
0.001661
0.000871
0.000999
0.000216
0.000231
0.000271
0.000245
0.000257
0.000264
0.000247
0.000253
0.000252
0.000269
0.000264
0.000279
0.001428
0.000312
0.000258
0.000241
0.000224
0.000263
0.000257
0.000282
0.000268
0.000283
0.001896
0.000058
0.000191
0.000233
0.001538
0.000909
0.000436
0.000320
0.000195
0.000211
0.000250
0.000265
0.000245
0.000246
0.000245
0.002161
0.000300
0.000217
0.000241
0.000258
0.000266
0.000259
0.000199
