0.000109
0.009376
0.012149
0.000280
0.000262
0.000282
0.000307
0.000244
0.000334
0.000283
0.000248
0.000362
0.000466
0.000557
0.000280
0.000423
0.000270
0.000350
0.000353
0.000410
0.000313
0.001928
0.000690
0.000245
0.000255
0.000332
0.000278
0.000335
0.000483
0.000446
0.000448
0.000219
0.000059
0.000188
0.000273
0.000272
0.000260
0.000291
0.000227
0.000282
0.000277
0.000253
0.000301
0.000419
0.000457
0.000298
0.000262
0.000416
0.000299
0.000363
0.000252
0.000236
0.001705
0.000319
0.000254
0.000455
0.000236
0.000275
0.000293
0.000276
0.000297
0.000280
0.000339
0.000440
0.000056
0.000257
0.000248
0.000260
0.000261
0.000256
0.000247
0.000258
0.000271
0.000271
0.001680
0.000218
0.000238
0.000261
0.000275
0.000282
0.000248
0.000266
0.000265
0.000348
0.001797
0.000234
0.000274
0.000447
0.000492
0.000334
0.000232
0.000252
0.000621
0.000401
0.000723
0.000201
0.000056
0.000225
0.000244
0.000256
0.000238
0.000298
0.000252
0.000245
0.000678
0.000335
0.000258
0.000245
0.000238
0.000239
0.000256
0.000255
0.000260
0.000244
0.000269
0.000308
0.000317
0.001665
0.000271
0.000260
0.000422
0.000257
0.000745
0.000686
0.000511
0.000328
0.000242
0.000176
0.000056
0.000232
0.000250
0.000262
0.000246
0.000255
0.000253
0.000266
0.000497
0.001437
0.000214
0.000248
0.000247
0.000255
0.000254
0.000264
0.000283
0.000320
0.000796
0.001356
0.000279
0.000461
0.000263
0.000225
0.000217
0.000251
0.000263
0.000262
0.000273
0.000261
0.000266
0.000200
0.000057
0.000205
0.000243
0.000246
0.000265
0.000241
0.000240
0.000239
0.000258
0.000239
0.000252
0.001639
0.000271
0.000229
0.000231
0.000253
0.000254
0.000243
0.000249
0.000252
0.000262
0.000267
0.001673
0.000331
0.000208
0.000431
0.000256
0.000253
0.000258
0.000271
0.000258
0.000192
0.000056
0.000217
0.000228
0.000255
0.000244
0.000248
0.000245
0.000260
0.000234
0.000262
0.000240
0.000276
0.000243
0.000283
0.000254
0.001645
0.000276
0.000290
0.000207
0.000255
0.000278
0.000262
0.000240
0.000265
0.000250
0.001790
0.000418
0.000316
0.000344
0.000252
0.000285
0.000189
0.000056
0.000221
0.000241
0.000244
0.000266
0.000256
0.000237
0.000266
0.000446
0.000415
0.000404
0.000207
0.000251
0.000255
0.000247
0.001632
0.000540
0.000280
0.000366
0.000318
0.000230
0.000273
0.000287
0.000263
0.001751
0.000519
0.000443
0.000246
0.000245
0.000247
0.000270
0.000178
0.000055
0.000207
0.000228
0.000251
0.000301
0.000340
0.000437
0.000338
0.000281
0.000216
0.000248
0.000265
0.000255
0.000234
0.001728
0.000486
0.000269
0.000228
0.000265
0.000272
0.000275
0.000267
0.000241
0.000273
0.001925
0.000279
0.000383
0.000254
0.000247
0.000270
0.000411
0.000330
0.000056
0.000278
0.000306
0.000400
0.000243
0.000241
0.000239
0.000252
0.000260
0.000243
0.000228
0.000261
0.000226
0.001590
0.000373
0.000252
0.000220
0.000275
0.000240
0.000243
0.000289
0.000294
0.000315
0.000244
0.001818
0.000253
0.000492
0.000236
0.000256
0.000268
0.000260
0.000258
0.000057
0.000359
0.000621
0.000566
0.000214
0.000229
0.000278
0.000230
0.000218
0.000258
0.000270
0.000237
0.001708
0.000247
0.000443
0.000366
0.000217
0.000241
0.000234
0.000243
0.000271
0.000249
0.001861
0.000232
0.000236
0.002125
0.000470
0.000365
0.000247
0.000261
0.000262
0.000184
0.000056
0.000214
0.000243
0.000247
0.000263
0.000238
0.001624
0.000251
0.000229
0.000254
0.000250
0.000245
0.000261
0.000230
0.000263
0.000264
0.000798
0.000251
0.000254
0.000256
0.000243
0.000268
0.000244
0.000253
0.000427
0.000438
0.000277
0.000345
0.000678
0.000287
0.000275
0.000205
0.000056
0.000195
0.000243
0.000252
0.000251
0.000237
0.000244
0.000262
0.000452
0.000340
0.001736
0.000216
0.000238
0.000243
0.000249
0.000259
0.000301
0.000400
0.000490
0.000360
0.000216
0.000266
0.000311
0.000269
0.000251
0.000282
0.000436
0.000346
0.000658
0.000439
0.000415
0.000184
0.000055
0.000197
0.000260
0.000236
0.000227
0.000241
0.000237
0.000252
0.000242
0.000241
0.000297
0.000345
0.000366
0.001455
0.000237
0.000233
0.000252
0.000258
0.000253
0.000243
0.000249
0.000281
0.000495
0.000380
0.000261
0.000260
0.000258
0.000259
0.000263
0.000266
0.000267
0.000389
0.000056
0.000211
0.000239
0.000268
0.000238
0.000614
0.000347
0.000235
0.000259
0.000235
0.000263
0.000242
0.000236
0.000302
0.000245
0.000241
0.000491
0.000418
0.001640
0.000284
0.000225
0.000256
0.000264
0.000265
0.000240
0.000265
0.000402
0.000528
0.000335
0.000418
0.000233
0.000193
0.000055
0.000205
0.000437
0.000235
0.000207
0.000268
0.000246
0.000324
0.000589
0.000267
0.000340
0.000211
0.000270
0.000266
0.000237
0.000522
0.000350
0.000220
0.000271
0.000397
0.001637
0.000263
0.000249
0.000514
0.000229
0.000284
0.000277
0.000261
0.000304
0.000594
0.000387
0.000257
0.000056
0.000213
0.000229
0.000236
0.000246
0.000402
0.000312
0.000298
0.000219
0.000376
0.000621
0.000248
0.000256
0.000242
0.000245
0.000256
0.000263
0.000256
0.000255
0.000224
0.000355
0.000290
0.000327
0.001862
0.000229
0.000261
0.000253
0.000296
0.000350
0.000462
0.000702
0.000373
0.000056
0.000240
0.000329
0.000298
0.000415
0.000382
0.000218
0.000245
0.000291
0.000580
0.000343
0.000269
0.000234
0.000243
0.000268
0.000260
0.000240
0.000259
0.000264
0.000272
0.000255
0.000279
0.000450
0.000681
0.001257
0.000365
0.000442
0.000393
0.000255
0.000429
0.000442
0.000327
0.000054
0.000243
0.000380
0.000270
0.000205
0.000221
0.000247
0.000415
0.000242
0.000302
0.000353
0.000477
0.000328
0.000245
0.000259
0.000263
0.000255
0.000374
0.000375
0.000352
0.000231
0.000250
0.000438
0.000631
0.001635
0.000220
0.000460
0.000286
0.000232
0.000279
0.000501
0.000221
0.000055
0.000238
0.000222
0.000245
0.000247
0.000246
0.000250
0.000250
0.000324
0.000455
0.000305
0.000410
0.000407
0.000267
0.000572
0.000247
0.000240
0.000269
0.000270
0.000237
0.000350
0.000221
0.000241
0.000302
0.000355
0.000491
0.001681
0.000266
0.000236
0.000260
0.000262
0.000185
0.000055
0.000274
0.000584
0.000202
0.000206
0.000247
0.000251
0.000260
0.000234
0.000261
0.000249
0.000230
0.000238
0.000433
0.000518
0.000396
0.000279
0.000243
0.000252
0.000362
0.000397
0.000364
0.000340
0.000414
0.000356
0.000218
0.000256
0.000258
0.000277
0.001787
0.000253
0.000212
0.000054
0.000190
0.000219
0.000262
0.000272
0.000375
0.000536
0.000310
0.000212
0.000255
0.000264
0.000246
0.000249
0.000520
0.000450
0.000480
0.000294
0.000259
0.000264
0.000425
0.000462
0.000405
0.000448
0.000493
0.000339
0.000247
0.000234
0.000274
0.000265
0.000244
0.001715
0.000373
0.000057
0.000258
0.000331
0.000210
0.000235
0.000254
0.000249
0.000249
0.000508
0.000363
0.000307
0.000292
0.000298
0.000383
0.000650
0.000275
0.000227
0.000254
0.000254
0.000251
0.000268
0.000273
0.000264
0.000246
0.000254
0.000426
0.000265
0.000386
0.000356
0.000248
0.000256
0.000181
0.000056
0.000431
0.000304
0.000483
0.000236
0.000201
0.000243
0.000268
0.000238
0.000242
0.000220
0.000272
0.000262
0.000289
0.000575
0.000325
0.000479
0.000297
0.000320
0.000386
0.000336
0.000294
0.000235
0.000250
0.000258
0.001756
0.000250
0.001728
0.000933
0.000535
0.000193
0.000162
0.000055
0.000210
0.000227
0.000234
0.000250
0.000256
0.000243
0.000258
0.000250
0.000249
0.000332
0.000340
0.000434
0.000343
0.000375
0.000260
0.000246
0.000254
0.000292
0.000225
0.000247
0.000263
0.000251
0.001811
0.000241
0.000243
0.000269
0.000283
0.000262
0.001880
0.000536
0.000225
0.000056
0.000224
0.000213
0.000251
0.000227
0.000253
0.000248
0.000244
0.000254
0.000256
0.000422
0.000555
0.000455
0.000237
0.000206
0.000229
0.000257
0.000334
0.000446
0.000366
0.000255
0.001767
0.000267
0.000240
0.000236
0.000268
0.000271
0.000240
0.000252
0.000328
0.000318
0.000468
0.000055
0.000233
0.000225
0.000244
0.000252
0.000247
0.000243
0.000272
0.000240
0.000236
0.000259
0.000243
0.000289
0.000376
0.000379
0.000370
0.000242
0.000468
0.000247
0.000237
0.000261
0.000253
0.000260
0.000276
0.000256
0.000278
0.001797
0.000232
0.000246
0.000271
0.000255
0.000179
0.000055
0.000278
0.000296
0.000212
0.000216
0.000240
0.000233
0.000245
0.000254
0.000246
0.000221
0.000231
0.000274
0.000266
0.000360
0.000386
0.000393
0.000266
0.000230
0.000251
0.000256
0.000263
0.000277
0.000233
0.000277
0.000240
0.000275
0.000326
0.001613
0.000273
0.000223
0.000191
0.000055
0.000204
0.000241
0.000242
0.000273
0.000337
0.000465
0.000297
0.000308
0.000233
0.000253
0.000247
0.000243
0.000246
0.000257
0.000266
0.000256
0.000241
0.000264
0.000244
0.000260
0.000270
0.000267
0.000252
0.000235
0.000244
0.000275
0.000277
0.000266
0.000253
0.000274
0.000183
0.000055
0.000183
0.000239
0.000255
0.000255
0.000235
0.000256
0.000243
0.000259
0.000304
0.000215
0.000226
0.000256
0.000246
0.000252
0.000269
0.000265
0.000250
0.000252
0.000294
0.000256
0.000274
0.000298
0.000268
0.000243
0.000285
0.000273
0.000269
0.000249
0.000311
0.000416
0.000664
0.000055
0.000235
0.000285
0.000217
0.000227
0.000238
0.000254
0.000240
0.000248
0.000254
0.000242
0.000263
0.000327
0.000463
0.000546
0.001464
0.000231
0.000486
0.000240
0.000288
0.000425
0.000522
0.000291
0.000226
0.000277
0.000255
0.000256
0.000284
0.000251
0.000314
0.000253
0.000181
0.000057
0.000327
0.000446
0.000331
0.000311
0.000210
0.000251
0.000248
0.000243
0.000239
0.000242
0.000258
0.000254
0.000229
0.000319
0.000374
0.000455
0.000364
0.001803
0.000231
0.000247
0.000354
0.000420
0.000461
0.000283
0.000300
0.000320
0.000309
0.000236
0.000224
0.000249
0.000196
0.000055
0.000188
0.000226
0.000272
0.000274
0.000338
0.000444
0.000346
0.000258
0.000254
0.000214
0.000246
0.000270
0.000268
0.000259
0.000247
0.000261
0.000358
0.000478
0.000283
0.000458
0.000224
0.001753
0.000337
0.000483
0.000474
0.000497
0.000318
0.000244
0.000249
0.000265
0.000445
0.000056
0.000208
0.000256
0.000231
0.000401
0.000331
0.000497
0.000334
0.000205
0.000234
0.000289
0.000244
0.000262
0.000252
0.000299
0.000307
0.000227
0.000237
0.000344
0.000500
0.000358
0.000491
0.001843
0.000250
0.000562
0.000413
0.000335
0.000230
0.000250
0.000291
0.000259
0.000205
0.000055
0.000223
0.000337
0.000359
0.000327
0.000379
0.000315
0.000339
0.000216
0.000238
0.000262
0.000280
0.000226
0.000240
0.000250
0.000247
0.000265
0.000321
0.000378
0.000549
0.000343
0.000273
0.000242
0.000250
0.001718
0.000422
0.000531
0.000669
0.000252
0.000241
0.000309
0.000158
0.000055
0.000191
0.000239
0.000323
0.000257
0.000243
0.000416
0.000390
0.000312
0.000255
0.000524
0.000217
0.000244
0.000262
0.000280
0.000274
0.000266
0.000209
0.000470
0.000325
0.000481
0.000252
0.000227
0.000251
0.000267
0.000256
0.000260
0.000240
0.000256
0.000266
0.000289
0.000262
0.000055
0.000384
0.000256
0.000242
0.000245
0.000247
0.000264
0.000231
0.000292
0.000246
0.000244
0.000257
0.000351
0.000439
0.000394
0.000390
0.000227
0.000222
0.000231
0.000262
0.000272
0.000287
0.000256
0.000237
0.000259
0.000281
0.000335
0.000485
0.000276
0.000355
0.000246
0.000169
0.000055
0.000201
0.000227
0.000281
0.000244
0.000237
0.000247
0.000256
0.000259
0.000489
0.000213
0.000260
0.000252
0.000247
0.000266
0.000269
0.000273
0.000264
0.000351
0.000221
0.000242
0.000257
0.000268
0.000254
0.000271
0.000271
0.000281
0.000247
0.000253
0.000518
0.000249
0.000152
0.000056
0.000205
0.000230
0.000250
0.000263
0.000227
0.000244
0.000363
0.000406
0.000242
0.000241
0.000258
0.000240
0.000240
0.000317
0.000399
0.001774
0.000237
0.000259
0.000285
0.000394
0.000365
0.000358
0.000383
0.000405
0.000331
0.000433
0.000238
0.000262
0.000270
0.000273
0.001407
0.000055
0.000418
0.000248
0.000278
0.000229
0.000211
0.000258
0.000230
0.000258
0.000242
0.000290
0.000223
0.000262
0.000252
0.000271
0.000643
0.001550
0.000238
0.000230
0.000249
0.000270
0.000231
0.000262
0.000443
0.000334
0.000267
0.000364
0.000215
0.000269
0.000277
0.000258
0.000199
0.000056
0.001232
0.000589
0.000272
0.000252
0.000230
0.000228
0.000238
0.000238
0.000485
0.000226
0.000238
0.000248
0.000382
0.000572
0.000308
0.000353
0.000244
0.000230
0.000349
0.000347
0.000260
0.000263
0.000267
0.000260
0.000312
0.000692
0.000332
0.000319
0.000250
0.000260
0.000171
0.000055
0.000217
0.000215
0.000238
0.000246
0.001494
0.000278
0.000220
0.000257
0.000237
0.000248
0.000259
0.000248
0.000245
0.000260
0.000268
0.000366
0.000426
0.000608
0.000246
0.001741
0.000267
0.000278
0.000388
0.000303
0.000615
0.000363
0.000246
0.000261
0.000249
0.000273
0.000196
0.000057
0.000202
0.000246
0.000235
0.000409
0.001166
0.000236
0.000250
0.000264
0.000235
0.000240
0.000236
0.000248
0.000279
0.000247
0.000255
0.000292
0.000465
0.000443
0.000298
0.000255
0.000276
0.000268
0.000247
0.000235
0.000298
0.000249
0.000250
0.000277
0.000275
0.000372
0.000630
0.000055
0.000191
0.000246
0.000240
0.000258
0.000266
0.000240
0.000232
0.000266
0.000268
0.000261
0.001434
0.000223
0.000233
0.000251
0.000241
0.000251
0.000271
0.000258
0.000264
0.000267
0.000279
0.000509
0.000442
0.000379
0.000224
0.000278
0.001757
0.000258
0.000270
0.000295
0.000434
0.000055
0.000223
0.000404
0.000438
0.000502
0.000512
0.000554
0.001483
0.000416
0.000518
0.000660
0.000551
0.000740
0.000518
0.000564
0.000585
0.001958
0.000386
0.000379
0.000394
0.000318
0.000235
0.000303
0.000251
0.000270
0.000248
0.000304
0.000283
0.000293
0.000250
0.000296
0.001372
0.000057
0.000214
0.000217
0.000238
0.000246
0.000255
0.000261
0.000235
0.000234
0.000260
0.000243
0.000258
0.000224
0.000247
0.000262
0.000278
0.000264
0.001807
0.000295
0.000228
0.000248
0.000262
0.000259
0.000264
0.000261
0.000517
0.000384
0.000302
0.000229
0.000255
0.000282
0.000205
0.000056
0.000207
0.001354
0.000329
0.000261
0.000259
0.000239
0.000248
0.000238
0.000233
0.000235
0.000223
0.000247
0.000247
0.000505
0.000362
0.000279
0.000262
0.000262
0.001944
0.000215
0.000238
0.000275
0.000258
0.000256
0.000286
0.000273
0.000272
0.000249
0.000269
0.000316
0.000201
0.000056
0.000199
0.000241
0.000250
0.001446
0.000210
0.000253
0.000246
0.000251
0.000237
0.000265
0.000247
0.000251
0.000244
0.000261
0.000251
0.000255
0.000270
0.000264
0.000266
0.000278
0.000244
0.001772
0.000288
0.001744
0.000274
0.000235
0.000266
0.000269
0.000289
0.000254
0.000196
0.000056
0.000203
0.000232
0.001357
0.000217
0.000265
0.000240
0.000258
0.000253
0.000244
0.000247
0.000256
0.000250
0.000260
0.000258
0.000255
0.000276
0.000251
0.000284
0.000292
0.000235
0.001886
0.000234
0.001822
0.000241
0.000257
0.000279
0.000237
0.000240
0.000256
0.000267
0.000197
0.000056
0.001422
0.000223
0.000234
0.000235
0.000244
0.000237
0.000372
0.000269
0.000248
0.000257
0.000251
0.000259
0.000316
0.000292
0.000396
0.000287
0.000250
0.000266
0.000262
0.000246
0.000264
0.000348
0.000224
0.000251
0.000272
0.000281
0.000277
0.000365
0.000708
0.000260
0.000198
0.000055
0.000225
0.000238
0.000280
0.000294
0.000366
0.000261
0.001713
0.000284
0.000282
0.000260
0.000254
0.000276
0.000285
0.000245
0.000296
0.000310
0.000337
0.000615
0.000332
0.000274
0.000297
0.000277
0.000263
0.000261
0.000329
0.000298
0.000229
0.000257
0.000247
0.000315
0.000520
0.000057
0.000220
0.000471
0.000268
0.000263
0.000246
0.000230
0.000229
0.000247
0.000256
0.000315
0.001466
0.000226
0.000221
0.000249
0.000240
0.000293
0.000262
0.000254
0.000264
0.000263
0.000271
0.000559
0.000396
0.000262
0.000265
0.000288
0.000273
0.000249
0.000243
0.000313
0.000163
0.000056
0.000196
0.000225
0.000275
0.000481
0.000397
0.000247
0.000214
0.000250
0.000253
0.000252
0.000230
0.000253
0.000254
0.000270
0.000237
0.000256
0.000411
0.001184
0.000249
0.000238
0.000284
0.000243
0.000403
0.000384
0.000243
0.000387
0.000512
0.000398
0.000338
0.000241
0.000164
0.000056
0.000219
0.000247
0.000259
0.000261
0.000260
0.000275
0.000298
0.000498
0.000349
0.000290
0.000369
0.000395
0.000385
0.000360
0.000249
0.000248
0.000232
0.000269
0.000505
0.001324
0.000299
0.000220
0.000270
0.000282
0.000230
0.000231
0.000274
0.000393
0.000447
0.000378
0.000212
0.000056
0.000181
0.000237
0.000253
0.000241
0.000249
0.000247
0.000238
0.000256
0.000362
0.000348
0.000413
0.000337
0.000267
0.000217
0.000249
0.000255
0.000248
0.000260
0.000269
0.000244
0.000449
0.000234
0.000408
0.000414
0.000298
0.000252
0.000281
0.000263
0.000254
0.000347
0.000151
0.000055
0.000292
0.000315
0.000450
0.000253
0.000412
0.000367
0.000251
0.000261
0.000234
0.000272
0.000252
0.000266
0.000235
0.000249
0.000246
0.000228
0.000285
0.000425
0.000379
0.000395
0.000224
0.000287
0.000215
0.000249
0.000267
0.000278
0.000263
0.000271
0.000271
0.000270
0.000336
0.000055
0.000411
0.000207
0.000232
0.000269
0.000227
0.000246
0.000248
0.000264
0.000256
0.000255
0.000250
0.000242
0.000377
0.000469
0.000370
0.000284
0.000246
0.000255
0.000249
0.000257
0.000257
0.000269
0.000258
0.000255
0.000279
0.000370
0.000394
0.000557
0.000415
0.000246
0.000186
0.000055
0.000365
0.000203
0.000228
0.000247
0.000273
0.000234
0.000237
0.000247
0.000253
0.000261
0.000221
0.000244
0.000277
0.000224
0.000243
0.000266
0.000250
0.000266
0.000274
0.000262
0.000258
0.000260
0.000258
0.000265
0.000270
0.000234
0.000272
0.000288
0.000237
0.000282
0.000192
0.000056
0.000184
0.000238
0.000241
0.000255
0.000233
0.000254
0.000258
0.000246
0.000255
0.000279
0.000225
0.000230
0.000266
0.000399
0.000253
0.000274
0.000276
0.000253
0.000250
0.000284
0.000272
0.000239
0.000250
0.000246
0.000277
0.000269
0.000245
0.000251
0.000282
0.000257
0.000204
0.000055
0.000211
0.000359
0.000366
0.000282
0.000297
0.000247
0.000270
0.000256
0.000222
0.000245
0.000252
0.000262
0.000251
0.000234
0.000258
0.000260
0.000259
0.000274
0.000239
0.000266
0.000276
0.000267
0.000283
0.000255
0.000268
0.000249
0.000254
0.000276
0.000267
0.000261
0.000196
0.000055
0.000205
0.000226
0.000266
0.000262
0.000488
0.000214
0.000208
0.000248
0.000317
0.000390
0.000519
0.000271
0.000237
0.000244
0.000268
0.000268
0.000241
0.000268
0.000257
0.000267
0.000287
0.000242
0.000263
0.000284
0.000551
0.000480
0.000267
0.000294
0.000263
0.000261
0.000185
0.000055
0.000218
0.000221
0.000248
0.000250
0.000390
0.000582
0.000320
0.000377
0.000208
0.000244
0.000256
0.000254
0.000247
0.000252
0.000262
0.000265
0.000262
0.000265
0.000604
0.000403
0.000298
0.000245
0.000251
0.000291
0.000277
0.000256
0.000261
0.000276
0.000248
0.000339
0.000358
0.000056
0.000260
0.000232
0.000240
0.000239
0.000252
0.000252
0.000233
0.000245
0.000242
0.000262
0.000248
0.000253
0.000239
0.000479
0.000591
0.000296
0.000231
0.000257
0.000261
0.000246
0.000262
0.000272
0.000493
0.000228
0.000252
0.000645
0.000398
0.000465
0.000241
0.000253
0.000186
0.000056
0.000185
0.000232
0.000243
0.000244
0.000262
0.000248
0.000504
0.000232
0.000589
0.000421
0.000221
0.000262
0.000278
0.000270
0.000262
0.000242
0.000239
0.000253
0.000283
0.000370
0.000367
0.000623
0.000358
0.000259
0.000364
0.000371
0.000495
0.000237
0.000268
0.000391
0.000436
0.000055
0.000265
0.000233
0.000433
0.000216
0.000244
0.000253
0.000259
0.000260
0.000231
0.000241
0.000259
0.000501
0.000346
0.000266
0.000251
0.000228
0.000273
0.000240
0.000262
0.000281
0.000276
0.000248
0.000253
0.000277
0.000301
0.000501
0.000469
0.000245
0.000250
0.000273
0.000198
0.000054
0.000221
0.000258
0.000229
0.000245
0.000242
0.000270
0.000401
0.000355
0.000430
0.000310
0.000350
0.000216
0.000246
0.000268
0.000253
0.000240
0.000255
0.000258
0.000287
0.000393
0.000511
0.000311
0.000477
0.000281
0.000427
0.000389
0.000378
0.000239
0.000246
0.000297
0.000427
0.000075
0.000250
0.000246
0.000214
0.000274
0.000245
0.000252
0.000253
0.000250
0.000269
0.000251
0.000230
0.000390
0.000473
0.000365
0.000334
0.000209
0.000271
0.000266
0.000262
0.000240
0.000249
0.000254
0.000266
0.000273
0.000273
0.000333
0.000490
0.000478
0.000237
0.000279
0.000187
0.000055
0.000207
0.000235
0.000263
0.000243
0.000262
0.000412
0.000426
0.000470
0.000361
0.000689
0.000264
0.000213
0.000241
0.000262
0.000245
0.000266
0.000284
0.000316
0.000470
0.000419
0.001472
0.000312
0.000251
0.000253
0.000293
0.000275
0.000403
0.000407
0.000363
0.000315
0.000162
0.000056
0.000215
0.000230
0.000247
0.000248
0.000239
0.000253
0.000278
0.000244
0.000250
0.000344
0.000328
0.000386
0.000279
0.000353
0.000410
0.000290
0.000260
0.000228
0.000271
0.000257
0.000249
0.000247
0.000285
0.000237
0.000330
0.000453
0.000418
0.000302
0.000234
0.000270
0.000187
0.000055
0.000227
0.000245
0.000253
0.000259
0.000237
0.000239
0.000466
0.000224
0.000229
0.000254
0.000242
0.000253
0.000260
0.000253
0.000247
0.000267
0.000268
0.000262
0.000278
0.000251
0.000265
0.000283
0.000290
0.000257
0.000254
0.000282
0.000269
0.000269
0.000265
0.000264
0.000170
0.000055
0.000239
0.000240
0.000273
0.000501
0.000317
0.000275
0.000217
0.000244
0.000261
0.000257
0.000238
0.000255
0.000269
0.000260
0.000237
0.000241
0.000252
0.000271
0.000244
0.000455
0.000408
0.000354
0.000228
0.000276
0.000247
0.000254
0.000265
0.000250
0.000273
0.000279
0.000197
0.000055
0.000390
0.000549
0.000268
0.000199
0.000250
0.000258
0.000406
0.000220
0.000232
0.000261
0.000252
0.000340
0.000323
0.000505
0.001785
0.000252
0.000246
0.000245
0.000277
0.000240
0.000361
0.000506
0.000566
0.000269
0.000218
0.000266
0.000277
0.000420
0.000283
0.000284
0.000163
0.000055
0.000242
0.000348
0.000327
0.000335
0.000488
0.000199
0.000245
0.000268
0.000236
0.000233
0.000265
0.000243
0.000272
0.000405
0.000361
0.000447
0.000202
0.000244
0.000266
0.000258
0.000262
0.000320
0.000228
0.000283
0.000277
0.000484
0.000496
0.000394
0.000451
0.000222
0.000203
0.000055
0.000202
0.000223
0.000260
0.000229
0.000255
0.000248
0.000262
0.000278
0.000356
0.000447
0.000356
0.000345
0.000221
0.000246
0.000262
0.000282
0.000303
0.000244
0.000270
0.000277
0.000238
0.000364
0.000451
0.000338
0.000291
0.000253
0.000251
0.000437
0.000413
0.000317
0.000177
0.000056
0.000195
0.000284
0.000361
0.000369
0.000350
0.000210
0.000237
0.000254
0.000264
0.000249
0.000263
0.000256
0.000226
0.000260
0.000262
0.000291
0.000518
0.000234
0.000331
0.000313
0.000493
0.000221
0.000285
0.000271
0.000305
0.000283
0.000255
0.000266
0.000497
0.000480
0.000209
0.000056
0.000185
0.000231
0.000254
0.000245
0.000244
0.000477
0.000212
0.000254
0.000266
0.000425
0.000418
0.000572
0.000216
0.000230
0.000267
0.000231
0.000257
0.000246
0.000262
0.000250
0.000259
0.000266
0.000387
0.000429
0.000333
0.000423
0.000281
0.000314
0.000309
0.000240
0.000183
0.000056
0.000182
0.000231
0.000285
0.000500
0.000281
0.000295
0.000263
0.000213
0.000249
0.000259
0.000258
0.000246
0.000255
0.000252
0.000260
0.000256
0.000252
0.000247
0.000251
0.000414
0.000503
0.000393
0.000214
0.000254
0.000281
0.000280
0.000254
0.000255
0.000266
0.000266
0.000191
0.000055
0.000315
0.000330
0.000486
0.000244
0.000219
0.000245
0.000331
0.000449
0.000278
0.000214
0.000241
0.000273
0.000281
0.000446
0.000417
0.000289
0.000224
0.000235
0.000255
0.000287
0.000257
0.000259
0.000265
0.000276
0.000257
0.000302
0.000451
0.000377
0.000309
0.000236
0.000169
0.000056
0.000204
0.000256
0.000229
0.000253
0.000251
0.000270
0.000225
0.000260
0.000249
0.000247
0.000266
0.000240
0.000261
0.001466
0.000222
0.000252
0.000262
0.000243
0.000272
0.000282
0.000261
0.000240
0.000278
0.000250
0.000268
0.000282
0.000255
0.000269
0.000260
0.000277
0.000181
0.000056
0.000212
0.000229
0.000253
0.000254
0.000228
0.000264
0.000240
0.000262
0.000229
0.000248
0.000248
0.000259
0.000259
0.000251
0.000252
0.000264
0.000251
0.000252
0.000275
0.000261
0.000254
0.000263
0.000253
0.000241
0.001300
0.000268
0.000603
0.000433
0.000306
0.000241
0.000193
0.000054
0.000208
0.000231
0.000245
0.000252
0.000408
0.000244
0.000236
0.000246
0.000253
0.000397
0.000448
0.000313
0.000225
0.000235
0.000268
0.000256
0.000247
0.000273
0.000241
0.000261
0.000260
0.000258
0.000438
0.000219
0.000562
0.000419
0.000229
0.000261
0.001382
0.000231
0.000183
0.000055
0.000338
0.000418
0.000321
0.000262
0.000218
0.000253
0.000213
0.000247
0.000264
0.000254
0.000251
0.000259
0.000269
0.000332
0.000557
0.000339
0.000325
0.000225
0.000243
0.000259
0.000264
0.000262
0.000266
0.000272
0.000266
0.000260
0.000284
0.000614
0.000362
0.000369
0.000153
0.000055
0.000200
0.000238
0.001270
0.000416
0.000275
0.000547
0.000323
0.000481
0.000284
0.000340
0.000227
0.000221
0.000258
0.000253
0.000263
0.000255
0.000379
0.000505
0.000402
0.000314
0.000257
0.000246
0.000259
0.000500
0.000248
0.000259
0.000253
0.000285
0.000339
0.000581
0.000223
0.000055
0.000393
0.000336
0.000205
0.000214
0.001688
0.000423
0.000229
0.000247
0.000234
0.000246
0.000235
0.000241
0.000240
0.000271
0.000253
0.000262
0.000232
0.000349
0.000334
0.000367
0.000473
0.000237
0.000257
0.000256
0.000253
0.000280
0.000268
0.000238
0.000271
0.000267
0.000203
0.000057
0.000377
0.000346
0.000224
0.000236
0.000240
0.000247
0.000253
0.000247
0.000227
0.000234
0.001376
0.000487
0.000280
0.000252
0.000233
0.000254
0.000271
0.000262
0.000241
0.000272
0.000262
0.000255
0.000287
0.000448
0.000342
0.000476
0.000229
0.000267
0.000278
0.000287
0.000172
0.000056
0.000219
0.000412
0.000219
0.000280
0.000303
0.000440
0.000348
0.000349
0.000449
0.000210
0.000234
0.000249
0.000266
0.000260
0.000260
0.001526
0.000244
0.000291
0.000238
0.000272
0.000275
0.000252
0.000258
0.000259
0.000256
0.000271
0.000489
0.000437
0.000262
0.000275
0.000155
0.000055
0.000191
0.000238
0.000251
0.000235
0.000231
0.000262
0.000237
0.000246
0.000318
0.000347
0.000469
0.000247
0.000256
0.000243
0.000242
0.000275
0.000273
0.000258
0.000270
0.000236
0.000250
0.000368
0.001210
0.000255
0.000247
0.000265
0.000245
0.000268
0.000264
0.000256
0.000180
0.000057
0.000238
0.000376
0.000328
0.000355
0.000237
0.000239
0.000257
0.000265
0.000251
0.000248
0.000254
0.000270
0.000245
0.000255
0.000259
0.000259
0.000265
0.000276
0.000261
0.000251
0.000252
0.000271
0.000271
0.000285
0.000285
0.000267
0.000264
0.000247
0.000268
0.000447
0.001363
0.000056
0.000192
0.000235
0.000234
0.000244
0.000250
0.000258
0.000248
0.000228
0.000250
0.000248
0.000277
0.000251
0.000255
0.000241
0.000253
0.000240
0.001739
0.000255
0.000234
0.000260
0.000247
0.000259
0.000272
0.000259
0.000274
0.000254
0.000263
0.000291
0.000268
0.000252
0.000224
0.000056
0.000289
0.000294
0.001284
0.000216
0.000237
0.000248
0.000259
0.000249
0.000257
0.000253
0.000233
0.000349
0.000454
0.000399
0.000279
0.000214
0.000249
0.000249
0.000259
0.000267
0.000247
0.000266
0.000263
0.000283
0.000293
0.000401
0.000316
0.000393
0.000308
0.000238
0.000189
0.000056
0.000203
0.000255
0.000242
0.000247
0.000251
0.000225
0.000237
0.000282
0.000418
0.001329
0.000260
0.000203
0.000248
0.000269
0.000259
0.000266
0.000260
0.000263
0.000296
0.000532
0.000298
0.000234
0.000250
0.000247
0.000270
0.000273
0.000274
0.000292
0.000267
0.000281
0.000190
0.000055
0.000281
0.000359
0.000417
0.000225
0.000220
0.000242
0.000246
0.000278
0.000264
0.000249
0.000226
0.000250
0.000460
0.000544
0.000414
0.001471
0.000242
0.000270
0.000332
0.000345
0.000474
0.000431
0.000609
0.000253
0.000224
0.000263
0.000286
0.000257
0.000262
0.000272
0.000191
0.000055
0.000221
0.000300
0.000570
0.000324
0.000348
0.000259
0.000228
0.000225
0.000249
0.000257
0.000246
0.000268
0.000261
0.000249
0.000263
0.000307
0.000378
0.000404
0.000371
0.001321
0.000265
0.000250
0.000260
0.000272
0.000580
0.000352
0.000353
0.000238
0.000277
0.000271
0.000189
0.000074
0.000184
0.000243
0.000245
0.000266
0.000226
0.000277
0.000453
0.000416
0.000347
0.000206
0.000245
0.000260
0.000272
0.000260
0.000254
0.000267
0.000267
0.000271
0.000250
0.000303
0.000500
0.000363
0.000346
0.001333
0.000401
0.000243
0.000282
0.000449
0.000476
0.000289
0.000306
0.000056
0.000202
0.000234
0.000246
0.000253
0.000250
0.000254
0.001729
0.000191
0.000212
0.000243
0.000257
0.000243
0.000266
0.000331
0.000327
0.000283
0.000281
0.000293
0.000699
0.000205
0.000315
0.000279
0.000220
0.001425
0.000331
0.000365
0.000406
0.000460
0.000324
0.000294
0.000156
0.000054
0.000197
0.000249
0.000255
0.000260
0.000255
0.000246
0.001709
0.000227
0.000249
0.000256
0.000346
0.000409
0.001467
0.000404
0.000310
0.000246
0.000259
0.000233
0.000270
0.000271
0.001591
0.000476
0.000427
0.000294
0.000245
0.000247
0.000261
0.000281
0.000240
0.000251
0.000196
0.000055
0.000210
0.000227
0.000270
0.000238
0.000273
0.000271
0.000276
0.000257
0.000250
0.000252
0.000251
0.000249
0.000266
0.000291
0.000233
0.001498
0.000278
0.000232
0.000262
0.000274
0.000273
0.000256
0.000442
0.001258
0.000278
0.000237
0.000273
0.000270
0.000374
0.000239
0.000212
0.000056
0.000217
0.000245
0.000226
0.000242
0.000244
0.000243
0.000217
0.001697
0.000262
0.000223
0.000240
0.000374
0.000230
0.000221
0.000254
0.001397
0.000226
0.000257
0.000271
0.000249
0.000259
0.000352
0.000273
0.001315
0.000280
0.000256
0.000242
0.000271
0.001386
0.000280
0.000206
0.000055
0.000257
0.000332
0.000203
0.000241
0.000255
0.000235
0.000266
0.000262
0.000269
0.000252
0.000256
0.000266
0.000251
0.000246
0.000357
0.001459
0.000236
0.000273
0.000252
0.000248
0.000284
0.000263
0.000250
0.001528
0.000349
0.000215
0.000263
0.001283
0.000267
0.000246
0.000216
0.000055
0.000223
0.000491
0.000220
0.000212
0.000233
0.000241
0.000262
0.000259
0.000267
0.000270
0.000236
0.000252
0.000260
0.000291
0.000400
0.001224
0.000234
0.000241
0.000263
0.000282
0.000228
0.000246
0.000246
0.000337
0.001275
0.000250
0.000242
0.000265
0.000251
0.001344
0.000286
0.000055
0.000191
0.000297
0.000228
0.000230
0.000236
0.000257
0.000248
0.000242
0.000282
0.000248
0.000252
0.000239
0.000254
0.000378
0.000364
0.001478
0.000208
0.000248
0.000326
0.000508
0.000261
0.000351
0.001396
0.000291
0.000261
0.000255
0.000264
0.001297
0.000322
0.000506
0.000386
0.000055
0.000225
0.000254
0.000258
0.000253
0.000250
0.000253
0.000275
0.000248
0.000259
0.000315
0.000291
0.000471
0.001313
0.000236
0.000263
0.000262
0.000287
0.000215
0.000239
0.000243
0.000356
0.001230
0.000244
0.000253
0.000257
0.000243
0.001545
0.000430
0.000454
0.000224
0.000177
0.000055
0.000199
0.000228
0.000251
0.000235
0.000255
0.000269
0.000241
0.000336
0.000455
0.000387
0.000268
0.001494
0.000199
0.000242
0.000268
0.000261
0.000262
0.000608
0.001381
0.000251
0.000399
0.000327
0.001338
0.000351
0.000252
0.000313
0.000260
0.000264
0.000267
0.000267
0.000188
0.000055
0.000195
0.000233
0.000332
0.000281
0.000382
0.000461
0.000264
0.000288
0.001466
0.000245
0.000379
0.000268
0.000247
0.000308
0.000381
0.001301
0.000277
0.000233
0.000240
0.000260
0.001577
0.000334
0.000317
0.000248
0.000265
0.000229
0.000482
0.000313
0.000230
0.000246
0.000271
0.000056
0.000190
0.000365
0.000332
0.000260
0.000224
0.001525
0.000201
0.000257
0.000268
0.000271
0.000270
0.000240
0.000390
0.001397
0.000264
0.000214
0.000440
0.001191
0.000302
0.000533
0.000355
0.000230
0.000241
0.000257
0.000274
0.000239
0.000454
0.000230
0.000270
0.000274
0.000192
0.000056
0.000193
0.000313
0.000300
0.000373
0.001295
0.000274
0.000315
0.000230
0.000238
0.000250
0.000251
0.000373
0.001438
0.000262
0.000235
0.000234
0.001382
0.000368
0.000416
0.000460
0.000290
0.000220
0.000246
0.000260
0.000265
0.000294
0.000267
0.000257
0.000258
0.000251
0.000190
0.000055
0.000370
0.000314
0.001388
0.000198
0.000283
0.000274
0.000242
0.000243
0.000265
0.000376
0.001408
0.000239
0.000226
0.000262
0.000255
0.001256
0.000710
0.000328
0.000313
0.000391
0.000295
0.000241
0.000269
0.000253
0.000275
0.000289
0.000272
0.000326
0.000434
0.000410
0.001387
0.000056
0.000213
0.000243
0.000239
0.000229
0.000247
0.000409
0.000486
0.001297
0.000264
0.000227
0.000244
0.001479
0.000371
0.000347
0.000227
0.000415
0.000246
0.000232
0.000267
0.000279
0.000245
0.000271
0.000281
0.000253
0.000256
0.000276
0.000432
0.000503
0.001494
0.000218
0.000187
0.000056
0.000186
0.000259
0.000463
0.000400
0.001266
0.000280
0.000267
0.000245
0.000244
0.000249
0.000250
0.000295
0.000343
0.000475
0.000353
0.000228
0.000263
0.000271
0.000241
0.000279
0.000262
0.000260
0.000255
0.000269
0.000252
0.000378
0.000566
0.000289
0.000319
0.001405
0.000170
0.000055
0.000197
0.000246
0.000275
0.000474
0.000325
0.000305
0.000318
0.000329
0.000270
0.000260
0.000253
0.000270
0.000250
0.000309
0.000244
0.000287
0.000612
0.000254
0.000292
0.000389
0.000274
0.000404
0.000222
0.000251
0.000265
0.000266
0.000248
0.000304
0.000327
0.000513
0.000292
0.000056
0.000215
0.001403
0.000262
0.000316
0.000404
0.000438
0.000469
0.000202
0.000218
0.000235
0.000264
0.000263
0.000249
0.000270
0.000259
0.000259
0.000266
0.001347
0.000262
0.000255
0.000257
0.000275
0.000291
0.000257
0.000274
0.000251
0.000274
0.000248
0.000352
0.000394
0.000319
0.000055
0.000223
0.000261
0.000217
0.001497
0.000330
0.000235
0.000221
0.000249
0.000237
0.000238
0.000258
0.000270
0.000255
0.000250
0.000286
0.000230
0.000255
0.000269
0.000270
0.000244
0.001429
0.000241
0.000245
0.000259
0.000264
0.000252
0.000267
0.000259
0.000280
0.000482
0.000353
0.000055
0.000188
0.000235
0.000394
0.000281
0.000248
0.000252
0.001542
0.000432
0.000209
0.000219
0.000251
0.000321
0.000333
0.000227
0.000227
0.000250
0.000242
0.000292
0.000240
0.000257
0.000573
0.000428
0.001107
0.000274
0.000228
0.000264
0.000274
0.000271
0.000253
0.000262
0.000308
0.000056
0.000268
0.000339
0.000210
0.000238
0.000250
0.000241
0.000250
0.000224
0.000289
0.001611
0.000423
0.000239
0.000230
0.000242
0.000268
0.000242
0.000264
0.000272
0.000260
0.000313
0.000334
0.000478
0.000445
0.001354
0.000238
0.000258
0.000271
0.000256
0.000289
0.000278
0.000570
0.000056
0.000189
0.000235
0.000234
0.000244
0.000220
0.000241
0.000262
0.000257
0.000265
0.001641
0.000279
0.000259
0.000260
0.000265
0.000456
0.000270
0.000524
0.000379
0.000290
0.000340
0.000456
0.000502
0.001206
0.000262
0.000235
0.000258
0.001736
0.000436
0.000604
0.000322
0.000142
0.000055
0.000196
0.000231
0.000242
0.000229
0.000260
0.000245
0.000241
0.000578
0.000508
0.000330
0.000292
0.000221
0.000234
0.000266
0.000278
0.000252
0.000241
0.000253
0.000260
0.000269
0.000278
0.000382
0.001374
0.000220
0.000256
0.000273
0.001895
0.000389
0.000369
0.000353
0.000161
0.000055
0.000219
0.000240
0.000246
0.001643
0.000354
0.000204
0.000238
0.000259
0.000253
0.000296
0.000377
0.000367
0.000379
0.000254
0.000286
0.000525
0.000421
0.001179
0.000276
0.000226
0.000251
0.000266
0.000289
0.000412
0.000641
0.000413
0.000238
0.000279
0.000267
0.000282
0.000187
0.000055
0.000206
0.000229
0.000246
0.001538
0.000255
0.000234
0.000242
0.000253
0.000238
0.000259
0.000255
0.000270
0.000274
0.000263
0.000278
0.000463
0.000412
0.000249
0.001406
0.000226
0.000265
0.000257
0.000261
0.000274
0.000417
0.000428
0.000448
0.000281
0.000283
0.000226
0.000438
0.000055
0.000197
0.000241
0.000250
0.001528
0.000317
0.000219
0.000264
0.000247
0.000253
0.000260
0.000247
0.000257
0.000257
0.000256
0.000333
0.000645
0.001327
0.000740
0.000256
0.000351
0.000251
0.000222
0.000243
0.000280
0.001683
0.000804
0.000229
0.000261
0.000278
0.000288
0.000178
0.000056
0.000192
0.000234
0.000255
0.000245
0.000256
0.000246
0.000240
0.000258
0.000242
0.000226
0.000293
0.000281
0.000254
0.000251
0.000277
0.000230
0.000277
0.001995
0.000328
0.000387
0.000286
0.000229
0.000254
0.000270
0.000258
0.000264
0.000278
0.000248
0.001467
0.000391
0.000247
0.000056
0.000196
0.000229
0.000253
0.000245
0.000268
0.000225
0.000257
0.000252
0.000255
0.000263
0.000278
0.000488
0.000369
0.000329
0.000233
0.000230
0.000264
0.001398
0.000738
0.000470
0.000280
0.000277
0.000230
0.000248
0.000273
0.000247
0.000286
0.000237
0.001535
0.000385
0.000214
0.000055
0.000219
0.000225
0.000246
0.000249
0.000247
0.000252
0.000237
0.000247
0.000271
0.000258
0.000460
0.000281
0.000346
0.000208
0.000247
0.000244
0.000266
0.000256
0.001609
0.000567
0.000537
0.000273
0.000214
0.000267
0.000265
0.000259
0.000266
0.000302
0.000248
0.001561
0.000154
0.000057
0.000228
0.000220
0.000228
0.000257
0.000253
0.000251
0.000266
0.000295
0.000364
0.000444
0.000401
0.000337
0.000368
0.000216
0.000243
0.000257
0.000269
0.000258
0.000269
0.001935
0.000326
0.000228
0.000439
0.000259
0.000238
0.000262
0.000270
0.000266
0.000267
0.000276
0.000434
0.000056
0.000309
0.000210
0.000232
0.000241
0.000269
0.000236
0.000242
0.000220
0.000272
0.000247
0.000249
0.000234
0.000351
0.000460
0.000419
0.000412
0.000228
0.000261
0.000245
0.000261
0.000262
0.000284
0.001479
0.001039
0.000217
0.000249
0.000273
0.000283
0.000257
0.000251
0.000199
0.000056
0.000186
0.001340
0.000296
0.000222
0.000223
0.000252
0.000249
0.000244
0.000236
0.000251
0.000253
0.000265
0.000240
0.000448
0.000301
0.000406
0.000335
0.000244
0.000266
0.000266
0.000269
0.000234
0.000251
0.000268
0.001362
0.000647
0.000315
0.000382
0.000391
0.000394
0.000291
0.000055
0.000213
0.000242
0.001430
0.000249
0.000222
0.000240
0.000229
0.000258
0.000269
0.000241
0.000245
0.000253
0.000298
0.000389
0.000505
0.000293
0.000230
0.000282
0.000333
0.000212
0.000245
0.000275
0.000233
0.000274
0.000273
0.001539
0.000729
0.000302
0.000278
0.000272
0.000186
0.000056
0.000203
0.000250
0.000468
0.000318
0.001312
0.000258
0.000216
0.000234
0.000234
0.000261
0.000237
0.000254
0.000227
0.000257
0.000240
0.000256
0.000268
0.000233
0.000253
0.000262
0.000262
0.000271
0.000305
0.000340
0.000213
0.000268
0.000260
0.001464
0.000254
0.000237
0.000174
0.000055
0.000201
0.000227
0.000250
0.000273
0.000358
0.000382
0.000409
0.000248
0.001562
0.000257
0.000296
0.000498
0.000349
0.000215
0.000430
0.000235
0.000234
0.000264
0.000277
0.000267
0.000279
0.000264
0.000259
0.000272
0.000256
0.000414
0.000468
0.000260
0.001581
0.000221
0.000181
0.000056
0.000227
0.000251
0.000237
0.000243
0.000244
0.000246
0.000264
0.000273
0.000433
0.002054
0.000232
0.000234
0.000258
0.000255
0.000259
0.000254
0.000278
0.000247
0.000417
0.000295
0.000358
0.000447
0.001454
0.000252
0.000524
0.000231
0.001770
0.000239
0.000258
0.001535
0.000153
0.000055
0.000330
0.000425
0.000445
0.000249
0.000267
0.000218
0.000259
0.000271
0.000261
0.000232
0.000250
0.000370
0.000377
0.000398
0.000382
0.000249
0.000227
0.001563
0.000226
0.000590
0.001895
0.000281
0.000221
0.001575
0.001997
0.000744
0.000269
0.000265
0.000264
0.000499
0.000348
0.000055
0.000209
0.000239
0.000244
0.000251
0.001423
0.001733
0.001078
0.000212
0.000229
0.001576
0.001988
0.000200
0.000245
0.000429
0.000363
0.000352
0.000399
0.000427
0.000213
0.000242
0.000249
0.000237
0.000287
0.001592
0.001207
0.001420
0.000275
0.000297
0.000253
0.000400
0.000308
0.000056
0.000221
0.000228
0.000252
0.000234
0.000226
0.000246
0.000249
0.000253
0.000255
0.000253
0.000234
0.000324
0.000490
0.000418
0.000273
0.000249
0.000249
0.000272
0.000268
0.000272
0.000252
0.000261
0.001602
0.000395
0.002107
0.000233
0.000260
0.000546
0.000276
0.000378
0.000156
0.000056
0.000274
0.000292
0.000481
0.000307
0.000193
0.000229
0.000257
0.000243
0.000240
0.000243
0.000249
0.000263
0.000262
0.001605
0.001361
0.001218
0.000280
0.000236
0.000242
0.000268
0.000289
0.000277
0.000240
0.000253
0.002230
0.000223
0.000264
0.000288
0.000324
0.000306
0.000219
0.000055
0.000242
0.000419
0.000463
0.000358
0.000211
0.000235
0.000252
0.000262
0.001909
0.001412
0.000223
0.000335
0.000386
0.000410
0.000265
0.000208
0.000263
0.000267
0.000264
0.000264
0.000251
0.000269
0.000467
0.000245
0.000265
0.000270
0.000254
0.000276
0.000284
0.000243
0.000200
0.000055
0.000196
0.000249
0.000248
0.000241
0.000254
0.000266
0.001558
0.001403
0.001324
0.000243
0.000232
0.000239
0.000266
0.000261
0.000253
0.000250
0.000247
0.002111
0.000256
0.000219
0.000271
0.000261
0.000258
0.000262
0.000272
0.000258
0.000265
0.000257
0.000279
0.000248
0.000173
0.000056
0.000195
0.002684
0.001384
0.000229
0.000305
0.000295
0.000225
0.000270
0.000256
0.000241
0.000255
0.000250
0.000232
0.000248
0.000264
0.000272
0.000254
0.000261
0.000257
0.000273
0.000262
0.000282
0.000278
0.000260
0.000249
0.000248
0.000263
0.000264
0.000266
0.000267
0.000371
0.000055
0.001550
0.000240
0.001250
0.000226
0.000217
0.000249
0.000258
0.000251
0.000245
0.000318
0.000417
0.000321
0.000313
0.000210
0.000245
0.002153
0.000243
0.000243
0.000303
0.000496
0.000420
0.000235
0.000219
0.000261
0.000261
0.000250
0.000270
0.000276
0.000265
0.001633
0.001250
0.000058
0.000218
0.000208
0.000327
0.000367
0.000357
0.000281
0.000209
0.000231
0.000259
0.000255
0.000264
0.000266
0.000207
0.000257
0.000261
0.000253
0.000297
0.000621
0.000373
0.000251
0.000214
0.000282
0.000275
0.000249
0.000250
0.000248
0.000268
0.000275
0.000247
0.000288
0.000381
0.000055
0.001122
0.000313
0.000264
0.000484
0.000251
0.000225
0.000233
0.000240
0.000248
0.002309
0.000384
0.000367
0.000209
0.000384
0.000277
0.000260
0.000262
0.000260
0.000269
0.000230
0.000251
0.000279
0.000729
0.000319
0.001875
0.001347
0.000609
0.000423
0.000221
0.000282
0.000192
0.000056
0.000260
0.000296
0.000249
0.000247
0.000241
0.000227
0.000250
0.000259
0.000256
0.000251
0.000256
0.000222
0.000246
0.000265
0.000449
0.000467
0.001820
0.001362
0.000397
0.000446
0.000453
0.000240
0.000243
0.000263
0.002127
0.000566
0.000386
0.000223
0.000275
0.000289
0.000185
0.000055
0.000204
0.000235
0.000256
0.000264
0.000232
0.000337
0.000435
0.000313
0.000275
0.000237
0.000246
0.000254
0.000262
0.002166
0.000342
0.000353
0.000215
0.000250
0.000274
0.000257
0.000249
0.002583
0.000220
0.000214
0.000266
0.000253
0.000253
0.000267
0.000286
0.000273
0.000197
0.000056
0.000224
0.000330
0.000525
0.000378
0.000259
0.000218
0.000231
0.000255
0.000263
0.000254
0.002019
0.000329
0.000272
0.000293
0.000217
0.000265
0.000265
0.000250
0.002213
0.000447
0.000210
0.000268
0.000262
0.000264
0.000272
0.000244
0.000284
0.000253
0.000266
0.000277
0.000157
0.000055
0.000186
0.000250
0.000237
0.000221
0.000242
0.000261
0.000241
0.000238
0.000235
0.002178
0.000259
0.000259
0.000220
0.000419
0.000229
0.000258
0.000276
0.000282
0.000241
0.000266
0.001967
0.000289
0.000379
0.000373
0.000392
0.000413
0.000293
0.000244
0.000249
0.000253
0.000196
0.000056
0.000212
0.000250
0.000220
0.000251
0.000249
0.000336
0.000208
0.002316
0.000225
0.000249
0.000255
0.000255
0.000237
0.000257
0.000299
0.002173
0.000549
0.000217
0.000255
0.000244
0.000258
0.000260
0.000291
0.000263
0.000261
0.000250
0.000295
0.000250
0.000265
0.000267
0.000191
0.000054
0.001825
0.001436
0.000207
0.000222
0.000247
0.000252
0.000256
0.000301
0.000371
0.002302
0.000301
0.000183
0.000230
0.000267
0.000472
0.000340
0.000394
0.000286
0.000213
0.000254
0.000258
0.000257
0.000271
0.000221
0.000261
0.000260
0.000273
0.000265
0.000557
0.000518
0.000219
0.000056
0.000209
0.000251
0.000242
0.000271
0.000261
0.000238
0.000258
0.000241
0.001524
0.002095
0.000562
0.000293
0.000401
0.000689
0.000343
0.000242
0.000251
0.000253
0.000259
0.000260
0.000263
0.000235
0.000250
0.000275
0.001825
0.001457
0.000286
0.000270
0.000292
0.000298
0.000470
0.000055
0.001944
0.000233
0.000216
0.000230
0.000300
0.000355
0.000443
0.000308
0.000293
0.000221
0.000233
0.000257
0.000259
0.000254
0.000284
0.000240
0.000260
0.000266
0.001840
0.000235
0.000234
0.000255
0.000277
0.000276
0.000275
0.000255
0.001465
0.000325
0.000254
0.000253
0.000175
0.000057
0.000189
0.000235
0.000246
0.000258
0.000236
0.000239
0.000321
0.000361
0.000312
0.000394
0.000216
0.000243
0.000261
0.000342
0.000428
0.000311
0.000222
0.000242
0.000260
0.000341
0.000529
0.000389
0.000269
0.000254
0.000254
0.000256
0.000250
0.000270
0.000277
0.000263
0.000204
0.000056
0.001441
0.000426
0.000229
0.001977
0.000268
0.000428
0.000395
0.000320
0.000217
0.000248
0.000272
0.000243
0.000263
0.000237
0.000266
0.000252
0.000447
0.000321
0.000363
0.000476
0.000273
0.000215
0.000260
0.000268
0.000274
0.000285
0.000251
0.000267
0.000377
0.000413
0.001405
0.000055
0.000206
0.000216
0.002082
0.000320
0.000289
0.000262
0.000254
0.000246
0.000266
0.000262
0.000205
0.000257
0.000256
0.000265
0.000268
0.000374
0.000721
0.001733
0.000218
0.000264
0.000238
0.000266
0.000496
0.000339
0.001567
0.000275
0.000364
0.001927
0.000267
0.000254
0.000188
0.000056
0.000221
0.000225
0.000231
0.000255
0.000219
0.000250
0.000253
0.000288
0.000331
0.000276
0.000380
0.000354
0.000340
0.000298
0.000228
0.000273
0.000267
0.000235
0.000269
0.000254
0.000297
0.000285
0.000272
0.000263
0.000269
0.001509
0.000293
0.000394
0.002063
0.000218
0.000181
0.000057
0.000222
0.000231
0.000238
0.000245
0.000481
0.000213
0.000256
0.000371
0.000336
0.000306
0.000303
0.000214
0.000261
0.000262
0.000274
0.000330
0.000387
0.000464
0.000281
0.000374
0.000545
0.000516
0.001493
0.000229
0.000255
0.001970
0.000369
0.000237
0.000226
0.000299
0.000182
0.000055
0.000201
0.000242
0.000223
0.000250
0.000247
0.000270
0.000253
0.000281
0.000247
0.000277
0.001779
0.000346
0.000388
0.000339
0.000393
0.000422
0.000321
0.001459
0.000243
0.000280
0.002204
0.000483
0.000263
0.000219
0.000272
0.000267
0.000501
0.000222
0.000265
0.000275
0.000197
0.000055
0.000275
0.000476
0.000262
0.000298
0.000201
0.000242
0.000257
0.000255
0.000265
0.000292
0.000234
0.000244
0.000255
0.000264
0.000334
0.001526
0.000319
0.000205
0.000280
0.002058
0.000241
0.000260
0.000248
0.000267
0.000242
0.000283
0.000272
0.000253
0.000252
0.000265
0.000195
0.000056
0.000351
0.000325
0.001996
0.000254
0.000263
0.000217
0.000244
0.000365
0.000453
0.000354
0.001302
0.000390
0.000347
0.002078
0.000207
0.000242
0.000273
0.000271
0.000258
0.000235
0.000286
0.000304
0.000262
0.000294
0.000596
0.000293
0.000331
0.002227
0.000492
0.000540
0.000332
0.000055
0.000209
0.000222
0.000249
0.001970
0.000230
0.000220
0.000247
0.000244
0.000243
0.000256
0.000247
0.000259
0.000242
0.000300
0.000413
0.001495
0.000245
0.000235
0.000272
0.000258
0.000229
0.000259
0.000254
0.000303
0.000317
0.000411
0.000503
0.000236
0.001599
0.000289
0.000153
0.000056
0.000188
0.000224
0.000245
0.000240
0.000253
0.000249
0.000246
0.000267
0.000240
0.000342
0.000421
0.001392
0.000243
0.000216
0.000250
0.000259
0.000252
0.000256
0.000494
0.000300
0.000419
0.000428
0.000219
0.001578
0.000234
0.000263
0.000274
0.000278
0.000267
0.000272
0.000183
0.000056
0.000221
0.000220
0.000266
0.000267
0.000246
0.000245
0.000236
0.000244
0.000268
0.000227
0.000257
0.000255
0.000261
0.001482
0.000363
0.000206
0.000250
0.000262
0.000322
0.000282
0.000437
0.000196
0.000241
0.000266
0.000257
0.000267
0.000257
0.001413
0.000281
0.000237
0.000168
0.000055
0.000209
0.000229
0.000257
0.000261
0.000259
0.000232
0.000248
0.000260
0.000221
0.000264
0.000241
0.000265
0.000222
0.000342
0.000392
0.000304
0.000253
0.000245
0.001640
0.000242
0.000233
0.000261
0.000270
0.000317
0.000407
0.000334
0.000451
0.000264
0.000241
0.001615
0.000161
0.000055
0.000308
0.000363
0.000355
0.000291
0.000233
0.000221
0.000238
0.000272
0.000254
0.000242
0.000249
0.000237
0.001477
0.000295
0.000289
0.000223
0.000243
0.000259
0.000280
0.000256
0.000252
0.000236
0.000263
0.000267
0.000276
0.000353
0.000451
0.000373
0.000264
0.000271
0.000167
0.000055
0.000216
0.000241
0.000404
0.000383
0.000425
0.000218
0.000247
0.000249
0.000258
0.000252
0.000243
0.000226
0.000252
0.000249
0.001262
0.000293
0.000229
0.000260
0.000267
0.000265
0.000242
0.000264
0.000253
0.000261
0.000257
0.000253
0.000297
0.000739
0.000427
0.000225
0.000177
0.000055
0.000212
0.001549
0.000271
0.000498
0.000356
0.000288
0.000216
0.000260
0.000267
0.000246
0.000249
0.000256
0.000269
0.000273
0.000261
0.001523
0.000259
0.000281
0.000266
0.000257
0.000253
0.000250
0.000267
0.000264
0.000264
0.000278
0.000479
0.000326
0.000334
0.000241
0.000183
0.000056
0.000190
0.000254
0.000230
0.001636
0.000401
0.000346
0.000223
0.000242
0.000254
0.000268
0.000285
0.000255
0.000243
0.000262
0.000233
0.000268
0.000475
0.001269
0.000240
0.000219
0.001507
0.000303
0.000570
0.000418
0.000338
0.000220
0.000310
0.000426
0.000236
0.000257
0.000188
0.000054
0.000263
0.000220
0.000240
0.000246
0.000251
0.000256
0.000236
0.000256
0.000261
0.000234
0.000255
0.000264
0.000327
0.000589
0.001563
0.001503
0.000344
0.000547
0.000325
0.000227
0.000230
0.000258
0.000253
0.000262
0.000248
0.000267
0.000264
0.000265
0.001523
0.000341
0.000165
0.000055
0.000261
0.000326
0.000354
0.000331
0.000224
0.000220
0.000245
0.000331
0.000483
0.000345
0.002167
0.000323
0.000773
0.000445
0.000446
0.000268
0.000332
0.000403
0.000323
0.000275
0.000402
0.000223
0.001568
0.000524
0.000213
0.000260
0.000266
0.000251
0.000262
0.000263
0.000193
0.000055
0.000227
0.000247
0.000251
0.000254
0.000248
0.001664
0.000876
0.000993
0.000210
0.000234
0.000260
0.000259
0.000258
0.000260
0.000255
0.000249
0.000255
0.000262
0.000265
0.000283
0.001431
0.000313
0.000257
0.000225
0.000228
0.000280
0.000244
0.000280
0.000261
0.000285
0.001905
0.000056
0.000191
0.000228
0.001554
0.000857
0.000414
0.000321
0.000243
0.000223
0.000248
0.000257
0.000248
0.000248
0.000246
0.002056
0.000411
0.000235
0.000233
0.000250
0.000274
0.000251
0.000183
