0.000105
0.009299
0.012493
0.000269
0.000239
0.000234
0.000300
0.000252
0.000328
0.000291
0.000241
0.000403
0.000482
0.000558
0.000283
0.000326
0.000301
0.000389
0.000394
0.000415
0.000301
0.001841
0.000523
0.000442
0.000250
0.000294
0.000306
0.000416
0.000413
0.000456
0.000461
0.000234
0.000058
0.000203
0.000222
0.000270
0.000260
0.000276
0.000265
0.000261
0.000269
0.000267
0.000307
0.000417
0.000465
0.000305
0.000281
0.000397
0.000365
0.000350
0.000247
0.000215
0.001729
0.000299
0.000222
0.000515
0.000243
0.000244
0.000239
0.000282
0.000303
0.000276
0.000311
0.000445
0.000058
0.000254
0.000211
0.000258
0.000262
0.000253
0.000251
0.000258
0.000259
0.000277
0.001690
0.000280
0.000214
0.000241
0.000250
0.000277
0.000248
0.000276
0.000258
0.000351
0.001800
0.000318
0.000200
0.000451
0.000459
0.000396
0.000234
0.000249
0.000581
0.000419
0.000764
0.000176
0.000059
0.000220
0.000210
0.000252
0.000244
0.000322
0.000245
0.000315
0.000576
0.000417
0.000261
0.000216
0.000214
0.000225
0.000261
0.000246
0.000256
0.000242
0.000275
0.000293
0.000320
0.001759
0.000284
0.000208
0.000452
0.000448
0.000500
0.000676
0.000508
0.000323
0.000266
0.000202
0.000056
0.000220
0.000218
0.000265
0.000249
0.000249
0.000251
0.000260
0.000519
0.001445
0.000235
0.000258
0.000211
0.000243
0.000256
0.000263
0.000290
0.000274
0.000823
0.001363
0.000296
0.000246
0.000434
0.000256
0.000224
0.000251
0.000256
0.000266
0.000270
0.000269
0.000261
0.000223
0.000057
0.000204
0.000209
0.000241
0.000241
0.000259
0.000245
0.000254
0.000243
0.000244
0.000243
0.001708
0.000252
0.000218
0.000231
0.000231
0.000237
0.000245
0.000239
0.000266
0.000252
0.000264
0.001748
0.000245
0.000263
0.000473
0.000235
0.000228
0.000245
0.000254
0.000266
0.000201
0.000057
0.000215
0.000213
0.000234
0.000246
0.000240
0.000249
0.000258
0.000239
0.000261
0.000242
0.000262
0.000265
0.000249
0.000275
0.001647
0.000271
0.000289
0.000239
0.000240
0.000262
0.000262
0.000257
0.000255
0.000256
0.000267
0.001844
0.000387
0.000346
0.000281
0.000257
0.000224
0.000057
0.000217
0.000208
0.000238
0.000278
0.000273
0.000212
0.000306
0.000395
0.000412
0.000442
0.000210
0.000227
0.000255
0.000252
0.001662
0.000514
0.000350
0.000341
0.000301
0.000219
0.000257
0.000277
0.000266
0.001810
0.000508
0.000467
0.000230
0.000227
0.000226
0.000255
0.000326
0.000058
0.000207
0.000218
0.000231
0.000261
0.000309
0.000547
0.000334
0.000281
0.000207
0.000213
0.000266
0.000234
0.000271
0.001704
0.000481
0.000312
0.000213
0.000251
0.000263
0.000274
0.000264
0.000267
0.000261
0.001901
0.000310
0.000390
0.000253
0.000247
0.000298
0.000403
0.000318
0.000056
0.000196
0.000474
0.000312
0.000228
0.000278
0.000209
0.000234
0.000257
0.000246
0.000256
0.000213
0.000245
0.001629
0.000354
0.000298
0.000218
0.000202
0.000250
0.000240
0.000296
0.000270
0.000333
0.001781
0.000360
0.000221
0.000508
0.000224
0.000246
0.000228
0.000263
0.000291
0.000056
0.000431
0.000451
0.000658
0.000210
0.000201
0.000259
0.000236
0.000224
0.000247
0.000263
0.000243
0.001710
0.000299
0.000389
0.000381
0.000232
0.000220
0.000240
0.000235
0.000258
0.000269
0.001840
0.000263
0.000211
0.002264
0.000438
0.000265
0.000250
0.000256
0.000260
0.000203
0.000056
0.000230
0.000205
0.000230
0.000243
0.000255
0.001700
0.000214
0.000207
0.000238
0.000249
0.000242
0.000254
0.000248
0.000253
0.000286
0.000426
0.000644
0.000236
0.000213
0.000256
0.000274
0.000264
0.000231
0.000495
0.000437
0.000281
0.000363
0.000694
0.000265
0.000251
0.000171
0.000058
0.000190
0.000231
0.000227
0.000252
0.000237
0.000244
0.000236
0.000506
0.000413
0.001610
0.000266
0.000222
0.000235
0.000252
0.000256
0.000381
0.000395
0.000461
0.000374
0.000217
0.000251
0.000263
0.000311
0.000267
0.000274
0.000404
0.000422
0.000661
0.000449
0.000388
0.000137
0.000056
0.000213
0.000228
0.000222
0.000223
0.000238
0.000239
0.000246
0.000241
0.000256
0.000369
0.000407
0.001493
0.000275
0.000211
0.000211
0.000206
0.000267
0.000247
0.000256
0.000240
0.000326
0.000410
0.000432
0.000316
0.000271
0.000185
0.000273
0.000241
0.000271
0.000272
0.000433
0.000056
0.000210
0.000217
0.000223
0.000376
0.000464
0.000384
0.000252
0.000242
0.000241
0.000250
0.000251
0.000247
0.000279
0.000263
0.000232
0.000590
0.000377
0.001581
0.000264
0.000251
0.000255
0.000256
0.000279
0.000228
0.000260
0.000523
0.000509
0.000291
0.000362
0.000229
0.000215
0.000056
0.000204
0.000205
0.000396
0.000237
0.000265
0.000238
0.000275
0.000663
0.000304
0.000290
0.000205
0.000268
0.000271
0.000369
0.000578
0.000223
0.000192
0.000242
0.000360
0.001740
0.000226
0.000273
0.000312
0.000367
0.000287
0.000278
0.000264
0.000331
0.000583
0.000361
0.000287
0.000056
0.000197
0.000215
0.000232
0.000237
0.000487
0.000265
0.000286
0.000209
0.000362
0.000631
0.000321
0.000247
0.000200
0.000216
0.000256
0.000272
0.000252
0.000257
0.000227
0.000378
0.000264
0.000372
0.001806
0.000254
0.000252
0.000240
0.000321
0.000355
0.000462
0.000755
0.000352
0.000077
0.000241
0.000310
0.000337
0.000415
0.000316
0.000209
0.000244
0.000276
0.000600
0.000452
0.000212
0.000211
0.000216
0.000266
0.000261
0.000246
0.000237
0.000272
0.000263
0.000271
0.000263
0.000391
0.001800
0.000287
0.000360
0.000422
0.000382
0.000244
0.000366
0.000442
0.000389
0.000057
0.000252
0.000380
0.000282
0.000207
0.000234
0.000213
0.000475
0.000210
0.000258
0.000324
0.000410
0.000488
0.000206
0.000233
0.000283
0.000273
0.000359
0.000435
0.000316
0.000223
0.000214
0.000472
0.000529
0.001699
0.000265
0.000383
0.000332
0.000237
0.000303
0.000402
0.000327
0.000056
0.000225
0.000212
0.000226
0.000254
0.000238
0.000251
0.000250
0.000374
0.000422
0.000310
0.000565
0.000294
0.000269
0.000207
0.000523
0.000263
0.000269
0.000267
0.000239
0.000364
0.000226
0.000224
0.000286
0.000391
0.000552
0.001678
0.000235
0.000224
0.000221
0.000266
0.000206
0.000058
0.000278
0.000468
0.000355
0.000204
0.000232
0.000222
0.000261
0.000232
0.000257
0.000253
0.000224
0.000493
0.000299
0.000477
0.000351
0.000331
0.000225
0.000245
0.000358
0.000367
0.000367
0.000347
0.000385
0.000380
0.000249
0.000221
0.000244
0.000266
0.001793
0.000262
0.000216
0.000057
0.000188
0.000201
0.000245
0.000261
0.000369
0.000532
0.000350
0.000217
0.000228
0.000267
0.000250
0.000248
0.000533
0.000451
0.000473
0.000311
0.000274
0.000235
0.000436
0.000487
0.000371
0.000471
0.000548
0.000324
0.000234
0.000244
0.000243
0.000220
0.000255
0.001784
0.000404
0.000058
0.000252
0.000332
0.000199
0.000220
0.000245
0.000247
0.000297
0.000448
0.000426
0.000309
0.000300
0.000325
0.000383
0.000613
0.000309
0.000211
0.000217
0.000241
0.000244
0.000269
0.000266
0.000272
0.000236
0.000264
0.000356
0.000317
0.000521
0.000317
0.000231
0.000212
0.000189
0.000057
0.000477
0.000287
0.000407
0.000269
0.000192
0.000242
0.000250
0.000251
0.000250
0.000240
0.000222
0.000282
0.000291
0.000398
0.000542
0.000511
0.000232
0.000362
0.000369
0.000393
0.000267
0.000222
0.000223
0.000243
0.001823
0.000235
0.001745
0.000981
0.000318
0.000351
0.000138
0.000056
0.000206
0.000205
0.000230
0.000253
0.000242
0.000249
0.000259
0.000249
0.000258
0.000282
0.000459
0.000369
0.000385
0.000402
0.000230
0.000249
0.000270
0.000287
0.000214
0.000227
0.000259
0.000220
0.001810
0.000267
0.000235
0.000244
0.000276
0.000270
0.001888
0.000542
0.000284
0.000057
0.000228
0.000204
0.000210
0.000245
0.000249
0.000244
0.000251
0.000246
0.000269
0.000391
0.000592
0.000267
0.000387
0.000241
0.000219
0.000284
0.000380
0.000389
0.000375
0.000262
0.001789
0.000249
0.000223
0.000230
0.000247
0.000271
0.000248
0.000270
0.000240
0.000403
0.000404
0.000058
0.000267
0.000199
0.000203
0.000249
0.000251
0.000237
0.000262
0.000255
0.000236
0.000272
0.000234
0.000273
0.000371
0.000447
0.000300
0.000321
0.000477
0.000211
0.000205
0.000259
0.000264
0.000253
0.000277
0.000260
0.000277
0.001787
0.000291
0.000211
0.000251
0.000240
0.000221
0.000059
0.000309
0.000237
0.000235
0.000196
0.000225
0.000237
0.000240
0.000252
0.000253
0.000219
0.000236
0.000275
0.000238
0.000340
0.000465
0.000356
0.000332
0.000222
0.000214
0.000237
0.000257
0.000261
0.000253
0.000263
0.000261
0.000276
0.000305
0.001688
0.000237
0.000224
0.000186
0.000057
0.000195
0.000223
0.000238
0.000266
0.000344
0.000504
0.000322
0.000273
0.000210
0.000245
0.000244
0.000243
0.000248
0.000255
0.000279
0.000236
0.000262
0.000241
0.000257
0.000260
0.000261
0.000277
0.000257
0.000235
0.000235
0.000283
0.000282
0.000265
0.000253
0.000255
0.000210
0.000057
0.000190
0.000209
0.000237
0.000272
0.000228
0.000247
0.000241
0.000267
0.000364
0.000200
0.000195
0.000236
0.000252
0.000254
0.000264
0.000267
0.000250
0.000249
0.000372
0.000219
0.000235
0.000282
0.000279
0.000258
0.000272
0.000283
0.000270
0.000240
0.000264
0.000466
0.000725
0.000057
0.000203
0.000302
0.000231
0.000211
0.000193
0.000252
0.000237
0.000254
0.000240
0.000259
0.000257
0.000352
0.000423
0.000570
0.001525
0.000215
0.000507
0.000208
0.000220
0.000438
0.000494
0.000364
0.000197
0.000269
0.000258
0.000261
0.000276
0.000259
0.000300
0.000259
0.000204
0.000057
0.000300
0.000429
0.000415
0.000292
0.000187
0.000229
0.000253
0.000244
0.000235
0.000242
0.000261
0.000247
0.000241
0.000312
0.000362
0.000492
0.000337
0.001799
0.000277
0.000215
0.000354
0.000402
0.000510
0.000256
0.000366
0.000314
0.000247
0.000235
0.000223
0.000244
0.000211
0.000056
0.000177
0.000200
0.000243
0.000284
0.000351
0.000603
0.000207
0.000245
0.000255
0.000216
0.000239
0.000267
0.000268
0.000263
0.000243
0.000260
0.000313
0.000540
0.000299
0.000433
0.000228
0.001811
0.000291
0.000557
0.000482
0.000443
0.000284
0.000236
0.000238
0.000260
0.000501
0.000057
0.000197
0.000234
0.000238
0.000344
0.000348
0.000526
0.000331
0.000250
0.000227
0.000312
0.000226
0.000223
0.000253
0.000301
0.000364
0.000216
0.000227
0.000510
0.000283
0.000392
0.000532
0.001788
0.000250
0.000404
0.000626
0.000271
0.000238
0.000371
0.000248
0.000219
0.000204
0.000057
0.000213
0.000336
0.000353
0.000303
0.000398
0.000280
0.000388
0.000226
0.000224
0.000250
0.000283
0.000233
0.000234
0.000245
0.000258
0.000251
0.000337
0.000351
0.000563
0.000334
0.000312
0.000213
0.000254
0.001788
0.000408
0.000469
0.000681
0.000274
0.000234
0.000311
0.000162
0.000056
0.000184
0.000214
0.000312
0.000260
0.000245
0.000450
0.000353
0.000331
0.000302
0.000528
0.000209
0.000219
0.000222
0.000279
0.000283
0.000269
0.000237
0.000372
0.000500
0.000352
0.000258
0.000250
0.000250
0.000266
0.000250
0.000263
0.000241
0.000248
0.000267
0.000361
0.000197
0.000057
0.000311
0.000320
0.000232
0.000231
0.000246
0.000255
0.000241
0.000379
0.000195
0.000203
0.000255
0.000344
0.000461
0.000433
0.000264
0.000338
0.000213
0.000223
0.000251
0.000255
0.000260
0.000294
0.000230
0.000256
0.000277
0.000303
0.000579
0.000275
0.000354
0.000218
0.000162
0.000056
0.000204
0.000203
0.000266
0.000264
0.000214
0.000244
0.000255
0.000268
0.000489
0.000235
0.000257
0.000233
0.000253
0.000256
0.000265
0.000272
0.000277
0.000351
0.000253
0.000224
0.000233
0.000276
0.000255
0.000260
0.000282
0.000261
0.000257
0.000267
0.000252
0.000504
0.000175
0.000056
0.000201
0.000204
0.000245
0.000263
0.000257
0.000220
0.000297
0.000457
0.000293
0.000200
0.000243
0.000263
0.000242
0.000291
0.000486
0.001710
0.000258
0.000226
0.000318
0.000376
0.000412
0.000344
0.000382
0.000424
0.000329
0.000361
0.000247
0.000261
0.000274
0.000275
0.001422
0.000056
0.000421
0.000287
0.000272
0.000195
0.000206
0.000228
0.000228
0.000257
0.000244
0.000265
0.000258
0.000244
0.000260
0.000242
0.000633
0.001659
0.000216
0.000226
0.000203
0.000271
0.000246
0.000256
0.000401
0.000466
0.000196
0.000333
0.000240
0.000245
0.000274
0.000261
0.000221
0.000056
0.001214
0.000628
0.000250
0.000306
0.000206
0.000192
0.000204
0.000235
0.000492
0.000234
0.000224
0.000248
0.000317
0.000608
0.000361
0.000321
0.000294
0.000242
0.000318
0.000386
0.000228
0.000232
0.000272
0.000240
0.000266
0.000670
0.000484
0.000263
0.000237
0.000275
0.000176
0.000057
0.000187
0.000220
0.000213
0.000246
0.001532
0.000273
0.000206
0.000237
0.000243
0.000251
0.000249
0.000247
0.000249
0.000260
0.000265
0.000294
0.000443
0.000665
0.000270
0.001803
0.000244
0.000293
0.000348
0.000352
0.000501
0.000428
0.000252
0.000218
0.000259
0.000264
0.000219
0.000057
0.000178
0.000258
0.000220
0.001320
0.000335
0.000200
0.000261
0.000209
0.000233
0.000228
0.000238
0.000254
0.000279
0.000243
0.000250
0.000330
0.000519
0.000395
0.000325
0.000213
0.000242
0.000273
0.000256
0.000233
0.000356
0.000222
0.000214
0.000274
0.000263
0.000373
0.000582
0.000058
0.000203
0.000251
0.000209
0.000259
0.000265
0.000253
0.000229
0.000255
0.000270
0.000253
0.001437
0.000262
0.000208
0.000251
0.000247
0.000237
0.000265
0.000265
0.000257
0.000267
0.000281
0.000532
0.000497
0.000285
0.000255
0.000266
0.001825
0.000241
0.000223
0.000300
0.000491
0.000056
0.000254
0.000431
0.000451
0.000506
0.000524
0.000533
0.001452
0.000457
0.000533
0.000649
0.000595
0.000709
0.000447
0.000629
0.000582
0.001768
0.000418
0.000450
0.000391
0.000307
0.000262
0.000297
0.000274
0.000265
0.000281
0.000266
0.000300
0.000273
0.000263
0.000294
0.001321
0.000056
0.000217
0.000247
0.000224
0.000232
0.000244
0.000254
0.000232
0.000232
0.000261
0.000276
0.000238
0.000257
0.000238
0.000268
0.000261
0.000258
0.001842
0.000264
0.000257
0.000255
0.000254
0.000261
0.000270
0.000315
0.000431
0.000357
0.000335
0.000233
0.000266
0.000292
0.000166
0.000055
0.000207
0.001383
0.000254
0.000265
0.000263
0.000241
0.000256
0.000241
0.000253
0.000248
0.000237
0.000239
0.000261
0.000425
0.000293
0.000350
0.000266
0.000315
0.001874
0.000275
0.000258
0.000252
0.000264
0.000259
0.000273
0.000264
0.000285
0.000242
0.000246
0.000299
0.000234
0.000056
0.000195
0.000228
0.000257
0.001422
0.000262
0.000291
0.000201
0.000224
0.000232
0.000254
0.000253
0.000252
0.000233
0.000276
0.000277
0.000243
0.000251
0.000251
0.000261
0.000284
0.000252
0.001847
0.000261
0.001748
0.000269
0.000257
0.000251
0.000229
0.000267
0.000290
0.000196
0.000056
0.000219
0.000236
0.001367
0.000277
0.000213
0.000230
0.000221
0.000227
0.000264
0.000247
0.000244
0.000255
0.000248
0.000257
0.000264
0.000255
0.000267
0.000273
0.000320
0.000280
0.001813
0.000281
0.001775
0.000289
0.000260
0.000241
0.000262
0.000261
0.000262
0.000262
0.000189
0.000056
0.001415
0.000235
0.000255
0.000219
0.000207
0.000220
0.000278
0.000353
0.000258
0.000257
0.000245
0.000270
0.000308
0.000409
0.000365
0.000267
0.000275
0.000244
0.000236
0.000214
0.000261
0.000348
0.000234
0.000266
0.000271
0.000273
0.000254
0.000328
0.000715
0.000370
0.000162
0.000056
0.000215
0.000282
0.000265
0.000317
0.000346
0.000277
0.001655
0.000308
0.000277
0.000256
0.000269
0.000298
0.000270
0.000265
0.000295
0.000308
0.000487
0.000357
0.000404
0.000280
0.000323
0.000281
0.000257
0.000261
0.000327
0.000269
0.000260
0.000239
0.000241
0.000308
0.000377
0.000057
0.000304
0.000365
0.000255
0.000268
0.000252
0.000231
0.000219
0.000245
0.000256
0.000253
0.001529
0.000261
0.000202
0.000229
0.000253
0.000281
0.000267
0.000243
0.000273
0.000260
0.000263
0.000399
0.000558
0.000345
0.000224
0.000287
0.000270
0.000229
0.000249
0.000237
0.000247
0.000056
0.000195
0.000201
0.000275
0.000653
0.000194
0.000270
0.000221
0.000235
0.000250
0.000272
0.000220
0.000265
0.000248
0.000266
0.000234
0.000253
0.000408
0.001258
0.000212
0.000268
0.000226
0.000244
0.000342
0.000515
0.000214
0.000304
0.000534
0.000362
0.000429
0.000231
0.000149
0.000058
0.000193
0.000219
0.000264
0.000262
0.000320
0.000196
0.000342
0.000428
0.000469
0.000293
0.000367
0.000400
0.000397
0.000356
0.000238
0.000227
0.000205
0.000241
0.000421
0.000522
0.001188
0.000239
0.000247
0.000273
0.000236
0.000244
0.000253
0.000373
0.000362
0.000525
0.000228
0.000056
0.000170
0.000213
0.000260
0.000228
0.000258
0.000235
0.000241
0.000260
0.000259
0.000469
0.000457
0.000351
0.000231
0.000221
0.000218
0.000253
0.000244
0.000265
0.000267
0.000235
0.000507
0.000215
0.000453
0.000351
0.000331
0.000212
0.000258
0.000281
0.000243
0.000284
0.000241
0.000057
0.000271
0.000289
0.000315
0.000388
0.000479
0.000317
0.000242
0.000277
0.000204
0.000262
0.000270
0.000253
0.000244
0.000258
0.000239
0.000227
0.000273
0.000462
0.000460
0.000332
0.000222
0.000261
0.000207
0.000238
0.000276
0.000283
0.000248
0.000280
0.000272
0.000268
0.000355
0.000057
0.000300
0.000318
0.000228
0.000219
0.000248
0.000247
0.000251
0.000251
0.000261
0.000259
0.000253
0.000239
0.000367
0.000499
0.000403
0.000318
0.000217
0.000203
0.000238
0.000259
0.000282
0.000254
0.000259
0.000263
0.000274
0.000318
0.000455
0.000648
0.000397
0.000209
0.000158
0.000056
0.000384
0.000199
0.000201
0.000226
0.000252
0.000255
0.000240
0.000247
0.000252
0.000258
0.000226
0.000243
0.000285
0.000215
0.000263
0.000247
0.000252
0.000264
0.000286
0.000277
0.000228
0.000272
0.000255
0.000261
0.000271
0.000278
0.000224
0.000273
0.000258
0.000275
0.000216
0.000056
0.000179
0.000233
0.000220
0.000258
0.000240
0.000237
0.000262
0.000243
0.000256
0.000287
0.000220
0.000236
0.000268
0.000396
0.000233
0.000288
0.000261
0.000258
0.000265
0.000272
0.000278
0.000241
0.000244
0.000243
0.000278
0.000264
0.000270
0.000238
0.000279
0.000257
0.000220
0.000056
0.000245
0.000378
0.000351
0.000279
0.000302
0.000234
0.000204
0.000246
0.000252
0.000229
0.000246
0.000264
0.000247
0.000238
0.000254
0.000256
0.000286
0.000251
0.000264
0.000248
0.000268
0.000266
0.000275
0.000261
0.000272
0.000279
0.000245
0.000282
0.000241
0.000260
0.000214
0.000075
0.000172
0.000226
0.000242
0.000259
0.000251
0.000459
0.000206
0.000240
0.000383
0.000344
0.000517
0.000323
0.000220
0.000201
0.000258
0.000275
0.000240
0.000260
0.000266
0.000266
0.000263
0.000265
0.000257
0.000262
0.000536
0.000536
0.000284
0.000254
0.000272
0.000259
0.000214
0.000057
0.000215
0.000192
0.000235
0.000253
0.000401
0.000576
0.000306
0.000388
0.000232
0.000222
0.000254
0.000255
0.000257
0.000243
0.000257
0.000264
0.000270
0.000255
0.000683
0.000351
0.000303
0.000245
0.000229
0.000284
0.000279
0.000265
0.000255
0.000266
0.000243
0.000353
0.000346
0.000057
0.000265
0.000237
0.000202
0.000240
0.000248
0.000261
0.000251
0.000219
0.000247
0.000249
0.000247
0.000276
0.000234
0.000456
0.000583
0.000341
0.000249
0.000212
0.000258
0.000257
0.000262
0.000267
0.000483
0.000237
0.000267
0.000793
0.000250
0.000441
0.000285
0.000240
0.000187
0.000057
0.000184
0.000205
0.000237
0.000237
0.000279
0.000235
0.000340
0.000421
0.000661
0.000332
0.000216
0.000259
0.000270
0.000281
0.000280
0.000221
0.000240
0.000243
0.000260
0.000429
0.000408
0.000491
0.000447
0.000252
0.000438
0.000349
0.000490
0.000204
0.000248
0.000407
0.000395
0.000056
0.000271
0.000217
0.000483
0.000193
0.000239
0.000222
0.000241
0.000257
0.000240
0.000242
0.000281
0.000378
0.000445
0.000313
0.000229
0.000209
0.000303
0.000198
0.000271
0.000272
0.000269
0.000256
0.000254
0.000267
0.000345
0.000436
0.000494
0.000262
0.000262
0.000254
0.000222
0.000057
0.000203
0.000229
0.000233
0.000248
0.000245
0.000246
0.000396
0.000561
0.000282
0.000287
0.000347
0.000274
0.000183
0.000273
0.000255
0.000236
0.000247
0.000266
0.000299
0.000402
0.000537
0.000318
0.000412
0.000348
0.000395
0.000392
0.000381
0.000253
0.000225
0.000332
0.000302
0.000056
0.000253
0.000236
0.000211
0.000246
0.000256
0.000257
0.000247
0.000253
0.000245
0.000266
0.000235
0.000426
0.000412
0.000351
0.000362
0.000263
0.000233
0.000259
0.000287
0.000226
0.000245
0.000249
0.000276
0.000265
0.000278
0.000334
0.000545
0.000422
0.000244
0.000274
0.000204
0.000057
0.000212
0.000195
0.000259
0.000251
0.000244
0.000316
0.000774
0.000246
0.000364
0.000672
0.000318
0.000198
0.000208
0.000253
0.000243
0.000272
0.000282
0.000264
0.000476
0.000552
0.001537
0.000230
0.000253
0.000261
0.000297
0.000234
0.000433
0.000440
0.000266
0.000329
0.000166
0.000056
0.000215
0.000200
0.000250
0.000245
0.000234
0.000251
0.000268
0.000266
0.000251
0.000361
0.000369
0.000341
0.000276
0.000386
0.000385
0.000330
0.000236
0.000212
0.000241
0.000260
0.000242
0.000248
0.000284
0.000268
0.000343
0.000549
0.000348
0.000260
0.000240
0.000240
0.000206
0.000056
0.000214
0.000223
0.000253
0.000252
0.000249
0.000240
0.000456
0.000219
0.000237
0.000249
0.000252
0.000249
0.000263
0.000268
0.000237
0.000261
0.000272
0.000254
0.000276
0.000255
0.000263
0.000289
0.000315
0.000221
0.000271
0.000267
0.000267
0.000278
0.000287
0.000244
0.000193
0.000055
0.000233
0.000210
0.000256
0.000531
0.000379
0.000213
0.000210
0.000233
0.000263
0.000250
0.000245
0.000250
0.000268
0.000260
0.000246
0.000240
0.000245
0.000263
0.000263
0.000394
0.000436
0.000368
0.000229
0.000267
0.000265
0.000261
0.000255
0.000255
0.000275
0.000280
0.000213
0.000056
0.000502
0.000348
0.000325
0.000208
0.000235
0.000266
0.000472
0.000203
0.000200
0.000241
0.000280
0.000338
0.000397
0.000422
0.001752
0.000278
0.000246
0.000235
0.000278
0.000243
0.000400
0.000521
0.000396
0.000402
0.000217
0.000253
0.000272
0.000419
0.000285
0.000278
0.000186
0.000055
0.000282
0.000326
0.000264
0.000343
0.000509
0.000207
0.000251
0.000217
0.000255
0.000247
0.000258
0.000252
0.000256
0.000443
0.000374
0.000420
0.000227
0.000202
0.000267
0.000257
0.000258
0.000336
0.000227
0.000273
0.000273
0.000455
0.000521
0.000495
0.000374
0.000238
0.000194
0.000057
0.000200
0.000204
0.000237
0.000234
0.000246
0.000256
0.000265
0.000287
0.000351
0.000476
0.000311
0.000383
0.000236
0.000203
0.000261
0.000280
0.000321
0.000239
0.000258
0.000278
0.000246
0.000384
0.000395
0.000403
0.000234
0.000299
0.000237
0.000532
0.000387
0.000286
0.000151
0.000056
0.000178
0.000201
0.000437
0.000415
0.000292
0.000219
0.000223
0.000256
0.000257
0.000258
0.000265
0.000258
0.000254
0.000219
0.000262
0.000282
0.000411
0.000381
0.000410
0.000235
0.000466
0.000232
0.000268
0.000273
0.000308
0.000287
0.000257
0.000252
0.000468
0.000615
0.000130
0.000056
0.000186
0.000199
0.000241
0.000256
0.000238
0.000491
0.000220
0.000231
0.000259
0.000309
0.000613
0.000500
0.000218
0.000233
0.000238
0.000254
0.000257
0.000249
0.000273
0.000229
0.000266
0.000269
0.000400
0.000465
0.000353
0.000323
0.000349
0.000343
0.000304
0.000211
0.000170
0.000056
0.000198
0.000216
0.000222
0.000594
0.000217
0.000382
0.000249
0.000214
0.000193
0.000243
0.000261
0.000249
0.000258
0.000248
0.000314
0.000213
0.000244
0.000247
0.000287
0.000413
0.000474
0.000412
0.000222
0.000224
0.000281
0.000269
0.000256
0.000260
0.000257
0.000284
0.000199
0.000056
0.000274
0.000407
0.000462
0.000216
0.000202
0.000212
0.000326
0.000504
0.000274
0.000207
0.000209
0.000272
0.000255
0.000585
0.000328
0.000311
0.000220
0.000213
0.000303
0.000201
0.000263
0.000267
0.000262
0.000275
0.000264
0.000318
0.000405
0.000476
0.000286
0.000217
0.000142
0.000056
0.000212
0.000197
0.000241
0.000253
0.000254
0.000263
0.000234
0.000254
0.000252
0.000246
0.000267
0.000240
0.000258
0.001465
0.000252
0.000227
0.000251
0.000254
0.000270
0.000278
0.000266
0.000239
0.000282
0.000250
0.000260
0.000271
0.000283
0.000264
0.000261
0.000260
0.000217
0.000056
0.000211
0.000234
0.000216
0.000240
0.000241
0.000243
0.000261
0.000253
0.000237
0.000247
0.000241
0.000266
0.000257
0.000255
0.000255
0.000259
0.000254
0.000273
0.000252
0.000259
0.000262
0.000248
0.000253
0.000246
0.001363
0.000268
0.000589
0.000448
0.000330
0.000213
0.000155
0.000056
0.000189
0.000215
0.000240
0.000250
0.000504
0.000230
0.000192
0.000210
0.000252
0.000326
0.000580
0.000336
0.000202
0.000217
0.000222
0.000272
0.000241
0.000265
0.000252
0.000260
0.000270
0.000245
0.000253
0.000580
0.000419
0.000388
0.000252
0.000238
0.001361
0.000291
0.000176
0.000056
0.000350
0.000424
0.000351
0.000243
0.000200
0.000209
0.000228
0.000236
0.000258
0.000257
0.000253
0.000250
0.000260
0.000274
0.000575
0.000445
0.000283
0.000233
0.000239
0.000241
0.000266
0.000266
0.000277
0.000255
0.000264
0.000264
0.000270
0.000702
0.000321
0.000383
0.000148
0.000056
0.000204
0.000216
0.001323
0.000348
0.000320
0.000448
0.000367
0.000315
0.000433
0.000396
0.000225
0.000203
0.000237
0.000252
0.000253
0.000261
0.000313
0.000579
0.000403
0.000307
0.000270
0.000237
0.000259
0.000518
0.000244
0.000246
0.000260
0.000275
0.000329
0.000526
0.000324
0.000057
0.000334
0.000385
0.000226
0.000199
0.001516
0.000562
0.000291
0.000228
0.000204
0.000241
0.000232
0.000224
0.000253
0.000263
0.000262
0.000255
0.000240
0.000367
0.000346
0.000435
0.000448
0.000210
0.000223
0.000239
0.000253
0.000271
0.000275
0.000245
0.000260
0.000271
0.000217
0.000056
0.000381
0.000327
0.000241
0.000228
0.000225
0.000240
0.000251
0.000247
0.000245
0.000246
0.001452
0.000520
0.000219
0.000207
0.000210
0.000249
0.000274
0.000269
0.000230
0.000269
0.000276
0.000252
0.000259
0.000461
0.000354
0.000497
0.000221
0.000303
0.000237
0.000272
0.000192
0.000056
0.000198
0.000473
0.000202
0.000220
0.000406
0.000342
0.000375
0.000339
0.000444
0.000217
0.000216
0.000245
0.000264
0.000260
0.000268
0.001553
0.000219
0.000282
0.000254
0.000259
0.000276
0.000250
0.000260
0.000253
0.000259
0.000278
0.000475
0.000435
0.000297
0.000262
0.000158
0.000056
0.000191
0.000218
0.000236
0.000239
0.000248
0.000239
0.000244
0.000242
0.000350
0.000424
0.000374
0.000314
0.000214
0.000205
0.000242
0.000272
0.000274
0.000261
0.000274
0.000230
0.000256
0.000313
0.001332
0.000223
0.000269
0.000218
0.000222
0.000278
0.000252
0.000263
0.000201
0.000056
0.000240
0.000381
0.000363
0.000328
0.000230
0.000218
0.000229
0.000267
0.000247
0.000253
0.000262
0.000261
0.000247
0.000251
0.000257
0.000256
0.000270
0.000275
0.000262
0.000248
0.000245
0.000277
0.000266
0.000300
0.000273
0.000269
0.000277
0.000234
0.000277
0.000509
0.001318
0.000056
0.000196
0.000204
0.000234
0.000240
0.000258
0.000262
0.000245
0.000224
0.000243
0.000254
0.000263
0.000261
0.000254
0.000238
0.000252
0.001718
0.000356
0.000215
0.000216
0.000223
0.000246
0.000261
0.000275
0.000257
0.000267
0.000269
0.000267
0.000274
0.000263
0.000271
0.000237
0.000057
0.000288
0.000273
0.001371
0.000192
0.000228
0.000203
0.000257
0.000268
0.000240
0.000255
0.000238
0.000375
0.000446
0.000452
0.000236
0.000209
0.000231
0.000245
0.000247
0.000268
0.000246
0.000286
0.000249
0.000287
0.000262
0.000471
0.000343
0.000367
0.000266
0.000253
0.000196
0.000058
0.000198
0.000216
0.000244
0.000251
0.000247
0.000239
0.000225
0.000264
0.000402
0.000461
0.001153
0.000242
0.000220
0.000279
0.000239
0.000269
0.000271
0.000246
0.000387
0.000370
0.000400
0.000235
0.000233
0.000236
0.000274
0.000270
0.000267
0.000303
0.000286
0.000258
0.000213
0.000057
0.000239
0.000451
0.000388
0.000222
0.000210
0.000196
0.000247
0.000265
0.000270
0.000256
0.000223
0.000272
0.000517
0.000475
0.000542
0.001399
0.000225
0.000252
0.000345
0.000356
0.000444
0.000406
0.000457
0.000415
0.000220
0.000269
0.000260
0.000278
0.000272
0.000264
0.000211
0.000057
0.000226
0.000252
0.000493
0.000558
0.000225
0.000208
0.000249
0.000237
0.000244
0.000252
0.000266
0.000252
0.000263
0.000243
0.000271
0.000291
0.000430
0.000430
0.000319
0.001312
0.000280
0.000235
0.000250
0.000294
0.000604
0.000323
0.000402
0.000219
0.000232
0.000279
0.000206
0.000057
0.000190
0.000231
0.000227
0.000243
0.000250
0.000291
0.000425
0.000393
0.000371
0.000236
0.000227
0.000258
0.000272
0.000257
0.000265
0.000262
0.000263
0.000252
0.000270
0.000343
0.000518
0.000393
0.000334
0.001332
0.000337
0.000241
0.000304
0.000452
0.000447
0.000300
0.000335
0.000057
0.000183
0.000218
0.000235
0.000257
0.000248
0.000255
0.001744
0.000212
0.000222
0.000206
0.000254
0.000261
0.000325
0.000322
0.000329
0.000285
0.000243
0.000338
0.000543
0.000364
0.000280
0.000272
0.000234
0.000201
0.001448
0.000439
0.000415
0.000483
0.000303
0.000300
0.000152
0.000056
0.000177
0.000225
0.000254
0.000259
0.000240
0.000261
0.001789
0.000211
0.000236
0.000252
0.000390
0.000407
0.001427
0.000342
0.000421
0.000207
0.000209
0.000233
0.000258
0.000270
0.001813
0.000383
0.000396
0.000278
0.000209
0.000238
0.000233
0.000283
0.000248
0.000248
0.000219
0.000055
0.000185
0.000212
0.000256
0.000254
0.000258
0.000266
0.000291
0.000255
0.000249
0.000255
0.000251
0.000261
0.000245
0.000270
0.000261
0.001504
0.000273
0.000231
0.000263
0.000276
0.000272
0.000253
0.000434
0.001269
0.000267
0.000247
0.000265
0.000280
0.000441
0.000222
0.000172
0.000057
0.000211
0.000211
0.000235
0.000243
0.000238
0.000228
0.000230
0.001778
0.000215
0.000210
0.000232
0.000357
0.000239
0.000226
0.001453
0.000252
0.000212
0.000218
0.000263
0.000248
0.000252
0.000314
0.000338
0.001355
0.000273
0.000240
0.000225
0.000243
0.001404
0.000264
0.000210
0.000057
0.000341
0.000234
0.000207
0.000210
0.000248
0.000243
0.000265
0.000264
0.000266
0.000249
0.000266
0.000254
0.000257
0.000242
0.000349
0.001464
0.000254
0.000263
0.000257
0.000245
0.000278
0.000269
0.000258
0.001506
0.000337
0.000261
0.000244
0.001353
0.000232
0.000224
0.000231
0.000056
0.000222
0.000405
0.000292
0.000234
0.000201
0.000234
0.000267
0.000257
0.000260
0.000273
0.000231
0.000262
0.000253
0.000322
0.000483
0.001175
0.000220
0.000229
0.000228
0.000277
0.000235
0.000242
0.000243
0.001312
0.000370
0.000227
0.000245
0.000223
0.000262
0.001334
0.000351
0.000057
0.000221
0.000274
0.000220
0.000197
0.000234
0.000250
0.000250
0.000248
0.000285
0.000241
0.000245
0.000242
0.000263
0.000297
0.000449
0.001468
0.000241
0.000224
0.000292
0.000519
0.000315
0.000449
0.001261
0.000319
0.000225
0.000257
0.001299
0.000351
0.000301
0.000485
0.000317
0.000057
0.000202
0.000236
0.000256
0.000250
0.000246
0.000267
0.000268
0.000246
0.000267
0.000256
0.000359
0.000556
0.001283
0.000204
0.000257
0.000240
0.000283
0.000265
0.000214
0.000214
0.000341
0.001319
0.000245
0.000226
0.000221
0.000237
0.001515
0.000491
0.000425
0.000235
0.000190
0.000056
0.000203
0.000204
0.000241
0.000238
0.000246
0.000270
0.000243
0.000279
0.000455
0.000432
0.000326
0.001443
0.000230
0.000224
0.000264
0.000256
0.000264
0.000303
0.001637
0.000321
0.000346
0.000364
0.001400
0.000320
0.000291
0.000344
0.000234
0.000224
0.000229
0.000266
0.000216
0.000057
0.000191
0.000224
0.000303
0.000231
0.000406
0.000535
0.000214
0.000379
0.001465
0.000280
0.000335
0.000255
0.000223
0.000302
0.000344
0.001382
0.000262
0.000217
0.000244
0.000217
0.000307
0.001589
0.000371
0.000276
0.000240
0.000204
0.000509
0.000319
0.000226
0.000247
0.000234
0.000056
0.000296
0.000331
0.000321
0.000293
0.000200
0.001473
0.000252
0.000236
0.000238
0.000270
0.000271
0.000246
0.000355
0.001455
0.000280
0.000219
0.000387
0.001300
0.000304
0.000447
0.000319
0.000243
0.000252
0.000240
0.000278
0.000255
0.000459
0.000236
0.000245
0.000264
0.000224
0.000057
0.000191
0.000261
0.000333
0.001457
0.000273
0.000220
0.000279
0.000250
0.000234
0.000249
0.000248
0.000326
0.001582
0.000229
0.000222
0.000207
0.001366
0.000358
0.000490
0.000359
0.000372
0.000219
0.000217
0.000250
0.000366
0.000249
0.000208
0.000270
0.000242
0.000252
0.000202
0.000057
0.000188
0.000433
0.001403
0.000217
0.000249
0.000270
0.000249
0.000246
0.000328
0.000388
0.001326
0.000249
0.000301
0.000246
0.000228
0.001440
0.000549
0.000292
0.000305
0.000406
0.000340
0.000239
0.000231
0.000242
0.000250
0.000288
0.000273
0.000541
0.000291
0.000401
0.001367
0.000057
0.000212
0.000244
0.000210
0.000217
0.000262
0.000525
0.001435
0.000284
0.000233
0.000198
0.000246
0.001383
0.000587
0.000230
0.000455
0.000246
0.000229
0.000203
0.000235
0.000283
0.000259
0.000258
0.000278
0.000260
0.000252
0.000329
0.000402
0.000522
0.001454
0.000285
0.000169
0.000057
0.000185
0.000223
0.000329
0.000575
0.001218
0.000286
0.000256
0.000250
0.000276
0.000227
0.000247
0.000278
0.000665
0.000346
0.000240
0.000205
0.000218
0.000274
0.000242
0.000276
0.000264
0.000266
0.000264
0.000257
0.000258
0.000430
0.000469
0.000322
0.000319
0.001472
0.000155
0.000058
0.000185
0.000206
0.000274
0.000464
0.000343
0.000320
0.000289
0.000318
0.000272
0.000269
0.000258
0.000259
0.000245
0.000318
0.000237
0.000261
0.000640
0.000270
0.000285
0.000379
0.000291
0.000465
0.000247
0.000217
0.000205
0.000261
0.000264
0.000284
0.000439
0.000405
0.000321
0.000056
0.000224
0.001360
0.000275
0.000331
0.000371
0.000502
0.000281
0.000363
0.000226
0.000201
0.000253
0.000248
0.000271
0.000251
0.000274
0.000261
0.000255
0.001466
0.000213
0.000229
0.000222
0.000269
0.000279
0.000273
0.000268
0.000254
0.000272
0.000255
0.000306
0.000403
0.000334
0.000057
0.000235
0.000241
0.000237
0.001519
0.000342
0.000209
0.000215
0.000194
0.000251
0.000225
0.000253
0.000278
0.000245
0.000250
0.000263
0.000274
0.000240
0.000258
0.000257
0.000271
0.001426
0.000272
0.000234
0.000327
0.000229
0.000217
0.000244
0.000261
0.000278
0.000503
0.000381
0.000057
0.000181
0.000208
0.000383
0.000306
0.000231
0.000247
0.001543
0.000422
0.000248
0.000217
0.000219
0.000373
0.000300
0.000225
0.000206
0.000253
0.000245
0.000263
0.000262
0.000247
0.000581
0.000456
0.001151
0.000260
0.000214
0.000225
0.000261
0.000264
0.000271
0.000271
0.000339
0.000057
0.000252
0.000350
0.000196
0.000203
0.000251
0.000237
0.000244
0.000230
0.001421
0.000548
0.000413
0.000242
0.000226
0.000227
0.000225
0.000250
0.000246
0.000279
0.000261
0.000302
0.000310
0.000479
0.000497
0.001338
0.000242
0.000244
0.000277
0.000260
0.000262
0.000371
0.000422
0.000074
0.000171
0.000202
0.000243
0.000229
0.000230
0.000234
0.000261
0.000243
0.000273
0.001644
0.000307
0.000231
0.000270
0.000257
0.000460
0.000306
0.000397
0.000472
0.000336
0.000308
0.000466
0.000490
0.001263
0.000239
0.000224
0.000227
0.001784
0.000433
0.000575
0.000326
0.000139
0.000056
0.000190
0.000202
0.000249
0.000222
0.000256
0.000243
0.000363
0.000503
0.000419
0.000415
0.000314
0.000201
0.000206
0.000254
0.000257
0.000267
0.000255
0.000257
0.000247
0.000267
0.000467
0.000187
0.001386
0.000255
0.000221
0.000275
0.001925
0.000370
0.000426
0.000300
0.000160
0.000057
0.000219
0.000207
0.000236
0.001578
0.000388
0.000239
0.000236
0.000266
0.000254
0.000332
0.000366
0.000377
0.000353
0.000310
0.000349
0.000469
0.001346
0.000314
0.000198
0.000235
0.000216
0.000235
0.000368
0.000388
0.000695
0.000382
0.000227
0.000219
0.000255
0.000285
0.000204
0.000056
0.000210
0.000202
0.001478
0.000384
0.000200
0.000215
0.000218
0.000252
0.000247
0.000253
0.000248
0.000274
0.000263
0.000271
0.000271
0.000456
0.000388
0.000319
0.001379
0.000285
0.000195
0.000283
0.000244
0.000257
0.000357
0.000573
0.000404
0.000288
0.000292
0.000249
0.000399
0.000057
0.000187
0.000203
0.000260
0.000257
0.001585
0.000241
0.000241
0.000241
0.000264
0.000256
0.000252
0.000271
0.000252
0.000241
0.000527
0.000488
0.001385
0.000730
0.000214
0.000346
0.000238
0.000213
0.000235
0.000275
0.001759
0.000729
0.000252
0.000242
0.000273
0.000296
0.000203
0.000056
0.000188
0.000210
0.000247
0.000247
0.000307
0.000189
0.000251
0.000246
0.000268
0.000208
0.000286
0.000282
0.000254
0.000255
0.000259
0.000255
0.000261
0.001610
0.000722
0.000430
0.000269
0.000221
0.000215
0.000277
0.000275
0.000259
0.000279
0.000259
0.001548
0.000307
0.000336
0.000057
0.000202
0.000207
0.000230
0.000252
0.000258
0.000230
0.000255
0.000252
0.000249
0.000278
0.000254
0.000513
0.000375
0.000353
0.000210
0.000219
0.000252
0.001478
0.000692
0.000401
0.000335
0.000296
0.000222
0.000233
0.000263
0.000259
0.000247
0.000275
0.001483
0.000440
0.000240
0.000057
0.000203
0.000204
0.000237
0.000238
0.000253
0.000247
0.000244
0.000247
0.000267
0.000271
0.000391
0.000334
0.000344
0.000233
0.000235
0.000236
0.000276
0.000248
0.001604
0.000585
0.000588
0.000247
0.000223
0.000228
0.000262
0.000255
0.000271
0.000277
0.000266
0.001448
0.000294
0.000057
0.000220
0.000207
0.000211
0.000260
0.000249
0.000247
0.000289
0.000355
0.000369
0.000423
0.000375
0.000386
0.000311
0.000238
0.000219
0.000227
0.000273
0.000262
0.001496
0.000782
0.000324
0.000201
0.000479
0.000212
0.000214
0.000255
0.000264
0.000277
0.000250
0.000297
0.000396
0.000057
0.000296
0.000218
0.000212
0.000228
0.000254
0.000255
0.000222
0.000240
0.000253
0.000266
0.000251
0.000237
0.000251
0.000535
0.000415
0.000443
0.000221
0.000280
0.000233
0.000257
0.000241
0.000384
0.001382
0.001054
0.000247
0.000218
0.000274
0.000263
0.000271
0.000259
0.000219
0.000056
0.000184
0.001380
0.000271
0.000212
0.000190
0.000243
0.000259
0.000237
0.000237
0.000253
0.000254
0.000260
0.000244
0.000397
0.000448
0.000422
0.000261
0.000219
0.000246
0.000287
0.000253
0.000243
0.000243
0.000263
0.001496
0.000590
0.000317
0.000403
0.000361
0.000397
0.000267
0.000056
0.000206
0.000211
0.000375
0.001306
0.000233
0.000262
0.000202
0.000250
0.000249
0.000258
0.000278
0.000225
0.000288
0.000407
0.000472
0.000380
0.000209
0.000304
0.000271
0.000221
0.000235
0.000277
0.000231
0.000273
0.000266
0.001535
0.000730
0.000309
0.000277
0.000276
0.000204
0.000056
0.000199
0.000237
0.000453
0.000404
0.001295
0.000245
0.000199
0.000206
0.000228
0.000252
0.000238
0.000254
0.000244
0.000232
0.000250
0.000262
0.000261
0.000239
0.000255
0.000252
0.000272
0.000279
0.000348
0.000285
0.000238
0.000235
0.000266
0.001552
0.000225
0.000226
0.000154
0.000057
0.000192
0.000200
0.000247
0.000349
0.000347
0.000333
0.000430
0.000222
0.001563
0.000245
0.000295
0.000471
0.000372
0.000242
0.000474
0.000237
0.000216
0.000230
0.000256
0.000276
0.000276
0.000266
0.000257
0.000269
0.000252
0.000450
0.000490
0.000265
0.001525
0.000250
0.000168
0.000056
0.000226
0.000206
0.000251
0.000245
0.000243
0.000240
0.000267
0.000336
0.000407
0.002082
0.000196
0.000222
0.000232
0.000258
0.000262
0.000334
0.000258
0.000217
0.000238
0.000435
0.000359
0.000461
0.001526
0.000218
0.000213
0.000514
0.001770
0.000280
0.000259
0.001484
0.000188
0.000056
0.000303
0.000434
0.000440
0.000236
0.000263
0.000226
0.000250
0.000271
0.000268
0.000234
0.000249
0.000341
0.000443
0.000311
0.000501
0.000217
0.000208
0.001563
0.000482
0.001995
0.000296
0.000266
0.001397
0.000405
0.001998
0.000731
0.000282
0.000217
0.000276
0.000457
0.000346
0.000057
0.000192
0.000225
0.000233
0.000259
0.001483
0.001667
0.001082
0.000231
0.000206
0.001579
0.001987
0.000233
0.000308
0.000409
0.000305
0.000350
0.000410
0.000383
0.000248
0.000220
0.000255
0.000252
0.000275
0.001567
0.001307
0.001423
0.000269
0.000238
0.000262
0.000327
0.000367
0.000057
0.000220
0.000236
0.000216
0.000224
0.000235
0.000232
0.000257
0.000254
0.000250
0.000249
0.000250
0.000327
0.000463
0.000474
0.000301
0.000210
0.000222
0.000265
0.000270
0.000270
0.000260
0.001424
0.000585
0.000284
0.002068
0.000258
0.000236
0.000347
0.000474
0.000454
0.000145
0.000055
0.000220
0.000328
0.000451
0.000325
0.000209
0.000206
0.000237
0.000260
0.000242
0.000243
0.000246
0.000263
0.000260
0.001619
0.001419
0.001225
0.000294
0.000207
0.000239
0.000212
0.000283
0.000278
0.000248
0.000262
0.002273
0.000224
0.000223
0.000271
0.000324
0.000300
0.000250
0.000056
0.000208
0.000380
0.000583
0.000333
0.000204
0.000206
0.000223
0.000257
0.001897
0.001430
0.000265
0.000380
0.000392
0.000360
0.000265
0.000210
0.000221
0.000265
0.000259
0.000262
0.000268
0.000260
0.000486
0.000241
0.000256
0.000299
0.000226
0.000275
0.000271
0.000246
0.000224
0.000057
0.000179
0.000248
0.000232
0.000241
0.000245
0.000273
0.001542
0.001505
0.001310
0.000231
0.000202
0.000231
0.000243
0.000267
0.000248
0.000247
0.000252
0.002180
0.000213
0.000218
0.000248
0.000256
0.000251
0.000270
0.000270
0.000262
0.000259
0.000274
0.000259
0.000261
0.000191
0.000056
0.001505
0.000314
0.002386
0.000252
0.000296
0.000300
0.000243
0.000255
0.000264
0.000238
0.000256
0.000245
0.000238
0.000241
0.000275
0.000253
0.000258
0.000280
0.000257
0.000269
0.000258
0.000283
0.000275
0.000271
0.000245
0.000246
0.000257
0.000280
0.000261
0.000272
0.000394
0.000056
0.000187
0.002572
0.000329
0.000199
0.000197
0.000210
0.000256
0.000253
0.000247
0.000281
0.000396
0.000375
0.000335
0.000246
0.000205
0.002218
0.000222
0.000245
0.000237
0.000527
0.000336
0.000329
0.000213
0.000226
0.000271
0.000254
0.000270
0.000265
0.000280
0.001708
0.001194
0.000057
0.000197
0.000211
0.000403
0.000256
0.000390
0.000266
0.000228
0.000215
0.000250
0.000257
0.000263
0.000248
0.000229
0.000250
0.000270
0.000248
0.000284
0.000630
0.000465
0.000203
0.000211
0.000244
0.000279
0.000257
0.000254
0.000251
0.000250
0.000280
0.000265
0.000312
0.000436
0.000056
0.001158
0.000312
0.000230
0.000533
0.000240
0.000194
0.000202
0.000232
0.002301
0.000377
0.000304
0.000363
0.000210
0.000285
0.000332
0.000260
0.000278
0.000258
0.000256
0.000256
0.000229
0.000260
0.000671
0.000470
0.001793
0.001420
0.000481
0.000506
0.000235
0.000256
0.000201
0.000055
0.000302
0.000270
0.000265
0.000209
0.000242
0.000244
0.000236
0.000234
0.000262
0.000252
0.000251
0.000253
0.000242
0.000236
0.000362
0.000589
0.001853
0.001345
0.000386
0.000471
0.000398
0.000239
0.000242
0.000255
0.002206
0.000503
0.000365
0.000226
0.000283
0.000286
0.000209
0.000056
0.000180
0.000221
0.000256
0.000240
0.000251
0.000375
0.000409
0.000321
0.000273
0.000240
0.000226
0.000286
0.000237
0.002089
0.000392
0.000376
0.000217
0.000234
0.000262
0.000264
0.000249
0.002481
0.000352
0.000218
0.000225
0.000267
0.000243
0.000269
0.000283
0.000289
0.000203
0.000055
0.000191
0.000397
0.000565
0.000365
0.000211
0.000212
0.000186
0.000256
0.000262
0.000256
0.002119
0.000308
0.000277
0.000246
0.000210
0.000227
0.000283
0.000234
0.002289
0.000397
0.000200
0.000260
0.000263
0.000258
0.000264
0.000262
0.000272
0.000251
0.000276
0.000254
0.000202
0.000056
0.000182
0.000208
0.000246
0.000238
0.000223
0.000262
0.000240
0.000246
0.000229
0.002186
0.000245
0.000276
0.000205
0.000492
0.000210
0.000219
0.000249
0.000281
0.000260
0.000257
0.002047
0.000243
0.000372
0.000368
0.000490
0.000347
0.000281
0.000254
0.000220
0.000256
0.000205
0.000056
0.000198
0.000257
0.000193
0.000252
0.000245
0.000385
0.000206
0.002333
0.000220
0.000234
0.000214
0.000265
0.000232
0.000273
0.000277
0.002203
0.000528
0.000224
0.000238
0.000256
0.000245
0.000287
0.000258
0.000273
0.000262
0.000253
0.000293
0.000246
0.000265
0.000318
0.000159
0.000072
0.000186
0.002995
0.000246
0.000214
0.000242
0.000247
0.000257
0.000282
0.000392
0.000435
0.002098
0.000268
0.000228
0.000254
0.000347
0.000513
0.000376
0.000306
0.000223
0.000206
0.000241
0.000259
0.000268
0.000237
0.000269
0.000246
0.000266
0.000271
0.000288
0.000799
0.000246
0.000056
0.000195
0.000285
0.000258
0.000215
0.000241
0.000243
0.000248
0.000265
0.001599
0.002062
0.000517
0.000264
0.000645
0.000536
0.000346
0.000205
0.000210
0.000242
0.000270
0.000248
0.000292
0.000215
0.000243
0.000284
0.001825
0.001448
0.000289
0.000296
0.000258
0.000390
0.000362
0.000055
0.001940
0.000231
0.000249
0.000188
0.000262
0.000372
0.000446
0.000339
0.000313
0.000232
0.000213
0.000200
0.000263
0.000252
0.000271
0.000260
0.000249
0.001908
0.000275
0.000209
0.000205
0.000249
0.000264
0.000279
0.000272
0.000263
0.001538
0.000345
0.000215
0.000227
0.000168
0.000056
0.000210
0.000193
0.000236
0.000241
0.000254
0.000258
0.000322
0.000348
0.000407
0.000350
0.000210
0.000215
0.000330
0.000323
0.000377
0.000328
0.000230
0.000220
0.000255
0.000349
0.000572
0.000403
0.000234
0.000214
0.000265
0.000236
0.000259
0.000269
0.000276
0.000266
0.000224
0.000056
0.001436
0.000409
0.000236
0.002015
0.000241
0.000469
0.000320
0.000389
0.000199
0.000211
0.000265
0.000237
0.000248
0.000254
0.000262
0.000284
0.000442
0.000329
0.000393
0.000381
0.000335
0.000207
0.000242
0.000260
0.000347
0.000229
0.000231
0.000273
0.000324
0.000551
0.001369
0.000057
0.000186
0.000211
0.002070
0.000309
0.000291
0.000267
0.000253
0.000254
0.000268
0.000261
0.000211
0.000253
0.000248
0.000266
0.000255
0.000470
0.000593
0.001751
0.000251
0.000250
0.000255
0.000263
0.000338
0.000534
0.001526
0.000267
0.000360
0.002012
0.000229
0.000239
0.000204
0.000057
0.000202
0.000209
0.000227
0.000265
0.000217
0.000252
0.000247
0.000278
0.000340
0.000299
0.000401
0.000349
0.000334
0.000293
0.000226
0.000243
0.000271
0.000242
0.000274
0.000256
0.000270
0.000312
0.000251
0.000275
0.000260
0.001581
0.000294
0.000399
0.001986
0.000259
0.000161
0.000057
0.000199
0.000224
0.000225
0.000248
0.000473
0.000232
0.000242
0.000319
0.000440
0.000337
0.000230
0.000218
0.000243
0.000272
0.000269
0.000334
0.000501
0.000343
0.000271
0.000376
0.000614
0.000454
0.001505
0.000266
0.000238
0.002037
0.000330
0.000225
0.000214
0.000270
0.000197
0.000055
0.000200
0.000223
0.000236
0.000216
0.000256
0.000257
0.000258
0.000268
0.000258
0.000263
0.001875
0.000291
0.000394
0.000324
0.000458
0.000382
0.001495
0.000338
0.000231
0.000300
0.002158
0.000514
0.000232
0.000208
0.000245
0.000262
0.000495
0.000236
0.000248
0.000276
0.000216
0.000057
0.000294
0.000389
0.000336
0.000263
0.000218
0.000212
0.000255
0.000250
0.000273
0.000301
0.000224
0.000237
0.000259
0.000256
0.000406
0.000430
0.001314
0.000264
0.000311
0.002036
0.000281
0.000249
0.000224
0.000236
0.000241
0.000283
0.000285
0.000248
0.000244
0.000276
0.000205
0.000055
0.000387
0.000335
0.001990
0.000209
0.000256
0.000219
0.000211
0.000291
0.000472
0.001489
0.000325
0.000368
0.000338
0.001992
0.000239
0.000226
0.000283
0.000258
0.000267
0.000230
0.000285
0.000286
0.000258
0.000470
0.000403
0.000405
0.000322
0.002151
0.000630
0.000369
0.000435
0.000058
0.000205
0.000223
0.000211
0.002043
0.000201
0.000212
0.000227
0.000272
0.000199
0.000255
0.000240
0.000270
0.000247
0.000275
0.000584
0.000279
0.001316
0.000239
0.000265
0.000256
0.000237
0.000249
0.000268
0.000260
0.000375
0.000449
0.000425
0.000270
0.001671
0.000222
0.000152
0.000056
0.000198
0.000209
0.000213
0.000235
0.000245
0.000260
0.000252
0.000252
0.000280
0.000369
0.000428
0.001404
0.000208
0.000218
0.000209
0.000256
0.000261
0.000256
0.000256
0.000528
0.000410
0.000473
0.000236
0.001544
0.000250
0.000230
0.000285
0.000278
0.000257
0.000268
0.000207
0.000056
0.000198
0.000223
0.000246
0.000268
0.000248
0.000242
0.000243
0.000234
0.000250
0.000262
0.000243
0.000257
0.000249
0.000261
0.001587
0.000229
0.000235
0.000271
0.000342
0.000324
0.000361
0.000269
0.000210
0.000265
0.000227
0.000268
0.001478
0.000295
0.000207
0.000222
0.000163
0.000057
0.000204
0.000212
0.000244
0.000271
0.000268
0.000213
0.000250
0.000260
0.000224
0.000262
0.000241
0.000255
0.000228
0.000323
0.000404
0.000321
0.000300
0.001566
0.000341
0.000213
0.000219
0.000232
0.000248
0.000326
0.000427
0.000480
0.000358
0.000246
0.000217
0.001586
0.000192
0.000058
0.000313
0.000402
0.000397
0.000208
0.000213
0.000203
0.000240
0.000269
0.000260
0.000244
0.000247
0.000227
0.001470
0.000401
0.000228
0.000218
0.000221
0.000272
0.000244
0.000270
0.000253
0.000240
0.000262
0.000268
0.000256
0.000361
0.000519
0.000390
0.000245
0.000224
0.000182
0.000057
0.000212
0.000229
0.000502
0.000338
0.000404
0.000191
0.000214
0.000256
0.000250
0.000251
0.000245
0.000227
0.000255
0.000253
0.001335
0.000272
0.000220
0.000215
0.000261
0.000270
0.000259
0.000241
0.000255
0.000262
0.000257
0.000248
0.000302
0.000685
0.000484
0.000239
0.000189
0.000057
0.000201
0.001525
0.000287
0.000319
0.000507
0.000325
0.000202
0.000238
0.000266
0.000254
0.000235
0.000268
0.000267
0.000272
0.000267
0.001528
0.000255
0.000270
0.000267
0.000260
0.000277
0.000236
0.000264
0.000264
0.000269
0.000259
0.000501
0.000385
0.000320
0.000226
0.000165
0.000056
0.000186
0.000220
0.000240
0.001763
0.000351
0.000336
0.000201
0.000202
0.000240
0.000280
0.000271
0.000262
0.000249
0.000255
0.000243
0.000266
0.000510
0.001283
0.000216
0.000235
0.001524
0.000346
0.000540
0.000401
0.000296
0.000224
0.000261
0.000459
0.000251
0.000237
0.000212
0.000056
0.000298
0.000215
0.000218
0.000235
0.000242
0.000255
0.000243
0.000254
0.000259
0.000257
0.000229
0.000263
0.000349
0.000498
0.001631
0.001489
0.000460
0.000459
0.000309
0.000252
0.000210
0.000260
0.000254
0.000253
0.000254
0.000261
0.000261
0.000289
0.001588
0.000320
0.000129
0.000056
0.000249
0.000326
0.000353
0.000328
0.000264
0.000204
0.000219
0.000384
0.000410
0.001392
0.000356
0.001540
0.000401
0.000429
0.000456
0.000281
0.000323
0.000334
0.000348
0.000277
0.000239
0.000346
0.001560
0.000538
0.000241
0.000237
0.000259
0.000259
0.000252
0.000265
0.000216
0.000075
0.000203
0.000219
0.000249
0.000254
0.000250
0.001652
0.000957
0.000900
0.000252
0.000224
0.000248
0.000262
0.000254
0.000260
0.000251
0.000258
0.000251
0.000264
0.000269
0.000282
0.001510
0.000272
0.000246
0.000232
0.000230
0.000224
0.000268
0.000275
0.000263
0.000280
0.000236
0.000057
0.000190
0.000194
0.001549
0.000954
0.000365
0.000323
0.000227
0.000196
0.000247
0.000251
0.000247
0.000254
0.000245
0.002151
0.000380
0.000198
0.000211
0.000244
0.000253
0.000260
0.000211
