0.000114
0.009504
0.012206
0.000303
0.000253
0.000299
0.000327
0.000225
0.000327
0.000282
0.000250
0.000334
0.000488
0.000522
0.000384
0.000355
0.000258
0.000351
0.000352
0.000423
0.001827
0.000407
0.000686
0.000278
0.000237
0.000303
0.000318
0.000315
0.000420
0.000448
0.000511
0.000220
0.000056
0.000201
0.000263
0.000270
0.000287
0.000249
0.000248
0.000277
0.000291
0.000266
0.000270
0.000422
0.000464
0.000287
0.000256
0.000375
0.000351
0.000366
0.000256
0.000246
0.001716
0.000292
0.000261
0.000444
0.000257
0.000277
0.000276
0.000283
0.000299
0.000277
0.000332
0.000439
0.000057
0.000255
0.000250
0.000266
0.000259
0.000253
0.000245
0.000265
0.000256
0.000285
0.001668
0.000224
0.000239
0.000270
0.000271
0.000277
0.000252
0.000263
0.000256
0.000355
0.001785
0.000248
0.000275
0.000455
0.000428
0.000383
0.000236
0.000310
0.000505
0.000424
0.000761
0.000208
0.000057
0.000232
0.000242
0.000257
0.000237
0.000298
0.000241
0.000317
0.000579
0.000371
0.000253
0.000241
0.000242
0.000244
0.000259
0.000258
0.000257
0.000245
0.000259
0.000303
0.000345
0.001648
0.000281
0.000245
0.000424
0.000288
0.000728
0.000661
0.000505
0.000357
0.000233
0.000187
0.000056
0.000230
0.000250
0.000297
0.000228
0.000264
0.000233
0.000248
0.001691
0.000259
0.000213
0.000248
0.000241
0.000265
0.000248
0.000268
0.000283
0.000282
0.000859
0.001331
0.000300
0.000239
0.000410
0.000245
0.000247
0.000260
0.000254
0.000269
0.000274
0.000253
0.000271
0.000200
0.000057
0.000204
0.000244
0.000246
0.000262
0.000240
0.000240
0.000240
0.000257
0.000234
0.000257
0.001627
0.000266
0.000233
0.000243
0.000249
0.000249
0.000272
0.000229
0.000252
0.000253
0.000296
0.001633
0.000280
0.000262
0.000438
0.000264
0.000241
0.000268
0.000255
0.000278
0.000191
0.000056
0.000220
0.000226
0.000257
0.000238
0.000248
0.000247
0.000260
0.000235
0.000261
0.000280
0.000242
0.000240
0.000276
0.000254
0.001668
0.000257
0.000291
0.000220
0.000248
0.000292
0.000251
0.000237
0.000246
0.000268
0.001772
0.000404
0.000337
0.000375
0.000238
0.000279
0.000199
0.000056
0.000226
0.000236
0.000245
0.000271
0.000268
0.000247
0.000244
0.000431
0.000398
0.000445
0.000204
0.000248
0.000256
0.000242
0.001561
0.000552
0.000288
0.000424
0.000336
0.000211
0.000268
0.000284
0.000271
0.001738
0.000503
0.000471
0.000250
0.000233
0.000248
0.000267
0.000188
0.000057
0.000200
0.000232
0.000258
0.000303
0.000326
0.000405
0.000412
0.000255
0.000209
0.000251
0.000264
0.000238
0.000249
0.001700
0.000492
0.000310
0.000214
0.000255
0.000268
0.000293
0.000245
0.000256
0.001795
0.000412
0.000264
0.000392
0.000242
0.000249
0.000275
0.000396
0.000328
0.000056
0.000218
0.000483
0.000281
0.000242
0.000250
0.000252
0.000249
0.000273
0.000242
0.000216
0.000238
0.000247
0.001555
0.000391
0.000269
0.000227
0.000266
0.000246
0.000247
0.000306
0.000265
0.000314
0.000248
0.001811
0.000257
0.000496
0.000244
0.000250
0.000262
0.000265
0.000252
0.000056
0.000397
0.000556
0.000581
0.000237
0.000205
0.000270
0.000233
0.000217
0.000259
0.000252
0.000254
0.001707
0.000248
0.000442
0.000370
0.000213
0.000239
0.000228
0.000249
0.000272
0.000252
0.001855
0.000227
0.000468
0.001861
0.000521
0.000360
0.000249
0.000252
0.000262
0.000196
0.000056
0.000217
0.000243
0.000244
0.000244
0.000265
0.001618
0.000249
0.000228
0.000254
0.000254
0.000237
0.000269
0.000227
0.000259
0.000278
0.000503
0.000534
0.000255
0.000230
0.000271
0.000278
0.000239
0.000240
0.000440
0.000437
0.000265
0.000374
0.000683
0.000278
0.000283
0.000187
0.000055
0.000203
0.000244
0.000248
0.000253
0.000240
0.000242
0.000233
0.000363
0.001875
0.000312
0.000216
0.000242
0.000250
0.000241
0.000259
0.000318
0.000400
0.000467
0.000334
0.000247
0.000284
0.000278
0.000285
0.000251
0.000271
0.000442
0.000354
0.000653
0.000371
0.000481
0.000175
0.000055
0.000200
0.000248
0.000243
0.000242
0.000232
0.000240
0.000246
0.000258
0.000231
0.000295
0.000344
0.000415
0.001411
0.000259
0.000215
0.000249
0.000254
0.000251
0.000253
0.000278
0.000253
0.000465
0.000401
0.000263
0.000260
0.000265
0.000244
0.000281
0.000259
0.000268
0.000387
0.000057
0.000198
0.000243
0.000222
0.000271
0.000538
0.000427
0.000235
0.000260
0.000233
0.000262
0.000258
0.000229
0.000296
0.000267
0.000220
0.000567
0.000399
0.001584
0.000281
0.000220
0.000255
0.000265
0.000263
0.000244
0.000282
0.000491
0.000417
0.000325
0.000426
0.000233
0.000197
0.000056
0.000209
0.000433
0.000230
0.000208
0.000292
0.000225
0.000430
0.000502
0.000250
0.000337
0.000221
0.000273
0.000265
0.000233
0.000519
0.000357
0.000206
0.000261
0.000512
0.001530
0.000270
0.000273
0.000488
0.000238
0.000286
0.000273
0.000256
0.000428
0.000471
0.000394
0.000247
0.000055
0.000213
0.000227
0.000235
0.000253
0.000412
0.000310
0.000288
0.000227
0.000348
0.000601
0.000293
0.000273
0.000228
0.000239
0.000254
0.000267
0.000256
0.000257
0.000224
0.000359
0.000287
0.000337
0.001847
0.000230
0.000265
0.000248
0.000286
0.000351
0.000407
0.000718
0.000426
0.000059
0.000228
0.000331
0.000298
0.000414
0.000392
0.000219
0.000242
0.000317
0.000564
0.000338
0.000260
0.000245
0.000232
0.000276
0.000265
0.000234
0.000258
0.000262
0.000266
0.000271
0.000268
0.000395
0.000691
0.001315
0.000322
0.000431
0.000422
0.000230
0.000373
0.000593
0.000215
0.000057
0.000247
0.000383
0.000272
0.000211
0.000222
0.000251
0.000414
0.000235
0.000411
0.000270
0.000355
0.000463
0.000219
0.000255
0.000267
0.000252
0.000368
0.000417
0.000301
0.000244
0.000268
0.000528
0.000477
0.001672
0.000235
0.000419
0.000317
0.000223
0.000286
0.000473
0.000261
0.000056
0.000240
0.000226
0.000244
0.000256
0.000251
0.000238
0.000248
0.000327
0.000460
0.000297
0.000433
0.000388
0.000266
0.000570
0.000249
0.000241
0.000275
0.000263
0.000230
0.000344
0.000224
0.000244
0.000273
0.000400
0.000473
0.001684
0.000274
0.000239
0.000255
0.000262
0.000186
0.000057
0.000311
0.000500
0.000268
0.000225
0.000238
0.000249
0.000257
0.000242
0.000270
0.000238
0.000230
0.000253
0.000412
0.000506
0.000456
0.000238
0.000247
0.000243
0.000346
0.000383
0.000383
0.000337
0.000360
0.000396
0.000247
0.000259
0.000259
0.000280
0.001791
0.000243
0.000215
0.000056
0.000194
0.000223
0.000266
0.000289
0.000333
0.000553
0.000323
0.000201
0.000283
0.000233
0.000250
0.000248
0.000530
0.000445
0.000484
0.000270
0.000266
0.000259
0.000422
0.000464
0.000360
0.000515
0.000510
0.000320
0.000236
0.000247
0.000256
0.000249
0.000265
0.001723
0.000437
0.000056
0.000262
0.000332
0.000204
0.000235
0.000263
0.000242
0.000237
0.000500
0.000378
0.000306
0.000295
0.000296
0.000369
0.000599
0.000346
0.000234
0.000255
0.000251
0.000259
0.000262
0.000277
0.000256
0.000245
0.000266
0.000323
0.000344
0.000426
0.000335
0.000247
0.000250
0.000186
0.000055
0.000467
0.000264
0.000504
0.000249
0.000181
0.000247
0.000250
0.000257
0.000239
0.000221
0.000253
0.000283
0.000290
0.000416
0.000466
0.000561
0.000232
0.000317
0.000379
0.000344
0.000296
0.000236
0.000249
0.000255
0.001758
0.000262
0.001703
0.000961
0.000409
0.000302
0.000170
0.000055
0.000204
0.000240
0.000226
0.000250
0.000267
0.000237
0.000252
0.000253
0.000241
0.000360
0.000300
0.000448
0.000342
0.000378
0.000244
0.000263
0.000243
0.000286
0.000237
0.000250
0.000251
0.000257
0.001815
0.000245
0.000242
0.000267
0.000279
0.000264
0.001874
0.000460
0.000325
0.000058
0.000201
0.000214
0.000255
0.000224
0.000257
0.000246
0.000240
0.000254
0.000270
0.000360
0.000640
0.000234
0.000387
0.000231
0.000241
0.000258
0.000323
0.000437
0.000369
0.000248
0.001788
0.000271
0.000222
0.000254
0.000261
0.000272
0.000239
0.000261
0.000325
0.000345
0.000373
0.000057
0.000259
0.000205
0.000236
0.000269
0.000242
0.000239
0.000254
0.000260
0.000239
0.000255
0.000245
0.000274
0.000388
0.000369
0.000350
0.000270
0.000473
0.000247
0.000236
0.000258
0.000258
0.000259
0.000275
0.000259
0.000278
0.001783
0.000242
0.000255
0.000260
0.000245
0.000201
0.000055
0.000172
0.000402
0.000205
0.000226
0.000258
0.000217
0.000238
0.000257
0.000244
0.000225
0.000235
0.000264
0.000254
0.000457
0.000395
0.000295
0.000269
0.000244
0.000246
0.000249
0.000274
0.000260
0.000246
0.000275
0.000241
0.000273
0.000328
0.001609
0.000269
0.000239
0.000189
0.000056
0.000208
0.000238
0.000253
0.000260
0.000341
0.000471
0.000288
0.000317
0.000226
0.000254
0.000262
0.000254
0.000227
0.000256
0.000262
0.000254
0.000250
0.000255
0.000255
0.000256
0.000264
0.000271
0.000247
0.000237
0.000235
0.000289
0.000274
0.000265
0.000252
0.000265
0.000199
0.000056
0.000188
0.000234
0.000259
0.000279
0.000224
0.000240
0.000241
0.000261
0.000298
0.000230
0.000218
0.000251
0.000254
0.000254
0.000290
0.000241
0.000252
0.000249
0.000298
0.000253
0.000274
0.000323
0.000264
0.000223
0.000303
0.000253
0.000270
0.000252
0.000294
0.000445
0.000668
0.000055
0.000225
0.000285
0.000226
0.000222
0.000240
0.000252
0.000240
0.000252
0.000248
0.000243
0.000270
0.000284
0.000507
0.000601
0.001397
0.000230
0.000502
0.000232
0.000289
0.000415
0.000472
0.000359
0.000226
0.000281
0.000239
0.000264
0.000277
0.000252
0.000329
0.000259
0.000172
0.000056
0.000292
0.000477
0.000331
0.000340
0.000195
0.000287
0.000225
0.000241
0.000234
0.000242
0.000260
0.000255
0.000234
0.000262
0.000377
0.000524
0.000350
0.001789
0.000239
0.000252
0.000355
0.000408
0.000476
0.000270
0.000313
0.000324
0.000298
0.000235
0.000227
0.000254
0.000193
0.000056
0.000193
0.000225
0.000237
0.000287
0.000346
0.000591
0.000211
0.000258
0.000250
0.000217
0.000251
0.000265
0.000265
0.000268
0.000260
0.000242
0.000293
0.000502
0.000316
0.000463
0.000230
0.001742
0.000328
0.000529
0.000445
0.000500
0.000319
0.000238
0.000255
0.000272
0.000436
0.000057
0.000204
0.000276
0.000219
0.000393
0.000316
0.000499
0.000348
0.000208
0.000277
0.000315
0.000189
0.000251
0.000252
0.000294
0.000313
0.000238
0.000240
0.000324
0.000618
0.000242
0.000496
0.001842
0.000252
0.000476
0.000494
0.000331
0.000228
0.000256
0.000307
0.000253
0.000201
0.000056
0.000206
0.000339
0.000361
0.000312
0.000411
0.000298
0.000363
0.000219
0.000241
0.000257
0.000274
0.000225
0.000247
0.000258
0.000247
0.000261
0.000325
0.000459
0.000447
0.000341
0.000295
0.000252
0.000238
0.001711
0.000445
0.000583
0.000594
0.000255
0.000239
0.000319
0.000158
0.000055
0.000198
0.000231
0.000348
0.000236
0.000264
0.000373
0.000425
0.000295
0.000237
0.000548
0.000207
0.000254
0.000262
0.000276
0.000274
0.000266
0.000208
0.000469
0.000444
0.000347
0.000260
0.000233
0.000254
0.000255
0.000261
0.000269
0.000240
0.000251
0.000269
0.000292
0.000190
0.000056
0.000328
0.000334
0.000212
0.000254
0.000251
0.000254
0.000236
0.000296
0.000238
0.000252
0.000272
0.000332
0.000451
0.000398
0.000319
0.000274
0.000223
0.000237
0.000260
0.000267
0.000287
0.000259
0.000235
0.000264
0.000275
0.000326
0.000425
0.000367
0.000345
0.000226
0.000181
0.000056
0.000209
0.000225
0.000279
0.000238
0.000240
0.000270
0.000260
0.000229
0.000504
0.000208
0.000261
0.000260
0.000242
0.000256
0.000276
0.000298
0.000238
0.000349
0.000222
0.000240
0.000255
0.000268
0.000261
0.000262
0.000277
0.000280
0.000245
0.000250
0.000262
0.000497
0.000165
0.000057
0.000206
0.000232
0.000249
0.000289
0.000203
0.000247
0.000361
0.000425
0.000220
0.000230
0.000255
0.000257
0.000232
0.000268
0.000500
0.001723
0.000234
0.000266
0.000287
0.000333
0.000408
0.000368
0.000371
0.000414
0.000339
0.000432
0.000241
0.000260
0.000270
0.000279
0.001403
0.000055
0.000474
0.000195
0.000275
0.000208
0.000240
0.000248
0.000237
0.000258
0.000243
0.000273
0.000238
0.000266
0.000248
0.000286
0.000572
0.001609
0.000240
0.000233
0.000236
0.000267
0.000232
0.000277
0.000439
0.000378
0.000231
0.000340
0.000222
0.000269
0.000279
0.000258
0.000202
0.000057
0.001403
0.000421
0.000263
0.000254
0.000243
0.000222
0.000234
0.000235
0.000496
0.000215
0.000242
0.000249
0.000317
0.000650
0.000288
0.000350
0.000255
0.000226
0.000336
0.000358
0.000265
0.000255
0.000272
0.000242
0.000270
0.000678
0.000456
0.000270
0.000242
0.000272
0.000173
0.000056
0.000216
0.000208
0.000266
0.000227
0.001570
0.000204
0.000216
0.000258
0.000258
0.000234
0.000248
0.000256
0.000238
0.000275
0.000261
0.000359
0.000365
0.000675
0.000233
0.001753
0.000249
0.000297
0.000357
0.000416
0.000561
0.000332
0.000246
0.000255
0.000259
0.000265
0.000202
0.000055
0.000204
0.000246
0.000242
0.000361
0.001212
0.000226
0.000259
0.000264
0.000237
0.000235
0.000239
0.000257
0.000270
0.000265
0.000237
0.000387
0.000376
0.000431
0.000304
0.000261
0.000266
0.000266
0.000250
0.000231
0.000298
0.000261
0.000234
0.000284
0.000276
0.000353
0.000547
0.000057
0.000220
0.000248
0.000236
0.000257
0.000267
0.000236
0.000237
0.000263
0.000269
0.000278
0.001409
0.000228
0.000236
0.000248
0.000250
0.000247
0.000284
0.000246
0.000288
0.000236
0.000275
0.000487
0.000442
0.000406
0.000225
0.000276
0.001762
0.000282
0.000233
0.000291
0.000560
0.000056
0.000219
0.000388
0.000453
0.000501
0.000513
0.000554
0.001483
0.000423
0.000519
0.000657
0.000549
0.000735
0.000493
0.000596
0.000584
0.001916
0.000396
0.000412
0.000379
0.000324
0.000232
0.000280
0.000287
0.000267
0.000257
0.000288
0.000291
0.000290
0.000265
0.000278
0.001360
0.000055
0.000208
0.000225
0.000247
0.000240
0.000256
0.000259
0.000231
0.000241
0.000251
0.000250
0.000241
0.000247
0.000256
0.000256
0.000273
0.000259
0.001806
0.000284
0.000252
0.000238
0.000264
0.000261
0.000264
0.000259
0.000429
0.000428
0.000340
0.000237
0.000255
0.000284
0.000207
0.000057
0.000195
0.001397
0.000291
0.000270
0.000247
0.000237
0.000239
0.000234
0.000242
0.000238
0.000213
0.000251
0.000250
0.000509
0.000359
0.000303
0.000245
0.001817
0.000387
0.000209
0.000238
0.000270
0.000264
0.000253
0.000276
0.000286
0.000266
0.000258
0.000265
0.000312
0.000204
0.000055
0.000206
0.000240
0.000252
0.001491
0.000186
0.000232
0.000247
0.000248
0.000232
0.000278
0.000241
0.000242
0.000252
0.000279
0.000237
0.000261
0.000259
0.000263
0.000270
0.000269
0.000252
0.001763
0.000302
0.001729
0.000270
0.000252
0.000258
0.000275
0.000283
0.000254
0.000201
0.000055
0.000222
0.000225
0.001373
0.000206
0.000252
0.000246
0.000250
0.000257
0.000243
0.000252
0.000255
0.000239
0.000258
0.000265
0.000262
0.000261
0.000258
0.000286
0.000290
0.000222
0.001886
0.000241
0.001827
0.000239
0.000259
0.000280
0.000230
0.000245
0.000256
0.000274
0.000201
0.000057
0.001422
0.000218
0.000229
0.000240
0.000243
0.000237
0.000374
0.000282
0.000232
0.000273
0.000235
0.000261
0.000260
0.000366
0.000399
0.000272
0.000238
0.000276
0.000242
0.000251
0.000269
0.000350
0.000224
0.000257
0.000268
0.000272
0.000275
0.000373
0.000636
0.000329
0.000204
0.000057
0.000209
0.000255
0.000267
0.000307
0.000384
0.000244
0.001680
0.000306
0.000280
0.000263
0.000259
0.000277
0.000263
0.000263
0.000302
0.000305
0.000334
0.000609
0.000348
0.000265
0.000295
0.000289
0.000253
0.000263
0.000331
0.000256
0.000297
0.000228
0.000256
0.000301
0.000430
0.000055
0.000240
0.000461
0.000268
0.000263
0.000246
0.000225
0.000229
0.000250
0.000263
0.000267
0.001491
0.000217
0.000235
0.000253
0.000248
0.000287
0.000277
0.000239
0.000262
0.000267
0.000271
0.000416
0.000513
0.000287
0.000272
0.000287
0.000264
0.000251
0.000242
0.000316
0.000165
0.000056
0.000198
0.000270
0.000414
0.000295
0.000376
0.000262
0.000221
0.000249
0.000253
0.000253
0.000230
0.000252
0.000262
0.000263
0.000247
0.000255
0.000429
0.001159
0.000241
0.000260
0.000262
0.000247
0.000350
0.000436
0.000248
0.000407
0.000495
0.000341
0.000397
0.000231
0.000171
0.000055
0.000218
0.000252
0.000254
0.000263
0.000251
0.000250
0.000446
0.000290
0.000427
0.000301
0.000371
0.000387
0.000410
0.000348
0.000250
0.000241
0.000231
0.000269
0.000433
0.000414
0.001273
0.000226
0.000270
0.000277
0.000233
0.000234
0.000267
0.000319
0.000463
0.000441
0.000209
0.000056
0.000183
0.000234
0.000263
0.000244
0.000239
0.000246
0.000236
0.000266
0.000337
0.000325
0.000434
0.000350
0.000251
0.000231
0.000253
0.000261
0.000244
0.000260
0.000269
0.000269
0.000425
0.000260
0.000403
0.000419
0.000276
0.000255
0.000274
0.000267
0.000250
0.000344
0.000158
0.000055
0.000301
0.000310
0.000323
0.000375
0.000427
0.000376
0.000240
0.000242
0.000247
0.000269
0.000259
0.000260
0.000236
0.000250
0.000241
0.000227
0.000293
0.000377
0.000412
0.000399
0.000215
0.000279
0.000234
0.000253
0.000269
0.000295
0.000246
0.000281
0.000263
0.000262
0.000336
0.000056
0.000269
0.000361
0.000241
0.000266
0.000222
0.000248
0.000245
0.000265
0.000251
0.000256
0.000257
0.000233
0.000343
0.000482
0.000398
0.000282
0.000239
0.000253
0.000257
0.000264
0.000252
0.000271
0.000255
0.000264
0.000272
0.000410
0.000371
0.000541
0.000407
0.000254
0.000184
0.000056
0.000389
0.000202
0.000221
0.000243
0.000261
0.000242
0.000234
0.000250
0.000256
0.000261
0.000216
0.000252
0.000270
0.000226
0.000238
0.000265
0.000258
0.000265
0.000293
0.000248
0.000254
0.000259
0.000263
0.000265
0.000267
0.000236
0.000281
0.000272
0.000251
0.000280
0.000195
0.000056
0.000193
0.000236
0.000240
0.000251
0.000229
0.000255
0.000263
0.000242
0.000254
0.000284
0.000246
0.000212
0.000264
0.000397
0.000249
0.000297
0.000240
0.000276
0.000248
0.000279
0.000266
0.000239
0.000251
0.000248
0.000271
0.000289
0.000240
0.000246
0.000276
0.000263
0.000199
0.000056
0.000212
0.000359
0.000366
0.000281
0.000295
0.000256
0.000266
0.000257
0.000223
0.000247
0.000277
0.000232
0.000253
0.000228
0.000264
0.000276
0.000253
0.000259
0.000248
0.000264
0.000274
0.000260
0.000283
0.000270
0.000272
0.000235
0.000290
0.000233
0.000274
0.000257
0.000205
0.000055
0.000196
0.000239
0.000265
0.000263
0.000250
0.000448
0.000231
0.000248
0.000276
0.000411
0.000520
0.000277
0.000223
0.000251
0.000281
0.000257
0.000238
0.000271
0.000259
0.000269
0.000281
0.000241
0.000259
0.000307
0.000481
0.000529
0.000259
0.000300
0.000262
0.000265
0.000187
0.000056
0.000220
0.000223
0.000250
0.000248
0.000371
0.000675
0.000243
0.000385
0.000208
0.000246
0.000253
0.000256
0.000245
0.000255
0.000256
0.000265
0.000274
0.000259
0.000715
0.000284
0.000304
0.000243
0.000258
0.000283
0.000282
0.000254
0.000263
0.000285
0.000256
0.000306
0.000385
0.000057
0.000276
0.000230
0.000240
0.000244
0.000248
0.000266
0.000219
0.000251
0.000240
0.000259
0.000263
0.000231
0.000246
0.000487
0.000581
0.000299
0.000230
0.000255
0.000262
0.000239
0.000268
0.000289
0.000479
0.000220
0.000261
0.000746
0.000301
0.000452
0.000252
0.000248
0.000185
0.000055
0.000186
0.000229
0.000248
0.000243
0.000256
0.000254
0.000318
0.000442
0.000643
0.000348
0.000217
0.000257
0.000274
0.000287
0.000248
0.000247
0.000238
0.000249
0.000286
0.000381
0.000315
0.000662
0.000377
0.000239
0.000356
0.000376
0.000488
0.000237
0.000271
0.000408
0.000369
0.000056
0.000269
0.000236
0.000441
0.000216
0.000232
0.000252
0.000263
0.000255
0.000236
0.000257
0.000411
0.000226
0.000422
0.000296
0.000228
0.000253
0.000262
0.000252
0.000263
0.000276
0.000274
0.000252
0.000252
0.000290
0.000313
0.000471
0.000481
0.000263
0.000236
0.000264
0.000201
0.000056
0.000226
0.000251
0.000229
0.000246
0.000245
0.000280
0.000405
0.000445
0.000336
0.000266
0.000374
0.000217
0.000252
0.000269
0.000253
0.000241
0.000255
0.000256
0.000319
0.000396
0.000470
0.000324
0.000480
0.000269
0.000382
0.000419
0.000386
0.000247
0.000252
0.000345
0.000333
0.000058
0.000264
0.000241
0.000214
0.000277
0.000241
0.000257
0.000247
0.000252
0.000267
0.000242
0.000240
0.000383
0.000462
0.000336
0.000369
0.000230
0.000263
0.000264
0.000262
0.000239
0.000253
0.000250
0.000266
0.000276
0.000272
0.000334
0.000486
0.000481
0.000237
0.000278
0.000191
0.000056
0.000213
0.000237
0.000273
0.000250
0.000240
0.000362
0.000518
0.000435
0.000350
0.000694
0.000257
0.000217
0.000244
0.000258
0.000250
0.000269
0.000276
0.000275
0.000486
0.000437
0.001485
0.000306
0.000269
0.000284
0.000263
0.000257
0.000427
0.000397
0.000324
0.000329
0.000186
0.000056
0.000217
0.000230
0.000247
0.000265
0.000224
0.000255
0.000302
0.000222
0.000247
0.000334
0.000336
0.000377
0.000284
0.000318
0.000395
0.000343
0.000238
0.000251
0.000271
0.000252
0.000247
0.000253
0.000309
0.000238
0.000309
0.000444
0.000423
0.000279
0.000253
0.000275
0.000180
0.000056
0.000234
0.000242
0.000255
0.000256
0.000239
0.000240
0.000471
0.000218
0.000234
0.000250
0.000241
0.000253
0.000259
0.000261
0.000241
0.000274
0.000261
0.000290
0.000248
0.000255
0.000300
0.000246
0.000293
0.000254
0.000254
0.000279
0.000268
0.000268
0.000266
0.000270
0.000168
0.000056
0.000236
0.000240
0.000295
0.000523
0.000283
0.000249
0.000241
0.000243
0.000262
0.000251
0.000241
0.000256
0.000259
0.000266
0.000234
0.000246
0.000269
0.000249
0.000284
0.000427
0.000440
0.000313
0.000222
0.000276
0.000252
0.000254
0.000266
0.000257
0.000273
0.000276
0.000201
0.000055
0.000454
0.000365
0.000392
0.000201
0.000250
0.000261
0.000408
0.000227
0.000227
0.000255
0.000248
0.000295
0.000459
0.000369
0.001832
0.000255
0.000241
0.000251
0.000280
0.000236
0.000382
0.000507
0.000594
0.000218
0.000227
0.000260
0.000274
0.000427
0.000280
0.000279
0.000167
0.000056
0.000275
0.000345
0.000375
0.000269
0.000494
0.000200
0.000243
0.000262
0.000236
0.000242
0.000259
0.000246
0.000263
0.000370
0.000404
0.000443
0.000215
0.000245
0.000263
0.000254
0.000257
0.000324
0.000235
0.000276
0.000275
0.000471
0.000496
0.000478
0.000375
0.000234
0.000202
0.000056
0.000206
0.000229
0.000255
0.000232
0.000248
0.000249
0.000266
0.000296
0.000341
0.000384
0.000414
0.000337
0.000217
0.000260
0.000266
0.000298
0.000291
0.000234
0.000269
0.000276
0.000235
0.000397
0.000369
0.000377
0.000298
0.000250
0.000259
0.000447
0.000421
0.000311
0.000165
0.000056
0.000191
0.000298
0.000281
0.000483
0.000317
0.000201
0.000239
0.000255
0.000262
0.000267
0.000247
0.000255
0.000243
0.000243
0.000260
0.000311
0.000417
0.000339
0.000305
0.000327
0.000486
0.000225
0.000278
0.000276
0.000298
0.000282
0.000257
0.000267
0.000503
0.000490
0.000195
0.000057
0.000185
0.000225
0.000244
0.000256
0.000242
0.000484
0.000215
0.000245
0.000264
0.000405
0.000408
0.000615
0.000196
0.000237
0.000246
0.000251
0.000256
0.000270
0.000242
0.000245
0.000286
0.000243
0.000398
0.000417
0.000328
0.000424
0.000271
0.000307
0.000333
0.000238
0.000185
0.000057
0.000185
0.000239
0.000264
0.000471
0.000329
0.000295
0.000253
0.000244
0.000231
0.000256
0.000254
0.000264
0.000259
0.000240
0.000255
0.000260
0.000248
0.000246
0.000276
0.000449
0.000470
0.000363
0.000220
0.000248
0.000281
0.000274
0.000261
0.000256
0.000260
0.000270
0.000193
0.000056
0.000309
0.000371
0.000425
0.000259
0.000202
0.000248
0.000315
0.000456
0.000280
0.000216
0.000247
0.000274
0.000270
0.000436
0.000441
0.000288
0.000242
0.000226
0.000253
0.000281
0.000258
0.000260
0.000265
0.000270
0.000263
0.000326
0.000400
0.000443
0.000249
0.000243
0.000185
0.000056
0.000206
0.000237
0.000248
0.000256
0.000252
0.000260
0.000234
0.000268
0.000247
0.000242
0.000264
0.000236
0.000289
0.001438
0.000212
0.000261
0.000262
0.000245
0.000276
0.000280
0.000254
0.000245
0.000280
0.000246
0.000270
0.000282
0.000256
0.000273
0.000259
0.000265
0.000200
0.000056
0.000207
0.000226
0.000261
0.000260
0.000222
0.000260
0.000241
0.000258
0.000231
0.000251
0.000242
0.000269
0.000258
0.000249
0.000258
0.000254
0.000246
0.000262
0.000274
0.000251
0.000257
0.000265
0.000252
0.000246
0.001294
0.000270
0.000656
0.000403
0.000284
0.000237
0.000200
0.000056
0.000207
0.000231
0.000263
0.000234
0.000420
0.000231
0.000238
0.000246
0.000252
0.000431
0.000404
0.000323
0.000238
0.000217
0.000273
0.000254
0.000266
0.000260
0.000244
0.000258
0.000260
0.000253
0.000272
0.000546
0.000432
0.000389
0.000232
0.000263
0.001378
0.000238
0.000189
0.000055
0.000357
0.000406
0.000324
0.000260
0.000234
0.000233
0.000220
0.000250
0.000258
0.000255
0.000252
0.000256
0.000296
0.000263
0.000565
0.000364
0.000337
0.000222
0.000247
0.000257
0.000265
0.000300
0.000233
0.000267
0.000266
0.000261
0.000358
0.000542
0.000371
0.000358
0.000150
0.000056
0.000205
0.000235
0.001266
0.000423
0.000284
0.000464
0.000383
0.000500
0.000261
0.000343
0.000232
0.000220
0.000264
0.000253
0.000250
0.000270
0.000420
0.000497
0.000309
0.000374
0.000263
0.000238
0.000272
0.000501
0.000247
0.000249
0.000249
0.000283
0.000348
0.000546
0.000286
0.000057
0.000378
0.000314
0.000232
0.000222
0.001562
0.000481
0.000323
0.000216
0.000242
0.000245
0.000233
0.000242
0.000248
0.000269
0.000261
0.000249
0.000235
0.000270
0.000402
0.000416
0.000425
0.000246
0.000253
0.000254
0.000260
0.000277
0.000268
0.000240
0.000268
0.000278
0.000200
0.000056
0.000383
0.000349
0.000225
0.000230
0.000242
0.000245
0.000260
0.000238
0.000238
0.000223
0.001472
0.000492
0.000194
0.000236
0.000236
0.000260
0.000271
0.000262
0.000236
0.000300
0.000246
0.000251
0.000341
0.000383
0.000380
0.000451
0.000226
0.000280
0.000265
0.000285
0.000167
0.000056
0.000215
0.000423
0.000230
0.000237
0.000333
0.000438
0.000362
0.000327
0.000456
0.000202
0.000236
0.000250
0.000262
0.000268
0.000255
0.001531
0.000245
0.000279
0.000245
0.000272
0.000297
0.000238
0.000252
0.000245
0.000272
0.000266
0.000504
0.000387
0.000297
0.000270
0.000165
0.000056
0.000199
0.000235
0.000251
0.000238
0.000229
0.000260
0.000238
0.000248
0.000324
0.000330
0.000493
0.000233
0.000244
0.000251
0.000250
0.000268
0.000279
0.000253
0.000267
0.000239
0.000249
0.000321
0.001259
0.000234
0.000265
0.000266
0.000250
0.000260
0.000254
0.000269
0.000183
0.000055
0.000243
0.000336
0.000392
0.000321
0.000237
0.000247
0.000256
0.000289
0.000239
0.000260
0.000238
0.000268
0.000240
0.000259
0.000251
0.000266
0.000266
0.000271
0.000265
0.000246
0.000252
0.000273
0.000266
0.000285
0.000285
0.000272
0.000264
0.000260
0.000264
0.000449
0.001365
0.000057
0.000200
0.000252
0.000221
0.000263
0.000235
0.000259
0.000244
0.000220
0.000248
0.000256
0.000272
0.000264
0.000246
0.000237
0.000277
0.000224
0.001724
0.000256
0.000246
0.000259
0.000249
0.000260
0.000272
0.000260
0.000302
0.000230
0.000263
0.000282
0.000264
0.000258
0.000232
0.000055
0.000372
0.000205
0.001319
0.000234
0.000220
0.000245
0.000256
0.000248
0.000276
0.000243
0.000230
0.000338
0.000418
0.000446
0.000272
0.000213
0.000253
0.000253
0.000262
0.000261
0.000247
0.000278
0.000258
0.000284
0.000264
0.000394
0.000372
0.000373
0.000304
0.000235
0.000197
0.000056
0.000214
0.000243
0.000243
0.000249
0.000275
0.000201
0.000241
0.000282
0.000391
0.001343
0.000262
0.000208
0.000252
0.000272
0.000255
0.000288
0.000244
0.000243
0.000305
0.000447
0.000326
0.000291
0.000246
0.000238
0.000282
0.000283
0.000276
0.000285
0.000266
0.000273
0.000200
0.000056
0.000244
0.000423
0.000396
0.000221
0.000221
0.000235
0.000250
0.000279
0.000265
0.000245
0.000228
0.000279
0.000430
0.000538
0.000434
0.001451
0.000248
0.000263
0.000334
0.000354
0.000504
0.000470
0.000463
0.000341
0.000213
0.000268
0.000285
0.000256
0.000267
0.000272
0.000196
0.000056
0.000229
0.000272
0.000471
0.000540
0.000251
0.000255
0.000230
0.000242
0.000237
0.000278
0.000231
0.000267
0.000277
0.000230
0.000258
0.000313
0.000387
0.000452
0.000303
0.001327
0.000270
0.000260
0.000248
0.000278
0.000434
0.000464
0.000399
0.000220
0.000290
0.000260
0.000184
0.000057
0.000212
0.000241
0.000240
0.000279
0.000214
0.000316
0.000542
0.000308
0.000325
0.000210
0.000245
0.000257
0.000270
0.000292
0.000235
0.000253
0.000267
0.000267
0.000270
0.000384
0.000384
0.000415
0.000293
0.001372
0.000383
0.000239
0.000269
0.000453
0.000430
0.000355
0.000285
0.000056
0.000200
0.000250
0.000236
0.000244
0.000255
0.000253
0.001714
0.000207
0.000212
0.000246
0.000253
0.000249
0.000259
0.000323
0.000325
0.000288
0.000267
0.000277
0.000581
0.000400
0.000266
0.000286
0.000218
0.000255
0.001497
0.000524
0.000277
0.000442
0.000302
0.000301
0.000175
0.000056
0.000194
0.000253
0.000250
0.000261
0.000244
0.000263
0.001701
0.000229
0.000253
0.000264
0.000329
0.000401
0.001451
0.000352
0.000396
0.000239
0.000260
0.000230
0.000270
0.000276
0.001594
0.000555
0.000358
0.000285
0.000218
0.000263
0.000266
0.000282
0.000239
0.000273
0.000180
0.000056
0.000191
0.000243
0.000267
0.000249
0.000261
0.000272
0.000278
0.000253
0.000253
0.000253
0.000256
0.000246
0.000292
0.000256
0.000233
0.001499
0.000284
0.000226
0.000270
0.000271
0.000275
0.000253
0.000426
0.001277
0.000273
0.000235
0.000270
0.000276
0.000377
0.000243
0.000205
0.000056
0.000216
0.000252
0.000220
0.000247
0.000240
0.000230
0.000231
0.001692
0.000260
0.000225
0.000357
0.000264
0.000223
0.000227
0.000250
0.001397
0.000226
0.000262
0.000265
0.000251
0.000274
0.000337
0.000296
0.001303
0.000270
0.000248
0.000250
0.000267
0.001388
0.000275
0.000195
0.000056
0.000237
0.000346
0.000200
0.000242
0.000262
0.000228
0.000286
0.000250
0.000260
0.000252
0.000256
0.000268
0.000247
0.000270
0.000280
0.001534
0.000221
0.000272
0.000251
0.000248
0.000282
0.000257
0.000247
0.001521
0.000341
0.000235
0.000265
0.001282
0.000271
0.000242
0.000214
0.000057
0.000211
0.000527
0.000208
0.000211
0.000233
0.000238
0.000265
0.000255
0.000267
0.000268
0.000234
0.000256
0.000260
0.000379
0.000334
0.001201
0.000231
0.000245
0.000270
0.000274
0.000230
0.000244
0.000249
0.000334
0.001288
0.000239
0.000243
0.000255
0.000253
0.001344
0.000307
0.000057
0.000242
0.000250
0.000220
0.000230
0.000238
0.000253
0.000247
0.000242
0.000296
0.000246
0.000237
0.000243
0.000263
0.000323
0.000419
0.001462
0.000218
0.000246
0.000303
0.000528
0.000261
0.000340
0.001413
0.000303
0.000231
0.000267
0.000263
0.001295
0.000328
0.000482
0.000321
0.000056
0.000232
0.000277
0.000233
0.000251
0.000252
0.000253
0.000273
0.000261
0.000252
0.000273
0.000308
0.000484
0.001308
0.000240
0.000265
0.000266
0.000280
0.000228
0.000240
0.000236
0.000352
0.001235
0.000255
0.000244
0.000255
0.000245
0.001474
0.000484
0.000479
0.000214
0.000188
0.000057
0.000201
0.000236
0.000248
0.000233
0.000254
0.000263
0.000240
0.000279
0.000406
0.000514
0.000255
0.001483
0.000211
0.000240
0.000266
0.000258
0.000261
0.000297
0.001678
0.000253
0.000390
0.000342
0.001238
0.000417
0.000290
0.000324
0.000264
0.000260
0.000253
0.000274
0.000191
0.000056
0.000195
0.000242
0.000329
0.000242
0.000332
0.000568
0.000241
0.000291
0.001447
0.000247
0.000379
0.000269
0.000241
0.000311
0.000407
0.001274
0.000270
0.000245
0.000247
0.000255
0.001644
0.000282
0.000265
0.000262
0.000279
0.000239
0.000453
0.000331
0.000255
0.000253
0.000248
0.000056
0.000230
0.000361
0.000354
0.000251
0.000229
0.001515
0.000210
0.000270
0.000267
0.000266
0.000267
0.000237
0.000306
0.001491
0.000255
0.000237
0.000416
0.001200
0.000338
0.000452
0.000379
0.000243
0.000243
0.000254
0.000298
0.000225
0.000453
0.000228
0.000259
0.000282
0.000202
0.000055
0.000195
0.000331
0.000297
0.000441
0.001208
0.000283
0.000335
0.000226
0.000219
0.000253
0.000253
0.000443
0.001366
0.000276
0.000218
0.000239
0.001394
0.000360
0.000490
0.000278
0.000383
0.000228
0.000254
0.000252
0.000267
0.000283
0.000261
0.000256
0.000275
0.000246
0.000197
0.000056
0.000225
0.000418
0.001412
0.000207
0.000270
0.000299
0.000218
0.000250
0.000270
0.000401
0.001368
0.000204
0.000266
0.000261
0.000258
0.001298
0.000685
0.000270
0.000320
0.000413
0.000301
0.000250
0.000269
0.000252
0.000272
0.000290
0.000272
0.000331
0.000406
0.000433
0.001373
0.000056
0.000207
0.000251
0.000244
0.000224
0.000317
0.000496
0.000392
0.001233
0.000251
0.000238
0.000248
0.001386
0.000553
0.000258
0.000228
0.000421
0.000235
0.000231
0.000265
0.000299
0.000249
0.000253
0.000280
0.000255
0.000252
0.000297
0.000455
0.000461
0.001487
0.000228
0.000182
0.000056
0.000195
0.000259
0.000408
0.000482
0.001230
0.000305
0.000234
0.000261
0.000241
0.000251
0.000250
0.000313
0.000314
0.000580
0.000256
0.000234
0.000252
0.000274
0.000241
0.000306
0.000238
0.000260
0.000256
0.000264
0.000257
0.000504
0.000389
0.000315
0.000328
0.001405
0.000183
0.000055
0.000184
0.000248
0.000366
0.000386
0.000320
0.000330
0.000292
0.000333
0.000295
0.000255
0.000235
0.000265
0.000249
0.000315
0.000230
0.000256
0.000565
0.000346
0.000289
0.000389
0.000273
0.000406
0.000230
0.000245
0.000264
0.000262
0.000250
0.000300
0.000463
0.000425
0.000242
0.000057
0.000189
0.001414
0.000215
0.000341
0.000410
0.000454
0.000338
0.000333
0.000207
0.000245
0.000263
0.000251
0.000280
0.000253
0.000273
0.000247
0.000255
0.001275
0.000335
0.000261
0.000255
0.000275
0.000273
0.000273
0.000275
0.000250
0.000274
0.000250
0.000353
0.000388
0.000390
0.000055
0.000216
0.000243
0.000234
0.001508
0.000324
0.000235
0.000224
0.000251
0.000231
0.000241
0.000256
0.000281
0.000242
0.000253
0.000295
0.000230
0.000246
0.000267
0.000267
0.000243
0.001434
0.000240
0.000243
0.000261
0.000275
0.000242
0.000264
0.000261
0.000277
0.000496
0.000346
0.000055
0.000178
0.000239
0.000400
0.000287
0.000241
0.000254
0.001528
0.000407
0.000241
0.000215
0.000258
0.000314
0.000334
0.000229
0.000242
0.000235
0.000242
0.000291
0.000236
0.000257
0.000569
0.000407
0.001139
0.000260
0.000241
0.000266
0.000273
0.000252
0.000302
0.000231
0.000453
0.000056
0.000248
0.000347
0.000211
0.000241
0.000247
0.000242
0.000246
0.000222
0.000294
0.001600
0.000409
0.000258
0.000237
0.000243
0.000265
0.000241
0.000279
0.000258
0.000262
0.000315
0.000373
0.000525
0.000352
0.001358
0.000230
0.000277
0.000267
0.000256
0.000276
0.000278
0.000512
0.000055
0.000188
0.000254
0.000225
0.000239
0.000219
0.000241
0.000262
0.000305
0.000230
0.001579
0.000350
0.000259
0.000242
0.000257
0.000471
0.000242
0.000547
0.000373
0.000276
0.000266
0.000513
0.000493
0.001248
0.000257
0.000236
0.000257
0.001702
0.000595
0.000479
0.000318
0.000143
0.000056
0.000194
0.000233
0.000241
0.000234
0.000258
0.000240
0.000249
0.000496
0.000555
0.000363
0.000285
0.000221
0.000244
0.000257
0.000285
0.000272
0.000233
0.000248
0.000245
0.000290
0.000278
0.000457
0.001289
0.000219
0.000253
0.000274
0.001886
0.000393
0.000387
0.000346
0.000151
0.000056
0.000223
0.000243
0.000240
0.001608
0.000385
0.000208
0.000240
0.000266
0.000246
0.000279
0.000391
0.000355
0.000369
0.000277
0.000410
0.000417
0.000417
0.001170
0.000263
0.000228
0.000259
0.000264
0.000276
0.000399
0.000633
0.000446
0.000248
0.000272
0.000270
0.000278
0.000185
0.000055
0.000206
0.000234
0.000244
0.001578
0.000212
0.000231
0.000245
0.000255
0.000244
0.000251
0.000254
0.000287
0.000261
0.000266
0.000320
0.000423
0.000449
0.000227
0.001381
0.000225
0.000263
0.000263
0.000257
0.000260
0.000333
0.000565
0.000417
0.000269
0.000280
0.000230
0.000443
0.000055
0.000193
0.000244
0.000272
0.001615
0.000214
0.000217
0.000266
0.000240
0.000258
0.000261
0.000250
0.000270
0.000259
0.000234
0.000428
0.000594
0.001281
0.000749
0.000262
0.000333
0.000236
0.000239
0.000256
0.000276
0.001676
0.000814
0.000217
0.000265
0.000282
0.000283
0.000186
0.000056
0.000193
0.000240
0.000251
0.000241
0.000277
0.000255
0.000214
0.000256
0.000237
0.000234
0.000288
0.000283
0.000254
0.000251
0.000260
0.000250
0.000263
0.001606
0.000701
0.000408
0.000281
0.000227
0.000253
0.000307
0.000250
0.000249
0.000275
0.000254
0.001388
0.000414
0.000323
0.000056
0.000194
0.000232
0.000271
0.000230
0.000264
0.000225
0.000279
0.000229
0.000255
0.000263
0.000308
0.000441
0.000389
0.000320
0.000220
0.000248
0.000265
0.001388
0.000686
0.000518
0.000296
0.000277
0.000225
0.000256
0.000274
0.000258
0.000260
0.000253
0.001709
0.000213
0.000193
0.000057
0.000200
0.000237
0.000241
0.000249
0.000246
0.000252
0.000233
0.000249
0.000276
0.000263
0.000405
0.000313
0.000348
0.000229
0.000239
0.000240
0.000267
0.000253
0.001586
0.000625
0.000536
0.000262
0.000212
0.000257
0.000256
0.000262
0.000270
0.000294
0.000250
0.001356
0.000369
0.000057
0.000226
0.000215
0.000236
0.000258
0.000258
0.000242
0.000247
0.000307
0.000363
0.000467
0.000376
0.000349
0.000353
0.000228
0.000243
0.000252
0.000301
0.000238
0.000267
0.001928
0.000322
0.000244
0.000444
0.000242
0.000248
0.000259
0.000264
0.000270
0.000268
0.000273
0.000294
0.000056
0.000285
0.000234
0.000235
0.000261
0.000250
0.000232
0.000225
0.000242
0.000267
0.000267
0.000233
0.000237
0.000268
0.000511
0.000410
0.000448
0.000222
0.000268
0.000253
0.000247
0.000255
0.000286
0.001470
0.001056
0.000220
0.000244
0.000272
0.000271
0.000270
0.000252
0.000203
0.000055
0.000193
0.001335
0.000289
0.000227
0.000243
0.000234
0.000253
0.000238
0.000237
0.000267
0.000241
0.000263
0.000245
0.000374
0.000393
0.000456
0.000252
0.000244
0.000282
0.000261
0.000268
0.000232
0.000259
0.000260
0.001389
0.000623
0.000300
0.000400
0.000358
0.000404
0.000297
0.000056
0.000211
0.000245
0.000349
0.001323
0.000209
0.000251
0.000237
0.000260
0.000255
0.000257
0.000251
0.000249
0.000288
0.000424
0.000461
0.000310
0.000221
0.000283
0.000332
0.000226
0.000233
0.000273
0.000239
0.000267
0.000274
0.001538
0.000742
0.000317
0.000255
0.000272
0.000193
0.000056
0.000215
0.000269
0.000453
0.000357
0.001261
0.000265
0.000228
0.000220
0.000233
0.000250
0.000250
0.000256
0.000231
0.000258
0.000234
0.000257
0.000268
0.000236
0.000258
0.000247
0.000271
0.000272
0.000312
0.000324
0.000217
0.000265
0.000268
0.001451
0.000257
0.000247
0.000169
0.000055
0.000209
0.000245
0.000229
0.000265
0.000355
0.000375
0.000394
0.000283
0.001572
0.000265
0.000373
0.000374
0.000369
0.000216
0.000442
0.000232
0.000236
0.000262
0.000279
0.000266
0.000277
0.000262
0.000264
0.000270
0.000243
0.000458
0.000356
0.000338
0.001572
0.000231
0.000187
0.000056
0.000231
0.000247
0.000235
0.000248
0.000244
0.000240
0.000261
0.000317
0.000413
0.002033
0.000231
0.000244
0.000255
0.000256
0.000260
0.000299
0.000217
0.000262
0.000317
0.000398
0.000383
0.000419
0.001449
0.000263
0.000239
0.002053
0.000259
0.000214
0.000258
0.001528
0.000152
0.000073
0.000407
0.000366
0.000429
0.000241
0.000274
0.000212
0.000263
0.000263
0.000263
0.000232
0.000250
0.000343
0.000471
0.000301
0.000404
0.000236
0.000239
0.001574
0.000225
0.000673
0.001803
0.000285
0.000226
0.001567
0.001987
0.000744
0.000285
0.000264
0.000304
0.000513
0.000228
0.000056
0.000201
0.000242
0.000276
0.000221
0.001423
0.001731
0.001076
0.000207
0.000227
0.001586
0.001979
0.000217
0.000238
0.000425
0.000331
0.000288
0.000455
0.000478
0.000209
0.000235
0.000252
0.000260
0.000278
0.001655
0.001159
0.001412
0.000285
0.000276
0.000264
0.000302
0.000344
0.000056
0.000226
0.000231
0.000239
0.000240
0.000227
0.000247
0.000249
0.000256
0.000259
0.000244
0.000239
0.000326
0.000426
0.000474
0.000280
0.000246
0.000259
0.000262
0.000267
0.000284
0.000240
0.000260
0.001535
0.000458
0.002108
0.000253
0.000256
0.000375
0.000400
0.000389
0.000183
0.000057
0.000218
0.000330
0.000511
0.000293
0.000194
0.000230
0.000255
0.000238
0.000249
0.000240
0.000245
0.000268
0.000258
0.001604
0.001353
0.001235
0.000277
0.000227
0.000272
0.000249
0.000289
0.000274
0.000239
0.000258
0.002211
0.000255
0.000247
0.000294
0.000322
0.000305
0.000221
0.000055
0.000248
0.000341
0.000573
0.000296
0.000237
0.000234
0.000248
0.000261
0.001925
0.001391
0.000225
0.000327
0.000387
0.000410
0.000272
0.000218
0.000258
0.000266
0.000270
0.000253
0.000257
0.000273
0.000469
0.000236
0.000268
0.000266
0.000252
0.000274
0.000279
0.000250
0.000204
0.000056
0.000203
0.000248
0.000246
0.000243
0.000273
0.000250
0.001542
0.001408
0.001325
0.000237
0.000237
0.000246
0.000264
0.000264
0.000246
0.000244
0.000251
0.002102
0.000244
0.000242
0.000264
0.000266
0.000256
0.000270
0.000266
0.000252
0.000277
0.000249
0.000280
0.000259
0.000173
0.000055
0.000202
0.002673
0.001406
0.000220
0.000304
0.000322
0.000214
0.000287
0.000231
0.000236
0.000261
0.000242
0.000227
0.000250
0.000275
0.000250
0.000270
0.000266
0.000266
0.000262
0.000265
0.000283
0.000276
0.000257
0.000250
0.000245
0.000264
0.000268
0.000270
0.000269
0.000370
0.000057
0.001549
0.000248
0.001237
0.000227
0.000225
0.000243
0.000259
0.000277
0.000223
0.000260
0.000465
0.000346
0.000296
0.000209
0.000247
0.002158
0.000232
0.000252
0.000270
0.000509
0.000325
0.000334
0.000233
0.000272
0.000251
0.000243
0.000276
0.000271
0.000268
0.002694
0.000190
0.000056
0.000190
0.000237
0.000345
0.000393
0.000313
0.000275
0.000214
0.000229
0.000253
0.000264
0.000261
0.000248
0.000221
0.000256
0.000265
0.000246
0.000318
0.000636
0.000349
0.000236
0.000228
0.000275
0.000298
0.000236
0.000252
0.000240
0.000267
0.000274
0.000243
0.000312
0.000384
0.000056
0.001113
0.000284
0.000305
0.000433
0.000300
0.000223
0.000230
0.000245
0.000246
0.002390
0.000274
0.000401
0.000210
0.000380
0.000302
0.000259
0.000253
0.000247
0.000259
0.000231
0.000247
0.000287
0.000648
0.000395
0.001873
0.001325
0.000530
0.000523
0.000227
0.000281
0.000197
0.000056
0.000242
0.000321
0.000247
0.000249
0.000251
0.000220
0.000256
0.000250
0.000276
0.000231
0.000253
0.000224
0.000250
0.000279
0.000561
0.000331
0.001838
0.001324
0.000464
0.000414
0.000456
0.000240
0.000240
0.000257
0.002144
0.000541
0.000382
0.000234
0.000277
0.000285
0.000189
0.000056
0.000226
0.000216
0.000262
0.000256
0.000227
0.000365
0.000403
0.000277
0.000343
0.000223
0.000240
0.000252
0.000266
0.002120
0.000395
0.000346
0.000210
0.000252
0.000289
0.000245
0.000248
0.002504
0.000293
0.000220
0.000257
0.000253
0.000267
0.000261
0.000309
0.000259
0.000188
0.000056
0.000231
0.000261
0.000681
0.000295
0.000247
0.000220
0.000234
0.000253
0.000266
0.000249
0.002025
0.000322
0.000274
0.000265
0.000247
0.000261
0.000272
0.000243
0.002209
0.000447
0.000222
0.000267
0.000267
0.000261
0.000261
0.000247
0.000316
0.000220
0.000268
0.000269
0.000166
0.000056
0.000186
0.000261
0.000231
0.000233
0.000235
0.000261
0.000237
0.000243
0.000237
0.002180
0.000221
0.000287
0.000210
0.000436
0.000231
0.000253
0.000299
0.000260
0.000270
0.000235
0.001962
0.000286
0.000335
0.000362
0.000433
0.000427
0.000287
0.000247
0.000258
0.000265
0.000193
0.000056
0.000215
0.000257
0.000216
0.000255
0.000243
0.000329
0.000208
0.002317
0.000255
0.000224
0.000263
0.000253
0.000233
0.000278
0.000281
0.002124
0.000587
0.000221
0.000256
0.000241
0.000268
0.000253
0.000290
0.000281
0.000252
0.000246
0.000293
0.000250
0.000265
0.000264
0.000197
0.000055
0.001830
0.001434
0.000210
0.000221
0.000246
0.000254
0.000249
0.000279
0.000390
0.000375
0.002149
0.000257
0.000233
0.000269
0.000315
0.000484
0.000422
0.000291
0.000196
0.000261
0.000244
0.000267
0.000266
0.000230
0.000259
0.000258
0.000271
0.000263
0.000345
0.000712
0.000249
0.000057
0.000205
0.000262
0.000237
0.000259
0.000268
0.000243
0.000250
0.000242
0.001591
0.002236
0.000379
0.000251
0.000430
0.000672
0.000369
0.000221
0.000255
0.000249
0.000263
0.000258
0.000257
0.000242
0.000245
0.000274
0.003008
0.000332
0.000243
0.000265
0.000286
0.000368
0.000409
0.000057
0.001936
0.000242
0.000226
0.000229
0.000348
0.000296
0.000520
0.000240
0.000300
0.000202
0.000242
0.000252
0.000257
0.000256
0.000276
0.000245
0.000260
0.000279
0.001830
0.000236
0.000229
0.000258
0.000278
0.000272
0.000275
0.000254
0.001488
0.000314
0.000264
0.000247
0.000173
0.000056
0.000207
0.000232
0.000245
0.000262
0.000227
0.000239
0.000354
0.000348
0.000310
0.000374
0.000219
0.000259
0.000249
0.000330
0.000418
0.000322
0.000226
0.000246
0.000256
0.000397
0.000478
0.000390
0.000257
0.000261
0.000261
0.000247
0.000259
0.000263
0.000282
0.000265
0.000203
0.000056
0.001439
0.000452
0.000212
0.001960
0.000301
0.000390
0.000419
0.000318
0.000219
0.000250
0.000267
0.000245
0.000238
0.000256
0.000260
0.000256
0.000459
0.000280
0.000459
0.000368
0.000309
0.000234
0.000254
0.000267
0.000267
0.000276
0.000258
0.000271
0.000386
0.000399
0.001411
0.000055
0.000209
0.000219
0.002079
0.000322
0.000310
0.000239
0.000255
0.000247
0.000266
0.000261
0.000212
0.000251
0.000261
0.000257
0.000301
0.000324
0.000720
0.001743
0.000228
0.000250
0.000262
0.000259
0.000393
0.000512
0.001488
0.000293
0.000361
0.001930
0.000253
0.000254
0.000197
0.000056
0.000218
0.000230
0.000232
0.000248
0.000221
0.000253
0.000249
0.000289
0.000329
0.000267
0.000373
0.000365
0.000340
0.000299
0.000237
0.000268
0.000263
0.000260
0.000247
0.000246
0.000313
0.000285
0.000270
0.000261
0.000263
0.001510
0.000291
0.000384
0.002072
0.000235
0.000168
0.000058
0.000212
0.000236
0.000240
0.000246
0.000495
0.000200
0.000257
0.000334
0.000383
0.000303
0.000297
0.000199
0.000268
0.000267
0.000267
0.000330
0.000445
0.000411
0.000250
0.000406
0.000542
0.000481
0.001529
0.000225
0.000252
0.001973
0.000362
0.000232
0.000243
0.000297
0.000184
0.000056
0.000205
0.000240
0.000223
0.000249
0.000251
0.000275
0.000246
0.000275
0.000253
0.000287
0.001793
0.000307
0.000383
0.000278
0.000460
0.000408
0.000372
0.001436
0.000236
0.000292
0.002282
0.000398
0.000264
0.000229
0.000262
0.000269
0.000509
0.000221
0.000253
0.000279
0.000195
0.000055
0.000294
0.000422
0.000302
0.000297
0.000203
0.000245
0.000254
0.000278
0.000238
0.000291
0.000237
0.000245
0.000256
0.000256
0.000337
0.000524
0.001267
0.000272
0.000274
0.001967
0.000322
0.000282
0.000228
0.000270
0.000246
0.000281
0.000284
0.000247
0.000244
0.000271
0.000196
0.000055
0.000214
0.000457
0.002001
0.000256
0.000222
0.000248
0.000273
0.000307
0.000432
0.000420
0.001299
0.000368
0.000357
0.002088
0.000225
0.000221
0.000273
0.000269
0.000260
0.000235
0.000289
0.000291
0.000251
0.000438
0.000437
0.000349
0.000300
0.002237
0.000546
0.000448
0.000378
0.000056
0.000220
0.000226
0.000242
0.001967
0.000227
0.000224
0.000244
0.000243
0.000244
0.000257
0.000247
0.000261
0.000261
0.000279
0.000552
0.001343
0.000259
0.000255
0.000253
0.000262
0.000235
0.000256
0.000249
0.000298
0.000330
0.000439
0.000463
0.000233
0.001605
0.000288
0.000137
0.000056
0.000204
0.000220
0.000243
0.000235
0.000263
0.000269
0.000244
0.000232
0.000257
0.000386
0.000419
0.001345
0.000234
0.000223
0.000246
0.000294
0.000233
0.000255
0.000280
0.000503
0.000439
0.000408
0.000220
0.001572
0.000240
0.000266
0.000281
0.000278
0.000266
0.000268
0.000187
0.000056
0.000208
0.000231
0.000265
0.000268
0.000245
0.000249
0.000236
0.000243
0.000280
0.000223
0.000251
0.000255
0.000265
0.001489
0.000354
0.000206
0.000248
0.000265
0.000278
0.000314
0.000365
0.000274
0.000247
0.000268
0.000256
0.000267
0.000260
0.001422
0.000257
0.000246
0.000168
0.000056
0.000201
0.000236
0.000260
0.000260
0.000269
0.000226
0.000244
0.000260
0.000224
0.000260
0.000246
0.000256
0.000232
0.000328
0.000393
0.000288
0.000286
0.000244
0.001626
0.000246
0.000239
0.000261
0.000276
0.000285
0.000403
0.000344
0.000447
0.000270
0.000260
0.001604
0.000156
0.000056
0.000375
0.000266
0.000415
0.000256
0.000235
0.000215
0.000244
0.000272
0.000255
0.000258
0.000230
0.000234
0.001460
0.000301
0.000305
0.000219
0.000252
0.000270
0.000264
0.000252
0.000257
0.000234
0.000259
0.000271
0.000292
0.000313
0.000510
0.000349
0.000249
0.000251
0.000194
0.000055
0.000213
0.000249
0.000557
0.000260
0.000349
0.000257
0.000253
0.000253
0.000250
0.000258
0.000243
0.000224
0.000257
0.000241
0.001285
0.000290
0.000225
0.000249
0.000268
0.000268
0.000252
0.000254
0.000246
0.000265
0.000250
0.000256
0.000348
0.000616
0.000497
0.000231
0.000183
0.000055
0.000197
0.001563
0.000249
0.000362
0.000435
0.000363
0.000216
0.000261
0.000271
0.000249
0.000243
0.000256
0.000269
0.000275
0.000260
0.001530
0.000251
0.000285
0.000260
0.000258
0.000272
0.000238
0.000263
0.000266
0.000268
0.000279
0.000517
0.000276
0.000336
0.000237
0.000193
0.000056
0.000199
0.000253
0.000235
0.001667
0.000377
0.000342
0.000215
0.000241
0.000255
0.000273
0.000279
0.000254
0.000251
0.000257
0.000231
0.000309
0.000523
0.001170
0.000251
0.000222
0.001508
0.000364
0.000499
0.000425
0.000334
0.000217
0.000273
0.000471
0.000227
0.000273
0.000178
0.000056
0.000298
0.000220
0.000242
0.000248
0.000245
0.000255
0.000240
0.000255
0.000260
0.000249
0.000243
0.000256
0.000325
0.000480
0.001675
0.001481
0.000360
0.000581
0.000294
0.000232
0.000225
0.000256
0.000255
0.000266
0.000255
0.000261
0.000263
0.000268
0.001520
0.000347
0.000154
0.000056
0.000217
0.000353
0.000352
0.000333
0.000237
0.000220
0.000248
0.000401
0.000408
0.000372
0.002144
0.000322
0.000712
0.000669
0.000289
0.000275
0.000314
0.000390
0.000328
0.000280
0.000409
0.000255
0.001535
0.000526
0.000224
0.000254
0.000260
0.000253
0.000261
0.000263
0.000194
0.000056
0.000225
0.000253
0.000249
0.000259
0.000239
0.001666
0.000877
0.000998
0.000207
0.000232
0.000259
0.000252
0.000267
0.000257
0.000256
0.000252
0.000252
0.000262
0.000270
0.000279
0.001426
0.000317
0.000252
0.000227
0.000234
0.000261
0.000265
0.000281
0.000263
0.000285
0.001901
0.000071
0.000178
0.000229
0.001545
0.000933
0.000311
0.000365
0.000219
0.000255
0.000231
0.000262
0.000245
0.000251
0.000248
0.001982
0.000481
0.000233
0.000226
0.000259
0.000262
0.000254
0.000197
