0.000123
0.018927
0.002812
0.000225
0.000258
0.000290
0.000325
0.000251
0.000306
0.000278
0.000257
0.000328
0.000494
0.000493
0.000433
0.000330
0.000268
0.000333
0.000361
0.000412
0.001982
0.000260
0.000691
0.000280
0.000238
0.000319
0.000302
0.000303
0.000423
0.000374
0.000516
0.000331
0.000056
0.000206
0.000265
0.000269
0.000289
0.000275
0.000224
0.000278
0.000288
0.000267
0.000271
0.000422
0.000436
0.000312
0.000249
0.000378
0.000346
0.000361
0.000253
0.000261
0.001692
0.000323
0.000251
0.000449
0.000246
0.000277
0.000303
0.000267
0.000297
0.000277
0.000355
0.000417
0.000058
0.000231
0.000258
0.000262
0.000264
0.000247
0.000248
0.000266
0.000263
0.000277
0.001665
0.000231
0.000227
0.000274
0.000270
0.000280
0.000248
0.000264
0.000255
0.000354
0.001788
0.000244
0.000283
0.000438
0.000425
0.000408
0.000219
0.000270
0.000651
0.000300
0.000796
0.000184
0.000057
0.000223
0.000245
0.000254
0.000241
0.000314
0.000231
0.000317
0.000548
0.000396
0.000246
0.000252
0.000242
0.000245
0.000258
0.000254
0.000258
0.000251
0.000256
0.000302
0.000320
0.001669
0.000282
0.000246
0.000419
0.000648
0.000374
0.000784
0.000377
0.000355
0.000238
0.000187
0.000056
0.000238
0.000251
0.000290
0.000210
0.000285
0.000231
0.000276
0.000446
0.001472
0.000219
0.000251
0.000245
0.000254
0.000258
0.000261
0.000282
0.000266
0.000862
0.001339
0.000305
0.000234
0.000414
0.000238
0.000253
0.000275
0.000240
0.000267
0.000269
0.000262
0.000290
0.000175
0.000059
0.000205
0.000243
0.000247
0.000260
0.000237
0.000245
0.000240
0.000252
0.000260
0.000235
0.001623
0.000260
0.000239
0.000250
0.000252
0.000245
0.000249
0.000259
0.000244
0.000256
0.000288
0.001635
0.000290
0.000252
0.000434
0.000257
0.000272
0.000249
0.000261
0.000270
0.000204
0.000057
0.000207
0.000230
0.000254
0.000243
0.000247
0.000243
0.000264
0.000236
0.000263
0.000258
0.000267
0.000235
0.000260
0.000274
0.001637
0.000280
0.000285
0.000216
0.000257
0.000273
0.000282
0.000225
0.000248
0.000264
0.001771
0.000411
0.000336
0.000374
0.000234
0.000279
0.000215
0.000056
0.000225
0.000236
0.000245
0.000267
0.000256
0.000261
0.000255
0.000412
0.000392
0.000453
0.000209
0.000245
0.000268
0.000234
0.001569
0.000515
0.000349
0.000401
0.000300
0.000237
0.000263
0.000287
0.000268
0.001718
0.000506
0.000480
0.000255
0.000246
0.000243
0.000269
0.000181
0.000057
0.000193
0.000242
0.000249
0.000282
0.000324
0.000426
0.000375
0.000292
0.000215
0.000249
0.000265
0.000245
0.000243
0.001694
0.000508
0.000294
0.000221
0.000254
0.000270
0.000289
0.000247
0.000253
0.001862
0.000318
0.000282
0.000390
0.000250
0.000259
0.000282
0.000371
0.000327
0.000055
0.000230
0.000365
0.000372
0.000260
0.000265
0.000247
0.000251
0.000257
0.000271
0.000206
0.000244
0.000243
0.001544
0.000400
0.000269
0.000233
0.000253
0.000249
0.000251
0.000306
0.000257
0.000323
0.000243
0.001814
0.000254
0.000488
0.000247
0.000261
0.000276
0.000252
0.000260
0.000057
0.000336
0.000607
0.000611
0.000211
0.000229
0.000275
0.000227
0.000222
0.000259
0.000264
0.000242
0.001693
0.000248
0.000450
0.000366
0.000221
0.000237
0.000234
0.000269
0.000238
0.000277
0.001837
0.000228
0.000465
0.001875
0.000510
0.000363
0.000250
0.000253
0.000269
0.000185
0.000056
0.000214
0.000242
0.000245
0.000261
0.000238
0.001615
0.000257
0.000232
0.000252
0.000253
0.000248
0.000249
0.000250
0.000249
0.000296
0.000383
0.000635
0.000249
0.000239
0.000266
0.000283
0.000233
0.000248
0.000431
0.000445
0.000256
0.000315
0.000731
0.000289
0.000265
0.000213
0.000056
0.000224
0.000237
0.000249
0.000255
0.000243
0.000238
0.000254
0.000357
0.001853
0.000318
0.000223
0.000242
0.000245
0.000242
0.000257
0.000292
0.000402
0.000557
0.000286
0.000240
0.000260
0.000292
0.000290
0.000250
0.000277
0.000427
0.000338
0.000587
0.000561
0.000382
0.000166
0.000056
0.000209
0.000255
0.000245
0.000238
0.000239
0.000235
0.000245
0.000262
0.000227
0.000284
0.000339
0.000404
0.001434
0.000242
0.000237
0.000251
0.000254
0.000253
0.000252
0.000245
0.000298
0.000463
0.000389
0.000257
0.000268
0.000260
0.000254
0.000273
0.000265
0.000260
0.000380
0.000056
0.000217
0.000238
0.000229
0.000280
0.000688
0.000266
0.000237
0.000260
0.000233
0.000257
0.000261
0.000228
0.000297
0.000248
0.000252
0.000465
0.000418
0.001647
0.000287
0.000223
0.000258
0.000266
0.000255
0.000240
0.000267
0.000466
0.000468
0.000316
0.000427
0.000238
0.000195
0.000057
0.000211
0.000434
0.000230
0.000223
0.000284
0.000240
0.000299
0.000548
0.000319
0.000331
0.000224
0.000274
0.000264
0.000236
0.000518
0.000339
0.000225
0.000282
0.000365
0.001650
0.000268
0.000294
0.000462
0.000251
0.000282
0.000276
0.000268
0.000312
0.000565
0.000380
0.000273
0.000056
0.000221
0.000224
0.000236
0.000243
0.000419
0.000307
0.000290
0.000239
0.000425
0.000438
0.000362
0.000258
0.000241
0.000244
0.000256
0.000269
0.000249
0.000256
0.000234
0.000351
0.000286
0.000286
0.001888
0.000245
0.000258
0.000257
0.000269
0.000349
0.000412
0.000702
0.000476
0.000057
0.000229
0.000329
0.000299
0.000419
0.000388
0.000210
0.000267
0.000276
0.000528
0.000467
0.000196
0.000247
0.000231
0.000274
0.000261
0.000232
0.000259
0.000269
0.000266
0.000257
0.000265
0.000396
0.000752
0.001267
0.000318
0.000436
0.000420
0.000249
0.000344
0.000495
0.000385
0.000055
0.000233
0.000381
0.000279
0.000205
0.000240
0.000244
0.000408
0.000239
0.000241
0.000369
0.000407
0.000396
0.000303
0.000262
0.000262
0.000244
0.000349
0.000393
0.000347
0.000259
0.000240
0.000331
0.000783
0.001577
0.000223
0.000438
0.000315
0.000225
0.000265
0.000470
0.000279
0.000058
0.000226
0.000236
0.000244
0.000259
0.000249
0.000232
0.000253
0.000325
0.000450
0.000251
0.000493
0.000365
0.000274
0.000581
0.000247
0.000242
0.000281
0.000250
0.000232
0.000340
0.000231
0.000250
0.000268
0.000498
0.000417
0.001643
0.000272
0.000231
0.000253
0.000272
0.000187
0.000055
0.000356
0.000473
0.000319
0.000222
0.000237
0.000250
0.000258
0.000242
0.000266
0.000237
0.000228
0.000261
0.000415
0.000562
0.000390
0.000237
0.000252
0.000247
0.000339
0.000376
0.000382
0.000338
0.000358
0.000395
0.000256
0.000259
0.000280
0.000260
0.001785
0.000240
0.000210
0.000056
0.000205
0.000221
0.000260
0.000295
0.000324
0.000541
0.000321
0.000222
0.000286
0.000250
0.000234
0.000251
0.000526
0.000444
0.000479
0.000274
0.000266
0.000258
0.000423
0.000466
0.000354
0.000422
0.000599
0.000325
0.000237
0.000252
0.000266
0.000263
0.000246
0.001721
0.000341
0.000057
0.000264
0.000332
0.000204
0.000232
0.000260
0.000249
0.000234
0.000496
0.000379
0.000307
0.000289
0.000284
0.000329
0.000775
0.000222
0.000255
0.000239
0.000253
0.000250
0.000265
0.000279
0.000259
0.000245
0.000261
0.000276
0.000394
0.000414
0.000347
0.000241
0.000274
0.000173
0.000055
0.000461
0.000276
0.000535
0.000191
0.000205
0.000251
0.000267
0.000234
0.000242
0.000217
0.000251
0.000285
0.000290
0.000370
0.000483
0.000579
0.000257
0.000290
0.000382
0.000346
0.000289
0.000251
0.000251
0.000260
0.001738
0.000257
0.001721
0.000965
0.000430
0.000276
0.000169
0.000056
0.000212
0.000240
0.000227
0.000251
0.000268
0.000238
0.000255
0.000252
0.000240
0.000267
0.000519
0.000314
0.000349
0.000372
0.000246
0.000268
0.000261
0.000271
0.000232
0.000247
0.000262
0.000253
0.001811
0.000238
0.000267
0.000252
0.000277
0.000264
0.001870
0.000566
0.000269
0.000056
0.000231
0.000213
0.000239
0.000241
0.000256
0.000250
0.000240
0.000251
0.000257
0.000352
0.000603
0.000283
0.000386
0.000232
0.000246
0.000273
0.000307
0.000426
0.000371
0.000254
0.001787
0.000259
0.000243
0.000252
0.000263
0.000269
0.000240
0.000258
0.000321
0.000313
0.000425
0.000057
0.000245
0.000215
0.000236
0.000271
0.000236
0.000241
0.000272
0.000243
0.000239
0.000256
0.000243
0.000274
0.000371
0.000424
0.000313
0.000283
0.000448
0.000252
0.000240
0.000262
0.000258
0.000262
0.000270
0.000257
0.000278
0.001776
0.000262
0.000244
0.000266
0.000247
0.000194
0.000055
0.000244
0.000382
0.000228
0.000234
0.000237
0.000242
0.000236
0.000256
0.000247
0.000224
0.000235
0.000264
0.000269
0.000360
0.000394
0.000379
0.000269
0.000243
0.000242
0.000254
0.000270
0.000276
0.000230
0.000270
0.000246
0.000267
0.000343
0.001587
0.000268
0.000251
0.000186
0.000077
0.000188
0.000238
0.000254
0.000255
0.000349
0.000481
0.000266
0.000324
0.000228
0.000252
0.000267
0.000228
0.000264
0.000240
0.000258
0.000260
0.000248
0.000255
0.000254
0.000260
0.000267
0.000269
0.000249
0.000236
0.000241
0.000279
0.000273
0.000269
0.000252
0.000281
0.000179
0.000056
0.000195
0.000233
0.000262
0.000274
0.000233
0.000234
0.000241
0.000258
0.000275
0.000246
0.000232
0.000249
0.000259
0.000265
0.000273
0.000238
0.000253
0.000250
0.000300
0.000250
0.000276
0.000319
0.000266
0.000231
0.000297
0.000251
0.000270
0.000253
0.000289
0.000351
0.000710
0.000057
0.000232
0.000275
0.000221
0.000238
0.000240
0.000249
0.000242
0.000249
0.000254
0.000242
0.000265
0.000314
0.000468
0.000520
0.001492
0.000221
0.000513
0.000246
0.000346
0.000340
0.000472
0.000348
0.000227
0.000287
0.000239
0.000263
0.000281
0.000256
0.000311
0.000285
0.000157
0.000056
0.000344
0.000445
0.000298
0.000328
0.000209
0.000279
0.000226
0.000239
0.000233
0.000245
0.000256
0.000254
0.000233
0.000381
0.000226
0.000516
0.000394
0.001785
0.000244
0.000250
0.000305
0.000447
0.000525
0.000224
0.000316
0.000326
0.000300
0.000232
0.000228
0.000255
0.000195
0.000057
0.000196
0.000228
0.000240
0.000285
0.000381
0.000461
0.000311
0.000256
0.000253
0.000210
0.000250
0.000274
0.000260
0.000266
0.000246
0.000261
0.000305
0.000483
0.000519
0.000254
0.000234
0.001738
0.000328
0.000501
0.000671
0.000302
0.000328
0.000227
0.000250
0.000271
0.000454
0.000055
0.000225
0.000273
0.000222
0.000374
0.000359
0.000571
0.000254
0.000204
0.000269
0.000284
0.000218
0.000262
0.000254
0.000291
0.000313
0.000238
0.000229
0.000354
0.000620
0.000226
0.000497
0.001830
0.000260
0.000593
0.000354
0.000351
0.000225
0.000264
0.000298
0.000262
0.000191
0.000055
0.000205
0.000337
0.000360
0.000343
0.000395
0.000326
0.000343
0.000196
0.000246
0.000259
0.000263
0.000230
0.000261
0.000243
0.000258
0.000256
0.000325
0.000363
0.000554
0.000338
0.000282
0.000246
0.000253
0.001708
0.000402
0.000517
0.000702
0.000236
0.000269
0.000306
0.000164
0.000055
0.000197
0.000234
0.000352
0.000232
0.000264
0.000418
0.000402
0.000275
0.000241
0.000540
0.000209
0.000256
0.000260
0.000277
0.000274
0.000266
0.000212
0.000427
0.000455
0.000381
0.000258
0.000232
0.000253
0.000253
0.000262
0.000270
0.000235
0.000252
0.000272
0.000283
0.000226
0.000056
0.000379
0.000276
0.000215
0.000258
0.000250
0.000257
0.000237
0.000298
0.000235
0.000249
0.000281
0.000332
0.000428
0.000403
0.000327
0.000288
0.000215
0.000240
0.000260
0.000268
0.000283
0.000266
0.000234
0.000255
0.000282
0.000282
0.000472
0.000374
0.000330
0.000244
0.000163
0.000056
0.000196
0.000227
0.000281
0.000247
0.000239
0.000265
0.000267
0.000228
0.000497
0.000212
0.000256
0.000263
0.000236
0.000264
0.000274
0.000298
0.000237
0.000351
0.000218
0.000245
0.000251
0.000268
0.000258
0.000267
0.000272
0.000277
0.000248
0.000256
0.000255
0.000500
0.000165
0.000055
0.000212
0.000237
0.000247
0.000295
0.000198
0.000246
0.000362
0.000405
0.000251
0.000222
0.000255
0.000254
0.000233
0.000242
0.000523
0.001718
0.000232
0.000293
0.000265
0.000326
0.000407
0.000366
0.000363
0.000422
0.000375
0.000388
0.000241
0.000276
0.000268
0.000274
0.001392
0.000055
0.000398
0.000314
0.000251
0.000217
0.000243
0.000251
0.000227
0.000255
0.000245
0.000274
0.000244
0.000260
0.000251
0.000315
0.000532
0.001613
0.000230
0.000238
0.000265
0.000252
0.000236
0.000281
0.000447
0.000309
0.000264
0.000360
0.000220
0.000281
0.000264
0.000269
0.000192
0.000056
0.001195
0.000631
0.000253
0.000248
0.000237
0.000228
0.000235
0.000236
0.000492
0.000215
0.000241
0.000248
0.000357
0.000471
0.000436
0.000333
0.000263
0.000223
0.000328
0.000366
0.000273
0.000252
0.000274
0.000261
0.000259
0.000510
0.000590
0.000273
0.000272
0.000263
0.000169
0.000058
0.000193
0.000221
0.000239
0.000256
0.001552
0.000220
0.000212
0.000257
0.000259
0.000229
0.000258
0.000250
0.000243
0.000261
0.000272
0.000371
0.000417
0.000625
0.000226
0.001736
0.000270
0.000271
0.000290
0.000524
0.000475
0.000396
0.000247
0.000256
0.000251
0.000275
0.000213
0.000057
0.000205
0.000244
0.000237
0.000322
0.001247
0.000234
0.000257
0.000257
0.000244
0.000235
0.000239
0.000253
0.000275
0.000249
0.000261
0.000265
0.000462
0.000504
0.000251
0.000263
0.000270
0.000269
0.000246
0.000233
0.000286
0.000264
0.000248
0.000274
0.000272
0.000389
0.000564
0.000056
0.000227
0.000249
0.000231
0.000264
0.000266
0.000237
0.000234
0.000269
0.000270
0.000274
0.001411
0.000220
0.000251
0.000245
0.000246
0.000244
0.000289
0.000251
0.000279
0.000242
0.000271
0.000505
0.000471
0.000356
0.000235
0.000271
0.001756
0.000264
0.000260
0.000443
0.000282
0.000057
0.000217
0.000382
0.000451
0.000504
0.000514
0.000535
0.001507
0.000411
0.000520
0.000653
0.000556
0.000726
0.000474
0.000611
0.000588
0.001891
0.000408
0.000437
0.000389
0.000324
0.000217
0.000272
0.000291
0.000259
0.000265
0.000288
0.000288
0.000288
0.000260
0.000286
0.001370
0.000056
0.000211
0.000229
0.000248
0.000241
0.000261
0.000254
0.000238
0.000240
0.000248
0.000252
0.000260
0.000226
0.000254
0.000255
0.000264
0.000267
0.001804
0.000257
0.000272
0.000234
0.000258
0.000270
0.000268
0.000259
0.000396
0.000470
0.000322
0.000228
0.000281
0.000271
0.000214
0.000057
0.000211
0.001370
0.000329
0.000277
0.000244
0.000240
0.000241
0.000234
0.000230
0.000247
0.000215
0.000242
0.000253
0.000510
0.000363
0.000301
0.000243
0.001814
0.000356
0.000230
0.000256
0.000262
0.000259
0.000268
0.000267
0.000283
0.000271
0.000255
0.000263
0.000317
0.000204
0.000055
0.000213
0.000242
0.000252
0.001440
0.000215
0.000248
0.000251
0.000251
0.000229
0.000275
0.000253
0.000240
0.000255
0.000277
0.000235
0.000269
0.000250
0.000262
0.000269
0.000258
0.000258
0.001769
0.000266
0.001766
0.000263
0.000261
0.000255
0.000274
0.000276
0.000268
0.000201
0.000055
0.000207
0.000261
0.001324
0.000232
0.000243
0.000252
0.000259
0.000254
0.000243
0.000254
0.000253
0.000239
0.000263
0.000261
0.000280
0.000242
0.000256
0.000287
0.000292
0.000234
0.001874
0.000246
0.001820
0.000240
0.000264
0.000280
0.000222
0.000257
0.000250
0.000264
0.000206
0.000056
0.001443
0.000209
0.000237
0.000249
0.000238
0.000234
0.000374
0.000281
0.000237
0.000253
0.000261
0.000252
0.000246
0.000409
0.000348
0.000274
0.000244
0.000273
0.000267
0.000250
0.000267
0.000342
0.000230
0.000246
0.000272
0.000281
0.000272
0.000368
0.000600
0.000367
0.000193
0.000056
0.000233
0.000239
0.000261
0.000300
0.000372
0.000269
0.001670
0.000308
0.000287
0.000269
0.000250
0.000269
0.000266
0.000267
0.000293
0.000314
0.000363
0.000627
0.000308
0.000258
0.000290
0.000284
0.000268
0.000254
0.000340
0.000258
0.000267
0.000262
0.000253
0.000326
0.000457
0.000057
0.000232
0.000466
0.000268
0.000265
0.000245
0.000228
0.000222
0.000251
0.000262
0.000271
0.001498
0.000210
0.000238
0.000251
0.000245
0.000292
0.000272
0.000247
0.000254
0.000268
0.000285
0.000361
0.000508
0.000340
0.000275
0.000271
0.000272
0.000257
0.000231
0.000317
0.000169
0.000056
0.000190
0.000235
0.000308
0.000475
0.000326
0.000276
0.000227
0.000247
0.000258
0.000247
0.000232
0.000254
0.000256
0.000269
0.000244
0.000240
0.000552
0.001047
0.000244
0.000263
0.000266
0.000246
0.000348
0.000422
0.000262
0.000299
0.000641
0.000310
0.000383
0.000229
0.000186
0.000055
0.000231
0.000251
0.000258
0.000262
0.000256
0.000244
0.000329
0.000435
0.000421
0.000285
0.000348
0.000393
0.000392
0.000365
0.000280
0.000224
0.000238
0.000285
0.000454
0.000378
0.001263
0.000225
0.000277
0.000273
0.000240
0.000232
0.000267
0.000318
0.000404
0.000495
0.000205
0.000056
0.000192
0.000242
0.000264
0.000237
0.000240
0.000244
0.000239
0.000263
0.000302
0.000406
0.000353
0.000385
0.000263
0.000224
0.000249
0.000271
0.000236
0.000262
0.000266
0.000270
0.000419
0.000245
0.000380
0.000534
0.000211
0.000246
0.000274
0.000267
0.000250
0.000333
0.000164
0.000055
0.000310
0.000311
0.000357
0.000306
0.000486
0.000356
0.000238
0.000241
0.000247
0.000269
0.000264
0.000255
0.000238
0.000255
0.000242
0.000225
0.000275
0.000361
0.000456
0.000374
0.000227
0.000288
0.000234
0.000250
0.000265
0.000283
0.000262
0.000279
0.000263
0.000271
0.000309
0.000055
0.000313
0.000327
0.000241
0.000272
0.000218
0.000246
0.000248
0.000251
0.000264
0.000256
0.000253
0.000235
0.000301
0.000460
0.000459
0.000286
0.000236
0.000258
0.000251
0.000264
0.000257
0.000260
0.000262
0.000269
0.000312
0.000260
0.000462
0.000556
0.000405
0.000254
0.000170
0.000056
0.000387
0.000190
0.000223
0.000243
0.000252
0.000246
0.000240
0.000247
0.000260
0.000257
0.000226
0.000241
0.000266
0.000230
0.000244
0.000264
0.000254
0.000263
0.000295
0.000243
0.000261
0.000257
0.000260
0.000266
0.000268
0.000238
0.000268
0.000287
0.000243
0.000284
0.000190
0.000056
0.000206
0.000225
0.000242
0.000255
0.000223
0.000260
0.000260
0.000244
0.000260
0.000264
0.000238
0.000232
0.000265
0.000392
0.000254
0.000296
0.000245
0.000266
0.000255
0.000280
0.000273
0.000231
0.000249
0.000248
0.000273
0.000276
0.000254
0.000252
0.000267
0.000261
0.000207
0.000056
0.000192
0.000353
0.000370
0.000283
0.000291
0.000257
0.000275
0.000256
0.000220
0.000252
0.000297
0.000212
0.000255
0.000235
0.000260
0.000293
0.000225
0.000269
0.000243
0.000261
0.000277
0.000267
0.000279
0.000253
0.000292
0.000233
0.000256
0.000273
0.000267
0.000262
0.000198
0.000056
0.000201
0.000235
0.000263
0.000262
0.000251
0.000439
0.000220
0.000271
0.000338
0.000378
0.000470
0.000299
0.000219
0.000252
0.000279
0.000257
0.000233
0.000275
0.000254
0.000271
0.000279
0.000245
0.000259
0.000325
0.000518
0.000470
0.000265
0.000302
0.000259
0.000265
0.000190
0.000056
0.000219
0.000224
0.000245
0.000253
0.000442
0.000518
0.000320
0.000385
0.000207
0.000253
0.000245
0.000257
0.000254
0.000246
0.000258
0.000274
0.000268
0.000341
0.000609
0.000339
0.000268
0.000245
0.000257
0.000284
0.000281
0.000255
0.000265
0.000282
0.000236
0.000319
0.000307
0.000057
0.000272
0.000231
0.000234
0.000241
0.000257
0.000266
0.000211
0.000252
0.000242
0.000256
0.000249
0.000255
0.000273
0.000463
0.000519
0.000338
0.000242
0.000258
0.000260
0.000243
0.000269
0.000290
0.000479
0.000215
0.000258
0.000618
0.000370
0.000516
0.000250
0.000253
0.000185
0.000055
0.000203
0.000229
0.000243
0.000243
0.000256
0.000259
0.000345
0.000679
0.000300
0.000438
0.000203
0.000258
0.000273
0.000279
0.000252
0.000249
0.000232
0.000254
0.000258
0.000326
0.000417
0.000643
0.000363
0.000259
0.000344
0.000379
0.000496
0.000241
0.000264
0.000352
0.000417
0.000057
0.000256
0.000232
0.000438
0.000223
0.000234
0.000250
0.000282
0.000240
0.000230
0.000241
0.000263
0.000412
0.000352
0.000370
0.000203
0.000253
0.000265
0.000247
0.000266
0.000276
0.000273
0.000255
0.000247
0.000275
0.000320
0.000511
0.000448
0.000236
0.000269
0.000264
0.000196
0.000056
0.000235
0.000249
0.000227
0.000243
0.000247
0.000339
0.000340
0.000408
0.000374
0.000261
0.000377
0.000219
0.000260
0.000265
0.000259
0.000234
0.000263
0.000254
0.000326
0.000379
0.000457
0.000338
0.000476
0.000268
0.000376
0.000423
0.000382
0.000247
0.000263
0.000291
0.000395
0.000056
0.000227
0.000268
0.000224
0.000257
0.000257
0.000256
0.000247
0.000254
0.000268
0.000242
0.000237
0.000331
0.000469
0.000403
0.000349
0.000227
0.000273
0.000257
0.000265
0.000237
0.000255
0.000249
0.000271
0.000270
0.000279
0.000327
0.000499
0.000467
0.000239
0.000280
0.000191
0.000056
0.000213
0.000239
0.000279
0.000246
0.000241
0.000463
0.000486
0.000355
0.000367
0.000691
0.000260
0.000215
0.000249
0.000256
0.000245
0.000267
0.000292
0.000259
0.000470
0.000447
0.001492
0.000311
0.000262
0.000286
0.000273
0.000255
0.000460
0.000384
0.000348
0.000271
0.000188
0.000056
0.000197
0.000245
0.000238
0.000266
0.000230
0.000248
0.000302
0.000227
0.000246
0.000318
0.000331
0.000380
0.000270
0.000337
0.000394
0.000345
0.000245
0.000258
0.000267
0.000255
0.000245
0.000250
0.000313
0.000216
0.000322
0.000439
0.000434
0.000276
0.000256
0.000279
0.000183
0.000056
0.000234
0.000243
0.000258
0.000254
0.000242
0.000238
0.000471
0.000236
0.000212
0.000255
0.000247
0.000250
0.000260
0.000249
0.000258
0.000268
0.000259
0.000291
0.000248
0.000253
0.000283
0.000265
0.000293
0.000248
0.000263
0.000278
0.000270
0.000264
0.000261
0.000274
0.000175
0.000057
0.000234
0.000241
0.000316
0.000419
0.000360
0.000261
0.000233
0.000244
0.000264
0.000245
0.000248
0.000255
0.000263
0.000261
0.000238
0.000251
0.000261
0.000248
0.000322
0.000334
0.000359
0.000444
0.000229
0.000270
0.000262
0.000251
0.000264
0.000258
0.000273
0.000298
0.000176
0.000056
0.000340
0.000481
0.000342
0.000206
0.000251
0.000257
0.000418
0.000213
0.000232
0.000255
0.000258
0.000281
0.000352
0.000443
0.001865
0.000254
0.000242
0.000253
0.000280
0.000238
0.000379
0.000366
0.000626
0.000318
0.000240
0.000261
0.000272
0.000429
0.000274
0.000281
0.000165
0.000056
0.000240
0.000365
0.000397
0.000266
0.000495
0.000200
0.000240
0.000260
0.000247
0.000236
0.000260
0.000247
0.000262
0.000307
0.000540
0.000349
0.000234
0.000259
0.000244
0.000262
0.000259
0.000319
0.000234
0.000277
0.000278
0.000441
0.000531
0.000610
0.000231
0.000241
0.000200
0.000056
0.000188
0.000229
0.000257
0.000232
0.000250
0.000251
0.000265
0.000295
0.000323
0.000349
0.000460
0.000359
0.000205
0.000252
0.000264
0.000288
0.000300
0.000237
0.000273
0.000271
0.000238
0.000269
0.000514
0.000363
0.000289
0.000276
0.000242
0.000440
0.000412
0.000300
0.000188
0.000055
0.000212
0.000228
0.000323
0.000472
0.000348
0.000203
0.000237
0.000254
0.000265
0.000264
0.000250
0.000257
0.000224
0.000260
0.000259
0.000276
0.000443
0.000337
0.000289
0.000349
0.000491
0.000220
0.000281
0.000273
0.000304
0.000285
0.000253
0.000265
0.000470
0.000502
0.000211
0.000056
0.000201
0.000252
0.000229
0.000249
0.000285
0.000445
0.000208
0.000254
0.000262
0.000284
0.000569
0.000552
0.000212
0.000244
0.000246
0.000248
0.000250
0.000276
0.000236
0.000249
0.000289
0.000242
0.000389
0.000378
0.000387
0.000380
0.000299
0.000322
0.000298
0.000258
0.000183
0.000056
0.000213
0.000234
0.000262
0.000468
0.000333
0.000290
0.000259
0.000229
0.000250
0.000252
0.000254
0.000258
0.000268
0.000236
0.000252
0.000260
0.000246
0.000245
0.000257
0.000404
0.000445
0.000450
0.000227
0.000250
0.000275
0.000276
0.000261
0.000258
0.000263
0.000265
0.000198
0.000056
0.000289
0.000355
0.000479
0.000243
0.000241
0.000229
0.000313
0.000457
0.000284
0.000224
0.000236
0.000278
0.000252
0.000499
0.000429
0.000241
0.000242
0.000242
0.000242
0.000268
0.000271
0.000264
0.000259
0.000277
0.000261
0.000284
0.000396
0.000451
0.000280
0.000249
0.000188
0.000057
0.000193
0.000239
0.000245
0.000258
0.000253
0.000262
0.000227
0.000274
0.000250
0.000236
0.000267
0.000235
0.000292
0.001436
0.000217
0.000253
0.000262
0.000248
0.000273
0.000276
0.000263
0.000237
0.000276
0.000248
0.000270
0.000283
0.000258
0.000285
0.000246
0.000267
0.000193
0.000056
0.000215
0.000229
0.000253
0.000266
0.000221
0.000257
0.000249
0.000254
0.000226
0.000249
0.000251
0.000260
0.000261
0.000248
0.000253
0.000260
0.000251
0.000257
0.000276
0.000253
0.000253
0.000262
0.000244
0.000251
0.001300
0.000282
0.000602
0.000397
0.000337
0.000237
0.000193
0.000056
0.000215
0.000229
0.000241
0.000270
0.000426
0.000206
0.000248
0.000236
0.000256
0.000361
0.000449
0.000351
0.000221
0.000230
0.000266
0.000259
0.000258
0.000264
0.000243
0.000262
0.000257
0.000253
0.000264
0.000424
0.000514
0.000444
0.000227
0.000264
0.001370
0.000247
0.000183
0.000056
0.000343
0.000422
0.000322
0.000283
0.000218
0.000221
0.000229
0.000253
0.000257
0.000258
0.000267
0.000241
0.000298
0.000337
0.000502
0.000351
0.000337
0.000219
0.000248
0.000256
0.000269
0.000284
0.000271
0.000240
0.000273
0.000262
0.000382
0.000555
0.000326
0.000356
0.000148
0.000056
0.000209
0.000238
0.001264
0.000429
0.000324
0.000474
0.000363
0.000463
0.000257
0.000344
0.000224
0.000230
0.000267
0.000253
0.000259
0.000261
0.000454
0.000380
0.000391
0.000372
0.000265
0.000239
0.000267
0.000498
0.000230
0.000266
0.000274
0.000263
0.000307
0.000542
0.000289
0.000056
0.000374
0.000312
0.000231
0.000239
0.001553
0.000458
0.000310
0.000244
0.000252
0.000252
0.000225
0.000244
0.000245
0.000271
0.000254
0.000263
0.000228
0.000277
0.000417
0.000382
0.000431
0.000251
0.000257
0.000256
0.000262
0.000294
0.000246
0.000239
0.000268
0.000278
0.000194
0.000056
0.000391
0.000339
0.000217
0.000237
0.000253
0.000249
0.000255
0.000236
0.000241
0.000224
0.001403
0.000458
0.000285
0.000240
0.000242
0.000257
0.000270
0.000266
0.000237
0.000301
0.000238
0.000258
0.000262
0.000417
0.000375
0.000492
0.000237
0.000271
0.000275
0.000280
0.000171
0.000056
0.000213
0.000417
0.000217
0.000253
0.000345
0.000471
0.000330
0.000313
0.000464
0.000206
0.000229
0.000256
0.000262
0.000264
0.000256
0.001407
0.000366
0.000286
0.000244
0.000266
0.000304
0.000231
0.000251
0.000252
0.000262
0.000267
0.000488
0.000412
0.000289
0.000271
0.000159
0.000056
0.000186
0.000236
0.000256
0.000238
0.000229
0.000259
0.000243
0.000244
0.000355
0.000287
0.000398
0.000338
0.000240
0.000259
0.000243
0.000277
0.000275
0.000259
0.000264
0.000231
0.000254
0.000398
0.001170
0.000243
0.000258
0.000263
0.000258
0.000268
0.000257
0.000264
0.000188
0.000056
0.000217
0.000358
0.000360
0.000362
0.000251
0.000237
0.000260
0.000285
0.000238
0.000262
0.000240
0.000268
0.000236
0.000257
0.000256
0.000266
0.000265
0.000270
0.000265
0.000266
0.000231
0.000269
0.000270
0.000281
0.000285
0.000271
0.000266
0.000259
0.000258
0.000460
0.001352
0.000057
0.000217
0.000249
0.000222
0.000264
0.000234
0.000260
0.000242
0.000224
0.000249
0.000250
0.000274
0.000259
0.000248
0.000241
0.000278
0.000220
0.001728
0.000256
0.000243
0.000260
0.000249
0.000257
0.000274
0.000280
0.000276
0.000235
0.000261
0.000283
0.000266
0.000251
0.000221
0.000056
0.000304
0.000291
0.001335
0.000224
0.000224
0.000246
0.000259
0.000251
0.000273
0.000240
0.000231
0.000336
0.000443
0.000403
0.000274
0.000228
0.000254
0.000257
0.000257
0.000267
0.000243
0.000280
0.000256
0.000283
0.000259
0.000429
0.000337
0.000382
0.000293
0.000264
0.000172
0.000056
0.000188
0.000246
0.000246
0.000252
0.000271
0.000198
0.000243
0.000285
0.000383
0.001354
0.000250
0.000215
0.000251
0.000271
0.000259
0.000290
0.000234
0.000254
0.000294
0.000463
0.000321
0.000281
0.000254
0.000245
0.000274
0.000278
0.000271
0.000292
0.000266
0.000281
0.000190
0.000057
0.000260
0.000442
0.000364
0.000223
0.000230
0.000231
0.000250
0.000273
0.000267
0.000243
0.000234
0.000251
0.000449
0.000495
0.000473
0.001466
0.000242
0.000259
0.000328
0.000352
0.000475
0.000435
0.000470
0.000384
0.000243
0.000266
0.000265
0.000277
0.000266
0.000275
0.000189
0.000057
0.000210
0.000287
0.000419
0.000460
0.000369
0.000238
0.000255
0.000235
0.000240
0.000271
0.000236
0.000266
0.000282
0.000223
0.000266
0.000284
0.000392
0.000438
0.000335
0.001324
0.000270
0.000254
0.000262
0.000258
0.000450
0.000470
0.000391
0.000219
0.000278
0.000285
0.000176
0.000057
0.000183
0.000240
0.000246
0.000261
0.000229
0.000277
0.000447
0.000440
0.000334
0.000203
0.000244
0.000259
0.000273
0.000303
0.000227
0.000251
0.000267
0.000262
0.000272
0.000300
0.000455
0.000408
0.000310
0.001355
0.000408
0.000231
0.000274
0.000446
0.000443
0.000320
0.000306
0.000057
0.000206
0.000235
0.000244
0.000245
0.000255
0.000251
0.001677
0.000260
0.000204
0.000241
0.000254
0.000244
0.000255
0.000323
0.000327
0.000286
0.000278
0.000282
0.000501
0.000419
0.000309
0.000283
0.000235
0.000254
0.001492
0.000418
0.000338
0.000449
0.000336
0.000304
0.000172
0.000057
0.000203
0.000247
0.000254
0.000260
0.000246
0.000260
0.001701
0.000223
0.000256
0.000259
0.000326
0.000401
0.001446
0.000369
0.000397
0.000242
0.000252
0.000237
0.000267
0.000275
0.001530
0.000544
0.000424
0.000291
0.000236
0.000252
0.000262
0.000284
0.000238
0.000257
0.000193
0.000056
0.000214
0.000225
0.000265
0.000253
0.000259
0.000276
0.000276
0.000251
0.000258
0.000247
0.000258
0.000245
0.000289
0.000240
0.000256
0.001486
0.000279
0.000240
0.000267
0.000279
0.000270
0.000256
0.001442
0.000330
0.000199
0.000247
0.000268
0.000253
0.000402
0.000240
0.000203
0.000056
0.000210
0.000251
0.000223
0.000241
0.000241
0.000252
0.000212
0.001685
0.000257
0.000233
0.000353
0.000269
0.000226
0.000224
0.000253
0.001417
0.000209
0.000262
0.000267
0.000245
0.000267
0.000339
0.000296
0.001304
0.000273
0.000248
0.000252
0.001395
0.000325
0.000219
0.000222
0.000058
0.000251
0.000349
0.000204
0.000239
0.000265
0.000229
0.000287
0.000250
0.000261
0.000243
0.000260
0.000269
0.000249
0.000240
0.001587
0.000262
0.000215
0.000269
0.000255
0.000241
0.000284
0.000260
0.000254
0.001509
0.000354
0.000234
0.000280
0.001257
0.000273
0.000241
0.000198
0.000058
0.000214
0.000412
0.000328
0.000214
0.000230
0.000246
0.000264
0.000248
0.000270
0.000276
0.000238
0.000246
0.000261
0.000257
0.000439
0.001247
0.000202
0.000245
0.000269
0.000275
0.000224
0.000250
0.000246
0.000330
0.001292
0.000234
0.000254
0.000250
0.000255
0.001342
0.000286
0.000056
0.000268
0.000285
0.000221
0.000233
0.000245
0.000252
0.000244
0.000246
0.000299
0.000231
0.000252
0.000240
0.000247
0.000365
0.000375
0.001475
0.000220
0.000255
0.000298
0.000523
0.000266
0.000390
0.001359
0.000306
0.000234
0.000264
0.000258
0.001297
0.000252
0.000535
0.000388
0.000057
0.000219
0.000247
0.000255
0.000257
0.000256
0.000250
0.000273
0.000265
0.000245
0.000265
0.000279
0.000512
0.001318
0.000231
0.000279
0.000267
0.000276
0.000239
0.000232
0.000236
0.000416
0.001171
0.000254
0.000242
0.000261
0.000246
0.001551
0.000380
0.000495
0.000231
0.000173
0.000056
0.000207
0.000235
0.000247
0.000238
0.000254
0.000261
0.000236
0.000279
0.000450
0.000457
0.000262
0.001484
0.000213
0.000246
0.000267
0.000253
0.000259
0.000418
0.001577
0.000234
0.000382
0.000342
0.001290
0.000349
0.000324
0.000345
0.000231
0.000266
0.000261
0.000265
0.000192
0.000057
0.000186
0.000236
0.000329
0.000241
0.000427
0.000476
0.000243
0.000299
0.001465
0.000235
0.000383
0.000270
0.000222
0.000391
0.000353
0.001269
0.000263
0.000250
0.000238
0.000257
0.001518
0.000384
0.000276
0.000274
0.000293
0.000235
0.000454
0.000328
0.000253
0.000232
0.000266
0.000055
0.000270
0.000335
0.000358
0.000233
0.000224
0.001517
0.000220
0.000263
0.000266
0.000271
0.000267
0.000240
0.000350
0.001447
0.000246
0.000231
0.000433
0.001184
0.000359
0.000458
0.000376
0.000230
0.000243
0.000255
0.000295
0.000222
0.000457
0.000229
0.000261
0.000280
0.000193
0.000057
0.000187
0.000237
0.000384
0.000343
0.001316
0.000286
0.000335
0.000220
0.000229
0.000246
0.000249
0.000279
0.001534
0.000297
0.000187
0.000253
0.001375
0.000317
0.000438
0.000343
0.000423
0.000233
0.000260
0.000246
0.000268
0.000275
0.000269
0.000260
0.000269
0.000250
0.000195
0.000055
0.000215
0.000420
0.001438
0.000215
0.000270
0.000305
0.000216
0.000244
0.000282
0.000359
0.001404
0.000213
0.000255
0.000253
0.000268
0.001268
0.000724
0.000253
0.000335
0.000393
0.000308
0.000242
0.000275
0.000261
0.000267
0.000290
0.000271
0.000307
0.000429
0.000425
0.001380
0.000057
0.000207
0.000245
0.000243
0.000226
0.000250
0.000392
0.000497
0.001298
0.000243
0.000240
0.000251
0.001482
0.000426
0.000287
0.000229
0.000421
0.000235
0.000236
0.000270
0.000296
0.000247
0.000251
0.000282
0.000253
0.000254
0.000266
0.000457
0.000477
0.001495
0.000233
0.000192
0.000057
0.000208
0.000251
0.000357
0.000484
0.001287
0.000303
0.000232
0.000254
0.000248
0.000255
0.000248
0.000277
0.000358
0.000543
0.000273
0.000246
0.000269
0.000253
0.000244
0.000303
0.000239
0.000260
0.000257
0.000267
0.000258
0.000314
0.000568
0.000318
0.000329
0.001401
0.000185
0.000057
0.000214
0.000243
0.000276
0.000501
0.000325
0.000273
0.000316
0.000351
0.000276
0.000257
0.000238
0.000263
0.000247
0.000309
0.000235
0.000297
0.000587
0.000358
0.000217
0.000384
0.000288
0.000393
0.000224
0.000258
0.000252
0.000262
0.000253
0.000291
0.000408
0.000464
0.000274
0.000056
0.000213
0.001397
0.000218
0.000343
0.000402
0.000381
0.000543
0.000206
0.000204
0.000252
0.000268
0.000248
0.000272
0.000257
0.000262
0.000253
0.000261
0.001382
0.000240
0.000246
0.000257
0.000273
0.000275
0.000278
0.000266
0.000255
0.000276
0.000247
0.000330
0.000402
0.000351
0.000056
0.000205
0.000242
0.000235
0.001502
0.000317
0.000243
0.000235
0.000247
0.000227
0.000244
0.000258
0.000283
0.000240
0.000252
0.000295
0.000229
0.000245
0.000264
0.000269
0.000248
0.001426
0.000228
0.000258
0.000274
0.000257
0.000268
0.000247
0.000264
0.000274
0.000490
0.000349
0.000055
0.000202
0.000237
0.000394
0.000287
0.000243
0.000256
0.001524
0.000362
0.000280
0.000222
0.000260
0.000315
0.000333
0.000229
0.000227
0.000254
0.000240
0.000264
0.000258
0.000259
0.000499
0.000489
0.001117
0.000271
0.000239
0.000264
0.000264
0.000287
0.000277
0.000229
0.000280
0.000056
0.000430
0.000201
0.000204
0.000248
0.000241
0.000246
0.000240
0.000228
0.000286
0.001596
0.000451
0.000221
0.000234
0.000256
0.000257
0.000241
0.000261
0.000278
0.000257
0.000313
0.000305
0.000481
0.000454
0.001370
0.000234
0.000273
0.000259
0.000261
0.000270
0.000290
0.000485
0.000056
0.000229
0.000258
0.000229
0.000232
0.000222
0.000244
0.000261
0.000278
0.000257
0.001600
0.000330
0.000257
0.000238
0.000262
0.000464
0.000248
0.000542
0.000374
0.000282
0.000263
0.000483
0.000496
0.001276
0.000259
0.000237
0.000257
0.001919
0.000247
0.000605
0.000323
0.000145
0.000056
0.000207
0.000223
0.000241
0.000235
0.000259
0.000240
0.000247
0.000501
0.000495
0.000425
0.000285
0.000222
0.000238
0.000264
0.000279
0.000272
0.000231
0.000244
0.000255
0.000285
0.000272
0.000384
0.001363
0.000226
0.000253
0.000274
0.001888
0.000386
0.000448
0.000292
0.000147
0.000057
0.000214
0.000246
0.000243
0.001619
0.000372
0.000215
0.000238
0.000272
0.000243
0.000268
0.000375
0.000371
0.000372
0.000274
0.000284
0.000530
0.000448
0.001145
0.000267
0.000251
0.000248
0.000267
0.000280
0.000396
0.000698
0.000376
0.000252
0.000271
0.000265
0.000280
0.000191
0.000056
0.000203
0.000232
0.000244
0.001534
0.000267
0.000221
0.000244
0.000254
0.000248
0.000242
0.000261
0.000269
0.000281
0.000260
0.000247
0.000473
0.000435
0.000248
0.001390
0.000235
0.000262
0.000256
0.000264
0.000295
0.000342
0.000498
0.000432
0.000255
0.000289
0.000236
0.000451
0.000056
0.000211
0.000237
0.000274
0.001527
0.000292
0.000226
0.000265
0.000240
0.000252
0.000263
0.000250
0.000275
0.000241
0.000278
0.000416
0.000442
0.001403
0.000761
0.000262
0.000335
0.000241
0.000243
0.000258
0.000263
0.001669
0.000811
0.000231
0.000265
0.000279
0.000287
0.000192
0.000057
0.000206
0.000236
0.000245
0.000246
0.000267
0.000264
0.000212
0.000257
0.000238
0.000235
0.000290
0.000285
0.000251
0.000250
0.000271
0.000235
0.000271
0.001591
0.000712
0.000346
0.000347
0.000234
0.000253
0.000302
0.000246
0.000268
0.000253
0.000260
0.001434
0.000346
0.000311
0.000056
0.000187
0.000229
0.000272
0.000229
0.000262
0.000226
0.000280
0.000230
0.000252
0.000261
0.000268
0.000420
0.000449
0.000329
0.000220
0.000241
0.000266
0.001391
0.000687
0.000473
0.000333
0.000279
0.000246
0.000231
0.000277
0.000256
0.000255
0.000279
0.001457
0.000405
0.000226
0.000055
0.000201
0.000235
0.000241
0.000248
0.000250
0.000251
0.000233
0.000251
0.000274
0.000258
0.000372
0.000440
0.000262
0.000226
0.000246
0.000258
0.000252
0.000249
0.001572
0.000642
0.000490
0.000273
0.000237
0.000278
0.000239
0.000266
0.000263
0.000289
0.000258
0.001341
0.000342
0.000056
0.000213
0.000223
0.000250
0.000237
0.000259
0.000240
0.000254
0.000296
0.000363
0.000446
0.000389
0.000353
0.000371
0.000222
0.000248
0.000252
0.000297
0.000239
0.000265
0.001927
0.000337
0.000217
0.000460
0.000232
0.000250
0.000267
0.000268
0.000260
0.000272
0.000272
0.000310
0.000056
0.000267
0.000236
0.000242
0.000242
0.000281
0.000224
0.000230
0.000237
0.000269
0.000292
0.000204
0.000233
0.000267
0.000501
0.000483
0.000383
0.000231
0.000263
0.000253
0.000251
0.000256
0.000273
0.001518
0.001021
0.000216
0.000253
0.000271
0.000288
0.000244
0.000258
0.000203
0.000056
0.000195
0.001414
0.000208
0.000222
0.000233
0.000253
0.000249
0.000239
0.000239
0.000262
0.000254
0.000255
0.000240
0.000513
0.000252
0.000502
0.000224
0.000239
0.000268
0.000276
0.000266
0.000224
0.000261
0.000262
0.001410
0.000599
0.000297
0.000382
0.000376
0.000405
0.000293
0.000056
0.000197
0.000235
0.000353
0.001321
0.000209
0.000255
0.000236
0.000260
0.000263
0.000247
0.000254
0.000248
0.000262
0.000338
0.000577
0.000311
0.000224
0.000280
0.000329
0.000213
0.000254
0.000268
0.000239
0.000270
0.000288
0.001509
0.000747
0.000320
0.000257
0.000274
0.000201
0.000057
0.000225
0.000257
0.000458
0.000327
0.001291
0.000246
0.000232
0.000243
0.000233
0.000258
0.000238
0.000256
0.000232
0.000252
0.000245
0.000253
0.000270
0.000229
0.000260
0.000254
0.000268
0.000271
0.000303
0.000328
0.000219
0.000267
0.000269
0.001449
0.000270
0.000240
0.000180
0.000056
0.000199
0.000229
0.000254
0.000253
0.000354
0.000372
0.000399
0.000278
0.001578
0.000233
0.000304
0.000538
0.000313
0.000216
0.000439
0.000239
0.000233
0.000256
0.000278
0.000271
0.000276
0.000266
0.000258
0.000268
0.000265
0.000401
0.000385
0.000355
0.001557
0.000236
0.000190
0.000056
0.000193
0.000244
0.000239
0.000252
0.000237
0.000245
0.000263
0.000315
0.000407
0.002033
0.000220
0.000256
0.000256
0.000257
0.000263
0.000296
0.000223
0.000261
0.000260
0.000450
0.000391
0.000406
0.001443
0.000253
0.000276
0.001982
0.000277
0.000246
0.000258
0.001522
0.000163
0.000055
0.000333
0.000457
0.000430
0.000243
0.000279
0.000208
0.000261
0.000267
0.000262
0.000228
0.000254
0.000336
0.000407
0.000356
0.000458
0.000204
0.000241
0.001559
0.000246
0.000590
0.001850
0.000303
0.000239
0.001511
0.002056
0.000734
0.000275
0.000259
0.000275
0.000534
0.000284
0.000056
0.000207
0.000234
0.000282
0.000221
0.002854
0.000292
0.001085
0.000202
0.000237
0.001592
0.001964
0.000211
0.000240
0.000419
0.000362
0.000300
0.000402
0.000502
0.000211
0.000241
0.000264
0.000240
0.000273
0.001592
0.001209
0.001424
0.000291
0.000289
0.000249
0.000283
0.000364
0.000057
0.000236
0.000220
0.000237
0.000244
0.000226
0.000248
0.000246
0.000259
0.000256
0.000240
0.000241
0.000343
0.000413
0.000531
0.000230
0.000240
0.000246
0.000272
0.000269
0.000279
0.000241
0.000264
0.001614
0.000376
0.002118
0.000243
0.000248
0.000346
0.000422
0.000393
0.000190
0.000056
0.000220
0.000333
0.000488
0.000315
0.000202
0.000224
0.000259
0.000238
0.000246
0.000241
0.000263
0.000248
0.000261
0.001603
0.001345
0.001239
0.000274
0.000232
0.000249
0.000275
0.000278
0.000278
0.000245
0.000253
0.002210
0.000251
0.000248
0.000299
0.000319
0.000306
0.000225
0.000056
0.000236
0.000368
0.000525
0.000338
0.000233
0.000229
0.000254
0.000263
0.001893
0.001428
0.000213
0.000328
0.000384
0.000410
0.000266
0.000228
0.000261
0.000266
0.000262
0.000266
0.000260
0.000267
0.000468
0.000239
0.000267
0.000265
0.000255
0.000274
0.000276
0.000249
0.000204
0.000055
0.000203
0.000243
0.000253
0.000242
0.000273
0.000251
0.001529
0.001422
0.001330
0.000235
0.000239
0.000241
0.000267
0.000262
0.000247
0.000247
0.000243
0.002106
0.000254
0.000237
0.000265
0.000261
0.000260
0.000263
0.000265
0.000261
0.000268
0.000256
0.000275
0.000268
0.000162
0.000056
0.000200
0.002675
0.001407
0.000218
0.000302
0.000322
0.000214
0.000288
0.000230
0.000241
0.000255
0.000248
0.000228
0.000252
0.000268
0.000262
0.000266
0.000260
0.000291
0.000231
0.000271
0.000281
0.000274
0.000262
0.000247
0.000247
0.000263
0.000272
0.000259
0.000268
0.000370
0.000056
0.001534
0.000254
0.001234
0.000231
0.000227
0.000237
0.000264
0.000273
0.000226
0.000279
0.000421
0.000319
0.000343
0.000214
0.000251
0.002148
0.000231
0.000254
0.000267
0.000543
0.000388
0.000238
0.000234
0.000260
0.000269
0.000244
0.000269
0.000275
0.000274
0.001633
0.001236
0.000058
0.000184
0.000235
0.000344
0.000339
0.000366
0.000277
0.000217
0.000233
0.000254
0.000259
0.000266
0.000253
0.000218
0.000258
0.000261
0.000245
0.000288
0.000698
0.000364
0.000198
0.000216
0.000274
0.000288
0.000246
0.000252
0.000251
0.000265
0.000274
0.000245
0.000413
0.000306
0.000056
0.001123
0.000248
0.000319
0.000443
0.000306
0.000230
0.000226
0.000242
0.000248
0.002291
0.000373
0.000382
0.000234
0.000376
0.000302
0.000255
0.000243
0.000268
0.000254
0.000223
0.000257
0.000280
0.000574
0.000520
0.001844
0.001395
0.000539
0.000420
0.000232
0.000283
0.000195
0.000058
0.000316
0.000269
0.000244
0.000250
0.000254
0.000219
0.000255
0.000252
0.000256
0.000252
0.000251
0.000233
0.000242
0.000277
0.000418
0.000461
0.001830
0.001321
0.000521
0.000376
0.000456
0.000240
0.000242
0.000258
0.002149
0.000531
0.000383
0.000245
0.000270
0.000294
0.000185
0.000056
0.000198
0.000251
0.000244
0.000253
0.000237
0.000372
0.000380
0.000372
0.000257
0.000221
0.000243
0.000251
0.000268
0.002158
0.000330
0.000368
0.000220
0.000256
0.000282
0.000241
0.000251
0.002449
0.000336
0.000232
0.000255
0.000253
0.000258
0.000270
0.000304
0.000257
0.000194
0.000056
0.000206
0.000325
0.000570
0.000347
0.000259
0.000221
0.000235
0.000254
0.000271
0.000243
0.001961
0.000382
0.000267
0.000271
0.000249
0.000266
0.000271
0.000242
0.002201
0.000449
0.000230
0.000268
0.000265
0.000264
0.000246
0.000256
0.000303
0.000231
0.000270
0.000270
0.000175
0.000056
0.000196
0.000245
0.000245
0.000223
0.000246
0.000258
0.000238
0.000243
0.000234
0.002184
0.000224
0.000275
0.000227
0.000427
0.000230
0.000251
0.000301
0.000263
0.000253
0.000251
0.001966
0.000275
0.000330
0.000360
0.000435
0.000410
0.000309
0.000275
0.000236
0.000264
0.000197
0.000056
0.000208
0.000240
0.000236
0.000252
0.000304
0.000264
0.000224
0.002311
0.000241
0.000230
0.000262
0.000253
0.000234
0.000281
0.000278
0.002123
0.000585
0.000221
0.000259
0.000244
0.000275
0.000246
0.000292
0.000267
0.000261
0.000252
0.000288
0.000258
0.000258
0.000264
0.000199
0.000057
0.001825
0.001447
0.000199
0.000231
0.000238
0.000257
0.000249
0.000300
0.000364
0.000332
0.002197
0.000264
0.000224
0.000303
0.000248
0.000558
0.000354
0.000298
0.000219
0.000256
0.000249
0.000265
0.000261
0.000227
0.000264
0.000261
0.000269
0.000269
0.000320
0.000669
0.000305
0.000056
0.000205
0.000259
0.000237
0.000259
0.000267
0.000245
0.000258
0.000239
0.001494
0.002104
0.000602
0.000248
0.000399
0.000773
0.000288
0.000238
0.000256
0.000247
0.000268
0.000256
0.000256
0.000246
0.000248
0.000275
0.003010
0.000327
0.000239
0.000267
0.000285
0.000245
0.000450
0.000057
0.001930
0.000236
0.000230
0.000228
0.000313
0.000328
0.000497
0.000263
0.000277
0.000237
0.000237
0.000247
0.000261
0.000253
0.000275
0.000247
0.000256
0.000283
0.001821
0.000239
0.000249
0.000244
0.000274
0.000281
0.000268
0.000253
0.001496
0.000306
0.000261
0.000243
0.000178
0.000057
0.000194
0.000229
0.000245
0.000255
0.000241
0.000237
0.000378
0.000307
0.000359
0.000328
0.000235
0.000244
0.000260
0.000336
0.000405
0.000321
0.000234
0.000249
0.000256
0.000349
0.000512
0.000449
0.000213
0.000257
0.000265
0.000250
0.000266
0.000263
0.000272
0.000261
0.000203
0.000056
0.001434
0.000466
0.000200
0.001950
0.000257
0.000460
0.000407
0.000317
0.000230
0.000243
0.000269
0.000243
0.000245
0.000248
0.000265
0.000260
0.000453
0.000234
0.000451
0.000512
0.000219
0.000233
0.000252
0.000270
0.000277
0.000286
0.000245
0.000266
0.000457
0.000354
0.001378
0.000056
0.000202
0.000226
0.002082
0.000322
0.000307
0.000236
0.000258
0.000250
0.000256
0.000263
0.000215
0.000255
0.000251
0.000265
0.000254
0.000355
0.000710
0.001762
0.000233
0.000267
0.000240
0.000263
0.000376
0.000451
0.001563
0.000289
0.000365
0.001924
0.000251
0.000265
0.000196
0.000056
0.000215
0.000234
0.000229
0.000246
0.000233
0.000246
0.000253
0.000282
0.000331
0.000260
0.000373
0.000367
0.000340
0.000306
0.000240
0.000270
0.000261
0.000241
0.000268
0.000270
0.000284
0.000293
0.000265
0.000259
0.000270
0.001497
0.000296
0.000378
0.002083
0.000236
0.000171
0.000056
0.000218
0.000239
0.000238
0.000246
0.000494
0.000257
0.000200
0.000463
0.000226
0.000312
0.000317
0.000207
0.000270
0.000260
0.000270
0.000360
0.000493
0.000397
0.000213
0.000379
0.000546
0.000368
0.001632
0.000229
0.000252
0.001984
0.000334
0.000247
0.000244
0.000295
0.000184
0.000056
0.000200
0.000241
0.000226
0.000263
0.000231
0.000272
0.000253
0.000270
0.000249
0.000255
0.001810
0.000315
0.000385
0.000279
0.000462
0.000362
0.000391
0.001468
0.000245
0.000278
0.002169
0.000514
0.000270
0.000230
0.000263
0.000269
0.000508
0.000257
0.000216
0.000280
0.000196
0.000057
0.000294
0.000371
0.000370
0.000276
0.000208
0.000241
0.000264
0.000247
0.000269
0.000288
0.000229
0.000250
0.000259
0.000271
0.000356
0.000420
0.001338
0.000268
0.000276
0.001950
0.000338
0.000282
0.000237
0.000258
0.000250
0.000276
0.000272
0.000261
0.000247
0.000266
0.000203
0.000057
0.000355
0.000465
0.001883
0.000260
0.000216
0.000261
0.000243
0.000295
0.000436
0.000453
0.001287
0.000374
0.000363
0.002079
0.000208
0.000243
0.000272
0.000273
0.000256
0.000242
0.000282
0.000292
0.000265
0.000370
0.000455
0.000367
0.000340
0.002214
0.000492
0.000492
0.000383
0.000057
0.000221
0.000223
0.000247
0.001962
0.000229
0.000225
0.000248
0.000242
0.000243
0.000257
0.000246
0.000263
0.000282
0.000242
0.000449
0.001457
0.000261
0.000244
0.000266
0.000260
0.000230
0.000255
0.000261
0.000268
0.000309
0.000515
0.000423
0.000242
0.001601
0.000271
0.000156
0.000056
0.000203
0.000219
0.000249
0.000235
0.000260
0.000265
0.000229
0.000268
0.000238
0.000327
0.000389
0.001434
0.000231
0.000225
0.000250
0.000294
0.000225
0.000259
0.000307
0.000494
0.000449
0.000376
0.000224
0.001570
0.000238
0.000259
0.000289
0.000298
0.000243
0.000266
0.000201
0.000056
0.000198
0.000240
0.000264
0.000268
0.000246
0.000248
0.000234
0.000243
0.000277
0.000231
0.000247
0.000254
0.000266
0.001470
0.000365
0.000206
0.000258
0.000259
0.000273
0.000308
0.000369
0.000274
0.000256
0.000267
0.000258
0.000264
0.000261
0.001404
0.000281
0.000237
0.000175
0.000056
0.000201
0.000229
0.000255
0.000264
0.000272
0.000220
0.000248
0.000259
0.000218
0.000266
0.000260
0.000240
0.000225
0.000361
0.000315
0.000382
0.000246
0.000237
0.001635
0.000242
0.000241
0.000259
0.000264
0.000291
0.000426
0.000328
0.000451
0.000272
0.000254
0.001603
0.000162
0.000055
0.000317
0.000348
0.000374
0.000290
0.000236
0.000221
0.000244
0.000272
0.000254
0.000251
0.000235
0.000237
0.001460
0.000288
0.000311
0.000222
0.000249
0.000277
0.000252
0.000267
0.000252
0.000251
0.000242
0.000273
0.000332
0.000362
0.000441
0.000306
0.000275
0.000250
0.000191
0.000056
0.000217
0.000238
0.000518
0.000294
0.000429
0.000202
0.000246
0.000250
0.000249
0.000254
0.000247
0.000220
0.000260
0.000242
0.001259
0.000296
0.000236
0.000255
0.000266
0.000266
0.000238
0.000266
0.000251
0.000264
0.000268
0.000244
0.000311
0.000702
0.000442
0.000232
0.000178
0.000056
0.000204
0.001550
0.000237
0.000361
0.000538
0.000284
0.000217
0.000253
0.000269
0.000251
0.000242
0.000256
0.000272
0.000271
0.000259
0.001533
0.000246
0.000288
0.000261
0.000255
0.000279
0.000237
0.000268
0.000258
0.000272
0.000303
0.000413
0.000344
0.000355
0.000233
0.000194
0.000056
0.000214
0.000253
0.000234
0.001649
0.000382
0.000343
0.000259
0.000212
0.000254
0.000274
0.000277
0.000255
0.000250
0.000259
0.000240
0.000261
0.000429
0.001307
0.000239
0.000232
0.001494
0.000288
0.000601
0.000394
0.000346
0.000230
0.000272
0.000460
0.000234
0.000270
0.000180
0.000056
0.000293
0.000219
0.000247
0.000264
0.000233
0.000252
0.000243
0.000254
0.000254
0.000248
0.000248
0.000257
0.000329
0.000493
0.001655
0.001513
0.000333
0.000516
0.000356
0.000227
0.000233
0.000251
0.000251
0.000272
0.000251
0.000268
0.000257
0.000261
0.001549
0.000301
0.000169
0.000056
0.000230
0.000330
0.000352
0.000336
0.000233
0.000236
0.000245
0.000362
0.000430
0.000373
0.002158
0.000318
0.000712
0.000543
0.000412
0.000251
0.000335
0.000399
0.000324
0.000281
0.000412
0.000258
0.001531
0.000523
0.000222
0.000289
0.000234
0.000259
0.000263
0.000268
0.000192
0.000056
0.000236
0.000247
0.000253
0.000255
0.000240
0.001664
0.000875
0.000997
0.000206
0.000237
0.000258
0.000259
0.000260
0.000257
0.000273
0.000230
0.000251
0.000268
0.000267
0.000278
0.001423
0.000317
0.000255
0.000230
0.000234
0.000282
0.000240
0.000282
0.000264
0.000288
0.001892
0.000056
0.000195
0.000231
0.001540
0.000932
0.000350
0.000327
0.000227
0.000241
0.000247
0.000258
0.000246
0.000250
0.000245
0.001981
0.000476
0.000226
0.000244
0.000256
0.000263
0.000259
0.000191
