0.000214
0.020793
0.000839
0.000282
0.000263
0.000282
0.000303
0.000248
0.000337
0.000276
0.000256
0.000360
0.000495
0.000461
0.000385
0.000381
0.000270
0.000347
0.000350
0.000405
0.000317
0.001912
0.000709
0.000247
0.000252
0.000312
0.000299
0.000337
0.000482
0.000315
0.000489
0.000310
0.000058
0.000208
0.000266
0.000274
0.000263
0.000276
0.000243
0.000284
0.000278
0.000249
0.000311
0.000420
0.000427
0.000319
0.000261
0.000410
0.000301
0.000363
0.000252
0.000267
0.001721
0.000278
0.000253
0.000456
0.000256
0.000266
0.000273
0.000292
0.000290
0.000287
0.000332
0.000384
0.000056
0.000198
0.000246
0.000259
0.000262
0.000251
0.000247
0.000259
0.000260
0.000283
0.001675
0.000221
0.000238
0.000270
0.000269
0.000281
0.000247
0.000268
0.000249
0.000358
0.001791
0.000242
0.000284
0.000438
0.000495
0.000333
0.000226
0.000270
0.000479
0.000539
0.000710
0.000194
0.000056
0.000230
0.000245
0.000254
0.000241
0.000297
0.000248
0.000285
0.000565
0.000417
0.000252
0.000244
0.000247
0.000240
0.000253
0.000254
0.000262
0.000240
0.000267
0.000301
0.000323
0.001667
0.000280
0.000258
0.000415
0.000346
0.000647
0.000681
0.000514
0.000339
0.000237
0.000196
0.000056
0.000203
0.000251
0.000266
0.000234
0.000261
0.000255
0.000259
0.000474
0.001460
0.000226
0.000249
0.000240
0.000256
0.000259
0.000261
0.000289
0.000276
0.000802
0.001384
0.000280
0.000457
0.000263
0.000231
0.000218
0.000259
0.000256
0.000276
0.000261
0.000255
0.000271
0.000193
0.000057
0.000211
0.000248
0.000244
0.000262
0.000236
0.000245
0.000240
0.000259
0.000240
0.000248
0.001629
0.000269
0.000238
0.000237
0.000246
0.000257
0.000244
0.000250
0.000256
0.000255
0.000273
0.001662
0.000285
0.000254
0.000434
0.000257
0.000256
0.000254
0.000271
0.000266
0.000194
0.000056
0.000196
0.000228
0.000252
0.000242
0.000245
0.000248
0.000261
0.000234
0.000265
0.000241
0.000264
0.000263
0.000257
0.000273
0.001633
0.000274
0.000299
0.000210
0.000260
0.000275
0.000265
0.000239
0.000244
0.000268
0.001784
0.000363
0.000377
0.000340
0.000261
0.000285
0.000190
0.000056
0.000221
0.000221
0.000247
0.000269
0.000253
0.000237
0.000322
0.000374
0.000418
0.000421
0.000207
0.000248
0.000254
0.000250
0.001561
0.000529
0.000304
0.000426
0.000314
0.000229
0.000273
0.000280
0.000291
0.001712
0.000491
0.000484
0.000258
0.000238
0.000251
0.000267
0.000182
0.000058
0.000190
0.000235
0.000256
0.000263
0.000333
0.000507
0.000309
0.000281
0.000214
0.000252
0.000261
0.000241
0.000252
0.001715
0.000482
0.000288
0.000226
0.000251
0.000278
0.000281
0.000246
0.000264
0.000271
0.001907
0.000297
0.000382
0.000257
0.000251
0.000259
0.000412
0.000329
0.000056
0.000206
0.000390
0.000363
0.000288
0.000232
0.000248
0.000253
0.000258
0.000240
0.000229
0.000244
0.000247
0.001546
0.000351
0.000319
0.000218
0.000269
0.000246
0.000249
0.000277
0.000279
0.000331
0.000244
0.001813
0.000252
0.000495
0.000239
0.000263
0.000251
0.000272
0.000292
0.000057
0.000369
0.000536
0.000611
0.000212
0.000232
0.000279
0.000227
0.000224
0.000256
0.000255
0.000251
0.001703
0.000249
0.000440
0.000372
0.000210
0.000250
0.000228
0.000248
0.000264
0.000260
0.001855
0.000235
0.000239
0.002076
0.000512
0.000368
0.000247
0.000253
0.000271
0.000178
0.000057
0.000214
0.000243
0.000245
0.000238
0.000259
0.001618
0.000251
0.000237
0.000256
0.000249
0.000247
0.000262
0.000230
0.000256
0.000262
0.000425
0.000617
0.000265
0.000229
0.000271
0.000282
0.000227
0.000248
0.000433
0.000434
0.000246
0.000383
0.000521
0.000441
0.000287
0.000203
0.000055
0.000175
0.000239
0.000257
0.000251
0.000230
0.000244
0.000241
0.000389
0.000455
0.001730
0.000192
0.000237
0.000245
0.000252
0.000258
0.000268
0.000445
0.000464
0.000353
0.000233
0.000262
0.000313
0.000274
0.000255
0.000273
0.000436
0.000347
0.000620
0.000461
0.000429
0.000166
0.000058
0.000188
0.000258
0.000241
0.000222
0.000246
0.000241
0.000245
0.000242
0.000245
0.000291
0.000338
0.000462
0.001361
0.000248
0.000235
0.000245
0.000262
0.000251
0.000253
0.000243
0.000353
0.000441
0.000341
0.000283
0.000264
0.000248
0.000263
0.000266
0.000267
0.000263
0.000389
0.000056
0.000215
0.000237
0.000235
0.000262
0.000554
0.000434
0.000221
0.000257
0.000236
0.000256
0.000247
0.000239
0.000295
0.000251
0.000240
0.000496
0.000430
0.001616
0.000278
0.000235
0.000269
0.000251
0.000258
0.000239
0.000261
0.000512
0.000389
0.000396
0.000382
0.000251
0.000180
0.000056
0.000226
0.000434
0.000236
0.000210
0.000270
0.000239
0.000247
0.000612
0.000341
0.000329
0.000206
0.000275
0.000259
0.000237
0.000527
0.000350
0.000223
0.000249
0.000399
0.001640
0.000292
0.000211
0.000531
0.000236
0.000281
0.000277
0.000259
0.000395
0.000498
0.000409
0.000235
0.000057
0.000215
0.000238
0.000240
0.000238
0.000413
0.000306
0.000294
0.000223
0.000415
0.000483
0.000366
0.000257
0.000220
0.000246
0.000253
0.000270
0.000255
0.000251
0.000237
0.000346
0.000289
0.000319
0.001862
0.000244
0.000252
0.000258
0.000289
0.000354
0.000410
0.000675
0.000449
0.000056
0.000242
0.000329
0.000281
0.000429
0.000392
0.000215
0.000245
0.000266
0.000521
0.000423
0.000270
0.000235
0.000243
0.000266
0.000262
0.000238
0.000258
0.000266
0.000266
0.000264
0.000262
0.000415
0.000660
0.001325
0.000342
0.000459
0.000393
0.000245
0.000424
0.000462
0.000267
0.000057
0.000251
0.000381
0.000267
0.000211
0.000223
0.000246
0.000413
0.000251
0.000220
0.000338
0.000453
0.000454
0.000235
0.000259
0.000270
0.000243
0.000378
0.000378
0.000345
0.000242
0.000243
0.000393
0.000760
0.001547
0.000228
0.000451
0.000292
0.000236
0.000242
0.000488
0.000304
0.000057
0.000204
0.000217
0.000258
0.000232
0.000249
0.000243
0.000255
0.000323
0.000455
0.000261
0.000458
0.000349
0.000338
0.000551
0.000250
0.000243
0.000270
0.000263
0.000235
0.000354
0.000236
0.000232
0.000269
0.000385
0.000522
0.001648
0.000274
0.000234
0.000250
0.000269
0.000192
0.000056
0.000289
0.000501
0.000326
0.000217
0.000267
0.000230
0.000256
0.000240
0.000263
0.000245
0.000223
0.000255
0.000427
0.000515
0.000422
0.000265
0.000235
0.000252
0.000351
0.000381
0.000385
0.000331
0.000423
0.000361
0.000213
0.000253
0.000269
0.000269
0.001786
0.000256
0.000212
0.000057
0.000206
0.000219
0.000264
0.000266
0.000371
0.000543
0.000298
0.000216
0.000261
0.000261
0.000252
0.000249
0.000516
0.000450
0.000480
0.000288
0.000259
0.000288
0.000404
0.000465
0.000410
0.000337
0.000641
0.000296
0.000243
0.000248
0.000263
0.000248
0.000264
0.001711
0.000335
0.000056
0.000346
0.000285
0.000211
0.000232
0.000254
0.000248
0.000248
0.000502
0.000368
0.000305
0.000291
0.000269
0.000346
0.000692
0.000299
0.000230
0.000259
0.000280
0.000222
0.000266
0.000258
0.000275
0.000243
0.000271
0.000298
0.000371
0.000399
0.000381
0.000209
0.000267
0.000190
0.000056
0.000441
0.000318
0.000449
0.000257
0.000202
0.000244
0.000249
0.000253
0.000249
0.000214
0.000254
0.000278
0.000296
0.000289
0.000621
0.000446
0.000320
0.000322
0.000385
0.000334
0.000292
0.000244
0.000239
0.000266
0.001743
0.000258
0.001724
0.000937
0.000407
0.000317
0.000175
0.000056
0.000200
0.000238
0.000238
0.000240
0.000263
0.000243
0.000257
0.000251
0.000235
0.000334
0.000385
0.000409
0.000338
0.000375
0.000256
0.000241
0.000254
0.000292
0.000246
0.000224
0.000265
0.000256
0.001802
0.000249
0.000253
0.000267
0.000280
0.000259
0.001908
0.000493
0.000234
0.000057
0.000217
0.000215
0.000234
0.000243
0.000254
0.000266
0.000222
0.000256
0.000249
0.000377
0.000496
0.000559
0.000242
0.000204
0.000233
0.000249
0.000333
0.000449
0.000364
0.000254
0.001768
0.000255
0.000248
0.000244
0.000260
0.000294
0.000221
0.000258
0.000327
0.000290
0.000383
0.000055
0.000244
0.000219
0.000242
0.000261
0.000244
0.000247
0.000253
0.000257
0.000244
0.000251
0.000238
0.000282
0.000343
0.000386
0.000386
0.000266
0.000468
0.000237
0.000246
0.000259
0.000254
0.000280
0.000256
0.000255
0.000279
0.001790
0.000239
0.000255
0.000262
0.000235
0.000198
0.000057
0.000245
0.000379
0.000249
0.000216
0.000232
0.000236
0.000238
0.000257
0.000246
0.000231
0.000231
0.000257
0.000269
0.000416
0.000342
0.000393
0.000257
0.000235
0.000261
0.000248
0.000255
0.000259
0.000259
0.000267
0.000244
0.000267
0.000363
0.001580
0.000264
0.000238
0.000196
0.000056
0.000206
0.000251
0.000231
0.000257
0.000376
0.000368
0.000382
0.000295
0.000228
0.000252
0.000251
0.000237
0.000253
0.000257
0.000262
0.000258
0.000244
0.000260
0.000249
0.000260
0.000269
0.000271
0.000247
0.000235
0.000239
0.000284
0.000278
0.000259
0.000258
0.000259
0.000192
0.000057
0.000189
0.000239
0.000255
0.000257
0.000231
0.000259
0.000240
0.000262
0.000284
0.000233
0.000231
0.000251
0.000251
0.000255
0.000266
0.000267
0.000241
0.000256
0.000301
0.000256
0.000271
0.000289
0.000276
0.000247
0.000278
0.000273
0.000273
0.000251
0.000251
0.000370
0.000756
0.000057
0.000233
0.000284
0.000209
0.000235
0.000239
0.000256
0.000239
0.000252
0.000251
0.000235
0.000270
0.000346
0.000446
0.000560
0.001437
0.000235
0.000486
0.000247
0.000336
0.000350
0.000464
0.000376
0.000221
0.000277
0.000254
0.000265
0.000281
0.000251
0.000309
0.000254
0.000187
0.000055
0.000379
0.000397
0.000339
0.000325
0.000199
0.000256
0.000252
0.000241
0.000238
0.000240
0.000260
0.000256
0.000225
0.000259
0.000380
0.000536
0.000355
0.001786
0.000228
0.000259
0.000325
0.000432
0.000412
0.000334
0.000319
0.000313
0.000308
0.000234
0.000229
0.000252
0.000197
0.000056
0.000218
0.000229
0.000236
0.000328
0.000333
0.000426
0.000374
0.000237
0.000252
0.000212
0.000245
0.000271
0.000269
0.000259
0.000250
0.000253
0.000296
0.000505
0.000367
0.000416
0.000223
0.001745
0.000331
0.000487
0.000491
0.000475
0.000330
0.000223
0.000261
0.000272
0.000440
0.000056
0.000202
0.000254
0.000235
0.000273
0.000402
0.000488
0.000382
0.000237
0.000218
0.000289
0.000247
0.000265
0.000253
0.000293
0.000307
0.000223
0.000245
0.000514
0.000288
0.000416
0.000498
0.001815
0.000251
0.000395
0.000549
0.000370
0.000218
0.000262
0.000290
0.000261
0.000201
0.000056
0.000218
0.000342
0.000355
0.000367
0.000342
0.000325
0.000339
0.000210
0.000246
0.000258
0.000279
0.000230
0.000246
0.000252
0.000243
0.000270
0.000315
0.000448
0.000428
0.000398
0.000270
0.000234
0.000263
0.001708
0.000498
0.000438
0.000690
0.000238
0.000260
0.000303
0.000157
0.000056
0.000186
0.000322
0.000237
0.000253
0.000249
0.000366
0.000435
0.000313
0.000253
0.000510
0.000227
0.000257
0.000256
0.000271
0.000279
0.000264
0.000215
0.000360
0.000425
0.000465
0.000271
0.000220
0.000262
0.000255
0.000262
0.000270
0.000245
0.000245
0.000266
0.000290
0.000174
0.000056
0.000366
0.000297
0.000233
0.000248
0.000255
0.000252
0.000237
0.000293
0.000247
0.000239
0.000262
0.000349
0.000422
0.000416
0.000336
0.000271
0.000222
0.000255
0.000238
0.000268
0.000288
0.000262
0.000238
0.000259
0.000279
0.000289
0.000388
0.000417
0.000351
0.000241
0.000174
0.000073
0.000190
0.000230
0.000281
0.000244
0.000233
0.000251
0.000256
0.000257
0.000491
0.000218
0.000258
0.000248
0.000247
0.000266
0.000291
0.000253
0.000262
0.000357
0.000217
0.000245
0.000249
0.000263
0.000264
0.000266
0.000276
0.000265
0.000263
0.000257
0.000530
0.000226
0.000152
0.000056
0.000196
0.000239
0.000262
0.000259
0.000219
0.000245
0.000362
0.000409
0.000238
0.000236
0.000251
0.000254
0.000240
0.000229
0.000463
0.001788
0.000251
0.000251
0.000283
0.000394
0.000367
0.000352
0.000379
0.000357
0.000428
0.000390
0.000237
0.000268
0.000271
0.000273
0.001392
0.000056
0.000396
0.000290
0.000282
0.000213
0.000237
0.000255
0.000228
0.000258
0.000245
0.000268
0.000242
0.000267
0.000246
0.000324
0.000483
0.001652
0.000248
0.000228
0.000246
0.000263
0.000261
0.000235
0.000406
0.000385
0.000257
0.000359
0.000220
0.000268
0.000276
0.000263
0.000179
0.000056
0.001216
0.000508
0.000363
0.000256
0.000245
0.000214
0.000233
0.000244
0.000483
0.000225
0.000240
0.000248
0.000336
0.000471
0.000448
0.000352
0.000242
0.000239
0.000342
0.000342
0.000272
0.000260
0.000271
0.000239
0.000275
0.000589
0.000575
0.000226
0.000259
0.000266
0.000166
0.000056
0.000206
0.000216
0.000244
0.000241
0.001513
0.000261
0.000221
0.000259
0.000234
0.000250
0.000255
0.000251
0.000238
0.000268
0.000265
0.000304
0.000481
0.000581
0.000280
0.001738
0.000275
0.000271
0.000273
0.000453
0.000593
0.000373
0.000232
0.000248
0.000262
0.000263
0.000199
0.000056
0.000217
0.000251
0.000233
0.000306
0.001277
0.000223
0.000263
0.000257
0.000235
0.000235
0.000243
0.000250
0.000279
0.000243
0.000255
0.000293
0.000473
0.000427
0.000311
0.000270
0.000253
0.000276
0.000253
0.000226
0.000291
0.000262
0.000247
0.000274
0.000274
0.000409
0.000490
0.000057
0.000222
0.000250
0.000237
0.000260
0.000265
0.000236
0.000235
0.000265
0.000269
0.000253
0.001442
0.000222
0.000235
0.000252
0.000245
0.000242
0.000268
0.000266
0.000263
0.000264
0.000275
0.000499
0.000492
0.000343
0.000228
0.000275
0.001756
0.000264
0.000254
0.000351
0.000420
0.000057
0.000180
0.000414
0.000426
0.000500
0.000518
0.000536
0.001502
0.000425
0.000513
0.000650
0.000554
0.000665
0.000536
0.000622
0.000582
0.001876
0.000381
0.000469
0.000405
0.000313
0.000222
0.000302
0.000252
0.000269
0.000252
0.000290
0.000298
0.000290
0.000254
0.000285
0.001377
0.000056
0.000202
0.000226
0.000247
0.000236
0.000256
0.000262
0.000232
0.000240
0.000251
0.000253
0.000233
0.000240
0.000263
0.000253
0.000270
0.000269
0.001804
0.000283
0.000245
0.000250
0.000249
0.000308
0.000221
0.000329
0.000363
0.000474
0.000282
0.000248
0.000262
0.000289
0.000204
0.000056
0.000193
0.001373
0.000328
0.000260
0.000260
0.000238
0.000246
0.000232
0.000238
0.000237
0.000219
0.000236
0.000257
0.000502
0.000369
0.000281
0.000261
0.000254
0.001935
0.000224
0.000248
0.000259
0.000270
0.000267
0.000264
0.000289
0.000269
0.000250
0.000264
0.000320
0.000203
0.000056
0.000215
0.000244
0.000250
0.001442
0.000213
0.000255
0.000245
0.000251
0.000235
0.000268
0.000252
0.000247
0.000246
0.000258
0.000250
0.000263
0.000264
0.000287
0.000247
0.000253
0.000260
0.001834
0.000231
0.001737
0.000283
0.000237
0.000270
0.000268
0.000262
0.000277
0.000200
0.000056
0.000203
0.000242
0.001346
0.000223
0.000254
0.000240
0.000268
0.000249
0.000242
0.000252
0.000245
0.000254
0.000262
0.000259
0.000260
0.000262
0.000281
0.000264
0.000303
0.000242
0.001896
0.000205
0.001822
0.000254
0.000242
0.000277
0.000233
0.000256
0.000249
0.000277
0.000179
0.000056
0.001438
0.000232
0.000220
0.000233
0.000249
0.000234
0.000373
0.000271
0.000245
0.000260
0.000253
0.000252
0.000248
0.000363
0.000419
0.000269
0.000239
0.000264
0.000266
0.000243
0.000278
0.000331
0.000233
0.000255
0.000274
0.000270
0.000273
0.000426
0.000549
0.000364
0.000205
0.000057
0.000201
0.000254
0.000254
0.000301
0.000362
0.000252
0.001721
0.000283
0.000279
0.000260
0.000256
0.000272
0.000294
0.000247
0.000294
0.000304
0.000410
0.000532
0.000352
0.000272
0.000291
0.000279
0.000261
0.000268
0.000324
0.000299
0.000239
0.000242
0.000256
0.000296
0.000422
0.000057
0.000273
0.000448
0.000269
0.000263
0.000250
0.000224
0.000237
0.000242
0.000254
0.000255
0.001520
0.000225
0.000220
0.000257
0.000258
0.000269
0.000263
0.000251
0.000266
0.000263
0.000274
0.000370
0.000555
0.000288
0.000277
0.000286
0.000266
0.000254
0.000235
0.000312
0.000159
0.000056
0.000196
0.000235
0.000284
0.000479
0.000344
0.000292
0.000213
0.000254
0.000250
0.000250
0.000234
0.000256
0.000255
0.000264
0.000244
0.000226
0.000477
0.001143
0.000235
0.000355
0.000181
0.000243
0.000362
0.000408
0.000260
0.000293
0.000637
0.000319
0.000372
0.000248
0.000173
0.000056
0.000229
0.000252
0.000259
0.000265
0.000256
0.000241
0.000417
0.000333
0.000477
0.000264
0.000345
0.000392
0.000388
0.000361
0.000256
0.000239
0.000245
0.000254
0.000358
0.001472
0.000297
0.000219
0.000275
0.000274
0.000232
0.000239
0.000270
0.000307
0.000457
0.000401
0.000262
0.000056
0.000213
0.000238
0.000254
0.000240
0.000245
0.000248
0.000236
0.000261
0.000318
0.000492
0.000333
0.000321
0.000244
0.000238
0.000271
0.000233
0.000249
0.000264
0.000267
0.000246
0.000440
0.000274
0.000391
0.000376
0.000317
0.000258
0.000270
0.000276
0.000248
0.000348
0.000153
0.000055
0.000302
0.000314
0.000319
0.000349
0.000478
0.000336
0.000258
0.000250
0.000243
0.000271
0.000258
0.000260
0.000241
0.000245
0.000243
0.000232
0.000267
0.000361
0.000519
0.000322
0.000239
0.000264
0.000244
0.000248
0.000264
0.000277
0.000269
0.000263
0.000279
0.000257
0.000337
0.000057
0.000354
0.000256
0.000235
0.000247
0.000245
0.000249
0.000241
0.000252
0.000269
0.000255
0.000251
0.000235
0.000331
0.000508
0.000388
0.000298
0.000225
0.000243
0.000256
0.000270
0.000255
0.000264
0.000263
0.000259
0.000277
0.000302
0.000402
0.000615
0.000408
0.000255
0.000170
0.000056
0.000395
0.000202
0.000232
0.000243
0.000257
0.000241
0.000243
0.000252
0.000317
0.000196
0.000219
0.000247
0.000271
0.000223
0.000244
0.000290
0.000230
0.000262
0.000292
0.000243
0.000260
0.000261
0.000269
0.000256
0.000263
0.000249
0.000264
0.000277
0.000252
0.000283
0.000193
0.000057
0.000190
0.000228
0.000249
0.000254
0.000231
0.000262
0.000255
0.000240
0.000254
0.000284
0.000221
0.000232
0.000267
0.000402
0.000264
0.000261
0.000259
0.000271
0.000255
0.000273
0.000275
0.000237
0.000240
0.000258
0.000269
0.000275
0.000246
0.000255
0.000277
0.000258
0.000207
0.000057
0.000219
0.000360
0.000366
0.000281
0.000295
0.000255
0.000266
0.000263
0.000223
0.000243
0.000253
0.000258
0.000268
0.000227
0.000250
0.000273
0.000249
0.000272
0.000238
0.000264
0.000273
0.000266
0.000281
0.000255
0.000268
0.000247
0.000271
0.000257
0.000269
0.000269
0.000188
0.000056
0.000212
0.000231
0.000263
0.000263
0.000491
0.000217
0.000201
0.000247
0.000273
0.000512
0.000437
0.000272
0.000231
0.000257
0.000265
0.000264
0.000239
0.000274
0.000257
0.000262
0.000271
0.000256
0.000264
0.000314
0.000524
0.000483
0.000271
0.000286
0.000259
0.000265
0.000187
0.000056
0.000196
0.000223
0.000245
0.000256
0.000295
0.000709
0.000303
0.000354
0.000214
0.000248
0.000246
0.000256
0.000247
0.000254
0.000256
0.000276
0.000252
0.000260
0.000584
0.000434
0.000301
0.000234
0.000264
0.000284
0.000280
0.000253
0.000264
0.000272
0.000248
0.000335
0.000314
0.000057
0.000287
0.000228
0.000243
0.000236
0.000260
0.000250
0.000230
0.000247
0.000243
0.000260
0.000244
0.000252
0.000246
0.000384
0.000577
0.000381
0.000249
0.000253
0.000267
0.000244
0.000269
0.000274
0.000485
0.000226
0.000261
0.000564
0.000421
0.000510
0.000250
0.000259
0.000178
0.000055
0.000212
0.000244
0.000245
0.000241
0.000251
0.000255
0.000366
0.000480
0.000475
0.000428
0.000217
0.000269
0.000275
0.000274
0.000257
0.000246
0.000243
0.000247
0.000255
0.000372
0.000363
0.000648
0.000367
0.000252
0.000366
0.000377
0.000482
0.000235
0.000267
0.000417
0.000405
0.000057
0.000268
0.000230
0.000431
0.000223
0.000234
0.000256
0.000264
0.000256
0.000233
0.000239
0.000260
0.000420
0.000300
0.000391
0.000247
0.000257
0.000244
0.000252
0.000260
0.000278
0.000274
0.000255
0.000249
0.000275
0.000407
0.000388
0.000495
0.000241
0.000243
0.000277
0.000190
0.000056
0.000192
0.000256
0.000231
0.000240
0.000247
0.000298
0.000302
0.000432
0.000426
0.000284
0.000368
0.000220
0.000250
0.000265
0.000255
0.000241
0.000254
0.000264
0.000265
0.000414
0.000498
0.000330
0.000470
0.000277
0.000424
0.000390
0.000377
0.000241
0.000256
0.000292
0.000364
0.000056
0.000243
0.000281
0.000219
0.000254
0.000257
0.000258
0.000249
0.000252
0.000255
0.000261
0.000232
0.000344
0.000459
0.000376
0.000383
0.000215
0.000269
0.000263
0.000264
0.000237
0.000250
0.000254
0.000266
0.000277
0.000271
0.000335
0.000489
0.000473
0.000256
0.000265
0.000188
0.000056
0.000206
0.000243
0.000259
0.000262
0.000241
0.000336
0.000510
0.000471
0.000351
0.000686
0.000268
0.000214
0.000242
0.000260
0.000251
0.000265
0.000274
0.000274
0.000475
0.000439
0.001497
0.000302
0.000262
0.000260
0.000297
0.000264
0.000407
0.000384
0.000356
0.000346
0.000164
0.000058
0.000199
0.000227
0.000247
0.000243
0.000240
0.000259
0.000275
0.000244
0.000255
0.000337
0.000326
0.000383
0.000330
0.000329
0.000412
0.000282
0.000253
0.000220
0.000275
0.000258
0.000245
0.000247
0.000287
0.000243
0.000321
0.000435
0.000430
0.000306
0.000248
0.000264
0.000190
0.000055
0.000193
0.000250
0.000255
0.000252
0.000242
0.000238
0.000470
0.000216
0.000234
0.000273
0.000224
0.000255
0.000255
0.000260
0.000250
0.000269
0.000259
0.000265
0.000273
0.000255
0.000261
0.000290
0.000289
0.000252
0.000261
0.000282
0.000271
0.000263
0.000263
0.000273
0.000164
0.000056
0.000209
0.000245
0.000298
0.000431
0.000358
0.000260
0.000234
0.000243
0.000265
0.000245
0.000250
0.000257
0.000261
0.000264
0.000234
0.000245
0.000246
0.000262
0.000290
0.000318
0.000457
0.000406
0.000228
0.000264
0.000266
0.000251
0.000268
0.000246
0.000278
0.000278
0.000196
0.000056
0.000348
0.000442
0.000370
0.000207
0.000258
0.000251
0.000415
0.000208
0.000238
0.000258
0.000255
0.000336
0.000362
0.000386
0.001874
0.000249
0.000245
0.000247
0.000279
0.000242
0.000316
0.000442
0.000666
0.000269
0.000234
0.000256
0.000272
0.000432
0.000278
0.000278
0.000166
0.000055
0.000243
0.000372
0.000309
0.000332
0.000495
0.000212
0.000234
0.000249
0.000259
0.000234
0.000257
0.000250
0.000261
0.000356
0.000357
0.000501
0.000208
0.000246
0.000260
0.000272
0.000249
0.000320
0.000242
0.000268
0.000282
0.000442
0.000554
0.000596
0.000218
0.000236
0.000203
0.000071
0.000201
0.000232
0.000259
0.000228
0.000251
0.000254
0.000266
0.000271
0.000366
0.000345
0.000466
0.000328
0.000215
0.000274
0.000247
0.000274
0.000307
0.000240
0.000275
0.000269
0.000244
0.000323
0.000436
0.000388
0.000283
0.000248
0.000265
0.000436
0.000419
0.000318
0.000162
0.000056
0.000186
0.000233
0.000333
0.000419
0.000394
0.000197
0.000242
0.000255
0.000280
0.000232
0.000266
0.000261
0.000223
0.000258
0.000259
0.000309
0.000357
0.000381
0.000305
0.000324
0.000499
0.000231
0.000280
0.000279
0.000303
0.000283
0.000258
0.000260
0.000465
0.000482
0.000239
0.000056
0.000218
0.000228
0.000247
0.000268
0.000222
0.000484
0.000216
0.000249
0.000269
0.000310
0.000474
0.000632
0.000206
0.000241
0.000246
0.000247
0.000258
0.000241
0.000264
0.000260
0.000253
0.000266
0.000377
0.000416
0.000347
0.000419
0.000283
0.000309
0.000306
0.000255
0.000181
0.000056
0.000226
0.000247
0.000247
0.000474
0.000329
0.000285
0.000266
0.000219
0.000254
0.000259
0.000252
0.000244
0.000256
0.000267
0.000247
0.000262
0.000243
0.000247
0.000320
0.000323
0.000471
0.000443
0.000217
0.000260
0.000275
0.000291
0.000245
0.000254
0.000266
0.000272
0.000184
0.000056
0.000367
0.000292
0.000465
0.000246
0.000217
0.000244
0.000335
0.000452
0.000273
0.000224
0.000234
0.000280
0.000250
0.000430
0.000455
0.000289
0.000229
0.000240
0.000253
0.000264
0.000271
0.000264
0.000264
0.000271
0.000264
0.000293
0.000395
0.000397
0.000335
0.000244
0.000179
0.000057
0.000217
0.000242
0.000243
0.000260
0.000245
0.000262
0.000233
0.000255
0.000252
0.000246
0.000270
0.000235
0.000262
0.001450
0.000241
0.000243
0.000263
0.000248
0.000276
0.000276
0.000261
0.000240
0.000277
0.000252
0.000271
0.000267
0.000272
0.000269
0.000262
0.000281
0.000170
0.000056
0.000193
0.000230
0.000255
0.000251
0.000237
0.000245
0.000260
0.000258
0.000228
0.000244
0.000252
0.000266
0.000254
0.000273
0.000235
0.000262
0.000241
0.000263
0.000276
0.000252
0.000254
0.000263
0.000250
0.000247
0.001296
0.000286
0.000600
0.000407
0.000321
0.000243
0.000189
0.000056
0.000183
0.000232
0.000246
0.000251
0.000414
0.000240
0.000249
0.000230
0.000252
0.000381
0.000443
0.000325
0.000236
0.000230
0.000265
0.000262
0.000257
0.000256
0.000251
0.000259
0.000263
0.000254
0.000261
0.000523
0.000419
0.000438
0.000227
0.000267
0.001365
0.000265
0.000161
0.000056
0.000380
0.000331
0.000323
0.000265
0.000227
0.000228
0.000231
0.000255
0.000259
0.000250
0.000253
0.000260
0.000285
0.000271
0.000606
0.000313
0.000349
0.000219
0.000244
0.000259
0.000263
0.000267
0.000273
0.000256
0.000276
0.000261
0.000362
0.000508
0.000366
0.000381
0.000152
0.000056
0.000194
0.000240
0.001260
0.000428
0.000281
0.000486
0.000361
0.000495
0.000278
0.000340
0.000225
0.000224
0.000261
0.000257
0.000246
0.000266
0.000280
0.000544
0.000488
0.000291
0.000257
0.000244
0.000254
0.000510
0.000228
0.000267
0.000261
0.000278
0.000388
0.000458
0.000300
0.000056
0.000370
0.000337
0.000205
0.000219
0.001595
0.000427
0.000324
0.000236
0.000243
0.000250
0.000226
0.000239
0.000249
0.000268
0.000252
0.000261
0.000236
0.000273
0.000395
0.000412
0.000427
0.000258
0.000252
0.000246
0.000265
0.000274
0.000273
0.000233
0.000266
0.000279
0.000201
0.000056
0.000380
0.000343
0.000225
0.000249
0.000230
0.000242
0.000270
0.000229
0.000233
0.000229
0.001390
0.000492
0.000264
0.000277
0.000213
0.000255
0.000269
0.000263
0.000233
0.000279
0.000270
0.000246
0.000262
0.000471
0.000344
0.000483
0.000222
0.000272
0.000279
0.000284
0.000166
0.000056
0.000208
0.000409
0.000224
0.000273
0.000291
0.000496
0.000396
0.000246
0.000471
0.000211
0.000221
0.000257
0.000262
0.000265
0.000261
0.001440
0.000326
0.000285
0.000243
0.000270
0.000287
0.000244
0.000253
0.000254
0.000264
0.000268
0.000434
0.000457
0.000296
0.000276
0.000155
0.000057
0.000201
0.000232
0.000256
0.000236
0.000234
0.000257
0.000239
0.000251
0.000326
0.000293
0.000450
0.000303
0.000257
0.000240
0.000241
0.000278
0.000274
0.000261
0.000270
0.000228
0.000248
0.000263
0.001315
0.000266
0.000242
0.000248
0.000264
0.000267
0.000258
0.000256
0.000194
0.000055
0.000208
0.000364
0.000342
0.000381
0.000238
0.000237
0.000256
0.000261
0.000254
0.000254
0.000253
0.000273
0.000235
0.000257
0.000256
0.000264
0.000266
0.000267
0.000267
0.000248
0.000254
0.000286
0.000251
0.000280
0.000287
0.000267
0.000270
0.000252
0.000263
0.000447
0.001360
0.000057
0.000183
0.000237
0.000240
0.000241
0.000254
0.000254
0.000251
0.000231
0.000245
0.000246
0.000276
0.000252
0.000250
0.000247
0.000251
0.000258
0.001717
0.000250
0.000242
0.000264
0.000243
0.000265
0.000269
0.000265
0.000265
0.000264
0.000264
0.000276
0.000269
0.000259
0.000220
0.000055
0.000273
0.000328
0.001284
0.000244
0.000219
0.000242
0.000258
0.000251
0.000260
0.000256
0.000229
0.000389
0.000354
0.000440
0.000285
0.000228
0.000247
0.000256
0.000255
0.000267
0.000249
0.000266
0.000268
0.000280
0.000267
0.000365
0.000379
0.000412
0.000283
0.000245
0.000186
0.000075
0.000204
0.000251
0.000243
0.000246
0.000253
0.000217
0.000241
0.000250
0.000438
0.001331
0.000268
0.000209
0.000249
0.000271
0.000257
0.000265
0.000257
0.000256
0.000298
0.000426
0.000400
0.000234
0.000258
0.000243
0.000277
0.000278
0.000265
0.000295
0.000271
0.000273
0.000194
0.000055
0.000202
0.000403
0.000434
0.000222
0.000227
0.000239
0.000243
0.000292
0.000253
0.000245
0.000240
0.000239
0.000448
0.000557
0.000431
0.001445
0.000251
0.000278
0.000340
0.000331
0.000475
0.000433
0.000454
0.000405
0.000228
0.000262
0.000269
0.000273
0.000265
0.000275
0.000194
0.000056
0.000198
0.000303
0.000406
0.000424
0.000404
0.000238
0.000243
0.000230
0.000250
0.000261
0.000251
0.000263
0.000272
0.000231
0.000273
0.000321
0.000317
0.000447
0.000370
0.001347
0.000237
0.000254
0.000265
0.000272
0.000503
0.000404
0.000368
0.000234
0.000286
0.000271
0.000188
0.000056
0.000199
0.000261
0.000220
0.000242
0.000249
0.000276
0.000453
0.000371
0.000389
0.000215
0.000239
0.000262
0.000269
0.000263
0.000257
0.000275
0.000252
0.000256
0.000270
0.000265
0.000471
0.000425
0.000323
0.001348
0.000423
0.000231
0.000278
0.000445
0.000411
0.000347
0.000324
0.000056
0.000198
0.000237
0.000250
0.000242
0.000250
0.000254
0.001680
0.000242
0.000222
0.000244
0.000255
0.000245
0.000257
0.000326
0.000324
0.000299
0.000264
0.000379
0.000429
0.000455
0.000259
0.000278
0.000225
0.001411
0.000348
0.000424
0.000384
0.000415
0.000329
0.000282
0.000156
0.000056
0.000221
0.000246
0.000257
0.000259
0.000242
0.000257
0.001709
0.000242
0.000241
0.000256
0.000337
0.000412
0.001434
0.000356
0.000391
0.000242
0.000265
0.000238
0.000270
0.000270
0.001536
0.000513
0.000440
0.000293
0.000243
0.000249
0.000266
0.000284
0.000241
0.000248
0.000190
0.000056
0.000209
0.000248
0.000270
0.000241
0.000258
0.000301
0.000257
0.000267
0.000242
0.000256
0.000246
0.000252
0.000262
0.000266
0.000254
0.001500
0.000273
0.000235
0.000267
0.000273
0.000274
0.000257
0.000437
0.001273
0.000264
0.000232
0.000275
0.000247
0.000398
0.000243
0.000208
0.000055
0.000192
0.000248
0.000228
0.000237
0.000240
0.000230
0.000234
0.001692
0.000250
0.000233
0.000253
0.000364
0.000228
0.000229
0.000251
0.001390
0.000227
0.000266
0.000271
0.000246
0.000255
0.000352
0.000276
0.001311
0.000283
0.000245
0.000257
0.000261
0.001392
0.000275
0.000192
0.000056
0.000232
0.000370
0.000222
0.000229
0.000250
0.000239
0.000266
0.000261
0.000272
0.000246
0.000258
0.000266
0.000252
0.000244
0.000274
0.001538
0.000238
0.000276
0.000254
0.000250
0.000282
0.000261
0.000254
0.001577
0.000275
0.000240
0.000263
0.001273
0.000278
0.000238
0.000200
0.000056
0.000242
0.000377
0.000339
0.000219
0.000237
0.000238
0.000261
0.000258
0.000266
0.000274
0.000234
0.000253
0.000258
0.000291
0.000397
0.001226
0.000225
0.000256
0.000261
0.000279
0.000225
0.000247
0.000253
0.000324
0.001299
0.000226
0.000249
0.000261
0.000253
0.001348
0.000333
0.000057
0.000277
0.000247
0.000232
0.000230
0.000237
0.000257
0.000244
0.000246
0.000279
0.000252
0.000239
0.000256
0.000247
0.000328
0.000413
0.001477
0.000223
0.000244
0.000309
0.000503
0.000276
0.000409
0.001355
0.000276
0.000242
0.000276
0.000246
0.001311
0.000369
0.000426
0.000329
0.000056
0.000225
0.000253
0.000252
0.000258
0.000253
0.000248
0.000275
0.000243
0.000270
0.000260
0.000350
0.000430
0.001340
0.000236
0.000263
0.000262
0.000287
0.000215
0.000252
0.000234
0.000341
0.001237
0.000256
0.000258
0.000249
0.000268
0.001430
0.000530
0.000442
0.000219
0.000189
0.000074
0.000188
0.000227
0.000253
0.000227
0.000262
0.000261
0.000247
0.000243
0.000526
0.000409
0.000260
0.001493
0.000205
0.000245
0.000266
0.000256
0.000263
0.000273
0.001704
0.000252
0.000400
0.000327
0.001337
0.000311
0.000302
0.000313
0.000263
0.000263
0.000261
0.000270
0.000193
0.000058
0.000196
0.000231
0.000330
0.000252
0.000301
0.000550
0.000310
0.000267
0.001468
0.000241
0.000383
0.000266
0.000212
0.000345
0.000350
0.001319
0.000299
0.000226
0.000239
0.000258
0.001609
0.000289
0.000295
0.000266
0.000272
0.000232
0.000481
0.000315
0.000245
0.000237
0.000273
0.000056
0.000254
0.000360
0.000336
0.000271
0.000220
0.001522
0.000213
0.000252
0.000266
0.000269
0.000272
0.000246
0.000285
0.001488
0.000258
0.000234
0.000434
0.001186
0.000339
0.000444
0.000407
0.000237
0.000234
0.000259
0.000275
0.000240
0.000450
0.000225
0.000270
0.000284
0.000190
0.000057
0.000213
0.000289
0.000353
0.000317
0.001313
0.000280
0.000311
0.000234
0.000252
0.000240
0.000250
0.000296
0.001514
0.000263
0.000229
0.000241
0.001376
0.000276
0.000441
0.000397
0.000420
0.000244
0.000235
0.000249
0.000268
0.000279
0.000273
0.000253
0.000270
0.000250
0.000192
0.000056
0.000214
0.000374
0.001490
0.000220
0.000266
0.000274
0.000240
0.000247
0.000270
0.000501
0.001269
0.000213
0.000263
0.000264
0.000251
0.001279
0.000731
0.000268
0.000317
0.000408
0.000296
0.000238
0.000274
0.000255
0.000271
0.000287
0.000275
0.000323
0.000474
0.000369
0.001380
0.000057
0.000199
0.000246
0.000249
0.000219
0.000254
0.000402
0.000511
0.001275
0.000238
0.000246
0.000250
0.001465
0.000420
0.000315
0.000224
0.000398
0.000249
0.000253
0.000264
0.000281
0.000241
0.000270
0.000279
0.000255
0.000252
0.000280
0.000498
0.000425
0.001495
0.000234
0.000178
0.000056
0.000184
0.000260
0.000496
0.000388
0.001256
0.000265
0.000253
0.000261
0.000252
0.000244
0.000249
0.000273
0.000357
0.000479
0.000353
0.000228
0.000257
0.000276
0.000259
0.000263
0.000250
0.000271
0.000261
0.000264
0.000268
0.000313
0.000539
0.000361
0.000318
0.001405
0.000187
0.000057
0.000196
0.000238
0.000381
0.000371
0.000322
0.000302
0.000314
0.000335
0.000266
0.000281
0.000235
0.000266
0.000253
0.000307
0.000232
0.000313
0.000524
0.000335
0.000289
0.000385
0.000275
0.000404
0.000220
0.000251
0.000269
0.000267
0.000244
0.000294
0.000339
0.000517
0.000297
0.000056
0.000202
0.001407
0.000248
0.000325
0.000403
0.000418
0.000375
0.000321
0.000214
0.000238
0.000264
0.000245
0.000272
0.000266
0.000266
0.000248
0.000266
0.001386
0.000235
0.000256
0.000253
0.000268
0.000271
0.000283
0.000268
0.000253
0.000274
0.000252
0.000297
0.000411
0.000332
0.000057
0.000212
0.000259
0.000219
0.001487
0.000351
0.000216
0.000227
0.000253
0.000229
0.000255
0.000245
0.000273
0.000255
0.000245
0.000269
0.000247
0.000273
0.000247
0.000265
0.000259
0.001424
0.000241
0.000235
0.000282
0.000250
0.000249
0.000269
0.000270
0.000269
0.000494
0.000342
0.000057
0.000200
0.000230
0.000393
0.000274
0.000250
0.000254
0.001534
0.000355
0.000294
0.000213
0.000263
0.000315
0.000327
0.000232
0.000228
0.000255
0.000244
0.000263
0.000261
0.000254
0.000484
0.000498
0.001129
0.000279
0.000225
0.000262
0.000265
0.000259
0.000274
0.000259
0.000482
0.000056
0.000367
0.000193
0.000208
0.000239
0.000252
0.000236
0.000248
0.000229
0.000287
0.001660
0.000374
0.000231
0.000237
0.000252
0.000257
0.000242
0.000269
0.000273
0.000256
0.000315
0.000320
0.000519
0.000396
0.001367
0.000239
0.000261
0.000273
0.000256
0.000267
0.000280
0.000480
0.000056
0.000275
0.000240
0.000232
0.000247
0.000222
0.000243
0.000262
0.000256
0.000265
0.001584
0.000345
0.000255
0.000260
0.000261
0.000456
0.000271
0.000522
0.000379
0.000294
0.000339
0.000426
0.000448
0.001294
0.000266
0.000222
0.000261
0.001750
0.000426
0.000602
0.000320
0.000134
0.000056
0.000200
0.000229
0.000240
0.000238
0.000253
0.000268
0.000221
0.000555
0.000443
0.000414
0.000303
0.000202
0.000255
0.000262
0.000263
0.000261
0.000250
0.000250
0.000255
0.000275
0.000265
0.000392
0.001374
0.000228
0.000245
0.000278
0.001918
0.000375
0.000366
0.000359
0.000149
0.000057
0.000245
0.000241
0.000246
0.001586
0.000409
0.000215
0.000228
0.000262
0.000258
0.000288
0.000379
0.000363
0.000364
0.000272
0.000277
0.000555
0.000377
0.001200
0.000286
0.000215
0.000258
0.000264
0.000272
0.000426
0.000569
0.000504
0.000227
0.000271
0.000265
0.000285
0.000186
0.000057
0.000185
0.000238
0.000238
0.001585
0.000211
0.000231
0.000238
0.000255
0.000245
0.000252
0.000253
0.000269
0.000265
0.000277
0.000258
0.000477
0.000373
0.000296
0.001398
0.000232
0.000257
0.000269
0.000250
0.000266
0.000383
0.000480
0.000442
0.000271
0.000288
0.000223
0.000451
0.000057
0.000202
0.000241
0.000254
0.001520
0.000319
0.000222
0.000262
0.000247
0.000255
0.000255
0.000249
0.000259
0.000263
0.000244
0.000360
0.000577
0.001358
0.000751
0.000265
0.000342
0.000254
0.000227
0.000248
0.000272
0.001678
0.000804
0.000230
0.000263
0.000277
0.000288
0.000192
0.000056
0.000225
0.000219
0.000251
0.000244
0.000251
0.000251
0.000240
0.000253
0.000235
0.000239
0.000288
0.000280
0.000256
0.000243
0.000266
0.000250
0.000276
0.001587
0.000708
0.000371
0.000326
0.000215
0.000250
0.000286
0.000267
0.000258
0.000277
0.000258
0.001388
0.000398
0.000299
0.000056
0.000190
0.000234
0.000259
0.000246
0.000263
0.000231
0.000247
0.000254
0.000252
0.000268
0.000273
0.000425
0.000437
0.000328
0.000219
0.000246
0.000262
0.001390
0.000686
0.000475
0.000351
0.000262
0.000227
0.000255
0.000293
0.000229
0.000265
0.000259
0.001485
0.000400
0.000229
0.000056
0.000191
0.000233
0.000244
0.000248
0.000254
0.000243
0.000235
0.000248
0.000274
0.000256
0.000382
0.000342
0.000355
0.000218
0.000246
0.000245
0.000261
0.000274
0.001577
0.000635
0.000484
0.000269
0.000223
0.000264
0.000254
0.000294
0.000239
0.000287
0.000263
0.001396
0.000294
0.000056
0.000216
0.000220
0.000236
0.000252
0.000277
0.000222
0.000269
0.000294
0.000360
0.000430
0.000410
0.000329
0.000386
0.000216
0.000246
0.000252
0.000282
0.000271
0.000254
0.001882
0.000368
0.000243
0.000426
0.000269
0.000239
0.000282
0.000249
0.000254
0.000272
0.000273
0.000351
0.000056
0.000261
0.000256
0.000233
0.000241
0.000253
0.000250
0.000224
0.000237
0.000272
0.000248
0.000243
0.000237
0.000339
0.000480
0.000415
0.000411
0.000222
0.000265
0.000253
0.000246
0.000265
0.000302
0.001445
0.001055
0.000225
0.000246
0.000273
0.000256
0.000280
0.000257
0.000193
0.000057
0.000196
0.001340
0.000299
0.000224
0.000225
0.000251
0.000255
0.000236
0.000240
0.000252
0.000254
0.000261
0.000246
0.000360
0.000408
0.000500
0.000213
0.000244
0.000265
0.000270
0.000267
0.000229
0.000257
0.000267
0.001331
0.000677
0.000311
0.000379
0.000383
0.000396
0.000316
0.000056
0.000194
0.000281
0.001386
0.000248
0.000221
0.000244
0.000232
0.000255
0.000254
0.000255
0.000249
0.000249
0.000271
0.000542
0.000434
0.000251
0.000217
0.000280
0.000338
0.000207
0.000251
0.000271
0.000235
0.000273
0.000269
0.001539
0.000729
0.000308
0.000267
0.000275
0.000194
0.000056
0.000227
0.000236
0.000470
0.000314
0.001306
0.000248
0.000223
0.000244
0.000234
0.000242
0.000252
0.000254
0.000231
0.000234
0.000269
0.000250
0.000263
0.000237
0.000257
0.000251
0.000266
0.000265
0.000306
0.000338
0.000215
0.000264
0.000279
0.001437
0.000275
0.000237
0.000172
0.000056
0.000198
0.000234
0.000251
0.000268
0.000354
0.000382
0.000387
0.000267
0.001568
0.000230
0.000289
0.000497
0.000368
0.000253
0.000409
0.000233
0.000245
0.000263
0.000267
0.000271
0.000282
0.000266
0.000257
0.000266
0.000249
0.000424
0.000378
0.000347
0.001570
0.000229
0.000185
0.000058
0.000215
0.000241
0.000257
0.000246
0.000239
0.000244
0.000259
0.000275
0.000438
0.002051
0.000228
0.000240
0.000256
0.000256
0.000264
0.000254
0.000271
0.000245
0.000261
0.000444
0.000396
0.000420
0.001447
0.000254
0.000534
0.000228
0.001772
0.000241
0.000272
0.001515
0.000154
0.000057
0.000444
0.000290
0.000481
0.000243
0.000267
0.000218
0.000261
0.000271
0.000261
0.000223
0.000253
0.000337
0.000429
0.000334
0.000432
0.000243
0.000233
0.001562
0.000228
0.000565
0.001904
0.000291
0.000242
0.001541
0.002010
0.000739
0.000274
0.000266
0.000287
0.000437
0.000378
0.000055
0.000212
0.000246
0.000247
0.000251
0.001417
0.001729
0.001085
0.000210
0.000233
0.001573
0.001990
0.000211
0.000246
0.000412
0.000299
0.000421
0.000333
0.000501
0.000217
0.000244
0.000238
0.000258
0.000282
0.001580
0.001211
0.001434
0.000258
0.000310
0.000250
0.000345
0.000310
0.000056
0.000222
0.000226
0.000237
0.000240
0.000231
0.000243
0.000248
0.000252
0.000260
0.000245
0.000242
0.000326
0.000381
0.000491
0.000304
0.000253
0.000265
0.000258
0.000265
0.000269
0.000270
0.000247
0.001537
0.000461
0.002113
0.000223
0.000281
0.000441
0.000309
0.000398
0.000193
0.000057
0.000249
0.000355
0.000442
0.000311
0.000193
0.000235
0.000252
0.000238
0.000241
0.000248
0.000245
0.000263
0.000271
0.001595
0.001358
0.001229
0.000259
0.000248
0.000255
0.000267
0.000281
0.000279
0.000245
0.000249
0.002213
0.000248
0.000260
0.000287
0.000318
0.000307
0.000222
0.000055
0.000217
0.000461
0.000440
0.000354
0.000216
0.000224
0.000249
0.000268
0.001896
0.001433
0.000217
0.000350
0.000369
0.000409
0.000262
0.000216
0.000258
0.000271
0.000270
0.000263
0.000250
0.000263
0.000478
0.000230
0.000273
0.000268
0.000247
0.000276
0.000282
0.000249
0.000201
0.000055
0.000204
0.000248
0.000247
0.000238
0.000252
0.000296
0.001518
0.001414
0.001336
0.000254
0.000215
0.000247
0.000262
0.000260
0.000245
0.000254
0.000248
0.002109
0.000251
0.000245
0.000254
0.000259
0.000258
0.000268
0.000260
0.000262
0.000270
0.000254
0.000271
0.000256
0.000177
0.000055
0.000209
0.002680
0.001401
0.000215
0.000302
0.000300
0.000228
0.000270
0.000255
0.000246
0.000254
0.000241
0.000234
0.000251
0.000274
0.000253
0.000267
0.000275
0.000239
0.000274
0.000266
0.000281
0.000275
0.000264
0.000247
0.000244
0.000267
0.000270
0.000259
0.000270
0.000362
0.000072
0.001527
0.000256
0.001239
0.000228
0.000225
0.000240
0.000289
0.000228
0.000241
0.000316
0.000335
0.000409
0.000308
0.000217
0.000252
0.002148
0.000233
0.000249
0.000348
0.000418
0.000379
0.000305
0.000222
0.000259
0.000268
0.000247
0.000265
0.000279
0.000265
0.001617
0.001250
0.000058
0.000195
0.000225
0.000291
0.000431
0.000328
0.000287
0.000211
0.000231
0.000251
0.000261
0.000263
0.000248
0.000231
0.000264
0.000251
0.000242
0.000352
0.000581
0.000361
0.000250
0.000222
0.000273
0.000283
0.000252
0.000251
0.000246
0.000262
0.000279
0.000245
0.000331
0.000346
0.000055
0.001134
0.000205
0.000409
0.000398
0.000295
0.000228
0.000229
0.000242
0.000249
0.002322
0.000362
0.000380
0.000207
0.000380
0.000277
0.000262
0.000260
0.000258
0.000273
0.000226
0.000252
0.000280
0.000581
0.000472
0.001864
0.001344
0.000540
0.000493
0.000229
0.000282
0.000191
0.000058
0.000221
0.000359
0.000247
0.000237
0.000249
0.000228
0.000255
0.000255
0.000256
0.000248
0.000257
0.000225
0.000244
0.000261
0.000391
0.000512
0.001834
0.001372
0.000399
0.000455
0.000439
0.000246
0.000238
0.000265
0.002124
0.000567
0.000383
0.000229
0.000275
0.000282
0.000190
0.000057
0.000203
0.000247
0.000252
0.000247
0.000241
0.000374
0.000381
0.000277
0.000335
0.000237
0.000247
0.000245
0.000273
0.002111
0.000419
0.000329
0.000219
0.000246
0.000264
0.000259
0.000253
0.002458
0.000337
0.000231
0.000245
0.000259
0.000251
0.000273
0.000283
0.000279
0.000189
0.000055
0.000202
0.000350
0.000587
0.000321
0.000260
0.000223
0.000232
0.000252
0.000264
0.000250
0.001949
0.000395
0.000276
0.000296
0.000213
0.000271
0.000269
0.000238
0.002214
0.000448
0.000218
0.000267
0.000276
0.000247
0.000255
0.000260
0.000281
0.000256
0.000267
0.000253
0.000185
0.000064
0.000208
0.000234
0.000256
0.000217
0.000248
0.000258
0.000238
0.000247
0.000230
0.002182
0.000221
0.000288
0.000220
0.000426
0.000224
0.000256
0.000279
0.000287
0.000236
0.000270
0.001970
0.000281
0.000378
0.000373
0.000387
0.000397
0.000308
0.000248
0.000250
0.000277
0.000184
0.000056
0.000187
0.000231
0.000241
0.000247
0.000257
0.000315
0.000229
0.002304
0.000228
0.000246
0.000258
0.000259
0.000234
0.000252
0.000305
0.002122
0.000597
0.000228
0.000245
0.000247
0.000252
0.000264
0.000285
0.000263
0.000268
0.000255
0.000282
0.000257
0.000267
0.000259
0.000189
0.000056
0.001815
0.001448
0.000195
0.000228
0.000247
0.000254
0.000251
0.000274
0.000428
0.000372
0.002127
0.000259
0.000231
0.000335
0.000202
0.000506
0.000414
0.000297
0.000220
0.000250
0.000253
0.000267
0.000264
0.000225
0.000260
0.000278
0.000257
0.000261
0.000358
0.000609
0.000331
0.000056
0.000190
0.000249
0.000249
0.000288
0.000238
0.000245
0.000256
0.000242
0.001456
0.002134
0.000590
0.000287
0.000396
0.000684
0.000358
0.000240
0.000247
0.000249
0.000271
0.000257
0.000260
0.000240
0.000251
0.000269
0.001825
0.001458
0.000288
0.000272
0.000284
0.000278
0.000415
0.000057
0.001936
0.000220
0.000231
0.000230
0.000302
0.000392
0.000392
0.000321
0.000278
0.000218
0.000249
0.000255
0.000253
0.000256
0.000266
0.000259
0.000253
0.000264
0.001842
0.000243
0.000231
0.000254
0.000297
0.000259
0.000271
0.000256
0.001462
0.000327
0.000257
0.000255
0.000175
0.000056
0.000191
0.000245
0.000231
0.000249
0.000251
0.000246
0.000305
0.000358
0.000332
0.000403
0.000200
0.000244
0.000260
0.000336
0.000431
0.000310
0.000218
0.000254
0.000261
0.000356
0.000544
0.000377
0.000251
0.000252
0.000257
0.000256
0.000248
0.000274
0.000280
0.000262
0.000207
0.000057
0.001437
0.000426
0.000222
0.001960
0.000248
0.000444
0.000481
0.000255
0.000231
0.000243
0.000270
0.000240
0.000251
0.000244
0.000265
0.000259
0.000447
0.000270
0.000541
0.000280
0.000338
0.000220
0.000258
0.000268
0.000273
0.000270
0.000268
0.000266
0.000379
0.000458
0.001358
0.000057
0.000210
0.000223
0.002106
0.000351
0.000229
0.000259
0.000258
0.000252
0.000259
0.000265
0.000211
0.000254
0.000253
0.000277
0.000244
0.000422
0.000649
0.001757
0.000230
0.000253
0.000256
0.000268
0.000401
0.000402
0.001585
0.000281
0.000366
0.001922
0.000275
0.000245
0.000187
0.000056
0.000202
0.000231
0.000231
0.000244
0.000230
0.000251
0.000251
0.000302
0.000313
0.000275
0.000383
0.000360
0.000334
0.000300
0.000238
0.000283
0.000246
0.000242
0.000263
0.000255
0.000294
0.000293
0.000267
0.000259
0.000274
0.001506
0.000286
0.000398
0.002062
0.000224
0.000175
0.000057
0.000218
0.000234
0.000238
0.000250
0.000475
0.000212
0.000254
0.000424
0.000290
0.000322
0.000282
0.000208
0.000268
0.000263
0.000269
0.000329
0.000390
0.000466
0.000246
0.000403
0.000526
0.000578
0.001454
0.000234
0.000251
0.001973
0.000336
0.000244
0.000244
0.000303
0.000178
0.000056
0.000210
0.000251
0.000222
0.000246
0.000248
0.000289
0.000235
0.000269
0.000252
0.000255
0.001806
0.000340
0.000376
0.000371
0.000437
0.000361
0.000293
0.001498
0.000239
0.000279
0.002095
0.000583
0.000268
0.000231
0.000268
0.000265
0.000497
0.000233
0.000257
0.000280
0.000186
0.000055
0.000298
0.000312
0.000401
0.000301
0.000202
0.000241
0.000256
0.000256
0.000268
0.000292
0.000225
0.000249
0.000258
0.000272
0.000388
0.001460
0.000319
0.000212
0.000275
0.001914
0.000406
0.000239
0.000249
0.000265
0.000247
0.000277
0.000272
0.000263
0.000253
0.000258
0.000201
0.000057
0.000218
0.000392
0.002063
0.000256
0.000261
0.000212
0.000264
0.000314
0.000403
0.000437
0.001309
0.000385
0.000347
0.002082
0.000208
0.000239
0.000270
0.000277
0.000256
0.000245
0.000282
0.000292
0.000259
0.000324
0.000489
0.000424
0.000312
0.002200
0.000580
0.000419
0.000374
0.000058
0.000204
0.000233
0.000246
0.001968
0.000231
0.000221
0.000245
0.000240
0.000242
0.000260
0.000247
0.000258
0.000245
0.000327
0.000382
0.001485
0.000246
0.000249
0.000265
0.000260
0.000230
0.000254
0.000264
0.000269
0.000378
0.000386
0.000488
0.000241
0.001597
0.000275
0.000161
0.000057
0.000183
0.000229
0.000246
0.000235
0.000252
0.000249
0.000253
0.000252
0.000252
0.000364
0.000388
0.001398
0.000242
0.000226
0.000246
0.000260
0.000255
0.000258
0.000493
0.000359
0.000355
0.000428
0.000230
0.001568
0.000227
0.000261
0.000285
0.000279
0.000268
0.000272
0.000179
0.000056
0.000215
0.000223
0.000269
0.000269
0.000247
0.000245
0.000237
0.000240
0.000271
0.000224
0.000255
0.000256
0.000250
0.001483
0.000365
0.000215
0.000246
0.000268
0.000310
0.000281
0.000428
0.000225
0.000253
0.000241
0.000263
0.000265
0.000262
0.001411
0.000281
0.000229
0.000169
0.000056
0.000212
0.000233
0.000262
0.000256
0.000253
0.000236
0.000249
0.000265
0.000222
0.000259
0.000246
0.000260
0.000227
0.000274
0.000388
0.000371
0.000254
0.000249
0.001640
0.000237
0.000244
0.000261
0.000263
0.000475
0.000213
0.000364
0.000458
0.000250
0.000278
0.001590
0.000161
0.000058
0.000316
0.000348
0.000348
0.000315
0.000244
0.000218
0.000242
0.000273
0.000250
0.000239
0.000244
0.000244
0.001464
0.000311
0.000285
0.000226
0.000254
0.000247
0.000268
0.000264
0.000249
0.000244
0.000262
0.000267
0.000332
0.000261
0.000504
0.000367
0.000247
0.000260
0.000189
0.000055
0.000215
0.000254
0.000520
0.000240
0.000378
0.000282
0.000254
0.000244
0.000254
0.000256
0.000240
0.000227
0.000257
0.000247
0.001251
0.000297
0.000260
0.000232
0.000271
0.000270
0.000231
0.000269
0.000249
0.000264
0.000259
0.000257
0.000302
0.000734
0.000417
0.000244
0.000170
0.000056
0.000198
0.001556
0.000234
0.000348
0.000451
0.000387
0.000209
0.000261
0.000261
0.000264
0.000235
0.000257
0.000271
0.000270
0.000263
0.001513
0.000259
0.000289
0.000262
0.000260
0.000262
0.000248
0.000265
0.000267
0.000255
0.000263
0.000591
0.000205
0.000362
0.000244
0.000180
0.000058
0.000207
0.000246
0.000234
0.001610
0.000432
0.000341
0.000228
0.000242
0.000266
0.000254
0.000283
0.000253
0.000252
0.000257
0.000234
0.000270
0.000361
0.001356
0.000257
0.000238
0.001483
0.000315
0.000559
0.000410
0.000338
0.000234
0.000275
0.000460
0.000236
0.000256
0.000198
0.000056
0.000289
0.000218
0.000238
0.000259
0.000243
0.000273
0.000218
0.000257
0.000276
0.000221
0.000251
0.000257
0.000334
0.000486
0.001681
0.001470
0.000367
0.000534
0.000333
0.000228
0.000225
0.000260
0.000248
0.000274
0.000239
0.000273
0.000255
0.000272
0.001528
0.000330
0.000153
0.000056
0.000198
0.000348
0.000354
0.000326
0.000234
0.000219
0.000247
0.000405
0.000414
0.000321
0.002185
0.000320
0.000723
0.000464
0.000482
0.000268
0.000334
0.000397
0.000334
0.000271
0.000387
0.000245
0.001550
0.000531
0.000217
0.000261
0.000261
0.000245
0.000282
0.000253
0.000200
0.000056
0.000201
0.000249
0.000253
0.000254
0.000240
0.001661
0.000878
0.000995
0.000214
0.000235
0.000261
0.000255
0.000260
0.000260
0.000249
0.000257
0.000272
0.000245
0.000264
0.000277
0.001433
0.000316
0.000258
0.000226
0.000232
0.000259
0.000261
0.000285
0.000258
0.000288
0.001892
0.000056
0.000189
0.000224
0.001550
0.000899
0.000322
0.000374
0.000248
0.000223
0.000251
0.000251
0.000246
0.000251
0.000250
0.002035
0.000425
0.000232
0.000233
0.000254
0.000265
0.000254
0.000197
