0.000208
0.008659
0.012857
0.000377
0.000244
0.000297
0.000329
0.000242
0.000315
0.000296
0.000237
0.000339
0.000544
0.000461
0.000375
0.000362
0.000266
0.000338
0.000351
0.000422
0.000318
0.001935
0.000670
0.000281
0.000238
0.000312
0.000310
0.000315
0.000418
0.000456
0.000506
0.000213
0.000059
0.000228
0.000250
0.000263
0.000296
0.000240
0.000254
0.000288
0.000285
0.000261
0.000300
0.000404
0.000415
0.000321
0.000254
0.000376
0.000350
0.000363
0.000247
0.000265
0.001675
0.000323
0.000278
0.000433
0.000241
0.000283
0.000284
0.000285
0.000294
0.000275
0.000364
0.000371
0.000077
0.000233
0.000245
0.000263
0.000262
0.000250
0.000248
0.000264
0.000255
0.000287
0.001686
0.000215
0.000232
0.000271
0.000265
0.000281
0.000246
0.000258
0.000262
0.000350
0.001785
0.000251
0.000286
0.000439
0.000437
0.000387
0.000247
0.000249
0.000496
0.000570
0.000665
0.000202
0.000058
0.000202
0.000245
0.000252
0.000239
0.000295
0.000274
0.000274
0.000679
0.000274
0.000273
0.000254
0.000235
0.000239
0.000255
0.000251
0.000257
0.000242
0.000268
0.000305
0.000331
0.001652
0.000291
0.000244
0.000415
0.000276
0.000756
0.000641
0.000522
0.000352
0.000235
0.000205
0.000058
0.000218
0.000245
0.000296
0.000209
0.000289
0.000224
0.000312
0.000415
0.001487
0.000198
0.000252
0.000248
0.000254
0.000260
0.000262
0.000295
0.000321
0.000869
0.001261
0.000305
0.000237
0.000408
0.000250
0.000245
0.000256
0.000268
0.000259
0.000273
0.000260
0.000271
0.000190
0.000057
0.000211
0.000216
0.000244
0.000266
0.000238
0.000244
0.000242
0.000253
0.000239
0.000253
0.001619
0.000280
0.000230
0.000242
0.000251
0.000248
0.000249
0.000250
0.000251
0.000253
0.000321
0.001616
0.000291
0.000253
0.000427
0.000270
0.000246
0.000256
0.000265
0.000272
0.000197
0.000059
0.000214
0.000227
0.000251
0.000245
0.000259
0.000234
0.000259
0.000238
0.000266
0.000256
0.000245
0.000260
0.000258
0.000273
0.001652
0.000255
0.000307
0.000220
0.000243
0.000275
0.000270
0.000228
0.000254
0.000267
0.001775
0.000430
0.000437
0.000254
0.000229
0.000278
0.000196
0.000056
0.000222
0.000239
0.000242
0.000273
0.000259
0.000263
0.000472
0.000213
0.000415
0.000409
0.000207
0.000247
0.000253
0.000252
0.001709
0.000382
0.000362
0.000363
0.000321
0.000228
0.000270
0.000288
0.000285
0.001741
0.000506
0.000447
0.000253
0.000248
0.000239
0.000263
0.000181
0.000056
0.000201
0.000242
0.000254
0.000296
0.000424
0.000367
0.000329
0.000284
0.000220
0.000244
0.000257
0.000244
0.000258
0.001738
0.000452
0.000306
0.000217
0.000250
0.000272
0.000291
0.000242
0.000255
0.000277
0.001896
0.000299
0.000390
0.000248
0.000252
0.000268
0.000401
0.000326
0.000056
0.000260
0.000368
0.000356
0.000241
0.000258
0.000248
0.000251
0.000255
0.000243
0.000230
0.000238
0.000254
0.001603
0.000331
0.000278
0.000234
0.000257
0.000245
0.000252
0.000308
0.000361
0.000232
0.000229
0.001817
0.000245
0.000501
0.000235
0.000265
0.000259
0.000264
0.000260
0.000056
0.000430
0.000438
0.000615
0.000206
0.000235
0.000276
0.000225
0.000219
0.000262
0.000256
0.000252
0.001719
0.000233
0.000441
0.000371
0.000215
0.000239
0.000232
0.000250
0.000262
0.000367
0.001739
0.000227
0.000471
0.001912
0.000470
0.000361
0.000253
0.000247
0.000271
0.000181
0.000058
0.000183
0.000245
0.000244
0.000242
0.000379
0.001497
0.000286
0.000202
0.000250
0.000256
0.000246
0.000285
0.000218
0.000245
0.000333
0.000372
0.000610
0.000253
0.000231
0.000288
0.000263
0.000235
0.000244
0.000432
0.000433
0.000265
0.000428
0.000529
0.000367
0.000286
0.000205
0.000074
0.000203
0.000236
0.000254
0.000249
0.000239
0.000237
0.000259
0.000437
0.000407
0.001686
0.000225
0.000231
0.000244
0.000247
0.000260
0.000294
0.000448
0.000448
0.000360
0.000216
0.000261
0.000299
0.000302
0.000232
0.000274
0.000440
0.000338
0.000714
0.000381
0.000417
0.000177
0.000057
0.000213
0.000247
0.000266
0.000214
0.000239
0.000240
0.000245
0.000263
0.000227
0.000291
0.000344
0.000541
0.001307
0.000228
0.000228
0.000250
0.000259
0.000250
0.000244
0.000271
0.000271
0.000472
0.000394
0.000255
0.000263
0.000258
0.000262
0.000262
0.000267
0.000264
0.000384
0.000056
0.000193
0.000235
0.000245
0.000317
0.000467
0.000429
0.000235
0.000268
0.000245
0.000244
0.000264
0.000223
0.000326
0.000222
0.000237
0.000485
0.000428
0.001629
0.000279
0.000234
0.000258
0.000267
0.000257
0.000238
0.000269
0.000502
0.000471
0.000345
0.000351
0.000239
0.000202
0.000056
0.000221
0.000437
0.000231
0.000220
0.000285
0.000257
0.000439
0.000503
0.000196
0.000340
0.000224
0.000297
0.000245
0.000233
0.000528
0.000337
0.000214
0.000303
0.000449
0.001549
0.000264
0.000247
0.000521
0.000253
0.000284
0.000269
0.000251
0.000473
0.000455
0.000340
0.000279
0.000056
0.000211
0.000209
0.000241
0.000243
0.000416
0.000315
0.000285
0.000224
0.000367
0.000547
0.000372
0.000226
0.000228
0.000259
0.000239
0.000269
0.000250
0.000252
0.000233
0.000357
0.000290
0.000486
0.001708
0.000222
0.000261
0.000247
0.000286
0.000344
0.000485
0.000745
0.000326
0.000058
0.000211
0.000349
0.000288
0.000460
0.000340
0.000204
0.000261
0.000455
0.000481
0.000340
0.000208
0.000236
0.000237
0.000267
0.000269
0.000229
0.000256
0.000270
0.000272
0.000256
0.000295
0.000536
0.000574
0.001273
0.000323
0.000432
0.000420
0.000238
0.000669
0.000252
0.000244
0.000056
0.000223
0.000379
0.000276
0.000219
0.000224
0.000248
0.000408
0.000233
0.000264
0.000512
0.000296
0.000416
0.000234
0.000255
0.000265
0.000248
0.000351
0.000389
0.000349
0.000250
0.000242
0.000501
0.000538
0.001657
0.000232
0.000428
0.000312
0.000231
0.000416
0.000320
0.000302
0.000057
0.000204
0.000228
0.000249
0.000257
0.000246
0.000244
0.000242
0.000359
0.000420
0.000290
0.000422
0.000394
0.000281
0.000572
0.000250
0.000243
0.000270
0.000264
0.000224
0.000356
0.000228
0.000247
0.000266
0.000460
0.000448
0.001661
0.000262
0.000229
0.000265
0.000263
0.000186
0.000058
0.000291
0.000529
0.000267
0.000216
0.000236
0.000268
0.000239
0.000245
0.000270
0.000232
0.000225
0.000258
0.000501
0.000461
0.000451
0.000212
0.000223
0.000255
0.000335
0.000390
0.000385
0.000333
0.000361
0.000393
0.000246
0.000263
0.000257
0.000277
0.001805
0.000221
0.000216
0.000057
0.000198
0.000226
0.000259
0.000292
0.000333
0.000540
0.000319
0.000218
0.000284
0.000234
0.000249
0.000252
0.000518
0.000446
0.000489
0.000274
0.000259
0.000264
0.000422
0.000466
0.000361
0.000439
0.000433
0.000471
0.000245
0.000234
0.000267
0.000247
0.000264
0.001726
0.000420
0.000057
0.000327
0.000244
0.000225
0.000223
0.000259
0.000252
0.000230
0.000494
0.000382
0.000306
0.000293
0.000307
0.000359
0.000684
0.000260
0.000233
0.000253
0.000255
0.000248
0.000268
0.000277
0.000257
0.000245
0.000284
0.000321
0.000325
0.000455
0.000309
0.000243
0.000253
0.000191
0.000056
0.000445
0.000282
0.000466
0.000253
0.000206
0.000255
0.000245
0.000278
0.000220
0.000215
0.000254
0.000281
0.000300
0.000514
0.000393
0.000445
0.000320
0.000306
0.000383
0.000342
0.000313
0.000222
0.000243
0.000266
0.001740
0.000269
0.001710
0.001097
0.000249
0.000325
0.000167
0.000057
0.000209
0.000234
0.000235
0.000246
0.000266
0.000238
0.000256
0.000246
0.000260
0.000354
0.000378
0.000354
0.000335
0.000398
0.000266
0.000224
0.000255
0.000286
0.000243
0.000237
0.000258
0.000262
0.001805
0.000245
0.000256
0.000266
0.000278
0.001957
0.000219
0.000476
0.000255
0.000058
0.000230
0.000213
0.000243
0.000234
0.000273
0.000234
0.000245
0.000251
0.000288
0.000420
0.000493
0.000319
0.000370
0.000222
0.000244
0.000259
0.000324
0.000437
0.000365
0.000259
0.001769
0.000263
0.000246
0.000249
0.000264
0.000269
0.000244
0.000251
0.000325
0.000401
0.000328
0.000057
0.000214
0.000232
0.000222
0.000271
0.000239
0.000242
0.000258
0.000250
0.000246
0.000251
0.000244
0.000272
0.000446
0.000344
0.000326
0.000278
0.000457
0.000240
0.000245
0.000255
0.000260
0.000284
0.000252
0.000256
0.000278
0.001775
0.000255
0.000258
0.000261
0.000234
0.000203
0.000058
0.000375
0.000215
0.000240
0.000219
0.000240
0.000233
0.000242
0.000258
0.000245
0.000223
0.000234
0.000262
0.000259
0.000385
0.000403
0.000341
0.000303
0.000225
0.000246
0.000253
0.000275
0.000253
0.000247
0.000273
0.000241
0.000275
0.000321
0.001605
0.000282
0.000232
0.000195
0.000057
0.000220
0.000245
0.000238
0.000256
0.000350
0.000549
0.000204
0.000330
0.000216
0.000253
0.000267
0.000231
0.000247
0.000256
0.000258
0.000260
0.000242
0.000263
0.000247
0.000265
0.000266
0.000268
0.000247
0.000231
0.000248
0.000276
0.000279
0.000266
0.000252
0.000266
0.000194
0.000057
0.000204
0.000214
0.000255
0.000278
0.000235
0.000231
0.000245
0.000258
0.000280
0.000249
0.000229
0.000242
0.000261
0.000243
0.000291
0.000244
0.000253
0.000246
0.000299
0.000257
0.000272
0.000318
0.000269
0.000223
0.000304
0.000247
0.000271
0.000246
0.000303
0.000368
0.000685
0.000057
0.000218
0.000310
0.000208
0.000226
0.000238
0.000255
0.000239
0.000248
0.000252
0.000243
0.000270
0.000464
0.000387
0.000367
0.001570
0.000230
0.000496
0.000226
0.000303
0.000415
0.000440
0.000386
0.000224
0.000293
0.000231
0.000265
0.000281
0.000251
0.000311
0.000276
0.000170
0.000056
0.000299
0.000424
0.000328
0.000341
0.000205
0.000300
0.000205
0.000243
0.000237
0.000241
0.000260
0.000251
0.000232
0.000335
0.000319
0.000483
0.000389
0.001777
0.000249
0.000257
0.000485
0.000347
0.000316
0.000345
0.000315
0.000327
0.000297
0.000239
0.000222
0.000251
0.000203
0.000055
0.000206
0.000230
0.000247
0.000345
0.000320
0.000459
0.000300
0.000260
0.000247
0.000238
0.000230
0.000268
0.000264
0.000265
0.000241
0.000262
0.000471
0.000399
0.000247
0.000455
0.000237
0.001732
0.000335
0.000657
0.000332
0.000477
0.000327
0.000225
0.000260
0.000281
0.000427
0.000058
0.000199
0.000271
0.000215
0.000272
0.000420
0.000513
0.000338
0.000234
0.000226
0.000290
0.000265
0.000238
0.000253
0.000295
0.000308
0.000231
0.000350
0.000296
0.000419
0.000372
0.000493
0.001835
0.000279
0.000566
0.000419
0.000300
0.000223
0.000257
0.000293
0.000264
0.000200
0.000057
0.000210
0.000336
0.000363
0.000377
0.000364
0.000275
0.000375
0.000210
0.000240
0.000264
0.000271
0.000224
0.000260
0.000246
0.000243
0.000268
0.000345
0.000428
0.000418
0.000402
0.000261
0.000249
0.000251
0.001700
0.000511
0.000460
0.000663
0.000230
0.000264
0.000306
0.000162
0.000056
0.000200
0.000232
0.000351
0.000237
0.000304
0.000390
0.000367
0.000290
0.000250
0.000514
0.000235
0.000252
0.000259
0.000284
0.000267
0.000261
0.000229
0.000368
0.000503
0.000376
0.000259
0.000230
0.000260
0.000251
0.000257
0.000272
0.000232
0.000261
0.000265
0.000318
0.000176
0.000057
0.000395
0.000255
0.000216
0.000255
0.000255
0.000256
0.000238
0.000302
0.000229
0.000247
0.000276
0.000335
0.000458
0.000363
0.000392
0.000227
0.000222
0.000251
0.000243
0.000267
0.000286
0.000261
0.000240
0.000278
0.000261
0.000395
0.000384
0.000313
0.000361
0.000234
0.000177
0.000057
0.000190
0.000226
0.000283
0.000241
0.000241
0.000265
0.000265
0.000229
0.000496
0.000213
0.000256
0.000263
0.000234
0.000263
0.000283
0.000292
0.000237
0.000353
0.000220
0.000242
0.000264
0.000258
0.000254
0.000270
0.000274
0.000259
0.000266
0.000247
0.000264
0.000498
0.000162
0.000055
0.000204
0.000235
0.000251
0.000288
0.000211
0.000236
0.000371
0.000400
0.000235
0.000235
0.000252
0.000257
0.000236
0.000241
0.000575
0.001675
0.000234
0.000263
0.000284
0.000330
0.000425
0.000349
0.000392
0.000408
0.000341
0.000409
0.000267
0.000247
0.000269
0.000276
0.001387
0.000055
0.000397
0.000301
0.000261
0.000219
0.000237
0.000252
0.000236
0.000251
0.000241
0.000277
0.000245
0.000258
0.000254
0.000252
0.000627
0.001582
0.000241
0.000233
0.000240
0.000267
0.000242
0.000278
0.000540
0.000260
0.000228
0.000352
0.000221
0.000271
0.000298
0.000237
0.000194
0.000057
0.001242
0.000568
0.000280
0.000271
0.000222
0.000224
0.000241
0.000236
0.000490
0.000234
0.000222
0.000253
0.000391
0.000553
0.000311
0.000345
0.000274
0.000225
0.000328
0.000352
0.000273
0.000255
0.000270
0.000245
0.000265
0.000717
0.000455
0.000225
0.000256
0.000265
0.000173
0.000057
0.000223
0.000214
0.000239
0.000246
0.001456
0.000328
0.000208
0.000254
0.000264
0.000228
0.000252
0.000257
0.000239
0.000268
0.000267
0.000310
0.000608
0.000540
0.000179
0.001750
0.000247
0.000297
0.000324
0.000481
0.000548
0.000317
0.000250
0.000251
0.000278
0.000254
0.000199
0.000058
0.000207
0.000251
0.000236
0.000326
0.001244
0.000239
0.000284
0.000228
0.000241
0.000231
0.000240
0.000256
0.000278
0.000262
0.000233
0.000319
0.000527
0.000336
0.000339
0.000238
0.000266
0.000270
0.000247
0.000229
0.000291
0.000266
0.000243
0.000274
0.000289
0.000321
0.000635
0.000057
0.000215
0.000253
0.000235
0.000261
0.000265
0.000241
0.000228
0.000269
0.000285
0.000262
0.001407
0.000224
0.000246
0.000253
0.000240
0.000251
0.000288
0.000237
0.000289
0.000237
0.000345
0.000414
0.000541
0.000300
0.000238
0.000270
0.001754
0.000266
0.000287
0.000312
0.000393
0.000057
0.000223
0.000396
0.000452
0.000504
0.000513
0.000566
0.001469
0.000422
0.000516
0.000652
0.000556
0.000855
0.000344
0.000619
0.000587
0.001917
0.000577
0.000225
0.000394
0.000319
0.000226
0.000279
0.000285
0.000286
0.000245
0.000289
0.000292
0.000286
0.000259
0.000286
0.001362
0.000056
0.000217
0.000223
0.000262
0.000222
0.000262
0.000250
0.000238
0.000243
0.000246
0.000244
0.000250
0.000241
0.000258
0.000260
0.000264
0.000270
0.001793
0.000275
0.000262
0.000250
0.000254
0.000264
0.000261
0.000266
0.000409
0.000417
0.000349
0.000250
0.000260
0.000281
0.000215
0.000056
0.000202
0.001348
0.000335
0.000274
0.000250
0.000252
0.000228
0.000238
0.000233
0.000238
0.000220
0.000246
0.000251
0.000511
0.000361
0.000307
0.000245
0.001807
0.000360
0.000239
0.000242
0.000270
0.000249
0.000271
0.000272
0.000278
0.000271
0.000255
0.000285
0.000331
0.000177
0.000056
0.000200
0.000239
0.000252
0.001435
0.000221
0.000249
0.000258
0.000242
0.000239
0.000280
0.000235
0.000243
0.000250
0.000281
0.000230
0.000259
0.000261
0.000269
0.000265
0.000257
0.000263
0.001766
0.000280
0.001745
0.000270
0.000260
0.000260
0.000269
0.000271
0.000273
0.000200
0.000057
0.000213
0.000240
0.001334
0.000230
0.000265
0.000239
0.000262
0.000251
0.000246
0.000245
0.000260
0.000253
0.000251
0.000259
0.000253
0.000268
0.000260
0.000282
0.000290
0.000236
0.001876
0.000241
0.001824
0.000240
0.000267
0.000284
0.000222
0.000256
0.000248
0.000268
0.000200
0.000055
0.001428
0.000230
0.000249
0.000228
0.000241
0.000235
0.000373
0.000290
0.000243
0.000241
0.000255
0.000257
0.000291
0.000372
0.000352
0.000265
0.000278
0.000239
0.000262
0.000269
0.000258
0.000334
0.000225
0.000260
0.000272
0.000272
0.000275
0.000321
0.000670
0.000349
0.000195
0.000056
0.000217
0.000249
0.000262
0.000305
0.000358
0.000263
0.001717
0.000279
0.000281
0.000267
0.000256
0.000273
0.000263
0.000282
0.000286
0.000306
0.000321
0.000611
0.000363
0.000277
0.000281
0.000275
0.000264
0.000269
0.000310
0.000271
0.000275
0.000248
0.000260
0.000417
0.000348
0.000056
0.000250
0.000470
0.000260
0.000263
0.000246
0.000224
0.000230
0.000255
0.000248
0.001526
0.000252
0.000219
0.000239
0.000244
0.000244
0.000289
0.000277
0.000244
0.000256
0.000266
0.000264
0.000445
0.000580
0.000220
0.000248
0.000286
0.000271
0.000266
0.000231
0.000310
0.000166
0.000057
0.000185
0.000256
0.000319
0.000404
0.000407
0.000241
0.000218
0.000248
0.000251
0.000251
0.000234
0.000251
0.000257
0.000268
0.000238
0.000263
0.000434
0.001160
0.000250
0.000226
0.000285
0.000263
0.000411
0.000349
0.000242
0.000574
0.000364
0.000311
0.000393
0.000234
0.000180
0.000056
0.000214
0.000264
0.000246
0.000260
0.000257
0.000242
0.000351
0.000416
0.000427
0.000285
0.000354
0.000389
0.000397
0.000379
0.000240
0.000230
0.000252
0.000287
0.000366
0.000520
0.001210
0.000225
0.000268
0.000269
0.000243
0.000232
0.000265
0.000352
0.000391
0.000529
0.000158
0.000057
0.000208
0.000236
0.000258
0.000241
0.000240
0.000246
0.000260
0.000246
0.000336
0.000396
0.000366
0.000405
0.000196
0.000233
0.000253
0.000253
0.000246
0.000264
0.000268
0.000272
0.000433
0.000282
0.000369
0.000388
0.000321
0.000240
0.000273
0.000261
0.000259
0.000340
0.000168
0.000057
0.000328
0.000316
0.000350
0.000432
0.000333
0.000381
0.000234
0.000239
0.000253
0.000302
0.000225
0.000264
0.000234
0.000256
0.000240
0.000240
0.000255
0.000455
0.000447
0.000304
0.000242
0.000249
0.000251
0.000242
0.000267
0.000279
0.000268
0.000276
0.000263
0.000274
0.000285
0.000057
0.000268
0.000304
0.000238
0.000271
0.000219
0.000245
0.000248
0.000254
0.000264
0.000258
0.000247
0.000257
0.000358
0.000402
0.000454
0.000273
0.000250
0.000234
0.000263
0.000258
0.000259
0.000258
0.000264
0.000262
0.000274
0.000355
0.000369
0.000593
0.000417
0.000243
0.000178
0.000056
0.000368
0.000219
0.000213
0.000250
0.000251
0.000246
0.000236
0.000253
0.000252
0.000265
0.000217
0.000245
0.000272
0.000229
0.000245
0.000258
0.000256
0.000264
0.000298
0.000239
0.000255
0.000285
0.000241
0.000261
0.000269
0.000234
0.000266
0.000285
0.000253
0.000280
0.000200
0.000057
0.000188
0.000236
0.000244
0.000251
0.000231
0.000278
0.000237
0.000242
0.000261
0.000275
0.000227
0.000236
0.000262
0.000389
0.000262
0.000294
0.000241
0.000264
0.000256
0.000284
0.000272
0.000227
0.000246
0.000255
0.000274
0.000270
0.000241
0.000262
0.000274
0.000260
0.000209
0.000056
0.000212
0.000359
0.000371
0.000282
0.000291
0.000258
0.000268
0.000257
0.000218
0.000247
0.000280
0.000229
0.000255
0.000232
0.000257
0.000285
0.000240
0.000268
0.000262
0.000245
0.000278
0.000266
0.000276
0.000259
0.000293
0.000226
0.000257
0.000269
0.000267
0.000264
0.000198
0.000056
0.000190
0.000229
0.000266
0.000261
0.000250
0.000447
0.000212
0.000272
0.000289
0.000391
0.000510
0.000282
0.000227
0.000252
0.000274
0.000268
0.000235
0.000266
0.000258
0.000271
0.000266
0.000257
0.000261
0.000244
0.000600
0.000436
0.000301
0.000299
0.000281
0.000243
0.000194
0.000056
0.000216
0.000228
0.000248
0.000248
0.000315
0.000687
0.000306
0.000364
0.000206
0.000249
0.000251
0.000253
0.000251
0.000250
0.000255
0.000275
0.000267
0.000245
0.000689
0.000315
0.000324
0.000233
0.000258
0.000295
0.000272
0.000251
0.000264
0.000287
0.000229
0.000328
0.000358
0.000055
0.000234
0.000237
0.000256
0.000219
0.000255
0.000270
0.000212
0.000251
0.000242
0.000257
0.000249
0.000249
0.000244
0.000451
0.000636
0.000284
0.000220
0.000267
0.000274
0.000230
0.000267
0.000286
0.000471
0.000220
0.000264
0.000636
0.000410
0.000439
0.000265
0.000255
0.000187
0.000057
0.000198
0.000238
0.000237
0.000249
0.000254
0.000258
0.000377
0.000350
0.000644
0.000381
0.000212
0.000267
0.000270
0.000280
0.000255
0.000248
0.000239
0.000250
0.000264
0.000410
0.000293
0.000671
0.000367
0.000250
0.000361
0.000377
0.000490
0.000239
0.000265
0.000475
0.000330
0.000058
0.000269
0.000227
0.000437
0.000216
0.000243
0.000252
0.000260
0.000259
0.000229
0.000242
0.000329
0.000344
0.000354
0.000342
0.000241
0.000243
0.000266
0.000248
0.000281
0.000258
0.000296
0.000232
0.000249
0.000279
0.000329
0.000456
0.000501
0.000231
0.000259
0.000281
0.000189
0.000056
0.000224
0.000258
0.000222
0.000251
0.000245
0.000324
0.000284
0.000481
0.000372
0.000266
0.000377
0.000233
0.000246
0.000264
0.000251
0.000240
0.000251
0.000267
0.000359
0.000346
0.000499
0.000313
0.000465
0.000270
0.000380
0.000433
0.000370
0.000243
0.000257
0.000349
0.000346
0.000056
0.000219
0.000269
0.000223
0.000256
0.000279
0.000233
0.000269
0.000241
0.000257
0.000237
0.000246
0.000422
0.000424
0.000394
0.000304
0.000228
0.000267
0.000265
0.000264
0.000236
0.000255
0.000250
0.000266
0.000273
0.000280
0.000311
0.000603
0.000372
0.000262
0.000262
0.000198
0.000056
0.000212
0.000240
0.000296
0.000228
0.000243
0.000381
0.000616
0.000360
0.000476
0.000533
0.000251
0.000233
0.000229
0.000260
0.000250
0.000266
0.000274
0.000274
0.000478
0.000625
0.001305
0.000312
0.000271
0.000271
0.000275
0.000256
0.000416
0.000411
0.000381
0.000261
0.000205
0.000055
0.000223
0.000232
0.000244
0.000286
0.000201
0.000257
0.000302
0.000233
0.000259
0.000303
0.000329
0.000381
0.000266
0.000341
0.000399
0.000343
0.000243
0.000253
0.000282
0.000238
0.000246
0.000249
0.000316
0.000215
0.000324
0.000439
0.000475
0.000237
0.000254
0.000270
0.000188
0.000057
0.000253
0.000225
0.000254
0.000255
0.000241
0.000237
0.000473
0.000215
0.000233
0.000269
0.000230
0.000254
0.000261
0.000255
0.000250
0.000285
0.000246
0.000289
0.000257
0.000248
0.000278
0.000273
0.000283
0.000252
0.000264
0.000279
0.000266
0.000267
0.000262
0.000273
0.000177
0.000057
0.000234
0.000240
0.000308
0.000551
0.000252
0.000233
0.000240
0.000246
0.000262
0.000247
0.000249
0.000255
0.000266
0.000263
0.000228
0.000251
0.000263
0.000251
0.000289
0.000448
0.000413
0.000313
0.000228
0.000264
0.000269
0.000253
0.000266
0.000255
0.000262
0.000279
0.000203
0.000057
0.000356
0.000445
0.000288
0.000200
0.000253
0.000259
0.000406
0.000226
0.000227
0.000258
0.000249
0.000291
0.000424
0.000360
0.001877
0.000253
0.000240
0.000253
0.000276
0.000241
0.000327
0.000574
0.000535
0.000258
0.000233
0.000257
0.000276
0.000432
0.000275
0.000276
0.000173
0.000057
0.000331
0.000315
0.000298
0.000302
0.000498
0.000204
0.000243
0.000245
0.000246
0.000249
0.000259
0.000261
0.000246
0.000320
0.000508
0.000372
0.000222
0.000250
0.000261
0.000259
0.000262
0.000318
0.000234
0.000279
0.000271
0.000536
0.000496
0.000383
0.000412
0.000228
0.000207
0.000056
0.000184
0.000233
0.000257
0.000237
0.000242
0.000252
0.000268
0.000323
0.000314
0.000412
0.000375
0.000336
0.000234
0.000255
0.000261
0.000286
0.000298
0.000237
0.000276
0.000278
0.000233
0.000273
0.000604
0.000254
0.000308
0.000247
0.000263
0.000436
0.000419
0.000324
0.000163
0.000056
0.000224
0.000284
0.000317
0.000391
0.000373
0.000231
0.000219
0.000256
0.000264
0.000260
0.000252
0.000249
0.000233
0.000260
0.000274
0.000431
0.000257
0.000351
0.000289
0.000353
0.000484
0.000226
0.000290
0.000268
0.000300
0.000287
0.000249
0.000275
0.000471
0.000544
0.000164
0.000055
0.000202
0.000225
0.000251
0.000253
0.000242
0.000480
0.000218
0.000249
0.000264
0.000300
0.000569
0.000535
0.000220
0.000232
0.000242
0.000251
0.000258
0.000272
0.000238
0.000245
0.000291
0.000242
0.000403
0.000372
0.000359
0.000407
0.000304
0.000302
0.000322
0.000241
0.000189
0.000056
0.000186
0.000238
0.000394
0.000373
0.000315
0.000270
0.000261
0.000249
0.000225
0.000258
0.000254
0.000261
0.000264
0.000237
0.000249
0.000266
0.000243
0.000245
0.000307
0.000380
0.000602
0.000268
0.000232
0.000243
0.000280
0.000279
0.000257
0.000259
0.000270
0.000260
0.000194
0.000057
0.000295
0.000331
0.000457
0.000236
0.000222
0.000252
0.000314
0.000452
0.000287
0.000230
0.000248
0.000257
0.000287
0.000507
0.000345
0.000296
0.000229
0.000237
0.000251
0.000263
0.000270
0.000262
0.000264
0.000271
0.000266
0.000328
0.000423
0.000333
0.000340
0.000226
0.000199
0.000056
0.000215
0.000239
0.000247
0.000255
0.000252
0.000261
0.000232
0.000272
0.000248
0.000248
0.000257
0.000233
0.000289
0.001435
0.000223
0.000259
0.000258
0.000251
0.000271
0.000276
0.000262
0.000240
0.000276
0.000253
0.000264
0.000280
0.000263
0.000272
0.000257
0.000273
0.000192
0.000057
0.000216
0.000227
0.000255
0.000267
0.000219
0.000244
0.000257
0.000257
0.000228
0.000256
0.000247
0.000261
0.000257
0.000251
0.000256
0.000259
0.000251
0.000254
0.000272
0.000271
0.000239
0.000262
0.000253
0.000242
0.001290
0.000283
0.000646
0.000400
0.000296
0.000243
0.000192
0.000056
0.000202
0.000233
0.000244
0.000253
0.000409
0.000246
0.000236
0.000240
0.000259
0.000435
0.000381
0.000336
0.000224
0.000241
0.000258
0.000264
0.000253
0.000266
0.000245
0.000256
0.000263
0.000253
0.000323
0.000381
0.000510
0.000433
0.000229
0.000258
0.001365
0.000246
0.000190
0.000056
0.000336
0.000386
0.000352
0.000243
0.000229
0.000234
0.000222
0.000256
0.000260
0.000255
0.000243
0.000286
0.000272
0.000470
0.000381
0.000318
0.000359
0.000210
0.000254
0.000257
0.000270
0.000285
0.000241
0.000267
0.000270
0.000266
0.000386
0.000525
0.000352
0.000387
0.000118
0.000058
0.000203
0.000240
0.001255
0.000473
0.000307
0.000398
0.000401
0.000476
0.000263
0.000348
0.000215
0.000243
0.000257
0.000254
0.000245
0.000269
0.000368
0.000516
0.000342
0.000374
0.000266
0.000238
0.000267
0.000507
0.000223
0.000267
0.000256
0.000274
0.000296
0.000614
0.000244
0.000057
0.000379
0.000309
0.000240
0.001387
0.000475
0.000372
0.000345
0.000219
0.000246
0.000259
0.000221
0.000242
0.000249
0.000263
0.000249
0.000266
0.000235
0.000393
0.000327
0.000407
0.000380
0.000250
0.000253
0.000262
0.000257
0.000277
0.000268
0.000242
0.000260
0.000278
0.000225
0.000057
0.000192
0.000332
0.000216
0.000243
0.000251
0.000266
0.000234
0.000244
0.000229
0.000245
0.001583
0.000267
0.000279
0.000246
0.000239
0.000258
0.000272
0.000256
0.000245
0.000299
0.000242
0.000247
0.000287
0.000445
0.000341
0.000492
0.000223
0.000266
0.000275
0.000302
0.000155
0.000057
0.000211
0.000417
0.000220
0.000234
0.000367
0.000472
0.000327
0.000312
0.000459
0.000202
0.000237
0.000252
0.000259
0.000263
0.000257
0.001477
0.000305
0.000295
0.000227
0.000273
0.000297
0.000255
0.000232
0.000246
0.000270
0.000283
0.000438
0.000439
0.000301
0.000273
0.000150
0.000056
0.000200
0.000239
0.000255
0.000258
0.000213
0.000254
0.000240
0.000249
0.000359
0.000348
0.000410
0.000286
0.000220
0.000254
0.000242
0.000284
0.000265
0.000259
0.000268
0.000227
0.000262
0.000354
0.001204
0.000250
0.000283
0.000235
0.000257
0.000265
0.000262
0.000267
0.000183
0.000057
0.000210
0.000333
0.000397
0.000311
0.000281
0.000215
0.000259
0.000286
0.000238
0.000268
0.000230
0.000272
0.000244
0.000246
0.000276
0.000245
0.000264
0.000275
0.000261
0.000244
0.000255
0.000274
0.000266
0.000279
0.000286
0.000272
0.000264
0.000264
0.000252
0.000456
0.001351
0.000056
0.000218
0.000253
0.000221
0.000263
0.000234
0.000259
0.000245
0.000232
0.000247
0.000249
0.000303
0.000230
0.000244
0.000244
0.000275
0.000242
0.001712
0.000247
0.000243
0.000264
0.000250
0.000259
0.000275
0.000253
0.000304
0.000231
0.000264
0.000285
0.000265
0.000255
0.000222
0.000056
0.000377
0.000337
0.001227
0.000240
0.000216
0.000254
0.000256
0.000249
0.000272
0.000239
0.000234
0.000359
0.000376
0.000446
0.000271
0.000237
0.000248
0.000259
0.000255
0.000262
0.000244
0.000281
0.000258
0.000300
0.000246
0.000395
0.000373
0.000354
0.000326
0.000234
0.000194
0.000056
0.000187
0.000243
0.000243
0.000245
0.000278
0.000201
0.000239
0.000291
0.000397
0.001319
0.000270
0.000220
0.000245
0.000266
0.000269
0.000280
0.000236
0.000249
0.000328
0.000492
0.000319
0.000231
0.000245
0.000243
0.000294
0.000268
0.000263
0.000295
0.000273
0.000273
0.000192
0.000057
0.000237
0.000453
0.000361
0.000219
0.000234
0.000238
0.000248
0.000275
0.000262
0.000249
0.000228
0.000253
0.000449
0.000500
0.000477
0.001442
0.000253
0.000264
0.000364
0.000346
0.000474
0.000485
0.000584
0.000190
0.000240
0.000265
0.000270
0.000277
0.000259
0.000272
0.000196
0.000056
0.000205
0.000321
0.000492
0.000349
0.000378
0.000237
0.000252
0.000238
0.000237
0.000276
0.000235
0.000266
0.000274
0.000230
0.000260
0.000314
0.000382
0.000426
0.001366
0.000338
0.000220
0.000255
0.000253
0.000264
0.000467
0.000419
0.000384
0.000272
0.000265
0.000274
0.000185
0.000056
0.000200
0.000241
0.000244
0.000270
0.000222
0.000408
0.000341
0.000362
0.000376
0.000215
0.000251
0.000251
0.000271
0.000289
0.000236
0.000260
0.000260
0.000259
0.000286
0.000264
0.000475
0.000401
0.000329
0.001387
0.000371
0.000242
0.000265
0.000465
0.000476
0.000270
0.000313
0.000056
0.000204
0.000230
0.000246
0.000251
0.000251
0.000254
0.001687
0.000243
0.000218
0.000230
0.000260
0.000248
0.000256
0.000319
0.000328
0.000291
0.000278
0.000343
0.000477
0.000429
0.000255
0.000282
0.000239
0.000252
0.001514
0.000391
0.000353
0.000434
0.000347
0.000303
0.000163
0.000056
0.000201
0.000248
0.000258
0.000257
0.000238
0.000275
0.001713
0.000204
0.000260
0.000259
0.000332
0.000400
0.001452
0.000361
0.000392
0.000247
0.000246
0.000237
0.000260
0.000284
0.001551
0.000598
0.000333
0.000310
0.000235
0.000247
0.000266
0.000280
0.000238
0.000255
0.000203
0.000055
0.000211
0.000241
0.000269
0.000250
0.000261
0.000274
0.000273
0.000257
0.000257
0.000247
0.000258
0.000244
0.000293
0.000239
0.000270
0.001479
0.000284
0.000229
0.000265
0.000275
0.000273
0.000253
0.000433
0.001269
0.000278
0.000236
0.000266
0.000258
0.000399
0.000246
0.000200
0.000056
0.000221
0.000256
0.000219
0.000243
0.000243
0.000230
0.000231
0.001687
0.000259
0.000228
0.000356
0.000288
0.000214
0.000219
0.000252
0.001393
0.000237
0.000258
0.000260
0.000256
0.000255
0.000346
0.000298
0.001300
0.000290
0.000228
0.000252
0.000272
0.001388
0.000283
0.000233
0.000057
0.000222
0.000321
0.000216
0.000242
0.000266
0.000224
0.000284
0.000251
0.000264
0.000250
0.000257
0.000261
0.000266
0.000233
0.000308
0.001527
0.000235
0.000261
0.000249
0.000245
0.000310
0.000241
0.000249
0.001522
0.000338
0.000233
0.000266
0.001277
0.000263
0.000250
0.000275
0.000058
0.000188
0.000425
0.000305
0.000214
0.000235
0.000246
0.000260
0.000257
0.000265
0.000267
0.000238
0.000254
0.000260
0.000291
0.000389
0.001230
0.000230
0.000250
0.000269
0.000275
0.000231
0.000241
0.000247
0.000421
0.001214
0.000233
0.000242
0.000252
0.000260
0.001343
0.000378
0.000057
0.000326
0.000237
0.000221
0.000233
0.000238
0.000252
0.000250
0.000247
0.000296
0.000233
0.000242
0.000250
0.000307
0.000253
0.000449
0.001452
0.000218
0.000254
0.000301
0.000512
0.000279
0.001481
0.000335
0.000237
0.000234
0.000256
0.000261
0.001299
0.000345
0.000467
0.000378
0.000056
0.000238
0.000250
0.000251
0.000261
0.000274
0.000239
0.000268
0.000260
0.000244
0.000291
0.000327
0.000446
0.001307
0.000238
0.000280
0.000262
0.000294
0.000204
0.000249
0.000254
0.000395
0.001172
0.000257
0.000245
0.000252
0.000249
0.001669
0.000248
0.000502
0.000219
0.000195
0.000056
0.000177
0.000232
0.000250
0.000246
0.000242
0.000268
0.000245
0.000325
0.000577
0.000273
0.000266
0.001491
0.000220
0.000233
0.000268
0.000265
0.000266
0.000272
0.001695
0.000244
0.000389
0.000344
0.001303
0.000394
0.000250
0.000335
0.000252
0.000255
0.000266
0.000268
0.000195
0.000056
0.000209
0.000236
0.000321
0.000266
0.000310
0.000579
0.000242
0.000294
0.001463
0.000229
0.000393
0.000263
0.000349
0.000224
0.000372
0.001291
0.000266
0.000244
0.000252
0.000262
0.001582
0.000351
0.000235
0.000287
0.000270
0.000237
0.000455
0.000328
0.000247
0.000246
0.000269
0.000056
0.000216
0.000361
0.000337
0.000251
0.000229
0.001514
0.000223
0.000252
0.000268
0.000278
0.000258
0.000251
0.000262
0.001517
0.000251
0.000234
0.000430
0.001193
0.000400
0.000444
0.000334
0.000247
0.000237
0.000254
0.000295
0.000220
0.000456
0.000226
0.000264
0.000276
0.000201
0.000056
0.000220
0.000278
0.000397
0.000270
0.001329
0.000271
0.000337
0.000244
0.000206
0.000245
0.000249
0.000364
0.001446
0.000258
0.000224
0.000254
0.001392
0.000360
0.000324
0.000521
0.000302
0.000248
0.000236
0.000254
0.000266
0.000282
0.000256
0.000286
0.000253
0.000245
0.000232
0.000056
0.000244
0.000519
0.001286
0.000209
0.000276
0.000306
0.000215
0.000243
0.000274
0.000372
0.001387
0.000221
0.000257
0.000268
0.000253
0.001259
0.000693
0.000298
0.000324
0.000409
0.000310
0.000241
0.000270
0.000257
0.000272
0.000299
0.000264
0.000340
0.000469
0.000349
0.001370
0.000056
0.000223
0.000227
0.000240
0.000232
0.000293
0.000371
0.000479
0.001285
0.000251
0.000234
0.000255
0.001512
0.000338
0.000354
0.000214
0.000412
0.000252
0.000245
0.000257
0.000288
0.000261
0.000244
0.000280
0.000253
0.000259
0.000328
0.000421
0.000461
0.001479
0.000246
0.000181
0.000057
0.000220
0.000252
0.000392
0.001495
0.000308
0.000238
0.000230
0.000256
0.000249
0.000249
0.000266
0.000322
0.000334
0.000493
0.000288
0.000247
0.000248
0.000269
0.000248
0.000307
0.000231
0.000265
0.000255
0.000269
0.000261
0.000502
0.000434
0.000258
0.000328
0.001455
0.000142
0.000057
0.000209
0.000241
0.000369
0.000387
0.000320
0.000294
0.000327
0.000334
0.000294
0.000253
0.000237
0.000261
0.000251
0.000308
0.000249
0.000307
0.000552
0.000292
0.000293
0.000394
0.000269
0.000405
0.000246
0.000243
0.000248
0.000259
0.000253
0.000313
0.000475
0.000380
0.000259
0.000056
0.000197
0.001409
0.000219
0.000337
0.000407
0.000452
0.000386
0.000296
0.000214
0.000238
0.000261
0.000242
0.000287
0.000277
0.000234
0.000256
0.000260
0.001274
0.000348
0.000250
0.000257
0.000272
0.000268
0.000279
0.000280
0.000247
0.000272
0.000251
0.000390
0.000373
0.000290
0.000056
0.000206
0.000246
0.000234
0.001535
0.000295
0.000236
0.000248
0.000232
0.000228
0.000242
0.000262
0.000281
0.000241
0.000253
0.000294
0.000226
0.000249
0.000268
0.000250
0.000258
0.001444
0.000231
0.000248
0.000267
0.000255
0.000255
0.000264
0.000258
0.000281
0.000493
0.000341
0.000056
0.000205
0.000224
0.000403
0.000281
0.000236
0.000259
0.001544
0.000396
0.000227
0.000225
0.000259
0.000322
0.000323
0.000227
0.000229
0.000248
0.000248
0.000268
0.000256
0.000252
0.000636
0.000385
0.001098
0.000273
0.000231
0.000262
0.000278
0.000247
0.000305
0.000230
0.000380
0.000057
0.000245
0.000331
0.000214
0.000233
0.000258
0.000233
0.000244
0.000236
0.000282
0.001651
0.000327
0.000288
0.000241
0.000248
0.000257
0.000241
0.000261
0.000275
0.000266
0.000311
0.000398
0.000534
0.000296
0.001385
0.000229
0.000280
0.000250
0.000262
0.000268
0.000289
0.000494
0.000057
0.000246
0.000260
0.000224
0.000231
0.000221
0.000243
0.000264
0.000279
0.000252
0.001592
0.000343
0.000260
0.000254
0.000239
0.000470
0.000253
0.000548
0.000370
0.000272
0.000267
0.000486
0.000473
0.001294
0.000259
0.000236
0.000252
0.001698
0.000482
0.000652
0.000260
0.000154
0.000058
0.000202
0.000230
0.000238
0.000236
0.000281
0.000240
0.000229
0.000538
0.000580
0.000300
0.000290
0.000212
0.000242
0.000263
0.000278
0.000277
0.000232
0.000243
0.000250
0.000285
0.000446
0.000316
0.001261
0.000222
0.000260
0.000267
0.001951
0.000324
0.000400
0.000330
0.000163
0.000057
0.000201
0.000232
0.000244
0.001695
0.000290
0.000221
0.000231
0.000262
0.000254
0.000276
0.000375
0.000368
0.000369
0.000277
0.000438
0.000431
0.000336
0.001203
0.000277
0.000239
0.000246
0.000261
0.000274
0.000448
0.000606
0.000421
0.000256
0.000289
0.000248
0.000279
0.000193
0.000056
0.000201
0.000237
0.000236
0.001578
0.000221
0.000230
0.000257
0.000234
0.000245
0.000254
0.000250
0.000271
0.000268
0.000274
0.000249
0.000416
0.000436
0.000299
0.001406
0.000239
0.000246
0.000260
0.000261
0.000272
0.000357
0.000542
0.000398
0.000260
0.000298
0.000247
0.000424
0.000056
0.000220
0.000234
0.000270
0.001534
0.000292
0.000220
0.000268
0.000255
0.000241
0.000257
0.000252
0.000279
0.000235
0.000266
0.000394
0.000617
0.001274
0.000756
0.000250
0.000344
0.000247
0.000237
0.000243
0.000278
0.001680
0.000810
0.000225
0.000267
0.000276
0.000284
0.000188
0.000057
0.000226
0.000233
0.000250
0.000244
0.000280
0.000253
0.000213
0.000251
0.000243
0.000247
0.000278
0.000291
0.000241
0.000249
0.000261
0.000245
0.000270
0.001600
0.000726
0.000398
0.000270
0.000238
0.000238
0.000313
0.000250
0.000249
0.000272
0.000253
0.001511
0.000292
0.000344
0.000056
0.000208
0.000218
0.000270
0.000228
0.000264
0.000227
0.000281
0.000227
0.000256
0.000257
0.000295
0.000436
0.000406
0.000336
0.000210
0.000243
0.000266
0.001389
0.000753
0.000402
0.000381
0.000238
0.000230
0.000248
0.000278
0.000258
0.000250
0.000263
0.001504
0.000431
0.000179
0.000056
0.000227
0.000230
0.000247
0.000245
0.000254
0.000244
0.000252
0.000232
0.000277
0.000317
0.000332
0.000413
0.000275
0.000221
0.000240
0.000247
0.000263
0.000258
0.001636
0.000565
0.000473
0.000304
0.000241
0.000248
0.000262
0.000265
0.000262
0.000276
0.000269
0.001392
0.000291
0.000056
0.000213
0.000226
0.000237
0.000255
0.000260
0.000242
0.000251
0.000299
0.000362
0.000587
0.000242
0.000376
0.000352
0.000223
0.000245
0.000251
0.000301
0.000245
0.000256
0.001939
0.000313
0.000243
0.000440
0.000236
0.000258
0.000261
0.000271
0.000262
0.000264
0.000274
0.000400
0.000057
0.000210
0.000266
0.000227
0.000247
0.000251
0.000250
0.000222
0.000244
0.000293
0.000245
0.000229
0.000237
0.000440
0.000384
0.000384
0.000436
0.000221
0.000265
0.000250
0.000248
0.000250
0.000293
0.001482
0.001036
0.000234
0.000241
0.000268
0.000265
0.000274
0.000253
0.000201
0.000057
0.000203
0.001339
0.000290
0.000224
0.000227
0.000254
0.000251
0.000238
0.000244
0.000262
0.000245
0.000262
0.000288
0.000424
0.000306
0.000434
0.000269
0.000250
0.000264
0.000268
0.000277
0.000218
0.000262
0.000268
0.001429
0.000571
0.000312
0.000379
0.000376
0.000402
0.000295
0.000056
0.000196
0.000275
0.000507
0.001136
0.000211
0.000256
0.000230
0.000262
0.000249
0.000258
0.000262
0.000235
0.000264
0.000369
0.000556
0.000294
0.000231
0.000277
0.000327
0.000216
0.000254
0.000266
0.000235
0.000269
0.000276
0.001526
0.000753
0.000317
0.000256
0.000268
0.000199
0.000056
0.000214
0.000431
0.000288
0.000414
0.001207
0.000262
0.000220
0.000243
0.000232
0.000247
0.000246
0.000259
0.000236
0.000231
0.000250
0.000262
0.000262
0.000256
0.000239
0.000256
0.000267
0.000269
0.000312
0.000328
0.000211
0.000268
0.000269
0.001451
0.000258
0.000250
0.000175
0.000057
0.000196
0.000232
0.000248
0.000274
0.000342
0.000377
0.000389
0.000279
0.001574
0.000257
0.000358
0.000523
0.000218
0.000255
0.000426
0.000241
0.000235
0.000262
0.000275
0.000267
0.000277
0.000266
0.000259
0.000270
0.000276
0.000386
0.000383
0.000341
0.001580
0.000232
0.000189
0.000056
0.000222
0.000236
0.000247
0.000252
0.000235
0.000262
0.000246
0.000317
0.000420
0.002009
0.000231
0.000253
0.000252
0.000273
0.000248
0.000262
0.000266
0.000243
0.000331
0.000386
0.000348
0.000470
0.001440
0.000234
0.000247
0.002015
0.000290
0.000239
0.000265
0.001512
0.000174
0.000058
0.000497
0.000315
0.000400
0.000243
0.000284
0.000206
0.000262
0.000295
0.000237
0.000222
0.000258
0.000512
0.000259
0.000383
0.000395
0.000216
0.000243
0.001552
0.000246
0.000543
0.001907
0.000299
0.000241
0.001705
0.001847
0.000729
0.000274
0.000259
0.000311
0.000465
0.000361
0.000056
0.000206
0.000230
0.000282
0.000219
0.001425
0.001728
0.001071
0.000206
0.000236
0.001586
0.001978
0.000211
0.000239
0.000428
0.000318
0.000353
0.000402
0.000476
0.000213
0.000236
0.000251
0.000259
0.000271
0.001802
0.000995
0.001424
0.000300
0.000270
0.000258
0.000340
0.000393
0.000058
0.000211
0.000238
0.000236
0.000239
0.000227
0.000270
0.000227
0.000258
0.000255
0.000238
0.000264
0.000352
0.000420
0.000451
0.000251
0.000258
0.000249
0.000269
0.000270
0.000283
0.000246
0.000253
0.001546
0.000436
0.002131
0.000231
0.000260
0.000367
0.000471
0.000318
0.000204
0.000056
0.000259
0.000325
0.000465
0.000295
0.000218
0.000217
0.000253
0.000239
0.000243
0.000240
0.000249
0.000261
0.000260
0.001608
0.001346
0.001245
0.000290
0.000209
0.000248
0.000276
0.000297
0.000262
0.000244
0.000251
0.002199
0.000248
0.000261
0.000297
0.000323
0.000306
0.000221
0.000055
0.000248
0.000348
0.000579
0.000298
0.000232
0.000219
0.000247
0.000275
0.001894
0.001423
0.000219
0.000317
0.000385
0.000414
0.000271
0.000236
0.000241
0.000267
0.000263
0.000270
0.000257
0.000260
0.000479
0.000232
0.000270
0.000266
0.000253
0.000273
0.000280
0.000244
0.000205
0.000055
0.000219
0.000243
0.000246
0.000244
0.000277
0.000263
0.001546
0.001391
0.001339
0.000229
0.000238
0.000242
0.000262
0.000278
0.000232
0.000269
0.000229
0.002096
0.000269
0.000222
0.000272
0.000260
0.000256
0.000267
0.000268
0.000264
0.000261
0.000260
0.000270
0.000249
0.000183
0.000056
0.000202
0.002677
0.001412
0.000218
0.000302
0.000321
0.000218
0.000287
0.000228
0.000237
0.000255
0.000249
0.000232
0.000250
0.000264
0.000264
0.000263
0.000268
0.000265
0.000257
0.000292
0.000261
0.000272
0.000257
0.000251
0.000249
0.000261
0.000272
0.000262
0.000271
0.000367
0.000057
0.001575
0.000236
0.001235
0.000236
0.000219
0.000244
0.000288
0.000247
0.000224
0.000300
0.000449
0.000301
0.000307
0.000230
0.000237
0.002162
0.000235
0.000244
0.000310
0.000457
0.000377
0.000288
0.000238
0.000255
0.000261
0.000255
0.000260
0.000280
0.000275
0.001612
0.001250
0.000057
0.000192
0.000229
0.000342
0.000362
0.000337
0.000288
0.000220
0.000227
0.000255
0.000255
0.000264
0.000241
0.000229
0.000259
0.000262
0.000244
0.000353
0.000708
0.000237
0.000241
0.000240
0.000262
0.000281
0.000250
0.000249
0.000252
0.000268
0.000272
0.000243
0.000573
0.000160
0.000057
0.001117
0.000322
0.000306
0.000455
0.000236
0.000222
0.000232
0.000240
0.000253
0.002385
0.000280
0.000383
0.000224
0.000375
0.000308
0.000258
0.000238
0.000255
0.000268
0.000225
0.000253
0.000408
0.000619
0.000317
0.001850
0.001342
0.000513
0.000523
0.000233
0.000284
0.000199
0.000059
0.000225
0.000360
0.000245
0.000241
0.000250
0.000226
0.000258
0.000253
0.000250
0.000254
0.000256
0.000224
0.000252
0.000330
0.000633
0.000170
0.001854
0.001417
0.000395
0.000429
0.000451
0.000220
0.000239
0.000262
0.002200
0.000482
0.000390
0.000233
0.000270
0.000283
0.000197
0.000056
0.000214
0.000246
0.000253
0.000248
0.000251
0.000356
0.000389
0.000321
0.000313
0.000223
0.000239
0.000250
0.000262
0.002228
0.000289
0.000344
0.000222
0.000263
0.000268
0.000241
0.000251
0.002484
0.000303
0.000227
0.000267
0.000251
0.000258
0.000278
0.000304
0.000248
0.000196
0.000055
0.000223
0.000294
0.000644
0.000302
0.000269
0.000212
0.000232
0.000254
0.000259
0.000253
0.002109
0.000233
0.000277
0.000270
0.000253
0.000252
0.000275
0.000240
0.002207
0.000445
0.000231
0.000262
0.000268
0.000260
0.000260
0.000249
0.000299
0.000235
0.000267
0.000258
0.000188
0.000056
0.000210
0.000240
0.000247
0.000228
0.000246
0.000275
0.000222
0.000240
0.000230
0.002191
0.000236
0.000266
0.000220
0.000442
0.000208
0.000251
0.000308
0.000263
0.000248
0.000251
0.001963
0.000278
0.000340
0.000366
0.000431
0.000411
0.000301
0.000257
0.000254
0.000265
0.000192
0.000056
0.000205
0.000242
0.000238
0.000253
0.000243
0.000325
0.000216
0.002311
0.000243
0.000237
0.000257
0.000275
0.000217
0.000284
0.000278
0.002124
0.000588
0.000217
0.000272
0.000235
0.000257
0.000257
0.000289
0.000266
0.000254
0.000265
0.000287
0.000252
0.000266
0.000266
0.000193
0.000056
0.001823
0.001426
0.000211
0.000225
0.000255
0.000241
0.000250
0.000345
0.000330
0.000396
0.002122
0.000261
0.000224
0.000274
0.000299
0.000487
0.000401
0.000298
0.000224
0.000254
0.000252
0.000260
0.000266
0.000228
0.000256
0.000266
0.000274
0.000265
0.000494
0.000566
0.000232
0.000056
0.000218
0.000254
0.000240
0.000278
0.000245
0.000247
0.000252
0.000243
0.001530
0.002068
0.000579
0.000277
0.000505
0.000632
0.000317
0.000230
0.000256
0.000249
0.000268
0.000260
0.000256
0.000243
0.000262
0.000255
0.003016
0.000329
0.000235
0.000268
0.000305
0.000251
0.000430
0.000057
0.001929
0.000233
0.000229
0.000242
0.000287
0.000366
0.000437
0.000310
0.000292
0.000216
0.000243
0.000252
0.000258
0.000260
0.000270
0.000238
0.000271
0.000279
0.001819
0.000241
0.000237
0.000257
0.000269
0.000280
0.000269
0.000249
0.001467
0.000338
0.000255
0.000250
0.000180
0.000055
0.000193
0.000227
0.000255
0.000229
0.000251
0.000242
0.000328
0.000357
0.000304
0.000402
0.000217
0.000237
0.000263
0.000327
0.000420
0.000318
0.000230
0.000249
0.000278
0.000471
0.000414
0.000358
0.000258
0.000263
0.000253
0.000250
0.000259
0.000273
0.000267
0.000271
0.000203
0.000056
0.001440
0.000461
0.000202
0.001941
0.000294
0.000463
0.000373
0.000316
0.000232
0.000244
0.000267
0.000244
0.000244
0.000251
0.000261
0.000261
0.000450
0.000401
0.000306
0.000344
0.000369
0.000229
0.000255
0.000273
0.000269
0.000272
0.000260
0.000269
0.000388
0.000508
0.001295
0.000057
0.000215
0.000223
0.002086
0.000305
0.000325
0.000230
0.000261
0.000249
0.000261
0.000258
0.000217
0.000248
0.000261
0.000264
0.000288
0.000442
0.000594
0.001760
0.000229
0.000248
0.000255
0.000276
0.000431
0.000419
0.001525
0.000297
0.000364
0.001921
0.000261
0.000264
0.000185
0.000057
0.000196
0.000229
0.000241
0.000244
0.000227
0.000250
0.000252
0.000298
0.000312
0.000266
0.000377
0.000367
0.000343
0.000290
0.000241
0.000276
0.000270
0.000236
0.000259
0.000255
0.000310
0.000277
0.000266
0.000267
0.000265
0.001499
0.000298
0.000385
0.002074
0.000232
0.000178
0.000056
0.000199
0.000229
0.000240
0.000249
0.000487
0.000210
0.000253
0.000396
0.000313
0.000314
0.000284
0.000215
0.000281
0.000245
0.000267
0.000332
0.000431
0.000422
0.000259
0.000415
0.000606
0.000482
0.001451
0.000224
0.000250
0.002005
0.000325
0.000247
0.000238
0.000290
0.000190
0.000056
0.000196
0.000237
0.000234
0.000242
0.000250
0.000272
0.000250
0.000274
0.000274
0.000241
0.001803
0.000312
0.000384
0.000286
0.000464
0.000375
0.000401
0.001441
0.000255
0.000267
0.002235
0.000442
0.000273
0.000236
0.000259
0.000270
0.000503
0.000220
0.000257
0.000277
0.000197
0.000056
0.000214
0.000365
0.000352
0.000279
0.000206
0.000248
0.000254
0.000252
0.000265
0.000282
0.000235
0.000252
0.000263
0.000290
0.000324
0.000485
0.001286
0.000265
0.000281
0.002012
0.000268
0.000289
0.000235
0.000260
0.000251
0.000281
0.000267
0.000263
0.000252
0.000261
0.000205
0.000055
0.000280
0.000357
0.002039
0.000250
0.000230
0.000252
0.000276
0.000373
0.000367
0.000407
0.001300
0.000368
0.000361
0.002080
0.000223
0.000232
0.000266
0.000276
0.000252
0.000243
0.000289
0.000296
0.000251
0.000422
0.000480
0.000293
0.000328
0.002231
0.000562
0.000395
0.000407
0.000057
0.000209
0.000231
0.000240
0.001962
0.000239
0.000226
0.000242
0.000239
0.000246
0.000257
0.000240
0.000266
0.000258
0.000266
0.000516
0.001396
0.000255
0.000242
0.000268
0.000259
0.000236
0.000248
0.000263
0.000315
0.000308
0.000547
0.000351
0.000236
0.001593
0.000271
0.000166
0.000055
0.000197
0.000233
0.000243
0.000234
0.000265
0.000260
0.000233
0.000242
0.000261
0.000421
0.000334
0.001401
0.000227
0.000228
0.000247
0.000291
0.000222
0.000254
0.000351
0.000460
0.000384
0.000437
0.000232
0.001568
0.000235
0.000258
0.000290
0.000276
0.000267
0.000264
0.000198
0.000056
0.000197
0.000236
0.000290
0.000241
0.000250
0.000237
0.000247
0.000238
0.000273
0.000229
0.000258
0.000243
0.000267
0.001472
0.000365
0.000208
0.000272
0.000243
0.000275
0.000318
0.000363
0.000277
0.000249
0.000257
0.000266
0.000264
0.000257
0.001400
0.000290
0.000244
0.000164
0.000056
0.000195
0.000228
0.000261
0.000262
0.000274
0.000226
0.000256
0.000241
0.000225
0.000260
0.000248
0.000257
0.000243
0.000283
0.000391
0.000333
0.000278
0.000235
0.001629
0.000253
0.000231
0.000264
0.000263
0.000300
0.000371
0.000375
0.000453
0.000272
0.000250
0.001611
0.000160
0.000058
0.000329
0.000312
0.000392
0.000268
0.000226
0.000218
0.000248
0.000269
0.000256
0.000257
0.000226
0.000238
0.001508
0.000251
0.000305
0.000223
0.000248
0.000273
0.000252
0.000286
0.000232
0.000239
0.000254
0.000272
0.000271
0.000428
0.000430
0.000334
0.000255
0.000249
0.000192
0.000057
0.000211
0.000288
0.000481
0.000244
0.000372
0.000288
0.000247
0.000244
0.000253
0.000261
0.000246
0.000224
0.000256
0.000238
0.001298
0.000267
0.000240
0.000240
0.000273
0.000259
0.000240
0.000268
0.000269
0.000242
0.000256
0.000257
0.000324
0.000848
0.000281
0.000248
0.000164
0.000056
0.000203
0.001561
0.000221
0.000328
0.000509
0.000358
0.000214
0.000253
0.000273
0.000245
0.000242
0.000261
0.000270
0.000271
0.000255
0.001529
0.000255
0.000283
0.000265
0.000260
0.000268
0.000240
0.000280
0.000246
0.000258
0.000321
0.000368
0.000431
0.000324
0.000225
0.000206
0.000056
0.000197
0.000247
0.000256
0.001595
0.000417
0.000349
0.000219
0.000243
0.000261
0.000264
0.000281
0.000250
0.000258
0.000254
0.000252
0.000253
0.000387
0.001332
0.000255
0.000230
0.001516
0.000354
0.000545
0.000363
0.000340
0.000234
0.000267
0.000471
0.000231
0.000266
0.000181
0.000057
0.000294
0.000217
0.000241
0.000249
0.000248
0.000275
0.000219
0.000257
0.000251
0.000254
0.000245
0.000275
0.000320
0.000546
0.001588
0.001577
0.000274
0.000596
0.000282
0.000221
0.000232
0.000259
0.000253
0.000265
0.000249
0.000267
0.000256
0.000262
0.001527
0.000334
0.000188
0.000055
0.000221
0.000347
0.000352
0.000333
0.000246
0.000225
0.000245
0.000319
0.000465
0.000365
0.002174
0.000312
0.000744
0.000543
0.000387
0.000255
0.000332
0.000394
0.000327
0.000278
0.000397
0.000271
0.001532
0.000528
0.000229
0.000252
0.000260
0.000254
0.000264
0.000263
0.000209
0.000056
0.000215
0.000249
0.000259
0.000247
0.000243
0.001660
0.000879
0.000999
0.000209
0.000237
0.000269
0.000238
0.000265
0.000260
0.000253
0.000251
0.000251
0.000264
0.000268
0.000280
0.001435
0.000310
0.000250
0.000237
0.000228
0.000259
0.000262
0.000283
0.000262
0.000288
0.001893
0.000057
0.000190
0.000234
0.001544
0.000896
0.000343
0.000357
0.000253
0.000219
0.000252
0.000257
0.000254
0.000240
0.000249
0.001971
0.000484
0.000221
0.000242
0.000261
0.000262
0.000260
0.000192
