0.000378
0.020091
0.001313
0.000344
0.000259
0.000302
0.000326
0.000223
0.000342
0.000273
0.000252
0.000343
0.000590
0.000394
0.000360
0.000420
0.000234
0.000345
0.000354
0.000420
0.001830
0.000367
0.000737
0.000269
0.000244
0.000301
0.000320
0.000305
0.000422
0.000436
0.000517
0.000249
0.000057
0.000213
0.000269
0.000270
0.000288
0.000245
0.000251
0.000276
0.000289
0.000267
0.000281
0.000440
0.000415
0.000303
0.000255
0.000376
0.000351
0.000365
0.000256
0.000248
0.001694
0.000325
0.000251
0.000445
0.000245
0.000285
0.000271
0.000295
0.000293
0.000280
0.000326
0.000431
0.000056
0.000245
0.000258
0.000262
0.000261
0.000246
0.000248
0.000263
0.000258
0.000284
0.001670
0.000226
0.000231
0.000278
0.000266
0.000277
0.000252
0.000266
0.000251
0.000357
0.001784
0.000249
0.000280
0.000444
0.000430
0.000386
0.000253
0.000259
0.000469
0.000471
0.000784
0.000205
0.000056
0.000219
0.000248
0.000252
0.000241
0.000298
0.000250
0.000335
0.000609
0.000314
0.000253
0.000242
0.000253
0.000242
0.000256
0.000259
0.000254
0.000264
0.000241
0.000319
0.000309
0.001661
0.000277
0.000249
0.000432
0.000284
0.000797
0.000605
0.000496
0.000346
0.000241
0.000194
0.000056
0.000214
0.000250
0.000296
0.000213
0.000279
0.000233
0.000372
0.000311
0.001512
0.000216
0.000252
0.000238
0.000258
0.000257
0.000261
0.000283
0.000461
0.000605
0.001401
0.000300
0.000245
0.000421
0.000233
0.000247
0.000255
0.000264
0.000262
0.000272
0.000258
0.000268
0.000203
0.000056
0.000208
0.000244
0.000241
0.000265
0.000238
0.000246
0.000238
0.000256
0.000238
0.000259
0.001622
0.000267
0.000230
0.000241
0.000259
0.000244
0.000251
0.000248
0.000256
0.000272
0.000275
0.001636
0.000284
0.000258
0.000439
0.000257
0.000248
0.000260
0.000280
0.000254
0.000199
0.000057
0.000192
0.000233
0.000254
0.000242
0.000243
0.000245
0.000264
0.000232
0.000265
0.000255
0.000254
0.000261
0.000273
0.000254
0.001636
0.000280
0.000285
0.000212
0.000266
0.000269
0.000274
0.000236
0.000267
0.000247
0.001774
0.000403
0.000340
0.000373
0.000236
0.000280
0.000196
0.000057
0.000198
0.000237
0.000249
0.000266
0.000257
0.000259
0.000269
0.000413
0.000365
0.000468
0.000203
0.000253
0.000251
0.000252
0.001557
0.000535
0.000368
0.000365
0.000303
0.000239
0.000267
0.000302
0.000256
0.001727
0.000486
0.000493
0.000250
0.000240
0.000254
0.000272
0.000179
0.000057
0.000212
0.000243
0.000242
0.000278
0.000342
0.000444
0.000349
0.000283
0.000217
0.000252
0.000264
0.000233
0.000255
0.001741
0.000451
0.000293
0.000229
0.000250
0.000276
0.000287
0.000246
0.000262
0.001843
0.000334
0.000286
0.000382
0.000239
0.000267
0.000270
0.000391
0.000329
0.000057
0.000218
0.000390
0.000375
0.000242
0.000260
0.000241
0.000258
0.000255
0.000242
0.000230
0.000241
0.000245
0.001546
0.000395
0.000273
0.000230
0.000257
0.000257
0.000244
0.000304
0.000253
0.000329
0.000243
0.001809
0.000255
0.000530
0.000215
0.000252
0.000260
0.000265
0.000268
0.000057
0.000319
0.000570
0.000599
0.000212
0.000227
0.000277
0.000227
0.000219
0.000260
0.000251
0.000259
0.001692
0.000249
0.000445
0.000369
0.000223
0.000236
0.000231
0.000251
0.000261
0.000255
0.001858
0.000224
0.000488
0.001848
0.000516
0.000363
0.000250
0.000251
0.000268
0.000187
0.000056
0.000209
0.000236
0.000243
0.000243
0.000262
0.001619
0.000254
0.000231
0.000254
0.000252
0.000242
0.000253
0.000238
0.000258
0.000288
0.000475
0.000548
0.000253
0.000242
0.000268
0.000273
0.000243
0.000243
0.000460
0.000411
0.000233
0.000356
0.000737
0.000275
0.000267
0.000202
0.000056
0.000219
0.000236
0.000256
0.000249
0.000241
0.000233
0.000242
0.000385
0.001858
0.000304
0.000224
0.000237
0.000263
0.000226
0.000260
0.000266
0.000454
0.000457
0.000356
0.000235
0.000256
0.000300
0.000282
0.000255
0.000278
0.000429
0.000340
0.000454
0.000600
0.000466
0.000179
0.000056
0.000189
0.000258
0.000244
0.000234
0.000233
0.000237
0.000247
0.000262
0.000229
0.000289
0.000355
0.000417
0.001399
0.000237
0.000242
0.000247
0.000257
0.000248
0.000250
0.000265
0.000262
0.000493
0.000364
0.000275
0.000271
0.000252
0.000253
0.000280
0.000256
0.000267
0.000376
0.000056
0.000210
0.000239
0.000231
0.000309
0.000537
0.000380
0.000245
0.000260
0.000230
0.000258
0.000262
0.000224
0.000299
0.000251
0.000242
0.000516
0.000383
0.001636
0.000294
0.000220
0.000277
0.000248
0.000256
0.000240
0.000269
0.000400
0.000507
0.000342
0.000420
0.000249
0.000188
0.000056
0.000231
0.000442
0.000228
0.000219
0.000283
0.000226
0.000275
0.000635
0.000268
0.000330
0.000231
0.000277
0.000263
0.000236
0.000514
0.000338
0.000231
0.000256
0.000413
0.001620
0.000269
0.000241
0.000527
0.000248
0.000282
0.000273
0.000253
0.000322
0.000587
0.000368
0.000262
0.000056
0.000208
0.000234
0.000234
0.000241
0.000422
0.000309
0.000289
0.000256
0.000410
0.000443
0.000399
0.000219
0.000237
0.000244
0.000254
0.000267
0.000256
0.000256
0.000232
0.000347
0.000286
0.000318
0.001857
0.000247
0.000256
0.000254
0.000277
0.000349
0.000415
0.000729
0.000430
0.000056
0.000235
0.000334
0.000298
0.000419
0.000395
0.000196
0.000258
0.000267
0.000525
0.000433
0.000255
0.000245
0.000233
0.000273
0.000261
0.000234
0.000258
0.000275
0.000267
0.000254
0.000266
0.000479
0.000610
0.001322
0.000326
0.000431
0.000421
0.000234
0.000369
0.000516
0.000287
0.000056
0.000238
0.000377
0.000282
0.000205
0.000233
0.000243
0.000417
0.000233
0.000245
0.000380
0.000465
0.000423
0.000206
0.000259
0.000261
0.000250
0.000345
0.000412
0.000334
0.000243
0.000243
0.000499
0.000519
0.001684
0.000226
0.000433
0.000319
0.000217
0.000278
0.000444
0.000258
0.000057
0.000191
0.000232
0.000243
0.000257
0.000247
0.000238
0.000255
0.000325
0.000451
0.000287
0.000417
0.000408
0.000267
0.000580
0.000249
0.000240
0.000281
0.000258
0.000232
0.000340
0.000243
0.000233
0.000276
0.000454
0.000452
0.001641
0.000266
0.000249
0.000243
0.000277
0.000181
0.000057
0.000233
0.000509
0.000328
0.000210
0.000258
0.000236
0.000254
0.000247
0.000266
0.000236
0.000221
0.000266
0.000408
0.000545
0.000390
0.000270
0.000247
0.000251
0.000339
0.000378
0.000384
0.000334
0.000361
0.000393
0.000249
0.000256
0.000269
0.000275
0.001786
0.000245
0.000211
0.000056
0.000198
0.000223
0.000261
0.000289
0.000330
0.000543
0.000320
0.000216
0.000285
0.000237
0.000250
0.000250
0.000521
0.000449
0.000486
0.000268
0.000266
0.000264
0.000418
0.000466
0.000359
0.000541
0.000378
0.000422
0.000233
0.000256
0.000270
0.000238
0.000269
0.001720
0.000331
0.000056
0.000293
0.000329
0.000195
0.000244
0.000274
0.000242
0.000226
0.000496
0.000379
0.000303
0.000296
0.000293
0.000449
0.000526
0.000333
0.000246
0.000254
0.000256
0.000251
0.000265
0.000276
0.000256
0.000247
0.000262
0.000351
0.000349
0.000374
0.000352
0.000258
0.000238
0.000199
0.000056
0.000451
0.000327
0.000453
0.000223
0.000204
0.000258
0.000243
0.000254
0.000242
0.000221
0.000254
0.000275
0.000299
0.000359
0.000522
0.000467
0.000327
0.000312
0.000379
0.000342
0.000295
0.000246
0.000250
0.000256
0.001747
0.000244
0.001726
0.000945
0.000414
0.000319
0.000165
0.000056
0.000192
0.000239
0.000234
0.000262
0.000251
0.000237
0.000253
0.000255
0.000240
0.000393
0.000275
0.000492
0.000289
0.000377
0.000244
0.000255
0.000254
0.000296
0.000228
0.000246
0.000250
0.000263
0.001815
0.000238
0.000255
0.000264
0.000293
0.000250
0.001903
0.000428
0.000308
0.000057
0.000196
0.000223
0.000255
0.000227
0.000252
0.000251
0.000238
0.000253
0.000263
0.000318
0.000637
0.000281
0.000394
0.000224
0.000247
0.000251
0.000325
0.000435
0.000384
0.000240
0.001780
0.000258
0.000250
0.000251
0.000264
0.000262
0.000244
0.000254
0.000318
0.000317
0.000400
0.000057
0.000266
0.000203
0.000245
0.000270
0.000237
0.000240
0.000256
0.000252
0.000240
0.000262
0.000237
0.000257
0.000333
0.000462
0.000420
0.000199
0.000461
0.000231
0.000248
0.000257
0.000266
0.000257
0.000273
0.000253
0.000282
0.001783
0.000248
0.000245
0.000264
0.000243
0.000201
0.000056
0.000264
0.000324
0.000236
0.000206
0.000243
0.000235
0.000235
0.000277
0.000226
0.000227
0.000230
0.000262
0.000260
0.000367
0.000445
0.000356
0.000251
0.000242
0.000251
0.000250
0.000261
0.000261
0.000248
0.000271
0.000255
0.000257
0.000325
0.001613
0.000263
0.000245
0.000194
0.000057
0.000213
0.000230
0.000251
0.000258
0.000341
0.000338
0.000423
0.000309
0.000234
0.000253
0.000267
0.000229
0.000247
0.000256
0.000272
0.000247
0.000242
0.000258
0.000254
0.000257
0.000264
0.000274
0.000244
0.000234
0.000244
0.000281
0.000276
0.000261
0.000257
0.000265
0.000191
0.000057
0.000211
0.000231
0.000258
0.000278
0.000228
0.000238
0.000244
0.000261
0.000273
0.000254
0.000222
0.000247
0.000260
0.000248
0.000295
0.000247
0.000240
0.000247
0.000297
0.000256
0.000275
0.000320
0.000265
0.000220
0.000309
0.000248
0.000271
0.000250
0.000335
0.000369
0.000605
0.000057
0.000223
0.000283
0.000228
0.000234
0.000233
0.000257
0.000235
0.000256
0.000249
0.000243
0.000267
0.000303
0.000478
0.000488
0.001524
0.000237
0.000489
0.000232
0.000291
0.000398
0.000417
0.000430
0.000225
0.000282
0.000240
0.000264
0.000282
0.000254
0.000306
0.000275
0.000165
0.000074
0.000265
0.000471
0.000328
0.000325
0.000220
0.000281
0.000226
0.000242
0.000236
0.000242
0.000255
0.000254
0.000235
0.000267
0.000367
0.000588
0.000292
0.001791
0.000242
0.000250
0.000355
0.000401
0.000462
0.000279
0.000316
0.000332
0.000300
0.000230
0.000228
0.000256
0.000199
0.000056
0.000223
0.000223
0.000239
0.000301
0.000314
0.000497
0.000327
0.000255
0.000251
0.000217
0.000254
0.000264
0.000267
0.000262
0.000244
0.000262
0.000418
0.000397
0.000410
0.000339
0.000236
0.001744
0.000322
0.000589
0.000447
0.000437
0.000319
0.000234
0.000256
0.000269
0.000448
0.000056
0.000210
0.000277
0.000219
0.000277
0.000465
0.000422
0.000393
0.000214
0.000266
0.000280
0.000224
0.000256
0.000251
0.000298
0.000305
0.000239
0.000228
0.000450
0.000473
0.000270
0.000502
0.001842
0.000252
0.000414
0.000556
0.000327
0.000227
0.000265
0.000284
0.000263
0.000206
0.000055
0.000213
0.000334
0.000360
0.000313
0.000424
0.000369
0.000283
0.000220
0.000241
0.000252
0.000275
0.000223
0.000253
0.000254
0.000247
0.000283
0.000304
0.000367
0.000546
0.000353
0.000279
0.000236
0.000254
0.001718
0.000487
0.000459
0.000670
0.000231
0.000269
0.000306
0.000159
0.000055
0.000198
0.000240
0.000344
0.000252
0.000329
0.000279
0.000393
0.000338
0.000241
0.000531
0.000223
0.000257
0.000259
0.000278
0.000272
0.000264
0.000206
0.000384
0.000518
0.000363
0.000257
0.000237
0.000258
0.000249
0.000260
0.000266
0.000239
0.000255
0.000267
0.000289
0.000201
0.000055
0.000312
0.000308
0.000230
0.000245
0.000248
0.000256
0.000244
0.000290
0.000240
0.000246
0.000276
0.000333
0.000416
0.000419
0.000329
0.000279
0.000231
0.000228
0.000258
0.000272
0.000285
0.000267
0.000232
0.000257
0.000280
0.000306
0.000402
0.000400
0.000341
0.000236
0.000184
0.000057
0.000216
0.000214
0.000283
0.000237
0.000245
0.000270
0.000254
0.000241
0.000497
0.000214
0.000256
0.000262
0.000237
0.000283
0.000251
0.000301
0.000238
0.000349
0.000217
0.000242
0.000251
0.000264
0.000262
0.000265
0.000283
0.000256
0.000259
0.000260
0.000269
0.000482
0.000169
0.000056
0.000207
0.000241
0.000245
0.000291
0.000202
0.000244
0.000363
0.000409
0.000239
0.000226
0.000254
0.000259
0.000235
0.000299
0.000478
0.001712
0.000239
0.000261
0.000287
0.000329
0.000404
0.000366
0.000360
0.000510
0.000308
0.000375
0.000236
0.000279
0.000267
0.000274
0.001404
0.000057
0.000437
0.000308
0.000222
0.000216
0.000236
0.000255
0.000229
0.000257
0.000245
0.000266
0.000247
0.000258
0.000256
0.000311
0.000492
0.001655
0.000238
0.000235
0.000246
0.000268
0.000229
0.000261
0.000464
0.000294
0.000309
0.000340
0.000217
0.000273
0.000277
0.000264
0.000183
0.000056
0.001212
0.000507
0.000439
0.000169
0.000233
0.000223
0.000238
0.000240
0.000492
0.000218
0.000239
0.000261
0.000372
0.000443
0.000427
0.000351
0.000259
0.000231
0.000323
0.000368
0.000266
0.000255
0.000271
0.000243
0.000293
0.000569
0.000581
0.000210
0.000267
0.000263
0.000173
0.000056
0.000233
0.000196
0.000248
0.000253
0.001474
0.000288
0.000226
0.000252
0.000259
0.000232
0.000254
0.000252
0.000244
0.000262
0.000271
0.000300
0.000434
0.000634
0.000272
0.001799
0.000224
0.000258
0.000312
0.000422
0.000575
0.000368
0.000253
0.000248
0.000254
0.000275
0.000196
0.000057
0.000227
0.000252
0.000233
0.000353
0.001225
0.000230
0.000260
0.000257
0.000241
0.000231
0.000243
0.000255
0.000276
0.000247
0.000246
0.000315
0.000440
0.000421
0.000318
0.000271
0.000258
0.000275
0.000249
0.000230
0.000292
0.000266
0.000241
0.000273
0.000270
0.000278
0.000678
0.000057
0.000225
0.000244
0.000239
0.000257
0.000267
0.000236
0.000242
0.000257
0.000270
0.000277
0.001423
0.000219
0.000238
0.000245
0.000252
0.000239
0.000291
0.000243
0.000290
0.000237
0.000270
0.000483
0.000466
0.000382
0.000229
0.000274
0.001789
0.000241
0.000255
0.000369
0.000373
0.000058
0.000180
0.000403
0.000449
0.000504
0.000513
0.000549
0.001501
0.000406
0.000525
0.000648
0.000554
0.000826
0.000379
0.000612
0.000583
0.001968
0.000312
0.000453
0.000387
0.000322
0.000236
0.000263
0.000291
0.000259
0.000254
0.000297
0.000291
0.000284
0.000262
0.000286
0.001374
0.000058
0.000202
0.000223
0.000249
0.000235
0.000260
0.000261
0.000233
0.000239
0.000255
0.000248
0.000243
0.000237
0.000262
0.000250
0.000275
0.000264
0.001800
0.000266
0.000259
0.000253
0.000267
0.000253
0.000287
0.000329
0.000388
0.000394
0.000338
0.000217
0.000266
0.000295
0.000193
0.000057
0.000201
0.001366
0.000330
0.000272
0.000248
0.000234
0.000244
0.000237
0.000232
0.000236
0.000222
0.000243
0.000250
0.000509
0.000364
0.000304
0.000240
0.001817
0.000357
0.000240
0.000244
0.000283
0.000235
0.000271
0.000268
0.000283
0.000272
0.000266
0.000251
0.000319
0.000206
0.000057
0.000215
0.000242
0.000248
0.001455
0.000201
0.000251
0.000251
0.000248
0.000228
0.000272
0.000252
0.000250
0.000241
0.000278
0.000244
0.000250
0.000265
0.000283
0.000254
0.000254
0.000261
0.001769
0.000272
0.001758
0.000261
0.000263
0.000267
0.000266
0.000264
0.000270
0.000214
0.000056
0.000188
0.000241
0.001352
0.000242
0.000243
0.000243
0.000259
0.000251
0.000245
0.000251
0.000255
0.000240
0.000260
0.000261
0.000260
0.000264
0.000260
0.000293
0.000289
0.000222
0.001879
0.000229
0.001836
0.000238
0.000269
0.000272
0.000232
0.000246
0.000258
0.000273
0.000191
0.000057
0.001467
0.000203
0.000225
0.000251
0.000241
0.000236
0.000374
0.000287
0.000230
0.000258
0.000249
0.000258
0.000306
0.000317
0.000422
0.000247
0.000232
0.000271
0.000260
0.000254
0.000270
0.000340
0.000230
0.000249
0.000278
0.000270
0.000294
0.000342
0.000635
0.000344
0.000192
0.000057
0.000210
0.000259
0.000251
0.000297
0.000367
0.000251
0.001671
0.000330
0.000271
0.000284
0.000247
0.000270
0.000274
0.000252
0.000313
0.000310
0.000344
0.000608
0.000353
0.000251
0.000285
0.000275
0.000264
0.000274
0.000320
0.000273
0.000272
0.000245
0.000251
0.000325
0.000419
0.000056
0.000265
0.000463
0.000263
0.000271
0.000250
0.000220
0.000249
0.000225
0.000257
0.000274
0.001494
0.000225
0.000229
0.000254
0.000240
0.000283
0.000295
0.000228
0.000258
0.000269
0.000262
0.000385
0.000472
0.000375
0.000258
0.000294
0.000263
0.000262
0.000228
0.000315
0.000168
0.000057
0.000191
0.000233
0.000291
0.000482
0.000366
0.000250
0.000227
0.000242
0.000251
0.000249
0.000238
0.000254
0.000260
0.000264
0.000239
0.000233
0.000431
0.001181
0.000241
0.000250
0.000274
0.000252
0.000351
0.000413
0.000265
0.000333
0.000586
0.000363
0.000340
0.000245
0.000182
0.000057
0.000220
0.000250
0.000257
0.000260
0.000262
0.000241
0.000356
0.000405
0.000410
0.000297
0.000355
0.000392
0.000395
0.000363
0.000258
0.000238
0.000243
0.000259
0.000386
0.000468
0.001271
0.000225
0.000275
0.000272
0.000236
0.000235
0.000272
0.000344
0.000380
0.000458
0.000229
0.000056
0.000200
0.000243
0.000258
0.000240
0.000241
0.000247
0.000238
0.000265
0.000303
0.000403
0.000424
0.000311
0.000244
0.000246
0.000250
0.000255
0.000253
0.000258
0.000269
0.000271
0.000416
0.000294
0.000325
0.000434
0.000313
0.000247
0.000294
0.000252
0.000243
0.000346
0.000155
0.000057
0.000299
0.000314
0.000300
0.000460
0.000340
0.000405
0.000236
0.000247
0.000247
0.000266
0.000257
0.000264
0.000233
0.000249
0.000246
0.000225
0.000267
0.000396
0.000427
0.000376
0.000226
0.000281
0.000244
0.000242
0.000271
0.000278
0.000269
0.000281
0.000265
0.000276
0.000311
0.000057
0.000307
0.000267
0.000241
0.000269
0.000226
0.000248
0.000249
0.000252
0.000263
0.000252
0.000256
0.000233
0.000323
0.000542
0.000393
0.000248
0.000240
0.000253
0.000254
0.000264
0.000255
0.000262
0.000256
0.000269
0.000273
0.000365
0.000383
0.000581
0.000403
0.000255
0.000170
0.000057
0.000390
0.000197
0.000228
0.000246
0.000248
0.000249
0.000231
0.000254
0.000256
0.000257
0.000224
0.000241
0.000270
0.000225
0.000264
0.000254
0.000249
0.000262
0.000295
0.000242
0.000260
0.000258
0.000264
0.000265
0.000266
0.000234
0.000266
0.000277
0.000262
0.000292
0.000182
0.000056
0.000191
0.000239
0.000247
0.000248
0.000229
0.000259
0.000259
0.000246
0.000258
0.000279
0.000226
0.000235
0.000263
0.000399
0.000249
0.000315
0.000221
0.000273
0.000257
0.000277
0.000273
0.000237
0.000242
0.000247
0.000280
0.000267
0.000256
0.000247
0.000293
0.000240
0.000210
0.000056
0.000200
0.000362
0.000366
0.000280
0.000296
0.000256
0.000269
0.000257
0.000225
0.000246
0.000279
0.000237
0.000243
0.000249
0.000242
0.000285
0.000242
0.000269
0.000245
0.000266
0.000271
0.000264
0.000280
0.000258
0.000288
0.000232
0.000272
0.000258
0.000269
0.000260
0.000195
0.000055
0.000206
0.000234
0.000265
0.000265
0.000254
0.000440
0.000214
0.000269
0.000289
0.000471
0.000433
0.000285
0.000232
0.000249
0.000272
0.000263
0.000240
0.000271
0.000255
0.000270
0.000266
0.000256
0.000261
0.000294
0.000460
0.000546
0.000279
0.000301
0.000261
0.000263
0.000192
0.000055
0.000212
0.000215
0.000249
0.000248
0.000509
0.000459
0.000320
0.000377
0.000211
0.000253
0.000243
0.000259
0.000248
0.000248
0.000258
0.000272
0.000270
0.000258
0.000672
0.000316
0.000316
0.000247
0.000254
0.000286
0.000282
0.000253
0.000262
0.000287
0.000231
0.000325
0.000317
0.000057
0.000306
0.000235
0.000237
0.000239
0.000254
0.000263
0.000219
0.000248
0.000245
0.000253
0.000256
0.000248
0.000243
0.000421
0.000535
0.000429
0.000204
0.000262
0.000264
0.000244
0.000271
0.000281
0.000478
0.000217
0.000267
0.000595
0.000467
0.000432
0.000256
0.000244
0.000193
0.000056
0.000206
0.000238
0.000254
0.000233
0.000254
0.000258
0.000329
0.000480
0.000582
0.000357
0.000220
0.000261
0.000272
0.000282
0.000246
0.000253
0.000232
0.000249
0.000254
0.000422
0.000328
0.000663
0.000343
0.000254
0.000347
0.000375
0.000499
0.000235
0.000271
0.000474
0.000407
0.000056
0.000271
0.000235
0.000439
0.000220
0.000234
0.000254
0.000262
0.000258
0.000232
0.000242
0.000258
0.000409
0.000399
0.000307
0.000213
0.000262
0.000260
0.000266
0.000249
0.000280
0.000274
0.000246
0.000254
0.000273
0.000332
0.000470
0.000480
0.000234
0.000292
0.000246
0.000198
0.000055
0.000211
0.000252
0.000231
0.000244
0.000246
0.000280
0.000390
0.000424
0.000363
0.000265
0.000382
0.000222
0.000251
0.000270
0.000250
0.000240
0.000274
0.000244
0.000287
0.000397
0.000489
0.000329
0.000479
0.000264
0.000382
0.000420
0.000386
0.000245
0.000270
0.000337
0.000369
0.000056
0.000264
0.000273
0.000221
0.000255
0.000259
0.000256
0.000248
0.000247
0.000270
0.000247
0.000236
0.000385
0.000483
0.000303
0.000390
0.000215
0.000269
0.000263
0.000269
0.000234
0.000243
0.000258
0.000266
0.000275
0.000276
0.000340
0.000489
0.000467
0.000237
0.000282
0.000190
0.000057
0.000192
0.000243
0.000270
0.000248
0.000243
0.000385
0.000458
0.000462
0.000381
0.000676
0.000269
0.000206
0.000246
0.000258
0.000251
0.000265
0.000278
0.000279
0.000578
0.000313
0.001513
0.000310
0.000265
0.000275
0.000271
0.000268
0.000414
0.000383
0.000338
0.000325
0.000187
0.000056
0.000203
0.000234
0.000248
0.000260
0.000235
0.000243
0.000302
0.000232
0.000236
0.000321
0.000334
0.000380
0.000285
0.000321
0.000392
0.000349
0.000245
0.000251
0.000272
0.000250
0.000248
0.000248
0.000310
0.000225
0.000322
0.000449
0.000422
0.000279
0.000259
0.000266
0.000192
0.000055
0.000222
0.000248
0.000257
0.000251
0.000242
0.000236
0.000475
0.000210
0.000248
0.000235
0.000250
0.000251
0.000262
0.000251
0.000248
0.000269
0.000260
0.000299
0.000245
0.000256
0.000283
0.000265
0.000290
0.000258
0.000254
0.000275
0.000274
0.000263
0.000258
0.000272
0.000178
0.000057
0.000220
0.000259
0.000365
0.000403
0.000308
0.000257
0.000232
0.000246
0.000261
0.000251
0.000243
0.000258
0.000264
0.000263
0.000240
0.000238
0.000273
0.000247
0.000259
0.000342
0.000473
0.000381
0.000237
0.000261
0.000264
0.000261
0.000258
0.000256
0.000273
0.000278
0.000203
0.000056
0.000268
0.000429
0.000384
0.000208
0.000258
0.000251
0.000414
0.000225
0.000232
0.000254
0.000250
0.000288
0.000349
0.000552
0.001762
0.000246
0.000247
0.000252
0.000276
0.000243
0.000321
0.000504
0.000554
0.000316
0.000230
0.000258
0.000281
0.000422
0.000280
0.000277
0.000165
0.000055
0.000198
0.000355
0.000345
0.000306
0.000497
0.000197
0.000247
0.000247
0.000248
0.000244
0.000256
0.000250
0.000262
0.000398
0.000331
0.000469
0.000226
0.000245
0.000278
0.000244
0.000260
0.000321
0.000234
0.000273
0.000278
0.000445
0.000596
0.000491
0.000277
0.000241
0.000212
0.000056
0.000218
0.000228
0.000261
0.000232
0.000243
0.000250
0.000269
0.000291
0.000386
0.000297
0.000447
0.000350
0.000228
0.000242
0.000270
0.000293
0.000296
0.000232
0.000278
0.000268
0.000240
0.000354
0.000385
0.000425
0.000265
0.000263
0.000262
0.000447
0.000407
0.000298
0.000192
0.000057
0.000209
0.000324
0.000283
0.000399
0.000371
0.000208
0.000233
0.000271
0.000247
0.000264
0.000255
0.000251
0.000232
0.000252
0.000261
0.000292
0.000440
0.000319
0.000332
0.000309
0.000491
0.000225
0.000279
0.000278
0.000293
0.000286
0.000255
0.000273
0.000641
0.000357
0.000175
0.000057
0.000210
0.000229
0.000253
0.000244
0.000240
0.000479
0.000213
0.000255
0.000269
0.000380
0.000446
0.000581
0.000209
0.000244
0.000236
0.000252
0.000263
0.000267
0.000239
0.000246
0.000288
0.000240
0.000410
0.000413
0.000404
0.000316
0.000293
0.000304
0.000320
0.000249
0.000193
0.000056
0.000219
0.000233
0.000261
0.000480
0.000379
0.000240
0.000257
0.000234
0.000244
0.000259
0.000269
0.000243
0.000266
0.000243
0.000246
0.000263
0.000241
0.000250
0.000260
0.000413
0.000480
0.000388
0.000243
0.000243
0.000297
0.000255
0.000262
0.000261
0.000262
0.000268
0.000194
0.000055
0.000376
0.000279
0.000447
0.000232
0.000227
0.000241
0.000339
0.000439
0.000284
0.000221
0.000234
0.000273
0.000272
0.000443
0.000438
0.000300
0.000213
0.000237
0.000258
0.000276
0.000254
0.000267
0.000259
0.000275
0.000264
0.000265
0.000428
0.000435
0.000284
0.000251
0.000185
0.000056
0.000237
0.000241
0.000245
0.000256
0.000249
0.000262
0.000225
0.000272
0.000252
0.000237
0.000266
0.000237
0.000285
0.001443
0.000217
0.000248
0.000259
0.000245
0.000275
0.000275
0.000268
0.000238
0.000279
0.000255
0.000270
0.000262
0.000273
0.000273
0.000269
0.000255
0.000195
0.000055
0.000191
0.000226
0.000255
0.000263
0.000226
0.000242
0.000260
0.000259
0.000226
0.000248
0.000246
0.000258
0.000277
0.000238
0.000259
0.000253
0.000251
0.000259
0.000278
0.000249
0.000255
0.000261
0.000248
0.000253
0.001297
0.000277
0.000643
0.000366
0.000332
0.000233
0.000198
0.000056
0.000217
0.000225
0.000248
0.000251
0.000413
0.000246
0.000235
0.000240
0.000256
0.000374
0.000431
0.000367
0.000204
0.000240
0.000264
0.000255
0.000255
0.000269
0.000245
0.000275
0.000244
0.000253
0.000258
0.000483
0.000463
0.000438
0.000225
0.000271
0.001373
0.000242
0.000183
0.000056
0.000245
0.000414
0.000323
0.000283
0.000220
0.000218
0.000231
0.000247
0.000263
0.000255
0.000247
0.000265
0.000297
0.000268
0.000562
0.000332
0.000358
0.000219
0.000243
0.000268
0.000266
0.000283
0.000250
0.000262
0.000284
0.000252
0.000269
0.000615
0.000374
0.000367
0.000146
0.000057
0.000205
0.000244
0.001257
0.000414
0.000287
0.000481
0.000362
0.000495
0.000263
0.000342
0.000215
0.000245
0.000257
0.000256
0.000248
0.000268
0.000400
0.000478
0.000365
0.000356
0.000263
0.000239
0.000270
0.000509
0.000221
0.000267
0.000255
0.000280
0.000286
0.000562
0.000300
0.000056
0.000370
0.000312
0.000231
0.000233
0.001568
0.000451
0.000303
0.000257
0.000241
0.000250
0.000231
0.000242
0.000243
0.000276
0.000248
0.000263
0.000235
0.000296
0.000371
0.000447
0.000398
0.000250
0.000251
0.000257
0.000262
0.000271
0.000271
0.000239
0.000262
0.000276
0.000201
0.000057
0.000370
0.000338
0.000217
0.000243
0.000250
0.000242
0.000262
0.000236
0.000236
0.000230
0.001425
0.000461
0.000254
0.000255
0.000233
0.000253
0.000278
0.000261
0.000240
0.000297
0.000247
0.000252
0.000282
0.000457
0.000449
0.000361
0.000230
0.000266
0.000285
0.000273
0.000177
0.000057
0.000194
0.000414
0.000220
0.000232
0.000331
0.000520
0.000414
0.000210
0.000460
0.000214
0.000231
0.000253
0.000261
0.000266
0.000259
0.001399
0.000374
0.000281
0.000244
0.000273
0.000294
0.000234
0.000254
0.000251
0.000260
0.000270
0.000480
0.000420
0.000291
0.000268
0.000169
0.000056
0.000217
0.000239
0.000258
0.000234
0.000232
0.000255
0.000244
0.000256
0.000269
0.000376
0.000480
0.000236
0.000246
0.000256
0.000248
0.000270
0.000275
0.000256
0.000270
0.000231
0.000257
0.000340
0.001228
0.000248
0.000245
0.000269
0.000255
0.000271
0.000256
0.000263
0.000187
0.000056
0.000245
0.000403
0.000362
0.000252
0.000270
0.000227
0.000258
0.000288
0.000244
0.000258
0.000238
0.000264
0.000241
0.000254
0.000258
0.000275
0.000254
0.000267
0.000264
0.000251
0.000252
0.000272
0.000270
0.000279
0.000284
0.000269
0.000262
0.000267
0.000260
0.000451
0.001368
0.000056
0.000185
0.000252
0.000220
0.000266
0.000231
0.000258
0.000244
0.000223
0.000249
0.000264
0.000261
0.000265
0.000245
0.000239
0.000280
0.000220
0.001720
0.000262
0.000244
0.000263
0.000246
0.000258
0.000275
0.000253
0.000297
0.000234
0.000269
0.000276
0.000268
0.000254
0.000237
0.000056
0.000293
0.000318
0.001325
0.000219
0.000221
0.000254
0.000255
0.000252
0.000272
0.000242
0.000234
0.000356
0.000390
0.000434
0.000267
0.000241
0.000266
0.000236
0.000260
0.000263
0.000240
0.000279
0.000250
0.000293
0.000273
0.000380
0.000366
0.000369
0.000319
0.000235
0.000199
0.000056
0.000213
0.000254
0.000242
0.000251
0.000271
0.000201
0.000238
0.000325
0.000401
0.001307
0.000246
0.000211
0.000252
0.000279
0.000243
0.000291
0.000240
0.000249
0.000330
0.000381
0.000426
0.000227
0.000246
0.000245
0.000288
0.000276
0.000267
0.000293
0.000266
0.000280
0.000192
0.000055
0.000369
0.000350
0.000338
0.000209
0.000239
0.000235
0.000266
0.000258
0.000264
0.000246
0.000237
0.000246
0.000444
0.000502
0.000471
0.001467
0.000228
0.000281
0.000321
0.000350
0.000488
0.000462
0.000509
0.000311
0.000235
0.000264
0.000282
0.000256
0.000263
0.000277
0.000204
0.000056
0.000191
0.000273
0.000582
0.000425
0.000257
0.000233
0.000254
0.000241
0.000257
0.000251
0.000237
0.000269
0.000275
0.000229
0.000266
0.000335
0.000323
0.000450
0.000343
0.001327
0.000264
0.000262
0.000246
0.000262
0.000430
0.000472
0.000384
0.000253
0.000271
0.000270
0.000191
0.000056
0.000209
0.000241
0.000244
0.000265
0.000227
0.000270
0.000451
0.000437
0.000326
0.000223
0.000238
0.000260
0.000273
0.000288
0.000240
0.000254
0.000269
0.000252
0.000283
0.000325
0.000485
0.000362
0.000302
0.001361
0.000399
0.000237
0.000261
0.000394
0.000541
0.000276
0.000311
0.000056
0.000197
0.000230
0.000247
0.000248
0.000266
0.000238
0.001728
0.000211
0.000202
0.000240
0.000254
0.000247
0.000254
0.000324
0.000330
0.000281
0.000256
0.000284
0.000615
0.000325
0.000312
0.000273
0.000244
0.000249
0.001488
0.000354
0.000424
0.000444
0.000322
0.000297
0.000171
0.000057
0.000226
0.000238
0.000256
0.000256
0.000248
0.000262
0.001705
0.000234
0.000243
0.000261
0.000329
0.000398
0.001465
0.000353
0.000384
0.000245
0.000260
0.000230
0.000272
0.000275
0.001530
0.000676
0.000288
0.000291
0.000234
0.000258
0.000260
0.000284
0.000253
0.000243
0.000200
0.000056
0.000208
0.000243
0.000259
0.000263
0.000254
0.000285
0.000264
0.000258
0.000249
0.000252
0.000255
0.000247
0.000291
0.000237
0.000256
0.001490
0.000281
0.000239
0.000267
0.000279
0.000270
0.000254
0.001454
0.000317
0.000210
0.000232
0.000270
0.000256
0.000396
0.000246
0.000201
0.000057
0.000204
0.000254
0.000220
0.000243
0.000241
0.000230
0.000236
0.001687
0.000260
0.000221
0.000355
0.000269
0.000228
0.000222
0.000260
0.001378
0.000235
0.000267
0.000270
0.000249
0.000256
0.000350
0.000293
0.001296
0.000286
0.000241
0.000253
0.000274
0.001381
0.000274
0.000185
0.000056
0.000313
0.000294
0.000210
0.000247
0.000255
0.000225
0.000287
0.000251
0.000261
0.000248
0.000256
0.000267
0.000251
0.000250
0.000318
0.001511
0.000225
0.000268
0.000257
0.000240
0.000282
0.000265
0.000250
0.001528
0.000322
0.000243
0.000265
0.001282
0.000269
0.000244
0.000257
0.000056
0.000220
0.000449
0.000297
0.000213
0.000246
0.000226
0.000267
0.000254
0.000261
0.000274
0.000230
0.000258
0.000263
0.000394
0.000291
0.001224
0.000233
0.000250
0.000266
0.000276
0.000230
0.000239
0.000252
0.000332
0.001298
0.000218
0.000262
0.000252
0.000255
0.001343
0.000374
0.000056
0.000363
0.000244
0.000203
0.000233
0.000236
0.000265
0.000233
0.000250
0.000297
0.000230
0.000243
0.000254
0.000286
0.000319
0.000452
0.001399
0.000216
0.000259
0.000299
0.000513
0.000303
0.000456
0.001267
0.000306
0.000239
0.000257
0.000252
0.001304
0.000349
0.000395
0.000395
0.000057
0.000198
0.000251
0.000251
0.000256
0.000253
0.000258
0.000267
0.000269
0.000246
0.000263
0.000381
0.000465
0.001264
0.000240
0.000268
0.000267
0.000275
0.000240
0.000226
0.000242
0.000332
0.001250
0.000253
0.000248
0.000254
0.000253
0.001461
0.000514
0.000442
0.000216
0.000200
0.000057
0.000217
0.000219
0.000250
0.000237
0.000253
0.000265
0.000237
0.000306
0.000481
0.000393
0.000267
0.001491
0.000211
0.000246
0.000268
0.000248
0.000301
0.000256
0.001690
0.000240
0.000389
0.000342
0.001282
0.000383
0.000286
0.000324
0.000258
0.000282
0.000244
0.000271
0.000185
0.000056
0.000205
0.000240
0.000328
0.000281
0.000302
0.000501
0.000305
0.000287
0.001475
0.000238
0.000377
0.000273
0.000224
0.000308
0.000389
0.001322
0.000258
0.000239
0.000246
0.000260
0.001530
0.000371
0.000294
0.000260
0.000269
0.000250
0.000450
0.000331
0.000254
0.000247
0.000256
0.000056
0.000252
0.000365
0.000333
0.000258
0.000223
0.001528
0.000204
0.000259
0.000266
0.000271
0.000269
0.000241
0.000298
0.001492
0.000251
0.000230
0.000437
0.001188
0.000343
0.000432
0.000411
0.000229
0.000255
0.000241
0.000296
0.000225
0.000454
0.000224
0.000267
0.000280
0.000196
0.000055
0.000240
0.000274
0.000319
0.000337
0.001322
0.000282
0.000335
0.000224
0.000221
0.000255
0.000247
0.000334
0.001480
0.000259
0.000230
0.000245
0.001387
0.000268
0.000435
0.000378
0.000427
0.000232
0.000255
0.000255
0.000264
0.000282
0.000255
0.000264
0.000273
0.000252
0.000206
0.000057
0.000201
0.000349
0.001511
0.000205
0.000278
0.000299
0.000213
0.000250
0.000264
0.000508
0.001271
0.000208
0.000259
0.000263
0.000252
0.001288
0.000629
0.000333
0.000330
0.000411
0.000304
0.000244
0.000274
0.000260
0.000268
0.000289
0.000274
0.000325
0.000453
0.000378
0.001398
0.000057
0.000198
0.000244
0.000245
0.000223
0.000245
0.000636
0.000298
0.001265
0.000241
0.000237
0.000249
0.001404
0.000381
0.000411
0.000222
0.000434
0.000222
0.000247
0.000261
0.000291
0.000251
0.000255
0.000278
0.000254
0.000249
0.000282
0.000436
0.000488
0.001504
0.000222
0.000186
0.000057
0.000215
0.000249
0.000340
0.000585
0.001205
0.000319
0.000213
0.000257
0.000244
0.000255
0.000250
0.000290
0.000359
0.000508
0.000296
0.000244
0.000252
0.000278
0.000235
0.000308
0.000234
0.000265
0.000256
0.000267
0.000252
0.000328
0.000566
0.000309
0.000330
0.001414
0.000168
0.000057
0.000200
0.000232
0.000336
0.000429
0.000371
0.000241
0.000318
0.000333
0.000292
0.000252
0.000238
0.000262
0.000252
0.000310
0.000233
0.000296
0.000520
0.000363
0.000278
0.000395
0.000266
0.000405
0.000224
0.000246
0.000268
0.000258
0.000251
0.000298
0.000360
0.000492
0.000292
0.000056
0.000189
0.001418
0.000216
0.000339
0.000402
0.000476
0.000419
0.000237
0.000207
0.000244
0.000264
0.000249
0.000283
0.000253
0.000256
0.000279
0.000241
0.001312
0.000315
0.000244
0.000252
0.000276
0.000273
0.000277
0.000268
0.000255
0.000277
0.000242
0.000333
0.000402
0.000445
0.000056
0.000199
0.000236
0.000241
0.001498
0.000328
0.000246
0.000217
0.000255
0.000229
0.000248
0.000251
0.000282
0.000243
0.000251
0.000293
0.000233
0.000246
0.000268
0.000251
0.000256
0.001433
0.000228
0.000258
0.000270
0.000263
0.000246
0.000268
0.000258
0.000279
0.000500
0.000337
0.000055
0.000206
0.000234
0.000393
0.000291
0.000235
0.000259
0.001523
0.000356
0.000289
0.000224
0.000259
0.000312
0.000332
0.000229
0.000225
0.000254
0.000242
0.000282
0.000243
0.000258
0.000538
0.000424
0.001153
0.000252
0.000260
0.000254
0.000269
0.000263
0.000295
0.000236
0.000398
0.000057
0.000273
0.000334
0.000223
0.000229
0.000253
0.000240
0.000243
0.000226
0.000289
0.001600
0.000397
0.000262
0.000243
0.000252
0.000259
0.000241
0.000262
0.000272
0.000283
0.000299
0.000317
0.000468
0.000459
0.001368
0.000223
0.000282
0.000260
0.000259
0.000281
0.000425
0.000372
0.000056
0.000260
0.000265
0.000226
0.000236
0.000225
0.000240
0.000264
0.000278
0.000255
0.001592
0.000338
0.000259
0.000241
0.000258
0.000459
0.000256
0.000549
0.000369
0.000275
0.000264
0.000528
0.000435
0.001298
0.000252
0.000236
0.000258
0.001810
0.000352
0.000611
0.000319
0.000152
0.000056
0.000198
0.000232
0.000242
0.000235
0.000263
0.000235
0.000246
0.000492
0.000545
0.000380
0.000292
0.000217
0.000239
0.000263
0.000281
0.000272
0.000235
0.000261
0.000234
0.000284
0.000255
0.000464
0.001304
0.000224
0.000254
0.000268
0.001898
0.000381
0.000395
0.000340
0.000159
0.000057
0.000239
0.000241
0.000245
0.001564
0.000428
0.000210
0.000238
0.000264
0.000251
0.000275
0.000376
0.000369
0.000367
0.000282
0.000249
0.000566
0.000394
0.001189
0.000272
0.000241
0.000257
0.000262
0.000275
0.000398
0.000582
0.000489
0.000261
0.000267
0.000270
0.000278
0.000192
0.000056
0.000194
0.000238
0.000240
0.001530
0.000266
0.000229
0.000239
0.000259
0.000239
0.000254
0.000252
0.000269
0.000265
0.000284
0.000295
0.000327
0.000428
0.000344
0.001397
0.000225
0.000269
0.000255
0.000260
0.000312
0.000343
0.000397
0.000527
0.000252
0.000291
0.000231
0.000453
0.000055
0.000217
0.000244
0.000267
0.001537
0.000295
0.000214
0.000267
0.000242
0.000254
0.000259
0.000255
0.000269
0.000243
0.000248
0.000346
0.000673
0.001279
0.000753
0.000258
0.000343
0.000238
0.000244
0.000246
0.000277
0.001675
0.000803
0.000234
0.000257
0.000282
0.000280
0.000189
0.000056
0.000188
0.000234
0.000250
0.000242
0.000269
0.000263
0.000216
0.000259
0.000235
0.000244
0.000281
0.000282
0.000253
0.000249
0.000260
0.000250
0.000270
0.001592
0.000751
0.000361
0.000289
0.000235
0.000242
0.000310
0.000246
0.000252
0.000294
0.000233
0.001397
0.000394
0.000342
0.000056
0.000209
0.000220
0.000269
0.000232
0.000262
0.000232
0.000271
0.000231
0.000254
0.000260
0.000312
0.000413
0.000407
0.000329
0.000215
0.000252
0.000266
0.001385
0.000691
0.000506
0.000296
0.000282
0.000231
0.000252
0.000272
0.000257
0.000249
0.000267
0.001480
0.000448
0.000173
0.000055
0.000202
0.000253
0.000230
0.000248
0.000251
0.000252
0.000232
0.000250
0.000270
0.000274
0.000392
0.000346
0.000326
0.000217
0.000241
0.000249
0.000267
0.000256
0.001570
0.000634
0.000491
0.000283
0.000231
0.000255
0.000267
0.000269
0.000250
0.000283
0.000263
0.001352
0.000341
0.000056
0.000215
0.000218
0.000235
0.000257
0.000257
0.000245
0.000252
0.000297
0.000357
0.000434
0.000402
0.000395
0.000330
0.000225
0.000244
0.000251
0.000294
0.000241
0.000273
0.001930
0.000309
0.000236
0.000453
0.000228
0.000266
0.000259
0.000278
0.000252
0.000264
0.000278
0.000261
0.000057
0.000228
0.000275
0.000241
0.000243
0.000260
0.000245
0.000225
0.000238
0.000273
0.000264
0.000234
0.000236
0.000315
0.000461
0.000418
0.000453
0.000221
0.000262
0.000250
0.000252
0.000259
0.000276
0.001493
0.001038
0.000226
0.000243
0.000269
0.000264
0.000275
0.000252
0.000202
0.000056
0.000209
0.001332
0.000286
0.000218
0.000231
0.000258
0.000251
0.000254
0.000224
0.000264
0.000244
0.000265
0.000247
0.000421
0.000318
0.000478
0.000251
0.000253
0.000259
0.000275
0.000275
0.000236
0.000244
0.000267
0.001329
0.000680
0.000304
0.000380
0.000370
0.000420
0.000289
0.000056
0.000196
0.000254
0.000352
0.001312
0.000210
0.000251
0.000237
0.000260
0.000252
0.000258
0.000251
0.000246
0.000285
0.000337
0.000594
0.000269
0.000224
0.000283
0.000333
0.000209
0.000251
0.000272
0.000253
0.000254
0.000266
0.001535
0.000744
0.000320
0.000261
0.000271
0.000190
0.000057
0.000193
0.000239
0.000477
0.000336
0.001284
0.000245
0.000228
0.000243
0.000229
0.000253
0.000246
0.000256
0.000240
0.000232
0.000248
0.000257
0.000267
0.000233
0.000259
0.000255
0.000267
0.000269
0.000305
0.000332
0.000216
0.000274
0.000263
0.001458
0.000266
0.000237
0.000173
0.000056
0.000200
0.000233
0.000248
0.000262
0.000352
0.000372
0.000398
0.000277
0.001574
0.000242
0.000300
0.000467
0.000360
0.000237
0.000434
0.000240
0.000234
0.000263
0.000269
0.000275
0.000279
0.000264
0.000260
0.000270
0.000256
0.000426
0.000413
0.000296
0.001579
0.000221
0.000195
0.000056
0.000231
0.000235
0.000249
0.000248
0.000238
0.000245
0.000264
0.000311
0.000413
0.002031
0.000224
0.000252
0.000254
0.000261
0.000261
0.000299
0.000221
0.000259
0.000403
0.000358
0.000393
0.000355
0.001454
0.000246
0.000276
0.001980
0.000279
0.000243
0.000255
0.001530
0.000157
0.000056
0.000178
0.000518
0.000392
0.000242
0.000274
0.000213
0.000256
0.000268
0.000264
0.000227
0.000253
0.000343
0.000428
0.000428
0.000326
0.000241
0.000227
0.001573
0.000238
0.000600
0.001849
0.000294
0.000223
0.001552
0.002028
0.000735
0.000274
0.000257
0.000337
0.000427
0.000324
0.000057
0.000230
0.000253
0.000262
0.000221
0.002860
0.000290
0.001079
0.000201
0.000236
0.001626
0.001936
0.000212
0.000237
0.000428
0.000299
0.000371
0.000448
0.000438
0.000209
0.000237
0.000252
0.000260
0.000271
0.001585
0.001214
0.001422
0.000286
0.000281
0.000262
0.000320
0.000323
0.000055
0.000235
0.000217
0.000236
0.000244
0.000231
0.000257
0.000234
0.000259
0.000250
0.000243
0.000244
0.000323
0.000414
0.000485
0.000289
0.000241
0.000249
0.000270
0.000268
0.000297
0.000225
0.000262
0.001522
0.000466
0.002122
0.000240
0.000273
0.000341
0.000421
0.000376
0.000192
0.000057
0.000291
0.000254
0.000498
0.000308
0.000202
0.000227
0.000254
0.000241
0.000241
0.000246
0.000244
0.000271
0.000254
0.001610
0.001350
0.001222
0.000274
0.000238
0.000250
0.000272
0.000283
0.000284
0.000237
0.000255
0.002213
0.000244
0.000254
0.000294
0.000317
0.000311
0.000224
0.000055
0.000213
0.000479
0.000414
0.000327
0.000234
0.000235
0.000244
0.000266
0.001904
0.001416
0.000213
0.000337
0.000381
0.000412
0.000256
0.000239
0.000255
0.000270
0.000262
0.000262
0.000259
0.000267
0.000466
0.000239
0.000268
0.000268
0.000244
0.000280
0.000290
0.000242
0.000203
0.000056
0.000201
0.000251
0.000251
0.000240
0.000278
0.000248
0.001534
0.001421
0.001328
0.000234
0.000240
0.000241
0.000265
0.000263
0.000245
0.000247
0.000246
0.002108
0.000250
0.000232
0.000266
0.000274
0.000245
0.000271
0.000260
0.000276
0.000255
0.000251
0.000288
0.000245
0.000179
0.000057
0.000198
0.002674
0.001409
0.000214
0.000301
0.000326
0.000212
0.000282
0.000237
0.000241
0.000252
0.000246
0.000234
0.000247
0.000271
0.000254
0.000268
0.000265
0.000265
0.000274
0.000257
0.000277
0.000278
0.000262
0.000246
0.000244
0.000268
0.000275
0.000255
0.000270
0.000381
0.000056
0.001569
0.000227
0.001234
0.000231
0.000224
0.000252
0.000246
0.000276
0.000224
0.000380
0.000278
0.000397
0.000304
0.000222
0.000246
0.002144
0.000237
0.000253
0.000339
0.000474
0.000379
0.000248
0.000236
0.000255
0.000265
0.000250
0.000278
0.000280
0.000249
0.001662
0.001213
0.000059
0.000201
0.000222
0.000304
0.000440
0.000290
0.000302
0.000213
0.000234
0.000253
0.000257
0.000267
0.000244
0.000225
0.000255
0.000277
0.000229
0.000367
0.000594
0.000335
0.000238
0.000238
0.000268
0.000287
0.000249
0.000251
0.000263
0.000252
0.000273
0.000241
0.000380
0.000297
0.000057
0.001118
0.000223
0.000390
0.000447
0.000258
0.000227
0.000230
0.000239
0.000270
0.002340
0.000397
0.000284
0.000232
0.000381
0.000300
0.000254
0.000243
0.000259
0.000270
0.000242
0.000233
0.000307
0.000676
0.000386
0.001833
0.001260
0.000566
0.000551
0.000220
0.000283
0.000196
0.000056
0.000290
0.000280
0.000258
0.000238
0.000253
0.000230
0.000254
0.000251
0.000256
0.000248
0.000254
0.000240
0.000235
0.000283
0.000396
0.000460
0.001851
0.001314
0.000449
0.000450
0.000457
0.000237
0.000242
0.000262
0.002126
0.000594
0.000344
0.000237
0.000280
0.000282
0.000195
0.000056
0.000216
0.000242
0.000263
0.000251
0.000225
0.000431
0.000369
0.000322
0.000266
0.000222
0.000243
0.000248
0.000260
0.002108
0.000381
0.000376
0.000216
0.000249
0.000287
0.000240
0.000247
0.002462
0.000335
0.000219
0.000255
0.000258
0.000256
0.000275
0.000307
0.000251
0.000193
0.000056
0.000210
0.000403
0.000500
0.000353
0.000251
0.000222
0.000235
0.000255
0.000264
0.000254
0.001937
0.000404
0.000270
0.000268
0.000245
0.000269
0.000267
0.000242
0.002206
0.000449
0.000224
0.000264
0.000272
0.000255
0.000254
0.000255
0.000301
0.000235
0.000268
0.000253
0.000192
0.000056
0.000224
0.000240
0.000246
0.000229
0.000242
0.000260
0.000236
0.000245
0.000236
0.002179
0.000268
0.000238
0.000219
0.000430
0.000219
0.000257
0.000304
0.000263
0.000254
0.000250
0.001970
0.000268
0.000336
0.000363
0.000437
0.000403
0.000312
0.000258
0.000252
0.000259
0.000199
0.000055
0.000207
0.000238
0.000235
0.000253
0.000371
0.000202
0.000229
0.002306
0.000241
0.000233
0.000255
0.000257
0.000236
0.000281
0.000277
0.002123
0.000590
0.000232
0.000243
0.000241
0.000261
0.000258
0.000294
0.000270
0.000260
0.000249
0.000305
0.000239
0.000266
0.000270
0.000194
0.000056
0.001819
0.001439
0.000202
0.000252
0.000221
0.000251
0.000251
0.000281
0.000419
0.000343
0.002147
0.000264
0.000226
0.000276
0.000299
0.000433
0.000458
0.000295
0.000225
0.000250
0.000249
0.000264
0.000267
0.000230
0.000255
0.000264
0.000272
0.000268
0.000405
0.000569
0.000324
0.000055
0.000203
0.000243
0.000245
0.000249
0.000273
0.000241
0.000262
0.000236
0.001473
0.002120
0.000611
0.000253
0.000422
0.000719
0.000309
0.000235
0.000258
0.000263
0.000254
0.000259
0.000252
0.000248
0.000245
0.000277
0.003008
0.000329
0.000242
0.000261
0.000292
0.000402
0.000358
0.000056
0.001927
0.000238
0.000233
0.000229
0.000272
0.000362
0.000458
0.000313
0.000272
0.000230
0.000241
0.000262
0.000242
0.000260
0.000265
0.000258
0.000255
0.000281
0.001814
0.000236
0.000248
0.000255
0.000276
0.000280
0.000269
0.000254
0.001460
0.000346
0.000241
0.000262
0.000168
0.000073
0.000179
0.000236
0.000264
0.000224
0.000246
0.000242
0.000278
0.000407
0.000322
0.000368
0.000235
0.000236
0.000260
0.000331
0.000421
0.000314
0.000227
0.000258
0.000262
0.000387
0.000509
0.000361
0.000264
0.000255
0.000260
0.000254
0.000252
0.000274
0.000272
0.000270
0.000200
0.000056
0.001426
0.000440
0.000221
0.001952
0.000336
0.000380
0.000411
0.000314
0.000217
0.000252
0.000269
0.000243
0.000244
0.000246
0.000270
0.000257
0.000464
0.000312
0.000384
0.000347
0.000361
0.000237
0.000255
0.000270
0.000272
0.000267
0.000262
0.000267
0.000391
0.000428
0.001378
0.000055
0.000203
0.000222
0.002082
0.000334
0.000298
0.000236
0.000272
0.000232
0.000264
0.000254
0.000221
0.000253
0.000256
0.000261
0.000276
0.000334
0.000708
0.001765
0.000226
0.000254
0.000256
0.000261
0.000378
0.000508
0.001509
0.000285
0.000362
0.001928
0.000251
0.000267
0.000194
0.000056
0.000211
0.000231
0.000228
0.000243
0.000232
0.000252
0.000261
0.000270
0.000330
0.000263
0.000377
0.000366
0.000337
0.000296
0.000244
0.000277
0.000256
0.000244
0.000262
0.000255
0.000307
0.000281
0.000270
0.000261
0.000269
0.001502
0.000292
0.000384
0.002070
0.000239
0.000176
0.000057
0.000230
0.000237
0.000240
0.000246
0.000486
0.000208
0.000274
0.000311
0.000375
0.000310
0.000299
0.000205
0.000271
0.000262
0.000273
0.000330
0.000430
0.000425
0.000243
0.000415
0.000542
0.000464
0.001542
0.000231
0.000252
0.002009
0.000304
0.000257
0.000233
0.000299
0.000186
0.000056
0.000206
0.000242
0.000229
0.000245
0.000252
0.000267
0.000256
0.000273
0.000249
0.000290
0.001777
0.000312
0.000386
0.000278
0.000462
0.000388
0.000395
0.001442
0.000234
0.000284
0.002159
0.000522
0.000255
0.000249
0.000262
0.000266
0.000508
0.000226
0.000249
0.000282
0.000193
0.000056
0.000279
0.000359
0.000373
0.000294
0.000201
0.000244
0.000261
0.000253
0.000265
0.000295
0.000237
0.000238
0.000255
0.000317
0.000287
0.000480
0.001306
0.000265
0.000281
0.001964
0.000327
0.000274
0.000233
0.000267
0.000246
0.000281
0.000264
0.000266
0.000249
0.000280
0.000192
0.000055
0.000229
0.000394
0.002054
0.000258
0.000221
0.000260
0.000289
0.000347
0.000431
0.000355
0.001312
0.000354
0.000355
0.002085
0.000215
0.000242
0.000270
0.000276
0.000255
0.000247
0.000277
0.000292
0.000260
0.000351
0.000525
0.000366
0.000270
0.002237
0.000500
0.000500
0.000404
0.000055
0.000220
0.000227
0.000240
0.001962
0.000230
0.000235
0.000238
0.000243
0.000244
0.000263
0.000244
0.000264
0.000275
0.000279
0.000562
0.001322
0.000248
0.000243
0.000273
0.000262
0.000228
0.000256
0.000259
0.000263
0.000360
0.000534
0.000348
0.000249
0.001606
0.000270
0.000163
0.000056
0.000202
0.000225
0.000247
0.000229
0.000265
0.000268
0.000224
0.000247
0.000257
0.000351
0.000390
0.001414
0.000219
0.000237
0.000250
0.000292
0.000228
0.000257
0.000295
0.000505
0.000578
0.000246
0.000228
0.001598
0.000215
0.000255
0.000290
0.000278
0.000262
0.000269
0.000188
0.000056
0.000207
0.000234
0.000272
0.000268
0.000247
0.000242
0.000240
0.000239
0.000278
0.000222
0.000255
0.000274
0.000248
0.001477
0.000362
0.000202
0.000259
0.000263
0.000268
0.000314
0.000370
0.000277
0.000247
0.000266
0.000259
0.000265
0.000257
0.001415
0.000279
0.000227
0.000177
0.000056
0.000220
0.000216
0.000264
0.000261
0.000269
0.000224
0.000246
0.000256
0.000221
0.000267
0.000244
0.000255
0.000228
0.000283
0.000405
0.000389
0.000236
0.000228
0.001641
0.000244
0.000232
0.000259
0.000267
0.000280
0.000404
0.000352
0.000464
0.000263
0.000256
0.001612
0.000162
0.000056
0.000305
0.000402
0.000283
0.000344
0.000229
0.000215
0.000246
0.000270
0.000257
0.000254
0.000230
0.000238
0.001472
0.000294
0.000296
0.000219
0.000253
0.000273
0.000251
0.000266
0.000252
0.000235
0.000266
0.000268
0.000274
0.000390
0.000457
0.000298
0.000285
0.000258
0.000192
0.000055
0.000205
0.000257
0.000377
0.000440
0.000375
0.000237
0.000241
0.000251
0.000251
0.000257
0.000241
0.000226
0.000257
0.000247
0.001250
0.000312
0.000227
0.000253
0.000263
0.000273
0.000232
0.000266
0.000256
0.000256
0.000258
0.000257
0.000368
0.000657
0.000428
0.000238
0.000179
0.000056
0.000194
0.001572
0.000213
0.000359
0.000465
0.000355
0.000222
0.000258
0.000262
0.000264
0.000229
0.000262
0.000267
0.000278
0.000257
0.001540
0.000238
0.000289
0.000257
0.000257
0.000277
0.000242
0.000262
0.000260
0.000261
0.000322
0.000346
0.000380
0.000367
0.000250
0.000195
0.000056
0.000206
0.000249
0.000237
0.001620
0.000459
0.000296
0.000236
0.000233
0.000251
0.000273
0.000280
0.000252
0.000255
0.000256
0.000230
0.000274
0.000451
0.001274
0.000249
0.000225
0.001494
0.000557
0.000327
0.000402
0.000327
0.000242
0.000286
0.000452
0.000234
0.000268
0.000178
0.000055
0.000275
0.000221
0.000251
0.000244
0.000256
0.000245
0.000245
0.000256
0.000252
0.000253
0.000246
0.000292
0.000370
0.000485
0.001590
0.001480
0.000366
0.000549
0.000330
0.000221
0.000227
0.000258
0.000266
0.000248
0.000260
0.000274
0.000248
0.000271
0.001533
0.000315
0.000162
0.000056
0.000204
0.000350
0.000355
0.000333
0.000230
0.000239
0.000243
0.000467
0.000322
0.000349
0.002190
0.000315
0.000690
0.000519
0.000456
0.000258
0.000328
0.000409
0.000314
0.000281
0.000399
0.000268
0.001526
0.000526
0.000219
0.000338
0.000199
0.000241
0.000271
0.000261
0.000203
0.000056
0.000198
0.000250
0.000257
0.000251
0.000243
0.001663
0.000876
0.000999
0.000204
0.000239
0.000260
0.000255
0.000262
0.000260
0.000252
0.000250
0.000254
0.000266
0.000263
0.000284
0.001420
0.000315
0.000254
0.000237
0.000232
0.000262
0.000263
0.000283
0.000262
0.000287
0.001896
0.000056
0.000202
0.000227
0.001541
0.000865
0.000404
0.000352
0.000217
0.000229
0.000247
0.000260
0.000260
0.000239
0.000246
0.001994
0.000464
0.000216
0.000249
0.000257
0.000262
0.000258
0.000193
