0.000106
0.020625
0.000631
0.000421
0.000265
0.000294
0.000326
0.000229
0.000326
0.000284
0.000251
0.000326
0.000581
0.000519
0.000318
0.000340
0.000290
0.000311
0.000355
0.000419
0.001833
0.000358
0.000773
0.000241
0.000240
0.000302
0.000320
0.000313
0.000421
0.000409
0.000476
0.000305
0.000058
0.000206
0.000282
0.000258
0.000281
0.000252
0.000247
0.000278
0.000287
0.000273
0.000272
0.000419
0.000445
0.000298
0.000261
0.000397
0.000331
0.000363
0.000255
0.000239
0.001704
0.000320
0.000259
0.000443
0.000244
0.000279
0.000288
0.000282
0.000292
0.000276
0.000321
0.000407
0.000058
0.000244
0.000251
0.000263
0.000263
0.000269
0.000230
0.000264
0.000255
0.000286
0.001669
0.000225
0.000235
0.000276
0.000267
0.000282
0.000247
0.000262
0.000259
0.000356
0.001783
0.000235
0.000287
0.000451
0.000428
0.000389
0.000225
0.000268
0.000454
0.000620
0.000672
0.000186
0.000056
0.000236
0.000266
0.000232
0.000257
0.000282
0.000249
0.000267
0.000581
0.000405
0.000255
0.000239
0.000257
0.000242
0.000252
0.000256
0.000260
0.000242
0.000265
0.000300
0.000321
0.001672
0.000285
0.000241
0.000432
0.000313
0.000696
0.000610
0.000555
0.000353
0.000241
0.000185
0.000058
0.000229
0.000251
0.000296
0.000212
0.000282
0.000233
0.000276
0.000678
0.001245
0.000213
0.000251
0.000239
0.000259
0.000266
0.000254
0.000277
0.000283
0.000794
0.001394
0.000300
0.000240
0.000438
0.000215
0.000247
0.000257
0.000255
0.000270
0.000275
0.000261
0.000262
0.000197
0.000057
0.000195
0.000248
0.000248
0.000260
0.000237
0.000254
0.000225
0.000257
0.000238
0.000259
0.001627
0.000261
0.000226
0.000251
0.000256
0.000246
0.000246
0.000265
0.000239
0.000258
0.000290
0.001637
0.000281
0.000259
0.000442
0.000260
0.000243
0.000264
0.000263
0.000266
0.000199
0.000058
0.000219
0.000229
0.000254
0.000241
0.000244
0.000248
0.000263
0.000235
0.000264
0.000261
0.000245
0.000257
0.000259
0.000272
0.001641
0.000275
0.000282
0.000223
0.000258
0.000277
0.000263
0.000239
0.000246
0.000266
0.001802
0.000394
0.000345
0.000361
0.000222
0.000282
0.000193
0.000057
0.000235
0.000235
0.000243
0.000266
0.000261
0.000264
0.000326
0.000411
0.000375
0.000416
0.000191
0.000252
0.000246
0.000247
0.001566
0.000516
0.000329
0.000485
0.000245
0.000231
0.000265
0.000288
0.000268
0.001723
0.000508
0.000481
0.000241
0.000262
0.000232
0.000272
0.000180
0.000058
0.000199
0.000244
0.000249
0.000276
0.000343
0.000420
0.000379
0.000293
0.000213
0.000246
0.000267
0.000230
0.000257
0.001718
0.000587
0.000195
0.000216
0.000263
0.000260
0.000293
0.000244
0.000253
0.001802
0.000392
0.000278
0.000402
0.000224
0.000264
0.000265
0.000403
0.000325
0.000057
0.000204
0.000380
0.000390
0.000254
0.000253
0.000244
0.000252
0.000264
0.000239
0.000229
0.000237
0.000246
0.001568
0.000320
0.000336
0.000224
0.000258
0.000268
0.000235
0.000304
0.000252
0.000330
0.000238
0.001818
0.000257
0.000503
0.000228
0.000251
0.000259
0.000273
0.000285
0.000057
0.000356
0.000584
0.000606
0.000215
0.000228
0.000274
0.000236
0.000210
0.000266
0.000254
0.000253
0.001693
0.000251
0.000445
0.000371
0.000228
0.000230
0.000227
0.000253
0.000262
0.000264
0.001844
0.000222
0.000480
0.001851
0.000547
0.000335
0.000250
0.000253
0.000267
0.000189
0.000056
0.000215
0.000235
0.000243
0.000242
0.000254
0.001621
0.000260
0.000226
0.000258
0.000263
0.000226
0.000265
0.000241
0.000244
0.000276
0.000373
0.000686
0.000233
0.000232
0.000268
0.000285
0.000234
0.000249
0.000431
0.000436
0.000264
0.000351
0.000593
0.000385
0.000275
0.000206
0.000055
0.000220
0.000237
0.000254
0.000250
0.000263
0.000217
0.000241
0.000403
0.001825
0.000318
0.000221
0.000233
0.000249
0.000246
0.000258
0.000318
0.000381
0.000490
0.000332
0.000241
0.000267
0.000299
0.000284
0.000249
0.000283
0.000432
0.000344
0.000626
0.000418
0.000477
0.000173
0.000056
0.000216
0.000258
0.000241
0.000235
0.000240
0.000232
0.000249
0.000263
0.000230
0.000284
0.000337
0.000455
0.001382
0.000258
0.000218
0.000249
0.000257
0.000267
0.000229
0.000267
0.000305
0.000460
0.000375
0.000258
0.000269
0.000256
0.000249
0.000273
0.000265
0.000262
0.000387
0.000056
0.000199
0.000237
0.000224
0.000272
0.000529
0.000440
0.000236
0.000258
0.000230
0.000259
0.000259
0.000228
0.000296
0.000251
0.000237
0.000480
0.000419
0.001648
0.000276
0.000234
0.000259
0.000262
0.000257
0.000242
0.000264
0.000460
0.000459
0.000329
0.000432
0.000236
0.000192
0.000056
0.000222
0.000441
0.000248
0.000193
0.000287
0.000226
0.000377
0.000474
0.000333
0.000329
0.000226
0.000275
0.000259
0.000239
0.000518
0.000340
0.000226
0.000250
0.000394
0.001650
0.000264
0.000245
0.000526
0.000259
0.000265
0.000284
0.000244
0.000337
0.000566
0.000371
0.000270
0.000057
0.000191
0.000235
0.000237
0.000240
0.000421
0.000307
0.000290
0.000225
0.000424
0.000476
0.000353
0.000251
0.000235
0.000245
0.000255
0.000267
0.000254
0.000256
0.000249
0.000335
0.000289
0.000343
0.001829
0.000243
0.000256
0.000256
0.000284
0.000352
0.000416
0.000699
0.000431
0.000056
0.000222
0.000327
0.000301
0.000421
0.000386
0.000204
0.000258
0.000370
0.000424
0.000431
0.000255
0.000240
0.000238
0.000272
0.000262
0.000239
0.000260
0.000265
0.000268
0.000258
0.000270
0.000402
0.000666
0.001334
0.000329
0.000433
0.000437
0.000221
0.000421
0.000427
0.000321
0.000056
0.000224
0.000381
0.000280
0.000208
0.000230
0.000250
0.000413
0.000245
0.000215
0.000381
0.000435
0.000448
0.000222
0.000258
0.000261
0.000249
0.000351
0.000395
0.000350
0.000248
0.000235
0.000365
0.000652
0.001679
0.000234
0.000429
0.000322
0.000228
0.000257
0.000455
0.000295
0.000056
0.000230
0.000228
0.000246
0.000260
0.000246
0.000239
0.000246
0.000326
0.000457
0.000287
0.000431
0.000385
0.000274
0.000583
0.000259
0.000229
0.000270
0.000265
0.000233
0.000347
0.000218
0.000249
0.000266
0.000388
0.000541
0.001637
0.000267
0.000238
0.000243
0.000279
0.000194
0.000057
0.000286
0.000512
0.000325
0.000225
0.000236
0.000267
0.000239
0.000238
0.000274
0.000238
0.000223
0.000273
0.000389
0.000521
0.000401
0.000282
0.000250
0.000257
0.000333
0.000382
0.000383
0.000335
0.000358
0.000420
0.000232
0.000259
0.000262
0.000269
0.001789
0.000248
0.000213
0.000058
0.000206
0.000240
0.000240
0.000292
0.000334
0.000541
0.000319
0.000213
0.000282
0.000241
0.000245
0.000252
0.000520
0.000451
0.000487
0.000272
0.000271
0.000250
0.000431
0.000466
0.000348
0.000399
0.000628
0.000309
0.000257
0.000231
0.000272
0.000246
0.000267
0.001715
0.000354
0.000057
0.000261
0.000328
0.000201
0.000241
0.000257
0.000253
0.000231
0.000497
0.000380
0.000307
0.000290
0.000266
0.000359
0.000705
0.000280
0.000245
0.000243
0.000255
0.000250
0.000269
0.000276
0.000254
0.000247
0.000271
0.000315
0.000362
0.000398
0.000351
0.000251
0.000241
0.000191
0.000055
0.000456
0.000302
0.000456
0.000248
0.000204
0.000247
0.000246
0.000252
0.000248
0.000216
0.000281
0.000257
0.000289
0.000325
0.000553
0.000475
0.000325
0.000311
0.000380
0.000342
0.000302
0.000237
0.000246
0.000255
0.001750
0.000260
0.001727
0.000961
0.000347
0.000361
0.000163
0.000074
0.000206
0.000235
0.000229
0.000246
0.000274
0.000236
0.000255
0.000250
0.000238
0.000386
0.000309
0.000420
0.000345
0.000386
0.000243
0.000249
0.000253
0.000290
0.000227
0.000245
0.000251
0.000263
0.001814
0.000240
0.000252
0.000265
0.000274
0.000272
0.001902
0.000446
0.000310
0.000058
0.000228
0.000212
0.000236
0.000236
0.000260
0.000247
0.000247
0.000247
0.000255
0.000426
0.000530
0.000289
0.000408
0.000207
0.000246
0.000257
0.000324
0.000437
0.000371
0.000254
0.001782
0.000255
0.000242
0.000249
0.000266
0.000275
0.000237
0.000259
0.000324
0.000300
0.000371
0.000056
0.000225
0.000226
0.000236
0.000274
0.000236
0.000241
0.000258
0.000253
0.000237
0.000259
0.000240
0.000266
0.000394
0.000429
0.000300
0.000283
0.000445
0.000248
0.000242
0.000261
0.000258
0.000251
0.000282
0.000257
0.000281
0.001785
0.000240
0.000253
0.000272
0.000231
0.000200
0.000056
0.000250
0.000410
0.000205
0.000214
0.000248
0.000231
0.000243
0.000258
0.000246
0.000223
0.000234
0.000258
0.000256
0.000374
0.000418
0.000331
0.000297
0.000257
0.000259
0.000229
0.000265
0.000259
0.000247
0.000273
0.000241
0.000271
0.000354
0.001588
0.000258
0.000247
0.000190
0.000056
0.000209
0.000236
0.000253
0.000258
0.000351
0.000426
0.000322
0.000318
0.000231
0.000260
0.000256
0.000228
0.000248
0.000254
0.000262
0.000260
0.000244
0.000257
0.000249
0.000266
0.000262
0.000268
0.000250
0.000232
0.000250
0.000278
0.000287
0.000249
0.000257
0.000258
0.000190
0.000056
0.000191
0.000238
0.000261
0.000270
0.000236
0.000233
0.000244
0.000258
0.000284
0.000246
0.000252
0.000221
0.000257
0.000248
0.000290
0.000240
0.000253
0.000252
0.000297
0.000252
0.000272
0.000318
0.000273
0.000223
0.000305
0.000263
0.000259
0.000246
0.000255
0.000390
0.000755
0.000056
0.000229
0.000285
0.000229
0.000216
0.000243
0.000255
0.000241
0.000233
0.000249
0.000247
0.000266
0.000283
0.000495
0.000442
0.001577
0.000233
0.000492
0.000231
0.000251
0.000458
0.000427
0.000391
0.000226
0.000284
0.000249
0.000256
0.000282
0.000254
0.000317
0.000285
0.000153
0.000055
0.000306
0.000472
0.000334
0.000328
0.000212
0.000279
0.000229
0.000241
0.000234
0.000243
0.000271
0.000238
0.000235
0.000319
0.000285
0.000508
0.000408
0.001791
0.000233
0.000253
0.000365
0.000414
0.000429
0.000301
0.000314
0.000314
0.000304
0.000231
0.000229
0.000254
0.000199
0.000072
0.000190
0.000234
0.000317
0.000210
0.000342
0.000448
0.000353
0.000259
0.000252
0.000214
0.000247
0.000274
0.000263
0.000262
0.000244
0.000257
0.000305
0.000494
0.000318
0.000457
0.000225
0.001762
0.000312
0.000499
0.000483
0.000495
0.000319
0.000230
0.000255
0.000263
0.000451
0.000057
0.000204
0.000292
0.000206
0.000264
0.000464
0.000429
0.000389
0.000224
0.000262
0.000281
0.000221
0.000266
0.000250
0.000297
0.000304
0.000234
0.000229
0.000404
0.000407
0.000376
0.000510
0.001849
0.000246
0.000415
0.000518
0.000364
0.000225
0.000280
0.000276
0.000260
0.000200
0.000055
0.000212
0.000343
0.000360
0.000321
0.000400
0.000337
0.000326
0.000211
0.000246
0.000258
0.000275
0.000224
0.000253
0.000249
0.000247
0.000265
0.000336
0.000338
0.000526
0.000365
0.000301
0.000237
0.000253
0.001722
0.000360
0.000560
0.000694
0.000230
0.000261
0.000317
0.000153
0.000056
0.000203
0.000234
0.000344
0.000237
0.000264
0.000403
0.000396
0.000292
0.000248
0.000524
0.000228
0.000255
0.000255
0.000277
0.000272
0.000267
0.000210
0.000359
0.000531
0.000373
0.000266
0.000226
0.000259
0.000251
0.000266
0.000265
0.000231
0.000257
0.000265
0.000297
0.000189
0.000058
0.000233
0.000299
0.000214
0.000258
0.000251
0.000259
0.000237
0.000287
0.000239
0.000248
0.000277
0.000332
0.000420
0.000376
0.000377
0.000267
0.000228
0.000235
0.000257
0.000266
0.000290
0.000261
0.000235
0.000254
0.000285
0.000316
0.000379
0.000463
0.000307
0.000225
0.000169
0.000056
0.000192
0.000225
0.000281
0.000246
0.000231
0.000272
0.000266
0.000232
0.000496
0.000207
0.000264
0.000256
0.000239
0.000265
0.000272
0.000293
0.000245
0.000353
0.000215
0.000237
0.000256
0.000268
0.000257
0.000284
0.000259
0.000263
0.000262
0.000252
0.000261
0.000497
0.000170
0.000056
0.000190
0.000233
0.000253
0.000290
0.000204
0.000240
0.000367
0.000406
0.000233
0.000235
0.000251
0.000260
0.000232
0.000229
0.000450
0.001817
0.000230
0.000263
0.000286
0.000331
0.000409
0.000365
0.000360
0.000446
0.000417
0.000338
0.000223
0.000275
0.000274
0.000276
0.001388
0.000056
0.000394
0.000298
0.000272
0.000223
0.000231
0.000253
0.000234
0.000253
0.000245
0.000270
0.000246
0.000259
0.000253
0.000350
0.000439
0.001670
0.000236
0.000239
0.000242
0.000259
0.000240
0.000263
0.000379
0.000376
0.000301
0.000349
0.000212
0.000273
0.000278
0.000275
0.000173
0.000057
0.001202
0.000533
0.000337
0.000258
0.000238
0.000220
0.000237
0.000239
0.000494
0.000219
0.000240
0.000242
0.000351
0.000540
0.000368
0.000348
0.000249
0.000236
0.000327
0.000365
0.000282
0.000242
0.000275
0.000242
0.000263
0.000597
0.000533
0.000268
0.000253
0.000267
0.000169
0.000055
0.000208
0.000223
0.000242
0.000248
0.001440
0.000330
0.000221
0.000261
0.000262
0.000226
0.000257
0.000273
0.000222
0.000263
0.000271
0.000345
0.000394
0.000625
0.000274
0.001740
0.000265
0.000279
0.000320
0.000390
0.000633
0.000340
0.000238
0.000257
0.000254
0.000272
0.000191
0.000057
0.000218
0.000263
0.000226
0.000318
0.001251
0.000238
0.000253
0.000257
0.000244
0.000234
0.000236
0.000261
0.000276
0.000245
0.000247
0.000312
0.000469
0.000394
0.000325
0.000253
0.000275
0.000268
0.000249
0.000235
0.000290
0.000261
0.000240
0.000278
0.000267
0.000412
0.000510
0.000056
0.000225
0.000244
0.000236
0.000257
0.000266
0.000242
0.000236
0.000261
0.000286
0.000263
0.001411
0.000223
0.000240
0.000249
0.000253
0.000244
0.000284
0.000247
0.000281
0.000256
0.000257
0.000490
0.000462
0.000376
0.000234
0.000272
0.001767
0.000263
0.000246
0.000325
0.000410
0.000057
0.000213
0.000400
0.000454
0.000507
0.000524
0.000528
0.001503
0.000417
0.000515
0.000656
0.000549
0.000732
0.000506
0.000586
0.000584
0.001883
0.000404
0.000440
0.000385
0.000323
0.000225
0.000272
0.000308
0.000258
0.000259
0.000292
0.000286
0.000282
0.000257
0.000287
0.001365
0.000056
0.000225
0.000225
0.000246
0.000243
0.000260
0.000258
0.000232
0.000241
0.000248
0.000248
0.000242
0.000248
0.000251
0.000266
0.000263
0.000260
0.001812
0.000259
0.000264
0.000245
0.000254
0.000273
0.000259
0.000262
0.000464
0.000378
0.000337
0.000247
0.000266
0.000277
0.000207
0.000057
0.000207
0.001355
0.000335
0.000271
0.000246
0.000238
0.000242
0.000243
0.000222
0.000241
0.000227
0.000239
0.000256
0.000506
0.000365
0.000297
0.000244
0.001822
0.000354
0.000230
0.000252
0.000261
0.000268
0.000257
0.000268
0.000285
0.000275
0.000245
0.000277
0.000311
0.000205
0.000057
0.000193
0.000257
0.000242
0.001436
0.000213
0.000253
0.000255
0.000239
0.000237
0.000273
0.000243
0.000248
0.000264
0.000262
0.000235
0.000260
0.000264
0.000265
0.000263
0.000256
0.000269
0.001767
0.000276
0.001760
0.000257
0.000267
0.000245
0.000276
0.000270
0.000266
0.000205
0.000055
0.000213
0.000251
0.001333
0.000252
0.000232
0.000241
0.000265
0.000248
0.000246
0.000244
0.000257
0.000262
0.000243
0.000265
0.000251
0.000265
0.000258
0.000284
0.000294
0.000227
0.001907
0.000216
0.001831
0.000230
0.000256
0.000280
0.000238
0.000239
0.000252
0.000284
0.000190
0.000056
0.001451
0.000218
0.000221
0.000253
0.000236
0.000240
0.000371
0.000281
0.000240
0.000252
0.000250
0.000263
0.000235
0.000367
0.000429
0.000264
0.000232
0.000275
0.000259
0.000253
0.000268
0.000345
0.000222
0.000272
0.000256
0.000275
0.000275
0.000529
0.000438
0.000368
0.000200
0.000056
0.000213
0.000251
0.000264
0.000307
0.000371
0.000242
0.001673
0.000334
0.000279
0.000260
0.000255
0.000277
0.000258
0.000295
0.000275
0.000310
0.000331
0.000577
0.000377
0.000265
0.000299
0.000274
0.000268
0.000269
0.000328
0.000260
0.000272
0.000237
0.000259
0.000323
0.000415
0.000057
0.000251
0.000463
0.000272
0.000257
0.000251
0.000228
0.000230
0.000245
0.000253
0.000278
0.001517
0.000208
0.000223
0.000245
0.000244
0.000291
0.000281
0.000238
0.000279
0.000247
0.000272
0.000411
0.000510
0.000304
0.000269
0.000279
0.000267
0.000258
0.000241
0.000314
0.000168
0.000056
0.000191
0.000270
0.000254
0.000450
0.000378
0.000268
0.000217
0.000247
0.000253
0.000256
0.000233
0.000251
0.000262
0.000267
0.000233
0.000242
0.000434
0.001171
0.000249
0.000250
0.000276
0.000246
0.000352
0.000417
0.000254
0.000279
0.000624
0.000350
0.000379
0.000229
0.000187
0.000056
0.000219
0.000242
0.000261
0.000259
0.000257
0.000247
0.000331
0.000392
0.000463
0.000278
0.000358
0.000406
0.000386
0.000360
0.000258
0.000247
0.000225
0.000265
0.000393
0.000460
0.001272
0.000224
0.000277
0.000275
0.000230
0.000233
0.000271
0.000319
0.000421
0.000447
0.000241
0.000057
0.000195
0.000245
0.000251
0.000246
0.000241
0.000245
0.000240
0.000266
0.000304
0.000324
0.000404
0.000439
0.000251
0.000212
0.000245
0.000263
0.000246
0.000263
0.000266
0.000274
0.000417
0.000243
0.000438
0.000343
0.000342
0.000246
0.000269
0.000271
0.000245
0.000353
0.000157
0.000057
0.000306
0.000313
0.000292
0.000401
0.000482
0.000320
0.000243
0.000247
0.000248
0.000268
0.000256
0.000264
0.000232
0.000255
0.000241
0.000223
0.000268
0.000352
0.000518
0.000337
0.000227
0.000277
0.000236
0.000247
0.000266
0.000286
0.000264
0.000281
0.000266
0.000261
0.000282
0.000056
0.000290
0.000296
0.000245
0.000267
0.000222
0.000245
0.000245
0.000254
0.000264
0.000258
0.000253
0.000239
0.000264
0.000530
0.000427
0.000283
0.000233
0.000244
0.000264
0.000263
0.000255
0.000261
0.000265
0.000264
0.000273
0.000274
0.000484
0.000588
0.000383
0.000262
0.000163
0.000056
0.000395
0.000203
0.000216
0.000249
0.000251
0.000242
0.000237
0.000255
0.000263
0.000254
0.000221
0.000243
0.000272
0.000226
0.000235
0.000274
0.000251
0.000263
0.000298
0.000243
0.000261
0.000260
0.000263
0.000266
0.000264
0.000240
0.000264
0.000275
0.000255
0.000287
0.000196
0.000056
0.000214
0.000221
0.000239
0.000248
0.000228
0.000256
0.000272
0.000247
0.000252
0.000296
0.000210
0.000231
0.000260
0.000399
0.000250
0.000290
0.000251
0.000267
0.000250
0.000280
0.000274
0.000228
0.000254
0.000247
0.000278
0.000269
0.000246
0.000264
0.000267
0.000262
0.000206
0.000055
0.000216
0.000360
0.000366
0.000282
0.000291
0.000264
0.000258
0.000279
0.000199
0.000248
0.000282
0.000236
0.000250
0.000230
0.000260
0.000279
0.000250
0.000260
0.000253
0.000257
0.000282
0.000260
0.000279
0.000258
0.000285
0.000228
0.000262
0.000270
0.000269
0.000262
0.000197
0.000055
0.000194
0.000229
0.000257
0.000266
0.000254
0.000445
0.000210
0.000272
0.000254
0.000456
0.000486
0.000292
0.000217
0.000251
0.000284
0.000256
0.000233
0.000272
0.000260
0.000272
0.000259
0.000262
0.000259
0.000291
0.000524
0.000476
0.000288
0.000298
0.000258
0.000267
0.000194
0.000056
0.000221
0.000240
0.000227
0.000253
0.000311
0.000703
0.000270
0.000391
0.000204
0.000247
0.000250
0.000258
0.000248
0.000249
0.000254
0.000271
0.000273
0.000240
0.000615
0.000402
0.000300
0.000250
0.000251
0.000288
0.000278
0.000255
0.000268
0.000284
0.000235
0.000325
0.000298
0.000057
0.000260
0.000235
0.000243
0.000240
0.000254
0.000270
0.000211
0.000252
0.000241
0.000257
0.000245
0.000254
0.000250
0.000398
0.000558
0.000395
0.000241
0.000251
0.000265
0.000241
0.000268
0.000290
0.000487
0.000204
0.000273
0.000611
0.000368
0.000517
0.000245
0.000249
0.000186
0.000057
0.000201
0.000231
0.000246
0.000243
0.000259
0.000254
0.000267
0.000512
0.000549
0.000422
0.000219
0.000263
0.000277
0.000273
0.000260
0.000238
0.000255
0.000232
0.000277
0.000288
0.000414
0.000671
0.000359
0.000257
0.000355
0.000378
0.000489
0.000263
0.000239
0.000329
0.000474
0.000057
0.000268
0.000230
0.000435
0.000221
0.000233
0.000257
0.000261
0.000273
0.000218
0.000244
0.000275
0.000397
0.000321
0.000376
0.000224
0.000261
0.000266
0.000243
0.000269
0.000276
0.000269
0.000253
0.000247
0.000278
0.000283
0.000506
0.000502
0.000225
0.000265
0.000268
0.000193
0.000056
0.000231
0.000252
0.000228
0.000248
0.000247
0.000296
0.000347
0.000372
0.000448
0.000259
0.000377
0.000226
0.000252
0.000262
0.000255
0.000240
0.000254
0.000263
0.000315
0.000364
0.000511
0.000316
0.000476
0.000264
0.000384
0.000422
0.000383
0.000247
0.000258
0.000289
0.000364
0.000057
0.000213
0.000271
0.000223
0.000259
0.000255
0.000257
0.000247
0.000248
0.000273
0.000244
0.000234
0.000370
0.000434
0.000375
0.000373
0.000230
0.000263
0.000271
0.000261
0.000236
0.000251
0.000251
0.000267
0.000273
0.000277
0.000332
0.000491
0.000474
0.000249
0.000267
0.000193
0.000056
0.000216
0.000241
0.000280
0.000247
0.000243
0.000343
0.000521
0.000447
0.000362
0.000689
0.000258
0.000217
0.000240
0.000261
0.000246
0.000269
0.000280
0.000274
0.000477
0.000440
0.001491
0.000313
0.000256
0.000288
0.000271
0.000263
0.000482
0.000313
0.000389
0.000284
0.000180
0.000056
0.000217
0.000236
0.000243
0.000263
0.000227
0.000251
0.000302
0.000225
0.000263
0.000325
0.000320
0.000376
0.000270
0.000338
0.000397
0.000342
0.000241
0.000248
0.000272
0.000253
0.000247
0.000253
0.000308
0.000223
0.000327
0.000438
0.000427
0.000286
0.000251
0.000274
0.000181
0.000057
0.000234
0.000247
0.000252
0.000255
0.000244
0.000244
0.000464
0.000213
0.000231
0.000258
0.000244
0.000247
0.000268
0.000251
0.000253
0.000266
0.000261
0.000288
0.000253
0.000251
0.000284
0.000268
0.000294
0.000246
0.000255
0.000287
0.000266
0.000262
0.000264
0.000270
0.000175
0.000056
0.000237
0.000240
0.000279
0.000433
0.000408
0.000230
0.000236
0.000243
0.000265
0.000249
0.000251
0.000251
0.000265
0.000262
0.000235
0.000246
0.000264
0.000252
0.000298
0.000315
0.000392
0.000448
0.000231
0.000263
0.000264
0.000256
0.000262
0.000258
0.000275
0.000273
0.000202
0.000056
0.000394
0.000472
0.000354
0.000198
0.000257
0.000257
0.000409
0.000226
0.000228
0.000257
0.000255
0.000290
0.000415
0.000375
0.001872
0.000245
0.000248
0.000247
0.000277
0.000240
0.000323
0.000469
0.000630
0.000271
0.000231
0.000266
0.000275
0.000426
0.000277
0.000282
0.000165
0.000057
0.000264
0.000350
0.000312
0.000338
0.000496
0.000196
0.000239
0.000254
0.000256
0.000238
0.000258
0.000241
0.000267
0.000309
0.000385
0.000507
0.000230
0.000249
0.000257
0.000257
0.000263
0.000318
0.000231
0.000280
0.000277
0.000447
0.000615
0.000288
0.000469
0.000226
0.000205
0.000057
0.000196
0.000238
0.000260
0.000229
0.000247
0.000251
0.000265
0.000297
0.000413
0.000277
0.000439
0.000349
0.000208
0.000267
0.000257
0.000293
0.000297
0.000239
0.000272
0.000274
0.000237
0.000273
0.000551
0.000317
0.000301
0.000254
0.000259
0.000435
0.000416
0.000297
0.000194
0.000057
0.000219
0.000232
0.000334
0.000430
0.000382
0.000201
0.000235
0.000258
0.000267
0.000260
0.000256
0.000253
0.000226
0.000258
0.000260
0.000277
0.000406
0.000363
0.000294
0.000351
0.000491
0.000223
0.000280
0.000275
0.000300
0.000286
0.000251
0.000262
0.000472
0.000481
0.000238
0.000056
0.000186
0.000230
0.000250
0.000252
0.000236
0.000486
0.000212
0.000256
0.000260
0.000464
0.000350
0.000605
0.000197
0.000242
0.000248
0.000248
0.000256
0.000268
0.000243
0.000248
0.000284
0.000248
0.000430
0.000337
0.000377
0.000396
0.000290
0.000310
0.000327
0.000245
0.000176
0.000056
0.000197
0.000233
0.000254
0.000487
0.000323
0.000312
0.000243
0.000230
0.000240
0.000262
0.000250
0.000259
0.000262
0.000239
0.000257
0.000257
0.000250
0.000243
0.000251
0.000433
0.000392
0.000481
0.000219
0.000254
0.000279
0.000279
0.000258
0.000256
0.000271
0.000258
0.000197
0.000055
0.000244
0.000401
0.000486
0.000239
0.000221
0.000245
0.000319
0.000457
0.000285
0.000214
0.000245
0.000271
0.000283
0.000435
0.000420
0.000307
0.000224
0.000234
0.000253
0.000259
0.000275
0.000264
0.000260
0.000276
0.000254
0.000321
0.000342
0.000439
0.000329
0.000240
0.000187
0.000058
0.000213
0.000240
0.000247
0.000256
0.000252
0.000264
0.000229
0.000266
0.000252
0.000234
0.000264
0.000237
0.000288
0.001433
0.000224
0.000251
0.000265
0.000240
0.000278
0.000276
0.000264
0.000239
0.000278
0.000266
0.000253
0.000272
0.000272
0.000270
0.000260
0.000264
0.000193
0.000056
0.000230
0.000217
0.000251
0.000268
0.000219
0.000244
0.000261
0.000260
0.000226
0.000252
0.000244
0.000259
0.000261
0.000255
0.000251
0.000257
0.000253
0.000257
0.000274
0.000252
0.000257
0.000264
0.000248
0.000246
0.001297
0.000281
0.000578
0.000434
0.000328
0.000234
0.000189
0.000056
0.000219
0.000235
0.000246
0.000250
0.000422
0.000235
0.000235
0.000247
0.000249
0.000384
0.000433
0.000333
0.000246
0.000226
0.000266
0.000254
0.000253
0.000273
0.000241
0.000259
0.000258
0.000252
0.000282
0.000373
0.000557
0.000430
0.000230
0.000270
0.001363
0.000241
0.000188
0.000058
0.000253
0.000376
0.000336
0.000283
0.000214
0.000215
0.000239
0.000264
0.000244
0.000257
0.000242
0.000257
0.000301
0.000393
0.000406
0.000374
0.000350
0.000218
0.000251
0.000255
0.000267
0.000290
0.000242
0.000268
0.000265
0.000262
0.000394
0.000480
0.000390
0.000371
0.000148
0.000056
0.000200
0.000240
0.001258
0.000452
0.000388
0.000336
0.000383
0.000497
0.000265
0.000345
0.000218
0.000234
0.000263
0.000252
0.000247
0.000269
0.000364
0.000473
0.000398
0.000362
0.000262
0.000243
0.000266
0.000513
0.000218
0.000261
0.000255
0.000283
0.000329
0.000529
0.000306
0.000056
0.000380
0.000310
0.000248
0.000216
0.001538
0.000518
0.000271
0.000250
0.000240
0.000256
0.000225
0.000242
0.000241
0.000272
0.000249
0.000261
0.000237
0.000263
0.000461
0.000330
0.000462
0.000250
0.000245
0.000255
0.000262
0.000279
0.000271
0.000240
0.000259
0.000280
0.000219
0.000056
0.000385
0.000323
0.000220
0.000235
0.000254
0.000242
0.000262
0.000235
0.000238
0.000231
0.001378
0.000483
0.000287
0.000240
0.000240
0.000260
0.000268
0.000259
0.000242
0.000299
0.000246
0.000252
0.000262
0.000401
0.000440
0.000451
0.000230
0.000266
0.000279
0.000275
0.000175
0.000055
0.000213
0.000416
0.000225
0.000230
0.000340
0.000490
0.000305
0.000351
0.000452
0.000213
0.000226
0.000255
0.000260
0.000263
0.000263
0.001391
0.000385
0.000279
0.000241
0.000269
0.000305
0.000230
0.000255
0.000256
0.000268
0.000385
0.000334
0.000434
0.000292
0.000275
0.000157
0.000056
0.000205
0.000238
0.000255
0.000236
0.000227
0.000260
0.000239
0.000246
0.000293
0.000386
0.000434
0.000266
0.000240
0.000254
0.000249
0.000276
0.000268
0.000259
0.000269
0.000227
0.000260
0.000297
0.001270
0.000250
0.000252
0.000254
0.000263
0.000260
0.000264
0.000262
0.000185
0.000057
0.000263
0.000313
0.000344
0.000349
0.000257
0.000246
0.000254
0.000287
0.000238
0.000261
0.000238
0.000264
0.000242
0.000252
0.000258
0.000267
0.000282
0.000253
0.000274
0.000243
0.000248
0.000269
0.000271
0.000283
0.000283
0.000271
0.000265
0.000265
0.000256
0.000456
0.001355
0.000056
0.000222
0.000257
0.000222
0.000261
0.000234
0.000255
0.000245
0.000228
0.000245
0.000254
0.000288
0.000247
0.000243
0.000245
0.000275
0.000224
0.001724
0.000262
0.000236
0.000260
0.000258
0.000251
0.000286
0.000245
0.000295
0.000235
0.000268
0.000274
0.000267
0.000260
0.000220
0.000055
0.000365
0.000325
0.001292
0.000224
0.000220
0.000249
0.000258
0.000249
0.000273
0.000242
0.000227
0.000331
0.000410
0.000510
0.000204
0.000232
0.000252
0.000258
0.000262
0.000264
0.000239
0.000282
0.000257
0.000281
0.000263
0.000384
0.000401
0.000350
0.000307
0.000238
0.000192
0.000056
0.000209
0.000248
0.000248
0.000248
0.000276
0.000197
0.000238
0.000246
0.000434
0.001339
0.000261
0.000216
0.000242
0.000275
0.000260
0.000286
0.000231
0.000256
0.000341
0.000384
0.000387
0.000254
0.000243
0.000247
0.000278
0.000282
0.000264
0.000296
0.000270
0.000274
0.000196
0.000056
0.000225
0.000473
0.000380
0.000198
0.000236
0.000238
0.000249
0.000277
0.000268
0.000253
0.000222
0.000247
0.000456
0.000497
0.000475
0.001454
0.000240
0.000268
0.000327
0.000351
0.000479
0.000420
0.000516
0.000354
0.000231
0.000264
0.000266
0.000277
0.000263
0.000274
0.000192
0.000057
0.000210
0.000262
0.000469
0.000419
0.000383
0.000236
0.000258
0.000233
0.000238
0.000276
0.000234
0.000263
0.000281
0.000230
0.000267
0.000292
0.000403
0.000380
0.000377
0.001321
0.000265
0.000260
0.000254
0.000260
0.000460
0.000435
0.000397
0.000246
0.000267
0.000277
0.000187
0.000056
0.000210
0.000234
0.000244
0.000266
0.000228
0.000278
0.000440
0.000417
0.000351
0.000214
0.000255
0.000247
0.000271
0.000282
0.000241
0.000260
0.000264
0.000258
0.000287
0.000281
0.000502
0.000356
0.000346
0.001323
0.000415
0.000236
0.000269
0.000386
0.000467
0.000366
0.000305
0.000056
0.000199
0.000226
0.000247
0.000251
0.000252
0.000256
0.001678
0.000262
0.000199
0.000234
0.000259
0.000260
0.000239
0.000324
0.000326
0.000295
0.000257
0.000385
0.000408
0.000428
0.000309
0.000277
0.000238
0.000249
0.001499
0.000456
0.000288
0.000453
0.000345
0.000297
0.000171
0.000056
0.000209
0.000248
0.000255
0.000257
0.000238
0.000268
0.001705
0.000227
0.000244
0.000264
0.000334
0.000400
0.001464
0.000343
0.000398
0.000238
0.000258
0.000232
0.000263
0.000277
0.001668
0.000461
0.000366
0.000294
0.000236
0.000251
0.000265
0.000279
0.000246
0.000253
0.000197
0.000058
0.000194
0.000240
0.000271
0.000243
0.000263
0.000277
0.000274
0.000254
0.000256
0.000252
0.000256
0.000242
0.000294
0.000240
0.000253
0.001495
0.000283
0.000230
0.000270
0.000274
0.000274
0.000251
0.001448
0.000329
0.000207
0.000231
0.000274
0.000250
0.000405
0.000235
0.000200
0.000056
0.000217
0.000249
0.000223
0.000246
0.000249
0.000222
0.000233
0.001691
0.000262
0.000220
0.000352
0.000267
0.000233
0.000223
0.000251
0.001391
0.000224
0.000270
0.000265
0.000248
0.000271
0.000336
0.000299
0.001299
0.000290
0.000238
0.000245
0.000266
0.001384
0.000285
0.000224
0.000058
0.000259
0.000311
0.000209
0.000230
0.000267
0.000229
0.000287
0.000245
0.000264
0.000249
0.000256
0.000271
0.000249
0.000244
0.000293
0.001545
0.000222
0.000267
0.000257
0.000242
0.000287
0.000257
0.000246
0.001522
0.000334
0.000248
0.000256
0.001282
0.000280
0.000237
0.000196
0.000057
0.000209
0.000389
0.000351
0.000207
0.000229
0.000246
0.000269
0.000248
0.000267
0.000271
0.000233
0.000259
0.000260
0.000243
0.000440
0.001231
0.000235
0.000242
0.000264
0.000279
0.000223
0.000251
0.000248
0.000328
0.001302
0.000226
0.000249
0.000273
0.000247
0.001333
0.000286
0.000057
0.000333
0.000231
0.000220
0.000232
0.000237
0.000255
0.000246
0.000241
0.000301
0.000235
0.000244
0.000246
0.000249
0.000319
0.000446
0.001454
0.000201
0.000263
0.000310
0.000507
0.000281
0.000432
0.001302
0.000314
0.000232
0.000265
0.000248
0.001307
0.000288
0.000565
0.000328
0.000057
0.000237
0.000249
0.000257
0.000254
0.000252
0.000261
0.000265
0.000269
0.000244
0.000262
0.000387
0.000376
0.001357
0.000233
0.000278
0.000257
0.000276
0.000240
0.000228
0.000233
0.000383
0.001209
0.000281
0.000224
0.000247
0.000243
0.001513
0.000418
0.000501
0.000216
0.000188
0.000057
0.000202
0.000226
0.000250
0.000238
0.000251
0.000267
0.000235
0.000253
0.000435
0.000495
0.000260
0.001499
0.000207
0.000238
0.000271
0.000251
0.000265
0.000282
0.001694
0.000247
0.000394
0.000343
0.001222
0.000402
0.000339
0.000310
0.000251
0.000268
0.000257
0.000267
0.000202
0.000055
0.000204
0.000243
0.000328
0.000245
0.000299
0.000536
0.000308
0.000286
0.001483
0.000230
0.000377
0.000264
0.000326
0.000211
0.000397
0.001297
0.000276
0.000242
0.000241
0.000271
0.001499
0.000407
0.000265
0.000275
0.000266
0.000248
0.000455
0.000332
0.000257
0.000232
0.000260
0.000056
0.000232
0.000386
0.000331
0.000251
0.000224
0.001525
0.000201
0.000271
0.000263
0.000270
0.000267
0.000238
0.000338
0.001451
0.000259
0.000228
0.000438
0.001182
0.000352
0.000434
0.000402
0.000224
0.000248
0.000259
0.000296
0.000221
0.000454
0.000226
0.000267
0.000282
0.000197
0.000056
0.000211
0.000264
0.000350
0.000409
0.001254
0.000275
0.000336
0.000227
0.000226
0.000244
0.000252
0.000280
0.001532
0.000253
0.000236
0.000241
0.001388
0.000249
0.000449
0.000393
0.000431
0.000219
0.000254
0.000259
0.000262
0.000281
0.000258
0.000268
0.000272
0.000250
0.000193
0.000056
0.000194
0.000350
0.001504
0.000199
0.000279
0.000295
0.000220
0.000250
0.000262
0.000382
0.001390
0.000217
0.000258
0.000267
0.000254
0.001263
0.000650
0.000339
0.000315
0.000411
0.000304
0.000255
0.000267
0.000259
0.000274
0.000282
0.000272
0.000294
0.000430
0.000435
0.001393
0.000056
0.000214
0.000242
0.000242
0.000228
0.000248
0.000423
0.000488
0.001279
0.000244
0.000241
0.000247
0.001481
0.000338
0.000384
0.000223
0.000411
0.000247
0.000234
0.000268
0.000293
0.000250
0.000254
0.000281
0.000253
0.000246
0.000305
0.000455
0.000455
0.001501
0.000227
0.000182
0.000056
0.000219
0.000254
0.000425
0.000415
0.001269
0.000302
0.000231
0.000259
0.000246
0.000257
0.000247
0.000278
0.000342
0.000533
0.000295
0.000244
0.000253
0.000270
0.000246
0.000304
0.000233
0.000261
0.000260
0.000265
0.000256
0.000427
0.000419
0.000372
0.000321
0.001410
0.000176
0.000057
0.000201
0.000235
0.000428
0.000329
0.000317
0.000311
0.000316
0.000327
0.000306
0.000246
0.000232
0.000269
0.000248
0.000305
0.000240
0.000307
0.000523
0.000338
0.000289
0.000387
0.000276
0.000412
0.000213
0.000245
0.000265
0.000261
0.000256
0.000292
0.000327
0.000529
0.000296
0.000058
0.000197
0.001413
0.000221
0.000337
0.000406
0.000471
0.000316
0.000340
0.000216
0.000234
0.000268
0.000250
0.000280
0.000252
0.000255
0.000258
0.000267
0.001361
0.000261
0.000261
0.000239
0.000272
0.000274
0.000276
0.000270
0.000251
0.000280
0.000250
0.000303
0.000455
0.000295
0.000056
0.000218
0.000218
0.000243
0.001499
0.000324
0.000233
0.000232
0.000249
0.000228
0.000242
0.000258
0.000297
0.000230
0.000255
0.000285
0.000233
0.000240
0.000268
0.000259
0.000258
0.001421
0.000264
0.000251
0.000242
0.000265
0.000247
0.000258
0.000269
0.000275
0.000491
0.000349
0.000055
0.000210
0.000230
0.000397
0.000283
0.000253
0.000248
0.001522
0.000385
0.000261
0.000225
0.000262
0.000310
0.000333
0.000223
0.000233
0.000251
0.000242
0.000270
0.000255
0.000260
0.000523
0.000461
0.001124
0.000290
0.000235
0.000245
0.000273
0.000255
0.000299
0.000239
0.000297
0.000056
0.000200
0.000343
0.000210
0.000235
0.000249
0.000241
0.000247
0.000224
0.000291
0.001594
0.000395
0.000274
0.000236
0.000250
0.000265
0.000238
0.000266
0.000273
0.000262
0.000311
0.000305
0.000479
0.000456
0.001373
0.000237
0.000270
0.000258
0.000258
0.000269
0.000277
0.000485
0.000055
0.000240
0.000264
0.000223
0.000231
0.000225
0.000240
0.000261
0.000282
0.000254
0.001608
0.000321
0.000257
0.000239
0.000261
0.000463
0.000253
0.000545
0.000373
0.000277
0.000270
0.000483
0.000466
0.001293
0.000266
0.000251
0.000236
0.001743
0.000395
0.000638
0.000320
0.000145
0.000057
0.000215
0.000213
0.000239
0.000235
0.000261
0.000237
0.000255
0.000489
0.000501
0.000508
0.000202
0.000217
0.000236
0.000264
0.000284
0.000265
0.000237
0.000247
0.000255
0.000282
0.000297
0.000360
0.001355
0.000229
0.000270
0.000257
0.001903
0.000372
0.000392
0.000340
0.000154
0.000056
0.000215
0.000220
0.000248
0.001629
0.000363
0.000212
0.000236
0.000258
0.000252
0.000281
0.000375
0.000371
0.000363
0.000281
0.000432
0.000381
0.000389
0.001194
0.000271
0.000251
0.000243
0.000265
0.000277
0.000396
0.000651
0.000431
0.000249
0.000264
0.000271
0.000283
0.000186
0.000057
0.000204
0.000221
0.000247
0.001536
0.000266
0.000228
0.000239
0.000255
0.000236
0.000258
0.000255
0.000268
0.000267
0.000277
0.000243
0.000387
0.000424
0.000347
0.001386
0.000256
0.000248
0.000260
0.000260
0.000264
0.000455
0.000489
0.000368
0.000254
0.000292
0.000233
0.000455
0.000057
0.000221
0.000259
0.000253
0.001528
0.000297
0.000217
0.000268
0.000241
0.000255
0.000260
0.000253
0.000275
0.000239
0.000317
0.000313
0.000489
0.001428
0.000749
0.000261
0.000357
0.000224
0.000243
0.000247
0.000275
0.001677
0.000808
0.000227
0.000279
0.000258
0.000291
0.000180
0.000056
0.000213
0.000233
0.000257
0.000244
0.000265
0.000260
0.000222
0.000253
0.000235
0.000248
0.000281
0.000291
0.000240
0.000253
0.000260
0.000250
0.000267
0.001596
0.000705
0.000369
0.000319
0.000233
0.000244
0.000305
0.000258
0.000249
0.000271
0.000253
0.001390
0.000504
0.000214
0.000057
0.000199
0.000223
0.000269
0.000237
0.000266
0.000228
0.000276
0.000231
0.000253
0.000259
0.000285
0.000433
0.000417
0.000332
0.000210
0.000243
0.000267
0.001390
0.000684
0.000474
0.000344
0.000285
0.000217
0.000252
0.000275
0.000261
0.000247
0.000268
0.001479
0.000433
0.000200
0.000056
0.000208
0.000221
0.000247
0.000248
0.000255
0.000241
0.000235
0.000253
0.000274
0.000257
0.000366
0.000393
0.000348
0.000195
0.000240
0.000250
0.000262
0.000259
0.001563
0.000625
0.000528
0.000264
0.000225
0.000257
0.000266
0.000266
0.000258
0.000285
0.000265
0.001351
0.000336
0.000056
0.000200
0.000219
0.000238
0.000254
0.000260
0.000246
0.000251
0.000309
0.000354
0.000454
0.000364
0.000424
0.000332
0.000209
0.000242
0.000256
0.000293
0.000238
0.000266
0.001975
0.000272
0.000263
0.000425
0.000237
0.000252
0.000264
0.000267
0.000264
0.000268
0.000273
0.000340
0.000056
0.000268
0.000240
0.000246
0.000241
0.000249
0.000255
0.000221
0.000242
0.000271
0.000265
0.000231
0.000232
0.000339
0.000417
0.000684
0.000195
0.000229
0.000268
0.000255
0.000252
0.000248
0.000282
0.001470
0.001055
0.000240
0.000235
0.000269
0.000267
0.000275
0.000274
0.000178
0.000056
0.000206
0.001348
0.000288
0.000216
0.000227
0.000253
0.000254
0.000233
0.000243
0.000262
0.000248
0.000267
0.000234
0.000371
0.000375
0.000508
0.000231
0.000239
0.000269
0.000267
0.000277
0.000222
0.000255
0.000269
0.001325
0.000683
0.000301
0.000385
0.000393
0.000382
0.000299
0.000056
0.000196
0.000239
0.000356
0.001324
0.000202
0.000253
0.000234
0.000260
0.000254
0.000262
0.000251
0.000242
0.000266
0.000347
0.000566
0.000313
0.000223
0.000288
0.000320
0.000205
0.000253
0.000276
0.000229
0.000277
0.000272
0.001540
0.000733
0.000323
0.000258
0.000269
0.000194
0.000057
0.000212
0.000238
0.000482
0.000318
0.001305
0.000234
0.000233
0.000242
0.000233
0.000250
0.000253
0.000253
0.000236
0.000239
0.000250
0.000254
0.000269
0.000235
0.000251
0.000263
0.000270
0.000260
0.000309
0.000329
0.000221
0.000264
0.000269
0.001456
0.000267
0.000236
0.000173
0.000057
0.000196
0.000235
0.000249
0.000306
0.000308
0.000373
0.000398
0.000279
0.001579
0.000226
0.000286
0.000487
0.000358
0.000238
0.000443
0.000241
0.000228
0.000261
0.000272
0.000266
0.000282
0.000267
0.000258
0.000287
0.000227
0.000425
0.000377
0.000348
0.001578
0.000224
0.000190
0.000058
0.000209
0.000241
0.000249
0.000245
0.000238
0.000246
0.000266
0.000309
0.000411
0.002035
0.000230
0.000243
0.000256
0.000260
0.000258
0.000304
0.000219
0.000260
0.000260
0.000456
0.000330
0.000462
0.001459
0.000247
0.000272
0.001987
0.000274
0.000237
0.000259
0.001549
0.000144
0.000057
0.000395
0.000326
0.000490
0.000240
0.000276
0.000212
0.000255
0.000266
0.000263
0.000229
0.000256
0.000335
0.000410
0.000352
0.000463
0.000214
0.000223
0.001565
0.000240
0.000562
0.001885
0.000303
0.000219
0.001582
0.001995
0.000731
0.000275
0.000264
0.000344
0.000396
0.000391
0.000057
0.000189
0.000238
0.000278
0.000220
0.002864
0.000291
0.001082
0.000203
0.000227
0.001593
0.001973
0.000206
0.000245
0.000426
0.000309
0.000429
0.000292
0.000521
0.000216
0.000250
0.000240
0.000250
0.000278
0.001594
0.001206
0.001428
0.000285
0.000281
0.000258
0.000273
0.000371
0.000056
0.000214
0.000242
0.000238
0.000244
0.000226
0.000246
0.000244
0.000257
0.000255
0.000247
0.000238
0.000305
0.000443
0.000446
0.000342
0.000224
0.000242
0.000276
0.000266
0.000284
0.000239
0.000263
0.001526
0.000463
0.002122
0.000233
0.000251
0.000351
0.000436
0.000373
0.000186
0.000057
0.000189
0.000468
0.000428
0.000267
0.000194
0.000228
0.000252
0.000278
0.000207
0.000249
0.000240
0.000265
0.000262
0.001605
0.001352
0.001231
0.000262
0.000253
0.000244
0.000269
0.000283
0.000272
0.000248
0.000253
0.002208
0.000254
0.000245
0.000298
0.000325
0.000304
0.000222
0.000056
0.000240
0.000327
0.000543
0.000342
0.000233
0.000229
0.000252
0.000262
0.001914
0.001408
0.000212
0.000336
0.000380
0.000412
0.000265
0.000228
0.000257
0.000267
0.000269
0.000261
0.000251
0.000265
0.000482
0.000227
0.000272
0.000270
0.000247
0.000279
0.000284
0.000242
0.000198
0.000057
0.000227
0.000226
0.000249
0.000245
0.000276
0.000249
0.001529
0.001428
0.001379
0.000201
0.000218
0.000242
0.000263
0.000264
0.000244
0.000252
0.000250
0.002108
0.000249
0.000234
0.000262
0.000267
0.000260
0.000259
0.000271
0.000269
0.000275
0.000247
0.000267
0.000256
0.000178
0.000057
0.000208
0.002678
0.001413
0.000206
0.000303
0.000324
0.000215
0.000283
0.000231
0.000239
0.000262
0.000245
0.000236
0.000240
0.000269
0.000256
0.000266
0.000267
0.000269
0.000257
0.000260
0.000288
0.000276
0.000264
0.000248
0.000245
0.000269
0.000284
0.000248
0.000264
0.000374
0.000056
0.001559
0.000255
0.001233
0.000231
0.000231
0.000235
0.000257
0.000278
0.000226
0.000265
0.000408
0.000353
0.000333
0.000216
0.000250
0.002149
0.000235
0.000251
0.000424
0.000345
0.000337
0.000335
0.000232
0.000257
0.000269
0.000246
0.000265
0.000277
0.000274
0.001623
0.001243
0.000056
0.000195
0.000229
0.000312
0.000382
0.000347
0.000282
0.000226
0.000225
0.000264
0.000246
0.000265
0.000244
0.000225
0.000258
0.000264
0.000238
0.000295
0.000638
0.000368
0.000243
0.000226
0.000282
0.000280
0.000255
0.000245
0.000245
0.000270
0.000270
0.000247
0.000383
0.000293
0.000057
0.001120
0.000216
0.000396
0.000402
0.000297
0.000226
0.000235
0.000239
0.000252
0.002341
0.000318
0.000384
0.000219
0.000384
0.000304
0.000258
0.000242
0.000253
0.000263
0.000226
0.000253
0.000281
0.000578
0.000467
0.001881
0.001280
0.000523
0.000564
0.000226
0.000293
0.000194
0.000059
0.000268
0.000301
0.000251
0.000238
0.000256
0.000224
0.000273
0.000236
0.000251
0.000253
0.000258
0.000221
0.000242
0.000281
0.000377
0.000509
0.001834
0.001316
0.000484
0.000408
0.000462
0.000237
0.000238
0.000261
0.002166
0.000592
0.000306
0.000234
0.000280
0.000283
0.000196
0.000056
0.000210
0.000241
0.000259
0.000241
0.000241
0.000412
0.000344
0.000284
0.000345
0.000225
0.000237
0.000255
0.000264
0.002106
0.000457
0.000298
0.000217
0.000251
0.000285
0.000241
0.000250
0.002466
0.000327
0.000223
0.000251
0.000260
0.000254
0.000283
0.000318
0.000233
0.000195
0.000056
0.000199
0.000332
0.000584
0.000369
0.000226
0.000231
0.000230
0.000256
0.000263
0.000257
0.001942
0.000401
0.000262
0.000275
0.000240
0.000266
0.000276
0.000239
0.002203
0.000454
0.000217
0.000270
0.000269
0.000260
0.000250
0.000262
0.000319
0.000212
0.000265
0.000253
0.000198
0.000057
0.000212
0.000246
0.000242
0.000223
0.000247
0.000260
0.000237
0.000242
0.000239
0.002184
0.000222
0.000279
0.000217
0.000432
0.000232
0.000241
0.000307
0.000264
0.000253
0.000253
0.001971
0.000263
0.000343
0.000364
0.000433
0.000406
0.000306
0.000253
0.000256
0.000255
0.000202
0.000056
0.000200
0.000232
0.000237
0.000256
0.000247
0.000323
0.000218
0.002319
0.000237
0.000230
0.000258
0.000257
0.000239
0.000275
0.000278
0.002126
0.000586
0.000214
0.000265
0.000241
0.000265
0.000257
0.000285
0.000270
0.000266
0.000253
0.000285
0.000251
0.000266
0.000259
0.000193
0.000056
0.001819
0.001438
0.000193
0.000227
0.000250
0.000250
0.000249
0.000280
0.000382
0.000373
0.002161
0.000255
0.000231
0.000274
0.000254
0.000557
0.000386
0.000298
0.000216
0.000252
0.000248
0.000262
0.000270
0.000219
0.000263
0.000264
0.000269
0.000264
0.000315
0.000658
0.000350
0.000058
0.000205
0.000253
0.000244
0.000255
0.000263
0.000243
0.000261
0.000236
0.001466
0.002129
0.000611
0.000254
0.000401
0.000701
0.000371
0.000210
0.000263
0.000248
0.000268
0.000254
0.000258
0.000241
0.000249
0.000274
0.003014
0.000327
0.000236
0.000269
0.000291
0.000273
0.000427
0.000057
0.001923
0.000235
0.000232
0.000231
0.000284
0.000404
0.000417
0.000295
0.000290
0.000216
0.000239
0.000252
0.000258
0.000260
0.000276
0.000241
0.000258
0.000290
0.001809
0.000245
0.000236
0.000258
0.000272
0.000283
0.000266
0.000255
0.001479
0.000328
0.000246
0.000255
0.000179
0.000056
0.000195
0.000228
0.000245
0.000242
0.000248
0.000243
0.000301
0.000374
0.000331
0.000387
0.000218
0.000238
0.000259
0.000330
0.000421
0.000321
0.000223
0.000252
0.000260
0.000329
0.000472
0.000462
0.000258
0.000271
0.000252
0.000248
0.000252
0.000271
0.000277
0.000265
0.000204
0.000056
0.001440
0.000480
0.000188
0.001937
0.000278
0.000428
0.000427
0.000317
0.000222
0.000248
0.000266
0.000242
0.000253
0.000241
0.000270
0.000257
0.000450
0.000292
0.000373
0.000410
0.000345
0.000224
0.000284
0.000249
0.000280
0.000262
0.000261
0.000272
0.000377
0.000416
0.001403
0.000055
0.000215
0.000214
0.002078
0.000342
0.000291
0.000232
0.000269
0.000242
0.000274
0.000250
0.000214
0.000252
0.000255
0.000263
0.000254
0.000355
0.000714
0.001755
0.000236
0.000248
0.000248
0.000273
0.000377
0.000407
0.001609
0.000300
0.000349
0.001914
0.000256
0.000268
0.000197
0.000057
0.000215
0.000235
0.000244
0.000229
0.000234
0.000241
0.000250
0.000289
0.000332
0.000262
0.000375
0.000362
0.000343
0.000296
0.000243
0.000269
0.000276
0.000229
0.000263
0.000253
0.000308
0.000286
0.000265
0.000258
0.000270
0.001521
0.000274
0.000386
0.002066
0.000237
0.000173
0.000056
0.000206
0.000238
0.000238
0.000248
0.000487
0.000207
0.000250
0.000326
0.000363
0.000320
0.000307
0.000209
0.000262
0.000264
0.000267
0.000339
0.000437
0.000418
0.000246
0.000408
0.000536
0.000368
0.001643
0.000248
0.000230
0.001974
0.000351
0.000240
0.000247
0.000291
0.000191
0.000056
0.000190
0.000236
0.000230
0.000243
0.000249
0.000271
0.000253
0.000274
0.000252
0.000250
0.001814
0.000312
0.000388
0.000281
0.000464
0.000362
0.000360
0.001497
0.000255
0.000269
0.002086
0.000601
0.000254
0.000232
0.000264
0.000279
0.000501
0.000219
0.000262
0.000274
0.000195
0.000056
0.000305
0.000331
0.000407
0.000279
0.000203
0.000240
0.000259
0.000253
0.000262
0.000296
0.000225
0.000252
0.000259
0.000265
0.000395
0.000385
0.001345
0.000271
0.000263
0.001908
0.000391
0.000277
0.000235
0.000264
0.000257
0.000265
0.000283
0.000250
0.000251
0.000262
0.000200
0.000055
0.000322
0.000342
0.002035
0.000255
0.000224
0.000252
0.000250
0.000288
0.000422
0.000472
0.001290
0.000380
0.000350
0.002081
0.000209
0.000249
0.000264
0.000276
0.000257
0.000250
0.000277
0.000289
0.000255
0.000376
0.000453
0.000435
0.000269
0.002221
0.000492
0.000471
0.000402
0.000056
0.000215
0.000224
0.000245
0.001957
0.000239
0.000218
0.000248
0.000244
0.000247
0.000254
0.000263
0.000249
0.000255
0.000252
0.000490
0.001436
0.000254
0.000246
0.000265
0.000262
0.000235
0.000250
0.000263
0.000291
0.000324
0.000418
0.000483
0.000239
0.001609
0.000268
0.000165
0.000056
0.000206
0.000226
0.000245
0.000236
0.000258
0.000266
0.000229
0.000247
0.000256
0.000377
0.000376
0.001394
0.000236
0.000226
0.000249
0.000292
0.000246
0.000242
0.000311
0.000461
0.000363
0.000483
0.000230
0.001581
0.000226
0.000260
0.000286
0.000278
0.000265
0.000271
0.000185
0.000057
0.000201
0.000233
0.000264
0.000271
0.000248
0.000244
0.000242
0.000244
0.000273
0.000226
0.000248
0.000255
0.000268
0.001472
0.000363
0.000211
0.000250
0.000266
0.000277
0.000306
0.000374
0.000269
0.000253
0.000260
0.000264
0.000264
0.000263
0.001402
0.000302
0.000219
0.000166
0.000056
0.000198
0.000234
0.000259
0.000261
0.000269
0.000224
0.000243
0.000263
0.000218
0.000263
0.000248
0.000259
0.000225
0.000299
0.000430
0.000292
0.000293
0.000223
0.001638
0.000237
0.000244
0.000260
0.000260
0.000353
0.000329
0.000363
0.000460
0.000266
0.000252
0.001610
0.000158
0.000057
0.000312
0.000424
0.000280
0.000318
0.000232
0.000216
0.000245
0.000271
0.000255
0.000259
0.000226
0.000235
0.001459
0.000297
0.000307
0.000223
0.000245
0.000276
0.000256
0.000264
0.000245
0.000244
0.000253
0.000276
0.000266
0.000334
0.000463
0.000380
0.000268
0.000255
0.000186
0.000056
0.000206
0.000280
0.000499
0.000249
0.000424
0.000239
0.000241
0.000251
0.000250
0.000257
0.000243
0.000225
0.000251
0.000244
0.001253
0.000317
0.000224
0.000249
0.000273
0.000268
0.000230
0.000270
0.000255
0.000262
0.000253
0.000262
0.000288
0.000663
0.000499
0.000228
0.000183
0.000056
0.000210
0.001554
0.000225
0.000345
0.000657
0.000196
0.000213
0.000253
0.000272
0.000246
0.000244
0.000259
0.000272
0.000270
0.000262
0.001525
0.000255
0.000285
0.000265
0.000259
0.000271
0.000238
0.000262
0.000263
0.000261
0.000255
0.000470
0.000327
0.000366
0.000242
0.000190
0.000056
0.000206
0.000253
0.000246
0.001591
0.000425
0.000349
0.000228
0.000242
0.000248
0.000275
0.000283
0.000251
0.000253
0.000259
0.000230
0.000274
0.000350
0.001374
0.000247
0.000233
0.001483
0.000306
0.000568
0.000417
0.000336
0.000233
0.000274
0.000473
0.000227
0.000262
0.000185
0.000056
0.000296
0.000211
0.000240
0.000250
0.000249
0.000256
0.000235
0.000257
0.000261
0.000245
0.000244
0.000261
0.000370
0.000432
0.001676
0.001482
0.000371
0.000492
0.000392
0.000204
0.000232
0.000258
0.000252
0.000272
0.000247
0.000262
0.000278
0.000254
0.001538
0.000320
0.000157
0.000058
0.000211
0.000350
0.000352
0.000332
0.000243
0.000225
0.000246
0.000381
0.000404
0.000359
0.002181
0.000315
0.000689
0.000645
0.000335
0.000260
0.000334
0.000393
0.000330
0.000278
0.000395
0.000266
0.001533
0.000527
0.000216
0.000263
0.000264
0.000251
0.000258
0.000279
0.000193
0.000056
0.000208
0.000248
0.000249
0.000258
0.000238
0.001661
0.000879
0.001003
0.000208
0.000234
0.000258
0.000268
0.000250
0.000260
0.000251
0.000249
0.000256
0.000262
0.000268
0.000279
0.001424
0.000315
0.000255
0.000227
0.000241
0.000261
0.000264
0.000281
0.000259
0.000286
0.001894
0.000057
0.000188
0.000235
0.001537
0.000901
0.000338
0.000385
0.000210
0.000231
0.000253
0.000258
0.000247
0.000250
0.000249
0.001987
0.000468
0.000219
0.000246
0.000254
0.000264
0.000257
0.000197
