0.000121
0.019016
0.002764
0.000243
0.000261
0.000239
0.000273
0.000260
0.000317
0.000292
0.000251
0.000400
0.000486
0.000522
0.000346
0.000293
0.000295
0.000386
0.000389
0.000452
0.000286
0.001876
0.000482
0.000435
0.000261
0.000328
0.000288
0.000385
0.000408
0.000412
0.000433
0.000314
0.000065
0.000201
0.000251
0.000267
0.000251
0.000321
0.000261
0.000253
0.000256
0.000260
0.000272
0.000437
0.000492
0.000259
0.000282
0.000397
0.000380
0.000368
0.000223
0.000224
0.001716
0.000289
0.000246
0.000491
0.000245
0.000264
0.000305
0.000276
0.000275
0.000223
0.000311
0.000492
0.000064
0.000237
0.000216
0.000243
0.000264
0.000254
0.000255
0.000255
0.000296
0.000256
0.001685
0.000244
0.000219
0.000253
0.000283
0.000274
0.000242
0.000269
0.000304
0.000326
0.001792
0.000254
0.000236
0.000461
0.000461
0.000422
0.000212
0.000235
0.000529
0.000403
0.000826
0.000178
0.000060
0.000227
0.000226
0.000233
0.000246
0.000337
0.000275
0.000291
0.000489
0.000470
0.000266
0.000240
0.000223
0.000208
0.000262
0.000240
0.000250
0.000287
0.000235
0.000355
0.000292
0.001722
0.000240
0.000252
0.000450
0.000289
0.000722
0.000737
0.000371
0.000371
0.000270
0.000162
0.000061
0.000238
0.000222
0.000236
0.000272
0.000256
0.000256
0.000276
0.000385
0.001529
0.000253
0.000247
0.000218
0.000249
0.000260
0.000258
0.000292
0.000296
0.000809
0.001347
0.000304
0.000242
0.000421
0.000249
0.000261
0.000221
0.000310
0.000218
0.000269
0.000276
0.000297
0.000201
0.000063
0.000205
0.000225
0.000219
0.000250
0.000268
0.000247
0.000251
0.000248
0.000278
0.000258
0.001646
0.000243
0.000241
0.000238
0.000221
0.000224
0.000251
0.000262
0.000239
0.000272
0.000244
0.001741
0.000247
0.000256
0.000471
0.000247
0.000246
0.000256
0.000305
0.000274
0.000131
0.000064
0.000228
0.000219
0.000206
0.000244
0.000233
0.000252
0.000247
0.000261
0.000249
0.000242
0.000279
0.000257
0.000263
0.000251
0.001650
0.000268
0.000294
0.000260
0.000232
0.000275
0.000279
0.000260
0.000294
0.000276
0.000272
0.001809
0.000319
0.000368
0.000262
0.000283
0.000179
0.000066
0.000214
0.000219
0.000240
0.000279
0.000241
0.000253
0.000274
0.000376
0.000454
0.000424
0.000218
0.000230
0.000279
0.000270
0.001653
0.000454
0.000320
0.000385
0.000293
0.000243
0.000243
0.000299
0.000254
0.001815
0.000552
0.000411
0.000226
0.000242
0.000240
0.000279
0.000175
0.000077
0.000243
0.000217
0.000205
0.000254
0.000290
0.000469
0.000468
0.000210
0.000211
0.000241
0.000250
0.000301
0.000214
0.001768
0.000387
0.000316
0.000238
0.000232
0.000273
0.000282
0.000318
0.000264
0.000235
0.001868
0.000302
0.000390
0.000265
0.000249
0.000313
0.000377
0.000309
0.000059
0.000292
0.000327
0.000317
0.000267
0.000291
0.000209
0.000241
0.000266
0.000251
0.000247
0.000261
0.000249
0.001579
0.000379
0.000257
0.000218
0.000234
0.000244
0.000256
0.000280
0.000300
0.000306
0.001769
0.000355
0.000247
0.000482
0.000217
0.000252
0.000232
0.000320
0.000230
0.000062
0.000329
0.000567
0.000652
0.000221
0.000214
0.000240
0.000235
0.000225
0.000252
0.000276
0.000240
0.001701
0.000303
0.000390
0.000367
0.000232
0.000242
0.000244
0.000251
0.000282
0.000263
0.001807
0.000240
0.000220
0.002256
0.000440
0.000257
0.000246
0.000279
0.000258
0.000189
0.000058
0.000225
0.000218
0.000236
0.000278
0.000254
0.001654
0.000210
0.000213
0.000229
0.000250
0.000253
0.000239
0.000270
0.000233
0.000281
0.000377
0.000679
0.000246
0.000243
0.000255
0.000254
0.000267
0.000244
0.000496
0.000445
0.000240
0.000468
0.000523
0.000366
0.000230
0.000172
0.000060
0.000222
0.000212
0.000237
0.000250
0.000233
0.000245
0.000251
0.000467
0.000519
0.001528
0.000261
0.000237
0.000244
0.000247
0.000235
0.000280
0.000423
0.000580
0.000367
0.000228
0.000202
0.000258
0.000322
0.000281
0.000263
0.000401
0.000424
0.000633
0.000500
0.000359
0.000143
0.000061
0.000207
0.000258
0.000224
0.000224
0.000231
0.000236
0.000256
0.000253
0.000251
0.000351
0.000362
0.001556
0.000253
0.000219
0.000205
0.000226
0.000247
0.000254
0.000258
0.000257
0.000297
0.000416
0.000392
0.000351
0.000257
0.000239
0.000254
0.000247
0.000249
0.000274
0.000424
0.000057
0.000231
0.000227
0.000294
0.000287
0.000451
0.000393
0.000265
0.000237
0.000228
0.000250
0.000250
0.000247
0.000286
0.000256
0.000254
0.000525
0.000419
0.001593
0.000267
0.000249
0.000268
0.000269
0.000255
0.000242
0.000250
0.000404
0.000603
0.000308
0.000361
0.000238
0.000199
0.000060
0.000221
0.000228
0.000388
0.000241
0.000265
0.000274
0.000222
0.000597
0.000375
0.000270
0.000233
0.000247
0.000264
0.000264
0.000595
0.000291
0.000234
0.000244
0.000398
0.001689
0.000252
0.000238
0.000283
0.000422
0.000333
0.000218
0.000270
0.000321
0.000572
0.000375
0.000281
0.000059
0.000222
0.000207
0.000226
0.000240
0.000478
0.000272
0.000294
0.000233
0.000403
0.000591
0.000300
0.000221
0.000212
0.000224
0.000264
0.000260
0.000230
0.000263
0.000241
0.000384
0.000266
0.000342
0.001821
0.000297
0.000212
0.000264
0.000300
0.000355
0.000435
0.000714
0.000451
0.000061
0.000266
0.000328
0.000357
0.000388
0.000292
0.000225
0.000247
0.000271
0.000503
0.000532
0.000222
0.000203
0.000233
0.000252
0.000249
0.000240
0.000273
0.000268
0.000282
0.000258
0.000269
0.000444
0.001724
0.000276
0.000366
0.000427
0.000375
0.000234
0.000416
0.000425
0.000349
0.000061
0.000240
0.000377
0.000290
0.000203
0.000238
0.000226
0.000459
0.000218
0.000220
0.000343
0.000417
0.000494
0.000228
0.000236
0.000234
0.000294
0.000362
0.000436
0.000314
0.000225
0.000221
0.000293
0.000744
0.001655
0.000264
0.000405
0.000344
0.000221
0.000245
0.000422
0.000339
0.000083
0.000235
0.000208
0.000220
0.000244
0.000242
0.000239
0.000246
0.000385
0.000396
0.000252
0.000591
0.000317
0.000283
0.000213
0.000550
0.000249
0.000256
0.000262
0.000253
0.000348
0.000232
0.000242
0.000235
0.000407
0.000611
0.001624
0.000230
0.000232
0.000233
0.000258
0.000192
0.000059
0.000318
0.000472
0.000374
0.000212
0.000230
0.000240
0.000258
0.000208
0.000258
0.000263
0.000235
0.000465
0.000254
0.000604
0.000377
0.000264
0.000252
0.000262
0.000314
0.000348
0.000400
0.000407
0.000283
0.000369
0.000252
0.000223
0.000246
0.000271
0.001782
0.000265
0.000213
0.000058
0.000203
0.000211
0.000251
0.000270
0.000360
0.000524
0.000347
0.000210
0.000225
0.000284
0.000240
0.000253
0.000524
0.000447
0.000474
0.000314
0.000289
0.000221
0.000438
0.000484
0.000373
0.000426
0.000458
0.000452
0.000239
0.000246
0.000234
0.000284
0.000268
0.001715
0.000322
0.000062
0.000265
0.000317
0.000224
0.000209
0.000256
0.000213
0.000306
0.000446
0.000426
0.000307
0.000299
0.000284
0.000375
0.000663
0.000314
0.000243
0.000244
0.000238
0.000197
0.000259
0.000289
0.000253
0.000233
0.000272
0.000319
0.000341
0.000510
0.000331
0.000228
0.000246
0.000164
0.000059
0.000466
0.000287
0.000427
0.000261
0.000220
0.000241
0.000289
0.000240
0.000247
0.000249
0.000239
0.000224
0.000299
0.000356
0.000574
0.000449
0.000311
0.000324
0.000405
0.000363
0.000259
0.000234
0.000216
0.000236
0.001826
0.000223
0.001768
0.000927
0.000368
0.000347
0.000144
0.000059
0.000219
0.000223
0.000212
0.000267
0.000268
0.000212
0.000260
0.000259
0.000251
0.000263
0.000491
0.000346
0.000382
0.000402
0.000227
0.000249
0.000304
0.000275
0.000255
0.000257
0.000226
0.000189
0.001789
0.000263
0.000248
0.000261
0.000273
0.000253
0.001877
0.000551
0.000296
0.000058
0.000228
0.000208
0.000255
0.000243
0.000226
0.000221
0.000248
0.000250
0.000254
0.000325
0.000693
0.000240
0.000388
0.000242
0.000222
0.000310
0.000385
0.000355
0.000382
0.000252
0.001795
0.000271
0.000211
0.000229
0.000299
0.000270
0.000262
0.000259
0.000199
0.000355
0.000393
0.000061
0.000259
0.000209
0.000202
0.000245
0.000250
0.000252
0.000288
0.000233
0.000229
0.000252
0.000244
0.000264
0.000412
0.000394
0.000300
0.000325
0.000488
0.000211
0.000242
0.000226
0.000297
0.000255
0.000268
0.000230
0.000271
0.001795
0.000272
0.000230
0.000267
0.000292
0.000155
0.000066
0.000249
0.000409
0.000200
0.000206
0.000221
0.000258
0.000230
0.000291
0.000240
0.000233
0.000243
0.000250
0.000207
0.000289
0.000507
0.000375
0.000317
0.000214
0.000217
0.000247
0.000278
0.000289
0.000216
0.000249
0.000271
0.000259
0.000315
0.001674
0.000237
0.000221
0.000188
0.000095
0.000213
0.000238
0.000179
0.000255
0.000351
0.000397
0.000460
0.000232
0.000224
0.000221
0.000250
0.000258
0.000259
0.000244
0.000263
0.000239
0.000253
0.000258
0.000252
0.000259
0.000274
0.000270
0.000260
0.000239
0.000250
0.000279
0.000275
0.000258
0.000254
0.000310
0.000171
0.000080
0.000216
0.000236
0.000185
0.000239
0.000251
0.000241
0.000233
0.000266
0.000363
0.000209
0.000210
0.000232
0.000265
0.000232
0.000300
0.000240
0.000243
0.000240
0.000378
0.000222
0.000232
0.000278
0.000290
0.000254
0.000287
0.000279
0.000262
0.000254
0.000334
0.000379
0.000651
0.000062
0.000263
0.000265
0.000232
0.000200
0.000217
0.000234
0.000256
0.000236
0.000266
0.000230
0.000305
0.000225
0.000509
0.000490
0.001593
0.000222
0.000500
0.000236
0.000275
0.000440
0.000499
0.000248
0.000243
0.000253
0.000269
0.000253
0.000269
0.000277
0.000284
0.000306
0.000173
0.000066
0.000258
0.000442
0.000362
0.000327
0.000209
0.000245
0.000246
0.000252
0.000233
0.000247
0.000258
0.000256
0.000226
0.000336
0.000321
0.000553
0.000300
0.001782
0.000277
0.000218
0.000334
0.000426
0.000479
0.000276
0.000370
0.000319
0.000237
0.000246
0.000233
0.000254
0.000194
0.000057
0.000194
0.000229
0.000203
0.000346
0.000527
0.000330
0.000262
0.000252
0.000250
0.000196
0.000233
0.000265
0.000270
0.000263
0.000261
0.000272
0.000298
0.000496
0.000331
0.000432
0.000239
0.001804
0.000300
0.000598
0.000590
0.000282
0.000287
0.000232
0.000258
0.000240
0.000503
0.000058
0.000228
0.000223
0.000240
0.000281
0.000411
0.000428
0.000439
0.000233
0.000222
0.000318
0.000222
0.000230
0.000249
0.000331
0.000324
0.000222
0.000229
0.000447
0.000463
0.000299
0.000509
0.001784
0.000257
0.000503
0.000432
0.000349
0.000256
0.000358
0.000249
0.000227
0.000199
0.000057
0.000220
0.000333
0.000353
0.000332
0.000428
0.000244
0.000383
0.000213
0.000219
0.000248
0.000279
0.000246
0.000217
0.000247
0.000269
0.000243
0.000333
0.000347
0.000613
0.000320
0.000276
0.000253
0.000232
0.001772
0.000590
0.000426
0.000557
0.000289
0.000225
0.000283
0.000172
0.000059
0.000194
0.000205
0.000311
0.000264
0.000251
0.000407
0.000420
0.000299
0.000299
0.000529
0.000207
0.000224
0.000221
0.000278
0.000272
0.000274
0.000242
0.000375
0.000498
0.000391
0.000260
0.000240
0.000217
0.000260
0.000256
0.000264
0.000256
0.000226
0.000262
0.000374
0.000186
0.000058
0.000379
0.000266
0.000270
0.000202
0.000221
0.000259
0.000403
0.000197
0.000227
0.000204
0.000241
0.000500
0.000316
0.000392
0.000299
0.000349
0.000252
0.000250
0.000255
0.000234
0.000197
0.000294
0.000240
0.000244
0.000270
0.000315
0.000498
0.000344
0.000356
0.000258
0.000129
0.000059
0.000198
0.000219
0.000262
0.000247
0.000237
0.000245
0.000256
0.000254
0.000477
0.000245
0.000248
0.000253
0.000246
0.000291
0.000254
0.000240
0.000284
0.000346
0.000252
0.000224
0.000229
0.000270
0.000251
0.000271
0.000274
0.000252
0.000279
0.000252
0.000261
0.000511
0.000168
0.000057
0.000212
0.000217
0.000237
0.000248
0.000262
0.000242
0.000303
0.000490
0.000240
0.000214
0.000288
0.000248
0.000257
0.000303
0.000280
0.001832
0.000262
0.000257
0.000293
0.000381
0.000401
0.000343
0.000471
0.000260
0.000445
0.000317
0.000287
0.000252
0.000264
0.000277
0.001406
0.000064
0.000376
0.000402
0.000210
0.000208
0.000208
0.000219
0.000227
0.000248
0.000254
0.000286
0.000242
0.000240
0.000256
0.000331
0.000438
0.001766
0.000212
0.000224
0.000260
0.000292
0.000254
0.000280
0.000423
0.000286
0.000266
0.000311
0.000249
0.000252
0.000257
0.000260
0.000211
0.000059
0.001207
0.000570
0.000298
0.000291
0.000219
0.000199
0.000223
0.000243
0.000479
0.000231
0.000241
0.000265
0.000332
0.000479
0.000408
0.000341
0.000298
0.000264
0.000381
0.000349
0.000201
0.000233
0.000263
0.000276
0.000235
0.000545
0.000523
0.000339
0.000227
0.000264
0.000182
0.000059
0.000185
0.000218
0.000222
0.000262
0.001596
0.000191
0.000213
0.000228
0.000245
0.000266
0.000232
0.000267
0.000237
0.000265
0.000277
0.000246
0.000498
0.000635
0.000274
0.001786
0.000244
0.000311
0.000405
0.000369
0.000406
0.000428
0.000244
0.000241
0.000233
0.000267
0.000218
0.000058
0.000205
0.000231
0.000231
0.001322
0.000322
0.000221
0.000233
0.000211
0.000233
0.000245
0.000230
0.000252
0.000265
0.000253
0.000265
0.000298
0.000501
0.000516
0.000242
0.000220
0.000249
0.000260
0.000258
0.000233
0.000350
0.000223
0.000227
0.000263
0.000264
0.000444
0.000612
0.000061
0.000228
0.000231
0.000224
0.000259
0.000253
0.000248
0.000242
0.000255
0.000267
0.000254
0.001444
0.000247
0.000219
0.000243
0.000258
0.000213
0.000271
0.000286
0.000242
0.000273
0.000267
0.000494
0.000457
0.000379
0.000256
0.000295
0.001793
0.000227
0.000248
0.000289
0.000502
0.000079
0.000236
0.000423
0.000453
0.000505
0.000525
0.000533
0.001451
0.000444
0.000547
0.000654
0.000547
0.000732
0.000494
0.000603
0.000578
0.001720
0.000470
0.000455
0.000406
0.000300
0.000237
0.000290
0.000285
0.000266
0.000279
0.000268
0.000300
0.000270
0.000263
0.000296
0.001328
0.000067
0.000216
0.000248
0.000216
0.000242
0.000237
0.000254
0.000254
0.000227
0.000248
0.000273
0.000283
0.000213
0.000240
0.000264
0.000260
0.000261
0.001843
0.000260
0.000260
0.000256
0.000258
0.000262
0.000259
0.000311
0.000435
0.000365
0.000315
0.000251
0.000262
0.000290
0.000168
0.000058
0.000231
0.001380
0.000246
0.000280
0.000251
0.000241
0.000255
0.000246
0.000256
0.000236
0.000246
0.000234
0.000262
0.000458
0.000276
0.000340
0.000293
0.000266
0.001898
0.000276
0.000252
0.000264
0.000249
0.000262
0.000274
0.000283
0.000266
0.000250
0.000266
0.000260
0.000245
0.000057
0.000216
0.000230
0.000244
0.001430
0.000256
0.000268
0.000225
0.000225
0.000222
0.000259
0.000262
0.000242
0.000249
0.000257
0.000284
0.000244
0.000262
0.000271
0.000266
0.000255
0.000272
0.001817
0.000259
0.001762
0.000264
0.000252
0.000251
0.000226
0.000274
0.000286
0.000188
0.000059
0.000210
0.000257
0.001354
0.000219
0.000265
0.000242
0.000211
0.000233
0.000260
0.000245
0.000253
0.000253
0.000258
0.000244
0.000293
0.000258
0.000256
0.000246
0.000308
0.000260
0.001848
0.000287
0.001785
0.000278
0.000256
0.000236
0.000264
0.000264
0.000262
0.000261
0.000193
0.000057
0.001453
0.000235
0.000234
0.000228
0.000222
0.000214
0.000269
0.000351
0.000268
0.000268
0.000262
0.000249
0.000322
0.000316
0.000419
0.000267
0.000262
0.000262
0.000232
0.000243
0.000252
0.000319
0.000265
0.000257
0.000270
0.000280
0.000260
0.000445
0.000585
0.000351
0.000186
0.000060
0.000227
0.000280
0.000264
0.000320
0.000348
0.000279
0.001655
0.000299
0.000294
0.000244
0.000272
0.000291
0.000266
0.000270
0.000292
0.000328
0.000399
0.000535
0.000309
0.000269
0.000322
0.000276
0.000265
0.000260
0.000323
0.000263
0.000264
0.000243
0.000239
0.000323
0.000442
0.000058
0.000307
0.000392
0.000217
0.000263
0.000256
0.000246
0.000235
0.000235
0.000256
0.000266
0.001487
0.000264
0.000219
0.000241
0.000252
0.000256
0.000301
0.000242
0.000259
0.000279
0.000248
0.000325
0.000618
0.000339
0.000246
0.000248
0.000271
0.000240
0.000271
0.000239
0.000230
0.000056
0.000195
0.000213
0.000333
0.000458
0.000353
0.000255
0.000207
0.000249
0.000244
0.000268
0.000210
0.000269
0.000237
0.000277
0.000238
0.000253
0.000421
0.001245
0.000215
0.000240
0.000260
0.000240
0.000339
0.000510
0.000210
0.000261
0.000592
0.000345
0.000439
0.000227
0.000157
0.000058
0.000230
0.000198
0.000263
0.000265
0.000323
0.000205
0.000300
0.000507
0.000466
0.000262
0.000394
0.000376
0.000433
0.000302
0.000240
0.000219
0.000233
0.000258
0.000337
0.000563
0.001213
0.000231
0.000247
0.000269
0.000246
0.000247
0.000249
0.000324
0.000384
0.000543
0.000225
0.000062
0.000188
0.000228
0.000249
0.000239
0.000249
0.000237
0.000240
0.000258
0.000254
0.000364
0.000563
0.000342
0.000257
0.000196
0.000234
0.000238
0.000246
0.000252
0.000264
0.000250
0.000503
0.000222
0.000401
0.000431
0.000293
0.000233
0.000248
0.000265
0.000266
0.000267
0.000245
0.000058
0.000302
0.000327
0.000289
0.000352
0.000483
0.000372
0.000217
0.000278
0.000216
0.000276
0.000258
0.000259
0.000236
0.000255
0.000245
0.000193
0.000262
0.000388
0.000503
0.000367
0.000240
0.000271
0.000217
0.000242
0.000277
0.000259
0.000273
0.000270
0.000273
0.000270
0.000279
0.000056
0.000411
0.000234
0.000228
0.000232
0.000244
0.000255
0.000221
0.000275
0.000266
0.000257
0.000258
0.000236
0.000251
0.000658
0.000339
0.000324
0.000215
0.000222
0.000225
0.000262
0.000288
0.000239
0.000270
0.000264
0.000272
0.000278
0.000495
0.000518
0.000505
0.000220
0.000153
0.000071
0.000365
0.000211
0.000207
0.000231
0.000251
0.000225
0.000235
0.000257
0.000268
0.000243
0.000245
0.000235
0.000260
0.000252
0.000238
0.000255
0.000256
0.000266
0.000263
0.000273
0.000251
0.000262
0.000277
0.000260
0.000272
0.000255
0.000255
0.000254
0.000281
0.000268
0.000195
0.000065
0.000211
0.000204
0.000215
0.000256
0.000244
0.000230
0.000259
0.000256
0.000244
0.000296
0.000222
0.000238
0.000283
0.000401
0.000211
0.000287
0.000268
0.000250
0.000260
0.000271
0.000273
0.000262
0.000235
0.000250
0.000269
0.000269
0.000282
0.000246
0.000280
0.000266
0.000189
0.000068
0.000224
0.000375
0.000348
0.000279
0.000304
0.000235
0.000207
0.000243
0.000249
0.000240
0.000242
0.000266
0.000259
0.000232
0.000265
0.000267
0.000260
0.000250
0.000271
0.000257
0.000276
0.000243
0.000291
0.000261
0.000283
0.000259
0.000255
0.000279
0.000238
0.000256
0.000199
0.000060
0.000199
0.000212
0.000238
0.000259
0.000252
0.000465
0.000208
0.000260
0.000317
0.000295
0.000610
0.000320
0.000224
0.000211
0.000247
0.000268
0.000249
0.000257
0.000265
0.000265
0.000258
0.000266
0.000267
0.000333
0.000516
0.000511
0.000258
0.000246
0.000274
0.000268
0.000205
0.000057
0.000223
0.000202
0.000244
0.000246
0.000400
0.000565
0.000306
0.000379
0.000265
0.000224
0.000222
0.000273
0.000271
0.000239
0.000245
0.000267
0.000258
0.000270
0.000674
0.000325
0.000327
0.000235
0.000236
0.000272
0.000276
0.000263
0.000262
0.000262
0.000254
0.000355
0.000323
0.000061
0.000268
0.000229
0.000216
0.000241
0.000234
0.000252
0.000260
0.000227
0.000256
0.000254
0.000244
0.000269
0.000234
0.000406
0.000583
0.000393
0.000228
0.000235
0.000251
0.000246
0.000261
0.000271
0.000510
0.000228
0.000271
0.000727
0.000294
0.000438
0.000286
0.000250
0.000170
0.000057
0.000206
0.000221
0.000235
0.000241
0.000251
0.000261
0.000291
0.000569
0.000481
0.000395
0.000226
0.000241
0.000275
0.000285
0.000277
0.000222
0.000242
0.000259
0.000256
0.000352
0.000515
0.000476
0.000418
0.000262
0.000434
0.000343
0.000482
0.000211
0.000255
0.000361
0.000490
0.000070
0.000248
0.000215
0.000473
0.000211
0.000228
0.000228
0.000236
0.000255
0.000249
0.000253
0.000258
0.000440
0.000326
0.000397
0.000205
0.000236
0.000257
0.000242
0.000274
0.000272
0.000257
0.000269
0.000250
0.000277
0.000281
0.000579
0.000402
0.000283
0.000240
0.000250
0.000203
0.000058
0.000227
0.000210
0.000243
0.000230
0.000248
0.000263
0.000454
0.000329
0.000445
0.000288
0.000344
0.000258
0.000219
0.000258
0.000264
0.000231
0.000260
0.000254
0.000336
0.000375
0.000597
0.000402
0.000337
0.000263
0.000468
0.000411
0.000322
0.000223
0.000231
0.000283
0.000382
0.000087
0.000277
0.000191
0.000202
0.000253
0.000253
0.000240
0.000241
0.000255
0.000247
0.000291
0.000215
0.000376
0.000421
0.000380
0.000393
0.000245
0.000261
0.000260
0.000268
0.000226
0.000253
0.000217
0.000284
0.000260
0.000284
0.000324
0.000533
0.000457
0.000237
0.000267
0.000196
0.000060
0.000221
0.000199
0.000241
0.000253
0.000248
0.000325
0.000485
0.000527
0.000386
0.000670
0.000293
0.000212
0.000215
0.000239
0.000254
0.000302
0.000286
0.000216
0.000528
0.000476
0.001552
0.000238
0.000260
0.000260
0.000297
0.000228
0.000412
0.000416
0.000305
0.000360
0.000147
0.000070
0.000192
0.000227
0.000220
0.000244
0.000244
0.000240
0.000263
0.000268
0.000275
0.000347
0.000369
0.000338
0.000273
0.000380
0.000385
0.000330
0.000235
0.000213
0.000242
0.000258
0.000244
0.000267
0.000259
0.000283
0.000346
0.000550
0.000350
0.000252
0.000238
0.000242
0.000200
0.000058
0.000232
0.000211
0.000242
0.000254
0.000266
0.000224
0.000456
0.000241
0.000236
0.000252
0.000241
0.000257
0.000259
0.000257
0.000249
0.000264
0.000264
0.000265
0.000263
0.000250
0.000247
0.000379
0.000231
0.000249
0.000262
0.000292
0.000264
0.000269
0.000257
0.000269
0.000171
0.000060
0.000235
0.000214
0.000286
0.000524
0.000365
0.000231
0.000194
0.000245
0.000258
0.000243
0.000237
0.000237
0.000263
0.000261
0.000256
0.000234
0.000264
0.000245
0.000326
0.000293
0.000419
0.000440
0.000247
0.000238
0.000267
0.000261
0.000250
0.000264
0.000267
0.000278
0.000211
0.000057
0.000378
0.000377
0.000366
0.000229
0.000247
0.000258
0.000452
0.000201
0.000223
0.000245
0.000274
0.000326
0.000358
0.000466
0.001823
0.000220
0.000238
0.000216
0.000282
0.000244
0.000282
0.000492
0.000494
0.000454
0.000218
0.000273
0.000247
0.000414
0.000284
0.000280
0.000191
0.000057
0.000256
0.000370
0.000281
0.000317
0.000514
0.000220
0.000234
0.000224
0.000273
0.000235
0.000258
0.000256
0.000231
0.000342
0.000445
0.000440
0.000248
0.000248
0.000225
0.000261
0.000271
0.000301
0.000240
0.000262
0.000279
0.000443
0.000522
0.000455
0.000429
0.000233
0.000196
0.000070
0.000192
0.000223
0.000243
0.000223
0.000252
0.000241
0.000249
0.000273
0.000346
0.000432
0.000401
0.000354
0.000234
0.000223
0.000241
0.000321
0.000288
0.000249
0.000239
0.000276
0.000256
0.000316
0.000496
0.000350
0.000290
0.000277
0.000247
0.000515
0.000385
0.000291
0.000134
0.000059
0.000202
0.000229
0.000399
0.000389
0.000321
0.000236
0.000227
0.000250
0.000257
0.000266
0.000246
0.000278
0.000226
0.000235
0.000269
0.000265
0.000401
0.000386
0.000289
0.000372
0.000495
0.000230
0.000268
0.000272
0.000306
0.000277
0.000268
0.000230
0.000488
0.000526
0.000198
0.000057
0.000208
0.000234
0.000208
0.000242
0.000242
0.000495
0.000231
0.000222
0.000253
0.000306
0.000590
0.000520
0.000249
0.000221
0.000287
0.000213
0.000271
0.000242
0.000236
0.000261
0.000249
0.000291
0.000375
0.000424
0.000458
0.000262
0.000367
0.000345
0.000281
0.000223
0.000157
0.000059
0.000216
0.000210
0.000233
0.000488
0.000339
0.000357
0.000251
0.000213
0.000224
0.000229
0.000260
0.000242
0.000260
0.000268
0.000296
0.000224
0.000238
0.000246
0.000231
0.000373
0.000578
0.000386
0.000226
0.000225
0.000269
0.000276
0.000251
0.000258
0.000265
0.000264
0.000210
0.000057
0.000260
0.000424
0.000483
0.000215
0.000224
0.000222
0.000310
0.000505
0.000263
0.000216
0.000219
0.000268
0.000247
0.000440
0.000505
0.000268
0.000219
0.000245
0.000269
0.000234
0.000239
0.000273
0.000272
0.000271
0.000263
0.000261
0.000422
0.000509
0.000273
0.000237
0.000153
0.000057
0.000201
0.000231
0.000237
0.000255
0.000255
0.000258
0.000223
0.000253
0.000252
0.000223
0.000263
0.000240
0.000260
0.001484
0.000248
0.000242
0.000249
0.000247
0.000249
0.000281
0.000258
0.000245
0.000271
0.000264
0.000251
0.000274
0.000302
0.000251
0.000281
0.000274
0.000178
0.000059
0.000212
0.000223
0.000231
0.000245
0.000253
0.000226
0.000253
0.000266
0.000235
0.000249
0.000256
0.000255
0.000245
0.000258
0.000271
0.000240
0.000268
0.000244
0.000267
0.000265
0.000255
0.000273
0.000240
0.000263
0.001347
0.000276
0.000527
0.000456
0.000355
0.000223
0.000150
0.000059
0.000215
0.000209
0.000240
0.000256
0.000495
0.000213
0.000197
0.000217
0.000249
0.000331
0.000547
0.000347
0.000202
0.000216
0.000253
0.000254
0.000250
0.000248
0.000263
0.000250
0.000274
0.000264
0.000250
0.000404
0.000555
0.000399
0.000263
0.000242
0.001381
0.000268
0.000163
0.000058
0.000370
0.000411
0.000345
0.000250
0.000197
0.000209
0.000241
0.000243
0.000257
0.000234
0.000285
0.000246
0.000275
0.000270
0.000526
0.000451
0.000287
0.000246
0.000244
0.000228
0.000265
0.000265
0.000302
0.000242
0.000253
0.000261
0.000355
0.000529
0.000461
0.000329
0.000149
0.000057
0.000210
0.000227
0.001317
0.000373
0.000229
0.000499
0.000388
0.000304
0.000438
0.000392
0.000223
0.000216
0.000253
0.000252
0.000274
0.000230
0.000328
0.000502
0.000453
0.000295
0.000271
0.000252
0.000260
0.000534
0.000222
0.000239
0.000276
0.000281
0.000305
0.000535
0.000318
0.000060
0.000339
0.000387
0.000224
0.000203
0.001516
0.000544
0.000296
0.000234
0.000211
0.000253
0.000225
0.000219
0.000243
0.000269
0.000251
0.000262
0.000266
0.000317
0.000458
0.000364
0.000433
0.000227
0.000204
0.000238
0.000260
0.000268
0.000281
0.000256
0.000260
0.000276
0.000205
0.000060
0.000404
0.000285
0.000256
0.000224
0.000235
0.000243
0.000243
0.000259
0.000235
0.000252
0.001487
0.000432
0.000268
0.000199
0.000230
0.000258
0.000260
0.000246
0.000260
0.000242
0.000300
0.000240
0.000270
0.000397
0.000439
0.000467
0.000217
0.000297
0.000222
0.000285
0.000189
0.000057
0.000207
0.000456
0.000207
0.000218
0.000360
0.000396
0.000364
0.000346
0.000438
0.000234
0.000211
0.000232
0.000265
0.000259
0.000272
0.001396
0.000374
0.000274
0.000252
0.000269
0.000270
0.000265
0.000256
0.000258
0.000281
0.000269
0.000404
0.000483
0.000294
0.000288
0.000147
0.000066
0.000183
0.000222
0.000247
0.000223
0.000243
0.000236
0.000243
0.000244
0.000297
0.000402
0.000463
0.000302
0.000213
0.000229
0.000230
0.000255
0.000266
0.000265
0.000272
0.000253
0.000237
0.000357
0.001293
0.000228
0.000274
0.000214
0.000237
0.000269
0.000251
0.000249
0.000202
0.000059
0.000245
0.000310
0.000579
0.000253
0.000170
0.000193
0.000245
0.000271
0.000238
0.000236
0.000265
0.000260
0.000254
0.000258
0.000330
0.000202
0.000254
0.000272
0.000247
0.000296
0.000249
0.000271
0.000261
0.000280
0.000281
0.000273
0.000263
0.000259
0.000236
0.000519
0.001329
0.000060
0.000209
0.000221
0.000217
0.000241
0.000254
0.000251
0.000253
0.000252
0.000218
0.000269
0.000246
0.000279
0.000241
0.000251
0.000272
0.001691
0.000346
0.000225
0.000206
0.000250
0.000258
0.000258
0.000273
0.000276
0.000237
0.000274
0.000267
0.000281
0.000254
0.000261
0.000219
0.000058
0.000306
0.000318
0.001338
0.000204
0.000221
0.000248
0.000230
0.000230
0.000288
0.000250
0.000208
0.000342
0.000476
0.000444
0.000248
0.000215
0.000235
0.000226
0.000269
0.000254
0.000268
0.000250
0.000273
0.000273
0.000265
0.000436
0.000375
0.000352
0.000272
0.000313
0.000155
0.000067
0.000183
0.000226
0.000245
0.000248
0.000248
0.000217
0.000220
0.000249
0.000465
0.000447
0.001119
0.000248
0.000248
0.000242
0.000262
0.000254
0.000265
0.000269
0.000318
0.000404
0.000399
0.000263
0.000236
0.000268
0.000258
0.000275
0.000274
0.000281
0.000264
0.000281
0.000187
0.000059
0.000236
0.000492
0.000357
0.000225
0.000210
0.000217
0.000240
0.000241
0.000270
0.000254
0.000234
0.000244
0.000574
0.000448
0.000480
0.001470
0.000219
0.000253
0.000345
0.000353
0.000423
0.000426
0.000458
0.000409
0.000243
0.000276
0.000262
0.000265
0.000271
0.000277
0.000182
0.000061
0.000207
0.000255
0.000458
0.000500
0.000315
0.000211
0.000255
0.000253
0.000237
0.000257
0.000258
0.000265
0.000269
0.000236
0.000270
0.000337
0.000342
0.000445
0.000321
0.001313
0.000287
0.000235
0.000243
0.000293
0.000566
0.000349
0.000410
0.000221
0.000234
0.000266
0.000214
0.000068
0.000174
0.000231
0.000243
0.000228
0.000259
0.000266
0.000428
0.000421
0.000367
0.000224
0.000226
0.000247
0.000277
0.000295
0.000225
0.000277
0.000253
0.000257
0.000255
0.000338
0.000504
0.000410
0.000324
0.001362
0.000356
0.000238
0.000273
0.000439
0.000515
0.000325
0.000252
0.000057
0.000208
0.000213
0.000240
0.000238
0.000243
0.000245
0.001697
0.000281
0.000210
0.000227
0.000236
0.000261
0.000317
0.000326
0.000335
0.000278
0.000238
0.000308
0.000484
0.000447
0.000293
0.000270
0.000233
0.000230
0.001428
0.000420
0.000416
0.000477
0.000323
0.000294
0.000155
0.000057
0.000203
0.000229
0.000253
0.000263
0.000269
0.000227
0.001771
0.000208
0.000239
0.000253
0.000386
0.000404
0.001462
0.000359
0.000368
0.000203
0.000226
0.000226
0.000252
0.000272
0.001627
0.000550
0.000406
0.000286
0.000217
0.000224
0.000234
0.000275
0.000258
0.000267
0.000198
0.000059
0.000219
0.000207
0.000245
0.000229
0.000303
0.000235
0.000283
0.000255
0.000255
0.000253
0.000260
0.000265
0.000251
0.000277
0.000253
0.001505
0.000259
0.000243
0.000264
0.000257
0.000270
0.000255
0.000437
0.001278
0.000274
0.000251
0.000246
0.000267
0.000449
0.000227
0.000171
0.000058
0.000216
0.000210
0.000235
0.000234
0.000242
0.000260
0.000227
0.001748
0.000213
0.000231
0.000224
0.000343
0.000262
0.000220
0.001451
0.000247
0.000206
0.000223
0.000254
0.000255
0.000274
0.000282
0.000348
0.001366
0.000278
0.000235
0.000215
0.000253
0.001388
0.000286
0.000231
0.000057
0.000224
0.000379
0.000208
0.000211
0.000234
0.000245
0.000256
0.000266
0.000262
0.000306
0.000241
0.000254
0.000251
0.000251
0.000357
0.001447
0.000251
0.000247
0.000255
0.000243
0.000273
0.000287
0.000263
0.001501
0.000333
0.000259
0.000260
0.001337
0.000227
0.000233
0.000182
0.000058
0.000245
0.000347
0.000355
0.000214
0.000222
0.000233
0.000253
0.000252
0.000263
0.000272
0.000242
0.000254
0.000252
0.000271
0.000512
0.001206
0.000220
0.000219
0.000232
0.000271
0.000259
0.000245
0.000245
0.001310
0.000367
0.000224
0.000234
0.000226
0.000259
0.001336
0.000303
0.000057
0.000277
0.000286
0.000220
0.000214
0.000236
0.000242
0.000237
0.000241
0.000330
0.000202
0.000244
0.000253
0.000250
0.000340
0.000393
0.001504
0.000225
0.000238
0.000328
0.000530
0.000254
0.000371
0.001333
0.000302
0.000264
0.000290
0.001264
0.000339
0.000246
0.000503
0.000304
0.000069
0.000196
0.000226
0.000242
0.000250
0.000257
0.000273
0.000255
0.000246
0.000266
0.000253
0.000365
0.000540
0.001292
0.000219
0.000229
0.000259
0.000282
0.000264
0.000221
0.000229
0.000316
0.001325
0.000250
0.000222
0.000235
0.000249
0.001462
0.000466
0.000472
0.000275
0.000151
0.000060
0.000207
0.000222
0.000225
0.000250
0.000228
0.000262
0.000242
0.000280
0.000395
0.000490
0.000325
0.001459
0.000230
0.000235
0.000259
0.000261
0.000229
0.000315
0.001647
0.000311
0.000344
0.000362
0.001333
0.000411
0.000266
0.000356
0.000225
0.000232
0.000252
0.000269
0.000176
0.000067
0.000175
0.000231
0.000288
0.000247
0.000275
0.000609
0.000255
0.000386
0.001460
0.000275
0.000335
0.000257
0.000211
0.000324
0.000377
0.001355
0.000251
0.000220
0.000227
0.000254
0.000279
0.001660
0.000298
0.000278
0.000261
0.000196
0.000499
0.000315
0.000238
0.000230
0.000250
0.000056
0.000247
0.000349
0.000357
0.000293
0.000200
0.001479
0.000239
0.000227
0.000256
0.000258
0.000268
0.000250
0.000350
0.001458
0.000247
0.000240
0.000410
0.001286
0.000319
0.000410
0.000347
0.000261
0.000263
0.000246
0.000280
0.000249
0.000435
0.000241
0.000243
0.000259
0.000220
0.000057
0.000204
0.000244
0.000350
0.001440
0.000271
0.000200
0.000305
0.000258
0.000242
0.000258
0.000244
0.000315
0.001579
0.000235
0.000200
0.000221
0.001365
0.000344
0.000436
0.000382
0.000416
0.000210
0.000241
0.000249
0.000352
0.000234
0.000239
0.000260
0.000237
0.000250
0.000207
0.000056
0.000215
0.000429
0.001409
0.000238
0.000221
0.000269
0.000256
0.000243
0.000333
0.000458
0.001255
0.000253
0.000299
0.000246
0.000231
0.001314
0.000715
0.000242
0.000333
0.000390
0.000338
0.000242
0.000225
0.000235
0.000265
0.000276
0.000268
0.000320
0.000485
0.000428
0.001369
0.000060
0.000209
0.000246
0.000210
0.000216
0.000246
0.000426
0.001578
0.000263
0.000217
0.000215
0.000259
0.001354
0.000480
0.000350
0.000448
0.000246
0.000225
0.000212
0.000279
0.000244
0.000256
0.000262
0.000268
0.000271
0.000254
0.000288
0.000583
0.000375
0.001461
0.000262
0.000179
0.000060
0.000204
0.000216
0.000322
0.000698
0.001106
0.000281
0.000273
0.000227
0.000252
0.000242
0.000267
0.000267
0.000336
0.000581
0.000307
0.000220
0.000252
0.000268
0.000258
0.000275
0.000247
0.000270
0.000248
0.000265
0.000243
0.000426
0.000474
0.000338
0.000326
0.001455
0.000153
0.000059
0.000219
0.000215
0.000232
0.000499
0.000383
0.000286
0.000284
0.000312
0.000306
0.000270
0.000252
0.000267
0.000237
0.000320
0.000220
0.000344
0.000468
0.000356
0.000281
0.000382
0.000281
0.000463
0.000252
0.000217
0.000214
0.000271
0.000239
0.000279
0.000351
0.000503
0.000308
0.000057
0.000231
0.001360
0.000294
0.000347
0.000343
0.000449
0.000417
0.000266
0.000214
0.000236
0.000257
0.000264
0.000227
0.000247
0.000318
0.000237
0.000249
0.001444
0.000227
0.000228
0.000227
0.000264
0.000290
0.000274
0.000272
0.000268
0.000272
0.000246
0.000277
0.000488
0.000264
0.000058
0.000227
0.000243
0.000234
0.001520
0.000331
0.000220
0.000213
0.000216
0.000224
0.000252
0.000257
0.000260
0.000245
0.000243
0.000288
0.000264
0.000254
0.000261
0.000232
0.000263
0.001437
0.000272
0.000241
0.000309
0.000234
0.000241
0.000253
0.000265
0.000270
0.000500
0.000349
0.000056
0.000207
0.000227
0.000368
0.000308
0.000223
0.000247
0.001549
0.000356
0.000315
0.000210
0.000214
0.000396
0.000284
0.000232
0.000226
0.000231
0.000253
0.000260
0.000261
0.000250
0.000520
0.000502
0.001152
0.000267
0.000213
0.000230
0.000254
0.000292
0.000254
0.000274
0.000314
0.000059
0.000325
0.000317
0.000195
0.000203
0.000243
0.000240
0.000244
0.000253
0.001410
0.000535
0.000391
0.000264
0.000231
0.000223
0.000249
0.000227
0.000271
0.000264
0.000276
0.000321
0.000311
0.000473
0.000420
0.001380
0.000241
0.000244
0.000277
0.000263
0.000281
0.000245
0.000671
0.000059
0.000234
0.000216
0.000244
0.000229
0.000233
0.000239
0.000253
0.000255
0.000266
0.001575
0.000358
0.000256
0.000239
0.000254
0.000467
0.000302
0.000424
0.000447
0.000334
0.000314
0.000427
0.000493
0.001293
0.000229
0.000226
0.000254
0.001753
0.000424
0.000594
0.000317
0.000149
0.000059
0.000202
0.000215
0.000227
0.000232
0.000240
0.000264
0.000348
0.000413
0.000501
0.000417
0.000295
0.000222
0.000228
0.000254
0.000262
0.000272
0.000252
0.000262
0.000245
0.000268
0.000278
0.000430
0.001304
0.000254
0.000240
0.000277
0.001888
0.000387
0.000476
0.000250
0.000169
0.000058
0.000223
0.000220
0.000223
0.001598
0.000363
0.000259
0.000239
0.000249
0.000265
0.000321
0.000365
0.000378
0.000367
0.000294
0.000327
0.000474
0.000371
0.001235
0.000267
0.000207
0.000248
0.000252
0.000368
0.000432
0.000607
0.000406
0.000224
0.000214
0.000262
0.000284
0.000205
0.000058
0.000205
0.000230
0.001435
0.000411
0.000204
0.000217
0.000217
0.000256
0.000247
0.000255
0.000233
0.000270
0.000261
0.000280
0.000279
0.000381
0.000465
0.000302
0.001371
0.000289
0.000231
0.000250
0.000247
0.000264
0.000396
0.000540
0.000401
0.000272
0.000293
0.000251
0.000395
0.000058
0.000204
0.000228
0.000249
0.000257
0.001570
0.000235
0.000242
0.000238
0.000255
0.000258
0.000256
0.000293
0.000233
0.000259
0.000385
0.000494
0.001496
0.000734
0.000254
0.000309
0.000237
0.000244
0.000224
0.000271
0.001734
0.000726
0.000261
0.000238
0.000268
0.000283
0.000232
0.000066
0.000197
0.000216
0.000228
0.000255
0.000247
0.000243
0.000252
0.000255
0.000232
0.000244
0.000307
0.000272
0.000250
0.000259
0.000285
0.000228
0.000270
0.001589
0.000669
0.000420
0.000312
0.000245
0.000248
0.000234
0.000288
0.000259
0.000281
0.000248
0.001512
0.000314
0.000369
0.000057
0.000196
0.000228
0.000233
0.000258
0.000253
0.000227
0.000261
0.000246
0.000241
0.000248
0.000257
0.000476
0.000398
0.000364
0.000234
0.000211
0.000247
0.001471
0.000683
0.000386
0.000354
0.000311
0.000244
0.000234
0.000269
0.000251
0.000237
0.000280
0.001477
0.000426
0.000238
0.000058
0.000209
0.000217
0.000228
0.000246
0.000242
0.000245
0.000245
0.000240
0.000264
0.000258
0.000355
0.000402
0.000323
0.000251
0.000232
0.000255
0.000272
0.000261
0.001551
0.000595
0.000602
0.000243
0.000215
0.000243
0.000277
0.000238
0.000262
0.000272
0.000271
0.001428
0.000313
0.000056
0.000202
0.000228
0.000226
0.000263
0.000252
0.000252
0.000264
0.000344
0.000372
0.000419
0.000348
0.000392
0.000330
0.000242
0.000227
0.000234
0.000263
0.000257
0.001391
0.000871
0.000333
0.000212
0.000465
0.000215
0.000233
0.000254
0.000265
0.000272
0.000273
0.000275
0.000288
0.000060
0.000287
0.000227
0.000225
0.000202
0.000276
0.000249
0.000248
0.000226
0.000228
0.000283
0.000258
0.000235
0.000225
0.000518
0.000507
0.000361
0.000255
0.000256
0.000251
0.000243
0.000281
0.000356
0.001427
0.000986
0.000259
0.000240
0.000274
0.000264
0.000258
0.000277
0.000191
0.000060
0.000188
0.001375
0.000267
0.000201
0.000217
0.000251
0.000244
0.000251
0.000237
0.000260
0.000257
0.000264
0.000232
0.000432
0.000319
0.000500
0.000255
0.000212
0.000247
0.000294
0.000248
0.000254
0.000231
0.000267
0.001832
0.000316
0.000251
0.000402
0.000367
0.000417
0.000242
0.000067
0.000193
0.000216
0.000336
0.001323
0.000232
0.000268
0.000213
0.000264
0.000265
0.000232
0.000257
0.000247
0.000268
0.000392
0.000499
0.000365
0.000215
0.000306
0.000300
0.000202
0.000241
0.000257
0.000251
0.000256
0.000273
0.001532
0.000727
0.000308
0.000314
0.000232
0.000226
0.000060
0.000218
0.000267
0.000427
0.000383
0.001292
0.000247
0.000205
0.000216
0.000241
0.000259
0.000230
0.000260
0.000231
0.000230
0.000252
0.000264
0.000275
0.000218
0.000246
0.000253
0.000263
0.000269
0.000345
0.000299
0.000235
0.000263
0.000244
0.001539
0.000233
0.000225
0.000171
0.000057
0.000201
0.000215
0.000260
0.000316
0.000353
0.000338
0.000408
0.000242
0.001546
0.000258
0.000283
0.000492
0.000385
0.000221
0.000465
0.000235
0.000224
0.000230
0.000259
0.000258
0.000285
0.000272
0.000252
0.000274
0.000257
0.000420
0.000516
0.000262
0.001527
0.000250
0.000176
0.000063
0.000183
0.000232
0.000231
0.000230
0.000265
0.000231
0.000262
0.000374
0.000369
0.002088
0.000200
0.000213
0.000236
0.000261
0.000251
0.000338
0.000256
0.000214
0.000245
0.000426
0.000414
0.000402
0.001525
0.000224
0.000209
0.000525
0.001798
0.000260
0.000257
0.001473
0.000195
0.000057
0.000348
0.000381
0.000475
0.000217
0.000289
0.000223
0.000237
0.000262
0.000265
0.000246
0.000260
0.000405
0.000364
0.000328
0.000407
0.000294
0.000211
0.001552
0.000475
0.002015
0.000284
0.000261
0.001411
0.000384
0.002576
0.000251
0.000200
0.000212
0.000254
0.000620
0.000178
0.000060
0.000203
0.000222
0.000236
0.000262
0.001461
0.001673
0.001097
0.000224
0.000217
0.001564
0.001992
0.000224
0.000306
0.000407
0.000373
0.000281
0.000437
0.000359
0.000259
0.000244
0.000279
0.000235
0.000270
0.001568
0.002450
0.000314
0.000208
0.000260
0.000252
0.000287
0.000389
0.000060
0.000241
0.000226
0.000213
0.000220
0.000239
0.000247
0.000248
0.000262
0.000260
0.000250
0.000225
0.000270
0.000470
0.000556
0.000260
0.000230
0.000208
0.000283
0.000247
0.000256
0.000256
0.001401
0.000483
0.000426
0.002088
0.000251
0.000243
0.000303
0.000480
0.000453
0.000150
0.000063
0.000210
0.000316
0.000478
0.000298
0.000224
0.000231
0.000235
0.000241
0.000258
0.000256
0.000249
0.000248
0.000262
0.001602
0.001409
0.001235
0.000267
0.000231
0.000218
0.000238
0.000283
0.000276
0.000236
0.000256
0.002289
0.000223
0.000220
0.000264
0.000317
0.000304
0.000253
0.000058
0.000214
0.000386
0.000606
0.000303
0.000204
0.000221
0.000231
0.000229
0.001904
0.001447
0.000249
0.000379
0.000387
0.000360
0.000259
0.000213
0.000232
0.000260
0.000255
0.000286
0.000259
0.000265
0.000457
0.000249
0.000258
0.000280
0.000240
0.000274
0.000273
0.000243
0.000220
0.000057
0.000200
0.000238
0.000251
0.000234
0.000250
0.000311
0.001497
0.001481
0.001324
0.000218
0.000214
0.000223
0.000254
0.000250
0.000259
0.000255
0.000254
0.002178
0.000201
0.000221
0.000266
0.000263
0.000231
0.000278
0.000253
0.000265
0.000276
0.000262
0.000257
0.000312
0.000134
0.000060
0.001503
0.000316
0.002410
0.000246
0.000274
0.000296
0.000265
0.000235
0.000270
0.000238
0.000260
0.000250
0.000252
0.000246
0.000272
0.000272
0.000220
0.000265
0.000259
0.000274
0.000258
0.000279
0.000277
0.000268
0.000249
0.000254
0.000262
0.000274
0.000270
0.000248
0.000402
0.000073
0.000180
0.002548
0.000331
0.000214
0.000196
0.000227
0.000216
0.000274
0.000236
0.000260
0.000460
0.000324
0.000378
0.000205
0.000214
0.002221
0.000211
0.000229
0.000279
0.000524
0.000383
0.000265
0.000215
0.000251
0.000271
0.000234
0.000252
0.000281
0.000277
0.001743
0.001154
0.000074
0.000193
0.000218
0.000225
0.000410
0.000408
0.000243
0.000230
0.000239
0.000233
0.000256
0.000258
0.000265
0.000238
0.000235
0.000251
0.000268
0.000289
0.000716
0.000316
0.000242
0.000226
0.000245
0.000300
0.000263
0.000234
0.000256
0.000268
0.000281
0.000234
0.000308
0.000403
0.000061
0.001122
0.000251
0.000310
0.000523
0.000266
0.000197
0.000211
0.000254
0.002250
0.000415
0.000303
0.000348
0.000208
0.000283
0.000346
0.000249
0.000268
0.000271
0.000246
0.000268
0.000232
0.000261
0.000585
0.000550
0.001786
0.001370
0.000518
0.000513
0.000236
0.000253
0.000209
0.000064
0.000319
0.000276
0.000272
0.000197
0.000236
0.000242
0.000246
0.000255
0.000229
0.000262
0.000253
0.000264
0.000242
0.000242
0.000392
0.000523
0.001865
0.001352
0.000372
0.000437
0.000430
0.000254
0.000242
0.000253
0.002197
0.000494
0.000373
0.000251
0.000266
0.000279
0.000211
0.000058
0.000198
0.000246
0.000232
0.000249
0.000220
0.000329
0.000452
0.000278
0.000336
0.000246
0.000231
0.000274
0.000237
0.002196
0.000303
0.000358
0.000227
0.000249
0.000246
0.000267
0.000248
0.002460
0.000366
0.000216
0.000234
0.000254
0.000275
0.000266
0.000275
0.000285
0.000195
0.000057
0.000198
0.000344
0.000550
0.000400
0.000230
0.000208
0.000211
0.000242
0.000252
0.000267
0.002060
0.000360
0.000326
0.000192
0.000221
0.000237
0.000257
0.000270
0.002259
0.000375
0.000238
0.000272
0.000258
0.000253
0.000252
0.000285
0.000249
0.000267
0.000270
0.000271
0.000166
0.000061
0.000197
0.000225
0.000248
0.000218
0.000228
0.000267
0.000222
0.000255
0.000239
0.002181
0.000234
0.000280
0.000221
0.000459
0.000216
0.000226
0.000250
0.000286
0.000268
0.000278
0.002009
0.000270
0.000349
0.000365
0.000483
0.000354
0.000288
0.000269
0.000225
0.000252
0.000181
0.000068
0.000199
0.000236
0.000220
0.000252
0.000382
0.000222
0.000205
0.002326
0.000228
0.000229
0.000208
0.000261
0.000250
0.000232
0.000302
0.002214
0.000521
0.000231
0.000237
0.000262
0.000241
0.000258
0.000281
0.000265
0.000269
0.000260
0.000290
0.000257
0.000261
0.000303
0.000159
0.000058
0.000207
0.003034
0.000220
0.000225
0.000236
0.000255
0.000246
0.000269
0.000397
0.000378
0.002150
0.000248
0.000244
0.000268
0.000259
0.000618
0.000338
0.000335
0.000194
0.000239
0.000249
0.000259
0.000260
0.000223
0.000253
0.000263
0.000278
0.000251
0.000270
0.000722
0.000327
0.000057
0.000203
0.000271
0.000265
0.000218
0.000250
0.000228
0.000244
0.000245
0.001550
0.002136
0.000513
0.000271
0.000392
0.000882
0.000249
0.000207
0.000222
0.000243
0.000256
0.000250
0.000300
0.000224
0.000243
0.000270
0.001824
0.001499
0.000261
0.000278
0.000272
0.000276
0.000444
0.000060
0.001931
0.000233
0.000229
0.000209
0.000266
0.000356
0.000510
0.000275
0.000320
0.000253
0.000202
0.000243
0.000244
0.000262
0.000261
0.000262
0.000243
0.000270
0.001884
0.000220
0.000245
0.000224
0.000243
0.000285
0.000276
0.000260
0.001545
0.000328
0.000218
0.000245
0.000153
0.000067
0.000194
0.000219
0.000222
0.000237
0.000249
0.000248
0.000280
0.000393
0.000400
0.000353
0.000204
0.000243
0.000308
0.000340
0.000392
0.000313
0.000224
0.000225
0.000228
0.000335
0.000651
0.000376
0.000207
0.000231
0.000265
0.000236
0.000286
0.000255
0.000277
0.000270
0.000190
0.000064
0.001431
0.000436
0.000219
0.002002
0.000240
0.000433
0.000408
0.000333
0.000207
0.000239
0.000252
0.000251
0.000253
0.000252
0.000264
0.000277
0.000406
0.000268
0.000534
0.000338
0.000304
0.000238
0.000243
0.000262
0.000323
0.000244
0.000228
0.000277
0.000434
0.000396
0.001396
0.000064
0.000198
0.000211
0.002071
0.000256
0.000319
0.000265
0.000254
0.000257
0.000261
0.000256
0.000245
0.000228
0.000254
0.000247
0.000267
0.000355
0.000784
0.001673
0.000269
0.000269
0.000242
0.000273
0.000332
0.000498
0.001536
0.000260
0.000360
0.002024
0.000225
0.000233
0.000201
0.000058
0.000213
0.000210
0.000230
0.000261
0.000229
0.000229
0.000309
0.000344
0.000273
0.000248
0.000442
0.000407
0.000365
0.000202
0.000195
0.000229
0.000259
0.000254
0.000251
0.000311
0.000358
0.000232
0.000219
0.000275
0.000261
0.001573
0.000289
0.000395
0.002023
0.000231
0.000152
0.000063
0.000215
0.000229
0.000225
0.000251
0.000478
0.000242
0.000234
0.000310
0.000424
0.000316
0.000230
0.000231
0.000236
0.000282
0.000264
0.000337
0.000504
0.000339
0.000303
0.000396
0.000549
0.000392
0.001582
0.000256
0.000247
0.002037
0.000331
0.000220
0.000226
0.000251
0.000204
0.000061
0.000201
0.000225
0.000224
0.000261
0.000241
0.000271
0.000257
0.000262
0.000241
0.000261
0.001851
0.000301
0.000401
0.000313
0.000462
0.000356
0.001516
0.000333
0.000234
0.000302
0.002034
0.000595
0.000266
0.000212
0.000248
0.000253
0.000495
0.000274
0.000241
0.000244
0.000216
0.000059
0.000283
0.000392
0.000355
0.000256
0.000229
0.000228
0.000251
0.000252
0.000306
0.000245
0.000239
0.000254
0.000263
0.000260
0.000310
0.000450
0.001351
0.000260
0.000341
0.001923
0.000370
0.000250
0.000212
0.000245
0.000266
0.000257
0.000266
0.000272
0.000257
0.000278
0.000189
0.000068
0.000363
0.000367
0.002003
0.000222
0.000266
0.000203
0.000212
0.000289
0.000430
0.001524
0.000330
0.000372
0.000337
0.002007
0.000237
0.000235
0.000259
0.000261
0.000260
0.000255
0.000284
0.000305
0.000259
0.000352
0.000480
0.000341
0.000364
0.002186
0.000513
0.000510
0.000392
0.000064
0.000221
0.000214
0.000225
0.002026
0.000200
0.000218
0.000230
0.000274
0.000206
0.000258
0.000249
0.000267
0.000245
0.000285
0.000477
0.000395
0.001282
0.000233
0.000264
0.000253
0.000262
0.000249
0.000269
0.000245
0.000316
0.000464
0.000476
0.000267
0.001656
0.000230
0.000156
0.000069
0.000197
0.000203
0.000211
0.000249
0.000240
0.000271
0.000237
0.000240
0.000289
0.000368
0.000328
0.001496
0.000217
0.000205
0.000233
0.000244
0.000275
0.000252
0.000267
0.000536
0.000475
0.000384
0.000219
0.001549
0.000261
0.000240
0.000272
0.000272
0.000266
0.000263
0.000206
0.000059
0.000202
0.000226
0.000234
0.000257
0.000252
0.000247
0.000254
0.000223
0.000248
0.000271
0.000249
0.000255
0.000246
0.000261
0.001578
0.000240
0.000226
0.000292
0.000321
0.000321
0.000385
0.000249
0.000217
0.000263
0.000242
0.000267
0.001447
0.000298
0.000203
0.000251
0.000145
0.000057
0.000204
0.000223
0.000254
0.000262
0.000263
0.000211
0.000238
0.000253
0.000241
0.000245
0.000244
0.000271
0.000242
0.000329
0.000354
0.000366
0.000266
0.001566
0.000343
0.000218
0.000227
0.000243
0.000229
0.000293
0.000450
0.000452
0.000398
0.000243
0.000217
0.001593
0.000196
0.000061
0.000318
0.000379
0.000327
0.000309
0.000210
0.000224
0.000232
0.000250
0.000260
0.000258
0.000239
0.000244
0.001465
0.000318
0.000316
0.000204
0.000232
0.000266
0.000267
0.000232
0.000265
0.000239
0.000262
0.000261
0.000252
0.000360
0.000547
0.000323
0.000293
0.000225
0.000171
0.000058
0.000224
0.000263
0.000391
0.000548
0.000282
0.000196
0.000230
0.000240
0.000253
0.000252
0.000241
0.000229
0.000242
0.000248
0.001375
0.000232
0.000224
0.000232
0.000244
0.000288
0.000241
0.000247
0.000265
0.000246
0.000257
0.000268
0.000279
0.000684
0.000499
0.000248
0.000172
0.000068
0.000191
0.001525
0.000279
0.000499
0.000423
0.000243
0.000204
0.000229
0.000260
0.000275
0.000229
0.000251
0.000264
0.000277
0.000261
0.001559
0.000241
0.000274
0.000248
0.000257
0.000266
0.000262
0.000273
0.000250
0.000257
0.000296
0.000507
0.000329
0.000366
0.000218
0.000148
0.000060
0.000210
0.000230
0.000232
0.001779
0.000321
0.000338
0.000231
0.000204
0.000252
0.000263
0.000268
0.000257
0.000243
0.000275
0.000226
0.000249
0.000410
0.001395
0.000212
0.000225
0.001528
0.000338
0.000576
0.000381
0.000293
0.000222
0.000262
0.000481
0.000219
0.000250
0.000196
0.000063
0.000299
0.000217
0.000212
0.000241
0.000261
0.000246
0.000226
0.000262
0.000276
0.000236
0.000242
0.000263
0.000312
0.000569
0.001591
0.001535
0.000332
0.000537
0.000302
0.000251
0.000231
0.000246
0.000269
0.000266
0.000241
0.000260
0.000261
0.000271
0.001590
0.000313
0.000136
0.000057
0.000251
0.000336
0.000344
0.000325
0.000261
0.000207
0.000219
0.000445
0.000316
0.001560
0.000222
0.001537
0.000341
0.000478
0.000466
0.000285
0.000324
0.000373
0.000351
0.000278
0.000272
0.000315
0.001571
0.000489
0.000239
0.000249
0.000256
0.000266
0.000246
0.000259
0.000198
0.000059
0.000235
0.000208
0.000244
0.000255
0.000254
0.001669
0.000942
0.000896
0.000248
0.000241
0.000240
0.000264
0.000251
0.000253
0.000264
0.000255
0.000268
0.000267
0.000250
0.000289
0.001483
0.000270
0.000254
0.000223
0.000239
0.000275
0.000251
0.000278
0.000272
0.000280
0.000158
0.000065
0.000186
0.000225
0.001523
0.000935
0.000394
0.000308
0.000226
0.000204
0.000254
0.000242
0.000261
0.000250
0.000246
0.002200
0.000310
0.000211
0.000226
0.000243
0.000273
0.000221
0.000207
