0.000104
0.019979
0.001655
0.000366
0.000251
0.000300
0.000322
0.000226
0.000342
0.000269
0.000255
0.000327
0.000621
0.000364
0.000418
0.000327
0.000291
0.000332
0.000356
0.000422
0.001835
0.000410
0.000678
0.000274
0.000242
0.000307
0.000316
0.000304
0.000425
0.000368
0.000521
0.000316
0.000059
0.000199
0.000263
0.000270
0.000288
0.000249
0.000250
0.000278
0.000287
0.000266
0.000259
0.000434
0.000443
0.000322
0.000235
0.000378
0.000350
0.000361
0.000254
0.000255
0.001763
0.000248
0.000255
0.000450
0.000252
0.000279
0.000275
0.000287
0.000296
0.000279
0.000317
0.000473
0.000057
0.000238
0.000260
0.000265
0.000261
0.000248
0.000248
0.000263
0.000254
0.000288
0.001663
0.000228
0.000237
0.000271
0.000267
0.000278
0.000255
0.000262
0.000255
0.000350
0.001803
0.000248
0.000266
0.000444
0.000423
0.000390
0.000254
0.000315
0.000450
0.000537
0.000698
0.000189
0.000056
0.000216
0.000247
0.000245
0.000249
0.000290
0.000247
0.000315
0.000544
0.000395
0.000259
0.000242
0.000250
0.000251
0.000248
0.000256
0.000261
0.000238
0.000266
0.000298
0.000332
0.001673
0.000269
0.000265
0.000405
0.000285
0.000750
0.000712
0.000433
0.000358
0.000238
0.000191
0.000055
0.000216
0.000248
0.000295
0.000210
0.000280
0.000232
0.000250
0.000518
0.001431
0.000215
0.000247
0.000251
0.000253
0.000255
0.000263
0.000285
0.000399
0.000663
0.001405
0.000301
0.000239
0.000417
0.000233
0.000253
0.000261
0.000251
0.000273
0.000269
0.000262
0.000269
0.000196
0.000057
0.000210
0.000246
0.000245
0.000265
0.000232
0.000250
0.000238
0.000250
0.000240
0.000259
0.001623
0.000264
0.000232
0.000264
0.000241
0.000247
0.000249
0.000248
0.000252
0.000254
0.000289
0.001644
0.000281
0.000272
0.000420
0.000261
0.000252
0.000266
0.000255
0.000276
0.000194
0.000056
0.000206
0.000229
0.000252
0.000244
0.000239
0.000247
0.000260
0.000240
0.000263
0.000259
0.000249
0.000272
0.000244
0.000270
0.001632
0.000279
0.000288
0.000224
0.000248
0.000276
0.000273
0.000257
0.000224
0.000263
0.001786
0.000395
0.000340
0.000371
0.000238
0.000277
0.000198
0.000054
0.000209
0.000233
0.000249
0.000265
0.000266
0.000254
0.000275
0.000385
0.000491
0.000362
0.000208
0.000244
0.000253
0.000250
0.001557
0.000542
0.000352
0.000399
0.000290
0.000227
0.000275
0.000279
0.000273
0.001761
0.000488
0.000455
0.000255
0.000245
0.000249
0.000261
0.000190
0.000056
0.000220
0.000225
0.000260
0.000261
0.000316
0.000452
0.000419
0.000249
0.000210
0.000255
0.000262
0.000236
0.000253
0.001714
0.000475
0.000302
0.000225
0.000248
0.000272
0.000292
0.000243
0.000260
0.001811
0.000338
0.000324
0.000384
0.000234
0.000266
0.000262
0.000401
0.000326
0.000055
0.000238
0.000351
0.000377
0.000311
0.000210
0.000247
0.000251
0.000258
0.000243
0.000237
0.000230
0.000253
0.001547
0.000387
0.000276
0.000234
0.000260
0.000249
0.000249
0.000301
0.000255
0.000326
0.000246
0.001808
0.000261
0.000483
0.000257
0.000250
0.000261
0.000269
0.000262
0.000057
0.000352
0.000572
0.000611
0.000212
0.000227
0.000276
0.000229
0.000219
0.000266
0.000247
0.000252
0.001694
0.000258
0.000444
0.000363
0.000225
0.000233
0.000233
0.000251
0.000256
0.000254
0.001859
0.000244
0.000446
0.001872
0.000535
0.000346
0.000247
0.000254
0.000288
0.000166
0.000056
0.000190
0.000239
0.000245
0.000241
0.000255
0.001616
0.000257
0.000232
0.000270
0.000237
0.000242
0.000242
0.000248
0.000256
0.000285
0.000393
0.000643
0.000247
0.000239
0.000269
0.000281
0.000238
0.000245
0.000429
0.000436
0.000261
0.000365
0.000699
0.000275
0.000275
0.000198
0.000056
0.000218
0.000241
0.000248
0.000255
0.000240
0.000234
0.000238
0.000410
0.001819
0.000318
0.000224
0.000243
0.000252
0.000232
0.000256
0.000267
0.000400
0.000510
0.000360
0.000239
0.000253
0.000311
0.000279
0.000250
0.000275
0.000413
0.000341
0.000600
0.000498
0.000425
0.000173
0.000055
0.000198
0.000256
0.000238
0.000240
0.000236
0.000240
0.000246
0.000258
0.000230
0.000285
0.000342
0.000458
0.001370
0.000244
0.000241
0.000251
0.000251
0.000267
0.000231
0.000285
0.000272
0.000418
0.000419
0.000267
0.000269
0.000256
0.000249
0.000278
0.000263
0.000264
0.000375
0.000056
0.000198
0.000255
0.000210
0.000273
0.000531
0.000441
0.000221
0.000264
0.000233
0.000257
0.000261
0.000227
0.000296
0.000249
0.000241
0.000577
0.000333
0.001632
0.000294
0.000235
0.000241
0.000268
0.000254
0.000239
0.000260
0.000463
0.000405
0.000387
0.000426
0.000243
0.000193
0.000055
0.000234
0.000433
0.000240
0.000218
0.000283
0.000222
0.000296
0.000551
0.000384
0.000275
0.000229
0.000277
0.000262
0.000240
0.000518
0.000336
0.000226
0.000249
0.000499
0.001546
0.000276
0.000247
0.000507
0.000252
0.000277
0.000277
0.000254
0.000413
0.000517
0.000338
0.000274
0.000055
0.000218
0.000239
0.000237
0.000240
0.000418
0.000308
0.000292
0.000224
0.000433
0.000434
0.000382
0.000254
0.000240
0.000241
0.000260
0.000264
0.000257
0.000254
0.000234
0.000344
0.000295
0.000303
0.001866
0.000243
0.000258
0.000260
0.000275
0.000347
0.000419
0.000702
0.000433
0.000056
0.000228
0.000332
0.000301
0.000420
0.000392
0.000202
0.000260
0.000324
0.000568
0.000325
0.000259
0.000245
0.000232
0.000277
0.000259
0.000234
0.000259
0.000274
0.000264
0.000259
0.000266
0.000450
0.000657
0.001293
0.000325
0.000434
0.000425
0.000234
0.000467
0.000389
0.000456
0.000056
0.000233
0.000380
0.000285
0.000202
0.000239
0.000256
0.000394
0.000243
0.000240
0.000438
0.000353
0.000441
0.000241
0.000259
0.000266
0.000246
0.000348
0.000401
0.000335
0.000257
0.000242
0.000441
0.000587
0.001662
0.000232
0.000433
0.000311
0.000227
0.000255
0.000464
0.000309
0.000056
0.000199
0.000230
0.000247
0.000256
0.000247
0.000237
0.000251
0.000342
0.000438
0.000279
0.000419
0.000389
0.000298
0.000578
0.000238
0.000246
0.000274
0.000268
0.000224
0.000347
0.000218
0.000258
0.000272
0.000410
0.000529
0.001611
0.000265
0.000233
0.000264
0.000268
0.000187
0.000056
0.000285
0.000520
0.000288
0.000217
0.000260
0.000236
0.000263
0.000233
0.000273
0.000244
0.000230
0.000253
0.000419
0.000495
0.000411
0.000273
0.000255
0.000248
0.000337
0.000377
0.000382
0.000337
0.000361
0.000408
0.000236
0.000260
0.000267
0.000274
0.001783
0.000254
0.000204
0.000056
0.000194
0.000222
0.000258
0.000292
0.000327
0.000543
0.000322
0.000216
0.000289
0.000238
0.000247
0.000254
0.000514
0.000450
0.000481
0.000274
0.000257
0.000266
0.000422
0.000468
0.000355
0.000434
0.000566
0.000348
0.000227
0.000261
0.000265
0.000242
0.000263
0.001716
0.000294
0.000056
0.000292
0.000324
0.000205
0.000243
0.000254
0.000251
0.000231
0.000492
0.000378
0.000304
0.000298
0.000309
0.000304
0.000685
0.000318
0.000239
0.000246
0.000259
0.000254
0.000265
0.000275
0.000257
0.000246
0.000263
0.000319
0.000405
0.000362
0.000349
0.000231
0.000262
0.000191
0.000055
0.000471
0.000279
0.000521
0.000199
0.000205
0.000253
0.000241
0.000259
0.000244
0.000219
0.000250
0.000280
0.000292
0.000436
0.000472
0.000535
0.000260
0.000287
0.000376
0.000340
0.000288
0.000256
0.000248
0.000263
0.001739
0.000255
0.001720
0.000945
0.000458
0.000272
0.000171
0.000056
0.000210
0.000236
0.000238
0.000241
0.000269
0.000235
0.000254
0.000253
0.000239
0.000317
0.000347
0.000493
0.000289
0.000386
0.000239
0.000258
0.000249
0.000297
0.000230
0.000249
0.000250
0.000261
0.001820
0.000228
0.000257
0.000266
0.000280
0.000260
0.001881
0.000498
0.000315
0.000057
0.000186
0.000220
0.000232
0.000240
0.000254
0.000246
0.000241
0.000252
0.000261
0.000395
0.000582
0.000262
0.000397
0.000213
0.000259
0.000250
0.000317
0.000437
0.000368
0.000256
0.001788
0.000257
0.000244
0.000254
0.000254
0.000271
0.000243
0.000252
0.000328
0.000356
0.000336
0.000056
0.000275
0.000203
0.000236
0.000269
0.000235
0.000242
0.000259
0.000254
0.000236
0.000264
0.000237
0.000285
0.000406
0.000392
0.000311
0.000281
0.000490
0.000205
0.000240
0.000258
0.000260
0.000266
0.000270
0.000254
0.000280
0.001800
0.000229
0.000254
0.000265
0.000238
0.000203
0.000056
0.000299
0.000379
0.000186
0.000225
0.000241
0.000235
0.000245
0.000253
0.000243
0.000231
0.000222
0.000268
0.000258
0.000386
0.000377
0.000437
0.000216
0.000246
0.000244
0.000254
0.000266
0.000258
0.000248
0.000270
0.000258
0.000255
0.000319
0.001621
0.000262
0.000245
0.000195
0.000055
0.000202
0.000234
0.000250
0.000260
0.000348
0.000397
0.000346
0.000317
0.000255
0.000235
0.000264
0.000235
0.000244
0.000257
0.000259
0.000253
0.000250
0.000259
0.000250
0.000253
0.000273
0.000269
0.000248
0.000235
0.000248
0.000273
0.000279
0.000259
0.000253
0.000262
0.000195
0.000054
0.000226
0.000230
0.000257
0.000274
0.000231
0.000239
0.000244
0.000260
0.000270
0.000252
0.000235
0.000242
0.000254
0.000249
0.000296
0.000237
0.000251
0.000248
0.000302
0.000250
0.000275
0.000323
0.000261
0.000247
0.000281
0.000256
0.000265
0.000251
0.000282
0.000342
0.000714
0.000055
0.000234
0.000274
0.000223
0.000234
0.000248
0.000240
0.000244
0.000246
0.000250
0.000248
0.000262
0.000305
0.000474
0.000451
0.001571
0.000234
0.000491
0.000234
0.000282
0.000407
0.000452
0.000384
0.000230
0.000286
0.000243
0.000263
0.000279
0.000251
0.000307
0.000279
0.000173
0.000055
0.000371
0.000440
0.000286
0.000326
0.000226
0.000279
0.000223
0.000244
0.000236
0.000242
0.000252
0.000255
0.000234
0.000271
0.000336
0.000568
0.000341
0.001796
0.000231
0.000257
0.000362
0.000392
0.000426
0.000319
0.000320
0.000323
0.000300
0.000226
0.000230
0.000265
0.000186
0.000056
0.000224
0.000222
0.000236
0.000283
0.000323
0.000552
0.000280
0.000256
0.000255
0.000216
0.000245
0.000272
0.000267
0.000259
0.000247
0.000261
0.000313
0.000480
0.000388
0.000388
0.000231
0.001742
0.000320
0.000493
0.000492
0.000501
0.000327
0.000213
0.000263
0.000270
0.000448
0.000058
0.000192
0.000271
0.000221
0.000258
0.000470
0.000423
0.000415
0.000205
0.000268
0.000282
0.000216
0.000261
0.000257
0.000291
0.000303
0.000248
0.000257
0.000306
0.000560
0.000297
0.000500
0.001847
0.000246
0.000530
0.000404
0.000363
0.000230
0.000264
0.000277
0.000269
0.000202
0.000055
0.000212
0.000335
0.000362
0.000293
0.000436
0.000282
0.000378
0.000216
0.000238
0.000260
0.000268
0.000226
0.000258
0.000263
0.000259
0.000241
0.000315
0.000413
0.000472
0.000404
0.000262
0.000239
0.000256
0.001728
0.000449
0.000471
0.000680
0.000232
0.000268
0.000312
0.000158
0.000055
0.000209
0.000238
0.000352
0.000226
0.000274
0.000322
0.000460
0.000305
0.000235
0.000541
0.000209
0.000262
0.000258
0.000278
0.000275
0.000281
0.000200
0.000401
0.000437
0.000413
0.000261
0.000230
0.000263
0.000252
0.000261
0.000264
0.000237
0.000257
0.000267
0.000310
0.000219
0.000056
0.000342
0.000312
0.000214
0.000253
0.000254
0.000255
0.000243
0.000290
0.000234
0.000246
0.000281
0.000334
0.000415
0.000484
0.000273
0.000274
0.000220
0.000232
0.000261
0.000269
0.000282
0.000268
0.000230
0.000260
0.000282
0.000308
0.000426
0.000374
0.000338
0.000234
0.000187
0.000055
0.000213
0.000224
0.000283
0.000243
0.000237
0.000268
0.000265
0.000229
0.000496
0.000216
0.000252
0.000260
0.000242
0.000264
0.000269
0.000294
0.000244
0.000351
0.000213
0.000250
0.000255
0.000266
0.000271
0.000254
0.000272
0.000264
0.000257
0.000260
0.000258
0.000489
0.000165
0.000054
0.000214
0.000234
0.000252
0.000289
0.000199
0.000248
0.000359
0.000407
0.000240
0.000230
0.000255
0.000256
0.000237
0.000290
0.000499
0.001702
0.000224
0.000273
0.000296
0.000316
0.000408
0.000364
0.000369
0.000382
0.000406
0.000399
0.000236
0.000271
0.000269
0.000277
0.001394
0.000055
0.000190
0.000331
0.000230
0.000220
0.000242
0.000249
0.000233
0.000255
0.000243
0.000274
0.000243
0.000263
0.000248
0.000332
0.000482
0.001649
0.000234
0.000234
0.000253
0.000264
0.000230
0.000268
0.000401
0.000378
0.000257
0.000361
0.000228
0.000280
0.000263
0.000263
0.000181
0.000055
0.001184
0.000544
0.000307
0.000286
0.000241
0.000222
0.000235
0.000239
0.000492
0.000215
0.000238
0.000254
0.000320
0.000581
0.000347
0.000352
0.000257
0.000231
0.000334
0.000353
0.000277
0.000246
0.000271
0.000244
0.000269
0.000595
0.000509
0.000287
0.000264
0.000265
0.000169
0.000057
0.000186
0.000218
0.000247
0.000245
0.001557
0.000227
0.000206
0.000254
0.000257
0.000235
0.000271
0.000234
0.000241
0.000262
0.000271
0.000333
0.000401
0.000639
0.000260
0.001762
0.000248
0.000276
0.000281
0.000438
0.000575
0.000381
0.000256
0.000259
0.000248
0.000273
0.000198
0.000057
0.000210
0.000249
0.000236
0.000310
0.001252
0.000244
0.000256
0.000259
0.000242
0.000235
0.000239
0.000252
0.000277
0.000245
0.000252
0.000303
0.000451
0.000549
0.000188
0.000268
0.000256
0.000274
0.000252
0.000232
0.000304
0.000248
0.000245
0.000273
0.000274
0.000439
0.000476
0.000056
0.000228
0.000248
0.000231
0.000260
0.000267
0.000241
0.000243
0.000254
0.000271
0.000274
0.001405
0.000235
0.000236
0.000251
0.000255
0.000239
0.000292
0.000250
0.000269
0.000245
0.000280
0.000501
0.000528
0.000298
0.000220
0.000281
0.001769
0.000253
0.000254
0.000313
0.000487
0.000055
0.000201
0.000396
0.000451
0.000501
0.000516
0.000598
0.001438
0.000418
0.000525
0.000647
0.000552
0.000778
0.000427
0.000608
0.000586
0.001898
0.000363
0.000475
0.000391
0.000317
0.000224
0.000275
0.000290
0.000260
0.000262
0.000291
0.000289
0.000284
0.000264
0.000287
0.001359
0.000055
0.000207
0.000232
0.000250
0.000235
0.000254
0.000265
0.000230
0.000237
0.000256
0.000259
0.000225
0.000242
0.000261
0.000258
0.000262
0.000270
0.001814
0.000249
0.000266
0.000249
0.000252
0.000264
0.000272
0.000348
0.000343
0.000427
0.000346
0.000214
0.000296
0.000260
0.000206
0.000056
0.000187
0.001353
0.000344
0.000273
0.000250
0.000236
0.000242
0.000254
0.000218
0.000244
0.000211
0.000243
0.000260
0.000502
0.000360
0.000305
0.000244
0.001827
0.000351
0.000224
0.000255
0.000264
0.000256
0.000268
0.000273
0.000277
0.000275
0.000252
0.000262
0.000323
0.000204
0.000057
0.000207
0.000241
0.000250
0.001441
0.000221
0.000239
0.000257
0.000246
0.000239
0.000265
0.000260
0.000239
0.000240
0.000282
0.000239
0.000257
0.000263
0.000261
0.000269
0.000257
0.000260
0.001830
0.000223
0.001752
0.000268
0.000252
0.000261
0.000266
0.000269
0.000300
0.000177
0.000058
0.000186
0.000246
0.001346
0.000227
0.000250
0.000255
0.000252
0.000256
0.000247
0.000253
0.000252
0.000239
0.000257
0.000266
0.000256
0.000267
0.000256
0.000283
0.000294
0.000228
0.001923
0.000210
0.001820
0.000227
0.000273
0.000269
0.000230
0.000247
0.000267
0.000263
0.000199
0.000058
0.001451
0.000212
0.000233
0.000249
0.000239
0.000238
0.000376
0.000278
0.000240
0.000251
0.000254
0.000293
0.000245
0.000347
0.000354
0.000318
0.000230
0.000264
0.000264
0.000255
0.000268
0.000347
0.000225
0.000252
0.000265
0.000283
0.000271
0.000326
0.000646
0.000369
0.000186
0.000059
0.000200
0.000248
0.000284
0.000276
0.000371
0.000252
0.001704
0.000292
0.000277
0.000277
0.000244
0.000297
0.000249
0.000257
0.000305
0.000308
0.000363
0.000577
0.000350
0.000258
0.000296
0.000281
0.000270
0.000261
0.000336
0.000254
0.000264
0.000258
0.000263
0.000264
0.000482
0.000056
0.000265
0.000466
0.000270
0.000264
0.000252
0.000225
0.000220
0.000246
0.000260
0.000273
0.001493
0.000218
0.000234
0.000255
0.000243
0.000286
0.000284
0.000239
0.000254
0.000267
0.000271
0.000345
0.000599
0.000270
0.000274
0.000285
0.000270
0.000256
0.000234
0.000324
0.000157
0.000056
0.000208
0.000228
0.000326
0.000463
0.000347
0.000253
0.000214
0.000250
0.000255
0.000245
0.000235
0.000254
0.000277
0.000250
0.000238
0.000230
0.000498
0.001108
0.000249
0.000253
0.000274
0.000251
0.000343
0.000429
0.000259
0.000380
0.000509
0.000365
0.000362
0.000236
0.000192
0.000056
0.000237
0.000245
0.000260
0.000263
0.000254
0.000245
0.000404
0.000378
0.000445
0.000248
0.000346
0.000400
0.000396
0.000358
0.000260
0.000243
0.000240
0.000253
0.000430
0.000430
0.001259
0.000228
0.000282
0.000271
0.000236
0.000238
0.000278
0.000292
0.000422
0.000464
0.000222
0.000057
0.000197
0.000243
0.000255
0.000240
0.000244
0.000246
0.000232
0.000275
0.000313
0.000417
0.000340
0.000374
0.000246
0.000241
0.000251
0.000258
0.000248
0.000260
0.000264
0.000270
0.000424
0.000278
0.000375
0.000425
0.000284
0.000257
0.000266
0.000266
0.000255
0.000333
0.000160
0.000056
0.000337
0.000293
0.000289
0.000371
0.000516
0.000329
0.000239
0.000246
0.000241
0.000270
0.000271
0.000249
0.000234
0.000255
0.000242
0.000231
0.000266
0.000354
0.000469
0.000380
0.000220
0.000276
0.000246
0.000249
0.000265
0.000282
0.000269
0.000274
0.000270
0.000263
0.000314
0.000058
0.000286
0.000350
0.000237
0.000269
0.000225
0.000248
0.000244
0.000255
0.000264
0.000255
0.000254
0.000234
0.000276
0.000512
0.000462
0.000255
0.000241
0.000248
0.000258
0.000266
0.000255
0.000266
0.000256
0.000269
0.000271
0.000283
0.000449
0.000608
0.000388
0.000265
0.000165
0.000055
0.000401
0.000199
0.000227
0.000247
0.000249
0.000241
0.000238
0.000255
0.000262
0.000252
0.000221
0.000247
0.000277
0.000219
0.000240
0.000270
0.000253
0.000260
0.000295
0.000242
0.000261
0.000255
0.000270
0.000261
0.000266
0.000239
0.000262
0.000276
0.000275
0.000267
0.000195
0.000056
0.000205
0.000236
0.000248
0.000246
0.000229
0.000260
0.000260
0.000240
0.000263
0.000269
0.000236
0.000230
0.000263
0.000397
0.000251
0.000298
0.000242
0.000272
0.000251
0.000277
0.000274
0.000240
0.000235
0.000255
0.000275
0.000268
0.000258
0.000248
0.000277
0.000257
0.000208
0.000056
0.000209
0.000364
0.000361
0.000283
0.000296
0.000260
0.000266
0.000266
0.000215
0.000254
0.000268
0.000233
0.000250
0.000239
0.000258
0.000281
0.000241
0.000271
0.000241
0.000263
0.000278
0.000262
0.000279
0.000254
0.000287
0.000252
0.000241
0.000271
0.000269
0.000263
0.000193
0.000055
0.000214
0.000235
0.000268
0.000265
0.000264
0.000431
0.000208
0.000272
0.000263
0.000510
0.000417
0.000290
0.000231
0.000245
0.000280
0.000256
0.000240
0.000287
0.000236
0.000281
0.000258
0.000254
0.000262
0.000293
0.000498
0.000525
0.000261
0.000299
0.000261
0.000269
0.000190
0.000056
0.000206
0.000220
0.000246
0.000254
0.000442
0.000498
0.000350
0.000376
0.000210
0.000244
0.000251
0.000257
0.000262
0.000235
0.000253
0.000273
0.000271
0.000234
0.000644
0.000386
0.000297
0.000244
0.000255
0.000284
0.000284
0.000266
0.000252
0.000283
0.000231
0.000323
0.000302
0.000056
0.000292
0.000235
0.000246
0.000236
0.000254
0.000263
0.000218
0.000262
0.000231
0.000255
0.000247
0.000253
0.000247
0.000363
0.000608
0.000410
0.000203
0.000268
0.000260
0.000247
0.000263
0.000287
0.000481
0.000216
0.000265
0.000599
0.000400
0.000497
0.000254
0.000253
0.000186
0.000055
0.000223
0.000248
0.000225
0.000242
0.000256
0.000258
0.000273
0.000466
0.000583
0.000427
0.000217
0.000260
0.000277
0.000279
0.000254
0.000245
0.000249
0.000235
0.000255
0.000411
0.000423
0.000568
0.000354
0.000255
0.000349
0.000379
0.000490
0.000245
0.000262
0.000565
0.000288
0.000055
0.000276
0.000234
0.000439
0.000224
0.000227
0.000257
0.000281
0.000240
0.000228
0.000244
0.000286
0.000378
0.000362
0.000348
0.000227
0.000248
0.000265
0.000243
0.000273
0.000274
0.000272
0.000254
0.000251
0.000270
0.000308
0.000472
0.000508
0.000230
0.000266
0.000270
0.000198
0.000056
0.000213
0.000250
0.000251
0.000222
0.000249
0.000277
0.000416
0.000373
0.000389
0.000263
0.000381
0.000226
0.000254
0.000262
0.000253
0.000243
0.000275
0.000237
0.000310
0.000372
0.000461
0.000365
0.000475
0.000269
0.000377
0.000425
0.000379
0.000262
0.000248
0.000280
0.000412
0.000056
0.000269
0.000276
0.000220
0.000255
0.000256
0.000262
0.000250
0.000242
0.000271
0.000249
0.000230
0.000410
0.000393
0.000382
0.000370
0.000226
0.000270
0.000264
0.000269
0.000232
0.000256
0.000247
0.000265
0.000293
0.000260
0.000330
0.000515
0.000449
0.000245
0.000279
0.000191
0.000056
0.000203
0.000245
0.000273
0.000247
0.000241
0.000348
0.000498
0.000465
0.000358
0.000691
0.000260
0.000221
0.000241
0.000262
0.000250
0.000264
0.000295
0.000257
0.000499
0.000432
0.001478
0.000306
0.000275
0.000277
0.000269
0.000269
0.000408
0.000368
0.000368
0.000305
0.000196
0.000056
0.000209
0.000229
0.000248
0.000264
0.000229
0.000246
0.000303
0.000249
0.000218
0.000321
0.000333
0.000384
0.000271
0.000333
0.000391
0.000350
0.000255
0.000248
0.000268
0.000254
0.000242
0.000254
0.000308
0.000221
0.000323
0.000434
0.000433
0.000287
0.000251
0.000273
0.000192
0.000056
0.000223
0.000246
0.000259
0.000257
0.000241
0.000236
0.000472
0.000215
0.000230
0.000251
0.000248
0.000249
0.000261
0.000258
0.000253
0.000266
0.000260
0.000291
0.000249
0.000255
0.000281
0.000263
0.000294
0.000244
0.000266
0.000280
0.000265
0.000264
0.000264
0.000277
0.000169
0.000055
0.000219
0.000253
0.000270
0.000448
0.000367
0.000254
0.000237
0.000245
0.000261
0.000248
0.000252
0.000252
0.000263
0.000261
0.000237
0.000248
0.000266
0.000249
0.000287
0.000342
0.000424
0.000409
0.000226
0.000262
0.000262
0.000254
0.000266
0.000256
0.000275
0.000295
0.000184
0.000056
0.000335
0.000368
0.000446
0.000208
0.000256
0.000252
0.000417
0.000222
0.000233
0.000256
0.000252
0.000291
0.000366
0.000458
0.001829
0.000256
0.000242
0.000253
0.000281
0.000257
0.000350
0.000408
0.000709
0.000205
0.000239
0.000256
0.000278
0.000425
0.000274
0.000280
0.000170
0.000077
0.000189
0.000368
0.000316
0.000350
0.000487
0.000205
0.000244
0.000243
0.000253
0.000244
0.000255
0.000250
0.000261
0.000371
0.000538
0.000294
0.000228
0.000241
0.000258
0.000261
0.000260
0.000309
0.000243
0.000276
0.000277
0.000446
0.000510
0.000392
0.000473
0.000234
0.000201
0.000057
0.000214
0.000237
0.000256
0.000236
0.000243
0.000252
0.000268
0.000292
0.000414
0.000253
0.000467
0.000349
0.000211
0.000254
0.000268
0.000296
0.000288
0.000244
0.000271
0.000273
0.000235
0.000331
0.000453
0.000379
0.000273
0.000258
0.000262
0.000454
0.000396
0.000302
0.000188
0.000056
0.000204
0.000231
0.000353
0.000417
0.000372
0.000205
0.000237
0.000267
0.000255
0.000263
0.000250
0.000249
0.000234
0.000255
0.000259
0.000331
0.000368
0.000345
0.000302
0.000345
0.000495
0.000225
0.000274
0.000284
0.000296
0.000286
0.000254
0.000326
0.000403
0.000532
0.000185
0.000058
0.000202
0.000229
0.000249
0.000248
0.000241
0.000480
0.000213
0.000253
0.000267
0.000366
0.000438
0.000603
0.000214
0.000240
0.000246
0.000245
0.000259
0.000271
0.000235
0.000252
0.000287
0.000239
0.000384
0.000402
0.000349
0.000406
0.000295
0.000301
0.000324
0.000253
0.000186
0.000056
0.000229
0.000227
0.000265
0.000520
0.000366
0.000209
0.000258
0.000234
0.000240
0.000267
0.000240
0.000261
0.000268
0.000246
0.000246
0.000265
0.000242
0.000246
0.000261
0.000410
0.000524
0.000364
0.000230
0.000242
0.000292
0.000260
0.000266
0.000255
0.000265
0.000269
0.000194
0.000055
0.000311
0.000346
0.000476
0.000226
0.000215
0.000253
0.000308
0.000457
0.000293
0.000223
0.000236
0.000276
0.000251
0.000449
0.000486
0.000240
0.000240
0.000230
0.000255
0.000269
0.000267
0.000258
0.000265
0.000278
0.000256
0.000294
0.000372
0.000512
0.000240
0.000244
0.000194
0.000056
0.000242
0.000239
0.000242
0.000257
0.000250
0.000263
0.000230
0.000268
0.000252
0.000235
0.000269
0.000231
0.000292
0.001474
0.000184
0.000252
0.000259
0.000241
0.000285
0.000268
0.000267
0.000239
0.000292
0.000237
0.000274
0.000262
0.000271
0.000273
0.000265
0.000263
0.000194
0.000056
0.000198
0.000228
0.000257
0.000264
0.000222
0.000244
0.000267
0.000250
0.000228
0.000247
0.000251
0.000260
0.000258
0.000250
0.000259
0.000258
0.000245
0.000262
0.000275
0.000250
0.000254
0.000262
0.000248
0.000253
0.001313
0.000265
0.000618
0.000324
0.000389
0.000243
0.000190
0.000073
0.000192
0.000235
0.000242
0.000252
0.000413
0.000241
0.000246
0.000234
0.000254
0.000381
0.000430
0.000343
0.000232
0.000250
0.000243
0.000257
0.000256
0.000265
0.000270
0.000240
0.000259
0.000251
0.000257
0.000424
0.000527
0.000434
0.000228
0.000266
0.001359
0.000255
0.000184
0.000055
0.000329
0.000388
0.000323
0.000279
0.000225
0.000216
0.000230
0.000248
0.000262
0.000256
0.000247
0.000261
0.000294
0.000294
0.000513
0.000380
0.000344
0.000214
0.000249
0.000260
0.000266
0.000287
0.000247
0.000265
0.000270
0.000262
0.000284
0.000592
0.000526
0.000221
0.000145
0.000056
0.000213
0.000219
0.001255
0.000436
0.000265
0.000508
0.000358
0.000491
0.000260
0.000345
0.000219
0.000241
0.000256
0.000255
0.000245
0.000265
0.000406
0.000460
0.000353
0.000387
0.000260
0.000247
0.000259
0.000501
0.000230
0.000262
0.000260
0.000280
0.000312
0.000562
0.000272
0.000055
0.000371
0.000313
0.000237
0.000229
0.001505
0.000571
0.000251
0.000246
0.000244
0.000255
0.000227
0.000241
0.000243
0.000272
0.000250
0.000257
0.000238
0.000266
0.000396
0.000410
0.000438
0.000256
0.000252
0.000256
0.000260
0.000292
0.000254
0.000236
0.000263
0.000275
0.000202
0.000056
0.000480
0.000240
0.000218
0.000238
0.000252
0.000239
0.000262
0.000237
0.000246
0.000223
0.001386
0.000484
0.000268
0.000255
0.000228
0.000261
0.000271
0.000265
0.000254
0.000289
0.000237
0.000256
0.000266
0.000396
0.000552
0.000326
0.000240
0.000272
0.000274
0.000278
0.000178
0.000055
0.000207
0.000407
0.000222
0.000232
0.000445
0.000339
0.000446
0.000251
0.000457
0.000212
0.000231
0.000254
0.000260
0.000265
0.000257
0.001473
0.000301
0.000285
0.000251
0.000262
0.000300
0.000232
0.000254
0.000268
0.000247
0.000267
0.000606
0.000302
0.000278
0.000271
0.000163
0.000054
0.000224
0.000234
0.000260
0.000234
0.000230
0.000260
0.000242
0.000247
0.000284
0.000381
0.000438
0.000274
0.000240
0.000253
0.000254
0.000267
0.000275
0.000258
0.000270
0.000230
0.000259
0.000310
0.001249
0.000246
0.000261
0.000261
0.000258
0.000269
0.000254
0.000266
0.000185
0.000055
0.000278
0.000255
0.000349
0.000371
0.000240
0.000247
0.000257
0.000288
0.000242
0.000257
0.000244
0.000264
0.000238
0.000258
0.000270
0.000249
0.000261
0.000269
0.000266
0.000247
0.000256
0.000267
0.000263
0.000282
0.000294
0.000267
0.000268
0.000266
0.000248
0.000459
0.001346
0.000056
0.000195
0.000247
0.000226
0.000263
0.000226
0.000264
0.000241
0.000230
0.000261
0.000236
0.000276
0.000260
0.000246
0.000243
0.000276
0.000222
0.001718
0.000265
0.000242
0.000261
0.000245
0.000258
0.000278
0.000255
0.000296
0.000236
0.000264
0.000279
0.000267
0.000259
0.000226
0.000055
0.000348
0.000287
0.001282
0.000230
0.000226
0.000252
0.000247
0.000252
0.000276
0.000244
0.000232
0.000352
0.000386
0.000446
0.000277
0.000229
0.000246
0.000259
0.000253
0.000268
0.000244
0.000275
0.000257
0.000285
0.000263
0.000362
0.000450
0.000314
0.000314
0.000242
0.000192
0.000056
0.000230
0.000250
0.000243
0.000250
0.000273
0.000200
0.000240
0.000247
0.000429
0.001341
0.000261
0.000210
0.000254
0.000274
0.000248
0.000293
0.000234
0.000246
0.000301
0.000418
0.000395
0.000252
0.000251
0.000249
0.000279
0.000274
0.000269
0.000294
0.000266
0.000276
0.000198
0.000056
0.000261
0.000406
0.000392
0.000224
0.000225
0.000235
0.000259
0.000265
0.000266
0.000245
0.000231
0.000251
0.000455
0.000491
0.000492
0.001436
0.000233
0.000282
0.000323
0.000350
0.000475
0.000452
0.000507
0.000343
0.000231
0.000264
0.000267
0.000276
0.000264
0.000271
0.000202
0.000056
0.000206
0.000247
0.000467
0.000511
0.000308
0.000239
0.000245
0.000244
0.000239
0.000269
0.000235
0.000267
0.000284
0.000220
0.000270
0.000278
0.000364
0.000477
0.000333
0.001324
0.000271
0.000259
0.000250
0.000261
0.000456
0.000584
0.000253
0.000242
0.000272
0.000272
0.000193
0.000055
0.000199
0.000246
0.000242
0.000264
0.000226
0.000277
0.000454
0.000449
0.000313
0.000216
0.000236
0.000260
0.000276
0.000285
0.000238
0.000256
0.000261
0.000257
0.000281
0.000346
0.000386
0.000454
0.000288
0.001347
0.000421
0.000231
0.000270
0.000420
0.000478
0.000344
0.000293
0.000057
0.000198
0.000225
0.000251
0.000258
0.000241
0.000256
0.001673
0.000262
0.000203
0.000239
0.000263
0.000247
0.000248
0.000320
0.000324
0.000287
0.000288
0.000338
0.000509
0.000355
0.000299
0.000287
0.000238
0.000246
0.001488
0.000330
0.000418
0.000471
0.000325
0.000299
0.000172
0.000057
0.000192
0.000249
0.000258
0.000257
0.000244
0.000266
0.001698
0.000248
0.000235
0.000281
0.000339
0.000368
0.001446
0.000367
0.000394
0.000244
0.000253
0.000237
0.000275
0.000264
0.001527
0.000589
0.000379
0.000293
0.000231
0.000259
0.000263
0.000283
0.000242
0.000251
0.000196
0.000057
0.000197
0.000245
0.000265
0.000243
0.000259
0.000304
0.000252
0.000262
0.000244
0.000256
0.000268
0.000231
0.000286
0.000241
0.000252
0.001488
0.000285
0.000237
0.000270
0.000276
0.000268
0.000267
0.001422
0.000332
0.000206
0.000239
0.000275
0.000258
0.000401
0.000237
0.000204
0.000073
0.000190
0.000255
0.000221
0.000246
0.000238
0.000229
0.000237
0.001678
0.000263
0.000225
0.000356
0.000265
0.000225
0.000224
0.000259
0.001376
0.000244
0.000264
0.000265
0.000241
0.000271
0.000342
0.000290
0.001304
0.000302
0.000217
0.000261
0.001425
0.000302
0.000197
0.000220
0.000056
0.000285
0.000318
0.000206
0.000237
0.000266
0.000226
0.000286
0.000250
0.000260
0.000251
0.000253
0.000271
0.000251
0.000240
0.000344
0.001489
0.000229
0.000272
0.000255
0.000240
0.000282
0.000267
0.000251
0.001506
0.000347
0.000235
0.000273
0.001322
0.000225
0.000242
0.000242
0.000056
0.000261
0.000360
0.000324
0.000210
0.000240
0.000238
0.000263
0.000256
0.000260
0.000271
0.000259
0.000233
0.000261
0.000250
0.000461
0.001196
0.000252
0.000235
0.000268
0.000275
0.000227
0.000245
0.000247
0.000333
0.001300
0.000220
0.000261
0.000252
0.000254
0.001340
0.000301
0.000055
0.000334
0.000273
0.000202
0.000229
0.000236
0.000260
0.000238
0.000250
0.000298
0.000231
0.000249
0.000259
0.000225
0.000381
0.000368
0.001466
0.000223
0.000254
0.000300
0.000512
0.000294
0.000511
0.001221
0.000311
0.000228
0.000267
0.000252
0.001299
0.000281
0.000478
0.000388
0.000056
0.000207
0.000248
0.000259
0.000255
0.000247
0.000265
0.000267
0.000261
0.000248
0.000273
0.000361
0.000453
0.001300
0.000222
0.000275
0.000263
0.000279
0.000240
0.000228
0.000238
0.000329
0.001253
0.000250
0.000247
0.000262
0.000255
0.001544
0.000410
0.000453
0.000221
0.000199
0.000057
0.000203
0.000231
0.000248
0.000237
0.000256
0.000263
0.000238
0.000276
0.000461
0.000438
0.000266
0.001488
0.000225
0.000234
0.000265
0.000257
0.000268
0.000372
0.001596
0.000250
0.000387
0.000343
0.001326
0.000344
0.000279
0.000332
0.000279
0.000236
0.000266
0.000270
0.000183
0.000055
0.000224
0.000237
0.000333
0.000252
0.000290
0.000570
0.000274
0.000282
0.001475
0.000233
0.000389
0.000266
0.000228
0.000313
0.000406
0.001278
0.000273
0.000239
0.000242
0.000263
0.001530
0.000412
0.000252
0.000282
0.000248
0.000246
0.000463
0.000328
0.000250
0.000234
0.000266
0.000055
0.000240
0.000393
0.000324
0.000281
0.000203
0.001515
0.000217
0.000258
0.000270
0.000272
0.000268
0.000280
0.000283
0.001457
0.000263
0.000228
0.000434
0.001194
0.000290
0.000485
0.000398
0.000247
0.000239
0.000251
0.000298
0.000224
0.000450
0.000229
0.000266
0.000281
0.000193
0.000071
0.000201
0.000289
0.000323
0.000344
0.001312
0.000286
0.000333
0.000230
0.000222
0.000250
0.000248
0.000275
0.001539
0.000264
0.000224
0.000240
0.001389
0.000286
0.000407
0.000392
0.000421
0.000241
0.000254
0.000249
0.000267
0.000280
0.000260
0.000261
0.000273
0.000254
0.000197
0.000055
0.000200
0.000417
0.001441
0.000213
0.000272
0.000303
0.000217
0.000247
0.000279
0.000343
0.001415
0.000207
0.000261
0.000262
0.000262
0.001309
0.000648
0.000286
0.000324
0.000411
0.000303
0.000255
0.000264
0.000264
0.000263
0.000289
0.000277
0.000300
0.000465
0.000387
0.001390
0.000056
0.000205
0.000244
0.000249
0.000220
0.000244
0.000606
0.000333
0.001252
0.000254
0.000234
0.000251
0.001533
0.000296
0.000361
0.000228
0.000415
0.000244
0.000234
0.000267
0.000299
0.000246
0.000250
0.000282
0.000259
0.000252
0.000272
0.000454
0.000459
0.001503
0.000234
0.000193
0.000055
0.000220
0.000247
0.000341
0.000485
0.001308
0.000300
0.000231
0.000253
0.000250
0.000253
0.000247
0.000284
0.000356
0.000521
0.000293
0.000245
0.000252
0.000275
0.000245
0.000303
0.000235
0.000264
0.000257
0.000271
0.000291
0.000411
0.000428
0.000321
0.000336
0.001404
0.000175
0.000055
0.000210
0.000236
0.000381
0.000404
0.000283
0.000310
0.000313
0.000330
0.000297
0.000260
0.000231
0.000266
0.000249
0.000308
0.000235
0.000311
0.000518
0.000339
0.000288
0.000390
0.000269
0.000409
0.000227
0.000240
0.000270
0.000262
0.000253
0.000284
0.000333
0.000528
0.000298
0.000056
0.000198
0.001414
0.000218
0.000343
0.000409
0.000470
0.000389
0.000265
0.000213
0.000240
0.000272
0.000244
0.000283
0.000249
0.000261
0.000257
0.000262
0.001348
0.000276
0.000241
0.000258
0.000275
0.000273
0.000279
0.000268
0.000254
0.000278
0.000241
0.000388
0.000374
0.000363
0.000057
0.000211
0.000231
0.000234
0.001500
0.000322
0.000241
0.000228
0.000252
0.000231
0.000251
0.000241
0.000285
0.000241
0.000252
0.000296
0.000242
0.000234
0.000263
0.000257
0.000261
0.001433
0.000226
0.000256
0.000268
0.000260
0.000248
0.000268
0.000257
0.000280
0.000491
0.000350
0.000055
0.000215
0.000236
0.000395
0.000285
0.000240
0.000256
0.001518
0.000358
0.000291
0.000224
0.000261
0.000313
0.000332
0.000227
0.000229
0.000250
0.000246
0.000261
0.000263
0.000258
0.000482
0.000511
0.001122
0.000267
0.000232
0.000267
0.000267
0.000257
0.000295
0.000241
0.000344
0.000056
0.000319
0.000301
0.000220
0.000239
0.000247
0.000236
0.000246
0.000227
0.000294
0.001594
0.000448
0.000219
0.000234
0.000255
0.000260
0.000244
0.000255
0.000276
0.000279
0.000295
0.000305
0.000510
0.000443
0.001361
0.000225
0.000280
0.000256
0.000261
0.000267
0.000608
0.000107
0.000055
0.000279
0.000263
0.000228
0.000226
0.000224
0.000241
0.000263
0.000275
0.000257
0.001612
0.000318
0.000261
0.000240
0.000264
0.000456
0.000250
0.000547
0.000375
0.000277
0.000264
0.000493
0.000469
0.001299
0.000250
0.000237
0.000254
0.001720
0.000448
0.000613
0.000330
0.000129
0.000055
0.000195
0.000228
0.000245
0.000232
0.000255
0.000243
0.000249
0.000539
0.000454
0.000424
0.000302
0.000217
0.000229
0.000259
0.000281
0.000268
0.000258
0.000224
0.000246
0.000286
0.000243
0.000423
0.001363
0.000223
0.000266
0.000254
0.001898
0.000383
0.000444
0.000286
0.000157
0.000056
0.000234
0.000242
0.000244
0.001669
0.000323
0.000212
0.000236
0.000262
0.000269
0.000260
0.000373
0.000366
0.000382
0.000272
0.000250
0.000555
0.000408
0.001188
0.000270
0.000242
0.000254
0.000259
0.000275
0.000399
0.000686
0.000389
0.000258
0.000269
0.000270
0.000300
0.000176
0.000055
0.000202
0.000236
0.000239
0.001550
0.000249
0.000230
0.000235
0.000255
0.000245
0.000250
0.000257
0.000267
0.000267
0.000289
0.000240
0.000331
0.000524
0.000316
0.001395
0.000214
0.000257
0.000264
0.000256
0.000287
0.000366
0.000437
0.000482
0.000258
0.000291
0.000225
0.000460
0.000057
0.000194
0.000251
0.000263
0.001528
0.000297
0.000219
0.000267
0.000242
0.000259
0.000252
0.000258
0.000271
0.000241
0.000289
0.000381
0.000480
0.001398
0.000773
0.000263
0.000321
0.000241
0.000245
0.000241
0.000274
0.001666
0.000821
0.000224
0.000262
0.000285
0.000282
0.000185
0.000056
0.000196
0.000235
0.000253
0.000246
0.000260
0.000269
0.000211
0.000257
0.000240
0.000247
0.000274
0.000281
0.000251
0.000253
0.000261
0.000247
0.000267
0.001599
0.000706
0.000367
0.000317
0.000239
0.000241
0.000313
0.000245
0.000257
0.000272
0.000248
0.001392
0.000397
0.000414
0.000057
0.000191
0.000227
0.000270
0.000234
0.000261
0.000233
0.000273
0.000230
0.000253
0.000264
0.000331
0.000429
0.000400
0.000304
0.000219
0.000243
0.000267
0.001388
0.000712
0.000458
0.000330
0.000274
0.000227
0.000252
0.000273
0.000261
0.000250
0.000278
0.001464
0.000401
0.000235
0.000057
0.000199
0.000231
0.000245
0.000250
0.000249
0.000246
0.000236
0.000250
0.000270
0.000258
0.000416
0.000305
0.000358
0.000221
0.000245
0.000245
0.000266
0.000257
0.001565
0.000627
0.000460
0.000319
0.000239
0.000252
0.000258
0.000265
0.000267
0.000284
0.000263
0.001412
0.000279
0.000056
0.000204
0.000221
0.000229
0.000258
0.000258
0.000243
0.000252
0.000300
0.000361
0.000430
0.000415
0.000405
0.000307
0.000226
0.000250
0.000250
0.000294
0.000242
0.000265
0.001948
0.000289
0.000245
0.000453
0.000237
0.000248
0.000268
0.000269
0.000255
0.000273
0.000276
0.000346
0.000056
0.000314
0.000205
0.000235
0.000239
0.000258
0.000248
0.000227
0.000239
0.000268
0.000266
0.000229
0.000234
0.000283
0.000464
0.000463
0.000438
0.000222
0.000268
0.000248
0.000249
0.000258
0.000281
0.001468
0.001064
0.000225
0.000249
0.000261
0.000266
0.000272
0.000253
0.000209
0.000056
0.000219
0.001356
0.000274
0.000211
0.000234
0.000256
0.000265
0.000227
0.000237
0.000265
0.000245
0.000264
0.000239
0.000353
0.000393
0.000470
0.000264
0.000252
0.000260
0.000273
0.000277
0.000223
0.000260
0.000258
0.001313
0.000716
0.000278
0.000381
0.000376
0.000400
0.000297
0.000057
0.000218
0.000228
0.000363
0.001318
0.000213
0.000248
0.000237
0.000256
0.000257
0.000257
0.000248
0.000248
0.000303
0.000299
0.000601
0.000288
0.000220
0.000278
0.000329
0.000216
0.000246
0.000277
0.000239
0.000270
0.000265
0.001536
0.000747
0.000312
0.000259
0.000274
0.000189
0.000056
0.000195
0.000241
0.000470
0.000330
0.001286
0.000255
0.000230
0.000240
0.000231
0.000249
0.000251
0.000253
0.000232
0.000240
0.000255
0.000251
0.000271
0.000235
0.000257
0.000254
0.000267
0.000270
0.000300
0.000334
0.000221
0.000270
0.000260
0.001458
0.000258
0.000241
0.000188
0.000059
0.000195
0.000229
0.000250
0.000264
0.000344
0.000373
0.000399
0.000277
0.001577
0.000224
0.000294
0.000520
0.000328
0.000241
0.000438
0.000229
0.000247
0.000260
0.000270
0.000270
0.000278
0.000271
0.000255
0.000269
0.000247
0.000482
0.000337
0.000333
0.001570
0.000228
0.000192
0.000056
0.000238
0.000244
0.000248
0.000247
0.000243
0.000239
0.000264
0.000332
0.000391
0.002024
0.000230
0.000253
0.000254
0.000257
0.000265
0.000311
0.000206
0.000258
0.000261
0.000452
0.000411
0.000387
0.001454
0.000239
0.000283
0.001974
0.000285
0.000243
0.000259
0.001525
0.000160
0.000056
0.000335
0.000463
0.000426
0.000245
0.000271
0.000223
0.000248
0.000273
0.000262
0.000231
0.000251
0.000336
0.000423
0.000356
0.000400
0.000249
0.000235
0.001566
0.000240
0.000549
0.001901
0.000293
0.000230
0.001578
0.001983
0.000750
0.000276
0.000255
0.000288
0.000436
0.000315
0.000056
0.000233
0.000235
0.000276
0.000229
0.002924
0.000228
0.001066
0.000206
0.000235
0.001583
0.001975
0.000212
0.000240
0.000425
0.000311
0.000410
0.000344
0.000499
0.000212
0.000238
0.000248
0.000261
0.000266
0.001594
0.001234
0.001390
0.000290
0.000287
0.000256
0.000327
0.000318
0.000057
0.000210
0.000224
0.000238
0.000240
0.000248
0.000227
0.000250
0.000255
0.000255
0.000242
0.000245
0.000337
0.000416
0.000509
0.000247
0.000242
0.000254
0.000273
0.000267
0.000288
0.000233
0.000262
0.001569
0.000433
0.002102
0.000244
0.000261
0.000325
0.000436
0.000385
0.000208
0.000055
0.000216
0.000429
0.000403
0.000320
0.000199
0.000228
0.000250
0.000246
0.000237
0.000246
0.000248
0.000265
0.000259
0.001607
0.001352
0.001223
0.000273
0.000251
0.000241
0.000266
0.000282
0.000286
0.000239
0.000251
0.002203
0.000258
0.000248
0.000299
0.000319
0.000307
0.000224
0.000055
0.000203
0.000345
0.000546
0.000341
0.000235
0.000241
0.000235
0.000268
0.001900
0.001416
0.000223
0.000326
0.000386
0.000409
0.000264
0.000250
0.000242
0.000266
0.000263
0.000265
0.000256
0.000265
0.000472
0.000233
0.000271
0.000274
0.000246
0.000273
0.000282
0.000249
0.000200
0.000056
0.000194
0.000244
0.000255
0.000241
0.000273
0.000249
0.001536
0.001421
0.001318
0.000245
0.000233
0.000241
0.000268
0.000263
0.000247
0.000245
0.000259
0.002091
0.000260
0.000237
0.000265
0.000266
0.000254
0.000264
0.000276
0.000247
0.000270
0.000250
0.000282
0.000255
0.000172
0.000056
0.000194
0.002669
0.001404
0.000218
0.000304
0.000325
0.000211
0.000283
0.000234
0.000240
0.000258
0.000243
0.000233
0.000250
0.000268
0.000256
0.000276
0.000260
0.000266
0.000255
0.000269
0.000280
0.000279
0.000260
0.000250
0.000244
0.000264
0.000284
0.000249
0.000269
0.000381
0.000056
0.001555
0.000250
0.001232
0.000233
0.000221
0.000243
0.000256
0.000280
0.000225
0.000324
0.000291
0.000410
0.000335
0.000210
0.000256
0.002143
0.000232
0.000266
0.000261
0.000542
0.000423
0.000214
0.000233
0.000248
0.000271
0.000252
0.000257
0.000279
0.000272
0.001638
0.001236
0.000055
0.000198
0.000228
0.000262
0.000434
0.000362
0.000272
0.000215
0.000236
0.000249
0.000255
0.000269
0.000243
0.000226
0.000259
0.000263
0.000243
0.000411
0.000584
0.000300
0.000249
0.000226
0.000275
0.000281
0.000248
0.000260
0.000243
0.000261
0.000276
0.000239
0.000430
0.000252
0.000055
0.001122
0.000279
0.000304
0.000452
0.000287
0.000221
0.000238
0.000241
0.000239
0.002359
0.000307
0.000382
0.000231
0.000378
0.000300
0.000254
0.000245
0.000259
0.000289
0.000198
0.000256
0.000331
0.000702
0.000309
0.001861
0.001295
0.000520
0.000554
0.000232
0.000284
0.000199
0.000054
0.000305
0.000280
0.000249
0.000239
0.000259
0.000239
0.000236
0.000256
0.000253
0.000250
0.000254
0.000231
0.000245
0.000285
0.000380
0.000471
0.001852
0.001346
0.000466
0.000398
0.000459
0.000230
0.000255
0.000257
0.002144
0.000534
0.000387
0.000241
0.000275
0.000302
0.000177
0.000055
0.000204
0.000239
0.000270
0.000230
0.000237
0.000344
0.000411
0.000268
0.000371
0.000221
0.000242
0.000245
0.000263
0.002102
0.000420
0.000340
0.000213
0.000260
0.000284
0.000245
0.000247
0.002505
0.000284
0.000226
0.000254
0.000264
0.000260
0.000261
0.000302
0.000263
0.000190
0.000055
0.000204
0.000356
0.000511
0.000394
0.000252
0.000218
0.000243
0.000254
0.000293
0.000222
0.001932
0.000411
0.000265
0.000267
0.000250
0.000264
0.000278
0.000236
0.002205
0.000446
0.000232
0.000272
0.000264
0.000256
0.000254
0.000252
0.000302
0.000234
0.000265
0.000257
0.000184
0.000055
0.000217
0.000240
0.000247
0.000221
0.000248
0.000261
0.000235
0.000247
0.000231
0.002179
0.000239
0.000266
0.000225
0.000429
0.000232
0.000248
0.000302
0.000259
0.000255
0.000252
0.001963
0.000271
0.000335
0.000364
0.000455
0.000390
0.000309
0.000253
0.000267
0.000250
0.000197
0.000055
0.000211
0.000237
0.000242
0.000247
0.000260
0.000317
0.000222
0.002305
0.000243
0.000232
0.000260
0.000254
0.000237
0.000281
0.000277
0.002117
0.000590
0.000231
0.000249
0.000246
0.000255
0.000264
0.000288
0.000269
0.000262
0.000257
0.000281
0.000256
0.000264
0.000261
0.000199
0.000056
0.001834
0.001441
0.000196
0.000232
0.000246
0.000252
0.000250
0.000259
0.000417
0.000348
0.002167
0.000262
0.000227
0.000277
0.000252
0.000576
0.000365
0.000296
0.000224
0.000250
0.000248
0.000266
0.000266
0.000225
0.000264
0.000262
0.000270
0.000269
0.000280
0.000705
0.000319
0.000056
0.000193
0.000248
0.000247
0.000246
0.000267
0.000249
0.000255
0.000240
0.001456
0.002141
0.000602
0.000249
0.000400
0.000715
0.000344
0.000237
0.000259
0.000247
0.000268
0.000264
0.000252
0.000242
0.000247
0.000276
0.003012
0.000327
0.000234
0.000272
0.000290
0.000344
0.000380
0.000056
0.001914
0.000236
0.000229
0.000238
0.000251
0.000376
0.000532
0.000241
0.000284
0.000217
0.000248
0.000249
0.000256
0.000258
0.000264
0.000258
0.000254
0.000286
0.001817
0.000242
0.000242
0.000251
0.000271
0.000285
0.000271
0.000254
0.001518
0.000280
0.000243
0.000266
0.000186
0.000055
0.000202
0.000232
0.000264
0.000226
0.000248
0.000240
0.000277
0.000396
0.000355
0.000346
0.000236
0.000239
0.000261
0.000321
0.000426
0.000315
0.000235
0.000245
0.000262
0.000343
0.000461
0.000480
0.000249
0.000249
0.000260
0.000253
0.000251
0.000270
0.000273
0.000270
0.000204
0.000056
0.001472
0.000414
0.000204
0.001937
0.000322
0.000408
0.000410
0.000311
0.000230
0.000246
0.000258
0.000252
0.000243
0.000245
0.000269
0.000258
0.000453
0.000244
0.000488
0.000331
0.000355
0.000230
0.000270
0.000257
0.000274
0.000263
0.000265
0.000267
0.000470
0.000358
0.001371
0.000056
0.000194
0.000229
0.002074
0.000386
0.000252
0.000233
0.000276
0.000231
0.000261
0.000264
0.000211
0.000253
0.000257
0.000264
0.000256
0.000350
0.000735
0.001742
0.000229
0.000255
0.000253
0.000263
0.000397
0.000398
0.001594
0.000282
0.000366
0.001932
0.000253
0.000263
0.000193
0.000055
0.000212
0.000234
0.000227
0.000244
0.000236
0.000246
0.000253
0.000281
0.000330
0.000264
0.000381
0.000359
0.000340
0.000301
0.000264
0.000253
0.000261
0.000244
0.000263
0.000247
0.000309
0.000286
0.000268
0.000259
0.000270
0.001504
0.000287
0.000378
0.002078
0.000243
0.000176
0.000056
0.000225
0.000242
0.000237
0.000247
0.000488
0.000208
0.000260
0.000321
0.000382
0.000301
0.000306
0.000203
0.000268
0.000263
0.000274
0.000329
0.000436
0.000422
0.000235
0.000415
0.000585
0.000332
0.001626
0.000234
0.000256
0.002008
0.000302
0.000259
0.000238
0.000297
0.000191
0.000056
0.000208
0.000238
0.000225
0.000241
0.000253
0.000272
0.000254
0.000268
0.000252
0.000264
0.001808
0.000303
0.000389
0.000279
0.000461
0.000374
0.000384
0.001472
0.000232
0.000290
0.002112
0.000573
0.000263
0.000236
0.000260
0.000266
0.000508
0.000221
0.000256
0.000279
0.000200
0.000056
0.000274
0.000330
0.000403
0.000293
0.000199
0.000243
0.000261
0.000250
0.000264
0.000305
0.000217
0.000254
0.000260
0.000253
0.000406
0.000395
0.001330
0.000269
0.000274
0.001927
0.000345
0.000298
0.000234
0.000282
0.000230
0.000273
0.000267
0.000269
0.000250
0.000261
0.000211
0.000055
0.000222
0.000451
0.002003
0.000256
0.000222
0.000257
0.000240
0.000291
0.000437
0.000452
0.001290
0.000377
0.000360
0.002077
0.000208
0.000248
0.000273
0.000276
0.000250
0.000256
0.000272
0.000290
0.000258
0.000334
0.000501
0.000437
0.000260
0.002222
0.000484
0.000537
0.000349
0.000057
0.000216
0.000225
0.000243
0.001961
0.000229
0.000233
0.000237
0.000248
0.000245
0.000256
0.000244
0.000262
0.000256
0.000307
0.000385
0.001487
0.000253
0.000247
0.000275
0.000251
0.000233
0.000254
0.000260
0.000266
0.000310
0.000485
0.000457
0.000234
0.001604
0.000282
0.000162
0.000055
0.000204
0.000222
0.000248
0.000232
0.000263
0.000265
0.000229
0.000247
0.000274
0.000369
0.000386
0.001375
0.000235
0.000224
0.000257
0.000290
0.000232
0.000247
0.000302
0.000529
0.000523
0.000271
0.000237
0.001569
0.000227
0.000267
0.000287
0.000278
0.000261
0.000265
0.000197
0.000055
0.000208
0.000236
0.000267
0.000270
0.000262
0.000245
0.000221
0.000240
0.000273
0.000229
0.000249
0.000258
0.000266
0.001472
0.000362
0.000208
0.000267
0.000253
0.000269
0.000305
0.000374
0.000272
0.000260
0.000255
0.000270
0.000260
0.000260
0.001407
0.000283
0.000232
0.000175
0.000056
0.000196
0.000232
0.000259
0.000261
0.000267
0.000223
0.000248
0.000260
0.000216
0.000269
0.000262
0.000238
0.000229
0.000359
0.000306
0.000374
0.000250
0.000251
0.001631
0.000238
0.000248
0.000258
0.000260
0.000283
0.000408
0.000354
0.000455
0.000267
0.000260
0.001599
0.000163
0.000055
0.000337
0.000322
0.000355
0.000309
0.000239
0.000216
0.000245
0.000271
0.000258
0.000253
0.000231
0.000238
0.001456
0.000281
0.000317
0.000228
0.000247
0.000275
0.000252
0.000268
0.000255
0.000234
0.000261
0.000267
0.000326
0.000358
0.000453
0.000312
0.000264
0.000259
0.000188
0.000056
0.000207
0.000237
0.000420
0.000405
0.000320
0.000288
0.000248
0.000250
0.000250
0.000259
0.000238
0.000227
0.000257
0.000263
0.001234
0.000330
0.000208
0.000259
0.000263
0.000263
0.000239
0.000270
0.000256
0.000254
0.000261
0.000253
0.000373
0.000642
0.000445
0.000230
0.000181
0.000055
0.000206
0.001556
0.000273
0.000331
0.000429
0.000382
0.000218
0.000263
0.000263
0.000259
0.000230
0.000261
0.000272
0.000270
0.000275
0.001511
0.000250
0.000289
0.000258
0.000256
0.000274
0.000239
0.000266
0.000259
0.000258
0.000321
0.000442
0.000297
0.000358
0.000243
0.000201
0.000055
0.000208
0.000254
0.000239
0.001628
0.000515
0.000231
0.000226
0.000239
0.000253
0.000274
0.000281
0.000251
0.000253
0.000256
0.000233
0.000270
0.000412
0.001317
0.000247
0.000236
0.001491
0.000446
0.000432
0.000399
0.000332
0.000245
0.000265
0.000465
0.000238
0.000259
0.000189
0.000056
0.000283
0.000210
0.000255
0.000243
0.000249
0.000255
0.000242
0.000254
0.000257
0.000248
0.000244
0.000264
0.000306
0.000578
0.001580
0.001487
0.000369
0.000575
0.000289
0.000232
0.000228
0.000259
0.000252
0.000271
0.000245
0.000287
0.000243
0.000268
0.001547
0.000300
0.000171
0.000056
0.000222
0.000335
0.000354
0.000333
0.000247
0.000223
0.000243
0.000458
0.000337
0.000317
0.002222
0.000309
0.000702
0.000546
0.000418
0.000254
0.000336
0.000393
0.000330
0.000282
0.000398
0.000269
0.001524
0.000529
0.000214
0.000273
0.000255
0.000251
0.000268
0.000273
0.000195
0.000056
0.000213
0.000253
0.000258
0.000247
0.000242
0.001657
0.000881
0.001000
0.000208
0.000254
0.000241
0.000254
0.000261
0.000263
0.000254
0.000244
0.000258
0.000260
0.000267
0.000280
0.001432
0.000317
0.000243
0.000238
0.000235
0.000254
0.000270
0.000273
0.000271
0.000287
0.001908
0.000055
0.000213
0.000219
0.001539
0.000899
0.000382
0.000320
0.000232
0.000240
0.000247
0.000266
0.000238
0.000251
0.000245
0.002103
0.000347
0.000222
0.000251
0.000255
0.000266
0.000260
0.000193
