0.000098
0.009608
0.011962
0.000416
0.000240
0.000296
0.000325
0.000248
0.000318
0.000276
0.000247
0.000342
0.000500
0.000504
0.000399
0.000323
0.000290
0.000332
0.000356
0.000423
0.000313
0.001946
0.000666
0.000277
0.000263
0.000308
0.000290
0.000315
0.000421
0.000458
0.000499
0.000218
0.000058
0.000221
0.000244
0.000270
0.000294
0.000263
0.000239
0.000279
0.000287
0.000273
0.000269
0.000436
0.000422
0.000302
0.000256
0.000375
0.000352
0.000366
0.000252
0.000242
0.001693
0.000324
0.000257
0.000448
0.000269
0.000260
0.000274
0.000287
0.000295
0.000274
0.000334
0.000448
0.000055
0.000274
0.000233
0.000261
0.000264
0.000248
0.000248
0.000261
0.000272
0.000273
0.001669
0.000233
0.000237
0.000256
0.000275
0.000273
0.000252
0.000263
0.000273
0.000334
0.001791
0.000249
0.000279
0.000445
0.000434
0.000388
0.000242
0.000302
0.000517
0.000393
0.000773
0.000207
0.000055
0.000229
0.000244
0.000253
0.000241
0.000289
0.000281
0.000319
0.000597
0.000319
0.000275
0.000213
0.000259
0.000240
0.000257
0.000248
0.000261
0.000256
0.000258
0.000307
0.000323
0.001719
0.000238
0.000226
0.000425
0.000670
0.000366
0.000648
0.000523
0.000333
0.000243
0.000185
0.000056
0.000240
0.000250
0.000295
0.000211
0.000282
0.000230
0.000262
0.000440
0.001493
0.000214
0.000253
0.000245
0.000255
0.000259
0.000259
0.000299
0.000280
0.001934
0.000309
0.000233
0.000235
0.000413
0.000246
0.000250
0.000248
0.000265
0.000267
0.000272
0.000260
0.000265
0.000199
0.000056
0.000212
0.000244
0.000244
0.000260
0.000241
0.000240
0.000244
0.000251
0.000264
0.000234
0.001625
0.000270
0.000235
0.000235
0.000254
0.000242
0.000255
0.000251
0.000248
0.000255
0.000299
0.001672
0.000252
0.000257
0.000426
0.000262
0.000241
0.000272
0.000274
0.000258
0.000196
0.000057
0.000220
0.000231
0.000250
0.000246
0.000240
0.000251
0.000259
0.000239
0.000264
0.000277
0.000238
0.000242
0.000280
0.000257
0.001634
0.000272
0.000301
0.000229
0.000240
0.000274
0.000268
0.000230
0.000268
0.000254
0.001786
0.000409
0.000442
0.000256
0.000229
0.000279
0.000199
0.000057
0.000226
0.000236
0.000240
0.000272
0.000266
0.000257
0.000254
0.000405
0.000564
0.000284
0.000216
0.000240
0.000255
0.000248
0.001660
0.000517
0.000272
0.000363
0.000317
0.000238
0.000267
0.000286
0.000271
0.001735
0.000505
0.000464
0.000246
0.000246
0.000247
0.000274
0.000182
0.000056
0.000202
0.000237
0.000253
0.000323
0.000307
0.000417
0.000383
0.000269
0.000227
0.000236
0.000255
0.000268
0.000232
0.001696
0.000516
0.000286
0.000214
0.000258
0.000270
0.000289
0.000252
0.000245
0.000276
0.001883
0.000307
0.000394
0.000253
0.000251
0.000264
0.000402
0.000323
0.000055
0.000298
0.000284
0.000399
0.000233
0.000258
0.000250
0.000248
0.000254
0.000257
0.000220
0.000261
0.000227
0.001557
0.000312
0.000340
0.000235
0.000257
0.000247
0.000247
0.000312
0.000281
0.000311
0.000228
0.001822
0.000241
0.000501
0.000244
0.000256
0.000259
0.000270
0.000262
0.000057
0.000288
0.000715
0.000544
0.000214
0.000229
0.000277
0.000225
0.000225
0.000259
0.000271
0.000240
0.001698
0.000242
0.000448
0.000372
0.000212
0.000241
0.000233
0.000309
0.000211
0.000254
0.001852
0.000237
0.000454
0.001878
0.000512
0.000357
0.000251
0.000247
0.000266
0.000195
0.000056
0.000220
0.000240
0.000245
0.000260
0.000242
0.001618
0.000241
0.000242
0.000252
0.000254
0.000244
0.000261
0.000236
0.000254
0.000323
0.000431
0.000557
0.000258
0.000259
0.000243
0.000283
0.000235
0.000245
0.000436
0.000435
0.000291
0.000337
0.000677
0.000293
0.000267
0.000209
0.000056
0.000203
0.000244
0.000251
0.000247
0.000243
0.000239
0.000284
0.000335
0.000456
0.001710
0.000223
0.000237
0.000245
0.000241
0.000264
0.000335
0.000422
0.000436
0.000333
0.000223
0.000279
0.000298
0.000279
0.000251
0.000274
0.000434
0.000345
0.000585
0.000493
0.000431
0.000189
0.000056
0.000210
0.000243
0.000244
0.000232
0.000240
0.000239
0.000243
0.000257
0.000229
0.000292
0.000351
0.000536
0.001282
0.000244
0.000234
0.000249
0.000257
0.000246
0.000252
0.000282
0.000275
0.000531
0.000311
0.000265
0.000267
0.000257
0.000256
0.000269
0.000266
0.000265
0.000376
0.000055
0.000220
0.000237
0.000238
0.000274
0.000532
0.000416
0.000252
0.000249
0.000232
0.000259
0.000259
0.000227
0.000325
0.000222
0.000238
0.000484
0.000418
0.001636
0.000287
0.000228
0.000261
0.000267
0.000258
0.000240
0.000286
0.000356
0.000606
0.000328
0.000355
0.000248
0.000196
0.000055
0.000204
0.000438
0.000230
0.000220
0.000288
0.000219
0.000389
0.000531
0.000254
0.000344
0.000220
0.000275
0.000263
0.000235
0.000522
0.000334
0.000232
0.000274
0.000499
0.001519
0.000258
0.000284
0.000483
0.000254
0.000292
0.000258
0.000263
0.000341
0.000558
0.000375
0.000271
0.000055
0.000215
0.000231
0.000236
0.000247
0.000412
0.000314
0.000283
0.000225
0.000425
0.000534
0.000279
0.000271
0.000230
0.000244
0.000260
0.000265
0.000253
0.000252
0.000231
0.000358
0.000281
0.000301
0.001901
0.000231
0.000247
0.000254
0.000284
0.000346
0.000447
0.000720
0.000386
0.000056
0.000236
0.000330
0.000309
0.000460
0.000328
0.000220
0.000254
0.000345
0.000513
0.000385
0.000238
0.000232
0.000240
0.000273
0.000257
0.000234
0.000262
0.000266
0.000271
0.000255
0.000262
0.000453
0.000630
0.001334
0.000347
0.000411
0.000423
0.000228
0.000442
0.000440
0.000307
0.000057
0.000230
0.000379
0.000278
0.000211
0.000225
0.000248
0.000411
0.000237
0.000278
0.000306
0.000454
0.000443
0.000270
0.000225
0.000262
0.000246
0.000353
0.000398
0.000346
0.000244
0.000247
0.000551
0.000530
0.001615
0.000228
0.000435
0.000311
0.000217
0.000309
0.000481
0.000266
0.000056
0.000244
0.000222
0.000245
0.000257
0.000253
0.000231
0.000251
0.000332
0.000451
0.000314
0.000403
0.000391
0.000279
0.000573
0.000240
0.000248
0.000280
0.000257
0.000223
0.000362
0.000220
0.000246
0.000300
0.000390
0.000469
0.001661
0.000274
0.000242
0.000253
0.000264
0.000187
0.000055
0.000270
0.000528
0.000267
0.000224
0.000233
0.000245
0.000256
0.000243
0.000272
0.000233
0.000227
0.000259
0.000433
0.000480
0.000438
0.000253
0.000247
0.000271
0.000314
0.000408
0.000364
0.000335
0.000362
0.000395
0.000256
0.000254
0.000261
0.000273
0.001792
0.000235
0.000221
0.000055
0.000196
0.000221
0.000261
0.000296
0.000336
0.000533
0.000325
0.000209
0.000288
0.000235
0.000252
0.000245
0.000525
0.000587
0.000412
0.000213
0.000265
0.000255
0.000419
0.000464
0.000362
0.000461
0.000414
0.000467
0.000243
0.000233
0.000263
0.000275
0.000248
0.001711
0.000355
0.000059
0.000266
0.000324
0.000224
0.000218
0.000261
0.000247
0.000240
0.000499
0.000375
0.000311
0.000288
0.000300
0.000329
0.000686
0.000294
0.000230
0.000257
0.000252
0.000258
0.000264
0.000277
0.000251
0.000249
0.000266
0.000348
0.000318
0.000443
0.000331
0.000234
0.000248
0.000197
0.000057
0.000434
0.000289
0.000497
0.000231
0.000217
0.000239
0.000261
0.000240
0.000239
0.000220
0.000276
0.000258
0.000300
0.000516
0.000357
0.000522
0.000275
0.000310
0.000380
0.000343
0.000299
0.000243
0.000246
0.000259
0.001746
0.000263
0.001719
0.000991
0.000391
0.000275
0.000167
0.000056
0.000209
0.000230
0.000232
0.000252
0.000265
0.000236
0.000252
0.000253
0.000247
0.000301
0.000357
0.000441
0.000339
0.000409
0.000246
0.000237
0.000244
0.000289
0.000229
0.000253
0.000271
0.000243
0.001813
0.000236
0.000259
0.000264
0.000276
0.001787
0.000360
0.000564
0.000248
0.000056
0.000232
0.000214
0.000247
0.000230
0.000272
0.000233
0.000244
0.000253
0.000282
0.000359
0.000518
0.000360
0.000364
0.000230
0.000246
0.000259
0.000325
0.000434
0.000367
0.000258
0.001775
0.000251
0.000257
0.000242
0.000266
0.000270
0.000242
0.000255
0.000316
0.000349
0.000382
0.000056
0.000259
0.000217
0.000227
0.000271
0.000241
0.000237
0.000275
0.000238
0.000238
0.000257
0.000246
0.000300
0.000310
0.000391
0.000385
0.000269
0.000469
0.000247
0.000238
0.000261
0.000256
0.000262
0.000267
0.000261
0.000275
0.001786
0.000252
0.000246
0.000264
0.000258
0.000192
0.000056
0.000332
0.000213
0.000231
0.000231
0.000238
0.000240
0.000235
0.000258
0.000244
0.000221
0.000237
0.000264
0.000268
0.000405
0.000351
0.000372
0.000292
0.000218
0.000250
0.000254
0.000267
0.000272
0.000235
0.000271
0.000243
0.000282
0.000300
0.001628
0.000260
0.000246
0.000189
0.000055
0.000210
0.000242
0.000249
0.000261
0.000357
0.000364
0.000441
0.000263
0.000222
0.000248
0.000267
0.000224
0.000253
0.000252
0.000266
0.000250
0.000253
0.000255
0.000258
0.000255
0.000268
0.000267
0.000241
0.000239
0.000247
0.000274
0.000278
0.000264
0.000254
0.000280
0.000177
0.000056
0.000215
0.000217
0.000247
0.000274
0.000234
0.000236
0.000239
0.000266
0.000295
0.000227
0.000229
0.000245
0.000253
0.000252
0.000293
0.000239
0.000254
0.000260
0.000281
0.000259
0.000265
0.000330
0.000270
0.000222
0.000302
0.000251
0.000265
0.000250
0.000301
0.000482
0.000637
0.000055
0.000235
0.000280
0.000229
0.000225
0.000235
0.000256
0.000238
0.000246
0.000253
0.000244
0.000269
0.000485
0.000351
0.000518
0.001445
0.000225
0.000495
0.000236
0.000285
0.000440
0.000455
0.000348
0.000225
0.000281
0.000245
0.000267
0.000276
0.000256
0.000328
0.000257
0.000174
0.000058
0.000341
0.000409
0.000337
0.000334
0.000206
0.000278
0.000221
0.000239
0.000243
0.000242
0.000254
0.000251
0.000237
0.000290
0.000329
0.000562
0.000311
0.001799
0.000244
0.000246
0.000343
0.000416
0.000433
0.000327
0.000294
0.000330
0.000294
0.000247
0.000224
0.000253
0.000188
0.000055
0.000191
0.000225
0.000267
0.000278
0.000357
0.000508
0.000267
0.000256
0.000249
0.000213
0.000254
0.000264
0.000272
0.000260
0.000244
0.000258
0.000358
0.000451
0.000345
0.000412
0.000240
0.001744
0.000344
0.000477
0.000490
0.000477
0.000325
0.000245
0.000243
0.000271
0.000447
0.000056
0.000212
0.000271
0.000220
0.000461
0.000356
0.000385
0.000349
0.000219
0.000234
0.000289
0.000240
0.000260
0.000254
0.000294
0.000308
0.000232
0.000229
0.000408
0.000470
0.000330
0.000487
0.001843
0.000252
0.000459
0.000529
0.000316
0.000230
0.000256
0.000297
0.000260
0.000198
0.000055
0.000211
0.000337
0.000362
0.000325
0.000414
0.000292
0.000357
0.000214
0.000239
0.000263
0.000277
0.000221
0.000253
0.000254
0.000242
0.000264
0.000335
0.000370
0.000528
0.000314
0.000317
0.000251
0.000239
0.001707
0.000436
0.000509
0.000682
0.000243
0.000254
0.000295
0.000177
0.000055
0.000197
0.000235
0.000355
0.000227
0.000274
0.000385
0.000387
0.000309
0.000247
0.000538
0.000224
0.000243
0.000257
0.000278
0.000272
0.000259
0.000227
0.000364
0.000434
0.000470
0.000250
0.000227
0.000260
0.000258
0.000256
0.000266
0.000238
0.000251
0.000271
0.000289
0.000209
0.000055
0.000311
0.000343
0.000223
0.000257
0.000245
0.000261
0.000241
0.000304
0.000225
0.000245
0.000275
0.000337
0.000412
0.000401
0.000355
0.000278
0.000236
0.000222
0.000257
0.000270
0.000282
0.000268
0.000232
0.000259
0.000279
0.000305
0.000595
0.000208
0.000347
0.000252
0.000162
0.000057
0.000216
0.000210
0.000282
0.000249
0.000236
0.000266
0.000264
0.000237
0.000481
0.000217
0.000262
0.000261
0.000241
0.000260
0.000271
0.000302
0.000237
0.000387
0.000195
0.000236
0.000250
0.000265
0.000262
0.000267
0.000273
0.000277
0.000245
0.000257
0.000260
0.000492
0.000170
0.000056
0.000207
0.000241
0.000247
0.000284
0.000219
0.000231
0.000370
0.000398
0.000232
0.000242
0.000261
0.000245
0.000231
0.000305
0.000451
0.001735
0.000233
0.000265
0.000283
0.000337
0.000405
0.000374
0.000409
0.000401
0.000335
0.000407
0.000259
0.000245
0.000264
0.000276
0.001413
0.000058
0.000495
0.000237
0.000212
0.000212
0.000239
0.000250
0.000235
0.000252
0.000245
0.000293
0.000224
0.000255
0.000254
0.000241
0.000604
0.001620
0.000234
0.000235
0.000239
0.000270
0.000231
0.000280
0.000474
0.000307
0.000286
0.000324
0.000240
0.000246
0.000272
0.000267
0.000193
0.000056
0.001220
0.000571
0.000300
0.000251
0.000244
0.000223
0.000236
0.000232
0.000492
0.000230
0.000225
0.000256
0.000491
0.000459
0.000302
0.000348
0.000258
0.000238
0.000329
0.000340
0.000277
0.000255
0.000269
0.000267
0.000255
0.000740
0.000406
0.000246
0.000248
0.000263
0.000177
0.000055
0.000222
0.000209
0.000239
0.000248
0.001537
0.000235
0.000219
0.000253
0.000259
0.000227
0.000253
0.000254
0.000244
0.000262
0.000275
0.000347
0.000394
0.000627
0.000266
0.001748
0.000256
0.000290
0.000327
0.000394
0.000608
0.000342
0.000251
0.000244
0.000259
0.000270
0.000207
0.000055
0.000207
0.000246
0.000238
0.000337
0.001235
0.000231
0.000289
0.000229
0.000238
0.000238
0.000243
0.000253
0.000273
0.000270
0.000226
0.000316
0.000444
0.000424
0.000339
0.000234
0.000269
0.000269
0.000248
0.000237
0.000284
0.000265
0.000244
0.000276
0.000270
0.000349
0.000572
0.000056
0.000197
0.000249
0.000233
0.000265
0.000258
0.000239
0.000231
0.000271
0.000285
0.000266
0.001409
0.000231
0.000228
0.000254
0.000243
0.000245
0.000294
0.000237
0.000287
0.000237
0.000287
0.000472
0.000629
0.000212
0.000246
0.000265
0.001752
0.000270
0.000282
0.000286
0.000489
0.000056
0.000222
0.000390
0.000453
0.000503
0.000513
0.000554
0.001490
0.000408
0.000519
0.000657
0.000553
0.000766
0.000435
0.000620
0.000582
0.001943
0.000413
0.000362
0.000398
0.000317
0.000252
0.000253
0.000286
0.000269
0.000262
0.000288
0.000286
0.000289
0.000256
0.000291
0.001365
0.000056
0.000214
0.000225
0.000238
0.000243
0.000254
0.000257
0.000239
0.000239
0.000247
0.000253
0.000260
0.000225
0.000255
0.000258
0.000269
0.000265
0.001798
0.000284
0.000250
0.000250
0.000261
0.000257
0.000274
0.000249
0.000460
0.000399
0.000331
0.000253
0.000253
0.000281
0.000202
0.000055
0.000197
0.001372
0.000327
0.000274
0.000247
0.000238
0.000240
0.000242
0.000232
0.000234
0.000229
0.000245
0.000251
0.000500
0.000365
0.000309
0.000238
0.001819
0.000377
0.000222
0.000237
0.000264
0.000260
0.000264
0.000276
0.000276
0.000271
0.000252
0.000266
0.000349
0.000174
0.000055
0.000205
0.000241
0.000251
0.001447
0.000223
0.000235
0.000246
0.000247
0.000241
0.000269
0.000244
0.000248
0.000248
0.000282
0.000232
0.000258
0.000265
0.000263
0.000268
0.000277
0.000242
0.001768
0.000279
0.001747
0.000277
0.000243
0.000263
0.000272
0.000301
0.000245
0.000196
0.000055
0.000221
0.000226
0.001348
0.000226
0.000259
0.000243
0.000250
0.000257
0.000245
0.000246
0.000261
0.000241
0.000263
0.000257
0.000264
0.000266
0.000255
0.000284
0.000287
0.000245
0.001866
0.000257
0.001803
0.000251
0.000255
0.000282
0.000240
0.000240
0.000255
0.000270
0.000198
0.000056
0.001429
0.000222
0.000241
0.000227
0.000246
0.000231
0.000378
0.000283
0.000243
0.000246
0.000251
0.000263
0.000316
0.000323
0.000349
0.000293
0.000253
0.000272
0.000252
0.000252
0.000270
0.000332
0.000235
0.000257
0.000258
0.000285
0.000278
0.000482
0.000499
0.000352
0.000198
0.000057
0.000226
0.000253
0.000262
0.000298
0.000384
0.000245
0.001671
0.000321
0.000281
0.000267
0.000251
0.000278
0.000261
0.000269
0.000299
0.000310
0.000423
0.000519
0.000352
0.000262
0.000292
0.000278
0.000264
0.000269
0.000304
0.000277
0.000277
0.000250
0.000248
0.000312
0.000430
0.000057
0.000277
0.000428
0.000261
0.000262
0.000250
0.000224
0.000232
0.000248
0.000256
0.000306
0.001456
0.000241
0.000224
0.000249
0.000243
0.000293
0.000270
0.000249
0.000251
0.000269
0.000267
0.000544
0.000480
0.000221
0.000243
0.000286
0.000270
0.000256
0.000239
0.000311
0.000170
0.000056
0.000218
0.000220
0.000337
0.000415
0.000395
0.000230
0.000228
0.000247
0.000250
0.000252
0.000230
0.000252
0.000256
0.000270
0.000240
0.000259
0.000448
0.001146
0.000252
0.000226
0.000283
0.000252
0.000352
0.000425
0.000241
0.000483
0.000422
0.000417
0.000307
0.000250
0.000176
0.000055
0.000221
0.000252
0.000259
0.000261
0.000256
0.000251
0.000403
0.000327
0.000429
0.000296
0.000365
0.000392
0.000393
0.000364
0.000257
0.000232
0.000234
0.000286
0.000417
0.000420
0.001275
0.000227
0.000269
0.000268
0.000239
0.000236
0.000266
0.000340
0.000477
0.000368
0.000240
0.000057
0.000196
0.000230
0.000261
0.000238
0.000239
0.000249
0.000235
0.000268
0.000340
0.000372
0.000408
0.000330
0.000267
0.000219
0.000249
0.000257
0.000245
0.000264
0.000260
0.000279
0.000431
0.000310
0.000305
0.000407
0.000333
0.000248
0.000275
0.000260
0.000253
0.000343
0.000159
0.000055
0.000303
0.000312
0.000447
0.000308
0.000382
0.000356
0.000240
0.000261
0.000229
0.000299
0.000226
0.000261
0.000237
0.000249
0.000244
0.000226
0.000270
0.000423
0.000379
0.000401
0.000237
0.000278
0.000230
0.000240
0.000265
0.000289
0.000262
0.000275
0.000265
0.000266
0.000314
0.000055
0.000287
0.000335
0.000238
0.000285
0.000204
0.000245
0.000246
0.000258
0.000258
0.000259
0.000252
0.000236
0.000307
0.000465
0.000436
0.000299
0.000257
0.000244
0.000240
0.000267
0.000253
0.000268
0.000253
0.000268
0.000281
0.000435
0.000241
0.000634
0.000409
0.000253
0.000180
0.000056
0.000378
0.000218
0.000215
0.000247
0.000263
0.000234
0.000237
0.000250
0.000256
0.000256
0.000228
0.000243
0.000267
0.000228
0.000250
0.000258
0.000252
0.000266
0.000300
0.000237
0.000254
0.000261
0.000260
0.000270
0.000263
0.000237
0.000267
0.000285
0.000245
0.000288
0.000194
0.000056
0.000213
0.000213
0.000240
0.000248
0.000235
0.000257
0.000260
0.000240
0.000256
0.000279
0.000234
0.000229
0.000261
0.000394
0.000257
0.000296
0.000257
0.000248
0.000257
0.000276
0.000273
0.000250
0.000242
0.000240
0.000276
0.000276
0.000244
0.000255
0.000282
0.000257
0.000204
0.000056
0.000213
0.000358
0.000371
0.000281
0.000293
0.000258
0.000263
0.000258
0.000221
0.000243
0.000286
0.000229
0.000246
0.000236
0.000263
0.000277
0.000244
0.000269
0.000246
0.000265
0.000272
0.000264
0.000279
0.000257
0.000292
0.000224
0.000265
0.000267
0.000264
0.000266
0.000197
0.000055
0.000210
0.000228
0.000260
0.000265
0.000254
0.000439
0.000225
0.000265
0.000316
0.000385
0.000490
0.000288
0.000228
0.000246
0.000279
0.000260
0.000238
0.000266
0.000260
0.000266
0.000285
0.000241
0.000257
0.000290
0.000605
0.000401
0.000283
0.000301
0.000258
0.000267
0.000192
0.000055
0.000217
0.000228
0.000248
0.000252
0.000376
0.000588
0.000326
0.000377
0.000209
0.000247
0.000250
0.000252
0.000249
0.000251
0.000257
0.000270
0.000269
0.000251
0.000655
0.000352
0.000310
0.000237
0.000257
0.000283
0.000285
0.000253
0.000260
0.000288
0.000231
0.000330
0.000316
0.000057
0.000265
0.000231
0.000238
0.000242
0.000254
0.000270
0.000211
0.000253
0.000237
0.000260
0.000247
0.000251
0.000244
0.000463
0.000557
0.000351
0.000245
0.000237
0.000260
0.000243
0.000269
0.000289
0.000469
0.000225
0.000262
0.000734
0.000283
0.000469
0.000264
0.000245
0.000192
0.000055
0.000191
0.000232
0.000236
0.000249
0.000253
0.000262
0.000303
0.000710
0.000311
0.000422
0.000219
0.000263
0.000275
0.000275
0.000253
0.000249
0.000237
0.000254
0.000278
0.000429
0.000304
0.000642
0.000367
0.000231
0.000361
0.000379
0.000486
0.000245
0.000267
0.000485
0.000386
0.000056
0.000270
0.000230
0.000438
0.000218
0.000238
0.000253
0.000261
0.000258
0.000230
0.000240
0.000275
0.000410
0.000409
0.000277
0.000251
0.000234
0.000265
0.000242
0.000265
0.000282
0.000292
0.000238
0.000248
0.000274
0.000309
0.000518
0.000448
0.000267
0.000232
0.000270
0.000200
0.000056
0.000224
0.000253
0.000232
0.000243
0.000247
0.000293
0.000311
0.000578
0.000279
0.000269
0.000373
0.000242
0.000233
0.000264
0.000255
0.000237
0.000259
0.000258
0.000307
0.000376
0.000477
0.000348
0.000475
0.000268
0.000383
0.000417
0.000386
0.000254
0.000244
0.000316
0.000410
0.000074
0.000263
0.000232
0.000221
0.000272
0.000265
0.000237
0.000267
0.000226
0.000277
0.000238
0.000237
0.000414
0.000396
0.000369
0.000376
0.000225
0.000267
0.000259
0.000259
0.000243
0.000253
0.000253
0.000267
0.000271
0.000296
0.000318
0.000543
0.000411
0.000243
0.000280
0.000215
0.000055
0.000231
0.000217
0.000279
0.000241
0.000251
0.000333
0.000722
0.000252
0.000524
0.000533
0.000250
0.000227
0.000232
0.000261
0.000245
0.000265
0.000278
0.000301
0.000485
0.000413
0.001479
0.000318
0.000256
0.000267
0.000281
0.000254
0.000384
0.000426
0.000331
0.000339
0.000182
0.000056
0.000219
0.000232
0.000243
0.000260
0.000234
0.000249
0.000307
0.000231
0.000280
0.000312
0.000315
0.000375
0.000262
0.000342
0.000397
0.000342
0.000238
0.000248
0.000275
0.000252
0.000250
0.000248
0.000319
0.000214
0.000326
0.000453
0.000458
0.000230
0.000259
0.000268
0.000187
0.000055
0.000228
0.000250
0.000254
0.000257
0.000252
0.000223
0.000473
0.000212
0.000237
0.000258
0.000240
0.000255
0.000260
0.000255
0.000248
0.000272
0.000262
0.000290
0.000264
0.000239
0.000281
0.000269
0.000285
0.000256
0.000261
0.000277
0.000269
0.000266
0.000264
0.000269
0.000179
0.000055
0.000242
0.000255
0.000350
0.000432
0.000306
0.000261
0.000220
0.000244
0.000260
0.000254
0.000240
0.000255
0.000263
0.000263
0.000236
0.000249
0.000267
0.000257
0.000339
0.000314
0.000527
0.000267
0.000230
0.000276
0.000249
0.000258
0.000266
0.000252
0.000274
0.000277
0.000202
0.000055
0.000378
0.000450
0.000377
0.000206
0.000249
0.000266
0.000396
0.000224
0.000236
0.000254
0.000256
0.000292
0.000464
0.000382
0.001812
0.000254
0.000235
0.000257
0.000276
0.000235
0.000376
0.000451
0.000629
0.000247
0.000227
0.000262
0.000274
0.000422
0.000280
0.000276
0.000174
0.000055
0.000234
0.000356
0.000367
0.000286
0.000499
0.000204
0.000246
0.000257
0.000238
0.000244
0.000260
0.000245
0.000276
0.000290
0.000485
0.000424
0.000218
0.000242
0.000264
0.000257
0.000262
0.000320
0.000240
0.000272
0.000267
0.000508
0.000497
0.000388
0.000435
0.000232
0.000204
0.000056
0.000202
0.000235
0.000255
0.000231
0.000247
0.000249
0.000266
0.000297
0.000354
0.000418
0.000361
0.000335
0.000237
0.000251
0.000262
0.000340
0.000247
0.000235
0.000270
0.000277
0.000241
0.000293
0.000530
0.000329
0.000284
0.000284
0.000230
0.000439
0.000461
0.000283
0.000158
0.000055
0.000194
0.000329
0.000245
0.000427
0.000367
0.000232
0.000219
0.000254
0.000266
0.000262
0.000246
0.000248
0.000233
0.000265
0.000256
0.000364
0.000417
0.000272
0.000401
0.000236
0.000489
0.000226
0.000284
0.000270
0.000299
0.000289
0.000246
0.000269
0.000567
0.000438
0.000173
0.000056
0.000196
0.000222
0.000253
0.000251
0.000238
0.000481
0.000217
0.000246
0.000273
0.000434
0.000376
0.000591
0.000223
0.000234
0.000251
0.000248
0.000252
0.000272
0.000237
0.000248
0.000289
0.000240
0.000381
0.000437
0.000321
0.000416
0.000296
0.000295
0.000314
0.000238
0.000185
0.000056
0.000186
0.000238
0.000290
0.000447
0.000334
0.000285
0.000259
0.000225
0.000249
0.000257
0.000256
0.000253
0.000268
0.000232
0.000262
0.000252
0.000251
0.000241
0.000319
0.000442
0.000334
0.000455
0.000244
0.000244
0.000281
0.000274
0.000255
0.000260
0.000267
0.000266
0.000194
0.000055
0.000344
0.000329
0.000461
0.000250
0.000213
0.000245
0.000327
0.000453
0.000286
0.000219
0.000234
0.000270
0.000266
0.000507
0.000366
0.000303
0.000221
0.000239
0.000256
0.000283
0.000255
0.000255
0.000268
0.000271
0.000260
0.000287
0.000402
0.000437
0.000295
0.000249
0.000186
0.000056
0.000205
0.000260
0.000230
0.000253
0.000251
0.000268
0.000223
0.000273
0.000247
0.000237
0.000265
0.000240
0.000292
0.001438
0.000231
0.000238
0.000265
0.000244
0.000276
0.000277
0.000257
0.000246
0.000277
0.000252
0.000267
0.000279
0.000263
0.000270
0.000260
0.000271
0.000194
0.000056
0.000218
0.000227
0.000253
0.000266
0.000219
0.000256
0.000250
0.000256
0.000229
0.000251
0.000252
0.000260
0.000257
0.000250
0.000255
0.000258
0.000255
0.000250
0.000275
0.000255
0.000255
0.000261
0.000253
0.000245
0.001299
0.000278
0.000589
0.000369
0.000376
0.000237
0.000198
0.000056
0.000215
0.000229
0.000240
0.000251
0.000439
0.000236
0.000218
0.000241
0.000256
0.000436
0.000443
0.000268
0.000245
0.000228
0.000261
0.000257
0.000257
0.000266
0.000242
0.000265
0.000259
0.000255
0.000258
0.000456
0.000497
0.000436
0.000232
0.000256
0.001378
0.000236
0.000183
0.000056
0.000393
0.000364
0.000326
0.000274
0.000223
0.000227
0.000224
0.000250
0.000260
0.000253
0.000249
0.000262
0.000295
0.000325
0.000540
0.000315
0.000342
0.000222
0.000243
0.000264
0.000267
0.000280
0.000250
0.000266
0.000275
0.000257
0.000320
0.000606
0.000353
0.000355
0.000142
0.000056
0.000207
0.000235
0.001270
0.000414
0.000273
0.000516
0.000350
0.000488
0.000270
0.000342
0.000234
0.000224
0.000259
0.000252
0.000263
0.000254
0.000362
0.000527
0.000386
0.000347
0.000243
0.000236
0.000269
0.000494
0.000241
0.000262
0.000253
0.000282
0.000344
0.000545
0.000259
0.000056
0.000385
0.000309
0.000240
0.001392
0.000500
0.000373
0.000293
0.000238
0.000245
0.000243
0.000231
0.000243
0.000249
0.000270
0.000250
0.000259
0.000238
0.000290
0.000388
0.000359
0.000474
0.000242
0.000256
0.000262
0.000258
0.000275
0.000266
0.000239
0.000268
0.000276
0.000203
0.000058
0.000380
0.000342
0.000231
0.000227
0.000247
0.000245
0.000256
0.000243
0.000233
0.000224
0.001469
0.000395
0.000294
0.000233
0.000241
0.000260
0.000268
0.000261
0.000237
0.000303
0.000244
0.000246
0.000271
0.000482
0.000348
0.000458
0.000233
0.000264
0.000278
0.000281
0.000175
0.000055
0.000215
0.000412
0.000237
0.000255
0.000318
0.000447
0.000367
0.000320
0.000443
0.000215
0.000238
0.000252
0.000261
0.000264
0.000254
0.001524
0.000258
0.000297
0.000225
0.000272
0.000304
0.000231
0.000251
0.000249
0.000269
0.000268
0.000493
0.000436
0.000255
0.000273
0.000166
0.000055
0.000195
0.000231
0.000255
0.000240
0.000225
0.000258
0.000242
0.000250
0.000319
0.000360
0.000397
0.000301
0.000244
0.000253
0.000246
0.000270
0.000271
0.000262
0.000265
0.000235
0.000259
0.000329
0.001244
0.000244
0.000274
0.000251
0.000244
0.000268
0.000253
0.000272
0.000181
0.000055
0.000230
0.000414
0.000279
0.000372
0.000268
0.000217
0.000255
0.000289
0.000235
0.000267
0.000237
0.000265
0.000240
0.000256
0.000267
0.000246
0.000265
0.000272
0.000264
0.000242
0.000259
0.000269
0.000269
0.000287
0.000282
0.000265
0.000267
0.000261
0.000261
0.000447
0.001361
0.000056
0.000196
0.000250
0.000225
0.000262
0.000244
0.000241
0.000245
0.000233
0.000239
0.000253
0.000306
0.000230
0.000249
0.000237
0.000281
0.000223
0.001725
0.000265
0.000236
0.000253
0.000248
0.000263
0.000275
0.000256
0.000303
0.000228
0.000267
0.000288
0.000257
0.000256
0.000236
0.000055
0.000299
0.000246
0.001328
0.000237
0.000221
0.000246
0.000258
0.000249
0.000270
0.000243
0.000235
0.000353
0.000413
0.000437
0.000257
0.000227
0.000255
0.000255
0.000256
0.000265
0.000242
0.000275
0.000260
0.000283
0.000281
0.000423
0.000354
0.000337
0.000318
0.000236
0.000195
0.000055
0.000222
0.000237
0.000241
0.000248
0.000275
0.000199
0.000244
0.000303
0.000380
0.001341
0.000255
0.000230
0.000230
0.000267
0.000257
0.000290
0.000242
0.000246
0.000376
0.000385
0.000349
0.000259
0.000244
0.000263
0.000273
0.000267
0.000273
0.000288
0.000273
0.000276
0.000193
0.000054
0.000290
0.000391
0.000379
0.000229
0.000224
0.000233
0.000250
0.000275
0.000260
0.000249
0.000229
0.000253
0.000455
0.000496
0.000491
0.001440
0.000238
0.000269
0.000334
0.000352
0.000476
0.000471
0.000517
0.000301
0.000233
0.000262
0.000289
0.000254
0.000265
0.000270
0.000196
0.000055
0.000229
0.000289
0.000502
0.000410
0.000337
0.000254
0.000231
0.000241
0.000242
0.000271
0.000231
0.000270
0.000276
0.000227
0.000261
0.000283
0.000414
0.000390
0.001408
0.000337
0.000219
0.000252
0.000250
0.000275
0.000500
0.000384
0.000405
0.000249
0.000268
0.000271
0.000186
0.000074
0.000193
0.000241
0.000246
0.000274
0.000213
0.000297
0.000432
0.000439
0.000314
0.000223
0.000242
0.000258
0.000270
0.000308
0.000227
0.000248
0.000267
0.000263
0.000284
0.000314
0.000434
0.000384
0.000330
0.001363
0.000387
0.000248
0.000274
0.000442
0.000459
0.000305
0.000307
0.000055
0.000213
0.000228
0.000248
0.000248
0.000256
0.000251
0.001678
0.000251
0.000217
0.000233
0.000253
0.000249
0.000255
0.000328
0.000330
0.000284
0.000261
0.000385
0.000476
0.000353
0.000312
0.000290
0.000234
0.000243
0.001500
0.000354
0.000406
0.000460
0.000321
0.000293
0.000177
0.000056
0.000202
0.000248
0.000253
0.000261
0.000253
0.000255
0.001701
0.000230
0.000247
0.000258
0.000338
0.000400
0.001494
0.000317
0.000385
0.000253
0.000240
0.000242
0.000262
0.000278
0.001538
0.000543
0.000412
0.000297
0.000250
0.000237
0.000266
0.000281
0.000239
0.000251
0.000202
0.000055
0.000218
0.000228
0.000266
0.000245
0.000266
0.000276
0.000270
0.000258
0.000251
0.000252
0.000252
0.000246
0.000294
0.000254
0.000259
0.001478
0.000275
0.000231
0.000267
0.000276
0.000277
0.000253
0.000428
0.001271
0.000276
0.000248
0.000260
0.000252
0.000400
0.000247
0.000195
0.000056
0.000220
0.000246
0.000227
0.000241
0.000241
0.000250
0.000221
0.001692
0.000252
0.000229
0.000351
0.000284
0.000207
0.000227
0.000252
0.001394
0.000218
0.000276
0.000260
0.000253
0.000273
0.000327
0.000298
0.001300
0.000275
0.000255
0.000246
0.000271
0.001386
0.000275
0.000203
0.000055
0.000265
0.000317
0.000215
0.000239
0.000270
0.000220
0.000291
0.000249
0.000261
0.000251
0.000257
0.000262
0.000263
0.000241
0.000294
0.001533
0.000232
0.000267
0.000244
0.000248
0.000314
0.000237
0.000245
0.001523
0.000358
0.000218
0.000260
0.001282
0.000269
0.000242
0.000209
0.000055
0.000206
0.000429
0.000300
0.000219
0.000226
0.000247
0.000270
0.000247
0.000266
0.000275
0.000235
0.000251
0.000263
0.000320
0.000367
0.001220
0.000225
0.000257
0.000267
0.000273
0.000237
0.000243
0.000241
0.000365
0.001256
0.000246
0.000246
0.000254
0.000258
0.001340
0.000308
0.000055
0.000241
0.000255
0.000224
0.000223
0.000248
0.000255
0.000240
0.000249
0.000299
0.000232
0.000246
0.000245
0.000248
0.000416
0.000321
0.001476
0.000213
0.000258
0.000304
0.000522
0.000270
0.001483
0.000328
0.000242
0.000239
0.000254
0.000260
0.001299
0.000364
0.000448
0.000400
0.000057
0.000233
0.000253
0.000251
0.000255
0.000280
0.000234
0.000269
0.000259
0.000247
0.000294
0.000256
0.000493
0.001336
0.000238
0.000267
0.000264
0.000281
0.000224
0.000236
0.000242
0.000351
0.001240
0.000256
0.000246
0.000252
0.000249
0.001649
0.000321
0.000452
0.000222
0.000184
0.000058
0.000217
0.000214
0.000249
0.000238
0.000255
0.000266
0.000239
0.000326
0.000441
0.000409
0.000267
0.001496
0.000215
0.000234
0.000267
0.000261
0.000254
0.000287
0.001703
0.000242
0.000391
0.000346
0.001292
0.000390
0.000262
0.000317
0.000269
0.000253
0.000261
0.000267
0.000196
0.000055
0.000197
0.000239
0.000317
0.000255
0.000459
0.000429
0.000248
0.000306
0.001462
0.000245
0.000368
0.000264
0.000257
0.000293
0.000379
0.001320
0.000267
0.000239
0.000241
0.000260
0.001570
0.000331
0.000287
0.000275
0.000271
0.000238
0.000449
0.000329
0.000245
0.000250
0.000261
0.000056
0.000181
0.000347
0.000357
0.000262
0.000224
0.001522
0.000220
0.000249
0.000267
0.000266
0.000269
0.000236
0.000330
0.001465
0.000253
0.000241
0.000421
0.001187
0.000299
0.000501
0.000378
0.000245
0.000238
0.000253
0.000298
0.000221
0.000454
0.000238
0.000257
0.000276
0.000215
0.000055
0.000230
0.000340
0.000243
0.000339
0.001333
0.000273
0.000335
0.000226
0.000223
0.000246
0.000251
0.000375
0.001438
0.000265
0.000234
0.000230
0.001390
0.000351
0.000426
0.000359
0.000384
0.000228
0.000254
0.000246
0.000265
0.000299
0.000254
0.000259
0.000266
0.000248
0.000201
0.000055
0.000236
0.000370
0.001464
0.000206
0.000275
0.000301
0.000218
0.000246
0.000291
0.000377
0.001366
0.000213
0.000265
0.000266
0.000249
0.001281
0.000671
0.000318
0.000304
0.000414
0.000303
0.000250
0.000260
0.000266
0.000267
0.000284
0.000273
0.000319
0.000441
0.000404
0.001380
0.000056
0.000225
0.000233
0.000237
0.000231
0.000393
0.000254
0.000504
0.001279
0.000246
0.000260
0.000235
0.001415
0.000543
0.000237
0.000229
0.000418
0.000243
0.000230
0.000274
0.000287
0.000255
0.000250
0.000278
0.000253
0.000258
0.000292
0.000542
0.000378
0.001481
0.000237
0.000185
0.000057
0.000198
0.000254
0.000448
0.001442
0.000304
0.000239
0.000246
0.000237
0.000248
0.000248
0.000254
0.000308
0.000322
0.000530
0.000297
0.000240
0.000245
0.000277
0.000242
0.000314
0.000236
0.000257
0.000257
0.000265
0.000260
0.000392
0.000486
0.000319
0.000333
0.001406
0.000176
0.000056
0.000207
0.000237
0.000263
0.000485
0.000320
0.000304
0.000329
0.000324
0.000298
0.000254
0.000233
0.000268
0.000254
0.000307
0.000237
0.000373
0.000501
0.000313
0.000262
0.000397
0.000268
0.000403
0.000243
0.000250
0.000245
0.000259
0.000254
0.000300
0.000658
0.000350
0.000125
0.000056
0.000210
0.001413
0.000228
0.000333
0.000406
0.000446
0.000387
0.000293
0.000213
0.000242
0.000264
0.000267
0.000258
0.000272
0.000257
0.000242
0.000258
0.001310
0.000315
0.000242
0.000262
0.000278
0.000284
0.000261
0.000270
0.000255
0.000271
0.000246
0.000344
0.000472
0.000286
0.000056
0.000220
0.000242
0.000234
0.001508
0.000330
0.000238
0.000214
0.000256
0.000230
0.000242
0.000255
0.000285
0.000238
0.000251
0.000319
0.000206
0.000247
0.000266
0.000268
0.000242
0.001440
0.000234
0.000237
0.000285
0.000250
0.000251
0.000271
0.000259
0.000274
0.000492
0.000349
0.000055
0.000207
0.000225
0.000440
0.000240
0.000236
0.000258
0.001526
0.000443
0.000202
0.000219
0.000259
0.000363
0.000287
0.000223
0.000233
0.000245
0.000246
0.000292
0.000234
0.000258
0.000571
0.000476
0.001062
0.000273
0.000234
0.000260
0.000269
0.000274
0.000292
0.000226
0.000302
0.000056
0.000271
0.000339
0.000207
0.000244
0.000250
0.000237
0.000245
0.000238
0.000280
0.001653
0.000349
0.000270
0.000244
0.000240
0.000258
0.000241
0.000260
0.000277
0.000263
0.000314
0.000302
0.000530
0.000418
0.001357
0.000229
0.000283
0.000251
0.000263
0.000281
0.000375
0.000404
0.000056
0.000189
0.000261
0.000222
0.000231
0.000223
0.000243
0.000264
0.000281
0.000254
0.001686
0.000246
0.000258
0.000242
0.000258
0.000451
0.000299
0.000620
0.000364
0.000206
0.000239
0.000520
0.000499
0.001225
0.000266
0.000235
0.000249
0.001715
0.000451
0.000614
0.000313
0.000146
0.000055
0.000198
0.000235
0.000236
0.000239
0.000277
0.000223
0.000248
0.000563
0.000445
0.000412
0.000284
0.000213
0.000245
0.000263
0.000276
0.000277
0.000231
0.000246
0.000255
0.000282
0.000282
0.000438
0.001298
0.000224
0.000255
0.000272
0.001898
0.000384
0.000395
0.000334
0.000157
0.000056
0.000226
0.000237
0.000241
0.001647
0.000343
0.000218
0.000237
0.000257
0.000258
0.000278
0.000374
0.000367
0.000386
0.000289
0.000278
0.000531
0.000428
0.001139
0.000277
0.000229
0.000257
0.000256
0.000298
0.000409
0.000653
0.000395
0.000272
0.000255
0.000266
0.000278
0.000191
0.000055
0.000220
0.000220
0.000246
0.001574
0.000225
0.000231
0.000242
0.000251
0.000246
0.000241
0.000259
0.000270
0.000278
0.000265
0.000302
0.000452
0.000409
0.000232
0.001406
0.000225
0.000269
0.000256
0.000263
0.000294
0.000326
0.000486
0.000456
0.000271
0.000292
0.000229
0.000435
0.000055
0.000208
0.000232
0.000269
0.001537
0.000290
0.000225
0.000265
0.000245
0.000249
0.000260
0.000254
0.000279
0.000232
0.000260
0.000319
0.000595
0.001385
0.000745
0.000258
0.000342
0.000248
0.000231
0.000245
0.000279
0.001712
0.000778
0.000220
0.000267
0.000281
0.000287
0.000179
0.000056
0.000197
0.000235
0.000254
0.000241
0.000282
0.000252
0.000212
0.000253
0.000238
0.000235
0.000294
0.000291
0.000238
0.000250
0.000273
0.000235
0.000271
0.001603
0.000735
0.000365
0.000290
0.000232
0.000260
0.000297
0.000247
0.000248
0.000275
0.000249
0.001479
0.000307
0.000298
0.000056
0.000217
0.000216
0.000267
0.000230
0.000258
0.000234
0.000277
0.000230
0.000254
0.000259
0.000326
0.000383
0.000428
0.000324
0.000241
0.000224
0.000262
0.001399
0.000695
0.000523
0.000267
0.000279
0.000229
0.000252
0.000273
0.000250
0.000275
0.000248
0.001494
0.000427
0.000184
0.000055
0.000222
0.000232
0.000243
0.000250
0.000248
0.000248
0.000238
0.000248
0.000271
0.000307
0.000308
0.000440
0.000288
0.000217
0.000240
0.000249
0.000268
0.000254
0.001568
0.000691
0.000446
0.000271
0.000246
0.000237
0.000268
0.000260
0.000266
0.000292
0.000248
0.001460
0.000234
0.000056
0.000228
0.000217
0.000234
0.000262
0.000253
0.000244
0.000247
0.000309
0.000365
0.000445
0.000377
0.000373
0.000358
0.000219
0.000244
0.000249
0.000301
0.000241
0.000264
0.001910
0.000342
0.000227
0.000451
0.000238
0.000258
0.000266
0.000266
0.000258
0.000276
0.000273
0.000364
0.000055
0.000266
0.000258
0.000231
0.000243
0.000272
0.000233
0.000246
0.000219
0.000292
0.000245
0.000229
0.000238
0.000335
0.000469
0.000437
0.000399
0.000224
0.000264
0.000246
0.000255
0.000265
0.000277
0.001473
0.001043
0.000225
0.000256
0.000269
0.000287
0.000249
0.000254
0.000204
0.000055
0.000199
0.001333
0.000292
0.000212
0.000236
0.000249
0.000252
0.000244
0.000238
0.000264
0.000242
0.000262
0.000240
0.000379
0.000424
0.000420
0.000257
0.000256
0.000259
0.000270
0.000276
0.000224
0.000255
0.000271
0.001332
0.000664
0.000312
0.000387
0.000372
0.000409
0.000289
0.000056
0.000212
0.000246
0.000374
0.001298
0.000213
0.000249
0.000231
0.000264
0.000270
0.000239
0.000264
0.000236
0.000278
0.000340
0.000558
0.000304
0.000226
0.000287
0.000321
0.000230
0.000241
0.000265
0.000237
0.000273
0.000286
0.001988
0.000341
0.000251
0.000257
0.000267
0.000196
0.000057
0.000206
0.000243
0.000478
0.000322
0.001298
0.000257
0.000227
0.000230
0.000234
0.000269
0.000228
0.000258
0.000230
0.000257
0.000230
0.000259
0.000269
0.000238
0.000253
0.000257
0.000268
0.000263
0.000314
0.000330
0.000210
0.000269
0.000267
0.001463
0.000256
0.000241
0.000180
0.000056
0.000201
0.000230
0.000249
0.000266
0.000355
0.000370
0.000416
0.000258
0.001575
0.000225
0.000326
0.000486
0.000346
0.000223
0.000431
0.000237
0.000229
0.000264
0.000278
0.000271
0.000274
0.000265
0.000255
0.000277
0.000239
0.000438
0.000456
0.000261
0.001573
0.000230
0.000189
0.000058
0.000233
0.000242
0.000241
0.000246
0.000239
0.000247
0.000261
0.000319
0.000425
0.002014
0.000225
0.000250
0.000255
0.000257
0.000261
0.000259
0.000269
0.000251
0.000407
0.000340
0.000292
0.000480
0.001442
0.000242
0.000243
0.002023
0.000295
0.000256
0.000224
0.001521
0.000160
0.000055
0.000362
0.000431
0.000419
0.000240
0.000282
0.000207
0.000259
0.000295
0.000240
0.000224
0.000257
0.000373
0.000410
0.000345
0.000437
0.000200
0.000235
0.001569
0.000241
0.000573
0.001893
0.000287
0.000222
0.001555
0.002016
0.000743
0.000280
0.000247
0.000271
0.000455
0.000331
0.000055
0.000220
0.000239
0.000274
0.000214
0.001414
0.001742
0.001073
0.000208
0.000232
0.001581
0.001985
0.000212
0.000236
0.000425
0.000348
0.000392
0.000368
0.000445
0.000224
0.000225
0.000268
0.000239
0.000274
0.001592
0.001212
0.001423
0.000288
0.000279
0.000248
0.000357
0.000321
0.000056
0.000273
0.000190
0.000232
0.000241
0.000228
0.000274
0.000223
0.000255
0.000258
0.000243
0.000241
0.000346
0.000466
0.000379
0.000319
0.000241
0.000246
0.000274
0.000266
0.000281
0.000241
0.000261
0.001520
0.000464
0.002125
0.000233
0.000260
0.000321
0.000487
0.000362
0.000178
0.000057
0.000206
0.000431
0.000462
0.000253
0.000217
0.000213
0.000254
0.000234
0.000247
0.000241
0.000242
0.000271
0.000260
0.001606
0.001353
0.001234
0.000272
0.000243
0.000239
0.000271
0.000283
0.000277
0.000247
0.000248
0.002227
0.000237
0.000249
0.000296
0.000324
0.000304
0.000222
0.000055
0.000246
0.000353
0.000530
0.000337
0.000238
0.000229
0.000249
0.000277
0.001900
0.001409
0.000225
0.000320
0.000388
0.000409
0.000269
0.000249
0.000231
0.000266
0.000264
0.000264
0.000257
0.000266
0.000466
0.000240
0.000264
0.000270
0.000257
0.000270
0.000281
0.000251
0.000199
0.000056
0.000203
0.000246
0.000249
0.000237
0.000280
0.000250
0.001547
0.001408
0.001324
0.000239
0.000231
0.000243
0.000265
0.000261
0.000245
0.000275
0.000225
0.002107
0.000243
0.000239
0.000271
0.000257
0.000264
0.000265
0.000265
0.000259
0.000265
0.000256
0.000278
0.000247
0.000180
0.000056
0.000193
0.002684
0.001395
0.000225
0.000303
0.000326
0.000216
0.000282
0.000227
0.000241
0.000253
0.000243
0.000237
0.000246
0.000271
0.000272
0.000254
0.000264
0.000262
0.000261
0.000264
0.000286
0.000275
0.000251
0.000254
0.000248
0.000262
0.000271
0.000261
0.000269
0.000371
0.000056
0.001548
0.000253
0.001240
0.000238
0.000213
0.000240
0.000282
0.000253
0.000224
0.000271
0.000457
0.000289
0.000334
0.000233
0.000239
0.002156
0.000242
0.000236
0.000262
0.000550
0.000374
0.000258
0.000239
0.000248
0.000262
0.000254
0.000270
0.000272
0.000268
0.001615
0.001268
0.000058
0.000219
0.000210
0.000301
0.000391
0.000357
0.000278
0.000216
0.000230
0.000257
0.000256
0.000266
0.000258
0.000210
0.000262
0.000259
0.000250
0.000345
0.000635
0.000303
0.000251
0.000240
0.000264
0.000280
0.000253
0.000246
0.000259
0.000259
0.000275
0.000241
0.000281
0.000390
0.000056
0.001118
0.000332
0.000273
0.000461
0.000242
0.000241
0.000230
0.000238
0.000253
0.002323
0.000334
0.000393
0.000224
0.000380
0.000306
0.000254
0.000238
0.000255
0.000267
0.000228
0.000250
0.000293
0.000686
0.000345
0.001879
0.001286
0.000651
0.000426
0.000232
0.000285
0.000197
0.000057
0.000270
0.000290
0.000248
0.000245
0.000246
0.000226
0.000257
0.000251
0.000256
0.000247
0.000257
0.000230
0.000244
0.000279
0.000348
0.000547
0.001820
0.001417
0.000385
0.000430
0.000441
0.000238
0.000242
0.000256
0.002172
0.000518
0.000387
0.000235
0.000270
0.000284
0.000193
0.000056
0.000203
0.000241
0.000257
0.000268
0.000223
0.000451
0.000337
0.000285
0.000316
0.000222
0.000237
0.000247
0.000270
0.002105
0.000385
0.000372
0.000222
0.000244
0.000284
0.000239
0.000249
0.002507
0.000288
0.000225
0.000260
0.000249
0.000263
0.000262
0.000313
0.000254
0.000190
0.000054
0.000247
0.000440
0.000490
0.000285
0.000260
0.000220
0.000233
0.000252
0.000262
0.000252
0.002057
0.000293
0.000268
0.000272
0.000242
0.000270
0.000267
0.000243
0.002211
0.000448
0.000222
0.000266
0.000265
0.000259
0.000259
0.000248
0.000301
0.000238
0.000268
0.000276
0.000167
0.000055
0.000189
0.000256
0.000231
0.000220
0.000244
0.000263
0.000239
0.000239
0.000234
0.002185
0.000232
0.000276
0.000219
0.000422
0.000232
0.000253
0.000305
0.000258
0.000251
0.000251
0.001967
0.000271
0.000344
0.000363
0.000431
0.000462
0.000248
0.000260
0.000258
0.000252
0.000205
0.000055
0.000209
0.000247
0.000234
0.000254
0.000242
0.000339
0.000209
0.002311
0.000237
0.000242
0.000254
0.000251
0.000241
0.000281
0.000280
0.002120
0.000590
0.000218
0.000259
0.000242
0.000266
0.000257
0.000286
0.000266
0.000261
0.000257
0.000291
0.000252
0.000260
0.000268
0.000193
0.000055
0.001838
0.001424
0.000217
0.000221
0.000244
0.000256
0.000250
0.000291
0.000379
0.000337
0.002184
0.000262
0.000236
0.000263
0.000327
0.000584
0.000276
0.000299
0.000217
0.000255
0.000258
0.000257
0.000263
0.000230
0.000256
0.000265
0.000266
0.000268
0.000356
0.000696
0.000242
0.000056
0.000217
0.000253
0.000244
0.000248
0.000272
0.000243
0.000253
0.000241
0.001573
0.002028
0.000581
0.000273
0.000410
0.000685
0.000362
0.000238
0.000251
0.000253
0.000260
0.000261
0.000261
0.000239
0.000250
0.000271
0.003008
0.000347
0.000227
0.000265
0.000288
0.000251
0.000443
0.000055
0.001930
0.000239
0.000229
0.000233
0.000291
0.000358
0.000428
0.000323
0.000289
0.000221
0.000245
0.000253
0.000251
0.000254
0.000281
0.000238
0.000261
0.000284
0.001822
0.000245
0.000228
0.000256
0.000271
0.000275
0.000274
0.000244
0.001480
0.000336
0.000247
0.000256
0.000185
0.000057
0.000199
0.000228
0.000258
0.000246
0.000230
0.000245
0.000398
0.000271
0.000315
0.000392
0.000233
0.000238
0.000264
0.000332
0.000419
0.000319
0.000233
0.000240
0.000262
0.000424
0.000430
0.000451
0.000220
0.000258
0.000254
0.000253
0.000268
0.000262
0.000268
0.000270
0.000206
0.000056
0.001433
0.000461
0.000205
0.001975
0.000374
0.000438
0.000282
0.000319
0.000224
0.000245
0.000268
0.000246
0.000263
0.000231
0.000264
0.000257
0.000451
0.000312
0.000374
0.000447
0.000288
0.000226
0.000257
0.000270
0.000275
0.000283
0.000248
0.000262
0.000396
0.000437
0.001370
0.000055
0.000201
0.000226
0.002083
0.000328
0.000306
0.000232
0.000259
0.000247
0.000260
0.000260
0.000215
0.000249
0.000264
0.000258
0.000275
0.000337
0.000714
0.001764
0.000226
0.000264
0.000242
0.000265
0.000461
0.000433
0.001500
0.000288
0.000366
0.001922
0.000263
0.000246
0.000198
0.000055
0.000218
0.000231
0.000235
0.000245
0.000226
0.000250
0.000254
0.000286
0.000317
0.000277
0.000372
0.000361
0.000350
0.000291
0.000243
0.000267
0.000260
0.000247
0.000264
0.000247
0.000318
0.000273
0.000271
0.000261
0.000266
0.001509
0.000293
0.000386
0.002074
0.000226
0.000180
0.000056
0.000221
0.000232
0.000240
0.000251
0.000481
0.000211
0.000252
0.000326
0.000367
0.000338
0.000285
0.000211
0.000265
0.000259
0.000269
0.000326
0.000429
0.000427
0.000278
0.000399
0.000520
0.000379
0.001637
0.000226
0.000252
0.002007
0.000319
0.000243
0.000238
0.000294
0.000192
0.000055
0.000212
0.000231
0.000234
0.000243
0.000253
0.000261
0.000256
0.000283
0.000245
0.000293
0.001766
0.000342
0.000384
0.000258
0.000469
0.000386
0.000321
0.001511
0.000256
0.000267
0.002225
0.000452
0.000254
0.000245
0.000262
0.000264
0.000505
0.000224
0.000260
0.000274
0.000198
0.000057
0.000302
0.000394
0.000307
0.000303
0.000215
0.000232
0.000257
0.000252
0.000265
0.000291
0.000231
0.000248
0.000257
0.000271
0.000338
0.000531
0.001253
0.000262
0.000284
0.002018
0.000374
0.000178
0.000222
0.000265
0.000246
0.000282
0.000276
0.000256
0.000251
0.000265
0.000199
0.000057
0.000260
0.000467
0.001943
0.000254
0.000229
0.000249
0.000248
0.000354
0.000475
0.000346
0.001297
0.000378
0.000358
0.002079
0.000222
0.000225
0.000277
0.000271
0.000249
0.000240
0.000289
0.000296
0.000274
0.000290
0.000572
0.000356
0.002233
0.000278
0.000492
0.000563
0.000309
0.000056
0.000208
0.000226
0.000243
0.001970
0.000233
0.000221
0.000244
0.000245
0.000242
0.000259
0.000243
0.000262
0.000298
0.000227
0.000422
0.001500
0.000243
0.000261
0.000248
0.000257
0.000236
0.000259
0.000253
0.000304
0.000335
0.000397
0.000485
0.000242
0.001597
0.000277
0.000153
0.000058
0.000199
0.000218
0.000245
0.000237
0.000261
0.000267
0.000227
0.000245
0.000255
0.000354
0.000404
0.001397
0.000243
0.000222
0.000241
0.000290
0.000232
0.000254
0.000277
0.000518
0.000435
0.000401
0.000221
0.001582
0.000224
0.000265
0.000285
0.000278
0.000265
0.000261
0.000202
0.000056
0.000212
0.000232
0.000284
0.000244
0.000251
0.000248
0.000230
0.000247
0.000280
0.000220
0.000245
0.000263
0.000265
0.001484
0.000356
0.000216
0.000238
0.000267
0.000277
0.000315
0.000365
0.000278
0.000238
0.000266
0.000262
0.000260
0.000261
0.001401
0.000289
0.000236
0.000174
0.000057
0.000206
0.000235
0.000262
0.000258
0.000270
0.000221
0.000246
0.000259
0.000222
0.000262
0.000245
0.000258
0.000224
0.000317
0.000390
0.000346
0.000256
0.000236
0.001625
0.000253
0.000235
0.000263
0.000266
0.000305
0.000409
0.000421
0.000368
0.000271
0.000241
0.001612
0.000162
0.000057
0.000317
0.000357
0.000336
0.000313
0.000230
0.000218
0.000244
0.000270
0.000259
0.000256
0.000225
0.000239
0.001465
0.000371
0.000225
0.000226
0.000238
0.000279
0.000265
0.000255
0.000250
0.000241
0.000258
0.000271
0.000279
0.000361
0.000401
0.000398
0.000280
0.000261
0.000179
0.000054
0.000222
0.000241
0.000408
0.000389
0.000382
0.000248
0.000245
0.000250
0.000251
0.000256
0.000244
0.000222
0.000260
0.000238
0.001266
0.000292
0.000255
0.000237
0.000265
0.000260
0.000247
0.000266
0.000251
0.000262
0.000255
0.000256
0.000322
0.000655
0.000477
0.000232
0.000181
0.000056
0.000211
0.001558
0.000297
0.000301
0.000481
0.000318
0.000215
0.000256
0.000274
0.000243
0.000241
0.000260
0.000269
0.000273
0.000255
0.001538
0.000248
0.000282
0.000264
0.000256
0.000277
0.000233
0.000268
0.000261
0.000266
0.000268
0.000532
0.000267
0.000362
0.000238
0.000177
0.000056
0.000200
0.000252
0.000230
0.001614
0.000439
0.000332
0.000225
0.000236
0.000255
0.000273
0.000281
0.000251
0.000255
0.000252
0.000231
0.000307
0.000415
0.001290
0.000232
0.000232
0.001505
0.000393
0.000524
0.000380
0.000328
0.000220
0.000274
0.000458
0.000245
0.000265
0.000182
0.000055
0.000265
0.000221
0.000240
0.000248
0.000250
0.000272
0.000222
0.000255
0.000251
0.000254
0.000245
0.000270
0.000314
0.000527
0.001618
0.001512
0.000336
0.000511
0.000368
0.000222
0.000230
0.000257
0.000255
0.000263
0.000254
0.000266
0.000257
0.000263
0.001529
0.000335
0.000183
0.000055
0.000235
0.000341
0.000351
0.000335
0.000234
0.000231
0.000243
0.000349
0.000563
0.000233
0.002185
0.000309
0.000739
0.000538
0.000404
0.000252
0.000330
0.000395
0.000326
0.000283
0.000402
0.000259
0.001531
0.000525
0.000214
0.000268
0.000260
0.000249
0.000267
0.000264
0.000200
0.000055
0.000233
0.000247
0.000250
0.000253
0.000243
0.001666
0.000877
0.000999
0.000208
0.000231
0.000276
0.000239
0.000263
0.000257
0.000251
0.000251
0.000254
0.000265
0.000266
0.000280
0.001428
0.000317
0.000253
0.000237
0.000222
0.000276
0.000249
0.000277
0.000268
0.000285
0.001902
0.000056
0.000200
0.000227
0.001544
0.000966
0.000362
0.000280
0.000239
0.000218
0.000251
0.000257
0.000254
0.000242
0.000244
0.001984
0.000472
0.000237
0.000224
0.000266
0.000277
0.000246
0.000189
