0.000119
0.016176
0.005491
0.000302
0.000263
0.000298
0.000322
0.000229
0.000332
0.000279
0.000253
0.000335
0.000527
0.000468
0.000374
0.000364
0.000278
0.000341
0.000355
0.000421
0.000316
0.001909
0.000717
0.000260
0.000240
0.000306
0.000324
0.000300
0.000416
0.000473
0.000473
0.000234
0.000059
0.000206
0.000270
0.000269
0.000294
0.000243
0.000255
0.000276
0.000291
0.000261
0.000275
0.000421
0.000425
0.000325
0.000253
0.000369
0.000352
0.000362
0.000257
0.000256
0.001688
0.000324
0.000252
0.000446
0.000268
0.000265
0.000270
0.000293
0.000292
0.000280
0.000447
0.000307
0.000059
0.000248
0.000256
0.000263
0.000261
0.000249
0.000243
0.000267
0.000252
0.000285
0.001668
0.000229
0.000237
0.000265
0.000272
0.000274
0.000256
0.000261
0.000256
0.000351
0.001795
0.000245
0.000281
0.000440
0.000428
0.000387
0.000245
0.000420
0.000331
0.000481
0.000761
0.000204
0.000059
0.000226
0.000245
0.000247
0.000258
0.000308
0.000242
0.000387
0.000452
0.000403
0.000247
0.000238
0.000259
0.000245
0.000252
0.000255
0.000256
0.000245
0.000266
0.000300
0.000329
0.001665
0.000276
0.000251
0.000418
0.000262
0.000791
0.000627
0.000520
0.000346
0.000231
0.000194
0.000058
0.000219
0.000251
0.000292
0.000211
0.000285
0.000228
0.000323
0.000404
0.001465
0.000224
0.000247
0.000242
0.000256
0.000258
0.000257
0.000307
0.000341
0.000720
0.001384
0.000305
0.000239
0.000411
0.000245
0.000247
0.000255
0.000266
0.000268
0.000265
0.000260
0.000273
0.000196
0.000057
0.000209
0.000242
0.000241
0.000270
0.000238
0.000245
0.000241
0.000249
0.000246
0.000247
0.001623
0.000271
0.000244
0.000230
0.000256
0.000249
0.000246
0.000248
0.000256
0.000271
0.000274
0.001642
0.000289
0.000256
0.000423
0.000252
0.000258
0.000269
0.000258
0.000274
0.000193
0.000057
0.000181
0.000236
0.000246
0.000246
0.000247
0.000245
0.000263
0.000231
0.000267
0.000262
0.000248
0.000259
0.000256
0.000271
0.001629
0.000283
0.000299
0.000210
0.000258
0.000273
0.000269
0.000235
0.000245
0.000269
0.001779
0.000409
0.000327
0.000375
0.000238
0.000280
0.000195
0.000059
0.000191
0.000241
0.000242
0.000270
0.000263
0.000256
0.000281
0.000376
0.000454
0.000398
0.000214
0.000242
0.000254
0.000251
0.001553
0.000543
0.000338
0.000393
0.000309
0.000233
0.000272
0.000293
0.000257
0.001727
0.000516
0.000463
0.000255
0.000243
0.000256
0.000274
0.000168
0.000058
0.000197
0.000228
0.000254
0.000314
0.000281
0.000433
0.000455
0.000216
0.000213
0.000252
0.000261
0.000242
0.000253
0.001759
0.000429
0.000304
0.000221
0.000251
0.000273
0.000292
0.000242
0.000263
0.000271
0.001961
0.000234
0.000391
0.000236
0.000263
0.000268
0.000399
0.000322
0.000057
0.000207
0.000384
0.000366
0.000268
0.000257
0.000247
0.000251
0.000257
0.000242
0.000234
0.000241
0.000246
0.001588
0.000347
0.000281
0.000230
0.000256
0.000246
0.000258
0.000301
0.000278
0.000304
0.000245
0.001804
0.000255
0.000494
0.000255
0.000248
0.000261
0.000272
0.000261
0.000058
0.000352
0.000519
0.000608
0.000214
0.000225
0.000280
0.000229
0.000225
0.000255
0.000249
0.000260
0.001694
0.000255
0.000445
0.000362
0.000218
0.000240
0.000236
0.000262
0.000248
0.000253
0.001854
0.000228
0.000467
0.001870
0.000561
0.000320
0.000247
0.000256
0.000266
0.000184
0.000057
0.000204
0.000242
0.000244
0.000244
0.000258
0.001613
0.000246
0.000246
0.000254
0.000253
0.000240
0.000248
0.000246
0.000256
0.000297
0.000363
0.000655
0.000251
0.000240
0.000271
0.000285
0.000228
0.000243
0.000429
0.000439
0.000318
0.000297
0.000783
0.000205
0.000275
0.000205
0.000056
0.000222
0.000237
0.000254
0.000247
0.000244
0.000234
0.000238
0.000354
0.000480
0.001713
0.000229
0.000234
0.000265
0.000225
0.000259
0.000292
0.000411
0.000483
0.000348
0.000239
0.000256
0.000305
0.000279
0.000254
0.000272
0.000428
0.000342
0.000635
0.000440
0.000447
0.000183
0.000057
0.000189
0.000251
0.000243
0.000239
0.000233
0.000236
0.000249
0.000261
0.000230
0.000289
0.000357
0.000415
0.001396
0.000248
0.000238
0.000245
0.000257
0.000248
0.000250
0.000251
0.000326
0.000358
0.000457
0.000268
0.000269
0.000254
0.000253
0.000277
0.000262
0.000266
0.000374
0.000056
0.000215
0.000231
0.000233
0.000306
0.000487
0.000435
0.000236
0.000266
0.000234
0.000258
0.000260
0.000228
0.000320
0.000224
0.000242
0.000489
0.000408
0.001639
0.000291
0.000221
0.000261
0.000269
0.000254
0.000237
0.000271
0.000520
0.000392
0.000331
0.000419
0.000249
0.000191
0.000056
0.000238
0.000428
0.000232
0.000221
0.000285
0.000223
0.000249
0.000606
0.000394
0.000251
0.000239
0.000275
0.000264
0.000237
0.000525
0.000333
0.000222
0.000254
0.000415
0.001620
0.000270
0.000240
0.000522
0.000257
0.000286
0.000270
0.000267
0.000304
0.000579
0.000404
0.000237
0.000057
0.000217
0.000231
0.000236
0.000243
0.000420
0.000312
0.000290
0.000219
0.000371
0.000520
0.000393
0.000218
0.000235
0.000253
0.000251
0.000266
0.000259
0.000249
0.000233
0.000355
0.000278
0.000409
0.001793
0.000225
0.000259
0.000252
0.000278
0.000344
0.000411
0.000715
0.000429
0.000057
0.000234
0.000333
0.000316
0.000410
0.000389
0.000197
0.000262
0.000256
0.000576
0.000423
0.000229
0.000234
0.000238
0.000270
0.000262
0.000234
0.000255
0.000273
0.000269
0.000259
0.000262
0.000414
0.000665
0.001327
0.000330
0.000432
0.000420
0.000236
0.000397
0.000474
0.000320
0.000057
0.000248
0.000370
0.000283
0.000199
0.000235
0.000244
0.000417
0.000236
0.000238
0.000344
0.000487
0.000384
0.000255
0.000260
0.000263
0.000250
0.000352
0.000397
0.000339
0.000258
0.000240
0.000401
0.000603
0.001694
0.000237
0.000420
0.000314
0.000228
0.000244
0.000461
0.000305
0.000057
0.000190
0.000226
0.000245
0.000259
0.000249
0.000233
0.000255
0.000323
0.000455
0.000314
0.000377
0.000378
0.000302
0.000584
0.000243
0.000242
0.000280
0.000261
0.000231
0.000341
0.000224
0.000248
0.000275
0.000409
0.000472
0.001676
0.000266
0.000243
0.000248
0.000269
0.000187
0.000057
0.000350
0.000430
0.000355
0.000197
0.000249
0.000243
0.000254
0.000245
0.000270
0.000233
0.000224
0.000263
0.000411
0.000513
0.000452
0.000227
0.000248
0.000257
0.000333
0.000385
0.000381
0.000334
0.000360
0.000395
0.000256
0.000248
0.000268
0.000276
0.001785
0.000238
0.000212
0.000056
0.000206
0.000220
0.000258
0.000291
0.000328
0.000539
0.000320
0.000224
0.000284
0.000236
0.000249
0.000250
0.000517
0.000446
0.000487
0.000270
0.000277
0.000253
0.000415
0.000470
0.000363
0.000453
0.000424
0.000463
0.000236
0.000249
0.000270
0.000240
0.000264
0.001714
0.000321
0.000057
0.000295
0.000319
0.000218
0.000230
0.000275
0.000235
0.000231
0.000491
0.000381
0.000305
0.000297
0.000282
0.000340
0.000644
0.000340
0.000235
0.000259
0.000249
0.000255
0.000266
0.000277
0.000261
0.000239
0.000264
0.000329
0.000356
0.000400
0.000351
0.000235
0.000275
0.000176
0.000056
0.000454
0.000289
0.000459
0.000262
0.000203
0.000252
0.000248
0.000252
0.000242
0.000221
0.000249
0.000279
0.000302
0.000432
0.000375
0.000562
0.000298
0.000317
0.000373
0.000353
0.000292
0.000242
0.000248
0.000262
0.001742
0.000253
0.001733
0.000928
0.000411
0.000316
0.000175
0.000057
0.000210
0.000239
0.000235
0.000260
0.000252
0.000241
0.000252
0.000249
0.000242
0.000340
0.000327
0.000477
0.000297
0.000387
0.000268
0.000235
0.000244
0.000301
0.000213
0.000260
0.000249
0.000264
0.001809
0.000244
0.000253
0.000264
0.000297
0.000246
0.001869
0.000543
0.000266
0.000056
0.000208
0.000214
0.000241
0.000240
0.000269
0.000237
0.000243
0.000252
0.000261
0.000357
0.000582
0.000313
0.000379
0.000216
0.000250
0.000255
0.000325
0.000437
0.000365
0.000255
0.001775
0.000258
0.000250
0.000254
0.000276
0.000253
0.000244
0.000253
0.000322
0.000301
0.000374
0.000056
0.000253
0.000212
0.000247
0.000272
0.000239
0.000242
0.000254
0.000254
0.000241
0.000260
0.000237
0.000308
0.000362
0.000345
0.000370
0.000303
0.000436
0.000236
0.000251
0.000261
0.000274
0.000248
0.000272
0.000253
0.000282
0.001776
0.000257
0.000245
0.000265
0.000238
0.000200
0.000056
0.000307
0.000315
0.000237
0.000227
0.000238
0.000236
0.000240
0.000275
0.000225
0.000225
0.000237
0.000260
0.000264
0.000370
0.000389
0.000402
0.000264
0.000225
0.000254
0.000252
0.000266
0.000258
0.000246
0.000272
0.000256
0.000259
0.000313
0.001669
0.000225
0.000237
0.000190
0.000056
0.000213
0.000224
0.000253
0.000257
0.000340
0.000339
0.000516
0.000220
0.000224
0.000258
0.000268
0.000230
0.000245
0.000255
0.000275
0.000245
0.000245
0.000254
0.000255
0.000260
0.000269
0.000269
0.000245
0.000237
0.000243
0.000282
0.000275
0.000263
0.000254
0.000263
0.000192
0.000057
0.000240
0.000211
0.000257
0.000277
0.000246
0.000219
0.000244
0.000260
0.000280
0.000249
0.000226
0.000245
0.000256
0.000252
0.000288
0.000240
0.000252
0.000253
0.000302
0.000252
0.000273
0.000320
0.000266
0.000223
0.000302
0.000252
0.000265
0.000250
0.000284
0.000388
0.000679
0.000057
0.000224
0.000287
0.000227
0.000227
0.000238
0.000252
0.000239
0.000252
0.000248
0.000244
0.000284
0.000349
0.000417
0.000537
0.001499
0.000215
0.000491
0.000220
0.000301
0.000411
0.000508
0.000318
0.000232
0.000277
0.000243
0.000263
0.000283
0.000254
0.000329
0.000257
0.000166
0.000057
0.000348
0.000421
0.000329
0.000326
0.000224
0.000282
0.000221
0.000242
0.000235
0.000245
0.000252
0.000259
0.000230
0.000295
0.000346
0.000548
0.000324
0.001801
0.000232
0.000249
0.000389
0.000397
0.000452
0.000269
0.000318
0.000326
0.000296
0.000226
0.000233
0.000251
0.000197
0.000057
0.000223
0.000230
0.000240
0.000313
0.000323
0.000492
0.000305
0.000254
0.000254
0.000217
0.000249
0.000268
0.000268
0.000262
0.000241
0.000258
0.000311
0.000485
0.000331
0.000436
0.000239
0.001749
0.000325
0.000487
0.000605
0.000376
0.000330
0.000231
0.000247
0.000266
0.000450
0.000057
0.000214
0.000274
0.000215
0.000351
0.000329
0.000561
0.000294
0.000240
0.000231
0.000285
0.000247
0.000259
0.000251
0.000299
0.000306
0.000241
0.000232
0.000340
0.000505
0.000348
0.000496
0.001842
0.000253
0.000440
0.000504
0.000358
0.000229
0.000259
0.000300
0.000252
0.000202
0.000056
0.000212
0.000330
0.000362
0.000292
0.000448
0.000305
0.000363
0.000206
0.000242
0.000257
0.000272
0.000224
0.000251
0.000252
0.000245
0.000267
0.000334
0.000352
0.000527
0.000345
0.000305
0.000238
0.000255
0.001711
0.000432
0.000484
0.000702
0.000234
0.000269
0.000306
0.000165
0.000056
0.000203
0.000233
0.000353
0.000229
0.000289
0.000307
0.000453
0.000315
0.000261
0.000506
0.000219
0.000260
0.000259
0.000276
0.000275
0.000265
0.000213
0.000326
0.000527
0.000410
0.000257
0.000233
0.000252
0.000254
0.000258
0.000272
0.000235
0.000254
0.000268
0.000309
0.000180
0.000057
0.000267
0.000350
0.000248
0.000228
0.000251
0.000257
0.000242
0.000279
0.000250
0.000245
0.000280
0.000332
0.000412
0.000412
0.000343
0.000298
0.000216
0.000220
0.000260
0.000269
0.000283
0.000271
0.000228
0.000259
0.000283
0.000307
0.000412
0.000380
0.000357
0.000239
0.000173
0.000057
0.000208
0.000219
0.000282
0.000241
0.000244
0.000266
0.000265
0.000233
0.000490
0.000215
0.000256
0.000262
0.000235
0.000277
0.000258
0.000302
0.000240
0.000346
0.000209
0.000247
0.000264
0.000267
0.000258
0.000264
0.000272
0.000262
0.000263
0.000253
0.000284
0.000484
0.000149
0.000056
0.000215
0.000240
0.000248
0.000290
0.000200
0.000246
0.000371
0.000401
0.000237
0.000232
0.000252
0.000255
0.000234
0.000281
0.000451
0.001759
0.000231
0.000266
0.000288
0.000346
0.000384
0.000367
0.000520
0.000265
0.000459
0.000312
0.000240
0.000273
0.000272
0.000275
0.001386
0.000056
0.000396
0.000221
0.000262
0.000204
0.000240
0.000252
0.000235
0.000253
0.000242
0.000271
0.000253
0.000254
0.000252
0.000263
0.000546
0.001653
0.000246
0.000220
0.000272
0.000244
0.000232
0.000285
0.000350
0.000415
0.000287
0.000328
0.000223
0.000267
0.000275
0.000265
0.000195
0.000056
0.001193
0.000550
0.000305
0.000279
0.000239
0.000223
0.000238
0.000238
0.000492
0.000210
0.000241
0.000273
0.000322
0.000527
0.000377
0.000353
0.000267
0.000229
0.000323
0.000361
0.000268
0.000259
0.000268
0.000247
0.000267
0.000579
0.000502
0.000309
0.000260
0.000269
0.000170
0.000058
0.000216
0.000222
0.000242
0.000248
0.001483
0.000284
0.000225
0.000251
0.000261
0.000230
0.000252
0.000252
0.000245
0.000263
0.000271
0.000258
0.000471
0.000637
0.000265
0.001754
0.000246
0.000285
0.000280
0.000422
0.000621
0.000356
0.000253
0.000249
0.000258
0.000272
0.000200
0.000057
0.000244
0.000235
0.000234
0.000331
0.001233
0.000235
0.000267
0.000255
0.000245
0.000228
0.000242
0.000256
0.000274
0.000262
0.000233
0.000262
0.000530
0.000415
0.000293
0.000259
0.000266
0.000271
0.000246
0.000240
0.000279
0.000271
0.000240
0.000283
0.000262
0.000349
0.000559
0.000055
0.000224
0.000241
0.000239
0.000257
0.000268
0.000237
0.000244
0.000254
0.000287
0.000261
0.001413
0.000226
0.000236
0.000254
0.000250
0.000236
0.000298
0.000239
0.000281
0.000240
0.000269
0.000484
0.000472
0.000377
0.000233
0.000274
0.001760
0.000245
0.000266
0.000343
0.000425
0.000056
0.000186
0.000401
0.000450
0.000504
0.000514
0.000535
0.001510
0.000411
0.000520
0.000648
0.000556
0.000784
0.000469
0.000564
0.000582
0.001885
0.000430
0.000415
0.000400
0.000317
0.000224
0.000264
0.000294
0.000260
0.000262
0.000292
0.000295
0.000282
0.000258
0.000291
0.001362
0.000056
0.000194
0.000233
0.000250
0.000240
0.000254
0.000255
0.000231
0.000245
0.000251
0.000254
0.000241
0.000247
0.000251
0.000252
0.000269
0.000270
0.001806
0.000254
0.000264
0.000248
0.000277
0.000252
0.000276
0.000352
0.000318
0.000404
0.000368
0.000248
0.000247
0.000277
0.000208
0.000056
0.000197
0.001362
0.000330
0.000272
0.000252
0.000234
0.000244
0.000231
0.000243
0.000232
0.000225
0.000240
0.000247
0.000520
0.000350
0.000313
0.000243
0.001821
0.000349
0.000225
0.000252
0.000282
0.000241
0.000261
0.000280
0.000282
0.000272
0.000262
0.000258
0.000345
0.000176
0.000056
0.000220
0.000237
0.000252
0.001446
0.000213
0.000241
0.000259
0.000241
0.000237
0.000272
0.000254
0.000240
0.000249
0.000278
0.000239
0.000258
0.000258
0.000266
0.000268
0.000255
0.000255
0.001789
0.000269
0.001757
0.000266
0.000245
0.000259
0.000275
0.000268
0.000274
0.000203
0.000056
0.000210
0.000237
0.001345
0.000225
0.000254
0.000254
0.000252
0.000255
0.000246
0.000251
0.000252
0.000239
0.000257
0.000264
0.000278
0.000246
0.000259
0.000293
0.000290
0.000228
0.001882
0.000222
0.001836
0.000236
0.000273
0.000276
0.000224
0.000250
0.000253
0.000272
0.000199
0.000057
0.001451
0.000224
0.000227
0.000249
0.000234
0.000236
0.000373
0.000289
0.000244
0.000244
0.000253
0.000259
0.000335
0.000302
0.000402
0.000257
0.000228
0.000276
0.000258
0.000248
0.000268
0.000342
0.000232
0.000250
0.000272
0.000275
0.000273
0.000373
0.000618
0.000353
0.000189
0.000057
0.000210
0.000246
0.000259
0.000309
0.000370
0.000243
0.001712
0.000287
0.000278
0.000282
0.000247
0.000273
0.000266
0.000265
0.000298
0.000318
0.000333
0.000639
0.000320
0.000257
0.000290
0.000278
0.000259
0.000269
0.000327
0.000267
0.000270
0.000252
0.000254
0.000310
0.000422
0.000057
0.000273
0.000459
0.000262
0.000266
0.000252
0.000218
0.000226
0.000248
0.000265
0.000272
0.001537
0.000191
0.000219
0.000250
0.000244
0.000286
0.000284
0.000239
0.000254
0.000270
0.000259
0.000396
0.000491
0.000342
0.000265
0.000288
0.000269
0.000253
0.000234
0.000313
0.000174
0.000057
0.000200
0.000231
0.000376
0.000390
0.000381
0.000243
0.000220
0.000250
0.000250
0.000250
0.000235
0.000253
0.000259
0.000267
0.000237
0.000236
0.000391
0.001226
0.000240
0.000242
0.000282
0.000240
0.000353
0.000423
0.000253
0.000381
0.000518
0.000353
0.000372
0.000244
0.000183
0.000057
0.000215
0.000246
0.000260
0.000264
0.000263
0.000236
0.000363
0.000390
0.000431
0.000291
0.000351
0.000390
0.000394
0.000364
0.000258
0.000235
0.000245
0.000257
0.000446
0.000439
0.001245
0.000220
0.000274
0.000271
0.000236
0.000236
0.000269
0.000360
0.000366
0.000465
0.000219
0.000057
0.000217
0.000243
0.000259
0.000243
0.000237
0.000250
0.000233
0.000269
0.000299
0.000440
0.000350
0.000354
0.000263
0.000227
0.000242
0.000262
0.000248
0.000260
0.000268
0.000268
0.000421
0.000281
0.000373
0.000466
0.000245
0.000251
0.000285
0.000253
0.000251
0.000337
0.000161
0.000057
0.000313
0.000312
0.000286
0.000448
0.000408
0.000358
0.000240
0.000236
0.000254
0.000294
0.000230
0.000265
0.000229
0.000253
0.000248
0.000225
0.000265
0.000356
0.000541
0.000336
0.000214
0.000259
0.000242
0.000245
0.000274
0.000273
0.000272
0.000273
0.000267
0.000268
0.000255
0.000056
0.000361
0.000251
0.000234
0.000271
0.000227
0.000245
0.000245
0.000257
0.000260
0.000258
0.000251
0.000234
0.000293
0.000512
0.000413
0.000308
0.000219
0.000252
0.000255
0.000262
0.000258
0.000266
0.000253
0.000271
0.000270
0.000334
0.000411
0.000578
0.000410
0.000246
0.000175
0.000058
0.000377
0.000194
0.000237
0.000244
0.000253
0.000246
0.000242
0.000247
0.000260
0.000251
0.000224
0.000343
0.000175
0.000220
0.000266
0.000249
0.000252
0.000265
0.000297
0.000239
0.000259
0.000261
0.000263
0.000262
0.000264
0.000243
0.000260
0.000282
0.000253
0.000299
0.000183
0.000057
0.000201
0.000230
0.000247
0.000246
0.000231
0.000262
0.000260
0.000240
0.000258
0.000271
0.000237
0.000228
0.000265
0.000397
0.000249
0.000299
0.000241
0.000264
0.000257
0.000282
0.000268
0.000238
0.000243
0.000254
0.000266
0.000280
0.000254
0.000245
0.000297
0.000241
0.000206
0.000056
0.000196
0.000360
0.000368
0.000279
0.000296
0.000250
0.000277
0.000255
0.000226
0.000245
0.000281
0.000239
0.000235
0.000249
0.000249
0.000283
0.000242
0.000273
0.000240
0.000264
0.000277
0.000257
0.000281
0.000259
0.000290
0.000230
0.000275
0.000254
0.000270
0.000261
0.000195
0.000056
0.000205
0.000234
0.000262
0.000268
0.000246
0.000449
0.000208
0.000272
0.000249
0.000489
0.000449
0.000290
0.000228
0.000251
0.000269
0.000266
0.000240
0.000269
0.000257
0.000275
0.000259
0.000258
0.000258
0.000292
0.000463
0.000571
0.000254
0.000300
0.000263
0.000265
0.000187
0.000056
0.000215
0.000217
0.000248
0.000252
0.000454
0.000487
0.000343
0.000384
0.000204
0.000251
0.000248
0.000258
0.000247
0.000247
0.000260
0.000269
0.000271
0.000263
0.000646
0.000338
0.000317
0.000247
0.000255
0.000283
0.000281
0.000253
0.000266
0.000283
0.000237
0.000317
0.000298
0.000057
0.000331
0.000212
0.000237
0.000237
0.000254
0.000264
0.000216
0.000248
0.000240
0.000261
0.000247
0.000249
0.000250
0.000359
0.000584
0.000400
0.000246
0.000264
0.000258
0.000246
0.000267
0.000289
0.000474
0.000220
0.000265
0.000588
0.000446
0.000452
0.000264
0.000252
0.000185
0.000056
0.000211
0.000231
0.000243
0.000243
0.000255
0.000257
0.000310
0.000437
0.000576
0.000427
0.000217
0.000261
0.000273
0.000278
0.000255
0.000249
0.000232
0.000252
0.000254
0.000325
0.000413
0.000652
0.000366
0.000254
0.000350
0.000379
0.000495
0.000231
0.000274
0.000514
0.000267
0.000056
0.000264
0.000231
0.000439
0.000206
0.000245
0.000255
0.000263
0.000256
0.000230
0.000244
0.000257
0.000416
0.000364
0.000340
0.000231
0.000243
0.000265
0.000262
0.000249
0.000276
0.000298
0.000236
0.000246
0.000272
0.000310
0.000494
0.000478
0.000239
0.000259
0.000270
0.000199
0.000057
0.000205
0.000253
0.000228
0.000245
0.000247
0.000251
0.000390
0.000458
0.000354
0.000270
0.000378
0.000231
0.000245
0.000267
0.000251
0.000245
0.000259
0.000255
0.000279
0.000451
0.000449
0.000321
0.000478
0.000268
0.000379
0.000422
0.000383
0.000250
0.000255
0.000353
0.000372
0.000057
0.000247
0.000269
0.000226
0.000253
0.000278
0.000236
0.000270
0.000222
0.000273
0.000238
0.000250
0.000418
0.000409
0.000495
0.000220
0.000229
0.000267
0.000262
0.000268
0.000233
0.000247
0.000253
0.000264
0.000277
0.000279
0.000327
0.000503
0.000466
0.000238
0.000283
0.000191
0.000056
0.000202
0.000247
0.000273
0.000248
0.000244
0.000334
0.000516
0.000460
0.000496
0.000552
0.000260
0.000219
0.000242
0.000260
0.000247
0.000266
0.000275
0.000289
0.000503
0.000336
0.001555
0.000307
0.000275
0.000262
0.000284
0.000266
0.000440
0.000340
0.000366
0.000328
0.000174
0.000057
0.000197
0.000226
0.000248
0.000263
0.000234
0.000247
0.000302
0.000223
0.000245
0.000322
0.000328
0.000386
0.000280
0.000323
0.000394
0.000353
0.000245
0.000248
0.000271
0.000255
0.000241
0.000251
0.000310
0.000222
0.000328
0.000432
0.000469
0.000251
0.000254
0.000263
0.000190
0.000057
0.000213
0.000249
0.000258
0.000253
0.000241
0.000234
0.000476
0.000209
0.000254
0.000235
0.000249
0.000249
0.000264
0.000251
0.000259
0.000258
0.000265
0.000294
0.000256
0.000245
0.000280
0.000269
0.000289
0.000256
0.000252
0.000292
0.000261
0.000262
0.000264
0.000274
0.000172
0.000057
0.000221
0.000256
0.000280
0.000433
0.000364
0.000251
0.000240
0.000252
0.000261
0.000243
0.000251
0.000254
0.000266
0.000262
0.000238
0.000248
0.000260
0.000248
0.000270
0.000366
0.000476
0.000353
0.000225
0.000263
0.000263
0.000254
0.000267
0.000256
0.000270
0.000281
0.000202
0.000056
0.000302
0.000361
0.000460
0.000204
0.000253
0.000262
0.000408
0.000224
0.000228
0.000257
0.000252
0.000288
0.000349
0.000527
0.001787
0.000249
0.000245
0.000245
0.000282
0.000239
0.000355
0.000512
0.000511
0.000318
0.000228
0.000261
0.000280
0.000423
0.000274
0.000281
0.000162
0.000056
0.000169
0.000366
0.000352
0.000305
0.000502
0.000199
0.000249
0.000244
0.000247
0.000242
0.000260
0.000245
0.000268
0.000339
0.000378
0.000469
0.000235
0.000244
0.000264
0.000259
0.000258
0.000322
0.000230
0.000283
0.000277
0.000493
0.000460
0.000446
0.000409
0.000242
0.000214
0.000056
0.000217
0.000234
0.000256
0.000235
0.000243
0.000253
0.000265
0.000295
0.000382
0.000318
0.000428
0.000348
0.000232
0.000242
0.000265
0.000288
0.000299
0.000235
0.000274
0.000275
0.000238
0.000362
0.000384
0.000405
0.000279
0.000261
0.000263
0.000450
0.000401
0.000305
0.000187
0.000057
0.000209
0.000306
0.000258
0.000409
0.000404
0.000205
0.000239
0.000268
0.000245
0.000267
0.000249
0.000251
0.000229
0.000258
0.000256
0.000302
0.000413
0.000345
0.000290
0.000346
0.000509
0.000206
0.000286
0.000276
0.000294
0.000290
0.000251
0.000276
0.000496
0.000424
0.000242
0.000057
0.000212
0.000227
0.000252
0.000246
0.000240
0.000481
0.000215
0.000251
0.000268
0.000346
0.000463
0.000602
0.000201
0.000249
0.000240
0.000253
0.000254
0.000273
0.000235
0.000249
0.000289
0.000237
0.000445
0.000398
0.000294
0.000404
0.000304
0.000315
0.000304
0.000258
0.000185
0.000057
0.000211
0.000241
0.000267
0.000470
0.000408
0.000208
0.000261
0.000230
0.000243
0.000260
0.000267
0.000244
0.000266
0.000243
0.000245
0.000265
0.000241
0.000247
0.000264
0.000419
0.000521
0.000348
0.000225
0.000247
0.000297
0.000257
0.000263
0.000257
0.000266
0.000264
0.000201
0.000056
0.000240
0.000388
0.000476
0.000247
0.000219
0.000251
0.000334
0.000441
0.000291
0.000213
0.000236
0.000274
0.000264
0.000480
0.000397
0.000285
0.000244
0.000229
0.000253
0.000266
0.000270
0.000262
0.000262
0.000278
0.000263
0.000339
0.000376
0.000449
0.000252
0.000237
0.000196
0.000056
0.000238
0.000237
0.000250
0.000254
0.000252
0.000260
0.000227
0.000277
0.000249
0.000232
0.000267
0.000240
0.000291
0.001432
0.000220
0.000253
0.000266
0.000242
0.000279
0.000271
0.000261
0.000242
0.000271
0.000260
0.000268
0.000262
0.000274
0.000271
0.000268
0.000260
0.000197
0.000057
0.000182
0.000222
0.000258
0.000268
0.000224
0.000241
0.000259
0.000256
0.000229
0.000246
0.000252
0.000264
0.000274
0.000233
0.000254
0.000259
0.000252
0.000259
0.000275
0.000250
0.000251
0.000265
0.000246
0.000253
0.001291
0.000275
0.000600
0.000369
0.000371
0.000240
0.000195
0.000056
0.000213
0.000236
0.000244
0.000246
0.000429
0.000226
0.000245
0.000236
0.000252
0.000353
0.000545
0.000250
0.000231
0.000242
0.000264
0.000254
0.000256
0.000264
0.000248
0.000273
0.000247
0.000252
0.000262
0.000412
0.000526
0.000454
0.000216
0.000267
0.001384
0.000232
0.000182
0.000057
0.000294
0.000415
0.000328
0.000271
0.000226
0.000222
0.000240
0.000245
0.000260
0.000253
0.000265
0.000250
0.000292
0.000284
0.000532
0.000366
0.000339
0.000220
0.000251
0.000259
0.000265
0.000284
0.000249
0.000265
0.000289
0.000243
0.000363
0.000512
0.000484
0.000274
0.000146
0.000056
0.000203
0.000222
0.001278
0.000412
0.000370
0.000376
0.000391
0.000489
0.000264
0.000342
0.000228
0.000230
0.000262
0.000253
0.000246
0.000267
0.000353
0.000587
0.000302
0.000359
0.000266
0.000234
0.000267
0.000500
0.000229
0.000267
0.000255
0.000283
0.000288
0.000703
0.000164
0.000057
0.000375
0.000308
0.000239
0.001409
0.000369
0.000464
0.000310
0.000242
0.000252
0.000253
0.000226
0.000239
0.000245
0.000273
0.000252
0.000257
0.000237
0.000272
0.000388
0.000430
0.000427
0.000236
0.000259
0.000261
0.000258
0.000274
0.000269
0.000238
0.000261
0.000280
0.000259
0.000059
0.000374
0.000336
0.000218
0.000242
0.000255
0.000240
0.000270
0.000231
0.000234
0.000227
0.001461
0.000414
0.000284
0.000234
0.000236
0.000255
0.000273
0.000263
0.000232
0.000307
0.000243
0.000250
0.000265
0.000479
0.000431
0.000381
0.000227
0.000270
0.000274
0.000275
0.000181
0.000058
0.000204
0.000401
0.000221
0.000231
0.000441
0.000381
0.000364
0.000290
0.000466
0.000208
0.000232
0.000249
0.000263
0.000264
0.000260
0.001409
0.000364
0.000300
0.000230
0.000267
0.000295
0.000233
0.000255
0.000249
0.000267
0.000268
0.000487
0.000410
0.000288
0.000267
0.000165
0.000056
0.000220
0.000232
0.000257
0.000241
0.000225
0.000261
0.000243
0.000252
0.000286
0.000343
0.000521
0.000228
0.000234
0.000255
0.000249
0.000274
0.000270
0.000260
0.000268
0.000226
0.000266
0.000286
0.001277
0.000253
0.000268
0.000240
0.000262
0.000265
0.000254
0.000271
0.000183
0.000056
0.000273
0.000362
0.000282
0.000358
0.000249
0.000229
0.000261
0.000288
0.000241
0.000261
0.000235
0.000268
0.000241
0.000252
0.000274
0.000241
0.000268
0.000271
0.000262
0.000249
0.000257
0.000268
0.000268
0.000280
0.000287
0.000268
0.000265
0.000264
0.000255
0.000452
0.001365
0.000058
0.000206
0.000251
0.000217
0.000265
0.000233
0.000262
0.000243
0.000225
0.000245
0.000250
0.000306
0.000234
0.000245
0.000240
0.000276
0.000221
0.001723
0.000269
0.000238
0.000262
0.000237
0.000265
0.000275
0.000257
0.000299
0.000226
0.000272
0.000285
0.000261
0.000262
0.000219
0.000056
0.000282
0.000353
0.001282
0.000223
0.000239
0.000243
0.000252
0.000251
0.000278
0.000237
0.000235
0.000388
0.000364
0.000438
0.000262
0.000230
0.000270
0.000240
0.000257
0.000259
0.000245
0.000287
0.000252
0.000282
0.000261
0.000435
0.000343
0.000344
0.000322
0.000239
0.000202
0.000059
0.000210
0.000252
0.000243
0.000247
0.000280
0.000195
0.000243
0.000267
0.000406
0.001353
0.000249
0.000213
0.000252
0.000275
0.000245
0.000297
0.000233
0.000251
0.000319
0.000426
0.000371
0.000251
0.000243
0.000252
0.000290
0.000264
0.000268
0.000296
0.000263
0.000299
0.000174
0.000056
0.000279
0.000320
0.000428
0.000216
0.000241
0.000228
0.000270
0.000258
0.000263
0.000248
0.000226
0.000258
0.000440
0.000503
0.000466
0.001462
0.000240
0.000283
0.000321
0.000351
0.000524
0.000421
0.000627
0.000195
0.000236
0.000260
0.000269
0.000275
0.000264
0.000273
0.000200
0.000057
0.000196
0.000266
0.000508
0.000527
0.000240
0.000231
0.000253
0.000237
0.000254
0.000258
0.000233
0.000270
0.000275
0.000227
0.000265
0.000328
0.000310
0.000477
0.000329
0.001336
0.000268
0.000256
0.000248
0.000263
0.000421
0.000488
0.000389
0.000247
0.000268
0.000274
0.000187
0.000056
0.000207
0.000237
0.000244
0.000266
0.000226
0.000299
0.000495
0.000400
0.000284
0.000227
0.000239
0.000259
0.000273
0.000290
0.000240
0.000251
0.000268
0.000252
0.000281
0.000332
0.000395
0.000457
0.000293
0.001364
0.000395
0.000240
0.000265
0.000490
0.000421
0.000362
0.000244
0.000057
0.000208
0.000229
0.000246
0.000248
0.000269
0.000236
0.001685
0.000235
0.000219
0.000244
0.000253
0.000247
0.000249
0.000327
0.000342
0.000271
0.000269
0.000283
0.000499
0.000427
0.000307
0.000288
0.000243
0.000247
0.001487
0.000337
0.000411
0.000471
0.000322
0.000304
0.000172
0.000057
0.000228
0.000240
0.000259
0.000255
0.000246
0.000265
0.001697
0.000247
0.000232
0.000268
0.000322
0.000400
0.001461
0.000392
0.000355
0.000240
0.000253
0.000246
0.000263
0.000274
0.001529
0.000598
0.000361
0.000297
0.000234
0.000257
0.000261
0.000284
0.000243
0.000250
0.000199
0.000057
0.000206
0.000242
0.000267
0.000244
0.000269
0.000295
0.000256
0.000261
0.000248
0.000248
0.000263
0.000241
0.000288
0.000236
0.000275
0.001470
0.000286
0.000235
0.000266
0.000272
0.000276
0.000259
0.000418
0.001279
0.000283
0.000232
0.000268
0.000254
0.000400
0.000242
0.000200
0.000056
0.000207
0.000249
0.000218
0.000247
0.000237
0.000232
0.000234
0.001689
0.000253
0.000232
0.000354
0.000286
0.000209
0.000224
0.000252
0.001382
0.000240
0.000263
0.000259
0.000253
0.000261
0.000350
0.000287
0.001297
0.000270
0.000286
0.000227
0.000267
0.001382
0.000282
0.000204
0.000057
0.000304
0.000294
0.000215
0.000237
0.000268
0.000221
0.000292
0.000245
0.000263
0.000246
0.000263
0.000257
0.000261
0.000243
0.000313
0.001516
0.000232
0.000267
0.000247
0.000248
0.000309
0.000240
0.000248
0.001503
0.000353
0.000240
0.000266
0.001274
0.000263
0.000249
0.000238
0.000057
0.000218
0.000424
0.000317
0.000216
0.000233
0.000240
0.000268
0.000251
0.000268
0.000272
0.000235
0.000255
0.000262
0.000280
0.000418
0.001195
0.000254
0.000239
0.000268
0.000276
0.000226
0.000243
0.000253
0.000332
0.001278
0.000246
0.000254
0.000245
0.000257
0.001335
0.000352
0.000056
0.000289
0.000325
0.000198
0.000228
0.000239
0.000261
0.000236
0.000254
0.000299
0.000230
0.000242
0.000249
0.000245
0.000399
0.000338
0.001472
0.000228
0.000247
0.000304
0.000513
0.000288
0.001488
0.000315
0.000241
0.000232
0.000262
0.000253
0.001299
0.000351
0.000441
0.000396
0.000057
0.000206
0.000248
0.000253
0.000254
0.000280
0.000236
0.000266
0.000263
0.000251
0.000284
0.000343
0.000393
0.001352
0.000229
0.000271
0.000266
0.000280
0.000218
0.000251
0.000239
0.000336
0.001257
0.000260
0.000237
0.000252
0.000254
0.001560
0.000364
0.000488
0.000218
0.000200
0.000057
0.000220
0.000221
0.000246
0.000244
0.000247
0.000263
0.000243
0.000277
0.000436
0.000460
0.000263
0.001503
0.000216
0.000238
0.000263
0.000251
0.000270
0.000277
0.001700
0.000241
0.000389
0.000341
0.001334
0.000331
0.000303
0.000312
0.000244
0.000289
0.000245
0.000272
0.000188
0.000057
0.000218
0.000237
0.000330
0.000205
0.000368
0.000526
0.000288
0.000289
0.001475
0.000237
0.000376
0.000270
0.000224
0.000302
0.000435
0.001278
0.000259
0.000239
0.000246
0.000260
0.001565
0.000351
0.000279
0.000280
0.000254
0.000262
0.000431
0.000337
0.000241
0.000254
0.000261
0.000056
0.000250
0.000407
0.000287
0.000269
0.000222
0.001528
0.000212
0.000258
0.000266
0.000269
0.000267
0.000242
0.000343
0.001447
0.000251
0.000227
0.000433
0.001196
0.000328
0.000457
0.000385
0.000264
0.000236
0.000242
0.000296
0.000222
0.000458
0.000226
0.000263
0.000279
0.000202
0.000056
0.000220
0.000380
0.000242
0.000340
0.001321
0.000278
0.000331
0.000231
0.000224
0.000247
0.000249
0.000436
0.001376
0.000255
0.000236
0.000242
0.001392
0.000288
0.000423
0.000388
0.000410
0.000232
0.000258
0.000242
0.000267
0.000291
0.000252
0.000265
0.000267
0.000254
0.000208
0.000057
0.000252
0.000312
0.001501
0.000207
0.000278
0.000304
0.000217
0.000246
0.000266
0.000347
0.001428
0.000216
0.000251
0.000263
0.000260
0.001270
0.000647
0.000370
0.000287
0.000408
0.000307
0.000246
0.000267
0.000260
0.000267
0.000288
0.000275
0.000310
0.000444
0.000409
0.001378
0.000058
0.000188
0.000249
0.000242
0.000221
0.000273
0.000369
0.000542
0.001259
0.000248
0.000237
0.000241
0.001442
0.000471
0.000289
0.000213
0.000434
0.000234
0.000236
0.000270
0.000290
0.000245
0.000256
0.000281
0.000256
0.000247
0.000312
0.000399
0.000490
0.001498
0.000234
0.000190
0.000058
0.000216
0.000253
0.000504
0.000382
0.001242
0.000324
0.000204
0.000261
0.000245
0.000255
0.000250
0.000276
0.000359
0.000528
0.000287
0.000240
0.000254
0.000277
0.000238
0.000308
0.000239
0.000259
0.000255
0.000269
0.000254
0.000474
0.000416
0.000308
0.000334
0.001406
0.000175
0.000059
0.000201
0.000237
0.000249
0.000492
0.000336
0.000300
0.000318
0.000351
0.000275
0.000252
0.000239
0.000266
0.000253
0.000304
0.000238
0.000264
0.000609
0.000293
0.000289
0.000390
0.000273
0.000403
0.000227
0.000243
0.000271
0.000261
0.000250
0.000290
0.000314
0.000582
0.000247
0.000056
0.000199
0.001418
0.000234
0.000324
0.000404
0.000454
0.000393
0.000280
0.000211
0.000244
0.000264
0.000247
0.000289
0.000270
0.000241
0.000274
0.000237
0.001359
0.000254
0.000251
0.000258
0.000276
0.000267
0.000280
0.000270
0.000253
0.000277
0.000245
0.000309
0.000458
0.000356
0.000058
0.000205
0.000236
0.000245
0.001499
0.000323
0.000234
0.000235
0.000249
0.000228
0.000251
0.000248
0.000281
0.000240
0.000250
0.000293
0.000233
0.000246
0.000262
0.000259
0.000259
0.001434
0.000239
0.000232
0.000284
0.000251
0.000267
0.000254
0.000261
0.000281
0.000490
0.000348
0.000056
0.000218
0.000224
0.000397
0.000286
0.000237
0.000264
0.001521
0.000349
0.000290
0.000224
0.000260
0.000319
0.000328
0.000228
0.000228
0.000247
0.000246
0.000263
0.000260
0.000260
0.000482
0.000488
0.001147
0.000275
0.000233
0.000261
0.000264
0.000254
0.000306
0.000232
0.000304
0.000057
0.000277
0.000337
0.000218
0.000240
0.000253
0.000235
0.000245
0.000232
0.000289
0.001595
0.000443
0.000221
0.000246
0.000247
0.000258
0.000242
0.000260
0.000277
0.000279
0.000315
0.000283
0.000498
0.000478
0.001334
0.000228
0.000284
0.000251
0.000261
0.000268
0.000459
0.000329
0.000057
0.000272
0.000264
0.000221
0.000233
0.000227
0.000235
0.000264
0.000280
0.000254
0.001612
0.000322
0.000259
0.000241
0.000260
0.000456
0.000254
0.000552
0.000372
0.000280
0.000264
0.000499
0.000483
0.001262
0.000254
0.000245
0.000254
0.001726
0.000441
0.000626
0.000305
0.000151
0.000057
0.000206
0.000232
0.000236
0.000236
0.000278
0.000225
0.000258
0.000479
0.000492
0.000434
0.000287
0.000217
0.000239
0.000263
0.000280
0.000271
0.000240
0.000253
0.000238
0.000285
0.000238
0.000406
0.001373
0.000230
0.000246
0.000275
0.001889
0.000390
0.000396
0.000330
0.000156
0.000056
0.000244
0.000244
0.000244
0.001671
0.000319
0.000221
0.000238
0.000256
0.000258
0.000269
0.000378
0.000365
0.000373
0.000283
0.000454
0.000359
0.000399
0.001193
0.000278
0.000227
0.000255
0.000258
0.000282
0.000393
0.000617
0.000452
0.000279
0.000258
0.000265
0.000284
0.000191
0.000057
0.000199
0.000235
0.000242
0.001538
0.000262
0.000225
0.000242
0.000252
0.000240
0.000253
0.000252
0.000270
0.000267
0.000274
0.000327
0.000328
0.000420
0.000327
0.001409
0.000219
0.000266
0.000258
0.000265
0.000306
0.000504
0.000293
0.000459
0.000261
0.000296
0.000229
0.000443
0.000057
0.000215
0.000243
0.000272
0.001535
0.000291
0.000219
0.000268
0.000243
0.000252
0.000257
0.000254
0.000274
0.000233
0.000254
0.000437
0.000483
0.001379
0.000760
0.000248
0.000339
0.000238
0.000251
0.000244
0.000279
0.001672
0.000803
0.000244
0.000255
0.000281
0.000286
0.000186
0.000058
0.000184
0.000235
0.000249
0.000244
0.000284
0.000255
0.000206
0.000257
0.000237
0.000263
0.000259
0.000300
0.000237
0.000250
0.000261
0.000248
0.000267
0.001600
0.000711
0.000407
0.000273
0.000231
0.000247
0.000313
0.000248
0.000252
0.000288
0.000236
0.001377
0.000405
0.000316
0.000057
0.000213
0.000215
0.000269
0.000229
0.000261
0.000231
0.000276
0.000230
0.000253
0.000261
0.000288
0.000416
0.000426
0.000333
0.000223
0.000243
0.000260
0.001388
0.000700
0.000478
0.000323
0.000273
0.000233
0.000250
0.000273
0.000260
0.000249
0.000265
0.001488
0.000395
0.000230
0.000056
0.000206
0.000250
0.000233
0.000247
0.000252
0.000245
0.000236
0.000253
0.000267
0.000263
0.000370
0.000353
0.000352
0.000217
0.000240
0.000250
0.000269
0.000256
0.001589
0.000658
0.000521
0.000209
0.000232
0.000256
0.000264
0.000256
0.000264
0.000287
0.000263
0.001404
0.000277
0.000056
0.000214
0.000225
0.000234
0.000260
0.000253
0.000245
0.000251
0.000303
0.000359
0.000431
0.000437
0.000336
0.000352
0.000223
0.000246
0.000249
0.000299
0.000241
0.000273
0.001958
0.000276
0.000243
0.000455
0.000224
0.000275
0.000251
0.000282
0.000246
0.000265
0.000276
0.000481
0.000058
0.000290
0.000232
0.000224
0.000242
0.000258
0.000247
0.000226
0.000243
0.000291
0.000244
0.000226
0.000239
0.000270
0.000518
0.000403
0.000458
0.000216
0.000266
0.000244
0.000250
0.000275
0.000264
0.001465
0.001063
0.000221
0.000257
0.000265
0.000269
0.000267
0.000252
0.000208
0.000057
0.000199
0.001364
0.000271
0.000204
0.000238
0.000255
0.000249
0.000236
0.000244
0.000266
0.000243
0.000262
0.000240
0.000409
0.000341
0.000457
0.000269
0.000260
0.000258
0.000270
0.000282
0.000234
0.000244
0.000263
0.001377
0.000628
0.000302
0.000379
0.000375
0.000423
0.000281
0.000056
0.000195
0.000260
0.000328
0.001327
0.000211
0.000257
0.000227
0.000261
0.000252
0.000259
0.000246
0.000250
0.000273
0.000335
0.000608
0.000272
0.000230
0.000273
0.000332
0.000213
0.000247
0.000272
0.000255
0.000250
0.001529
0.000266
0.000748
0.000325
0.000257
0.000272
0.000194
0.000057
0.000188
0.000228
0.000480
0.000318
0.001308
0.000250
0.000223
0.000236
0.000244
0.000244
0.000245
0.000258
0.000237
0.000228
0.000254
0.000258
0.000268
0.000239
0.000253
0.000254
0.000267
0.000271
0.000373
0.000259
0.000216
0.000276
0.000262
0.001489
0.000239
0.000236
0.000177
0.000057
0.000213
0.000230
0.000249
0.000260
0.000355
0.000369
0.000396
0.000279
0.001577
0.000242
0.000323
0.000442
0.000361
0.000239
0.000441
0.000232
0.000235
0.000261
0.000274
0.000270
0.000277
0.000271
0.000252
0.000271
0.000246
0.000415
0.000399
0.000325
0.001591
0.000224
0.000193
0.000057
0.000239
0.000231
0.000252
0.000246
0.000242
0.000243
0.000261
0.000310
0.000414
0.002022
0.000248
0.000235
0.000257
0.000258
0.000256
0.000258
0.000270
0.000253
0.000299
0.000408
0.000457
0.000353
0.001443
0.000238
0.000249
0.002011
0.000291
0.000235
0.000261
0.001518
0.000165
0.000056
0.000229
0.000478
0.000396
0.000244
0.000280
0.000206
0.000260
0.000293
0.000237
0.000226
0.000254
0.000356
0.000416
0.000365
0.000379
0.000246
0.000237
0.001571
0.000224
0.000647
0.001812
0.000293
0.000241
0.001569
0.001993
0.000737
0.000273
0.000261
0.000307
0.000496
0.000316
0.000056
0.000231
0.000252
0.000268
0.000221
0.001415
0.001734
0.001071
0.000210
0.000235
0.001579
0.001983
0.000212
0.000235
0.000430
0.000283
0.000453
0.000469
0.000349
0.000210
0.000235
0.000255
0.000256
0.000272
0.001591
0.001208
0.001415
0.000291
0.000285
0.000259
0.000320
0.000324
0.000056
0.000224
0.000225
0.000233
0.000240
0.000233
0.000281
0.000214
0.000259
0.000261
0.000237
0.000245
0.000343
0.000381
0.000484
0.000287
0.000252
0.000253
0.000272
0.000265
0.000288
0.000234
0.000262
0.001513
0.000475
0.002110
0.000232
0.000312
0.000346
0.000381
0.000378
0.000193
0.000056
0.000263
0.000289
0.000491
0.000316
0.000208
0.000225
0.000251
0.000239
0.000239
0.000246
0.000262
0.000254
0.000258
0.001606
0.001353
0.001227
0.000278
0.000222
0.000260
0.000269
0.000283
0.000281
0.000235
0.000258
0.002221
0.000237
0.000245
0.000304
0.000323
0.000304
0.000220
0.000056
0.000211
0.000376
0.000529
0.000348
0.000213
0.000231
0.000243
0.000276
0.001894
0.001416
0.000224
0.000322
0.000385
0.000409
0.000261
0.000245
0.000247
0.000268
0.000265
0.000262
0.000261
0.000278
0.000452
0.000237
0.000272
0.000266
0.000254
0.000271
0.000282
0.000248
0.000203
0.000055
0.000218
0.000242
0.000250
0.000239
0.000280
0.000253
0.001533
0.001420
0.001320
0.000239
0.000231
0.000243
0.000268
0.000262
0.000244
0.000274
0.000243
0.002083
0.000257
0.000235
0.000265
0.000269
0.000252
0.000266
0.000260
0.000256
0.000275
0.000258
0.000278
0.000250
0.000188
0.000056
0.000193
0.002679
0.001396
0.000222
0.000305
0.000322
0.000220
0.000282
0.000230
0.000240
0.000254
0.000240
0.000236
0.000252
0.000266
0.000256
0.000265
0.000268
0.000271
0.000254
0.000266
0.000283
0.000276
0.000258
0.000248
0.000248
0.000263
0.000283
0.000245
0.000272
0.000384
0.000056
0.001553
0.000244
0.001244
0.000235
0.000218
0.000260
0.000256
0.000260
0.000224
0.000392
0.000259
0.000360
0.000341
0.000223
0.000246
0.002151
0.000239
0.000245
0.000370
0.000461
0.000373
0.000237
0.000235
0.000254
0.000269
0.000245
0.000277
0.000267
0.000266
0.001626
0.001254
0.000058
0.000208
0.000247
0.000224
0.000449
0.000365
0.000271
0.000225
0.000222
0.000252
0.000256
0.000270
0.000245
0.000228
0.000252
0.000266
0.000241
0.000387
0.000542
0.000364
0.000239
0.000239
0.000273
0.000274
0.000254
0.000247
0.000268
0.000250
0.000277
0.000241
0.000298
0.000379
0.000057
0.001118
0.000236
0.000349
0.000437
0.000299
0.000232
0.000223
0.000244
0.000250
0.002302
0.000363
0.000378
0.000236
0.000373
0.000311
0.000248
0.000242
0.000256
0.000270
0.000238
0.000240
0.000316
0.000671
0.000429
0.001785
0.001293
0.000564
0.000513
0.000229
0.000288
0.000191
0.000057
0.000203
0.000383
0.000252
0.000236
0.000253
0.000232
0.000251
0.000253
0.000251
0.000252
0.000251
0.000246
0.000231
0.000289
0.000390
0.000507
0.001801
0.001369
0.000442
0.000416
0.000449
0.000238
0.000236
0.000263
0.002158
0.000519
0.000392
0.000235
0.000277
0.000281
0.000194
0.000056
0.000217
0.000238
0.000256
0.000245
0.000243
0.000476
0.000298
0.000307
0.000310
0.000217
0.000242
0.000250
0.000262
0.002109
0.000411
0.000346
0.000241
0.000225
0.000286
0.000243
0.000246
0.002468
0.000329
0.000223
0.000254
0.000258
0.000253
0.000275
0.000308
0.000255
0.000191
0.000056
0.000218
0.000302
0.000541
0.000404
0.000263
0.000216
0.000237
0.000252
0.000266
0.000252
0.001963
0.000378
0.000268
0.000276
0.000242
0.000267
0.000271
0.000242
0.002200
0.000448
0.000227
0.000267
0.000270
0.000261
0.000266
0.000236
0.000302
0.000237
0.000273
0.000246
0.000194
0.000058
0.000223
0.000241
0.000247
0.000225
0.000246
0.000260
0.000235
0.000249
0.000230
0.002180
0.000232
0.000271
0.000225
0.000429
0.000226
0.000252
0.000310
0.000256
0.000252
0.000252
0.001971
0.000273
0.000335
0.000363
0.000434
0.000408
0.000307
0.000258
0.000260
0.000249
0.000203
0.000056
0.000206
0.000244
0.000237
0.000249
0.000250
0.000325
0.000232
0.002292
0.000243
0.000241
0.000255
0.000255
0.000234
0.000283
0.000275
0.002132
0.000588
0.000227
0.000248
0.000244
0.000260
0.000257
0.000290
0.000269
0.000261
0.000251
0.000304
0.000239
0.000263
0.000266
0.000200
0.000056
0.001821
0.001436
0.000206
0.000229
0.000244
0.000252
0.000254
0.000253
0.000521
0.000252
0.002166
0.000263
0.000226
0.000271
0.000260
0.000527
0.000400
0.000295
0.000225
0.000248
0.000250
0.000268
0.000269
0.000230
0.000255
0.000261
0.000271
0.000269
0.000512
0.000453
0.000325
0.000056
0.000201
0.000249
0.000258
0.000235
0.000277
0.000234
0.000255
0.000244
0.001464
0.002137
0.000580
0.000268
0.000421
0.000687
0.000352
0.000233
0.000254
0.000266
0.000247
0.000266
0.000247
0.000250
0.000247
0.000271
0.003006
0.000332
0.000246
0.000271
0.000274
0.000332
0.000361
0.000056
0.001937
0.000222
0.000239
0.000229
0.000294
0.000364
0.000452
0.000292
0.000289
0.000224
0.000237
0.000253
0.000258
0.000251
0.000267
0.000259
0.000251
0.000286
0.001819
0.000237
0.000241
0.000255
0.000273
0.000282
0.000267
0.000253
0.001460
0.000345
0.000242
0.000265
0.000182
0.000056
0.000203
0.000234
0.000262
0.000220
0.000253
0.000245
0.000331
0.000328
0.000393
0.000320
0.000236
0.000238
0.000259
0.000321
0.000425
0.000316
0.000240
0.000242
0.000269
0.000344
0.000423
0.000507
0.000242
0.000258
0.000255
0.000257
0.000270
0.000258
0.000269
0.000274
0.000199
0.000056
0.001419
0.000448
0.000221
0.001937
0.000273
0.000445
0.000413
0.000321
0.000226
0.000248
0.000266
0.000241
0.000251
0.000249
0.000263
0.000256
0.000456
0.000337
0.000324
0.000401
0.000357
0.000232
0.000255
0.000266
0.000275
0.000267
0.000262
0.000264
0.000399
0.000459
0.001333
0.000057
0.000204
0.000223
0.002080
0.000335
0.000306
0.000230
0.000280
0.000223
0.000263
0.000264
0.000218
0.000249
0.000273
0.000245
0.000257
0.000380
0.000689
0.001765
0.000225
0.000251
0.000255
0.000265
0.000348
0.000518
0.001534
0.000277
0.000365
0.001922
0.000268
0.000251
0.000194
0.000057
0.000212
0.000230
0.000230
0.000246
0.000229
0.000251
0.000269
0.000267
0.000329
0.000261
0.000379
0.000366
0.000347
0.000288
0.000244
0.000279
0.000257
0.000243
0.000264
0.000248
0.000312
0.000277
0.000268
0.000268
0.000263
0.001499
0.000300
0.000376
0.002078
0.000233
0.000181
0.000056
0.000234
0.000245
0.000236
0.000245
0.000489
0.000207
0.000263
0.000354
0.000323
0.000349
0.000277
0.000210
0.000264
0.000263
0.000272
0.000315
0.000434
0.000425
0.000253
0.000414
0.000572
0.000429
0.001550
0.000229
0.000248
0.002012
0.000319
0.000240
0.000233
0.000301
0.000189
0.000056
0.000215
0.000242
0.000227
0.000241
0.000257
0.000269
0.000256
0.000268
0.000248
0.000320
0.001755
0.000308
0.000383
0.000289
0.000453
0.000363
0.000355
0.001514
0.000235
0.000283
0.002230
0.000444
0.000257
0.000238
0.000270
0.000268
0.000502
0.000224
0.000254
0.000277
0.000200
0.000057
0.000271
0.000341
0.000411
0.000272
0.000204
0.000246
0.000262
0.000254
0.000262
0.000295
0.000220
0.000240
0.000257
0.000259
0.000361
0.000420
0.001348
0.000270
0.000276
0.002008
0.000260
0.000298
0.000235
0.000262
0.000244
0.000285
0.000265
0.000265
0.000244
0.000280
0.000196
0.000057
0.000261
0.000397
0.002019
0.000256
0.000222
0.000263
0.000294
0.000250
0.000410
0.000460
0.001312
0.000356
0.000357
0.002077
0.000214
0.000244
0.000271
0.000273
0.000253
0.000252
0.000275
0.000295
0.000253
0.000329
0.000499
0.000393
0.000288
0.002245
0.000493
0.000529
0.000375
0.000056
0.000208
0.000233
0.000244
0.001961
0.000250
0.000219
0.000236
0.000240
0.000244
0.000259
0.000242
0.000265
0.000254
0.000315
0.000463
0.001410
0.000251
0.000238
0.000272
0.000256
0.000230
0.000262
0.000255
0.000267
0.000338
0.000419
0.000495
0.000240
0.001601
0.000270
0.000167
0.000056
0.000198
0.000229
0.000248
0.000230
0.000264
0.000267
0.000229
0.000245
0.000256
0.000375
0.000359
0.001419
0.000223
0.000240
0.000244
0.000296
0.000223
0.000275
0.000276
0.000513
0.000553
0.000281
0.000214
0.001576
0.000218
0.000274
0.000288
0.000275
0.000266
0.000265
0.000199
0.000056
0.000205
0.000238
0.000286
0.000248
0.000250
0.000240
0.000240
0.000237
0.000280
0.000226
0.000248
0.000272
0.000250
0.001478
0.000362
0.000205
0.000256
0.000262
0.000272
0.000314
0.000369
0.000288
0.000239
0.000263
0.000261
0.000261
0.000260
0.001408
0.000278
0.000236
0.000174
0.000057
0.000239
0.000202
0.000264
0.000257
0.000271
0.000221
0.000250
0.000257
0.000223
0.000262
0.000246
0.000258
0.000224
0.000311
0.000397
0.000365
0.000230
0.000235
0.001634
0.000249
0.000232
0.000266
0.000262
0.000285
0.000404
0.000351
0.000455
0.000278
0.000243
0.001616
0.000148
0.000056
0.000396
0.000275
0.000360
0.000300
0.000230
0.000220
0.000243
0.000275
0.000252
0.000256
0.000228
0.000236
0.001483
0.000266
0.000312
0.000223
0.000249
0.000276
0.000249
0.000267
0.000257
0.000232
0.000259
0.000277
0.000266
0.000366
0.000367
0.000465
0.000248
0.000251
0.000191
0.000056
0.000193
0.000239
0.000400
0.000401
0.000350
0.000289
0.000248
0.000248
0.000249
0.000257
0.000239
0.000233
0.000257
0.000244
0.001259
0.000326
0.000204
0.000257
0.000263
0.000266
0.000239
0.000267
0.000251
0.000261
0.000255
0.000256
0.000446
0.000582
0.000431
0.000218
0.000198
0.000056
0.000198
0.001577
0.000225
0.000307
0.000514
0.000351
0.000213
0.000262
0.000263
0.000261
0.000229
0.000264
0.000268
0.000273
0.000257
0.001547
0.000237
0.000283
0.000259
0.000257
0.000275
0.000241
0.000267
0.000258
0.000264
0.000318
0.000417
0.000316
0.000385
0.000230
0.000190
0.000057
0.000194
0.000253
0.000242
0.001653
0.000369
0.000356
0.000227
0.000233
0.000251
0.000273
0.000279
0.000251
0.000254
0.000256
0.000230
0.000275
0.000401
0.001324
0.000250
0.000231
0.001496
0.000460
0.000423
0.000392
0.000336
0.000242
0.000280
0.000452
0.000236
0.000263
0.000185
0.000057
0.000281
0.000226
0.000250
0.000243
0.000257
0.000265
0.000226
0.000252
0.000257
0.000246
0.000247
0.000256
0.000518
0.000337
0.001622
0.001492
0.000351
0.000523
0.000355
0.000227
0.000233
0.000253
0.000262
0.000259
0.000249
0.000272
0.000252
0.000266
0.001514
0.000353
0.000174
0.000056
0.000215
0.000347
0.000351
0.000331
0.000233
0.000234
0.000247
0.000374
0.000396
0.000367
0.002185
0.000314
0.000694
0.000519
0.000458
0.000255
0.000334
0.000394
0.000330
0.000281
0.000391
0.000273
0.001525
0.000536
0.000211
0.000263
0.000278
0.000235
0.000279
0.000255
0.000194
0.000056
0.000205
0.000247
0.000256
0.000249
0.000243
0.001660
0.000870
0.001002
0.000208
0.000238
0.000272
0.000239
0.000263
0.000264
0.000252
0.000251
0.000250
0.000270
0.000263
0.000277
0.001423
0.000321
0.000248
0.000244
0.000226
0.000257
0.000267
0.000281
0.000266
0.000284
0.001891
0.000057
0.000196
0.000229
0.001542
0.000868
0.000426
0.000308
0.000257
0.000212
0.000251
0.000262
0.000265
0.000227
0.000247
0.002005
0.000446
0.000224
0.000248
0.000255
0.000266
0.000254
0.000195
