0.000375
0.006367
0.015058
0.000345
0.000247
0.000234
0.000308
0.000250
0.000341
0.000288
0.000252
0.000367
0.000491
0.000547
0.000298
0.000323
0.000354
0.000449
0.000376
0.000357
0.000285
0.001832
0.000491
0.000474
0.000262
0.000276
0.000317
0.000405
0.000419
0.000507
0.000477
0.000180
0.000066
0.000203
0.000225
0.000277
0.000254
0.000276
0.000263
0.000258
0.000262
0.000298
0.000329
0.000376
0.000490
0.000272
0.000285
0.000401
0.000363
0.000339
0.000233
0.000229
0.001732
0.000287
0.000224
0.000511
0.000243
0.000252
0.000248
0.000296
0.000297
0.000277
0.000354
0.000404
0.000066
0.000249
0.000230
0.000267
0.000259
0.000259
0.000252
0.000253
0.000257
0.000281
0.001657
0.000227
0.000241
0.000247
0.000277
0.000280
0.000270
0.000268
0.000248
0.000331
0.001801
0.000269
0.000317
0.000510
0.000468
0.000287
0.000221
0.000228
0.000555
0.000410
0.000817
0.000170
0.000066
0.000221
0.000222
0.000260
0.000244
0.000292
0.000269
0.000281
0.000539
0.000462
0.000261
0.000215
0.000239
0.000232
0.000253
0.000251
0.000258
0.000260
0.000259
0.000298
0.000321
0.001724
0.000249
0.000244
0.000457
0.000240
0.000698
0.000646
0.000529
0.000401
0.000202
0.000200
0.000072
0.000221
0.000242
0.000255
0.000252
0.000250
0.000250
0.000250
0.000526
0.001415
0.000235
0.000244
0.000242
0.000241
0.000262
0.000256
0.000294
0.000298
0.000813
0.001363
0.000289
0.000254
0.000395
0.000263
0.000246
0.000258
0.000255
0.000263
0.000269
0.000267
0.000254
0.000211
0.000067
0.000197
0.000226
0.000224
0.000247
0.000257
0.000250
0.000242
0.000252
0.000236
0.000256
0.001703
0.000247
0.000229
0.000224
0.000236
0.000250
0.000245
0.000250
0.000252
0.000254
0.000268
0.001727
0.000246
0.000242
0.000481
0.000236
0.000241
0.000245
0.000246
0.000274
0.000202
0.000073
0.000204
0.000216
0.000270
0.000229
0.000239
0.000254
0.000254
0.000247
0.000255
0.000244
0.000281
0.000235
0.000289
0.000244
0.001627
0.000270
0.000283
0.000244
0.000237
0.000271
0.000269
0.000250
0.000253
0.000253
0.000269
0.001855
0.000380
0.000367
0.000266
0.000276
0.000196
0.000083
0.000204
0.000218
0.000258
0.000240
0.000284
0.000223
0.000292
0.000395
0.000440
0.000398
0.000219
0.000250
0.000250
0.000244
0.001666
0.000478
0.000357
0.000346
0.000303
0.000222
0.000278
0.000285
0.000263
0.001775
0.000518
0.000466
0.000228
0.000233
0.000236
0.000254
0.000206
0.000065
0.000206
0.000213
0.000239
0.000287
0.000413
0.000411
0.000332
0.000274
0.000216
0.000238
0.000264
0.000237
0.000259
0.001673
0.000489
0.000330
0.000220
0.000250
0.000261
0.000267
0.000261
0.000254
0.000270
0.001855
0.000348
0.000387
0.000277
0.000237
0.000385
0.000402
0.000273
0.000066
0.000194
0.000471
0.000250
0.000284
0.000289
0.000253
0.000222
0.000257
0.000238
0.000246
0.000229
0.000237
0.001612
0.000372
0.000267
0.000220
0.000244
0.000241
0.000255
0.000267
0.000281
0.000323
0.001772
0.000357
0.000229
0.000495
0.000226
0.000246
0.000237
0.000265
0.000273
0.000096
0.000295
0.000542
0.000668
0.000206
0.000208
0.000279
0.000229
0.000222
0.000259
0.000252
0.000252
0.001682
0.000368
0.000385
0.000333
0.000215
0.000251
0.000221
0.000241
0.000257
0.000260
0.001839
0.000253
0.000246
0.002251
0.000421
0.000248
0.000288
0.000263
0.000254
0.000201
0.000067
0.000213
0.000232
0.000234
0.000232
0.000253
0.001691
0.000224
0.000213
0.000250
0.000255
0.000241
0.000263
0.000233
0.000255
0.000263
0.000433
0.000621
0.000256
0.000222
0.000273
0.000268
0.000258
0.000233
0.000479
0.000435
0.000267
0.000364
0.000623
0.000350
0.000254
0.000169
0.000066
0.000182
0.000237
0.000252
0.000249
0.000236
0.000262
0.000245
0.000440
0.000443
0.001594
0.000268
0.000239
0.000236
0.000248
0.000264
0.000266
0.000384
0.000563
0.000369
0.000228
0.000249
0.000260
0.000290
0.000280
0.000383
0.000401
0.000435
0.000576
0.000468
0.000340
0.000137
0.000065
0.000198
0.000234
0.000236
0.000238
0.000217
0.000246
0.000242
0.000244
0.000312
0.000335
0.000426
0.001461
0.000260
0.000224
0.000208
0.000220
0.000266
0.000250
0.000247
0.000248
0.000283
0.000385
0.000456
0.000335
0.000245
0.000211
0.000267
0.000273
0.000250
0.000269
0.000429
0.000065
0.000207
0.000216
0.000227
0.000301
0.000497
0.000409
0.000274
0.000259
0.000235
0.000259
0.000254
0.000243
0.000281
0.000261
0.000236
0.000561
0.000365
0.001602
0.000258
0.000248
0.000266
0.000261
0.000270
0.000241
0.000268
0.000498
0.000502
0.000298
0.000360
0.000245
0.000203
0.000064
0.000197
0.000211
0.000403
0.000262
0.000244
0.000231
0.000334
0.000567
0.000291
0.000336
0.000229
0.000268
0.000272
0.000244
0.000579
0.000288
0.000224
0.000262
0.000350
0.001720
0.000238
0.000250
0.000292
0.000427
0.000288
0.000288
0.000248
0.000439
0.000453
0.000362
0.000290
0.000065
0.000192
0.000227
0.000222
0.000240
0.000477
0.000270
0.000292
0.000219
0.000536
0.000438
0.000321
0.000253
0.000219
0.000221
0.000252
0.000269
0.000255
0.000260
0.000223
0.000361
0.000286
0.000662
0.001494
0.000269
0.000233
0.000271
0.000377
0.000379
0.000500
0.000563
0.000394
0.000089
0.000297
0.000313
0.000276
0.000410
0.000315
0.000220
0.000280
0.000294
0.000452
0.000514
0.000238
0.000214
0.000227
0.000266
0.000265
0.000222
0.000243
0.000274
0.000264
0.000260
0.000277
0.000334
0.001831
0.000314
0.000357
0.000461
0.000325
0.000227
0.000383
0.000500
0.000288
0.000066
0.000260
0.000378
0.000262
0.000214
0.000239
0.000223
0.000464
0.000211
0.000227
0.000423
0.000307
0.000513
0.000212
0.000260
0.000266
0.000326
0.000404
0.000372
0.000295
0.000220
0.000221
0.000554
0.000410
0.001704
0.000249
0.000409
0.000326
0.000238
0.000245
0.000435
0.000334
0.000095
0.000195
0.000224
0.000242
0.000237
0.000252
0.000251
0.000235
0.000347
0.000427
0.000355
0.000530
0.000284
0.000270
0.000208
0.000541
0.000277
0.000276
0.000255
0.000231
0.000337
0.000235
0.000253
0.000268
0.000416
0.000521
0.001673
0.000218
0.000238
0.000248
0.000274
0.000186
0.000072
0.000281
0.000421
0.000381
0.000228
0.000224
0.000215
0.000264
0.000256
0.000257
0.000236
0.000217
0.000487
0.000286
0.000480
0.000363
0.000324
0.000230
0.000323
0.000364
0.000341
0.000371
0.000344
0.000431
0.000312
0.000221
0.000223
0.000250
0.000271
0.001773
0.000266
0.000203
0.000065
0.000187
0.000199
0.000255
0.000282
0.000410
0.000523
0.000306
0.000203
0.000266
0.000244
0.000251
0.000246
0.000514
0.000443
0.000499
0.000334
0.000239
0.000226
0.000440
0.000504
0.000366
0.000513
0.000440
0.000383
0.000226
0.000227
0.000244
0.000228
0.000310
0.001753
0.000281
0.000065
0.000262
0.000301
0.000227
0.000228
0.000251
0.000254
0.000368
0.000441
0.000365
0.000306
0.000276
0.000338
0.000320
0.000669
0.000291
0.000205
0.000235
0.000234
0.000257
0.000260
0.000263
0.000268
0.000262
0.000265
0.000339
0.000306
0.000487
0.000350
0.000226
0.000224
0.000190
0.000066
0.000445
0.000307
0.000412
0.000257
0.000233
0.000222
0.000242
0.000251
0.000246
0.000238
0.000244
0.000263
0.000298
0.000310
0.000583
0.000447
0.000383
0.000331
0.000373
0.000390
0.000244
0.000224
0.000241
0.000237
0.001798
0.000238
0.001746
0.000952
0.000412
0.000296
0.000146
0.000064
0.000207
0.000223
0.000232
0.000244
0.000237
0.000257
0.000269
0.000253
0.000289
0.000241
0.000413
0.000436
0.000492
0.000280
0.000215
0.000228
0.000262
0.000293
0.000210
0.000228
0.000262
0.000247
0.001775
0.000280
0.000236
0.000273
0.000277
0.000266
0.001874
0.000564
0.000258
0.000073
0.000240
0.000202
0.000255
0.000208
0.000237
0.000273
0.000226
0.000250
0.000278
0.000370
0.000585
0.000259
0.000389
0.000248
0.000244
0.000279
0.000378
0.000396
0.000367
0.000239
0.001799
0.000250
0.000218
0.000253
0.000236
0.000270
0.000245
0.000270
0.000257
0.000433
0.000369
0.000064
0.000260
0.000204
0.000216
0.000255
0.000255
0.000238
0.000267
0.000246
0.000239
0.000257
0.000250
0.000295
0.000326
0.000398
0.000318
0.000331
0.000483
0.000226
0.000224
0.000257
0.000266
0.000245
0.000266
0.000259
0.000277
0.001774
0.000276
0.000253
0.000249
0.000243
0.000204
0.000066
0.000269
0.000270
0.000223
0.000226
0.000229
0.000222
0.000239
0.000254
0.000243
0.000230
0.000241
0.000262
0.000244
0.000502
0.000307
0.000343
0.000328
0.000229
0.000205
0.000258
0.000257
0.000254
0.000254
0.000281
0.000263
0.000256
0.000370
0.001612
0.000239
0.000233
0.000184
0.000065
0.000199
0.000227
0.000248
0.000243
0.000352
0.000530
0.000307
0.000252
0.000227
0.000260
0.000238
0.000245
0.000251
0.000252
0.000272
0.000248
0.000254
0.000244
0.000259
0.000278
0.000245
0.000272
0.000252
0.000231
0.000222
0.000284
0.000274
0.000263
0.000257
0.000258
0.000212
0.000065
0.000193
0.000227
0.000222
0.000277
0.000234
0.000238
0.000248
0.000269
0.000332
0.000218
0.000201
0.000260
0.000241
0.000253
0.000262
0.000267
0.000257
0.000243
0.000348
0.000214
0.000268
0.000277
0.000281
0.000244
0.000260
0.000278
0.000271
0.000265
0.000256
0.000363
0.000808
0.000082
0.000191
0.000294
0.000222
0.000212
0.000218
0.000253
0.000240
0.000263
0.000231
0.000249
0.000263
0.000322
0.000468
0.000507
0.001543
0.000215
0.000511
0.000209
0.000247
0.000411
0.000487
0.000356
0.000232
0.000272
0.000259
0.000261
0.000278
0.000255
0.000304
0.000270
0.000174
0.000066
0.000265
0.000468
0.000344
0.000353
0.000195
0.000252
0.000241
0.000232
0.000235
0.000245
0.000256
0.000258
0.000236
0.000307
0.000344
0.000478
0.000377
0.001777
0.000271
0.000254
0.000345
0.000385
0.000459
0.000304
0.000366
0.000280
0.000309
0.000231
0.000225
0.000229
0.000215
0.000064
0.000187
0.000200
0.000238
0.000276
0.000401
0.000485
0.000257
0.000261
0.000249
0.000238
0.000246
0.000270
0.000264
0.000270
0.000240
0.000270
0.000340
0.000527
0.000315
0.000359
0.000271
0.001772
0.000320
0.000562
0.000437
0.000452
0.000282
0.000282
0.000252
0.000257
0.000463
0.000079
0.000201
0.000235
0.000240
0.000348
0.000474
0.000347
0.000352
0.000267
0.000244
0.000298
0.000228
0.000232
0.000241
0.000316
0.000344
0.000227
0.000299
0.000340
0.000376
0.000391
0.000530
0.001762
0.000267
0.000444
0.000502
0.000335
0.000257
0.000352
0.000278
0.000197
0.000221
0.000066
0.000217
0.000343
0.000335
0.000318
0.000353
0.000321
0.000378
0.000223
0.000234
0.000255
0.000259
0.000243
0.000255
0.000250
0.000248
0.000259
0.000290
0.000355
0.000591
0.000322
0.000314
0.000258
0.000225
0.001767
0.000449
0.000434
0.000645
0.000306
0.000229
0.000314
0.000163
0.000065
0.000184
0.000234
0.000290
0.000282
0.000309
0.000423
0.000300
0.000304
0.000315
0.000534
0.000204
0.000232
0.000242
0.000276
0.000274
0.000269
0.000213
0.000417
0.000456
0.000345
0.000276
0.000256
0.000253
0.000256
0.000260
0.000266
0.000250
0.000245
0.000264
0.000335
0.000155
0.000087
0.000296
0.000338
0.000202
0.000249
0.000249
0.000262
0.000239
0.000372
0.000180
0.000222
0.000260
0.000336
0.000419
0.000452
0.000274
0.000322
0.000219
0.000237
0.000255
0.000262
0.000259
0.000289
0.000242
0.000256
0.000281
0.000340
0.000508
0.000279
0.000357
0.000212
0.000169
0.000065
0.000207
0.000203
0.000267
0.000262
0.000229
0.000252
0.000255
0.000258
0.000473
0.000249
0.000243
0.000258
0.000235
0.000268
0.000260
0.000260
0.000271
0.000351
0.000245
0.000243
0.000248
0.000270
0.000249
0.000264
0.000280
0.000286
0.000239
0.000259
0.000251
0.000483
0.000189
0.000066
0.000204
0.000254
0.000209
0.000265
0.000227
0.000231
0.000309
0.000449
0.000253
0.000228
0.000251
0.000252
0.000246
0.000309
0.000433
0.001738
0.000249
0.000254
0.000307
0.000388
0.000406
0.000338
0.000375
0.000559
0.000207
0.000344
0.000257
0.000262
0.000272
0.000274
0.001412
0.000065
0.000436
0.000246
0.000281
0.000207
0.000209
0.000250
0.000227
0.000258
0.000242
0.000268
0.000243
0.000258
0.000257
0.000296
0.001947
0.000263
0.000218
0.000214
0.000236
0.000253
0.000258
0.000254
0.000427
0.000408
0.000215
0.000319
0.000254
0.000273
0.000265
0.000266
0.000213
0.000070
0.001195
0.000609
0.000278
0.000311
0.000202
0.000205
0.000213
0.000226
0.000497
0.000224
0.000234
0.000253
0.000351
0.000609
0.000311
0.000300
0.000295
0.000258
0.000350
0.000352
0.000231
0.000235
0.000271
0.000241
0.000273
0.000712
0.000498
0.000197
0.000255
0.000266
0.000163
0.000066
0.000205
0.000211
0.000220
0.000265
0.001450
0.000320
0.000222
0.000234
0.000244
0.000253
0.000242
0.000252
0.000256
0.000263
0.000260
0.000310
0.000413
0.000656
0.000259
0.001810
0.000305
0.000294
0.000279
0.000352
0.000520
0.000426
0.000267
0.000227
0.000258
0.000266
0.000199
0.000065
0.000189
0.000242
0.000224
0.001307
0.000338
0.000211
0.000251
0.000229
0.000243
0.000228
0.000250
0.000241
0.000262
0.000248
0.000257
0.000306
0.000484
0.000461
0.000301
0.000214
0.000246
0.000271
0.000265
0.000232
0.000345
0.000244
0.000212
0.000296
0.000241
0.000312
0.000623
0.000065
0.000210
0.000253
0.000219
0.000259
0.000262
0.000246
0.000233
0.000247
0.000269
0.000241
0.001433
0.000247
0.000247
0.000253
0.000235
0.000258
0.000252
0.000270
0.000264
0.000264
0.000274
0.000600
0.000420
0.000281
0.000262
0.000254
0.001831
0.000233
0.000226
0.000330
0.000681
0.000072
0.000334
0.000363
0.000457
0.000514
0.000529
0.000564
0.001458
0.000630
0.000602
0.000638
0.000604
0.000557
0.000589
0.000603
0.000586
0.001604
0.000441
0.000317
0.000394
0.000329
0.000250
0.000320
0.000277
0.000259
0.000279
0.000278
0.000289
0.000261
0.000277
0.000318
0.001261
0.000083
0.000243
0.000243
0.000217
0.000245
0.000250
0.000246
0.000226
0.000246
0.000269
0.000256
0.000269
0.000226
0.000245
0.000266
0.000265
0.000265
0.001820
0.000265
0.000255
0.000256
0.000268
0.000249
0.000269
0.000291
0.000488
0.000295
0.000340
0.000252
0.000298
0.000264
0.000126
0.000080
0.000216
0.001382
0.000289
0.000257
0.000258
0.000239
0.000251
0.000245
0.000251
0.000219
0.000250
0.000259
0.000260
0.000405
0.000285
0.000386
0.000262
0.000302
0.001883
0.000264
0.000262
0.000262
0.000243
0.000267
0.000275
0.000264
0.000279
0.000244
0.000243
0.000310
0.000196
0.000079
0.000219
0.000246
0.000238
0.001412
0.000257
0.000285
0.000215
0.000217
0.000275
0.000245
0.000239
0.000249
0.000236
0.000293
0.000257
0.000241
0.000253
0.000250
0.000267
0.000295
0.000240
0.001835
0.000265
0.001751
0.000290
0.000239
0.000242
0.000236
0.000277
0.000303
0.000129
0.000079
0.000244
0.000251
0.001336
0.000228
0.000274
0.000234
0.000218
0.000243
0.000248
0.000248
0.000233
0.000233
0.000264
0.000267
0.000252
0.000272
0.000253
0.000288
0.000292
0.000242
0.001889
0.000288
0.001771
0.000282
0.000258
0.000233
0.000265
0.000262
0.000262
0.000234
0.000172
0.000078
0.001422
0.000235
0.000254
0.000232
0.000215
0.000227
0.000300
0.000309
0.000269
0.000250
0.000266
0.000262
0.000294
0.000308
0.000454
0.000260
0.000287
0.000233
0.000229
0.000235
0.000274
0.000324
0.000267
0.000265
0.000268
0.000257
0.000265
0.000317
0.000708
0.000393
0.000124
0.000079
0.000231
0.000318
0.000273
0.000327
0.000341
0.000292
0.001642
0.000303
0.000258
0.000250
0.000295
0.000291
0.000256
0.000279
0.000287
0.000326
0.000395
0.000493
0.000319
0.000351
0.000293
0.000265
0.000269
0.000264
0.000262
0.000262
0.000260
0.000252
0.000205
0.000287
0.000433
0.000064
0.000284
0.000394
0.000276
0.000261
0.000253
0.000222
0.000228
0.000248
0.000258
0.000266
0.001506
0.000246
0.000198
0.000250
0.000246
0.000278
0.000264
0.000256
0.000251
0.000266
0.000272
0.000372
0.000497
0.000405
0.000237
0.000290
0.000260
0.000255
0.000234
0.000236
0.000243
0.000066
0.000199
0.000213
0.000278
0.000459
0.000412
0.000234
0.000216
0.000245
0.000259
0.000260
0.000234
0.000249
0.000259
0.000288
0.000221
0.000241
0.000342
0.001310
0.000212
0.000278
0.000204
0.000272
0.000315
0.000523
0.000212
0.000358
0.000476
0.000375
0.000413
0.000233
0.000159
0.000067
0.000197
0.000237
0.000269
0.000257
0.000291
0.000217
0.000381
0.000476
0.000359
0.000399
0.000360
0.000426
0.000333
0.000338
0.000222
0.000228
0.000197
0.000230
0.000444
0.000484
0.001194
0.000252
0.000252
0.000273
0.000245
0.000236
0.000271
0.000328
0.000357
0.000508
0.000264
0.000065
0.000176
0.000223
0.000258
0.000225
0.000295
0.000219
0.000226
0.000239
0.000256
0.000463
0.000474
0.000340
0.000225
0.000216
0.000236
0.000260
0.000254
0.000251
0.000268
0.000526
0.000216
0.000241
0.000439
0.000345
0.000314
0.000218
0.000291
0.000255
0.000254
0.000283
0.000226
0.000068
0.000257
0.000309
0.000297
0.000486
0.000370
0.000324
0.000337
0.000199
0.000217
0.000247
0.000259
0.000262
0.000244
0.000254
0.000251
0.000239
0.000269
0.000415
0.000464
0.000353
0.000257
0.000239
0.000207
0.000256
0.000276
0.000249
0.000263
0.000279
0.000280
0.000257
0.000337
0.000101
0.000232
0.000348
0.000234
0.000237
0.000256
0.000246
0.000242
0.000250
0.000246
0.000259
0.000249
0.000252
0.000386
0.000432
0.000435
0.000312
0.000226
0.000204
0.000255
0.000262
0.000267
0.000259
0.000260
0.000321
0.000212
0.000448
0.000311
0.000532
0.000511
0.000232
0.000134
0.000065
0.000380
0.000208
0.000201
0.000280
0.000225
0.000249
0.000237
0.000257
0.000248
0.000260
0.000219
0.000260
0.000243
0.000229
0.000246
0.000267
0.000264
0.000248
0.000286
0.000275
0.000251
0.000247
0.000265
0.000260
0.000257
0.000291
0.000221
0.000273
0.000261
0.000281
0.000205
0.000065
0.000182
0.000225
0.000233
0.000270
0.000227
0.000249
0.000261
0.000243
0.000256
0.000262
0.000242
0.000232
0.000277
0.000381
0.000240
0.000275
0.000275
0.000267
0.000267
0.000274
0.000271
0.000240
0.000246
0.000261
0.000249
0.000278
0.000253
0.000246
0.000275
0.000265
0.000203
0.000065
0.000336
0.000376
0.000319
0.000277
0.000288
0.000211
0.000208
0.000252
0.000251
0.000219
0.000246
0.000265
0.000249
0.000240
0.000272
0.000249
0.000285
0.000244
0.000246
0.000266
0.000251
0.000264
0.000279
0.000255
0.000279
0.000314
0.000208
0.000278
0.000238
0.000276
0.000196
0.000089
0.000176
0.000218
0.000260
0.000261
0.000251
0.000415
0.000248
0.000234
0.000308
0.000301
0.000610
0.000318
0.000210
0.000245
0.000264
0.000271
0.000234
0.000268
0.000260
0.000262
0.000292
0.000243
0.000255
0.000353
0.000394
0.000580
0.000266
0.000279
0.000265
0.000265
0.000188
0.000066
0.000213
0.000211
0.000237
0.000253
0.000373
0.000642
0.000278
0.000346
0.000243
0.000244
0.000254
0.000238
0.000260
0.000244
0.000257
0.000279
0.000266
0.000274
0.000580
0.000390
0.000331
0.000246
0.000247
0.000286
0.000279
0.000260
0.000258
0.000263
0.000264
0.000380
0.000542
0.000065
0.000269
0.000225
0.000231
0.000246
0.000257
0.000252
0.000223
0.000244
0.000247
0.000264
0.000237
0.000251
0.000290
0.000370
0.000636
0.000324
0.000252
0.000227
0.000259
0.000249
0.000265
0.000266
0.000460
0.000249
0.000259
0.000794
0.000264
0.000418
0.000297
0.000236
0.000189
0.000066
0.000187
0.000210
0.000239
0.000234
0.000272
0.000241
0.000318
0.000401
0.000671
0.000369
0.000227
0.000253
0.000272
0.000354
0.000201
0.000224
0.000234
0.000251
0.000269
0.000432
0.000527
0.000329
0.000455
0.000371
0.000433
0.000274
0.000443
0.000208
0.000280
0.000458
0.000283
0.000065
0.000272
0.000235
0.000463
0.000209
0.000228
0.000220
0.000262
0.000260
0.000228
0.000239
0.000250
0.000403
0.000450
0.000287
0.000242
0.000230
0.000273
0.000222
0.000262
0.000272
0.000274
0.000248
0.000257
0.000267
0.000328
0.000446
0.000494
0.000260
0.000296
0.000240
0.000200
0.000066
0.000205
0.000250
0.000229
0.000244
0.000248
0.000288
0.000339
0.000469
0.000375
0.000352
0.000316
0.000233
0.000205
0.000273
0.000247
0.000244
0.000251
0.000252
0.000284
0.000416
0.000511
0.000373
0.000406
0.000412
0.000379
0.000391
0.000341
0.000220
0.000219
0.000353
0.000325
0.000064
0.000254
0.000225
0.000240
0.000229
0.000257
0.000273
0.000251
0.000249
0.000233
0.000259
0.000248
0.000439
0.000340
0.000380
0.000374
0.000251
0.000252
0.000259
0.000271
0.000243
0.000263
0.000251
0.000264
0.000284
0.000268
0.000321
0.000496
0.000460
0.000258
0.000287
0.000181
0.000067
0.000205
0.000226
0.000259
0.000246
0.000261
0.000353
0.000664
0.000421
0.000221
0.000672
0.000286
0.000219
0.000234
0.000265
0.000244
0.000266
0.000287
0.000276
0.000464
0.000448
0.001623
0.000233
0.000248
0.000258
0.000301
0.000222
0.000370
0.000456
0.000390
0.000270
0.000159
0.000073
0.000204
0.000220
0.000248
0.000246
0.000233
0.000259
0.000267
0.000253
0.000286
0.000382
0.000356
0.000347
0.000235
0.000373
0.000391
0.000315
0.000229
0.000216
0.000270
0.000255
0.000246
0.000241
0.000282
0.000249
0.000389
0.000496
0.000368
0.000251
0.000234
0.000252
0.000202
0.000066
0.000215
0.000232
0.000265
0.000254
0.000248
0.000228
0.000454
0.000234
0.000236
0.000250
0.000251
0.000239
0.000257
0.000274
0.000244
0.000259
0.000257
0.000255
0.000277
0.000255
0.000255
0.000295
0.000291
0.000252
0.000271
0.000262
0.000269
0.000268
0.000291
0.000253
0.000188
0.000066
0.000219
0.000242
0.000337
0.000465
0.000317
0.000229
0.000236
0.000240
0.000257
0.000244
0.000258
0.000260
0.000262
0.000260
0.000238
0.000249
0.000246
0.000268
0.000254
0.000366
0.000429
0.000383
0.000240
0.000262
0.000268
0.000265
0.000268
0.000254
0.000269
0.000279
0.000196
0.000169
0.000429
0.000280
0.000347
0.000230
0.000254
0.000250
0.000462
0.000211
0.000207
0.000244
0.000318
0.000349
0.000469
0.000361
0.001680
0.000265
0.000247
0.000264
0.000272
0.000246
0.000363
0.000487
0.000460
0.000380
0.000229
0.000259
0.000277
0.000428
0.000280
0.000280
0.000160
0.000112
0.000195
0.000371
0.000360
0.000235
0.000514
0.000208
0.000261
0.000228
0.000258
0.000247
0.000254
0.000246
0.000266
0.000335
0.000417
0.000454
0.000234
0.000232
0.000246
0.000271
0.000246
0.000311
0.000253
0.000284
0.000274
0.000536
0.000424
0.000382
0.000477
0.000237
0.000197
0.000065
0.000202
0.000203
0.000251
0.000243
0.000258
0.000250
0.000267
0.000274
0.000339
0.000476
0.000309
0.000387
0.000225
0.000233
0.000270
0.000263
0.000310
0.000254
0.000273
0.000274
0.000235
0.000369
0.000384
0.000393
0.000248
0.000300
0.000256
0.000512
0.000395
0.000313
0.000121
0.000066
0.000177
0.000260
0.000325
0.000524
0.000232
0.000242
0.000229
0.000249
0.000260
0.000243
0.000267
0.000256
0.000253
0.000242
0.000265
0.000357
0.000357
0.000343
0.000385
0.000256
0.000456
0.000241
0.000267
0.000278
0.000303
0.000287
0.000262
0.000270
0.000435
0.000561
0.000194
0.000065
0.000187
0.000211
0.000252
0.000246
0.000249
0.000466
0.000248
0.000232
0.000260
0.000404
0.000439
0.000557
0.000222
0.000241
0.000237
0.000238
0.000258
0.000263
0.000267
0.000223
0.000266
0.000277
0.000353
0.000509
0.000325
0.000413
0.000329
0.000347
0.000258
0.000210
0.000157
0.000064
0.000182
0.000231
0.000243
0.000551
0.000237
0.000376
0.000247
0.000215
0.000227
0.000227
0.000249
0.000250
0.000261
0.000253
0.000286
0.000233
0.000252
0.000240
0.000265
0.000507
0.000548
0.000260
0.000226
0.000239
0.000278
0.000273
0.000258
0.000261
0.000256
0.000279
0.000194
0.000066
0.000284
0.000368
0.000482
0.000222
0.000216
0.000199
0.000308
0.000530
0.000255
0.000214
0.000225
0.000267
0.000303
0.000431
0.000411
0.000322
0.000216
0.000247
0.000260
0.000240
0.000254
0.000264
0.000261
0.000286
0.000289
0.000342
0.000413
0.000461
0.000218
0.000228
0.000160
0.000065
0.000191
0.000215
0.000245
0.000255
0.000256
0.000259
0.000233
0.000264
0.000246
0.000264
0.000266
0.000239
0.000257
0.001440
0.000241
0.000257
0.000268
0.000245
0.000291
0.000257
0.000266
0.000241
0.000270
0.000258
0.000267
0.000297
0.000252
0.000256
0.000266
0.000261
0.000194
0.000076
0.000201
0.000231
0.000234
0.000247
0.000249
0.000260
0.000234
0.000255
0.000229
0.000249
0.000253
0.000259
0.000258
0.000254
0.000251
0.000260
0.000256
0.000276
0.000252
0.000252
0.000259
0.000257
0.000266
0.000229
0.001337
0.000276
0.000622
0.000397
0.000341
0.000215
0.000163
0.000066
0.000197
0.000230
0.000237
0.000242
0.000485
0.000223
0.000200
0.000237
0.000250
0.000360
0.000508
0.000343
0.000215
0.000206
0.000236
0.000270
0.000252
0.000270
0.000249
0.000256
0.000266
0.000248
0.000262
0.000422
0.000524
0.000414
0.000247
0.000268
0.001342
0.000270
0.000193
0.000156
0.000269
0.000409
0.000346
0.000250
0.000204
0.000236
0.000208
0.000244
0.000263
0.000253
0.000237
0.000254
0.000260
0.000291
0.000590
0.000401
0.000265
0.000253
0.000248
0.000254
0.000257
0.000276
0.000263
0.000266
0.000268
0.000261
0.000308
0.000611
0.000389
0.000330
0.000159
0.000065
0.000197
0.000227
0.001310
0.000357
0.000285
0.000480
0.000351
0.000342
0.000487
0.000321
0.000221
0.000218
0.000240
0.000251
0.000260
0.000261
0.000304
0.000512
0.000459
0.000340
0.000264
0.000245
0.000254
0.000501
0.000266
0.000240
0.000240
0.000279
0.000277
0.000558
0.000324
0.000066
0.000380
0.000342
0.000215
0.000202
0.001535
0.000539
0.000326
0.000190
0.000213
0.000242
0.000248
0.000233
0.000253
0.000264
0.000251
0.000258
0.000234
0.000373
0.000396
0.000501
0.000304
0.000218
0.000231
0.000246
0.000259
0.000276
0.000268
0.000245
0.000246
0.000267
0.000224
0.000079
0.000367
0.000303
0.000269
0.000231
0.000241
0.000235
0.000243
0.000257
0.000222
0.000239
0.001491
0.000489
0.000220
0.000207
0.000224
0.000250
0.000278
0.000270
0.000226
0.000272
0.000270
0.000255
0.000269
0.000398
0.000395
0.000488
0.000230
0.000289
0.000254
0.000291
0.000165
0.000079
0.000196
0.000455
0.000212
0.000228
0.000383
0.000347
0.000355
0.000367
0.000440
0.000216
0.000229
0.000251
0.000264
0.000260
0.000267
0.001509
0.000236
0.000305
0.000243
0.000279
0.000276
0.000246
0.000258
0.000253
0.000241
0.000272
0.000491
0.000375
0.000351
0.000271
0.000142
0.000063
0.000181
0.000228
0.000232
0.000246
0.000245
0.000263
0.000236
0.000247
0.000306
0.000353
0.000493
0.000269
0.000231
0.000224
0.000239
0.000291
0.000257
0.000264
0.000271
0.000218
0.000258
0.000301
0.001314
0.000253
0.000252
0.000234
0.000220
0.000281
0.000260
0.000261
0.000182
0.000065
0.000221
0.000359
0.000388
0.000338
0.000241
0.000211
0.000250
0.000261
0.000258
0.000249
0.000259
0.000269
0.000236
0.000256
0.000255
0.000263
0.000263
0.000279
0.000262
0.000245
0.000248
0.000270
0.000270
0.000285
0.000271
0.000266
0.000291
0.000243
0.000272
0.000489
0.001319
0.000071
0.000186
0.000226
0.000228
0.000271
0.000232
0.000266
0.000241
0.000229
0.000235
0.000261
0.000261
0.000259
0.000256
0.000239
0.000238
0.001697
0.000357
0.000222
0.000215
0.000263
0.000236
0.000246
0.000267
0.000261
0.000268
0.000269
0.000269
0.000287
0.000247
0.000268
0.000246
0.000065
0.000254
0.000355
0.001322
0.000197
0.000219
0.000230
0.000250
0.000273
0.000246
0.000243
0.000252
0.000345
0.000401
0.000489
0.000245
0.000229
0.000234
0.000252
0.000250
0.000278
0.000229
0.000308
0.000232
0.000288
0.000258
0.000409
0.000372
0.000360
0.000298
0.000249
0.000185
0.000065
0.000204
0.000214
0.000244
0.000248
0.000251
0.000250
0.000232
0.000255
0.000467
0.000373
0.001185
0.000229
0.000231
0.000260
0.000255
0.000276
0.000264
0.000247
0.000322
0.000448
0.000299
0.000314
0.000232
0.000239
0.000265
0.000270
0.000273
0.000298
0.000290
0.000262
0.000203
0.000065
0.000248
0.000477
0.000343
0.000228
0.000214
0.000217
0.000252
0.000246
0.000284
0.000259
0.000220
0.000587
0.000408
0.000458
0.000298
0.001430
0.000214
0.000321
0.000349
0.000394
0.000332
0.000499
0.000425
0.000369
0.000223
0.000274
0.000256
0.000274
0.000292
0.000243
0.000214
0.000122
0.000172
0.000311
0.000398
0.000441
0.000379
0.000253
0.000218
0.000224
0.000237
0.000257
0.000253
0.000265
0.000256
0.000253
0.000284
0.000347
0.000389
0.000431
0.000278
0.001315
0.000283
0.000249
0.000259
0.000506
0.000288
0.000386
0.000409
0.000224
0.000256
0.000272
0.000193
0.000064
0.000192
0.000231
0.000236
0.000233
0.000250
0.000334
0.000570
0.000223
0.000374
0.000218
0.000241
0.000241
0.000272
0.000261
0.000278
0.000258
0.000258
0.000257
0.000275
0.000287
0.000547
0.000387
0.000331
0.001348
0.000352
0.000234
0.000311
0.000403
0.000476
0.000311
0.000339
0.000066
0.000191
0.000225
0.000244
0.000257
0.000270
0.000231
0.001665
0.000270
0.000211
0.000233
0.000236
0.000308
0.000325
0.000329
0.000282
0.000307
0.000211
0.000295
0.000621
0.000318
0.000294
0.000254
0.000240
0.000232
0.001433
0.000439
0.000402
0.000491
0.000389
0.000227
0.000128
0.000066
0.000177
0.000237
0.000248
0.000255
0.000237
0.000264
0.001778
0.000218
0.000224
0.000274
0.000390
0.000413
0.001466
0.000305
0.000388
0.000215
0.000235
0.000239
0.000259
0.000274
0.001581
0.000585
0.000383
0.000289
0.000218
0.000223
0.000262
0.000283
0.000249
0.000227
0.000211
0.000066
0.000185
0.000223
0.000254
0.000263
0.000278
0.000235
0.000286
0.000254
0.000254
0.000252
0.000251
0.000252
0.000260
0.000271
0.000267
0.001520
0.000233
0.000253
0.000268
0.000276
0.000272
0.000303
0.000431
0.001199
0.000276
0.000262
0.000248
0.000306
0.000413
0.000217
0.000183
0.000066
0.000212
0.000237
0.000224
0.000247
0.000247
0.000219
0.000235
0.001736
0.000216
0.000242
0.000237
0.000361
0.000236
0.000216
0.001424
0.000258
0.000244
0.000225
0.000260
0.000240
0.000258
0.000316
0.000307
0.001362
0.000276
0.000229
0.000226
0.000292
0.001352
0.000261
0.000213
0.000066
0.000263
0.000308
0.000212
0.000222
0.000254
0.000238
0.000292
0.000247
0.000265
0.000238
0.000253
0.000262
0.000254
0.000247
0.000431
0.001368
0.000266
0.000280
0.000252
0.000248
0.000276
0.000264
0.000253
0.001502
0.000325
0.000268
0.000254
0.001341
0.000232
0.000228
0.000201
0.000065
0.000225
0.000500
0.000199
0.000228
0.000224
0.000234
0.000282
0.000250
0.000254
0.000270
0.000242
0.000247
0.000260
0.000294
0.000429
0.001226
0.000220
0.000254
0.000240
0.000273
0.000231
0.000239
0.000254
0.001273
0.000383
0.000223
0.000231
0.000252
0.000295
0.001294
0.000384
0.000066
0.000262
0.000227
0.000216
0.000231
0.000234
0.000233
0.000245
0.000264
0.000265
0.000252
0.000240
0.000255
0.000247
0.000364
0.000382
0.001459
0.000228
0.000264
0.000272
0.000518
0.000294
0.000382
0.001352
0.000312
0.000261
0.000241
0.001268
0.000353
0.000353
0.000539
0.000236
0.000087
0.000190
0.000249
0.000252
0.000254
0.000264
0.000243
0.000257
0.000263
0.000261
0.000262
0.000299
0.000528
0.001334
0.000222
0.000251
0.000233
0.000280
0.000263
0.000229
0.000240
0.000323
0.001304
0.000227
0.000232
0.000239
0.000257
0.001442
0.000632
0.000322
0.000253
0.000194
0.000065
0.000208
0.000222
0.000228
0.000233
0.000265
0.000271
0.000239
0.000257
0.000440
0.000440
0.000331
0.001441
0.000228
0.000270
0.000241
0.000256
0.000295
0.000264
0.001622
0.000383
0.000363
0.000311
0.001387
0.000290
0.000307
0.000366
0.000220
0.000215
0.000234
0.000275
0.000211
0.000065
0.000193
0.000225
0.000306
0.000228
0.000359
0.000536
0.000271
0.000365
0.001451
0.000317
0.000312
0.000252
0.000208
0.000327
0.000400
0.001317
0.000262
0.000220
0.000229
0.000250
0.000297
0.001582
0.000355
0.000274
0.000234
0.000236
0.000514
0.000307
0.000219
0.000261
0.000232
0.000066
0.000318
0.000351
0.000274
0.000288
0.000213
0.001454
0.000255
0.000249
0.000260
0.000271
0.000264
0.000246
0.000335
0.001429
0.000272
0.000231
0.000407
0.001296
0.000276
0.000446
0.000358
0.000262
0.000241
0.000245
0.000278
0.000258
0.000444
0.000237
0.000260
0.000276
0.000193
0.000065
0.000200
0.000277
0.000312
0.001438
0.000272
0.000234
0.000286
0.000267
0.000244
0.000229
0.000246
0.000295
0.001608
0.000228
0.000213
0.000214
0.001366
0.000351
0.000462
0.000465
0.000292
0.000229
0.000220
0.000254
0.000353
0.000245
0.000221
0.000257
0.000251
0.000258
0.000219
0.000064
0.000193
0.000439
0.001381
0.000222
0.000282
0.000264
0.000251
0.000278
0.000421
0.000321
0.001249
0.000335
0.000280
0.000192
0.000218
0.001367
0.000622
0.000278
0.000425
0.000380
0.000291
0.000230
0.000220
0.000249
0.000245
0.000293
0.000272
0.000303
0.000444
0.000443
0.001380
0.000068
0.000219
0.000230
0.000235
0.000225
0.000288
0.000418
0.000492
0.001281
0.000217
0.000233
0.000241
0.001400
0.000360
0.000422
0.000459
0.000256
0.000211
0.000210
0.000262
0.000257
0.000274
0.000266
0.000274
0.000262
0.000260
0.000276
0.000444
0.000495
0.001455
0.000282
0.000172
0.000065
0.000187
0.000232
0.000365
0.000528
0.001243
0.000292
0.000236
0.000246
0.000268
0.000243
0.000234
0.000266
0.000329
0.000587
0.000305
0.000231
0.000247
0.000278
0.000239
0.000263
0.000275
0.000259
0.000249
0.000279
0.000259
0.000462
0.000409
0.000327
0.000301
0.001484
0.000157
0.000066
0.000184
0.000227
0.000278
0.000479
0.000289
0.000326
0.000293
0.000329
0.000266
0.000273
0.000268
0.000250
0.000241
0.000323
0.000240
0.000271
0.000572
0.000325
0.000274
0.000411
0.000288
0.000443
0.000226
0.000239
0.000222
0.000252
0.000268
0.000290
0.000376
0.000458
0.000311
0.000065
0.000319
0.001262
0.000324
0.000306
0.000406
0.000423
0.000394
0.000308
0.000189
0.000222
0.000255
0.000247
0.000264
0.000258
0.000256
0.000271
0.000245
0.001442
0.000232
0.000228
0.000265
0.000250
0.000260
0.000270
0.000271
0.000250
0.000270
0.000257
0.000387
0.000325
0.000365
0.000068
0.000235
0.000226
0.001437
0.000383
0.000283
0.000211
0.000204
0.000213
0.000251
0.000236
0.000253
0.000268
0.000261
0.000246
0.000267
0.000264
0.000242
0.000262
0.000274
0.000238
0.001427
0.000308
0.000207
0.000318
0.000226
0.000215
0.000256
0.000274
0.000263
0.000495
0.000385
0.000065
0.000187
0.000216
0.000392
0.000283
0.000247
0.000254
0.001506
0.000452
0.000238
0.000206
0.000234
0.000349
0.000321
0.000222
0.000225
0.000263
0.000238
0.000282
0.000240
0.000256
0.000495
0.000502
0.001159
0.000256
0.000216
0.000252
0.000267
0.000257
0.000266
0.000265
0.000331
0.000067
0.000248
0.000342
0.000203
0.000245
0.000228
0.000242
0.000240
0.000228
0.001536
0.000430
0.000374
0.000271
0.000211
0.000221
0.000236
0.000263
0.000243
0.000280
0.000254
0.000304
0.000308
0.000501
0.000492
0.001312
0.000266
0.000247
0.000281
0.000250
0.000273
0.000390
0.000464
0.000086
0.000160
0.000218
0.000233
0.000246
0.000232
0.000238
0.000263
0.000235
0.000282
0.001566
0.000354
0.000262
0.000262
0.000265
0.000451
0.000370
0.000375
0.000424
0.000327
0.000333
0.000438
0.000521
0.001238
0.000230
0.000209
0.000265
0.001790
0.000402
0.000571
0.000324
0.000144
0.000065
0.000186
0.000224
0.000247
0.000230
0.000266
0.000244
0.000404
0.000362
0.000624
0.000278
0.000300
0.000210
0.000216
0.000259
0.000252
0.000279
0.000268
0.000233
0.000241
0.000270
0.000270
0.000551
0.001214
0.000251
0.000237
0.000256
0.001882
0.000398
0.000385
0.000350
0.000168
0.000065
0.000220
0.000211
0.000239
0.001544
0.000422
0.000245
0.000243
0.000270
0.000247
0.000326
0.000367
0.000380
0.000348
0.000292
0.000314
0.000503
0.000364
0.001237
0.000259
0.000213
0.000242
0.000261
0.000361
0.000449
0.000523
0.000471
0.000230
0.000230
0.000265
0.000285
0.000186
0.000065
0.000203
0.000223
0.001474
0.000369
0.000227
0.000210
0.000222
0.000251
0.000239
0.000255
0.000234
0.000272
0.000273
0.000268
0.000330
0.000338
0.000421
0.000341
0.001377
0.000247
0.000262
0.000264
0.000267
0.000253
0.000438
0.000354
0.000504
0.000298
0.000275
0.000256
0.000416
0.000065
0.000198
0.000215
0.000261
0.000239
0.001571
0.000254
0.000263
0.000243
0.000253
0.000262
0.000251
0.000257
0.000239
0.000250
0.000433
0.000538
0.001415
0.000733
0.000226
0.000319
0.000248
0.000230
0.000246
0.000259
0.001758
0.000715
0.000270
0.000252
0.000262
0.000288
0.000205
0.000067
0.000197
0.000212
0.000253
0.000240
0.000272
0.000234
0.000251
0.000237
0.000249
0.000235
0.000272
0.000271
0.000254
0.000260
0.000257
0.000249
0.000269
0.001593
0.000741
0.000406
0.000279
0.000220
0.000233
0.000275
0.000279
0.000269
0.000267
0.000257
0.001438
0.000407
0.000360
0.000065
0.000202
0.000213
0.000229
0.000250
0.000254
0.000236
0.000280
0.000225
0.000272
0.000263
0.000277
0.000420
0.000455
0.000308
0.000213
0.000247
0.000262
0.001439
0.000713
0.000361
0.000354
0.000302
0.000235
0.000243
0.000254
0.000271
0.000259
0.000267
0.001466
0.000442
0.000230
0.000065
0.000209
0.000219
0.000245
0.000248
0.000248
0.000244
0.000237
0.000256
0.000267
0.000267
0.000394
0.000317
0.000320
0.000262
0.000225
0.000244
0.000261
0.000255
0.001616
0.000564
0.000539
0.000296
0.000212
0.000257
0.000268
0.000258
0.000261
0.000266
0.000274
0.001570
0.000162
0.000065
0.000217
0.000221
0.000223
0.000242
0.000248
0.000244
0.000289
0.000361
0.000392
0.000469
0.000283
0.000395
0.000310
0.000237
0.000224
0.000247
0.000275
0.000255
0.001476
0.000819
0.000279
0.000208
0.000474
0.000228
0.000216
0.000244
0.000290
0.000245
0.000268
0.000284
0.000304
0.000066
0.000282
0.000232
0.000210
0.000232
0.000253
0.000253
0.000237
0.000241
0.000260
0.000259
0.000244
0.000230
0.000293
0.000437
0.000589
0.000318
0.000235
0.000265
0.000256
0.000244
0.000265
0.000360
0.001424
0.000998
0.000251
0.000238
0.000258
0.000274
0.000268
0.000262
0.000204
0.000065
0.000190
0.001372
0.000255
0.000222
0.000211
0.000253
0.000246
0.000248
0.000224
0.000244
0.000259
0.000258
0.000256
0.000432
0.000310
0.000481
0.000283
0.000212
0.000266
0.000273
0.000260
0.000260
0.000245
0.000266
0.001457
0.000606
0.000317
0.000404
0.000372
0.000403
0.000240
0.000067
0.000206
0.000220
0.000392
0.001263
0.000245
0.000263
0.000217
0.000243
0.000264
0.000251
0.000281
0.000223
0.000267
0.000349
0.000538
0.000363
0.000223
0.000313
0.000258
0.000243
0.000234
0.000270
0.000229
0.000257
0.000269
0.001528
0.000780
0.000283
0.000282
0.000262
0.000198
0.000081
0.000192
0.000276
0.000402
0.000481
0.001209
0.000242
0.000207
0.000223
0.000239
0.000230
0.000248
0.000251
0.000246
0.000236
0.000252
0.000271
0.000248
0.000248
0.000256
0.000262
0.000261
0.000275
0.000308
0.000305
0.000236
0.000259
0.000273
0.001511
0.000224
0.000234
0.000165
0.000066
0.000197
0.000222
0.000257
0.000329
0.000336
0.000348
0.000410
0.000221
0.001560
0.000273
0.000261
0.000498
0.000382
0.000209
0.000479
0.000229
0.000220
0.000250
0.000268
0.000266
0.000283
0.000262
0.000261
0.000268
0.000243
0.000440
0.000462
0.000285
0.001523
0.000237
0.000192
0.000066
0.000221
0.000227
0.000232
0.000279
0.000214
0.000263
0.000246
0.000316
0.000434
0.002065
0.000211
0.000222
0.000250
0.000257
0.000259
0.000304
0.000257
0.000237
0.000277
0.000402
0.000346
0.000463
0.001509
0.000228
0.000248
0.000477
0.001770
0.000280
0.000261
0.001479
0.000190
0.000180
0.000225
0.000354
0.000490
0.000237
0.000264
0.000244
0.000270
0.000250
0.000265
0.000228
0.000238
0.000337
0.000406
0.000366
0.000390
0.000291
0.000222
0.001548
0.000495
0.001998
0.000333
0.000216
0.000252
0.001588
0.001956
0.000743
0.000277
0.000213
0.000275
0.000598
0.000219
0.000065
0.000199
0.000228
0.000239
0.000248
0.001470
0.001663
0.001083
0.000240
0.000230
0.001571
0.001958
0.000252
0.000452
0.000280
0.000290
0.000421
0.000333
0.000372
0.000267
0.000231
0.000246
0.000247
0.000267
0.001565
0.001300
0.001423
0.000274
0.000231
0.000306
0.000287
0.000330
0.000066
0.000263
0.000186
0.000234
0.000230
0.000237
0.000234
0.000255
0.000245
0.000258
0.000234
0.000256
0.000348
0.000423
0.000478
0.000300
0.000216
0.000258
0.000249
0.000266
0.000267
0.000254
0.001376
0.000517
0.000379
0.002075
0.000276
0.000236
0.000341
0.000497
0.000394
0.000164
0.000066
0.000213
0.000359
0.000417
0.000320
0.000219
0.000248
0.000220
0.000247
0.000244
0.000255
0.000235
0.000253
0.000262
0.001611
0.001414
0.001230
0.000289
0.000210
0.000254
0.000232
0.000282
0.000276
0.000250
0.000260
0.002244
0.000219
0.000253
0.000273
0.000330
0.000295
0.000219
0.000078
0.000209
0.000353
0.000605
0.000313
0.000219
0.000213
0.000233
0.000285
0.001861
0.001412
0.000329
0.000366
0.000439
0.000312
0.000230
0.000211
0.000231
0.000269
0.000276
0.000247
0.000264
0.000263
0.000456
0.000241
0.000261
0.000288
0.000235
0.000275
0.000280
0.000257
0.000210
0.000066
0.000181
0.000253
0.000222
0.000246
0.000240
0.000275
0.001531
0.001503
0.001312
0.000228
0.000214
0.000243
0.000248
0.000267
0.000252
0.000247
0.000243
0.002164
0.000206
0.000230
0.000248
0.000260
0.000277
0.000259
0.000271
0.000262
0.000252
0.000262
0.000261
0.000260
0.000182
0.000065
0.001496
0.000314
0.002394
0.000277
0.000300
0.000298
0.000238
0.000262
0.000263
0.000240
0.000250
0.000244
0.000240
0.000238
0.000267
0.000265
0.000251
0.000278
0.000253
0.000274
0.000260
0.000296
0.000265
0.000269
0.000246
0.000242
0.000267
0.000266
0.000266
0.000265
0.000375
0.000065
0.000193
0.002543
0.000344
0.000207
0.000215
0.000211
0.000258
0.000249
0.000256
0.000257
0.000453
0.000279
0.000351
0.000235
0.000247
0.002204
0.000225
0.000245
0.000267
0.000488
0.000405
0.000258
0.000216
0.000243
0.000262
0.000254
0.000280
0.000273
0.000271
0.001681
0.001211
0.000066
0.000198
0.000237
0.000395
0.000266
0.000352
0.000295
0.000239
0.000204
0.000245
0.000253
0.000263
0.000248
0.000248
0.000252
0.000261
0.000243
0.000287
0.000730
0.000293
0.000241
0.000239
0.000232
0.000283
0.000269
0.000261
0.000233
0.000249
0.000279
0.000258
0.000303
0.000403
0.000065
0.001107
0.000370
0.000204
0.000491
0.000282
0.000202
0.000217
0.000239
0.002179
0.000517
0.000443
0.000187
0.000231
0.000306
0.000303
0.000256
0.000264
0.000264
0.000258
0.000262
0.000240
0.000274
0.000703
0.000399
0.001795
0.001322
0.000627
0.000461
0.000216
0.000277
0.000195
0.000065
0.000295
0.000310
0.000231
0.000234
0.000255
0.000234
0.000238
0.000240
0.000266
0.000252
0.000254
0.000233
0.000239
0.000239
0.000348
0.000595
0.001901
0.001275
0.000398
0.000406
0.000446
0.000252
0.000256
0.000263
0.002175
0.000509
0.000352
0.000263
0.000276
0.000284
0.000189
0.000065
0.000189
0.000227
0.000246
0.000251
0.000242
0.000394
0.000370
0.000303
0.000337
0.000227
0.000242
0.000272
0.000236
0.002079
0.000389
0.000376
0.000243
0.000234
0.000271
0.000262
0.000243
0.002462
0.000319
0.000248
0.000245
0.000250
0.000257
0.000282
0.000272
0.000282
0.000201
0.000065
0.000219
0.000637
0.000307
0.000347
0.000213
0.000210
0.000209
0.000259
0.000266
0.000261
0.002112
0.000274
0.000345
0.000193
0.000195
0.000251
0.000280
0.000243
0.002249
0.000409
0.000215
0.000273
0.000258
0.000265
0.000281
0.000242
0.000252
0.000255
0.000267
0.000265
0.000193
0.000064
0.000179
0.000210
0.000263
0.000259
0.000214
0.000258
0.000235
0.000236
0.000242
0.002162
0.000249
0.000269
0.000231
0.000470
0.000208
0.000224
0.000273
0.000283
0.000259
0.000256
0.002016
0.000248
0.000390
0.000356
0.000485
0.000381
0.000242
0.000268
0.000216
0.000249
0.000205
0.000065
0.000201
0.000279
0.000201
0.000241
0.000244
0.000365
0.000202
0.002343
0.000223
0.000215
0.000245
0.000256
0.000241
0.000241
0.000307
0.002178
0.000523
0.000236
0.000259
0.000241
0.000296
0.000228
0.000283
0.000267
0.000274
0.000242
0.000294
0.000241
0.000268
0.000295
0.000167
0.000094
0.000238
0.002936
0.000245
0.000238
0.000243
0.000247
0.000248
0.000306
0.000337
0.000408
0.002129
0.000266
0.000245
0.000265
0.000323
0.000521
0.000378
0.000316
0.000216
0.000213
0.000245
0.000246
0.000269
0.000245
0.000255
0.000267
0.000275
0.000243
0.000470
0.000571
0.000284
0.000066
0.000227
0.000297
0.000221
0.000211
0.000235
0.000243
0.000248
0.001476
0.000340
0.002109
0.000510
0.000355
0.000397
0.000697
0.000343
0.000212
0.000221
0.000264
0.000254
0.000259
0.000269
0.000237
0.000246
0.000269
0.001813
0.001460
0.000296
0.000282
0.000282
0.000274
0.000461
0.000065
0.001933
0.000232
0.000245
0.000197
0.000282
0.000396
0.000428
0.000293
0.000342
0.000206
0.000231
0.000233
0.000251
0.000254
0.000256
0.000268
0.000250
0.000268
0.001892
0.000212
0.000220
0.000251
0.000261
0.000268
0.000277
0.000260
0.001526
0.000339
0.000253
0.000220
0.000153
0.000065
0.000210
0.000207
0.000227
0.000249
0.000248
0.000248
0.000359
0.000327
0.000344
0.000396
0.000202
0.000275
0.000338
0.000337
0.000382
0.000289
0.000192
0.000223
0.000282
0.000309
0.000553
0.000413
0.000233
0.000232
0.000279
0.000251
0.000248
0.000268
0.000267
0.000261
0.000218
0.000065
0.001427
0.000409
0.000251
0.002015
0.000208
0.000504
0.000313
0.000382
0.000203
0.000211
0.000270
0.000247
0.000240
0.000249
0.000266
0.000257
0.000460
0.000256
0.000453
0.000362
0.000357
0.000248
0.000238
0.000258
0.000321
0.000215
0.000259
0.000270
0.000323
0.000536
0.001388
0.000066
0.000185
0.000227
0.002060
0.000296
0.000320
0.000276
0.000247
0.000259
0.000255
0.000245
0.000221
0.000254
0.000261
0.000259
0.000275
0.000309
0.000714
0.001743
0.000282
0.000248
0.000250
0.000249
0.000379
0.000487
0.001528
0.000292
0.000374
0.001983
0.000237
0.000226
0.000200
0.000065
0.000194
0.000236
0.000216
0.000270
0.000241
0.000225
0.000255
0.000312
0.000334
0.000349
0.000363
0.000351
0.000317
0.000247
0.000228
0.000260
0.000269
0.000233
0.000259
0.000252
0.000288
0.000292
0.000267
0.000256
0.000273
0.001573
0.000311
0.000423
0.001953
0.000248
0.000173
0.000065
0.000248
0.000194
0.000223
0.000237
0.000464
0.000238
0.000246
0.000409
0.000354
0.000317
0.000236
0.000224
0.000264
0.000269
0.000278
0.000401
0.000422
0.000365
0.000231
0.000364
0.000592
0.000515
0.001469
0.000264
0.000244
0.002054
0.000312
0.000230
0.000234
0.000244
0.000213
0.000066
0.000200
0.000206
0.000249
0.000234
0.000258
0.000250
0.000255
0.000268
0.000254
0.000297
0.001839
0.000387
0.000313
0.000326
0.000450
0.000359
0.001504
0.000333
0.000213
0.000321
0.002192
0.000516
0.000194
0.000219
0.000250
0.000271
0.000484
0.000244
0.000253
0.000278
0.000199
0.000066
0.000266
0.000362
0.000369
0.000273
0.000226
0.000218
0.000256
0.000250
0.000254
0.000295
0.000250
0.000231
0.000263
0.000277
0.000357
0.000475
0.001265
0.000266
0.000426
0.001861
0.000337
0.000258
0.000216
0.000267
0.000243
0.000280
0.000289
0.000244
0.000246
0.000264
0.000206
0.000065
0.000228
0.000443
0.002029
0.000252
0.000220
0.000215
0.000239
0.000266
0.000519
0.001438
0.000362
0.000377
0.000297
0.001991
0.000240
0.000248
0.000270
0.000271
0.000266
0.000211
0.000309
0.000275
0.000273
0.000373
0.000489
0.000344
0.000328
0.002215
0.000492
0.000471
0.000433
0.000067
0.000196
0.000223
0.000217
0.002040
0.000198
0.000218
0.000232
0.000246
0.000235
0.000262
0.000241
0.000276
0.000228
0.000377
0.000445
0.000307
0.001310
0.000264
0.000263
0.000264
0.000231
0.000255
0.000258
0.000301
0.000350
0.000460
0.000383
0.000282
0.001658
0.000223
0.000148
0.000066
0.000186
0.000204
0.000242
0.000239
0.000241
0.000268
0.000237
0.000249
0.000274
0.000366
0.000433
0.001397
0.000215
0.000212
0.000236
0.000256
0.000259
0.000258
0.000301
0.000456
0.000472
0.000397
0.000222
0.001566
0.000260
0.000264
0.000269
0.000278
0.000265
0.000260
0.000196
0.000065
0.000236
0.000209
0.000244
0.000258
0.000258
0.000250
0.000233
0.000239
0.000276
0.000225
0.000250
0.000255
0.000254
0.000253
0.001563
0.000242
0.000251
0.000311
0.000331
0.000345
0.000355
0.000199
0.000215
0.000264
0.000239
0.000264
0.001455
0.000296
0.000212
0.000240
0.000158
0.000066
0.000201
0.000220
0.000246
0.000277
0.000237
0.000248
0.000256
0.000260
0.000218
0.000264
0.000244
0.000265
0.000222
0.000324
0.000397
0.000282
0.000307
0.001586
0.000332
0.000211
0.000228
0.000242
0.000266
0.000311
0.000403
0.000461
0.000385
0.000237
0.000222
0.001592
0.000188
0.000066
0.000341
0.000353
0.000352
0.000265
0.000225
0.000209
0.000269
0.000253
0.000249
0.000239
0.000239
0.000239
0.001456
0.000308
0.000320
0.000212
0.000238
0.000286
0.000249
0.000260
0.000256
0.000240
0.000259
0.000266
0.000275
0.000334
0.000631
0.000274
0.000227
0.000225
0.000193
0.000071
0.000203
0.000233
0.000423
0.000415
0.000341
0.000244
0.000223
0.000254
0.000246
0.000257
0.000251
0.000224
0.000258
0.000247
0.001330
0.000272
0.000223
0.000226
0.000262
0.000265
0.000258
0.000257
0.000252
0.000260
0.000254
0.000257
0.000305
0.000658
0.000492
0.000241
0.000177
0.000065
0.000192
0.001527
0.000289
0.000302
0.000486
0.000365
0.000207
0.000235
0.000283
0.000240
0.000249
0.000272
0.000270
0.000270
0.000261
0.001510
0.000268
0.000285
0.000261
0.000258
0.000281
0.000235
0.000263
0.000264
0.000263
0.000295
0.000424
0.000395
0.000335
0.000235
0.000164
0.000064
0.000186
0.000215
0.000251
0.001727
0.000371
0.000354
0.000200
0.000206
0.000252
0.000258
0.000286
0.000244
0.000253
0.000258
0.000244
0.000285
0.000397
0.001374
0.000215
0.000227
0.001532
0.000257
0.000615
0.000415
0.000280
0.000237
0.000259
0.000466
0.000241
0.000266
0.000184
0.000067
0.000292
0.000209
0.000217
0.000249
0.000243
0.000256
0.000248
0.000247
0.000262
0.000273
0.000232
0.000253
0.000375
0.000521
0.001564
0.001489
0.000374
0.000511
0.000334
0.000261
0.000225
0.000258
0.000260
0.000244
0.000267
0.000266
0.000256
0.000289
0.001555
0.000323
0.000135
0.000065
0.000320
0.000288
0.000344
0.000362
0.000222
0.000199
0.000227
0.000363
0.000507
0.001295
0.000354
0.001535
0.000494
0.000355
0.000444
0.000330
0.000286
0.000329
0.000340
0.000269
0.000255
0.000365
0.001548
0.000521
0.000249
0.000241
0.000272
0.000245
0.000266
0.000267
0.000197
0.000085
0.000194
0.000243
0.000254
0.000255
0.000243
0.001641
0.000943
0.000907
0.000260
0.000234
0.000256
0.000266
0.000229
0.000265
0.000258
0.000246
0.000257
0.000262
0.000270
0.000275
0.001502
0.000266
0.000255
0.000224
0.000242
0.000253
0.000263
0.000263
0.000275
0.000271
0.000228
0.000066
0.000201
0.000205
0.001523
0.000975
0.000335
0.000331
0.000218
0.000233
0.000239
0.000259
0.000238
0.000255
0.000249
0.002032
0.000467
0.000214
0.000215
0.000235
0.000262
0.000266
0.000198
