0.000104
0.017221
0.004385
0.000297
0.000218
0.000246
0.000303
0.000257
0.000323
0.000294
0.000245
0.000379
0.000496
0.000530
0.000337
0.000328
0.000292
0.000379
0.000397
0.000412
0.000313
0.001883
0.000459
0.000450
0.000255
0.000292
0.000305
0.000421
0.000416
0.000398
0.000430
0.000321
0.000058
0.000204
0.000234
0.000264
0.000266
0.000297
0.000229
0.000275
0.000257
0.000279
0.000282
0.000417
0.000479
0.000311
0.000285
0.000398
0.000365
0.000348
0.000252
0.000205
0.001742
0.000292
0.000214
0.000518
0.000240
0.000245
0.000232
0.000291
0.000299
0.000283
0.000301
0.000489
0.000059
0.000198
0.000205
0.000261
0.000257
0.000257
0.000248
0.000260
0.000259
0.000278
0.001687
0.000234
0.000227
0.000247
0.000277
0.000277
0.000248
0.000277
0.000250
0.000347
0.001807
0.000255
0.000251
0.000467
0.000466
0.000379
0.000251
0.000224
0.000520
0.000404
0.000857
0.000176
0.000057
0.000230
0.000208
0.000252
0.000236
0.000319
0.000259
0.000294
0.000544
0.000456
0.000271
0.000208
0.000209
0.000236
0.000258
0.000250
0.000260
0.000242
0.000270
0.000304
0.000342
0.001724
0.000245
0.000233
0.000477
0.000287
0.000681
0.000610
0.000524
0.000351
0.000238
0.000214
0.000057
0.000181
0.000227
0.000260
0.000246
0.000252
0.000256
0.000251
0.000492
0.001469
0.000247
0.000216
0.000241
0.000250
0.000246
0.000269
0.000283
0.000273
0.000837
0.001356
0.000287
0.000258
0.000418
0.000263
0.000242
0.000245
0.000245
0.000277
0.000267
0.000256
0.000275
0.000220
0.000057
0.000239
0.000204
0.000218
0.000248
0.000255
0.000242
0.000244
0.000254
0.000238
0.000253
0.001719
0.000237
0.000220
0.000227
0.000230
0.000248
0.000235
0.000247
0.000265
0.000251
0.000262
0.001761
0.000238
0.000245
0.000478
0.000247
0.000226
0.000241
0.000259
0.000262
0.000210
0.000055
0.000194
0.000215
0.000233
0.000243
0.000240
0.000256
0.000250
0.000241
0.000260
0.000246
0.000282
0.000240
0.000269
0.000268
0.001640
0.000279
0.000283
0.000229
0.000233
0.000278
0.000269
0.000241
0.000263
0.000246
0.000275
0.001899
0.000340
0.000346
0.000276
0.000261
0.000224
0.000057
0.000203
0.000203
0.000235
0.000273
0.000277
0.000209
0.000322
0.000385
0.000455
0.000386
0.000225
0.000223
0.000257
0.000243
0.001659
0.000509
0.000302
0.000415
0.000286
0.000214
0.000255
0.000276
0.000272
0.001821
0.000452
0.000522
0.000234
0.000214
0.000218
0.000269
0.000198
0.000057
0.000190
0.000222
0.000248
0.000248
0.000304
0.000479
0.000413
0.000273
0.000206
0.000214
0.000266
0.000236
0.000271
0.001685
0.000515
0.000298
0.000226
0.000230
0.000270
0.000275
0.000260
0.000255
0.000281
0.001904
0.000297
0.000396
0.000261
0.000222
0.000319
0.000403
0.000317
0.000056
0.000201
0.000396
0.000394
0.000237
0.000269
0.000207
0.000236
0.000254
0.000244
0.000250
0.000222
0.000248
0.001632
0.000339
0.000301
0.000216
0.000223
0.000246
0.000242
0.000281
0.000274
0.000328
0.001810
0.000346
0.000221
0.000509
0.000214
0.000213
0.000252
0.000272
0.000304
0.000056
0.000364
0.000517
0.000656
0.000193
0.000205
0.000266
0.000233
0.000222
0.000252
0.000252
0.000255
0.001713
0.000278
0.000399
0.000386
0.000216
0.000242
0.000218
0.000243
0.000265
0.000255
0.001862
0.000246
0.000225
0.002257
0.000436
0.000262
0.000265
0.000252
0.000259
0.000210
0.000057
0.000206
0.000209
0.000244
0.000242
0.000259
0.001709
0.000204
0.000203
0.000243
0.000250
0.000246
0.000261
0.000229
0.000257
0.000263
0.000477
0.000606
0.000247
0.000209
0.000262
0.000275
0.000257
0.000228
0.000747
0.000221
0.000223
0.000323
0.000587
0.000458
0.000229
0.000176
0.000059
0.000171
0.000207
0.000246
0.000251
0.000248
0.000235
0.000236
0.000545
0.000394
0.001598
0.000242
0.000234
0.000233
0.000255
0.000274
0.000251
0.000403
0.000574
0.000372
0.000233
0.000220
0.000415
0.000190
0.000248
0.000281
0.000405
0.000426
0.000529
0.000485
0.000469
0.000143
0.000057
0.000218
0.000209
0.000216
0.000240
0.000230
0.000236
0.000250
0.000238
0.000259
0.000374
0.000337
0.001565
0.000273
0.000209
0.000200
0.000225
0.000251
0.000253
0.000251
0.000246
0.000278
0.000432
0.000426
0.000346
0.000228
0.000232
0.000247
0.000273
0.000262
0.000261
0.000438
0.000058
0.000201
0.000222
0.000221
0.000291
0.000519
0.000427
0.000270
0.000228
0.000233
0.000249
0.000254
0.000241
0.000281
0.000263
0.000235
0.000582
0.000427
0.001543
0.000265
0.000243
0.000248
0.000268
0.000257
0.000245
0.000253
0.000438
0.000551
0.000444
0.000266
0.000227
0.000200
0.000057
0.000208
0.000223
0.000406
0.000231
0.000261
0.000240
0.000322
0.000549
0.000356
0.000304
0.000226
0.000251
0.000265
0.000259
0.000584
0.000291
0.000228
0.000228
0.000461
0.001660
0.000237
0.000218
0.000309
0.000416
0.000267
0.000294
0.000269
0.000265
0.000622
0.000423
0.000246
0.000059
0.000207
0.000214
0.000229
0.000239
0.000486
0.000253
0.000287
0.000222
0.000366
0.000595
0.000354
0.000252
0.000196
0.000218
0.000250
0.000264
0.000261
0.000253
0.000233
0.000364
0.000278
0.000570
0.001608
0.000251
0.000241
0.000259
0.000313
0.000370
0.000567
0.000568
0.000403
0.000076
0.000250
0.000312
0.000307
0.000421
0.000327
0.000210
0.000246
0.000265
0.000524
0.000433
0.000325
0.000200
0.000219
0.000260
0.000273
0.000233
0.000240
0.000271
0.000273
0.000262
0.000266
0.000412
0.001769
0.000307
0.000347
0.000421
0.000381
0.000242
0.000385
0.000402
0.000355
0.000056
0.000243
0.000381
0.000285
0.000209
0.000228
0.000218
0.000468
0.000218
0.000243
0.000307
0.000431
0.000361
0.000327
0.000265
0.000261
0.000275
0.000370
0.000444
0.000298
0.000223
0.000210
0.000392
0.000607
0.001704
0.000261
0.000386
0.000329
0.000244
0.000272
0.000420
0.000268
0.000057
0.000190
0.000191
0.000242
0.000261
0.000231
0.000244
0.000255
0.000348
0.000448
0.000262
0.000613
0.000270
0.000302
0.000195
0.000536
0.000285
0.000243
0.000270
0.000240
0.000355
0.000222
0.000230
0.000266
0.000397
0.000563
0.001678
0.000242
0.000233
0.000237
0.000243
0.000206
0.000058
0.000364
0.000379
0.000381
0.000203
0.000240
0.000232
0.000252
0.000244
0.000246
0.000254
0.000217
0.000503
0.000300
0.000478
0.000364
0.000318
0.000213
0.000238
0.000398
0.000351
0.000354
0.000383
0.000361
0.000376
0.000250
0.000209
0.000256
0.000263
0.001794
0.000273
0.000203
0.000058
0.000192
0.000198
0.000244
0.000269
0.000370
0.000537
0.000333
0.000231
0.000225
0.000271
0.000242
0.000254
0.000553
0.000427
0.000470
0.000310
0.000273
0.000239
0.000444
0.000487
0.000372
0.000500
0.000404
0.000432
0.000236
0.000244
0.000235
0.000223
0.000255
0.001791
0.000287
0.000059
0.000285
0.000324
0.000200
0.000217
0.000258
0.000247
0.000294
0.000447
0.000431
0.000302
0.000305
0.000299
0.000386
0.000595
0.000349
0.000202
0.000222
0.000234
0.000248
0.000267
0.000267
0.000291
0.000217
0.000275
0.000282
0.000377
0.000519
0.000336
0.000214
0.000210
0.000197
0.000058
0.000448
0.000299
0.000438
0.000261
0.000195
0.000243
0.000236
0.000253
0.000269
0.000198
0.000243
0.000273
0.000303
0.000380
0.000435
0.000541
0.000323
0.000370
0.000366
0.000393
0.000265
0.000215
0.000220
0.000247
0.001823
0.000226
0.001775
0.000912
0.000366
0.000356
0.000139
0.000056
0.000195
0.000214
0.000232
0.000227
0.000259
0.000254
0.000246
0.000258
0.000269
0.000273
0.000412
0.000426
0.000377
0.000400
0.000252
0.000225
0.000263
0.000289
0.000235
0.000206
0.000256
0.000231
0.001816
0.000271
0.000215
0.000271
0.000277
0.000262
0.001909
0.000435
0.000356
0.000057
0.000201
0.000213
0.000212
0.000239
0.000250
0.000248
0.000243
0.000248
0.000260
0.000381
0.000630
0.000245
0.000395
0.000247
0.000208
0.000291
0.000382
0.000390
0.000373
0.000250
0.001805
0.000226
0.000226
0.000234
0.000244
0.000278
0.000248
0.000256
0.000261
0.000359
0.000402
0.000056
0.000242
0.000217
0.000207
0.000250
0.000253
0.000238
0.000266
0.000250
0.000236
0.000268
0.000236
0.000262
0.000400
0.000353
0.000459
0.000235
0.000483
0.000203
0.000211
0.000253
0.000265
0.000259
0.000280
0.000247
0.000281
0.001800
0.000260
0.000238
0.000247
0.000243
0.000211
0.000058
0.000281
0.000354
0.000230
0.000196
0.000224
0.000231
0.000235
0.000258
0.000251
0.000246
0.000214
0.000255
0.000256
0.000351
0.000450
0.000359
0.000343
0.000211
0.000211
0.000244
0.000257
0.000262
0.000250
0.000280
0.000249
0.000247
0.000309
0.001715
0.000223
0.000236
0.000177
0.000056
0.000197
0.000217
0.000239
0.000262
0.000358
0.000329
0.000513
0.000244
0.000214
0.000248
0.000239
0.000246
0.000244
0.000260
0.000267
0.000248
0.000252
0.000250
0.000257
0.000259
0.000263
0.000267
0.000262
0.000231
0.000240
0.000285
0.000267
0.000261
0.000263
0.000253
0.000234
0.000055
0.000222
0.000203
0.000243
0.000249
0.000248
0.000244
0.000243
0.000263
0.000372
0.000203
0.000190
0.000241
0.000249
0.000251
0.000266
0.000263
0.000253
0.000261
0.000366
0.000208
0.000237
0.000281
0.000286
0.000251
0.000267
0.000287
0.000266
0.000248
0.000261
0.000439
0.000706
0.000078
0.000214
0.000304
0.000226
0.000186
0.000213
0.000248
0.000243
0.000254
0.000243
0.000250
0.000263
0.000275
0.000510
0.000518
0.001569
0.000209
0.000504
0.000216
0.000222
0.000466
0.000469
0.000349
0.000209
0.000267
0.000270
0.000246
0.000281
0.000256
0.000299
0.000265
0.000204
0.000057
0.000360
0.000365
0.000489
0.000224
0.000180
0.000239
0.000251
0.000244
0.000235
0.000240
0.000260
0.000256
0.000227
0.000251
0.000427
0.000514
0.000334
0.001783
0.000264
0.000223
0.000375
0.000398
0.000445
0.000312
0.000378
0.000249
0.000300
0.000232
0.000236
0.000232
0.000213
0.000059
0.000215
0.000190
0.000245
0.000297
0.000411
0.000379
0.000340
0.000259
0.000245
0.000229
0.000240
0.000263
0.000269
0.000260
0.000253
0.000257
0.000319
0.000461
0.000426
0.000383
0.000229
0.001806
0.000300
0.000543
0.000473
0.000449
0.000291
0.000254
0.000212
0.000267
0.000503
0.000057
0.000196
0.000228
0.000231
0.000249
0.000483
0.000498
0.000317
0.000270
0.000227
0.000295
0.000229
0.000231
0.000246
0.000384
0.000282
0.000211
0.000229
0.000431
0.000355
0.000359
0.000586
0.001779
0.000242
0.000491
0.000448
0.000370
0.000236
0.000369
0.000255
0.000201
0.000223
0.000057
0.000225
0.000330
0.000347
0.000361
0.000326
0.000299
0.000391
0.000216
0.000208
0.000264
0.000282
0.000236
0.000228
0.000259
0.000242
0.000261
0.000317
0.000356
0.000545
0.000372
0.000311
0.000206
0.000258
0.001786
0.000433
0.000429
0.000669
0.000288
0.000237
0.000302
0.000167
0.000057
0.000170
0.000206
0.000319
0.000262
0.000253
0.000436
0.000377
0.000312
0.000612
0.000219
0.000202
0.000248
0.000211
0.000280
0.000271
0.000273
0.000241
0.000333
0.000498
0.000383
0.000272
0.000239
0.000249
0.000255
0.000263
0.000269
0.000241
0.000243
0.000263
0.000368
0.000147
0.000057
0.000403
0.000239
0.000232
0.000229
0.000253
0.000253
0.000244
0.000379
0.000190
0.000211
0.000257
0.000351
0.000443
0.000401
0.000322
0.000300
0.000210
0.000238
0.000259
0.000249
0.000259
0.000325
0.000213
0.000255
0.000274
0.000320
0.000420
0.000400
0.000373
0.000227
0.000159
0.000056
0.000203
0.000205
0.000262
0.000245
0.000245
0.000253
0.000247
0.000270
0.000502
0.000236
0.000221
0.000257
0.000235
0.000259
0.000274
0.000271
0.000266
0.000379
0.000241
0.000209
0.000235
0.000266
0.000259
0.000268
0.000270
0.000264
0.000266
0.000267
0.000241
0.000524
0.000158
0.000056
0.000206
0.000219
0.000221
0.000264
0.000249
0.000222
0.000300
0.000456
0.000260
0.000233
0.000248
0.000258
0.000256
0.000273
0.000466
0.001732
0.000240
0.000253
0.000315
0.000383
0.000410
0.000342
0.000380
0.000346
0.000407
0.000363
0.000247
0.000256
0.000268
0.000271
0.001429
0.000057
0.000380
0.000312
0.000304
0.000205
0.000205
0.000230
0.000228
0.000253
0.000247
0.000260
0.000254
0.000255
0.000253
0.000252
0.000524
0.001768
0.000214
0.000206
0.000215
0.000264
0.000242
0.000254
0.000339
0.000492
0.000242
0.000338
0.000253
0.000240
0.000268
0.000256
0.000220
0.000057
0.001209
0.000573
0.000305
0.000296
0.000212
0.000209
0.000202
0.000252
0.000458
0.000249
0.000219
0.000252
0.000315
0.000457
0.000496
0.000329
0.000299
0.000234
0.000367
0.000349
0.000217
0.000239
0.000267
0.000243
0.000275
0.000503
0.000655
0.000261
0.000225
0.000277
0.000182
0.000056
0.000201
0.000205
0.000215
0.000245
0.001433
0.000371
0.000217
0.000229
0.000241
0.000253
0.000248
0.000250
0.000244
0.000257
0.000274
0.000259
0.000513
0.000620
0.000266
0.001812
0.000248
0.000295
0.000270
0.000430
0.000577
0.000366
0.000228
0.000226
0.000255
0.000272
0.000210
0.000057
0.000209
0.000247
0.000209
0.001328
0.000337
0.000198
0.000257
0.000211
0.000236
0.000239
0.000232
0.000251
0.000273
0.000249
0.000253
0.000297
0.000579
0.000367
0.000325
0.000215
0.000242
0.000271
0.000261
0.000224
0.000360
0.000220
0.000215
0.000274
0.000273
0.000308
0.000643
0.000057
0.000214
0.000225
0.000236
0.000258
0.000261
0.000259
0.000220
0.000257
0.000276
0.000255
0.001438
0.000239
0.000223
0.000251
0.000252
0.000240
0.000257
0.000266
0.000260
0.000285
0.000250
0.000481
0.000494
0.000358
0.000247
0.000259
0.001843
0.000227
0.000228
0.000335
0.000645
0.000057
0.000223
0.000435
0.000448
0.000505
0.000520
0.000528
0.001484
0.000421
0.000548
0.000643
0.000557
0.000691
0.000504
0.000629
0.000583
0.001712
0.000448
0.000468
0.000389
0.000308
0.000259
0.000308
0.000268
0.000266
0.000278
0.000269
0.000300
0.000288
0.000250
0.000294
0.001320
0.000056
0.000210
0.000244
0.000225
0.000232
0.000247
0.000242
0.000243
0.000236
0.000259
0.000279
0.000230
0.000275
0.000236
0.000254
0.000260
0.000257
0.001837
0.000270
0.000255
0.000257
0.000251
0.000265
0.000264
0.000290
0.000365
0.000457
0.000326
0.000243
0.000264
0.000292
0.000161
0.000056
0.000193
0.001395
0.000263
0.000263
0.000262
0.000234
0.000257
0.000239
0.000260
0.000241
0.000239
0.000241
0.000290
0.000419
0.000274
0.000352
0.000263
0.000308
0.001894
0.000260
0.000257
0.000260
0.000258
0.000261
0.000275
0.000256
0.000306
0.000235
0.000232
0.000302
0.000241
0.000056
0.000213
0.000230
0.000248
0.001425
0.000262
0.000296
0.000202
0.000226
0.000224
0.000260
0.000253
0.000272
0.000222
0.000254
0.000290
0.000242
0.000253
0.000257
0.000262
0.000276
0.000251
0.001846
0.000263
0.001765
0.000256
0.000258
0.000249
0.000220
0.000272
0.000285
0.000212
0.000057
0.000209
0.000245
0.001367
0.000246
0.000264
0.000210
0.000217
0.000232
0.000254
0.000248
0.000255
0.000249
0.000249
0.000260
0.000259
0.000266
0.000248
0.000278
0.000303
0.000248
0.001861
0.000288
0.001776
0.000298
0.000252
0.000240
0.000256
0.000262
0.000267
0.000255
0.000191
0.000057
0.001437
0.000241
0.000258
0.000202
0.000213
0.000224
0.000279
0.000351
0.000254
0.000252
0.000253
0.000263
0.000250
0.000359
0.000470
0.000268
0.000259
0.000267
0.000230
0.000224
0.000251
0.000328
0.000289
0.000234
0.000267
0.000279
0.000253
0.000394
0.000653
0.000372
0.000164
0.000056
0.000192
0.000286
0.000267
0.000310
0.000348
0.000276
0.001673
0.000283
0.000280
0.000261
0.000270
0.000301
0.000261
0.000266
0.000299
0.000310
0.000462
0.000422
0.000369
0.000278
0.000315
0.000279
0.000263
0.000261
0.000326
0.000266
0.000263
0.000236
0.000244
0.000286
0.000415
0.000056
0.000313
0.000374
0.000262
0.000269
0.000256
0.000220
0.000221
0.000252
0.000255
0.000253
0.001537
0.000233
0.000206
0.000247
0.000245
0.000285
0.000260
0.000268
0.000249
0.000265
0.000271
0.000393
0.000601
0.000303
0.000210
0.000313
0.000250
0.000232
0.000248
0.000240
0.000247
0.000055
0.000220
0.000193
0.000266
0.000451
0.000387
0.000312
0.000181
0.000255
0.000239
0.000284
0.000215
0.000249
0.000247
0.000274
0.000235
0.000239
0.000418
0.001265
0.000227
0.000258
0.000215
0.000242
0.000354
0.000508
0.000205
0.000263
0.000581
0.000578
0.000215
0.000226
0.000153
0.000057
0.000154
0.000218
0.000266
0.000266
0.000314
0.000200
0.000316
0.000542
0.000373
0.000304
0.000368
0.000416
0.000384
0.000349
0.000239
0.000207
0.000225
0.000233
0.000402
0.000567
0.001163
0.000245
0.000249
0.000273
0.000229
0.000249
0.000249
0.000355
0.000374
0.000511
0.000250
0.000057
0.000211
0.000215
0.000239
0.000248
0.000254
0.000238
0.000239
0.000262
0.000243
0.000400
0.000503
0.000396
0.000226
0.000210
0.000211
0.000268
0.000234
0.000272
0.000285
0.000519
0.000216
0.000209
0.000398
0.000493
0.000233
0.000243
0.000229
0.000278
0.000253
0.000286
0.000240
0.000075
0.000264
0.000301
0.000343
0.000336
0.000490
0.000349
0.000236
0.000261
0.000215
0.000272
0.000245
0.000267
0.000242
0.000251
0.000240
0.000229
0.000257
0.000360
0.000570
0.000341
0.000218
0.000266
0.000199
0.000273
0.000244
0.000272
0.000263
0.000278
0.000280
0.000258
0.000308
0.000057
0.000358
0.000242
0.000231
0.000221
0.000247
0.000259
0.000235
0.000255
0.000260
0.000268
0.000249
0.000230
0.000309
0.000530
0.000436
0.000311
0.000216
0.000197
0.000248
0.000265
0.000289
0.000232
0.000263
0.000265
0.000265
0.000284
0.000511
0.000648
0.000381
0.000221
0.000147
0.000056
0.000393
0.000220
0.000180
0.000238
0.000251
0.000249
0.000241
0.000249
0.000258
0.000259
0.000221
0.000245
0.000270
0.000228
0.000244
0.000262
0.000250
0.000262
0.000269
0.000289
0.000238
0.000262
0.000262
0.000262
0.000275
0.000279
0.000227
0.000277
0.000247
0.000287
0.000223
0.000057
0.000189
0.000199
0.000274
0.000240
0.000231
0.000235
0.000263
0.000239
0.000262
0.000284
0.000221
0.000236
0.000257
0.000406
0.000243
0.000274
0.000267
0.000285
0.000250
0.000266
0.000274
0.000231
0.000251
0.000248
0.000268
0.000277
0.000252
0.000264
0.000257
0.000264
0.000216
0.000056
0.000265
0.000378
0.000348
0.000280
0.000332
0.000205
0.000205
0.000253
0.000227
0.000242
0.000243
0.000259
0.000256
0.000245
0.000242
0.000260
0.000286
0.000253
0.000261
0.000251
0.000270
0.000262
0.000280
0.000256
0.000270
0.000286
0.000244
0.000274
0.000247
0.000273
0.000200
0.000074
0.000213
0.000238
0.000229
0.000253
0.000250
0.000440
0.000243
0.000236
0.000257
0.000405
0.000519
0.000344
0.000197
0.000241
0.000248
0.000265
0.000240
0.000266
0.000266
0.000260
0.000260
0.000268
0.000283
0.000285
0.000514
0.000541
0.000254
0.000257
0.000266
0.000270
0.000199
0.000055
0.000187
0.000204
0.000234
0.000253
0.000275
0.000742
0.000281
0.000371
0.000234
0.000233
0.000237
0.000251
0.000267
0.000243
0.000257
0.000266
0.000263
0.000242
0.000611
0.000465
0.000292
0.000242
0.000219
0.000282
0.000278
0.000266
0.000256
0.000269
0.000257
0.000339
0.000334
0.000057
0.000289
0.000230
0.000222
0.000221
0.000256
0.000254
0.000234
0.000249
0.000242
0.000249
0.000250
0.000255
0.000251
0.000422
0.000539
0.000449
0.000221
0.000213
0.000259
0.000249
0.000260
0.000272
0.000469
0.000260
0.000245
0.000643
0.000421
0.000462
0.000266
0.000231
0.000187
0.000057
0.000214
0.000205
0.000238
0.000241
0.000256
0.000255
0.000357
0.000464
0.000655
0.000300
0.000219
0.000232
0.000276
0.000283
0.000286
0.000222
0.000228
0.000249
0.000264
0.000435
0.000367
0.000511
0.000448
0.000261
0.000449
0.000341
0.000474
0.000219
0.000242
0.000312
0.000495
0.000056
0.000261
0.000220
0.000520
0.000173
0.000227
0.000226
0.000241
0.000260
0.000230
0.000238
0.000258
0.000419
0.000367
0.000378
0.000237
0.000199
0.000301
0.000203
0.000268
0.000270
0.000272
0.000263
0.000255
0.000263
0.000279
0.000544
0.000459
0.000256
0.000246
0.000273
0.000213
0.000056
0.000162
0.000247
0.000226
0.000239
0.000245
0.000241
0.000407
0.000513
0.000330
0.000281
0.000347
0.000245
0.000211
0.000272
0.000258
0.000238
0.000258
0.000255
0.000310
0.000447
0.000486
0.000265
0.000447
0.000364
0.000393
0.000392
0.000376
0.000258
0.000219
0.000285
0.000460
0.000057
0.000224
0.000287
0.000204
0.000240
0.000275
0.000262
0.000232
0.000247
0.000246
0.000265
0.000242
0.000318
0.000479
0.000387
0.000367
0.000256
0.000235
0.000258
0.000284
0.000226
0.000253
0.000252
0.000260
0.000277
0.000274
0.000331
0.000493
0.000478
0.000245
0.000272
0.000207
0.000056
0.000211
0.000201
0.000250
0.000253
0.000251
0.000347
0.000464
0.000529
0.000357
0.000659
0.000290
0.000223
0.000220
0.000260
0.000239
0.000264
0.000284
0.000266
0.000483
0.000556
0.001530
0.000228
0.000255
0.000264
0.000298
0.000233
0.000404
0.000417
0.000318
0.000335
0.000161
0.000056
0.000200
0.000207
0.000230
0.000279
0.000210
0.000250
0.000269
0.000265
0.000250
0.000365
0.000354
0.000360
0.000282
0.000380
0.000389
0.000328
0.000227
0.000213
0.000245
0.000261
0.000242
0.000245
0.000281
0.000269
0.000334
0.000533
0.000360
0.000275
0.000233
0.000246
0.000204
0.000059
0.000169
0.000222
0.000257
0.000256
0.000244
0.000234
0.000490
0.000202
0.000229
0.000251
0.000258
0.000239
0.000258
0.000273
0.000231
0.000273
0.000265
0.000257
0.000272
0.000267
0.000248
0.000336
0.000254
0.000255
0.000248
0.000278
0.000269
0.000269
0.000281
0.000256
0.000188
0.000057
0.000197
0.000216
0.000346
0.000446
0.000377
0.000212
0.000213
0.000227
0.000263
0.000252
0.000244
0.000269
0.000252
0.000262
0.000238
0.000241
0.000246
0.000269
0.000255
0.000352
0.000441
0.000438
0.000210
0.000255
0.000267
0.000260
0.000265
0.000251
0.000268
0.000290
0.000207
0.000056
0.000336
0.000431
0.000353
0.000238
0.000219
0.000254
0.000493
0.000196
0.000214
0.000227
0.000282
0.000340
0.000404
0.000407
0.001758
0.000257
0.000249
0.000249
0.000273
0.000249
0.000347
0.000473
0.000541
0.000356
0.000235
0.000229
0.000284
0.000431
0.000259
0.000285
0.000182
0.000057
0.000303
0.000308
0.000281
0.000321
0.000519
0.000216
0.000205
0.000251
0.000255
0.000263
0.000234
0.000245
0.000270
0.000309
0.000432
0.000486
0.000230
0.000224
0.000246
0.000270
0.000250
0.000374
0.000199
0.000265
0.000276
0.000444
0.000525
0.000389
0.000488
0.000227
0.000194
0.000057
0.000220
0.000199
0.000249
0.000266
0.000208
0.000256
0.000266
0.000267
0.000393
0.000358
0.000402
0.000380
0.000215
0.000223
0.000267
0.000271
0.000338
0.000241
0.000251
0.000273
0.000243
0.000253
0.000530
0.000373
0.000268
0.000275
0.000248
0.000520
0.000399
0.000289
0.000156
0.000058
0.000163
0.000249
0.000304
0.000416
0.000389
0.000224
0.000215
0.000252
0.000259
0.000262
0.000261
0.000258
0.000223
0.000250
0.000249
0.000291
0.000387
0.000376
0.000443
0.000222
0.000456
0.000246
0.000265
0.000274
0.000307
0.000291
0.000271
0.000240
0.000513
0.000422
0.000285
0.000057
0.000202
0.000215
0.000246
0.000243
0.000269
0.000458
0.000228
0.000233
0.000262
0.000377
0.000499
0.000531
0.000245
0.000219
0.000249
0.000256
0.000258
0.000239
0.000248
0.000263
0.000246
0.000272
0.000357
0.000486
0.000386
0.000317
0.000349
0.000342
0.000303
0.000219
0.000168
0.000056
0.000210
0.000230
0.000225
0.000580
0.000235
0.000376
0.000256
0.000214
0.000197
0.000241
0.000256
0.000249
0.000251
0.000260
0.000313
0.000211
0.000240
0.000252
0.000240
0.000423
0.000584
0.000325
0.000217
0.000237
0.000275
0.000280
0.000250
0.000253
0.000275
0.000271
0.000203
0.000057
0.000213
0.000447
0.000503
0.000221
0.000201
0.000210
0.000306
0.000526
0.000268
0.000205
0.000221
0.000260
0.000343
0.000373
0.000460
0.000325
0.000210
0.000207
0.000301
0.000198
0.000267
0.000272
0.000254
0.000272
0.000270
0.000286
0.000462
0.000367
0.000372
0.000225
0.000150
0.000056
0.000209
0.000212
0.000242
0.000275
0.000233
0.000259
0.000240
0.000253
0.000256
0.000236
0.000273
0.000251
0.000246
0.001459
0.000252
0.000227
0.000255
0.000258
0.000270
0.000273
0.000261
0.000243
0.000281
0.000252
0.000259
0.000274
0.000272
0.000272
0.000261
0.000261
0.000222
0.000056
0.000185
0.000224
0.000230
0.000247
0.000244
0.000240
0.000259
0.000257
0.000226
0.000254
0.000244
0.000259
0.000258
0.000259
0.000256
0.000255
0.000253
0.000247
0.000279
0.000257
0.000248
0.000262
0.000263
0.000240
0.001365
0.000280
0.000561
0.000429
0.000360
0.000211
0.000159
0.000056
0.000175
0.000207
0.000230
0.000576
0.000180
0.000227
0.000194
0.000203
0.000257
0.000348
0.000541
0.000341
0.000221
0.000210
0.000222
0.000263
0.000249
0.000263
0.000254
0.000254
0.000265
0.000247
0.000263
0.000414
0.000519
0.000447
0.000242
0.000252
0.001363
0.000278
0.000172
0.000057
0.000298
0.000431
0.000344
0.000255
0.000193
0.000207
0.000230
0.000238
0.000257
0.000261
0.000247
0.000257
0.000258
0.000305
0.000563
0.000402
0.000302
0.000239
0.000245
0.000252
0.000249
0.000257
0.000279
0.000258
0.000263
0.000259
0.000349
0.000529
0.000474
0.000318
0.000160
0.000059
0.000190
0.000245
0.001285
0.000355
0.000296
0.000459
0.000379
0.000331
0.000435
0.000366
0.000237
0.000202
0.000242
0.000253
0.000251
0.000265
0.000354
0.000535
0.000418
0.000287
0.000283
0.000232
0.000253
0.000512
0.000241
0.000253
0.000260
0.000281
0.000320
0.000524
0.000333
0.000059
0.000318
0.000384
0.000224
0.000206
0.001597
0.000514
0.000247
0.000230
0.000202
0.000244
0.000234
0.000226
0.000253
0.000265
0.000250
0.000272
0.000224
0.000327
0.000423
0.000450
0.000400
0.000214
0.000226
0.000232
0.000257
0.000276
0.000276
0.000242
0.000257
0.000273
0.000240
0.000057
0.000361
0.000323
0.000246
0.000256
0.000204
0.000243
0.000248
0.000240
0.000237
0.000257
0.001591
0.000344
0.000256
0.000210
0.000212
0.000254
0.000261
0.000271
0.000233
0.000263
0.000282
0.000256
0.000257
0.000571
0.000337
0.000413
0.000201
0.000284
0.000259
0.000284
0.000188
0.000057
0.000193
0.000458
0.000194
0.000211
0.000391
0.000400
0.000384
0.000300
0.000493
0.000178
0.000218
0.000248
0.000258
0.000261
0.000270
0.001511
0.000259
0.000276
0.000247
0.000269
0.000279
0.000251
0.000257
0.000250
0.000252
0.000278
0.000404
0.000489
0.000311
0.000292
0.000139
0.000057
0.000190
0.000232
0.000227
0.000242
0.000228
0.000268
0.000235
0.000247
0.000259
0.000455
0.000434
0.000313
0.000205
0.000226
0.000221
0.000263
0.000288
0.000259
0.000271
0.000225
0.000248
0.000267
0.001378
0.000241
0.000244
0.000224
0.000242
0.000272
0.000255
0.000262
0.000203
0.000057
0.000230
0.000302
0.000429
0.000347
0.000223
0.000219
0.000234
0.000257
0.000261
0.000250
0.000270
0.000255
0.000243
0.000251
0.000254
0.000268
0.000258
0.000267
0.000283
0.000239
0.000251
0.000274
0.000267
0.000279
0.000289
0.000271
0.000286
0.000230
0.000276
0.000508
0.001313
0.000056
0.000200
0.000208
0.000231
0.000245
0.000257
0.000256
0.000257
0.000217
0.000245
0.000249
0.000266
0.000262
0.000260
0.000239
0.000241
0.001721
0.000372
0.000208
0.000196
0.000237
0.000246
0.000260
0.000270
0.000262
0.000259
0.000275
0.000282
0.000265
0.000262
0.000279
0.000236
0.000058
0.000308
0.000301
0.001312
0.000200
0.000210
0.000218
0.000258
0.000254
0.000251
0.000265
0.000234
0.000356
0.000384
0.000553
0.000215
0.000205
0.000224
0.000246
0.000256
0.000271
0.000246
0.000261
0.000275
0.000283
0.000268
0.000433
0.000399
0.000329
0.000277
0.000245
0.000204
0.000056
0.000221
0.000226
0.000227
0.000250
0.000251
0.000245
0.000216
0.000270
0.000407
0.000444
0.001155
0.000240
0.000227
0.000263
0.000266
0.000261
0.000272
0.000245
0.000317
0.000390
0.000404
0.000288
0.000228
0.000239
0.000268
0.000274
0.000267
0.000296
0.000269
0.000282
0.000213
0.000056
0.000241
0.000386
0.000427
0.000228
0.000208
0.000196
0.000243
0.000266
0.000270
0.000255
0.000224
0.000560
0.000236
0.000478
0.000473
0.001447
0.000233
0.000283
0.000337
0.000339
0.000434
0.000423
0.000448
0.000419
0.000227
0.000250
0.000268
0.000275
0.000269
0.000273
0.000210
0.000059
0.000184
0.000229
0.000455
0.000476
0.000380
0.000208
0.000242
0.000241
0.000243
0.000258
0.000255
0.000260
0.000262
0.000240
0.000270
0.000301
0.000414
0.000437
0.000317
0.001311
0.000261
0.000257
0.000258
0.000474
0.000307
0.000415
0.000414
0.000219
0.000235
0.000276
0.000203
0.000057
0.000186
0.000210
0.000254
0.000231
0.000249
0.000317
0.000421
0.000395
0.000380
0.000224
0.000214
0.000258
0.000270
0.000258
0.000264
0.000267
0.000260
0.000249
0.000270
0.000348
0.000545
0.000355
0.000332
0.001336
0.000345
0.000237
0.000287
0.000464
0.000406
0.000348
0.000341
0.000057
0.000191
0.000208
0.000248
0.000241
0.000249
0.000255
0.001696
0.000268
0.000224
0.000203
0.000249
0.000263
0.000320
0.000327
0.000332
0.000295
0.000262
0.000276
0.000495
0.000433
0.000291
0.000267
0.000221
0.000229
0.001436
0.000413
0.000481
0.000419
0.000326
0.000298
0.000158
0.000056
0.000201
0.000222
0.000262
0.000255
0.000243
0.000259
0.001793
0.000208
0.000234
0.000262
0.000389
0.000411
0.001423
0.000339
0.000415
0.000208
0.000210
0.000234
0.000262
0.000268
0.001690
0.000477
0.000421
0.000277
0.000217
0.000212
0.000259
0.000277
0.000250
0.000246
0.000215
0.000057
0.000209
0.000213
0.000254
0.000244
0.000266
0.000265
0.000289
0.000255
0.000255
0.000252
0.000252
0.000242
0.000260
0.000266
0.000258
0.001509
0.000277
0.000230
0.000258
0.000276
0.000274
0.000263
0.000435
0.001266
0.000286
0.000235
0.000254
0.000248
0.000471
0.000221
0.000182
0.000058
0.000178
0.000222
0.000224
0.000244
0.000241
0.000227
0.000242
0.001767
0.000212
0.000210
0.000231
0.000365
0.000240
0.000211
0.001471
0.000245
0.000213
0.000226
0.000262
0.000235
0.000262
0.000307
0.000341
0.001361
0.000279
0.000225
0.000224
0.000256
0.001398
0.000272
0.000231
0.000056
0.000277
0.000319
0.000216
0.000196
0.000250
0.000255
0.000267
0.000255
0.000264
0.000244
0.000267
0.000264
0.000248
0.000244
0.000345
0.001471
0.000262
0.000246
0.000265
0.000242
0.000288
0.000255
0.000263
0.001488
0.000355
0.000246
0.000258
0.001353
0.000242
0.000219
0.000190
0.000056
0.000263
0.000329
0.000377
0.000203
0.000208
0.000238
0.000260
0.000258
0.000268
0.000269
0.000237
0.000255
0.000254
0.000287
0.000503
0.001195
0.000208
0.000220
0.000251
0.000275
0.000232
0.000237
0.000254
0.001283
0.000396
0.000227
0.000221
0.000238
0.000249
0.001357
0.000340
0.000058
0.000231
0.000307
0.000211
0.000208
0.000223
0.000250
0.000274
0.000222
0.000277
0.000260
0.000239
0.000261
0.000238
0.000322
0.000417
0.001482
0.000248
0.000221
0.000293
0.000501
0.000302
0.000404
0.001337
0.000303
0.000236
0.000262
0.001284
0.000355
0.000332
0.000442
0.000296
0.000056
0.000210
0.000225
0.000248
0.000263
0.000259
0.000252
0.000265
0.000253
0.000265
0.000262
0.000437
0.000383
0.001374
0.000199
0.000264
0.000244
0.000280
0.000265
0.000205
0.000219
0.000339
0.001310
0.000239
0.000233
0.000224
0.000238
0.001510
0.000451
0.000461
0.000253
0.000187
0.000056
0.000191
0.000219
0.000234
0.000237
0.000258
0.000256
0.000246
0.000243
0.000459
0.000553
0.000231
0.001451
0.000240
0.000210
0.000265
0.000253
0.000295
0.000344
0.001553
0.000324
0.000356
0.000356
0.001317
0.000396
0.000302
0.000341
0.000234
0.000214
0.000237
0.000266
0.000223
0.000056
0.000200
0.000199
0.000321
0.000290
0.000238
0.000653
0.000227
0.000337
0.001485
0.000387
0.000263
0.000242
0.000188
0.000299
0.000364
0.001370
0.000274
0.000222
0.000209
0.000255
0.000326
0.001566
0.000368
0.000269
0.000238
0.000204
0.000554
0.000290
0.000228
0.000251
0.000226
0.000056
0.000259
0.000371
0.000331
0.000303
0.000198
0.001465
0.000250
0.000252
0.000225
0.000273
0.000269
0.000244
0.000302
0.001507
0.000234
0.000240
0.000417
0.001276
0.000308
0.000411
0.000370
0.000248
0.000244
0.000240
0.000283
0.000254
0.000486
0.000228
0.000241
0.000263
0.000214
0.000059
0.000215
0.000205
0.000382
0.001447
0.000268
0.000202
0.000306
0.000252
0.000236
0.000253
0.000244
0.001665
0.000253
0.000189
0.000225
0.000235
0.001360
0.000340
0.000440
0.000459
0.000344
0.000210
0.000231
0.000234
0.000382
0.000245
0.000220
0.000247
0.000245
0.000255
0.000206
0.000056
0.000218
0.000390
0.001451
0.000221
0.000268
0.000245
0.000250
0.000244
0.000333
0.000416
0.001343
0.000209
0.000301
0.000239
0.000203
0.001352
0.000709
0.000247
0.000308
0.000404
0.000333
0.000239
0.000224
0.000250
0.000250
0.000286
0.000272
0.000291
0.000505
0.000429
0.001387
0.000057
0.000197
0.000239
0.000220
0.000217
0.000249
0.000441
0.000536
0.001285
0.000207
0.000225
0.000235
0.001499
0.000439
0.000265
0.000489
0.000227
0.000206
0.000210
0.000244
0.000273
0.000269
0.000256
0.000273
0.000261
0.000249
0.000278
0.000501
0.000461
0.001470
0.000268
0.000177
0.000057
0.000180
0.000217
0.000326
0.000570
0.001235
0.000277
0.000250
0.000276
0.000253
0.000224
0.000257
0.000264
0.000326
0.000584
0.000313
0.000226
0.000243
0.000271
0.000238
0.000274
0.000262
0.000262
0.000266
0.000263
0.000252
0.000455
0.000438
0.000336
0.000313
0.001475
0.000164
0.000060
0.000161
0.000216
0.000259
0.000458
0.000349
0.000316
0.000292
0.000331
0.000275
0.000264
0.000261
0.000258
0.000247
0.000316
0.000244
0.000361
0.000438
0.000355
0.000317
0.000351
0.000295
0.000478
0.000209
0.000252
0.000203
0.000282
0.000238
0.000272
0.000343
0.000525
0.000308
0.000056
0.000220
0.001355
0.000255
0.000357
0.000466
0.000383
0.000307
0.000357
0.000216
0.000205
0.000259
0.000245
0.000262
0.000278
0.000255
0.000256
0.000277
0.001417
0.000251
0.000220
0.000227
0.000272
0.000259
0.000288
0.000265
0.000259
0.000270
0.000261
0.000257
0.000463
0.000368
0.000057
0.000233
0.000239
0.001434
0.000319
0.000339
0.000213
0.000212
0.000197
0.000233
0.000235
0.000264
0.000270
0.000248
0.000253
0.000266
0.000260
0.000239
0.000273
0.000258
0.000262
0.001432
0.000278
0.000234
0.000319
0.000224
0.000223
0.000246
0.000262
0.000278
0.000500
0.000392
0.000063
0.000183
0.000206
0.000377
0.000296
0.000241
0.000258
0.001533
0.000426
0.000264
0.000208
0.000222
0.000347
0.000320
0.000217
0.000216
0.000255
0.000250
0.000262
0.000267
0.000240
0.000545
0.000553
0.001096
0.000263
0.000211
0.000223
0.000268
0.000254
0.000268
0.000282
0.000400
0.000060
0.000216
0.000357
0.000195
0.000198
0.000251
0.000238
0.000243
0.000226
0.001432
0.000556
0.000381
0.000255
0.000214
0.000212
0.000258
0.000246
0.000250
0.000275
0.000256
0.000306
0.000311
0.000492
0.000446
0.001378
0.000267
0.000230
0.000261
0.000270
0.000266
0.000272
0.000489
0.000057
0.000268
0.000205
0.000250
0.000234
0.000221
0.000234
0.000267
0.000243
0.000277
0.001581
0.000369
0.000230
0.000264
0.000254
0.000492
0.000280
0.000401
0.000458
0.000330
0.000326
0.000447
0.000453
0.001315
0.000236
0.000219
0.000226
0.001792
0.000401
0.000613
0.000310
0.000142
0.000059
0.000184
0.000211
0.000238
0.000234
0.000247
0.000251
0.000364
0.000404
0.000480
0.000436
0.000316
0.000208
0.000211
0.000245
0.000268
0.000258
0.000256
0.000256
0.000248
0.000277
0.000273
0.000390
0.001371
0.000255
0.000224
0.000267
0.001913
0.000369
0.000382
0.000358
0.000176
0.000059
0.000230
0.000219
0.000248
0.001550
0.000412
0.000246
0.000227
0.000270
0.000245
0.000340
0.000366
0.000375
0.000351
0.000309
0.000411
0.000388
0.000340
0.001275
0.000259
0.000210
0.000212
0.000266
0.000377
0.000461
0.000567
0.000443
0.000216
0.000217
0.000256
0.000280
0.000217
0.000057
0.000172
0.000205
0.001468
0.000411
0.000199
0.000216
0.000213
0.000255
0.000237
0.000261
0.000247
0.000270
0.000273
0.000265
0.000250
0.000483
0.000343
0.000362
0.001370
0.000250
0.000249
0.000253
0.000258
0.000263
0.000414
0.000529
0.000375
0.000303
0.000291
0.000250
0.000394
0.000056
0.000191
0.000210
0.000247
0.000264
0.001588
0.000249
0.000232
0.000247
0.000261
0.000250
0.000252
0.000278
0.000239
0.000250
0.000352
0.000581
0.001467
0.000724
0.000218
0.000348
0.000250
0.000209
0.000228
0.000274
0.001775
0.000721
0.000255
0.000237
0.000266
0.000288
0.000209
0.000056
0.000189
0.000210
0.000255
0.000239
0.000242
0.000258
0.000257
0.000240
0.000249
0.000227
0.000284
0.000278
0.000262
0.000253
0.000259
0.000253
0.000287
0.001586
0.000683
0.000416
0.000320
0.000229
0.000214
0.000267
0.000286
0.000250
0.000277
0.000272
0.001483
0.000351
0.000323
0.000058
0.000197
0.000206
0.000231
0.000254
0.000259
0.000245
0.000245
0.000247
0.000255
0.000278
0.000212
0.000468
0.000433
0.000373
0.000211
0.000220
0.000264
0.001466
0.000681
0.000415
0.000354
0.000288
0.000207
0.000237
0.000265
0.000270
0.000242
0.000270
0.001495
0.000439
0.000237
0.000056
0.000179
0.000202
0.000244
0.000244
0.000272
0.000222
0.000247
0.000252
0.000267
0.000259
0.000412
0.000361
0.000311
0.000228
0.000230
0.000247
0.000260
0.000253
0.001616
0.000607
0.000442
0.000354
0.000223
0.000239
0.000250
0.000263
0.000271
0.000270
0.000282
0.001440
0.000320
0.000058
0.000205
0.000218
0.000208
0.000260
0.000253
0.000244
0.000299
0.000347
0.000373
0.000458
0.000366
0.000330
0.000336
0.000225
0.000211
0.000252
0.000270
0.000267
0.001413
0.000853
0.000333
0.000195
0.000462
0.000224
0.000218
0.000246
0.000272
0.000278
0.000250
0.000298
0.000309
0.000056
0.000215
0.000294
0.000206
0.000231
0.000252
0.000254
0.000230
0.000232
0.000258
0.000265
0.000257
0.000230
0.000258
0.000481
0.000442
0.000456
0.000223
0.000254
0.000255
0.000260
0.000255
0.000376
0.001372
0.001111
0.000219
0.000211
0.000263
0.000255
0.000274
0.000247
0.000226
0.000056
0.000202
0.001383
0.000266
0.000207
0.000200
0.000241
0.000252
0.000250
0.000221
0.000266
0.000248
0.000261
0.000244
0.000378
0.000374
0.000500
0.000274
0.000213
0.000255
0.000266
0.000275
0.000231
0.000258
0.000269
0.001403
0.000660
0.000327
0.000423
0.000364
0.000411
0.000251
0.000055
0.000192
0.000209
0.000363
0.001316
0.000224
0.000250
0.000216
0.000265
0.000240
0.000266
0.000267
0.000232
0.000266
0.000443
0.000492
0.000349
0.000199
0.000330
0.000257
0.000220
0.000228
0.000273
0.000239
0.000267
0.000268
0.001547
0.000731
0.000295
0.000277
0.000271
0.000210
0.000058
0.000195
0.000241
0.000439
0.000574
0.001132
0.000241
0.000210
0.000202
0.000227
0.000246
0.000242
0.000277
0.000222
0.000231
0.000258
0.000276
0.000247
0.000233
0.000256
0.000257
0.000264
0.000267
0.000383
0.000268
0.000216
0.000260
0.000258
0.001539
0.000240
0.000218
0.000176
0.000055
0.000185
0.000206
0.000253
0.000341
0.000350
0.000339
0.000405
0.000244
0.001560
0.000255
0.000268
0.000553
0.000288
0.000261
0.000473
0.000239
0.000219
0.000219
0.000264
0.000275
0.000275
0.000264
0.000267
0.000256
0.000259
0.000413
0.000463
0.000331
0.001513
0.000267
0.000159
0.000057
0.000213
0.000215
0.000243
0.000264
0.000232
0.000239
0.000261
0.000321
0.000448
0.002056
0.000205
0.000228
0.000221
0.000262
0.000272
0.000321
0.000260
0.000217
0.000229
0.000551
0.000275
0.000471
0.001480
0.000230
0.000228
0.000512
0.001747
0.000276
0.000258
0.001496
0.000193
0.000057
0.000316
0.000398
0.000482
0.000226
0.000261
0.000229
0.000269
0.000249
0.000271
0.000231
0.000246
0.000320
0.000436
0.000340
0.000426
0.000281
0.000209
0.001565
0.000529
0.001969
0.000313
0.000238
0.000216
0.001565
0.002032
0.000714
0.000271
0.000216
0.000274
0.000440
0.000374
0.000057
0.000201
0.000212
0.000249
0.000253
0.001492
0.001668
0.001068
0.000223
0.000218
0.001585
0.001976
0.000235
0.000320
0.000406
0.000285
0.000455
0.000312
0.000398
0.000255
0.000209
0.000257
0.000258
0.000287
0.001545
0.001303
0.001423
0.000268
0.000243
0.000259
0.000309
0.000364
0.000057
0.000235
0.000220
0.000195
0.000237
0.000235
0.000234
0.000253
0.000254
0.000254
0.000246
0.000251
0.000316
0.000649
0.000347
0.000258
0.000196
0.000233
0.000272
0.000254
0.000272
0.000254
0.001378
0.000478
0.000453
0.002065
0.000260
0.000240
0.000366
0.000411
0.000465
0.000149
0.000056
0.000203
0.000347
0.000444
0.000325
0.000220
0.000198
0.000253
0.000241
0.000249
0.000236
0.000253
0.000264
0.000257
0.001620
0.001415
0.001232
0.000270
0.000230
0.000238
0.000218
0.000282
0.000279
0.000267
0.000233
0.002279
0.000219
0.000231
0.000265
0.000320
0.000306
0.000239
0.000057
0.000194
0.000360
0.000620
0.000341
0.000187
0.000202
0.000219
0.000258
0.001898
0.001441
0.000252
0.000389
0.000390
0.000359
0.000257
0.000212
0.000216
0.000272
0.000260
0.000263
0.000269
0.000248
0.000514
0.000220
0.000260
0.000285
0.000244
0.000260
0.000276
0.000247
0.000228
0.000055
0.000182
0.000227
0.000248
0.000256
0.000229
0.000273
0.001553
0.001486
0.001335
0.000212
0.000205
0.000227
0.000253
0.000262
0.000250
0.000248
0.000251
0.002176
0.000211
0.000239
0.000230
0.000262
0.000263
0.000264
0.000266
0.000250
0.000269
0.000258
0.000278
0.000263
0.000183
0.000056
0.001516
0.000315
0.002394
0.000245
0.000289
0.000320
0.000224
0.000257
0.000264
0.000241
0.000263
0.000241
0.000237
0.000239
0.000268
0.000257
0.000262
0.000268
0.000267
0.000263
0.000267
0.000277
0.000270
0.000276
0.000247
0.000247
0.000262
0.000272
0.000253
0.000277
0.000388
0.000057
0.000194
0.002548
0.000344
0.000201
0.000191
0.000219
0.000248
0.000253
0.000255
0.000277
0.000347
0.000408
0.000344
0.000235
0.000217
0.002223
0.000214
0.000226
0.000276
0.000496
0.000390
0.000303
0.000201
0.000230
0.000268
0.000246
0.000269
0.000271
0.000278
0.001719
0.001178
0.000059
0.000187
0.000214
0.000269
0.000390
0.000394
0.000269
0.000217
0.000231
0.000234
0.000259
0.000262
0.000249
0.000242
0.000238
0.000266
0.000249
0.000342
0.000586
0.000398
0.000243
0.000225
0.000236
0.000282
0.000266
0.000248
0.000244
0.000261
0.000275
0.000244
0.000291
0.000410
0.000058
0.001123
0.000204
0.000355
0.000531
0.000255
0.000204
0.000200
0.000230
0.002204
0.000467
0.000296
0.000386
0.000199
0.000290
0.000327
0.000271
0.000268
0.000250
0.000268
0.000243
0.000242
0.000278
0.000608
0.000521
0.001778
0.001286
0.000637
0.000485
0.000237
0.000248
0.000213
0.000055
0.000281
0.000309
0.000230
0.000233
0.000246
0.000245
0.000237
0.000237
0.000253
0.000256
0.000264
0.000236
0.000254
0.000240
0.000372
0.000555
0.001860
0.001324
0.000404
0.000416
0.000456
0.000268
0.000242
0.000247
0.002195
0.000504
0.000363
0.000231
0.000272
0.000287
0.000206
0.000057
0.000182
0.000230
0.000252
0.000235
0.000244
0.000378
0.000449
0.000379
0.000229
0.000225
0.000218
0.000287
0.000233
0.002078
0.000370
0.000397
0.000219
0.000248
0.000262
0.000257
0.000252
0.002455
0.000350
0.000218
0.000252
0.000263
0.000244
0.000269
0.000275
0.000291
0.000209
0.000056
0.000190
0.000365
0.000592
0.000362
0.000218
0.000208
0.000194
0.000251
0.000270
0.000253
0.002053
0.000366
0.000268
0.000259
0.000200
0.000238
0.000271
0.000245
0.002277
0.000393
0.000218
0.000255
0.000269
0.000263
0.000259
0.000258
0.000264
0.000258
0.000273
0.000253
0.000201
0.000057
0.000204
0.000218
0.000273
0.000209
0.000242
0.000247
0.000243
0.000244
0.000229
0.002184
0.000246
0.000271
0.000219
0.000483
0.000224
0.000212
0.000250
0.000284
0.000251
0.000271
0.002030
0.000243
0.000379
0.000368
0.000495
0.000324
0.000296
0.000248
0.000237
0.000241
0.000214
0.000056
0.000182
0.000222
0.000222
0.000256
0.000246
0.000387
0.000201
0.002345
0.000209
0.000230
0.000221
0.000249
0.000230
0.000250
0.000302
0.002216
0.000522
0.000232
0.000225
0.000240
0.000272
0.000257
0.000282
0.000270
0.000256
0.000259
0.000284
0.000259
0.000283
0.000289
0.000169
0.000057
0.000192
0.003013
0.000246
0.000202
0.000253
0.000238
0.000248
0.000256
0.000451
0.000355
0.002153
0.000247
0.000249
0.000249
0.000276
0.000507
0.000461
0.000305
0.000219
0.000213
0.000229
0.000273
0.000269
0.000241
0.000233
0.000271
0.000271
0.000261
0.000390
0.000641
0.000286
0.000056
0.000184
0.000289
0.000247
0.000220
0.000236
0.000241
0.000252
0.000251
0.001555
0.002118
0.000523
0.000271
0.000390
0.000768
0.000359
0.000212
0.000204
0.000239
0.000275
0.000259
0.000268
0.000237
0.000250
0.000274
0.001815
0.001452
0.000295
0.000289
0.000294
0.000289
0.000421
0.000056
0.001932
0.000234
0.000239
0.000189
0.000271
0.000384
0.000448
0.000314
0.000322
0.000227
0.000221
0.000218
0.000246
0.000243
0.000262
0.000267
0.000266
0.000247
0.001913
0.000219
0.000209
0.000236
0.000270
0.000283
0.000272
0.000256
0.001538
0.000346
0.000224
0.000218
0.000162
0.000056
0.000185
0.000220
0.000224
0.000243
0.000274
0.000235
0.000246
0.000416
0.000386
0.000378
0.000200
0.000220
0.000337
0.000323
0.000381
0.000322
0.000223
0.000212
0.000263
0.000381
0.000524
0.000423
0.000242
0.000231
0.000228
0.000259
0.000248
0.000266
0.000295
0.000241
0.000224
0.000056
0.001442
0.000388
0.000247
0.001994
0.000231
0.000456
0.000366
0.000387
0.000206
0.000208
0.000254
0.000250
0.000239
0.000247
0.000274
0.000274
0.000468
0.000263
0.000459
0.000309
0.000373
0.000222
0.000253
0.000258
0.000348
0.000229
0.000230
0.000265
0.000319
0.000505
0.001437
0.000057
0.000192
0.000208
0.002109
0.000234
0.000335
0.000264
0.000254
0.000256
0.000265
0.000247
0.000221
0.000250
0.000254
0.000255
0.000267
0.000366
0.000703
0.001726
0.000265
0.000241
0.000263
0.000281
0.000319
0.000519
0.001542
0.000261
0.000364
0.002018
0.000276
0.000230
0.000150
0.000056
0.000191
0.000216
0.000219
0.000259
0.000214
0.000263
0.000237
0.000286
0.000331
0.000310
0.000400
0.000355
0.000328
0.000287
0.000215
0.000261
0.000267
0.000237
0.000253
0.000273
0.000270
0.000337
0.000239
0.000256
0.000294
0.001562
0.000295
0.000402
0.001981
0.000297
0.000143
0.000057
0.000204
0.000218
0.000229
0.000246
0.000464
0.000233
0.000247
0.000353
0.000366
0.000378
0.000237
0.000207
0.000247
0.000273
0.000275
0.000328
0.000442
0.000414
0.000266
0.000349
0.000592
0.000442
0.001557
0.000257
0.000233
0.002047
0.000334
0.000225
0.000215
0.000262
0.000201
0.000057
0.000211
0.000205
0.000233
0.000244
0.000251
0.000255
0.000260
0.000266
0.000252
0.001990
0.000218
0.000232
0.000391
0.000328
0.000457
0.000360
0.001515
0.000339
0.000205
0.000310
0.002012
0.000653
0.000250
0.000220
0.000236
0.000264
0.000508
0.000219
0.000242
0.000275
0.000216
0.000058
0.000300
0.000387
0.000346
0.000279
0.000202
0.000206
0.000251
0.000250
0.000278
0.000289
0.000234
0.000237
0.000265
0.000248
0.000337
0.000463
0.001342
0.000252
0.000441
0.001848
0.000340
0.000257
0.000216
0.000255
0.000241
0.000279
0.000260
0.000266
0.000248
0.000266
0.000219
0.000056
0.000331
0.000304
0.002075
0.000211
0.000263
0.000223
0.000216
0.000284
0.000723
0.001240
0.000326
0.000373
0.000335
0.001990
0.000245
0.000224
0.000265
0.000273
0.000260
0.000230
0.000293
0.000283
0.000267
0.000325
0.000499
0.000420
0.000361
0.002149
0.000525
0.000470
0.000416
0.000058
0.000203
0.000216
0.000221
0.002028
0.000198
0.000223
0.000231
0.000229
0.000232
0.000254
0.000244
0.000259
0.000252
0.000337
0.000472
0.000342
0.001301
0.000239
0.000270
0.000266
0.000226
0.000249
0.000264
0.000275
0.000351
0.000426
0.000477
0.001585
0.000343
0.000219
0.000169
0.000059
0.000183
0.000204
0.000257
0.000204
0.000247
0.000259
0.000250
0.000248
0.000259
0.000478
0.000257
0.001486
0.000217
0.000192
0.000227
0.000269
0.000251
0.000252
0.000265
0.000538
0.000382
0.000472
0.000207
0.001565
0.000260
0.000243
0.000277
0.000278
0.000263
0.000267
0.000208
0.000057
0.000203
0.000210
0.000259
0.000264
0.000251
0.000241
0.000242
0.000238
0.000253
0.000243
0.000257
0.000252
0.000259
0.000247
0.001585
0.000240
0.000234
0.000267
0.000351
0.000318
0.000365
0.000256
0.000223
0.000242
0.000241
0.000282
0.001453
0.000297
0.000217
0.000229
0.000158
0.000058
0.000196
0.000225
0.000239
0.000261
0.000290
0.000213
0.000240
0.000276
0.000209
0.000264
0.000240
0.000267
0.000220
0.000351
0.000334
0.000328
0.000329
0.001579
0.000333
0.000220
0.000216
0.000220
0.000259
0.000296
0.000445
0.000442
0.000407
0.000243
0.000214
0.001592
0.000198
0.000057
0.000319
0.000380
0.000339
0.000306
0.000194
0.000219
0.000236
0.000267
0.000254
0.000242
0.000243
0.000240
0.001463
0.000332
0.000303
0.000227
0.000211
0.000272
0.000250
0.000261
0.000263
0.000240
0.000255
0.000274
0.000270
0.000377
0.000466
0.000406
0.000244
0.000211
0.000211
0.000059
0.000208
0.000319
0.000327
0.000408
0.000374
0.000234
0.000221
0.000243
0.000255
0.000252
0.000250
0.000232
0.000245
0.000254
0.001328
0.000272
0.000242
0.000208
0.000251
0.000269
0.000251
0.000258
0.000249
0.000263
0.000255
0.000255
0.000270
0.000723
0.000510
0.000210
0.000176
0.000057
0.000191
0.001531
0.000241
0.000474
0.000414
0.000311
0.000214
0.000229
0.000257
0.000256
0.000252
0.000259
0.000268
0.000268
0.000277
0.001516
0.000256
0.000275
0.000263
0.000260
0.000270
0.000247
0.000262
0.000270
0.000254
0.000253
0.000489
0.000376
0.000363
0.000231
0.000153
0.000056
0.000197
0.000219
0.000250
0.001713
0.000404
0.000324
0.000202
0.000206
0.000237
0.000275
0.000267
0.000261
0.000258
0.000250
0.000240
0.000265
0.000444
0.001359
0.000216
0.000237
0.001520
0.000472
0.000417
0.000390
0.000294
0.000233
0.000255
0.000455
0.000247
0.000248
0.000212
0.000062
0.000285
0.000218
0.000207
0.000250
0.000240
0.000255
0.000240
0.000260
0.000256
0.000238
0.000258
0.000250
0.000329
0.000525
0.001624
0.001488
0.000384
0.000529
0.000315
0.000246
0.000220
0.000256
0.000251
0.000258
0.000247
0.000276
0.000268
0.000277
0.001594
0.000313
0.000131
0.000058
0.000205
0.000341
0.000350
0.000330
0.000259
0.000205
0.000214
0.000398
0.000409
0.001375
0.000352
0.001542
0.000353
0.000455
0.000485
0.000265
0.000341
0.000335
0.000347
0.000276
0.000245
0.000341
0.001556
0.000548
0.000236
0.000233
0.000281
0.000242
0.000252
0.000262
0.000212
0.000073
0.000162
0.000230
0.000248
0.000263
0.000236
0.001652
0.000967
0.000899
0.000229
0.000236
0.000253
0.000263
0.000249
0.000262
0.000262
0.000253
0.000246
0.000263
0.000269
0.000292
0.001489
0.000275
0.000253
0.000217
0.000228
0.000247
0.000258
0.000295
0.000253
0.000276
0.000221
0.000058
0.000197
0.000197
0.001530
0.000959
0.000331
0.000355
0.000215
0.000205
0.000249
0.000253
0.000249
0.000264
0.000235
0.002057
0.000462
0.000211
0.000213
0.000243
0.000254
0.000262
0.000204
