0.000227
0.015952
0.005635
0.000300
0.000266
0.000286
0.000308
0.000243
0.000336
0.000282
0.000249
0.000347
0.000611
0.000487
0.000215
0.000399
0.000272
0.000371
0.000348
0.000405
0.000314
0.001886
0.000739
0.000243
0.000257
0.000306
0.000306
0.000333
0.000480
0.000376
0.000456
0.000277
0.000057
0.000219
0.000268
0.000268
0.000260
0.000276
0.000248
0.000277
0.000263
0.000269
0.000314
0.000433
0.000410
0.000321
0.000263
0.000410
0.000296
0.000363
0.000253
0.000252
0.001700
0.000322
0.000252
0.000451
0.000247
0.000276
0.000268
0.000295
0.000298
0.000278
0.000320
0.000399
0.000058
0.000242
0.000255
0.000264
0.000262
0.000249
0.000246
0.000257
0.000254
0.000288
0.001669
0.000227
0.000237
0.000271
0.000267
0.000283
0.000249
0.000263
0.000256
0.000354
0.001801
0.000235
0.000277
0.000444
0.000495
0.000324
0.000252
0.000245
0.000573
0.000463
0.000695
0.000188
0.000057
0.000223
0.000240
0.000254
0.000269
0.000273
0.000251
0.000329
0.000535
0.000390
0.000247
0.000253
0.000244
0.000248
0.000251
0.000256
0.000255
0.000247
0.000268
0.000302
0.000319
0.001677
0.000268
0.000253
0.000422
0.000268
0.000727
0.000748
0.000448
0.000329
0.000250
0.000186
0.000056
0.000217
0.000252
0.000263
0.000245
0.000253
0.000257
0.000279
0.000440
0.001477
0.000219
0.000242
0.000244
0.000260
0.000252
0.000263
0.000285
0.000499
0.000600
0.001373
0.000275
0.000460
0.000260
0.000224
0.000219
0.000261
0.000263
0.000268
0.000267
0.000261
0.000267
0.000197
0.000057
0.000205
0.000241
0.000241
0.000271
0.000231
0.000246
0.000246
0.000253
0.000242
0.000247
0.001636
0.000255
0.000245
0.000232
0.000256
0.000251
0.000248
0.000246
0.000257
0.000255
0.000268
0.001666
0.000289
0.000245
0.000445
0.000255
0.000255
0.000256
0.000261
0.000268
0.000197
0.000055
0.000188
0.000229
0.000248
0.000252
0.000244
0.000244
0.000264
0.000236
0.000261
0.000244
0.000262
0.000263
0.000256
0.000271
0.001644
0.000295
0.000304
0.000192
0.000244
0.000273
0.000270
0.000236
0.000245
0.000266
0.001788
0.000376
0.000361
0.000354
0.000249
0.000278
0.000197
0.000056
0.000202
0.000239
0.000240
0.000270
0.000254
0.000245
0.000279
0.000405
0.000420
0.000423
0.000212
0.000247
0.000253
0.000253
0.001567
0.000522
0.000329
0.000407
0.000309
0.000234
0.000268
0.000279
0.000279
0.001728
0.000523
0.000447
0.000257
0.000244
0.000252
0.000258
0.000184
0.000057
0.000211
0.000223
0.000258
0.000363
0.000246
0.000419
0.000429
0.000236
0.000214
0.000252
0.000259
0.000245
0.000251
0.001754
0.000442
0.000275
0.000244
0.000248
0.000278
0.000276
0.000247
0.000265
0.000267
0.001882
0.000497
0.000265
0.000198
0.000250
0.000272
0.000418
0.000328
0.000054
0.000203
0.000416
0.000301
0.000300
0.000260
0.000245
0.000251
0.000259
0.000239
0.000233
0.000235
0.000253
0.001551
0.000419
0.000245
0.000228
0.000260
0.000253
0.000238
0.000287
0.000279
0.000331
0.000241
0.001812
0.000254
0.000498
0.000244
0.000253
0.000257
0.000271
0.000262
0.000056
0.000302
0.000571
0.000605
0.000222
0.000223
0.000282
0.000227
0.000224
0.000256
0.000254
0.000255
0.001700
0.000247
0.000443
0.000366
0.000218
0.000243
0.000227
0.000253
0.000259
0.000250
0.001864
0.000234
0.000246
0.002073
0.000527
0.000359
0.000246
0.000256
0.000264
0.000182
0.000055
0.000211
0.000235
0.000245
0.000246
0.000255
0.001619
0.000253
0.000232
0.000256
0.000252
0.000244
0.000239
0.000252
0.000253
0.000269
0.000719
0.000317
0.000266
0.000255
0.000252
0.000262
0.000248
0.000243
0.000430
0.000438
0.000239
0.000326
0.000699
0.000340
0.000270
0.000207
0.000057
0.000207
0.000247
0.000254
0.000248
0.000238
0.000240
0.000239
0.000496
0.000323
0.001730
0.000223
0.000235
0.000241
0.000248
0.000260
0.000268
0.000427
0.000496
0.000370
0.000218
0.000256
0.000329
0.000259
0.000250
0.000274
0.000430
0.000352
0.000613
0.000425
0.000475
0.000174
0.000057
0.000198
0.000262
0.000234
0.000227
0.000235
0.000242
0.000250
0.000246
0.000246
0.000334
0.000297
0.000438
0.001384
0.000245
0.000247
0.000238
0.000264
0.000247
0.000248
0.000272
0.000323
0.000436
0.000353
0.000275
0.000271
0.000284
0.000222
0.000275
0.000265
0.000269
0.000371
0.000056
0.000213
0.000229
0.000236
0.000334
0.000469
0.000432
0.000236
0.000264
0.000232
0.000258
0.000249
0.000236
0.000297
0.000251
0.000239
0.000520
0.000375
0.001645
0.000287
0.000220
0.000262
0.000268
0.000253
0.000245
0.000285
0.000390
0.000477
0.000355
0.000436
0.000241
0.000181
0.000056
0.000229
0.000437
0.000238
0.000217
0.000266
0.000241
0.000280
0.000570
0.000333
0.000326
0.000230
0.000267
0.000264
0.000241
0.000511
0.000351
0.000222
0.000239
0.000461
0.001602
0.000268
0.000236
0.000529
0.000234
0.000280
0.000277
0.000259
0.000330
0.000563
0.000396
0.000247
0.000058
0.000206
0.000242
0.000235
0.000243
0.000421
0.000298
0.000298
0.000226
0.000472
0.000425
0.000335
0.000286
0.000224
0.000239
0.000261
0.000264
0.000258
0.000254
0.000231
0.000341
0.000294
0.000314
0.001868
0.000235
0.000259
0.000256
0.000288
0.000352
0.000417
0.000693
0.000420
0.000058
0.000269
0.000311
0.000281
0.000427
0.000399
0.000190
0.000262
0.000357
0.000434
0.000427
0.000262
0.000239
0.000240
0.000275
0.000255
0.000236
0.000254
0.000270
0.000272
0.000258
0.000262
0.000377
0.000702
0.001324
0.000337
0.000515
0.000342
0.000250
0.000410
0.000423
0.000374
0.000056
0.000249
0.000398
0.000256
0.000196
0.000229
0.000243
0.000419
0.000228
0.000237
0.000514
0.000356
0.000375
0.000240
0.000256
0.000264
0.000252
0.000380
0.000384
0.000351
0.000224
0.000245
0.000466
0.000553
0.001678
0.000225
0.000454
0.000294
0.000229
0.000262
0.000450
0.000284
0.000056
0.000202
0.000224
0.000244
0.000243
0.000251
0.000245
0.000251
0.000328
0.000453
0.000258
0.000451
0.000407
0.000264
0.000581
0.000240
0.000249
0.000273
0.000266
0.000231
0.000346
0.000219
0.000249
0.000270
0.000449
0.000484
0.001629
0.000272
0.000237
0.000246
0.000273
0.000185
0.000056
0.000302
0.000485
0.000353
0.000188
0.000259
0.000242
0.000271
0.000226
0.000258
0.000245
0.000222
0.000246
0.000456
0.000484
0.000410
0.000264
0.000257
0.000256
0.000349
0.000389
0.000383
0.000325
0.000423
0.000357
0.000221
0.000245
0.000271
0.000272
0.001786
0.000246
0.000209
0.000056
0.000206
0.000218
0.000257
0.000268
0.000378
0.000538
0.000302
0.000221
0.000255
0.000277
0.000233
0.000250
0.000519
0.000450
0.000480
0.000293
0.000248
0.000275
0.000425
0.000462
0.000408
0.000339
0.000525
0.000411
0.000245
0.000243
0.000275
0.000238
0.000266
0.001717
0.000283
0.000057
0.000272
0.000307
0.000195
0.000236
0.000251
0.000253
0.000248
0.000501
0.000368
0.000306
0.000294
0.000271
0.000380
0.000661
0.000293
0.000236
0.000251
0.000255
0.000250
0.000267
0.000258
0.000269
0.000249
0.000265
0.000328
0.000357
0.000382
0.000363
0.000237
0.000259
0.000193
0.000056
0.000442
0.000299
0.000451
0.000259
0.000207
0.000250
0.000243
0.000256
0.000236
0.000226
0.000247
0.000279
0.000292
0.000379
0.000451
0.000571
0.000279
0.000324
0.000384
0.000335
0.000313
0.000222
0.000244
0.000259
0.001748
0.000251
0.001725
0.000943
0.000436
0.000282
0.000183
0.000056
0.000214
0.000229
0.000240
0.000238
0.000266
0.000246
0.000250
0.000259
0.000234
0.000325
0.000343
0.000501
0.000284
0.000374
0.000262
0.000250
0.000247
0.000297
0.000225
0.000247
0.000254
0.000256
0.001810
0.000241
0.000258
0.000261
0.000277
0.000264
0.001893
0.000516
0.000255
0.000056
0.000208
0.000215
0.000235
0.000240
0.000255
0.000247
0.000245
0.000253
0.000253
0.000419
0.000480
0.000535
0.000238
0.000204
0.000236
0.000254
0.000333
0.000448
0.000376
0.000238
0.001779
0.000248
0.000243
0.000255
0.000257
0.000269
0.000243
0.000252
0.000326
0.000281
0.000395
0.000061
0.000248
0.000220
0.000239
0.000260
0.000244
0.000242
0.000256
0.000254
0.000238
0.000262
0.000238
0.000286
0.000421
0.000306
0.000370
0.000262
0.000481
0.000242
0.000248
0.000256
0.000257
0.000264
0.000276
0.000248
0.000281
0.001794
0.000237
0.000246
0.000270
0.000242
0.000194
0.000056
0.000257
0.000417
0.000184
0.000226
0.000238
0.000234
0.000238
0.000255
0.000243
0.000231
0.000229
0.000265
0.000259
0.000408
0.000357
0.000391
0.000263
0.000245
0.000250
0.000252
0.000261
0.000257
0.000251
0.000269
0.000251
0.000259
0.000324
0.001630
0.000261
0.000238
0.000182
0.000057
0.000206
0.000235
0.000254
0.000258
0.000341
0.000358
0.000456
0.000255
0.000225
0.000260
0.000250
0.000240
0.000249
0.000255
0.000267
0.000255
0.000248
0.000255
0.000259
0.000256
0.000289
0.000246
0.000249
0.000238
0.000241
0.000279
0.000275
0.000259
0.000262
0.000264
0.000177
0.000056
0.000217
0.000237
0.000252
0.000262
0.000252
0.000232
0.000248
0.000260
0.000287
0.000240
0.000221
0.000246
0.000260
0.000245
0.000274
0.000259
0.000253
0.000249
0.000301
0.000250
0.000278
0.000290
0.000274
0.000245
0.000279
0.000274
0.000271
0.000249
0.000274
0.000432
0.000647
0.000057
0.000231
0.000283
0.000212
0.000237
0.000242
0.000252
0.000234
0.000256
0.000249
0.000243
0.000276
0.000310
0.000518
0.000474
0.001488
0.000229
0.000487
0.000237
0.000316
0.000403
0.000506
0.000292
0.000253
0.000258
0.000253
0.000263
0.000279
0.000259
0.000304
0.000256
0.000185
0.000056
0.000279
0.000503
0.000321
0.000327
0.000234
0.000237
0.000246
0.000246
0.000236
0.000247
0.000256
0.000254
0.000228
0.000269
0.000380
0.000514
0.000352
0.001802
0.000237
0.000251
0.000336
0.000408
0.000467
0.000285
0.000317
0.000336
0.000292
0.000228
0.000226
0.000256
0.000191
0.000055
0.000229
0.000222
0.000235
0.000331
0.000382
0.000427
0.000296
0.000258
0.000254
0.000216
0.000245
0.000270
0.000267
0.000259
0.000248
0.000258
0.000275
0.000514
0.000375
0.000408
0.000235
0.001749
0.000334
0.000518
0.000438
0.000500
0.000325
0.000226
0.000256
0.000272
0.000441
0.000057
0.000212
0.000249
0.000233
0.000346
0.000326
0.000495
0.000382
0.000214
0.000250
0.000298
0.000226
0.000265
0.000254
0.000294
0.000307
0.000235
0.000233
0.000349
0.000546
0.000307
0.000487
0.001859
0.000238
0.000388
0.000571
0.000346
0.000227
0.000263
0.000290
0.000256
0.000198
0.000057
0.000225
0.000343
0.000353
0.000313
0.000412
0.000281
0.000384
0.000203
0.000241
0.000277
0.000280
0.000206
0.000242
0.000254
0.000246
0.000257
0.000323
0.000351
0.000531
0.000382
0.000284
0.000223
0.000267
0.001724
0.000467
0.000460
0.000677
0.000239
0.000271
0.000305
0.000152
0.000056
0.000195
0.000232
0.000325
0.000254
0.000267
0.000334
0.000445
0.000321
0.000226
0.000531
0.000238
0.000246
0.000262
0.000277
0.000272
0.000266
0.000210
0.000362
0.000440
0.000457
0.000264
0.000232
0.000255
0.000253
0.000262
0.000262
0.000244
0.000254
0.000263
0.000290
0.000179
0.000057
0.000277
0.000356
0.000209
0.000257
0.000244
0.000261
0.000240
0.000291
0.000260
0.000228
0.000251
0.000364
0.000426
0.000448
0.000290
0.000270
0.000235
0.000227
0.000262
0.000260
0.000292
0.000254
0.000243
0.000257
0.000279
0.000306
0.000406
0.000379
0.000366
0.000232
0.000187
0.000056
0.000221
0.000211
0.000277
0.000245
0.000277
0.000218
0.000248
0.000266
0.000483
0.000217
0.000259
0.000247
0.000254
0.000261
0.000274
0.000277
0.000257
0.000354
0.000219
0.000241
0.000259
0.000269
0.000259
0.000263
0.000276
0.000261
0.000261
0.000253
0.000521
0.000245
0.000145
0.000055
0.000210
0.000241
0.000252
0.000265
0.000217
0.000248
0.000374
0.000405
0.000229
0.000235
0.000257
0.000252
0.000236
0.000261
0.000488
0.001749
0.000226
0.000262
0.000283
0.000395
0.000362
0.000349
0.000424
0.000388
0.000332
0.000413
0.000244
0.000266
0.000268
0.000269
0.001394
0.000055
0.000408
0.000316
0.000251
0.000214
0.000233
0.000252
0.000232
0.000253
0.000244
0.000269
0.000243
0.000258
0.000252
0.000258
0.000631
0.001570
0.000255
0.000224
0.000245
0.000264
0.000234
0.000264
0.000338
0.000479
0.000244
0.000338
0.000228
0.000260
0.000279
0.000264
0.000178
0.000057
0.001200
0.000506
0.000359
0.000264
0.000234
0.000225
0.000236
0.000238
0.000486
0.000224
0.000240
0.000252
0.000357
0.000497
0.000402
0.000360
0.000237
0.000237
0.000343
0.000342
0.000267
0.000256
0.000273
0.000244
0.000274
0.000537
0.000529
0.000348
0.000234
0.000264
0.000164
0.000057
0.000206
0.000232
0.000235
0.000253
0.001473
0.000287
0.000230
0.000254
0.000234
0.000249
0.000252
0.000258
0.000243
0.000262
0.000269
0.000267
0.000474
0.000625
0.000277
0.001748
0.000257
0.000269
0.000307
0.000406
0.000560
0.000408
0.000252
0.000258
0.000253
0.000265
0.000198
0.000057
0.000218
0.000245
0.000239
0.000352
0.001225
0.000231
0.000257
0.000264
0.000239
0.000235
0.000235
0.000247
0.000280
0.000247
0.000258
0.000256
0.000509
0.000401
0.000325
0.000257
0.000275
0.000266
0.000253
0.000238
0.000283
0.000265
0.000241
0.000274
0.000272
0.000301
0.000668
0.000056
0.000223
0.000246
0.000261
0.000240
0.000263
0.000241
0.000245
0.000252
0.000265
0.000252
0.001444
0.000227
0.000231
0.000271
0.000226
0.000247
0.000264
0.000258
0.000267
0.000265
0.000269
0.000508
0.000461
0.000368
0.000229
0.000267
0.001772
0.000245
0.000258
0.000326
0.000425
0.000057
0.000203
0.000415
0.000422
0.000506
0.000512
0.000531
0.001517
0.000401
0.000527
0.000649
0.000550
0.000725
0.000510
0.000588
0.000586
0.001885
0.000380
0.000464
0.000395
0.000316
0.000231
0.000298
0.000257
0.000269
0.000254
0.000283
0.000288
0.000287
0.000266
0.000286
0.001375
0.000056
0.000205
0.000223
0.000252
0.000233
0.000256
0.000252
0.000239
0.000242
0.000248
0.000257
0.000236
0.000240
0.000256
0.000252
0.000274
0.000268
0.001809
0.000273
0.000238
0.000248
0.000263
0.000257
0.000286
0.000321
0.000504
0.000256
0.000367
0.000222
0.000268
0.000280
0.000209
0.000057
0.000205
0.001363
0.000332
0.000262
0.000253
0.000242
0.000243
0.000235
0.000229
0.000246
0.000219
0.000243
0.000246
0.000508
0.000363
0.000282
0.000266
0.000259
0.001924
0.000221
0.000247
0.000271
0.000253
0.000267
0.000270
0.000284
0.000273
0.000264
0.000251
0.000320
0.000202
0.000055
0.000217
0.000241
0.000253
0.001445
0.000209
0.000250
0.000265
0.000232
0.000232
0.000269
0.000243
0.000254
0.000247
0.000254
0.000261
0.000254
0.000268
0.000267
0.000265
0.000255
0.000261
0.001776
0.000278
0.001752
0.000269
0.000238
0.000270
0.000276
0.000259
0.000278
0.000199
0.000056
0.000203
0.000245
0.001344
0.000222
0.000251
0.000273
0.000234
0.000257
0.000242
0.000250
0.000249
0.000251
0.000263
0.000252
0.000260
0.000271
0.000258
0.000281
0.000298
0.000228
0.001887
0.000222
0.001836
0.000250
0.000256
0.000271
0.000229
0.000248
0.000256
0.000269
0.000197
0.000056
0.001463
0.000213
0.000233
0.000256
0.000223
0.000242
0.000364
0.000269
0.000248
0.000262
0.000251
0.000260
0.000264
0.000387
0.000332
0.000307
0.000238
0.000279
0.000254
0.000250
0.000265
0.000343
0.000226
0.000253
0.000273
0.000273
0.000274
0.000368
0.000622
0.000353
0.000193
0.000057
0.000208
0.000263
0.000244
0.000302
0.000371
0.000257
0.001666
0.000327
0.000283
0.000266
0.000250
0.000276
0.000287
0.000256
0.000286
0.000317
0.000325
0.000646
0.000314
0.000262
0.000317
0.000254
0.000259
0.000274
0.000333
0.000292
0.000227
0.000253
0.000250
0.000316
0.000423
0.000056
0.000252
0.000489
0.000250
0.000263
0.000250
0.000223
0.000228
0.000248
0.000257
0.000256
0.001522
0.000221
0.000238
0.000240
0.000242
0.000287
0.000278
0.000230
0.000267
0.000271
0.000266
0.000413
0.000441
0.000370
0.000263
0.000294
0.000265
0.000259
0.000228
0.000317
0.000167
0.000056
0.000205
0.000224
0.000277
0.000500
0.000369
0.000248
0.000217
0.000248
0.000254
0.000248
0.000236
0.000254
0.000257
0.000268
0.000237
0.000239
0.000524
0.001084
0.000243
0.000258
0.000272
0.000244
0.000353
0.000418
0.000262
0.000325
0.000563
0.000362
0.000377
0.000229
0.000187
0.000056
0.000224
0.000241
0.000261
0.000265
0.000260
0.000240
0.000362
0.000381
0.000438
0.000287
0.000371
0.000389
0.000408
0.000338
0.000249
0.000246
0.000246
0.000258
0.000414
0.001433
0.000280
0.000228
0.000285
0.000259
0.000233
0.000244
0.000259
0.000297
0.000434
0.000438
0.000257
0.000057
0.000210
0.000246
0.000247
0.000238
0.000249
0.000253
0.000232
0.000261
0.000312
0.000452
0.000310
0.000379
0.000266
0.000223
0.000253
0.000260
0.000245
0.000263
0.000266
0.000249
0.000443
0.000298
0.000341
0.000452
0.000264
0.000253
0.000271
0.000275
0.000250
0.000341
0.000155
0.000055
0.000309
0.000342
0.000273
0.000471
0.000346
0.000376
0.000239
0.000245
0.000248
0.000273
0.000257
0.000260
0.000235
0.000256
0.000247
0.000225
0.000264
0.000477
0.000353
0.000381
0.000221
0.000280
0.000242
0.000248
0.000265
0.000284
0.000258
0.000266
0.000285
0.000253
0.000267
0.000056
0.000360
0.000257
0.000229
0.000246
0.000245
0.000247
0.000242
0.000253
0.000268
0.000259
0.000253
0.000235
0.000475
0.000310
0.000426
0.000294
0.000244
0.000244
0.000251
0.000268
0.000254
0.000270
0.000257
0.000265
0.000272
0.000342
0.000374
0.000604
0.000417
0.000249
0.000159
0.000056
0.000378
0.000206
0.000235
0.000243
0.000266
0.000230
0.000243
0.000248
0.000256
0.000258
0.000219
0.000281
0.000239
0.000227
0.000239
0.000268
0.000262
0.000258
0.000269
0.000256
0.000271
0.000257
0.000269
0.000255
0.000263
0.000239
0.000268
0.000276
0.000258
0.000279
0.000198
0.000056
0.000204
0.000229
0.000251
0.000250
0.000233
0.000255
0.000262
0.000236
0.000259
0.000272
0.000234
0.000229
0.000264
0.000398
0.000254
0.000279
0.000257
0.000268
0.000253
0.000287
0.000272
0.000232
0.000247
0.000251
0.000273
0.000271
0.000252
0.000243
0.000281
0.000255
0.000206
0.000055
0.000226
0.000332
0.000369
0.000280
0.000293
0.000264
0.000265
0.000256
0.000229
0.000239
0.000249
0.000276
0.000236
0.000256
0.000241
0.000260
0.000261
0.000276
0.000238
0.000264
0.000277
0.000261
0.000281
0.000256
0.000271
0.000242
0.000264
0.000273
0.000266
0.000262
0.000192
0.000056
0.000223
0.000213
0.000262
0.000264
0.000490
0.000211
0.000211
0.000250
0.000248
0.000521
0.000448
0.000274
0.000231
0.000251
0.000275
0.000267
0.000235
0.000271
0.000260
0.000268
0.000268
0.000255
0.000258
0.000279
0.000623
0.000421
0.000254
0.000307
0.000259
0.000262
0.000186
0.000055
0.000206
0.000228
0.000247
0.000249
0.000440
0.000529
0.000313
0.000385
0.000241
0.000218
0.000250
0.000252
0.000251
0.000251
0.000257
0.000266
0.000259
0.000268
0.000611
0.000387
0.000299
0.000254
0.000255
0.000288
0.000277
0.000258
0.000266
0.000268
0.000248
0.000339
0.000310
0.000056
0.000315
0.000227
0.000234
0.000239
0.000254
0.000255
0.000225
0.000250
0.000241
0.000260
0.000248
0.000247
0.000249
0.000429
0.000527
0.000383
0.000254
0.000270
0.000251
0.000245
0.000264
0.000274
0.000486
0.000225
0.000262
0.000583
0.000426
0.000492
0.000254
0.000249
0.000179
0.000055
0.000203
0.000229
0.000249
0.000242
0.000254
0.000255
0.000281
0.000455
0.000585
0.000430
0.000235
0.000244
0.000281
0.000273
0.000250
0.000255
0.000232
0.000251
0.000254
0.000305
0.000441
0.000639
0.000360
0.000265
0.000363
0.000372
0.000477
0.000244
0.000269
0.000456
0.000345
0.000055
0.000235
0.000228
0.000454
0.000209
0.000225
0.000256
0.000263
0.000262
0.000230
0.000245
0.000258
0.000397
0.000347
0.000376
0.000228
0.000243
0.000262
0.000264
0.000249
0.000278
0.000273
0.000253
0.000254
0.000272
0.000365
0.000423
0.000486
0.000249
0.000257
0.000270
0.000196
0.000056
0.000209
0.000251
0.000230
0.000247
0.000242
0.000250
0.000397
0.000432
0.000377
0.000294
0.000361
0.000222
0.000265
0.000249
0.000256
0.000241
0.000251
0.000261
0.000268
0.000388
0.000531
0.000310
0.000479
0.000283
0.000444
0.000372
0.000376
0.000231
0.000260
0.000337
0.000286
0.000055
0.000267
0.000276
0.000223
0.000255
0.000258
0.000255
0.000255
0.000241
0.000252
0.000261
0.000242
0.000426
0.000371
0.000380
0.000379
0.000225
0.000259
0.000265
0.000269
0.000233
0.000249
0.000250
0.000269
0.000274
0.000285
0.000328
0.000500
0.000466
0.000229
0.000289
0.000184
0.000056
0.000202
0.000249
0.000261
0.000240
0.000257
0.000333
0.000562
0.000413
0.000360
0.000687
0.000272
0.000213
0.000237
0.000262
0.000250
0.000262
0.000280
0.000280
0.000456
0.000440
0.001505
0.000300
0.000262
0.000265
0.000293
0.000277
0.000353
0.000428
0.000355
0.000343
0.000163
0.000056
0.000184
0.000226
0.000251
0.000243
0.000239
0.000257
0.000272
0.000252
0.000255
0.000336
0.000328
0.000384
0.000275
0.000352
0.000368
0.000333
0.000240
0.000251
0.000276
0.000260
0.000241
0.000252
0.000281
0.000247
0.000317
0.000433
0.000435
0.000311
0.000230
0.000272
0.000188
0.000057
0.000214
0.000250
0.000253
0.000254
0.000242
0.000239
0.000468
0.000213
0.000249
0.000239
0.000249
0.000250
0.000259
0.000254
0.000265
0.000253
0.000261
0.000272
0.000267
0.000255
0.000262
0.000285
0.000295
0.000248
0.000265
0.000284
0.000260
0.000268
0.000267
0.000270
0.000167
0.000058
0.000222
0.000250
0.000386
0.000311
0.000389
0.000257
0.000233
0.000244
0.000262
0.000248
0.000247
0.000253
0.000265
0.000260
0.000237
0.000248
0.000244
0.000266
0.000272
0.000352
0.000455
0.000380
0.000233
0.000262
0.000270
0.000248
0.000272
0.000247
0.000273
0.000279
0.000196
0.000056
0.000306
0.000439
0.000368
0.000210
0.000256
0.000252
0.000410
0.000237
0.000220
0.000257
0.000254
0.000337
0.000314
0.000430
0.001880
0.000258
0.000227
0.000247
0.000278
0.000244
0.000282
0.000531
0.000607
0.000269
0.000237
0.000256
0.000279
0.000427
0.000278
0.000276
0.000162
0.000056
0.000193
0.000403
0.000319
0.000273
0.000499
0.000198
0.000247
0.000240
0.000257
0.000245
0.000256
0.000248
0.000259
0.000318
0.000438
0.000450
0.000226
0.000240
0.000263
0.000261
0.000367
0.000213
0.000228
0.000283
0.000286
0.000556
0.000371
0.000433
0.000453
0.000224
0.000203
0.000056
0.000216
0.000233
0.000257
0.000243
0.000251
0.000237
0.000267
0.000272
0.000381
0.000355
0.000506
0.000267
0.000216
0.000251
0.000267
0.000280
0.000301
0.000242
0.000277
0.000269
0.000237
0.000307
0.000431
0.000395
0.000352
0.000201
0.000261
0.000458
0.000392
0.000321
0.000169
0.000057
0.000197
0.000264
0.000418
0.000354
0.000348
0.000209
0.000231
0.000267
0.000252
0.000253
0.000262
0.000252
0.000234
0.000257
0.000251
0.000301
0.000369
0.000413
0.000258
0.000347
0.000497
0.000224
0.000279
0.000276
0.000305
0.000280
0.000264
0.000271
0.000462
0.000456
0.000254
0.000056
0.000216
0.000219
0.000258
0.000247
0.000242
0.000474
0.000212
0.000275
0.000250
0.000290
0.000513
0.000608
0.000205
0.000247
0.000244
0.000249
0.000256
0.000252
0.000255
0.000250
0.000263
0.000260
0.000380
0.000430
0.000337
0.000408
0.000297
0.000339
0.000277
0.000254
0.000180
0.000055
0.000216
0.000230
0.000260
0.000486
0.000315
0.000313
0.000252
0.000217
0.000245
0.000263
0.000252
0.000251
0.000248
0.000269
0.000247
0.000258
0.000266
0.000228
0.000279
0.000383
0.000490
0.000410
0.000220
0.000251
0.000301
0.000256
0.000262
0.000257
0.000264
0.000263
0.000194
0.000056
0.000322
0.000330
0.000446
0.000235
0.000222
0.000256
0.000339
0.000442
0.000280
0.000222
0.000234
0.000294
0.000239
0.000445
0.000425
0.000317
0.000200
0.000244
0.000257
0.000267
0.000271
0.000264
0.000264
0.000271
0.000269
0.000282
0.000396
0.000457
0.000276
0.000255
0.000171
0.000055
0.000235
0.000243
0.000243
0.000250
0.000255
0.000263
0.000229
0.000257
0.000250
0.000249
0.000268
0.000239
0.000263
0.001454
0.000231
0.000251
0.000260
0.000245
0.000281
0.000274
0.000263
0.000238
0.000275
0.000255
0.000271
0.000266
0.000272
0.000274
0.000270
0.000256
0.000193
0.000055
0.000188
0.000223
0.000269
0.000237
0.000234
0.000247
0.000256
0.000262
0.000231
0.000249
0.000247
0.000263
0.000256
0.000253
0.000268
0.000249
0.000244
0.000259
0.000281
0.000245
0.000255
0.000265
0.000245
0.000250
0.001300
0.000271
0.000625
0.000337
0.000379
0.000242
0.000189
0.000055
0.000211
0.000239
0.000236
0.000258
0.000407
0.000235
0.000245
0.000244
0.000249
0.000341
0.000481
0.000338
0.000233
0.000231
0.000262
0.000254
0.000258
0.000270
0.000245
0.000255
0.000258
0.000276
0.000245
0.000403
0.000541
0.000441
0.000217
0.000268
0.001386
0.000228
0.000182
0.000055
0.000311
0.000408
0.000377
0.000210
0.000220
0.000234
0.000227
0.000248
0.000262
0.000253
0.000249
0.000263
0.000267
0.000300
0.000578
0.000354
0.000315
0.000222
0.000254
0.000257
0.000265
0.000263
0.000266
0.000269
0.000269
0.000264
0.000287
0.000584
0.000393
0.000363
0.000146
0.000056
0.000200
0.000223
0.001261
0.000424
0.000312
0.000472
0.000350
0.000489
0.000285
0.000338
0.000224
0.000223
0.000263
0.000250
0.000250
0.000268
0.000356
0.000512
0.000348
0.000386
0.000251
0.000244
0.000273
0.000493
0.000231
0.000271
0.000253
0.000284
0.000307
0.000689
0.000199
0.000059
0.000386
0.000336
0.000195
0.000224
0.001505
0.000512
0.000320
0.000233
0.000254
0.000243
0.000234
0.000240
0.000241
0.000276
0.000249
0.000257
0.000238
0.000265
0.000448
0.000476
0.000332
0.000243
0.000253
0.000258
0.000253
0.000275
0.000270
0.000237
0.000266
0.000272
0.000200
0.000057
0.000378
0.000338
0.000220
0.000234
0.000257
0.000240
0.000262
0.000234
0.000230
0.000228
0.001391
0.000500
0.000258
0.000257
0.000228
0.000256
0.000274
0.000260
0.000241
0.000276
0.000274
0.000247
0.000255
0.000456
0.000519
0.000312
0.000232
0.000266
0.000284
0.000280
0.000170
0.000056
0.000190
0.000407
0.000223
0.000239
0.000326
0.000482
0.000385
0.000284
0.000455
0.000219
0.000225
0.000250
0.000256
0.000269
0.000257
0.001474
0.000299
0.000289
0.000239
0.000272
0.000281
0.000245
0.000250
0.000259
0.000260
0.000271
0.000482
0.000412
0.000291
0.000273
0.000161
0.000056
0.000224
0.000233
0.000253
0.000237
0.000232
0.000260
0.000242
0.000258
0.000280
0.000348
0.000477
0.000258
0.000251
0.000252
0.000240
0.000271
0.000290
0.000247
0.000272
0.000228
0.000263
0.000251
0.001314
0.000255
0.000254
0.000246
0.000257
0.000272
0.000255
0.000259
0.000185
0.000055
0.000285
0.000339
0.000297
0.000381
0.000232
0.000235
0.000258
0.000265
0.000259
0.000245
0.000281
0.000241
0.000240
0.000253
0.000262
0.000262
0.000260
0.000273
0.000265
0.000249
0.000248
0.000273
0.000262
0.000287
0.000285
0.000267
0.000267
0.000259
0.000257
0.000443
0.001373
0.000056
0.000203
0.000235
0.000233
0.000241
0.000270
0.000247
0.000243
0.000224
0.000252
0.000254
0.000273
0.000248
0.000258
0.000242
0.000271
0.000221
0.001734
0.000261
0.000242
0.000259
0.000247
0.000257
0.000274
0.000257
0.000273
0.000255
0.000271
0.000277
0.000267
0.000261
0.000230
0.000058
0.000283
0.000345
0.001293
0.000214
0.000233
0.000242
0.000260
0.000252
0.000284
0.000231
0.000232
0.000369
0.000376
0.000436
0.000283
0.000234
0.000242
0.000250
0.000257
0.000267
0.000253
0.000253
0.000284
0.000276
0.000277
0.000342
0.000394
0.000399
0.000298
0.000235
0.000211
0.000056
0.000222
0.000254
0.000242
0.000247
0.000272
0.000204
0.000238
0.000283
0.000428
0.001311
0.000267
0.000208
0.000251
0.000278
0.000243
0.000283
0.000245
0.000248
0.000313
0.000395
0.000428
0.000244
0.000238
0.000247
0.000275
0.000273
0.000267
0.000297
0.000267
0.000303
0.000166
0.000057
0.000228
0.000384
0.000403
0.000219
0.000240
0.000234
0.000260
0.000267
0.000256
0.000251
0.000227
0.000250
0.000458
0.000547
0.000411
0.001472
0.000245
0.000278
0.000325
0.000347
0.000478
0.000456
0.000508
0.000324
0.000226
0.000262
0.000267
0.000272
0.000267
0.000269
0.000204
0.000056
0.000197
0.000301
0.000408
0.000539
0.000288
0.000239
0.000241
0.000231
0.000253
0.000261
0.000244
0.000264
0.000271
0.000239
0.000290
0.000270
0.000406
0.000377
0.000382
0.001324
0.000266
0.000254
0.000253
0.000258
0.000441
0.000470
0.000391
0.000235
0.000275
0.000274
0.000187
0.000056
0.000210
0.000240
0.000243
0.000246
0.000247
0.000277
0.000448
0.000383
0.000385
0.000218
0.000237
0.000262
0.000276
0.000255
0.000258
0.000264
0.000263
0.000254
0.000271
0.000308
0.000423
0.000429
0.000326
0.001414
0.000351
0.000239
0.000270
0.000409
0.000494
0.000377
0.000251
0.000056
0.000208
0.000231
0.000243
0.000251
0.000249
0.000251
0.001720
0.000207
0.000214
0.000243
0.000258
0.000248
0.000257
0.000332
0.000328
0.000281
0.000287
0.000307
0.000605
0.000281
0.000316
0.000277
0.000229
0.001452
0.000302
0.000346
0.000408
0.000470
0.000325
0.000294
0.000161
0.000057
0.000212
0.000244
0.000256
0.000258
0.000245
0.000254
0.001709
0.000252
0.000220
0.000274
0.000324
0.000414
0.001437
0.000403
0.000359
0.000230
0.000260
0.000240
0.000270
0.000267
0.001564
0.000500
0.000445
0.000276
0.000239
0.000250
0.000261
0.000280
0.000249
0.000249
0.000191
0.000056
0.000206
0.000242
0.000272
0.000241
0.000257
0.000279
0.000281
0.000263
0.000242
0.000254
0.000251
0.000252
0.000265
0.000264
0.000248
0.001503
0.000284
0.000239
0.000259
0.000271
0.000274
0.000278
0.000417
0.001255
0.000287
0.000224
0.000279
0.000254
0.000394
0.000238
0.000206
0.000057
0.000204
0.000244
0.000223
0.000243
0.000238
0.000229
0.000237
0.001695
0.000256
0.000223
0.000250
0.000367
0.000227
0.000229
0.000255
0.001390
0.000233
0.000272
0.000259
0.000240
0.000257
0.000356
0.000273
0.001313
0.000268
0.000261
0.000253
0.000267
0.001377
0.000278
0.000224
0.000056
0.000360
0.000249
0.000201
0.000241
0.000248
0.000240
0.000266
0.000269
0.000268
0.000238
0.000263
0.000267
0.000253
0.000241
0.000285
0.001528
0.000241
0.000294
0.000243
0.000241
0.000290
0.000257
0.000246
0.001508
0.000352
0.000235
0.000264
0.001283
0.000264
0.000247
0.000218
0.000055
0.000232
0.000396
0.000337
0.000208
0.000237
0.000241
0.000264
0.000257
0.000262
0.000275
0.000237
0.000252
0.000262
0.000309
0.000384
0.001215
0.000234
0.000250
0.000264
0.000276
0.000227
0.000242
0.000252
0.000364
0.001232
0.000265
0.000244
0.000255
0.000254
0.001336
0.000331
0.000057
0.000319
0.000291
0.000199
0.000230
0.000238
0.000262
0.000237
0.000246
0.000280
0.000250
0.000242
0.000245
0.000260
0.000333
0.000435
0.001446
0.000219
0.000244
0.000305
0.000507
0.000292
0.000420
0.001312
0.000296
0.000239
0.000270
0.000253
0.001309
0.000356
0.000461
0.000310
0.000056
0.000202
0.000254
0.000254
0.000254
0.000255
0.000251
0.000274
0.000244
0.000263
0.000270
0.000336
0.000404
0.001389
0.000221
0.000264
0.000264
0.000275
0.000226
0.000246
0.000241
0.000353
0.001221
0.000254
0.000250
0.000254
0.000252
0.001508
0.000449
0.000462
0.000218
0.000204
0.000056
0.000218
0.000216
0.000252
0.000231
0.000269
0.000251
0.000244
0.000299
0.000406
0.000468
0.000271
0.001492
0.000207
0.000244
0.000264
0.000254
0.000268
0.000272
0.001701
0.000262
0.000405
0.000320
0.001256
0.000427
0.000262
0.000321
0.000263
0.000257
0.000265
0.000270
0.000190
0.000055
0.000214
0.000242
0.000337
0.000227
0.000303
0.000577
0.000275
0.000282
0.001477
0.000236
0.000399
0.000254
0.000213
0.000310
0.000423
0.001290
0.000279
0.000232
0.000236
0.000258
0.001523
0.000398
0.000273
0.000267
0.000265
0.000255
0.000447
0.000336
0.000230
0.000246
0.000267
0.000055
0.000323
0.000348
0.000285
0.000261
0.000222
0.001533
0.000209
0.000247
0.000268
0.000269
0.000268
0.000240
0.000325
0.001462
0.000258
0.000230
0.000433
0.001216
0.000319
0.000436
0.000407
0.000234
0.000235
0.000261
0.000271
0.000238
0.000452
0.000230
0.000268
0.000281
0.000201
0.000057
0.000223
0.000290
0.000336
0.000329
0.001314
0.000280
0.000311
0.000229
0.000239
0.000254
0.000249
0.000300
0.001513
0.000255
0.000239
0.000240
0.001386
0.000337
0.000361
0.000390
0.000428
0.000230
0.000258
0.000246
0.000269
0.000275
0.000279
0.000250
0.000274
0.000247
0.000198
0.000056
0.000213
0.000394
0.001464
0.000203
0.000274
0.000275
0.000235
0.000249
0.000264
0.000358
0.001422
0.000209
0.000258
0.000261
0.000261
0.001337
0.000611
0.000323
0.000331
0.000403
0.000288
0.000247
0.000264
0.000260
0.000271
0.000283
0.000278
0.000306
0.000433
0.000420
0.001398
0.000056
0.000191
0.000245
0.000247
0.000222
0.000249
0.000403
0.000523
0.001269
0.000234
0.000248
0.000246
0.001471
0.000328
0.000395
0.000225
0.000405
0.000257
0.000235
0.000267
0.000288
0.000232
0.000286
0.000268
0.000256
0.000253
0.000268
0.000446
0.000482
0.001509
0.000228
0.000179
0.000056
0.000214
0.000256
0.000335
0.000525
0.001268
0.000273
0.000253
0.000260
0.000244
0.000252
0.000250
0.000267
0.000375
0.000502
0.000317
0.000236
0.000255
0.000275
0.000241
0.000276
0.000250
0.000273
0.000256
0.000273
0.000255
0.000375
0.000500
0.000352
0.000319
0.001404
0.000174
0.000056
0.000216
0.000221
0.000357
0.000396
0.000310
0.000312
0.000317
0.000350
0.000246
0.000263
0.000259
0.000261
0.000257
0.000307
0.000230
0.000272
0.000637
0.000280
0.000270
0.000383
0.000279
0.000398
0.000230
0.000263
0.000250
0.000266
0.000249
0.000291
0.000276
0.000584
0.000288
0.000056
0.000204
0.001410
0.000239
0.000334
0.000400
0.000500
0.000340
0.000272
0.000220
0.000242
0.000261
0.000243
0.000264
0.000274
0.000262
0.000269
0.000244
0.001407
0.000210
0.000257
0.000257
0.000269
0.000270
0.000282
0.000271
0.000252
0.000280
0.000245
0.000333
0.000420
0.000328
0.000058
0.000209
0.000259
0.000220
0.001490
0.000326
0.000242
0.000229
0.000251
0.000225
0.000257
0.000240
0.000275
0.000248
0.000251
0.000273
0.000251
0.000248
0.000264
0.000260
0.000261
0.001478
0.000196
0.000236
0.000270
0.000266
0.000267
0.000243
0.000264
0.000282
0.000488
0.000358
0.000056
0.000205
0.000227
0.000395
0.000281
0.000247
0.000254
0.001541
0.000341
0.000300
0.000212
0.000259
0.000316
0.000334
0.000231
0.000229
0.000249
0.000240
0.000267
0.000264
0.000256
0.000490
0.000493
0.001134
0.000277
0.000218
0.000267
0.000270
0.000250
0.000274
0.000257
0.000316
0.000056
0.000286
0.000331
0.000212
0.000243
0.000251
0.000242
0.000240
0.000229
0.000290
0.001591
0.000413
0.000261
0.000234
0.000257
0.000255
0.000250
0.000254
0.000272
0.000282
0.000290
0.000309
0.000514
0.000418
0.001369
0.000231
0.000265
0.000273
0.000264
0.000272
0.000297
0.000435
0.000055
0.000274
0.000238
0.000236
0.000244
0.000226
0.000236
0.000265
0.000252
0.000267
0.001571
0.000352
0.000258
0.000261
0.000263
0.000452
0.000274
0.000524
0.000377
0.000297
0.000335
0.000434
0.000473
0.001264
0.000253
0.000232
0.000256
0.001737
0.000451
0.000589
0.000324
0.000143
0.000055
0.000210
0.000228
0.000241
0.000236
0.000268
0.000231
0.000264
0.000498
0.000512
0.000386
0.000289
0.000219
0.000242
0.000261
0.000265
0.000264
0.000251
0.000246
0.000253
0.000282
0.000244
0.000458
0.001326
0.000229
0.000246
0.000273
0.001896
0.000387
0.000375
0.000345
0.000164
0.000058
0.000242
0.000243
0.000248
0.001599
0.000411
0.000195
0.000233
0.000265
0.000252
0.000289
0.000380
0.000363
0.000365
0.000272
0.000252
0.000552
0.000392
0.001212
0.000276
0.000231
0.000247
0.000268
0.000270
0.000413
0.000588
0.000477
0.000255
0.000262
0.000273
0.000282
0.000190
0.000056
0.000199
0.000232
0.000244
0.001563
0.000226
0.000236
0.000238
0.000253
0.000244
0.000252
0.000250
0.000274
0.000264
0.000272
0.000270
0.000459
0.000328
0.000337
0.001413
0.000228
0.000260
0.000258
0.000264
0.000284
0.000347
0.000465
0.000467
0.000284
0.000278
0.000215
0.000450
0.000057
0.000220
0.000241
0.000251
0.001531
0.000308
0.000223
0.000265
0.000251
0.000248
0.000255
0.000255
0.000252
0.000263
0.000250
0.000331
0.000569
0.001407
0.000741
0.000262
0.000333
0.000254
0.000235
0.000245
0.000274
0.001682
0.000799
0.000226
0.000269
0.000275
0.000294
0.000181
0.000057
0.000191
0.000234
0.000251
0.000244
0.000255
0.000249
0.000234
0.000262
0.000238
0.000246
0.000274
0.000280
0.000252
0.000254
0.000259
0.000253
0.000269
0.001605
0.000699
0.000405
0.000292
0.000231
0.000239
0.000283
0.000265
0.000258
0.000303
0.000226
0.001391
0.000395
0.000361
0.000056
0.000194
0.000233
0.000252
0.000244
0.000268
0.000230
0.000255
0.000249
0.000256
0.000260
0.000274
0.000447
0.000413
0.000341
0.000204
0.000252
0.000266
0.001393
0.000691
0.000460
0.000370
0.000251
0.000226
0.000251
0.000269
0.000248
0.000261
0.000264
0.001488
0.000435
0.000191
0.000056
0.000219
0.000227
0.000248
0.000247
0.000248
0.000250
0.000239
0.000265
0.000254
0.000257
0.000417
0.000325
0.000338
0.000215
0.000242
0.000247
0.000269
0.000254
0.001568
0.000637
0.000453
0.000327
0.000230
0.000258
0.000256
0.000261
0.000268
0.000281
0.000266
0.001362
0.000330
0.000056
0.000220
0.000222
0.000230
0.000260
0.000249
0.000246
0.000268
0.000297
0.000382
0.000402
0.000402
0.000368
0.000351
0.000224
0.000244
0.000251
0.000296
0.000235
0.000273
0.001896
0.000358
0.000244
0.000426
0.000262
0.000236
0.000260
0.000289
0.000248
0.000267
0.000275
0.000441
0.000058
0.000264
0.000252
0.000234
0.000238
0.000252
0.000251
0.000225
0.000240
0.000271
0.000246
0.000243
0.000238
0.000284
0.000498
0.000409
0.000463
0.000216
0.000264
0.000252
0.000254
0.000267
0.000276
0.001476
0.001044
0.000219
0.000250
0.000265
0.000272
0.000266
0.000258
0.000200
0.000057
0.000199
0.001348
0.000288
0.000211
0.000232
0.000257
0.000252
0.000238
0.000241
0.000248
0.000256
0.000264
0.000242
0.000380
0.000403
0.000465
0.000227
0.000257
0.000261
0.000266
0.000277
0.000224
0.000259
0.000264
0.001322
0.000687
0.000312
0.000379
0.000437
0.000349
0.000294
0.000056
0.000189
0.000280
0.001382
0.000258
0.000209
0.000255
0.000230
0.000257
0.000254
0.000256
0.000252
0.000244
0.000295
0.000320
0.000611
0.000272
0.000222
0.000275
0.000328
0.000212
0.000256
0.000274
0.000229
0.000273
0.000267
0.001544
0.000736
0.000300
0.000277
0.000273
0.000188
0.000056
0.000197
0.000227
0.000476
0.000331
0.001302
0.000236
0.000240
0.000236
0.000235
0.000249
0.000246
0.000256
0.000224
0.000237
0.000261
0.000253
0.000269
0.000239
0.000254
0.000253
0.000266
0.000270
0.000300
0.000341
0.000207
0.000285
0.000246
0.001475
0.000249
0.000244
0.000171
0.000057
0.000211
0.000233
0.000247
0.000311
0.000361
0.000339
0.000384
0.000271
0.001577
0.000211
0.000303
0.000524
0.000323
0.000238
0.000432
0.000233
0.000245
0.000282
0.000254
0.000267
0.000279
0.000267
0.000257
0.000267
0.000240
0.000436
0.000369
0.000334
0.001598
0.000218
0.000193
0.000055
0.000242
0.000236
0.000249
0.000244
0.000247
0.000243
0.000259
0.000279
0.000435
0.002043
0.000233
0.000240
0.000260
0.000259
0.000258
0.000250
0.000276
0.000245
0.000331
0.000391
0.000442
0.000357
0.001456
0.000246
0.000529
0.000231
0.001770
0.000238
0.000262
0.001530
0.000157
0.000056
0.000217
0.000503
0.000372
0.000246
0.000266
0.000222
0.000260
0.000274
0.000259
0.000226
0.000254
0.000347
0.000425
0.000331
0.000419
0.000248
0.000226
0.001579
0.000239
0.000578
0.001866
0.000297
0.000224
0.001520
0.002048
0.000763
0.000258
0.000259
0.000323
0.000420
0.000331
0.000056
0.000230
0.000244
0.000248
0.000248
0.001426
0.001725
0.001079
0.000209
0.000232
0.001585
0.001977
0.000210
0.000235
0.000428
0.000314
0.000457
0.000291
0.000490
0.000217
0.000236
0.000256
0.000247
0.000280
0.001595
0.001201
0.001429
0.000264
0.000302
0.000260
0.000313
0.000389
0.000058
0.000211
0.000234
0.000237
0.000243
0.000231
0.000242
0.000249
0.000251
0.000256
0.000249
0.000242
0.000307
0.000527
0.000384
0.000268
0.000270
0.000249
0.000271
0.000266
0.000280
0.000240
0.000263
0.001539
0.000455
0.002108
0.000231
0.000317
0.000324
0.000389
0.000407
0.000185
0.000055
0.000234
0.000474
0.000347
0.000309
0.000194
0.000235
0.000253
0.000240
0.000241
0.000246
0.000245
0.000266
0.000257
0.001612
0.001359
0.001216
0.000280
0.000234
0.000244
0.000272
0.000281
0.000286
0.000235
0.000258
0.002207
0.000255
0.000233
0.000308
0.000323
0.000303
0.000220
0.000056
0.000210
0.000352
0.000540
0.000352
0.000232
0.000221
0.000248
0.000282
0.001882
0.001424
0.000223
0.000334
0.000407
0.000389
0.000250
0.000225
0.000255
0.000276
0.000263
0.000263
0.000258
0.000261
0.000467
0.000243
0.000266
0.000266
0.000271
0.000259
0.000282
0.000248
0.000202
0.000056
0.000214
0.000246
0.000254
0.000234
0.000249
0.000277
0.001551
0.001403
0.001321
0.000245
0.000237
0.000238
0.000274
0.000256
0.000248
0.000245
0.000249
0.002106
0.000261
0.000225
0.000268
0.000263
0.000259
0.000270
0.000258
0.000258
0.000268
0.000258
0.000278
0.000251
0.000170
0.000057
0.000198
0.002685
0.001379
0.000227
0.000307
0.000294
0.000229
0.000267
0.000258
0.000244
0.000253
0.000244
0.000237
0.000248
0.000269
0.000257
0.000268
0.000264
0.000257
0.000270
0.000264
0.000299
0.000257
0.000262
0.000245
0.000250
0.000264
0.000266
0.000261
0.000275
0.000384
0.000055
0.001550
0.000242
0.001251
0.000222
0.000230
0.000237
0.000259
0.000260
0.000239
0.000280
0.000376
0.000413
0.000299
0.000215
0.000255
0.002138
0.000248
0.000246
0.000328
0.000474
0.000386
0.000262
0.000229
0.000251
0.000265
0.000248
0.000263
0.000277
0.000287
0.001616
0.001244
0.000056
0.000204
0.000234
0.000304
0.000394
0.000353
0.000281
0.000222
0.000223
0.000249
0.000259
0.000266
0.000246
0.000229
0.000255
0.000263
0.000237
0.000338
0.000591
0.000373
0.000246
0.000229
0.000272
0.000279
0.000252
0.000252
0.000246
0.000262
0.000280
0.000241
0.000288
0.000402
0.000056
0.001118
0.000210
0.000384
0.000440
0.000329
0.000198
0.000220
0.000236
0.000246
0.002301
0.000432
0.000318
0.000223
0.000372
0.000284
0.000260
0.000256
0.000263
0.000271
0.000225
0.000251
0.000329
0.000655
0.000375
0.001848
0.001341
0.000455
0.000579
0.000221
0.000282
0.000191
0.000057
0.000360
0.000227
0.000237
0.000242
0.000247
0.000225
0.000262
0.000252
0.000254
0.000247
0.000252
0.000236
0.000248
0.000254
0.000446
0.000443
0.001851
0.001304
0.000458
0.000469
0.000431
0.000231
0.000247
0.000264
0.002118
0.000568
0.000391
0.000231
0.000276
0.000281
0.000190
0.000056
0.000217
0.000239
0.000256
0.000242
0.000243
0.000368
0.000388
0.000270
0.000355
0.000233
0.000244
0.000251
0.000256
0.002108
0.000410
0.000349
0.000232
0.000234
0.000266
0.000263
0.000247
0.002448
0.000350
0.000218
0.000260
0.000258
0.000252
0.000273
0.000280
0.000278
0.000196
0.000056
0.000209
0.000368
0.000493
0.000387
0.000297
0.000202
0.000216
0.000257
0.000262
0.000251
0.002002
0.000346
0.000267
0.000298
0.000215
0.000266
0.000275
0.000238
0.002208
0.000451
0.000251
0.000233
0.000275
0.000258
0.000253
0.000250
0.000293
0.000241
0.000270
0.000253
0.000193
0.000056
0.000221
0.000241
0.000249
0.000221
0.000251
0.000259
0.000235
0.000245
0.000234
0.002173
0.000230
0.000283
0.000221
0.000425
0.000235
0.000246
0.000274
0.000290
0.000241
0.000267
0.001962
0.000313
0.000357
0.000408
0.000381
0.000367
0.000312
0.000244
0.000269
0.000245
0.000196
0.000056
0.000212
0.000236
0.000258
0.000230
0.000257
0.000322
0.000226
0.002294
0.000240
0.000240
0.000259
0.000256
0.000236
0.000248
0.000305
0.002126
0.000592
0.000230
0.000248
0.000245
0.000261
0.000254
0.000291
0.000267
0.000263
0.000252
0.000283
0.000255
0.000267
0.000265
0.000191
0.000057
0.001809
0.001442
0.000198
0.000233
0.000246
0.000249
0.000253
0.000275
0.000393
0.000352
0.002170
0.000261
0.000250
0.000256
0.000276
0.000509
0.000402
0.000285
0.000240
0.000244
0.000250
0.000267
0.000269
0.000220
0.000256
0.000270
0.000269
0.000269
0.000328
0.000651
0.000312
0.000056
0.000204
0.000241
0.000245
0.000271
0.000259
0.000239
0.000259
0.000238
0.001508
0.002088
0.000585
0.000293
0.000395
0.000735
0.000300
0.000242
0.000250
0.000248
0.000269
0.000253
0.000260
0.000243
0.000247
0.000290
0.001807
0.001456
0.000289
0.000323
0.000236
0.000371
0.000317
0.000056
0.001941
0.000221
0.000234
0.000242
0.000287
0.000453
0.000332
0.000319
0.000289
0.000211
0.000248
0.000252
0.000259
0.000252
0.000267
0.000257
0.000256
0.000284
0.001816
0.000249
0.000234
0.000249
0.000277
0.000275
0.000269
0.000264
0.001457
0.000338
0.000245
0.000261
0.000176
0.000056
0.000202
0.000230
0.000267
0.000223
0.000252
0.000242
0.000325
0.000370
0.000484
0.000203
0.000225
0.000239
0.000263
0.000384
0.000386
0.000310
0.000224
0.000243
0.000267
0.000340
0.000461
0.000453
0.000260
0.000255
0.000259
0.000257
0.000267
0.000257
0.000277
0.000264
0.000198
0.000055
0.001437
0.000425
0.000232
0.001930
0.000265
0.000447
0.000425
0.000318
0.000226
0.000245
0.000268
0.000238
0.000251
0.000247
0.000265
0.000259
0.000446
0.000279
0.000422
0.000487
0.000241
0.000223
0.000254
0.000271
0.000273
0.000269
0.000258
0.000268
0.000387
0.000471
0.001337
0.000058
0.000210
0.000221
0.002072
0.000371
0.000244
0.000257
0.000276
0.000229
0.000346
0.000176
0.000217
0.000249
0.000257
0.000261
0.000262
0.000350
0.000768
0.001710
0.000230
0.000251
0.000255
0.000260
0.000345
0.000459
0.001596
0.000277
0.000362
0.001971
0.000225
0.000257
0.000185
0.000056
0.000206
0.000238
0.000227
0.000244
0.000228
0.000254
0.000249
0.000282
0.000330
0.000284
0.000380
0.000356
0.000332
0.000306
0.000230
0.000270
0.000263
0.000240
0.000266
0.000252
0.000301
0.000284
0.000271
0.000260
0.000272
0.001503
0.000294
0.000399
0.002059
0.000235
0.000165
0.000056
0.000231
0.000244
0.000235
0.000246
0.000478
0.000210
0.000268
0.000316
0.000386
0.000303
0.000302
0.000206
0.000269
0.000264
0.000272
0.000324
0.000414
0.000437
0.000258
0.000397
0.000528
0.000474
0.001555
0.000232
0.000252
0.002000
0.000315
0.000247
0.000242
0.000295
0.000181
0.000056
0.000213
0.000246
0.000225
0.000242
0.000252
0.000271
0.000255
0.000268
0.000252
0.000253
0.001812
0.000344
0.000368
0.000316
0.000429
0.000363
0.000352
0.001499
0.000239
0.000324
0.002159
0.000479
0.000260
0.000243
0.000261
0.000264
0.000499
0.000232
0.000255
0.000276
0.000197
0.000056
0.000236
0.000345
0.000368
0.000296
0.000202
0.000239
0.000259
0.000257
0.000266
0.000295
0.000221
0.000250
0.000257
0.000256
0.000347
0.001521
0.000319
0.000209
0.000280
0.002067
0.000194
0.000294
0.000250
0.000260
0.000250
0.000282
0.000264
0.000262
0.000249
0.000279
0.000194
0.000056
0.000238
0.000434
0.002006
0.000255
0.000259
0.000232
0.000248
0.000344
0.000394
0.000412
0.001318
0.000427
0.000293
0.002091
0.000196
0.000246
0.000266
0.000278
0.000252
0.000251
0.000276
0.000294
0.000255
0.000358
0.000479
0.000347
0.000342
0.002230
0.000495
0.000504
0.000366
0.000057
0.000204
0.000226
0.000244
0.001968
0.000245
0.000218
0.000236
0.000243
0.000238
0.000257
0.000248
0.000259
0.000246
0.000271
0.000443
0.001493
0.000232
0.000252
0.000267
0.000256
0.000240
0.000250
0.000265
0.000268
0.000346
0.000426
0.000478
0.000243
0.001595
0.000283
0.000159
0.000071
0.000189
0.000224
0.000248
0.000229
0.000254
0.000251
0.000252
0.000247
0.000254
0.000379
0.000380
0.001405
0.000233
0.000219
0.000248
0.000267
0.000254
0.000257
0.000493
0.000279
0.000555
0.000301
0.000224
0.001595
0.000208
0.000258
0.000290
0.000279
0.000267
0.000268
0.000188
0.000055
0.000218
0.000235
0.000266
0.000267
0.000247
0.000244
0.000238
0.000242
0.000260
0.000239
0.000250
0.000260
0.000251
0.001490
0.000361
0.000209
0.000253
0.000261
0.000313
0.000282
0.000443
0.000211
0.000225
0.000271
0.000261
0.000262
0.000258
0.001415
0.000284
0.000228
0.000169
0.000056
0.000207
0.000234
0.000256
0.000263
0.000252
0.000232
0.000254
0.000257
0.000227
0.000263
0.000243
0.000257
0.000229
0.000288
0.000393
0.000371
0.000233
0.000253
0.001639
0.000235
0.000240
0.000261
0.000263
0.000268
0.000447
0.000340
0.000456
0.000242
0.000267
0.001612
0.000163
0.000056
0.000303
0.000372
0.000389
0.000279
0.000218
0.000222
0.000241
0.000288
0.000241
0.000240
0.000241
0.000242
0.001463
0.000296
0.000302
0.000219
0.000252
0.000259
0.000263
0.000272
0.000252
0.000240
0.000257
0.000273
0.000252
0.000322
0.000522
0.000345
0.000264
0.000254
0.000193
0.000056
0.000237
0.000200
0.000424
0.000342
0.000399
0.000265
0.000249
0.000248
0.000250
0.000276
0.000222
0.000229
0.000251
0.000253
0.001250
0.000296
0.000244
0.000251
0.000262
0.000267
0.000242
0.000270
0.000254
0.000260
0.000254
0.000257
0.000382
0.000605
0.000460
0.000230
0.000192
0.000056
0.001546
0.000240
0.000190
0.000322
0.000480
0.000378
0.000216
0.000260
0.000262
0.000260
0.000239
0.000255
0.000271
0.000269
0.000261
0.001525
0.000251
0.000289
0.000261
0.000255
0.000264
0.000256
0.000260
0.000262
0.000259
0.000320
0.000431
0.000295
0.000379
0.000250
0.000178
0.000055
0.000194
0.000247
0.000234
0.001666
0.000361
0.000351
0.000239
0.000236
0.000251
0.000267
0.000276
0.000259
0.000245
0.000264
0.000231
0.000274
0.000564
0.001156
0.000236
0.000246
0.001546
0.000437
0.000464
0.000351
0.000319
0.000239
0.000265
0.000467
0.000232
0.000261
0.000185
0.000065
0.000278
0.000216
0.000243
0.000248
0.000256
0.000245
0.000246
0.000251
0.000259
0.000234
0.000258
0.000254
0.000320
0.000530
0.001628
0.001512
0.000335
0.000555
0.000318
0.000231
0.000227
0.000258
0.000250
0.000262
0.000265
0.000257
0.000257
0.000285
0.001505
0.000342
0.000156
0.000056
0.000223
0.000357
0.000354
0.000328
0.000224
0.000230
0.000243
0.000413
0.000377
0.000321
0.002204
0.000327
0.000696
0.000481
0.000489
0.000268
0.000331
0.000405
0.000319
0.000273
0.000388
0.000245
0.001824
0.000262
0.000223
0.000316
0.000204
0.000250
0.000278
0.000245
0.000199
0.000055
0.000217
0.000232
0.000259
0.000249
0.000243
0.001659
0.000877
0.000991
0.000213
0.000233
0.000259
0.000257
0.000266
0.000258
0.000253
0.000250
0.000253
0.000266
0.000263
0.000282
0.001428
0.000313
0.000254
0.000230
0.000230
0.000263
0.000261
0.000281
0.000262
0.000285
0.001899
0.000057
0.000195
0.000228
0.001549
0.000884
0.000341
0.000375
0.000242
0.000219
0.000251
0.000263
0.000240
0.000254
0.000249
0.001980
0.000472
0.000219
0.000255
0.000256
0.000264
0.000258
0.000185
