0.000119
0.018631
0.002959
0.000401
0.000254
0.000294
0.000323
0.000246
0.000316
0.000280
0.000249
0.000341
0.000492
0.000577
0.000289
0.000383
0.000275
0.000334
0.000352
0.000422
0.000310
0.001942
0.000675
0.000277
0.000249
0.000296
0.000320
0.000307
0.000421
0.000443
0.000493
0.000244
0.000059
0.000209
0.000250
0.000268
0.000296
0.000242
0.000254
0.000285
0.000281
0.000263
0.000255
0.000442
0.000427
0.000318
0.000257
0.000375
0.000350
0.000364
0.000258
0.000246
0.001708
0.000298
0.000281
0.000425
0.000246
0.000284
0.000280
0.000285
0.000294
0.000276
0.000407
0.000365
0.000057
0.000258
0.000247
0.000269
0.000260
0.000246
0.000242
0.000272
0.000252
0.000290
0.001665
0.000236
0.000238
0.000276
0.000254
0.000279
0.000250
0.000259
0.000263
0.000345
0.001796
0.000241
0.000283
0.000441
0.000431
0.000389
0.000245
0.000250
0.000477
0.000504
0.000759
0.000198
0.000057
0.000189
0.000241
0.000253
0.000240
0.000294
0.000271
0.000293
0.000545
0.000400
0.000259
0.000237
0.000253
0.000240
0.000257
0.000250
0.000258
0.000243
0.000267
0.000304
0.000327
0.001659
0.000283
0.000252
0.000412
0.000265
0.000761
0.000758
0.000417
0.000351
0.000230
0.000195
0.000058
0.000225
0.000245
0.000299
0.000209
0.000283
0.000226
0.000269
0.000497
0.001427
0.000223
0.000253
0.000251
0.000243
0.000259
0.000258
0.000299
0.000249
0.000828
0.001380
0.000299
0.000239
0.000409
0.000250
0.000242
0.000254
0.000265
0.000270
0.000267
0.000263
0.000267
0.000198
0.000057
0.000211
0.000243
0.000240
0.000262
0.000242
0.000241
0.000239
0.000256
0.000238
0.000255
0.001617
0.000290
0.000227
0.000233
0.000259
0.000238
0.000252
0.000250
0.000253
0.000251
0.000298
0.001641
0.000286
0.000259
0.000428
0.000270
0.000235
0.000271
0.000265
0.000268
0.000195
0.000056
0.000215
0.000231
0.000247
0.000243
0.000250
0.000246
0.000260
0.000241
0.000262
0.000256
0.000260
0.000245
0.000272
0.000256
0.001635
0.000276
0.000307
0.000221
0.000243
0.000272
0.000269
0.000237
0.000248
0.000267
0.001796
0.000394
0.000451
0.000249
0.000234
0.000279
0.000198
0.000056
0.000228
0.000236
0.000240
0.000269
0.000266
0.000259
0.000295
0.000372
0.000381
0.000458
0.000217
0.000244
0.000251
0.000252
0.001568
0.000517
0.000347
0.000385
0.000317
0.000236
0.000268
0.000285
0.000271
0.001738
0.000523
0.000445
0.000263
0.000235
0.000243
0.000265
0.000185
0.000057
0.000202
0.000234
0.000257
0.000322
0.000289
0.000421
0.000381
0.000284
0.000225
0.000240
0.000258
0.000243
0.000253
0.001703
0.000493
0.000303
0.000216
0.000254
0.000267
0.000288
0.000246
0.000256
0.000274
0.001910
0.000278
0.000397
0.000248
0.000255
0.000268
0.000394
0.000327
0.000057
0.000204
0.000386
0.000362
0.000269
0.000258
0.000249
0.000253
0.000254
0.000258
0.000216
0.000243
0.000242
0.001585
0.000400
0.000228
0.000230
0.000265
0.000247
0.000245
0.000310
0.000277
0.000315
0.000233
0.001813
0.000232
0.000513
0.000241
0.000258
0.000259
0.000270
0.000259
0.000056
0.000450
0.000493
0.000605
0.000218
0.000227
0.000275
0.000226
0.000223
0.000257
0.000253
0.000256
0.001699
0.000251
0.000441
0.000370
0.000214
0.000238
0.000230
0.000254
0.000262
0.000261
0.001849
0.000223
0.000469
0.001869
0.000518
0.000360
0.000250
0.000251
0.000267
0.000185
0.000056
0.000218
0.000241
0.000244
0.000241
0.000258
0.001617
0.000297
0.000210
0.000234
0.000256
0.000240
0.000288
0.000207
0.000253
0.000293
0.000371
0.000655
0.000255
0.000229
0.000272
0.000278
0.000235
0.000257
0.000421
0.000442
0.000260
0.000345
0.000687
0.000292
0.000278
0.000210
0.000057
0.000214
0.000241
0.000248
0.000249
0.000238
0.000239
0.000257
0.000344
0.000444
0.001746
0.000222
0.000235
0.000249
0.000243
0.000257
0.000285
0.000391
0.000511
0.000366
0.000211
0.000270
0.000293
0.000287
0.000248
0.000279
0.000435
0.000335
0.000683
0.000402
0.000433
0.000193
0.000056
0.000200
0.000250
0.000244
0.000239
0.000237
0.000243
0.000240
0.000261
0.000229
0.000290
0.000349
0.000405
0.001420
0.000239
0.000241
0.000245
0.000257
0.000250
0.000250
0.000251
0.000279
0.000479
0.000397
0.000254
0.000272
0.000253
0.000254
0.000289
0.000250
0.000264
0.000377
0.000056
0.000218
0.000233
0.000227
0.000290
0.000521
0.000419
0.000241
0.000263
0.000232
0.000259
0.000261
0.000226
0.000322
0.000225
0.000237
0.000469
0.000526
0.001562
0.000269
0.000229
0.000258
0.000269
0.000255
0.000238
0.000289
0.000337
0.000564
0.000340
0.000404
0.000247
0.000197
0.000058
0.000195
0.000433
0.000233
0.000218
0.000286
0.000220
0.000372
0.000494
0.000313
0.000341
0.000218
0.000278
0.000260
0.000239
0.000522
0.000334
0.000227
0.000264
0.000491
0.001537
0.000291
0.000238
0.000500
0.000252
0.000285
0.000269
0.000252
0.000325
0.000579
0.000366
0.000272
0.000056
0.000213
0.000228
0.000239
0.000250
0.000409
0.000314
0.000283
0.000225
0.000364
0.000517
0.000359
0.000265
0.000234
0.000244
0.000260
0.000265
0.000251
0.000252
0.000230
0.000361
0.000282
0.000360
0.001842
0.000218
0.000261
0.000257
0.000279
0.000342
0.000411
0.000695
0.000451
0.000056
0.000230
0.000332
0.000308
0.000463
0.000331
0.000207
0.000257
0.000245
0.000597
0.000371
0.000271
0.000241
0.000235
0.000271
0.000262
0.000234
0.000258
0.000271
0.000268
0.000257
0.000270
0.000585
0.000533
0.001284
0.000347
0.000410
0.000420
0.000232
0.000377
0.000541
0.000253
0.000056
0.000249
0.000380
0.000278
0.000235
0.000208
0.000244
0.000406
0.000241
0.000272
0.000414
0.000348
0.000438
0.000250
0.000249
0.000263
0.000240
0.000393
0.000362
0.000350
0.000240
0.000246
0.000349
0.000672
0.001679
0.000237
0.000425
0.000314
0.000217
0.000278
0.000591
0.000151
0.000057
0.000236
0.000226
0.000246
0.000256
0.000249
0.000234
0.000250
0.000364
0.000418
0.000250
0.000455
0.000421
0.000254
0.000579
0.000247
0.000239
0.000280
0.000256
0.000223
0.000359
0.000223
0.000248
0.000266
0.000441
0.000446
0.001663
0.000268
0.000249
0.000262
0.000254
0.000190
0.000056
0.000346
0.000480
0.000336
0.000216
0.000235
0.000250
0.000255
0.000246
0.000287
0.000223
0.000221
0.000260
0.000394
0.000543
0.000440
0.000246
0.000228
0.000253
0.000334
0.000391
0.000396
0.000323
0.000360
0.000392
0.000253
0.000251
0.000266
0.000275
0.001788
0.000241
0.000210
0.000057
0.000183
0.000226
0.000255
0.000294
0.000330
0.000540
0.000325
0.000217
0.000284
0.000231
0.000253
0.000276
0.000496
0.000443
0.000490
0.000276
0.000262
0.000259
0.000423
0.000464
0.000356
0.000403
0.000644
0.000300
0.000251
0.000224
0.000274
0.000244
0.000263
0.001713
0.000472
0.000056
0.000183
0.000319
0.000228
0.000222
0.000254
0.000253
0.000236
0.000492
0.000380
0.000308
0.000307
0.000272
0.000373
0.000637
0.000313
0.000234
0.000253
0.000256
0.000251
0.000266
0.000278
0.000254
0.000250
0.000260
0.000354
0.000331
0.000385
0.000363
0.000247
0.000249
0.000190
0.000056
0.000467
0.000267
0.000484
0.000242
0.000206
0.000251
0.000247
0.000253
0.000242
0.000218
0.000256
0.000280
0.000301
0.000253
0.000572
0.000571
0.000273
0.000306
0.000382
0.000343
0.000298
0.000261
0.000227
0.000260
0.001746
0.000268
0.001705
0.000938
0.000496
0.000240
0.000159
0.000056
0.000195
0.000240
0.000228
0.000252
0.000268
0.000234
0.000259
0.000253
0.000236
0.000343
0.000392
0.000491
0.000220
0.000392
0.000264
0.000232
0.000245
0.000290
0.000238
0.000243
0.000262
0.000260
0.001811
0.000239
0.000251
0.000266
0.000275
0.001711
0.000448
0.000457
0.000294
0.000057
0.000229
0.000213
0.000248
0.000232
0.000269
0.000244
0.000239
0.000247
0.000269
0.000399
0.000533
0.000316
0.000367
0.000230
0.000247
0.000259
0.000327
0.000434
0.000364
0.000255
0.001776
0.000257
0.000247
0.000253
0.000259
0.000271
0.000238
0.000255
0.000325
0.000368
0.000338
0.000057
0.000231
0.000232
0.000226
0.000268
0.000237
0.000244
0.000254
0.000255
0.000240
0.000259
0.000241
0.000269
0.000419
0.000414
0.000285
0.000271
0.000459
0.000248
0.000244
0.000255
0.000260
0.000263
0.000272
0.000256
0.000277
0.001789
0.000249
0.000251
0.000260
0.000240
0.000208
0.000055
0.000415
0.000211
0.000230
0.000227
0.000238
0.000241
0.000237
0.000252
0.000253
0.000216
0.000235
0.000266
0.000256
0.000371
0.000391
0.000367
0.000306
0.000219
0.000249
0.000256
0.000267
0.000261
0.000247
0.000270
0.000241
0.000278
0.000310
0.001621
0.000273
0.000233
0.000190
0.000055
0.000211
0.000236
0.000251
0.000258
0.000346
0.000430
0.000296
0.000365
0.000210
0.000255
0.000264
0.000231
0.000250
0.000255
0.000261
0.000255
0.000246
0.000255
0.000258
0.000253
0.000269
0.000271
0.000258
0.000226
0.000242
0.000277
0.000273
0.000263
0.000261
0.000259
0.000193
0.000055
0.000219
0.000210
0.000254
0.000278
0.000229
0.000237
0.000256
0.000250
0.000292
0.000228
0.000228
0.000247
0.000256
0.000248
0.000288
0.000243
0.000255
0.000247
0.000299
0.000251
0.000278
0.000334
0.000254
0.000223
0.000297
0.000257
0.000264
0.000253
0.000290
0.000528
0.000542
0.000056
0.000223
0.000288
0.000231
0.000221
0.000235
0.000256
0.000242
0.000243
0.000255
0.000244
0.000264
0.000353
0.000518
0.000420
0.001501
0.000227
0.000504
0.000228
0.000256
0.000434
0.000487
0.000355
0.000232
0.000277
0.000241
0.000270
0.000273
0.000259
0.000306
0.000280
0.000168
0.000056
0.000291
0.000477
0.000336
0.000332
0.000202
0.000285
0.000227
0.000239
0.000237
0.000245
0.000253
0.000251
0.000236
0.000301
0.000362
0.000509
0.000338
0.001799
0.000240
0.000252
0.000331
0.000422
0.000431
0.000322
0.000308
0.000329
0.000295
0.000244
0.000213
0.000258
0.000192
0.000056
0.000190
0.000223
0.000236
0.000313
0.000306
0.000468
0.000352
0.000256
0.000250
0.000217
0.000252
0.000265
0.000267
0.000263
0.000243
0.000260
0.000426
0.000370
0.000316
0.000456
0.000235
0.001741
0.000334
0.000486
0.000487
0.000490
0.000329
0.000235
0.000252
0.000265
0.000451
0.000056
0.000196
0.000271
0.000219
0.000336
0.000350
0.000493
0.000370
0.000220
0.000232
0.000287
0.000245
0.000263
0.000251
0.000295
0.000305
0.000240
0.000229
0.000374
0.000572
0.000251
0.000493
0.001843
0.000256
0.000528
0.000411
0.000363
0.000223
0.000263
0.000287
0.000268
0.000200
0.000058
0.000208
0.000332
0.000362
0.000333
0.000390
0.000353
0.000317
0.000215
0.000240
0.000261
0.000274
0.000220
0.000269
0.000247
0.000239
0.000262
0.000324
0.000364
0.000510
0.000389
0.000274
0.000248
0.000253
0.001705
0.000422
0.000566
0.000632
0.000256
0.000247
0.000299
0.000171
0.000055
0.000194
0.000232
0.000356
0.000225
0.000296
0.000379
0.000391
0.000295
0.000245
0.000534
0.000221
0.000248
0.000255
0.000283
0.000273
0.000259
0.000231
0.000372
0.000396
0.000476
0.000260
0.000232
0.000257
0.000255
0.000257
0.000268
0.000236
0.000272
0.000253
0.000314
0.000187
0.000057
0.000360
0.000287
0.000223
0.000257
0.000250
0.000258
0.000240
0.000300
0.000232
0.000245
0.000278
0.000324
0.000425
0.000442
0.000333
0.000246
0.000224
0.000237
0.000260
0.000268
0.000282
0.000265
0.000240
0.000258
0.000279
0.000326
0.000510
0.000260
0.000358
0.000238
0.000177
0.000056
0.000207
0.000220
0.000288
0.000237
0.000241
0.000265
0.000271
0.000228
0.000496
0.000204
0.000261
0.000264
0.000240
0.000264
0.000269
0.000299
0.000234
0.000355
0.000221
0.000239
0.000261
0.000263
0.000258
0.000266
0.000274
0.000277
0.000245
0.000256
0.000259
0.000494
0.000171
0.000056
0.000207
0.000240
0.000247
0.000308
0.000196
0.000231
0.000376
0.000398
0.000234
0.000236
0.000250
0.000258
0.000234
0.000266
0.000566
0.001663
0.000228
0.000265
0.000286
0.000329
0.000405
0.000370
0.000359
0.000401
0.000379
0.000409
0.000264
0.000250
0.000265
0.000280
0.001379
0.000056
0.000427
0.000287
0.000243
0.000235
0.000225
0.000249
0.000238
0.000250
0.000243
0.000275
0.000245
0.000260
0.000253
0.000328
0.000504
0.001629
0.000245
0.000221
0.000249
0.000264
0.000235
0.000283
0.000367
0.000391
0.000273
0.000367
0.000216
0.000256
0.000275
0.000262
0.000193
0.000056
0.001203
0.000615
0.000262
0.000250
0.000248
0.000220
0.000238
0.000234
0.000487
0.000238
0.000220
0.000253
0.000495
0.000416
0.000342
0.000346
0.000260
0.000237
0.000326
0.000347
0.000281
0.000250
0.000273
0.000249
0.000262
0.000714
0.000461
0.000222
0.000254
0.000277
0.000163
0.000056
0.000215
0.000209
0.000242
0.000252
0.001456
0.000309
0.000222
0.000257
0.000275
0.000213
0.000252
0.000254
0.000242
0.000264
0.000270
0.000308
0.000424
0.000628
0.000272
0.001757
0.000244
0.000290
0.000326
0.000370
0.000589
0.000390
0.000250
0.000250
0.000257
0.000273
0.000199
0.000056
0.000191
0.000246
0.000236
0.000310
0.001263
0.000238
0.000287
0.000228
0.000239
0.000239
0.000236
0.000258
0.000274
0.000264
0.000235
0.000359
0.000438
0.000361
0.000362
0.000238
0.000267
0.000271
0.000261
0.000222
0.000284
0.000266
0.000241
0.000280
0.000281
0.000391
0.000525
0.000056
0.000222
0.000248
0.000235
0.000262
0.000264
0.000235
0.000237
0.000264
0.000289
0.000259
0.001408
0.000224
0.000242
0.000253
0.000251
0.000252
0.000278
0.000243
0.000282
0.000242
0.000267
0.000485
0.000486
0.000361
0.000236
0.000271
0.001764
0.000253
0.000255
0.000453
0.000336
0.000056
0.000217
0.000391
0.000453
0.000504
0.000514
0.000536
0.001493
0.000422
0.000522
0.000650
0.000556
0.000750
0.000445
0.000622
0.000583
0.001877
0.000402
0.000443
0.000394
0.000319
0.000228
0.000277
0.000291
0.000267
0.000255
0.000290
0.000296
0.000280
0.000262
0.000285
0.001360
0.000058
0.000213
0.000230
0.000242
0.000241
0.000256
0.000254
0.000240
0.000238
0.000257
0.000243
0.000243
0.000249
0.000248
0.000266
0.000263
0.000265
0.001805
0.000262
0.000261
0.000256
0.000249
0.000263
0.000273
0.000261
0.000511
0.000312
0.000379
0.000226
0.000257
0.000282
0.000207
0.000056
0.000200
0.001351
0.000332
0.000278
0.000244
0.000237
0.000244
0.000231
0.000234
0.000239
0.000220
0.000249
0.000245
0.000513
0.000361
0.000311
0.000236
0.001820
0.000353
0.000237
0.000245
0.000258
0.000261
0.000267
0.000275
0.000279
0.000265
0.000258
0.000270
0.000347
0.000171
0.000056
0.000200
0.000235
0.000250
0.001441
0.000220
0.000247
0.000253
0.000241
0.000257
0.000253
0.000249
0.000247
0.000249
0.000277
0.000230
0.000263
0.000264
0.000261
0.000269
0.000254
0.000263
0.001774
0.000272
0.001744
0.000276
0.000256
0.000259
0.000295
0.000264
0.000250
0.000206
0.000057
0.000203
0.000244
0.001334
0.000232
0.000258
0.000246
0.000254
0.000257
0.000243
0.000254
0.000252
0.000241
0.000257
0.000266
0.000257
0.000261
0.000261
0.000281
0.000293
0.000233
0.001886
0.000232
0.001820
0.000251
0.000261
0.000274
0.000228
0.000254
0.000252
0.000268
0.000202
0.000056
0.001416
0.000233
0.000246
0.000234
0.000234
0.000260
0.000350
0.000287
0.000243
0.000242
0.000255
0.000259
0.000241
0.000405
0.000371
0.000257
0.000258
0.000276
0.000256
0.000279
0.000236
0.000340
0.000226
0.000257
0.000266
0.000274
0.000279
0.000305
0.000685
0.000350
0.000194
0.000058
0.000247
0.000239
0.000245
0.000306
0.000358
0.000267
0.001718
0.000277
0.000282
0.000293
0.000234
0.000266
0.000264
0.000272
0.000292
0.000311
0.000318
0.000585
0.000394
0.000261
0.000294
0.000276
0.000267
0.000265
0.000311
0.000278
0.000261
0.000265
0.000248
0.000284
0.000450
0.000056
0.000248
0.000464
0.000266
0.000263
0.000244
0.000223
0.000232
0.000251
0.000258
0.001447
0.000330
0.000213
0.000230
0.000249
0.000265
0.000270
0.000274
0.000245
0.000254
0.000270
0.000273
0.000332
0.000667
0.000236
0.000251
0.000290
0.000263
0.000257
0.000237
0.000311
0.000170
0.000057
0.000198
0.000230
0.000464
0.000281
0.000405
0.000241
0.000223
0.000248
0.000248
0.000252
0.000226
0.000259
0.000256
0.000270
0.000238
0.000240
0.000462
0.001149
0.000246
0.000236
0.000282
0.000246
0.000355
0.000425
0.000248
0.000273
0.000627
0.000492
0.000236
0.000245
0.000175
0.000058
0.000220
0.000248
0.000261
0.000263
0.000256
0.000238
0.000340
0.000397
0.000452
0.000281
0.000366
0.000385
0.000395
0.000362
0.000261
0.000229
0.000243
0.000263
0.000394
0.000461
0.001273
0.000220
0.000273
0.000274
0.000253
0.000220
0.000260
0.000373
0.000353
0.000428
0.000277
0.000056
0.000203
0.000228
0.000264
0.000239
0.000243
0.000242
0.000240
0.000267
0.000302
0.000363
0.000429
0.000354
0.000241
0.000244
0.000249
0.000257
0.000240
0.000265
0.000264
0.000272
0.000438
0.000226
0.000378
0.000438
0.000305
0.000250
0.000269
0.000265
0.000255
0.000341
0.000160
0.000056
0.000304
0.000311
0.000380
0.000366
0.000386
0.000366
0.000238
0.000238
0.000253
0.000298
0.000236
0.000256
0.000234
0.000257
0.000240
0.000228
0.000266
0.000397
0.000481
0.000315
0.000249
0.000265
0.000241
0.000245
0.000273
0.000282
0.000262
0.000277
0.000264
0.000281
0.000248
0.000055
0.000323
0.000307
0.000238
0.000266
0.000225
0.000244
0.000249
0.000251
0.000263
0.000261
0.000247
0.000238
0.000345
0.000417
0.000455
0.000288
0.000249
0.000236
0.000260
0.000265
0.000253
0.000270
0.000252
0.000266
0.000269
0.000332
0.000461
0.000526
0.000415
0.000253
0.000169
0.000056
0.000377
0.000219
0.000214
0.000247
0.000255
0.000245
0.000259
0.000232
0.000251
0.000257
0.000227
0.000242
0.000271
0.000230
0.000238
0.000263
0.000256
0.000266
0.000296
0.000240
0.000259
0.000259
0.000262
0.000268
0.000259
0.000236
0.000266
0.000289
0.000247
0.000283
0.000200
0.000056
0.000216
0.000217
0.000247
0.000246
0.000232
0.000259
0.000261
0.000240
0.000258
0.000277
0.000232
0.000230
0.000263
0.000391
0.000255
0.000300
0.000240
0.000268
0.000255
0.000283
0.000268
0.000236
0.000248
0.000249
0.000275
0.000272
0.000244
0.000259
0.000273
0.000259
0.000209
0.000056
0.000206
0.000356
0.000369
0.000301
0.000278
0.000250
0.000274
0.000254
0.000223
0.000245
0.000283
0.000231
0.000245
0.000240
0.000254
0.000287
0.000240
0.000272
0.000242
0.000263
0.000277
0.000261
0.000280
0.000254
0.000294
0.000229
0.000255
0.000273
0.000265
0.000267
0.000196
0.000056
0.000207
0.000227
0.000286
0.000244
0.000253
0.000437
0.000212
0.000278
0.000289
0.000318
0.000580
0.000286
0.000230
0.000250
0.000276
0.000265
0.000234
0.000272
0.000256
0.000271
0.000281
0.000240
0.000258
0.000281
0.000563
0.000441
0.000294
0.000302
0.000259
0.000265
0.000192
0.000056
0.000206
0.000225
0.000249
0.000251
0.000417
0.000554
0.000316
0.000382
0.000207
0.000252
0.000265
0.000244
0.000241
0.000250
0.000262
0.000268
0.000271
0.000357
0.000489
0.000411
0.000310
0.000240
0.000255
0.000285
0.000280
0.000254
0.000263
0.000284
0.000232
0.000323
0.000412
0.000057
0.000272
0.000231
0.000240
0.000236
0.000255
0.000286
0.000197
0.000253
0.000242
0.000256
0.000246
0.000251
0.000246
0.000513
0.000501
0.000335
0.000248
0.000257
0.000261
0.000246
0.000265
0.000289
0.000472
0.000218
0.000266
0.000751
0.000260
0.000474
0.000265
0.000251
0.000189
0.000057
0.000174
0.000232
0.000241
0.000249
0.000256
0.000254
0.000315
0.000408
0.000611
0.000418
0.000216
0.000262
0.000291
0.000259
0.000267
0.000235
0.000239
0.000254
0.000251
0.000463
0.000260
0.000667
0.000361
0.000254
0.000356
0.000381
0.000490
0.000239
0.000262
0.000338
0.000449
0.000057
0.000262
0.000233
0.000438
0.000221
0.000233
0.000249
0.000267
0.000258
0.000234
0.000240
0.000251
0.000420
0.000366
0.000330
0.000248
0.000237
0.000261
0.000249
0.000266
0.000278
0.000294
0.000233
0.000250
0.000272
0.000302
0.000487
0.000493
0.000243
0.000258
0.000267
0.000203
0.000057
0.000226
0.000256
0.000227
0.000248
0.000246
0.000262
0.000381
0.000448
0.000366
0.000274
0.000372
0.000232
0.000250
0.000260
0.000264
0.000231
0.000257
0.000258
0.000331
0.000343
0.000491
0.000339
0.000478
0.000269
0.000386
0.000415
0.000384
0.000245
0.000260
0.000380
0.000257
0.000056
0.000266
0.000255
0.000225
0.000270
0.000267
0.000240
0.000266
0.000225
0.000276
0.000238
0.000241
0.000382
0.000449
0.000358
0.000358
0.000229
0.000266
0.000262
0.000262
0.000239
0.000254
0.000283
0.000253
0.000253
0.000282
0.000312
0.000568
0.000408
0.000243
0.000281
0.000197
0.000056
0.000218
0.000238
0.000278
0.000246
0.000245
0.000330
0.000536
0.000430
0.000533
0.000533
0.000252
0.000231
0.000235
0.000257
0.000245
0.000268
0.000274
0.000285
0.000465
0.000460
0.001474
0.000312
0.000268
0.000278
0.000269
0.000258
0.000379
0.000410
0.000331
0.000345
0.000192
0.000056
0.000216
0.000235
0.000247
0.000262
0.000226
0.000268
0.000296
0.000222
0.000243
0.000325
0.000327
0.000381
0.000263
0.000345
0.000396
0.000347
0.000239
0.000250
0.000273
0.000252
0.000246
0.000249
0.000313
0.000222
0.000323
0.000435
0.000469
0.000238
0.000267
0.000268
0.000182
0.000057
0.000225
0.000249
0.000257
0.000253
0.000238
0.000241
0.000472
0.000212
0.000232
0.000258
0.000248
0.000244
0.000265
0.000256
0.000250
0.000270
0.000264
0.000285
0.000263
0.000245
0.000279
0.000271
0.000287
0.000245
0.000267
0.000277
0.000270
0.000264
0.000264
0.000272
0.000180
0.000057
0.000218
0.000239
0.000307
0.000419
0.000363
0.000252
0.000242
0.000249
0.000260
0.000251
0.000244
0.000256
0.000265
0.000264
0.000231
0.000248
0.000268
0.000245
0.000268
0.000421
0.000349
0.000428
0.000224
0.000273
0.000252
0.000258
0.000269
0.000257
0.000269
0.000274
0.000199
0.000056
0.000250
0.000441
0.000388
0.000203
0.000253
0.000263
0.000401
0.000224
0.000234
0.000280
0.000227
0.000295
0.000345
0.000472
0.001836
0.000251
0.000242
0.000272
0.000262
0.000236
0.000396
0.000468
0.000564
0.000268
0.000233
0.000261
0.000277
0.000425
0.000277
0.000294
0.000149
0.000057
0.000229
0.000365
0.000351
0.000304
0.000498
0.000208
0.000240
0.000255
0.000242
0.000241
0.000260
0.000247
0.000261
0.000313
0.000411
0.000471
0.000232
0.000245
0.000264
0.000260
0.000258
0.000317
0.000240
0.000277
0.000275
0.000475
0.000486
0.000612
0.000250
0.000229
0.000205
0.000056
0.000188
0.000236
0.000255
0.000233
0.000247
0.000252
0.000287
0.000277
0.000349
0.000335
0.000445
0.000335
0.000231
0.000253
0.000263
0.000287
0.000297
0.000239
0.000275
0.000273
0.000234
0.000272
0.000571
0.000297
0.000298
0.000252
0.000262
0.000439
0.000415
0.000300
0.000186
0.000057
0.000211
0.000305
0.000245
0.000498
0.000307
0.000229
0.000226
0.000251
0.000263
0.000262
0.000251
0.000253
0.000229
0.000260
0.000255
0.000341
0.000347
0.000361
0.000300
0.000346
0.000491
0.000221
0.000293
0.000265
0.000301
0.000286
0.000248
0.000269
0.000517
0.000513
0.000155
0.000056
0.000193
0.000222
0.000252
0.000249
0.000242
0.000485
0.000215
0.000250
0.000264
0.000297
0.000513
0.000598
0.000219
0.000233
0.000240
0.000257
0.000252
0.000276
0.000240
0.000246
0.000289
0.000235
0.000359
0.000424
0.000361
0.000398
0.000308
0.000298
0.000322
0.000250
0.000181
0.000056
0.000197
0.000240
0.000255
0.000475
0.000349
0.000265
0.000263
0.000250
0.000225
0.000258
0.000257
0.000258
0.000267
0.000234
0.000260
0.000254
0.000248
0.000247
0.000365
0.000297
0.000467
0.000421
0.000230
0.000251
0.000276
0.000274
0.000262
0.000258
0.000267
0.000262
0.000197
0.000056
0.000270
0.000387
0.000463
0.000237
0.000223
0.000249
0.000314
0.000456
0.000288
0.000223
0.000238
0.000274
0.000292
0.000399
0.000448
0.000291
0.000221
0.000249
0.000246
0.000285
0.000255
0.000260
0.000261
0.000278
0.000258
0.000306
0.000417
0.000461
0.000248
0.000229
0.000193
0.000056
0.000212
0.000234
0.000248
0.000256
0.000250
0.000260
0.000228
0.000276
0.000250
0.000232
0.000269
0.000239
0.000292
0.001428
0.000223
0.000258
0.000263
0.000242
0.000276
0.000278
0.000257
0.000240
0.000279
0.000255
0.000267
0.000280
0.000257
0.000270
0.000257
0.000275
0.000197
0.000056
0.000219
0.000230
0.000256
0.000266
0.000233
0.000247
0.000241
0.000256
0.000227
0.000251
0.000250
0.000266
0.000256
0.000252
0.000252
0.000258
0.000255
0.000255
0.000274
0.000251
0.000257
0.000264
0.000256
0.000237
0.001288
0.000273
0.000634
0.000347
0.000368
0.000261
0.000192
0.000057
0.000192
0.000240
0.000242
0.000248
0.000415
0.000240
0.000237
0.000243
0.000254
0.000397
0.000417
0.000355
0.000213
0.000238
0.000260
0.000263
0.000256
0.000262
0.000246
0.000261
0.000259
0.000258
0.000257
0.000421
0.000513
0.000459
0.000224
0.000260
0.001366
0.000248
0.000184
0.000057
0.000364
0.000404
0.000328
0.000265
0.000227
0.000236
0.000216
0.000254
0.000260
0.000257
0.000248
0.000259
0.000296
0.000443
0.000419
0.000335
0.000329
0.000215
0.000254
0.000257
0.000269
0.000278
0.000251
0.000269
0.000268
0.000261
0.000353
0.000511
0.000400
0.000354
0.000157
0.000058
0.000196
0.000233
0.001257
0.000432
0.000296
0.000489
0.000366
0.000478
0.000261
0.000345
0.000215
0.000243
0.000261
0.000251
0.000250
0.000264
0.000368
0.000487
0.000376
0.000366
0.000275
0.000232
0.000265
0.000495
0.000242
0.000261
0.000256
0.000281
0.000299
0.000551
0.000296
0.000058
0.000380
0.000308
0.000236
0.001391
0.000449
0.000395
0.000331
0.000232
0.000248
0.000244
0.000235
0.000241
0.000244
0.000269
0.000252
0.000262
0.000234
0.000263
0.000404
0.000387
0.000458
0.000244
0.000257
0.000260
0.000260
0.000272
0.000268
0.000240
0.000264
0.000278
0.000200
0.000057
0.000380
0.000337
0.000214
0.000251
0.000249
0.000243
0.000256
0.000245
0.000242
0.000230
0.001380
0.000476
0.000272
0.000246
0.000239
0.000261
0.000283
0.000243
0.000241
0.000305
0.000242
0.000251
0.000266
0.000438
0.000383
0.000466
0.000231
0.000264
0.000280
0.000285
0.000172
0.000057
0.000213
0.000417
0.000213
0.000245
0.000324
0.000469
0.000373
0.000311
0.000478
0.000187
0.000240
0.000251
0.000258
0.000264
0.000254
0.001403
0.000383
0.000293
0.000229
0.000268
0.000297
0.000248
0.000240
0.000250
0.000264
0.000270
0.000454
0.000440
0.000292
0.000263
0.000171
0.000056
0.000194
0.000239
0.000253
0.000236
0.000231
0.000258
0.000244
0.000246
0.000307
0.000330
0.000485
0.000281
0.000211
0.000263
0.000244
0.000273
0.000275
0.000263
0.000267
0.000222
0.000260
0.000355
0.001207
0.000270
0.000262
0.000240
0.000254
0.000266
0.000259
0.000267
0.000185
0.000057
0.000195
0.000417
0.000299
0.000353
0.000282
0.000213
0.000261
0.000289
0.000240
0.000261
0.000231
0.000274
0.000259
0.000235
0.000269
0.000248
0.000265
0.000268
0.000263
0.000246
0.000255
0.000270
0.000268
0.000284
0.000282
0.000273
0.000264
0.000279
0.000252
0.000443
0.001356
0.000057
0.000207
0.000251
0.000223
0.000262
0.000233
0.000261
0.000248
0.000225
0.000241
0.000253
0.000302
0.000233
0.000248
0.000239
0.000276
0.000221
0.001741
0.000254
0.000230
0.000264
0.000243
0.000266
0.000274
0.000252
0.000309
0.000226
0.000265
0.000279
0.000267
0.000254
0.000239
0.000059
0.000278
0.000302
0.001307
0.000225
0.000236
0.000247
0.000253
0.000252
0.000272
0.000249
0.000237
0.000324
0.000405
0.000462
0.000256
0.000231
0.000257
0.000250
0.000258
0.000265
0.000246
0.000280
0.000254
0.000282
0.000277
0.000403
0.000331
0.000377
0.000322
0.000236
0.000195
0.000057
0.000218
0.000239
0.000241
0.000247
0.000279
0.000195
0.000263
0.000235
0.000419
0.001333
0.000268
0.000219
0.000247
0.000267
0.000253
0.000296
0.000234
0.000268
0.000303
0.000470
0.000306
0.000276
0.000247
0.000239
0.000289
0.000268
0.000270
0.000291
0.000271
0.000276
0.000190
0.000057
0.000194
0.000482
0.000357
0.000223
0.000227
0.000234
0.000251
0.000278
0.000262
0.000246
0.000232
0.000254
0.000445
0.000503
0.000460
0.001463
0.000249
0.000267
0.000357
0.000349
0.000497
0.000420
0.000452
0.000374
0.000235
0.000266
0.000279
0.000261
0.000264
0.000272
0.000192
0.000056
0.000226
0.000337
0.000407
0.000400
0.000400
0.000249
0.000235
0.000239
0.000237
0.000275
0.000236
0.000267
0.000275
0.000228
0.000262
0.000304
0.000360
0.000430
0.001396
0.000339
0.000218
0.000260
0.000246
0.000274
0.000440
0.000447
0.000394
0.000257
0.000267
0.000271
0.000190
0.000056
0.000202
0.000244
0.000245
0.000266
0.000226
0.000300
0.000423
0.000446
0.000331
0.000210
0.000239
0.000262
0.000269
0.000291
0.000235
0.000254
0.000261
0.000266
0.000273
0.000338
0.000386
0.000454
0.000298
0.001383
0.000373
0.000243
0.000266
0.000430
0.000492
0.000290
0.000314
0.000056
0.000199
0.000233
0.000244
0.000249
0.000254
0.000251
0.001677
0.000251
0.000223
0.000228
0.000259
0.000243
0.000257
0.000325
0.000330
0.000286
0.000267
0.000304
0.000526
0.000405
0.000283
0.000286
0.000239
0.000243
0.001498
0.000427
0.000318
0.000475
0.000320
0.000303
0.000170
0.000056
0.000197
0.000249
0.000256
0.000261
0.000240
0.000271
0.001698
0.000231
0.000250
0.000260
0.000333
0.000401
0.001444
0.000363
0.000397
0.000243
0.000260
0.000231
0.000261
0.000281
0.001750
0.000268
0.000500
0.000271
0.000226
0.000261
0.000259
0.000287
0.000241
0.000252
0.000202
0.000056
0.000205
0.000241
0.000267
0.000253
0.000256
0.000279
0.000274
0.000256
0.000254
0.000248
0.000256
0.000247
0.000285
0.000241
0.000270
0.001481
0.000271
0.000240
0.000272
0.000280
0.000267
0.000256
0.000424
0.001271
0.000278
0.000237
0.000271
0.000256
0.000397
0.000264
0.000179
0.000057
0.000211
0.000256
0.000218
0.000246
0.000240
0.000230
0.000234
0.001685
0.000259
0.000234
0.000360
0.000283
0.000206
0.000225
0.000249
0.001385
0.000242
0.000260
0.000262
0.000271
0.000246
0.000344
0.000294
0.001295
0.000291
0.000233
0.000252
0.000273
0.001386
0.000272
0.000221
0.000056
0.000279
0.000299
0.000221
0.000235
0.000269
0.000224
0.000287
0.000248
0.000264
0.000248
0.000258
0.000263
0.000258
0.000244
0.000316
0.001510
0.000233
0.000269
0.000245
0.000264
0.000296
0.000253
0.000232
0.001568
0.000314
0.000220
0.000258
0.001277
0.000261
0.000250
0.000216
0.000055
0.000204
0.000428
0.000312
0.000215
0.000235
0.000241
0.000268
0.000250
0.000281
0.000260
0.000231
0.000254
0.000261
0.000283
0.000407
0.001213
0.000230
0.000255
0.000272
0.000270
0.000225
0.000249
0.000249
0.000367
0.001248
0.000252
0.000244
0.000252
0.000257
0.001336
0.000299
0.000056
0.000272
0.000240
0.000217
0.000234
0.000243
0.000253
0.000241
0.000253
0.000297
0.000248
0.000233
0.000246
0.000241
0.000325
0.000418
0.001472
0.000222
0.000247
0.000303
0.000522
0.000268
0.001481
0.000334
0.000242
0.000232
0.000271
0.000255
0.001305
0.000260
0.000550
0.000299
0.000056
0.000231
0.000250
0.000254
0.000253
0.000280
0.000235
0.000267
0.000261
0.000246
0.000262
0.000334
0.000472
0.001303
0.000236
0.000275
0.000268
0.000280
0.000224
0.000237
0.000250
0.000354
0.001229
0.000258
0.000242
0.000252
0.000249
0.001508
0.000400
0.000509
0.000220
0.000193
0.000056
0.000193
0.000235
0.000251
0.000234
0.000257
0.000262
0.000260
0.000380
0.000302
0.000475
0.000270
0.001488
0.000221
0.000235
0.000265
0.000264
0.000269
0.000308
0.001657
0.000249
0.000385
0.000347
0.001272
0.000427
0.000251
0.000321
0.000263
0.000277
0.000238
0.000268
0.000194
0.000056
0.000198
0.000238
0.000320
0.000261
0.000338
0.000489
0.000306
0.000304
0.001452
0.000232
0.000395
0.000257
0.000248
0.000293
0.000382
0.001319
0.000263
0.000242
0.000256
0.000254
0.001525
0.000374
0.000290
0.000272
0.000271
0.000244
0.000443
0.000332
0.000248
0.000251
0.000263
0.000055
0.000242
0.000367
0.000349
0.000259
0.000229
0.001506
0.000226
0.000250
0.000272
0.000265
0.000269
0.000238
0.000295
0.001497
0.000250
0.000245
0.000416
0.001193
0.000332
0.000462
0.000385
0.000250
0.000235
0.000258
0.000294
0.000221
0.000452
0.000231
0.000262
0.000297
0.000200
0.000056
0.000199
0.000268
0.000363
0.000317
0.001324
0.000270
0.000337
0.000228
0.000224
0.000246
0.000253
0.000425
0.001382
0.000282
0.000218
0.000235
0.001395
0.000276
0.000420
0.000425
0.000390
0.000231
0.000252
0.000253
0.000265
0.000292
0.000254
0.000261
0.000263
0.000254
0.000200
0.000057
0.000212
0.000384
0.001462
0.000210
0.000276
0.000307
0.000232
0.000242
0.000250
0.000358
0.001414
0.000220
0.000258
0.000258
0.000257
0.001265
0.000694
0.000302
0.000323
0.000407
0.000302
0.000251
0.000263
0.000263
0.000270
0.000285
0.000278
0.000285
0.000420
0.000455
0.001367
0.000055
0.000211
0.000247
0.000237
0.000230
0.000256
0.000399
0.000501
0.001275
0.000254
0.000234
0.000252
0.001429
0.000460
0.000315
0.000215
0.000417
0.000237
0.000245
0.000269
0.000286
0.000255
0.000250
0.000284
0.000258
0.000251
0.000286
0.000422
0.000500
0.001476
0.000239
0.000188
0.000057
0.000204
0.000259
0.000328
0.001552
0.000307
0.000240
0.000227
0.000260
0.000249
0.000249
0.000253
0.000286
0.000343
0.000532
0.000294
0.000243
0.000249
0.000271
0.000242
0.000312
0.000232
0.000262
0.000260
0.000266
0.000255
0.000336
0.000568
0.000296
0.000335
0.001450
0.000132
0.000059
0.000220
0.000235
0.000267
0.000483
0.000320
0.000309
0.000321
0.000331
0.000296
0.000255
0.000233
0.000264
0.000254
0.000305
0.000238
0.000321
0.000524
0.000340
0.000267
0.000395
0.000272
0.000399
0.000248
0.000251
0.000243
0.000257
0.000257
0.000292
0.000381
0.000497
0.000262
0.000056
0.000211
0.001440
0.000192
0.000338
0.000411
0.000366
0.000517
0.000240
0.000214
0.000240
0.000263
0.000244
0.000284
0.000275
0.000255
0.000238
0.000259
0.001277
0.000344
0.000251
0.000251
0.000279
0.000273
0.000274
0.000269
0.000254
0.000271
0.000254
0.000319
0.000498
0.000224
0.000057
0.000210
0.000242
0.000234
0.001541
0.000311
0.000213
0.000234
0.000248
0.000227
0.000238
0.000259
0.000284
0.000241
0.000252
0.000295
0.000228
0.000248
0.000267
0.000267
0.000248
0.001443
0.000222
0.000243
0.000281
0.000258
0.000246
0.000265
0.000263
0.000277
0.000492
0.000345
0.000058
0.000219
0.000229
0.000388
0.000275
0.000237
0.000257
0.001534
0.000358
0.000281
0.000226
0.000254
0.000326
0.000326
0.000222
0.000227
0.000251
0.000246
0.000279
0.000247
0.000253
0.000492
0.000493
0.001147
0.000257
0.000234
0.000261
0.000266
0.000259
0.000302
0.000233
0.000376
0.000057
0.000280
0.000326
0.000228
0.000233
0.000250
0.000237
0.000247
0.000231
0.000284
0.001662
0.000369
0.000236
0.000249
0.000238
0.000261
0.000240
0.000260
0.000272
0.000268
0.000309
0.000309
0.000479
0.000448
0.001379
0.000227
0.000283
0.000253
0.000262
0.000268
0.000292
0.000553
0.000055
0.000185
0.000260
0.000220
0.000237
0.000222
0.000243
0.000264
0.000275
0.000255
0.001548
0.000389
0.000258
0.000240
0.000260
0.000469
0.000251
0.000545
0.000371
0.000271
0.000271
0.000484
0.000474
0.001301
0.000244
0.000241
0.000255
0.001842
0.000334
0.000603
0.000311
0.000153
0.000057
0.000185
0.000231
0.000241
0.000234
0.000282
0.000222
0.000246
0.000490
0.000513
0.000440
0.000268
0.000211
0.000237
0.000266
0.000275
0.000273
0.000235
0.000241
0.000254
0.000287
0.000273
0.000404
0.001360
0.000207
0.000254
0.000273
0.001930
0.000348
0.000416
0.000317
0.000157
0.000056
0.000221
0.000234
0.000243
0.001643
0.000343
0.000222
0.000252
0.000250
0.000249
0.000280
0.000372
0.000368
0.000367
0.000278
0.000279
0.000524
0.000399
0.001212
0.000271
0.000237
0.000246
0.000267
0.000272
0.000401
0.000685
0.000387
0.000258
0.000267
0.000268
0.000277
0.000196
0.000057
0.000205
0.000236
0.000240
0.001579
0.000219
0.000229
0.000243
0.000252
0.000243
0.000252
0.000255
0.000270
0.000280
0.000264
0.000269
0.000368
0.000457
0.000312
0.001398
0.000225
0.000258
0.000262
0.000263
0.000271
0.000337
0.000463
0.000491
0.000268
0.000296
0.000229
0.000445
0.000056
0.000194
0.000235
0.000272
0.001525
0.000296
0.000220
0.000273
0.000234
0.000257
0.000255
0.000253
0.000280
0.000239
0.000266
0.000469
0.000441
0.001371
0.000761
0.000253
0.000337
0.000247
0.000236
0.000249
0.000270
0.001679
0.000821
0.000218
0.000261
0.000275
0.000287
0.000182
0.000056
0.000208
0.000232
0.000257
0.000244
0.000280
0.000250
0.000209
0.000260
0.000237
0.000237
0.000287
0.000293
0.000244
0.000251
0.000259
0.000245
0.000272
0.001620
0.000690
0.000368
0.000311
0.000238
0.000242
0.000314
0.000247
0.000248
0.000277
0.000252
0.001402
0.000401
0.000294
0.000057
0.000211
0.000212
0.000273
0.000235
0.000257
0.000226
0.000283
0.000225
0.000274
0.000243
0.000284
0.000409
0.000441
0.000334
0.000212
0.000244
0.000265
0.001389
0.000702
0.000504
0.000338
0.000233
0.000227
0.000251
0.000273
0.000260
0.000249
0.000267
0.001478
0.000443
0.000190
0.000056
0.000227
0.000228
0.000245
0.000248
0.000247
0.000249
0.000237
0.000251
0.000273
0.000281
0.000329
0.000451
0.000275
0.000219
0.000243
0.000243
0.000267
0.000255
0.001569
0.000626
0.000519
0.000266
0.000243
0.000247
0.000263
0.000261
0.000267
0.000293
0.000252
0.001346
0.000335
0.000056
0.000213
0.000220
0.000236
0.000260
0.000259
0.000242
0.000253
0.000301
0.000367
0.000449
0.000346
0.000405
0.000353
0.000219
0.000245
0.000253
0.000300
0.000237
0.000270
0.001912
0.000332
0.000235
0.000450
0.000237
0.000254
0.000262
0.000272
0.000259
0.000268
0.000273
0.000330
0.000057
0.000262
0.000246
0.000234
0.000240
0.000271
0.000230
0.000231
0.000236
0.000292
0.000248
0.000225
0.000236
0.000254
0.000470
0.000471
0.000448
0.000220
0.000270
0.000246
0.000249
0.000256
0.000286
0.001482
0.001044
0.000227
0.000247
0.000269
0.000269
0.000268
0.000253
0.000203
0.000056
0.000198
0.001332
0.000294
0.000209
0.000238
0.000254
0.000253
0.000234
0.000245
0.000268
0.000245
0.000260
0.000239
0.000354
0.000448
0.000446
0.000230
0.000256
0.000259
0.000275
0.000276
0.000222
0.000254
0.000272
0.001306
0.000697
0.000304
0.000384
0.000373
0.000404
0.000295
0.000057
0.000208
0.000257
0.000331
0.001331
0.000210
0.000256
0.000231
0.000260
0.000249
0.000257
0.000265
0.000233
0.000265
0.000374
0.000540
0.000309
0.000226
0.000282
0.000324
0.000214
0.000254
0.000267
0.000238
0.000272
0.000280
0.001538
0.000733
0.000319
0.000253
0.000271
0.000199
0.000056
0.000224
0.000299
0.000412
0.000414
0.001204
0.000264
0.000221
0.000238
0.000233
0.000250
0.000246
0.000257
0.000234
0.000254
0.000230
0.000262
0.000266
0.000238
0.000259
0.000246
0.000274
0.000267
0.000310
0.000326
0.000216
0.000265
0.000269
0.001455
0.000275
0.000232
0.000178
0.000057
0.000198
0.000226
0.000252
0.000264
0.000352
0.000373
0.000394
0.000281
0.001576
0.000222
0.000288
0.000526
0.000331
0.000237
0.000435
0.000232
0.000237
0.000262
0.000275
0.000285
0.000262
0.000266
0.000260
0.000267
0.000238
0.000442
0.000369
0.000332
0.001586
0.000230
0.000190
0.000057
0.000251
0.000240
0.000241
0.000253
0.000237
0.000247
0.000263
0.000312
0.000418
0.002011
0.000235
0.000253
0.000253
0.000259
0.000261
0.000256
0.000268
0.000252
0.000262
0.000448
0.000346
0.000467
0.001434
0.000239
0.000255
0.002003
0.000319
0.000221
0.000256
0.001521
0.000165
0.000057
0.000350
0.000461
0.000404
0.000237
0.000282
0.000207
0.000261
0.000296
0.000235
0.000225
0.000252
0.000345
0.000402
0.000344
0.000462
0.000211
0.000237
0.001581
0.000238
0.000645
0.001820
0.000273
0.000229
0.001513
0.002055
0.000732
0.000278
0.000258
0.000276
0.000454
0.000350
0.000057
0.000210
0.000242
0.000273
0.000220
0.001410
0.001745
0.001069
0.000208
0.000236
0.001615
0.001943
0.000225
0.000234
0.000424
0.000294
0.000430
0.000355
0.000477
0.000213
0.000232
0.000253
0.000257
0.000274
0.001598
0.001198
0.001417
0.000299
0.000269
0.000268
0.000290
0.000360
0.000057
0.000215
0.000234
0.000244
0.000237
0.000229
0.000268
0.000230
0.000256
0.000258
0.000238
0.000244
0.000313
0.000465
0.000445
0.000267
0.000261
0.000249
0.000273
0.000269
0.000277
0.000243
0.000264
0.001513
0.000466
0.002119
0.000242
0.000258
0.000485
0.000288
0.000384
0.000198
0.000056
0.000248
0.000336
0.000560
0.000215
0.000217
0.000214
0.000254
0.000241
0.000245
0.000243
0.000243
0.000267
0.000261
0.001622
0.001335
0.001234
0.000292
0.000209
0.000252
0.000269
0.000284
0.000281
0.000237
0.000256
0.002195
0.000250
0.000268
0.000292
0.000340
0.000286
0.000241
0.000057
0.000228
0.000369
0.000541
0.000337
0.000231
0.000219
0.000250
0.000272
0.001899
0.001409
0.000226
0.000324
0.000386
0.000410
0.000244
0.000236
0.000243
0.000267
0.000266
0.000264
0.000253
0.000271
0.000468
0.000241
0.000271
0.000257
0.000259
0.000273
0.000285
0.000244
0.000203
0.000057
0.000197
0.000245
0.000248
0.000244
0.000276
0.000251
0.001540
0.001414
0.001323
0.000248
0.000226
0.000238
0.000269
0.000262
0.000245
0.000275
0.000229
0.002086
0.000267
0.000227
0.000274
0.000260
0.000271
0.000257
0.000265
0.000258
0.000268
0.000249
0.000284
0.000245
0.000185
0.000057
0.000207
0.002676
0.001394
0.000229
0.000301
0.000323
0.000220
0.000284
0.000229
0.000238
0.000252
0.000244
0.000237
0.000247
0.000270
0.000257
0.000263
0.000269
0.000270
0.000256
0.000265
0.000285
0.000274
0.000258
0.000244
0.000251
0.000263
0.000269
0.000262
0.000272
0.000368
0.000056
0.001548
0.000256
0.001230
0.000244
0.000217
0.000238
0.000281
0.000254
0.000229
0.000278
0.000419
0.000313
0.000344
0.000231
0.000238
0.002158
0.000247
0.000226
0.000293
0.000493
0.000346
0.000313
0.000237
0.000250
0.000268
0.000248
0.000269
0.000272
0.000269
0.001632
0.001248
0.000056
0.000211
0.000224
0.000269
0.000433
0.000341
0.000287
0.000218
0.000228
0.000256
0.000254
0.000267
0.000241
0.000229
0.000259
0.000260
0.000242
0.000314
0.000615
0.000374
0.000236
0.000245
0.000266
0.000276
0.000252
0.000249
0.000253
0.000258
0.000278
0.000245
0.000362
0.000316
0.000058
0.001107
0.000247
0.000383
0.000449
0.000249
0.000242
0.000205
0.000241
0.000251
0.002305
0.000364
0.000384
0.000239
0.000356
0.000312
0.000250
0.000242
0.000261
0.000262
0.000237
0.000244
0.000264
0.000697
0.000387
0.001845
0.001365
0.000579
0.000435
0.000245
0.000272
0.000193
0.000056
0.000255
0.000343
0.000251
0.000255
0.000253
0.000205
0.000256
0.000256
0.000250
0.000249
0.000255
0.000222
0.000250
0.000280
0.000407
0.000467
0.001836
0.001357
0.000477
0.000384
0.000457
0.000240
0.000238
0.000263
0.002126
0.000553
0.000388
0.000236
0.000274
0.000283
0.000194
0.000056
0.000185
0.000247
0.000253
0.000248
0.000244
0.000372
0.000385
0.000263
0.000365
0.000218
0.000261
0.000231
0.000265
0.002100
0.000385
0.000374
0.000224
0.000249
0.000286
0.000243
0.000248
0.002532
0.000253
0.000227
0.000261
0.000254
0.000257
0.000277
0.000303
0.000252
0.000193
0.000057
0.000193
0.000379
0.000577
0.000305
0.000271
0.000210
0.000251
0.000234
0.000262
0.000253
0.002016
0.000328
0.000272
0.000268
0.000242
0.000268
0.000268
0.000246
0.002215
0.000441
0.000221
0.000264
0.000272
0.000254
0.000268
0.000245
0.000299
0.000238
0.000267
0.000266
0.000174
0.000057
0.000193
0.000245
0.000246
0.000238
0.000233
0.000256
0.000241
0.000242
0.000231
0.002177
0.000246
0.000268
0.000222
0.000421
0.000225
0.000258
0.000304
0.000262
0.000251
0.000251
0.001962
0.000282
0.000344
0.000355
0.000432
0.000430
0.000282
0.000260
0.000251
0.000262
0.000197
0.000056
0.000202
0.000278
0.000204
0.000252
0.000259
0.000312
0.000215
0.002301
0.000244
0.000239
0.000262
0.000255
0.000236
0.000279
0.000282
0.002123
0.000586
0.000220
0.000257
0.000244
0.000261
0.000262
0.000284
0.000263
0.000264
0.000253
0.000291
0.000253
0.000262
0.000267
0.000196
0.000056
0.001839
0.001415
0.000223
0.000224
0.000241
0.000258
0.000249
0.000316
0.000355
0.000360
0.002161
0.000263
0.000225
0.000275
0.000323
0.000425
0.000441
0.000296
0.000225
0.000253
0.000244
0.000270
0.000265
0.000226
0.000260
0.000265
0.000265
0.000271
0.000363
0.000694
0.000235
0.000056
0.000208
0.000255
0.000241
0.000250
0.000268
0.000245
0.000253
0.000247
0.001463
0.002135
0.000576
0.000275
0.000401
0.000699
0.000359
0.000234
0.000257
0.000248
0.000267
0.000258
0.000257
0.000239
0.000251
0.000268
0.003008
0.000333
0.000242
0.000263
0.000282
0.000254
0.000433
0.000058
0.001913
0.000235
0.000239
0.000228
0.000306
0.000340
0.000443
0.000316
0.000287
0.000218
0.000243
0.000251
0.000259
0.000251
0.000281
0.000241
0.000257
0.000284
0.001826
0.000243
0.000229
0.000255
0.000271
0.000276
0.000276
0.000251
0.001471
0.000332
0.000256
0.000249
0.000186
0.000057
0.000214
0.000228
0.000254
0.000248
0.000236
0.000237
0.000308
0.000377
0.000302
0.000388
0.000240
0.000239
0.000257
0.000331
0.000416
0.000317
0.000231
0.000250
0.000266
0.000367
0.000511
0.000418
0.000216
0.000264
0.000253
0.000259
0.000244
0.000281
0.000273
0.000265
0.000204
0.000056
0.001442
0.000456
0.000209
0.001945
0.000300
0.000455
0.000365
0.000316
0.000236
0.000241
0.000265
0.000248
0.000245
0.000247
0.000265
0.000254
0.000457
0.000306
0.000370
0.000502
0.000238
0.000227
0.000264
0.000265
0.000269
0.000274
0.000260
0.000266
0.000389
0.000395
0.001416
0.000056
0.000192
0.000217
0.002082
0.000310
0.000328
0.000231
0.000257
0.000246
0.000262
0.000263
0.000207
0.000260
0.000260
0.000260
0.000253
0.000363
0.000721
0.001753
0.000223
0.000253
0.000254
0.000267
0.000423
0.000438
0.001526
0.000290
0.000365
0.001931
0.000251
0.000258
0.000196
0.000057
0.000216
0.000223
0.000241
0.000240
0.000228
0.000247
0.000256
0.000283
0.000329
0.000269
0.000370
0.000368
0.000356
0.000284
0.000241
0.000270
0.000261
0.000243
0.000264
0.000246
0.000314
0.000277
0.000267
0.000266
0.000264
0.001504
0.000294
0.000383
0.002081
0.000228
0.000176
0.000057
0.000209
0.000237
0.000240
0.000251
0.000485
0.000207
0.000252
0.000340
0.000342
0.000342
0.000284
0.000219
0.000262
0.000262
0.000270
0.000324
0.000429
0.000424
0.000262
0.000416
0.000499
0.000545
0.001497
0.000226
0.000251
0.001995
0.000353
0.000211
0.000248
0.000293
0.000196
0.000056
0.000200
0.000235
0.000227
0.000248
0.000248
0.000269
0.000252
0.000274
0.000251
0.000273
0.001801
0.000310
0.000382
0.000285
0.000464
0.000367
0.000392
0.001462
0.000253
0.000266
0.002183
0.000495
0.000271
0.000242
0.000251
0.000267
0.000502
0.000226
0.000254
0.000282
0.000196
0.000056
0.000304
0.000343
0.000368
0.000301
0.000206
0.000246
0.000255
0.000255
0.000265
0.000282
0.000240
0.000245
0.000257
0.000261
0.000347
0.000509
0.001272
0.000266
0.000283
0.001946
0.000330
0.000306
0.000218
0.000255
0.000250
0.000287
0.000266
0.000259
0.000245
0.000274
0.000200
0.000057
0.000221
0.000409
0.002038
0.000253
0.000226
0.000252
0.000248
0.000351
0.000432
0.000391
0.001292
0.000380
0.000362
0.002071
0.000231
0.000244
0.000249
0.000278
0.000255
0.000235
0.000292
0.000296
0.000249
0.000422
0.000427
0.000368
0.000292
0.002248
0.000501
0.000454
0.000409
0.000058
0.000196
0.000245
0.000224
0.001965
0.000240
0.000222
0.000248
0.000240
0.000241
0.000257
0.000245
0.000265
0.000253
0.000318
0.000378
0.001487
0.000264
0.000248
0.000248
0.000262
0.000233
0.000256
0.000259
0.000288
0.000292
0.000458
0.000481
0.000232
0.001601
0.000273
0.000162
0.000055
0.000194
0.000229
0.000246
0.000240
0.000258
0.000267
0.000227
0.000248
0.000342
0.000318
0.000349
0.001394
0.000236
0.000232
0.000250
0.000290
0.000224
0.000257
0.000275
0.000546
0.000366
0.000437
0.000228
0.001571
0.000237
0.000262
0.000288
0.000278
0.000266
0.000265
0.000197
0.000056
0.000204
0.000238
0.000284
0.000264
0.000232
0.000242
0.000235
0.000246
0.000274
0.000228
0.000247
0.000255
0.000264
0.001477
0.000364
0.000210
0.000268
0.000247
0.000274
0.000317
0.000361
0.000282
0.000242
0.000265
0.000260
0.000265
0.000257
0.001398
0.000293
0.000237
0.000172
0.000056
0.000204
0.000236
0.000258
0.000263
0.000270
0.000218
0.000247
0.000258
0.000239
0.000264
0.000227
0.000263
0.000227
0.000342
0.000351
0.000334
0.000275
0.000235
0.001630
0.000246
0.000241
0.000258
0.000267
0.000288
0.000407
0.000348
0.000452
0.000273
0.000247
0.001616
0.000162
0.000056
0.000336
0.000363
0.000321
0.000316
0.000231
0.000222
0.000243
0.000276
0.000253
0.000261
0.000223
0.000236
0.001462
0.000286
0.000317
0.000222
0.000245
0.000273
0.000253
0.000269
0.000256
0.000228
0.000259
0.000273
0.000266
0.000351
0.000507
0.000271
0.000332
0.000243
0.000195
0.000057
0.000207
0.000236
0.000429
0.000343
0.000373
0.000281
0.000252
0.000249
0.000252
0.000255
0.000248
0.000236
0.000248
0.000237
0.001259
0.000293
0.000248
0.000248
0.000271
0.000257
0.000242
0.000265
0.000258
0.000261
0.000250
0.000261
0.000350
0.000627
0.000476
0.000225
0.000189
0.000055
0.000206
0.001563
0.000250
0.000350
0.000419
0.000391
0.000221
0.000250
0.000269
0.000246
0.000244
0.000258
0.000269
0.000277
0.000255
0.001530
0.000254
0.000283
0.000266
0.000254
0.000275
0.000238
0.000266
0.000260
0.000269
0.000295
0.000438
0.000337
0.000358
0.000231
0.000188
0.000057
0.000203
0.000258
0.000229
0.001641
0.000397
0.000344
0.000222
0.000243
0.000252
0.000268
0.000283
0.000249
0.000257
0.000256
0.000232
0.000274
0.000423
0.001295
0.000255
0.000234
0.001496
0.000297
0.000568
0.000405
0.000356
0.000217
0.000272
0.000468
0.000242
0.000260
0.000182
0.000056
0.000281
0.000224
0.000242
0.000244
0.000246
0.000277
0.000220
0.000254
0.000254
0.000252
0.000244
0.000262
0.000334
0.000472
0.001662
0.001496
0.000356
0.000526
0.000345
0.000229
0.000230
0.000255
0.000251
0.000270
0.000251
0.000265
0.000259
0.000263
0.001524
0.000330
0.000195
0.000056
0.000218
0.000350
0.000354
0.000333
0.000237
0.000229
0.000245
0.000404
0.000392
0.000376
0.002153
0.000318
0.000755
0.000425
0.000488
0.000258
0.000332
0.000393
0.000328
0.000281
0.000408
0.000256
0.001536
0.000527
0.000213
0.000264
0.000258
0.000261
0.000261
0.000264
0.000199
0.000056
0.000235
0.000249
0.000268
0.000241
0.000243
0.001657
0.000878
0.001004
0.000205
0.000235
0.000272
0.000236
0.000269
0.000260
0.000252
0.000244
0.000258
0.000264
0.000266
0.000277
0.001457
0.000290
0.000253
0.000235
0.000233
0.000259
0.000260
0.000280
0.000266
0.000281
0.001903
0.000057
0.000189
0.000237
0.001539
0.000969
0.000273
0.000348
0.000262
0.000220
0.000249
0.000256
0.000257
0.000241
0.000244
0.001982
0.000474
0.000228
0.000241
0.000252
0.000267
0.000261
0.000190
