0.000094
0.018835
0.002522
0.000385
0.000257
0.000298
0.000324
0.000228
0.000329
0.000281
0.000256
0.000323
0.000490
0.000519
0.000398
0.000345
0.000272
0.000330
0.000356
0.000421
0.001899
0.000346
0.000683
0.000274
0.000242
0.000307
0.000316
0.000307
0.000421
0.000372
0.000511
0.000315
0.000057
0.000213
0.000264
0.000269
0.000286
0.000249
0.000255
0.000276
0.000286
0.000264
0.000296
0.000400
0.000438
0.000312
0.000250
0.000374
0.000349
0.000366
0.000247
0.000258
0.001781
0.000230
0.000257
0.000449
0.000262
0.000270
0.000276
0.000287
0.000293
0.000279
0.000332
0.000496
0.000056
0.000194
0.000256
0.000262
0.000260
0.000252
0.000246
0.000266
0.000251
0.000287
0.001667
0.000243
0.000217
0.000279
0.000265
0.000277
0.000255
0.000262
0.000253
0.000353
0.001820
0.000212
0.000281
0.000442
0.000428
0.000390
0.000238
0.000357
0.000424
0.000468
0.000765
0.000189
0.000057
0.000230
0.000254
0.000249
0.000239
0.000294
0.000251
0.000320
0.000641
0.000292
0.000253
0.000249
0.000252
0.000243
0.000251
0.000257
0.000259
0.000242
0.000264
0.000297
0.000341
0.001665
0.000272
0.000245
0.000423
0.000458
0.000564
0.000724
0.000431
0.000362
0.000234
0.000195
0.000057
0.000206
0.000246
0.000294
0.000212
0.000281
0.000232
0.000262
0.000461
0.001473
0.000212
0.000253
0.000247
0.000250
0.000261
0.000261
0.000288
0.000268
0.000813
0.001394
0.000291
0.000239
0.000413
0.000236
0.000254
0.000262
0.000261
0.000264
0.000267
0.000258
0.000272
0.000195
0.000056
0.000218
0.000248
0.000242
0.000262
0.000237
0.000248
0.000239
0.000252
0.000237
0.000257
0.001626
0.000279
0.000218
0.000242
0.000275
0.000230
0.000249
0.000245
0.000258
0.000251
0.000290
0.001637
0.000288
0.000261
0.000429
0.000262
0.000253
0.000256
0.000262
0.000277
0.000194
0.000056
0.000188
0.000237
0.000248
0.000245
0.000241
0.000252
0.000258
0.000238
0.000265
0.000259
0.000246
0.000265
0.000255
0.000270
0.001632
0.000281
0.000291
0.000217
0.000253
0.000276
0.000271
0.000236
0.000241
0.000267
0.001804
0.000381
0.000337
0.000373
0.000239
0.000278
0.000200
0.000056
0.000209
0.000236
0.000246
0.000273
0.000257
0.000261
0.000272
0.000391
0.000490
0.000359
0.000208
0.000242
0.000258
0.000250
0.001562
0.000536
0.000338
0.000415
0.000286
0.000227
0.000270
0.000283
0.000274
0.001743
0.000499
0.000462
0.000266
0.000229
0.000252
0.000262
0.000191
0.000056
0.000214
0.000233
0.000256
0.000261
0.000363
0.000405
0.000380
0.000284
0.000213
0.000251
0.000263
0.000235
0.000254
0.001694
0.000499
0.000295
0.000227
0.000249
0.000273
0.000291
0.000240
0.000256
0.001829
0.000324
0.000323
0.000386
0.000238
0.000258
0.000267
0.000399
0.000329
0.000056
0.000213
0.000378
0.000399
0.000293
0.000209
0.000245
0.000250
0.000260
0.000243
0.000232
0.000234
0.000254
0.001549
0.000360
0.000306
0.000231
0.000257
0.000248
0.000247
0.000304
0.000259
0.000324
0.000243
0.001809
0.000259
0.000488
0.000251
0.000256
0.000256
0.000267
0.000263
0.000055
0.000314
0.000573
0.000608
0.000214
0.000228
0.000275
0.000230
0.000217
0.000265
0.000251
0.000255
0.001693
0.000259
0.000443
0.000371
0.000212
0.000245
0.000223
0.000255
0.000258
0.000254
0.001861
0.000229
0.000461
0.001868
0.000538
0.000343
0.000247
0.000251
0.000270
0.000190
0.000056
0.000216
0.000239
0.000250
0.000235
0.000261
0.001616
0.000278
0.000216
0.000249
0.000259
0.000238
0.000235
0.000254
0.000257
0.000288
0.000399
0.000633
0.000256
0.000229
0.000271
0.000291
0.000225
0.000245
0.000432
0.000436
0.000243
0.000399
0.000504
0.000449
0.000275
0.000198
0.000056
0.000206
0.000232
0.000254
0.000251
0.000245
0.000232
0.000239
0.000424
0.001808
0.000332
0.000206
0.000236
0.000244
0.000245
0.000265
0.000328
0.000349
0.000492
0.000347
0.000252
0.000254
0.000319
0.000268
0.000258
0.000269
0.000432
0.000334
0.000540
0.000549
0.000441
0.000174
0.000057
0.000198
0.000255
0.000240
0.000244
0.000230
0.000238
0.000246
0.000258
0.000232
0.000281
0.000340
0.000464
0.001374
0.000249
0.000229
0.000247
0.000256
0.000249
0.000251
0.000250
0.000322
0.000403
0.000414
0.000271
0.000267
0.000258
0.000252
0.000297
0.000241
0.000260
0.000384
0.000057
0.000209
0.000238
0.000235
0.000266
0.000533
0.000450
0.000219
0.000259
0.000235
0.000260
0.000257
0.000227
0.000295
0.000250
0.000240
0.000494
0.000407
0.001657
0.000262
0.000235
0.000267
0.000254
0.000253
0.000239
0.000270
0.000434
0.000425
0.000393
0.000424
0.000247
0.000188
0.000057
0.000230
0.000433
0.000235
0.000214
0.000285
0.000222
0.000335
0.000518
0.000331
0.000327
0.000230
0.000277
0.000258
0.000240
0.000521
0.000332
0.000231
0.000261
0.000388
0.001644
0.000310
0.000199
0.000524
0.000249
0.000278
0.000280
0.000248
0.000367
0.000563
0.000351
0.000262
0.000057
0.000224
0.000234
0.000239
0.000239
0.000416
0.000308
0.000290
0.000225
0.000418
0.000465
0.000378
0.000241
0.000245
0.000237
0.000263
0.000263
0.000253
0.000252
0.000233
0.000350
0.000288
0.000302
0.001872
0.000241
0.000259
0.000258
0.000272
0.000356
0.000409
0.000790
0.000358
0.000056
0.000230
0.000333
0.000304
0.000418
0.000389
0.000204
0.000260
0.000257
0.000592
0.000367
0.000261
0.000244
0.000233
0.000275
0.000262
0.000232
0.000257
0.000274
0.000269
0.000256
0.000296
0.000403
0.000642
0.001330
0.000322
0.000431
0.000424
0.000241
0.000426
0.000426
0.000457
0.000057
0.000232
0.000385
0.000279
0.000216
0.000221
0.000248
0.000408
0.000237
0.000233
0.000398
0.000386
0.000473
0.000222
0.000264
0.000267
0.000248
0.000345
0.000402
0.000340
0.000253
0.000242
0.000376
0.000668
0.001644
0.000232
0.000430
0.000317
0.000229
0.000246
0.000498
0.000279
0.000056
0.000206
0.000221
0.000249
0.000254
0.000244
0.000236
0.000253
0.000323
0.000458
0.000288
0.000409
0.000384
0.000304
0.000575
0.000248
0.000239
0.000275
0.000264
0.000228
0.000342
0.000228
0.000249
0.000270
0.000406
0.000466
0.001684
0.000275
0.000234
0.000255
0.000268
0.000183
0.000056
0.000287
0.000500
0.000327
0.000214
0.000258
0.000239
0.000259
0.000237
0.000290
0.000218
0.000223
0.000268
0.000396
0.000528
0.000401
0.000274
0.000260
0.000246
0.000342
0.000376
0.000382
0.000336
0.000362
0.000394
0.000250
0.000256
0.000266
0.000275
0.001786
0.000247
0.000207
0.000057
0.000209
0.000222
0.000257
0.000287
0.000332
0.000563
0.000300
0.000213
0.000289
0.000236
0.000250
0.000274
0.000492
0.000454
0.000484
0.000271
0.000271
0.000252
0.000428
0.000466
0.000351
0.000448
0.000446
0.000448
0.000238
0.000252
0.000261
0.000248
0.000264
0.001719
0.000292
0.000057
0.000302
0.000328
0.000203
0.000240
0.000254
0.000252
0.000235
0.000492
0.000377
0.000308
0.000291
0.000266
0.000523
0.000528
0.000303
0.000235
0.000252
0.000253
0.000253
0.000261
0.000275
0.000266
0.000241
0.000265
0.000303
0.000391
0.000411
0.000331
0.000234
0.000255
0.000188
0.000056
0.000479
0.000251
0.000477
0.000265
0.000209
0.000250
0.000240
0.000257
0.000245
0.000215
0.000252
0.000278
0.000296
0.000434
0.000509
0.000411
0.000342
0.000287
0.000382
0.000342
0.000299
0.000238
0.000253
0.000260
0.001741
0.000258
0.001718
0.000941
0.000399
0.000331
0.000168
0.000056
0.000197
0.000237
0.000234
0.000242
0.000274
0.000236
0.000253
0.000251
0.000247
0.000313
0.000382
0.000408
0.000341
0.000383
0.000244
0.000256
0.000247
0.000295
0.000234
0.000250
0.000251
0.000260
0.001816
0.000234
0.000257
0.000261
0.000284
0.000260
0.001897
0.000451
0.000313
0.000057
0.000218
0.000218
0.000239
0.000236
0.000254
0.000268
0.000221
0.000254
0.000268
0.000384
0.000580
0.000267
0.000392
0.000221
0.000253
0.000250
0.000326
0.000437
0.000369
0.000259
0.001781
0.000260
0.000242
0.000252
0.000260
0.000269
0.000241
0.000252
0.000332
0.000339
0.000321
0.000058
0.000263
0.000205
0.000234
0.000271
0.000237
0.000241
0.000256
0.000258
0.000235
0.000255
0.000246
0.000362
0.000386
0.000332
0.000353
0.000225
0.000493
0.000217
0.000244
0.000253
0.000261
0.000263
0.000271
0.000254
0.000277
0.001796
0.000243
0.000250
0.000265
0.000237
0.000199
0.000055
0.000255
0.000411
0.000207
0.000222
0.000237
0.000236
0.000235
0.000261
0.000246
0.000226
0.000224
0.000267
0.000262
0.000381
0.000376
0.000393
0.000260
0.000238
0.000257
0.000250
0.000265
0.000261
0.000244
0.000269
0.000263
0.000254
0.000350
0.001592
0.000261
0.000238
0.000194
0.000055
0.000215
0.000238
0.000250
0.000260
0.000374
0.000307
0.000412
0.000316
0.000233
0.000253
0.000267
0.000226
0.000251
0.000258
0.000260
0.000257
0.000246
0.000255
0.000257
0.000253
0.000275
0.000265
0.000261
0.000219
0.000249
0.000278
0.000277
0.000262
0.000252
0.000264
0.000191
0.000056
0.000218
0.000236
0.000260
0.000273
0.000230
0.000239
0.000253
0.000252
0.000275
0.000254
0.000221
0.000251
0.000252
0.000250
0.000295
0.000234
0.000260
0.000245
0.000303
0.000250
0.000272
0.000334
0.000251
0.000226
0.000303
0.000247
0.000272
0.000250
0.000252
0.000414
0.000738
0.000055
0.000238
0.000280
0.000224
0.000232
0.000228
0.000256
0.000247
0.000241
0.000255
0.000243
0.000267
0.000358
0.000426
0.000452
0.001556
0.000227
0.000504
0.000229
0.000247
0.000466
0.000470
0.000347
0.000223
0.000283
0.000247
0.000263
0.000279
0.000252
0.000309
0.000274
0.000172
0.000056
0.000383
0.000396
0.000328
0.000312
0.000228
0.000275
0.000224
0.000242
0.000235
0.000242
0.000261
0.000254
0.000231
0.000252
0.000359
0.000522
0.000397
0.001779
0.000232
0.000262
0.000357
0.000398
0.000403
0.000339
0.000327
0.000316
0.000299
0.000250
0.000216
0.000252
0.000200
0.000057
0.000216
0.000227
0.000233
0.000295
0.000423
0.000371
0.000368
0.000239
0.000253
0.000214
0.000249
0.000270
0.000265
0.000258
0.000250
0.000259
0.000269
0.000525
0.000415
0.000362
0.000225
0.001749
0.000316
0.000493
0.000488
0.000507
0.000324
0.000211
0.000262
0.000273
0.000450
0.000058
0.000192
0.000268
0.000221
0.000304
0.000552
0.000285
0.000395
0.000243
0.000258
0.000280
0.000222
0.000263
0.000251
0.000292
0.000308
0.000244
0.000256
0.000336
0.000524
0.000300
0.000505
0.001841
0.000250
0.000524
0.000412
0.000357
0.000236
0.000257
0.000288
0.000265
0.000202
0.000056
0.000200
0.000337
0.000362
0.000348
0.000377
0.000331
0.000331
0.000216
0.000241
0.000256
0.000278
0.000226
0.000269
0.000234
0.000249
0.000260
0.000314
0.000450
0.000438
0.000411
0.000253
0.000240
0.000256
0.001714
0.000459
0.000473
0.000685
0.000232
0.000267
0.000314
0.000155
0.000056
0.000191
0.000239
0.000346
0.000235
0.000261
0.000335
0.000460
0.000305
0.000235
0.000538
0.000216
0.000257
0.000261
0.000277
0.000273
0.000266
0.000209
0.000376
0.000453
0.000433
0.000259
0.000235
0.000257
0.000252
0.000258
0.000268
0.000247
0.000250
0.000265
0.000289
0.000240
0.000056
0.000335
0.000307
0.000219
0.000254
0.000250
0.000257
0.000237
0.000286
0.000241
0.000249
0.000283
0.000331
0.000432
0.000428
0.000307
0.000264
0.000239
0.000233
0.000257
0.000268
0.000284
0.000271
0.000223
0.000260
0.000283
0.000321
0.000420
0.000363
0.000353
0.000237
0.000175
0.000056
0.000212
0.000230
0.000274
0.000244
0.000233
0.000274
0.000264
0.000231
0.000499
0.000210
0.000255
0.000262
0.000235
0.000270
0.000267
0.000297
0.000238
0.000361
0.000208
0.000246
0.000249
0.000271
0.000255
0.000272
0.000276
0.000265
0.000263
0.000256
0.000252
0.000499
0.000165
0.000056
0.000214
0.000236
0.000260
0.000281
0.000203
0.000240
0.000366
0.000405
0.000237
0.000234
0.000249
0.000257
0.000237
0.000222
0.000381
0.001886
0.000229
0.000270
0.000284
0.000329
0.000406
0.000365
0.000363
0.000386
0.000390
0.000416
0.000242
0.000273
0.000267
0.000272
0.001396
0.000055
0.000396
0.000299
0.000269
0.000216
0.000241
0.000246
0.000236
0.000257
0.000242
0.000272
0.000246
0.000261
0.000250
0.000297
0.000490
0.001673
0.000236
0.000228
0.000251
0.000264
0.000239
0.000267
0.000370
0.000398
0.000266
0.000388
0.000200
0.000268
0.000277
0.000262
0.000180
0.000057
0.001239
0.000484
0.000330
0.000280
0.000244
0.000217
0.000233
0.000248
0.000487
0.000221
0.000232
0.000254
0.000332
0.000568
0.000351
0.000351
0.000258
0.000231
0.000319
0.000366
0.000276
0.000251
0.000272
0.000245
0.000274
0.000538
0.000559
0.000284
0.000268
0.000283
0.000144
0.000056
0.000205
0.000226
0.000243
0.000244
0.001508
0.000278
0.000207
0.000257
0.000255
0.000231
0.000253
0.000253
0.000246
0.000258
0.000267
0.000391
0.000329
0.000659
0.000273
0.001740
0.000254
0.000285
0.000291
0.000482
0.000508
0.000407
0.000242
0.000242
0.000265
0.000267
0.000195
0.000057
0.000208
0.000253
0.000232
0.000311
0.001251
0.000239
0.000259
0.000261
0.000241
0.000235
0.000245
0.000246
0.000279
0.000241
0.000257
0.000317
0.000455
0.000390
0.000331
0.000269
0.000258
0.000272
0.000270
0.000211
0.000292
0.000265
0.000242
0.000275
0.000275
0.000467
0.000430
0.000056
0.000228
0.000247
0.000239
0.000256
0.000270
0.000238
0.000237
0.000259
0.000272
0.000276
0.001404
0.000229
0.000247
0.000247
0.000250
0.000261
0.000275
0.000240
0.000283
0.000247
0.000283
0.000469
0.000451
0.000398
0.000227
0.000276
0.001765
0.000260
0.000341
0.000233
0.000413
0.000057
0.000183
0.000401
0.000450
0.000508
0.000511
0.000565
0.001471
0.000422
0.000519
0.000653
0.000548
0.000749
0.000456
0.000610
0.000582
0.001897
0.000357
0.000485
0.000389
0.000322
0.000226
0.000269
0.000292
0.000261
0.000277
0.000274
0.000288
0.000286
0.000264
0.000288
0.001364
0.000057
0.000204
0.000231
0.000251
0.000236
0.000256
0.000256
0.000235
0.000238
0.000252
0.000250
0.000238
0.000247
0.000254
0.000258
0.000266
0.000267
0.001810
0.000275
0.000248
0.000245
0.000251
0.000266
0.000265
0.000320
0.000385
0.000413
0.000347
0.000222
0.000270
0.000288
0.000201
0.000057
0.000196
0.001357
0.000336
0.000274
0.000249
0.000240
0.000242
0.000235
0.000234
0.000236
0.000218
0.000249
0.000253
0.000507
0.000359
0.000306
0.000241
0.001825
0.000351
0.000238
0.000240
0.000267
0.000263
0.000259
0.000272
0.000285
0.000271
0.000253
0.000262
0.000322
0.000202
0.000057
0.000224
0.000240
0.000250
0.001439
0.000219
0.000247
0.000258
0.000243
0.000259
0.000244
0.000247
0.000250
0.000242
0.000282
0.000241
0.000251
0.000263
0.000271
0.000261
0.000257
0.000262
0.001774
0.000265
0.001764
0.000258
0.000260
0.000260
0.000283
0.000252
0.000278
0.000201
0.000056
0.000203
0.000232
0.001347
0.000231
0.000243
0.000246
0.000271
0.000253
0.000243
0.000248
0.000257
0.000237
0.000260
0.000265
0.000255
0.000267
0.000281
0.000261
0.000309
0.000217
0.001886
0.000237
0.001828
0.000230
0.000271
0.000271
0.000233
0.000249
0.000255
0.000268
0.000199
0.000057
0.001431
0.000227
0.000214
0.000253
0.000238
0.000260
0.000351
0.000281
0.000239
0.000252
0.000255
0.000255
0.000235
0.000375
0.000384
0.000293
0.000238
0.000276
0.000262
0.000273
0.000244
0.000345
0.000225
0.000256
0.000269
0.000276
0.000269
0.000316
0.000659
0.000371
0.000195
0.000057
0.000223
0.000220
0.000265
0.000300
0.000378
0.000249
0.001705
0.000286
0.000282
0.000296
0.000225
0.000281
0.000263
0.000261
0.000306
0.000302
0.000474
0.000471
0.000347
0.000264
0.000290
0.000281
0.000276
0.000258
0.000334
0.000249
0.000271
0.000257
0.000253
0.000314
0.000420
0.000057
0.000253
0.000466
0.000276
0.000268
0.000242
0.000227
0.000235
0.000240
0.000258
0.000273
0.001492
0.000216
0.000237
0.000250
0.000259
0.000275
0.000282
0.000239
0.000260
0.000263
0.000288
0.000316
0.000618
0.000272
0.000268
0.000284
0.000265
0.000259
0.000240
0.000308
0.000170
0.000057
0.000196
0.000240
0.000301
0.000454
0.000353
0.000286
0.000213
0.000252
0.000274
0.000227
0.000237
0.000251
0.000258
0.000280
0.000225
0.000238
0.000466
0.001138
0.000246
0.000251
0.000277
0.000247
0.000350
0.000423
0.000262
0.000362
0.000527
0.000363
0.000372
0.000235
0.000188
0.000057
0.000246
0.000242
0.000261
0.000262
0.000251
0.000251
0.000402
0.000378
0.000429
0.000267
0.000346
0.000400
0.000397
0.000356
0.000258
0.000245
0.000239
0.000253
0.000366
0.000494
0.001261
0.000229
0.000277
0.000272
0.000249
0.000223
0.000264
0.000305
0.000440
0.000447
0.000222
0.000056
0.000209
0.000246
0.000254
0.000245
0.000236
0.000249
0.000237
0.000270
0.000309
0.000450
0.000264
0.000420
0.000241
0.000247
0.000252
0.000260
0.000246
0.000262
0.000264
0.000269
0.000428
0.000262
0.000395
0.000369
0.000326
0.000257
0.000276
0.000264
0.000254
0.000340
0.000156
0.000056
0.000324
0.000304
0.000298
0.000355
0.000514
0.000331
0.000240
0.000245
0.000243
0.000273
0.000273
0.000245
0.000232
0.000253
0.000241
0.000231
0.000270
0.000348
0.000469
0.000383
0.000218
0.000270
0.000254
0.000249
0.000263
0.000281
0.000269
0.000278
0.000271
0.000283
0.000254
0.000056
0.000324
0.000289
0.000235
0.000268
0.000225
0.000248
0.000247
0.000255
0.000260
0.000256
0.000254
0.000233
0.000314
0.000473
0.000431
0.000303
0.000230
0.000244
0.000258
0.000262
0.000258
0.000264
0.000258
0.000272
0.000268
0.000307
0.000455
0.000562
0.000401
0.000266
0.000167
0.000056
0.000411
0.000202
0.000225
0.000247
0.000247
0.000247
0.000249
0.000241
0.000256
0.000259
0.000219
0.000247
0.000269
0.000226
0.000240
0.000269
0.000253
0.000263
0.000293
0.000239
0.000265
0.000261
0.000265
0.000260
0.000268
0.000238
0.000261
0.000280
0.000260
0.000274
0.000201
0.000056
0.000209
0.000229
0.000250
0.000247
0.000229
0.000260
0.000260
0.000240
0.000264
0.000270
0.000236
0.000233
0.000262
0.000397
0.000247
0.000297
0.000247
0.000269
0.000248
0.000281
0.000273
0.000240
0.000240
0.000251
0.000274
0.000271
0.000251
0.000257
0.000271
0.000260
0.000207
0.000056
0.000216
0.000362
0.000363
0.000303
0.000271
0.000262
0.000270
0.000255
0.000224
0.000244
0.000276
0.000237
0.000248
0.000236
0.000258
0.000288
0.000232
0.000271
0.000246
0.000269
0.000269
0.000265
0.000277
0.000255
0.000288
0.000234
0.000260
0.000265
0.000273
0.000259
0.000196
0.000055
0.000209
0.000235
0.000285
0.000248
0.000252
0.000445
0.000209
0.000271
0.000327
0.000416
0.000487
0.000250
0.000232
0.000251
0.000276
0.000254
0.000240
0.000266
0.000256
0.000281
0.000259
0.000254
0.000260
0.000290
0.000553
0.000478
0.000256
0.000301
0.000257
0.000267
0.000192
0.000057
0.000207
0.000218
0.000247
0.000254
0.000333
0.000672
0.000277
0.000389
0.000206
0.000246
0.000268
0.000235
0.000253
0.000263
0.000240
0.000270
0.000274
0.000235
0.000605
0.000432
0.000289
0.000242
0.000261
0.000278
0.000278
0.000256
0.000268
0.000285
0.000231
0.000322
0.000303
0.000056
0.000288
0.000233
0.000245
0.000237
0.000255
0.000281
0.000201
0.000247
0.000244
0.000259
0.000245
0.000252
0.000251
0.000416
0.000534
0.000430
0.000203
0.000260
0.000265
0.000246
0.000269
0.000284
0.000480
0.000216
0.000264
0.000562
0.000494
0.000445
0.000248
0.000255
0.000186
0.000057
0.000199
0.000227
0.000244
0.000241
0.000255
0.000256
0.000314
0.000460
0.000554
0.000421
0.000216
0.000262
0.000315
0.000239
0.000258
0.000242
0.000239
0.000248
0.000269
0.000366
0.000392
0.000624
0.000356
0.000257
0.000354
0.000379
0.000492
0.000244
0.000265
0.000552
0.000326
0.000057
0.000277
0.000232
0.000435
0.000230
0.000224
0.000255
0.000258
0.000274
0.000216
0.000243
0.000262
0.000452
0.000309
0.000350
0.000228
0.000263
0.000249
0.000251
0.000263
0.000284
0.000266
0.000252
0.000250
0.000272
0.000303
0.000491
0.000492
0.000245
0.000251
0.000272
0.000199
0.000055
0.000206
0.000253
0.000226
0.000248
0.000248
0.000246
0.000374
0.000390
0.000449
0.000259
0.000380
0.000222
0.000258
0.000262
0.000273
0.000232
0.000250
0.000259
0.000318
0.000377
0.000505
0.000299
0.000483
0.000263
0.000382
0.000424
0.000382
0.000247
0.000258
0.000279
0.000436
0.000056
0.000245
0.000273
0.000225
0.000254
0.000257
0.000264
0.000242
0.000250
0.000269
0.000245
0.000233
0.000411
0.000388
0.000384
0.000366
0.000232
0.000266
0.000263
0.000269
0.000233
0.000250
0.000251
0.000264
0.000276
0.000275
0.000347
0.000505
0.000440
0.000245
0.000284
0.000188
0.000056
0.000201
0.000249
0.000273
0.000250
0.000240
0.000345
0.000507
0.000454
0.000360
0.000690
0.000263
0.000218
0.000245
0.000259
0.000245
0.000271
0.000275
0.000274
0.000494
0.000423
0.001489
0.000316
0.000266
0.000296
0.000249
0.000269
0.000428
0.000380
0.000337
0.000310
0.000190
0.000056
0.000198
0.000238
0.000243
0.000266
0.000225
0.000250
0.000300
0.000225
0.000261
0.000304
0.000332
0.000380
0.000271
0.000337
0.000396
0.000345
0.000240
0.000264
0.000265
0.000258
0.000241
0.000253
0.000305
0.000220
0.000327
0.000437
0.000429
0.000284
0.000261
0.000265
0.000184
0.000057
0.000211
0.000243
0.000261
0.000251
0.000245
0.000233
0.000475
0.000213
0.000229
0.000254
0.000252
0.000248
0.000260
0.000253
0.000253
0.000268
0.000265
0.000287
0.000248
0.000257
0.000286
0.000265
0.000291
0.000245
0.000266
0.000279
0.000270
0.000262
0.000264
0.000274
0.000167
0.000057
0.000207
0.000252
0.000270
0.000441
0.000369
0.000256
0.000237
0.000251
0.000258
0.000248
0.000253
0.000253
0.000263
0.000263
0.000241
0.000238
0.000273
0.000249
0.000259
0.000373
0.000402
0.000427
0.000229
0.000260
0.000268
0.000251
0.000272
0.000248
0.000274
0.000278
0.000204
0.000056
0.000344
0.000370
0.000446
0.000216
0.000251
0.000249
0.000422
0.000219
0.000232
0.000273
0.000236
0.000285
0.000350
0.000486
0.001826
0.000253
0.000241
0.000262
0.000267
0.000240
0.000324
0.000455
0.000710
0.000206
0.000234
0.000260
0.000271
0.000433
0.000273
0.000281
0.000155
0.000056
0.000230
0.000368
0.000310
0.000348
0.000496
0.000202
0.000242
0.000240
0.000256
0.000239
0.000261
0.000245
0.000265
0.000293
0.000479
0.000429
0.000227
0.000246
0.000258
0.000257
0.000263
0.000312
0.000237
0.000282
0.000276
0.000443
0.000511
0.000441
0.000413
0.000244
0.000203
0.000055
0.000219
0.000241
0.000257
0.000233
0.000246
0.000249
0.000285
0.000277
0.000408
0.000336
0.000387
0.000348
0.000217
0.000250
0.000271
0.000290
0.000289
0.000243
0.000275
0.000274
0.000236
0.000395
0.000365
0.000481
0.000188
0.000261
0.000263
0.000443
0.000404
0.000299
0.000190
0.000055
0.000201
0.000229
0.000356
0.000390
0.000411
0.000193
0.000237
0.000256
0.000260
0.000265
0.000254
0.000260
0.000224
0.000253
0.000258
0.000335
0.000318
0.000393
0.000310
0.000339
0.000489
0.000224
0.000278
0.000282
0.000301
0.000284
0.000246
0.000350
0.000410
0.000526
0.000168
0.000056
0.000218
0.000236
0.000246
0.000250
0.000243
0.000481
0.000212
0.000252
0.000269
0.000383
0.000418
0.000600
0.000219
0.000237
0.000241
0.000250
0.000259
0.000268
0.000244
0.000248
0.000287
0.000240
0.000355
0.000416
0.000364
0.000420
0.000279
0.000302
0.000326
0.000260
0.000181
0.000055
0.000228
0.000229
0.000283
0.000506
0.000346
0.000266
0.000221
0.000227
0.000247
0.000253
0.000257
0.000258
0.000265
0.000244
0.000249
0.000264
0.000245
0.000244
0.000283
0.000393
0.000433
0.000449
0.000222
0.000250
0.000278
0.000272
0.000266
0.000260
0.000261
0.000273
0.000183
0.000056
0.000316
0.000345
0.000482
0.000234
0.000204
0.000249
0.000310
0.000459
0.000289
0.000210
0.000251
0.000275
0.000254
0.000474
0.000463
0.000239
0.000236
0.000233
0.000252
0.000269
0.000264
0.000268
0.000258
0.000276
0.000261
0.000292
0.000382
0.000487
0.000259
0.000256
0.000177
0.000057
0.000211
0.000244
0.000248
0.000260
0.000248
0.000264
0.000227
0.000269
0.000249
0.000236
0.000269
0.000233
0.000291
0.001482
0.000188
0.000242
0.000257
0.000244
0.000281
0.000275
0.000265
0.000239
0.000278
0.000250
0.000271
0.000265
0.000272
0.000273
0.000256
0.000268
0.000197
0.000056
0.000203
0.000229
0.000253
0.000265
0.000238
0.000227
0.000260
0.000258
0.000225
0.000255
0.000244
0.000261
0.000256
0.000254
0.000259
0.000263
0.000242
0.000258
0.000275
0.000254
0.000255
0.000263
0.000246
0.000252
0.001320
0.000259
0.000592
0.000353
0.000389
0.000252
0.000176
0.000056
0.000197
0.000233
0.000243
0.000254
0.000420
0.000229
0.000242
0.000243
0.000254
0.000372
0.000467
0.000331
0.000219
0.000233
0.000261
0.000258
0.000258
0.000258
0.000250
0.000258
0.000259
0.000259
0.000259
0.000479
0.000464
0.000439
0.000221
0.000270
0.001360
0.000250
0.000186
0.000056
0.000326
0.000396
0.000329
0.000270
0.000211
0.000223
0.000232
0.000248
0.000259
0.000257
0.000245
0.000259
0.000301
0.000324
0.000506
0.000353
0.000342
0.000218
0.000248
0.000260
0.000261
0.000289
0.000247
0.000267
0.000269
0.000260
0.000451
0.000422
0.000527
0.000222
0.000149
0.000055
0.000186
0.000240
0.001253
0.000437
0.000274
0.000474
0.000379
0.000498
0.000260
0.000344
0.000225
0.000237
0.000253
0.000260
0.000248
0.000268
0.000411
0.000462
0.000388
0.000338
0.000274
0.000233
0.000265
0.000494
0.000235
0.000262
0.000256
0.000278
0.000304
0.000554
0.000289
0.000055
0.000368
0.000314
0.000236
0.000231
0.001560
0.000541
0.000219
0.000255
0.000244
0.000249
0.000232
0.000240
0.000246
0.000269
0.000247
0.000260
0.000238
0.000287
0.000381
0.000408
0.000435
0.000251
0.000252
0.000254
0.000264
0.000272
0.000279
0.000230
0.000269
0.000277
0.000194
0.000056
0.000453
0.000265
0.000220
0.000237
0.000254
0.000241
0.000267
0.000228
0.000241
0.000224
0.001388
0.000488
0.000266
0.000251
0.000233
0.000258
0.000276
0.000262
0.000234
0.000310
0.000235
0.000257
0.000257
0.000430
0.000561
0.000295
0.000236
0.000269
0.000277
0.000284
0.000169
0.000055
0.000198
0.000413
0.000220
0.000236
0.000429
0.000352
0.000386
0.000303
0.000464
0.000207
0.000231
0.000265
0.000251
0.000264
0.000256
0.001475
0.000303
0.000284
0.000246
0.000266
0.000302
0.000229
0.000255
0.000251
0.000259
0.000279
0.000450
0.000445
0.000285
0.000272
0.000157
0.000055
0.000209
0.000238
0.000257
0.000234
0.000225
0.000264
0.000241
0.000248
0.000301
0.000343
0.000434
0.000299
0.000241
0.000252
0.000250
0.000271
0.000278
0.000257
0.000277
0.000222
0.000249
0.000316
0.001254
0.000248
0.000266
0.000251
0.000258
0.000272
0.000255
0.000259
0.000193
0.000057
0.000244
0.000319
0.000372
0.000351
0.000242
0.000241
0.000261
0.000292
0.000235
0.000259
0.000237
0.000269
0.000258
0.000234
0.000262
0.000264
0.000260
0.000267
0.000268
0.000250
0.000253
0.000268
0.000266
0.000283
0.000291
0.000266
0.000268
0.000317
0.000203
0.000455
0.001341
0.000056
0.000219
0.000247
0.000225
0.000264
0.000231
0.000258
0.000264
0.000207
0.000246
0.000253
0.000272
0.000266
0.000243
0.000241
0.000276
0.000222
0.001738
0.000240
0.000249
0.000262
0.000242
0.000261
0.000278
0.000256
0.000294
0.000239
0.000267
0.000280
0.000266
0.000257
0.000219
0.000058
0.000266
0.000335
0.001278
0.000226
0.000233
0.000246
0.000252
0.000249
0.000278
0.000241
0.000257
0.000326
0.000385
0.000520
0.000198
0.000239
0.000247
0.000253
0.000259
0.000267
0.000244
0.000276
0.000259
0.000283
0.000264
0.000505
0.000243
0.000397
0.000289
0.000249
0.000188
0.000055
0.000225
0.000250
0.000244
0.000247
0.000278
0.000199
0.000237
0.000248
0.000462
0.001302
0.000265
0.000207
0.000261
0.000268
0.000258
0.000290
0.000231
0.000262
0.000297
0.000526
0.000310
0.000227
0.000243
0.000246
0.000280
0.000289
0.000258
0.000292
0.000265
0.000280
0.000194
0.000055
0.000289
0.000337
0.000406
0.000225
0.000225
0.000232
0.000245
0.000282
0.000262
0.000246
0.000245
0.000240
0.000446
0.000501
0.000485
0.001437
0.000255
0.000273
0.000314
0.000350
0.000477
0.000425
0.000526
0.000349
0.000232
0.000265
0.000267
0.000271
0.000265
0.000273
0.000201
0.000055
0.000211
0.000319
0.000394
0.000478
0.000345
0.000240
0.000249
0.000238
0.000242
0.000269
0.000237
0.000267
0.000278
0.000223
0.000270
0.000301
0.000380
0.000439
0.000329
0.001325
0.000267
0.000255
0.000259
0.000262
0.000463
0.000505
0.000320
0.000246
0.000272
0.000271
0.000191
0.000055
0.000205
0.000261
0.000221
0.000266
0.000226
0.000274
0.000445
0.000387
0.000384
0.000213
0.000241
0.000258
0.000272
0.000289
0.000239
0.000268
0.000249
0.000259
0.000279
0.000349
0.000371
0.000431
0.000320
0.001342
0.000427
0.000230
0.000266
0.000394
0.000457
0.000414
0.000260
0.000056
0.000206
0.000227
0.000248
0.000248
0.000252
0.000255
0.001676
0.000261
0.000201
0.000243
0.000249
0.000248
0.000249
0.000323
0.000329
0.000287
0.000290
0.000327
0.000518
0.000352
0.000306
0.000276
0.000236
0.000254
0.001496
0.000333
0.000447
0.000420
0.000341
0.000302
0.000169
0.000057
0.000221
0.000251
0.000253
0.000260
0.000241
0.000267
0.001699
0.000245
0.000232
0.000267
0.000326
0.000404
0.001443
0.000367
0.000395
0.000248
0.000261
0.000227
0.000265
0.000279
0.001517
0.000572
0.000402
0.000294
0.000239
0.000251
0.000261
0.000286
0.000242
0.000253
0.000193
0.000056
0.000218
0.000237
0.000270
0.000245
0.000261
0.000302
0.000253
0.000264
0.000240
0.000256
0.000246
0.000252
0.000289
0.000243
0.000247
0.001492
0.000285
0.000233
0.000268
0.000288
0.000265
0.000253
0.001425
0.000334
0.000216
0.000235
0.000275
0.000253
0.000402
0.000241
0.000197
0.000057
0.000172
0.000254
0.000220
0.000250
0.000237
0.000229
0.000232
0.001687
0.000280
0.000205
0.000358
0.000265
0.000228
0.000224
0.000256
0.001378
0.000242
0.000262
0.000272
0.000258
0.000247
0.000347
0.000295
0.001300
0.000313
0.000205
0.000257
0.001433
0.000301
0.000197
0.000191
0.000056
0.000292
0.000316
0.000218
0.000228
0.000264
0.000229
0.000283
0.000248
0.000263
0.000251
0.000257
0.000264
0.000253
0.000241
0.000372
0.001470
0.000225
0.000267
0.000259
0.000259
0.000265
0.000264
0.000252
0.001503
0.000351
0.000236
0.000273
0.001299
0.000242
0.000244
0.000312
0.000056
0.000274
0.000349
0.000346
0.000211
0.000238
0.000235
0.000264
0.000255
0.000278
0.000258
0.000237
0.000257
0.000254
0.000307
0.000376
0.001229
0.000230
0.000249
0.000271
0.000274
0.000226
0.000244
0.000256
0.000322
0.001306
0.000215
0.000264
0.000254
0.000253
0.001340
0.000294
0.000056
0.000285
0.000250
0.000227
0.000232
0.000239
0.000253
0.000245
0.000247
0.000299
0.000250
0.000223
0.000253
0.000248
0.000373
0.000359
0.001476
0.000232
0.000249
0.000297
0.000511
0.000279
0.000467
0.001278
0.000307
0.000233
0.000267
0.000256
0.001298
0.000305
0.000476
0.000337
0.000056
0.000230
0.000248
0.000255
0.000257
0.000248
0.000263
0.000267
0.000264
0.000247
0.000263
0.000370
0.000401
0.001335
0.000244
0.000279
0.000256
0.000278
0.000244
0.000224
0.000238
0.000330
0.001254
0.000248
0.000249
0.000259
0.000262
0.001455
0.000486
0.000466
0.000220
0.000198
0.000055
0.000206
0.000231
0.000254
0.000231
0.000257
0.000263
0.000257
0.000260
0.000464
0.000429
0.000269
0.001491
0.000214
0.000243
0.000274
0.000250
0.000256
0.000376
0.001594
0.000252
0.000391
0.000342
0.001249
0.000391
0.000317
0.000320
0.000257
0.000264
0.000262
0.000265
0.000195
0.000055
0.000210
0.000237
0.000333
0.000263
0.000307
0.000544
0.000267
0.000292
0.001470
0.000237
0.000387
0.000270
0.000246
0.000273
0.000419
0.001285
0.000276
0.000236
0.000243
0.000269
0.001510
0.000404
0.000284
0.000253
0.000271
0.000248
0.000459
0.000323
0.000264
0.000254
0.000242
0.000055
0.000243
0.000369
0.000336
0.000286
0.000205
0.001516
0.000250
0.000226
0.000269
0.000267
0.000269
0.000240
0.000325
0.001456
0.000270
0.000222
0.000438
0.001187
0.000407
0.000364
0.000404
0.000241
0.000245
0.000255
0.000295
0.000224
0.000448
0.000233
0.000267
0.000292
0.000174
0.000057
0.000216
0.000246
0.000388
0.000349
0.001282
0.000287
0.000334
0.000230
0.000235
0.000239
0.000248
0.000295
0.001515
0.000266
0.000225
0.000247
0.001379
0.000261
0.000438
0.000426
0.000392
0.000231
0.000278
0.000233
0.000268
0.000276
0.000262
0.000262
0.000274
0.000251
0.000198
0.000058
0.000212
0.000352
0.001500
0.000225
0.000260
0.000299
0.000237
0.000233
0.000260
0.000358
0.001413
0.000219
0.000256
0.000263
0.000263
0.001256
0.000714
0.000275
0.000320
0.000410
0.000304
0.000253
0.000265
0.000262
0.000267
0.000290
0.000274
0.000286
0.000485
0.000385
0.001385
0.000056
0.000202
0.000245
0.000245
0.000227
0.000279
0.000566
0.000337
0.001251
0.000252
0.000239
0.000247
0.001460
0.000437
0.000297
0.000231
0.000415
0.000240
0.000245
0.000267
0.000284
0.000250
0.000250
0.000283
0.000273
0.000232
0.000299
0.000419
0.000479
0.001501
0.000233
0.000184
0.000057
0.000196
0.000259
0.000406
0.000436
0.001287
0.000299
0.000234
0.000261
0.000241
0.000254
0.000254
0.000312
0.000309
0.000533
0.000300
0.000235
0.000257
0.000274
0.000243
0.000305
0.000235
0.000263
0.000254
0.000266
0.000263
0.000376
0.000460
0.000357
0.000333
0.001405
0.000189
0.000056
0.000202
0.000243
0.000265
0.000486
0.000317
0.000309
0.000316
0.000332
0.000295
0.000268
0.000224
0.000266
0.000249
0.000306
0.000246
0.000348
0.000463
0.000344
0.000296
0.000385
0.000274
0.000409
0.000238
0.000238
0.000258
0.000268
0.000247
0.000299
0.000385
0.000471
0.000285
0.000056
0.000207
0.001405
0.000222
0.000340
0.000600
0.000186
0.000419
0.000331
0.000201
0.000248
0.000264
0.000251
0.000284
0.000249
0.000264
0.000254
0.000260
0.001340
0.000287
0.000245
0.000259
0.000273
0.000269
0.000279
0.000269
0.000253
0.000273
0.000247
0.000394
0.000331
0.000350
0.000058
0.000199
0.000242
0.000242
0.001498
0.000339
0.000223
0.000227
0.000257
0.000229
0.000245
0.000246
0.000285
0.000241
0.000250
0.000294
0.000239
0.000251
0.000254
0.000256
0.000261
0.001425
0.000233
0.000250
0.000273
0.000265
0.000244
0.000272
0.000261
0.000274
0.000497
0.000342
0.000056
0.000223
0.000223
0.000391
0.000288
0.000238
0.000262
0.001519
0.000361
0.000288
0.000220
0.000265
0.000309
0.000330
0.000228
0.000232
0.000251
0.000246
0.000260
0.000261
0.000256
0.000501
0.000479
0.001129
0.000272
0.000242
0.000259
0.000269
0.000260
0.000296
0.000238
0.000344
0.000056
0.000260
0.000304
0.000220
0.000237
0.000246
0.000243
0.000242
0.000227
0.000292
0.001594
0.000397
0.000267
0.000243
0.000253
0.000254
0.000246
0.000261
0.000276
0.000259
0.000310
0.000356
0.000518
0.000381
0.001359
0.000234
0.000277
0.000255
0.000261
0.000270
0.000278
0.000453
0.000056
0.000278
0.000264
0.000225
0.000233
0.000224
0.000240
0.000259
0.000284
0.000256
0.001653
0.000278
0.000253
0.000246
0.000261
0.000453
0.000253
0.000550
0.000374
0.000276
0.000266
0.000492
0.000467
0.001293
0.000255
0.000240
0.000251
0.001685
0.000501
0.000594
0.000324
0.000142
0.000056
0.000212
0.000232
0.000238
0.000237
0.000254
0.000244
0.000249
0.000791
0.000198
0.000434
0.000281
0.000214
0.000245
0.000265
0.000281
0.000269
0.000234
0.000246
0.000253
0.000285
0.000248
0.000429
0.001340
0.000234
0.000243
0.000273
0.001897
0.000387
0.000450
0.000279
0.000150
0.000057
0.000243
0.000243
0.000242
0.001669
0.000324
0.000211
0.000253
0.000245
0.000255
0.000273
0.000378
0.000367
0.000378
0.000269
0.000306
0.000558
0.000352
0.001184
0.000271
0.000241
0.000256
0.000261
0.000276
0.000528
0.000468
0.000496
0.000235
0.000269
0.000272
0.000282
0.000187
0.000056
0.000181
0.000238
0.000240
0.001535
0.000263
0.000228
0.000240
0.000254
0.000243
0.000249
0.000258
0.000265
0.000268
0.000277
0.000237
0.000416
0.000486
0.000287
0.001375
0.000241
0.000248
0.000272
0.000255
0.000263
0.000380
0.000567
0.000358
0.000257
0.000289
0.000237
0.000445
0.000057
0.000188
0.000240
0.000273
0.001530
0.000315
0.000199
0.000265
0.000244
0.000255
0.000258
0.000254
0.000273
0.000239
0.000288
0.000380
0.000495
0.001382
0.000757
0.000282
0.000318
0.000239
0.000251
0.000236
0.000280
0.001667
0.000823
0.000224
0.000259
0.000281
0.000277
0.000191
0.000056
0.000207
0.000230
0.000253
0.000246
0.000266
0.000265
0.000216
0.000258
0.000236
0.000229
0.000293
0.000275
0.000260
0.000247
0.000260
0.000247
0.000277
0.001602
0.000693
0.000348
0.000339
0.000239
0.000247
0.000307
0.000248
0.000270
0.000255
0.000257
0.001394
0.000393
0.000294
0.000056
0.000189
0.000229
0.000272
0.000242
0.000251
0.000227
0.000279
0.000231
0.000254
0.000263
0.000248
0.000666
0.000216
0.000328
0.000217
0.000248
0.000269
0.001388
0.000688
0.000473
0.000352
0.000268
0.000230
0.000249
0.000273
0.000260
0.000249
0.000277
0.001469
0.000410
0.000221
0.000055
0.000190
0.000227
0.000246
0.000251
0.000251
0.000242
0.000234
0.000252
0.000271
0.000276
0.000398
0.000324
0.000345
0.000214
0.000247
0.000246
0.000263
0.000259
0.001600
0.000586
0.000498
0.000290
0.000235
0.000254
0.000256
0.000266
0.000268
0.000278
0.000268
0.001352
0.000332
0.000056
0.000207
0.000219
0.000234
0.000256
0.000261
0.000243
0.000252
0.000298
0.000361
0.000432
0.000416
0.000371
0.000342
0.000221
0.000251
0.000245
0.000297
0.000247
0.000264
0.001999
0.000238
0.000248
0.000446
0.000237
0.000252
0.000267
0.000267
0.000264
0.000275
0.000263
0.000350
0.000058
0.000279
0.000226
0.000242
0.000238
0.000257
0.000252
0.000226
0.000238
0.000267
0.000268
0.000229
0.000235
0.000357
0.000327
0.000529
0.000423
0.000231
0.000270
0.000248
0.000252
0.000253
0.000280
0.001496
0.001031
0.000222
0.000252
0.000271
0.000260
0.000280
0.000252
0.000205
0.000057
0.000201
0.001346
0.000294
0.000207
0.000233
0.000254
0.000253
0.000238
0.000240
0.000263
0.000246
0.000264
0.000241
0.000345
0.000424
0.000442
0.000264
0.000259
0.000259
0.000264
0.000281
0.000222
0.000255
0.000267
0.001313
0.000697
0.000296
0.000377
0.000376
0.000403
0.000294
0.000058
0.000200
0.000245
0.000362
0.001306
0.000213
0.000250
0.000235
0.000259
0.000256
0.000257
0.000248
0.000248
0.000267
0.000335
0.000598
0.000303
0.000210
0.000279
0.000328
0.000217
0.000247
0.000274
0.000235
0.000272
0.000268
0.001546
0.000732
0.000319
0.000259
0.000273
0.000192
0.000056
0.000213
0.000248
0.000469
0.000360
0.001260
0.000247
0.000233
0.000240
0.000232
0.000250
0.000251
0.000256
0.000233
0.000235
0.000254
0.000250
0.000269
0.000240
0.000257
0.000257
0.000264
0.000268
0.000298
0.000332
0.000222
0.000268
0.000263
0.001458
0.000282
0.000229
0.000171
0.000057
0.000186
0.000235
0.000252
0.000257
0.000350
0.000373
0.000398
0.000280
0.001580
0.000234
0.000279
0.000486
0.000370
0.000235
0.000437
0.000232
0.000241
0.000260
0.000274
0.000286
0.000261
0.000270
0.000250
0.000269
0.000244
0.000450
0.000373
0.000330
0.001576
0.000224
0.000196
0.000057
0.000229
0.000241
0.000247
0.000249
0.000241
0.000244
0.000263
0.000315
0.000409
0.002022
0.000226
0.000257
0.000257
0.000257
0.000267
0.000299
0.000217
0.000256
0.000261
0.000569
0.000281
0.000406
0.001446
0.000247
0.000284
0.001971
0.000284
0.000240
0.000271
0.001521
0.000158
0.000056
0.000328
0.000409
0.000484
0.000245
0.000270
0.000215
0.000263
0.000265
0.000262
0.000230
0.000250
0.000341
0.000428
0.000348
0.000435
0.000222
0.000225
0.001583
0.000229
0.000580
0.001867
0.000292
0.000237
0.001642
0.001922
0.000741
0.000277
0.000268
0.000282
0.000424
0.000419
0.000055
0.000211
0.000238
0.000279
0.000218
0.002948
0.000243
0.001040
0.000203
0.000240
0.001584
0.001970
0.000224
0.000232
0.000425
0.000336
0.000338
0.000364
0.000524
0.000208
0.000243
0.000251
0.000254
0.000277
0.001602
0.001227
0.001388
0.000294
0.000283
0.000252
0.000328
0.000329
0.000056
0.000207
0.000238
0.000240
0.000246
0.000227
0.000243
0.000250
0.000257
0.000256
0.000242
0.000244
0.000292
0.000525
0.000428
0.000274
0.000229
0.000270
0.000256
0.000267
0.000282
0.000240
0.000263
0.001524
0.000465
0.002111
0.000244
0.000257
0.000300
0.000468
0.000387
0.000189
0.000055
0.000210
0.000431
0.000413
0.000312
0.000196
0.000226
0.000253
0.000241
0.000245
0.000242
0.000245
0.000266
0.000260
0.001606
0.001353
0.001230
0.000270
0.000249
0.000241
0.000269
0.000284
0.000281
0.000238
0.000252
0.002206
0.000252
0.000250
0.000304
0.000336
0.000293
0.000218
0.000058
0.000216
0.000382
0.000550
0.000296
0.000241
0.000232
0.000245
0.000266
0.001907
0.001413
0.000218
0.000327
0.000388
0.000409
0.000260
0.000228
0.000267
0.000264
0.000279
0.000248
0.000259
0.000261
0.000479
0.000232
0.000272
0.000266
0.000247
0.000281
0.000280
0.000245
0.000205
0.000057
0.000198
0.000249
0.000245
0.000246
0.000277
0.000247
0.001531
0.001427
0.001319
0.000240
0.000236
0.000242
0.000266
0.000261
0.000254
0.000242
0.000255
0.002091
0.000259
0.000247
0.000254
0.000263
0.000259
0.000264
0.000267
0.000258
0.000270
0.000251
0.000274
0.000260
0.000178
0.000056
0.000206
0.002680
0.001401
0.000216
0.000303
0.000328
0.000207
0.000285
0.000234
0.000240
0.000253
0.000245
0.000233
0.000254
0.000265
0.000255
0.000273
0.000274
0.000262
0.000251
0.000266
0.000280
0.000282
0.000263
0.000244
0.000241
0.000269
0.000279
0.000257
0.000264
0.000372
0.000056
0.001550
0.000256
0.001233
0.000233
0.000218
0.000238
0.000262
0.000279
0.000222
0.000258
0.000422
0.000349
0.000348
0.000196
0.000259
0.002141
0.000235
0.000256
0.000272
0.000520
0.000429
0.000219
0.000230
0.000260
0.000268
0.000245
0.000268
0.000282
0.000262
0.001620
0.001254
0.000055
0.000208
0.000223
0.000317
0.000398
0.000344
0.000272
0.000215
0.000236
0.000247
0.000256
0.000267
0.000240
0.000233
0.000252
0.000269
0.000239
0.000330
0.000598
0.000368
0.000247
0.000223
0.000281
0.000277
0.000252
0.000254
0.000243
0.000265
0.000276
0.000240
0.000293
0.000387
0.000056
0.001119
0.000246
0.000337
0.000453
0.000287
0.000238
0.000217
0.000239
0.000251
0.002368
0.000294
0.000388
0.000241
0.000366
0.000302
0.000254
0.000242
0.000253
0.000271
0.000219
0.000252
0.000323
0.000537
0.000540
0.001808
0.001293
0.000580
0.000497
0.000246
0.000274
0.000195
0.000057
0.000244
0.000341
0.000249
0.000257
0.000241
0.000223
0.000255
0.000252
0.000255
0.000246
0.000253
0.000226
0.000246
0.000280
0.000384
0.000479
0.001851
0.001347
0.000420
0.000441
0.000464
0.000241
0.000240
0.000259
0.002184
0.000541
0.000343
0.000237
0.000278
0.000279
0.000207
0.000056
0.000204
0.000241
0.000256
0.000248
0.000238
0.000341
0.000418
0.000265
0.000365
0.000217
0.000261
0.000236
0.000261
0.002102
0.000454
0.000311
0.000206
0.000257
0.000287
0.000243
0.000248
0.002470
0.000319
0.000237
0.000248
0.000255
0.000254
0.000280
0.000298
0.000257
0.000189
0.000056
0.000197
0.000313
0.000552
0.000396
0.000250
0.000228
0.000235
0.000255
0.000264
0.000257
0.001925
0.000412
0.000265
0.000272
0.000241
0.000269
0.000278
0.000236
0.002204
0.000446
0.000225
0.000273
0.000274
0.000255
0.000251
0.000253
0.000300
0.000237
0.000266
0.000253
0.000188
0.000056
0.000229
0.000237
0.000251
0.000224
0.000243
0.000256
0.000250
0.000232
0.000236
0.002181
0.000220
0.000280
0.000221
0.000432
0.000228
0.000252
0.000301
0.000266
0.000252
0.000252
0.001967
0.000271
0.000350
0.000350
0.000445
0.000401
0.000308
0.000248
0.000260
0.000257
0.000199
0.000055
0.000196
0.000236
0.000241
0.000253
0.000263
0.000305
0.000218
0.002314
0.000241
0.000230
0.000262
0.000254
0.000240
0.000276
0.000282
0.002113
0.000595
0.000224
0.000250
0.000249
0.000255
0.000259
0.000289
0.000269
0.000261
0.000251
0.000290
0.000255
0.000261
0.000266
0.000196
0.000055
0.001837
0.001441
0.000201
0.000224
0.000243
0.000257
0.000252
0.000274
0.000480
0.000276
0.002156
0.000267
0.000304
0.000196
0.000336
0.000485
0.000412
0.000255
0.000221
0.000249
0.000250
0.000268
0.000265
0.000224
0.000263
0.000268
0.000261
0.000268
0.000340
0.000630
0.000327
0.000056
0.000209
0.000253
0.000243
0.000248
0.000270
0.000248
0.000252
0.000241
0.001459
0.002139
0.000604
0.000248
0.000447
0.000659
0.000348
0.000236
0.000262
0.000246
0.000264
0.000263
0.000257
0.000239
0.000252
0.000271
0.003009
0.000331
0.000236
0.000266
0.000294
0.000344
0.000348
0.000057
0.001922
0.000239
0.000231
0.000236
0.000271
0.000380
0.000486
0.000262
0.000285
0.000219
0.000251
0.000244
0.000256
0.000262
0.000264
0.000254
0.000252
0.000286
0.001818
0.000239
0.000240
0.000254
0.000274
0.000285
0.000268
0.000256
0.001520
0.000275
0.000249
0.000261
0.000168
0.000056
0.000201
0.000235
0.000239
0.000242
0.000256
0.000236
0.000277
0.000423
0.000454
0.000251
0.000209
0.000235
0.000257
0.000326
0.000425
0.000318
0.000237
0.000242
0.000266
0.000414
0.000423
0.000420
0.000271
0.000251
0.000259
0.000256
0.000251
0.000269
0.000280
0.000261
0.000205
0.000056
0.001460
0.000422
0.000227
0.001969
0.000286
0.000374
0.000439
0.000319
0.000224
0.000245
0.000263
0.000247
0.000250
0.000247
0.000267
0.000255
0.000451
0.000268
0.000430
0.000372
0.000351
0.000227
0.000259
0.000272
0.000268
0.000270
0.000261
0.000270
0.000466
0.000399
0.001334
0.000057
0.000199
0.000230
0.002074
0.000388
0.000267
0.000215
0.000259
0.000250
0.000263
0.000263
0.000212
0.000253
0.000254
0.000264
0.000251
0.000358
0.000713
0.001760
0.000234
0.000250
0.000254
0.000270
0.000390
0.000400
0.001593
0.000288
0.000363
0.001923
0.000254
0.000267
0.000197
0.000056
0.000206
0.000228
0.000232
0.000245
0.000231
0.000245
0.000253
0.000283
0.000334
0.000258
0.000384
0.000361
0.000367
0.000273
0.000243
0.000272
0.000258
0.000242
0.000262
0.000260
0.000303
0.000285
0.000267
0.000264
0.000267
0.001502
0.000287
0.000381
0.002072
0.000244
0.000172
0.000056
0.000221
0.000231
0.000242
0.000247
0.000489
0.000204
0.000272
0.000343
0.000349
0.000361
0.000247
0.000204
0.000260
0.000270
0.000274
0.000337
0.000425
0.000427
0.000235
0.000412
0.000525
0.000407
0.001615
0.000228
0.000262
0.001960
0.000348
0.000255
0.000238
0.000299
0.000184
0.000057
0.000215
0.000241
0.000227
0.000242
0.000254
0.000274
0.000251
0.000270
0.000252
0.000275
0.001794
0.000303
0.000387
0.000285
0.000462
0.000360
0.000367
0.001498
0.000233
0.000291
0.002120
0.000560
0.000262
0.000230
0.000268
0.000266
0.000508
0.000227
0.000254
0.000277
0.000195
0.000057
0.000290
0.000316
0.000413
0.000294
0.000196
0.000240
0.000264
0.000249
0.000263
0.000296
0.000225
0.000251
0.000262
0.000252
0.000351
0.000452
0.001330
0.000262
0.000276
0.002051
0.000224
0.000312
0.000218
0.000265
0.000245
0.000279
0.000269
0.000267
0.000248
0.000262
0.000206
0.000055
0.000274
0.000357
0.002047
0.000255
0.000219
0.000252
0.000248
0.000316
0.000421
0.000444
0.001292
0.000370
0.000358
0.002086
0.000202
0.000261
0.000257
0.000278
0.000250
0.000253
0.000277
0.000291
0.000261
0.000329
0.000485
0.000456
0.000260
0.002221
0.000485
0.000475
0.000402
0.000057
0.000200
0.000226
0.000242
0.001962
0.000229
0.000232
0.000254
0.000234
0.000243
0.000257
0.000242
0.000266
0.000256
0.000350
0.000363
0.001459
0.000275
0.000231
0.000268
0.000261
0.000228
0.000251
0.000265
0.000266
0.000344
0.000488
0.000415
0.000239
0.001604
0.000279
0.000157
0.000056
0.000203
0.000224
0.000249
0.000236
0.000257
0.000264
0.000231
0.000248
0.000252
0.000429
0.000325
0.001392
0.000252
0.000214
0.000251
0.000294
0.000223
0.000260
0.000299
0.000527
0.000523
0.000281
0.000228
0.001569
0.000227
0.000261
0.000291
0.000280
0.000261
0.000267
0.000195
0.000056
0.000200
0.000241
0.000267
0.000283
0.000235
0.000244
0.000237
0.000239
0.000276
0.000224
0.000249
0.000257
0.000269
0.001469
0.000366
0.000211
0.000248
0.000263
0.000273
0.000306
0.000374
0.000268
0.000263
0.000250
0.000271
0.000262
0.000258
0.001412
0.000281
0.000228
0.000173
0.000056
0.000209
0.000234
0.000265
0.000258
0.000267
0.000222
0.000246
0.000264
0.000218
0.000265
0.000247
0.000263
0.000220
0.000308
0.000361
0.000319
0.000307
0.000244
0.001640
0.000231
0.000251
0.000255
0.000259
0.000271
0.000399
0.000374
0.000455
0.000269
0.000269
0.001592
0.000162
0.000056
0.000324
0.000340
0.000330
0.000316
0.000236
0.000220
0.000244
0.000275
0.000252
0.000258
0.000226
0.000236
0.001460
0.000284
0.000318
0.000231
0.000241
0.000277
0.000250
0.000265
0.000257
0.000238
0.000255
0.000273
0.000238
0.000426
0.000468
0.000317
0.000261
0.000252
0.000197
0.000057
0.000201
0.000292
0.000408
0.000333
0.000359
0.000307
0.000231
0.000249
0.000248
0.000262
0.000239
0.000242
0.000242
0.000242
0.001247
0.000337
0.000213
0.000247
0.000267
0.000270
0.000237
0.000264
0.000253
0.000265
0.000259
0.000253
0.000285
0.000724
0.000445
0.000236
0.000178
0.000057
0.000196
0.001561
0.000238
0.000360
0.000430
0.000387
0.000214
0.000257
0.000268
0.000258
0.000236
0.000254
0.000270
0.000275
0.000261
0.001518
0.000258
0.000286
0.000263
0.000257
0.000273
0.000240
0.000263
0.000264
0.000255
0.000264
0.000416
0.000384
0.000358
0.000244
0.000192
0.000055
0.000212
0.000255
0.000239
0.001602
0.000543
0.000231
0.000230
0.000237
0.000252
0.000272
0.000284
0.000248
0.000257
0.000256
0.000231
0.000269
0.000363
0.001359
0.000254
0.000238
0.001483
0.000366
0.000519
0.000399
0.000331
0.000237
0.000281
0.000462
0.000235
0.000268
0.000178
0.000056
0.000275
0.000217
0.000250
0.000244
0.000253
0.000253
0.000236
0.000257
0.000269
0.000239
0.000242
0.000256
0.000320
0.000507
0.001649
0.001491
0.000364
0.000514
0.000361
0.000219
0.000229
0.000258
0.000247
0.000274
0.000246
0.000274
0.000255
0.000270
0.001544
0.000298
0.000176
0.000056
0.000185
0.000344
0.000356
0.000333
0.000234
0.000235
0.000243
0.000382
0.000410
0.000340
0.002202
0.000308
0.000760
0.000424
0.000483
0.000257
0.000337
0.000391
0.000333
0.000282
0.000396
0.000263
0.001529
0.000525
0.000223
0.000265
0.000251
0.000257
0.000267
0.000272
0.000193
0.000058
0.000198
0.000251
0.000275
0.000233
0.000239
0.001660
0.000880
0.001000
0.000211
0.000232
0.000259
0.000256
0.000259
0.000262
0.000255
0.000244
0.000259
0.000260
0.000266
0.000282
0.001434
0.000311
0.000247
0.000233
0.000238
0.000256
0.000268
0.000281
0.000263
0.000287
0.001908
0.000056
0.000192
0.000232
0.001538
0.000915
0.000309
0.000396
0.000213
0.000238
0.000250
0.000256
0.000248
0.000254
0.000245
0.002006
0.000441
0.000227
0.000249
0.000250
0.000267
0.000260
0.000196
