0.000138
0.020910
0.000806
0.000310
0.000263
0.000285
0.000315
0.000238
0.000328
0.000287
0.000246
0.000350
0.000469
0.000508
0.000343
0.000418
0.000268
0.000341
0.000353
0.000414
0.000312
0.001871
0.000752
0.000241
0.000282
0.000283
0.000305
0.000330
0.000438
0.000470
0.000390
0.000361
0.000058
0.000199
0.000272
0.000271
0.000265
0.000269
0.000247
0.000278
0.000262
0.000273
0.000272
0.000448
0.000510
0.000242
0.000259
0.000420
0.000301
0.000363
0.000255
0.000244
0.001708
0.000342
0.000227
0.000450
0.000237
0.000292
0.000268
0.000281
0.000300
0.000279
0.000349
0.000376
0.000058
0.000238
0.000248
0.000262
0.000264
0.000253
0.000242
0.000265
0.000254
0.000288
0.001671
0.000224
0.000233
0.000267
0.000276
0.000275
0.000250
0.000265
0.000259
0.000357
0.001790
0.000242
0.000272
0.000453
0.000483
0.000339
0.000237
0.000248
0.000461
0.000666
0.000607
0.000203
0.000056
0.000227
0.000249
0.000255
0.000265
0.000281
0.000245
0.000253
0.000598
0.000393
0.000262
0.000246
0.000249
0.000237
0.000257
0.000251
0.000261
0.000240
0.000273
0.000300
0.000325
0.001668
0.000286
0.000252
0.000412
0.000299
0.000690
0.000642
0.000561
0.000346
0.000227
0.000190
0.000057
0.000212
0.000255
0.000267
0.000241
0.000255
0.000259
0.000285
0.000666
0.001250
0.000213
0.000246
0.000240
0.000257
0.000259
0.000269
0.000286
0.000283
0.000803
0.001374
0.000277
0.000465
0.000260
0.000205
0.000253
0.000242
0.000253
0.000266
0.000274
0.000263
0.000260
0.000197
0.000058
0.000192
0.000246
0.000244
0.000262
0.000239
0.000256
0.000228
0.000259
0.000234
0.000255
0.001628
0.000269
0.000237
0.000234
0.000251
0.000251
0.000245
0.000285
0.000220
0.000259
0.000273
0.001655
0.000298
0.000243
0.000444
0.000251
0.000261
0.000246
0.000269
0.000267
0.000195
0.000057
0.000209
0.000229
0.000254
0.000249
0.000238
0.000248
0.000262
0.000234
0.000268
0.000238
0.000266
0.000252
0.000263
0.000274
0.001646
0.000270
0.000292
0.000216
0.000257
0.000274
0.000261
0.000245
0.000244
0.000262
0.001785
0.000354
0.000384
0.000349
0.000258
0.000282
0.000187
0.000056
0.000223
0.000243
0.000242
0.000272
0.000252
0.000235
0.000353
0.000347
0.000408
0.000444
0.000196
0.000265
0.000238
0.000248
0.001565
0.000529
0.000374
0.000356
0.000321
0.000226
0.000265
0.000283
0.000270
0.001729
0.000508
0.000480
0.000254
0.000269
0.000210
0.000271
0.000183
0.000056
0.000201
0.000236
0.000255
0.000266
0.000344
0.000435
0.000423
0.000236
0.000208
0.000245
0.000262
0.000239
0.000261
0.001713
0.000482
0.000290
0.000225
0.000259
0.000265
0.000286
0.000247
0.000250
0.000282
0.001933
0.000268
0.000379
0.000256
0.000265
0.000249
0.000412
0.000324
0.000057
0.000213
0.000385
0.000399
0.000235
0.000251
0.000251
0.000253
0.000260
0.000232
0.000242
0.000232
0.000247
0.001563
0.000327
0.000336
0.000220
0.000260
0.000249
0.000248
0.000294
0.000268
0.000334
0.000235
0.001812
0.000259
0.000500
0.000243
0.000287
0.000221
0.000265
0.000295
0.000057
0.000385
0.000536
0.000601
0.000221
0.000223
0.000283
0.000224
0.000222
0.000263
0.000248
0.000258
0.001698
0.000247
0.000440
0.000373
0.000230
0.000235
0.000227
0.000241
0.000273
0.000254
0.001854
0.000240
0.000230
0.002083
0.000536
0.000344
0.000249
0.000249
0.000276
0.000179
0.000057
0.000208
0.000238
0.000244
0.000247
0.000256
0.001621
0.000249
0.000231
0.000257
0.000246
0.000248
0.000243
0.000274
0.000229
0.000297
0.000462
0.000576
0.000236
0.000232
0.000267
0.000270
0.000244
0.000247
0.000434
0.000432
0.000282
0.000369
0.000527
0.000456
0.000234
0.000211
0.000057
0.000221
0.000233
0.000251
0.000254
0.000229
0.000249
0.000263
0.000454
0.000355
0.001719
0.000224
0.000230
0.000244
0.000248
0.000256
0.000305
0.000403
0.000492
0.000335
0.000249
0.000245
0.000299
0.000289
0.000264
0.000271
0.000430
0.000348
0.000577
0.000490
0.000449
0.000172
0.000056
0.000215
0.000262
0.000235
0.000225
0.000240
0.000238
0.000248
0.000250
0.000241
0.000293
0.000343
0.000397
0.001419
0.000270
0.000225
0.000230
0.000263
0.000246
0.000248
0.000270
0.000343
0.000424
0.000373
0.000261
0.000260
0.000259
0.000253
0.000271
0.000265
0.000260
0.000392
0.000056
0.000205
0.000236
0.000227
0.000264
0.000541
0.000436
0.000235
0.000250
0.000234
0.000263
0.000245
0.000241
0.000296
0.000248
0.000237
0.000476
0.000470
0.001611
0.000264
0.000237
0.000262
0.000257
0.000263
0.000256
0.000241
0.000433
0.000506
0.000369
0.000381
0.000230
0.000197
0.000057
0.000225
0.000432
0.000251
0.000197
0.000267
0.000243
0.000304
0.000558
0.000323
0.000326
0.000218
0.000275
0.000266
0.000240
0.000516
0.000348
0.000228
0.000256
0.000384
0.001647
0.000273
0.000254
0.000509
0.000238
0.000285
0.000289
0.000243
0.000458
0.000443
0.000380
0.000270
0.000057
0.000182
0.000241
0.000237
0.000237
0.000416
0.000310
0.000295
0.000216
0.000375
0.000550
0.000360
0.000218
0.000234
0.000251
0.000253
0.000270
0.000253
0.000255
0.000223
0.000356
0.000289
0.000352
0.001828
0.000243
0.000257
0.000251
0.000303
0.000352
0.000431
0.000660
0.000431
0.000057
0.000255
0.000307
0.000282
0.000420
0.000399
0.000199
0.000257
0.000306
0.000537
0.000383
0.000250
0.000245
0.000237
0.000271
0.000263
0.000235
0.000261
0.000260
0.000276
0.000257
0.000296
0.000412
0.000629
0.001340
0.000332
0.000433
0.000415
0.000256
0.000404
0.000443
0.000304
0.000057
0.000240
0.000382
0.000268
0.000215
0.000223
0.000236
0.000421
0.000242
0.000219
0.000375
0.000423
0.000439
0.000254
0.000252
0.000263
0.000251
0.000365
0.000389
0.000365
0.000222
0.000239
0.000313
0.000703
0.001685
0.000235
0.000460
0.000289
0.000243
0.000246
0.000457
0.000268
0.000058
0.000232
0.000220
0.000245
0.000249
0.000245
0.000246
0.000251
0.000323
0.000467
0.000260
0.000481
0.000400
0.000234
0.000574
0.000248
0.000240
0.000274
0.000260
0.000240
0.000356
0.000224
0.000234
0.000275
0.000459
0.000426
0.001677
0.000268
0.000237
0.000245
0.000268
0.000180
0.000056
0.000394
0.000398
0.000321
0.000223
0.000244
0.000269
0.000243
0.000238
0.000257
0.000254
0.000222
0.000248
0.000450
0.000488
0.000413
0.000274
0.000250
0.000240
0.000349
0.000387
0.000382
0.000361
0.000391
0.000334
0.000236
0.000283
0.000245
0.000273
0.001790
0.000251
0.000214
0.000057
0.000202
0.000220
0.000257
0.000286
0.000355
0.000544
0.000306
0.000211
0.000257
0.000268
0.000242
0.000250
0.000522
0.000455
0.000504
0.000259
0.000268
0.000264
0.000419
0.000471
0.000353
0.000395
0.000506
0.000427
0.000245
0.000236
0.000278
0.000242
0.000264
0.001720
0.000332
0.000057
0.000263
0.000327
0.000224
0.000214
0.000254
0.000252
0.000243
0.000501
0.000371
0.000310
0.000292
0.000264
0.000360
0.000625
0.000362
0.000228
0.000252
0.000251
0.000248
0.000270
0.000266
0.000266
0.000243
0.000265
0.000332
0.000406
0.000349
0.000356
0.000249
0.000239
0.000184
0.000056
0.000458
0.000280
0.000470
0.000259
0.000206
0.000247
0.000243
0.000252
0.000242
0.000220
0.000249
0.000287
0.000290
0.000438
0.000429
0.000495
0.000314
0.000317
0.000390
0.000333
0.000295
0.000243
0.000242
0.000254
0.001754
0.000261
0.001715
0.000967
0.000352
0.000339
0.000166
0.000056
0.000231
0.000241
0.000213
0.000250
0.000257
0.000247
0.000256
0.000248
0.000249
0.000348
0.000342
0.000427
0.000336
0.000382
0.000249
0.000258
0.000243
0.000292
0.000228
0.000243
0.000251
0.000265
0.001809
0.000247
0.000251
0.000260
0.000280
0.000267
0.001976
0.000418
0.000268
0.000056
0.000257
0.000185
0.000239
0.000239
0.000257
0.000245
0.000241
0.000256
0.000249
0.000698
0.000342
0.000396
0.000243
0.000202
0.000245
0.000241
0.000332
0.000446
0.000373
0.000249
0.001763
0.000263
0.000266
0.000223
0.000262
0.000266
0.000243
0.000256
0.000330
0.000267
0.000418
0.000056
0.000247
0.000200
0.000235
0.000261
0.000248
0.000245
0.000251
0.000253
0.000246
0.000253
0.000237
0.000260
0.000416
0.000424
0.000291
0.000279
0.000459
0.000238
0.000263
0.000245
0.000254
0.000256
0.000277
0.000260
0.000278
0.001791
0.000243
0.000245
0.000267
0.000234
0.000201
0.000055
0.000234
0.000371
0.000253
0.000208
0.000240
0.000230
0.000242
0.000254
0.000247
0.000228
0.000235
0.000260
0.000255
0.000329
0.000437
0.000367
0.000287
0.000230
0.000250
0.000260
0.000262
0.000261
0.000252
0.000265
0.000246
0.000271
0.000283
0.001662
0.000267
0.000234
0.000188
0.000057
0.000202
0.000231
0.000251
0.000271
0.000336
0.000478
0.000268
0.000331
0.000230
0.000247
0.000250
0.000240
0.000249
0.000253
0.000261
0.000260
0.000249
0.000254
0.000254
0.000264
0.000262
0.000270
0.000250
0.000235
0.000245
0.000282
0.000270
0.000266
0.000253
0.000259
0.000196
0.000056
0.000185
0.000238
0.000261
0.000252
0.000229
0.000261
0.000240
0.000259
0.000289
0.000231
0.000242
0.000235
0.000266
0.000239
0.000272
0.000261
0.000253
0.000250
0.000304
0.000240
0.000271
0.000300
0.000278
0.000237
0.000284
0.000277
0.000273
0.000252
0.000246
0.000443
0.000727
0.000056
0.000225
0.000290
0.000223
0.000224
0.000231
0.000262
0.000237
0.000248
0.000271
0.000231
0.000259
0.000306
0.000477
0.000450
0.001569
0.000231
0.000494
0.000224
0.000256
0.000461
0.000400
0.000416
0.000217
0.000280
0.000245
0.000266
0.000281
0.000256
0.000325
0.000239
0.000184
0.000057
0.000380
0.000401
0.000340
0.000316
0.000207
0.000257
0.000248
0.000242
0.000235
0.000251
0.000252
0.000256
0.000251
0.000263
0.000321
0.000510
0.000409
0.001791
0.000231
0.000253
0.000341
0.000415
0.000427
0.000323
0.000317
0.000306
0.000308
0.000230
0.000227
0.000252
0.000200
0.000056
0.000205
0.000252
0.000211
0.000295
0.000393
0.000423
0.000328
0.000255
0.000253
0.000214
0.000249
0.000271
0.000266
0.000262
0.000243
0.000258
0.000295
0.000519
0.000330
0.000433
0.000235
0.001751
0.000326
0.000488
0.000485
0.000488
0.000334
0.000225
0.000242
0.000271
0.000445
0.000056
0.000203
0.000256
0.000232
0.000268
0.000426
0.000447
0.000410
0.000216
0.000234
0.000293
0.000242
0.000264
0.000258
0.000329
0.000275
0.000225
0.000240
0.000379
0.000469
0.000338
0.000502
0.001848
0.000245
0.000436
0.000505
0.000359
0.000231
0.000271
0.000274
0.000262
0.000205
0.000056
0.000220
0.000343
0.000359
0.000390
0.000320
0.000342
0.000321
0.000213
0.000238
0.000263
0.000281
0.000234
0.000241
0.000249
0.000248
0.000271
0.000315
0.000364
0.000512
0.000365
0.000303
0.000219
0.000274
0.001710
0.000435
0.000607
0.000599
0.000222
0.000257
0.000306
0.000157
0.000055
0.000202
0.000229
0.000321
0.000258
0.000250
0.000389
0.000385
0.000344
0.000236
0.000524
0.000236
0.000242
0.000259
0.000277
0.000276
0.000265
0.000210
0.000331
0.000566
0.000369
0.000257
0.000230
0.000257
0.000250
0.000265
0.000271
0.000238
0.000252
0.000266
0.000293
0.000192
0.000057
0.000337
0.000248
0.000233
0.000248
0.000249
0.000260
0.000238
0.000297
0.000243
0.000236
0.000266
0.000354
0.000416
0.000363
0.000388
0.000276
0.000211
0.000248
0.000252
0.000266
0.000295
0.000253
0.000240
0.000251
0.000286
0.000363
0.000421
0.000298
0.000381
0.000224
0.000172
0.000056
0.000198
0.000214
0.000283
0.000246
0.000236
0.000248
0.000261
0.000254
0.000496
0.000207
0.000259
0.000272
0.000233
0.000259
0.000277
0.000273
0.000263
0.000357
0.000223
0.000236
0.000251
0.000267
0.000258
0.000269
0.000273
0.000260
0.000282
0.000239
0.000519
0.000248
0.000149
0.000055
0.000190
0.000232
0.000250
0.000267
0.000224
0.000245
0.000364
0.000408
0.000238
0.000236
0.000249
0.000256
0.000232
0.000230
0.000420
0.001850
0.000226
0.000271
0.000282
0.000389
0.000367
0.000357
0.000357
0.000381
0.000397
0.000415
0.000235
0.000267
0.000272
0.000277
0.001385
0.000056
0.000392
0.000291
0.000280
0.000218
0.000233
0.000255
0.000241
0.000245
0.000246
0.000265
0.000246
0.000260
0.000250
0.000361
0.000427
0.001681
0.000246
0.000228
0.000236
0.000266
0.000240
0.000261
0.000369
0.000395
0.000281
0.000363
0.000213
0.000268
0.000279
0.000257
0.000200
0.000075
0.001190
0.000519
0.000341
0.000267
0.000242
0.000212
0.000236
0.000241
0.000486
0.000246
0.000225
0.000240
0.000346
0.000565
0.000359
0.000346
0.000248
0.000225
0.000344
0.000353
0.000270
0.000252
0.000273
0.000235
0.000268
0.000566
0.000618
0.000220
0.000250
0.000262
0.000178
0.000056
0.000211
0.000207
0.000243
0.000249
0.001505
0.000265
0.000217
0.000260
0.000233
0.000255
0.000252
0.000252
0.000238
0.000264
0.000286
0.000232
0.000510
0.000615
0.000272
0.001741
0.000278
0.000273
0.000305
0.000384
0.000611
0.000366
0.000254
0.000247
0.000250
0.000272
0.000202
0.000056
0.000220
0.000246
0.000235
0.000287
0.001288
0.000233
0.000251
0.000263
0.000240
0.000238
0.000236
0.000248
0.000283
0.000247
0.000247
0.000278
0.000539
0.000423
0.000272
0.000253
0.000265
0.000267
0.000251
0.000233
0.000293
0.000258
0.000240
0.000281
0.000277
0.000366
0.000525
0.000057
0.000223
0.000246
0.000236
0.000259
0.000264
0.000246
0.000234
0.000260
0.000275
0.000248
0.001432
0.000223
0.000245
0.000250
0.000246
0.000251
0.000258
0.000269
0.000261
0.000265
0.000288
0.000514
0.000499
0.000302
0.000223
0.000280
0.001760
0.000262
0.000255
0.000314
0.000419
0.000056
0.000224
0.000395
0.000451
0.000502
0.000527
0.000523
0.001505
0.000425
0.000513
0.000651
0.000553
0.000722
0.000484
0.000616
0.000583
0.001881
0.000417
0.000425
0.000399
0.000318
0.000220
0.000301
0.000264
0.000261
0.000269
0.000291
0.000279
0.000289
0.000254
0.000317
0.001347
0.000057
0.000229
0.000223
0.000246
0.000234
0.000255
0.000252
0.000234
0.000254
0.000241
0.000250
0.000240
0.000248
0.000250
0.000257
0.000269
0.000264
0.001807
0.000286
0.000267
0.000238
0.000247
0.000266
0.000259
0.000276
0.000549
0.000266
0.000351
0.000251
0.000253
0.000290
0.000204
0.000056
0.000232
0.001339
0.000324
0.000263
0.000262
0.000238
0.000244
0.000239
0.000236
0.000240
0.000223
0.000232
0.000261
0.000502
0.000362
0.000276
0.000278
0.000247
0.001928
0.000236
0.000238
0.000262
0.000259
0.000274
0.000265
0.000287
0.000259
0.000265
0.000262
0.000313
0.000201
0.000057
0.000198
0.000236
0.000251
0.001442
0.000241
0.000226
0.000251
0.000243
0.000237
0.000270
0.000244
0.000251
0.000245
0.000258
0.000275
0.000237
0.000267
0.000262
0.000274
0.000252
0.000265
0.001771
0.000281
0.001757
0.000254
0.000264
0.000254
0.000262
0.000273
0.000275
0.000196
0.000056
0.000213
0.000244
0.001333
0.000247
0.000249
0.000227
0.000260
0.000257
0.000244
0.000249
0.000244
0.000250
0.000260
0.000273
0.000250
0.000261
0.000262
0.000287
0.000291
0.000228
0.001887
0.000234
0.001833
0.000242
0.000242
0.000283
0.000234
0.000244
0.000254
0.000271
0.000209
0.000056
0.001441
0.000229
0.000232
0.000232
0.000237
0.000240
0.000375
0.000266
0.000249
0.000256
0.000253
0.000265
0.000248
0.000344
0.000386
0.000306
0.000244
0.000271
0.000263
0.000238
0.000277
0.000342
0.000220
0.000258
0.000271
0.000277
0.000270
0.000376
0.000604
0.000370
0.000195
0.000057
0.000216
0.000246
0.000260
0.000305
0.000372
0.000248
0.001721
0.000290
0.000276
0.000259
0.000261
0.000268
0.000269
0.000258
0.000309
0.000304
0.000395
0.000509
0.000383
0.000272
0.000297
0.000275
0.000260
0.000265
0.000328
0.000260
0.000265
0.000247
0.000253
0.000298
0.000426
0.000058
0.000240
0.000468
0.000269
0.000262
0.000248
0.000229
0.000224
0.000250
0.000252
0.000281
0.001523
0.000207
0.000212
0.000256
0.000244
0.000286
0.000271
0.000240
0.000271
0.000267
0.000270
0.000376
0.000554
0.000296
0.000264
0.000288
0.000262
0.000256
0.000236
0.000316
0.000166
0.000056
0.000192
0.000227
0.000272
0.000476
0.000390
0.000266
0.000208
0.000254
0.000248
0.000252
0.000235
0.000248
0.000262
0.000261
0.000241
0.000233
0.000408
0.001205
0.000244
0.000245
0.000299
0.000287
0.000302
0.000418
0.000253
0.000283
0.000610
0.000358
0.000384
0.000242
0.000167
0.000057
0.000207
0.000248
0.000262
0.000261
0.000257
0.000247
0.000360
0.000385
0.000450
0.000273
0.000367
0.000392
0.000387
0.000364
0.000254
0.000236
0.000240
0.000260
0.000367
0.000532
0.001232
0.000222
0.000271
0.000270
0.000238
0.000234
0.000268
0.000324
0.000407
0.000468
0.000232
0.000059
0.000180
0.000238
0.000252
0.000244
0.000252
0.000238
0.000238
0.000256
0.000323
0.000281
0.000453
0.000422
0.000236
0.000236
0.000244
0.000260
0.000246
0.000267
0.000264
0.000247
0.000450
0.000246
0.000357
0.000434
0.000323
0.000243
0.000272
0.000269
0.000253
0.000352
0.000172
0.000056
0.000296
0.000322
0.000303
0.000398
0.000408
0.000381
0.000245
0.000242
0.000250
0.000270
0.000257
0.000262
0.000240
0.000253
0.000236
0.000230
0.000273
0.000388
0.000452
0.000357
0.000232
0.000272
0.000247
0.000235
0.000272
0.000281
0.000263
0.000270
0.000279
0.000259
0.000273
0.000056
0.000349
0.000244
0.000236
0.000245
0.000243
0.000245
0.000252
0.000248
0.000269
0.000260
0.000246
0.000239
0.000270
0.000550
0.000444
0.000251
0.000236
0.000242
0.000256
0.000265
0.000256
0.000258
0.000263
0.000266
0.000271
0.000311
0.000420
0.000601
0.000404
0.000256
0.000171
0.000057
0.000369
0.000212
0.000217
0.000247
0.000249
0.000249
0.000241
0.000249
0.000256
0.000263
0.000217
0.000244
0.000299
0.000202
0.000235
0.000273
0.000248
0.000264
0.000279
0.000258
0.000266
0.000258
0.000262
0.000258
0.000275
0.000232
0.000270
0.000278
0.000257
0.000282
0.000194
0.000056
0.000195
0.000231
0.000245
0.000250
0.000232
0.000257
0.000260
0.000238
0.000255
0.000290
0.000221
0.000237
0.000263
0.000395
0.000250
0.000279
0.000261
0.000270
0.000248
0.000281
0.000272
0.000228
0.000258
0.000244
0.000276
0.000278
0.000247
0.000247
0.000275
0.000260
0.000210
0.000056
0.000216
0.000355
0.000370
0.000281
0.000296
0.000255
0.000261
0.000257
0.000232
0.000256
0.000233
0.000261
0.000251
0.000233
0.000259
0.000259
0.000269
0.000261
0.000246
0.000264
0.000277
0.000261
0.000280
0.000259
0.000264
0.000254
0.000253
0.000271
0.000274
0.000261
0.000190
0.000055
0.000180
0.000228
0.000268
0.000261
0.000490
0.000216
0.000207
0.000248
0.000272
0.000460
0.000491
0.000281
0.000230
0.000245
0.000268
0.000269
0.000233
0.000276
0.000253
0.000268
0.000266
0.000278
0.000243
0.000274
0.000507
0.000540
0.000253
0.000299
0.000263
0.000262
0.000186
0.000056
0.000219
0.000217
0.000248
0.000256
0.000288
0.000688
0.000312
0.000386
0.000206
0.000241
0.000252
0.000255
0.000253
0.000254
0.000250
0.000272
0.000308
0.000206
0.000605
0.000403
0.000309
0.000239
0.000256
0.000289
0.000283
0.000252
0.000264
0.000269
0.000253
0.000345
0.000288
0.000057
0.000266
0.000238
0.000237
0.000235
0.000254
0.000258
0.000227
0.000244
0.000249
0.000256
0.000242
0.000253
0.000257
0.000367
0.000596
0.000395
0.000233
0.000253
0.000259
0.000248
0.000265
0.000269
0.000490
0.000232
0.000260
0.000555
0.000433
0.000510
0.000243
0.000255
0.000181
0.000057
0.000200
0.000232
0.000244
0.000245
0.000255
0.000282
0.000282
0.000440
0.000577
0.000419
0.000219
0.000265
0.000276
0.000276
0.000259
0.000246
0.000233
0.000253
0.000280
0.000251
0.000484
0.000624
0.000367
0.000249
0.000369
0.000377
0.000477
0.000240
0.000264
0.000364
0.000506
0.000056
0.000258
0.000236
0.000429
0.000229
0.000232
0.000256
0.000258
0.000254
0.000236
0.000238
0.000258
0.000415
0.000344
0.000367
0.000236
0.000242
0.000252
0.000257
0.000263
0.000280
0.000269
0.000258
0.000247
0.000277
0.000349
0.000459
0.000487
0.000229
0.000255
0.000271
0.000192
0.000056
0.000221
0.000256
0.000229
0.000243
0.000246
0.000253
0.000382
0.000461
0.000366
0.000277
0.000375
0.000226
0.000244
0.000265
0.000254
0.000237
0.000253
0.000269
0.000268
0.000462
0.000465
0.000298
0.000478
0.000278
0.000386
0.000424
0.000383
0.000242
0.000256
0.000271
0.000375
0.000056
0.000203
0.000282
0.000217
0.000251
0.000265
0.000250
0.000249
0.000248
0.000255
0.000263
0.000237
0.000416
0.000389
0.000378
0.000368
0.000220
0.000266
0.000269
0.000265
0.000235
0.000252
0.000245
0.000268
0.000278
0.000279
0.000316
0.000524
0.000461
0.000240
0.000269
0.000191
0.000055
0.000217
0.000243
0.000261
0.000244
0.000256
0.000344
0.000522
0.000472
0.000342
0.000681
0.000267
0.000218
0.000234
0.000267
0.000237
0.000269
0.000281
0.000274
0.000479
0.000457
0.001470
0.000310
0.000259
0.000258
0.000295
0.000261
0.000361
0.000459
0.000333
0.000346
0.000160
0.000057
0.000211
0.000240
0.000235
0.000247
0.000242
0.000257
0.000275
0.000248
0.000265
0.000320
0.000328
0.000390
0.000266
0.000337
0.000390
0.000345
0.000239
0.000245
0.000271
0.000261
0.000240
0.000254
0.000281
0.000251
0.000341
0.000412
0.000433
0.000303
0.000238
0.000272
0.000183
0.000056
0.000231
0.000242
0.000255
0.000257
0.000242
0.000238
0.000476
0.000208
0.000231
0.000255
0.000244
0.000254
0.000256
0.000257
0.000247
0.000271
0.000263
0.000266
0.000272
0.000264
0.000259
0.000284
0.000290
0.000248
0.000257
0.000283
0.000270
0.000268
0.000264
0.000271
0.000169
0.000056
0.000235
0.000248
0.000275
0.000421
0.000395
0.000255
0.000239
0.000240
0.000259
0.000250
0.000247
0.000255
0.000265
0.000260
0.000239
0.000241
0.000249
0.000273
0.000287
0.000331
0.000439
0.000402
0.000221
0.000262
0.000266
0.000254
0.000268
0.000247
0.000272
0.000281
0.000202
0.000056
0.000397
0.000373
0.000450
0.000203
0.000252
0.000254
0.000412
0.000221
0.000227
0.000259
0.000253
0.000299
0.000348
0.000479
0.001824
0.000248
0.000251
0.000250
0.000276
0.000241
0.000346
0.000471
0.000520
0.000355
0.000231
0.000261
0.000275
0.000427
0.000279
0.000279
0.000174
0.000057
0.000244
0.000358
0.000373
0.000287
0.000494
0.000197
0.000245
0.000250
0.000250
0.000236
0.000268
0.000240
0.000262
0.000308
0.000403
0.000493
0.000224
0.000241
0.000260
0.000266
0.000255
0.000329
0.000217
0.000286
0.000282
0.000445
0.000515
0.000409
0.000476
0.000203
0.000204
0.000056
0.000204
0.000229
0.000260
0.000225
0.000252
0.000249
0.000267
0.000270
0.000362
0.000356
0.000439
0.000360
0.000208
0.000252
0.000262
0.000285
0.000306
0.000233
0.000274
0.000273
0.000239
0.000256
0.000534
0.000346
0.000314
0.000236
0.000267
0.000436
0.000419
0.000312
0.000170
0.000057
0.000212
0.000233
0.000355
0.000449
0.000345
0.000221
0.000217
0.000255
0.000259
0.000256
0.000265
0.000250
0.000228
0.000260
0.000262
0.000299
0.000381
0.000371
0.000291
0.000363
0.000470
0.000224
0.000283
0.000276
0.000303
0.000288
0.000251
0.000259
0.000507
0.000504
0.000176
0.000055
0.000200
0.000220
0.000251
0.000245
0.000245
0.000481
0.000219
0.000257
0.000254
0.000297
0.000496
0.000629
0.000193
0.000248
0.000244
0.000249
0.000256
0.000243
0.000264
0.000248
0.000263
0.000271
0.000412
0.000349
0.000389
0.000406
0.000311
0.000292
0.000316
0.000241
0.000175
0.000056
0.000192
0.000235
0.000251
0.000499
0.000315
0.000301
0.000268
0.000210
0.000252
0.000253
0.000257
0.000239
0.000255
0.000257
0.000260
0.000254
0.000252
0.000243
0.000254
0.000436
0.000430
0.000440
0.000243
0.000233
0.000277
0.000280
0.000249
0.000262
0.000266
0.000265
0.000188
0.000056
0.000278
0.000395
0.000452
0.000248
0.000218
0.000243
0.000333
0.000452
0.000286
0.000212
0.000238
0.000272
0.000252
0.000482
0.000405
0.000295
0.000239
0.000230
0.000246
0.000263
0.000275
0.000264
0.000262
0.000271
0.000255
0.000289
0.000410
0.000416
0.000313
0.000249
0.000189
0.000056
0.000215
0.000234
0.000249
0.000253
0.000251
0.000265
0.000229
0.000259
0.000247
0.000250
0.000266
0.000237
0.000266
0.001456
0.000227
0.000250
0.000265
0.000246
0.000273
0.000278
0.000262
0.000238
0.000277
0.000251
0.000269
0.000271
0.000283
0.000255
0.000261
0.000266
0.000191
0.000056
0.000229
0.000208
0.000252
0.000255
0.000236
0.000239
0.000264
0.000260
0.000226
0.000245
0.000266
0.000243
0.000260
0.000257
0.000252
0.000258
0.000257
0.000248
0.000277
0.000253
0.000255
0.000261
0.000252
0.000249
0.001290
0.000270
0.000564
0.000413
0.000374
0.000248
0.000187
0.000057
0.000225
0.000226
0.000247
0.000253
0.000418
0.000241
0.000230
0.000245
0.000254
0.000372
0.000444
0.000333
0.000239
0.000230
0.000263
0.000261
0.000253
0.000295
0.000222
0.000254
0.000265
0.000258
0.000266
0.000418
0.000519
0.000446
0.000218
0.000266
0.001377
0.000242
0.000172
0.000057
0.000223
0.000415
0.000325
0.000270
0.000219
0.000231
0.000227
0.000249
0.000261
0.000263
0.000244
0.000256
0.000270
0.000366
0.000482
0.000363
0.000342
0.000224
0.000237
0.000266
0.000259
0.000265
0.000270
0.000269
0.000267
0.000262
0.000257
0.000624
0.000541
0.000217
0.000131
0.000056
0.000205
0.000231
0.001259
0.000446
0.000283
0.000460
0.000374
0.000487
0.000278
0.000337
0.000224
0.000233
0.000254
0.000252
0.000248
0.000272
0.000458
0.000395
0.000462
0.000289
0.000249
0.000250
0.000251
0.000508
0.000243
0.000276
0.000242
0.000283
0.000273
0.000589
0.000275
0.000056
0.000388
0.000308
0.000231
0.000224
0.001493
0.000530
0.000331
0.000225
0.000246
0.000255
0.000225
0.000236
0.000248
0.000271
0.000246
0.000266
0.000234
0.000275
0.000462
0.000299
0.000489
0.000243
0.000248
0.000250
0.000260
0.000274
0.000271
0.000231
0.000273
0.000301
0.000187
0.000056
0.000382
0.000334
0.000223
0.000227
0.000248
0.000242
0.000253
0.000245
0.000227
0.000236
0.001393
0.000476
0.000282
0.000234
0.000248
0.000248
0.000276
0.000258
0.000244
0.000272
0.000264
0.000257
0.000280
0.000391
0.000373
0.000506
0.000247
0.000254
0.000277
0.000277
0.000172
0.000057
0.000211
0.000408
0.000232
0.000240
0.000390
0.000390
0.000346
0.000349
0.000459
0.000202
0.000228
0.000253
0.000263
0.000261
0.000264
0.001433
0.000337
0.000283
0.000237
0.000277
0.000280
0.000248
0.000253
0.000252
0.000258
0.000272
0.000470
0.000431
0.000295
0.000282
0.000141
0.000056
0.000199
0.000232
0.000257
0.000234
0.000224
0.000267
0.000240
0.000245
0.000300
0.000353
0.000414
0.000315
0.000252
0.000241
0.000238
0.000285
0.000267
0.000264
0.000266
0.000226
0.000251
0.000338
0.001245
0.000260
0.000258
0.000227
0.000266
0.000263
0.000261
0.000259
0.000187
0.000057
0.000205
0.000367
0.000351
0.000356
0.000250
0.000235
0.000262
0.000263
0.000254
0.000246
0.000257
0.000273
0.000237
0.000251
0.000260
0.000265
0.000265
0.000271
0.000279
0.000232
0.000255
0.000265
0.000269
0.000286
0.000290
0.000263
0.000273
0.000244
0.000264
0.000450
0.001365
0.000057
0.000227
0.000225
0.000239
0.000241
0.000252
0.000257
0.000250
0.000225
0.000246
0.000251
0.000276
0.000250
0.000268
0.000232
0.000248
0.000245
0.001736
0.000246
0.000242
0.000261
0.000249
0.000253
0.000275
0.000260
0.000273
0.000258
0.000266
0.000277
0.000269
0.000263
0.000213
0.000056
0.000373
0.000285
0.001313
0.000221
0.000228
0.000249
0.000253
0.000254
0.000258
0.000258
0.000234
0.000334
0.000408
0.000436
0.000308
0.000201
0.000246
0.000262
0.000252
0.000271
0.000240
0.000268
0.000267
0.000287
0.000254
0.000394
0.000349
0.000390
0.000331
0.000218
0.000193
0.000057
0.000203
0.000253
0.000242
0.000245
0.000254
0.000230
0.000230
0.000261
0.000425
0.001331
0.000272
0.000207
0.000240
0.000270
0.000264
0.000265
0.000260
0.000245
0.000306
0.000418
0.000437
0.000211
0.000249
0.000237
0.000285
0.000276
0.000266
0.000303
0.000264
0.000273
0.000199
0.000056
0.000240
0.000392
0.000435
0.000210
0.000261
0.000207
0.000250
0.000274
0.000267
0.000250
0.000228
0.000249
0.000457
0.000554
0.000427
0.001445
0.000255
0.000259
0.000341
0.000341
0.000488
0.000442
0.000434
0.000406
0.000225
0.000266
0.000262
0.000282
0.000261
0.000272
0.000190
0.000056
0.000205
0.000245
0.000485
0.000408
0.000393
0.000239
0.000271
0.000209
0.000248
0.000258
0.000248
0.000265
0.000268
0.000237
0.000263
0.000370
0.000311
0.000406
0.000381
0.001323
0.000264
0.000247
0.000264
0.000258
0.000484
0.000424
0.000388
0.000241
0.000268
0.000268
0.000190
0.000056
0.000201
0.000243
0.000243
0.000245
0.000255
0.000389
0.000332
0.000433
0.000326
0.000217
0.000237
0.000262
0.000269
0.000260
0.000257
0.000264
0.000264
0.000256
0.000272
0.000400
0.000375
0.000388
0.000344
0.001326
0.000417
0.000237
0.000271
0.000446
0.000434
0.000333
0.000317
0.000056
0.000191
0.000235
0.000249
0.000249
0.000249
0.000253
0.001680
0.000246
0.000217
0.000244
0.000255
0.000257
0.000249
0.000324
0.000326
0.000292
0.000274
0.000296
0.000623
0.000282
0.000316
0.000283
0.000221
0.000249
0.001508
0.000386
0.000456
0.000370
0.000341
0.000281
0.000161
0.000056
0.000205
0.000248
0.000257
0.000259
0.000237
0.000259
0.001714
0.000234
0.000240
0.000261
0.000345
0.000404
0.001437
0.000350
0.000407
0.000235
0.000265
0.000236
0.000265
0.000270
0.001530
0.000536
0.000432
0.000289
0.000239
0.000255
0.000261
0.000279
0.000243
0.000257
0.000191
0.000058
0.000196
0.000239
0.000267
0.000246
0.000264
0.000274
0.000276
0.000258
0.000252
0.000251
0.000253
0.000248
0.000265
0.000270
0.000272
0.001480
0.000278
0.000221
0.000272
0.000279
0.000272
0.000251
0.000440
0.001263
0.000282
0.000232
0.000278
0.000249
0.000392
0.000244
0.000205
0.000055
0.000219
0.000253
0.000216
0.000243
0.000247
0.000227
0.000234
0.001695
0.000264
0.000217
0.000248
0.000370
0.000225
0.000228
0.000249
0.001396
0.000219
0.000267
0.000271
0.000245
0.000258
0.000357
0.000278
0.001303
0.000292
0.000236
0.000253
0.000267
0.001392
0.000275
0.000252
0.000058
0.000199
0.000365
0.000200
0.000244
0.000251
0.000241
0.000261
0.000272
0.000264
0.000245
0.000262
0.000267
0.000250
0.000244
0.000322
0.001493
0.000242
0.000271
0.000256
0.000243
0.000286
0.000263
0.000245
0.001557
0.000312
0.000225
0.000269
0.001275
0.000274
0.000242
0.000191
0.000057
0.000178
0.000402
0.000334
0.000215
0.000230
0.000241
0.000260
0.000263
0.000264
0.000270
0.000235
0.000250
0.000266
0.000321
0.000371
0.001217
0.000237
0.000243
0.000274
0.000276
0.000216
0.000254
0.000246
0.000335
0.001285
0.000255
0.000230
0.000282
0.001325
0.000358
0.000176
0.000056
0.000308
0.000257
0.000224
0.000229
0.000245
0.000247
0.000247
0.000246
0.000270
0.000254
0.000243
0.000249
0.000254
0.000310
0.000450
0.001460
0.000209
0.000257
0.000292
0.000517
0.000300
0.000366
0.001358
0.000292
0.000247
0.000272
0.000244
0.001305
0.000345
0.000406
0.000382
0.000056
0.000230
0.000255
0.000251
0.000255
0.000253
0.000247
0.000275
0.000249
0.000263
0.000263
0.000301
0.000525
0.001295
0.000254
0.000255
0.000261
0.000279
0.000221
0.000239
0.000241
0.000341
0.001249
0.000242
0.000254
0.000251
0.000246
0.001485
0.000446
0.000499
0.000220
0.000184
0.000056
0.000199
0.000228
0.000249
0.000232
0.000259
0.000268
0.000238
0.000254
0.000485
0.000438
0.000267
0.001493
0.000206
0.000242
0.000263
0.000255
0.000263
0.000329
0.001652
0.000257
0.000395
0.000338
0.001259
0.000382
0.000294
0.000333
0.000254
0.000260
0.000260
0.000266
0.000198
0.000056
0.000205
0.000236
0.000332
0.000247
0.000302
0.000535
0.000307
0.000283
0.001486
0.000233
0.000380
0.000259
0.000221
0.000316
0.000396
0.001309
0.000285
0.000219
0.000241
0.000274
0.001546
0.000351
0.000274
0.000315
0.000245
0.000231
0.000460
0.000362
0.000228
0.000228
0.000261
0.000056
0.000229
0.000412
0.000288
0.000274
0.000211
0.001535
0.000208
0.000254
0.000261
0.000272
0.000269
0.000235
0.000342
0.001451
0.000260
0.000227
0.000433
0.001191
0.000364
0.000411
0.000426
0.000212
0.000240
0.000259
0.000277
0.000239
0.000461
0.000218
0.000273
0.000273
0.000195
0.000057
0.000212
0.000229
0.000385
0.000382
0.001299
0.000251
0.000314
0.000228
0.000239
0.000251
0.000252
0.000251
0.001561
0.000247
0.000248
0.000241
0.001386
0.000326
0.000371
0.000405
0.000422
0.000233
0.000234
0.000259
0.000262
0.000283
0.000269
0.000258
0.000259
0.000255
0.000196
0.000057
0.000232
0.000304
0.001513
0.000199
0.000278
0.000277
0.000240
0.000250
0.000260
0.000465
0.001316
0.000215
0.000259
0.000265
0.000255
0.001259
0.000704
0.000334
0.000287
0.000405
0.000305
0.000240
0.000269
0.000252
0.000275
0.000286
0.000272
0.000346
0.000387
0.000435
0.001384
0.000056
0.000217
0.000229
0.000250
0.000224
0.000250
0.000640
0.000263
0.001298
0.000241
0.000245
0.000243
0.001461
0.000372
0.000369
0.000236
0.000388
0.000263
0.000221
0.000271
0.000273
0.000247
0.000273
0.000280
0.000255
0.000245
0.000277
0.000447
0.000517
0.001473
0.000221
0.000185
0.000057
0.000220
0.000252
0.000375
0.000492
0.001261
0.000277
0.000251
0.000259
0.000244
0.000255
0.000248
0.000280
0.000602
0.000257
0.000320
0.000262
0.000234
0.000273
0.000241
0.000277
0.000253
0.000271
0.000256
0.000266
0.000264
0.000336
0.000514
0.000373
0.000319
0.001402
0.000173
0.000057
0.000193
0.000244
0.000315
0.000485
0.000269
0.000311
0.000332
0.000316
0.000266
0.000262
0.000255
0.000263
0.000257
0.000305
0.000232
0.000424
0.000430
0.000318
0.000297
0.000399
0.000257
0.000407
0.000221
0.000247
0.000268
0.000257
0.000259
0.000297
0.000370
0.000477
0.000293
0.000056
0.000209
0.001405
0.000228
0.000335
0.000434
0.000401
0.000349
0.000338
0.000215
0.000239
0.000269
0.000245
0.000263
0.000277
0.000255
0.000257
0.000267
0.001277
0.000348
0.000237
0.000266
0.000271
0.000269
0.000284
0.000262
0.000254
0.000276
0.000247
0.000381
0.000339
0.000535
0.000058
0.000201
0.000260
0.000240
0.001494
0.000306
0.000241
0.000220
0.000252
0.000232
0.000238
0.000262
0.000269
0.000254
0.000252
0.000266
0.000253
0.000247
0.000273
0.000258
0.000257
0.001426
0.000242
0.000238
0.000287
0.000259
0.000234
0.000272
0.000262
0.000278
0.000506
0.000326
0.000057
0.000208
0.000229
0.000395
0.000278
0.000252
0.000248
0.001537
0.000343
0.000306
0.000212
0.000260
0.000308
0.000336
0.000226
0.000229
0.000250
0.000247
0.000267
0.000254
0.000261
0.000496
0.000487
0.001122
0.000275
0.000227
0.000264
0.000274
0.000255
0.000273
0.000257
0.000385
0.000057
0.000324
0.000219
0.000207
0.000233
0.000248
0.000238
0.000253
0.000227
0.000290
0.001627
0.000435
0.000204
0.000228
0.000250
0.000264
0.000242
0.000262
0.000276
0.000260
0.000315
0.000359
0.000432
0.000459
0.001363
0.000230
0.000258
0.000276
0.000259
0.000269
0.000277
0.000474
0.000056
0.000224
0.000249
0.000235
0.000241
0.000217
0.000244
0.000258
0.000260
0.000263
0.001608
0.000320
0.000254
0.000266
0.000254
0.000458
0.000274
0.000521
0.000381
0.000299
0.000303
0.000459
0.000473
0.001264
0.000278
0.000216
0.000262
0.001704
0.000449
0.000619
0.000316
0.000147
0.000056
0.000195
0.000227
0.000257
0.000220
0.000257
0.000238
0.000252
0.000559
0.000481
0.000371
0.000300
0.000208
0.000240
0.000261
0.000268
0.000281
0.000229
0.000251
0.000256
0.000274
0.000297
0.000368
0.001371
0.000226
0.000247
0.000272
0.001917
0.000369
0.000376
0.000357
0.000151
0.000056
0.000211
0.000233
0.001509
0.000335
0.000388
0.000214
0.000237
0.000257
0.000253
0.000296
0.000373
0.000396
0.000339
0.000275
0.000337
0.000482
0.000382
0.001206
0.000290
0.000222
0.000249
0.000262
0.000278
0.000401
0.000593
0.000481
0.000245
0.000267
0.000268
0.000282
0.000192
0.000055
0.000197
0.000235
0.000241
0.001537
0.000264
0.000222
0.000239
0.000252
0.000238
0.000262
0.000257
0.000263
0.000272
0.000272
0.000238
0.000395
0.000421
0.000341
0.001397
0.000255
0.000247
0.000297
0.000243
0.000240
0.000423
0.000387
0.000500
0.000271
0.000291
0.000223
0.000442
0.000056
0.000229
0.000233
0.000253
0.001520
0.000324
0.000226
0.000258
0.000241
0.000253
0.000258
0.000254
0.000262
0.000256
0.000245
0.000497
0.000393
0.001417
0.000750
0.000263
0.000336
0.000256
0.000230
0.000236
0.000274
0.001680
0.000809
0.000229
0.000260
0.000274
0.000288
0.000188
0.000058
0.000201
0.000234
0.000253
0.000249
0.000254
0.000247
0.000235
0.000257
0.000241
0.000229
0.000295
0.000292
0.000241
0.000251
0.000259
0.000252
0.000266
0.001607
0.000714
0.000406
0.000279
0.000231
0.000232
0.000286
0.000265
0.000260
0.000273
0.000254
0.001388
0.000420
0.000287
0.000058
0.000198
0.000221
0.000255
0.000249
0.000264
0.000232
0.000251
0.000252
0.000251
0.000258
0.000236
0.000537
0.000366
0.000344
0.000207
0.000238
0.000266
0.001400
0.000704
0.000457
0.000337
0.000277
0.000222
0.000251
0.000274
0.000250
0.000258
0.000267
0.001489
0.000483
0.000145
0.000072
0.000198
0.000221
0.000247
0.000249
0.000246
0.000249
0.000235
0.000256
0.000269
0.000269
0.000336
0.000477
0.000254
0.000225
0.000255
0.000236
0.000256
0.000256
0.001571
0.000629
0.000467
0.000317
0.000243
0.000246
0.000258
0.000266
0.000260
0.000282
0.000271
0.001375
0.000307
0.000057
0.000212
0.000221
0.000229
0.000255
0.000258
0.000243
0.000269
0.000298
0.000359
0.000451
0.000339
0.000384
0.000380
0.000214
0.000267
0.000235
0.000270
0.000256
0.000269
0.001884
0.000374
0.000233
0.000460
0.000234
0.000248
0.000255
0.000269
0.000270
0.000261
0.000276
0.000328
0.000056
0.000225
0.000302
0.000225
0.000243
0.000251
0.000253
0.000221
0.000243
0.000267
0.000256
0.000245
0.000236
0.000344
0.000392
0.000457
0.000449
0.000222
0.000261
0.000275
0.000230
0.000252
0.000295
0.001465
0.001057
0.000218
0.000245
0.000274
0.000259
0.000282
0.000251
0.000201
0.000056
0.000213
0.001338
0.000289
0.000210
0.000231
0.000251
0.000253
0.000240
0.000243
0.000249
0.000254
0.000262
0.000236
0.000399
0.000355
0.000515
0.000221
0.000242
0.000268
0.000267
0.000263
0.000239
0.000259
0.000264
0.001322
0.000683
0.000313
0.000379
0.000393
0.000387
0.000295
0.000056
0.000187
0.000242
0.000355
0.001331
0.000208
0.000252
0.000228
0.000259
0.000252
0.000261
0.000261
0.000232
0.000260
0.000347
0.000578
0.000302
0.000227
0.000307
0.000308
0.000211
0.000249
0.000266
0.000233
0.000275
0.000271
0.001540
0.000744
0.000294
0.000275
0.000274
0.000184
0.000057
0.000220
0.000235
0.000478
0.000321
0.001312
0.000249
0.000229
0.000229
0.000234
0.000242
0.000250
0.000257
0.000230
0.000240
0.000263
0.000249
0.000269
0.000231
0.000258
0.000255
0.000265
0.000272
0.000327
0.000312
0.000215
0.000266
0.000268
0.001459
0.000270
0.000225
0.000169
0.000056
0.000200
0.000229
0.000244
0.000275
0.000350
0.000380
0.000397
0.000267
0.001576
0.000246
0.000326
0.000466
0.000334
0.000237
0.000424
0.000243
0.000229
0.000258
0.000280
0.000269
0.000282
0.000265
0.000257
0.000287
0.000226
0.000475
0.000334
0.000348
0.001573
0.000219
0.000194
0.000057
0.000212
0.000243
0.000245
0.000250
0.000236
0.000249
0.000266
0.000273
0.000438
0.002043
0.000237
0.000232
0.000258
0.000258
0.000259
0.000255
0.000282
0.000241
0.000263
0.000434
0.000382
0.000449
0.001450
0.000254
0.000527
0.000227
0.001774
0.000234
0.000262
0.001532
0.000160
0.000056
0.000323
0.000410
0.000477
0.000243
0.000261
0.000220
0.000259
0.000272
0.000262
0.000227
0.000252
0.000337
0.000410
0.000376
0.000443
0.000209
0.000233
0.001566
0.000238
0.000568
0.001887
0.000296
0.000225
0.001605
0.001972
0.000734
0.000272
0.000259
0.000407
0.000318
0.000384
0.000072
0.000174
0.000248
0.000246
0.000245
0.001428
0.001732
0.001075
0.000195
0.000241
0.001579
0.001988
0.000204
0.000242
0.000426
0.000303
0.000375
0.000352
0.000519
0.000210
0.000259
0.000235
0.000255
0.000275
0.001595
0.001201
0.001434
0.000269
0.000303
0.000253
0.000335
0.000323
0.000056
0.000214
0.000241
0.000240
0.000256
0.000212
0.000249
0.000244
0.000255
0.000257
0.000246
0.000237
0.000332
0.000461
0.000458
0.000278
0.000234
0.000239
0.000302
0.000243
0.000267
0.000251
0.000265
0.001568
0.000425
0.002117
0.000223
0.000273
0.000298
0.000467
0.000394
0.000189
0.000057
0.000221
0.000367
0.000439
0.000320
0.000190
0.000232
0.000254
0.000240
0.000245
0.000253
0.000240
0.000258
0.000261
0.001606
0.001357
0.001230
0.000269
0.000252
0.000227
0.000282
0.000280
0.000277
0.000245
0.000254
0.002204
0.000254
0.000244
0.000298
0.000325
0.000303
0.000221
0.000056
0.000222
0.000361
0.000547
0.000332
0.000235
0.000232
0.000246
0.000265
0.001894
0.001434
0.000215
0.000337
0.000382
0.000414
0.000265
0.000205
0.000263
0.000267
0.000267
0.000284
0.000238
0.000267
0.000468
0.000234
0.000277
0.000268
0.000250
0.000272
0.000282
0.000245
0.000206
0.000055
0.000210
0.000243
0.000268
0.000219
0.000256
0.000270
0.001539
0.001420
0.001336
0.000230
0.000233
0.000240
0.000265
0.000260
0.000248
0.000250
0.000252
0.002112
0.000257
0.000213
0.000280
0.000257
0.000254
0.000268
0.000266
0.000274
0.000261
0.000255
0.000283
0.000245
0.000174
0.000056
0.000198
0.002690
0.001395
0.000213
0.000304
0.000300
0.000230
0.000267
0.000256
0.000245
0.000254
0.000240
0.000239
0.000245
0.000273
0.000253
0.000270
0.000262
0.000253
0.000271
0.000267
0.000287
0.000271
0.000267
0.000246
0.000242
0.000265
0.000273
0.000261
0.000264
0.000370
0.000056
0.001551
0.000254
0.001245
0.000252
0.000200
0.000240
0.000260
0.000251
0.000245
0.000275
0.000374
0.000374
0.000342
0.000218
0.000244
0.002154
0.000235
0.000244
0.000271
0.000518
0.000323
0.000352
0.000220
0.000248
0.000275
0.000247
0.000261
0.000278
0.000268
0.001599
0.002195
0.000057
0.000188
0.000235
0.000257
0.000461
0.000336
0.000279
0.000208
0.000231
0.000247
0.000263
0.000262
0.000252
0.000224
0.000256
0.000263
0.000240
0.000313
0.000618
0.000373
0.000252
0.000214
0.000273
0.000285
0.000250
0.000252
0.000244
0.000269
0.000274
0.000245
0.000352
0.000331
0.000055
0.001129
0.000297
0.000290
0.000424
0.000298
0.000227
0.000227
0.000244
0.000252
0.002327
0.000336
0.000399
0.000208
0.000380
0.000274
0.000265
0.000259
0.000260
0.000259
0.000234
0.000250
0.000269
0.000618
0.000442
0.001868
0.001359
0.000473
0.000550
0.000228
0.000275
0.000193
0.000062
0.000219
0.000359
0.000239
0.000247
0.000242
0.000235
0.000255
0.000250
0.000253
0.000256
0.000253
0.000223
0.000246
0.000261
0.000407
0.000488
0.001845
0.001375
0.000388
0.000445
0.000465
0.000232
0.000240
0.000263
0.002184
0.000510
0.000391
0.000220
0.000273
0.000282
0.000193
0.000055
0.000210
0.000245
0.000255
0.000243
0.000247
0.000340
0.000423
0.000362
0.000243
0.000234
0.000243
0.000249
0.000265
0.002117
0.000330
0.000421
0.000211
0.000250
0.000265
0.000265
0.002349
0.000348
0.000353
0.000217
0.000256
0.000260
0.000251
0.000268
0.000286
0.000279
0.000212
0.000056
0.000205
0.000304
0.000577
0.000391
0.000239
0.000224
0.000228
0.000254
0.000264
0.000254
0.001967
0.000378
0.000277
0.000269
0.000230
0.000269
0.000278
0.000235
0.002245
0.000414
0.000218
0.000268
0.000268
0.000260
0.000253
0.000258
0.000282
0.000251
0.000269
0.000256
0.000196
0.000057
0.000214
0.000237
0.000244
0.000223
0.000246
0.000260
0.000239
0.000249
0.000225
0.002191
0.000224
0.000290
0.000206
0.000423
0.000237
0.000249
0.000276
0.000284
0.000242
0.000267
0.001971
0.000273
0.000338
0.000376
0.000435
0.000394
0.000327
0.000224
0.000257
0.000251
0.000201
0.000057
0.000206
0.000230
0.000234
0.000249
0.000246
0.000338
0.000213
0.002306
0.000230
0.000244
0.000258
0.000257
0.000233
0.000254
0.000308
0.002129
0.000590
0.000218
0.000255
0.000232
0.000268
0.000262
0.000289
0.000269
0.000260
0.000257
0.000285
0.000248
0.000264
0.000268
0.000194
0.000056
0.001795
0.001457
0.000191
0.000222
0.000244
0.000255
0.000251
0.000346
0.000329
0.000360
0.002168
0.000257
0.000233
0.000263
0.000265
0.000607
0.000325
0.000293
0.000225
0.000252
0.000244
0.000270
0.000262
0.000229
0.000255
0.000264
0.000276
0.000255
0.000296
0.000690
0.000319
0.000056
0.000228
0.000232
0.000245
0.000251
0.000272
0.000243
0.000261
0.000236
0.001496
0.002108
0.000590
0.000282
0.000392
0.000689
0.000376
0.000211
0.000256
0.000247
0.000267
0.000264
0.000255
0.000239
0.000253
0.001842
0.000324
0.001389
0.000282
0.000278
0.000283
0.000279
0.000429
0.000057
0.001929
0.000217
0.000229
0.000226
0.000296
0.000353
0.000455
0.000312
0.000280
0.000222
0.000232
0.000260
0.000254
0.000259
0.000278
0.000243
0.000258
0.000262
0.001838
0.000263
0.000210
0.000260
0.000272
0.000279
0.000275
0.000250
0.001464
0.000347
0.000240
0.000252
0.000177
0.000057
0.000186
0.000224
0.000249
0.000241
0.000247
0.000243
0.000307
0.000368
0.000348
0.000378
0.000214
0.000237
0.000262
0.000317
0.000429
0.000317
0.000212
0.000252
0.000262
0.000364
0.000412
0.000491
0.000258
0.000252
0.000262
0.000255
0.000246
0.000272
0.000278
0.000264
0.000207
0.000056
0.001450
0.000448
0.000204
0.001941
0.000273
0.000417
0.000435
0.000331
0.000212
0.000253
0.000265
0.000244
0.000244
0.000250
0.000261
0.000261
0.000455
0.000289
0.000377
0.000404
0.000347
0.000227
0.000257
0.000266
0.000272
0.000274
0.000262
0.000266
0.000382
0.000449
0.001366
0.000057
0.000201
0.000225
0.002080
0.000323
0.000284
0.000259
0.000258
0.000252
0.000259
0.000264
0.000227
0.000236
0.000251
0.000271
0.000252
0.000374
0.000703
0.001754
0.000230
0.000249
0.000253
0.000268
0.000372
0.000442
0.001583
0.000279
0.000363
0.001923
0.000278
0.000242
0.000196
0.000056
0.000207
0.000236
0.000231
0.000245
0.000246
0.000228
0.000254
0.000285
0.000332
0.000278
0.000376
0.000365
0.000330
0.000306
0.000225
0.000273
0.000261
0.000240
0.000272
0.000252
0.000296
0.000290
0.000266
0.000265
0.000266
0.001503
0.000292
0.000398
0.002063
0.000229
0.000180
0.000056
0.000199
0.000230
0.000235
0.000248
0.000481
0.000224
0.000244
0.000319
0.000354
0.000339
0.000313
0.000200
0.000264
0.000270
0.000267
0.000332
0.000395
0.000462
0.000256
0.000397
0.000533
0.000374
0.001640
0.000236
0.000253
0.001969
0.000343
0.000254
0.000237
0.000296
0.000181
0.000056
0.000195
0.000241
0.000243
0.000229
0.000248
0.000272
0.000255
0.000268
0.000257
0.000247
0.001808
0.000356
0.000364
0.000313
0.000430
0.000362
0.000381
0.001469
0.000239
0.000280
0.002198
0.000503
0.000235
0.000229
0.000274
0.000266
0.000504
0.000228
0.000253
0.000283
0.000192
0.000056
0.000279
0.000356
0.000406
0.000275
0.000208
0.000234
0.000260
0.000255
0.000271
0.000290
0.000221
0.000258
0.000265
0.000258
0.000336
0.001514
0.000320
0.000206
0.000282
0.001910
0.000386
0.000265
0.000250
0.000257
0.000256
0.000276
0.000271
0.000274
0.000233
0.000267
0.000207
0.000056
0.000257
0.000433
0.002006
0.000273
0.000240
0.000218
0.000247
0.000309
0.000397
0.000468
0.001308
0.000375
0.002133
0.000309
0.000203
0.000236
0.000277
0.000267
0.000259
0.000238
0.000288
0.000310
0.000241
0.000382
0.000444
0.000365
0.000388
0.002171
0.000646
0.000308
0.000413
0.000056
0.000219
0.000229
0.000242
0.001962
0.000231
0.000217
0.000248
0.000240
0.000245
0.000253
0.000246
0.000263
0.000262
0.000266
0.000427
0.001489
0.000245
0.000245
0.000268
0.000256
0.000229
0.000260
0.000274
0.000251
0.000308
0.000511
0.000449
0.000221
0.001614
0.000272
0.000159
0.000061
0.000190
0.000223
0.000250
0.000235
0.000246
0.000255
0.000250
0.000247
0.000257
0.000438
0.000287
0.001431
0.000246
0.000211
0.000246
0.000267
0.000252
0.000259
0.000493
0.000284
0.000475
0.000379
0.000223
0.001577
0.000233
0.000246
0.000310
0.000267
0.000259
0.000268
0.000189
0.000056
0.000211
0.000227
0.000258
0.000268
0.000246
0.000249
0.000238
0.000244
0.000260
0.000253
0.000233
0.000255
0.000258
0.001484
0.000368
0.000208
0.000248
0.000259
0.000289
0.000308
0.000380
0.000268
0.000242
0.000251
0.000271
0.000269
0.000252
0.001415
0.000279
0.000233
0.000167
0.000057
0.000193
0.000236
0.000261
0.000260
0.000256
0.000239
0.000242
0.000265
0.000221
0.000263
0.000244
0.000263
0.000222
0.000359
0.000318
0.000353
0.000277
0.000226
0.001641
0.000237
0.000246
0.000256
0.000259
0.000313
0.000414
0.000329
0.000463
0.000255
0.000250
0.001611
0.000161
0.000056
0.000350
0.000330
0.000348
0.000305
0.000240
0.000217
0.000244
0.000273
0.000251
0.000240
0.000249
0.000243
0.001462
0.000292
0.000305
0.000221
0.000251
0.000257
0.000268
0.000259
0.000253
0.000237
0.000263
0.000273
0.000247
0.000384
0.000499
0.000332
0.000267
0.000233
0.000188
0.000056
0.000222
0.000268
0.000451
0.000319
0.000342
0.000291
0.000243
0.000253
0.000249
0.000257
0.000241
0.000220
0.000256
0.000241
0.001262
0.000290
0.000253
0.000239
0.000272
0.000272
0.000237
0.000259
0.000255
0.000262
0.000257
0.000260
0.000277
0.000678
0.000492
0.000224
0.000192
0.000056
0.000201
0.001561
0.000226
0.000382
0.000502
0.000310
0.000211
0.000254
0.000269
0.000250
0.000238
0.000260
0.000269
0.000273
0.000262
0.001525
0.000255
0.000281
0.000265
0.000266
0.000246
0.000261
0.000258
0.000264
0.000270
0.000253
0.000424
0.000366
0.000378
0.000231
0.000187
0.000056
0.000199
0.000252
0.000231
0.001627
0.000460
0.000305
0.000220
0.000239
0.000255
0.000268
0.000285
0.000258
0.000243
0.000270
0.000221
0.000273
0.000373
0.001355
0.000238
0.000239
0.001493
0.000271
0.000622
0.000408
0.000348
0.000215
0.000265
0.000476
0.000217
0.000268
0.000182
0.000056
0.000295
0.000217
0.000249
0.000235
0.000250
0.000260
0.000236
0.000255
0.000260
0.000235
0.000258
0.000254
0.000319
0.000478
0.001682
0.001486
0.000369
0.000518
0.000359
0.000220
0.000248
0.000239
0.000246
0.000268
0.000246
0.000273
0.000268
0.000251
0.001545
0.000313
0.000175
0.000058
0.000216
0.000351
0.000357
0.000324
0.000240
0.000221
0.000240
0.000325
0.000465
0.000361
0.002175
0.000319
0.000723
0.000458
0.000488
0.000264
0.000353
0.000381
0.000325
0.000279
0.000393
0.000232
0.001562
0.000525
0.000246
0.000232
0.000254
0.000258
0.000258
0.000268
0.000208
0.000057
0.000188
0.000254
0.000247
0.000251
0.000245
0.001663
0.000874
0.000999
0.000210
0.000238
0.000260
0.000251
0.000260
0.000272
0.000242
0.000252
0.000258
0.000263
0.000263
0.000278
0.001428
0.000309
0.000265
0.000224
0.000240
0.000262
0.000253
0.000286
0.000261
0.000287
0.001895
0.000057
0.000201
0.000228
0.001542
0.000951
0.000305
0.000344
0.000230
0.000234
0.000249
0.000261
0.000244
0.000251
0.000242
0.001987
0.000484
0.000214
0.000248
0.000252
0.000266
0.000254
0.000189
