0.000145
0.018953
0.002668
0.000292
0.000267
0.000288
0.000304
0.000248
0.000333
0.000280
0.000277
0.000335
0.000520
0.000503
0.000333
0.000368
0.000275
0.000343
0.000344
0.000409
0.000313
0.001939
0.000711
0.000225
0.000259
0.000307
0.000305
0.000325
0.000482
0.000320
0.000533
0.000255
0.000058
0.000207
0.000270
0.000270
0.000262
0.000272
0.000252
0.000279
0.000276
0.000254
0.000301
0.000438
0.000420
0.000314
0.000254
0.000412
0.000298
0.000368
0.000251
0.000254
0.001700
0.000307
0.000268
0.000450
0.000251
0.000272
0.000275
0.000288
0.000296
0.000293
0.000305
0.000408
0.000055
0.000198
0.000251
0.000259
0.000263
0.000250
0.000248
0.000260
0.000255
0.000290
0.001678
0.000230
0.000220
0.000271
0.000270
0.000281
0.000249
0.000266
0.000249
0.000358
0.001798
0.000236
0.000279
0.000440
0.000491
0.000331
0.000241
0.000263
0.000464
0.000466
0.000805
0.000185
0.000056
0.000221
0.000259
0.000254
0.000236
0.000294
0.000255
0.000290
0.000561
0.000398
0.000253
0.000256
0.000246
0.000247
0.000247
0.000268
0.000247
0.000245
0.000271
0.000295
0.000336
0.001661
0.000279
0.000252
0.000408
0.000371
0.000626
0.000656
0.000536
0.000351
0.000236
0.000189
0.000056
0.000214
0.000245
0.000266
0.000258
0.000236
0.000260
0.000249
0.000431
0.001507
0.000241
0.000238
0.000240
0.000254
0.000255
0.000266
0.000289
0.000305
0.000779
0.001386
0.000276
0.000451
0.000261
0.000231
0.000220
0.000261
0.000256
0.000270
0.000264
0.000264
0.000267
0.000191
0.000055
0.000214
0.000252
0.000240
0.000266
0.000239
0.000243
0.000241
0.000253
0.000238
0.000255
0.001620
0.000270
0.000244
0.000238
0.000252
0.000246
0.000258
0.000239
0.000252
0.000258
0.000273
0.001657
0.000287
0.000255
0.000433
0.000276
0.000240
0.000249
0.000263
0.000276
0.000196
0.000055
0.000188
0.000231
0.000253
0.000242
0.000242
0.000252
0.000260
0.000236
0.000264
0.000259
0.000247
0.000262
0.000258
0.000268
0.001632
0.000282
0.000298
0.000208
0.000259
0.000292
0.000245
0.000241
0.000244
0.000267
0.001796
0.000343
0.000385
0.000348
0.000255
0.000280
0.000197
0.000055
0.000213
0.000234
0.000251
0.000263
0.000257
0.000242
0.000262
0.000435
0.000639
0.000196
0.000207
0.000246
0.000255
0.000251
0.001553
0.000538
0.000328
0.000496
0.000238
0.000216
0.000267
0.000285
0.000267
0.001764
0.000468
0.000474
0.000261
0.000242
0.000254
0.000255
0.000188
0.000056
0.000215
0.000227
0.000260
0.000260
0.000316
0.000464
0.000363
0.000283
0.000218
0.000253
0.000262
0.000237
0.000256
0.001727
0.000465
0.000286
0.000237
0.000247
0.000275
0.000281
0.000250
0.000257
0.000276
0.001865
0.000334
0.000385
0.000258
0.000244
0.000266
0.000415
0.000329
0.000055
0.000210
0.000398
0.000364
0.000256
0.000260
0.000247
0.000249
0.000278
0.000217
0.000238
0.000238
0.000248
0.001546
0.000386
0.000279
0.000238
0.000254
0.000250
0.000246
0.000283
0.000277
0.000330
0.000244
0.001816
0.000249
0.000498
0.000246
0.000258
0.000250
0.000271
0.000249
0.000056
0.000333
0.000609
0.000547
0.000219
0.000227
0.000277
0.000228
0.000224
0.000256
0.000255
0.000256
0.001695
0.000250
0.000442
0.000372
0.000214
0.000245
0.000228
0.000248
0.000258
0.000271
0.001847
0.000233
0.000240
0.002078
0.000515
0.000365
0.000249
0.000258
0.000265
0.000183
0.000056
0.000217
0.000242
0.000245
0.000239
0.000258
0.001617
0.000258
0.000234
0.000252
0.000252
0.000247
0.000246
0.000243
0.000258
0.000276
0.000457
0.000571
0.000264
0.000237
0.000264
0.000284
0.000228
0.000248
0.000431
0.000441
0.000285
0.000311
0.000622
0.000364
0.000287
0.000195
0.000056
0.000199
0.000236
0.000251
0.000250
0.000238
0.000238
0.000240
0.000451
0.000419
0.001704
0.000197
0.000240
0.000239
0.000249
0.000261
0.000375
0.000350
0.000457
0.000345
0.000246
0.000261
0.000308
0.000276
0.000253
0.000266
0.000441
0.000358
0.000549
0.000436
0.000513
0.000168
0.000056
0.000196
0.000259
0.000244
0.000221
0.000244
0.000239
0.000250
0.000243
0.000243
0.000292
0.000334
0.000379
0.001451
0.000237
0.000246
0.000245
0.000254
0.000250
0.000263
0.000238
0.000319
0.000440
0.000380
0.000269
0.000265
0.000256
0.000258
0.000274
0.000263
0.000262
0.000386
0.000056
0.000193
0.000235
0.000230
0.000295
0.000502
0.000453
0.000216
0.000265
0.000235
0.000262
0.000242
0.000238
0.000295
0.000264
0.000225
0.000497
0.000415
0.001636
0.000276
0.000235
0.000268
0.000253
0.000256
0.000240
0.000266
0.000566
0.000309
0.000526
0.000275
0.000244
0.000183
0.000055
0.000236
0.000433
0.000236
0.000213
0.000266
0.000243
0.000387
0.000474
0.000312
0.000336
0.000226
0.000270
0.000269
0.000238
0.000517
0.000348
0.000213
0.000261
0.000484
0.001557
0.000275
0.000229
0.000547
0.000218
0.000280
0.000287
0.000250
0.000355
0.000591
0.000353
0.000234
0.000056
0.000218
0.000236
0.000240
0.000241
0.000406
0.000311
0.000295
0.000226
0.000403
0.000436
0.000426
0.000239
0.000240
0.000239
0.000262
0.000261
0.000257
0.000250
0.000238
0.000344
0.000291
0.000369
0.001808
0.000247
0.000254
0.000257
0.000283
0.000358
0.000490
0.000613
0.000431
0.000056
0.000238
0.000332
0.000282
0.000430
0.000385
0.000236
0.000229
0.000311
0.000572
0.000338
0.000262
0.000242
0.000235
0.000274
0.000260
0.000232
0.000258
0.000273
0.000268
0.000265
0.000259
0.000479
0.000592
0.001325
0.000342
0.000457
0.000391
0.000248
0.000399
0.000435
0.000367
0.000056
0.000252
0.000379
0.000272
0.000200
0.000228
0.000254
0.000407
0.000240
0.000231
0.000436
0.000360
0.000459
0.000229
0.000258
0.000266
0.000242
0.000377
0.000390
0.000337
0.000240
0.000262
0.000444
0.000531
0.001702
0.000224
0.000459
0.000287
0.000230
0.000299
0.000470
0.000248
0.000056
0.000200
0.000217
0.000252
0.000240
0.000242
0.000249
0.000251
0.000324
0.000454
0.000388
0.000323
0.000398
0.000278
0.000581
0.000237
0.000243
0.000271
0.000267
0.000229
0.000345
0.000250
0.000229
0.000272
0.000408
0.000600
0.001541
0.000272
0.000238
0.000250
0.000270
0.000188
0.000058
0.000311
0.000463
0.000332
0.000219
0.000252
0.000242
0.000257
0.000242
0.000260
0.000247
0.000224
0.000250
0.000416
0.000533
0.000383
0.000283
0.000251
0.000253
0.000351
0.000381
0.000383
0.000331
0.000420
0.000356
0.000227
0.000251
0.000263
0.000272
0.001782
0.000249
0.000215
0.000057
0.000207
0.000222
0.000261
0.000266
0.000364
0.000538
0.000308
0.000219
0.000262
0.000257
0.000251
0.000248
0.000513
0.000453
0.000480
0.000284
0.000261
0.000276
0.000421
0.000462
0.000406
0.000357
0.000497
0.000435
0.000227
0.000259
0.000264
0.000241
0.000267
0.001719
0.000308
0.000056
0.000253
0.000333
0.000207
0.000238
0.000252
0.000249
0.000251
0.000496
0.000375
0.000301
0.000286
0.000263
0.000358
0.000722
0.000270
0.000236
0.000251
0.000254
0.000254
0.000262
0.000272
0.000270
0.000242
0.000263
0.000308
0.000428
0.000354
0.000357
0.000231
0.000247
0.000189
0.000055
0.000444
0.000315
0.000466
0.000266
0.000184
0.000246
0.000245
0.000256
0.000243
0.000218
0.000255
0.000276
0.000293
0.000403
0.000482
0.000506
0.000285
0.000326
0.000379
0.000338
0.000286
0.000248
0.000249
0.000260
0.001738
0.000278
0.001707
0.000935
0.000401
0.000328
0.000170
0.000055
0.000197
0.000238
0.000239
0.000237
0.000268
0.000246
0.000249
0.000253
0.000238
0.000314
0.000369
0.000428
0.000340
0.000379
0.000263
0.000246
0.000248
0.000294
0.000224
0.000252
0.000255
0.000261
0.001801
0.000260
0.000247
0.000262
0.000276
0.000264
0.001871
0.000452
0.000337
0.000057
0.000180
0.000206
0.000244
0.000239
0.000253
0.000269
0.000221
0.000256
0.000259
0.000335
0.000635
0.000452
0.000244
0.000206
0.000232
0.000250
0.000330
0.000445
0.000365
0.000257
0.001769
0.000253
0.000254
0.000247
0.000261
0.000269
0.000241
0.000259
0.000327
0.000311
0.000359
0.000055
0.000256
0.000216
0.000243
0.000259
0.000243
0.000243
0.000254
0.000257
0.000243
0.000250
0.000240
0.000316
0.000422
0.000271
0.000382
0.000266
0.000470
0.000243
0.000244
0.000253
0.000260
0.000260
0.000278
0.000252
0.000279
0.001785
0.000253
0.000247
0.000265
0.000233
0.000196
0.000056
0.000249
0.000412
0.000202
0.000235
0.000246
0.000217
0.000240
0.000256
0.000249
0.000225
0.000231
0.000261
0.000264
0.000411
0.000359
0.000362
0.000282
0.000239
0.000258
0.000251
0.000259
0.000257
0.000249
0.000268
0.000251
0.000265
0.000388
0.001554
0.000269
0.000239
0.000191
0.000056
0.000212
0.000234
0.000248
0.000255
0.000378
0.000333
0.000361
0.000349
0.000224
0.000258
0.000255
0.000256
0.000230
0.000256
0.000265
0.000259
0.000246
0.000254
0.000255
0.000257
0.000270
0.000269
0.000242
0.000238
0.000245
0.000276
0.000278
0.000261
0.000257
0.000261
0.000189
0.000055
0.000218
0.000234
0.000254
0.000262
0.000231
0.000254
0.000242
0.000260
0.000301
0.000222
0.000227
0.000253
0.000251
0.000250
0.000268
0.000262
0.000255
0.000251
0.000293
0.000261
0.000267
0.000294
0.000268
0.000249
0.000284
0.000270
0.000273
0.000251
0.000258
0.000418
0.000682
0.000056
0.000228
0.000287
0.000210
0.000242
0.000238
0.000252
0.000240
0.000249
0.000252
0.000241
0.000266
0.000264
0.000520
0.000484
0.001570
0.000206
0.000475
0.000239
0.000248
0.000451
0.000449
0.000380
0.000221
0.000272
0.000260
0.000254
0.000283
0.000254
0.000328
0.000234
0.000191
0.000056
0.000311
0.000560
0.000319
0.000224
0.000226
0.000254
0.000249
0.000245
0.000233
0.000247
0.000257
0.000255
0.000228
0.000313
0.000297
0.000510
0.000409
0.001834
0.000194
0.000248
0.000336
0.000406
0.000414
0.000327
0.000332
0.000316
0.000305
0.000229
0.000232
0.000250
0.000198
0.000056
0.000223
0.000233
0.000234
0.000282
0.000350
0.000449
0.000367
0.000246
0.000251
0.000215
0.000247
0.000268
0.000267
0.000264
0.000262
0.000241
0.000291
0.000545
0.000333
0.000407
0.000226
0.001776
0.000301
0.000493
0.000471
0.000507
0.000316
0.000226
0.000265
0.000268
0.000441
0.000056
0.000197
0.000254
0.000239
0.000369
0.000427
0.000352
0.000387
0.000238
0.000227
0.000281
0.000252
0.000264
0.000252
0.000291
0.000315
0.000232
0.000240
0.000376
0.000529
0.000284
0.000494
0.001844
0.000261
0.000547
0.000383
0.000367
0.000226
0.000258
0.000280
0.000281
0.000193
0.000056
0.000212
0.000343
0.000358
0.000336
0.000375
0.000291
0.000378
0.000216
0.000244
0.000255
0.000278
0.000225
0.000252
0.000252
0.000240
0.000269
0.000309
0.000356
0.000525
0.000384
0.000280
0.000252
0.000254
0.001704
0.000525
0.000475
0.000628
0.000232
0.000264
0.000309
0.000157
0.000055
0.000191
0.000237
0.000324
0.000254
0.000237
0.000362
0.000455
0.000310
0.000236
0.000528
0.000235
0.000247
0.000261
0.000271
0.000280
0.000265
0.000211
0.000466
0.000408
0.000376
0.000273
0.000232
0.000275
0.000233
0.000260
0.000264
0.000242
0.000257
0.000268
0.000282
0.000201
0.000055
0.000331
0.000323
0.000206
0.000254
0.000243
0.000259
0.000238
0.000289
0.000248
0.000241
0.000260
0.000351
0.000420
0.000403
0.000395
0.000222
0.000219
0.000240
0.000258
0.000270
0.000289
0.000256
0.000238
0.000255
0.000285
0.000342
0.000390
0.000366
0.000348
0.000245
0.000176
0.000056
0.000212
0.000229
0.000277
0.000244
0.000236
0.000256
0.000254
0.000259
0.000487
0.000213
0.000261
0.000252
0.000242
0.000271
0.000271
0.000271
0.000265
0.000355
0.000220
0.000243
0.000252
0.000261
0.000259
0.000272
0.000271
0.000272
0.000261
0.000254
0.000517
0.000239
0.000154
0.000056
0.000214
0.000236
0.000262
0.000254
0.000220
0.000244
0.000362
0.000432
0.000219
0.000237
0.000252
0.000253
0.000237
0.000235
0.000396
0.001852
0.000239
0.000246
0.000285
0.000389
0.000364
0.000356
0.000361
0.000385
0.000390
0.000419
0.000242
0.000269
0.000285
0.000260
0.001387
0.000055
0.000353
0.000290
0.000283
0.000214
0.000238
0.000251
0.000235
0.000256
0.000241
0.000268
0.000246
0.000258
0.000254
0.000343
0.000490
0.001630
0.000242
0.000226
0.000245
0.000266
0.000234
0.000317
0.000378
0.000376
0.000365
0.000229
0.000224
0.000266
0.000277
0.000262
0.000199
0.000056
0.001205
0.000535
0.000325
0.000275
0.000242
0.000225
0.000230
0.000244
0.000485
0.000222
0.000240
0.000246
0.000366
0.000426
0.000475
0.000345
0.000236
0.000240
0.000341
0.000353
0.000273
0.000257
0.000268
0.000246
0.000268
0.000578
0.000590
0.000223
0.000264
0.000256
0.000172
0.000055
0.000220
0.000218
0.000253
0.000229
0.001476
0.000296
0.000221
0.000254
0.000239
0.000252
0.000253
0.000250
0.000245
0.000271
0.000259
0.000505
0.000222
0.000639
0.000270
0.001752
0.000282
0.000249
0.000294
0.000516
0.000471
0.000412
0.000244
0.000247
0.000259
0.000261
0.000202
0.000055
0.000217
0.000253
0.000233
0.000328
0.001248
0.000240
0.000247
0.000263
0.000238
0.000240
0.000236
0.000250
0.000279
0.000262
0.000234
0.000313
0.000450
0.000408
0.000331
0.000263
0.000265
0.000269
0.000250
0.000234
0.000287
0.000265
0.000240
0.000279
0.000288
0.000423
0.000506
0.000055
0.000218
0.000247
0.000244
0.000257
0.000264
0.000242
0.000239
0.000277
0.000250
0.000255
0.001428
0.000228
0.000245
0.000247
0.000247
0.000248
0.000263
0.000265
0.000262
0.000270
0.000292
0.000490
0.000411
0.000411
0.000228
0.000274
0.001762
0.000282
0.000231
0.000314
0.000441
0.000056
0.000202
0.000412
0.000429
0.000502
0.000515
0.000566
0.001472
0.000419
0.000518
0.000651
0.000553
0.000749
0.000469
0.000594
0.000587
0.001913
0.000362
0.000458
0.000405
0.000315
0.000228
0.000291
0.000258
0.000256
0.000280
0.000276
0.000285
0.000290
0.000277
0.000269
0.001379
0.000056
0.000203
0.000231
0.000246
0.000240
0.000256
0.000256
0.000239
0.000238
0.000250
0.000254
0.000236
0.000244
0.000253
0.000260
0.000258
0.000273
0.001808
0.000287
0.000230
0.000241
0.000258
0.000262
0.000267
0.000275
0.000417
0.000423
0.000344
0.000234
0.000267
0.000285
0.000205
0.000058
0.000186
0.001359
0.000333
0.000265
0.000257
0.000246
0.000241
0.000236
0.000227
0.000241
0.000224
0.000238
0.000258
0.000497
0.000368
0.000283
0.000262
0.000260
0.001933
0.000227
0.000240
0.000264
0.000256
0.000267
0.000278
0.000284
0.000268
0.000253
0.000267
0.000318
0.000206
0.000056
0.000218
0.000245
0.000250
0.001436
0.000216
0.000252
0.000255
0.000248
0.000236
0.000263
0.000248
0.000251
0.000244
0.000260
0.000262
0.000249
0.000263
0.000270
0.000263
0.000258
0.000257
0.001772
0.000304
0.001730
0.000264
0.000247
0.000273
0.000268
0.000267
0.000276
0.000203
0.000054
0.000208
0.000230
0.001345
0.000224
0.000255
0.000250
0.000256
0.000259
0.000239
0.000255
0.000240
0.000251
0.000261
0.000262
0.000259
0.000266
0.000271
0.000266
0.000312
0.000219
0.001882
0.000225
0.001837
0.000246
0.000259
0.000276
0.000229
0.000252
0.000250
0.000274
0.000190
0.000057
0.001423
0.000238
0.000214
0.000244
0.000243
0.000234
0.000374
0.000268
0.000254
0.000272
0.000234
0.000259
0.000236
0.000366
0.000395
0.000293
0.000242
0.000265
0.000276
0.000244
0.000261
0.000343
0.000229
0.000255
0.000267
0.000275
0.000277
0.000570
0.000404
0.000368
0.000198
0.000056
0.000207
0.000240
0.000257
0.000309
0.000397
0.000225
0.001722
0.000275
0.000280
0.000272
0.000250
0.000270
0.000293
0.000243
0.000297
0.000301
0.000435
0.000472
0.000386
0.000268
0.000294
0.000286
0.000267
0.000246
0.000340
0.000288
0.000253
0.000238
0.000259
0.000317
0.000463
0.000056
0.000235
0.000472
0.000282
0.000259
0.000245
0.000230
0.000233
0.000242
0.000259
0.000250
0.001516
0.000229
0.000221
0.000254
0.000242
0.000290
0.000275
0.000260
0.000241
0.000269
0.000271
0.000363
0.000566
0.000288
0.000273
0.000288
0.000266
0.000259
0.000237
0.000304
0.000164
0.000056
0.000203
0.000232
0.000427
0.000313
0.000386
0.000270
0.000213
0.000250
0.000252
0.000250
0.000238
0.000243
0.000260
0.000268
0.000241
0.000257
0.000475
0.001117
0.000245
0.000248
0.000272
0.000248
0.000356
0.000420
0.000253
0.000345
0.000635
0.000279
0.000358
0.000245
0.000178
0.000057
0.000241
0.000248
0.000257
0.000264
0.000256
0.000246
0.000317
0.000455
0.000427
0.000266
0.000367
0.000391
0.000386
0.000360
0.000252
0.000258
0.000236
0.000258
0.000462
0.001376
0.000290
0.000221
0.000275
0.000272
0.000235
0.000237
0.000261
0.000309
0.000456
0.000402
0.000261
0.000056
0.000202
0.000239
0.000255
0.000239
0.000244
0.000254
0.000233
0.000262
0.000307
0.000332
0.000422
0.000403
0.000244
0.000230
0.000259
0.000251
0.000253
0.000261
0.000264
0.000247
0.000446
0.000307
0.000346
0.000351
0.000350
0.000257
0.000271
0.000271
0.000246
0.000342
0.000155
0.000055
0.000309
0.000317
0.000286
0.000404
0.000510
0.000278
0.000260
0.000241
0.000242
0.000276
0.000254
0.000260
0.000240
0.000249
0.000241
0.000232
0.000264
0.000370
0.000527
0.000309
0.000234
0.000258
0.000251
0.000244
0.000266
0.000277
0.000270
0.000262
0.000284
0.000257
0.000276
0.000056
0.000251
0.000362
0.000232
0.000248
0.000246
0.000249
0.000240
0.000250
0.000268
0.000259
0.000252
0.000237
0.000359
0.000417
0.000455
0.000293
0.000226
0.000242
0.000260
0.000262
0.000271
0.000249
0.000264
0.000261
0.000271
0.000349
0.000408
0.000682
0.000288
0.000254
0.000177
0.000056
0.000397
0.000198
0.000236
0.000247
0.000252
0.000242
0.000236
0.000254
0.000256
0.000260
0.000221
0.000249
0.000269
0.000228
0.000241
0.000267
0.000247
0.000265
0.000291
0.000245
0.000262
0.000262
0.000266
0.000260
0.000268
0.000237
0.000277
0.000266
0.000258
0.000278
0.000199
0.000055
0.000226
0.000213
0.000245
0.000251
0.000230
0.000257
0.000260
0.000240
0.000257
0.000277
0.000247
0.000212
0.000265
0.000399
0.000254
0.000277
0.000263
0.000268
0.000253
0.000278
0.000273
0.000242
0.000237
0.000258
0.000267
0.000291
0.000233
0.000257
0.000273
0.000257
0.000203
0.000056
0.000209
0.000356
0.000367
0.000279
0.000306
0.000247
0.000279
0.000257
0.000221
0.000246
0.000251
0.000262
0.000248
0.000238
0.000257
0.000272
0.000252
0.000267
0.000241
0.000265
0.000274
0.000266
0.000280
0.000271
0.000252
0.000254
0.000257
0.000271
0.000275
0.000256
0.000191
0.000056
0.000214
0.000236
0.000262
0.000265
0.000484
0.000214
0.000226
0.000232
0.000259
0.000438
0.000533
0.000273
0.000220
0.000254
0.000270
0.000268
0.000240
0.000264
0.000264
0.000264
0.000273
0.000253
0.000260
0.000262
0.000514
0.000592
0.000207
0.000306
0.000260
0.000262
0.000190
0.000055
0.000205
0.000219
0.000250
0.000252
0.000343
0.000662
0.000282
0.000376
0.000213
0.000248
0.000250
0.000255
0.000251
0.000261
0.000239
0.000276
0.000258
0.000303
0.000606
0.000366
0.000294
0.000251
0.000257
0.000281
0.000283
0.000253
0.000268
0.000267
0.000264
0.000314
0.000307
0.000055
0.000289
0.000232
0.000242
0.000238
0.000255
0.000254
0.000228
0.000247
0.000241
0.000263
0.000258
0.000236
0.000246
0.000422
0.000677
0.000293
0.000203
0.000259
0.000261
0.000249
0.000265
0.000269
0.000493
0.000222
0.000260
0.000662
0.000349
0.000483
0.000253
0.000255
0.000184
0.000056
0.000214
0.000243
0.000246
0.000237
0.000254
0.000260
0.000323
0.000727
0.000296
0.000398
0.000221
0.000261
0.000278
0.000272
0.000259
0.000246
0.000237
0.000250
0.000267
0.000308
0.000409
0.000645
0.000366
0.000263
0.000359
0.000375
0.000495
0.000229
0.000271
0.000513
0.000280
0.000057
0.000275
0.000232
0.000431
0.000221
0.000231
0.000260
0.000260
0.000257
0.000236
0.000259
0.000271
0.000442
0.000315
0.000326
0.000244
0.000251
0.000247
0.000248
0.000264
0.000288
0.000262
0.000253
0.000256
0.000286
0.000263
0.000495
0.000509
0.000249
0.000243
0.000273
0.000197
0.000056
0.000206
0.000247
0.000230
0.000243
0.000249
0.000265
0.000352
0.000396
0.000443
0.000278
0.000368
0.000231
0.000245
0.000267
0.000259
0.000234
0.000258
0.000258
0.000290
0.000392
0.000512
0.000307
0.000477
0.000275
0.000425
0.000392
0.000374
0.000243
0.000251
0.000341
0.000306
0.000055
0.000233
0.000285
0.000223
0.000254
0.000258
0.000259
0.000255
0.000240
0.000277
0.000240
0.000231
0.000338
0.000465
0.000383
0.000373
0.000222
0.000274
0.000257
0.000268
0.000231
0.000252
0.000250
0.000267
0.000273
0.000275
0.000335
0.000533
0.000425
0.000247
0.000280
0.000187
0.000055
0.000212
0.000240
0.000263
0.000258
0.000245
0.000331
0.000529
0.000465
0.000335
0.000692
0.000263
0.000214
0.000251
0.000257
0.000249
0.000269
0.000274
0.000277
0.000477
0.000548
0.001380
0.000303
0.000259
0.000260
0.000297
0.000271
0.000451
0.000342
0.000395
0.000296
0.000167
0.000055
0.000202
0.000229
0.000247
0.000243
0.000239
0.000257
0.000276
0.000247
0.000252
0.000330
0.000327
0.000383
0.000272
0.000362
0.000364
0.000343
0.000256
0.000232
0.000277
0.000258
0.000242
0.000246
0.000289
0.000260
0.000299
0.000435
0.000429
0.000332
0.000221
0.000269
0.000188
0.000056
0.000213
0.000240
0.000259
0.000253
0.000243
0.000237
0.000470
0.000215
0.000231
0.000253
0.000248
0.000251
0.000260
0.000252
0.000258
0.000263
0.000259
0.000266
0.000273
0.000257
0.000274
0.000271
0.000295
0.000246
0.000265
0.000283
0.000264
0.000268
0.000260
0.000279
0.000164
0.000056
0.000214
0.000253
0.000349
0.000358
0.000371
0.000259
0.000234
0.000246
0.000261
0.000247
0.000251
0.000256
0.000264
0.000262
0.000237
0.000247
0.000247
0.000262
0.000276
0.000387
0.000409
0.000393
0.000228
0.000263
0.000266
0.000250
0.000271
0.000251
0.000272
0.000278
0.000199
0.000056
0.000356
0.000365
0.000432
0.000215
0.000257
0.000251
0.000414
0.000210
0.000245
0.000254
0.000247
0.000337
0.000312
0.000435
0.001877
0.000252
0.000237
0.000253
0.000278
0.000240
0.000311
0.000468
0.000707
0.000205
0.000236
0.000265
0.000264
0.000433
0.000273
0.000285
0.000162
0.000056
0.000238
0.000367
0.000342
0.000308
0.000494
0.000206
0.000240
0.000255
0.000248
0.000245
0.000260
0.000243
0.000261
0.000385
0.000327
0.000501
0.000210
0.000250
0.000261
0.000256
0.000268
0.000308
0.000235
0.000284
0.000280
0.000437
0.000544
0.000457
0.000371
0.000234
0.000211
0.000057
0.000213
0.000243
0.000257
0.000230
0.000249
0.000253
0.000270
0.000268
0.000396
0.000276
0.000476
0.000349
0.000221
0.000255
0.000268
0.000275
0.000301
0.000247
0.000274
0.000275
0.000234
0.000281
0.000516
0.000346
0.000290
0.000252
0.000269
0.000432
0.000415
0.000320
0.000171
0.000056
0.000194
0.000233
0.000339
0.000405
0.000392
0.000210
0.000238
0.000252
0.000267
0.000248
0.000262
0.000264
0.000221
0.000258
0.000257
0.000297
0.000390
0.000361
0.000317
0.000327
0.000490
0.000230
0.000277
0.000280
0.000302
0.000278
0.000259
0.000263
0.000485
0.000399
0.000303
0.000055
0.000212
0.000236
0.000247
0.000249
0.000239
0.000481
0.000211
0.000257
0.000263
0.000309
0.000491
0.000633
0.000189
0.000243
0.000245
0.000246
0.000259
0.000245
0.000261
0.000252
0.000259
0.000266
0.000409
0.000378
0.000347
0.000426
0.000281
0.000305
0.000313
0.000257
0.000181
0.000056
0.000224
0.000231
0.000254
0.000513
0.000358
0.000243
0.000254
0.000245
0.000223
0.000259
0.000250
0.000250
0.000252
0.000263
0.000252
0.000267
0.000240
0.000246
0.000420
0.000291
0.000482
0.000378
0.000205
0.000256
0.000277
0.000277
0.000261
0.000257
0.000266
0.000264
0.000188
0.000055
0.000248
0.000386
0.000487
0.000253
0.000204
0.000257
0.000337
0.000448
0.000277
0.000216
0.000240
0.000276
0.000422
0.000300
0.000404
0.000295
0.000245
0.000227
0.000257
0.000267
0.000270
0.000260
0.000264
0.000275
0.000264
0.000281
0.000382
0.000443
0.000306
0.000247
0.000185
0.000055
0.000209
0.000243
0.000246
0.000254
0.000248
0.000263
0.000235
0.000252
0.000247
0.000249
0.000271
0.000235
0.000264
0.001449
0.000234
0.000255
0.000257
0.000248
0.000278
0.000276
0.000263
0.000236
0.000279
0.000256
0.000268
0.000268
0.000265
0.000269
0.000263
0.000271
0.000188
0.000056
0.000190
0.000241
0.000245
0.000251
0.000237
0.000243
0.000259
0.000260
0.000230
0.000246
0.000248
0.000262
0.000258
0.000255
0.000253
0.000264
0.000239
0.000263
0.000275
0.000253
0.000256
0.000259
0.000247
0.000254
0.001288
0.000281
0.000612
0.000311
0.000409
0.000251
0.000186
0.000055
0.000195
0.000232
0.000261
0.000238
0.000415
0.000236
0.000242
0.000242
0.000254
0.000527
0.000280
0.000348
0.000233
0.000234
0.000258
0.000265
0.000255
0.000256
0.000254
0.000259
0.000260
0.000253
0.000269
0.000432
0.000498
0.000448
0.000220
0.000269
0.001364
0.000245
0.000185
0.000055
0.000326
0.000379
0.000325
0.000265
0.000229
0.000233
0.000225
0.000253
0.000261
0.000256
0.000245
0.000260
0.000288
0.000306
0.000507
0.000377
0.000347
0.000216
0.000250
0.000259
0.000267
0.000277
0.000259
0.000264
0.000269
0.000262
0.000267
0.000613
0.000458
0.000277
0.000159
0.000055
0.000194
0.000236
0.001258
0.000432
0.000283
0.000460
0.000385
0.000485
0.000280
0.000336
0.000232
0.000220
0.000262
0.000254
0.000253
0.000264
0.000412
0.000469
0.000334
0.000388
0.000251
0.000249
0.000259
0.000505
0.000235
0.000264
0.000257
0.000279
0.000340
0.000509
0.000297
0.000056
0.000373
0.000339
0.000206
0.000226
0.001615
0.000443
0.000271
0.000249
0.000242
0.000253
0.000229
0.000237
0.000246
0.000267
0.000264
0.000247
0.000239
0.000259
0.000391
0.000395
0.000490
0.000231
0.000249
0.000254
0.000259
0.000276
0.000271
0.000233
0.000267
0.000276
0.000194
0.000055
0.000427
0.000285
0.000239
0.000223
0.000250
0.000243
0.000267
0.000233
0.000233
0.000229
0.001522
0.000376
0.000245
0.000248
0.000242
0.000252
0.000276
0.000261
0.000234
0.000276
0.000272
0.000253
0.000255
0.000410
0.000397
0.000486
0.000229
0.000270
0.000278
0.000284
0.000167
0.000056
0.000205
0.000411
0.000247
0.000215
0.000315
0.000464
0.000377
0.000313
0.000463
0.000208
0.000229
0.000253
0.000260
0.000267
0.001337
0.000362
0.000337
0.000281
0.000243
0.000270
0.000282
0.000248
0.000253
0.000259
0.000257
0.000269
0.000438
0.000481
0.000271
0.000268
0.000161
0.000056
0.000213
0.000231
0.000255
0.000236
0.000229
0.000262
0.000239
0.000249
0.000341
0.000371
0.000342
0.000318
0.000258
0.000243
0.000248
0.000268
0.000277
0.000258
0.000270
0.000227
0.000250
0.000318
0.001251
0.000265
0.000248
0.000254
0.000256
0.000268
0.000265
0.000251
0.000190
0.000055
0.000224
0.000380
0.000320
0.000369
0.000238
0.000241
0.000253
0.000264
0.000257
0.000255
0.000250
0.000270
0.000241
0.000252
0.000260
0.000259
0.000266
0.000274
0.000262
0.000248
0.000253
0.000267
0.000273
0.000275
0.000289
0.000264
0.000270
0.000260
0.000256
0.000443
0.001356
0.000056
0.000217
0.000230
0.000242
0.000240
0.000254
0.000257
0.000249
0.000224
0.000249
0.000250
0.000268
0.000258
0.000252
0.000245
0.000247
0.000244
0.001733
0.000248
0.000250
0.000259
0.000246
0.000264
0.000272
0.000259
0.000267
0.000261
0.000268
0.000275
0.000276
0.000257
0.000228
0.000055
0.000284
0.000296
0.001314
0.000215
0.000242
0.000245
0.000255
0.000250
0.000264
0.000252
0.000232
0.000359
0.000388
0.000448
0.000272
0.000223
0.000250
0.000253
0.000260
0.000262
0.000246
0.000273
0.000259
0.000278
0.000267
0.000352
0.000419
0.000366
0.000299
0.000248
0.000189
0.000055
0.000222
0.000255
0.000241
0.000247
0.000253
0.000217
0.000243
0.000250
0.000435
0.001330
0.000272
0.000207
0.000254
0.000267
0.000255
0.000264
0.000258
0.000256
0.000357
0.000438
0.000341
0.000233
0.000245
0.000247
0.000275
0.000287
0.000262
0.000287
0.000269
0.000278
0.000190
0.000055
0.000277
0.000367
0.000406
0.000223
0.000225
0.000239
0.000245
0.000279
0.000262
0.000246
0.000231
0.000252
0.000443
0.000556
0.000480
0.001397
0.000250
0.000280
0.000317
0.000347
0.000480
0.000432
0.000454
0.000419
0.000214
0.000265
0.000271
0.000274
0.000258
0.000277
0.000190
0.000056
0.000211
0.000262
0.000443
0.000424
0.000411
0.000236
0.000242
0.000230
0.000250
0.000259
0.000254
0.000261
0.000268
0.000237
0.000271
0.000348
0.000308
0.000413
0.000383
0.001321
0.000268
0.000258
0.000256
0.000264
0.000420
0.000470
0.000384
0.000252
0.000295
0.000256
0.000193
0.000056
0.000196
0.000264
0.000225
0.000241
0.000246
0.000297
0.000430
0.000381
0.000380
0.000219
0.000239
0.000264
0.000267
0.000261
0.000259
0.000264
0.000267
0.000253
0.000266
0.000336
0.000404
0.000424
0.000324
0.001348
0.000420
0.000229
0.000275
0.000473
0.000394
0.000349
0.000310
0.000056
0.000205
0.000254
0.000229
0.000245
0.000252
0.000255
0.001676
0.000244
0.000219
0.000243
0.000255
0.000245
0.000256
0.000324
0.000327
0.000283
0.000335
0.000251
0.000551
0.000409
0.000256
0.000275
0.000232
0.001414
0.000340
0.000345
0.000549
0.000334
0.000325
0.000285
0.000171
0.000056
0.000231
0.000241
0.000252
0.000262
0.000243
0.000257
0.001707
0.000245
0.000234
0.000270
0.000323
0.000413
0.001437
0.000367
0.000383
0.000255
0.000247
0.000242
0.000268
0.000270
0.001542
0.000572
0.000376
0.000296
0.000247
0.000242
0.000263
0.000279
0.000249
0.000267
0.000177
0.000056
0.000200
0.000246
0.000267
0.000247
0.000257
0.000303
0.000256
0.000263
0.000243
0.000253
0.000246
0.000252
0.000266
0.000282
0.000232
0.001493
0.000287
0.000237
0.000264
0.000276
0.000273
0.000256
0.000433
0.001264
0.000275
0.000241
0.000271
0.000253
0.000399
0.000236
0.000203
0.000055
0.000189
0.000243
0.000223
0.000246
0.000239
0.000227
0.000236
0.001682
0.000264
0.000228
0.000250
0.000369
0.000227
0.000224
0.000256
0.001380
0.000243
0.000259
0.000272
0.000243
0.000262
0.000352
0.000272
0.001314
0.000279
0.000252
0.000251
0.000263
0.001389
0.000278
0.000178
0.000056
0.000282
0.000316
0.000218
0.000233
0.000249
0.000246
0.000259
0.000269
0.000268
0.000247
0.000258
0.000266
0.000254
0.000263
0.000277
0.001512
0.000248
0.000272
0.000258
0.000244
0.000285
0.000264
0.000248
0.001508
0.000356
0.000229
0.000272
0.001261
0.000282
0.000240
0.000217
0.000055
0.000242
0.000368
0.000347
0.000219
0.000235
0.000241
0.000260
0.000254
0.000265
0.000277
0.000236
0.000254
0.000259
0.000255
0.000426
0.001220
0.000232
0.000264
0.000265
0.000272
0.000228
0.000246
0.000250
0.000324
0.001286
0.000244
0.000249
0.000253
0.000258
0.001343
0.000316
0.000057
0.000300
0.000221
0.000237
0.000233
0.000236
0.000260
0.000238
0.000248
0.000280
0.000251
0.000238
0.000250
0.000251
0.000357
0.000488
0.001368
0.000228
0.000244
0.000305
0.000508
0.000292
0.000391
0.001344
0.000290
0.000250
0.000266
0.000256
0.001299
0.000376
0.000398
0.000378
0.000057
0.000224
0.000248
0.000257
0.000255
0.000251
0.000254
0.000274
0.000245
0.000264
0.000262
0.000391
0.000420
0.001305
0.000241
0.000264
0.000262
0.000282
0.000223
0.000248
0.000234
0.000341
0.001230
0.000262
0.000255
0.000258
0.000256
0.001425
0.000508
0.000472
0.000224
0.000196
0.000055
0.000206
0.000232
0.000247
0.000234
0.000256
0.000261
0.000246
0.000249
0.000455
0.000495
0.000249
0.001486
0.000214
0.000240
0.000265
0.000255
0.000258
0.000280
0.001697
0.000258
0.000402
0.000329
0.001317
0.000318
0.000309
0.000317
0.000255
0.000273
0.000257
0.000272
0.000194
0.000056
0.000208
0.000233
0.000332
0.000276
0.000268
0.000619
0.000238
0.000274
0.001467
0.000278
0.000349
0.000265
0.000218
0.000340
0.000376
0.001291
0.000281
0.000234
0.000246
0.000263
0.001641
0.000325
0.000217
0.000269
0.000261
0.000260
0.000460
0.000329
0.000232
0.000255
0.000262
0.000056
0.000258
0.000382
0.000319
0.000273
0.000213
0.001522
0.000211
0.000250
0.000270
0.000269
0.000266
0.000237
0.000302
0.001480
0.000266
0.000233
0.000426
0.001187
0.000339
0.000429
0.000422
0.000238
0.000238
0.000256
0.000278
0.000246
0.000452
0.000223
0.000268
0.000281
0.000192
0.000056
0.000217
0.000242
0.000364
0.000384
0.001262
0.000293
0.000310
0.000234
0.000258
0.000237
0.000245
0.000318
0.001488
0.000265
0.000237
0.000244
0.001367
0.000305
0.000455
0.000347
0.000425
0.000232
0.000252
0.000250
0.000269
0.000283
0.000268
0.000254
0.000270
0.000248
0.000196
0.000057
0.000237
0.000337
0.001494
0.000226
0.000265
0.000273
0.000241
0.000249
0.000265
0.000400
0.001367
0.000218
0.000256
0.000262
0.000267
0.001254
0.000697
0.000316
0.000317
0.000406
0.000293
0.000243
0.000274
0.000260
0.000269
0.000287
0.000276
0.000366
0.000364
0.000439
0.001369
0.000056
0.000201
0.000237
0.000254
0.000223
0.000249
0.000424
0.000519
0.001250
0.000242
0.000241
0.000246
0.001461
0.000437
0.000295
0.000231
0.000402
0.000255
0.000245
0.000265
0.000277
0.000238
0.000271
0.000282
0.000256
0.000254
0.000369
0.000342
0.000491
0.001486
0.000238
0.000183
0.000056
0.000198
0.000254
0.000342
0.000546
0.001243
0.000277
0.000253
0.000262
0.000240
0.000253
0.000251
0.000284
0.000342
0.000509
0.000325
0.000234
0.000254
0.000273
0.000241
0.000278
0.000262
0.000265
0.000258
0.000269
0.000293
0.000387
0.000475
0.000338
0.000301
0.001398
0.000186
0.000055
0.000203
0.000241
0.000424
0.000333
0.000310
0.000326
0.000299
0.000334
0.000266
0.000281
0.000237
0.000269
0.000250
0.000305
0.000234
0.000354
0.000477
0.000413
0.000228
0.000370
0.000273
0.000410
0.000218
0.000271
0.000248
0.000267
0.000246
0.000301
0.000344
0.000507
0.000290
0.000056
0.000183
0.001399
0.000254
0.000331
0.000399
0.000455
0.000342
0.000314
0.000232
0.000231
0.000261
0.000246
0.000265
0.000271
0.000267
0.000252
0.000261
0.001295
0.000321
0.000257
0.000253
0.000270
0.000270
0.000280
0.000269
0.000257
0.000276
0.000244
0.000351
0.000397
0.000335
0.000057
0.000209
0.000257
0.000222
0.001489
0.000344
0.000227
0.000219
0.000253
0.000229
0.000249
0.000251
0.000274
0.000252
0.000246
0.000274
0.000246
0.000281
0.000232
0.000266
0.000261
0.001426
0.000240
0.000241
0.000280
0.000254
0.000246
0.000271
0.000269
0.000267
0.000489
0.000349
0.000055
0.000202
0.000239
0.000391
0.000278
0.000245
0.000258
0.001537
0.000389
0.000253
0.000216
0.000263
0.000315
0.000331
0.000226
0.000248
0.000231
0.000246
0.000264
0.000263
0.000256
0.000486
0.000479
0.001143
0.000275
0.000231
0.000262
0.000266
0.000259
0.000274
0.000260
0.000475
0.000056
0.000223
0.000345
0.000212
0.000237
0.000252
0.000243
0.000243
0.000231
0.000286
0.001614
0.000361
0.000282
0.000242
0.000252
0.000258
0.000244
0.000276
0.000257
0.000281
0.000292
0.000367
0.000465
0.000410
0.001366
0.000240
0.000257
0.000273
0.000264
0.000266
0.000273
0.000439
0.000056
0.000275
0.000241
0.000237
0.000240
0.000225
0.000240
0.000257
0.000273
0.000252
0.001560
0.000361
0.000259
0.000264
0.000256
0.000456
0.000268
0.000525
0.000376
0.000296
0.000336
0.000435
0.000467
0.001267
0.000263
0.000239
0.000250
0.001745
0.000428
0.000603
0.000323
0.000142
0.000056
0.000212
0.000232
0.000237
0.000238
0.000255
0.000247
0.000244
0.000551
0.000436
0.000427
0.000293
0.000211
0.000247
0.000263
0.000269
0.000260
0.000244
0.000256
0.000255
0.000270
0.000278
0.000434
0.001326
0.000224
0.000247
0.000274
0.001899
0.000383
0.000375
0.000349
0.000160
0.000055
0.000245
0.000248
0.000243
0.001616
0.000376
0.000213
0.000235
0.000262
0.000259
0.000283
0.000390
0.000351
0.000363
0.000273
0.000387
0.000421
0.000402
0.001200
0.000285
0.000223
0.000254
0.000267
0.000265
0.000409
0.000669
0.000413
0.000255
0.000257
0.000266
0.000283
0.000190
0.000056
0.000185
0.000236
0.000242
0.001552
0.000237
0.000233
0.000243
0.000253
0.000237
0.000256
0.000254
0.000294
0.000241
0.000273
0.000232
0.000467
0.000457
0.000261
0.001388
0.000241
0.000250
0.000265
0.000255
0.000267
0.000379
0.000527
0.000390
0.000273
0.000291
0.000219
0.000446
0.000055
0.000198
0.000243
0.000257
0.001516
0.000321
0.000218
0.000269
0.000244
0.000252
0.000257
0.000252
0.000258
0.000274
0.000272
0.000373
0.000504
0.001383
0.000747
0.000281
0.000315
0.000260
0.000236
0.000243
0.000274
0.001676
0.000805
0.000234
0.000260
0.000278
0.000285
0.000184
0.000055
0.000207
0.000232
0.000252
0.000244
0.000259
0.000243
0.000245
0.000255
0.000237
0.000235
0.000289
0.000285
0.000253
0.000243
0.000261
0.000251
0.000275
0.001592
0.000708
0.000350
0.000345
0.000229
0.000245
0.000280
0.000267
0.000279
0.000259
0.000256
0.001388
0.000393
0.000345
0.000057
0.000188
0.000231
0.000249
0.000261
0.000251
0.000234
0.000253
0.000249
0.000253
0.000266
0.000260
0.000437
0.000431
0.000331
0.000222
0.000246
0.000265
0.001387
0.000686
0.000476
0.000363
0.000244
0.000243
0.000247
0.000270
0.000245
0.000267
0.000268
0.001478
0.000442
0.000188
0.000055
0.000183
0.000232
0.000241
0.000250
0.000254
0.000245
0.000237
0.000247
0.000276
0.000260
0.000396
0.000431
0.000254
0.000213
0.000243
0.000248
0.000262
0.000253
0.001559
0.000629
0.000472
0.000321
0.000233
0.000260
0.000265
0.000252
0.000271
0.000282
0.000265
0.001414
0.000274
0.000056
0.000217
0.000218
0.000236
0.000251
0.000255
0.000245
0.000264
0.000295
0.000364
0.000473
0.000348
0.000356
0.000377
0.000223
0.000243
0.000250
0.000278
0.000257
0.000263
0.001889
0.000367
0.000236
0.000438
0.000250
0.000246
0.000268
0.000266
0.000266
0.000265
0.000273
0.000457
0.000057
0.000260
0.000262
0.000232
0.000256
0.000235
0.000251
0.000228
0.000241
0.000265
0.000253
0.000244
0.000234
0.000364
0.000365
0.000561
0.000367
0.000211
0.000265
0.000251
0.000251
0.000261
0.000284
0.001462
0.001057
0.000226
0.000247
0.000268
0.000265
0.000274
0.000248
0.000205
0.000055
0.000198
0.001396
0.000270
0.000195
0.000237
0.000235
0.000255
0.000235
0.000242
0.000250
0.000263
0.000258
0.000243
0.000432
0.000306
0.000459
0.000284
0.000253
0.000279
0.000250
0.000263
0.000235
0.000254
0.000271
0.001340
0.000663
0.000306
0.000397
0.000367
0.000396
0.000300
0.000056
0.000204
0.000238
0.001456
0.000221
0.000218
0.000264
0.000211
0.000256
0.000261
0.000256
0.000246
0.000246
0.000269
0.000408
0.000523
0.000292
0.000227
0.000273
0.000332
0.000225
0.000240
0.000270
0.000235
0.000274
0.000265
0.001541
0.000757
0.000281
0.000275
0.000272
0.000191
0.000056
0.000208
0.000236
0.000517
0.000343
0.001255
0.000247
0.000235
0.000227
0.000230
0.000249
0.000246
0.000260
0.000229
0.000235
0.000259
0.000252
0.000266
0.000239
0.000256
0.000256
0.000263
0.000265
0.000302
0.000335
0.000221
0.000268
0.000266
0.001514
0.000236
0.000215
0.000169
0.000054
0.000189
0.000259
0.000227
0.000265
0.000351
0.000379
0.000390
0.000270
0.001576
0.000219
0.000311
0.000480
0.000365
0.000238
0.000431
0.000235
0.000242
0.000263
0.000271
0.000268
0.000281
0.000266
0.000255
0.000267
0.000261
0.000426
0.000354
0.001696
0.000269
0.000199
0.000178
0.000057
0.000208
0.000246
0.000251
0.000244
0.000243
0.000244
0.000261
0.000271
0.000443
0.002048
0.000228
0.000241
0.000256
0.000257
0.000265
0.000246
0.000274
0.000252
0.000278
0.000422
0.000399
0.000422
0.001481
0.000228
0.000518
0.000235
0.001760
0.000246
0.000269
0.001514
0.000156
0.000074
0.000295
0.000427
0.000475
0.000246
0.000265
0.000222
0.000264
0.000267
0.000260
0.000225
0.000249
0.000336
0.000476
0.000284
0.000473
0.000206
0.000229
0.001565
0.000227
0.000636
0.001820
0.000297
0.000249
0.001546
0.002007
0.000746
0.000279
0.000260
0.000280
0.000439
0.000415
0.000057
0.000208
0.000245
0.000245
0.000251
0.001412
0.001736
0.001079
0.000212
0.000233
0.001578
0.001981
0.000223
0.000223
0.000420
0.000332
0.000331
0.000377
0.000533
0.000198
0.000242
0.000244
0.000256
0.000283
0.001578
0.001223
0.001418
0.000266
0.000301
0.000252
0.000304
0.000363
0.000055
0.000223
0.000220
0.000246
0.000239
0.000227
0.000245
0.000247
0.000251
0.000262
0.000246
0.000242
0.000310
0.000388
0.000516
0.000268
0.000272
0.000264
0.000255
0.000269
0.000266
0.000254
0.000261
0.001506
0.000486
0.002113
0.000226
0.000286
0.000451
0.000325
0.000368
0.000196
0.000056
0.000202
0.000446
0.000402
0.000307
0.000192
0.000234
0.000249
0.000245
0.000239
0.000244
0.000248
0.000264
0.000258
0.001603
0.001363
0.001225
0.000276
0.000233
0.000251
0.000269
0.000284
0.000276
0.000245
0.000253
0.002203
0.000252
0.000245
0.000304
0.000324
0.000305
0.000215
0.000056
0.000221
0.000363
0.000526
0.000353
0.000219
0.000237
0.000243
0.000272
0.001912
0.001412
0.000222
0.000340
0.000374
0.000407
0.000257
0.000226
0.000263
0.000266
0.000273
0.000254
0.000257
0.000267
0.000471
0.000234
0.000270
0.000265
0.000252
0.000274
0.000287
0.000246
0.000204
0.000055
0.000204
0.000247
0.000243
0.000241
0.000254
0.000276
0.001536
0.001418
0.001328
0.000255
0.000214
0.000240
0.000269
0.000261
0.000245
0.000252
0.000253
0.002101
0.000256
0.000235
0.000263
0.000264
0.000257
0.000264
0.000260
0.000259
0.000274
0.000256
0.000271
0.000256
0.000177
0.000055
0.000202
0.002700
0.001378
0.000220
0.000303
0.000302
0.000227
0.000266
0.000256
0.000243
0.000255
0.000241
0.000237
0.000251
0.000267
0.000256
0.000270
0.000273
0.000268
0.000246
0.000268
0.000284
0.000270
0.000267
0.000247
0.000241
0.000269
0.000272
0.000259
0.000268
0.000365
0.000055
0.001544
0.000255
0.001234
0.000231
0.000231
0.000235
0.000266
0.000251
0.000248
0.000267
0.000463
0.000286
0.000354
0.000204
0.000253
0.002148
0.000241
0.000245
0.000268
0.000530
0.000352
0.000304
0.000224
0.000268
0.000254
0.000247
0.000262
0.000281
0.000271
0.001607
0.001251
0.000055
0.000208
0.000223
0.000317
0.000409
0.000324
0.000287
0.000209
0.000234
0.000253
0.000258
0.000264
0.000246
0.000229
0.000255
0.000263
0.000237
0.000361
0.000570
0.000368
0.000253
0.000222
0.000275
0.000296
0.000232
0.000256
0.000250
0.000261
0.000277
0.000241
0.000446
0.000228
0.000056
0.001124
0.000288
0.000298
0.000457
0.000272
0.000230
0.000225
0.000238
0.000253
0.002293
0.000370
0.000382
0.000231
0.000375
0.000276
0.000268
0.000266
0.000248
0.000271
0.000220
0.000255
0.000290
0.000566
0.000468
0.001870
0.001302
0.000559
0.000524
0.000224
0.000277
0.000197
0.000056
0.000315
0.000258
0.000247
0.000243
0.000245
0.000228
0.000257
0.000255
0.000264
0.000238
0.000257
0.000224
0.000243
0.000264
0.000405
0.000556
0.001786
0.001334
0.000447
0.000403
0.000460
0.000252
0.000237
0.000262
0.002194
0.000545
0.000330
0.000234
0.000275
0.000281
0.000194
0.000057
0.000222
0.000223
0.000258
0.000237
0.000249
0.000315
0.000438
0.000310
0.000295
0.000244
0.000248
0.000250
0.000264
0.002115
0.000417
0.000329
0.000216
0.000253
0.000262
0.000266
0.000247
0.002450
0.000349
0.000229
0.000249
0.000253
0.000255
0.000270
0.000287
0.000276
0.000191
0.000056
0.000191
0.000344
0.000523
0.000400
0.000258
0.000215
0.000239
0.000256
0.000261
0.000251
0.001957
0.000387
0.000268
0.000298
0.000219
0.000268
0.000274
0.000242
0.002207
0.000443
0.000226
0.000264
0.000277
0.000249
0.000254
0.000255
0.000281
0.000255
0.000272
0.000251
0.000190
0.000056
0.000225
0.000234
0.000256
0.000218
0.000246
0.000253
0.000250
0.000262
0.000206
0.002185
0.000220
0.000283
0.000225
0.000426
0.000232
0.000248
0.000276
0.000290
0.000260
0.000247
0.001959
0.000288
0.000381
0.000369
0.000391
0.000399
0.000307
0.000249
0.000255
0.000258
0.000195
0.000055
0.000192
0.000238
0.000238
0.000262
0.000236
0.000322
0.000232
0.002298
0.000233
0.000238
0.000261
0.000257
0.000241
0.000247
0.000307
0.002119
0.000593
0.000228
0.000252
0.000245
0.000257
0.000259
0.000285
0.000291
0.000244
0.000250
0.000288
0.000258
0.000261
0.000268
0.000196
0.000055
0.001835
0.001444
0.000187
0.000235
0.000245
0.000254
0.000252
0.000272
0.000530
0.000197
0.002197
0.000262
0.000224
0.000272
0.000272
0.000528
0.000391
0.000306
0.000216
0.000248
0.000249
0.000266
0.000267
0.000222
0.000262
0.000272
0.000263
0.000264
0.000347
0.000693
0.000246
0.000057
0.000202
0.000248
0.000242
0.000270
0.000258
0.000245
0.000255
0.000240
0.001507
0.002091
0.000582
0.000286
0.000406
0.000682
0.000380
0.000214
0.000253
0.000247
0.000269
0.000259
0.000258
0.000239
0.000258
0.000264
0.001825
0.001462
0.000289
0.000271
0.000277
0.000320
0.000443
0.000056
0.001945
0.000221
0.000224
0.000243
0.000302
0.000341
0.000518
0.000235
0.000303
0.000202
0.000250
0.000251
0.000256
0.000262
0.000257
0.000261
0.000252
0.000265
0.001842
0.000244
0.000233
0.000256
0.000272
0.000282
0.000271
0.000258
0.001461
0.000328
0.000274
0.000243
0.000172
0.000055
0.000200
0.000238
0.000237
0.000244
0.000254
0.000237
0.000273
0.000401
0.000475
0.000249
0.000232
0.000240
0.000240
0.000334
0.000430
0.000310
0.000226
0.000247
0.000267
0.000459
0.000317
0.000471
0.000293
0.000233
0.000262
0.000252
0.000253
0.000272
0.000275
0.000264
0.000203
0.000055
0.001449
0.000427
0.000232
0.001922
0.000270
0.000430
0.000443
0.000315
0.000228
0.000259
0.000255
0.000244
0.000245
0.000248
0.000266
0.000260
0.000514
0.000194
0.000453
0.000329
0.000382
0.000225
0.000257
0.000270
0.000269
0.000274
0.000261
0.000269
0.000376
0.000483
0.001334
0.000057
0.000206
0.000223
0.002070
0.000380
0.000236
0.000258
0.000258
0.000254
0.000258
0.000264
0.000213
0.000250
0.000259
0.000259
0.000260
0.000356
0.000712
0.001764
0.000229
0.000248
0.000252
0.000272
0.000452
0.000349
0.001589
0.000279
0.000366
0.001918
0.000267
0.000260
0.000186
0.000056
0.000204
0.000227
0.000236
0.000243
0.000230
0.000247
0.000252
0.000285
0.000329
0.000276
0.000382
0.000352
0.000338
0.000305
0.000233
0.000273
0.000256
0.000244
0.000268
0.000253
0.000297
0.000292
0.000266
0.000262
0.000270
0.001506
0.000289
0.000391
0.002061
0.000227
0.000179
0.000056
0.000227
0.000232
0.000239
0.000248
0.000483
0.000208
0.000254
0.000351
0.000320
0.000345
0.000298
0.000209
0.000268
0.000266
0.000270
0.000323
0.000389
0.000465
0.000246
0.000404
0.000642
0.000363
0.001556
0.000228
0.000262
0.001959
0.000348
0.000248
0.000246
0.000293
0.000186
0.000055
0.000212
0.000244
0.000226
0.000242
0.000253
0.000269
0.000256
0.000268
0.000253
0.000251
0.001832
0.000313
0.000374
0.000353
0.000389
0.000366
0.000439
0.001412
0.000241
0.000275
0.002138
0.000547
0.000263
0.000238
0.000268
0.000263
0.000506
0.000228
0.000253
0.000272
0.000200
0.000056
0.000283
0.000373
0.000344
0.000304
0.000204
0.000242
0.000255
0.000271
0.000248
0.000290
0.000229
0.000250
0.000262
0.000261
0.000374
0.001488
0.000317
0.000208
0.000276
0.001906
0.000368
0.000287
0.000250
0.000267
0.000245
0.000282
0.000267
0.000263
0.000251
0.000260
0.000203
0.000056
0.000291
0.000356
0.002037
0.000248
0.000258
0.000215
0.000242
0.000306
0.000423
0.000452
0.001298
0.000398
0.000331
0.002086
0.000202
0.000248
0.000267
0.000277
0.000257
0.000248
0.000278
0.000297
0.000257
0.000401
0.000443
0.000380
0.000305
0.002224
0.000490
0.000503
0.000367
0.000056
0.000199
0.000229
0.000249
0.001960
0.000233
0.000225
0.000242
0.000243
0.000242
0.000256
0.000242
0.000264
0.000244
0.000302
0.000413
0.001482
0.000246
0.000246
0.000270
0.000260
0.000233
0.000254
0.000263
0.000267
0.000506
0.000257
0.000492
0.000239
0.001588
0.000297
0.000139
0.000056
0.000197
0.000232
0.000243
0.000234
0.000251
0.000249
0.000267
0.000238
0.000262
0.000434
0.000350
0.001362
0.000251
0.000208
0.000251
0.000262
0.000256
0.000257
0.000494
0.000296
0.000528
0.000308
0.000236
0.001566
0.000225
0.000261
0.000289
0.000284
0.000261
0.000268
0.000188
0.000055
0.000214
0.000235
0.000265
0.000266
0.000250
0.000241
0.000237
0.000242
0.000269
0.000226
0.000252
0.000259
0.000252
0.001478
0.000368
0.000213
0.000250
0.000258
0.000329
0.000261
0.000429
0.000221
0.000244
0.000259
0.000265
0.000264
0.000260
0.001405
0.000282
0.000227
0.000177
0.000055
0.000203
0.000231
0.000261
0.000260
0.000255
0.000231
0.000253
0.000259
0.000219
0.000262
0.000247
0.000259
0.000226
0.000281
0.000389
0.000379
0.000247
0.000243
0.001629
0.000248
0.000242
0.000258
0.000280
0.000303
0.000346
0.000392
0.000446
0.000267
0.000265
0.001587
0.000166
0.000056
0.000328
0.000321
0.000344
0.000320
0.000223
0.000222
0.000245
0.000271
0.000251
0.000235
0.000249
0.000240
0.001461
0.000323
0.000280
0.000229
0.000244
0.000258
0.000270
0.000261
0.000247
0.000248
0.000257
0.000268
0.000240
0.000426
0.000394
0.000429
0.000221
0.000259
0.000194
0.000054
0.000206
0.000234
0.000552
0.000226
0.000380
0.000286
0.000247
0.000249
0.000253
0.000256
0.000242
0.000228
0.000257
0.000243
0.001253
0.000286
0.000246
0.000261
0.000263
0.000273
0.000238
0.000263
0.000254
0.000261
0.000255
0.000259
0.000340
0.000645
0.000460
0.000233
0.000176
0.000055
0.000191
0.001564
0.000227
0.000349
0.000455
0.000391
0.000211
0.000251
0.000268
0.000262
0.000231
0.000261
0.000271
0.000270
0.000260
0.001517
0.000258
0.000290
0.000261
0.000256
0.000261
0.000253
0.000269
0.000257
0.000261
0.000258
0.000494
0.000295
0.000375
0.000241
0.000194
0.000055
0.000220
0.000244
0.000236
0.001683
0.000351
0.000344
0.000227
0.000247
0.000251
0.000269
0.000276
0.000253
0.000249
0.000260
0.000237
0.000268
0.000383
0.001341
0.000253
0.000239
0.001486
0.000431
0.000459
0.000410
0.000326
0.000231
0.000269
0.000462
0.000245
0.000253
0.000187
0.000055
0.000279
0.000216
0.000254
0.000247
0.000246
0.000252
0.000239
0.000256
0.000271
0.000226
0.000253
0.000270
0.000345
0.000457
0.001663
0.001497
0.000367
0.000481
0.000376
0.000233
0.000224
0.000261
0.000245
0.000272
0.000244
0.000275
0.000255
0.000266
0.001522
0.000347
0.000143
0.000055
0.000184
0.000357
0.000355
0.000328
0.000228
0.000229
0.000247
0.000391
0.000400
0.000339
0.002186
0.000321
0.000719
0.000469
0.000482
0.000279
0.000320
0.000401
0.000319
0.000278
0.000396
0.000244
0.001558
0.000525
0.000219
0.000262
0.000254
0.000253
0.000278
0.000259
0.000191
0.000056
0.000198
0.000256
0.000253
0.000251
0.000244
0.001661
0.000876
0.000999
0.000204
0.000235
0.000263
0.000258
0.000257
0.000266
0.000250
0.000251
0.000255
0.000259
0.000268
0.000282
0.001433
0.000309
0.000261
0.000227
0.000235
0.000260
0.000264
0.000281
0.000258
0.000290
0.001891
0.000072
0.000177
0.000225
0.001547
0.000868
0.000359
0.000374
0.000238
0.000249
0.000224
0.000255
0.000252
0.000251
0.000244
0.001979
0.000478
0.000256
0.000212
0.000255
0.000271
0.000258
0.000196
