0.000199
0.005877
0.015545
0.000273
0.000255
0.000230
0.000303
0.000255
0.000323
0.000315
0.000218
0.000394
0.000515
0.000520
0.000316
0.000305
0.000306
0.000406
0.000378
0.000401
0.000298
0.001864
0.000527
0.000434
0.000250
0.000289
0.000344
0.000409
0.000485
0.000431
0.000324
0.000282
0.000074
0.000211
0.000237
0.000269
0.000249
0.000321
0.000223
0.000263
0.000251
0.000291
0.000310
0.000386
0.000483
0.000300
0.000361
0.000363
0.000406
0.000292
0.000240
0.000199
0.001748
0.000269
0.000234
0.000496
0.000264
0.000228
0.000247
0.000285
0.000296
0.000286
0.000353
0.000414
0.000065
0.000203
0.000222
0.000248
0.000261
0.000256
0.000249
0.000258
0.000257
0.000280
0.001667
0.000269
0.000210
0.000249
0.000288
0.000278
0.000240
0.000270
0.000276
0.000323
0.001822
0.000247
0.000295
0.000405
0.000498
0.000341
0.000254
0.000239
0.000588
0.000441
0.000772
0.000146
0.000067
0.000214
0.000230
0.000268
0.000213
0.000306
0.000319
0.000350
0.000445
0.000437
0.000269
0.000219
0.000230
0.000220
0.000259
0.000262
0.000247
0.000253
0.000254
0.000301
0.000349
0.001711
0.000248
0.000246
0.000451
0.000276
0.000689
0.000694
0.000470
0.000321
0.000267
0.000199
0.000066
0.000179
0.000217
0.000260
0.000263
0.000268
0.000247
0.000289
0.000554
0.001330
0.000251
0.000243
0.000233
0.000252
0.000265
0.000262
0.000279
0.000409
0.000675
0.001398
0.000268
0.000246
0.000413
0.000281
0.000229
0.000238
0.000266
0.000267
0.000275
0.000252
0.000272
0.000212
0.000065
0.000211
0.000230
0.000226
0.000265
0.000251
0.000246
0.000247
0.000245
0.000235
0.000258
0.001696
0.000262
0.000204
0.000228
0.000224
0.000250
0.000235
0.000260
0.000260
0.000246
0.000261
0.001744
0.000247
0.000249
0.000472
0.000240
0.000246
0.000231
0.000258
0.000264
0.000212
0.000065
0.000194
0.000207
0.000243
0.000243
0.000246
0.000258
0.000248
0.000249
0.000247
0.000248
0.000283
0.000245
0.000251
0.000277
0.001628
0.000276
0.000290
0.000237
0.000252
0.000274
0.000277
0.000234
0.000252
0.000244
0.000278
0.001926
0.000302
0.000358
0.000281
0.000268
0.000204
0.000063
0.000183
0.000215
0.000262
0.000256
0.000259
0.000229
0.000331
0.000403
0.000403
0.000395
0.000230
0.000233
0.000254
0.000247
0.001743
0.000430
0.000274
0.000465
0.000232
0.000231
0.000250
0.000282
0.000281
0.001817
0.000435
0.000514
0.000211
0.000260
0.000216
0.000250
0.000214
0.000064
0.000190
0.000224
0.000237
0.000338
0.000274
0.000537
0.000338
0.000230
0.000215
0.000232
0.000256
0.000246
0.000304
0.001674
0.000452
0.000305
0.000241
0.000237
0.000268
0.000316
0.000224
0.000254
0.000271
0.001909
0.000283
0.000392
0.000255
0.000259
0.000318
0.000400
0.000326
0.000065
0.000226
0.000441
0.000293
0.000258
0.000260
0.000216
0.000242
0.000254
0.000271
0.000218
0.000254
0.000230
0.001635
0.000325
0.000291
0.000208
0.000254
0.000232
0.000261
0.000272
0.000275
0.000333
0.001788
0.000335
0.000232
0.000498
0.000240
0.000239
0.000222
0.000266
0.000278
0.000065
0.000356
0.000497
0.000632
0.000200
0.000214
0.000260
0.000238
0.000223
0.000252
0.000256
0.000249
0.001698
0.000299
0.000437
0.000342
0.000230
0.000238
0.000219
0.000238
0.000260
0.000368
0.001735
0.000247
0.000230
0.002294
0.000440
0.000216
0.000259
0.000271
0.000254
0.000207
0.000065
0.000210
0.000214
0.000242
0.000240
0.000254
0.001695
0.000241
0.000195
0.000227
0.000254
0.000241
0.000246
0.000257
0.000253
0.000317
0.000497
0.000513
0.000241
0.000239
0.000258
0.000291
0.000227
0.000255
0.000481
0.000432
0.000275
0.000396
0.000496
0.000450
0.000224
0.000187
0.000065
0.000215
0.000197
0.000250
0.000272
0.000212
0.000242
0.000294
0.000480
0.000443
0.001556
0.000241
0.000236
0.000243
0.000253
0.000260
0.000283
0.000453
0.000544
0.000308
0.000244
0.000224
0.000264
0.000298
0.000281
0.000289
0.000405
0.000509
0.000492
0.000440
0.000466
0.000134
0.000065
0.000212
0.000232
0.000225
0.000248
0.000215
0.000247
0.000251
0.000254
0.000238
0.000368
0.000388
0.001518
0.000264
0.000218
0.000210
0.000219
0.000259
0.000242
0.000247
0.000277
0.000249
0.000541
0.000344
0.000313
0.000231
0.000239
0.000268
0.000262
0.000244
0.000271
0.000421
0.000065
0.000198
0.000216
0.000241
0.000389
0.000392
0.000422
0.000263
0.000252
0.000231
0.000263
0.000240
0.000245
0.000286
0.000258
0.000249
0.000583
0.000374
0.001573
0.000267
0.000245
0.000270
0.000261
0.000261
0.000246
0.000242
0.000715
0.000276
0.000327
0.000373
0.000240
0.000201
0.000073
0.000214
0.000238
0.000376
0.000263
0.000252
0.000274
0.000372
0.000581
0.000201
0.000301
0.000241
0.000266
0.000279
0.000236
0.000587
0.000291
0.000232
0.000253
0.000439
0.001639
0.000255
0.000213
0.000316
0.000408
0.000280
0.000290
0.000256
0.000394
0.000582
0.000325
0.000253
0.000065
0.000216
0.000216
0.000227
0.000262
0.000457
0.000266
0.000279
0.000212
0.000395
0.000634
0.000288
0.000239
0.000232
0.000202
0.000292
0.000229
0.000250
0.000265
0.000219
0.000381
0.000266
0.000568
0.001606
0.000271
0.000234
0.000255
0.000312
0.000362
0.000726
0.000575
0.000249
0.000064
0.000257
0.000324
0.000317
0.000415
0.000313
0.000218
0.000269
0.000367
0.000501
0.000404
0.000245
0.000220
0.000223
0.000244
0.000272
0.000238
0.000259
0.000267
0.000268
0.000260
0.000277
0.000357
0.001798
0.000331
0.000455
0.000414
0.000297
0.000296
0.000365
0.000404
0.000267
0.000066
0.000323
0.000364
0.000237
0.000209
0.000246
0.000186
0.000459
0.000212
0.000278
0.000301
0.000399
0.000500
0.000216
0.000227
0.000268
0.000282
0.000406
0.000415
0.000281
0.000231
0.000224
0.000439
0.000759
0.001495
0.000272
0.000422
0.000285
0.000243
0.000316
0.000353
0.000372
0.000065
0.000191
0.000209
0.000239
0.000252
0.000242
0.000251
0.000291
0.000315
0.000417
0.000330
0.000536
0.000280
0.000287
0.000206
0.000549
0.000248
0.000272
0.000271
0.000238
0.000376
0.000202
0.000228
0.000272
0.000440
0.000565
0.001623
0.000235
0.000224
0.000232
0.000264
0.000202
0.000065
0.000167
0.000474
0.000356
0.000227
0.000222
0.000242
0.000254
0.000240
0.000242
0.000259
0.000217
0.000485
0.000350
0.000429
0.000371
0.000296
0.000241
0.000259
0.000341
0.000409
0.000383
0.000333
0.000360
0.000352
0.000242
0.000245
0.000240
0.000268
0.001784
0.000272
0.000195
0.000065
0.000200
0.000206
0.000247
0.000261
0.000368
0.000528
0.000319
0.000235
0.000235
0.000265
0.000264
0.000258
0.000501
0.000456
0.000479
0.000289
0.000274
0.000314
0.000417
0.000534
0.000377
0.000509
0.000363
0.000403
0.000231
0.000247
0.000220
0.000231
0.000246
0.001772
0.000297
0.000068
0.000236
0.000306
0.000216
0.000213
0.000258
0.000246
0.000325
0.000499
0.000353
0.000326
0.000357
0.000231
0.000415
0.000529
0.000366
0.000228
0.000230
0.000226
0.000236
0.000265
0.000271
0.000261
0.000257
0.000254
0.000406
0.000263
0.000559
0.000301
0.000201
0.000215
0.000201
0.000065
0.000438
0.000335
0.000372
0.000286
0.000244
0.000220
0.000234
0.000254
0.000241
0.000218
0.000242
0.000289
0.000293
0.000509
0.000460
0.000360
0.000392
0.000388
0.000376
0.000368
0.000215
0.000226
0.000203
0.000277
0.001779
0.000237
0.001758
0.001049
0.000237
0.000354
0.000151
0.000066
0.000205
0.000237
0.000205
0.000234
0.000250
0.000250
0.000255
0.000260
0.000241
0.000312
0.000621
0.000212
0.000507
0.000282
0.000250
0.000195
0.000262
0.000290
0.000226
0.000213
0.000259
0.000241
0.001790
0.000272
0.000244
0.000245
0.000275
0.000270
0.001900
0.000543
0.000215
0.000065
0.000229
0.000196
0.000220
0.000228
0.000258
0.000237
0.000251
0.000253
0.000267
0.000376
0.000519
0.000333
0.000391
0.000268
0.000215
0.000339
0.000336
0.000403
0.000396
0.000233
0.001771
0.000242
0.000220
0.000244
0.000257
0.000270
0.000230
0.000264
0.000257
0.000446
0.000409
0.000066
0.000260
0.000205
0.000216
0.000244
0.000249
0.000249
0.000271
0.000232
0.000250
0.000246
0.000248
0.000284
0.000487
0.000262
0.000345
0.000313
0.000479
0.000207
0.000235
0.000249
0.000263
0.000252
0.000277
0.000258
0.000279
0.001778
0.000281
0.000261
0.000234
0.000238
0.000207
0.000108
0.000351
0.000189
0.000232
0.000221
0.000236
0.000235
0.000237
0.000254
0.000250
0.000240
0.000207
0.000260
0.000261
0.000389
0.000429
0.000307
0.000353
0.000217
0.000215
0.000264
0.000259
0.000254
0.000249
0.000266
0.000252
0.000268
0.000342
0.001637
0.000237
0.000237
0.000183
0.000065
0.000202
0.000201
0.000249
0.000260
0.000354
0.000360
0.000393
0.000337
0.000216
0.000246
0.000247
0.000242
0.000258
0.000245
0.000260
0.000259
0.000250
0.000251
0.000253
0.000258
0.000272
0.000268
0.000283
0.000207
0.000246
0.000281
0.000275
0.000261
0.000258
0.000257
0.000202
0.000080
0.000203
0.000225
0.000228
0.000256
0.000246
0.000256
0.000254
0.000234
0.000352
0.000213
0.000210
0.000262
0.000227
0.000242
0.000270
0.000263
0.000249
0.000251
0.000361
0.000221
0.000239
0.000281
0.000284
0.000264
0.000272
0.000281
0.000280
0.000243
0.000315
0.000374
0.000734
0.000065
0.000343
0.000252
0.000191
0.000188
0.000196
0.000247
0.000250
0.000253
0.000261
0.000231
0.000259
0.000440
0.000423
0.000500
0.001495
0.000209
0.000523
0.000204
0.000249
0.000414
0.000629
0.000210
0.000222
0.000270
0.000274
0.000239
0.000280
0.000255
0.000307
0.000269
0.000194
0.000066
0.000379
0.000317
0.000374
0.000311
0.000214
0.000236
0.000277
0.000224
0.000233
0.000247
0.000251
0.000268
0.000226
0.000293
0.000494
0.000437
0.000324
0.001728
0.000262
0.000255
0.000401
0.000341
0.000475
0.000284
0.000376
0.000271
0.000289
0.000259
0.000202
0.000248
0.000211
0.000088
0.000191
0.000210
0.000257
0.000300
0.000388
0.000421
0.000308
0.000256
0.000252
0.000225
0.000230
0.000267
0.000262
0.000266
0.000249
0.000261
0.000337
0.000511
0.000302
0.000414
0.000245
0.001803
0.000475
0.000472
0.000410
0.000406
0.000288
0.000254
0.000231
0.000271
0.000490
0.000065
0.000204
0.000219
0.000264
0.000380
0.000275
0.000513
0.000345
0.000271
0.000234
0.000294
0.000228
0.000238
0.000247
0.000308
0.000346
0.000215
0.000272
0.000345
0.000395
0.000368
0.000571
0.001772
0.000256
0.000597
0.000339
0.000360
0.000238
0.000373
0.000244
0.000217
0.000245
0.000066
0.000280
0.000301
0.000323
0.000343
0.000343
0.000310
0.000372
0.000210
0.000233
0.000266
0.000254
0.000267
0.000215
0.000257
0.000247
0.000248
0.000320
0.000546
0.000397
0.000333
0.000294
0.000235
0.000247
0.001776
0.000480
0.000456
0.000599
0.000336
0.000210
0.000283
0.000171
0.000066
0.000181
0.000220
0.000313
0.000257
0.000320
0.000403
0.000328
0.000309
0.000324
0.000522
0.000208
0.000221
0.000236
0.000276
0.000276
0.000271
0.000224
0.000389
0.000453
0.000406
0.000244
0.000243
0.000254
0.000252
0.000281
0.000253
0.000237
0.000257
0.000262
0.000347
0.000208
0.000065
0.000312
0.000318
0.000235
0.000239
0.000244
0.000255
0.000251
0.000348
0.000218
0.000221
0.000261
0.000328
0.000498
0.000329
0.000392
0.000254
0.000223
0.000239
0.000234
0.000262
0.000264
0.000294
0.000233
0.000259
0.000277
0.000417
0.000410
0.000300
0.000378
0.000217
0.000165
0.000066
0.000205
0.000219
0.000267
0.000244
0.000240
0.000240
0.000283
0.000236
0.000489
0.000226
0.000238
0.000254
0.000240
0.000259
0.000277
0.000270
0.000271
0.000354
0.000247
0.000221
0.000247
0.000270
0.000260
0.000260
0.000275
0.000266
0.000260
0.000262
0.000251
0.000506
0.000176
0.000067
0.000210
0.000220
0.000230
0.000262
0.000250
0.000241
0.000290
0.000466
0.000255
0.000226
0.000255
0.000253
0.000249
0.000404
0.000424
0.001640
0.000235
0.000294
0.000364
0.000404
0.000379
0.000322
0.000330
0.000426
0.000440
0.000238
0.000256
0.000267
0.000280
0.000279
0.001409
0.000065
0.000424
0.000211
0.000314
0.000208
0.000194
0.000238
0.000234
0.000252
0.000247
0.000258
0.000258
0.000253
0.000256
0.000288
0.001976
0.000264
0.000236
0.000197
0.000217
0.000277
0.000240
0.000249
0.000398
0.000418
0.000262
0.000314
0.000247
0.000250
0.000282
0.000248
0.000223
0.000066
0.001315
0.000470
0.000296
0.000291
0.000217
0.000210
0.000218
0.000232
0.000480
0.000235
0.000228
0.000236
0.000486
0.000463
0.000321
0.000323
0.000296
0.000249
0.000357
0.000359
0.000218
0.000256
0.000267
0.000234
0.000285
0.000667
0.000424
0.000298
0.000243
0.000291
0.000159
0.000066
0.000213
0.000210
0.000229
0.000243
0.001544
0.000250
0.000202
0.000248
0.000250
0.000251
0.000248
0.000256
0.000239
0.000259
0.000269
0.000380
0.000372
0.000618
0.000277
0.001793
0.000259
0.000297
0.000303
0.000471
0.000441
0.000425
0.000248
0.000215
0.000249
0.000275
0.000211
0.000066
0.000198
0.000248
0.000234
0.001308
0.000328
0.000218
0.000241
0.000219
0.000235
0.000242
0.000230
0.000253
0.000273
0.000251
0.000269
0.000305
0.000503
0.000442
0.000284
0.000227
0.000256
0.000264
0.000251
0.000235
0.000340
0.000224
0.000230
0.000269
0.000264
0.000393
0.000567
0.000073
0.000193
0.000239
0.000227
0.000261
0.000272
0.000237
0.000228
0.000264
0.000265
0.000263
0.001431
0.000230
0.000239
0.000248
0.000253
0.000226
0.000267
0.000267
0.000254
0.000276
0.000309
0.000422
0.000575
0.000272
0.000255
0.000277
0.001822
0.000244
0.000292
0.000289
0.000442
0.000064
0.000278
0.000417
0.000447
0.000583
0.000534
0.000510
0.001542
0.000448
0.000646
0.000579
0.000628
0.000539
0.000482
0.000554
0.000640
0.001764
0.000485
0.000365
0.000340
0.000328
0.000256
0.000301
0.000261
0.000256
0.000277
0.000292
0.000296
0.000279
0.000291
0.000272
0.001285
0.000081
0.000236
0.000249
0.000212
0.000250
0.000243
0.000239
0.000252
0.000243
0.000283
0.000222
0.000256
0.000251
0.000251
0.000242
0.000276
0.000274
0.001825
0.000288
0.000251
0.000240
0.000249
0.000259
0.000259
0.000323
0.000407
0.000413
0.000321
0.000243
0.000243
0.000281
0.000157
0.000080
0.000224
0.001370
0.000290
0.000252
0.000263
0.000234
0.000260
0.000252
0.000241
0.000253
0.000235
0.000271
0.000239
0.000420
0.000333
0.000310
0.000283
0.000278
0.001907
0.000263
0.000253
0.000234
0.000265
0.000266
0.000277
0.000257
0.000298
0.000242
0.000242
0.000310
0.000209
0.000079
0.000235
0.000230
0.000270
0.001411
0.000257
0.000272
0.000217
0.000219
0.000256
0.000237
0.000238
0.000271
0.000229
0.000257
0.000259
0.000268
0.000252
0.000261
0.000263
0.000265
0.000262
0.001847
0.000268
0.001746
0.000278
0.000231
0.000237
0.000268
0.000256
0.000264
0.000192
0.000079
0.000235
0.000244
0.001350
0.000251
0.000265
0.000216
0.000217
0.000262
0.000225
0.000243
0.000281
0.000234
0.000260
0.000249
0.000249
0.000276
0.000250
0.000280
0.000302
0.000253
0.001860
0.000271
0.001793
0.000273
0.000236
0.000253
0.000270
0.000268
0.000253
0.000272
0.000143
0.000079
0.001435
0.000248
0.000249
0.000215
0.000214
0.000253
0.000220
0.000371
0.000255
0.000263
0.000256
0.000252
0.000317
0.000303
0.000446
0.000263
0.000300
0.000246
0.000226
0.000255
0.000231
0.000311
0.000272
0.000257
0.000298
0.000256
0.000255
0.000470
0.000583
0.000340
0.000146
0.000086
0.000253
0.000235
0.000270
0.000306
0.000375
0.000268
0.001667
0.000284
0.000271
0.000290
0.000256
0.000272
0.000286
0.000275
0.000297
0.000281
0.000341
0.000504
0.000368
0.000330
0.000276
0.000271
0.000274
0.000253
0.000323
0.000310
0.000244
0.000242
0.000248
0.000326
0.000414
0.000084
0.000293
0.000378
0.000257
0.000291
0.000235
0.000230
0.000235
0.000229
0.000262
0.000293
0.001480
0.000240
0.000205
0.000255
0.000249
0.000295
0.000258
0.000256
0.000257
0.000267
0.000276
0.000591
0.000357
0.000306
0.000223
0.000293
0.000265
0.000247
0.000252
0.000237
0.000239
0.000065
0.000205
0.000217
0.000288
0.000441
0.000401
0.000251
0.000213
0.000252
0.000251
0.000265
0.000220
0.000252
0.000249
0.000273
0.000238
0.000293
0.000356
0.001267
0.000216
0.000250
0.000237
0.000242
0.000359
0.000486
0.000233
0.000395
0.000469
0.000323
0.000431
0.000230
0.000162
0.000065
0.000222
0.000211
0.000292
0.000236
0.000306
0.000222
0.000313
0.000572
0.000321
0.000323
0.000367
0.000427
0.000355
0.000354
0.000234
0.000244
0.000195
0.000267
0.000403
0.000496
0.001198
0.000255
0.000246
0.000276
0.000238
0.000232
0.000264
0.000346
0.000366
0.000566
0.000193
0.000074
0.000200
0.000213
0.000254
0.000233
0.000245
0.000255
0.000233
0.000260
0.000252
0.000444
0.000460
0.000381
0.000210
0.000212
0.000227
0.000250
0.000255
0.000260
0.000263
0.000536
0.000215
0.000313
0.000350
0.000342
0.000331
0.000224
0.000256
0.000277
0.000260
0.000279
0.000240
0.000071
0.000303
0.000302
0.000395
0.000442
0.000327
0.000381
0.000193
0.000254
0.000220
0.000287
0.000246
0.000263
0.000239
0.000251
0.000245
0.000232
0.000299
0.000358
0.000526
0.000348
0.000216
0.000234
0.000236
0.000246
0.000272
0.000258
0.000289
0.000252
0.000282
0.000283
0.000287
0.000065
0.000266
0.000279
0.000206
0.000224
0.000255
0.000247
0.000243
0.000263
0.000264
0.000261
0.000251
0.000236
0.000315
0.000552
0.000385
0.000317
0.000221
0.000226
0.000223
0.000260
0.000325
0.000213
0.000262
0.000256
0.000276
0.000375
0.000375
0.000544
0.000511
0.000231
0.000129
0.000072
0.000396
0.000212
0.000213
0.000229
0.000251
0.000247
0.000259
0.000223
0.000258
0.000256
0.000230
0.000239
0.000275
0.000232
0.000236
0.000255
0.000277
0.000251
0.000277
0.000260
0.000256
0.000257
0.000283
0.000251
0.000270
0.000259
0.000233
0.000287
0.000262
0.000267
0.000207
0.000065
0.000191
0.000223
0.000242
0.000249
0.000232
0.000245
0.000277
0.000223
0.000255
0.000298
0.000209
0.000237
0.000268
0.000400
0.000264
0.000247
0.000266
0.000277
0.000244
0.000276
0.000276
0.000241
0.000250
0.000239
0.000273
0.000270
0.000251
0.000268
0.000264
0.000258
0.000217
0.000068
0.000276
0.000382
0.000330
0.000301
0.000311
0.000201
0.000218
0.000244
0.000249
0.000229
0.000255
0.000250
0.000254
0.000246
0.000291
0.000234
0.000260
0.000252
0.000261
0.000270
0.000262
0.000267
0.000282
0.000251
0.000271
0.000275
0.000237
0.000286
0.000245
0.000267
0.000199
0.000065
0.000205
0.000219
0.000239
0.000267
0.000248
0.000438
0.000222
0.000277
0.000296
0.000383
0.000533
0.000305
0.000227
0.000212
0.000266
0.000267
0.000263
0.000240
0.000266
0.000264
0.000262
0.000270
0.000260
0.000294
0.000547
0.000480
0.000283
0.000260
0.000275
0.000265
0.000196
0.000064
0.000185
0.000203
0.000251
0.000245
0.000449
0.000528
0.000307
0.000361
0.000237
0.000254
0.000228
0.000269
0.000246
0.000251
0.000248
0.000269
0.000261
0.000299
0.000622
0.000380
0.000296
0.000235
0.000238
0.000274
0.000287
0.000265
0.000257
0.000264
0.000267
0.000330
0.000521
0.000064
0.000179
0.000228
0.000224
0.000234
0.000255
0.000247
0.000228
0.000247
0.000252
0.000265
0.000233
0.000252
0.000249
0.000464
0.000544
0.000389
0.000222
0.000229
0.000255
0.000285
0.000260
0.000241
0.000475
0.000261
0.000249
0.000681
0.000370
0.000444
0.000310
0.000214
0.000176
0.000069
0.000183
0.000220
0.000237
0.000235
0.000262
0.000262
0.000333
0.000616
0.000476
0.000308
0.000238
0.000239
0.000288
0.000270
0.000260
0.000230
0.000247
0.000248
0.000280
0.000437
0.000333
0.000512
0.000428
0.000299
0.000466
0.000302
0.000491
0.000207
0.000243
0.000404
0.000419
0.000065
0.000261
0.000199
0.000489
0.000223
0.000284
0.000175
0.000229
0.000256
0.000229
0.000257
0.000415
0.000227
0.000506
0.000248
0.000231
0.000243
0.000264
0.000220
0.000276
0.000266
0.000271
0.000273
0.000234
0.000276
0.000315
0.000482
0.000493
0.000233
0.000252
0.000267
0.000217
0.000065
0.000186
0.000237
0.000227
0.000240
0.000245
0.000253
0.000419
0.000547
0.000277
0.000280
0.000338
0.000250
0.000227
0.000258
0.000282
0.000225
0.000247
0.000269
0.000348
0.000376
0.000514
0.000268
0.000463
0.000345
0.000393
0.000378
0.000378
0.000241
0.000243
0.000338
0.000369
0.000064
0.000240
0.000229
0.000222
0.000229
0.000256
0.000252
0.000248
0.000245
0.000261
0.000245
0.000240
0.000421
0.000433
0.000326
0.000359
0.000278
0.000243
0.000259
0.000270
0.000233
0.000258
0.000234
0.000276
0.000267
0.000290
0.000305
0.000542
0.000439
0.000241
0.000281
0.000204
0.000065
0.000222
0.000193
0.000255
0.000277
0.000234
0.000376
0.000503
0.000509
0.000277
0.000690
0.000279
0.000224
0.000222
0.000255
0.000248
0.000261
0.000302
0.000246
0.000483
0.000707
0.001343
0.000269
0.000249
0.000267
0.000279
0.000237
0.000456
0.000340
0.000423
0.000265
0.000155
0.000069
0.000182
0.000208
0.000248
0.000234
0.000257
0.000235
0.000269
0.000262
0.000243
0.000370
0.000357
0.000354
0.000338
0.000345
0.000435
0.000289
0.000211
0.000209
0.000233
0.000270
0.000241
0.000254
0.000267
0.000276
0.000394
0.000479
0.000378
0.000240
0.000234
0.000276
0.000176
0.000065
0.000205
0.000217
0.000252
0.000252
0.000247
0.000237
0.000472
0.000227
0.000226
0.000246
0.000253
0.000249
0.000261
0.000261
0.000242
0.000271
0.000274
0.000249
0.000279
0.000250
0.000248
0.000288
0.000297
0.000252
0.000256
0.000289
0.000275
0.000264
0.000260
0.000267
0.000191
0.000079
0.000179
0.000200
0.000287
0.000594
0.000250
0.000232
0.000229
0.000237
0.000266
0.000245
0.000255
0.000235
0.000269
0.000259
0.000243
0.000246
0.000239
0.000260
0.000287
0.000414
0.000411
0.000336
0.000254
0.000260
0.000267
0.000255
0.000262
0.000250
0.000272
0.000278
0.000210
0.000065
0.000216
0.000597
0.000209
0.000238
0.000245
0.000255
0.000461
0.000203
0.000208
0.000271
0.000253
0.000334
0.000477
0.000338
0.001787
0.000244
0.000245
0.000237
0.000281
0.000244
0.000342
0.000573
0.000494
0.000316
0.000217
0.000243
0.000276
0.000414
0.000283
0.000283
0.000188
0.000065
0.000222
0.000365
0.000301
0.000265
0.000517
0.000218
0.000229
0.000244
0.000257
0.000240
0.000256
0.000254
0.000274
0.000262
0.000488
0.000455
0.000238
0.000216
0.000247
0.000261
0.000269
0.000303
0.000254
0.000263
0.000288
0.000467
0.000495
0.000384
0.000475
0.000246
0.000194
0.000076
0.000225
0.000220
0.000251
0.000237
0.000241
0.000239
0.000279
0.000260
0.000442
0.000306
0.000411
0.000363
0.000238
0.000203
0.000274
0.000273
0.000315
0.000250
0.000263
0.000266
0.000245
0.000410
0.000459
0.000288
0.000244
0.000293
0.000263
0.000525
0.000391
0.000290
0.000142
0.000065
0.000186
0.000290
0.000270
0.000415
0.000361
0.000263
0.000203
0.000254
0.000250
0.000261
0.000269
0.000257
0.000239
0.000233
0.000266
0.000378
0.000364
0.000295
0.000373
0.000294
0.000466
0.000238
0.000284
0.000273
0.000308
0.000280
0.000259
0.000255
0.000467
0.000565
0.000168
0.000075
0.000208
0.000203
0.000254
0.000231
0.000245
0.000480
0.000229
0.000229
0.000265
0.000430
0.000435
0.000545
0.000258
0.000202
0.000268
0.000232
0.000278
0.000223
0.000246
0.000260
0.000260
0.000275
0.000367
0.000539
0.000286
0.000374
0.000301
0.000352
0.000289
0.000243
0.000153
0.000090
0.000182
0.000226
0.000283
0.000450
0.000323
0.000355
0.000248
0.000211
0.000224
0.000232
0.000254
0.000248
0.000270
0.000247
0.000313
0.000216
0.000240
0.000248
0.000249
0.000393
0.000620
0.000307
0.000228
0.000225
0.000275
0.000274
0.000261
0.000259
0.000263
0.000273
0.000204
0.000065
0.000338
0.000317
0.000502
0.000218
0.000208
0.000226
0.000304
0.000525
0.000249
0.000216
0.000225
0.000266
0.000254
0.000534
0.000361
0.000319
0.000221
0.000277
0.000251
0.000203
0.000249
0.000285
0.000251
0.000284
0.000269
0.000279
0.000545
0.000282
0.000357
0.000223
0.000161
0.000065
0.000203
0.000225
0.000243
0.000280
0.000230
0.000264
0.000232
0.000250
0.000263
0.000226
0.000269
0.000238
0.000252
0.001461
0.000234
0.000262
0.000254
0.000260
0.000254
0.000276
0.000263
0.000245
0.000271
0.000256
0.000268
0.000268
0.000271
0.000266
0.000282
0.000249
0.000212
0.000065
0.000202
0.000224
0.000223
0.000244
0.000291
0.000228
0.000222
0.000260
0.000231
0.000247
0.000250
0.000282
0.000232
0.000258
0.000250
0.000262
0.000266
0.000239
0.000273
0.000262
0.000276
0.000245
0.000240
0.000263
0.001338
0.000278
0.000571
0.000414
0.000370
0.000237
0.000141
0.000066
0.000175
0.000229
0.000228
0.000259
0.000487
0.000215
0.000203
0.000220
0.000245
0.000426
0.000451
0.000369
0.000194
0.000213
0.000241
0.000263
0.000254
0.000249
0.000249
0.000256
0.000264
0.000258
0.000314
0.000397
0.000483
0.000435
0.000249
0.000246
0.001361
0.000267
0.000196
0.000064
0.000313
0.000390
0.000352
0.000251
0.000205
0.000206
0.000242
0.000236
0.000273
0.000239
0.000242
0.000259
0.000264
0.000399
0.000510
0.000352
0.000279
0.000248
0.000253
0.000251
0.000254
0.000275
0.000265
0.000258
0.000263
0.000266
0.000393
0.000555
0.000344
0.000358
0.000164
0.000065
0.000188
0.000232
0.001310
0.000365
0.000286
0.000528
0.000380
0.000394
0.000411
0.000309
0.000200
0.000197
0.000260
0.000242
0.000262
0.000244
0.000344
0.000571
0.000344
0.000331
0.000288
0.000225
0.000260
0.000513
0.000240
0.000254
0.000255
0.000278
0.000313
0.000567
0.000285
0.000065
0.000463
0.000298
0.000187
0.000195
0.001591
0.000470
0.000348
0.000196
0.000199
0.000251
0.000225
0.000223
0.000249
0.000264
0.000259
0.000284
0.000205
0.000350
0.000386
0.000424
0.000429
0.000216
0.000215
0.000256
0.000262
0.000271
0.000270
0.000247
0.000263
0.000282
0.000245
0.000065
0.000345
0.000314
0.000259
0.000211
0.000240
0.000260
0.000274
0.000214
0.000230
0.000268
0.001454
0.000507
0.000211
0.000215
0.000221
0.000248
0.000263
0.000267
0.000235
0.000266
0.000302
0.000228
0.000260
0.000454
0.000452
0.000394
0.000233
0.000262
0.000266
0.000277
0.000193
0.000065
0.000207
0.000450
0.000208
0.000249
0.000277
0.000518
0.000363
0.000255
0.000455
0.000229
0.000211
0.000270
0.000239
0.000266
0.000271
0.001465
0.000299
0.000281
0.000266
0.000251
0.000276
0.000251
0.000264
0.000254
0.000263
0.000276
0.000435
0.000454
0.000296
0.000298
0.000134
0.000078
0.000203
0.000210
0.000254
0.000245
0.000237
0.000244
0.000232
0.000257
0.000337
0.000394
0.000427
0.000275
0.000232
0.000208
0.000249
0.000256
0.000275
0.000266
0.000288
0.000215
0.000245
0.000393
0.001243
0.000220
0.000284
0.000223
0.000233
0.000272
0.000252
0.000260
0.000204
0.000063
0.000284
0.000279
0.000439
0.000279
0.000234
0.000220
0.000255
0.000244
0.000252
0.000269
0.000255
0.000253
0.000258
0.000252
0.000248
0.000264
0.000256
0.000265
0.000271
0.000256
0.000260
0.000257
0.000273
0.000286
0.000287
0.000264
0.000286
0.000238
0.000261
0.000506
0.001314
0.000065
0.000190
0.000218
0.000236
0.000243
0.000244
0.000260
0.000275
0.000203
0.000242
0.000257
0.000256
0.000261
0.000257
0.000247
0.000246
0.001699
0.000382
0.000206
0.000196
0.000263
0.000248
0.000256
0.000265
0.000261
0.000257
0.000276
0.000259
0.000279
0.000339
0.000206
0.000242
0.000091
0.000284
0.000295
0.001354
0.000199
0.000223
0.000224
0.000263
0.000249
0.000256
0.000261
0.000252
0.000360
0.000390
0.000467
0.000251
0.000205
0.000238
0.000246
0.000260
0.000263
0.000249
0.000268
0.000268
0.000277
0.000352
0.000396
0.000348
0.000325
0.000280
0.000262
0.000194
0.000071
0.000214
0.000233
0.000241
0.000246
0.000253
0.000231
0.000219
0.000384
0.000468
0.000460
0.001007
0.000206
0.000228
0.000267
0.000274
0.000260
0.000250
0.000292
0.000327
0.000465
0.000314
0.000259
0.000212
0.000253
0.000259
0.000279
0.000268
0.000300
0.000265
0.000279
0.000199
0.000072
0.000214
0.000458
0.000359
0.000230
0.000213
0.000212
0.000238
0.000258
0.000272
0.000257
0.000221
0.000532
0.000411
0.000387
0.000432
0.001436
0.000232
0.000270
0.000328
0.000357
0.000458
0.000510
0.000558
0.000202
0.000225
0.000261
0.000257
0.000278
0.000276
0.000266
0.000213
0.000065
0.000206
0.000260
0.000498
0.000435
0.000334
0.000208
0.000243
0.000249
0.000232
0.000261
0.000255
0.000267
0.000264
0.000242
0.000274
0.000297
0.000376
0.000458
0.000317
0.001321
0.000270
0.000249
0.000254
0.000534
0.000335
0.000354
0.000376
0.000231
0.000236
0.000278
0.000205
0.000064
0.000177
0.000228
0.000250
0.000236
0.000252
0.000307
0.000421
0.000390
0.000349
0.000243
0.000228
0.000250
0.000265
0.000259
0.000272
0.000257
0.000282
0.000237
0.000273
0.000321
0.000518
0.000391
0.000336
0.001342
0.000346
0.000245
0.000341
0.000506
0.000300
0.000442
0.000256
0.000066
0.000186
0.000216
0.000250
0.000239
0.000247
0.000252
0.001736
0.000226
0.000217
0.000221
0.000256
0.000247
0.000323
0.000321
0.000330
0.000274
0.000268
0.000290
0.000559
0.000390
0.000342
0.000217
0.000208
0.000230
0.001489
0.000437
0.000396
0.000434
0.000311
0.000282
0.000167
0.000076
0.000199
0.000242
0.000240
0.000269
0.000247
0.000240
0.001781
0.000224
0.000216
0.000339
0.000379
0.000387
0.001500
0.000214
0.000414
0.000220
0.000234
0.000217
0.000279
0.000250
0.001610
0.000664
0.000298
0.000291
0.000215
0.000252
0.000216
0.000278
0.000253
0.000257
0.000210
0.000065
0.000216
0.000208
0.000252
0.000254
0.000269
0.000256
0.000282
0.000255
0.000255
0.000254
0.000250
0.000258
0.000254
0.000276
0.000250
0.001479
0.000296
0.000229
0.000263
0.000294
0.000255
0.000252
0.000479
0.001220
0.000264
0.000258
0.000259
0.000256
0.000466
0.000209
0.000187
0.000066
0.000188
0.000219
0.000234
0.000235
0.000242
0.000236
0.000249
0.001742
0.000245
0.000204
0.000245
0.000333
0.000240
0.000230
0.001437
0.000242
0.000231
0.000219
0.000264
0.000265
0.000232
0.000337
0.000310
0.001359
0.000271
0.000225
0.000231
0.000252
0.001400
0.000257
0.000208
0.000065
0.000235
0.000340
0.000199
0.000214
0.000254
0.000258
0.000243
0.000270
0.000267
0.000248
0.000276
0.000257
0.000265
0.000240
0.000309
0.001472
0.000267
0.000261
0.000258
0.000265
0.000256
0.000262
0.000277
0.001504
0.000311
0.000270
0.000267
0.001328
0.000237
0.000219
0.000283
0.000070
0.000212
0.000427
0.000284
0.000217
0.000225
0.000248
0.000248
0.000259
0.000266
0.000271
0.000235
0.000251
0.000259
0.000280
0.000464
0.001229
0.000220
0.000230
0.000243
0.000271
0.000242
0.000240
0.000248
0.001286
0.000389
0.000224
0.000231
0.000241
0.000253
0.001341
0.000336
0.000085
0.000248
0.000248
0.000224
0.000210
0.000243
0.000251
0.000239
0.000247
0.000283
0.000246
0.000250
0.000246
0.000308
0.000320
0.000368
0.001467
0.000242
0.000240
0.000286
0.000503
0.000358
0.000328
0.001351
0.000293
0.000260
0.000251
0.001280
0.000345
0.000333
0.000445
0.000369
0.000065
0.000203
0.000232
0.000254
0.000257
0.000249
0.000260
0.000269
0.000251
0.000258
0.000259
0.000488
0.000361
0.001342
0.000208
0.000225
0.000262
0.000282
0.000268
0.000228
0.000245
0.000305
0.001311
0.000240
0.000214
0.000241
0.000250
0.001409
0.000534
0.000460
0.000257
0.000197
0.000065
0.000214
0.000205
0.000264
0.000222
0.000229
0.000267
0.000248
0.000305
0.000369
0.000508
0.000302
0.001446
0.000222
0.000242
0.000262
0.000255
0.000253
0.000295
0.001644
0.000339
0.000336
0.000340
0.001447
0.000286
0.000288
0.000345
0.000225
0.000220
0.000256
0.000270
0.000193
0.000069
0.000207
0.000215
0.000308
0.000307
0.000264
0.000582
0.000243
0.000345
0.001478
0.000294
0.000328
0.000252
0.000236
0.000340
0.000287
0.001389
0.000261
0.000213
0.000226
0.000248
0.000304
0.001584
0.000370
0.000259
0.000239
0.000219
0.000532
0.000299
0.000227
0.000235
0.000251
0.000117
0.000315
0.000238
0.000369
0.000245
0.000222
0.001456
0.000243
0.000233
0.000256
0.000268
0.000270
0.000246
0.000301
0.001483
0.000271
0.000225
0.000414
0.001334
0.000352
0.000381
0.000304
0.000239
0.000259
0.000262
0.000272
0.000249
0.000451
0.000229
0.000256
0.000276
0.000210
0.000066
0.000186
0.000222
0.000381
0.001437
0.000254
0.000221
0.000314
0.000239
0.000262
0.000237
0.000252
0.000349
0.001541
0.000207
0.000220
0.000231
0.001366
0.000390
0.000427
0.000426
0.000327
0.000223
0.000221
0.000257
0.000355
0.000230
0.000246
0.000281
0.000217
0.000245
0.000239
0.000065
0.000206
0.000381
0.001449
0.000216
0.000263
0.000269
0.000249
0.000248
0.000344
0.000360
0.001332
0.000254
0.000300
0.000229
0.000228
0.001385
0.000620
0.000311
0.000296
0.000409
0.000316
0.000226
0.000237
0.000240
0.000274
0.000283
0.000280
0.000299
0.000491
0.000408
0.001403
0.000065
0.000204
0.000226
0.000227
0.000218
0.000261
0.000512
0.000404
0.001332
0.000215
0.000202
0.000249
0.001432
0.000539
0.000217
0.000467
0.000248
0.000209
0.000216
0.000252
0.000278
0.000274
0.000231
0.000281
0.000283
0.000229
0.000358
0.000401
0.000474
0.001465
0.000265
0.000188
0.000065
0.000183
0.000231
0.000321
0.000637
0.001166
0.000298
0.000244
0.000261
0.000235
0.000250
0.000251
0.000291
0.000315
0.000611
0.000268
0.000215
0.000254
0.000277
0.000247
0.000271
0.000267
0.000263
0.000254
0.000262
0.000254
0.000408
0.000476
0.000349
0.000325
0.001457
0.000146
0.000064
0.000201
0.000212
0.000381
0.000366
0.000350
0.000297
0.000307
0.000328
0.000262
0.000270
0.000259
0.000262
0.000244
0.000319
0.000233
0.000306
0.000535
0.000303
0.000298
0.000380
0.000287
0.000474
0.000238
0.000221
0.000221
0.000263
0.000250
0.000302
0.000494
0.000328
0.000315
0.000065
0.000221
0.001351
0.000314
0.000300
0.000407
0.000423
0.000385
0.000285
0.000217
0.000243
0.000247
0.000242
0.000260
0.000272
0.000270
0.000253
0.000269
0.001397
0.000261
0.000223
0.000239
0.000264
0.000274
0.000274
0.000282
0.000253
0.000274
0.000249
0.000337
0.000389
0.000379
0.000064
0.000291
0.000197
0.001419
0.000381
0.000277
0.000223
0.000215
0.000204
0.000232
0.000227
0.000272
0.000263
0.000254
0.000237
0.000267
0.000267
0.000247
0.000269
0.000243
0.000266
0.001431
0.000264
0.000223
0.000365
0.000201
0.000212
0.000265
0.000261
0.000280
0.000491
0.000381
0.000072
0.000219
0.000242
0.000358
0.000268
0.000241
0.000278
0.001520
0.000384
0.000281
0.000210
0.000254
0.000343
0.000300
0.000220
0.000235
0.000252
0.000244
0.000248
0.000264
0.000269
0.000584
0.000426
0.001148
0.000256
0.000225
0.000238
0.000254
0.000256
0.000272
0.000288
0.000407
0.000065
0.000205
0.000350
0.000203
0.000216
0.000236
0.000257
0.000234
0.000234
0.001422
0.000606
0.000313
0.000271
0.000215
0.000214
0.000255
0.000248
0.000259
0.000273
0.000257
0.000310
0.000344
0.000528
0.000380
0.001347
0.000254
0.000250
0.000283
0.000243
0.000270
0.000297
0.000544
0.000144
0.000196
0.000237
0.000225
0.000236
0.000226
0.000236
0.000260
0.000245
0.000280
0.001619
0.000298
0.000267
0.000253
0.000258
0.000456
0.000304
0.000400
0.000467
0.000328
0.000417
0.000458
0.000491
0.001177
0.000248
0.000206
0.000239
0.001756
0.000446
0.000588
0.000298
0.000146
0.000065
0.000207
0.000220
0.000222
0.000227
0.000245
0.000282
0.000334
0.000587
0.000478
0.000255
0.000312
0.000209
0.000217
0.000264
0.000263
0.000267
0.000266
0.000238
0.000250
0.000270
0.000299
0.000507
0.001213
0.000248
0.000237
0.000280
0.001882
0.000374
0.000384
0.000357
0.000165
0.000078
0.000227
0.000222
0.000248
0.001667
0.000272
0.000262
0.000224
0.000270
0.000251
0.000343
0.000374
0.000426
0.000345
0.000266
0.000301
0.000537
0.000323
0.001231
0.000245
0.000214
0.000233
0.000354
0.000394
0.000524
0.000454
0.000356
0.000228
0.000223
0.000260
0.000278
0.000213
0.000065
0.000181
0.000218
0.001471
0.000374
0.000225
0.000192
0.000251
0.000242
0.000238
0.000259
0.000234
0.000271
0.000273
0.000277
0.000282
0.000455
0.000385
0.000303
0.001369
0.000249
0.000251
0.000253
0.000255
0.000264
0.000349
0.000567
0.000406
0.000358
0.000282
0.000216
0.000382
0.000065
0.000191
0.000208
0.000271
0.000255
0.001549
0.000236
0.000259
0.000240
0.000256
0.000260
0.000252
0.000278
0.000248
0.000262
0.000348
0.000644
0.001416
0.000691
0.000241
0.000306
0.000246
0.000229
0.000238
0.000274
0.001758
0.000711
0.000265
0.000251
0.000268
0.000286
0.000223
0.000064
0.000192
0.000206
0.000241
0.000243
0.000251
0.000245
0.000254
0.000269
0.000226
0.000237
0.000290
0.000280
0.000245
0.000254
0.000258
0.000254
0.000302
0.001621
0.000608
0.000433
0.000339
0.000197
0.000227
0.000283
0.000275
0.000265
0.000272
0.000255
0.001584
0.000289
0.000277
0.000064
0.000191
0.000227
0.000259
0.000227
0.000260
0.000232
0.000254
0.000255
0.000237
0.000267
0.000353
0.000367
0.000417
0.000339
0.000224
0.000236
0.000250
0.001463
0.000699
0.000416
0.000317
0.000291
0.000228
0.000239
0.000273
0.000272
0.000228
0.000287
0.001471
0.000475
0.000202
0.000063
0.000195
0.000210
0.000244
0.000231
0.000248
0.000251
0.000241
0.000248
0.000270
0.000333
0.000319
0.000386
0.000281
0.000265
0.000223
0.000256
0.000262
0.000240
0.001612
0.000562
0.000491
0.000341
0.000228
0.000243
0.000264
0.000254
0.000266
0.000271
0.000265
0.001589
0.000152
0.000068
0.000191
0.000219
0.000222
0.000250
0.000253
0.000282
0.000356
0.000340
0.000417
0.000334
0.000320
0.000349
0.000342
0.000229
0.000228
0.000231
0.000271
0.000279
0.001376
0.000923
0.000273
0.000205
0.000491
0.000215
0.000211
0.000244
0.000312
0.000249
0.000254
0.000274
0.000502
0.000065
0.000246
0.000227
0.000214
0.000241
0.000253
0.000238
0.000239
0.000232
0.000255
0.000275
0.000243
0.000242
0.000461
0.000440
0.000483
0.000249
0.000222
0.000252
0.000264
0.000261
0.000310
0.000395
0.001275
0.001057
0.000250
0.000252
0.000252
0.000256
0.000277
0.000254
0.000214
0.000070
0.000200
0.001379
0.000251
0.000205
0.000214
0.000260
0.000236
0.000242
0.000232
0.000282
0.000243
0.000263
0.000267
0.000431
0.000330
0.000352
0.000371
0.000213
0.000265
0.000263
0.000267
0.000245
0.000249
0.000264
0.001452
0.000643
0.000370
0.000394
0.000390
0.000400
0.000172
0.000065
0.000206
0.000256
0.000350
0.001266
0.000249
0.000263
0.000245
0.000211
0.000265
0.000256
0.000276
0.000214
0.000279
0.000315
0.000597
0.000336
0.000229
0.000306
0.000261
0.000243
0.000222
0.000267
0.000238
0.000263
0.000270
0.001535
0.000739
0.000304
0.000278
0.000278
0.000215
0.000065
0.000202
0.000340
0.000335
0.000413
0.001279
0.000239
0.000205
0.000245
0.000203
0.000270
0.000231
0.000286
0.000207
0.000231
0.000256
0.000263
0.000269
0.000225
0.000254
0.000258
0.000259
0.000283
0.000329
0.000301
0.000230
0.000253
0.000259
0.001532
0.000239
0.000222
0.000160
0.000066
0.000195
0.000199
0.000307
0.000376
0.000325
0.000371
0.000354
0.000222
0.001527
0.000284
0.000234
0.000524
0.000354
0.000263
0.000447
0.000259
0.000204
0.000227
0.000254
0.000288
0.000266
0.000265
0.000255
0.000268
0.000274
0.000450
0.000394
0.000326
0.001588
0.000196
0.000174
0.000065
0.000226
0.000219
0.000233
0.000247
0.000251
0.000240
0.000262
0.000309
0.000441
0.002067
0.000206
0.000213
0.000242
0.000258
0.000264
0.000311
0.000250
0.000222
0.000294
0.000418
0.000387
0.000409
0.001521
0.000218
0.000254
0.000469
0.001772
0.000285
0.000254
0.001483
0.000191
0.000065
0.000301
0.000429
0.000447
0.000243
0.000268
0.000233
0.000233
0.000280
0.000247
0.000242
0.000256
0.000397
0.000365
0.000341
0.000473
0.000219
0.000241
0.001523
0.000518
0.001974
0.000349
0.000223
0.000211
0.001611
0.001978
0.000738
0.000252
0.000239
0.000305
0.000419
0.000353
0.000065
0.000197
0.000213
0.000250
0.000266
0.001469
0.001659
0.001077
0.000223
0.000237
0.001564
0.001973
0.000246
0.000330
0.000377
0.000397
0.000349
0.000370
0.000334
0.000266
0.000237
0.000251
0.000246
0.000305
0.001576
0.001244
0.001422
0.000271
0.000237
0.000271
0.000464
0.000298
0.000065
0.000200
0.000238
0.000210
0.000230
0.000240
0.000232
0.000257
0.000253
0.000259
0.000251
0.000231
0.000342
0.000573
0.000332
0.000312
0.000221
0.000214
0.000275
0.000266
0.000263
0.000256
0.001431
0.000427
0.000429
0.002085
0.000249
0.000252
0.000349
0.000518
0.000369
0.000154
0.000065
0.000213
0.000313
0.000452
0.000328
0.000214
0.000229
0.000233
0.000260
0.000239
0.000250
0.000241
0.000254
0.000260
0.001609
0.001414
0.001232
0.000272
0.000225
0.000224
0.000235
0.000287
0.000278
0.000252
0.000248
0.002272
0.000218
0.000216
0.000289
0.000323
0.000305
0.000242
0.000065
0.000200
0.000369
0.000642
0.000272
0.000233
0.000215
0.000224
0.000236
0.001899
0.001423
0.000264
0.000391
0.000396
0.000339
0.000257
0.000226
0.000231
0.000261
0.000262
0.000258
0.000277
0.000248
0.000480
0.000244
0.000256
0.000269
0.000256
0.000271
0.000301
0.000225
0.000221
0.000065
0.000163
0.000249
0.000237
0.000261
0.000227
0.000275
0.001522
0.001506
0.001314
0.000221
0.000209
0.000228
0.000253
0.000267
0.000276
0.000237
0.000253
0.002151
0.000212
0.000225
0.000260
0.000258
0.000248
0.000266
0.000267
0.000254
0.000276
0.000257
0.000266
0.000259
0.000192
0.000070
0.001494
0.000319
0.002394
0.000250
0.000301
0.000294
0.000253
0.000248
0.000266
0.000242
0.000250
0.000250
0.000236
0.000258
0.000262
0.000262
0.000253
0.000266
0.000254
0.000289
0.000247
0.000280
0.000272
0.000295
0.000221
0.000251
0.000259
0.000271
0.000271
0.000258
0.000400
0.000065
0.000200
0.002535
0.000336
0.000209
0.000213
0.000205
0.000250
0.000255
0.000253
0.000261
0.000513
0.000235
0.000358
0.000242
0.000220
0.002234
0.000207
0.000226
0.000263
0.000607
0.000262
0.000300
0.000224
0.000245
0.000268
0.000242
0.000258
0.000273
0.000280
0.001694
0.001190
0.000065
0.000212
0.000205
0.000366
0.000344
0.000319
0.000272
0.000218
0.000228
0.000254
0.000254
0.000261
0.000247
0.000240
0.000239
0.000283
0.000230
0.000390
0.000664
0.000270
0.000225
0.000247
0.000252
0.000287
0.000261
0.000234
0.000244
0.000270
0.000278
0.000247
0.000274
0.000455
0.000068
0.001107
0.000253
0.000292
0.000578
0.000221
0.000221
0.000195
0.000231
0.002204
0.000485
0.000463
0.000195
0.000219
0.000262
0.000351
0.000256
0.000274
0.000242
0.000267
0.000252
0.000234
0.000327
0.000662
0.000407
0.001803
0.001336
0.000620
0.000450
0.000232
0.000241
0.000216
0.000068
0.000270
0.000296
0.000257
0.000261
0.000235
0.000232
0.000243
0.000251
0.000256
0.000254
0.000244
0.000236
0.000244
0.000266
0.000321
0.000554
0.001880
0.001308
0.000458
0.000364
0.000452
0.000279
0.000226
0.000250
0.002213
0.000469
0.000370
0.000253
0.000274
0.000283
0.000211
0.000065
0.000191
0.000244
0.000242
0.000242
0.000232
0.000353
0.000428
0.000373
0.000257
0.000232
0.000242
0.000262
0.000232
0.002093
0.000397
0.000358
0.000230
0.000254
0.000249
0.000267
0.000256
0.002556
0.000225
0.000244
0.000253
0.000245
0.000266
0.000271
0.000268
0.000287
0.000203
0.000065
0.000260
0.000612
0.000339
0.000294
0.000231
0.000216
0.000196
0.000247
0.000260
0.000252
0.002135
0.000285
0.000270
0.000248
0.000216
0.000247
0.000268
0.000254
0.002268
0.000370
0.000232
0.000270
0.000291
0.000233
0.000254
0.000274
0.000267
0.000249
0.000270
0.000259
0.000197
0.000084
0.000179
0.000230
0.000252
0.000232
0.000229
0.000253
0.000268
0.000217
0.000228
0.002181
0.000243
0.000268
0.000227
0.000474
0.000207
0.000218
0.000262
0.000289
0.000259
0.000262
0.002017
0.000313
0.000349
0.000354
0.000467
0.000386
0.000272
0.000209
0.000278
0.000214
0.000202
0.000065
0.000202
0.000243
0.000230
0.000227
0.000375
0.000240
0.000205
0.002347
0.000223
0.000228
0.000203
0.000259
0.000261
0.000234
0.000292
0.002214
0.000500
0.000236
0.000248
0.000264
0.000278
0.000225
0.000282
0.000269
0.000278
0.000240
0.000283
0.000267
0.000270
0.000294
0.000163
0.000065
0.000198
0.002996
0.000249
0.000228
0.000238
0.000249
0.000261
0.000330
0.000322
0.000408
0.002119
0.000256
0.000298
0.000254
0.000372
0.000343
0.000471
0.000299
0.000228
0.000212
0.000257
0.000260
0.000272
0.000223
0.000245
0.000273
0.000267
0.000263
0.000473
0.000585
0.000250
0.000064
0.000199
0.000268
0.000272
0.000252
0.000199
0.000242
0.000250
0.001550
0.000290
0.002078
0.000516
0.000279
0.000455
0.000793
0.000267
0.000218
0.000200
0.000249
0.000270
0.000249
0.000264
0.000238
0.000262
0.000279
0.001810
0.001463
0.000292
0.000340
0.000235
0.000310
0.000415
0.000065
0.001943
0.000225
0.000222
0.000209
0.000303
0.000416
0.000372
0.000444
0.000199
0.000254
0.000222
0.000197
0.000250
0.000277
0.000248
0.000265
0.000250
0.000263
0.001901
0.000208
0.000214
0.000240
0.000273
0.000272
0.000281
0.000271
0.001509
0.000342
0.000222
0.000241
0.000167
0.000065
0.000204
0.000205
0.000240
0.000230
0.000263
0.000236
0.000342
0.000390
0.000330
0.000372
0.000204
0.000226
0.000334
0.000342
0.000358
0.000313
0.000215
0.000232
0.000258
0.000442
0.000470
0.000416
0.000215
0.000232
0.000268
0.000243
0.000252
0.000267
0.000307
0.000244
0.000209
0.000065
0.001417
0.000394
0.000248
0.002013
0.000255
0.000394
0.000393
0.000370
0.000204
0.000220
0.000280
0.000233
0.000252
0.000235
0.000292
0.000235
0.000444
0.000290
0.000452
0.000373
0.000315
0.000243
0.000242
0.000280
0.000338
0.000201
0.000233
0.000276
0.000313
0.000600
0.001336
0.000067
0.000192
0.000227
0.002044
0.000360
0.000244
0.000268
0.000257
0.000253
0.000261
0.000243
0.000237
0.000248
0.000254
0.000259
0.000264
0.000339
0.000713
0.001749
0.000268
0.000249
0.000255
0.000280
0.000554
0.000309
0.001500
0.000267
0.000377
0.001993
0.000240
0.000235
0.000202
0.000065
0.000174
0.000208
0.000239
0.000252
0.000212
0.000243
0.000246
0.000293
0.000368
0.000280
0.000385
0.000354
0.000348
0.000279
0.000221
0.000251
0.000266
0.000239
0.000260
0.000266
0.000291
0.000328
0.000235
0.000260
0.000266
0.001566
0.000370
0.000434
0.001873
0.000254
0.000178
0.000066
0.000190
0.000232
0.000234
0.000249
0.000451
0.000236
0.000254
0.000426
0.000319
0.000325
0.000252
0.000205
0.000271
0.000254
0.000276
0.000325
0.000439
0.000415
0.000251
0.000380
0.000660
0.000325
0.001585
0.000259
0.000245
0.002004
0.000374
0.000220
0.000229
0.000244
0.000212
0.000065
0.000202
0.000226
0.000227
0.000246
0.000251
0.000261
0.000256
0.000265
0.000256
0.000265
0.001864
0.000293
0.000391
0.000400
0.000405
0.000351
0.001498
0.000331
0.000211
0.000375
0.002133
0.000461
0.000255
0.000222
0.000236
0.000261
0.000505
0.000233
0.000263
0.000267
0.000211
0.000064
0.000295
0.000347
0.000348
0.000278
0.000219
0.000213
0.000254
0.000243
0.000267
0.000295
0.000231
0.000250
0.000277
0.000241
0.000404
0.000527
0.001198
0.000250
0.000433
0.001922
0.000316
0.000218
0.000220
0.000253
0.000245
0.000274
0.000265
0.000268
0.000244
0.000264
0.000224
0.000065
0.000228
0.000380
0.002081
0.000220
0.000285
0.000201
0.000209
0.000380
0.000451
0.001399
0.000344
0.000374
0.000313
0.001994
0.000246
0.000246
0.000248
0.000272
0.000261
0.000246
0.000280
0.000296
0.000256
0.000382
0.000494
0.000359
0.000376
0.002134
0.000528
0.000414
0.000476
0.000069
0.000177
0.000228
0.000223
0.002026
0.000197
0.000228
0.000241
0.000226
0.000234
0.000267
0.000242
0.000255
0.000256
0.000288
0.000491
0.000334
0.001318
0.000254
0.000253
0.000268
0.000238
0.000257
0.000266
0.000253
0.000353
0.000420
0.000473
0.000253
0.001683
0.000223
0.000149
0.000064
0.000199
0.000203
0.000253
0.000220
0.000237
0.000257
0.000253
0.000262
0.000250
0.000425
0.000332
0.001455
0.000225
0.000202
0.000219
0.000265
0.000252
0.000267
0.000306
0.000510
0.000358
0.000457
0.000239
0.001545
0.000258
0.000228
0.000293
0.000272
0.000271
0.000267
0.000208
0.000065
0.000220
0.000208
0.000250
0.000262
0.000258
0.000239
0.000242
0.000232
0.000255
0.000252
0.000244
0.000252
0.000257
0.000258
0.001587
0.000239
0.000226
0.000269
0.000335
0.000335
0.000361
0.000240
0.000234
0.000235
0.000265
0.000273
0.001449
0.000292
0.000221
0.000219
0.000175
0.000065
0.000212
0.000210
0.000262
0.000253
0.000280
0.000221
0.000232
0.000266
0.000212
0.000264
0.000240
0.000260
0.000242
0.000379
0.000353
0.000299
0.000282
0.001588
0.000335
0.000209
0.000227
0.000220
0.000263
0.000316
0.000437
0.000439
0.000402
0.000229
0.000233
0.001585
0.000187
0.000065
0.000358
0.000329
0.000422
0.000223
0.000208
0.000223
0.000235
0.000263
0.000256
0.000261
0.000220
0.000237
0.001473
0.000325
0.000298
0.000212
0.000244
0.000251
0.000292
0.000233
0.000266
0.000237
0.000246
0.000271
0.000288
0.000354
0.000566
0.000323
0.000237
0.000216
0.000192
0.000066
0.000193
0.000283
0.000521
0.000267
0.000352
0.000246
0.000229
0.000254
0.000253
0.000254
0.000249
0.000214
0.000254
0.000246
0.001335
0.000266
0.000224
0.000225
0.000273
0.000266
0.000249
0.000247
0.000252
0.000281
0.000233
0.000273
0.000328
0.000701
0.000420
0.000240
0.000179
0.000065
0.000196
0.001515
0.000323
0.000296
0.000564
0.000264
0.000208
0.000236
0.000281
0.000258
0.000240
0.000246
0.000267
0.000272
0.000268
0.001526
0.000245
0.000284
0.000263
0.000256
0.000263
0.000254
0.000261
0.000275
0.000257
0.000303
0.000376
0.000485
0.000301
0.000232
0.000159
0.000078
0.000190
0.000240
0.000226
0.001695
0.000509
0.000241
0.000209
0.000207
0.000242
0.000274
0.000274
0.000264
0.000242
0.000262
0.000231
0.000258
0.000543
0.001256
0.000219
0.000205
0.001546
0.000493
0.000431
0.000358
0.000289
0.000234
0.000253
0.000483
0.000225
0.000251
0.000208
0.000066
0.000227
0.000197
0.000206
0.000236
0.000253
0.000254
0.000253
0.000253
0.000262
0.000247
0.000233
0.000267
0.000331
0.000574
0.001558
0.001512
0.000416
0.000543
0.000237
0.000242
0.000247
0.000246
0.000252
0.000266
0.000247
0.000261
0.000275
0.000271
0.001620
0.000279
0.000156
0.000064
0.000218
0.000336
0.000343
0.000330
0.000255
0.000219
0.000203
0.000405
0.000427
0.001357
0.000353
0.001550
0.000404
0.000455
0.000418
0.000331
0.000342
0.000341
0.000285
0.000289
0.000231
0.000341
0.001562
0.000522
0.000245
0.000249
0.000257
0.000261
0.000264
0.000254
0.000210
0.000065
0.000192
0.000224
0.000274
0.000237
0.000242
0.001659
0.000943
0.000918
0.000228
0.000237
0.000262
0.000254
0.000256
0.000249
0.000260
0.000255
0.000263
0.000268
0.000260
0.000301
0.001476
0.000267
0.000254
0.000221
0.000236
0.000253
0.000254
0.000299
0.000242
0.000287
0.000255
0.000066
0.000222
0.000186
0.001521
0.000977
0.000332
0.000337
0.000215
0.000222
0.000237
0.000259
0.000247
0.000260
0.000257
0.002020
0.000473
0.000216
0.000238
0.000223
0.000249
0.000264
0.000203
