0.000238
0.019383
0.002243
0.000272
0.000244
0.000253
0.000327
0.000216
0.000368
0.000231
0.000284
0.000446
0.000509
0.000414
0.000425
0.000263
0.000268
0.000388
0.000385
0.000412
0.000302
0.001868
0.000504
0.000442
0.000293
0.000257
0.000328
0.000382
0.000411
0.000384
0.000472
0.000319
0.000061
0.000236
0.000222
0.000245
0.000261
0.000283
0.000267
0.000252
0.000269
0.000293
0.000294
0.000380
0.000573
0.000219
0.000283
0.000397
0.000393
0.000318
0.000251
0.000224
0.001731
0.000284
0.000260
0.000493
0.000272
0.000229
0.000241
0.000282
0.000275
0.000288
0.000314
0.000468
0.000060
0.000238
0.000223
0.000247
0.000257
0.000248
0.000277
0.000273
0.000251
0.000281
0.001664
0.000240
0.000233
0.000237
0.000273
0.000268
0.000284
0.000275
0.000253
0.000314
0.001821
0.000271
0.000251
0.000433
0.000492
0.000364
0.000249
0.000236
0.000582
0.000470
0.000701
0.000177
0.000060
0.000237
0.000235
0.000235
0.000248
0.000288
0.000269
0.000394
0.000440
0.000445
0.000266
0.000226
0.000221
0.000230
0.000251
0.000239
0.000266
0.000265
0.000276
0.000294
0.000331
0.001720
0.000239
0.000280
0.000411
0.000393
0.000601
0.000708
0.000409
0.000348
0.000256
0.000206
0.000060
0.000220
0.000218
0.000238
0.000280
0.000254
0.000251
0.000258
0.000527
0.001403
0.000253
0.000257
0.000250
0.000251
0.000251
0.000255
0.000240
0.000516
0.000650
0.001332
0.000277
0.000260
0.000406
0.000264
0.000248
0.000255
0.000250
0.000273
0.000258
0.000260
0.000267
0.000199
0.000059
0.000208
0.000224
0.000231
0.000241
0.000251
0.000259
0.000245
0.000247
0.000242
0.000266
0.001683
0.000240
0.000250
0.000216
0.000240
0.000230
0.000260
0.000271
0.000228
0.000229
0.000297
0.001736
0.000236
0.000268
0.000461
0.000261
0.000217
0.000240
0.000244
0.000253
0.000205
0.000059
0.000206
0.000243
0.000210
0.000240
0.000244
0.000265
0.000250
0.000222
0.000263
0.000254
0.000281
0.000263
0.000260
0.000268
0.001614
0.000287
0.000298
0.000269
0.000245
0.000214
0.000267
0.000260
0.000251
0.000246
0.000275
0.001850
0.000376
0.000366
0.000272
0.000284
0.000181
0.000060
0.000206
0.000217
0.000236
0.000254
0.000261
0.000252
0.000298
0.000359
0.000463
0.000418
0.000248
0.000207
0.000239
0.000284
0.001663
0.000460
0.000359
0.000344
0.000298
0.000269
0.000239
0.000279
0.000263
0.001921
0.000425
0.000415
0.000232
0.000257
0.000219
0.000239
0.000194
0.000059
0.000216
0.000221
0.000232
0.000247
0.000366
0.000424
0.000461
0.000221
0.000214
0.000235
0.000251
0.000248
0.000272
0.001707
0.000448
0.000314
0.000254
0.000235
0.000247
0.000277
0.000265
0.000270
0.000252
0.001963
0.000245
0.000392
0.000254
0.000279
0.000279
0.000401
0.000305
0.000060
0.000224
0.000346
0.000402
0.000239
0.000293
0.000238
0.000244
0.000242
0.000238
0.000237
0.000234
0.000228
0.001628
0.000366
0.000275
0.000215
0.000221
0.000248
0.000262
0.000267
0.000290
0.000322
0.001794
0.000344
0.000247
0.000483
0.000238
0.000232
0.000229
0.000253
0.000288
0.000058
0.000369
0.000529
0.000656
0.000224
0.000214
0.000235
0.000253
0.000224
0.000261
0.000251
0.000249
0.001694
0.000270
0.000406
0.000383
0.000232
0.000244
0.000226
0.000234
0.000261
0.000263
0.001849
0.000245
0.000228
0.002250
0.000428
0.000281
0.000238
0.000281
0.000272
0.000180
0.000060
0.000219
0.000205
0.000234
0.000232
0.000247
0.001710
0.000215
0.000203
0.000240
0.000243
0.000268
0.000243
0.000287
0.000230
0.000264
0.000379
0.000663
0.000240
0.000244
0.000270
0.000268
0.000254
0.000248
0.000473
0.000449
0.000273
0.000408
0.000720
0.000187
0.000244
0.000180
0.000060
0.000215
0.000237
0.000211
0.000249
0.000237
0.000253
0.000283
0.000395
0.000447
0.001635
0.000291
0.000241
0.000241
0.000241
0.000242
0.000269
0.000391
0.000606
0.000320
0.000219
0.000244
0.000318
0.000265
0.000272
0.000268
0.000404
0.000422
0.000559
0.000535
0.000399
0.000136
0.000061
0.000203
0.000256
0.000213
0.000227
0.000242
0.000218
0.000253
0.000249
0.000256
0.000367
0.000333
0.001565
0.000267
0.000217
0.000206
0.000241
0.000226
0.000257
0.000259
0.000267
0.000285
0.000394
0.000471
0.000296
0.000244
0.000255
0.000247
0.000238
0.000268
0.000267
0.000432
0.000058
0.000236
0.000193
0.000227
0.000310
0.000492
0.000416
0.000279
0.000227
0.000235
0.000253
0.000261
0.000231
0.000274
0.000263
0.000267
0.000549
0.000385
0.001591
0.000274
0.000272
0.000246
0.000249
0.000243
0.000284
0.000248
0.000483
0.000475
0.000333
0.000371
0.000249
0.000183
0.000059
0.000236
0.000207
0.000420
0.000241
0.000251
0.000239
0.000269
0.000594
0.000357
0.000279
0.000237
0.000265
0.000254
0.000266
0.000595
0.000279
0.000256
0.000242
0.000447
0.001627
0.000234
0.000258
0.000285
0.000413
0.000364
0.000226
0.000233
0.000354
0.000546
0.000369
0.000281
0.000058
0.000213
0.000210
0.000235
0.000240
0.000471
0.000357
0.000231
0.000198
0.000363
0.000555
0.000374
0.000233
0.000226
0.000224
0.000238
0.000257
0.000286
0.000251
0.000223
0.000470
0.000199
0.000301
0.001842
0.000265
0.000256
0.000252
0.000306
0.000352
0.000417
0.000724
0.000445
0.000061
0.000259
0.000321
0.000373
0.000373
0.000301
0.000230
0.000233
0.000290
0.000496
0.000513
0.000240
0.000209
0.000223
0.000291
0.000244
0.000221
0.000249
0.000251
0.000277
0.000261
0.000295
0.000364
0.001796
0.000286
0.000364
0.000419
0.000384
0.000243
0.000446
0.000386
0.000333
0.000060
0.000226
0.000378
0.000292
0.000204
0.000259
0.000232
0.000434
0.000239
0.000232
0.000366
0.000361
0.000468
0.000231
0.000258
0.000259
0.000270
0.000360
0.000447
0.000301
0.000227
0.000229
0.000498
0.000533
0.001656
0.000261
0.000410
0.000337
0.000213
0.000246
0.000480
0.000241
0.000061
0.000193
0.000222
0.000229
0.000240
0.000245
0.000256
0.000258
0.000379
0.000384
0.000236
0.000607
0.000312
0.000289
0.000214
0.000536
0.000263
0.000256
0.000260
0.000266
0.000346
0.000243
0.000239
0.000261
0.000375
0.000618
0.001609
0.000238
0.000233
0.000238
0.000257
0.000186
0.000058
0.000327
0.000466
0.000334
0.000208
0.000239
0.000224
0.000254
0.000252
0.000259
0.000236
0.000254
0.000453
0.000484
0.000313
0.000351
0.000312
0.000223
0.000251
0.000355
0.000351
0.000369
0.000373
0.000375
0.000375
0.000250
0.000230
0.000252
0.000262
0.001784
0.000258
0.000222
0.000058
0.000211
0.000231
0.000234
0.000255
0.000347
0.000533
0.000350
0.000217
0.000230
0.000268
0.000260
0.000231
0.000565
0.000415
0.000495
0.000305
0.000267
0.000237
0.000432
0.000482
0.000374
0.000423
0.000468
0.000458
0.000227
0.000243
0.000242
0.000228
0.000258
0.001765
0.000312
0.000059
0.000208
0.000306
0.000237
0.000213
0.000233
0.000255
0.000281
0.000446
0.000426
0.000305
0.000302
0.000302
0.000388
0.000667
0.000280
0.000204
0.000234
0.000232
0.000237
0.000264
0.000265
0.000263
0.000262
0.000265
0.000323
0.000341
0.000490
0.000344
0.000230
0.000216
0.000196
0.000062
0.000450
0.000341
0.000444
0.000208
0.000219
0.000210
0.000247
0.000257
0.000246
0.000246
0.000230
0.000265
0.000292
0.000430
0.000520
0.000452
0.000341
0.000330
0.000351
0.000389
0.000262
0.000216
0.000226
0.000258
0.001816
0.000233
0.001748
0.000929
0.000432
0.000285
0.000144
0.000059
0.000216
0.000255
0.000207
0.000234
0.000249
0.000253
0.000248
0.000251
0.000260
0.000274
0.000472
0.000374
0.000361
0.000404
0.000228
0.000254
0.000263
0.000284
0.000214
0.000239
0.000249
0.000246
0.001807
0.000252
0.000230
0.000262
0.000261
0.000267
0.001885
0.000558
0.000310
0.000058
0.000218
0.000208
0.000221
0.000223
0.000237
0.000254
0.000253
0.000252
0.000247
0.000400
0.000594
0.000255
0.000393
0.000253
0.000246
0.000263
0.000371
0.000393
0.000370
0.000262
0.001802
0.000236
0.000255
0.000210
0.000239
0.000269
0.000250
0.000264
0.000261
0.000326
0.000430
0.000059
0.000247
0.000236
0.000211
0.000257
0.000246
0.000238
0.000264
0.000252
0.000240
0.000256
0.000233
0.000278
0.000336
0.000472
0.000327
0.000289
0.000486
0.000206
0.000252
0.000246
0.000254
0.000245
0.000257
0.000265
0.000272
0.001813
0.000258
0.000242
0.000262
0.000236
0.000188
0.000065
0.000286
0.000376
0.000200
0.000204
0.000234
0.000217
0.000244
0.000244
0.000243
0.000253
0.000227
0.000249
0.000249
0.000304
0.000491
0.000380
0.000324
0.000220
0.000217
0.000235
0.000260
0.000250
0.000253
0.000264
0.000295
0.000220
0.000278
0.001746
0.000227
0.000232
0.000179
0.000064
0.000193
0.000205
0.000238
0.000258
0.000354
0.000388
0.000459
0.000243
0.000236
0.000239
0.000234
0.000264
0.000258
0.000248
0.000258
0.000253
0.000240
0.000259
0.000248
0.000270
0.000266
0.000266
0.000257
0.000226
0.000222
0.000275
0.000277
0.000258
0.000275
0.000253
0.000208
0.000061
0.000220
0.000213
0.000230
0.000247
0.000256
0.000252
0.000231
0.000270
0.000359
0.000206
0.000207
0.000242
0.000264
0.000243
0.000249
0.000264
0.000253
0.000265
0.000349
0.000221
0.000231
0.000272
0.000295
0.000260
0.000252
0.000290
0.000254
0.000272
0.000288
0.000382
0.000612
0.000059
0.000226
0.000304
0.000227
0.000209
0.000209
0.000239
0.000248
0.000265
0.000278
0.000224
0.000262
0.000258
0.000545
0.000438
0.001596
0.000220
0.000504
0.000214
0.000352
0.000369
0.000466
0.000284
0.000257
0.000253
0.000261
0.000258
0.000274
0.000279
0.000309
0.000284
0.000159
0.000059
0.000330
0.000439
0.000344
0.000318
0.000209
0.000221
0.000249
0.000247
0.000226
0.000246
0.000261
0.000257
0.000251
0.000280
0.000362
0.000538
0.000327
0.001801
0.000261
0.000236
0.000265
0.000487
0.000493
0.000249
0.000377
0.000324
0.000259
0.000221
0.000229
0.000223
0.000212
0.000058
0.000214
0.000232
0.000213
0.000295
0.000390
0.000456
0.000324
0.000214
0.000251
0.000237
0.000227
0.000264
0.000267
0.000258
0.000265
0.000254
0.000320
0.000495
0.000401
0.000357
0.000242
0.001805
0.000303
0.000544
0.000561
0.000352
0.000289
0.000245
0.000245
0.000279
0.000465
0.000059
0.000203
0.000230
0.000250
0.000254
0.000410
0.000634
0.000271
0.000205
0.000227
0.000315
0.000222
0.000230
0.000242
0.000312
0.000354
0.000219
0.000249
0.000386
0.000540
0.000235
0.000535
0.001801
0.000308
0.000434
0.000429
0.000362
0.000271
0.000344
0.000243
0.000219
0.000213
0.000059
0.000224
0.000328
0.000355
0.000333
0.000378
0.000272
0.000398
0.000215
0.000242
0.000247
0.000268
0.000252
0.000233
0.000287
0.000204
0.000267
0.000320
0.000340
0.000614
0.000333
0.000265
0.000246
0.000247
0.001774
0.000288
0.000590
0.000653
0.000289
0.000247
0.000280
0.000175
0.000058
0.000199
0.000216
0.000302
0.000267
0.000285
0.000376
0.000420
0.000284
0.000317
0.000518
0.000212
0.000214
0.000240
0.000265
0.000277
0.000274
0.000243
0.000398
0.000571
0.000249
0.000261
0.000258
0.000262
0.000246
0.000266
0.000261
0.000239
0.000268
0.000257
0.000340
0.000228
0.000059
0.000346
0.000297
0.000229
0.000252
0.000231
0.000256
0.000380
0.000201
0.000225
0.000212
0.000254
0.000332
0.000473
0.000444
0.000259
0.000300
0.000241
0.000220
0.000245
0.000263
0.000258
0.000265
0.000257
0.000262
0.000260
0.000325
0.000446
0.000368
0.000382
0.000217
0.000171
0.000058
0.000211
0.000222
0.000234
0.000251
0.000255
0.000251
0.000233
0.000283
0.000494
0.000215
0.000240
0.000275
0.000232
0.000254
0.000272
0.000258
0.000277
0.000354
0.000256
0.000217
0.000257
0.000266
0.000269
0.000276
0.000262
0.000263
0.000287
0.000237
0.000256
0.000483
0.000167
0.000059
0.000215
0.000216
0.000244
0.000249
0.000255
0.000225
0.000289
0.000462
0.000287
0.000204
0.000231
0.000254
0.000249
0.000330
0.000411
0.001745
0.000250
0.000243
0.000301
0.000379
0.000406
0.000343
0.000388
0.000392
0.000353
0.000368
0.000280
0.000235
0.000267
0.000263
0.001442
0.000062
0.000384
0.000348
0.000268
0.000200
0.000211
0.000224
0.000254
0.000256
0.000249
0.000261
0.000250
0.000254
0.000250
0.000338
0.000512
0.001671
0.000213
0.000220
0.000216
0.000280
0.000230
0.000254
0.000418
0.000376
0.000300
0.000296
0.000256
0.000249
0.000269
0.000274
0.000183
0.000063
0.001188
0.000550
0.000319
0.000290
0.000219
0.000204
0.000235
0.000218
0.000473
0.000262
0.000216
0.000244
0.000358
0.000523
0.000370
0.000341
0.000299
0.000237
0.000342
0.000367
0.000229
0.000227
0.000267
0.000244
0.000276
0.000578
0.000539
0.000306
0.000245
0.000263
0.000181
0.000058
0.000193
0.000232
0.000211
0.000245
0.001577
0.000222
0.000214
0.000224
0.000241
0.000249
0.000259
0.000259
0.000251
0.000263
0.000281
0.000230
0.000632
0.000570
0.000205
0.001810
0.000243
0.000308
0.000259
0.000386
0.000769
0.000192
0.000252
0.000237
0.000266
0.000261
0.000198
0.000059
0.000208
0.000246
0.000222
0.001339
0.000308
0.000234
0.000229
0.000212
0.000245
0.000237
0.000235
0.000229
0.000272
0.000251
0.000244
0.000329
0.000428
0.000544
0.000274
0.000228
0.000230
0.000266
0.000266
0.000248
0.000337
0.000221
0.000250
0.000246
0.000295
0.000290
0.000677
0.000057
0.000229
0.000217
0.000244
0.000253
0.000250
0.000250
0.000229
0.000255
0.000269
0.000261
0.001452
0.000242
0.000230
0.000246
0.000248
0.000243
0.000266
0.000254
0.000276
0.000268
0.000272
0.000458
0.000441
0.000405
0.000269
0.000246
0.001840
0.000221
0.000226
0.000344
0.000543
0.000061
0.000234
0.000434
0.000456
0.000503
0.000526
0.000553
0.001435
0.000439
0.000544
0.000661
0.000595
0.000681
0.000469
0.000633
0.000570
0.001729
0.000430
0.000486
0.000403
0.000294
0.000252
0.000291
0.000287
0.000266
0.000277
0.000267
0.000299
0.000282
0.000256
0.000299
0.001316
0.000064
0.000211
0.000243
0.000223
0.000240
0.000235
0.000254
0.000256
0.000232
0.000257
0.000258
0.000243
0.000255
0.000244
0.000278
0.000244
0.000260
0.001850
0.000254
0.000272
0.000248
0.000253
0.000254
0.000268
0.000355
0.000431
0.000324
0.000319
0.000265
0.000242
0.000289
0.000169
0.000059
0.000231
0.001365
0.000259
0.000277
0.000250
0.000253
0.000250
0.000241
0.000252
0.000231
0.000242
0.000242
0.000268
0.000453
0.000263
0.000372
0.000269
0.000262
0.001911
0.000284
0.000237
0.000258
0.000252
0.000259
0.000277
0.000279
0.000268
0.000245
0.000253
0.000285
0.000245
0.000060
0.000211
0.000231
0.000248
0.001442
0.000242
0.000271
0.000224
0.000225
0.000231
0.000282
0.000227
0.000266
0.000239
0.000258
0.000332
0.000202
0.000245
0.000268
0.000269
0.000254
0.000270
0.001832
0.000251
0.001760
0.000260
0.000251
0.000256
0.000237
0.000286
0.000258
0.000191
0.000058
0.000213
0.000272
0.001340
0.000220
0.000264
0.000232
0.000230
0.000223
0.000264
0.000268
0.000234
0.000239
0.000256
0.000257
0.000267
0.000267
0.000243
0.000276
0.000292
0.000278
0.001861
0.000262
0.001801
0.000280
0.000248
0.000257
0.000243
0.000262
0.000260
0.000261
0.000191
0.000059
0.001462
0.000225
0.000241
0.000230
0.000226
0.000219
0.000268
0.000344
0.000263
0.000252
0.000244
0.000285
0.000296
0.000374
0.000385
0.000272
0.000259
0.000267
0.000233
0.000238
0.000259
0.000305
0.000266
0.000264
0.000271
0.000289
0.000246
0.000491
0.000544
0.000354
0.000184
0.000061
0.000208
0.000280
0.000274
0.000307
0.000347
0.000304
0.001635
0.000301
0.000287
0.000259
0.000268
0.000291
0.000254
0.000277
0.000291
0.000320
0.000314
0.000595
0.000335
0.000270
0.000317
0.000280
0.000265
0.000264
0.000326
0.000267
0.000259
0.000269
0.000231
0.000326
0.000411
0.000060
0.000350
0.000389
0.000209
0.000263
0.000263
0.000241
0.000230
0.000245
0.000267
0.000274
0.001456
0.000272
0.000204
0.000253
0.000257
0.000259
0.000254
0.000275
0.000253
0.000273
0.000272
0.000388
0.000631
0.000259
0.000229
0.000277
0.000263
0.000251
0.000249
0.000244
0.000222
0.000058
0.000211
0.000216
0.000292
0.000459
0.000362
0.000263
0.000232
0.000237
0.000237
0.000279
0.000235
0.000242
0.000236
0.000274
0.000244
0.000247
0.000438
0.001227
0.000218
0.000237
0.000261
0.000247
0.000336
0.000510
0.000211
0.000246
0.000641
0.000498
0.000241
0.000237
0.000153
0.000058
0.000240
0.000201
0.000256
0.000266
0.000320
0.000201
0.000307
0.000544
0.000385
0.000301
0.000360
0.000400
0.000396
0.000351
0.000239
0.000220
0.000228
0.000243
0.000458
0.000504
0.001158
0.000236
0.000253
0.000264
0.000235
0.000261
0.000241
0.000347
0.000398
0.000552
0.000188
0.000060
0.000194
0.000230
0.000218
0.000253
0.000244
0.000261
0.000223
0.000256
0.000243
0.000451
0.000454
0.000393
0.000228
0.000213
0.000220
0.000253
0.000265
0.000256
0.000262
0.000244
0.000495
0.000276
0.000381
0.000363
0.000346
0.000226
0.000240
0.000283
0.000259
0.000279
0.000217
0.000059
0.000401
0.000265
0.000257
0.000392
0.000461
0.000381
0.000211
0.000237
0.000251
0.000221
0.000271
0.000246
0.000253
0.000254
0.000254
0.000232
0.000257
0.000481
0.000379
0.000384
0.000226
0.000264
0.000224
0.000242
0.000280
0.000244
0.000291
0.000259
0.000284
0.000249
0.000340
0.000058
0.000374
0.000266
0.000225
0.000224
0.000235
0.000257
0.000246
0.000247
0.000249
0.000267
0.000248
0.000247
0.000290
0.000550
0.000432
0.000334
0.000201
0.000223
0.000244
0.000253
0.000285
0.000244
0.000264
0.000245
0.000282
0.000265
0.000490
0.000539
0.000524
0.000220
0.000130
0.000059
0.000391
0.000209
0.000215
0.000230
0.000257
0.000235
0.000232
0.000245
0.000260
0.000260
0.000236
0.000238
0.000299
0.000222
0.000227
0.000257
0.000258
0.000260
0.000266
0.000267
0.000264
0.000237
0.000280
0.000243
0.000315
0.000244
0.000232
0.000273
0.000263
0.000274
0.000209
0.000059
0.000206
0.000208
0.000236
0.000248
0.000249
0.000242
0.000247
0.000264
0.000230
0.000294
0.000223
0.000244
0.000256
0.000393
0.000248
0.000282
0.000271
0.000261
0.000268
0.000277
0.000275
0.000236
0.000248
0.000242
0.000258
0.000270
0.000292
0.000247
0.000256
0.000265
0.000195
0.000058
0.000255
0.000376
0.000350
0.000277
0.000312
0.000229
0.000224
0.000253
0.000230
0.000257
0.000220
0.000257
0.000252
0.000255
0.000252
0.000265
0.000268
0.000267
0.000244
0.000255
0.000263
0.000264
0.000273
0.000249
0.000283
0.000313
0.000216
0.000263
0.000252
0.000274
0.000201
0.000058
0.000220
0.000223
0.000226
0.000260
0.000252
0.000458
0.000232
0.000239
0.000299
0.000430
0.000477
0.000338
0.000212
0.000226
0.000265
0.000273
0.000235
0.000269
0.000264
0.000246
0.000287
0.000286
0.000234
0.000291
0.000426
0.000589
0.000297
0.000248
0.000260
0.000268
0.000200
0.000059
0.000213
0.000203
0.000219
0.000260
0.000519
0.000501
0.000260
0.000379
0.000238
0.000235
0.000232
0.000258
0.000281
0.000233
0.000250
0.000261
0.000291
0.000242
0.000702
0.000312
0.000317
0.000244
0.000256
0.000249
0.000284
0.000266
0.000268
0.000275
0.000254
0.000338
0.000356
0.000065
0.000287
0.000227
0.000219
0.000241
0.000256
0.000255
0.000236
0.000243
0.000228
0.000256
0.000243
0.000259
0.000272
0.000373
0.000612
0.000371
0.000238
0.000229
0.000259
0.000242
0.000266
0.000272
0.000466
0.000269
0.000260
0.000636
0.000434
0.000410
0.000271
0.000264
0.000170
0.000057
0.000220
0.000206
0.000240
0.000239
0.000271
0.000269
0.000316
0.000509
0.000553
0.000361
0.000211
0.000241
0.000274
0.000280
0.000290
0.000220
0.000240
0.000252
0.000273
0.000273
0.000592
0.000449
0.000423
0.000262
0.000438
0.000347
0.000477
0.000223
0.000237
0.000394
0.000433
0.000061
0.000171
0.000211
0.000480
0.000205
0.000235
0.000229
0.000240
0.000257
0.000238
0.000254
0.000232
0.000450
0.000390
0.000350
0.000201
0.000228
0.000274
0.000239
0.000250
0.000267
0.000276
0.000258
0.000251
0.000274
0.000328
0.000560
0.000390
0.000266
0.000267
0.000271
0.000197
0.000059
0.000211
0.000209
0.000249
0.000257
0.000243
0.000322
0.000331
0.000433
0.000394
0.000267
0.000346
0.000257
0.000224
0.000266
0.000262
0.000244
0.000241
0.000237
0.000373
0.000385
0.000498
0.000316
0.000415
0.000338
0.000401
0.000394
0.000383
0.000235
0.000236
0.000272
0.000402
0.000059
0.000287
0.000235
0.000230
0.000235
0.000249
0.000267
0.000250
0.000259
0.000235
0.000267
0.000231
0.000409
0.000396
0.000384
0.000363
0.000258
0.000248
0.000247
0.000287
0.000224
0.000254
0.000267
0.000265
0.000250
0.000282
0.000343
0.000521
0.000443
0.000255
0.000279
0.000174
0.000060
0.000205
0.000224
0.000232
0.000270
0.000229
0.000318
0.000519
0.000509
0.000361
0.000668
0.000303
0.000219
0.000210
0.000244
0.000265
0.000276
0.000256
0.000278
0.000453
0.000576
0.001468
0.000269
0.000257
0.000250
0.000304
0.000261
0.000530
0.000291
0.000291
0.000358
0.000150
0.000059
0.000207
0.000218
0.000239
0.000246
0.000233
0.000249
0.000254
0.000266
0.000271
0.000349
0.000346
0.000371
0.000268
0.000381
0.000384
0.000333
0.000235
0.000218
0.000259
0.000258
0.000241
0.000239
0.000263
0.000281
0.000367
0.000518
0.000352
0.000260
0.000233
0.000259
0.000179
0.000059
0.000223
0.000206
0.000248
0.000254
0.000257
0.000232
0.000495
0.000204
0.000254
0.000224
0.000260
0.000244
0.000251
0.000253
0.000258
0.000268
0.000246
0.000266
0.000268
0.000249
0.000258
0.000379
0.000240
0.000230
0.000251
0.000268
0.000278
0.000273
0.000256
0.000264
0.000204
0.000059
0.000222
0.000215
0.000444
0.000352
0.000376
0.000219
0.000213
0.000235
0.000258
0.000252
0.000243
0.000260
0.000248
0.000277
0.000241
0.000240
0.000255
0.000241
0.000400
0.000231
0.000422
0.000405
0.000257
0.000247
0.000252
0.000264
0.000281
0.000258
0.000242
0.000277
0.000217
0.000057
0.000341
0.000409
0.000374
0.000231
0.000251
0.000234
0.000477
0.000206
0.000220
0.000225
0.000283
0.000333
0.000357
0.000543
0.001685
0.000240
0.000252
0.000255
0.000263
0.000255
0.000340
0.000469
0.000600
0.000313
0.000224
0.000264
0.000271
0.000379
0.000316
0.000257
0.000189
0.000060
0.000208
0.000407
0.000295
0.000278
0.000529
0.000195
0.000234
0.000243
0.000255
0.000249
0.000250
0.000229
0.000265
0.000298
0.000579
0.000345
0.000256
0.000226
0.000243
0.000256
0.000266
0.000298
0.000262
0.000276
0.000277
0.000454
0.000495
0.000390
0.000496
0.000227
0.000181
0.000060
0.000221
0.000212
0.000232
0.000255
0.000222
0.000254
0.000267
0.000268
0.000354
0.000403
0.000465
0.000328
0.000242
0.000221
0.000260
0.000309
0.000270
0.000254
0.000266
0.000269
0.000241
0.000269
0.000524
0.000344
0.000314
0.000244
0.000236
0.000607
0.000375
0.000245
0.000134
0.000059
0.000196
0.000212
0.000416
0.000420
0.000285
0.000248
0.000209
0.000254
0.000263
0.000247
0.000262
0.000261
0.000249
0.000249
0.000262
0.000279
0.000440
0.000327
0.000278
0.000395
0.000440
0.000242
0.000256
0.000275
0.000306
0.000282
0.000267
0.000266
0.000474
0.000573
0.000155
0.000059
0.000208
0.000224
0.000245
0.000233
0.000243
0.000499
0.000205
0.000243
0.000270
0.000284
0.000604
0.000482
0.000251
0.000244
0.000228
0.000240
0.000249
0.000255
0.000258
0.000251
0.000259
0.000270
0.000484
0.000367
0.000367
0.000325
0.000361
0.000334
0.000293
0.000226
0.000156
0.000057
0.000232
0.000214
0.000244
0.000469
0.000341
0.000365
0.000247
0.000213
0.000205
0.000249
0.000246
0.000255
0.000240
0.000298
0.000272
0.000215
0.000241
0.000253
0.000328
0.000348
0.000699
0.000208
0.000239
0.000228
0.000256
0.000282
0.000262
0.000265
0.000266
0.000260
0.000196
0.000057
0.000257
0.000416
0.000481
0.000215
0.000240
0.000187
0.000351
0.000488
0.000265
0.000205
0.000209
0.000258
0.000270
0.000434
0.000471
0.000315
0.000219
0.000226
0.000295
0.000220
0.000259
0.000239
0.000268
0.000296
0.000259
0.000330
0.000362
0.000531
0.000247
0.000238
0.000130
0.000057
0.000246
0.000216
0.000221
0.000247
0.000262
0.000253
0.000238
0.000253
0.000253
0.000248
0.000261
0.000249
0.000250
0.001493
0.000248
0.000225
0.000254
0.000250
0.000277
0.000277
0.000262
0.000236
0.000278
0.000261
0.000262
0.000269
0.000278
0.000267
0.000259
0.000264
0.000201
0.000058
0.000195
0.000220
0.000224
0.000259
0.000255
0.000213
0.000258
0.000265
0.000231
0.000266
0.000277
0.000239
0.000257
0.000251
0.000253
0.000252
0.000254
0.000259
0.000269
0.000254
0.000263
0.000227
0.000275
0.000255
0.001344
0.000273
0.000582
0.000406
0.000362
0.000220
0.000157
0.000057
0.000207
0.000212
0.000246
0.000249
0.000483
0.000231
0.000196
0.000230
0.000253
0.000337
0.000530
0.000336
0.000214
0.000216
0.000224
0.000251
0.000254
0.000281
0.000262
0.000236
0.000279
0.000248
0.000260
0.000475
0.000485
0.000397
0.000257
0.000242
0.001386
0.000271
0.000162
0.000060
0.000323
0.000408
0.000347
0.000253
0.000209
0.000202
0.000245
0.000230
0.000239
0.000268
0.000239
0.000258
0.000259
0.000299
0.000594
0.000381
0.000297
0.000245
0.000248
0.000244
0.000258
0.000288
0.000274
0.000243
0.000267
0.000275
0.000351
0.000509
0.000405
0.000380
0.000149
0.000057
0.000214
0.000200
0.001318
0.000338
0.000333
0.000502
0.000343
0.000280
0.000441
0.000388
0.000219
0.000213
0.000230
0.000264
0.000248
0.000259
0.000468
0.000391
0.000401
0.000339
0.000273
0.000271
0.000241
0.000503
0.000247
0.000263
0.000228
0.000287
0.000316
0.000563
0.000303
0.000058
0.000337
0.000391
0.000220
0.000199
0.001437
0.000654
0.000276
0.000232
0.000206
0.000252
0.000232
0.000236
0.000252
0.000234
0.000263
0.000270
0.000247
0.000311
0.000384
0.000398
0.000482
0.000211
0.000232
0.000247
0.000243
0.000270
0.000277
0.000257
0.000243
0.000303
0.000181
0.000063
0.000374
0.000302
0.000248
0.000221
0.000255
0.000238
0.000247
0.000252
0.000233
0.000239
0.001453
0.000471
0.000264
0.000212
0.000226
0.000253
0.000255
0.000254
0.000263
0.000255
0.000284
0.000248
0.000276
0.000377
0.000603
0.000310
0.000228
0.000280
0.000263
0.000252
0.000192
0.000057
0.000207
0.000431
0.000208
0.000221
0.000317
0.000416
0.000431
0.000288
0.000468
0.000209
0.000216
0.000235
0.000261
0.000269
0.000263
0.001469
0.000308
0.000274
0.000262
0.000276
0.000273
0.000252
0.000258
0.000253
0.000247
0.000266
0.000495
0.000403
0.000304
0.000266
0.000171
0.000058
0.000208
0.000217
0.000231
0.000250
0.000243
0.000247
0.000238
0.000251
0.000263
0.000438
0.000454
0.000303
0.000208
0.000232
0.000240
0.000274
0.000259
0.000270
0.000267
0.000240
0.000246
0.000297
0.001326
0.000215
0.000280
0.000232
0.000222
0.000269
0.000257
0.000270
0.000188
0.000059
0.000273
0.000280
0.000526
0.000233
0.000223
0.000223
0.000250
0.000258
0.000257
0.000253
0.000259
0.000269
0.000229
0.000256
0.000264
0.000263
0.000266
0.000266
0.000275
0.000241
0.000235
0.000264
0.000267
0.000277
0.000279
0.000272
0.000295
0.000245
0.000256
0.000505
0.001342
0.000066
0.000185
0.000214
0.000225
0.000246
0.000249
0.000241
0.000277
0.000223
0.000244
0.000237
0.000256
0.000279
0.000261
0.000220
0.000256
0.001717
0.000365
0.000206
0.000211
0.000226
0.000255
0.000262
0.000283
0.000252
0.000272
0.000253
0.000273
0.000270
0.000266
0.000270
0.000239
0.000058
0.000318
0.000330
0.001285
0.000193
0.000229
0.000240
0.000219
0.000260
0.000246
0.000258
0.000238
0.000344
0.000402
0.000506
0.000267
0.000213
0.000242
0.000257
0.000250
0.000260
0.000244
0.000256
0.000272
0.000264
0.000286
0.000388
0.000487
0.000263
0.000313
0.000224
0.000188
0.000059
0.000227
0.000211
0.000240
0.000246
0.000251
0.000269
0.000201
0.000348
0.000347
0.000435
0.001153
0.000249
0.000232
0.000264
0.000251
0.000266
0.000271
0.000232
0.000329
0.000428
0.000354
0.000292
0.000231
0.000245
0.000249
0.000268
0.000288
0.000278
0.000267
0.000279
0.000214
0.000059
0.000246
0.000402
0.000433
0.000226
0.000210
0.000218
0.000253
0.000270
0.000264
0.000253
0.000223
0.000253
0.000513
0.000477
0.000462
0.001484
0.000213
0.000277
0.000326
0.000351
0.000424
0.000520
0.000386
0.000387
0.000247
0.000258
0.000265
0.000260
0.000287
0.000254
0.000199
0.000058
0.000212
0.000237
0.000527
0.000447
0.000319
0.000230
0.000258
0.000209
0.000224
0.000263
0.000246
0.000266
0.000269
0.000266
0.000238
0.000349
0.000380
0.000435
0.000308
0.001325
0.000286
0.000258
0.000237
0.000271
0.000499
0.000439
0.000389
0.000224
0.000258
0.000272
0.000178
0.000059
0.000207
0.000215
0.000236
0.000236
0.000250
0.000263
0.000466
0.000506
0.000289
0.000214
0.000217
0.000247
0.000298
0.000241
0.000276
0.000256
0.000256
0.000265
0.000265
0.000278
0.000649
0.000321
0.000327
0.001344
0.000315
0.000284
0.000355
0.000416
0.000401
0.000379
0.000248
0.000059
0.000194
0.000220
0.000257
0.000240
0.000249
0.000255
0.001731
0.000206
0.000214
0.000216
0.000238
0.000264
0.000323
0.000325
0.000333
0.000274
0.000243
0.000350
0.000506
0.000387
0.000291
0.000267
0.000219
0.000239
0.001436
0.000518
0.000312
0.000480
0.000327
0.000294
0.000159
0.000060
0.000201
0.000224
0.000249
0.000248
0.000239
0.000265
0.001792
0.000206
0.000236
0.000256
0.000391
0.000405
0.001451
0.000375
0.000364
0.000204
0.000235
0.000238
0.000274
0.000262
0.001589
0.000696
0.000271
0.000281
0.000216
0.000223
0.000240
0.000275
0.000266
0.000232
0.000220
0.000066
0.000190
0.000218
0.000260
0.000249
0.000241
0.000261
0.000294
0.000249
0.000257
0.000243
0.000255
0.000247
0.000266
0.000285
0.000273
0.001474
0.000275
0.000248
0.000253
0.000260
0.000275
0.000281
0.000416
0.001284
0.000265
0.000250
0.000256
0.000263
0.000447
0.000220
0.000176
0.000058
0.000217
0.000217
0.000228
0.000254
0.000246
0.000213
0.000242
0.001752
0.000206
0.000232
0.000252
0.000350
0.000224
0.000234
0.001452
0.000234
0.000209
0.000237
0.000266
0.000247
0.000281
0.000291
0.000319
0.001360
0.000274
0.000228
0.000238
0.000239
0.001392
0.000289
0.000206
0.000064
0.000317
0.000267
0.000210
0.000222
0.000249
0.000233
0.000241
0.000292
0.000270
0.000236
0.000251
0.000263
0.000248
0.000250
0.000345
0.001471
0.000265
0.000252
0.000255
0.000254
0.000262
0.000309
0.000236
0.001524
0.000309
0.000261
0.000258
0.001342
0.000229
0.000247
0.000187
0.000062
0.000210
0.000404
0.000308
0.000225
0.000231
0.000228
0.000255
0.000252
0.000262
0.000270
0.000249
0.000243
0.000259
0.000311
0.000453
0.001221
0.000220
0.000218
0.000259
0.000276
0.000231
0.000242
0.000261
0.001301
0.000353
0.000227
0.000239
0.000247
0.000241
0.001334
0.000346
0.000081
0.000284
0.000272
0.000198
0.000216
0.000234
0.000236
0.000248
0.000253
0.000272
0.000242
0.000249
0.000239
0.000250
0.000405
0.000403
0.001419
0.000244
0.000243
0.000277
0.000519
0.000308
0.000469
0.001252
0.000292
0.000270
0.000239
0.001282
0.000349
0.000234
0.000569
0.000257
0.000058
0.000195
0.000242
0.000256
0.000254
0.000248
0.000252
0.000246
0.000271
0.000247
0.000262
0.000355
0.000547
0.001297
0.000210
0.000231
0.000259
0.000285
0.000264
0.000211
0.000228
0.000324
0.001320
0.000238
0.000237
0.000222
0.000258
0.001457
0.000510
0.000444
0.000245
0.000176
0.000065
0.000186
0.000228
0.000223
0.000250
0.000226
0.000289
0.000237
0.000284
0.000403
0.000471
0.000338
0.001429
0.000237
0.000231
0.000259
0.000246
0.000254
0.000274
0.001690
0.000311
0.000341
0.000359
0.001362
0.000384
0.000262
0.000368
0.000212
0.000215
0.000239
0.000259
0.000209
0.000057
0.000223
0.000217
0.000305
0.000224
0.000322
0.000551
0.000298
0.000366
0.001477
0.000267
0.000339
0.000249
0.000218
0.000343
0.000361
0.001344
0.000256
0.000210
0.000236
0.000258
0.000266
0.001606
0.000367
0.000281
0.000237
0.000228
0.000482
0.000319
0.000233
0.000233
0.000247
0.000058
0.000263
0.000376
0.000318
0.000306
0.000208
0.001473
0.000232
0.000227
0.000253
0.000268
0.000273
0.000239
0.000380
0.001434
0.000250
0.000235
0.000409
0.001281
0.000286
0.000472
0.000345
0.000260
0.000220
0.000260
0.000263
0.000262
0.000475
0.000221
0.000252
0.000256
0.000211
0.000057
0.000223
0.000242
0.000327
0.001478
0.000263
0.000206
0.000292
0.000255
0.000250
0.000240
0.000237
0.000273
0.001637
0.000217
0.000224
0.000222
0.001368
0.000334
0.000445
0.000427
0.000377
0.000212
0.000233
0.000247
0.000356
0.000237
0.000229
0.000256
0.000229
0.000259
0.000219
0.000058
0.000205
0.000435
0.001397
0.000245
0.000232
0.000263
0.000260
0.000239
0.000329
0.000374
0.001350
0.000246
0.000300
0.000243
0.000229
0.001379
0.000649
0.000262
0.000292
0.000403
0.000337
0.000243
0.000228
0.000241
0.000269
0.000279
0.000271
0.000299
0.000592
0.000340
0.001379
0.000062
0.000212
0.000236
0.000227
0.000205
0.000248
0.000390
0.001671
0.000191
0.000227
0.000214
0.000254
0.001396
0.000484
0.000310
0.000446
0.000247
0.000228
0.000211
0.000255
0.000262
0.000264
0.000264
0.000256
0.000296
0.000255
0.000274
0.000405
0.000565
0.001432
0.000260
0.000182
0.000058
0.000199
0.000227
0.000399
0.000501
0.001240
0.000281
0.000259
0.000241
0.000242
0.000264
0.000233
0.000263
0.000392
0.000534
0.000299
0.000245
0.000234
0.000281
0.000237
0.000270
0.000271
0.000253
0.000248
0.000275
0.000264
0.000369
0.000563
0.000282
0.000332
0.001466
0.000140
0.000059
0.000207
0.000223
0.000271
0.000430
0.000417
0.000301
0.000326
0.000241
0.000282
0.000253
0.000269
0.000257
0.000240
0.000310
0.000256
0.000291
0.000628
0.000265
0.000267
0.000442
0.000251
0.000435
0.000249
0.000214
0.000220
0.000253
0.000259
0.000279
0.000357
0.000518
0.000300
0.000058
0.000233
0.001345
0.000287
0.000360
0.000360
0.000458
0.000286
0.000371
0.000218
0.000230
0.000266
0.000250
0.000258
0.000257
0.000248
0.000260
0.000267
0.001410
0.000261
0.000223
0.000245
0.000267
0.000262
0.000270
0.000267
0.000246
0.000273
0.000263
0.000278
0.000550
0.000437
0.000058
0.000219
0.000242
0.000237
0.001518
0.000333
0.000221
0.000210
0.000203
0.000237
0.000231
0.000262
0.000259
0.000255
0.000260
0.000255
0.000275
0.000244
0.000248
0.000250
0.000268
0.001442
0.000270
0.000232
0.000320
0.000233
0.000222
0.000269
0.000247
0.000265
0.000488
0.000388
0.000057
0.000216
0.000229
0.000410
0.000268
0.000220
0.000245
0.001543
0.000350
0.000325
0.000210
0.000235
0.000393
0.000272
0.000240
0.000212
0.000265
0.000245
0.000260
0.000258
0.000253
0.000537
0.000448
0.001169
0.000265
0.000222
0.000231
0.000257
0.000264
0.000277
0.000257
0.000356
0.000057
0.000366
0.000279
0.000202
0.000214
0.000242
0.000238
0.000247
0.000245
0.001468
0.000442
0.000406
0.000279
0.000228
0.000225
0.000229
0.000240
0.000250
0.000289
0.000251
0.000307
0.000310
0.000469
0.000470
0.001378
0.000235
0.000275
0.000276
0.000272
0.000260
0.000335
0.000428
0.000061
0.000260
0.000217
0.000227
0.000236
0.000245
0.000222
0.000249
0.000256
0.000282
0.001590
0.000313
0.000285
0.000246
0.000259
0.000484
0.000284
0.000429
0.000455
0.000323
0.000312
0.000467
0.000454
0.001292
0.000231
0.000242
0.000224
0.001786
0.000394
0.000601
0.000314
0.000155
0.000057
0.000199
0.000210
0.000250
0.000232
0.000254
0.000240
0.000341
0.000505
0.000403
0.000419
0.000326
0.000193
0.000221
0.000254
0.000255
0.000281
0.000254
0.000243
0.000261
0.000251
0.000252
0.000496
0.001287
0.000259
0.000236
0.000240
0.001910
0.000386
0.000459
0.000279
0.000171
0.000060
0.000246
0.000214
0.000238
0.001603
0.000355
0.000256
0.000226
0.000253
0.000303
0.000282
0.000387
0.000369
0.000383
0.000277
0.000285
0.000554
0.000299
0.001264
0.000269
0.000211
0.000243
0.000255
0.000346
0.000452
0.000542
0.000469
0.000222
0.000226
0.000254
0.000287
0.000206
0.000058
0.000196
0.000212
0.001464
0.000404
0.000199
0.000215
0.000223
0.000247
0.000247
0.000233
0.000260
0.000272
0.000261
0.000285
0.000237
0.000454
0.000418
0.000313
0.001377
0.000273
0.000243
0.000263
0.000270
0.000268
0.000384
0.000448
0.000438
0.000305
0.000291
0.000245
0.000402
0.000058
0.000211
0.000215
0.000253
0.000255
0.001580
0.000234
0.000246
0.000255
0.000257
0.000257
0.000245
0.000283
0.000235
0.000253
0.000394
0.000529
0.001469
0.000722
0.000255
0.000313
0.000237
0.000235
0.000226
0.000251
0.001777
0.000718
0.000257
0.000244
0.000265
0.000295
0.000204
0.000065
0.000195
0.000214
0.000250
0.000239
0.000253
0.000246
0.000241
0.000249
0.000248
0.000218
0.000284
0.000286
0.000243
0.000267
0.000263
0.000236
0.000262
0.001630
0.000659
0.000390
0.000356
0.000243
0.000226
0.000246
0.000299
0.000264
0.000258
0.000264
0.001468
0.000360
0.000387
0.000060
0.000196
0.000230
0.000215
0.000256
0.000240
0.000250
0.000252
0.000238
0.000251
0.000270
0.000269
0.000479
0.000397
0.000367
0.000214
0.000233
0.000247
0.001461
0.000686
0.000397
0.000330
0.000325
0.000210
0.000239
0.000255
0.000276
0.000255
0.000263
0.001519
0.000421
0.000212
0.000064
0.000184
0.000222
0.000236
0.000243
0.000258
0.000227
0.000246
0.000250
0.000261
0.000269
0.000413
0.000355
0.000291
0.000244
0.000233
0.000225
0.000280
0.000251
0.001581
0.000601
0.000470
0.000368
0.000228
0.000239
0.000267
0.000263
0.000259
0.000258
0.000263
0.001444
0.000307
0.000058
0.000232
0.000196
0.000203
0.000265
0.000232
0.000251
0.000295
0.000348
0.000368
0.000417
0.000354
0.000408
0.000310
0.000256
0.000245
0.000223
0.000280
0.000245
0.001376
0.000868
0.000335
0.000220
0.000459
0.000212
0.000221
0.000250
0.000263
0.000276
0.000258
0.000276
0.000301
0.000058
0.000316
0.000205
0.000202
0.000252
0.000236
0.000261
0.000236
0.000236
0.000263
0.000255
0.000233
0.000238
0.000295
0.000442
0.000519
0.000376
0.000251
0.000251
0.000257
0.000235
0.000254
0.000380
0.001467
0.000962
0.000254
0.000234
0.000272
0.000274
0.000257
0.000266
0.000187
0.000060
0.000223
0.001372
0.000261
0.000213
0.000217
0.000248
0.000252
0.000241
0.000239
0.000232
0.000263
0.000241
0.000260
0.000438
0.000348
0.000424
0.000301
0.000217
0.000276
0.000245
0.000275
0.000261
0.000255
0.000267
0.001813
0.000307
0.000247
0.000407
0.000375
0.000407
0.000240
0.000059
0.000215
0.000230
0.000315
0.001333
0.000234
0.000265
0.000218
0.000248
0.000257
0.000252
0.000263
0.000243
0.000260
0.000397
0.000539
0.000327
0.000212
0.000301
0.000274
0.000236
0.000267
0.000248
0.000219
0.000249
0.000274
0.001542
0.000741
0.000316
0.000303
0.000258
0.000177
0.000064
0.000191
0.000244
0.000417
0.000409
0.001293
0.000252
0.000202
0.000208
0.000236
0.000240
0.000235
0.000250
0.000254
0.000234
0.000259
0.000255
0.000260
0.000257
0.000256
0.000243
0.000256
0.000269
0.000335
0.000308
0.000244
0.000258
0.000264
0.001519
0.000227
0.000235
0.000138
0.000058
0.000217
0.000216
0.000270
0.000303
0.000345
0.000335
0.000409
0.000251
0.001554
0.000266
0.000267
0.000578
0.000255
0.000263
0.000470
0.000235
0.000226
0.000224
0.000267
0.000263
0.000282
0.000251
0.000270
0.000261
0.000289
0.000445
0.000421
0.000306
0.001526
0.000256
0.000180
0.000065
0.000175
0.000206
0.000238
0.000251
0.000239
0.000261
0.000247
0.000351
0.000389
0.002083
0.000212
0.000218
0.000239
0.000255
0.000259
0.000330
0.000251
0.000219
0.000281
0.000408
0.000416
0.000385
0.001526
0.000230
0.000206
0.000520
0.001751
0.000290
0.000263
0.001478
0.000192
0.000058
0.000383
0.000348
0.000444
0.000243
0.000260
0.000244
0.000261
0.000268
0.000266
0.000225
0.000249
0.000344
0.000421
0.000375
0.000446
0.000215
0.000214
0.001555
0.000476
0.002020
0.000284
0.000266
0.001397
0.000478
0.002422
0.000308
0.000206
0.000226
0.000304
0.000533
0.000225
0.000062
0.000208
0.000212
0.000255
0.000233
0.001483
0.001679
0.001067
0.000234
0.000221
0.001593
0.001968
0.000218
0.000312
0.000408
0.000268
0.000488
0.000342
0.000359
0.000253
0.000246
0.000227
0.000263
0.000252
0.001670
0.002389
0.000313
0.000200
0.000222
0.000271
0.000307
0.000423
0.000058
0.000278
0.000179
0.000212
0.000260
0.000213
0.000213
0.000265
0.000228
0.000255
0.000264
0.000242
0.000317
0.000614
0.000405
0.000226
0.000206
0.000260
0.000277
0.000261
0.000267
0.000240
0.001363
0.000524
0.000394
0.002077
0.000259
0.000245
0.000342
0.000435
0.000452
0.000153
0.000065
0.000222
0.000278
0.000556
0.000247
0.000241
0.000220
0.000221
0.000249
0.000255
0.000252
0.000241
0.000253
0.000256
0.001618
0.001413
0.001231
0.000274
0.000227
0.000222
0.000246
0.000264
0.000284
0.000256
0.000246
0.002277
0.000223
0.000232
0.000301
0.000317
0.000309
0.000213
0.000058
0.000196
0.000417
0.000541
0.000315
0.000207
0.000220
0.000233
0.000261
0.001874
0.001437
0.000254
0.000376
0.000393
0.000361
0.000256
0.000220
0.000244
0.000264
0.000274
0.000279
0.000243
0.000260
0.000486
0.000220
0.000240
0.000291
0.000244
0.000266
0.000275
0.000262
0.000212
0.000059
0.000200
0.000237
0.000254
0.000219
0.000234
0.000274
0.001548
0.001487
0.001326
0.000222
0.000218
0.000218
0.000259
0.000251
0.000269
0.000246
0.000259
0.002159
0.000208
0.000230
0.000239
0.000265
0.000247
0.000267
0.000276
0.000267
0.000250
0.000262
0.000289
0.000245
0.000179
0.000065
0.001476
0.000313
0.002403
0.000249
0.000285
0.000296
0.000271
0.000257
0.000261
0.000227
0.000243
0.000252
0.000251
0.000246
0.000265
0.000260
0.000263
0.000269
0.000263
0.000259
0.000259
0.000259
0.000280
0.000294
0.000247
0.000244
0.000259
0.000280
0.000257
0.000269
0.000384
0.000059
0.000197
0.002556
0.000334
0.000211
0.000196
0.000220
0.000252
0.000251
0.000256
0.000322
0.000356
0.000318
0.000375
0.000229
0.000221
0.002213
0.000240
0.000208
0.000277
0.000484
0.000454
0.000234
0.000218
0.000218
0.000271
0.000270
0.000254
0.000285
0.000259
0.001711
0.001177
0.000060
0.000206
0.000218
0.000256
0.000392
0.000414
0.000237
0.000245
0.000223
0.000231
0.000250
0.000271
0.000245
0.000263
0.000240
0.000251
0.000253
0.000365
0.000641
0.000319
0.000238
0.000224
0.000237
0.000270
0.000276
0.000269
0.000230
0.000248
0.000281
0.000257
0.000378
0.000354
0.000059
0.001125
0.000226
0.000379
0.000457
0.000292
0.000193
0.000243
0.000210
0.002269
0.000381
0.000341
0.000332
0.000211
0.000287
0.000343
0.000250
0.000259
0.000253
0.000281
0.000255
0.000247
0.000363
0.000498
0.000523
0.001789
0.001572
0.000413
0.000415
0.000238
0.000248
0.000221
0.000067
0.000352
0.000221
0.000263
0.000235
0.000213
0.000249
0.000247
0.000247
0.000271
0.000262
0.000237
0.000224
0.000246
0.000239
0.000368
0.000571
0.001853
0.001324
0.000399
0.000499
0.000373
0.000254
0.000245
0.000255
0.002189
0.000497
0.000373
0.000254
0.000255
0.000285
0.000215
0.000058
0.000193
0.000226
0.000253
0.000244
0.000246
0.000389
0.000372
0.000282
0.000340
0.000241
0.000232
0.000282
0.000230
0.002219
0.000281
0.000335
0.000258
0.000237
0.000252
0.000254
0.000258
0.002448
0.000372
0.000222
0.000242
0.000242
0.000260
0.000274
0.000277
0.000277
0.000224
0.000060
0.000224
0.000316
0.000603
0.000359
0.000232
0.000209
0.000202
0.000243
0.000258
0.000263
0.002114
0.000304
0.000296
0.000228
0.000222
0.000228
0.000267
0.000255
0.002271
0.000375
0.000235
0.000264
0.000250
0.000252
0.000276
0.000252
0.000274
0.000255
0.000267
0.000256
0.000197
0.000064
0.000201
0.000209
0.000249
0.000241
0.000235
0.000251
0.000250
0.000232
0.000255
0.002164
0.000236
0.000282
0.000224
0.000461
0.000219
0.000220
0.000247
0.000275
0.000281
0.000270
0.002020
0.000309
0.000334
0.000343
0.000490
0.000420
0.000229
0.000235
0.000232
0.000249
0.000199
0.000058
0.000214
0.000240
0.000204
0.000264
0.000280
0.000333
0.000208
0.002324
0.000224
0.000231
0.000236
0.000243
0.000252
0.000226
0.000327
0.002190
0.000513
0.000228
0.000268
0.000233
0.000252
0.000252
0.000277
0.000277
0.000306
0.000229
0.000310
0.000218
0.000275
0.000296
0.000154
0.000058
0.000208
0.002997
0.000245
0.000231
0.000246
0.000242
0.000231
0.000257
0.000454
0.000365
0.002143
0.000243
0.000252
0.000266
0.000265
0.000618
0.000334
0.000303
0.000222
0.000222
0.000240
0.000243
0.000268
0.000251
0.000241
0.000279
0.000265
0.000265
0.000287
0.000693
0.000346
0.000060
0.000198
0.000265
0.000260
0.000217
0.000233
0.000241
0.000241
0.000265
0.001543
0.002118
0.000519
0.000270
0.000393
0.000895
0.000235
0.000226
0.000224
0.000242
0.000266
0.000262
0.000247
0.000224
0.000265
0.000267
0.001819
0.001454
0.000296
0.000283
0.000272
0.000333
0.000391
0.000060
0.001930
0.000226
0.000233
0.000206
0.000305
0.000316
0.000529
0.000260
0.000307
0.000262
0.000203
0.000214
0.000254
0.000256
0.000283
0.000249
0.000262
0.000248
0.001906
0.000221
0.000228
0.000243
0.000263
0.000259
0.000265
0.000256
0.001595
0.000290
0.000220
0.000266
0.000125
0.000058
0.000205
0.000206
0.000242
0.000242
0.000240
0.000261
0.000282
0.000391
0.000422
0.000325
0.000207
0.000235
0.000320
0.000320
0.000386
0.000318
0.000225
0.000215
0.000262
0.000377
0.000544
0.000414
0.000220
0.000219
0.000250
0.000286
0.000246
0.000242
0.000285
0.000264
0.000206
0.000059
0.001423
0.000400
0.000252
0.002002
0.000246
0.000476
0.000375
0.000315
0.000209
0.000217
0.000250
0.000246
0.000249
0.000252
0.000257
0.000294
0.000462
0.000259
0.000458
0.000315
0.000365
0.000252
0.000228
0.000258
0.000346
0.000223
0.000239
0.000252
0.000387
0.000465
0.001413
0.000059
0.000202
0.000214
0.002058
0.000278
0.000318
0.000267
0.000248
0.000265
0.000261
0.000248
0.000271
0.000229
0.000255
0.000252
0.000257
0.000330
0.000767
0.001690
0.000279
0.000243
0.000253
0.000252
0.000409
0.000462
0.001527
0.000301
0.000356
0.001987
0.000236
0.000225
0.000187
0.000058
0.000212
0.000220
0.000220
0.000242
0.000261
0.000226
0.000232
0.000284
0.000335
0.000300
0.000392
0.000365
0.000340
0.000289
0.000220
0.000252
0.000262
0.000267
0.000243
0.000260
0.000280
0.000293
0.000258
0.000257
0.000283
0.001576
0.000291
0.000416
0.001979
0.000257
0.000152
0.000060
0.000229
0.000231
0.000215
0.000238
0.000477
0.000232
0.000236
0.000345
0.000366
0.000377
0.000225
0.000226
0.000241
0.000273
0.000269
0.000343
0.000505
0.000344
0.000272
0.000406
0.000553
0.000431
0.001545
0.000263
0.000246
0.002026
0.000335
0.000241
0.000208
0.000259
0.000194
0.000060
0.000204
0.000220
0.000241
0.000226
0.000256
0.000248
0.000259
0.000258
0.000258
0.000282
0.001857
0.000312
0.000378
0.000322
0.000459
0.000358
0.001521
0.000334
0.000228
0.000318
0.002028
0.000600
0.000257
0.000228
0.000236
0.000269
0.000508
0.000227
0.000252
0.000270
0.000193
0.000058
0.000278
0.000374
0.000379
0.000249
0.000226
0.000221
0.000231
0.000254
0.000334
0.000240
0.000225
0.000261
0.000257
0.000253
0.000364
0.000407
0.001356
0.000264
0.000314
0.001928
0.000383
0.000261
0.000208
0.000242
0.000259
0.000293
0.000262
0.000272
0.000232
0.000265
0.000206
0.000058
0.000214
0.000522
0.001978
0.000216
0.000240
0.000239
0.000220
0.000311
0.000400
0.001520
0.000322
0.000370
0.000344
0.001985
0.000258
0.000236
0.000234
0.000274
0.000264
0.000243
0.000304
0.000278
0.000271
0.000325
0.000488
0.000373
0.000351
0.002194
0.000530
0.000518
0.000362
0.000058
0.000216
0.000218
0.000207
0.002040
0.000200
0.000228
0.000230
0.000267
0.000210
0.000253
0.000251
0.000245
0.000254
0.000337
0.000480
0.000349
0.001284
0.000228
0.000271
0.000259
0.000250
0.000250
0.000296
0.000261
0.000317
0.000440
0.000459
0.000261
0.001664
0.000226
0.000148
0.000063
0.000203
0.000196
0.000220
0.000245
0.000239
0.000255
0.000258
0.000247
0.000252
0.000414
0.000420
0.001401
0.000201
0.000219
0.000228
0.000255
0.000262
0.000246
0.000276
0.000505
0.000644
0.000220
0.000241
0.001545
0.000262
0.000245
0.000306
0.000265
0.000264
0.000263
0.000184
0.000058
0.000215
0.000216
0.000265
0.000256
0.000240
0.000248
0.000248
0.000245
0.000255
0.000266
0.000236
0.000229
0.000275
0.000244
0.001582
0.000243
0.000246
0.000262
0.000332
0.000333
0.000349
0.000261
0.000215
0.000258
0.000243
0.000255
0.001472
0.000295
0.000208
0.000243
0.000166
0.000065
0.000189
0.000236
0.000229
0.000281
0.000248
0.000231
0.000252
0.000240
0.000232
0.000242
0.000261
0.000249
0.000247
0.000364
0.000300
0.000391
0.000272
0.001571
0.000338
0.000216
0.000233
0.000230
0.000272
0.000303
0.000402
0.000453
0.000388
0.000245
0.000231
0.001577
0.000198
0.000058
0.000400
0.000298
0.000343
0.000303
0.000215
0.000207
0.000239
0.000262
0.000247
0.000244
0.000263
0.000223
0.001474
0.000321
0.000300
0.000220
0.000236
0.000262
0.000265
0.000243
0.000260
0.000249
0.000240
0.000276
0.000317
0.000441
0.000378
0.000333
0.000302
0.000230
0.000166
0.000058
0.000214
0.000234
0.000417
0.000543
0.000270
0.000208
0.000208
0.000253
0.000242
0.000257
0.000247
0.000231
0.000242
0.000252
0.001352
0.000279
0.000208
0.000241
0.000239
0.000264
0.000266
0.000253
0.000241
0.000270
0.000245
0.000267
0.000282
0.000725
0.000450
0.000242
0.000170
0.000058
0.000209
0.001528
0.000269
0.000335
0.000575
0.000262
0.000204
0.000230
0.000257
0.000255
0.000255
0.000257
0.000264
0.000266
0.000268
0.001549
0.000252
0.000286
0.000267
0.000256
0.000257
0.000236
0.000255
0.000266
0.000262
0.000328
0.000583
0.000205
0.000359
0.000237
0.000147
0.000058
0.000203
0.000204
0.000258
0.001733
0.000376
0.000338
0.000203
0.000228
0.000234
0.000264
0.000258
0.000257
0.000262
0.000257
0.000239
0.000262
0.000443
0.001355
0.000223
0.000217
0.001539
0.000644
0.000226
0.000423
0.000299
0.000227
0.000230
0.000460
0.000264
0.000265
0.000188
0.000057
0.000300
0.000209
0.000238
0.000223
0.000238
0.000253
0.000250
0.000241
0.000265
0.000259
0.000241
0.000247
0.000360
0.000508
0.001619
0.001546
0.000338
0.000581
0.000251
0.000259
0.000241
0.000225
0.000254
0.000251
0.000280
0.000262
0.000250
0.000273
0.001591
0.000315
0.000136
0.000067
0.000217
0.000336
0.000348
0.000335
0.000266
0.000205
0.000210
0.000486
0.000312
0.001417
0.000332
0.001547
0.000387
0.000474
0.000422
0.000262
0.000348
0.000336
0.000342
0.000276
0.000241
0.000366
0.001543
0.000531
0.000262
0.000228
0.000266
0.000254
0.000259
0.000266
0.000198
0.000058
0.000213
0.000226
0.000249
0.000234
0.000245
0.001668
0.000950
0.000903
0.000256
0.000211
0.000255
0.000262
0.000249
0.000274
0.000243
0.000261
0.000235
0.000271
0.000260
0.000276
0.001527
0.000269
0.000248
0.000219
0.000247
0.000255
0.000266
0.000263
0.000274
0.000272
0.000203
0.000058
0.000198
0.000216
0.001523
0.000932
0.000458
0.000252
0.000232
0.000212
0.000266
0.000234
0.000221
0.000276
0.000233
0.002103
0.000416
0.000207
0.000221
0.000232
0.000259
0.000257
0.000200
