0.000434
0.019757
0.001600
0.000366
0.000243
0.000231
0.000307
0.000251
0.000324
0.000298
0.000238
0.000403
0.000479
0.000521
0.000384
0.000267
0.000305
0.000375
0.000396
0.000412
0.000303
0.001866
0.000499
0.000446
0.000255
0.000300
0.000296
0.000437
0.000387
0.000405
0.000441
0.000329
0.000058
0.000200
0.000220
0.000273
0.000257
0.000300
0.000239
0.000265
0.000267
0.000274
0.000274
0.000423
0.000490
0.000307
0.000258
0.000402
0.000361
0.000353
0.000251
0.000216
0.001734
0.000292
0.000229
0.000505
0.000249
0.000242
0.000245
0.000291
0.000288
0.000281
0.000310
0.000525
0.000057
0.000253
0.000218
0.000265
0.000260
0.000250
0.000248
0.000259
0.000258
0.000284
0.001670
0.000241
0.000234
0.000247
0.000279
0.000278
0.000249
0.000267
0.000256
0.000343
0.001808
0.000264
0.000249
0.000446
0.000459
0.000399
0.000238
0.000247
0.000584
0.000323
0.000868
0.000173
0.000058
0.000213
0.000216
0.000257
0.000237
0.000318
0.000248
0.000318
0.000570
0.000419
0.000260
0.000222
0.000203
0.000242
0.000258
0.000249
0.000254
0.000301
0.000213
0.000289
0.000322
0.001758
0.000244
0.000254
0.000433
0.000653
0.000295
0.000831
0.000334
0.000375
0.000241
0.000208
0.000056
0.000230
0.000227
0.000251
0.000251
0.000251
0.000257
0.000250
0.000574
0.001376
0.000243
0.000259
0.000213
0.000248
0.000254
0.000266
0.000281
0.000284
0.000838
0.001335
0.000299
0.000261
0.000404
0.000259
0.000240
0.000255
0.000257
0.000268
0.000257
0.000274
0.000259
0.000216
0.000057
0.000201
0.000217
0.000245
0.000242
0.000265
0.000234
0.000250
0.000246
0.000239
0.000256
0.001693
0.000256
0.000221
0.000249
0.000211
0.000249
0.000232
0.000266
0.000244
0.000253
0.000262
0.001744
0.000249
0.000268
0.000452
0.000246
0.000241
0.000233
0.000259
0.000265
0.000213
0.000056
0.000209
0.000220
0.000240
0.000238
0.000238
0.000249
0.000261
0.000243
0.000262
0.000255
0.000252
0.000256
0.000257
0.000277
0.001631
0.000275
0.000294
0.000235
0.000239
0.000273
0.000266
0.000256
0.000258
0.000248
0.000266
0.001836
0.000390
0.000364
0.000267
0.000269
0.000217
0.000056
0.000231
0.000196
0.000251
0.000264
0.000262
0.000234
0.000295
0.000367
0.000538
0.000344
0.000216
0.000236
0.000251
0.000251
0.001641
0.000519
0.000355
0.000349
0.000298
0.000226
0.000247
0.000282
0.000267
0.001813
0.000480
0.000484
0.000233
0.000223
0.000233
0.000247
0.000219
0.000056
0.000204
0.000219
0.000215
0.000270
0.000319
0.000545
0.000335
0.000265
0.000216
0.000217
0.000260
0.000236
0.000257
0.001694
0.000488
0.000326
0.000214
0.000241
0.000276
0.000275
0.000261
0.000267
0.000257
0.001890
0.000306
0.000403
0.000243
0.000255
0.000295
0.000405
0.000312
0.000055
0.000201
0.000400
0.000331
0.000274
0.000299
0.000197
0.000240
0.000258
0.000239
0.000251
0.000228
0.000235
0.001628
0.000362
0.000288
0.000206
0.000223
0.000245
0.000252
0.000280
0.000274
0.000331
0.001777
0.000359
0.000223
0.000505
0.000231
0.000244
0.000229
0.000260
0.000289
0.000055
0.000373
0.000522
0.000665
0.000229
0.000187
0.000252
0.000237
0.000219
0.000266
0.000240
0.000255
0.001704
0.000270
0.000431
0.000365
0.000230
0.000234
0.000227
0.000236
0.000258
0.000272
0.001838
0.000281
0.000200
0.002253
0.000440
0.000265
0.000262
0.000255
0.000278
0.000192
0.000057
0.000228
0.000210
0.000234
0.000242
0.000254
0.001693
0.000211
0.000210
0.000255
0.000241
0.000249
0.000278
0.000218
0.000254
0.000282
0.000400
0.000662
0.000213
0.000248
0.000263
0.000275
0.000241
0.000245
0.000493
0.000453
0.000241
0.000364
0.000612
0.000372
0.000227
0.000199
0.000056
0.000212
0.000209
0.000259
0.000247
0.000240
0.000238
0.000247
0.000540
0.000346
0.001623
0.000259
0.000242
0.000233
0.000242
0.000261
0.000287
0.000446
0.000503
0.000375
0.000216
0.000233
0.000272
0.000326
0.000266
0.000285
0.000382
0.000425
0.000573
0.000487
0.000435
0.000143
0.000055
0.000196
0.000250
0.000220
0.000226
0.000243
0.000241
0.000245
0.000249
0.000247
0.000361
0.000342
0.001561
0.000285
0.000207
0.000203
0.000217
0.000263
0.000256
0.000245
0.000245
0.000287
0.000433
0.000418
0.000336
0.000217
0.000242
0.000270
0.000255
0.000265
0.000274
0.000421
0.000056
0.000210
0.000216
0.000243
0.000275
0.000497
0.000463
0.000235
0.000239
0.000235
0.000253
0.000257
0.000244
0.000276
0.000267
0.000232
0.000557
0.000399
0.001584
0.000267
0.000271
0.000243
0.000263
0.000253
0.000245
0.000255
0.000524
0.000470
0.000331
0.000357
0.000228
0.000216
0.000056
0.000220
0.000210
0.000398
0.000239
0.000267
0.000239
0.000267
0.000592
0.000328
0.000306
0.000242
0.000275
0.000264
0.000241
0.000604
0.000285
0.000228
0.000273
0.000340
0.001721
0.000241
0.000246
0.000294
0.000414
0.000275
0.000291
0.000257
0.000427
0.000472
0.000368
0.000279
0.000056
0.000201
0.000209
0.000234
0.000250
0.000480
0.000260
0.000284
0.000216
0.000462
0.000488
0.000363
0.000238
0.000210
0.000221
0.000253
0.000273
0.000250
0.000265
0.000221
0.000375
0.000275
0.000327
0.001835
0.000270
0.000234
0.000253
0.000315
0.000357
0.000467
0.000684
0.000418
0.000056
0.000248
0.000317
0.000339
0.000415
0.000313
0.000212
0.000240
0.000269
0.000520
0.000431
0.000324
0.000211
0.000207
0.000270
0.000261
0.000240
0.000242
0.000286
0.000259
0.000263
0.000268
0.000506
0.001674
0.000285
0.000357
0.000427
0.000376
0.000251
0.000483
0.000305
0.000427
0.000056
0.000241
0.000383
0.000289
0.000210
0.000233
0.000236
0.000451
0.000214
0.000218
0.000463
0.000333
0.000340
0.000323
0.000238
0.000264
0.000285
0.000365
0.000453
0.000297
0.000227
0.000210
0.000412
0.000575
0.001708
0.000273
0.000387
0.000325
0.000243
0.000257
0.000413
0.000336
0.000056
0.000236
0.000208
0.000232
0.000246
0.000243
0.000253
0.000244
0.000378
0.000416
0.000276
0.000583
0.000279
0.000294
0.000228
0.000512
0.000267
0.000266
0.000271
0.000233
0.000350
0.000225
0.000243
0.000267
0.000365
0.000600
0.001661
0.000228
0.000231
0.000228
0.000269
0.000211
0.000057
0.000311
0.000422
0.000393
0.000208
0.000236
0.000213
0.000264
0.000234
0.000257
0.000259
0.000238
0.000466
0.000242
0.000525
0.000366
0.000329
0.000224
0.000241
0.000355
0.000356
0.000371
0.000357
0.000385
0.000376
0.000258
0.000218
0.000237
0.000280
0.001788
0.000256
0.000214
0.000058
0.000199
0.000199
0.000251
0.000263
0.000355
0.000536
0.000351
0.000217
0.000240
0.000266
0.000248
0.000246
0.000532
0.000444
0.000468
0.000316
0.000272
0.000235
0.000437
0.000488
0.000371
0.000427
0.000465
0.000447
0.000237
0.000246
0.000236
0.000230
0.000245
0.001783
0.000306
0.000058
0.000239
0.000330
0.000204
0.000215
0.000252
0.000244
0.000287
0.000447
0.000427
0.000306
0.000326
0.000313
0.000290
0.000717
0.000296
0.000206
0.000222
0.000231
0.000261
0.000266
0.000264
0.000267
0.000243
0.000266
0.000284
0.000454
0.000439
0.000328
0.000224
0.000216
0.000194
0.000055
0.000455
0.000309
0.000480
0.000200
0.000199
0.000231
0.000252
0.000253
0.000245
0.000249
0.000214
0.000281
0.000291
0.000367
0.000626
0.000450
0.000239
0.000355
0.000386
0.000377
0.000266
0.000225
0.000214
0.000252
0.001819
0.000225
0.001809
0.000885
0.000410
0.000306
0.000152
0.000056
0.000207
0.000209
0.000232
0.000235
0.000256
0.000254
0.000260
0.000239
0.000262
0.000261
0.000451
0.000410
0.000375
0.000398
0.000237
0.000243
0.000267
0.000287
0.000211
0.000239
0.000250
0.000228
0.001799
0.000280
0.000224
0.000264
0.000281
0.000255
0.001854
0.000571
0.000316
0.000057
0.000223
0.000205
0.000212
0.000241
0.000251
0.000245
0.000248
0.000254
0.000258
0.000403
0.000566
0.000278
0.000391
0.000244
0.000227
0.000269
0.000400
0.000367
0.000377
0.000257
0.001799
0.000245
0.000224
0.000228
0.000264
0.000270
0.000237
0.000272
0.000240
0.000351
0.000398
0.000056
0.000276
0.000182
0.000204
0.000260
0.000247
0.000241
0.000266
0.000245
0.000244
0.000256
0.000238
0.000305
0.000362
0.000391
0.000402
0.000257
0.000473
0.000219
0.000206
0.000262
0.000263
0.000248
0.000281
0.000257
0.000277
0.001780
0.000285
0.000219
0.000251
0.000241
0.000230
0.000056
0.000325
0.000327
0.000206
0.000211
0.000226
0.000245
0.000222
0.000259
0.000253
0.000222
0.000231
0.000272
0.000250
0.000287
0.000498
0.000363
0.000343
0.000201
0.000221
0.000251
0.000285
0.000240
0.000243
0.000264
0.000250
0.000264
0.000371
0.001644
0.000223
0.000221
0.000200
0.000056
0.000185
0.000222
0.000245
0.000259
0.000357
0.000365
0.000423
0.000302
0.000227
0.000227
0.000255
0.000240
0.000247
0.000260
0.000255
0.000256
0.000256
0.000250
0.000254
0.000262
0.000263
0.000268
0.000253
0.000240
0.000257
0.000259
0.000273
0.000262
0.000259
0.000262
0.000204
0.000056
0.000212
0.000194
0.000245
0.000253
0.000241
0.000247
0.000243
0.000257
0.000360
0.000210
0.000192
0.000240
0.000263
0.000246
0.000258
0.000274
0.000244
0.000261
0.000367
0.000202
0.000248
0.000278
0.000279
0.000285
0.000248
0.000278
0.000270
0.000260
0.000267
0.000459
0.000646
0.000056
0.000224
0.000305
0.000225
0.000205
0.000223
0.000233
0.000246
0.000246
0.000254
0.000242
0.000263
0.000278
0.000523
0.000541
0.001521
0.000216
0.000519
0.000196
0.000307
0.000396
0.000497
0.000281
0.000235
0.000282
0.000252
0.000261
0.000276
0.000261
0.000295
0.000272
0.000201
0.000056
0.000308
0.000417
0.000359
0.000325
0.000200
0.000239
0.000249
0.000248
0.000242
0.000242
0.000250
0.000256
0.000241
0.000290
0.000351
0.000552
0.000305
0.001805
0.000271
0.000215
0.000379
0.000372
0.000521
0.000249
0.000371
0.000308
0.000247
0.000233
0.000233
0.000253
0.000204
0.000057
0.000192
0.000204
0.000244
0.000279
0.000385
0.000509
0.000270
0.000242
0.000249
0.000222
0.000241
0.000267
0.000266
0.000267
0.000247
0.000284
0.000263
0.000490
0.000361
0.000428
0.000241
0.001807
0.000287
0.000554
0.000483
0.000451
0.000284
0.000222
0.000249
0.000271
0.000502
0.000057
0.000205
0.000247
0.000229
0.000353
0.000502
0.000234
0.000510
0.000193
0.000211
0.000334
0.000228
0.000221
0.000248
0.000302
0.000361
0.000200
0.000247
0.000387
0.000455
0.000349
0.000529
0.001775
0.000255
0.000461
0.000480
0.000346
0.000238
0.000383
0.000239
0.000225
0.000199
0.000056
0.000231
0.000317
0.000352
0.000325
0.000386
0.000278
0.000391
0.000213
0.000227
0.000261
0.000270
0.000232
0.000238
0.000253
0.000280
0.000236
0.000320
0.000347
0.000542
0.000409
0.000265
0.000208
0.000259
0.001788
0.000360
0.000475
0.000702
0.000287
0.000250
0.000286
0.000174
0.000056
0.000179
0.000224
0.000335
0.000246
0.000260
0.000365
0.000445
0.000289
0.000318
0.000527
0.000200
0.000220
0.000232
0.000285
0.000274
0.000286
0.000219
0.000387
0.000497
0.000337
0.000260
0.000248
0.000248
0.000269
0.000253
0.000259
0.000244
0.000255
0.000261
0.000353
0.000173
0.000057
0.000301
0.000325
0.000240
0.000236
0.000243
0.000253
0.000248
0.000357
0.000214
0.000209
0.000249
0.000348
0.000424
0.000412
0.000321
0.000325
0.000213
0.000235
0.000247
0.000258
0.000265
0.000283
0.000238
0.000257
0.000274
0.000316
0.000490
0.000367
0.000359
0.000197
0.000156
0.000056
0.000194
0.000194
0.000272
0.000243
0.000243
0.000251
0.000250
0.000264
0.000486
0.000239
0.000236
0.000263
0.000234
0.000262
0.000267
0.000271
0.000273
0.000358
0.000243
0.000230
0.000237
0.000266
0.000279
0.000249
0.000272
0.000264
0.000268
0.000257
0.000247
0.000499
0.000177
0.000056
0.000204
0.000205
0.000243
0.000272
0.000246
0.000228
0.000295
0.000456
0.000297
0.000207
0.000236
0.000257
0.000241
0.000303
0.000377
0.001802
0.000262
0.000236
0.000297
0.000383
0.000412
0.000342
0.000394
0.000331
0.000423
0.000349
0.000260
0.000255
0.000272
0.000279
0.001406
0.000056
0.000397
0.000296
0.000307
0.000210
0.000191
0.000234
0.000231
0.000256
0.000242
0.000260
0.000259
0.000251
0.000251
0.000407
0.000454
0.001677
0.000215
0.000218
0.000206
0.000268
0.000250
0.000253
0.000464
0.000330
0.000272
0.000324
0.000254
0.000260
0.000257
0.000260
0.000246
0.000056
0.001192
0.000642
0.000242
0.000301
0.000208
0.000197
0.000214
0.000235
0.000482
0.000230
0.000235
0.000246
0.000374
0.000401
0.000490
0.000325
0.000313
0.000237
0.000337
0.000371
0.000223
0.000233
0.000275
0.000239
0.000282
0.000567
0.000597
0.000233
0.000237
0.000274
0.000180
0.000057
0.000186
0.000209
0.000221
0.000256
0.001524
0.000260
0.000207
0.000241
0.000241
0.000247
0.000282
0.000229
0.000246
0.000254
0.000274
0.000309
0.000498
0.000580
0.000274
0.001805
0.000236
0.000294
0.000392
0.000290
0.000520
0.000432
0.000241
0.000240
0.000248
0.000267
0.000235
0.000056
0.000257
0.000181
0.000205
0.001322
0.000334
0.000202
0.000261
0.000210
0.000237
0.000231
0.000267
0.000228
0.000272
0.000248
0.000251
0.000359
0.000455
0.000486
0.000262
0.000219
0.000243
0.000269
0.000259
0.000232
0.000345
0.000229
0.000219
0.000277
0.000268
0.000417
0.000543
0.000056
0.000215
0.000223
0.000232
0.000265
0.000259
0.000252
0.000236
0.000249
0.000275
0.000244
0.001432
0.000277
0.000201
0.000251
0.000244
0.000244
0.000270
0.000273
0.000245
0.000271
0.000268
0.000477
0.000493
0.000353
0.000249
0.000266
0.001831
0.000233
0.000226
0.000339
0.000467
0.000056
0.000249
0.000424
0.000456
0.000508
0.000530
0.000591
0.001384
0.000449
0.000543
0.000664
0.000534
0.000732
0.000463
0.000622
0.000586
0.001721
0.000488
0.000425
0.000408
0.000297
0.000252
0.000290
0.000288
0.000269
0.000277
0.000286
0.000279
0.000279
0.000258
0.000298
0.001323
0.000056
0.000215
0.000244
0.000218
0.000232
0.000249
0.000249
0.000232
0.000233
0.000270
0.000272
0.000239
0.000262
0.000233
0.000268
0.000259
0.000267
0.001845
0.000254
0.000260
0.000253
0.000252
0.000259
0.000272
0.000299
0.000493
0.000319
0.000324
0.000239
0.000272
0.000284
0.000164
0.000056
0.000225
0.001380
0.000262
0.000265
0.000259
0.000240
0.000251
0.000266
0.000237
0.000230
0.000242
0.000239
0.000265
0.000449
0.000266
0.000366
0.000272
0.000275
0.001899
0.000268
0.000265
0.000250
0.000261
0.000252
0.000281
0.000261
0.000289
0.000241
0.000241
0.000316
0.000235
0.000057
0.000190
0.000216
0.000256
0.001431
0.000268
0.000257
0.000227
0.000223
0.000226
0.000267
0.000258
0.000241
0.000237
0.000281
0.000266
0.000246
0.000250
0.000255
0.000273
0.000262
0.000256
0.001861
0.000248
0.001766
0.000258
0.000252
0.000256
0.000219
0.000265
0.000295
0.000200
0.000057
0.000195
0.000236
0.001371
0.000224
0.000261
0.000233
0.000220
0.000253
0.000238
0.000250
0.000246
0.000248
0.000253
0.000267
0.000263
0.000251
0.000267
0.000282
0.000296
0.000256
0.001862
0.000264
0.001796
0.000274
0.000253
0.000255
0.000249
0.000299
0.000234
0.000255
0.000191
0.000056
0.001428
0.000236
0.000246
0.000228
0.000212
0.000226
0.000267
0.000363
0.000255
0.000255
0.000257
0.000253
0.000349
0.000282
0.000454
0.000264
0.000249
0.000263
0.000228
0.000235
0.000259
0.000329
0.000246
0.000253
0.000280
0.000275
0.000252
0.000378
0.000676
0.000351
0.000179
0.000057
0.000221
0.000281
0.000264
0.000317
0.000348
0.000284
0.001644
0.000308
0.000276
0.000255
0.000272
0.000299
0.000266
0.000262
0.000296
0.000317
0.000478
0.000421
0.000356
0.000260
0.000325
0.000283
0.000253
0.000267
0.000330
0.000263
0.000263
0.000238
0.000243
0.000332
0.000378
0.000056
0.000306
0.000360
0.000269
0.000258
0.000256
0.000232
0.000219
0.000247
0.000264
0.000261
0.001488
0.000268
0.000211
0.000239
0.000247
0.000286
0.000275
0.000241
0.000266
0.000256
0.000264
0.000352
0.000589
0.000352
0.000251
0.000254
0.000267
0.000242
0.000243
0.000238
0.000255
0.000056
0.000194
0.000207
0.000271
0.000491
0.000376
0.000251
0.000215
0.000252
0.000245
0.000258
0.000233
0.000255
0.000269
0.000245
0.000239
0.000247
0.000427
0.001244
0.000218
0.000243
0.000243
0.000258
0.000332
0.000514
0.000214
0.000237
0.000601
0.000356
0.000436
0.000231
0.000159
0.000056
0.000211
0.000222
0.000265
0.000262
0.000313
0.000202
0.000330
0.000454
0.000461
0.000284
0.000364
0.000397
0.000393
0.000352
0.000240
0.000226
0.000217
0.000242
0.000500
0.000435
0.001193
0.000235
0.000259
0.000269
0.000236
0.000244
0.000285
0.000316
0.000376
0.000593
0.000167
0.000056
0.000177
0.000226
0.000248
0.000236
0.000251
0.000250
0.000237
0.000254
0.000253
0.000377
0.000482
0.000425
0.000223
0.000215
0.000226
0.000254
0.000244
0.000266
0.000266
0.000236
0.000500
0.000220
0.000409
0.000422
0.000309
0.000214
0.000253
0.000278
0.000248
0.000287
0.000235
0.000055
0.000296
0.000296
0.000307
0.000394
0.000518
0.000280
0.000237
0.000270
0.000208
0.000267
0.000268
0.000256
0.000241
0.000251
0.000253
0.000220
0.000258
0.000357
0.000556
0.000355
0.000213
0.000259
0.000220
0.000237
0.000275
0.000283
0.000262
0.000271
0.000269
0.000268
0.000278
0.000057
0.000282
0.000342
0.000225
0.000224
0.000260
0.000240
0.000308
0.000189
0.000264
0.000259
0.000250
0.000244
0.000283
0.000549
0.000434
0.000318
0.000210
0.000208
0.000236
0.000263
0.000275
0.000257
0.000249
0.000273
0.000308
0.000243
0.000463
0.000564
0.000512
0.000215
0.000148
0.000056
0.000375
0.000196
0.000203
0.000232
0.000250
0.000259
0.000235
0.000246
0.000269
0.000240
0.000229
0.000255
0.000267
0.000222
0.000247
0.000252
0.000255
0.000267
0.000271
0.000270
0.000252
0.000251
0.000271
0.000267
0.000266
0.000264
0.000232
0.000313
0.000224
0.000281
0.000221
0.000056
0.000191
0.000207
0.000247
0.000254
0.000232
0.000243
0.000266
0.000244
0.000257
0.000279
0.000232
0.000230
0.000257
0.000403
0.000231
0.000298
0.000257
0.000267
0.000251
0.000283
0.000273
0.000233
0.000252
0.000256
0.000257
0.000275
0.000277
0.000236
0.000263
0.000264
0.000225
0.000056
0.000225
0.000379
0.000350
0.000283
0.000298
0.000243
0.000205
0.000250
0.000261
0.000220
0.000239
0.000269
0.000256
0.000225
0.000261
0.000259
0.000268
0.000274
0.000244
0.000256
0.000277
0.000273
0.000266
0.000256
0.000285
0.000266
0.000247
0.000292
0.000228
0.000266
0.000214
0.000056
0.000194
0.000227
0.000237
0.000267
0.000273
0.000424
0.000216
0.000243
0.000275
0.000443
0.000519
0.000327
0.000216
0.000196
0.000272
0.000268
0.000243
0.000279
0.000245
0.000266
0.000271
0.000252
0.000261
0.000294
0.000467
0.000590
0.000261
0.000261
0.000270
0.000259
0.000209
0.000057
0.000202
0.000195
0.000245
0.000257
0.000409
0.000555
0.000315
0.000383
0.000236
0.000224
0.000249
0.000254
0.000271
0.000229
0.000261
0.000266
0.000270
0.000269
0.000656
0.000340
0.000310
0.000234
0.000251
0.000280
0.000283
0.000280
0.000246
0.000265
0.000247
0.000330
0.000330
0.000057
0.000255
0.000238
0.000206
0.000241
0.000255
0.000255
0.000244
0.000247
0.000234
0.000245
0.000248
0.000275
0.000260
0.000360
0.000607
0.000381
0.000227
0.000236
0.000269
0.000254
0.000259
0.000267
0.000467
0.000264
0.000246
0.000676
0.000420
0.000382
0.000277
0.000255
0.000186
0.000056
0.000188
0.000224
0.000229
0.000234
0.000257
0.000264
0.000253
0.000481
0.000619
0.000397
0.000209
0.000259
0.000281
0.000270
0.000270
0.000241
0.000238
0.000252
0.000263
0.000370
0.000401
0.000533
0.000428
0.000269
0.000443
0.000346
0.000499
0.000199
0.000250
0.000313
0.000514
0.000056
0.000256
0.000216
0.000492
0.000190
0.000229
0.000235
0.000260
0.000246
0.000233
0.000247
0.000294
0.000414
0.000367
0.000349
0.000214
0.000215
0.000266
0.000239
0.000269
0.000276
0.000271
0.000257
0.000247
0.000270
0.000308
0.000512
0.000454
0.000264
0.000262
0.000247
0.000223
0.000055
0.000211
0.000231
0.000250
0.000225
0.000250
0.000239
0.000439
0.000358
0.000447
0.000278
0.000346
0.000259
0.000208
0.000272
0.000262
0.000230
0.000273
0.000249
0.000290
0.000425
0.000517
0.000311
0.000416
0.000339
0.000397
0.000391
0.000381
0.000262
0.000218
0.000302
0.000436
0.000056
0.000252
0.000252
0.000237
0.000223
0.000254
0.000259
0.000252
0.000246
0.000253
0.000253
0.000249
0.000322
0.000473
0.000384
0.000363
0.000254
0.000246
0.000269
0.000275
0.000224
0.000254
0.000246
0.000264
0.000296
0.000261
0.000316
0.000499
0.000467
0.000257
0.000293
0.000192
0.000057
0.000226
0.000202
0.000257
0.000250
0.000250
0.000306
0.000544
0.000496
0.000343
0.000673
0.000317
0.000201
0.000209
0.000262
0.000244
0.000260
0.000299
0.000250
0.000542
0.000476
0.001529
0.000237
0.000263
0.000259
0.000300
0.000226
0.000548
0.000253
0.000390
0.000285
0.000169
0.000056
0.000214
0.000196
0.000246
0.000251
0.000232
0.000253
0.000274
0.000273
0.000237
0.000354
0.000369
0.000346
0.000269
0.000389
0.000388
0.000327
0.000236
0.000214
0.000247
0.000269
0.000246
0.000236
0.000281
0.000267
0.000342
0.000542
0.000349
0.000268
0.000239
0.000247
0.000207
0.000056
0.000212
0.000229
0.000258
0.000253
0.000253
0.000227
0.000461
0.000227
0.000222
0.000253
0.000251
0.000249
0.000263
0.000248
0.000257
0.000264
0.000271
0.000256
0.000278
0.000248
0.000282
0.000267
0.000318
0.000221
0.000270
0.000271
0.000274
0.000272
0.000254
0.000270
0.000206
0.000056
0.000227
0.000219
0.000273
0.000511
0.000379
0.000212
0.000204
0.000249
0.000262
0.000244
0.000242
0.000255
0.000271
0.000253
0.000251
0.000238
0.000251
0.000258
0.000305
0.000369
0.000355
0.000421
0.000251
0.000253
0.000261
0.000255
0.000265
0.000258
0.000272
0.000306
0.000190
0.000056
0.000367
0.000387
0.000409
0.000219
0.000241
0.000252
0.000476
0.000196
0.000198
0.000242
0.000283
0.000336
0.000362
0.000518
0.001688
0.000268
0.000262
0.000233
0.000275
0.000274
0.000385
0.000376
0.000719
0.000203
0.000223
0.000254
0.000275
0.000421
0.000282
0.000282
0.000189
0.000072
0.000246
0.000365
0.000357
0.000241
0.000509
0.000201
0.000235
0.000248
0.000257
0.000231
0.000261
0.000247
0.000261
0.000345
0.000460
0.000432
0.000224
0.000210
0.000256
0.000261
0.000266
0.000323
0.000239
0.000267
0.000280
0.000443
0.000489
0.000573
0.000323
0.000245
0.000195
0.000058
0.000198
0.000201
0.000248
0.000231
0.000248
0.000251
0.000267
0.000273
0.000338
0.000377
0.000440
0.000375
0.000205
0.000234
0.000263
0.000272
0.000323
0.000240
0.000268
0.000267
0.000250
0.000317
0.000516
0.000351
0.000225
0.000300
0.000238
0.000540
0.000380
0.000265
0.000174
0.000056
0.000200
0.000217
0.000339
0.000460
0.000321
0.000235
0.000223
0.000247
0.000265
0.000259
0.000256
0.000262
0.000223
0.000249
0.000261
0.000286
0.000399
0.000365
0.000293
0.000380
0.000463
0.000233
0.000274
0.000269
0.000311
0.000277
0.000269
0.000292
0.000428
0.000513
0.000223
0.000056
0.000200
0.000205
0.000244
0.000248
0.000248
0.000490
0.000216
0.000229
0.000270
0.000305
0.000572
0.000536
0.000221
0.000234
0.000244
0.000241
0.000258
0.000254
0.000250
0.000262
0.000247
0.000279
0.000444
0.000389
0.000370
0.000336
0.000334
0.000347
0.000307
0.000218
0.000167
0.000056
0.000214
0.000192
0.000242
0.000486
0.000365
0.000339
0.000249
0.000211
0.000206
0.000242
0.000258
0.000254
0.000245
0.000250
0.000304
0.000222
0.000249
0.000245
0.000245
0.000416
0.000581
0.000339
0.000215
0.000233
0.000271
0.000284
0.000261
0.000261
0.000256
0.000270
0.000205
0.000057
0.000279
0.000380
0.000502
0.000209
0.000208
0.000219
0.000322
0.000503
0.000281
0.000205
0.000211
0.000268
0.000257
0.000458
0.000454
0.000319
0.000198
0.000219
0.000300
0.000221
0.000251
0.000277
0.000265
0.000265
0.000261
0.000383
0.000333
0.000472
0.000309
0.000220
0.000153
0.000057
0.000192
0.000208
0.000242
0.000255
0.000255
0.000257
0.000237
0.000257
0.000257
0.000243
0.000265
0.000246
0.000232
0.001456
0.000262
0.000226
0.000252
0.000254
0.000268
0.000282
0.000259
0.000246
0.000280
0.000236
0.000273
0.000264
0.000287
0.000258
0.000271
0.000254
0.000217
0.000056
0.000206
0.000208
0.000238
0.000254
0.000236
0.000242
0.000278
0.000239
0.000240
0.000245
0.000241
0.000266
0.000256
0.000253
0.000262
0.000246
0.000249
0.000270
0.000269
0.000252
0.000254
0.000255
0.000261
0.000244
0.001357
0.000268
0.000565
0.000433
0.000367
0.000218
0.000161
0.000057
0.000176
0.000215
0.000238
0.000247
0.000503
0.000225
0.000190
0.000219
0.000258
0.000338
0.000532
0.000362
0.000200
0.000241
0.000206
0.000264
0.000253
0.000257
0.000257
0.000257
0.000255
0.000254
0.000264
0.000388
0.000536
0.000455
0.000255
0.000240
0.001355
0.000295
0.000169
0.000056
0.000370
0.000412
0.000351
0.000242
0.000201
0.000211
0.000223
0.000245
0.000261
0.000254
0.000255
0.000253
0.000261
0.000280
0.000571
0.000430
0.000276
0.000247
0.000234
0.000241
0.000279
0.000261
0.000288
0.000245
0.000270
0.000259
0.000325
0.000563
0.000413
0.000368
0.000149
0.000056
0.000214
0.000206
0.001336
0.000339
0.000313
0.000455
0.000361
0.000316
0.000432
0.000402
0.000224
0.000199
0.000243
0.000261
0.000242
0.000265
0.000400
0.000520
0.000380
0.000298
0.000276
0.000234
0.000263
0.000511
0.000234
0.000259
0.000251
0.000281
0.000303
0.000553
0.000330
0.000056
0.000335
0.000406
0.000205
0.000206
0.001539
0.000567
0.000257
0.000223
0.000206
0.000247
0.000228
0.000234
0.000254
0.000255
0.000255
0.000268
0.000233
0.000313
0.000435
0.000414
0.000432
0.000215
0.000219
0.000250
0.000255
0.000294
0.000252
0.000235
0.000265
0.000276
0.000237
0.000057
0.000424
0.000241
0.000249
0.000202
0.000256
0.000241
0.000252
0.000259
0.000232
0.000240
0.001494
0.000432
0.000271
0.000206
0.000215
0.000249
0.000268
0.000270
0.000249
0.000258
0.000269
0.000257
0.000280
0.000433
0.000350
0.000504
0.000218
0.000287
0.000250
0.000278
0.000191
0.000056
0.000197
0.000474
0.000196
0.000206
0.000371
0.000386
0.000362
0.000342
0.000465
0.000206
0.000226
0.000247
0.000260
0.000265
0.000267
0.001406
0.000366
0.000275
0.000250
0.000263
0.000284
0.000248
0.000254
0.000276
0.000235
0.000279
0.000391
0.000485
0.000318
0.000266
0.000172
0.000057
0.000174
0.000217
0.000245
0.000238
0.000239
0.000247
0.000241
0.000247
0.000349
0.000405
0.000406
0.000298
0.000205
0.000209
0.000244
0.000274
0.000274
0.000261
0.000269
0.000231
0.000252
0.000284
0.001376
0.000238
0.000241
0.000213
0.000232
0.000274
0.000258
0.000262
0.000196
0.000075
0.000228
0.000341
0.000494
0.000261
0.000213
0.000205
0.000236
0.000259
0.000262
0.000254
0.000261
0.000261
0.000241
0.000254
0.000270
0.000243
0.000264
0.000285
0.000252
0.000261
0.000243
0.000268
0.000282
0.000268
0.000288
0.000269
0.000286
0.000234
0.000271
0.000507
0.001322
0.000055
0.000207
0.000219
0.000231
0.000234
0.000259
0.000260
0.000252
0.000228
0.000240
0.000251
0.000261
0.000267
0.000255
0.000241
0.000249
0.001702
0.000353
0.000228
0.000214
0.000225
0.000258
0.000255
0.000273
0.000260
0.000266
0.000262
0.000273
0.000270
0.000278
0.000248
0.000235
0.000056
0.000320
0.000304
0.001333
0.000191
0.000231
0.000213
0.000252
0.000251
0.000261
0.000251
0.000236
0.000339
0.000403
0.000522
0.000248
0.000205
0.000221
0.000261
0.000251
0.000274
0.000237
0.000268
0.000266
0.000291
0.000259
0.000467
0.000335
0.000349
0.000286
0.000252
0.000202
0.000055
0.000202
0.000218
0.000245
0.000250
0.000249
0.000232
0.000261
0.000233
0.000398
0.000460
0.001154
0.000235
0.000226
0.000273
0.000252
0.000262
0.000274
0.000245
0.000329
0.000414
0.000397
0.000254
0.000233
0.000236
0.000275
0.000276
0.000269
0.000293
0.000272
0.000275
0.000219
0.000056
0.000259
0.000448
0.000370
0.000222
0.000213
0.000207
0.000235
0.000267
0.000272
0.000260
0.000223
0.000249
0.000536
0.000471
0.000485
0.001456
0.000224
0.000240
0.000348
0.000358
0.000428
0.000451
0.000609
0.000234
0.000237
0.000266
0.000252
0.000281
0.000264
0.000281
0.000213
0.000055
0.000213
0.000245
0.000445
0.000491
0.000352
0.000212
0.000255
0.000233
0.000243
0.000260
0.000250
0.000256
0.000275
0.000236
0.000272
0.000319
0.000344
0.000474
0.000325
0.001320
0.000265
0.000248
0.000259
0.000260
0.000555
0.000391
0.000399
0.000225
0.000242
0.000270
0.000205
0.000055
0.000185
0.000230
0.000237
0.000240
0.000248
0.000283
0.000430
0.000407
0.000389
0.000202
0.000238
0.000255
0.000270
0.000257
0.000270
0.000259
0.000269
0.000243
0.000274
0.000257
0.000581
0.000414
0.000321
0.001342
0.000347
0.000230
0.000299
0.000421
0.000455
0.000317
0.000342
0.000056
0.000189
0.000208
0.000244
0.000253
0.000247
0.000255
0.001726
0.000230
0.000217
0.000221
0.000249
0.000247
0.000324
0.000324
0.000329
0.000282
0.000251
0.000416
0.000368
0.000449
0.000285
0.000294
0.000212
0.000206
0.001443
0.000427
0.000423
0.000481
0.000307
0.000303
0.000152
0.000056
0.000189
0.000217
0.000254
0.000264
0.000239
0.000262
0.001774
0.000219
0.000241
0.000243
0.000386
0.000407
0.001424
0.000419
0.000355
0.000202
0.000218
0.000229
0.000262
0.000274
0.001684
0.000535
0.000352
0.000281
0.000214
0.000223
0.000253
0.000282
0.000248
0.000247
0.000212
0.000056
0.000188
0.000221
0.000255
0.000254
0.000262
0.000269
0.000286
0.000248
0.000260
0.000249
0.000276
0.000237
0.000244
0.000273
0.000263
0.001496
0.000266
0.000243
0.000264
0.000283
0.000267
0.000256
0.000422
0.001276
0.000267
0.000250
0.000263
0.000266
0.000461
0.000202
0.000196
0.000057
0.000187
0.000212
0.000231
0.000245
0.000239
0.000224
0.000239
0.001762
0.000210
0.000215
0.000249
0.000350
0.000236
0.000223
0.001444
0.000263
0.000205
0.000220
0.000279
0.000235
0.000263
0.000307
0.000323
0.001366
0.000282
0.000230
0.000225
0.000255
0.001382
0.000271
0.000261
0.000056
0.000265
0.000321
0.000210
0.000216
0.000245
0.000239
0.000266
0.000269
0.000265
0.000248
0.000287
0.000239
0.000253
0.000251
0.000359
0.001437
0.000259
0.000265
0.000265
0.000245
0.000276
0.000268
0.000251
0.001537
0.000303
0.000261
0.000250
0.001350
0.000229
0.000236
0.000231
0.000056
0.000204
0.000365
0.000367
0.000200
0.000233
0.000237
0.000257
0.000265
0.000265
0.000269
0.000259
0.000239
0.000254
0.000301
0.000438
0.001230
0.000219
0.000222
0.000241
0.000282
0.000231
0.000262
0.000228
0.001300
0.000380
0.000230
0.000234
0.000234
0.000249
0.001333
0.000327
0.000056
0.000311
0.000244
0.000216
0.000200
0.000242
0.000247
0.000251
0.000244
0.000278
0.000249
0.000234
0.000272
0.000233
0.000309
0.000420
0.001511
0.000226
0.000224
0.000286
0.000519
0.000320
0.000341
0.001369
0.000289
0.000258
0.000258
0.001288
0.000351
0.000247
0.000540
0.000272
0.000056
0.000200
0.000241
0.000250
0.000257
0.000244
0.000258
0.000279
0.000243
0.000288
0.000239
0.000269
0.001699
0.000258
0.000181
0.000220
0.000254
0.000288
0.000261
0.000216
0.000226
0.000386
0.001264
0.000249
0.000222
0.000217
0.000249
0.001436
0.000486
0.000492
0.000235
0.000196
0.000057
0.000206
0.000195
0.000241
0.000241
0.000254
0.000263
0.000249
0.000245
0.000471
0.000461
0.000311
0.001489
0.000200
0.000200
0.000262
0.000264
0.000258
0.000323
0.001627
0.000306
0.000346
0.000366
0.001383
0.000329
0.000295
0.000354
0.000221
0.000225
0.000239
0.000263
0.000214
0.000056
0.000175
0.000226
0.000309
0.000231
0.000296
0.000562
0.000295
0.000382
0.001462
0.000280
0.000335
0.000258
0.000212
0.000362
0.000303
0.001377
0.000255
0.000222
0.000233
0.000223
0.000303
0.001647
0.000312
0.000276
0.000236
0.000214
0.000506
0.000319
0.000227
0.000218
0.000266
0.000056
0.000260
0.000381
0.000312
0.000299
0.000220
0.001445
0.000248
0.000229
0.000263
0.000271
0.000265
0.000247
0.000358
0.001434
0.000264
0.000229
0.000412
0.001295
0.000277
0.000437
0.000359
0.000247
0.000247
0.000250
0.000276
0.000249
0.000465
0.000229
0.000255
0.000275
0.000211
0.000057
0.000190
0.000203
0.000365
0.001457
0.000275
0.000205
0.000302
0.000248
0.000243
0.000248
0.000246
0.000297
0.001611
0.000226
0.000197
0.000217
0.001384
0.000273
0.000489
0.000407
0.000407
0.000212
0.000218
0.000256
0.000354
0.000246
0.000218
0.000255
0.000258
0.000248
0.000219
0.000057
0.000217
0.000430
0.001388
0.000223
0.000258
0.000269
0.000254
0.000245
0.000330
0.000430
0.001277
0.000248
0.000299
0.000247
0.000213
0.001339
0.000698
0.000250
0.000310
0.000406
0.000340
0.000234
0.000230
0.000237
0.000266
0.000293
0.000276
0.000331
0.000401
0.000489
0.001358
0.000056
0.000211
0.000252
0.000211
0.000218
0.000243
0.000397
0.001574
0.000288
0.000230
0.000199
0.000240
0.001454
0.000406
0.000347
0.000461
0.000247
0.000214
0.000210
0.000244
0.000279
0.000244
0.000274
0.000283
0.000258
0.000252
0.000298
0.000553
0.000398
0.001438
0.000278
0.000184
0.000056
0.000191
0.000230
0.000471
0.000449
0.001202
0.000284
0.000259
0.000253
0.000252
0.000251
0.000250
0.000263
0.000339
0.000594
0.000295
0.000230
0.000217
0.000281
0.000237
0.000290
0.000250
0.000264
0.000256
0.000267
0.000260
0.000462
0.000414
0.000362
0.000330
0.001434
0.000153
0.000057
0.000223
0.000211
0.000326
0.000434
0.000301
0.000336
0.000289
0.000323
0.000270
0.000275
0.000267
0.000252
0.000240
0.000315
0.000244
0.000283
0.000589
0.000296
0.000274
0.000383
0.000288
0.000476
0.000237
0.000219
0.000207
0.000276
0.000247
0.000281
0.000338
0.000509
0.000333
0.000056
0.000216
0.001358
0.000286
0.000328
0.000434
0.000434
0.000279
0.000366
0.000224
0.000219
0.000247
0.000254
0.000259
0.000266
0.000270
0.000255
0.000257
0.001348
0.000330
0.000225
0.000222
0.000276
0.000269
0.000280
0.000272
0.000253
0.000276
0.000254
0.000291
0.000485
0.000245
0.000057
0.000213
0.000236
0.000244
0.001520
0.000333
0.000217
0.000212
0.000209
0.000233
0.000238
0.000253
0.000281
0.000243
0.000254
0.000266
0.000259
0.000240
0.000286
0.000240
0.000266
0.001432
0.000271
0.000233
0.000328
0.000224
0.000206
0.000256
0.000267
0.000279
0.000499
0.000380
0.000056
0.000191
0.000214
0.000390
0.000302
0.000232
0.000245
0.001532
0.000355
0.000325
0.000216
0.000223
0.000392
0.000285
0.000230
0.000202
0.000255
0.000245
0.000259
0.000260
0.000255
0.000510
0.000518
0.001156
0.000259
0.000221
0.000221
0.000265
0.000262
0.000272
0.000256
0.000362
0.000057
0.000352
0.000279
0.000196
0.000225
0.000237
0.000247
0.000231
0.000232
0.001570
0.000378
0.000424
0.000246
0.000229
0.000244
0.000215
0.000240
0.000255
0.000274
0.000257
0.000319
0.000318
0.000507
0.000410
0.001378
0.000244
0.000242
0.000283
0.000256
0.000269
0.000298
0.000604
0.000057
0.000234
0.000200
0.000250
0.000232
0.000234
0.000238
0.000255
0.000238
0.000276
0.001571
0.000350
0.000258
0.000263
0.000264
0.000467
0.000283
0.000398
0.000477
0.000336
0.000314
0.000437
0.000451
0.001329
0.000231
0.000229
0.000237
0.001808
0.000369
0.000612
0.000326
0.000136
0.000056
0.000182
0.000197
0.000253
0.000224
0.000250
0.000246
0.000356
0.000497
0.000418
0.000442
0.000285
0.000265
0.000174
0.000238
0.000264
0.000267
0.000243
0.000255
0.000245
0.000277
0.000290
0.000415
0.001331
0.000259
0.000216
0.000272
0.001888
0.000394
0.000446
0.000293
0.000167
0.000057
0.000211
0.000204
0.000251
0.001529
0.000469
0.000205
0.000235
0.000268
0.000264
0.000309
0.000367
0.000379
0.000356
0.000305
0.000307
0.000489
0.001361
0.000326
0.000204
0.000210
0.000244
0.000229
0.000365
0.000422
0.000600
0.000446
0.000218
0.000226
0.000265
0.000310
0.000181
0.000056
0.000192
0.000196
0.001459
0.000423
0.000195
0.000210
0.000217
0.000257
0.000246
0.000252
0.000249
0.000275
0.000270
0.000263
0.000249
0.000447
0.000436
0.000289
0.001393
0.000283
0.000204
0.000264
0.000263
0.000254
0.000425
0.000404
0.000486
0.000295
0.000299
0.000245
0.000404
0.000057
0.000198
0.000209
0.000257
0.000259
0.001591
0.000219
0.000262
0.000235
0.000260
0.000258
0.000257
0.000258
0.000261
0.000242
0.000516
0.000419
0.001451
0.000739
0.000216
0.000335
0.000244
0.000220
0.000228
0.000283
0.001754
0.000726
0.000251
0.000248
0.000279
0.000287
0.000205
0.000056
0.000203
0.000209
0.000251
0.000242
0.000252
0.000252
0.000243
0.000255
0.000252
0.000232
0.000269
0.000283
0.000259
0.000251
0.000263
0.000253
0.000260
0.001601
0.000713
0.000415
0.000295
0.000234
0.000208
0.000281
0.000275
0.000262
0.000276
0.000255
0.001463
0.000374
0.000289
0.000056
0.000191
0.000197
0.000244
0.000257
0.000253
0.000235
0.000259
0.000254
0.000247
0.000273
0.000227
0.000558
0.000343
0.000359
0.000201
0.000227
0.000262
0.001463
0.000697
0.000438
0.000298
0.000310
0.000216
0.000233
0.000271
0.000252
0.000252
0.000268
0.001482
0.000455
0.000224
0.000056
0.000213
0.000198
0.000240
0.000240
0.000258
0.000238
0.000242
0.000248
0.000270
0.000258
0.000400
0.000340
0.000335
0.000237
0.000234
0.000244
0.000260
0.000257
0.001564
0.000623
0.000537
0.000297
0.000217
0.000235
0.000259
0.000261
0.000266
0.000279
0.000269
0.001474
0.000264
0.000056
0.000204
0.000208
0.000215
0.000252
0.000266
0.000243
0.000278
0.000355
0.000367
0.000419
0.000359
0.000383
0.000342
0.000235
0.000219
0.000230
0.000277
0.000257
0.001385
0.000897
0.000315
0.000198
0.000490
0.000205
0.000228
0.000248
0.000261
0.000267
0.000265
0.000272
0.000396
0.000056
0.000298
0.000216
0.000215
0.000226
0.000254
0.000259
0.000214
0.000247
0.000255
0.000261
0.000254
0.000236
0.000241
0.000547
0.000427
0.000413
0.000240
0.000248
0.000265
0.000248
0.000245
0.000373
0.001377
0.001068
0.000250
0.000221
0.000269
0.000270
0.000268
0.000249
0.000230
0.000056
0.000188
0.001383
0.000268
0.000195
0.000211
0.000248
0.000250
0.000250
0.000223
0.000251
0.000257
0.000266
0.000236
0.000387
0.000365
0.000511
0.000258
0.000219
0.000253
0.000290
0.000249
0.000236
0.000258
0.000262
0.001401
0.000672
0.000309
0.000397
0.000367
0.000397
0.000265
0.000056
0.000195
0.000208
0.000345
0.001338
0.000230
0.000267
0.000192
0.000257
0.000254
0.000250
0.000277
0.000226
0.000282
0.000434
0.000461
0.000361
0.000223
0.000296
0.000277
0.000222
0.000232
0.000276
0.000228
0.000273
0.000276
0.001531
0.000742
0.000296
0.000287
0.000259
0.000211
0.000055
0.000203
0.000229
0.000460
0.000392
0.001304
0.000248
0.000200
0.000198
0.000232
0.000246
0.000247
0.000268
0.000237
0.000224
0.000256
0.000255
0.000263
0.000247
0.000246
0.000262
0.000265
0.000276
0.000338
0.000286
0.000238
0.000244
0.000263
0.001544
0.000234
0.000222
0.000177
0.000056
0.000178
0.000204
0.000262
0.000328
0.000349
0.000334
0.000408
0.000243
0.001567
0.000250
0.000274
0.000571
0.000272
0.000243
0.000505
0.000219
0.000223
0.000225
0.000257
0.000277
0.000277
0.000269
0.000256
0.000270
0.000284
0.000420
0.000405
0.000356
0.001510
0.000252
0.000175
0.000057
0.000227
0.000208
0.000254
0.000243
0.000242
0.000243
0.000265
0.000354
0.002206
0.000259
0.000199
0.000213
0.000247
0.000263
0.000261
0.000342
0.000238
0.000211
0.000248
0.000451
0.000345
0.000457
0.001520
0.000222
0.000217
0.000504
0.001771
0.000287
0.000263
0.001475
0.000189
0.000057
0.000356
0.000332
0.000495
0.000237
0.000264
0.000228
0.000259
0.000257
0.000272
0.000237
0.000272
0.000291
0.000429
0.000338
0.000436
0.000281
0.000208
0.001567
0.000516
0.001961
0.000292
0.000268
0.001409
0.000375
0.002017
0.000741
0.000278
0.000210
0.000245
0.000620
0.000198
0.000055
0.000205
0.000207
0.000254
0.000250
0.001480
0.001673
0.001079
0.000223
0.000208
0.001585
0.001983
0.000232
0.000305
0.000409
0.000303
0.000357
0.000462
0.000331
0.000240
0.000238
0.000250
0.000255
0.000269
0.001561
0.001311
0.001428
0.000263
0.000240
0.000260
0.000267
0.000390
0.000058
0.000199
0.000220
0.000208
0.000228
0.000242
0.000224
0.000255
0.000249
0.000258
0.000256
0.000240
0.000308
0.000633
0.000400
0.000219
0.000216
0.000227
0.000265
0.000270
0.000255
0.000262
0.001427
0.000546
0.000317
0.002070
0.000263
0.000237
0.000340
0.000441
0.000462
0.000159
0.000055
0.000210
0.000292
0.000496
0.000317
0.000229
0.000202
0.000241
0.000261
0.000242
0.000244
0.000241
0.000270
0.000261
0.001609
0.001423
0.001231
0.000263
0.000229
0.000220
0.000231
0.000290
0.000274
0.000262
0.000248
0.002263
0.000223
0.000211
0.000295
0.000319
0.000304
0.000249
0.000057
0.000203
0.000371
0.000615
0.000311
0.000203
0.000208
0.000220
0.000266
0.001894
0.001429
0.000253
0.000384
0.000392
0.000352
0.000270
0.000226
0.000224
0.000255
0.000263
0.000267
0.000259
0.000261
0.000488
0.000231
0.000263
0.000272
0.000245
0.000281
0.000283
0.000238
0.000232
0.000057
0.000176
0.000232
0.000252
0.000231
0.000251
0.000287
0.001529
0.001503
0.001318
0.000220
0.000204
0.000215
0.000259
0.000270
0.000256
0.000235
0.000254
0.002177
0.000213
0.000220
0.000243
0.000272
0.000257
0.000263
0.000279
0.000242
0.000263
0.000260
0.000274
0.000265
0.000193
0.000056
0.001509
0.000310
0.002392
0.000257
0.000296
0.000293
0.000242
0.000257
0.000266
0.000240
0.000249
0.000259
0.000227
0.000249
0.000260
0.000266
0.000261
0.000269
0.000259
0.000271
0.000260
0.000275
0.000283
0.000264
0.000246
0.000249
0.000263
0.000265
0.000267
0.000266
0.000400
0.000055
0.000176
0.002573
0.000330
0.000196
0.000195
0.000216
0.000248
0.000260
0.000256
0.000249
0.000401
0.000383
0.000347
0.000238
0.000208
0.002221
0.000218
0.000220
0.000275
0.000463
0.000480
0.000226
0.000223
0.000234
0.000269
0.000249
0.000259
0.000279
0.000274
0.001692
0.001218
0.000057
0.000193
0.000205
0.000254
0.000416
0.000380
0.000264
0.000221
0.000220
0.000255
0.000261
0.000255
0.000252
0.000235
0.000247
0.000263
0.000246
0.000307
0.000635
0.000389
0.000274
0.000199
0.000245
0.000276
0.000252
0.000261
0.000233
0.000256
0.000293
0.000239
0.000349
0.000338
0.000056
0.001104
0.000290
0.000292
0.000448
0.000334
0.000193
0.000199
0.000248
0.002295
0.000351
0.000346
0.000339
0.000213
0.000275
0.000340
0.000271
0.000263
0.000266
0.000256
0.000235
0.000246
0.000273
0.000597
0.000525
0.001799
0.001379
0.000529
0.000501
0.000230
0.000247
0.000218
0.000057
0.000346
0.000236
0.000270
0.000207
0.000233
0.000256
0.000229
0.000248
0.000259
0.000246
0.000255
0.000231
0.000253
0.000253
0.000401
0.000527
0.001866
0.001318
0.000549
0.000333
0.000398
0.000243
0.000246
0.000255
0.002230
0.000449
0.000378
0.000247
0.000271
0.000299
0.000198
0.000057
0.000172
0.000211
0.000258
0.000240
0.000252
0.000443
0.000335
0.000272
0.000343
0.000240
0.000226
0.000275
0.000244
0.002090
0.000365
0.000402
0.000211
0.000242
0.000269
0.000261
0.000245
0.002452
0.000374
0.000220
0.000235
0.000261
0.000265
0.000256
0.000272
0.000287
0.000212
0.000056
0.000182
0.000373
0.000533
0.000403
0.000227
0.000211
0.000186
0.000257
0.000281
0.000240
0.002092
0.000334
0.000251
0.000265
0.000212
0.000235
0.000270
0.000250
0.002273
0.000369
0.000245
0.000258
0.000256
0.000263
0.000258
0.000257
0.000272
0.000258
0.000267
0.000268
0.000195
0.000056
0.000208
0.000199
0.000255
0.000215
0.000246
0.000260
0.000244
0.000246
0.000240
0.002169
0.000253
0.000263
0.000215
0.000486
0.000208
0.000215
0.000258
0.000289
0.000258
0.000258
0.002033
0.000241
0.000374
0.000387
0.000479
0.000343
0.000280
0.000250
0.000234
0.000243
0.000223
0.000055
0.000188
0.000230
0.000231
0.000247
0.000244
0.000384
0.000208
0.002331
0.000213
0.000229
0.000228
0.000252
0.000248
0.000239
0.000304
0.002202
0.000521
0.000219
0.000251
0.000252
0.000250
0.000268
0.000281
0.000271
0.000276
0.000241
0.000292
0.000256
0.000259
0.000316
0.000161
0.000055
0.000194
0.003005
0.000257
0.000210
0.000245
0.000243
0.000251
0.000275
0.000388
0.000405
0.002137
0.000265
0.000226
0.000263
0.000277
0.000543
0.000411
0.000300
0.000223
0.000216
0.000233
0.000273
0.000259
0.000241
0.000262
0.000254
0.000265
0.000270
0.000310
0.000763
0.000254
0.000056
0.000172
0.000279
0.000259
0.000224
0.000234
0.000244
0.000253
0.000249
0.001587
0.002089
0.000510
0.000264
0.000387
0.000812
0.000335
0.000203
0.000219
0.000246
0.000266
0.000247
0.000271
0.000238
0.000239
0.000276
0.001837
0.001444
0.000289
0.000279
0.000268
0.000364
0.000457
0.000057
0.001915
0.000229
0.000226
0.000204
0.000268
0.000358
0.000545
0.000254
0.000305
0.000231
0.000226
0.000220
0.000248
0.000249
0.000269
0.000264
0.000254
0.000256
0.001918
0.000214
0.000209
0.000241
0.000257
0.000302
0.000257
0.000261
0.001545
0.000334
0.000216
0.000239
0.000156
0.000056
0.000211
0.000194
0.000256
0.000227
0.000253
0.000238
0.000276
0.000402
0.000377
0.000386
0.000204
0.000211
0.000328
0.000327
0.000381
0.000323
0.000233
0.000217
0.000246
0.000408
0.000449
0.000476
0.000237
0.000229
0.000248
0.000244
0.000259
0.000272
0.000273
0.000263
0.000229
0.000055
0.001425
0.000406
0.000233
0.002002
0.000236
0.000466
0.000367
0.000366
0.000204
0.000210
0.000265
0.000249
0.000242
0.000249
0.000262
0.000281
0.000436
0.000354
0.000397
0.000376
0.000312
0.000220
0.000241
0.000272
0.000322
0.000233
0.000237
0.000290
0.000302
0.000523
0.001402
0.000057
0.000177
0.000212
0.002067
0.000292
0.000311
0.000266
0.000262
0.000253
0.000256
0.000253
0.000235
0.000241
0.000255
0.000258
0.000266
0.000340
0.000744
0.001721
0.000250
0.000251
0.000260
0.000257
0.000388
0.000477
0.001525
0.000274
0.000361
0.002011
0.000226
0.000247
0.000190
0.000057
0.000198
0.000226
0.000222
0.000248
0.000223
0.000248
0.000247
0.000284
0.000345
0.000291
0.000381
0.000366
0.000333
0.000302
0.000234
0.000240
0.000259
0.000244
0.000262
0.000271
0.000276
0.000314
0.000252
0.000257
0.000278
0.001575
0.000282
0.000398
0.001999
0.000266
0.000162
0.000056
0.000203
0.000227
0.000230
0.000249
0.000470
0.000227
0.000246
0.000326
0.000397
0.000369
0.000225
0.000224
0.000249
0.000273
0.000274
0.000315
0.000504
0.000345
0.000268
0.000382
0.000707
0.000242
0.001621
0.000266
0.000237
0.002028
0.000335
0.000227
0.000229
0.000250
0.000207
0.000056
0.000193
0.000227
0.000225
0.000229
0.000246
0.000271
0.000251
0.000272
0.000253
0.000248
0.001897
0.000275
0.000392
0.000328
0.000460
0.000358
0.001523
0.000339
0.000225
0.000295
0.002008
0.000632
0.000264
0.000218
0.000250
0.000265
0.000495
0.000232
0.000243
0.000283
0.000220
0.000056
0.000289
0.000345
0.000410
0.000243
0.000251
0.000189
0.000261
0.000247
0.000271
0.000293
0.000234
0.000244
0.000253
0.000260
0.000322
0.000473
0.001350
0.000258
0.000310
0.001943
0.000355
0.000273
0.000212
0.000266
0.000227
0.000281
0.000270
0.000273
0.000239
0.000265
0.000222
0.000056
0.000277
0.000419
0.002055
0.000206
0.000242
0.000235
0.000210
0.000342
0.000385
0.001525
0.000322
0.000369
0.000336
0.002000
0.000229
0.000238
0.000276
0.000268
0.000264
0.000232
0.000282
0.000291
0.000259
0.000319
0.000512
0.000375
0.000337
0.002210
0.000501
0.000469
0.000447
0.000057
0.000195
0.000213
0.000225
0.002034
0.000201
0.000215
0.000234
0.000277
0.000200
0.000254
0.000240
0.000258
0.000255
0.000299
0.000480
0.000352
0.001311
0.000235
0.000308
0.000237
0.000225
0.000251
0.000264
0.000265
0.000361
0.000494
0.000397
0.000236
0.001690
0.000231
0.000151
0.000056
0.000203
0.000197
0.000228
0.000240
0.000245
0.000253
0.000254
0.000248
0.000279
0.000368
0.000329
0.001503
0.000209
0.000206
0.000227
0.000257
0.000266
0.000248
0.000269
0.000525
0.000481
0.000379
0.000217
0.001556
0.000262
0.000235
0.000280
0.000285
0.000263
0.000259
0.000229
0.000056
0.000196
0.000220
0.000251
0.000271
0.000251
0.000260
0.000228
0.000228
0.000263
0.000247
0.000242
0.000258
0.000256
0.000253
0.001585
0.000234
0.000230
0.000274
0.000327
0.000329
0.000361
0.000265
0.000214
0.000257
0.000242
0.000267
0.001471
0.000294
0.000207
0.000222
0.000182
0.000057
0.000187
0.000227
0.000237
0.000269
0.000267
0.000220
0.000245
0.000267
0.000214
0.000269
0.000262
0.000236
0.000231
0.000336
0.000354
0.000375
0.000278
0.001567
0.000345
0.000218
0.000211
0.000229
0.000255
0.000322
0.000401
0.000448
0.000411
0.000247
0.000213
0.001594
0.000194
0.000056
0.000295
0.000392
0.000325
0.000297
0.000200
0.000207
0.000243
0.000264
0.000260
0.000239
0.000266
0.000219
0.001465
0.000319
0.000306
0.000214
0.000220
0.000261
0.000274
0.000261
0.000253
0.000247
0.000253
0.000269
0.000251
0.000503
0.000401
0.000332
0.000290
0.000209
0.000188
0.000057
0.000203
0.000228
0.000464
0.000360
0.000366
0.000249
0.000215
0.000247
0.000255
0.000246
0.000252
0.000225
0.000254
0.000271
0.001320
0.000271
0.000217
0.000222
0.000258
0.000276
0.000240
0.000255
0.000252
0.000272
0.000246
0.000263
0.000308
0.000657
0.000496
0.000237
0.000187
0.000057
0.000201
0.001532
0.000241
0.000376
0.000424
0.000398
0.000200
0.000239
0.000271
0.000253
0.000242
0.000262
0.000271
0.000274
0.000284
0.001508
0.000245
0.000283
0.000266
0.000260
0.000252
0.000259
0.000264
0.000266
0.000258
0.000256
0.000515
0.000522
0.000169
0.000226
0.000176
0.000057
0.000199
0.000220
0.000240
0.001715
0.000394
0.000337
0.000204
0.000207
0.000239
0.000283
0.000262
0.000262
0.000254
0.000260
0.000234
0.000263
0.000481
0.001314
0.000222
0.000222
0.001529
0.000549
0.000329
0.000407
0.000291
0.000220
0.000265
0.000466
0.000236
0.000257
0.000206
0.000057
0.000244
0.000219
0.000223
0.000227
0.000251
0.000257
0.000240
0.000254
0.000265
0.000229
0.000251
0.000267
0.000322
0.000509
0.001645
0.001504
0.000365
0.000550
0.000293
0.000241
0.000232
0.000252
0.000255
0.000252
0.000256
0.000267
0.000266
0.000262
0.001599
0.000321
0.000140
0.000056
0.000249
0.000324
0.000364
0.000320
0.000258
0.000206
0.000224
0.000423
0.000323
0.001445
0.000351
0.001542
0.000387
0.000447
0.000452
0.000273
0.000328
0.000339
0.000339
0.000284
0.000232
0.000356
0.001563
0.000536
0.000243
0.000236
0.000248
0.000254
0.000261
0.000263
0.000223
0.000055
0.000212
0.000237
0.000253
0.000252
0.000252
0.001648
0.000948
0.000904
0.000238
0.000241
0.000244
0.000269
0.000248
0.000261
0.000257
0.000250
0.000256
0.000262
0.000266
0.000285
0.001506
0.000257
0.000257
0.000230
0.000227
0.000237
0.000268
0.000275
0.000267
0.000269
0.000256
0.000056
0.000191
0.000197
0.001535
0.001043
0.000361
0.000244
0.000230
0.000200
0.000250
0.000249
0.000248
0.000259
0.000237
0.002062
0.000466
0.000207
0.000208
0.000238
0.000260
0.000260
0.000206
