0.000377
0.018677
0.002821
0.000317
0.000221
0.000254
0.000294
0.000253
0.000335
0.000284
0.000246
0.000395
0.000490
0.000541
0.000298
0.000331
0.000298
0.000375
0.000396
0.000419
0.000294
0.001887
0.000484
0.000440
0.000261
0.000295
0.000311
0.000403
0.000416
0.000363
0.000510
0.000280
0.000058
0.000199
0.000234
0.000272
0.000275
0.000255
0.000268
0.000259
0.000266
0.000272
0.000283
0.000415
0.000499
0.000293
0.000272
0.000407
0.000376
0.000334
0.000265
0.000201
0.001743
0.000279
0.000228
0.000508
0.000243
0.000241
0.000264
0.000293
0.000274
0.000282
0.000305
0.000423
0.000059
0.000250
0.000218
0.000268
0.000260
0.000255
0.000247
0.000266
0.000255
0.000277
0.001678
0.000237
0.000236
0.000263
0.000260
0.000276
0.000246
0.000278
0.000251
0.000351
0.001795
0.000264
0.000252
0.000450
0.000459
0.000397
0.000255
0.000221
0.000541
0.000474
0.000766
0.000173
0.000058
0.000230
0.000204
0.000257
0.000255
0.000304
0.000273
0.000274
0.000535
0.000479
0.000260
0.000208
0.000225
0.000230
0.000257
0.000254
0.000259
0.000240
0.000271
0.000296
0.000336
0.001738
0.000249
0.000229
0.000470
0.000253
0.000678
0.000706
0.000450
0.000381
0.000242
0.000214
0.000058
0.000216
0.000228
0.000259
0.000253
0.000248
0.000256
0.000261
0.000474
0.001469
0.000243
0.000237
0.000223
0.000261
0.000252
0.000263
0.000289
0.000298
0.000910
0.001257
0.000284
0.000252
0.000433
0.000253
0.000233
0.000250
0.000272
0.000251
0.000266
0.000257
0.000267
0.000227
0.000058
0.000190
0.000217
0.000241
0.000244
0.000262
0.000238
0.000246
0.000253
0.000239
0.000284
0.001668
0.000253
0.000227
0.000220
0.000231
0.000248
0.000244
0.000253
0.000261
0.000240
0.000263
0.001742
0.000243
0.000265
0.000471
0.000240
0.000231
0.000231
0.000278
0.000255
0.000208
0.000059
0.000213
0.000206
0.000240
0.000248
0.000237
0.000246
0.000260
0.000251
0.000250
0.000243
0.000266
0.000259
0.000262
0.000276
0.001633
0.000276
0.000282
0.000245
0.000239
0.000269
0.000268
0.000254
0.000252
0.000250
0.000275
0.001854
0.000373
0.000351
0.000262
0.000278
0.000214
0.000060
0.000213
0.000197
0.000245
0.000267
0.000261
0.000247
0.000316
0.000343
0.000476
0.000398
0.000219
0.000230
0.000251
0.000266
0.001631
0.000507
0.000329
0.000439
0.000243
0.000215
0.000260
0.000279
0.000276
0.001840
0.000449
0.000482
0.000225
0.000236
0.000223
0.000260
0.000211
0.000059
0.000186
0.000242
0.000219
0.000269
0.000487
0.000292
0.000413
0.000276
0.000200
0.000227
0.000260
0.000247
0.000271
0.001723
0.000439
0.000325
0.000208
0.000254
0.000268
0.000279
0.000258
0.000266
0.000258
0.001909
0.000300
0.000392
0.000252
0.000231
0.000314
0.000402
0.000319
0.000058
0.000206
0.000363
0.000368
0.000259
0.000300
0.000205
0.000243
0.000257
0.000242
0.000250
0.000223
0.000264
0.001599
0.000310
0.000354
0.000204
0.000217
0.000259
0.000235
0.000290
0.000276
0.000344
0.001767
0.000360
0.000227
0.000498
0.000216
0.000229
0.000253
0.000282
0.000263
0.000058
0.000343
0.000536
0.000658
0.000200
0.000206
0.000274
0.000231
0.000216
0.000267
0.000244
0.000267
0.001683
0.000277
0.000408
0.000388
0.000221
0.000231
0.000239
0.000236
0.000277
0.000235
0.001865
0.000252
0.000222
0.002256
0.000430
0.000261
0.000263
0.000259
0.000257
0.000204
0.000056
0.000216
0.000209
0.000230
0.000244
0.000276
0.001672
0.000215
0.000203
0.000248
0.000248
0.000245
0.000251
0.000246
0.000260
0.000268
0.000417
0.000643
0.000239
0.000226
0.000260
0.000276
0.000255
0.000247
0.000489
0.000447
0.000237
0.000657
0.000379
0.000327
0.000213
0.000201
0.000057
0.000203
0.000214
0.000278
0.000233
0.000240
0.000239
0.000443
0.000313
0.000393
0.001607
0.000255
0.000236
0.000240
0.000252
0.000254
0.000265
0.000471
0.000496
0.000374
0.000231
0.000231
0.000272
0.000322
0.000283
0.000242
0.000405
0.000424
0.000551
0.000453
0.000501
0.000127
0.000057
0.000218
0.000243
0.000224
0.000227
0.000235
0.000244
0.000248
0.000247
0.000242
0.000365
0.000360
0.001543
0.000277
0.000234
0.000185
0.000228
0.000248
0.000255
0.000245
0.000257
0.000293
0.000448
0.000386
0.000341
0.000219
0.000239
0.000262
0.000261
0.000265
0.000279
0.000411
0.000057
0.000171
0.000229
0.000234
0.000262
0.000518
0.000434
0.000255
0.000243
0.000239
0.000259
0.000245
0.000240
0.000288
0.000256
0.000238
0.000584
0.000365
0.001603
0.000272
0.000233
0.000268
0.000260
0.000257
0.000259
0.000237
0.000393
0.000569
0.000367
0.000353
0.000246
0.000216
0.000057
0.000216
0.000220
0.000411
0.000229
0.000265
0.000237
0.000283
0.000594
0.000378
0.000262
0.000228
0.000264
0.000262
0.000250
0.000595
0.000288
0.000221
0.000246
0.000622
0.001470
0.000244
0.000240
0.000303
0.000417
0.000271
0.000287
0.000260
0.000327
0.000569
0.000376
0.000282
0.000057
0.000181
0.000220
0.000234
0.000242
0.000477
0.000266
0.000286
0.000213
0.000377
0.000566
0.000374
0.000242
0.000209
0.000210
0.000255
0.000269
0.000258
0.000262
0.000214
0.000382
0.000276
0.000385
0.001777
0.000264
0.000243
0.000249
0.000317
0.000353
0.000432
0.000754
0.000371
0.000058
0.000243
0.000313
0.000331
0.000420
0.000319
0.000205
0.000251
0.000272
0.000556
0.000395
0.000312
0.000212
0.000219
0.000265
0.000268
0.000236
0.000242
0.000280
0.000263
0.000266
0.000271
0.000500
0.001664
0.000292
0.000360
0.000421
0.000387
0.000246
0.000474
0.000309
0.000350
0.000057
0.000215
0.000382
0.000289
0.000205
0.000225
0.000226
0.000470
0.000211
0.000218
0.000369
0.000385
0.000502
0.000201
0.000249
0.000259
0.000283
0.000360
0.000438
0.000319
0.000212
0.000225
0.000298
0.000698
0.001694
0.000271
0.000387
0.000332
0.000233
0.000249
0.000465
0.000284
0.000058
0.000214
0.000210
0.000238
0.000240
0.000252
0.000245
0.000250
0.000389
0.000402
0.000261
0.000583
0.000305
0.000292
0.000232
0.000548
0.000226
0.000277
0.000261
0.000244
0.000338
0.000225
0.000230
0.000282
0.000522
0.000434
0.001660
0.000235
0.000228
0.000255
0.000237
0.000206
0.000058
0.000324
0.000418
0.000387
0.000206
0.000232
0.000222
0.000261
0.000239
0.000254
0.000263
0.000214
0.000494
0.000266
0.000500
0.000387
0.000294
0.000233
0.000241
0.000357
0.000353
0.000367
0.000365
0.000384
0.000378
0.000252
0.000215
0.000250
0.000294
0.001765
0.000276
0.000202
0.000058
0.000191
0.000203
0.000253
0.000268
0.000356
0.000536
0.000364
0.000203
0.000237
0.000258
0.000248
0.000253
0.000530
0.000447
0.000473
0.000308
0.000291
0.000219
0.000440
0.000490
0.000370
0.000426
0.000521
0.000391
0.000234
0.000242
0.000239
0.000219
0.000280
0.001764
0.000353
0.000059
0.000230
0.000332
0.000204
0.000220
0.000255
0.000243
0.000286
0.000446
0.000427
0.000309
0.000304
0.000300
0.000545
0.000446
0.000336
0.000217
0.000239
0.000213
0.000259
0.000257
0.000267
0.000274
0.000240
0.000268
0.000303
0.000380
0.000504
0.000317
0.000221
0.000212
0.000194
0.000059
0.000461
0.000296
0.000473
0.000220
0.000222
0.000217
0.000246
0.000281
0.000215
0.000225
0.000241
0.000280
0.000294
0.000322
0.000618
0.000414
0.000324
0.000358
0.000371
0.000393
0.000266
0.000218
0.000223
0.000249
0.001823
0.000227
0.001764
0.000921
0.000384
0.000332
0.000146
0.000056
0.000221
0.000216
0.000223
0.000237
0.000263
0.000249
0.000249
0.000253
0.000257
0.000320
0.000354
0.000432
0.000395
0.000389
0.000234
0.000250
0.000273
0.000290
0.000211
0.000229
0.000257
0.000229
0.001795
0.000279
0.000224
0.000266
0.000272
0.000272
0.001858
0.000554
0.000260
0.000057
0.000230
0.000198
0.000218
0.000243
0.000251
0.000246
0.000242
0.000256
0.000259
0.000421
0.000510
0.000316
0.000382
0.000259
0.000217
0.000278
0.000383
0.000387
0.000375
0.000256
0.001805
0.000240
0.000234
0.000213
0.000256
0.000272
0.000245
0.000264
0.000246
0.000366
0.000422
0.000057
0.000242
0.000209
0.000203
0.000254
0.000251
0.000236
0.000264
0.000265
0.000230
0.000252
0.000243
0.000285
0.000401
0.000330
0.000426
0.000271
0.000472
0.000205
0.000241
0.000236
0.000263
0.000262
0.000271
0.000258
0.000266
0.001798
0.000269
0.000230
0.000273
0.000227
0.000225
0.000057
0.000252
0.000387
0.000213
0.000205
0.000231
0.000237
0.000239
0.000255
0.000254
0.000223
0.000225
0.000262
0.000260
0.000284
0.000568
0.000291
0.000346
0.000232
0.000205
0.000239
0.000264
0.000260
0.000264
0.000246
0.000258
0.000261
0.000268
0.001743
0.000229
0.000217
0.000198
0.000058
0.000209
0.000202
0.000245
0.000257
0.000358
0.000400
0.000371
0.000321
0.000209
0.000242
0.000250
0.000247
0.000247
0.000259
0.000260
0.000258
0.000249
0.000252
0.000254
0.000262
0.000263
0.000269
0.000262
0.000227
0.000240
0.000282
0.000270
0.000260
0.000263
0.000256
0.000235
0.000059
0.000189
0.000213
0.000245
0.000257
0.000239
0.000259
0.000235
0.000265
0.000357
0.000198
0.000194
0.000250
0.000250
0.000251
0.000280
0.000245
0.000258
0.000254
0.000367
0.000201
0.000242
0.000292
0.000275
0.000254
0.000270
0.000280
0.000274
0.000254
0.000255
0.000444
0.000680
0.000059
0.000224
0.000304
0.000226
0.000200
0.000211
0.000251
0.000243
0.000248
0.000244
0.000260
0.000253
0.000321
0.000450
0.000490
0.001602
0.000211
0.000520
0.000202
0.000208
0.000451
0.000439
0.000380
0.000239
0.000266
0.000256
0.000261
0.000279
0.000261
0.000294
0.000264
0.000208
0.000058
0.000302
0.000430
0.000369
0.000326
0.000203
0.000232
0.000250
0.000247
0.000238
0.000238
0.000258
0.000251
0.000239
0.000281
0.000429
0.000398
0.000394
0.001798
0.000278
0.000212
0.000339
0.000543
0.000368
0.000268
0.000377
0.000301
0.000256
0.000227
0.000234
0.000239
0.000217
0.000058
0.000193
0.000212
0.000236
0.000277
0.000382
0.000415
0.000379
0.000240
0.000249
0.000220
0.000243
0.000267
0.000265
0.000265
0.000252
0.000249
0.000317
0.000476
0.000371
0.000416
0.000231
0.001815
0.000278
0.000559
0.000471
0.000458
0.000286
0.000235
0.000240
0.000274
0.000498
0.000058
0.000198
0.000227
0.000248
0.000248
0.000513
0.000303
0.000527
0.000205
0.000210
0.000329
0.000212
0.000239
0.000248
0.000305
0.000360
0.000218
0.000214
0.000424
0.000352
0.000375
0.000583
0.001780
0.000252
0.000504
0.000430
0.000362
0.000227
0.000389
0.000238
0.000220
0.000203
0.000057
0.000219
0.000332
0.000355
0.000265
0.000422
0.000316
0.000382
0.000199
0.000229
0.000262
0.000273
0.000235
0.000234
0.000256
0.000259
0.000252
0.000304
0.000358
0.000545
0.000383
0.000295
0.000215
0.000256
0.001790
0.000307
0.000594
0.000640
0.000276
0.000250
0.000294
0.000168
0.000057
0.000184
0.000223
0.000308
0.000260
0.000251
0.000430
0.000379
0.000321
0.000300
0.000530
0.000206
0.000222
0.000228
0.000273
0.000282
0.000265
0.000242
0.000365
0.000516
0.000334
0.000267
0.000240
0.000251
0.000254
0.000269
0.000270
0.000235
0.000251
0.000263
0.000347
0.000201
0.000057
0.000263
0.000319
0.000234
0.000237
0.000243
0.000259
0.000239
0.000363
0.000211
0.000212
0.000245
0.000346
0.000424
0.000406
0.000407
0.000253
0.000227
0.000218
0.000247
0.000258
0.000269
0.000278
0.000242
0.000254
0.000272
0.000345
0.000438
0.000355
0.000370
0.000214
0.000193
0.000059
0.000171
0.000208
0.000271
0.000247
0.000236
0.000250
0.000255
0.000259
0.000497
0.000228
0.000238
0.000261
0.000253
0.000247
0.000277
0.000263
0.000265
0.000365
0.000251
0.000214
0.000244
0.000261
0.000261
0.000263
0.000288
0.000254
0.000282
0.000245
0.000254
0.000511
0.000164
0.000057
0.000171
0.000207
0.000254
0.000262
0.000243
0.000230
0.000299
0.000455
0.000266
0.000226
0.000246
0.000260
0.000237
0.000281
0.000420
0.001785
0.000260
0.000236
0.000299
0.000399
0.000395
0.000346
0.000424
0.000301
0.000409
0.000365
0.000247
0.000271
0.000265
0.000277
0.001411
0.000058
0.000381
0.000418
0.000209
0.000193
0.000198
0.000247
0.000230
0.000248
0.000247
0.000265
0.000270
0.000235
0.000250
0.000274
0.000640
0.001622
0.000208
0.000210
0.000223
0.000285
0.000242
0.000251
0.000385
0.000402
0.000260
0.000337
0.000256
0.000252
0.000268
0.000263
0.000205
0.000057
0.001222
0.000555
0.000322
0.000306
0.000190
0.000207
0.000210
0.000234
0.000485
0.000247
0.000220
0.000245
0.000311
0.000632
0.000311
0.000344
0.000295
0.000245
0.000316
0.000385
0.000235
0.000234
0.000267
0.000239
0.000287
0.000498
0.000600
0.000287
0.000251
0.000262
0.000192
0.000057
0.000214
0.000193
0.000233
0.000248
0.001511
0.000286
0.000202
0.000249
0.000241
0.000245
0.000260
0.000249
0.000239
0.000269
0.000266
0.000252
0.000508
0.000625
0.000271
0.001805
0.000235
0.000299
0.000324
0.000385
0.000512
0.000416
0.000237
0.000232
0.000260
0.000264
0.000219
0.000058
0.000201
0.000254
0.000214
0.001325
0.000333
0.000202
0.000255
0.000215
0.000232
0.000236
0.000240
0.000250
0.000286
0.000240
0.000248
0.000331
0.000412
0.000489
0.000330
0.000219
0.000239
0.000277
0.000259
0.000236
0.000344
0.000232
0.000212
0.000284
0.000258
0.000349
0.000630
0.000058
0.000204
0.000219
0.000234
0.000260
0.000268
0.000254
0.000240
0.000245
0.000272
0.000246
0.001435
0.000247
0.000217
0.000256
0.000255
0.000234
0.000268
0.000259
0.000263
0.000269
0.000302
0.000447
0.000493
0.000348
0.000244
0.000272
0.001829
0.000230
0.000228
0.000334
0.000429
0.000057
0.000261
0.000425
0.000458
0.000508
0.000521
0.000601
0.001384
0.000445
0.000546
0.000644
0.000561
0.000688
0.000504
0.000623
0.000584
0.001719
0.000480
0.000450
0.000379
0.000305
0.000254
0.000294
0.000287
0.000267
0.000273
0.000271
0.000300
0.000275
0.000258
0.000298
0.001324
0.000057
0.000233
0.000247
0.000221
0.000233
0.000240
0.000248
0.000244
0.000228
0.000261
0.000287
0.000231
0.000268
0.000219
0.000271
0.000267
0.000260
0.001844
0.000255
0.000265
0.000243
0.000271
0.000251
0.000264
0.000288
0.000378
0.000453
0.000321
0.000238
0.000264
0.000294
0.000169
0.000057
0.000213
0.001386
0.000260
0.000266
0.000265
0.000225
0.000264
0.000236
0.000253
0.000252
0.000233
0.000233
0.000264
0.000455
0.000265
0.000363
0.000269
0.000279
0.001907
0.000274
0.000246
0.000260
0.000262
0.000253
0.000270
0.000261
0.000296
0.000239
0.000245
0.000304
0.000239
0.000057
0.000178
0.000236
0.000242
0.001422
0.000272
0.000259
0.000225
0.000227
0.000240
0.000250
0.000249
0.000254
0.000241
0.000255
0.000294
0.000237
0.000278
0.000229
0.000280
0.000258
0.000257
0.001848
0.000258
0.001773
0.000251
0.000248
0.000248
0.000242
0.000259
0.000301
0.000184
0.000057
0.000195
0.000250
0.001363
0.000221
0.000267
0.000234
0.000218
0.000234
0.000253
0.000245
0.000251
0.000246
0.000263
0.000255
0.000255
0.000282
0.000245
0.000272
0.000298
0.000250
0.001866
0.000271
0.001799
0.000271
0.000259
0.000239
0.000262
0.000264
0.000263
0.000259
0.000196
0.000056
0.001446
0.000230
0.000237
0.000226
0.000208
0.000235
0.000268
0.000366
0.000252
0.000255
0.000247
0.000259
0.000297
0.000297
0.000491
0.000260
0.000257
0.000269
0.000228
0.000222
0.000272
0.000327
0.000242
0.000265
0.000270
0.000273
0.000266
0.000385
0.000658
0.000352
0.000182
0.000057
0.000211
0.000287
0.000263
0.000312
0.000350
0.000281
0.001655
0.000298
0.000282
0.000256
0.000268
0.000300
0.000260
0.000267
0.000299
0.000312
0.000391
0.000438
0.000421
0.000271
0.000325
0.000271
0.000262
0.000273
0.000330
0.000257
0.000266
0.000236
0.000246
0.000355
0.000363
0.000059
0.000300
0.000372
0.000266
0.000273
0.000256
0.000224
0.000223
0.000244
0.000258
0.000266
0.001510
0.000231
0.000213
0.000249
0.000252
0.000283
0.000287
0.000239
0.000256
0.000260
0.000265
0.000327
0.000635
0.000328
0.000224
0.000285
0.000271
0.000236
0.000242
0.000239
0.000252
0.000057
0.000201
0.000195
0.000307
0.000494
0.000358
0.000237
0.000216
0.000243
0.000252
0.000264
0.000224
0.000264
0.000246
0.000266
0.000247
0.000230
0.000470
0.001204
0.000222
0.000240
0.000245
0.000250
0.000416
0.000425
0.000222
0.000223
0.000657
0.000373
0.000381
0.000221
0.000163
0.000058
0.000185
0.000231
0.000266
0.000263
0.000305
0.000206
0.000305
0.000567
0.000406
0.000256
0.000367
0.000404
0.000388
0.000351
0.000235
0.000220
0.000229
0.000229
0.000395
0.000544
0.001192
0.000237
0.000259
0.000270
0.000244
0.000235
0.000257
0.000308
0.000474
0.000452
0.000247
0.000058
0.000185
0.000209
0.000249
0.000248
0.000244
0.000247
0.000232
0.000258
0.000254
0.000468
0.000425
0.000394
0.000226
0.000230
0.000201
0.000255
0.000247
0.000267
0.000268
0.000231
0.000507
0.000214
0.000390
0.000362
0.000385
0.000221
0.000254
0.000272
0.000256
0.000278
0.000244
0.000057
0.000298
0.000294
0.000324
0.000358
0.000607
0.000227
0.000223
0.000267
0.000231
0.000246
0.000270
0.000258
0.000244
0.000243
0.000258
0.000216
0.000271
0.000344
0.000532
0.000374
0.000228
0.000262
0.000222
0.000233
0.000261
0.000283
0.000270
0.000269
0.000271
0.000269
0.000442
0.000058
0.000264
0.000321
0.000237
0.000215
0.000268
0.000223
0.000254
0.000249
0.000259
0.000257
0.000254
0.000242
0.000259
0.000586
0.000430
0.000312
0.000206
0.000205
0.000255
0.000254
0.000275
0.000239
0.000266
0.000265
0.000275
0.000275
0.000420
0.000619
0.000497
0.000218
0.000153
0.000057
0.000380
0.000205
0.000191
0.000243
0.000253
0.000239
0.000248
0.000238
0.000272
0.000247
0.000231
0.000238
0.000303
0.000199
0.000226
0.000269
0.000253
0.000262
0.000277
0.000263
0.000263
0.000255
0.000267
0.000258
0.000277
0.000256
0.000237
0.000275
0.000261
0.000278
0.000226
0.000057
0.000196
0.000198
0.000242
0.000259
0.000224
0.000254
0.000257
0.000241
0.000262
0.000284
0.000232
0.000225
0.000266
0.000420
0.000214
0.000283
0.000261
0.000271
0.000255
0.000276
0.000274
0.000248
0.000243
0.000241
0.000273
0.000278
0.000246
0.000253
0.000268
0.000271
0.000223
0.000057
0.000246
0.000380
0.000352
0.000281
0.000302
0.000236
0.000205
0.000252
0.000241
0.000240
0.000234
0.000266
0.000259
0.000235
0.000253
0.000264
0.000267
0.000268
0.000241
0.000262
0.000283
0.000268
0.000270
0.000250
0.000281
0.000270
0.000252
0.000287
0.000235
0.000263
0.000212
0.000057
0.000171
0.000225
0.000249
0.000258
0.000248
0.000454
0.000213
0.000242
0.000269
0.000432
0.000515
0.000341
0.000225
0.000202
0.000263
0.000273
0.000234
0.000266
0.000268
0.000265
0.000265
0.000262
0.000257
0.000243
0.000660
0.000454
0.000259
0.000258
0.000272
0.000259
0.000200
0.000056
0.000204
0.000204
0.000240
0.000264
0.000270
0.000754
0.000250
0.000379
0.000229
0.000228
0.000254
0.000251
0.000268
0.000240
0.000252
0.000273
0.000267
0.000242
0.000595
0.000466
0.000287
0.000216
0.000253
0.000281
0.000287
0.000257
0.000265
0.000267
0.000248
0.000330
0.000348
0.000059
0.000193
0.000222
0.000217
0.000235
0.000255
0.000256
0.000249
0.000225
0.000242
0.000260
0.000246
0.000247
0.000252
0.000435
0.000511
0.000452
0.000217
0.000231
0.000264
0.000253
0.000260
0.000271
0.000479
0.000244
0.000251
0.000826
0.000298
0.000367
0.000275
0.000249
0.000187
0.000055
0.000192
0.000215
0.000251
0.000232
0.000251
0.000261
0.000276
0.000590
0.000534
0.000354
0.000211
0.000258
0.000271
0.000278
0.000285
0.000221
0.000246
0.000243
0.000258
0.000328
0.000544
0.000454
0.000427
0.000266
0.000440
0.000348
0.000489
0.000201
0.000242
0.000355
0.000434
0.000058
0.000259
0.000220
0.000487
0.000197
0.000229
0.000232
0.000243
0.000260
0.000243
0.000236
0.000252
0.000437
0.000393
0.000329
0.000220
0.000216
0.000276
0.000231
0.000272
0.000275
0.000268
0.000264
0.000245
0.000272
0.000299
0.000497
0.000488
0.000241
0.000263
0.000265
0.000210
0.000057
0.000206
0.000239
0.000230
0.000245
0.000244
0.000258
0.000409
0.000387
0.000444
0.000265
0.000345
0.000254
0.000216
0.000267
0.000257
0.000237
0.000252
0.000262
0.000290
0.000465
0.000477
0.000282
0.000450
0.000344
0.000398
0.000391
0.000380
0.000257
0.000216
0.000421
0.000288
0.000057
0.000215
0.000255
0.000227
0.000231
0.000257
0.000258
0.000249
0.000252
0.000252
0.000277
0.000228
0.000389
0.000400
0.000389
0.000363
0.000251
0.000241
0.000268
0.000268
0.000239
0.000250
0.000249
0.000267
0.000272
0.000278
0.000319
0.000498
0.000484
0.000245
0.000273
0.000210
0.000056
0.000217
0.000210
0.000266
0.000246
0.000249
0.000319
0.000554
0.000558
0.000270
0.000667
0.000314
0.000198
0.000210
0.000265
0.000237
0.000266
0.000280
0.000264
0.000489
0.000514
0.001542
0.000245
0.000265
0.000253
0.000301
0.000230
0.000357
0.000419
0.000377
0.000340
0.000151
0.000057
0.000206
0.000208
0.000249
0.000242
0.000240
0.000251
0.000267
0.000260
0.000255
0.000354
0.000350
0.000364
0.000293
0.000370
0.000385
0.000328
0.000232
0.000210
0.000262
0.000259
0.000240
0.000241
0.000286
0.000265
0.000343
0.000554
0.000354
0.000254
0.000215
0.000260
0.000208
0.000057
0.000222
0.000218
0.000256
0.000275
0.000233
0.000230
0.000464
0.000229
0.000229
0.000250
0.000246
0.000252
0.000253
0.000264
0.000244
0.000267
0.000268
0.000256
0.000283
0.000252
0.000262
0.000277
0.000317
0.000226
0.000264
0.000274
0.000272
0.000272
0.000262
0.000266
0.000204
0.000057
0.000225
0.000237
0.000307
0.000458
0.000375
0.000227
0.000219
0.000227
0.000258
0.000248
0.000241
0.000256
0.000269
0.000257
0.000244
0.000240
0.000249
0.000259
0.000268
0.000348
0.000478
0.000364
0.000239
0.000271
0.000256
0.000254
0.000262
0.000256
0.000267
0.000280
0.000218
0.000056
0.000382
0.000390
0.000403
0.000216
0.000240
0.000255
0.000482
0.000197
0.000195
0.000249
0.000283
0.000333
0.000396
0.000428
0.001750
0.000270
0.000251
0.000238
0.000278
0.000248
0.000351
0.000408
0.000677
0.000282
0.000214
0.000251
0.000278
0.000424
0.000281
0.000280
0.000178
0.000056
0.000228
0.000406
0.000296
0.000289
0.000512
0.000199
0.000238
0.000237
0.000252
0.000246
0.000250
0.000253
0.000260
0.000344
0.000376
0.000502
0.000248
0.000206
0.000275
0.000245
0.000253
0.000316
0.000251
0.000272
0.000274
0.000447
0.000525
0.000432
0.000429
0.000231
0.000209
0.000057
0.000198
0.000203
0.000251
0.000228
0.000248
0.000248
0.000273
0.000263
0.000366
0.000361
0.000428
0.000383
0.000207
0.000229
0.000268
0.000276
0.000325
0.000229
0.000265
0.000274
0.000243
0.000290
0.000543
0.000339
0.000243
0.000298
0.000267
0.000510
0.000388
0.000275
0.000173
0.000056
0.000197
0.000214
0.000325
0.000453
0.000360
0.000238
0.000212
0.000252
0.000261
0.000253
0.000265
0.000263
0.000219
0.000255
0.000262
0.000284
0.000382
0.000377
0.000304
0.000382
0.000457
0.000223
0.000272
0.000279
0.000311
0.000275
0.000260
0.000254
0.000497
0.000564
0.000162
0.000056
0.000191
0.000206
0.000259
0.000235
0.000242
0.000496
0.000205
0.000244
0.000259
0.000360
0.000511
0.000548
0.000225
0.000233
0.000237
0.000265
0.000232
0.000258
0.000245
0.000260
0.000255
0.000271
0.000477
0.000407
0.000333
0.000317
0.000335
0.000347
0.000308
0.000234
0.000166
0.000058
0.000171
0.000219
0.000240
0.000502
0.000321
0.000377
0.000239
0.000209
0.000196
0.000252
0.000259
0.000254
0.000246
0.000257
0.000304
0.000210
0.000254
0.000252
0.000237
0.000399
0.000622
0.000309
0.000220
0.000229
0.000301
0.000265
0.000254
0.000260
0.000274
0.000247
0.000213
0.000056
0.000313
0.000350
0.000508
0.000206
0.000225
0.000206
0.000316
0.000507
0.000277
0.000208
0.000202
0.000283
0.000334
0.000380
0.000453
0.000315
0.000222
0.000224
0.000279
0.000200
0.000277
0.000266
0.000260
0.000273
0.000262
0.000329
0.000370
0.000443
0.000368
0.000206
0.000152
0.000057
0.000195
0.000212
0.000263
0.000238
0.000252
0.000260
0.000239
0.000249
0.000257
0.000244
0.000269
0.000234
0.000255
0.001466
0.000254
0.000228
0.000258
0.000240
0.000279
0.000274
0.000259
0.000245
0.000277
0.000248
0.000272
0.000262
0.000286
0.000258
0.000289
0.000238
0.000217
0.000057
0.000216
0.000203
0.000241
0.000248
0.000243
0.000242
0.000257
0.000255
0.000237
0.000247
0.000243
0.000262
0.000254
0.000255
0.000261
0.000249
0.000251
0.000264
0.000271
0.000251
0.000252
0.000261
0.000251
0.000252
0.001359
0.000279
0.000586
0.000392
0.000375
0.000217
0.000159
0.000056
0.000217
0.000213
0.000244
0.000243
0.000502
0.000228
0.000182
0.000217
0.000255
0.000351
0.000530
0.000355
0.000199
0.000209
0.000239
0.000262
0.000252
0.000262
0.000255
0.000259
0.000262
0.000246
0.000262
0.000396
0.000576
0.000401
0.000255
0.000246
0.001362
0.000290
0.000181
0.000058
0.000338
0.000420
0.000374
0.000220
0.000208
0.000207
0.000223
0.000241
0.000258
0.000257
0.000248
0.000274
0.000242
0.000318
0.000599
0.000401
0.000247
0.000236
0.000244
0.000239
0.000273
0.000269
0.000263
0.000264
0.000268
0.000256
0.000376
0.000496
0.000570
0.000233
0.000153
0.000058
0.000204
0.000221
0.001331
0.000347
0.000316
0.000476
0.000326
0.000324
0.000431
0.000399
0.000225
0.000195
0.000252
0.000254
0.000253
0.000266
0.000394
0.000631
0.000235
0.000333
0.000267
0.000247
0.000272
0.000494
0.000240
0.000250
0.000261
0.000300
0.000266
0.000553
0.000329
0.000058
0.000330
0.000385
0.000227
0.000209
0.001502
0.000638
0.000212
0.000230
0.000210
0.000245
0.000224
0.000246
0.000246
0.000260
0.000255
0.000267
0.000227
0.000313
0.000411
0.000410
0.000460
0.000214
0.000221
0.000251
0.000251
0.000272
0.000275
0.000238
0.000264
0.000274
0.000224
0.000059
0.000464
0.000208
0.000245
0.000205
0.000249
0.000246
0.000250
0.000246
0.000238
0.000241
0.001449
0.000484
0.000272
0.000200
0.000212
0.000258
0.000262
0.000271
0.000230
0.000276
0.000270
0.000262
0.000259
0.000494
0.000501
0.000309
0.000208
0.000263
0.000276
0.000279
0.000193
0.000056
0.000207
0.000466
0.000199
0.000193
0.000338
0.000429
0.000389
0.000325
0.000459
0.000201
0.000221
0.000254
0.000256
0.000264
0.000267
0.001413
0.000361
0.000279
0.000247
0.000275
0.000267
0.000260
0.000248
0.000254
0.000262
0.000275
0.000455
0.000418
0.000320
0.000272
0.000164
0.000057
0.000192
0.000221
0.000240
0.000241
0.000229
0.000262
0.000239
0.000247
0.000280
0.000462
0.000370
0.000347
0.000205
0.000200
0.000257
0.000261
0.000271
0.000265
0.000277
0.000222
0.000266
0.000324
0.001307
0.000254
0.000244
0.000206
0.000244
0.000266
0.000261
0.000261
0.000199
0.000057
0.000209
0.000360
0.000388
0.000350
0.000232
0.000207
0.000246
0.000255
0.000259
0.000246
0.000259
0.000268
0.000264
0.000238
0.000259
0.000253
0.000265
0.000274
0.000272
0.000249
0.000260
0.000250
0.000280
0.000280
0.000287
0.000270
0.000283
0.000230
0.000277
0.000511
0.001319
0.000058
0.000199
0.000217
0.000232
0.000258
0.000237
0.000257
0.000253
0.000224
0.000248
0.000250
0.000260
0.000262
0.000251
0.000250
0.000248
0.001705
0.000352
0.000228
0.000218
0.000228
0.000251
0.000256
0.000273
0.000267
0.000275
0.000250
0.000267
0.000271
0.000278
0.000248
0.000248
0.000056
0.000349
0.000317
0.001341
0.000204
0.000196
0.000228
0.000260
0.000251
0.000259
0.000255
0.000232
0.000351
0.000423
0.000505
0.000221
0.000214
0.000226
0.000254
0.000257
0.000262
0.000259
0.000261
0.000257
0.000290
0.000267
0.000412
0.000409
0.000336
0.000274
0.000260
0.000189
0.000058
0.000200
0.000224
0.000240
0.000247
0.000252
0.000231
0.000236
0.000276
0.000406
0.000510
0.001076
0.000236
0.000230
0.000266
0.000257
0.000263
0.000273
0.000244
0.000457
0.000240
0.000449
0.000249
0.000242
0.000221
0.000278
0.000274
0.000271
0.000295
0.000270
0.000279
0.000208
0.000057
0.000238
0.000433
0.000411
0.000228
0.000204
0.000205
0.000239
0.000267
0.000266
0.000260
0.000224
0.000248
0.000542
0.000472
0.000574
0.001366
0.000225
0.000247
0.000340
0.000356
0.000440
0.000413
0.000620
0.000259
0.000231
0.000262
0.000262
0.000272
0.000273
0.000272
0.000208
0.000056
0.000209
0.000257
0.000489
0.000468
0.000317
0.000212
0.000248
0.000240
0.000238
0.000280
0.000248
0.000269
0.000271
0.000244
0.000253
0.000323
0.000371
0.000443
0.000315
0.001316
0.000268
0.000252
0.000250
0.000251
0.000512
0.000471
0.000378
0.000212
0.000245
0.000268
0.000207
0.000057
0.000215
0.000195
0.000250
0.000241
0.000250
0.000290
0.000439
0.000385
0.000364
0.000235
0.000231
0.000255
0.000272
0.000257
0.000281
0.000263
0.000262
0.000267
0.000261
0.000246
0.000605
0.000385
0.000314
0.001330
0.000334
0.000243
0.000287
0.000409
0.000427
0.000365
0.000341
0.000057
0.000177
0.000217
0.000243
0.000250
0.000251
0.000258
0.001709
0.000253
0.000211
0.000219
0.000251
0.000244
0.000326
0.000324
0.000349
0.000262
0.000289
0.000342
0.000429
0.000428
0.000281
0.000277
0.000227
0.000215
0.001442
0.000481
0.000398
0.000449
0.000313
0.000299
0.000143
0.000059
0.000174
0.000227
0.000253
0.000285
0.000221
0.000276
0.001760
0.000210
0.000242
0.000252
0.000388
0.000407
0.001424
0.000324
0.000435
0.000203
0.000217
0.000234
0.000265
0.000270
0.001699
0.000480
0.000403
0.000279
0.000213
0.000228
0.000245
0.000278
0.000247
0.000254
0.000203
0.000057
0.000193
0.000233
0.000250
0.000245
0.000263
0.000269
0.000283
0.000255
0.000253
0.000252
0.000253
0.000254
0.000251
0.000270
0.000256
0.001501
0.000282
0.000230
0.000264
0.000278
0.000266
0.000265
0.000422
0.001271
0.000297
0.000225
0.000266
0.000255
0.000468
0.000213
0.000184
0.000056
0.000209
0.000229
0.000227
0.000245
0.000244
0.000231
0.000247
0.001747
0.000214
0.000214
0.000228
0.000366
0.000246
0.000215
0.001456
0.000252
0.000212
0.000210
0.000283
0.000255
0.000244
0.000309
0.000329
0.001363
0.000276
0.000228
0.000227
0.000250
0.001388
0.000273
0.000277
0.000057
0.000211
0.000326
0.000208
0.000208
0.000247
0.000244
0.000260
0.000265
0.000270
0.000250
0.000259
0.000266
0.000255
0.000247
0.000362
0.001434
0.000259
0.000257
0.000264
0.000248
0.000277
0.000258
0.000259
0.001481
0.000361
0.000250
0.000261
0.001352
0.000231
0.000240
0.000187
0.000057
0.000268
0.000299
0.000372
0.000215
0.000204
0.000244
0.000256
0.000266
0.000266
0.000262
0.000237
0.000257
0.000255
0.000249
0.000481
0.001247
0.000210
0.000226
0.000249
0.000274
0.000238
0.000235
0.000256
0.001315
0.000361
0.000218
0.000252
0.000220
0.000262
0.001342
0.000375
0.000055
0.000285
0.000304
0.000205
0.000197
0.000239
0.000247
0.000254
0.000254
0.000263
0.000254
0.000240
0.000251
0.000252
0.000320
0.000403
0.001499
0.000239
0.000224
0.000311
0.000505
0.000305
0.000343
0.001374
0.000303
0.000249
0.000260
0.001283
0.000348
0.000234
0.000478
0.000357
0.000058
0.000209
0.000237
0.000254
0.000257
0.000252
0.000249
0.000277
0.000251
0.000258
0.000266
0.000396
0.000468
0.001324
0.000202
0.000244
0.000255
0.000287
0.000262
0.000204
0.000238
0.000322
0.001315
0.000242
0.000235
0.000237
0.000225
0.001528
0.000451
0.000444
0.000239
0.000194
0.000057
0.000181
0.000205
0.000247
0.000238
0.000248
0.000272
0.000247
0.000243
0.000424
0.000502
0.000314
0.001447
0.000234
0.000220
0.000259
0.000257
0.000272
0.000295
0.001638
0.000318
0.000347
0.000369
0.001358
0.000357
0.000296
0.000342
0.000230
0.000208
0.000252
0.000267
0.000206
0.000058
0.000188
0.000230
0.000319
0.000213
0.000309
0.000656
0.000214
0.000354
0.001479
0.000298
0.000317
0.000258
0.000208
0.000324
0.000323
0.001403
0.000256
0.000213
0.000217
0.000237
0.000312
0.001642
0.000317
0.000292
0.000220
0.000233
0.000496
0.000310
0.000241
0.000225
0.000259
0.000056
0.000242
0.000384
0.000322
0.000300
0.000201
0.001466
0.000246
0.000223
0.000259
0.000271
0.000272
0.000247
0.000291
0.001484
0.000265
0.000244
0.000420
0.001293
0.000288
0.000403
0.000402
0.000219
0.000256
0.000247
0.000271
0.000252
0.000459
0.000238
0.000241
0.000276
0.000216
0.000058
0.000202
0.000231
0.000365
0.001445
0.000282
0.000196
0.000302
0.000254
0.000242
0.000243
0.000249
0.000294
0.001610
0.000205
0.000222
0.000221
0.001373
0.000340
0.000438
0.000435
0.000384
0.000203
0.000222
0.000243
0.000369
0.000243
0.000217
0.000248
0.000250
0.000259
0.000217
0.000057
0.000316
0.000279
0.001435
0.000224
0.000253
0.000265
0.000261
0.000238
0.000342
0.000494
0.001202
0.000242
0.000312
0.000245
0.000202
0.001383
0.000616
0.000301
0.000305
0.000408
0.000341
0.000238
0.000226
0.000232
0.000269
0.000292
0.000274
0.000306
0.000422
0.000500
0.001373
0.000058
0.000214
0.000244
0.000217
0.000216
0.000248
0.000386
0.001574
0.000291
0.000218
0.000219
0.000245
0.001460
0.000392
0.000351
0.000456
0.000249
0.000216
0.000204
0.000248
0.000272
0.000259
0.000254
0.000287
0.000265
0.000245
0.000308
0.000409
0.000532
0.001454
0.000267
0.000186
0.000057
0.000203
0.000231
0.000331
0.000565
0.001230
0.000284
0.000250
0.000254
0.000247
0.000256
0.000249
0.000273
0.000318
0.000594
0.000303
0.000221
0.000242
0.000292
0.000228
0.000273
0.000254
0.000269
0.000260
0.000258
0.000271
0.000498
0.000374
0.000334
0.000324
0.001476
0.000150
0.000059
0.000211
0.000199
0.000496
0.000242
0.000360
0.000300
0.000293
0.000324
0.000295
0.000244
0.000264
0.000264
0.000237
0.000312
0.000244
0.000332
0.000499
0.000357
0.000309
0.000337
0.000286
0.000477
0.000213
0.000233
0.000229
0.000255
0.000256
0.000284
0.000435
0.000418
0.000326
0.000057
0.000214
0.001365
0.000268
0.000334
0.000508
0.000355
0.000293
0.000358
0.000230
0.000202
0.000258
0.000254
0.000262
0.000274
0.000256
0.000255
0.000261
0.001445
0.000232
0.000230
0.000218
0.000272
0.000272
0.000279
0.000265
0.000260
0.000272
0.000255
0.000262
0.000500
0.000275
0.000058
0.000227
0.000237
0.000224
0.001541
0.000323
0.000219
0.000217
0.000204
0.000225
0.000250
0.000248
0.000268
0.000254
0.000273
0.000244
0.000298
0.000235
0.000278
0.000248
0.000259
0.001472
0.000225
0.000206
0.000323
0.000231
0.000215
0.000287
0.000236
0.000273
0.000503
0.000375
0.000059
0.000194
0.000209
0.000389
0.000287
0.000242
0.000255
0.001529
0.000385
0.000307
0.000215
0.000220
0.000364
0.000306
0.000224
0.000215
0.000253
0.000246
0.000254
0.000263
0.000274
0.000472
0.001440
0.000318
0.000199
0.000233
0.000205
0.000260
0.000264
0.000293
0.000237
0.000376
0.000059
0.000166
0.000353
0.000199
0.000193
0.000259
0.000236
0.000240
0.000241
0.001419
0.000584
0.000351
0.000254
0.000225
0.000203
0.000256
0.000247
0.000256
0.000271
0.000260
0.000312
0.000303
0.000479
0.000473
0.001353
0.000245
0.000245
0.000271
0.000269
0.000269
0.000279
0.000488
0.000058
0.000234
0.000205
0.000260
0.000222
0.000217
0.000245
0.000258
0.000247
0.000269
0.001591
0.000331
0.000255
0.000267
0.000264
0.000461
0.000293
0.000399
0.000477
0.000350
0.000292
0.000444
0.000465
0.001314
0.000236
0.000226
0.000223
0.001816
0.000388
0.000584
0.000313
0.000158
0.000057
0.000180
0.000206
0.000241
0.000233
0.000251
0.000243
0.000350
0.000701
0.000202
0.000444
0.000297
0.000209
0.000212
0.000255
0.000270
0.000270
0.000236
0.000261
0.000249
0.000267
0.000264
0.000458
0.001319
0.000252
0.000233
0.000260
0.001880
0.000413
0.000370
0.000357
0.000169
0.000058
0.000208
0.000199
0.000241
0.001597
0.000367
0.000251
0.000231
0.000265
0.000244
0.000337
0.000363
0.000385
0.000347
0.000309
0.000322
0.000506
0.000301
0.001283
0.000266
0.000205
0.000223
0.000276
0.000348
0.000462
0.000568
0.000440
0.000218
0.000216
0.000275
0.000275
0.000210
0.000057
0.000199
0.000191
0.001458
0.000410
0.000206
0.000212
0.000224
0.000245
0.000251
0.000256
0.000243
0.000275
0.000267
0.000271
0.000247
0.000384
0.000437
0.000380
0.001346
0.000295
0.000205
0.000261
0.000277
0.000241
0.000407
0.000550
0.000369
0.000289
0.000298
0.000239
0.000415
0.000058
0.000213
0.000199
0.000263
0.000254
0.001576
0.000236
0.000257
0.000243
0.000254
0.000260
0.000249
0.000267
0.000257
0.000244
0.000352
0.000583
0.001458
0.000726
0.000249
0.000320
0.000240
0.000228
0.000223
0.000291
0.001729
0.000744
0.000252
0.000239
0.000281
0.000285
0.000207
0.000059
0.000170
0.000213
0.000251
0.000250
0.000248
0.000245
0.000245
0.000257
0.000245
0.000228
0.000284
0.000281
0.000260
0.000254
0.000257
0.000266
0.000254
0.001602
0.000692
0.000396
0.000323
0.000239
0.000211
0.000288
0.000264
0.000262
0.000277
0.000250
0.001503
0.000338
0.000296
0.000057
0.000189
0.000213
0.000237
0.000255
0.000252
0.000235
0.000250
0.000255
0.000248
0.000273
0.000253
0.000437
0.000455
0.000345
0.000209
0.000230
0.000255
0.001470
0.000680
0.000417
0.000323
0.000316
0.000216
0.000238
0.000260
0.000266
0.000252
0.000263
0.001484
0.000445
0.000225
0.000056
0.000210
0.000192
0.000243
0.000252
0.000247
0.000243
0.000244
0.000251
0.000262
0.000262
0.000379
0.000352
0.000343
0.000234
0.000240
0.000248
0.000280
0.000237
0.001570
0.000601
0.000483
0.000353
0.000219
0.000246
0.000273
0.000244
0.000268
0.000274
0.000271
0.001429
0.000309
0.000057
0.000221
0.000203
0.000225
0.000269
0.000241
0.000242
0.000291
0.000352
0.000365
0.000445
0.000498
0.000199
0.000357
0.000207
0.000239
0.000238
0.000276
0.000262
0.001388
0.000888
0.000313
0.000211
0.000478
0.000208
0.000225
0.000237
0.000277
0.000266
0.000261
0.000275
0.000400
0.000058
0.000210
0.000297
0.000204
0.000239
0.000245
0.000258
0.000235
0.000255
0.000238
0.000255
0.000247
0.000236
0.000254
0.000491
0.000451
0.000462
0.000210
0.000261
0.000259
0.000243
0.000260
0.000366
0.001382
0.001060
0.000248
0.000222
0.000268
0.000272
0.000282
0.000243
0.000216
0.000058
0.000175
0.001396
0.000277
0.000201
0.000189
0.000257
0.000251
0.000242
0.000232
0.000254
0.000253
0.000264
0.000241
0.000419
0.000336
0.000484
0.000283
0.000208
0.000264
0.000269
0.000267
0.000234
0.000263
0.000262
0.001403
0.000671
0.000306
0.000398
0.000370
0.000397
0.000263
0.000058
0.000190
0.000198
0.000369
0.001318
0.000233
0.000261
0.000200
0.000255
0.000252
0.000267
0.000248
0.000240
0.000288
0.000326
0.000568
0.000357
0.000219
0.000301
0.000277
0.000213
0.000240
0.000272
0.000244
0.000267
0.000259
0.001539
0.000758
0.000287
0.000273
0.000273
0.000210
0.000058
0.000198
0.000250
0.000440
0.000407
0.001294
0.000243
0.000204
0.000197
0.000246
0.000239
0.000264
0.000236
0.000240
0.000232
0.000252
0.000255
0.000272
0.000237
0.000250
0.000256
0.000266
0.000278
0.000327
0.000301
0.000239
0.000241
0.000249
0.001537
0.000237
0.000219
0.000164
0.000057
0.000185
0.000213
0.000249
0.000336
0.000357
0.000328
0.000406
0.000250
0.001556
0.000289
0.000237
0.000502
0.000397
0.000189
0.000490
0.000229
0.000219
0.000230
0.000262
0.000271
0.000283
0.000267
0.000261
0.000265
0.000250
0.000428
0.000446
0.000327
0.001527
0.000252
0.000177
0.000059
0.000199
0.000221
0.000245
0.000242
0.000249
0.000240
0.000265
0.000333
0.000412
0.002077
0.000210
0.000206
0.000242
0.000260
0.000261
0.000336
0.000245
0.000215
0.000255
0.000420
0.000368
0.000448
0.001529
0.000220
0.000225
0.000499
0.001765
0.000283
0.000265
0.001492
0.000189
0.000057
0.000368
0.000335
0.000479
0.000237
0.000265
0.000226
0.000255
0.000263
0.000268
0.000238
0.000250
0.000319
0.000421
0.000355
0.000492
0.000209
0.000220
0.001550
0.000498
0.001996
0.000288
0.000264
0.000216
0.001594
0.001993
0.000739
0.000282
0.000205
0.000324
0.000409
0.000360
0.000057
0.000178
0.000216
0.000250
0.000252
0.001490
0.001665
0.001084
0.000225
0.000203
0.001591
0.001971
0.000230
0.000316
0.000404
0.000265
0.000497
0.000298
0.000397
0.000252
0.000240
0.000239
0.000264
0.000266
0.001571
0.001288
0.001428
0.000264
0.000242
0.000264
0.000309
0.000381
0.000057
0.000270
0.000185
0.000208
0.000233
0.000233
0.000239
0.000248
0.000255
0.000259
0.000245
0.000242
0.000279
0.000474
0.000500
0.000317
0.000214
0.000215
0.000292
0.000247
0.000262
0.000252
0.001377
0.000479
0.000441
0.002074
0.000261
0.000236
0.000360
0.000450
0.000434
0.000152
0.000058
0.000206
0.000289
0.000494
0.000319
0.000224
0.000204
0.000231
0.000273
0.000237
0.000237
0.000249
0.000283
0.000238
0.001614
0.001419
0.001222
0.000271
0.000241
0.000210
0.000242
0.000282
0.000285
0.000261
0.000242
0.002270
0.000225
0.000207
0.000292
0.000323
0.000296
0.000249
0.000057
0.000204
0.000366
0.000596
0.000337
0.000206
0.000200
0.000227
0.000279
0.001881
0.001424
0.000260
0.000381
0.000392
0.000361
0.000263
0.000210
0.000228
0.000273
0.000259
0.000283
0.000251
0.000250
0.000486
0.000224
0.000272
0.000281
0.000241
0.000279
0.000277
0.000246
0.000225
0.000057
0.000190
0.000231
0.000248
0.000240
0.000248
0.000270
0.001530
0.001510
0.001337
0.000205
0.000206
0.000214
0.000267
0.000261
0.000249
0.000255
0.000246
0.002181
0.000218
0.000211
0.000252
0.000261
0.000258
0.000264
0.000266
0.000253
0.000273
0.000259
0.000282
0.000245
0.000197
0.000059
0.001508
0.000310
0.002441
0.000197
0.000300
0.000299
0.000242
0.000259
0.000266
0.000236
0.000257
0.000250
0.000234
0.000240
0.000266
0.000255
0.000280
0.000257
0.000259
0.000271
0.000265
0.000276
0.000275
0.000269
0.000244
0.000250
0.000257
0.000278
0.000258
0.000266
0.000398
0.000057
0.000204
0.002569
0.000330
0.000202
0.000193
0.000216
0.000252
0.000252
0.000253
0.000258
0.000393
0.000370
0.000332
0.000269
0.000210
0.002208
0.000221
0.000218
0.000237
0.000500
0.000438
0.000288
0.000204
0.000244
0.000265
0.000253
0.000260
0.000276
0.000271
0.001695
0.001196
0.000058
0.000202
0.000204
0.000295
0.000360
0.000398
0.000261
0.000237
0.000216
0.000243
0.000257
0.000264
0.000243
0.000252
0.000243
0.000258
0.000239
0.000294
0.000632
0.000416
0.000248
0.000219
0.000240
0.000277
0.000263
0.000252
0.000240
0.000264
0.000278
0.000243
0.000275
0.000430
0.000057
0.001119
0.000202
0.000330
0.000552
0.000267
0.000198
0.000196
0.000234
0.002367
0.000310
0.000303
0.000366
0.000199
0.000292
0.000336
0.000268
0.000272
0.000248
0.000262
0.000241
0.000247
0.000270
0.000589
0.000543
0.001797
0.001323
0.000542
0.000527
0.000244
0.000243
0.000219
0.000057
0.000223
0.000364
0.000245
0.000226
0.000243
0.000240
0.000238
0.000246
0.000266
0.000247
0.000250
0.000247
0.000241
0.000242
0.000451
0.000466
0.001891
0.001329
0.000444
0.000363
0.000453
0.000242
0.000273
0.000241
0.002221
0.000459
0.000369
0.000246
0.000277
0.000279
0.000210
0.000056
0.000196
0.000232
0.000249
0.000244
0.000248
0.000300
0.000473
0.000290
0.000336
0.000238
0.000226
0.000285
0.000233
0.002096
0.000325
0.000424
0.000225
0.000245
0.000265
0.000258
0.000251
0.002459
0.000364
0.000210
0.000247
0.000259
0.000245
0.000278
0.000275
0.000289
0.000207
0.000057
0.000201
0.000446
0.000508
0.000350
0.000222
0.000213
0.000200
0.000248
0.000267
0.001939
0.000364
0.000376
0.000268
0.000246
0.000191
0.000258
0.000271
0.000247
0.002267
0.000390
0.000226
0.000258
0.000264
0.000264
0.000259
0.000245
0.000291
0.000251
0.000264
0.000264
0.000199
0.000057
0.000167
0.000221
0.000257
0.000217
0.000242
0.000257
0.000244
0.000244
0.000255
0.002160
0.000236
0.000279
0.000214
0.000482
0.000209
0.000211
0.000267
0.000280
0.000258
0.000261
0.002038
0.000245
0.000371
0.000364
0.000500
0.000334
0.000283
0.000250
0.000243
0.000234
0.000216
0.000056
0.000181
0.000219
0.000242
0.000242
0.000243
0.000394
0.000200
0.002335
0.000216
0.000219
0.000230
0.000257
0.000241
0.000242
0.000301
0.002196
0.000528
0.000212
0.000255
0.000246
0.000261
0.000263
0.000278
0.000273
0.000258
0.000256
0.000288
0.000256
0.000269
0.000304
0.000170
0.000057
0.000175
0.003023
0.000232
0.000216
0.000246
0.000248
0.000253
0.000318
0.000370
0.000405
0.002104
0.000263
0.000237
0.000262
0.000260
0.000432
0.000544
0.000294
0.000223
0.000212
0.000248
0.000262
0.000260
0.000244
0.000247
0.000269
0.000268
0.000261
0.000304
0.000697
0.000330
0.000057
0.000205
0.000273
0.000276
0.000203
0.000236
0.000249
0.000244
0.000252
0.001626
0.002039
0.000517
0.000271
0.000391
0.000787
0.000350
0.000229
0.000193
0.000246
0.000261
0.000261
0.000258
0.000241
0.000245
0.000274
0.001830
0.001445
0.000289
0.000276
0.000311
0.000324
0.000401
0.000058
0.001932
0.000234
0.000228
0.000209
0.000261
0.000397
0.000492
0.000268
0.000315
0.000235
0.000211
0.000204
0.000259
0.000255
0.000260
0.000269
0.000244
0.000266
0.001912
0.000230
0.000183
0.000262
0.000265
0.000273
0.000275
0.000260
0.001535
0.000349
0.000212
0.000216
0.000177
0.000056
0.000189
0.000192
0.000241
0.000237
0.000257
0.000238
0.000271
0.000402
0.000366
0.000404
0.000200
0.000219
0.000325
0.000329
0.000379
0.000330
0.000221
0.000216
0.000261
0.000343
0.000613
0.000370
0.000233
0.000212
0.000266
0.000246
0.000255
0.000287
0.000256
0.000270
0.000219
0.000056
0.001441
0.000403
0.000229
0.002016
0.000299
0.000383
0.000364
0.000382
0.000198
0.000209
0.000267
0.000248
0.000249
0.000252
0.000261
0.000276
0.000441
0.000355
0.000402
0.000279
0.000404
0.000205
0.000260
0.000260
0.000331
0.000236
0.000252
0.000254
0.000314
0.000597
0.001335
0.000057
0.000178
0.000214
0.002075
0.000302
0.000299
0.000258
0.000258
0.000258
0.000263
0.000246
0.000228
0.000249
0.000253
0.000261
0.000257
0.000349
0.000731
0.001721
0.000269
0.000245
0.000273
0.000243
0.000394
0.000468
0.001536
0.000261
0.000363
0.002007
0.000236
0.000245
0.000185
0.000057
0.000210
0.000211
0.000224
0.000262
0.000234
0.000232
0.000250
0.000279
0.000343
0.000292
0.000381
0.000370
0.000332
0.000301
0.000214
0.000264
0.000256
0.000240
0.000264
0.000267
0.000309
0.000276
0.000254
0.000261
0.000278
0.001571
0.000289
0.000401
0.001987
0.000271
0.000162
0.000056
0.000191
0.000222
0.000235
0.000246
0.000468
0.000232
0.000255
0.000332
0.000366
0.000372
0.000227
0.000229
0.000242
0.000273
0.000275
0.000330
0.000515
0.000331
0.000263
0.000375
0.000596
0.000355
0.001623
0.000262
0.000248
0.002015
0.000345
0.000215
0.000222
0.000270
0.000199
0.000058
0.000195
0.000215
0.000217
0.000240
0.000263
0.000258
0.000254
0.000274
0.000245
0.000250
0.001894
0.000273
0.000398
0.000328
0.000459
0.000362
0.001512
0.000344
0.000229
0.000291
0.002002
0.000678
0.000228
0.000259
0.000215
0.000244
0.000500
0.000233
0.000263
0.000261
0.000217
0.000058
0.000260
0.000353
0.000401
0.000253
0.000218
0.000223
0.000253
0.000263
0.000257
0.000303
0.000220
0.000247
0.000258
0.000263
0.000371
0.000401
0.001364
0.000264
0.000311
0.001926
0.000373
0.000274
0.000207
0.000258
0.000247
0.000267
0.000266
0.000269
0.000242
0.000269
0.000221
0.000059
0.000247
0.000504
0.001981
0.000216
0.000240
0.000251
0.000198
0.000385
0.000335
0.001587
0.000263
0.000369
0.000334
0.002003
0.000228
0.000239
0.000261
0.000280
0.000255
0.000240
0.000280
0.000292
0.000262
0.000323
0.000525
0.000410
0.000326
0.002168
0.000508
0.000504
0.000409
0.000057
0.000218
0.000212
0.000216
0.002037
0.000199
0.000218
0.000233
0.000270
0.000203
0.000250
0.000248
0.000259
0.000255
0.000277
0.000523
0.000400
0.001246
0.000238
0.000269
0.000260
0.000229
0.000252
0.000273
0.000257
0.000347
0.000467
0.000444
0.000254
0.001676
0.000224
0.000145
0.000061
0.000198
0.000211
0.000227
0.000228
0.000255
0.000252
0.000250
0.000253
0.000273
0.000338
0.000363
0.001504
0.000200
0.000212
0.000242
0.000241
0.000267
0.000250
0.000265
0.000554
0.000343
0.000486
0.000217
0.001566
0.000260
0.000240
0.000269
0.000284
0.000276
0.000257
0.000205
0.000058
0.000182
0.000214
0.000263
0.000266
0.000253
0.000246
0.000235
0.000241
0.000258
0.000259
0.000230
0.000256
0.000256
0.000249
0.001582
0.000239
0.000242
0.000267
0.000335
0.000316
0.000364
0.000291
0.000193
0.000252
0.000238
0.000271
0.001468
0.000295
0.000210
0.000227
0.000179
0.000058
0.000182
0.000231
0.000237
0.000264
0.000273
0.000215
0.000254
0.000263
0.000214
0.000264
0.000245
0.000264
0.000227
0.000397
0.000286
0.000371
0.000287
0.001579
0.000333
0.000217
0.000218
0.000223
0.000261
0.000348
0.000413
0.000415
0.000406
0.000236
0.000229
0.001592
0.000184
0.000058
0.000442
0.000246
0.000336
0.000314
0.000202
0.000214
0.000247
0.000259
0.000257
0.000246
0.000233
0.000243
0.001454
0.000336
0.000305
0.000212
0.000219
0.000255
0.000270
0.000267
0.000257
0.000238
0.000262
0.000274
0.000241
0.000418
0.000448
0.000362
0.000281
0.000219
0.000194
0.000057
0.000209
0.000253
0.000470
0.000337
0.000366
0.000246
0.000219
0.000249
0.000253
0.000249
0.000243
0.000232
0.000247
0.000251
0.001327
0.000298
0.000204
0.000221
0.000252
0.000274
0.000252
0.000245
0.000261
0.000265
0.000247
0.000266
0.000281
0.000728
0.000470
0.000231
0.000174
0.000057
0.000192
0.001533
0.000293
0.000270
0.000603
0.000291
0.000196
0.000243
0.000265
0.000247
0.000246
0.000256
0.000275
0.000272
0.000263
0.001512
0.000263
0.000278
0.000267
0.000257
0.000265
0.000247
0.000263
0.000260
0.000266
0.000258
0.000443
0.000390
0.000380
0.000248
0.000151
0.000058
0.000185
0.000225
0.000241
0.001697
0.000411
0.000334
0.000201
0.000227
0.000221
0.000271
0.000278
0.000260
0.000251
0.000260
0.000233
0.000268
0.000424
0.001364
0.000234
0.000201
0.001536
0.000279
0.000597
0.000416
0.000302
0.000212
0.000261
0.000459
0.000251
0.000250
0.000190
0.000056
0.000293
0.000216
0.000223
0.000235
0.000242
0.000261
0.000238
0.000252
0.000260
0.000236
0.000255
0.000256
0.000344
0.000496
0.001643
0.001475
0.000388
0.000497
0.000349
0.000243
0.000234
0.000258
0.000243
0.000265
0.000247
0.000269
0.000262
0.000263
0.001606
0.000310
0.000143
0.000057
0.000223
0.000343
0.000350
0.000334
0.000262
0.000195
0.000235
0.000300
0.000510
0.001369
0.000357
0.001552
0.000337
0.000445
0.000492
0.000263
0.000346
0.000333
0.000348
0.000275
0.000235
0.000353
0.001562
0.000529
0.000252
0.000243
0.000250
0.000248
0.000263
0.000268
0.000212
0.000058
0.000198
0.000228
0.000256
0.000252
0.000241
0.001655
0.000955
0.000895
0.000244
0.000234
0.000259
0.000257
0.000254
0.000258
0.000260
0.000266
0.000244
0.000260
0.000263
0.000278
0.001504
0.000266
0.000257
0.000218
0.000220
0.000257
0.000285
0.000256
0.000266
0.000283
0.000198
0.000057
0.000192
0.000200
0.001542
0.001008
0.000316
0.000336
0.000210
0.000201
0.000243
0.000258
0.000242
0.000260
0.000247
0.002043
0.000478
0.000208
0.000201
0.000243
0.000259
0.000270
0.000215
