0.000109
0.020995
0.000727
0.000281
0.000219
0.000247
0.000297
0.000250
0.000331
0.000291
0.000243
0.000385
0.000497
0.000570
0.000299
0.000338
0.000274
0.000367
0.000398
0.000415
0.000308
0.001826
0.000530
0.000431
0.000275
0.000289
0.000312
0.000410
0.000414
0.000359
0.000532
0.000272
0.000057
0.000205
0.000231
0.000270
0.000259
0.000279
0.000259
0.000268
0.000257
0.000276
0.000279
0.000424
0.000482
0.000307
0.000301
0.000377
0.000380
0.000329
0.000248
0.000217
0.001730
0.000297
0.000229
0.000499
0.000249
0.000238
0.000262
0.000273
0.000298
0.000283
0.000317
0.000431
0.000057
0.000231
0.000232
0.000262
0.000264
0.000246
0.000255
0.000266
0.000248
0.000285
0.001673
0.000238
0.000237
0.000254
0.000271
0.000272
0.000247
0.000272
0.000248
0.000349
0.001798
0.000269
0.000250
0.000460
0.000464
0.000381
0.000241
0.000233
0.000520
0.000486
0.000786
0.000169
0.000057
0.000234
0.000212
0.000249
0.000238
0.000315
0.000261
0.000289
0.000529
0.000474
0.000270
0.000204
0.000217
0.000235
0.000264
0.000252
0.000273
0.000225
0.000270
0.000296
0.000349
0.001712
0.000252
0.000238
0.000476
0.000323
0.000630
0.000621
0.000516
0.000371
0.000231
0.000219
0.000055
0.000227
0.000219
0.000261
0.000257
0.000250
0.000259
0.000250
0.000515
0.001456
0.000218
0.000238
0.000225
0.000263
0.000246
0.000270
0.000287
0.000246
0.000819
0.001387
0.000285
0.000260
0.000420
0.000261
0.000241
0.000256
0.000251
0.000260
0.000278
0.000265
0.000265
0.000218
0.000056
0.000229
0.000215
0.000214
0.000238
0.000258
0.000239
0.000251
0.000251
0.000236
0.000255
0.001771
0.000201
0.000188
0.000238
0.000243
0.000237
0.000233
0.000260
0.000250
0.000253
0.000261
0.001750
0.000249
0.000249
0.000470
0.000230
0.000239
0.000239
0.000270
0.000260
0.000209
0.000056
0.000217
0.000202
0.000245
0.000247
0.000247
0.000242
0.000254
0.000250
0.000255
0.000247
0.000269
0.000251
0.000261
0.000274
0.001685
0.000244
0.000271
0.000234
0.000239
0.000273
0.000270
0.000238
0.000268
0.000256
0.000262
0.001851
0.000402
0.000332
0.000269
0.000276
0.000219
0.000056
0.000234
0.000199
0.000243
0.000267
0.000261
0.000231
0.000314
0.000378
0.000456
0.000401
0.000219
0.000231
0.000251
0.000253
0.001633
0.000525
0.000334
0.000371
0.000294
0.000211
0.000267
0.000277
0.000271
0.001807
0.000454
0.000529
0.000224
0.000235
0.000213
0.000262
0.000204
0.000057
0.000202
0.000229
0.000230
0.000264
0.000349
0.000414
0.000429
0.000272
0.000218
0.000211
0.000266
0.000249
0.000266
0.001675
0.000486
0.000318
0.000224
0.000242
0.000277
0.000270
0.000257
0.000261
0.000271
0.001885
0.000329
0.000385
0.000247
0.000246
0.000313
0.000395
0.000320
0.000056
0.000195
0.000426
0.000425
0.000161
0.000290
0.000207
0.000240
0.000262
0.000245
0.000241
0.000229
0.000246
0.001623
0.000334
0.000304
0.000218
0.000227
0.000243
0.000250
0.000278
0.000273
0.000354
0.001770
0.000353
0.000228
0.000503
0.000220
0.000214
0.000260
0.000265
0.000299
0.000057
0.000337
0.000555
0.000668
0.000199
0.000197
0.000271
0.000244
0.000211
0.000268
0.000245
0.000251
0.001704
0.000275
0.000402
0.000392
0.000212
0.000242
0.000224
0.000243
0.000265
0.000258
0.001852
0.000240
0.000252
0.002248
0.000421
0.000263
0.000265
0.000260
0.000253
0.000218
0.000056
0.000197
0.000211
0.000248
0.000241
0.000257
0.001698
0.000217
0.000194
0.000246
0.000274
0.000228
0.000240
0.000252
0.000258
0.000256
0.000409
0.000668
0.000233
0.000238
0.000262
0.000273
0.000256
0.000235
0.000499
0.000432
0.000273
0.000387
0.000556
0.000393
0.000215
0.000209
0.000057
0.000206
0.000213
0.000257
0.000253
0.000238
0.000242
0.000253
0.000498
0.000449
0.001565
0.000253
0.000219
0.000256
0.000247
0.000248
0.000271
0.000467
0.000499
0.000375
0.000225
0.000211
0.000275
0.000307
0.000293
0.000278
0.000412
0.000418
0.000505
0.000507
0.000471
0.000141
0.000058
0.000207
0.000254
0.000229
0.000221
0.000236
0.000241
0.000248
0.000245
0.000259
0.000356
0.000342
0.001563
0.000279
0.000209
0.000197
0.000218
0.000265
0.000254
0.000243
0.000255
0.000314
0.000444
0.000372
0.000344
0.000206
0.000253
0.000254
0.000273
0.000266
0.000257
0.000433
0.000056
0.000196
0.000216
0.000226
0.000265
0.000522
0.000439
0.000260
0.000241
0.000231
0.000261
0.000245
0.000247
0.000284
0.000263
0.000235
0.000535
0.000422
0.001587
0.000272
0.000243
0.000269
0.000248
0.000254
0.000257
0.000242
0.000458
0.000474
0.000415
0.000342
0.000235
0.000219
0.000056
0.000211
0.000245
0.000388
0.000227
0.000267
0.000243
0.000255
0.000608
0.000331
0.000313
0.000234
0.000264
0.000269
0.000249
0.000587
0.000291
0.000224
0.000228
0.000414
0.001699
0.000240
0.000217
0.000324
0.000417
0.000266
0.000294
0.000263
0.000306
0.000580
0.000383
0.000288
0.000056
0.000176
0.000219
0.000235
0.000240
0.000483
0.000256
0.000296
0.000210
0.000387
0.000533
0.000405
0.000228
0.000206
0.000220
0.000259
0.000264
0.000256
0.000263
0.000218
0.000372
0.000282
0.000642
0.001524
0.000255
0.000243
0.000246
0.000323
0.000361
0.000619
0.000538
0.000398
0.000056
0.000249
0.000315
0.000314
0.000423
0.000325
0.000209
0.000259
0.000278
0.000520
0.000427
0.000313
0.000205
0.000209
0.000266
0.000265
0.000247
0.000243
0.000294
0.000246
0.000260
0.000267
0.000436
0.001732
0.000318
0.000343
0.000431
0.000387
0.000227
0.000391
0.000396
0.000346
0.000057
0.000233
0.000377
0.000285
0.000209
0.000232
0.000213
0.000480
0.000210
0.000205
0.000347
0.000425
0.000445
0.000248
0.000254
0.000255
0.000290
0.000365
0.000435
0.000313
0.000214
0.000216
0.000319
0.000681
0.001695
0.000258
0.000402
0.000324
0.000252
0.000261
0.000447
0.000259
0.000058
0.000218
0.000207
0.000243
0.000250
0.000246
0.000248
0.000244
0.000349
0.000447
0.000255
0.000556
0.000317
0.000302
0.000207
0.000532
0.000262
0.000267
0.000277
0.000238
0.000348
0.000237
0.000221
0.000269
0.000419
0.000534
0.001673
0.000243
0.000235
0.000230
0.000257
0.000218
0.000057
0.000290
0.000465
0.000378
0.000216
0.000235
0.000221
0.000260
0.000230
0.000261
0.000251
0.000226
0.000494
0.000309
0.000447
0.000384
0.000309
0.000222
0.000241
0.000365
0.000366
0.000360
0.000377
0.000387
0.000356
0.000253
0.000212
0.000250
0.000277
0.001783
0.000275
0.000196
0.000057
0.000190
0.000203
0.000250
0.000268
0.000364
0.000536
0.000327
0.000236
0.000234
0.000264
0.000258
0.000240
0.000524
0.000450
0.000472
0.000306
0.000270
0.000245
0.000438
0.000497
0.000362
0.000427
0.000690
0.000216
0.000243
0.000239
0.000237
0.000226
0.000260
0.001780
0.000368
0.000056
0.000233
0.000325
0.000196
0.000228
0.000254
0.000246
0.000287
0.000448
0.000427
0.000302
0.000307
0.000332
0.000415
0.000595
0.000290
0.000201
0.000221
0.000238
0.000253
0.000269
0.000269
0.000272
0.000229
0.000277
0.000288
0.000382
0.000499
0.000339
0.000219
0.000212
0.000197
0.000057
0.000457
0.000296
0.000424
0.000268
0.000203
0.000235
0.000242
0.000255
0.000249
0.000220
0.000243
0.000276
0.000296
0.000369
0.000622
0.000370
0.000313
0.000369
0.000369
0.000391
0.000264
0.000217
0.000225
0.000251
0.001816
0.000227
0.001757
0.000929
0.000352
0.000373
0.000144
0.000057
0.000211
0.000215
0.000235
0.000235
0.000259
0.000253
0.000249
0.000251
0.000256
0.000270
0.000433
0.000432
0.000373
0.000399
0.000241
0.000226
0.000264
0.000290
0.000220
0.000227
0.000253
0.000237
0.001806
0.000274
0.000219
0.000263
0.000276
0.000268
0.001867
0.000530
0.000282
0.000056
0.000232
0.000196
0.000215
0.000242
0.000250
0.000248
0.000248
0.000256
0.000248
0.000395
0.000531
0.000334
0.000385
0.000243
0.000216
0.000284
0.000381
0.000392
0.000377
0.000250
0.001803
0.000236
0.000225
0.000235
0.000252
0.000266
0.000245
0.000265
0.000246
0.000352
0.000440
0.000056
0.000231
0.000220
0.000200
0.000270
0.000243
0.000237
0.000260
0.000249
0.000239
0.000263
0.000237
0.000368
0.000290
0.000426
0.000296
0.000332
0.000481
0.000207
0.000220
0.000247
0.000268
0.000249
0.000278
0.000259
0.000275
0.001787
0.000288
0.000223
0.000253
0.000238
0.000226
0.000056
0.000248
0.000376
0.000235
0.000202
0.000230
0.000236
0.000235
0.000267
0.000238
0.000226
0.000228
0.000266
0.000260
0.000301
0.000496
0.000376
0.000338
0.000198
0.000217
0.000239
0.000262
0.000254
0.000256
0.000264
0.000259
0.000257
0.000272
0.001736
0.000237
0.000222
0.000187
0.000056
0.000191
0.000222
0.000249
0.000278
0.000336
0.000361
0.000440
0.000291
0.000212
0.000257
0.000236
0.000240
0.000252
0.000253
0.000258
0.000258
0.000247
0.000260
0.000253
0.000255
0.000261
0.000276
0.000261
0.000234
0.000232
0.000282
0.000275
0.000272
0.000245
0.000259
0.000216
0.000057
0.000193
0.000204
0.000252
0.000248
0.000248
0.000247
0.000241
0.000259
0.000360
0.000212
0.000195
0.000239
0.000250
0.000253
0.000264
0.000268
0.000247
0.000258
0.000362
0.000202
0.000250
0.000292
0.000276
0.000263
0.000263
0.000281
0.000265
0.000248
0.000265
0.000432
0.000706
0.000055
0.000233
0.000302
0.000220
0.000200
0.000216
0.000253
0.000236
0.000254
0.000251
0.000247
0.000259
0.000307
0.000471
0.000491
0.001593
0.000215
0.000512
0.000199
0.000225
0.000440
0.000440
0.000387
0.000240
0.000264
0.000262
0.000256
0.000277
0.000261
0.000298
0.000266
0.000204
0.000056
0.000277
0.000463
0.000380
0.000298
0.000208
0.000238
0.000253
0.000250
0.000228
0.000254
0.000248
0.000257
0.000234
0.000282
0.000409
0.000450
0.000355
0.001800
0.000260
0.000237
0.000346
0.000551
0.000286
0.000338
0.000368
0.000254
0.000303
0.000237
0.000217
0.000252
0.000216
0.000058
0.000187
0.000212
0.000241
0.000403
0.000365
0.000316
0.000348
0.000251
0.000255
0.000225
0.000244
0.000265
0.000285
0.000244
0.000247
0.000258
0.000313
0.000472
0.000364
0.000436
0.000233
0.001799
0.000296
0.000551
0.000474
0.000444
0.000297
0.000227
0.000244
0.000265
0.000508
0.000056
0.000195
0.000248
0.000232
0.000242
0.000497
0.000397
0.000467
0.000195
0.000212
0.000320
0.000230
0.000226
0.000253
0.000381
0.000288
0.000205
0.000235
0.000379
0.000378
0.000419
0.000544
0.001781
0.000250
0.000412
0.000527
0.000365
0.000237
0.000367
0.000242
0.000211
0.000223
0.000056
0.000224
0.000340
0.000342
0.000305
0.000377
0.000327
0.000364
0.000204
0.000226
0.000263
0.000278
0.000240
0.000234
0.000250
0.000252
0.000280
0.000286
0.000356
0.000550
0.000360
0.000326
0.000203
0.000257
0.001796
0.000512
0.000311
0.000711
0.000276
0.000251
0.000280
0.000187
0.000056
0.000189
0.000214
0.000320
0.000271
0.000263
0.000397
0.000382
0.000316
0.000614
0.000218
0.000200
0.000222
0.000238
0.000274
0.000275
0.000276
0.000239
0.000313
0.000545
0.000355
0.000266
0.000237
0.000255
0.000256
0.000264
0.000269
0.000236
0.000255
0.000258
0.000368
0.000172
0.000057
0.000172
0.000348
0.000211
0.000238
0.000249
0.000259
0.000246
0.000354
0.000212
0.000216
0.000256
0.000339
0.000427
0.000482
0.000262
0.000294
0.000225
0.000236
0.000247
0.000258
0.000278
0.000283
0.000234
0.000258
0.000269
0.000331
0.000444
0.000367
0.000366
0.000224
0.000158
0.000055
0.000189
0.000196
0.000276
0.000246
0.000245
0.000246
0.000259
0.000254
0.000494
0.000248
0.000226
0.000252
0.000252
0.000247
0.000269
0.000271
0.000274
0.000352
0.000258
0.000213
0.000244
0.000273
0.000258
0.000278
0.000259
0.000262
0.000273
0.000249
0.000250
0.000516
0.000165
0.000056
0.000186
0.000206
0.000248
0.000257
0.000250
0.000233
0.000314
0.000440
0.000255
0.000226
0.000254
0.000262
0.000234
0.000287
0.000485
0.001713
0.000252
0.000246
0.000303
0.000384
0.000411
0.000347
0.000394
0.000369
0.000383
0.000350
0.000244
0.000275
0.000268
0.000267
0.001420
0.000055
0.000376
0.000314
0.000317
0.000198
0.000202
0.000238
0.000230
0.000253
0.000248
0.000259
0.000253
0.000255
0.000254
0.000318
0.000507
0.001715
0.000209
0.000215
0.000216
0.000259
0.000248
0.000249
0.000384
0.000443
0.000243
0.000328
0.000259
0.000244
0.000280
0.000253
0.000208
0.000056
0.001205
0.000556
0.000318
0.000312
0.000197
0.000199
0.000211
0.000245
0.000461
0.000247
0.000237
0.000235
0.000339
0.000618
0.000316
0.000326
0.000296
0.000246
0.000364
0.000342
0.000230
0.000241
0.000273
0.000230
0.000274
0.000627
0.000494
0.000303
0.000224
0.000276
0.000183
0.000057
0.000227
0.000196
0.000217
0.000253
0.001531
0.000275
0.000200
0.000234
0.000243
0.000255
0.000248
0.000265
0.000231
0.000257
0.000271
0.000291
0.000429
0.000667
0.000269
0.001810
0.000248
0.000284
0.000359
0.000367
0.000474
0.000442
0.000238
0.000232
0.000252
0.000271
0.000219
0.000056
0.000206
0.000263
0.000206
0.001314
0.000343
0.000195
0.000255
0.000217
0.000235
0.000237
0.000242
0.000246
0.000283
0.000246
0.000242
0.000275
0.000625
0.000344
0.000319
0.000220
0.000243
0.000270
0.000259
0.000230
0.000354
0.000219
0.000217
0.000283
0.000266
0.000313
0.000658
0.000056
0.000204
0.000230
0.000240
0.000258
0.000258
0.000250
0.000234
0.000265
0.000264
0.000251
0.001431
0.000241
0.000228
0.000247
0.000258
0.000237
0.000268
0.000257
0.000278
0.000258
0.000264
0.000543
0.000491
0.000294
0.000248
0.000264
0.001842
0.000220
0.000268
0.000334
0.000371
0.000057
0.000269
0.000422
0.000458
0.000510
0.000522
0.000525
0.001483
0.000417
0.000549
0.000646
0.000554
0.000688
0.000510
0.000621
0.000589
0.001713
0.000458
0.000460
0.000388
0.000312
0.000250
0.000296
0.000287
0.000263
0.000276
0.000275
0.000319
0.000267
0.000250
0.000295
0.001318
0.000055
0.000231
0.000249
0.000211
0.000247
0.000241
0.000245
0.000244
0.000252
0.000236
0.000282
0.000234
0.000277
0.000224
0.000256
0.000267
0.000266
0.001838
0.000257
0.000264
0.000248
0.000263
0.000254
0.000270
0.000320
0.000448
0.000346
0.000309
0.000255
0.000266
0.000288
0.000164
0.000057
0.000216
0.001379
0.000270
0.000262
0.000262
0.000232
0.000256
0.000246
0.000265
0.000227
0.000244
0.000242
0.000282
0.000401
0.000293
0.000353
0.000266
0.000285
0.001916
0.000252
0.000259
0.000258
0.000258
0.000259
0.000275
0.000265
0.000282
0.000239
0.000259
0.000297
0.000241
0.000076
0.000167
0.000258
0.000223
0.001424
0.000257
0.000274
0.000224
0.000220
0.000238
0.000259
0.000257
0.000248
0.000237
0.000256
0.000288
0.000251
0.000248
0.000254
0.000275
0.000264
0.000243
0.001863
0.000256
0.001768
0.000246
0.000257
0.000249
0.000222
0.000268
0.000292
0.000204
0.000056
0.000209
0.000247
0.001373
0.000218
0.000286
0.000213
0.000214
0.000245
0.000247
0.000246
0.000253
0.000248
0.000254
0.000263
0.000256
0.000268
0.000250
0.000284
0.000289
0.000254
0.001872
0.000272
0.001789
0.000269
0.000265
0.000242
0.000256
0.000273
0.000274
0.000244
0.000192
0.000056
0.001441
0.000231
0.000250
0.000220
0.000210
0.000231
0.000274
0.000356
0.000257
0.000256
0.000245
0.000261
0.000249
0.000369
0.000459
0.000270
0.000249
0.000272
0.000226
0.000231
0.000260
0.000320
0.000282
0.000261
0.000247
0.000275
0.000261
0.000324
0.000723
0.000349
0.000178
0.000057
0.000213
0.000283
0.000263
0.000320
0.000348
0.000278
0.001651
0.000305
0.000281
0.000256
0.000267
0.000301
0.000265
0.000264
0.000301
0.000309
0.000554
0.000302
0.000402
0.000264
0.000322
0.000282
0.000255
0.000270
0.000344
0.000245
0.000259
0.000244
0.000239
0.000304
0.000447
0.000057
0.000297
0.000381
0.000264
0.000269
0.000252
0.000231
0.000243
0.000227
0.000259
0.000263
0.001490
0.000251
0.000224
0.000238
0.000243
0.000291
0.000263
0.000251
0.000265
0.000260
0.000263
0.000353
0.000547
0.000396
0.000217
0.000294
0.000256
0.000254
0.000239
0.000238
0.000250
0.000056
0.000209
0.000190
0.000282
0.000436
0.000420
0.000249
0.000207
0.000245
0.000257
0.000265
0.000233
0.000244
0.000259
0.000286
0.000213
0.000243
0.000462
0.001216
0.000225
0.000246
0.000233
0.000245
0.000364
0.000511
0.000190
0.000245
0.000609
0.000462
0.000303
0.000242
0.000157
0.000056
0.000198
0.000228
0.000262
0.000260
0.000334
0.000174
0.000343
0.000445
0.000484
0.000272
0.000362
0.000400
0.000394
0.000351
0.000246
0.000208
0.000224
0.000243
0.000428
0.000501
0.001194
0.000246
0.000251
0.000275
0.000233
0.000237
0.000260
0.000344
0.000369
0.000517
0.000248
0.000057
0.000187
0.000214
0.000246
0.000241
0.000247
0.000251
0.000239
0.000251
0.000260
0.000546
0.000382
0.000364
0.000219
0.000207
0.000218
0.000266
0.000242
0.000269
0.000260
0.000534
0.000219
0.000204
0.000408
0.000396
0.000322
0.000235
0.000245
0.000282
0.000249
0.000280
0.000238
0.000057
0.000282
0.000299
0.000302
0.000388
0.000577
0.000269
0.000242
0.000231
0.000228
0.000259
0.000257
0.000267
0.000239
0.000252
0.000245
0.000223
0.000268
0.000412
0.000493
0.000344
0.000225
0.000263
0.000210
0.000246
0.000268
0.000268
0.000276
0.000274
0.000265
0.000274
0.000279
0.000057
0.000229
0.000345
0.000237
0.000221
0.000249
0.000243
0.000253
0.000255
0.000258
0.000256
0.000253
0.000241
0.000309
0.000539
0.000423
0.000307
0.000206
0.000207
0.000257
0.000262
0.000277
0.000239
0.000267
0.000268
0.000263
0.000281
0.000473
0.000599
0.000467
0.000221
0.000144
0.000056
0.000368
0.000207
0.000188
0.000259
0.000250
0.000237
0.000243
0.000245
0.000261
0.000258
0.000220
0.000247
0.000263
0.000236
0.000234
0.000260
0.000260
0.000254
0.000278
0.000266
0.000267
0.000253
0.000265
0.000257
0.000278
0.000272
0.000229
0.000275
0.000261
0.000277
0.000219
0.000058
0.000178
0.000208
0.000255
0.000253
0.000231
0.000243
0.000263
0.000243
0.000261
0.000280
0.000231
0.000226
0.000271
0.000396
0.000239
0.000285
0.000256
0.000267
0.000261
0.000277
0.000272
0.000236
0.000248
0.000285
0.000232
0.000283
0.000244
0.000257
0.000264
0.000264
0.000228
0.000057
0.000256
0.000376
0.000348
0.000283
0.000328
0.000209
0.000204
0.000251
0.000250
0.000234
0.000237
0.000266
0.000255
0.000227
0.000259
0.000264
0.000262
0.000266
0.000250
0.000265
0.000272
0.000271
0.000274
0.000254
0.000269
0.000288
0.000241
0.000283
0.000237
0.000267
0.000207
0.000057
0.000179
0.000221
0.000247
0.000268
0.000247
0.000457
0.000209
0.000256
0.000253
0.000446
0.000497
0.000344
0.000196
0.000244
0.000249
0.000273
0.000232
0.000267
0.000284
0.000249
0.000262
0.000266
0.000274
0.000227
0.000498
0.000660
0.000199
0.000270
0.000272
0.000261
0.000202
0.000080
0.000185
0.000196
0.000246
0.000257
0.000284
0.000741
0.000262
0.000371
0.000236
0.000225
0.000260
0.000246
0.000265
0.000258
0.000239
0.000269
0.000263
0.000260
0.000577
0.000440
0.000311
0.000227
0.000250
0.000286
0.000280
0.000260
0.000285
0.000241
0.000255
0.000335
0.000346
0.000056
0.000259
0.000239
0.000212
0.000235
0.000255
0.000257
0.000219
0.000257
0.000259
0.000230
0.000252
0.000246
0.000262
0.000390
0.000547
0.000456
0.000217
0.000230
0.000252
0.000255
0.000264
0.000273
0.000463
0.000261
0.000245
0.000670
0.000377
0.000436
0.000283
0.000245
0.000196
0.000056
0.000188
0.000218
0.000252
0.000221
0.000256
0.000262
0.000271
0.000571
0.000550
0.000359
0.000232
0.000246
0.000273
0.000277
0.000279
0.000229
0.000241
0.000250
0.000252
0.000380
0.000431
0.000505
0.000433
0.000278
0.000438
0.000348
0.000480
0.000206
0.000245
0.000353
0.000420
0.000057
0.000258
0.000219
0.000486
0.000193
0.000232
0.000231
0.000247
0.000281
0.000216
0.000238
0.000281
0.000390
0.000370
0.000380
0.000215
0.000241
0.000253
0.000230
0.000275
0.000271
0.000272
0.000257
0.000254
0.000274
0.000302
0.000511
0.000452
0.000263
0.000250
0.000268
0.000216
0.000056
0.000207
0.000240
0.000232
0.000258
0.000229
0.000246
0.000434
0.000355
0.000452
0.000279
0.000345
0.000245
0.000223
0.000264
0.000267
0.000230
0.000247
0.000277
0.000258
0.000458
0.000522
0.000263
0.000455
0.000347
0.000393
0.000391
0.000379
0.000249
0.000243
0.000318
0.000337
0.000056
0.000204
0.000254
0.000222
0.000245
0.000263
0.000252
0.000245
0.000250
0.000257
0.000258
0.000237
0.000431
0.000393
0.000399
0.000330
0.000251
0.000243
0.000263
0.000270
0.000232
0.000255
0.000248
0.000262
0.000283
0.000272
0.000433
0.000411
0.000443
0.000260
0.000271
0.000213
0.000057
0.000214
0.000217
0.000255
0.000248
0.000248
0.000369
0.000454
0.000585
0.000286
0.000667
0.000290
0.000229
0.000208
0.000261
0.000239
0.000273
0.000286
0.000283
0.000459
0.000579
0.001488
0.000245
0.000260
0.000255
0.000301
0.000226
0.000297
0.000497
0.000457
0.000230
0.000166
0.000057
0.000205
0.000205
0.000247
0.000252
0.000235
0.000252
0.000265
0.000264
0.000271
0.000337
0.000348
0.000363
0.000279
0.000386
0.000387
0.000331
0.000220
0.000218
0.000246
0.000266
0.000234
0.000260
0.000273
0.000264
0.000335
0.000534
0.000376
0.000258
0.000224
0.000268
0.000199
0.000056
0.000211
0.000234
0.000253
0.000250
0.000258
0.000225
0.000453
0.000238
0.000221
0.000258
0.000249
0.000243
0.000263
0.000255
0.000251
0.000275
0.000264
0.000258
0.000271
0.000260
0.000259
0.000325
0.000254
0.000257
0.000256
0.000269
0.000273
0.000272
0.000256
0.000274
0.000192
0.000057
0.000229
0.000205
0.000337
0.000492
0.000322
0.000246
0.000196
0.000251
0.000259
0.000246
0.000254
0.000242
0.000264
0.000261
0.000246
0.000232
0.000249
0.000270
0.000350
0.000267
0.000466
0.000376
0.000239
0.000245
0.000274
0.000252
0.000270
0.000252
0.000269
0.000280
0.000231
0.000056
0.000377
0.000426
0.000370
0.000225
0.000235
0.000258
0.000472
0.000201
0.000225
0.000222
0.000289
0.000327
0.000368
0.000448
0.001766
0.000258
0.000257
0.000238
0.000272
0.000257
0.000301
0.000480
0.000628
0.000297
0.000239
0.000231
0.000275
0.000417
0.000287
0.000282
0.000180
0.000057
0.000293
0.000314
0.000273
0.000330
0.000513
0.000208
0.000227
0.000249
0.000256
0.000238
0.000252
0.000258
0.000258
0.000300
0.000453
0.000469
0.000232
0.000225
0.000259
0.000258
0.000256
0.000318
0.000245
0.000273
0.000276
0.000460
0.000512
0.000375
0.000488
0.000236
0.000200
0.000057
0.000203
0.000200
0.000256
0.000219
0.000255
0.000247
0.000269
0.000268
0.000359
0.000373
0.000432
0.000366
0.000214
0.000229
0.000259
0.000273
0.000339
0.000218
0.000281
0.000268
0.000244
0.000287
0.000540
0.000354
0.000245
0.000269
0.000256
0.000515
0.000399
0.000286
0.000162
0.000057
0.000225
0.000207
0.000317
0.000448
0.000355
0.000226
0.000219
0.000260
0.000255
0.000257
0.000263
0.000258
0.000254
0.000229
0.000260
0.000273
0.000405
0.000366
0.000325
0.000340
0.000465
0.000232
0.000281
0.000270
0.000306
0.000279
0.000270
0.000256
0.000473
0.000499
0.000241
0.000056
0.000188
0.000202
0.000241
0.000252
0.000259
0.000466
0.000231
0.000225
0.000268
0.000305
0.000585
0.000517
0.000238
0.000238
0.000230
0.000255
0.000255
0.000246
0.000256
0.000253
0.000251
0.000272
0.000297
0.000571
0.000353
0.000325
0.000335
0.000345
0.000307
0.000228
0.000168
0.000056
0.000183
0.000220
0.000245
0.000486
0.000326
0.000377
0.000245
0.000213
0.000197
0.000252
0.000252
0.000248
0.000254
0.000255
0.000305
0.000215
0.000242
0.000251
0.000248
0.000383
0.000513
0.000433
0.000215
0.000240
0.000273
0.000280
0.000257
0.000258
0.000272
0.000254
0.000218
0.000057
0.000274
0.000404
0.000491
0.000207
0.000217
0.000212
0.000306
0.000524
0.000263
0.000204
0.000215
0.000281
0.000269
0.000428
0.000521
0.000274
0.000209
0.000212
0.000288
0.000203
0.000276
0.000270
0.000257
0.000277
0.000264
0.000274
0.000442
0.000425
0.000371
0.000196
0.000163
0.000056
0.000202
0.000214
0.000246
0.000252
0.000257
0.000256
0.000232
0.000258
0.000251
0.000248
0.000267
0.000233
0.000277
0.001446
0.000246
0.000237
0.000252
0.000254
0.000270
0.000279
0.000261
0.000242
0.000279
0.000272
0.000243
0.000266
0.000286
0.000259
0.000267
0.000258
0.000215
0.000056
0.000198
0.000230
0.000233
0.000250
0.000240
0.000235
0.000262
0.000258
0.000238
0.000249
0.000242
0.000262
0.000253
0.000257
0.000255
0.000264
0.000246
0.000258
0.000271
0.000258
0.000249
0.000257
0.000254
0.000250
0.001358
0.000269
0.000508
0.000491
0.000356
0.000222
0.000162
0.000057
0.000227
0.000198
0.000241
0.000543
0.000196
0.000236
0.000180
0.000225
0.000256
0.000397
0.000482
0.000345
0.000218
0.000200
0.000262
0.000232
0.000249
0.000267
0.000255
0.000258
0.000262
0.000246
0.000313
0.000393
0.000487
0.000453
0.000243
0.000250
0.001365
0.000268
0.000196
0.000056
0.000244
0.000405
0.000353
0.000257
0.000189
0.000215
0.000217
0.000248
0.000260
0.000261
0.000244
0.000255
0.000263
0.000397
0.000521
0.000339
0.000305
0.000238
0.000244
0.000263
0.000231
0.000257
0.000267
0.000273
0.000262
0.000265
0.000377
0.000493
0.000415
0.000384
0.000155
0.000056
0.000183
0.000242
0.001310
0.000353
0.000337
0.000414
0.000409
0.000297
0.000436
0.000387
0.000212
0.000217
0.000244
0.000250
0.000255
0.000259
0.000318
0.000553
0.000384
0.000343
0.000267
0.000240
0.000256
0.000509
0.000238
0.000263
0.000255
0.000271
0.000286
0.000609
0.000282
0.000056
0.000340
0.000384
0.000220
0.000213
0.001418
0.000643
0.000298
0.000228
0.000204
0.000250
0.000226
0.000238
0.000240
0.000268
0.000262
0.000260
0.000230
0.000326
0.000430
0.000367
0.000467
0.000222
0.000212
0.000246
0.000258
0.000275
0.000285
0.000225
0.000270
0.000273
0.000226
0.000056
0.000387
0.000280
0.000256
0.000226
0.000231
0.000248
0.000252
0.000249
0.000227
0.000256
0.001439
0.000479
0.000274
0.000204
0.000213
0.000260
0.000261
0.000268
0.000232
0.000295
0.000249
0.000259
0.000293
0.000363
0.000433
0.000481
0.000217
0.000255
0.000279
0.000281
0.000194
0.000056
0.000206
0.000457
0.000191
0.000206
0.000386
0.000390
0.000447
0.000265
0.000448
0.000216
0.000221
0.000244
0.000262
0.000263
0.000266
0.001430
0.000341
0.000282
0.000243
0.000269
0.000280
0.000252
0.000255
0.000260
0.000267
0.000266
0.000451
0.000424
0.000314
0.000292
0.000143
0.000056
0.000196
0.000208
0.000253
0.000241
0.000225
0.000264
0.000242
0.000244
0.000300
0.000435
0.000439
0.000284
0.000204
0.000206
0.000250
0.000267
0.000275
0.000263
0.000271
0.000227
0.000254
0.000265
0.001375
0.000224
0.000263
0.000218
0.000246
0.000264
0.000259
0.000258
0.000205
0.000056
0.000246
0.000299
0.000415
0.000347
0.000233
0.000211
0.000235
0.000264
0.000254
0.000252
0.000263
0.000262
0.000263
0.000231
0.000263
0.000263
0.000260
0.000274
0.000270
0.000246
0.000244
0.000272
0.000272
0.000275
0.000289
0.000271
0.000293
0.000232
0.000260
0.000534
0.001297
0.000056
0.000213
0.000214
0.000235
0.000244
0.000247
0.000264
0.000247
0.000221
0.000249
0.000260
0.000256
0.000261
0.000255
0.000242
0.000247
0.001707
0.000361
0.000225
0.000206
0.000232
0.000259
0.000249
0.000273
0.000264
0.000264
0.000267
0.000270
0.000276
0.000266
0.000254
0.000246
0.000056
0.000359
0.000304
0.001348
0.000213
0.000196
0.000217
0.000262
0.000247
0.000256
0.000261
0.000230
0.000347
0.000411
0.000508
0.000239
0.000209
0.000230
0.000255
0.000251
0.000267
0.000249
0.000270
0.000268
0.000276
0.000271
0.000410
0.000371
0.000362
0.000291
0.000254
0.000197
0.000056
0.000195
0.000232
0.000238
0.000246
0.000256
0.000234
0.000224
0.000281
0.000513
0.000407
0.001067
0.000238
0.000237
0.000274
0.000252
0.000264
0.000263
0.000258
0.000307
0.000442
0.000389
0.000250
0.000221
0.000243
0.000277
0.000272
0.000275
0.000297
0.000263
0.000281
0.000209
0.000056
0.000248
0.000408
0.000423
0.000224
0.000211
0.000210
0.000233
0.000265
0.000276
0.000251
0.000227
0.000541
0.000246
0.000478
0.000463
0.001464
0.000219
0.000295
0.000315
0.000355
0.000438
0.000427
0.000479
0.000382
0.000235
0.000256
0.000254
0.000289
0.000261
0.000276
0.000211
0.000056
0.000188
0.000267
0.000421
0.000594
0.000268
0.000217
0.000241
0.000234
0.000249
0.000250
0.000264
0.000252
0.000265
0.000244
0.000269
0.000332
0.000311
0.000497
0.000322
0.001312
0.000258
0.000269
0.000254
0.000467
0.000362
0.000380
0.000408
0.000204
0.000251
0.000268
0.000213
0.000056
0.000186
0.000222
0.000250
0.000234
0.000252
0.000280
0.000450
0.000380
0.000364
0.000246
0.000227
0.000256
0.000270
0.000260
0.000262
0.000269
0.000264
0.000249
0.000268
0.000366
0.000481
0.000400
0.000346
0.001327
0.000340
0.000244
0.000276
0.000430
0.000438
0.000342
0.000345
0.000057
0.000176
0.000211
0.000246
0.000250
0.000261
0.000244
0.001684
0.000264
0.000235
0.000204
0.000258
0.000251
0.000316
0.000325
0.000330
0.000282
0.000239
0.000356
0.000446
0.000446
0.000290
0.000266
0.000219
0.000238
0.001432
0.000478
0.000377
0.000463
0.000318
0.000300
0.000157
0.000075
0.000168
0.000241
0.000252
0.000257
0.000235
0.000261
0.001775
0.000213
0.000236
0.000259
0.000389
0.000411
0.001419
0.000328
0.000434
0.000196
0.000217
0.000247
0.000254
0.000273
0.001641
0.000642
0.000298
0.000270
0.000227
0.000220
0.000247
0.000278
0.000262
0.000258
0.000201
0.000056
0.000188
0.000218
0.000259
0.000245
0.000266
0.000268
0.000290
0.000254
0.000252
0.000244
0.000257
0.000269
0.000239
0.000267
0.000262
0.001486
0.000278
0.000250
0.000256
0.000278
0.000264
0.000265
0.000435
0.001273
0.000275
0.000231
0.000268
0.000252
0.000462
0.000223
0.000181
0.000056
0.000230
0.000209
0.000237
0.000227
0.000245
0.000225
0.000231
0.001761
0.000219
0.000210
0.000231
0.000375
0.000253
0.000192
0.001463
0.000252
0.000210
0.000222
0.000267
0.000255
0.000249
0.000305
0.000332
0.001370
0.000273
0.000231
0.000223
0.000250
0.001396
0.000277
0.000210
0.000057
0.000217
0.000350
0.000199
0.000209
0.000248
0.000252
0.000259
0.000263
0.000270
0.000245
0.000267
0.000303
0.000215
0.000243
0.000303
0.001499
0.000260
0.000256
0.000268
0.000243
0.000272
0.000268
0.000255
0.001484
0.000360
0.000258
0.000253
0.001352
0.000237
0.000216
0.000212
0.000056
0.000197
0.000370
0.000365
0.000206
0.000221
0.000237
0.000251
0.000267
0.000259
0.000272
0.000240
0.000266
0.000247
0.000313
0.000421
0.001244
0.000207
0.000216
0.000254
0.000280
0.000234
0.000239
0.000273
0.001268
0.000386
0.000227
0.000224
0.000246
0.000248
0.001342
0.000295
0.000057
0.000308
0.000261
0.000210
0.000213
0.000228
0.000247
0.000252
0.000247
0.000268
0.000255
0.000245
0.000263
0.000254
0.000304
0.000415
0.001482
0.000233
0.000244
0.000276
0.000519
0.000295
0.000346
0.001401
0.000292
0.000249
0.000259
0.001275
0.000374
0.000240
0.000533
0.000337
0.000056
0.000209
0.000240
0.000249
0.000262
0.000251
0.000251
0.000277
0.000247
0.000264
0.000278
0.000287
0.000539
0.001344
0.000216
0.000236
0.000256
0.000282
0.000265
0.000208
0.000220
0.000338
0.001317
0.000239
0.000235
0.000223
0.000236
0.001491
0.000449
0.000474
0.000247
0.000193
0.000057
0.000195
0.000207
0.000242
0.000240
0.000248
0.000264
0.000244
0.000248
0.000418
0.000498
0.000306
0.001445
0.000222
0.000233
0.000259
0.000265
0.000255
0.000319
0.001629
0.000310
0.000353
0.000365
0.001331
0.000363
0.000314
0.000345
0.000228
0.000213
0.000242
0.000277
0.000202
0.000055
0.000192
0.000217
0.000324
0.000258
0.000271
0.000558
0.000318
0.000330
0.001487
0.000300
0.000327
0.000246
0.000204
0.000298
0.000373
0.001377
0.000259
0.000223
0.000207
0.000241
0.000320
0.001605
0.000351
0.000280
0.000209
0.000237
0.000519
0.000305
0.000222
0.000232
0.000261
0.000055
0.000247
0.000521
0.000180
0.000301
0.000204
0.001450
0.000252
0.000240
0.000247
0.000269
0.000267
0.000249
0.000305
0.001479
0.000264
0.000229
0.000411
0.001276
0.000314
0.000428
0.000357
0.000241
0.000253
0.000245
0.000281
0.000249
0.000457
0.000228
0.000257
0.000276
0.000211
0.000057
0.000202
0.000254
0.000348
0.001435
0.000281
0.000196
0.000310
0.000248
0.000238
0.000253
0.000245
0.000258
0.001650
0.000202
0.000222
0.000212
0.001375
0.000355
0.000420
0.000406
0.000405
0.000215
0.000225
0.000236
0.000372
0.000236
0.000235
0.000247
0.000253
0.000252
0.000214
0.000057
0.000204
0.000365
0.001437
0.000235
0.000247
0.000269
0.000255
0.000242
0.000347
0.000360
0.001325
0.000260
0.000302
0.000240
0.001258
0.000349
0.000609
0.000298
0.000298
0.000409
0.000337
0.000235
0.000237
0.000231
0.000271
0.000290
0.000268
0.000324
0.000433
0.000462
0.001399
0.000057
0.000206
0.000245
0.000221
0.000221
0.000247
0.000397
0.000509
0.001349
0.000211
0.000220
0.000241
0.001516
0.000360
0.000328
0.000458
0.000250
0.000210
0.000211
0.000254
0.000267
0.000268
0.000253
0.000282
0.000264
0.000247
0.000282
0.000473
0.000483
0.001504
0.000225
0.000179
0.000056
0.000197
0.000242
0.000328
0.000585
0.001209
0.000280
0.000248
0.000265
0.000247
0.000252
0.000250
0.000267
0.000313
0.000596
0.000314
0.000218
0.000245
0.000273
0.000243
0.000274
0.000264
0.000259
0.000257
0.000268
0.000261
0.000355
0.000524
0.000345
0.000309
0.001470
0.000146
0.000057
0.000191
0.000216
0.000370
0.000350
0.000354
0.000310
0.000298
0.000329
0.000276
0.000260
0.000276
0.000252
0.000239
0.000314
0.000242
0.000258
0.000607
0.000289
0.000347
0.000329
0.000304
0.000461
0.000214
0.000243
0.000229
0.000245
0.000253
0.000288
0.000461
0.000381
0.000321
0.000057
0.000218
0.001353
0.000261
0.000348
0.000362
0.000414
0.000382
0.000350
0.000234
0.000199
0.000262
0.000242
0.000270
0.000268
0.000257
0.000258
0.000258
0.001396
0.000280
0.000227
0.000221
0.000275
0.000269
0.000277
0.000275
0.000258
0.000264
0.000260
0.000266
0.000410
0.000375
0.000057
0.000214
0.000242
0.001435
0.000326
0.000329
0.000216
0.000212
0.000213
0.000226
0.000235
0.000259
0.000270
0.000253
0.000254
0.000266
0.000269
0.000236
0.000278
0.000249
0.000261
0.001426
0.000274
0.000222
0.000343
0.000222
0.000222
0.000239
0.000266
0.000282
0.000490
0.000391
0.000056
0.000193
0.000217
0.000397
0.000280
0.000267
0.000227
0.001535
0.000360
0.000327
0.000204
0.000232
0.000342
0.000338
0.000197
0.000226
0.000250
0.000254
0.000258
0.000258
0.000254
0.000482
0.000577
0.001121
0.000263
0.000217
0.000220
0.000269
0.000262
0.000266
0.000260
0.000333
0.000057
0.000222
0.000336
0.000195
0.000209
0.000243
0.000239
0.000259
0.000212
0.001425
0.000515
0.000392
0.000287
0.000223
0.000213
0.000254
0.000246
0.000253
0.000275
0.000258
0.000307
0.000302
0.000489
0.000450
0.001375
0.000266
0.000235
0.000267
0.000266
0.000267
0.000278
0.000568
0.000057
0.000231
0.000212
0.000261
0.000224
0.000222
0.000234
0.000261
0.000254
0.000268
0.001590
0.000330
0.000256
0.000264
0.000263
0.000456
0.000305
0.000399
0.000463
0.000331
0.000328
0.000438
0.000478
0.001322
0.000207
0.000218
0.000245
0.001801
0.000383
0.000606
0.000315
0.000144
0.000057
0.000174
0.000223
0.000242
0.000229
0.000251
0.000242
0.000359
0.000406
0.000497
0.000480
0.000254
0.000211
0.000229
0.000239
0.000268
0.000265
0.000240
0.000261
0.000246
0.000274
0.000284
0.000365
0.001385
0.000252
0.000230
0.000270
0.001863
0.000412
0.000382
0.000363
0.000175
0.000058
0.000197
0.000203
0.000242
0.001593
0.000365
0.000247
0.000236
0.000257
0.000247
0.000345
0.000357
0.000375
0.000351
0.000308
0.000326
0.000470
0.000332
0.001286
0.000266
0.000224
0.000196
0.000287
0.000350
0.000489
0.000546
0.000428
0.000227
0.000215
0.000263
0.000281
0.000211
0.000056
0.000191
0.000210
0.001456
0.000420
0.000194
0.000214
0.000225
0.000247
0.000250
0.000255
0.000241
0.000275
0.000267
0.000275
0.000249
0.000369
0.000450
0.000354
0.001374
0.000276
0.000224
0.000255
0.000267
0.000258
0.000363
0.000549
0.000404
0.000293
0.000284
0.000258
0.000398
0.000057
0.000207
0.000223
0.000249
0.000257
0.001582
0.000231
0.000260
0.000238
0.000260
0.000250
0.000253
0.000275
0.000248
0.000242
0.000358
0.000555
0.001477
0.000737
0.000217
0.000344
0.000245
0.000210
0.000233
0.000276
0.001762
0.000728
0.000260
0.000228
0.000283
0.000283
0.000213
0.000056
0.000214
0.000203
0.000243
0.000244
0.000254
0.000246
0.000260
0.000248
0.000241
0.000228
0.000281
0.000282
0.000262
0.000253
0.000259
0.000257
0.000264
0.001597
0.000674
0.000386
0.000358
0.000221
0.000208
0.000275
0.000278
0.000259
0.000273
0.000253
0.001510
0.000331
0.000284
0.000057
0.000189
0.000212
0.000247
0.000250
0.000255
0.000236
0.000248
0.000253
0.000252
0.000265
0.000234
0.000469
0.000419
0.000366
0.000211
0.000227
0.000266
0.001460
0.000686
0.000391
0.000356
0.000304
0.000214
0.000238
0.000269
0.000259
0.000250
0.000266
0.001478
0.000458
0.000223
0.000055
0.000206
0.000199
0.000248
0.000251
0.000244
0.000244
0.000248
0.000246
0.000265
0.000267
0.000322
0.000423
0.000333
0.000223
0.000234
0.000248
0.000265
0.000252
0.001571
0.000610
0.000560
0.000276
0.000216
0.000255
0.000251
0.000253
0.000266
0.000280
0.000268
0.001426
0.000303
0.000056
0.000191
0.000220
0.000211
0.000252
0.000265
0.000239
0.000287
0.000354
0.000369
0.000421
0.000389
0.000344
0.000340
0.000221
0.000228
0.000240
0.000283
0.000253
0.001384
0.000870
0.000342
0.000207
0.000468
0.000210
0.000213
0.000260
0.000273
0.000267
0.000262
0.000267
0.000403
0.000055
0.000219
0.000322
0.000183
0.000233
0.000249
0.000258
0.000229
0.000235
0.000256
0.000268
0.000243
0.000243
0.000237
0.000560
0.000376
0.000478
0.000203
0.000258
0.000262
0.000245
0.000256
0.000374
0.001370
0.001061
0.000249
0.000224
0.000273
0.000257
0.000277
0.000254
0.000223
0.000056
0.000196
0.001384
0.000277
0.000199
0.000201
0.000246
0.000245
0.000251
0.000230
0.000253
0.000254
0.000264
0.000238
0.000347
0.000425
0.000444
0.000324
0.000198
0.000263
0.000260
0.000269
0.000240
0.000253
0.000261
0.001407
0.000676
0.000310
0.000396
0.000371
0.000397
0.000262
0.000055
0.000181
0.000216
0.000363
0.001326
0.000214
0.000253
0.000217
0.000264
0.000252
0.000250
0.000265
0.000236
0.000280
0.000314
0.000573
0.000376
0.000199
0.000349
0.000241
0.000222
0.000233
0.000272
0.000228
0.000277
0.000259
0.001531
0.000767
0.000290
0.000272
0.000275
0.000206
0.000056
0.000203
0.000211
0.000466
0.000411
0.001310
0.000222
0.000211
0.000200
0.000228
0.000251
0.000250
0.000253
0.000238
0.000241
0.000248
0.000251
0.000271
0.000237
0.000250
0.000267
0.000253
0.000271
0.000360
0.000284
0.000228
0.000244
0.000271
0.001528
0.000231
0.000229
0.000174
0.000057
0.000187
0.000215
0.000239
0.000344
0.000346
0.000338
0.000404
0.000243
0.001569
0.000251
0.000267
0.000520
0.000319
0.000255
0.000483
0.000232
0.000219
0.000232
0.000263
0.000269
0.000278
0.000263
0.000261
0.000274
0.000260
0.000408
0.000453
0.000327
0.001513
0.000259
0.000185
0.000056
0.000200
0.000226
0.000241
0.000243
0.000252
0.000244
0.000259
0.000304
0.000446
0.002073
0.000201
0.000204
0.000253
0.000256
0.000264
0.000324
0.000272
0.000201
0.000252
0.000461
0.000321
0.000463
0.001514
0.000223
0.000236
0.000485
0.001775
0.000278
0.000266
0.001498
0.000185
0.000056
0.000295
0.000404
0.000476
0.000247
0.000265
0.000225
0.000255
0.000257
0.000273
0.000235
0.000252
0.000334
0.000445
0.000303
0.000427
0.000286
0.000220
0.001552
0.000497
0.002008
0.000307
0.000246
0.000205
0.001594
0.001996
0.000736
0.000266
0.000227
0.000248
0.000483
0.000381
0.000056
0.000182
0.000216
0.000242
0.001514
0.000229
0.001670
0.001068
0.000247
0.000199
0.001593
0.001973
0.000220
0.000322
0.000399
0.000285
0.000499
0.000361
0.000313
0.000250
0.000241
0.000235
0.000258
0.000270
0.001577
0.001293
0.001416
0.000268
0.000243
0.000286
0.000273
0.000412
0.000056
0.000223
0.000226
0.000207
0.000243
0.000237
0.000230
0.000257
0.000253
0.000254
0.000254
0.000233
0.000386
0.000532
0.000358
0.000298
0.000203
0.000226
0.000293
0.000247
0.000264
0.000256
0.001483
0.000373
0.000445
0.002066
0.000253
0.000252
0.000289
0.000536
0.000420
0.000143
0.000056
0.000196
0.000347
0.000439
0.000326
0.000225
0.000206
0.000239
0.000252
0.000247
0.000238
0.000246
0.000262
0.000261
0.001607
0.001424
0.001235
0.000268
0.000232
0.000207
0.000243
0.000282
0.000279
0.000256
0.000247
0.002272
0.000221
0.000212
0.000288
0.000322
0.000302
0.000247
0.000057
0.000197
0.000353
0.000610
0.000336
0.000207
0.000207
0.000227
0.000272
0.001883
0.001434
0.000251
0.000383
0.000390
0.000357
0.000265
0.000217
0.000241
0.000252
0.000255
0.000286
0.000245
0.000256
0.000475
0.000238
0.000263
0.000283
0.000242
0.000279
0.000279
0.000244
0.000224
0.000057
0.000184
0.000228
0.000250
0.000235
0.000251
0.000264
0.001546
0.001500
0.001333
0.000210
0.000196
0.000230
0.000254
0.000272
0.000247
0.000248
0.000251
0.002172
0.000216
0.000228
0.000243
0.000262
0.000255
0.000260
0.000270
0.000273
0.000254
0.000256
0.000268
0.000272
0.000189
0.000057
0.001507
0.000317
0.002396
0.000257
0.000283
0.000295
0.000250
0.000249
0.000269
0.000244
0.000251
0.000252
0.000248
0.000231
0.000257
0.000262
0.000262
0.000267
0.000258
0.000273
0.000264
0.000280
0.000273
0.000277
0.000239
0.000253
0.000256
0.000272
0.000257
0.000283
0.000371
0.000056
0.000197
0.002557
0.000341
0.000197
0.000187
0.000230
0.000245
0.000257
0.000255
0.000267
0.000415
0.000327
0.000345
0.000243
0.000228
0.002225
0.000207
0.000225
0.000238
0.000503
0.000394
0.000345
0.000194
0.000238
0.000263
0.000249
0.000260
0.000273
0.000275
0.001688
0.001209
0.000056
0.000187
0.000216
0.000230
0.000436
0.000379
0.000270
0.000230
0.000217
0.000242
0.000265
0.000262
0.000244
0.000230
0.000251
0.000274
0.000236
0.000291
0.000638
0.000400
0.000247
0.000226
0.000238
0.000286
0.000259
0.000257
0.000238
0.000266
0.000275
0.000239
0.000282
0.000411
0.000057
0.001115
0.000204
0.000354
0.000547
0.000237
0.000201
0.000195
0.000241
0.002206
0.000491
0.000270
0.000379
0.000196
0.000292
0.000337
0.000269
0.000272
0.000246
0.000258
0.000243
0.000249
0.000269
0.000606
0.000526
0.001794
0.001347
0.000483
0.000570
0.000228
0.000258
0.000219
0.000056
0.000254
0.000319
0.000234
0.000242
0.000240
0.000243
0.000258
0.000226
0.000261
0.000250
0.000255
0.000246
0.000250
0.000235
0.000411
0.000513
0.001879
0.001320
0.000412
0.000398
0.000461
0.000250
0.000245
0.000255
0.002222
0.000513
0.000328
0.000250
0.000263
0.000281
0.000219
0.000055
0.000187
0.000231
0.000249
0.000246
0.000237
0.000332
0.000465
0.000376
0.000257
0.000222
0.000221
0.000287
0.000247
0.002073
0.000350
0.000410
0.000225
0.000237
0.000267
0.000257
0.000248
0.002451
0.000351
0.000227
0.000254
0.000251
0.000252
0.000281
0.000270
0.000284
0.000211
0.000056
0.000196
0.000378
0.000516
0.000416
0.000232
0.000205
0.000202
0.000245
0.000269
0.000276
0.002045
0.000351
0.000264
0.000256
0.000203
0.000245
0.000275
0.000248
0.002270
0.000390
0.000224
0.000261
0.000262
0.000261
0.000257
0.000251
0.000278
0.000254
0.000270
0.000263
0.000202
0.000056
0.000205
0.000214
0.000255
0.000225
0.000241
0.000260
0.000232
0.000248
0.000237
0.002184
0.000237
0.000266
0.000219
0.000482
0.000222
0.000212
0.000252
0.000282
0.000266
0.000263
0.002029
0.000249
0.000374
0.000365
0.000494
0.000330
0.000286
0.000255
0.000233
0.000239
0.000218
0.000056
0.000193
0.000218
0.000230
0.000245
0.000254
0.000386
0.000196
0.002342
0.000208
0.000228
0.000222
0.000262
0.000241
0.000239
0.000305
0.002201
0.000520
0.000250
0.000229
0.000238
0.000262
0.000254
0.000290
0.000268
0.000257
0.000262
0.000289
0.000251
0.000263
0.000306
0.000173
0.000055
0.000181
0.003003
0.000232
0.000228
0.000244
0.000247
0.000248
0.000276
0.000387
0.000399
0.002136
0.000268
0.000234
0.000260
0.000264
0.000652
0.000321
0.000301
0.000220
0.000208
0.000246
0.000267
0.000265
0.000244
0.000235
0.000273
0.000264
0.000269
0.000338
0.000696
0.000274
0.000056
0.000200
0.000272
0.000257
0.000215
0.000243
0.000253
0.000248
0.000241
0.001544
0.002139
0.000509
0.000271
0.000389
0.000777
0.000360
0.000202
0.000212
0.000250
0.000266
0.000254
0.000262
0.000240
0.000253
0.000267
0.001825
0.001457
0.000293
0.000269
0.000300
0.000252
0.000460
0.000057
0.001929
0.000228
0.000230
0.000205
0.000242
0.000391
0.000462
0.000322
0.000310
0.000243
0.000213
0.000208
0.000260
0.000253
0.000263
0.000261
0.000248
0.000266
0.001917
0.000217
0.000200
0.000236
0.000279
0.000280
0.000265
0.000266
0.001551
0.000328
0.000212
0.000229
0.000174
0.000056
0.000203
0.000190
0.000237
0.000241
0.000259
0.000234
0.000347
0.000353
0.000343
0.000404
0.000195
0.000216
0.000332
0.000325
0.000379
0.000326
0.000228
0.000214
0.000262
0.000400
0.000528
0.000394
0.000231
0.000228
0.000253
0.000256
0.000247
0.000271
0.000277
0.000267
0.000223
0.000057
0.001446
0.000395
0.000225
0.002007
0.000238
0.000499
0.000322
0.000410
0.000176
0.000221
0.000256
0.000249
0.000242
0.000248
0.000268
0.000271
0.000436
0.000283
0.000482
0.000274
0.000391
0.000225
0.000253
0.000262
0.000342
0.000228
0.000232
0.000279
0.000299
0.000533
0.001407
0.000057
0.000179
0.000212
0.002089
0.000254
0.000334
0.000263
0.000255
0.000260
0.000259
0.000248
0.000233
0.000245
0.000254
0.000259
0.000263
0.000348
0.000719
0.001736
0.000255
0.000252
0.000261
0.000260
0.000471
0.000374
0.001548
0.000262
0.000365
0.002014
0.000228
0.000246
0.000179
0.000056
0.000216
0.000202
0.000222
0.000261
0.000237
0.000234
0.000245
0.000276
0.000339
0.000306
0.000380
0.000369
0.000331
0.000295
0.000211
0.000268
0.000258
0.000243
0.000257
0.000267
0.000274
0.000314
0.000257
0.000265
0.000271
0.001574
0.000293
0.000401
0.001981
0.000265
0.000166
0.000056
0.000187
0.000225
0.000234
0.000270
0.000440
0.000235
0.000248
0.000315
0.000408
0.000368
0.000222
0.000231
0.000242
0.000274
0.000268
0.000358
0.000413
0.000412
0.000271
0.000350
0.000590
0.000377
0.001629
0.000250
0.000229
0.002035
0.000337
0.000234
0.000206
0.000276
0.000202
0.000057
0.000184
0.000209
0.000229
0.000232
0.000254
0.000267
0.000259
0.000268
0.000259
0.000261
0.001879
0.000275
0.000395
0.000330
0.000459
0.000368
0.001502
0.000343
0.000216
0.000296
0.002122
0.000517
0.000279
0.000218
0.000242
0.000267
0.000487
0.000242
0.000244
0.000278
0.000219
0.000056
0.000301
0.000332
0.000401
0.000281
0.000197
0.000214
0.000259
0.000257
0.000303
0.000262
0.000220
0.000246
0.000265
0.000253
0.000313
0.000472
0.001351
0.000283
0.000408
0.001882
0.000304
0.000272
0.000201
0.000259
0.000266
0.000262
0.000263
0.000264
0.000249
0.000262
0.000212
0.000055
0.000266
0.000424
0.002048
0.000198
0.000263
0.000229
0.000214
0.000302
0.000445
0.001498
0.000329
0.000369
0.000332
0.002000
0.000244
0.000225
0.000259
0.000277
0.000263
0.000229
0.000295
0.000292
0.000255
0.000346
0.000492
0.000412
0.000343
0.002165
0.000493
0.000561
0.000354
0.000071
0.000204
0.000220
0.000205
0.002038
0.000200
0.000213
0.000233
0.000245
0.000231
0.000254
0.000240
0.000267
0.000247
0.000295
0.000508
0.000339
0.001302
0.000242
0.000267
0.000267
0.000227
0.000254
0.000272
0.000256
0.000312
0.000468
0.000471
0.001592
0.000345
0.000219
0.000154
0.000056
0.000200
0.000200
0.000242
0.000235
0.000244
0.000253
0.000259
0.000248
0.000276
0.000378
0.000353
0.001467
0.000207
0.000210
0.000228
0.000256
0.000263
0.000252
0.000286
0.000518
0.000360
0.000481
0.000219
0.001584
0.000226
0.000238
0.000289
0.000283
0.000264
0.000269
0.000198
0.000056
0.000202
0.000197
0.000271
0.000266
0.000250
0.000234
0.000257
0.000224
0.000255
0.000250
0.000244
0.000262
0.000251
0.000253
0.001586
0.000231
0.000239
0.000265
0.000345
0.000322
0.000364
0.000259
0.000206
0.000267
0.000237
0.000274
0.001455
0.000298
0.000211
0.000234
0.000171
0.000056
0.000188
0.000223
0.000247
0.000265
0.000268
0.000223
0.000246
0.000265
0.000218
0.000261
0.000247
0.000274
0.000209
0.000366
0.000338
0.000336
0.000290
0.001590
0.000327
0.000224
0.000212
0.000227
0.000282
0.000291
0.000412
0.000453
0.000408
0.000238
0.000214
0.001599
0.000197
0.000056
0.000314
0.000380
0.000374
0.000271
0.000200
0.000215
0.000249
0.000263
0.000257
0.000242
0.000238
0.000240
0.001456
0.000322
0.000306
0.000215
0.000229
0.000257
0.000268
0.000263
0.000259
0.000234
0.000265
0.000267
0.000247
0.000364
0.000565
0.000332
0.000244
0.000227
0.000200
0.000056
0.000223
0.000217
0.000439
0.000388
0.000368
0.000246
0.000225
0.000248
0.000250
0.000253
0.000245
0.000228
0.000255
0.000248
0.001332
0.000276
0.000222
0.000219
0.000258
0.000271
0.000242
0.000264
0.000249
0.000269
0.000245
0.000256
0.000307
0.000698
0.000460
0.000247
0.000181
0.000057
0.000193
0.001549
0.000243
0.000349
0.000524
0.000308
0.000206
0.000245
0.000260
0.000254
0.000245
0.000262
0.000268
0.000265
0.000273
0.001523
0.000254
0.000278
0.000260
0.000257
0.000266
0.000258
0.000252
0.000267
0.000271
0.000251
0.000445
0.000389
0.000377
0.000236
0.000152
0.000057
0.000187
0.000236
0.000238
0.001724
0.000381
0.000338
0.000195
0.000206
0.000254
0.000271
0.000272
0.000264
0.000249
0.000260
0.000239
0.000268
0.000404
0.001391
0.000207
0.000225
0.001539
0.000281
0.000585
0.000421
0.000299
0.000213
0.000254
0.000460
0.000248
0.000250
0.000209
0.000057
0.000296
0.000212
0.000212
0.000245
0.000240
0.000257
0.000236
0.000260
0.000263
0.000239
0.000247
0.000255
0.000348
0.000467
0.001664
0.001494
0.000375
0.000575
0.000275
0.000246
0.000218
0.000270
0.000241
0.000258
0.000259
0.000256
0.000262
0.000271
0.001609
0.000308
0.000137
0.000056
0.000234
0.000339
0.000348
0.000331
0.000260
0.000203
0.000227
0.000287
0.000456
0.001437
0.000359
0.001538
0.000340
0.000459
0.000489
0.000280
0.000332
0.000329
0.000344
0.000274
0.000240
0.000356
0.001579
0.000519
0.000240
0.000240
0.000272
0.000238
0.000250
0.000273
0.000217
0.000057
0.000194
0.000235
0.000243
0.000257
0.000239
0.001659
0.000952
0.000905
0.000239
0.000232
0.000257
0.000259
0.000252
0.000265
0.000250
0.000252
0.000251
0.000269
0.000262
0.000281
0.001501
0.000270
0.000263
0.000211
0.000229
0.000254
0.000254
0.000281
0.000264
0.000287
0.000223
0.000057
0.000198
0.000216
0.001513
0.001014
0.000317
0.000335
0.000195
0.000219
0.000248
0.000252
0.000242
0.000261
0.000239
0.002053
0.000466
0.000212
0.000204
0.000245
0.000260
0.000264
0.000206
