0.000087
0.018877
0.002710
0.000318
0.000215
0.000292
0.000328
0.000233
0.000325
0.000282
0.000253
0.000329
0.000641
0.000348
0.000401
0.000372
0.000252
0.000348
0.000354
0.000422
0.001867
0.000357
0.000703
0.000268
0.000242
0.000306
0.000313
0.000317
0.000423
0.000369
0.000523
0.000287
0.000057
0.000212
0.000261
0.000270
0.000288
0.000249
0.000250
0.000279
0.000297
0.000257
0.000303
0.000398
0.000434
0.000311
0.000273
0.000355
0.000349
0.000367
0.000249
0.000245
0.001709
0.000308
0.000253
0.000453
0.000263
0.000262
0.000276
0.000295
0.000291
0.000277
0.000320
0.000389
0.000056
0.000196
0.000247
0.000262
0.000259
0.000253
0.000251
0.000263
0.000251
0.000286
0.001668
0.000244
0.000222
0.000271
0.000269
0.000275
0.000251
0.000267
0.000255
0.000348
0.001796
0.000238
0.000281
0.000449
0.000433
0.000386
0.000230
0.000265
0.000594
0.000401
0.000745
0.000192
0.000055
0.000231
0.000247
0.000248
0.000239
0.000304
0.000246
0.000271
0.000594
0.000390
0.000265
0.000231
0.000252
0.000240
0.000258
0.000258
0.000253
0.000243
0.000272
0.000293
0.000380
0.001621
0.000277
0.000251
0.000423
0.000423
0.000599
0.000682
0.000609
0.000219
0.000236
0.000186
0.000056
0.000209
0.000246
0.000297
0.000210
0.000285
0.000231
0.000271
0.000464
0.001460
0.000213
0.000253
0.000241
0.000255
0.000259
0.000259
0.000293
0.000257
0.000849
0.001360
0.000294
0.000257
0.000398
0.000239
0.000251
0.000262
0.000255
0.000262
0.000271
0.000265
0.000264
0.000198
0.000055
0.000212
0.000250
0.000239
0.000264
0.000239
0.000243
0.000244
0.000249
0.000236
0.000258
0.001625
0.000266
0.000231
0.000246
0.000275
0.000231
0.000244
0.000251
0.000248
0.000259
0.000293
0.001645
0.000271
0.000260
0.000441
0.000260
0.000247
0.000260
0.000262
0.000273
0.000194
0.000054
0.000184
0.000231
0.000253
0.000248
0.000240
0.000249
0.000262
0.000233
0.000266
0.000260
0.000245
0.000265
0.000252
0.000272
0.001637
0.000281
0.000291
0.000216
0.000253
0.000275
0.000270
0.000234
0.000241
0.000272
0.001787
0.000391
0.000365
0.000346
0.000239
0.000278
0.000194
0.000055
0.000202
0.000241
0.000243
0.000280
0.000247
0.000267
0.000343
0.000319
0.000449
0.000400
0.000204
0.000245
0.000256
0.000248
0.001557
0.000546
0.000318
0.000456
0.000262
0.000227
0.000275
0.000283
0.000273
0.001760
0.000496
0.000453
0.000264
0.000227
0.000247
0.000269
0.000183
0.000056
0.000212
0.000233
0.000253
0.000263
0.000435
0.000391
0.000329
0.000285
0.000207
0.000251
0.000264
0.000233
0.000255
0.001753
0.000532
0.000213
0.000213
0.000251
0.000274
0.000292
0.000244
0.000258
0.001885
0.000276
0.000330
0.000367
0.000243
0.000259
0.000266
0.000402
0.000329
0.000055
0.000201
0.000385
0.000384
0.000262
0.000252
0.000265
0.000232
0.000258
0.000244
0.000230
0.000238
0.000248
0.001548
0.000341
0.000330
0.000222
0.000261
0.000255
0.000241
0.000310
0.000255
0.000326
0.000242
0.001823
0.000249
0.000487
0.000244
0.000260
0.000260
0.000259
0.000266
0.000057
0.000278
0.000890
0.000324
0.000215
0.000227
0.000273
0.000231
0.000214
0.000263
0.000256
0.000251
0.001699
0.000254
0.000443
0.000369
0.000218
0.000243
0.000223
0.000254
0.000263
0.000253
0.001860
0.000224
0.000467
0.001861
0.000525
0.000362
0.000245
0.000250
0.000266
0.000184
0.000056
0.000204
0.000244
0.000246
0.000242
0.000257
0.001619
0.000249
0.000239
0.000252
0.000264
0.000231
0.000247
0.000247
0.000256
0.000280
0.000401
0.000636
0.000256
0.000230
0.000270
0.000298
0.000222
0.000243
0.000437
0.000432
0.000279
0.000364
0.000504
0.000444
0.000275
0.000211
0.000056
0.000203
0.000228
0.000255
0.000254
0.000239
0.000234
0.000242
0.000479
0.001748
0.000334
0.000207
0.000239
0.000243
0.000247
0.000260
0.000262
0.000495
0.000497
0.000260
0.000249
0.000265
0.000306
0.000282
0.000247
0.000282
0.000433
0.000339
0.000591
0.000446
0.000478
0.000176
0.000056
0.000195
0.000257
0.000244
0.000232
0.000234
0.000238
0.000253
0.000256
0.000227
0.000297
0.000339
0.000408
0.001425
0.000241
0.000230
0.000248
0.000259
0.000246
0.000249
0.000249
0.000285
0.000476
0.000381
0.000277
0.000255
0.000254
0.000257
0.000275
0.000266
0.000261
0.000383
0.000056
0.000207
0.000237
0.000225
0.000262
0.000542
0.000451
0.000220
0.000256
0.000232
0.000261
0.000259
0.000228
0.000294
0.000252
0.000238
0.000487
0.000424
0.001631
0.000282
0.000229
0.000272
0.000250
0.000255
0.000245
0.000261
0.000506
0.000366
0.000602
0.000207
0.000245
0.000187
0.000056
0.000232
0.000436
0.000230
0.000218
0.000282
0.000226
0.000300
0.000579
0.000309
0.000327
0.000223
0.000277
0.000262
0.000239
0.000523
0.000330
0.000225
0.000279
0.000389
0.001627
0.000268
0.000237
0.000532
0.000246
0.000281
0.000273
0.000253
0.000363
0.000542
0.000369
0.000272
0.000055
0.000216
0.000236
0.000237
0.000241
0.000417
0.000308
0.000293
0.000221
0.000399
0.000518
0.000350
0.000243
0.000227
0.000251
0.000254
0.000269
0.000257
0.000256
0.000229
0.000347
0.000289
0.000366
0.001809
0.000242
0.000258
0.000291
0.000249
0.000352
0.000409
0.000766
0.000373
0.000056
0.000236
0.000330
0.000294
0.000419
0.000385
0.000211
0.000257
0.000305
0.000525
0.000392
0.000260
0.000241
0.000240
0.000272
0.000261
0.000232
0.000254
0.000292
0.000251
0.000255
0.000271
0.000435
0.000639
0.001320
0.000341
0.000451
0.000402
0.000230
0.000494
0.000394
0.000305
0.000055
0.000243
0.000378
0.000275
0.000200
0.000240
0.000246
0.000415
0.000253
0.000207
0.000470
0.000346
0.000367
0.000308
0.000254
0.000264
0.000246
0.000370
0.000432
0.000312
0.000228
0.000245
0.000572
0.000476
0.001640
0.000243
0.000423
0.000325
0.000222
0.000267
0.000447
0.000272
0.000056
0.000205
0.000216
0.000252
0.000251
0.000245
0.000239
0.000250
0.000330
0.000458
0.000365
0.000388
0.000345
0.000277
0.000579
0.000242
0.000244
0.000271
0.000268
0.000230
0.000345
0.000229
0.000238
0.000275
0.000444
0.000510
0.001598
0.000281
0.000236
0.000244
0.000270
0.000181
0.000056
0.000292
0.000498
0.000323
0.000216
0.000256
0.000242
0.000253
0.000244
0.000269
0.000241
0.000224
0.000266
0.000421
0.000530
0.000413
0.000235
0.000253
0.000236
0.000352
0.000383
0.000385
0.000334
0.000380
0.000377
0.000244
0.000256
0.000268
0.000272
0.001791
0.000250
0.000208
0.000056
0.000208
0.000219
0.000257
0.000290
0.000338
0.000549
0.000325
0.000201
0.000285
0.000234
0.000252
0.000248
0.000517
0.000455
0.000481
0.000272
0.000268
0.000260
0.000427
0.000462
0.000354
0.000402
0.000511
0.000433
0.000238
0.000238
0.000269
0.000242
0.000269
0.001712
0.000334
0.000074
0.000284
0.000325
0.000205
0.000234
0.000260
0.000247
0.000238
0.000498
0.000378
0.000301
0.000294
0.000266
0.000356
0.000695
0.000296
0.000227
0.000259
0.000255
0.000249
0.000267
0.000277
0.000262
0.000241
0.000268
0.000276
0.000436
0.000390
0.000348
0.000229
0.000245
0.000194
0.000055
0.000468
0.000284
0.000496
0.000224
0.000200
0.000253
0.000246
0.000253
0.000244
0.000216
0.000256
0.000277
0.000291
0.000427
0.000468
0.000508
0.000275
0.000314
0.000382
0.000340
0.000297
0.000239
0.000248
0.000260
0.001748
0.000253
0.001723
0.000932
0.000386
0.000348
0.000166
0.000057
0.000191
0.000235
0.000238
0.000241
0.000272
0.000237
0.000252
0.000258
0.000235
0.000352
0.000328
0.000435
0.000357
0.000361
0.000242
0.000251
0.000262
0.000286
0.000230
0.000244
0.000257
0.000259
0.001822
0.000224
0.000268
0.000256
0.000284
0.000263
0.001949
0.000475
0.000239
0.000055
0.000211
0.000209
0.000240
0.000238
0.000254
0.000268
0.000219
0.000257
0.000253
0.000365
0.000592
0.000314
0.000369
0.000227
0.000244
0.000253
0.000330
0.000440
0.000363
0.000256
0.001781
0.000251
0.000239
0.000258
0.000258
0.000272
0.000242
0.000258
0.000326
0.000311
0.000364
0.000056
0.000247
0.000221
0.000240
0.000267
0.000242
0.000241
0.000252
0.000258
0.000233
0.000263
0.000237
0.000284
0.000382
0.000386
0.000402
0.000202
0.000473
0.000237
0.000246
0.000256
0.000257
0.000261
0.000273
0.000257
0.000275
0.001798
0.000244
0.000236
0.000267
0.000238
0.000201
0.000055
0.000247
0.000384
0.000241
0.000221
0.000234
0.000237
0.000238
0.000259
0.000243
0.000228
0.000232
0.000262
0.000263
0.000420
0.000346
0.000380
0.000261
0.000243
0.000258
0.000243
0.000270
0.000259
0.000244
0.000270
0.000251
0.000266
0.000394
0.001546
0.000266
0.000240
0.000184
0.000055
0.000211
0.000235
0.000248
0.000264
0.000347
0.000492
0.000231
0.000341
0.000225
0.000271
0.000248
0.000232
0.000240
0.000263
0.000258
0.000262
0.000246
0.000255
0.000256
0.000259
0.000269
0.000263
0.000243
0.000237
0.000252
0.000278
0.000278
0.000261
0.000252
0.000262
0.000195
0.000055
0.000216
0.000231
0.000261
0.000272
0.000234
0.000240
0.000238
0.000262
0.000277
0.000245
0.000224
0.000250
0.000257
0.000252
0.000295
0.000235
0.000251
0.000252
0.000298
0.000249
0.000271
0.000327
0.000266
0.000228
0.000303
0.000247
0.000272
0.000244
0.000261
0.000814
0.000272
0.000055
0.000227
0.000283
0.000239
0.000207
0.000239
0.000257
0.000243
0.000247
0.000246
0.000249
0.000265
0.000291
0.000492
0.000527
0.001485
0.000238
0.000495
0.000222
0.000256
0.000460
0.000411
0.000413
0.000223
0.000281
0.000245
0.000264
0.000283
0.000250
0.000308
0.000276
0.000171
0.000056
0.000361
0.000417
0.000338
0.000305
0.000224
0.000272
0.000226
0.000239
0.000233
0.000247
0.000254
0.000257
0.000231
0.000314
0.000296
0.000567
0.000356
0.001780
0.000224
0.000266
0.000491
0.000285
0.000399
0.000325
0.000324
0.000315
0.000302
0.000232
0.000226
0.000259
0.000200
0.000056
0.000211
0.000232
0.000229
0.000284
0.000358
0.000462
0.000353
0.000238
0.000254
0.000218
0.000247
0.000270
0.000280
0.000244
0.000247
0.000256
0.000329
0.000473
0.000391
0.000385
0.000235
0.001736
0.000324
0.000489
0.000495
0.000497
0.000324
0.000226
0.000249
0.000271
0.000448
0.000055
0.000194
0.000266
0.000219
0.000317
0.000570
0.000255
0.000404
0.000227
0.000273
0.000279
0.000217
0.000263
0.000251
0.000305
0.000293
0.000246
0.000226
0.000412
0.000418
0.000365
0.000499
0.001847
0.000243
0.000474
0.000458
0.000377
0.000215
0.000263
0.000307
0.000244
0.000211
0.000056
0.000204
0.000336
0.000362
0.000334
0.000390
0.000287
0.000377
0.000214
0.000240
0.000259
0.000275
0.000232
0.000242
0.000256
0.000248
0.000267
0.000318
0.000355
0.000529
0.000370
0.000289
0.000235
0.000260
0.001714
0.000382
0.000522
0.000716
0.000229
0.000262
0.000317
0.000149
0.000055
0.000186
0.000240
0.000346
0.000232
0.000267
0.000374
0.000525
0.000193
0.000237
0.000541
0.000216
0.000253
0.000257
0.000276
0.000277
0.000264
0.000222
0.000440
0.000429
0.000384
0.000266
0.000217
0.000255
0.000264
0.000256
0.000265
0.000248
0.000249
0.000267
0.000293
0.000190
0.000057
0.000338
0.000299
0.000212
0.000261
0.000246
0.000258
0.000240
0.000284
0.000240
0.000254
0.000278
0.000329
0.000421
0.000393
0.000411
0.000223
0.000214
0.000248
0.000250
0.000268
0.000288
0.000278
0.000219
0.000256
0.000283
0.000314
0.000418
0.000363
0.000350
0.000244
0.000176
0.000056
0.000206
0.000228
0.000278
0.000243
0.000239
0.000269
0.000264
0.000235
0.000493
0.000212
0.000260
0.000260
0.000234
0.000265
0.000275
0.000294
0.000243
0.000356
0.000214
0.000238
0.000258
0.000261
0.000265
0.000284
0.000257
0.000263
0.000255
0.000256
0.000259
0.000500
0.000162
0.000055
0.000211
0.000237
0.000261
0.000280
0.000205
0.000241
0.000368
0.000405
0.000235
0.000235
0.000251
0.000259
0.000237
0.000217
0.000449
0.001822
0.000224
0.000274
0.000284
0.000334
0.000403
0.000369
0.000381
0.000365
0.000405
0.000401
0.000234
0.000267
0.000275
0.000270
0.001397
0.000054
0.000392
0.000293
0.000284
0.000209
0.000238
0.000249
0.000237
0.000257
0.000242
0.000271
0.000248
0.000255
0.000252
0.000368
0.000411
0.001688
0.000235
0.000234
0.000244
0.000264
0.000229
0.000273
0.000393
0.000388
0.000256
0.000365
0.000220
0.000265
0.000277
0.000267
0.000205
0.000055
0.001209
0.000509
0.000373
0.000244
0.000241
0.000217
0.000235
0.000244
0.000485
0.000220
0.000242
0.000245
0.000334
0.000650
0.000274
0.000356
0.000256
0.000226
0.000329
0.000355
0.000271
0.000261
0.000272
0.000241
0.000269
0.000639
0.000518
0.000231
0.000267
0.000260
0.000170
0.000055
0.000213
0.000207
0.000252
0.000247
0.001441
0.000325
0.000224
0.000254
0.000260
0.000227
0.000254
0.000272
0.000223
0.000263
0.000270
0.000287
0.000468
0.000619
0.000262
0.001752
0.000250
0.000289
0.000292
0.000492
0.000621
0.000284
0.000231
0.000249
0.000267
0.000260
0.000203
0.000055
0.000201
0.000262
0.000233
0.000278
0.001299
0.000232
0.000248
0.000266
0.000240
0.000235
0.000238
0.000255
0.000276
0.000244
0.000254
0.000328
0.000423
0.000421
0.000327
0.000259
0.000263
0.000278
0.000242
0.000238
0.000289
0.000267
0.000229
0.000282
0.000277
0.000426
0.000473
0.000055
0.000227
0.000240
0.000239
0.000259
0.000272
0.000236
0.000240
0.000256
0.000271
0.000277
0.001413
0.000224
0.000240
0.000252
0.000253
0.000236
0.000289
0.000245
0.000283
0.000245
0.000279
0.000482
0.000438
0.000394
0.000234
0.000271
0.001768
0.000259
0.000263
0.000398
0.000320
0.000055
0.000195
0.000403
0.000449
0.000504
0.000518
0.000544
0.001481
0.000431
0.000512
0.000652
0.000558
0.000780
0.000423
0.000618
0.000582
0.001883
0.000428
0.000413
0.000391
0.000322
0.000226
0.000276
0.000284
0.000274
0.000261
0.000288
0.000311
0.000264
0.000258
0.000285
0.001359
0.000056
0.000203
0.000229
0.000242
0.000243
0.000253
0.000267
0.000225
0.000239
0.000250
0.000255
0.000240
0.000239
0.000252
0.000269
0.000260
0.000260
0.001814
0.000285
0.000247
0.000245
0.000258
0.000262
0.000264
0.000283
0.000451
0.000365
0.000343
0.000249
0.000256
0.000295
0.000193
0.000056
0.000193
0.001358
0.000340
0.000273
0.000249
0.000241
0.000240
0.000230
0.000264
0.000206
0.000227
0.000233
0.000263
0.000509
0.000357
0.000305
0.000242
0.001824
0.000356
0.000228
0.000242
0.000271
0.000247
0.000265
0.000285
0.000275
0.000279
0.000249
0.000265
0.000317
0.000209
0.000054
0.000221
0.000237
0.000254
0.001443
0.000225
0.000241
0.000240
0.000252
0.000238
0.000268
0.000252
0.000247
0.000244
0.000281
0.000235
0.000254
0.000265
0.000269
0.000263
0.000258
0.000259
0.001773
0.000278
0.001749
0.000268
0.000252
0.000285
0.000252
0.000262
0.000276
0.000202
0.000057
0.000200
0.000223
0.001353
0.000231
0.000251
0.000238
0.000270
0.000248
0.000245
0.000251
0.000259
0.000231
0.000262
0.000265
0.000257
0.000264
0.000279
0.000265
0.000306
0.000213
0.001884
0.000224
0.001844
0.000231
0.000272
0.000280
0.000224
0.000245
0.000260
0.000268
0.000195
0.000055
0.001431
0.000231
0.000211
0.000239
0.000249
0.000234
0.000376
0.000301
0.000212
0.000258
0.000254
0.000257
0.000232
0.000362
0.000486
0.000206
0.000249
0.000264
0.000256
0.000250
0.000281
0.000331
0.000231
0.000258
0.000267
0.000269
0.000277
0.000312
0.000663
0.000370
0.000204
0.000055
0.000192
0.000252
0.000267
0.000304
0.000363
0.000254
0.001716
0.000283
0.000273
0.000279
0.000248
0.000276
0.000266
0.000268
0.000300
0.000372
0.000272
0.000569
0.000383
0.000263
0.000294
0.000278
0.000271
0.000265
0.000345
0.000230
0.000277
0.000241
0.000268
0.000305
0.000410
0.000055
0.000257
0.000460
0.000272
0.000263
0.000250
0.000225
0.000238
0.000236
0.000260
0.000276
0.001493
0.000220
0.000225
0.000251
0.000244
0.000286
0.000287
0.000236
0.000259
0.000265
0.000266
0.000337
0.000524
0.000361
0.000271
0.000283
0.000271
0.000252
0.000242
0.000313
0.000166
0.000056
0.000192
0.000327
0.000201
0.000467
0.000390
0.000248
0.000209
0.000252
0.000253
0.000250
0.000232
0.000260
0.000253
0.000287
0.000223
0.000231
0.000572
0.001044
0.000241
0.000247
0.000276
0.000252
0.000354
0.000414
0.000255
0.000272
0.000637
0.000419
0.000311
0.000234
0.000175
0.000055
0.000237
0.000251
0.000257
0.000260
0.000257
0.000252
0.000450
0.000287
0.000465
0.000261
0.000364
0.000391
0.000390
0.000368
0.000250
0.000238
0.000240
0.000263
0.000370
0.000481
0.001273
0.000222
0.000273
0.000271
0.000238
0.000240
0.000261
0.000319
0.000415
0.000458
0.000236
0.000056
0.000207
0.000245
0.000251
0.000243
0.000242
0.000245
0.000237
0.000269
0.000303
0.000457
0.000325
0.000360
0.000247
0.000238
0.000254
0.000263
0.000244
0.000261
0.000261
0.000272
0.000428
0.000266
0.000397
0.000455
0.000240
0.000254
0.000262
0.000274
0.000247
0.000351
0.000152
0.000056
0.000308
0.000313
0.000287
0.000420
0.000452
0.000337
0.000241
0.000249
0.000237
0.000279
0.000272
0.000246
0.000236
0.000248
0.000237
0.000235
0.000266
0.000393
0.000495
0.000322
0.000219
0.000273
0.000243
0.000251
0.000260
0.000282
0.000273
0.000276
0.000264
0.000263
0.000366
0.000057
0.000271
0.000333
0.000233
0.000268
0.000223
0.000249
0.000241
0.000256
0.000266
0.000253
0.000256
0.000231
0.000295
0.000517
0.000459
0.000253
0.000220
0.000246
0.000259
0.000266
0.000256
0.000268
0.000256
0.000262
0.000280
0.000383
0.000410
0.000538
0.000394
0.000256
0.000170
0.000055
0.000408
0.000198
0.000223
0.000247
0.000252
0.000242
0.000238
0.000251
0.000266
0.000256
0.000215
0.000248
0.000278
0.000223
0.000235
0.000268
0.000251
0.000265
0.000292
0.000246
0.000257
0.000260
0.000267
0.000262
0.000263
0.000244
0.000260
0.000277
0.000262
0.000278
0.000201
0.000055
0.000205
0.000235
0.000240
0.000245
0.000234
0.000259
0.000261
0.000241
0.000260
0.000280
0.000229
0.000231
0.000261
0.000397
0.000249
0.000298
0.000249
0.000266
0.000250
0.000277
0.000269
0.000241
0.000241
0.000273
0.000255
0.000270
0.000252
0.000252
0.000271
0.000259
0.000212
0.000054
0.000209
0.000360
0.000366
0.000283
0.000290
0.000259
0.000262
0.000261
0.000223
0.000245
0.000275
0.000235
0.000245
0.000238
0.000257
0.000289
0.000233
0.000268
0.000246
0.000268
0.000277
0.000257
0.000279
0.000260
0.000284
0.000236
0.000255
0.000266
0.000273
0.000264
0.000194
0.000055
0.000204
0.000235
0.000268
0.000265
0.000247
0.000444
0.000210
0.000273
0.000261
0.000434
0.000503
0.000275
0.000232
0.000247
0.000282
0.000256
0.000240
0.000263
0.000276
0.000261
0.000257
0.000256
0.000265
0.000251
0.000595
0.000480
0.000252
0.000297
0.000265
0.000262
0.000191
0.000073
0.000181
0.000222
0.000246
0.000250
0.000392
0.000631
0.000267
0.000379
0.000208
0.000245
0.000251
0.000261
0.000246
0.000268
0.000235
0.000275
0.000272
0.000236
0.000624
0.000398
0.000305
0.000238
0.000256
0.000286
0.000275
0.000256
0.000288
0.000266
0.000226
0.000334
0.000329
0.000056
0.000307
0.000215
0.000240
0.000239
0.000255
0.000266
0.000217
0.000242
0.000262
0.000246
0.000241
0.000253
0.000243
0.000376
0.000588
0.000391
0.000234
0.000260
0.000260
0.000252
0.000269
0.000283
0.000476
0.000219
0.000265
0.000642
0.000397
0.000458
0.000246
0.000255
0.000183
0.000055
0.000191
0.000234
0.000252
0.000232
0.000258
0.000257
0.000303
0.000523
0.000505
0.000420
0.000220
0.000261
0.000276
0.000276
0.000251
0.000245
0.000240
0.000253
0.000266
0.000272
0.000452
0.000652
0.000362
0.000249
0.000366
0.000380
0.000485
0.000235
0.000268
0.000493
0.000285
0.000056
0.000263
0.000238
0.000440
0.000227
0.000223
0.000254
0.000265
0.000278
0.000213
0.000239
0.000333
0.000365
0.000292
0.000393
0.000216
0.000251
0.000260
0.000254
0.000265
0.000286
0.000264
0.000285
0.000218
0.000268
0.000354
0.000451
0.000488
0.000248
0.000240
0.000275
0.000193
0.000056
0.000204
0.000246
0.000227
0.000265
0.000231
0.000285
0.000335
0.000389
0.000452
0.000261
0.000380
0.000225
0.000248
0.000264
0.000253
0.000243
0.000258
0.000267
0.000281
0.000407
0.000516
0.000291
0.000479
0.000265
0.000388
0.000421
0.000383
0.000245
0.000266
0.000285
0.000414
0.000055
0.000242
0.000272
0.000224
0.000257
0.000255
0.000257
0.000246
0.000245
0.000274
0.000242
0.000238
0.000291
0.000518
0.000383
0.000369
0.000221
0.000270
0.000260
0.000274
0.000226
0.000257
0.000249
0.000263
0.000278
0.000272
0.000368
0.000492
0.000445
0.000230
0.000286
0.000189
0.000055
0.000206
0.000235
0.000277
0.000251
0.000237
0.000358
0.000532
0.000410
0.000369
0.000689
0.000264
0.000216
0.000240
0.000258
0.000248
0.000269
0.000275
0.000277
0.000479
0.000471
0.001456
0.000306
0.000262
0.000285
0.000267
0.000266
0.000421
0.000395
0.000302
0.000350
0.000184
0.000054
0.000195
0.000232
0.000246
0.000269
0.000232
0.000243
0.000302
0.000234
0.000291
0.000274
0.000332
0.000381
0.000282
0.000319
0.000395
0.000345
0.000235
0.000257
0.000269
0.000256
0.000245
0.000244
0.000310
0.000233
0.000317
0.000436
0.000427
0.000294
0.000255
0.000262
0.000187
0.000056
0.000209
0.000243
0.000256
0.000255
0.000242
0.000229
0.000477
0.000214
0.000232
0.000254
0.000245
0.000250
0.000263
0.000250
0.000250
0.000272
0.000260
0.000292
0.000249
0.000258
0.000279
0.000272
0.000284
0.000247
0.000263
0.000285
0.000265
0.000268
0.000265
0.000272
0.000171
0.000056
0.000208
0.000249
0.000381
0.000416
0.000293
0.000254
0.000233
0.000248
0.000259
0.000248
0.000249
0.000253
0.000267
0.000262
0.000237
0.000244
0.000286
0.000230
0.000326
0.000276
0.000462
0.000399
0.000222
0.000268
0.000266
0.000256
0.000270
0.000244
0.000277
0.000275
0.000215
0.000056
0.000337
0.000450
0.000370
0.000209
0.000258
0.000244
0.000422
0.000219
0.000230
0.000252
0.000256
0.000294
0.000405
0.000444
0.001802
0.000258
0.000241
0.000251
0.000276
0.000244
0.000297
0.000545
0.000585
0.000263
0.000235
0.000257
0.000277
0.000422
0.000281
0.000279
0.000162
0.000055
0.000343
0.000245
0.000343
0.000325
0.000496
0.000202
0.000242
0.000244
0.000251
0.000240
0.000263
0.000246
0.000339
0.000294
0.000340
0.000499
0.000219
0.000240
0.000260
0.000258
0.000266
0.000312
0.000237
0.000282
0.000273
0.000446
0.000522
0.000362
0.000489
0.000225
0.000213
0.000055
0.000228
0.000222
0.000262
0.000230
0.000248
0.000247
0.000271
0.000294
0.000455
0.000336
0.000341
0.000343
0.000214
0.000253
0.000265
0.000299
0.000296
0.000233
0.000274
0.000274
0.000239
0.000399
0.000456
0.000293
0.000282
0.000263
0.000257
0.000441
0.000412
0.000322
0.000157
0.000056
0.000190
0.000237
0.000336
0.000405
0.000403
0.000203
0.000238
0.000250
0.000263
0.000269
0.000248
0.000259
0.000220
0.000257
0.000262
0.000316
0.000361
0.000392
0.000286
0.000337
0.000495
0.000223
0.000279
0.000279
0.000302
0.000285
0.000247
0.000265
0.000540
0.000410
0.000238
0.000057
0.000213
0.000230
0.000246
0.000252
0.000242
0.000486
0.000212
0.000252
0.000264
0.000356
0.000435
0.000626
0.000202
0.000242
0.000240
0.000252
0.000258
0.000268
0.000241
0.000246
0.000288
0.000238
0.000402
0.000415
0.000336
0.000411
0.000273
0.000312
0.000326
0.000244
0.000185
0.000056
0.000222
0.000235
0.000268
0.000478
0.000319
0.000336
0.000216
0.000229
0.000235
0.000261
0.000256
0.000261
0.000261
0.000244
0.000249
0.000266
0.000242
0.000247
0.000418
0.000222
0.000649
0.000268
0.000216
0.000252
0.000282
0.000272
0.000260
0.000264
0.000265
0.000271
0.000186
0.000055
0.000287
0.000401
0.000484
0.000194
0.000209
0.000248
0.000316
0.000457
0.000287
0.000214
0.000244
0.000275
0.000259
0.000450
0.000425
0.000285
0.000236
0.000228
0.000253
0.000259
0.000274
0.000263
0.000263
0.000271
0.000259
0.000364
0.000332
0.000438
0.000316
0.000228
0.000172
0.000055
0.000210
0.000239
0.000246
0.000263
0.000249
0.000263
0.000227
0.000272
0.000251
0.000234
0.000264
0.000237
0.000311
0.001407
0.000232
0.000253
0.000258
0.000246
0.000275
0.000280
0.000258
0.000238
0.000285
0.000265
0.000247
0.000273
0.000267
0.000273
0.000258
0.000269
0.000196
0.000056
0.000193
0.000233
0.000253
0.000266
0.000223
0.000244
0.000259
0.000259
0.000223
0.000248
0.000247
0.000265
0.000255
0.000254
0.000258
0.000259
0.000249
0.000257
0.000271
0.000257
0.000260
0.000259
0.000244
0.000251
0.001297
0.000278
0.000617
0.000350
0.000388
0.000218
0.000196
0.000056
0.000205
0.000217
0.000242
0.000253
0.000426
0.000238
0.000218
0.000250
0.000257
0.000395
0.000426
0.000338
0.000222
0.000238
0.000276
0.000250
0.000254
0.000253
0.000254
0.000261
0.000260
0.000252
0.000296
0.000386
0.000528
0.000435
0.000221
0.000292
0.001348
0.000251
0.000180
0.000056
0.000312
0.000398
0.000326
0.000270
0.000224
0.000219
0.000239
0.000243
0.000260
0.000256
0.000250
0.000255
0.000304
0.000273
0.000572
0.000348
0.000336
0.000214
0.000243
0.000257
0.000256
0.000285
0.000248
0.000265
0.000270
0.000254
0.000443
0.000442
0.000383
0.000359
0.000152
0.000055
0.000183
0.000236
0.001261
0.000432
0.000264
0.000493
0.000371
0.000494
0.000266
0.000359
0.000199
0.000237
0.000259
0.000251
0.000250
0.000265
0.000392
0.000444
0.000438
0.000333
0.000261
0.000240
0.000268
0.000504
0.000225
0.000263
0.000254
0.000285
0.000296
0.000556
0.000299
0.000057
0.000365
0.000315
0.000235
0.000229
0.001674
0.000340
0.000306
0.000254
0.000237
0.000251
0.000234
0.000238
0.000242
0.000273
0.000246
0.000260
0.000240
0.000264
0.000442
0.000351
0.000457
0.000235
0.000264
0.000253
0.000261
0.000282
0.000273
0.000232
0.000263
0.000275
0.000205
0.000056
0.000379
0.000337
0.000230
0.000226
0.000252
0.000247
0.000263
0.000228
0.000241
0.000221
0.001453
0.000449
0.000245
0.000252
0.000239
0.000253
0.000272
0.000258
0.000236
0.000307
0.000246
0.000248
0.000266
0.000399
0.000579
0.000310
0.000220
0.000271
0.000276
0.000283
0.000164
0.000056
0.000200
0.000410
0.000219
0.000231
0.000339
0.000508
0.000412
0.000217
0.000462
0.000210
0.000224
0.000272
0.000251
0.000261
0.000261
0.001402
0.000371
0.000280
0.000243
0.000272
0.000298
0.000234
0.000253
0.000248
0.000278
0.000254
0.000502
0.000411
0.000280
0.000270
0.000161
0.000055
0.000207
0.000232
0.000254
0.000242
0.000227
0.000261
0.000240
0.000297
0.000264
0.000320
0.000505
0.000240
0.000240
0.000258
0.000241
0.000276
0.000273
0.000261
0.000270
0.000225
0.000253
0.000292
0.001282
0.000256
0.000236
0.000272
0.000254
0.000270
0.000254
0.000264
0.000193
0.000056
0.000195
0.000369
0.000380
0.000338
0.000237
0.000248
0.000257
0.000291
0.000235
0.000260
0.000240
0.000267
0.000242
0.000249
0.000261
0.000267
0.000259
0.000267
0.000272
0.000243
0.000260
0.000264
0.000265
0.000287
0.000285
0.000267
0.000272
0.000258
0.000257
0.000468
0.001338
0.000056
0.000204
0.000255
0.000224
0.000262
0.000232
0.000258
0.000265
0.000208
0.000242
0.000260
0.000270
0.000265
0.000245
0.000240
0.000274
0.000226
0.001729
0.000254
0.000242
0.000264
0.000237
0.000268
0.000278
0.000255
0.000292
0.000236
0.000271
0.000275
0.000267
0.000260
0.000250
0.000056
0.000271
0.000289
0.001318
0.000237
0.000226
0.000244
0.000254
0.000251
0.000273
0.000245
0.000229
0.000380
0.000356
0.000452
0.000272
0.000229
0.000251
0.000257
0.000253
0.000270
0.000243
0.000279
0.000257
0.000285
0.000263
0.000475
0.000279
0.000387
0.000293
0.000246
0.000192
0.000055
0.000223
0.000251
0.000241
0.000245
0.000279
0.000198
0.000238
0.000322
0.000353
0.001342
0.000269
0.000203
0.000253
0.000276
0.000255
0.000287
0.000235
0.000247
0.000313
0.000432
0.000441
0.000185
0.000245
0.000239
0.000283
0.000281
0.000268
0.000291
0.000269
0.000274
0.000194
0.000055
0.000241
0.000436
0.000378
0.000215
0.000232
0.000232
0.000248
0.000278
0.000261
0.000247
0.000229
0.000257
0.000457
0.000495
0.000488
0.001434
0.000251
0.000282
0.000335
0.000342
0.000467
0.000421
0.000566
0.000307
0.000224
0.000264
0.000270
0.000278
0.000257
0.000277
0.000200
0.000056
0.000210
0.000250
0.000459
0.000436
0.000385
0.000242
0.000249
0.000237
0.000239
0.000273
0.000236
0.000267
0.000276
0.000225
0.000265
0.000293
0.000391
0.000416
0.000353
0.001322
0.000266
0.000253
0.000255
0.000261
0.000544
0.000361
0.000378
0.000251
0.000275
0.000272
0.000186
0.000055
0.000203
0.000249
0.000230
0.000266
0.000230
0.000272
0.000449
0.000380
0.000384
0.000213
0.000241
0.000261
0.000271
0.000287
0.000244
0.000271
0.000241
0.000257
0.000285
0.000299
0.000428
0.000427
0.000320
0.001344
0.000419
0.000230
0.000272
0.000437
0.000517
0.000263
0.000312
0.000056
0.000188
0.000238
0.000251
0.000247
0.000249
0.000254
0.001685
0.000238
0.000212
0.000245
0.000255
0.000244
0.000255
0.000331
0.000324
0.000291
0.000265
0.000267
0.000537
0.000407
0.000319
0.000277
0.000225
0.000248
0.001503
0.000373
0.000481
0.000349
0.000343
0.000299
0.000164
0.000075
0.000202
0.000243
0.000258
0.000257
0.000244
0.000265
0.001701
0.000239
0.000236
0.000264
0.000333
0.000407
0.001442
0.000366
0.000399
0.000229
0.000262
0.000231
0.000267
0.000279
0.001543
0.000598
0.000354
0.000293
0.000227
0.000264
0.000257
0.000301
0.000225
0.000257
0.000184
0.000057
0.000210
0.000241
0.000266
0.000247
0.000265
0.000296
0.000255
0.000264
0.000243
0.000252
0.000252
0.000267
0.000271
0.000244
0.000249
0.001491
0.000286
0.000231
0.000263
0.000281
0.000269
0.000257
0.000430
0.001270
0.000284
0.000227
0.000275
0.000254
0.000401
0.000240
0.000198
0.000055
0.000194
0.000233
0.000218
0.000249
0.000243
0.000224
0.000238
0.001684
0.000282
0.000201
0.000358
0.000264
0.000227
0.000224
0.000256
0.001387
0.000227
0.000269
0.000271
0.000240
0.000269
0.000346
0.000293
0.001296
0.000278
0.000246
0.000256
0.000266
0.001413
0.000256
0.000192
0.000055
0.000291
0.000315
0.000217
0.000223
0.000265
0.000225
0.000287
0.000247
0.000264
0.000250
0.000256
0.000288
0.000227
0.000247
0.000336
0.001498
0.000226
0.000269
0.000253
0.000249
0.000280
0.000260
0.000258
0.001506
0.000356
0.000220
0.000280
0.001273
0.000272
0.000234
0.000214
0.000056
0.000226
0.000390
0.000347
0.000214
0.000235
0.000236
0.000266
0.000258
0.000264
0.000269
0.000233
0.000258
0.000257
0.000252
0.000453
0.001211
0.000233
0.000248
0.000262
0.000279
0.000222
0.000246
0.000272
0.000321
0.001292
0.000207
0.000265
0.000253
0.000253
0.001368
0.000344
0.000056
0.000278
0.000249
0.000226
0.000227
0.000241
0.000253
0.000245
0.000246
0.000300
0.000234
0.000235
0.000254
0.000252
0.000327
0.000403
0.001481
0.000224
0.000245
0.000304
0.000510
0.000280
0.000418
0.001330
0.000309
0.000232
0.000260
0.000247
0.001332
0.000396
0.000401
0.000362
0.000057
0.000218
0.000251
0.000260
0.000255
0.000250
0.000260
0.000268
0.000264
0.000248
0.000279
0.000393
0.000370
0.001330
0.000248
0.000272
0.000260
0.000278
0.000224
0.000238
0.000241
0.000339
0.001243
0.000263
0.000240
0.000255
0.000244
0.001517
0.000471
0.000441
0.000226
0.000187
0.000056
0.000199
0.000235
0.000254
0.000231
0.000254
0.000264
0.000243
0.000242
0.000461
0.000481
0.000275
0.001477
0.000218
0.000234
0.000260
0.000259
0.000266
0.000288
0.001673
0.000260
0.000395
0.000342
0.001288
0.000408
0.000252
0.000319
0.000270
0.000252
0.000264
0.000259
0.000203
0.000055
0.000196
0.000245
0.000328
0.000269
0.000275
0.000562
0.000286
0.000288
0.001465
0.000240
0.000382
0.000262
0.000287
0.000274
0.000370
0.001296
0.000277
0.000243
0.000240
0.000262
0.001526
0.000428
0.000249
0.000252
0.000273
0.000249
0.000453
0.000327
0.000265
0.000220
0.000278
0.000055
0.000237
0.000368
0.000346
0.000265
0.000223
0.001514
0.000209
0.000263
0.000270
0.000265
0.000269
0.000242
0.000337
0.001449
0.000255
0.000235
0.000436
0.001187
0.000415
0.000352
0.000422
0.000236
0.000233
0.000255
0.000303
0.000225
0.000452
0.000219
0.000266
0.000283
0.000198
0.000056
0.000227
0.000245
0.000360
0.000459
0.001194
0.000284
0.000335
0.000228
0.000237
0.000237
0.000246
0.000285
0.001532
0.000250
0.000233
0.000253
0.001385
0.000312
0.000384
0.000405
0.000411
0.000239
0.000246
0.000251
0.000267
0.000281
0.000255
0.000267
0.000272
0.000257
0.000194
0.000057
0.000218
0.000347
0.001503
0.000216
0.000267
0.000297
0.000219
0.000252
0.000259
0.000384
0.001385
0.000213
0.000269
0.000259
0.000255
0.001262
0.000737
0.000251
0.000332
0.000406
0.000308
0.000246
0.000264
0.000255
0.000268
0.000290
0.000281
0.000296
0.000384
0.000489
0.001371
0.000056
0.000200
0.000241
0.000241
0.000226
0.000266
0.000423
0.000484
0.001271
0.000251
0.000236
0.000245
0.001443
0.000352
0.000408
0.000225
0.000409
0.000260
0.000224
0.000270
0.000286
0.000252
0.000252
0.000282
0.000254
0.000248
0.000267
0.000471
0.000466
0.001501
0.000227
0.000187
0.000056
0.000192
0.000257
0.000338
0.000556
0.001236
0.000304
0.000233
0.000253
0.000247
0.000256
0.000243
0.000286
0.000345
0.000538
0.000290
0.000244
0.000251
0.000275
0.000249
0.000303
0.000233
0.000257
0.000261
0.000259
0.000292
0.000452
0.000367
0.000349
0.000345
0.001395
0.000194
0.000055
0.000200
0.000236
0.000437
0.000312
0.000345
0.000287
0.000316
0.000334
0.000296
0.000253
0.000236
0.000263
0.000250
0.000306
0.000244
0.000252
0.000536
0.000378
0.000289
0.000385
0.000271
0.000408
0.000233
0.000232
0.000268
0.000268
0.000243
0.000296
0.000395
0.000454
0.000291
0.000056
0.000197
0.001406
0.000222
0.000345
0.000528
0.000296
0.000383
0.000317
0.000212
0.000239
0.000267
0.000246
0.000289
0.000246
0.000266
0.000250
0.000261
0.001331
0.000288
0.000252
0.000253
0.000278
0.000265
0.000282
0.000270
0.000251
0.000279
0.000243
0.000382
0.000513
0.000132
0.000057
0.000201
0.000235
0.000239
0.001501
0.000349
0.000221
0.000217
0.000257
0.000225
0.000247
0.000250
0.000282
0.000240
0.000250
0.000294
0.000228
0.000263
0.000250
0.000255
0.000266
0.001429
0.000234
0.000243
0.000270
0.000261
0.000248
0.000273
0.000261
0.000274
0.000498
0.000346
0.000055
0.000194
0.000236
0.000399
0.000285
0.000237
0.000256
0.001524
0.000356
0.000299
0.000212
0.000265
0.000313
0.000349
0.000208
0.000231
0.000247
0.000252
0.000261
0.000258
0.000255
0.000535
0.000436
0.001145
0.000280
0.000228
0.000260
0.000268
0.000258
0.000298
0.000237
0.000383
0.000055
0.000215
0.000354
0.000204
0.000246
0.000247
0.000243
0.000236
0.000230
0.000294
0.001659
0.000404
0.000204
0.000232
0.000249
0.000275
0.000225
0.000264
0.000278
0.000258
0.000311
0.000304
0.000482
0.000503
0.001324
0.000229
0.000279
0.000254
0.000262
0.000271
0.000291
0.000440
0.000055
0.000273
0.000266
0.000219
0.000235
0.000219
0.000243
0.000264
0.000280
0.000253
0.001591
0.000341
0.000259
0.000243
0.000256
0.000461
0.000256
0.000540
0.000375
0.000271
0.000280
0.000484
0.000490
0.001271
0.000262
0.000231
0.000254
0.001744
0.000432
0.000607
0.000316
0.000141
0.000057
0.000204
0.000230
0.000243
0.000234
0.000254
0.000247
0.000246
0.000511
0.000493
0.000422
0.000289
0.000202
0.000267
0.000244
0.000280
0.000267
0.000241
0.000237
0.000258
0.000285
0.000361
0.000338
0.001328
0.000219
0.000251
0.000270
0.001918
0.000358
0.000400
0.000341
0.000157
0.000056
0.000242
0.000237
0.000244
0.001631
0.000371
0.000205
0.000239
0.000257
0.000251
0.000281
0.000378
0.000367
0.000368
0.000280
0.000274
0.000551
0.000387
0.001195
0.000274
0.000224
0.000255
0.000266
0.000280
0.000401
0.000695
0.000398
0.000241
0.000258
0.000268
0.000285
0.000196
0.000056
0.000181
0.000231
0.000242
0.001553
0.000233
0.000239
0.000239
0.000259
0.000237
0.000256
0.000250
0.000266
0.000269
0.000278
0.000241
0.000352
0.000512
0.000324
0.001377
0.000248
0.000234
0.000266
0.000253
0.000269
0.000462
0.000396
0.000452
0.000264
0.000287
0.000230
0.000439
0.000056
0.000185
0.000241
0.000275
0.001530
0.000300
0.000221
0.000262
0.000243
0.000249
0.000260
0.000273
0.000258
0.000236
0.000254
0.000374
0.000520
0.001404
0.000753
0.000282
0.000314
0.000244
0.000236
0.000243
0.000284
0.001676
0.000812
0.000225
0.000254
0.000284
0.000282
0.000184
0.000055
0.000204
0.000231
0.000255
0.000246
0.000263
0.000268
0.000213
0.000277
0.000219
0.000231
0.000291
0.000280
0.000256
0.000251
0.000253
0.000249
0.000279
0.001595
0.000726
0.000315
0.000358
0.000220
0.000251
0.000309
0.000246
0.000268
0.000253
0.000258
0.001404
0.000388
0.000294
0.000057
0.000184
0.000226
0.000272
0.000246
0.000254
0.000230
0.000271
0.000235
0.000249
0.000263
0.000260
0.000445
0.000433
0.000320
0.000220
0.000240
0.000268
0.001394
0.000696
0.000463
0.000346
0.000268
0.000229
0.000250
0.000276
0.000260
0.000250
0.000264
0.001491
0.000413
0.000210
0.000054
0.000173
0.000239
0.000242
0.000251
0.000256
0.000240
0.000237
0.000249
0.000272
0.000255
0.000369
0.000387
0.000329
0.000218
0.000239
0.000246
0.000265
0.000260
0.001565
0.000635
0.000462
0.000335
0.000220
0.000253
0.000256
0.000261
0.000267
0.000281
0.000273
0.001387
0.000300
0.000057
0.000205
0.000218
0.000228
0.000260
0.000260
0.000243
0.000250
0.000305
0.000360
0.000451
0.000371
0.000378
0.000356
0.000236
0.000228
0.000253
0.000302
0.000232
0.000270
0.001933
0.000324
0.000220
0.000461
0.000232
0.000252
0.000262
0.000271
0.000260
0.000272
0.000270
0.000411
0.000056
0.000234
0.000293
0.000221
0.000239
0.000255
0.000250
0.000224
0.000241
0.000275
0.000265
0.000230
0.000235
0.000328
0.000454
0.000417
0.000441
0.000226
0.000268
0.000250
0.000250
0.000252
0.000281
0.001498
0.001036
0.000227
0.000246
0.000262
0.000264
0.000283
0.000247
0.000205
0.000056
0.000197
0.001345
0.000287
0.000211
0.000234
0.000255
0.000252
0.000234
0.000243
0.000265
0.000248
0.000263
0.000239
0.000370
0.000374
0.000494
0.000259
0.000227
0.000269
0.000266
0.000279
0.000214
0.000272
0.000262
0.001320
0.000682
0.000310
0.000381
0.000372
0.000404
0.000303
0.000057
0.000195
0.000244
0.000351
0.001336
0.000193
0.000253
0.000231
0.000261
0.000255
0.000259
0.000252
0.000241
0.000267
0.000379
0.000564
0.000287
0.000216
0.000293
0.000317
0.000213
0.000246
0.000269
0.000238
0.000270
0.000265
0.001563
0.000719
0.000320
0.000256
0.000269
0.000196
0.000055
0.000215
0.000259
0.000459
0.000314
0.001326
0.000243
0.000209
0.000241
0.000231
0.000250
0.000249
0.000264
0.000224
0.000241
0.000249
0.000254
0.000272
0.000238
0.000258
0.000247
0.000283
0.000256
0.000304
0.000333
0.000219
0.000266
0.000261
0.001456
0.000264
0.000239
0.000174
0.000057
0.000176
0.000231
0.000247
0.000260
0.000357
0.000371
0.000396
0.000281
0.001597
0.000206
0.000313
0.000487
0.000337
0.000236
0.000441
0.000234
0.000223
0.000276
0.000268
0.000269
0.000278
0.000268
0.000257
0.000269
0.000241
0.000454
0.000358
0.000341
0.001584
0.000216
0.000198
0.000058
0.000221
0.000235
0.000250
0.000258
0.000230
0.000245
0.000264
0.000311
0.000413
0.002039
0.000225
0.000240
0.000256
0.000259
0.000261
0.000303
0.000236
0.000240
0.000266
0.000454
0.000363
0.000429
0.001449
0.000241
0.000259
0.002012
0.000277
0.000235
0.000268
0.001542
0.000133
0.000055
0.000360
0.000373
0.000484
0.000242
0.000274
0.000214
0.000260
0.000268
0.000258
0.000230
0.000255
0.000339
0.000431
0.000320
0.000463
0.000212
0.000237
0.001565
0.000230
0.000565
0.001896
0.000296
0.000236
0.001561
0.002003
0.000732
0.000274
0.000271
0.000338
0.000389
0.000371
0.000055
0.000206
0.000244
0.000274
0.000222
0.001423
0.001737
0.001071
0.000205
0.000231
0.001593
0.001972
0.000217
0.000237
0.000429
0.000301
0.000413
0.000362
0.000476
0.000212
0.000234
0.000250
0.000263
0.000276
0.001583
0.001214
0.001431
0.000278
0.000286
0.000255
0.000363
0.000357
0.000055
0.000212
0.000230
0.000238
0.000245
0.000227
0.000243
0.000254
0.000252
0.000258
0.000243
0.000242
0.000409
0.000348
0.000435
0.000333
0.000231
0.000262
0.000260
0.000268
0.000278
0.000241
0.000261
0.001502
0.000487
0.002120
0.000247
0.000256
0.000409
0.000371
0.000371
0.000193
0.000056
0.000247
0.000294
0.000505
0.000313
0.000188
0.000231
0.000255
0.000244
0.000234
0.000249
0.000241
0.000264
0.000269
0.001604
0.001358
0.001226
0.000269
0.000238
0.000245
0.000274
0.000285
0.000274
0.000244
0.000253
0.002211
0.000252
0.000240
0.000304
0.000319
0.000312
0.000217
0.000056
0.000213
0.000371
0.000523
0.000336
0.000238
0.000228
0.000243
0.000268
0.001908
0.001413
0.000225
0.000326
0.000384
0.000411
0.000263
0.000226
0.000278
0.000246
0.000278
0.000248
0.000262
0.000256
0.000485
0.000230
0.000268
0.000273
0.000241
0.000284
0.000277
0.000249
0.000205
0.000057
0.000192
0.000251
0.000244
0.000244
0.000280
0.000249
0.001533
0.001424
0.001322
0.000259
0.000209
0.000246
0.000265
0.000264
0.000258
0.000240
0.000247
0.002102
0.000256
0.000227
0.000268
0.000267
0.000255
0.000271
0.000257
0.000258
0.000272
0.000253
0.000278
0.000255
0.000183
0.000056
0.000201
0.002684
0.001402
0.000217
0.000302
0.000328
0.000210
0.000287
0.000229
0.000236
0.000259
0.000239
0.000236
0.000245
0.000276
0.000255
0.000272
0.000271
0.000266
0.000246
0.000267
0.000281
0.000275
0.000261
0.000249
0.000246
0.000265
0.000269
0.000266
0.000272
0.000368
0.000056
0.001546
0.000259
0.001225
0.000229
0.000226
0.000241
0.000261
0.000280
0.000225
0.000247
0.000418
0.000396
0.000301
0.000209
0.000251
0.002148
0.000234
0.000259
0.000394
0.000361
0.000392
0.000312
0.000207
0.000257
0.000264
0.000246
0.000264
0.000283
0.000264
0.001618
0.001268
0.000055
0.000198
0.000227
0.000299
0.000420
0.000315
0.000306
0.000209
0.000240
0.000244
0.000257
0.000269
0.000248
0.000221
0.000258
0.000264
0.000241
0.000366
0.000608
0.000326
0.000249
0.000223
0.000274
0.000282
0.000246
0.000251
0.000246
0.000267
0.000277
0.000243
0.000456
0.000213
0.000056
0.001123
0.000274
0.000323
0.000421
0.000295
0.000228
0.000229
0.000242
0.000250
0.002294
0.000367
0.000398
0.000214
0.000380
0.000319
0.000242
0.000238
0.000254
0.000268
0.000226
0.000257
0.000282
0.000571
0.000470
0.001876
0.001290
0.000707
0.000380
0.000228
0.000280
0.000196
0.000056
0.000307
0.000267
0.000254
0.000242
0.000256
0.000216
0.000269
0.000242
0.000253
0.000252
0.000254
0.000225
0.000243
0.000280
0.000379
0.000512
0.001828
0.001328
0.000506
0.000387
0.000445
0.000245
0.000239
0.000255
0.002203
0.000494
0.000382
0.000232
0.000275
0.000283
0.000210
0.000055
0.000203
0.000238
0.000256
0.000248
0.000240
0.000441
0.000314
0.000327
0.000302
0.000223
0.000239
0.000250
0.000265
0.002107
0.000393
0.000363
0.000210
0.000259
0.000285
0.000242
0.000265
0.002452
0.000333
0.000212
0.000254
0.000261
0.000255
0.000288
0.000293
0.000256
0.000186
0.000056
0.000181
0.000375
0.000537
0.000365
0.000252
0.000223
0.000231
0.000255
0.000266
0.000264
0.001931
0.000400
0.000273
0.000273
0.000244
0.000258
0.000274
0.000261
0.002188
0.000455
0.000211
0.000271
0.000271
0.000254
0.000256
0.000257
0.000293
0.000241
0.000262
0.000256
0.000190
0.000056
0.000214
0.000247
0.000250
0.000219
0.000244
0.000258
0.000246
0.000234
0.000240
0.002187
0.000219
0.000282
0.000215
0.000433
0.000222
0.000254
0.000318
0.000248
0.000251
0.000253
0.001970
0.000270
0.000345
0.000362
0.000433
0.000405
0.000305
0.000251
0.000255
0.000255
0.000204
0.000055
0.000187
0.000236
0.000244
0.000252
0.000264
0.000306
0.000216
0.002316
0.000251
0.000218
0.000260
0.000259
0.000243
0.000273
0.000293
0.002099
0.000598
0.000225
0.000251
0.000243
0.000259
0.000258
0.000290
0.000268
0.000263
0.000248
0.000296
0.000251
0.000261
0.000266
0.000193
0.000056
0.001835
0.001435
0.000206
0.000223
0.000243
0.000254
0.000252
0.000259
0.000447
0.000415
0.002069
0.000265
0.000230
0.000272
0.000299
0.000477
0.000421
0.000291
0.000224
0.000243
0.000256
0.000263
0.000267
0.000223
0.000253
0.000280
0.000261
0.000256
0.000362
0.000632
0.000311
0.000056
0.000199
0.000254
0.000247
0.000250
0.000266
0.000252
0.000251
0.000245
0.001510
0.002079
0.000615
0.000251
0.000398
0.000721
0.000333
0.000227
0.000262
0.000247
0.000272
0.000257
0.000259
0.000234
0.000252
0.000272
0.003010
0.000334
0.000234
0.000290
0.000271
0.000370
0.000320
0.000057
0.001921
0.000234
0.000230
0.000227
0.000316
0.000328
0.000531
0.000227
0.000287
0.000215
0.000252
0.000244
0.000262
0.000262
0.000263
0.000255
0.000251
0.000287
0.001818
0.000244
0.000239
0.000252
0.000271
0.000282
0.000269
0.000249
0.001481
0.000338
0.000235
0.000262
0.000172
0.000055
0.000201
0.000235
0.000233
0.000238
0.000256
0.000245
0.000289
0.000377
0.000382
0.000349
0.000203
0.000244
0.000265
0.000323
0.000428
0.000317
0.000219
0.000252
0.000266
0.000394
0.000419
0.000448
0.000263
0.000252
0.000262
0.000255
0.000254
0.000263
0.000290
0.000256
0.000203
0.000055
0.001445
0.000434
0.000223
0.001935
0.000255
0.000439
0.000446
0.000328
0.000208
0.000244
0.000271
0.000242
0.000252
0.000243
0.000271
0.000254
0.000462
0.000255
0.000407
0.000370
0.000376
0.000232
0.000258
0.000267
0.000273
0.000265
0.000261
0.000271
0.000389
0.000441
0.001377
0.000057
0.000201
0.000215
0.002081
0.000352
0.000288
0.000229
0.000255
0.000251
0.000259
0.000266
0.000209
0.000252
0.000253
0.000260
0.000257
0.000360
0.000714
0.001757
0.000234
0.000253
0.000249
0.000274
0.000371
0.000419
0.001599
0.000279
0.000366
0.001921
0.000259
0.000264
0.000189
0.000055
0.000194
0.000233
0.000238
0.000242
0.000233
0.000246
0.000252
0.000287
0.000327
0.000265
0.000380
0.000364
0.000342
0.000292
0.000243
0.000274
0.000256
0.000240
0.000267
0.000255
0.000311
0.000277
0.000269
0.000257
0.000272
0.001532
0.000270
0.000380
0.002068
0.000243
0.000168
0.000056
0.000217
0.000234
0.000243
0.000247
0.000491
0.000202
0.000254
0.000355
0.000355
0.000320
0.000284
0.000213
0.000262
0.000266
0.000271
0.000346
0.000417
0.000427
0.000245
0.000403
0.000525
0.000448
0.001585
0.000218
0.000258
0.001964
0.000353
0.000241
0.000238
0.000300
0.000188
0.000057
0.000206
0.000240
0.000225
0.000243
0.000250
0.000269
0.000255
0.000272
0.000247
0.000268
0.001809
0.000311
0.000383
0.000284
0.000461
0.000364
0.000367
0.001496
0.000226
0.000288
0.002098
0.000596
0.000248
0.000229
0.000273
0.000266
0.000508
0.000215
0.000261
0.000278
0.000199
0.000056
0.000302
0.000295
0.000436
0.000275
0.000195
0.000244
0.000261
0.000252
0.000262
0.000300
0.000221
0.000252
0.000261
0.000259
0.000454
0.000338
0.001337
0.000263
0.000276
0.001981
0.000326
0.000263
0.000233
0.000265
0.000268
0.000259
0.000269
0.000262
0.000246
0.000267
0.000199
0.000055
0.000241
0.000436
0.001998
0.000249
0.000229
0.000244
0.000253
0.000302
0.000408
0.000472
0.001296
0.000377
0.000356
0.002079
0.000207
0.000244
0.000263
0.000280
0.000255
0.000245
0.000283
0.000292
0.000254
0.000321
0.000518
0.000365
0.000320
0.002232
0.000493
0.000498
0.000371
0.000071
0.000184
0.000222
0.000241
0.001967
0.000227
0.000221
0.000246
0.000249
0.000240
0.000256
0.000251
0.000260
0.000259
0.000360
0.000361
0.001463
0.000257
0.000242
0.000263
0.000261
0.000231
0.000250
0.000263
0.000271
0.000398
0.000365
0.000485
0.000244
0.001603
0.000270
0.000160
0.000056
0.000199
0.000220
0.000249
0.000233
0.000278
0.000248
0.000230
0.000248
0.000254
0.000366
0.000375
0.001413
0.000242
0.000209
0.000253
0.000297
0.000223
0.000259
0.000308
0.000471
0.000460
0.000383
0.000235
0.001575
0.000220
0.000264
0.000286
0.000285
0.000258
0.000269
0.000193
0.000056
0.000217
0.000218
0.000268
0.000266
0.000249
0.000245
0.000243
0.000233
0.000280
0.000222
0.000252
0.000254
0.000269
0.001478
0.000365
0.000210
0.000243
0.000267
0.000274
0.000313
0.000371
0.000277
0.000241
0.000253
0.000270
0.000261
0.000258
0.001421
0.000277
0.000235
0.000167
0.000056
0.000209
0.000229
0.000266
0.000259
0.000268
0.000218
0.000248
0.000264
0.000215
0.000269
0.000245
0.000267
0.000216
0.000316
0.000351
0.000338
0.000307
0.000223
0.001644
0.000229
0.000244
0.000263
0.000257
0.000327
0.000327
0.000399
0.000449
0.000266
0.000263
0.001609
0.000163
0.000057
0.000302
0.000329
0.000367
0.000319
0.000222
0.000220
0.000246
0.000269
0.000252
0.000259
0.000228
0.000238
0.001470
0.000292
0.000305
0.000218
0.000251
0.000275
0.000251
0.000258
0.000264
0.000233
0.000256
0.000281
0.000255
0.000414
0.000426
0.000393
0.000216
0.000254
0.000195
0.000055
0.000203
0.000266
0.000489
0.000299
0.000361
0.000261
0.000246
0.000251
0.000253
0.000256
0.000244
0.000219
0.000260
0.000248
0.001247
0.000320
0.000220
0.000256
0.000262
0.000274
0.000229
0.000274
0.000245
0.000265
0.000252
0.000261
0.000287
0.000694
0.000464
0.000240
0.000184
0.000055
0.000193
0.001568
0.000237
0.000335
0.000458
0.000384
0.000208
0.000260
0.000264
0.000266
0.000225
0.000261
0.000270
0.000274
0.000261
0.001522
0.000255
0.000283
0.000260
0.000256
0.000277
0.000237
0.000265
0.000268
0.000254
0.000257
0.000469
0.000326
0.000365
0.000247
0.000196
0.000056
0.000209
0.000253
0.000235
0.001614
0.000423
0.000353
0.000218
0.000234
0.000256
0.000272
0.000282
0.000250
0.000258
0.000249
0.000235
0.000301
0.000354
0.001338
0.000251
0.000242
0.001485
0.000393
0.000509
0.000428
0.000288
0.000232
0.000275
0.000466
0.000236
0.000262
0.000184
0.000056
0.000270
0.000217
0.000247
0.000246
0.000248
0.000253
0.000240
0.000260
0.000264
0.000238
0.000245
0.000256
0.000320
0.000490
0.001669
0.001484
0.000368
0.000550
0.000328
0.000221
0.000225
0.000257
0.000248
0.000274
0.000251
0.000262
0.000260
0.000267
0.001525
0.000321
0.000178
0.000056
0.000179
0.000349
0.000354
0.000332
0.000240
0.000225
0.000243
0.000317
0.000459
0.000354
0.002202
0.000312
0.000787
0.000402
0.000483
0.000253
0.000339
0.000392
0.000329
0.000278
0.000394
0.000262
0.001537
0.000526
0.000218
0.000266
0.000258
0.000245
0.000267
0.000264
0.000201
0.000055
0.000195
0.000252
0.000264
0.000249
0.000237
0.001655
0.000888
0.000996
0.000208
0.000229
0.000259
0.000259
0.000257
0.000258
0.000261
0.000239
0.000257
0.000267
0.000264
0.000281
0.001432
0.000317
0.000247
0.000225
0.000233
0.000268
0.000260
0.000289
0.000259
0.000285
0.001903
0.000057
0.000196
0.000223
0.001546
0.000872
0.000350
0.000395
0.000211
0.000239
0.000244
0.000259
0.000246
0.000251
0.000244
0.001987
0.000470
0.000224
0.000241
0.000253
0.000267
0.000262
0.000198
