0.000089
0.016205
0.005439
0.000273
0.000242
0.000231
0.000299
0.000251
0.000333
0.000312
0.000227
0.000376
0.000553
0.000479
0.000365
0.000304
0.000271
0.000390
0.000396
0.000410
0.000308
0.001879
0.000459
0.000450
0.000260
0.000295
0.000319
0.000420
0.000408
0.000526
0.000402
0.000218
0.000058
0.000209
0.000232
0.000261
0.000260
0.000280
0.000253
0.000294
0.000241
0.000276
0.000337
0.000398
0.000456
0.000301
0.000281
0.000395
0.000382
0.000328
0.000246
0.000231
0.001718
0.000290
0.000221
0.000508
0.000249
0.000246
0.000254
0.000272
0.000321
0.000264
0.000349
0.000427
0.000056
0.000239
0.000228
0.000262
0.000259
0.000257
0.000251
0.000257
0.000265
0.000277
0.001675
0.000239
0.000237
0.000243
0.000276
0.000280
0.000245
0.000269
0.000253
0.000349
0.001797
0.000278
0.000246
0.000459
0.000473
0.000379
0.000239
0.000240
0.000534
0.000506
0.000728
0.000171
0.000056
0.000198
0.000219
0.000253
0.000233
0.000316
0.000256
0.000400
0.000474
0.000423
0.000273
0.000205
0.000236
0.000221
0.000250
0.000253
0.000261
0.000250
0.000262
0.000300
0.000355
0.001710
0.000253
0.000249
0.000458
0.000367
0.000590
0.000623
0.000516
0.000349
0.000249
0.000204
0.000055
0.000213
0.000222
0.000257
0.000246
0.000257
0.000264
0.000289
0.000446
0.001469
0.000293
0.000223
0.000237
0.000211
0.000245
0.000259
0.000282
0.000336
0.000746
0.001397
0.000300
0.000245
0.000418
0.000252
0.000229
0.000252
0.000254
0.000278
0.000263
0.000253
0.000270
0.000221
0.000055
0.000188
0.000229
0.000231
0.000236
0.000258
0.000244
0.000243
0.000262
0.000232
0.000259
0.001710
0.000273
0.000213
0.000221
0.000218
0.000234
0.000239
0.000249
0.000253
0.000261
0.000262
0.001747
0.000300
0.000214
0.000456
0.000239
0.000231
0.000241
0.000253
0.000265
0.000225
0.000058
0.000213
0.000196
0.000241
0.000251
0.000240
0.000246
0.000263
0.000239
0.000260
0.000244
0.000264
0.000258
0.000258
0.000277
0.001649
0.000262
0.000286
0.000232
0.000249
0.000267
0.000274
0.000244
0.000257
0.000252
0.000280
0.001865
0.000385
0.000333
0.000260
0.000270
0.000217
0.000056
0.000227
0.000204
0.000240
0.000269
0.000260
0.000251
0.000304
0.000427
0.000531
0.000263
0.000213
0.000240
0.000247
0.000259
0.001675
0.000593
0.000322
0.000268
0.000304
0.000214
0.000257
0.000280
0.000267
0.001814
0.000476
0.000499
0.000217
0.000233
0.000229
0.000261
0.000201
0.000057
0.000203
0.000225
0.000221
0.000268
0.000371
0.000480
0.000345
0.000271
0.000203
0.000222
0.000272
0.000235
0.000269
0.001763
0.000424
0.000312
0.000211
0.000252
0.000259
0.000275
0.000265
0.000253
0.000286
0.001904
0.000283
0.000390
0.000239
0.000252
0.000327
0.000403
0.000325
0.000055
0.000247
0.000378
0.000295
0.000284
0.000290
0.000206
0.000240
0.000265
0.000243
0.000249
0.000223
0.000244
0.001623
0.000352
0.000299
0.000213
0.000219
0.000247
0.000252
0.000273
0.000272
0.000343
0.001784
0.000349
0.000231
0.000499
0.000213
0.000237
0.000245
0.000265
0.000276
0.000058
0.000294
0.000550
0.000667
0.000207
0.000209
0.000257
0.000229
0.000216
0.000266
0.000265
0.000244
0.001700
0.000289
0.000394
0.000388
0.000243
0.000213
0.000223
0.000247
0.000264
0.000368
0.001740
0.000245
0.000230
0.002269
0.000407
0.000271
0.000260
0.000267
0.000248
0.000214
0.000056
0.000188
0.000224
0.000241
0.000244
0.000249
0.001705
0.000215
0.000198
0.000243
0.000250
0.000245
0.000260
0.000242
0.000252
0.000311
0.000404
0.000622
0.000235
0.000234
0.000255
0.000278
0.000256
0.000230
0.000505
0.000426
0.000273
0.000459
0.000441
0.000441
0.000216
0.000197
0.000055
0.000198
0.000219
0.000253
0.000254
0.000233
0.000245
0.000249
0.000585
0.000361
0.001572
0.000249
0.000234
0.000236
0.000258
0.000245
0.000268
0.000488
0.000485
0.000370
0.000229
0.000219
0.000284
0.000299
0.000291
0.000275
0.000402
0.000487
0.000534
0.000448
0.000447
0.000133
0.000058
0.000216
0.000236
0.000221
0.000230
0.000245
0.000238
0.000240
0.000256
0.000243
0.000374
0.000384
0.001516
0.000271
0.000206
0.000199
0.000222
0.000271
0.000243
0.000254
0.000254
0.000282
0.000449
0.000386
0.000359
0.000230
0.000219
0.000258
0.000263
0.000272
0.000257
0.000440
0.000055
0.000186
0.000219
0.000227
0.000267
0.000602
0.000361
0.000259
0.000236
0.000238
0.000255
0.000246
0.000246
0.000279
0.000262
0.000237
0.000553
0.000423
0.001577
0.000267
0.000237
0.000262
0.000258
0.000262
0.000243
0.000273
0.000481
0.000550
0.000293
0.000362
0.000214
0.000230
0.000056
0.000215
0.000224
0.000415
0.000223
0.000263
0.000242
0.000377
0.000566
0.000248
0.000318
0.000228
0.000268
0.000270
0.000244
0.000589
0.000292
0.000231
0.000231
0.000457
0.001649
0.000242
0.000218
0.000322
0.000409
0.000266
0.000303
0.000254
0.000315
0.000573
0.000381
0.000292
0.000056
0.000183
0.000214
0.000230
0.000239
0.000480
0.000258
0.000289
0.000209
0.000416
0.000604
0.000302
0.000239
0.000209
0.000217
0.000253
0.000268
0.000256
0.000258
0.000228
0.000365
0.000282
0.000634
0.001540
0.000256
0.000241
0.000249
0.000321
0.000363
0.000664
0.000554
0.000328
0.000056
0.000250
0.000321
0.000322
0.000423
0.000307
0.000226
0.000236
0.000369
0.000569
0.000289
0.000310
0.000215
0.000211
0.000255
0.000268
0.000246
0.000249
0.000267
0.000270
0.000260
0.000269
0.000440
0.001733
0.000312
0.000345
0.000426
0.000377
0.000238
0.000482
0.000346
0.000309
0.000057
0.000236
0.000383
0.000279
0.000212
0.000234
0.000214
0.000466
0.000212
0.000214
0.000356
0.000412
0.000472
0.000232
0.000235
0.000263
0.000294
0.000365
0.000435
0.000302
0.000230
0.000220
0.000276
0.000713
0.001698
0.000258
0.000398
0.000321
0.000241
0.000328
0.000426
0.000369
0.000056
0.000202
0.000208
0.000247
0.000238
0.000248
0.000246
0.000254
0.000340
0.000450
0.000353
0.000463
0.000339
0.000288
0.000196
0.000527
0.000261
0.000275
0.000263
0.000242
0.000355
0.000231
0.000226
0.000273
0.000405
0.000552
0.001669
0.000238
0.000221
0.000236
0.000261
0.000206
0.000055
0.000253
0.000453
0.000383
0.000224
0.000221
0.000221
0.000270
0.000226
0.000256
0.000257
0.000221
0.000494
0.000310
0.000453
0.000365
0.000338
0.000208
0.000241
0.000388
0.000335
0.000359
0.000379
0.000381
0.000369
0.000243
0.000224
0.000252
0.000264
0.001787
0.000264
0.000216
0.000057
0.000188
0.000209
0.000244
0.000274
0.000362
0.000536
0.000335
0.000212
0.000268
0.000254
0.000241
0.000245
0.000526
0.000450
0.000476
0.000306
0.000270
0.000248
0.000442
0.000508
0.000346
0.000607
0.000291
0.000435
0.000236
0.000243
0.000238
0.000224
0.000267
0.001782
0.000390
0.000058
0.000245
0.000315
0.000206
0.000219
0.000259
0.000249
0.000320
0.000425
0.000425
0.000300
0.000302
0.000301
0.000353
0.000600
0.000376
0.000201
0.000228
0.000257
0.000232
0.000263
0.000266
0.000267
0.000246
0.000264
0.000374
0.000293
0.000529
0.000302
0.000228
0.000213
0.000197
0.000060
0.000431
0.000314
0.000421
0.000262
0.000205
0.000228
0.000242
0.000258
0.000249
0.000222
0.000243
0.000282
0.000294
0.000347
0.000641
0.000366
0.000320
0.000373
0.000375
0.000391
0.000261
0.000214
0.000214
0.000256
0.001811
0.000228
0.001772
0.000940
0.000329
0.000375
0.000135
0.000056
0.000209
0.000204
0.000245
0.000227
0.000269
0.000251
0.000249
0.000248
0.000268
0.000372
0.000501
0.000235
0.000537
0.000280
0.000210
0.000232
0.000261
0.000290
0.000231
0.000213
0.000254
0.000233
0.001805
0.000291
0.000213
0.000253
0.000278
0.000268
0.001858
0.000562
0.000287
0.000057
0.000235
0.000203
0.000219
0.000237
0.000274
0.000225
0.000244
0.000258
0.000253
0.000439
0.000522
0.000283
0.000404
0.000238
0.000226
0.000278
0.000384
0.000393
0.000376
0.000268
0.001781
0.000240
0.000219
0.000227
0.000250
0.000276
0.000249
0.000263
0.000252
0.000597
0.000212
0.000056
0.000211
0.000239
0.000191
0.000262
0.000245
0.000239
0.000259
0.000260
0.000233
0.000265
0.000235
0.000279
0.000428
0.000371
0.000330
0.000301
0.000481
0.000196
0.000233
0.000255
0.000269
0.000244
0.000282
0.000255
0.000278
0.001784
0.000257
0.000261
0.000239
0.000239
0.000218
0.000056
0.000362
0.000237
0.000231
0.000206
0.000221
0.000237
0.000239
0.000261
0.000239
0.000241
0.000210
0.000272
0.000259
0.000336
0.000498
0.000308
0.000345
0.000219
0.000221
0.000239
0.000256
0.000263
0.000254
0.000276
0.000243
0.000256
0.000300
0.001708
0.000228
0.000222
0.000198
0.000056
0.000210
0.000207
0.000249
0.000265
0.000354
0.000393
0.000361
0.000340
0.000211
0.000247
0.000242
0.000243
0.000245
0.000255
0.000262
0.000255
0.000251
0.000251
0.000253
0.000280
0.000244
0.000274
0.000263
0.000219
0.000244
0.000279
0.000279
0.000264
0.000261
0.000257
0.000206
0.000073
0.000163
0.000243
0.000224
0.000252
0.000242
0.000252
0.000245
0.000254
0.000365
0.000202
0.000197
0.000241
0.000252
0.000248
0.000262
0.000273
0.000249
0.000256
0.000365
0.000224
0.000228
0.000284
0.000281
0.000252
0.000278
0.000275
0.000273
0.000242
0.000279
0.000450
0.000702
0.000055
0.000229
0.000300
0.000223
0.000192
0.000217
0.000248
0.000242
0.000248
0.000249
0.000248
0.000264
0.000327
0.000453
0.001826
0.000260
0.000220
0.000500
0.000218
0.000240
0.000437
0.000515
0.000290
0.000238
0.000258
0.000261
0.000259
0.000277
0.000257
0.000307
0.000263
0.000203
0.000055
0.000496
0.000247
0.000360
0.000327
0.000207
0.000228
0.000250
0.000251
0.000226
0.000250
0.000254
0.000258
0.000236
0.000293
0.000400
0.000441
0.000367
0.001795
0.000263
0.000232
0.000388
0.000433
0.000374
0.000321
0.000367
0.000267
0.000299
0.000247
0.000218
0.000246
0.000214
0.000056
0.000201
0.000211
0.000239
0.000352
0.000350
0.000401
0.000325
0.000246
0.000258
0.000227
0.000237
0.000266
0.000268
0.000260
0.000250
0.000256
0.000308
0.000558
0.000329
0.000388
0.000242
0.001796
0.000304
0.000565
0.000529
0.000383
0.000277
0.000249
0.000229
0.000264
0.000491
0.000056
0.000196
0.000273
0.000197
0.000246
0.000490
0.000484
0.000387
0.000196
0.000200
0.000319
0.000225
0.000237
0.000257
0.000305
0.000360
0.000209
0.000271
0.000465
0.000247
0.000413
0.000550
0.001778
0.000259
0.000593
0.000341
0.000364
0.000232
0.000376
0.000244
0.000210
0.000228
0.000056
0.000229
0.000338
0.000346
0.000379
0.000308
0.000352
0.000337
0.000213
0.000219
0.000254
0.000281
0.000238
0.000247
0.000239
0.000247
0.000254
0.000342
0.000403
0.000497
0.000375
0.000272
0.000224
0.000250
0.001789
0.000463
0.000387
0.000702
0.000272
0.000250
0.000279
0.000179
0.000055
0.000183
0.000219
0.000318
0.000254
0.000301
0.000359
0.000493
0.000347
0.000194
0.000513
0.000215
0.000215
0.000238
0.000271
0.000271
0.000277
0.000224
0.000443
0.000443
0.000366
0.000251
0.000245
0.000240
0.000256
0.000259
0.000267
0.000250
0.000277
0.000231
0.000368
0.000171
0.000056
0.000312
0.000314
0.000244
0.000214
0.000270
0.000245
0.000241
0.000363
0.000209
0.000206
0.000258
0.000334
0.000516
0.000347
0.000445
0.000183
0.000212
0.000233
0.000251
0.000255
0.000256
0.000307
0.000228
0.000254
0.000279
0.000389
0.000433
0.000326
0.000361
0.000222
0.000151
0.000056
0.000189
0.000212
0.000264
0.000249
0.000246
0.000237
0.000252
0.000262
0.000492
0.000254
0.000226
0.000247
0.000249
0.000249
0.000274
0.000272
0.000275
0.000354
0.000247
0.000218
0.000245
0.000269
0.000257
0.000262
0.000279
0.000267
0.000262
0.000253
0.000251
0.000521
0.000161
0.000056
0.000193
0.000217
0.000238
0.000258
0.000254
0.000229
0.000296
0.000458
0.000263
0.000226
0.000252
0.000259
0.000252
0.000306
0.000474
0.001694
0.000235
0.000256
0.000312
0.000381
0.000415
0.000340
0.000383
0.000361
0.000391
0.000383
0.000223
0.000268
0.000272
0.000266
0.001433
0.000055
0.000439
0.000264
0.000299
0.000210
0.000197
0.000235
0.000225
0.000261
0.000247
0.000259
0.000251
0.000269
0.000235
0.000267
0.000590
0.001682
0.000209
0.000228
0.000210
0.000267
0.000250
0.000245
0.000405
0.000407
0.000255
0.000327
0.000250
0.000252
0.000266
0.000268
0.000197
0.000056
0.001242
0.000547
0.000306
0.000309
0.000194
0.000218
0.000203
0.000222
0.000476
0.000247
0.000226
0.000249
0.000391
0.000584
0.000295
0.000334
0.000298
0.000245
0.000358
0.000338
0.000238
0.000224
0.000275
0.000235
0.000280
0.000710
0.000447
0.000236
0.000248
0.000272
0.000187
0.000056
0.000229
0.000200
0.000229
0.000243
0.001476
0.000330
0.000195
0.000245
0.000247
0.000240
0.000254
0.000252
0.000239
0.000263
0.000266
0.000285
0.000607
0.000503
0.000251
0.001815
0.000260
0.000286
0.000308
0.000476
0.000538
0.000307
0.000239
0.000233
0.000254
0.000275
0.000216
0.000055
0.000204
0.000252
0.000222
0.001311
0.000341
0.000205
0.000248
0.000206
0.000243
0.000233
0.000241
0.000246
0.000277
0.000255
0.000244
0.000278
0.000657
0.000308
0.000322
0.000217
0.000239
0.000273
0.000269
0.000218
0.000360
0.000218
0.000226
0.000268
0.000272
0.000318
0.000647
0.000056
0.000204
0.000230
0.000230
0.000266
0.000261
0.000250
0.000233
0.000257
0.000269
0.000253
0.001448
0.000239
0.000216
0.000245
0.000265
0.000226
0.000266
0.000267
0.000250
0.000273
0.000332
0.000456
0.000581
0.000253
0.000224
0.000267
0.001832
0.000224
0.000235
0.000327
0.000414
0.000056
0.000262
0.000425
0.000459
0.000503
0.000523
0.000529
0.001487
0.000416
0.000548
0.000646
0.000612
0.000744
0.000428
0.000593
0.000582
0.001732
0.000466
0.000432
0.000392
0.000330
0.000234
0.000295
0.000280
0.000266
0.000282
0.000270
0.000319
0.000269
0.000249
0.000295
0.001316
0.000056
0.000219
0.000251
0.000216
0.000236
0.000243
0.000252
0.000237
0.000224
0.000271
0.000271
0.000240
0.000276
0.000244
0.000237
0.000287
0.000240
0.001838
0.000262
0.000260
0.000254
0.000255
0.000292
0.000237
0.000305
0.000411
0.000397
0.000317
0.000251
0.000260
0.000293
0.000169
0.000056
0.000205
0.001377
0.000268
0.000264
0.000265
0.000239
0.000245
0.000254
0.000252
0.000234
0.000243
0.000241
0.000258
0.000432
0.000311
0.000330
0.000265
0.000290
0.001913
0.000261
0.000256
0.000258
0.000258
0.000259
0.000278
0.000255
0.000293
0.000249
0.000242
0.000292
0.000244
0.000055
0.000181
0.000235
0.000253
0.001418
0.000270
0.000267
0.000227
0.000224
0.000221
0.000261
0.000263
0.000243
0.000240
0.000256
0.000303
0.000236
0.000251
0.000264
0.000262
0.000266
0.000248
0.001850
0.000260
0.001768
0.000269
0.000234
0.000249
0.000232
0.000265
0.000289
0.000193
0.000055
0.000212
0.000274
0.001344
0.000221
0.000286
0.000212
0.000221
0.000238
0.000246
0.000257
0.000239
0.000253
0.000253
0.000261
0.000256
0.000256
0.000270
0.000273
0.000298
0.000246
0.001867
0.000283
0.001787
0.000275
0.000261
0.000244
0.000254
0.000266
0.000258
0.000263
0.000188
0.000056
0.001445
0.000228
0.000254
0.000224
0.000214
0.000222
0.000271
0.000354
0.000255
0.000261
0.000246
0.000266
0.000273
0.000346
0.000454
0.000263
0.000266
0.000265
0.000234
0.000213
0.000266
0.000347
0.000246
0.000251
0.000274
0.000271
0.000256
0.000403
0.000652
0.000348
0.000208
0.000055
0.000220
0.000285
0.000265
0.000316
0.000376
0.000243
0.001666
0.000292
0.000280
0.000260
0.000266
0.000298
0.000267
0.000263
0.000299
0.000340
0.000522
0.000330
0.000365
0.000301
0.000302
0.000272
0.000269
0.000262
0.000326
0.000265
0.000261
0.000239
0.000240
0.000348
0.000387
0.000058
0.000300
0.000396
0.000244
0.000264
0.000260
0.000224
0.000220
0.000251
0.000257
0.000258
0.001540
0.000231
0.000198
0.000242
0.000246
0.000283
0.000273
0.000255
0.000258
0.000258
0.000268
0.000521
0.000409
0.000360
0.000218
0.000287
0.000274
0.000240
0.000246
0.000236
0.000255
0.000056
0.000194
0.000218
0.000266
0.000446
0.000411
0.000248
0.000221
0.000245
0.000243
0.000264
0.000244
0.000245
0.000251
0.000271
0.000229
0.000244
0.000401
0.001280
0.000211
0.000258
0.000217
0.000253
0.000351
0.000506
0.000215
0.000384
0.000499
0.000331
0.000413
0.000231
0.000156
0.000056
0.000194
0.000234
0.000257
0.000263
0.000310
0.000212
0.000327
0.000467
0.000423
0.000326
0.000353
0.000403
0.000385
0.000355
0.000240
0.000209
0.000229
0.000237
0.000376
0.000547
0.001196
0.000246
0.000255
0.000269
0.000241
0.000235
0.000261
0.000352
0.000365
0.000544
0.000228
0.000054
0.000223
0.000196
0.000240
0.000242
0.000257
0.000243
0.000235
0.000257
0.000255
0.000488
0.000450
0.000368
0.000208
0.000205
0.000234
0.000250
0.000245
0.000265
0.000267
0.000528
0.000222
0.000236
0.000417
0.000356
0.000317
0.000249
0.000239
0.000280
0.000244
0.000285
0.000242
0.000056
0.000295
0.000294
0.000397
0.000413
0.000369
0.000326
0.000244
0.000264
0.000220
0.000280
0.000253
0.000254
0.000242
0.000250
0.000251
0.000221
0.000284
0.000368
0.000672
0.000200
0.000229
0.000259
0.000208
0.000238
0.000260
0.000273
0.000262
0.000281
0.000270
0.000265
0.000329
0.000057
0.000343
0.000241
0.000238
0.000211
0.000258
0.000244
0.000245
0.000251
0.000269
0.000254
0.000253
0.000245
0.000360
0.000496
0.000404
0.000317
0.000222
0.000203
0.000239
0.000276
0.000271
0.000238
0.000266
0.000264
0.000265
0.000387
0.000337
0.000589
0.000506
0.000224
0.000146
0.000055
0.000369
0.000212
0.000195
0.000248
0.000249
0.000240
0.000243
0.000248
0.000250
0.000262
0.000234
0.000235
0.000260
0.000234
0.000241
0.000270
0.000254
0.000261
0.000269
0.000275
0.000256
0.000251
0.000272
0.000255
0.000274
0.000265
0.000236
0.000272
0.000256
0.000277
0.000222
0.000056
0.000176
0.000214
0.000246
0.000247
0.000234
0.000249
0.000260
0.000248
0.000256
0.000278
0.000228
0.000228
0.000274
0.000398
0.000240
0.000277
0.000266
0.000258
0.000261
0.000275
0.000272
0.000240
0.000263
0.000230
0.000268
0.000280
0.000253
0.000250
0.000263
0.000266
0.000230
0.000057
0.000256
0.000376
0.000348
0.000280
0.000328
0.000207
0.000207
0.000250
0.000236
0.000235
0.000243
0.000267
0.000249
0.000235
0.000257
0.000266
0.000261
0.000275
0.000259
0.000242
0.000283
0.000260
0.000281
0.000251
0.000276
0.000282
0.000225
0.000293
0.000244
0.000266
0.000204
0.000057
0.000186
0.000210
0.000250
0.000258
0.000252
0.000454
0.000209
0.000240
0.000320
0.000451
0.000453
0.000336
0.000204
0.000224
0.000257
0.000274
0.000245
0.000257
0.000271
0.000265
0.000262
0.000261
0.000267
0.000311
0.000651
0.000377
0.000255
0.000268
0.000277
0.000254
0.000208
0.000056
0.000209
0.000210
0.000233
0.000253
0.000457
0.000531
0.000301
0.000371
0.000237
0.000236
0.000244
0.000263
0.000252
0.000237
0.000264
0.000272
0.000258
0.000273
0.000696
0.000312
0.000326
0.000209
0.000254
0.000280
0.000283
0.000262
0.000259
0.000268
0.000249
0.000344
0.000381
0.000056
0.000203
0.000244
0.000215
0.000231
0.000256
0.000251
0.000236
0.000246
0.000234
0.000259
0.000240
0.000261
0.000250
0.000394
0.000685
0.000311
0.000224
0.000235
0.000255
0.000250
0.000262
0.000272
0.000479
0.000253
0.000251
0.000697
0.000382
0.000401
0.000280
0.000246
0.000193
0.000056
0.000202
0.000204
0.000242
0.000234
0.000256
0.000261
0.000361
0.000583
0.000489
0.000310
0.000251
0.000232
0.000270
0.000281
0.000273
0.000234
0.000248
0.000231
0.000258
0.000364
0.000439
0.000511
0.000434
0.000282
0.000441
0.000340
0.000483
0.000215
0.000242
0.000469
0.000341
0.000056
0.000267
0.000213
0.000474
0.000204
0.000235
0.000224
0.000246
0.000261
0.000234
0.000239
0.000287
0.000382
0.000463
0.000288
0.000217
0.000223
0.000269
0.000238
0.000267
0.000265
0.000275
0.000263
0.000255
0.000268
0.000376
0.000453
0.000460
0.000252
0.000239
0.000262
0.000212
0.000056
0.000210
0.000237
0.000225
0.000250
0.000248
0.000295
0.000354
0.000522
0.000334
0.000263
0.000344
0.000240
0.000219
0.000265
0.000262
0.000234
0.000254
0.000260
0.000350
0.000393
0.000504
0.000289
0.000432
0.000357
0.000396
0.000388
0.000378
0.000244
0.000221
0.000329
0.000402
0.000056
0.000227
0.000271
0.000200
0.000242
0.000259
0.000259
0.000247
0.000248
0.000260
0.000258
0.000235
0.000437
0.000424
0.000323
0.000364
0.000273
0.000218
0.000267
0.000265
0.000242
0.000243
0.000261
0.000272
0.000261
0.000285
0.000313
0.000546
0.000416
0.000250
0.000286
0.000208
0.000058
0.000193
0.000224
0.000257
0.000248
0.000264
0.000353
0.000491
0.000496
0.000346
0.000661
0.000288
0.000219
0.000229
0.000248
0.000264
0.000248
0.000287
0.000266
0.000489
0.000658
0.001388
0.000252
0.000255
0.000259
0.000297
0.000228
0.000428
0.000420
0.000404
0.000236
0.000165
0.000057
0.000218
0.000204
0.000239
0.000250
0.000232
0.000254
0.000270
0.000268
0.000238
0.000366
0.000352
0.000359
0.000285
0.000388
0.000385
0.000322
0.000231
0.000212
0.000244
0.000259
0.000243
0.000252
0.000278
0.000260
0.000343
0.000530
0.000380
0.000255
0.000220
0.000269
0.000196
0.000055
0.000208
0.000231
0.000257
0.000251
0.000251
0.000234
0.000452
0.000255
0.000224
0.000250
0.000243
0.000251
0.000254
0.000254
0.000253
0.000270
0.000263
0.000258
0.000278
0.000253
0.000262
0.000283
0.000300
0.000246
0.000264
0.000277
0.000268
0.000271
0.000259
0.000259
0.000195
0.000055
0.000228
0.000225
0.000306
0.000508
0.000346
0.000204
0.000227
0.000229
0.000262
0.000259
0.000238
0.000249
0.000270
0.000254
0.000241
0.000247
0.000252
0.000260
0.000272
0.000337
0.000455
0.000414
0.000212
0.000261
0.000278
0.000247
0.000266
0.000243
0.000271
0.000278
0.000222
0.000056
0.000243
0.000467
0.000330
0.000238
0.000222
0.000253
0.000471
0.000210
0.000201
0.000243
0.000284
0.000330
0.000371
0.000444
0.001759
0.000261
0.000257
0.000235
0.000275
0.000255
0.000319
0.000601
0.000485
0.000298
0.000252
0.000217
0.000272
0.000424
0.000285
0.000283
0.000181
0.000056
0.000248
0.000385
0.000278
0.000293
0.000512
0.000216
0.000225
0.000237
0.000260
0.000241
0.000256
0.000245
0.000261
0.000361
0.000470
0.000410
0.000222
0.000209
0.000259
0.000263
0.000255
0.000312
0.000250
0.000272
0.000280
0.000496
0.000477
0.000464
0.000412
0.000208
0.000215
0.000055
0.000204
0.000211
0.000247
0.000251
0.000227
0.000248
0.000270
0.000268
0.000352
0.000484
0.000316
0.000372
0.000230
0.000229
0.000262
0.000260
0.000339
0.000228
0.000268
0.000272
0.000245
0.000313
0.000566
0.000277
0.000264
0.000282
0.000244
0.000517
0.000405
0.000270
0.000182
0.000056
0.000201
0.000265
0.000303
0.000420
0.000363
0.000232
0.000219
0.000253
0.000261
0.000257
0.000262
0.000254
0.000237
0.000243
0.000256
0.000307
0.000424
0.000333
0.000301
0.000364
0.000453
0.000235
0.000278
0.000277
0.000302
0.000278
0.000264
0.000258
0.000455
0.000589
0.000176
0.000057
0.000204
0.000200
0.000236
0.000254
0.000247
0.000479
0.000231
0.000229
0.000262
0.000396
0.000504
0.000517
0.000230
0.000227
0.000239
0.000259
0.000263
0.000239
0.000244
0.000262
0.000251
0.000277
0.000374
0.000518
0.000324
0.000324
0.000342
0.000341
0.000306
0.000237
0.000143
0.000057
0.000189
0.000214
0.000270
0.000466
0.000306
0.000389
0.000243
0.000209
0.000210
0.000243
0.000251
0.000250
0.000276
0.000233
0.000308
0.000211
0.000250
0.000247
0.000249
0.000447
0.000556
0.000330
0.000230
0.000219
0.000279
0.000270
0.000272
0.000249
0.000273
0.000250
0.000219
0.000057
0.000289
0.000398
0.000466
0.000214
0.000212
0.000212
0.000307
0.000532
0.000250
0.000214
0.000233
0.000257
0.000327
0.000482
0.000348
0.000322
0.000212
0.000216
0.000297
0.000207
0.000274
0.000272
0.000250
0.000274
0.000284
0.000364
0.000417
0.000368
0.000339
0.000198
0.000163
0.000057
0.000204
0.000220
0.000241
0.000274
0.000242
0.000251
0.000237
0.000248
0.000251
0.000251
0.000263
0.000250
0.000245
0.001468
0.000239
0.000250
0.000248
0.000241
0.000273
0.000283
0.000258
0.000254
0.000269
0.000254
0.000270
0.000262
0.000283
0.000256
0.000270
0.000273
0.000205
0.000058
0.000197
0.000230
0.000223
0.000248
0.000243
0.000241
0.000257
0.000256
0.000236
0.000242
0.000256
0.000253
0.000260
0.000254
0.000262
0.000251
0.000256
0.000262
0.000263
0.000264
0.000252
0.000252
0.000257
0.000238
0.001370
0.000284
0.000552
0.000415
0.000374
0.000219
0.000155
0.000056
0.000198
0.000214
0.000239
0.000248
0.000494
0.000234
0.000202
0.000205
0.000255
0.000378
0.000507
0.000341
0.000219
0.000203
0.000236
0.000254
0.000257
0.000261
0.000248
0.000267
0.000257
0.000259
0.000292
0.000387
0.000506
0.000435
0.000264
0.000242
0.001362
0.000274
0.000184
0.000057
0.000373
0.000395
0.000375
0.000223
0.000200
0.000209
0.000215
0.000250
0.000259
0.000254
0.000250
0.000259
0.000264
0.000414
0.000456
0.000383
0.000313
0.000234
0.000254
0.000253
0.000243
0.000267
0.000264
0.000271
0.000265
0.000266
0.000433
0.000517
0.000330
0.000378
0.000161
0.000057
0.000200
0.000233
0.001311
0.000374
0.000360
0.000410
0.000330
0.000334
0.000439
0.000375
0.000233
0.000202
0.000243
0.000250
0.000257
0.000254
0.000422
0.000494
0.000347
0.000340
0.000275
0.000231
0.000263
0.000506
0.000240
0.000264
0.000251
0.000283
0.000339
0.000498
0.000334
0.000056
0.000380
0.000354
0.000217
0.000206
0.001646
0.000431
0.000301
0.000214
0.000200
0.000267
0.000205
0.000237
0.000246
0.000262
0.000256
0.000267
0.000233
0.000353
0.000415
0.000428
0.000412
0.000198
0.000219
0.000263
0.000234
0.000276
0.000272
0.000240
0.000266
0.000275
0.000227
0.000055
0.000173
0.000330
0.000268
0.000196
0.000248
0.000245
0.000249
0.000244
0.000236
0.000251
0.001597
0.000321
0.000276
0.000201
0.000218
0.000258
0.000257
0.000273
0.000240
0.000261
0.000275
0.000259
0.000286
0.000468
0.000389
0.000429
0.000211
0.000260
0.000280
0.000269
0.000201
0.000056
0.000198
0.000461
0.000208
0.000196
0.000383
0.000381
0.000359
0.000355
0.000449
0.000233
0.000201
0.000250
0.000259
0.000267
0.000268
0.001484
0.000278
0.000281
0.000250
0.000265
0.000284
0.000251
0.000260
0.000255
0.000256
0.000264
0.000497
0.000390
0.000330
0.000287
0.000131
0.000057
0.000195
0.000213
0.000247
0.000243
0.000227
0.000261
0.000240
0.000244
0.000329
0.000369
0.000439
0.000317
0.000228
0.000207
0.000231
0.000282
0.000256
0.000270
0.000267
0.000229
0.000258
0.000294
0.001342
0.000249
0.000263
0.000210
0.000234
0.000270
0.000251
0.000258
0.000197
0.000057
0.000277
0.000302
0.000362
0.000352
0.000232
0.000203
0.000266
0.000240
0.000252
0.000248
0.000264
0.000268
0.000259
0.000235
0.000257
0.000267
0.000264
0.000264
0.000269
0.000250
0.000251
0.000280
0.000264
0.000274
0.000287
0.000270
0.000290
0.000237
0.000260
0.000506
0.001327
0.000055
0.000232
0.000207
0.000224
0.000257
0.000236
0.000257
0.000257
0.000218
0.000248
0.000252
0.000260
0.000263
0.000258
0.000237
0.000251
0.001716
0.000353
0.000214
0.000221
0.000220
0.000256
0.000256
0.000275
0.000258
0.000262
0.000275
0.000264
0.000278
0.000268
0.000257
0.000236
0.000057
0.000433
0.000332
0.001237
0.000211
0.000191
0.000237
0.000254
0.000258
0.000254
0.000250
0.000238
0.000394
0.000426
0.000439
0.000247
0.000211
0.000224
0.000258
0.000247
0.000269
0.000246
0.000278
0.000254
0.000282
0.000274
0.000415
0.000383
0.000353
0.000278
0.000258
0.000200
0.000056
0.000180
0.000220
0.000249
0.000244
0.000249
0.000234
0.000237
0.000336
0.000324
0.000542
0.001064
0.000241
0.000227
0.000271
0.000256
0.000263
0.000274
0.000251
0.000336
0.000448
0.000359
0.000251
0.000239
0.000219
0.000281
0.000304
0.000245
0.000288
0.000282
0.000260
0.000217
0.000055
0.000469
0.000240
0.000373
0.000228
0.000203
0.000208
0.000236
0.000265
0.000274
0.000256
0.000224
0.000533
0.000321
0.000421
0.000466
0.001455
0.000226
0.000253
0.000346
0.000357
0.000448
0.000483
0.000373
0.000430
0.000213
0.000259
0.000265
0.000274
0.000278
0.000265
0.000213
0.000055
0.000187
0.000260
0.000557
0.000427
0.000310
0.000210
0.000232
0.000239
0.000241
0.000260
0.000268
0.000244
0.000265
0.000268
0.000240
0.000357
0.000356
0.000457
0.000299
0.001317
0.000264
0.000253
0.000254
0.000469
0.000329
0.000409
0.000407
0.000223
0.000237
0.000279
0.000200
0.000056
0.000191
0.000227
0.000241
0.000242
0.000247
0.000265
0.000469
0.000362
0.000373
0.000249
0.000225
0.000254
0.000268
0.000260
0.000262
0.000270
0.000262
0.000253
0.000267
0.000344
0.000513
0.000397
0.000314
0.001345
0.000360
0.000224
0.000297
0.000474
0.000411
0.000329
0.000334
0.000056
0.000187
0.000212
0.000247
0.000254
0.000254
0.000252
0.001708
0.000235
0.000228
0.000214
0.000251
0.000266
0.000314
0.000326
0.000331
0.000295
0.000220
0.000348
0.000511
0.000393
0.000286
0.000267
0.000217
0.000234
0.001438
0.000454
0.000402
0.000460
0.000321
0.000295
0.000163
0.000057
0.000199
0.000218
0.000252
0.000263
0.000240
0.000259
0.001788
0.000207
0.000241
0.000255
0.000390
0.000414
0.001455
0.000288
0.000427
0.000200
0.000220
0.000229
0.000270
0.000269
0.001631
0.000646
0.000300
0.000286
0.000208
0.000218
0.000254
0.000279
0.000258
0.000248
0.000209
0.000056
0.000198
0.000221
0.000264
0.000239
0.000271
0.000270
0.000284
0.000251
0.000257
0.000245
0.000256
0.000247
0.000262
0.000262
0.000258
0.001506
0.000288
0.000225
0.000264
0.000268
0.000278
0.000255
0.000439
0.001266
0.000272
0.000242
0.000265
0.000256
0.000452
0.000226
0.000178
0.000055
0.000211
0.000224
0.000228
0.000250
0.000237
0.000225
0.000236
0.001769
0.000211
0.000209
0.000237
0.000363
0.000244
0.000211
0.001464
0.000246
0.000215
0.000220
0.000256
0.000274
0.000236
0.000308
0.000333
0.001361
0.000284
0.000222
0.000227
0.000271
0.001377
0.000275
0.000225
0.000056
0.000251
0.000322
0.000233
0.000186
0.000247
0.000238
0.000265
0.000269
0.000266
0.000253
0.000260
0.000256
0.000258
0.000249
0.000320
0.001489
0.000265
0.000247
0.000259
0.000245
0.000271
0.000274
0.000251
0.001505
0.000341
0.000248
0.000265
0.001350
0.000238
0.000224
0.000188
0.000055
0.000220
0.000395
0.000309
0.000213
0.000228
0.000234
0.000261
0.000256
0.000262
0.000270
0.000242
0.000250
0.000259
0.000307
0.000444
0.001235
0.000194
0.000223
0.000250
0.000277
0.000231
0.000248
0.000250
0.001287
0.000394
0.000210
0.000224
0.000252
0.000260
0.001340
0.000341
0.000056
0.000318
0.000249
0.000212
0.000219
0.000228
0.000245
0.000264
0.000235
0.000265
0.000266
0.000242
0.000254
0.000288
0.000274
0.000424
0.001482
0.000235
0.000226
0.000300
0.000506
0.000302
0.000406
0.001328
0.000302
0.000242
0.000257
0.001283
0.000354
0.000315
0.000473
0.000341
0.000056
0.000233
0.000218
0.000254
0.000255
0.000250
0.000257
0.000276
0.000241
0.000263
0.000262
0.000432
0.000468
0.001291
0.000207
0.000242
0.000258
0.000282
0.000265
0.000206
0.000222
0.000434
0.001225
0.000233
0.000223
0.000233
0.000243
0.001512
0.000445
0.000458
0.000246
0.000188
0.000055
0.000182
0.000206
0.000253
0.000253
0.000228
0.000266
0.000257
0.000247
0.000521
0.000400
0.000298
0.001458
0.000230
0.000221
0.000266
0.000252
0.000318
0.000251
0.001636
0.000332
0.000338
0.000358
0.001380
0.000342
0.000293
0.000334
0.000235
0.000217
0.000242
0.000277
0.000200
0.000055
0.000203
0.000208
0.000329
0.000281
0.000247
0.000560
0.000316
0.000333
0.001483
0.000299
0.000320
0.000249
0.000254
0.000277
0.000339
0.001376
0.000292
0.000196
0.000215
0.000246
0.000318
0.001600
0.000340
0.000280
0.000232
0.000220
0.000521
0.000304
0.000229
0.000230
0.000252
0.000056
0.000212
0.000385
0.000324
0.000283
0.000199
0.001467
0.000250
0.000234
0.000246
0.000271
0.000271
0.000243
0.000316
0.001463
0.000277
0.000229
0.000411
0.001275
0.000451
0.000317
0.000334
0.000259
0.000236
0.000243
0.000277
0.000254
0.000445
0.000236
0.000259
0.000267
0.000219
0.000055
0.000213
0.000280
0.000331
0.001419
0.000266
0.000218
0.000303
0.000247
0.000247
0.000249
0.000240
0.000319
0.001586
0.000210
0.000213
0.000222
0.001375
0.000312
0.000479
0.000483
0.000303
0.000221
0.000231
0.000230
0.000379
0.000226
0.000244
0.000233
0.000260
0.000250
0.000216
0.000056
0.000274
0.000438
0.001318
0.000211
0.000255
0.000271
0.000253
0.000240
0.000354
0.000409
0.001276
0.000286
0.000276
0.000242
0.000220
0.001370
0.000662
0.000256
0.000309
0.000411
0.000329
0.000238
0.000230
0.000232
0.000271
0.000284
0.000274
0.000357
0.000441
0.000422
0.001384
0.000056
0.000205
0.000234
0.000225
0.000220
0.000295
0.000357
0.000482
0.001385
0.000212
0.000209
0.000232
0.001442
0.000544
0.000217
0.000450
0.000266
0.000205
0.000232
0.000218
0.000278
0.000270
0.000250
0.000282
0.000261
0.000254
0.000318
0.000406
0.000512
0.001464
0.000264
0.000189
0.000056
0.000222
0.000216
0.000365
0.000576
0.001183
0.000288
0.000256
0.000250
0.000252
0.000244
0.000254
0.000295
0.000292
0.000586
0.000321
0.000212
0.000239
0.000277
0.000264
0.000254
0.000265
0.000258
0.000261
0.000267
0.000256
0.000522
0.000491
0.000216
0.000305
0.001479
0.000149
0.000055
0.000191
0.000219
0.000298
0.000457
0.000350
0.000275
0.000297
0.000334
0.000273
0.000262
0.000272
0.000250
0.000247
0.000308
0.000242
0.000308
0.000584
0.000275
0.000290
0.000373
0.000291
0.000469
0.000226
0.000238
0.000220
0.000252
0.000264
0.000276
0.000419
0.000448
0.000302
0.000055
0.000219
0.001355
0.000308
0.000298
0.000364
0.000489
0.000401
0.000256
0.000221
0.000205
0.000259
0.000250
0.000263
0.000277
0.000252
0.000255
0.000266
0.001365
0.000319
0.000222
0.000224
0.000269
0.000272
0.000277
0.000290
0.000239
0.000267
0.000253
0.000338
0.000397
0.000343
0.000055
0.000235
0.000242
0.001432
0.000365
0.000296
0.000212
0.000209
0.000206
0.000223
0.000243
0.000266
0.000268
0.000254
0.000243
0.000263
0.000268
0.000258
0.000256
0.000253
0.000269
0.001418
0.000281
0.000223
0.000330
0.000233
0.000217
0.000253
0.000260
0.000269
0.000500
0.000388
0.000055
0.000184
0.000210
0.000374
0.000292
0.000250
0.000253
0.001562
0.000417
0.000246
0.000193
0.000245
0.000341
0.000319
0.000222
0.000222
0.000251
0.000237
0.000270
0.000259
0.000271
0.000601
0.000388
0.001172
0.000259
0.000222
0.000213
0.000270
0.000264
0.000276
0.000276
0.000371
0.000056
0.000234
0.000365
0.000196
0.000196
0.000262
0.000226
0.000250
0.000229
0.001500
0.000450
0.000434
0.000257
0.000194
0.000212
0.000250
0.000245
0.000257
0.000278
0.000256
0.000307
0.000307
0.000504
0.000444
0.001359
0.000266
0.000229
0.000271
0.000263
0.000264
0.000302
0.000524
0.000056
0.000239
0.000211
0.000267
0.000210
0.000219
0.000251
0.000254
0.000250
0.000268
0.001601
0.000328
0.000252
0.000261
0.000264
0.000467
0.000298
0.000405
0.000457
0.000332
0.000344
0.000429
0.000480
0.001286
0.000230
0.000231
0.000228
0.001755
0.000443
0.000588
0.000325
0.000145
0.000055
0.000192
0.000214
0.000243
0.000229
0.000246
0.000246
0.000366
0.000407
0.000548
0.000392
0.000281
0.000221
0.000206
0.000253
0.000261
0.000270
0.000263
0.000240
0.000249
0.000271
0.000314
0.000393
0.001329
0.000254
0.000221
0.000276
0.001890
0.000385
0.000370
0.000374
0.000169
0.000056
0.000198
0.000201
0.000248
0.001538
0.000470
0.000193
0.000244
0.000271
0.000233
0.000347
0.000364
0.000378
0.000349
0.000301
0.000337
0.000490
0.000327
0.001262
0.000264
0.000204
0.000220
0.000264
0.000372
0.000384
0.000642
0.000439
0.000218
0.000217
0.000258
0.000287
0.000207
0.000055
0.000193
0.000217
0.001483
0.000377
0.000215
0.000204
0.000221
0.000254
0.000249
0.000246
0.000247
0.000278
0.000269
0.000266
0.000293
0.000483
0.000280
0.000410
0.001340
0.000280
0.000209
0.000269
0.000264
0.000258
0.000380
0.000576
0.000373
0.000281
0.000289
0.000252
0.000395
0.000056
0.000205
0.000218
0.000251
0.000256
0.001584
0.000232
0.000253
0.000242
0.000254
0.000258
0.000258
0.000268
0.000253
0.000238
0.000372
0.000552
0.001479
0.000730
0.000212
0.000345
0.000244
0.000220
0.000232
0.000272
0.001770
0.000718
0.000262
0.000233
0.000282
0.000284
0.000211
0.000056
0.000214
0.000214
0.000245
0.000244
0.000248
0.000252
0.000252
0.000246
0.000248
0.000223
0.000287
0.000280
0.000263
0.000249
0.000256
0.000257
0.000283
0.001591
0.000712
0.000423
0.000282
0.000230
0.000217
0.000267
0.000296
0.000244
0.000275
0.000247
0.001509
0.000381
0.000268
0.000055
0.000190
0.000226
0.000249
0.000234
0.000255
0.000227
0.000255
0.000258
0.000247
0.000268
0.000322
0.000395
0.000435
0.000327
0.000217
0.000229
0.000278
0.001452
0.000691
0.000392
0.000351
0.000293
0.000211
0.000239
0.000291
0.000240
0.000250
0.000272
0.001492
0.000440
0.000223
0.000055
0.000221
0.000204
0.000238
0.000241
0.000256
0.000245
0.000243
0.000248
0.000268
0.000318
0.000389
0.000274
0.000351
0.000236
0.000236
0.000243
0.000262
0.000271
0.001608
0.000565
0.000469
0.000365
0.000215
0.000241
0.000262
0.000271
0.000254
0.000285
0.000259
0.001543
0.000196
0.000056
0.000210
0.000222
0.000208
0.000259
0.000277
0.000225
0.000288
0.000352
0.000374
0.000413
0.000353
0.000401
0.000318
0.000202
0.000250
0.000231
0.000270
0.000272
0.001423
0.000860
0.000315
0.000200
0.000472
0.000221
0.000220
0.000251
0.000270
0.000259
0.000264
0.000272
0.000367
0.000056
0.000170
0.000303
0.000209
0.000228
0.000257
0.000251
0.000231
0.000234
0.000268
0.000259
0.000247
0.000229
0.000425
0.000433
0.000351
0.000445
0.000215
0.000255
0.000258
0.000251
0.000258
0.000391
0.001365
0.001045
0.000245
0.000232
0.000264
0.000261
0.000280
0.000272
0.000195
0.000058
0.000192
0.001387
0.000264
0.000210
0.000194
0.000247
0.000250
0.000252
0.000243
0.000261
0.000236
0.000259
0.000241
0.000425
0.000352
0.000464
0.000290
0.000202
0.000263
0.000270
0.000260
0.000244
0.000253
0.000264
0.001489
0.000588
0.000322
0.000402
0.000369
0.000397
0.000261
0.000057
0.000187
0.000229
0.000373
0.001290
0.000244
0.000264
0.000207
0.000241
0.000246
0.000256
0.000274
0.000232
0.000264
0.000430
0.000473
0.000373
0.000209
0.000315
0.000268
0.000220
0.000242
0.000264
0.000236
0.000273
0.000265
0.001552
0.000738
0.000274
0.000287
0.000273
0.000206
0.000057
0.000207
0.000252
0.000433
0.000524
0.001172
0.000239
0.000211
0.000208
0.000231
0.000246
0.000251
0.000269
0.000225
0.000228
0.000254
0.000261
0.000266
0.000232
0.000256
0.000254
0.000268
0.000269
0.000329
0.000313
0.000241
0.000235
0.000268
0.001542
0.000224
0.000227
0.000158
0.000055
0.000189
0.000211
0.000250
0.000352
0.000342
0.000346
0.000396
0.000247
0.001553
0.000260
0.000376
0.000374
0.000339
0.000273
0.000475
0.000238
0.000234
0.000211
0.000263
0.000270
0.000279
0.000263
0.000258
0.000268
0.000312
0.000414
0.000455
0.000274
0.001524
0.000251
0.000175
0.000056
0.000199
0.000219
0.000245
0.000239
0.000245
0.000244
0.000261
0.000301
0.000445
0.002080
0.000213
0.000198
0.000245
0.000261
0.000257
0.000326
0.000261
0.000223
0.000369
0.000301
0.000450
0.000398
0.001494
0.000220
0.000257
0.000469
0.001766
0.000286
0.000260
0.001489
0.000188
0.000056
0.000318
0.000425
0.000456
0.000224
0.000258
0.000230
0.000255
0.000268
0.000263
0.000233
0.000251
0.000415
0.000382
0.000315
0.000452
0.000246
0.000227
0.001538
0.000482
0.002010
0.000320
0.000235
0.000216
0.001637
0.001943
0.000733
0.000271
0.000226
0.000303
0.000432
0.000366
0.000055
0.000181
0.000219
0.000248
0.000262
0.001482
0.001666
0.001071
0.000229
0.000215
0.001581
0.001975
0.000229
0.000343
0.000390
0.000360
0.000299
0.000479
0.000309
0.000250
0.000233
0.000247
0.000256
0.000283
0.001567
0.001294
0.001413
0.000271
0.000234
0.000262
0.000334
0.000425
0.000056
0.000214
0.000238
0.000203
0.000246
0.000236
0.000235
0.000256
0.000253
0.000254
0.000243
0.000244
0.000353
0.000396
0.000514
0.000305
0.000207
0.000229
0.000262
0.000267
0.000270
0.000257
0.001426
0.000419
0.000449
0.002077
0.000252
0.000243
0.000307
0.000533
0.000402
0.000168
0.000056
0.000216
0.000304
0.000474
0.000316
0.000222
0.000234
0.000212
0.000270
0.000232
0.000237
0.000257
0.000255
0.000258
0.001620
0.001420
0.001227
0.000270
0.000233
0.000205
0.000247
0.000286
0.000274
0.000256
0.000247
0.002271
0.000224
0.000213
0.000294
0.000317
0.000300
0.000246
0.000056
0.000200
0.000393
0.000631
0.000271
0.000225
0.000196
0.000229
0.000273
0.001882
0.001422
0.000264
0.000378
0.000394
0.000352
0.000269
0.000208
0.000232
0.000258
0.000262
0.000269
0.000259
0.000259
0.000470
0.000240
0.000263
0.000296
0.000237
0.000273
0.000281
0.000243
0.000224
0.000056
0.000203
0.000228
0.000249
0.000243
0.000245
0.000279
0.001527
0.001503
0.001324
0.000211
0.000219
0.000223
0.000254
0.000264
0.000245
0.000254
0.000250
0.002172
0.000218
0.000209
0.000256
0.000265
0.000251
0.000266
0.000268
0.000261
0.000258
0.000265
0.000274
0.000261
0.000188
0.000056
0.001508
0.000317
0.002397
0.000243
0.000297
0.000298
0.000251
0.000254
0.000264
0.000241
0.000247
0.000249
0.000240
0.000243
0.000262
0.000260
0.000265
0.000286
0.000240
0.000272
0.000264
0.000275
0.000275
0.000270
0.000249
0.000250
0.000257
0.000289
0.000243
0.000275
0.000377
0.000055
0.000204
0.002550
0.000346
0.000200
0.000218
0.000196
0.000253
0.000253
0.000250
0.000262
0.000415
0.000422
0.000249
0.000251
0.000219
0.002229
0.000219
0.000227
0.000274
0.000481
0.000405
0.000284
0.000213
0.000241
0.000260
0.000252
0.000262
0.000271
0.000269
0.001690
0.001212
0.000056
0.000180
0.000209
0.000497
0.000226
0.000319
0.000291
0.000216
0.000215
0.000260
0.000250
0.000270
0.000239
0.000243
0.000242
0.000267
0.000236
0.000347
0.000752
0.000226
0.000244
0.000231
0.000242
0.000287
0.000251
0.000261
0.000243
0.000257
0.000280
0.000252
0.000321
0.000409
0.000055
0.001119
0.000231
0.000330
0.000559
0.000221
0.000205
0.000210
0.000229
0.002270
0.000348
0.000350
0.000363
0.000220
0.000281
0.000330
0.000273
0.000262
0.000256
0.000267
0.000254
0.000233
0.000324
0.000732
0.000348
0.001791
0.001362
0.000526
0.000515
0.000234
0.000250
0.000212
0.000056
0.000223
0.000359
0.000234
0.000240
0.000240
0.000248
0.000237
0.000233
0.000254
0.000261
0.000252
0.000236
0.000253
0.000256
0.000403
0.000493
0.001891
0.001382
0.000376
0.000378
0.000452
0.000247
0.000254
0.000260
0.002218
0.000460
0.000386
0.000233
0.000272
0.000279
0.000218
0.000056
0.000198
0.000218
0.000260
0.000233
0.000249
0.000360
0.000418
0.000362
0.000286
0.000219
0.000231
0.000283
0.000253
0.002180
0.000297
0.000354
0.000228
0.000230
0.000260
0.000266
0.000251
0.002451
0.000346
0.000227
0.000276
0.000233
0.000244
0.000274
0.000279
0.000284
0.000211
0.000056
0.000202
0.000536
0.000438
0.000327
0.000230
0.000197
0.000223
0.000241
0.000256
0.000266
0.002072
0.000342
0.000270
0.000248
0.000199
0.000250
0.000273
0.000245
0.002270
0.000401
0.000222
0.000247
0.000264
0.000257
0.000272
0.000246
0.000289
0.000248
0.000264
0.000265
0.000199
0.000073
0.000181
0.000226
0.000255
0.000219
0.000241
0.000253
0.000248
0.000244
0.000237
0.002169
0.000253
0.000274
0.000203
0.000479
0.000222
0.000217
0.000259
0.000281
0.000249
0.002010
0.000290
0.000253
0.000381
0.000366
0.000479
0.000337
0.000292
0.000249
0.000232
0.000244
0.000216
0.000055
0.000196
0.000228
0.000228
0.000248
0.000244
0.000392
0.000195
0.002340
0.000206
0.000235
0.000222
0.000260
0.000243
0.000241
0.002266
0.000279
0.000480
0.000228
0.000256
0.000229
0.000267
0.000277
0.000262
0.000275
0.000254
0.000258
0.000287
0.000256
0.000265
0.000310
0.000171
0.000056
0.000171
0.003018
0.000240
0.000214
0.000248
0.000245
0.000248
0.000319
0.000366
0.000396
0.002171
0.000222
0.000234
0.000260
0.000318
0.000606
0.000310
0.000295
0.000227
0.000212
0.000237
0.000263
0.000287
0.000226
0.000236
0.000276
0.000262
0.000267
0.000497
0.000583
0.000255
0.000057
0.000210
0.000279
0.000267
0.000206
0.000232
0.000259
0.000241
0.000249
0.001563
0.002106
0.000524
0.000268
0.000427
0.000831
0.000262
0.000216
0.000201
0.000249
0.000265
0.000263
0.000258
0.000236
0.000254
0.000275
0.001827
0.001450
0.000289
0.000281
0.000303
0.000350
0.000423
0.000056
0.001943
0.000231
0.000230
0.000202
0.000259
0.000368
0.000477
0.000308
0.000326
0.000237
0.000208
0.000210
0.000254
0.000277
0.000235
0.000273
0.000251
0.000264
0.001911
0.000213
0.000218
0.000228
0.000287
0.000262
0.000281
0.000254
0.001532
0.000342
0.000229
0.000232
0.000157
0.000057
0.000194
0.000229
0.000215
0.000236
0.000259
0.000239
0.000326
0.000356
0.000417
0.000342
0.000204
0.000211
0.000338
0.000323
0.000377
0.000327
0.000221
0.000215
0.000268
0.000430
0.000491
0.000397
0.000220
0.000228
0.000269
0.000248
0.000250
0.000277
0.000285
0.000254
0.000227
0.000056
0.001447
0.000395
0.000232
0.002025
0.000268
0.000494
0.000288
0.000378
0.000193
0.000217
0.000267
0.000248
0.000236
0.000248
0.000288
0.000250
0.000446
0.000278
0.000446
0.000319
0.000402
0.000212
0.000246
0.000263
0.000343
0.000226
0.000239
0.000291
0.000295
0.000534
0.001404
0.000055
0.000197
0.000210
0.002074
0.000274
0.000345
0.000253
0.000256
0.000254
0.000262
0.000251
0.000218
0.000252
0.000257
0.000262
0.000265
0.000720
0.000351
0.001723
0.000276
0.000236
0.000266
0.000276
0.000414
0.000473
0.001483
0.000269
0.000364
0.002007
0.000227
0.000243
0.000193
0.000057
0.000184
0.000213
0.000229
0.000247
0.000246
0.000232
0.000245
0.000281
0.000341
0.000307
0.000385
0.000365
0.000331
0.000287
0.000214
0.000262
0.000259
0.000246
0.000266
0.000265
0.000266
0.000324
0.000242
0.000262
0.000279
0.001578
0.000301
0.000396
0.001979
0.000245
0.000195
0.000056
0.000197
0.000207
0.000233
0.000245
0.000464
0.000237
0.000247
0.000384
0.000394
0.000307
0.000231
0.000225
0.000247
0.000268
0.000274
0.000330
0.000442
0.000419
0.000261
0.000356
0.000613
0.000480
0.001497
0.000257
0.000237
0.002055
0.000315
0.000220
0.000228
0.000257
0.000209
0.000056
0.000192
0.000208
0.000227
0.000237
0.000252
0.000294
0.000238
0.000271
0.000248
0.000249
0.001886
0.000290
0.000395
0.000338
0.000456
0.000361
0.001503
0.000339
0.000204
0.000313
0.002113
0.000527
0.000274
0.000214
0.000236
0.000266
0.000487
0.000252
0.000245
0.000268
0.000221
0.000056
0.000203
0.000364
0.000328
0.000290
0.000193
0.000224
0.000242
0.000262
0.000265
0.000299
0.000228
0.000245
0.000278
0.000239
0.000415
0.000451
0.001264
0.000267
0.000416
0.001937
0.000266
0.000263
0.000217
0.000248
0.000248
0.000277
0.000258
0.000264
0.000255
0.000257
0.000229
0.000058
0.000334
0.000313
0.002048
0.000221
0.000243
0.000227
0.000210
0.000310
0.000486
0.001445
0.000339
0.000369
0.000331
0.001993
0.000233
0.000238
0.000260
0.000278
0.000264
0.000228
0.000294
0.000290
0.000255
0.000373
0.000481
0.000373
0.000343
0.002185
0.000546
0.000408
0.000462
0.000055
0.000205
0.000219
0.000223
0.002034
0.000201
0.000222
0.000224
0.000239
0.000228
0.000257
0.000243
0.000264
0.000250
0.000330
0.000478
0.000352
0.001280
0.000253
0.000258
0.000265
0.000233
0.000251
0.000264
0.000261
0.000352
0.000601
0.000296
0.000263
0.001678
0.000224
0.000157
0.000057
0.000195
0.000226
0.000218
0.000233
0.000247
0.000260
0.000248
0.000255
0.000269
0.000416
0.000361
0.001423
0.000211
0.000206
0.000223
0.000258
0.000260
0.000256
0.000313
0.000465
0.000428
0.000444
0.000234
0.001549
0.000258
0.000232
0.000281
0.000278
0.000270
0.000273
0.000208
0.000056
0.000203
0.000202
0.000270
0.000264
0.000251
0.000234
0.000237
0.000240
0.000264
0.000241
0.000251
0.000252
0.000257
0.000250
0.001585
0.000225
0.000248
0.000265
0.000354
0.000320
0.000360
0.000255
0.000222
0.000240
0.000255
0.000262
0.001466
0.000294
0.000219
0.000221
0.000170
0.000056
0.000181
0.000227
0.000253
0.000252
0.000270
0.000214
0.000248
0.000269
0.000222
0.000259
0.000239
0.000261
0.000231
0.000304
0.000408
0.000291
0.000328
0.001587
0.000335
0.000208
0.000225
0.000226
0.000254
0.000341
0.000369
0.000492
0.000391
0.000224
0.000227
0.001601
0.000185
0.000056
0.000552
0.000158
0.000436
0.000216
0.000206
0.000202
0.000257
0.000257
0.000252
0.000240
0.000250
0.000239
0.001529
0.000332
0.000223
0.000221
0.000225
0.000254
0.000260
0.000265
0.000255
0.000237
0.000263
0.000264
0.000269
0.000349
0.000518
0.000404
0.000223
0.000226
0.000202
0.000056
0.000212
0.000217
0.000549
0.000313
0.000349
0.000232
0.000229
0.000246
0.000249
0.000258
0.000244
0.000227
0.000253
0.000249
0.001419
0.000193
0.000215
0.000223
0.000261
0.000263
0.000236
0.000266
0.000270
0.000256
0.000248
0.000258
0.000307
0.000921
0.000247
0.000241
0.000170
0.000055
0.000182
0.001539
0.000280
0.000309
0.000558
0.000303
0.000220
0.000223
0.000258
0.000260
0.000244
0.000254
0.000274
0.000268
0.000271
0.001509
0.000267
0.000276
0.000258
0.000264
0.000260
0.000248
0.000264
0.000264
0.000260
0.000260
0.000484
0.000464
0.000275
0.000240
0.000143
0.000057
0.000169
0.000226
0.000243
0.001724
0.000380
0.000334
0.000209
0.000202
0.000269
0.000253
0.000275
0.000253
0.000260
0.000254
0.000233
0.000262
0.000427
0.001376
0.000209
0.000243
0.001527
0.000363
0.000524
0.000395
0.000288
0.000238
0.000247
0.000479
0.000228
0.000244
0.000203
0.000056
0.000298
0.000215
0.000225
0.000230
0.000247
0.000253
0.000247
0.000251
0.000259
0.000237
0.000253
0.000255
0.000356
0.000501
0.001627
0.001484
0.000388
0.000539
0.000304
0.000238
0.000231
0.000262
0.000251
0.000255
0.000250
0.000272
0.000256
0.000273
0.001601
0.000309
0.000138
0.000056
0.000247
0.000339
0.000350
0.000327
0.000257
0.000204
0.000224
0.000368
0.000377
0.001438
0.000354
0.001536
0.000413
0.000455
0.000421
0.000283
0.000330
0.000338
0.000343
0.000273
0.000243
0.000350
0.001559
0.000530
0.000248
0.000240
0.000266
0.000247
0.000251
0.000265
0.000212
0.000057
0.000197
0.000223
0.000253
0.000257
0.000242
0.001658
0.000957
0.000896
0.000239
0.000234
0.000257
0.000268
0.000242
0.000267
0.000256
0.000249
0.000254
0.000266
0.000261
0.000282
0.001506
0.000270
0.000257
0.000227
0.000219
0.000246
0.000256
0.000299
0.000257
0.000277
0.000223
0.000056
0.000191
0.000214
0.001536
0.000992
0.000313
0.000339
0.000218
0.000207
0.000241
0.000252
0.000254
0.000257
0.000275
0.002018
0.000463
0.000223
0.000199
0.000241
0.000263
0.000254
0.000212
