0.000373
0.020550
0.000821
0.000315
0.000217
0.000239
0.000288
0.000270
0.000295
0.000284
0.000265
0.000406
0.000502
0.000479
0.000326
0.000336
0.000293
0.000385
0.000390
0.000410
0.000312
0.001918
0.000454
0.000451
0.000268
0.000289
0.000286
0.000405
0.000444
0.000444
0.000407
0.000305
0.000061
0.000213
0.000241
0.000249
0.000289
0.000277
0.000250
0.000274
0.000257
0.000305
0.000295
0.000365
0.000485
0.000297
0.000291
0.000390
0.000404
0.000308
0.000246
0.000236
0.001717
0.000289
0.000243
0.000493
0.000243
0.000274
0.000252
0.000266
0.000271
0.000279
0.000344
0.000471
0.000073
0.000240
0.000210
0.000244
0.000258
0.000270
0.000232
0.000278
0.000238
0.000290
0.001693
0.000244
0.000218
0.000267
0.000261
0.000263
0.000258
0.000259
0.000268
0.000342
0.001820
0.000246
0.000248
0.000461
0.000464
0.000387
0.000241
0.000233
0.000615
0.000445
0.000716
0.000173
0.000061
0.000236
0.000211
0.000253
0.000243
0.000308
0.000270
0.000277
0.000530
0.000487
0.000267
0.000227
0.000227
0.000217
0.000254
0.000238
0.000255
0.000248
0.000268
0.000282
0.000327
0.001761
0.000239
0.000254
0.000451
0.000312
0.000658
0.000618
0.000538
0.000361
0.000237
0.000191
0.000061
0.000221
0.000227
0.000234
0.000262
0.000240
0.000268
0.000241
0.000508
0.001459
0.000256
0.000239
0.000224
0.000255
0.000252
0.000263
0.000287
0.000263
0.000789
0.001409
0.000259
0.000269
0.000426
0.000254
0.000271
0.000208
0.000273
0.000250
0.000275
0.000263
0.000270
0.000211
0.000059
0.000197
0.000235
0.000231
0.000226
0.000274
0.000244
0.000227
0.000281
0.000237
0.000254
0.001684
0.000234
0.000236
0.000238
0.000238
0.000231
0.000243
0.000255
0.000249
0.000253
0.000253
0.001756
0.000237
0.000264
0.000468
0.000242
0.000230
0.000257
0.000258
0.000266
0.000181
0.000060
0.000224
0.000242
0.000207
0.000252
0.000244
0.000248
0.000233
0.000264
0.000252
0.000244
0.000287
0.000237
0.000252
0.000268
0.001654
0.000263
0.000295
0.000259
0.000223
0.000257
0.000298
0.000247
0.000249
0.000259
0.000268
0.001895
0.000316
0.000355
0.000266
0.000284
0.000189
0.000059
0.000232
0.000222
0.000232
0.000276
0.000243
0.000264
0.000270
0.000376
0.000451
0.000427
0.000226
0.000250
0.000235
0.000254
0.001631
0.000507
0.000298
0.000404
0.000295
0.000226
0.000262
0.000272
0.000271
0.001811
0.000475
0.000495
0.000229
0.000238
0.000225
0.000272
0.000181
0.000060
0.000234
0.000254
0.000190
0.000274
0.000293
0.000469
0.000387
0.000288
0.000227
0.000219
0.000246
0.000238
0.000298
0.001723
0.000440
0.000297
0.000244
0.000251
0.000264
0.000278
0.000264
0.000260
0.000267
0.001881
0.000298
0.000394
0.000257
0.000257
0.000288
0.000396
0.000315
0.000059
0.000325
0.000294
0.000318
0.000276
0.000277
0.000217
0.000239
0.000265
0.000239
0.000257
0.000226
0.000250
0.001603
0.000340
0.000301
0.000215
0.000225
0.000242
0.000247
0.000275
0.000266
0.000357
0.001792
0.000340
0.000246
0.000479
0.000226
0.000260
0.000237
0.000269
0.000282
0.000058
0.000332
0.000549
0.000652
0.000226
0.000212
0.000245
0.000245
0.000215
0.000261
0.000233
0.000256
0.001735
0.000291
0.000373
0.000380
0.000234
0.000240
0.000247
0.000213
0.000269
0.000258
0.001852
0.000242
0.000230
0.002238
0.000451
0.000271
0.000237
0.000280
0.000254
0.000181
0.000059
0.000231
0.000206
0.000255
0.000237
0.000253
0.001679
0.000214
0.000216
0.000227
0.000254
0.000244
0.000240
0.000254
0.000243
0.000265
0.000478
0.000628
0.000230
0.000249
0.000255
0.000277
0.000230
0.000247
0.000488
0.000423
0.000283
0.000417
0.000513
0.000412
0.000230
0.000170
0.000059
0.000223
0.000208
0.000239
0.000263
0.000228
0.000248
0.000253
0.000695
0.000258
0.001571
0.000241
0.000241
0.000239
0.000245
0.000264
0.000277
0.000369
0.000586
0.000371
0.000232
0.000219
0.000268
0.000315
0.000315
0.000231
0.000405
0.000422
0.000597
0.000441
0.000449
0.000144
0.000063
0.000216
0.000252
0.000227
0.000222
0.000244
0.000234
0.000244
0.000244
0.000250
0.000356
0.000343
0.001564
0.000265
0.000218
0.000199
0.000227
0.000245
0.000261
0.000255
0.000259
0.000291
0.000422
0.000399
0.000361
0.000235
0.000249
0.000246
0.000262
0.000264
0.000263
0.000415
0.000058
0.000217
0.000218
0.000223
0.000267
0.000507
0.000440
0.000266
0.000228
0.000231
0.000266
0.000234
0.000252
0.000283
0.000264
0.000241
0.000529
0.000420
0.001609
0.000257
0.000248
0.000248
0.000270
0.000249
0.000263
0.000244
0.000440
0.000512
0.000380
0.000355
0.000240
0.000203
0.000060
0.000228
0.000232
0.000389
0.000241
0.000271
0.000221
0.000348
0.000511
0.000353
0.000300
0.000245
0.000242
0.000264
0.000259
0.000596
0.000287
0.000234
0.000239
0.000352
0.001739
0.000255
0.000235
0.000291
0.000419
0.000338
0.000215
0.000267
0.000350
0.000542
0.000383
0.000282
0.000067
0.000188
0.000211
0.000235
0.000235
0.000468
0.000274
0.000296
0.000189
0.000365
0.000547
0.000407
0.000231
0.000218
0.000218
0.000245
0.000255
0.000262
0.000257
0.000236
0.000389
0.000269
0.000317
0.001853
0.000262
0.000248
0.000239
0.000323
0.000347
0.000414
0.000737
0.000449
0.000063
0.000261
0.000332
0.000406
0.000370
0.000255
0.000223
0.000238
0.000313
0.000510
0.000394
0.000325
0.000209
0.000221
0.000259
0.000258
0.000260
0.000242
0.000262
0.000260
0.000264
0.000260
0.000385
0.001811
0.000285
0.000360
0.000420
0.000406
0.000222
0.000403
0.000377
0.000354
0.000060
0.000234
0.000382
0.000281
0.000211
0.000232
0.000225
0.000460
0.000215
0.000216
0.000483
0.000257
0.000451
0.000271
0.000263
0.000237
0.000293
0.000357
0.000434
0.000317
0.000226
0.000211
0.000277
0.000718
0.001704
0.000258
0.000411
0.000343
0.000220
0.000247
0.000430
0.000339
0.000058
0.000234
0.000226
0.000222
0.000252
0.000245
0.000257
0.000247
0.000364
0.000406
0.000257
0.000576
0.000312
0.000286
0.000211
0.000543
0.000253
0.000261
0.000267
0.000251
0.000354
0.000237
0.000245
0.000261
0.000351
0.000587
0.001671
0.000238
0.000224
0.000236
0.000255
0.000195
0.000058
0.000341
0.000417
0.000383
0.000207
0.000262
0.000210
0.000247
0.000243
0.000255
0.000274
0.000212
0.000467
0.000249
0.000514
0.000439
0.000276
0.000229
0.000245
0.000362
0.000350
0.000371
0.000407
0.000323
0.000373
0.000248
0.000224
0.000242
0.000269
0.001799
0.000255
0.000209
0.000060
0.000205
0.000206
0.000245
0.000262
0.000357
0.000534
0.000350
0.000250
0.000231
0.000256
0.000243
0.000230
0.000523
0.000451
0.000475
0.000321
0.000281
0.000222
0.000439
0.000489
0.000372
0.000456
0.000393
0.000483
0.000241
0.000240
0.000240
0.000239
0.000261
0.001779
0.000314
0.000063
0.000263
0.000312
0.000222
0.000218
0.000217
0.000249
0.000306
0.000445
0.000431
0.000301
0.000302
0.000316
0.000308
0.000711
0.000296
0.000208
0.000237
0.000248
0.000254
0.000258
0.000271
0.000277
0.000236
0.000243
0.000297
0.000358
0.000511
0.000333
0.000225
0.000215
0.000192
0.000066
0.000460
0.000271
0.000475
0.000226
0.000219
0.000229
0.000249
0.000256
0.000241
0.000244
0.000223
0.000285
0.000278
0.000387
0.000571
0.000408
0.000357
0.000323
0.000371
0.000392
0.000261
0.000219
0.000232
0.000263
0.001800
0.000222
0.001779
0.000911
0.000366
0.000349
0.000150
0.000059
0.000228
0.000215
0.000227
0.000249
0.000254
0.000254
0.000251
0.000267
0.000236
0.000288
0.000460
0.000352
0.000382
0.000408
0.000222
0.000243
0.000270
0.000286
0.000216
0.000238
0.000256
0.000246
0.001798
0.000255
0.000233
0.000259
0.000266
0.000274
0.001918
0.000515
0.000252
0.000059
0.000237
0.000208
0.000216
0.000256
0.000256
0.000244
0.000238
0.000266
0.000251
0.000283
0.000639
0.000323
0.000378
0.000238
0.000232
0.000278
0.000378
0.000384
0.000397
0.000238
0.001796
0.000271
0.000202
0.000226
0.000251
0.000279
0.000248
0.000267
0.000278
0.000307
0.000455
0.000064
0.000248
0.000213
0.000216
0.000242
0.000239
0.000256
0.000236
0.000255
0.000240
0.000248
0.000257
0.000278
0.000362
0.000435
0.000300
0.000331
0.000476
0.000213
0.000230
0.000265
0.000254
0.000264
0.000268
0.000260
0.000286
0.001765
0.000268
0.000233
0.000252
0.000250
0.000192
0.000062
0.000238
0.000368
0.000244
0.000198
0.000231
0.000239
0.000227
0.000254
0.000246
0.000242
0.000233
0.000245
0.000253
0.000307
0.000501
0.000338
0.000347
0.000214
0.000227
0.000253
0.000249
0.000239
0.000255
0.000261
0.000277
0.000250
0.000286
0.001720
0.000234
0.000224
0.000187
0.000057
0.000207
0.000238
0.000229
0.000246
0.000362
0.000385
0.000390
0.000310
0.000222
0.000226
0.000253
0.000256
0.000224
0.000266
0.000252
0.000267
0.000248
0.000250
0.000283
0.000242
0.000257
0.000265
0.000262
0.000244
0.000230
0.000281
0.000270
0.000275
0.000268
0.000246
0.000202
0.000058
0.000207
0.000224
0.000245
0.000249
0.000238
0.000241
0.000255
0.000233
0.000367
0.000211
0.000221
0.000215
0.000245
0.000246
0.000275
0.000252
0.000265
0.000240
0.000383
0.000214
0.000225
0.000275
0.000300
0.000258
0.000270
0.000278
0.000260
0.000281
0.000251
0.000498
0.000601
0.000062
0.000232
0.000295
0.000228
0.000208
0.000211
0.000229
0.000262
0.000245
0.000244
0.000255
0.000259
0.000335
0.000434
0.000499
0.001590
0.000219
0.000506
0.000211
0.000246
0.000397
0.000499
0.000346
0.000238
0.000256
0.000262
0.000245
0.000279
0.000270
0.000290
0.000291
0.000187
0.000059
0.000299
0.000442
0.000395
0.000299
0.000209
0.000235
0.000248
0.000243
0.000242
0.000238
0.000254
0.000254
0.000250
0.000338
0.000285
0.000478
0.000417
0.001768
0.000276
0.000225
0.000283
0.000461
0.000431
0.000333
0.000382
0.000314
0.000244
0.000231
0.000227
0.000237
0.000213
0.000059
0.000209
0.000228
0.000230
0.000273
0.000354
0.000472
0.000331
0.000233
0.000253
0.000238
0.000232
0.000253
0.000269
0.000265
0.000255
0.000251
0.000302
0.000481
0.000437
0.000383
0.000230
0.001790
0.000302
0.000565
0.000524
0.000379
0.000293
0.000223
0.000260
0.000245
0.000495
0.000058
0.000212
0.000226
0.000238
0.000285
0.000434
0.000422
0.000390
0.000273
0.000218
0.000316
0.000216
0.000252
0.000254
0.000314
0.000322
0.000218
0.000217
0.000424
0.000393
0.000376
0.000542
0.001783
0.000272
0.000429
0.000483
0.000353
0.000257
0.000369
0.000245
0.000226
0.000199
0.000059
0.000224
0.000333
0.000351
0.000356
0.000332
0.000277
0.000411
0.000217
0.000252
0.000248
0.000256
0.000241
0.000217
0.000257
0.000259
0.000245
0.000333
0.000344
0.000540
0.000388
0.000282
0.000253
0.000240
0.001772
0.000597
0.000235
0.000709
0.000291
0.000239
0.000310
0.000163
0.000061
0.000201
0.000204
0.000307
0.000257
0.000272
0.000392
0.000412
0.000302
0.000301
0.000531
0.000213
0.000240
0.000203
0.000277
0.000272
0.000274
0.000246
0.000376
0.000482
0.000357
0.000266
0.000257
0.000243
0.000262
0.000270
0.000265
0.000235
0.000225
0.000266
0.000373
0.000173
0.000058
0.000319
0.000264
0.000237
0.000228
0.000232
0.000259
0.000413
0.000194
0.000226
0.000211
0.000232
0.000489
0.000323
0.000404
0.000320
0.000289
0.000234
0.000230
0.000245
0.000258
0.000298
0.000267
0.000235
0.000235
0.000265
0.000318
0.000430
0.000445
0.000326
0.000217
0.000165
0.000058
0.000203
0.000215
0.000262
0.000230
0.000246
0.000245
0.000247
0.000271
0.000490
0.000241
0.000244
0.000262
0.000240
0.000250
0.000285
0.000271
0.000267
0.000342
0.000252
0.000218
0.000228
0.000268
0.000258
0.000268
0.000271
0.000255
0.000274
0.000255
0.000262
0.000511
0.000167
0.000081
0.000174
0.000227
0.000239
0.000234
0.000255
0.000225
0.000303
0.000462
0.000282
0.000220
0.000244
0.000250
0.000242
0.000274
0.000426
0.001776
0.000260
0.000226
0.000314
0.000378
0.000407
0.000342
0.000390
0.000368
0.000386
0.000356
0.000283
0.000235
0.000266
0.000278
0.001416
0.000065
0.000371
0.000353
0.000265
0.000197
0.000216
0.000228
0.000226
0.000244
0.000268
0.000243
0.000256
0.000252
0.000256
0.000313
0.000568
0.001665
0.000213
0.000227
0.000226
0.000267
0.000230
0.000252
0.000436
0.000360
0.000274
0.000319
0.000254
0.000254
0.000250
0.000279
0.000189
0.000058
0.001214
0.000563
0.000313
0.000304
0.000201
0.000200
0.000224
0.000251
0.000471
0.000220
0.000247
0.000243
0.000329
0.000518
0.000403
0.000340
0.000288
0.000263
0.000339
0.000363
0.000219
0.000228
0.000282
0.000256
0.000255
0.000546
0.000529
0.000342
0.000228
0.000262
0.000176
0.000059
0.000216
0.000220
0.000231
0.000243
0.001521
0.000253
0.000206
0.000229
0.000256
0.000239
0.000241
0.000269
0.000249
0.000248
0.000260
0.000275
0.000420
0.000693
0.000287
0.001795
0.000246
0.000290
0.000396
0.000374
0.000433
0.000436
0.000235
0.000232
0.000242
0.000273
0.000216
0.000058
0.000221
0.000234
0.000231
0.001312
0.000357
0.000204
0.000230
0.000215
0.000229
0.000250
0.000216
0.000274
0.000283
0.000248
0.000246
0.000273
0.000671
0.000267
0.000328
0.000239
0.000251
0.000252
0.000265
0.000239
0.000336
0.000225
0.000229
0.000277
0.000269
0.000432
0.000501
0.000057
0.000235
0.000212
0.000240
0.000244
0.000256
0.000257
0.000233
0.000258
0.000289
0.000238
0.001429
0.000287
0.000206
0.000232
0.000238
0.000230
0.000264
0.000284
0.000257
0.000265
0.000261
0.000490
0.000435
0.000406
0.000264
0.000260
0.001831
0.000222
0.000230
0.000326
0.000501
0.000060
0.000269
0.000428
0.000453
0.000508
0.000517
0.000579
0.001406
0.000451
0.000543
0.000654
0.000546
0.000672
0.000526
0.000629
0.000582
0.001716
0.000519
0.000392
0.000415
0.000294
0.000265
0.000281
0.000286
0.000264
0.000274
0.000270
0.000295
0.000276
0.000263
0.000318
0.001297
0.000065
0.000227
0.000246
0.000216
0.000238
0.000242
0.000255
0.000248
0.000252
0.000225
0.000288
0.000230
0.000262
0.000234
0.000264
0.000262
0.000266
0.001839
0.000260
0.000259
0.000250
0.000257
0.000260
0.000269
0.000311
0.000478
0.000321
0.000319
0.000246
0.000261
0.000295
0.000170
0.000057
0.000219
0.001381
0.000259
0.000275
0.000253
0.000248
0.000247
0.000242
0.000257
0.000241
0.000245
0.000229
0.000261
0.000463
0.000259
0.000347
0.000307
0.000261
0.001902
0.000262
0.000259
0.000256
0.000258
0.000260
0.000276
0.000287
0.000268
0.000255
0.000250
0.000269
0.000241
0.000059
0.000202
0.000247
0.000234
0.001408
0.000295
0.000241
0.000226
0.000229
0.000227
0.000244
0.000266
0.000248
0.000254
0.000251
0.000283
0.000253
0.000255
0.000270
0.000265
0.000253
0.000288
0.001809
0.000259
0.001779
0.000245
0.000256
0.000244
0.000227
0.000270
0.000286
0.000191
0.000058
0.000215
0.000253
0.001355
0.000233
0.000259
0.000239
0.000213
0.000244
0.000247
0.000264
0.000231
0.000266
0.000259
0.000272
0.000253
0.000262
0.000261
0.000265
0.000269
0.000278
0.001845
0.000283
0.001790
0.000279
0.000256
0.000237
0.000264
0.000259
0.000262
0.000261
0.000190
0.000058
0.001445
0.000241
0.000242
0.000229
0.000216
0.000220
0.000273
0.000372
0.000263
0.000248
0.000250
0.000260
0.000311
0.000324
0.000423
0.000293
0.000242
0.000266
0.000230
0.000244
0.000253
0.000310
0.000273
0.000257
0.000269
0.000277
0.000260
0.000354
0.000668
0.000356
0.000185
0.000060
0.000225
0.000273
0.000271
0.000314
0.000348
0.000276
0.001659
0.000302
0.000305
0.000229
0.000268
0.000296
0.000273
0.000260
0.000296
0.000313
0.000317
0.000513
0.000435
0.000271
0.000314
0.000277
0.000263
0.000259
0.000321
0.000267
0.000261
0.000241
0.000242
0.000309
0.000384
0.000059
0.000335
0.000393
0.000212
0.000261
0.000256
0.000234
0.000253
0.000235
0.000252
0.000258
0.001502
0.000255
0.000219
0.000225
0.000231
0.000287
0.000266
0.000277
0.000267
0.000258
0.000265
0.000303
0.000655
0.000322
0.000243
0.000255
0.000274
0.000231
0.000275
0.000238
0.000221
0.000059
0.000206
0.000200
0.000271
0.000497
0.000325
0.000284
0.000235
0.000261
0.000249
0.000248
0.000214
0.000267
0.000237
0.000275
0.000236
0.000248
0.000400
0.001265
0.000234
0.000234
0.000252
0.000239
0.000339
0.000509
0.000215
0.000270
0.000569
0.000346
0.000431
0.000238
0.000156
0.000061
0.000214
0.000197
0.000264
0.000255
0.000325
0.000205
0.000292
0.000509
0.000452
0.000279
0.000368
0.000407
0.000400
0.000336
0.000238
0.000219
0.000234
0.000226
0.000402
0.000530
0.001192
0.000258
0.000267
0.000266
0.000223
0.000245
0.000238
0.000326
0.000393
0.000542
0.000224
0.000058
0.000190
0.000226
0.000233
0.000259
0.000245
0.000246
0.000239
0.000241
0.000262
0.000372
0.000481
0.000420
0.000228
0.000216
0.000223
0.000257
0.000259
0.000268
0.000258
0.000219
0.000508
0.000211
0.000410
0.000358
0.000365
0.000241
0.000258
0.000272
0.000243
0.000262
0.000260
0.000067
0.000289
0.000322
0.000329
0.000371
0.000419
0.000365
0.000229
0.000260
0.000218
0.000251
0.000276
0.000253
0.000268
0.000227
0.000259
0.000236
0.000267
0.000362
0.000528
0.000333
0.000224
0.000269
0.000226
0.000251
0.000273
0.000268
0.000276
0.000266
0.000255
0.000265
0.000272
0.000059
0.000360
0.000235
0.000225
0.000225
0.000247
0.000261
0.000245
0.000259
0.000268
0.000255
0.000222
0.000238
0.000261
0.000625
0.000384
0.000318
0.000223
0.000211
0.000233
0.000265
0.000281
0.000241
0.000282
0.000242
0.000262
0.000320
0.000431
0.000569
0.000494
0.000225
0.000150
0.000058
0.000369
0.000212
0.000231
0.000226
0.000269
0.000204
0.000237
0.000249
0.000251
0.000264
0.000239
0.000251
0.000250
0.000248
0.000232
0.000244
0.000281
0.000261
0.000275
0.000257
0.000264
0.000264
0.000258
0.000263
0.000262
0.000274
0.000251
0.000267
0.000258
0.000289
0.000191
0.000058
0.000194
0.000233
0.000240
0.000250
0.000223
0.000230
0.000259
0.000254
0.000245
0.000297
0.000234
0.000222
0.000264
0.000407
0.000257
0.000278
0.000256
0.000257
0.000268
0.000275
0.000255
0.000251
0.000238
0.000245
0.000274
0.000259
0.000263
0.000266
0.000262
0.000257
0.000218
0.000057
0.000276
0.000358
0.000348
0.000279
0.000304
0.000236
0.000200
0.000245
0.000251
0.000235
0.000248
0.000251
0.000272
0.000244
0.000260
0.000272
0.000252
0.000259
0.000257
0.000266
0.000254
0.000251
0.000287
0.000266
0.000277
0.000272
0.000241
0.000302
0.000242
0.000268
0.000184
0.000062
0.000188
0.000210
0.000236
0.000255
0.000251
0.000465
0.000218
0.000235
0.000273
0.000362
0.000577
0.000344
0.000229
0.000219
0.000240
0.000268
0.000243
0.000256
0.000264
0.000267
0.000261
0.000267
0.000269
0.000273
0.000637
0.000443
0.000256
0.000259
0.000265
0.000270
0.000197
0.000059
0.000226
0.000209
0.000230
0.000249
0.000238
0.000759
0.000333
0.000332
0.000259
0.000226
0.000244
0.000238
0.000275
0.000231
0.000268
0.000259
0.000271
0.000246
0.000569
0.000435
0.000329
0.000232
0.000228
0.000282
0.000277
0.000261
0.000262
0.000266
0.000263
0.000337
0.000323
0.000057
0.000269
0.000247
0.000206
0.000242
0.000253
0.000231
0.000262
0.000213
0.000250
0.000251
0.000258
0.000249
0.000260
0.000384
0.000564
0.000445
0.000217
0.000230
0.000247
0.000251
0.000264
0.000268
0.000518
0.000222
0.000269
0.000682
0.000352
0.000451
0.000266
0.000253
0.000179
0.000062
0.000206
0.000205
0.000246
0.000245
0.000258
0.000256
0.000288
0.000625
0.000419
0.000402
0.000222
0.000242
0.000269
0.000290
0.000280
0.000219
0.000250
0.000246
0.000254
0.000303
0.000576
0.000478
0.000418
0.000260
0.000431
0.000344
0.000479
0.000215
0.000240
0.000344
0.000515
0.000057
0.000260
0.000237
0.000459
0.000205
0.000236
0.000226
0.000239
0.000254
0.000250
0.000240
0.000251
0.000431
0.000369
0.000360
0.000222
0.000243
0.000260
0.000245
0.000256
0.000283
0.000269
0.000258
0.000255
0.000265
0.000293
0.000511
0.000449
0.000267
0.000263
0.000252
0.000204
0.000058
0.000225
0.000216
0.000234
0.000230
0.000249
0.000251
0.000432
0.000389
0.000418
0.000284
0.000370
0.000244
0.000205
0.000261
0.000258
0.000244
0.000255
0.000246
0.000280
0.000467
0.000483
0.000352
0.000448
0.000295
0.000403
0.000392
0.000374
0.000247
0.000231
0.000285
0.000383
0.000058
0.000236
0.000250
0.000209
0.000236
0.000265
0.000263
0.000233
0.000256
0.000276
0.000255
0.000233
0.000331
0.000451
0.000381
0.000376
0.000247
0.000251
0.000259
0.000275
0.000237
0.000231
0.000241
0.000285
0.000260
0.000282
0.000322
0.000571
0.000409
0.000253
0.000263
0.000204
0.000066
0.000225
0.000199
0.000242
0.000259
0.000239
0.000321
0.000503
0.000515
0.000365
0.000668
0.000332
0.000196
0.000209
0.000236
0.000253
0.000311
0.000231
0.000263
0.000487
0.000506
0.001563
0.000239
0.000268
0.000255
0.000291
0.000230
0.000344
0.000443
0.000379
0.000314
0.000156
0.000057
0.000219
0.000214
0.000253
0.000220
0.000238
0.000248
0.000263
0.000276
0.000271
0.000346
0.000342
0.000363
0.000270
0.000388
0.000384
0.000340
0.000231
0.000218
0.000240
0.000252
0.000248
0.000264
0.000258
0.000277
0.000348
0.000542
0.000367
0.000239
0.000245
0.000273
0.000166
0.000059
0.000234
0.000206
0.000248
0.000255
0.000266
0.000223
0.000453
0.000244
0.000228
0.000243
0.000255
0.000252
0.000280
0.000240
0.000255
0.000264
0.000264
0.000241
0.000283
0.000270
0.000252
0.000380
0.000221
0.000251
0.000264
0.000259
0.000265
0.000288
0.000235
0.000263
0.000198
0.000059
0.000236
0.000207
0.000296
0.000596
0.000303
0.000202
0.000203
0.000228
0.000267
0.000245
0.000244
0.000269
0.000254
0.000255
0.000248
0.000244
0.000264
0.000242
0.000269
0.000338
0.000396
0.000452
0.000251
0.000266
0.000274
0.000247
0.000239
0.000251
0.000285
0.000266
0.000217
0.000058
0.000393
0.000427
0.000356
0.000227
0.000249
0.000251
0.000470
0.000206
0.000218
0.000247
0.000264
0.000324
0.000361
0.000449
0.001777
0.000259
0.000236
0.000246
0.000270
0.000247
0.000343
0.000428
0.000622
0.000338
0.000215
0.000245
0.000262
0.000436
0.000274
0.000279
0.000184
0.000059
0.000239
0.000356
0.000304
0.000315
0.000507
0.000217
0.000239
0.000228
0.000271
0.000243
0.000255
0.000237
0.000253
0.000301
0.000423
0.000500
0.000249
0.000228
0.000259
0.000255
0.000252
0.000307
0.000274
0.000254
0.000270
0.000450
0.000507
0.000404
0.000476
0.000233
0.000192
0.000059
0.000202
0.000217
0.000254
0.000224
0.000230
0.000244
0.000265
0.000267
0.000356
0.000399
0.000410
0.000381
0.000224
0.000224
0.000246
0.000324
0.000298
0.000254
0.000238
0.000266
0.000256
0.000293
0.000467
0.000397
0.000294
0.000244
0.000271
0.000519
0.000415
0.000267
0.000150
0.000057
0.000220
0.000202
0.000424
0.000385
0.000316
0.000240
0.000232
0.000255
0.000257
0.000263
0.000239
0.000270
0.000242
0.000239
0.000261
0.000266
0.000416
0.000352
0.000309
0.000370
0.000477
0.000228
0.000255
0.000256
0.000317
0.000284
0.000256
0.000277
0.000450
0.000590
0.000162
0.000058
0.000200
0.000213
0.000212
0.000257
0.000247
0.000509
0.000212
0.000228
0.000252
0.000347
0.000532
0.000540
0.000238
0.000219
0.000266
0.000261
0.000224
0.000254
0.000244
0.000276
0.000236
0.000264
0.000350
0.000548
0.000352
0.000297
0.000381
0.000314
0.000295
0.000228
0.000151
0.000057
0.000209
0.000220
0.000246
0.000519
0.000264
0.000405
0.000224
0.000210
0.000217
0.000253
0.000252
0.000255
0.000253
0.000246
0.000319
0.000197
0.000224
0.000263
0.000267
0.000365
0.000536
0.000404
0.000229
0.000230
0.000256
0.000278
0.000257
0.000265
0.000282
0.000248
0.000208
0.000062
0.000260
0.000417
0.000490
0.000214
0.000221
0.000205
0.000320
0.000508
0.000265
0.000240
0.000207
0.000244
0.000262
0.000441
0.000458
0.000319
0.000219
0.000233
0.000279
0.000221
0.000270
0.000268
0.000260
0.000273
0.000279
0.000274
0.000410
0.000425
0.000367
0.000208
0.000149
0.000058
0.000225
0.000209
0.000252
0.000249
0.000232
0.000257
0.000247
0.000246
0.000249
0.000246
0.000259
0.000247
0.000257
0.001468
0.000264
0.000229
0.000239
0.000268
0.000255
0.000287
0.000257
0.000245
0.000268
0.000254
0.000266
0.000265
0.000296
0.000271
0.000260
0.000263
0.000197
0.000058
0.000237
0.000196
0.000232
0.000233
0.000242
0.000246
0.000254
0.000260
0.000246
0.000250
0.000250
0.000258
0.000246
0.000251
0.000273
0.000236
0.000285
0.000251
0.000257
0.000260
0.000259
0.000254
0.000254
0.000261
0.001336
0.000280
0.000558
0.000426
0.000364
0.000219
0.000158
0.000059
0.000229
0.000209
0.000226
0.000239
0.000505
0.000233
0.000203
0.000217
0.000247
0.000342
0.000539
0.000345
0.000210
0.000219
0.000243
0.000236
0.000263
0.000247
0.000274
0.000267
0.000257
0.000234
0.000269
0.000441
0.000479
0.000444
0.000260
0.000241
0.001365
0.000286
0.000174
0.000058
0.000258
0.000410
0.000366
0.000228
0.000196
0.000217
0.000235
0.000246
0.000258
0.000277
0.000234
0.000250
0.000261
0.000296
0.000530
0.000397
0.000319
0.000248
0.000242
0.000255
0.000253
0.000264
0.000277
0.000263
0.000244
0.000253
0.000296
0.000600
0.000428
0.000373
0.000136
0.000059
0.000203
0.000225
0.001306
0.000381
0.000252
0.000470
0.000381
0.000323
0.000442
0.000387
0.000221
0.000213
0.000246
0.000260
0.000256
0.000263
0.000244
0.000670
0.000368
0.000291
0.000272
0.000261
0.000264
0.000520
0.000220
0.000263
0.000260
0.000286
0.000270
0.000537
0.000334
0.000058
0.000344
0.000386
0.000218
0.000203
0.001541
0.000558
0.000271
0.000233
0.000200
0.000242
0.000244
0.000215
0.000245
0.000267
0.000249
0.000261
0.000271
0.000312
0.000445
0.000371
0.000435
0.000233
0.000221
0.000227
0.000252
0.000273
0.000277
0.000252
0.000272
0.000248
0.000217
0.000058
0.000432
0.000237
0.000265
0.000231
0.000233
0.000248
0.000252
0.000247
0.000229
0.000241
0.001495
0.000455
0.000258
0.000191
0.000215
0.000243
0.000264
0.000264
0.000269
0.000248
0.000280
0.000250
0.000250
0.000404
0.000433
0.000478
0.000285
0.000252
0.000217
0.000276
0.000184
0.000059
0.000210
0.000453
0.000203
0.000216
0.000316
0.000430
0.000386
0.000328
0.000455
0.000227
0.000210
0.000238
0.000260
0.000265
0.000269
0.001387
0.000380
0.000281
0.000270
0.000264
0.000264
0.000266
0.000250
0.000241
0.000271
0.000279
0.000403
0.000470
0.000310
0.000273
0.000160
0.000058
0.000207
0.000212
0.000228
0.000251
0.000245
0.000243
0.000235
0.000247
0.000274
0.000422
0.000459
0.000313
0.000221
0.000219
0.000250
0.000242
0.000268
0.000262
0.000272
0.000237
0.000243
0.000362
0.001283
0.000220
0.000277
0.000219
0.000264
0.000246
0.000244
0.000260
0.000199
0.000059
0.000209
0.000367
0.000383
0.000351
0.000227
0.000216
0.000240
0.000252
0.000261
0.000295
0.000224
0.000267
0.000258
0.000251
0.000245
0.000264
0.000262
0.000270
0.000259
0.000242
0.000270
0.000267
0.000269
0.000260
0.000295
0.000259
0.000296
0.000235
0.000263
0.000534
0.001293
0.000058
0.000217
0.000220
0.000241
0.000244
0.000241
0.000250
0.000248
0.000249
0.000218
0.000258
0.000256
0.000275
0.000251
0.000250
0.000257
0.001702
0.000345
0.000228
0.000203
0.000249
0.000248
0.000254
0.000271
0.000264
0.000277
0.000259
0.000270
0.000283
0.000272
0.000264
0.000201
0.000064
0.000350
0.000316
0.001334
0.000194
0.000230
0.000238
0.000258
0.000217
0.000281
0.000236
0.000229
0.000343
0.000397
0.000518
0.000247
0.000214
0.000235
0.000231
0.000286
0.000267
0.000269
0.000242
0.000262
0.000269
0.000259
0.000391
0.000526
0.000240
0.000281
0.000293
0.000159
0.000058
0.000205
0.000212
0.000271
0.000235
0.000232
0.000238
0.000224
0.000252
0.000450
0.000479
0.001100
0.000258
0.000217
0.000269
0.000272
0.000258
0.000261
0.000266
0.000315
0.000359
0.000440
0.000260
0.000234
0.000244
0.000282
0.000272
0.000240
0.000325
0.000238
0.000274
0.000213
0.000058
0.000231
0.000416
0.000435
0.000225
0.000224
0.000198
0.000223
0.000260
0.000271
0.000258
0.000258
0.000226
0.000542
0.000474
0.000508
0.001426
0.000218
0.000260
0.000357
0.000350
0.000430
0.000421
0.000528
0.000347
0.000222
0.000277
0.000264
0.000275
0.000263
0.000251
0.000202
0.000066
0.000203
0.000231
0.000437
0.000420
0.000431
0.000224
0.000235
0.000271
0.000230
0.000266
0.000246
0.000242
0.000290
0.000235
0.000244
0.000326
0.000334
0.000493
0.000322
0.001305
0.000292
0.000248
0.000259
0.000263
0.000509
0.000432
0.000388
0.000223
0.000239
0.000261
0.000210
0.000059
0.000208
0.000216
0.000239
0.000245
0.000256
0.000255
0.000442
0.000399
0.000365
0.000259
0.000231
0.000260
0.000267
0.000260
0.000261
0.000259
0.000271
0.000256
0.000272
0.000370
0.000455
0.000392
0.000322
0.001350
0.000332
0.000267
0.000278
0.000467
0.000385
0.000432
0.000254
0.000058
0.000203
0.000208
0.000225
0.000255
0.000241
0.000250
0.001717
0.000269
0.000213
0.000218
0.000240
0.000258
0.000316
0.000325
0.000327
0.000283
0.000235
0.000401
0.000453
0.000399
0.000287
0.000269
0.000231
0.000228
0.001426
0.000482
0.000363
0.000477
0.000328
0.000288
0.000151
0.000060
0.000209
0.000233
0.000253
0.000262
0.000235
0.000264
0.001759
0.000212
0.000236
0.000256
0.000386
0.000406
0.001429
0.000332
0.000429
0.000206
0.000227
0.000222
0.000248
0.000276
0.001612
0.000555
0.000417
0.000284
0.000216
0.000222
0.000242
0.000273
0.000255
0.000253
0.000204
0.000058
0.000209
0.000226
0.000239
0.000260
0.000253
0.000272
0.000279
0.000276
0.000262
0.000231
0.000269
0.000235
0.000267
0.000259
0.000270
0.001506
0.000258
0.000230
0.000248
0.000280
0.000267
0.000274
0.000423
0.001267
0.000283
0.000252
0.000294
0.000258
0.000413
0.000223
0.000168
0.000059
0.000225
0.000210
0.000239
0.000225
0.000246
0.000240
0.000238
0.001759
0.000210
0.000230
0.000218
0.000356
0.000254
0.000230
0.001439
0.000265
0.000196
0.000221
0.000260
0.000263
0.000251
0.000288
0.000352
0.001350
0.000281
0.000228
0.000257
0.000217
0.001400
0.000274
0.000225
0.000059
0.000235
0.000332
0.000208
0.000212
0.000245
0.000246
0.000278
0.000262
0.000253
0.000302
0.000213
0.000246
0.000272
0.000249
0.000328
0.001491
0.000258
0.000234
0.000250
0.000254
0.000268
0.000285
0.000253
0.001480
0.000363
0.000264
0.000272
0.001324
0.000226
0.000238
0.000175
0.000060
0.000190
0.000358
0.000358
0.000211
0.000226
0.000240
0.000247
0.000265
0.000256
0.000272
0.000239
0.000260
0.000248
0.000262
0.000510
0.001215
0.000229
0.000203
0.000248
0.000272
0.000257
0.000242
0.000227
0.001303
0.000378
0.000226
0.000243
0.000255
0.000224
0.001345
0.000299
0.000059
0.000291
0.000278
0.000226
0.000213
0.000239
0.000271
0.000236
0.000241
0.000314
0.000212
0.000234
0.000256
0.000252
0.000302
0.000412
0.001492
0.000241
0.000221
0.000355
0.000523
0.000247
0.000358
0.001343
0.000319
0.000264
0.000247
0.001280
0.000343
0.000366
0.000351
0.000352
0.000060
0.000219
0.000224
0.000248
0.000262
0.000244
0.000275
0.000258
0.000252
0.000259
0.000264
0.000346
0.000503
0.001346
0.000220
0.000232
0.000254
0.000284
0.000262
0.000217
0.000227
0.000322
0.001317
0.000238
0.000240
0.000226
0.000244
0.001483
0.000463
0.000480
0.000242
0.000173
0.000058
0.000202
0.000225
0.000241
0.000245
0.000242
0.000259
0.000250
0.000259
0.000399
0.000535
0.000274
0.001450
0.000240
0.000224
0.000248
0.000254
0.000258
0.000312
0.001634
0.000323
0.000348
0.000379
0.001357
0.000360
0.000286
0.000338
0.000228
0.000212
0.000281
0.000259
0.000183
0.000078
0.000188
0.000228
0.000290
0.000248
0.000277
0.000577
0.000296
0.000345
0.001491
0.000288
0.000315
0.000244
0.000240
0.000292
0.000329
0.001395
0.000261
0.000217
0.000237
0.000261
0.000266
0.001596
0.000366
0.000297
0.000221
0.000216
0.000497
0.000315
0.000245
0.000235
0.000252
0.000060
0.000262
0.000447
0.000236
0.000291
0.000201
0.001470
0.000278
0.000218
0.000227
0.000272
0.000263
0.000252
0.000270
0.001517
0.000266
0.000243
0.000418
0.001282
0.000288
0.000423
0.000367
0.000266
0.000259
0.000230
0.000259
0.000272
0.000447
0.000240
0.000242
0.000259
0.000216
0.000058
0.000208
0.000310
0.000291
0.001434
0.000287
0.000222
0.000306
0.000230
0.000244
0.000233
0.000248
0.000266
0.001633
0.000207
0.000233
0.000223
0.001359
0.000360
0.000426
0.000389
0.000406
0.000222
0.000229
0.000245
0.000369
0.000237
0.000243
0.000257
0.000238
0.000252
0.000187
0.000058
0.000265
0.000313
0.001438
0.000243
0.000222
0.000274
0.000255
0.000243
0.000350
0.000372
0.001311
0.000262
0.000304
0.000261
0.000215
0.001393
0.000629
0.000253
0.000308
0.000400
0.000337
0.000240
0.000236
0.000213
0.000277
0.000285
0.000274
0.000290
0.000486
0.000459
0.001366
0.000078
0.000204
0.000243
0.000211
0.000234
0.000249
0.000375
0.001577
0.000284
0.000220
0.000218
0.000259
0.001396
0.000420
0.000360
0.000454
0.000242
0.000226
0.000218
0.000238
0.000267
0.000287
0.000246
0.000271
0.000269
0.000251
0.000328
0.000394
0.000520
0.001473
0.000248
0.000189
0.000058
0.000222
0.000208
0.000385
0.000642
0.001105
0.000304
0.000248
0.000258
0.000262
0.000241
0.000253
0.000267
0.000337
0.000562
0.000305
0.000255
0.000226
0.000269
0.000237
0.000271
0.000267
0.000278
0.000234
0.000253
0.000266
0.000418
0.000469
0.000357
0.000293
0.001475
0.000145
0.000066
0.000193
0.000218
0.000305
0.000402
0.000334
0.000355
0.000281
0.000309
0.000276
0.000280
0.000258
0.000247
0.000250
0.000309
0.000249
0.000268
0.000551
0.000351
0.000309
0.000355
0.000284
0.000464
0.000250
0.000211
0.000235
0.000275
0.000256
0.000283
0.000332
0.000491
0.000304
0.000060
0.000221
0.001357
0.000346
0.000311
0.000349
0.000387
0.000361
0.000369
0.000220
0.000222
0.000269
0.000231
0.000256
0.000257
0.000272
0.000269
0.000282
0.001415
0.000233
0.000226
0.000237
0.000280
0.000272
0.000279
0.000258
0.000241
0.000261
0.000253
0.000270
0.000524
0.000325
0.000058
0.000223
0.000239
0.000258
0.001506
0.000329
0.000219
0.000213
0.000227
0.000213
0.000248
0.000240
0.000290
0.000237
0.000238
0.000274
0.000267
0.000239
0.000271
0.000256
0.000269
0.001416
0.000278
0.000239
0.000308
0.000231
0.000233
0.000267
0.000264
0.000259
0.000525
0.000339
0.000064
0.000209
0.000225
0.000365
0.000311
0.000224
0.000257
0.001528
0.000367
0.000310
0.000214
0.000222
0.000385
0.000283
0.000227
0.000234
0.000229
0.000252
0.000255
0.000265
0.000238
0.000586
0.000461
0.001147
0.000263
0.000219
0.000236
0.000267
0.000250
0.000265
0.000259
0.000293
0.000061
0.000198
0.000353
0.000197
0.000203
0.000240
0.000240
0.000243
0.000244
0.001418
0.000557
0.000347
0.000290
0.000256
0.000195
0.000241
0.000243
0.000255
0.000259
0.000289
0.000287
0.000301
0.000486
0.000463
0.001363
0.000243
0.000249
0.000268
0.000270
0.000258
0.000279
0.000590
0.000069
0.000230
0.000200
0.000243
0.000250
0.000225
0.000228
0.000238
0.000260
0.000258
0.001651
0.000294
0.000253
0.000255
0.000252
0.000472
0.000304
0.000425
0.000445
0.000333
0.000312
0.000426
0.000507
0.001285
0.000236
0.000228
0.000243
0.001799
0.000399
0.000577
0.000318
0.000141
0.000060
0.000198
0.000209
0.000233
0.000244
0.000229
0.000268
0.000341
0.000453
0.000477
0.000412
0.000300
0.000208
0.000228
0.000224
0.000272
0.000269
0.000270
0.000247
0.000249
0.000271
0.000258
0.000470
0.001295
0.000259
0.000234
0.000254
0.001893
0.000415
0.000489
0.000255
0.000143
0.000059
0.000209
0.000216
0.000241
0.001573
0.000367
0.000266
0.000242
0.000240
0.000265
0.000326
0.000364
0.000398
0.000338
0.000298
0.000351
0.000474
0.000325
0.001267
0.000261
0.000209
0.000252
0.000244
0.000356
0.000402
0.000623
0.000434
0.000222
0.000227
0.000253
0.000269
0.000216
0.000056
0.000204
0.000224
0.001435
0.000423
0.000206
0.000215
0.000203
0.000261
0.000239
0.000248
0.000273
0.000278
0.000265
0.000273
0.000244
0.000389
0.000391
0.000365
0.001378
0.000299
0.000216
0.000256
0.000262
0.000252
0.000376
0.000477
0.000495
0.000268
0.000295
0.000248
0.000392
0.000059
0.000226
0.000206
0.000256
0.000255
0.001584
0.000233
0.000239
0.000250
0.000252
0.000254
0.000267
0.000290
0.000253
0.000237
0.000385
0.000480
0.001519
0.000720
0.000277
0.000295
0.000234
0.000251
0.000222
0.000279
0.001729
0.000728
0.000260
0.000259
0.000272
0.000294
0.000178
0.000058
0.000219
0.000216
0.000242
0.000245
0.000259
0.000244
0.000247
0.000255
0.000246
0.000215
0.000274
0.000277
0.000262
0.000250
0.000255
0.000258
0.000261
0.001616
0.000664
0.000475
0.000266
0.000250
0.000227
0.000269
0.000274
0.000268
0.000261
0.000263
0.001478
0.000342
0.000291
0.000058
0.000200
0.000229
0.000241
0.000236
0.000240
0.000234
0.000255
0.000258
0.000244
0.000268
0.000255
0.000439
0.000440
0.000363
0.000215
0.000231
0.000239
0.001483
0.000679
0.000428
0.000309
0.000321
0.000217
0.000247
0.000260
0.000252
0.000267
0.000270
0.001473
0.000426
0.000236
0.000057
0.000216
0.000211
0.000227
0.000254
0.000254
0.000273
0.000221
0.000247
0.000255
0.000287
0.000306
0.000413
0.000319
0.000256
0.000263
0.000219
0.000267
0.000259
0.001577
0.000567
0.000488
0.000355
0.000224
0.000262
0.000249
0.000263
0.000265
0.000274
0.000259
0.001428
0.000306
0.000060
0.000201
0.000237
0.000211
0.000238
0.000264
0.000228
0.000297
0.000352
0.000365
0.000484
0.000304
0.000378
0.000329
0.000241
0.000226
0.000235
0.000264
0.000272
0.001409
0.000842
0.000330
0.000210
0.000488
0.000193
0.000245
0.000251
0.000268
0.000256
0.000262
0.000259
0.000279
0.000059
0.000239
0.000282
0.000230
0.000226
0.000259
0.000257
0.000223
0.000218
0.000237
0.000272
0.000248
0.000254
0.000272
0.000464
0.000437
0.000472
0.000210
0.000256
0.000265
0.000244
0.000255
0.000371
0.001399
0.001027
0.000255
0.000243
0.000271
0.000256
0.000276
0.000267
0.000183
0.000059
0.000219
0.001364
0.000272
0.000198
0.000222
0.000235
0.000251
0.000236
0.000255
0.000249
0.000241
0.000266
0.000230
0.000385
0.000379
0.000505
0.000257
0.000226
0.000262
0.000269
0.000273
0.000229
0.000253
0.000244
0.001840
0.000313
0.000248
0.000400
0.000370
0.000404
0.000249
0.000058
0.000201
0.000249
0.000300
0.001327
0.000235
0.000262
0.000215
0.000254
0.000252
0.000257
0.000258
0.000250
0.000257
0.000410
0.000483
0.000368
0.000215
0.000303
0.000295
0.000213
0.000227
0.000263
0.000265
0.000273
0.000260
0.001515
0.000758
0.000292
0.000306
0.000260
0.000176
0.000058
0.000222
0.000225
0.000559
0.000305
0.001283
0.000243
0.000210
0.000214
0.000249
0.000244
0.000239
0.000227
0.000243
0.000250
0.000264
0.000232
0.000262
0.000257
0.000250
0.000249
0.000251
0.000266
0.000350
0.000296
0.000240
0.000258
0.000263
0.001534
0.000224
0.000225
0.000149
0.000058
0.000200
0.000217
0.000255
0.000317
0.000344
0.000336
0.000404
0.000257
0.001547
0.000289
0.000287
0.000435
0.000399
0.000227
0.000467
0.000258
0.000206
0.000253
0.000245
0.000268
0.000269
0.000260
0.000251
0.000270
0.000262
0.000477
0.000456
0.000260
0.001533
0.000245
0.000178
0.000059
0.000213
0.000229
0.000256
0.000250
0.000237
0.000224
0.000282
0.000344
0.000382
0.002080
0.000203
0.000214
0.000252
0.000252
0.000262
0.000321
0.000255
0.000209
0.000249
0.000430
0.000414
0.000398
0.001536
0.000218
0.000221
0.000507
0.001816
0.000296
0.000239
0.001442
0.000191
0.000058
0.000365
0.000317
0.000515
0.000215
0.000291
0.000235
0.000252
0.000245
0.000261
0.000239
0.000241
0.000410
0.000375
0.000307
0.000419
0.000299
0.000215
0.001555
0.000481
0.002011
0.000286
0.000279
0.001388
0.000368
0.002541
0.000300
0.000209
0.000212
0.000259
0.000480
0.000312
0.000058
0.000199
0.000221
0.000249
0.000236
0.001475
0.001674
0.001079
0.000232
0.000214
0.001574
0.001987
0.000229
0.000316
0.000411
0.000367
0.000301
0.000358
0.000415
0.000254
0.000250
0.000243
0.000253
0.000264
0.001569
0.002479
0.000306
0.000201
0.000241
0.000288
0.000273
0.000392
0.000060
0.000240
0.000217
0.000217
0.000224
0.000241
0.000233
0.000254
0.000253
0.000250
0.000287
0.000205
0.000331
0.000417
0.000518
0.000336
0.000199
0.000221
0.000269
0.000261
0.000239
0.000265
0.001467
0.000407
0.000435
0.002073
0.000250
0.000262
0.000372
0.000406
0.000437
0.000155
0.000058
0.000235
0.000342
0.000422
0.000316
0.000224
0.000221
0.000236
0.000265
0.000243
0.000247
0.000245
0.000266
0.000255
0.001589
0.001414
0.001237
0.000267
0.000237
0.000222
0.000228
0.000284
0.000277
0.000239
0.000268
0.002268
0.000246
0.000204
0.000270
0.000319
0.000302
0.000247
0.000059
0.000221
0.000402
0.000541
0.000338
0.000200
0.000223
0.000253
0.000237
0.001885
0.001437
0.000249
0.000377
0.000390
0.000364
0.000261
0.000210
0.000240
0.000251
0.000274
0.000272
0.000270
0.000250
0.000462
0.000259
0.000269
0.000272
0.000255
0.000277
0.000273
0.000231
0.000207
0.000059
0.000212
0.000235
0.000239
0.000245
0.000227
0.000280
0.001532
0.001494
0.001330
0.000216
0.000221
0.000218
0.000248
0.000256
0.000258
0.000252
0.000260
0.002162
0.000208
0.000225
0.000236
0.000265
0.000266
0.000271
0.000252
0.000287
0.000255
0.000260
0.000284
0.000265
0.000154
0.000058
0.001517
0.000310
0.002401
0.000250
0.000292
0.000283
0.000252
0.000254
0.000268
0.000233
0.000259
0.000247
0.000261
0.000232
0.000270
0.000253
0.000275
0.000240
0.000258
0.000275
0.000268
0.000274
0.000273
0.000270
0.000241
0.000265
0.000246
0.000275
0.000254
0.000287
0.000384
0.000057
0.000211
0.002553
0.000330
0.000217
0.000191
0.000229
0.000224
0.000270
0.000242
0.000277
0.000429
0.000329
0.000357
0.000232
0.000208
0.002219
0.000238
0.000209
0.000240
0.000511
0.000374
0.000321
0.000222
0.000234
0.000251
0.000269
0.000269
0.000270
0.000273
0.001680
0.001196
0.000062
0.000203
0.000222
0.000284
0.000370
0.000393
0.000248
0.000230
0.000239
0.000254
0.000255
0.000270
0.000238
0.000227
0.000231
0.000262
0.000262
0.000271
0.000639
0.000419
0.000242
0.000218
0.000243
0.000273
0.000257
0.000263
0.000269
0.000256
0.000256
0.000246
0.000332
0.000423
0.000063
0.001121
0.000252
0.000304
0.000455
0.000341
0.000196
0.000201
0.000241
0.002255
0.000407
0.000296
0.000372
0.000210
0.000285
0.000354
0.000265
0.000250
0.000272
0.000266
0.000232
0.000232
0.000261
0.000610
0.000539
0.001796
0.001334
0.000533
0.000523
0.000233
0.000242
0.000213
0.000057
0.000264
0.000334
0.000287
0.000200
0.000219
0.000243
0.000247
0.000253
0.000240
0.000247
0.000255
0.000256
0.000251
0.000248
0.000356
0.000553
0.001863
0.001352
0.000388
0.000433
0.000432
0.000253
0.000253
0.000239
0.002186
0.000503
0.000374
0.000247
0.000259
0.000283
0.000213
0.000058
0.000221
0.000209
0.000254
0.000256
0.000244
0.000319
0.000447
0.000283
0.000335
0.000239
0.000232
0.000275
0.000234
0.002097
0.000384
0.000371
0.000229
0.000246
0.000272
0.000256
0.000257
0.002433
0.000378
0.000223
0.000255
0.000253
0.000239
0.000272
0.000256
0.000289
0.000200
0.000058
0.000205
0.000372
0.000514
0.000412
0.000230
0.000213
0.000218
0.000239
0.000244
0.000271
0.002050
0.000375
0.000304
0.000211
0.000216
0.000230
0.000283
0.000250
0.002251
0.000390
0.000227
0.000247
0.000264
0.000263
0.000267
0.000282
0.000275
0.000253
0.000272
0.000250
0.000177
0.000057
0.000218
0.000209
0.000261
0.000227
0.000237
0.000260
0.000245
0.000238
0.000234
0.002169
0.000237
0.000281
0.000216
0.000465
0.000215
0.000218
0.000257
0.000279
0.000271
0.000261
0.002040
0.000266
0.000350
0.000363
0.000486
0.000352
0.000311
0.000217
0.000238
0.000258
0.000187
0.000058
0.000229
0.000211
0.000220
0.000249
0.000217
0.000390
0.000213
0.002328
0.000226
0.000226
0.000217
0.000265
0.000248
0.000223
0.000307
0.002198
0.000529
0.000231
0.000247
0.000259
0.000236
0.000258
0.000282
0.000265
0.000272
0.000255
0.000280
0.000262
0.000255
0.000307
0.000171
0.000065
0.000180
0.002995
0.000248
0.000225
0.000234
0.000239
0.000245
0.000294
0.000390
0.000379
0.002143
0.000270
0.000239
0.000263
0.000265
0.000612
0.000340
0.000303
0.000224
0.000235
0.000235
0.000259
0.000247
0.000248
0.000249
0.000284
0.000271
0.000260
0.000298
0.000684
0.000318
0.000058
0.000213
0.000269
0.000270
0.000212
0.000251
0.000243
0.000267
0.000236
0.001519
0.002132
0.000519
0.000269
0.000390
0.000774
0.000357
0.000203
0.000228
0.000221
0.000272
0.000248
0.000293
0.000252
0.000243
0.000279
0.001804
0.001444
0.000329
0.000238
0.000289
0.000384
0.000363
0.000057
0.001922
0.000234
0.000232
0.000210
0.000244
0.000389
0.000491
0.000286
0.000309
0.000255
0.000200
0.000227
0.000252
0.000255
0.000248
0.000254
0.000276
0.000261
0.001895
0.000221
0.000225
0.000212
0.000306
0.000285
0.000264
0.000268
0.001512
0.000345
0.000212
0.000244
0.000149
0.000059
0.000198
0.000204
0.000231
0.000256
0.000253
0.000244
0.000268
0.000397
0.000351
0.000402
0.000201
0.000237
0.000310
0.000323
0.000381
0.000327
0.000224
0.000241
0.000236
0.000383
0.000500
0.000459
0.000224
0.000229
0.000237
0.000276
0.000249
0.000274
0.000281
0.000253
0.000202
0.000060
0.001441
0.000430
0.000221
0.002000
0.000250
0.000432
0.000361
0.000378
0.000205
0.000222
0.000245
0.000245
0.000249
0.000256
0.000264
0.000278
0.000442
0.000295
0.000450
0.000312
0.000382
0.000234
0.000229
0.000273
0.000332
0.000223
0.000251
0.000274
0.000444
0.000537
0.001242
0.000062
0.000203
0.000223
0.002066
0.000251
0.000322
0.000263
0.000256
0.000263
0.000255
0.000259
0.000239
0.000254
0.000222
0.000260
0.000257
0.000361
0.000757
0.001711
0.000255
0.000263
0.000271
0.000224
0.000340
0.000575
0.001485
0.000263
0.000358
0.002022
0.000235
0.000221
0.000192
0.000059
0.000206
0.000209
0.000232
0.000248
0.000233
0.000240
0.000241
0.000334
0.000323
0.000266
0.000393
0.000368
0.000343
0.000279
0.000226
0.000244
0.000260
0.000255
0.000285
0.000241
0.000325
0.000262
0.000261
0.000268
0.000277
0.001552
0.000291
0.000397
0.001991
0.000257
0.000154
0.000058
0.000200
0.000226
0.000224
0.000239
0.000492
0.000211
0.000248
0.000331
0.000367
0.000378
0.000227
0.000231
0.000235
0.000270
0.000276
0.000338
0.000502
0.000336
0.000274
0.000401
0.000561
0.000433
0.001546
0.000261
0.000250
0.002021
0.000343
0.000236
0.000219
0.000276
0.000173
0.000059
0.000237
0.000188
0.000239
0.000230
0.000239
0.000256
0.000255
0.000267
0.000289
0.000227
0.001866
0.000296
0.000395
0.000324
0.000461
0.000371
0.001513
0.000328
0.000229
0.000306
0.001997
0.000632
0.000266
0.000216
0.000240
0.000255
0.000519
0.000233
0.000227
0.000274
0.000217
0.000058
0.000295
0.000354
0.000397
0.000254
0.000226
0.000223
0.000233
0.000270
0.000328
0.000246
0.000221
0.000252
0.000255
0.000232
0.000362
0.000432
0.001353
0.000269
0.000351
0.001945
0.000322
0.000258
0.000215
0.000241
0.000262
0.000261
0.000276
0.000257
0.000264
0.000262
0.000200
0.000058
0.000386
0.000270
0.002076
0.000234
0.000232
0.000223
0.000230
0.000296
0.000429
0.001514
0.000321
0.000370
0.000337
0.001997
0.000244
0.000247
0.000242
0.000270
0.000258
0.000238
0.000300
0.000271
0.000271
0.000375
0.000485
0.000395
0.000337
0.002163
0.000499
0.000478
0.000437
0.000059
0.000221
0.000226
0.000224
0.002021
0.000201
0.000217
0.000244
0.000259
0.000213
0.000246
0.000250
0.000252
0.000252
0.000265
0.000506
0.000373
0.001304
0.000236
0.000253
0.000264
0.000253
0.000253
0.000271
0.000248
0.000360
0.000410
0.000502
0.000255
0.001651
0.000231
0.000151
0.000061
0.000206
0.000213
0.000237
0.000225
0.000251
0.000261
0.000252
0.000252
0.000249
0.000359
0.000373
0.001476
0.000214
0.000207
0.000236
0.000246
0.000257
0.000273
0.000232
0.000548
0.000400
0.000453
0.000228
0.001549
0.000264
0.000240
0.000278
0.000265
0.000264
0.000264
0.000209
0.000063
0.000190
0.000223
0.000236
0.000252
0.000253
0.000243
0.000250
0.000235
0.000265
0.000247
0.000251
0.000252
0.000265
0.000249
0.001566
0.000256
0.000233
0.000271
0.000325
0.000321
0.000361
0.000264
0.000216
0.000265
0.000239
0.000280
0.001452
0.000288
0.000207
0.000246
0.000155
0.000059
0.000205
0.000211
0.000246
0.000253
0.000316
0.000198
0.000229
0.000253
0.000241
0.000245
0.000244
0.000271
0.000235
0.000316
0.000350
0.000314
0.000344
0.001579
0.000331
0.000213
0.000228
0.000242
0.000256
0.000298
0.000377
0.000484
0.000405
0.000243
0.000224
0.001590
0.000190
0.000059
0.000328
0.000370
0.000344
0.000301
0.000216
0.000237
0.000213
0.000271
0.000251
0.000258
0.000233
0.000242
0.001447
0.000323
0.000319
0.000211
0.000258
0.000209
0.000267
0.000262
0.000269
0.000230
0.000259
0.000266
0.000252
0.000363
0.000482
0.000389
0.000293
0.000221
0.000192
0.000066
0.000216
0.000255
0.000509
0.000292
0.000352
0.000260
0.000214
0.000256
0.000231
0.000249
0.000249
0.000248
0.000260
0.000247
0.001311
0.000277
0.000223
0.000227
0.000249
0.000282
0.000256
0.000251
0.000262
0.000271
0.000243
0.000248
0.000290
0.000648
0.000507
0.000248
0.000175
0.000081
0.000185
0.001519
0.000243
0.000435
0.000505
0.000263
0.000218
0.000242
0.000249
0.000272
0.000241
0.000245
0.000252
0.000278
0.000268
0.001523
0.000260
0.000265
0.000264
0.000301
0.000223
0.000265
0.000256
0.000268
0.000255
0.000304
0.000573
0.000213
0.000386
0.000232
0.000150
0.000057
0.000208
0.000241
0.000238
0.001681
0.000401
0.000336
0.000203
0.000222
0.000230
0.000263
0.000271
0.000279
0.000236
0.000262
0.000246
0.000261
0.000363
0.001420
0.000231
0.000219
0.001533
0.000334
0.000560
0.000397
0.000295
0.000228
0.000278
0.000452
0.000234
0.000227
0.000200
0.000059
0.000306
0.000216
0.000223
0.000241
0.000249
0.000254
0.000227
0.000258
0.000283
0.000235
0.000249
0.000259
0.000333
0.000439
0.001713
0.001459
0.000375
0.000560
0.000285
0.000253
0.000234
0.000265
0.000226
0.000270
0.000241
0.000271
0.000295
0.000245
0.001588
0.000312
0.000140
0.000057
0.000235
0.000333
0.000350
0.000333
0.000264
0.000204
0.000222
0.000346
0.000458
0.001513
0.000226
0.001550
0.000340
0.000442
0.000495
0.000283
0.000329
0.000332
0.000343
0.000276
0.000245
0.000351
0.001565
0.000527
0.000243
0.000257
0.000238
0.000261
0.000251
0.000270
0.000218
0.000067
0.000200
0.000207
0.000246
0.000254
0.000243
0.001703
0.000905
0.000901
0.000249
0.000226
0.000267
0.000270
0.000256
0.000264
0.000254
0.000249
0.000254
0.000246
0.000273
0.000278
0.001503
0.000268
0.000251
0.000222
0.000238
0.000239
0.000255
0.000280
0.000262
0.000278
0.000212
0.000061
0.000197
0.000224
0.001514
0.000947
0.000347
0.000359
0.000218
0.000215
0.000245
0.000257
0.000243
0.000239
0.000260
0.002035
0.000473
0.000209
0.000227
0.000233
0.000268
0.000261
0.000187
