0.000287
0.017118
0.004282
0.000372
0.000264
0.000281
0.000310
0.000250
0.000334
0.000275
0.000255
0.000341
0.000522
0.000494
0.000319
0.000387
0.000284
0.000344
0.000350
0.000414
0.000313
0.001935
0.000688
0.000251
0.000263
0.000301
0.000306
0.000321
0.000434
0.000362
0.000507
0.000319
0.000057
0.000206
0.000271
0.000271
0.000266
0.000274
0.000248
0.000277
0.000263
0.000270
0.000287
0.000431
0.000515
0.000238
0.000255
0.000413
0.000301
0.000366
0.000250
0.000256
0.001698
0.000322
0.000254
0.000451
0.000252
0.000273
0.000271
0.000292
0.000290
0.000283
0.000366
0.000399
0.000056
0.000231
0.000255
0.000264
0.000259
0.000251
0.000245
0.000260
0.000260
0.000288
0.001662
0.000231
0.000243
0.000257
0.000275
0.000281
0.000250
0.000264
0.000253
0.000357
0.001799
0.000231
0.000281
0.000442
0.000462
0.000354
0.000256
0.000243
0.000448
0.000541
0.000742
0.000191
0.000056
0.000214
0.000252
0.000251
0.000286
0.000251
0.000258
0.000314
0.000540
0.000401
0.000243
0.000251
0.000252
0.000244
0.000250
0.000259
0.000255
0.000242
0.000267
0.000298
0.000255
0.001672
0.000259
0.000264
0.000408
0.000627
0.000372
0.000640
0.000563
0.000345
0.000238
0.000188
0.000055
0.000218
0.000248
0.000268
0.000239
0.000257
0.000260
0.000296
0.000435
0.001460
0.000220
0.000248
0.000245
0.000256
0.000259
0.000259
0.000286
0.000397
0.000702
0.001369
0.000275
0.000454
0.000266
0.000199
0.000246
0.000261
0.000257
0.000267
0.000270
0.000257
0.000273
0.000187
0.000055
0.000203
0.000250
0.000236
0.000269
0.000237
0.000247
0.000238
0.000255
0.000236
0.000259
0.001622
0.000266
0.000235
0.000236
0.000255
0.000254
0.000243
0.000251
0.000257
0.000271
0.000250
0.001664
0.000294
0.000250
0.000427
0.000264
0.000256
0.000249
0.000288
0.000250
0.000199
0.000055
0.000203
0.000239
0.000241
0.000249
0.000243
0.000245
0.000258
0.000235
0.000264
0.000246
0.000264
0.000255
0.000277
0.000256
0.001631
0.000272
0.000301
0.000208
0.000262
0.000268
0.000272
0.000241
0.000247
0.000262
0.001832
0.000309
0.000376
0.000369
0.000244
0.000278
0.000200
0.000057
0.000195
0.000239
0.000251
0.000265
0.000260
0.000235
0.000266
0.000425
0.000495
0.000350
0.000205
0.000252
0.000250
0.000252
0.001598
0.000520
0.000279
0.000427
0.000312
0.000223
0.000278
0.000284
0.000266
0.001730
0.000490
0.000488
0.000253
0.000237
0.000261
0.000274
0.000172
0.000055
0.000217
0.000233
0.000251
0.000265
0.000312
0.000452
0.000387
0.000277
0.000224
0.000249
0.000258
0.000244
0.000248
0.001717
0.000473
0.000298
0.000231
0.000251
0.000270
0.000286
0.000247
0.000261
0.000269
0.001953
0.000242
0.000389
0.000263
0.000245
0.000257
0.000406
0.000324
0.000055
0.000213
0.000390
0.000325
0.000308
0.000245
0.000253
0.000250
0.000259
0.000241
0.000234
0.000235
0.000249
0.001556
0.000390
0.000271
0.000230
0.000258
0.000253
0.000248
0.000276
0.000277
0.000331
0.000244
0.001806
0.000258
0.000505
0.000238
0.000255
0.000251
0.000274
0.000265
0.000055
0.000318
0.000617
0.000606
0.000216
0.000231
0.000274
0.000227
0.000227
0.000258
0.000250
0.000260
0.001697
0.000241
0.000446
0.000370
0.000223
0.000242
0.000230
0.000249
0.000263
0.000250
0.001864
0.000236
0.000240
0.002070
0.000525
0.000364
0.000245
0.000258
0.000267
0.000183
0.000055
0.000197
0.000242
0.000244
0.000245
0.000258
0.001621
0.000246
0.000235
0.000251
0.000257
0.000244
0.000266
0.000224
0.000256
0.000288
0.000372
0.000661
0.000244
0.000244
0.000264
0.000268
0.000248
0.000244
0.000428
0.000440
0.000287
0.000289
0.000716
0.000321
0.000256
0.000206
0.000055
0.000224
0.000234
0.000257
0.000249
0.000231
0.000243
0.000239
0.000359
0.000480
0.001715
0.000222
0.000236
0.000239
0.000248
0.000258
0.000292
0.000407
0.000486
0.000354
0.000240
0.000264
0.000287
0.000287
0.000262
0.000260
0.000436
0.000346
0.000569
0.000594
0.000351
0.000180
0.000055
0.000193
0.000269
0.000236
0.000221
0.000246
0.000239
0.000245
0.000249
0.000242
0.000291
0.000353
0.000433
0.001379
0.000249
0.000233
0.000250
0.000255
0.000259
0.000238
0.000254
0.000261
0.000459
0.000425
0.000262
0.000272
0.000250
0.000259
0.000273
0.000261
0.000264
0.000379
0.000055
0.000211
0.000254
0.000209
0.000363
0.000459
0.000434
0.000217
0.000267
0.000232
0.000259
0.000247
0.000239
0.000291
0.000250
0.000241
0.000532
0.000379
0.001633
0.000295
0.000207
0.000264
0.000266
0.000253
0.000263
0.000234
0.000455
0.000530
0.000456
0.000240
0.000244
0.000190
0.000055
0.000234
0.000432
0.000240
0.000218
0.000264
0.000244
0.000342
0.000519
0.000472
0.000175
0.000229
0.000268
0.000271
0.000238
0.000517
0.000345
0.000218
0.000244
0.000493
0.001558
0.000274
0.000252
0.000508
0.000237
0.000284
0.000276
0.000260
0.000341
0.000549
0.000454
0.000188
0.000056
0.000212
0.000239
0.000235
0.000244
0.000417
0.000303
0.000294
0.000223
0.000384
0.000521
0.000341
0.000264
0.000233
0.000238
0.000259
0.000270
0.000249
0.000256
0.000239
0.000341
0.000296
0.000347
0.001832
0.000243
0.000250
0.000257
0.000283
0.000351
0.000412
0.000689
0.000475
0.000056
0.000227
0.000331
0.000282
0.000428
0.000407
0.000195
0.000258
0.000278
0.000528
0.000424
0.000248
0.000251
0.000224
0.000271
0.000260
0.000242
0.000251
0.000273
0.000272
0.000252
0.000267
0.000419
0.000709
0.001277
0.000325
0.000440
0.000419
0.000242
0.000424
0.000417
0.000315
0.000058
0.000220
0.000379
0.000281
0.000210
0.000221
0.000242
0.000421
0.000239
0.000232
0.000394
0.000423
0.000427
0.000238
0.000256
0.000260
0.000247
0.000360
0.000393
0.000353
0.000235
0.000252
0.000467
0.000558
0.001672
0.000224
0.000461
0.000284
0.000228
0.000259
0.000451
0.000273
0.000057
0.000193
0.000232
0.000245
0.000245
0.000248
0.000243
0.000252
0.000320
0.000462
0.000232
0.000477
0.000362
0.000309
0.000574
0.000250
0.000243
0.000272
0.000264
0.000230
0.000344
0.000225
0.000248
0.000274
0.000353
0.000602
0.001607
0.000268
0.000238
0.000241
0.000278
0.000186
0.000056
0.000314
0.000546
0.000242
0.000225
0.000253
0.000244
0.000258
0.000236
0.000261
0.000249
0.000225
0.000245
0.000420
0.000552
0.000418
0.000231
0.000251
0.000250
0.000341
0.000381
0.000385
0.000366
0.000386
0.000329
0.000251
0.000261
0.000273
0.000273
0.001783
0.000299
0.000167
0.000054
0.000208
0.000227
0.000309
0.000213
0.000356
0.000546
0.000304
0.000222
0.000258
0.000264
0.000250
0.000243
0.000524
0.000449
0.000479
0.000281
0.000269
0.000265
0.000415
0.000466
0.000364
0.000400
0.000598
0.000334
0.000238
0.000255
0.000263
0.000247
0.000262
0.001713
0.000315
0.000056
0.000290
0.000330
0.000204
0.000240
0.000269
0.000233
0.000234
0.000502
0.000369
0.000311
0.000303
0.000318
0.000282
0.000665
0.000339
0.000232
0.000253
0.000254
0.000250
0.000270
0.000262
0.000271
0.000244
0.000263
0.000312
0.000374
0.000395
0.000358
0.000233
0.000254
0.000194
0.000055
0.000451
0.000389
0.000360
0.000261
0.000202
0.000249
0.000245
0.000252
0.000238
0.000224
0.000250
0.000297
0.000277
0.000369
0.000527
0.000463
0.000314
0.000325
0.000371
0.000340
0.000293
0.000249
0.000246
0.000264
0.001738
0.000262
0.001714
0.000938
0.000470
0.000256
0.000184
0.000056
0.000205
0.000243
0.000235
0.000261
0.000240
0.000249
0.000253
0.000253
0.000242
0.000308
0.000409
0.000390
0.000338
0.000395
0.000230
0.000267
0.000243
0.000294
0.000230
0.000248
0.000248
0.000260
0.001807
0.000245
0.000258
0.000263
0.000295
0.000246
0.001902
0.000542
0.000260
0.000056
0.000206
0.000224
0.000251
0.000219
0.000255
0.000245
0.000241
0.000258
0.000254
0.000372
0.000572
0.000482
0.000240
0.000200
0.000243
0.000250
0.000321
0.000442
0.000368
0.000258
0.001815
0.000217
0.000246
0.000254
0.000273
0.000250
0.000241
0.000255
0.000325
0.000312
0.000428
0.000056
0.000257
0.000221
0.000237
0.000258
0.000244
0.000245
0.000257
0.000256
0.000237
0.000259
0.000238
0.000279
0.000378
0.000425
0.000378
0.000202
0.000462
0.000244
0.000244
0.000258
0.000268
0.000255
0.000274
0.000250
0.000280
0.001803
0.000237
0.000241
0.000262
0.000241
0.000199
0.000055
0.000209
0.000373
0.000239
0.000224
0.000241
0.000228
0.000240
0.000272
0.000234
0.000226
0.000231
0.000262
0.000260
0.000384
0.000369
0.000396
0.000264
0.000250
0.000241
0.000256
0.000266
0.000252
0.000252
0.000274
0.000252
0.000256
0.000329
0.001639
0.000247
0.000237
0.000186
0.000055
0.000193
0.000235
0.000256
0.000261
0.000341
0.000476
0.000366
0.000232
0.000223
0.000260
0.000248
0.000248
0.000243
0.000254
0.000281
0.000238
0.000246
0.000262
0.000251
0.000257
0.000266
0.000271
0.000252
0.000232
0.000242
0.000281
0.000278
0.000264
0.000252
0.000267
0.000191
0.000056
0.000211
0.000229
0.000257
0.000258
0.000236
0.000256
0.000241
0.000262
0.000274
0.000248
0.000237
0.000236
0.000252
0.000254
0.000269
0.000258
0.000257
0.000251
0.000301
0.000243
0.000277
0.000293
0.000272
0.000248
0.000278
0.000270
0.000272
0.000254
0.000314
0.000523
0.000428
0.000057
0.000219
0.000292
0.000219
0.000238
0.000231
0.000255
0.000241
0.000249
0.000261
0.000226
0.000281
0.000299
0.000540
0.000420
0.001527
0.000243
0.000480
0.000233
0.000353
0.000347
0.000530
0.000298
0.000230
0.000278
0.000251
0.000263
0.000283
0.000250
0.000307
0.000257
0.000186
0.000054
0.000406
0.000376
0.000356
0.000292
0.000218
0.000261
0.000246
0.000245
0.000237
0.000243
0.000255
0.000257
0.000230
0.000307
0.000305
0.000526
0.000381
0.001799
0.000224
0.000259
0.000371
0.000438
0.000419
0.000277
0.000323
0.000313
0.000305
0.000227
0.000230
0.000250
0.000194
0.000054
0.000220
0.000231
0.000239
0.000301
0.000337
0.000475
0.000323
0.000255
0.000254
0.000215
0.000246
0.000268
0.000269
0.000261
0.000249
0.000254
0.000273
0.000527
0.000344
0.000426
0.000237
0.001749
0.000327
0.000481
0.000635
0.000345
0.000349
0.000211
0.000255
0.000265
0.000442
0.000055
0.000209
0.000256
0.000232
0.000289
0.000446
0.000413
0.000421
0.000199
0.000240
0.000284
0.000250
0.000262
0.000251
0.000304
0.000297
0.000238
0.000245
0.000349
0.000604
0.000293
0.000435
0.001840
0.000253
0.000538
0.000397
0.000365
0.000233
0.000255
0.000292
0.000262
0.000199
0.000056
0.000212
0.000337
0.000360
0.000352
0.000374
0.000289
0.000369
0.000210
0.000247
0.000259
0.000271
0.000232
0.000249
0.000270
0.000231
0.000261
0.000311
0.000353
0.000555
0.000361
0.000283
0.000231
0.000268
0.001707
0.000569
0.000443
0.000606
0.000236
0.000269
0.000308
0.000162
0.000054
0.000192
0.000243
0.000319
0.000254
0.000282
0.000347
0.000426
0.000317
0.000235
0.000531
0.000231
0.000239
0.000264
0.000274
0.000274
0.000269
0.000212
0.000289
0.000583
0.000380
0.000259
0.000237
0.000254
0.000256
0.000263
0.000265
0.000240
0.000253
0.000268
0.000293
0.000190
0.000055
0.000353
0.000303
0.000242
0.000231
0.000248
0.000255
0.000246
0.000291
0.000238
0.000244
0.000256
0.000360
0.000421
0.000431
0.000311
0.000280
0.000223
0.000233
0.000260
0.000262
0.000293
0.000255
0.000236
0.000255
0.000286
0.000285
0.000414
0.000421
0.000339
0.000226
0.000186
0.000056
0.000209
0.000229
0.000277
0.000246
0.000240
0.000249
0.000257
0.000260
0.000489
0.000213
0.000261
0.000251
0.000251
0.000270
0.000264
0.000273
0.000267
0.000347
0.000218
0.000246
0.000252
0.000272
0.000250
0.000271
0.000277
0.000264
0.000262
0.000254
0.000516
0.000245
0.000152
0.000055
0.000210
0.000237
0.000247
0.000272
0.000219
0.000248
0.000364
0.000409
0.000235
0.000240
0.000253
0.000253
0.000233
0.000291
0.000449
0.001746
0.000230
0.000271
0.000279
0.000388
0.000363
0.000360
0.000365
0.000410
0.000364
0.000410
0.000248
0.000268
0.000268
0.000276
0.001392
0.000056
0.000399
0.000293
0.000274
0.000222
0.000236
0.000251
0.000234
0.000253
0.000244
0.000269
0.000248
0.000254
0.000255
0.000308
0.000555
0.001600
0.000241
0.000233
0.000247
0.000268
0.000233
0.000268
0.000355
0.000468
0.000225
0.000344
0.000220
0.000274
0.000275
0.000264
0.000190
0.000056
0.001187
0.000612
0.000242
0.000279
0.000246
0.000211
0.000234
0.000240
0.000486
0.000220
0.000242
0.000288
0.000314
0.000551
0.000432
0.000281
0.000238
0.000239
0.000333
0.000354
0.000276
0.000250
0.000275
0.000243
0.000265
0.000518
0.000620
0.000262
0.000250
0.000264
0.000172
0.000055
0.000227
0.000210
0.000242
0.000246
0.001554
0.000208
0.000228
0.000255
0.000235
0.000253
0.000254
0.000255
0.000240
0.000262
0.000272
0.000302
0.000439
0.000642
0.000258
0.001746
0.000271
0.000261
0.000272
0.000468
0.000558
0.000383
0.000250
0.000248
0.000255
0.000272
0.000202
0.000055
0.000218
0.000249
0.000236
0.000287
0.001281
0.000244
0.000246
0.000261
0.000242
0.000237
0.000234
0.000251
0.000280
0.000247
0.000251
0.000258
0.000652
0.000322
0.000266
0.000259
0.000264
0.000278
0.000244
0.000237
0.000279
0.000271
0.000243
0.000279
0.000271
0.000343
0.000638
0.000055
0.000228
0.000244
0.000236
0.000264
0.000260
0.000245
0.000242
0.000253
0.000270
0.000256
0.001432
0.000230
0.000237
0.000249
0.000247
0.000240
0.000270
0.000267
0.000255
0.000272
0.000265
0.000520
0.000490
0.000325
0.000239
0.000269
0.001757
0.000261
0.000256
0.000383
0.000422
0.000056
0.000193
0.000389
0.000448
0.000504
0.000515
0.000545
0.001502
0.000404
0.000523
0.000654
0.000552
0.000715
0.000532
0.000569
0.000592
0.001887
0.000372
0.000465
0.000404
0.000320
0.000226
0.000291
0.000259
0.000272
0.000258
0.000290
0.000283
0.000290
0.000256
0.000294
0.001372
0.000055
0.000206
0.000233
0.000246
0.000238
0.000254
0.000256
0.000233
0.000246
0.000246
0.000254
0.000233
0.000244
0.000262
0.000253
0.000267
0.000272
0.001803
0.000269
0.000256
0.000241
0.000273
0.000249
0.000265
0.000340
0.000391
0.000384
0.000355
0.000224
0.000268
0.000270
0.000209
0.000056
0.000198
0.001368
0.000333
0.000259
0.000262
0.000235
0.000244
0.000241
0.000230
0.000245
0.000213
0.000241
0.000251
0.000510
0.000361
0.000283
0.000268
0.000252
0.001923
0.000229
0.000254
0.000275
0.000250
0.000260
0.000277
0.000275
0.000271
0.000254
0.000272
0.000314
0.000207
0.000055
0.000215
0.000242
0.000252
0.001448
0.000213
0.000237
0.000261
0.000241
0.000236
0.000274
0.000257
0.000238
0.000242
0.000254
0.000268
0.000251
0.000264
0.000267
0.000266
0.000255
0.000262
0.001769
0.000275
0.001755
0.000267
0.000238
0.000288
0.000259
0.000271
0.000274
0.000204
0.000056
0.000207
0.000240
0.001345
0.000223
0.000263
0.000249
0.000254
0.000257
0.000244
0.000253
0.000244
0.000249
0.000261
0.000262
0.000258
0.000266
0.000258
0.000290
0.000287
0.000226
0.001886
0.000229
0.001832
0.000241
0.000261
0.000277
0.000229
0.000256
0.000250
0.000276
0.000190
0.000055
0.001451
0.000227
0.000228
0.000247
0.000234
0.000238
0.000371
0.000267
0.000250
0.000253
0.000254
0.000261
0.000273
0.000380
0.000335
0.000316
0.000222
0.000266
0.000268
0.000248
0.000278
0.000332
0.000235
0.000247
0.000275
0.000273
0.000271
0.000345
0.000633
0.000371
0.000182
0.000055
0.000202
0.000242
0.000275
0.000299
0.000373
0.000254
0.001711
0.000281
0.000283
0.000264
0.000256
0.000268
0.000269
0.000261
0.000302
0.000315
0.000512
0.000443
0.000329
0.000266
0.000285
0.000285
0.000269
0.000252
0.000336
0.000263
0.000266
0.000246
0.000254
0.000320
0.000447
0.000058
0.000253
0.000475
0.000268
0.000263
0.000246
0.000227
0.000223
0.000249
0.000265
0.000266
0.001500
0.000228
0.000228
0.000249
0.000243
0.000290
0.000277
0.000236
0.000264
0.000263
0.000272
0.000333
0.000554
0.000336
0.000282
0.000277
0.000266
0.000255
0.000231
0.000313
0.000169
0.000055
0.000203
0.000229
0.000269
0.000484
0.000356
0.000283
0.000221
0.000249
0.000254
0.000268
0.000217
0.000250
0.000261
0.000262
0.000243
0.000231
0.000399
0.001219
0.000246
0.000245
0.000279
0.000240
0.000360
0.000419
0.000252
0.000308
0.000645
0.000347
0.000328
0.000243
0.000180
0.000056
0.000202
0.000250
0.000260
0.000263
0.000253
0.000248
0.000347
0.000476
0.000363
0.000285
0.000351
0.000393
0.000392
0.000361
0.000256
0.000250
0.000240
0.000259
0.000502
0.000350
0.001277
0.000224
0.000272
0.000269
0.000233
0.000242
0.000282
0.000316
0.000412
0.000429
0.000233
0.000056
0.000188
0.000249
0.000250
0.000248
0.000235
0.000250
0.000233
0.000259
0.000310
0.000408
0.000343
0.000406
0.000242
0.000235
0.000245
0.000260
0.000251
0.000260
0.000265
0.000248
0.000442
0.000279
0.000393
0.000389
0.000307
0.000247
0.000288
0.000254
0.000255
0.000341
0.000152
0.000055
0.000311
0.000314
0.000295
0.000369
0.000502
0.000331
0.000246
0.000241
0.000255
0.000264
0.000259
0.000262
0.000235
0.000253
0.000244
0.000228
0.000269
0.000361
0.000484
0.000354
0.000226
0.000278
0.000242
0.000243
0.000270
0.000284
0.000263
0.000259
0.000287
0.000265
0.000320
0.000056
0.000357
0.000278
0.000235
0.000247
0.000245
0.000249
0.000247
0.000246
0.000286
0.000240
0.000254
0.000231
0.000280
0.000498
0.000435
0.000296
0.000243
0.000246
0.000258
0.000263
0.000262
0.000259
0.000255
0.000271
0.000268
0.000338
0.000398
0.000606
0.000390
0.000261
0.000163
0.000055
0.000396
0.000195
0.000240
0.000241
0.000253
0.000248
0.000241
0.000253
0.000252
0.000259
0.000218
0.000249
0.000283
0.000218
0.000254
0.000252
0.000252
0.000260
0.000272
0.000266
0.000260
0.000258
0.000266
0.000263
0.000263
0.000240
0.000263
0.000276
0.000262
0.000295
0.000177
0.000055
0.000211
0.000230
0.000250
0.000247
0.000230
0.000255
0.000264
0.000236
0.000259
0.000271
0.000235
0.000234
0.000264
0.000399
0.000246
0.000282
0.000261
0.000267
0.000260
0.000276
0.000268
0.000241
0.000238
0.000255
0.000275
0.000270
0.000250
0.000256
0.000286
0.000243
0.000209
0.000056
0.000212
0.000357
0.000369
0.000280
0.000298
0.000248
0.000280
0.000266
0.000209
0.000256
0.000241
0.000262
0.000253
0.000236
0.000253
0.000260
0.000266
0.000267
0.000245
0.000262
0.000278
0.000263
0.000276
0.000256
0.000271
0.000266
0.000259
0.000258
0.000269
0.000261
0.000199
0.000055
0.000219
0.000235
0.000264
0.000261
0.000486
0.000216
0.000204
0.000249
0.000269
0.000486
0.000468
0.000281
0.000236
0.000237
0.000268
0.000271
0.000238
0.000275
0.000252
0.000267
0.000267
0.000259
0.000261
0.000315
0.000422
0.000566
0.000268
0.000306
0.000260
0.000265
0.000191
0.000055
0.000199
0.000227
0.000251
0.000247
0.000418
0.000595
0.000278
0.000378
0.000211
0.000248
0.000245
0.000257
0.000248
0.000252
0.000255
0.000272
0.000281
0.000225
0.000700
0.000333
0.000291
0.000243
0.000256
0.000288
0.000282
0.000254
0.000263
0.000268
0.000249
0.000330
0.000330
0.000055
0.000284
0.000244
0.000237
0.000234
0.000255
0.000252
0.000229
0.000249
0.000247
0.000258
0.000245
0.000247
0.000245
0.000369
0.000612
0.000374
0.000238
0.000265
0.000260
0.000243
0.000270
0.000268
0.000518
0.000194
0.000264
0.000554
0.000438
0.000503
0.000255
0.000245
0.000183
0.000055
0.000217
0.000229
0.000248
0.000240
0.000254
0.000259
0.000287
0.000539
0.000495
0.000429
0.000215
0.000260
0.000279
0.000279
0.000256
0.000246
0.000238
0.000249
0.000256
0.000317
0.000425
0.000642
0.000369
0.000250
0.000359
0.000374
0.000488
0.000249
0.000263
0.000393
0.000444
0.000055
0.000179
0.000222
0.000434
0.000234
0.000225
0.000254
0.000265
0.000256
0.000236
0.000240
0.000256
0.000443
0.000339
0.000341
0.000239
0.000236
0.000262
0.000251
0.000261
0.000278
0.000273
0.000253
0.000252
0.000268
0.000306
0.000607
0.000366
0.000241
0.000261
0.000268
0.000198
0.000055
0.000211
0.000251
0.000230
0.000236
0.000255
0.000305
0.000372
0.000290
0.000481
0.000283
0.000373
0.000235
0.000235
0.000266
0.000259
0.000242
0.000260
0.000252
0.000299
0.000392
0.000469
0.000343
0.000475
0.000272
0.000382
0.000424
0.000382
0.000241
0.000254
0.000311
0.000427
0.000055
0.000266
0.000277
0.000222
0.000255
0.000260
0.000258
0.000249
0.000245
0.000248
0.000267
0.000233
0.000338
0.000465
0.000429
0.000324
0.000221
0.000272
0.000266
0.000267
0.000232
0.000251
0.000252
0.000266
0.000274
0.000275
0.000356
0.000463
0.000487
0.000234
0.000277
0.000191
0.000055
0.000198
0.000252
0.000262
0.000241
0.000254
0.000337
0.000504
0.000488
0.000365
0.000665
0.000264
0.000225
0.000240
0.000256
0.000253
0.000262
0.000276
0.000272
0.000473
0.000503
0.001434
0.000303
0.000261
0.000258
0.000298
0.000265
0.000452
0.000375
0.000324
0.000341
0.000160
0.000056
0.000210
0.000230
0.000244
0.000245
0.000243
0.000253
0.000275
0.000253
0.000249
0.000328
0.000326
0.000389
0.000267
0.000331
0.000388
0.000349
0.000243
0.000257
0.000268
0.000256
0.000242
0.000253
0.000285
0.000246
0.000315
0.000435
0.000432
0.000303
0.000241
0.000272
0.000188
0.000055
0.000206
0.000254
0.000255
0.000252
0.000242
0.000240
0.000466
0.000209
0.000242
0.000250
0.000245
0.000253
0.000264
0.000253
0.000252
0.000268
0.000258
0.000269
0.000272
0.000251
0.000264
0.000289
0.000293
0.000264
0.000242
0.000279
0.000271
0.000264
0.000263
0.000275
0.000173
0.000055
0.000219
0.000251
0.000410
0.000334
0.000345
0.000254
0.000232
0.000248
0.000263
0.000248
0.000254
0.000247
0.000264
0.000263
0.000238
0.000242
0.000248
0.000267
0.000282
0.000345
0.000474
0.000364
0.000226
0.000263
0.000271
0.000250
0.000265
0.000250
0.000274
0.000281
0.000196
0.000055
0.000352
0.000426
0.000390
0.000204
0.000254
0.000255
0.000410
0.000224
0.000230
0.000258
0.000257
0.000289
0.000413
0.000424
0.001824
0.000251
0.000247
0.000244
0.000284
0.000238
0.000332
0.000454
0.000675
0.000232
0.000256
0.000239
0.000273
0.000431
0.000276
0.000278
0.000162
0.000055
0.000213
0.000361
0.000335
0.000330
0.000492
0.000204
0.000248
0.000241
0.000274
0.000225
0.000253
0.000252
0.000260
0.000367
0.000414
0.000415
0.000227
0.000247
0.000262
0.000257
0.000265
0.000317
0.000238
0.000276
0.000275
0.000442
0.000505
0.000474
0.000400
0.000236
0.000198
0.000055
0.000222
0.000237
0.000258
0.000226
0.000253
0.000246
0.000273
0.000267
0.000350
0.000397
0.000403
0.000354
0.000233
0.000240
0.000265
0.000282
0.000306
0.000236
0.000273
0.000273
0.000236
0.000321
0.000487
0.000347
0.000281
0.000251
0.000266
0.000446
0.000405
0.000314
0.000178
0.000055
0.000198
0.000234
0.000327
0.000460
0.000350
0.000209
0.000235
0.000273
0.000240
0.000262
0.000262
0.000254
0.000230
0.000254
0.000262
0.000309
0.000427
0.000314
0.000412
0.000220
0.000499
0.000228
0.000274
0.000275
0.000309
0.000281
0.000255
0.000279
0.000478
0.000470
0.000223
0.000055
0.000204
0.000229
0.000253
0.000245
0.000237
0.000480
0.000214
0.000257
0.000268
0.000324
0.000466
0.000610
0.000213
0.000247
0.000242
0.000251
0.000257
0.000252
0.000252
0.000254
0.000257
0.000270
0.000392
0.000377
0.000486
0.000285
0.000301
0.000301
0.000321
0.000255
0.000179
0.000056
0.000245
0.000214
0.000255
0.000486
0.000352
0.000313
0.000217
0.000225
0.000245
0.000266
0.000262
0.000231
0.000253
0.000261
0.000250
0.000265
0.000243
0.000243
0.000274
0.000425
0.000452
0.000411
0.000225
0.000246
0.000293
0.000260
0.000264
0.000254
0.000265
0.000269
0.000191
0.000055
0.000278
0.000456
0.000369
0.000255
0.000214
0.000256
0.000322
0.000450
0.000293
0.000210
0.000239
0.000275
0.000255
0.000422
0.000465
0.000316
0.000208
0.000229
0.000258
0.000277
0.000255
0.000261
0.000266
0.000273
0.000265
0.000294
0.000377
0.000507
0.000231
0.000256
0.000174
0.000055
0.000237
0.000236
0.000250
0.000253
0.000249
0.000263
0.000237
0.000253
0.000247
0.000250
0.000268
0.000232
0.000264
0.001460
0.000225
0.000251
0.000261
0.000248
0.000271
0.000277
0.000263
0.000241
0.000277
0.000252
0.000269
0.000266
0.000272
0.000272
0.000267
0.000260
0.000187
0.000054
0.000193
0.000233
0.000248
0.000255
0.000236
0.000246
0.000258
0.000257
0.000230
0.000244
0.000249
0.000264
0.000274
0.000235
0.000258
0.000259
0.000242
0.000262
0.000274
0.000255
0.000253
0.000262
0.000247
0.000252
0.001286
0.000291
0.000620
0.000352
0.000361
0.000242
0.000189
0.000056
0.000206
0.000236
0.000242
0.000251
0.000412
0.000246
0.000239
0.000236
0.000254
0.000355
0.000479
0.000318
0.000234
0.000240
0.000256
0.000260
0.000250
0.000263
0.000251
0.000273
0.000248
0.000252
0.000273
0.000435
0.000504
0.000441
0.000217
0.000266
0.001387
0.000230
0.000178
0.000054
0.000296
0.000424
0.000318
0.000267
0.000225
0.000231
0.000233
0.000250
0.000257
0.000254
0.000248
0.000264
0.000263
0.000297
0.000598
0.000330
0.000322
0.000230
0.000251
0.000246
0.000270
0.000262
0.000271
0.000265
0.000284
0.000251
0.000260
0.000611
0.000429
0.000318
0.000152
0.000055
0.000208
0.000218
0.001281
0.000411
0.000258
0.000496
0.000386
0.000480
0.000269
0.000342
0.000229
0.000225
0.000263
0.000251
0.000245
0.000270
0.000330
0.000527
0.000361
0.000386
0.000255
0.000252
0.000266
0.000497
0.000230
0.000267
0.000254
0.000282
0.000290
0.000583
0.000275
0.000055
0.000380
0.000308
0.000230
0.000233
0.001666
0.000444
0.000235
0.000223
0.000248
0.000254
0.000224
0.000242
0.000244
0.000275
0.000248
0.000261
0.000240
0.000255
0.000391
0.000424
0.000447
0.000244
0.000256
0.000247
0.000262
0.000273
0.000273
0.000236
0.000264
0.000282
0.000192
0.000056
0.000368
0.000345
0.000230
0.000227
0.000250
0.000238
0.000250
0.000249
0.000233
0.000230
0.001396
0.000505
0.000248
0.000243
0.000233
0.000256
0.000278
0.000260
0.000235
0.000277
0.000275
0.000250
0.000273
0.000388
0.000506
0.000377
0.000232
0.000277
0.000272
0.000278
0.000170
0.000056
0.000200
0.000405
0.000229
0.000230
0.000416
0.000404
0.000408
0.000248
0.000461
0.000212
0.000226
0.000251
0.000259
0.000268
0.000256
0.001431
0.000347
0.000281
0.000252
0.000264
0.000280
0.000246
0.000257
0.000253
0.000259
0.000273
0.000505
0.000385
0.000292
0.000280
0.000154
0.000056
0.000225
0.000225
0.000259
0.000239
0.000224
0.000264
0.000241
0.000253
0.000259
0.000365
0.000493
0.000258
0.000249
0.000244
0.000243
0.000276
0.000270
0.000264
0.000272
0.000225
0.000263
0.000328
0.001239
0.000255
0.000250
0.000250
0.000273
0.000259
0.000256
0.000262
0.000179
0.000056
0.000233
0.000329
0.000369
0.000372
0.000246
0.000222
0.000254
0.000262
0.000256
0.000250
0.000254
0.000268
0.000245
0.000270
0.000241
0.000263
0.000266
0.000271
0.000263
0.000246
0.000255
0.000269
0.000269
0.000282
0.000289
0.000261
0.000272
0.000253
0.000260
0.000447
0.001370
0.000056
0.000194
0.000227
0.000240
0.000239
0.000254
0.000259
0.000246
0.000228
0.000245
0.000255
0.000273
0.000251
0.000254
0.000242
0.000270
0.000229
0.001726
0.000264
0.000236
0.000261
0.000244
0.000262
0.000268
0.000260
0.000273
0.000255
0.000275
0.000274
0.000270
0.000263
0.000220
0.000055
0.000295
0.000346
0.001278
0.000217
0.000233
0.000252
0.000257
0.000251
0.000260
0.000255
0.000234
0.000351
0.000429
0.000395
0.000303
0.000210
0.000263
0.000239
0.000253
0.000273
0.000240
0.000265
0.000271
0.000287
0.000259
0.000427
0.000398
0.000298
0.000320
0.000243
0.000193
0.000056
0.000228
0.000249
0.000243
0.000251
0.000251
0.000221
0.000242
0.000319
0.000358
0.001354
0.000249
0.000211
0.000248
0.000279
0.000248
0.000266
0.000261
0.000249
0.000298
0.000466
0.000370
0.000236
0.000233
0.000260
0.000280
0.000274
0.000267
0.000297
0.000269
0.000275
0.000194
0.000054
0.000220
0.000495
0.000347
0.000223
0.000230
0.000233
0.000246
0.000271
0.000267
0.000249
0.000231
0.000249
0.000446
0.000551
0.000410
0.001480
0.000250
0.000275
0.000313
0.000349
0.000507
0.000418
0.000457
0.000381
0.000239
0.000266
0.000278
0.000260
0.000273
0.000264
0.000208
0.000055
0.000203
0.000264
0.000575
0.000301
0.000394
0.000240
0.000246
0.000238
0.000264
0.000236
0.000250
0.000262
0.000270
0.000239
0.000269
0.000296
0.000476
0.000310
0.000372
0.001324
0.000266
0.000256
0.000249
0.000268
0.000433
0.000507
0.000357
0.000226
0.000286
0.000269
0.000190
0.000055
0.000204
0.000244
0.000245
0.000245
0.000252
0.000269
0.000452
0.000459
0.000302
0.000221
0.000240
0.000259
0.000273
0.000253
0.000268
0.000255
0.000267
0.000251
0.000283
0.000295
0.000449
0.000434
0.000300
0.001362
0.000401
0.000236
0.000265
0.000399
0.000530
0.000278
0.000317
0.000055
0.000194
0.000230
0.000249
0.000250
0.000263
0.000238
0.001672
0.000245
0.000223
0.000243
0.000258
0.000247
0.000250
0.000323
0.000333
0.000279
0.000277
0.000318
0.000500
0.000388
0.000316
0.000279
0.000225
0.000256
0.001499
0.000387
0.000388
0.000461
0.000314
0.000288
0.000173
0.000055
0.000212
0.000247
0.000251
0.000260
0.000241
0.000261
0.001707
0.000244
0.000236
0.000262
0.000326
0.000407
0.001443
0.000370
0.000390
0.000248
0.000250
0.000243
0.000264
0.000268
0.001591
0.000535
0.000372
0.000289
0.000240
0.000250
0.000263
0.000283
0.000248
0.000246
0.000198
0.000055
0.000193
0.000245
0.000266
0.000246
0.000260
0.000290
0.000264
0.000261
0.000244
0.000253
0.000254
0.000246
0.000264
0.000272
0.000250
0.001488
0.000284
0.000239
0.000265
0.000278
0.000265
0.000258
0.000427
0.001275
0.000272
0.000235
0.000274
0.000255
0.000393
0.000243
0.000204
0.000056
0.000205
0.000255
0.000219
0.000249
0.000236
0.000224
0.000242
0.001694
0.000250
0.000231
0.000245
0.000373
0.000228
0.000221
0.000259
0.001383
0.000242
0.000260
0.000263
0.000246
0.000267
0.000346
0.000272
0.001319
0.000277
0.000247
0.000255
0.000263
0.001385
0.000282
0.000207
0.000055
0.000317
0.000276
0.000211
0.000233
0.000257
0.000241
0.000262
0.000267
0.000267
0.000246
0.000263
0.000262
0.000254
0.000252
0.000324
0.001477
0.000247
0.000277
0.000252
0.000241
0.000283
0.000265
0.000249
0.001520
0.000340
0.000235
0.000275
0.001264
0.000270
0.000250
0.000249
0.000055
0.000226
0.000483
0.000238
0.000217
0.000234
0.000238
0.000261
0.000256
0.000269
0.000268
0.000245
0.000247
0.000263
0.000263
0.000410
0.001231
0.000254
0.000234
0.000267
0.000278
0.000229
0.000243
0.000245
0.000330
0.001265
0.000272
0.000239
0.000266
0.001338
0.000346
0.000232
0.000057
0.000331
0.000274
0.000195
0.000233
0.000241
0.000261
0.000234
0.000248
0.000279
0.000251
0.000239
0.000250
0.000252
0.000346
0.000424
0.001446
0.000225
0.000251
0.000295
0.000512
0.000282
0.000503
0.001242
0.000286
0.000248
0.000267
0.000252
0.001297
0.000316
0.000555
0.000299
0.000056
0.000194
0.000252
0.000253
0.000256
0.000254
0.000252
0.000272
0.000248
0.000265
0.000264
0.000320
0.000512
0.001281
0.000241
0.000260
0.000266
0.000281
0.000220
0.000249
0.000237
0.000334
0.001250
0.000250
0.000256
0.000252
0.000253
0.001471
0.000470
0.000465
0.000230
0.000197
0.000057
0.000194
0.000231
0.000248
0.000235
0.000256
0.000261
0.000243
0.000266
0.000423
0.000483
0.000266
0.001488
0.000226
0.000235
0.000263
0.000256
0.000262
0.000283
0.001704
0.000244
0.000392
0.000331
0.001286
0.000395
0.000288
0.000308
0.000263
0.000273
0.000247
0.000269
0.000186
0.000056
0.000217
0.000241
0.000331
0.000230
0.000353
0.000570
0.000237
0.000286
0.001478
0.000231
0.000388
0.000268
0.000220
0.000338
0.000384
0.001298
0.000260
0.000230
0.000254
0.000258
0.001549
0.000363
0.000282
0.000284
0.000253
0.000240
0.000457
0.000363
0.000224
0.000235
0.000255
0.000055
0.000248
0.000374
0.000327
0.000273
0.000216
0.001530
0.000203
0.000256
0.000269
0.000267
0.000272
0.000243
0.000360
0.001429
0.000253
0.000226
0.000429
0.001200
0.000338
0.000446
0.000393
0.000241
0.000254
0.000233
0.000278
0.000245
0.000458
0.000224
0.000267
0.000279
0.000197
0.000055
0.000221
0.000253
0.000363
0.000394
0.001266
0.000278
0.000308
0.000235
0.000242
0.000253
0.000250
0.000278
0.001531
0.000264
0.000223
0.000259
0.001374
0.000396
0.000392
0.000320
0.000405
0.000237
0.000252
0.000248
0.000270
0.000272
0.000270
0.000260
0.000264
0.000257
0.000201
0.000055
0.000243
0.000391
0.001433
0.000213
0.000271
0.000276
0.000242
0.000250
0.000262
0.000346
0.001432
0.000218
0.000249
0.000263
0.000262
0.001312
0.000644
0.000314
0.000308
0.000408
0.000294
0.000253
0.000267
0.000262
0.000270
0.000289
0.000278
0.000281
0.000440
0.000437
0.001381
0.000056
0.000204
0.000247
0.000242
0.000224
0.000246
0.000497
0.000441
0.001260
0.000244
0.000237
0.000250
0.001462
0.000400
0.000334
0.000221
0.000421
0.000232
0.000244
0.000267
0.000287
0.000232
0.000273
0.000279
0.000264
0.000248
0.000270
0.000429
0.000498
0.001502
0.000231
0.000185
0.000055
0.000198
0.000255
0.000375
0.000534
0.001220
0.000276
0.000255
0.000255
0.000245
0.000251
0.000255
0.000260
0.000365
0.000524
0.000305
0.000239
0.000260
0.000271
0.000246
0.000272
0.000251
0.000290
0.000242
0.000275
0.000252
0.000365
0.000569
0.000281
0.000322
0.001406
0.000168
0.000056
0.000209
0.000240
0.000282
0.000456
0.000335
0.000300
0.000311
0.000336
0.000271
0.000261
0.000255
0.000263
0.000271
0.000289
0.000233
0.000295
0.000597
0.000286
0.000281
0.000390
0.000275
0.000400
0.000233
0.000242
0.000265
0.000260
0.000254
0.000289
0.000332
0.000528
0.000284
0.000055
0.000201
0.001405
0.000231
0.000339
0.000405
0.000415
0.000412
0.000282
0.000216
0.000250
0.000271
0.000236
0.000266
0.000274
0.000260
0.000259
0.000259
0.001289
0.000333
0.000248
0.000258
0.000269
0.000271
0.000280
0.000273
0.000250
0.000277
0.000248
0.000344
0.000521
0.000282
0.000056
0.000205
0.000251
0.000229
0.001493
0.000318
0.000246
0.000234
0.000241
0.000230
0.000249
0.000249
0.000273
0.000253
0.000244
0.000274
0.000249
0.000255
0.000262
0.000261
0.000268
0.001423
0.000235
0.000242
0.000280
0.000259
0.000240
0.000270
0.000258
0.000278
0.000484
0.000348
0.000055
0.000212
0.000231
0.000395
0.000281
0.000243
0.000252
0.001538
0.000414
0.000239
0.000210
0.000259
0.000305
0.000341
0.000230
0.000234
0.000244
0.000249
0.000260
0.000259
0.000255
0.000520
0.000454
0.001142
0.000273
0.000241
0.000247
0.000269
0.000260
0.000270
0.000266
0.000351
0.000056
0.000346
0.000271
0.000213
0.000244
0.000249
0.000237
0.000247
0.000231
0.000284
0.001624
0.000434
0.000209
0.000236
0.000249
0.000261
0.000244
0.000258
0.000274
0.000278
0.000319
0.000277
0.000552
0.000392
0.001372
0.000225
0.000268
0.000268
0.000262
0.000285
0.000340
0.000356
0.000056
0.000273
0.000240
0.000242
0.000236
0.000220
0.000246
0.000257
0.000254
0.000271
0.001643
0.000278
0.000261
0.000265
0.000257
0.000459
0.000262
0.000527
0.000377
0.000301
0.000298
0.000445
0.000450
0.001304
0.000263
0.000240
0.000253
0.001698
0.000491
0.000586
0.000318
0.000142
0.000055
0.000194
0.000227
0.000238
0.000239
0.000255
0.000247
0.000245
0.000563
0.000463
0.000386
0.000287
0.000219
0.000244
0.000259
0.000270
0.000260
0.000254
0.000269
0.000232
0.000274
0.000275
0.000413
0.001350
0.000222
0.000245
0.000275
0.001962
0.000321
0.000374
0.000352
0.000157
0.000055
0.000241
0.000247
0.001509
0.000344
0.000373
0.000225
0.000236
0.000262
0.000250
0.000281
0.000375
0.000365
0.000369
0.000270
0.000310
0.000500
0.000412
0.001193
0.000282
0.000231
0.000252
0.000261
0.000275
0.000399
0.000605
0.000465
0.000260
0.000268
0.000268
0.000283
0.000191
0.000056
0.000196
0.000236
0.000241
0.001558
0.000239
0.000231
0.000233
0.000257
0.000238
0.000252
0.000258
0.000267
0.000265
0.000293
0.000276
0.000536
0.000339
0.000249
0.001383
0.000238
0.000256
0.000267
0.000259
0.000291
0.000333
0.000509
0.000434
0.000266
0.000283
0.000224
0.000459
0.000054
0.000216
0.000244
0.000240
0.001527
0.000319
0.000223
0.000266
0.000242
0.000260
0.000251
0.000253
0.000257
0.000259
0.000278
0.000351
0.000585
0.001334
0.000761
0.000245
0.000343
0.000252
0.000237
0.000247
0.000274
0.001676
0.000796
0.000236
0.000264
0.000283
0.000286
0.000185
0.000056
0.000195
0.000237
0.000252
0.000246
0.000257
0.000245
0.000237
0.000255
0.000243
0.000248
0.000277
0.000284
0.000247
0.000250
0.000260
0.000254
0.000261
0.001604
0.000733
0.000340
0.000327
0.000228
0.000243
0.000283
0.000264
0.000259
0.000275
0.000261
0.001603
0.000206
0.000319
0.000056
0.000218
0.000211
0.000248
0.000252
0.000261
0.000232
0.000252
0.000250
0.000255
0.000266
0.000292
0.000407
0.000462
0.000311
0.000207
0.000246
0.000261
0.001394
0.000697
0.000483
0.000318
0.000276
0.000224
0.000259
0.000270
0.000247
0.000265
0.000263
0.001620
0.000280
0.000213
0.000055
0.000197
0.000250
0.000224
0.000248
0.000251
0.000244
0.000237
0.000252
0.000270
0.000256
0.000402
0.000412
0.000260
0.000226
0.000244
0.000243
0.000276
0.000250
0.001560
0.000647
0.000444
0.000328
0.000235
0.000259
0.000259
0.000255
0.000266
0.000285
0.000273
0.001462
0.000209
0.000056
0.000208
0.000217
0.000233
0.000258
0.000253
0.000243
0.000262
0.000299
0.000357
0.000452
0.000412
0.000353
0.000343
0.000220
0.000261
0.000232
0.000281
0.000257
0.000267
0.001962
0.000285
0.000238
0.000436
0.000256
0.000258
0.000250
0.000275
0.000254
0.000268
0.000280
0.000283
0.000055
0.000284
0.000240
0.000228
0.000242
0.000260
0.000248
0.000221
0.000244
0.000262
0.000253
0.000247
0.000246
0.000289
0.000460
0.000514
0.000375
0.000220
0.000260
0.000254
0.000259
0.000255
0.000279
0.001502
0.001025
0.000219
0.000248
0.000267
0.000264
0.000272
0.000252
0.000203
0.000055
0.000226
0.001331
0.000295
0.000207
0.000238
0.000253
0.000251
0.000236
0.000242
0.000252
0.000257
0.000262
0.000241
0.000387
0.000416
0.000467
0.000221
0.000235
0.000268
0.000270
0.000272
0.000241
0.000243
0.000266
0.001347
0.000657
0.000306
0.000379
0.000381
0.000416
0.000280
0.000056
0.000197
0.000236
0.000352
0.001329
0.000213
0.000260
0.000224
0.000253
0.000262
0.000255
0.000249
0.000255
0.000285
0.000352
0.000549
0.000294
0.000231
0.000281
0.000325
0.000213
0.000254
0.000269
0.000251
0.000255
0.000269
0.001530
0.000745
0.000305
0.000276
0.000271
0.000189
0.000056
0.000185
0.000275
0.000444
0.000416
0.001214
0.000252
0.000221
0.000240
0.000236
0.000247
0.000245
0.000257
0.000232
0.000239
0.000261
0.000249
0.000273
0.000231
0.000260
0.000251
0.000268
0.000266
0.000319
0.000313
0.000223
0.000267
0.000260
0.001465
0.000257
0.000251
0.000164
0.000054
0.000206
0.000232
0.000252
0.000261
0.000354
0.000377
0.000392
0.000272
0.001573
0.000259
0.000262
0.000537
0.000313
0.000246
0.000428
0.000239
0.000242
0.000260
0.000272
0.000270
0.000278
0.000267
0.000255
0.000266
0.000273
0.000418
0.000424
0.000291
0.001568
0.000225
0.000193
0.000056
0.000170
0.000245
0.000272
0.000223
0.000240
0.000247
0.000260
0.000276
0.000437
0.002044
0.000235
0.000240
0.000257
0.000255
0.000261
0.000252
0.000276
0.000255
0.000259
0.000425
0.000433
0.000397
0.001452
0.000250
0.000526
0.000234
0.001769
0.000242
0.000260
0.001521
0.000161
0.000055
0.000330
0.000440
0.000447
0.000246
0.000264
0.000239
0.000246
0.000267
0.000265
0.000222
0.000256
0.000332
0.000431
0.000398
0.000417
0.000192
0.000234
0.001560
0.000239
0.000570
0.001884
0.000294
0.000238
0.001552
0.002012
0.000736
0.000281
0.000255
0.000275
0.000535
0.000222
0.000055
0.000230
0.000269
0.000220
0.000252
0.001409
0.001734
0.001085
0.000199
0.000256
0.001559
0.001990
0.000202
0.000242
0.000425
0.000303
0.000395
0.000343
0.000520
0.000212
0.000237
0.000250
0.000261
0.000265
0.001590
0.001203
0.001437
0.000271
0.000303
0.000251
0.000302
0.000347
0.000055
0.000205
0.000246
0.000235
0.000241
0.000233
0.000256
0.000234
0.000247
0.000259
0.000250
0.000245
0.000313
0.000448
0.000468
0.000276
0.000250
0.000249
0.000273
0.000270
0.000264
0.000251
0.000262
0.001594
0.000395
0.002112
0.000234
0.000268
0.000395
0.000361
0.000396
0.000198
0.000055
0.000231
0.000312
0.000493
0.000324
0.000193
0.000233
0.000250
0.000239
0.000241
0.000248
0.000246
0.000270
0.000258
0.001600
0.001353
0.001233
0.000269
0.000249
0.000241
0.000270
0.000283
0.000275
0.000246
0.000251
0.002203
0.000246
0.000259
0.000292
0.000321
0.000303
0.000225
0.000056
0.000194
0.000436
0.000523
0.000279
0.000231
0.000232
0.000247
0.000265
0.001890
0.001435
0.000214
0.000338
0.000380
0.000410
0.000264
0.000226
0.000255
0.000270
0.000258
0.000264
0.000264
0.000280
0.000451
0.000236
0.000271
0.000273
0.000248
0.000274
0.000281
0.000250
0.000207
0.000055
0.000203
0.000247
0.000253
0.000239
0.000268
0.000256
0.001544
0.001413
0.001333
0.000242
0.000226
0.000244
0.000265
0.000263
0.000244
0.000255
0.000249
0.002103
0.000258
0.000233
0.000264
0.000257
0.000250
0.000273
0.000268
0.000257
0.000269
0.000258
0.000276
0.000250
0.000182
0.000056
0.000182
0.002684
0.001399
0.000212
0.000303
0.000301
0.000233
0.000261
0.000257
0.000247
0.000249
0.000250
0.000230
0.000254
0.000268
0.000252
0.000275
0.000261
0.000273
0.000248
0.000275
0.000279
0.000275
0.000261
0.000249
0.000243
0.000263
0.000279
0.000262
0.000266
0.000380
0.000055
0.001537
0.000254
0.001247
0.000225
0.000220
0.000263
0.000239
0.000254
0.000246
0.000297
0.000391
0.000394
0.000280
0.000214
0.000254
0.002149
0.000235
0.000249
0.000281
0.000496
0.000422
0.000246
0.000226
0.000261
0.000267
0.000245
0.000280
0.000265
0.000269
0.001638
0.001234
0.000056
0.000197
0.000235
0.000321
0.000404
0.000335
0.000268
0.000213
0.000235
0.000249
0.000260
0.000268
0.000245
0.000233
0.000247
0.000264
0.000245
0.000370
0.000676
0.000307
0.000196
0.000216
0.000272
0.000287
0.000252
0.000249
0.000265
0.000248
0.000275
0.000240
0.000451
0.000254
0.000055
0.001128
0.000258
0.000317
0.000462
0.000277
0.000234
0.000236
0.000225
0.000252
0.002307
0.000413
0.000335
0.000219
0.000381
0.000277
0.000265
0.000257
0.000260
0.000270
0.000240
0.000242
0.000306
0.000549
0.000462
0.001871
0.001384
0.000515
0.000486
0.000219
0.000285
0.000196
0.000056
0.000317
0.000269
0.000242
0.000242
0.000245
0.000229
0.000256
0.000255
0.000252
0.000253
0.000253
0.000252
0.000221
0.000260
0.000442
0.000438
0.001851
0.001346
0.000448
0.000412
0.000466
0.000239
0.000239
0.000265
0.002159
0.000533
0.000379
0.000235
0.000275
0.000281
0.000195
0.000056
0.000207
0.000244
0.000256
0.000240
0.000245
0.000373
0.000387
0.000333
0.000273
0.000248
0.000241
0.000248
0.000260
0.002151
0.000343
0.000375
0.000217
0.000253
0.000259
0.000261
0.002276
0.000415
0.000351
0.000227
0.000254
0.000257
0.000253
0.000275
0.000278
0.000282
0.000197
0.000056
0.000231
0.000319
0.000535
0.000375
0.000265
0.000216
0.000238
0.000253
0.000264
0.000257
0.001943
0.000395
0.000263
0.000282
0.000240
0.000268
0.000270
0.000240
0.002205
0.000449
0.000222
0.000270
0.000268
0.000256
0.000257
0.000251
0.000282
0.000252
0.000267
0.000256
0.000186
0.000055
0.000212
0.000242
0.000246
0.000220
0.000249
0.000258
0.000235
0.000249
0.000228
0.002184
0.000278
0.000223
0.000228
0.000423
0.000233
0.000254
0.000275
0.000286
0.000243
0.000264
0.001970
0.000265
0.000340
0.000366
0.000435
0.000399
0.000322
0.000248
0.000263
0.000249
0.000191
0.000054
0.000210
0.000230
0.000244
0.000246
0.000252
0.000321
0.000234
0.002289
0.000247
0.000233
0.000263
0.000256
0.000237
0.000251
0.000309
0.002119
0.000594
0.000228
0.000248
0.000242
0.000261
0.000259
0.000289
0.000267
0.000263
0.000251
0.000303
0.000238
0.000261
0.000272
0.000191
0.000055
0.001828
0.001446
0.000194
0.000230
0.000245
0.000250
0.000249
0.000272
0.000450
0.000284
0.002195
0.000263
0.000225
0.000269
0.000339
0.000464
0.000383
0.000298
0.000230
0.000249
0.000247
0.000268
0.000261
0.000228
0.000265
0.000257
0.000272
0.000272
0.000282
0.000679
0.000336
0.000055
0.000198
0.000237
0.000263
0.000247
0.000258
0.000250
0.000261
0.000236
0.001532
0.002077
0.000578
0.000276
0.000394
0.000711
0.000339
0.000237
0.000256
0.000265
0.000253
0.000257
0.000254
0.000245
0.000257
0.001824
0.000333
0.001393
0.000280
0.000288
0.000272
0.000328
0.000360
0.000056
0.001942
0.000218
0.000226
0.000235
0.000296
0.000372
0.000420
0.000361
0.000240
0.000213
0.000251
0.000249
0.000257
0.000253
0.000268
0.000257
0.000255
0.000263
0.001842
0.000244
0.000230
0.000260
0.000267
0.000280
0.000272
0.000268
0.001492
0.000289
0.000266
0.000246
0.000163
0.000072
0.000181
0.000232
0.000265
0.000221
0.000252
0.000247
0.000285
0.000409
0.000321
0.000364
0.000223
0.000243
0.000260
0.000327
0.000428
0.000312
0.000226
0.000254
0.000258
0.000344
0.000525
0.000407
0.000255
0.000249
0.000263
0.000256
0.000254
0.000270
0.000275
0.000266
0.000201
0.000055
0.001428
0.000453
0.000205
0.001937
0.000260
0.000528
0.000480
0.000182
0.000226
0.000248
0.000265
0.000244
0.000253
0.000241
0.000265
0.000259
0.000454
0.000273
0.000381
0.000488
0.000277
0.000228
0.000255
0.000271
0.000275
0.000269
0.000262
0.000265
0.000385
0.000528
0.001276
0.000056
0.000206
0.000225
0.002073
0.000369
0.000243
0.000262
0.000272
0.000233
0.000261
0.000259
0.000229
0.000239
0.000271
0.000247
0.000259
0.000357
0.000714
0.001756
0.000233
0.000249
0.000259
0.000261
0.000399
0.000390
0.001601
0.000284
0.000361
0.001928
0.000269
0.000244
0.000199
0.000055
0.000208
0.000240
0.000226
0.000246
0.000231
0.000248
0.000260
0.000282
0.000325
0.000271
0.000378
0.000361
0.000337
0.000307
0.000251
0.000256
0.000261
0.000235
0.000274
0.000246
0.000302
0.000291
0.000265
0.000257
0.000270
0.001497
0.000297
0.000387
0.002077
0.000225
0.000179
0.000055
0.000232
0.000238
0.000234
0.000254
0.000479
0.000209
0.000252
0.000329
0.000345
0.000337
0.000313
0.000207
0.000264
0.000264
0.000270
0.000321
0.000396
0.000463
0.000249
0.000407
0.000599
0.000399
0.001547
0.000238
0.000255
0.001973
0.000338
0.000243
0.000248
0.000298
0.000186
0.000054
0.000212
0.000238
0.000225
0.000244
0.000252
0.000265
0.000257
0.000268
0.000258
0.000264
0.001793
0.000335
0.000376
0.000318
0.000423
0.000366
0.000338
0.001521
0.000240
0.000273
0.002143
0.000561
0.000241
0.000247
0.000258
0.000264
0.000505
0.000224
0.000248
0.000286
0.000198
0.000055
0.000327
0.000348
0.000397
0.000228
0.000207
0.000241
0.000262
0.000249
0.000269
0.000296
0.000235
0.000239
0.000268
0.000245
0.000409
0.001445
0.000320
0.000207
0.000290
0.001903
0.000418
0.000233
0.000250
0.000264
0.000246
0.000280
0.000268
0.000263
0.000249
0.000268
0.000205
0.000054
0.000190
0.000408
0.002039
0.000256
0.000252
0.000234
0.000271
0.000342
0.000397
0.000401
0.001304
0.000374
0.002134
0.000317
0.000194
0.000243
0.000274
0.000274
0.000254
0.000251
0.000273
0.000291
0.000254
0.000337
0.000564
0.000313
0.000321
0.002222
0.000488
0.000520
0.000358
0.000056
0.000214
0.000238
0.000241
0.001966
0.000228
0.000224
0.000246
0.000242
0.000244
0.000256
0.000246
0.000261
0.000245
0.000271
0.000419
0.001510
0.000240
0.000250
0.000266
0.000259
0.000229
0.000259
0.000271
0.000255
0.000305
0.000516
0.000439
0.000234
0.001591
0.000286
0.000159
0.000056
0.000196
0.000229
0.000244
0.000228
0.000258
0.000249
0.000251
0.000248
0.000255
0.000370
0.000356
0.001430
0.000241
0.000219
0.000250
0.000260
0.000257
0.000253
0.000493
0.000297
0.000592
0.000243
0.000228
0.001573
0.000231
0.000264
0.000294
0.000275
0.000265
0.000265
0.000194
0.000056
0.000215
0.000228
0.000266
0.000269
0.000251
0.000241
0.000239
0.000237
0.000261
0.000239
0.000255
0.000269
0.000239
0.001484
0.000366
0.000209
0.000249
0.000267
0.000269
0.000311
0.000380
0.000271
0.000248
0.000260
0.000259
0.000270
0.000256
0.001410
0.000278
0.000230
0.000174
0.000056
0.000214
0.000218
0.000259
0.000261
0.000254
0.000238
0.000244
0.000264
0.000219
0.000263
0.000245
0.000257
0.000225
0.000305
0.000363
0.000395
0.000245
0.000233
0.001623
0.000248
0.000235
0.000266
0.000264
0.000291
0.000388
0.000373
0.000453
0.000261
0.000257
0.001602
0.000169
0.000055
0.000314
0.000374
0.000358
0.000297
0.000221
0.000218
0.000246
0.000272
0.000254
0.000238
0.000252
0.000236
0.001483
0.000273
0.000306
0.000220
0.000246
0.000263
0.000264
0.000266
0.000253
0.000234
0.000267
0.000265
0.000314
0.000365
0.000451
0.000358
0.000227
0.000256
0.000187
0.000055
0.000224
0.000232
0.000389
0.000422
0.000368
0.000255
0.000246
0.000255
0.000250
0.000257
0.000242
0.000224
0.000255
0.000247
0.001258
0.000301
0.000232
0.000251
0.000269
0.000268
0.000236
0.000269
0.000250
0.000260
0.000257
0.000255
0.000330
0.000679
0.000443
0.000231
0.000182
0.000054
0.000198
0.001565
0.000242
0.000342
0.000441
0.000393
0.000213
0.000263
0.000259
0.000261
0.000235
0.000261
0.000268
0.000268
0.000261
0.001550
0.000228
0.000284
0.000262
0.000251
0.000264
0.000253
0.000270
0.000259
0.000258
0.000322
0.000402
0.000320
0.000374
0.000245
0.000194
0.000056
0.000209
0.000249
0.000237
0.001713
0.000341
0.000325
0.000223
0.000247
0.000246
0.000274
0.000281
0.000262
0.000235
0.000267
0.000232
0.000325
0.000440
0.001230
0.000245
0.000237
0.001496
0.000459
0.000437
0.000381
0.000342
0.000238
0.000283
0.000442
0.000232
0.000262
0.000184
0.000055
0.000285
0.000228
0.000251
0.000242
0.000255
0.000244
0.000237
0.000259
0.000259
0.000235
0.000258
0.000263
0.000341
0.000569
0.001562
0.001508
0.000336
0.000587
0.000295
0.000220
0.000232
0.000257
0.000266
0.000254
0.000243
0.000279
0.000249
0.000266
0.001520
0.000336
0.000168
0.000056
0.000213
0.000352
0.000351
0.000332
0.000246
0.000214
0.000249
0.000380
0.000399
0.000388
0.002145
0.000327
0.000831
0.000373
0.000461
0.000260
0.000335
0.000410
0.000311
0.000280
0.000399
0.000240
0.001552
0.000531
0.000218
0.000260
0.000270
0.000244
0.000273
0.000262
0.000194
0.000056
0.000205
0.000259
0.000253
0.000252
0.000240
0.001665
0.000865
0.001004
0.000210
0.000235
0.000262
0.000254
0.000264
0.000259
0.000253
0.000252
0.000250
0.000267
0.000265
0.000279
0.001417
0.000324
0.000256
0.000234
0.000235
0.000256
0.000258
0.000286
0.000266
0.000286
0.001885
0.000056
0.000205
0.000217
0.001568
0.000824
0.000474
0.000270
0.000238
0.000235
0.000248
0.000268
0.000253
0.000238
0.000241
0.002018
0.000446
0.000221
0.000240
0.000256
0.000264
0.000259
0.000188
