0.000468
0.015965
0.005367
0.000340
0.000267
0.000283
0.000307
0.000243
0.000338
0.000281
0.000248
0.000381
0.000591
0.000349
0.000446
0.000299
0.000290
0.000352
0.000348
0.000408
0.000317
0.001906
0.000707
0.000250
0.000255
0.000310
0.000296
0.000336
0.000480
0.000360
0.000534
0.000222
0.000057
0.000214
0.000269
0.000269
0.000261
0.000271
0.000251
0.000282
0.000264
0.000267
0.000280
0.000445
0.000436
0.000316
0.000260
0.000412
0.000299
0.000365
0.000258
0.000243
0.001711
0.000307
0.000262
0.000446
0.000246
0.000277
0.000269
0.000290
0.000298
0.000283
0.000317
0.000458
0.000057
0.000239
0.000255
0.000264
0.000258
0.000256
0.000244
0.000257
0.000260
0.000285
0.001676
0.000218
0.000236
0.000276
0.000265
0.000277
0.000251
0.000263
0.000255
0.000357
0.001802
0.000235
0.000278
0.000443
0.000492
0.000336
0.000238
0.000241
0.000465
0.000587
0.000693
0.000185
0.000058
0.000223
0.000242
0.000253
0.000240
0.000341
0.000211
0.000295
0.000584
0.000377
0.000255
0.000245
0.000243
0.000245
0.000251
0.000259
0.000257
0.000241
0.000270
0.000298
0.000324
0.001677
0.000268
0.000259
0.000420
0.000259
0.000734
0.000666
0.000630
0.000246
0.000229
0.000189
0.000059
0.000216
0.000251
0.000263
0.000238
0.000262
0.000251
0.000250
0.000458
0.001488
0.000217
0.000247
0.000246
0.000253
0.000257
0.000265
0.000284
0.000311
0.000755
0.001406
0.000272
0.000462
0.000261
0.000229
0.000215
0.000256
0.000269
0.000253
0.000281
0.000253
0.000271
0.000193
0.000058
0.000198
0.000250
0.000240
0.000267
0.000235
0.000246
0.000242
0.000253
0.000236
0.000254
0.001639
0.000267
0.000231
0.000233
0.000252
0.000254
0.000250
0.000239
0.000255
0.000259
0.000267
0.001676
0.000285
0.000243
0.000442
0.000252
0.000243
0.000270
0.000264
0.000270
0.000196
0.000056
0.000187
0.000225
0.000248
0.000252
0.000243
0.000245
0.000267
0.000232
0.000263
0.000246
0.000261
0.000260
0.000258
0.000272
0.001640
0.000276
0.000292
0.000211
0.000255
0.000274
0.000264
0.000247
0.000239
0.000269
0.001793
0.000399
0.000332
0.000357
0.000238
0.000285
0.000200
0.000056
0.000197
0.000243
0.000240
0.000269
0.000257
0.000243
0.000272
0.000465
0.000347
0.000442
0.000206
0.000308
0.000194
0.000250
0.001571
0.000528
0.000289
0.000429
0.000317
0.000229
0.000274
0.000280
0.000277
0.001753
0.000498
0.000459
0.000251
0.000249
0.000247
0.000260
0.000181
0.000056
0.000207
0.000225
0.000259
0.000324
0.000287
0.000419
0.000390
0.000273
0.000226
0.000240
0.000266
0.000235
0.000258
0.001707
0.000487
0.000280
0.000227
0.000264
0.000271
0.000279
0.000251
0.000256
0.000274
0.001931
0.000274
0.000379
0.000257
0.000248
0.000265
0.000417
0.000330
0.000055
0.000204
0.000411
0.000298
0.000324
0.000245
0.000237
0.000250
0.000262
0.000241
0.000232
0.000237
0.000251
0.001553
0.000384
0.000276
0.000224
0.000263
0.000256
0.000237
0.000288
0.000277
0.000330
0.000246
0.001813
0.000254
0.000498
0.000232
0.000262
0.000260
0.000277
0.000246
0.000057
0.000307
0.000589
0.000575
0.000228
0.000219
0.000281
0.000229
0.000219
0.000258
0.000257
0.000255
0.001700
0.000249
0.000445
0.000366
0.000217
0.000239
0.000232
0.000248
0.000269
0.000256
0.001859
0.000231
0.000241
0.002078
0.000521
0.000359
0.000248
0.000254
0.000265
0.000183
0.000056
0.000203
0.000243
0.000243
0.000245
0.000255
0.001627
0.000248
0.000229
0.000254
0.000256
0.000247
0.000249
0.000237
0.000258
0.000265
0.000777
0.000265
0.000264
0.000254
0.000250
0.000261
0.000251
0.000247
0.000431
0.000435
0.000279
0.000335
0.000755
0.000244
0.000256
0.000212
0.000057
0.000213
0.000237
0.000256
0.000251
0.000234
0.000239
0.000239
0.000418
0.000397
0.001738
0.000215
0.000237
0.000240
0.000250
0.000258
0.000264
0.000443
0.000486
0.000367
0.000216
0.000261
0.000333
0.000247
0.000260
0.000268
0.000439
0.000346
0.000535
0.000544
0.000430
0.000172
0.000057
0.000195
0.000265
0.000232
0.000225
0.000236
0.000242
0.000248
0.000241
0.000246
0.000302
0.000341
0.000458
0.001367
0.000234
0.000231
0.000272
0.000242
0.000249
0.000247
0.000272
0.000254
0.000488
0.000376
0.000273
0.000254
0.000278
0.000241
0.000277
0.000255
0.000274
0.000383
0.000057
0.000204
0.000234
0.000237
0.000271
0.000543
0.000423
0.000231
0.000257
0.000241
0.000254
0.000244
0.000242
0.000297
0.000248
0.000237
0.000523
0.000420
0.001610
0.000287
0.000216
0.000259
0.000266
0.000256
0.000242
0.000251
0.000520
0.000383
0.000374
0.000420
0.000241
0.000181
0.000058
0.000230
0.000437
0.000238
0.000209
0.000264
0.000244
0.000252
0.000606
0.000328
0.000328
0.000232
0.000256
0.000272
0.000237
0.000519
0.000350
0.000221
0.000263
0.000473
0.001564
0.000261
0.000240
0.000527
0.000235
0.000281
0.000274
0.000259
0.000384
0.000541
0.000425
0.000197
0.000058
0.000204
0.000240
0.000238
0.000241
0.000419
0.000304
0.000297
0.000219
0.000453
0.000466
0.000329
0.000275
0.000221
0.000251
0.000247
0.000267
0.000257
0.000251
0.000239
0.000339
0.000291
0.000349
0.001838
0.000229
0.000259
0.000252
0.000296
0.000351
0.000413
0.000698
0.000427
0.000056
0.000270
0.000311
0.000284
0.000424
0.000392
0.000211
0.000244
0.000315
0.000547
0.000354
0.000264
0.000236
0.000246
0.000268
0.000265
0.000229
0.000255
0.000272
0.000269
0.000260
0.000264
0.000406
0.000695
0.001306
0.000334
0.000464
0.000391
0.000248
0.000392
0.000439
0.000362
0.000057
0.000243
0.000401
0.000254
0.000199
0.000223
0.000248
0.000417
0.000237
0.000224
0.000376
0.000436
0.000438
0.000242
0.000257
0.000264
0.000253
0.000376
0.000386
0.000344
0.000232
0.000244
0.000471
0.000562
0.001670
0.000221
0.000455
0.000294
0.000232
0.000237
0.000519
0.000278
0.000057
0.000184
0.000236
0.000243
0.000248
0.000245
0.000245
0.000252
0.000327
0.000457
0.000237
0.000478
0.000385
0.000280
0.000575
0.000245
0.000245
0.000271
0.000265
0.000233
0.000351
0.000220
0.000244
0.000279
0.000393
0.000481
0.001680
0.000260
0.000244
0.000246
0.000273
0.000185
0.000056
0.000288
0.000497
0.000333
0.000206
0.000258
0.000238
0.000291
0.000206
0.000263
0.000243
0.000230
0.000244
0.000416
0.000524
0.000423
0.000252
0.000259
0.000246
0.000355
0.000385
0.000381
0.000335
0.000419
0.000359
0.000221
0.000243
0.000269
0.000278
0.001782
0.000254
0.000207
0.000056
0.000203
0.000215
0.000259
0.000273
0.000374
0.000541
0.000308
0.000213
0.000258
0.000273
0.000238
0.000245
0.000522
0.000451
0.000478
0.000290
0.000258
0.000268
0.000422
0.000463
0.000407
0.000349
0.000486
0.000441
0.000249
0.000231
0.000284
0.000233
0.000265
0.001716
0.000325
0.000056
0.000232
0.000328
0.000211
0.000236
0.000254
0.000249
0.000246
0.000505
0.000367
0.000309
0.000292
0.000285
0.000380
0.000660
0.000282
0.000226
0.000255
0.000255
0.000253
0.000262
0.000265
0.000269
0.000246
0.000264
0.000328
0.000358
0.000384
0.000356
0.000245
0.000258
0.000195
0.000056
0.000429
0.000297
0.000467
0.000262
0.000203
0.000245
0.000248
0.000252
0.000241
0.000218
0.000251
0.000278
0.000295
0.000399
0.000539
0.000476
0.000264
0.000333
0.000377
0.000333
0.000290
0.000243
0.000251
0.000253
0.001756
0.000251
0.001724
0.000939
0.000444
0.000275
0.000179
0.000057
0.000215
0.000229
0.000242
0.000231
0.000264
0.000246
0.000257
0.000256
0.000237
0.000325
0.000346
0.000459
0.000328
0.000371
0.000261
0.000252
0.000248
0.000285
0.000227
0.000247
0.000261
0.000255
0.001823
0.000227
0.000255
0.000269
0.000276
0.000262
0.001937
0.000520
0.000202
0.000057
0.000207
0.000211
0.000241
0.000238
0.000253
0.000246
0.000244
0.000255
0.000257
0.000380
0.000573
0.000479
0.000240
0.000204
0.000231
0.000257
0.000331
0.000450
0.000383
0.000234
0.001772
0.000247
0.000238
0.000258
0.000255
0.000277
0.000238
0.000252
0.000336
0.000318
0.000367
0.000058
0.000253
0.000224
0.000228
0.000259
0.000244
0.000246
0.000256
0.000258
0.000234
0.000261
0.000240
0.000298
0.000351
0.000365
0.000405
0.000255
0.000459
0.000228
0.000245
0.000260
0.000257
0.000260
0.000281
0.000252
0.000280
0.001802
0.000226
0.000249
0.000267
0.000245
0.000193
0.000058
0.000391
0.000270
0.000196
0.000220
0.000239
0.000233
0.000241
0.000258
0.000243
0.000226
0.000234
0.000260
0.000258
0.000383
0.000389
0.000334
0.000307
0.000248
0.000253
0.000245
0.000260
0.000261
0.000250
0.000277
0.000250
0.000258
0.000315
0.001641
0.000263
0.000235
0.000177
0.000055
0.000213
0.000223
0.000257
0.000256
0.000349
0.000379
0.000357
0.000327
0.000228
0.000257
0.000252
0.000239
0.000245
0.000257
0.000268
0.000250
0.000249
0.000255
0.000260
0.000257
0.000285
0.000247
0.000251
0.000236
0.000237
0.000282
0.000276
0.000259
0.000259
0.000271
0.000180
0.000056
0.000215
0.000235
0.000257
0.000261
0.000251
0.000233
0.000247
0.000259
0.000282
0.000237
0.000229
0.000251
0.000250
0.000251
0.000273
0.000258
0.000253
0.000256
0.000290
0.000251
0.000279
0.000293
0.000277
0.000239
0.000283
0.000272
0.000273
0.000243
0.000271
0.000437
0.000582
0.000056
0.000229
0.000288
0.000213
0.000228
0.000238
0.000250
0.000240
0.000252
0.000249
0.000246
0.000258
0.000319
0.000474
0.000469
0.001546
0.000230
0.000486
0.000238
0.000289
0.000398
0.000457
0.000379
0.000239
0.000266
0.000252
0.000261
0.000277
0.000256
0.000309
0.000256
0.000185
0.000057
0.000366
0.000448
0.000289
0.000324
0.000240
0.000233
0.000246
0.000248
0.000241
0.000243
0.000251
0.000256
0.000228
0.000276
0.000334
0.000552
0.000349
0.001811
0.000223
0.000256
0.000363
0.000408
0.000458
0.000277
0.000310
0.000340
0.000290
0.000221
0.000235
0.000249
0.000190
0.000056
0.000221
0.000226
0.000239
0.000277
0.000367
0.000539
0.000247
0.000256
0.000256
0.000219
0.000240
0.000271
0.000267
0.000261
0.000246
0.000257
0.000371
0.000459
0.000368
0.000381
0.000226
0.001757
0.000332
0.000484
0.000468
0.000500
0.000323
0.000234
0.000255
0.000271
0.000438
0.000058
0.000205
0.000298
0.000196
0.000244
0.000457
0.000565
0.000275
0.000216
0.000240
0.000311
0.000225
0.000263
0.000249
0.000299
0.000309
0.000233
0.000226
0.000432
0.000445
0.000333
0.000482
0.001858
0.000241
0.000404
0.000539
0.000372
0.000223
0.000249
0.000297
0.000253
0.000204
0.000058
0.000225
0.000335
0.000358
0.000333
0.000400
0.000280
0.000379
0.000209
0.000233
0.000281
0.000282
0.000204
0.000242
0.000253
0.000245
0.000261
0.000324
0.000354
0.000525
0.000377
0.000288
0.000228
0.000268
0.001728
0.000485
0.000549
0.000572
0.000241
0.000253
0.000310
0.000159
0.000057
0.000190
0.000236
0.000324
0.000253
0.000266
0.000341
0.000464
0.000297
0.000227
0.000536
0.000226
0.000251
0.000263
0.000276
0.000271
0.000269
0.000216
0.000338
0.000445
0.000467
0.000264
0.000230
0.000257
0.000256
0.000262
0.000260
0.000244
0.000258
0.000259
0.000290
0.000197
0.000056
0.000270
0.000357
0.000214
0.000250
0.000250
0.000255
0.000248
0.000286
0.000257
0.000225
0.000257
0.000351
0.000425
0.000466
0.000288
0.000280
0.000224
0.000227
0.000254
0.000266
0.000290
0.000254
0.000237
0.000263
0.000280
0.000339
0.000362
0.000477
0.000274
0.000238
0.000184
0.000056
0.000219
0.000209
0.000282
0.000244
0.000256
0.000232
0.000260
0.000263
0.000483
0.000214
0.000260
0.000246
0.000250
0.000264
0.000277
0.000275
0.000256
0.000352
0.000227
0.000241
0.000249
0.000276
0.000311
0.000207
0.000274
0.000262
0.000261
0.000262
0.000512
0.000250
0.000142
0.000056
0.000207
0.000241
0.000247
0.000270
0.000219
0.000245
0.000362
0.000413
0.000233
0.000241
0.000245
0.000256
0.000238
0.000261
0.000359
0.001879
0.000223
0.000264
0.000283
0.000393
0.000365
0.000355
0.000356
0.000426
0.000346
0.000428
0.000236
0.000266
0.000272
0.000274
0.001394
0.000056
0.000409
0.000280
0.000284
0.000219
0.000226
0.000256
0.000231
0.000253
0.000245
0.000271
0.000245
0.000258
0.000250
0.000248
0.000640
0.001584
0.000237
0.000230
0.000241
0.000268
0.000236
0.000258
0.000406
0.000370
0.000270
0.000363
0.000221
0.000264
0.000277
0.000256
0.000186
0.000056
0.001202
0.000628
0.000253
0.000246
0.000250
0.000211
0.000229
0.000235
0.000489
0.000230
0.000233
0.000255
0.000335
0.000514
0.000413
0.000356
0.000241
0.000225
0.000352
0.000337
0.000268
0.000258
0.000273
0.000247
0.000273
0.000636
0.000493
0.000282
0.000238
0.000258
0.000170
0.000057
0.000239
0.000198
0.000241
0.000242
0.001581
0.000199
0.000215
0.000257
0.000229
0.000252
0.000252
0.000255
0.000241
0.000270
0.000262
0.000262
0.000458
0.000688
0.000237
0.001751
0.000261
0.000268
0.000304
0.000405
0.000648
0.000326
0.000243
0.000260
0.000252
0.000267
0.000195
0.000057
0.000256
0.000208
0.000237
0.000351
0.001226
0.000228
0.000256
0.000265
0.000237
0.000232
0.000237
0.000251
0.000278
0.000253
0.000250
0.000273
0.000609
0.000320
0.000295
0.000256
0.000264
0.000279
0.000249
0.000236
0.000290
0.000256
0.000247
0.000276
0.000268
0.000296
0.000628
0.000056
0.000220
0.000243
0.000268
0.000236
0.000259
0.000248
0.000240
0.000253
0.000268
0.000257
0.001444
0.000224
0.000230
0.000262
0.000231
0.000245
0.000269
0.000262
0.000268
0.000258
0.000271
0.000554
0.000359
0.000432
0.000222
0.000274
0.001776
0.000260
0.000237
0.000300
0.000450
0.000056
0.000198
0.000414
0.000434
0.000500
0.000516
0.000599
0.001436
0.000411
0.000526
0.000654
0.000550
0.000767
0.000439
0.000620
0.000577
0.001888
0.000390
0.000452
0.000397
0.000314
0.000230
0.000308
0.000248
0.000261
0.000251
0.000304
0.000288
0.000288
0.000257
0.000285
0.001374
0.000055
0.000205
0.000224
0.000241
0.000234
0.000261
0.000258
0.000234
0.000241
0.000254
0.000252
0.000230
0.000249
0.000247
0.000258
0.000268
0.000267
0.001821
0.000272
0.000246
0.000243
0.000261
0.000265
0.000284
0.000286
0.000532
0.000261
0.000365
0.000223
0.000261
0.000285
0.000198
0.000057
0.000202
0.001359
0.000331
0.000266
0.000260
0.000239
0.000244
0.000232
0.000242
0.000231
0.000217
0.000245
0.000256
0.000500
0.000360
0.000284
0.000264
0.000266
0.001926
0.000221
0.000244
0.000261
0.000263
0.000265
0.000276
0.000276
0.000270
0.000263
0.000259
0.000322
0.000202
0.000057
0.000217
0.000240
0.000244
0.001454
0.000205
0.000252
0.000267
0.000231
0.000233
0.000271
0.000249
0.000250
0.000242
0.000256
0.000252
0.000279
0.000249
0.000271
0.000264
0.000255
0.000263
0.001775
0.000282
0.001742
0.000274
0.000246
0.000264
0.000264
0.000270
0.000275
0.000202
0.000056
0.000195
0.000250
0.001347
0.000228
0.000252
0.000255
0.000245
0.000253
0.000245
0.000244
0.000255
0.000249
0.000255
0.000262
0.000257
0.000264
0.000265
0.000294
0.000284
0.000232
0.001891
0.000230
0.001825
0.000239
0.000265
0.000272
0.000234
0.000243
0.000253
0.000270
0.000194
0.000056
0.001456
0.000218
0.000231
0.000258
0.000224
0.000237
0.000368
0.000273
0.000247
0.000260
0.000248
0.000262
0.000284
0.000351
0.000362
0.000299
0.000243
0.000283
0.000233
0.000256
0.000270
0.000338
0.000234
0.000247
0.000270
0.000273
0.000272
0.000350
0.000680
0.000310
0.000202
0.000057
0.000208
0.000252
0.000261
0.000300
0.000364
0.000262
0.001702
0.000296
0.000276
0.000273
0.000245
0.000277
0.000287
0.000238
0.000308
0.000311
0.000377
0.000577
0.000322
0.000280
0.000312
0.000252
0.000264
0.000270
0.000329
0.000295
0.000233
0.000233
0.000265
0.000315
0.000400
0.000057
0.000251
0.000491
0.000249
0.000265
0.000248
0.000231
0.000220
0.000249
0.000254
0.000258
0.001520
0.000227
0.000240
0.000234
0.000246
0.000288
0.000315
0.000201
0.000260
0.000262
0.000266
0.000333
0.000540
0.000358
0.000262
0.000287
0.000272
0.000255
0.000232
0.000317
0.000171
0.000058
0.000193
0.000231
0.000311
0.000440
0.000399
0.000250
0.000210
0.000256
0.000249
0.000249
0.000235
0.000256
0.000257
0.000264
0.000245
0.000224
0.000398
0.001230
0.000229
0.000248
0.000292
0.000235
0.000360
0.000424
0.000252
0.000265
0.000633
0.000354
0.000374
0.000237
0.000175
0.000056
0.000217
0.000243
0.000262
0.000266
0.000265
0.000236
0.000377
0.000456
0.000349
0.000285
0.000374
0.000389
0.000408
0.000343
0.000244
0.000250
0.000235
0.000258
0.000454
0.001382
0.000294
0.000224
0.000287
0.000259
0.000232
0.000235
0.000268
0.000340
0.000392
0.000437
0.000264
0.000057
0.000211
0.000248
0.000244
0.000243
0.000245
0.000250
0.000232
0.000265
0.000311
0.000386
0.000374
0.000389
0.000261
0.000223
0.000247
0.000259
0.000244
0.000264
0.000265
0.000251
0.000439
0.000287
0.000355
0.000450
0.000272
0.000247
0.000272
0.000276
0.000251
0.000345
0.000153
0.000056
0.000306
0.000313
0.000289
0.000489
0.000331
0.000376
0.000256
0.000238
0.000249
0.000275
0.000251
0.000265
0.000235
0.000253
0.000245
0.000228
0.000271
0.000376
0.000447
0.000385
0.000223
0.000271
0.000237
0.000245
0.000273
0.000277
0.000267
0.000263
0.000278
0.000261
0.000272
0.000056
0.000396
0.000215
0.000231
0.000247
0.000245
0.000250
0.000245
0.000251
0.000267
0.000260
0.000252
0.000235
0.000283
0.000508
0.000434
0.000276
0.000256
0.000237
0.000250
0.000277
0.000250
0.000268
0.000255
0.000263
0.000278
0.000316
0.000392
0.000611
0.000415
0.000248
0.000164
0.000057
0.000376
0.000213
0.000220
0.000249
0.000282
0.000217
0.000239
0.000253
0.000254
0.000263
0.000217
0.000249
0.000271
0.000224
0.000239
0.000271
0.000261
0.000249
0.000279
0.000252
0.000272
0.000255
0.000266
0.000263
0.000264
0.000232
0.000272
0.000276
0.000255
0.000281
0.000196
0.000055
0.000192
0.000241
0.000248
0.000254
0.000232
0.000258
0.000254
0.000241
0.000261
0.000281
0.000221
0.000230
0.000261
0.000403
0.000248
0.000281
0.000260
0.000266
0.000256
0.000280
0.000271
0.000229
0.000251
0.000251
0.000272
0.000271
0.000261
0.000241
0.000275
0.000258
0.000202
0.000055
0.000204
0.000356
0.000368
0.000283
0.000293
0.000249
0.000271
0.000258
0.000225
0.000241
0.000252
0.000269
0.000242
0.000250
0.000250
0.000256
0.000262
0.000277
0.000235
0.000265
0.000274
0.000263
0.000284
0.000254
0.000272
0.000243
0.000261
0.000269
0.000272
0.000259
0.000193
0.000056
0.000228
0.000203
0.000263
0.000265
0.000487
0.000216
0.000207
0.000246
0.000254
0.000463
0.000510
0.000271
0.000240
0.000242
0.000275
0.000265
0.000236
0.000274
0.000255
0.000263
0.000271
0.000258
0.000257
0.000285
0.000462
0.000572
0.000258
0.000302
0.000266
0.000259
0.000188
0.000056
0.000214
0.000216
0.000246
0.000250
0.000419
0.000535
0.000360
0.000350
0.000233
0.000226
0.000252
0.000254
0.000251
0.000248
0.000257
0.000270
0.000254
0.000260
0.000626
0.000399
0.000285
0.000251
0.000256
0.000284
0.000287
0.000252
0.000265
0.000264
0.000247
0.000344
0.000306
0.000056
0.000304
0.000232
0.000240
0.000236
0.000258
0.000254
0.000223
0.000247
0.000247
0.000261
0.000244
0.000252
0.000244
0.000368
0.000594
0.000433
0.000203
0.000266
0.000247
0.000249
0.000267
0.000275
0.000485
0.000232
0.000254
0.000578
0.000471
0.000451
0.000244
0.000259
0.000175
0.000057
0.000205
0.000225
0.000247
0.000242
0.000254
0.000255
0.000410
0.000330
0.000586
0.000425
0.000236
0.000244
0.000281
0.000269
0.000260
0.000246
0.000237
0.000253
0.000252
0.000298
0.000430
0.000661
0.000359
0.000261
0.000362
0.000376
0.000474
0.000252
0.000263
0.000511
0.000274
0.000056
0.000232
0.000234
0.000454
0.000199
0.000229
0.000258
0.000265
0.000261
0.000231
0.000240
0.000258
0.000501
0.000284
0.000346
0.000227
0.000235
0.000263
0.000264
0.000251
0.000271
0.000280
0.000254
0.000248
0.000276
0.000318
0.000469
0.000500
0.000234
0.000252
0.000273
0.000196
0.000056
0.000200
0.000259
0.000227
0.000243
0.000247
0.000279
0.000343
0.000384
0.000476
0.000262
0.000370
0.000220
0.000265
0.000249
0.000253
0.000242
0.000253
0.000259
0.000287
0.000400
0.000494
0.000316
0.000481
0.000282
0.000440
0.000372
0.000378
0.000237
0.000251
0.000296
0.000337
0.000056
0.000265
0.000275
0.000226
0.000251
0.000258
0.000259
0.000253
0.000243
0.000260
0.000260
0.000236
0.000434
0.000377
0.000371
0.000374
0.000219
0.000259
0.000269
0.000268
0.000233
0.000255
0.000245
0.000268
0.000280
0.000280
0.000310
0.000510
0.000478
0.000234
0.000281
0.000179
0.000056
0.000202
0.000249
0.000253
0.000239
0.000260
0.000396
0.000446
0.000467
0.000356
0.000694
0.000272
0.000201
0.000243
0.000268
0.000245
0.000266
0.000275
0.000274
0.000478
0.000457
0.001479
0.000298
0.000260
0.000267
0.000288
0.000276
0.000363
0.000460
0.000398
0.000263
0.000160
0.000058
0.000178
0.000233
0.000244
0.000243
0.000237
0.000258
0.000277
0.000248
0.000252
0.000338
0.000324
0.000388
0.000278
0.000351
0.000409
0.000303
0.000235
0.000251
0.000274
0.000256
0.000241
0.000253
0.000283
0.000239
0.000321
0.000434
0.000434
0.000308
0.000232
0.000273
0.000192
0.000057
0.000211
0.000251
0.000252
0.000254
0.000238
0.000246
0.000467
0.000216
0.000249
0.000234
0.000251
0.000244
0.000259
0.000256
0.000272
0.000244
0.000268
0.000268
0.000269
0.000251
0.000264
0.000289
0.000283
0.000253
0.000265
0.000287
0.000263
0.000266
0.000261
0.000278
0.000164
0.000056
0.000222
0.000238
0.000358
0.000367
0.000369
0.000256
0.000237
0.000248
0.000257
0.000247
0.000251
0.000254
0.000266
0.000263
0.000235
0.000246
0.000244
0.000267
0.000255
0.000404
0.000410
0.000396
0.000221
0.000270
0.000263
0.000252
0.000268
0.000246
0.000275
0.000285
0.000196
0.000056
0.000303
0.000447
0.000363
0.000205
0.000258
0.000252
0.000412
0.000235
0.000225
0.000251
0.000254
0.000341
0.000310
0.000448
0.001857
0.000263
0.000230
0.000249
0.000277
0.000241
0.000393
0.000420
0.000653
0.000234
0.000214
0.000267
0.000277
0.000422
0.000285
0.000280
0.000159
0.000057
0.000170
0.000390
0.000291
0.000336
0.000492
0.000200
0.000250
0.000253
0.000246
0.000236
0.000262
0.000248
0.000261
0.000313
0.000399
0.000501
0.000222
0.000235
0.000260
0.000261
0.000262
0.000322
0.000233
0.000280
0.000279
0.000461
0.000507
0.000562
0.000291
0.000229
0.000198
0.000056
0.000212
0.000227
0.000262
0.000246
0.000249
0.000236
0.000267
0.000269
0.000351
0.000392
0.000417
0.000353
0.000214
0.000246
0.000272
0.000276
0.000303
0.000242
0.000278
0.000274
0.000235
0.000299
0.000445
0.000427
0.000262
0.000254
0.000260
0.000450
0.000396
0.000322
0.000170
0.000057
0.000200
0.000249
0.000319
0.000495
0.000308
0.000207
0.000239
0.000267
0.000250
0.000251
0.000265
0.000253
0.000230
0.000260
0.000258
0.000278
0.000462
0.000308
0.000388
0.000253
0.000490
0.000223
0.000283
0.000277
0.000302
0.000283
0.000259
0.000553
0.000183
0.000545
0.000166
0.000057
0.000204
0.000232
0.000259
0.000235
0.000250
0.000472
0.000216
0.000270
0.000251
0.000361
0.000459
0.000597
0.000203
0.000238
0.000246
0.000251
0.000255
0.000252
0.000249
0.000254
0.000261
0.000265
0.000320
0.000425
0.000404
0.000408
0.000299
0.000319
0.000294
0.000246
0.000186
0.000056
0.000209
0.000237
0.000262
0.000483
0.000323
0.000295
0.000261
0.000216
0.000244
0.000262
0.000253
0.000251
0.000252
0.000267
0.000242
0.000262
0.000267
0.000228
0.000263
0.000403
0.000486
0.000408
0.000220
0.000245
0.000299
0.000259
0.000261
0.000257
0.000269
0.000251
0.000198
0.000057
0.000192
0.000417
0.000490
0.000230
0.000238
0.000243
0.000344
0.000439
0.000277
0.000223
0.000232
0.000296
0.000236
0.000435
0.000451
0.000291
0.000228
0.000234
0.000254
0.000267
0.000272
0.000262
0.000263
0.000279
0.000253
0.000315
0.000378
0.000458
0.000276
0.000246
0.000175
0.000057
0.000229
0.000241
0.000244
0.000254
0.000252
0.000265
0.000229
0.000254
0.000254
0.000248
0.000266
0.000240
0.000262
0.001459
0.000230
0.000248
0.000261
0.000248
0.000275
0.000274
0.000265
0.000239
0.000280
0.000255
0.000266
0.000263
0.000271
0.000268
0.000277
0.000255
0.000193
0.000056
0.000178
0.000229
0.000267
0.000240
0.000233
0.000249
0.000255
0.000260
0.000229
0.000248
0.000249
0.000262
0.000254
0.000257
0.000268
0.000248
0.000245
0.000260
0.000277
0.000249
0.000253
0.000264
0.000245
0.000253
0.001297
0.000279
0.000598
0.000416
0.000324
0.000242
0.000184
0.000056
0.000215
0.000229
0.000241
0.000252
0.000413
0.000240
0.000237
0.000245
0.000254
0.000388
0.000447
0.000322
0.000231
0.000232
0.000260
0.000258
0.000256
0.000268
0.000245
0.000253
0.000265
0.000264
0.000248
0.000414
0.000537
0.000433
0.000227
0.000266
0.001391
0.000221
0.000184
0.000056
0.000290
0.000436
0.000312
0.000269
0.000217
0.000229
0.000232
0.000246
0.000262
0.000256
0.000246
0.000264
0.000265
0.000274
0.000594
0.000354
0.000334
0.000218
0.000247
0.000259
0.000267
0.000263
0.000263
0.000271
0.000271
0.000253
0.000290
0.000601
0.000377
0.000362
0.000155
0.000057
0.000191
0.000231
0.001263
0.000419
0.000298
0.000449
0.000390
0.000486
0.000285
0.000340
0.000219
0.000219
0.000267
0.000258
0.000242
0.000268
0.000315
0.000572
0.000402
0.000318
0.000250
0.000247
0.000272
0.000488
0.000234
0.000268
0.000254
0.000281
0.000284
0.000566
0.000297
0.000058
0.000385
0.000335
0.000199
0.000221
0.001603
0.000414
0.000303
0.000263
0.000241
0.000249
0.000228
0.000241
0.000241
0.000273
0.000247
0.000262
0.000235
0.000266
0.000399
0.000415
0.000447
0.000233
0.000263
0.000252
0.000258
0.000279
0.000267
0.000236
0.000267
0.000272
0.000195
0.000056
0.000377
0.000363
0.000206
0.000224
0.000256
0.000242
0.000248
0.000248
0.000232
0.000232
0.001392
0.000503
0.000250
0.000251
0.000236
0.000254
0.000272
0.000262
0.000235
0.000280
0.000273
0.000251
0.000253
0.000504
0.000310
0.000477
0.000224
0.000271
0.000285
0.000275
0.000170
0.000056
0.000192
0.000402
0.000221
0.000236
0.000372
0.000481
0.000437
0.000190
0.000455
0.000226
0.000216
0.000253
0.000264
0.000268
0.000258
0.001488
0.000280
0.000288
0.000238
0.000274
0.000283
0.000244
0.000259
0.000252
0.000264
0.000269
0.000468
0.000424
0.000296
0.000273
0.000158
0.000056
0.000219
0.000231
0.000258
0.000232
0.000228
0.000262
0.000242
0.000255
0.000259
0.000394
0.000475
0.000243
0.000253
0.000241
0.000249
0.000270
0.000290
0.000244
0.000272
0.000227
0.000261
0.000302
0.001266
0.000255
0.000249
0.000252
0.000258
0.000272
0.000257
0.000252
0.000188
0.000056
0.000276
0.000318
0.000331
0.000378
0.000224
0.000238
0.000258
0.000267
0.000250
0.000256
0.000271
0.000248
0.000243
0.000249
0.000264
0.000261
0.000265
0.000269
0.000262
0.000251
0.000253
0.000273
0.000263
0.000287
0.000283
0.000267
0.000271
0.000252
0.000258
0.000448
0.001371
0.000056
0.000201
0.000232
0.000238
0.000243
0.000272
0.000242
0.000245
0.000225
0.000248
0.000255
0.000271
0.000252
0.000253
0.000245
0.000268
0.000224
0.001739
0.000261
0.000227
0.000262
0.000242
0.000263
0.000268
0.000261
0.000270
0.000258
0.000266
0.000277
0.000275
0.000260
0.000216
0.000057
0.000273
0.000340
0.001302
0.000213
0.000234
0.000247
0.000250
0.000256
0.000282
0.000233
0.000228
0.000379
0.000381
0.000421
0.000294
0.000222
0.000240
0.000258
0.000254
0.000269
0.000250
0.000257
0.000285
0.000273
0.000276
0.000392
0.000379
0.000354
0.000311
0.000232
0.000213
0.000055
0.000219
0.000248
0.000245
0.000247
0.000273
0.000199
0.000238
0.000255
0.000438
0.001334
0.000264
0.000207
0.000246
0.000284
0.000241
0.000291
0.000238
0.000252
0.000347
0.000357
0.000406
0.000252
0.000245
0.000255
0.000272
0.000281
0.000261
0.000298
0.000267
0.000305
0.000164
0.000058
0.000237
0.000392
0.000391
0.000222
0.000231
0.000234
0.000267
0.000265
0.000258
0.000247
0.000228
0.000252
0.000461
0.000547
0.000410
0.001472
0.000243
0.000279
0.000322
0.000348
0.000473
0.000421
0.000483
0.000390
0.000225
0.000262
0.000269
0.000277
0.000258
0.000275
0.000209
0.000056
0.000199
0.000315
0.000484
0.000503
0.000237
0.000233
0.000239
0.000230
0.000250
0.000262
0.000244
0.000272
0.000262
0.000238
0.000288
0.000264
0.000388
0.000419
0.000371
0.001325
0.000262
0.000250
0.000259
0.000262
0.000468
0.000434
0.000421
0.000214
0.000276
0.000268
0.000190
0.000055
0.000202
0.000244
0.000244
0.000244
0.000247
0.000276
0.000459
0.000385
0.000376
0.000215
0.000237
0.000259
0.000273
0.000260
0.000252
0.000265
0.000267
0.000256
0.000265
0.000269
0.000490
0.000415
0.000318
0.001348
0.000415
0.000243
0.000273
0.000385
0.000534
0.000288
0.000313
0.000056
0.000201
0.000235
0.000244
0.000252
0.000248
0.000253
0.001686
0.000240
0.000224
0.000230
0.000260
0.000249
0.000259
0.000333
0.000340
0.000268
0.000272
0.000262
0.000501
0.000495
0.000264
0.000282
0.000231
0.001424
0.000314
0.000349
0.000431
0.000457
0.000322
0.000294
0.000151
0.000058
0.000209
0.000243
0.000257
0.000260
0.000245
0.000257
0.001710
0.000253
0.000227
0.000259
0.000335
0.000411
0.001489
0.000305
0.000406
0.000229
0.000262
0.000238
0.000266
0.000271
0.001535
0.000499
0.000459
0.000297
0.000239
0.000251
0.000261
0.000279
0.000250
0.000244
0.000192
0.000056
0.000207
0.000242
0.000271
0.000237
0.000261
0.000280
0.000280
0.000262
0.000241
0.000257
0.000257
0.000243
0.000264
0.000265
0.000254
0.001501
0.000282
0.000246
0.000244
0.000277
0.000270
0.000267
0.000431
0.001258
0.000289
0.000224
0.000276
0.000249
0.000398
0.000233
0.000213
0.000056
0.000204
0.000243
0.000224
0.000238
0.000240
0.000234
0.000231
0.001697
0.000258
0.000218
0.000251
0.000369
0.000228
0.000223
0.000256
0.001391
0.000230
0.000275
0.000257
0.000242
0.000258
0.000354
0.000274
0.001314
0.000274
0.000257
0.000253
0.000266
0.001389
0.000274
0.000214
0.000055
0.000299
0.000306
0.000207
0.000235
0.000251
0.000240
0.000268
0.000264
0.000269
0.000243
0.000263
0.000261
0.000257
0.000262
0.000316
0.001482
0.000233
0.000293
0.000233
0.000250
0.000291
0.000256
0.000246
0.001512
0.000349
0.000236
0.000272
0.001276
0.000271
0.000240
0.000248
0.000056
0.000227
0.000430
0.000302
0.000210
0.000236
0.000243
0.000261
0.000260
0.000264
0.000274
0.000235
0.000255
0.000260
0.000277
0.000407
0.001228
0.000230
0.000248
0.000267
0.000274
0.000231
0.000238
0.000255
0.000326
0.001287
0.000246
0.000240
0.000256
0.000253
0.001348
0.000354
0.000056
0.000268
0.000341
0.000200
0.000228
0.000237
0.000269
0.000233
0.000246
0.000283
0.000245
0.000240
0.000250
0.000251
0.000353
0.000391
0.001476
0.000220
0.000242
0.000314
0.000502
0.000281
0.000385
0.001359
0.000295
0.000238
0.000267
0.000253
0.001317
0.000344
0.000436
0.000363
0.000058
0.000198
0.000254
0.000254
0.000256
0.000254
0.000258
0.000270
0.000245
0.000263
0.000261
0.000327
0.000499
0.001324
0.000212
0.000264
0.000263
0.000281
0.000227
0.000239
0.000238
0.000342
0.001291
0.000222
0.000238
0.000246
0.000249
0.001521
0.000670
0.000232
0.000220
0.000204
0.000055
0.000211
0.000218
0.000254
0.000228
0.000277
0.000249
0.000245
0.000310
0.000365
0.000501
0.000269
0.001492
0.000201
0.000250
0.000260
0.000255
0.000273
0.000538
0.001443
0.000247
0.000403
0.000326
0.001253
0.000390
0.000300
0.000316
0.000257
0.000271
0.000259
0.000270
0.000189
0.000055
0.000213
0.000235
0.000336
0.000238
0.000331
0.000519
0.000328
0.000256
0.001471
0.000238
0.000402
0.000249
0.000223
0.000372
0.000334
0.001344
0.000236
0.000239
0.000231
0.000261
0.001536
0.000375
0.000282
0.000277
0.000258
0.000239
0.000532
0.000270
0.000227
0.000251
0.000270
0.000057
0.000322
0.000303
0.000348
0.000248
0.000220
0.001529
0.000199
0.000257
0.000268
0.000266
0.000273
0.000238
0.000332
0.001456
0.000258
0.000224
0.000437
0.001200
0.000318
0.000471
0.000391
0.000234
0.000232
0.000252
0.000281
0.000238
0.000454
0.000226
0.000271
0.000284
0.000198
0.000056
0.000219
0.000285
0.000325
0.000360
0.001303
0.000278
0.000312
0.000228
0.000238
0.000254
0.000247
0.000319
0.001493
0.000260
0.000234
0.000245
0.001387
0.000262
0.000436
0.000412
0.000410
0.000226
0.000262
0.000241
0.000264
0.000282
0.000281
0.000245
0.000269
0.000252
0.000188
0.000057
0.000215
0.000456
0.001397
0.000203
0.000277
0.000274
0.000238
0.000249
0.000262
0.000508
0.001271
0.000217
0.000255
0.000267
0.000246
0.001302
0.000659
0.000314
0.000327
0.000404
0.000297
0.000245
0.000259
0.000254
0.000279
0.000285
0.000276
0.000293
0.000452
0.000425
0.001392
0.000056
0.000195
0.000239
0.000249
0.000220
0.000248
0.000403
0.000588
0.001201
0.000251
0.000238
0.000241
0.001424
0.000402
0.000376
0.000224
0.000402
0.000256
0.000235
0.000266
0.000295
0.000232
0.000289
0.000260
0.000266
0.000245
0.000282
0.000453
0.000470
0.001501
0.000221
0.000181
0.000059
0.000202
0.000258
0.000345
0.000605
0.001182
0.000279
0.000249
0.000260
0.000243
0.000253
0.000250
0.000286
0.000387
0.000448
0.000345
0.000232
0.000249
0.000283
0.000236
0.000278
0.000255
0.000269
0.000260
0.000267
0.000260
0.000407
0.000457
0.000365
0.000318
0.001405
0.000171
0.000055
0.000201
0.000234
0.000251
0.000494
0.000317
0.000316
0.000314
0.000333
0.000266
0.000259
0.000256
0.000265
0.000254
0.000310
0.000233
0.000263
0.000531
0.000369
0.000293
0.000382
0.000276
0.000404
0.000225
0.000251
0.000260
0.000266
0.000254
0.000287
0.000340
0.000524
0.000287
0.000057
0.000204
0.001409
0.000249
0.000322
0.000403
0.000413
0.000457
0.000241
0.000219
0.000233
0.000262
0.000242
0.000271
0.000271
0.000262
0.000270
0.000243
0.001379
0.000244
0.000249
0.000258
0.000272
0.000271
0.000281
0.000267
0.000254
0.000281
0.000243
0.000332
0.000371
0.000361
0.000056
0.000216
0.000251
0.000220
0.001493
0.000329
0.000248
0.000222
0.000238
0.000237
0.000248
0.000248
0.000267
0.000253
0.000248
0.000276
0.000251
0.000251
0.000262
0.000258
0.000264
0.001437
0.000232
0.000234
0.000298
0.000235
0.000247
0.000271
0.000262
0.000279
0.000488
0.000364
0.000055
0.000198
0.000231
0.000398
0.000278
0.000246
0.000257
0.001537
0.000340
0.000312
0.000201
0.000259
0.000324
0.000326
0.000228
0.000228
0.000251
0.000250
0.000259
0.000264
0.000251
0.000481
0.000485
0.001149
0.000266
0.000239
0.000258
0.000271
0.000258
0.000272
0.000264
0.000464
0.000056
0.000285
0.000333
0.000216
0.000230
0.000253
0.000240
0.000249
0.000224
0.000289
0.001634
0.000399
0.000231
0.000233
0.000257
0.000258
0.000244
0.000261
0.000271
0.000285
0.000286
0.000309
0.000498
0.000436
0.001373
0.000236
0.000252
0.000273
0.000261
0.000269
0.000348
0.000471
0.000057
0.000271
0.000236
0.000234
0.000248
0.000229
0.000228
0.000263
0.000253
0.000268
0.001607
0.000317
0.000256
0.000258
0.000263
0.000453
0.000276
0.000522
0.000380
0.000296
0.000332
0.000432
0.000460
0.001282
0.000261
0.000229
0.000254
0.001689
0.000503
0.000588
0.000320
0.000139
0.000055
0.000203
0.000230
0.000241
0.000237
0.000263
0.000236
0.000265
0.000495
0.000541
0.000359
0.000290
0.000218
0.000239
0.000262
0.000260
0.000266
0.000247
0.000252
0.000255
0.000278
0.000259
0.000403
0.001377
0.000224
0.000243
0.000277
0.001908
0.000376
0.000372
0.000346
0.000166
0.000056
0.000242
0.000241
0.000248
0.001623
0.000392
0.000187
0.000240
0.000257
0.000257
0.000288
0.000383
0.000367
0.000363
0.000269
0.000289
0.000572
0.000340
0.001212
0.000272
0.000230
0.000248
0.000263
0.000282
0.000409
0.000633
0.000436
0.000259
0.000253
0.000273
0.000280
0.000191
0.000058
0.000191
0.000237
0.000244
0.001598
0.000193
0.000230
0.000236
0.000259
0.000241
0.000255
0.000254
0.000271
0.000264
0.000273
0.000267
0.000432
0.000364
0.000339
0.001418
0.000218
0.000258
0.000255
0.000256
0.000297
0.000347
0.000458
0.000471
0.000288
0.000281
0.000216
0.000441
0.000058
0.000215
0.000242
0.000249
0.001535
0.000310
0.000222
0.000264
0.000239
0.000255
0.000257
0.000256
0.000253
0.000256
0.000254
0.000317
0.000611
0.001381
0.000751
0.000246
0.000353
0.000243
0.000231
0.000242
0.000277
0.001685
0.000803
0.000223
0.000264
0.000281
0.000288
0.000177
0.000056
0.000190
0.000226
0.000259
0.000244
0.000253
0.000254
0.000232
0.000256
0.000241
0.000248
0.000274
0.000282
0.000252
0.000250
0.000259
0.000253
0.000271
0.002047
0.000263
0.000372
0.000325
0.000217
0.000246
0.000282
0.000262
0.000269
0.000285
0.000241
0.001392
0.000402
0.000335
0.000056
0.000192
0.000231
0.000248
0.000251
0.000265
0.000235
0.000247
0.000251
0.000258
0.000262
0.000264
0.000440
0.000431
0.000339
0.000212
0.000239
0.000269
0.001397
0.000682
0.000486
0.000318
0.000280
0.000227
0.000252
0.000268
0.000245
0.000267
0.000265
0.001491
0.000429
0.000194
0.000056
0.000208
0.000231
0.000242
0.000247
0.000251
0.000249
0.000234
0.000267
0.000254
0.000273
0.000434
0.000341
0.000296
0.000210
0.000246
0.000246
0.000269
0.000248
0.001583
0.000664
0.000439
0.000309
0.000225
0.000260
0.000266
0.000250
0.000266
0.000284
0.000265
0.001364
0.000327
0.000057
0.000221
0.000221
0.000231
0.000258
0.000251
0.000245
0.000269
0.000299
0.000378
0.000412
0.000405
0.000330
0.000388
0.000211
0.000247
0.000248
0.000295
0.000238
0.000272
0.001886
0.000371
0.000233
0.000429
0.000261
0.000240
0.000262
0.000292
0.000237
0.000273
0.000275
0.000380
0.000059
0.000275
0.000244
0.000223
0.000244
0.000254
0.000250
0.000221
0.000243
0.000267
0.000249
0.000246
0.000239
0.000284
0.000457
0.000462
0.000449
0.000221
0.000264
0.000246
0.000251
0.000264
0.000287
0.001476
0.001039
0.000222
0.000242
0.000279
0.000274
0.000261
0.000248
0.000210
0.000055
0.000201
0.001346
0.000291
0.000218
0.000226
0.000254
0.000253
0.000238
0.000241
0.000245
0.000258
0.000262
0.000242
0.000372
0.000381
0.000483
0.000248
0.000254
0.000255
0.000276
0.000269
0.000230
0.000251
0.000270
0.001428
0.000577
0.000317
0.000382
0.000398
0.000387
0.000289
0.000056
0.000190
0.000264
0.001408
0.000246
0.000253
0.000243
0.000198
0.000253
0.000261
0.000252
0.000249
0.000253
0.000283
0.000320
0.000612
0.000273
0.000218
0.000281
0.000337
0.000215
0.000242
0.000276
0.000229
0.000276
0.000265
0.001548
0.000730
0.000300
0.000279
0.000272
0.000188
0.000056
0.000190
0.000252
0.000458
0.000332
0.001303
0.000256
0.000216
0.000238
0.000228
0.000249
0.000248
0.000257
0.000230
0.000234
0.000263
0.000253
0.000271
0.000236
0.000260
0.000251
0.000265
0.000266
0.000304
0.000343
0.000208
0.000278
0.000248
0.001474
0.000253
0.000249
0.000158
0.000057
0.000212
0.000232
0.000244
0.000269
0.000359
0.000380
0.000388
0.000267
0.001571
0.000226
0.000273
0.000508
0.000384
0.000218
0.000431
0.000241
0.000233
0.000275
0.000263
0.000266
0.000281
0.000272
0.000255
0.000268
0.000245
0.000447
0.000357
0.000337
0.001588
0.000221
0.000187
0.000055
0.000241
0.000236
0.000247
0.000245
0.000243
0.000248
0.000259
0.000270
0.000434
0.002055
0.000236
0.000234
0.000259
0.000257
0.000258
0.000253
0.000280
0.000241
0.000318
0.000412
0.000436
0.000353
0.001456
0.000247
0.000527
0.000233
0.001769
0.000240
0.000258
0.001533
0.000163
0.000057
0.000188
0.000563
0.000338
0.000248
0.000264
0.000220
0.000263
0.000276
0.000259
0.000223
0.000258
0.000339
0.000436
0.000324
0.000431
0.000237
0.000231
0.001566
0.000231
0.000620
0.001838
0.000305
0.000214
0.001537
0.002030
0.000764
0.000257
0.000255
0.000288
0.000529
0.000271
0.000056
0.000227
0.000248
0.000242
0.000250
0.001429
0.001726
0.001072
0.000219
0.000230
0.001578
0.001983
0.000204
0.000242
0.000429
0.000308
0.000331
0.000435
0.000474
0.000217
0.000234
0.000249
0.000255
0.000273
0.001600
0.001202
0.001424
0.000274
0.000294
0.000253
0.000299
0.000363
0.000057
0.000221
0.000221
0.000238
0.000242
0.000230
0.000244
0.000252
0.000245
0.000262
0.000248
0.000241
0.000343
0.000382
0.000493
0.000282
0.000253
0.000248
0.000268
0.000271
0.000282
0.000241
0.000262
0.001576
0.000419
0.002106
0.000234
0.000267
0.000402
0.000357
0.000405
0.000193
0.000056
0.000253
0.000303
0.000493
0.000310
0.000198
0.000226
0.000254
0.000245
0.000238
0.000250
0.000241
0.000268
0.000259
0.001613
0.001358
0.001212
0.000277
0.000242
0.000244
0.000277
0.000277
0.000283
0.000236
0.000256
0.002210
0.000244
0.000242
0.000309
0.000323
0.000301
0.000220
0.000056
0.000208
0.000373
0.000530
0.000324
0.000249
0.000221
0.000245
0.000285
0.001887
0.001420
0.000221
0.000335
0.000407
0.000392
0.000255
0.000218
0.000259
0.000272
0.000256
0.000266
0.000257
0.000259
0.000473
0.000247
0.000266
0.000263
0.000273
0.000261
0.000280
0.000248
0.000201
0.000057
0.000208
0.000247
0.000250
0.000240
0.000252
0.000271
0.001554
0.001404
0.001324
0.000244
0.000228
0.000243
0.000279
0.000247
0.000250
0.000251
0.000242
0.002111
0.000248
0.000240
0.000263
0.000260
0.000258
0.000270
0.000260
0.000258
0.000270
0.000251
0.000281
0.000259
0.000169
0.000058
0.000196
0.002682
0.001386
0.000224
0.000306
0.000295
0.000228
0.000267
0.000259
0.000240
0.000255
0.000245
0.000237
0.000244
0.000269
0.000256
0.000272
0.000262
0.000252
0.000270
0.000268
0.000300
0.000258
0.000265
0.000245
0.000246
0.000263
0.000265
0.000263
0.000272
0.000386
0.000056
0.001557
0.000240
0.001246
0.000225
0.000230
0.000236
0.000260
0.000256
0.000236
0.000325
0.000451
0.000287
0.000308
0.000213
0.000249
0.002144
0.000245
0.000244
0.000316
0.000530
0.000340
0.000275
0.000216
0.000255
0.000266
0.000248
0.000267
0.000278
0.000284
0.001618
0.001246
0.000057
0.000200
0.000231
0.000296
0.000409
0.000381
0.000253
0.000213
0.000229
0.000250
0.000257
0.000263
0.000250
0.000226
0.000255
0.000259
0.000241
0.000348
0.000598
0.000366
0.000244
0.000227
0.000266
0.000275
0.000253
0.000255
0.000242
0.000268
0.000275
0.000247
0.000264
0.000409
0.000057
0.001119
0.000235
0.000348
0.000449
0.000285
0.000227
0.000232
0.000236
0.000250
0.002292
0.000376
0.000397
0.000206
0.000383
0.000278
0.000260
0.000259
0.000259
0.000270
0.000223
0.000255
0.000350
0.000586
0.000411
0.001862
0.001355
0.000484
0.000539
0.000216
0.000280
0.000198
0.000055
0.000392
0.000220
0.000224
0.000244
0.000245
0.000232
0.000252
0.000254
0.000253
0.000246
0.000261
0.000224
0.000250
0.000253
0.000392
0.000502
0.001846
0.001311
0.000449
0.000447
0.000454
0.000241
0.000240
0.000265
0.002120
0.000567
0.000391
0.000223
0.000278
0.000284
0.000190
0.000056
0.000208
0.000243
0.000254
0.000247
0.000251
0.000296
0.000448
0.000323
0.000310
0.000220
0.000242
0.000253
0.000263
0.002112
0.000553
0.000196
0.000226
0.000238
0.000269
0.000267
0.000243
0.002460
0.000343
0.000216
0.000255
0.000256
0.000256
0.000272
0.000283
0.000279
0.000191
0.000055
0.000195
0.000357
0.000531
0.000381
0.000275
0.000203
0.000229
0.000257
0.000265
0.000250
0.002026
0.000322
0.000274
0.000296
0.000210
0.000265
0.000277
0.000240
0.002211
0.000449
0.000225
0.000248
0.000275
0.000258
0.000260
0.000251
0.000280
0.000261
0.000259
0.000255
0.000184
0.000056
0.000222
0.000239
0.000248
0.000219
0.000255
0.000259
0.000237
0.000244
0.000231
0.002175
0.000261
0.000255
0.000219
0.000420
0.000223
0.000261
0.000274
0.000287
0.000243
0.000264
0.001965
0.000288
0.000378
0.000373
0.000393
0.000392
0.000307
0.000246
0.000258
0.000246
0.000199
0.000056
0.000213
0.000230
0.000260
0.000229
0.000269
0.000316
0.000232
0.002282
0.000236
0.000245
0.000259
0.000255
0.000241
0.000247
0.000305
0.002130
0.000588
0.000230
0.000251
0.000238
0.000262
0.000261
0.000283
0.000268
0.000272
0.000247
0.000286
0.000255
0.000269
0.000259
0.000192
0.000057
0.001812
0.001435
0.000202
0.000223
0.000248
0.000256
0.000253
0.000259
0.000447
0.002255
0.000311
0.000183
0.000237
0.000261
0.000280
0.000393
0.000521
0.000289
0.000217
0.000259
0.000251
0.000264
0.000271
0.000227
0.000254
0.000263
0.000272
0.000273
0.000282
0.000675
0.000340
0.000056
0.000201
0.000238
0.000249
0.000269
0.000253
0.000244
0.000259
0.000238
0.001500
0.002093
0.000589
0.000289
0.000408
0.000682
0.000341
0.000247
0.000247
0.000248
0.000263
0.000265
0.000261
0.000244
0.000242
0.000284
0.001816
0.001461
0.000279
0.000274
0.000290
0.000354
0.000331
0.000056
0.001938
0.000241
0.000216
0.000244
0.000289
0.000339
0.000449
0.000324
0.000277
0.000211
0.000246
0.000247
0.000262
0.000255
0.000263
0.000267
0.000244
0.000281
0.001829
0.000241
0.000232
0.000264
0.000262
0.000286
0.000268
0.000260
0.001465
0.000327
0.000250
0.000255
0.000177
0.000055
0.000201
0.000229
0.000265
0.000223
0.000251
0.000239
0.000392
0.000288
0.000427
0.000291
0.000217
0.000234
0.000262
0.000339
0.000430
0.000314
0.000219
0.000245
0.000267
0.000329
0.000469
0.000451
0.000279
0.000244
0.000257
0.000257
0.000258
0.000264
0.000274
0.000262
0.000203
0.000056
0.001440
0.000419
0.000226
0.001934
0.000366
0.000363
0.000410
0.000315
0.000226
0.000252
0.000265
0.000243
0.000245
0.000247
0.000264
0.000259
0.000447
0.000275
0.000398
0.000499
0.000275
0.000211
0.000249
0.000275
0.000273
0.000265
0.000263
0.000268
0.000383
0.000461
0.001353
0.000057
0.000207
0.000218
0.002076
0.000309
0.000309
0.000256
0.000273
0.000229
0.000264
0.000264
0.000207
0.000255
0.000253
0.000266
0.000261
0.000358
0.002206
0.000274
0.000215
0.000257
0.000252
0.000265
0.000396
0.000436
0.001569
0.000275
0.000364
0.001926
0.000271
0.000241
0.000194
0.000057
0.000204
0.000234
0.000234
0.000241
0.000228
0.000251
0.000255
0.000280
0.000329
0.000281
0.000382
0.000353
0.000338
0.000294
0.000237
0.000273
0.000262
0.000241
0.000265
0.000248
0.000303
0.000285
0.000273
0.000255
0.000270
0.001515
0.000292
0.000394
0.002055
0.000230
0.000173
0.000057
0.000235
0.000238
0.000233
0.000250
0.000476
0.000217
0.000249
0.000329
0.000366
0.000340
0.000283
0.000208
0.000265
0.000267
0.000270
0.000326
0.000392
0.000464
0.000273
0.000379
0.000530
0.000405
0.001627
0.000221
0.000257
0.001961
0.000355
0.000251
0.000235
0.000293
0.000184
0.000057
0.000210
0.000243
0.000228
0.000242
0.000254
0.000267
0.000254
0.000271
0.000249
0.000304
0.001763
0.000338
0.000377
0.000354
0.000390
0.000398
0.000304
0.001506
0.000237
0.000283
0.002145
0.000538
0.000270
0.000238
0.000248
0.000267
0.000496
0.000237
0.000250
0.000280
0.000197
0.000057
0.000285
0.000363
0.000350
0.000301
0.000202
0.000236
0.000259
0.000255
0.000269
0.000295
0.000216
0.000255
0.000259
0.000257
0.000372
0.001499
0.000314
0.000213
0.000275
0.002031
0.000270
0.000259
0.000251
0.000261
0.000247
0.000281
0.000267
0.000255
0.000254
0.000277
0.000183
0.000055
0.000223
0.000504
0.001949
0.000254
0.000261
0.000233
0.000246
0.000280
0.000490
0.000381
0.001325
0.000367
0.000346
0.002091
0.000202
0.000235
0.000267
0.000275
0.000255
0.000250
0.000276
0.000297
0.000254
0.000310
0.000606
0.000277
0.000390
0.002167
0.000496
0.000525
0.000349
0.000057
0.000196
0.000232
0.000246
0.001966
0.000252
0.000213
0.000236
0.000239
0.000243
0.000259
0.000249
0.000255
0.000246
0.000327
0.000380
0.001503
0.000229
0.000244
0.000275
0.000256
0.000238
0.000254
0.000256
0.000267
0.000349
0.000449
0.000461
0.000232
0.001601
0.000275
0.000170
0.000071
0.000186
0.000223
0.000248
0.000235
0.000249
0.000253
0.000247
0.000251
0.000252
0.000383
0.000375
0.001403
0.000238
0.000220
0.000243
0.000270
0.000252
0.000255
0.000493
0.000297
0.000556
0.000283
0.000221
0.001584
0.000223
0.000262
0.000287
0.000276
0.000275
0.000263
0.000187
0.000056
0.000213
0.000234
0.000265
0.000267
0.000244
0.000245
0.000238
0.000240
0.000257
0.000236
0.000260
0.000253
0.000259
0.001490
0.000358
0.000214
0.000243
0.000269
0.000312
0.000283
0.000446
0.000199
0.000242
0.000257
0.000263
0.000259
0.000260
0.001416
0.000280
0.000230
0.000170
0.000056
0.000203
0.000233
0.000258
0.000258
0.000256
0.000234
0.000253
0.000258
0.000225
0.000263
0.000245
0.000258
0.000222
0.000337
0.000329
0.000433
0.000205
0.000238
0.001642
0.000230
0.000243
0.000262
0.000265
0.000275
0.000388
0.000394
0.000454
0.000244
0.000259
0.001618
0.000153
0.000057
0.000369
0.000310
0.000362
0.000290
0.000230
0.000225
0.000238
0.000289
0.000236
0.000243
0.000238
0.000242
0.001472
0.000292
0.000301
0.000219
0.000249
0.000260
0.000267
0.000262
0.000256
0.000234
0.000268
0.000267
0.000269
0.000321
0.000557
0.000328
0.000237
0.000248
0.000193
0.000057
0.000187
0.000272
0.000394
0.000349
0.000378
0.000282
0.000247
0.000251
0.000249
0.000276
0.000223
0.000226
0.000256
0.000253
0.001249
0.000302
0.000224
0.000268
0.000261
0.000263
0.000242
0.000271
0.000248
0.000258
0.000258
0.000253
0.000365
0.000620
0.000479
0.000219
0.000193
0.000055
0.000189
0.001575
0.000227
0.000314
0.000474
0.000383
0.000211
0.000264
0.000258
0.000260
0.000235
0.000259
0.000269
0.000271
0.000261
0.001521
0.000258
0.000290
0.000260
0.000255
0.000259
0.000257
0.000257
0.000265
0.000263
0.000333
0.000399
0.000310
0.000380
0.000252
0.000171
0.000055
0.000195
0.000249
0.000227
0.001614
0.000417
0.000355
0.000223
0.000245
0.000250
0.000264
0.000280
0.000256
0.000243
0.000265
0.000232
0.000279
0.000486
0.001229
0.000262
0.000232
0.001487
0.000641
0.000285
0.000374
0.000323
0.000234
0.000265
0.000461
0.000243
0.000253
0.000183
0.000056
0.000289
0.000214
0.000243
0.000244
0.000259
0.000249
0.000240
0.000254
0.000259
0.000237
0.000256
0.000250
0.000388
0.000438
0.001656
0.001502
0.000349
0.000540
0.000331
0.000233
0.000220
0.000262
0.000247
0.000265
0.000251
0.000264
0.000257
0.000296
0.001507
0.000337
0.000159
0.000057
0.000225
0.000352
0.000355
0.000329
0.000237
0.000212
0.000246
0.000464
0.000405
0.000273
0.002181
0.000323
0.000689
0.000504
0.000496
0.000245
0.000328
0.000402
0.000321
0.000282
0.000379
0.000247
0.001557
0.000532
0.000212
0.000300
0.000225
0.000238
0.000286
0.000253
0.000199
0.000057
0.000213
0.000230
0.000262
0.000241
0.000247
0.001659
0.000881
0.000993
0.000213
0.000229
0.000263
0.000260
0.000256
0.000262
0.000251
0.000252
0.000255
0.000267
0.000265
0.000277
0.001433
0.000311
0.000255
0.000229
0.000234
0.000258
0.000257
0.000288
0.000264
0.000279
0.001902
0.000057
0.000195
0.000226
0.001554
0.000979
0.000239
0.000376
0.000245
0.000214
0.000254
0.000253
0.000249
0.000250
0.000249
0.001979
0.000477
0.000246
0.000218
0.000258
0.000264
0.000257
0.000195
