0.000265
0.018857
0.002630
0.000340
0.000191
0.000250
0.000301
0.000247
0.000329
0.000293
0.000240
0.000401
0.000837
0.000186
0.000311
0.000334
0.000301
0.000371
0.000387
0.000416
0.000307
0.001865
0.000500
0.000427
0.000258
0.000302
0.000304
0.000411
0.000419
0.000365
0.000472
0.000362
0.000059
0.000200
0.000240
0.000269
0.000259
0.000275
0.000251
0.000280
0.000258
0.000276
0.000285
0.000416
0.000485
0.000306
0.000274
0.000398
0.000363
0.000349
0.000250
0.000208
0.001796
0.000242
0.000219
0.000513
0.000237
0.000251
0.000250
0.000284
0.000292
0.000282
0.000327
0.000480
0.000058
0.000199
0.000209
0.000262
0.000262
0.000254
0.000244
0.000268
0.000254
0.000277
0.001667
0.000275
0.000216
0.000240
0.000275
0.000273
0.000252
0.000278
0.000253
0.000349
0.001819
0.000250
0.000241
0.000449
0.000461
0.000397
0.000246
0.000227
0.000537
0.000370
0.000884
0.000162
0.000057
0.000225
0.000212
0.000253
0.000239
0.000321
0.000250
0.000304
0.000523
0.000481
0.000261
0.000212
0.000220
0.000225
0.000263
0.000257
0.000253
0.000239
0.000271
0.000293
0.000344
0.001753
0.000232
0.000235
0.000454
0.000316
0.000695
0.000604
0.000533
0.000317
0.000254
0.000209
0.000057
0.000193
0.000225
0.000256
0.000254
0.000251
0.000250
0.000252
0.000436
0.001513
0.000246
0.000232
0.000238
0.000248
0.000252
0.000270
0.000291
0.000261
0.000843
0.001358
0.000282
0.000258
0.000428
0.000255
0.000233
0.000255
0.000248
0.000272
0.000262
0.000274
0.000259
0.000219
0.000057
0.000217
0.000216
0.000236
0.000245
0.000263
0.000238
0.000249
0.000251
0.000239
0.000253
0.001695
0.000299
0.000180
0.000233
0.000227
0.000248
0.000244
0.000243
0.000255
0.000255
0.000267
0.001740
0.000238
0.000271
0.000461
0.000248
0.000219
0.000243
0.000274
0.000257
0.000205
0.000057
0.000191
0.000212
0.000227
0.000249
0.000246
0.000253
0.000251
0.000246
0.000262
0.000246
0.000265
0.000253
0.000265
0.000267
0.001636
0.000288
0.000282
0.000233
0.000243
0.000267
0.000269
0.000249
0.000256
0.000252
0.000271
0.001875
0.000358
0.000340
0.000271
0.000280
0.000215
0.000055
0.000209
0.000204
0.000235
0.000273
0.000259
0.000226
0.000351
0.000352
0.000450
0.000401
0.000215
0.000229
0.000261
0.000250
0.001641
0.000513
0.000307
0.000409
0.000287
0.000218
0.000258
0.000278
0.000282
0.001868
0.000408
0.000497
0.000228
0.000221
0.000238
0.000256
0.000201
0.000057
0.000208
0.000228
0.000239
0.000253
0.000322
0.000503
0.000412
0.000231
0.000206
0.000222
0.000264
0.000231
0.000265
0.001683
0.000507
0.000303
0.000226
0.000242
0.000271
0.000277
0.000255
0.000265
0.000265
0.001926
0.000282
0.000389
0.000250
0.000233
0.000313
0.000406
0.000316
0.000056
0.000211
0.000361
0.000370
0.000256
0.000303
0.000216
0.000229
0.000258
0.000245
0.000248
0.000218
0.000245
0.001627
0.000320
0.000329
0.000204
0.000224
0.000262
0.000234
0.000283
0.000271
0.000347
0.001796
0.000335
0.000229
0.000505
0.000214
0.000229
0.000241
0.000279
0.000269
0.000056
0.000353
0.000488
0.000659
0.000210
0.000207
0.000264
0.000238
0.000214
0.000259
0.000252
0.000246
0.001705
0.000280
0.000404
0.000388
0.000215
0.000240
0.000234
0.000239
0.000251
0.000260
0.001866
0.000247
0.000217
0.002260
0.000420
0.000271
0.000262
0.000265
0.000251
0.000213
0.000057
0.000226
0.000209
0.000228
0.000246
0.000253
0.001696
0.000231
0.000186
0.000246
0.000250
0.000251
0.000256
0.000238
0.000255
0.000279
0.000460
0.000591
0.000242
0.000226
0.000274
0.000278
0.000239
0.000241
0.000504
0.000429
0.000256
0.000356
0.000587
0.000424
0.000213
0.000185
0.000056
0.000204
0.000198
0.000252
0.000255
0.000243
0.000232
0.000393
0.000385
0.000383
0.001623
0.000231
0.000232
0.000251
0.000237
0.000274
0.000248
0.000431
0.000716
0.000198
0.000234
0.000221
0.000326
0.000273
0.000274
0.000258
0.000400
0.000423
0.000566
0.000519
0.000412
0.000135
0.000057
0.000204
0.000240
0.000224
0.000227
0.000227
0.000244
0.000247
0.000246
0.000248
0.000363
0.000342
0.001562
0.000276
0.000216
0.000205
0.000215
0.000262
0.000254
0.000241
0.000254
0.000291
0.000381
0.000454
0.000346
0.000228
0.000228
0.000270
0.000273
0.000250
0.000258
0.000440
0.000056
0.000196
0.000221
0.000234
0.000257
0.000529
0.000432
0.000266
0.000238
0.000228
0.000262
0.000244
0.000244
0.000279
0.000267
0.000235
0.000540
0.000408
0.001594
0.000279
0.000237
0.000256
0.000261
0.000264
0.000243
0.000250
0.000451
0.000475
0.000505
0.000257
0.000231
0.000209
0.000057
0.000213
0.000232
0.000408
0.000223
0.000262
0.000239
0.000309
0.000554
0.000334
0.000310
0.000233
0.000274
0.000267
0.000241
0.000599
0.000287
0.000214
0.000238
0.000487
0.001624
0.000255
0.000236
0.000291
0.000413
0.000267
0.000294
0.000257
0.000314
0.000596
0.000382
0.000262
0.000057
0.000212
0.000213
0.000231
0.000243
0.000475
0.000266
0.000285
0.000213
0.000389
0.000599
0.000356
0.000215
0.000206
0.000211
0.000285
0.000238
0.000260
0.000258
0.000227
0.000375
0.000276
0.000345
0.001815
0.000269
0.000232
0.000261
0.000312
0.000353
0.000490
0.000655
0.000420
0.000056
0.000260
0.000314
0.000340
0.000411
0.000315
0.000208
0.000255
0.000268
0.000609
0.000349
0.000312
0.000210
0.000204
0.000268
0.000269
0.000239
0.000247
0.000275
0.000270
0.000263
0.000263
0.000507
0.001657
0.000297
0.000364
0.000420
0.000380
0.000249
0.000420
0.000383
0.000343
0.000057
0.000239
0.000382
0.000291
0.000219
0.000213
0.000221
0.000468
0.000218
0.000213
0.000487
0.000268
0.000496
0.000219
0.000231
0.000262
0.000293
0.000398
0.000439
0.000291
0.000203
0.000215
0.000526
0.000490
0.001673
0.000303
0.000350
0.000338
0.000255
0.000232
0.000436
0.000374
0.000056
0.000202
0.000194
0.000238
0.000248
0.000241
0.000253
0.000253
0.000358
0.000420
0.000314
0.000490
0.000350
0.000301
0.000199
0.000531
0.000260
0.000275
0.000267
0.000240
0.000349
0.000237
0.000220
0.000278
0.000381
0.000588
0.001654
0.000266
0.000222
0.000227
0.000244
0.000206
0.000058
0.000310
0.000433
0.000380
0.000204
0.000245
0.000232
0.000252
0.000244
0.000246
0.000259
0.000218
0.000493
0.000262
0.000503
0.000363
0.000325
0.000226
0.000243
0.000358
0.000348
0.000367
0.000365
0.000387
0.000379
0.000248
0.000217
0.000243
0.000283
0.001773
0.000278
0.000207
0.000056
0.000185
0.000207
0.000252
0.000264
0.000363
0.000548
0.000344
0.000213
0.000229
0.000263
0.000249
0.000269
0.000505
0.000453
0.000471
0.000312
0.000271
0.000240
0.000433
0.000488
0.000365
0.000499
0.000393
0.000453
0.000235
0.000247
0.000236
0.000222
0.000251
0.001789
0.000315
0.000058
0.000285
0.000327
0.000205
0.000216
0.000256
0.000242
0.000283
0.000451
0.000430
0.000302
0.000325
0.000335
0.000347
0.000631
0.000302
0.000209
0.000223
0.000234
0.000260
0.000255
0.000264
0.000272
0.000237
0.000273
0.000332
0.000346
0.000494
0.000336
0.000231
0.000215
0.000181
0.000056
0.000476
0.000281
0.000464
0.000233
0.000207
0.000231
0.000245
0.000264
0.000237
0.000222
0.000241
0.000277
0.000295
0.000358
0.000544
0.000454
0.000322
0.000366
0.000369
0.000392
0.000262
0.000236
0.000208
0.000246
0.001821
0.000233
0.001757
0.000927
0.000356
0.000360
0.000149
0.000058
0.000199
0.000201
0.000241
0.000227
0.000264
0.000254
0.000245
0.000251
0.000255
0.000294
0.000378
0.000449
0.000375
0.000399
0.000233
0.000240
0.000276
0.000284
0.000215
0.000236
0.000252
0.000232
0.001806
0.000265
0.000223
0.000270
0.000276
0.000259
0.001875
0.000556
0.000269
0.000057
0.000211
0.000207
0.000213
0.000244
0.000254
0.000246
0.000240
0.000252
0.000261
0.000340
0.000659
0.000239
0.000401
0.000244
0.000227
0.000278
0.000380
0.000386
0.000375
0.000257
0.001810
0.000230
0.000231
0.000223
0.000258
0.000266
0.000250
0.000260
0.000250
0.000347
0.000415
0.000056
0.000241
0.000224
0.000202
0.000259
0.000244
0.000244
0.000266
0.000243
0.000248
0.000256
0.000235
0.000300
0.000375
0.000417
0.000285
0.000334
0.000475
0.000223
0.000206
0.000250
0.000262
0.000267
0.000273
0.000250
0.000278
0.001797
0.000275
0.000228
0.000240
0.000248
0.000211
0.000056
0.000286
0.000364
0.000227
0.000193
0.000227
0.000233
0.000239
0.000260
0.000243
0.000237
0.000222
0.000259
0.000259
0.000356
0.000442
0.000334
0.000365
0.000203
0.000223
0.000239
0.000262
0.000260
0.000250
0.000262
0.000260
0.000259
0.000297
0.001717
0.000225
0.000234
0.000184
0.000057
0.000193
0.000220
0.000253
0.000244
0.000366
0.000330
0.000471
0.000287
0.000214
0.000246
0.000243
0.000256
0.000235
0.000260
0.000263
0.000256
0.000247
0.000258
0.000248
0.000252
0.000278
0.000260
0.000284
0.000214
0.000240
0.000277
0.000270
0.000269
0.000255
0.000260
0.000214
0.000057
0.000219
0.000208
0.000246
0.000254
0.000245
0.000246
0.000269
0.000236
0.000357
0.000210
0.000195
0.000247
0.000247
0.000252
0.000263
0.000266
0.000255
0.000252
0.000364
0.000210
0.000237
0.000290
0.000281
0.000248
0.000274
0.000277
0.000274
0.000253
0.000255
0.000458
0.000634
0.000058
0.000230
0.000303
0.000230
0.000188
0.000214
0.000264
0.000235
0.000249
0.000242
0.000247
0.000270
0.000337
0.000436
0.000547
0.001530
0.000218
0.000520
0.000202
0.000267
0.000411
0.000490
0.000310
0.000238
0.000275
0.000264
0.000242
0.000284
0.000250
0.000304
0.000261
0.000207
0.000056
0.000311
0.000416
0.000393
0.000299
0.000190
0.000243
0.000267
0.000227
0.000235
0.000255
0.000246
0.000258
0.000238
0.000269
0.000373
0.000477
0.000384
0.001796
0.000279
0.000219
0.000276
0.000477
0.000452
0.000314
0.000383
0.000293
0.000249
0.000266
0.000211
0.000231
0.000219
0.000057
0.000207
0.000198
0.000250
0.000273
0.000481
0.000304
0.000385
0.000232
0.000254
0.000219
0.000240
0.000277
0.000261
0.000265
0.000251
0.000259
0.000345
0.000485
0.000375
0.000372
0.000237
0.001804
0.000282
0.000554
0.000602
0.000342
0.000273
0.000242
0.000240
0.000264
0.000506
0.000057
0.000179
0.000232
0.000234
0.000301
0.000424
0.000390
0.000434
0.000260
0.000205
0.000340
0.000217
0.000232
0.000244
0.000303
0.000357
0.000221
0.000211
0.000474
0.000307
0.000397
0.000561
0.001779
0.000247
0.000514
0.000591
0.000199
0.000232
0.000375
0.000253
0.000213
0.000203
0.000057
0.000211
0.000334
0.000355
0.000337
0.000344
0.000365
0.000334
0.000209
0.000223
0.000264
0.000268
0.000242
0.000233
0.000261
0.000243
0.000260
0.000303
0.000361
0.000548
0.000422
0.000248
0.000226
0.000258
0.001776
0.000366
0.000499
0.000675
0.000280
0.000246
0.000290
0.000172
0.000057
0.000172
0.000230
0.000313
0.000254
0.000265
0.000371
0.000493
0.000238
0.000316
0.000532
0.000197
0.000231
0.000228
0.000275
0.000279
0.000271
0.000232
0.000362
0.000481
0.000379
0.000269
0.000238
0.000256
0.000246
0.000271
0.000263
0.000242
0.000244
0.000267
0.000366
0.000155
0.000058
0.000271
0.000341
0.000231
0.000235
0.000240
0.000258
0.000243
0.000367
0.000213
0.000214
0.000262
0.000325
0.000460
0.000381
0.000341
0.000285
0.000213
0.000250
0.000246
0.000257
0.000261
0.000289
0.000237
0.000262
0.000277
0.000321
0.000428
0.000382
0.000375
0.000214
0.000179
0.000056
0.000202
0.000212
0.000262
0.000244
0.000238
0.000252
0.000277
0.000248
0.000493
0.000226
0.000230
0.000261
0.000255
0.000250
0.000267
0.000279
0.000265
0.000376
0.000237
0.000218
0.000239
0.000268
0.000256
0.000265
0.000272
0.000260
0.000272
0.000260
0.000249
0.000498
0.000187
0.000057
0.000207
0.000213
0.000236
0.000269
0.000240
0.000233
0.000299
0.000454
0.000272
0.000223
0.000245
0.000257
0.000248
0.000274
0.000380
0.001822
0.000264
0.000227
0.000306
0.000382
0.000410
0.000343
0.000385
0.000343
0.000411
0.000366
0.000250
0.000266
0.000267
0.000271
0.001413
0.000056
0.000382
0.000303
0.000313
0.000200
0.000198
0.000234
0.000238
0.000246
0.000253
0.000258
0.000253
0.000259
0.000247
0.000396
0.000489
0.001656
0.000211
0.000201
0.000225
0.000266
0.000256
0.000250
0.000402
0.000387
0.000277
0.000320
0.000258
0.000244
0.000281
0.000254
0.000217
0.000059
0.001209
0.000605
0.000273
0.000292
0.000214
0.000204
0.000201
0.000258
0.000472
0.000251
0.000202
0.000254
0.000325
0.000450
0.000491
0.000333
0.000297
0.000244
0.000315
0.000393
0.000225
0.000232
0.000270
0.000237
0.000270
0.000581
0.000548
0.000291
0.000235
0.000298
0.000155
0.000057
0.000209
0.000200
0.000225
0.000254
0.001428
0.000365
0.000196
0.000251
0.000245
0.000245
0.000255
0.000253
0.000244
0.000258
0.000270
0.000278
0.000451
0.000667
0.000275
0.001799
0.000234
0.000296
0.000285
0.000431
0.000627
0.000304
0.000227
0.000231
0.000261
0.000264
0.000208
0.000058
0.000189
0.000255
0.000212
0.001321
0.000335
0.000193
0.000267
0.000208
0.000246
0.000231
0.000231
0.000251
0.000279
0.000249
0.000248
0.000383
0.000392
0.000455
0.000330
0.000211
0.000245
0.000279
0.000264
0.000221
0.000360
0.000219
0.000213
0.000288
0.000259
0.000401
0.000570
0.000057
0.000217
0.000222
0.000236
0.000259
0.000280
0.000235
0.000231
0.000252
0.000272
0.000252
0.001435
0.000241
0.000229
0.000250
0.000248
0.000250
0.000262
0.000267
0.000253
0.000277
0.000277
0.000496
0.000517
0.000296
0.000243
0.000265
0.001846
0.000227
0.000217
0.000344
0.000387
0.000058
0.000233
0.000431
0.000454
0.000509
0.000521
0.000565
0.001414
0.000449
0.000544
0.000649
0.000560
0.000645
0.000547
0.000625
0.000579
0.001728
0.000519
0.000394
0.000380
0.000309
0.000263
0.000287
0.000286
0.000267
0.000285
0.000267
0.000297
0.000282
0.000253
0.000295
0.001316
0.000057
0.000209
0.000247
0.000225
0.000228
0.000248
0.000254
0.000232
0.000230
0.000265
0.000269
0.000238
0.000259
0.000258
0.000252
0.000266
0.000246
0.001857
0.000248
0.000263
0.000248
0.000259
0.000264
0.000263
0.000299
0.000401
0.000418
0.000344
0.000216
0.000263
0.000298
0.000164
0.000056
0.001385
0.000274
0.000195
0.000265
0.000265
0.000235
0.000253
0.000236
0.000259
0.000246
0.000241
0.000230
0.000263
0.000444
0.000275
0.000367
0.000268
0.000281
0.001907
0.000258
0.000257
0.000253
0.000254
0.000268
0.000275
0.000259
0.000278
0.000254
0.000247
0.000303
0.000243
0.000057
0.000212
0.000227
0.000251
0.001427
0.000264
0.000267
0.000223
0.000227
0.000250
0.000233
0.000262
0.000264
0.000219
0.000258
0.000285
0.000239
0.000259
0.000250
0.000275
0.000263
0.000265
0.001846
0.000258
0.001768
0.000256
0.000254
0.000245
0.000226
0.000267
0.000289
0.000204
0.000057
0.000199
0.000239
0.001371
0.000246
0.000241
0.000234
0.000219
0.000263
0.000226
0.000246
0.000249
0.000253
0.000247
0.000272
0.000250
0.000260
0.000263
0.000275
0.000299
0.000252
0.001867
0.000266
0.001799
0.000282
0.000246
0.000242
0.000263
0.000263
0.000267
0.000251
0.000184
0.000056
0.001429
0.000240
0.000234
0.000221
0.000220
0.000243
0.000253
0.000365
0.000252
0.000256
0.000254
0.000256
0.000296
0.000306
0.000473
0.000269
0.000252
0.000266
0.000231
0.000242
0.000244
0.000334
0.000245
0.000259
0.000277
0.000269
0.000267
0.000335
0.000709
0.000342
0.000189
0.000057
0.000219
0.000258
0.000275
0.000303
0.000354
0.000282
0.001644
0.000303
0.000284
0.000265
0.000260
0.000307
0.000251
0.000267
0.000298
0.000314
0.000359
0.000466
0.000435
0.000263
0.000322
0.000279
0.000259
0.000267
0.000329
0.000258
0.000265
0.000247
0.000234
0.000354
0.000354
0.000058
0.000307
0.000378
0.000264
0.000284
0.000236
0.000224
0.000224
0.000254
0.000263
0.000245
0.001520
0.000233
0.000213
0.000251
0.000248
0.000284
0.000270
0.000261
0.000253
0.000261
0.000284
0.000344
0.000599
0.000334
0.000229
0.000270
0.000271
0.000245
0.000252
0.000225
0.000256
0.000058
0.000195
0.000204
0.000316
0.000419
0.000382
0.000283
0.000210
0.000244
0.000250
0.000276
0.000219
0.000253
0.000256
0.000259
0.000241
0.000236
0.000537
0.001143
0.000220
0.000239
0.000241
0.000255
0.000365
0.000485
0.000216
0.000250
0.000610
0.000332
0.000434
0.000228
0.000163
0.000056
0.000227
0.000219
0.000264
0.000259
0.000316
0.000201
0.000330
0.000449
0.000462
0.000292
0.000370
0.000393
0.000401
0.000349
0.000236
0.000219
0.000227
0.000224
0.000402
0.000574
0.001164
0.000230
0.000261
0.000271
0.000232
0.000247
0.000256
0.000350
0.000365
0.000600
0.000165
0.000056
0.000195
0.000223
0.000248
0.000239
0.000245
0.000241
0.000248
0.000257
0.000258
0.000394
0.000458
0.000427
0.000228
0.000207
0.000227
0.000254
0.000244
0.000271
0.000261
0.000234
0.000515
0.000204
0.000405
0.000371
0.000358
0.000220
0.000258
0.000271
0.000265
0.000280
0.000231
0.000056
0.000302
0.000291
0.000311
0.000355
0.000578
0.000257
0.000233
0.000266
0.000220
0.000265
0.000257
0.000263
0.000241
0.000251
0.000253
0.000221
0.000268
0.000386
0.000501
0.000365
0.000217
0.000267
0.000218
0.000237
0.000269
0.000274
0.000293
0.000237
0.000283
0.000290
0.000349
0.000057
0.000281
0.000329
0.000223
0.000223
0.000252
0.000248
0.000241
0.000252
0.000263
0.000254
0.000265
0.000234
0.000275
0.000563
0.000431
0.000304
0.000219
0.000201
0.000240
0.000273
0.000277
0.000235
0.000271
0.000261
0.000270
0.000363
0.000344
0.000729
0.000372
0.000226
0.000146
0.000057
0.000409
0.000203
0.000193
0.000238
0.000246
0.000256
0.000264
0.000226
0.000251
0.000259
0.000225
0.000244
0.000265
0.000230
0.000240
0.000264
0.000254
0.000261
0.000274
0.000264
0.000256
0.000259
0.000272
0.000255
0.000276
0.000259
0.000232
0.000286
0.000255
0.000283
0.000214
0.000055
0.000203
0.000204
0.000245
0.000249
0.000235
0.000245
0.000266
0.000239
0.000260
0.000291
0.000218
0.000229
0.000267
0.000404
0.000234
0.000284
0.000270
0.000278
0.000234
0.000272
0.000285
0.000232
0.000258
0.000247
0.000261
0.000283
0.000245
0.000248
0.000274
0.000262
0.000225
0.000055
0.000252
0.000375
0.000355
0.000300
0.000282
0.000234
0.000206
0.000259
0.000230
0.000241
0.000242
0.000265
0.000254
0.000235
0.000257
0.000266
0.000263
0.000262
0.000248
0.000274
0.000265
0.000261
0.000280
0.000259
0.000272
0.000271
0.000233
0.000303
0.000235
0.000272
0.000196
0.000056
0.000202
0.000228
0.000241
0.000267
0.000243
0.000455
0.000215
0.000237
0.000278
0.000424
0.000525
0.000331
0.000224
0.000204
0.000269
0.000264
0.000246
0.000261
0.000262
0.000266
0.000268
0.000266
0.000256
0.000323
0.000463
0.000563
0.000258
0.000263
0.000269
0.000259
0.000211
0.000055
0.000195
0.000194
0.000244
0.000250
0.000283
0.000701
0.000302
0.000381
0.000227
0.000256
0.000226
0.000254
0.000267
0.000234
0.000260
0.000273
0.000253
0.000295
0.000554
0.000472
0.000279
0.000215
0.000256
0.000284
0.000276
0.000263
0.000267
0.000263
0.000250
0.000330
0.000382
0.000056
0.000288
0.000223
0.000229
0.000221
0.000256
0.000258
0.000251
0.000227
0.000242
0.000259
0.000248
0.000247
0.000250
0.000371
0.000577
0.000465
0.000205
0.000227
0.000266
0.000271
0.000245
0.000265
0.000480
0.000245
0.000251
0.000658
0.000400
0.000437
0.000274
0.000249
0.000192
0.000057
0.000190
0.000211
0.000257
0.000223
0.000250
0.000259
0.000280
0.000448
0.000645
0.000383
0.000207
0.000261
0.000297
0.000255
0.000273
0.000241
0.000235
0.000250
0.000254
0.000396
0.000457
0.000469
0.000426
0.000272
0.000461
0.000330
0.000482
0.000212
0.000241
0.000490
0.000346
0.000057
0.000270
0.000216
0.000487
0.000198
0.000233
0.000231
0.000241
0.000253
0.000242
0.000236
0.000414
0.000289
0.000340
0.000374
0.000223
0.000216
0.000276
0.000228
0.000269
0.000277
0.000264
0.000265
0.000251
0.000260
0.000290
0.000536
0.000461
0.000249
0.000258
0.000274
0.000212
0.000056
0.000181
0.000240
0.000231
0.000241
0.000242
0.000244
0.000402
0.000406
0.000432
0.000277
0.000347
0.000258
0.000215
0.000261
0.000283
0.000222
0.000247
0.000270
0.000273
0.000437
0.000525
0.000273
0.000451
0.000346
0.000396
0.000388
0.000380
0.000260
0.000216
0.000307
0.000361
0.000057
0.000223
0.000291
0.000197
0.000242
0.000274
0.000241
0.000255
0.000241
0.000253
0.000280
0.000220
0.000332
0.000466
0.000384
0.000363
0.000260
0.000242
0.000256
0.000281
0.000229
0.000254
0.000254
0.000259
0.000276
0.000282
0.000323
0.000488
0.000481
0.000250
0.000272
0.000211
0.000055
0.000195
0.000215
0.000261
0.000261
0.000237
0.000315
0.000652
0.000438
0.000288
0.000666
0.000311
0.000213
0.000202
0.000259
0.000242
0.000271
0.000283
0.000265
0.000469
0.000554
0.001515
0.000248
0.000257
0.000275
0.000288
0.000230
0.000305
0.000482
0.000419
0.000263
0.000172
0.000056
0.000192
0.000207
0.000238
0.000248
0.000239
0.000257
0.000267
0.000255
0.000258
0.000365
0.000345
0.000355
0.000275
0.000388
0.000386
0.000338
0.000224
0.000217
0.000248
0.000266
0.000237
0.000253
0.000277
0.000261
0.000345
0.000539
0.000351
0.000273
0.000219
0.000254
0.000204
0.000056
0.000194
0.000225
0.000257
0.000251
0.000251
0.000230
0.000471
0.000226
0.000225
0.000252
0.000247
0.000245
0.000263
0.000263
0.000244
0.000271
0.000264
0.000261
0.000279
0.000252
0.000258
0.000274
0.000318
0.000230
0.000270
0.000274
0.000267
0.000271
0.000259
0.000273
0.000198
0.000057
0.000202
0.000212
0.000283
0.000502
0.000381
0.000225
0.000199
0.000241
0.000259
0.000250
0.000244
0.000255
0.000269
0.000256
0.000247
0.000238
0.000251
0.000267
0.000257
0.000386
0.000395
0.000409
0.000234
0.000260
0.000267
0.000253
0.000266
0.000255
0.000274
0.000282
0.000209
0.000057
0.000338
0.000433
0.000366
0.000219
0.000231
0.000253
0.000486
0.000191
0.000196
0.000264
0.000265
0.000335
0.000401
0.000412
0.001758
0.000271
0.000250
0.000241
0.000275
0.000251
0.000318
0.000477
0.000540
0.000380
0.000208
0.000264
0.000270
0.000422
0.000283
0.000286
0.000178
0.000057
0.000281
0.000304
0.000344
0.000284
0.000506
0.000210
0.000225
0.000244
0.000255
0.000241
0.000260
0.000246
0.000266
0.000290
0.000442
0.000488
0.000238
0.000214
0.000250
0.000274
0.000255
0.000326
0.000236
0.000277
0.000278
0.000442
0.000529
0.000395
0.000471
0.000221
0.000202
0.000057
0.000226
0.000200
0.000247
0.000230
0.000246
0.000248
0.000299
0.000240
0.000374
0.000476
0.000308
0.000386
0.000208
0.000222
0.000270
0.000343
0.000240
0.000240
0.000275
0.000272
0.000255
0.000261
0.000556
0.000354
0.000244
0.000283
0.000246
0.000541
0.000397
0.000271
0.000151
0.000055
0.000180
0.000211
0.000336
0.000417
0.000386
0.000226
0.000222
0.000254
0.000259
0.000254
0.000265
0.000255
0.000226
0.000257
0.000256
0.000274
0.000392
0.000382
0.000342
0.000335
0.000460
0.000231
0.000262
0.000280
0.000308
0.000276
0.000269
0.000249
0.000485
0.000415
0.000327
0.000057
0.000216
0.000201
0.000242
0.000252
0.000251
0.000483
0.000214
0.000233
0.000270
0.000360
0.000512
0.000528
0.000242
0.000228
0.000241
0.000254
0.000254
0.000248
0.000254
0.000254
0.000255
0.000269
0.000355
0.000493
0.000368
0.000335
0.000333
0.000339
0.000304
0.000230
0.000166
0.000056
0.000210
0.000215
0.000245
0.000509
0.000300
0.000384
0.000244
0.000213
0.000199
0.000250
0.000255
0.000245
0.000251
0.000273
0.000293
0.000217
0.000238
0.000258
0.000238
0.000380
0.000617
0.000340
0.000218
0.000225
0.000285
0.000283
0.000251
0.000263
0.000255
0.000265
0.000218
0.000055
0.000243
0.000424
0.000496
0.000219
0.000198
0.000215
0.000340
0.000479
0.000283
0.000205
0.000209
0.000275
0.000271
0.000445
0.000444
0.000332
0.000217
0.000225
0.000281
0.000202
0.000269
0.000264
0.000272
0.000262
0.000264
0.000278
0.000443
0.000431
0.000350
0.000215
0.000151
0.000056
0.000202
0.000218
0.000243
0.000278
0.000230
0.000259
0.000239
0.000249
0.000255
0.000247
0.000262
0.000242
0.000256
0.001450
0.000269
0.000224
0.000263
0.000249
0.000267
0.000278
0.000256
0.000250
0.000278
0.000252
0.000264
0.000264
0.000270
0.000273
0.000271
0.000256
0.000220
0.000057
0.000205
0.000211
0.000231
0.000251
0.000240
0.000239
0.000258
0.000276
0.000212
0.000249
0.000244
0.000268
0.000252
0.000264
0.000247
0.000263
0.000243
0.000255
0.000279
0.000251
0.000274
0.000242
0.000254
0.000248
0.001357
0.000281
0.000494
0.000491
0.000366
0.000234
0.000146
0.000057
0.000184
0.000211
0.000243
0.000249
0.000504
0.000224
0.000190
0.000209
0.000260
0.000357
0.000520
0.000374
0.000185
0.000202
0.000241
0.000266
0.000248
0.000262
0.000257
0.000255
0.000264
0.000252
0.000261
0.000502
0.000433
0.000441
0.000239
0.000259
0.001357
0.000295
0.000172
0.000057
0.000311
0.000404
0.000364
0.000245
0.000199
0.000198
0.000232
0.000247
0.000255
0.000260
0.000246
0.000254
0.000261
0.000315
0.000519
0.000435
0.000303
0.000227
0.000248
0.000238
0.000269
0.000264
0.000272
0.000266
0.000265
0.000257
0.000446
0.000435
0.000421
0.000366
0.000162
0.000056
0.000167
0.000261
0.001285
0.000357
0.000262
0.000518
0.000366
0.000300
0.000437
0.000391
0.000228
0.000209
0.000239
0.000254
0.000251
0.000264
0.000311
0.000610
0.000314
0.000365
0.000279
0.000226
0.000254
0.000525
0.000235
0.000247
0.000261
0.000279
0.000300
0.000590
0.000342
0.000057
0.000338
0.000371
0.000226
0.000209
0.001534
0.000515
0.000312
0.000229
0.000207
0.000249
0.000229
0.000227
0.000250
0.000266
0.000248
0.000267
0.000228
0.000376
0.000411
0.000415
0.000390
0.000212
0.000230
0.000249
0.000258
0.000269
0.000270
0.000236
0.000262
0.000273
0.000229
0.000057
0.000409
0.000276
0.000253
0.000200
0.000249
0.000246
0.000265
0.000233
0.000238
0.000241
0.001569
0.000372
0.000263
0.000201
0.000211
0.000261
0.000259
0.000269
0.000231
0.000277
0.000270
0.000257
0.000257
0.000496
0.000412
0.000407
0.000220
0.000247
0.000285
0.000282
0.000194
0.000057
0.000184
0.000464
0.000198
0.000194
0.000342
0.000418
0.000492
0.000228
0.000459
0.000205
0.000217
0.000273
0.000240
0.000259
0.000275
0.001463
0.000305
0.000285
0.000242
0.000272
0.000273
0.000257
0.000248
0.000261
0.000256
0.000271
0.000480
0.000421
0.000286
0.000275
0.000163
0.000056
0.000194
0.000218
0.000258
0.000238
0.000237
0.000243
0.000246
0.000247
0.000304
0.000396
0.000438
0.000316
0.000208
0.000222
0.000235
0.000258
0.000274
0.000276
0.000282
0.000217
0.000248
0.001412
0.000273
0.000195
0.000259
0.000209
0.000238
0.000263
0.000265
0.000264
0.000202
0.000058
0.000269
0.000278
0.000409
0.000351
0.000229
0.000200
0.000253
0.000257
0.000257
0.000256
0.000247
0.000273
0.000242
0.000253
0.000261
0.000272
0.000254
0.000268
0.000272
0.000249
0.000251
0.000266
0.000273
0.000270
0.000288
0.000271
0.000288
0.000230
0.000270
0.000508
0.001333
0.000056
0.000206
0.000220
0.000223
0.000238
0.000258
0.000264
0.000268
0.000205
0.000245
0.000251
0.000260
0.000272
0.000248
0.000241
0.000245
0.001712
0.000370
0.000212
0.000189
0.000263
0.000234
0.000259
0.000272
0.000261
0.000261
0.000270
0.000284
0.000264
0.000266
0.000276
0.000239
0.000057
0.000250
0.000304
0.001354
0.000204
0.000203
0.000226
0.000263
0.000251
0.000251
0.000263
0.000247
0.000333
0.000429
0.000516
0.000226
0.000198
0.000217
0.000255
0.000262
0.000263
0.000246
0.000254
0.000272
0.000291
0.000268
0.000496
0.000313
0.000353
0.000267
0.000262
0.000193
0.000057
0.000208
0.000233
0.000238
0.000247
0.000247
0.000241
0.000229
0.000245
0.000439
0.000480
0.001108
0.000240
0.000226
0.000265
0.000259
0.000263
0.000270
0.000258
0.000305
0.000375
0.000464
0.000237
0.000229
0.000240
0.000270
0.000271
0.000274
0.000291
0.000274
0.000277
0.000209
0.000057
0.000290
0.000333
0.000433
0.000219
0.000202
0.000202
0.000243
0.000272
0.000267
0.000261
0.000213
0.000256
0.000535
0.000476
0.000470
0.001462
0.000233
0.000278
0.000306
0.000353
0.000435
0.000456
0.000454
0.000375
0.000239
0.000268
0.000260
0.000272
0.000273
0.000273
0.000215
0.000056
0.000211
0.000227
0.000442
0.000538
0.000317
0.000215
0.000242
0.000244
0.000240
0.000253
0.000247
0.000269
0.000264
0.000237
0.000272
0.000356
0.000301
0.000499
0.000314
0.001308
0.000276
0.000248
0.000254
0.000258
0.000588
0.000362
0.000409
0.000215
0.000241
0.000270
0.000210
0.000057
0.000188
0.000209
0.000257
0.000234
0.000247
0.000282
0.000439
0.000404
0.000363
0.000237
0.000227
0.000258
0.000269
0.000259
0.000259
0.000267
0.000259
0.000257
0.000266
0.000329
0.000515
0.000413
0.000316
0.001337
0.000350
0.000248
0.000278
0.000418
0.000439
0.000359
0.000332
0.000058
0.000183
0.000210
0.000249
0.000246
0.000253
0.000247
0.001692
0.000255
0.000233
0.000210
0.000253
0.000254
0.000320
0.000324
0.000332
0.000277
0.000244
0.000434
0.000416
0.000401
0.000280
0.000270
0.000229
0.000218
0.001444
0.000447
0.000396
0.000474
0.000314
0.000306
0.000146
0.000056
0.000205
0.000225
0.000256
0.000265
0.000241
0.000255
0.001775
0.000216
0.000248
0.000244
0.000389
0.000411
0.001426
0.000324
0.000435
0.000208
0.000262
0.000189
0.000262
0.000267
0.001635
0.000570
0.000377
0.000278
0.000218
0.000230
0.000237
0.000280
0.000254
0.000247
0.000209
0.000057
0.000201
0.000221
0.000261
0.000253
0.000254
0.000273
0.000286
0.000249
0.000251
0.000256
0.000253
0.000253
0.000252
0.000270
0.000256
0.001500
0.000278
0.000225
0.000267
0.000297
0.000251
0.000255
0.000428
0.001277
0.000280
0.000249
0.000253
0.000255
0.000471
0.000204
0.000191
0.000058
0.000173
0.000211
0.000230
0.000244
0.000245
0.000227
0.000229
0.001766
0.000226
0.000189
0.000246
0.000366
0.000237
0.000218
0.001460
0.000249
0.000212
0.000211
0.000279
0.000238
0.000263
0.000311
0.000322
0.001372
0.000287
0.000208
0.000237
0.000249
0.001391
0.000265
0.000205
0.000058
0.000258
0.000348
0.000218
0.000193
0.000249
0.000250
0.000252
0.000276
0.000261
0.000249
0.000268
0.000257
0.000256
0.000237
0.000301
0.001511
0.000257
0.000256
0.000259
0.000263
0.000270
0.000264
0.000249
0.001544
0.000290
0.000250
0.000268
0.001354
0.000233
0.000222
0.000214
0.000056
0.000222
0.000369
0.000356
0.000220
0.000217
0.000235
0.000253
0.000267
0.000265
0.000269
0.000242
0.000249
0.000257
0.000251
0.000525
0.001201
0.000205
0.000230
0.000244
0.000276
0.000237
0.000235
0.000255
0.001294
0.000383
0.000223
0.000246
0.000222
0.000240
0.001356
0.000350
0.000057
0.000295
0.000247
0.000216
0.000198
0.000252
0.000232
0.000261
0.000241
0.000272
0.000254
0.000238
0.000250
0.000248
0.000329
0.000461
0.001434
0.000242
0.000219
0.000308
0.000495
0.000301
0.000469
0.001274
0.000285
0.000263
0.000249
0.001291
0.000343
0.000319
0.000452
0.000333
0.000058
0.000194
0.000238
0.000263
0.000254
0.000245
0.000265
0.000268
0.000252
0.000256
0.000265
0.000355
0.000478
0.001359
0.000210
0.000228
0.000253
0.000287
0.000266
0.000209
0.000225
0.000391
0.001254
0.000243
0.000225
0.000241
0.000233
0.001477
0.000456
0.000475
0.000252
0.000190
0.000056
0.000198
0.000210
0.000241
0.000236
0.000250
0.000264
0.000268
0.000222
0.000422
0.000518
0.000308
0.001436
0.000258
0.000199
0.000266
0.000262
0.000255
0.000369
0.001562
0.000332
0.000344
0.000364
0.001331
0.000399
0.000285
0.000342
0.000230
0.000210
0.000249
0.000276
0.000219
0.000057
0.000204
0.000217
0.000316
0.000313
0.000229
0.000529
0.000305
0.000367
0.001470
0.000280
0.000343
0.000258
0.000230
0.000280
0.000341
0.001392
0.000268
0.000219
0.000218
0.000235
0.000308
0.001651
0.000311
0.000267
0.000230
0.000223
0.000516
0.000319
0.000236
0.000216
0.000265
0.000056
0.000257
0.000355
0.000369
0.000271
0.000209
0.001456
0.000245
0.000236
0.000249
0.000278
0.000265
0.000249
0.000301
0.001476
0.000276
0.000230
0.000424
0.001342
0.000257
0.000383
0.000371
0.000251
0.000251
0.000236
0.000285
0.000256
0.000454
0.000234
0.000249
0.000280
0.000205
0.000056
0.000226
0.000259
0.000322
0.001446
0.000280
0.000195
0.000301
0.000258
0.000241
0.000251
0.000240
0.000295
0.001610
0.000210
0.000215
0.000224
0.001432
0.000230
0.000488
0.000442
0.000361
0.000222
0.000249
0.000220
0.000356
0.000230
0.000234
0.000253
0.000263
0.000250
0.000204
0.000058
0.000204
0.000391
0.001430
0.000228
0.000257
0.000265
0.000254
0.000254
0.000319
0.000419
0.001291
0.000246
0.000308
0.000246
0.000205
0.001414
0.000641
0.000253
0.000297
0.000403
0.000340
0.000241
0.000221
0.000231
0.000276
0.000284
0.000280
0.000330
0.000446
0.000442
0.001382
0.000057
0.000194
0.000248
0.000214
0.000224
0.000251
0.000398
0.001553
0.000297
0.000219
0.000220
0.000238
0.001441
0.000419
0.000335
0.000461
0.000242
0.000224
0.000214
0.000236
0.000272
0.000270
0.000257
0.000277
0.000277
0.000233
0.000292
0.000406
0.000562
0.001435
0.000264
0.000185
0.000057
0.000188
0.000227
0.000327
0.000572
0.001230
0.000276
0.000259
0.000251
0.000254
0.000240
0.000260
0.000264
0.000340
0.000577
0.000314
0.000214
0.000243
0.000275
0.000237
0.000274
0.000267
0.000254
0.000270
0.000256
0.000265
0.000481
0.000391
0.000341
0.000319
0.001470
0.000153
0.000057
0.000204
0.000202
0.000474
0.000249
0.000486
0.000184
0.000293
0.000322
0.000282
0.000259
0.000263
0.000261
0.000239
0.000311
0.000259
0.000403
0.000446
0.000304
0.000280
0.000385
0.000293
0.000471
0.000210
0.000241
0.000222
0.000273
0.000239
0.000288
0.000449
0.000397
0.000327
0.000058
0.000212
0.001357
0.000290
0.000322
0.000438
0.000388
0.000340
0.000350
0.000216
0.000210
0.000260
0.000248
0.000267
0.000263
0.000258
0.000268
0.000268
0.001444
0.000225
0.000228
0.000220
0.000271
0.000265
0.000288
0.000265
0.000257
0.000271
0.000256
0.000264
0.000454
0.000495
0.000059
0.000221
0.000245
0.000219
0.001535
0.000335
0.000211
0.000220
0.000219
0.000218
0.000244
0.000250
0.000276
0.000244
0.000249
0.000269
0.000268
0.000235
0.000271
0.000261
0.000256
0.001436
0.000268
0.000231
0.000321
0.000222
0.000218
0.000259
0.000260
0.000276
0.000508
0.000370
0.000058
0.000193
0.000210
0.000384
0.000293
0.000246
0.000252
0.001531
0.000346
0.000332
0.000214
0.000264
0.000327
0.000311
0.000224
0.000215
0.000249
0.000257
0.000251
0.000268
0.000246
0.000491
0.000556
0.001141
0.000262
0.000207
0.000230
0.000269
0.000261
0.000262
0.000275
0.000412
0.000057
0.000378
0.000212
0.000189
0.000212
0.000249
0.000239
0.000239
0.000227
0.001427
0.000522
0.000379
0.000292
0.000227
0.000211
0.000241
0.000254
0.000249
0.000281
0.000260
0.000304
0.000302
0.000485
0.000486
0.001343
0.000248
0.000243
0.000275
0.000263
0.000265
0.000279
0.000569
0.000056
0.000267
0.000215
0.000245
0.000238
0.000214
0.000241
0.000260
0.000248
0.000276
0.001609
0.000339
0.000241
0.000258
0.000263
0.000458
0.000296
0.000399
0.000469
0.000335
0.000318
0.000480
0.000419
0.001321
0.000227
0.000226
0.000228
0.001798
0.000381
0.000619
0.000308
0.000153
0.000056
0.000210
0.000198
0.000238
0.000236
0.000246
0.000251
0.000353
0.000472
0.000442
0.000423
0.000304
0.000211
0.000208
0.000268
0.000258
0.000259
0.000258
0.000250
0.000257
0.000269
0.000251
0.000466
0.001327
0.000253
0.000227
0.000260
0.001888
0.000400
0.000370
0.000363
0.000160
0.000057
0.000238
0.000213
0.000240
0.001575
0.000389
0.000241
0.000233
0.000270
0.000254
0.000326
0.000363
0.000377
0.000355
0.000323
0.000264
0.000529
0.000322
0.001287
0.000262
0.000206
0.000215
0.000265
0.000363
0.000463
0.000534
0.000476
0.000222
0.000213
0.000270
0.000276
0.000214
0.000056
0.000183
0.000195
0.001463
0.000415
0.000199
0.000201
0.000231
0.000249
0.000248
0.000252
0.000249
0.000272
0.000273
0.000264
0.000249
0.000474
0.000345
0.000361
0.001379
0.000276
0.000213
0.000274
0.000243
0.000265
0.000404
0.000483
0.000433
0.000293
0.000294
0.000249
0.000401
0.000057
0.000185
0.000204
0.000253
0.000261
0.001580
0.000234
0.000253
0.000248
0.000260
0.000252
0.000251
0.000266
0.000261
0.000243
0.000348
0.000568
0.001464
0.000736
0.000238
0.000325
0.000244
0.000219
0.000235
0.000266
0.001752
0.000738
0.000256
0.000236
0.000283
0.000278
0.000207
0.000056
0.000194
0.000203
0.000260
0.000242
0.000242
0.000258
0.000245
0.000272
0.000231
0.000224
0.000287
0.000277
0.000253
0.000259
0.000255
0.000257
0.000280
0.001587
0.000676
0.000382
0.000361
0.000233
0.000209
0.000271
0.000288
0.000257
0.000270
0.000266
0.001509
0.000336
0.000308
0.000057
0.000190
0.000205
0.000237
0.000248
0.000263
0.000231
0.000249
0.000258
0.000248
0.000278
0.000212
0.000459
0.000449
0.000365
0.000213
0.000219
0.000267
0.001456
0.000694
0.000386
0.000357
0.000302
0.000213
0.000228
0.000274
0.000250
0.000268
0.000258
0.001503
0.000427
0.000231
0.000056
0.000183
0.000199
0.000238
0.000252
0.000252
0.000236
0.000245
0.000253
0.000263
0.000280
0.000361
0.000385
0.000319
0.000226
0.000234
0.000242
0.000263
0.000254
0.001566
0.000612
0.000479
0.000356
0.000223
0.000240
0.000253
0.000267
0.000265
0.000277
0.000272
0.001516
0.000224
0.000056
0.000206
0.000204
0.000216
0.000252
0.000261
0.000241
0.000290
0.000347
0.000368
0.000418
0.000392
0.000377
0.000317
0.000210
0.000242
0.000229
0.000275
0.000265
0.001391
0.000880
0.000319
0.000209
0.000477
0.000214
0.000217
0.000245
0.000279
0.000260
0.000255
0.000278
0.000464
0.000056
0.000220
0.000285
0.000206
0.000235
0.000257
0.000254
0.000227
0.000237
0.000262
0.000251
0.000254
0.000235
0.000265
0.000482
0.000533
0.000369
0.000223
0.000256
0.000253
0.000252
0.000258
0.000362
0.001399
0.001040
0.000252
0.000224
0.000269
0.000259
0.000277
0.000253
0.000219
0.000056
0.000188
0.001392
0.000269
0.000205
0.000190
0.000255
0.000251
0.000244
0.000232
0.000259
0.000251
0.000262
0.000236
0.000445
0.000347
0.000470
0.000268
0.000209
0.000259
0.000275
0.000267
0.000235
0.000262
0.000252
0.001407
0.000672
0.000305
0.000397
0.000371
0.000400
0.000269
0.000057
0.000195
0.000215
0.000366
0.001302
0.000244
0.000257
0.000196
0.000254
0.000256
0.000259
0.000256
0.000244
0.000279
0.000324
0.000602
0.000334
0.000203
0.000312
0.000276
0.000221
0.000238
0.000269
0.000239
0.000264
0.000273
0.001549
0.000728
0.000295
0.000282
0.000271
0.000210
0.000056
0.000193
0.000264
0.000430
0.001475
0.000288
0.000184
0.000196
0.000199
0.000245
0.000235
0.000249
0.000254
0.000241
0.000230
0.000259
0.000249
0.000274
0.000229
0.000259
0.000260
0.000262
0.000278
0.000322
0.000310
0.000227
0.000244
0.000274
0.001526
0.000263
0.000206
0.000168
0.000058
0.000174
0.000214
0.000247
0.000334
0.000347
0.000338
0.000404
0.000252
0.001556
0.000252
0.000295
0.000465
0.000382
0.000228
0.000489
0.000224
0.000225
0.000227
0.000258
0.000279
0.000274
0.000267
0.000262
0.000260
0.000288
0.000491
0.000344
0.000336
0.001528
0.000249
0.000171
0.000057
0.000218
0.000215
0.000250
0.000243
0.000248
0.000234
0.000276
0.000327
0.000416
0.002073
0.000209
0.000194
0.000254
0.000264
0.000262
0.000326
0.000244
0.000225
0.000243
0.000466
0.000328
0.000449
0.001527
0.000220
0.000222
0.000503
0.001766
0.000284
0.000267
0.001485
0.000190
0.000057
0.000342
0.000349
0.000501
0.000232
0.000269
0.000225
0.000255
0.000265
0.000270
0.000238
0.000242
0.000317
0.000431
0.000344
0.000501
0.000207
0.000217
0.001544
0.000500
0.001994
0.000290
0.000267
0.000214
0.001603
0.002001
0.000722
0.000281
0.000224
0.000364
0.000326
0.000405
0.000056
0.000197
0.000214
0.000247
0.000255
0.001486
0.001666
0.001083
0.000220
0.000217
0.001592
0.001962
0.000238
0.000313
0.000408
0.000298
0.000351
0.000391
0.000406
0.000262
0.000228
0.000249
0.000247
0.000273
0.001568
0.001306
0.001415
0.000269
0.000240
0.000269
0.000280
0.000386
0.000057
0.000205
0.000240
0.000232
0.000215
0.000232
0.000230
0.000256
0.000253
0.000249
0.000255
0.000245
0.000343
0.000412
0.000497
0.000319
0.000208
0.000227
0.000266
0.000268
0.000262
0.000252
0.001468
0.000383
0.000449
0.002063
0.000269
0.000229
0.000327
0.000566
0.000352
0.000159
0.000056
0.000229
0.000270
0.000531
0.000293
0.000213
0.000212
0.000242
0.000256
0.000238
0.000242
0.000255
0.000261
0.000257
0.001605
0.001430
0.001227
0.000271
0.000233
0.000216
0.000240
0.000277
0.000287
0.000251
0.000247
0.002267
0.000254
0.000199
0.000271
0.000329
0.000305
0.000239
0.000058
0.000188
0.000344
0.000620
0.000338
0.000208
0.000198
0.000225
0.000262
0.001900
0.001427
0.000263
0.000378
0.000389
0.000359
0.000260
0.000219
0.000219
0.000272
0.000264
0.000261
0.000266
0.000250
0.000488
0.000231
0.000265
0.000279
0.000236
0.000278
0.000290
0.000234
0.000228
0.000057
0.000187
0.000225
0.000242
0.000256
0.000239
0.000267
0.001535
0.001496
0.001336
0.000215
0.000198
0.000220
0.000271
0.000257
0.000268
0.000237
0.000253
0.002164
0.000213
0.000219
0.000249
0.000271
0.000252
0.000271
0.000265
0.000261
0.000268
0.000256
0.000268
0.000262
0.000193
0.000056
0.001507
0.000320
0.002385
0.000252
0.000299
0.000296
0.000242
0.000255
0.000272
0.000246
0.000247
0.000253
0.000231
0.000241
0.000265
0.000255
0.000261
0.000274
0.000261
0.000268
0.000260
0.000280
0.000275
0.000292
0.000239
0.000234
0.000255
0.000279
0.000262
0.000269
0.000393
0.000056
0.000194
0.002687
0.000216
0.000194
0.000194
0.000213
0.000252
0.000258
0.000254
0.000263
0.000341
0.000483
0.000280
0.000248
0.000212
0.002232
0.000210
0.000221
0.000235
0.000517
0.000419
0.000270
0.000217
0.000245
0.000265
0.000240
0.000268
0.000279
0.000274
0.001688
0.001212
0.000056
0.000203
0.000211
0.000234
0.000452
0.000371
0.000254
0.000229
0.000225
0.000235
0.000266
0.000259
0.000251
0.000231
0.000247
0.000272
0.000242
0.000340
0.000600
0.000400
0.000245
0.000220
0.000231
0.000280
0.000257
0.000261
0.000237
0.000258
0.000282
0.000252
0.000278
0.000413
0.000056
0.001118
0.000240
0.000321
0.000460
0.000341
0.000206
0.000194
0.000219
0.002333
0.000322
0.000320
0.000376
0.000220
0.000268
0.000335
0.000262
0.000277
0.000250
0.000268
0.000233
0.000248
0.000271
0.000585
0.000551
0.001796
0.001243
0.000586
0.000565
0.000246
0.000242
0.000208
0.000056
0.000280
0.000309
0.000230
0.000239
0.000239
0.000250
0.000233
0.000239
0.000268
0.000252
0.000247
0.000240
0.000246
0.000245
0.000365
0.000672
0.001760
0.001332
0.000430
0.000392
0.000444
0.000245
0.000248
0.000259
0.002287
0.000409
0.000359
0.000247
0.000278
0.000279
0.000232
0.000057
0.000184
0.000223
0.000252
0.000241
0.000245
0.000318
0.000465
0.000308
0.000315
0.000242
0.000239
0.000265
0.000234
0.002081
0.000383
0.000395
0.000222
0.000232
0.000269
0.000260
0.000256
0.002445
0.000372
0.000200
0.000259
0.000261
0.000241
0.000266
0.000277
0.000296
0.000206
0.000056
0.000195
0.000367
0.000559
0.000383
0.000221
0.000220
0.000192
0.000253
0.000264
0.001947
0.000321
0.000409
0.000258
0.000258
0.000205
0.000248
0.000271
0.000242
0.002278
0.000384
0.000217
0.000272
0.000271
0.000252
0.000265
0.000239
0.000285
0.000252
0.000269
0.000265
0.000202
0.000057
0.000203
0.000226
0.000270
0.000198
0.000246
0.000260
0.000257
0.000232
0.000231
0.002170
0.000256
0.000269
0.000205
0.000497
0.000207
0.000224
0.000250
0.000284
0.000255
0.000263
0.002028
0.000283
0.000350
0.000354
0.000495
0.000340
0.000283
0.000252
0.000221
0.000260
0.000199
0.000056
0.000180
0.000225
0.000239
0.000241
0.000267
0.000368
0.000202
0.002333
0.000220
0.000227
0.000219
0.000258
0.000243
0.000238
0.000305
0.002210
0.000530
0.000207
0.000249
0.000242
0.000264
0.000258
0.000282
0.000271
0.000262
0.000250
0.000288
0.000253
0.000266
0.000313
0.000164
0.000056
0.000193
0.003013
0.000251
0.000212
0.000240
0.000247
0.000251
0.000264
0.000420
0.000417
0.002094
0.000260
0.000245
0.000259
0.000272
0.000583
0.000382
0.000302
0.000220
0.000208
0.000247
0.000259
0.000266
0.000242
0.000241
0.000262
0.000276
0.000262
0.000382
0.000634
0.000309
0.000057
0.000186
0.000284
0.000258
0.000220
0.000231
0.000255
0.000252
0.000243
0.001594
0.002075
0.000551
0.000234
0.000395
0.000784
0.000355
0.000214
0.000198
0.000246
0.000272
0.000252
0.000280
0.000223
0.000248
0.000273
0.001834
0.001441
0.000289
0.000330
0.000252
0.000426
0.000339
0.000058
0.001926
0.000235
0.000227
0.000201
0.000283
0.000351
0.000506
0.000287
0.000309
0.000229
0.000225
0.000212
0.000256
0.000245
0.000266
0.000261
0.000254
0.000261
0.001915
0.000209
0.000203
0.000246
0.000271
0.000288
0.000270
0.000258
0.001542
0.000331
0.000219
0.000214
0.000183
0.000057
0.000195
0.000207
0.000234
0.000236
0.000254
0.000240
0.000268
0.000429
0.000375
0.000377
0.000207
0.000198
0.000335
0.000325
0.000382
0.000328
0.000220
0.000222
0.000247
0.000377
0.000551
0.000417
0.000227
0.000211
0.000258
0.000254
0.000256
0.000269
0.000274
0.000264
0.000210
0.000058
0.001439
0.000406
0.000237
0.001993
0.000243
0.000447
0.000367
0.000385
0.000201
0.000207
0.000266
0.000242
0.000246
0.000251
0.000277
0.000262
0.000442
0.000280
0.000459
0.000316
0.000371
0.000233
0.000246
0.000264
0.000329
0.000232
0.000233
0.000273
0.000318
0.000554
0.001378
0.000057
0.000195
0.000195
0.002078
0.000338
0.000266
0.000262
0.000254
0.000261
0.000255
0.000254
0.000222
0.000242
0.000263
0.000250
0.000264
0.000379
0.000688
0.001743
0.000255
0.000257
0.000250
0.000261
0.000384
0.000501
0.001513
0.000269
0.000357
0.002007
0.000232
0.000246
0.000192
0.000057
0.000188
0.000216
0.000222
0.000259
0.000217
0.000250
0.000248
0.000280
0.000343
0.000300
0.000382
0.000365
0.000353
0.000284
0.000212
0.000264
0.000264
0.000236
0.000258
0.000261
0.000276
0.000328
0.000243
0.000264
0.000286
0.001564
0.000284
0.000400
0.001990
0.000266
0.000169
0.000057
0.000192
0.000234
0.000235
0.000247
0.000466
0.000228
0.000246
0.000341
0.000375
0.000396
0.000206
0.000221
0.000244
0.000272
0.000278
0.000327
0.000509
0.000336
0.000271
0.000362
0.000595
0.000418
0.001573
0.000262
0.000243
0.002012
0.000353
0.000215
0.000229
0.000262
0.000200
0.000057
0.000207
0.000221
0.000208
0.000252
0.000247
0.000266
0.000260
0.000266
0.000251
0.000252
0.001889
0.000343
0.000337
0.000319
0.000461
0.000358
0.001515
0.000347
0.000227
0.000291
0.002032
0.000640
0.000233
0.000227
0.000228
0.000274
0.000492
0.000236
0.000242
0.000279
0.000218
0.000057
0.000319
0.000397
0.000309
0.000261
0.000202
0.000229
0.000254
0.000251
0.000263
0.000296
0.000237
0.000242
0.000256
0.000266
0.000385
0.000387
0.001361
0.000264
0.000308
0.001991
0.000316
0.000286
0.000194
0.000252
0.000240
0.000284
0.000263
0.000265
0.000245
0.000261
0.000226
0.000056
0.000228
0.000444
0.002048
0.000213
0.000244
0.000224
0.000207
0.000297
0.000466
0.001580
0.000256
0.000351
0.000339
0.001997
0.000232
0.000264
0.000235
0.000272
0.000261
0.000234
0.000288
0.000287
0.000263
0.000392
0.000456
0.000417
0.000329
0.002164
0.000504
0.000458
0.000460
0.000058
0.000196
0.000215
0.000215
0.002040
0.000196
0.000218
0.000241
0.000257
0.000198
0.000254
0.000240
0.000271
0.000253
0.000283
0.000492
0.000350
0.001348
0.000209
0.000270
0.000273
0.000213
0.000254
0.000269
0.000264
0.000373
0.000421
0.000466
0.000247
0.001675
0.000225
0.000153
0.000057
0.000216
0.000200
0.000222
0.000233
0.000244
0.000253
0.000255
0.000246
0.000276
0.000351
0.000372
0.001524
0.000188
0.000184
0.000221
0.000265
0.000264
0.000253
0.000270
0.000535
0.000387
0.000461
0.000207
0.001566
0.000255
0.000230
0.000286
0.000277
0.000267
0.000272
0.000206
0.000056
0.000200
0.000203
0.000271
0.000262
0.000256
0.000240
0.000240
0.000232
0.000262
0.000236
0.000262
0.000251
0.000253
0.000257
0.001620
0.000208
0.000234
0.000265
0.000330
0.000321
0.000364
0.000267
0.000217
0.000238
0.000251
0.000281
0.001456
0.000299
0.000207
0.000226
0.000176
0.000057
0.000196
0.000232
0.000234
0.000273
0.000268
0.000220
0.000242
0.000272
0.000214
0.000266
0.000235
0.000265
0.000229
0.000319
0.000355
0.000334
0.000329
0.001577
0.000339
0.000217
0.000215
0.000230
0.000252
0.000375
0.000339
0.000450
0.000414
0.000242
0.000224
0.001598
0.000194
0.000057
0.000333
0.000397
0.000284
0.000304
0.000206
0.000212
0.000240
0.000271
0.000250
0.000267
0.000216
0.000244
0.001467
0.000320
0.000299
0.000227
0.000218
0.000262
0.000264
0.000269
0.000256
0.000242
0.000259
0.000268
0.000244
0.000402
0.000484
0.000387
0.000245
0.000213
0.000197
0.000056
0.000211
0.000264
0.000449
0.000333
0.000364
0.000270
0.000200
0.000252
0.000245
0.000264
0.000248
0.000220
0.000251
0.000253
0.001328
0.000269
0.000234
0.000212
0.000258
0.000272
0.000245
0.000256
0.000256
0.000264
0.000258
0.000255
0.000277
0.000711
0.000509
0.000211
0.000179
0.000057
0.000183
0.001537
0.000326
0.000273
0.000442
0.000408
0.000204
0.000229
0.000263
0.000249
0.000252
0.000257
0.000273
0.000272
0.000263
0.001521
0.000253
0.000284
0.000263
0.000260
0.000260
0.000249
0.000265
0.000271
0.000255
0.000261
0.000421
0.000436
0.000352
0.000225
0.000178
0.000057
0.000200
0.000225
0.000241
0.001711
0.000410
0.000322
0.000200
0.000206
0.000244
0.000267
0.000274
0.000262
0.000251
0.000264
0.000238
0.000259
0.000346
0.001448
0.000220
0.000223
0.001530
0.000435
0.000450
0.000476
0.000218
0.000230
0.000252
0.000468
0.000243
0.000250
0.000194
0.000056
0.000270
0.000225
0.000210
0.000245
0.000240
0.000267
0.000238
0.000250
0.000259
0.000235
0.000263
0.000248
0.000420
0.000385
0.001679
0.001484
0.000391
0.000464
0.000393
0.000223
0.000227
0.000257
0.000244
0.000265
0.000253
0.000262
0.000263
0.000286
0.001593
0.000308
0.000132
0.000056
0.000198
0.000339
0.000351
0.000331
0.000259
0.000198
0.000226
0.000393
0.000360
0.001438
0.000348
0.001550
0.000362
0.000518
0.000403
0.000260
0.000349
0.000332
0.000353
0.000276
0.000235
0.000347
0.001570
0.000532
0.000242
0.000228
0.000263
0.000247
0.000271
0.000262
0.000216
0.000057
0.000180
0.000228
0.000277
0.000237
0.000243
0.001651
0.000957
0.000919
0.000223
0.000232
0.000247
0.000276
0.000246
0.000255
0.000261
0.000250
0.000255
0.000267
0.000264
0.000284
0.001503
0.000269
0.000255
0.000217
0.000214
0.000258
0.000262
0.000287
0.000260
0.000274
0.000218
0.000057
0.000192
0.000201
0.001537
0.000937
0.000371
0.000375
0.000189
0.000198
0.000254
0.000244
0.000242
0.000262
0.000246
0.002053
0.000468
0.000208
0.000212
0.000234
0.000258
0.000260
0.000214
