0.000197
0.018991
0.002621
0.000304
0.000267
0.000296
0.000323
0.000229
0.000330
0.000278
0.000270
0.000316
0.000528
0.000460
0.000369
0.000387
0.000269
0.000339
0.000352
0.000421
0.000314
0.001916
0.000711
0.000267
0.000236
0.000311
0.000317
0.000308
0.000423
0.000372
0.000507
0.000296
0.000058
0.000205
0.000272
0.000269
0.000291
0.000247
0.000253
0.000276
0.000288
0.000264
0.000271
0.000445
0.000406
0.000325
0.000251
0.000370
0.000353
0.000364
0.000252
0.000255
0.001694
0.000318
0.000257
0.000446
0.000269
0.000258
0.000274
0.000292
0.000292
0.000300
0.000297
0.000402
0.000056
0.000197
0.000252
0.000258
0.000265
0.000250
0.000248
0.000260
0.000258
0.000282
0.001670
0.000235
0.000223
0.000274
0.000267
0.000283
0.000250
0.000264
0.000251
0.000355
0.001795
0.000242
0.000282
0.000442
0.000432
0.000385
0.000232
0.000264
0.000451
0.000490
0.000802
0.000195
0.000056
0.000226
0.000255
0.000249
0.000242
0.000286
0.000276
0.000288
0.000599
0.000356
0.000254
0.000241
0.000250
0.000245
0.000255
0.000260
0.000251
0.000244
0.000270
0.000296
0.000337
0.001657
0.000276
0.000245
0.000426
0.000316
0.000704
0.000629
0.000537
0.000347
0.000240
0.000194
0.000056
0.000213
0.000244
0.000292
0.000228
0.000269
0.000231
0.000266
0.000455
0.001472
0.000216
0.000252
0.000243
0.000255
0.000254
0.000265
0.000303
0.000271
0.000798
0.001388
0.000294
0.000238
0.000411
0.000252
0.000243
0.000260
0.000260
0.000266
0.000265
0.000264
0.000268
0.000193
0.000055
0.000216
0.000242
0.000247
0.000265
0.000235
0.000250
0.000236
0.000254
0.000236
0.000255
0.001625
0.000272
0.000241
0.000238
0.000254
0.000246
0.000254
0.000243
0.000255
0.000252
0.000296
0.001638
0.000287
0.000260
0.000422
0.000284
0.000234
0.000258
0.000260
0.000272
0.000198
0.000056
0.000188
0.000229
0.000249
0.000247
0.000242
0.000251
0.000257
0.000237
0.000265
0.000280
0.000228
0.000261
0.000257
0.000270
0.001627
0.000282
0.000299
0.000214
0.000254
0.000292
0.000248
0.000234
0.000243
0.000267
0.001787
0.000401
0.000333
0.000377
0.000231
0.000280
0.000202
0.000057
0.000208
0.000234
0.000249
0.000273
0.000257
0.000262
0.000278
0.000376
0.000454
0.000397
0.000210
0.000244
0.000259
0.000243
0.001557
0.000543
0.000311
0.000413
0.000336
0.000212
0.000267
0.000284
0.000270
0.001749
0.000504
0.000460
0.000259
0.000235
0.000250
0.000255
0.000193
0.000056
0.000216
0.000229
0.000257
0.000261
0.000327
0.000435
0.000403
0.000266
0.000216
0.000247
0.000262
0.000237
0.000263
0.001700
0.000484
0.000301
0.000223
0.000249
0.000271
0.000295
0.000238
0.000260
0.000274
0.001959
0.000239
0.000389
0.000245
0.000250
0.000268
0.000397
0.000328
0.000056
0.000209
0.000382
0.000366
0.000274
0.000257
0.000246
0.000252
0.000273
0.000221
0.000236
0.000235
0.000249
0.001552
0.000387
0.000285
0.000223
0.000257
0.000246
0.000254
0.000303
0.000361
0.000223
0.000243
0.001813
0.000243
0.000506
0.000242
0.000259
0.000253
0.000268
0.000267
0.000057
0.000356
0.000529
0.000609
0.000209
0.000233
0.000273
0.000231
0.000228
0.000256
0.000253
0.000253
0.001696
0.000253
0.000443
0.000365
0.000223
0.000243
0.000229
0.000248
0.000255
0.000258
0.001857
0.000229
0.000467
0.001860
0.000548
0.000342
0.000242
0.000257
0.000266
0.000184
0.000056
0.000216
0.000244
0.000242
0.000241
0.000259
0.001615
0.000250
0.000243
0.000254
0.000251
0.000246
0.000248
0.000242
0.000259
0.000278
0.000395
0.000639
0.000253
0.000238
0.000268
0.000296
0.000216
0.000247
0.000431
0.000439
0.000325
0.000270
0.000551
0.000439
0.000283
0.000209
0.000057
0.000205
0.000227
0.000253
0.000248
0.000241
0.000240
0.000253
0.000463
0.000358
0.001734
0.000201
0.000236
0.000244
0.000247
0.000262
0.000497
0.000189
0.000510
0.000338
0.000236
0.000267
0.000300
0.000276
0.000254
0.000267
0.000436
0.000357
0.000635
0.000426
0.000444
0.000180
0.000056
0.000191
0.000252
0.000247
0.000237
0.000236
0.000236
0.000253
0.000259
0.000227
0.000286
0.000340
0.000451
0.001384
0.000239
0.000236
0.000252
0.000258
0.000246
0.000248
0.000254
0.000322
0.000428
0.000387
0.000272
0.000265
0.000257
0.000263
0.000269
0.000266
0.000264
0.000372
0.000057
0.000188
0.000239
0.000229
0.000285
0.000557
0.000410
0.000212
0.000259
0.000241
0.000261
0.000256
0.000231
0.000318
0.000242
0.000224
0.000474
0.000511
0.001551
0.000279
0.000235
0.000271
0.000255
0.000253
0.000246
0.000263
0.000558
0.000348
0.000340
0.000423
0.000249
0.000191
0.000057
0.000236
0.000430
0.000229
0.000218
0.000288
0.000222
0.000282
0.000579
0.000392
0.000249
0.000238
0.000277
0.000256
0.000243
0.000524
0.000340
0.000217
0.000319
0.000607
0.001361
0.000280
0.000233
0.000542
0.000234
0.000284
0.000277
0.000245
0.000530
0.000405
0.000343
0.000265
0.000056
0.000218
0.000233
0.000240
0.000241
0.000417
0.000306
0.000291
0.000222
0.000450
0.000462
0.000378
0.000214
0.000245
0.000237
0.000255
0.000267
0.000254
0.000251
0.000236
0.000348
0.000289
0.000300
0.001897
0.000223
0.000259
0.000256
0.000276
0.000355
0.000430
0.000682
0.000434
0.000056
0.000230
0.000334
0.000316
0.000409
0.000383
0.000223
0.000242
0.000277
0.000568
0.000374
0.000262
0.000243
0.000235
0.000272
0.000259
0.000234
0.000249
0.000278
0.000269
0.000264
0.000257
0.000399
0.000675
0.001334
0.000319
0.000432
0.000423
0.000243
0.000503
0.000347
0.000311
0.000057
0.000236
0.000380
0.000279
0.000208
0.000232
0.000248
0.000413
0.000233
0.000240
0.000387
0.000411
0.000377
0.000300
0.000257
0.000262
0.000247
0.000353
0.000393
0.000343
0.000259
0.000257
0.000519
0.000464
0.001697
0.000236
0.000420
0.000316
0.000229
0.000268
0.000436
0.000306
0.000057
0.000194
0.000220
0.000250
0.000258
0.000246
0.000233
0.000251
0.000324
0.000458
0.000385
0.000310
0.000368
0.000317
0.000579
0.000246
0.000238
0.000275
0.000265
0.000229
0.000340
0.000252
0.000223
0.000277
0.000499
0.000364
0.001691
0.000274
0.000235
0.000246
0.000269
0.000188
0.000058
0.000345
0.000426
0.000341
0.000216
0.000249
0.000244
0.000255
0.000240
0.000267
0.000239
0.000225
0.000264
0.000427
0.000494
0.000450
0.000227
0.000245
0.000263
0.000337
0.000380
0.000381
0.000336
0.000360
0.000399
0.000252
0.000254
0.000264
0.000271
0.001789
0.000239
0.000207
0.000056
0.000210
0.000217
0.000257
0.000293
0.000330
0.000541
0.000319
0.000221
0.000288
0.000231
0.000251
0.000251
0.000517
0.000449
0.000483
0.000273
0.000267
0.000263
0.000421
0.000465
0.000356
0.000412
0.000525
0.000411
0.000238
0.000248
0.000262
0.000248
0.000262
0.001714
0.000324
0.000057
0.000261
0.000318
0.000211
0.000237
0.000255
0.000252
0.000232
0.000498
0.000377
0.000311
0.000286
0.000261
0.000398
0.000685
0.000271
0.000233
0.000255
0.000255
0.000252
0.000265
0.000280
0.000264
0.000240
0.000264
0.000329
0.000442
0.000306
0.000364
0.000225
0.000257
0.000198
0.000056
0.000458
0.000304
0.000437
0.000283
0.000191
0.000247
0.000243
0.000260
0.000241
0.000220
0.000251
0.000277
0.000303
0.000443
0.000385
0.000515
0.000321
0.000316
0.000375
0.000349
0.000295
0.000241
0.000247
0.000263
0.001742
0.000265
0.001717
0.000928
0.000408
0.000324
0.000171
0.000056
0.000193
0.000242
0.000235
0.000242
0.000270
0.000241
0.000251
0.000250
0.000244
0.000341
0.000328
0.000435
0.000335
0.000386
0.000271
0.000222
0.000254
0.000295
0.000225
0.000253
0.000250
0.000263
0.001810
0.000258
0.000241
0.000264
0.000278
0.000265
0.001871
0.000542
0.000246
0.000065
0.000172
0.000210
0.000240
0.000239
0.000265
0.000259
0.000217
0.000259
0.000282
0.000317
0.000598
0.000321
0.000370
0.000221
0.000252
0.000253
0.000324
0.000435
0.000367
0.000253
0.001777
0.000262
0.000244
0.000255
0.000260
0.000268
0.000248
0.000254
0.000319
0.000304
0.000383
0.000055
0.000252
0.000212
0.000247
0.000296
0.000218
0.000237
0.000256
0.000257
0.000238
0.000255
0.000242
0.000310
0.000359
0.000343
0.000378
0.000267
0.000462
0.000241
0.000254
0.000252
0.000261
0.000268
0.000265
0.000254
0.000278
0.001781
0.000255
0.000252
0.000264
0.000234
0.000201
0.000056
0.000262
0.000368
0.000238
0.000228
0.000252
0.000215
0.000237
0.000259
0.000244
0.000225
0.000232
0.000262
0.000265
0.000373
0.000383
0.000363
0.000309
0.000220
0.000256
0.000255
0.000262
0.000257
0.000247
0.000270
0.000258
0.000260
0.000366
0.001619
0.000221
0.000241
0.000189
0.000056
0.000209
0.000240
0.000247
0.000260
0.000341
0.000461
0.000258
0.000353
0.000229
0.000251
0.000272
0.000243
0.000229
0.000262
0.000259
0.000261
0.000241
0.000255
0.000252
0.000261
0.000270
0.000266
0.000245
0.000239
0.000247
0.000275
0.000277
0.000260
0.000258
0.000260
0.000189
0.000056
0.000240
0.000212
0.000254
0.000282
0.000228
0.000234
0.000237
0.000266
0.000282
0.000241
0.000226
0.000253
0.000254
0.000249
0.000292
0.000240
0.000257
0.000247
0.000318
0.000232
0.000274
0.000317
0.000271
0.000220
0.000315
0.000243
0.000267
0.000251
0.000269
0.000402
0.000744
0.000056
0.000219
0.000294
0.000218
0.000232
0.000237
0.000254
0.000241
0.000250
0.000248
0.000241
0.000269
0.000295
0.000482
0.000564
0.001485
0.000215
0.000486
0.000227
0.000255
0.000434
0.000462
0.000377
0.000225
0.000281
0.000249
0.000261
0.000282
0.000256
0.000339
0.000241
0.000174
0.000057
0.000347
0.000433
0.000354
0.000283
0.000237
0.000269
0.000224
0.000243
0.000232
0.000249
0.000252
0.000259
0.000229
0.000384
0.000246
0.000485
0.000415
0.001781
0.000230
0.000263
0.000506
0.000266
0.000455
0.000271
0.000320
0.000316
0.000301
0.000229
0.000233
0.000252
0.000198
0.000056
0.000224
0.000232
0.000233
0.000304
0.000339
0.000488
0.000321
0.000238
0.000248
0.000218
0.000250
0.000265
0.000267
0.000264
0.000264
0.000245
0.000345
0.000440
0.000348
0.000424
0.000240
0.001748
0.000325
0.000490
0.000486
0.000498
0.000328
0.000234
0.000247
0.000270
0.000444
0.000056
0.000198
0.000266
0.000222
0.000351
0.000422
0.000439
0.000322
0.000241
0.000231
0.000284
0.000250
0.000258
0.000255
0.000292
0.000310
0.000239
0.000231
0.000341
0.000498
0.000350
0.000500
0.001848
0.000246
0.000511
0.000423
0.000361
0.000232
0.000259
0.000293
0.000267
0.000195
0.000056
0.000206
0.000336
0.000360
0.000289
0.000436
0.000298
0.000371
0.000219
0.000235
0.000257
0.000279
0.000225
0.000253
0.000250
0.000252
0.000257
0.000331
0.000355
0.000515
0.000354
0.000311
0.000238
0.000257
0.001707
0.000438
0.000492
0.000693
0.000241
0.000260
0.000308
0.000158
0.000056
0.000190
0.000238
0.000351
0.000229
0.000290
0.000310
0.000452
0.000311
0.000265
0.000502
0.000229
0.000253
0.000258
0.000277
0.000274
0.000266
0.000210
0.000343
0.000649
0.000270
0.000260
0.000232
0.000249
0.000259
0.000259
0.000264
0.000242
0.000256
0.000270
0.000287
0.000213
0.000057
0.000294
0.000341
0.000221
0.000258
0.000248
0.000255
0.000242
0.000284
0.000246
0.000247
0.000277
0.000333
0.000420
0.000402
0.000343
0.000272
0.000228
0.000234
0.000257
0.000267
0.000286
0.000277
0.000220
0.000259
0.000282
0.000350
0.000351
0.000394
0.000366
0.000234
0.000174
0.000057
0.000211
0.000224
0.000279
0.000244
0.000239
0.000269
0.000264
0.000234
0.000492
0.000214
0.000255
0.000262
0.000235
0.000268
0.000273
0.000290
0.000242
0.000361
0.000206
0.000244
0.000258
0.000266
0.000256
0.000270
0.000273
0.000268
0.000256
0.000254
0.000258
0.000494
0.000168
0.000056
0.000212
0.000241
0.000257
0.000281
0.000201
0.000240
0.000370
0.000422
0.000216
0.000239
0.000249
0.000254
0.000239
0.000245
0.000388
0.001854
0.000233
0.000260
0.000289
0.000327
0.000405
0.000366
0.000369
0.000404
0.000506
0.000276
0.000244
0.000271
0.000288
0.000259
0.001385
0.000056
0.000380
0.000361
0.000193
0.000203
0.000239
0.000249
0.000233
0.000259
0.000242
0.000271
0.000244
0.000257
0.000252
0.000422
0.000359
0.001684
0.000245
0.000229
0.000242
0.000265
0.000237
0.000337
0.000311
0.000405
0.000282
0.000330
0.000224
0.000264
0.000274
0.000269
0.000193
0.000056
0.001215
0.000535
0.000301
0.000283
0.000240
0.000228
0.000226
0.000246
0.000492
0.000211
0.000240
0.000252
0.000384
0.000437
0.000422
0.000351
0.000263
0.000232
0.000325
0.000363
0.000277
0.000253
0.000268
0.000244
0.000268
0.000546
0.000548
0.000291
0.000268
0.000266
0.000172
0.000056
0.000214
0.000219
0.000255
0.000231
0.001432
0.000335
0.000223
0.000254
0.000259
0.000229
0.000251
0.000253
0.000243
0.000275
0.000260
0.000372
0.000394
0.000608
0.000259
0.001752
0.000248
0.000291
0.000299
0.000497
0.000499
0.000396
0.000242
0.000241
0.000260
0.000267
0.000200
0.000056
0.000228
0.000244
0.000233
0.000419
0.001145
0.000233
0.000262
0.000260
0.000241
0.000235
0.000241
0.000254
0.000277
0.000280
0.000213
0.000315
0.000485
0.000378
0.000329
0.000262
0.000264
0.000266
0.000247
0.000237
0.000281
0.000274
0.000238
0.000282
0.000278
0.000401
0.000501
0.000057
0.000221
0.000245
0.000243
0.000256
0.000266
0.000240
0.000237
0.000277
0.000272
0.000262
0.001413
0.000216
0.000245
0.000247
0.000248
0.000249
0.000289
0.000241
0.000284
0.000241
0.000306
0.000461
0.000505
0.000326
0.000237
0.000271
0.001757
0.000274
0.000240
0.000345
0.000368
0.000057
0.000195
0.000400
0.000450
0.000503
0.000518
0.000532
0.001511
0.000409
0.000517
0.000655
0.000551
0.000760
0.000494
0.000561
0.000581
0.001916
0.000405
0.000411
0.000402
0.000319
0.000215
0.000275
0.000292
0.000261
0.000276
0.000274
0.000288
0.000291
0.000262
0.000285
0.001365
0.000055
0.000201
0.000234
0.000243
0.000242
0.000258
0.000251
0.000241
0.000240
0.000249
0.000260
0.000234
0.000239
0.000260
0.000259
0.000259
0.000270
0.001803
0.000279
0.000245
0.000245
0.000269
0.000263
0.000265
0.000317
0.000415
0.000352
0.000360
0.000250
0.000258
0.000276
0.000204
0.000057
0.000196
0.001354
0.000330
0.000278
0.000247
0.000241
0.000241
0.000234
0.000234
0.000238
0.000227
0.000243
0.000250
0.000501
0.000364
0.000305
0.000248
0.001817
0.000366
0.000212
0.000246
0.000275
0.000251
0.000267
0.000276
0.000284
0.000264
0.000250
0.000275
0.000338
0.000183
0.000056
0.000223
0.000236
0.000254
0.001443
0.000211
0.000247
0.000264
0.000241
0.000237
0.000270
0.000244
0.000249
0.000243
0.000285
0.000242
0.000245
0.000268
0.000265
0.000269
0.000259
0.000254
0.001786
0.000295
0.001728
0.000260
0.000249
0.000267
0.000274
0.000264
0.000275
0.000204
0.000056
0.000208
0.000225
0.001350
0.000227
0.000255
0.000244
0.000264
0.000257
0.000242
0.000250
0.000256
0.000235
0.000261
0.000266
0.000257
0.000265
0.000280
0.000260
0.000307
0.000229
0.001876
0.000219
0.001836
0.000238
0.000268
0.000275
0.000234
0.000249
0.000247
0.000275
0.000199
0.000057
0.001421
0.000237
0.000212
0.000247
0.000242
0.000235
0.000373
0.000285
0.000248
0.000263
0.000232
0.000261
0.000229
0.000354
0.000459
0.000233
0.000251
0.000272
0.000264
0.000250
0.000265
0.000341
0.000228
0.000254
0.000268
0.000276
0.000274
0.000463
0.000514
0.000371
0.000195
0.000057
0.000198
0.000243
0.000265
0.000310
0.000387
0.000233
0.001709
0.000287
0.000275
0.000279
0.000250
0.000271
0.000265
0.000268
0.000295
0.000309
0.000409
0.000499
0.000388
0.000258
0.000290
0.000284
0.000265
0.000264
0.000333
0.000250
0.000291
0.000236
0.000256
0.000305
0.000426
0.000055
0.000256
0.000460
0.000270
0.000261
0.000250
0.000225
0.000235
0.000241
0.000261
0.000271
0.001538
0.000190
0.000218
0.000253
0.000246
0.000286
0.000285
0.000256
0.000237
0.000266
0.000260
0.000372
0.000549
0.000312
0.000267
0.000291
0.000263
0.000258
0.000236
0.000303
0.000173
0.000057
0.000206
0.000231
0.000373
0.000379
0.000363
0.000281
0.000215
0.000248
0.000254
0.000245
0.000237
0.000255
0.000254
0.000266
0.000240
0.000253
0.000415
0.001181
0.000243
0.000244
0.000281
0.000245
0.000354
0.000423
0.000256
0.000329
0.000583
0.000339
0.000380
0.000238
0.000178
0.000057
0.000239
0.000249
0.000267
0.000248
0.000257
0.000250
0.000360
0.000389
0.000442
0.000307
0.000325
0.000391
0.000393
0.000364
0.000262
0.000235
0.000245
0.000283
0.000360
0.000494
0.001247
0.000221
0.000275
0.000269
0.000233
0.000238
0.000266
0.000299
0.000457
0.000443
0.000215
0.000056
0.000205
0.000246
0.000259
0.000239
0.000238
0.000248
0.000238
0.000266
0.000299
0.000441
0.000291
0.000412
0.000259
0.000224
0.000254
0.000253
0.000253
0.000262
0.000264
0.000271
0.000430
0.000266
0.000375
0.000489
0.000228
0.000246
0.000272
0.000264
0.000253
0.000334
0.000160
0.000056
0.000315
0.000311
0.000286
0.000392
0.000512
0.000308
0.000243
0.000241
0.000243
0.000303
0.000252
0.000240
0.000233
0.000253
0.000247
0.000221
0.000266
0.000418
0.000575
0.000247
0.000211
0.000252
0.000249
0.000247
0.000263
0.000280
0.000272
0.000276
0.000267
0.000271
0.000303
0.000057
0.000355
0.000252
0.000235
0.000271
0.000228
0.000244
0.000248
0.000253
0.000267
0.000253
0.000255
0.000233
0.000310
0.000466
0.000438
0.000314
0.000219
0.000244
0.000259
0.000262
0.000277
0.000246
0.000257
0.000271
0.000270
0.000343
0.000396
0.000606
0.000387
0.000244
0.000181
0.000056
0.000400
0.000194
0.000238
0.000246
0.000250
0.000240
0.000239
0.000253
0.000259
0.000257
0.000223
0.000247
0.000268
0.000225
0.000242
0.000262
0.000254
0.000268
0.000296
0.000240
0.000261
0.000260
0.000267
0.000262
0.000260
0.000241
0.000279
0.000263
0.000257
0.000276
0.000201
0.000056
0.000230
0.000210
0.000243
0.000250
0.000228
0.000263
0.000259
0.000239
0.000260
0.000272
0.000251
0.000215
0.000265
0.000390
0.000259
0.000292
0.000246
0.000265
0.000253
0.000278
0.000277
0.000239
0.000238
0.000257
0.000269
0.000284
0.000239
0.000254
0.000273
0.000260
0.000207
0.000055
0.000210
0.000359
0.000364
0.000281
0.000297
0.000259
0.000271
0.000258
0.000218
0.000247
0.000277
0.000235
0.000248
0.000236
0.000264
0.000289
0.000231
0.000269
0.000242
0.000267
0.000274
0.000262
0.000280
0.000268
0.000275
0.000234
0.000258
0.000268
0.000270
0.000258
0.000197
0.000056
0.000215
0.000234
0.000262
0.000261
0.000254
0.000448
0.000227
0.000255
0.000250
0.000481
0.000463
0.000278
0.000227
0.000254
0.000269
0.000266
0.000236
0.000264
0.000263
0.000275
0.000266
0.000248
0.000258
0.000289
0.000494
0.000549
0.000250
0.000300
0.000263
0.000260
0.000189
0.000056
0.000206
0.000214
0.000250
0.000256
0.000392
0.000582
0.000310
0.000385
0.000207
0.000247
0.000245
0.000258
0.000248
0.000263
0.000241
0.000274
0.000271
0.000269
0.000612
0.000376
0.000303
0.000241
0.000260
0.000282
0.000279
0.000254
0.000266
0.000287
0.000249
0.000305
0.000299
0.000055
0.000318
0.000202
0.000243
0.000234
0.000258
0.000266
0.000216
0.000244
0.000243
0.000264
0.000261
0.000233
0.000246
0.000361
0.000605
0.000381
0.000240
0.000260
0.000261
0.000252
0.000263
0.000288
0.000477
0.000220
0.000262
0.000590
0.000444
0.000465
0.000249
0.000257
0.000181
0.000056
0.000212
0.000241
0.000248
0.000236
0.000257
0.000254
0.000350
0.000444
0.000531
0.000430
0.000211
0.000268
0.000277
0.000270
0.000257
0.000250
0.000233
0.000252
0.000276
0.000320
0.000373
0.000663
0.000366
0.000258
0.000356
0.000376
0.000494
0.000243
0.000262
0.000514
0.000272
0.000056
0.000272
0.000233
0.000439
0.000218
0.000236
0.000254
0.000259
0.000261
0.000232
0.000260
0.000291
0.000370
0.000341
0.000346
0.000240
0.000258
0.000254
0.000250
0.000261
0.000277
0.000295
0.000231
0.000254
0.000302
0.000261
0.000498
0.000491
0.000251
0.000239
0.000287
0.000190
0.000057
0.000202
0.000249
0.000230
0.000246
0.000248
0.000294
0.000312
0.000382
0.000471
0.000262
0.000375
0.000231
0.000255
0.000264
0.000251
0.000248
0.000250
0.000266
0.000303
0.000378
0.000475
0.000340
0.000480
0.000265
0.000381
0.000422
0.000382
0.000255
0.000249
0.000273
0.000410
0.000057
0.000245
0.000271
0.000222
0.000255
0.000282
0.000237
0.000267
0.000223
0.000273
0.000239
0.000237
0.000423
0.000378
0.000511
0.000236
0.000232
0.000272
0.000256
0.000268
0.000231
0.000252
0.000250
0.000266
0.000278
0.000278
0.000386
0.000481
0.000422
0.000242
0.000284
0.000188
0.000056
0.000210
0.000242
0.000275
0.000252
0.000237
0.000335
0.000528
0.000458
0.000480
0.000559
0.000255
0.000221
0.000244
0.000256
0.000247
0.000265
0.000278
0.000274
0.000483
0.000445
0.001480
0.000316
0.000266
0.000265
0.000282
0.000263
0.000350
0.000438
0.000364
0.000309
0.000189
0.000056
0.000197
0.000231
0.000248
0.000266
0.000232
0.000244
0.000303
0.000227
0.000242
0.000319
0.000334
0.000379
0.000269
0.000342
0.000393
0.000347
0.000243
0.000253
0.000269
0.000262
0.000240
0.000249
0.000306
0.000247
0.000302
0.000435
0.000463
0.000252
0.000258
0.000266
0.000188
0.000056
0.000206
0.000248
0.000260
0.000252
0.000241
0.000235
0.000479
0.000206
0.000234
0.000255
0.000246
0.000253
0.000281
0.000232
0.000253
0.000267
0.000261
0.000292
0.000264
0.000241
0.000298
0.000254
0.000284
0.000246
0.000264
0.000282
0.000266
0.000265
0.000261
0.000277
0.000170
0.000056
0.000212
0.000250
0.000289
0.000446
0.000347
0.000257
0.000237
0.000247
0.000259
0.000247
0.000250
0.000257
0.000263
0.000264
0.000236
0.000249
0.000260
0.000245
0.000329
0.000301
0.000433
0.000402
0.000232
0.000256
0.000269
0.000248
0.000267
0.000253
0.000272
0.000283
0.000199
0.000056
0.000340
0.000369
0.000452
0.000210
0.000252
0.000261
0.000412
0.000216
0.000236
0.000252
0.000249
0.000292
0.000352
0.000507
0.001804
0.000252
0.000242
0.000251
0.000277
0.000243
0.000343
0.000489
0.000547
0.000311
0.000238
0.000270
0.000267
0.000428
0.000273
0.000273
0.000171
0.000057
0.000318
0.000287
0.000347
0.000308
0.000499
0.000199
0.000243
0.000246
0.000254
0.000240
0.000263
0.000242
0.000266
0.000350
0.000342
0.000499
0.000226
0.000249
0.000266
0.000257
0.000265
0.000316
0.000235
0.000276
0.000279
0.000448
0.000504
0.000387
0.000469
0.000239
0.000204
0.000056
0.000220
0.000238
0.000255
0.000234
0.000245
0.000249
0.000270
0.000325
0.000303
0.000435
0.000398
0.000305
0.000225
0.000252
0.000268
0.000284
0.000297
0.000239
0.000274
0.000274
0.000235
0.000275
0.000556
0.000319
0.000282
0.000256
0.000265
0.000436
0.000414
0.000302
0.000188
0.000056
0.000197
0.000253
0.000325
0.000394
0.000404
0.000203
0.000237
0.000253
0.000265
0.000264
0.000250
0.000260
0.000223
0.000256
0.000260
0.000300
0.000435
0.000322
0.000301
0.000336
0.000491
0.000224
0.000283
0.000275
0.000300
0.000289
0.000243
0.000263
0.000515
0.000502
0.000166
0.000057
0.000212
0.000234
0.000246
0.000251
0.000240
0.000483
0.000214
0.000252
0.000268
0.000294
0.000510
0.000624
0.000193
0.000241
0.000241
0.000252
0.000256
0.000268
0.000241
0.000250
0.000287
0.000244
0.000489
0.000287
0.000349
0.000425
0.000293
0.000295
0.000319
0.000250
0.000187
0.000056
0.000223
0.000233
0.000275
0.000462
0.000325
0.000294
0.000256
0.000256
0.000220
0.000258
0.000250
0.000263
0.000264
0.000243
0.000249
0.000266
0.000243
0.000245
0.000301
0.000371
0.000523
0.000359
0.000227
0.000246
0.000278
0.000275
0.000265
0.000256
0.000262
0.000268
0.000192
0.000057
0.000255
0.000389
0.000473
0.000258
0.000211
0.000249
0.000317
0.000463
0.000283
0.000214
0.000239
0.000277
0.000250
0.000491
0.000403
0.000275
0.000258
0.000217
0.000254
0.000264
0.000272
0.000261
0.000261
0.000281
0.000262
0.000391
0.000250
0.000440
0.000336
0.000234
0.000193
0.000056
0.000207
0.000238
0.000250
0.000258
0.000250
0.000261
0.000228
0.000277
0.000246
0.000235
0.000263
0.000238
0.000291
0.001425
0.000232
0.000255
0.000260
0.000247
0.000275
0.000275
0.000264
0.000239
0.000278
0.000252
0.000267
0.000270
0.000267
0.000272
0.000260
0.000269
0.000194
0.000056
0.000193
0.000236
0.000249
0.000270
0.000219
0.000243
0.000259
0.000259
0.000225
0.000250
0.000249
0.000265
0.000254
0.000252
0.000255
0.000262
0.000249
0.000253
0.000275
0.000254
0.000257
0.000259
0.000248
0.000250
0.001284
0.000283
0.000593
0.000377
0.000371
0.000245
0.000191
0.000056
0.000192
0.000237
0.000258
0.000239
0.000421
0.000227
0.000240
0.000239
0.000255
0.000366
0.000434
0.000345
0.000242
0.000231
0.000260
0.000264
0.000258
0.000256
0.000251
0.000261
0.000260
0.000253
0.000263
0.000412
0.000524
0.000460
0.000211
0.000269
0.001354
0.000260
0.000183
0.000056
0.000310
0.000385
0.000335
0.000275
0.000219
0.000224
0.000233
0.000247
0.000263
0.000254
0.000246
0.000263
0.000301
0.000370
0.000430
0.000381
0.000337
0.000218
0.000252
0.000258
0.000266
0.000306
0.000227
0.000268
0.000267
0.000264
0.000362
0.000509
0.000397
0.000358
0.000149
0.000055
0.000191
0.000236
0.001251
0.000440
0.000324
0.000423
0.000386
0.000487
0.000265
0.000340
0.000225
0.000235
0.000243
0.000258
0.000245
0.000269
0.000411
0.000546
0.000284
0.000361
0.000266
0.000238
0.000265
0.000498
0.000230
0.000263
0.000256
0.000279
0.000291
0.000567
0.000374
0.000057
0.000363
0.000314
0.000236
0.001390
0.000395
0.000504
0.000262
0.000245
0.000251
0.000249
0.000233
0.000235
0.000248
0.000268
0.000263
0.000244
0.000238
0.000277
0.000385
0.000432
0.000419
0.000244
0.000265
0.000248
0.000261
0.000277
0.000267
0.000237
0.000265
0.000284
0.000238
0.000057
0.000391
0.000325
0.000216
0.000243
0.000250
0.000242
0.000268
0.000234
0.000234
0.000225
0.001418
0.000473
0.000267
0.000224
0.000243
0.000262
0.000268
0.000259
0.000236
0.000304
0.000243
0.000256
0.000260
0.000413
0.000538
0.000343
0.000223
0.000265
0.000278
0.000284
0.000173
0.000056
0.000205
0.000419
0.000239
0.000239
0.000402
0.000354
0.000393
0.000298
0.000463
0.000208
0.000226
0.000265
0.000253
0.000263
0.000255
0.001415
0.000365
0.000302
0.000228
0.000265
0.000299
0.000230
0.000253
0.000258
0.000261
0.000267
0.000380
0.000551
0.000254
0.000270
0.000163
0.000056
0.000207
0.000235
0.000254
0.000238
0.000231
0.000258
0.000241
0.000256
0.000281
0.000352
0.000485
0.000239
0.000242
0.000254
0.000247
0.000269
0.000275
0.000259
0.000271
0.000222
0.000254
0.000297
0.001272
0.000267
0.000260
0.000241
0.000261
0.000268
0.000255
0.000254
0.000194
0.000056
0.000246
0.000316
0.000380
0.000335
0.000250
0.000242
0.000255
0.000293
0.000236
0.000262
0.000236
0.000268
0.000240
0.000255
0.000272
0.000247
0.000264
0.000270
0.000264
0.000246
0.000258
0.000267
0.000269
0.000279
0.000293
0.000260
0.000270
0.000263
0.000255
0.000449
0.001359
0.000056
0.000214
0.000248
0.000225
0.000261
0.000233
0.000259
0.000250
0.000224
0.000246
0.000249
0.000297
0.000240
0.000246
0.000242
0.000273
0.000225
0.001720
0.000269
0.000236
0.000262
0.000247
0.000258
0.000275
0.000255
0.000296
0.000235
0.000269
0.000280
0.000270
0.000252
0.000220
0.000056
0.000299
0.000319
0.001275
0.000219
0.000241
0.000245
0.000257
0.000247
0.000278
0.000237
0.000238
0.000361
0.000372
0.000458
0.000263
0.000236
0.000250
0.000249
0.000261
0.000265
0.000240
0.000287
0.000254
0.000276
0.000266
0.000393
0.000371
0.000375
0.000292
0.000249
0.000193
0.000057
0.000224
0.000248
0.000245
0.000248
0.000284
0.000193
0.000235
0.000252
0.000453
0.001305
0.000273
0.000213
0.000252
0.000270
0.000254
0.000292
0.000231
0.000251
0.000325
0.000400
0.000431
0.000211
0.000245
0.000248
0.000294
0.000266
0.000263
0.000286
0.000269
0.000275
0.000199
0.000057
0.000253
0.000354
0.000439
0.000216
0.000234
0.000238
0.000245
0.000281
0.000263
0.000246
0.000225
0.000257
0.000446
0.000501
0.000530
0.001391
0.000245
0.000290
0.000309
0.000352
0.000482
0.000421
0.000676
0.000216
0.000214
0.000266
0.000267
0.000272
0.000263
0.000277
0.000190
0.000056
0.000211
0.000268
0.000432
0.000505
0.000335
0.000238
0.000246
0.000233
0.000242
0.000278
0.000232
0.000267
0.000280
0.000222
0.000267
0.000347
0.000269
0.000467
0.000364
0.001332
0.000267
0.000251
0.000262
0.000258
0.000503
0.000399
0.000374
0.000267
0.000283
0.000255
0.000191
0.000056
0.000202
0.000258
0.000228
0.000265
0.000224
0.000298
0.000422
0.000477
0.000286
0.000223
0.000240
0.000261
0.000267
0.000291
0.000239
0.000268
0.000248
0.000259
0.000281
0.000263
0.000472
0.000415
0.000334
0.001337
0.000412
0.000236
0.000276
0.000465
0.000387
0.000418
0.000246
0.000057
0.000206
0.000250
0.000227
0.000247
0.000252
0.000259
0.001689
0.000226
0.000219
0.000242
0.000255
0.000242
0.000256
0.000323
0.000327
0.000286
0.000271
0.000335
0.000467
0.000406
0.000311
0.000286
0.000236
0.000249
0.001495
0.000345
0.000424
0.000425
0.000344
0.000302
0.000173
0.000056
0.000228
0.000243
0.000253
0.000265
0.000241
0.000266
0.001696
0.000255
0.000229
0.000263
0.000323
0.000402
0.001450
0.000362
0.000402
0.000236
0.000256
0.000240
0.000264
0.000274
0.001523
0.000597
0.000368
0.000297
0.000236
0.000253
0.000260
0.000286
0.000244
0.000264
0.000179
0.000057
0.000208
0.000236
0.000270
0.000244
0.000266
0.000300
0.000254
0.000261
0.000243
0.000251
0.000260
0.000241
0.000291
0.000244
0.000269
0.001466
0.000284
0.000232
0.000269
0.000278
0.000274
0.000252
0.000426
0.001271
0.000281
0.000240
0.000268
0.000252
0.000404
0.000234
0.000203
0.000056
0.000186
0.000247
0.000224
0.000228
0.000239
0.000230
0.000235
0.001686
0.000257
0.000231
0.000356
0.000283
0.000207
0.000226
0.000255
0.001374
0.000245
0.000264
0.000267
0.000239
0.000266
0.000352
0.000287
0.001286
0.000284
0.000284
0.000224
0.000262
0.001388
0.000278
0.000183
0.000057
0.000264
0.000328
0.000224
0.000233
0.000268
0.000222
0.000290
0.000244
0.000264
0.000246
0.000258
0.000263
0.000262
0.000257
0.000298
0.001515
0.000228
0.000270
0.000247
0.000252
0.000307
0.000240
0.000251
0.001491
0.000382
0.000218
0.000272
0.001259
0.000266
0.000260
0.000255
0.000056
0.000256
0.000375
0.000327
0.000218
0.000229
0.000238
0.000272
0.000251
0.000263
0.000274
0.000238
0.000248
0.000262
0.000327
0.000374
0.001193
0.000253
0.000247
0.000262
0.000276
0.000228
0.000241
0.000256
0.000322
0.001295
0.000238
0.000250
0.000253
0.000254
0.001333
0.000324
0.000057
0.000233
0.000290
0.000231
0.000233
0.000239
0.000254
0.000241
0.000250
0.000301
0.000235
0.000238
0.000251
0.000246
0.000433
0.000299
0.001471
0.000234
0.000248
0.000301
0.000510
0.000278
0.001478
0.000333
0.000244
0.000234
0.000267
0.000246
0.001295
0.000380
0.000503
0.000249
0.000056
0.000226
0.000247
0.000256
0.000256
0.000278
0.000235
0.000267
0.000266
0.000246
0.000259
0.000386
0.000385
0.001338
0.000233
0.000279
0.000260
0.000284
0.000217
0.000251
0.000235
0.000338
0.001252
0.000262
0.000236
0.000255
0.000258
0.001526
0.000392
0.000485
0.000229
0.000187
0.000057
0.000203
0.000233
0.000245
0.000239
0.000254
0.000266
0.000240
0.000257
0.000453
0.000482
0.000244
0.001498
0.000216
0.000238
0.000266
0.000253
0.000260
0.000287
0.001689
0.000249
0.000390
0.000343
0.001264
0.000395
0.000305
0.000313
0.000248
0.000268
0.000258
0.000271
0.000196
0.000056
0.000200
0.000238
0.000328
0.000274
0.000281
0.000525
0.000322
0.000278
0.001476
0.000231
0.000383
0.000266
0.000232
0.000296
0.000399
0.001307
0.000268
0.000234
0.000250
0.000262
0.001552
0.000373
0.000276
0.000271
0.000249
0.000255
0.000450
0.000330
0.000261
0.000236
0.000263
0.000056
0.000241
0.000377
0.000343
0.000266
0.000210
0.001525
0.000211
0.000257
0.000267
0.000268
0.000269
0.000242
0.000300
0.001483
0.000263
0.000235
0.000426
0.001188
0.000339
0.000459
0.000380
0.000242
0.000240
0.000256
0.000298
0.000221
0.000456
0.000227
0.000264
0.000280
0.000197
0.000056
0.000217
0.000235
0.000377
0.000343
0.001318
0.000277
0.000333
0.000230
0.000235
0.000240
0.000245
0.000333
0.001474
0.000265
0.000234
0.000244
0.001377
0.000263
0.000465
0.000382
0.000405
0.000240
0.000254
0.000243
0.000271
0.000294
0.000238
0.000276
0.000266
0.000252
0.000194
0.000056
0.000248
0.000332
0.001494
0.000218
0.000269
0.000303
0.000215
0.000247
0.000265
0.000352
0.001412
0.000228
0.000251
0.000271
0.000253
0.001272
0.000646
0.000366
0.000288
0.000405
0.000309
0.000246
0.000267
0.000259
0.000270
0.000288
0.000275
0.000287
0.000467
0.000411
0.001373
0.000056
0.000195
0.000247
0.000246
0.000225
0.000252
0.000431
0.000497
0.001258
0.000248
0.000237
0.000249
0.001395
0.000511
0.000293
0.000222
0.000419
0.000243
0.000245
0.000265
0.000286
0.000247
0.000255
0.000281
0.000253
0.000252
0.000332
0.000388
0.000482
0.001490
0.000241
0.000184
0.000055
0.000199
0.000254
0.000506
0.000380
0.001243
0.000300
0.000230
0.000259
0.000241
0.000255
0.000252
0.000277
0.000357
0.000532
0.000294
0.000235
0.000255
0.000278
0.000241
0.000307
0.000234
0.000257
0.000260
0.000269
0.000299
0.000416
0.000412
0.000324
0.000342
0.001391
0.000192
0.000057
0.000204
0.000241
0.000422
0.000330
0.000362
0.000277
0.000302
0.000331
0.000292
0.000255
0.000238
0.000265
0.000252
0.000305
0.000242
0.000344
0.000526
0.000291
0.000307
0.000371
0.000274
0.000410
0.000223
0.000256
0.000252
0.000266
0.000247
0.000285
0.000412
0.000477
0.000258
0.000056
0.000180
0.001408
0.000244
0.000323
0.000406
0.000373
0.000425
0.000330
0.000221
0.000231
0.000265
0.000247
0.000280
0.000278
0.000243
0.000250
0.000259
0.001352
0.000263
0.000254
0.000259
0.000272
0.000262
0.000284
0.000267
0.000256
0.000279
0.000242
0.000434
0.000357
0.000243
0.000056
0.000201
0.000242
0.000238
0.001505
0.000340
0.000212
0.000236
0.000247
0.000231
0.000245
0.000257
0.000279
0.000241
0.000250
0.000298
0.000223
0.000264
0.000252
0.000263
0.000255
0.001421
0.000238
0.000244
0.000291
0.000247
0.000247
0.000271
0.000263
0.000272
0.000497
0.000348
0.000055
0.000211
0.000229
0.000397
0.000285
0.000272
0.000234
0.001518
0.000365
0.000276
0.000223
0.000264
0.000314
0.000330
0.000229
0.000242
0.000238
0.000246
0.000261
0.000262
0.000256
0.000486
0.000485
0.001143
0.000272
0.000235
0.000265
0.000262
0.000261
0.000305
0.000231
0.000406
0.000056
0.000226
0.000332
0.000216
0.000244
0.000250
0.000239
0.000247
0.000229
0.000289
0.001602
0.000371
0.000283
0.000243
0.000251
0.000255
0.000242
0.000279
0.000257
0.000278
0.000298
0.000335
0.000460
0.000485
0.001331
0.000245
0.000283
0.000235
0.000265
0.000266
0.000372
0.000359
0.000056
0.000275
0.000266
0.000220
0.000232
0.000225
0.000243
0.000256
0.000305
0.000233
0.001566
0.000367
0.000257
0.000240
0.000261
0.000456
0.000252
0.000552
0.000371
0.000275
0.000273
0.000503
0.000475
0.001261
0.000261
0.000245
0.000252
0.001724
0.000441
0.000617
0.000321
0.000142
0.000056
0.000215
0.000228
0.000239
0.000234
0.000278
0.000225
0.000249
0.000518
0.000457
0.000436
0.000294
0.000210
0.000242
0.000267
0.000277
0.000273
0.000235
0.000243
0.000252
0.000285
0.000279
0.000435
0.001298
0.000238
0.000245
0.000270
0.001897
0.000386
0.000396
0.000331
0.000155
0.000057
0.000248
0.000239
0.000241
0.001669
0.000317
0.000222
0.000239
0.000259
0.000256
0.000271
0.000393
0.000349
0.000371
0.000283
0.000459
0.000341
0.000410
0.001185
0.000292
0.000225
0.000253
0.000259
0.000274
0.000401
0.000704
0.000350
0.000286
0.000262
0.000265
0.000282
0.000192
0.000056
0.000187
0.000234
0.000243
0.001551
0.000243
0.000230
0.000241
0.000255
0.000238
0.000254
0.000258
0.000278
0.000254
0.000278
0.000240
0.000372
0.000475
0.000308
0.001397
0.000249
0.000248
0.000264
0.000253
0.000270
0.000418
0.000490
0.000391
0.000268
0.000291
0.000230
0.000435
0.000056
0.000201
0.000238
0.000274
0.001531
0.000311
0.000204
0.000268
0.000242
0.000254
0.000258
0.000253
0.000275
0.000250
0.000301
0.000307
0.000548
0.001378
0.000756
0.000271
0.000319
0.000252
0.000241
0.000244
0.000273
0.001676
0.000808
0.000232
0.000262
0.000281
0.000278
0.000192
0.000057
0.000207
0.000227
0.000255
0.000244
0.000283
0.000251
0.000213
0.000250
0.000240
0.000235
0.000291
0.000293
0.000239
0.000251
0.000264
0.000244
0.000270
0.001601
0.000705
0.000344
0.000345
0.000221
0.000253
0.000308
0.000250
0.000272
0.000253
0.000256
0.001385
0.000402
0.000299
0.000057
0.000184
0.000235
0.000267
0.000245
0.000254
0.000230
0.000274
0.000229
0.000254
0.000262
0.000228
0.000582
0.000350
0.000306
0.000220
0.000245
0.000259
0.001385
0.000695
0.000459
0.000365
0.000250
0.000237
0.000255
0.000273
0.000260
0.000248
0.000261
0.001480
0.000440
0.000194
0.000057
0.000179
0.000232
0.000243
0.000252
0.000251
0.000248
0.000236
0.000250
0.000272
0.000260
0.000373
0.000356
0.000347
0.000221
0.000242
0.000244
0.000265
0.000257
0.001556
0.000724
0.000490
0.000210
0.000233
0.000254
0.000263
0.000259
0.000264
0.000287
0.000265
0.001414
0.000269
0.000057
0.000215
0.000219
0.000236
0.000255
0.000258
0.000242
0.000252
0.000299
0.000358
0.000433
0.000440
0.000335
0.000350
0.000226
0.000247
0.000246
0.000299
0.000236
0.000268
0.001900
0.000343
0.000239
0.000451
0.000235
0.000255
0.000266
0.000267
0.000261
0.000278
0.000265
0.000482
0.000056
0.000290
0.000233
0.000231
0.000255
0.000240
0.000249
0.000226
0.000244
0.000290
0.000264
0.000210
0.000235
0.000268
0.000450
0.000496
0.000425
0.000228
0.000263
0.000251
0.000249
0.000253
0.000285
0.001473
0.001046
0.000230
0.000252
0.000267
0.000265
0.000272
0.000251
0.000205
0.000055
0.000201
0.001366
0.000272
0.000202
0.000253
0.000238
0.000252
0.000235
0.000242
0.000261
0.000255
0.000256
0.000239
0.000422
0.000327
0.000452
0.000277
0.000252
0.000279
0.000252
0.000277
0.000221
0.000259
0.000269
0.001351
0.000647
0.000306
0.000392
0.000363
0.000402
0.000297
0.000056
0.000202
0.000240
0.000382
0.001293
0.000215
0.000270
0.000210
0.000261
0.000256
0.000255
0.000246
0.000250
0.000338
0.000278
0.000600
0.000274
0.000222
0.000279
0.000330
0.000234
0.000232
0.000270
0.000236
0.000269
0.001537
0.000300
0.000724
0.000307
0.000257
0.000272
0.000192
0.000056
0.000212
0.000235
0.000478
0.000313
0.001316
0.000245
0.000243
0.000224
0.000229
0.000250
0.000250
0.000259
0.000233
0.000231
0.000256
0.000255
0.000266
0.000238
0.000255
0.000254
0.000270
0.000271
0.000372
0.000253
0.000224
0.000267
0.000266
0.001490
0.000258
0.000214
0.000182
0.000056
0.000190
0.000250
0.000235
0.000258
0.000346
0.000374
0.000397
0.000279
0.001586
0.000227
0.000335
0.000433
0.000371
0.000235
0.000443
0.000220
0.000241
0.000265
0.000273
0.000264
0.000282
0.000270
0.000254
0.000271
0.000250
0.000428
0.000384
0.000322
0.001590
0.000222
0.000190
0.000057
0.000217
0.000238
0.000250
0.000247
0.000241
0.000247
0.000259
0.000313
0.000416
0.002023
0.000243
0.000230
0.000258
0.000261
0.000260
0.000254
0.000265
0.000257
0.000282
0.000514
0.000265
0.000461
0.001442
0.000244
0.000241
0.002021
0.000284
0.000240
0.000265
0.001512
0.000157
0.000072
0.000326
0.000398
0.000478
0.000242
0.000277
0.000211
0.000260
0.000293
0.000238
0.000223
0.000255
0.000341
0.000446
0.000350
0.000379
0.000252
0.000235
0.001568
0.000223
0.000669
0.001791
0.000291
0.000246
0.001641
0.001920
0.000740
0.000273
0.000257
0.000303
0.000416
0.000388
0.000056
0.000213
0.000235
0.000277
0.000230
0.001411
0.001733
0.001078
0.000205
0.000241
0.001575
0.001984
0.000213
0.000236
0.000421
0.000288
0.000386
0.000546
0.000349
0.000198
0.000243
0.000252
0.000252
0.000278
0.001654
0.001151
0.001409
0.000294
0.000279
0.000259
0.000298
0.000348
0.000056
0.000213
0.000233
0.000240
0.000241
0.000226
0.000272
0.000225
0.000253
0.000259
0.000241
0.000245
0.000377
0.000344
0.000494
0.000284
0.000251
0.000263
0.000257
0.000270
0.000279
0.000239
0.000264
0.001494
0.000486
0.002122
0.000227
0.000271
0.000382
0.000388
0.000376
0.000199
0.000056
0.000252
0.000350
0.000466
0.000288
0.000210
0.000216
0.000254
0.000242
0.000237
0.000248
0.000245
0.000266
0.000257
0.001605
0.001355
0.001235
0.000274
0.000232
0.000254
0.000266
0.000284
0.000273
0.000243
0.000257
0.002226
0.000227
0.000248
0.000307
0.000321
0.000306
0.000219
0.000056
0.000220
0.000402
0.000495
0.000357
0.000215
0.000230
0.000244
0.000275
0.001909
0.001409
0.000215
0.000323
0.000385
0.000412
0.000262
0.000244
0.000246
0.000264
0.000274
0.000258
0.000251
0.000267
0.000478
0.000229
0.000275
0.000260
0.000255
0.000277
0.000277
0.000250
0.000202
0.000055
0.000206
0.000246
0.000245
0.000239
0.000280
0.000260
0.001526
0.001429
0.001318
0.000246
0.000225
0.000242
0.000265
0.000264
0.000249
0.000268
0.000229
0.002098
0.000259
0.000224
0.000273
0.000270
0.000253
0.000266
0.000256
0.000260
0.000272
0.000258
0.000272
0.000255
0.000177
0.000056
0.000202
0.002694
0.001381
0.000220
0.000304
0.000328
0.000215
0.000282
0.000230
0.000240
0.000251
0.000244
0.000238
0.000253
0.000267
0.000255
0.000269
0.000273
0.000265
0.000251
0.000267
0.000285
0.000269
0.000264
0.000250
0.000243
0.000266
0.000276
0.000259
0.000265
0.000371
0.000056
0.001543
0.000256
0.001241
0.000233
0.000218
0.000232
0.000286
0.000257
0.000223
0.000316
0.000343
0.000363
0.000354
0.000202
0.000250
0.002149
0.000238
0.000248
0.000264
0.000562
0.000334
0.000276
0.000239
0.000267
0.000251
0.000246
0.000264
0.000283
0.000263
0.001605
0.001275
0.000057
0.000210
0.000241
0.000232
0.000442
0.000363
0.000276
0.000212
0.000232
0.000250
0.000263
0.000263
0.000246
0.000229
0.000253
0.000262
0.000248
0.000343
0.000583
0.000366
0.000251
0.000228
0.000275
0.000291
0.000236
0.000254
0.000246
0.000264
0.000278
0.000240
0.000440
0.000234
0.000057
0.001120
0.000292
0.000287
0.000451
0.000283
0.000230
0.000229
0.000237
0.000251
0.002307
0.000359
0.000386
0.000228
0.000374
0.000303
0.000257
0.000253
0.000243
0.000265
0.000228
0.000252
0.000290
0.000708
0.000336
0.001863
0.001363
0.000502
0.000508
0.000238
0.000280
0.000198
0.000056
0.000194
0.000375
0.000252
0.000242
0.000254
0.000225
0.000254
0.000253
0.000263
0.000240
0.000253
0.000225
0.000248
0.000285
0.000362
0.000489
0.001865
0.001317
0.000465
0.000438
0.000443
0.000243
0.000237
0.000262
0.002148
0.000605
0.000313
0.000235
0.000275
0.000283
0.000199
0.000058
0.000224
0.000219
0.000256
0.000248
0.000240
0.000371
0.000386
0.000341
0.000289
0.000225
0.000239
0.000248
0.000267
0.002114
0.000412
0.000339
0.000210
0.000255
0.000282
0.000247
0.000248
0.002442
0.000349
0.000234
0.000248
0.000255
0.000254
0.000270
0.000312
0.000254
0.000187
0.000056
0.000230
0.000306
0.000557
0.000363
0.000260
0.000221
0.000237
0.000249
0.000265
0.000250
0.001982
0.000366
0.000265
0.000279
0.000240
0.000264
0.000272
0.000239
0.002203
0.000445
0.000227
0.000269
0.000272
0.000253
0.000253
0.000255
0.000320
0.000220
0.000267
0.000251
0.000191
0.000056
0.000223
0.000236
0.000252
0.000218
0.000252
0.000256
0.000243
0.000236
0.000237
0.002186
0.000228
0.000270
0.000223
0.000430
0.000224
0.000248
0.000310
0.000262
0.000265
0.000236
0.001973
0.000275
0.000332
0.000362
0.000429
0.000417
0.000304
0.000251
0.000247
0.000263
0.000207
0.000057
0.000188
0.000245
0.000234
0.000253
0.000247
0.000330
0.000214
0.002310
0.000231
0.000241
0.000261
0.000256
0.000239
0.000279
0.000276
0.002126
0.000591
0.000224
0.000247
0.000248
0.000256
0.000258
0.000287
0.000287
0.000242
0.000257
0.000286
0.000258
0.000259
0.000265
0.000201
0.000057
0.001833
0.001439
0.000204
0.000225
0.000244
0.000258
0.000250
0.000253
0.000466
0.000294
0.002183
0.000263
0.000224
0.000272
0.000326
0.000502
0.000361
0.000314
0.000208
0.000248
0.000252
0.000265
0.000268
0.000222
0.000262
0.000271
0.000263
0.000269
0.000286
0.000680
0.000322
0.000057
0.000200
0.000260
0.000237
0.000253
0.000265
0.000248
0.000254
0.000239
0.001467
0.002136
0.000580
0.000267
0.000400
0.000708
0.000375
0.000216
0.000251
0.000247
0.000264
0.000263
0.000255
0.000240
0.000260
0.000265
0.003009
0.000335
0.000233
0.000276
0.000278
0.000310
0.000435
0.000056
0.001942
0.000227
0.000224
0.000239
0.000293
0.000365
0.000525
0.000220
0.000295
0.000210
0.000245
0.000249
0.000256
0.000258
0.000266
0.000258
0.000250
0.000291
0.001817
0.000246
0.000232
0.000256
0.000271
0.000283
0.000268
0.000250
0.001469
0.000341
0.000262
0.000240
0.000175
0.000056
0.000201
0.000237
0.000247
0.000229
0.000255
0.000239
0.000257
0.000405
0.000376
0.000362
0.000213
0.000248
0.000247
0.000324
0.000421
0.000319
0.000231
0.000246
0.000268
0.000429
0.000391
0.000432
0.000287
0.000237
0.000259
0.000252
0.000255
0.000274
0.000278
0.000260
0.000205
0.000056
0.001434
0.000444
0.000227
0.001925
0.000261
0.000434
0.000445
0.000322
0.000227
0.000259
0.000252
0.000242
0.000249
0.000245
0.000265
0.000262
0.000442
0.000319
0.000421
0.000311
0.000373
0.000233
0.000257
0.000271
0.000274
0.000267
0.000258
0.000275
0.000378
0.000439
0.001373
0.000055
0.000200
0.000227
0.002076
0.000339
0.000306
0.000230
0.000250
0.000252
0.000260
0.000260
0.000219
0.000251
0.000253
0.000263
0.000257
0.000380
0.000690
0.001764
0.000230
0.000249
0.000251
0.000272
0.000362
0.000440
0.001579
0.000295
0.000366
0.001917
0.000261
0.000262
0.000194
0.000056
0.000205
0.000225
0.000234
0.000244
0.000233
0.000249
0.000251
0.000286
0.000331
0.000260
0.000377
0.000362
0.000348
0.000292
0.000242
0.000274
0.000260
0.000241
0.000267
0.000254
0.000309
0.000280
0.000263
0.000264
0.000269
0.001500
0.000295
0.000380
0.002069
0.000241
0.000172
0.000056
0.000220
0.000235
0.000239
0.000251
0.000490
0.000201
0.000252
0.000339
0.000357
0.000316
0.000307
0.000203
0.000271
0.000264
0.000268
0.000319
0.000464
0.000395
0.000248
0.000416
0.000651
0.000380
0.001520
0.000225
0.000255
0.001993
0.000332
0.000231
0.000249
0.000290
0.000192
0.000056
0.000215
0.000240
0.000225
0.000245
0.000252
0.000272
0.000253
0.000269
0.000249
0.000283
0.001803
0.000292
0.000388
0.000290
0.000452
0.000363
0.000354
0.001514
0.000236
0.000277
0.002107
0.000580
0.000253
0.000243
0.000264
0.000265
0.000511
0.000221
0.000255
0.000277
0.000198
0.000057
0.000283
0.000307
0.000448
0.000263
0.000205
0.000240
0.000263
0.000266
0.000246
0.000289
0.000234
0.000250
0.000262
0.000301
0.000317
0.000459
0.001313
0.000265
0.000272
0.001894
0.000412
0.000267
0.000235
0.000261
0.000246
0.000278
0.000270
0.000262
0.000253
0.000264
0.000204
0.000056
0.000262
0.000384
0.002039
0.000248
0.000222
0.000251
0.000257
0.000287
0.000409
0.000478
0.001291
0.000373
0.000359
0.002082
0.000210
0.000238
0.000270
0.000276
0.000250
0.000250
0.000281
0.000298
0.000255
0.000324
0.000500
0.000392
0.000310
0.002224
0.000513
0.000525
0.000320
0.000056
0.000201
0.000229
0.000243
0.001959
0.000234
0.000232
0.000243
0.000239
0.000243
0.000259
0.000250
0.000259
0.000257
0.000428
0.000379
0.001374
0.000257
0.000236
0.000268
0.000262
0.000231
0.000252
0.000259
0.000279
0.000323
0.000451
0.000470
0.000239
0.001590
0.000296
0.000146
0.000056
0.000201
0.000227
0.000245
0.000232
0.000262
0.000265
0.000246
0.000230
0.000254
0.000342
0.000380
0.001426
0.000248
0.000221
0.000245
0.000293
0.000221
0.000260
0.000292
0.000512
0.000429
0.000395
0.000232
0.001568
0.000225
0.000266
0.000285
0.000285
0.000259
0.000270
0.000192
0.000056
0.000200
0.000243
0.000282
0.000249
0.000253
0.000242
0.000237
0.000239
0.000277
0.000222
0.000253
0.000256
0.000267
0.001474
0.000360
0.000213
0.000253
0.000257
0.000279
0.000307
0.000371
0.000285
0.000241
0.000257
0.000272
0.000261
0.000259
0.001404
0.000283
0.000230
0.000181
0.000056
0.000204
0.000229
0.000266
0.000257
0.000266
0.000222
0.000246
0.000265
0.000219
0.000263
0.000244
0.000259
0.000223
0.000337
0.000375
0.000353
0.000239
0.000237
0.001635
0.000245
0.000244
0.000258
0.000280
0.000297
0.000347
0.000384
0.000455
0.000274
0.000260
0.001593
0.000153
0.000056
0.000379
0.000265
0.000363
0.000296
0.000231
0.000217
0.000249
0.000270
0.000249
0.000263
0.000225
0.000238
0.001464
0.000334
0.000259
0.000235
0.000238
0.000283
0.000248
0.000259
0.000260
0.000234
0.000257
0.000276
0.000284
0.000391
0.000331
0.000480
0.000228
0.000251
0.000192
0.000055
0.000204
0.000275
0.000452
0.000353
0.000312
0.000286
0.000249
0.000244
0.000252
0.000258
0.000243
0.000226
0.000258
0.000243
0.001257
0.000289
0.000243
0.000254
0.000262
0.000275
0.000236
0.000260
0.000254
0.000264
0.000256
0.000254
0.000312
0.000711
0.000431
0.000231
0.000184
0.000056
0.000195
0.001563
0.000251
0.000335
0.000478
0.000353
0.000208
0.000255
0.000269
0.000261
0.000236
0.000259
0.000269
0.000270
0.000258
0.001532
0.000258
0.000279
0.000264
0.000254
0.000276
0.000239
0.000264
0.000256
0.000270
0.000249
0.000436
0.000364
0.000387
0.000215
0.000200
0.000057
0.000216
0.000249
0.000239
0.001602
0.000428
0.000356
0.000217
0.000240
0.000252
0.000270
0.000282
0.000248
0.000259
0.000256
0.000233
0.000268
0.000390
0.001334
0.000249
0.000225
0.001502
0.000374
0.000513
0.000408
0.000319
0.000244
0.000271
0.000463
0.000235
0.000265
0.000184
0.000055
0.000274
0.000230
0.000248
0.000245
0.000246
0.000274
0.000221
0.000257
0.000267
0.000238
0.000246
0.000253
0.000321
0.000513
0.001644
0.001507
0.000343
0.000453
0.000422
0.000222
0.000231
0.000254
0.000250
0.000276
0.000243
0.000271
0.000254
0.000270
0.001515
0.000359
0.000160
0.000056
0.000183
0.000344
0.000353
0.000328
0.000237
0.000236
0.000246
0.000344
0.000427
0.000387
0.002163
0.000318
0.000717
0.000498
0.000457
0.000274
0.000318
0.000391
0.000332
0.000278
0.000394
0.000266
0.001529
0.000533
0.000221
0.000261
0.000252
0.000252
0.000275
0.000263
0.000195
0.000056
0.000207
0.000246
0.000253
0.000257
0.000240
0.001657
0.000874
0.001006
0.000208
0.000235
0.000270
0.000245
0.000257
0.000266
0.000250
0.000245
0.000260
0.000263
0.000263
0.000283
0.001426
0.000318
0.000255
0.000229
0.000239
0.000255
0.000262
0.000286
0.000275
0.000274
0.001892
0.000072
0.000176
0.000230
0.001538
0.000868
0.000368
0.000380
0.000239
0.000238
0.000227
0.000256
0.000256
0.000243
0.000247
0.001973
0.000481
0.000211
0.000257
0.000254
0.000266
0.000261
0.000195
