0.000102
0.016267
0.005402
0.000295
0.000254
0.000295
0.000328
0.000228
0.000326
0.000294
0.000239
0.000330
0.000494
0.000562
0.000336
0.000365
0.000257
0.000346
0.000355
0.000421
0.001870
0.000322
0.000745
0.000264
0.000239
0.000302
0.000318
0.000323
0.000416
0.000462
0.000413
0.000319
0.000057
0.000205
0.000266
0.000268
0.000288
0.000251
0.000245
0.000301
0.000267
0.000268
0.000322
0.000378
0.000434
0.000309
0.000255
0.000376
0.000355
0.000360
0.000251
0.000244
0.001736
0.000286
0.000274
0.000427
0.000242
0.000291
0.000277
0.000281
0.000317
0.000254
0.000527
0.000226
0.000057
0.000243
0.000257
0.000267
0.000256
0.000255
0.000247
0.000265
0.000252
0.000286
0.001668
0.000226
0.000239
0.000288
0.000256
0.000275
0.000246
0.000272
0.000255
0.000353
0.001788
0.000246
0.000273
0.000454
0.000432
0.000380
0.000240
0.000253
0.000560
0.000457
0.000730
0.000194
0.000056
0.000204
0.000247
0.000249
0.000241
0.000296
0.000252
0.000283
0.000648
0.000337
0.000243
0.000231
0.000260
0.000243
0.000258
0.000251
0.000258
0.000241
0.000270
0.000299
0.000334
0.001662
0.000279
0.000250
0.000423
0.000269
0.000754
0.000656
0.000498
0.000363
0.000231
0.000199
0.000057
0.000217
0.000250
0.000295
0.000209
0.000287
0.000230
0.000324
0.001624
0.000255
0.000211
0.000248
0.000249
0.000255
0.000251
0.000265
0.000285
0.000356
0.000730
0.001382
0.000299
0.000239
0.000410
0.000241
0.000252
0.000257
0.000255
0.000289
0.000250
0.000261
0.000265
0.000195
0.000057
0.000181
0.000248
0.000243
0.000267
0.000236
0.000245
0.000240
0.000255
0.000231
0.000260
0.001631
0.000258
0.000236
0.000236
0.000262
0.000243
0.000247
0.000255
0.000255
0.000255
0.000298
0.001631
0.000281
0.000260
0.000442
0.000243
0.000259
0.000262
0.000267
0.000267
0.000201
0.000057
0.000208
0.000226
0.000257
0.000242
0.000259
0.000230
0.000259
0.000236
0.000266
0.000258
0.000246
0.000253
0.000265
0.000269
0.001641
0.000274
0.000296
0.000217
0.000255
0.000274
0.000266
0.000232
0.000249
0.000266
0.001778
0.000498
0.000234
0.000382
0.000232
0.000282
0.000198
0.000056
0.000223
0.000242
0.000244
0.000266
0.000256
0.000265
0.000275
0.000404
0.000436
0.000403
0.000203
0.000247
0.000251
0.000252
0.001572
0.000579
0.000258
0.000409
0.000322
0.000226
0.000272
0.000286
0.000267
0.001721
0.000534
0.000461
0.000234
0.000249
0.000244
0.000270
0.000185
0.000058
0.000187
0.000242
0.000254
0.000300
0.000399
0.000431
0.000288
0.000285
0.000213
0.000245
0.000268
0.000232
0.000254
0.001708
0.000483
0.000311
0.000215
0.000250
0.000275
0.000290
0.000243
0.000258
0.001796
0.000406
0.000269
0.000389
0.000237
0.000259
0.000273
0.000396
0.000328
0.000057
0.000227
0.000359
0.000335
0.000306
0.000253
0.000247
0.000251
0.000259
0.000237
0.000234
0.000234
0.000247
0.001567
0.000348
0.000310
0.000227
0.000258
0.000248
0.000248
0.000305
0.000251
0.000325
0.000251
0.001810
0.000259
0.000492
0.000243
0.000252
0.000264
0.000268
0.000249
0.000056
0.000395
0.000513
0.000598
0.000240
0.000211
0.000265
0.000230
0.000221
0.000258
0.000255
0.000253
0.001709
0.000243
0.000443
0.000372
0.000214
0.000241
0.000227
0.000248
0.000270
0.000338
0.001771
0.000228
0.000470
0.001917
0.000457
0.000367
0.000249
0.000256
0.000259
0.000185
0.000057
0.000196
0.000241
0.000243
0.000243
0.000266
0.001628
0.000241
0.000227
0.000258
0.000250
0.000243
0.000253
0.000249
0.000248
0.000335
0.000404
0.000580
0.000255
0.000231
0.000272
0.000278
0.000235
0.000241
0.000441
0.000433
0.000273
0.000374
0.000510
0.000452
0.000267
0.000206
0.000059
0.000219
0.000237
0.000250
0.000253
0.000240
0.000237
0.000263
0.000370
0.001845
0.000308
0.000216
0.000241
0.000246
0.000245
0.000255
0.000279
0.000527
0.000381
0.000334
0.000251
0.000264
0.000299
0.000298
0.000245
0.000262
0.000441
0.000336
0.000678
0.000387
0.000453
0.000169
0.000057
0.000216
0.000251
0.000266
0.000212
0.000238
0.000233
0.000246
0.000263
0.000234
0.000289
0.000340
0.000454
0.001375
0.000262
0.000218
0.000244
0.000257
0.000253
0.000252
0.000311
0.000229
0.000464
0.000396
0.000261
0.000260
0.000260
0.000260
0.000267
0.000257
0.000268
0.000390
0.000057
0.000194
0.000241
0.000226
0.000342
0.000462
0.000434
0.000231
0.000260
0.000234
0.000262
0.000262
0.000229
0.000295
0.000250
0.000240
0.000474
0.000438
0.001646
0.000263
0.000234
0.000256
0.000263
0.000256
0.000243
0.000265
0.000479
0.000481
0.000295
0.000427
0.000226
0.000201
0.000057
0.000226
0.000438
0.000234
0.000206
0.000288
0.000286
0.000328
0.000521
0.000271
0.000336
0.000222
0.000278
0.000262
0.000234
0.000520
0.000339
0.000227
0.000279
0.000424
0.001594
0.000273
0.000243
0.000520
0.000234
0.000285
0.000276
0.000254
0.000379
0.000524
0.000370
0.000270
0.000055
0.000209
0.000208
0.000241
0.000245
0.000419
0.000306
0.000286
0.000230
0.000386
0.000569
0.000289
0.000264
0.000229
0.000244
0.000256
0.000266
0.000256
0.000253
0.000226
0.000358
0.000301
0.000375
0.001796
0.000227
0.000265
0.000248
0.000293
0.000347
0.000484
0.000803
0.000261
0.000056
0.000217
0.000333
0.000295
0.000417
0.000390
0.000208
0.000256
0.000354
0.000651
0.000217
0.000257
0.000243
0.000236
0.000271
0.000265
0.000233
0.000255
0.000270
0.000266
0.000258
0.000299
0.000367
0.000772
0.001239
0.000322
0.000431
0.000424
0.000242
0.000459
0.000395
0.000313
0.000057
0.000228
0.000380
0.000280
0.000211
0.000219
0.000247
0.000417
0.000229
0.000262
0.000353
0.000501
0.000370
0.000235
0.000257
0.000269
0.000245
0.000370
0.000416
0.000301
0.000247
0.000246
0.000384
0.000653
0.001664
0.000238
0.000411
0.000318
0.000230
0.000274
0.000479
0.000325
0.000057
0.000207
0.000232
0.000244
0.000260
0.000245
0.000250
0.000239
0.000323
0.000466
0.000300
0.000429
0.000394
0.000257
0.000555
0.000248
0.000238
0.000279
0.000266
0.000229
0.000348
0.000221
0.000248
0.000267
0.000431
0.000455
0.001676
0.000272
0.000236
0.000250
0.000265
0.000191
0.000057
0.000265
0.000538
0.000268
0.000228
0.000239
0.000273
0.000236
0.000238
0.000272
0.000239
0.000222
0.000259
0.000463
0.000457
0.000455
0.000256
0.000234
0.000242
0.000343
0.000383
0.000383
0.000336
0.000359
0.000396
0.000244
0.000267
0.000258
0.000276
0.001793
0.000242
0.000207
0.000057
0.000200
0.000226
0.000257
0.000294
0.000335
0.000555
0.000319
0.000196
0.000286
0.000241
0.000245
0.000247
0.000529
0.000445
0.000486
0.000266
0.000271
0.000262
0.000422
0.000466
0.000362
0.000455
0.000471
0.000417
0.000235
0.000241
0.000265
0.000250
0.000266
0.001719
0.000489
0.000057
0.000251
0.000330
0.000205
0.000242
0.000257
0.000246
0.000238
0.000497
0.000375
0.000309
0.000291
0.000321
0.000419
0.000500
0.000373
0.000235
0.000249
0.000252
0.000256
0.000268
0.000272
0.000256
0.000246
0.000274
0.000328
0.000329
0.000426
0.000336
0.000246
0.000248
0.000187
0.000058
0.000423
0.000313
0.000458
0.000250
0.000201
0.000247
0.000249
0.000255
0.000258
0.000207
0.000248
0.000281
0.000288
0.000519
0.000474
0.000398
0.000286
0.000313
0.000384
0.000342
0.000316
0.000222
0.000240
0.000262
0.001750
0.000246
0.001736
0.000989
0.000348
0.000329
0.000162
0.000056
0.000217
0.000235
0.000232
0.000247
0.000269
0.000241
0.000251
0.000249
0.000259
0.000319
0.000395
0.000445
0.000277
0.000379
0.000252
0.000252
0.000250
0.000283
0.000229
0.000239
0.000255
0.000256
0.001812
0.000235
0.000255
0.000268
0.000282
0.000264
0.001888
0.000571
0.000204
0.000056
0.000232
0.000209
0.000239
0.000241
0.000270
0.000241
0.000236
0.000256
0.000273
0.000368
0.000629
0.000226
0.000391
0.000232
0.000231
0.000264
0.000325
0.000438
0.000369
0.000250
0.001786
0.000251
0.000242
0.000253
0.000265
0.000274
0.000238
0.000254
0.000331
0.000396
0.000378
0.000056
0.000234
0.000201
0.000240
0.000269
0.000241
0.000241
0.000253
0.000259
0.000256
0.000237
0.000238
0.000264
0.000426
0.000362
0.000335
0.000270
0.000462
0.000244
0.000242
0.000263
0.000258
0.000253
0.000282
0.000257
0.000280
0.001780
0.000243
0.000253
0.000265
0.000237
0.000206
0.000057
0.000256
0.000356
0.000220
0.000217
0.000242
0.000229
0.000243
0.000258
0.000243
0.000242
0.000218
0.000261
0.000254
0.000413
0.000366
0.000367
0.000272
0.000246
0.000246
0.000257
0.000266
0.000260
0.000245
0.000292
0.000222
0.000273
0.000343
0.001590
0.000274
0.000233
0.000194
0.000056
0.000220
0.000237
0.000252
0.000258
0.000436
0.000424
0.000283
0.000275
0.000222
0.000253
0.000268
0.000229
0.000249
0.000255
0.000261
0.000258
0.000244
0.000262
0.000243
0.000272
0.000258
0.000268
0.000250
0.000234
0.000237
0.000287
0.000278
0.000266
0.000252
0.000263
0.000196
0.000072
0.000176
0.000236
0.000252
0.000279
0.000229
0.000241
0.000237
0.000261
0.000285
0.000244
0.000232
0.000242
0.000264
0.000243
0.000288
0.000258
0.000237
0.000247
0.000300
0.000253
0.000268
0.000324
0.000269
0.000218
0.000310
0.000256
0.000264
0.000240
0.000318
0.000372
0.000646
0.000057
0.000212
0.000290
0.000230
0.000222
0.000235
0.000254
0.000240
0.000247
0.000253
0.000242
0.000272
0.000347
0.000435
0.000471
0.001535
0.000229
0.000500
0.000230
0.000264
0.000450
0.000420
0.000402
0.000226
0.000280
0.000248
0.000260
0.000281
0.000248
0.000312
0.000276
0.000172
0.000058
0.000407
0.000369
0.000331
0.000335
0.000205
0.000279
0.000230
0.000239
0.000233
0.000245
0.000259
0.000252
0.000236
0.000274
0.000348
0.000455
0.000445
0.001783
0.000232
0.000257
0.000409
0.000407
0.000360
0.000331
0.000312
0.000324
0.000299
0.000230
0.000229
0.000255
0.000194
0.000056
0.000208
0.000230
0.000237
0.000311
0.000404
0.000415
0.000304
0.000261
0.000249
0.000218
0.000250
0.000267
0.000264
0.000263
0.000247
0.000250
0.000400
0.000463
0.000321
0.000399
0.000228
0.001742
0.000329
0.000490
0.000503
0.000484
0.000318
0.000225
0.000256
0.000264
0.000449
0.000056
0.000201
0.000272
0.000215
0.000253
0.000468
0.000436
0.000377
0.000230
0.000277
0.000308
0.000194
0.000253
0.000252
0.000294
0.000315
0.000229
0.000279
0.000364
0.000424
0.000367
0.000496
0.001842
0.000268
0.000541
0.000403
0.000342
0.000219
0.000266
0.000295
0.000257
0.000198
0.000056
0.000212
0.000335
0.000365
0.000528
0.000216
0.000296
0.000345
0.000215
0.000241
0.000266
0.000268
0.000222
0.000258
0.000246
0.000247
0.000268
0.000346
0.000472
0.000429
0.000323
0.000292
0.000237
0.000255
0.001709
0.000561
0.000382
0.000690
0.000228
0.000255
0.000319
0.000155
0.000055
0.000200
0.000234
0.000345
0.000239
0.000262
0.000455
0.000331
0.000311
0.000253
0.000513
0.000227
0.000252
0.000260
0.000274
0.000276
0.000264
0.000204
0.000386
0.000454
0.000430
0.000255
0.000255
0.000235
0.000252
0.000268
0.000260
0.000241
0.000254
0.000268
0.000294
0.000234
0.000056
0.000329
0.000335
0.000208
0.000256
0.000252
0.000254
0.000236
0.000293
0.000256
0.000234
0.000274
0.000332
0.000461
0.000346
0.000376
0.000252
0.000235
0.000244
0.000248
0.000271
0.000289
0.000253
0.000237
0.000266
0.000278
0.000359
0.000487
0.000255
0.000356
0.000231
0.000175
0.000056
0.000199
0.000221
0.000286
0.000241
0.000235
0.000272
0.000261
0.000229
0.000502
0.000207
0.000258
0.000261
0.000236
0.000263
0.000285
0.000289
0.000242
0.000348
0.000215
0.000239
0.000271
0.000256
0.000262
0.000265
0.000275
0.000262
0.000260
0.000251
0.000262
0.000501
0.000157
0.000055
0.000199
0.000237
0.000247
0.000291
0.000200
0.000246
0.000366
0.000406
0.000240
0.000228
0.000257
0.000258
0.000246
0.000220
0.000507
0.001747
0.000228
0.000273
0.000287
0.000329
0.000426
0.000349
0.000391
0.000460
0.000371
0.000333
0.000232
0.000271
0.000271
0.000276
0.001394
0.000056
0.000480
0.000250
0.000243
0.000205
0.000242
0.000252
0.000231
0.000257
0.000242
0.000274
0.000240
0.000281
0.000230
0.000288
0.000593
0.001589
0.000235
0.000233
0.000241
0.000264
0.000243
0.000265
0.000413
0.000401
0.000228
0.000352
0.000224
0.000268
0.000273
0.000267
0.000195
0.000055
0.001235
0.000496
0.000350
0.000259
0.000241
0.000218
0.000236
0.000236
0.000498
0.000211
0.000243
0.000250
0.000474
0.000439
0.000371
0.000321
0.000253
0.000223
0.000342
0.000356
0.000266
0.000261
0.000270
0.000237
0.000329
0.000499
0.000577
0.000273
0.000241
0.000269
0.000174
0.000057
0.000231
0.000207
0.000246
0.000248
0.001431
0.000355
0.000207
0.000254
0.000263
0.000233
0.000250
0.000254
0.000235
0.000267
0.000271
0.000297
0.000590
0.000475
0.000274
0.001749
0.000257
0.000287
0.000331
0.000409
0.000548
0.000383
0.000243
0.000251
0.000263
0.000266
0.000205
0.000056
0.000213
0.000252
0.000240
0.000334
0.001242
0.000232
0.000250
0.000259
0.000242
0.000236
0.000237
0.000256
0.000274
0.000246
0.000251
0.000287
0.000580
0.000321
0.000310
0.000255
0.000271
0.000268
0.000254
0.000227
0.000296
0.000262
0.000235
0.000274
0.000291
0.000309
0.000588
0.000059
0.000221
0.000246
0.000232
0.000261
0.000264
0.000246
0.000227
0.000265
0.000268
0.000280
0.001415
0.000223
0.000246
0.000242
0.000247
0.000252
0.000282
0.000247
0.000283
0.000238
0.000314
0.000444
0.000568
0.000286
0.000220
0.000273
0.001766
0.000266
0.000250
0.000435
0.000349
0.000058
0.000207
0.000398
0.000458
0.000500
0.000515
0.000562
0.001469
0.000421
0.000517
0.000660
0.000550
0.000767
0.000433
0.000626
0.000580
0.001955
0.000392
0.000374
0.000384
0.000322
0.000226
0.000283
0.000291
0.000271
0.000247
0.000296
0.000291
0.000284
0.000262
0.000282
0.001365
0.000058
0.000214
0.000223
0.000240
0.000235
0.000267
0.000256
0.000231
0.000240
0.000246
0.000259
0.000233
0.000252
0.000277
0.000237
0.000259
0.000269
0.001804
0.000269
0.000262
0.000256
0.000243
0.000266
0.000272
0.000255
0.000481
0.000396
0.000320
0.000233
0.000257
0.000292
0.000202
0.000058
0.000203
0.001365
0.000322
0.000269
0.000250
0.000251
0.000228
0.000232
0.000236
0.000246
0.000212
0.000247
0.000259
0.000507
0.000362
0.000300
0.000244
0.001815
0.000361
0.000225
0.000247
0.000270
0.000255
0.000269
0.000270
0.000283
0.000263
0.000258
0.000271
0.000309
0.000211
0.000055
0.000196
0.000238
0.000252
0.001458
0.000211
0.000236
0.000249
0.000244
0.000239
0.000265
0.000249
0.000242
0.000251
0.000281
0.000239
0.000251
0.000267
0.000265
0.000274
0.000248
0.000272
0.001757
0.000284
0.001758
0.000260
0.000259
0.000249
0.000276
0.000263
0.000277
0.000201
0.000056
0.000208
0.000238
0.001376
0.000207
0.000251
0.000249
0.000254
0.000251
0.000244
0.000249
0.000261
0.000246
0.000254
0.000261
0.000256
0.000265
0.000276
0.000264
0.000290
0.000237
0.001875
0.000242
0.001838
0.000231
0.000262
0.000266
0.000229
0.000260
0.000244
0.000278
0.000195
0.000056
0.001450
0.000220
0.000221
0.000241
0.000243
0.000240
0.000368
0.000282
0.000236
0.000251
0.000252
0.000261
0.000297
0.000302
0.000424
0.000271
0.000262
0.000249
0.000256
0.000248
0.000274
0.000343
0.000219
0.000252
0.000276
0.000271
0.000273
0.000300
0.000716
0.000324
0.000209
0.000057
0.000213
0.000252
0.000266
0.000306
0.000363
0.000255
0.001689
0.000304
0.000285
0.000261
0.000255
0.000281
0.000256
0.000288
0.000279
0.000312
0.000317
0.000578
0.000398
0.000287
0.000273
0.000271
0.000265
0.000270
0.000333
0.000257
0.000264
0.000255
0.000259
0.000356
0.000419
0.000057
0.000254
0.000464
0.000264
0.000263
0.000248
0.000228
0.000226
0.000255
0.000248
0.000275
0.001498
0.000228
0.000231
0.000244
0.000244
0.000287
0.000278
0.000235
0.000267
0.000264
0.000260
0.000538
0.000397
0.000301
0.000267
0.000283
0.000266
0.000254
0.000244
0.000312
0.000162
0.000056
0.000185
0.000244
0.000293
0.000446
0.000407
0.000240
0.000218
0.000266
0.000233
0.000252
0.000231
0.000253
0.000260
0.000264
0.000240
0.000267
0.000436
0.001149
0.000236
0.000248
0.000281
0.000246
0.000347
0.000430
0.000253
0.000447
0.000448
0.000347
0.000382
0.000245
0.000172
0.000055
0.000220
0.000245
0.000260
0.000258
0.000261
0.000247
0.000441
0.000374
0.000356
0.000293
0.000365
0.000387
0.000406
0.000353
0.000250
0.000236
0.000240
0.000263
0.000399
0.000490
0.001242
0.000218
0.000277
0.000274
0.000232
0.000240
0.000257
0.000329
0.000406
0.000495
0.000202
0.000057
0.000218
0.000230
0.000256
0.000247
0.000236
0.000246
0.000242
0.000264
0.000330
0.000353
0.000470
0.000304
0.000241
0.000230
0.000257
0.000239
0.000249
0.000264
0.000261
0.000275
0.000420
0.000285
0.000388
0.000331
0.000366
0.000243
0.000268
0.000274
0.000251
0.000342
0.000156
0.000057
0.000318
0.000309
0.000380
0.000310
0.000442
0.000365
0.000241
0.000245
0.000243
0.000296
0.000238
0.000260
0.000233
0.000252
0.000242
0.000237
0.000278
0.000388
0.000473
0.000325
0.000222
0.000279
0.000241
0.000263
0.000255
0.000276
0.000267
0.000278
0.000263
0.000261
0.000342
0.000056
0.000256
0.000338
0.000236
0.000268
0.000222
0.000273
0.000215
0.000262
0.000267
0.000255
0.000249
0.000237
0.000303
0.000497
0.000443
0.000260
0.000241
0.000253
0.000253
0.000297
0.000225
0.000260
0.000262
0.000265
0.000278
0.000412
0.000285
0.000621
0.000404
0.000253
0.000174
0.000057
0.000392
0.000197
0.000215
0.000251
0.000246
0.000249
0.000234
0.000253
0.000256
0.000262
0.000217
0.000245
0.000277
0.000225
0.000239
0.000269
0.000253
0.000260
0.000294
0.000244
0.000260
0.000260
0.000264
0.000263
0.000270
0.000232
0.000266
0.000276
0.000260
0.000280
0.000201
0.000057
0.000182
0.000235
0.000244
0.000247
0.000229
0.000258
0.000262
0.000240
0.000259
0.000280
0.000229
0.000233
0.000263
0.000401
0.000249
0.000292
0.000242
0.000272
0.000254
0.000278
0.000266
0.000240
0.000254
0.000244
0.000270
0.000272
0.000257
0.000252
0.000271
0.000264
0.000206
0.000058
0.000210
0.000359
0.000368
0.000278
0.000298
0.000257
0.000257
0.000261
0.000220
0.000250
0.000277
0.000237
0.000248
0.000232
0.000259
0.000281
0.000248
0.000259
0.000249
0.000263
0.000276
0.000265
0.000278
0.000259
0.000288
0.000233
0.000258
0.000264
0.000278
0.000255
0.000204
0.000056
0.000193
0.000228
0.000266
0.000261
0.000252
0.000439
0.000216
0.000273
0.000257
0.000507
0.000430
0.000286
0.000226
0.000246
0.000279
0.000259
0.000240
0.000263
0.000263
0.000269
0.000264
0.000259
0.000257
0.000285
0.000743
0.000283
0.000268
0.000300
0.000276
0.000245
0.000193
0.000057
0.000226
0.000221
0.000245
0.000250
0.000412
0.000598
0.000277
0.000386
0.000203
0.000248
0.000248
0.000255
0.000248
0.000253
0.000255
0.000270
0.000271
0.000242
0.000689
0.000323
0.000309
0.000243
0.000264
0.000273
0.000283
0.000256
0.000263
0.000287
0.000232
0.000327
0.000312
0.000057
0.000217
0.000226
0.000259
0.000219
0.000256
0.000269
0.000216
0.000251
0.000236
0.000264
0.000241
0.000249
0.000248
0.000434
0.000639
0.000278
0.000240
0.000259
0.000261
0.000246
0.000264
0.000288
0.000482
0.000220
0.000261
0.000601
0.000419
0.000471
0.000256
0.000250
0.000190
0.000056
0.000202
0.000228
0.000249
0.000236
0.000260
0.000252
0.000372
0.000404
0.000580
0.000399
0.000213
0.000262
0.000278
0.000274
0.000251
0.000244
0.000245
0.000244
0.000281
0.000342
0.000386
0.000638
0.000364
0.000260
0.000350
0.000375
0.000494
0.000230
0.000272
0.000458
0.000369
0.000058
0.000261
0.000232
0.000441
0.000218
0.000239
0.000250
0.000259
0.000260
0.000230
0.000243
0.000427
0.000237
0.000421
0.000297
0.000215
0.000256
0.000268
0.000241
0.000274
0.000271
0.000271
0.000258
0.000251
0.000276
0.000397
0.000461
0.000432
0.000223
0.000263
0.000280
0.000193
0.000056
0.000230
0.000249
0.000229
0.000248
0.000246
0.000318
0.000322
0.000506
0.000333
0.000247
0.000374
0.000227
0.000245
0.000268
0.000256
0.000238
0.000254
0.000260
0.000368
0.000428
0.000399
0.000326
0.000468
0.000261
0.000388
0.000418
0.000384
0.000245
0.000258
0.000372
0.000291
0.000057
0.000231
0.000291
0.000203
0.000256
0.000253
0.000258
0.000245
0.000251
0.000273
0.000235
0.000241
0.000380
0.000454
0.000350
0.000367
0.000249
0.000250
0.000261
0.000267
0.000237
0.000249
0.000252
0.000264
0.000279
0.000274
0.000342
0.000554
0.000402
0.000251
0.000265
0.000193
0.000057
0.000207
0.000237
0.000279
0.000248
0.000243
0.000473
0.000445
0.000429
0.000313
0.000696
0.000258
0.000219
0.000242
0.000259
0.000251
0.000267
0.000275
0.000307
0.000502
0.000479
0.001398
0.000311
0.000261
0.000286
0.000266
0.000262
0.000386
0.000439
0.000345
0.000299
0.000182
0.000057
0.000221
0.000230
0.000268
0.000263
0.000201
0.000252
0.000301
0.000223
0.000249
0.000336
0.000331
0.000376
0.000286
0.000337
0.000377
0.000341
0.000237
0.000259
0.000264
0.000252
0.000249
0.000253
0.000310
0.000219
0.000329
0.000434
0.000443
0.000275
0.000244
0.000274
0.000193
0.000056
0.000239
0.000240
0.000257
0.000255
0.000238
0.000235
0.000477
0.000217
0.000232
0.000268
0.000227
0.000252
0.000263
0.000256
0.000245
0.000276
0.000258
0.000291
0.000248
0.000254
0.000285
0.000266
0.000288
0.000246
0.000264
0.000281
0.000268
0.000267
0.000263
0.000268
0.000178
0.000055
0.000241
0.000238
0.000275
0.000576
0.000261
0.000236
0.000241
0.000262
0.000245
0.000244
0.000249
0.000255
0.000261
0.000263
0.000236
0.000243
0.000271
0.000252
0.000311
0.000391
0.000494
0.000288
0.000202
0.000259
0.000270
0.000253
0.000267
0.000258
0.000267
0.000276
0.000200
0.000056
0.000352
0.000484
0.000248
0.000219
0.000233
0.000256
0.000411
0.000228
0.000228
0.000255
0.000252
0.000287
0.000408
0.000384
0.001877
0.000247
0.000244
0.000250
0.000280
0.000242
0.000395
0.000544
0.000542
0.000207
0.000229
0.000263
0.000275
0.000426
0.000275
0.000285
0.000168
0.000056
0.000270
0.000337
0.000367
0.000281
0.000498
0.000218
0.000221
0.000247
0.000249
0.000243
0.000259
0.000244
0.000266
0.000342
0.000381
0.000489
0.000214
0.000248
0.000255
0.000260
0.000246
0.000314
0.000242
0.000277
0.000274
0.000533
0.000450
0.000377
0.000456
0.000236
0.000201
0.000056
0.000210
0.000230
0.000255
0.000234
0.000250
0.000245
0.000269
0.000330
0.000291
0.000428
0.000379
0.000339
0.000214
0.000258
0.000266
0.000304
0.000287
0.000238
0.000269
0.000275
0.000241
0.000309
0.000543
0.000283
0.000303
0.000252
0.000258
0.000436
0.000432
0.000310
0.000167
0.000055
0.000226
0.000316
0.000248
0.000423
0.000381
0.000209
0.000235
0.000258
0.000269
0.000259
0.000252
0.000251
0.000228
0.000258
0.000257
0.000294
0.000490
0.000273
0.000291
0.000347
0.000491
0.000225
0.000278
0.000279
0.000300
0.000282
0.000250
0.000268
0.000468
0.000561
0.000161
0.000056
0.000198
0.000232
0.000244
0.000255
0.000247
0.000480
0.000218
0.000247
0.000275
0.000344
0.000531
0.000520
0.000213
0.000238
0.000247
0.000250
0.000273
0.000252
0.000240
0.000248
0.000283
0.000247
0.000386
0.000448
0.000302
0.000411
0.000291
0.000306
0.000328
0.000265
0.000155
0.000056
0.000187
0.000239
0.000313
0.000450
0.000307
0.000289
0.000255
0.000226
0.000249
0.000259
0.000250
0.000260
0.000265
0.000237
0.000249
0.000263
0.000248
0.000246
0.000257
0.000461
0.000507
0.000334
0.000214
0.000257
0.000280
0.000269
0.000262
0.000258
0.000267
0.000265
0.000196
0.000057
0.000294
0.000394
0.000428
0.000235
0.000221
0.000249
0.000315
0.000460
0.000281
0.000216
0.000264
0.000258
0.000287
0.000527
0.000317
0.000294
0.000233
0.000237
0.000254
0.000260
0.000276
0.000264
0.000267
0.000266
0.000262
0.000362
0.000368
0.000371
0.000318
0.000255
0.000174
0.000056
0.000217
0.000236
0.000250
0.000270
0.000237
0.000263
0.000227
0.000272
0.000249
0.000247
0.000255
0.000239
0.000284
0.001438
0.000233
0.000243
0.000265
0.000246
0.000271
0.000278
0.000263
0.000238
0.000276
0.000251
0.000267
0.000282
0.000263
0.000272
0.000259
0.000268
0.000187
0.000056
0.000205
0.000234
0.000248
0.000263
0.000223
0.000245
0.000260
0.000255
0.000227
0.000254
0.000245
0.000261
0.000260
0.000252
0.000261
0.000251
0.000250
0.000258
0.000269
0.000260
0.000251
0.000266
0.000251
0.000247
0.001299
0.000285
0.000581
0.000444
0.000302
0.000241
0.000192
0.000056
0.000207
0.000234
0.000246
0.000249
0.000423
0.000228
0.000242
0.000242
0.000253
0.000417
0.000409
0.000336
0.000237
0.000217
0.000269
0.000257
0.000259
0.000269
0.000241
0.000258
0.000260
0.000255
0.000336
0.000449
0.000419
0.000432
0.000230
0.000268
0.001372
0.000248
0.000179
0.000057
0.000374
0.000379
0.000326
0.000264
0.000228
0.000234
0.000223
0.000247
0.000263
0.000256
0.000246
0.000258
0.000312
0.000417
0.000400
0.000354
0.000344
0.000220
0.000246
0.000258
0.000264
0.000280
0.000251
0.000269
0.000267
0.000262
0.000449
0.000435
0.000378
0.000358
0.000158
0.000055
0.000209
0.000239
0.001263
0.000446
0.000440
0.000353
0.000315
0.000497
0.000265
0.000343
0.000224
0.000227
0.000263
0.000255
0.000248
0.000266
0.000461
0.000438
0.000320
0.000382
0.000265
0.000248
0.000264
0.000506
0.000224
0.000267
0.000250
0.000280
0.000337
0.000544
0.000279
0.000058
0.000379
0.000314
0.000243
0.000218
0.001658
0.000392
0.000278
0.000244
0.000247
0.000250
0.000228
0.000246
0.000249
0.000261
0.000245
0.000266
0.000238
0.000368
0.000343
0.000416
0.000385
0.000243
0.000258
0.000258
0.000257
0.000279
0.000267
0.000235
0.000269
0.000279
0.000218
0.000057
0.000203
0.000345
0.000226
0.000217
0.000255
0.000242
0.000259
0.000240
0.000237
0.000228
0.001567
0.000391
0.000187
0.000244
0.000237
0.000256
0.000274
0.000261
0.000237
0.000295
0.000248
0.000252
0.000278
0.000469
0.000372
0.000442
0.000228
0.000264
0.000277
0.000277
0.000172
0.000057
0.000208
0.000422
0.000218
0.000233
0.000325
0.000465
0.000363
0.000325
0.000461
0.000202
0.000237
0.000248
0.000267
0.000264
0.000258
0.001532
0.000245
0.000277
0.000240
0.000275
0.000298
0.000257
0.000230
0.000256
0.000260
0.000273
0.000507
0.000383
0.000297
0.000278
0.000154
0.000058
0.000207
0.000233
0.000254
0.000239
0.000227
0.000261
0.000236
0.000249
0.000335
0.000320
0.000462
0.000265
0.000235
0.000261
0.000240
0.000278
0.000273
0.000258
0.000269
0.000230
0.000257
0.000344
0.001229
0.000249
0.000241
0.000268
0.000255
0.000261
0.000259
0.000270
0.000184
0.000056
0.000264
0.000381
0.000262
0.000359
0.000242
0.000248
0.000257
0.000286
0.000238
0.000263
0.000233
0.000269
0.000242
0.000255
0.000254
0.000264
0.000267
0.000268
0.000265
0.000247
0.000248
0.000293
0.000251
0.000280
0.000287
0.000268
0.000268
0.000262
0.000254
0.000455
0.001365
0.000055
0.000222
0.000257
0.000222
0.000264
0.000233
0.000256
0.000250
0.000222
0.000244
0.000256
0.000280
0.000253
0.000245
0.000242
0.000271
0.000243
0.001717
0.000258
0.000228
0.000270
0.000243
0.000260
0.000278
0.000255
0.000297
0.000255
0.000248
0.000281
0.000266
0.000257
0.000216
0.000056
0.000362
0.000314
0.001294
0.000240
0.000219
0.000246
0.000257
0.000247
0.000278
0.000238
0.000236
0.000360
0.000429
0.000393
0.000282
0.000220
0.000246
0.000259
0.000263
0.000262
0.000239
0.000284
0.000256
0.000284
0.000277
0.000380
0.000369
0.000370
0.000308
0.000240
0.000200
0.000056
0.000191
0.000247
0.000246
0.000245
0.000280
0.000199
0.000237
0.000283
0.000411
0.001319
0.000268
0.000216
0.000243
0.000272
0.000259
0.000280
0.000240
0.000253
0.000350
0.000447
0.000344
0.000231
0.000239
0.000239
0.000286
0.000289
0.000253
0.000298
0.000272
0.000269
0.000194
0.000056
0.000253
0.000418
0.000394
0.000216
0.000227
0.000237
0.000250
0.000280
0.000263
0.000244
0.000233
0.000250
0.000455
0.000530
0.000456
0.001432
0.000261
0.000247
0.000337
0.000353
0.000473
0.000457
0.000517
0.000320
0.000232
0.000261
0.000266
0.000280
0.000264
0.000275
0.000186
0.000055
0.000201
0.000318
0.000469
0.000495
0.000253
0.000242
0.000247
0.000241
0.000238
0.000273
0.000235
0.000262
0.000279
0.000231
0.000261
0.000294
0.000387
0.000438
0.000333
0.001323
0.000274
0.000252
0.000256
0.000257
0.000516
0.000393
0.000373
0.000249
0.000276
0.000275
0.000187
0.000057
0.000207
0.000256
0.000226
0.000269
0.000225
0.000304
0.000422
0.000382
0.000381
0.000211
0.000255
0.000250
0.000266
0.000287
0.000245
0.000271
0.000253
0.000244
0.000291
0.000297
0.000468
0.000403
0.000307
0.001350
0.000419
0.000226
0.000268
0.000426
0.000484
0.000299
0.000311
0.000056
0.000201
0.000232
0.000252
0.000245
0.000252
0.000255
0.001682
0.000242
0.000208
0.000252
0.000253
0.000249
0.000251
0.000325
0.000326
0.000289
0.000269
0.000307
0.000627
0.000319
0.000268
0.000293
0.000218
0.000253
0.001515
0.000363
0.000400
0.000430
0.000331
0.000308
0.000162
0.000056
0.000205
0.000255
0.000250
0.000261
0.000240
0.000261
0.001705
0.000226
0.000254
0.000261
0.000330
0.000403
0.001471
0.000344
0.000386
0.000247
0.000255
0.000231
0.000272
0.000271
0.001552
0.000621
0.000319
0.000302
0.000222
0.000261
0.000266
0.000276
0.000248
0.000249
0.000196
0.000056
0.000209
0.000241
0.000287
0.000227
0.000266
0.000274
0.000274
0.000257
0.000251
0.000251
0.000252
0.000250
0.000296
0.000237
0.000251
0.001499
0.000283
0.000225
0.000263
0.000282
0.000270
0.000256
0.000429
0.001274
0.000278
0.000231
0.000267
0.000258
0.000404
0.000240
0.000198
0.000056
0.000219
0.000251
0.000220
0.000248
0.000238
0.000234
0.000230
0.001694
0.000257
0.000214
0.000366
0.000267
0.000221
0.000229
0.000252
0.001389
0.000255
0.000240
0.000263
0.000258
0.000263
0.000342
0.000294
0.001305
0.000266
0.000242
0.000256
0.000270
0.001388
0.000284
0.000217
0.000056
0.000259
0.000323
0.000221
0.000219
0.000266
0.000229
0.000283
0.000249
0.000265
0.000244
0.000262
0.000262
0.000255
0.000241
0.000342
0.001500
0.000222
0.000276
0.000249
0.000242
0.000286
0.000259
0.000249
0.001549
0.000307
0.000241
0.000265
0.001279
0.000277
0.000233
0.000212
0.000056
0.000205
0.000442
0.000304
0.000205
0.000236
0.000242
0.000263
0.000255
0.000263
0.000272
0.000233
0.000256
0.000263
0.000307
0.000404
0.001204
0.000234
0.000243
0.000266
0.000274
0.000221
0.000249
0.000252
0.000365
0.001265
0.000229
0.000249
0.000252
0.000262
0.001335
0.000339
0.000056
0.000323
0.000241
0.000223
0.000231
0.000239
0.000258
0.000246
0.000243
0.000291
0.000253
0.000226
0.000248
0.000371
0.000185
0.000543
0.001369
0.000214
0.000256
0.000295
0.000511
0.000298
0.000320
0.001415
0.000301
0.000236
0.000262
0.000254
0.001301
0.000306
0.000449
0.000408
0.000056
0.000257
0.000238
0.000251
0.000255
0.000252
0.000255
0.000272
0.000263
0.000245
0.000330
0.000258
0.000455
0.001338
0.000233
0.000279
0.000256
0.000280
0.000222
0.000245
0.000240
0.000342
0.001246
0.000265
0.000226
0.000260
0.000242
0.001542
0.000422
0.000464
0.000216
0.000196
0.000056
0.000183
0.000235
0.000252
0.000240
0.000245
0.000265
0.000241
0.000326
0.000442
0.000412
0.000271
0.001489
0.000207
0.000240
0.000274
0.000251
0.000276
0.000264
0.001693
0.000267
0.000379
0.000349
0.001277
0.000397
0.000278
0.000313
0.000257
0.000261
0.000262
0.000270
0.000189
0.000056
0.000203
0.000243
0.000331
0.000291
0.000286
0.000554
0.000252
0.000300
0.001458
0.000239
0.000383
0.000265
0.000241
0.000354
0.000314
0.001324
0.000277
0.000245
0.000242
0.000261
0.001501
0.000416
0.000253
0.000286
0.000276
0.000234
0.000457
0.000330
0.000253
0.000236
0.000264
0.000055
0.000194
0.000351
0.000360
0.000251
0.000230
0.001515
0.000209
0.000261
0.000273
0.000268
0.000263
0.000240
0.000318
0.001478
0.000312
0.000218
0.000382
0.001195
0.000353
0.000425
0.000394
0.000243
0.000242
0.000253
0.000306
0.000219
0.000457
0.000225
0.000262
0.000280
0.000196
0.000058
0.000211
0.000364
0.000255
0.000343
0.001310
0.000284
0.000335
0.000227
0.000226
0.000246
0.000253
0.000385
0.001475
0.000210
0.000229
0.000243
0.001391
0.000292
0.000405
0.000434
0.000385
0.000230
0.000250
0.000256
0.000262
0.000304
0.000232
0.000272
0.000270
0.000246
0.000236
0.000057
0.000215
0.000459
0.001384
0.000201
0.000276
0.000298
0.000215
0.000253
0.000286
0.000370
0.001380
0.000214
0.000261
0.000259
0.000258
0.001303
0.000658
0.000290
0.000319
0.000415
0.000308
0.000246
0.000270
0.000247
0.000276
0.000288
0.000270
0.000300
0.000421
0.000446
0.001387
0.000062
0.000211
0.000225
0.000244
0.000228
0.000268
0.000392
0.000488
0.001312
0.000231
0.000235
0.000246
0.001441
0.000539
0.000223
0.000224
0.000412
0.000242
0.000251
0.000253
0.000292
0.000251
0.000252
0.000282
0.000250
0.000253
0.000306
0.000537
0.000373
0.001486
0.000268
0.000153
0.000057
0.000217
0.000256
0.000405
0.000501
0.001222
0.000303
0.000230
0.000258
0.000245
0.000254
0.000248
0.000293
0.000372
0.000499
0.000298
0.000236
0.000258
0.000265
0.000250
0.000306
0.000235
0.000257
0.000257
0.000262
0.000264
0.000565
0.000373
0.000265
0.000330
0.001406
0.000177
0.000057
0.000205
0.000235
0.000267
0.000479
0.000326
0.000307
0.000317
0.000332
0.000303
0.000265
0.000221
0.000265
0.000245
0.000310
0.000236
0.000310
0.000564
0.000293
0.000292
0.000389
0.000270
0.000410
0.000234
0.000237
0.000262
0.000274
0.000237
0.000294
0.000305
0.000548
0.000289
0.000057
0.000191
0.001411
0.000225
0.000336
0.000408
0.000470
0.000321
0.000339
0.000198
0.000249
0.000265
0.000248
0.000281
0.000258
0.000253
0.000256
0.000266
0.001252
0.000354
0.000260
0.000263
0.000268
0.000269
0.000277
0.000285
0.000235
0.000279
0.000249
0.000362
0.000378
0.000275
0.000058
0.000210
0.000247
0.000233
0.001507
0.000323
0.000235
0.000228
0.000251
0.000227
0.000240
0.000259
0.000281
0.000240
0.000251
0.000296
0.000229
0.000268
0.000245
0.000254
0.000256
0.001437
0.000240
0.000248
0.000259
0.000261
0.000247
0.000270
0.000277
0.000262
0.000496
0.000343
0.000056
0.000186
0.000239
0.000393
0.000291
0.000238
0.000258
0.001558
0.000316
0.000301
0.000217
0.000260
0.000305
0.000333
0.000232
0.000229
0.000248
0.000242
0.000268
0.000263
0.000254
0.000601
0.000412
0.001104
0.000269
0.000231
0.000260
0.000280
0.000249
0.000303
0.000251
0.000372
0.000056
0.000237
0.000346
0.000211
0.000235
0.000248
0.000237
0.000248
0.000225
0.000297
0.001585
0.000388
0.000290
0.000233
0.000248
0.000258
0.000245
0.000266
0.000273
0.000258
0.000315
0.000310
0.000565
0.000361
0.001371
0.000238
0.000270
0.000259
0.000258
0.000274
0.000485
0.000301
0.000056
0.000243
0.000263
0.000222
0.000234
0.000224
0.000244
0.000257
0.000286
0.000255
0.001635
0.000292
0.000257
0.000239
0.000260
0.000468
0.000252
0.000543
0.000374
0.000275
0.000270
0.000486
0.000548
0.001216
0.000259
0.000235
0.000254
0.001697
0.000493
0.000632
0.000281
0.000144
0.000056
0.000205
0.000229
0.000242
0.000235
0.000257
0.000241
0.000252
0.000645
0.000447
0.000328
0.000283
0.000210
0.000253
0.000262
0.000278
0.000272
0.000235
0.000244
0.000253
0.000283
0.000313
0.000464
0.001247
0.000223
0.000264
0.000261
0.001903
0.000373
0.000387
0.000347
0.000151
0.000056
0.000205
0.000228
0.000249
0.001577
0.000416
0.000208
0.000236
0.000258
0.000255
0.000279
0.000380
0.000368
0.000363
0.000282
0.000320
0.000533
0.000346
0.001213
0.000268
0.000228
0.000259
0.000259
0.000276
0.000553
0.000445
0.000483
0.000252
0.000271
0.000267
0.000279
0.000187
0.000057
0.000205
0.000229
0.000241
0.001541
0.000252
0.000235
0.000240
0.000253
0.000245
0.000254
0.000252
0.000272
0.000267
0.000274
0.000290
0.000448
0.000332
0.000341
0.001389
0.000244
0.000249
0.000261
0.000256
0.000279
0.000313
0.000572
0.000416
0.000264
0.000283
0.000231
0.000434
0.000056
0.000208
0.000246
0.000269
0.001540
0.000291
0.000218
0.000267
0.000238
0.000256
0.000260
0.000249
0.000273
0.000244
0.000256
0.000417
0.000574
0.001309
0.000742
0.000262
0.000338
0.000234
0.000244
0.000251
0.000276
0.001684
0.000810
0.000217
0.000266
0.000277
0.000282
0.000195
0.000056
0.000224
0.000239
0.000252
0.000240
0.000269
0.000261
0.000216
0.000254
0.000239
0.000239
0.000284
0.000283
0.000252
0.000250
0.000259
0.000251
0.000286
0.001587
0.000697
0.000397
0.000291
0.000225
0.000253
0.000308
0.000265
0.000239
0.000265
0.000278
0.001402
0.000399
0.000286
0.000057
0.000190
0.000236
0.000271
0.000230
0.000265
0.000228
0.000278
0.000230
0.000254
0.000259
0.000311
0.000430
0.000398
0.000325
0.000213
0.000249
0.000279
0.001380
0.000687
0.000471
0.000336
0.000274
0.000234
0.000245
0.000298
0.000242
0.000249
0.000267
0.001484
0.000411
0.000212
0.000056
0.000224
0.000232
0.000245
0.000247
0.000249
0.000251
0.000242
0.000237
0.000275
0.000287
0.000402
0.000319
0.000327
0.000224
0.000241
0.000245
0.000266
0.000254
0.001580
0.000622
0.000468
0.000333
0.000213
0.000251
0.000269
0.000265
0.000255
0.000279
0.000265
0.001492
0.000216
0.000056
0.000221
0.000216
0.000234
0.000258
0.000260
0.000246
0.000246
0.000307
0.000357
0.000455
0.000388
0.000354
0.000348
0.000233
0.000242
0.000252
0.000298
0.000248
0.000253
0.001949
0.000304
0.000240
0.000449
0.000243
0.000248
0.000258
0.000266
0.000267
0.000268
0.000276
0.000409
0.000056
0.000240
0.000228
0.000233
0.000251
0.000247
0.000252
0.000224
0.000237
0.000292
0.000248
0.000227
0.000237
0.000440
0.000274
0.000485
0.000443
0.000225
0.000265
0.000255
0.000248
0.000245
0.000294
0.001472
0.001049
0.000229
0.000238
0.000269
0.000273
0.000270
0.000267
0.000186
0.000057
0.000196
0.001343
0.000291
0.000219
0.000229
0.000253
0.000253
0.000240
0.000243
0.000271
0.000236
0.000266
0.000235
0.000460
0.000290
0.000479
0.000252
0.000248
0.000264
0.000271
0.000276
0.000223
0.000262
0.000261
0.001342
0.000666
0.000306
0.000383
0.000375
0.000403
0.000301
0.000057
0.000195
0.000347
0.000371
0.001199
0.000210
0.000251
0.000234
0.000259
0.000256
0.000249
0.000275
0.000234
0.000312
0.000347
0.000504
0.000314
0.000226
0.000280
0.000333
0.000209
0.000254
0.000269
0.000235
0.000267
0.000277
0.001534
0.000748
0.000313
0.000255
0.000278
0.000194
0.000056
0.000217
0.000372
0.000349
0.000363
0.001262
0.000266
0.000202
0.000247
0.000230
0.000249
0.000248
0.000275
0.000216
0.000238
0.000255
0.000255
0.000270
0.000235
0.000257
0.000257
0.000264
0.000268
0.000309
0.000326
0.000218
0.000265
0.000268
0.001452
0.000267
0.000240
0.000167
0.000056
0.000204
0.000227
0.000251
0.000271
0.000345
0.000382
0.000388
0.000280
0.001577
0.000261
0.000275
0.000463
0.000366
0.000239
0.000430
0.000232
0.000242
0.000261
0.000270
0.000265
0.000280
0.000263
0.000264
0.000267
0.000273
0.000403
0.000467
0.000250
0.001576
0.000221
0.000194
0.000056
0.000202
0.000239
0.000247
0.000247
0.000245
0.000244
0.000264
0.000312
0.000412
0.002035
0.000228
0.000238
0.000255
0.000258
0.000258
0.000303
0.000222
0.000253
0.000447
0.000270
0.000352
0.000462
0.001440
0.000255
0.000237
0.002050
0.000241
0.000235
0.000267
0.001526
0.000157
0.000055
0.000461
0.000310
0.000461
0.000225
0.000275
0.000211
0.000259
0.000266
0.000265
0.000229
0.000250
0.000426
0.000360
0.000351
0.000385
0.000247
0.000242
0.001560
0.000225
0.000573
0.001892
0.000293
0.000245
0.001655
0.001888
0.000745
0.000281
0.000253
0.000295
0.000494
0.000322
0.000056
0.000188
0.000247
0.000279
0.000222
0.001422
0.001734
0.001072
0.000203
0.000231
0.001586
0.001975
0.000213
0.000244
0.000427
0.000343
0.000287
0.000588
0.000335
0.000210
0.000248
0.000248
0.000250
0.000296
0.001570
0.001215
0.001423
0.000283
0.000284
0.000260
0.000496
0.000227
0.000056
0.000217
0.000241
0.000233
0.000242
0.000227
0.000244
0.000250
0.000255
0.000258
0.000246
0.000257
0.000348
0.000352
0.000507
0.000284
0.000248
0.000246
0.000274
0.000267
0.000301
0.000233
0.000247
0.001529
0.000471
0.002108
0.000241
0.000262
0.000306
0.000491
0.000358
0.000205
0.000057
0.000269
0.000288
0.000477
0.000315
0.000188
0.000238
0.000248
0.000247
0.000241
0.000241
0.000246
0.000263
0.000283
0.001589
0.001347
0.001243
0.000272
0.000223
0.000247
0.000273
0.000289
0.000273
0.000243
0.000251
0.002251
0.000216
0.000238
0.000305
0.000320
0.000307
0.000224
0.000057
0.000237
0.000346
0.000581
0.000309
0.000224
0.000225
0.000246
0.000264
0.001908
0.001424
0.000210
0.000324
0.000387
0.000411
0.000273
0.000224
0.000251
0.000269
0.000267
0.000266
0.000258
0.000260
0.000486
0.000220
0.000273
0.000270
0.000252
0.000268
0.000284
0.000243
0.000207
0.000056
0.000221
0.000241
0.000246
0.000243
0.000278
0.000261
0.001528
0.001407
0.001341
0.000226
0.000238
0.000242
0.000264
0.000263
0.000248
0.000246
0.000250
0.002107
0.000245
0.000243
0.000263
0.000263
0.000253
0.000271
0.000262
0.000271
0.000260
0.000254
0.000280
0.000255
0.000176
0.000056
0.000206
0.002670
0.001417
0.000211
0.000303
0.000324
0.000210
0.000286
0.000231
0.000240
0.000255
0.000244
0.000229
0.000249
0.000271
0.000251
0.000270
0.000279
0.000250
0.000264
0.000281
0.000266
0.000273
0.000266
0.000244
0.000246
0.000267
0.000269
0.000267
0.000269
0.000369
0.000056
0.001561
0.000247
0.001235
0.000231
0.000224
0.000232
0.000268
0.000279
0.000218
0.000349
0.000433
0.000296
0.000288
0.000213
0.000248
0.002162
0.000225
0.000256
0.000346
0.000457
0.000342
0.000298
0.000230
0.000257
0.000262
0.000246
0.000266
0.000279
0.000273
0.002677
0.000204
0.000057
0.000185
0.000227
0.000326
0.000433
0.000276
0.000296
0.000213
0.000233
0.000255
0.000259
0.000261
0.000247
0.000226
0.000278
0.000245
0.000238
0.000481
0.000480
0.000363
0.000220
0.000219
0.000282
0.000285
0.000250
0.000249
0.000243
0.000271
0.000274
0.000245
0.000363
0.000359
0.000056
0.001127
0.000266
0.000311
0.000485
0.000241
0.000227
0.000228
0.000241
0.000249
0.002430
0.000238
0.000385
0.000221
0.000378
0.000304
0.000258
0.000240
0.000254
0.000270
0.000228
0.000252
0.000322
0.000713
0.000290
0.001874
0.001380
0.000456
0.000541
0.000224
0.000284
0.000201
0.000057
0.000211
0.000367
0.000243
0.000245
0.000255
0.000223
0.000257
0.000246
0.000253
0.000253
0.000256
0.000219
0.000254
0.000372
0.000290
0.000480
0.001847
0.001341
0.000458
0.000422
0.000457
0.000236
0.000243
0.000256
0.002143
0.000599
0.000333
0.000235
0.000271
0.000282
0.000193
0.000056
0.000217
0.000240
0.000254
0.000248
0.000267
0.000290
0.000439
0.000324
0.000304
0.000223
0.000244
0.000250
0.000267
0.002101
0.000339
0.000419
0.000210
0.000254
0.000286
0.000242
0.000252
0.002459
0.000338
0.000219
0.000258
0.000254
0.000257
0.000268
0.000313
0.000250
0.000196
0.000055
0.000219
0.000316
0.000603
0.000332
0.000245
0.000226
0.000228
0.000255
0.000264
0.000249
0.001961
0.000390
0.000270
0.000272
0.000241
0.000257
0.000279
0.000238
0.002210
0.000446
0.000224
0.000269
0.000270
0.000260
0.000257
0.000247
0.000301
0.000233
0.000272
0.000251
0.000197
0.000075
0.000196
0.000243
0.000244
0.000226
0.000245
0.000260
0.000241
0.000236
0.000238
0.002187
0.000212
0.000290
0.000217
0.000426
0.000236
0.000241
0.000309
0.000261
0.000254
0.000248
0.001961
0.000292
0.000337
0.000359
0.000435
0.000407
0.000304
0.000254
0.000251
0.000269
0.000189
0.000059
0.000211
0.000229
0.000239
0.000255
0.000243
0.000323
0.000211
0.002336
0.000237
0.000224
0.000259
0.000256
0.000231
0.000282
0.000276
0.002125
0.000588
0.000218
0.000261
0.000242
0.000265
0.000256
0.000284
0.000272
0.000259
0.000252
0.000294
0.000253
0.000263
0.000265
0.000191
0.000056
0.001814
0.001436
0.000200
0.000225
0.000257
0.000239
0.000251
0.000283
0.000378
0.000369
0.002165
0.000256
0.000235
0.000266
0.000282
0.000512
0.000401
0.000298
0.000222
0.000254
0.000246
0.000266
0.000271
0.000224
0.000253
0.000266
0.000269
0.000262
0.000418
0.000620
0.000267
0.000056
0.000216
0.000252
0.000240
0.000259
0.000270
0.000243
0.000251
0.000240
0.001522
0.002303
0.000380
0.000255
0.000401
0.000740
0.000311
0.000239
0.000248
0.000248
0.000270
0.000262
0.000253
0.000245
0.000263
0.000256
0.003018
0.000325
0.000238
0.000268
0.000286
0.000280
0.000483
0.000057
0.001941
0.000236
0.000229
0.000233
0.000302
0.000377
0.000479
0.000287
0.000237
0.000221
0.000237
0.000255
0.000258
0.000260
0.000272
0.000246
0.000265
0.000276
0.001819
0.000235
0.000239
0.000251
0.000297
0.000263
0.000270
0.000251
0.001477
0.000331
0.000238
0.000263
0.000175
0.000056
0.000200
0.000247
0.000224
0.000243
0.000248
0.000244
0.000373
0.000303
0.000354
0.000354
0.000220
0.000241
0.000262
0.000329
0.000423
0.000320
0.000226
0.000251
0.000264
0.000452
0.000416
0.000392
0.000258
0.000262
0.000256
0.000251
0.000256
0.000269
0.000294
0.000251
0.000203
0.000057
0.001441
0.000453
0.000212
0.001940
0.000304
0.000437
0.000395
0.000310
0.000226
0.000245
0.000269
0.000244
0.000242
0.000252
0.000290
0.000229
0.000491
0.000319
0.000350
0.000337
0.000374
0.000232
0.000253
0.000269
0.000272
0.000271
0.000260
0.000283
0.000373
0.000417
0.001395
0.000056
0.000217
0.000221
0.002073
0.000322
0.000314
0.000237
0.000259
0.000251
0.000262
0.000260
0.000214
0.000248
0.000254
0.000264
0.000277
0.000352
0.000697
0.001764
0.000228
0.000251
0.000256
0.000282
0.000507
0.000360
0.001509
0.000291
0.000360
0.001924
0.000264
0.000248
0.000194
0.000056
0.000203
0.000218
0.000241
0.000239
0.000233
0.000247
0.000248
0.000309
0.000311
0.000264
0.000377
0.000363
0.000345
0.000295
0.000242
0.000269
0.000263
0.000240
0.000258
0.000258
0.000314
0.000296
0.000249
0.000264
0.000264
0.001514
0.000294
0.000377
0.002073
0.000238
0.000174
0.000056
0.000188
0.000239
0.000241
0.000252
0.000486
0.000202
0.000254
0.000466
0.000270
0.000274
0.000307
0.000200
0.000272
0.000263
0.000270
0.000335
0.000430
0.000426
0.000253
0.000397
0.000527
0.000509
0.001519
0.000220
0.000258
0.002070
0.000247
0.000245
0.000246
0.000296
0.000182
0.000056
0.000191
0.000241
0.000225
0.000242
0.000257
0.000279
0.000228
0.000273
0.000251
0.000261
0.001809
0.000317
0.000383
0.000281
0.000462
0.000375
0.000428
0.001411
0.000238
0.000288
0.002233
0.000448
0.000257
0.000234
0.000262
0.000276
0.000505
0.000219
0.000255
0.000294
0.000182
0.000058
0.000235
0.000358
0.000331
0.000274
0.000202
0.000244
0.000260
0.000247
0.000264
0.000290
0.000233
0.000253
0.000264
0.000275
0.000392
0.000458
0.001253
0.000270
0.000270
0.002055
0.000229
0.000291
0.000230
0.000265
0.000254
0.000273
0.000278
0.000252
0.000249
0.000280
0.000183
0.000057
0.000200
0.000473
0.001982
0.000248
0.000226
0.000252
0.000257
0.000372
0.000417
0.000386
0.001293
0.000371
0.000360
0.002083
0.000201
0.000251
0.000274
0.000267
0.000257
0.000237
0.000289
0.000291
0.000249
0.000578
0.000313
0.000311
0.000316
0.002243
0.000566
0.000386
0.000413
0.000055
0.000212
0.000229
0.000240
0.001964
0.000231
0.000222
0.000250
0.000239
0.000246
0.000257
0.000245
0.000260
0.000265
0.000250
0.000618
0.001305
0.000264
0.000240
0.000263
0.000266
0.000234
0.000249
0.000261
0.000291
0.000310
0.000508
0.000414
0.000238
0.001600
0.000266
0.000161
0.000057
0.000209
0.000221
0.000242
0.000235
0.000261
0.000270
0.000224
0.000247
0.000363
0.000381
0.000285
0.001383
0.000222
0.000230
0.000247
0.000289
0.000233
0.000262
0.000334
0.000457
0.000420
0.000416
0.000227
0.001570
0.000232
0.000255
0.000292
0.000278
0.000264
0.000286
0.000170
0.000056
0.000216
0.000224
0.000264
0.000269
0.000244
0.000248
0.000237
0.000241
0.000278
0.000226
0.000253
0.000250
0.000266
0.001489
0.000354
0.000208
0.000264
0.000246
0.000276
0.000316
0.000367
0.000269
0.000253
0.000257
0.000267
0.000261
0.000262
0.001414
0.000269
0.000236
0.000181
0.000056
0.000193
0.000233
0.000261
0.000260
0.000268
0.000238
0.000249
0.000245
0.000217
0.000265
0.000249
0.000255
0.000241
0.000308
0.000341
0.000347
0.000287
0.000242
0.001629
0.000239
0.000251
0.000260
0.000259
0.000301
0.000434
0.000365
0.000401
0.000260
0.000258
0.001610
0.000153
0.000057
0.000430
0.000260
0.000402
0.000258
0.000231
0.000214
0.000252
0.000273
0.000252
0.000258
0.000223
0.000237
0.001504
0.000266
0.000294
0.000217
0.000257
0.000268
0.000257
0.000262
0.000254
0.000237
0.000258
0.000269
0.000288
0.000385
0.000441
0.000310
0.000291
0.000255
0.000195
0.000055
0.000210
0.000305
0.000417
0.000336
0.000328
0.000281
0.000253
0.000249
0.000253
0.000258
0.000243
0.000226
0.000253
0.000242
0.001297
0.000275
0.000223
0.000252
0.000265
0.000266
0.000243
0.000266
0.000250
0.000265
0.000253
0.000261
0.000332
0.000831
0.000293
0.000242
0.000171
0.000057
0.000200
0.001562
0.000253
0.000312
0.000486
0.000361
0.000235
0.000238
0.000271
0.000248
0.000241
0.000260
0.000273
0.000271
0.000260
0.001524
0.000254
0.000286
0.000264
0.000263
0.000263
0.000240
0.000265
0.000264
0.000258
0.000280
0.000422
0.000365
0.000350
0.000239
0.000184
0.000058
0.000184
0.000249
0.000259
0.001583
0.000427
0.000349
0.000223
0.000242
0.000258
0.000268
0.000276
0.000258
0.000252
0.000255
0.000231
0.000273
0.000368
0.001357
0.000249
0.000239
0.001491
0.000335
0.000603
0.000360
0.000320
0.000231
0.000270
0.000477
0.000222
0.000267
0.000180
0.000055
0.000295
0.000214
0.000249
0.000244
0.000249
0.000255
0.000240
0.000250
0.000257
0.000253
0.000247
0.000274
0.000296
0.000555
0.001613
0.001483
0.000376
0.000556
0.000332
0.000192
0.000232
0.000256
0.000254
0.000270
0.000246
0.000266
0.000262
0.000267
0.001532
0.000321
0.000171
0.000056
0.000219
0.000352
0.000352
0.000333
0.000238
0.000225
0.000249
0.000358
0.000443
0.000356
0.002172
0.000308
0.000708
0.000524
0.000438
0.000260
0.000333
0.000397
0.000328
0.000279
0.000401
0.000275
0.001521
0.000527
0.000226
0.000250
0.000263
0.000252
0.000261
0.000270
0.000201
0.000056
0.000204
0.000252
0.000257
0.000252
0.000240
0.001663
0.000883
0.000997
0.000205
0.000235
0.000259
0.000256
0.000263
0.000257
0.000251
0.000254
0.000249
0.000262
0.000270
0.000282
0.001430
0.000314
0.000257
0.000221
0.000239
0.000261
0.000264
0.000300
0.000242
0.000285
0.001903
0.000056
0.000196
0.000228
0.001545
0.000977
0.000253
0.000371
0.000228
0.000242
0.000244
0.000256
0.000249
0.000251
0.000250
0.001979
0.000477
0.000213
0.000243
0.000257
0.000273
0.000252
0.000213
