0.000130
0.016216
0.005363
0.000299
0.000238
0.000297
0.000327
0.000226
0.000324
0.000283
0.000254
0.000330
0.000489
0.000555
0.000433
0.000274
0.000271
0.000432
0.000257
0.000418
0.001837
0.000407
0.000689
0.000298
0.000218
0.000314
0.000307
0.000307
0.000422
0.000371
0.000512
0.000495
0.000057
0.000204
0.000266
0.000291
0.000267
0.000252
0.000245
0.000278
0.000289
0.000269
0.000283
0.000436
0.000416
0.000305
0.000250
0.000377
0.000351
0.000361
0.000250
0.000259
0.001713
0.000295
0.000262
0.000447
0.000246
0.000278
0.000284
0.000282
0.000297
0.000275
0.000336
0.000423
0.000057
0.000231
0.000258
0.000264
0.000263
0.000245
0.000267
0.000245
0.000263
0.000280
0.001669
0.000221
0.000245
0.000268
0.000269
0.000280
0.000265
0.000247
0.000254
0.000355
0.001793
0.000241
0.000278
0.000445
0.000427
0.000392
0.000231
0.000277
0.000551
0.000490
0.000696
0.000191
0.000058
0.000224
0.000246
0.000250
0.000244
0.000292
0.000251
0.000334
0.000517
0.000408
0.000248
0.000246
0.000249
0.000239
0.000252
0.000268
0.000251
0.000256
0.000250
0.000301
0.000324
0.001670
0.000279
0.000242
0.000428
0.000375
0.000671
0.000618
0.000518
0.000356
0.000237
0.000186
0.000058
0.000234
0.000249
0.000294
0.000213
0.000282
0.000233
0.000246
0.000470
0.001481
0.000212
0.000249
0.000248
0.000253
0.000256
0.000281
0.000265
0.000288
0.000897
0.001283
0.000305
0.000235
0.000411
0.000250
0.000242
0.000259
0.000258
0.000268
0.000272
0.000260
0.000267
0.000199
0.000056
0.000207
0.000242
0.000243
0.000264
0.000238
0.000240
0.000261
0.000234
0.000244
0.000253
0.001626
0.000263
0.000228
0.000249
0.000254
0.000246
0.000250
0.000256
0.000243
0.000253
0.000293
0.001635
0.000287
0.000250
0.000442
0.000255
0.000278
0.000243
0.000264
0.000270
0.000192
0.000056
0.000204
0.000230
0.000257
0.000242
0.000243
0.000247
0.000261
0.000238
0.000262
0.000261
0.000263
0.000237
0.000263
0.000273
0.001640
0.000275
0.000282
0.000219
0.000260
0.000274
0.000276
0.000226
0.000243
0.000272
0.001767
0.000413
0.000334
0.000375
0.000236
0.000283
0.000194
0.000056
0.000221
0.000239
0.000245
0.000268
0.000253
0.000262
0.000276
0.000393
0.000398
0.000447
0.000206
0.000245
0.000255
0.000250
0.001560
0.000539
0.000379
0.000341
0.000318
0.000236
0.000267
0.000282
0.000270
0.001788
0.000466
0.000454
0.000251
0.000243
0.000244
0.000266
0.000187
0.000058
0.000197
0.000235
0.000255
0.000265
0.000338
0.000497
0.000331
0.000267
0.000215
0.000274
0.000236
0.000248
0.000241
0.001699
0.000493
0.000300
0.000229
0.000255
0.000281
0.000276
0.000252
0.000249
0.001925
0.000276
0.000265
0.000389
0.000239
0.000264
0.000265
0.000391
0.000326
0.000055
0.000212
0.000378
0.000373
0.000267
0.000256
0.000248
0.000250
0.000259
0.000268
0.000206
0.000246
0.000242
0.001551
0.000419
0.000247
0.000232
0.000251
0.000252
0.000266
0.000288
0.000255
0.000326
0.000242
0.001830
0.000238
0.000485
0.000249
0.000260
0.000256
0.000267
0.000258
0.000056
0.000437
0.000504
0.000613
0.000209
0.000229
0.000274
0.000231
0.000238
0.000241
0.000253
0.000252
0.001701
0.000254
0.000444
0.000368
0.000214
0.000264
0.000206
0.000253
0.000261
0.000251
0.001860
0.000225
0.000467
0.001934
0.000464
0.000349
0.000246
0.000255
0.000267
0.000187
0.000056
0.000212
0.000266
0.000221
0.000243
0.000259
0.001616
0.000256
0.000232
0.000253
0.000251
0.000246
0.000260
0.000235
0.000254
0.000279
0.000383
0.000654
0.000256
0.000232
0.000267
0.000284
0.000231
0.000249
0.000432
0.000446
0.000261
0.000382
0.000637
0.000306
0.000268
0.000211
0.000055
0.000223
0.000240
0.000248
0.000252
0.000241
0.000238
0.000251
0.000356
0.001864
0.000311
0.000225
0.000235
0.000249
0.000242
0.000257
0.000269
0.000439
0.000453
0.000361
0.000253
0.000253
0.000300
0.000283
0.000246
0.000287
0.000432
0.000333
0.000568
0.000519
0.000444
0.000171
0.000056
0.000213
0.000251
0.000244
0.000238
0.000235
0.000236
0.000248
0.000260
0.000251
0.000266
0.000338
0.000457
0.001374
0.000247
0.000234
0.000250
0.000254
0.000250
0.000252
0.000247
0.000324
0.000405
0.000420
0.000266
0.000265
0.000257
0.000253
0.000276
0.000262
0.000264
0.000378
0.000057
0.000220
0.000238
0.000247
0.000244
0.000527
0.000433
0.000238
0.000269
0.000228
0.000259
0.000259
0.000231
0.000297
0.000248
0.000254
0.000460
0.000427
0.001645
0.000282
0.000227
0.000259
0.000264
0.000257
0.000305
0.000229
0.000359
0.000550
0.000314
0.000427
0.000231
0.000199
0.000057
0.000213
0.000435
0.000232
0.000216
0.000292
0.000222
0.000293
0.000551
0.000344
0.000326
0.000222
0.000276
0.000261
0.000234
0.000522
0.000338
0.000236
0.000248
0.000397
0.001642
0.000271
0.000257
0.000500
0.000248
0.000283
0.000275
0.000252
0.000478
0.000418
0.000435
0.000215
0.000056
0.000218
0.000228
0.000234
0.000242
0.000420
0.000306
0.000289
0.000229
0.000365
0.000575
0.000298
0.000259
0.000241
0.000243
0.000256
0.000266
0.000254
0.000254
0.000234
0.000352
0.000287
0.000284
0.001892
0.000241
0.000258
0.000254
0.000277
0.000349
0.000429
0.000684
0.000472
0.000055
0.000224
0.000333
0.000301
0.000419
0.000387
0.000212
0.000275
0.000311
0.000497
0.000419
0.000234
0.000241
0.000236
0.000273
0.000263
0.000232
0.000258
0.000271
0.000265
0.000256
0.000271
0.000402
0.000768
0.001234
0.000323
0.000434
0.000421
0.000234
0.000492
0.000358
0.000327
0.000057
0.000232
0.000380
0.000285
0.000201
0.000239
0.000246
0.000409
0.000242
0.000250
0.000354
0.000403
0.000472
0.000230
0.000263
0.000263
0.000247
0.000350
0.000396
0.000342
0.000256
0.000238
0.000330
0.000793
0.001573
0.000224
0.000437
0.000314
0.000217
0.000279
0.000442
0.000293
0.000058
0.000233
0.000231
0.000240
0.000260
0.000251
0.000234
0.000250
0.000328
0.000458
0.000293
0.000443
0.000348
0.000293
0.000578
0.000248
0.000243
0.000274
0.000257
0.000233
0.000340
0.000237
0.000241
0.000271
0.000435
0.000508
0.001614
0.000261
0.000237
0.000258
0.000274
0.000183
0.000076
0.000382
0.000417
0.000329
0.000211
0.000246
0.000249
0.000260
0.000241
0.000269
0.000237
0.000222
0.000264
0.000420
0.000497
0.000419
0.000272
0.000248
0.000254
0.000333
0.000379
0.000382
0.000337
0.000362
0.000394
0.000246
0.000266
0.000259
0.000276
0.001792
0.000236
0.000216
0.000057
0.000205
0.000221
0.000260
0.000294
0.000323
0.000541
0.000320
0.000220
0.000285
0.000252
0.000235
0.000249
0.000525
0.000446
0.000483
0.000270
0.000264
0.000258
0.000425
0.000464
0.000355
0.000402
0.000556
0.000386
0.000240
0.000269
0.000247
0.000263
0.000247
0.001717
0.000433
0.000057
0.000264
0.000329
0.000204
0.000235
0.000257
0.000247
0.000238
0.000494
0.000376
0.000309
0.000295
0.000270
0.000328
0.000711
0.000301
0.000234
0.000254
0.000254
0.000251
0.000266
0.000275
0.000254
0.000252
0.000262
0.000327
0.000400
0.000380
0.000345
0.000229
0.000249
0.000186
0.000057
0.000477
0.000253
0.000539
0.000195
0.000218
0.000229
0.000270
0.000233
0.000244
0.000221
0.000248
0.000284
0.000290
0.000428
0.000394
0.000554
0.000313
0.000300
0.000372
0.000346
0.000291
0.000251
0.000248
0.000261
0.001740
0.000252
0.001730
0.000960
0.000415
0.000292
0.000160
0.000056
0.000212
0.000238
0.000229
0.000249
0.000270
0.000241
0.000253
0.000249
0.000244
0.000324
0.000442
0.000350
0.000328
0.000376
0.000254
0.000263
0.000243
0.000290
0.000231
0.000250
0.000256
0.000259
0.001807
0.000236
0.000275
0.000252
0.000277
0.000262
0.001871
0.000512
0.000302
0.000057
0.000216
0.000215
0.000240
0.000239
0.000254
0.000257
0.000236
0.000250
0.000256
0.000421
0.000495
0.000326
0.000391
0.000232
0.000244
0.000253
0.000327
0.000430
0.000369
0.000253
0.001786
0.000262
0.000239
0.000248
0.000266
0.000271
0.000243
0.000255
0.000323
0.000292
0.000452
0.000057
0.000254
0.000205
0.000236
0.000269
0.000261
0.000219
0.000268
0.000242
0.000243
0.000257
0.000239
0.000283
0.000359
0.000454
0.000281
0.000296
0.000442
0.000253
0.000245
0.000255
0.000262
0.000259
0.000274
0.000253
0.000283
0.001779
0.000257
0.000259
0.000247
0.000252
0.000191
0.000056
0.000321
0.000306
0.000232
0.000226
0.000238
0.000239
0.000236
0.000258
0.000248
0.000223
0.000228
0.000267
0.000257
0.000384
0.000387
0.000387
0.000257
0.000236
0.000251
0.000281
0.000244
0.000274
0.000233
0.000269
0.000246
0.000270
0.000321
0.001606
0.000276
0.000260
0.000166
0.000059
0.000203
0.000239
0.000257
0.000255
0.000347
0.000343
0.000486
0.000232
0.000234
0.000256
0.000266
0.000230
0.000258
0.000243
0.000260
0.000259
0.000245
0.000258
0.000251
0.000262
0.000269
0.000272
0.000248
0.000231
0.000247
0.000277
0.000275
0.000280
0.000240
0.000259
0.000196
0.000057
0.000194
0.000233
0.000259
0.000273
0.000232
0.000236
0.000241
0.000260
0.000280
0.000245
0.000227
0.000250
0.000256
0.000250
0.000290
0.000237
0.000258
0.000253
0.000296
0.000256
0.000269
0.000321
0.000264
0.000232
0.000300
0.000246
0.000271
0.000248
0.000329
0.000414
0.000612
0.000057
0.000299
0.000214
0.000220
0.000232
0.000242
0.000253
0.000238
0.000247
0.000257
0.000240
0.000266
0.000308
0.000527
0.000450
0.001513
0.000224
0.000506
0.000226
0.000353
0.000385
0.000445
0.000343
0.000228
0.000286
0.000243
0.000261
0.000282
0.000252
0.000309
0.000289
0.000160
0.000058
0.000328
0.000424
0.000329
0.000331
0.000209
0.000279
0.000225
0.000241
0.000234
0.000245
0.000255
0.000256
0.000234
0.000333
0.000277
0.000528
0.000375
0.001790
0.000241
0.000270
0.000313
0.000430
0.000482
0.000259
0.000323
0.000319
0.000303
0.000233
0.000223
0.000258
0.000197
0.000056
0.000194
0.000229
0.000240
0.000291
0.000308
0.000591
0.000243
0.000256
0.000251
0.000214
0.000250
0.000270
0.000263
0.000265
0.000246
0.000261
0.000263
0.000527
0.000347
0.000431
0.000229
0.001741
0.000325
0.000492
0.000586
0.000403
0.000323
0.000220
0.000261
0.000265
0.000452
0.000056
0.000223
0.000272
0.000223
0.000307
0.000368
0.000619
0.000257
0.000214
0.000267
0.000302
0.000202
0.000258
0.000256
0.000293
0.000311
0.000238
0.000243
0.000334
0.000584
0.000264
0.000497
0.001842
0.000250
0.000475
0.000459
0.000362
0.000236
0.000254
0.000290
0.000265
0.000202
0.000056
0.000206
0.000340
0.000359
0.000372
0.000352
0.000286
0.000378
0.000212
0.000248
0.000256
0.000268
0.000233
0.000249
0.000250
0.000251
0.000261
0.000321
0.000375
0.000562
0.000275
0.000336
0.000234
0.000258
0.001707
0.000573
0.000444
0.000603
0.000236
0.000268
0.000305
0.000161
0.000055
0.000199
0.000237
0.000349
0.000233
0.000261
0.000408
0.000387
0.000304
0.000236
0.000543
0.000208
0.000257
0.000260
0.000278
0.000274
0.000265
0.000206
0.000324
0.000515
0.000429
0.000250
0.000241
0.000261
0.000247
0.000262
0.000272
0.000230
0.000258
0.000267
0.000289
0.000186
0.000057
0.000329
0.000325
0.000216
0.000252
0.000253
0.000254
0.000241
0.000294
0.000244
0.000239
0.000281
0.000335
0.000413
0.000418
0.000330
0.000270
0.000224
0.000245
0.000256
0.000269
0.000283
0.000268
0.000232
0.000258
0.000280
0.000330
0.000435
0.000340
0.000351
0.000232
0.000176
0.000056
0.000197
0.000222
0.000281
0.000240
0.000241
0.000268
0.000267
0.000232
0.000492
0.000219
0.000253
0.000261
0.000237
0.000264
0.000276
0.000300
0.000234
0.000350
0.000219
0.000243
0.000254
0.000267
0.000258
0.000265
0.000274
0.000277
0.000245
0.000259
0.000255
0.000499
0.000165
0.000056
0.000211
0.000237
0.000251
0.000293
0.000197
0.000242
0.000363
0.000406
0.000255
0.000219
0.000256
0.000256
0.000230
0.000244
0.000482
0.001760
0.000232
0.000294
0.000264
0.000326
0.000409
0.000365
0.000357
0.000433
0.000349
0.000412
0.000237
0.000276
0.000268
0.000286
0.001401
0.000056
0.000397
0.000348
0.000215
0.000225
0.000233
0.000253
0.000230
0.000274
0.000225
0.000274
0.000245
0.000258
0.000253
0.000332
0.000452
0.001670
0.000261
0.000210
0.000247
0.000268
0.000240
0.000255
0.000373
0.000416
0.000418
0.000201
0.000217
0.000283
0.000265
0.000261
0.000187
0.000056
0.001190
0.000633
0.000225
0.000275
0.000242
0.000222
0.000231
0.000243
0.000489
0.000219
0.000239
0.000249
0.000343
0.000530
0.000432
0.000299
0.000259
0.000229
0.000328
0.000362
0.000270
0.000270
0.000259
0.000245
0.000263
0.000578
0.000478
0.000329
0.000265
0.000266
0.000169
0.000057
0.000189
0.000222
0.000240
0.000258
0.001559
0.000215
0.000212
0.000253
0.000262
0.000231
0.000255
0.000251
0.000243
0.000261
0.000279
0.000305
0.000413
0.000683
0.000227
0.001743
0.000259
0.000288
0.000278
0.000443
0.000560
0.000394
0.000243
0.000262
0.000248
0.000274
0.000201
0.000056
0.000205
0.000245
0.000255
0.000314
0.001235
0.000238
0.000254
0.000258
0.000244
0.000233
0.000240
0.000255
0.000275
0.000246
0.000267
0.000282
0.000462
0.000443
0.000290
0.000266
0.000266
0.000271
0.000249
0.000228
0.000292
0.000263
0.000244
0.000272
0.000279
0.000464
0.000545
0.000056
0.000229
0.000248
0.000233
0.000264
0.000263
0.000237
0.000232
0.000267
0.000270
0.000296
0.001385
0.000229
0.000248
0.000241
0.000255
0.000239
0.000288
0.000250
0.000280
0.000243
0.000272
0.000521
0.000423
0.000391
0.000225
0.000274
0.001758
0.000260
0.000273
0.000275
0.000528
0.000056
0.000217
0.000383
0.000451
0.000502
0.000516
0.000622
0.001419
0.000410
0.000527
0.000651
0.000550
0.000824
0.000397
0.000598
0.000583
0.001891
0.000399
0.000444
0.000384
0.000324
0.000223
0.000273
0.000285
0.000265
0.000265
0.000291
0.000282
0.000290
0.000263
0.000285
0.001365
0.000055
0.000217
0.000223
0.000251
0.000236
0.000261
0.000257
0.000232
0.000240
0.000271
0.000233
0.000258
0.000226
0.000252
0.000260
0.000262
0.000268
0.001805
0.000263
0.000269
0.000235
0.000255
0.000273
0.000262
0.000318
0.000360
0.000421
0.000349
0.000244
0.000262
0.000285
0.000208
0.000056
0.000217
0.001356
0.000337
0.000275
0.000246
0.000240
0.000242
0.000234
0.000231
0.000246
0.000212
0.000265
0.000240
0.000506
0.000362
0.000302
0.000242
0.001820
0.000356
0.000230
0.000253
0.000268
0.000246
0.000275
0.000267
0.000287
0.000267
0.000250
0.000270
0.000312
0.000202
0.000056
0.000215
0.000238
0.000270
0.001423
0.000220
0.000251
0.000246
0.000245
0.000236
0.000275
0.000248
0.000243
0.000247
0.000279
0.000238
0.000252
0.000266
0.000263
0.000269
0.000258
0.000259
0.001770
0.000262
0.001770
0.000263
0.000259
0.000254
0.000272
0.000282
0.000261
0.000203
0.000056
0.000201
0.000263
0.001326
0.000229
0.000250
0.000273
0.000235
0.000253
0.000244
0.000255
0.000251
0.000241
0.000261
0.000262
0.000255
0.000266
0.000258
0.000284
0.000294
0.000233
0.001880
0.000237
0.001828
0.000231
0.000270
0.000274
0.000226
0.000258
0.000249
0.000271
0.000203
0.000058
0.001419
0.000214
0.000236
0.000253
0.000233
0.000235
0.000372
0.000282
0.000234
0.000255
0.000263
0.000251
0.000286
0.000350
0.000363
0.000285
0.000244
0.000267
0.000264
0.000250
0.000267
0.000346
0.000233
0.000244
0.000289
0.000263
0.000272
0.000456
0.000511
0.000368
0.000198
0.000057
0.000232
0.000242
0.000261
0.000304
0.000368
0.000263
0.001652
0.000331
0.000286
0.000268
0.000258
0.000268
0.000266
0.000263
0.000317
0.000292
0.000355
0.000623
0.000314
0.000260
0.000292
0.000274
0.000275
0.000265
0.000333
0.000262
0.000259
0.000272
0.000245
0.000304
0.000466
0.000057
0.000228
0.000470
0.000267
0.000262
0.000247
0.000231
0.000221
0.000249
0.000262
0.000275
0.001496
0.000211
0.000241
0.000247
0.000246
0.000289
0.000279
0.000237
0.000261
0.000271
0.000266
0.000371
0.000521
0.000327
0.000274
0.000281
0.000270
0.000254
0.000246
0.000304
0.000169
0.000056
0.000192
0.000250
0.000316
0.000443
0.000374
0.000240
0.000221
0.000248
0.000252
0.000253
0.000230
0.000255
0.000258
0.000266
0.000240
0.000237
0.000406
0.001195
0.000249
0.000257
0.000271
0.000246
0.000350
0.000425
0.000259
0.000322
0.000627
0.000309
0.000376
0.000232
0.000175
0.000056
0.000225
0.000253
0.000256
0.000261
0.000256
0.000245
0.000328
0.000436
0.000439
0.000272
0.000343
0.000435
0.000387
0.000333
0.000256
0.000240
0.000242
0.000260
0.000436
0.000421
0.001267
0.000222
0.000276
0.000274
0.000239
0.000233
0.000301
0.000287
0.000418
0.000447
0.000242
0.000057
0.000194
0.000242
0.000259
0.000241
0.000242
0.000243
0.000237
0.000265
0.000302
0.000344
0.000410
0.000412
0.000220
0.000248
0.000246
0.000272
0.000237
0.000262
0.000266
0.000271
0.000422
0.000243
0.000364
0.000460
0.000300
0.000244
0.000273
0.000269
0.000250
0.000339
0.000154
0.000054
0.000314
0.000310
0.000303
0.000359
0.000497
0.000345
0.000236
0.000242
0.000249
0.000269
0.000266
0.000252
0.000237
0.000254
0.000241
0.000225
0.000268
0.000354
0.000457
0.000411
0.000207
0.000287
0.000234
0.000244
0.000265
0.000290
0.000261
0.000280
0.000266
0.000267
0.000294
0.000055
0.000290
0.000372
0.000218
0.000269
0.000223
0.000244
0.000249
0.000254
0.000258
0.000257
0.000250
0.000239
0.000298
0.000464
0.000479
0.000284
0.000218
0.000256
0.000256
0.000262
0.000254
0.000270
0.000253
0.000270
0.000307
0.000278
0.000445
0.000566
0.000402
0.000259
0.000176
0.000056
0.000379
0.000193
0.000228
0.000248
0.000247
0.000245
0.000236
0.000255
0.000259
0.000253
0.000229
0.000241
0.000268
0.000232
0.000233
0.000269
0.000254
0.000264
0.000293
0.000243
0.000262
0.000258
0.000264
0.000265
0.000266
0.000239
0.000264
0.000289
0.000248
0.000278
0.000198
0.000056
0.000192
0.000241
0.000245
0.000245
0.000228
0.000261
0.000258
0.000244
0.000258
0.000270
0.000237
0.000251
0.000246
0.000393
0.000256
0.000292
0.000245
0.000266
0.000255
0.000282
0.000270
0.000230
0.000253
0.000246
0.000271
0.000274
0.000258
0.000249
0.000269
0.000262
0.000206
0.000056
0.000195
0.000356
0.000367
0.000287
0.000291
0.000256
0.000273
0.000256
0.000220
0.000252
0.000280
0.000229
0.000255
0.000233
0.000260
0.000279
0.000242
0.000270
0.000244
0.000260
0.000276
0.000266
0.000280
0.000252
0.000288
0.000236
0.000258
0.000267
0.000269
0.000263
0.000200
0.000056
0.000199
0.000230
0.000267
0.000264
0.000250
0.000442
0.000212
0.000278
0.000277
0.000480
0.000498
0.000219
0.000227
0.000252
0.000279
0.000258
0.000232
0.000273
0.000257
0.000270
0.000275
0.000248
0.000257
0.000297
0.000488
0.000525
0.000264
0.000302
0.000265
0.000261
0.000191
0.000056
0.000221
0.000223
0.000262
0.000238
0.000373
0.000671
0.000269
0.000357
0.000205
0.000249
0.000249
0.000254
0.000264
0.000236
0.000260
0.000267
0.000274
0.000242
0.000638
0.000404
0.000268
0.000250
0.000259
0.000282
0.000274
0.000263
0.000264
0.000282
0.000233
0.000326
0.000297
0.000058
0.000272
0.000231
0.000239
0.000237
0.000258
0.000265
0.000214
0.000250
0.000242
0.000256
0.000243
0.000260
0.000239
0.000376
0.000612
0.000365
0.000249
0.000251
0.000265
0.000242
0.000264
0.000288
0.000481
0.000219
0.000258
0.000585
0.000414
0.000500
0.000254
0.000252
0.000185
0.000055
0.000202
0.000232
0.000241
0.000247
0.000254
0.000259
0.000322
0.000398
0.000604
0.000424
0.000216
0.000259
0.000275
0.000281
0.000254
0.000246
0.000231
0.000255
0.000257
0.000293
0.000436
0.000750
0.000276
0.000252
0.000348
0.000376
0.000500
0.000238
0.000266
0.000378
0.000471
0.000056
0.000263
0.000226
0.000436
0.000228
0.000226
0.000254
0.000277
0.000243
0.000231
0.000241
0.000256
0.000410
0.000334
0.000377
0.000222
0.000250
0.000266
0.000244
0.000270
0.000277
0.000273
0.000258
0.000246
0.000273
0.000312
0.000557
0.000411
0.000235
0.000266
0.000265
0.000199
0.000056
0.000228
0.000257
0.000223
0.000247
0.000248
0.000436
0.000251
0.000355
0.000422
0.000261
0.000375
0.000222
0.000257
0.000263
0.000256
0.000237
0.000257
0.000259
0.000285
0.000397
0.000467
0.000350
0.000475
0.000271
0.000382
0.000420
0.000381
0.000257
0.000246
0.000340
0.000309
0.000059
0.000245
0.000271
0.000224
0.000259
0.000249
0.000259
0.000246
0.000252
0.000269
0.000246
0.000233
0.000395
0.000405
0.000376
0.000376
0.000229
0.000270
0.000259
0.000268
0.000229
0.000258
0.000252
0.000270
0.000270
0.000279
0.000342
0.000546
0.000409
0.000236
0.000279
0.000192
0.000056
0.000211
0.000239
0.000277
0.000248
0.000240
0.000347
0.000498
0.000470
0.000352
0.000693
0.000258
0.000219
0.000246
0.000257
0.000246
0.000265
0.000294
0.000261
0.000466
0.000453
0.001489
0.000313
0.000267
0.000281
0.000269
0.000260
0.000434
0.000401
0.000350
0.000280
0.000184
0.000056
0.000202
0.000242
0.000240
0.000264
0.000231
0.000248
0.000305
0.000219
0.000246
0.000320
0.000353
0.000360
0.000269
0.000342
0.000392
0.000348
0.000245
0.000250
0.000272
0.000256
0.000245
0.000252
0.000309
0.000219
0.000328
0.000434
0.000434
0.000281
0.000249
0.000275
0.000193
0.000056
0.000233
0.000242
0.000257
0.000255
0.000240
0.000238
0.000470
0.000217
0.000228
0.000257
0.000247
0.000250
0.000258
0.000253
0.000258
0.000266
0.000260
0.000292
0.000245
0.000250
0.000288
0.000265
0.000293
0.000246
0.000260
0.000276
0.000273
0.000264
0.000261
0.000274
0.000175
0.000055
0.000238
0.000239
0.000285
0.000439
0.000372
0.000256
0.000232
0.000245
0.000264
0.000252
0.000245
0.000258
0.000260
0.000264
0.000235
0.000246
0.000265
0.000246
0.000336
0.000292
0.000405
0.000430
0.000226
0.000273
0.000256
0.000255
0.000264
0.000257
0.000272
0.000296
0.000183
0.000057
0.000358
0.000370
0.000426
0.000208
0.000254
0.000259
0.000409
0.000218
0.000235
0.000258
0.000255
0.000283
0.000386
0.000528
0.001748
0.000252
0.000243
0.000254
0.000278
0.000242
0.000344
0.000489
0.000535
0.000314
0.000244
0.000264
0.000269
0.000427
0.000278
0.000282
0.000164
0.000056
0.000237
0.000386
0.000339
0.000308
0.000493
0.000201
0.000243
0.000257
0.000240
0.000243
0.000261
0.000249
0.000262
0.000295
0.000499
0.000417
0.000214
0.000248
0.000255
0.000265
0.000262
0.000308
0.000241
0.000278
0.000279
0.000454
0.000469
0.000400
0.000490
0.000235
0.000205
0.000056
0.000178
0.000243
0.000258
0.000233
0.000250
0.000248
0.000262
0.000294
0.000381
0.000270
0.000482
0.000348
0.000219
0.000255
0.000264
0.000291
0.000294
0.000237
0.000276
0.000277
0.000232
0.000313
0.000418
0.000434
0.000273
0.000256
0.000260
0.000441
0.000413
0.000294
0.000193
0.000057
0.000209
0.000237
0.000335
0.000516
0.000307
0.000186
0.000235
0.000257
0.000264
0.000264
0.000252
0.000251
0.000229
0.000258
0.000259
0.000322
0.000456
0.000277
0.000290
0.000349
0.000491
0.000224
0.000281
0.000274
0.000300
0.000286
0.000254
0.000263
0.000473
0.000480
0.000231
0.000075
0.000182
0.000235
0.000248
0.000250
0.000246
0.000483
0.000207
0.000259
0.000264
0.000303
0.000512
0.000592
0.000223
0.000231
0.000243
0.000249
0.000256
0.000272
0.000237
0.000247
0.000286
0.000245
0.000410
0.000363
0.000482
0.000288
0.000290
0.000307
0.000320
0.000252
0.000187
0.000056
0.000217
0.000230
0.000264
0.000470
0.000395
0.000231
0.000254
0.000234
0.000250
0.000249
0.000256
0.000260
0.000266
0.000239
0.000254
0.000257
0.000247
0.000242
0.000264
0.000402
0.000513
0.000380
0.000229
0.000247
0.000278
0.000278
0.000261
0.000255
0.000269
0.000265
0.000197
0.000055
0.000274
0.000377
0.000473
0.000247
0.000230
0.000233
0.000313
0.000457
0.000287
0.000214
0.000250
0.000269
0.000259
0.000450
0.000491
0.000232
0.000239
0.000246
0.000239
0.000267
0.000270
0.000261
0.000262
0.000277
0.000260
0.000286
0.000405
0.000479
0.000251
0.000240
0.000191
0.000057
0.000189
0.000239
0.000243
0.000258
0.000251
0.000263
0.000230
0.000270
0.000253
0.000232
0.000270
0.000232
0.000294
0.001437
0.000221
0.000250
0.000259
0.000248
0.000272
0.000284
0.000262
0.000235
0.000276
0.000254
0.000265
0.000287
0.000257
0.000270
0.000258
0.000270
0.000189
0.000057
0.000218
0.000228
0.000267
0.000251
0.000219
0.000259
0.000251
0.000256
0.000227
0.000249
0.000246
0.000262
0.000259
0.000249
0.000259
0.000256
0.000247
0.000259
0.000279
0.000253
0.000250
0.000264
0.000243
0.000254
0.001299
0.000283
0.000614
0.000360
0.000358
0.000237
0.000193
0.000055
0.000211
0.000233
0.000241
0.000269
0.000397
0.000241
0.000245
0.000240
0.000251
0.000399
0.000407
0.000347
0.000228
0.000235
0.000267
0.000259
0.000259
0.000267
0.000239
0.000261
0.000259
0.000253
0.000268
0.000477
0.000540
0.000356
0.000232
0.000263
0.001368
0.000247
0.000183
0.000056
0.000342
0.000441
0.000303
0.000281
0.000219
0.000219
0.000229
0.000250
0.000259
0.000255
0.000247
0.000259
0.000295
0.000326
0.000474
0.000402
0.000323
0.000216
0.000248
0.000260
0.000270
0.000285
0.000264
0.000246
0.000274
0.000262
0.000313
0.000561
0.000385
0.000364
0.000147
0.000055
0.000211
0.000236
0.001263
0.000426
0.000273
0.000531
0.000322
0.000502
0.000259
0.000344
0.000217
0.000234
0.000280
0.000236
0.000262
0.000261
0.000338
0.000537
0.000387
0.000334
0.000261
0.000244
0.000265
0.000498
0.000233
0.000266
0.000256
0.000277
0.000300
0.000555
0.000311
0.000056
0.000375
0.000312
0.000239
0.000233
0.001621
0.000464
0.000239
0.000248
0.000241
0.000253
0.000226
0.000240
0.000254
0.000267
0.000253
0.000267
0.000228
0.000313
0.000354
0.000362
0.000481
0.000248
0.000255
0.000257
0.000262
0.000292
0.000251
0.000238
0.000268
0.000279
0.000195
0.000057
0.000383
0.000338
0.000222
0.000237
0.000248
0.000243
0.000262
0.000237
0.000238
0.000230
0.001403
0.000456
0.000289
0.000238
0.000241
0.000254
0.000278
0.000262
0.000235
0.000303
0.000241
0.000254
0.000261
0.000491
0.000350
0.000442
0.000242
0.000269
0.000275
0.000279
0.000169
0.000056
0.000216
0.000421
0.000216
0.000253
0.000352
0.000417
0.000361
0.000330
0.000460
0.000209
0.000232
0.000249
0.000262
0.000264
0.000259
0.001394
0.000381
0.000287
0.000239
0.000274
0.000297
0.000231
0.000255
0.000249
0.000265
0.000267
0.000505
0.000413
0.000264
0.000277
0.000163
0.000056
0.000187
0.000235
0.000259
0.000240
0.000225
0.000261
0.000241
0.000243
0.000305
0.000326
0.000427
0.000321
0.000241
0.000256
0.000244
0.000274
0.000276
0.000260
0.000267
0.000229
0.000254
0.000325
0.001245
0.000238
0.000266
0.000255
0.000260
0.000270
0.000254
0.000267
0.000180
0.000056
0.000215
0.000362
0.000396
0.000337
0.000232
0.000239
0.000260
0.000284
0.000240
0.000262
0.000242
0.000270
0.000234
0.000252
0.000266
0.000259
0.000267
0.000269
0.000262
0.000251
0.000250
0.000273
0.000266
0.000280
0.000292
0.000270
0.000267
0.000260
0.000256
0.000456
0.001353
0.000057
0.000215
0.000248
0.000223
0.000265
0.000234
0.000257
0.000242
0.000224
0.000245
0.000256
0.000271
0.000260
0.000250
0.000238
0.000281
0.000218
0.001725
0.000273
0.000234
0.000258
0.000248
0.000257
0.000276
0.000258
0.000302
0.000232
0.000264
0.000282
0.000265
0.000255
0.000219
0.000056
0.000291
0.000347
0.001286
0.000221
0.000227
0.000247
0.000256
0.000250
0.000274
0.000242
0.000232
0.000355
0.000388
0.000437
0.000282
0.000230
0.000244
0.000261
0.000257
0.000265
0.000240
0.000280
0.000257
0.000283
0.000260
0.000485
0.000368
0.000279
0.000311
0.000239
0.000200
0.000056
0.000192
0.000247
0.000247
0.000251
0.000273
0.000195
0.000244
0.000317
0.000374
0.001325
0.000263
0.000210
0.000252
0.000268
0.000256
0.000296
0.000231
0.000257
0.000292
0.000494
0.000315
0.000287
0.000226
0.000242
0.000278
0.000275
0.000272
0.000293
0.000269
0.000274
0.000195
0.000056
0.000247
0.000411
0.000408
0.000228
0.000216
0.000242
0.000244
0.000274
0.000268
0.000244
0.000229
0.000257
0.000448
0.000588
0.000385
0.001459
0.000231
0.000271
0.000330
0.000352
0.000476
0.000445
0.000495
0.000356
0.000248
0.000250
0.000262
0.000280
0.000261
0.000278
0.000187
0.000055
0.000219
0.000300
0.000430
0.000524
0.000279
0.000237
0.000260
0.000232
0.000239
0.000271
0.000234
0.000267
0.000280
0.000222
0.000266
0.000284
0.000374
0.000427
0.000372
0.001315
0.000274
0.000254
0.000257
0.000264
0.000457
0.000483
0.000356
0.000233
0.000272
0.000274
0.000187
0.000056
0.000188
0.000236
0.000246
0.000263
0.000227
0.000275
0.000459
0.000464
0.000286
0.000219
0.000239
0.000261
0.000273
0.000290
0.000239
0.000254
0.000266
0.000260
0.000277
0.000330
0.000390
0.000455
0.000299
0.001351
0.000410
0.000236
0.000270
0.000464
0.000451
0.000296
0.000310
0.000056
0.000205
0.000234
0.000243
0.000251
0.000252
0.000254
0.001674
0.000263
0.000202
0.000240
0.000255
0.000249
0.000265
0.000310
0.000324
0.000287
0.000261
0.000366
0.000426
0.000435
0.000305
0.000283
0.000227
0.000263
0.001492
0.000422
0.000320
0.000455
0.000341
0.000303
0.000172
0.000056
0.000202
0.000249
0.000272
0.000240
0.000249
0.000261
0.001702
0.000225
0.000249
0.000260
0.000328
0.000402
0.001446
0.000441
0.000325
0.000237
0.000257
0.000235
0.000260
0.000280
0.001527
0.000577
0.000389
0.000297
0.000238
0.000248
0.000265
0.000281
0.000244
0.000251
0.000208
0.000055
0.000197
0.000243
0.000267
0.000261
0.000249
0.000272
0.000278
0.000254
0.000259
0.000247
0.000253
0.000249
0.000289
0.000238
0.000258
0.001480
0.000294
0.000226
0.000267
0.000281
0.000269
0.000258
0.001435
0.000329
0.000207
0.000242
0.000270
0.000254
0.000401
0.000238
0.000201
0.000056
0.000211
0.000251
0.000221
0.000262
0.000221
0.000230
0.000231
0.001689
0.000256
0.000232
0.000351
0.000269
0.000225
0.000243
0.000236
0.001380
0.000245
0.000262
0.000267
0.000247
0.000266
0.000337
0.000299
0.001302
0.000302
0.000222
0.000251
0.001406
0.000317
0.000227
0.000182
0.000058
0.000229
0.000367
0.000205
0.000239
0.000266
0.000228
0.000287
0.000244
0.000264
0.000246
0.000262
0.000265
0.000252
0.000238
0.000336
0.001504
0.000226
0.000273
0.000253
0.000245
0.000280
0.000260
0.000257
0.001529
0.000333
0.000226
0.000264
0.001277
0.000272
0.000246
0.000199
0.000056
0.000246
0.000358
0.000347
0.000215
0.000235
0.000237
0.000267
0.000256
0.000264
0.000277
0.000239
0.000245
0.000260
0.000255
0.000431
0.001223
0.000237
0.000247
0.000269
0.000276
0.000221
0.000253
0.000248
0.000332
0.001298
0.000228
0.000248
0.000256
0.000254
0.001339
0.000318
0.000057
0.000257
0.000294
0.000222
0.000230
0.000240
0.000256
0.000243
0.000246
0.000296
0.000235
0.000241
0.000252
0.000240
0.000307
0.000460
0.001450
0.000212
0.000254
0.000303
0.000522
0.000267
0.000373
0.001376
0.000308
0.000240
0.000259
0.000257
0.001288
0.000258
0.000536
0.000377
0.000057
0.000218
0.000251
0.000254
0.000255
0.000254
0.000251
0.000270
0.000266
0.000246
0.000263
0.000359
0.000403
0.001345
0.000238
0.000276
0.000265
0.000277
0.000239
0.000231
0.000237
0.000330
0.001255
0.000252
0.000246
0.000254
0.000250
0.001539
0.000394
0.000494
0.000216
0.000186
0.000056
0.000205
0.000233
0.000251
0.000236
0.000255
0.000261
0.000237
0.000267
0.000435
0.000473
0.000279
0.001476
0.000216
0.000244
0.000268
0.000253
0.000262
0.000283
0.001702
0.000242
0.000381
0.000344
0.001290
0.000350
0.000320
0.000347
0.000234
0.000261
0.000258
0.000269
0.000194
0.000057
0.000183
0.000244
0.000326
0.000254
0.000326
0.000545
0.000260
0.000303
0.001461
0.000236
0.000382
0.000264
0.000231
0.000299
0.000427
0.001284
0.000264
0.000244
0.000241
0.000261
0.001511
0.000389
0.000280
0.000285
0.000265
0.000246
0.000457
0.000329
0.000255
0.000232
0.000263
0.000056
0.000246
0.000351
0.000358
0.000238
0.000245
0.001500
0.000213
0.000281
0.000254
0.000267
0.000270
0.000237
0.000341
0.001455
0.000251
0.000230
0.000430
0.001186
0.000357
0.000417
0.000418
0.000231
0.000248
0.000249
0.000296
0.000227
0.000451
0.000230
0.000263
0.000281
0.000192
0.000057
0.000198
0.000228
0.000393
0.000341
0.001308
0.000282
0.000335
0.000224
0.000227
0.000246
0.000249
0.000320
0.001494
0.000254
0.000239
0.000237
0.001376
0.000264
0.000444
0.000391
0.000425
0.000234
0.000253
0.000253
0.000267
0.000274
0.000273
0.000260
0.000267
0.000254
0.000195
0.000056
0.000215
0.000386
0.001476
0.000202
0.000279
0.000301
0.000218
0.000242
0.000277
0.000333
0.001435
0.000211
0.000256
0.000258
0.000262
0.001270
0.000761
0.000223
0.000316
0.000411
0.000302
0.000250
0.000272
0.000260
0.000266
0.000294
0.000272
0.000296
0.000491
0.000388
0.001366
0.000056
0.000208
0.000244
0.000244
0.000226
0.000249
0.000492
0.000421
0.001276
0.000248
0.000238
0.000252
0.001386
0.000432
0.000370
0.000233
0.000420
0.000236
0.000232
0.000270
0.000298
0.000244
0.000253
0.000283
0.000251
0.000257
0.000277
0.000429
0.000509
0.001485
0.000234
0.000188
0.000056
0.000201
0.000251
0.000392
0.000580
0.001155
0.000307
0.000226
0.000260
0.000248
0.000251
0.000252
0.000274
0.000393
0.000486
0.000296
0.000247
0.000249
0.000273
0.000241
0.000307
0.000236
0.000260
0.000257
0.000268
0.000261
0.000419
0.000475
0.000303
0.000338
0.001398
0.000178
0.000057
0.000211
0.000245
0.000438
0.000309
0.000321
0.000307
0.000314
0.000336
0.000293
0.000256
0.000239
0.000264
0.000246
0.000309
0.000236
0.000257
0.000541
0.000407
0.000251
0.000390
0.000273
0.000409
0.000223
0.000260
0.000249
0.000262
0.000251
0.000292
0.000313
0.000557
0.000274
0.000056
0.000215
0.001398
0.000221
0.000339
0.000405
0.000439
0.000357
0.000334
0.000214
0.000259
0.000249
0.000250
0.000277
0.000254
0.000265
0.000251
0.000261
0.001277
0.000349
0.000244
0.000275
0.000261
0.000268
0.000277
0.000262
0.000266
0.000265
0.000248
0.000373
0.000361
0.000291
0.000057
0.000209
0.000244
0.000240
0.001502
0.000322
0.000239
0.000232
0.000245
0.000228
0.000242
0.000257
0.000282
0.000239
0.000257
0.000290
0.000234
0.000241
0.000266
0.000270
0.000247
0.001426
0.000226
0.000259
0.000270
0.000262
0.000249
0.000267
0.000256
0.000280
0.000488
0.000351
0.000055
0.000202
0.000236
0.000395
0.000286
0.000243
0.000283
0.001491
0.000359
0.000291
0.000219
0.000259
0.000317
0.000334
0.000221
0.000230
0.000259
0.000243
0.000257
0.000259
0.000260
0.000497
0.000494
0.001114
0.000267
0.000246
0.000283
0.000247
0.000282
0.000276
0.000236
0.000292
0.000056
0.000314
0.000318
0.000206
0.000250
0.000237
0.000243
0.000243
0.000244
0.000273
0.001587
0.000472
0.000209
0.000230
0.000257
0.000261
0.000243
0.000260
0.000275
0.000266
0.000306
0.000307
0.000510
0.000426
0.001369
0.000235
0.000273
0.000275
0.000248
0.000266
0.000289
0.000462
0.000056
0.000223
0.000269
0.000226
0.000231
0.000216
0.000247
0.000263
0.000279
0.000257
0.001540
0.000389
0.000261
0.000236
0.000260
0.000463
0.000253
0.000560
0.000356
0.000278
0.000262
0.000485
0.000541
0.001227
0.000259
0.000237
0.000276
0.001706
0.000432
0.000619
0.000319
0.000144
0.000055
0.000199
0.000229
0.000243
0.000233
0.000257
0.000245
0.000242
0.000494
0.000506
0.000426
0.000277
0.000223
0.000241
0.000263
0.000281
0.000273
0.000234
0.000240
0.000259
0.000281
0.000261
0.000430
0.001328
0.000232
0.000249
0.000275
0.001888
0.000430
0.000414
0.000286
0.000149
0.000056
0.000215
0.000246
0.000244
0.001634
0.000391
0.000180
0.000235
0.000273
0.000244
0.000274
0.000373
0.000369
0.000370
0.000277
0.000293
0.000534
0.000385
0.001185
0.000272
0.000242
0.000274
0.000251
0.000273
0.000393
0.000727
0.000355
0.000256
0.000258
0.000276
0.000278
0.000190
0.000056
0.000200
0.000253
0.000224
0.001562
0.000241
0.000226
0.000239
0.000256
0.000243
0.000251
0.000262
0.000264
0.000274
0.000269
0.000242
0.000368
0.000536
0.000248
0.001399
0.000225
0.000267
0.000262
0.000262
0.000283
0.000358
0.000511
0.000415
0.000258
0.000289
0.000236
0.000447
0.000056
0.000214
0.000234
0.000271
0.001531
0.000293
0.000221
0.000270
0.000243
0.000250
0.000262
0.000253
0.000281
0.000232
0.000262
0.000410
0.000511
0.001356
0.000759
0.000283
0.000366
0.000224
0.000209
0.000245
0.000277
0.001669
0.000812
0.000230
0.000266
0.000296
0.000262
0.000196
0.000055
0.000207
0.000239
0.000249
0.000243
0.000265
0.000263
0.000216
0.000253
0.000240
0.000231
0.000292
0.000285
0.000265
0.000236
0.000268
0.000237
0.000269
0.001590
0.000713
0.000383
0.000331
0.000217
0.000242
0.000306
0.000248
0.000273
0.000250
0.000251
0.001464
0.000327
0.000312
0.000058
0.000183
0.000228
0.000271
0.000232
0.000261
0.000227
0.000278
0.000229
0.000256
0.000261
0.000253
0.000494
0.000427
0.000291
0.000223
0.000237
0.000267
0.001388
0.000691
0.000531
0.000280
0.000271
0.000230
0.000254
0.000277
0.000254
0.000254
0.000285
0.001486
0.000454
0.000148
0.000057
0.000199
0.000233
0.000244
0.000249
0.000251
0.000249
0.000235
0.000252
0.000270
0.000262
0.000344
0.000439
0.000291
0.000222
0.000248
0.000243
0.000265
0.000251
0.001600
0.000580
0.000484
0.000317
0.000234
0.000258
0.000257
0.000264
0.000267
0.000288
0.000257
0.001345
0.000342
0.000057
0.000234
0.000198
0.000237
0.000256
0.000257
0.000243
0.000252
0.000297
0.000375
0.000440
0.000365
0.000406
0.000333
0.000222
0.000252
0.000249
0.000297
0.000240
0.000262
0.001913
0.000326
0.000249
0.000455
0.000233
0.000244
0.000266
0.000274
0.000260
0.000265
0.000276
0.000356
0.000057
0.000310
0.000194
0.000238
0.000244
0.000283
0.000225
0.000229
0.000238
0.000268
0.000293
0.000206
0.000237
0.000284
0.000468
0.000473
0.000410
0.000228
0.000266
0.000251
0.000248
0.000256
0.000276
0.001472
0.001058
0.000223
0.000252
0.000274
0.000262
0.000270
0.000258
0.000202
0.000055
0.000197
0.001331
0.000290
0.000217
0.000233
0.000257
0.000248
0.000242
0.000237
0.000267
0.000252
0.000257
0.000238
0.000406
0.000365
0.000455
0.000255
0.000248
0.000266
0.000276
0.000267
0.000223
0.000263
0.000256
0.001317
0.000697
0.000299
0.000382
0.000376
0.000404
0.000294
0.000057
0.000199
0.000234
0.000357
0.001319
0.000207
0.000253
0.000259
0.000242
0.000257
0.000255
0.000250
0.000244
0.000322
0.000292
0.000557
0.000316
0.000223
0.000286
0.000323
0.000213
0.000248
0.000273
0.000236
0.000270
0.000275
0.001528
0.000741
0.000321
0.000275
0.000256
0.000199
0.000055
0.000223
0.000253
0.000475
0.000313
0.001292
0.000247
0.000234
0.000254
0.000217
0.000259
0.000237
0.000258
0.000231
0.000255
0.000237
0.000256
0.000268
0.000230
0.000257
0.000259
0.000269
0.000268
0.000303
0.000326
0.000222
0.000269
0.000267
0.001452
0.000260
0.000247
0.000181
0.000056
0.000200
0.000230
0.000250
0.000258
0.000353
0.000371
0.000399
0.000277
0.001574
0.000253
0.000281
0.000505
0.000345
0.000225
0.000436
0.000232
0.000248
0.000256
0.000268
0.000275
0.000276
0.000267
0.000258
0.000266
0.000286
0.000412
0.000369
0.000338
0.001564
0.000231
0.000186
0.000056
0.000185
0.000246
0.000239
0.000250
0.000241
0.000242
0.000262
0.000318
0.000406
0.002027
0.000227
0.000254
0.000258
0.000255
0.000262
0.000314
0.000227
0.000237
0.000263
0.000457
0.000359
0.000434
0.001446
0.000251
0.000276
0.001982
0.000278
0.000247
0.000254
0.001525
0.000173
0.000056
0.000329
0.000410
0.000481
0.000247
0.000272
0.000211
0.000259
0.000268
0.000263
0.000228
0.000259
0.000330
0.000424
0.000411
0.000370
0.000220
0.000245
0.001562
0.000238
0.000559
0.001891
0.000297
0.000236
0.001521
0.002038
0.000745
0.000276
0.000257
0.000286
0.000562
0.000216
0.000056
0.000203
0.000234
0.000278
0.000222
0.002883
0.000266
0.001085
0.000202
0.000235
0.001578
0.001980
0.000212
0.000242
0.000422
0.000304
0.000460
0.000298
0.000495
0.000232
0.000223
0.000250
0.000253
0.000274
0.001655
0.001142
0.001429
0.000287
0.000288
0.000251
0.000336
0.000310
0.000057
0.000252
0.000211
0.000231
0.000244
0.000225
0.000247
0.000247
0.000258
0.000254
0.000244
0.000240
0.000352
0.000378
0.000557
0.000228
0.000241
0.000248
0.000272
0.000264
0.000283
0.000238
0.000269
0.001656
0.000331
0.002121
0.000257
0.000236
0.000359
0.000424
0.000371
0.000192
0.000056
0.000210
0.000417
0.000494
0.000235
0.000198
0.000231
0.000252
0.000239
0.000277
0.000207
0.000250
0.000266
0.000261
0.001604
0.001347
0.001231
0.000285
0.000241
0.000237
0.000276
0.000278
0.000278
0.000243
0.000254
0.002206
0.000250
0.000249
0.000297
0.000322
0.000306
0.000222
0.000056
0.000235
0.000459
0.000491
0.000283
0.000234
0.000227
0.000254
0.000261
0.001889
0.001430
0.000213
0.000332
0.000385
0.000408
0.000271
0.000221
0.000259
0.000266
0.000263
0.000269
0.000261
0.000262
0.000472
0.000241
0.000268
0.000267
0.000250
0.000274
0.000282
0.000247
0.000202
0.000055
0.000203
0.000248
0.000251
0.000241
0.000274
0.000251
0.001534
0.001414
0.001331
0.000238
0.000238
0.000243
0.000265
0.000263
0.000245
0.000252
0.000246
0.002105
0.000250
0.000238
0.000266
0.000264
0.000254
0.000267
0.000268
0.000258
0.000267
0.000257
0.000279
0.000251
0.000177
0.000056
0.000206
0.002672
0.001407
0.000217
0.000301
0.000322
0.000217
0.000282
0.000232
0.000239
0.000258
0.000249
0.000229
0.000264
0.000257
0.000257
0.000268
0.000261
0.000266
0.000257
0.000266
0.000281
0.000279
0.000263
0.000246
0.000239
0.000271
0.000276
0.000274
0.000250
0.000372
0.000055
0.001542
0.000251
0.001236
0.000238
0.000227
0.000234
0.000256
0.000277
0.000226
0.000290
0.000325
0.000411
0.000338
0.000211
0.000252
0.002149
0.000241
0.000250
0.000388
0.000397
0.000356
0.000294
0.000242
0.000254
0.000269
0.000242
0.000270
0.000275
0.000273
0.001680
0.001190
0.000057
0.000186
0.000233
0.000273
0.000407
0.000406
0.000240
0.000216
0.000232
0.000258
0.000275
0.000248
0.000243
0.000222
0.000259
0.000264
0.000243
0.000299
0.000704
0.000300
0.000235
0.000227
0.000277
0.000286
0.000256
0.000240
0.000244
0.000267
0.000276
0.000239
0.000392
0.000300
0.000072
0.001106
0.000253
0.000316
0.000477
0.000272
0.000225
0.000232
0.000238
0.000250
0.002330
0.000355
0.000364
0.000230
0.000376
0.000303
0.000260
0.000239
0.000260
0.000261
0.000227
0.000250
0.000300
0.000581
0.000469
0.001874
0.001387
0.000484
0.000486
0.000221
0.000293
0.000196
0.000056
0.000338
0.000244
0.000250
0.000247
0.000253
0.000217
0.000255
0.000255
0.000253
0.000255
0.000252
0.000231
0.000238
0.000280
0.000392
0.000479
0.001838
0.001351
0.000425
0.000467
0.000433
0.000238
0.000244
0.000260
0.002125
0.000549
0.000393
0.000234
0.000276
0.000293
0.000183
0.000055
0.000198
0.000253
0.000244
0.000254
0.000245
0.000410
0.000348
0.000331
0.000285
0.000224
0.000244
0.000247
0.000262
0.002216
0.000258
0.000392
0.000216
0.000251
0.000286
0.000239
0.000249
0.002454
0.000339
0.000222
0.000258
0.000257
0.000259
0.000268
0.000306
0.000257
0.000189
0.000056
0.000214
0.000292
0.000542
0.000410
0.000246
0.000218
0.000238
0.000256
0.000269
0.000244
0.001958
0.000385
0.000276
0.000260
0.000245
0.000269
0.000272
0.000242
0.002203
0.000440
0.000234
0.000271
0.000266
0.000260
0.000251
0.000255
0.000301
0.000254
0.000252
0.000268
0.000170
0.000056
0.000193
0.000249
0.000245
0.000222
0.000246
0.000259
0.000235
0.000245
0.000232
0.002189
0.000217
0.000280
0.000227
0.000427
0.000226
0.000251
0.000307
0.000259
0.000251
0.000254
0.001965
0.000268
0.000337
0.000367
0.000435
0.000406
0.000307
0.000253
0.000256
0.000260
0.000201
0.000056
0.000208
0.000239
0.000238
0.000248
0.000247
0.000324
0.000222
0.002314
0.000244
0.000225
0.000264
0.000251
0.000235
0.000282
0.000279
0.002121
0.000587
0.000226
0.000253
0.000248
0.000271
0.000246
0.000288
0.000267
0.000267
0.000243
0.000295
0.000248
0.000267
0.000266
0.000193
0.000055
0.001826
0.001449
0.000198
0.000227
0.000240
0.000257
0.000248
0.000325
0.000336
0.000385
0.002154
0.000256
0.000227
0.000273
0.000267
0.000549
0.000382
0.000293
0.000238
0.000238
0.000249
0.000269
0.000261
0.000223
0.000266
0.000260
0.000287
0.000250
0.000312
0.000678
0.000303
0.000057
0.000203
0.000254
0.000239
0.000260
0.000262
0.000246
0.000259
0.000235
0.001486
0.002109
0.000606
0.000248
0.000400
0.000757
0.000299
0.000243
0.000254
0.000249
0.000265
0.000261
0.000255
0.000244
0.000244
0.000274
0.003015
0.000327
0.000238
0.000265
0.000314
0.000225
0.000458
0.000056
0.001928
0.000238
0.000231
0.000228
0.000275
0.000382
0.000449
0.000294
0.000291
0.000230
0.000234
0.000252
0.000258
0.000253
0.000279
0.000240
0.000258
0.000284
0.001838
0.000230
0.000240
0.000248
0.000275
0.000286
0.000262
0.000256
0.001473
0.000319
0.000251
0.000258
0.000181
0.000056
0.000200
0.000228
0.000246
0.000258
0.000232
0.000243
0.000300
0.000378
0.000348
0.000349
0.000232
0.000238
0.000264
0.000323
0.000425
0.000319
0.000232
0.000247
0.000264
0.000344
0.000512
0.000448
0.000218
0.000259
0.000275
0.000236
0.000251
0.000275
0.000269
0.000268
0.000205
0.000056
0.001440
0.000459
0.000209
0.001944
0.000281
0.000415
0.000429
0.000317
0.000227
0.000243
0.000270
0.000242
0.000247
0.000246
0.000265
0.000270
0.000441
0.000271
0.000439
0.000368
0.000335
0.000236
0.000249
0.000271
0.000276
0.000271
0.000264
0.000258
0.000492
0.000434
0.001269
0.000056
0.000202
0.000227
0.002080
0.000313
0.000319
0.000235
0.000260
0.000249
0.000260
0.000260
0.000214
0.000255
0.000255
0.000264
0.000256
0.000350
0.000732
0.001754
0.000218
0.000252
0.000260
0.000259
0.000393
0.000390
0.001602
0.000293
0.000367
0.001925
0.000253
0.000264
0.000198
0.000055
0.000212
0.000238
0.000233
0.000244
0.000231
0.000245
0.000253
0.000284
0.000334
0.000257
0.000382
0.000363
0.000337
0.000306
0.000241
0.000270
0.000256
0.000245
0.000267
0.000251
0.000307
0.000287
0.000267
0.000260
0.000271
0.001496
0.000295
0.000397
0.002061
0.000234
0.000175
0.000057
0.000215
0.000237
0.000240
0.000246
0.000490
0.000205
0.000257
0.000332
0.000363
0.000307
0.000312
0.000209
0.000259
0.000266
0.000273
0.000332
0.000433
0.000426
0.000244
0.000405
0.000567
0.000344
0.001633
0.000236
0.000257
0.001998
0.000306
0.000256
0.000244
0.000292
0.000184
0.000055
0.000203
0.000259
0.000210
0.000244
0.000251
0.000265
0.000253
0.000273
0.000251
0.000253
0.001812
0.000318
0.000381
0.000283
0.000460
0.000360
0.000421
0.001439
0.000238
0.000308
0.002095
0.000567
0.000267
0.000227
0.000264
0.000271
0.000505
0.000228
0.000246
0.000281
0.000196
0.000056
0.000293
0.000381
0.000353
0.000284
0.000203
0.000246
0.000257
0.000247
0.000275
0.000287
0.000229
0.000251
0.000260
0.000262
0.000336
0.000439
0.001344
0.000266
0.000293
0.001895
0.000361
0.000300
0.000233
0.000259
0.000250
0.000283
0.000271
0.000257
0.000247
0.000273
0.000197
0.000055
0.000271
0.000436
0.001998
0.000262
0.000217
0.000253
0.000252
0.000285
0.000429
0.000464
0.001293
0.000368
0.000361
0.002083
0.000203
0.000246
0.000271
0.000275
0.000252
0.000244
0.000299
0.000279
0.000262
0.000307
0.000563
0.000317
0.000359
0.002203
0.000487
0.000571
0.000311
0.000055
0.000222
0.000225
0.000260
0.001947
0.000236
0.000225
0.000244
0.000240
0.000245
0.000257
0.000244
0.000267
0.000253
0.000416
0.000261
0.001497
0.000260
0.000246
0.000265
0.000259
0.000228
0.000262
0.000253
0.000272
0.000288
0.000533
0.000426
0.000239
0.001598
0.000280
0.000151
0.000056
0.000203
0.000222
0.000248
0.000234
0.000260
0.000265
0.000228
0.000268
0.000234
0.000386
0.000336
0.001423
0.000241
0.000223
0.000249
0.000298
0.000229
0.000254
0.000277
0.000518
0.000473
0.000355
0.000231
0.001570
0.000236
0.000260
0.000290
0.000279
0.000260
0.000267
0.000200
0.000055
0.000199
0.000243
0.000261
0.000266
0.000250
0.000246
0.000236
0.000242
0.000275
0.000233
0.000246
0.000253
0.000268
0.001468
0.000366
0.000211
0.000248
0.000266
0.000276
0.000309
0.000369
0.000269
0.000257
0.000269
0.000255
0.000266
0.000262
0.001403
0.000281
0.000235
0.000178
0.000056
0.000190
0.000238
0.000253
0.000262
0.000273
0.000219
0.000249
0.000257
0.000221
0.000268
0.000259
0.000241
0.000226
0.000360
0.000320
0.000380
0.000235
0.000245
0.001631
0.000241
0.000246
0.000255
0.000262
0.000333
0.000371
0.000342
0.000454
0.000271
0.000257
0.001603
0.000170
0.000055
0.000416
0.000248
0.000354
0.000312
0.000236
0.000222
0.000238
0.000275
0.000255
0.000253
0.000233
0.000235
0.001476
0.000269
0.000317
0.000221
0.000248
0.000275
0.000254
0.000266
0.000252
0.000239
0.000256
0.000272
0.000319
0.000363
0.000488
0.000241
0.000301
0.000254
0.000193
0.000056
0.000220
0.000228
0.000419
0.000435
0.000381
0.000209
0.000253
0.000246
0.000250
0.000277
0.000224
0.000228
0.000258
0.000238
0.001261
0.000306
0.000229
0.000252
0.000267
0.000274
0.000232
0.000267
0.000252
0.000261
0.000261
0.000252
0.000356
0.000606
0.000497
0.000231
0.000180
0.000056
0.000207
0.001545
0.000232
0.000451
0.000359
0.000379
0.000221
0.000257
0.000266
0.000249
0.000243
0.000259
0.000272
0.000271
0.000256
0.001531
0.000250
0.000287
0.000262
0.000256
0.000276
0.000238
0.000262
0.000261
0.000270
0.000314
0.000447
0.000298
0.000352
0.000242
0.000198
0.000056
0.000212
0.000256
0.000233
0.001750
0.000375
0.000248
0.000234
0.000235
0.000256
0.000275
0.000278
0.000255
0.000250
0.000257
0.000235
0.000270
0.000432
0.001296
0.000246
0.000232
0.001493
0.000296
0.000579
0.000406
0.000346
0.000225
0.000269
0.000467
0.000234
0.000267
0.000183
0.000055
0.000296
0.000220
0.000244
0.000248
0.000251
0.000254
0.000240
0.000255
0.000255
0.000247
0.000247
0.000258
0.000321
0.000510
0.001646
0.001518
0.000327
0.000602
0.000270
0.000235
0.000227
0.000254
0.000259
0.000266
0.000250
0.000263
0.000256
0.000267
0.001549
0.000301
0.000164
0.000058
0.000226
0.000335
0.000353
0.000330
0.000243
0.000225
0.000247
0.000414
0.000377
0.000358
0.002187
0.000306
0.000750
0.000484
0.000432
0.000255
0.000336
0.000394
0.000329
0.000275
0.000406
0.000263
0.001524
0.000529
0.000223
0.000266
0.000254
0.000254
0.000260
0.000272
0.000194
0.000057
0.000229
0.000254
0.000252
0.000251
0.000243
0.001662
0.000881
0.000995
0.000211
0.000230
0.000262
0.000258
0.000263
0.000258
0.000254
0.000249
0.000252
0.000264
0.000269
0.000280
0.001423
0.000315
0.000253
0.000252
0.000215
0.000267
0.000257
0.000281
0.000263
0.000288
0.001918
0.000058
0.000206
0.000217
0.001541
0.000857
0.000459
0.000288
0.000231
0.000241
0.000250
0.000252
0.000249
0.000249
0.000245
0.002095
0.000361
0.000221
0.000265
0.000237
0.000265
0.000258
0.000192
