0.000083
0.020062
0.001445
0.000346
0.000244
0.000308
0.000320
0.000245
0.000318
0.000275
0.000254
0.000335
0.000532
0.000448
0.000418
0.000328
0.000305
0.000321
0.000355
0.000423
0.000314
0.001933
0.000672
0.000276
0.000251
0.000294
0.000321
0.000313
0.000421
0.000369
0.000515
0.000298
0.000058
0.000220
0.000250
0.000268
0.000293
0.000248
0.000258
0.000278
0.000280
0.000270
0.000258
0.000438
0.000426
0.000316
0.000265
0.000366
0.000350
0.000365
0.000256
0.000246
0.001695
0.000307
0.000270
0.000465
0.000234
0.000273
0.000277
0.000297
0.000287
0.000282
0.000321
0.000432
0.000057
0.000250
0.000247
0.000257
0.000260
0.000256
0.000241
0.000268
0.000253
0.000289
0.001665
0.000237
0.000252
0.000250
0.000265
0.000278
0.000254
0.000259
0.000257
0.000351
0.001799
0.000243
0.000276
0.000465
0.000414
0.000394
0.000244
0.000356
0.000404
0.000464
0.000755
0.000197
0.000057
0.000214
0.000247
0.000252
0.000237
0.000298
0.000270
0.000340
0.000496
0.000399
0.000259
0.000242
0.000250
0.000246
0.000254
0.000246
0.000263
0.000243
0.000268
0.000294
0.000330
0.001676
0.000297
0.000218
0.000424
0.000289
0.000735
0.000662
0.000506
0.000348
0.000241
0.000187
0.000057
0.000221
0.000246
0.000296
0.000211
0.000283
0.000226
0.000300
0.000376
0.001517
0.000224
0.000241
0.000250
0.000257
0.000252
0.000261
0.000303
0.000427
0.000636
0.001384
0.000305
0.000234
0.000428
0.000225
0.000257
0.000260
0.000262
0.000260
0.000271
0.000257
0.000273
0.000201
0.000056
0.000210
0.000241
0.000245
0.000267
0.000237
0.000246
0.000239
0.000251
0.000233
0.000260
0.001620
0.000263
0.000261
0.000225
0.000249
0.000261
0.000237
0.000250
0.000249
0.000255
0.000301
0.001643
0.000279
0.000257
0.000426
0.000270
0.000238
0.000266
0.000262
0.000276
0.000203
0.000056
0.000201
0.000234
0.000248
0.000245
0.000247
0.000246
0.000259
0.000240
0.000265
0.000278
0.000229
0.000259
0.000253
0.000274
0.001630
0.000277
0.000304
0.000221
0.000250
0.000268
0.000269
0.000230
0.000249
0.000263
0.001796
0.000391
0.000459
0.000254
0.000233
0.000279
0.000203
0.000056
0.000201
0.000240
0.000242
0.000275
0.000258
0.000262
0.000297
0.000364
0.000398
0.000445
0.000214
0.000243
0.000259
0.000244
0.001561
0.000530
0.000368
0.000357
0.000329
0.000224
0.000271
0.000284
0.000271
0.001731
0.000486
0.000508
0.000248
0.000230
0.000247
0.000261
0.000189
0.000056
0.000211
0.000232
0.000257
0.000298
0.000277
0.000459
0.000386
0.000280
0.000219
0.000239
0.000261
0.000244
0.000249
0.001823
0.000375
0.000294
0.000224
0.000251
0.000272
0.000289
0.000239
0.000262
0.000271
0.001925
0.000276
0.000409
0.000236
0.000245
0.000264
0.000405
0.000324
0.000056
0.000223
0.000532
0.000177
0.000301
0.000254
0.000247
0.000248
0.000257
0.000242
0.000236
0.000233
0.000252
0.001570
0.000385
0.000263
0.000223
0.000260
0.000252
0.000245
0.000303
0.000345
0.000250
0.000232
0.001815
0.000257
0.000500
0.000237
0.000253
0.000253
0.000273
0.000264
0.000056
0.000365
0.000561
0.000605
0.000216
0.000228
0.000277
0.000225
0.000223
0.000260
0.000253
0.000254
0.001703
0.000245
0.000447
0.000369
0.000216
0.000234
0.000233
0.000251
0.000266
0.000267
0.001852
0.000212
0.000461
0.001862
0.000535
0.000351
0.000247
0.000254
0.000264
0.000184
0.000056
0.000197
0.000231
0.000249
0.000239
0.000260
0.001617
0.000247
0.000256
0.000244
0.000248
0.000259
0.000240
0.000240
0.000253
0.000283
0.000691
0.000342
0.000257
0.000233
0.000270
0.000281
0.000232
0.000244
0.000452
0.000414
0.000290
0.000322
0.000612
0.000375
0.000268
0.000212
0.000055
0.000220
0.000239
0.000250
0.000251
0.000253
0.000222
0.000237
0.000443
0.000375
0.001732
0.000226
0.000230
0.000266
0.000240
0.000248
0.000319
0.000413
0.000453
0.000331
0.000247
0.000269
0.000297
0.000284
0.000244
0.000274
0.000436
0.000345
0.000691
0.000389
0.000429
0.000185
0.000056
0.000200
0.000246
0.000243
0.000234
0.000237
0.000242
0.000247
0.000259
0.000226
0.000294
0.000345
0.000490
0.001338
0.000238
0.000239
0.000254
0.000248
0.000267
0.000230
0.000262
0.000277
0.000491
0.000362
0.000281
0.000256
0.000252
0.000252
0.000279
0.000259
0.000279
0.000371
0.000056
0.000201
0.000262
0.000206
0.000326
0.000494
0.000426
0.000222
0.000262
0.000237
0.000256
0.000260
0.000227
0.000322
0.000211
0.000237
0.000518
0.000405
0.001620
0.000295
0.000214
0.000264
0.000279
0.000236
0.000236
0.000273
0.000501
0.000356
0.000400
0.000417
0.000247
0.000188
0.000055
0.000234
0.000437
0.000236
0.000218
0.000284
0.000219
0.000289
0.000578
0.000325
0.000323
0.000223
0.000279
0.000263
0.000237
0.000522
0.000338
0.000218
0.000282
0.000436
0.001580
0.000259
0.000247
0.000525
0.000263
0.000267
0.000268
0.000259
0.000368
0.000531
0.000374
0.000273
0.000056
0.000215
0.000242
0.000234
0.000241
0.000440
0.000284
0.000288
0.000227
0.000428
0.000452
0.000363
0.000274
0.000231
0.000239
0.000254
0.000271
0.000255
0.000246
0.000243
0.000343
0.000287
0.000383
0.001821
0.000217
0.000259
0.000256
0.000286
0.000349
0.000472
0.000626
0.000453
0.000056
0.000234
0.000331
0.000308
0.000460
0.000362
0.000180
0.000256
0.000273
0.000522
0.000422
0.000268
0.000238
0.000237
0.000271
0.000260
0.000235
0.000249
0.000280
0.000285
0.000239
0.000291
0.000511
0.000563
0.001309
0.000328
0.000430
0.000431
0.000219
0.000497
0.000354
0.000339
0.000056
0.000237
0.000376
0.000285
0.000211
0.000221
0.000246
0.000411
0.000243
0.000230
0.000511
0.000305
0.000428
0.000240
0.000254
0.000262
0.000245
0.000361
0.000412
0.000327
0.000244
0.000244
0.000703
0.000329
0.001666
0.000331
0.000355
0.000296
0.000223
0.000302
0.000431
0.000319
0.000055
0.000196
0.000226
0.000248
0.000261
0.000247
0.000229
0.000256
0.000372
0.000411
0.000314
0.000390
0.000378
0.000285
0.000591
0.000244
0.000243
0.000271
0.000265
0.000225
0.000350
0.000225
0.000264
0.000256
0.000457
0.000529
0.001570
0.000263
0.000241
0.000253
0.000268
0.000190
0.000057
0.000268
0.000566
0.000262
0.000222
0.000242
0.000237
0.000258
0.000241
0.000267
0.000247
0.000210
0.000270
0.000385
0.000537
0.000405
0.000294
0.000224
0.000255
0.000335
0.000390
0.000382
0.000334
0.000362
0.000413
0.000232
0.000257
0.000264
0.000269
0.001792
0.000244
0.000213
0.000056
0.000200
0.000236
0.000246
0.000296
0.000329
0.000540
0.000328
0.000210
0.000285
0.000234
0.000251
0.000249
0.000525
0.000458
0.000469
0.000277
0.000268
0.000263
0.000417
0.000462
0.000359
0.000426
0.000525
0.000394
0.000238
0.000243
0.000265
0.000246
0.000261
0.001717
0.000309
0.000056
0.000304
0.000306
0.000229
0.000222
0.000251
0.000249
0.000241
0.000494
0.000379
0.000307
0.000294
0.000302
0.000311
0.000736
0.000265
0.000231
0.000248
0.000257
0.000256
0.000265
0.000277
0.000250
0.000252
0.000267
0.000280
0.000420
0.000381
0.000347
0.000243
0.000245
0.000199
0.000055
0.000466
0.000360
0.000426
0.000215
0.000202
0.000249
0.000246
0.000260
0.000240
0.000216
0.000255
0.000278
0.000300
0.000447
0.000493
0.000433
0.000320
0.000301
0.000365
0.000343
0.000296
0.000239
0.000247
0.000268
0.001750
0.000252
0.001713
0.000935
0.000456
0.000281
0.000163
0.000057
0.000176
0.000243
0.000235
0.000241
0.000268
0.000238
0.000253
0.000253
0.000239
0.000301
0.000365
0.000482
0.000334
0.000355
0.000261
0.000234
0.000245
0.000289
0.000235
0.000244
0.000254
0.000264
0.001826
0.000229
0.000244
0.000271
0.000272
0.001716
0.000428
0.000523
0.000300
0.000057
0.000196
0.000223
0.000229
0.000242
0.000265
0.000236
0.000239
0.000258
0.000254
0.000459
0.000511
0.000296
0.000376
0.000216
0.000255
0.000248
0.000325
0.000437
0.000366
0.000262
0.001795
0.000236
0.000246
0.000256
0.000255
0.000270
0.000242
0.000251
0.000333
0.000307
0.000398
0.000056
0.000269
0.000225
0.000225
0.000265
0.000237
0.000243
0.000259
0.000250
0.000238
0.000259
0.000241
0.000338
0.000322
0.000374
0.000366
0.000266
0.000474
0.000224
0.000249
0.000254
0.000261
0.000259
0.000274
0.000255
0.000283
0.001793
0.000235
0.000246
0.000267
0.000242
0.000205
0.000056
0.000338
0.000304
0.000210
0.000249
0.000223
0.000234
0.000237
0.000265
0.000242
0.000223
0.000234
0.000263
0.000258
0.000370
0.000399
0.000375
0.000289
0.000221
0.000258
0.000248
0.000263
0.000261
0.000245
0.000270
0.000259
0.000260
0.000384
0.001562
0.000259
0.000235
0.000197
0.000057
0.000196
0.000233
0.000246
0.000265
0.000348
0.000373
0.000410
0.000327
0.000184
0.000251
0.000286
0.000205
0.000252
0.000253
0.000262
0.000250
0.000253
0.000259
0.000253
0.000261
0.000269
0.000266
0.000241
0.000248
0.000240
0.000276
0.000283
0.000260
0.000249
0.000266
0.000193
0.000056
0.000245
0.000210
0.000258
0.000275
0.000234
0.000234
0.000243
0.000264
0.000274
0.000249
0.000241
0.000234
0.000251
0.000255
0.000297
0.000233
0.000252
0.000248
0.000306
0.000244
0.000280
0.000319
0.000271
0.000220
0.000304
0.000251
0.000262
0.000255
0.000296
0.000352
0.000732
0.000056
0.000211
0.000291
0.000224
0.000226
0.000245
0.000248
0.000258
0.000224
0.000253
0.000246
0.000270
0.000310
0.000470
0.000589
0.001428
0.000229
0.000487
0.000231
0.000290
0.000473
0.000373
0.000401
0.000227
0.000287
0.000244
0.000259
0.000282
0.000252
0.000324
0.000261
0.000173
0.000056
0.000386
0.000391
0.000324
0.000324
0.000228
0.000277
0.000218
0.000243
0.000242
0.000241
0.000255
0.000252
0.000233
0.000319
0.000389
0.000461
0.000340
0.001806
0.000234
0.000251
0.000373
0.000385
0.000493
0.000251
0.000316
0.000322
0.000300
0.000237
0.000224
0.000250
0.000200
0.000056
0.000197
0.000236
0.000234
0.000306
0.000305
0.000470
0.000355
0.000257
0.000250
0.000218
0.000251
0.000264
0.000268
0.000268
0.000241
0.000261
0.000291
0.000503
0.000365
0.000408
0.000236
0.001765
0.000316
0.000498
0.000470
0.000496
0.000325
0.000217
0.000256
0.000270
0.000450
0.000055
0.000203
0.000270
0.000215
0.000353
0.000344
0.000507
0.000343
0.000235
0.000218
0.000291
0.000244
0.000261
0.000254
0.000292
0.000323
0.000224
0.000237
0.000378
0.000523
0.000294
0.000490
0.001867
0.000228
0.000561
0.000444
0.000298
0.000230
0.000258
0.000291
0.000255
0.000211
0.000055
0.000218
0.000331
0.000362
0.000359
0.000411
0.000263
0.000357
0.000218
0.000235
0.000257
0.000278
0.000226
0.000250
0.000263
0.000236
0.000260
0.000329
0.000367
0.000502
0.000358
0.000307
0.000241
0.000252
0.001722
0.000417
0.000487
0.000712
0.000235
0.000261
0.000307
0.000163
0.000056
0.000204
0.000241
0.000350
0.000227
0.000305
0.000287
0.000427
0.000346
0.000239
0.000525
0.000233
0.000247
0.000258
0.000276
0.000276
0.000263
0.000218
0.000444
0.000423
0.000386
0.000267
0.000226
0.000252
0.000261
0.000254
0.000273
0.000238
0.000250
0.000272
0.000313
0.000199
0.000056
0.000344
0.000294
0.000225
0.000256
0.000246
0.000254
0.000248
0.000294
0.000228
0.000251
0.000274
0.000334
0.000417
0.000475
0.000276
0.000279
0.000221
0.000238
0.000254
0.000268
0.000283
0.000276
0.000227
0.000259
0.000282
0.000319
0.000326
0.000472
0.000345
0.000229
0.000178
0.000057
0.000212
0.000224
0.000281
0.000243
0.000237
0.000272
0.000260
0.000234
0.000489
0.000231
0.000240
0.000266
0.000236
0.000262
0.000275
0.000293
0.000241
0.000354
0.000213
0.000240
0.000262
0.000263
0.000255
0.000269
0.000293
0.000241
0.000273
0.000250
0.000259
0.000493
0.000170
0.000057
0.000201
0.000240
0.000247
0.000294
0.000212
0.000236
0.000369
0.000396
0.000238
0.000236
0.000249
0.000255
0.000233
0.000318
0.000450
0.001738
0.000227
0.000257
0.000290
0.000333
0.000407
0.000369
0.000361
0.000427
0.000353
0.000411
0.000254
0.000253
0.000268
0.000273
0.001395
0.000055
0.000175
0.000303
0.000266
0.000227
0.000234
0.000245
0.000239
0.000256
0.000239
0.000276
0.000244
0.000258
0.000250
0.000327
0.000467
0.001680
0.000233
0.000231
0.000241
0.000265
0.000236
0.000260
0.000417
0.000331
0.000318
0.000338
0.000237
0.000257
0.000267
0.000283
0.000173
0.000057
0.001177
0.000565
0.000306
0.000270
0.000243
0.000219
0.000237
0.000236
0.000488
0.000235
0.000223
0.000257
0.000370
0.000590
0.000288
0.000352
0.000266
0.000238
0.000318
0.000352
0.000271
0.000256
0.000271
0.000250
0.000261
0.000464
0.000688
0.000238
0.000268
0.000258
0.000176
0.000057
0.000216
0.000212
0.000246
0.000242
0.001549
0.000220
0.000219
0.000258
0.000260
0.000225
0.000258
0.000251
0.000241
0.000262
0.000273
0.000342
0.000456
0.000567
0.000278
0.001759
0.000241
0.000288
0.000270
0.000438
0.000637
0.000325
0.000250
0.000248
0.000257
0.000274
0.000201
0.000056
0.000228
0.000232
0.000238
0.000360
0.001206
0.000239
0.000287
0.000233
0.000237
0.000232
0.000243
0.000253
0.000279
0.000263
0.000232
0.000315
0.000471
0.000477
0.000256
0.000235
0.000270
0.000270
0.000247
0.000237
0.000288
0.000265
0.000256
0.000265
0.000273
0.000403
0.000611
0.000057
0.000224
0.000248
0.000236
0.000262
0.000264
0.000236
0.000247
0.000255
0.000285
0.000262
0.001405
0.000228
0.000243
0.000242
0.000250
0.000242
0.000297
0.000241
0.000281
0.000248
0.000286
0.000460
0.000578
0.000279
0.000226
0.000270
0.001778
0.000250
0.000240
0.000367
0.000388
0.000056
0.000198
0.000406
0.000451
0.000523
0.000494
0.000537
0.001494
0.000424
0.000523
0.000651
0.000552
0.000826
0.000401
0.000590
0.000578
0.001895
0.000387
0.000445
0.000388
0.000324
0.000230
0.000277
0.000279
0.000273
0.000256
0.000291
0.000296
0.000296
0.000243
0.000288
0.001358
0.000056
0.000211
0.000228
0.000245
0.000240
0.000253
0.000255
0.000238
0.000239
0.000244
0.000257
0.000242
0.000241
0.000251
0.000259
0.000268
0.000270
0.001837
0.000239
0.000260
0.000246
0.000263
0.000255
0.000276
0.000335
0.000334
0.000439
0.000347
0.000231
0.000258
0.000281
0.000217
0.000056
0.000184
0.001366
0.000327
0.000283
0.000244
0.000240
0.000243
0.000227
0.000243
0.000232
0.000231
0.000236
0.000263
0.000498
0.000361
0.000307
0.000242
0.001832
0.000347
0.000226
0.000246
0.000260
0.000261
0.000267
0.000269
0.000285
0.000264
0.000259
0.000270
0.000348
0.000172
0.000057
0.000209
0.000241
0.000251
0.001441
0.000213
0.000254
0.000250
0.000243
0.000242
0.000266
0.000265
0.000231
0.000266
0.000261
0.000238
0.000255
0.000258
0.000266
0.000268
0.000257
0.000257
0.001788
0.000266
0.001753
0.000269
0.000256
0.000255
0.000270
0.000266
0.000272
0.000201
0.000079
0.000178
0.000236
0.001344
0.000235
0.000255
0.000241
0.000261
0.000255
0.000242
0.000247
0.000257
0.000254
0.000248
0.000260
0.000257
0.000262
0.000262
0.000291
0.000285
0.000233
0.001893
0.000217
0.001833
0.000249
0.000259
0.000271
0.000231
0.000251
0.000249
0.000280
0.000196
0.000055
0.001439
0.000228
0.000251
0.000224
0.000241
0.000237
0.000378
0.000281
0.000244
0.000245
0.000253
0.000260
0.000269
0.000363
0.000367
0.000279
0.000253
0.000271
0.000271
0.000277
0.000253
0.000335
0.000228
0.000245
0.000261
0.000273
0.000271
0.000381
0.000593
0.000375
0.000193
0.000056
0.000205
0.000274
0.000263
0.000285
0.000355
0.000269
0.001650
0.000341
0.000278
0.000274
0.000250
0.000297
0.000255
0.000275
0.000283
0.000309
0.000328
0.000587
0.000370
0.000270
0.000288
0.000288
0.000254
0.000275
0.000314
0.000267
0.000273
0.000243
0.000258
0.000312
0.000400
0.000057
0.000268
0.000462
0.000266
0.000266
0.000246
0.000227
0.000220
0.000270
0.000242
0.001464
0.000316
0.000216
0.000225
0.000253
0.000246
0.000289
0.000283
0.000235
0.000295
0.000225
0.000267
0.000352
0.000509
0.000382
0.000251
0.000288
0.000269
0.000257
0.000232
0.000310
0.000176
0.000057
0.000199
0.000233
0.000324
0.000435
0.000343
0.000292
0.000216
0.000250
0.000249
0.000246
0.000245
0.000253
0.000253
0.000266
0.000250
0.000226
0.000486
0.001127
0.000255
0.000229
0.000286
0.000243
0.000356
0.000427
0.000247
0.000318
0.000606
0.000374
0.000350
0.000216
0.000184
0.000057
0.000237
0.000242
0.000266
0.000263
0.000253
0.000239
0.000348
0.000435
0.000437
0.000255
0.000356
0.000394
0.000395
0.000363
0.000259
0.000233
0.000242
0.000278
0.000397
0.000509
0.001202
0.000223
0.000273
0.000274
0.000236
0.000251
0.000245
0.000306
0.000423
0.000490
0.000193
0.000055
0.000211
0.000237
0.000254
0.000244
0.000235
0.000251
0.000231
0.000273
0.000300
0.000439
0.000314
0.000395
0.000257
0.000229
0.000247
0.000255
0.000248
0.000261
0.000263
0.000275
0.000439
0.000272
0.000345
0.000452
0.000276
0.000251
0.000270
0.000264
0.000261
0.000334
0.000163
0.000056
0.000319
0.000309
0.000290
0.000379
0.000519
0.000310
0.000239
0.000247
0.000241
0.000301
0.000230
0.000257
0.000239
0.000252
0.000242
0.000235
0.000259
0.000349
0.000552
0.000298
0.000254
0.000244
0.000249
0.000251
0.000268
0.000283
0.000261
0.000279
0.000264
0.000262
0.000272
0.000057
0.000319
0.000312
0.000240
0.000267
0.000223
0.000250
0.000243
0.000253
0.000266
0.000253
0.000254
0.000233
0.000281
0.000497
0.000443
0.000284
0.000255
0.000232
0.000255
0.000275
0.000248
0.000259
0.000263
0.000267
0.000274
0.000344
0.000385
0.000684
0.000312
0.000260
0.000172
0.000056
0.000373
0.000219
0.000221
0.000242
0.000250
0.000249
0.000240
0.000249
0.000264
0.000250
0.000242
0.000226
0.000278
0.000216
0.000243
0.000262
0.000254
0.000264
0.000301
0.000242
0.000257
0.000260
0.000266
0.000262
0.000265
0.000235
0.000264
0.000283
0.000263
0.000272
0.000201
0.000056
0.000205
0.000231
0.000248
0.000249
0.000233
0.000258
0.000260
0.000240
0.000259
0.000279
0.000229
0.000229
0.000262
0.000392
0.000262
0.000294
0.000239
0.000273
0.000250
0.000279
0.000276
0.000235
0.000245
0.000251
0.000273
0.000270
0.000249
0.000255
0.000275
0.000258
0.000206
0.000057
0.000213
0.000361
0.000367
0.000279
0.000298
0.000262
0.000256
0.000263
0.000217
0.000254
0.000274
0.000236
0.000240
0.000241
0.000263
0.000278
0.000239
0.000270
0.000242
0.000263
0.000281
0.000264
0.000277
0.000252
0.000297
0.000236
0.000247
0.000272
0.000269
0.000261
0.000201
0.000056
0.000217
0.000241
0.000263
0.000260
0.000251
0.000447
0.000214
0.000270
0.000269
0.000410
0.000513
0.000287
0.000230
0.000248
0.000277
0.000257
0.000239
0.000271
0.000255
0.000285
0.000245
0.000263
0.000264
0.000287
0.000517
0.000485
0.000292
0.000294
0.000260
0.000267
0.000190
0.000056
0.000205
0.000224
0.000251
0.000247
0.000531
0.000456
0.000305
0.000381
0.000212
0.000242
0.000248
0.000256
0.000251
0.000250
0.000268
0.000263
0.000267
0.000271
0.000622
0.000418
0.000258
0.000237
0.000257
0.000287
0.000282
0.000255
0.000263
0.000297
0.000218
0.000333
0.000299
0.000056
0.000307
0.000223
0.000234
0.000243
0.000256
0.000266
0.000211
0.000247
0.000247
0.000259
0.000242
0.000255
0.000240
0.000371
0.000591
0.000436
0.000203
0.000257
0.000259
0.000248
0.000262
0.000292
0.000474
0.000220
0.000262
0.000647
0.000362
0.000480
0.000263
0.000248
0.000190
0.000055
0.000222
0.000247
0.000226
0.000257
0.000244
0.000253
0.000365
0.000373
0.000591
0.000424
0.000219
0.000261
0.000274
0.000278
0.000260
0.000238
0.000256
0.000233
0.000254
0.000323
0.000437
0.000630
0.000366
0.000249
0.000364
0.000382
0.000478
0.000264
0.000263
0.000409
0.000357
0.000056
0.000280
0.000228
0.000438
0.000224
0.000230
0.000255
0.000261
0.000260
0.000230
0.000242
0.000256
0.000427
0.000356
0.000370
0.000204
0.000239
0.000265
0.000247
0.000269
0.000274
0.000297
0.000231
0.000246
0.000278
0.000315
0.000475
0.000494
0.000251
0.000245
0.000271
0.000197
0.000056
0.000210
0.000250
0.000229
0.000243
0.000249
0.000273
0.000329
0.000417
0.000444
0.000264
0.000374
0.000225
0.000252
0.000262
0.000253
0.000242
0.000261
0.000256
0.000331
0.000384
0.000447
0.000341
0.000476
0.000269
0.000383
0.000419
0.000387
0.000245
0.000253
0.000291
0.000391
0.000057
0.000273
0.000269
0.000224
0.000251
0.000289
0.000236
0.000265
0.000225
0.000273
0.000244
0.000233
0.000302
0.000503
0.000381
0.000365
0.000228
0.000266
0.000264
0.000265
0.000240
0.000249
0.000252
0.000291
0.000252
0.000272
0.000336
0.000516
0.000440
0.000247
0.000277
0.000197
0.000056
0.000200
0.000245
0.000275
0.000244
0.000244
0.000336
0.000560
0.000464
0.000564
0.000468
0.000237
0.000219
0.000231
0.000259
0.000248
0.000265
0.000280
0.000271
0.000480
0.000550
0.001376
0.000312
0.000274
0.000259
0.000283
0.000264
0.000434
0.000349
0.000381
0.000301
0.000188
0.000056
0.000208
0.000230
0.000245
0.000261
0.000234
0.000245
0.000306
0.000227
0.000240
0.000331
0.000327
0.000383
0.000270
0.000331
0.000399
0.000348
0.000246
0.000242
0.000273
0.000257
0.000244
0.000244
0.000316
0.000220
0.000322
0.000436
0.000468
0.000254
0.000250
0.000263
0.000192
0.000056
0.000221
0.000247
0.000255
0.000255
0.000236
0.000237
0.000473
0.000221
0.000225
0.000255
0.000249
0.000250
0.000263
0.000257
0.000249
0.000269
0.000258
0.000295
0.000263
0.000238
0.000284
0.000269
0.000295
0.000235
0.000271
0.000282
0.000263
0.000262
0.000262
0.000275
0.000174
0.000056
0.000222
0.000250
0.000501
0.000198
0.000382
0.000257
0.000236
0.000248
0.000263
0.000244
0.000250
0.000255
0.000263
0.000260
0.000238
0.000246
0.000267
0.000244
0.000340
0.000277
0.000461
0.000390
0.000215
0.000269
0.000264
0.000255
0.000269
0.000255
0.000275
0.000268
0.000203
0.000073
0.000323
0.000461
0.000363
0.000207
0.000251
0.000263
0.000406
0.000223
0.000227
0.000257
0.000253
0.000295
0.000351
0.000448
0.001849
0.000257
0.000236
0.000257
0.000283
0.000240
0.000348
0.000430
0.000546
0.000368
0.000235
0.000257
0.000277
0.000426
0.000275
0.000277
0.000163
0.000055
0.000219
0.000382
0.000318
0.000320
0.000495
0.000206
0.000237
0.000247
0.000250
0.000247
0.000259
0.000246
0.000263
0.000295
0.000454
0.000447
0.000228
0.000241
0.000269
0.000252
0.000269
0.000310
0.000242
0.000277
0.000274
0.000450
0.000523
0.000377
0.000475
0.000227
0.000204
0.000056
0.000224
0.000233
0.000254
0.000238
0.000241
0.000249
0.000271
0.000295
0.000356
0.000310
0.000467
0.000340
0.000228
0.000252
0.000264
0.000286
0.000298
0.000238
0.000276
0.000273
0.000231
0.000349
0.000499
0.000308
0.000342
0.000200
0.000260
0.000439
0.000413
0.000300
0.000188
0.000057
0.000203
0.000239
0.000348
0.000484
0.000302
0.000230
0.000219
0.000258
0.000259
0.000266
0.000252
0.000248
0.000237
0.000252
0.000257
0.000290
0.000396
0.000364
0.000301
0.000349
0.000483
0.000229
0.000280
0.000276
0.000297
0.000287
0.000254
0.000269
0.000480
0.000425
0.000274
0.000056
0.000198
0.000227
0.000253
0.000247
0.000242
0.000480
0.000213
0.000253
0.000267
0.000356
0.000453
0.000605
0.000211
0.000239
0.000232
0.000259
0.000253
0.000269
0.000240
0.000253
0.000291
0.000237
0.000440
0.000323
0.000385
0.000395
0.000306
0.000298
0.000323
0.000242
0.000188
0.000056
0.000227
0.000238
0.000259
0.000472
0.000356
0.000262
0.000279
0.000233
0.000221
0.000267
0.000243
0.000260
0.000263
0.000245
0.000247
0.000256
0.000252
0.000236
0.000296
0.000400
0.000481
0.000383
0.000234
0.000246
0.000294
0.000260
0.000263
0.000255
0.000270
0.000263
0.000200
0.000056
0.000269
0.000371
0.000478
0.000229
0.000215
0.000257
0.000306
0.000456
0.000303
0.000215
0.000234
0.000267
0.000337
0.000378
0.000432
0.000290
0.000227
0.000236
0.000255
0.000262
0.000272
0.000259
0.000267
0.000272
0.000265
0.000332
0.000359
0.000452
0.000278
0.000233
0.000200
0.000056
0.000227
0.000247
0.000247
0.000253
0.000250
0.000268
0.000226
0.000272
0.000247
0.000237
0.000267
0.000233
0.000295
0.001433
0.000222
0.000251
0.000264
0.000243
0.000279
0.000275
0.000263
0.000234
0.000283
0.000252
0.000287
0.000247
0.000272
0.000272
0.000272
0.000262
0.000188
0.000056
0.000195
0.000230
0.000254
0.000266
0.000220
0.000244
0.000257
0.000260
0.000246
0.000230
0.000249
0.000266
0.000252
0.000252
0.000254
0.000263
0.000253
0.000256
0.000269
0.000252
0.000254
0.000265
0.000248
0.000251
0.001290
0.000275
0.000611
0.000440
0.000293
0.000245
0.000195
0.000055
0.000204
0.000233
0.000241
0.000253
0.000412
0.000246
0.000234
0.000242
0.000253
0.000443
0.000358
0.000355
0.000236
0.000231
0.000256
0.000271
0.000241
0.000263
0.000253
0.000258
0.000260
0.000256
0.000261
0.000452
0.000490
0.000447
0.000230
0.000256
0.001366
0.000238
0.000193
0.000057
0.000331
0.000407
0.000301
0.000274
0.000224
0.000224
0.000226
0.000255
0.000258
0.000253
0.000247
0.000267
0.000292
0.000246
0.000609
0.000358
0.000317
0.000209
0.000249
0.000263
0.000264
0.000285
0.000249
0.000265
0.000269
0.000259
0.000357
0.000519
0.000395
0.000355
0.000152
0.000056
0.000211
0.000221
0.001256
0.000434
0.000288
0.000451
0.000399
0.000479
0.000272
0.000345
0.000212
0.000244
0.000255
0.000255
0.000250
0.000263
0.000366
0.000504
0.000342
0.000390
0.000262
0.000242
0.000260
0.000513
0.000221
0.000262
0.000260
0.000281
0.000294
0.000561
0.000294
0.000056
0.000378
0.000313
0.000236
0.001391
0.000431
0.000534
0.000211
0.000229
0.000246
0.000245
0.000237
0.000237
0.000244
0.000273
0.000249
0.000261
0.000235
0.000274
0.000446
0.000394
0.000406
0.000231
0.000266
0.000260
0.000258
0.000275
0.000269
0.000252
0.000252
0.000273
0.000200
0.000055
0.000483
0.000237
0.000219
0.000242
0.000253
0.000241
0.000263
0.000235
0.000237
0.000221
0.001394
0.000491
0.000267
0.000244
0.000237
0.000253
0.000278
0.000267
0.000229
0.000303
0.000261
0.000233
0.000257
0.000450
0.000536
0.000318
0.000222
0.000267
0.000273
0.000282
0.000179
0.000057
0.000195
0.000411
0.000224
0.000225
0.000366
0.000483
0.000339
0.000296
0.000455
0.000210
0.000236
0.000256
0.000260
0.000265
0.000256
0.001493
0.000287
0.000293
0.000235
0.000265
0.000297
0.000231
0.000254
0.000250
0.000267
0.000282
0.000360
0.000523
0.000288
0.000274
0.000167
0.000057
0.000216
0.000235
0.000259
0.000237
0.000228
0.000261
0.000238
0.000246
0.000280
0.000467
0.000370
0.000294
0.000210
0.000259
0.000244
0.000270
0.000276
0.000260
0.000270
0.000228
0.000268
0.000323
0.001228
0.000248
0.000277
0.000240
0.000260
0.000269
0.000250
0.000272
0.000186
0.000057
0.000256
0.000342
0.000365
0.000317
0.000265
0.000224
0.000256
0.000291
0.000237
0.000258
0.000239
0.000265
0.000242
0.000264
0.000264
0.000245
0.000274
0.000264
0.000261
0.000247
0.000257
0.000265
0.000270
0.000283
0.000284
0.000266
0.000274
0.000260
0.000258
0.000444
0.001362
0.000057
0.000203
0.000245
0.000222
0.000263
0.000233
0.000259
0.000243
0.000235
0.000241
0.000250
0.000304
0.000231
0.000249
0.000237
0.000279
0.000218
0.001734
0.000260
0.000238
0.000258
0.000262
0.000242
0.000281
0.000255
0.000297
0.000232
0.000266
0.000274
0.000269
0.000262
0.000221
0.000057
0.000299
0.000321
0.001292
0.000223
0.000236
0.000251
0.000256
0.000248
0.000272
0.000244
0.000234
0.000371
0.000375
0.000433
0.000283
0.000223
0.000256
0.000247
0.000259
0.000270
0.000243
0.000275
0.000259
0.000287
0.000259
0.000431
0.000341
0.000363
0.000316
0.000229
0.000196
0.000055
0.000239
0.000236
0.000246
0.000243
0.000285
0.000197
0.000242
0.000340
0.000371
0.001297
0.000276
0.000210
0.000247
0.000278
0.000244
0.000297
0.000232
0.000246
0.000325
0.000392
0.000390
0.000269
0.000245
0.000239
0.000296
0.000267
0.000267
0.000288
0.000272
0.000270
0.000200
0.000056
0.000266
0.000425
0.000372
0.000211
0.000238
0.000227
0.000249
0.000280
0.000260
0.000245
0.000235
0.000250
0.000457
0.000498
0.000475
0.001499
0.000201
0.000272
0.000330
0.000348
0.000465
0.000475
0.000451
0.000367
0.000230
0.000265
0.000269
0.000275
0.000265
0.000275
0.000201
0.000057
0.000199
0.000289
0.000437
0.000541
0.000292
0.000215
0.000250
0.000244
0.000238
0.000273
0.000231
0.000268
0.000281
0.000216
0.000269
0.000359
0.000331
0.000399
0.001475
0.000271
0.000224
0.000251
0.000245
0.000265
0.000518
0.000399
0.000386
0.000236
0.000271
0.000265
0.000198
0.000056
0.000206
0.000244
0.000239
0.000274
0.000226
0.000316
0.000399
0.000459
0.000311
0.000220
0.000249
0.000245
0.000276
0.000288
0.000239
0.000250
0.000263
0.000252
0.000289
0.000247
0.000567
0.000367
0.000295
0.001394
0.000360
0.000240
0.000271
0.000428
0.000491
0.000288
0.000315
0.000056
0.000211
0.000211
0.000251
0.000243
0.000250
0.000257
0.001680
0.000251
0.000221
0.000232
0.000253
0.000247
0.000257
0.000327
0.000325
0.000287
0.000260
0.000356
0.000462
0.000400
0.000311
0.000291
0.000226
0.000248
0.001496
0.000430
0.000319
0.000465
0.000328
0.000299
0.000170
0.000057
0.000200
0.000247
0.000259
0.000254
0.000246
0.000271
0.001695
0.000252
0.000226
0.000267
0.000328
0.000400
0.001453
0.000362
0.000393
0.000240
0.000245
0.000246
0.000267
0.000271
0.001596
0.000485
0.000409
0.000303
0.000226
0.000259
0.000260
0.000283
0.000244
0.000251
0.000196
0.000057
0.000194
0.000242
0.000268
0.000239
0.000264
0.000300
0.000251
0.000269
0.000239
0.000268
0.000237
0.000248
0.000307
0.000220
0.000271
0.001477
0.000289
0.000225
0.000268
0.000276
0.000273
0.000260
0.000436
0.001257
0.000276
0.000231
0.000278
0.000252
0.000403
0.000241
0.000195
0.000057
0.000216
0.000248
0.000217
0.000250
0.000237
0.000231
0.000229
0.001690
0.000256
0.000231
0.000352
0.000290
0.000201
0.000230
0.000253
0.001389
0.000233
0.000261
0.000267
0.000242
0.000266
0.000349
0.000292
0.001298
0.000301
0.000233
0.000244
0.000272
0.001383
0.000278
0.000223
0.000058
0.000354
0.000244
0.000209
0.000236
0.000266
0.000224
0.000291
0.000251
0.000260
0.000246
0.000263
0.000259
0.000262
0.000242
0.000407
0.001425
0.000231
0.000264
0.000251
0.000250
0.000307
0.000240
0.000248
0.001501
0.000357
0.000232
0.000273
0.001274
0.000260
0.000259
0.000219
0.000056
0.000250
0.000353
0.000350
0.000212
0.000232
0.000243
0.000270
0.000249
0.000264
0.000275
0.000235
0.000251
0.000279
0.000241
0.000449
0.001200
0.000234
0.000252
0.000269
0.000268
0.000233
0.000244
0.000248
0.000372
0.001252
0.000252
0.000231
0.000254
0.000260
0.001335
0.000369
0.000057
0.000308
0.000293
0.000197
0.000233
0.000237
0.000258
0.000238
0.000252
0.000299
0.000231
0.000246
0.000243
0.000244
0.000383
0.000423
0.001410
0.000221
0.000251
0.000305
0.000514
0.000288
0.001470
0.000329
0.000244
0.000233
0.000265
0.000247
0.001300
0.000383
0.000462
0.000333
0.000055
0.000207
0.000248
0.000255
0.000258
0.000280
0.000231
0.000271
0.000263
0.000245
0.000267
0.000354
0.000461
0.001298
0.000235
0.000268
0.000267
0.000278
0.000219
0.000241
0.000237
0.000379
0.001212
0.000262
0.000245
0.000245
0.000255
0.001536
0.000405
0.000470
0.000230
0.000196
0.000056
0.000197
0.000231
0.000249
0.000233
0.000256
0.000265
0.000235
0.000268
0.000425
0.000482
0.000273
0.001492
0.000220
0.000235
0.000263
0.000254
0.000264
0.000286
0.001697
0.000248
0.000387
0.000345
0.001271
0.000389
0.000288
0.000321
0.000265
0.000252
0.000263
0.000269
0.000198
0.000056
0.000222
0.000235
0.000326
0.000262
0.000287
0.000624
0.000218
0.000292
0.001471
0.000231
0.000386
0.000253
0.000244
0.000312
0.000391
0.001307
0.000257
0.000242
0.000249
0.000257
0.001536
0.000425
0.000241
0.000279
0.000250
0.000243
0.000458
0.000326
0.000240
0.000252
0.000266
0.000056
0.000250
0.000406
0.000307
0.000257
0.000226
0.001515
0.000224
0.000250
0.000269
0.000264
0.000266
0.000239
0.000313
0.001478
0.000259
0.000231
0.000430
0.001191
0.000342
0.000447
0.000388
0.000248
0.000231
0.000262
0.000289
0.000223
0.000455
0.000237
0.000254
0.000282
0.000196
0.000057
0.000227
0.000265
0.000344
0.000371
0.001300
0.000269
0.000334
0.000228
0.000223
0.000249
0.000247
0.000353
0.001457
0.000273
0.000223
0.000235
0.001390
0.000263
0.000423
0.000423
0.000413
0.000232
0.000246
0.000251
0.000267
0.000281
0.000260
0.000262
0.000264
0.000260
0.000194
0.000057
0.000220
0.000363
0.001479
0.000208
0.000278
0.000304
0.000216
0.000246
0.000279
0.000346
0.001410
0.000227
0.000251
0.000262
0.000257
0.001268
0.000747
0.000228
0.000334
0.000410
0.000303
0.000251
0.000266
0.000251
0.000272
0.000289
0.000271
0.000367
0.000364
0.000436
0.001372
0.000055
0.000200
0.000248
0.000240
0.000228
0.000249
0.000445
0.000537
0.001204
0.000256
0.000234
0.000243
0.001461
0.000410
0.000329
0.000228
0.000416
0.000243
0.000232
0.000266
0.000291
0.000251
0.000254
0.000282
0.000259
0.000251
0.000288
0.000436
0.000478
0.001486
0.000230
0.000191
0.000056
0.000216
0.000258
0.000424
0.001459
0.000310
0.000252
0.000211
0.000256
0.000248
0.000251
0.000251
0.000292
0.000344
0.000541
0.000281
0.000237
0.000250
0.000273
0.000252
0.000299
0.000232
0.000266
0.000257
0.000267
0.000306
0.000417
0.000441
0.000292
0.000341
0.001399
0.000177
0.000056
0.000207
0.000237
0.000332
0.000465
0.000271
0.000306
0.000319
0.000330
0.000297
0.000253
0.000238
0.000263
0.000255
0.000306
0.000236
0.000367
0.000539
0.000276
0.000277
0.000386
0.000275
0.000402
0.000251
0.000240
0.000240
0.000259
0.000260
0.000289
0.000350
0.000561
0.000232
0.000056
0.000199
0.001409
0.000226
0.000338
0.000442
0.000419
0.000347
0.000319
0.000217
0.000236
0.000266
0.000242
0.000284
0.000277
0.000237
0.000254
0.000264
0.001400
0.000219
0.000253
0.000251
0.000277
0.000264
0.000281
0.000268
0.000254
0.000275
0.000252
0.000396
0.000352
0.000258
0.000056
0.000203
0.000228
0.000235
0.001509
0.000321
0.000244
0.000223
0.000246
0.000228
0.000255
0.000248
0.000281
0.000240
0.000251
0.000298
0.000226
0.000246
0.000264
0.000261
0.000255
0.001446
0.000231
0.000246
0.000266
0.000261
0.000245
0.000266
0.000261
0.000279
0.000488
0.000350
0.000056
0.000217
0.000247
0.000404
0.000261
0.000238
0.000258
0.001528
0.000346
0.000294
0.000218
0.000263
0.000353
0.000301
0.000224
0.000228
0.000247
0.000248
0.000265
0.000257
0.000261
0.000517
0.000451
0.001145
0.000275
0.000243
0.000252
0.000263
0.000259
0.000307
0.000230
0.000394
0.000057
0.000289
0.000320
0.000230
0.000234
0.000249
0.000240
0.000239
0.000231
0.000291
0.001592
0.000410
0.000266
0.000241
0.000243
0.000254
0.000241
0.000269
0.000272
0.000282
0.000293
0.000308
0.000484
0.000507
0.001319
0.000225
0.000280
0.000256
0.000254
0.000273
0.000387
0.000340
0.000057
0.000275
0.000267
0.000215
0.000235
0.000222
0.000244
0.000263
0.000275
0.000257
0.001607
0.000332
0.000255
0.000240
0.000255
0.000457
0.000261
0.000552
0.000368
0.000275
0.000270
0.000485
0.000475
0.001292
0.000251
0.000244
0.000249
0.001780
0.000390
0.000611
0.000311
0.000149
0.000056
0.000189
0.000224
0.000243
0.000236
0.000276
0.000222
0.000247
0.000578
0.000492
0.000354
0.000291
0.000205
0.000248
0.000272
0.000269
0.000267
0.000242
0.000239
0.000250
0.000290
0.000253
0.000429
0.001342
0.000225
0.000266
0.000251
0.001943
0.000345
0.000394
0.000333
0.000163
0.000055
0.000241
0.000240
0.000240
0.001579
0.000413
0.000216
0.000234
0.000261
0.000255
0.000277
0.000377
0.000371
0.000367
0.000269
0.000279
0.000602
0.000338
0.001194
0.000279
0.000227
0.000251
0.000263
0.000277
0.000457
0.000591
0.000424
0.000263
0.000266
0.000265
0.000282
0.000193
0.000055
0.000206
0.000224
0.000245
0.001578
0.000219
0.000232
0.000237
0.000255
0.000243
0.000249
0.000257
0.000268
0.000265
0.000286
0.000229
0.000351
0.000568
0.000251
0.001403
0.000225
0.000269
0.000249
0.000255
0.000290
0.000406
0.000342
0.000524
0.000281
0.000289
0.000226
0.000442
0.000055
0.000209
0.000251
0.000259
0.001533
0.000294
0.000219
0.000271
0.000241
0.000251
0.000254
0.000257
0.000274
0.000238
0.000283
0.000322
0.000540
0.001412
0.000755
0.000249
0.000341
0.000235
0.000248
0.000243
0.000279
0.001680
0.000810
0.000221
0.000266
0.000282
0.000280
0.000185
0.000056
0.000200
0.000236
0.000248
0.000247
0.000277
0.000252
0.000213
0.000253
0.000236
0.000253
0.000279
0.000297
0.000235
0.000249
0.000261
0.000251
0.000266
0.001607
0.000783
0.000276
0.000326
0.000236
0.000247
0.000309
0.000247
0.000250
0.000272
0.000256
0.001383
0.000417
0.000309
0.000057
0.000209
0.000214
0.000267
0.000230
0.000268
0.000229
0.000276
0.000231
0.000252
0.000257
0.000248
0.000523
0.000388
0.000310
0.000217
0.000243
0.000264
0.001394
0.000689
0.000459
0.000335
0.000269
0.000234
0.000247
0.000275
0.000249
0.000264
0.000256
0.001493
0.000444
0.000186
0.000056
0.000199
0.000223
0.000247
0.000251
0.000247
0.000249
0.000234
0.000250
0.000269
0.000258
0.000430
0.000298
0.000353
0.000216
0.000244
0.000239
0.000274
0.000252
0.001596
0.000663
0.000424
0.000306
0.000234
0.000250
0.000263
0.000261
0.000261
0.000286
0.000263
0.001365
0.000319
0.000057
0.000187
0.000224
0.000235
0.000254
0.000255
0.000246
0.000245
0.000317
0.000362
0.000429
0.000360
0.000405
0.000361
0.000217
0.000246
0.000251
0.000297
0.000240
0.000268
0.001890
0.000360
0.000233
0.000449
0.000239
0.000248
0.000268
0.000270
0.000257
0.000273
0.000271
0.000294
0.000056
0.000304
0.000222
0.000227
0.000244
0.000249
0.000246
0.000225
0.000244
0.000291
0.000246
0.000231
0.000231
0.000325
0.000476
0.000398
0.000452
0.000239
0.000241
0.000252
0.000248
0.000252
0.000292
0.001466
0.001051
0.000237
0.000240
0.000268
0.000267
0.000275
0.000249
0.000212
0.000056
0.000217
0.001342
0.000291
0.000208
0.000237
0.000251
0.000260
0.000235
0.000241
0.000262
0.000248
0.000262
0.000239
0.000377
0.000373
0.000497
0.000234
0.000249
0.000262
0.000270
0.000282
0.000218
0.000252
0.000267
0.001317
0.000702
0.000301
0.000393
0.000379
0.000404
0.000285
0.000056
0.000215
0.000243
0.000352
0.001323
0.000212
0.000256
0.000224
0.000260
0.000252
0.000262
0.000268
0.000226
0.000284
0.000317
0.000600
0.000290
0.000223
0.000278
0.000344
0.000202
0.000247
0.000277
0.000233
0.000268
0.000264
0.001538
0.000751
0.000318
0.000253
0.000267
0.000201
0.000055
0.000193
0.000282
0.000435
0.000327
0.001296
0.000262
0.000216
0.000232
0.000237
0.000249
0.000249
0.000253
0.000232
0.000238
0.000251
0.000261
0.000263
0.000243
0.000250
0.000261
0.000264
0.000270
0.000309
0.000327
0.000217
0.000265
0.000265
0.001464
0.000251
0.000243
0.000186
0.000056
0.000210
0.000216
0.000252
0.000265
0.000351
0.000372
0.000395
0.000283
0.001575
0.000211
0.000287
0.000535
0.000321
0.000248
0.000437
0.000236
0.000239
0.000260
0.000271
0.000264
0.000286
0.000262
0.000260
0.000265
0.000247
0.000403
0.000444
0.000297
0.001582
0.000228
0.000193
0.000057
0.000229
0.000233
0.000253
0.000246
0.000243
0.000244
0.000258
0.000320
0.000421
0.002013
0.000226
0.000255
0.000251
0.000257
0.000262
0.000263
0.000266
0.000254
0.000252
0.000463
0.000493
0.000306
0.001445
0.000245
0.000249
0.002006
0.000294
0.000227
0.000261
0.001521
0.000163
0.000057
0.000461
0.000280
0.000470
0.000246
0.000277
0.000217
0.000252
0.000296
0.000237
0.000226
0.000254
0.000338
0.000427
0.000359
0.000421
0.000222
0.000235
0.001565
0.000245
0.000584
0.001863
0.000296
0.000223
0.001585
0.001980
0.000737
0.000278
0.000259
0.000293
0.000498
0.000304
0.000055
0.000232
0.000230
0.000283
0.000219
0.001415
0.001739
0.001066
0.000209
0.000235
0.001588
0.001974
0.000214
0.000242
0.000425
0.000261
0.000530
0.000248
0.000515
0.000214
0.000238
0.000247
0.000258
0.000272
0.001589
0.001210
0.001418
0.000297
0.000273
0.000258
0.000368
0.000342
0.000056
0.000219
0.000245
0.000220
0.000240
0.000226
0.000270
0.000230
0.000255
0.000257
0.000242
0.000242
0.000322
0.000484
0.000483
0.000209
0.000270
0.000237
0.000274
0.000267
0.000290
0.000229
0.000264
0.001550
0.000432
0.002131
0.000231
0.000255
0.000360
0.000425
0.000373
0.000197
0.000056
0.000237
0.000316
0.000491
0.000316
0.000218
0.000217
0.000246
0.000249
0.000232
0.000246
0.000247
0.000260
0.000264
0.001610
0.001352
0.001236
0.000291
0.000217
0.000246
0.000263
0.000288
0.000279
0.000241
0.000252
0.002201
0.000240
0.000263
0.000303
0.000321
0.000315
0.000218
0.000056
0.000202
0.000374
0.000554
0.000320
0.000230
0.000226
0.000235
0.000276
0.001899
0.001421
0.000222
0.000321
0.000389
0.000411
0.000263
0.000242
0.000238
0.000275
0.000255
0.000265
0.000258
0.000261
0.000470
0.000236
0.000272
0.000274
0.000243
0.000279
0.000281
0.000250
0.000199
0.000056
0.000220
0.000224
0.000254
0.000246
0.000271
0.000254
0.001544
0.001413
0.001326
0.000236
0.000229
0.000243
0.000263
0.000266
0.000244
0.000268
0.000231
0.002106
0.000243
0.000250
0.000255
0.000261
0.000260
0.000284
0.000242
0.000258
0.000290
0.000232
0.000287
0.000240
0.000185
0.000056
0.000186
0.002681
0.001406
0.000216
0.000308
0.000322
0.000217
0.000278
0.000230
0.000244
0.000251
0.000247
0.000233
0.000250
0.000273
0.000250
0.000272
0.000262
0.000272
0.000256
0.000266
0.000283
0.000272
0.000263
0.000246
0.000246
0.000265
0.000277
0.000257
0.000267
0.000381
0.000056
0.001555
0.000245
0.001236
0.000249
0.000209
0.000241
0.000279
0.000255
0.000228
0.000296
0.000397
0.000350
0.000316
0.000230
0.000236
0.002164
0.000234
0.000238
0.000266
0.000531
0.000432
0.000219
0.000231
0.000253
0.000268
0.000246
0.000263
0.000274
0.000274
0.001614
0.001257
0.000056
0.000204
0.000230
0.000259
0.000445
0.000362
0.000261
0.000216
0.000234
0.000252
0.000254
0.000266
0.000245
0.000228
0.000256
0.000263
0.000243
0.000370
0.000609
0.000322
0.000244
0.000228
0.000274
0.000276
0.000250
0.000250
0.000248
0.000270
0.000272
0.000245
0.000422
0.000265
0.000057
0.001120
0.000338
0.000242
0.000446
0.000288
0.000224
0.000247
0.000222
0.000251
0.002295
0.000443
0.000324
0.000211
0.000383
0.000303
0.000268
0.000226
0.000256
0.000268
0.000227
0.000248
0.000337
0.000578
0.000430
0.001856
0.001303
0.000511
0.000562
0.000231
0.000282
0.000199
0.000057
0.000314
0.000263
0.000250
0.000236
0.000276
0.000205
0.000258
0.000267
0.000238
0.000245
0.000263
0.000222
0.000249
0.000278
0.000376
0.000514
0.001873
0.001277
0.000489
0.000418
0.000437
0.000237
0.000239
0.000261
0.002198
0.000484
0.000391
0.000230
0.000277
0.000286
0.000197
0.000070
0.000197
0.000239
0.000253
0.000249
0.000234
0.000376
0.000383
0.000397
0.000239
0.000219
0.000244
0.000241
0.000264
0.002181
0.000318
0.000372
0.000221
0.000242
0.000284
0.000242
0.000249
0.002469
0.000324
0.000220
0.000260
0.000256
0.000254
0.000271
0.000330
0.000236
0.000192
0.000055
0.000209
0.000352
0.000578
0.000325
0.000272
0.000211
0.000231
0.000251
0.000267
0.000245
0.001951
0.000411
0.000258
0.000272
0.000237
0.000274
0.000273
0.000234
0.002211
0.000443
0.000225
0.000269
0.000263
0.000261
0.000257
0.000254
0.000301
0.000233
0.000266
0.000257
0.000188
0.000055
0.000217
0.000239
0.000246
0.000220
0.000250
0.000263
0.000232
0.000243
0.000238
0.002187
0.000227
0.000275
0.000218
0.000428
0.000215
0.000264
0.000305
0.000265
0.000249
0.000250
0.001971
0.000267
0.000344
0.000363
0.000433
0.000412
0.000298
0.000252
0.000272
0.000251
0.000200
0.000056
0.000207
0.000245
0.000238
0.000247
0.000250
0.000330
0.000225
0.002296
0.000239
0.000240
0.000258
0.000252
0.000241
0.000283
0.000285
0.002117
0.000582
0.000231
0.000250
0.000241
0.000260
0.000258
0.000287
0.000267
0.000262
0.000260
0.000282
0.000257
0.000260
0.000264
0.000200
0.000056
0.001845
0.001423
0.000209
0.000226
0.000242
0.000254
0.000251
0.000254
0.000438
0.000321
0.002181
0.000263
0.000228
0.000268
0.000255
0.000492
0.000445
0.000300
0.000215
0.000258
0.000245
0.000265
0.000265
0.000231
0.000259
0.000261
0.000270
0.000267
0.000396
0.000593
0.000320
0.000057
0.000191
0.000246
0.000241
0.000255
0.000266
0.000244
0.000258
0.000241
0.001469
0.002133
0.000581
0.000272
0.000399
0.000702
0.000357
0.000231
0.000260
0.000243
0.000266
0.000262
0.000257
0.000242
0.000248
0.000274
0.003019
0.000325
0.000239
0.000265
0.000287
0.000364
0.000372
0.000056
0.001927
0.000219
0.000236
0.000234
0.000298
0.000352
0.000550
0.000207
0.000288
0.000221
0.000237
0.000252
0.000260
0.000255
0.000263
0.000257
0.000260
0.000285
0.001818
0.000240
0.000230
0.000267
0.000263
0.000286
0.000269
0.000245
0.001474
0.000334
0.000249
0.000259
0.000184
0.000056
0.000209
0.000229
0.000263
0.000226
0.000243
0.000244
0.000291
0.000414
0.000417
0.000256
0.000251
0.000225
0.000261
0.000328
0.000421
0.000321
0.000232
0.000239
0.000261
0.000352
0.000449
0.000514
0.000213
0.000253
0.000257
0.000252
0.000250
0.000279
0.000268
0.000269
0.000210
0.000056
0.001422
0.000459
0.000204
0.001989
0.000227
0.000460
0.000395
0.000315
0.000225
0.000249
0.000266
0.000244
0.000244
0.000253
0.000259
0.000260
0.000447
0.000376
0.000314
0.000383
0.000358
0.000226
0.000276
0.000248
0.000280
0.000259
0.000259
0.000272
0.000387
0.000476
0.001329
0.000055
0.000214
0.000215
0.002100
0.000299
0.000321
0.000226
0.000277
0.000231
0.000270
0.000257
0.000208
0.000252
0.000259
0.000263
0.000257
0.000361
0.000706
0.001766
0.000223
0.000254
0.000253
0.000262
0.000347
0.000457
0.001581
0.000295
0.000362
0.001965
0.000228
0.000247
0.000196
0.000055
0.000205
0.000237
0.000250
0.000233
0.000221
0.000249
0.000251
0.000293
0.000322
0.000273
0.000374
0.000359
0.000347
0.000294
0.000268
0.000248
0.000262
0.000235
0.000269
0.000245
0.000316
0.000280
0.000261
0.000264
0.000268
0.001501
0.000319
0.000364
0.002075
0.000232
0.000184
0.000056
0.000234
0.000238
0.000233
0.000249
0.000484
0.000212
0.000256
0.000373
0.000345
0.000307
0.000286
0.000206
0.000270
0.000262
0.000271
0.000333
0.000429
0.000421
0.000252
0.000482
0.000505
0.000341
0.001625
0.000243
0.000238
0.002011
0.000302
0.000249
0.000244
0.000294
0.000193
0.000057
0.000204
0.000237
0.000231
0.000242
0.000255
0.000266
0.000254
0.000270
0.000248
0.000254
0.001822
0.000311
0.000384
0.000281
0.000465
0.000365
0.000364
0.001493
0.000249
0.000267
0.002098
0.000585
0.000269
0.000232
0.000257
0.000268
0.000504
0.000225
0.000253
0.000285
0.000197
0.000055
0.000275
0.000508
0.000229
0.000292
0.000201
0.000241
0.000258
0.000253
0.000264
0.000294
0.000219
0.000255
0.000256
0.000261
0.000382
0.000420
0.001332
0.000267
0.000281
0.001898
0.000376
0.000292
0.000226
0.000260
0.000255
0.000298
0.000243
0.000269
0.000246
0.000266
0.000203
0.000056
0.000302
0.000350
0.002025
0.000251
0.000223
0.000248
0.000282
0.000264
0.000424
0.000460
0.001288
0.000387
0.000357
0.002073
0.000224
0.000230
0.000264
0.000286
0.000246
0.000255
0.000270
0.000299
0.000252
0.000305
0.000535
0.000369
0.000300
0.002249
0.000512
0.000540
0.000347
0.000057
0.000206
0.000226
0.000243
0.001966
0.000230
0.000233
0.000237
0.000244
0.000244
0.000259
0.000257
0.000247
0.000260
0.000264
0.000425
0.001486
0.000255
0.000246
0.000262
0.000259
0.000248
0.000241
0.000252
0.000302
0.000303
0.000448
0.000484
0.000230
0.001595
0.000274
0.000162
0.000056
0.000197
0.000229
0.000247
0.000233
0.000266
0.000268
0.000226
0.000246
0.000252
0.000378
0.000397
0.001378
0.000234
0.000233
0.000252
0.000289
0.000237
0.000239
0.000320
0.000527
0.000518
0.000272
0.000221
0.001575
0.000244
0.000248
0.000284
0.000281
0.000264
0.000270
0.000190
0.000056
0.000207
0.000237
0.000292
0.000244
0.000267
0.000224
0.000234
0.000260
0.000261
0.000224
0.000247
0.000257
0.000270
0.001477
0.000361
0.000210
0.000250
0.000264
0.000283
0.000306
0.000370
0.000283
0.000231
0.000267
0.000264
0.000260
0.000263
0.001457
0.000267
0.000204
0.000170
0.000055
0.000200
0.000228
0.000260
0.000263
0.000269
0.000220
0.000247
0.000261
0.000217
0.000271
0.000246
0.000251
0.000230
0.000360
0.000358
0.000385
0.000206
0.000238
0.001624
0.000256
0.000226
0.000261
0.000263
0.000322
0.000376
0.000344
0.000456
0.000275
0.001617
0.000286
0.000127
0.000056
0.000324
0.000322
0.000477
0.000195
0.000235
0.000225
0.000243
0.000274
0.000252
0.000259
0.000224
0.000239
0.001465
0.000289
0.000310
0.000220
0.000247
0.000278
0.000248
0.000267
0.000250
0.000239
0.000263
0.000268
0.000294
0.000414
0.000407
0.000328
0.000279
0.000248
0.000190
0.000056
0.000207
0.000286
0.000378
0.000354
0.000392
0.000254
0.000252
0.000248
0.000248
0.000261
0.000240
0.000224
0.000261
0.000243
0.001259
0.000297
0.000242
0.000246
0.000264
0.000263
0.000245
0.000264
0.000258
0.000254
0.000251
0.000265
0.000340
0.000704
0.000415
0.000231
0.000176
0.000056
0.000206
0.001568
0.000259
0.000362
0.000400
0.000392
0.000215
0.000256
0.000268
0.000257
0.000230
0.000264
0.000265
0.000274
0.000256
0.001536
0.000247
0.000283
0.000262
0.000255
0.000279
0.000230
0.000274
0.000259
0.000257
0.000328
0.000374
0.000365
0.000372
0.000230
0.000190
0.000056
0.000212
0.000251
0.000234
0.001731
0.000318
0.000347
0.000209
0.000242
0.000254
0.000271
0.000281
0.000251
0.000252
0.000258
0.000232
0.000273
0.000402
0.001322
0.000250
0.000226
0.001539
0.000499
0.000334
0.000407
0.000348
0.000235
0.000263
0.000464
0.000240
0.000258
0.000187
0.000056
0.000291
0.000216
0.000247
0.000246
0.000250
0.000271
0.000222
0.000255
0.000253
0.000258
0.000243
0.000250
0.000350
0.000545
0.001581
0.001633
0.000223
0.000562
0.000317
0.000216
0.000235
0.000254
0.000255
0.000267
0.000247
0.000278
0.000247
0.000265
0.001530
0.000325
0.000194
0.000055
0.000212
0.000353
0.000351
0.000332
0.000252
0.000216
0.000241
0.000414
0.000355
0.000355
0.002204
0.000314
0.000697
0.000535
0.000439
0.000256
0.000341
0.000390
0.000326
0.000293
0.000376
0.000276
0.001528
0.000536
0.000212
0.000266
0.000258
0.000248
0.000267
0.000266
0.000198
0.000055
0.000213
0.000252
0.000260
0.000249
0.000239
0.001661
0.000877
0.001003
0.000205
0.000253
0.000256
0.000252
0.000244
0.000267
0.000251
0.000249
0.000256
0.000266
0.000262
0.000278
0.001435
0.000312
0.000258
0.000230
0.000231
0.000260
0.000258
0.000283
0.000267
0.000283
0.001899
0.000057
0.000196
0.000222
0.001547
0.000935
0.000353
0.000301
0.000278
0.000201
0.000249
0.000268
0.000241
0.000246
0.000248
0.001973
0.000481
0.000224
0.000230
0.000265
0.000268
0.000258
0.000200
