0.000453
0.015706
0.005617
0.000298
0.000265
0.000284
0.000309
0.000245
0.000333
0.000280
0.000262
0.000367
0.000562
0.000378
0.000403
0.000341
0.000301
0.000348
0.000385
0.000357
0.000311
0.001926
0.000701
0.000251
0.000264
0.000302
0.000350
0.000398
0.000421
0.000288
0.000543
0.000225
0.000060
0.000219
0.000262
0.000270
0.000264
0.000272
0.000250
0.000277
0.000259
0.000275
0.000295
0.000426
0.000436
0.000310
0.000350
0.000348
0.000313
0.000356
0.000258
0.000221
0.001707
0.000310
0.000254
0.000449
0.000261
0.000268
0.000270
0.000291
0.000297
0.000279
0.000414
0.000292
0.000062
0.000238
0.000253
0.000262
0.000263
0.000252
0.000243
0.000258
0.000258
0.000288
0.001663
0.000228
0.000235
0.000273
0.000272
0.000279
0.000250
0.000263
0.000255
0.000356
0.001804
0.000234
0.000279
0.000438
0.000534
0.000306
0.000225
0.000250
0.000503
0.000515
0.000727
0.000188
0.000058
0.000224
0.000241
0.000252
0.000283
0.000296
0.000229
0.000294
0.000588
0.000342
0.000273
0.000245
0.000247
0.000243
0.000251
0.000255
0.000255
0.000248
0.000264
0.000300
0.000325
0.001678
0.000264
0.000256
0.000414
0.000259
0.000743
0.000721
0.000463
0.000340
0.000251
0.000189
0.000059
0.000220
0.000249
0.000261
0.000244
0.000251
0.000259
0.000389
0.000399
0.001403
0.000221
0.000250
0.000242
0.000261
0.000254
0.000262
0.000287
0.000364
0.000696
0.001410
0.000284
0.000447
0.000261
0.000226
0.000220
0.000261
0.000262
0.000266
0.000266
0.000265
0.000267
0.000196
0.000065
0.000199
0.000240
0.000244
0.000265
0.000234
0.000250
0.000267
0.000223
0.000238
0.000255
0.001634
0.000262
0.000236
0.000235
0.000256
0.000251
0.000243
0.000246
0.000255
0.000257
0.000268
0.001665
0.000291
0.000245
0.000440
0.000252
0.000255
0.000259
0.000265
0.000274
0.000191
0.000056
0.000188
0.000230
0.000247
0.000249
0.000240
0.000249
0.000263
0.000234
0.000265
0.000239
0.000268
0.000254
0.000262
0.000269
0.001639
0.000273
0.000298
0.000213
0.000253
0.000275
0.000268
0.000237
0.000242
0.000272
0.001789
0.000347
0.000382
0.000354
0.000252
0.000281
0.000195
0.000056
0.000201
0.000240
0.000248
0.000265
0.000257
0.000248
0.000272
0.000407
0.000462
0.000381
0.000214
0.000271
0.000225
0.000254
0.001559
0.000508
0.000337
0.000418
0.000305
0.000235
0.000271
0.000280
0.000274
0.001734
0.000492
0.000478
0.000251
0.000253
0.000249
0.000258
0.000186
0.000056
0.000211
0.000225
0.000259
0.000319
0.000367
0.000342
0.000479
0.000197
0.000207
0.000245
0.000268
0.000239
0.000257
0.001691
0.000502
0.000280
0.000239
0.000247
0.000276
0.000285
0.000246
0.000259
0.000274
0.001872
0.000329
0.000384
0.000257
0.000244
0.000281
0.000415
0.000328
0.000056
0.000244
0.000365
0.000301
0.000320
0.000252
0.000242
0.000252
0.000258
0.000238
0.000234
0.000238
0.000249
0.001554
0.000384
0.000274
0.000238
0.000250
0.000257
0.000246
0.000276
0.000304
0.000303
0.000245
0.001809
0.000255
0.000497
0.000247
0.000251
0.000258
0.000273
0.000253
0.000057
0.000292
0.000587
0.000606
0.000211
0.000231
0.000276
0.000226
0.000226
0.000256
0.000251
0.000258
0.001701
0.000250
0.000453
0.000354
0.000218
0.000239
0.000229
0.000255
0.000261
0.000251
0.001863
0.000237
0.000240
0.002073
0.000523
0.000362
0.000248
0.000255
0.000268
0.000179
0.000058
0.000214
0.000233
0.000249
0.000245
0.000252
0.001626
0.000245
0.000237
0.000251
0.000254
0.000244
0.000241
0.000250
0.000257
0.000272
0.000418
0.000618
0.000260
0.000252
0.000254
0.000266
0.000248
0.000241
0.000434
0.000442
0.000272
0.000366
0.000722
0.000243
0.000267
0.000203
0.000060
0.000210
0.000245
0.000255
0.000249
0.000230
0.000241
0.000241
0.000480
0.000338
0.001729
0.000222
0.000240
0.000241
0.000251
0.000257
0.000262
0.000410
0.000517
0.000334
0.000254
0.000253
0.000312
0.000275
0.000250
0.000273
0.000438
0.000356
0.000567
0.000494
0.000443
0.000172
0.000058
0.000191
0.000270
0.000232
0.000226
0.000243
0.000238
0.000250
0.000246
0.000254
0.000327
0.000294
0.000459
0.001368
0.000244
0.000239
0.000242
0.000260
0.000248
0.000248
0.000276
0.000237
0.000460
0.000417
0.000270
0.000269
0.000270
0.000238
0.000275
0.000262
0.000267
0.000379
0.000057
0.000211
0.000235
0.000229
0.000264
0.000533
0.000434
0.000236
0.000266
0.000234
0.000258
0.000249
0.000236
0.000297
0.000249
0.000243
0.000491
0.000504
0.001547
0.000288
0.000225
0.000256
0.000267
0.000252
0.000242
0.000267
0.000458
0.000427
0.000362
0.000432
0.000243
0.000186
0.000057
0.000232
0.000433
0.000238
0.000215
0.000263
0.000246
0.000265
0.000589
0.000330
0.000321
0.000233
0.000268
0.000271
0.000233
0.000514
0.000350
0.000220
0.000254
0.000412
0.001638
0.000265
0.000231
0.000525
0.000243
0.000284
0.000276
0.000255
0.000376
0.000514
0.000383
0.000261
0.000061
0.000208
0.000235
0.000236
0.000244
0.000420
0.000304
0.000290
0.000227
0.000402
0.000455
0.000416
0.000238
0.000236
0.000238
0.000255
0.000267
0.000257
0.000253
0.000232
0.000350
0.000288
0.000317
0.001862
0.000238
0.000264
0.000249
0.000295
0.000353
0.000418
0.000686
0.000422
0.000058
0.000272
0.000307
0.000278
0.000432
0.000385
0.000209
0.000256
0.000311
0.000478
0.000423
0.000271
0.000236
0.000240
0.000277
0.000257
0.000230
0.000258
0.000272
0.000267
0.000258
0.000265
0.000395
0.000686
0.001319
0.000407
0.000493
0.000297
0.000246
0.000393
0.000444
0.000351
0.000059
0.000333
0.000366
0.000228
0.000189
0.000219
0.000235
0.000415
0.000242
0.000228
0.000359
0.000448
0.000428
0.000250
0.000256
0.000263
0.000261
0.000382
0.000379
0.000346
0.000221
0.000253
0.000411
0.000587
0.001694
0.000234
0.000445
0.000291
0.000229
0.000246
0.000462
0.000276
0.000057
0.000195
0.000228
0.000247
0.000245
0.000248
0.000251
0.000251
0.000322
0.000453
0.000300
0.000400
0.000447
0.000239
0.000578
0.000239
0.000246
0.000275
0.000265
0.000232
0.000375
0.000192
0.000252
0.000266
0.000423
0.000449
0.001697
0.000261
0.000236
0.000249
0.000271
0.000188
0.000056
0.000321
0.000459
0.000319
0.000226
0.000257
0.000243
0.000276
0.000222
0.000259
0.000245
0.000223
0.000246
0.000434
0.000502
0.000411
0.000265
0.000266
0.000250
0.000374
0.000374
0.000376
0.000324
0.000430
0.000348
0.000215
0.000253
0.000270
0.000275
0.001785
0.000246
0.000199
0.000057
0.000208
0.000214
0.000257
0.000280
0.000379
0.000535
0.000288
0.000229
0.000253
0.000280
0.000234
0.000250
0.000516
0.000444
0.000499
0.000276
0.000247
0.000380
0.000438
0.000438
0.000384
0.000356
0.000494
0.000376
0.000223
0.000264
0.000255
0.000240
0.000265
0.001727
0.000315
0.000060
0.000237
0.000327
0.000202
0.000237
0.000254
0.000253
0.000286
0.000466
0.000376
0.000321
0.000284
0.000304
0.000340
0.000614
0.000325
0.000238
0.000254
0.000255
0.000250
0.000267
0.000262
0.000270
0.000245
0.000264
0.000337
0.000349
0.000376
0.000375
0.000231
0.000261
0.000191
0.000060
0.000445
0.000295
0.000449
0.000258
0.000206
0.000251
0.000247
0.000250
0.000240
0.000230
0.000245
0.000277
0.000294
0.000411
0.000457
0.000553
0.000326
0.000332
0.000380
0.000330
0.000245
0.000221
0.000248
0.000258
0.001746
0.000256
0.001718
0.000947
0.000423
0.000293
0.000178
0.000056
0.000216
0.000233
0.000235
0.000242
0.000264
0.000244
0.000255
0.000251
0.000241
0.000336
0.000411
0.000410
0.000289
0.000376
0.000264
0.000246
0.000251
0.000296
0.000236
0.000239
0.000254
0.000257
0.001809
0.000236
0.000259
0.000267
0.000279
0.000264
0.001888
0.000515
0.000234
0.000058
0.000209
0.000214
0.000235
0.000242
0.000258
0.000246
0.000239
0.000258
0.000252
0.000360
0.000593
0.000480
0.000237
0.000203
0.000231
0.000319
0.000353
0.000450
0.000338
0.000210
0.001758
0.000253
0.000250
0.000246
0.000258
0.000273
0.000241
0.000253
0.000324
0.000304
0.000400
0.000059
0.000251
0.000216
0.000243
0.000260
0.000249
0.000240
0.000258
0.000253
0.000237
0.000259
0.000238
0.000324
0.000320
0.000374
0.000366
0.000278
0.000468
0.000241
0.000244
0.000257
0.000259
0.000263
0.000280
0.000249
0.000279
0.001791
0.000240
0.000250
0.000263
0.000242
0.000200
0.000065
0.000259
0.000375
0.000217
0.000225
0.000235
0.000239
0.000233
0.000259
0.000245
0.000226
0.000234
0.000261
0.000260
0.000451
0.000310
0.000394
0.000256
0.000253
0.000244
0.000251
0.000264
0.000256
0.000246
0.000276
0.000247
0.000268
0.000310
0.001640
0.000262
0.000234
0.000188
0.000057
0.000212
0.000227
0.000252
0.000256
0.000345
0.000455
0.000366
0.000249
0.000228
0.000253
0.000251
0.000246
0.000247
0.000254
0.000261
0.000257
0.000247
0.000257
0.000252
0.000263
0.000287
0.000249
0.000243
0.000241
0.000241
0.000281
0.000276
0.000261
0.000255
0.000269
0.000188
0.000057
0.000224
0.000229
0.000255
0.000257
0.000253
0.000236
0.000244
0.000258
0.000279
0.000250
0.000224
0.000247
0.000257
0.000250
0.000271
0.000254
0.000262
0.000246
0.000296
0.000261
0.000268
0.000295
0.000272
0.000243
0.000282
0.000276
0.000268
0.000247
0.000298
0.000388
0.000664
0.000057
0.000263
0.000251
0.000234
0.000213
0.000236
0.000253
0.000238
0.000253
0.000253
0.000243
0.000280
0.000323
0.000443
0.000483
0.001533
0.000228
0.000501
0.000235
0.000246
0.000431
0.000525
0.000316
0.000246
0.000257
0.000256
0.000259
0.000277
0.000259
0.000306
0.000260
0.000186
0.000057
0.000309
0.000476
0.000344
0.000299
0.000235
0.000242
0.000247
0.000243
0.000237
0.000248
0.000252
0.000257
0.000232
0.000278
0.000363
0.000476
0.000392
0.001801
0.000237
0.000247
0.000356
0.000388
0.000480
0.000274
0.000318
0.000348
0.000282
0.000227
0.000229
0.000253
0.000190
0.000058
0.000225
0.000227
0.000235
0.000329
0.000265
0.000506
0.000333
0.000255
0.000255
0.000218
0.000248
0.000265
0.000270
0.000261
0.000244
0.000256
0.000266
0.000532
0.000388
0.000386
0.000233
0.001762
0.000346
0.000528
0.000421
0.000488
0.000324
0.000230
0.000254
0.000268
0.000444
0.000059
0.000224
0.000242
0.000236
0.000248
0.000428
0.000500
0.000393
0.000193
0.000237
0.000301
0.000237
0.000260
0.000251
0.000298
0.000306
0.000234
0.000238
0.000450
0.000445
0.000301
0.000490
0.001847
0.000253
0.000491
0.000442
0.000371
0.000222
0.000262
0.000292
0.000269
0.000198
0.000116
0.000313
0.000371
0.000267
0.000271
0.000411
0.000219
0.000392
0.000208
0.000237
0.000323
0.000282
0.000178
0.000228
0.000251
0.000250
0.000260
0.000315
0.000352
0.000525
0.000387
0.000272
0.000235
0.000267
0.001727
0.000286
0.000613
0.000704
0.000245
0.000263
0.000304
0.000156
0.000062
0.000189
0.000239
0.000315
0.000257
0.000257
0.000369
0.000404
0.000333
0.000238
0.000524
0.000237
0.000245
0.000262
0.000277
0.000273
0.000266
0.000208
0.000298
0.000526
0.000438
0.000262
0.000232
0.000256
0.000255
0.000262
0.000267
0.000240
0.000254
0.000266
0.000288
0.000224
0.000057
0.000285
0.000349
0.000206
0.000258
0.000245
0.000262
0.000240
0.000286
0.000272
0.000217
0.000256
0.000356
0.000417
0.000419
0.000330
0.000272
0.000237
0.000224
0.000263
0.000267
0.000290
0.000254
0.000247
0.000253
0.000276
0.000305
0.000409
0.000386
0.000353
0.000229
0.000187
0.000058
0.000217
0.000214
0.000282
0.000240
0.000264
0.000226
0.000254
0.000262
0.000490
0.000210
0.000262
0.000250
0.000250
0.000263
0.000275
0.000270
0.000263
0.000344
0.000227
0.000246
0.000248
0.000270
0.000250
0.000273
0.000278
0.000258
0.000261
0.000256
0.000528
0.000233
0.000160
0.000057
0.000208
0.000243
0.000247
0.000267
0.000221
0.000245
0.000369
0.000407
0.000229
0.000242
0.000250
0.000253
0.000234
0.000278
0.000471
0.001745
0.000228
0.000265
0.000283
0.000426
0.000361
0.000332
0.000480
0.000290
0.000363
0.000414
0.000238
0.000272
0.000268
0.000273
0.001393
0.000058
0.000406
0.000285
0.000276
0.000222
0.000235
0.000248
0.000234
0.000257
0.000243
0.000269
0.000244
0.000264
0.000249
0.000308
0.000560
0.001592
0.000245
0.000231
0.000245
0.000265
0.000229
0.000280
0.000354
0.000379
0.000305
0.000340
0.000232
0.000268
0.000287
0.000253
0.000193
0.000057
0.001206
0.000524
0.000352
0.000246
0.000248
0.000216
0.000233
0.000239
0.000493
0.000210
0.000244
0.000300
0.000357
0.000481
0.000369
0.000353
0.000238
0.000245
0.000352
0.000334
0.000275
0.000255
0.000267
0.000246
0.000271
0.000529
0.000620
0.000267
0.000236
0.000261
0.000167
0.000058
0.000208
0.000227
0.000245
0.000246
0.001504
0.000261
0.000224
0.000260
0.000231
0.000249
0.000254
0.000255
0.000244
0.000263
0.000269
0.000257
0.000489
0.000635
0.000258
0.001754
0.000259
0.000262
0.000285
0.000438
0.000551
0.000408
0.000258
0.000251
0.000257
0.000270
0.000192
0.000057
0.000229
0.000238
0.000235
0.000305
0.001269
0.000231
0.000259
0.000260
0.000241
0.000234
0.000235
0.000249
0.000278
0.000249
0.000254
0.000261
0.000559
0.000345
0.000326
0.000262
0.000268
0.000273
0.000251
0.000235
0.000288
0.000264
0.000241
0.000280
0.000264
0.000399
0.000523
0.000056
0.000227
0.000244
0.000259
0.000242
0.000262
0.000245
0.000240
0.000255
0.000267
0.000257
0.001436
0.000226
0.000236
0.000270
0.000226
0.000244
0.000270
0.000263
0.000260
0.000269
0.000268
0.000487
0.000512
0.000338
0.000231
0.000272
0.001775
0.000251
0.000251
0.000298
0.000427
0.000057
0.000218
0.000410
0.000427
0.000496
0.000517
0.000551
0.001575
0.000403
0.000511
0.000605
0.000560
0.000663
0.000592
0.000530
0.000584
0.001891
0.000371
0.000491
0.000366
0.000321
0.000243
0.000290
0.000259
0.000261
0.000254
0.000296
0.000274
0.000314
0.000261
0.000287
0.001358
0.000056
0.000205
0.000228
0.000244
0.000236
0.000252
0.000257
0.000235
0.000242
0.000251
0.000254
0.000235
0.000248
0.000251
0.000291
0.000232
0.000272
0.001827
0.000270
0.000243
0.000259
0.000237
0.000281
0.000266
0.000321
0.000298
0.000448
0.000378
0.000230
0.000273
0.000284
0.000191
0.000057
0.000207
0.001360
0.000334
0.000261
0.000259
0.000239
0.000239
0.000237
0.000238
0.000243
0.000224
0.000248
0.000250
0.000492
0.000362
0.000284
0.000262
0.000261
0.001923
0.000237
0.000242
0.000262
0.000261
0.000257
0.000274
0.000286
0.000268
0.000266
0.000256
0.000318
0.000203
0.000058
0.000222
0.000236
0.000246
0.001462
0.000222
0.000244
0.000254
0.000225
0.000232
0.000271
0.000265
0.000231
0.000249
0.000253
0.000265
0.000255
0.000274
0.000251
0.000271
0.000253
0.000264
0.001785
0.000278
0.001747
0.000279
0.000234
0.000262
0.000263
0.000270
0.000274
0.000200
0.000057
0.000209
0.000238
0.001348
0.000237
0.000242
0.000265
0.000245
0.000247
0.000245
0.000249
0.000245
0.000250
0.000260
0.000260
0.000258
0.000264
0.000264
0.000298
0.000278
0.000231
0.001885
0.000232
0.001826
0.000254
0.000253
0.000270
0.000249
0.000234
0.000262
0.000262
0.000196
0.000056
0.001480
0.000215
0.000222
0.000253
0.000221
0.000236
0.000370
0.000268
0.000249
0.000260
0.000249
0.000263
0.000246
0.000374
0.000440
0.000247
0.000221
0.000294
0.000242
0.000244
0.000269
0.000336
0.000238
0.000248
0.000272
0.000274
0.000275
0.000333
0.000656
0.000358
0.000207
0.000060
0.000212
0.000254
0.000257
0.000291
0.000383
0.000275
0.001690
0.000289
0.000276
0.000262
0.000261
0.000291
0.000281
0.000262
0.000259
0.000349
0.000276
0.000602
0.000368
0.000317
0.000304
0.000255
0.000239
0.000263
0.000324
0.000299
0.000243
0.000243
0.000243
0.000326
0.000401
0.000057
0.000256
0.000537
0.000201
0.000265
0.000244
0.000230
0.000226
0.000248
0.000257
0.000253
0.001517
0.000224
0.000246
0.000234
0.000244
0.000286
0.000279
0.000231
0.000260
0.000271
0.000265
0.000392
0.000500
0.000339
0.000260
0.000295
0.000265
0.000258
0.000232
0.000314
0.000169
0.000057
0.000200
0.000234
0.000264
0.000479
0.000459
0.000193
0.000214
0.000251
0.000252
0.000252
0.000233
0.000254
0.000253
0.000267
0.000240
0.000232
0.000459
0.001174
0.000228
0.000247
0.000280
0.000241
0.000353
0.000422
0.000258
0.000328
0.000585
0.000330
0.000366
0.000255
0.000177
0.000057
0.000225
0.000241
0.000263
0.000262
0.000261
0.000244
0.000369
0.000339
0.000471
0.000283
0.000420
0.000346
0.000397
0.000339
0.000264
0.000244
0.000239
0.000255
0.000442
0.001399
0.000284
0.000231
0.000289
0.000256
0.000234
0.000239
0.000263
0.000324
0.000399
0.000435
0.000255
0.000057
0.000212
0.000247
0.000248
0.000240
0.000258
0.000242
0.000229
0.000261
0.000307
0.000335
0.000493
0.000319
0.000269
0.000217
0.000253
0.000255
0.000253
0.000261
0.000263
0.000266
0.000427
0.000287
0.000358
0.000436
0.000278
0.000256
0.000270
0.000268
0.000250
0.000339
0.000162
0.000056
0.000332
0.000313
0.000353
0.000381
0.000338
0.000397
0.000249
0.000241
0.000246
0.000271
0.000254
0.000264
0.000234
0.000255
0.000245
0.000226
0.000276
0.000485
0.000331
0.000374
0.000225
0.000275
0.000246
0.000246
0.000271
0.000276
0.000268
0.000287
0.000261
0.000264
0.000266
0.000059
0.000289
0.000321
0.000233
0.000248
0.000243
0.000250
0.000244
0.000276
0.000243
0.000255
0.000256
0.000232
0.000302
0.000483
0.000432
0.000279
0.000253
0.000243
0.000260
0.000270
0.000250
0.000262
0.000262
0.000261
0.000280
0.000391
0.000361
0.000558
0.000420
0.000254
0.000162
0.000057
0.000381
0.000203
0.000235
0.000245
0.000275
0.000223
0.000241
0.000249
0.000258
0.000257
0.000220
0.000269
0.000253
0.000222
0.000243
0.000266
0.000259
0.000263
0.000265
0.000262
0.000267
0.000255
0.000267
0.000261
0.000263
0.000242
0.000260
0.000279
0.000255
0.000281
0.000198
0.000057
0.000201
0.000232
0.000280
0.000219
0.000235
0.000271
0.000253
0.000223
0.000264
0.000273
0.000230
0.000228
0.000266
0.000397
0.000290
0.000242
0.000258
0.000268
0.000258
0.000282
0.000264
0.000237
0.000245
0.000250
0.000275
0.000274
0.000251
0.000246
0.000278
0.000259
0.000201
0.000056
0.000226
0.000324
0.000379
0.000270
0.000298
0.000265
0.000265
0.000257
0.000228
0.000243
0.000247
0.000274
0.000237
0.000251
0.000245
0.000264
0.000258
0.000274
0.000240
0.000261
0.000278
0.000261
0.000280
0.000256
0.000275
0.000245
0.000260
0.000266
0.000273
0.000264
0.000193
0.000056
0.000222
0.000218
0.000257
0.000264
0.000489
0.000210
0.000214
0.000246
0.000250
0.000514
0.000451
0.000284
0.000232
0.000246
0.000269
0.000267
0.000232
0.000274
0.000258
0.000268
0.000264
0.000257
0.000259
0.000285
0.000449
0.000578
0.000270
0.000306
0.000255
0.000261
0.000193
0.000057
0.000211
0.000218
0.000253
0.000251
0.000366
0.000577
0.000340
0.000381
0.000227
0.000234
0.000247
0.000253
0.000253
0.000249
0.000256
0.000269
0.000256
0.000277
0.000618
0.000387
0.000289
0.000249
0.000262
0.000279
0.000278
0.000257
0.000265
0.000269
0.000267
0.000326
0.000318
0.000057
0.000308
0.000232
0.000241
0.000236
0.000255
0.000253
0.000224
0.000253
0.000240
0.000261
0.000244
0.000252
0.000245
0.000370
0.000587
0.000384
0.000251
0.000272
0.000253
0.000245
0.000265
0.000271
0.000493
0.000218
0.000264
0.000572
0.000418
0.000507
0.000255
0.000259
0.000176
0.000060
0.000200
0.000229
0.000241
0.000245
0.000255
0.000261
0.000311
0.000446
0.000560
0.000429
0.000234
0.000244
0.000277
0.000277
0.000253
0.000247
0.000235
0.000250
0.000254
0.000410
0.000322
0.000648
0.000369
0.000267
0.000417
0.000309
0.000492
0.000238
0.000263
0.000398
0.000434
0.000058
0.000236
0.000227
0.000466
0.000201
0.000230
0.000250
0.000263
0.000258
0.000230
0.000243
0.000298
0.000371
0.000377
0.000334
0.000230
0.000241
0.000265
0.000275
0.000235
0.000276
0.000273
0.000259
0.000251
0.000268
0.000293
0.000489
0.000496
0.000268
0.000236
0.000268
0.000198
0.000059
0.000203
0.000254
0.000232
0.000244
0.000243
0.000282
0.000377
0.000456
0.000339
0.000309
0.000348
0.000232
0.000254
0.000255
0.000249
0.000242
0.000257
0.000258
0.000296
0.000359
0.000524
0.000322
0.000480
0.000295
0.000438
0.000373
0.000365
0.000236
0.000251
0.000266
0.000412
0.000056
0.000276
0.000267
0.000225
0.000252
0.000258
0.000256
0.000251
0.000246
0.000265
0.000246
0.000240
0.000369
0.000488
0.000315
0.000386
0.000223
0.000263
0.000266
0.000266
0.000236
0.000252
0.000251
0.000265
0.000271
0.000291
0.000339
0.000497
0.000453
0.000234
0.000282
0.000189
0.000058
0.000205
0.000248
0.000259
0.000241
0.000257
0.000335
0.000550
0.000430
0.000353
0.000689
0.000269
0.000212
0.000240
0.000270
0.000240
0.000263
0.000281
0.000281
0.000455
0.000440
0.001504
0.000329
0.000239
0.000257
0.000291
0.000274
0.000404
0.000378
0.000365
0.000324
0.000180
0.000056
0.000185
0.000227
0.000246
0.000247
0.000235
0.000260
0.000274
0.000249
0.000298
0.000301
0.000331
0.000385
0.000340
0.000326
0.000381
0.000312
0.000225
0.000235
0.000267
0.000253
0.000254
0.000245
0.000283
0.000248
0.000388
0.000403
0.000429
0.000272
0.000234
0.000271
0.000186
0.000061
0.000211
0.000243
0.000258
0.000252
0.000246
0.000236
0.000471
0.000206
0.000261
0.000230
0.000257
0.000243
0.000259
0.000254
0.000268
0.000251
0.000262
0.000269
0.000266
0.000258
0.000260
0.000286
0.000293
0.000247
0.000265
0.000293
0.000255
0.000263
0.000264
0.000278
0.000167
0.000059
0.000221
0.000250
0.000274
0.000427
0.000386
0.000256
0.000234
0.000251
0.000258
0.000248
0.000246
0.000257
0.000265
0.000261
0.000236
0.000248
0.000243
0.000267
0.000260
0.000388
0.000399
0.000410
0.000234
0.000261
0.000270
0.000249
0.000276
0.000250
0.000266
0.000280
0.000198
0.000057
0.000364
0.000335
0.000409
0.000214
0.000254
0.000256
0.000407
0.000248
0.000210
0.000257
0.000253
0.000342
0.000340
0.000477
0.001795
0.000258
0.000230
0.000249
0.000279
0.000242
0.000384
0.000398
0.000700
0.000220
0.000223
0.000258
0.000280
0.000424
0.000288
0.000271
0.000164
0.000059
0.000180
0.000383
0.000363
0.000258
0.000500
0.000203
0.000254
0.000237
0.000251
0.000244
0.000257
0.000245
0.000260
0.000305
0.000502
0.000401
0.000221
0.000245
0.000260
0.000263
0.000263
0.000317
0.000240
0.000273
0.000298
0.000454
0.000486
0.000381
0.000468
0.000236
0.000218
0.000058
0.000222
0.000230
0.000254
0.000250
0.000252
0.000229
0.000266
0.000269
0.000405
0.000346
0.000458
0.000298
0.000215
0.000253
0.000268
0.000287
0.000297
0.000234
0.000279
0.000271
0.000241
0.000317
0.000424
0.000408
0.000276
0.000261
0.000262
0.000459
0.000400
0.000320
0.000162
0.000059
0.000201
0.000285
0.000274
0.000460
0.000357
0.000209
0.000234
0.000278
0.000239
0.000254
0.000262
0.000252
0.000232
0.000262
0.000251
0.000312
0.000379
0.000363
0.000290
0.000341
0.000498
0.000234
0.000272
0.000278
0.000302
0.000286
0.000257
0.000277
0.000473
0.000514
0.000180
0.000057
0.000211
0.000227
0.000260
0.000241
0.000239
0.000479
0.000215
0.000271
0.000250
0.000284
0.000499
0.000631
0.000203
0.000245
0.000241
0.000253
0.000259
0.000251
0.000251
0.000251
0.000263
0.000266
0.000361
0.000409
0.000389
0.000383
0.000294
0.000352
0.000263
0.000261
0.000187
0.000056
0.000215
0.000237
0.000249
0.000489
0.000324
0.000295
0.000263
0.000215
0.000247
0.000262
0.000251
0.000249
0.000253
0.000262
0.000250
0.000254
0.000268
0.000227
0.000281
0.000405
0.000501
0.000367
0.000221
0.000256
0.000302
0.000253
0.000261
0.000253
0.000264
0.000270
0.000196
0.000063
0.000220
0.000388
0.000485
0.000238
0.000223
0.000253
0.000343
0.000438
0.000277
0.000221
0.000237
0.000294
0.000269
0.000395
0.000444
0.000296
0.000228
0.000250
0.000245
0.000270
0.000272
0.000262
0.000261
0.000274
0.000265
0.000417
0.000256
0.000481
0.000258
0.000253
0.000179
0.000057
0.000235
0.000235
0.000249
0.000254
0.000251
0.000263
0.000233
0.000256
0.000251
0.000247
0.000269
0.000237
0.000263
0.001452
0.000226
0.000260
0.000260
0.000239
0.000278
0.000278
0.000261
0.000240
0.000276
0.000254
0.000271
0.000264
0.000272
0.000270
0.000277
0.000251
0.000195
0.000057
0.000187
0.000231
0.000270
0.000231
0.000232
0.000247
0.000257
0.000260
0.000230
0.000247
0.000250
0.000261
0.000257
0.000252
0.000270
0.000253
0.000236
0.000266
0.000278
0.000245
0.000256
0.000261
0.000246
0.000253
0.001290
0.000282
0.000623
0.000420
0.000302
0.000239
0.000189
0.000057
0.000214
0.000228
0.000245
0.000253
0.000421
0.000230
0.000242
0.000238
0.000253
0.000357
0.000494
0.000293
0.000243
0.000233
0.000260
0.000260
0.000254
0.000268
0.000245
0.000260
0.000258
0.000274
0.000238
0.000440
0.000507
0.000444
0.000219
0.000267
0.001363
0.000250
0.000202
0.000058
0.000296
0.000441
0.000297
0.000261
0.000234
0.000228
0.000231
0.000249
0.000259
0.000253
0.000250
0.000265
0.000264
0.000311
0.000551
0.000355
0.000330
0.000221
0.000252
0.000260
0.000268
0.000259
0.000268
0.000267
0.000268
0.000260
0.000323
0.000549
0.000397
0.000356
0.000149
0.000057
0.000200
0.000222
0.001262
0.000429
0.000260
0.000499
0.000372
0.000489
0.000313
0.000308
0.000232
0.000215
0.000263
0.000254
0.000244
0.000267
0.000416
0.000445
0.000364
0.000376
0.000254
0.000245
0.000271
0.000492
0.000232
0.000267
0.000253
0.000285
0.000293
0.000552
0.000337
0.000061
0.000417
0.000309
0.000202
0.000209
0.001566
0.000468
0.000302
0.000236
0.000249
0.000250
0.000230
0.000237
0.000244
0.000276
0.000246
0.000259
0.000239
0.000299
0.000334
0.000469
0.000415
0.000245
0.000254
0.000258
0.000254
0.000276
0.000270
0.000239
0.000263
0.000275
0.000205
0.000057
0.000383
0.000335
0.000220
0.000234
0.000258
0.000240
0.000267
0.000229
0.000228
0.000235
0.001427
0.000460
0.000252
0.000251
0.000237
0.000258
0.000273
0.000262
0.000232
0.000280
0.000271
0.000250
0.000254
0.000463
0.000465
0.000354
0.000244
0.000264
0.000283
0.000277
0.000170
0.000061
0.000186
0.000406
0.000224
0.000239
0.000346
0.000439
0.000485
0.000199
0.000462
0.000217
0.000224
0.000250
0.000262
0.000266
0.000258
0.001388
0.000388
0.000282
0.000244
0.000272
0.000282
0.000245
0.000251
0.000256
0.000265
0.000267
0.000582
0.000311
0.000291
0.000276
0.000158
0.000057
0.000228
0.000230
0.000255
0.000234
0.000231
0.000261
0.000241
0.000245
0.000293
0.000344
0.000431
0.000301
0.000262
0.000245
0.000246
0.000270
0.000291
0.000240
0.000273
0.000227
0.000256
0.000316
0.001258
0.000253
0.000260
0.000243
0.000257
0.000270
0.000259
0.000259
0.000187
0.000057
0.000291
0.000293
0.000364
0.000357
0.000225
0.000236
0.000263
0.000263
0.000260
0.000243
0.000274
0.000245
0.000244
0.000253
0.000258
0.000263
0.000264
0.000272
0.000261
0.000251
0.000254
0.000266
0.000264
0.000287
0.000285
0.000267
0.000265
0.000253
0.000267
0.000443
0.001370
0.000058
0.000207
0.000236
0.000234
0.000240
0.000275
0.000243
0.000247
0.000222
0.000249
0.000251
0.000274
0.000254
0.000252
0.000242
0.000277
0.000219
0.001724
0.000265
0.000239
0.000261
0.000251
0.000253
0.000274
0.000258
0.000272
0.000256
0.000269
0.000284
0.000262
0.000259
0.000223
0.000059
0.000304
0.000316
0.001296
0.000215
0.000237
0.000246
0.000253
0.000250
0.000284
0.000234
0.000233
0.000353
0.000386
0.000440
0.000286
0.000232
0.000240
0.000256
0.000283
0.000237
0.000253
0.000262
0.000280
0.000273
0.000271
0.000356
0.000393
0.000367
0.000312
0.000240
0.000206
0.000056
0.000239
0.000234
0.000242
0.000251
0.000271
0.000201
0.000242
0.000307
0.000397
0.001334
0.000249
0.000204
0.000252
0.000278
0.000245
0.000296
0.000232
0.000249
0.000340
0.000430
0.000379
0.000234
0.000232
0.000248
0.000278
0.000278
0.000265
0.000298
0.000265
0.000305
0.000163
0.000059
0.000202
0.000442
0.000378
0.000215
0.000236
0.000236
0.000272
0.000253
0.000262
0.000248
0.000227
0.000256
0.000453
0.000556
0.000425
0.001450
0.000240
0.000304
0.000306
0.000454
0.000472
0.000393
0.000462
0.000323
0.000227
0.000267
0.000265
0.000274
0.000265
0.000275
0.000210
0.000058
0.000199
0.000325
0.000403
0.000433
0.000380
0.000235
0.000244
0.000240
0.000242
0.000262
0.000245
0.000262
0.000269
0.000241
0.000287
0.000302
0.000358
0.000425
0.000340
0.001331
0.000269
0.000256
0.000252
0.000262
0.000433
0.000459
0.000414
0.000231
0.000274
0.000272
0.000187
0.000056
0.000208
0.000241
0.000246
0.000245
0.000243
0.000280
0.000451
0.000456
0.000296
0.000221
0.000242
0.000258
0.000277
0.000258
0.000259
0.000262
0.000273
0.000245
0.000269
0.000387
0.000353
0.000440
0.000310
0.001351
0.000409
0.000245
0.000288
0.000407
0.000472
0.000397
0.000271
0.000057
0.000205
0.000232
0.000249
0.000249
0.000252
0.000251
0.001676
0.000235
0.000234
0.000237
0.000254
0.000246
0.000296
0.000336
0.000327
0.000277
0.000255
0.000262
0.000521
0.000428
0.000306
0.000262
0.000225
0.001446
0.000379
0.000370
0.000345
0.000447
0.000330
0.000267
0.000177
0.000056
0.000221
0.000240
0.000257
0.000256
0.000245
0.000255
0.001710
0.000249
0.000229
0.000265
0.000397
0.000438
0.001352
0.000346
0.000416
0.000226
0.000258
0.000236
0.000268
0.000271
0.001532
0.000519
0.000431
0.000300
0.000251
0.000245
0.000264
0.000277
0.000246
0.000252
0.000198
0.000057
0.000208
0.000241
0.000272
0.000241
0.000257
0.000279
0.000279
0.000269
0.000238
0.000256
0.000252
0.000249
0.000264
0.000263
0.001513
0.000308
0.000207
0.000257
0.000247
0.000271
0.000274
0.000289
0.000412
0.001251
0.000287
0.000225
0.000274
0.000257
0.000400
0.000244
0.000194
0.000057
0.000203
0.000245
0.000221
0.000247
0.000237
0.000231
0.000234
0.001695
0.000254
0.000218
0.000260
0.000364
0.000230
0.000222
0.000257
0.001377
0.000235
0.000287
0.000254
0.000241
0.000264
0.000359
0.000266
0.001310
0.000271
0.000262
0.000250
0.000265
0.001384
0.000272
0.000219
0.000057
0.000337
0.000268
0.000205
0.000237
0.000255
0.000239
0.000265
0.000263
0.000269
0.000242
0.000261
0.000265
0.000254
0.000255
0.000318
0.001475
0.000256
0.000289
0.000239
0.000239
0.000287
0.000262
0.000249
0.001541
0.000314
0.000241
0.000265
0.001283
0.000257
0.000248
0.000238
0.000057
0.000231
0.000407
0.000319
0.000220
0.000235
0.000239
0.000264
0.000258
0.000262
0.000275
0.000235
0.000253
0.000263
0.000301
0.000377
0.001218
0.000231
0.000261
0.000270
0.000276
0.000227
0.000242
0.000252
0.000329
0.001265
0.000259
0.000256
0.000249
0.000261
0.001341
0.000311
0.000059
0.000333
0.000277
0.000203
0.000227
0.000237
0.000269
0.000229
0.000252
0.000261
0.000252
0.000240
0.000251
0.000252
0.000357
0.000371
0.001479
0.000227
0.000246
0.000301
0.000509
0.000297
0.000458
0.001271
0.000286
0.000255
0.000265
0.000251
0.001305
0.000295
0.000459
0.000411
0.000057
0.000208
0.000246
0.000256
0.000256
0.000252
0.000253
0.000273
0.000247
0.000262
0.000272
0.000424
0.000398
0.001285
0.000232
0.000266
0.000265
0.000278
0.000237
0.000236
0.000239
0.000347
0.001234
0.000249
0.000263
0.000244
0.000252
0.001500
0.000454
0.000464
0.000218
0.000203
0.000057
0.000218
0.000220
0.000245
0.000233
0.000276
0.000247
0.000240
0.000299
0.000430
0.000499
0.000207
0.001500
0.000212
0.000246
0.000263
0.000251
0.000273
0.000265
0.001707
0.000267
0.000408
0.000308
0.001289
0.000373
0.000282
0.000319
0.000264
0.000254
0.000271
0.000265
0.000189
0.000057
0.000218
0.000237
0.000336
0.000233
0.000324
0.000580
0.000244
0.000288
0.001472
0.000241
0.000397
0.000252
0.000215
0.000315
0.000410
0.001297
0.000266
0.000242
0.000242
0.000261
0.001542
0.000351
0.000289
0.000286
0.000245
0.000260
0.000456
0.000331
0.000222
0.000271
0.000259
0.000058
0.000265
0.000370
0.000313
0.000264
0.000224
0.001526
0.000203
0.000261
0.000268
0.000267
0.000268
0.000240
0.000305
0.001487
0.000252
0.000227
0.000430
0.001207
0.000329
0.000437
0.000405
0.000240
0.000237
0.000257
0.000276
0.000241
0.000455
0.000230
0.000263
0.000282
0.000196
0.000057
0.000222
0.000231
0.000384
0.000339
0.001308
0.000291
0.000307
0.000234
0.000241
0.000251
0.000248
0.000319
0.001489
0.000266
0.000227
0.000245
0.001383
0.000354
0.000355
0.000464
0.000343
0.000240
0.000250
0.000247
0.000269
0.000272
0.000290
0.000247
0.000271
0.000245
0.000203
0.000059
0.000201
0.000447
0.001414
0.000210
0.000276
0.000276
0.000241
0.000247
0.000264
0.000386
0.001391
0.000206
0.000259
0.000273
0.000252
0.001260
0.000675
0.000332
0.000341
0.000398
0.000280
0.000247
0.000270
0.000260
0.000270
0.000285
0.000274
0.000311
0.000400
0.000451
0.001392
0.000056
0.000194
0.000244
0.000247
0.000218
0.000245
0.000418
0.000522
0.001260
0.000238
0.000243
0.000249
0.001406
0.000382
0.000401
0.000229
0.000409
0.000251
0.000234
0.000267
0.000286
0.000234
0.000298
0.000260
0.000257
0.000251
0.000285
0.000427
0.000492
0.001496
0.000227
0.000190
0.000062
0.000207
0.000250
0.000443
0.000476
0.001215
0.000278
0.000252
0.000260
0.000246
0.000254
0.000250
0.000275
0.000439
0.000398
0.000346
0.000233
0.000253
0.000275
0.000246
0.000276
0.000261
0.000266
0.000256
0.000270
0.000250
0.000353
0.000543
0.000363
0.000299
0.001391
0.000174
0.000057
0.000206
0.000232
0.000359
0.000383
0.000317
0.000314
0.000316
0.000355
0.000247
0.000256
0.000260
0.000262
0.000257
0.000308
0.000237
0.000282
0.000603
0.000276
0.000286
0.000393
0.000271
0.000403
0.000222
0.000272
0.000244
0.000266
0.000264
0.000276
0.000286
0.000571
0.000287
0.000056
0.000211
0.001403
0.000293
0.000289
0.000399
0.000440
0.000431
0.000237
0.000218
0.000238
0.000264
0.000244
0.000265
0.000272
0.000261
0.000270
0.000245
0.001399
0.000212
0.000257
0.000257
0.000271
0.000274
0.000278
0.000273
0.000248
0.000280
0.000245
0.000381
0.000387
0.000441
0.000058
0.000227
0.000240
0.000217
0.001548
0.000308
0.000224
0.000219
0.000241
0.000228
0.000251
0.000250
0.000264
0.000252
0.000251
0.000269
0.000258
0.000242
0.000269
0.000260
0.000257
0.001442
0.000229
0.000237
0.000281
0.000253
0.000277
0.000242
0.000265
0.000277
0.000493
0.000364
0.000061
0.000200
0.000232
0.000394
0.000279
0.000247
0.000251
0.001541
0.000338
0.000308
0.000212
0.000255
0.000318
0.000331
0.000229
0.000229
0.000250
0.000245
0.000263
0.000262
0.000258
0.000479
0.000486
0.001145
0.000273
0.000234
0.000264
0.000262
0.000256
0.000274
0.000262
0.000298
0.000056
0.000290
0.000336
0.000209
0.000237
0.000248
0.000241
0.000244
0.000230
0.000290
0.001599
0.000442
0.000212
0.000246
0.000252
0.000258
0.000241
0.000262
0.000272
0.000281
0.000292
0.000306
0.000485
0.000449
0.001375
0.000232
0.000262
0.000270
0.000263
0.000269
0.000334
0.000392
0.000057
0.000272
0.000239
0.000235
0.000240
0.000230
0.000240
0.000261
0.000248
0.000271
0.001602
0.000319
0.000260
0.000261
0.000260
0.000458
0.000273
0.000530
0.000371
0.000297
0.000371
0.000480
0.000428
0.001255
0.000254
0.000207
0.000250
0.001730
0.000455
0.000591
0.000323
0.000149
0.000056
0.000208
0.000228
0.000239
0.000239
0.000266
0.000236
0.000256
0.000513
0.000498
0.000386
0.000290
0.000219
0.000244
0.000266
0.000264
0.000266
0.000244
0.000250
0.000252
0.000281
0.000283
0.000381
0.001370
0.000221
0.000252
0.000272
0.001891
0.000389
0.000375
0.000343
0.000158
0.000057
0.000252
0.000235
0.000246
0.001590
0.000420
0.000198
0.000233
0.000262
0.000277
0.000359
0.000374
0.000356
0.000349
0.000241
0.000356
0.000439
0.000375
0.001216
0.000261
0.000241
0.000248
0.000258
0.000273
0.000485
0.000579
0.000408
0.000273
0.000262
0.000264
0.000281
0.000191
0.000057
0.000200
0.000232
0.000241
0.001530
0.000257
0.000241
0.000238
0.000253
0.000238
0.000255
0.000254
0.000270
0.000266
0.000288
0.000304
0.000431
0.000302
0.000343
0.001421
0.000223
0.000261
0.000257
0.000263
0.000284
0.000356
0.000510
0.000420
0.000298
0.000264
0.000238
0.000423
0.000058
0.000216
0.000244
0.000266
0.001517
0.000304
0.000228
0.000266
0.000244
0.000251
0.000256
0.000255
0.000254
0.000261
0.000249
0.000313
0.000632
0.001371
0.000741
0.000249
0.000337
0.000253
0.000232
0.000253
0.000272
0.001684
0.000790
0.000237
0.000264
0.000282
0.000283
0.000188
0.000055
0.000194
0.000231
0.000251
0.000248
0.000255
0.000249
0.000239
0.000254
0.000239
0.000245
0.000279
0.000281
0.000251
0.000254
0.000260
0.000245
0.000274
0.001615
0.000690
0.000371
0.000321
0.000230
0.000243
0.000284
0.000260
0.000261
0.000299
0.000231
0.001386
0.000397
0.000394
0.000057
0.000196
0.000229
0.000250
0.000254
0.000257
0.000235
0.000251
0.000251
0.000255
0.000259
0.000284
0.000407
0.000436
0.000338
0.000219
0.000245
0.000263
0.001429
0.000652
0.000495
0.000313
0.000277
0.000228
0.000252
0.000274
0.000248
0.000260
0.000266
0.001489
0.000404
0.000218
0.000057
0.000212
0.000227
0.000251
0.000246
0.000249
0.000248
0.000236
0.000271
0.000252
0.000258
0.000405
0.000343
0.000334
0.000214
0.000246
0.000246
0.000268
0.000257
0.001562
0.000675
0.000525
0.000210
0.000239
0.000261
0.000257
0.000261
0.000262
0.000286
0.000268
0.001350
0.000327
0.000058
0.000221
0.000220
0.000229
0.000261
0.000249
0.000248
0.000277
0.000339
0.000383
0.000394
0.000391
0.000320
0.000354
0.000233
0.000248
0.000251
0.000291
0.000246
0.000269
0.001891
0.000349
0.000245
0.000451
0.000241
0.000237
0.000269
0.000292
0.000238
0.000269
0.000277
0.000324
0.000060
0.000310
0.000207
0.000227
0.000244
0.000257
0.000245
0.000226
0.000242
0.000266
0.000254
0.000246
0.000233
0.000308
0.000412
0.000504
0.000426
0.000219
0.000262
0.000249
0.000257
0.000270
0.000331
0.001425
0.001038
0.000224
0.000246
0.000271
0.000266
0.000266
0.000254
0.000205
0.000057
0.000210
0.001335
0.000284
0.000213
0.000240
0.000253
0.000251
0.000241
0.000240
0.000250
0.000255
0.000265
0.000242
0.000397
0.000386
0.000498
0.000191
0.000258
0.000261
0.000271
0.000269
0.000229
0.000257
0.000270
0.001319
0.000693
0.000367
0.000371
0.000399
0.000400
0.000236
0.000056
0.000193
0.000258
0.001399
0.000256
0.000216
0.000253
0.000228
0.000255
0.000255
0.000262
0.000242
0.000249
0.000266
0.000337
0.000591
0.000302
0.000221
0.000279
0.000330
0.000211
0.000250
0.000277
0.000227
0.000277
0.000265
0.001532
0.000743
0.000302
0.000277
0.000272
0.000194
0.000057
0.000192
0.000267
0.000442
0.000315
0.001351
0.000215
0.000228
0.000235
0.000233
0.000250
0.000250
0.000253
0.000225
0.000243
0.000256
0.000253
0.000279
0.000231
0.000251
0.000254
0.000270
0.000267
0.000300
0.000332
0.000217
0.000281
0.000258
0.001480
0.000237
0.000247
0.000177
0.000059
0.000212
0.000234
0.000251
0.000325
0.000365
0.000342
0.000376
0.000250
0.001571
0.000236
0.000285
0.000484
0.000368
0.000237
0.000431
0.000251
0.000227
0.000291
0.000247
0.000265
0.000279
0.000266
0.000254
0.000269
0.000249
0.000409
0.000406
0.000311
0.001605
0.000219
0.000190
0.000057
0.000243
0.000237
0.000248
0.000244
0.000248
0.000243
0.000262
0.000273
0.000435
0.002043
0.000236
0.000239
0.000260
0.000259
0.000259
0.000246
0.000272
0.000256
0.000355
0.000344
0.000431
0.000396
0.001470
0.000228
0.000528
0.000232
0.001763
0.000246
0.000256
0.001530
0.000152
0.000061
0.000176
0.000498
0.000416
0.000243
0.000266
0.000221
0.000264
0.000275
0.000257
0.000225
0.000253
0.000382
0.000395
0.000316
0.000448
0.000226
0.000228
0.001575
0.000240
0.000585
0.001861
0.000314
0.000220
0.001516
0.002035
0.000782
0.000239
0.000259
0.000304
0.000534
0.000203
0.000058
0.000234
0.000242
0.000244
0.000250
0.001427
0.001720
0.001076
0.000215
0.000228
0.001583
0.001980
0.000211
0.000239
0.000431
0.000294
0.000351
0.000454
0.000453
0.000210
0.000237
0.000255
0.000260
0.000268
0.001594
0.001199
0.001430
0.000277
0.000293
0.000258
0.000335
0.000312
0.000060
0.000206
0.000231
0.000243
0.000241
0.000232
0.000240
0.000248
0.000254
0.000257
0.000248
0.000244
0.000389
0.000321
0.000494
0.000281
0.000271
0.000247
0.000270
0.000270
0.000276
0.000243
0.000268
0.001510
0.000480
0.002106
0.000234
0.000277
0.000359
0.000397
0.000406
0.000179
0.000056
0.000230
0.000330
0.000493
0.000311
0.000196
0.000231
0.000251
0.000241
0.000240
0.000248
0.000246
0.000267
0.000256
0.001610
0.001358
0.001215
0.000266
0.000250
0.000249
0.000273
0.000281
0.000280
0.000238
0.000257
0.002207
0.000252
0.000241
0.000309
0.000319
0.000305
0.000219
0.000057
0.000205
0.000348
0.000549
0.000328
0.000256
0.000222
0.000245
0.000278
0.001895
0.001415
0.000226
0.000387
0.000407
0.000337
0.000244
0.000237
0.000252
0.000274
0.000262
0.000263
0.000258
0.000262
0.000470
0.000236
0.000271
0.000269
0.000282
0.000243
0.000286
0.000245
0.000202
0.000057
0.000214
0.000241
0.000255
0.000240
0.000246
0.000270
0.001556
0.001405
0.001328
0.000236
0.000234
0.000242
0.000284
0.000245
0.000247
0.000249
0.000252
0.002106
0.000254
0.000231
0.000259
0.000271
0.000255
0.000266
0.000261
0.000258
0.000270
0.000254
0.000282
0.000248
0.000187
0.000058
0.000202
0.002680
0.001383
0.000225
0.000308
0.000294
0.000239
0.000256
0.000258
0.000244
0.000253
0.000245
0.000235
0.000249
0.000269
0.000254
0.000269
0.000264
0.000255
0.000270
0.000267
0.000312
0.000246
0.000262
0.000245
0.000245
0.000265
0.000270
0.000260
0.000272
0.000381
0.000056
0.001561
0.000235
0.001245
0.000225
0.000232
0.000237
0.000260
0.000255
0.000245
0.000293
0.000384
0.000342
0.000341
0.000219
0.000250
0.002144
0.000252
0.000238
0.000302
0.000538
0.000269
0.000340
0.000223
0.000258
0.000261
0.000249
0.000263
0.000278
0.000289
0.001613
0.001242
0.000059
0.000232
0.000220
0.000289
0.000404
0.000323
0.000299
0.000224
0.000221
0.000253
0.000257
0.000265
0.000246
0.000229
0.000253
0.000264
0.000239
0.000360
0.000594
0.000340
0.000253
0.000229
0.000273
0.000274
0.000254
0.000251
0.000253
0.000262
0.000274
0.000242
0.000293
0.000496
0.000061
0.001116
0.000225
0.000359
0.000450
0.000290
0.000227
0.000223
0.000240
0.000251
0.002301
0.000582
0.000182
0.000213
0.000370
0.000282
0.000263
0.000257
0.000261
0.000271
0.000224
0.000250
0.000323
0.000636
0.000410
0.001837
0.001316
0.000449
0.000614
0.000218
0.000285
0.000190
0.000056
0.000352
0.000261
0.000230
0.000238
0.000246
0.000232
0.000254
0.000253
0.000254
0.000249
0.000256
0.000227
0.000248
0.000259
0.000441
0.000443
0.001872
0.001294
0.000457
0.000429
0.000468
0.000241
0.000239
0.000261
0.002124
0.000555
0.000391
0.000237
0.000273
0.000283
0.000195
0.000057
0.000213
0.000245
0.000254
0.000239
0.000247
0.000292
0.000461
0.000370
0.000264
0.000222
0.000241
0.000251
0.000258
0.002110
0.000382
0.000371
0.000225
0.000247
0.000263
0.000261
0.000247
0.002449
0.000351
0.000225
0.000253
0.000258
0.000251
0.000272
0.000286
0.000277
0.000194
0.000056
0.000210
0.000286
0.000599
0.000367
0.000298
0.000197
0.000220
0.000256
0.000261
0.000250
0.001965
0.000381
0.000310
0.000260
0.000217
0.000266
0.000271
0.000241
0.002207
0.000448
0.000246
0.000243
0.000267
0.000259
0.000254
0.000252
0.000283
0.000253
0.000269
0.000253
0.000194
0.000056
0.000224
0.000241
0.000247
0.000225
0.000256
0.000250
0.000235
0.000248
0.000229
0.002175
0.000341
0.000174
0.000222
0.000432
0.000225
0.000247
0.000277
0.000288
0.000247
0.000258
0.001966
0.000345
0.000368
0.000375
0.000443
0.000339
0.000270
0.000244
0.000268
0.000240
0.000197
0.000057
0.000214
0.000234
0.000271
0.000220
0.000256
0.000315
0.000233
0.002292
0.000247
0.000233
0.000283
0.000230
0.000236
0.000251
0.000307
0.002124
0.000590
0.000241
0.000241
0.000244
0.000255
0.000264
0.000288
0.000266
0.000261
0.000255
0.000286
0.000253
0.000264
0.000268
0.000193
0.000057
0.001821
0.001435
0.000198
0.000231
0.000245
0.000256
0.000253
0.000253
0.000449
0.000293
0.002196
0.000262
0.000277
0.000226
0.000262
0.000536
0.000389
0.000293
0.000233
0.000244
0.000248
0.000268
0.000269
0.000227
0.000253
0.000263
0.000273
0.000270
0.000378
0.000604
0.000303
0.000056
0.000203
0.000245
0.000244
0.000298
0.000226
0.000240
0.000258
0.000242
0.001466
0.002134
0.000578
0.000296
0.000381
0.000686
0.000356
0.000231
0.000254
0.000249
0.000267
0.000338
0.000179
0.000243
0.000256
0.000294
0.001795
0.001459
0.000290
0.000268
0.000295
0.000352
0.000329
0.000059
0.001941
0.000223
0.000230
0.000259
0.000246
0.000362
0.000532
0.000231
0.000291
0.000209
0.000254
0.000246
0.000260
0.000256
0.000265
0.000255
0.000253
0.000297
0.001815
0.000240
0.000232
0.000255
0.000272
0.000278
0.000273
0.000257
0.001473
0.000325
0.000247
0.000257
0.000183
0.000058
0.000201
0.000233
0.000265
0.000220
0.000253
0.000240
0.000323
0.000349
0.000350
0.000359
0.000231
0.000234
0.000259
0.000414
0.000366
0.000300
0.000225
0.000243
0.000270
0.000342
0.000483
0.000445
0.000253
0.000252
0.000258
0.000252
0.000265
0.000264
0.000272
0.000267
0.000199
0.000056
0.001444
0.000423
0.000221
0.001939
0.000291
0.000465
0.000374
0.000314
0.000240
0.000245
0.000263
0.000244
0.000246
0.000247
0.000271
0.000251
0.000453
0.000337
0.000346
0.000389
0.000356
0.000227
0.000249
0.000272
0.000274
0.000269
0.000261
0.000265
0.000388
0.000469
0.001344
0.000062
0.000203
0.000220
0.002074
0.000369
0.000246
0.000262
0.000275
0.000234
0.000259
0.000260
0.000210
0.000255
0.000259
0.000263
0.000260
0.000535
0.000537
0.001759
0.000225
0.000255
0.000255
0.000261
0.000344
0.000520
0.001538
0.000276
0.000362
0.001922
0.000274
0.000252
0.000190
0.000061
0.000202
0.000237
0.000233
0.000238
0.000233
0.000252
0.000250
0.000289
0.000325
0.000290
0.000377
0.000357
0.000327
0.000303
0.000230
0.000274
0.000258
0.000239
0.000268
0.000250
0.000301
0.000290
0.000266
0.000265
0.000269
0.001511
0.000307
0.000505
0.001928
0.000241
0.000170
0.000060
0.000227
0.000246
0.000232
0.000248
0.000484
0.000208
0.000264
0.000337
0.000340
0.000325
0.000306
0.000219
0.000256
0.000266
0.000273
0.000322
0.000425
0.000428
0.000247
0.000404
0.000532
0.000468
0.001560
0.000230
0.000251
0.001966
0.000355
0.000246
0.000238
0.000296
0.000189
0.000057
0.000217
0.000244
0.000225
0.000243
0.000253
0.000269
0.000251
0.000270
0.000254
0.000253
0.001821
0.000345
0.000376
0.000337
0.000460
0.000355
0.000334
0.001454
0.000243
0.000343
0.002149
0.000459
0.000264
0.000250
0.000255
0.000267
0.000506
0.000227
0.000253
0.000278
0.000194
0.000056
0.000248
0.000355
0.000373
0.000291
0.000204
0.000242
0.000261
0.000250
0.000266
0.000299
0.000219
0.000251
0.000262
0.000257
0.000392
0.001471
0.000313
0.000208
0.000285
0.002026
0.000241
0.000290
0.000253
0.000261
0.000246
0.000281
0.000265
0.000259
0.000253
0.000276
0.000192
0.000057
0.000349
0.000258
0.002077
0.000253
0.000277
0.000212
0.000272
0.000438
0.000298
0.000392
0.001323
0.000429
0.000281
0.002107
0.000184
0.000244
0.000269
0.000278
0.000250
0.000254
0.000275
0.000295
0.000261
0.000357
0.000465
0.000449
0.000245
0.002234
0.000490
0.000483
0.000388
0.000063
0.000197
0.000232
0.000241
0.001968
0.000266
0.000207
0.000230
0.000243
0.000242
0.000259
0.000243
0.000263
0.000244
0.000261
0.000435
0.001518
0.000223
0.000254
0.000266
0.000259
0.000232
0.000258
0.000255
0.000265
0.000335
0.000421
0.000497
0.000240
0.001608
0.000277
0.000158
0.000085
0.000185
0.000216
0.000248
0.000231
0.000252
0.000251
0.000253
0.000249
0.000256
0.000406
0.000355
0.001403
0.000227
0.000225
0.000245
0.000266
0.000251
0.000256
0.000498
0.000298
0.000471
0.000361
0.000230
0.001578
0.000227
0.000258
0.000289
0.000278
0.000264
0.000267
0.000195
0.000057
0.000216
0.000234
0.000252
0.000263
0.000246
0.000243
0.000236
0.000242
0.000261
0.000237
0.000253
0.000259
0.000248
0.001500
0.000349
0.000213
0.000253
0.000260
0.000307
0.000340
0.000394
0.000211
0.000230
0.000256
0.000271
0.000263
0.000258
0.001414
0.000282
0.000231
0.000173
0.000058
0.000209
0.000230
0.000259
0.000263
0.000255
0.000233
0.000270
0.000237
0.000226
0.000265
0.000241
0.000260
0.000226
0.000317
0.000407
0.000327
0.000235
0.000254
0.001646
0.000231
0.000241
0.000261
0.000268
0.000296
0.000380
0.000373
0.000455
0.000254
0.000256
0.001614
0.000159
0.000059
0.000344
0.000366
0.000310
0.000309
0.000233
0.000219
0.000243
0.000293
0.000236
0.000232
0.000248
0.000239
0.001466
0.000301
0.000296
0.000222
0.000249
0.000253
0.000286
0.000251
0.000257
0.000236
0.000259
0.000274
0.000250
0.000368
0.000511
0.000359
0.000219
0.000256
0.000191
0.000065
0.000182
0.000236
0.000462
0.000310
0.000449
0.000228
0.000235
0.000250
0.000247
0.000294
0.000208
0.000228
0.000256
0.000241
0.001262
0.000296
0.000235
0.000262
0.000260
0.000269
0.000238
0.000271
0.000248
0.000262
0.000253
0.000258
0.000333
0.000691
0.000425
0.000230
0.000190
0.000057
0.000186
0.001580
0.000235
0.000298
0.000477
0.000383
0.000217
0.000262
0.000259
0.000258
0.000235
0.000262
0.000270
0.000271
0.000259
0.001528
0.000251
0.000287
0.000260
0.000258
0.000260
0.000264
0.000258
0.000256
0.000260
0.000285
0.000436
0.000305
0.000397
0.000245
0.000187
0.000057
0.000194
0.000248
0.000233
0.001674
0.000350
0.000382
0.000206
0.000239
0.000251
0.000270
0.000275
0.000255
0.000248
0.000265
0.000232
0.000273
0.000380
0.001344
0.000253
0.000220
0.001508
0.000443
0.000550
0.000279
0.000335
0.000258
0.000252
0.000465
0.000238
0.000263
0.000181
0.000065
0.000305
0.000192
0.000247
0.000245
0.000260
0.000239
0.000244
0.000253
0.000258
0.000238
0.000261
0.000254
0.000386
0.000458
0.001627
0.001503
0.000369
0.000499
0.000350
0.000230
0.000227
0.000258
0.000253
0.000268
0.000241
0.000282
0.000248
0.000279
0.001516
0.000324
0.000168
0.000057
0.000231
0.000358
0.000353
0.000314
0.000223
0.000238
0.000240
0.000415
0.000391
0.000330
0.002176
0.000327
0.000702
0.000486
0.000496
0.000331
0.000359
0.000383
0.000297
0.000240
0.000362
0.000243
0.001812
0.000277
0.000215
0.000263
0.000262
0.000254
0.000279
0.000248
0.000199
0.000057
0.000225
0.000225
0.000255
0.000248
0.000244
0.001664
0.000874
0.000995
0.000205
0.000240
0.000258
0.000258
0.000264
0.000261
0.000254
0.000245
0.000256
0.000264
0.000266
0.000280
0.001443
0.000301
0.000254
0.000225
0.000236
0.000261
0.000259
0.000284
0.000266
0.000286
0.001893
0.000061
0.000191
0.000234
0.001541
0.000856
0.000382
0.000360
0.000245
0.000221
0.000253
0.000264
0.000237
0.000253
0.000246
0.002029
0.000424
0.000224
0.000247
0.000253
0.000265
0.000258
0.000189
