0.000280
0.006055
0.015475
0.000335
0.000251
0.000230
0.000305
0.000254
0.000322
0.000320
0.000213
0.000397
0.000518
0.000481
0.000348
0.000306
0.000308
0.000410
0.000378
0.000401
0.000297
0.001865
0.000521
0.000436
0.000251
0.000291
0.000343
0.000409
0.000519
0.000317
0.000406
0.000282
0.000069
0.000215
0.000239
0.000268
0.000253
0.000317
0.000225
0.000261
0.000250
0.000292
0.000314
0.000379
0.000483
0.000304
0.000361
0.000361
0.000403
0.000295
0.000239
0.000200
0.001722
0.000294
0.000235
0.000495
0.000263
0.000229
0.000245
0.000282
0.000300
0.000283
0.000482
0.000277
0.000065
0.000191
0.000224
0.000250
0.000260
0.000253
0.000252
0.000261
0.000259
0.000275
0.001674
0.000233
0.000244
0.000247
0.000289
0.000276
0.000240
0.000269
0.000275
0.000325
0.001807
0.000263
0.000294
0.000406
0.000489
0.000348
0.000255
0.000258
0.000603
0.000392
0.000760
0.000171
0.000066
0.000213
0.000228
0.000268
0.000215
0.000304
0.000319
0.000317
0.000479
0.000440
0.000263
0.000220
0.000227
0.000221
0.000257
0.000265
0.000243
0.000255
0.000259
0.000300
0.000346
0.001715
0.000250
0.000247
0.000451
0.000276
0.000696
0.000660
0.000514
0.000307
0.000266
0.000196
0.000065
0.000189
0.000216
0.000258
0.000264
0.000264
0.000249
0.000292
0.000557
0.001334
0.000237
0.000246
0.000237
0.000255
0.000264
0.000261
0.000276
0.000357
0.000769
0.001352
0.000274
0.000250
0.000407
0.000285
0.000231
0.000236
0.000265
0.000263
0.000279
0.000249
0.000348
0.000135
0.000065
0.000208
0.000230
0.000226
0.000267
0.000247
0.000248
0.000249
0.000243
0.000237
0.000256
0.001699
0.000232
0.000229
0.000232
0.000222
0.000250
0.000236
0.000256
0.000263
0.000247
0.000264
0.001742
0.000246
0.000250
0.000474
0.000238
0.000246
0.000229
0.000264
0.000260
0.000215
0.000065
0.000197
0.000226
0.000223
0.000239
0.000245
0.000253
0.000250
0.000254
0.000252
0.000243
0.000275
0.000251
0.000255
0.000273
0.001638
0.000265
0.000295
0.000234
0.000252
0.000273
0.000271
0.000241
0.000253
0.000247
0.000276
0.001875
0.000349
0.000362
0.000282
0.000264
0.000203
0.000065
0.000182
0.000216
0.000262
0.000254
0.000261
0.000227
0.000385
0.000324
0.000395
0.000428
0.000230
0.000231
0.000252
0.000251
0.001735
0.000435
0.000278
0.000463
0.000234
0.000232
0.000242
0.000289
0.000276
0.001804
0.000458
0.000511
0.000216
0.000248
0.000228
0.000248
0.000215
0.000064
0.000194
0.000224
0.000240
0.000298
0.000425
0.000415
0.000347
0.000229
0.000214
0.000232
0.000253
0.000249
0.000303
0.001708
0.000419
0.000303
0.000241
0.000239
0.000269
0.000309
0.000230
0.000253
0.000273
0.001911
0.000280
0.000398
0.000251
0.000254
0.000319
0.000401
0.000326
0.000065
0.000274
0.000435
0.000237
0.000273
0.000262
0.000215
0.000244
0.000257
0.000261
0.000223
0.000254
0.000233
0.001739
0.000205
0.000303
0.000210
0.000252
0.000236
0.000258
0.000273
0.000277
0.000333
0.001775
0.000348
0.000234
0.000498
0.000239
0.000239
0.000223
0.000268
0.000272
0.000065
0.000503
0.000320
0.000636
0.000201
0.000212
0.000261
0.000232
0.000231
0.000248
0.000251
0.000253
0.001704
0.000296
0.000438
0.000340
0.000233
0.000251
0.000209
0.000236
0.000260
0.000368
0.001738
0.000249
0.000227
0.002295
0.000439
0.000213
0.000258
0.000268
0.000258
0.000203
0.000065
0.000210
0.000211
0.000246
0.000237
0.000274
0.001679
0.000216
0.000217
0.000227
0.000253
0.000242
0.000246
0.000253
0.000251
0.000324
0.000444
0.000564
0.000245
0.000233
0.000260
0.000277
0.000247
0.000254
0.000483
0.000432
0.000275
0.000470
0.000425
0.000471
0.000207
0.000185
0.000065
0.000194
0.000216
0.000252
0.000272
0.000214
0.000241
0.000282
0.000461
0.000494
0.001518
0.000256
0.000234
0.000243
0.000256
0.000259
0.000314
0.000423
0.000474
0.000376
0.000268
0.000203
0.000264
0.000295
0.000281
0.000291
0.000405
0.000510
0.000580
0.000350
0.000464
0.000138
0.000067
0.000199
0.000233
0.000231
0.000233
0.000224
0.000243
0.000251
0.000255
0.000241
0.000368
0.000402
0.001526
0.000241
0.000218
0.000208
0.000219
0.000260
0.000239
0.000250
0.000273
0.000252
0.000575
0.000311
0.000313
0.000236
0.000236
0.000261
0.000249
0.000267
0.000267
0.000422
0.000067
0.000196
0.000218
0.000237
0.000394
0.000391
0.000450
0.000238
0.000247
0.000235
0.000255
0.000247
0.000241
0.000286
0.000260
0.000251
0.000652
0.000317
0.001569
0.000256
0.000242
0.000273
0.000264
0.000258
0.000245
0.000245
0.000740
0.000386
0.000212
0.000351
0.000238
0.000202
0.000082
0.000211
0.000237
0.000378
0.000259
0.000254
0.000254
0.000560
0.000425
0.000189
0.000309
0.000232
0.000266
0.000282
0.000233
0.000586
0.000290
0.000233
0.000251
0.000419
0.001664
0.000231
0.000234
0.000315
0.000409
0.000280
0.000292
0.000253
0.000415
0.000557
0.000366
0.000216
0.000067
0.000220
0.000209
0.000225
0.000263
0.000458
0.000268
0.000279
0.000215
0.000409
0.000589
0.000341
0.000215
0.000226
0.000204
0.000263
0.000258
0.000248
0.000266
0.000218
0.000383
0.000264
0.000594
0.001583
0.000266
0.000233
0.000258
0.000312
0.000362
0.000711
0.000601
0.000238
0.000068
0.000248
0.000324
0.000314
0.000417
0.000312
0.000221
0.000270
0.000375
0.000520
0.000378
0.000245
0.000226
0.000218
0.000243
0.000274
0.000231
0.000262
0.000267
0.000270
0.000259
0.000277
0.000430
0.001729
0.000329
0.000451
0.000418
0.000298
0.000327
0.000411
0.000342
0.000247
0.000065
0.000308
0.000363
0.000239
0.000187
0.000265
0.000190
0.000457
0.000210
0.000278
0.000302
0.000405
0.000402
0.000309
0.000249
0.000252
0.000279
0.000385
0.000434
0.000279
0.000231
0.000226
0.000502
0.000712
0.001483
0.000248
0.000416
0.000306
0.000238
0.000344
0.000330
0.000385
0.000065
0.000185
0.000210
0.000256
0.000235
0.000242
0.000251
0.000266
0.000330
0.000429
0.000305
0.000561
0.000280
0.000290
0.000208
0.000571
0.000225
0.000271
0.000268
0.000240
0.000376
0.000203
0.000228
0.000269
0.000485
0.000547
0.001599
0.000235
0.000221
0.000234
0.000262
0.000202
0.000065
0.000239
0.000457
0.000374
0.000224
0.000222
0.000246
0.000254
0.000235
0.000244
0.000257
0.000219
0.000485
0.000487
0.000282
0.000391
0.000286
0.000240
0.000261
0.000344
0.000386
0.000381
0.000354
0.000360
0.000353
0.000241
0.000244
0.000238
0.000269
0.001791
0.000264
0.000198
0.000066
0.000200
0.000208
0.000247
0.000263
0.000366
0.000531
0.000316
0.000237
0.000235
0.000265
0.000265
0.000235
0.000523
0.000454
0.000481
0.000289
0.000275
0.000310
0.000417
0.000536
0.000373
0.000532
0.000342
0.000405
0.000231
0.000242
0.000226
0.000231
0.000248
0.001801
0.000300
0.000065
0.000245
0.000308
0.000211
0.000215
0.000259
0.000243
0.000327
0.000498
0.000354
0.000326
0.000331
0.000265
0.000393
0.000544
0.000361
0.000231
0.000224
0.000231
0.000242
0.000266
0.000299
0.000233
0.000255
0.000253
0.000368
0.000304
0.000558
0.000299
0.000200
0.000220
0.000197
0.000068
0.000462
0.000290
0.000389
0.000286
0.000243
0.000224
0.000233
0.000254
0.000241
0.000221
0.000242
0.000312
0.000272
0.000507
0.000422
0.000394
0.000397
0.000387
0.000375
0.000367
0.000213
0.000225
0.000204
0.000277
0.001775
0.000238
0.001747
0.001079
0.000221
0.000353
0.000153
0.000065
0.000212
0.000234
0.000209
0.000236
0.000249
0.000253
0.000250
0.000263
0.000241
0.000351
0.000574
0.000218
0.000506
0.000280
0.000251
0.000190
0.000265
0.000289
0.000227
0.000219
0.000256
0.000265
0.001763
0.000275
0.000240
0.000252
0.000274
0.000267
0.001911
0.000536
0.000214
0.000065
0.000228
0.000197
0.000222
0.000227
0.000258
0.000239
0.000245
0.000267
0.000248
0.000384
0.000517
0.000334
0.000393
0.000265
0.000218
0.000337
0.000336
0.000402
0.000396
0.000253
0.001746
0.000240
0.000222
0.000245
0.000257
0.000270
0.000231
0.000262
0.000257
0.000440
0.000374
0.000064
0.000266
0.000202
0.000218
0.000242
0.000250
0.000249
0.000270
0.000238
0.000242
0.000245
0.000249
0.000293
0.000480
0.000315
0.000288
0.000316
0.000477
0.000207
0.000233
0.000248
0.000264
0.000256
0.000274
0.000261
0.000292
0.001763
0.000284
0.000239
0.000253
0.000239
0.000209
0.000103
0.000353
0.000193
0.000232
0.000219
0.000233
0.000235
0.000238
0.000252
0.000252
0.000240
0.000205
0.000265
0.000266
0.000381
0.000430
0.000333
0.000325
0.000218
0.000218
0.000262
0.000256
0.000254
0.000251
0.000260
0.000257
0.000269
0.000362
0.001615
0.000239
0.000253
0.000170
0.000066
0.000203
0.000203
0.000248
0.000258
0.000397
0.000322
0.000391
0.000335
0.000221
0.000240
0.000251
0.000241
0.000258
0.000248
0.000252
0.000266
0.000249
0.000248
0.000253
0.000260
0.000270
0.000268
0.000263
0.000225
0.000246
0.000282
0.000277
0.000259
0.000255
0.000263
0.000202
0.000084
0.000200
0.000225
0.000225
0.000258
0.000241
0.000259
0.000229
0.000258
0.000353
0.000213
0.000211
0.000260
0.000226
0.000244
0.000270
0.000264
0.000250
0.000251
0.000368
0.000212
0.000240
0.000278
0.000286
0.000260
0.000274
0.000281
0.000279
0.000240
0.000278
0.000422
0.000734
0.000066
0.000336
0.000256
0.000187
0.000188
0.000197
0.000249
0.000253
0.000249
0.000260
0.000229
0.000257
0.000283
0.000574
0.000482
0.001519
0.000209
0.000526
0.000203
0.000249
0.000433
0.000602
0.000229
0.000210
0.000268
0.000254
0.000258
0.000280
0.000252
0.000312
0.000268
0.000191
0.000064
0.000289
0.000398
0.000366
0.000313
0.000211
0.000238
0.000255
0.000246
0.000230
0.000247
0.000256
0.000266
0.000228
0.000290
0.000509
0.000431
0.000339
0.001705
0.000264
0.000250
0.000435
0.000337
0.000449
0.000285
0.000403
0.000244
0.000290
0.000230
0.000228
0.000243
0.000215
0.000084
0.000192
0.000211
0.000248
0.000348
0.000321
0.000445
0.000329
0.000238
0.000252
0.000222
0.000229
0.000267
0.000265
0.000271
0.000244
0.000259
0.000421
0.000378
0.000411
0.000360
0.000267
0.001779
0.000412
0.000537
0.000376
0.000439
0.000312
0.000232
0.000233
0.000264
0.000486
0.000065
0.000206
0.000220
0.000262
0.000345
0.000312
0.000526
0.000332
0.000300
0.000206
0.000296
0.000226
0.000235
0.000247
0.000308
0.000347
0.000215
0.000276
0.000347
0.000373
0.000384
0.000596
0.001749
0.000258
0.000662
0.000261
0.000371
0.000242
0.000398
0.000215
0.000219
0.000248
0.000065
0.000283
0.000298
0.000324
0.000349
0.000335
0.000312
0.000370
0.000207
0.000241
0.000262
0.000255
0.000266
0.000208
0.000260
0.000251
0.000247
0.000319
0.000534
0.000407
0.000354
0.000277
0.000236
0.000268
0.001749
0.000466
0.000508
0.000576
0.000328
0.000207
0.000291
0.000164
0.000066
0.000184
0.000214
0.000313
0.000261
0.000367
0.000341
0.000343
0.000310
0.000320
0.000523
0.000224
0.000210
0.000234
0.000275
0.000275
0.000274
0.000222
0.000437
0.000415
0.000397
0.000243
0.000243
0.000255
0.000250
0.000293
0.000244
0.000234
0.000255
0.000262
0.000357
0.000183
0.000066
0.000318
0.000316
0.000233
0.000238
0.000249
0.000252
0.000250
0.000349
0.000218
0.000217
0.000245
0.000346
0.000499
0.000328
0.000392
0.000255
0.000223
0.000234
0.000238
0.000261
0.000278
0.000281
0.000231
0.000257
0.000274
0.000421
0.000405
0.000305
0.000379
0.000214
0.000167
0.000065
0.000202
0.000221
0.000268
0.000245
0.000240
0.000240
0.000258
0.000262
0.000488
0.000229
0.000236
0.000250
0.000243
0.000255
0.000280
0.000265
0.000272
0.000366
0.000235
0.000217
0.000252
0.000265
0.000263
0.000251
0.000283
0.000263
0.000269
0.000259
0.000247
0.000510
0.000173
0.000065
0.000207
0.000221
0.000228
0.000263
0.000247
0.000246
0.000289
0.000467
0.000255
0.000228
0.000256
0.000249
0.000247
0.000400
0.000458
0.001607
0.000240
0.000289
0.000370
0.000403
0.000378
0.000323
0.000355
0.000338
0.000489
0.000249
0.000258
0.000269
0.000276
0.000268
0.001422
0.000084
0.000400
0.000210
0.000315
0.000209
0.000192
0.000240
0.000234
0.000251
0.000248
0.000256
0.000257
0.000253
0.000253
0.000263
0.001999
0.000266
0.000221
0.000211
0.000221
0.000277
0.000241
0.000293
0.000370
0.000432
0.000227
0.000315
0.000244
0.000250
0.000322
0.000210
0.000224
0.000065
0.001313
0.000475
0.000296
0.000287
0.000216
0.000214
0.000216
0.000232
0.000479
0.000236
0.000230
0.000239
0.000388
0.000452
0.000426
0.000322
0.000298
0.000247
0.000359
0.000356
0.000223
0.000254
0.000266
0.000234
0.000285
0.000635
0.000465
0.000294
0.000238
0.000274
0.000180
0.000065
0.000216
0.000210
0.000227
0.000244
0.001544
0.000251
0.000202
0.000247
0.000248
0.000251
0.000250
0.000253
0.000241
0.000260
0.000269
0.000332
0.000376
0.000661
0.000300
0.001766
0.000262
0.000296
0.000293
0.000417
0.000506
0.000456
0.000222
0.000212
0.000251
0.000270
0.000213
0.000070
0.000197
0.000247
0.000236
0.001364
0.000267
0.000223
0.000240
0.000218
0.000230
0.000249
0.000226
0.000256
0.000273
0.000246
0.000266
0.000312
0.000523
0.000421
0.000284
0.000231
0.000255
0.000256
0.000252
0.000241
0.000340
0.000224
0.000232
0.000268
0.000263
0.000393
0.000566
0.000065
0.000194
0.000260
0.000235
0.000254
0.000250
0.000261
0.000230
0.000263
0.000267
0.000266
0.001413
0.000220
0.000239
0.000245
0.000251
0.000228
0.000265
0.000267
0.000257
0.000275
0.000411
0.000348
0.000571
0.000251
0.000255
0.000308
0.001791
0.000243
0.000291
0.000295
0.000425
0.000066
0.000276
0.000429
0.000443
0.000506
0.000525
0.000532
0.001489
0.000555
0.000636
0.000593
0.000615
0.000628
0.000480
0.000577
0.000624
0.001694
0.000521
0.000309
0.000346
0.000325
0.000291
0.000274
0.000255
0.000253
0.000276
0.000296
0.000302
0.000272
0.000295
0.000263
0.001293
0.000085
0.000227
0.000247
0.000215
0.000250
0.000244
0.000239
0.000250
0.000241
0.000284
0.000219
0.000255
0.000256
0.000247
0.000244
0.000275
0.000281
0.001814
0.000290
0.000255
0.000238
0.000252
0.000254
0.000263
0.000320
0.000454
0.000338
0.000324
0.000272
0.000240
0.000285
0.000152
0.000086
0.000219
0.001369
0.000293
0.000246
0.000265
0.000231
0.000259
0.000258
0.000239
0.000250
0.000234
0.000277
0.000231
0.000422
0.000332
0.000308
0.000282
0.000283
0.001903
0.000267
0.000255
0.000233
0.000261
0.000268
0.000276
0.000291
0.000266
0.000236
0.000242
0.000301
0.000220
0.000079
0.000230
0.000229
0.000241
0.001439
0.000289
0.000250
0.000212
0.000220
0.000226
0.000267
0.000234
0.000275
0.000230
0.000256
0.000262
0.000268
0.000249
0.000265
0.000263
0.000266
0.000295
0.001809
0.000272
0.001744
0.000279
0.000234
0.000240
0.000235
0.000289
0.000264
0.000188
0.000081
0.000232
0.000240
0.001349
0.000286
0.000229
0.000217
0.000217
0.000227
0.000258
0.000248
0.000280
0.000238
0.000256
0.000250
0.000245
0.000272
0.000259
0.000275
0.000305
0.000259
0.001850
0.000276
0.001829
0.000241
0.000233
0.000253
0.000271
0.000271
0.000251
0.000272
0.000143
0.000080
0.001433
0.000283
0.000214
0.000214
0.000216
0.000225
0.000250
0.000385
0.000243
0.000257
0.000259
0.000254
0.000312
0.000296
0.000462
0.000255
0.000303
0.000245
0.000221
0.000225
0.000266
0.000311
0.000269
0.000248
0.000294
0.000259
0.000252
0.000455
0.000588
0.000351
0.000160
0.000079
0.000219
0.000278
0.000272
0.000306
0.000377
0.000267
0.001663
0.000288
0.000263
0.000252
0.000300
0.000276
0.000286
0.000269
0.000306
0.000299
0.000399
0.000479
0.000351
0.000317
0.000277
0.000270
0.000263
0.000251
0.000327
0.000298
0.000229
0.000241
0.000250
0.000398
0.000351
0.000072
0.000341
0.000340
0.000255
0.000269
0.000257
0.000232
0.000235
0.000232
0.000263
0.000259
0.001547
0.000207
0.000206
0.000255
0.000245
0.000294
0.000260
0.000258
0.000256
0.000267
0.000257
0.000450
0.000482
0.000342
0.000243
0.000275
0.000263
0.000245
0.000246
0.000241
0.000242
0.000066
0.000203
0.000235
0.000269
0.000442
0.000402
0.000250
0.000210
0.000256
0.000251
0.000264
0.000214
0.000253
0.000251
0.000274
0.000236
0.000270
0.000411
0.001234
0.000239
0.000227
0.000234
0.000245
0.000362
0.000485
0.000232
0.000309
0.000590
0.000290
0.000435
0.000231
0.000157
0.000066
0.000207
0.000210
0.000292
0.000234
0.000308
0.000222
0.000338
0.000546
0.000323
0.000324
0.000368
0.000435
0.000345
0.000354
0.000231
0.000245
0.000195
0.000284
0.000357
0.000562
0.001163
0.000256
0.000247
0.000273
0.000238
0.000233
0.000269
0.000394
0.000315
0.000566
0.000195
0.000082
0.000201
0.000205
0.000255
0.000268
0.000212
0.000258
0.000230
0.000257
0.000253
0.000459
0.000446
0.000382
0.000211
0.000209
0.000229
0.000251
0.000256
0.000277
0.000244
0.000536
0.000213
0.000302
0.000397
0.000291
0.000349
0.000223
0.000253
0.000280
0.000260
0.000276
0.000242
0.000068
0.000299
0.000299
0.000382
0.000458
0.000325
0.000377
0.000199
0.000254
0.000220
0.000287
0.000247
0.000262
0.000242
0.000252
0.000244
0.000229
0.000276
0.000353
0.000568
0.000337
0.000211
0.000232
0.000236
0.000246
0.000271
0.000257
0.000293
0.000250
0.000283
0.000262
0.000375
0.000064
0.000263
0.000281
0.000206
0.000228
0.000251
0.000244
0.000247
0.000261
0.000308
0.000214
0.000258
0.000234
0.000323
0.000565
0.000362
0.000318
0.000219
0.000228
0.000220
0.000263
0.000322
0.000216
0.000273
0.000249
0.000271
0.000359
0.000391
0.000646
0.000403
0.000235
0.000132
0.000069
0.000393
0.000211
0.000215
0.000230
0.000254
0.000246
0.000230
0.000247
0.000257
0.000260
0.000231
0.000239
0.000279
0.000228
0.000235
0.000263
0.000276
0.000246
0.000277
0.000261
0.000254
0.000258
0.000279
0.000257
0.000266
0.000258
0.000239
0.000280
0.000265
0.000266
0.000207
0.000065
0.000184
0.000227
0.000259
0.000233
0.000232
0.000244
0.000265
0.000234
0.000257
0.000297
0.000204
0.000235
0.000276
0.000400
0.000262
0.000248
0.000268
0.000298
0.000220
0.000275
0.000282
0.000235
0.000251
0.000242
0.000273
0.000272
0.000248
0.000263
0.000269
0.000257
0.000218
0.000067
0.000277
0.000384
0.000329
0.000277
0.000337
0.000202
0.000218
0.000243
0.000251
0.000225
0.000257
0.000250
0.000253
0.000246
0.000288
0.000235
0.000263
0.000249
0.000264
0.000257
0.000268
0.000268
0.000280
0.000250
0.000270
0.000275
0.000242
0.000283
0.000246
0.000262
0.000201
0.000066
0.000196
0.000219
0.000238
0.000262
0.000251
0.000440
0.000221
0.000274
0.000299
0.000430
0.000485
0.000305
0.000235
0.000204
0.000264
0.000273
0.000255
0.000245
0.000265
0.000268
0.000264
0.000266
0.000261
0.000294
0.000571
0.000473
0.000264
0.000258
0.000275
0.000262
0.000199
0.000065
0.000188
0.000196
0.000253
0.000245
0.000451
0.000528
0.000305
0.000365
0.000237
0.000252
0.000226
0.000270
0.000245
0.000255
0.000249
0.000268
0.000261
0.000308
0.000635
0.000359
0.000318
0.000217
0.000237
0.000273
0.000286
0.000263
0.000261
0.000264
0.000270
0.000328
0.000522
0.000064
0.000178
0.000223
0.000232
0.000232
0.000254
0.000248
0.000223
0.000251
0.000253
0.000265
0.000233
0.000252
0.000244
0.000468
0.000572
0.000390
0.000193
0.000229
0.000255
0.000252
0.000270
0.000259
0.000478
0.000264
0.000244
0.000675
0.000379
0.000462
0.000294
0.000213
0.000174
0.000080
0.000197
0.000218
0.000238
0.000240
0.000257
0.000261
0.000335
0.000623
0.000469
0.000310
0.000238
0.000237
0.000267
0.000290
0.000260
0.000233
0.000249
0.000246
0.000281
0.000420
0.000350
0.000515
0.000430
0.000299
0.000437
0.000331
0.000489
0.000207
0.000244
0.000590
0.000242
0.000063
0.000244
0.000199
0.000492
0.000223
0.000253
0.000207
0.000226
0.000257
0.000233
0.000254
0.000379
0.000279
0.000464
0.000276
0.000233
0.000237
0.000255
0.000217
0.000276
0.000263
0.000269
0.000275
0.000234
0.000281
0.000325
0.000468
0.000483
0.000243
0.000252
0.000273
0.000206
0.000066
0.000181
0.000237
0.000228
0.000243
0.000247
0.000258
0.000407
0.000526
0.000303
0.000280
0.000339
0.000252
0.000220
0.000261
0.000262
0.000242
0.000250
0.000266
0.000344
0.000390
0.000509
0.000266
0.000464
0.000371
0.000368
0.000378
0.000376
0.000240
0.000247
0.000340
0.000397
0.000064
0.000244
0.000231
0.000223
0.000226
0.000289
0.000225
0.000244
0.000245
0.000259
0.000247
0.000241
0.000427
0.000400
0.000382
0.000330
0.000275
0.000243
0.000262
0.000268
0.000232
0.000253
0.000240
0.000271
0.000270
0.000294
0.000302
0.000540
0.000437
0.000243
0.000283
0.000206
0.000079
0.000189
0.000195
0.000255
0.000248
0.000261
0.000378
0.000436
0.000588
0.000266
0.000690
0.000279
0.000227
0.000218
0.000258
0.000245
0.000259
0.000306
0.000248
0.000479
0.000708
0.001348
0.000250
0.000262
0.000250
0.000300
0.000238
0.000473
0.000317
0.000423
0.000266
0.000154
0.000069
0.000181
0.000212
0.000248
0.000233
0.000258
0.000235
0.000266
0.000261
0.000249
0.000367
0.000356
0.000356
0.000338
0.000347
0.000431
0.000312
0.000195
0.000206
0.000232
0.000268
0.000244
0.000250
0.000268
0.000276
0.000396
0.000484
0.000380
0.000235
0.000235
0.000280
0.000170
0.000066
0.000203
0.000214
0.000253
0.000253
0.000247
0.000236
0.000477
0.000228
0.000228
0.000245
0.000250
0.000250
0.000264
0.000262
0.000237
0.000273
0.000263
0.000260
0.000279
0.000250
0.000247
0.000296
0.000291
0.000251
0.000258
0.000288
0.000272
0.000267
0.000272
0.000257
0.000182
0.000065
0.000205
0.000198
0.000289
0.000529
0.000314
0.000233
0.000228
0.000239
0.000266
0.000242
0.000275
0.000215
0.000272
0.000258
0.000233
0.000257
0.000238
0.000265
0.000306
0.000341
0.000548
0.000246
0.000258
0.000258
0.000294
0.000232
0.000254
0.000255
0.000264
0.000284
0.000206
0.000064
0.000427
0.000476
0.000212
0.000234
0.000247
0.000252
0.000466
0.000197
0.000207
0.000251
0.000271
0.000335
0.000399
0.000413
0.001793
0.000240
0.000248
0.000235
0.000281
0.000242
0.000344
0.000544
0.000519
0.000314
0.000223
0.000236
0.000278
0.000419
0.000282
0.000282
0.000179
0.000065
0.000222
0.000395
0.000274
0.000262
0.000520
0.000216
0.000231
0.000242
0.000280
0.000217
0.000255
0.000256
0.000251
0.000297
0.000497
0.000435
0.000238
0.000216
0.000247
0.000268
0.000262
0.000307
0.000260
0.000256
0.000286
0.000465
0.000511
0.000372
0.000473
0.000247
0.000192
0.000068
0.000222
0.000217
0.000250
0.000257
0.000227
0.000238
0.000258
0.000280
0.000351
0.000447
0.000358
0.000363
0.000238
0.000203
0.000280
0.000266
0.000343
0.000222
0.000265
0.000269
0.000245
0.000410
0.000420
0.000320
0.000246
0.000294
0.000263
0.000528
0.000388
0.000293
0.000135
0.000065
0.000177
0.000299
0.000264
0.000408
0.000368
0.000256
0.000204
0.000259
0.000250
0.000262
0.000270
0.000274
0.000222
0.000229
0.000267
0.000404
0.000323
0.000326
0.000356
0.000293
0.000466
0.000240
0.000280
0.000276
0.000333
0.000258
0.000256
0.000281
0.000438
0.000576
0.000158
0.000083
0.000196
0.000204
0.000255
0.000230
0.000242
0.000485
0.000225
0.000232
0.000261
0.000429
0.000460
0.000522
0.000250
0.000215
0.000264
0.000231
0.000276
0.000227
0.000245
0.000287
0.000237
0.000272
0.000350
0.000509
0.000332
0.000376
0.000301
0.000353
0.000289
0.000251
0.000149
0.000079
0.000212
0.000208
0.000281
0.000528
0.000251
0.000352
0.000250
0.000211
0.000222
0.000236
0.000248
0.000251
0.000269
0.000250
0.000313
0.000213
0.000243
0.000248
0.000242
0.000403
0.000616
0.000308
0.000231
0.000221
0.000276
0.000271
0.000262
0.000259
0.000290
0.000252
0.000199
0.000064
0.000248
0.000361
0.000495
0.000221
0.000208
0.000226
0.000300
0.000529
0.000249
0.000218
0.000226
0.000264
0.000255
0.000536
0.000355
0.000326
0.000217
0.000278
0.000251
0.000204
0.000250
0.000288
0.000249
0.000283
0.000274
0.000322
0.000486
0.000403
0.000246
0.000225
0.000155
0.000066
0.000199
0.000224
0.000246
0.000276
0.000232
0.000263
0.000271
0.000217
0.000258
0.000225
0.000271
0.000236
0.000256
0.001460
0.000237
0.000263
0.000253
0.000283
0.000229
0.000282
0.000255
0.000249
0.000272
0.000254
0.000271
0.000268
0.000269
0.000266
0.000284
0.000247
0.000210
0.000065
0.000201
0.000221
0.000224
0.000243
0.000254
0.000253
0.000232
0.000259
0.000237
0.000243
0.000249
0.000285
0.000233
0.000258
0.000251
0.000258
0.000267
0.000259
0.000254
0.000259
0.000253
0.000269
0.000241
0.000264
0.001338
0.000281
0.000569
0.000440
0.000343
0.000213
0.000164
0.000065
0.000184
0.000229
0.000230
0.000253
0.000493
0.000216
0.000201
0.000218
0.000246
0.000393
0.000483
0.000348
0.000216
0.000216
0.000239
0.000261
0.000257
0.000249
0.000247
0.000255
0.000268
0.000256
0.000335
0.000364
0.000510
0.000419
0.000249
0.000245
0.001364
0.000269
0.000196
0.000064
0.000315
0.000386
0.000355
0.000248
0.000207
0.000207
0.000243
0.000238
0.000272
0.000239
0.000242
0.000258
0.000265
0.000413
0.000548
0.000277
0.000302
0.000243
0.000254
0.000251
0.000256
0.000276
0.000259
0.000262
0.000264
0.000266
0.000454
0.000495
0.000334
0.000368
0.000159
0.000066
0.000186
0.000227
0.001312
0.000376
0.000451
0.000419
0.000383
0.000384
0.000423
0.000243
0.000191
0.000198
0.000251
0.000245
0.000262
0.000245
0.000310
0.000590
0.000365
0.000325
0.000272
0.000242
0.000255
0.000518
0.000238
0.000254
0.000257
0.000279
0.000307
0.000629
0.000365
0.000069
0.000454
0.000297
0.000187
0.000195
0.001567
0.000492
0.000364
0.000181
0.000203
0.000249
0.000227
0.000221
0.000251
0.000266
0.000257
0.000283
0.000206
0.000462
0.000280
0.000500
0.000346
0.000214
0.000215
0.000254
0.000260
0.000275
0.000269
0.000246
0.000265
0.000280
0.000245
0.000066
0.000338
0.000315
0.000289
0.000182
0.000241
0.000260
0.000244
0.000238
0.000232
0.000272
0.001467
0.000492
0.000211
0.000238
0.000200
0.000248
0.000261
0.000265
0.000235
0.000267
0.000301
0.000227
0.000267
0.000433
0.000438
0.000425
0.000230
0.000269
0.000259
0.000279
0.000194
0.000066
0.000204
0.000451
0.000211
0.000225
0.000318
0.000554
0.000305
0.000260
0.000459
0.000222
0.000212
0.000245
0.000261
0.000266
0.000270
0.001467
0.000300
0.000278
0.000275
0.000241
0.000277
0.000249
0.000264
0.000252
0.000269
0.000286
0.000483
0.000382
0.000311
0.000292
0.000137
0.000073
0.000214
0.000207
0.000249
0.000245
0.000228
0.000252
0.000234
0.000255
0.000303
0.000464
0.000394
0.000273
0.000230
0.000210
0.000248
0.000259
0.000275
0.000263
0.000271
0.000231
0.000252
0.000363
0.001266
0.000217
0.000288
0.000222
0.000259
0.000247
0.000250
0.000257
0.000203
0.000066
0.000228
0.000343
0.000416
0.000298
0.000232
0.000220
0.000260
0.000240
0.000249
0.000274
0.000249
0.000252
0.000262
0.000250
0.000245
0.000269
0.000253
0.000270
0.000267
0.000253
0.000262
0.000259
0.000283
0.000276
0.000310
0.000243
0.000281
0.000239
0.000258
0.000506
0.001315
0.000066
0.000193
0.000215
0.000234
0.000250
0.000243
0.000257
0.000254
0.000225
0.000241
0.000261
0.000255
0.000262
0.000254
0.000247
0.000246
0.001705
0.000372
0.000209
0.000204
0.000261
0.000247
0.000255
0.000262
0.000261
0.000261
0.000275
0.000262
0.000275
0.000347
0.000198
0.000240
0.000065
0.000284
0.000349
0.001294
0.000202
0.000222
0.000225
0.000261
0.000251
0.000255
0.000259
0.000230
0.000421
0.000350
0.000468
0.000251
0.000209
0.000240
0.000242
0.000267
0.000260
0.000241
0.000271
0.000268
0.000279
0.000286
0.000465
0.000354
0.000339
0.000252
0.000264
0.000193
0.000068
0.000214
0.000232
0.000241
0.000247
0.000251
0.000233
0.000217
0.000371
0.000428
0.000451
0.001060
0.000216
0.000223
0.000270
0.000275
0.000260
0.000248
0.000263
0.000350
0.000474
0.000311
0.000261
0.000211
0.000253
0.000261
0.000278
0.000268
0.000304
0.000287
0.000261
0.000195
0.000066
0.000236
0.000449
0.000369
0.000232
0.000212
0.000213
0.000237
0.000260
0.000271
0.000255
0.000221
0.000535
0.000358
0.000411
0.000461
0.001435
0.000229
0.000272
0.000348
0.000340
0.000459
0.000564
0.000500
0.000200
0.000226
0.000263
0.000256
0.000279
0.000276
0.000266
0.000212
0.000079
0.000182
0.000302
0.000420
0.000469
0.000333
0.000208
0.000247
0.000247
0.000232
0.000260
0.000256
0.000263
0.000264
0.000250
0.000268
0.000299
0.000375
0.000456
0.000318
0.001318
0.000273
0.000249
0.000248
0.000529
0.000367
0.000329
0.000383
0.000231
0.000233
0.000277
0.000208
0.000066
0.000175
0.000232
0.000247
0.000236
0.000271
0.000290
0.000537
0.000267
0.000353
0.000240
0.000235
0.000246
0.000268
0.000261
0.000271
0.000257
0.000283
0.000236
0.000303
0.000239
0.000564
0.000398
0.000336
0.001341
0.000350
0.000244
0.000342
0.000508
0.000331
0.000391
0.000274
0.000065
0.000187
0.000219
0.000253
0.000237
0.000246
0.000250
0.001739
0.000226
0.000213
0.000221
0.000259
0.000245
0.000323
0.000325
0.000328
0.000274
0.000269
0.000300
0.000551
0.000387
0.000337
0.000219
0.000208
0.000231
0.001490
0.000522
0.000313
0.000432
0.000311
0.000280
0.000169
0.000079
0.000200
0.000239
0.000246
0.000265
0.000249
0.000239
0.001782
0.000212
0.000225
0.000339
0.000379
0.000386
0.001418
0.000296
0.000413
0.000215
0.000210
0.000240
0.000273
0.000256
0.001652
0.000636
0.000290
0.000287
0.000216
0.000229
0.000236
0.000280
0.000251
0.000260
0.000216
0.000068
0.000211
0.000205
0.000255
0.000252
0.000265
0.000292
0.000251
0.000259
0.000246
0.000253
0.000255
0.000258
0.000254
0.000279
0.000247
0.001481
0.000311
0.000215
0.000267
0.000270
0.000275
0.000256
0.000478
0.001219
0.000266
0.000253
0.000262
0.000256
0.000462
0.000215
0.000185
0.000064
0.000191
0.000219
0.000233
0.000239
0.000241
0.000233
0.000249
0.001744
0.000211
0.000239
0.000246
0.000334
0.000238
0.000229
0.001440
0.000241
0.000234
0.000218
0.000259
0.000253
0.000249
0.000338
0.000310
0.001356
0.000274
0.000226
0.000232
0.000253
0.001388
0.000273
0.000243
0.000081
0.000243
0.000343
0.000198
0.000213
0.000253
0.000284
0.000218
0.000266
0.000268
0.000243
0.000279
0.000260
0.000262
0.000242
0.000308
0.001473
0.000271
0.000256
0.000256
0.000249
0.000280
0.000262
0.000273
0.001506
0.000309
0.000270
0.000272
0.001323
0.000240
0.000216
0.000257
0.000066
0.000208
0.000342
0.000357
0.000208
0.000228
0.000263
0.000240
0.000252
0.000266
0.000271
0.000241
0.000247
0.000259
0.000279
0.000463
0.001228
0.000228
0.000227
0.000235
0.000277
0.000232
0.000245
0.000251
0.001284
0.000388
0.000223
0.000232
0.000241
0.000263
0.001334
0.000369
0.000065
0.000229
0.000231
0.000228
0.000210
0.000237
0.000253
0.000248
0.000236
0.000283
0.000245
0.000248
0.000244
0.000367
0.000198
0.000447
0.001454
0.000250
0.000235
0.000283
0.000505
0.000314
0.000374
0.001349
0.000292
0.000259
0.000269
0.001262
0.000350
0.000331
0.000450
0.000368
0.000065
0.000200
0.000234
0.000251
0.000299
0.000214
0.000255
0.000265
0.000250
0.000264
0.000256
0.000488
0.000365
0.001341
0.000222
0.000213
0.000255
0.000283
0.000266
0.000230
0.000245
0.000314
0.001300
0.000246
0.000211
0.000242
0.000276
0.001381
0.000534
0.000469
0.000248
0.000196
0.000065
0.000212
0.000201
0.000264
0.000224
0.000228
0.000268
0.000243
0.000322
0.000415
0.000450
0.000297
0.001449
0.000256
0.000211
0.000262
0.000253
0.000253
0.000296
0.001638
0.000345
0.000336
0.000362
0.001423
0.000308
0.000270
0.000346
0.000226
0.000220
0.000257
0.000267
0.000198
0.000066
0.000222
0.000206
0.000307
0.000286
0.000241
0.000618
0.000249
0.000345
0.001481
0.000295
0.000327
0.000249
0.000238
0.000342
0.000286
0.001387
0.000261
0.000216
0.000228
0.000243
0.000313
0.001570
0.000379
0.000258
0.000237
0.000222
0.000530
0.000299
0.000266
0.000201
0.000246
0.000065
0.000380
0.000242
0.000356
0.000243
0.000232
0.001448
0.000269
0.000206
0.000255
0.000268
0.000269
0.000245
0.000305
0.001482
0.000272
0.000227
0.000433
0.001290
0.000374
0.000436
0.000250
0.000240
0.000257
0.000259
0.000273
0.000252
0.000452
0.000228
0.000255
0.000272
0.000212
0.000065
0.000207
0.000223
0.000409
0.001407
0.000257
0.000223
0.000299
0.000253
0.000255
0.000241
0.000249
0.000356
0.001536
0.000206
0.000221
0.000249
0.001343
0.000460
0.000421
0.000389
0.000305
0.000223
0.000222
0.000252
0.000400
0.000192
0.000245
0.000282
0.000215
0.000247
0.000234
0.000068
0.000206
0.000375
0.001448
0.000226
0.000249
0.000269
0.000253
0.000242
0.000336
0.000380
0.001323
0.000258
0.000297
0.000229
0.000238
0.001375
0.000622
0.000289
0.000320
0.000410
0.000314
0.000227
0.000254
0.000227
0.000267
0.000284
0.000278
0.000307
0.000540
0.000353
0.001402
0.000064
0.000200
0.000224
0.000232
0.000216
0.000260
0.000547
0.000373
0.001338
0.000207
0.000201
0.000271
0.001403
0.000548
0.000213
0.000471
0.000246
0.000211
0.000217
0.000250
0.000279
0.000300
0.000206
0.000278
0.000258
0.000251
0.000361
0.000428
0.000444
0.001467
0.000269
0.000185
0.000066
0.000180
0.000227
0.000363
0.000599
0.001168
0.000290
0.000252
0.000286
0.000214
0.000245
0.000253
0.000329
0.000287
0.000602
0.000262
0.000217
0.000254
0.000278
0.000244
0.000270
0.000270
0.000287
0.000231
0.000259
0.000256
0.000415
0.000492
0.000324
0.000323
0.001459
0.000170
0.000067
0.000200
0.000209
0.000390
0.000357
0.000346
0.000298
0.000306
0.000329
0.000263
0.000272
0.000256
0.000262
0.000274
0.000289
0.000236
0.000301
0.000549
0.000290
0.000294
0.000385
0.000287
0.000471
0.000237
0.000224
0.000220
0.000264
0.000246
0.000305
0.000390
0.000438
0.000308
0.000066
0.000217
0.001353
0.000338
0.000274
0.000434
0.000412
0.000367
0.000289
0.000211
0.000231
0.000262
0.000245
0.000257
0.000297
0.000248
0.000255
0.000270
0.001395
0.000261
0.000219
0.000240
0.000267
0.000272
0.000271
0.000284
0.000250
0.000272
0.000263
0.000377
0.000362
0.000333
0.000066
0.000290
0.000196
0.001417
0.000388
0.000269
0.000227
0.000213
0.000180
0.000252
0.000228
0.000272
0.000260
0.000258
0.000233
0.000268
0.000270
0.000243
0.000268
0.000245
0.000290
0.001403
0.000268
0.000231
0.000358
0.000205
0.000214
0.000261
0.000265
0.000278
0.000520
0.000350
0.000075
0.000197
0.000233
0.000366
0.000281
0.000244
0.000250
0.001550
0.000383
0.000281
0.000213
0.000218
0.000361
0.000314
0.000222
0.000234
0.000267
0.000228
0.000249
0.000265
0.000278
0.000596
0.000409
0.001142
0.000255
0.000224
0.000242
0.000256
0.000256
0.000271
0.000287
0.000402
0.000068
0.000215
0.000348
0.000205
0.000217
0.000236
0.000257
0.000238
0.000230
0.001496
0.000481
0.000369
0.000269
0.000212
0.000217
0.000258
0.000245
0.000260
0.000273
0.000261
0.000309
0.000321
0.000609
0.000351
0.001316
0.000258
0.000252
0.000260
0.000258
0.000275
0.000297
0.000554
0.000140
0.000194
0.000236
0.000223
0.000238
0.000229
0.000234
0.000258
0.000245
0.000276
0.001563
0.000360
0.000264
0.000254
0.000255
0.000460
0.000308
0.000398
0.000468
0.000326
0.000416
0.000445
0.000415
0.001269
0.000246
0.000207
0.000237
0.001781
0.000464
0.000530
0.000313
0.000152
0.000066
0.000206
0.000220
0.000225
0.000225
0.000246
0.000282
0.000334
0.000589
0.000380
0.000349
0.000312
0.000210
0.000216
0.000265
0.000265
0.000263
0.000267
0.000239
0.000255
0.000265
0.000315
0.000425
0.001285
0.000244
0.000237
0.000279
0.001883
0.000374
0.000387
0.000352
0.000165
0.000081
0.000227
0.000221
0.000241
0.001684
0.000258
0.000264
0.000224
0.000268
0.000252
0.000345
0.000376
0.000422
0.000349
0.000271
0.000345
0.000487
0.000307
0.001245
0.000247
0.000206
0.000235
0.000339
0.000407
0.000614
0.000507
0.000217
0.000227
0.000222
0.000261
0.000276
0.000214
0.000065
0.000183
0.000218
0.001469
0.000374
0.000225
0.000189
0.000253
0.000241
0.000240
0.000261
0.000236
0.000268
0.000269
0.000278
0.000264
0.000434
0.000427
0.000329
0.001341
0.000248
0.000248
0.000257
0.000255
0.000263
0.000350
0.000632
0.000361
0.000336
0.000279
0.000220
0.000381
0.000065
0.000197
0.000209
0.000270
0.000256
0.001576
0.000216
0.000253
0.000245
0.000253
0.000256
0.000249
0.000278
0.000248
0.000263
0.000350
0.000678
0.001387
0.000688
0.000240
0.000305
0.000245
0.000234
0.000234
0.000277
0.001758
0.000707
0.000268
0.000252
0.000265
0.000287
0.000220
0.000065
0.000199
0.000210
0.000237
0.000245
0.000252
0.000243
0.000252
0.000251
0.000242
0.000244
0.000289
0.000280
0.000248
0.000251
0.000257
0.000253
0.000302
0.001608
0.000626
0.000438
0.000332
0.000196
0.000231
0.000277
0.000301
0.000241
0.000274
0.000255
0.001567
0.000305
0.000303
0.000065
0.000195
0.000222
0.000259
0.000229
0.000258
0.000233
0.000255
0.000257
0.000235
0.000266
0.000296
0.000522
0.000318
0.000343
0.000225
0.000230
0.000254
0.001465
0.000729
0.000386
0.000313
0.000302
0.000222
0.000238
0.000271
0.000270
0.000231
0.000311
0.001475
0.000456
0.000193
0.000065
0.000189
0.000211
0.000244
0.000236
0.000245
0.000252
0.000245
0.000245
0.000269
0.000280
0.000424
0.000334
0.000281
0.000265
0.000221
0.000257
0.000264
0.000243
0.001660
0.000517
0.000487
0.000343
0.000224
0.000241
0.000269
0.000255
0.000261
0.000273
0.000292
0.001558
0.000156
0.000064
0.000189
0.000218
0.000226
0.000248
0.000253
0.000295
0.000359
0.000339
0.000444
0.000275
0.000338
0.000340
0.000347
0.000231
0.000232
0.000226
0.000276
0.000276
0.001408
0.000893
0.000268
0.000206
0.000486
0.000222
0.000210
0.000246
0.000308
0.000251
0.000275
0.000262
0.000487
0.000064
0.000243
0.000228
0.000213
0.000241
0.000238
0.000255
0.000237
0.000234
0.000253
0.000279
0.000238
0.000268
0.000448
0.000385
0.000526
0.000250
0.000225
0.000252
0.000265
0.000262
0.000309
0.000395
0.001280
0.001054
0.000248
0.000254
0.000250
0.000262
0.000278
0.000251
0.000213
0.000065
0.000227
0.001350
0.000253
0.000211
0.000210
0.000256
0.000241
0.000242
0.000232
0.000280
0.000243
0.000263
0.000276
0.000448
0.000305
0.000366
0.000360
0.000210
0.000270
0.000257
0.000273
0.000245
0.000246
0.000263
0.001457
0.000640
0.000371
0.000392
0.000390
0.000400
0.000172
0.000065
0.000202
0.000253
0.000438
0.001182
0.000251
0.000262
0.000240
0.000221
0.000263
0.000253
0.000276
0.000216
0.000279
0.000323
0.000590
0.000335
0.000231
0.000303
0.000263
0.000242
0.000221
0.000270
0.000237
0.000265
0.000268
0.001529
0.000748
0.000301
0.000278
0.000276
0.000220
0.000066
0.000199
0.000484
0.000193
0.000413
0.001280
0.000240
0.000207
0.000242
0.000205
0.000269
0.000233
0.000281
0.000209
0.000230
0.000280
0.000242
0.000270
0.000220
0.000255
0.000256
0.000263
0.000281
0.000330
0.000300
0.000233
0.000245
0.000266
0.001533
0.000218
0.000240
0.000161
0.000065
0.000202
0.000199
0.000304
0.000379
0.000324
0.000372
0.000353
0.000246
0.001498
0.000318
0.000202
0.000540
0.000342
0.000262
0.000444
0.000263
0.000204
0.000225
0.000256
0.000269
0.000285
0.000266
0.000254
0.000270
0.000273
0.000430
0.000418
0.000323
0.001522
0.000260
0.000171
0.000065
0.000233
0.000221
0.000257
0.000221
0.000250
0.000244
0.000257
0.000309
0.000436
0.002072
0.000217
0.000205
0.000243
0.000257
0.000266
0.000307
0.000253
0.000219
0.000304
0.000413
0.000360
0.000441
0.001511
0.000218
0.000256
0.000470
0.001769
0.000285
0.000256
0.001481
0.000201
0.000065
0.000297
0.000430
0.000444
0.000244
0.000268
0.000248
0.000217
0.000280
0.000248
0.000237
0.000259
0.000398
0.000351
0.000355
0.000471
0.000219
0.000241
0.001532
0.000492
0.001991
0.000352
0.000225
0.000211
0.001647
0.001942
0.000723
0.000263
0.000213
0.000330
0.000424
0.000398
0.000072
0.000197
0.000211
0.000252
0.000271
0.001461
0.001658
0.001081
0.000222
0.000272
0.001533
0.001970
0.000246
0.000333
0.000380
0.000374
0.000374
0.000363
0.000334
0.000267
0.000235
0.000248
0.000250
0.000302
0.001590
0.001231
0.001424
0.000271
0.000270
0.000242
0.000321
0.000550
0.000066
0.000207
0.000237
0.000215
0.000230
0.000237
0.000232
0.000262
0.000249
0.000258
0.000252
0.000238
0.000477
0.000430
0.000336
0.000311
0.000219
0.000221
0.000270
0.000266
0.000264
0.000254
0.001444
0.000416
0.000429
0.002075
0.000252
0.000301
0.000307
0.000502
0.000382
0.000159
0.000066
0.000226
0.000404
0.000347
0.000320
0.000223
0.000226
0.000236
0.000260
0.000239
0.000249
0.000240
0.000254
0.000259
0.001617
0.001408
0.001230
0.000275
0.000252
0.000197
0.000235
0.000287
0.000278
0.000248
0.000247
0.002276
0.000243
0.000196
0.000284
0.000326
0.000298
0.000243
0.000065
0.000198
0.000351
0.000636
0.000293
0.000232
0.000215
0.000227
0.000236
0.001890
0.001429
0.000264
0.000415
0.000374
0.000338
0.000252
0.000233
0.000230
0.000261
0.000261
0.000256
0.000280
0.000244
0.000483
0.000239
0.000261
0.000272
0.000253
0.000273
0.000277
0.000250
0.000221
0.000066
0.000167
0.000248
0.000239
0.000261
0.000227
0.000274
0.001527
0.001498
0.001319
0.000222
0.000208
0.000230
0.000251
0.000267
0.000253
0.000255
0.000259
0.002147
0.000215
0.000240
0.000249
0.000257
0.000244
0.000270
0.000266
0.000257
0.000272
0.000263
0.000264
0.000257
0.000190
0.000066
0.001495
0.000315
0.002397
0.000253
0.000298
0.000298
0.000253
0.000245
0.000263
0.000247
0.000249
0.000253
0.000233
0.000257
0.000264
0.000262
0.000253
0.000287
0.000233
0.000290
0.000250
0.000273
0.000276
0.000275
0.000242
0.000249
0.000257
0.000271
0.000277
0.000250
0.000399
0.000065
0.000201
0.002528
0.000339
0.000210
0.000212
0.000208
0.000245
0.000259
0.000250
0.000260
0.000516
0.000235
0.000356
0.000241
0.000217
0.002235
0.000211
0.000225
0.000253
0.000612
0.000268
0.000297
0.000225
0.000244
0.000268
0.000239
0.000260
0.000275
0.000280
0.001696
0.001187
0.000065
0.000221
0.000225
0.000353
0.000329
0.000340
0.000261
0.000217
0.000230
0.000254
0.000250
0.000264
0.000247
0.000240
0.000240
0.000282
0.000228
0.000382
0.000708
0.000240
0.000222
0.000249
0.000250
0.000287
0.000256
0.000238
0.000244
0.000270
0.000278
0.000248
0.000390
0.000346
0.000067
0.001111
0.000273
0.000275
0.000575
0.000219
0.000205
0.000213
0.000228
0.002203
0.000496
0.000457
0.000197
0.000199
0.000282
0.000349
0.000255
0.000275
0.000242
0.000267
0.000251
0.000231
0.000410
0.000590
0.000398
0.001800
0.001344
0.000509
0.000555
0.000220
0.000254
0.000213
0.000065
0.000277
0.000298
0.000257
0.000243
0.000229
0.000235
0.000239
0.000247
0.000256
0.000251
0.000251
0.000261
0.000243
0.000286
0.000317
0.000571
0.001872
0.001334
0.000414
0.000365
0.000448
0.000275
0.000227
0.000250
0.002235
0.000459
0.000367
0.000249
0.000271
0.000283
0.000210
0.000066
0.000193
0.000240
0.000245
0.000245
0.000229
0.000357
0.000423
0.000395
0.000240
0.000230
0.000220
0.000284
0.000230
0.002127
0.000364
0.000364
0.000223
0.000260
0.000244
0.000267
0.000258
0.002538
0.000244
0.000245
0.000250
0.000243
0.000267
0.000273
0.000268
0.000290
0.000201
0.000066
0.000261
0.000634
0.000313
0.000309
0.000221
0.000213
0.000196
0.000243
0.000264
0.000251
0.002126
0.000321
0.000244
0.000250
0.000216
0.000239
0.000270
0.000256
0.002269
0.000375
0.000228
0.000269
0.000270
0.000256
0.000254
0.000274
0.000266
0.000250
0.000264
0.000265
0.000197
0.000085
0.000181
0.000229
0.000279
0.000214
0.000218
0.000255
0.000247
0.000234
0.000232
0.002177
0.000246
0.000279
0.000222
0.000472
0.000205
0.000218
0.000263
0.000292
0.000256
0.000261
0.002019
0.000309
0.000346
0.000357
0.000470
0.000383
0.000270
0.000213
0.000278
0.000217
0.000202
0.000065
0.000200
0.000247
0.000226
0.000228
0.000372
0.000243
0.000203
0.002345
0.000233
0.000220
0.000202
0.000260
0.000251
0.000244
0.000293
0.002215
0.000514
0.000228
0.000244
0.000253
0.000286
0.000226
0.000278
0.000275
0.000279
0.000236
0.000288
0.000266
0.000268
0.000295
0.000166
0.000082
0.000174
0.002990
0.000253
0.000228
0.000238
0.000250
0.000261
0.000388
0.000288
0.000400
0.002102
0.000267
0.000285
0.000254
0.000335
0.000427
0.000424
0.000299
0.000225
0.000217
0.000253
0.000261
0.000272
0.000227
0.000241
0.000289
0.000255
0.000260
0.000479
0.000586
0.000245
0.000065
0.000195
0.000271
0.000269
0.000249
0.000200
0.000246
0.000250
0.001542
0.000296
0.002075
0.000521
0.000277
0.000454
0.000763
0.000297
0.000214
0.000203
0.000251
0.000262
0.000256
0.000263
0.000242
0.000260
0.000276
0.001806
0.001467
0.000307
0.000325
0.000252
0.000331
0.000387
0.000066
0.001936
0.000228
0.000225
0.000211
0.000289
0.000432
0.000368
0.000444
0.000198
0.000254
0.000224
0.000197
0.000249
0.000278
0.000247
0.000267
0.000272
0.000242
0.001895
0.000213
0.000211
0.000242
0.000268
0.000275
0.000281
0.000280
0.001498
0.000346
0.000221
0.000240
0.000169
0.000065
0.000203
0.000204
0.000239
0.000232
0.000286
0.000210
0.000343
0.000370
0.000349
0.000371
0.000205
0.000223
0.000334
0.000343
0.000357
0.000317
0.000218
0.000228
0.000261
0.000374
0.000476
0.000476
0.000216
0.000233
0.000269
0.000240
0.000254
0.000266
0.000303
0.000246
0.000212
0.000065
0.001388
0.000404
0.000252
0.002008
0.000258
0.000489
0.000298
0.000372
0.000204
0.000223
0.000271
0.000245
0.000248
0.000237
0.000289
0.000236
0.000467
0.000271
0.000492
0.000327
0.000321
0.000242
0.000242
0.000281
0.000338
0.000198
0.000233
0.000281
0.000310
0.000581
0.001346
0.000065
0.000191
0.000229
0.002048
0.000316
0.000283
0.000265
0.000261
0.000254
0.000256
0.000249
0.000235
0.000244
0.000257
0.000257
0.000264
0.000413
0.000645
0.001740
0.000270
0.000251
0.000256
0.000292
0.000388
0.000469
0.001486
0.000272
0.000368
0.002005
0.000239
0.000238
0.000196
0.000065
0.000174
0.000215
0.000238
0.000251
0.000211
0.000244
0.000247
0.000292
0.000367
0.000280
0.000397
0.000342
0.000331
0.000296
0.000224
0.000251
0.000267
0.000236
0.000262
0.000263
0.000292
0.000327
0.000234
0.000263
0.000275
0.001553
0.000374
0.000433
0.001877
0.000257
0.000172
0.000065
0.000198
0.000226
0.000234
0.000250
0.000451
0.000234
0.000257
0.000324
0.000424
0.000369
0.000204
0.000202
0.000272
0.000250
0.000281
0.000326
0.000439
0.000416
0.000249
0.000381
0.000608
0.000415
0.001545
0.000261
0.000241
0.002019
0.000364
0.000218
0.000226
0.000252
0.000203
0.000065
0.000206
0.000225
0.000228
0.000245
0.000251
0.000261
0.000258
0.000265
0.000282
0.000248
0.001847
0.000300
0.000391
0.000401
0.000406
0.000369
0.001475
0.000331
0.000209
0.000380
0.002136
0.000452
0.000258
0.000225
0.000235
0.000265
0.000504
0.000227
0.000258
0.000270
0.000213
0.000064
0.000291
0.000310
0.000381
0.000276
0.000223
0.000214
0.000250
0.000245
0.000267
0.000296
0.000231
0.000248
0.000277
0.000264
0.000405
0.000447
0.001246
0.000254
0.000435
0.001922
0.000314
0.000222
0.000218
0.000251
0.000249
0.000269
0.000266
0.000266
0.000246
0.000265
0.000222
0.000064
0.000292
0.000324
0.002071
0.000227
0.000287
0.000201
0.000205
0.000402
0.000435
0.001390
0.000348
0.000373
0.000315
0.001995
0.000242
0.000231
0.000264
0.000272
0.000263
0.000245
0.000277
0.000297
0.000263
0.000438
0.000441
0.000377
0.000351
0.002131
0.000585
0.000382
0.000476
0.000065
0.000184
0.000221
0.000231
0.002027
0.000189
0.000235
0.000222
0.000245
0.000235
0.000266
0.000241
0.000259
0.000250
0.000289
0.000552
0.000275
0.001317
0.000248
0.000259
0.000268
0.000239
0.000254
0.000268
0.000252
0.000351
0.000422
0.000474
0.000255
0.001676
0.000227
0.000148
0.000067
0.000198
0.000196
0.000239
0.000236
0.000241
0.000258
0.000250
0.000262
0.000252
0.000416
0.000405
0.001392
0.000215
0.000210
0.000214
0.000271
0.000252
0.000267
0.000448
0.000365
0.000366
0.000453
0.000257
0.001525
0.000261
0.000227
0.000290
0.000275
0.000268
0.000270
0.000205
0.000064
0.000214
0.000210
0.000250
0.000262
0.000257
0.000237
0.000244
0.000236
0.000254
0.000254
0.000247
0.000252
0.000262
0.000254
0.001578
0.000248
0.000223
0.000271
0.000335
0.000331
0.000363
0.000240
0.000235
0.000232
0.000266
0.000294
0.001425
0.000294
0.000223
0.000218
0.000174
0.000065
0.000210
0.000214
0.000261
0.000253
0.000280
0.000222
0.000228
0.000272
0.000210
0.000263
0.000242
0.000257
0.000242
0.000408
0.000326
0.000298
0.000278
0.001596
0.000327
0.000212
0.000225
0.000221
0.000263
0.000315
0.000447
0.000429
0.000400
0.000232
0.000240
0.001571
0.000195
0.000071
0.000350
0.000329
0.000422
0.000225
0.000205
0.000223
0.000238
0.000256
0.000261
0.000236
0.000243
0.000236
0.001493
0.000310
0.000298
0.000212
0.000240
0.000270
0.000257
0.000250
0.000257
0.000246
0.000247
0.000270
0.000271
0.000393
0.000549
0.000318
0.000240
0.000217
0.000191
0.000065
0.000203
0.000291
0.000516
0.000252
0.000361
0.000247
0.000231
0.000254
0.000256
0.000253
0.000250
0.000207
0.000258
0.000244
0.001334
0.000267
0.000226
0.000224
0.000270
0.000288
0.000240
0.000234
0.000253
0.000276
0.000238
0.000271
0.000315
0.000709
0.000431
0.000238
0.000177
0.000065
0.000195
0.001523
0.000282
0.000327
0.000514
0.000314
0.000210
0.000235
0.000283
0.000263
0.000233
0.000249
0.000263
0.000274
0.000269
0.001524
0.000244
0.000284
0.000264
0.000254
0.000272
0.000247
0.000259
0.000274
0.000260
0.000278
0.000378
0.000504
0.000302
0.000231
0.000159
0.000065
0.000201
0.000235
0.000227
0.001693
0.000504
0.000246
0.000209
0.000205
0.000246
0.000270
0.000276
0.000285
0.000223
0.000262
0.000227
0.000256
0.000542
0.001258
0.000218
0.000209
0.001551
0.000351
0.000563
0.000360
0.000281
0.000241
0.000254
0.000483
0.000228
0.000245
0.000232
0.000094
0.000195
0.000194
0.000205
0.000233
0.000251
0.000251
0.000250
0.000257
0.000260
0.000258
0.000224
0.000266
0.000329
0.000573
0.001560
0.001536
0.000400
0.000567
0.000209
0.000244
0.000243
0.000248
0.000252
0.000269
0.000246
0.000257
0.000275
0.000293
0.001594
0.000280
0.000153
0.000064
0.000216
0.000337
0.000342
0.000328
0.000259
0.000215
0.000202
0.000387
0.000405
0.001395
0.000353
0.001538
0.000400
0.000491
0.000396
0.000331
0.000342
0.000342
0.000286
0.000288
0.000236
0.000376
0.001526
0.000518
0.000248
0.000246
0.000261
0.000262
0.000264
0.000253
0.000210
0.000066
0.000180
0.000227
0.000254
0.000253
0.000246
0.001658
0.000966
0.000881
0.000244
0.000234
0.000266
0.000254
0.000257
0.000250
0.000257
0.000255
0.000261
0.000272
0.000260
0.000318
0.001456
0.000270
0.000253
0.000219
0.000234
0.000255
0.000253
0.000299
0.000244
0.000287
0.000272
0.000066
0.000218
0.000187
0.001548
0.000945
0.000339
0.000335
0.000221
0.000216
0.000259
0.000238
0.000246
0.000257
0.000257
0.002020
0.000474
0.000215
0.000235
0.000227
0.000247
0.000267
0.000204
