0.000212
0.020002
0.001574
0.000326
0.000267
0.000280
0.000308
0.000242
0.000337
0.000279
0.000257
0.000348
0.000575
0.000389
0.000349
0.000398
0.000269
0.000376
0.000384
0.000364
0.000316
0.001918
0.000699
0.000257
0.000257
0.000309
0.000301
0.000370
0.000445
0.000307
0.000497
0.000299
0.000059
0.000209
0.000255
0.000268
0.000265
0.000276
0.000247
0.000278
0.000260
0.000268
0.000298
0.000423
0.000502
0.000267
0.000250
0.000409
0.000291
0.000365
0.000251
0.000256
0.001705
0.000313
0.000249
0.000461
0.000249
0.000277
0.000271
0.000289
0.000295
0.000281
0.000341
0.000470
0.000058
0.000247
0.000252
0.000265
0.000259
0.000251
0.000244
0.000255
0.000258
0.000292
0.001663
0.000226
0.000237
0.000272
0.000272
0.000276
0.000254
0.000263
0.000252
0.000355
0.001803
0.000234
0.000282
0.000441
0.000516
0.000306
0.000248
0.000243
0.000517
0.000467
0.000753
0.000193
0.000060
0.000212
0.000245
0.000252
0.000242
0.000295
0.000253
0.000320
0.000522
0.000398
0.000283
0.000235
0.000244
0.000250
0.000248
0.000257
0.000258
0.000244
0.000267
0.000292
0.000333
0.001674
0.000274
0.000269
0.000393
0.000265
0.000733
0.000649
0.000536
0.000345
0.000250
0.000189
0.000057
0.000215
0.000253
0.000264
0.000237
0.000256
0.000254
0.000255
0.000500
0.001438
0.000225
0.000247
0.000246
0.000256
0.000250
0.000266
0.000287
0.000526
0.000530
0.001414
0.000275
0.000453
0.000261
0.000236
0.000217
0.000258
0.000258
0.000272
0.000265
0.000260
0.000267
0.000191
0.000057
0.000207
0.000247
0.000246
0.000267
0.000232
0.000248
0.000242
0.000251
0.000237
0.000258
0.001620
0.000274
0.000232
0.000264
0.000237
0.000247
0.000243
0.000251
0.000252
0.000254
0.000270
0.001668
0.000286
0.000263
0.000420
0.000261
0.000259
0.000256
0.000260
0.000276
0.000193
0.000056
0.000208
0.000230
0.000249
0.000245
0.000246
0.000245
0.000260
0.000236
0.000267
0.000238
0.000263
0.000276
0.000243
0.000272
0.001635
0.000276
0.000288
0.000222
0.000253
0.000274
0.000268
0.000258
0.000223
0.000271
0.001794
0.000342
0.000384
0.000356
0.000249
0.000279
0.000198
0.000057
0.000207
0.000235
0.000248
0.000265
0.000259
0.000235
0.000278
0.000412
0.000444
0.000405
0.000207
0.000246
0.000251
0.000250
0.001555
0.000529
0.000343
0.000415
0.000295
0.000234
0.000269
0.000277
0.000272
0.001723
0.000528
0.000446
0.000262
0.000244
0.000250
0.000261
0.000190
0.000057
0.000222
0.000227
0.000255
0.000265
0.000314
0.000453
0.000390
0.000277
0.000211
0.000254
0.000263
0.000236
0.000252
0.001692
0.000504
0.000288
0.000234
0.000249
0.000272
0.000289
0.000241
0.000264
0.000271
0.001935
0.000267
0.000384
0.000254
0.000255
0.000263
0.000418
0.000326
0.000056
0.000218
0.000378
0.000344
0.000285
0.000260
0.000253
0.000248
0.000259
0.000242
0.000237
0.000230
0.000254
0.001542
0.000393
0.000271
0.000241
0.000258
0.000253
0.000244
0.000276
0.000279
0.000330
0.000243
0.001805
0.000263
0.000487
0.000251
0.000259
0.000253
0.000272
0.000250
0.000056
0.000344
0.000579
0.000607
0.000213
0.000230
0.000280
0.000229
0.000219
0.000263
0.000248
0.000257
0.001697
0.000257
0.000446
0.000361
0.000214
0.000239
0.000228
0.000254
0.000255
0.000256
0.001860
0.000255
0.000227
0.002064
0.000526
0.000367
0.000246
0.000259
0.000281
0.000167
0.000055
0.000187
0.000241
0.000245
0.000241
0.000292
0.001577
0.000258
0.000230
0.000277
0.000233
0.000244
0.000245
0.000248
0.000253
0.000270
0.000520
0.000519
0.000260
0.000238
0.000268
0.000264
0.000253
0.000241
0.000429
0.000439
0.000266
0.000345
0.000750
0.000253
0.000264
0.000197
0.000055
0.000218
0.000236
0.000255
0.000256
0.000231
0.000242
0.000238
0.000387
0.000436
0.001723
0.000224
0.000246
0.000233
0.000250
0.000260
0.000274
0.000399
0.000511
0.000355
0.000236
0.000253
0.000308
0.000283
0.000247
0.000273
0.000432
0.000360
0.000625
0.000422
0.000460
0.000166
0.000057
0.000199
0.000259
0.000239
0.000222
0.000247
0.000240
0.000249
0.000245
0.000242
0.000341
0.000293
0.000439
0.001381
0.000250
0.000240
0.000254
0.000247
0.000263
0.000233
0.000254
0.000280
0.000463
0.000391
0.000272
0.000272
0.000254
0.000254
0.000276
0.000261
0.000266
0.000375
0.000057
0.000201
0.000250
0.000210
0.000343
0.000474
0.000431
0.000221
0.000265
0.000235
0.000258
0.000249
0.000234
0.000300
0.000250
0.000240
0.000495
0.000433
0.001610
0.000299
0.000232
0.000247
0.000266
0.000259
0.000233
0.000265
0.000474
0.000406
0.000371
0.000426
0.000244
0.000184
0.000056
0.000237
0.000430
0.000243
0.000211
0.000265
0.000295
0.000201
0.000603
0.000319
0.000333
0.000230
0.000269
0.000267
0.000238
0.000515
0.000350
0.000223
0.000270
0.000385
0.001635
0.000277
0.000245
0.000505
0.000245
0.000284
0.000277
0.000253
0.000396
0.000499
0.000383
0.000261
0.000057
0.000218
0.000237
0.000235
0.000245
0.000413
0.000304
0.000293
0.000229
0.000408
0.000451
0.000377
0.000255
0.000247
0.000240
0.000259
0.000269
0.000254
0.000254
0.000236
0.000343
0.000291
0.000287
0.001885
0.000243
0.000257
0.000261
0.000285
0.000354
0.000510
0.000576
0.000446
0.000056
0.000241
0.000330
0.000279
0.000430
0.000396
0.000199
0.000259
0.000352
0.000484
0.000372
0.000271
0.000244
0.000234
0.000275
0.000259
0.000233
0.000258
0.000277
0.000262
0.000258
0.000288
0.000401
0.000645
0.001329
0.000341
0.000521
0.000333
0.000245
0.000413
0.000422
0.000386
0.000057
0.000255
0.000376
0.000274
0.000202
0.000230
0.000258
0.000396
0.000239
0.000233
0.000523
0.000267
0.000454
0.000240
0.000257
0.000262
0.000249
0.000385
0.000380
0.000354
0.000222
0.000249
0.000515
0.000596
0.001579
0.000237
0.000455
0.000291
0.000219
0.000296
0.000428
0.000318
0.000056
0.000194
0.000233
0.000245
0.000247
0.000246
0.000246
0.000257
0.000334
0.000436
0.000357
0.000356
0.000413
0.000267
0.000578
0.000230
0.000250
0.000271
0.000270
0.000229
0.000354
0.000220
0.000249
0.000267
0.000491
0.000381
0.001685
0.000269
0.000237
0.000253
0.000271
0.000187
0.000056
0.000309
0.000447
0.000329
0.000226
0.000248
0.000246
0.000258
0.000238
0.000257
0.000252
0.000238
0.000232
0.000412
0.000523
0.000403
0.000272
0.000262
0.000249
0.000370
0.000367
0.000383
0.000326
0.000425
0.000356
0.000218
0.000255
0.000266
0.000275
0.001779
0.000257
0.000204
0.000057
0.000195
0.000221
0.000257
0.000270
0.000375
0.000539
0.000302
0.000219
0.000260
0.000257
0.000254
0.000247
0.000515
0.000455
0.000490
0.000277
0.000252
0.000279
0.000425
0.000460
0.000408
0.000337
0.000588
0.000347
0.000235
0.000257
0.000270
0.000242
0.000266
0.001713
0.000361
0.000058
0.000291
0.000327
0.000207
0.000234
0.000255
0.000251
0.000248
0.000497
0.000372
0.000298
0.000299
0.000294
0.000329
0.000753
0.000226
0.000241
0.000249
0.000252
0.000254
0.000263
0.000267
0.000270
0.000247
0.000261
0.000318
0.000413
0.000350
0.000354
0.000230
0.000260
0.000189
0.000056
0.000453
0.000361
0.000399
0.000258
0.000207
0.000249
0.000244
0.000256
0.000236
0.000226
0.000253
0.000277
0.000295
0.000394
0.000498
0.000526
0.000257
0.000330
0.000380
0.000374
0.000268
0.000220
0.000247
0.000262
0.001738
0.000261
0.001716
0.000943
0.000427
0.000298
0.000172
0.000057
0.000208
0.000238
0.000241
0.000236
0.000265
0.000244
0.000249
0.000255
0.000242
0.000299
0.000445
0.000364
0.000364
0.000383
0.000237
0.000247
0.000245
0.000296
0.000223
0.000247
0.000260
0.000254
0.001810
0.000243
0.000252
0.000269
0.000278
0.000258
0.001876
0.000508
0.000291
0.000058
0.000195
0.000218
0.000230
0.000240
0.000255
0.000244
0.000242
0.000258
0.000253
0.000393
0.000482
0.000589
0.000214
0.000194
0.000238
0.000252
0.000372
0.000406
0.000362
0.000253
0.001771
0.000256
0.000246
0.000253
0.000251
0.000271
0.000245
0.000251
0.000332
0.000290
0.000443
0.000058
0.000253
0.000226
0.000238
0.000257
0.000242
0.000246
0.000259
0.000255
0.000241
0.000252
0.000242
0.000324
0.000298
0.000479
0.000296
0.000263
0.000485
0.000223
0.000247
0.000257
0.000258
0.000264
0.000273
0.000256
0.000275
0.001800
0.000238
0.000242
0.000267
0.000237
0.000200
0.000056
0.000256
0.000419
0.000200
0.000217
0.000239
0.000233
0.000244
0.000253
0.000247
0.000227
0.000231
0.000259
0.000260
0.000401
0.000358
0.000376
0.000284
0.000249
0.000250
0.000243
0.000265
0.000258
0.000249
0.000270
0.000254
0.000260
0.000331
0.001616
0.000267
0.000233
0.000192
0.000056
0.000203
0.000230
0.000251
0.000256
0.000350
0.000339
0.000437
0.000291
0.000247
0.000237
0.000251
0.000244
0.000247
0.000259
0.000258
0.000253
0.000248
0.000261
0.000249
0.000258
0.000269
0.000269
0.000249
0.000236
0.000252
0.000274
0.000278
0.000253
0.000261
0.000261
0.000187
0.000058
0.000221
0.000232
0.000254
0.000258
0.000234
0.000249
0.000251
0.000261
0.000280
0.000242
0.000236
0.000239
0.000255
0.000250
0.000266
0.000262
0.000256
0.000255
0.000295
0.000252
0.000275
0.000288
0.000272
0.000263
0.000263
0.000271
0.000273
0.000256
0.000268
0.000422
0.000634
0.000057
0.000235
0.000279
0.000219
0.000232
0.000246
0.000242
0.000242
0.000250
0.000253
0.000242
0.000263
0.000308
0.000478
0.000466
0.001541
0.000246
0.000475
0.000243
0.000303
0.000423
0.000475
0.000314
0.000237
0.000278
0.000252
0.000266
0.000277
0.000250
0.000307
0.000260
0.000192
0.000058
0.000355
0.000423
0.000413
0.000233
0.000226
0.000252
0.000250
0.000244
0.000234
0.000246
0.000250
0.000260
0.000234
0.000287
0.000321
0.000565
0.000341
0.001802
0.000226
0.000255
0.000402
0.000343
0.000458
0.000300
0.000317
0.000323
0.000301
0.000226
0.000232
0.000264
0.000182
0.000057
0.000223
0.000227
0.000236
0.000282
0.000343
0.000527
0.000282
0.000257
0.000256
0.000217
0.000243
0.000270
0.000271
0.000260
0.000246
0.000254
0.000362
0.000435
0.000323
0.000454
0.000231
0.001752
0.000330
0.000490
0.000487
0.000483
0.000329
0.000220
0.000258
0.000271
0.000443
0.000057
0.000200
0.000246
0.000235
0.000344
0.000454
0.000445
0.000300
0.000223
0.000238
0.000293
0.000241
0.000262
0.000255
0.000291
0.000306
0.000237
0.000243
0.000370
0.000525
0.000293
0.000495
0.001846
0.000248
0.000520
0.000459
0.000324
0.000225
0.000262
0.000293
0.000254
0.000205
0.000058
0.000243
0.000327
0.000352
0.000333
0.000452
0.000208
0.000380
0.000209
0.000245
0.000265
0.000270
0.000227
0.000249
0.000261
0.000262
0.000236
0.000317
0.000348
0.000534
0.000369
0.000299
0.000228
0.000268
0.001715
0.000408
0.000552
0.000651
0.000240
0.000264
0.000308
0.000158
0.000057
0.000209
0.000237
0.000338
0.000234
0.000259
0.000366
0.000451
0.000296
0.000228
0.000529
0.000237
0.000251
0.000259
0.000277
0.000272
0.000283
0.000203
0.000328
0.000511
0.000412
0.000265
0.000229
0.000257
0.000249
0.000265
0.000268
0.000240
0.000250
0.000267
0.000308
0.000202
0.000059
0.000297
0.000338
0.000229
0.000258
0.000248
0.000257
0.000240
0.000294
0.000241
0.000238
0.000261
0.000358
0.000419
0.000425
0.000332
0.000259
0.000235
0.000228
0.000257
0.000270
0.000288
0.000258
0.000239
0.000260
0.000280
0.000307
0.000367
0.000463
0.000318
0.000233
0.000179
0.000056
0.000215
0.000226
0.000277
0.000246
0.000246
0.000243
0.000256
0.000256
0.000493
0.000208
0.000262
0.000248
0.000254
0.000260
0.000276
0.000269
0.000267
0.000348
0.000215
0.000251
0.000257
0.000268
0.000271
0.000251
0.000269
0.000267
0.000265
0.000253
0.000514
0.000245
0.000154
0.000057
0.000212
0.000234
0.000249
0.000269
0.000218
0.000250
0.000365
0.000405
0.000237
0.000237
0.000250
0.000254
0.000235
0.000275
0.000364
0.001858
0.000227
0.000266
0.000293
0.000393
0.000362
0.000344
0.000352
0.000379
0.000424
0.000399
0.000236
0.000267
0.000268
0.000274
0.001376
0.000055
0.000190
0.000285
0.000272
0.000225
0.000241
0.000249
0.000234
0.000257
0.000240
0.000268
0.000247
0.000260
0.000252
0.000357
0.000473
0.001630
0.000248
0.000230
0.000248
0.000263
0.000236
0.000271
0.000392
0.000364
0.000288
0.000349
0.000223
0.000288
0.000257
0.000265
0.000179
0.000056
0.001176
0.000626
0.000250
0.000270
0.000243
0.000217
0.000236
0.000242
0.000487
0.000215
0.000243
0.000251
0.000405
0.000462
0.000385
0.000359
0.000240
0.000235
0.000363
0.000328
0.000279
0.000248
0.000270
0.000246
0.000267
0.000627
0.000529
0.000245
0.000252
0.000267
0.000166
0.000058
0.000188
0.000222
0.000244
0.000246
0.001571
0.000190
0.000226
0.000256
0.000237
0.000248
0.000274
0.000236
0.000244
0.000261
0.000273
0.000286
0.000450
0.000632
0.000267
0.001754
0.000269
0.000254
0.000281
0.000430
0.000594
0.000370
0.000260
0.000250
0.000258
0.000274
0.000195
0.000058
0.000238
0.000223
0.000235
0.000312
0.001255
0.000238
0.000258
0.000259
0.000242
0.000236
0.000237
0.000247
0.000281
0.000250
0.000248
0.000310
0.000469
0.000476
0.000240
0.000264
0.000267
0.000266
0.000251
0.000239
0.000296
0.000247
0.000244
0.000276
0.000268
0.000369
0.000565
0.000057
0.000221
0.000252
0.000237
0.000261
0.000265
0.000243
0.000245
0.000249
0.000268
0.000254
0.001428
0.000236
0.000237
0.000250
0.000244
0.000246
0.000267
0.000275
0.000249
0.000267
0.000304
0.000450
0.000534
0.000319
0.000222
0.000278
0.001766
0.000250
0.000256
0.000311
0.000489
0.000056
0.000219
0.000414
0.000411
0.000504
0.000517
0.000647
0.001387
0.000412
0.000529
0.000649
0.000554
0.000787
0.000444
0.000585
0.000581
0.001901
0.000368
0.000467
0.000399
0.000317
0.000227
0.000309
0.000248
0.000260
0.000261
0.000293
0.000278
0.000294
0.000262
0.000286
0.001371
0.000056
0.000219
0.000222
0.000244
0.000241
0.000257
0.000258
0.000235
0.000239
0.000251
0.000258
0.000228
0.000245
0.000253
0.000262
0.000261
0.000273
0.001870
0.000224
0.000229
0.000251
0.000257
0.000262
0.000269
0.000319
0.000469
0.000367
0.000308
0.000221
0.000299
0.000240
0.000214
0.000058
0.000187
0.001358
0.000336
0.000261
0.000257
0.000241
0.000245
0.000256
0.000218
0.000242
0.000214
0.000240
0.000247
0.000505
0.000368
0.000279
0.000267
0.000258
0.001944
0.000221
0.000239
0.000264
0.000255
0.000264
0.000276
0.000279
0.000271
0.000253
0.000267
0.000317
0.000200
0.000062
0.000203
0.000241
0.000248
0.001434
0.000240
0.000235
0.000252
0.000242
0.000234
0.000267
0.000266
0.000235
0.000245
0.000252
0.000268
0.000247
0.000270
0.000262
0.000267
0.000260
0.000263
0.001775
0.000284
0.001743
0.000263
0.000248
0.000271
0.000268
0.000264
0.000283
0.000196
0.000058
0.000193
0.000250
0.001332
0.000218
0.000257
0.000258
0.000260
0.000252
0.000241
0.000255
0.000250
0.000243
0.000260
0.000265
0.000256
0.000261
0.000263
0.000288
0.000291
0.000230
0.001890
0.000223
0.001838
0.000246
0.000255
0.000268
0.000235
0.000250
0.000256
0.000273
0.000193
0.000057
0.001440
0.000234
0.000224
0.000248
0.000239
0.000239
0.000374
0.000261
0.000255
0.000252
0.000253
0.000290
0.000215
0.000383
0.000350
0.000316
0.000238
0.000258
0.000269
0.000246
0.000276
0.000341
0.000225
0.000253
0.000270
0.000277
0.000274
0.000373
0.000596
0.000369
0.000185
0.000059
0.000203
0.000250
0.000285
0.000275
0.000376
0.000254
0.001681
0.000315
0.000281
0.000269
0.000245
0.000301
0.000263
0.000267
0.000266
0.000310
0.000341
0.000606
0.000338
0.000278
0.000296
0.000271
0.000256
0.000265
0.000345
0.000288
0.000231
0.000254
0.000264
0.000291
0.000523
0.000058
0.000259
0.000467
0.000269
0.000266
0.000249
0.000230
0.000222
0.000249
0.000261
0.000250
0.001558
0.000190
0.000219
0.000254
0.000243
0.000287
0.000276
0.000235
0.000265
0.000267
0.000271
0.000460
0.000426
0.000337
0.000266
0.000285
0.000266
0.000260
0.000233
0.000332
0.000153
0.000056
0.000206
0.000224
0.000273
0.000477
0.000392
0.000254
0.000217
0.000248
0.000255
0.000247
0.000235
0.000255
0.000273
0.000246
0.000245
0.000229
0.000408
0.001199
0.000257
0.000244
0.000276
0.000246
0.000347
0.000436
0.000252
0.000279
0.000606
0.000363
0.000363
0.000238
0.000192
0.000057
0.000241
0.000243
0.000260
0.000263
0.000261
0.000240
0.000451
0.000306
0.000440
0.000276
0.000404
0.000349
0.000382
0.000357
0.000259
0.000250
0.000237
0.000260
0.000442
0.001378
0.000297
0.000229
0.000276
0.000272
0.000235
0.000233
0.000280
0.000286
0.000415
0.000502
0.000214
0.000056
0.000197
0.000242
0.000247
0.000235
0.000262
0.000239
0.000235
0.000260
0.000386
0.000199
0.000482
0.000388
0.000246
0.000240
0.000254
0.000252
0.000251
0.000263
0.000262
0.000252
0.000443
0.000281
0.000369
0.000434
0.000272
0.000265
0.000264
0.000268
0.000257
0.000337
0.000155
0.000057
0.000315
0.000316
0.000289
0.000404
0.000447
0.000341
0.000255
0.000251
0.000238
0.000274
0.000257
0.000261
0.000234
0.000256
0.000243
0.000228
0.000267
0.000461
0.000415
0.000323
0.000226
0.000278
0.000242
0.000249
0.000265
0.000285
0.000267
0.000258
0.000280
0.000268
0.000267
0.000058
0.000332
0.000300
0.000239
0.000245
0.000245
0.000250
0.000244
0.000249
0.000270
0.000256
0.000255
0.000234
0.000278
0.000498
0.000437
0.000289
0.000243
0.000249
0.000259
0.000264
0.000253
0.000266
0.000256
0.000269
0.000269
0.000302
0.000454
0.000584
0.000394
0.000265
0.000158
0.000055
0.000385
0.000204
0.000239
0.000244
0.000245
0.000251
0.000242
0.000246
0.000260
0.000258
0.000215
0.000248
0.000277
0.000222
0.000241
0.000269
0.000250
0.000265
0.000269
0.000259
0.000267
0.000258
0.000266
0.000259
0.000266
0.000239
0.000263
0.000276
0.000274
0.000265
0.000196
0.000056
0.000203
0.000236
0.000247
0.000251
0.000229
0.000257
0.000261
0.000240
0.000257
0.000282
0.000228
0.000228
0.000262
0.000400
0.000254
0.000275
0.000258
0.000272
0.000248
0.000284
0.000273
0.000239
0.000236
0.000260
0.000270
0.000270
0.000254
0.000249
0.000276
0.000261
0.000205
0.000056
0.000237
0.000328
0.000367
0.000282
0.000292
0.000269
0.000266
0.000256
0.000224
0.000254
0.000238
0.000266
0.000247
0.000236
0.000259
0.000265
0.000256
0.000273
0.000242
0.000257
0.000282
0.000263
0.000277
0.000257
0.000271
0.000269
0.000244
0.000268
0.000269
0.000260
0.000196
0.000057
0.000219
0.000235
0.000261
0.000264
0.000483
0.000212
0.000211
0.000248
0.000302
0.000445
0.000472
0.000291
0.000218
0.000250
0.000271
0.000265
0.000239
0.000293
0.000234
0.000273
0.000268
0.000252
0.000266
0.000296
0.000534
0.000489
0.000255
0.000302
0.000261
0.000270
0.000183
0.000059
0.000205
0.000219
0.000245
0.000254
0.000447
0.000497
0.000335
0.000382
0.000210
0.000246
0.000253
0.000252
0.000268
0.000231
0.000257
0.000275
0.000253
0.000267
0.000686
0.000411
0.000203
0.000255
0.000258
0.000283
0.000277
0.000269
0.000255
0.000267
0.000249
0.000340
0.000323
0.000057
0.000297
0.000229
0.000241
0.000240
0.000253
0.000251
0.000228
0.000265
0.000231
0.000257
0.000249
0.000245
0.000266
0.000356
0.000641
0.000368
0.000212
0.000261
0.000258
0.000245
0.000269
0.000271
0.000484
0.000230
0.000261
0.000589
0.000401
0.000508
0.000251
0.000253
0.000182
0.000057
0.000218
0.000256
0.000223
0.000239
0.000257
0.000256
0.000269
0.000457
0.000596
0.000425
0.000221
0.000260
0.000277
0.000275
0.000259
0.000247
0.000249
0.000238
0.000253
0.000340
0.000401
0.000636
0.000365
0.000268
0.000367
0.000370
0.000480
0.000246
0.000265
0.000461
0.000411
0.000056
0.000277
0.000231
0.000437
0.000223
0.000239
0.000252
0.000284
0.000233
0.000232
0.000243
0.000256
0.000421
0.000344
0.000356
0.000227
0.000244
0.000262
0.000253
0.000263
0.000277
0.000273
0.000251
0.000255
0.000270
0.000309
0.000489
0.000479
0.000246
0.000259
0.000269
0.000200
0.000057
0.000210
0.000252
0.000249
0.000224
0.000250
0.000275
0.000319
0.000374
0.000480
0.000302
0.000356
0.000226
0.000248
0.000264
0.000252
0.000243
0.000261
0.000253
0.000315
0.000349
0.000522
0.000309
0.000478
0.000293
0.000422
0.000387
0.000373
0.000251
0.000248
0.000326
0.000410
0.000056
0.000265
0.000282
0.000218
0.000256
0.000258
0.000261
0.000244
0.000246
0.000260
0.000260
0.000230
0.000351
0.000509
0.000313
0.000379
0.000225
0.000267
0.000261
0.000271
0.000231
0.000254
0.000247
0.000267
0.000291
0.000267
0.000333
0.000478
0.000476
0.000243
0.000281
0.000189
0.000056
0.000201
0.000247
0.000263
0.000240
0.000253
0.000339
0.000592
0.000385
0.000358
0.000684
0.000267
0.000217
0.000240
0.000263
0.000249
0.000265
0.000292
0.000265
0.000482
0.000503
0.001421
0.000301
0.000259
0.000259
0.000295
0.000272
0.000456
0.000341
0.000351
0.000335
0.000164
0.000057
0.000209
0.000232
0.000245
0.000245
0.000236
0.000257
0.000277
0.000267
0.000230
0.000339
0.000331
0.000381
0.000266
0.000387
0.000332
0.000340
0.000259
0.000239
0.000274
0.000257
0.000242
0.000256
0.000286
0.000235
0.000331
0.000434
0.000432
0.000305
0.000233
0.000266
0.000192
0.000058
0.000223
0.000245
0.000258
0.000256
0.000241
0.000237
0.000470
0.000215
0.000231
0.000253
0.000245
0.000252
0.000262
0.000256
0.000248
0.000270
0.000259
0.000266
0.000274
0.000258
0.000255
0.000287
0.000298
0.000245
0.000266
0.000276
0.000266
0.000268
0.000261
0.000276
0.000168
0.000056
0.000218
0.000269
0.000270
0.000432
0.000372
0.000258
0.000228
0.000248
0.000259
0.000246
0.000250
0.000253
0.000266
0.000264
0.000239
0.000243
0.000248
0.000266
0.000289
0.000325
0.000447
0.000399
0.000226
0.000266
0.000266
0.000252
0.000266
0.000255
0.000275
0.000298
0.000174
0.000057
0.000337
0.000386
0.000420
0.000217
0.000251
0.000251
0.000415
0.000227
0.000229
0.000254
0.000255
0.000342
0.000307
0.000426
0.001868
0.000257
0.000243
0.000251
0.000279
0.000253
0.000348
0.000516
0.000545
0.000269
0.000239
0.000253
0.000282
0.000425
0.000275
0.000279
0.000158
0.000074
0.000231
0.000323
0.000358
0.000319
0.000482
0.000205
0.000252
0.000239
0.000253
0.000243
0.000261
0.000245
0.000260
0.000356
0.000407
0.000443
0.000220
0.000247
0.000261
0.000263
0.000263
0.000312
0.000232
0.000280
0.000281
0.000442
0.000674
0.000231
0.000464
0.000239
0.000198
0.000056
0.000222
0.000231
0.000258
0.000225
0.000250
0.000254
0.000268
0.000270
0.000345
0.000357
0.000446
0.000358
0.000208
0.000256
0.000267
0.000309
0.000277
0.000235
0.000277
0.000276
0.000236
0.000334
0.000444
0.000372
0.000274
0.000258
0.000265
0.000465
0.000426
0.000306
0.000148
0.000057
0.000202
0.000236
0.000326
0.000406
0.000402
0.000209
0.000239
0.000263
0.000247
0.000258
0.000265
0.000254
0.000228
0.000256
0.000257
0.000291
0.000405
0.000352
0.000299
0.000345
0.000490
0.000227
0.000276
0.000279
0.000304
0.000281
0.000254
0.000281
0.000472
0.000543
0.000152
0.000058
0.000200
0.000229
0.000249
0.000248
0.000243
0.000475
0.000211
0.000259
0.000268
0.000411
0.000394
0.000610
0.000204
0.000242
0.000247
0.000247
0.000258
0.000251
0.000255
0.000253
0.000261
0.000265
0.000367
0.000452
0.000319
0.000412
0.000287
0.000355
0.000262
0.000268
0.000175
0.000056
0.000228
0.000231
0.000260
0.000499
0.000306
0.000290
0.000274
0.000212
0.000246
0.000270
0.000244
0.000248
0.000250
0.000266
0.000246
0.000268
0.000244
0.000249
0.000271
0.000458
0.000432
0.000398
0.000216
0.000252
0.000287
0.000265
0.000265
0.000255
0.000266
0.000268
0.000193
0.000055
0.000250
0.000398
0.000460
0.000243
0.000221
0.000256
0.000321
0.000452
0.000294
0.000213
0.000237
0.000274
0.000257
0.000381
0.000500
0.000281
0.000237
0.000240
0.000253
0.000270
0.000266
0.000263
0.000259
0.000277
0.000261
0.000341
0.000346
0.000458
0.000275
0.000249
0.000183
0.000057
0.000245
0.000237
0.000244
0.000252
0.000251
0.000262
0.000232
0.000257
0.000247
0.000247
0.000271
0.000232
0.000266
0.001444
0.000241
0.000253
0.000260
0.000243
0.000278
0.000274
0.000263
0.000241
0.000290
0.000236
0.000274
0.000262
0.000269
0.000274
0.000269
0.000262
0.000188
0.000056
0.000196
0.000231
0.000250
0.000252
0.000236
0.000248
0.000267
0.000249
0.000227
0.000245
0.000249
0.000264
0.000255
0.000254
0.000256
0.000264
0.000242
0.000258
0.000279
0.000249
0.000254
0.000260
0.000251
0.000251
0.001289
0.000270
0.000568
0.000448
0.000328
0.000250
0.000190
0.000073
0.000191
0.000236
0.000240
0.000253
0.000408
0.000253
0.000238
0.000232
0.000256
0.000353
0.000474
0.000324
0.000228
0.000255
0.000250
0.000251
0.000256
0.000262
0.000270
0.000235
0.000262
0.000257
0.000254
0.000531
0.000425
0.000445
0.000213
0.000269
0.001360
0.000253
0.000178
0.000056
0.000331
0.000387
0.000320
0.000253
0.000238
0.000231
0.000234
0.000245
0.000262
0.000254
0.000250
0.000261
0.000267
0.000299
0.000571
0.000346
0.000334
0.000220
0.000256
0.000255
0.000266
0.000263
0.000268
0.000265
0.000271
0.000261
0.000285
0.000584
0.000374
0.000374
0.000145
0.000056
0.000214
0.000218
0.001262
0.000433
0.000281
0.000497
0.000345
0.000495
0.000285
0.000334
0.000220
0.000231
0.000259
0.000252
0.000246
0.000268
0.000427
0.000458
0.000327
0.000386
0.000254
0.000256
0.000259
0.000494
0.000236
0.000265
0.000259
0.000281
0.000291
0.000568
0.000278
0.000056
0.000395
0.000332
0.000207
0.000216
0.001602
0.000494
0.000219
0.000255
0.000252
0.000247
0.000230
0.000239
0.000245
0.000268
0.000250
0.000261
0.000237
0.000259
0.000384
0.000444
0.000433
0.000236
0.000258
0.000266
0.000255
0.000287
0.000256
0.000237
0.000262
0.000276
0.000189
0.000057
0.000394
0.000318
0.000234
0.000231
0.000251
0.000241
0.000266
0.000231
0.000232
0.000230
0.001384
0.000509
0.000248
0.000256
0.000227
0.000256
0.000278
0.000263
0.000248
0.000260
0.000275
0.000249
0.000268
0.000396
0.000538
0.000346
0.000235
0.000268
0.000274
0.000283
0.000177
0.000056
0.000209
0.000404
0.000224
0.000236
0.000419
0.000365
0.000377
0.000314
0.000459
0.000210
0.000230
0.000254
0.000261
0.000266
0.000258
0.001464
0.000307
0.000290
0.000249
0.000265
0.000282
0.000239
0.000258
0.000275
0.000242
0.000269
0.000363
0.000534
0.000289
0.000272
0.000158
0.000056
0.000225
0.000234
0.000257
0.000232
0.000223
0.000265
0.000245
0.000250
0.000280
0.000422
0.000424
0.000243
0.000252
0.000247
0.000245
0.000270
0.000278
0.000257
0.000269
0.000235
0.000258
0.000303
0.001261
0.000262
0.000251
0.000248
0.000256
0.000271
0.000252
0.000263
0.000188
0.000082
0.000228
0.000299
0.000347
0.000386
0.000228
0.000240
0.000257
0.000265
0.000252
0.000251
0.000251
0.000275
0.000238
0.000280
0.000254
0.000244
0.000262
0.000272
0.000264
0.000248
0.000250
0.000276
0.000262
0.000284
0.000287
0.000269
0.000268
0.000254
0.000259
0.000445
0.001358
0.000056
0.000193
0.000233
0.000237
0.000240
0.000255
0.000259
0.000245
0.000230
0.000262
0.000233
0.000278
0.000251
0.000249
0.000243
0.000269
0.000226
0.001724
0.000268
0.000244
0.000251
0.000251
0.000260
0.000272
0.000259
0.000271
0.000259
0.000265
0.000275
0.000271
0.000263
0.000220
0.000057
0.000328
0.000291
0.001293
0.000224
0.000236
0.000249
0.000250
0.000252
0.000260
0.000257
0.000230
0.000364
0.000397
0.000422
0.000281
0.000226
0.000250
0.000256
0.000256
0.000266
0.000243
0.000267
0.000263
0.000288
0.000260
0.000409
0.000350
0.000369
0.000314
0.000243
0.000190
0.000057
0.000228
0.000248
0.000246
0.000249
0.000251
0.000220
0.000238
0.000247
0.000445
0.001327
0.000263
0.000213
0.000251
0.000274
0.000246
0.000266
0.000261
0.000248
0.000314
0.000399
0.000419
0.000252
0.000233
0.000247
0.000276
0.000275
0.000267
0.000298
0.000266
0.000278
0.000191
0.000056
0.000254
0.000428
0.000374
0.000223
0.000233
0.000234
0.000246
0.000277
0.000264
0.000248
0.000224
0.000256
0.000457
0.000554
0.000432
0.001437
0.000245
0.000281
0.000325
0.000341
0.000485
0.000423
0.000453
0.000410
0.000227
0.000266
0.000266
0.000274
0.000266
0.000266
0.000205
0.000057
0.000201
0.000236
0.000479
0.000597
0.000233
0.000234
0.000242
0.000239
0.000242
0.000259
0.000245
0.000265
0.000269
0.000236
0.000271
0.000356
0.000275
0.000452
0.000371
0.001323
0.000269
0.000253
0.000250
0.000263
0.000508
0.000437
0.000344
0.000251
0.000272
0.000274
0.000190
0.000058
0.000197
0.000243
0.000244
0.000242
0.000252
0.000298
0.000426
0.000457
0.000320
0.000221
0.000222
0.000257
0.000274
0.000257
0.000261
0.000262
0.000263
0.000252
0.000269
0.000311
0.000428
0.000443
0.000314
0.001339
0.000422
0.000235
0.000269
0.000433
0.000496
0.000281
0.000342
0.000057
0.000198
0.000231
0.000243
0.000250
0.000247
0.000258
0.001674
0.000238
0.000223
0.000241
0.000261
0.000251
0.000253
0.000330
0.000324
0.000315
0.000248
0.000312
0.000471
0.000418
0.000313
0.000276
0.000233
0.001412
0.000349
0.000333
0.000396
0.000524
0.000298
0.000276
0.000166
0.000057
0.000201
0.000243
0.000252
0.000266
0.000242
0.000254
0.001706
0.000253
0.000234
0.000262
0.000329
0.000466
0.001391
0.000412
0.000329
0.000256
0.000246
0.000240
0.000270
0.000264
0.001530
0.000568
0.000391
0.000295
0.000254
0.000245
0.000259
0.000282
0.000243
0.000252
0.000193
0.000057
0.000198
0.000242
0.000271
0.000243
0.000254
0.000291
0.000266
0.000266
0.000238
0.000257
0.000267
0.000234
0.000261
0.000267
0.000254
0.001496
0.000277
0.000235
0.000268
0.000278
0.000269
0.000281
0.000411
0.001258
0.000275
0.000238
0.000276
0.000257
0.000392
0.000237
0.000212
0.000073
0.000200
0.000248
0.000220
0.000245
0.000237
0.000231
0.000237
0.001686
0.000259
0.000226
0.000255
0.000366
0.000229
0.000221
0.000259
0.001376
0.000238
0.000266
0.000268
0.000245
0.000262
0.000352
0.000271
0.001311
0.000280
0.000249
0.000257
0.000265
0.001382
0.000271
0.000218
0.000057
0.000324
0.000275
0.000208
0.000237
0.000254
0.000238
0.000266
0.000263
0.000271
0.000246
0.000262
0.000266
0.000250
0.000246
0.000306
0.001493
0.000259
0.000264
0.000262
0.000242
0.000286
0.000265
0.000245
0.001504
0.000341
0.000248
0.000265
0.001293
0.000250
0.000251
0.000213
0.000058
0.000219
0.000380
0.000339
0.000213
0.000239
0.000237
0.000266
0.000252
0.000269
0.000272
0.000259
0.000225
0.000262
0.000262
0.000490
0.001153
0.000228
0.000259
0.000268
0.000275
0.000231
0.000237
0.000249
0.000330
0.001270
0.000266
0.000242
0.000255
0.000258
0.001337
0.000335
0.000056
0.000320
0.000291
0.000199
0.000231
0.000234
0.000264
0.000234
0.000249
0.000278
0.000253
0.000249
0.000262
0.000246
0.000387
0.000330
0.001477
0.000214
0.000258
0.000301
0.000510
0.000289
0.000446
0.001286
0.000292
0.000246
0.000270
0.000251
0.001304
0.000348
0.000460
0.000306
0.000056
0.000211
0.000247
0.000255
0.000254
0.000257
0.000250
0.000273
0.000246
0.000263
0.000264
0.000359
0.000433
0.001347
0.000223
0.000253
0.000260
0.000282
0.000224
0.000251
0.000240
0.000374
0.001200
0.000256
0.000254
0.000256
0.000258
0.001485
0.000473
0.000448
0.000223
0.000198
0.000055
0.000204
0.000231
0.000246
0.000235
0.000253
0.000263
0.000245
0.000274
0.000412
0.000483
0.000273
0.001490
0.000224
0.000233
0.000266
0.000256
0.000286
0.000313
0.001632
0.000268
0.000405
0.000315
0.001325
0.000324
0.000302
0.000321
0.000282
0.000236
0.000264
0.000273
0.000190
0.000056
0.000221
0.000238
0.000335
0.000232
0.000415
0.000502
0.000233
0.000283
0.001475
0.000236
0.000388
0.000263
0.000218
0.000308
0.000432
0.001275
0.000272
0.000244
0.000243
0.000259
0.001529
0.000408
0.000308
0.000229
0.000250
0.000244
0.000459
0.000333
0.000230
0.000256
0.000260
0.000055
0.000266
0.000361
0.000340
0.000273
0.000203
0.001518
0.000216
0.000252
0.000269
0.000272
0.000268
0.000242
0.000313
0.001468
0.000262
0.000230
0.000428
0.001198
0.000304
0.000489
0.000385
0.000241
0.000240
0.000254
0.000274
0.000247
0.000446
0.000228
0.000269
0.000281
0.000191
0.000076
0.000204
0.000230
0.000382
0.000439
0.001219
0.000278
0.000308
0.000237
0.000241
0.000249
0.000255
0.000271
0.001537
0.000267
0.000221
0.000244
0.001389
0.000271
0.000470
0.000351
0.000423
0.000231
0.000254
0.000252
0.000266
0.000277
0.000277
0.000253
0.000264
0.000256
0.000189
0.000056
0.000230
0.000324
0.001502
0.000211
0.000273
0.000279
0.000241
0.000246
0.000280
0.000393
0.001365
0.000213
0.000254
0.000264
0.000266
0.001284
0.000694
0.000277
0.000340
0.000400
0.000286
0.000244
0.000271
0.000264
0.000266
0.000286
0.000279
0.000300
0.000418
0.000446
0.001380
0.000056
0.000209
0.000244
0.000245
0.000222
0.000246
0.000403
0.000544
0.001249
0.000241
0.000245
0.000246
0.001455
0.000348
0.000388
0.000231
0.000401
0.000255
0.000237
0.000267
0.000279
0.000234
0.000275
0.000282
0.000259
0.000253
0.000394
0.000332
0.000467
0.001498
0.000232
0.000190
0.000056
0.000220
0.000246
0.000397
0.000484
0.001255
0.000277
0.000248
0.000261
0.000247
0.000250
0.000255
0.000259
0.000380
0.000468
0.000351
0.000235
0.000255
0.000275
0.000246
0.000273
0.000251
0.000279
0.000253
0.000273
0.000281
0.000424
0.000455
0.000322
0.000316
0.001393
0.000177
0.000056
0.000203
0.000242
0.000311
0.000431
0.000321
0.000315
0.000306
0.000338
0.000270
0.000264
0.000252
0.000266
0.000251
0.000305
0.000235
0.000274
0.000563
0.000336
0.000287
0.000384
0.000275
0.000405
0.000231
0.000264
0.000245
0.000264
0.000254
0.000289
0.000343
0.000515
0.000294
0.000056
0.000211
0.001402
0.000242
0.000337
0.000521
0.000341
0.000403
0.000247
0.000221
0.000237
0.000266
0.000247
0.000261
0.000271
0.000263
0.000252
0.000266
0.001397
0.000219
0.000254
0.000258
0.000271
0.000270
0.000278
0.000271
0.000251
0.000279
0.000248
0.000338
0.000406
0.000373
0.000057
0.000210
0.000252
0.000218
0.001488
0.000326
0.000240
0.000233
0.000254
0.000224
0.000256
0.000245
0.000275
0.000247
0.000253
0.000270
0.000253
0.000248
0.000265
0.000263
0.000255
0.001446
0.000226
0.000249
0.000268
0.000258
0.000249
0.000265
0.000263
0.000276
0.000485
0.000353
0.000056
0.000213
0.000234
0.000397
0.000276
0.000253
0.000251
0.001530
0.000348
0.000302
0.000216
0.000257
0.000315
0.000335
0.000228
0.000232
0.000246
0.000247
0.000257
0.000264
0.000258
0.000509
0.000497
0.001106
0.000278
0.000236
0.000257
0.000267
0.000256
0.000272
0.000260
0.000374
0.000056
0.000293
0.000328
0.000216
0.000243
0.000247
0.000239
0.000244
0.000229
0.000288
0.001641
0.000392
0.000226
0.000243
0.000256
0.000256
0.000245
0.000257
0.000271
0.000281
0.000292
0.000306
0.000552
0.000381
0.001374
0.000231
0.000265
0.000270
0.000263
0.000267
0.000410
0.000462
0.000057
0.000279
0.000238
0.000236
0.000246
0.000223
0.000240
0.000264
0.000245
0.000275
0.001635
0.000284
0.000263
0.000260
0.000262
0.000459
0.000265
0.000531
0.000369
0.000301
0.000333
0.000448
0.000427
0.001291
0.000255
0.000240
0.000256
0.001740
0.000428
0.000602
0.000334
0.000135
0.000056
0.000197
0.000226
0.000242
0.000237
0.000256
0.000244
0.000245
0.000648
0.000328
0.000442
0.000278
0.000241
0.000229
0.000261
0.000264
0.000258
0.000272
0.000230
0.000258
0.000269
0.000261
0.000471
0.001311
0.000220
0.000266
0.000252
0.001900
0.000383
0.000374
0.000343
0.000170
0.000057
0.000235
0.000243
0.000240
0.001654
0.000341
0.000211
0.000235
0.000265
0.000269
0.000281
0.000375
0.000372
0.000356
0.000285
0.000309
0.000481
0.000389
0.001216
0.000265
0.000237
0.000251
0.000267
0.000268
0.000420
0.000640
0.000418
0.000258
0.000265
0.000271
0.000296
0.000177
0.000057
0.000200
0.000236
0.000241
0.001529
0.000258
0.000241
0.000238
0.000252
0.000242
0.000255
0.000252
0.000272
0.000266
0.000286
0.000239
0.000357
0.000514
0.000272
0.001428
0.000217
0.000256
0.000261
0.000254
0.000301
0.000392
0.000452
0.000426
0.000287
0.000266
0.000223
0.000461
0.000059
0.000199
0.000250
0.000238
0.001520
0.000321
0.000221
0.000270
0.000244
0.000251
0.000256
0.000253
0.000248
0.000260
0.000253
0.000388
0.000522
0.001387
0.000775
0.000227
0.000337
0.000260
0.000240
0.000246
0.000273
0.001675
0.000800
0.000236
0.000263
0.000283
0.000287
0.000183
0.000056
0.000199
0.000232
0.000253
0.000247
0.000250
0.000248
0.000238
0.000259
0.000244
0.000241
0.000276
0.000282
0.000252
0.000251
0.000260
0.000246
0.000270
0.001607
0.000699
0.000396
0.000296
0.000230
0.000247
0.000280
0.000260
0.000262
0.000277
0.000251
0.001385
0.000401
0.000404
0.000056
0.000190
0.000229
0.000252
0.000247
0.000264
0.000231
0.000252
0.000249
0.000256
0.000261
0.000296
0.000444
0.000406
0.000321
0.000217
0.000245
0.000263
0.001389
0.000712
0.000441
0.000347
0.000273
0.000234
0.000249
0.000273
0.000255
0.000257
0.000264
0.001477
0.000446
0.000188
0.000055
0.000209
0.000225
0.000248
0.000249
0.000249
0.000244
0.000239
0.000248
0.000271
0.000359
0.000361
0.000264
0.000352
0.000215
0.000250
0.000244
0.000265
0.000251
0.001563
0.000649
0.000442
0.000328
0.000235
0.000255
0.000262
0.000258
0.000268
0.000280
0.000269
0.001363
0.000318
0.000056
0.000207
0.000218
0.000230
0.000257
0.000253
0.000246
0.000271
0.000296
0.000406
0.000372
0.000409
0.000415
0.000301
0.000228
0.000249
0.000252
0.000267
0.000261
0.000269
0.001967
0.000275
0.000241
0.000443
0.000251
0.000246
0.000258
0.000269
0.000261
0.000272
0.000277
0.000356
0.000057
0.000275
0.000235
0.000228
0.000243
0.000253
0.000247
0.000228
0.000240
0.000266
0.000250
0.000247
0.000234
0.000301
0.000446
0.000461
0.000441
0.000223
0.000260
0.000253
0.000253
0.000257
0.000326
0.001428
0.001055
0.000227
0.000245
0.000267
0.000269
0.000267
0.000256
0.000196
0.000056
0.000217
0.001356
0.000274
0.000214
0.000240
0.000250
0.000256
0.000234
0.000241
0.000253
0.000252
0.000264
0.000240
0.000359
0.000388
0.000397
0.000334
0.000255
0.000262
0.000269
0.000272
0.000225
0.000254
0.000269
0.001323
0.000702
0.000336
0.000335
0.000430
0.000404
0.000242
0.000056
0.000216
0.000288
0.001363
0.000265
0.000213
0.000257
0.000228
0.000256
0.000256
0.000259
0.000243
0.000251
0.000295
0.000403
0.000501
0.000292
0.000225
0.000270
0.000329
0.000221
0.000248
0.000275
0.000237
0.000268
0.000269
0.001534
0.000746
0.000293
0.000277
0.000273
0.000194
0.000057
0.000195
0.000261
0.000452
0.000307
0.001313
0.000234
0.000247
0.000238
0.000226
0.000249
0.000249
0.000253
0.000228
0.000241
0.000256
0.000257
0.000269
0.000234
0.000256
0.000254
0.000269
0.000265
0.000300
0.000340
0.000217
0.000266
0.000267
0.001453
0.000257
0.000251
0.000180
0.000057
0.000201
0.000230
0.000246
0.000315
0.000357
0.000340
0.000386
0.000264
0.001571
0.000225
0.000308
0.000580
0.000258
0.000242
0.000429
0.000223
0.000256
0.000260
0.000276
0.000268
0.000275
0.000271
0.000254
0.000268
0.000251
0.000428
0.000389
0.000323
0.001579
0.000228
0.000193
0.000057
0.000241
0.000239
0.000248
0.000245
0.000245
0.000245
0.000259
0.000275
0.000437
0.002034
0.000237
0.000247
0.000256
0.000259
0.000260
0.000248
0.000265
0.000265
0.000265
0.000423
0.000455
0.000371
0.001456
0.000246
0.000531
0.000228
0.001769
0.000247
0.000257
0.001524
0.000159
0.000057
0.000342
0.000435
0.000441
0.000244
0.000264
0.000225
0.000257
0.000277
0.000258
0.000226
0.000251
0.000338
0.000408
0.000360
0.000417
0.000240
0.000239
0.001562
0.000246
0.000586
0.001854
0.000297
0.000237
0.001556
0.001992
0.000755
0.000276
0.000259
0.000275
0.000502
0.000329
0.000057
0.000235
0.000247
0.000241
0.000243
0.001419
0.001729
0.001078
0.000213
0.000237
0.001575
0.001978
0.000214
0.000233
0.000423
0.000310
0.000356
0.000366
0.000529
0.000215
0.000240
0.000251
0.000252
0.000271
0.001596
0.001201
0.001426
0.000273
0.000305
0.000253
0.000288
0.000364
0.000056
0.000243
0.000197
0.000234
0.000240
0.000231
0.000236
0.000247
0.000249
0.000261
0.000244
0.000246
0.000289
0.000438
0.000529
0.000230
0.000271
0.000251
0.000270
0.000265
0.000265
0.000251
0.000266
0.001607
0.000391
0.002097
0.000233
0.000273
0.000435
0.000330
0.000391
0.000205
0.000056
0.000216
0.000336
0.000497
0.000320
0.000195
0.000229
0.000256
0.000239
0.000242
0.000245
0.000248
0.000267
0.000257
0.001604
0.001361
0.001215
0.000274
0.000246
0.000247
0.000271
0.000285
0.000281
0.000241
0.000251
0.002202
0.000251
0.000252
0.000298
0.000323
0.000303
0.000225
0.000058
0.000202
0.000344
0.000591
0.000290
0.000237
0.000249
0.000236
0.000268
0.001893
0.001425
0.000224
0.000381
0.000396
0.000355
0.000247
0.000249
0.000237
0.000269
0.000264
0.000261
0.000257
0.000265
0.000467
0.000241
0.000270
0.000275
0.000246
0.000278
0.000280
0.000248
0.000206
0.000057
0.000198
0.000240
0.000253
0.000244
0.000246
0.000270
0.001550
0.001407
0.001327
0.000241
0.000233
0.000243
0.000268
0.000262
0.000247
0.000254
0.000249
0.002096
0.000260
0.000232
0.000264
0.000260
0.000256
0.000266
0.000279
0.000243
0.000270
0.000254
0.000277
0.000251
0.000175
0.000056
0.000193
0.002681
0.001386
0.000227
0.000306
0.000294
0.000237
0.000260
0.000258
0.000243
0.000257
0.000243
0.000236
0.000247
0.000267
0.000258
0.000271
0.000262
0.000256
0.000268
0.000271
0.000285
0.000267
0.000266
0.000249
0.000243
0.000263
0.000277
0.000257
0.000269
0.000381
0.000055
0.001548
0.000247
0.001246
0.000228
0.000223
0.000243
0.000257
0.000257
0.000241
0.000361
0.000275
0.000387
0.000341
0.000215
0.000248
0.002144
0.000245
0.000248
0.000257
0.000536
0.000362
0.000295
0.000227
0.000248
0.000271
0.000252
0.000260
0.000279
0.000272
0.001616
0.001246
0.000056
0.000201
0.000230
0.000268
0.000441
0.000332
0.000295
0.000209
0.000235
0.000250
0.000257
0.000267
0.000244
0.000228
0.000256
0.000260
0.000241
0.000411
0.000538
0.000347
0.000255
0.000225
0.000272
0.000278
0.000251
0.000257
0.000243
0.000261
0.000277
0.000248
0.000350
0.000329
0.000056
0.001123
0.000220
0.000459
0.000350
0.000292
0.000224
0.000234
0.000247
0.000234
0.002316
0.000346
0.000402
0.000215
0.000374
0.000276
0.000263
0.000260
0.000259
0.000291
0.000205
0.000251
0.000313
0.000571
0.000436
0.001882
0.001432
0.000434
0.000506
0.000226
0.000284
0.000199
0.000055
0.000373
0.000223
0.000239
0.000240
0.000251
0.000247
0.000238
0.000252
0.000254
0.000246
0.000259
0.000232
0.000241
0.000258
0.000415
0.000470
0.001850
0.001331
0.000456
0.000414
0.000462
0.000234
0.000249
0.000261
0.002192
0.000485
0.000392
0.000234
0.000280
0.000299
0.000180
0.000056
0.000206
0.000236
0.000268
0.000230
0.000243
0.000336
0.000425
0.000316
0.000288
0.000247
0.000242
0.000245
0.000268
0.002103
0.000339
0.000415
0.000224
0.000250
0.000262
0.000267
0.000246
0.002465
0.000329
0.000219
0.000262
0.000257
0.000267
0.000261
0.000280
0.000278
0.000192
0.000055
0.000224
0.000344
0.000543
0.000351
0.000268
0.000225
0.000222
0.000256
0.000277
0.000235
0.001968
0.000375
0.000302
0.000265
0.000222
0.000265
0.000269
0.000239
0.002213
0.000440
0.000227
0.000266
0.000271
0.000256
0.000257
0.000250
0.000283
0.000246
0.000273
0.000256
0.000190
0.000056
0.000219
0.000236
0.000248
0.000222
0.000245
0.000259
0.000233
0.000249
0.000233
0.002174
0.000231
0.000281
0.000222
0.000425
0.000236
0.000249
0.000272
0.000288
0.000242
0.000264
0.001960
0.000290
0.000381
0.000392
0.000373
0.000382
0.000320
0.000248
0.000260
0.000249
0.000194
0.000056
0.000211
0.000236
0.000240
0.000248
0.000249
0.000320
0.000239
0.002287
0.000241
0.000240
0.000259
0.000253
0.000241
0.000251
0.000305
0.002123
0.000589
0.000233
0.000250
0.000242
0.000260
0.000260
0.000290
0.000268
0.000262
0.000255
0.000281
0.000256
0.000265
0.000266
0.000192
0.000056
0.001829
0.001443
0.000196
0.000233
0.000245
0.000250
0.000252
0.000257
0.000452
0.000368
0.002118
0.000258
0.000239
0.000261
0.000289
0.000513
0.000390
0.000290
0.000235
0.000244
0.000250
0.000268
0.000265
0.000222
0.000262
0.000262
0.000271
0.000266
0.000292
0.000686
0.000328
0.000058
0.000194
0.000239
0.000250
0.000268
0.000248
0.000251
0.000254
0.000242
0.001488
0.002112
0.000579
0.000298
0.000389
0.000693
0.000344
0.000246
0.000251
0.000249
0.000262
0.000265
0.000259
0.000238
0.000253
0.000267
0.001826
0.001461
0.000285
0.000270
0.000287
0.000367
0.000322
0.000059
0.001922
0.000218
0.000232
0.000237
0.000309
0.000331
0.000538
0.000227
0.000280
0.000215
0.000255
0.000247
0.000258
0.000256
0.000268
0.000256
0.000255
0.000264
0.001846
0.000240
0.000231
0.000255
0.000271
0.000283
0.000271
0.000253
0.001483
0.000310
0.000253
0.000258
0.000184
0.000056
0.000207
0.000226
0.000265
0.000225
0.000252
0.000241
0.000291
0.000384
0.000351
0.000363
0.000223
0.000239
0.000253
0.000409
0.000368
0.000298
0.000234
0.000241
0.000266
0.000341
0.000562
0.000393
0.000233
0.000250
0.000260
0.000253
0.000249
0.000275
0.000275
0.000265
0.000206
0.000056
0.001432
0.000452
0.000204
0.001933
0.000271
0.000430
0.000437
0.000318
0.000231
0.000247
0.000260
0.000249
0.000243
0.000247
0.000269
0.000255
0.000449
0.000303
0.000414
0.000364
0.000353
0.000219
0.000270
0.000258
0.000268
0.000273
0.000259
0.000271
0.000380
0.000460
0.001349
0.000057
0.000196
0.000225
0.002101
0.000345
0.000237
0.000258
0.000277
0.000230
0.000262
0.000265
0.000216
0.000248
0.000252
0.000265
0.000256
0.000357
0.000712
0.001761
0.000226
0.000255
0.000255
0.000263
0.000464
0.000334
0.001591
0.000285
0.000362
0.001928
0.000274
0.000246
0.000194
0.000056
0.000216
0.000231
0.000226
0.000243
0.000236
0.000249
0.000249
0.000288
0.000324
0.000285
0.000378
0.000360
0.000330
0.000303
0.000258
0.000247
0.000262
0.000236
0.000271
0.000250
0.000297
0.000293
0.000266
0.000265
0.000272
0.001499
0.000285
0.000401
0.002066
0.000232
0.000178
0.000057
0.000228
0.000239
0.000237
0.000248
0.000483
0.000211
0.000257
0.000322
0.000350
0.000330
0.000312
0.000205
0.000266
0.000266
0.000272
0.000332
0.000417
0.000430
0.000249
0.000401
0.000547
0.000511
0.001491
0.000236
0.000257
0.001982
0.000329
0.000252
0.000243
0.000292
0.000191
0.000057
0.000202
0.000245
0.000225
0.000242
0.000251
0.000271
0.000250
0.000271
0.000251
0.000257
0.001809
0.000343
0.000368
0.000330
0.000407
0.000366
0.000349
0.001499
0.000245
0.000326
0.002053
0.000577
0.000272
0.000240
0.000259
0.000268
0.000502
0.000227
0.000249
0.000285
0.000193
0.000057
0.000237
0.000355
0.000364
0.000300
0.000203
0.000239
0.000261
0.000246
0.000270
0.000298
0.000220
0.000248
0.000262
0.000257
0.000369
0.001500
0.000305
0.000213
0.000282
0.001907
0.000430
0.000220
0.000250
0.000282
0.000232
0.000279
0.000264
0.000263
0.000252
0.000265
0.000208
0.000057
0.000232
0.000408
0.002036
0.000255
0.000260
0.000222
0.000259
0.000274
0.000445
0.000436
0.001304
0.000436
0.000290
0.002093
0.000196
0.000243
0.000274
0.000278
0.000251
0.000254
0.000274
0.000291
0.000256
0.000359
0.000586
0.000316
0.000264
0.002226
0.000589
0.000424
0.000354
0.000057
0.000205
0.000238
0.000240
0.001970
0.000231
0.000227
0.000238
0.000245
0.000245
0.000255
0.000243
0.000261
0.000242
0.000323
0.000425
0.001450
0.000237
0.000259
0.000278
0.000247
0.000232
0.000258
0.000258
0.000269
0.000335
0.000423
0.000503
0.000228
0.001591
0.000288
0.000157
0.000057
0.000211
0.000213
0.000246
0.000231
0.000254
0.000252
0.000251
0.000248
0.000259
0.000375
0.000373
0.001404
0.000239
0.000225
0.000247
0.000260
0.000267
0.000245
0.000493
0.000279
0.000565
0.000288
0.000230
0.001571
0.000241
0.000256
0.000284
0.000283
0.000261
0.000266
0.000190
0.000056
0.000222
0.000221
0.000269
0.000268
0.000249
0.000258
0.000220
0.000240
0.000259
0.000238
0.000257
0.000256
0.000252
0.001485
0.000363
0.000207
0.000266
0.000255
0.000303
0.000328
0.000405
0.000205
0.000244
0.000258
0.000256
0.000264
0.000261
0.001414
0.000279
0.000227
0.000174
0.000056
0.000194
0.000232
0.000257
0.000262
0.000252
0.000236
0.000248
0.000261
0.000223
0.000263
0.000265
0.000239
0.000226
0.000328
0.000336
0.000372
0.000271
0.000232
0.001634
0.000236
0.000248
0.000257
0.000264
0.000282
0.000440
0.000326
0.000450
0.000267
0.000255
0.001611
0.000162
0.000058
0.000308
0.000343
0.000379
0.000303
0.000228
0.000217
0.000244
0.000269
0.000258
0.000233
0.000251
0.000241
0.001459
0.000327
0.000264
0.000232
0.000249
0.000252
0.000271
0.000264
0.000256
0.000235
0.000264
0.000267
0.000270
0.000322
0.000534
0.000363
0.000220
0.000257
0.000189
0.000057
0.000202
0.000236
0.000437
0.000362
0.000387
0.000255
0.000247
0.000250
0.000250
0.000256
0.000242
0.000228
0.000255
0.000270
0.001228
0.000313
0.000226
0.000253
0.000266
0.000267
0.000236
0.000268
0.000258
0.000259
0.000252
0.000260
0.000361
0.000642
0.000450
0.000231
0.000180
0.000055
0.000207
0.001558
0.000303
0.000346
0.000470
0.000292
0.000216
0.000266
0.000258
0.000258
0.000234
0.000263
0.000270
0.000273
0.000273
0.001508
0.000255
0.000286
0.000263
0.000253
0.000266
0.000248
0.000266
0.000261
0.000258
0.000302
0.000481
0.000276
0.000363
0.000251
0.000190
0.000056
0.000212
0.000249
0.000235
0.001603
0.000422
0.000354
0.000229
0.000240
0.000252
0.000269
0.000277
0.000257
0.000243
0.000267
0.000234
0.000268
0.000442
0.001279
0.000253
0.000237
0.001486
0.000597
0.000268
0.000418
0.000339
0.000244
0.000265
0.000460
0.000237
0.000262
0.000184
0.000056
0.000284
0.000215
0.000251
0.000245
0.000251
0.000248
0.000239
0.000255
0.000260
0.000236
0.000260
0.000253
0.000349
0.000478
0.001649
0.001498
0.000356
0.000542
0.000330
0.000224
0.000233
0.000256
0.000253
0.000264
0.000244
0.000290
0.000238
0.000268
0.001519
0.000338
0.000165
0.000057
0.000225
0.000357
0.000352
0.000324
0.000236
0.000219
0.000244
0.000459
0.000314
0.000357
0.002177
0.000329
0.000737
0.000487
0.000458
0.000291
0.000296
0.000412
0.000309
0.000276
0.000395
0.000239
0.001808
0.000281
0.000212
0.000271
0.000251
0.000251
0.000269
0.000263
0.000199
0.000056
0.000216
0.000247
0.000257
0.000248
0.000245
0.001655
0.000879
0.000994
0.000209
0.000261
0.000233
0.000261
0.000261
0.000261
0.000258
0.000246
0.000254
0.000263
0.000264
0.000279
0.001432
0.000317
0.000254
0.000227
0.000233
0.000259
0.000264
0.000278
0.000265
0.000288
0.001887
0.000057
0.000201
0.000229
0.001543
0.000871
0.000367
0.000357
0.000243
0.000232
0.000247
0.000265
0.000235
0.000252
0.000245
0.002012
0.000444
0.000225
0.000246
0.000254
0.000269
0.000258
0.000192
