0.000421
0.019211
0.002116
0.000382
0.000243
0.000234
0.000305
0.000248
0.000328
0.000315
0.000226
0.000375
0.000504
0.000545
0.000347
0.000280
0.000298
0.000410
0.000376
0.000404
0.000305
0.001863
0.000489
0.000460
0.000246
0.000298
0.000311
0.000413
0.000418
0.000403
0.000459
0.000280
0.000059
0.000220
0.000225
0.000269
0.000261
0.000277
0.000262
0.000264
0.000264
0.000275
0.000321
0.000443
0.000440
0.000284
0.000280
0.000402
0.000365
0.000340
0.000247
0.000219
0.001748
0.000277
0.000225
0.000505
0.000261
0.000229
0.000251
0.000286
0.000295
0.000282
0.000332
0.000400
0.000057
0.000204
0.000216
0.000259
0.000262
0.000253
0.000250
0.000263
0.000255
0.000278
0.001670
0.000255
0.000219
0.000250
0.000279
0.000275
0.000247
0.000280
0.000257
0.000338
0.001811
0.000246
0.000260
0.000459
0.000475
0.000361
0.000243
0.000249
0.000573
0.000474
0.000743
0.000155
0.000057
0.000218
0.000216
0.000257
0.000239
0.000312
0.000264
0.000359
0.000537
0.000421
0.000240
0.000208
0.000238
0.000213
0.000260
0.000253
0.000259
0.000239
0.000270
0.000296
0.000323
0.001739
0.000255
0.000245
0.000454
0.000265
0.000698
0.000622
0.000530
0.000343
0.000255
0.000199
0.000058
0.000188
0.000214
0.000262
0.000243
0.000273
0.000236
0.000285
0.000474
0.001448
0.000238
0.000238
0.000233
0.000255
0.000248
0.000265
0.000284
0.000340
0.000750
0.001381
0.000283
0.000259
0.000419
0.000268
0.000228
0.000248
0.000255
0.000276
0.000265
0.000258
0.000268
0.000222
0.000056
0.000219
0.000227
0.000230
0.000242
0.000259
0.000246
0.000248
0.000252
0.000237
0.000253
0.001707
0.000254
0.000212
0.000234
0.000226
0.000243
0.000234
0.000259
0.000254
0.000252
0.000263
0.001741
0.000238
0.000262
0.000472
0.000240
0.000238
0.000236
0.000254
0.000266
0.000214
0.000057
0.000193
0.000214
0.000237
0.000249
0.000251
0.000244
0.000260
0.000235
0.000262
0.000249
0.000267
0.000248
0.000260
0.000277
0.001633
0.000292
0.000264
0.000248
0.000234
0.000273
0.000281
0.000243
0.000254
0.000248
0.000268
0.001892
0.000357
0.000359
0.000248
0.000277
0.000218
0.000056
0.000190
0.000204
0.000242
0.000270
0.000263
0.000230
0.000327
0.000356
0.000495
0.000368
0.000216
0.000230
0.000261
0.000248
0.001858
0.000363
0.000236
0.000435
0.000272
0.000211
0.000261
0.000280
0.000277
0.001882
0.000385
0.000510
0.000219
0.000240
0.000227
0.000249
0.000212
0.000055
0.000199
0.000221
0.000239
0.000309
0.000310
0.000450
0.000395
0.000258
0.000214
0.000219
0.000266
0.000238
0.000261
0.001760
0.000434
0.000294
0.000232
0.000243
0.000262
0.000279
0.000260
0.000258
0.000270
0.001931
0.000274
0.000383
0.000269
0.000249
0.000305
0.000397
0.000328
0.000056
0.000336
0.000249
0.000376
0.000234
0.000284
0.000213
0.000246
0.000259
0.000263
0.000226
0.000247
0.000227
0.001635
0.000328
0.000298
0.000216
0.000223
0.000248
0.000251
0.000275
0.000293
0.000320
0.001799
0.000336
0.000227
0.000495
0.000222
0.000231
0.000249
0.000267
0.000290
0.000055
0.000431
0.000421
0.000645
0.000199
0.000210
0.000262
0.000238
0.000222
0.000254
0.000251
0.000255
0.001694
0.000294
0.000389
0.000382
0.000222
0.000239
0.000231
0.000245
0.000265
0.000291
0.001819
0.000245
0.000232
0.002340
0.000348
0.000256
0.000262
0.000268
0.000255
0.000202
0.000055
0.000202
0.000221
0.000245
0.000248
0.000251
0.001691
0.000248
0.000183
0.000239
0.000254
0.000240
0.000246
0.000255
0.000255
0.000293
0.000548
0.000482
0.000234
0.000247
0.000269
0.000292
0.000226
0.000234
0.000497
0.000432
0.000309
0.000543
0.000328
0.000443
0.000221
0.000189
0.000055
0.000219
0.000195
0.000248
0.000253
0.000241
0.000240
0.000238
0.000514
0.000439
0.001580
0.000240
0.000239
0.000237
0.000252
0.000265
0.000291
0.000466
0.000450
0.000385
0.000233
0.000219
0.000273
0.000303
0.000280
0.000285
0.000402
0.000525
0.000497
0.000418
0.000479
0.000132
0.000056
0.000191
0.000259
0.000225
0.000232
0.000231
0.000242
0.000249
0.000242
0.000252
0.000368
0.000374
0.001527
0.000275
0.000213
0.000219
0.000200
0.000267
0.000251
0.000250
0.000255
0.000368
0.000456
0.000322
0.000321
0.000215
0.000241
0.000265
0.000272
0.000251
0.000263
0.000422
0.000056
0.000201
0.000217
0.000235
0.000343
0.000520
0.000410
0.000196
0.000257
0.000226
0.000265
0.000244
0.000244
0.000280
0.000264
0.000244
0.000641
0.000308
0.001580
0.000277
0.000246
0.000252
0.000267
0.000262
0.000243
0.000280
0.000521
0.000469
0.000299
0.000366
0.000230
0.000218
0.000057
0.000216
0.000226
0.000396
0.000241
0.000260
0.000251
0.000352
0.000574
0.000305
0.000260
0.000244
0.000268
0.000279
0.000232
0.000585
0.000294
0.000224
0.000272
0.000425
0.001648
0.000245
0.000218
0.000314
0.000408
0.000279
0.000299
0.000257
0.000445
0.000437
0.000421
0.000250
0.000055
0.000224
0.000211
0.000230
0.000239
0.000477
0.000261
0.000289
0.000217
0.000359
0.000660
0.000286
0.000240
0.000229
0.000203
0.000278
0.000251
0.000253
0.000264
0.000216
0.000374
0.000273
0.000694
0.001481
0.000264
0.000236
0.000251
0.000309
0.000366
0.000607
0.000587
0.000359
0.000056
0.000262
0.000319
0.000310
0.000422
0.000319
0.000222
0.000247
0.000379
0.000522
0.000383
0.000247
0.000218
0.000213
0.000262
0.000266
0.000239
0.000246
0.000273
0.000268
0.000263
0.000295
0.000368
0.001774
0.000308
0.000347
0.000426
0.000370
0.000271
0.000439
0.000428
0.000251
0.000056
0.000245
0.000387
0.000272
0.000217
0.000226
0.000209
0.000469
0.000216
0.000283
0.000353
0.000437
0.000403
0.000210
0.000240
0.000265
0.000285
0.000385
0.000427
0.000290
0.000228
0.000220
0.000428
0.000606
0.001657
0.000262
0.000415
0.000320
0.000233
0.000283
0.000425
0.000349
0.000056
0.000198
0.000196
0.000244
0.000253
0.000240
0.000252
0.000253
0.000340
0.000436
0.000382
0.000474
0.000323
0.000262
0.000209
0.000525
0.000266
0.000276
0.000271
0.000242
0.000338
0.000235
0.000237
0.000264
0.000488
0.000633
0.001507
0.000226
0.000232
0.000241
0.000258
0.000202
0.000055
0.000190
0.000554
0.000272
0.000218
0.000221
0.000221
0.000269
0.000230
0.000257
0.000258
0.000221
0.000483
0.000349
0.000418
0.000390
0.000296
0.000225
0.000241
0.000366
0.000372
0.000347
0.000370
0.000384
0.000375
0.000236
0.000230
0.000250
0.000273
0.001781
0.000270
0.000201
0.000056
0.000197
0.000204
0.000247
0.000266
0.000369
0.000533
0.000325
0.000236
0.000236
0.000265
0.000251
0.000271
0.000511
0.000444
0.000468
0.000301
0.000272
0.000252
0.000437
0.000497
0.000361
0.000562
0.000409
0.000379
0.000217
0.000261
0.000224
0.000238
0.000249
0.001783
0.000360
0.000056
0.000235
0.000318
0.000217
0.000217
0.000247
0.000250
0.000318
0.000423
0.000425
0.000303
0.000318
0.000325
0.000421
0.000495
0.000366
0.000218
0.000218
0.000237
0.000253
0.000268
0.000260
0.000269
0.000246
0.000269
0.000401
0.000268
0.000492
0.000360
0.000201
0.000221
0.000195
0.000056
0.000440
0.000302
0.000407
0.000286
0.000224
0.000220
0.000242
0.000252
0.000251
0.000221
0.000245
0.000273
0.000298
0.000416
0.000533
0.000391
0.000338
0.000374
0.000368
0.000395
0.000255
0.000214
0.000223
0.000271
0.001788
0.000238
0.001752
0.000976
0.000322
0.000346
0.000151
0.000056
0.000199
0.000208
0.000237
0.000229
0.000266
0.000249
0.000251
0.000253
0.000254
0.000323
0.000528
0.000257
0.000543
0.000286
0.000203
0.000236
0.000265
0.000288
0.000213
0.000230
0.000259
0.000225
0.001800
0.000277
0.000243
0.000245
0.000279
0.000268
0.001886
0.000560
0.000236
0.000056
0.000228
0.000200
0.000213
0.000231
0.000255
0.000247
0.000243
0.000260
0.000261
0.000430
0.000471
0.000342
0.000379
0.000260
0.000213
0.000288
0.000378
0.000397
0.000367
0.000250
0.001802
0.000240
0.000222
0.000230
0.000254
0.000272
0.000245
0.000265
0.000255
0.000481
0.000325
0.000056
0.000269
0.000201
0.000204
0.000260
0.000242
0.000240
0.000275
0.000242
0.000242
0.000258
0.000245
0.000276
0.000463
0.000362
0.000274
0.000309
0.000487
0.000211
0.000221
0.000257
0.000262
0.000249
0.000278
0.000262
0.000274
0.001786
0.000269
0.000242
0.000248
0.000240
0.000215
0.000056
0.000267
0.000329
0.000242
0.000200
0.000230
0.000239
0.000235
0.000253
0.000249
0.000229
0.000223
0.000262
0.000264
0.000403
0.000445
0.000266
0.000369
0.000211
0.000220
0.000244
0.000259
0.000261
0.000255
0.000265
0.000249
0.000259
0.000344
0.001655
0.000250
0.000222
0.000187
0.000056
0.000204
0.000206
0.000252
0.000260
0.000354
0.000343
0.000541
0.000203
0.000216
0.000246
0.000243
0.000245
0.000247
0.000257
0.000261
0.000259
0.000244
0.000256
0.000253
0.000257
0.000272
0.000269
0.000273
0.000214
0.000242
0.000281
0.000271
0.000262
0.000258
0.000255
0.000219
0.000056
0.000210
0.000240
0.000216
0.000260
0.000246
0.000245
0.000259
0.000245
0.000360
0.000206
0.000199
0.000233
0.000260
0.000248
0.000265
0.000272
0.000246
0.000252
0.000356
0.000223
0.000246
0.000278
0.000284
0.000252
0.000267
0.000274
0.000272
0.000253
0.000288
0.000428
0.000726
0.000056
0.000240
0.000300
0.000225
0.000207
0.000203
0.000248
0.000246
0.000252
0.000244
0.000244
0.000272
0.000431
0.000332
0.000598
0.001495
0.000212
0.000514
0.000205
0.000246
0.000492
0.000501
0.000244
0.000240
0.000267
0.000282
0.000234
0.000282
0.000248
0.000309
0.000260
0.000210
0.000056
0.000446
0.000251
0.000369
0.000320
0.000211
0.000238
0.000265
0.000224
0.000234
0.000248
0.000252
0.000254
0.000236
0.000300
0.000341
0.000515
0.000346
0.001788
0.000270
0.000245
0.000378
0.000401
0.000474
0.000247
0.000367
0.000270
0.000302
0.000253
0.000209
0.000248
0.000212
0.000055
0.000219
0.000203
0.000282
0.000273
0.000473
0.000359
0.000284
0.000252
0.000255
0.000224
0.000244
0.000269
0.000265
0.000258
0.000245
0.000278
0.000353
0.000503
0.000286
0.000416
0.000239
0.001808
0.000296
0.000598
0.000415
0.000457
0.000282
0.000233
0.000244
0.000282
0.000486
0.000056
0.000201
0.000230
0.000248
0.000388
0.000349
0.000526
0.000260
0.000253
0.000223
0.000327
0.000224
0.000238
0.000251
0.000301
0.000356
0.000216
0.000261
0.000387
0.000345
0.000420
0.000540
0.001772
0.000255
0.000583
0.000399
0.000314
0.000242
0.000369
0.000240
0.000221
0.000225
0.000057
0.000223
0.000337
0.000341
0.000350
0.000335
0.000355
0.000329
0.000220
0.000222
0.000266
0.000261
0.000243
0.000236
0.000258
0.000247
0.000251
0.000313
0.000527
0.000434
0.000357
0.000264
0.000214
0.000259
0.001781
0.000507
0.000360
0.000663
0.000295
0.000234
0.000297
0.000175
0.000056
0.000189
0.000222
0.000313
0.000254
0.000310
0.000414
0.000346
0.000299
0.000311
0.000532
0.000203
0.000224
0.000233
0.000277
0.000276
0.000269
0.000228
0.000450
0.000400
0.000388
0.000249
0.000244
0.000256
0.000255
0.000261
0.000267
0.000243
0.000247
0.000266
0.000362
0.000169
0.000056
0.000317
0.000322
0.000231
0.000234
0.000247
0.000255
0.000245
0.000358
0.000214
0.000213
0.000265
0.000328
0.000452
0.000471
0.000298
0.000255
0.000224
0.000218
0.000251
0.000265
0.000253
0.000301
0.000232
0.000261
0.000273
0.000396
0.000418
0.000316
0.000377
0.000221
0.000161
0.000056
0.000211
0.000208
0.000262
0.000247
0.000243
0.000249
0.000270
0.000252
0.000492
0.000235
0.000229
0.000250
0.000245
0.000256
0.000274
0.000277
0.000269
0.000349
0.000241
0.000225
0.000252
0.000267
0.000263
0.000260
0.000277
0.000262
0.000262
0.000260
0.000253
0.000500
0.000175
0.000055
0.000218
0.000213
0.000240
0.000257
0.000250
0.000230
0.000299
0.000457
0.000258
0.000225
0.000249
0.000257
0.000242
0.000348
0.000456
0.001706
0.000222
0.000248
0.000312
0.000375
0.000411
0.000341
0.000423
0.000382
0.000331
0.000362
0.000253
0.000265
0.000267
0.000291
0.001430
0.000055
0.000455
0.000197
0.000309
0.000204
0.000193
0.000242
0.000231
0.000253
0.000247
0.000252
0.000255
0.000257
0.000257
0.000390
0.001914
0.000259
0.000215
0.000187
0.000214
0.000268
0.000237
0.000266
0.000385
0.000453
0.000262
0.000288
0.000243
0.000258
0.000267
0.000260
0.000214
0.000056
0.001232
0.000524
0.000335
0.000303
0.000206
0.000211
0.000209
0.000223
0.000497
0.000221
0.000226
0.000246
0.000334
0.000637
0.000303
0.000321
0.000301
0.000254
0.000348
0.000356
0.000217
0.000236
0.000270
0.000248
0.000279
0.000724
0.000425
0.000236
0.000250
0.000295
0.000161
0.000055
0.000211
0.000215
0.000217
0.000250
0.001443
0.000347
0.000212
0.000244
0.000241
0.000248
0.000255
0.000251
0.000241
0.000264
0.000265
0.000365
0.000360
0.000658
0.000270
0.001794
0.000260
0.000293
0.000339
0.000405
0.000450
0.000449
0.000223
0.000236
0.000253
0.000273
0.000213
0.000056
0.000207
0.000252
0.000206
0.001329
0.000335
0.000209
0.000247
0.000222
0.000233
0.000237
0.000237
0.000247
0.000274
0.000251
0.000268
0.000319
0.000528
0.000365
0.000326
0.000218
0.000241
0.000279
0.000258
0.000227
0.000342
0.000222
0.000227
0.000275
0.000268
0.000555
0.000416
0.000055
0.000207
0.000225
0.000234
0.000261
0.000276
0.000239
0.000224
0.000260
0.000267
0.000250
0.001454
0.000231
0.000226
0.000247
0.000251
0.000241
0.000266
0.000266
0.000253
0.000277
0.000313
0.000433
0.000553
0.000281
0.000260
0.000258
0.001829
0.000228
0.000234
0.000356
0.000495
0.000056
0.000250
0.000430
0.000454
0.000505
0.000523
0.000529
0.001490
0.000414
0.000544
0.000645
0.000664
0.000631
0.000494
0.000586
0.000584
0.001763
0.000466
0.000401
0.000389
0.000337
0.000230
0.000287
0.000285
0.000270
0.000276
0.000274
0.000317
0.000273
0.000244
0.000296
0.001323
0.000056
0.000228
0.000252
0.000213
0.000233
0.000248
0.000245
0.000240
0.000229
0.000270
0.000266
0.000247
0.000264
0.000227
0.000265
0.000285
0.000235
0.001836
0.000265
0.000262
0.000250
0.000256
0.000261
0.000263
0.000316
0.000489
0.000314
0.000338
0.000226
0.000261
0.000284
0.000193
0.000056
0.000199
0.001402
0.000263
0.000267
0.000270
0.000228
0.000260
0.000240
0.000255
0.000231
0.000241
0.000251
0.000253
0.000442
0.000282
0.000361
0.000259
0.000285
0.001911
0.000263
0.000254
0.000252
0.000263
0.000261
0.000273
0.000254
0.000296
0.000229
0.000266
0.000302
0.000238
0.000056
0.000205
0.000231
0.000250
0.001437
0.000251
0.000266
0.000228
0.000218
0.000234
0.000269
0.000244
0.000265
0.000228
0.000256
0.000278
0.000248
0.000255
0.000254
0.000278
0.000256
0.000260
0.001844
0.000263
0.001763
0.000254
0.000253
0.000244
0.000230
0.000271
0.000292
0.000199
0.000057
0.000214
0.000238
0.001375
0.000221
0.000284
0.000215
0.000220
0.000272
0.000216
0.000248
0.000245
0.000251
0.000255
0.000260
0.000261
0.000257
0.000264
0.000279
0.000296
0.000250
0.001854
0.000282
0.001789
0.000283
0.000254
0.000239
0.000262
0.000261
0.000254
0.000260
0.000186
0.000055
0.001435
0.000215
0.000247
0.000228
0.000220
0.000243
0.000253
0.000356
0.000254
0.000265
0.000249
0.000252
0.000308
0.000315
0.000459
0.000260
0.000256
0.000267
0.000227
0.000254
0.000236
0.000333
0.000249
0.000251
0.000276
0.000270
0.000269
0.000291
0.000763
0.000343
0.000185
0.000057
0.000215
0.000267
0.000266
0.000313
0.000375
0.000241
0.001679
0.000280
0.000280
0.000255
0.000256
0.000303
0.000257
0.000266
0.000311
0.000347
0.000429
0.000382
0.000381
0.000287
0.000316
0.000277
0.000267
0.000259
0.000332
0.000263
0.000260
0.000236
0.000246
0.000355
0.000363
0.000056
0.000311
0.000376
0.000270
0.000286
0.000234
0.000228
0.000223
0.000244
0.000259
0.000254
0.001550
0.000221
0.000202
0.000251
0.000238
0.000292
0.000264
0.000252
0.000262
0.000260
0.000269
0.000519
0.000525
0.000236
0.000228
0.000292
0.000268
0.000244
0.000252
0.000223
0.000253
0.000057
0.000205
0.000215
0.000272
0.000472
0.000404
0.000237
0.000207
0.000255
0.000243
0.000268
0.000219
0.000261
0.000248
0.000268
0.000244
0.000238
0.000482
0.001195
0.000209
0.000261
0.000221
0.000264
0.000335
0.000497
0.000227
0.000416
0.000447
0.000353
0.000411
0.000234
0.000159
0.000057
0.000216
0.000226
0.000281
0.000244
0.000307
0.000207
0.000354
0.000708
0.000167
0.000306
0.000370
0.000403
0.000386
0.000355
0.000238
0.000213
0.000214
0.000250
0.000387
0.000573
0.001161
0.000248
0.000255
0.000276
0.000234
0.000231
0.000268
0.000342
0.000379
0.000547
0.000205
0.000055
0.000219
0.000201
0.000244
0.000246
0.000241
0.000249
0.000241
0.000258
0.000250
0.000469
0.000483
0.000346
0.000205
0.000207
0.000224
0.000261
0.000255
0.000260
0.000264
0.000538
0.000212
0.000269
0.000382
0.000423
0.000258
0.000246
0.000242
0.000273
0.000256
0.000284
0.000230
0.000055
0.000298
0.000294
0.000406
0.000275
0.000594
0.000244
0.000233
0.000268
0.000215
0.000265
0.000261
0.000262
0.000240
0.000248
0.000250
0.000226
0.000288
0.000468
0.000440
0.000325
0.000217
0.000256
0.000229
0.000233
0.000263
0.000282
0.000286
0.000249
0.000284
0.000275
0.000309
0.000055
0.000214
0.000349
0.000197
0.000225
0.000254
0.000247
0.000240
0.000255
0.000258
0.000258
0.000261
0.000233
0.000402
0.000429
0.000430
0.000328
0.000211
0.000216
0.000222
0.000269
0.000280
0.000242
0.000268
0.000260
0.000269
0.000417
0.000444
0.000452
0.000506
0.000214
0.000141
0.000055
0.000398
0.000212
0.000202
0.000230
0.000253
0.000250
0.000265
0.000224
0.000257
0.000257
0.000224
0.000243
0.000283
0.000219
0.000238
0.000259
0.000259
0.000256
0.000274
0.000269
0.000255
0.000260
0.000281
0.000254
0.000261
0.000265
0.000235
0.000281
0.000251
0.000284
0.000217
0.000056
0.000197
0.000209
0.000242
0.000253
0.000223
0.000253
0.000271
0.000236
0.000258
0.000272
0.000236
0.000236
0.000254
0.000405
0.000239
0.000283
0.000270
0.000254
0.000261
0.000281
0.000267
0.000241
0.000245
0.000248
0.000270
0.000273
0.000250
0.000258
0.000266
0.000260
0.000225
0.000055
0.000274
0.000381
0.000344
0.000291
0.000317
0.000202
0.000211
0.000249
0.000237
0.000239
0.000245
0.000267
0.000254
0.000236
0.000257
0.000258
0.000265
0.000268
0.000254
0.000264
0.000261
0.000264
0.000281
0.000254
0.000279
0.000277
0.000226
0.000300
0.000239
0.000261
0.000212
0.000056
0.000209
0.000215
0.000243
0.000264
0.000249
0.000445
0.000215
0.000259
0.000276
0.000439
0.000503
0.000320
0.000217
0.000212
0.000264
0.000275
0.000249
0.000253
0.000266
0.000265
0.000264
0.000261
0.000262
0.000326
0.000589
0.000418
0.000264
0.000263
0.000278
0.000260
0.000205
0.000055
0.000185
0.000195
0.000248
0.000250
0.000365
0.000700
0.000212
0.000375
0.000240
0.000247
0.000234
0.000258
0.000261
0.000241
0.000256
0.000272
0.000260
0.000281
0.000655
0.000340
0.000321
0.000217
0.000258
0.000270
0.000289
0.000260
0.000264
0.000264
0.000253
0.000334
0.000358
0.000056
0.000181
0.000228
0.000218
0.000234
0.000256
0.000254
0.000230
0.000247
0.000240
0.000256
0.000249
0.000258
0.000259
0.000521
0.000473
0.000403
0.000213
0.000223
0.000263
0.000266
0.000246
0.000268
0.000475
0.000261
0.000245
0.000675
0.000365
0.000458
0.000258
0.000240
0.000209
0.000056
0.000196
0.000201
0.000238
0.000240
0.000253
0.000263
0.000334
0.000641
0.000381
0.000387
0.000248
0.000233
0.000293
0.000262
0.000272
0.000230
0.000245
0.000237
0.000284
0.000311
0.000481
0.000494
0.000430
0.000285
0.000453
0.000326
0.000488
0.000214
0.000239
0.000489
0.000395
0.000056
0.000260
0.000211
0.000485
0.000201
0.000230
0.000222
0.000259
0.000255
0.000230
0.000240
0.000425
0.000243
0.000523
0.000223
0.000238
0.000212
0.000258
0.000245
0.000261
0.000273
0.000277
0.000256
0.000252
0.000267
0.000350
0.000511
0.000436
0.000236
0.000251
0.000273
0.000213
0.000056
0.000187
0.000239
0.000232
0.000237
0.000248
0.000266
0.000374
0.000586
0.000258
0.000286
0.000342
0.000230
0.000240
0.000265
0.000276
0.000218
0.000259
0.000263
0.000286
0.000481
0.000468
0.000272
0.000449
0.000357
0.000398
0.000385
0.000380
0.000247
0.000238
0.000279
0.000441
0.000055
0.000218
0.000240
0.000201
0.000251
0.000256
0.000259
0.000248
0.000249
0.000257
0.000259
0.000235
0.000407
0.000473
0.000306
0.000357
0.000242
0.000253
0.000267
0.000279
0.000230
0.000247
0.000259
0.000256
0.000276
0.000294
0.000309
0.000605
0.000360
0.000252
0.000275
0.000207
0.000055
0.000195
0.000231
0.000252
0.000268
0.000230
0.000367
0.000556
0.000438
0.000319
0.000676
0.000302
0.000206
0.000228
0.000256
0.000241
0.000269
0.000280
0.000271
0.000516
0.000595
0.001416
0.000271
0.000243
0.000276
0.000279
0.000237
0.000402
0.000375
0.000454
0.000243
0.000165
0.000056
0.000191
0.000208
0.000240
0.000248
0.000240
0.000249
0.000271
0.000260
0.000245
0.000363
0.000355
0.000361
0.000276
0.000387
0.000387
0.000320
0.000233
0.000213
0.000249
0.000270
0.000238
0.000251
0.000276
0.000261
0.000337
0.000533
0.000355
0.000277
0.000235
0.000253
0.000203
0.000055
0.000201
0.000230
0.000253
0.000253
0.000247
0.000235
0.000465
0.000221
0.000234
0.000255
0.000243
0.000253
0.000256
0.000257
0.000254
0.000263
0.000284
0.000240
0.000277
0.000256
0.000255
0.000290
0.000297
0.000245
0.000263
0.000276
0.000272
0.000263
0.000264
0.000271
0.000194
0.000056
0.000171
0.000230
0.000320
0.000449
0.000365
0.000220
0.000224
0.000241
0.000260
0.000251
0.000242
0.000257
0.000262
0.000262
0.000244
0.000238
0.000252
0.000262
0.000273
0.000384
0.000435
0.000353
0.000241
0.000265
0.000271
0.000250
0.000267
0.000253
0.000273
0.000280
0.000210
0.000056
0.000246
0.000512
0.000269
0.000221
0.000248
0.000256
0.000475
0.000202
0.000198
0.000267
0.000260
0.000333
0.000389
0.000455
0.001741
0.000262
0.000250
0.000239
0.000279
0.000245
0.000365
0.000552
0.000427
0.000356
0.000246
0.000244
0.000276
0.000408
0.000288
0.000283
0.000184
0.000056
0.000207
0.000387
0.000364
0.000205
0.000514
0.000203
0.000230
0.000245
0.000257
0.000247
0.000257
0.000243
0.000263
0.000388
0.000358
0.000481
0.000236
0.000206
0.000257
0.000266
0.000257
0.000322
0.000231
0.000282
0.000278
0.000527
0.000515
0.000340
0.000454
0.000222
0.000210
0.000057
0.000228
0.000204
0.000250
0.000232
0.000250
0.000252
0.000285
0.000255
0.000334
0.000447
0.000351
0.000399
0.000206
0.000226
0.000271
0.000265
0.000325
0.000235
0.000271
0.000273
0.000249
0.000438
0.000444
0.000263
0.000271
0.000286
0.000245
0.000520
0.000391
0.000272
0.000171
0.000056
0.000192
0.000258
0.000280
0.000450
0.000352
0.000229
0.000226
0.000251
0.000258
0.000259
0.000264
0.000259
0.000223
0.000259
0.000258
0.000295
0.000455
0.000326
0.000252
0.000385
0.000459
0.000239
0.000270
0.000279
0.000302
0.000279
0.000272
0.000254
0.000484
0.000543
0.000175
0.000056
0.000215
0.000204
0.000245
0.000248
0.000242
0.000482
0.000212
0.000250
0.000262
0.000656
0.000225
0.000554
0.000223
0.000215
0.000242
0.000253
0.000249
0.000248
0.000255
0.000256
0.000252
0.000274
0.000409
0.000478
0.000337
0.000342
0.000313
0.000342
0.000300
0.000220
0.000179
0.000055
0.000209
0.000229
0.000235
0.000508
0.000292
0.000382
0.000248
0.000203
0.000228
0.000231
0.000257
0.000249
0.000257
0.000248
0.000292
0.000224
0.000254
0.000246
0.000262
0.000376
0.000592
0.000354
0.000223
0.000227
0.000273
0.000272
0.000260
0.000263
0.000261
0.000263
0.000215
0.000055
0.000295
0.000385
0.000485
0.000214
0.000212
0.000205
0.000314
0.000529
0.000257
0.000205
0.000226
0.000272
0.000351
0.000436
0.000363
0.000322
0.000214
0.000252
0.000256
0.000214
0.000270
0.000271
0.000254
0.000288
0.000250
0.000347
0.000460
0.000316
0.000359
0.000228
0.000156
0.000056
0.000200
0.000229
0.000234
0.000267
0.000243
0.000260
0.000231
0.000254
0.000263
0.000240
0.000264
0.000241
0.000251
0.001459
0.000238
0.000242
0.000266
0.000255
0.000267
0.000277
0.000264
0.000245
0.000269
0.000256
0.000269
0.000264
0.000268
0.000274
0.000266
0.000257
0.000216
0.000056
0.000193
0.000214
0.000251
0.000244
0.000276
0.000207
0.000253
0.000264
0.000227
0.000250
0.000250
0.000255
0.000256
0.000261
0.000254
0.000258
0.000247
0.000255
0.000276
0.000259
0.000267
0.000242
0.000249
0.000251
0.001357
0.000278
0.000621
0.000390
0.000343
0.000229
0.000143
0.000056
0.000183
0.000206
0.000243
0.000247
0.000502
0.000220
0.000205
0.000214
0.000246
0.000434
0.000457
0.000348
0.000205
0.000212
0.000225
0.000257
0.000254
0.000270
0.000252
0.000258
0.000255
0.000253
0.000312
0.000358
0.000583
0.000387
0.000253
0.000247
0.001351
0.000282
0.000189
0.000056
0.000394
0.000321
0.000351
0.000245
0.000208
0.000207
0.000215
0.000249
0.000256
0.000260
0.000248
0.000254
0.000266
0.000414
0.000474
0.000384
0.000286
0.000247
0.000242
0.000250
0.000251
0.000263
0.000282
0.000258
0.000261
0.000265
0.000425
0.000444
0.000422
0.000375
0.000148
0.000055
0.000195
0.000226
0.001318
0.000349
0.000310
0.000514
0.000306
0.000327
0.000435
0.000373
0.000239
0.000196
0.000249
0.000253
0.000264
0.000253
0.000423
0.000452
0.000383
0.000338
0.000284
0.000227
0.000259
0.000511
0.000243
0.000250
0.000256
0.000278
0.000450
0.000480
0.000240
0.000056
0.000380
0.000342
0.000215
0.000212
0.001614
0.000449
0.000302
0.000219
0.000221
0.000237
0.000225
0.000238
0.000251
0.000260
0.000254
0.000275
0.000222
0.000363
0.000440
0.000413
0.000375
0.000215
0.000233
0.000234
0.000261
0.000272
0.000267
0.000240
0.000266
0.000277
0.000291
0.000056
0.000345
0.000318
0.000263
0.000194
0.000253
0.000244
0.000268
0.000233
0.000233
0.000238
0.001578
0.000366
0.000257
0.000205
0.000212
0.000258
0.000273
0.000265
0.000234
0.000263
0.000280
0.000258
0.000259
0.000463
0.000361
0.000481
0.000214
0.000260
0.000278
0.000279
0.000195
0.000056
0.000206
0.000458
0.000206
0.000220
0.000410
0.000395
0.000380
0.000261
0.000454
0.000221
0.000215
0.000260
0.000248
0.000263
0.000272
0.001528
0.000232
0.000287
0.000250
0.000267
0.000274
0.000253
0.000263
0.000255
0.000249
0.000274
0.000496
0.000402
0.000305
0.000289
0.000140
0.000057
0.000207
0.000213
0.000256
0.000238
0.000248
0.000243
0.000240
0.000256
0.000280
0.000429
0.000446
0.000280
0.000226
0.000202
0.000249
0.000261
0.000274
0.000266
0.000286
0.000213
0.000256
0.000325
0.001311
0.000221
0.000276
0.000218
0.000232
0.000272
0.000256
0.000261
0.000200
0.000056
0.000202
0.000326
0.000425
0.000330
0.000233
0.000214
0.000258
0.000244
0.000255
0.000250
0.000263
0.000261
0.000244
0.000254
0.000257
0.000261
0.000264
0.000270
0.000269
0.000252
0.000239
0.000273
0.000269
0.000282
0.000286
0.000269
0.000287
0.000232
0.000269
0.000513
0.001314
0.000055
0.000199
0.000214
0.000232
0.000248
0.000246
0.000262
0.000270
0.000207
0.000243
0.000247
0.000265
0.000261
0.000257
0.000241
0.000244
0.001708
0.000379
0.000202
0.000214
0.000236
0.000252
0.000252
0.000269
0.000260
0.000260
0.000278
0.000271
0.000270
0.000289
0.000240
0.000253
0.000056
0.000324
0.000285
0.001342
0.000192
0.000219
0.000220
0.000261
0.000251
0.000256
0.000256
0.000246
0.000387
0.000381
0.000497
0.000231
0.000209
0.000230
0.000246
0.000256
0.000265
0.000248
0.000267
0.000271
0.000279
0.000293
0.000399
0.000393
0.000341
0.000274
0.000253
0.000206
0.000056
0.000228
0.000219
0.000242
0.000245
0.000250
0.000248
0.000220
0.000299
0.000416
0.000399
0.001157
0.000237
0.000235
0.000262
0.000256
0.000267
0.000271
0.000270
0.000331
0.000390
0.000400
0.000280
0.000205
0.000227
0.000282
0.000268
0.000277
0.000292
0.000268
0.000279
0.000207
0.000057
0.000217
0.000429
0.000402
0.000230
0.000211
0.000200
0.000245
0.000262
0.000274
0.000258
0.000219
0.000533
0.000391
0.000357
0.000539
0.001379
0.000231
0.000258
0.000331
0.000359
0.000434
0.000484
0.000416
0.000393
0.000220
0.000265
0.000263
0.000272
0.000270
0.000271
0.000214
0.000056
0.000209
0.000315
0.000543
0.000454
0.000217
0.000214
0.000245
0.000235
0.000243
0.000256
0.000259
0.000254
0.000263
0.000246
0.000269
0.000317
0.000419
0.000447
0.000282
0.001321
0.000266
0.000249
0.000252
0.000526
0.000279
0.000401
0.000407
0.000224
0.000234
0.000282
0.000205
0.000056
0.000185
0.000214
0.000245
0.000243
0.000244
0.000298
0.000555
0.000268
0.000379
0.000217
0.000233
0.000251
0.000271
0.000262
0.000262
0.000262
0.000264
0.000259
0.000269
0.000317
0.000538
0.000382
0.000330
0.001346
0.000339
0.000240
0.000292
0.000398
0.000463
0.000355
0.000335
0.000056
0.000184
0.000219
0.000247
0.000246
0.000249
0.000254
0.001720
0.000222
0.000224
0.000218
0.000253
0.000261
0.000322
0.000320
0.000336
0.000274
0.000227
0.000381
0.000540
0.000332
0.000293
0.000267
0.000220
0.000234
0.001430
0.000475
0.000403
0.000453
0.000305
0.000291
0.000162
0.000057
0.000215
0.000219
0.000260
0.000259
0.000241
0.000258
0.001788
0.000204
0.000239
0.000255
0.000389
0.000421
0.001480
0.000276
0.000400
0.000222
0.000225
0.000224
0.000260
0.000266
0.001795
0.000452
0.000361
0.000261
0.000213
0.000227
0.000240
0.000281
0.000256
0.000244
0.000216
0.000056
0.000206
0.000214
0.000263
0.000253
0.000256
0.000269
0.000285
0.000256
0.000255
0.000250
0.000250
0.000251
0.000251
0.000271
0.000263
0.001489
0.000280
0.000241
0.000260
0.000295
0.000254
0.000258
0.000432
0.001263
0.000266
0.000251
0.000267
0.000253
0.000462
0.000216
0.000184
0.000056
0.000188
0.000226
0.000230
0.000245
0.000241
0.000225
0.000243
0.001760
0.000233
0.000186
0.000239
0.000368
0.000233
0.000222
0.001453
0.000246
0.000217
0.000220
0.000275
0.000236
0.000260
0.000306
0.000332
0.001367
0.000274
0.000225
0.000234
0.000249
0.001393
0.000267
0.000231
0.000056
0.000248
0.000333
0.000208
0.000209
0.000249
0.000242
0.000259
0.000272
0.000266
0.000246
0.000264
0.000262
0.000257
0.000242
0.000313
0.001491
0.000266
0.000253
0.000261
0.000266
0.000258
0.000262
0.000254
0.001534
0.000309
0.000247
0.000278
0.001337
0.000230
0.000220
0.000261
0.000056
0.000210
0.000487
0.000242
0.000212
0.000223
0.000247
0.000250
0.000261
0.000265
0.000267
0.000243
0.000250
0.000257
0.000388
0.000351
0.001237
0.000212
0.000222
0.000247
0.000278
0.000245
0.000230
0.000252
0.001305
0.000372
0.000215
0.000238
0.000229
0.000260
0.001340
0.000342
0.000055
0.000287
0.000246
0.000214
0.000209
0.000233
0.000253
0.000248
0.000247
0.000272
0.000254
0.000244
0.000248
0.000276
0.000316
0.000403
0.001471
0.000228
0.000240
0.000297
0.000501
0.000304
0.000450
0.001289
0.000295
0.000249
0.000258
0.001281
0.000350
0.000326
0.000458
0.000352
0.000055
0.000200
0.000241
0.000255
0.000256
0.000249
0.000257
0.000275
0.000253
0.000257
0.000270
0.000392
0.000410
0.001377
0.000212
0.000227
0.000255
0.000286
0.000260
0.000232
0.000213
0.000417
0.001227
0.000243
0.000220
0.000226
0.000254
0.001649
0.000343
0.000424
0.000253
0.000184
0.000057
0.000216
0.000205
0.000235
0.000240
0.000245
0.000268
0.000245
0.000317
0.000590
0.000269
0.000306
0.001453
0.000225
0.000229
0.000267
0.000259
0.000287
0.000271
0.001624
0.000342
0.000339
0.000351
0.001374
0.000378
0.000264
0.000336
0.000235
0.000226
0.000259
0.000250
0.000205
0.000055
0.000214
0.000215
0.000314
0.000299
0.000475
0.000373
0.000261
0.000339
0.001475
0.000284
0.000333
0.000258
0.000229
0.000270
0.000377
0.001366
0.000268
0.000211
0.000228
0.000236
0.000310
0.001602
0.000357
0.000266
0.000237
0.000213
0.000524
0.000310
0.000218
0.000236
0.000248
0.000055
0.000249
0.000349
0.000335
0.000300
0.000214
0.001460
0.000243
0.000231
0.000256
0.000268
0.000272
0.000245
0.000289
0.001492
0.000269
0.000227
0.000419
0.001281
0.000327
0.000398
0.000389
0.000214
0.000263
0.000237
0.000286
0.000244
0.000454
0.000234
0.000258
0.000277
0.000208
0.000057
0.000201
0.000212
0.000359
0.001466
0.000259
0.000213
0.000315
0.000238
0.000261
0.000228
0.000245
0.000333
0.001574
0.000202
0.000223
0.000218
0.001377
0.000339
0.000521
0.000334
0.000382
0.000209
0.000238
0.000239
0.000371
0.000229
0.000231
0.000254
0.000253
0.000248
0.000213
0.000055
0.000218
0.000392
0.001436
0.000216
0.000261
0.000266
0.000253
0.000247
0.000326
0.000384
0.001321
0.000259
0.000296
0.000235
0.000227
0.001417
0.000573
0.000308
0.000301
0.000413
0.000326
0.000233
0.000227
0.000239
0.000276
0.000282
0.000278
0.000320
0.000463
0.000426
0.001393
0.000055
0.000197
0.000241
0.000214
0.000227
0.000264
0.000387
0.000527
0.001334
0.000192
0.000226
0.000245
0.001417
0.000441
0.000342
0.000448
0.000263
0.000208
0.000212
0.000238
0.000277
0.000263
0.000258
0.000281
0.000273
0.000235
0.000319
0.000458
0.000462
0.001465
0.000262
0.000188
0.000055
0.000188
0.000232
0.000367
0.000601
0.001156
0.000292
0.000249
0.000256
0.000248
0.000250
0.000251
0.000301
0.000333
0.000537
0.000311
0.000224
0.000242
0.000277
0.000243
0.000269
0.000267
0.000259
0.000262
0.000264
0.000259
0.000485
0.000419
0.000321
0.000297
0.001494
0.000150
0.000055
0.000210
0.000212
0.000265
0.000474
0.000366
0.000288
0.000281
0.000330
0.000284
0.000254
0.000267
0.000255
0.000247
0.000310
0.000249
0.000254
0.000636
0.000256
0.000308
0.000371
0.000291
0.000475
0.000210
0.000243
0.000221
0.000255
0.000255
0.000291
0.000491
0.000381
0.000285
0.000055
0.000225
0.001359
0.000267
0.000335
0.000440
0.000420
0.000290
0.000356
0.000221
0.000214
0.000261
0.000257
0.000259
0.000261
0.000268
0.000258
0.000269
0.001416
0.000254
0.000217
0.000228
0.000271
0.000277
0.000278
0.000272
0.000249
0.000271
0.000255
0.000375
0.000437
0.000260
0.000056
0.000231
0.000238
0.001451
0.000345
0.000295
0.000207
0.000212
0.000234
0.000209
0.000246
0.000249
0.000275
0.000249
0.000249
0.000266
0.000267
0.000234
0.000271
0.000258
0.000266
0.001419
0.000278
0.000227
0.000347
0.000209
0.000220
0.000257
0.000255
0.000278
0.000500
0.000383
0.000055
0.000218
0.000187
0.000374
0.000302
0.000240
0.000290
0.001534
0.000392
0.000257
0.000198
0.000261
0.000320
0.000320
0.000224
0.000214
0.000271
0.000234
0.000252
0.000267
0.000277
0.000625
0.000363
0.001160
0.000254
0.000229
0.000233
0.000265
0.000249
0.000277
0.000259
0.000523
0.000056
0.000222
0.000349
0.000198
0.000214
0.000240
0.000244
0.000237
0.000229
0.001419
0.000593
0.000331
0.000283
0.000216
0.000209
0.000247
0.000249
0.000249
0.000280
0.000259
0.000308
0.000319
0.000528
0.000403
0.001361
0.000244
0.000257
0.000267
0.000261
0.000273
0.000290
0.000580
0.000055
0.000272
0.000238
0.000224
0.000237
0.000227
0.000235
0.000260
0.000243
0.000285
0.001556
0.000356
0.000256
0.000267
0.000260
0.000462
0.000300
0.000400
0.000461
0.000330
0.000325
0.000469
0.000505
0.001238
0.000235
0.000226
0.000223
0.001765
0.000445
0.000656
0.000254
0.000144
0.000056
0.000209
0.000195
0.000249
0.000231
0.000248
0.000248
0.000362
0.000445
0.000646
0.000229
0.000313
0.000211
0.000207
0.000257
0.000266
0.000267
0.000246
0.000255
0.000250
0.000272
0.000287
0.000492
0.001252
0.000255
0.000233
0.000268
0.001945
0.000314
0.000383
0.000380
0.000168
0.000055
0.000245
0.000213
0.000245
0.001735
0.000223
0.000246
0.000236
0.000271
0.000245
0.000336
0.000367
0.000376
0.000350
0.000301
0.000335
0.000506
0.000311
0.001270
0.000255
0.000211
0.000233
0.000251
0.000368
0.000391
0.000663
0.000408
0.000224
0.000224
0.000259
0.000277
0.000210
0.000055
0.000185
0.000205
0.001460
0.000401
0.000215
0.000207
0.000222
0.000259
0.000245
0.000251
0.000242
0.000275
0.000271
0.000272
0.000267
0.000421
0.000417
0.000350
0.001343
0.000254
0.000239
0.000258
0.000263
0.000269
0.000354
0.000594
0.000366
0.000290
0.000294
0.000245
0.000402
0.000055
0.000179
0.000217
0.000247
0.000263
0.001576
0.000238
0.000254
0.000245
0.000258
0.000256
0.000250
0.000260
0.000264
0.000245
0.000351
0.000693
0.001348
0.000734
0.000216
0.000327
0.000251
0.000223
0.000237
0.000270
0.001764
0.000721
0.000259
0.000233
0.000282
0.000285
0.000219
0.000056
0.000181
0.000208
0.000253
0.000243
0.000249
0.000253
0.000254
0.000262
0.000234
0.000223
0.000285
0.000276
0.000261
0.000254
0.000254
0.000261
0.000254
0.001599
0.000740
0.000404
0.000305
0.000195
0.000228
0.000280
0.000268
0.000262
0.000273
0.000268
0.001445
0.000427
0.000321
0.000055
0.000195
0.000217
0.000230
0.000255
0.000256
0.000231
0.000257
0.000254
0.000251
0.000266
0.000262
0.000486
0.000416
0.000311
0.000223
0.000226
0.000262
0.001457
0.000693
0.000474
0.000257
0.000303
0.000221
0.000242
0.000268
0.000263
0.000247
0.000272
0.001498
0.000444
0.000264
0.000056
0.000195
0.000203
0.000240
0.000246
0.000251
0.000241
0.000249
0.000248
0.000266
0.000346
0.000363
0.000335
0.000290
0.000228
0.000236
0.000248
0.000266
0.000252
0.001578
0.000596
0.000564
0.000268
0.000226
0.000239
0.000261
0.000255
0.000273
0.000276
0.000265
0.001588
0.000145
0.000057
0.000201
0.000211
0.000211
0.000253
0.000259
0.000246
0.000290
0.000351
0.000374
0.000399
0.000486
0.000244
0.000363
0.000207
0.000240
0.000240
0.000270
0.000259
0.001421
0.000863
0.000313
0.000197
0.000481
0.000224
0.000214
0.000244
0.000273
0.000265
0.000263
0.000268
0.000432
0.000056
0.000192
0.000289
0.000205
0.000236
0.000248
0.000257
0.000229
0.000230
0.000263
0.000256
0.000256
0.000233
0.000367
0.000496
0.000332
0.000437
0.000235
0.000256
0.000258
0.000250
0.000250
0.000375
0.001378
0.001053
0.000248
0.000226
0.000274
0.000255
0.000268
0.000261
0.000218
0.000055
0.000208
0.001383
0.000255
0.000202
0.000209
0.000252
0.000252
0.000242
0.000232
0.000256
0.000251
0.000261
0.000249
0.000503
0.000233
0.000504
0.000269
0.000216
0.000264
0.000270
0.000268
0.000239
0.000254
0.000260
0.001477
0.000596
0.000313
0.000401
0.000372
0.000400
0.000258
0.000056
0.000211
0.000212
0.000472
0.001194
0.000239
0.000269
0.000236
0.000217
0.000264
0.000243
0.000257
0.000244
0.000275
0.000416
0.000512
0.000334
0.000222
0.000304
0.000268
0.000224
0.000236
0.000267
0.000234
0.000274
0.000265
0.001549
0.000726
0.000302
0.000270
0.000289
0.000215
0.000055
0.000199
0.000226
0.000463
0.000397
0.001292
0.000244
0.000210
0.000230
0.000214
0.000240
0.000252
0.000253
0.000237
0.000236
0.000252
0.000254
0.000272
0.000236
0.000251
0.000260
0.000262
0.000272
0.000323
0.000315
0.000225
0.000247
0.000271
0.001541
0.000238
0.000216
0.000161
0.000056
0.000199
0.000202
0.000251
0.000347
0.000346
0.000342
0.000398
0.000242
0.001564
0.000272
0.000320
0.000417
0.000398
0.000216
0.000477
0.000226
0.000220
0.000235
0.000261
0.000288
0.000265
0.000265
0.000258
0.000267
0.000294
0.000382
0.000505
0.000269
0.001539
0.000237
0.000177
0.000055
0.000224
0.000219
0.000242
0.000244
0.000248
0.000240
0.000266
0.000305
0.000437
0.002068
0.000214
0.000205
0.000249
0.000262
0.000259
0.000314
0.000256
0.000225
0.000388
0.000298
0.000366
0.000451
0.001514
0.000220
0.000255
0.000470
0.001770
0.000283
0.000257
0.001488
0.000187
0.000056
0.000326
0.000421
0.000431
0.000235
0.000260
0.000235
0.000253
0.000262
0.000265
0.000236
0.000249
0.000398
0.000429
0.000330
0.000366
0.000285
0.000204
0.001556
0.000547
0.001947
0.000317
0.000236
0.000224
0.001657
0.001933
0.000744
0.000255
0.000245
0.000243
0.000583
0.000265
0.000055
0.000194
0.000218
0.000252
0.000250
0.001492
0.001666
0.001076
0.000225
0.000217
0.001607
0.001944
0.000239
0.000324
0.000398
0.000331
0.000319
0.000457
0.000339
0.000253
0.000233
0.000248
0.000262
0.000267
0.001553
0.001315
0.001418
0.000268
0.000239
0.000266
0.000346
0.000385
0.000057
0.000207
0.000234
0.000206
0.000240
0.000230
0.000243
0.000252
0.000253
0.000246
0.000254
0.000245
0.000329
0.000514
0.000420
0.000302
0.000212
0.000221
0.000275
0.000266
0.000262
0.000257
0.001412
0.000440
0.000442
0.002074
0.000250
0.000253
0.000389
0.000461
0.000387
0.000155
0.000055
0.000215
0.000370
0.000472
0.000253
0.000217
0.000235
0.000216
0.000262
0.000248
0.000227
0.000247
0.000265
0.000260
0.001638
0.002376
0.000318
0.000199
0.000227
0.000222
0.000235
0.000283
0.000280
0.000252
0.000251
0.002271
0.000216
0.000224
0.000285
0.000316
0.000307
0.000243
0.000057
0.000196
0.000406
0.000579
0.000310
0.000232
0.000191
0.000225
0.000259
0.001900
0.001420
0.000261
0.000383
0.000398
0.000347
0.000262
0.000209
0.000235
0.000262
0.000269
0.000266
0.000271
0.000251
0.000470
0.000248
0.000251
0.000279
0.000246
0.000278
0.000296
0.000224
0.000229
0.000055
0.000174
0.000223
0.000249
0.000242
0.000249
0.000264
0.001600
0.001449
0.001310
0.000225
0.000207
0.000219
0.000261
0.000270
0.000258
0.000239
0.000250
0.002168
0.000216
0.000221
0.000247
0.000269
0.000246
0.000271
0.000267
0.000260
0.000258
0.000260
0.000274
0.000259
0.000192
0.000056
0.001506
0.000320
0.002391
0.000259
0.000297
0.000293
0.000243
0.000254
0.000271
0.000238
0.000247
0.000252
0.000239
0.000240
0.000264
0.000271
0.000256
0.000264
0.000261
0.000269
0.000263
0.000281
0.000274
0.000284
0.000233
0.000251
0.000256
0.000276
0.000254
0.000272
0.000391
0.000055
0.000196
0.002549
0.000341
0.000197
0.000220
0.000193
0.000253
0.000262
0.000255
0.000313
0.000362
0.000452
0.000226
0.000240
0.000222
0.002238
0.000199
0.000224
0.000248
0.000508
0.000374
0.000324
0.000215
0.000235
0.000263
0.000248
0.000261
0.000280
0.000271
0.001684
0.001211
0.000058
0.000201
0.000198
0.000325
0.000400
0.000363
0.000251
0.000224
0.000213
0.000246
0.000261
0.000266
0.000246
0.000233
0.000246
0.000270
0.000247
0.000423
0.000509
0.000378
0.000239
0.000240
0.000236
0.000286
0.000268
0.000250
0.000243
0.000257
0.000279
0.000241
0.000368
0.000403
0.000056
0.001113
0.000235
0.000308
0.000515
0.000293
0.000216
0.000196
0.000229
0.002197
0.000509
0.000263
0.000364
0.000236
0.000261
0.000338
0.000265
0.000274
0.000245
0.000268
0.000253
0.000237
0.000301
0.000718
0.000372
0.001803
0.001377
0.000592
0.000440
0.000231
0.000241
0.000216
0.000055
0.000257
0.000319
0.000233
0.000239
0.000244
0.000238
0.000242
0.000243
0.000259
0.000256
0.000251
0.000236
0.000251
0.000250
0.000381
0.000536
0.001877
0.001342
0.000412
0.000375
0.000454
0.000270
0.000233
0.000255
0.002342
0.000343
0.000375
0.000241
0.000282
0.000280
0.000212
0.000056
0.000194
0.000234
0.000240
0.000248
0.000242
0.000428
0.000350
0.000377
0.000264
0.000227
0.000239
0.000268
0.000233
0.002081
0.000428
0.000335
0.000247
0.000224
0.000257
0.000267
0.000250
0.002564
0.000230
0.000229
0.000254
0.000262
0.000245
0.000277
0.000270
0.000289
0.000209
0.000055
0.000240
0.000341
0.000599
0.000333
0.000228
0.000212
0.000193
0.000256
0.000259
0.000258
0.002142
0.000275
0.000264
0.000253
0.000204
0.000256
0.000264
0.000249
0.002264
0.000382
0.000221
0.000274
0.000276
0.000255
0.000252
0.000249
0.000285
0.000253
0.000277
0.000250
0.000209
0.000056
0.000208
0.000209
0.000258
0.000217
0.000242
0.000269
0.000250
0.000222
0.000234
0.002175
0.000247
0.000267
0.000223
0.000480
0.000209
0.000222
0.000259
0.000280
0.000263
0.000267
0.002026
0.000248
0.000380
0.000363
0.000489
0.000334
0.000288
0.000243
0.000241
0.000235
0.000220
0.000056
0.000198
0.000224
0.000220
0.000249
0.000257
0.000379
0.000201
0.002346
0.000201
0.000227
0.000228
0.000258
0.000244
0.000244
0.000302
0.002201
0.000522
0.000218
0.000256
0.000258
0.000242
0.000262
0.000282
0.000268
0.000266
0.000257
0.000281
0.000257
0.000262
0.000315
0.000164
0.000056
0.000190
0.003009
0.000244
0.000223
0.000238
0.000249
0.000258
0.000322
0.000357
0.000403
0.002107
0.000262
0.000246
0.000253
0.000394
0.000447
0.000395
0.000302
0.000217
0.000220
0.000243
0.000255
0.000271
0.000235
0.000247
0.000274
0.000258
0.000276
0.000357
0.000716
0.000238
0.000056
0.000201
0.000272
0.000272
0.000204
0.000238
0.000249
0.000249
0.000246
0.001602
0.002066
0.000523
0.000270
0.000519
0.000757
0.000234
0.000223
0.000210
0.000245
0.000272
0.000250
0.000259
0.000238
0.000250
0.000273
0.001830
0.001454
0.000294
0.000272
0.000315
0.000287
0.000410
0.000056
0.001940
0.000234
0.000227
0.000213
0.000309
0.000353
0.000440
0.000326
0.000301
0.000230
0.000212
0.000218
0.000255
0.000272
0.000246
0.000266
0.000250
0.000263
0.001909
0.000215
0.000214
0.000230
0.000276
0.000285
0.000269
0.000259
0.001523
0.000350
0.000218
0.000238
0.000167
0.000056
0.000213
0.000202
0.000232
0.000240
0.000252
0.000240
0.000343
0.000368
0.000331
0.000397
0.000200
0.000223
0.000331
0.000342
0.000356
0.000319
0.000222
0.000225
0.000259
0.000420
0.000535
0.000356
0.000234
0.000231
0.000263
0.000254
0.000250
0.000273
0.000271
0.000265
0.000220
0.000056
0.001417
0.000400
0.000236
0.002015
0.000284
0.000408
0.000360
0.000371
0.000202
0.000210
0.000279
0.000236
0.000252
0.000237
0.000271
0.000256
0.000455
0.000289
0.000453
0.000325
0.000376
0.000216
0.000243
0.000262
0.000333
0.000227
0.000247
0.000273
0.000312
0.000590
0.001350
0.000056
0.000190
0.000210
0.002132
0.000243
0.000305
0.000267
0.000253
0.000254
0.000265
0.000246
0.000233
0.000247
0.000253
0.000253
0.000292
0.000327
0.000702
0.001745
0.000266
0.000244
0.000259
0.000258
0.000519
0.000365
0.001509
0.000270
0.000371
0.001999
0.000238
0.000235
0.000199
0.000055
0.000176
0.000213
0.000225
0.000252
0.000222
0.000248
0.000248
0.000280
0.000343
0.000306
0.000386
0.000362
0.000343
0.000276
0.000214
0.000260
0.000268
0.000239
0.000262
0.000263
0.000274
0.000321
0.000250
0.000271
0.000260
0.001579
0.000297
0.000407
0.001966
0.000261
0.000181
0.000056
0.000195
0.000227
0.000226
0.000250
0.000463
0.000222
0.000256
0.000479
0.000302
0.000301
0.000238
0.000221
0.000247
0.000272
0.000279
0.000320
0.000440
0.000415
0.000259
0.000362
0.000663
0.000446
0.001478
0.000259
0.000235
0.002099
0.000292
0.000207
0.000224
0.000258
0.000212
0.000055
0.000201
0.000217
0.000228
0.000244
0.000247
0.000269
0.000257
0.000266
0.000255
0.000278
0.001862
0.000282
0.000399
0.000328
0.000456
0.000420
0.001451
0.000338
0.000201
0.000312
0.002089
0.000570
0.000254
0.000225
0.000226
0.000274
0.000495
0.000238
0.000257
0.000274
0.000211
0.000056
0.000277
0.000394
0.000321
0.000279
0.000210
0.000212
0.000251
0.000253
0.000264
0.000302
0.000224
0.000248
0.000272
0.000242
0.000422
0.000542
0.001170
0.000250
0.000433
0.001916
0.000274
0.000272
0.000212
0.000255
0.000248
0.000275
0.000264
0.000271
0.000244
0.000264
0.000223
0.000055
0.000225
0.000387
0.002082
0.000226
0.000236
0.000215
0.000228
0.000372
0.000398
0.001475
0.000332
0.000372
0.000327
0.001990
0.000239
0.000253
0.000251
0.000269
0.000263
0.000235
0.000293
0.000284
0.000255
0.000391
0.000508
0.000349
0.000299
0.002209
0.000600
0.000360
0.000453
0.000056
0.000193
0.000218
0.000222
0.002031
0.000197
0.000224
0.000233
0.000241
0.000225
0.000255
0.000246
0.000265
0.000250
0.000285
0.000565
0.000298
0.001297
0.000240
0.000270
0.000270
0.000223
0.000249
0.000262
0.000268
0.000354
0.000429
0.000459
0.000251
0.001690
0.000222
0.000163
0.000056
0.000210
0.000199
0.000234
0.000233
0.000245
0.000255
0.000257
0.000252
0.000328
0.000412
0.000375
0.001354
0.000218
0.000194
0.000230
0.000255
0.000265
0.000252
0.000323
0.000471
0.000442
0.000414
0.000229
0.001553
0.000262
0.000235
0.000282
0.000272
0.000267
0.000271
0.000208
0.000056
0.000207
0.000213
0.000265
0.000263
0.000257
0.000235
0.000247
0.000226
0.000259
0.000246
0.000255
0.000258
0.000249
0.000257
0.001596
0.000218
0.000244
0.000257
0.000349
0.000322
0.000362
0.000250
0.000210
0.000253
0.000261
0.000264
0.001468
0.000292
0.000210
0.000234
0.000167
0.000056
0.000208
0.000219
0.000244
0.000265
0.000269
0.000225
0.000241
0.000270
0.000215
0.000266
0.000237
0.000262
0.000224
0.000337
0.000409
0.000247
0.000341
0.001587
0.000339
0.000208
0.000223
0.000222
0.000262
0.000338
0.000434
0.000466
0.000349
0.000242
0.000229
0.001583
0.000189
0.000055
0.000319
0.000416
0.000377
0.000227
0.000210
0.000213
0.000231
0.000275
0.000253
0.000256
0.000224
0.000239
0.001476
0.000392
0.000227
0.000213
0.000227
0.000255
0.000282
0.000255
0.000262
0.000230
0.000257
0.000270
0.000289
0.000341
0.000485
0.000387
0.000256
0.000226
0.000193
0.000056
0.000200
0.000245
0.000412
0.000434
0.000333
0.000244
0.000221
0.000256
0.000249
0.000253
0.000247
0.000267
0.000216
0.000244
0.001368
0.000232
0.000227
0.000219
0.000265
0.000265
0.000249
0.000255
0.000259
0.000263
0.000247
0.000260
0.000340
0.000850
0.000272
0.000233
0.000189
0.000056
0.000188
0.001536
0.000289
0.000335
0.000414
0.000410
0.000196
0.000241
0.000266
0.000257
0.000248
0.000254
0.000267
0.000275
0.000267
0.001521
0.000250
0.000284
0.000263
0.000258
0.000259
0.000254
0.000264
0.000276
0.000254
0.000271
0.000459
0.000401
0.000336
0.000230
0.000165
0.000055
0.000211
0.000214
0.000247
0.001723
0.000390
0.000319
0.000202
0.000211
0.000251
0.000265
0.000270
0.000264
0.000250
0.000255
0.000247
0.000262
0.000544
0.001248
0.000208
0.000253
0.001515
0.000537
0.000393
0.000351
0.000286
0.000235
0.000258
0.000480
0.000224
0.000253
0.000199
0.000057
0.000190
0.000229
0.000217
0.000234
0.000249
0.000256
0.000241
0.000254
0.000257
0.000239
0.000259
0.000257
0.000363
0.000553
0.001553
0.001585
0.000294
0.000521
0.000311
0.000241
0.000230
0.000265
0.000254
0.000249
0.000254
0.000261
0.000267
0.000269
0.001588
0.000320
0.000152
0.000056
0.000212
0.000341
0.000346
0.000332
0.000253
0.000217
0.000200
0.000496
0.000355
0.001347
0.000350
0.001536
0.000465
0.000409
0.000415
0.000269
0.000347
0.000331
0.000344
0.000272
0.000245
0.000355
0.001556
0.000534
0.000232
0.000254
0.000258
0.000254
0.000256
0.000260
0.000217
0.000055
0.000199
0.000228
0.000270
0.000241
0.000240
0.001653
0.000953
0.000909
0.000247
0.000228
0.000244
0.000265
0.000253
0.000259
0.000253
0.000249
0.000258
0.000258
0.000267
0.000290
0.001492
0.000270
0.000254
0.000222
0.000231
0.000249
0.000266
0.000270
0.000268
0.000278
0.000254
0.000057
0.000215
0.000193
0.001530
0.001009
0.000301
0.000334
0.000222
0.000206
0.000248
0.000251
0.000249
0.000259
0.000259
0.002021
0.000482
0.000206
0.000232
0.000220
0.000261
0.000263
0.000198
