0.000179
0.020864
0.000825
0.000303
0.000226
0.000232
0.000305
0.000248
0.000325
0.000300
0.000237
0.000407
0.000479
0.000520
0.000323
0.000328
0.000303
0.000379
0.000391
0.000412
0.000299
0.001889
0.000476
0.000448
0.000258
0.000294
0.000310
0.000408
0.000414
0.000369
0.000477
0.000308
0.000058
0.000206
0.000243
0.000258
0.000266
0.000265
0.000266
0.000267
0.000263
0.000270
0.000278
0.000425
0.000481
0.000301
0.000282
0.000399
0.000386
0.000325
0.000254
0.000212
0.001729
0.000291
0.000219
0.000531
0.000235
0.000247
0.000248
0.000278
0.000295
0.000274
0.000313
0.000449
0.000056
0.000245
0.000219
0.000262
0.000256
0.000271
0.000230
0.000273
0.000248
0.000284
0.001678
0.000239
0.000231
0.000266
0.000258
0.000291
0.000231
0.000273
0.000253
0.000350
0.001798
0.000263
0.000246
0.000461
0.000460
0.000394
0.000241
0.000227
0.000520
0.000481
0.000785
0.000164
0.000056
0.000225
0.000217
0.000262
0.000232
0.000313
0.000255
0.000299
0.000545
0.000461
0.000257
0.000220
0.000213
0.000232
0.000254
0.000257
0.000277
0.000226
0.000271
0.000293
0.000334
0.001738
0.000250
0.000247
0.000450
0.000411
0.000526
0.000672
0.000488
0.000370
0.000249
0.000199
0.000056
0.000219
0.000221
0.000264
0.000252
0.000248
0.000258
0.000253
0.000419
0.001528
0.000244
0.000260
0.000215
0.000244
0.000284
0.000235
0.000285
0.000279
0.000801
0.001386
0.000286
0.000262
0.000437
0.000256
0.000224
0.000246
0.000254
0.000264
0.000271
0.000265
0.000266
0.000220
0.000057
0.000192
0.000212
0.000249
0.000235
0.000257
0.000268
0.000233
0.000246
0.000235
0.000257
0.001694
0.000253
0.000227
0.000227
0.000223
0.000254
0.000235
0.000254
0.000252
0.000253
0.000263
0.001741
0.000254
0.000261
0.000468
0.000234
0.000241
0.000232
0.000270
0.000253
0.000208
0.000057
0.000216
0.000210
0.000237
0.000241
0.000249
0.000248
0.000255
0.000241
0.000258
0.000255
0.000255
0.000253
0.000269
0.000269
0.001643
0.000270
0.000290
0.000235
0.000236
0.000275
0.000273
0.000245
0.000256
0.000253
0.000270
0.001859
0.000382
0.000351
0.000250
0.000274
0.000217
0.000057
0.000213
0.000214
0.000242
0.000272
0.000260
0.000237
0.000310
0.000379
0.000471
0.000410
0.000195
0.000229
0.000251
0.000248
0.001647
0.000515
0.000305
0.000411
0.000283
0.000223
0.000248
0.000285
0.000274
0.001811
0.000458
0.000527
0.000207
0.000246
0.000209
0.000258
0.000213
0.000056
0.000212
0.000224
0.000217
0.000272
0.000325
0.000456
0.000411
0.000283
0.000212
0.000206
0.000270
0.000241
0.000249
0.001696
0.000486
0.000322
0.000223
0.000256
0.000263
0.000265
0.000267
0.000267
0.000256
0.001887
0.000314
0.000398
0.000233
0.000237
0.000322
0.000394
0.000316
0.000057
0.000199
0.000414
0.000329
0.000261
0.000289
0.000208
0.000240
0.000264
0.000240
0.000247
0.000227
0.000250
0.001626
0.000308
0.000339
0.000209
0.000226
0.000261
0.000229
0.000280
0.000271
0.000332
0.001778
0.000362
0.000223
0.000528
0.000208
0.000240
0.000226
0.000274
0.000313
0.000056
0.000355
0.000649
0.000554
0.000211
0.000193
0.000262
0.000252
0.000202
0.000268
0.000251
0.000246
0.001705
0.000266
0.000415
0.000384
0.000249
0.000203
0.000253
0.000225
0.000261
0.000269
0.001866
0.000231
0.000223
0.002235
0.000451
0.000275
0.000245
0.000268
0.000251
0.000214
0.000056
0.000224
0.000204
0.000234
0.000241
0.000252
0.001699
0.000218
0.000204
0.000238
0.000251
0.000248
0.000248
0.000251
0.000255
0.000276
0.000462
0.000604
0.000216
0.000241
0.000272
0.000259
0.000259
0.000235
0.000512
0.000435
0.000251
0.000413
0.000544
0.000394
0.000214
0.000208
0.000056
0.000217
0.000201
0.000257
0.000251
0.000239
0.000235
0.000259
0.000434
0.000483
0.001590
0.000261
0.000227
0.000261
0.000226
0.000260
0.000267
0.000408
0.000577
0.000363
0.000225
0.000229
0.000265
0.000327
0.000265
0.000271
0.000403
0.000425
0.000525
0.000465
0.000505
0.000133
0.000056
0.000216
0.000247
0.000219
0.000231
0.000233
0.000243
0.000244
0.000264
0.000243
0.000353
0.000339
0.001565
0.000284
0.000205
0.000205
0.000210
0.000269
0.000274
0.000224
0.000251
0.000279
0.000442
0.000403
0.000347
0.000232
0.000237
0.000260
0.000259
0.000268
0.000267
0.000429
0.000057
0.000203
0.000204
0.000237
0.000273
0.000506
0.000439
0.000249
0.000250
0.000232
0.000255
0.000250
0.000249
0.000283
0.000265
0.000231
0.000545
0.000407
0.001597
0.000271
0.000229
0.000290
0.000238
0.000260
0.000252
0.000259
0.000535
0.000409
0.000373
0.000359
0.000225
0.000227
0.000056
0.000211
0.000224
0.000418
0.000224
0.000257
0.000243
0.000299
0.000566
0.000321
0.000323
0.000230
0.000262
0.000274
0.000243
0.000607
0.000283
0.000215
0.000229
0.000446
0.001668
0.000236
0.000231
0.000312
0.000416
0.000276
0.000289
0.000259
0.000294
0.000599
0.000378
0.000277
0.000056
0.000179
0.000210
0.000242
0.000242
0.000502
0.000248
0.000283
0.000210
0.000395
0.000576
0.000344
0.000238
0.000210
0.000213
0.000262
0.000264
0.000255
0.000261
0.000239
0.000369
0.000272
0.000417
0.001749
0.000267
0.000227
0.000257
0.000323
0.000352
0.000417
0.000740
0.000402
0.000056
0.000243
0.000318
0.000342
0.000414
0.000316
0.000215
0.000237
0.000277
0.000659
0.000289
0.000323
0.000205
0.000212
0.000263
0.000266
0.000247
0.000241
0.000270
0.000268
0.000259
0.000270
0.000386
0.001790
0.000291
0.000352
0.000424
0.000403
0.000222
0.000388
0.000401
0.000354
0.000057
0.000230
0.000378
0.000285
0.000209
0.000235
0.000220
0.000476
0.000206
0.000213
0.000372
0.000413
0.000451
0.000235
0.000237
0.000256
0.000291
0.000361
0.000437
0.000320
0.000219
0.000207
0.000287
0.000717
0.001701
0.000266
0.000385
0.000331
0.000258
0.000241
0.000440
0.000300
0.000056
0.000231
0.000211
0.000224
0.000245
0.000253
0.000245
0.000253
0.000369
0.000424
0.000283
0.000515
0.000370
0.000260
0.000215
0.000521
0.000269
0.000267
0.000275
0.000238
0.000351
0.000231
0.000229
0.000263
0.000412
0.000554
0.001668
0.000237
0.000223
0.000225
0.000269
0.000218
0.000058
0.000338
0.000410
0.000387
0.000209
0.000242
0.000215
0.000263
0.000231
0.000257
0.000261
0.000221
0.000496
0.000322
0.000526
0.000344
0.000265
0.000211
0.000244
0.000355
0.000354
0.000368
0.000361
0.000384
0.000394
0.000241
0.000219
0.000237
0.000278
0.001785
0.000260
0.000214
0.000057
0.000199
0.000200
0.000254
0.000256
0.000364
0.000535
0.000346
0.000212
0.000237
0.000268
0.000257
0.000243
0.000526
0.000453
0.000470
0.000309
0.000274
0.000239
0.000435
0.000492
0.000366
0.000428
0.000512
0.000399
0.000236
0.000241
0.000241
0.000221
0.000252
0.001784
0.000337
0.000058
0.000248
0.000329
0.000199
0.000225
0.000250
0.000245
0.000283
0.000451
0.000427
0.000307
0.000304
0.000290
0.000336
0.000713
0.000294
0.000212
0.000212
0.000236
0.000253
0.000270
0.000257
0.000279
0.000243
0.000265
0.000388
0.000339
0.000460
0.000319
0.000222
0.000230
0.000176
0.000056
0.000465
0.000418
0.000360
0.000204
0.000198
0.000243
0.000239
0.000249
0.000251
0.000242
0.000218
0.000283
0.000293
0.000334
0.000600
0.000433
0.000337
0.000338
0.000367
0.000392
0.000268
0.000215
0.000233
0.000243
0.001817
0.000233
0.001761
0.000925
0.000361
0.000360
0.000148
0.000073
0.000212
0.000208
0.000223
0.000239
0.000257
0.000251
0.000252
0.000249
0.000253
0.000284
0.000395
0.000446
0.000376
0.000411
0.000227
0.000244
0.000271
0.000284
0.000218
0.000232
0.000256
0.000226
0.001803
0.000278
0.000214
0.000263
0.000282
0.000268
0.001956
0.000449
0.000273
0.000057
0.000227
0.000211
0.000205
0.000244
0.000247
0.000253
0.000243
0.000258
0.000255
0.000350
0.000588
0.000303
0.000408
0.000240
0.000224
0.000270
0.000381
0.000393
0.000374
0.000262
0.001794
0.000249
0.000229
0.000222
0.000246
0.000272
0.000247
0.000270
0.000242
0.000348
0.000423
0.000057
0.000221
0.000224
0.000205
0.000278
0.000233
0.000240
0.000256
0.000250
0.000241
0.000264
0.000239
0.000276
0.000323
0.000508
0.000288
0.000319
0.000490
0.000192
0.000226
0.000246
0.000265
0.000251
0.000276
0.000260
0.000274
0.001787
0.000288
0.000220
0.000252
0.000239
0.000226
0.000055
0.000246
0.000383
0.000242
0.000190
0.000227
0.000234
0.000241
0.000261
0.000241
0.000229
0.000227
0.000268
0.000257
0.000348
0.000452
0.000353
0.000343
0.000206
0.000235
0.000234
0.000256
0.000258
0.000250
0.000266
0.000257
0.000259
0.000270
0.001742
0.000233
0.000216
0.000195
0.000057
0.000196
0.000220
0.000244
0.000257
0.000355
0.000392
0.000427
0.000274
0.000205
0.000247
0.000252
0.000243
0.000251
0.000258
0.000255
0.000251
0.000252
0.000255
0.000257
0.000255
0.000267
0.000265
0.000263
0.000227
0.000242
0.000286
0.000283
0.000258
0.000245
0.000266
0.000207
0.000056
0.000192
0.000218
0.000238
0.000248
0.000246
0.000251
0.000243
0.000255
0.000367
0.000205
0.000209
0.000223
0.000254
0.000251
0.000266
0.000268
0.000249
0.000252
0.000373
0.000203
0.000235
0.000293
0.000280
0.000261
0.000264
0.000299
0.000248
0.000249
0.000266
0.000444
0.000681
0.000056
0.000229
0.000305
0.000222
0.000204
0.000201
0.000257
0.000238
0.000249
0.000250
0.000250
0.000261
0.000267
0.000516
0.000486
0.001593
0.000237
0.000494
0.000205
0.000226
0.000432
0.000431
0.000387
0.000240
0.000267
0.000265
0.000253
0.000277
0.000252
0.000306
0.000268
0.000198
0.000056
0.000365
0.000374
0.000378
0.000306
0.000214
0.000232
0.000249
0.000252
0.000223
0.000248
0.000272
0.000243
0.000233
0.000279
0.000369
0.000464
0.000389
0.001806
0.000279
0.000213
0.000336
0.000414
0.000492
0.000278
0.000371
0.000303
0.000256
0.000235
0.000226
0.000242
0.000215
0.000072
0.000187
0.000203
0.000235
0.000287
0.000355
0.000473
0.000337
0.000237
0.000250
0.000228
0.000241
0.000265
0.000269
0.000257
0.000253
0.000254
0.000312
0.000489
0.000345
0.000436
0.000236
0.001824
0.000269
0.000553
0.000547
0.000386
0.000286
0.000230
0.000240
0.000271
0.000493
0.000057
0.000207
0.000253
0.000208
0.000250
0.000416
0.000437
0.000438
0.000264
0.000208
0.000328
0.000227
0.000223
0.000257
0.000300
0.000362
0.000216
0.000219
0.000384
0.000394
0.000379
0.000583
0.001772
0.000255
0.000352
0.000587
0.000347
0.000242
0.000379
0.000241
0.000214
0.000208
0.000056
0.000221
0.000336
0.000351
0.000358
0.000321
0.000321
0.000370
0.000210
0.000230
0.000260
0.000274
0.000240
0.000237
0.000250
0.000259
0.000271
0.000323
0.000376
0.000491
0.000355
0.000320
0.000220
0.000249
0.001789
0.000348
0.000485
0.000703
0.000284
0.000254
0.000286
0.000171
0.000056
0.000188
0.000220
0.000312
0.000256
0.000277
0.000386
0.000410
0.000296
0.000318
0.000525
0.000201
0.000221
0.000230
0.000279
0.000276
0.000275
0.000225
0.000342
0.000581
0.000309
0.000253
0.000251
0.000249
0.000258
0.000267
0.000264
0.000232
0.000259
0.000260
0.000370
0.000149
0.000057
0.000262
0.000239
0.000238
0.000243
0.000239
0.000253
0.000242
0.000360
0.000214
0.000203
0.000262
0.000345
0.000421
0.000434
0.000330
0.000299
0.000206
0.000247
0.000247
0.000253
0.000289
0.000259
0.000243
0.000243
0.000283
0.000337
0.000473
0.000362
0.000337
0.000216
0.000168
0.000056
0.000194
0.000201
0.000266
0.000245
0.000242
0.000244
0.000256
0.000259
0.000496
0.000227
0.000246
0.000249
0.000257
0.000250
0.000264
0.000276
0.000270
0.000361
0.000245
0.000228
0.000237
0.000268
0.000257
0.000265
0.000275
0.000266
0.000274
0.000256
0.000237
0.000522
0.000166
0.000056
0.000185
0.000211
0.000244
0.000258
0.000248
0.000228
0.000307
0.000458
0.000288
0.000208
0.000238
0.000255
0.000240
0.000280
0.000393
0.001814
0.000256
0.000236
0.000303
0.000384
0.000408
0.000348
0.000372
0.000391
0.000409
0.000317
0.000263
0.000245
0.000289
0.000267
0.001411
0.000055
0.000382
0.000302
0.000318
0.000199
0.000209
0.000234
0.000245
0.000243
0.000245
0.000255
0.000253
0.000257
0.000256
0.000283
0.000560
0.001691
0.000212
0.000218
0.000208
0.000268
0.000251
0.000253
0.000338
0.000448
0.000271
0.000343
0.000241
0.000247
0.000276
0.000253
0.000225
0.000057
0.001205
0.000555
0.000320
0.000306
0.000204
0.000199
0.000215
0.000238
0.000472
0.000235
0.000228
0.000244
0.000320
0.000519
0.000431
0.000332
0.000298
0.000245
0.000324
0.000388
0.000241
0.000216
0.000276
0.000236
0.000263
0.000587
0.000541
0.000289
0.000233
0.000277
0.000184
0.000057
0.000213
0.000213
0.000216
0.000248
0.001421
0.000372
0.000206
0.000247
0.000248
0.000240
0.000257
0.000251
0.000242
0.000262
0.000267
0.000259
0.000454
0.000683
0.000271
0.001805
0.000251
0.000283
0.000297
0.000390
0.000527
0.000421
0.000237
0.000230
0.000250
0.000267
0.000223
0.000057
0.000205
0.000273
0.000197
0.001340
0.000315
0.000196
0.000256
0.000217
0.000232
0.000234
0.000238
0.000252
0.000277
0.000253
0.000241
0.000260
0.000579
0.000449
0.000278
0.000218
0.000238
0.000278
0.000255
0.000229
0.000359
0.000225
0.000212
0.000280
0.000261
0.000391
0.000588
0.000056
0.000211
0.000232
0.000231
0.000260
0.000263
0.000245
0.000232
0.000257
0.000284
0.000242
0.001487
0.000213
0.000198
0.000251
0.000250
0.000237
0.000267
0.000265
0.000272
0.000256
0.000267
0.000540
0.000511
0.000272
0.000248
0.000267
0.001836
0.000231
0.000226
0.000359
0.000447
0.000057
0.000265
0.000426
0.000454
0.000508
0.000523
0.000549
0.001438
0.000441
0.000547
0.000645
0.000553
0.000752
0.000446
0.000625
0.000580
0.001724
0.000430
0.000483
0.000410
0.000292
0.000248
0.000293
0.000288
0.000264
0.000278
0.000266
0.000325
0.000253
0.000260
0.000299
0.001321
0.000057
0.000232
0.000248
0.000222
0.000236
0.000244
0.000244
0.000237
0.000261
0.000235
0.000280
0.000239
0.000260
0.000235
0.000260
0.000262
0.000259
0.001850
0.000258
0.000261
0.000247
0.000250
0.000265
0.000266
0.000279
0.000412
0.000418
0.000329
0.000241
0.000263
0.000291
0.000163
0.000058
0.000214
0.001381
0.000258
0.000269
0.000255
0.000239
0.000255
0.000243
0.000255
0.000244
0.000237
0.000238
0.000259
0.000440
0.000280
0.000356
0.000264
0.000289
0.001899
0.000274
0.000251
0.000260
0.000256
0.000262
0.000277
0.000259
0.000292
0.000242
0.000248
0.000296
0.000239
0.000057
0.000192
0.000248
0.000224
0.001425
0.000290
0.000241
0.000231
0.000217
0.000237
0.000256
0.000250
0.000246
0.000243
0.000255
0.000291
0.000244
0.000254
0.000255
0.000266
0.000274
0.000249
0.001860
0.000256
0.001761
0.000254
0.000252
0.000252
0.000235
0.000256
0.000293
0.000206
0.000056
0.000216
0.000237
0.001367
0.000223
0.000266
0.000236
0.000221
0.000238
0.000249
0.000242
0.000249
0.000268
0.000238
0.000262
0.000258
0.000257
0.000264
0.000275
0.000294
0.000259
0.001881
0.000263
0.001786
0.000276
0.000253
0.000239
0.000260
0.000273
0.000260
0.000254
0.000202
0.000056
0.001443
0.000229
0.000245
0.000228
0.000214
0.000221
0.000273
0.000363
0.000248
0.000261
0.000249
0.000255
0.000304
0.000372
0.000403
0.000273
0.000251
0.000267
0.000234
0.000226
0.000262
0.000331
0.000239
0.000296
0.000238
0.000276
0.000267
0.000333
0.000706
0.000349
0.000184
0.000056
0.000216
0.000283
0.000266
0.000313
0.000346
0.000282
0.001643
0.000313
0.000281
0.000258
0.000263
0.000302
0.000268
0.000286
0.000277
0.000308
0.000399
0.000430
0.000429
0.000269
0.000321
0.000278
0.000266
0.000262
0.000327
0.000263
0.000260
0.000244
0.000240
0.000282
0.000434
0.000056
0.000331
0.000356
0.000274
0.000242
0.000262
0.000229
0.000231
0.000242
0.000253
0.000267
0.001489
0.000261
0.000218
0.000233
0.000241
0.000289
0.000267
0.000252
0.000261
0.000251
0.000256
0.000397
0.000537
0.000363
0.000227
0.000277
0.000270
0.000262
0.000218
0.000249
0.000244
0.000055
0.000199
0.000194
0.000344
0.000390
0.000383
0.000279
0.000207
0.000247
0.000252
0.000270
0.000222
0.000257
0.000254
0.000262
0.000251
0.000238
0.000362
0.001309
0.000225
0.000233
0.000242
0.000249
0.000335
0.000515
0.000216
0.000287
0.000552
0.000358
0.000430
0.000233
0.000158
0.000057
0.000199
0.000223
0.000264
0.000263
0.000313
0.000194
0.000329
0.000556
0.000375
0.000280
0.000366
0.000398
0.000394
0.000353
0.000235
0.000226
0.000215
0.000245
0.000378
0.000555
0.001192
0.000245
0.000245
0.000274
0.000237
0.000231
0.000259
0.000326
0.000402
0.000556
0.000198
0.000057
0.000192
0.000211
0.000251
0.000235
0.000243
0.000252
0.000245
0.000250
0.000261
0.000367
0.000501
0.000412
0.000227
0.000207
0.000229
0.000254
0.000245
0.000269
0.000259
0.000238
0.000508
0.000211
0.000423
0.000332
0.000379
0.000223
0.000243
0.000281
0.000254
0.000289
0.000227
0.000057
0.000295
0.000303
0.000278
0.000466
0.000437
0.000357
0.000192
0.000264
0.000225
0.000257
0.000269
0.000257
0.000247
0.000241
0.000253
0.000226
0.000269
0.000400
0.000542
0.000310
0.000218
0.000270
0.000205
0.000244
0.000261
0.000284
0.000258
0.000278
0.000269
0.000278
0.000295
0.000056
0.000309
0.000274
0.000234
0.000220
0.000248
0.000246
0.000244
0.000253
0.000262
0.000257
0.000255
0.000238
0.000370
0.000538
0.000373
0.000304
0.000219
0.000204
0.000238
0.000264
0.000275
0.000239
0.000270
0.000268
0.000260
0.000285
0.000432
0.000619
0.000484
0.000225
0.000148
0.000056
0.000385
0.000206
0.000192
0.000243
0.000259
0.000241
0.000242
0.000248
0.000255
0.000260
0.000219
0.000241
0.000287
0.000222
0.000249
0.000243
0.000262
0.000259
0.000274
0.000263
0.000270
0.000252
0.000264
0.000264
0.000265
0.000273
0.000235
0.000278
0.000252
0.000285
0.000222
0.000056
0.000188
0.000204
0.000259
0.000247
0.000237
0.000241
0.000264
0.000240
0.000255
0.000284
0.000242
0.000220
0.000267
0.000397
0.000243
0.000276
0.000261
0.000270
0.000258
0.000272
0.000275
0.000242
0.000241
0.000247
0.000270
0.000275
0.000251
0.000255
0.000267
0.000264
0.000223
0.000056
0.000250
0.000379
0.000351
0.000277
0.000305
0.000236
0.000200
0.000271
0.000228
0.000242
0.000238
0.000263
0.000258
0.000223
0.000262
0.000260
0.000273
0.000261
0.000255
0.000253
0.000278
0.000265
0.000269
0.000258
0.000271
0.000278
0.000247
0.000289
0.000233
0.000265
0.000206
0.000056
0.000177
0.000228
0.000240
0.000266
0.000253
0.000447
0.000217
0.000234
0.000289
0.000407
0.000521
0.000351
0.000218
0.000203
0.000264
0.000268
0.000239
0.000267
0.000262
0.000269
0.000270
0.000254
0.000263
0.000271
0.000486
0.000586
0.000268
0.000261
0.000268
0.000257
0.000204
0.000055
0.000211
0.000217
0.000226
0.000250
0.000275
0.000741
0.000325
0.000331
0.000230
0.000225
0.000246
0.000255
0.000269
0.000235
0.000258
0.000271
0.000264
0.000245
0.000646
0.000371
0.000341
0.000210
0.000257
0.000281
0.000277
0.000261
0.000262
0.000260
0.000252
0.000333
0.000347
0.000057
0.000253
0.000240
0.000211
0.000242
0.000248
0.000259
0.000248
0.000227
0.000244
0.000251
0.000250
0.000252
0.000251
0.000362
0.000582
0.000449
0.000228
0.000220
0.000268
0.000253
0.000261
0.000271
0.000492
0.000232
0.000247
0.000673
0.000374
0.000438
0.000281
0.000252
0.000191
0.000056
0.000201
0.000210
0.000238
0.000233
0.000259
0.000256
0.000299
0.000781
0.000352
0.000320
0.000215
0.000256
0.000279
0.000276
0.000278
0.000228
0.000259
0.000234
0.000255
0.000339
0.000459
0.000516
0.000427
0.000275
0.000442
0.000349
0.000492
0.000218
0.000232
0.000348
0.000428
0.000057
0.000255
0.000223
0.000483
0.000197
0.000232
0.000233
0.000239
0.000262
0.000235
0.000240
0.000254
0.000402
0.000390
0.000373
0.000219
0.000218
0.000269
0.000237
0.000272
0.000270
0.000271
0.000255
0.000249
0.000278
0.000287
0.000540
0.000439
0.000268
0.000239
0.000272
0.000223
0.000057
0.000207
0.000237
0.000234
0.000239
0.000247
0.000319
0.000328
0.000449
0.000388
0.000282
0.000346
0.000260
0.000209
0.000267
0.000263
0.000233
0.000250
0.000274
0.000324
0.000391
0.000500
0.000328
0.000415
0.000341
0.000400
0.000403
0.000365
0.000255
0.000237
0.000365
0.000260
0.000057
0.000220
0.000243
0.000217
0.000246
0.000261
0.000260
0.000239
0.000251
0.000251
0.000262
0.000239
0.000404
0.000443
0.000334
0.000387
0.000239
0.000232
0.000270
0.000280
0.000221
0.000253
0.000253
0.000263
0.000273
0.000276
0.000366
0.000473
0.000450
0.000257
0.000272
0.000213
0.000056
0.000225
0.000204
0.000262
0.000241
0.000254
0.000311
0.000508
0.000523
0.000350
0.000673
0.000309
0.000203
0.000208
0.000265
0.000234
0.000274
0.000280
0.000286
0.000497
0.000451
0.001573
0.000245
0.000263
0.000252
0.000300
0.000237
0.000382
0.000425
0.000324
0.000341
0.000156
0.000057
0.000213
0.000205
0.000242
0.000250
0.000233
0.000255
0.000269
0.000256
0.000251
0.000376
0.000333
0.000364
0.000275
0.000388
0.000384
0.000332
0.000232
0.000217
0.000241
0.000261
0.000247
0.000249
0.000277
0.000263
0.000351
0.000545
0.000362
0.000251
0.000218
0.000273
0.000196
0.000056
0.000213
0.000227
0.000254
0.000256
0.000256
0.000246
0.000445
0.000222
0.000229
0.000258
0.000242
0.000253
0.000259
0.000257
0.000245
0.000276
0.000264
0.000258
0.000280
0.000250
0.000264
0.000276
0.000316
0.000230
0.000259
0.000276
0.000273
0.000272
0.000258
0.000268
0.000197
0.000055
0.000229
0.000207
0.000301
0.000500
0.000370
0.000216
0.000210
0.000237
0.000266
0.000248
0.000255
0.000242
0.000266
0.000260
0.000246
0.000235
0.000252
0.000263
0.000256
0.000353
0.000400
0.000447
0.000230
0.000265
0.000275
0.000246
0.000268
0.000255
0.000272
0.000276
0.000216
0.000056
0.000387
0.000392
0.000411
0.000217
0.000237
0.000255
0.000475
0.000201
0.000204
0.000236
0.000283
0.000333
0.000406
0.000406
0.001767
0.000267
0.000249
0.000236
0.000280
0.000246
0.000374
0.000424
0.000518
0.000401
0.000226
0.000239
0.000283
0.000416
0.000281
0.000281
0.000188
0.000057
0.000228
0.000394
0.000281
0.000314
0.000510
0.000201
0.000235
0.000242
0.000257
0.000242
0.000255
0.000252
0.000259
0.000340
0.000385
0.000500
0.000232
0.000214
0.000257
0.000268
0.000252
0.000314
0.000248
0.000266
0.000282
0.000448
0.000457
0.000619
0.000314
0.000230
0.000206
0.000056
0.000208
0.000201
0.000248
0.000232
0.000246
0.000248
0.000270
0.000270
0.000345
0.000518
0.000288
0.000386
0.000201
0.000235
0.000265
0.000277
0.000329
0.000228
0.000263
0.000277
0.000245
0.000278
0.000577
0.000327
0.000236
0.000293
0.000240
0.000536
0.000387
0.000277
0.000159
0.000057
0.000201
0.000213
0.000372
0.000416
0.000344
0.000234
0.000225
0.000248
0.000264
0.000254
0.000263
0.000264
0.000224
0.000250
0.000263
0.000283
0.000466
0.000297
0.000289
0.000388
0.000458
0.000229
0.000283
0.000268
0.000304
0.000277
0.000261
0.000260
0.000473
0.000548
0.000199
0.000057
0.000180
0.000205
0.000241
0.000250
0.000249
0.000490
0.000216
0.000226
0.000270
0.000321
0.000554
0.000547
0.000223
0.000233
0.000236
0.000253
0.000252
0.000250
0.000250
0.000257
0.000251
0.000279
0.000323
0.000495
0.000390
0.000333
0.000333
0.000345
0.000310
0.000227
0.000157
0.000056
0.000203
0.000199
0.000248
0.000481
0.000325
0.000381
0.000245
0.000210
0.000200
0.000247
0.000258
0.000248
0.000255
0.000253
0.000306
0.000212
0.000254
0.000245
0.000266
0.000358
0.000549
0.000405
0.000220
0.000227
0.000282
0.000276
0.000255
0.000257
0.000280
0.000247
0.000221
0.000056
0.000289
0.000381
0.000519
0.000191
0.000222
0.000198
0.000327
0.000504
0.000273
0.000208
0.000205
0.000277
0.000273
0.000449
0.000436
0.000326
0.000206
0.000219
0.000301
0.000202
0.000269
0.000262
0.000262
0.000281
0.000265
0.000370
0.000346
0.000404
0.000381
0.000206
0.000153
0.000057
0.000214
0.000200
0.000247
0.000252
0.000258
0.000258
0.000237
0.000263
0.000243
0.000251
0.000265
0.000239
0.000254
0.001462
0.000250
0.000232
0.000253
0.000255
0.000265
0.000286
0.000259
0.000250
0.000269
0.000252
0.000264
0.000267
0.000286
0.000255
0.000271
0.000254
0.000212
0.000055
0.000212
0.000213
0.000231
0.000254
0.000238
0.000238
0.000258
0.000260
0.000239
0.000243
0.000250
0.000260
0.000257
0.000253
0.000257
0.000255
0.000255
0.000260
0.000263
0.000262
0.000252
0.000261
0.000248
0.000246
0.001356
0.000283
0.000497
0.000441
0.000417
0.000220
0.000155
0.000057
0.000206
0.000217
0.000251
0.000238
0.000503
0.000228
0.000186
0.000221
0.000258
0.000341
0.000532
0.000353
0.000209
0.000216
0.000222
0.000265
0.000251
0.000259
0.000256
0.000255
0.000265
0.000248
0.000262
0.000406
0.000522
0.000455
0.000243
0.000252
0.001353
0.000288
0.000183
0.000055
0.000233
0.000422
0.000351
0.000250
0.000190
0.000210
0.000222
0.000262
0.000244
0.000255
0.000248
0.000256
0.000262
0.000303
0.000515
0.000443
0.000294
0.000249
0.000239
0.000236
0.000277
0.000264
0.000263
0.000275
0.000264
0.000262
0.000337
0.000529
0.000423
0.000373
0.000156
0.000055
0.000193
0.000229
0.001316
0.000351
0.000302
0.000436
0.000434
0.000276
0.000432
0.000395
0.000223
0.000217
0.000229
0.000261
0.000252
0.000254
0.000295
0.000568
0.000451
0.000287
0.000271
0.000248
0.000246
0.000529
0.000221
0.000259
0.000260
0.000266
0.000274
0.000582
0.000323
0.000056
0.000335
0.000386
0.000229
0.000203
0.001412
0.000687
0.000265
0.000227
0.000209
0.000244
0.000226
0.000239
0.000251
0.000257
0.000261
0.000257
0.000234
0.000311
0.000448
0.000355
0.000475
0.000218
0.000220
0.000242
0.000252
0.000278
0.000274
0.000234
0.000267
0.000271
0.000231
0.000056
0.000349
0.000319
0.000255
0.000207
0.000248
0.000249
0.000243
0.000253
0.000230
0.000249
0.001508
0.000416
0.000277
0.000209
0.000230
0.000249
0.000254
0.000255
0.000250
0.000263
0.000267
0.000257
0.000281
0.000369
0.000403
0.000517
0.000215
0.000289
0.000255
0.000269
0.000194
0.000056
0.000212
0.000460
0.000197
0.000207
0.000434
0.000322
0.000345
0.000370
0.000456
0.000203
0.000223
0.000249
0.000263
0.000264
0.000265
0.001387
0.000379
0.000284
0.000240
0.000272
0.000277
0.000253
0.000254
0.000258
0.000254
0.000272
0.000464
0.000422
0.000314
0.000271
0.000160
0.000056
0.000199
0.000217
0.000241
0.000245
0.000243
0.000243
0.000237
0.000244
0.000306
0.000437
0.000409
0.000312
0.000203
0.000205
0.000250
0.000271
0.000275
0.000262
0.000268
0.000226
0.000255
0.000281
0.001364
0.000227
0.000270
0.000215
0.000227
0.000282
0.000258
0.000258
0.000204
0.000056
0.000212
0.000361
0.000384
0.000350
0.000233
0.000210
0.000238
0.000259
0.000253
0.000258
0.000260
0.000259
0.000247
0.000249
0.000266
0.000265
0.000252
0.000271
0.000277
0.000242
0.000243
0.000276
0.000269
0.000278
0.000290
0.000269
0.000282
0.000241
0.000263
0.000534
0.001294
0.000056
0.000215
0.000215
0.000231
0.000255
0.000238
0.000261
0.000250
0.000224
0.000247
0.000256
0.000253
0.000266
0.000253
0.000242
0.000248
0.001709
0.000355
0.000223
0.000217
0.000224
0.000256
0.000254
0.000274
0.000264
0.000260
0.000270
0.000264
0.000278
0.000272
0.000253
0.000242
0.000055
0.000366
0.000292
0.001351
0.000201
0.000226
0.000220
0.000245
0.000251
0.000253
0.000256
0.000235
0.000347
0.000393
0.000517
0.000251
0.000203
0.000226
0.000248
0.000262
0.000263
0.000253
0.000269
0.000264
0.000281
0.000268
0.000432
0.000462
0.000275
0.000261
0.000257
0.000199
0.000057
0.000198
0.000216
0.000249
0.000250
0.000249
0.000232
0.000232
0.000249
0.000439
0.000401
0.001168
0.000241
0.000228
0.000269
0.000251
0.000270
0.000274
0.000250
0.000323
0.000390
0.000412
0.000257
0.000230
0.000230
0.000279
0.000279
0.000266
0.000303
0.000264
0.000278
0.000214
0.000055
0.000241
0.000406
0.000444
0.000213
0.000206
0.000210
0.000237
0.000264
0.000274
0.000279
0.000205
0.000247
0.000540
0.000479
0.000495
0.001436
0.000223
0.000251
0.000341
0.000351
0.000434
0.000424
0.000469
0.000405
0.000227
0.000264
0.000258
0.000279
0.000270
0.000269
0.000208
0.000056
0.000205
0.000220
0.000468
0.000543
0.000302
0.000204
0.000256
0.000229
0.000242
0.000258
0.000255
0.000262
0.000269
0.000244
0.000264
0.000278
0.000376
0.000492
0.000314
0.001316
0.000276
0.000251
0.000248
0.000266
0.000568
0.000364
0.000415
0.000214
0.000249
0.000268
0.000212
0.000055
0.000185
0.000235
0.000236
0.000237
0.000251
0.000284
0.000432
0.000412
0.000349
0.000242
0.000224
0.000257
0.000270
0.000263
0.000262
0.000263
0.000265
0.000251
0.000268
0.000315
0.000526
0.000407
0.000332
0.001341
0.000336
0.000244
0.000293
0.000409
0.000434
0.000353
0.000340
0.000056
0.000187
0.000203
0.000246
0.000251
0.000252
0.000253
0.001685
0.000265
0.000228
0.000208
0.000259
0.000262
0.000305
0.000325
0.000328
0.000284
0.000249
0.000338
0.000589
0.000313
0.000285
0.000270
0.000229
0.000218
0.001438
0.000420
0.000421
0.000482
0.000317
0.000301
0.000151
0.000056
0.000196
0.000238
0.000236
0.000264
0.000242
0.000258
0.001779
0.000225
0.000231
0.000247
0.000390
0.000406
0.001426
0.000331
0.000431
0.000205
0.000217
0.000237
0.000249
0.000272
0.001612
0.000572
0.000396
0.000286
0.000206
0.000232
0.000238
0.000288
0.000258
0.000257
0.000197
0.000058
0.000181
0.000218
0.000266
0.000249
0.000262
0.000266
0.000286
0.000258
0.000249
0.000251
0.000253
0.000252
0.000251
0.000272
0.000255
0.001509
0.000268
0.000233
0.000260
0.000286
0.000262
0.000264
0.000426
0.001274
0.000276
0.000245
0.000260
0.000254
0.000471
0.000215
0.000173
0.000057
0.000208
0.000223
0.000239
0.000229
0.000249
0.000222
0.000236
0.001763
0.000219
0.000211
0.000232
0.000365
0.000262
0.000197
0.001454
0.000247
0.000218
0.000214
0.000272
0.000250
0.000251
0.000309
0.000324
0.001370
0.000276
0.000228
0.000224
0.000252
0.001382
0.000281
0.000210
0.000057
0.000212
0.000350
0.000207
0.000205
0.000250
0.000252
0.000251
0.000268
0.000267
0.000249
0.000265
0.000264
0.000254
0.000251
0.000328
0.001466
0.000255
0.000267
0.000258
0.000247
0.000283
0.000263
0.000249
0.001505
0.000335
0.000254
0.000257
0.001343
0.000250
0.000217
0.000196
0.000058
0.000195
0.000361
0.000365
0.000206
0.000232
0.000237
0.000256
0.000263
0.000266
0.000265
0.000239
0.000255
0.000256
0.000297
0.000437
0.001239
0.000218
0.000219
0.000244
0.000278
0.000234
0.000243
0.000248
0.001303
0.000373
0.000235
0.000239
0.000227
0.000252
0.001344
0.000317
0.000058
0.000302
0.000267
0.000213
0.000199
0.000237
0.000251
0.000249
0.000242
0.000283
0.000252
0.000236
0.000252
0.000278
0.000276
0.000470
0.001445
0.000237
0.000230
0.000295
0.000518
0.000315
0.000413
0.001299
0.000319
0.000232
0.000259
0.001287
0.000342
0.000245
0.000499
0.000341
0.000056
0.000209
0.000243
0.000249
0.000259
0.000249
0.000256
0.000277
0.000242
0.000266
0.000263
0.000320
0.000536
0.001334
0.000216
0.000227
0.000252
0.000288
0.000264
0.000211
0.000220
0.000330
0.001332
0.000232
0.000237
0.000218
0.000245
0.001526
0.000430
0.000458
0.000243
0.000196
0.000057
0.000193
0.000199
0.000245
0.000243
0.000247
0.000264
0.000249
0.000245
0.000438
0.000502
0.000303
0.001441
0.000231
0.000216
0.000269
0.000270
0.000252
0.000460
0.001484
0.000317
0.000346
0.000365
0.001395
0.000375
0.000238
0.000354
0.000220
0.000218
0.000237
0.000271
0.000210
0.000055
0.000198
0.000220
0.000318
0.000289
0.000226
0.000558
0.000320
0.000350
0.001479
0.000296
0.000316
0.000259
0.000199
0.000305
0.000357
0.001391
0.000254
0.000226
0.000237
0.000210
0.000310
0.001594
0.000368
0.000292
0.000222
0.000213
0.000508
0.000318
0.000230
0.000229
0.000251
0.000056
0.000245
0.000388
0.000325
0.000285
0.000221
0.001453
0.000242
0.000229
0.000257
0.000269
0.000273
0.000244
0.000382
0.001404
0.000268
0.000220
0.000421
0.001275
0.000288
0.000451
0.000352
0.000244
0.000254
0.000245
0.000276
0.000253
0.000460
0.000223
0.000255
0.000276
0.000213
0.000056
0.000212
0.000223
0.000351
0.001467
0.000280
0.000194
0.000303
0.000251
0.000240
0.000248
0.000246
0.000246
0.001663
0.000201
0.000224
0.000218
0.001371
0.000328
0.000447
0.000404
0.000406
0.000222
0.000218
0.000234
0.000375
0.000240
0.000234
0.000238
0.000267
0.000238
0.000220
0.000056
0.000197
0.000377
0.001442
0.000214
0.000254
0.000273
0.000259
0.000235
0.000345
0.000358
0.001337
0.000257
0.000296
0.000249
0.000204
0.001428
0.000570
0.000297
0.000302
0.000408
0.000340
0.000240
0.000226
0.000231
0.000272
0.000296
0.000269
0.000294
0.000446
0.000486
0.001367
0.000056
0.000210
0.000248
0.000216
0.000217
0.000248
0.000493
0.001481
0.000284
0.000224
0.000205
0.000243
0.001384
0.000448
0.000368
0.000462
0.000248
0.000212
0.000209
0.000242
0.000281
0.000251
0.000265
0.000281
0.000265
0.000244
0.000311
0.000402
0.000532
0.001456
0.000272
0.000183
0.000056
0.000207
0.000226
0.000494
0.000439
0.001199
0.000282
0.000259
0.000254
0.000245
0.000253
0.000246
0.000268
0.000320
0.000659
0.000241
0.000235
0.000227
0.000279
0.000226
0.000283
0.000259
0.000270
0.000258
0.000266
0.000267
0.000544
0.000329
0.000358
0.000296
0.001477
0.000157
0.000058
0.000201
0.000200
0.000293
0.000508
0.000264
0.000338
0.000294
0.000321
0.000281
0.000254
0.000265
0.000263
0.000235
0.000316
0.000241
0.000266
0.000587
0.000321
0.000305
0.000357
0.000289
0.000477
0.000232
0.000218
0.000208
0.000268
0.000257
0.000284
0.000291
0.000547
0.000324
0.000057
0.000210
0.001362
0.000279
0.000326
0.000548
0.000296
0.000317
0.000352
0.000235
0.000199
0.000254
0.000259
0.000257
0.000259
0.000270
0.000262
0.000253
0.001451
0.000230
0.000247
0.000198
0.000276
0.000269
0.000274
0.000278
0.000251
0.000273
0.000254
0.000299
0.000419
0.000320
0.000057
0.000237
0.000225
0.000234
0.001528
0.000325
0.000218
0.000211
0.000202
0.000231
0.000241
0.000252
0.000292
0.000240
0.000248
0.000264
0.000269
0.000237
0.000265
0.000256
0.000262
0.001430
0.000267
0.000257
0.000314
0.000227
0.000207
0.000256
0.000258
0.000279
0.000503
0.000378
0.000056
0.000203
0.000208
0.000384
0.000307
0.000241
0.000235
0.001539
0.000363
0.000318
0.000208
0.000233
0.000367
0.000304
0.000220
0.000216
0.000250
0.000248
0.000260
0.000259
0.000253
0.000495
0.000529
0.001154
0.000264
0.000240
0.000194
0.000271
0.000261
0.000269
0.000260
0.000339
0.000057
0.000200
0.000358
0.000194
0.000206
0.000244
0.000246
0.000261
0.000212
0.001426
0.000727
0.000176
0.000290
0.000227
0.000223
0.000233
0.000242
0.000251
0.000276
0.000259
0.000316
0.000305
0.000505
0.000426
0.001376
0.000245
0.000263
0.000257
0.000270
0.000263
0.000275
0.000566
0.000057
0.000232
0.000220
0.000252
0.000219
0.000225
0.000253
0.000245
0.000261
0.000255
0.001597
0.000329
0.000260
0.000262
0.000259
0.000465
0.000298
0.000398
0.000476
0.000335
0.000310
0.000471
0.000452
0.001288
0.000244
0.000243
0.000204
0.001796
0.000394
0.000606
0.000319
0.000137
0.000057
0.000210
0.000189
0.000235
0.000238
0.000244
0.000250
0.000354
0.000418
0.000499
0.000428
0.000300
0.000210
0.000206
0.000256
0.000268
0.000266
0.000245
0.000260
0.000248
0.000260
0.000274
0.000376
0.001393
0.000256
0.000222
0.000275
0.001919
0.000354
0.000444
0.000303
0.000155
0.000056
0.000228
0.000172
0.000243
0.001537
0.000419
0.000243
0.000249
0.000255
0.000252
0.000333
0.000365
0.000375
0.000357
0.000308
0.000268
0.000533
0.001347
0.000324
0.000205
0.000226
0.000222
0.000260
0.000347
0.000436
0.000603
0.000427
0.000216
0.000221
0.000271
0.000276
0.000209
0.000055
0.000203
0.000195
0.001462
0.000415
0.000192
0.000215
0.000220
0.000255
0.000241
0.000260
0.000247
0.000274
0.000264
0.000277
0.000236
0.000394
0.000418
0.000368
0.001375
0.000297
0.000204
0.000258
0.000264
0.000263
0.000360
0.000480
0.000475
0.000295
0.000290
0.000244
0.000404
0.000056
0.000214
0.000212
0.000252
0.000265
0.001582
0.000227
0.000256
0.000246
0.000256
0.000257
0.000255
0.000262
0.000257
0.000248
0.000477
0.000435
0.001479
0.000732
0.000219
0.000350
0.000235
0.000212
0.000243
0.000264
0.001754
0.000738
0.000253
0.000250
0.000265
0.000290
0.000207
0.000056
0.000210
0.000203
0.000245
0.000246
0.000256
0.000244
0.000249
0.000260
0.000239
0.000229
0.000280
0.000302
0.000238
0.000258
0.000256
0.000258
0.000267
0.001599
0.000676
0.000400
0.000354
0.000217
0.000213
0.000279
0.000276
0.000253
0.000282
0.000251
0.001502
0.000354
0.000279
0.000057
0.000198
0.000200
0.000255
0.000238
0.000258
0.000236
0.000254
0.000254
0.000248
0.000272
0.000253
0.000509
0.000471
0.000260
0.000212
0.000214
0.000268
0.001456
0.000692
0.000397
0.000338
0.000312
0.000225
0.000222
0.000271
0.000256
0.000257
0.000267
0.001488
0.000428
0.000244
0.000056
0.000208
0.000199
0.000240
0.000245
0.000255
0.000240
0.000241
0.000259
0.000263
0.000262
0.000353
0.000400
0.000355
0.000197
0.000236
0.000241
0.000267
0.000253
0.001565
0.000617
0.000481
0.000362
0.000220
0.000242
0.000252
0.000259
0.000264
0.000280
0.000269
0.001429
0.000309
0.000057
0.000194
0.000209
0.000216
0.000256
0.000263
0.000239
0.000285
0.000354
0.000368
0.000422
0.000385
0.000343
0.000363
0.000217
0.000218
0.000232
0.000278
0.000257
0.001382
0.000926
0.000287
0.000223
0.000465
0.000206
0.000224
0.000236
0.000277
0.000269
0.000268
0.000265
0.000303
0.000055
0.000225
0.000298
0.000206
0.000233
0.000248
0.000259
0.000224
0.000235
0.000262
0.000268
0.000241
0.000244
0.000233
0.000483
0.000463
0.000473
0.000205
0.000255
0.000268
0.000244
0.000251
0.000371
0.001373
0.001063
0.000262
0.000209
0.000275
0.000264
0.000266
0.000257
0.000218
0.000055
0.000199
0.001385
0.000274
0.000198
0.000198
0.000249
0.000251
0.000249
0.000227
0.000256
0.000254
0.000267
0.000237
0.000490
0.000266
0.000504
0.000263
0.000211
0.000265
0.000262
0.000260
0.000253
0.000245
0.000264
0.001409
0.000676
0.000306
0.000396
0.000370
0.000395
0.000268
0.000056
0.000194
0.000200
0.000357
0.001327
0.000231
0.000271
0.000194
0.000255
0.000252
0.000257
0.000274
0.000222
0.000276
0.000399
0.000490
0.000379
0.000213
0.000308
0.000272
0.000228
0.000231
0.000271
0.000224
0.000280
0.000260
0.001529
0.000764
0.000311
0.000259
0.000272
0.000206
0.000057
0.000202
0.000214
0.000469
0.000399
0.001315
0.000235
0.000203
0.000195
0.000226
0.000258
0.000240
0.000258
0.000240
0.000234
0.000254
0.000250
0.000268
0.000242
0.000254
0.000251
0.000265
0.000283
0.000343
0.000283
0.000241
0.000239
0.000271
0.001535
0.000234
0.000222
0.000163
0.000057
0.000182
0.000216
0.000251
0.000333
0.000349
0.000338
0.000405
0.000252
0.001552
0.000256
0.000303
0.000461
0.000346
0.000259
0.000488
0.000231
0.000215
0.000234
0.000253
0.000275
0.000280
0.000266
0.000258
0.000284
0.000245
0.000465
0.000389
0.000329
0.001532
0.000246
0.000183
0.000057
0.000212
0.000209
0.000249
0.000238
0.000247
0.000243
0.000264
0.000339
0.002279
0.000237
0.000182
0.000201
0.000244
0.000259
0.000261
0.000327
0.000250
0.000217
0.000248
0.000435
0.000333
0.000481
0.001524
0.000215
0.000227
0.000497
0.001774
0.000288
0.000256
0.001481
0.000192
0.000057
0.000356
0.000334
0.000481
0.000241
0.000263
0.000229
0.000253
0.000259
0.000273
0.000235
0.000252
0.000317
0.000433
0.000329
0.000428
0.000305
0.000205
0.001557
0.000485
0.002000
0.000288
0.000266
0.001398
0.000396
0.002012
0.000733
0.000282
0.000213
0.000354
0.000376
0.000351
0.000056
0.000183
0.000212
0.000241
0.000255
0.001484
0.001668
0.001078
0.000227
0.000209
0.001595
0.001977
0.000229
0.000304
0.000407
0.000283
0.000369
0.000398
0.000465
0.000186
0.000247
0.000239
0.000254
0.000273
0.001558
0.001304
0.001431
0.000262
0.000241
0.000268
0.000254
0.000402
0.000057
0.000233
0.000229
0.000194
0.000224
0.000240
0.000234
0.000258
0.000248
0.000256
0.000253
0.000236
0.000323
0.000446
0.000489
0.000315
0.000212
0.000218
0.000286
0.000252
0.000264
0.000256
0.001405
0.000446
0.000439
0.002080
0.000262
0.000223
0.000318
0.000526
0.000406
0.000160
0.000058
0.000198
0.000297
0.000510
0.000302
0.000223
0.000203
0.000238
0.000273
0.000235
0.000238
0.000248
0.000262
0.000262
0.002789
0.000313
0.001159
0.000272
0.000225
0.000220
0.000235
0.000284
0.000278
0.000258
0.000245
0.002277
0.000213
0.000218
0.000284
0.000324
0.000299
0.000246
0.000057
0.000215
0.000414
0.000532
0.000337
0.000200
0.000212
0.000220
0.000275
0.001884
0.001435
0.000246
0.000387
0.000388
0.000358
0.000269
0.000213
0.000235
0.000255
0.000262
0.000318
0.000211
0.000256
0.000489
0.000226
0.000264
0.000273
0.000254
0.000274
0.000284
0.000236
0.000223
0.000056
0.000187
0.000235
0.000250
0.000231
0.000252
0.000287
0.001521
0.001506
0.001324
0.000219
0.000203
0.000217
0.000265
0.000264
0.000248
0.000250
0.000250
0.002180
0.000214
0.000219
0.000243
0.000264
0.000252
0.000266
0.000267
0.000277
0.000249
0.000258
0.000279
0.000263
0.000189
0.000056
0.001508
0.000314
0.002395
0.000240
0.000302
0.000298
0.000239
0.000257
0.000266
0.000241
0.000250
0.000250
0.000254
0.000225
0.000269
0.000252
0.000269
0.000265
0.000263
0.000269
0.000261
0.000282
0.000273
0.000272
0.000249
0.000251
0.000250
0.000294
0.000242
0.000281
0.000382
0.000055
0.000199
0.002598
0.000302
0.000198
0.000199
0.000211
0.000256
0.000256
0.000250
0.000242
0.000456
0.000322
0.000337
0.000262
0.000206
0.002225
0.000220
0.000227
0.000227
0.000519
0.000449
0.000248
0.000212
0.000240
0.000274
0.000243
0.000260
0.000276
0.000273
0.001693
0.001203
0.000056
0.000196
0.000221
0.000271
0.000369
0.000392
0.000272
0.000231
0.000214
0.000276
0.000237
0.000261
0.000241
0.000233
0.000251
0.000270
0.000244
0.000279
0.000645
0.000410
0.000249
0.000216
0.000233
0.000292
0.000253
0.000258
0.000236
0.000260
0.000284
0.000242
0.000291
0.000439
0.000057
0.001113
0.000202
0.000352
0.000452
0.000351
0.000196
0.000198
0.000238
0.002266
0.000343
0.000376
0.000356
0.000210
0.000284
0.000330
0.000273
0.000262
0.000251
0.000267
0.000230
0.000250
0.000329
0.000539
0.000529
0.001797
0.001338
0.000508
0.000556
0.000227
0.000260
0.000222
0.000058
0.000268
0.000303
0.000271
0.000203
0.000242
0.000242
0.000243
0.000235
0.000263
0.000251
0.000251
0.000242
0.000245
0.000239
0.000402
0.000531
0.001870
0.001323
0.000400
0.000483
0.000399
0.000240
0.000237
0.000262
0.002189
0.000490
0.000376
0.000245
0.000273
0.000282
0.000217
0.000056
0.000199
0.000220
0.000251
0.000239
0.000250
0.000297
0.000481
0.000337
0.000281
0.000231
0.000235
0.000279
0.000232
0.002106
0.000363
0.000393
0.000220
0.000246
0.000260
0.000260
0.000254
0.002438
0.000380
0.000226
0.000229
0.000266
0.000242
0.000273
0.000274
0.000282
0.000217
0.000055
0.000202
0.000356
0.000620
0.000325
0.000229
0.000215
0.000192
0.000252
0.000262
0.000258
0.002099
0.000327
0.000254
0.000258
0.000213
0.000234
0.000279
0.000242
0.002277
0.000373
0.000239
0.000252
0.000262
0.000260
0.000308
0.000207
0.000297
0.000235
0.000271
0.000259
0.000199
0.000057
0.000203
0.000212
0.000252
0.000226
0.000241
0.000260
0.000233
0.000246
0.000234
0.002189
0.000237
0.000271
0.000212
0.000488
0.000207
0.000211
0.000261
0.000289
0.000259
0.000253
0.002042
0.000238
0.000379
0.000365
0.000495
0.000345
0.000277
0.000254
0.000228
0.000245
0.000212
0.000056
0.000191
0.000209
0.000241
0.000248
0.000238
0.000388
0.000206
0.002340
0.000217
0.000224
0.000216
0.000265
0.000241
0.000243
0.000299
0.002205
0.000525
0.000214
0.000252
0.000251
0.000256
0.000262
0.000278
0.000281
0.000250
0.000257
0.000292
0.000252
0.000264
0.000310
0.000163
0.000056
0.000182
0.003004
0.000236
0.000221
0.000245
0.000245
0.000251
0.000302
0.000381
0.000396
0.002127
0.000259
0.000234
0.000260
0.000263
0.000589
0.000382
0.000299
0.000221
0.000217
0.000235
0.000266
0.000264
0.000238
0.000251
0.000268
0.000261
0.000261
0.000286
0.000725
0.000315
0.000057
0.000191
0.000280
0.000262
0.000218
0.000236
0.000242
0.000253
0.000244
0.001605
0.002077
0.000512
0.000265
0.000390
0.000788
0.000350
0.000207
0.000219
0.000241
0.000264
0.000255
0.000262
0.000240
0.000253
0.000265
0.001832
0.001452
0.000290
0.000279
0.000268
0.000335
0.000431
0.000056
0.001935
0.000222
0.000232
0.000200
0.000279
0.000387
0.000475
0.000280
0.000316
0.000247
0.000207
0.000207
0.000255
0.000265
0.000249
0.000273
0.000242
0.000266
0.001913
0.000215
0.000202
0.000236
0.000282
0.000276
0.000269
0.000260
0.001531
0.000355
0.000208
0.000229
0.000171
0.000057
0.000202
0.000192
0.000244
0.000234
0.000253
0.000241
0.000288
0.000380
0.000370
0.000405
0.000205
0.000205
0.000332
0.000327
0.000381
0.000334
0.000218
0.000224
0.000256
0.000358
0.000519
0.000444
0.000237
0.000238
0.000237
0.000249
0.000250
0.000279
0.000272
0.000267
0.000223
0.000056
0.001436
0.000409
0.000228
0.002017
0.000259
0.000436
0.000350
0.000384
0.000200
0.000214
0.000259
0.000247
0.000244
0.000248
0.000265
0.000276
0.000443
0.000286
0.000464
0.000329
0.000352
0.000225
0.000242
0.000266
0.000331
0.000235
0.000232
0.000273
0.000317
0.000534
0.001386
0.000055
0.000203
0.000192
0.002069
0.000359
0.000250
0.000268
0.000250
0.000258
0.000264
0.000247
0.000227
0.000247
0.000251
0.000264
0.000263
0.000346
0.000711
0.001746
0.000253
0.000247
0.000265
0.000254
0.000336
0.000527
0.001529
0.000271
0.000365
0.002010
0.000222
0.000249
0.000189
0.000055
0.000196
0.000218
0.000233
0.000250
0.000238
0.000238
0.000238
0.000287
0.000343
0.000306
0.000381
0.000353
0.000334
0.000303
0.000216
0.000255
0.000258
0.000242
0.000264
0.000267
0.000285
0.000299
0.000258
0.000262
0.000269
0.001585
0.000306
0.000378
0.001989
0.000268
0.000159
0.000056
0.000185
0.000229
0.000230
0.000268
0.000454
0.000220
0.000250
0.000302
0.000427
0.000362
0.000224
0.000227
0.000250
0.000270
0.000266
0.000327
0.000507
0.000339
0.000265
0.000379
0.000592
0.000383
0.001598
0.000281
0.000222
0.002029
0.000332
0.000233
0.000217
0.000266
0.000202
0.000057
0.000194
0.000208
0.000236
0.000223
0.000253
0.000257
0.000263
0.000271
0.000251
0.000287
0.001854
0.000276
0.000396
0.000327
0.000462
0.000364
0.001507
0.000342
0.000228
0.000299
0.002000
0.000640
0.000260
0.000211
0.000246
0.000278
0.000491
0.000225
0.000244
0.000284
0.000221
0.000056
0.000351
0.000297
0.000381
0.000270
0.000214
0.000221
0.000252
0.000261
0.000255
0.000296
0.000229
0.000248
0.000262
0.000254
0.000380
0.000402
0.001359
0.000283
0.000283
0.001947
0.000364
0.000266
0.000219
0.000241
0.000244
0.000278
0.000273
0.000265
0.000240
0.000269
0.000214
0.000056
0.000304
0.000434
0.002004
0.000212
0.000241
0.000231
0.000213
0.000392
0.000336
0.001518
0.000326
0.000376
0.000331
0.001987
0.000244
0.000235
0.000263
0.000274
0.000264
0.000250
0.000269
0.000296
0.000251
0.000353
0.000487
0.000415
0.000350
0.002157
0.000502
0.000487
0.000425
0.000055
0.000213
0.000235
0.000196
0.002037
0.000203
0.000209
0.000238
0.000269
0.000195
0.000265
0.000236
0.000265
0.000259
0.000274
0.000480
0.000373
0.001311
0.000239
0.000266
0.000263
0.000234
0.000249
0.000272
0.000258
0.000327
0.000551
0.000383
0.000226
0.001696
0.000224
0.000157
0.000056
0.000202
0.000209
0.000223
0.000241
0.000243
0.000255
0.000255
0.000249
0.000265
0.000390
0.000329
0.001492
0.000208
0.000208
0.000227
0.000257
0.000276
0.000240
0.000361
0.000412
0.000425
0.000451
0.000215
0.001576
0.000245
0.000238
0.000274
0.000282
0.000263
0.000270
0.000208
0.000057
0.000200
0.000211
0.000259
0.000266
0.000252
0.000238
0.000240
0.000236
0.000253
0.000252
0.000248
0.000257
0.000257
0.000245
0.001583
0.000230
0.000241
0.000272
0.000336
0.000324
0.000364
0.000267
0.000209
0.000261
0.000240
0.000262
0.001465
0.000301
0.000226
0.000209
0.000177
0.000057
0.000189
0.000225
0.000241
0.000258
0.000277
0.000214
0.000256
0.000266
0.000208
0.000269
0.000243
0.000263
0.000227
0.000303
0.000396
0.000348
0.000290
0.001565
0.000346
0.000213
0.000223
0.000233
0.000280
0.000287
0.000376
0.000481
0.000406
0.000238
0.000231
0.001583
0.000196
0.000057
0.000338
0.000358
0.000376
0.000263
0.000211
0.000204
0.000253
0.000262
0.000252
0.000254
0.000231
0.000244
0.001462
0.000328
0.000295
0.000236
0.000207
0.000257
0.000275
0.000262
0.000253
0.000242
0.000255
0.000275
0.000257
0.000329
0.000516
0.000389
0.000269
0.000219
0.000193
0.000056
0.000222
0.000306
0.000445
0.000298
0.000366
0.000250
0.000210
0.000250
0.000257
0.000254
0.000242
0.000231
0.000253
0.000245
0.001343
0.000267
0.000218
0.000221
0.000259
0.000275
0.000238
0.000258
0.000255
0.000266
0.000248
0.000264
0.000274
0.000770
0.000422
0.000261
0.000165
0.000056
0.000203
0.001543
0.000232
0.000336
0.000535
0.000327
0.000201
0.000242
0.000265
0.000254
0.000237
0.000265
0.000269
0.000277
0.000267
0.001530
0.000247
0.000272
0.000264
0.000262
0.000248
0.000259
0.000264
0.000264
0.000264
0.000260
0.000473
0.000368
0.000363
0.000223
0.000174
0.000056
0.000197
0.000217
0.000247
0.001725
0.000383
0.000337
0.000196
0.000203
0.000247
0.000271
0.000283
0.000256
0.000254
0.000252
0.000240
0.000263
0.000405
0.001394
0.000216
0.000219
0.001532
0.000293
0.000643
0.000359
0.000304
0.000207
0.000258
0.000473
0.000239
0.000245
0.000212
0.000056
0.000302
0.000209
0.000218
0.000238
0.000242
0.000258
0.000241
0.000259
0.000255
0.000237
0.000254
0.000255
0.000332
0.000478
0.001674
0.001484
0.000393
0.000485
0.000351
0.000230
0.000232
0.000263
0.000252
0.000254
0.000245
0.000271
0.000259
0.000277
0.001597
0.000319
0.000135
0.000057
0.000230
0.000337
0.000349
0.000332
0.000263
0.000205
0.000226
0.000347
0.000413
0.001432
0.000349
0.001535
0.000363
0.000428
0.000501
0.000271
0.000335
0.000333
0.000343
0.000282
0.000233
0.000352
0.001559
0.000543
0.000240
0.000233
0.000255
0.000258
0.000251
0.000265
0.000220
0.000056
0.000189
0.000232
0.000253
0.000253
0.000237
0.001663
0.000946
0.000901
0.000240
0.000234
0.000260
0.000259
0.000249
0.000266
0.000253
0.000255
0.000250
0.000260
0.000267
0.000286
0.001508
0.000260
0.000264
0.000223
0.000232
0.000239
0.000255
0.000274
0.000271
0.000280
0.000223
0.000056
0.000196
0.000191
0.001565
0.000940
0.000330
0.000369
0.000209
0.000201
0.000245
0.000261
0.000239
0.000264
0.000241
0.002043
0.000481
0.000203
0.000211
0.000241
0.000254
0.000262
0.000211
