0.000125
0.019557
0.002151
0.000314
0.000213
0.000249
0.000310
0.000250
0.000327
0.000321
0.000220
0.000387
0.000528
0.000496
0.000335
0.000313
0.000296
0.000397
0.000369
0.000415
0.000300
0.001939
0.000439
0.000460
0.000220
0.000316
0.000299
0.000403
0.000414
0.000440
0.000491
0.000223
0.000058
0.000206
0.000231
0.000269
0.000259
0.000275
0.000255
0.000302
0.000234
0.000276
0.000331
0.000402
0.000454
0.000300
0.000276
0.000400
0.000364
0.000349
0.000250
0.000214
0.001730
0.000295
0.000227
0.000511
0.000257
0.000228
0.000242
0.000293
0.000316
0.000264
0.000438
0.000358
0.000057
0.000194
0.000219
0.000264
0.000258
0.000253
0.000253
0.000258
0.000254
0.000283
0.001664
0.000249
0.000236
0.000244
0.000278
0.000271
0.000245
0.000279
0.000271
0.000330
0.001797
0.000270
0.000243
0.000455
0.000460
0.000393
0.000245
0.000230
0.000604
0.000441
0.000741
0.000169
0.000057
0.000213
0.000211
0.000253
0.000247
0.000306
0.000253
0.000337
0.000529
0.000437
0.000268
0.000209
0.000223
0.000230
0.000260
0.000249
0.000261
0.000241
0.000276
0.000292
0.000327
0.001739
0.000256
0.000234
0.000451
0.000458
0.000514
0.000622
0.000543
0.000320
0.000272
0.000199
0.000057
0.000184
0.000227
0.000257
0.000245
0.000254
0.000253
0.000294
0.000503
0.001406
0.000233
0.000244
0.000237
0.000247
0.000256
0.000266
0.000286
0.000318
0.000800
0.001351
0.000284
0.000253
0.000414
0.000281
0.000227
0.000242
0.000258
0.000290
0.000249
0.000269
0.000255
0.000224
0.000057
0.000218
0.000225
0.000226
0.000245
0.000261
0.000245
0.000245
0.000244
0.000240
0.000259
0.001701
0.000235
0.000233
0.000239
0.000219
0.000249
0.000239
0.000249
0.000254
0.000262
0.000265
0.001734
0.000246
0.000263
0.000464
0.000243
0.000241
0.000234
0.000259
0.000265
0.000214
0.000058
0.000198
0.000228
0.000220
0.000244
0.000248
0.000240
0.000260
0.000235
0.000261
0.000252
0.000263
0.000259
0.000254
0.000276
0.001635
0.000275
0.000295
0.000226
0.000248
0.000269
0.000276
0.000244
0.000259
0.000249
0.000273
0.001953
0.000266
0.000355
0.000276
0.000270
0.000215
0.000056
0.000181
0.000211
0.000239
0.000271
0.000266
0.000224
0.000334
0.000380
0.000505
0.000330
0.000214
0.000231
0.000260
0.000248
0.001685
0.000465
0.000311
0.000399
0.000290
0.000219
0.000265
0.000286
0.000278
0.001793
0.000508
0.000469
0.000211
0.000234
0.000248
0.000247
0.000208
0.000057
0.000189
0.000232
0.000226
0.000271
0.000483
0.000307
0.000374
0.000298
0.000204
0.000224
0.000256
0.000241
0.000260
0.001761
0.000421
0.000324
0.000219
0.000240
0.000275
0.000277
0.000257
0.000263
0.000269
0.001876
0.000326
0.000386
0.000264
0.000228
0.000305
0.000406
0.000319
0.000058
0.000250
0.000457
0.000276
0.000240
0.000261
0.000217
0.000233
0.000255
0.000243
0.000242
0.000255
0.000219
0.001644
0.000328
0.000298
0.000204
0.000236
0.000241
0.000250
0.000282
0.000280
0.000318
0.001791
0.000355
0.000219
0.000514
0.000223
0.000215
0.000252
0.000272
0.000275
0.000057
0.000225
0.000588
0.000641
0.000212
0.000205
0.000264
0.000237
0.000221
0.000252
0.000257
0.000250
0.001701
0.000285
0.000393
0.000392
0.000214
0.000236
0.000231
0.000242
0.000261
0.000367
0.001745
0.000252
0.000226
0.002289
0.000393
0.000268
0.000254
0.000272
0.000253
0.000213
0.000058
0.000224
0.000210
0.000238
0.000238
0.000276
0.001680
0.000206
0.000209
0.000245
0.000253
0.000240
0.000244
0.000257
0.000250
0.000305
0.000438
0.000591
0.000229
0.000245
0.000264
0.000276
0.000254
0.000228
0.000505
0.000430
0.000331
0.000446
0.000413
0.000431
0.000217
0.000191
0.000057
0.000199
0.000210
0.000256
0.000244
0.000246
0.000232
0.000391
0.000348
0.000522
0.001504
0.000251
0.000232
0.000242
0.000251
0.000260
0.000265
0.000490
0.000516
0.000329
0.000241
0.000222
0.000267
0.000320
0.000274
0.000260
0.000400
0.000481
0.000621
0.000401
0.000416
0.000138
0.000057
0.000198
0.000245
0.000230
0.000222
0.000236
0.000235
0.000253
0.000236
0.000255
0.000364
0.000388
0.001526
0.000266
0.000208
0.000209
0.000219
0.000263
0.000248
0.000254
0.000255
0.000287
0.000535
0.000318
0.000326
0.000227
0.000230
0.000264
0.000254
0.000268
0.000265
0.000431
0.000056
0.000200
0.000222
0.000246
0.000256
0.000559
0.000444
0.000208
0.000245
0.000219
0.000270
0.000245
0.000243
0.000281
0.000264
0.000246
0.000590
0.000384
0.001563
0.000272
0.000242
0.000261
0.000256
0.000266
0.000235
0.000257
0.000403
0.000648
0.000268
0.000369
0.000225
0.000213
0.000057
0.000220
0.000232
0.000405
0.000228
0.000266
0.000241
0.000559
0.000320
0.000306
0.000320
0.000238
0.000266
0.000283
0.000229
0.000600
0.000291
0.000218
0.000246
0.000390
0.001709
0.000233
0.000231
0.000312
0.000414
0.000270
0.000284
0.000266
0.000556
0.000476
0.000249
0.000267
0.000055
0.000226
0.000203
0.000232
0.000239
0.000474
0.000272
0.000282
0.000214
0.000410
0.000568
0.000339
0.000233
0.000211
0.000215
0.000262
0.000272
0.000247
0.000261
0.000224
0.000379
0.000270
0.000438
0.001737
0.000266
0.000239
0.000242
0.000311
0.000356
0.000623
0.000654
0.000294
0.000057
0.000244
0.000317
0.000335
0.000413
0.000320
0.000207
0.000259
0.000341
0.000655
0.000257
0.000288
0.000204
0.000213
0.000267
0.000271
0.000234
0.000241
0.000279
0.000267
0.000257
0.000283
0.000425
0.001737
0.000285
0.000356
0.000422
0.000383
0.000283
0.000389
0.000367
0.000351
0.000057
0.000215
0.000382
0.000286
0.000209
0.000234
0.000213
0.000474
0.000212
0.000355
0.000387
0.000312
0.000348
0.000278
0.000238
0.000267
0.000289
0.000380
0.000457
0.000274
0.000214
0.000214
0.000387
0.000732
0.001583
0.000266
0.000378
0.000334
0.000243
0.000286
0.000396
0.000381
0.000058
0.000181
0.000209
0.000248
0.000237
0.000240
0.000250
0.000257
0.000356
0.000428
0.000450
0.000366
0.000333
0.000305
0.000188
0.000533
0.000259
0.000273
0.000270
0.000245
0.000341
0.000214
0.000241
0.000280
0.000495
0.000498
0.001637
0.000230
0.000231
0.000237
0.000257
0.000204
0.000057
0.000279
0.000490
0.000311
0.000200
0.000245
0.000220
0.000265
0.000234
0.000255
0.000257
0.000219
0.000491
0.000411
0.000354
0.000366
0.000339
0.000215
0.000240
0.000355
0.000353
0.000366
0.000362
0.000388
0.000380
0.000244
0.000223
0.000248
0.000272
0.001785
0.000267
0.000213
0.000057
0.000197
0.000202
0.000243
0.000270
0.000367
0.000547
0.000345
0.000199
0.000242
0.000263
0.000252
0.000246
0.000535
0.000443
0.000469
0.000312
0.000270
0.000241
0.000428
0.000490
0.000371
0.000530
0.000513
0.000295
0.000240
0.000262
0.000221
0.000240
0.000236
0.001825
0.000283
0.000056
0.000237
0.000332
0.000200
0.000208
0.000263
0.000248
0.000284
0.000449
0.000426
0.000303
0.000306
0.000342
0.000370
0.000629
0.000296
0.000210
0.000216
0.000239
0.000257
0.000261
0.000261
0.000277
0.000235
0.000274
0.000340
0.000329
0.000503
0.000325
0.000251
0.000204
0.000185
0.000056
0.000442
0.000319
0.000437
0.000238
0.000200
0.000234
0.000245
0.000258
0.000257
0.000205
0.000249
0.000265
0.000303
0.000436
0.000534
0.000375
0.000332
0.000366
0.000362
0.000395
0.000268
0.000220
0.000222
0.000261
0.001795
0.000233
0.001759
0.000961
0.000348
0.000336
0.000157
0.000057
0.000210
0.000203
0.000234
0.000234
0.000261
0.000255
0.000253
0.000246
0.000248
0.000353
0.000486
0.000287
0.000375
0.000401
0.000240
0.000237
0.000271
0.000288
0.000227
0.000218
0.000255
0.000224
0.001844
0.000234
0.000239
0.000246
0.000281
0.000268
0.001903
0.000538
0.000218
0.000058
0.000210
0.000202
0.000219
0.000233
0.000266
0.000236
0.000243
0.000262
0.000259
0.000409
0.000485
0.000337
0.000392
0.000262
0.000212
0.000280
0.000380
0.000387
0.000372
0.000264
0.001797
0.000243
0.000221
0.000228
0.000255
0.000268
0.000253
0.000260
0.000248
0.000430
0.000382
0.000056
0.000267
0.000194
0.000206
0.000261
0.000248
0.000241
0.000274
0.000239
0.000260
0.000245
0.000246
0.000305
0.000368
0.000370
0.000321
0.000333
0.000480
0.000203
0.000216
0.000259
0.000270
0.000253
0.000272
0.000261
0.000272
0.001781
0.000283
0.000231
0.000246
0.000245
0.000218
0.000056
0.000382
0.000196
0.000242
0.000205
0.000236
0.000235
0.000236
0.000255
0.000246
0.000249
0.000206
0.000265
0.000273
0.000315
0.000504
0.000270
0.000391
0.000205
0.000223
0.000239
0.000258
0.000263
0.000253
0.000286
0.000235
0.000253
0.000360
0.001648
0.000235
0.000232
0.000187
0.000056
0.000195
0.000215
0.000249
0.000247
0.000363
0.000363
0.000475
0.000261
0.000205
0.000248
0.000245
0.000243
0.000251
0.000254
0.000263
0.000260
0.000241
0.000255
0.000258
0.000254
0.000274
0.000270
0.000260
0.000226
0.000243
0.000282
0.000274
0.000255
0.000265
0.000257
0.000215
0.000075
0.000192
0.000215
0.000245
0.000252
0.000247
0.000247
0.000243
0.000264
0.000358
0.000203
0.000190
0.000244
0.000254
0.000256
0.000264
0.000265
0.000253
0.000248
0.000360
0.000213
0.000246
0.000288
0.000281
0.000249
0.000269
0.000282
0.000270
0.000250
0.000278
0.000437
0.000683
0.000057
0.000226
0.000305
0.000234
0.000186
0.000223
0.000244
0.000249
0.000242
0.000250
0.000244
0.000271
0.000282
0.000528
0.000512
0.001528
0.000215
0.000524
0.000203
0.000214
0.000517
0.000417
0.000335
0.000240
0.000271
0.000249
0.000262
0.000281
0.000255
0.000304
0.000265
0.000203
0.000056
0.000288
0.000405
0.000371
0.000313
0.000189
0.000243
0.000248
0.000248
0.000236
0.000251
0.000240
0.000264
0.000235
0.000285
0.000388
0.000477
0.000350
0.001807
0.000262
0.000213
0.000587
0.000401
0.000250
0.000281
0.000374
0.000311
0.000256
0.000225
0.000239
0.000233
0.000215
0.000057
0.000214
0.000204
0.000243
0.000350
0.000406
0.000442
0.000263
0.000214
0.000258
0.000222
0.000239
0.000271
0.000269
0.000258
0.000252
0.000267
0.000397
0.000494
0.000260
0.000419
0.001818
0.000263
0.000246
0.000653
0.000538
0.000277
0.000293
0.000240
0.000237
0.000277
0.000493
0.000057
0.000193
0.000239
0.000231
0.000372
0.000366
0.000443
0.000369
0.000267
0.000204
0.000336
0.000211
0.000231
0.000255
0.000305
0.000361
0.000201
0.000254
0.000441
0.000317
0.000411
0.000548
0.001816
0.000212
0.000651
0.000300
0.000347
0.000234
0.000365
0.000247
0.000215
0.000215
0.000056
0.000212
0.000331
0.000351
0.000391
0.000318
0.000272
0.000404
0.000205
0.000233
0.000254
0.000271
0.000232
0.000241
0.000279
0.000235
0.000249
0.000313
0.000569
0.000346
0.000344
0.000318
0.000218
0.000252
0.001776
0.000606
0.000384
0.000568
0.000269
0.000248
0.000296
0.000173
0.000056
0.000183
0.000225
0.000312
0.000258
0.000310
0.000480
0.000257
0.000324
0.000327
0.000508
0.000204
0.000227
0.000228
0.000280
0.000277
0.000271
0.000218
0.000453
0.000492
0.000307
0.000248
0.000259
0.000234
0.000256
0.000261
0.000271
0.000234
0.000256
0.000267
0.000362
0.000262
0.000057
0.000465
0.000173
0.000242
0.000236
0.000242
0.000254
0.000246
0.000359
0.000214
0.000215
0.000249
0.000338
0.000551
0.000255
0.000421
0.000248
0.000212
0.000242
0.000246
0.000260
0.000253
0.000293
0.000243
0.000254
0.000274
0.000469
0.000341
0.000329
0.000379
0.000205
0.000173
0.000057
0.000201
0.000211
0.000269
0.000243
0.000241
0.000244
0.000261
0.000272
0.000483
0.000227
0.000239
0.000257
0.000243
0.000255
0.000271
0.000276
0.000273
0.000351
0.000261
0.000212
0.000244
0.000266
0.000258
0.000260
0.000276
0.000260
0.000272
0.000261
0.000245
0.000504
0.000177
0.000057
0.000201
0.000220
0.000233
0.000266
0.000242
0.000234
0.000298
0.000459
0.000264
0.000222
0.000252
0.000256
0.000249
0.000294
0.000486
0.001692
0.000267
0.000234
0.000290
0.000387
0.000411
0.000344
0.000384
0.000383
0.000371
0.000359
0.000257
0.000267
0.000266
0.000271
0.001445
0.000056
0.000425
0.000210
0.000323
0.000192
0.000207
0.000243
0.000228
0.000254
0.000252
0.000257
0.000256
0.000268
0.000237
0.000327
0.000558
0.001645
0.000214
0.000212
0.000221
0.000264
0.000252
0.000289
0.000372
0.000395
0.000263
0.000347
0.000224
0.000256
0.000265
0.000261
0.000216
0.000056
0.001245
0.000516
0.000322
0.000291
0.000216
0.000197
0.000212
0.000239
0.000483
0.000244
0.000217
0.000245
0.000347
0.000674
0.000245
0.000335
0.000294
0.000246
0.000319
0.000394
0.000220
0.000238
0.000268
0.000242
0.000280
0.000607
0.000537
0.000260
0.000232
0.000278
0.000175
0.000057
0.000216
0.000197
0.000224
0.000246
0.001470
0.000326
0.000200
0.000247
0.000249
0.000248
0.000252
0.000253
0.000239
0.000268
0.000261
0.000318
0.000423
0.000654
0.000272
0.001799
0.000236
0.000298
0.000322
0.000436
0.000479
0.000416
0.000223
0.000237
0.000251
0.000275
0.000209
0.000057
0.000206
0.000257
0.000210
0.001335
0.000325
0.000199
0.000257
0.000211
0.000239
0.000236
0.000234
0.000252
0.000272
0.000253
0.000267
0.000326
0.000539
0.000354
0.000322
0.000211
0.000250
0.000273
0.000264
0.000230
0.000353
0.000215
0.000223
0.000272
0.000266
0.000330
0.000685
0.000056
0.000201
0.000222
0.000235
0.000260
0.000262
0.000257
0.000219
0.000264
0.000272
0.000243
0.001452
0.000234
0.000221
0.000251
0.000250
0.000246
0.000259
0.000261
0.000259
0.000280
0.000346
0.000392
0.000609
0.000238
0.000251
0.000262
0.001841
0.000225
0.000235
0.000333
0.000428
0.000059
0.000234
0.000430
0.000457
0.000502
0.000521
0.000536
0.001462
0.000440
0.000543
0.000647
0.000659
0.000586
0.000509
0.000622
0.000585
0.001740
0.000547
0.000343
0.000395
0.000303
0.000255
0.000294
0.000288
0.000264
0.000279
0.000268
0.000298
0.000277
0.000259
0.000296
0.001322
0.000057
0.000229
0.000237
0.000220
0.000239
0.000247
0.000246
0.000237
0.000240
0.000260
0.000265
0.000250
0.000250
0.000256
0.000244
0.000269
0.000257
0.001840
0.000254
0.000269
0.000251
0.000249
0.000266
0.000265
0.000279
0.000467
0.000406
0.000284
0.000244
0.000269
0.000287
0.000164
0.000056
0.000198
0.001416
0.000253
0.000273
0.000254
0.000234
0.000255
0.000240
0.000247
0.000251
0.000232
0.000254
0.000248
0.000445
0.000293
0.000342
0.000263
0.000284
0.001906
0.000264
0.000259
0.000254
0.000256
0.000269
0.000270
0.000256
0.000296
0.000241
0.000252
0.000309
0.000239
0.000056
0.000205
0.000228
0.000255
0.001428
0.000266
0.000261
0.000221
0.000228
0.000234
0.000265
0.000244
0.000252
0.000243
0.000254
0.000281
0.000251
0.000244
0.000260
0.000271
0.000258
0.000267
0.001837
0.000265
0.001761
0.000262
0.000244
0.000253
0.000237
0.000260
0.000289
0.000203
0.000056
0.000208
0.000238
0.001375
0.000218
0.000264
0.000231
0.000223
0.000251
0.000239
0.000255
0.000242
0.000257
0.000246
0.000268
0.000260
0.000266
0.000252
0.000260
0.000296
0.000260
0.001850
0.000280
0.001792
0.000289
0.000245
0.000247
0.000252
0.000271
0.000251
0.000266
0.000181
0.000056
0.001436
0.000221
0.000246
0.000220
0.000215
0.000226
0.000268
0.000363
0.000252
0.000266
0.000249
0.000260
0.000324
0.000390
0.000362
0.000268
0.000247
0.000264
0.000240
0.000217
0.000265
0.000328
0.000245
0.000257
0.000272
0.000280
0.000259
0.000384
0.000676
0.000341
0.000181
0.000056
0.000185
0.000287
0.000274
0.000308
0.000346
0.000290
0.001666
0.000277
0.000285
0.000245
0.000281
0.000300
0.000254
0.000261
0.000322
0.000316
0.000381
0.000431
0.000423
0.000269
0.000320
0.000279
0.000258
0.000265
0.000331
0.000267
0.000253
0.000244
0.000244
0.000328
0.000470
0.000056
0.000311
0.000377
0.000257
0.000273
0.000251
0.000226
0.000216
0.000255
0.000254
0.000255
0.001503
0.000244
0.000218
0.000256
0.000237
0.000290
0.000268
0.000248
0.000265
0.000263
0.000267
0.000492
0.000469
0.000330
0.000224
0.000272
0.000280
0.000243
0.000249
0.000228
0.000254
0.000056
0.000200
0.000208
0.000337
0.000407
0.000378
0.000258
0.000221
0.000256
0.000245
0.000284
0.000200
0.000283
0.000235
0.000258
0.000242
0.000245
0.000492
0.001181
0.000205
0.000247
0.000242
0.000252
0.000342
0.000503
0.000216
0.000305
0.000549
0.000346
0.000432
0.000229
0.000163
0.000057
0.000210
0.000219
0.000287
0.000240
0.000313
0.000204
0.000360
0.000517
0.000357
0.000315
0.000347
0.000403
0.000387
0.000356
0.000236
0.000226
0.000211
0.000244
0.000411
0.000555
0.001168
0.000231
0.000264
0.000270
0.000229
0.000235
0.000272
0.000358
0.000370
0.000519
0.000230
0.000056
0.000221
0.000196
0.000250
0.000237
0.000247
0.000249
0.000242
0.000261
0.000253
0.000523
0.000479
0.000286
0.000215
0.000213
0.000227
0.000257
0.000244
0.000260
0.000265
0.000241
0.000502
0.000217
0.000481
0.000265
0.000384
0.000225
0.000253
0.000269
0.000268
0.000271
0.000234
0.000056
0.000293
0.000295
0.000391
0.000319
0.000474
0.000331
0.000223
0.000265
0.000220
0.000289
0.000239
0.000265
0.000245
0.000246
0.000250
0.000225
0.000265
0.000438
0.000594
0.000224
0.000220
0.000265
0.000212
0.000259
0.000244
0.000279
0.000287
0.000248
0.000277
0.000266
0.000352
0.000057
0.000170
0.000373
0.000216
0.000228
0.000249
0.000268
0.000223
0.000254
0.000255
0.000261
0.000256
0.000238
0.000378
0.000526
0.000387
0.000289
0.000216
0.000211
0.000235
0.000295
0.000240
0.000250
0.000269
0.000260
0.000269
0.000403
0.000407
0.000526
0.000470
0.000220
0.000151
0.000056
0.000410
0.000193
0.000201
0.000237
0.000250
0.000248
0.000238
0.000248
0.000259
0.000260
0.000226
0.000243
0.000267
0.000230
0.000243
0.000258
0.000257
0.000255
0.000279
0.000262
0.000258
0.000262
0.000266
0.000259
0.000274
0.000264
0.000233
0.000283
0.000251
0.000278
0.000226
0.000058
0.000183
0.000205
0.000245
0.000254
0.000231
0.000248
0.000267
0.000242
0.000252
0.000282
0.000228
0.000231
0.000260
0.000406
0.000241
0.000281
0.000267
0.000254
0.000269
0.000273
0.000271
0.000244
0.000235
0.000260
0.000260
0.000282
0.000249
0.000252
0.000264
0.000269
0.000224
0.000057
0.000258
0.000378
0.000349
0.000282
0.000304
0.000231
0.000210
0.000259
0.000227
0.000243
0.000243
0.000266
0.000259
0.000235
0.000253
0.000251
0.000270
0.000272
0.000250
0.000256
0.000272
0.000270
0.000274
0.000254
0.000281
0.000267
0.000233
0.000300
0.000242
0.000263
0.000203
0.000057
0.000194
0.000235
0.000234
0.000266
0.000248
0.000449
0.000224
0.000235
0.000308
0.000410
0.000527
0.000307
0.000223
0.000207
0.000265
0.000269
0.000251
0.000251
0.000267
0.000270
0.000260
0.000261
0.000254
0.000278
0.000586
0.000476
0.000271
0.000266
0.000275
0.000257
0.000206
0.000056
0.000184
0.000196
0.000244
0.000249
0.000313
0.000710
0.000264
0.000374
0.000246
0.000239
0.000231
0.000254
0.000264
0.000234
0.000263
0.000274
0.000256
0.000330
0.000589
0.000373
0.000304
0.000217
0.000263
0.000268
0.000285
0.000270
0.000266
0.000257
0.000253
0.000324
0.000458
0.000057
0.000169
0.000227
0.000224
0.000230
0.000260
0.000251
0.000242
0.000227
0.000246
0.000254
0.000254
0.000249
0.000251
0.000518
0.000540
0.000348
0.000213
0.000224
0.000261
0.000256
0.000262
0.000263
0.000481
0.000239
0.000255
0.000699
0.000454
0.000346
0.000264
0.000257
0.000193
0.000056
0.000211
0.000213
0.000235
0.000238
0.000252
0.000258
0.000410
0.000331
0.000694
0.000322
0.000214
0.000255
0.000273
0.000280
0.000272
0.000235
0.000247
0.000239
0.000272
0.000307
0.000583
0.000421
0.000428
0.000257
0.000443
0.000346
0.000493
0.000210
0.000239
0.000564
0.000259
0.000057
0.000257
0.000201
0.000495
0.000195
0.000234
0.000229
0.000241
0.000261
0.000234
0.000242
0.000398
0.000342
0.000365
0.000312
0.000227
0.000210
0.000272
0.000238
0.000269
0.000272
0.000268
0.000265
0.000247
0.000267
0.000352
0.000459
0.000488
0.000229
0.000250
0.000283
0.000207
0.000056
0.000182
0.000238
0.000232
0.000241
0.000251
0.000246
0.000459
0.000396
0.000394
0.000259
0.000348
0.000254
0.000222
0.000264
0.000260
0.000235
0.000257
0.000258
0.000374
0.000387
0.000508
0.000239
0.000450
0.000345
0.000396
0.000392
0.000381
0.000257
0.000222
0.000314
0.000488
0.000057
0.000232
0.000233
0.000201
0.000246
0.000255
0.000258
0.000251
0.000247
0.000253
0.000272
0.000224
0.000410
0.000428
0.000341
0.000366
0.000267
0.000236
0.000258
0.000280
0.000226
0.000248
0.000266
0.000254
0.000274
0.000294
0.000302
0.000558
0.000424
0.000246
0.000272
0.000207
0.000056
0.000187
0.000228
0.000258
0.000246
0.000249
0.000311
0.000533
0.000609
0.000240
0.000664
0.000319
0.000204
0.000215
0.000256
0.000245
0.000264
0.000279
0.000271
0.000490
0.000714
0.001327
0.000253
0.000263
0.000252
0.000299
0.000242
0.000431
0.000352
0.000428
0.000250
0.000175
0.000057
0.000184
0.000209
0.000242
0.000251
0.000229
0.000258
0.000271
0.000255
0.000260
0.000366
0.000338
0.000358
0.000270
0.000392
0.000382
0.000331
0.000240
0.000203
0.000248
0.000271
0.000235
0.000253
0.000291
0.000247
0.000347
0.000545
0.000364
0.000254
0.000220
0.000264
0.000195
0.000056
0.000200
0.000225
0.000249
0.000258
0.000248
0.000234
0.000473
0.000209
0.000235
0.000257
0.000248
0.000253
0.000251
0.000255
0.000253
0.000259
0.000273
0.000258
0.000276
0.000254
0.000258
0.000284
0.000315
0.000233
0.000260
0.000280
0.000266
0.000267
0.000266
0.000267
0.000194
0.000056
0.000185
0.000229
0.000341
0.000453
0.000372
0.000207
0.000195
0.000266
0.000247
0.000245
0.000249
0.000254
0.000262
0.000259
0.000242
0.000241
0.000251
0.000266
0.000284
0.000330
0.000542
0.000304
0.000220
0.000273
0.000265
0.000255
0.000268
0.000258
0.000265
0.000285
0.000205
0.000056
0.000461
0.000366
0.000296
0.000236
0.000222
0.000262
0.000477
0.000200
0.000191
0.000254
0.000272
0.000334
0.000433
0.000387
0.001768
0.000259
0.000250
0.000240
0.000279
0.000253
0.000325
0.000569
0.000597
0.000221
0.000224
0.000241
0.000281
0.000410
0.000287
0.000287
0.000179
0.000056
0.000203
0.000381
0.000299
0.000286
0.000511
0.000216
0.000214
0.000241
0.000263
0.000244
0.000256
0.000247
0.000262
0.000422
0.000442
0.000363
0.000231
0.000208
0.000255
0.000277
0.000259
0.000298
0.000259
0.000271
0.000284
0.000450
0.000508
0.000408
0.000464
0.000221
0.000212
0.000056
0.000220
0.000203
0.000245
0.000236
0.000252
0.000246
0.000266
0.000287
0.000378
0.000487
0.000287
0.000371
0.000205
0.000227
0.000266
0.000283
0.000304
0.000249
0.000268
0.000277
0.000242
0.000400
0.000473
0.000298
0.000240
0.000290
0.000243
0.000540
0.000386
0.000285
0.000150
0.000057
0.000182
0.000260
0.000305
0.000439
0.000346
0.000233
0.000218
0.000258
0.000255
0.000256
0.000262
0.000259
0.000225
0.000254
0.000262
0.000364
0.000363
0.000366
0.000411
0.000213
0.000460
0.000234
0.000274
0.000269
0.000310
0.000276
0.000260
0.000286
0.000472
0.000540
0.000166
0.000056
0.000211
0.000202
0.000245
0.000253
0.000244
0.000487
0.000209
0.000246
0.000258
0.000402
0.000518
0.000491
0.000246
0.000217
0.000245
0.000249
0.000268
0.000233
0.000248
0.000259
0.000258
0.000268
0.000327
0.000556
0.000331
0.000332
0.000330
0.000344
0.000308
0.000235
0.000157
0.000056
0.000202
0.000215
0.000258
0.000575
0.000219
0.000379
0.000247
0.000211
0.000210
0.000244
0.000254
0.000252
0.000257
0.000255
0.000293
0.000218
0.000251
0.000247
0.000247
0.000417
0.000549
0.000369
0.000214
0.000234
0.000276
0.000281
0.000256
0.000266
0.000265
0.000255
0.000223
0.000056
0.000234
0.000395
0.000493
0.000211
0.000199
0.000211
0.000348
0.000485
0.000270
0.000209
0.000217
0.000263
0.000287
0.000537
0.000407
0.000262
0.000216
0.000224
0.000283
0.000206
0.000268
0.000268
0.000255
0.000271
0.000262
0.000345
0.000554
0.000270
0.000325
0.000223
0.000155
0.000056
0.000200
0.000220
0.000242
0.000290
0.000220
0.000260
0.000240
0.000244
0.000252
0.000250
0.000263
0.000241
0.000261
0.001452
0.000279
0.000211
0.000256
0.000253
0.000265
0.000280
0.000260
0.000243
0.000278
0.000251
0.000274
0.000262
0.000268
0.000270
0.000277
0.000247
0.000222
0.000056
0.000202
0.000211
0.000236
0.000253
0.000241
0.000236
0.000256
0.000267
0.000220
0.000255
0.000252
0.000254
0.000256
0.000264
0.000251
0.000257
0.000247
0.000252
0.000281
0.000253
0.000254
0.000262
0.000251
0.000245
0.001362
0.000281
0.000556
0.000501
0.000294
0.000211
0.000159
0.000056
0.000182
0.000213
0.000241
0.000248
0.000506
0.000223
0.000195
0.000207
0.000262
0.000362
0.000534
0.000332
0.000202
0.000203
0.000248
0.000253
0.000259
0.000262
0.000252
0.000259
0.000258
0.000253
0.000333
0.000359
0.000572
0.000367
0.000239
0.000262
0.001364
0.000289
0.000172
0.000056
0.000396
0.000307
0.000362
0.000242
0.000208
0.000194
0.000229
0.000245
0.000256
0.000259
0.000249
0.000255
0.000268
0.000333
0.000568
0.000372
0.000288
0.000228
0.000252
0.000235
0.000276
0.000262
0.000272
0.000267
0.000262
0.000264
0.000366
0.000513
0.000406
0.000380
0.000152
0.000056
0.000186
0.000236
0.001314
0.000368
0.000354
0.000431
0.000329
0.000310
0.000442
0.000391
0.000233
0.000199
0.000242
0.000255
0.000266
0.000252
0.000371
0.000513
0.000371
0.000343
0.000271
0.000229
0.000263
0.000518
0.000225
0.000259
0.000258
0.000284
0.000429
0.000456
0.000280
0.000056
0.000325
0.000387
0.000227
0.000206
0.001583
0.000485
0.000318
0.000200
0.000206
0.000252
0.000228
0.000243
0.000241
0.000263
0.000259
0.000266
0.000231
0.000410
0.000374
0.000444
0.000361
0.000215
0.000229
0.000234
0.000258
0.000275
0.000267
0.000237
0.000267
0.000275
0.000241
0.000057
0.000348
0.000328
0.000235
0.000206
0.000252
0.000243
0.000252
0.000249
0.000230
0.000241
0.001700
0.000249
0.000250
0.000206
0.000219
0.000251
0.000276
0.000264
0.000229
0.000272
0.000272
0.000255
0.000253
0.000448
0.000420
0.000446
0.000221
0.000250
0.000282
0.000279
0.000192
0.000056
0.000193
0.000470
0.000194
0.000222
0.000432
0.000424
0.000318
0.000279
0.000460
0.000215
0.000217
0.000245
0.000264
0.000257
0.000274
0.001499
0.000271
0.000273
0.000248
0.000276
0.000271
0.000253
0.000260
0.000259
0.000254
0.000268
0.000513
0.000394
0.000279
0.000298
0.000150
0.000057
0.000202
0.000226
0.000247
0.000236
0.000222
0.000269
0.000237
0.000256
0.000316
0.000517
0.000301
0.000315
0.000204
0.000204
0.000250
0.000268
0.000271
0.000274
0.000270
0.000228
0.000255
0.000283
0.001353
0.000229
0.000270
0.000211
0.000234
0.000274
0.000258
0.000258
0.000203
0.000056
0.000254
0.000324
0.000401
0.000315
0.000231
0.000207
0.000265
0.000239
0.000259
0.000254
0.000248
0.000274
0.000245
0.000249
0.000253
0.000264
0.000269
0.000272
0.000264
0.000247
0.000245
0.000272
0.000275
0.000276
0.000294
0.000258
0.000296
0.000226
0.000270
0.000513
0.001311
0.000073
0.000185
0.000208
0.000232
0.000240
0.000254
0.000263
0.000250
0.000221
0.000245
0.000251
0.000255
0.000266
0.000261
0.000239
0.000245
0.001718
0.000363
0.000211
0.000199
0.000241
0.000254
0.000257
0.000270
0.000257
0.000259
0.000300
0.000255
0.000264
0.000287
0.000253
0.000250
0.000057
0.000321
0.000274
0.001333
0.000202
0.000202
0.000227
0.000260
0.000248
0.000254
0.000265
0.000231
0.000395
0.000361
0.000535
0.000207
0.000223
0.000226
0.000239
0.000267
0.000265
0.000245
0.000263
0.000273
0.000280
0.000287
0.000418
0.000364
0.000357
0.000275
0.000256
0.000201
0.000056
0.000210
0.000237
0.000234
0.000250
0.000245
0.000253
0.000216
0.000267
0.000443
0.000461
0.001094
0.000247
0.000236
0.000258
0.000261
0.000261
0.000267
0.000252
0.000348
0.000457
0.000340
0.000242
0.000234
0.000235
0.000279
0.000294
0.000245
0.000294
0.000272
0.000279
0.000211
0.000056
0.000360
0.000334
0.000379
0.000228
0.000207
0.000199
0.000244
0.000273
0.000266
0.000257
0.000222
0.000258
0.000526
0.000471
0.000485
0.001458
0.000223
0.000272
0.000319
0.000357
0.000487
0.000530
0.000292
0.000411
0.000231
0.000266
0.000255
0.000284
0.000262
0.000279
0.000212
0.000056
0.000199
0.000323
0.000500
0.000450
0.000255
0.000220
0.000243
0.000244
0.000238
0.000251
0.000265
0.000250
0.000262
0.000247
0.000276
0.000307
0.000402
0.000450
0.000304
0.001306
0.000275
0.000253
0.000251
0.000261
0.000624
0.000320
0.000411
0.000221
0.000235
0.000273
0.000207
0.000057
0.000173
0.000223
0.000249
0.000237
0.000247
0.000358
0.000391
0.000396
0.000350
0.000230
0.000220
0.000258
0.000272
0.000259
0.000264
0.000257
0.000263
0.000264
0.000267
0.000336
0.000515
0.000395
0.000325
0.001339
0.000358
0.000225
0.000286
0.000427
0.000556
0.000232
0.000323
0.000057
0.000178
0.000218
0.000251
0.000245
0.000256
0.000250
0.001716
0.000228
0.000228
0.000219
0.000254
0.000250
0.000325
0.000319
0.000329
0.000297
0.000230
0.000566
0.000304
0.000376
0.000275
0.000273
0.000222
0.000228
0.001442
0.000539
0.000310
0.000481
0.000302
0.000303
0.000163
0.000056
0.000207
0.000229
0.000254
0.000265
0.000243
0.000256
0.001781
0.000217
0.000229
0.000252
0.000387
0.000415
0.001427
0.000343
0.000412
0.000213
0.000204
0.000239
0.000264
0.000271
0.001771
0.000469
0.000342
0.000272
0.000219
0.000229
0.000243
0.000277
0.000256
0.000250
0.000208
0.000056
0.000192
0.000225
0.000257
0.000258
0.000254
0.000272
0.000281
0.000256
0.000255
0.000254
0.000248
0.000252
0.000248
0.000275
0.000254
0.001499
0.000276
0.000244
0.000263
0.000272
0.000271
0.000262
0.000420
0.001279
0.000268
0.000250
0.000262
0.000253
0.000467
0.000212
0.000187
0.000055
0.000195
0.000217
0.000234
0.000243
0.000236
0.000226
0.000244
0.001769
0.000188
0.000217
0.000237
0.000370
0.000234
0.000222
0.001458
0.000245
0.000214
0.000229
0.000265
0.000241
0.000256
0.000307
0.000333
0.001370
0.000272
0.000219
0.000234
0.000250
0.001397
0.000261
0.000253
0.000056
0.000253
0.000359
0.000216
0.000191
0.000249
0.000238
0.000265
0.000271
0.000261
0.000246
0.000270
0.000258
0.000257
0.000240
0.000328
0.001473
0.000259
0.000266
0.000260
0.000250
0.000275
0.000259
0.000259
0.001562
0.000278
0.000251
0.000278
0.001338
0.000229
0.000225
0.000261
0.000055
0.000204
0.000390
0.000333
0.000216
0.000206
0.000251
0.000251
0.000259
0.000264
0.000267
0.000248
0.000248
0.000258
0.000272
0.000509
0.001193
0.000215
0.000224
0.000244
0.000281
0.000232
0.000236
0.000258
0.001367
0.000323
0.000207
0.000241
0.000216
0.000257
0.001357
0.000353
0.000056
0.000216
0.000262
0.000214
0.000209
0.000227
0.000248
0.000258
0.000249
0.000270
0.000255
0.000238
0.000249
0.000374
0.000186
0.000503
0.001407
0.000235
0.000225
0.000306
0.000498
0.000316
0.000429
0.001298
0.000294
0.000264
0.000241
0.001287
0.000346
0.000319
0.000470
0.000316
0.000056
0.000218
0.000218
0.000256
0.000256
0.000250
0.000255
0.000276
0.000247
0.000264
0.000260
0.000373
0.000446
0.001376
0.000209
0.000233
0.000248
0.000285
0.000261
0.000235
0.000219
0.000420
0.001216
0.000252
0.000223
0.000231
0.000233
0.001513
0.000498
0.000406
0.000245
0.000188
0.000056
0.000202
0.000209
0.000235
0.000241
0.000251
0.000263
0.000244
0.000276
0.000487
0.000409
0.000307
0.001449
0.000258
0.000198
0.000267
0.000259
0.000257
0.000299
0.001639
0.000333
0.000332
0.000365
0.001330
0.000419
0.000267
0.000342
0.000233
0.000205
0.000255
0.000272
0.000210
0.000056
0.000203
0.000221
0.000315
0.000284
0.000302
0.000541
0.000262
0.000357
0.001470
0.000280
0.000338
0.000261
0.000214
0.000316
0.000335
0.001383
0.000280
0.000195
0.000229
0.000234
0.000303
0.001613
0.000362
0.000257
0.000233
0.000226
0.000513
0.000312
0.000234
0.000230
0.000253
0.000056
0.000296
0.000315
0.000341
0.000280
0.000212
0.001456
0.000235
0.000235
0.000259
0.000272
0.000267
0.000260
0.000343
0.001428
0.000272
0.000220
0.000420
0.001301
0.000301
0.000462
0.000316
0.000234
0.000249
0.000239
0.000288
0.000249
0.000457
0.000233
0.000249
0.000277
0.000213
0.000055
0.000197
0.000272
0.000320
0.001464
0.000264
0.000198
0.000305
0.000248
0.000244
0.000249
0.000250
0.000292
0.001610
0.000200
0.000221
0.000220
0.001368
0.000415
0.000410
0.000472
0.000293
0.000222
0.000219
0.000243
0.000355
0.000238
0.000228
0.000264
0.000255
0.000250
0.000208
0.000056
0.000215
0.000385
0.001436
0.000218
0.000261
0.000271
0.000245
0.000252
0.000382
0.000323
0.001335
0.000245
0.000301
0.000249
0.000208
0.001349
0.000690
0.000265
0.000299
0.000404
0.000335
0.000234
0.000228
0.000246
0.000271
0.000285
0.000275
0.000325
0.000572
0.000317
0.001383
0.000057
0.000186
0.000237
0.000215
0.000228
0.000305
0.000504
0.001401
0.000311
0.000201
0.000208
0.000242
0.001497
0.000453
0.000256
0.000449
0.000248
0.000227
0.000217
0.000235
0.000279
0.000252
0.000262
0.000276
0.000265
0.000245
0.000413
0.000348
0.000487
0.001455
0.000271
0.000174
0.000056
0.000185
0.000229
0.000325
0.000713
0.001087
0.000281
0.000255
0.000255
0.000253
0.000249
0.000249
0.000297
0.000311
0.000575
0.000316
0.000212
0.000243
0.000274
0.000236
0.000277
0.000257
0.000265
0.000270
0.000260
0.000257
0.000383
0.000626
0.000206
0.000309
0.001485
0.000143
0.000056
0.000209
0.000209
0.000297
0.000437
0.000353
0.000306
0.000289
0.000326
0.000271
0.000263
0.000261
0.000262
0.000251
0.000307
0.000253
0.000308
0.000588
0.000261
0.000275
0.000389
0.000295
0.000465
0.000220
0.000232
0.000218
0.000260
0.000259
0.000293
0.000460
0.000431
0.000274
0.000056
0.000212
0.001361
0.000274
0.000326
0.000391
0.000420
0.000393
0.000313
0.000220
0.000211
0.000257
0.000261
0.000256
0.000281
0.000247
0.000260
0.000265
0.001383
0.000291
0.000217
0.000228
0.000272
0.000271
0.000279
0.000277
0.000250
0.000263
0.000253
0.000326
0.000445
0.000352
0.000056
0.000228
0.000243
0.000212
0.001536
0.000336
0.000214
0.000217
0.000200
0.000233
0.000246
0.000254
0.000274
0.000243
0.000252
0.000263
0.000262
0.000243
0.000265
0.000257
0.000264
0.001434
0.000272
0.000229
0.000324
0.000219
0.000219
0.000261
0.000278
0.000267
0.000500
0.000374
0.000057
0.000200
0.000205
0.000383
0.000293
0.000243
0.000257
0.001577
0.000359
0.000282
0.000204
0.000237
0.000355
0.000313
0.000221
0.000218
0.000259
0.000238
0.000262
0.000260
0.000277
0.000625
0.000394
0.001141
0.000268
0.000211
0.000217
0.000268
0.000263
0.000277
0.000267
0.000323
0.000057
0.000227
0.000352
0.000200
0.000203
0.000252
0.000240
0.000242
0.000232
0.001441
0.000525
0.000377
0.000271
0.000224
0.000203
0.000256
0.000239
0.000254
0.000282
0.000254
0.000307
0.000307
0.000617
0.000368
0.001326
0.000240
0.000251
0.000272
0.000264
0.000273
0.000280
0.000615
0.000057
0.000256
0.000234
0.000232
0.000234
0.000227
0.000232
0.000265
0.000245
0.000289
0.001569
0.000344
0.000252
0.000265
0.000261
0.000465
0.000286
0.000404
0.000471
0.000333
0.000328
0.000440
0.000461
0.001306
0.000234
0.000226
0.000219
0.001930
0.000277
0.000593
0.000316
0.000140
0.000056
0.000206
0.000200
0.000240
0.000237
0.000252
0.000245
0.000357
0.000461
0.000480
0.000390
0.000305
0.000218
0.000202
0.000259
0.000263
0.000268
0.000244
0.000257
0.000250
0.000274
0.000298
0.000538
0.001206
0.000250
0.000224
0.000270
0.001890
0.000392
0.000371
0.000370
0.000158
0.000056
0.000235
0.000222
0.000240
0.001707
0.000253
0.000249
0.000240
0.000263
0.000241
0.000329
0.000366
0.000375
0.000355
0.000304
0.000356
0.000486
0.000335
0.001246
0.000269
0.000199
0.000228
0.000257
0.000355
0.000411
0.000586
0.000475
0.000230
0.000215
0.000262
0.000279
0.000215
0.000056
0.000185
0.000201
0.001493
0.000385
0.000201
0.000207
0.000220
0.000251
0.000251
0.000248
0.000252
0.000273
0.000266
0.000270
0.000273
0.000371
0.000478
0.000323
0.001357
0.000279
0.000216
0.000252
0.000261
0.000266
0.000411
0.000488
0.000422
0.000280
0.000302
0.000245
0.000410
0.000057
0.000184
0.000214
0.000247
0.000264
0.001576
0.000235
0.000259
0.000242
0.000258
0.000254
0.000255
0.000261
0.000260
0.000241
0.000419
0.000646
0.001325
0.000730
0.000228
0.000339
0.000250
0.000204
0.000239
0.000272
0.001767
0.000714
0.000258
0.000245
0.000279
0.000284
0.000220
0.000056
0.000182
0.000213
0.000250
0.000246
0.000249
0.000245
0.000252
0.000248
0.000249
0.000228
0.000285
0.000284
0.000257
0.000251
0.000253
0.000264
0.000275
0.001576
0.000720
0.000393
0.000340
0.000211
0.000213
0.000274
0.000296
0.000239
0.000271
0.000265
0.001540
0.000294
0.000339
0.000057
0.000191
0.000219
0.000236
0.000251
0.000256
0.000234
0.000257
0.000245
0.000257
0.000266
0.000314
0.000411
0.000402
0.000357
0.000221
0.000219
0.000280
0.001439
0.000711
0.000418
0.000289
0.000315
0.000222
0.000234
0.000266
0.000266
0.000242
0.000279
0.001512
0.000462
0.000192
0.000056
0.000187
0.000197
0.000250
0.000248
0.000244
0.000243
0.000260
0.000241
0.000264
0.000308
0.000408
0.000337
0.000306
0.000210
0.000234
0.000245
0.000267
0.000250
0.001657
0.000525
0.000470
0.000362
0.000207
0.000254
0.000255
0.000261
0.000271
0.000277
0.000267
0.001567
0.000174
0.000057
0.000192
0.000209
0.000209
0.000263
0.000254
0.000246
0.000282
0.000347
0.000367
0.000556
0.000279
0.000344
0.000323
0.000212
0.000235
0.000243
0.000275
0.000255
0.001517
0.000797
0.000280
0.000205
0.000485
0.000205
0.000214
0.000252
0.000281
0.000259
0.000262
0.000273
0.000426
0.000056
0.000173
0.000304
0.000216
0.000227
0.000253
0.000253
0.000231
0.000234
0.000273
0.000237
0.000263
0.000230
0.000485
0.000338
0.000413
0.000398
0.000234
0.000257
0.000259
0.000251
0.000250
0.000384
0.001369
0.001057
0.000245
0.000223
0.000275
0.000259
0.000276
0.000271
0.000203
0.000056
0.000200
0.001369
0.000274
0.000199
0.000206
0.000251
0.000249
0.000245
0.000233
0.000267
0.000237
0.000257
0.000264
0.000433
0.000344
0.000473
0.000264
0.000195
0.000275
0.000264
0.000267
0.000239
0.000251
0.000268
0.001474
0.000594
0.000312
0.000394
0.000372
0.000398
0.000265
0.000058
0.000196
0.000229
0.000435
0.001225
0.000242
0.000262
0.000196
0.000263
0.000267
0.000237
0.000279
0.000226
0.000286
0.000323
0.000598
0.000338
0.000199
0.000311
0.000276
0.000213
0.000245
0.000266
0.000238
0.000269
0.000271
0.001528
0.000743
0.000301
0.000279
0.000272
0.000224
0.000057
0.000199
0.000378
0.000298
0.001486
0.000275
0.000184
0.000195
0.000202
0.000239
0.000237
0.000251
0.000273
0.000224
0.000229
0.000254
0.000256
0.000267
0.000236
0.000255
0.000266
0.000258
0.000272
0.000333
0.000305
0.000226
0.000246
0.000275
0.001520
0.000248
0.000216
0.000173
0.000056
0.000191
0.000207
0.000253
0.000333
0.000352
0.000334
0.000409
0.000246
0.001611
0.000260
0.000306
0.000421
0.000342
0.000234
0.000489
0.000230
0.000217
0.000238
0.000259
0.000272
0.000280
0.000259
0.000265
0.000265
0.000281
0.000410
0.000508
0.000259
0.001535
0.000233
0.000177
0.000057
0.000208
0.000209
0.000253
0.000245
0.000245
0.000239
0.000267
0.000334
0.000415
0.002071
0.000204
0.000196
0.000257
0.000260
0.000273
0.000321
0.000250
0.000218
0.000295
0.000409
0.000351
0.000455
0.001545
0.000190
0.000213
0.000503
0.001765
0.000285
0.000264
0.001484
0.000189
0.000056
0.000336
0.000360
0.000502
0.000207
0.000264
0.000236
0.000252
0.000262
0.000263
0.000235
0.000250
0.000398
0.000400
0.000302
0.000467
0.000245
0.000211
0.001592
0.000458
0.001995
0.000276
0.000268
0.000215
0.001660
0.001944
0.000723
0.000283
0.000212
0.000256
0.000481
0.000390
0.000056
0.000197
0.000221
0.000245
0.000261
0.001482
0.001662
0.001084
0.000224
0.000212
0.001585
0.001973
0.000238
0.000310
0.000408
0.000315
0.000415
0.000455
0.000260
0.000257
0.000228
0.000249
0.000257
0.000282
0.001542
0.001321
0.001417
0.000266
0.000245
0.000267
0.000324
0.000395
0.000056
0.000208
0.000243
0.000208
0.000235
0.000234
0.000232
0.000250
0.000260
0.000244
0.000250
0.000248
0.000503
0.000250
0.000504
0.000312
0.000214
0.000214
0.000272
0.000263
0.000267
0.000256
0.001459
0.000487
0.000349
0.002070
0.000263
0.000248
0.000430
0.000420
0.000382
0.000153
0.000058
0.000232
0.000335
0.000417
0.000317
0.000218
0.000213
0.000233
0.000261
0.000243
0.000246
0.000244
0.000267
0.000256
0.001608
0.001424
0.001228
0.000268
0.000235
0.000215
0.000239
0.000286
0.000277
0.000254
0.000241
0.002274
0.000226
0.000216
0.000278
0.000323
0.000306
0.000242
0.000056
0.000203
0.000391
0.000583
0.000332
0.000191
0.000202
0.000229
0.000263
0.001896
0.001432
0.000256
0.000374
0.000390
0.000355
0.000269
0.000207
0.000236
0.000271
0.000261
0.000261
0.000270
0.000255
0.000481
0.000225
0.000266
0.000274
0.000255
0.000274
0.000278
0.000248
0.000226
0.000056
0.000175
0.000222
0.000251
0.000251
0.000239
0.000267
0.001540
0.001492
0.001340
0.000213
0.000200
0.000221
0.000266
0.000261
0.000251
0.000253
0.000243
0.002168
0.000215
0.000223
0.000249
0.000269
0.000251
0.000267
0.000268
0.000259
0.000261
0.000257
0.000275
0.000260
0.000190
0.000056
0.001513
0.000312
0.002397
0.000251
0.000296
0.000290
0.000243
0.000261
0.000261
0.000247
0.000248
0.000251
0.000239
0.000241
0.000260
0.000258
0.000269
0.000285
0.000241
0.000268
0.000260
0.000284
0.000274
0.000274
0.000244
0.000248
0.000260
0.000271
0.000258
0.000267
0.000404
0.000056
0.000190
0.002559
0.000334
0.000200
0.000194
0.000207
0.000262
0.000262
0.000255
0.000263
0.000395
0.000365
0.000331
0.000259
0.000203
0.002239
0.000200
0.000223
0.000317
0.000475
0.000378
0.000283
0.000213
0.000239
0.000269
0.000247
0.000260
0.000279
0.000277
0.001702
0.001185
0.000057
0.000209
0.000200
0.000325
0.000384
0.000328
0.000281
0.000228
0.000218
0.000252
0.000264
0.000260
0.000250
0.000230
0.000246
0.000273
0.000237
0.000377
0.000605
0.000350
0.000252
0.000209
0.000241
0.000286
0.000259
0.000255
0.000244
0.000258
0.000279
0.000245
0.000393
0.000322
0.000056
0.001126
0.000208
0.000353
0.000451
0.000339
0.000197
0.000194
0.000233
0.002353
0.000293
0.000325
0.000381
0.000192
0.000284
0.000342
0.000266
0.000273
0.000253
0.000262
0.000243
0.000243
0.000372
0.000721
0.000309
0.001795
0.001359
0.000580
0.000462
0.000229
0.000246
0.000224
0.000057
0.000221
0.000349
0.000233
0.000247
0.000237
0.000240
0.000237
0.000246
0.000262
0.000248
0.000251
0.000240
0.000247
0.000252
0.000429
0.000489
0.001867
0.001393
0.000405
0.000353
0.000447
0.000268
0.000227
0.000261
0.002250
0.000435
0.000376
0.000241
0.000274
0.000283
0.000217
0.000056
0.000190
0.000234
0.000247
0.000237
0.000247
0.000351
0.000430
0.000315
0.000306
0.000249
0.000217
0.000285
0.000228
0.002218
0.000230
0.000416
0.000212
0.000238
0.000266
0.000272
0.000243
0.002541
0.000276
0.000205
0.000257
0.000253
0.000250
0.000265
0.000276
0.000287
0.000219
0.000056
0.000220
0.000366
0.000613
0.000315
0.000225
0.000212
0.000200
0.000245
0.000267
0.001954
0.000419
0.000319
0.000242
0.000255
0.000204
0.000248
0.000272
0.000250
0.002274
0.000377
0.000218
0.000276
0.000257
0.000263
0.000259
0.000243
0.000298
0.000246
0.000266
0.000257
0.000213
0.000056
0.000184
0.000225
0.000251
0.000215
0.000251
0.000259
0.000236
0.000248
0.000231
0.002175
0.000257
0.000270
0.000213
0.000485
0.000201
0.000223
0.000258
0.000280
0.000265
0.000260
0.002024
0.000269
0.000350
0.000363
0.000505
0.000332
0.000285
0.000247
0.000224
0.000253
0.000214
0.000056
0.000193
0.000232
0.000226
0.000237
0.000253
0.000384
0.000204
0.002342
0.000206
0.000227
0.000228
0.000254
0.000242
0.000245
0.000299
0.002209
0.000512
0.000224
0.000256
0.000253
0.000251
0.000258
0.000287
0.000264
0.000262
0.000262
0.000283
0.000257
0.000267
0.000307
0.000171
0.000056
0.000180
0.003012
0.000241
0.000221
0.000237
0.000250
0.000248
0.000330
0.000358
0.000430
0.002084
0.000262
0.000233
0.000266
0.000299
0.000575
0.000357
0.000295
0.000223
0.000218
0.000254
0.000255
0.000275
0.000226
0.000246
0.000270
0.000260
0.000270
0.000346
0.000743
0.000234
0.000056
0.000196
0.000271
0.000260
0.000224
0.000232
0.000255
0.000249
0.000246
0.001572
0.002094
0.000516
0.000266
0.000433
0.000765
0.000333
0.000211
0.000201
0.000246
0.000277
0.000250
0.000258
0.000238
0.000260
0.000270
0.001830
0.001439
0.000292
0.000277
0.000303
0.000324
0.000420
0.000056
0.001943
0.000231
0.000229
0.000210
0.000278
0.000351
0.000471
0.000314
0.000302
0.000236
0.000218
0.000215
0.000260
0.000270
0.000245
0.000262
0.000252
0.000264
0.001913
0.000215
0.000198
0.000242
0.000272
0.000281
0.000280
0.000251
0.001533
0.000341
0.000218
0.000224
0.000189
0.000056
0.000196
0.000226
0.000214
0.000247
0.000251
0.000237
0.000370
0.000309
0.000423
0.000349
0.000189
0.000205
0.000337
0.000327
0.000376
0.000330
0.000230
0.000215
0.000258
0.000414
0.000529
0.000381
0.000237
0.000220
0.000259
0.000255
0.000248
0.000271
0.000290
0.000248
0.000215
0.000056
0.001402
0.000409
0.000237
0.002016
0.000265
0.000513
0.000271
0.000375
0.000193
0.000218
0.000262
0.000250
0.000252
0.000236
0.000289
0.000254
0.000444
0.000316
0.000400
0.000356
0.000354
0.000216
0.000259
0.000258
0.000331
0.000232
0.000243
0.000283
0.000304
0.000592
0.001334
0.000056
0.000196
0.000196
0.002077
0.000307
0.000313
0.000255
0.000255
0.000250
0.000267
0.000250
0.000224
0.000245
0.000261
0.000258
0.000287
0.000358
0.000673
0.001745
0.000258
0.000245
0.000266
0.000270
0.000376
0.000481
0.001522
0.000270
0.000365
0.002002
0.000226
0.000246
0.000205
0.000057
0.000183
0.000208
0.000227
0.000247
0.000227
0.000246
0.000255
0.000271
0.000344
0.000296
0.000383
0.000365
0.000337
0.000302
0.000209
0.000260
0.000266
0.000231
0.000266
0.000269
0.000273
0.000334
0.000231
0.000266
0.000274
0.001575
0.000285
0.000398
0.001990
0.000271
0.000165
0.000056
0.000195
0.000219
0.000236
0.000252
0.000466
0.000230
0.000247
0.000367
0.000397
0.000337
0.000218
0.000214
0.000252
0.000274
0.000275
0.000319
0.000509
0.000337
0.000267
0.000367
0.000618
0.000414
0.001549
0.000250
0.000255
0.002035
0.000334
0.000220
0.000222
0.000262
0.000211
0.000056
0.000207
0.000221
0.000216
0.000247
0.000246
0.000262
0.000264
0.000262
0.000259
0.000249
0.001884
0.000350
0.000336
0.000317
0.000459
0.000362
0.001507
0.000344
0.000227
0.000300
0.002073
0.000602
0.000225
0.000230
0.000228
0.000272
0.000502
0.000230
0.000250
0.000291
0.000199
0.000055
0.000323
0.000344
0.000312
0.000260
0.000201
0.000227
0.000258
0.000253
0.000260
0.000299
0.000235
0.000246
0.000272
0.000257
0.000401
0.000448
0.001271
0.000250
0.000327
0.002041
0.000265
0.000262
0.000222
0.000249
0.000241
0.000279
0.000264
0.000269
0.000243
0.000263
0.000223
0.000056
0.000258
0.000357
0.002078
0.000219
0.000243
0.000228
0.000222
0.000388
0.000410
0.001502
0.000269
0.000362
0.000336
0.002000
0.000242
0.000247
0.000250
0.000272
0.000263
0.000235
0.000291
0.000281
0.000265
0.000499
0.000430
0.000281
0.000374
0.002165
0.000542
0.000424
0.000458
0.000055
0.000200
0.000213
0.000218
0.002037
0.000198
0.000208
0.000234
0.000280
0.000198
0.000253
0.000238
0.000268
0.000251
0.000306
0.000560
0.000263
0.001307
0.000262
0.000256
0.000264
0.000225
0.000252
0.000261
0.000271
0.000369
0.000484
0.000386
0.000254
0.001690
0.000217
0.000151
0.000058
0.000206
0.000206
0.000223
0.000236
0.000240
0.000257
0.000257
0.000249
0.000278
0.000392
0.000418
0.001392
0.000202
0.000210
0.000225
0.000250
0.000259
0.000261
0.000345
0.000442
0.000422
0.000450
0.000213
0.001559
0.000267
0.000231
0.000281
0.000274
0.000266
0.000267
0.000214
0.000056
0.000200
0.000213
0.000267
0.000262
0.000258
0.000234
0.000241
0.000234
0.000265
0.000232
0.000259
0.000255
0.000252
0.000258
0.001569
0.000236
0.000245
0.000267
0.000334
0.000327
0.000360
0.000266
0.000208
0.000252
0.000261
0.000255
0.001462
0.000303
0.000212
0.000229
0.000170
0.000056
0.000193
0.000231
0.000247
0.000255
0.000277
0.000220
0.000246
0.000269
0.000214
0.000266
0.000243
0.000258
0.000230
0.000339
0.000405
0.000267
0.000323
0.001579
0.000338
0.000215
0.000207
0.000243
0.000249
0.000304
0.000433
0.000495
0.000344
0.000242
0.000222
0.001592
0.000198
0.000056
0.000359
0.000357
0.000427
0.000189
0.000206
0.000219
0.000230
0.000275
0.000256
0.000237
0.000243
0.000235
0.001507
0.000415
0.000178
0.000213
0.000224
0.000260
0.000269
0.000259
0.000261
0.000236
0.000262
0.000272
0.000281
0.000317
0.000488
0.000455
0.000213
0.000223
0.000201
0.000056
0.000214
0.000307
0.000470
0.000299
0.000337
0.000255
0.000211
0.000253
0.000254
0.000256
0.000249
0.000219
0.000255
0.000251
0.001365
0.000268
0.000192
0.000222
0.000260
0.000268
0.000247
0.000256
0.000250
0.000261
0.000261
0.000255
0.000323
0.000822
0.000317
0.000254
0.000172
0.000056
0.000182
0.001547
0.000274
0.000329
0.000516
0.000327
0.000208
0.000223
0.000262
0.000271
0.000235
0.000252
0.000272
0.000278
0.000270
0.001516
0.000247
0.000285
0.000262
0.000259
0.000261
0.000254
0.000259
0.000278
0.000252
0.000257
0.000490
0.000444
0.000273
0.000231
0.000169
0.000058
0.000194
0.000218
0.000248
0.001701
0.000412
0.000331
0.000199
0.000207
0.000246
0.000271
0.000271
0.000265
0.000252
0.000257
0.000239
0.000264
0.000370
0.001425
0.000209
0.000233
0.001530
0.000426
0.000496
0.000365
0.000285
0.000218
0.000269
0.000473
0.000236
0.000250
0.000205
0.000056
0.000196
0.000220
0.000289
0.000170
0.000243
0.000258
0.000245
0.000250
0.000259
0.000235
0.000258
0.000253
0.000351
0.000491
0.001638
0.001514
0.000360
0.000536
0.000289
0.000241
0.000238
0.000253
0.000247
0.000263
0.000255
0.000271
0.000259
0.000268
0.001605
0.000308
0.000151
0.000056
0.000199
0.000341
0.000352
0.000331
0.000259
0.000199
0.000223
0.000340
0.000446
0.001411
0.000350
0.001542
0.000396
0.000554
0.000332
0.000259
0.000343
0.000337
0.000345
0.000279
0.000236
0.000367
0.001552
0.000533
0.000245
0.000233
0.000262
0.000246
0.000276
0.000251
0.000222
0.000057
0.000187
0.000226
0.000254
0.000260
0.000240
0.001653
0.000955
0.000896
0.000236
0.000246
0.000248
0.000263
0.000245
0.000264
0.000259
0.000247
0.000261
0.000262
0.000263
0.000292
0.001491
0.000278
0.000252
0.000218
0.000218
0.000251
0.000266
0.000284
0.000263
0.000275
0.000278
0.000056
0.000189
0.000199
0.001545
0.000989
0.000305
0.000395
0.000185
0.000195
0.000248
0.000250
0.000246
0.000264
0.000257
0.002027
0.000476
0.000208
0.000199
0.000247
0.000265
0.000259
0.000221
