0.000102
0.018757
0.002805
0.000316
0.000265
0.000290
0.000305
0.000251
0.000326
0.000286
0.000248
0.000351
0.000534
0.000433
0.000374
0.000400
0.000261
0.000342
0.000354
0.000416
0.000310
0.001913
0.000703
0.000251
0.000261
0.000305
0.000300
0.000331
0.000435
0.000359
0.000518
0.000291
0.000058
0.000198
0.000266
0.000270
0.000273
0.000262
0.000252
0.000278
0.000257
0.000271
0.000313
0.000477
0.000371
0.000337
0.000242
0.000411
0.000303
0.000360
0.000250
0.000243
0.001699
0.000328
0.000249
0.000455
0.000240
0.000288
0.000273
0.000293
0.000290
0.000279
0.000316
0.000456
0.000058
0.000247
0.000256
0.000263
0.000261
0.000248
0.000247
0.000266
0.000252
0.000289
0.001664
0.000232
0.000230
0.000278
0.000269
0.000274
0.000250
0.000270
0.000254
0.000354
0.001791
0.000244
0.000275
0.000447
0.000469
0.000355
0.000237
0.000250
0.000479
0.000545
0.000725
0.000193
0.000057
0.000225
0.000250
0.000246
0.000247
0.000295
0.000272
0.000246
0.000589
0.000413
0.000236
0.000248
0.000254
0.000242
0.000252
0.000251
0.000256
0.000248
0.000268
0.000299
0.000325
0.001666
0.000287
0.000268
0.000393
0.000289
0.000714
0.000680
0.000519
0.000338
0.000231
0.000198
0.000057
0.000227
0.000254
0.000265
0.000242
0.000254
0.000257
0.000300
0.000436
0.001462
0.000210
0.000255
0.000244
0.000256
0.000257
0.000262
0.000283
0.000282
0.000801
0.001382
0.000282
0.000462
0.000256
0.000209
0.000234
0.000264
0.000247
0.000271
0.000273
0.000260
0.000265
0.000198
0.000056
0.000194
0.000244
0.000250
0.000261
0.000234
0.000244
0.000246
0.000253
0.000234
0.000270
0.001670
0.000227
0.000224
0.000249
0.000239
0.000256
0.000236
0.000268
0.000236
0.000257
0.000274
0.001661
0.000288
0.000271
0.000414
0.000261
0.000259
0.000247
0.000264
0.000273
0.000198
0.000056
0.000213
0.000224
0.000253
0.000243
0.000248
0.000249
0.000260
0.000239
0.000261
0.000240
0.000268
0.000253
0.000261
0.001698
0.000302
0.000191
0.000316
0.000197
0.000251
0.000270
0.000266
0.000241
0.000240
0.000265
0.001792
0.000355
0.000384
0.000343
0.000256
0.000279
0.000193
0.000056
0.000224
0.000247
0.000241
0.000266
0.000260
0.000234
0.000266
0.000417
0.000415
0.000454
0.000197
0.000243
0.000253
0.000250
0.001584
0.000512
0.000308
0.000415
0.000324
0.000226
0.000270
0.000279
0.000271
0.001739
0.000518
0.000460
0.000249
0.000255
0.000238
0.000257
0.000185
0.000057
0.000190
0.000239
0.000255
0.000266
0.000339
0.000425
0.000389
0.000281
0.000214
0.000246
0.000267
0.000234
0.000259
0.001720
0.000468
0.000297
0.000230
0.000249
0.000292
0.000266
0.000249
0.000258
0.000270
0.001881
0.000326
0.000376
0.000263
0.000239
0.000267
0.000407
0.000330
0.000057
0.000190
0.000403
0.000360
0.000273
0.000249
0.000252
0.000250
0.000262
0.000236
0.000236
0.000231
0.000253
0.001563
0.000330
0.000324
0.000231
0.000259
0.000243
0.000246
0.000284
0.000280
0.000326
0.000245
0.001817
0.000255
0.000494
0.000239
0.000262
0.000254
0.000267
0.000270
0.000057
0.000452
0.000469
0.000606
0.000215
0.000225
0.000279
0.000233
0.000213
0.000264
0.000254
0.000252
0.001700
0.000251
0.000442
0.000370
0.000213
0.000245
0.000225
0.000247
0.000272
0.000253
0.001854
0.000250
0.000220
0.002087
0.000517
0.000362
0.000252
0.000250
0.000279
0.000171
0.000057
0.000206
0.000240
0.000241
0.000244
0.000262
0.001615
0.000254
0.000229
0.000272
0.000237
0.000240
0.000257
0.000245
0.000249
0.000270
0.000417
0.000650
0.000233
0.000227
0.000270
0.000268
0.000246
0.000250
0.000431
0.000436
0.000269
0.000455
0.000431
0.000469
0.000254
0.000194
0.000056
0.000218
0.000240
0.000254
0.000249
0.000229
0.000249
0.000240
0.000457
0.000369
0.001722
0.000223
0.000238
0.000236
0.000247
0.000267
0.000280
0.000598
0.000308
0.000366
0.000213
0.000258
0.000298
0.000287
0.000250
0.000274
0.000438
0.000342
0.000632
0.000373
0.000509
0.000164
0.000056
0.000212
0.000283
0.000229
0.000211
0.000248
0.000238
0.000251
0.000247
0.000239
0.000298
0.000344
0.000504
0.001315
0.000246
0.000240
0.000239
0.000262
0.000251
0.000244
0.000312
0.000273
0.000434
0.000391
0.000261
0.000260
0.000257
0.000253
0.000272
0.000264
0.000271
0.000380
0.000057
0.000184
0.000241
0.000225
0.000268
0.000535
0.000441
0.000229
0.000257
0.000237
0.000258
0.000252
0.000234
0.000292
0.000251
0.000240
0.000472
0.000493
0.001578
0.000277
0.000247
0.000249
0.000264
0.000261
0.000232
0.000258
0.000557
0.000403
0.000340
0.000388
0.000229
0.000197
0.000057
0.000243
0.000415
0.000240
0.000211
0.000265
0.000244
0.000241
0.000618
0.000428
0.000216
0.000227
0.000276
0.000261
0.000239
0.000524
0.000347
0.000211
0.000250
0.000443
0.001606
0.000278
0.000233
0.000522
0.000244
0.000279
0.000290
0.000248
0.000467
0.000445
0.000351
0.000279
0.000056
0.000197
0.000234
0.000235
0.000244
0.000410
0.000312
0.000290
0.000230
0.000427
0.000404
0.000439
0.000235
0.000228
0.000246
0.000261
0.000263
0.000255
0.000256
0.000224
0.000350
0.000298
0.000319
0.001856
0.000245
0.000253
0.000253
0.000293
0.000349
0.000433
0.000680
0.000427
0.000057
0.000221
0.000334
0.000281
0.000425
0.000391
0.000202
0.000270
0.000316
0.000521
0.000374
0.000260
0.000244
0.000236
0.000273
0.000260
0.000234
0.000283
0.000248
0.000265
0.000263
0.000269
0.000456
0.000600
0.001340
0.000336
0.000441
0.000412
0.000254
0.000402
0.000428
0.000324
0.000055
0.000229
0.000380
0.000271
0.000208
0.000225
0.000261
0.000400
0.000237
0.000232
0.000521
0.000280
0.000402
0.000275
0.000258
0.000264
0.000251
0.000359
0.000391
0.000355
0.000237
0.000237
0.000385
0.000627
0.001686
0.000233
0.000480
0.000265
0.000243
0.000283
0.000425
0.000328
0.000056
0.000220
0.000229
0.000247
0.000248
0.000244
0.000256
0.000240
0.000346
0.000441
0.000282
0.000450
0.000349
0.000304
0.000571
0.000247
0.000237
0.000273
0.000263
0.000233
0.000355
0.000224
0.000245
0.000268
0.000411
0.000463
0.001683
0.000276
0.000237
0.000244
0.000264
0.000184
0.000057
0.000308
0.000471
0.000326
0.000218
0.000253
0.000265
0.000240
0.000237
0.000264
0.000248
0.000242
0.000226
0.000478
0.000479
0.000395
0.000270
0.000252
0.000243
0.000361
0.000380
0.000382
0.000370
0.000381
0.000333
0.000238
0.000262
0.000265
0.000292
0.001762
0.000256
0.000213
0.000058
0.000196
0.000215
0.000264
0.000271
0.000362
0.000546
0.000308
0.000212
0.000260
0.000266
0.000242
0.000254
0.000520
0.000451
0.000477
0.000284
0.000261
0.000271
0.000418
0.000466
0.000356
0.000401
0.000601
0.000335
0.000236
0.000244
0.000273
0.000243
0.000269
0.001704
0.000354
0.000057
0.000241
0.000328
0.000206
0.000239
0.000252
0.000251
0.000241
0.000498
0.000372
0.000312
0.000294
0.000285
0.000347
0.000750
0.000230
0.000235
0.000243
0.000257
0.000246
0.000270
0.000265
0.000264
0.000246
0.000271
0.000276
0.000421
0.000464
0.000270
0.000249
0.000240
0.000185
0.000057
0.000451
0.000330
0.000429
0.000262
0.000199
0.000249
0.000245
0.000255
0.000237
0.000228
0.000245
0.000282
0.000294
0.000453
0.000445
0.000487
0.000292
0.000314
0.000392
0.000339
0.000286
0.000244
0.000242
0.000260
0.001752
0.000257
0.001727
0.000920
0.000454
0.000291
0.000151
0.000058
0.000222
0.000239
0.000231
0.000244
0.000256
0.000251
0.000250
0.000249
0.000249
0.000343
0.000321
0.000434
0.000347
0.000391
0.000245
0.000246
0.000256
0.000286
0.000236
0.000248
0.000250
0.000261
0.001810
0.000242
0.000253
0.000262
0.000280
0.000264
0.001895
0.000445
0.000312
0.000056
0.000226
0.000204
0.000245
0.000237
0.000256
0.000244
0.000247
0.000250
0.000258
0.000382
0.000555
0.000492
0.000239
0.000204
0.000233
0.000257
0.000330
0.000445
0.000372
0.000253
0.001766
0.000246
0.000256
0.000247
0.000263
0.000273
0.000237
0.000253
0.000334
0.000361
0.000306
0.000057
0.000225
0.000230
0.000226
0.000256
0.000253
0.000246
0.000252
0.000258
0.000258
0.000238
0.000237
0.000286
0.000413
0.000318
0.000380
0.000280
0.000453
0.000236
0.000248
0.000257
0.000262
0.000253
0.000277
0.000253
0.000281
0.001795
0.000243
0.000246
0.000275
0.000224
0.000207
0.000057
0.000252
0.000386
0.000232
0.000215
0.000241
0.000232
0.000239
0.000259
0.000245
0.000223
0.000233
0.000264
0.000256
0.000387
0.000383
0.000406
0.000248
0.000238
0.000245
0.000254
0.000264
0.000263
0.000250
0.000272
0.000239
0.000267
0.000310
0.001638
0.000266
0.000237
0.000178
0.000057
0.000203
0.000237
0.000253
0.000259
0.000350
0.000381
0.000389
0.000299
0.000240
0.000243
0.000243
0.000245
0.000266
0.000242
0.000264
0.000254
0.000243
0.000255
0.000257
0.000262
0.000266
0.000263
0.000253
0.000232
0.000258
0.000272
0.000274
0.000263
0.000253
0.000263
0.000200
0.000056
0.000193
0.000234
0.000259
0.000256
0.000235
0.000255
0.000239
0.000262
0.000283
0.000238
0.000243
0.000237
0.000253
0.000247
0.000272
0.000265
0.000249
0.000251
0.000302
0.000260
0.000260
0.000298
0.000270
0.000255
0.000274
0.000277
0.000266
0.000257
0.000250
0.000487
0.000611
0.000057
0.000221
0.000289
0.000225
0.000221
0.000247
0.000244
0.000244
0.000247
0.000251
0.000238
0.000269
0.000294
0.000499
0.000451
0.001549
0.000236
0.000493
0.000236
0.000246
0.000455
0.000440
0.000389
0.000218
0.000282
0.000250
0.000267
0.000281
0.000248
0.000308
0.000273
0.000175
0.000057
0.000377
0.000393
0.000346
0.000324
0.000197
0.000264
0.000253
0.000238
0.000240
0.000246
0.000251
0.000258
0.000228
0.000296
0.000315
0.000602
0.000313
0.001786
0.000234
0.000255
0.000345
0.000574
0.000247
0.000337
0.000320
0.000311
0.000305
0.000226
0.000234
0.000258
0.000189
0.000056
0.000206
0.000232
0.000240
0.000288
0.000448
0.000340
0.000357
0.000254
0.000251
0.000220
0.000242
0.000274
0.000265
0.000259
0.000247
0.000255
0.000296
0.000509
0.000357
0.000423
0.000228
0.001743
0.000329
0.000489
0.000562
0.000410
0.000340
0.000219
0.000252
0.000268
0.000442
0.000057
0.000193
0.000258
0.000228
0.000269
0.000525
0.000384
0.000374
0.000215
0.000242
0.000287
0.000245
0.000262
0.000252
0.000303
0.000302
0.000233
0.000238
0.000386
0.000476
0.000328
0.000499
0.001841
0.000250
0.000429
0.000509
0.000371
0.000217
0.000262
0.000286
0.000273
0.000202
0.000057
0.000210
0.000343
0.000362
0.000360
0.000362
0.000282
0.000373
0.000209
0.000246
0.000262
0.000273
0.000234
0.000244
0.000245
0.000268
0.000244
0.000315
0.000434
0.000454
0.000368
0.000298
0.000219
0.000272
0.001714
0.000443
0.000550
0.000631
0.000228
0.000264
0.000303
0.000159
0.000057
0.000192
0.000242
0.000335
0.000244
0.000266
0.000378
0.000405
0.000318
0.000235
0.000522
0.000238
0.000238
0.000260
0.000278
0.000274
0.000284
0.000192
0.000397
0.000384
0.000482
0.000262
0.000220
0.000264
0.000257
0.000260
0.000267
0.000229
0.000261
0.000264
0.000302
0.000181
0.000058
0.000250
0.000333
0.000244
0.000244
0.000252
0.000256
0.000244
0.000288
0.000245
0.000243
0.000258
0.000359
0.000418
0.000351
0.000404
0.000266
0.000216
0.000236
0.000262
0.000264
0.000297
0.000257
0.000228
0.000258
0.000287
0.000327
0.000408
0.000367
0.000357
0.000228
0.000170
0.000056
0.000184
0.000226
0.000280
0.000242
0.000238
0.000248
0.000260
0.000255
0.000492
0.000211
0.000259
0.000257
0.000246
0.000262
0.000274
0.000273
0.000259
0.000351
0.000228
0.000239
0.000255
0.000261
0.000275
0.000253
0.000271
0.000264
0.000261
0.000257
0.000524
0.000243
0.000139
0.000057
0.000178
0.000235
0.000253
0.000267
0.000219
0.000246
0.000363
0.000409
0.000244
0.000234
0.000250
0.000252
0.000235
0.000244
0.000438
0.001805
0.000233
0.000266
0.000289
0.000381
0.000370
0.000359
0.000358
0.000412
0.000377
0.000405
0.000237
0.000270
0.000263
0.000277
0.001388
0.000056
0.000395
0.000340
0.000233
0.000217
0.000236
0.000253
0.000234
0.000251
0.000242
0.000267
0.000247
0.000268
0.000242
0.000335
0.000490
0.001646
0.000231
0.000244
0.000236
0.000283
0.000215
0.000272
0.000345
0.000389
0.000309
0.000357
0.000218
0.000282
0.000264
0.000251
0.000202
0.000056
0.001212
0.000526
0.000353
0.000252
0.000237
0.000220
0.000239
0.000242
0.000486
0.000222
0.000239
0.000251
0.000327
0.000600
0.000331
0.000351
0.000246
0.000226
0.000357
0.000334
0.000276
0.000255
0.000274
0.000242
0.000266
0.000703
0.000396
0.000303
0.000249
0.000266
0.000168
0.000058
0.000206
0.000210
0.000249
0.000246
0.001434
0.000333
0.000222
0.000258
0.000239
0.000249
0.000269
0.000239
0.000242
0.000263
0.000273
0.000243
0.000506
0.000614
0.000267
0.001754
0.000271
0.000269
0.000309
0.000402
0.000556
0.000405
0.000243
0.000247
0.000263
0.000268
0.000201
0.000058
0.000207
0.000252
0.000236
0.000313
0.001260
0.000233
0.000261
0.000256
0.000239
0.000241
0.000232
0.000252
0.000280
0.000248
0.000251
0.000315
0.000541
0.000317
0.000321
0.000265
0.000268
0.000277
0.000241
0.000240
0.000300
0.000255
0.000232
0.000284
0.000262
0.000445
0.000472
0.000057
0.000215
0.000246
0.000236
0.000258
0.000267
0.000239
0.000241
0.000257
0.000267
0.000257
0.001431
0.000238
0.000229
0.000254
0.000243
0.000246
0.000264
0.000287
0.000241
0.000270
0.000305
0.000517
0.000469
0.000311
0.000224
0.000279
0.001759
0.000256
0.000258
0.000365
0.000404
0.000057
0.000223
0.000391
0.000451
0.000505
0.000519
0.000546
0.001482
0.000417
0.000528
0.000649
0.000555
0.000782
0.000428
0.000608
0.000582
0.001881
0.000398
0.000439
0.000407
0.000317
0.000223
0.000300
0.000261
0.000273
0.000258
0.000283
0.000288
0.000289
0.000257
0.000290
0.001363
0.000057
0.000224
0.000230
0.000243
0.000234
0.000259
0.000258
0.000233
0.000237
0.000256
0.000249
0.000237
0.000262
0.000234
0.000259
0.000273
0.000263
0.001813
0.000272
0.000251
0.000248
0.000259
0.000261
0.000271
0.000259
0.000444
0.000380
0.000354
0.000232
0.000297
0.000263
0.000193
0.000056
0.000212
0.001359
0.000323
0.000267
0.000255
0.000241
0.000247
0.000231
0.000234
0.000243
0.000213
0.000243
0.000262
0.000499
0.000362
0.000282
0.000267
0.000259
0.001923
0.000225
0.000250
0.000258
0.000261
0.000271
0.000268
0.000278
0.000268
0.000262
0.000265
0.000320
0.000202
0.000056
0.000184
0.000243
0.000249
0.001433
0.000228
0.000245
0.000254
0.000251
0.000235
0.000261
0.000260
0.000239
0.000246
0.000257
0.000259
0.000256
0.000265
0.000261
0.000269
0.000255
0.000268
0.001767
0.000278
0.001759
0.000261
0.000257
0.000250
0.000276
0.000270
0.000298
0.000172
0.000058
0.000183
0.000262
0.001322
0.000228
0.000264
0.000247
0.000251
0.000258
0.000240
0.000259
0.000235
0.000251
0.000264
0.000266
0.000254
0.000287
0.000234
0.000282
0.000297
0.000231
0.001882
0.000235
0.001836
0.000238
0.000246
0.000282
0.000232
0.000246
0.000261
0.000265
0.000201
0.000056
0.001431
0.000232
0.000234
0.000241
0.000234
0.000239
0.000370
0.000271
0.000252
0.000253
0.000252
0.000256
0.000268
0.000434
0.000310
0.000286
0.000234
0.000274
0.000253
0.000257
0.000267
0.000341
0.000221
0.000263
0.000272
0.000272
0.000273
0.000285
0.000693
0.000378
0.000187
0.000058
0.000216
0.000241
0.000279
0.000291
0.000377
0.000241
0.001675
0.000337
0.000283
0.000254
0.000261
0.000268
0.000268
0.000263
0.000300
0.000306
0.000515
0.000412
0.000370
0.000258
0.000302
0.000268
0.000278
0.000261
0.000320
0.000265
0.000262
0.000249
0.000254
0.000376
0.000484
0.000057
0.000237
0.000468
0.000273
0.000266
0.000243
0.000236
0.000216
0.000256
0.000252
0.000256
0.001520
0.000229
0.000217
0.000252
0.000250
0.000282
0.000270
0.000239
0.000267
0.000269
0.000265
0.000366
0.000581
0.000280
0.000271
0.000286
0.000268
0.000257
0.000233
0.000328
0.000155
0.000057
0.000200
0.000221
0.000268
0.000490
0.000349
0.000293
0.000219
0.000243
0.000253
0.000248
0.000232
0.000254
0.000284
0.000243
0.000236
0.000238
0.000465
0.001150
0.000240
0.000241
0.000298
0.000233
0.000356
0.000424
0.000252
0.000298
0.000645
0.000427
0.000242
0.000253
0.000178
0.000056
0.000202
0.000249
0.000264
0.000263
0.000252
0.000248
0.000427
0.000373
0.000442
0.000225
0.000364
0.000393
0.000394
0.000360
0.000260
0.000238
0.000232
0.000261
0.000351
0.000596
0.001183
0.000224
0.000266
0.000276
0.000236
0.000234
0.000285
0.000303
0.000406
0.000468
0.000232
0.000056
0.000187
0.000241
0.000254
0.000233
0.000257
0.000237
0.000241
0.000255
0.000338
0.000296
0.000417
0.000431
0.000231
0.000232
0.000257
0.000258
0.000246
0.000263
0.000266
0.000247
0.000440
0.000265
0.000409
0.000434
0.000258
0.000253
0.000264
0.000271
0.000253
0.000345
0.000157
0.000055
0.000308
0.000315
0.000292
0.000387
0.000478
0.000318
0.000261
0.000245
0.000244
0.000274
0.000257
0.000264
0.000231
0.000254
0.000240
0.000227
0.000272
0.000362
0.000449
0.000395
0.000233
0.000268
0.000239
0.000256
0.000258
0.000277
0.000261
0.000271
0.000284
0.000265
0.000307
0.000057
0.000253
0.000340
0.000228
0.000247
0.000248
0.000240
0.000252
0.000247
0.000266
0.000262
0.000252
0.000232
0.000282
0.000501
0.000501
0.000230
0.000265
0.000218
0.000260
0.000263
0.000257
0.000265
0.000257
0.000265
0.000276
0.000307
0.000404
0.000606
0.000414
0.000241
0.000189
0.000055
0.000363
0.000205
0.000229
0.000251
0.000246
0.000246
0.000242
0.000246
0.000259
0.000259
0.000220
0.000247
0.000273
0.000224
0.000238
0.000269
0.000251
0.000266
0.000270
0.000261
0.000264
0.000263
0.000258
0.000265
0.000271
0.000234
0.000266
0.000276
0.000260
0.000279
0.000195
0.000056
0.000186
0.000241
0.000245
0.000253
0.000228
0.000252
0.000265
0.000236
0.000263
0.000275
0.000225
0.000234
0.000270
0.000393
0.000251
0.000278
0.000262
0.000268
0.000253
0.000278
0.000275
0.000239
0.000248
0.000246
0.000268
0.000277
0.000246
0.000258
0.000271
0.000263
0.000204
0.000056
0.000216
0.000352
0.000370
0.000282
0.000294
0.000257
0.000268
0.000253
0.000224
0.000248
0.000250
0.000264
0.000247
0.000238
0.000252
0.000259
0.000272
0.000266
0.000243
0.000266
0.000277
0.000262
0.000276
0.000258
0.000263
0.000255
0.000259
0.000268
0.000275
0.000256
0.000194
0.000056
0.000189
0.000221
0.000270
0.000260
0.000487
0.000213
0.000210
0.000249
0.000249
0.000511
0.000458
0.000279
0.000226
0.000252
0.000267
0.000272
0.000235
0.000292
0.000236
0.000269
0.000269
0.000259
0.000256
0.000241
0.000597
0.000516
0.000220
0.000300
0.000267
0.000266
0.000185
0.000058
0.000206
0.000227
0.000244
0.000254
0.000254
0.000777
0.000262
0.000377
0.000206
0.000241
0.000257
0.000251
0.000269
0.000240
0.000249
0.000274
0.000252
0.000256
0.000643
0.000390
0.000292
0.000243
0.000258
0.000280
0.000285
0.000265
0.000250
0.000271
0.000245
0.000335
0.000304
0.000056
0.000199
0.000235
0.000237
0.000236
0.000252
0.000258
0.000224
0.000263
0.000231
0.000261
0.000246
0.000247
0.000264
0.000351
0.000595
0.000404
0.000222
0.000259
0.000259
0.000250
0.000268
0.000272
0.000486
0.000227
0.000261
0.000556
0.000436
0.000501
0.000252
0.000254
0.000184
0.000055
0.000202
0.000248
0.000229
0.000241
0.000255
0.000261
0.000297
0.000524
0.000502
0.000423
0.000211
0.000267
0.000276
0.000278
0.000256
0.000248
0.000237
0.000248
0.000260
0.000359
0.000367
0.000652
0.000365
0.000256
0.000365
0.000381
0.000475
0.000248
0.000268
0.000392
0.000428
0.000058
0.000258
0.000236
0.000435
0.000226
0.000228
0.000256
0.000279
0.000241
0.000234
0.000242
0.000277
0.000394
0.000346
0.000360
0.000232
0.000246
0.000256
0.000250
0.000269
0.000277
0.000273
0.000254
0.000251
0.000269
0.000387
0.000402
0.000503
0.000229
0.000261
0.000271
0.000190
0.000058
0.000216
0.000260
0.000245
0.000227
0.000250
0.000276
0.000329
0.000400
0.000453
0.000275
0.000372
0.000229
0.000247
0.000261
0.000256
0.000237
0.000259
0.000264
0.000263
0.000450
0.000472
0.000310
0.000478
0.000282
0.000384
0.000423
0.000382
0.000262
0.000231
0.000269
0.000416
0.000057
0.000221
0.000270
0.000218
0.000258
0.000259
0.000254
0.000250
0.000242
0.000253
0.000262
0.000250
0.000387
0.000408
0.000384
0.000372
0.000224
0.000262
0.000267
0.000262
0.000238
0.000251
0.000246
0.000268
0.000298
0.000254
0.000462
0.000351
0.000494
0.000240
0.000270
0.000191
0.000056
0.000217
0.000244
0.000269
0.000237
0.000259
0.000339
0.000571
0.000402
0.000360
0.000681
0.000267
0.000219
0.000241
0.000264
0.000241
0.000268
0.000297
0.000258
0.000521
0.000388
0.001494
0.000307
0.000260
0.000262
0.000292
0.000264
0.000367
0.000469
0.000312
0.000351
0.000154
0.000056
0.000210
0.000235
0.000242
0.000247
0.000244
0.000256
0.000277
0.000274
0.000222
0.000333
0.000325
0.000383
0.000272
0.000341
0.000390
0.000336
0.000245
0.000253
0.000272
0.000258
0.000242
0.000254
0.000282
0.000247
0.000316
0.000436
0.000428
0.000308
0.000248
0.000261
0.000186
0.000057
0.000229
0.000249
0.000255
0.000257
0.000237
0.000238
0.000470
0.000214
0.000229
0.000259
0.000244
0.000253
0.000258
0.000252
0.000252
0.000276
0.000259
0.000264
0.000280
0.000250
0.000260
0.000337
0.000249
0.000241
0.000258
0.000284
0.000266
0.000269
0.000264
0.000272
0.000166
0.000057
0.000228
0.000246
0.000274
0.000444
0.000383
0.000260
0.000228
0.000259
0.000243
0.000250
0.000243
0.000261
0.000265
0.000261
0.000233
0.000252
0.000244
0.000264
0.000328
0.000350
0.000448
0.000345
0.000221
0.000264
0.000263
0.000258
0.000264
0.000251
0.000274
0.000299
0.000182
0.000056
0.000385
0.000436
0.000390
0.000206
0.000244
0.000254
0.000412
0.000225
0.000231
0.000255
0.000261
0.000294
0.000342
0.000455
0.001849
0.000249
0.000250
0.000251
0.000276
0.000257
0.000517
0.000252
0.000638
0.000272
0.000225
0.000262
0.000277
0.000429
0.000275
0.000285
0.000162
0.000056
0.000241
0.000350
0.000331
0.000335
0.000493
0.000209
0.000234
0.000251
0.000263
0.000235
0.000258
0.000241
0.000267
0.000362
0.000459
0.000380
0.000219
0.000250
0.000261
0.000258
0.000260
0.000326
0.000218
0.000291
0.000276
0.000445
0.000559
0.000341
0.000478
0.000223
0.000202
0.000056
0.000202
0.000229
0.000259
0.000224
0.000260
0.000241
0.000273
0.000269
0.000396
0.000390
0.000366
0.000348
0.000225
0.000248
0.000269
0.000284
0.000301
0.000237
0.000273
0.000274
0.000239
0.000335
0.000474
0.000339
0.000299
0.000248
0.000269
0.000414
0.000421
0.000317
0.000172
0.000056
0.000217
0.000232
0.000341
0.000445
0.000351
0.000208
0.000235
0.000254
0.000260
0.000252
0.000268
0.000251
0.000227
0.000258
0.000263
0.000290
0.000408
0.000350
0.000299
0.000342
0.000489
0.000232
0.000279
0.000273
0.000306
0.000278
0.000258
0.000269
0.000493
0.000516
0.000174
0.000056
0.000200
0.000224
0.000249
0.000246
0.000243
0.000485
0.000213
0.000252
0.000269
0.000322
0.000477
0.000617
0.000204
0.000238
0.000247
0.000252
0.000258
0.000243
0.000258
0.000250
0.000261
0.000271
0.000399
0.000406
0.000338
0.000400
0.000303
0.000303
0.000316
0.000245
0.000185
0.000056
0.000182
0.000237
0.000261
0.000483
0.000322
0.000294
0.000277
0.000219
0.000240
0.000257
0.000256
0.000243
0.000256
0.000256
0.000252
0.000258
0.000256
0.000244
0.000289
0.000361
0.000503
0.000405
0.000226
0.000244
0.000279
0.000279
0.000261
0.000258
0.000266
0.000258
0.000194
0.000056
0.000257
0.000420
0.000447
0.000247
0.000224
0.000243
0.000322
0.000452
0.000285
0.000217
0.000241
0.000272
0.000316
0.000416
0.000411
0.000293
0.000238
0.000227
0.000253
0.000262
0.000270
0.000270
0.000256
0.000277
0.000259
0.000276
0.000394
0.000429
0.000341
0.000238
0.000170
0.000056
0.000205
0.000239
0.000248
0.000252
0.000251
0.000264
0.000232
0.000254
0.000246
0.000251
0.000271
0.000235
0.000265
0.001452
0.000220
0.000260
0.000270
0.000236
0.000283
0.000273
0.000263
0.000239
0.000295
0.000234
0.000266
0.000271
0.000268
0.000270
0.000264
0.000267
0.000197
0.000056
0.000208
0.000236
0.000253
0.000246
0.000237
0.000247
0.000273
0.000248
0.000228
0.000247
0.000248
0.000259
0.000262
0.000251
0.000254
0.000259
0.000244
0.000268
0.000270
0.000249
0.000263
0.000257
0.000245
0.000250
0.001286
0.000290
0.000629
0.000307
0.000394
0.000247
0.000191
0.000074
0.000198
0.000236
0.000247
0.000252
0.000421
0.000238
0.000228
0.000243
0.000253
0.000318
0.000493
0.000338
0.000239
0.000249
0.000246
0.000255
0.000262
0.000265
0.000245
0.000256
0.000263
0.000261
0.000255
0.000413
0.000528
0.000448
0.000220
0.000271
0.001359
0.000243
0.000190
0.000056
0.000338
0.000405
0.000356
0.000242
0.000217
0.000235
0.000224
0.000255
0.000259
0.000251
0.000253
0.000276
0.000252
0.000329
0.000503
0.000357
0.000365
0.000218
0.000244
0.000269
0.000258
0.000266
0.000266
0.000269
0.000272
0.000258
0.000390
0.000579
0.000265
0.000395
0.000152
0.000056
0.000209
0.000235
0.001263
0.000444
0.000284
0.000517
0.000312
0.000495
0.000274
0.000342
0.000217
0.000235
0.000256
0.000254
0.000249
0.000263
0.000280
0.000530
0.000457
0.000339
0.000254
0.000247
0.000263
0.000502
0.000235
0.000262
0.000259
0.000279
0.000331
0.000525
0.000316
0.000056
0.000386
0.000305
0.000240
0.000223
0.001600
0.000467
0.000257
0.000250
0.000243
0.000255
0.000222
0.000240
0.000250
0.000266
0.000247
0.000261
0.000236
0.000259
0.000415
0.000381
0.000462
0.000243
0.000256
0.000257
0.000259
0.000293
0.000251
0.000242
0.000261
0.000271
0.000199
0.000056
0.000366
0.000342
0.000220
0.000233
0.000250
0.000244
0.000256
0.000239
0.000230
0.000238
0.001427
0.000457
0.000265
0.000241
0.000236
0.000260
0.000272
0.000265
0.000252
0.000260
0.000266
0.000254
0.000260
0.000418
0.000380
0.000491
0.000233
0.000264
0.000273
0.000286
0.000173
0.000056
0.000213
0.000410
0.000228
0.000235
0.000342
0.000452
0.000348
0.000337
0.000466
0.000197
0.000233
0.000255
0.000266
0.000261
0.000262
0.001429
0.000341
0.000287
0.000247
0.000268
0.000276
0.000250
0.000255
0.000273
0.000245
0.000261
0.000496
0.000411
0.000287
0.000277
0.000151
0.000056
0.000207
0.000228
0.000257
0.000234
0.000226
0.000264
0.000239
0.000246
0.000296
0.000397
0.000423
0.000270
0.000246
0.000247
0.000241
0.000286
0.000261
0.000265
0.000268
0.000227
0.000253
0.000290
0.001276
0.000267
0.000252
0.000239
0.000262
0.000266
0.000263
0.000260
0.000187
0.000056
0.000201
0.000364
0.000354
0.000368
0.000239
0.000243
0.000253
0.000267
0.000255
0.000248
0.000255
0.000274
0.000238
0.000256
0.000265
0.000253
0.000269
0.000267
0.000263
0.000252
0.000248
0.000271
0.000270
0.000280
0.000289
0.000269
0.000265
0.000249
0.000267
0.000449
0.001355
0.000057
0.000214
0.000228
0.000242
0.000241
0.000255
0.000258
0.000248
0.000224
0.000253
0.000245
0.000275
0.000253
0.000252
0.000242
0.000255
0.000246
0.001730
0.000242
0.000256
0.000259
0.000243
0.000262
0.000270
0.000261
0.000272
0.000259
0.000270
0.000271
0.000270
0.000255
0.000222
0.000056
0.000352
0.000322
0.001284
0.000237
0.000226
0.000246
0.000253
0.000255
0.000260
0.000256
0.000230
0.000336
0.000408
0.000437
0.000294
0.000219
0.000248
0.000252
0.000256
0.000271
0.000242
0.000261
0.000270
0.000290
0.000265
0.000408
0.000341
0.000376
0.000313
0.000239
0.000192
0.000056
0.000203
0.000251
0.000242
0.000249
0.000254
0.000227
0.000231
0.000250
0.000437
0.001331
0.000268
0.000208
0.000245
0.000274
0.000255
0.000267
0.000260
0.000249
0.000300
0.000418
0.000431
0.000223
0.000242
0.000243
0.000281
0.000275
0.000268
0.000298
0.000266
0.000279
0.000193
0.000056
0.000258
0.000384
0.000414
0.000217
0.000228
0.000244
0.000240
0.000281
0.000265
0.000247
0.000228
0.000254
0.000455
0.000634
0.000404
0.001381
0.000256
0.000283
0.000315
0.000361
0.000485
0.000412
0.000459
0.000400
0.000226
0.000267
0.000264
0.000278
0.000258
0.000276
0.000189
0.000057
0.000208
0.000251
0.000475
0.000549
0.000268
0.000233
0.000256
0.000218
0.000252
0.000259
0.000252
0.000262
0.000266
0.000240
0.000268
0.000328
0.000302
0.000492
0.000333
0.001317
0.000273
0.000250
0.000257
0.000261
0.000433
0.000468
0.000369
0.000264
0.000278
0.000272
0.000183
0.000056
0.000214
0.000237
0.000243
0.000244
0.000250
0.000270
0.000452
0.000483
0.000281
0.000207
0.000248
0.000261
0.000268
0.000260
0.000257
0.000271
0.000257
0.000254
0.000275
0.000379
0.000358
0.000422
0.000339
0.001338
0.000416
0.000230
0.000281
0.000505
0.000357
0.000340
0.000330
0.000057
0.000186
0.000240
0.000257
0.000240
0.000248
0.000253
0.001679
0.000247
0.000207
0.000249
0.000260
0.000242
0.000260
0.000321
0.000329
0.000289
0.000276
0.000299
0.000558
0.000346
0.000312
0.000276
0.000236
0.000239
0.001508
0.000356
0.000400
0.000461
0.000334
0.000291
0.000160
0.000057
0.000189
0.000243
0.000256
0.000258
0.000245
0.000258
0.001702
0.000237
0.000243
0.000271
0.000329
0.000405
0.001438
0.000352
0.000410
0.000240
0.000255
0.000240
0.000266
0.000267
0.001585
0.000575
0.000355
0.000287
0.000222
0.000254
0.000269
0.000280
0.000242
0.000248
0.000193
0.000056
0.000195
0.000246
0.000271
0.000244
0.000267
0.000274
0.000279
0.000258
0.000252
0.000250
0.000269
0.000233
0.000265
0.000264
0.000258
0.001493
0.000282
0.000231
0.000264
0.000276
0.000273
0.000261
0.000429
0.001266
0.000279
0.000230
0.000278
0.000255
0.000391
0.000251
0.000196
0.000074
0.000203
0.000252
0.000221
0.000242
0.000243
0.000226
0.000232
0.001691
0.000256
0.000232
0.000253
0.000368
0.000224
0.000230
0.000252
0.001387
0.000226
0.000267
0.000270
0.000249
0.000252
0.000358
0.000277
0.001315
0.000264
0.000253
0.000258
0.000264
0.001394
0.000270
0.000236
0.000056
0.000176
0.000352
0.000218
0.000245
0.000243
0.000246
0.000263
0.000263
0.000267
0.000249
0.000257
0.000267
0.000250
0.000257
0.000290
0.001507
0.000249
0.000269
0.000257
0.000248
0.000286
0.000262
0.000244
0.001514
0.000353
0.000226
0.000265
0.001293
0.000261
0.000237
0.000217
0.000056
0.000205
0.000401
0.000352
0.000202
0.000231
0.000238
0.000263
0.000260
0.000265
0.000274
0.000251
0.000233
0.000266
0.000243
0.000441
0.001215
0.000233
0.000254
0.000275
0.000274
0.000219
0.000253
0.000229
0.000333
0.001272
0.000267
0.000237
0.000255
0.001349
0.000360
0.000211
0.000056
0.000327
0.000243
0.000226
0.000228
0.000242
0.000250
0.000248
0.000245
0.000274
0.000254
0.000243
0.000262
0.000230
0.000319
0.000433
0.001468
0.000216
0.000256
0.000298
0.000513
0.000295
0.000420
0.001310
0.000287
0.000258
0.000267
0.000251
0.001306
0.000339
0.000414
0.000412
0.000057
0.000233
0.000248
0.000256
0.000256
0.000251
0.000250
0.000274
0.000251
0.000260
0.000264
0.000344
0.000444
0.001328
0.000237
0.000275
0.000260
0.000277
0.000218
0.000249
0.000240
0.000352
0.001225
0.000261
0.000253
0.000245
0.000246
0.001522
0.000387
0.000518
0.000214
0.000193
0.000056
0.000190
0.000230
0.000254
0.000234
0.000251
0.000265
0.000237
0.000256
0.000424
0.000511
0.000282
0.001460
0.000210
0.000252
0.000258
0.000256
0.000266
0.000291
0.001679
0.000263
0.000396
0.000334
0.001305
0.000330
0.000313
0.000323
0.000259
0.000257
0.000258
0.000268
0.000189
0.000056
0.000191
0.000242
0.000330
0.000260
0.000314
0.000515
0.000293
0.000295
0.001467
0.000244
0.000390
0.000249
0.000226
0.000321
0.000367
0.001323
0.000277
0.000244
0.000245
0.000266
0.001517
0.000429
0.000217
0.000332
0.000228
0.000236
0.000465
0.000357
0.000226
0.000229
0.000265
0.000056
0.000242
0.000381
0.000319
0.000267
0.000221
0.001512
0.000211
0.000262
0.000266
0.000268
0.000274
0.000238
0.000336
0.001443
0.000271
0.000223
0.000434
0.001194
0.000326
0.000445
0.000405
0.000242
0.000243
0.000255
0.000274
0.000240
0.000456
0.000225
0.000268
0.000276
0.000195
0.000058
0.000189
0.000299
0.000330
0.000458
0.001185
0.000281
0.000311
0.000235
0.000243
0.000247
0.000256
0.000265
0.001539
0.000257
0.000239
0.000252
0.001382
0.000419
0.000332
0.000416
0.000352
0.000230
0.000241
0.000259
0.000266
0.000275
0.000276
0.000258
0.000261
0.000255
0.000203
0.000057
0.000212
0.000376
0.001460
0.000211
0.000275
0.000276
0.000243
0.000249
0.000279
0.000428
0.001330
0.000210
0.000264
0.000262
0.000256
0.001337
0.000659
0.000287
0.000305
0.000408
0.000297
0.000247
0.000264
0.000253
0.000277
0.000285
0.000277
0.000299
0.000447
0.000423
0.001386
0.000056
0.000214
0.000241
0.000248
0.000219
0.000252
0.000462
0.000454
0.001276
0.000253
0.000235
0.000247
0.001443
0.000496
0.000260
0.000217
0.000411
0.000239
0.000245
0.000269
0.000278
0.000247
0.000270
0.000282
0.000252
0.000251
0.000322
0.000454
0.000446
0.001491
0.000235
0.000172
0.000057
0.000220
0.000252
0.000347
0.000589
0.001195
0.000274
0.000256
0.000255
0.000247
0.000251
0.000252
0.000335
0.000322
0.000457
0.000348
0.000232
0.000256
0.000275
0.000244
0.000276
0.000255
0.000265
0.000260
0.000264
0.000259
0.000456
0.000414
0.000359
0.000318
0.001421
0.000145
0.000057
0.000198
0.000246
0.000245
0.000512
0.000316
0.000304
0.000316
0.000335
0.000286
0.000244
0.000254
0.000264
0.000256
0.000307
0.000232
0.000348
0.000497
0.000327
0.000294
0.000377
0.000282
0.000406
0.000227
0.000242
0.000260
0.000265
0.000250
0.000295
0.000372
0.000488
0.000285
0.000057
0.000204
0.001397
0.000240
0.000337
0.000408
0.000420
0.000356
0.000338
0.000221
0.000232
0.000273
0.000244
0.000263
0.000276
0.000256
0.000254
0.000265
0.001366
0.000250
0.000248
0.000263
0.000273
0.000268
0.000285
0.000263
0.000256
0.000278
0.000245
0.000432
0.000324
0.000310
0.000057
0.000203
0.000258
0.000226
0.001496
0.000321
0.000237
0.000228
0.000250
0.000230
0.000244
0.000256
0.000273
0.000248
0.000254
0.000265
0.000262
0.000244
0.000266
0.000257
0.000258
0.001441
0.000230
0.000229
0.000288
0.000250
0.000254
0.000274
0.000254
0.000278
0.000489
0.000344
0.000056
0.000206
0.000269
0.000377
0.000259
0.000256
0.000247
0.001538
0.000392
0.000250
0.000212
0.000264
0.000307
0.000342
0.000225
0.000232
0.000246
0.000243
0.000266
0.000259
0.000263
0.000485
0.000490
0.001140
0.000275
0.000231
0.000258
0.000263
0.000257
0.000280
0.000254
0.000491
0.000056
0.000296
0.000210
0.000210
0.000237
0.000251
0.000232
0.000246
0.000229
0.000289
0.001604
0.000376
0.000285
0.000233
0.000252
0.000261
0.000248
0.000255
0.000276
0.000260
0.000308
0.000310
0.000502
0.000451
0.001359
0.000223
0.000264
0.000269
0.000265
0.000269
0.000275
0.000513
0.000056
0.000233
0.000243
0.000237
0.000236
0.000219
0.000248
0.000259
0.000255
0.000266
0.001570
0.000353
0.000258
0.000264
0.000259
0.000459
0.000265
0.000520
0.000383
0.000301
0.000305
0.000452
0.000500
0.001243
0.000262
0.000228
0.000261
0.001864
0.000300
0.000617
0.000326
0.000134
0.000057
0.000181
0.000230
0.000239
0.000235
0.000260
0.000241
0.000242
0.000530
0.000553
0.000355
0.000274
0.000234
0.000223
0.000261
0.000267
0.000268
0.000241
0.000253
0.000257
0.000272
0.000305
0.000339
0.001395
0.000216
0.000252
0.000276
0.001917
0.000368
0.000384
0.000338
0.000167
0.000056
0.000205
0.000231
0.000246
0.001544
0.000458
0.000204
0.000234
0.000261
0.000270
0.000274
0.000380
0.000371
0.000363
0.000268
0.000266
0.000582
0.000361
0.001198
0.000277
0.000224
0.000258
0.000266
0.000274
0.000404
0.000584
0.000493
0.000247
0.000266
0.000270
0.000295
0.000174
0.000055
0.000181
0.000236
0.000244
0.001543
0.000242
0.000234
0.000245
0.000255
0.000240
0.000259
0.000248
0.000267
0.000271
0.000275
0.000263
0.000385
0.000412
0.000339
0.001410
0.000242
0.000246
0.000257
0.000260
0.000271
0.000421
0.000376
0.000511
0.000266
0.000290
0.000225
0.000436
0.000057
0.000210
0.000233
0.000256
0.001518
0.000334
0.000214
0.000266
0.000240
0.000258
0.000259
0.000254
0.000247
0.000265
0.000283
0.000310
0.000573
0.001381
0.000777
0.000246
0.000326
0.000256
0.000227
0.000243
0.000277
0.001677
0.000815
0.000226
0.000265
0.000270
0.000282
0.000186
0.000057
0.000182
0.000240
0.000253
0.000242
0.000262
0.000242
0.000238
0.000257
0.000242
0.000268
0.000253
0.000283
0.000254
0.000245
0.000260
0.000251
0.000269
0.001601
0.000710
0.000416
0.000275
0.000229
0.000240
0.000282
0.000270
0.000258
0.000272
0.000255
0.001386
0.000411
0.000367
0.000057
0.000197
0.000225
0.000248
0.000254
0.000262
0.000233
0.000254
0.000254
0.000255
0.000256
0.000290
0.000407
0.000440
0.000335
0.000214
0.000240
0.000266
0.001398
0.000698
0.000456
0.000393
0.000223
0.000230
0.000254
0.000269
0.000251
0.000258
0.000265
0.001485
0.000447
0.000182
0.000056
0.000212
0.000223
0.000250
0.000244
0.000253
0.000245
0.000237
0.000252
0.000268
0.000270
0.000311
0.000480
0.000275
0.000225
0.000244
0.000243
0.000263
0.000254
0.001575
0.000632
0.000463
0.000317
0.000229
0.000254
0.000261
0.000267
0.000264
0.000276
0.000273
0.001382
0.000294
0.000056
0.000224
0.000217
0.000241
0.000253
0.000259
0.000245
0.000262
0.000298
0.000363
0.000455
0.000362
0.000406
0.000326
0.000220
0.000250
0.000251
0.000269
0.000264
0.000263
0.001958
0.000299
0.000232
0.000444
0.000250
0.000241
0.000265
0.000265
0.000265
0.000271
0.000273
0.000410
0.000057
0.000219
0.000294
0.000234
0.000237
0.000251
0.000251
0.000222
0.000241
0.000271
0.000255
0.000246
0.000233
0.000373
0.000328
0.000496
0.000452
0.000216
0.000264
0.000251
0.000254
0.000256
0.000283
0.001467
0.001068
0.000208
0.000253
0.000269
0.000262
0.000282
0.000272
0.000176
0.000056
0.000192
0.001361
0.000280
0.000203
0.000239
0.000253
0.000253
0.000240
0.000242
0.000255
0.000252
0.000264
0.000239
0.000428
0.000317
0.000398
0.000343
0.000240
0.000269
0.000265
0.000271
0.000233
0.000256
0.000266
0.001323
0.000703
0.000291
0.000382
0.000379
0.000400
0.000293
0.000057
0.000185
0.000236
0.000362
0.001318
0.000209
0.000257
0.000232
0.000256
0.000252
0.000263
0.000248
0.000243
0.000276
0.000329
0.000581
0.000302
0.000230
0.000327
0.000286
0.000201
0.000254
0.000277
0.000233
0.000273
0.000288
0.001513
0.000751
0.000294
0.000278
0.000270
0.000195
0.000057
0.000211
0.000319
0.000403
0.000321
0.001304
0.000256
0.000218
0.000238
0.000236
0.000250
0.000245
0.000257
0.000228
0.000240
0.000254
0.000258
0.000272
0.000227
0.000260
0.000260
0.000263
0.000264
0.000307
0.000331
0.000219
0.000264
0.000268
0.001454
0.000258
0.000247
0.000185
0.000057
0.000201
0.000226
0.000255
0.000265
0.000353
0.000380
0.000391
0.000272
0.001574
0.000243
0.000296
0.000585
0.000262
0.000223
0.000428
0.000246
0.000221
0.000270
0.000274
0.000264
0.000283
0.000267
0.000258
0.000268
0.000239
0.000419
0.000386
0.000334
0.001586
0.000227
0.000194
0.000057
0.000205
0.000243
0.000253
0.000245
0.000239
0.000247
0.000267
0.000278
0.000437
0.002034
0.000240
0.000235
0.000256
0.000262
0.000257
0.000257
0.000277
0.000245
0.000264
0.000490
0.000307
0.000465
0.001445
0.000256
0.000532
0.000223
0.001767
0.000242
0.000264
0.001533
0.000140
0.000056
0.000353
0.000389
0.000469
0.000238
0.000268
0.000221
0.000257
0.000273
0.000260
0.000224
0.000254
0.000335
0.000417
0.000349
0.000470
0.000207
0.000227
0.001566
0.000226
0.000609
0.001860
0.000296
0.000222
0.001613
0.001956
0.000745
0.000273
0.000249
0.000308
0.000470
0.000358
0.000057
0.000192
0.000246
0.000241
0.000254
0.001422
0.002557
0.000253
0.000197
0.000233
0.001597
0.001969
0.000206
0.000243
0.000430
0.000298
0.000361
0.000368
0.000524
0.000203
0.000254
0.000243
0.000275
0.000256
0.001595
0.001204
0.001426
0.000289
0.000290
0.000246
0.000305
0.000357
0.000058
0.000204
0.000236
0.000238
0.000246
0.000230
0.000245
0.000248
0.000254
0.000256
0.000243
0.000242
0.000307
0.000432
0.000463
0.000323
0.000231
0.000243
0.000279
0.000264
0.000268
0.000257
0.000258
0.001539
0.000452
0.002110
0.000240
0.000256
0.000440
0.000306
0.000422
0.000195
0.000057
0.000194
0.000426
0.000410
0.000316
0.000194
0.000226
0.000255
0.000249
0.000240
0.000250
0.000238
0.000293
0.000235
0.001599
0.001360
0.001234
0.000270
0.000224
0.000249
0.000277
0.000283
0.000284
0.000240
0.000254
0.002195
0.000251
0.000253
0.000303
0.000322
0.000306
0.000223
0.000056
0.000225
0.000361
0.000534
0.000341
0.000233
0.000226
0.000252
0.000266
0.001901
0.001426
0.000222
0.000327
0.000385
0.000413
0.000265
0.000229
0.000246
0.000265
0.000265
0.000269
0.000255
0.000260
0.000474
0.000237
0.000273
0.000272
0.000248
0.000277
0.000279
0.000241
0.000210
0.000057
0.000205
0.000247
0.000252
0.000240
0.000253
0.000271
0.001550
0.001411
0.001335
0.000239
0.000219
0.000243
0.000272
0.000257
0.000243
0.000256
0.000249
0.002102
0.000255
0.000234
0.000266
0.000263
0.000252
0.000270
0.000279
0.000257
0.000258
0.000256
0.000271
0.000260
0.000176
0.000056
0.000195
0.002694
0.001396
0.000216
0.000303
0.000299
0.000228
0.000266
0.000261
0.000239
0.000256
0.000246
0.000230
0.000249
0.000268
0.000258
0.000270
0.000260
0.000263
0.000269
0.000260
0.000286
0.000268
0.000272
0.000244
0.000243
0.000267
0.000277
0.000258
0.000267
0.000365
0.000057
0.001556
0.000256
0.001240
0.000228
0.000218
0.000242
0.000262
0.000251
0.000245
0.000248
0.000456
0.000333
0.000331
0.000211
0.000251
0.002161
0.000238
0.000238
0.000423
0.000354
0.000327
0.000349
0.000227
0.000255
0.000266
0.000243
0.000271
0.000275
0.000271
0.001620
0.001248
0.000056
0.000195
0.000231
0.000314
0.000378
0.000368
0.000279
0.000212
0.000232
0.000250
0.000254
0.000266
0.000250
0.000237
0.000246
0.000261
0.000238
0.000302
0.000633
0.000368
0.000253
0.000222
0.000275
0.000277
0.000250
0.000250
0.000248
0.000267
0.000276
0.000241
0.000362
0.000316
0.000056
0.001123
0.000282
0.000329
0.000441
0.000259
0.000232
0.000227
0.000251
0.000239
0.002306
0.000357
0.000395
0.000211
0.000381
0.000283
0.000262
0.000258
0.000257
0.000263
0.000225
0.000259
0.000326
0.000603
0.000418
0.001859
0.001366
0.000467
0.000533
0.000234
0.000277
0.000203
0.000056
0.000222
0.000366
0.000243
0.000246
0.000252
0.000242
0.000241
0.000254
0.000251
0.000255
0.000252
0.000225
0.000242
0.000264
0.000404
0.000514
0.001815
0.001370
0.000426
0.000414
0.000460
0.000242
0.000238
0.000258
0.002164
0.000527
0.000394
0.000223
0.000276
0.000295
0.000183
0.000056
0.000208
0.000247
0.000260
0.000236
0.000248
0.000307
0.000457
0.000332
0.000269
0.000243
0.000241
0.000249
0.000266
0.002110
0.000351
0.000406
0.000211
0.000251
0.000265
0.000266
0.000253
0.002444
0.000343
0.000226
0.000262
0.000254
0.000270
0.000248
0.000289
0.000278
0.000190
0.000056
0.000197
0.000332
0.000654
0.000279
0.000261
0.000217
0.000225
0.000252
0.000293
0.000233
0.001959
0.000377
0.000278
0.000270
0.000239
0.000270
0.000270
0.000243
0.002206
0.000454
0.000211
0.000266
0.000271
0.000258
0.000260
0.000248
0.000288
0.000249
0.000264
0.000259
0.000181
0.000057
0.000187
0.000235
0.000253
0.000216
0.000246
0.000260
0.000238
0.000244
0.000236
0.002180
0.000228
0.000292
0.000205
0.000424
0.000244
0.000238
0.000280
0.000288
0.000244
0.000258
0.001975
0.000276
0.000339
0.000366
0.000437
0.000401
0.000306
0.000247
0.000254
0.000253
0.000205
0.000056
0.000185
0.000239
0.000242
0.000246
0.000251
0.000326
0.000213
0.002305
0.000246
0.000240
0.000258
0.000259
0.000237
0.000248
0.000306
0.002127
0.000590
0.000221
0.000254
0.000242
0.000256
0.000263
0.000288
0.000267
0.000258
0.000259
0.000291
0.000249
0.000268
0.000261
0.000192
0.000056
0.001820
0.001438
0.000196
0.000229
0.000243
0.000248
0.000256
0.000265
0.000481
0.000289
0.002159
0.000265
0.000231
0.000267
0.000250
0.000582
0.000360
0.000292
0.000217
0.000252
0.000255
0.000266
0.000264
0.000227
0.000254
0.000265
0.000273
0.000261
0.000339
0.000685
0.000276
0.000056
0.000207
0.000245
0.000258
0.000251
0.000266
0.000250
0.000254
0.000241
0.001468
0.002131
0.000582
0.000284
0.000395
0.000691
0.000354
0.000237
0.000254
0.000250
0.000270
0.000258
0.000263
0.000234
0.000248
0.001836
0.000335
0.001391
0.000279
0.000275
0.000282
0.000268
0.000666
0.000059
0.001936
0.000226
0.000225
0.000237
0.000279
0.000367
0.000465
0.000297
0.000285
0.000211
0.000244
0.000254
0.000257
0.000262
0.000271
0.000247
0.000247
0.000270
0.001846
0.000252
0.000212
0.000261
0.000273
0.000282
0.000270
0.000258
0.001467
0.000330
0.000251
0.000255
0.000169
0.000057
0.000187
0.000221
0.000243
0.000241
0.000255
0.000241
0.000295
0.000459
0.000356
0.000284
0.000213
0.000242
0.000259
0.000332
0.000424
0.000315
0.000229
0.000244
0.000266
0.000353
0.000442
0.000460
0.000264
0.000256
0.000258
0.000256
0.000244
0.000291
0.000261
0.000264
0.000199
0.000057
0.001455
0.000441
0.000207
0.001934
0.000286
0.000496
0.000353
0.000316
0.000230
0.000246
0.000263
0.000247
0.000241
0.000261
0.000259
0.000256
0.000450
0.000304
0.000411
0.000380
0.000335
0.000223
0.000255
0.000267
0.000271
0.000272
0.000267
0.000276
0.000363
0.000457
0.001366
0.000057
0.000186
0.000227
0.002078
0.000315
0.000299
0.000253
0.000260
0.000254
0.000259
0.000265
0.000210
0.000254
0.000250
0.000263
0.000256
0.000368
0.000714
0.001752
0.000233
0.000241
0.000272
0.000253
0.000405
0.000399
0.001592
0.000276
0.000365
0.001929
0.000264
0.000253
0.000192
0.000056
0.000212
0.000240
0.000231
0.000241
0.000227
0.000253
0.000249
0.000289
0.000328
0.000278
0.000375
0.000365
0.000333
0.000302
0.000235
0.000270
0.000261
0.000242
0.000265
0.000259
0.000301
0.000283
0.000265
0.000264
0.000275
0.001506
0.000290
0.000383
0.002075
0.000229
0.000175
0.000056
0.000202
0.000237
0.000243
0.000240
0.000489
0.000212
0.000250
0.000329
0.000368
0.000319
0.000308
0.000202
0.000263
0.000270
0.000268
0.000326
0.000394
0.000463
0.000255
0.000392
0.000533
0.000414
0.001622
0.000224
0.000250
0.001977
0.000358
0.000230
0.000245
0.000290
0.000185
0.000056
0.000180
0.000245
0.000228
0.000245
0.000248
0.000269
0.000255
0.000273
0.000248
0.000252
0.001814
0.000326
0.000379
0.000317
0.000428
0.000360
0.000369
0.001492
0.000239
0.000272
0.002164
0.000511
0.000280
0.000228
0.000263
0.000271
0.000500
0.000226
0.000253
0.000278
0.000197
0.000057
0.000286
0.000354
0.000391
0.000271
0.000219
0.000232
0.000259
0.000262
0.000270
0.000282
0.000230
0.000246
0.000258
0.000260
0.000500
0.001361
0.000319
0.000204
0.000400
0.001793
0.000404
0.000245
0.000246
0.000287
0.000230
0.000280
0.000268
0.000259
0.000255
0.000261
0.000206
0.000056
0.000248
0.000506
0.001949
0.000251
0.000253
0.000221
0.000244
0.000321
0.000461
0.000393
0.001309
0.000374
0.002071
0.000366
0.000205
0.000249
0.000263
0.000275
0.000254
0.000242
0.000286
0.000293
0.000259
0.000311
0.000514
0.000390
0.000321
0.002215
0.000489
0.000471
0.000393
0.000058
0.000204
0.000232
0.000239
0.001966
0.000238
0.000222
0.000240
0.000243
0.000244
0.000256
0.000245
0.000262
0.000244
0.000351
0.000402
0.001449
0.000252
0.000237
0.000289
0.000237
0.000231
0.000256
0.000263
0.000268
0.000411
0.000397
0.000451
0.000226
0.001597
0.000290
0.000156
0.000055
0.000196
0.000224
0.000247
0.000238
0.000245
0.000255
0.000251
0.000271
0.000233
0.000355
0.000378
0.001425
0.000240
0.000217
0.000246
0.000265
0.000249
0.000262
0.000495
0.000320
0.000396
0.000420
0.000217
0.001586
0.000223
0.000262
0.000288
0.000283
0.000257
0.000273
0.000189
0.000056
0.000211
0.000221
0.000260
0.000269
0.000246
0.000271
0.000209
0.000243
0.000259
0.000248
0.000248
0.000250
0.000258
0.001485
0.000367
0.000208
0.000255
0.000257
0.000286
0.000302
0.000380
0.000271
0.000236
0.000263
0.000264
0.000265
0.000258
0.001406
0.000284
0.000236
0.000172
0.000056
0.000187
0.000244
0.000261
0.000261
0.000253
0.000238
0.000248
0.000256
0.000222
0.000261
0.000277
0.000234
0.000227
0.000295
0.000372
0.000378
0.000261
0.000233
0.001628
0.000247
0.000241
0.000258
0.000267
0.000297
0.000397
0.000352
0.000453
0.000265
0.000252
0.001609
0.000166
0.000056
0.000315
0.000338
0.000365
0.000303
0.000236
0.000219
0.000246
0.000268
0.000256
0.000236
0.000247
0.000242
0.001464
0.000282
0.000320
0.000211
0.000257
0.000253
0.000268
0.000265
0.000252
0.000242
0.000259
0.000272
0.000323
0.000384
0.000304
0.000398
0.000299
0.000253
0.000196
0.000058
0.000208
0.000242
0.000460
0.000300
0.000392
0.000271
0.000245
0.000250
0.000249
0.000262
0.000241
0.000224
0.000256
0.000257
0.001239
0.000318
0.000227
0.000254
0.000260
0.000269
0.000239
0.000261
0.000257
0.000263
0.000258
0.000254
0.000296
0.000657
0.000497
0.000234
0.000181
0.000056
0.000197
0.001571
0.000261
0.000472
0.000300
0.000391
0.000201
0.000259
0.000265
0.000251
0.000239
0.000264
0.000267
0.000277
0.000280
0.001498
0.000259
0.000283
0.000266
0.000259
0.000253
0.000254
0.000268
0.000261
0.000265
0.000259
0.000416
0.000385
0.000360
0.000238
0.000190
0.000057
0.000191
0.000257
0.000232
0.001615
0.000421
0.000352
0.000223
0.000239
0.000254
0.000270
0.000280
0.000253
0.000245
0.000263
0.000231
0.000273
0.000373
0.001343
0.000252
0.000245
0.001493
0.000354
0.000521
0.000397
0.000349
0.000230
0.000270
0.000472
0.000228
0.000262
0.000180
0.000056
0.000281
0.000222
0.000241
0.000248
0.000253
0.000259
0.000231
0.000259
0.000258
0.000234
0.000258
0.000257
0.000349
0.000437
0.001691
0.001497
0.000534
0.000335
0.000368
0.000213
0.000240
0.000255
0.000247
0.000270
0.000246
0.000268
0.000253
0.000276
0.001520
0.000335
0.000168
0.000056
0.000211
0.000354
0.000356
0.000329
0.000236
0.000230
0.000241
0.000356
0.000433
0.000363
0.002167
0.000320
0.000848
0.000366
0.000454
0.000262
0.000337
0.000400
0.000322
0.000274
0.000398
0.000240
0.001558
0.000531
0.000221
0.000257
0.000255
0.000259
0.000258
0.000269
0.000183
0.000056
0.000207
0.000252
0.000257
0.000249
0.000249
0.001657
0.000875
0.001007
0.000207
0.000236
0.000257
0.000255
0.000256
0.000263
0.000254
0.000249
0.000256
0.000262
0.000271
0.000277
0.001434
0.000312
0.000255
0.000223
0.000234
0.000263
0.000260
0.000282
0.000261
0.000286
0.001900
0.000058
0.000193
0.000230
0.001550
0.000850
0.000376
0.000364
0.000235
0.000239
0.000246
0.000258
0.000241
0.000254
0.000243
0.002014
0.000454
0.000213
0.000243
0.000253
0.000271
0.000263
0.000187
