0.000098
0.015978
0.005412
0.000279
0.000251
0.000301
0.000321
0.000229
0.000327
0.000283
0.000252
0.000330
0.000540
0.000460
0.000418
0.000337
0.000260
0.000345
0.000358
0.000420
0.001930
0.000310
0.000689
0.000270
0.000239
0.000302
0.000321
0.000317
0.000420
0.000433
0.000530
0.000215
0.000058
0.000210
0.000268
0.000268
0.000285
0.000247
0.000248
0.000300
0.000276
0.000260
0.000323
0.000373
0.000461
0.000290
0.000255
0.000378
0.000352
0.000363
0.000247
0.000250
0.001729
0.000290
0.000268
0.000431
0.000247
0.000284
0.000277
0.000286
0.000295
0.000273
0.000385
0.000362
0.000057
0.000242
0.000256
0.000261
0.000263
0.000256
0.000244
0.000263
0.000253
0.000287
0.001668
0.000230
0.000228
0.000268
0.000279
0.000276
0.000250
0.000261
0.000257
0.000353
0.001785
0.000245
0.000283
0.000447
0.000436
0.000383
0.000237
0.000255
0.000500
0.000499
0.000753
0.000191
0.000056
0.000202
0.000243
0.000253
0.000257
0.000280
0.000243
0.000270
0.000670
0.000334
0.000245
0.000230
0.000256
0.000244
0.000257
0.000260
0.000253
0.000239
0.000270
0.000299
0.000332
0.001658
0.000283
0.000250
0.000425
0.000270
0.000754
0.000641
0.000529
0.000333
0.000239
0.000207
0.000056
0.000214
0.000250
0.000295
0.000217
0.000279
0.000230
0.000341
0.000414
0.001450
0.000208
0.000247
0.000252
0.000248
0.000256
0.000266
0.000285
0.000297
0.000856
0.001309
0.000306
0.000236
0.000418
0.000238
0.000245
0.000256
0.000260
0.000273
0.000272
0.000251
0.000295
0.000179
0.000057
0.000178
0.000246
0.000246
0.000265
0.000242
0.000236
0.000249
0.000248
0.000244
0.000248
0.001635
0.000255
0.000237
0.000238
0.000255
0.000246
0.000245
0.000251
0.000256
0.000255
0.000295
0.001640
0.000279
0.000253
0.000447
0.000251
0.000258
0.000258
0.000253
0.000274
0.000203
0.000055
0.000207
0.000245
0.000237
0.000246
0.000260
0.000228
0.000257
0.000237
0.000267
0.000257
0.000247
0.000254
0.000260
0.000274
0.001644
0.000272
0.000294
0.000217
0.000252
0.000274
0.000274
0.000231
0.000245
0.000261
0.001788
0.000447
0.000289
0.000373
0.000231
0.000284
0.000193
0.000056
0.000221
0.000238
0.000244
0.000269
0.000255
0.000262
0.000275
0.000398
0.000515
0.000327
0.000204
0.000247
0.000252
0.000251
0.001567
0.000639
0.000340
0.000326
0.000263
0.000232
0.000272
0.000285
0.000270
0.001728
0.000507
0.000477
0.000228
0.000250
0.000255
0.000269
0.000179
0.000056
0.000199
0.000228
0.000276
0.000297
0.000299
0.000483
0.000313
0.000295
0.000203
0.000251
0.000268
0.000232
0.000256
0.001796
0.000402
0.000301
0.000214
0.000252
0.000273
0.000294
0.000242
0.000259
0.001800
0.000353
0.000318
0.000386
0.000241
0.000257
0.000268
0.000405
0.000329
0.000055
0.000277
0.000375
0.000262
0.000312
0.000258
0.000243
0.000245
0.000262
0.000242
0.000231
0.000236
0.000250
0.001554
0.000366
0.000302
0.000223
0.000264
0.000248
0.000248
0.000305
0.000249
0.000331
0.000245
0.001820
0.000253
0.000491
0.000232
0.000258
0.000269
0.000261
0.000267
0.000055
0.000492
0.000454
0.000558
0.000212
0.000233
0.000270
0.000229
0.000214
0.000262
0.000259
0.000251
0.001702
0.000249
0.000441
0.000373
0.000213
0.000238
0.000230
0.000249
0.000267
0.000330
0.001786
0.000221
0.000472
0.001867
0.000539
0.000336
0.000249
0.000254
0.000261
0.000193
0.000055
0.000196
0.000240
0.000244
0.000246
0.000279
0.001604
0.000246
0.000231
0.000252
0.000253
0.000246
0.000263
0.000236
0.000248
0.000299
0.000434
0.000582
0.000255
0.000228
0.000277
0.000279
0.000233
0.000243
0.000441
0.000432
0.000254
0.000638
0.000252
0.000455
0.000274
0.000204
0.000056
0.000216
0.000231
0.000255
0.000253
0.000240
0.000235
0.000256
0.000513
0.001706
0.000311
0.000225
0.000236
0.000246
0.000247
0.000255
0.000307
0.000534
0.000349
0.000342
0.000241
0.000255
0.000301
0.000324
0.000208
0.000281
0.000436
0.000341
0.000712
0.000297
0.000502
0.000170
0.000074
0.000193
0.000256
0.000260
0.000215
0.000238
0.000233
0.000246
0.000263
0.000230
0.000288
0.000346
0.000525
0.001301
0.000248
0.000224
0.000250
0.000261
0.000250
0.000249
0.000265
0.000270
0.000469
0.000399
0.000259
0.000257
0.000264
0.000249
0.000271
0.000269
0.000263
0.000388
0.000055
0.000194
0.000239
0.000225
0.000315
0.000544
0.000419
0.000201
0.000251
0.000233
0.000265
0.000259
0.000225
0.000298
0.000249
0.000240
0.000473
0.000463
0.001604
0.000278
0.000236
0.000252
0.000266
0.000255
0.000246
0.000261
0.000441
0.000560
0.000263
0.000417
0.000236
0.000195
0.000055
0.000217
0.000441
0.000230
0.000213
0.000287
0.000253
0.000306
0.000585
0.000261
0.000336
0.000221
0.000275
0.000262
0.000232
0.000527
0.000335
0.000219
0.000279
0.000426
0.001598
0.000265
0.000236
0.000534
0.000241
0.000279
0.000277
0.000254
0.000320
0.000682
0.000293
0.000256
0.000056
0.000189
0.000229
0.000239
0.000242
0.000413
0.000312
0.000289
0.000220
0.000487
0.000504
0.000260
0.000265
0.000221
0.000251
0.000254
0.000267
0.000251
0.000258
0.000233
0.000348
0.000291
0.000366
0.001812
0.000236
0.000261
0.000254
0.000284
0.000349
0.000420
0.000725
0.000405
0.000057
0.000205
0.000333
0.000295
0.000417
0.000389
0.000213
0.000256
0.000337
0.000608
0.000288
0.000252
0.000248
0.000223
0.000276
0.000263
0.000234
0.000250
0.000272
0.000269
0.000258
0.000307
0.000432
0.000635
0.001296
0.000328
0.000435
0.000419
0.000235
0.000463
0.000454
0.000255
0.000055
0.000229
0.000381
0.000281
0.000207
0.000226
0.000248
0.000412
0.000226
0.000263
0.000369
0.000510
0.000348
0.000232
0.000259
0.000262
0.000247
0.000361
0.000417
0.000316
0.000245
0.000242
0.000670
0.000388
0.001637
0.000234
0.000425
0.000316
0.000227
0.000308
0.000415
0.000335
0.000056
0.000214
0.000224
0.000267
0.000238
0.000250
0.000245
0.000243
0.000321
0.000463
0.000251
0.000539
0.000329
0.000262
0.000575
0.000257
0.000225
0.000279
0.000262
0.000231
0.000351
0.000222
0.000236
0.000281
0.000424
0.000494
0.001688
0.000223
0.000240
0.000247
0.000271
0.000186
0.000056
0.000304
0.000592
0.000180
0.000225
0.000233
0.000272
0.000234
0.000242
0.000270
0.000240
0.000222
0.000262
0.000415
0.000506
0.000400
0.000287
0.000247
0.000247
0.000360
0.000365
0.000382
0.000336
0.000360
0.000396
0.000239
0.000269
0.000262
0.000276
0.001825
0.000209
0.000208
0.000056
0.000202
0.000219
0.000255
0.000295
0.000335
0.000551
0.000321
0.000198
0.000287
0.000236
0.000250
0.000245
0.000527
0.000443
0.000486
0.000277
0.000264
0.000261
0.000421
0.000480
0.000343
0.000476
0.000427
0.000440
0.000238
0.000235
0.000270
0.000249
0.000261
0.001754
0.000333
0.000057
0.000248
0.000331
0.000201
0.000241
0.000252
0.000254
0.000236
0.000498
0.000379
0.000307
0.000291
0.000346
0.000380
0.000511
0.000369
0.000233
0.000254
0.000258
0.000250
0.000274
0.000269
0.000260
0.000244
0.000279
0.000325
0.000324
0.000460
0.000319
0.000239
0.000245
0.000193
0.000057
0.000425
0.000300
0.000484
0.000225
0.000201
0.000251
0.000243
0.000257
0.000243
0.000220
0.000252
0.000281
0.000288
0.000386
0.000518
0.000463
0.000311
0.000312
0.000383
0.000344
0.000317
0.000210
0.000245
0.000279
0.001740
0.000248
0.001731
0.000932
0.000420
0.000312
0.000167
0.000056
0.000211
0.000236
0.000233
0.000248
0.000267
0.000243
0.000249
0.000251
0.000253
0.000345
0.000455
0.000304
0.000342
0.000383
0.000244
0.000249
0.000260
0.000284
0.000226
0.000249
0.000252
0.000260
0.001817
0.000240
0.000247
0.000265
0.000280
0.000266
0.001894
0.000503
0.000267
0.000055
0.000231
0.000211
0.000240
0.000238
0.000266
0.000244
0.000240
0.000270
0.000348
0.000322
0.000451
0.000357
0.000390
0.000234
0.000229
0.000262
0.000328
0.000439
0.000367
0.000275
0.001761
0.000254
0.000233
0.000258
0.000265
0.000273
0.000237
0.000254
0.000330
0.000401
0.000318
0.000056
0.000228
0.000209
0.000237
0.000269
0.000237
0.000244
0.000252
0.000257
0.000240
0.000254
0.000242
0.000280
0.000407
0.000363
0.000341
0.000267
0.000472
0.000233
0.000243
0.000261
0.000262
0.000252
0.000281
0.000256
0.000278
0.001790
0.000241
0.000251
0.000264
0.000237
0.000204
0.000055
0.000213
0.000378
0.000235
0.000215
0.000244
0.000232
0.000239
0.000257
0.000245
0.000236
0.000225
0.000260
0.000274
0.000364
0.000424
0.000362
0.000247
0.000243
0.000249
0.000259
0.000265
0.000259
0.000246
0.000277
0.000237
0.000276
0.000306
0.001623
0.000274
0.000232
0.000186
0.000055
0.000221
0.000234
0.000247
0.000260
0.000363
0.000345
0.000362
0.000350
0.000220
0.000254
0.000271
0.000227
0.000248
0.000255
0.000258
0.000259
0.000246
0.000258
0.000249
0.000271
0.000255
0.000270
0.000248
0.000232
0.000251
0.000280
0.000275
0.000260
0.000253
0.000264
0.000196
0.000056
0.000190
0.000237
0.000250
0.000276
0.000231
0.000241
0.000238
0.000260
0.000285
0.000250
0.000228
0.000240
0.000267
0.000241
0.000284
0.000244
0.000253
0.000250
0.000315
0.000233
0.000273
0.000323
0.000270
0.000225
0.000303
0.000247
0.000272
0.000249
0.000279
0.000569
0.000527
0.000056
0.000210
0.000285
0.000229
0.000218
0.000239
0.000252
0.000241
0.000250
0.000251
0.000241
0.000272
0.000401
0.000383
0.000447
0.001557
0.000234
0.000496
0.000229
0.000251
0.000467
0.000420
0.000403
0.000224
0.000278
0.000247
0.000260
0.000279
0.000255
0.000309
0.000276
0.000171
0.000055
0.000356
0.000414
0.000330
0.000337
0.000210
0.000278
0.000230
0.000238
0.000235
0.000240
0.000259
0.000254
0.000233
0.000306
0.000341
0.000479
0.000398
0.001779
0.000240
0.000255
0.000378
0.000422
0.000425
0.000274
0.000358
0.000282
0.000303
0.000231
0.000222
0.000259
0.000195
0.000055
0.000200
0.000236
0.000235
0.000300
0.000393
0.000462
0.000298
0.000237
0.000253
0.000215
0.000252
0.000269
0.000262
0.000263
0.000242
0.000259
0.000396
0.000439
0.000295
0.000442
0.000237
0.001735
0.000334
0.000518
0.000547
0.000401
0.000330
0.000232
0.000253
0.000258
0.000454
0.000056
0.000198
0.000271
0.000217
0.000360
0.000498
0.000349
0.000335
0.000223
0.000279
0.000277
0.000218
0.000255
0.000257
0.000292
0.000314
0.000226
0.000267
0.000376
0.000469
0.000312
0.000525
0.001821
0.000273
0.000561
0.000380
0.000344
0.000220
0.000258
0.000317
0.000239
0.000201
0.000056
0.000208
0.000333
0.000363
0.000375
0.000365
0.000356
0.000290
0.000212
0.000240
0.000268
0.000267
0.000231
0.000247
0.000250
0.000246
0.000265
0.000355
0.000381
0.000460
0.000373
0.000295
0.000235
0.000256
0.001709
0.000499
0.000445
0.000689
0.000225
0.000259
0.000317
0.000158
0.000055
0.000196
0.000232
0.000345
0.000243
0.000275
0.000366
0.000516
0.000192
0.000243
0.000528
0.000233
0.000244
0.000260
0.000278
0.000273
0.000264
0.000206
0.000548
0.000334
0.000384
0.000267
0.000228
0.000260
0.000253
0.000278
0.000247
0.000233
0.000262
0.000262
0.000290
0.000202
0.000055
0.000332
0.000336
0.000207
0.000255
0.000252
0.000258
0.000240
0.000286
0.000233
0.000253
0.000279
0.000331
0.000519
0.000329
0.000374
0.000220
0.000220
0.000251
0.000248
0.000270
0.000285
0.000257
0.000238
0.000262
0.000281
0.000377
0.000403
0.000339
0.000327
0.000238
0.000179
0.000056
0.000189
0.000224
0.000286
0.000245
0.000232
0.000270
0.000263
0.000228
0.000498
0.000210
0.000261
0.000258
0.000237
0.000263
0.000282
0.000291
0.000240
0.000378
0.000188
0.000239
0.000274
0.000253
0.000259
0.000267
0.000274
0.000262
0.000259
0.000253
0.000263
0.000503
0.000157
0.000055
0.000214
0.000222
0.000246
0.000289
0.000202
0.000245
0.000364
0.000409
0.000238
0.000227
0.000251
0.000263
0.000227
0.000238
0.000548
0.001706
0.000241
0.000263
0.000284
0.000331
0.000424
0.000351
0.000394
0.000375
0.000368
0.000420
0.000243
0.000263
0.000266
0.000277
0.001404
0.000059
0.000446
0.000223
0.000279
0.000213
0.000227
0.000263
0.000226
0.000255
0.000246
0.000273
0.000240
0.000262
0.000252
0.000293
0.000648
0.001520
0.000232
0.000236
0.000244
0.000265
0.000239
0.000282
0.000447
0.000356
0.000230
0.000353
0.000223
0.000263
0.000277
0.000269
0.000204
0.000055
0.001341
0.000423
0.000331
0.000246
0.000236
0.000221
0.000237
0.000242
0.000488
0.000215
0.000246
0.000243
0.000402
0.000548
0.000309
0.000354
0.000249
0.000227
0.000338
0.000348
0.000272
0.000263
0.000272
0.000239
0.000294
0.000632
0.000464
0.000270
0.000265
0.000263
0.000173
0.000055
0.000230
0.000210
0.000243
0.000252
0.001447
0.000340
0.000207
0.000251
0.000266
0.000230
0.000253
0.000252
0.000240
0.000263
0.000265
0.000314
0.000427
0.000630
0.000272
0.001741
0.000261
0.000293
0.000358
0.000389
0.000530
0.000390
0.000245
0.000252
0.000260
0.000269
0.000195
0.000056
0.000209
0.000255
0.000238
0.000432
0.001143
0.000249
0.000233
0.000261
0.000240
0.000233
0.000237
0.000258
0.000272
0.000248
0.000252
0.000283
0.000568
0.000333
0.000315
0.000277
0.000252
0.000269
0.000254
0.000224
0.000295
0.000256
0.000240
0.000278
0.000287
0.000445
0.000469
0.000056
0.000220
0.000246
0.000234
0.000259
0.000265
0.000246
0.000227
0.000266
0.000268
0.000279
0.001415
0.000225
0.000244
0.000239
0.000257
0.000249
0.000278
0.000249
0.000282
0.000240
0.000336
0.000416
0.000589
0.000256
0.000235
0.000285
0.001750
0.000270
0.000248
0.000381
0.000377
0.000056
0.000209
0.000407
0.000446
0.000508
0.000507
0.000551
0.001491
0.000434
0.000500
0.000656
0.000551
0.000837
0.000366
0.000622
0.000582
0.001943
0.000423
0.000356
0.000387
0.000325
0.000219
0.000285
0.000289
0.000269
0.000253
0.000290
0.000290
0.000286
0.000259
0.000287
0.001363
0.000057
0.000191
0.000227
0.000238
0.000236
0.000272
0.000254
0.000235
0.000236
0.000250
0.000249
0.000242
0.000245
0.000250
0.000265
0.000260
0.000293
0.001776
0.000274
0.000259
0.000255
0.000254
0.000261
0.000265
0.000259
0.000501
0.000340
0.000352
0.000234
0.000255
0.000296
0.000198
0.000056
0.000198
0.001354
0.000360
0.000248
0.000247
0.000254
0.000226
0.000233
0.000238
0.000238
0.000219
0.000251
0.000252
0.000506
0.000360
0.000304
0.000243
0.001814
0.000360
0.000233
0.000241
0.000275
0.000247
0.000273
0.000274
0.000279
0.000271
0.000255
0.000269
0.000312
0.000207
0.000055
0.000187
0.000241
0.000257
0.001438
0.000219
0.000247
0.000248
0.000245
0.000242
0.000263
0.000252
0.000240
0.000247
0.000283
0.000245
0.000242
0.000272
0.000266
0.000268
0.000256
0.000264
0.001760
0.000290
0.001772
0.000268
0.000227
0.000258
0.000275
0.000269
0.000274
0.000192
0.000055
0.000204
0.000242
0.001348
0.000238
0.000248
0.000241
0.000257
0.000253
0.000241
0.000252
0.000260
0.000245
0.000252
0.000263
0.000255
0.000263
0.000261
0.000281
0.000291
0.000254
0.001853
0.000242
0.001833
0.000238
0.000260
0.000275
0.000228
0.000258
0.000246
0.000274
0.000199
0.000056
0.001449
0.000212
0.000227
0.000244
0.000240
0.000240
0.000368
0.000287
0.000233
0.000255
0.000252
0.000261
0.000263
0.000406
0.000323
0.000294
0.000274
0.000247
0.000246
0.000255
0.000272
0.000342
0.000227
0.000252
0.000274
0.000274
0.000272
0.000336
0.000682
0.000333
0.000193
0.000057
0.000216
0.000251
0.000262
0.000306
0.000359
0.000254
0.001703
0.000278
0.000281
0.000267
0.000251
0.000279
0.000258
0.000286
0.000281
0.000309
0.000339
0.000550
0.000404
0.000287
0.000272
0.000273
0.000267
0.000264
0.000323
0.000263
0.000262
0.000252
0.000262
0.000333
0.000428
0.000055
0.000255
0.000467
0.000260
0.000261
0.000249
0.000227
0.000227
0.000254
0.000253
0.000278
0.001498
0.000224
0.000235
0.000240
0.000242
0.000288
0.000280
0.000235
0.000270
0.000261
0.000258
0.000612
0.000351
0.000268
0.000271
0.000282
0.000268
0.000257
0.000248
0.000305
0.000164
0.000056
0.000178
0.000242
0.000286
0.000453
0.000401
0.000252
0.000212
0.000267
0.000234
0.000256
0.000235
0.000245
0.000259
0.000264
0.000243
0.000270
0.000514
0.001067
0.000237
0.000327
0.000198
0.000251
0.000353
0.000414
0.000249
0.000381
0.000529
0.000348
0.000390
0.000228
0.000179
0.000057
0.000207
0.000253
0.000260
0.000259
0.000258
0.000246
0.000328
0.000414
0.000451
0.000278
0.000357
0.000389
0.000398
0.000363
0.000255
0.000231
0.000239
0.000260
0.000417
0.000441
0.001276
0.000232
0.000262
0.000277
0.000230
0.000234
0.000266
0.000358
0.000494
0.000415
0.000163
0.000055
0.000220
0.000228
0.000257
0.000261
0.000219
0.000242
0.000241
0.000265
0.000359
0.000378
0.000338
0.000385
0.000239
0.000227
0.000257
0.000259
0.000243
0.000266
0.000262
0.000274
0.000420
0.000294
0.000407
0.000377
0.000283
0.000245
0.000273
0.000272
0.000255
0.000346
0.000151
0.000058
0.000309
0.000315
0.000356
0.000409
0.000378
0.000351
0.000242
0.000247
0.000242
0.000285
0.000243
0.000269
0.000247
0.000233
0.000242
0.000237
0.000274
0.000448
0.000400
0.000343
0.000221
0.000278
0.000245
0.000240
0.000270
0.000277
0.000284
0.000267
0.000262
0.000265
0.000337
0.000056
0.000218
0.000374
0.000235
0.000268
0.000224
0.000245
0.000245
0.000256
0.000264
0.000241
0.000253
0.000238
0.000402
0.000388
0.000431
0.000284
0.000234
0.000248
0.000260
0.000265
0.000255
0.000261
0.000279
0.000249
0.000276
0.000356
0.000452
0.000519
0.000401
0.000254
0.000170
0.000055
0.000390
0.000201
0.000217
0.000251
0.000246
0.000250
0.000233
0.000251
0.000258
0.000261
0.000215
0.000245
0.000281
0.000222
0.000240
0.000269
0.000253
0.000262
0.000293
0.000245
0.000260
0.000257
0.000267
0.000262
0.000275
0.000227
0.000272
0.000271
0.000256
0.000288
0.000193
0.000056
0.000179
0.000240
0.000260
0.000227
0.000233
0.000258
0.000262
0.000239
0.000259
0.000279
0.000228
0.000230
0.000262
0.000404
0.000249
0.000289
0.000246
0.000267
0.000255
0.000278
0.000264
0.000244
0.000253
0.000241
0.000274
0.000275
0.000249
0.000252
0.000269
0.000264
0.000211
0.000055
0.000210
0.000361
0.000366
0.000282
0.000294
0.000254
0.000261
0.000262
0.000216
0.000248
0.000280
0.000235
0.000246
0.000234
0.000259
0.000282
0.000245
0.000262
0.000254
0.000258
0.000279
0.000260
0.000275
0.000261
0.000294
0.000225
0.000258
0.000262
0.000276
0.000262
0.000199
0.000056
0.000190
0.000221
0.000262
0.000262
0.000254
0.000444
0.000215
0.000265
0.000260
0.000487
0.000454
0.000286
0.000230
0.000244
0.000278
0.000253
0.000242
0.000267
0.000257
0.000272
0.000257
0.000263
0.000260
0.000408
0.000558
0.000348
0.000265
0.000298
0.000279
0.000244
0.000190
0.000056
0.000219
0.000222
0.000253
0.000244
0.000407
0.000593
0.000295
0.000375
0.000205
0.000246
0.000253
0.000253
0.000255
0.000248
0.000254
0.000274
0.000267
0.000239
0.000746
0.000264
0.000312
0.000248
0.000252
0.000283
0.000282
0.000252
0.000261
0.000292
0.000234
0.000324
0.000340
0.000056
0.000211
0.000235
0.000260
0.000222
0.000253
0.000268
0.000214
0.000250
0.000235
0.000261
0.000251
0.000250
0.000265
0.000378
0.000653
0.000312
0.000228
0.000257
0.000260
0.000245
0.000269
0.000286
0.000480
0.000216
0.000265
0.000630
0.000368
0.000492
0.000257
0.000249
0.000193
0.000056
0.000192
0.000231
0.000244
0.000240
0.000260
0.000260
0.000360
0.000507
0.000491
0.000395
0.000212
0.000260
0.000274
0.000278
0.000248
0.000249
0.000234
0.000253
0.000264
0.000391
0.000335
0.000660
0.000363
0.000254
0.000354
0.000381
0.000481
0.000243
0.000264
0.000424
0.000366
0.000055
0.000264
0.000232
0.000439
0.000219
0.000241
0.000246
0.000262
0.000259
0.000228
0.000243
0.000314
0.000353
0.000424
0.000277
0.000221
0.000263
0.000260
0.000250
0.000266
0.000276
0.000269
0.000257
0.000250
0.000275
0.000366
0.000443
0.000480
0.000231
0.000254
0.000288
0.000191
0.000056
0.000222
0.000255
0.000226
0.000250
0.000241
0.000310
0.000303
0.000579
0.000271
0.000266
0.000380
0.000219
0.000253
0.000260
0.000256
0.000239
0.000255
0.000263
0.000357
0.000371
0.000478
0.000311
0.000463
0.000269
0.000386
0.000417
0.000384
0.000247
0.000249
0.000344
0.000403
0.000056
0.000222
0.000276
0.000224
0.000256
0.000255
0.000259
0.000244
0.000251
0.000272
0.000241
0.000235
0.000402
0.000433
0.000352
0.000371
0.000241
0.000250
0.000263
0.000273
0.000227
0.000252
0.000251
0.000269
0.000271
0.000274
0.000318
0.000566
0.000418
0.000242
0.000272
0.000193
0.000055
0.000213
0.000231
0.000284
0.000243
0.000245
0.000344
0.000528
0.000453
0.000342
0.000693
0.000260
0.000231
0.000226
0.000259
0.000248
0.000270
0.000275
0.000282
0.000531
0.000412
0.001478
0.000289
0.000264
0.000279
0.000268
0.000261
0.000376
0.000429
0.000377
0.000293
0.000183
0.000055
0.000217
0.000232
0.000268
0.000266
0.000203
0.000252
0.000303
0.000225
0.000245
0.000334
0.000331
0.000378
0.000285
0.000322
0.000394
0.000340
0.000240
0.000251
0.000270
0.000255
0.000250
0.000252
0.000308
0.000222
0.000320
0.000439
0.000427
0.000289
0.000250
0.000297
0.000164
0.000056
0.000231
0.000246
0.000253
0.000257
0.000242
0.000234
0.000474
0.000216
0.000230
0.000269
0.000228
0.000252
0.000259
0.000256
0.000244
0.000274
0.000262
0.000288
0.000250
0.000253
0.000284
0.000266
0.000288
0.000250
0.000261
0.000278
0.000271
0.000266
0.000262
0.000272
0.000175
0.000056
0.000235
0.000245
0.000315
0.000570
0.000225
0.000233
0.000236
0.000248
0.000259
0.000246
0.000269
0.000237
0.000263
0.000261
0.000240
0.000241
0.000270
0.000248
0.000358
0.000299
0.000506
0.000295
0.000235
0.000258
0.000287
0.000234
0.000271
0.000257
0.000264
0.000280
0.000198
0.000056
0.000257
0.000453
0.000374
0.000195
0.000254
0.000256
0.000414
0.000218
0.000230
0.000258
0.000252
0.000297
0.000444
0.000375
0.001834
0.000250
0.000247
0.000247
0.000281
0.000264
0.000364
0.000529
0.000478
0.000292
0.000238
0.000260
0.000275
0.000426
0.000279
0.000280
0.000167
0.000056
0.000222
0.000384
0.000321
0.000321
0.000503
0.000196
0.000236
0.000251
0.000248
0.000241
0.000263
0.000248
0.000299
0.000311
0.000410
0.000455
0.000213
0.000247
0.000254
0.000260
0.000264
0.000322
0.000245
0.000270
0.000270
0.000548
0.000386
0.000433
0.000455
0.000227
0.000205
0.000055
0.000203
0.000236
0.000256
0.000238
0.000243
0.000248
0.000267
0.000328
0.000357
0.000358
0.000388
0.000341
0.000218
0.000260
0.000264
0.000293
0.000294
0.000228
0.000276
0.000279
0.000236
0.000386
0.000412
0.000338
0.000307
0.000246
0.000260
0.000441
0.000413
0.000324
0.000166
0.000057
0.000219
0.000354
0.000214
0.000410
0.000397
0.000203
0.000235
0.000255
0.000267
0.000259
0.000255
0.000250
0.000232
0.000255
0.000258
0.000295
0.000404
0.000356
0.000297
0.000350
0.000486
0.000223
0.000279
0.000277
0.000300
0.000284
0.000253
0.000266
0.000476
0.000549
0.000156
0.000056
0.000194
0.000230
0.000254
0.000250
0.000242
0.000482
0.000215
0.000250
0.000264
0.000391
0.000477
0.000544
0.000206
0.000242
0.000243
0.000248
0.000261
0.000262
0.000246
0.000264
0.000266
0.000246
0.000411
0.000436
0.000292
0.000407
0.000286
0.000311
0.000330
0.000239
0.000182
0.000055
0.000185
0.000241
0.000446
0.000358
0.000260
0.000296
0.000250
0.000234
0.000245
0.000258
0.000252
0.000256
0.000266
0.000239
0.000253
0.000264
0.000251
0.000236
0.000324
0.000441
0.000430
0.000359
0.000230
0.000251
0.000278
0.000275
0.000257
0.000258
0.000264
0.000267
0.000196
0.000057
0.000375
0.000316
0.000421
0.000241
0.000213
0.000256
0.000314
0.000454
0.000289
0.000208
0.000257
0.000262
0.000261
0.000534
0.000337
0.000297
0.000234
0.000234
0.000255
0.000261
0.000273
0.000261
0.000263
0.000275
0.000255
0.000297
0.000468
0.000389
0.000269
0.000249
0.000180
0.000055
0.000208
0.000244
0.000250
0.000253
0.000255
0.000263
0.000250
0.000248
0.000248
0.000252
0.000244
0.000241
0.000286
0.001440
0.000216
0.000256
0.000264
0.000247
0.000272
0.000277
0.000260
0.000243
0.000271
0.000254
0.000269
0.000268
0.000279
0.000268
0.000259
0.000270
0.000196
0.000056
0.000204
0.000239
0.000245
0.000264
0.000223
0.000240
0.000263
0.000254
0.000228
0.000251
0.000245
0.000262
0.000263
0.000254
0.000257
0.000253
0.000241
0.000264
0.000271
0.000254
0.000257
0.000262
0.000252
0.000244
0.001302
0.000276
0.000610
0.000433
0.000311
0.000221
0.000191
0.000055
0.000204
0.000231
0.000246
0.000252
0.000417
0.000242
0.000233
0.000240
0.000256
0.000428
0.000417
0.000312
0.000222
0.000231
0.000273
0.000259
0.000258
0.000264
0.000241
0.000258
0.000266
0.000250
0.000345
0.000342
0.000518
0.000430
0.000230
0.000267
0.001381
0.000240
0.000187
0.000055
0.000459
0.000285
0.000334
0.000259
0.000234
0.000232
0.000219
0.000254
0.000260
0.000256
0.000244
0.000258
0.000295
0.000351
0.000490
0.000334
0.000358
0.000217
0.000243
0.000260
0.000266
0.000280
0.000251
0.000267
0.000270
0.000264
0.000418
0.000482
0.000356
0.000359
0.000157
0.000056
0.000204
0.000237
0.001265
0.000450
0.000261
0.000503
0.000340
0.000493
0.000267
0.000344
0.000225
0.000227
0.000262
0.000251
0.000250
0.000266
0.000383
0.000538
0.000303
0.000381
0.000260
0.000249
0.000267
0.000499
0.000226
0.000267
0.000256
0.000277
0.000324
0.000632
0.000190
0.000056
0.000376
0.000313
0.000244
0.000217
0.001746
0.000300
0.000313
0.000218
0.000237
0.000260
0.000224
0.000244
0.000240
0.000270
0.000250
0.000263
0.000234
0.000335
0.000394
0.000371
0.000431
0.000226
0.000258
0.000257
0.000257
0.000281
0.000269
0.000238
0.000259
0.000281
0.000252
0.000056
0.000189
0.000351
0.000221
0.000231
0.000253
0.000241
0.000259
0.000238
0.000236
0.000230
0.001554
0.000323
0.000269
0.000263
0.000217
0.000256
0.000273
0.000261
0.000233
0.000301
0.000248
0.000249
0.000291
0.000413
0.000370
0.000487
0.000222
0.000269
0.000274
0.000274
0.000184
0.000055
0.000206
0.000423
0.000217
0.000234
0.000351
0.000467
0.000333
0.000335
0.000450
0.000208
0.000229
0.000251
0.000269
0.000260
0.000261
0.001524
0.000252
0.000278
0.000255
0.000259
0.000297
0.000256
0.000235
0.000251
0.000255
0.000278
0.000461
0.000429
0.000297
0.000281
0.000152
0.000056
0.000205
0.000234
0.000256
0.000237
0.000228
0.000258
0.000239
0.000244
0.000304
0.000406
0.000375
0.000298
0.000232
0.000262
0.000249
0.000277
0.000263
0.000262
0.000267
0.000230
0.000261
0.000356
0.001215
0.000254
0.000238
0.000266
0.000274
0.000253
0.000256
0.000272
0.000183
0.000055
0.000256
0.000370
0.000329
0.000302
0.000251
0.000245
0.000257
0.000289
0.000239
0.000259
0.000238
0.000271
0.000239
0.000252
0.000257
0.000264
0.000265
0.000264
0.000269
0.000249
0.000248
0.000275
0.000268
0.000282
0.000318
0.000242
0.000257
0.000268
0.000255
0.000454
0.001367
0.000056
0.000215
0.000258
0.000221
0.000265
0.000229
0.000262
0.000246
0.000225
0.000243
0.000257
0.000281
0.000248
0.000248
0.000242
0.000275
0.000243
0.001715
0.000255
0.000229
0.000270
0.000240
0.000259
0.000280
0.000258
0.000295
0.000236
0.000267
0.000286
0.000279
0.000233
0.000223
0.000057
0.000349
0.000326
0.001297
0.000237
0.000222
0.000238
0.000258
0.000247
0.000274
0.000241
0.000233
0.000370
0.000367
0.000445
0.000285
0.000222
0.000245
0.000256
0.000261
0.000266
0.000243
0.000281
0.000252
0.000283
0.000270
0.000415
0.000390
0.000324
0.000300
0.000239
0.000197
0.000056
0.000193
0.000245
0.000245
0.000242
0.000280
0.000200
0.000238
0.000304
0.000388
0.001329
0.000263
0.000216
0.000241
0.000270
0.000263
0.000280
0.000239
0.000252
0.000328
0.000503
0.000332
0.000202
0.000249
0.000237
0.000285
0.000290
0.000253
0.000298
0.000276
0.000264
0.000192
0.000055
0.000401
0.000229
0.000430
0.000213
0.000230
0.000241
0.000250
0.000279
0.000264
0.000240
0.000240
0.000247
0.000456
0.000516
0.000468
0.001437
0.000257
0.000258
0.000367
0.000354
0.000431
0.000459
0.000525
0.000309
0.000234
0.000260
0.000270
0.000275
0.000265
0.000272
0.000192
0.000057
0.000189
0.000323
0.000503
0.000381
0.000329
0.000239
0.000251
0.000241
0.000237
0.000275
0.000235
0.000264
0.000277
0.000262
0.000231
0.000303
0.000383
0.000439
0.000325
0.001329
0.000267
0.000249
0.000259
0.000260
0.000509
0.000399
0.000380
0.000242
0.000274
0.000276
0.000185
0.000056
0.000199
0.000245
0.000239
0.000267
0.000226
0.000311
0.000420
0.000394
0.000363
0.000215
0.000255
0.000247
0.000270
0.000288
0.000239
0.000265
0.000255
0.000255
0.000298
0.000227
0.000495
0.000412
0.000329
0.001352
0.000401
0.000239
0.000271
0.000449
0.000492
0.000276
0.000305
0.000056
0.000198
0.000234
0.000248
0.000247
0.000251
0.000256
0.001704
0.000220
0.000209
0.000247
0.000256
0.000252
0.000256
0.000322
0.000325
0.000289
0.000255
0.000338
0.000518
0.000414
0.000264
0.000286
0.000225
0.000258
0.001497
0.000369
0.000471
0.000361
0.000342
0.000306
0.000164
0.000055
0.000199
0.000256
0.000255
0.000252
0.000247
0.000262
0.001704
0.000230
0.000249
0.000259
0.000336
0.000404
0.001460
0.000363
0.000375
0.000245
0.000257
0.000233
0.000267
0.000275
0.001533
0.000628
0.000348
0.000281
0.000230
0.000255
0.000258
0.000280
0.000247
0.000250
0.000193
0.000056
0.000204
0.000244
0.000268
0.000246
0.000266
0.000288
0.000259
0.000255
0.000254
0.000251
0.000252
0.000251
0.000290
0.000240
0.000252
0.001497
0.000284
0.000227
0.000265
0.000277
0.000273
0.000251
0.000431
0.001277
0.000272
0.000238
0.000264
0.000259
0.000400
0.000238
0.000203
0.000055
0.000222
0.000251
0.000216
0.000248
0.000242
0.000230
0.000229
0.001698
0.000255
0.000217
0.000362
0.000265
0.000224
0.000225
0.000254
0.001389
0.000242
0.000251
0.000268
0.000255
0.000266
0.000340
0.000293
0.001304
0.000268
0.000259
0.000252
0.000258
0.001390
0.000283
0.000214
0.000057
0.000235
0.000336
0.000210
0.000243
0.000260
0.000227
0.000280
0.000253
0.000263
0.000250
0.000260
0.000264
0.000250
0.000249
0.000289
0.001546
0.000228
0.000266
0.000254
0.000242
0.000290
0.000254
0.000248
0.001516
0.000347
0.000231
0.000279
0.001270
0.000269
0.000239
0.000211
0.000055
0.000214
0.000435
0.000299
0.000206
0.000236
0.000258
0.000254
0.000251
0.000261
0.000273
0.000235
0.000254
0.000265
0.000267
0.000423
0.001221
0.000247
0.000232
0.000263
0.000280
0.000227
0.000245
0.000251
0.000474
0.001159
0.000223
0.000252
0.000254
0.000254
0.001345
0.000346
0.000055
0.000318
0.000243
0.000218
0.000235
0.000244
0.000247
0.000258
0.000235
0.000301
0.000235
0.000238
0.000249
0.000308
0.000316
0.000375
0.001470
0.000217
0.000249
0.000296
0.000510
0.000277
0.000345
0.001410
0.000308
0.000230
0.000261
0.000257
0.001307
0.000290
0.000449
0.000450
0.000057
0.000230
0.000254
0.000256
0.000255
0.000250
0.000254
0.000271
0.000266
0.000247
0.000296
0.000276
0.000486
0.001319
0.000243
0.000272
0.000255
0.000281
0.000220
0.000248
0.000246
0.000345
0.001228
0.000256
0.000240
0.000256
0.000262
0.001480
0.000485
0.000452
0.000214
0.000196
0.000056
0.000184
0.000231
0.000255
0.000239
0.000246
0.000265
0.000238
0.000293
0.000504
0.000386
0.000265
0.001491
0.000221
0.000231
0.000268
0.000255
0.000257
0.000289
0.001688
0.000257
0.000389
0.000366
0.001318
0.000339
0.000267
0.000316
0.000268
0.000251
0.000267
0.000268
0.000197
0.000056
0.000218
0.000224
0.000328
0.000279
0.000299
0.000568
0.000243
0.000292
0.001466
0.000257
0.000362
0.000260
0.000238
0.000326
0.000357
0.001319
0.000271
0.000244
0.000243
0.000266
0.001504
0.000381
0.000286
0.000283
0.000267
0.000245
0.000456
0.000328
0.000260
0.000233
0.000266
0.000056
0.000263
0.000312
0.000317
0.000264
0.000224
0.001516
0.000208
0.000268
0.000264
0.000271
0.000265
0.000249
0.000290
0.001490
0.000255
0.000230
0.000437
0.001182
0.000363
0.000436
0.000384
0.000239
0.000239
0.000255
0.000299
0.000217
0.000464
0.000214
0.000270
0.000278
0.000195
0.000055
0.000206
0.000299
0.000340
0.000379
0.001262
0.000281
0.000336
0.000228
0.000224
0.000247
0.000248
0.000528
0.001287
0.000246
0.000241
0.000261
0.001370
0.000373
0.000343
0.000469
0.000339
0.000228
0.000251
0.000247
0.000267
0.000271
0.000267
0.000270
0.000261
0.000251
0.000239
0.000056
0.000201
0.000349
0.001505
0.000216
0.000262
0.000302
0.000213
0.000255
0.000259
0.000378
0.001396
0.000211
0.000267
0.000265
0.000256
0.001270
0.000715
0.000260
0.000318
0.000410
0.000302
0.000257
0.000257
0.000260
0.000271
0.000289
0.000274
0.000329
0.000453
0.000423
0.001342
0.000055
0.000218
0.000224
0.000240
0.000229
0.000348
0.000437
0.000376
0.001273
0.000256
0.000233
0.000247
0.001448
0.000543
0.000212
0.000227
0.000409
0.000252
0.000246
0.000248
0.000294
0.000254
0.000252
0.000280
0.000255
0.000251
0.000298
0.000481
0.000445
0.001479
0.000237
0.000174
0.000055
0.000225
0.000249
0.000398
0.000472
0.001252
0.000305
0.000231
0.000260
0.000242
0.000255
0.000246
0.000313
0.000384
0.000468
0.000295
0.000243
0.000247
0.000272
0.000252
0.000304
0.000234
0.000259
0.000242
0.000264
0.000264
0.000423
0.000451
0.000326
0.000334
0.001402
0.000175
0.000057
0.000195
0.000236
0.000334
0.000447
0.000300
0.000303
0.000315
0.000331
0.000306
0.000244
0.000241
0.000258
0.000249
0.000313
0.000231
0.000262
0.000642
0.000262
0.000290
0.000393
0.000264
0.000413
0.000239
0.000226
0.000269
0.000266
0.000241
0.000310
0.000482
0.000356
0.000288
0.000056
0.000190
0.001409
0.000225
0.000338
0.000405
0.000471
0.000393
0.000263
0.000212
0.000236
0.000265
0.000253
0.000280
0.000255
0.000255
0.000256
0.000272
0.001367
0.000234
0.000261
0.000254
0.000272
0.000269
0.000280
0.000281
0.000236
0.000282
0.000249
0.000304
0.000493
0.000243
0.000055
0.000207
0.000237
0.000238
0.001510
0.000322
0.000238
0.000221
0.000255
0.000222
0.000242
0.000260
0.000283
0.000241
0.000251
0.000294
0.000233
0.000241
0.000266
0.000254
0.000281
0.001414
0.000240
0.000242
0.000265
0.000254
0.000253
0.000272
0.000255
0.000283
0.000508
0.000328
0.000056
0.000188
0.000231
0.000396
0.000288
0.000240
0.000258
0.001547
0.000414
0.000218
0.000209
0.000264
0.000306
0.000329
0.000232
0.000228
0.000254
0.000241
0.000268
0.000259
0.000264
0.000524
0.000514
0.001072
0.000267
0.000239
0.000257
0.000273
0.000252
0.000302
0.000235
0.000408
0.000056
0.000229
0.000352
0.000196
0.000243
0.000256
0.000238
0.000238
0.000227
0.000295
0.001699
0.000293
0.000272
0.000229
0.000256
0.000262
0.000238
0.000263
0.000279
0.000259
0.000318
0.000305
0.000504
0.000425
0.001372
0.000226
0.000277
0.000264
0.000254
0.000272
0.000405
0.000435
0.000057
0.000220
0.000261
0.000227
0.000230
0.000222
0.000243
0.000259
0.000284
0.000254
0.001651
0.000281
0.000253
0.000244
0.000256
0.000464
0.000252
0.000544
0.000375
0.000277
0.000273
0.000485
0.000499
0.001264
0.000257
0.000229
0.000263
0.001739
0.000443
0.000596
0.000319
0.000142
0.000055
0.000198
0.000232
0.000237
0.000240
0.000250
0.000245
0.000250
0.000496
0.000557
0.000363
0.000293
0.000206
0.000246
0.000263
0.000280
0.000275
0.000235
0.000242
0.000248
0.000287
0.000299
0.000555
0.001175
0.000222
0.000256
0.000261
0.001922
0.000354
0.000395
0.000343
0.000161
0.000056
0.000197
0.000240
0.000240
0.001700
0.000295
0.000211
0.000237
0.000261
0.000250
0.000280
0.000378
0.000368
0.000365
0.000281
0.000301
0.000535
0.000361
0.001216
0.000265
0.000231
0.000257
0.000261
0.000277
0.000506
0.000587
0.000391
0.000248
0.000266
0.000267
0.000282
0.000192
0.000056
0.000195
0.000236
0.000242
0.001560
0.000236
0.000235
0.000239
0.000258
0.000232
0.000260
0.000253
0.000272
0.000266
0.000277
0.000344
0.000285
0.000426
0.000344
0.001398
0.000245
0.000245
0.000258
0.000262
0.000268
0.000307
0.000571
0.000434
0.000261
0.000287
0.000233
0.000433
0.000055
0.000209
0.000242
0.000271
0.001533
0.000309
0.000208
0.000266
0.000242
0.000250
0.000261
0.000253
0.000277
0.000230
0.000265
0.000382
0.000547
0.001370
0.000742
0.000263
0.000341
0.000242
0.000228
0.000250
0.000276
0.001690
0.000804
0.000217
0.000272
0.000269
0.000284
0.000189
0.000055
0.000215
0.000240
0.000252
0.000243
0.000267
0.000259
0.000221
0.000248
0.000239
0.000244
0.000285
0.000282
0.000249
0.000255
0.000252
0.000248
0.000275
0.001600
0.000703
0.000398
0.000298
0.000232
0.000239
0.000306
0.000265
0.000238
0.000272
0.000273
0.001385
0.000407
0.000314
0.000056
0.000187
0.000232
0.000271
0.000236
0.000262
0.000247
0.000259
0.000233
0.000249
0.000262
0.000361
0.000365
0.000418
0.000319
0.000213
0.000247
0.000268
0.001394
0.000714
0.000447
0.000341
0.000273
0.000228
0.000246
0.000283
0.000254
0.000251
0.000264
0.001484
0.000437
0.000180
0.000055
0.000222
0.000233
0.000245
0.000244
0.000250
0.000250
0.000248
0.000233
0.000274
0.000273
0.000364
0.000409
0.000289
0.000223
0.000239
0.000246
0.000264
0.000259
0.001579
0.000687
0.000396
0.000343
0.000225
0.000236
0.000262
0.000270
0.000263
0.000272
0.000281
0.001413
0.000263
0.000056
0.000216
0.000219
0.000235
0.000258
0.000256
0.000246
0.000244
0.000311
0.000359
0.000452
0.000369
0.000350
0.000391
0.000223
0.000231
0.000248
0.000304
0.000249
0.000255
0.001919
0.000335
0.000235
0.000447
0.000232
0.000255
0.000261
0.000272
0.000266
0.000266
0.000280
0.000319
0.000056
0.000188
0.000267
0.000241
0.000246
0.000249
0.000252
0.000225
0.000241
0.000269
0.000266
0.000230
0.000237
0.000371
0.000444
0.000427
0.000398
0.000225
0.000265
0.000248
0.000256
0.000249
0.000292
0.001475
0.001053
0.000224
0.000241
0.000271
0.000263
0.000277
0.000249
0.000204
0.000054
0.000198
0.001344
0.000287
0.000222
0.000225
0.000252
0.000255
0.000238
0.000245
0.000265
0.000242
0.000265
0.000251
0.000511
0.000269
0.000392
0.000290
0.000246
0.000273
0.000267
0.000268
0.000227
0.000272
0.000257
0.001489
0.000517
0.000309
0.000383
0.000374
0.000402
0.000299
0.000056
0.000195
0.000274
0.000442
0.001201
0.000203
0.000256
0.000233
0.000264
0.000250
0.000257
0.000256
0.000242
0.000339
0.000378
0.000463
0.000308
0.000224
0.000281
0.000331
0.000208
0.000254
0.000272
0.000234
0.000270
0.000290
0.001527
0.000737
0.000312
0.000262
0.000266
0.000197
0.000056
0.000223
0.000290
0.000419
0.000323
0.001303
0.000263
0.000209
0.000240
0.000231
0.000250
0.000252
0.000255
0.000233
0.000234
0.000254
0.000253
0.000272
0.000232
0.000260
0.000253
0.000265
0.000273
0.000311
0.000331
0.000210
0.000269
0.000262
0.001458
0.000261
0.000241
0.000174
0.000055
0.000197
0.000231
0.000246
0.000279
0.000343
0.000380
0.000391
0.000280
0.001574
0.000249
0.000276
0.000491
0.000340
0.000243
0.000437
0.000242
0.000247
0.000248
0.000270
0.000269
0.000277
0.000267
0.000257
0.000272
0.000253
0.000412
0.000403
0.000322
0.001579
0.000229
0.000190
0.000055
0.000219
0.000236
0.000245
0.000251
0.000241
0.000244
0.000264
0.000316
0.000410
0.002034
0.000231
0.000240
0.000257
0.000255
0.000258
0.000310
0.000227
0.000245
0.000367
0.000356
0.000318
0.000496
0.001434
0.000241
0.000253
0.002012
0.000274
0.000240
0.000271
0.001524
0.000152
0.000056
0.000296
0.000459
0.000471
0.000226
0.000276
0.000229
0.000238
0.000268
0.000264
0.000228
0.000257
0.000393
0.000471
0.000302
0.000361
0.000238
0.000235
0.001562
0.000229
0.000621
0.001845
0.000296
0.000237
0.001693
0.001861
0.000738
0.000273
0.000270
0.000262
0.000460
0.000340
0.000056
0.000183
0.000249
0.000281
0.000218
0.001417
0.001741
0.001074
0.000205
0.000225
0.001587
0.001980
0.000209
0.000254
0.000414
0.000294
0.000336
0.000549
0.000365
0.000208
0.000248
0.000247
0.000258
0.000277
0.001593
0.001209
0.001421
0.000284
0.000305
0.000239
0.000470
0.000240
0.000056
0.000220
0.000233
0.000237
0.000240
0.000225
0.000253
0.000244
0.000259
0.000256
0.000249
0.000256
0.000313
0.000589
0.000275
0.000315
0.000245
0.000247
0.000274
0.000266
0.000285
0.000242
0.000257
0.001499
0.000486
0.002127
0.000240
0.000282
0.000395
0.000372
0.000369
0.000193
0.000055
0.000248
0.000331
0.000460
0.000314
0.000191
0.000231
0.000251
0.000245
0.000242
0.000242
0.000248
0.000260
0.000266
0.001608
0.001354
0.001230
0.000274
0.000227
0.000243
0.000279
0.000287
0.000273
0.000246
0.000251
0.002211
0.000252
0.000245
0.000299
0.000319
0.000308
0.000226
0.000056
0.000234
0.000335
0.000597
0.000307
0.000220
0.000228
0.000250
0.000265
0.001909
0.001414
0.000211
0.000344
0.000369
0.000412
0.000273
0.000222
0.000256
0.000262
0.000268
0.000264
0.000261
0.000259
0.000485
0.000223
0.000272
0.000267
0.000251
0.000274
0.000282
0.000244
0.000200
0.000056
0.000216
0.000246
0.000244
0.000244
0.000275
0.000263
0.001524
0.001419
0.001329
0.000229
0.000235
0.000246
0.000262
0.000262
0.000249
0.000249
0.000248
0.002108
0.000254
0.000239
0.000256
0.000263
0.000250
0.000272
0.000263
0.000272
0.000251
0.000260
0.000276
0.000258
0.000178
0.000056
0.000202
0.002677
0.001413
0.000210
0.000305
0.000323
0.000209
0.000285
0.000230
0.000238
0.000261
0.000243
0.000232
0.000246
0.000272
0.000251
0.000275
0.000264
0.000267
0.000255
0.000285
0.000265
0.000273
0.000256
0.000258
0.000241
0.000266
0.000270
0.000266
0.000268
0.000363
0.000056
0.001555
0.000248
0.001239
0.000231
0.000222
0.000242
0.000259
0.000277
0.000223
0.000311
0.000425
0.000288
0.000332
0.000217
0.000250
0.002153
0.000232
0.000257
0.000583
0.000229
0.000359
0.000262
0.000233
0.000253
0.000267
0.000250
0.000263
0.000280
0.000274
0.001608
0.001273
0.000056
0.000176
0.000238
0.000479
0.000226
0.000347
0.000279
0.000214
0.000231
0.000254
0.000257
0.000265
0.000247
0.000225
0.000259
0.000262
0.000235
0.000379
0.000562
0.000367
0.000243
0.000220
0.000282
0.000282
0.000249
0.000249
0.000244
0.000271
0.000273
0.000246
0.000284
0.000439
0.000057
0.001115
0.000217
0.000354
0.000482
0.000260
0.000221
0.000234
0.000240
0.000250
0.002340
0.000335
0.000387
0.000210
0.000375
0.000305
0.000259
0.000239
0.000255
0.000264
0.000229
0.000256
0.000310
0.000727
0.000334
0.001833
0.001320
0.000523
0.000529
0.000234
0.000273
0.000202
0.000056
0.000227
0.000353
0.000244
0.000245
0.000255
0.000215
0.000259
0.000250
0.000255
0.000252
0.000255
0.000221
0.000249
0.000280
0.000494
0.000365
0.001857
0.001458
0.000390
0.000372
0.000449
0.000240
0.000236
0.000261
0.002132
0.000562
0.000385
0.000230
0.000272
0.000285
0.000191
0.000056
0.000205
0.000248
0.000258
0.000244
0.000310
0.000373
0.000311
0.000329
0.000307
0.000222
0.000238
0.000255
0.000261
0.002121
0.000354
0.000388
0.000209
0.000256
0.000283
0.000243
0.000255
0.002505
0.000285
0.000220
0.000257
0.000260
0.000258
0.000271
0.000312
0.000248
0.000195
0.000055
0.000234
0.000356
0.000570
0.000302
0.000253
0.000222
0.000232
0.000255
0.000263
0.000252
0.002002
0.000365
0.000250
0.000275
0.000230
0.000266
0.000278
0.000238
0.002205
0.000457
0.000217
0.000265
0.000272
0.000254
0.000262
0.000248
0.000298
0.000236
0.000264
0.000259
0.000190
0.000055
0.000206
0.000246
0.000249
0.000221
0.000246
0.000260
0.000237
0.000238
0.000236
0.002192
0.000211
0.000293
0.000208
0.000432
0.000229
0.000250
0.000304
0.000265
0.000250
0.000252
0.001970
0.000267
0.000349
0.000360
0.000430
0.000405
0.000301
0.000266
0.000245
0.000269
0.000190
0.000056
0.000204
0.000257
0.000219
0.000256
0.000240
0.000330
0.000207
0.002330
0.000236
0.000233
0.000255
0.000258
0.000229
0.000284
0.000277
0.002116
0.000600
0.000210
0.000264
0.000240
0.000267
0.000257
0.000284
0.000271
0.000266
0.000247
0.000292
0.000254
0.000262
0.000261
0.000196
0.000056
0.001805
0.001443
0.000196
0.000227
0.000260
0.000236
0.000250
0.000340
0.000329
0.000365
0.002154
0.000277
0.000218
0.000271
0.000267
0.000496
0.000444
0.000286
0.000216
0.000250
0.000253
0.000266
0.000272
0.000227
0.000248
0.000284
0.000255
0.000257
0.000427
0.000630
0.000241
0.000056
0.000214
0.000253
0.000245
0.000269
0.000252
0.000240
0.000254
0.000244
0.001560
0.002029
0.000612
0.000256
0.000567
0.000590
0.000295
0.000228
0.000258
0.000246
0.000268
0.000261
0.000257
0.000240
0.000267
0.000259
0.003012
0.000331
0.000236
0.000268
0.000287
0.000308
0.000492
0.000057
0.001936
0.000238
0.000227
0.000229
0.000288
0.000351
0.000475
0.000288
0.000292
0.000216
0.000238
0.000250
0.000262
0.000263
0.000271
0.000236
0.000273
0.000277
0.001824
0.000228
0.000239
0.000256
0.000280
0.000270
0.000275
0.000263
0.001462
0.000338
0.000240
0.000258
0.000181
0.000056
0.000199
0.000229
0.000246
0.000236
0.000252
0.000243
0.000340
0.000329
0.000356
0.000358
0.000216
0.000242
0.000263
0.000331
0.000422
0.000323
0.000227
0.000244
0.000280
0.000388
0.000414
0.000446
0.000255
0.000264
0.000256
0.000249
0.000259
0.000268
0.000275
0.000266
0.000202
0.000073
0.001428
0.000455
0.000200
0.001946
0.000358
0.000404
0.000401
0.000276
0.000237
0.000237
0.000271
0.000242
0.000246
0.000250
0.000288
0.000232
0.000454
0.000301
0.000410
0.000353
0.000355
0.000223
0.000261
0.000265
0.000274
0.000270
0.000259
0.000266
0.000391
0.000501
0.001316
0.000056
0.000215
0.000218
0.002083
0.000315
0.000315
0.000238
0.000259
0.000245
0.000260
0.000266
0.000213
0.000250
0.000257
0.000261
0.000285
0.000340
0.000703
0.001759
0.000234
0.000242
0.000262
0.000263
0.000470
0.000379
0.001548
0.000282
0.000362
0.001920
0.000262
0.000250
0.000200
0.000056
0.000213
0.000204
0.000238
0.000246
0.000230
0.000252
0.000247
0.000309
0.000311
0.000266
0.000378
0.000358
0.000340
0.000298
0.000237
0.000270
0.000274
0.000231
0.000265
0.000255
0.000310
0.000277
0.000270
0.000260
0.000282
0.001498
0.000293
0.000378
0.002068
0.000241
0.000178
0.000055
0.000189
0.000235
0.000242
0.000248
0.000492
0.000202
0.000252
0.000412
0.000322
0.000274
0.000312
0.000207
0.000262
0.000264
0.000272
0.000336
0.000428
0.000427
0.000251
0.000409
0.000583
0.000510
0.001458
0.000217
0.000257
0.002045
0.000269
0.000245
0.000243
0.000298
0.000186
0.000056
0.000184
0.000245
0.000227
0.000245
0.000249
0.000274
0.000249
0.000273
0.000250
0.000253
0.001817
0.000317
0.000382
0.000280
0.000465
0.000392
0.000400
0.001427
0.000233
0.000282
0.002264
0.000443
0.000239
0.000227
0.000268
0.000273
0.000505
0.000221
0.000258
0.000278
0.000198
0.000056
0.000211
0.000359
0.000356
0.000277
0.000204
0.000238
0.000261
0.000254
0.000258
0.000295
0.000226
0.000256
0.000257
0.000282
0.000405
0.000410
0.001292
0.000268
0.000267
0.001979
0.000306
0.000287
0.000231
0.000271
0.000248
0.000274
0.000274
0.000254
0.000256
0.000263
0.000204
0.000056
0.000229
0.000405
0.002021
0.000253
0.000229
0.000243
0.000252
0.000350
0.000462
0.000369
0.001295
0.000376
0.000358
0.002083
0.000200
0.000242
0.000270
0.000276
0.000259
0.000235
0.000289
0.000290
0.000254
0.000466
0.000429
0.000316
0.000319
0.002222
0.000595
0.000362
0.000449
0.000056
0.000203
0.000228
0.000242
0.001963
0.000232
0.000216
0.000248
0.000247
0.000242
0.000256
0.000249
0.000261
0.000259
0.000319
0.000436
0.001430
0.000250
0.000245
0.000263
0.000265
0.000235
0.000247
0.000260
0.000303
0.000319
0.000564
0.000358
0.000219
0.001607
0.000276
0.000157
0.000057
0.000192
0.000230
0.000242
0.000235
0.000260
0.000268
0.000226
0.000250
0.000260
0.000390
0.000402
0.001360
0.000224
0.000221
0.000257
0.000289
0.000235
0.000255
0.000327
0.000467
0.000449
0.000379
0.000248
0.001561
0.000222
0.000261
0.000287
0.000282
0.000263
0.000266
0.000200
0.000055
0.000216
0.000218
0.000265
0.000270
0.000247
0.000244
0.000237
0.000246
0.000272
0.000227
0.000251
0.000255
0.000269
0.001481
0.000359
0.000208
0.000245
0.000264
0.000274
0.000321
0.000364
0.000276
0.000247
0.000255
0.000265
0.000263
0.000261
0.001412
0.000282
0.000233
0.000166
0.000056
0.000187
0.000235
0.000257
0.000263
0.000266
0.000236
0.000250
0.000247
0.000216
0.000265
0.000245
0.000255
0.000242
0.000333
0.000327
0.000370
0.000271
0.000230
0.001633
0.000237
0.000242
0.000264
0.000262
0.000288
0.000405
0.000449
0.000360
0.000267
0.000269
0.001598
0.000154
0.000055
0.000367
0.000319
0.000392
0.000271
0.000230
0.000213
0.000250
0.000267
0.000256
0.000261
0.000223
0.000236
0.001489
0.000298
0.000276
0.000217
0.000261
0.000269
0.000252
0.000265
0.000252
0.000240
0.000260
0.000271
0.000266
0.000391
0.000403
0.000399
0.000257
0.000247
0.000201
0.000057
0.000200
0.000282
0.000411
0.000335
0.000385
0.000256
0.000251
0.000254
0.000251
0.000257
0.000242
0.000224
0.000253
0.000245
0.001284
0.000283
0.000227
0.000245
0.000272
0.000267
0.000239
0.000269
0.000247
0.000265
0.000253
0.000262
0.000315
0.000765
0.000376
0.000240
0.000170
0.000055
0.000219
0.001544
0.000258
0.000303
0.000495
0.000357
0.000212
0.000265
0.000267
0.000263
0.000228
0.000256
0.000271
0.000273
0.000259
0.001529
0.000253
0.000282
0.000259
0.000267
0.000268
0.000235
0.000265
0.000260
0.000259
0.000264
0.000486
0.000315
0.000352
0.000250
0.000186
0.000056
0.000188
0.000251
0.000255
0.001588
0.000428
0.000348
0.000221
0.000240
0.000257
0.000268
0.000279
0.000273
0.000237
0.000254
0.000228
0.000282
0.000444
0.001270
0.000252
0.000231
0.001495
0.000287
0.000675
0.000314
0.000344
0.000227
0.000273
0.000480
0.000226
0.000261
0.000202
0.000055
0.000290
0.000215
0.000245
0.000248
0.000245
0.000261
0.000237
0.000256
0.000253
0.000253
0.000240
0.000275
0.000314
0.000524
0.001628
0.001491
0.000352
0.000557
0.000319
0.000222
0.000230
0.000263
0.000249
0.000266
0.000248
0.000269
0.000256
0.000267
0.001535
0.000315
0.000172
0.000055
0.000218
0.000348
0.000353
0.000332
0.000257
0.000206
0.000250
0.000375
0.000441
0.000332
0.002183
0.000311
0.000769
0.000417
0.000481
0.000255
0.000333
0.000396
0.000330
0.000275
0.000404
0.000275
0.001518
0.000528
0.000224
0.000255
0.000255
0.000260
0.000258
0.000273
0.000201
0.000057
0.000198
0.000251
0.000256
0.000249
0.000241
0.001665
0.000881
0.001000
0.000205
0.000231
0.000260
0.000255
0.000262
0.000260
0.000248
0.000251
0.000254
0.000268
0.000264
0.000283
0.001427
0.000316
0.000252
0.000223
0.000240
0.000259
0.000263
0.000287
0.000260
0.000285
0.001910
0.000055
0.000193
0.000232
0.001544
0.000957
0.000301
0.000357
0.000215
0.000237
0.000246
0.000258
0.000243
0.000253
0.000244
0.001986
0.000472
0.000219
0.000245
0.000250
0.000274
0.000256
0.000195
