0.000098
0.018685
0.002845
0.000322
0.000243
0.000282
0.000303
0.000252
0.000330
0.000285
0.000245
0.000350
0.000471
0.000498
0.000347
0.000419
0.000267
0.000345
0.000346
0.000416
0.000313
0.001902
0.000724
0.000247
0.000251
0.000308
0.000302
0.000329
0.000434
0.000356
0.000509
0.000352
0.000055
0.000207
0.000271
0.000273
0.000260
0.000270
0.000252
0.000279
0.000257
0.000276
0.000298
0.000456
0.000402
0.000320
0.000250
0.000417
0.000305
0.000360
0.000256
0.000248
0.001694
0.000323
0.000258
0.000450
0.000239
0.000287
0.000270
0.000284
0.000304
0.000271
0.000319
0.000392
0.000056
0.000254
0.000255
0.000262
0.000259
0.000257
0.000238
0.000268
0.000252
0.000289
0.001668
0.000224
0.000241
0.000272
0.000268
0.000276
0.000247
0.000267
0.000255
0.000361
0.001795
0.000234
0.000278
0.000449
0.000465
0.000351
0.000243
0.000301
0.000528
0.000498
0.000662
0.000182
0.000056
0.000232
0.000250
0.000254
0.000237
0.000306
0.000268
0.000275
0.000556
0.000394
0.000256
0.000252
0.000250
0.000240
0.000252
0.000253
0.000260
0.000244
0.000271
0.000296
0.000318
0.001677
0.000275
0.000262
0.000404
0.000657
0.000342
0.000669
0.000517
0.000362
0.000232
0.000194
0.000055
0.000235
0.000248
0.000262
0.000244
0.000255
0.000256
0.000273
0.000503
0.001426
0.000212
0.000248
0.000242
0.000259
0.000253
0.000265
0.000289
0.000300
0.000771
0.001397
0.000279
0.000455
0.000262
0.000211
0.000237
0.000262
0.000248
0.000284
0.000254
0.000258
0.000270
0.000202
0.000055
0.000196
0.000251
0.000241
0.000270
0.000231
0.000246
0.000260
0.000233
0.000236
0.000261
0.001623
0.000269
0.000234
0.000241
0.000252
0.000254
0.000244
0.000265
0.000235
0.000255
0.000273
0.001658
0.000291
0.000252
0.000440
0.000253
0.000263
0.000246
0.000268
0.000269
0.000201
0.000055
0.000205
0.000227
0.000252
0.000245
0.000246
0.000248
0.000261
0.000235
0.000261
0.000240
0.000274
0.000252
0.000258
0.000274
0.001636
0.000283
0.000296
0.000213
0.000252
0.000273
0.000263
0.000242
0.000243
0.000259
0.001790
0.000356
0.000380
0.000349
0.000262
0.000279
0.000189
0.000055
0.000243
0.000224
0.000246
0.000268
0.000254
0.000241
0.000343
0.000342
0.000415
0.000444
0.000198
0.000245
0.000252
0.000250
0.001565
0.000528
0.000338
0.000462
0.000254
0.000227
0.000268
0.000282
0.000269
0.001725
0.000522
0.000470
0.000251
0.000250
0.000235
0.000265
0.000186
0.000057
0.000187
0.000235
0.000253
0.000268
0.000344
0.000509
0.000321
0.000256
0.000218
0.000250
0.000259
0.000238
0.000255
0.001716
0.000480
0.000292
0.000227
0.000251
0.000275
0.000286
0.000242
0.000261
0.000270
0.001926
0.000273
0.000386
0.000260
0.000242
0.000267
0.000409
0.000329
0.000055
0.000203
0.000391
0.000332
0.000314
0.000244
0.000254
0.000248
0.000262
0.000235
0.000241
0.000228
0.000249
0.001551
0.000339
0.000336
0.000219
0.000263
0.000252
0.000243
0.000280
0.000328
0.000286
0.000237
0.001848
0.000222
0.000492
0.000246
0.000249
0.000264
0.000265
0.000272
0.000056
0.000311
0.000586
0.000604
0.000219
0.000224
0.000277
0.000229
0.000220
0.000269
0.000251
0.000247
0.001704
0.000241
0.000439
0.000375
0.000221
0.000244
0.000223
0.000252
0.000262
0.000271
0.001889
0.000191
0.000239
0.002081
0.000552
0.000325
0.000246
0.000257
0.000270
0.000179
0.000056
0.000202
0.000248
0.000240
0.000245
0.000258
0.001623
0.000246
0.000237
0.000253
0.000250
0.000244
0.000245
0.000261
0.000246
0.000274
0.000414
0.000642
0.000240
0.000232
0.000268
0.000265
0.000254
0.000251
0.000420
0.000442
0.000286
0.000333
0.000567
0.000431
0.000259
0.000205
0.000055
0.000222
0.000237
0.000252
0.000251
0.000237
0.000242
0.000235
0.000413
0.000435
0.001707
0.000222
0.000241
0.000234
0.000250
0.000258
0.000484
0.000293
0.000431
0.000323
0.000244
0.000251
0.000299
0.000290
0.000257
0.000267
0.000437
0.000347
0.000563
0.000510
0.000441
0.000173
0.000055
0.000218
0.000265
0.000234
0.000230
0.000242
0.000236
0.000248
0.000251
0.000237
0.000294
0.000335
0.000543
0.001286
0.000266
0.000219
0.000241
0.000259
0.000250
0.000243
0.000284
0.000241
0.000544
0.000348
0.000253
0.000261
0.000261
0.000254
0.000272
0.000264
0.000266
0.000378
0.000055
0.000198
0.000235
0.000228
0.000314
0.000489
0.000438
0.000233
0.000258
0.000232
0.000263
0.000244
0.000237
0.000297
0.000250
0.000239
0.000473
0.000452
0.001621
0.000273
0.000231
0.000260
0.000267
0.000261
0.000241
0.000256
0.000548
0.000345
0.000480
0.000312
0.000231
0.000194
0.000055
0.000228
0.000430
0.000236
0.000216
0.000267
0.000241
0.000464
0.000401
0.000352
0.000294
0.000223
0.000275
0.000265
0.000241
0.000519
0.000341
0.000223
0.000338
0.000368
0.001589
0.000277
0.000255
0.000504
0.000239
0.000280
0.000286
0.000246
0.000390
0.000508
0.000378
0.000268
0.000055
0.000196
0.000240
0.000230
0.000247
0.000417
0.000302
0.000294
0.000221
0.000392
0.000440
0.000410
0.000267
0.000231
0.000250
0.000260
0.000266
0.000256
0.000255
0.000222
0.000353
0.000294
0.000333
0.001843
0.000243
0.000258
0.000254
0.000290
0.000348
0.000414
0.000705
0.000482
0.000056
0.000219
0.000331
0.000283
0.000423
0.000399
0.000201
0.000257
0.000337
0.000455
0.000429
0.000255
0.000244
0.000237
0.000270
0.000268
0.000232
0.000260
0.000266
0.000266
0.000260
0.000266
0.000498
0.000575
0.001337
0.000325
0.000435
0.000419
0.000253
0.000413
0.000418
0.000325
0.000056
0.000232
0.000379
0.000275
0.000201
0.000232
0.000242
0.000417
0.000238
0.000229
0.000477
0.000312
0.000448
0.000247
0.000253
0.000265
0.000250
0.000362
0.000389
0.000359
0.000234
0.000240
0.000485
0.000521
0.001696
0.000228
0.000460
0.000288
0.000237
0.000283
0.000437
0.000302
0.000057
0.000213
0.000225
0.000245
0.000250
0.000242
0.000256
0.000249
0.000321
0.000466
0.000325
0.000395
0.000396
0.000273
0.000566
0.000243
0.000243
0.000270
0.000265
0.000232
0.000351
0.000228
0.000243
0.000272
0.000499
0.000369
0.001696
0.000265
0.000239
0.000233
0.000277
0.000188
0.000056
0.000351
0.000422
0.000331
0.000230
0.000239
0.000267
0.000244
0.000233
0.000262
0.000251
0.000224
0.000248
0.000439
0.000514
0.000389
0.000292
0.000233
0.000249
0.000353
0.000383
0.000383
0.000361
0.000388
0.000331
0.000243
0.000263
0.000262
0.000277
0.001786
0.000251
0.000212
0.000055
0.000211
0.000218
0.000255
0.000281
0.000355
0.000549
0.000309
0.000209
0.000260
0.000266
0.000248
0.000243
0.000520
0.000454
0.000476
0.000280
0.000270
0.000263
0.000423
0.000471
0.000352
0.000399
0.000463
0.000470
0.000239
0.000254
0.000268
0.000243
0.000264
0.001711
0.000308
0.000055
0.000246
0.000320
0.000212
0.000238
0.000249
0.000253
0.000240
0.000499
0.000370
0.000312
0.000294
0.000260
0.000337
0.000733
0.000281
0.000232
0.000247
0.000271
0.000241
0.000262
0.000264
0.000268
0.000247
0.000264
0.000324
0.000383
0.000381
0.000355
0.000224
0.000259
0.000191
0.000056
0.000455
0.000296
0.000461
0.000253
0.000200
0.000250
0.000244
0.000256
0.000247
0.000211
0.000254
0.000285
0.000290
0.000449
0.000419
0.000496
0.000321
0.000305
0.000391
0.000335
0.000298
0.000239
0.000248
0.000257
0.001752
0.000253
0.001728
0.001041
0.000287
0.000324
0.000163
0.000055
0.000230
0.000230
0.000236
0.000244
0.000255
0.000254
0.000251
0.000248
0.000254
0.000282
0.000418
0.000401
0.000337
0.000379
0.000259
0.000250
0.000254
0.000284
0.000246
0.000236
0.000247
0.000264
0.001809
0.000249
0.000245
0.000266
0.000278
0.000269
0.001906
0.000487
0.000245
0.000057
0.000234
0.000204
0.000240
0.000240
0.000254
0.000252
0.000242
0.000255
0.000251
0.000431
0.000538
0.000457
0.000242
0.000202
0.000235
0.000262
0.000325
0.000442
0.000369
0.000260
0.001768
0.000258
0.000248
0.000246
0.000260
0.000273
0.000236
0.000258
0.000331
0.000302
0.000373
0.000055
0.000239
0.000206
0.000239
0.000255
0.000248
0.000245
0.000254
0.000254
0.000258
0.000240
0.000240
0.000295
0.000415
0.000324
0.000409
0.000221
0.000455
0.000248
0.000247
0.000254
0.000264
0.000252
0.000279
0.000258
0.000276
0.001795
0.000239
0.000252
0.000274
0.000227
0.000196
0.000056
0.000293
0.000347
0.000223
0.000221
0.000238
0.000245
0.000229
0.000259
0.000245
0.000227
0.000232
0.000267
0.000278
0.000428
0.000315
0.000387
0.000266
0.000236
0.000255
0.000247
0.000264
0.000258
0.000254
0.000279
0.000234
0.000267
0.000336
0.001601
0.000277
0.000238
0.000197
0.000056
0.000205
0.000231
0.000250
0.000270
0.000333
0.000491
0.000261
0.000321
0.000231
0.000254
0.000247
0.000244
0.000271
0.000232
0.000260
0.000259
0.000241
0.000258
0.000260
0.000261
0.000261
0.000270
0.000249
0.000233
0.000259
0.000266
0.000277
0.000261
0.000261
0.000254
0.000210
0.000075
0.000181
0.000234
0.000258
0.000257
0.000232
0.000258
0.000241
0.000261
0.000284
0.000241
0.000232
0.000243
0.000250
0.000250
0.000271
0.000280
0.000237
0.000254
0.000297
0.000250
0.000267
0.000297
0.000270
0.000247
0.000281
0.000275
0.000271
0.000251
0.000252
0.000431
0.000684
0.000056
0.000217
0.000288
0.000222
0.000233
0.000236
0.000250
0.000243
0.000243
0.000258
0.000237
0.000272
0.000300
0.000482
0.000478
0.001541
0.000225
0.000490
0.000232
0.000254
0.000486
0.000401
0.000386
0.000224
0.000281
0.000258
0.000260
0.000280
0.000249
0.000317
0.000246
0.000202
0.000054
0.000303
0.000471
0.000466
0.000201
0.000210
0.000250
0.000253
0.000243
0.000232
0.000246
0.000254
0.000259
0.000228
0.000300
0.000309
0.000472
0.000444
0.001793
0.000232
0.000256
0.000343
0.000413
0.000413
0.000335
0.000319
0.000314
0.000301
0.000229
0.000230
0.000257
0.000190
0.000054
0.000205
0.000235
0.000228
0.000289
0.000488
0.000330
0.000335
0.000257
0.000248
0.000217
0.000249
0.000270
0.000263
0.000262
0.000247
0.000263
0.000304
0.000513
0.000395
0.000358
0.000228
0.001752
0.000325
0.000486
0.000500
0.000485
0.000328
0.000224
0.000248
0.000272
0.000444
0.000056
0.000207
0.000256
0.000233
0.000344
0.000363
0.000492
0.000355
0.000215
0.000233
0.000293
0.000244
0.000259
0.000254
0.000302
0.000300
0.000234
0.000294
0.000359
0.000393
0.000376
0.000502
0.001846
0.000247
0.000436
0.000499
0.000369
0.000233
0.000252
0.000291
0.000268
0.000197
0.000055
0.000216
0.000342
0.000359
0.000352
0.000364
0.000308
0.000359
0.000209
0.000246
0.000260
0.000275
0.000233
0.000247
0.000244
0.000257
0.000263
0.000302
0.000409
0.000483
0.000384
0.000282
0.000227
0.000268
0.001712
0.000487
0.000429
0.000710
0.000230
0.000269
0.000305
0.000155
0.000055
0.000196
0.000240
0.000324
0.000253
0.000268
0.000353
0.000409
0.000342
0.000249
0.000511
0.000238
0.000239
0.000262
0.000276
0.000274
0.000263
0.000211
0.000465
0.000419
0.000379
0.000255
0.000243
0.000250
0.000252
0.000269
0.000266
0.000233
0.000256
0.000267
0.000287
0.000192
0.000055
0.000260
0.000340
0.000234
0.000250
0.000248
0.000258
0.000237
0.000297
0.000238
0.000245
0.000260
0.000357
0.000418
0.000359
0.000388
0.000270
0.000220
0.000256
0.000249
0.000263
0.000297
0.000254
0.000234
0.000255
0.000283
0.000367
0.000375
0.000428
0.000297
0.000224
0.000178
0.000072
0.000179
0.000220
0.000282
0.000242
0.000234
0.000249
0.000261
0.000257
0.000488
0.000214
0.000257
0.000257
0.000244
0.000260
0.000293
0.000256
0.000266
0.000357
0.000211
0.000248
0.000252
0.000260
0.000264
0.000265
0.000274
0.000258
0.000267
0.000255
0.000523
0.000243
0.000146
0.000055
0.000190
0.000233
0.000251
0.000268
0.000221
0.000247
0.000359
0.000408
0.000247
0.000232
0.000251
0.000251
0.000243
0.000220
0.000537
0.001727
0.000240
0.000259
0.000287
0.000381
0.000369
0.000355
0.000377
0.000358
0.000412
0.000409
0.000239
0.000269
0.000267
0.000278
0.001387
0.000055
0.000387
0.000331
0.000233
0.000217
0.000238
0.000253
0.000237
0.000253
0.000238
0.000272
0.000245
0.000272
0.000236
0.000276
0.000550
0.001641
0.000245
0.000230
0.000236
0.000264
0.000258
0.000327
0.000351
0.000317
0.000347
0.000308
0.000220
0.000269
0.000282
0.000253
0.000197
0.000055
0.001231
0.000522
0.000352
0.000243
0.000240
0.000222
0.000234
0.000237
0.000487
0.000225
0.000239
0.000250
0.000396
0.000486
0.000387
0.000343
0.000239
0.000231
0.000339
0.000359
0.000265
0.000261
0.000272
0.000242
0.000267
0.000575
0.000563
0.000265
0.000250
0.000264
0.000167
0.000056
0.000227
0.000214
0.000243
0.000262
0.001424
0.000327
0.000225
0.000256
0.000238
0.000249
0.000254
0.000255
0.000238
0.000263
0.000272
0.000298
0.000481
0.000590
0.000267
0.001751
0.000263
0.000275
0.000298
0.000454
0.000557
0.000361
0.000257
0.000250
0.000253
0.000273
0.000199
0.000056
0.000220
0.000250
0.000238
0.000302
0.001267
0.000234
0.000261
0.000261
0.000237
0.000239
0.000236
0.000248
0.000286
0.000248
0.000245
0.000333
0.000455
0.000384
0.000325
0.000266
0.000268
0.000270
0.000246
0.000238
0.000293
0.000263
0.000237
0.000280
0.000283
0.000422
0.000511
0.000055
0.000225
0.000249
0.000235
0.000261
0.000263
0.000243
0.000236
0.000258
0.000270
0.000250
0.001432
0.000227
0.000245
0.000251
0.000245
0.000246
0.000262
0.000283
0.000241
0.000272
0.000280
0.000475
0.000531
0.000322
0.000218
0.000278
0.001763
0.000253
0.000275
0.000322
0.000437
0.000056
0.000217
0.000395
0.000451
0.000503
0.000514
0.000588
0.001453
0.000408
0.000521
0.000656
0.000552
0.000685
0.000521
0.000617
0.000582
0.001895
0.000338
0.000481
0.000409
0.000316
0.000216
0.000311
0.000260
0.000262
0.000265
0.000290
0.000281
0.000287
0.000270
0.000281
0.001369
0.000055
0.000230
0.000226
0.000247
0.000238
0.000257
0.000254
0.000236
0.000247
0.000242
0.000254
0.000240
0.000240
0.000279
0.000227
0.000274
0.000264
0.001806
0.000276
0.000251
0.000248
0.000251
0.000275
0.000272
0.000257
0.000410
0.000427
0.000339
0.000237
0.000268
0.000274
0.000211
0.000055
0.000209
0.001356
0.000327
0.000265
0.000261
0.000236
0.000247
0.000232
0.000236
0.000243
0.000212
0.000251
0.000252
0.000502
0.000365
0.000283
0.000257
0.000264
0.001923
0.000248
0.000226
0.000268
0.000253
0.000271
0.000266
0.000292
0.000259
0.000256
0.000263
0.000322
0.000200
0.000055
0.000192
0.000237
0.000251
0.001441
0.000216
0.000246
0.000262
0.000240
0.000243
0.000262
0.000254
0.000246
0.000241
0.000260
0.000254
0.000259
0.000263
0.000287
0.000247
0.000252
0.000269
0.001771
0.000277
0.001768
0.000253
0.000241
0.000263
0.000276
0.000270
0.000270
0.000205
0.000056
0.000208
0.000244
0.001324
0.000227
0.000257
0.000250
0.000257
0.000254
0.000240
0.000253
0.000247
0.000245
0.000263
0.000265
0.000255
0.000259
0.000284
0.000265
0.000291
0.000231
0.001890
0.000235
0.001828
0.000237
0.000251
0.000279
0.000244
0.000242
0.000254
0.000264
0.000200
0.000055
0.001436
0.000232
0.000225
0.000239
0.000238
0.000242
0.000373
0.000271
0.000246
0.000254
0.000251
0.000260
0.000298
0.000291
0.000393
0.000307
0.000243
0.000270
0.000265
0.000244
0.000274
0.000345
0.000217
0.000254
0.000270
0.000280
0.000265
0.000315
0.000665
0.000382
0.000188
0.000056
0.000215
0.000249
0.000256
0.000310
0.000375
0.000251
0.001657
0.000341
0.000276
0.000269
0.000257
0.000265
0.000272
0.000258
0.000302
0.000300
0.000535
0.000422
0.000341
0.000263
0.000301
0.000280
0.000258
0.000264
0.000331
0.000260
0.000264
0.000253
0.000255
0.000301
0.000412
0.000056
0.000235
0.000475
0.000271
0.000265
0.000244
0.000229
0.000222
0.000250
0.000259
0.000257
0.001520
0.000226
0.000225
0.000249
0.000248
0.000284
0.000267
0.000244
0.000266
0.000265
0.000263
0.000433
0.000475
0.000327
0.000266
0.000282
0.000265
0.000261
0.000238
0.000308
0.000164
0.000055
0.000195
0.000229
0.000280
0.000471
0.000410
0.000239
0.000215
0.000245
0.000254
0.000253
0.000227
0.000253
0.000257
0.000264
0.000245
0.000271
0.000331
0.001249
0.000243
0.000246
0.000316
0.000212
0.000361
0.000415
0.000259
0.000304
0.000585
0.000361
0.000367
0.000239
0.000172
0.000056
0.000195
0.000249
0.000263
0.000259
0.000259
0.000242
0.000436
0.000339
0.000421
0.000294
0.000344
0.000391
0.000390
0.000362
0.000253
0.000248
0.000234
0.000264
0.000349
0.000499
0.001278
0.000216
0.000272
0.000276
0.000232
0.000236
0.000271
0.000318
0.000465
0.000392
0.000255
0.000055
0.000208
0.000236
0.000248
0.000237
0.000249
0.000247
0.000240
0.000255
0.000335
0.000335
0.000436
0.000364
0.000246
0.000231
0.000272
0.000239
0.000244
0.000264
0.000264
0.000249
0.000441
0.000264
0.000381
0.000346
0.000376
0.000248
0.000270
0.000268
0.000255
0.000340
0.000152
0.000055
0.000316
0.000311
0.000299
0.000368
0.000495
0.000316
0.000262
0.000240
0.000245
0.000278
0.000255
0.000263
0.000235
0.000251
0.000239
0.000228
0.000271
0.000353
0.000516
0.000329
0.000232
0.000270
0.000247
0.000259
0.000248
0.000285
0.000254
0.000269
0.000283
0.000269
0.000270
0.000056
0.000394
0.000208
0.000229
0.000250
0.000242
0.000268
0.000228
0.000270
0.000249
0.000259
0.000251
0.000236
0.000269
0.000503
0.000459
0.000276
0.000239
0.000246
0.000250
0.000274
0.000254
0.000259
0.000262
0.000264
0.000274
0.000279
0.000451
0.000597
0.000412
0.000248
0.000178
0.000056
0.000371
0.000209
0.000220
0.000252
0.000248
0.000249
0.000239
0.000248
0.000257
0.000266
0.000217
0.000243
0.000269
0.000232
0.000238
0.000271
0.000244
0.000263
0.000282
0.000257
0.000261
0.000266
0.000263
0.000258
0.000271
0.000240
0.000260
0.000279
0.000264
0.000275
0.000201
0.000057
0.000185
0.000238
0.000242
0.000252
0.000230
0.000257
0.000259
0.000240
0.000260
0.000277
0.000226
0.000237
0.000263
0.000399
0.000264
0.000265
0.000259
0.000268
0.000253
0.000276
0.000276
0.000231
0.000253
0.000252
0.000266
0.000278
0.000262
0.000234
0.000273
0.000263
0.000210
0.000055
0.000214
0.000360
0.000362
0.000280
0.000299
0.000258
0.000265
0.000256
0.000222
0.000246
0.000252
0.000260
0.000250
0.000242
0.000256
0.000255
0.000267
0.000266
0.000244
0.000266
0.000276
0.000268
0.000273
0.000261
0.000274
0.000248
0.000255
0.000271
0.000278
0.000250
0.000202
0.000055
0.000179
0.000224
0.000269
0.000263
0.000484
0.000212
0.000211
0.000250
0.000283
0.000406
0.000529
0.000288
0.000219
0.000254
0.000268
0.000268
0.000237
0.000269
0.000258
0.000262
0.000276
0.000259
0.000255
0.000259
0.000658
0.000404
0.000252
0.000305
0.000259
0.000268
0.000183
0.000056
0.000219
0.000228
0.000244
0.000252
0.000351
0.000672
0.000268
0.000384
0.000203
0.000244
0.000256
0.000252
0.000250
0.000255
0.000249
0.000272
0.000276
0.000324
0.000523
0.000404
0.000301
0.000246
0.000251
0.000288
0.000281
0.000255
0.000265
0.000267
0.000250
0.000334
0.000304
0.000055
0.000258
0.000233
0.000241
0.000234
0.000254
0.000258
0.000226
0.000245
0.000247
0.000258
0.000244
0.000271
0.000223
0.000370
0.000591
0.000389
0.000252
0.000254
0.000262
0.000247
0.000267
0.000270
0.000492
0.000225
0.000260
0.000620
0.000417
0.000460
0.000246
0.000252
0.000185
0.000055
0.000207
0.000237
0.000238
0.000242
0.000253
0.000261
0.000337
0.000721
0.000271
0.000415
0.000218
0.000263
0.000283
0.000267
0.000255
0.000247
0.000236
0.000252
0.000258
0.000397
0.000321
0.000654
0.000371
0.000256
0.000366
0.000370
0.000484
0.000252
0.000261
0.000325
0.000451
0.000055
0.000268
0.000231
0.000429
0.000234
0.000222
0.000256
0.000261
0.000258
0.000233
0.000240
0.000261
0.000411
0.000354
0.000351
0.000234
0.000240
0.000270
0.000238
0.000270
0.000273
0.000274
0.000258
0.000247
0.000273
0.000276
0.000521
0.000503
0.000218
0.000262
0.000269
0.000195
0.000055
0.000227
0.000255
0.000228
0.000246
0.000250
0.000252
0.000459
0.000377
0.000362
0.000278
0.000375
0.000229
0.000242
0.000267
0.000256
0.000236
0.000258
0.000262
0.000319
0.000372
0.000471
0.000367
0.000450
0.000277
0.000396
0.000426
0.000381
0.000238
0.000250
0.000271
0.000375
0.000055
0.000222
0.000277
0.000213
0.000257
0.000259
0.000253
0.000248
0.000249
0.000248
0.000264
0.000240
0.000417
0.000383
0.000382
0.000372
0.000223
0.000270
0.000265
0.000267
0.000233
0.000249
0.000254
0.000262
0.000280
0.000275
0.000390
0.000446
0.000469
0.000256
0.000255
0.000189
0.000057
0.000217
0.000244
0.000264
0.000243
0.000258
0.000336
0.000531
0.000461
0.000344
0.000684
0.000264
0.000215
0.000250
0.000257
0.000244
0.000266
0.000282
0.000273
0.000470
0.000448
0.001481
0.000318
0.000275
0.000263
0.000271
0.000267
0.000436
0.000365
0.000350
0.000339
0.000170
0.000056
0.000203
0.000236
0.000239
0.000250
0.000241
0.000256
0.000275
0.000249
0.000247
0.000334
0.000323
0.000388
0.000269
0.000350
0.000378
0.000342
0.000250
0.000243
0.000274
0.000260
0.000241
0.000255
0.000278
0.000245
0.000323
0.000428
0.000447
0.000295
0.000248
0.000267
0.000181
0.000055
0.000233
0.000248
0.000250
0.000263
0.000241
0.000234
0.000476
0.000210
0.000230
0.000256
0.000245
0.000252
0.000260
0.000254
0.000253
0.000266
0.000265
0.000265
0.000276
0.000252
0.000262
0.000284
0.000290
0.000253
0.000259
0.000284
0.000266
0.000264
0.000262
0.000280
0.000167
0.000055
0.000235
0.000243
0.000274
0.000439
0.000385
0.000249
0.000239
0.000263
0.000243
0.000245
0.000248
0.000253
0.000266
0.000266
0.000237
0.000249
0.000241
0.000266
0.000307
0.000333
0.000403
0.000429
0.000220
0.000259
0.000267
0.000262
0.000262
0.000249
0.000275
0.000277
0.000203
0.000054
0.000401
0.000404
0.000418
0.000210
0.000245
0.000256
0.000409
0.000222
0.000232
0.000254
0.000252
0.000302
0.000404
0.000382
0.001867
0.000242
0.000252
0.000245
0.000279
0.000240
0.000403
0.000392
0.000667
0.000236
0.000230
0.000260
0.000274
0.000430
0.000277
0.000277
0.000171
0.000054
0.000241
0.000346
0.000409
0.000269
0.000491
0.000208
0.000237
0.000244
0.000257
0.000240
0.000255
0.000245
0.000264
0.000394
0.000328
0.000479
0.000230
0.000243
0.000258
0.000278
0.000249
0.000321
0.000222
0.000284
0.000280
0.000447
0.000571
0.000328
0.000480
0.000223
0.000204
0.000055
0.000184
0.000232
0.000261
0.000220
0.000261
0.000243
0.000270
0.000271
0.000347
0.000422
0.000400
0.000339
0.000218
0.000251
0.000261
0.000280
0.000304
0.000236
0.000281
0.000274
0.000233
0.000260
0.000516
0.000388
0.000279
0.000241
0.000283
0.000415
0.000423
0.000312
0.000180
0.000055
0.000221
0.000230
0.000334
0.000543
0.000260
0.000213
0.000236
0.000251
0.000280
0.000231
0.000268
0.000255
0.000224
0.000258
0.000267
0.000298
0.000434
0.000312
0.000296
0.000350
0.000483
0.000231
0.000280
0.000278
0.000302
0.000279
0.000261
0.000254
0.000474
0.000502
0.000215
0.000055
0.000202
0.000226
0.000246
0.000268
0.000223
0.000485
0.000218
0.000250
0.000263
0.000347
0.000507
0.000558
0.000209
0.000242
0.000240
0.000255
0.000256
0.000249
0.000256
0.000250
0.000260
0.000273
0.000414
0.000330
0.000394
0.000404
0.000305
0.000298
0.000322
0.000239
0.000186
0.000055
0.000194
0.000231
0.000275
0.000474
0.000308
0.000305
0.000272
0.000219
0.000240
0.000258
0.000254
0.000246
0.000252
0.000255
0.000261
0.000253
0.000254
0.000246
0.000252
0.000391
0.000630
0.000282
0.000223
0.000250
0.000281
0.000292
0.000243
0.000253
0.000270
0.000264
0.000187
0.000054
0.000301
0.000333
0.000464
0.000251
0.000230
0.000239
0.000322
0.000456
0.000278
0.000218
0.000242
0.000276
0.000263
0.000436
0.000433
0.000289
0.000235
0.000236
0.000256
0.000263
0.000268
0.000268
0.000262
0.000273
0.000255
0.000325
0.000427
0.000351
0.000317
0.000253
0.000181
0.000055
0.000214
0.000234
0.000247
0.000254
0.000250
0.000266
0.000233
0.000250
0.000251
0.000247
0.000263
0.000239
0.000265
0.001446
0.000252
0.000235
0.000266
0.000242
0.000278
0.000276
0.000262
0.000241
0.000278
0.000257
0.000268
0.000265
0.000268
0.000269
0.000260
0.000286
0.000175
0.000056
0.000206
0.000234
0.000251
0.000254
0.000236
0.000241
0.000260
0.000259
0.000232
0.000248
0.000243
0.000265
0.000257
0.000255
0.000254
0.000259
0.000248
0.000257
0.000278
0.000249
0.000258
0.000264
0.000244
0.000248
0.001293
0.000288
0.000640
0.000395
0.000296
0.000245
0.000190
0.000055
0.000225
0.000231
0.000243
0.000255
0.000411
0.000235
0.000260
0.000226
0.000253
0.000365
0.000436
0.000350
0.000234
0.000244
0.000254
0.000261
0.000255
0.000269
0.000242
0.000257
0.000262
0.000262
0.000257
0.000461
0.000478
0.000452
0.000219
0.000264
0.001374
0.000245
0.000176
0.000055
0.000345
0.000400
0.000333
0.000261
0.000223
0.000236
0.000230
0.000253
0.000257
0.000260
0.000243
0.000259
0.000289
0.000370
0.000477
0.000347
0.000331
0.000227
0.000249
0.000263
0.000260
0.000264
0.000288
0.000246
0.000272
0.000262
0.000329
0.000616
0.000298
0.000390
0.000144
0.000055
0.000214
0.000237
0.001253
0.000456
0.000275
0.000471
0.000364
0.000491
0.000272
0.000341
0.000227
0.000229
0.000259
0.000257
0.000251
0.000260
0.000377
0.000489
0.000399
0.000338
0.000253
0.000248
0.000259
0.000497
0.000244
0.000264
0.000253
0.000279
0.000300
0.000557
0.000317
0.000055
0.000386
0.000310
0.000236
0.000222
0.001580
0.000527
0.000217
0.000253
0.000244
0.000255
0.000227
0.000238
0.000244
0.000270
0.000250
0.000264
0.000235
0.000256
0.000414
0.000358
0.000493
0.000244
0.000253
0.000252
0.000257
0.000279
0.000269
0.000237
0.000266
0.000278
0.000228
0.000056
0.000462
0.000247
0.000231
0.000229
0.000252
0.000244
0.000245
0.000245
0.000231
0.000234
0.001436
0.000433
0.000291
0.000219
0.000249
0.000256
0.000275
0.000259
0.000240
0.000276
0.000267
0.000251
0.000265
0.000471
0.000325
0.000486
0.000240
0.000265
0.000279
0.000277
0.000176
0.000055
0.000219
0.000414
0.000219
0.000242
0.000459
0.000335
0.000325
0.000355
0.000469
0.000199
0.000232
0.000252
0.000261
0.000263
0.000260
0.001382
0.000397
0.000281
0.000242
0.000269
0.000285
0.000249
0.000254
0.000262
0.000249
0.000274
0.000503
0.000394
0.000280
0.000290
0.000152
0.000055
0.000208
0.000229
0.000256
0.000237
0.000227
0.000259
0.000241
0.000248
0.000316
0.000354
0.000406
0.000309
0.000250
0.000244
0.000241
0.000283
0.000261
0.000264
0.000270
0.000225
0.000257
0.000347
0.001229
0.000278
0.000231
0.000243
0.000262
0.000263
0.000263
0.000260
0.000188
0.000055
0.000215
0.000349
0.000361
0.000378
0.000227
0.000237
0.000259
0.000266
0.000253
0.000251
0.000252
0.000271
0.000245
0.000253
0.000257
0.000263
0.000259
0.000271
0.000274
0.000241
0.000253
0.000284
0.000259
0.000278
0.000289
0.000263
0.000271
0.000253
0.000261
0.000444
0.001360
0.000069
0.000204
0.000233
0.000242
0.000239
0.000254
0.000260
0.000247
0.000225
0.000247
0.000251
0.000273
0.000255
0.000251
0.000245
0.000251
0.000243
0.001731
0.000242
0.000250
0.000262
0.000243
0.000261
0.000271
0.000262
0.000278
0.000273
0.000251
0.000276
0.000267
0.000255
0.000217
0.000055
0.000376
0.000279
0.001303
0.000246
0.000215
0.000248
0.000256
0.000249
0.000263
0.000256
0.000231
0.000336
0.000402
0.000443
0.000284
0.000230
0.000242
0.000255
0.000257
0.000266
0.000248
0.000259
0.000275
0.000280
0.000259
0.000420
0.000333
0.000371
0.000325
0.000236
0.000200
0.000056
0.000206
0.000251
0.000244
0.000246
0.000253
0.000226
0.000235
0.000245
0.000439
0.001330
0.000272
0.000211
0.000243
0.000270
0.000258
0.000267
0.000258
0.000249
0.000330
0.000386
0.000424
0.000225
0.000247
0.000251
0.000280
0.000279
0.000264
0.000294
0.000270
0.000275
0.000195
0.000056
0.000287
0.000380
0.000389
0.000236
0.000215
0.000239
0.000245
0.000299
0.000244
0.000249
0.000231
0.000248
0.000454
0.000559
0.000411
0.001457
0.000248
0.000263
0.000328
0.000356
0.000511
0.000419
0.000551
0.000290
0.000228
0.000262
0.000267
0.000280
0.000259
0.000271
0.000199
0.000056
0.000213
0.000252
0.000451
0.000510
0.000322
0.000238
0.000257
0.000219
0.000249
0.000259
0.000254
0.000263
0.000264
0.000244
0.000262
0.000378
0.000314
0.000393
0.000375
0.001323
0.000246
0.000253
0.000260
0.000258
0.000490
0.000426
0.000389
0.000234
0.000270
0.000271
0.000188
0.000055
0.000214
0.000252
0.000226
0.000245
0.000250
0.000275
0.000449
0.000382
0.000381
0.000218
0.000239
0.000262
0.000269
0.000258
0.000260
0.000283
0.000244
0.000255
0.000271
0.000301
0.000437
0.000435
0.000324
0.001336
0.000425
0.000227
0.000278
0.000433
0.000464
0.000343
0.000282
0.000055
0.000195
0.000236
0.000255
0.000239
0.000250
0.000257
0.001678
0.000241
0.000224
0.000237
0.000257
0.000244
0.000255
0.000328
0.000327
0.000302
0.000269
0.000321
0.000536
0.000341
0.000311
0.000279
0.000231
0.000247
0.001516
0.000489
0.000245
0.000465
0.000336
0.000288
0.000170
0.000055
0.000196
0.000247
0.000255
0.000257
0.000244
0.000258
0.001713
0.000241
0.000235
0.000265
0.000329
0.000405
0.001444
0.000356
0.000403
0.000237
0.000261
0.000237
0.000263
0.000269
0.001562
0.000516
0.000420
0.000299
0.000237
0.000240
0.000266
0.000281
0.000248
0.000246
0.000193
0.000056
0.000206
0.000239
0.000291
0.000222
0.000264
0.000274
0.000276
0.000257
0.000251
0.000251
0.000251
0.000249
0.000266
0.000269
0.000251
0.001497
0.000283
0.000231
0.000259
0.000280
0.000269
0.000257
0.000434
0.001269
0.000274
0.000235
0.000273
0.000248
0.000403
0.000245
0.000200
0.000056
0.000214
0.000256
0.000219
0.000244
0.000241
0.000229
0.000234
0.001697
0.000259
0.000225
0.000243
0.000378
0.000223
0.000224
0.000252
0.001392
0.000226
0.000265
0.000270
0.000246
0.000255
0.000355
0.000277
0.001304
0.000286
0.000252
0.000251
0.000262
0.001387
0.000275
0.000252
0.000056
0.000261
0.000314
0.000221
0.000226
0.000245
0.000247
0.000263
0.000266
0.000266
0.000246
0.000260
0.000266
0.000252
0.000245
0.000306
0.001504
0.000243
0.000275
0.000253
0.000247
0.000287
0.000256
0.000254
0.001524
0.000341
0.000234
0.000263
0.001276
0.000312
0.000205
0.000224
0.000055
0.000221
0.000369
0.000349
0.000213
0.000233
0.000242
0.000262
0.000258
0.000263
0.000271
0.000238
0.000258
0.000255
0.000251
0.000425
0.001229
0.000237
0.000246
0.000268
0.000278
0.000225
0.000248
0.000247
0.000329
0.001306
0.000232
0.000231
0.000266
0.001352
0.000351
0.000262
0.000055
0.000340
0.000231
0.000221
0.000237
0.000241
0.000250
0.000246
0.000247
0.000275
0.000254
0.000239
0.000252
0.000253
0.000329
0.000413
0.001477
0.000206
0.000258
0.000297
0.000512
0.000290
0.000356
0.001379
0.000286
0.000256
0.000271
0.000246
0.001300
0.000316
0.000524
0.000318
0.000055
0.000240
0.000249
0.000255
0.000255
0.000251
0.000250
0.000277
0.000244
0.000264
0.000261
0.000300
0.000497
0.001324
0.000243
0.000268
0.000257
0.000282
0.000218
0.000247
0.000246
0.000329
0.001251
0.000255
0.000243
0.000257
0.000246
0.001506
0.000444
0.000465
0.000228
0.000189
0.000072
0.000177
0.000227
0.000253
0.000243
0.000243
0.000266
0.000240
0.000253
0.000457
0.000460
0.000301
0.001463
0.000210
0.000246
0.000264
0.000254
0.000260
0.000277
0.001701
0.000258
0.000397
0.000336
0.001262
0.000432
0.000258
0.000319
0.000254
0.000265
0.000257
0.000269
0.000194
0.000056
0.000204
0.000234
0.000333
0.000235
0.000320
0.000523
0.000308
0.000307
0.001463
0.000232
0.000390
0.000262
0.000224
0.000388
0.000308
0.001315
0.000280
0.000223
0.000252
0.000269
0.001531
0.000396
0.000241
0.000280
0.000273
0.000242
0.000458
0.000360
0.000225
0.000230
0.000253
0.000055
0.000239
0.000391
0.000337
0.000238
0.000228
0.001528
0.000207
0.000252
0.000269
0.000270
0.000264
0.000243
0.000331
0.001456
0.000263
0.000219
0.000436
0.001193
0.000426
0.000349
0.000404
0.000234
0.000248
0.000259
0.000271
0.000243
0.000457
0.000227
0.000260
0.000280
0.000196
0.000056
0.000209
0.000234
0.000388
0.000489
0.001170
0.000275
0.000308
0.000234
0.000242
0.000249
0.000248
0.000333
0.001482
0.000257
0.000235
0.000247
0.001379
0.000329
0.000368
0.000427
0.000394
0.000234
0.000248
0.000256
0.000266
0.000281
0.000270
0.000253
0.000270
0.000249
0.000192
0.000056
0.000197
0.000363
0.001503
0.000204
0.000269
0.000273
0.000246
0.000246
0.000264
0.000536
0.001243
0.000221
0.000251
0.000258
0.000261
0.001363
0.000600
0.000305
0.000313
0.000413
0.000302
0.000237
0.000267
0.000265
0.000269
0.000286
0.000270
0.000311
0.000374
0.000486
0.001383
0.000056
0.000213
0.000247
0.000246
0.000224
0.000247
0.000403
0.000491
0.001314
0.000236
0.000236
0.000246
0.001458
0.000400
0.000344
0.000219
0.000413
0.000247
0.000242
0.000262
0.000274
0.000245
0.000276
0.000283
0.000249
0.000254
0.000290
0.000464
0.000458
0.001492
0.000231
0.000178
0.000056
0.000216
0.000255
0.000391
0.000453
0.001306
0.000260
0.000254
0.000254
0.000243
0.000254
0.000250
0.000287
0.000342
0.000482
0.000351
0.000233
0.000259
0.000274
0.000257
0.000263
0.000254
0.000267
0.000254
0.000269
0.000314
0.000415
0.000380
0.000372
0.000320
0.001402
0.000180
0.000055
0.000203
0.000242
0.000363
0.000382
0.000318
0.000317
0.000319
0.000326
0.000284
0.000265
0.000236
0.000265
0.000257
0.000305
0.000235
0.000290
0.000599
0.000273
0.000295
0.000383
0.000273
0.000412
0.000222
0.000246
0.000261
0.000265
0.000247
0.000299
0.000360
0.000493
0.000290
0.000055
0.000206
0.001404
0.000231
0.000338
0.000472
0.000432
0.000284
0.000331
0.000213
0.000242
0.000270
0.000245
0.000262
0.000274
0.000258
0.000257
0.000262
0.001373
0.000251
0.000245
0.000260
0.000270
0.000268
0.000280
0.000277
0.000250
0.000276
0.000244
0.000337
0.000411
0.000313
0.000055
0.000208
0.000256
0.000225
0.001501
0.000318
0.000241
0.000224
0.000252
0.000226
0.000241
0.000263
0.000269
0.000247
0.000253
0.000270
0.000251
0.000263
0.000260
0.000253
0.000261
0.001428
0.000238
0.000241
0.000281
0.000252
0.000249
0.000267
0.000285
0.000256
0.000484
0.000345
0.000055
0.000207
0.000237
0.000393
0.000279
0.000250
0.000247
0.001539
0.000426
0.000221
0.000214
0.000259
0.000308
0.000343
0.000224
0.000229
0.000250
0.000246
0.000263
0.000262
0.000274
0.000464
0.000511
0.001123
0.000267
0.000234
0.000263
0.000266
0.000258
0.000278
0.000264
0.000511
0.000057
0.000177
0.000347
0.000199
0.000242
0.000249
0.000241
0.000244
0.000229
0.000289
0.001647
0.000324
0.000294
0.000229
0.000258
0.000258
0.000246
0.000258
0.000271
0.000265
0.000313
0.000325
0.000467
0.000448
0.001376
0.000224
0.000263
0.000274
0.000257
0.000276
0.000269
0.000551
0.000056
0.000238
0.000236
0.000243
0.000238
0.000221
0.000245
0.000258
0.000256
0.000265
0.001568
0.000357
0.000258
0.000262
0.000258
0.000460
0.000267
0.000526
0.000376
0.000300
0.000330
0.000419
0.000460
0.001287
0.000262
0.000236
0.000259
0.001724
0.000422
0.000635
0.000309
0.000150
0.000056
0.000187
0.000237
0.000237
0.000233
0.000261
0.000238
0.000245
0.000642
0.000341
0.000443
0.000283
0.000219
0.000238
0.000268
0.000262
0.000267
0.000237
0.000258
0.000253
0.000273
0.000313
0.000407
0.001316
0.000223
0.000247
0.000273
0.001906
0.000383
0.000374
0.000350
0.000161
0.000055
0.000203
0.000236
0.001508
0.000299
0.000422
0.000222
0.000235
0.000259
0.000253
0.000288
0.000380
0.000379
0.000360
0.000266
0.000311
0.000522
0.000372
0.001204
0.000275
0.000232
0.000253
0.000262
0.000275
0.000403
0.000675
0.000399
0.000252
0.000272
0.000263
0.000284
0.000190
0.000055
0.000191
0.000236
0.000243
0.001539
0.000258
0.000228
0.000240
0.000249
0.000241
0.000257
0.000256
0.000268
0.000266
0.000276
0.000236
0.000394
0.000486
0.000275
0.001402
0.000253
0.000245
0.000269
0.000252
0.000261
0.000409
0.000467
0.000432
0.000280
0.000283
0.000225
0.000442
0.000055
0.000222
0.000239
0.000251
0.001546
0.000302
0.000222
0.000264
0.000238
0.000257
0.000258
0.000254
0.000254
0.000256
0.000255
0.000422
0.000482
0.001391
0.000762
0.000263
0.000320
0.000256
0.000234
0.000243
0.000276
0.001677
0.000809
0.000232
0.000263
0.000271
0.000286
0.000187
0.000055
0.000230
0.000219
0.000256
0.000242
0.000256
0.000241
0.000247
0.000253
0.000245
0.000226
0.000298
0.000281
0.000255
0.000244
0.000265
0.000248
0.000271
0.001592
0.000741
0.000370
0.000295
0.000230
0.000236
0.000280
0.000274
0.000256
0.000273
0.000251
0.001385
0.000399
0.000310
0.000056
0.000197
0.000224
0.000254
0.000251
0.000263
0.000229
0.000253
0.000250
0.000253
0.000262
0.000287
0.000470
0.000402
0.000317
0.000216
0.000230
0.000271
0.001394
0.000690
0.000501
0.000309
0.000267
0.000228
0.000257
0.000291
0.000229
0.000265
0.000258
0.001491
0.000419
0.000210
0.000055
0.000206
0.000232
0.000243
0.000244
0.000246
0.000254
0.000232
0.000251
0.000272
0.000258
0.000385
0.000437
0.000262
0.000218
0.000241
0.000245
0.000262
0.000276
0.001579
0.000595
0.000473
0.000313
0.000234
0.000261
0.000260
0.000276
0.000244
0.000288
0.000267
0.001348
0.000337
0.000055
0.000232
0.000210
0.000243
0.000252
0.000272
0.000229
0.000263
0.000299
0.000360
0.000469
0.000399
0.000316
0.000369
0.000223
0.000245
0.000255
0.000270
0.000278
0.000246
0.001942
0.000313
0.000236
0.000440
0.000250
0.000244
0.000261
0.000274
0.000261
0.000267
0.000271
0.000492
0.000056
0.000234
0.000282
0.000231
0.000241
0.000248
0.000252
0.000224
0.000240
0.000276
0.000250
0.000245
0.000239
0.000372
0.000428
0.000413
0.000429
0.000220
0.000262
0.000257
0.000246
0.000264
0.000296
0.001455
0.001062
0.000213
0.000246
0.000270
0.000265
0.000296
0.000248
0.000182
0.000056
0.000210
0.001337
0.000293
0.000205
0.000240
0.000251
0.000254
0.000237
0.000243
0.000254
0.000254
0.000264
0.000236
0.000400
0.000372
0.000431
0.000284
0.000249
0.000263
0.000260
0.000267
0.000239
0.000255
0.000270
0.001312
0.000696
0.000307
0.000380
0.000381
0.000397
0.000297
0.000055
0.000183
0.000237
0.000379
0.001309
0.000204
0.000252
0.000235
0.000257
0.000254
0.000258
0.000243
0.000251
0.000274
0.000375
0.000526
0.000310
0.000232
0.000283
0.000326
0.000208
0.000263
0.000258
0.000236
0.000273
0.000295
0.001504
0.000754
0.000293
0.000273
0.000273
0.000194
0.000055
0.000232
0.000312
0.000389
0.000362
0.001269
0.000252
0.000229
0.000233
0.000230
0.000251
0.000246
0.000257
0.000226
0.000242
0.000258
0.000251
0.000266
0.000241
0.000249
0.000266
0.000261
0.000269
0.000314
0.000314
0.000221
0.000269
0.000283
0.001447
0.000262
0.000235
0.000189
0.000055
0.000202
0.000229
0.000266
0.000251
0.000352
0.000381
0.000390
0.000272
0.001579
0.000238
0.000283
0.000527
0.000317
0.000257
0.000417
0.000243
0.000229
0.000261
0.000275
0.000268
0.000280
0.000267
0.000252
0.000273
0.000245
0.000428
0.000377
0.000328
0.001595
0.000219
0.000194
0.000056
0.000201
0.000250
0.000248
0.000244
0.000243
0.000245
0.000267
0.000273
0.000434
0.002068
0.000218
0.000232
0.000252
0.000265
0.000256
0.000253
0.000268
0.000261
0.000258
0.000442
0.000352
0.000479
0.001441
0.000255
0.000525
0.000232
0.001770
0.000235
0.000268
0.001522
0.000157
0.000056
0.000397
0.000338
0.000482
0.000236
0.000264
0.000222
0.000263
0.000269
0.000262
0.000227
0.000252
0.000334
0.000422
0.000343
0.000465
0.000209
0.000234
0.001569
0.000232
0.000590
0.001860
0.000295
0.000233
0.001585
0.001987
0.000739
0.000277
0.000255
0.000268
0.000452
0.000391
0.000055
0.000183
0.000257
0.000234
0.000254
0.001415
0.001735
0.001077
0.000203
0.000238
0.001579
0.001986
0.000203
0.000243
0.000431
0.000335
0.000429
0.000348
0.000446
0.000208
0.000238
0.000244
0.000276
0.000257
0.001591
0.001203
0.001435
0.000264
0.000302
0.000248
0.000318
0.000349
0.000056
0.000221
0.000230
0.000241
0.000242
0.000225
0.000250
0.000246
0.000255
0.000255
0.000245
0.000241
0.000313
0.000509
0.000392
0.000310
0.000236
0.000247
0.000271
0.000270
0.000261
0.000272
0.000250
0.001536
0.000455
0.002111
0.000234
0.000275
0.000342
0.000444
0.000355
0.000197
0.000055
0.000191
0.000549
0.000301
0.000313
0.000190
0.000230
0.000256
0.000241
0.000247
0.000243
0.000241
0.000264
0.000293
0.001573
0.001355
0.001235
0.000268
0.000253
0.000236
0.000269
0.000279
0.000280
0.000241
0.000259
0.002199
0.000238
0.000258
0.000304
0.000327
0.000307
0.000218
0.000055
0.000228
0.000345
0.000554
0.000336
0.000239
0.000226
0.000246
0.000268
0.001895
0.001437
0.000209
0.000337
0.000383
0.000412
0.000264
0.000208
0.000269
0.000269
0.000262
0.000271
0.000257
0.000260
0.000474
0.000232
0.000270
0.000277
0.000243
0.000276
0.000284
0.000243
0.000208
0.000055
0.000213
0.000240
0.000256
0.000237
0.000253
0.000272
0.001552
0.001411
0.001328
0.000232
0.000240
0.000236
0.000265
0.000259
0.000244
0.000257
0.000249
0.002108
0.000254
0.000228
0.000266
0.000261
0.000259
0.000264
0.000267
0.000264
0.000267
0.000251
0.000270
0.000263
0.000178
0.000055
0.000200
0.002695
0.001395
0.000215
0.000304
0.000300
0.000229
0.000270
0.000253
0.000244
0.000252
0.000247
0.000233
0.000249
0.000268
0.000257
0.000269
0.000260
0.000279
0.000251
0.000260
0.000290
0.000270
0.000263
0.000250
0.000244
0.000268
0.000272
0.000263
0.000266
0.000369
0.000055
0.001553
0.000252
0.001249
0.000225
0.000220
0.000240
0.000265
0.000252
0.000241
0.000259
0.000416
0.000348
0.000345
0.000214
0.000245
0.002160
0.000234
0.000248
0.000436
0.000394
0.000281
0.000339
0.000229
0.000253
0.000262
0.000251
0.000264
0.000278
0.000275
0.001667
0.001194
0.000056
0.000185
0.000231
0.000251
0.000446
0.000359
0.000286
0.000214
0.000223
0.000253
0.000257
0.000265
0.000246
0.000231
0.000270
0.000245
0.000238
0.000379
0.000562
0.000362
0.000246
0.000226
0.000278
0.000280
0.000265
0.000234
0.000253
0.000264
0.000278
0.000238
0.000328
0.000350
0.000055
0.001125
0.000240
0.000345
0.000429
0.000308
0.000224
0.000226
0.000244
0.000252
0.002336
0.000354
0.000360
0.000217
0.000376
0.000284
0.000263
0.000256
0.000261
0.000267
0.000221
0.000258
0.000280
0.000584
0.000484
0.001853
0.001392
0.000479
0.000503
0.000230
0.000275
0.000208
0.000056
0.000225
0.000347
0.000250
0.000244
0.000245
0.000233
0.000256
0.000250
0.000258
0.000254
0.000255
0.000220
0.000243
0.000267
0.000440
0.000447
0.001850
0.001320
0.000471
0.000406
0.000472
0.000235
0.000244
0.000259
0.002159
0.000557
0.000358
0.000231
0.000272
0.000286
0.000193
0.000055
0.000217
0.000236
0.000261
0.000239
0.000248
0.000411
0.000352
0.000329
0.000277
0.000239
0.000244
0.000246
0.000266
0.002119
0.000390
0.000359
0.000211
0.000257
0.000264
0.000256
0.002286
0.000434
0.000329
0.000222
0.000251
0.000262
0.000248
0.000278
0.000281
0.000281
0.000190
0.000055
0.000200
0.000394
0.000554
0.000314
0.000258
0.000218
0.000235
0.000252
0.000261
0.000254
0.001982
0.000362
0.000270
0.000274
0.000248
0.000265
0.000269
0.000243
0.002203
0.000443
0.000222
0.000272
0.000274
0.000252
0.000257
0.000253
0.000285
0.000248
0.000268
0.000254
0.000191
0.000056
0.000179
0.000241
0.000244
0.000225
0.000241
0.000261
0.000243
0.000242
0.000235
0.002186
0.000222
0.000292
0.000208
0.000420
0.000243
0.000245
0.000274
0.000290
0.000242
0.000263
0.001972
0.000276
0.000338
0.000369
0.000439
0.000393
0.000312
0.000244
0.000255
0.000270
0.000187
0.000055
0.000187
0.000235
0.000238
0.000246
0.000252
0.000325
0.000211
0.002313
0.000237
0.000233
0.000262
0.000257
0.000237
0.000253
0.000306
0.002128
0.000588
0.000216
0.000259
0.000245
0.000257
0.000262
0.000287
0.000267
0.000257
0.000258
0.000285
0.000251
0.000273
0.000260
0.000196
0.000055
0.001811
0.001453
0.000185
0.000227
0.000245
0.000251
0.000252
0.000277
0.000390
0.000354
0.002181
0.000255
0.000239
0.000263
0.000249
0.000625
0.000312
0.000301
0.000223
0.000252
0.000246
0.000269
0.000266
0.000221
0.000265
0.000260
0.000269
0.000260
0.000364
0.000718
0.000220
0.000056
0.000211
0.000250
0.000243
0.000254
0.000269
0.000249
0.000256
0.000239
0.001490
0.002115
0.000580
0.000281
0.000398
0.000760
0.000284
0.000259
0.000236
0.000244
0.000267
0.000255
0.000263
0.000244
0.000246
0.001843
0.000328
0.001391
0.000282
0.000273
0.000287
0.000286
0.000471
0.000056
0.001949
0.000221
0.000221
0.000232
0.000290
0.000381
0.000491
0.000255
0.000283
0.000214
0.000242
0.000253
0.000256
0.000261
0.000274
0.000246
0.000246
0.000271
0.001839
0.000261
0.000216
0.000255
0.000290
0.000267
0.000273
0.000251
0.001470
0.000333
0.000250
0.000268
0.000155
0.000055
0.000194
0.000232
0.000235
0.000241
0.000255
0.000236
0.000288
0.000388
0.000333
0.000390
0.000214
0.000242
0.000257
0.000329
0.000429
0.000311
0.000229
0.000250
0.000258
0.000388
0.000464
0.000419
0.000254
0.000257
0.000257
0.000260
0.000245
0.000281
0.000271
0.000258
0.000211
0.000055
0.001446
0.000452
0.000209
0.001930
0.000285
0.000532
0.000319
0.000320
0.000222
0.000252
0.000266
0.000241
0.000244
0.000253
0.000267
0.000254
0.000442
0.000274
0.000486
0.000297
0.000370
0.000234
0.000257
0.000269
0.000270
0.000269
0.000268
0.000279
0.000360
0.000413
0.001412
0.000056
0.000198
0.000227
0.002075
0.000345
0.000267
0.000255
0.000260
0.000253
0.000263
0.000257
0.000216
0.000248
0.000254
0.000265
0.000262
0.000453
0.000617
0.001757
0.000231
0.000245
0.000264
0.000258
0.000469
0.000316
0.001613
0.000277
0.000363
0.001925
0.000263
0.000250
0.000200
0.000055
0.000218
0.000231
0.000232
0.000240
0.000234
0.000248
0.000256
0.000321
0.000307
0.000264
0.000385
0.000350
0.000345
0.000298
0.000234
0.000272
0.000259
0.000240
0.000264
0.000250
0.000325
0.000271
0.000266
0.000261
0.000271
0.001499
0.000285
0.000399
0.002069
0.000233
0.000174
0.000054
0.000210
0.000235
0.000240
0.000243
0.000485
0.000217
0.000249
0.000350
0.000327
0.000338
0.000308
0.000200
0.000264
0.000266
0.000272
0.000320
0.000393
0.000465
0.000249
0.000405
0.000624
0.000364
0.001568
0.000231
0.000260
0.001985
0.000322
0.000251
0.000249
0.000289
0.000187
0.000055
0.000196
0.000242
0.000227
0.000242
0.000255
0.000282
0.000239
0.000270
0.000250
0.000321
0.001743
0.000330
0.000378
0.000321
0.000425
0.000369
0.000353
0.001493
0.000242
0.000275
0.002101
0.000606
0.000240
0.000236
0.000267
0.000272
0.000500
0.000224
0.000257
0.000294
0.000176
0.000055
0.000269
0.000379
0.000378
0.000273
0.000194
0.000248
0.000260
0.000253
0.000267
0.000291
0.000225
0.000248
0.000274
0.000254
0.000365
0.001487
0.000321
0.000206
0.000285
0.001920
0.000401
0.000238
0.000246
0.000261
0.000251
0.000280
0.000271
0.000259
0.000249
0.000266
0.000203
0.000055
0.000304
0.000346
0.002048
0.000256
0.000250
0.000221
0.000247
0.000482
0.000220
0.000475
0.001301
0.000378
0.002121
0.000312
0.000205
0.000247
0.000264
0.000280
0.000254
0.000239
0.000285
0.000299
0.000249
0.000352
0.000479
0.000419
0.000278
0.002229
0.000517
0.000519
0.000326
0.000055
0.000204
0.000233
0.000245
0.001966
0.000232
0.000224
0.000248
0.000238
0.000242
0.000260
0.000242
0.000265
0.000244
0.000271
0.000450
0.001480
0.000249
0.000244
0.000264
0.000254
0.000234
0.000257
0.000264
0.000268
0.000431
0.000393
0.000437
0.000229
0.001592
0.000294
0.000148
0.000056
0.000199
0.000223
0.000249
0.000231
0.000254
0.000250
0.000254
0.000247
0.000279
0.000371
0.000339
0.001426
0.000238
0.000219
0.000243
0.000269
0.000252
0.000257
0.000527
0.000260
0.000486
0.000354
0.000231
0.001574
0.000222
0.000264
0.000289
0.000281
0.000262
0.000284
0.000174
0.000055
0.000211
0.000222
0.000262
0.000269
0.000248
0.000245
0.000237
0.000244
0.000259
0.000240
0.000251
0.000256
0.000249
0.001486
0.000368
0.000211
0.000247
0.000259
0.000298
0.000297
0.000379
0.000257
0.000275
0.000239
0.000271
0.000254
0.000261
0.001410
0.000278
0.000235
0.000177
0.000056
0.000191
0.000237
0.000261
0.000258
0.000258
0.000235
0.000248
0.000262
0.000219
0.000263
0.000249
0.000256
0.000229
0.000278
0.000467
0.000286
0.000255
0.000250
0.001629
0.000243
0.000254
0.000251
0.000269
0.000320
0.000334
0.000390
0.000460
0.000279
0.000237
0.001604
0.000155
0.000055
0.000323
0.000328
0.000430
0.000240
0.000243
0.000218
0.000246
0.000269
0.000255
0.000237
0.000248
0.000246
0.001456
0.000347
0.000260
0.000212
0.000254
0.000257
0.000267
0.000264
0.000252
0.000244
0.000256
0.000271
0.000245
0.000452
0.000346
0.000409
0.000264
0.000250
0.000187
0.000054
0.000212
0.000265
0.000555
0.000190
0.000373
0.000288
0.000246
0.000251
0.000250
0.000260
0.000242
0.000222
0.000258
0.000243
0.001254
0.000299
0.000269
0.000226
0.000264
0.000267
0.000242
0.000262
0.000255
0.000265
0.000255
0.000259
0.000320
0.000631
0.000504
0.000242
0.000157
0.000055
0.000208
0.001562
0.000257
0.000296
0.000552
0.000316
0.000210
0.000256
0.000267
0.000248
0.000245
0.000259
0.000271
0.000271
0.000262
0.001524
0.000257
0.000279
0.000267
0.000261
0.000258
0.000251
0.000264
0.000261
0.000263
0.000256
0.000487
0.000307
0.000370
0.000233
0.000192
0.000056
0.000185
0.000255
0.000233
0.001613
0.000439
0.000337
0.000220
0.000240
0.000273
0.000250
0.000281
0.000255
0.000245
0.000266
0.000229
0.000270
0.000398
0.001320
0.000251
0.000252
0.001480
0.000397
0.000484
0.000401
0.000343
0.000232
0.000269
0.000471
0.000225
0.000264
0.000188
0.000054
0.000290
0.000221
0.000244
0.000246
0.000246
0.000275
0.000220
0.000255
0.000257
0.000238
0.000253
0.000260
0.000321
0.000456
0.001701
0.001496
0.000360
0.000525
0.000346
0.000221
0.000237
0.000257
0.000248
0.000265
0.000254
0.000259
0.000258
0.000272
0.001514
0.000337
0.000168
0.000055
0.000214
0.000358
0.000354
0.000329
0.000229
0.000227
0.000250
0.000297
0.000486
0.000370
0.002163
0.000320
0.000706
0.000546
0.000415
0.000264
0.000336
0.000402
0.000321
0.000284
0.000388
0.000241
0.001560
0.000528
0.000222
0.000260
0.000249
0.000265
0.000253
0.000271
0.000187
0.000055
0.000213
0.000252
0.000253
0.000248
0.000248
0.001656
0.000930
0.000953
0.000205
0.000235
0.000259
0.000256
0.000261
0.000263
0.000249
0.000251
0.000271
0.000250
0.000265
0.000276
0.001432
0.000313
0.000259
0.000227
0.000237
0.000261
0.000262
0.000276
0.000266
0.000289
0.001891
0.000055
0.000196
0.001524
0.000293
0.000869
0.000316
0.000381
0.000218
0.000240
0.000259
0.000251
0.000242
0.000252
0.000245
0.001993
0.000471
0.000216
0.000249
0.000253
0.000262
0.000261
0.000192
