0.000387
0.020133
0.001241
0.000372
0.000229
0.000301
0.000325
0.000223
0.000341
0.000274
0.000253
0.000341
0.000585
0.000397
0.000361
0.000426
0.000230
0.000345
0.000353
0.000418
0.001830
0.000370
0.000733
0.000269
0.000246
0.000301
0.000318
0.000304
0.000422
0.000438
0.000516
0.000250
0.000057
0.000212
0.000269
0.000269
0.000288
0.000246
0.000251
0.000277
0.000288
0.000269
0.000281
0.000441
0.000415
0.000304
0.000274
0.000356
0.000353
0.000366
0.000254
0.000247
0.001692
0.000326
0.000250
0.000446
0.000247
0.000283
0.000273
0.000293
0.000294
0.000280
0.000325
0.000431
0.000057
0.000244
0.000261
0.000263
0.000262
0.000247
0.000248
0.000263
0.000258
0.000283
0.001669
0.000226
0.000232
0.000277
0.000267
0.000276
0.000253
0.000266
0.000251
0.000356
0.001783
0.000249
0.000281
0.000445
0.000428
0.000387
0.000252
0.000260
0.000469
0.000471
0.000785
0.000204
0.000057
0.000220
0.000246
0.000254
0.000240
0.000300
0.000249
0.000334
0.000609
0.000316
0.000253
0.000243
0.000251
0.000243
0.000254
0.000260
0.000254
0.000264
0.000241
0.000301
0.000326
0.001661
0.000278
0.000250
0.000432
0.000283
0.000781
0.000622
0.000498
0.000345
0.000243
0.000193
0.000056
0.000215
0.000250
0.000298
0.000212
0.000279
0.000232
0.000372
0.000311
0.001512
0.000217
0.000252
0.000237
0.000271
0.000247
0.000261
0.000284
0.000459
0.000605
0.001404
0.000302
0.000242
0.000422
0.000232
0.000248
0.000256
0.000261
0.000265
0.000272
0.000255
0.000270
0.000202
0.000056
0.000207
0.000245
0.000244
0.000263
0.000236
0.000248
0.000236
0.000256
0.000238
0.000260
0.001623
0.000266
0.000232
0.000241
0.000277
0.000226
0.000252
0.000249
0.000255
0.000252
0.000296
0.001634
0.000285
0.000257
0.000441
0.000256
0.000247
0.000261
0.000263
0.000270
0.000198
0.000055
0.000194
0.000234
0.000252
0.000244
0.000243
0.000243
0.000265
0.000233
0.000267
0.000255
0.000252
0.000261
0.000251
0.000278
0.001636
0.000281
0.000284
0.000213
0.000265
0.000269
0.000272
0.000236
0.000250
0.000264
0.001773
0.000403
0.000358
0.000357
0.000235
0.000279
0.000197
0.000055
0.000200
0.000235
0.000250
0.000267
0.000259
0.000258
0.000268
0.000412
0.000367
0.000467
0.000206
0.000251
0.000251
0.000253
0.001557
0.000535
0.000368
0.000367
0.000301
0.000239
0.000266
0.000302
0.000257
0.001726
0.000487
0.000495
0.000249
0.000240
0.000253
0.000266
0.000186
0.000056
0.000211
0.000242
0.000242
0.000278
0.000342
0.000444
0.000350
0.000284
0.000216
0.000250
0.000264
0.000234
0.000255
0.001740
0.000454
0.000291
0.000228
0.000250
0.000276
0.000289
0.000246
0.000262
0.001842
0.000334
0.000286
0.000383
0.000241
0.000267
0.000272
0.000390
0.000330
0.000056
0.000219
0.000391
0.000374
0.000243
0.000260
0.000242
0.000258
0.000256
0.000242
0.000229
0.000241
0.000247
0.001544
0.000396
0.000273
0.000231
0.000259
0.000255
0.000245
0.000304
0.000252
0.000326
0.000245
0.001809
0.000257
0.000528
0.000215
0.000250
0.000259
0.000264
0.000270
0.000057
0.000321
0.000569
0.000600
0.000213
0.000227
0.000278
0.000227
0.000219
0.000260
0.000250
0.000258
0.001691
0.000249
0.000444
0.000370
0.000221
0.000239
0.000231
0.000250
0.000262
0.000255
0.001858
0.000224
0.000489
0.001847
0.000518
0.000367
0.000248
0.000250
0.000268
0.000187
0.000058
0.000209
0.000235
0.000243
0.000243
0.000260
0.001620
0.000253
0.000233
0.000254
0.000271
0.000225
0.000252
0.000239
0.000257
0.000285
0.000477
0.000549
0.000252
0.000242
0.000269
0.000275
0.000242
0.000243
0.000461
0.000411
0.000232
0.000358
0.000739
0.000275
0.000267
0.000204
0.000056
0.000220
0.000236
0.000256
0.000249
0.000241
0.000234
0.000241
0.000385
0.001857
0.000303
0.000225
0.000237
0.000263
0.000225
0.000259
0.000268
0.000440
0.000470
0.000358
0.000235
0.000255
0.000302
0.000282
0.000255
0.000279
0.000429
0.000341
0.000454
0.000600
0.000466
0.000177
0.000056
0.000187
0.000258
0.000243
0.000235
0.000235
0.000238
0.000247
0.000261
0.000229
0.000289
0.000337
0.000437
0.001397
0.000237
0.000243
0.000246
0.000259
0.000248
0.000250
0.000265
0.000261
0.000493
0.000365
0.000274
0.000270
0.000254
0.000250
0.000282
0.000257
0.000266
0.000377
0.000056
0.000210
0.000240
0.000231
0.000307
0.000538
0.000381
0.000247
0.000257
0.000233
0.000256
0.000262
0.000223
0.000301
0.000251
0.000242
0.000500
0.000398
0.001636
0.000294
0.000222
0.000279
0.000247
0.000257
0.000237
0.000271
0.000399
0.000507
0.000343
0.000420
0.000248
0.000188
0.000056
0.000233
0.000443
0.000228
0.000218
0.000282
0.000226
0.000274
0.000635
0.000268
0.000329
0.000229
0.000278
0.000263
0.000236
0.000517
0.000336
0.000230
0.000254
0.000414
0.001619
0.000272
0.000238
0.000526
0.000249
0.000280
0.000273
0.000254
0.000320
0.000587
0.000369
0.000261
0.000056
0.000207
0.000232
0.000237
0.000239
0.000424
0.000307
0.000289
0.000256
0.000409
0.000445
0.000398
0.000218
0.000238
0.000243
0.000255
0.000267
0.000256
0.000256
0.000234
0.000347
0.000287
0.000317
0.001856
0.000248
0.000256
0.000291
0.000240
0.000349
0.000415
0.000727
0.000429
0.000056
0.000236
0.000334
0.000299
0.000419
0.000397
0.000196
0.000258
0.000268
0.000524
0.000434
0.000256
0.000245
0.000233
0.000274
0.000259
0.000235
0.000255
0.000291
0.000252
0.000254
0.000266
0.000465
0.000623
0.001321
0.000325
0.000431
0.000421
0.000234
0.000369
0.000516
0.000288
0.000057
0.000241
0.000379
0.000281
0.000202
0.000236
0.000242
0.000419
0.000233
0.000244
0.000380
0.000465
0.000425
0.000205
0.000259
0.000260
0.000251
0.000344
0.000413
0.000352
0.000225
0.000245
0.000498
0.000520
0.001682
0.000228
0.000431
0.000321
0.000215
0.000279
0.000445
0.000257
0.000055
0.000194
0.000230
0.000246
0.000256
0.000247
0.000236
0.000257
0.000324
0.000452
0.000287
0.000418
0.000408
0.000266
0.000580
0.000249
0.000239
0.000281
0.000259
0.000230
0.000342
0.000243
0.000232
0.000277
0.000455
0.000451
0.001640
0.000268
0.000248
0.000244
0.000278
0.000181
0.000056
0.000229
0.000509
0.000330
0.000209
0.000258
0.000234
0.000256
0.000248
0.000265
0.000235
0.000221
0.000283
0.000390
0.000545
0.000388
0.000267
0.000251
0.000252
0.000337
0.000380
0.000384
0.000335
0.000362
0.000395
0.000250
0.000256
0.000268
0.000275
0.001785
0.000245
0.000211
0.000055
0.000200
0.000224
0.000262
0.000289
0.000331
0.000543
0.000318
0.000216
0.000285
0.000236
0.000250
0.000249
0.000521
0.000449
0.000485
0.000266
0.000267
0.000264
0.000417
0.000467
0.000359
0.000541
0.000382
0.000420
0.000233
0.000257
0.000270
0.000237
0.000268
0.001720
0.000331
0.000074
0.000273
0.000329
0.000196
0.000243
0.000271
0.000253
0.000222
0.000493
0.000379
0.000303
0.000295
0.000294
0.000470
0.000505
0.000335
0.000244
0.000252
0.000256
0.000250
0.000266
0.000277
0.000257
0.000247
0.000262
0.000351
0.000350
0.000374
0.000352
0.000257
0.000237
0.000199
0.000056
0.000451
0.000328
0.000453
0.000225
0.000204
0.000257
0.000244
0.000253
0.000242
0.000221
0.000254
0.000274
0.000297
0.000360
0.000521
0.000466
0.000327
0.000311
0.000379
0.000341
0.000297
0.000247
0.000248
0.000257
0.001749
0.000243
0.001722
0.000949
0.000412
0.000319
0.000165
0.000056
0.000190
0.000241
0.000236
0.000245
0.000268
0.000236
0.000254
0.000254
0.000241
0.000393
0.000274
0.000494
0.000306
0.000360
0.000245
0.000255
0.000253
0.000295
0.000229
0.000245
0.000249
0.000263
0.001814
0.000237
0.000253
0.000266
0.000276
0.000266
0.001904
0.000427
0.000309
0.000056
0.000196
0.000220
0.000238
0.000245
0.000253
0.000249
0.000238
0.000257
0.000263
0.000317
0.000637
0.000301
0.000375
0.000224
0.000247
0.000250
0.000326
0.000435
0.000384
0.000239
0.001782
0.000257
0.000249
0.000250
0.000256
0.000270
0.000245
0.000253
0.000319
0.000318
0.000399
0.000057
0.000266
0.000201
0.000247
0.000270
0.000236
0.000241
0.000257
0.000256
0.000236
0.000265
0.000236
0.000256
0.000335
0.000459
0.000420
0.000198
0.000463
0.000231
0.000246
0.000260
0.000263
0.000259
0.000273
0.000254
0.000282
0.001785
0.000248
0.000245
0.000264
0.000246
0.000199
0.000055
0.000263
0.000325
0.000236
0.000207
0.000243
0.000233
0.000237
0.000259
0.000243
0.000228
0.000231
0.000263
0.000258
0.000368
0.000445
0.000356
0.000249
0.000242
0.000250
0.000250
0.000263
0.000260
0.000248
0.000272
0.000255
0.000258
0.000325
0.001613
0.000264
0.000244
0.000194
0.000055
0.000212
0.000229
0.000252
0.000259
0.000340
0.000338
0.000422
0.000308
0.000235
0.000269
0.000248
0.000230
0.000246
0.000254
0.000257
0.000262
0.000244
0.000257
0.000254
0.000257
0.000266
0.000274
0.000245
0.000232
0.000244
0.000281
0.000276
0.000261
0.000258
0.000265
0.000191
0.000055
0.000214
0.000231
0.000259
0.000276
0.000229
0.000238
0.000245
0.000261
0.000276
0.000253
0.000222
0.000248
0.000260
0.000248
0.000296
0.000243
0.000245
0.000246
0.000297
0.000256
0.000275
0.000320
0.000264
0.000219
0.000312
0.000247
0.000270
0.000250
0.000336
0.000369
0.000607
0.000056
0.000223
0.000282
0.000228
0.000235
0.000231
0.000259
0.000237
0.000254
0.000249
0.000243
0.000265
0.000303
0.000480
0.000486
0.001525
0.000238
0.000490
0.000232
0.000290
0.000397
0.000416
0.000428
0.000226
0.000284
0.000240
0.000264
0.000283
0.000255
0.000304
0.000276
0.000165
0.000055
0.000282
0.000469
0.000327
0.000327
0.000218
0.000284
0.000226
0.000242
0.000236
0.000242
0.000255
0.000254
0.000234
0.000267
0.000366
0.000589
0.000290
0.001792
0.000242
0.000250
0.000354
0.000399
0.000465
0.000278
0.000316
0.000333
0.000299
0.000229
0.000228
0.000256
0.000197
0.000057
0.000225
0.000222
0.000239
0.000299
0.000315
0.000497
0.000327
0.000255
0.000252
0.000217
0.000253
0.000264
0.000283
0.000246
0.000246
0.000261
0.000418
0.000396
0.000413
0.000338
0.000236
0.001743
0.000321
0.000589
0.000446
0.000437
0.000320
0.000233
0.000257
0.000268
0.000449
0.000057
0.000211
0.000277
0.000219
0.000278
0.000465
0.000422
0.000395
0.000214
0.000266
0.000279
0.000225
0.000255
0.000254
0.000313
0.000291
0.000238
0.000227
0.000449
0.000473
0.000269
0.000502
0.001842
0.000253
0.000413
0.000557
0.000326
0.000227
0.000265
0.000284
0.000264
0.000205
0.000056
0.000213
0.000337
0.000359
0.000313
0.000423
0.000369
0.000283
0.000220
0.000241
0.000250
0.000274
0.000222
0.000253
0.000254
0.000248
0.000284
0.000304
0.000367
0.000530
0.000368
0.000280
0.000235
0.000252
0.001720
0.000487
0.000458
0.000669
0.000233
0.000270
0.000306
0.000157
0.000055
0.000201
0.000239
0.000344
0.000252
0.000330
0.000279
0.000393
0.000338
0.000240
0.000532
0.000222
0.000257
0.000258
0.000279
0.000271
0.000264
0.000206
0.000384
0.000518
0.000364
0.000257
0.000237
0.000260
0.000248
0.000260
0.000266
0.000240
0.000256
0.000264
0.000290
0.000200
0.000056
0.000308
0.000308
0.000218
0.000258
0.000249
0.000257
0.000243
0.000289
0.000240
0.000246
0.000275
0.000333
0.000419
0.000417
0.000327
0.000282
0.000229
0.000227
0.000256
0.000274
0.000285
0.000267
0.000232
0.000256
0.000281
0.000308
0.000402
0.000400
0.000343
0.000235
0.000182
0.000055
0.000219
0.000214
0.000282
0.000237
0.000245
0.000268
0.000255
0.000239
0.000498
0.000212
0.000258
0.000260
0.000238
0.000282
0.000250
0.000300
0.000238
0.000351
0.000214
0.000245
0.000251
0.000263
0.000264
0.000282
0.000265
0.000258
0.000258
0.000258
0.000268
0.000484
0.000169
0.000056
0.000208
0.000240
0.000245
0.000290
0.000200
0.000244
0.000367
0.000407
0.000241
0.000225
0.000253
0.000259
0.000235
0.000299
0.000479
0.001712
0.000239
0.000260
0.000287
0.000327
0.000406
0.000367
0.000359
0.000508
0.000308
0.000376
0.000234
0.000281
0.000265
0.000274
0.001403
0.000056
0.000441
0.000309
0.000221
0.000216
0.000237
0.000258
0.000230
0.000254
0.000245
0.000268
0.000246
0.000258
0.000254
0.000311
0.000493
0.001655
0.000238
0.000235
0.000246
0.000267
0.000229
0.000261
0.000463
0.000295
0.000308
0.000340
0.000217
0.000272
0.000280
0.000262
0.000182
0.000055
0.001211
0.000508
0.000441
0.000169
0.000231
0.000225
0.000237
0.000243
0.000491
0.000216
0.000238
0.000261
0.000373
0.000444
0.000427
0.000350
0.000260
0.000231
0.000321
0.000370
0.000265
0.000255
0.000271
0.000244
0.000293
0.000572
0.000579
0.000209
0.000267
0.000262
0.000171
0.000055
0.000232
0.000195
0.000249
0.000253
0.001472
0.000290
0.000225
0.000253
0.000257
0.000232
0.000253
0.000268
0.000229
0.000261
0.000270
0.000303
0.000431
0.000634
0.000272
0.001798
0.000225
0.000259
0.000312
0.000421
0.000577
0.000368
0.000253
0.000249
0.000255
0.000272
0.000198
0.000055
0.000227
0.000251
0.000234
0.000354
0.001223
0.000231
0.000258
0.000257
0.000241
0.000234
0.000240
0.000252
0.000278
0.000246
0.000245
0.000317
0.000440
0.000420
0.000317
0.000273
0.000259
0.000274
0.000251
0.000229
0.000292
0.000267
0.000240
0.000275
0.000270
0.000277
0.000678
0.000056
0.000225
0.000246
0.000237
0.000258
0.000265
0.000237
0.000243
0.000258
0.000270
0.000275
0.001424
0.000219
0.000239
0.000244
0.000247
0.000246
0.000290
0.000243
0.000289
0.000236
0.000270
0.000484
0.000464
0.000384
0.000226
0.000274
0.001791
0.000241
0.000255
0.000367
0.000375
0.000055
0.000181
0.000405
0.000448
0.000505
0.000530
0.000537
0.001499
0.000403
0.000524
0.000648
0.000552
0.000826
0.000377
0.000614
0.000581
0.001970
0.000311
0.000453
0.000388
0.000321
0.000235
0.000265
0.000290
0.000261
0.000253
0.000298
0.000308
0.000267
0.000261
0.000286
0.001375
0.000056
0.000205
0.000222
0.000250
0.000234
0.000259
0.000262
0.000233
0.000239
0.000255
0.000247
0.000245
0.000234
0.000262
0.000253
0.000273
0.000264
0.001801
0.000268
0.000259
0.000251
0.000253
0.000266
0.000286
0.000330
0.000387
0.000394
0.000339
0.000216
0.000267
0.000294
0.000193
0.000056
0.000205
0.001367
0.000332
0.000272
0.000248
0.000235
0.000243
0.000239
0.000232
0.000237
0.000221
0.000242
0.000250
0.000509
0.000365
0.000303
0.000242
0.001816
0.000355
0.000242
0.000244
0.000263
0.000256
0.000270
0.000269
0.000283
0.000272
0.000265
0.000251
0.000319
0.000207
0.000056
0.000217
0.000241
0.000249
0.001454
0.000201
0.000250
0.000250
0.000250
0.000228
0.000271
0.000250
0.000253
0.000242
0.000276
0.000245
0.000251
0.000265
0.000264
0.000269
0.000255
0.000262
0.001770
0.000271
0.001754
0.000263
0.000264
0.000266
0.000266
0.000263
0.000270
0.000214
0.000056
0.000183
0.000242
0.001352
0.000241
0.000245
0.000242
0.000258
0.000252
0.000247
0.000250
0.000256
0.000241
0.000259
0.000263
0.000262
0.000261
0.000260
0.000294
0.000288
0.000222
0.001880
0.000228
0.001837
0.000238
0.000268
0.000272
0.000231
0.000245
0.000259
0.000272
0.000190
0.000056
0.001471
0.000200
0.000225
0.000250
0.000242
0.000235
0.000376
0.000308
0.000209
0.000257
0.000249
0.000257
0.000285
0.000339
0.000421
0.000246
0.000232
0.000273
0.000258
0.000255
0.000271
0.000340
0.000231
0.000249
0.000276
0.000271
0.000277
0.000359
0.000638
0.000342
0.000191
0.000057
0.000209
0.000260
0.000248
0.000300
0.000366
0.000251
0.001670
0.000333
0.000270
0.000282
0.000246
0.000273
0.000275
0.000253
0.000310
0.000310
0.000323
0.000629
0.000353
0.000254
0.000282
0.000275
0.000264
0.000274
0.000320
0.000275
0.000270
0.000244
0.000251
0.000314
0.000430
0.000055
0.000266
0.000464
0.000263
0.000271
0.000250
0.000219
0.000250
0.000225
0.000257
0.000275
0.001493
0.000226
0.000228
0.000256
0.000241
0.000282
0.000294
0.000228
0.000259
0.000267
0.000261
0.000373
0.000486
0.000376
0.000258
0.000294
0.000265
0.000262
0.000230
0.000315
0.000166
0.000058
0.000189
0.000233
0.000291
0.000480
0.000368
0.000249
0.000227
0.000245
0.000249
0.000250
0.000236
0.000252
0.000262
0.000280
0.000224
0.000232
0.000429
0.001181
0.000242
0.000252
0.000272
0.000254
0.000351
0.000412
0.000265
0.000334
0.000584
0.000364
0.000340
0.000244
0.000182
0.000055
0.000225
0.000250
0.000256
0.000261
0.000262
0.000241
0.000356
0.000406
0.000407
0.000297
0.000357
0.000391
0.000395
0.000363
0.000257
0.000239
0.000243
0.000259
0.000385
0.000467
0.001271
0.000224
0.000276
0.000272
0.000236
0.000236
0.000270
0.000345
0.000380
0.000458
0.000227
0.000056
0.000201
0.000243
0.000259
0.000239
0.000241
0.000248
0.000238
0.000266
0.000303
0.000403
0.000425
0.000311
0.000243
0.000247
0.000251
0.000257
0.000251
0.000258
0.000269
0.000271
0.000414
0.000295
0.000339
0.000418
0.000313
0.000248
0.000278
0.000269
0.000242
0.000348
0.000155
0.000055
0.000301
0.000315
0.000300
0.000479
0.000320
0.000406
0.000236
0.000245
0.000247
0.000266
0.000258
0.000263
0.000235
0.000250
0.000245
0.000225
0.000268
0.000395
0.000426
0.000375
0.000225
0.000282
0.000243
0.000242
0.000273
0.000278
0.000268
0.000282
0.000264
0.000278
0.000309
0.000056
0.000304
0.000266
0.000241
0.000269
0.000224
0.000252
0.000248
0.000252
0.000262
0.000252
0.000254
0.000233
0.000323
0.000546
0.000390
0.000248
0.000239
0.000252
0.000251
0.000263
0.000257
0.000260
0.000258
0.000267
0.000272
0.000366
0.000384
0.000581
0.000404
0.000254
0.000171
0.000055
0.000392
0.000197
0.000229
0.000245
0.000247
0.000250
0.000232
0.000253
0.000255
0.000256
0.000225
0.000244
0.000269
0.000227
0.000258
0.000258
0.000248
0.000263
0.000295
0.000241
0.000262
0.000256
0.000266
0.000264
0.000266
0.000235
0.000264
0.000276
0.000263
0.000276
0.000197
0.000055
0.000191
0.000240
0.000247
0.000247
0.000228
0.000260
0.000257
0.000247
0.000257
0.000279
0.000227
0.000234
0.000263
0.000397
0.000251
0.000315
0.000223
0.000270
0.000256
0.000278
0.000272
0.000236
0.000241
0.000246
0.000281
0.000268
0.000255
0.000247
0.000278
0.000254
0.000210
0.000054
0.000200
0.000363
0.000367
0.000281
0.000296
0.000256
0.000270
0.000256
0.000226
0.000246
0.000278
0.000236
0.000247
0.000246
0.000244
0.000284
0.000241
0.000270
0.000246
0.000263
0.000273
0.000265
0.000279
0.000257
0.000288
0.000232
0.000254
0.000273
0.000269
0.000262
0.000195
0.000056
0.000208
0.000233
0.000265
0.000266
0.000254
0.000440
0.000213
0.000268
0.000290
0.000470
0.000434
0.000284
0.000233
0.000247
0.000275
0.000260
0.000240
0.000271
0.000271
0.000254
0.000266
0.000257
0.000262
0.000293
0.000460
0.000545
0.000280
0.000300
0.000262
0.000263
0.000191
0.000055
0.000213
0.000217
0.000250
0.000246
0.000509
0.000461
0.000319
0.000377
0.000211
0.000254
0.000245
0.000258
0.000248
0.000266
0.000241
0.000271
0.000269
0.000258
0.000670
0.000316
0.000319
0.000245
0.000255
0.000286
0.000281
0.000254
0.000278
0.000270
0.000233
0.000324
0.000316
0.000056
0.000307
0.000236
0.000236
0.000241
0.000253
0.000265
0.000217
0.000248
0.000260
0.000239
0.000253
0.000249
0.000241
0.000421
0.000536
0.000429
0.000204
0.000262
0.000262
0.000244
0.000270
0.000281
0.000480
0.000215
0.000268
0.000594
0.000468
0.000431
0.000255
0.000243
0.000190
0.000055
0.000206
0.000237
0.000257
0.000229
0.000254
0.000258
0.000330
0.000479
0.000581
0.000359
0.000220
0.000261
0.000273
0.000281
0.000248
0.000253
0.000233
0.000248
0.000256
0.000404
0.000346
0.000664
0.000343
0.000255
0.000347
0.000375
0.000498
0.000237
0.000269
0.000474
0.000408
0.000055
0.000269
0.000235
0.000439
0.000220
0.000235
0.000255
0.000262
0.000273
0.000217
0.000241
0.000259
0.000409
0.000400
0.000307
0.000215
0.000260
0.000260
0.000265
0.000249
0.000281
0.000273
0.000247
0.000255
0.000273
0.000331
0.000457
0.000495
0.000235
0.000292
0.000245
0.000198
0.000056
0.000210
0.000252
0.000230
0.000263
0.000228
0.000279
0.000396
0.000417
0.000364
0.000267
0.000383
0.000220
0.000250
0.000270
0.000250
0.000241
0.000274
0.000244
0.000289
0.000396
0.000475
0.000344
0.000479
0.000266
0.000381
0.000420
0.000388
0.000242
0.000276
0.000330
0.000371
0.000055
0.000263
0.000274
0.000220
0.000256
0.000262
0.000256
0.000245
0.000250
0.000270
0.000248
0.000233
0.000386
0.000483
0.000300
0.000390
0.000216
0.000270
0.000264
0.000268
0.000235
0.000244
0.000257
0.000266
0.000275
0.000275
0.000341
0.000490
0.000464
0.000239
0.000281
0.000190
0.000055
0.000193
0.000240
0.000273
0.000246
0.000242
0.000407
0.000434
0.000463
0.000382
0.000679
0.000269
0.000206
0.000242
0.000261
0.000251
0.000263
0.000279
0.000282
0.000577
0.000312
0.001512
0.000311
0.000265
0.000276
0.000271
0.000270
0.000413
0.000383
0.000337
0.000324
0.000189
0.000055
0.000207
0.000234
0.000248
0.000258
0.000235
0.000245
0.000300
0.000232
0.000255
0.000305
0.000334
0.000382
0.000282
0.000320
0.000393
0.000348
0.000244
0.000252
0.000271
0.000251
0.000249
0.000248
0.000312
0.000222
0.000323
0.000435
0.000435
0.000282
0.000257
0.000266
0.000190
0.000055
0.000222
0.000248
0.000258
0.000251
0.000242
0.000237
0.000473
0.000211
0.000248
0.000236
0.000248
0.000251
0.000261
0.000253
0.000247
0.000270
0.000261
0.000298
0.000245
0.000257
0.000283
0.000265
0.000291
0.000243
0.000282
0.000263
0.000273
0.000262
0.000258
0.000270
0.000178
0.000055
0.000219
0.000260
0.000366
0.000401
0.000309
0.000258
0.000231
0.000246
0.000261
0.000250
0.000246
0.000257
0.000264
0.000263
0.000241
0.000239
0.000288
0.000230
0.000259
0.000338
0.000458
0.000397
0.000238
0.000261
0.000264
0.000259
0.000256
0.000256
0.000273
0.000279
0.000222
0.000056
0.000270
0.000431
0.000385
0.000207
0.000259
0.000250
0.000414
0.000225
0.000230
0.000256
0.000250
0.000290
0.000350
0.000550
0.001763
0.000247
0.000248
0.000251
0.000274
0.000244
0.000322
0.000504
0.000553
0.000315
0.000232
0.000257
0.000281
0.000421
0.000280
0.000278
0.000164
0.000055
0.000216
0.000335
0.000345
0.000306
0.000495
0.000198
0.000247
0.000246
0.000250
0.000241
0.000256
0.000251
0.000264
0.000397
0.000332
0.000469
0.000228
0.000245
0.000277
0.000243
0.000260
0.000323
0.000231
0.000271
0.000280
0.000447
0.000596
0.000489
0.000276
0.000242
0.000211
0.000056
0.000229
0.000229
0.000259
0.000232
0.000245
0.000251
0.000269
0.000291
0.000405
0.000278
0.000446
0.000350
0.000228
0.000241
0.000271
0.000293
0.000296
0.000232
0.000278
0.000267
0.000241
0.000354
0.000386
0.000423
0.000265
0.000265
0.000261
0.000447
0.000406
0.000297
0.000193
0.000056
0.000212
0.000323
0.000282
0.000401
0.000370
0.000209
0.000232
0.000271
0.000247
0.000266
0.000253
0.000252
0.000234
0.000252
0.000263
0.000292
0.000440
0.000320
0.000332
0.000309
0.000491
0.000226
0.000280
0.000279
0.000294
0.000285
0.000256
0.000272
0.000641
0.000360
0.000172
0.000056
0.000208
0.000229
0.000253
0.000245
0.000242
0.000478
0.000214
0.000252
0.000269
0.000384
0.000444
0.000582
0.000210
0.000244
0.000237
0.000250
0.000263
0.000267
0.000240
0.000247
0.000286
0.000243
0.000408
0.000414
0.000404
0.000316
0.000293
0.000303
0.000318
0.000252
0.000192
0.000056
0.000218
0.000233
0.000257
0.000484
0.000380
0.000258
0.000238
0.000235
0.000244
0.000259
0.000251
0.000257
0.000267
0.000244
0.000249
0.000260
0.000242
0.000251
0.000259
0.000411
0.000481
0.000386
0.000244
0.000245
0.000296
0.000256
0.000262
0.000260
0.000260
0.000267
0.000196
0.000055
0.000377
0.000280
0.000446
0.000235
0.000228
0.000242
0.000337
0.000440
0.000284
0.000221
0.000234
0.000273
0.000271
0.000442
0.000439
0.000300
0.000214
0.000237
0.000259
0.000260
0.000270
0.000269
0.000257
0.000275
0.000264
0.000268
0.000427
0.000435
0.000301
0.000235
0.000184
0.000055
0.000237
0.000240
0.000246
0.000254
0.000252
0.000263
0.000227
0.000271
0.000251
0.000236
0.000266
0.000238
0.000303
0.001425
0.000217
0.000249
0.000259
0.000244
0.000275
0.000276
0.000268
0.000240
0.000278
0.000272
0.000253
0.000264
0.000271
0.000275
0.000269
0.000255
0.000195
0.000055
0.000192
0.000224
0.000255
0.000263
0.000222
0.000244
0.000260
0.000258
0.000228
0.000247
0.000246
0.000258
0.000276
0.000237
0.000260
0.000252
0.000251
0.000258
0.000278
0.000249
0.000256
0.000261
0.000249
0.000252
0.001297
0.000277
0.000642
0.000365
0.000332
0.000232
0.000199
0.000055
0.000234
0.000207
0.000247
0.000252
0.000413
0.000243
0.000240
0.000240
0.000255
0.000375
0.000430
0.000367
0.000204
0.000240
0.000279
0.000241
0.000254
0.000270
0.000244
0.000269
0.000248
0.000252
0.000259
0.000483
0.000463
0.000438
0.000225
0.000271
0.001374
0.000241
0.000180
0.000055
0.000244
0.000414
0.000323
0.000282
0.000220
0.000217
0.000233
0.000246
0.000262
0.000255
0.000245
0.000264
0.000297
0.000270
0.000562
0.000333
0.000358
0.000218
0.000245
0.000266
0.000265
0.000282
0.000250
0.000262
0.000269
0.000267
0.000268
0.000614
0.000375
0.000367
0.000146
0.000056
0.000204
0.000244
0.001257
0.000415
0.000287
0.000480
0.000362
0.000495
0.000262
0.000356
0.000201
0.000244
0.000257
0.000255
0.000247
0.000268
0.000401
0.000477
0.000366
0.000356
0.000260
0.000240
0.000271
0.000508
0.000220
0.000268
0.000255
0.000279
0.000287
0.000563
0.000299
0.000056
0.000371
0.000311
0.000231
0.000233
0.001569
0.000451
0.000301
0.000257
0.000241
0.000249
0.000232
0.000241
0.000244
0.000276
0.000245
0.000265
0.000234
0.000281
0.000385
0.000448
0.000397
0.000250
0.000251
0.000259
0.000261
0.000271
0.000273
0.000236
0.000261
0.000274
0.000202
0.000055
0.000370
0.000338
0.000216
0.000244
0.000249
0.000240
0.000263
0.000234
0.000238
0.000229
0.001424
0.000461
0.000254
0.000254
0.000234
0.000254
0.000276
0.000261
0.000239
0.000300
0.000244
0.000252
0.000281
0.000457
0.000451
0.000361
0.000230
0.000266
0.000285
0.000272
0.000178
0.000056
0.000194
0.000413
0.000222
0.000231
0.000331
0.000521
0.000412
0.000210
0.000460
0.000213
0.000229
0.000255
0.000261
0.000265
0.000259
0.001398
0.000373
0.000280
0.000244
0.000275
0.000293
0.000236
0.000253
0.000251
0.000278
0.000252
0.000481
0.000420
0.000290
0.000269
0.000167
0.000055
0.000218
0.000238
0.000259
0.000233
0.000232
0.000257
0.000241
0.000257
0.000269
0.000377
0.000460
0.000254
0.000249
0.000255
0.000248
0.000270
0.000276
0.000256
0.000269
0.000232
0.000257
0.000339
0.001228
0.000248
0.000244
0.000270
0.000254
0.000271
0.000255
0.000261
0.000189
0.000055
0.000246
0.000405
0.000362
0.000253
0.000251
0.000245
0.000257
0.000287
0.000243
0.000259
0.000238
0.000264
0.000239
0.000255
0.000258
0.000273
0.000254
0.000267
0.000264
0.000252
0.000250
0.000272
0.000271
0.000280
0.000282
0.000270
0.000262
0.000267
0.000259
0.000473
0.001346
0.000055
0.000188
0.000251
0.000221
0.000265
0.000230
0.000260
0.000245
0.000222
0.000248
0.000264
0.000263
0.000264
0.000247
0.000238
0.000280
0.000218
0.001720
0.000263
0.000242
0.000265
0.000245
0.000257
0.000275
0.000254
0.000298
0.000235
0.000270
0.000274
0.000269
0.000255
0.000236
0.000055
0.000291
0.000318
0.001324
0.000219
0.000221
0.000253
0.000256
0.000251
0.000272
0.000241
0.000233
0.000357
0.000391
0.000433
0.000268
0.000241
0.000263
0.000239
0.000262
0.000263
0.000243
0.000277
0.000251
0.000292
0.000272
0.000380
0.000367
0.000368
0.000317
0.000235
0.000200
0.000056
0.000211
0.000253
0.000242
0.000250
0.000271
0.000201
0.000238
0.000324
0.000421
0.001275
0.000260
0.000209
0.000255
0.000278
0.000246
0.000290
0.000239
0.000249
0.000330
0.000418
0.000391
0.000226
0.000245
0.000246
0.000286
0.000276
0.000267
0.000293
0.000267
0.000278
0.000192
0.000055
0.000370
0.000351
0.000338
0.000210
0.000237
0.000235
0.000266
0.000259
0.000265
0.000245
0.000238
0.000246
0.000446
0.000502
0.000496
0.001443
0.000227
0.000279
0.000323
0.000350
0.000488
0.000462
0.000508
0.000309
0.000238
0.000263
0.000265
0.000272
0.000264
0.000278
0.000203
0.000055
0.000193
0.000272
0.000582
0.000443
0.000239
0.000234
0.000253
0.000241
0.000239
0.000269
0.000235
0.000270
0.000278
0.000230
0.000266
0.000336
0.000322
0.000449
0.000341
0.001328
0.000263
0.000263
0.000248
0.000259
0.000431
0.000474
0.000384
0.000254
0.000269
0.000269
0.000191
0.000055
0.000211
0.000241
0.000244
0.000265
0.000228
0.000272
0.000448
0.000438
0.000325
0.000224
0.000237
0.000259
0.000273
0.000289
0.000238
0.000255
0.000269
0.000252
0.000282
0.000326
0.000484
0.000363
0.000301
0.001346
0.000416
0.000239
0.000259
0.000394
0.000541
0.000278
0.000310
0.000056
0.000193
0.000228
0.000248
0.000249
0.000249
0.000254
0.001730
0.000211
0.000202
0.000240
0.000254
0.000247
0.000253
0.000324
0.000328
0.000284
0.000257
0.000283
0.000615
0.000326
0.000311
0.000274
0.000244
0.000248
0.001487
0.000356
0.000425
0.000443
0.000323
0.000297
0.000171
0.000056
0.000226
0.000239
0.000255
0.000258
0.000247
0.000263
0.001704
0.000235
0.000244
0.000261
0.000329
0.000397
0.001464
0.000354
0.000383
0.000244
0.000261
0.000233
0.000269
0.000275
0.001530
0.000676
0.000288
0.000293
0.000231
0.000259
0.000259
0.000284
0.000253
0.000242
0.000200
0.000055
0.000207
0.000244
0.000259
0.000263
0.000253
0.000285
0.000265
0.000258
0.000249
0.000251
0.000255
0.000266
0.000270
0.000239
0.000256
0.001489
0.000281
0.000237
0.000268
0.000279
0.000271
0.000254
0.001456
0.000316
0.000210
0.000232
0.000269
0.000257
0.000397
0.000245
0.000201
0.000056
0.000207
0.000254
0.000220
0.000242
0.000241
0.000231
0.000235
0.001685
0.000262
0.000222
0.000356
0.000269
0.000229
0.000221
0.000259
0.001379
0.000235
0.000266
0.000268
0.000251
0.000257
0.000349
0.000294
0.001296
0.000286
0.000238
0.000257
0.000273
0.001382
0.000274
0.000185
0.000056
0.000314
0.000292
0.000208
0.000249
0.000256
0.000226
0.000285
0.000254
0.000260
0.000248
0.000257
0.000285
0.000237
0.000249
0.000318
0.001512
0.000226
0.000267
0.000259
0.000239
0.000284
0.000264
0.000259
0.001522
0.000319
0.000243
0.000266
0.001281
0.000289
0.000224
0.000255
0.000056
0.000221
0.000447
0.000298
0.000213
0.000246
0.000226
0.000269
0.000254
0.000262
0.000274
0.000228
0.000269
0.000251
0.000394
0.000291
0.001224
0.000231
0.000251
0.000265
0.000277
0.000231
0.000239
0.000271
0.000311
0.001295
0.000218
0.000262
0.000252
0.000256
0.001341
0.000373
0.000055
0.000363
0.000244
0.000203
0.000232
0.000237
0.000263
0.000235
0.000249
0.000296
0.000231
0.000243
0.000254
0.000288
0.000317
0.000452
0.001399
0.000217
0.000258
0.000299
0.000513
0.000304
0.000455
0.001266
0.000306
0.000237
0.000260
0.000252
0.001306
0.000348
0.000394
0.000395
0.000056
0.000203
0.000251
0.000250
0.000257
0.000253
0.000258
0.000267
0.000269
0.000244
0.000284
0.000360
0.000467
0.001265
0.000239
0.000268
0.000267
0.000275
0.000241
0.000226
0.000242
0.000334
0.001250
0.000253
0.000246
0.000256
0.000254
0.001461
0.000514
0.000440
0.000218
0.000199
0.000055
0.000216
0.000219
0.000251
0.000239
0.000252
0.000264
0.000236
0.000307
0.000482
0.000392
0.000268
0.001489
0.000209
0.000249
0.000268
0.000248
0.000300
0.000257
0.001692
0.000240
0.000390
0.000342
0.001281
0.000383
0.000286
0.000323
0.000258
0.000269
0.000258
0.000271
0.000186
0.000055
0.000206
0.000240
0.000328
0.000281
0.000302
0.000500
0.000303
0.000285
0.001476
0.000239
0.000378
0.000272
0.000226
0.000308
0.000405
0.001305
0.000259
0.000238
0.000244
0.000264
0.001530
0.000370
0.000298
0.000258
0.000268
0.000250
0.000451
0.000333
0.000253
0.000246
0.000258
0.000055
0.000255
0.000365
0.000334
0.000257
0.000223
0.001529
0.000205
0.000261
0.000264
0.000270
0.000268
0.000242
0.000313
0.001478
0.000250
0.000231
0.000434
0.001189
0.000343
0.000435
0.000409
0.000228
0.000242
0.000256
0.000296
0.000226
0.000452
0.000226
0.000266
0.000281
0.000195
0.000055
0.000245
0.000274
0.000318
0.000336
0.001322
0.000284
0.000334
0.000226
0.000220
0.000254
0.000246
0.000335
0.001478
0.000259
0.000231
0.000247
0.001387
0.000269
0.000434
0.000379
0.000424
0.000233
0.000255
0.000254
0.000265
0.000282
0.000256
0.000265
0.000271
0.000252
0.000207
0.000056
0.000194
0.000351
0.001508
0.000206
0.000279
0.000299
0.000213
0.000251
0.000264
0.000508
0.001271
0.000208
0.000261
0.000262
0.000252
0.001288
0.000629
0.000333
0.000327
0.000430
0.000285
0.000246
0.000272
0.000260
0.000269
0.000288
0.000274
0.000326
0.000451
0.000378
0.001399
0.000054
0.000200
0.000242
0.000245
0.000224
0.000246
0.000639
0.000295
0.001267
0.000240
0.000238
0.000248
0.001407
0.000382
0.000410
0.000223
0.000418
0.000237
0.000249
0.000259
0.000293
0.000250
0.000254
0.000277
0.000255
0.000252
0.000279
0.000436
0.000489
0.001506
0.000222
0.000184
0.000055
0.000217
0.000250
0.000341
0.000586
0.001205
0.000321
0.000213
0.000256
0.000244
0.000254
0.000248
0.000292
0.000358
0.000509
0.000298
0.000243
0.000252
0.000278
0.000235
0.000307
0.000235
0.000261
0.000261
0.000267
0.000252
0.000326
0.000567
0.000308
0.000331
0.001412
0.000168
0.000055
0.000200
0.000232
0.000336
0.000429
0.000371
0.000240
0.000319
0.000334
0.000291
0.000254
0.000238
0.000262
0.000252
0.000309
0.000234
0.000295
0.000520
0.000363
0.000277
0.000395
0.000267
0.000404
0.000226
0.000246
0.000267
0.000260
0.000250
0.000298
0.000359
0.000492
0.000293
0.000056
0.000187
0.001417
0.000216
0.000339
0.000403
0.000477
0.000434
0.000223
0.000208
0.000243
0.000265
0.000250
0.000283
0.000253
0.000256
0.000279
0.000241
0.001312
0.000318
0.000242
0.000254
0.000274
0.000274
0.000276
0.000267
0.000256
0.000278
0.000243
0.000334
0.000403
0.000444
0.000057
0.000195
0.000238
0.000241
0.001498
0.000329
0.000247
0.000216
0.000256
0.000228
0.000249
0.000251
0.000281
0.000244
0.000248
0.000298
0.000228
0.000246
0.000269
0.000251
0.000257
0.001431
0.000228
0.000256
0.000272
0.000261
0.000248
0.000266
0.000258
0.000279
0.000499
0.000337
0.000055
0.000204
0.000233
0.000392
0.000293
0.000236
0.000259
0.001523
0.000356
0.000290
0.000221
0.000260
0.000313
0.000348
0.000213
0.000224
0.000253
0.000240
0.000268
0.000260
0.000259
0.000538
0.000424
0.001155
0.000251
0.000258
0.000255
0.000267
0.000264
0.000295
0.000236
0.000398
0.000056
0.000274
0.000335
0.000224
0.000230
0.000253
0.000239
0.000244
0.000227
0.000288
0.001601
0.000398
0.000261
0.000243
0.000249
0.000262
0.000241
0.000260
0.000272
0.000283
0.000299
0.000298
0.000484
0.000460
0.001368
0.000224
0.000280
0.000260
0.000257
0.000262
0.000445
0.000371
0.000055
0.000261
0.000266
0.000227
0.000234
0.000225
0.000240
0.000263
0.000278
0.000254
0.001594
0.000336
0.000258
0.000242
0.000258
0.000460
0.000257
0.000547
0.000370
0.000275
0.000265
0.000529
0.000436
0.001297
0.000252
0.000237
0.000257
0.001810
0.000353
0.000611
0.000320
0.000150
0.000056
0.000193
0.000232
0.000241
0.000236
0.000265
0.000252
0.000230
0.000492
0.000544
0.000379
0.000292
0.000216
0.000261
0.000244
0.000280
0.000273
0.000234
0.000261
0.000233
0.000285
0.000256
0.000462
0.001306
0.000226
0.000251
0.000267
0.001897
0.000381
0.000395
0.000341
0.000159
0.000056
0.000234
0.000243
0.000245
0.001563
0.000427
0.000211
0.000238
0.000262
0.000251
0.000277
0.000374
0.000367
0.000367
0.000280
0.000249
0.000569
0.000395
0.001187
0.000273
0.000241
0.000257
0.000260
0.000276
0.000399
0.000581
0.000490
0.000259
0.000267
0.000271
0.000278
0.000191
0.000057
0.000192
0.000236
0.000241
0.001532
0.000265
0.000231
0.000238
0.000260
0.000240
0.000253
0.000254
0.000267
0.000267
0.000285
0.000273
0.000348
0.000429
0.000343
0.001396
0.000244
0.000253
0.000257
0.000258
0.000312
0.000343
0.000398
0.000528
0.000253
0.000289
0.000231
0.000453
0.000056
0.000217
0.000242
0.000267
0.001537
0.000293
0.000218
0.000265
0.000241
0.000257
0.000257
0.000255
0.000270
0.000245
0.000249
0.000345
0.000674
0.001280
0.000754
0.000270
0.000333
0.000237
0.000243
0.000246
0.000276
0.001674
0.000804
0.000236
0.000257
0.000282
0.000280
0.000188
0.000056
0.000192
0.000235
0.000251
0.000244
0.000268
0.000261
0.000214
0.000260
0.000235
0.000245
0.000281
0.000282
0.000253
0.000247
0.000260
0.000249
0.000270
0.001596
0.000760
0.000348
0.000288
0.000236
0.000241
0.000311
0.000246
0.000254
0.000293
0.000232
0.001398
0.000393
0.000341
0.000055
0.000191
0.000237
0.000269
0.000234
0.000263
0.000232
0.000270
0.000232
0.000253
0.000260
0.000313
0.000414
0.000407
0.000331
0.000212
0.000252
0.000268
0.001383
0.000692
0.000506
0.000297
0.000281
0.000232
0.000253
0.000270
0.000259
0.000249
0.000268
0.001478
0.000449
0.000171
0.000055
0.000202
0.000249
0.000233
0.000251
0.000249
0.000253
0.000232
0.000250
0.000270
0.000276
0.000390
0.000347
0.000325
0.000218
0.000242
0.000250
0.000264
0.000257
0.001569
0.000636
0.000493
0.000283
0.000230
0.000254
0.000269
0.000262
0.000258
0.000283
0.000263
0.001351
0.000340
0.000056
0.000210
0.000219
0.000234
0.000258
0.000258
0.000244
0.000250
0.000300
0.000358
0.000434
0.000401
0.000413
0.000315
0.000223
0.000243
0.000251
0.000297
0.000239
0.000272
0.001933
0.000309
0.000237
0.000452
0.000228
0.000256
0.000268
0.000279
0.000250
0.000267
0.000278
0.000259
0.000055
0.000232
0.000274
0.000244
0.000243
0.000261
0.000245
0.000227
0.000235
0.000274
0.000264
0.000231
0.000238
0.000315
0.000461
0.000416
0.000453
0.000220
0.000265
0.000247
0.000255
0.000258
0.000278
0.001491
0.001039
0.000223
0.000243
0.000269
0.000265
0.000272
0.000251
0.000203
0.000055
0.000209
0.001332
0.000306
0.000199
0.000232
0.000257
0.000252
0.000238
0.000239
0.000264
0.000245
0.000264
0.000247
0.000421
0.000318
0.000478
0.000265
0.000241
0.000259
0.000275
0.000275
0.000221
0.000259
0.000267
0.001328
0.000681
0.000305
0.000379
0.000371
0.000403
0.000305
0.000056
0.000196
0.000254
0.000353
0.001328
0.000194
0.000249
0.000237
0.000260
0.000253
0.000255
0.000253
0.000246
0.000285
0.000336
0.000594
0.000269
0.000224
0.000284
0.000331
0.000211
0.000248
0.000272
0.000236
0.000271
0.000268
0.001533
0.000746
0.000319
0.000261
0.000271
0.000190
0.000056
0.000197
0.000239
0.000474
0.000337
0.001298
0.000230
0.000230
0.000244
0.000231
0.000252
0.000246
0.000256
0.000242
0.000231
0.000248
0.000258
0.000267
0.000235
0.000259
0.000253
0.000268
0.000270
0.000304
0.000332
0.000215
0.000273
0.000262
0.001458
0.000265
0.000239
0.000172
0.000056
0.000186
0.000235
0.000247
0.000263
0.000352
0.000372
0.000399
0.000278
0.001590
0.000227
0.000298
0.000466
0.000362
0.000237
0.000436
0.000239
0.000235
0.000261
0.000267
0.000277
0.000278
0.000264
0.000261
0.000269
0.000255
0.000428
0.000412
0.000296
0.001579
0.000221
0.000195
0.000057
0.000234
0.000235
0.000249
0.000248
0.000239
0.000245
0.000265
0.000311
0.000413
0.002029
0.000224
0.000252
0.000256
0.000260
0.000262
0.000299
0.000220
0.000259
0.000403
0.000358
0.000395
0.000353
0.001454
0.000247
0.000276
0.001979
0.000280
0.000245
0.000254
0.001545
0.000141
0.000057
0.000176
0.000522
0.000390
0.000244
0.000275
0.000211
0.000259
0.000269
0.000264
0.000228
0.000253
0.000347
0.000427
0.000427
0.000314
0.000256
0.000226
0.001574
0.000239
0.000600
0.001849
0.000294
0.000223
0.001551
0.002025
0.000738
0.000276
0.000258
0.000338
0.000428
0.000323
0.000056
0.000233
0.000232
0.000283
0.000220
0.002862
0.000288
0.001078
0.000202
0.000238
0.001624
0.001937
0.000214
0.000237
0.000425
0.000305
0.000370
0.000466
0.000422
0.000208
0.000238
0.000251
0.000261
0.000272
0.001587
0.001215
0.001424
0.000285
0.000281
0.000262
0.000319
0.000324
0.000057
0.000235
0.000215
0.000236
0.000243
0.000230
0.000242
0.000249
0.000261
0.000250
0.000244
0.000243
0.000324
0.000415
0.000484
0.000306
0.000225
0.000249
0.000269
0.000269
0.000298
0.000226
0.000261
0.001523
0.000465
0.002120
0.000241
0.000274
0.000341
0.000423
0.000374
0.000192
0.000057
0.000293
0.000255
0.000495
0.000309
0.000202
0.000227
0.000254
0.000242
0.000240
0.000246
0.000244
0.000270
0.000255
0.001609
0.001351
0.001221
0.000275
0.000237
0.000250
0.000273
0.000284
0.000284
0.000238
0.000255
0.002212
0.000247
0.000253
0.000293
0.000318
0.000311
0.000224
0.000056
0.000210
0.000480
0.000398
0.000342
0.000234
0.000234
0.000246
0.000266
0.001906
0.001412
0.000215
0.000336
0.000382
0.000411
0.000258
0.000237
0.000271
0.000254
0.000262
0.000261
0.000259
0.000268
0.000467
0.000240
0.000268
0.000268
0.000245
0.000280
0.000290
0.000241
0.000201
0.000057
0.000198
0.000248
0.000251
0.000241
0.000276
0.000249
0.001532
0.001424
0.001321
0.000238
0.000239
0.000242
0.000265
0.000263
0.000248
0.000245
0.000245
0.002107
0.000251
0.000231
0.000267
0.000272
0.000247
0.000271
0.000259
0.000278
0.000252
0.000253
0.000286
0.000244
0.000177
0.000055
0.000196
0.002678
0.001401
0.000218
0.000302
0.000326
0.000212
0.000281
0.000237
0.000241
0.000252
0.000245
0.000234
0.000248
0.000272
0.000254
0.000267
0.000266
0.000264
0.000275
0.000257
0.000276
0.000279
0.000262
0.000247
0.000246
0.000267
0.000275
0.000253
0.000270
0.000381
0.000056
0.001569
0.000227
0.001234
0.000231
0.000224
0.000253
0.000246
0.000278
0.000224
0.000380
0.000279
0.000395
0.000307
0.000219
0.000247
0.002144
0.000239
0.000253
0.000337
0.000475
0.000379
0.000261
0.000222
0.000258
0.000265
0.000250
0.000265
0.000280
0.000267
0.001663
0.001213
0.000055
0.000208
0.000224
0.000302
0.000437
0.000294
0.000303
0.000213
0.000235
0.000252
0.000256
0.000267
0.000245
0.000226
0.000256
0.000277
0.000228
0.000369
0.000595
0.000333
0.000237
0.000238
0.000271
0.000286
0.000249
0.000249
0.000250
0.000268
0.000272
0.000242
0.000381
0.000296
0.000057
0.001113
0.000226
0.000390
0.000446
0.000259
0.000228
0.000231
0.000240
0.000270
0.002339
0.000396
0.000285
0.000233
0.000381
0.000318
0.000236
0.000244
0.000257
0.000270
0.000225
0.000249
0.000309
0.000676
0.000386
0.001835
0.001257
0.000568
0.000551
0.000219
0.000285
0.000193
0.000056
0.000294
0.000281
0.000258
0.000238
0.000254
0.000229
0.000268
0.000237
0.000254
0.000248
0.000253
0.000226
0.000250
0.000282
0.000396
0.000460
0.001854
0.001311
0.000451
0.000452
0.000455
0.000239
0.000239
0.000263
0.002127
0.000595
0.000343
0.000238
0.000280
0.000282
0.000208
0.000056
0.000216
0.000242
0.000264
0.000238
0.000240
0.000432
0.000368
0.000324
0.000265
0.000224
0.000241
0.000249
0.000263
0.002105
0.000382
0.000376
0.000216
0.000250
0.000284
0.000241
0.000248
0.002462
0.000335
0.000219
0.000256
0.000257
0.000257
0.000290
0.000290
0.000253
0.000193
0.000055
0.000208
0.000407
0.000500
0.000352
0.000251
0.000223
0.000235
0.000255
0.000264
0.000268
0.001923
0.000402
0.000272
0.000268
0.000243
0.000272
0.000266
0.000242
0.002207
0.000451
0.000224
0.000265
0.000271
0.000256
0.000253
0.000256
0.000301
0.000235
0.000267
0.000252
0.000193
0.000056
0.000225
0.000240
0.000246
0.000229
0.000242
0.000262
0.000235
0.000245
0.000235
0.002178
0.000269
0.000239
0.000220
0.000430
0.000221
0.000258
0.000318
0.000248
0.000255
0.000250
0.001970
0.000268
0.000336
0.000362
0.000438
0.000402
0.000312
0.000257
0.000252
0.000260
0.000199
0.000056
0.000206
0.000239
0.000236
0.000253
0.000370
0.000204
0.000227
0.002303
0.000242
0.000234
0.000255
0.000258
0.000235
0.000280
0.000277
0.002123
0.000592
0.000232
0.000241
0.000242
0.000261
0.000259
0.000294
0.000270
0.000260
0.000249
0.000290
0.000251
0.000267
0.000268
0.000194
0.000056
0.001823
0.001434
0.000203
0.000252
0.000221
0.000254
0.000253
0.000281
0.000419
0.000345
0.002145
0.000263
0.000227
0.000278
0.000297
0.000435
0.000458
0.000293
0.000225
0.000252
0.000249
0.000264
0.000266
0.000231
0.000255
0.000264
0.000272
0.000266
0.000406
0.000585
0.000306
0.000056
0.000202
0.000245
0.000243
0.000250
0.000273
0.000242
0.000259
0.000237
0.001476
0.002118
0.000611
0.000254
0.000423
0.000719
0.000310
0.000235
0.000257
0.000246
0.000269
0.000261
0.000250
0.000248
0.000242
0.000278
0.003007
0.000330
0.000243
0.000262
0.000291
0.000401
0.000359
0.000057
0.001920
0.000240
0.000233
0.000229
0.000271
0.000362
0.000460
0.000313
0.000270
0.000232
0.000241
0.000247
0.000260
0.000257
0.000265
0.000257
0.000256
0.000283
0.001815
0.000234
0.000250
0.000253
0.000277
0.000280
0.000269
0.000254
0.001458
0.000349
0.000240
0.000261
0.000169
0.000055
0.000197
0.000236
0.000264
0.000225
0.000245
0.000241
0.000281
0.000407
0.000321
0.000387
0.000214
0.000234
0.000261
0.000332
0.000422
0.000315
0.000225
0.000259
0.000261
0.000387
0.000510
0.000360
0.000266
0.000253
0.000260
0.000254
0.000254
0.000271
0.000273
0.000267
0.000200
0.000055
0.001427
0.000441
0.000221
0.001951
0.000336
0.000381
0.000411
0.000315
0.000220
0.000250
0.000268
0.000245
0.000244
0.000246
0.000270
0.000257
0.000462
0.000312
0.000383
0.000347
0.000362
0.000237
0.000254
0.000271
0.000272
0.000269
0.000262
0.000268
0.000387
0.000430
0.001377
0.000057
0.000197
0.000221
0.002081
0.000335
0.000298
0.000237
0.000271
0.000232
0.000262
0.000254
0.000219
0.000255
0.000256
0.000262
0.000276
0.000334
0.000710
0.001765
0.000225
0.000256
0.000254
0.000262
0.000379
0.000506
0.001510
0.000285
0.000363
0.001927
0.000251
0.000266
0.000194
0.000055
0.000213
0.000232
0.000229
0.000242
0.000234
0.000252
0.000260
0.000271
0.000329
0.000264
0.000377
0.000367
0.000337
0.000295
0.000244
0.000278
0.000255
0.000243
0.000261
0.000254
0.000305
0.000284
0.000268
0.000264
0.000268
0.001516
0.000278
0.000382
0.002071
0.000238
0.000176
0.000055
0.000232
0.000237
0.000241
0.000244
0.000486
0.000207
0.000275
0.000312
0.000374
0.000310
0.000298
0.000206
0.000270
0.000264
0.000273
0.000354
0.000406
0.000423
0.000242
0.000418
0.000538
0.000464
0.001542
0.000230
0.000251
0.002007
0.000306
0.000258
0.000231
0.000301
0.000185
0.000057
0.000203
0.000241
0.000231
0.000244
0.000250
0.000273
0.000251
0.000272
0.000251
0.000289
0.001780
0.000308
0.000387
0.000278
0.000463
0.000388
0.000395
0.001443
0.000232
0.000285
0.002159
0.000523
0.000255
0.000247
0.000262
0.000266
0.000508
0.000225
0.000249
0.000282
0.000191
0.000055
0.000261
0.000359
0.000372
0.000295
0.000200
0.000243
0.000262
0.000252
0.000265
0.000296
0.000219
0.000271
0.000241
0.000315
0.000286
0.000481
0.001306
0.000266
0.000280
0.001963
0.000327
0.000274
0.000233
0.000267
0.000259
0.000266
0.000264
0.000267
0.000250
0.000278
0.000192
0.000055
0.000226
0.000395
0.002057
0.000257
0.000220
0.000259
0.000291
0.000347
0.000431
0.000355
0.001312
0.000354
0.000355
0.002084
0.000214
0.000244
0.000270
0.000276
0.000255
0.000247
0.000276
0.000293
0.000260
0.000351
0.000522
0.000366
0.000269
0.002238
0.000500
0.000502
0.000402
0.000070
0.000205
0.000226
0.000239
0.001961
0.000226
0.000238
0.000237
0.000243
0.000245
0.000263
0.000242
0.000263
0.000277
0.000276
0.000563
0.001321
0.000250
0.000243
0.000272
0.000263
0.000228
0.000255
0.000260
0.000263
0.000359
0.000535
0.000348
0.000249
0.001607
0.000271
0.000161
0.000055
0.000200
0.000226
0.000248
0.000231
0.000264
0.000268
0.000224
0.000245
0.000258
0.000351
0.000390
0.001412
0.000220
0.000235
0.000250
0.000293
0.000225
0.000259
0.000293
0.000505
0.000578
0.000246
0.000228
0.001599
0.000213
0.000255
0.000291
0.000277
0.000260
0.000270
0.000185
0.000055
0.000209
0.000232
0.000273
0.000269
0.000246
0.000244
0.000254
0.000225
0.000276
0.000223
0.000252
0.000270
0.000252
0.001476
0.000361
0.000203
0.000260
0.000263
0.000268
0.000315
0.000369
0.000277
0.000249
0.000266
0.000257
0.000267
0.000257
0.001416
0.000279
0.000224
0.000177
0.000056
0.000206
0.000231
0.000263
0.000262
0.000269
0.000222
0.000247
0.000258
0.000221
0.000267
0.000243
0.000273
0.000209
0.000284
0.000403
0.000388
0.000237
0.000227
0.001641
0.000247
0.000232
0.000260
0.000266
0.000280
0.000404
0.000352
0.000463
0.000262
0.000257
0.001611
0.000161
0.000055
0.000304
0.000387
0.000299
0.000345
0.000230
0.000216
0.000246
0.000271
0.000257
0.000255
0.000232
0.000237
0.001460
0.000307
0.000294
0.000219
0.000252
0.000273
0.000253
0.000264
0.000251
0.000234
0.000265
0.000269
0.000272
0.000391
0.000455
0.000299
0.000285
0.000260
0.000189
0.000055
0.000209
0.000257
0.000377
0.000440
0.000377
0.000236
0.000241
0.000251
0.000251
0.000257
0.000241
0.000223
0.000258
0.000246
0.001255
0.000308
0.000226
0.000255
0.000264
0.000272
0.000232
0.000267
0.000255
0.000256
0.000255
0.000259
0.000368
0.000657
0.000427
0.000238
0.000179
0.000055
0.000195
0.001571
0.000214
0.000358
0.000465
0.000356
0.000223
0.000260
0.000261
0.000264
0.000228
0.000260
0.000270
0.000277
0.000258
0.001543
0.000236
0.000288
0.000257
0.000257
0.000276
0.000240
0.000263
0.000259
0.000259
0.000340
0.000331
0.000378
0.000367
0.000249
0.000196
0.000056
0.000206
0.000248
0.000238
0.001621
0.000458
0.000296
0.000237
0.000232
0.000252
0.000272
0.000280
0.000251
0.000256
0.000257
0.000231
0.000274
0.000451
0.001276
0.000248
0.000223
0.001495
0.000556
0.000334
0.000393
0.000329
0.000243
0.000272
0.000467
0.000233
0.000268
0.000176
0.000056
0.000275
0.000215
0.000253
0.000243
0.000255
0.000245
0.000245
0.000256
0.000251
0.000253
0.000245
0.000291
0.000370
0.000502
0.001572
0.001479
0.000369
0.000560
0.000316
0.000221
0.000226
0.000259
0.000250
0.000263
0.000259
0.000274
0.000249
0.000267
0.001535
0.000316
0.000158
0.000055
0.000204
0.000349
0.000355
0.000332
0.000230
0.000239
0.000242
0.000468
0.000322
0.000352
0.002188
0.000314
0.000690
0.000519
0.000456
0.000259
0.000327
0.000394
0.000328
0.000283
0.000400
0.000266
0.001544
0.000508
0.000217
0.000337
0.000198
0.000245
0.000269
0.000259
0.000205
0.000055
0.000199
0.000251
0.000256
0.000252
0.000243
0.001664
0.000876
0.000997
0.000204
0.000239
0.000261
0.000253
0.000263
0.000258
0.000255
0.000248
0.000252
0.000267
0.000263
0.000284
0.001420
0.000317
0.000252
0.000236
0.000231
0.000262
0.000263
0.000283
0.000264
0.000285
0.001897
0.000056
0.000201
0.000228
0.001538
0.000868
0.000402
0.000358
0.000212
0.000229
0.000248
0.000259
0.000245
0.000252
0.000246
0.001994
0.000466
0.000216
0.000249
0.000257
0.000261
0.000258
0.000192
