0.000362
0.017862
0.003587
0.000328
0.000244
0.000305
0.000322
0.000249
0.000318
0.000273
0.000253
0.000338
0.000531
0.000505
0.000363
0.000324
0.000291
0.000331
0.000358
0.000420
0.000318
0.001927
0.000689
0.000265
0.000237
0.000304
0.000323
0.000318
0.000419
0.000382
0.000515
0.000282
0.000058
0.000225
0.000252
0.000268
0.000293
0.000248
0.000257
0.000280
0.000279
0.000269
0.000256
0.000545
0.000344
0.000291
0.000265
0.000369
0.000353
0.000365
0.000251
0.000246
0.001751
0.000256
0.000269
0.000449
0.000254
0.000269
0.000276
0.000290
0.000292
0.000281
0.000322
0.000526
0.000056
0.000240
0.000245
0.000260
0.000261
0.000255
0.000245
0.000267
0.000253
0.000287
0.001668
0.000233
0.000227
0.000273
0.000267
0.000275
0.000255
0.000267
0.000250
0.000356
0.001796
0.000241
0.000280
0.000440
0.000455
0.000377
0.000242
0.000301
0.000526
0.000420
0.000728
0.000202
0.000056
0.000223
0.000245
0.000254
0.000239
0.000294
0.000272
0.000294
0.000558
0.000378
0.000264
0.000244
0.000247
0.000244
0.000256
0.000246
0.000259
0.000243
0.000274
0.000292
0.000376
0.001629
0.000277
0.000236
0.000425
0.000287
0.000737
0.000634
0.000538
0.000344
0.000240
0.000191
0.000055
0.000222
0.000246
0.000296
0.000210
0.000302
0.000208
0.000269
0.000422
0.001505
0.000219
0.000247
0.000247
0.000254
0.000252
0.000264
0.000302
0.000371
0.000813
0.001262
0.000306
0.000238
0.000419
0.000235
0.000251
0.000260
0.000259
0.000263
0.000272
0.000260
0.000270
0.000198
0.000055
0.000210
0.000245
0.000244
0.000264
0.000237
0.000246
0.000240
0.000254
0.000238
0.000258
0.001622
0.000260
0.000244
0.000244
0.000245
0.000249
0.000252
0.000271
0.000233
0.000252
0.000300
0.001643
0.000280
0.000256
0.000427
0.000269
0.000244
0.000259
0.000267
0.000274
0.000204
0.000055
0.000200
0.000239
0.000247
0.000243
0.000248
0.000246
0.000259
0.000234
0.000266
0.000280
0.000227
0.000257
0.000254
0.000278
0.001629
0.000276
0.000300
0.000223
0.000249
0.000270
0.000287
0.000213
0.000249
0.000268
0.001797
0.000447
0.000398
0.000253
0.000232
0.000280
0.000200
0.000056
0.000202
0.000244
0.000237
0.000272
0.000260
0.000261
0.000301
0.000367
0.000393
0.000446
0.000216
0.000247
0.000250
0.000247
0.001563
0.000525
0.000369
0.000357
0.000330
0.000242
0.000249
0.000286
0.000271
0.001749
0.000475
0.000489
0.000259
0.000253
0.000231
0.000263
0.000179
0.000057
0.000211
0.000232
0.000255
0.000276
0.000301
0.000467
0.000452
0.000202
0.000221
0.000241
0.000259
0.000246
0.000251
0.001826
0.000358
0.000321
0.000214
0.000250
0.000270
0.000289
0.000242
0.000260
0.000271
0.001976
0.000216
0.000394
0.000258
0.000244
0.000265
0.000401
0.000325
0.000055
0.000215
0.000526
0.000194
0.000295
0.000255
0.000245
0.000250
0.000261
0.000237
0.000239
0.000232
0.000252
0.001576
0.000393
0.000251
0.000221
0.000261
0.000254
0.000244
0.000308
0.000278
0.000314
0.000228
0.001819
0.000259
0.000495
0.000236
0.000260
0.000249
0.000273
0.000262
0.000057
0.000381
0.000560
0.000604
0.000218
0.000231
0.000273
0.000228
0.000221
0.000264
0.000248
0.000258
0.001701
0.000243
0.000446
0.000370
0.000214
0.000232
0.000236
0.000248
0.000272
0.000264
0.001844
0.000228
0.000464
0.001860
0.000536
0.000350
0.000248
0.000250
0.000267
0.000186
0.000055
0.000203
0.000234
0.000250
0.000242
0.000258
0.001622
0.000245
0.000235
0.000258
0.000249
0.000242
0.000258
0.000253
0.000240
0.000284
0.000691
0.000344
0.000253
0.000232
0.000273
0.000280
0.000230
0.000245
0.000436
0.000463
0.000259
0.000321
0.000705
0.000285
0.000260
0.000220
0.000056
0.000220
0.000237
0.000249
0.000254
0.000237
0.000238
0.000258
0.000421
0.000408
0.001701
0.000224
0.000230
0.000268
0.000225
0.000258
0.000286
0.000404
0.000536
0.000296
0.000243
0.000270
0.000298
0.000283
0.000244
0.000276
0.000440
0.000341
0.000622
0.000542
0.000343
0.000184
0.000056
0.000198
0.000250
0.000243
0.000237
0.000238
0.000240
0.000247
0.000258
0.000226
0.000295
0.000343
0.000535
0.001292
0.000244
0.000234
0.000259
0.000245
0.000257
0.000240
0.000254
0.000276
0.000476
0.000418
0.000250
0.000259
0.000250
0.000252
0.000280
0.000261
0.000277
0.000372
0.000055
0.000228
0.000240
0.000213
0.000353
0.000464
0.000428
0.000219
0.000261
0.000239
0.000254
0.000259
0.000229
0.000320
0.000225
0.000256
0.000515
0.000390
0.001641
0.000281
0.000207
0.000265
0.000262
0.000251
0.000261
0.000248
0.000418
0.000545
0.000296
0.000415
0.000249
0.000188
0.000055
0.000233
0.000439
0.000234
0.000218
0.000286
0.000215
0.000378
0.000492
0.000341
0.000303
0.000223
0.000278
0.000264
0.000236
0.000525
0.000335
0.000243
0.000240
0.000451
0.001585
0.000255
0.000246
0.000526
0.000249
0.000286
0.000265
0.000258
0.000369
0.000527
0.000381
0.000269
0.000055
0.000209
0.000242
0.000237
0.000239
0.000424
0.000302
0.000290
0.000221
0.000416
0.000521
0.000309
0.000264
0.000236
0.000241
0.000258
0.000267
0.000256
0.000247
0.000237
0.000369
0.000263
0.000322
0.001888
0.000214
0.000259
0.000253
0.000288
0.000347
0.000412
0.000709
0.000485
0.000057
0.000227
0.000334
0.000308
0.000457
0.000344
0.000201
0.000272
0.000450
0.000324
0.000487
0.000206
0.000246
0.000227
0.000272
0.000257
0.000235
0.000252
0.000280
0.000266
0.000259
0.000278
0.000445
0.000643
0.001312
0.000327
0.000431
0.000431
0.000221
0.000543
0.000339
0.000333
0.000055
0.000230
0.000377
0.000283
0.000209
0.000221
0.000248
0.000414
0.000235
0.000235
0.000414
0.000444
0.000384
0.000246
0.000254
0.000260
0.000248
0.000356
0.000412
0.000329
0.000245
0.000241
0.000475
0.000574
0.001656
0.000324
0.000354
0.000296
0.000223
0.000299
0.000437
0.000355
0.000056
0.000194
0.000228
0.000248
0.000262
0.000246
0.000231
0.000257
0.000369
0.000416
0.000276
0.000430
0.000370
0.000292
0.000588
0.000246
0.000240
0.000278
0.000260
0.000229
0.000351
0.000221
0.000247
0.000272
0.000460
0.000522
0.001581
0.000262
0.000232
0.000256
0.000270
0.000188
0.000055
0.000299
0.000522
0.000303
0.000222
0.000240
0.000239
0.000259
0.000240
0.000272
0.000238
0.000218
0.000267
0.000391
0.000558
0.000372
0.000305
0.000225
0.000255
0.000331
0.000388
0.000381
0.000336
0.000361
0.000395
0.000250
0.000261
0.000266
0.000270
0.001791
0.000246
0.000214
0.000055
0.000199
0.000229
0.000259
0.000297
0.000330
0.000540
0.000326
0.000209
0.000282
0.000239
0.000252
0.000249
0.000525
0.000443
0.000502
0.000263
0.000266
0.000263
0.000417
0.000464
0.000361
0.000463
0.000486
0.000392
0.000240
0.000240
0.000266
0.000249
0.000260
0.001719
0.000302
0.000055
0.000204
0.000328
0.000230
0.000220
0.000251
0.000252
0.000235
0.000498
0.000376
0.000309
0.000294
0.000300
0.000314
0.000703
0.000295
0.000226
0.000252
0.000256
0.000256
0.000265
0.000277
0.000250
0.000249
0.000272
0.000297
0.000386
0.000382
0.000358
0.000249
0.000246
0.000195
0.000055
0.000458
0.000330
0.000462
0.000208
0.000205
0.000253
0.000242
0.000259
0.000243
0.000218
0.000253
0.000278
0.000301
0.000523
0.000424
0.000427
0.000323
0.000310
0.000349
0.000345
0.000297
0.000245
0.000243
0.000265
0.001750
0.000254
0.001718
0.001007
0.000424
0.000240
0.000164
0.000056
0.000208
0.000261
0.000214
0.000241
0.000269
0.000238
0.000253
0.000253
0.000240
0.000295
0.000457
0.000395
0.000337
0.000352
0.000263
0.000243
0.000238
0.000286
0.000247
0.000230
0.000259
0.000265
0.001820
0.000230
0.000249
0.000272
0.000273
0.001720
0.000414
0.000536
0.000302
0.000056
0.000212
0.000200
0.000238
0.000244
0.000267
0.000234
0.000239
0.000259
0.000256
0.000357
0.000617
0.000284
0.000372
0.000222
0.000252
0.000251
0.000323
0.000436
0.000366
0.000267
0.001778
0.000245
0.000270
0.000239
0.000258
0.000262
0.000247
0.000255
0.000325
0.000301
0.000407
0.000055
0.000263
0.000225
0.000222
0.000269
0.000238
0.000242
0.000255
0.000254
0.000238
0.000259
0.000241
0.000312
0.000344
0.000439
0.000299
0.000276
0.000453
0.000234
0.000269
0.000239
0.000263
0.000257
0.000271
0.000257
0.000281
0.001795
0.000235
0.000243
0.000270
0.000243
0.000202
0.000055
0.000315
0.000318
0.000216
0.000234
0.000242
0.000244
0.000229
0.000259
0.000244
0.000221
0.000238
0.000260
0.000267
0.000360
0.000403
0.000374
0.000288
0.000222
0.000255
0.000252
0.000261
0.000262
0.000244
0.000272
0.000259
0.000263
0.000308
0.001629
0.000263
0.000237
0.000195
0.000056
0.000197
0.000231
0.000246
0.000267
0.000348
0.000377
0.000430
0.000294
0.000195
0.000254
0.000268
0.000224
0.000269
0.000236
0.000259
0.000253
0.000251
0.000261
0.000251
0.000262
0.000266
0.000267
0.000243
0.000243
0.000246
0.000273
0.000277
0.000263
0.000251
0.000262
0.000197
0.000056
0.000243
0.000205
0.000260
0.000274
0.000236
0.000234
0.000239
0.000269
0.000270
0.000252
0.000237
0.000236
0.000254
0.000254
0.000293
0.000233
0.000254
0.000248
0.000304
0.000247
0.000274
0.000324
0.000269
0.000222
0.000304
0.000243
0.000271
0.000254
0.000332
0.000316
0.000727
0.000055
0.000221
0.000291
0.000225
0.000229
0.000235
0.000254
0.000243
0.000243
0.000270
0.000227
0.000273
0.000307
0.000477
0.000582
0.001428
0.000228
0.000488
0.000231
0.000382
0.000346
0.000495
0.000313
0.000223
0.000286
0.000248
0.000254
0.000285
0.000249
0.000327
0.000278
0.000154
0.000056
0.000387
0.000427
0.000294
0.000323
0.000224
0.000279
0.000219
0.000245
0.000240
0.000238
0.000254
0.000252
0.000256
0.000300
0.000318
0.000534
0.000338
0.001806
0.000237
0.000251
0.000370
0.000383
0.000500
0.000248
0.000314
0.000319
0.000301
0.000239
0.000224
0.000250
0.000198
0.000056
0.000213
0.000248
0.000220
0.000306
0.000311
0.000530
0.000292
0.000255
0.000249
0.000220
0.000251
0.000266
0.000266
0.000267
0.000241
0.000274
0.000283
0.000539
0.000326
0.000410
0.000233
0.001756
0.000329
0.000491
0.000630
0.000336
0.000329
0.000220
0.000256
0.000272
0.000445
0.000056
0.000204
0.000270
0.000215
0.000357
0.000340
0.000616
0.000239
0.000230
0.000220
0.000291
0.000248
0.000259
0.000255
0.000292
0.000303
0.000236
0.000243
0.000377
0.000559
0.000257
0.000493
0.001845
0.000246
0.000506
0.000501
0.000300
0.000225
0.000259
0.000289
0.000257
0.000204
0.000056
0.000215
0.000334
0.000363
0.000374
0.000394
0.000259
0.000360
0.000219
0.000239
0.000254
0.000279
0.000228
0.000251
0.000268
0.000229
0.000258
0.000328
0.000386
0.000553
0.000299
0.000294
0.000247
0.000248
0.001719
0.000417
0.000561
0.000641
0.000231
0.000265
0.000312
0.000157
0.000055
0.000200
0.000239
0.000353
0.000227
0.000285
0.000310
0.000451
0.000316
0.000240
0.000525
0.000231
0.000252
0.000256
0.000278
0.000273
0.000263
0.000222
0.000412
0.000437
0.000403
0.000263
0.000229
0.000251
0.000257
0.000259
0.000272
0.000236
0.000250
0.000269
0.000317
0.000217
0.000056
0.000381
0.000259
0.000228
0.000254
0.000244
0.000257
0.000244
0.000294
0.000233
0.000247
0.000274
0.000337
0.000473
0.000490
0.000204
0.000278
0.000221
0.000240
0.000251
0.000270
0.000280
0.000277
0.000228
0.000259
0.000280
0.000396
0.000355
0.000363
0.000349
0.000226
0.000183
0.000057
0.000209
0.000225
0.000280
0.000245
0.000239
0.000268
0.000263
0.000236
0.000484
0.000219
0.000256
0.000262
0.000239
0.000271
0.000262
0.000300
0.000239
0.000352
0.000215
0.000239
0.000260
0.000265
0.000257
0.000269
0.000281
0.000254
0.000274
0.000246
0.000268
0.000488
0.000172
0.000055
0.000209
0.000240
0.000255
0.000284
0.000213
0.000236
0.000369
0.000397
0.000235
0.000236
0.000257
0.000252
0.000232
0.000317
0.000449
0.001736
0.000222
0.000262
0.000290
0.000333
0.000407
0.000370
0.000356
0.000440
0.000343
0.000410
0.000257
0.000253
0.000264
0.000276
0.001396
0.000055
0.000396
0.000306
0.000259
0.000228
0.000237
0.000250
0.000226
0.000262
0.000242
0.000273
0.000245
0.000257
0.000250
0.000319
0.000528
0.001626
0.000233
0.000230
0.000244
0.000262
0.000238
0.000259
0.000468
0.000299
0.000296
0.000340
0.000226
0.000270
0.000265
0.000272
0.000181
0.000057
0.001179
0.000680
0.000244
0.000216
0.000234
0.000221
0.000245
0.000228
0.000489
0.000235
0.000221
0.000296
0.000342
0.000581
0.000339
0.000298
0.000270
0.000238
0.000315
0.000351
0.000271
0.000256
0.000272
0.000247
0.000272
0.000537
0.000603
0.000239
0.000265
0.000262
0.000182
0.000055
0.000221
0.000214
0.000240
0.000264
0.001531
0.000225
0.000213
0.000255
0.000260
0.000227
0.000256
0.000253
0.000242
0.000260
0.000292
0.000290
0.000494
0.000560
0.000280
0.001754
0.000242
0.000292
0.000270
0.000428
0.000718
0.000263
0.000245
0.000244
0.000257
0.000273
0.000204
0.000057
0.000230
0.000233
0.000235
0.000351
0.001218
0.000244
0.000277
0.000232
0.000241
0.000236
0.000238
0.000257
0.000280
0.000260
0.000235
0.000273
0.000500
0.000486
0.000259
0.000239
0.000264
0.000270
0.000247
0.000236
0.000290
0.000264
0.000237
0.000279
0.000272
0.000378
0.000643
0.000056
0.000223
0.000248
0.000236
0.000261
0.000262
0.000236
0.000249
0.000255
0.000285
0.000264
0.001413
0.000221
0.000242
0.000243
0.000251
0.000243
0.000293
0.000242
0.000288
0.000234
0.000274
0.000484
0.000563
0.000293
0.000229
0.000267
0.001772
0.000254
0.000260
0.000494
0.000432
0.000056
0.000189
0.000405
0.000453
0.000499
0.000517
0.000534
0.001501
0.000418
0.000520
0.000656
0.000552
0.000834
0.000397
0.000588
0.000581
0.001889
0.000424
0.000408
0.000388
0.000324
0.000231
0.000278
0.000280
0.000270
0.000262
0.000291
0.000291
0.000286
0.000261
0.000289
0.001356
0.000056
0.000208
0.000233
0.000242
0.000241
0.000250
0.000258
0.000235
0.000242
0.000245
0.000255
0.000239
0.000241
0.000253
0.000256
0.000273
0.000268
0.001813
0.000257
0.000287
0.000226
0.000257
0.000264
0.000269
0.000348
0.000323
0.000466
0.000324
0.000228
0.000258
0.000281
0.000207
0.000056
0.000215
0.001346
0.000330
0.000281
0.000245
0.000241
0.000243
0.000226
0.000237
0.000238
0.000229
0.000241
0.000260
0.000495
0.000365
0.000305
0.000244
0.001824
0.000351
0.000252
0.000227
0.000259
0.000261
0.000262
0.000274
0.000283
0.000268
0.000258
0.000266
0.000346
0.000170
0.000056
0.000217
0.000237
0.000254
0.001447
0.000209
0.000251
0.000250
0.000242
0.000240
0.000269
0.000264
0.000232
0.000246
0.000282
0.000238
0.000250
0.000259
0.000270
0.000268
0.000255
0.000257
0.001784
0.000269
0.001758
0.000260
0.000256
0.000262
0.000267
0.000273
0.000267
0.000198
0.000055
0.000207
0.000264
0.001316
0.000232
0.000261
0.000236
0.000263
0.000253
0.000245
0.000250
0.000255
0.000240
0.000260
0.000262
0.000258
0.000267
0.000258
0.000289
0.000285
0.000234
0.001887
0.000228
0.001828
0.000251
0.000251
0.000273
0.000231
0.000250
0.000247
0.000286
0.000189
0.000055
0.001441
0.000224
0.000249
0.000228
0.000239
0.000237
0.000378
0.000282
0.000244
0.000244
0.000253
0.000242
0.000271
0.000432
0.000295
0.000274
0.000255
0.000277
0.000263
0.000282
0.000253
0.000333
0.000227
0.000250
0.000260
0.000276
0.000268
0.000417
0.000554
0.000372
0.000200
0.000057
0.000205
0.000266
0.000256
0.000298
0.000360
0.000278
0.001637
0.000344
0.000271
0.000283
0.000257
0.000256
0.000280
0.000253
0.000303
0.000310
0.000327
0.000633
0.000329
0.000268
0.000286
0.000285
0.000262
0.000268
0.000314
0.000269
0.000274
0.000262
0.000233
0.000383
0.000384
0.000057
0.000270
0.000463
0.000263
0.000266
0.000249
0.000224
0.000222
0.000253
0.000260
0.001470
0.000311
0.000212
0.000228
0.000254
0.000241
0.000291
0.000285
0.000234
0.000250
0.000270
0.000270
0.000365
0.000529
0.000346
0.000250
0.000285
0.000268
0.000256
0.000229
0.000318
0.000174
0.000056
0.000201
0.000238
0.000332
0.000435
0.000330
0.000293
0.000216
0.000249
0.000252
0.000248
0.000243
0.000251
0.000254
0.000267
0.000236
0.000241
0.000492
0.001121
0.000249
0.000234
0.000283
0.000248
0.000355
0.000426
0.000244
0.000324
0.000630
0.000351
0.000350
0.000214
0.000185
0.000056
0.000237
0.000246
0.000263
0.000261
0.000253
0.000276
0.000316
0.000561
0.000308
0.000259
0.000355
0.000393
0.000395
0.000363
0.000255
0.000237
0.000241
0.000360
0.000342
0.000489
0.001196
0.000225
0.000273
0.000271
0.000235
0.000237
0.000260
0.000322
0.000430
0.000456
0.000211
0.000056
0.000208
0.000235
0.000255
0.000243
0.000235
0.000252
0.000232
0.000270
0.000304
0.000452
0.000307
0.000387
0.000251
0.000234
0.000245
0.000259
0.000249
0.000259
0.000264
0.000274
0.000441
0.000270
0.000393
0.000443
0.000256
0.000231
0.000269
0.000263
0.000261
0.000341
0.000158
0.000055
0.000319
0.000310
0.000296
0.000401
0.000461
0.000345
0.000240
0.000239
0.000251
0.000297
0.000230
0.000262
0.000233
0.000253
0.000240
0.000235
0.000262
0.000478
0.000423
0.000305
0.000246
0.000246
0.000249
0.000250
0.000273
0.000280
0.000264
0.000275
0.000266
0.000260
0.000270
0.000056
0.000286
0.000346
0.000241
0.000272
0.000217
0.000250
0.000248
0.000251
0.000266
0.000255
0.000255
0.000234
0.000278
0.000501
0.000438
0.000289
0.000256
0.000234
0.000253
0.000276
0.000246
0.000264
0.000257
0.000266
0.000277
0.000346
0.000404
0.000661
0.000329
0.000246
0.000171
0.000055
0.000384
0.000217
0.000219
0.000239
0.000252
0.000250
0.000238
0.000252
0.000261
0.000253
0.000220
0.000248
0.000278
0.000220
0.000239
0.000265
0.000253
0.000266
0.000298
0.000245
0.000256
0.000258
0.000264
0.000262
0.000265
0.000236
0.000263
0.000299
0.000244
0.000273
0.000200
0.000056
0.000206
0.000227
0.000245
0.000253
0.000231
0.000258
0.000259
0.000243
0.000256
0.000280
0.000230
0.000229
0.000262
0.000387
0.000265
0.000291
0.000245
0.000268
0.000251
0.000284
0.000271
0.000239
0.000242
0.000254
0.000273
0.000268
0.000265
0.000237
0.000277
0.000255
0.000212
0.000055
0.000217
0.000363
0.000367
0.000280
0.000301
0.000253
0.000260
0.000258
0.000223
0.000255
0.000274
0.000231
0.000243
0.000240
0.000257
0.000280
0.000242
0.000267
0.000246
0.000265
0.000281
0.000258
0.000279
0.000256
0.000311
0.000203
0.000265
0.000275
0.000264
0.000263
0.000203
0.000056
0.000216
0.000235
0.000262
0.000261
0.000251
0.000450
0.000212
0.000302
0.000238
0.000411
0.000524
0.000274
0.000233
0.000248
0.000273
0.000261
0.000243
0.000269
0.000257
0.000264
0.000262
0.000278
0.000248
0.000291
0.000514
0.000481
0.000294
0.000295
0.000257
0.000271
0.000189
0.000056
0.000203
0.000223
0.000250
0.000251
0.000600
0.000362
0.000330
0.000380
0.000211
0.000247
0.000245
0.000257
0.000251
0.000246
0.000257
0.000279
0.000265
0.000235
0.000693
0.000382
0.000257
0.000238
0.000255
0.000288
0.000282
0.000253
0.000260
0.000290
0.000229
0.000339
0.000293
0.000056
0.000302
0.000223
0.000235
0.000244
0.000256
0.000266
0.000213
0.000250
0.000246
0.000256
0.000243
0.000272
0.000227
0.000385
0.000573
0.000435
0.000205
0.000254
0.000260
0.000246
0.000263
0.000295
0.000469
0.000220
0.000263
0.000586
0.000428
0.000476
0.000262
0.000247
0.000193
0.000057
0.000216
0.000236
0.000241
0.000243
0.000256
0.000265
0.000360
0.000377
0.000585
0.000421
0.000218
0.000261
0.000274
0.000280
0.000256
0.000240
0.000239
0.000247
0.000274
0.000332
0.000409
0.000634
0.000364
0.000244
0.000366
0.000384
0.000485
0.000243
0.000258
0.000396
0.000385
0.000056
0.000178
0.000228
0.000437
0.000226
0.000229
0.000260
0.000260
0.000257
0.000230
0.000245
0.000264
0.000418
0.000356
0.000369
0.000205
0.000236
0.000264
0.000249
0.000266
0.000283
0.000285
0.000236
0.000244
0.000278
0.000329
0.000545
0.000412
0.000246
0.000250
0.000271
0.000198
0.000056
0.000210
0.000251
0.000233
0.000242
0.000248
0.000296
0.000377
0.000347
0.000446
0.000266
0.000375
0.000226
0.000249
0.000263
0.000251
0.000245
0.000259
0.000259
0.000329
0.000373
0.000455
0.000342
0.000478
0.000268
0.000384
0.000418
0.000393
0.000238
0.000254
0.000274
0.000507
0.000056
0.000278
0.000267
0.000223
0.000252
0.000288
0.000237
0.000267
0.000228
0.000270
0.000244
0.000234
0.000312
0.000512
0.000362
0.000365
0.000231
0.000266
0.000262
0.000263
0.000240
0.000249
0.000253
0.000264
0.000276
0.000277
0.000335
0.000513
0.000444
0.000245
0.000281
0.000192
0.000055
0.000204
0.000243
0.000276
0.000244
0.000244
0.000338
0.000583
0.000438
0.000569
0.000466
0.000239
0.000215
0.000230
0.000259
0.000250
0.000265
0.000280
0.000269
0.000479
0.000490
0.001443
0.000305
0.000274
0.000257
0.000285
0.000261
0.000487
0.000339
0.000337
0.000312
0.000179
0.000056
0.000208
0.000231
0.000247
0.000259
0.000235
0.000243
0.000305
0.000232
0.000236
0.000331
0.000328
0.000384
0.000270
0.000332
0.000397
0.000346
0.000240
0.000250
0.000271
0.000258
0.000242
0.000247
0.000316
0.000222
0.000340
0.000419
0.000466
0.000250
0.000249
0.000269
0.000194
0.000055
0.000219
0.000249
0.000255
0.000254
0.000238
0.000239
0.000471
0.000222
0.000229
0.000250
0.000246
0.000250
0.000263
0.000256
0.000248
0.000267
0.000260
0.000294
0.000261
0.000240
0.000285
0.000285
0.000282
0.000237
0.000264
0.000276
0.000267
0.000264
0.000265
0.000277
0.000170
0.000056
0.000220
0.000256
0.000475
0.000250
0.000350
0.000259
0.000239
0.000248
0.000264
0.000242
0.000252
0.000258
0.000262
0.000262
0.000235
0.000248
0.000266
0.000248
0.000288
0.000326
0.000460
0.000391
0.000219
0.000271
0.000259
0.000253
0.000271
0.000256
0.000273
0.000269
0.000203
0.000055
0.000339
0.000463
0.000364
0.000207
0.000251
0.000264
0.000405
0.000224
0.000228
0.000276
0.000233
0.000292
0.000353
0.000449
0.001854
0.000249
0.000244
0.000255
0.000277
0.000241
0.000268
0.000511
0.000514
0.000401
0.000230
0.000263
0.000275
0.000422
0.000277
0.000278
0.000164
0.000055
0.000214
0.000368
0.000330
0.000323
0.000494
0.000204
0.000238
0.000246
0.000247
0.000253
0.000256
0.000249
0.000261
0.000299
0.000590
0.000306
0.000226
0.000242
0.000268
0.000254
0.000268
0.000306
0.000246
0.000277
0.000272
0.000453
0.000513
0.000376
0.000491
0.000224
0.000202
0.000056
0.000222
0.000235
0.000254
0.000234
0.000244
0.000249
0.000269
0.000295
0.000349
0.000303
0.000498
0.000326
0.000239
0.000238
0.000265
0.000284
0.000299
0.000237
0.000275
0.000273
0.000231
0.000337
0.000493
0.000358
0.000313
0.000202
0.000256
0.000445
0.000410
0.000297
0.000188
0.000056
0.000201
0.000238
0.000336
0.000584
0.000212
0.000232
0.000218
0.000260
0.000256
0.000266
0.000253
0.000250
0.000234
0.000252
0.000256
0.000294
0.000432
0.000328
0.000301
0.000344
0.000487
0.000229
0.000283
0.000272
0.000300
0.000289
0.000250
0.000269
0.000478
0.000481
0.000222
0.000056
0.000202
0.000231
0.000250
0.000248
0.000240
0.000483
0.000215
0.000252
0.000280
0.000343
0.000451
0.000601
0.000215
0.000241
0.000231
0.000256
0.000256
0.000269
0.000235
0.000256
0.000286
0.000240
0.000442
0.000329
0.000381
0.000391
0.000313
0.000294
0.000320
0.000242
0.000189
0.000055
0.000229
0.000231
0.000265
0.000473
0.000356
0.000261
0.000263
0.000249
0.000241
0.000242
0.000249
0.000260
0.000266
0.000241
0.000243
0.000258
0.000254
0.000237
0.000275
0.000403
0.000463
0.000419
0.000242
0.000237
0.000298
0.000260
0.000256
0.000255
0.000271
0.000261
0.000203
0.000055
0.000280
0.000370
0.000462
0.000244
0.000235
0.000238
0.000315
0.000451
0.000294
0.000227
0.000229
0.000268
0.000331
0.000419
0.000439
0.000240
0.000233
0.000236
0.000256
0.000263
0.000270
0.000261
0.000263
0.000274
0.000266
0.000335
0.000353
0.000498
0.000237
0.000233
0.000195
0.000055
0.000233
0.000242
0.000248
0.000255
0.000249
0.000269
0.000223
0.000273
0.000249
0.000238
0.000266
0.000234
0.000293
0.001440
0.000221
0.000246
0.000265
0.000246
0.000276
0.000276
0.000262
0.000234
0.000281
0.000255
0.000267
0.000267
0.000278
0.000272
0.000270
0.000257
0.000192
0.000056
0.000197
0.000228
0.000252
0.000267
0.000220
0.000244
0.000258
0.000259
0.000228
0.000247
0.000267
0.000251
0.000267
0.000232
0.000259
0.000265
0.000251
0.000255
0.000269
0.000255
0.000252
0.000264
0.000246
0.000250
0.001296
0.000269
0.000625
0.000430
0.000293
0.000249
0.000188
0.000055
0.000201
0.000233
0.000242
0.000254
0.000412
0.000251
0.000233
0.000241
0.000255
0.000441
0.000398
0.000330
0.000213
0.000242
0.000257
0.000255
0.000254
0.000283
0.000234
0.000255
0.000255
0.000261
0.000259
0.000454
0.000496
0.000440
0.000226
0.000260
0.001389
0.000217
0.000191
0.000055
0.000329
0.000404
0.000305
0.000276
0.000226
0.000226
0.000222
0.000255
0.000259
0.000252
0.000250
0.000264
0.000293
0.000277
0.000682
0.000225
0.000343
0.000212
0.000249
0.000266
0.000262
0.000285
0.000270
0.000242
0.000274
0.000264
0.000289
0.000576
0.000401
0.000348
0.000163
0.000055
0.000209
0.000220
0.001256
0.000430
0.000289
0.000488
0.000380
0.000464
0.000269
0.000344
0.000212
0.000243
0.000257
0.000252
0.000248
0.000268
0.000400
0.000468
0.000341
0.000392
0.000268
0.000241
0.000261
0.000499
0.000232
0.000264
0.000258
0.000279
0.000319
0.000536
0.000295
0.000055
0.000377
0.000312
0.000235
0.001451
0.000376
0.000424
0.000322
0.000230
0.000245
0.000244
0.000234
0.000238
0.000249
0.000271
0.000246
0.000263
0.000238
0.000271
0.000446
0.000393
0.000404
0.000239
0.000258
0.000261
0.000262
0.000270
0.000270
0.000235
0.000268
0.000279
0.000196
0.000055
0.000476
0.000238
0.000220
0.000243
0.000251
0.000242
0.000263
0.000237
0.000234
0.000220
0.001414
0.000471
0.000269
0.000248
0.000233
0.000250
0.000277
0.000256
0.000240
0.000303
0.000246
0.000248
0.000274
0.000435
0.000533
0.000322
0.000221
0.000267
0.000274
0.000277
0.000181
0.000054
0.000196
0.000406
0.000225
0.000234
0.000446
0.000416
0.000321
0.000295
0.000453
0.000210
0.000236
0.000254
0.000260
0.000262
0.000258
0.001491
0.000291
0.000293
0.000229
0.000268
0.000299
0.000233
0.000250
0.000251
0.000262
0.000271
0.000372
0.000531
0.000287
0.000273
0.000165
0.000055
0.000219
0.000227
0.000257
0.000241
0.000226
0.000259
0.000240
0.000252
0.000274
0.000485
0.000349
0.000297
0.000208
0.000260
0.000244
0.000273
0.000270
0.000264
0.000267
0.000230
0.000263
0.000412
0.001146
0.000246
0.000277
0.000243
0.000256
0.000269
0.000253
0.000270
0.000186
0.000055
0.000260
0.000313
0.000390
0.000303
0.000280
0.000225
0.000258
0.000287
0.000238
0.000262
0.000239
0.000265
0.000242
0.000270
0.000258
0.000242
0.000266
0.000275
0.000260
0.000249
0.000254
0.000264
0.000274
0.000279
0.000288
0.000262
0.000275
0.000262
0.000267
0.000437
0.001364
0.000056
0.000191
0.000246
0.000220
0.000263
0.000234
0.000257
0.000246
0.000233
0.000244
0.000251
0.000303
0.000233
0.000245
0.000239
0.000281
0.000220
0.001730
0.000260
0.000237
0.000256
0.000249
0.000262
0.000278
0.000251
0.000295
0.000234
0.000270
0.000273
0.000271
0.000259
0.000226
0.000055
0.000276
0.000318
0.001301
0.000223
0.000233
0.000246
0.000260
0.000245
0.000271
0.000246
0.000237
0.000352
0.000418
0.000406
0.000297
0.000207
0.000252
0.000258
0.000254
0.000270
0.000239
0.000277
0.000257
0.000287
0.000262
0.000427
0.000338
0.000368
0.000317
0.000233
0.000195
0.000056
0.000236
0.000241
0.000247
0.000247
0.000278
0.000197
0.000242
0.000347
0.000386
0.001279
0.000272
0.000210
0.000244
0.000278
0.000245
0.000294
0.000234
0.000246
0.000322
0.000514
0.000270
0.000270
0.000248
0.000234
0.000296
0.000269
0.000266
0.000289
0.000276
0.000269
0.000193
0.000055
0.000231
0.000464
0.000369
0.000215
0.000232
0.000234
0.000252
0.000272
0.000264
0.000246
0.000236
0.000247
0.000459
0.000500
0.000472
0.001507
0.000196
0.000270
0.000333
0.000350
0.000460
0.000477
0.000452
0.000365
0.000235
0.000261
0.000270
0.000276
0.000264
0.000273
0.000202
0.000055
0.000206
0.000286
0.000443
0.000538
0.000274
0.000233
0.000268
0.000225
0.000241
0.000272
0.000230
0.000271
0.000279
0.000218
0.000273
0.000289
0.000361
0.000416
0.001499
0.000267
0.000224
0.000246
0.000250
0.000263
0.000435
0.000497
0.000372
0.000237
0.000269
0.000267
0.000180
0.000056
0.000205
0.000242
0.000244
0.000270
0.000229
0.000316
0.000420
0.000488
0.000261
0.000223
0.000233
0.000262
0.000274
0.000287
0.000240
0.000249
0.000263
0.000255
0.000291
0.000283
0.000515
0.000451
0.000224
0.001397
0.000355
0.000243
0.000265
0.000397
0.000527
0.000288
0.000314
0.000055
0.000196
0.000234
0.000255
0.000232
0.000250
0.000254
0.001679
0.000253
0.000220
0.000233
0.000257
0.000246
0.000256
0.000324
0.000327
0.000283
0.000310
0.000312
0.000464
0.000397
0.000311
0.000287
0.000228
0.000248
0.001498
0.000425
0.000319
0.000472
0.000328
0.000303
0.000167
0.000055
0.000206
0.000245
0.000260
0.000253
0.000247
0.000270
0.001700
0.000244
0.000228
0.000265
0.000337
0.000399
0.001454
0.000418
0.000335
0.000237
0.000249
0.000249
0.000263
0.000275
0.001544
0.000666
0.000283
0.000295
0.000231
0.000255
0.000266
0.000280
0.000245
0.000249
0.000202
0.000056
0.000195
0.000240
0.000268
0.000242
0.000263
0.000300
0.000251
0.000268
0.000238
0.000252
0.000253
0.000248
0.000291
0.000243
0.000287
0.001459
0.000284
0.000227
0.000269
0.000276
0.000270
0.000262
0.000422
0.001274
0.000273
0.000232
0.000276
0.000251
0.000404
0.000239
0.000202
0.000056
0.000216
0.000246
0.000217
0.000250
0.000238
0.000231
0.000230
0.001694
0.000251
0.000235
0.000347
0.000290
0.000202
0.000228
0.000254
0.001395
0.000228
0.000261
0.000265
0.000246
0.000273
0.000339
0.000291
0.001300
0.000299
0.000236
0.000240
0.000270
0.001385
0.000316
0.000185
0.000055
0.000348
0.000246
0.000212
0.000235
0.000264
0.000226
0.000292
0.000249
0.000260
0.000248
0.000260
0.000260
0.000262
0.000241
0.000367
0.001468
0.000229
0.000262
0.000248
0.000254
0.000306
0.000239
0.000248
0.001507
0.000351
0.000234
0.000274
0.001268
0.000265
0.000251
0.000238
0.000055
0.000251
0.000355
0.000343
0.000214
0.000229
0.000243
0.000269
0.000248
0.000267
0.000273
0.000236
0.000249
0.000264
0.000260
0.000422
0.001227
0.000231
0.000249
0.000272
0.000270
0.000235
0.000244
0.000246
0.000355
0.001263
0.000257
0.000229
0.000255
0.000256
0.001340
0.000345
0.000075
0.000260
0.000295
0.000194
0.000234
0.000240
0.000255
0.000237
0.000251
0.000301
0.000229
0.000259
0.000230
0.000246
0.000390
0.000418
0.001408
0.000219
0.000249
0.000309
0.000512
0.000283
0.001503
0.000306
0.000241
0.000234
0.000253
0.000255
0.001296
0.000405
0.000598
0.000176
0.000056
0.000200
0.000252
0.000255
0.000254
0.000283
0.000229
0.000272
0.000264
0.000244
0.000260
0.000309
0.000540
0.001269
0.000237
0.000273
0.000269
0.000274
0.000217
0.000242
0.000298
0.000319
0.001218
0.000258
0.000241
0.000246
0.000258
0.001531
0.000433
0.000447
0.000230
0.000190
0.000056
0.000192
0.000233
0.000248
0.000232
0.000258
0.000264
0.000237
0.000271
0.000423
0.000482
0.000293
0.001472
0.000216
0.000235
0.000263
0.000257
0.000263
0.000284
0.001705
0.000245
0.000383
0.000343
0.001267
0.000364
0.000326
0.000329
0.000252
0.000252
0.000263
0.000267
0.000191
0.000056
0.000222
0.000236
0.000324
0.000263
0.000287
0.000654
0.000265
0.000236
0.001456
0.000224
0.000388
0.000258
0.000242
0.000313
0.000386
0.001315
0.000249
0.000247
0.000245
0.000258
0.001529
0.000397
0.000274
0.000286
0.000247
0.000272
0.000426
0.000326
0.000243
0.000250
0.000267
0.000056
0.000260
0.000368
0.000366
0.000229
0.000223
0.001517
0.000219
0.000251
0.000267
0.000269
0.000266
0.000287
0.000347
0.001403
0.000248
0.000230
0.000433
0.001184
0.000347
0.000506
0.000343
0.000235
0.000235
0.000255
0.000292
0.000225
0.000457
0.000234
0.000256
0.000282
0.000200
0.000056
0.000230
0.000246
0.000355
0.000353
0.001324
0.000272
0.000336
0.000226
0.000220
0.000252
0.000248
0.000316
0.001492
0.000274
0.000224
0.000235
0.001384
0.000268
0.000427
0.000421
0.000413
0.000228
0.000248
0.000251
0.000269
0.000282
0.000258
0.000261
0.000264
0.000256
0.000199
0.000056
0.000201
0.000429
0.001438
0.000209
0.000273
0.000302
0.000220
0.000246
0.000262
0.000369
0.001403
0.000222
0.000260
0.000263
0.000252
0.001299
0.000715
0.000252
0.000310
0.000412
0.000306
0.000254
0.000257
0.000260
0.000268
0.000292
0.000273
0.000331
0.000401
0.000431
0.001377
0.000056
0.000210
0.000239
0.000239
0.000232
0.000248
0.000453
0.000536
0.001191
0.000262
0.000233
0.000247
0.001455
0.000398
0.000344
0.000228
0.000421
0.000236
0.000236
0.000269
0.000287
0.000249
0.000259
0.000277
0.000264
0.000251
0.000275
0.000446
0.000495
0.001473
0.000231
0.000194
0.000056
0.000200
0.000261
0.000480
0.001412
0.000303
0.000251
0.000213
0.000256
0.000248
0.000253
0.000248
0.000292
0.000430
0.000442
0.000289
0.000244
0.000251
0.000273
0.000248
0.000303
0.000235
0.000267
0.000252
0.000266
0.000259
0.000458
0.000484
0.000257
0.000356
0.001384
0.000175
0.000056
0.000207
0.000237
0.000331
0.000412
0.000327
0.000308
0.000331
0.000317
0.000297
0.000251
0.000238
0.000259
0.000276
0.000286
0.000235
0.000259
0.000645
0.000364
0.000188
0.000393
0.000267
0.000408
0.000250
0.000234
0.000251
0.000256
0.000257
0.000288
0.000295
0.000654
0.000192
0.000055
0.000199
0.001414
0.000225
0.000339
0.000407
0.000457
0.000348
0.000318
0.000216
0.000237
0.000268
0.000244
0.000279
0.000276
0.000235
0.000257
0.000266
0.001396
0.000226
0.000251
0.000255
0.000274
0.000264
0.000281
0.000268
0.000256
0.000275
0.000253
0.000392
0.000370
0.000241
0.000055
0.000206
0.000230
0.000245
0.001499
0.000320
0.000244
0.000224
0.000247
0.000227
0.000254
0.000249
0.000283
0.000243
0.000247
0.000297
0.000228
0.000246
0.000266
0.000256
0.000254
0.001443
0.000236
0.000233
0.000282
0.000254
0.000247
0.000268
0.000260
0.000282
0.000485
0.000350
0.000055
0.000224
0.000241
0.000404
0.000264
0.000239
0.000255
0.001540
0.000335
0.000296
0.000218
0.000261
0.000351
0.000299
0.000226
0.000228
0.000250
0.000245
0.000265
0.000256
0.000260
0.000493
0.000491
0.001122
0.000285
0.000238
0.000255
0.000268
0.000256
0.000303
0.000231
0.000392
0.000056
0.000346
0.000272
0.000226
0.000237
0.000250
0.000240
0.000240
0.000232
0.000289
0.001592
0.000413
0.000265
0.000240
0.000240
0.000258
0.000239
0.000269
0.000288
0.000266
0.000311
0.000291
0.000483
0.000509
0.001311
0.000231
0.000276
0.000258
0.000254
0.000273
0.000401
0.000312
0.000055
0.000261
0.000265
0.000218
0.000236
0.000217
0.000246
0.000264
0.000277
0.000274
0.001594
0.000329
0.000250
0.000245
0.000253
0.000461
0.000256
0.000553
0.000370
0.000274
0.000267
0.000486
0.000476
0.001288
0.000257
0.000238
0.000253
0.001687
0.000481
0.000614
0.000314
0.000146
0.000055
0.000196
0.000226
0.000243
0.000232
0.000279
0.000226
0.000245
0.000568
0.000501
0.000353
0.000288
0.000207
0.000249
0.000260
0.000279
0.000273
0.000236
0.000240
0.000250
0.000286
0.000302
0.000380
0.001337
0.000228
0.000247
0.000272
0.001942
0.000346
0.000394
0.000333
0.000161
0.000056
0.000240
0.000245
0.000246
0.001580
0.000408
0.000216
0.000233
0.000277
0.000243
0.000277
0.000375
0.000389
0.000352
0.000273
0.000276
0.000601
0.000341
0.001189
0.000279
0.000227
0.000259
0.000265
0.000275
0.000400
0.000632
0.000438
0.000262
0.000266
0.000269
0.000278
0.000196
0.000056
0.000199
0.000230
0.000243
0.001581
0.000219
0.000232
0.000237
0.000257
0.000236
0.000253
0.000257
0.000265
0.000268
0.000286
0.000225
0.000361
0.000562
0.000258
0.001392
0.000230
0.000259
0.000260
0.000269
0.000290
0.000386
0.000352
0.000524
0.000278
0.000287
0.000231
0.000442
0.000055
0.000219
0.000242
0.000264
0.001543
0.000284
0.000223
0.000265
0.000242
0.000253
0.000257
0.000253
0.000273
0.000239
0.000307
0.000294
0.000599
0.001354
0.000750
0.000252
0.000342
0.000239
0.000254
0.000235
0.000279
0.001684
0.000800
0.000227
0.000262
0.000285
0.000284
0.000188
0.000056
0.000197
0.000235
0.000255
0.000243
0.000281
0.000246
0.000214
0.000253
0.000238
0.000254
0.000276
0.000293
0.000234
0.000251
0.000262
0.000249
0.000269
0.001606
0.000701
0.000341
0.000341
0.000239
0.000242
0.000315
0.000248
0.000251
0.000270
0.000260
0.001425
0.000366
0.000325
0.000056
0.000212
0.000215
0.000268
0.000232
0.000265
0.000230
0.000274
0.000232
0.000254
0.000255
0.000246
0.000451
0.000476
0.000301
0.000213
0.000244
0.000264
0.001392
0.000692
0.000527
0.000281
0.000270
0.000234
0.000248
0.000276
0.000247
0.000267
0.000254
0.001519
0.000399
0.000203
0.000057
0.000185
0.000224
0.000246
0.000248
0.000249
0.000249
0.000239
0.000246
0.000272
0.000257
0.000429
0.000372
0.000275
0.000224
0.000239
0.000243
0.000269
0.000254
0.001571
0.000726
0.000368
0.000326
0.000232
0.000253
0.000261
0.000263
0.000260
0.000286
0.000259
0.001366
0.000322
0.000055
0.000202
0.000227
0.000234
0.000254
0.000254
0.000245
0.000246
0.000312
0.000366
0.000427
0.000363
0.000403
0.000349
0.000225
0.000268
0.000231
0.000297
0.000241
0.000267
0.001888
0.000364
0.000225
0.000472
0.000222
0.000252
0.000265
0.000271
0.000255
0.000276
0.000272
0.000304
0.000055
0.000306
0.000219
0.000224
0.000249
0.000251
0.000248
0.000224
0.000243
0.000293
0.000246
0.000229
0.000234
0.000321
0.000479
0.000503
0.000345
0.000217
0.000266
0.000283
0.000215
0.000258
0.000285
0.001464
0.001051
0.000242
0.000239
0.000267
0.000268
0.000266
0.000254
0.000211
0.000057
0.000216
0.001342
0.000300
0.000197
0.000242
0.000271
0.000232
0.000238
0.000241
0.000265
0.000243
0.000265
0.000240
0.000396
0.000408
0.000443
0.000230
0.000249
0.000265
0.000287
0.000264
0.000221
0.000255
0.000264
0.001314
0.000707
0.000303
0.000393
0.000384
0.000402
0.000280
0.000055
0.000210
0.000241
0.000366
0.001308
0.000217
0.000257
0.000221
0.000261
0.000255
0.000255
0.000272
0.000226
0.000279
0.000321
0.000597
0.000288
0.000231
0.000274
0.000328
0.000218
0.000260
0.000262
0.000233
0.000269
0.000264
0.001540
0.000746
0.000321
0.000254
0.000270
0.000195
0.000056
0.000184
0.000283
0.000438
0.000324
0.001296
0.000259
0.000214
0.000238
0.000240
0.000247
0.000247
0.000255
0.000232
0.000239
0.000251
0.000260
0.000259
0.000243
0.000249
0.000265
0.000264
0.000267
0.000313
0.000331
0.000220
0.000261
0.000263
0.001461
0.000253
0.000244
0.000184
0.000056
0.000210
0.000234
0.000266
0.000252
0.000351
0.000373
0.000395
0.000282
0.001569
0.000228
0.000280
0.000533
0.000320
0.000247
0.000439
0.000230
0.000233
0.000269
0.000273
0.000267
0.000282
0.000262
0.000262
0.000261
0.000309
0.000348
0.000444
0.000294
0.001584
0.000227
0.000191
0.000057
0.000182
0.000231
0.000254
0.000243
0.000243
0.000244
0.000261
0.000321
0.000419
0.002014
0.000220
0.000260
0.000255
0.000254
0.000265
0.000259
0.000267
0.000254
0.000255
0.000462
0.000489
0.000305
0.001447
0.000242
0.000252
0.002011
0.000287
0.000239
0.000259
0.001516
0.000171
0.000056
0.000526
0.000249
0.000439
0.000248
0.000276
0.000224
0.000244
0.000295
0.000238
0.000223
0.000257
0.000341
0.000409
0.000396
0.000400
0.000221
0.000235
0.001566
0.000241
0.000591
0.001860
0.000299
0.000225
0.001587
0.001972
0.000734
0.000279
0.000258
0.000303
0.000562
0.000231
0.000056
0.000217
0.000234
0.000284
0.000216
0.001413
0.001741
0.001068
0.000210
0.000252
0.001573
0.001971
0.000217
0.000238
0.000425
0.000259
0.000532
0.000250
0.000510
0.000218
0.000233
0.000249
0.000258
0.000271
0.001588
0.001211
0.001420
0.000296
0.000276
0.000256
0.000335
0.000391
0.000056
0.000218
0.000231
0.000234
0.000256
0.000210
0.000270
0.000226
0.000257
0.000256
0.000242
0.000240
0.000355
0.000440
0.000496
0.000207
0.000255
0.000252
0.000290
0.000248
0.000295
0.000228
0.000262
0.001614
0.000368
0.002129
0.000229
0.000255
0.000324
0.000461
0.000376
0.000191
0.000057
0.000229
0.000340
0.000481
0.000302
0.000218
0.000219
0.000247
0.000242
0.000237
0.000250
0.000241
0.000268
0.000258
0.001610
0.001349
0.001240
0.000290
0.000212
0.000247
0.000273
0.000284
0.000275
0.000243
0.000253
0.002201
0.000241
0.000267
0.000297
0.000322
0.000310
0.000222
0.000057
0.000197
0.000402
0.000530
0.000319
0.000230
0.000215
0.000246
0.000277
0.001893
0.001428
0.000215
0.000325
0.000389
0.000409
0.000262
0.000244
0.000242
0.000262
0.000262
0.000282
0.000241
0.000279
0.000454
0.000237
0.000270
0.000273
0.000244
0.000281
0.000277
0.000257
0.000195
0.000055
0.000211
0.000236
0.000254
0.000240
0.000272
0.000252
0.001544
0.001409
0.001334
0.000234
0.000232
0.000244
0.000262
0.000261
0.000248
0.000266
0.000231
0.002111
0.000240
0.000255
0.000252
0.000265
0.000259
0.000269
0.000259
0.000257
0.000270
0.000250
0.000286
0.000243
0.000183
0.000056
0.000183
0.002667
0.001415
0.000215
0.000305
0.000322
0.000219
0.000277
0.000231
0.000244
0.000250
0.000244
0.000233
0.000251
0.000271
0.000251
0.000270
0.000262
0.000271
0.000258
0.000265
0.000285
0.000271
0.000263
0.000250
0.000245
0.000262
0.000279
0.000255
0.000271
0.000380
0.000057
0.001549
0.000245
0.001239
0.000249
0.000207
0.000261
0.000258
0.000255
0.000230
0.000330
0.000361
0.000350
0.000312
0.000237
0.000234
0.002158
0.000238
0.000235
0.000351
0.000448
0.000394
0.000256
0.000229
0.000254
0.000282
0.000233
0.000262
0.000278
0.000272
0.001678
0.001192
0.000056
0.000204
0.000229
0.000274
0.000429
0.000365
0.000259
0.000216
0.000238
0.000247
0.000256
0.000264
0.000245
0.000232
0.000254
0.000260
0.000247
0.000364
0.000589
0.000347
0.000236
0.000232
0.000276
0.000278
0.000264
0.000234
0.000250
0.000266
0.000278
0.000245
0.000419
0.000292
0.000054
0.001131
0.000253
0.000315
0.000474
0.000264
0.000236
0.000240
0.000227
0.000253
0.002289
0.000444
0.000323
0.000213
0.000386
0.000306
0.000248
0.000240
0.000273
0.000251
0.000229
0.000250
0.000365
0.000550
0.000427
0.001853
0.001266
0.000581
0.000532
0.000232
0.000282
0.000203
0.000056
0.000312
0.000268
0.000245
0.000258
0.000233
0.000224
0.000258
0.000247
0.000257
0.000266
0.000242
0.000219
0.000253
0.000278
0.000388
0.000576
0.001792
0.001284
0.000439
0.000503
0.000402
0.000236
0.000237
0.000263
0.002197
0.000484
0.000389
0.000236
0.000274
0.000282
0.000200
0.000056
0.000201
0.000239
0.000257
0.000248
0.000256
0.000354
0.000386
0.000394
0.000242
0.000219
0.000243
0.000244
0.000264
0.002206
0.000287
0.000374
0.000220
0.000244
0.000284
0.000242
0.000252
0.002465
0.000323
0.000219
0.000262
0.000252
0.000255
0.000272
0.000312
0.000255
0.000196
0.000056
0.000213
0.000320
0.000608
0.000327
0.000266
0.000213
0.000233
0.000250
0.000266
0.000248
0.001950
0.000409
0.000256
0.000278
0.000233
0.000271
0.000273
0.000237
0.002214
0.000435
0.000226
0.000275
0.000260
0.000265
0.000250
0.000258
0.000298
0.000236
0.000265
0.000259
0.000189
0.000055
0.000209
0.000243
0.000244
0.000220
0.000250
0.000261
0.000233
0.000242
0.000236
0.002188
0.000226
0.000277
0.000219
0.000426
0.000214
0.000269
0.000304
0.000263
0.000247
0.000268
0.001955
0.000267
0.000343
0.000361
0.000433
0.000413
0.000304
0.000252
0.000264
0.000250
0.000199
0.000055
0.000212
0.000239
0.000238
0.000250
0.000251
0.000324
0.000220
0.002305
0.000239
0.000242
0.000256
0.000253
0.000238
0.000285
0.000276
0.002124
0.000582
0.000232
0.000247
0.000243
0.000261
0.000258
0.000288
0.000265
0.000280
0.000241
0.000286
0.000256
0.000260
0.000264
0.000202
0.000056
0.001836
0.001434
0.000210
0.000220
0.000244
0.000256
0.000247
0.000254
0.000414
0.000331
0.002196
0.000262
0.000225
0.000270
0.000269
0.000474
0.000446
0.000301
0.000215
0.000259
0.000245
0.000268
0.000261
0.000233
0.000257
0.000265
0.000267
0.000266
0.000297
0.000679
0.000333
0.000055
0.000203
0.000246
0.000239
0.000256
0.000266
0.000243
0.000254
0.000242
0.001473
0.002131
0.000578
0.000274
0.000400
0.000698
0.000357
0.000242
0.000247
0.000246
0.000267
0.000258
0.000256
0.000246
0.000243
0.000273
0.003023
0.000323
0.000239
0.000263
0.000290
0.000365
0.000309
0.000056
0.001921
0.000222
0.000234
0.000235
0.000296
0.000361
0.000507
0.000244
0.000289
0.000238
0.000223
0.000250
0.000257
0.000254
0.000264
0.000255
0.000261
0.000286
0.001819
0.000240
0.000230
0.000265
0.000269
0.000283
0.000268
0.000246
0.001528
0.000277
0.000245
0.000282
0.000156
0.000057
0.000204
0.000226
0.000264
0.000226
0.000243
0.000245
0.000269
0.000435
0.000443
0.000232
0.000234
0.000242
0.000278
0.000313
0.000420
0.000323
0.000223
0.000244
0.000263
0.000352
0.000446
0.000515
0.000216
0.000251
0.000256
0.000254
0.000250
0.000278
0.000271
0.000263
0.000210
0.000055
0.001420
0.000454
0.000213
0.001995
0.000222
0.000475
0.000419
0.000278
0.000222
0.000250
0.000266
0.000243
0.000245
0.000253
0.000262
0.000261
0.000445
0.000304
0.000383
0.000466
0.000273
0.000229
0.000252
0.000267
0.000282
0.000256
0.000262
0.000272
0.000390
0.000459
0.001339
0.000056
0.000214
0.000219
0.002085
0.000318
0.000314
0.000232
0.000271
0.000231
0.000261
0.000263
0.000228
0.000235
0.000268
0.000254
0.000253
0.000805
0.000310
0.001719
0.000226
0.000253
0.000257
0.000264
0.000380
0.000423
0.001580
0.000293
0.000383
0.001948
0.000224
0.000250
0.000193
0.000056
0.000205
0.000238
0.000230
0.000252
0.000239
0.000232
0.000252
0.000290
0.000322
0.000269
0.000377
0.000358
0.000351
0.000290
0.000264
0.000248
0.000258
0.000244
0.000270
0.000246
0.000313
0.000282
0.000264
0.000261
0.000263
0.001505
0.000302
0.000383
0.002078
0.000231
0.000179
0.000055
0.000229
0.000239
0.000237
0.000251
0.000484
0.000210
0.000257
0.000373
0.000369
0.000285
0.000284
0.000209
0.000271
0.000260
0.000268
0.000336
0.000426
0.000424
0.000249
0.000485
0.000511
0.000339
0.001618
0.000227
0.000257
0.002012
0.000294
0.000255
0.000246
0.000293
0.000193
0.000056
0.000205
0.000240
0.000231
0.000242
0.000253
0.000266
0.000256
0.000271
0.000253
0.000250
0.001816
0.000334
0.000369
0.000282
0.000463
0.000365
0.000364
0.001492
0.000245
0.000274
0.002102
0.000574
0.000274
0.000239
0.000256
0.000263
0.000505
0.000225
0.000252
0.000282
0.000199
0.000055
0.000272
0.000396
0.000368
0.000261
0.000202
0.000242
0.000261
0.000248
0.000266
0.000297
0.000221
0.000256
0.000255
0.000257
0.000382
0.000423
0.001330
0.000265
0.000278
0.001907
0.000374
0.000290
0.000226
0.000259
0.000258
0.000279
0.000265
0.000268
0.000245
0.000266
0.000203
0.000054
0.000298
0.000348
0.002019
0.000258
0.000223
0.000265
0.000270
0.000258
0.000426
0.000463
0.001289
0.000382
0.000378
0.002055
0.000223
0.000227
0.000267
0.000283
0.000246
0.000256
0.000271
0.000297
0.000253
0.000303
0.000536
0.000368
0.000300
0.002252
0.000491
0.000560
0.000311
0.000056
0.000215
0.000222
0.000248
0.001971
0.000228
0.000228
0.000239
0.000244
0.000242
0.000262
0.000241
0.000262
0.000262
0.000301
0.000380
0.001492
0.000257
0.000241
0.000266
0.000258
0.000232
0.000261
0.000267
0.000291
0.000430
0.000393
0.000399
0.000236
0.001592
0.000278
0.000163
0.000056
0.000192
0.000230
0.000245
0.000235
0.000264
0.000267
0.000223
0.000247
0.000251
0.000350
0.000451
0.001355
0.000232
0.000232
0.000250
0.000291
0.000225
0.000253
0.000321
0.000519
0.000614
0.000183
0.000223
0.001571
0.000238
0.000255
0.000292
0.000275
0.000264
0.000269
0.000193
0.000055
0.000207
0.000238
0.000288
0.000246
0.000267
0.000226
0.000235
0.000242
0.000278
0.000243
0.000230
0.000260
0.000267
0.001473
0.000359
0.000211
0.000254
0.000264
0.000281
0.000308
0.000371
0.000284
0.000228
0.000265
0.000263
0.000262
0.000262
0.001457
0.000264
0.000209
0.000175
0.000055
0.000195
0.000230
0.000261
0.000263
0.000271
0.000219
0.000247
0.000264
0.000214
0.000269
0.000248
0.000251
0.000231
0.000374
0.000341
0.000385
0.000206
0.000235
0.001627
0.000258
0.000226
0.000261
0.000261
0.000336
0.000362
0.000347
0.000462
0.000259
0.001631
0.000280
0.000126
0.000055
0.000336
0.000318
0.000480
0.000201
0.000226
0.000228
0.000246
0.000269
0.000254
0.000256
0.000232
0.000238
0.001465
0.000296
0.000300
0.000219
0.000249
0.000278
0.000252
0.000264
0.000249
0.000239
0.000261
0.000268
0.000292
0.000442
0.000378
0.000327
0.000280
0.000246
0.000192
0.000055
0.000216
0.000299
0.000408
0.000316
0.000426
0.000221
0.000248
0.000253
0.000245
0.000258
0.000243
0.000224
0.000256
0.000246
0.001259
0.000300
0.000237
0.000248
0.000265
0.000262
0.000243
0.000267
0.000257
0.000255
0.000252
0.000264
0.000343
0.000696
0.000417
0.000232
0.000178
0.000056
0.000204
0.001566
0.000263
0.000359
0.000402
0.000391
0.000213
0.000257
0.000268
0.000258
0.000232
0.000262
0.000266
0.000271
0.000258
0.001557
0.000228
0.000284
0.000264
0.000252
0.000275
0.000234
0.000271
0.000263
0.000257
0.000370
0.000393
0.000318
0.000360
0.000236
0.000186
0.000055
0.000213
0.000248
0.000235
0.001730
0.000318
0.000348
0.000208
0.000244
0.000251
0.000275
0.000279
0.000253
0.000251
0.000257
0.000232
0.000324
0.000520
0.001154
0.000247
0.000227
0.001537
0.000484
0.000345
0.000410
0.000367
0.000214
0.000266
0.000466
0.000236
0.000259
0.000189
0.000055
0.000292
0.000220
0.000246
0.000243
0.000250
0.000271
0.000223
0.000255
0.000253
0.000259
0.000242
0.000255
0.000347
0.000549
0.001578
0.001646
0.000207
0.000561
0.000307
0.000227
0.000252
0.000246
0.000251
0.000266
0.000246
0.000276
0.000246
0.000267
0.001528
0.000322
0.000196
0.000056
0.000206
0.000350
0.000351
0.000331
0.000254
0.000216
0.000240
0.000473
0.000342
0.000336
0.002175
0.000317
0.000700
0.000550
0.000418
0.000258
0.000343
0.000387
0.000326
0.000291
0.000377
0.000275
0.001524
0.000537
0.000228
0.000247
0.000262
0.000250
0.000264
0.000267
0.000198
0.000055
0.000213
0.000249
0.000256
0.000249
0.000241
0.001665
0.000873
0.001003
0.000209
0.000245
0.000262
0.000238
0.000261
0.000265
0.000248
0.000251
0.000252
0.000268
0.000263
0.000281
0.001430
0.000314
0.000254
0.000229
0.000232
0.000261
0.000256
0.000283
0.000270
0.000286
0.001894
0.000056
0.000197
0.000226
0.001543
0.000938
0.000350
0.000307
0.000258
0.000214
0.000262
0.000253
0.000241
0.000245
0.000250
0.001970
0.000486
0.000218
0.000238
0.000264
0.000264
0.000259
0.000199
