0.000117
0.009646
0.011922
0.000396
0.000265
0.000280
0.000306
0.000248
0.000334
0.000281
0.000252
0.000359
0.000478
0.000490
0.000403
0.000353
0.000273
0.000388
0.000363
0.000357
0.000308
0.001961
0.000667
0.000249
0.000257
0.000302
0.000312
0.000370
0.000456
0.000491
0.000402
0.000224
0.000061
0.000199
0.000266
0.000270
0.000260
0.000271
0.000250
0.000280
0.000284
0.000250
0.000324
0.000393
0.000460
0.000296
0.000269
0.000409
0.000285
0.000370
0.000244
0.000259
0.001705
0.000308
0.000260
0.000450
0.000242
0.000285
0.000276
0.000285
0.000296
0.000278
0.000470
0.000351
0.000057
0.000261
0.000249
0.000262
0.000259
0.000254
0.000246
0.000259
0.000253
0.000291
0.001668
0.000223
0.000237
0.000266
0.000274
0.000280
0.000254
0.000265
0.000253
0.000356
0.001800
0.000237
0.000308
0.000539
0.000481
0.000242
0.000216
0.000287
0.000501
0.000519
0.000677
0.000194
0.000057
0.000228
0.000241
0.000258
0.000239
0.000297
0.000250
0.000392
0.000516
0.000351
0.000261
0.000239
0.000245
0.000241
0.000257
0.000252
0.000257
0.000246
0.000268
0.000304
0.000323
0.001668
0.000272
0.000256
0.000416
0.000260
0.000738
0.000655
0.000550
0.000326
0.000248
0.000187
0.000057
0.000238
0.000251
0.000261
0.000244
0.000257
0.000256
0.000280
0.000390
0.001529
0.000212
0.000254
0.000240
0.000257
0.000257
0.000263
0.000280
0.000280
0.000837
0.001358
0.000277
0.000453
0.000258
0.000230
0.000219
0.000260
0.000254
0.000271
0.000267
0.000263
0.000268
0.000194
0.000059
0.000208
0.000244
0.000243
0.000262
0.000234
0.000248
0.000252
0.000243
0.000240
0.000253
0.001664
0.000233
0.000231
0.000240
0.000254
0.000247
0.000261
0.000238
0.000252
0.000254
0.000268
0.001673
0.000285
0.000244
0.000439
0.000258
0.000255
0.000256
0.000280
0.000259
0.000189
0.000056
0.000222
0.000233
0.000251
0.000241
0.000245
0.000244
0.000264
0.000234
0.000262
0.000239
0.000278
0.000249
0.000273
0.000257
0.001646
0.000268
0.000293
0.000220
0.000252
0.000277
0.000261
0.000242
0.000256
0.000258
0.001784
0.000477
0.000259
0.000345
0.000258
0.000280
0.000197
0.000058
0.000227
0.000234
0.000268
0.000246
0.000256
0.000239
0.000296
0.000410
0.000404
0.000425
0.000208
0.000248
0.000255
0.000249
0.001565
0.000665
0.000251
0.000373
0.000281
0.000233
0.000266
0.000291
0.000264
0.001736
0.000528
0.000440
0.000266
0.000237
0.000243
0.000268
0.000185
0.000056
0.000194
0.000239
0.000251
0.000374
0.000271
0.000385
0.000463
0.000202
0.000220
0.000247
0.000267
0.000235
0.000255
0.001714
0.000475
0.000295
0.000229
0.000258
0.000269
0.000282
0.000251
0.000253
0.000276
0.001934
0.000261
0.000380
0.000265
0.000244
0.000363
0.000409
0.000282
0.000058
0.000287
0.000383
0.000301
0.000241
0.000260
0.000248
0.000248
0.000258
0.000241
0.000235
0.000234
0.000247
0.001560
0.000381
0.000277
0.000232
0.000255
0.000247
0.000250
0.000279
0.000299
0.000308
0.000242
0.001810
0.000257
0.000497
0.000243
0.000255
0.000262
0.000269
0.000254
0.000056
0.000270
0.000671
0.000609
0.000213
0.000230
0.000275
0.000225
0.000224
0.000258
0.000255
0.000256
0.001702
0.000285
0.000438
0.000338
0.000207
0.000246
0.000231
0.000248
0.000262
0.000270
0.001846
0.000223
0.000251
0.002075
0.000508
0.000366
0.000251
0.000249
0.000267
0.000190
0.000057
0.000222
0.000243
0.000246
0.000242
0.000256
0.001623
0.000249
0.000232
0.000252
0.000256
0.000248
0.000258
0.000234
0.000256
0.000266
0.000432
0.000617
0.000250
0.000238
0.000268
0.000266
0.000245
0.000248
0.000427
0.000444
0.000257
0.000424
0.000698
0.000222
0.000268
0.000199
0.000056
0.000194
0.000250
0.000249
0.000253
0.000229
0.000250
0.000280
0.000373
0.000415
0.001716
0.000223
0.000239
0.000239
0.000250
0.000258
0.000302
0.000371
0.000510
0.000363
0.000226
0.000263
0.000298
0.000282
0.000249
0.000277
0.000437
0.000424
0.000531
0.000506
0.000405
0.000168
0.000058
0.000193
0.000263
0.000234
0.000226
0.000245
0.000239
0.000247
0.000251
0.000273
0.000312
0.000369
0.000421
0.001323
0.000246
0.000237
0.000240
0.000261
0.000250
0.000245
0.000287
0.000272
0.000398
0.000452
0.000251
0.000271
0.000256
0.000254
0.000274
0.000263
0.000262
0.000385
0.000057
0.000220
0.000235
0.000240
0.000265
0.000539
0.000411
0.000242
0.000264
0.000230
0.000261
0.000253
0.000232
0.000297
0.000249
0.000242
0.000463
0.000433
0.001646
0.000278
0.000232
0.000260
0.000265
0.000259
0.000240
0.000286
0.000412
0.000509
0.000318
0.000422
0.000228
0.000199
0.000057
0.000207
0.000433
0.000234
0.000214
0.000263
0.000278
0.000292
0.000602
0.000252
0.000339
0.000221
0.000264
0.000272
0.000236
0.000516
0.000349
0.000223
0.000278
0.000401
0.001625
0.000261
0.000260
0.000497
0.000242
0.000285
0.000278
0.000256
0.000392
0.000501
0.000393
0.000249
0.000059
0.000211
0.000230
0.000241
0.000244
0.000406
0.000312
0.000295
0.000220
0.000359
0.000606
0.000279
0.000258
0.000248
0.000238
0.000257
0.000264
0.000256
0.000254
0.000225
0.000356
0.000289
0.000562
0.001621
0.000236
0.000259
0.000263
0.000360
0.000365
0.000417
0.000741
0.000285
0.000058
0.000302
0.000279
0.000316
0.000382
0.000383
0.000209
0.000255
0.000272
0.000547
0.000392
0.000281
0.000231
0.000238
0.000273
0.000263
0.000232
0.000260
0.000266
0.000267
0.000260
0.000273
0.000383
0.000720
0.001287
0.000370
0.000508
0.000314
0.000257
0.000409
0.000455
0.000319
0.000059
0.000251
0.000373
0.000264
0.000204
0.000229
0.000255
0.000401
0.000241
0.000253
0.000402
0.000389
0.000378
0.000309
0.000238
0.000262
0.000262
0.000388
0.000409
0.000306
0.000227
0.000242
0.000433
0.000652
0.001615
0.000226
0.000455
0.000289
0.000231
0.000338
0.000384
0.000326
0.000057
0.000236
0.000230
0.000242
0.000247
0.000247
0.000246
0.000252
0.000327
0.000459
0.000299
0.000461
0.000343
0.000284
0.000572
0.000237
0.000243
0.000272
0.000268
0.000233
0.000353
0.000217
0.000250
0.000297
0.000400
0.000485
0.001644
0.000264
0.000237
0.000258
0.000265
0.000186
0.000057
0.000304
0.000436
0.000308
0.000224
0.000250
0.000241
0.000260
0.000239
0.000258
0.000251
0.000223
0.000247
0.000444
0.000496
0.000394
0.000280
0.000255
0.000280
0.000406
0.000381
0.000358
0.000319
0.000414
0.000320
0.000223
0.000253
0.000262
0.000276
0.001791
0.000233
0.000213
0.000057
0.000204
0.000214
0.000258
0.000339
0.000387
0.000560
0.000242
0.000177
0.000259
0.000260
0.000251
0.000244
0.000525
0.000448
0.000511
0.000323
0.000211
0.000257
0.000429
0.000465
0.000403
0.000449
0.000492
0.000341
0.000229
0.000247
0.000275
0.000241
0.000295
0.001689
0.000354
0.000059
0.000266
0.000324
0.000212
0.000235
0.000253
0.000251
0.000303
0.000475
0.000363
0.000290
0.000294
0.000268
0.000430
0.000543
0.000354
0.000239
0.000245
0.000257
0.000257
0.000268
0.000262
0.000267
0.000244
0.000263
0.000376
0.000290
0.000400
0.000371
0.000228
0.000263
0.000191
0.000061
0.000447
0.000270
0.000497
0.000232
0.000205
0.000250
0.000245
0.000256
0.000238
0.000221
0.000278
0.000257
0.000288
0.000494
0.000539
0.000316
0.000335
0.000323
0.000390
0.000372
0.000263
0.000227
0.000244
0.000254
0.001741
0.000259
0.001728
0.000953
0.000401
0.000308
0.000166
0.000057
0.000208
0.000237
0.000225
0.000251
0.000257
0.000243
0.000255
0.000279
0.000231
0.000283
0.000364
0.000441
0.000346
0.000371
0.000260
0.000256
0.000246
0.000285
0.000247
0.000234
0.000280
0.000238
0.001793
0.000255
0.000255
0.000267
0.000278
0.000263
0.001882
0.000523
0.000284
0.000058
0.000229
0.000214
0.000248
0.000229
0.000255
0.000247
0.000258
0.000255
0.000255
0.000403
0.000462
0.000550
0.000234
0.000204
0.000231
0.000259
0.000382
0.000406
0.000362
0.000239
0.001767
0.000264
0.000245
0.000249
0.000262
0.000272
0.000239
0.000272
0.000305
0.000369
0.000345
0.000057
0.000246
0.000217
0.000235
0.000264
0.000243
0.000242
0.000256
0.000257
0.000237
0.000261
0.000245
0.000303
0.000384
0.000361
0.000328
0.000273
0.000467
0.000253
0.000242
0.000252
0.000262
0.000258
0.000273
0.000278
0.000258
0.001785
0.000247
0.000248
0.000264
0.000240
0.000200
0.000059
0.000316
0.000247
0.000210
0.000226
0.000240
0.000237
0.000237
0.000256
0.000247
0.000219
0.000237
0.000267
0.000256
0.000370
0.000401
0.000376
0.000273
0.000250
0.000230
0.000256
0.000265
0.000260
0.000247
0.000272
0.000243
0.000277
0.000311
0.001615
0.000279
0.000234
0.000191
0.000057
0.000210
0.000239
0.000250
0.000281
0.000363
0.000426
0.000354
0.000253
0.000226
0.000257
0.000250
0.000244
0.000248
0.000254
0.000266
0.000256
0.000242
0.000257
0.000253
0.000257
0.000271
0.000268
0.000250
0.000237
0.000240
0.000278
0.000277
0.000263
0.000254
0.000263
0.000198
0.000057
0.000189
0.000254
0.000236
0.000257
0.000234
0.000251
0.000243
0.000263
0.000301
0.000215
0.000230
0.000250
0.000256
0.000250
0.000263
0.000264
0.000255
0.000261
0.000288
0.000251
0.000276
0.000291
0.000271
0.000244
0.000276
0.000280
0.000269
0.000252
0.000297
0.000467
0.000642
0.000059
0.000240
0.000269
0.000221
0.000237
0.000234
0.000254
0.000239
0.000249
0.000254
0.000243
0.000264
0.000319
0.000518
0.000510
0.001441
0.000229
0.000505
0.000237
0.000274
0.000425
0.000476
0.000345
0.000232
0.000275
0.000251
0.000262
0.000279
0.000254
0.000308
0.000254
0.000192
0.000057
0.000590
0.000185
0.000355
0.000293
0.000206
0.000255
0.000248
0.000238
0.000238
0.000247
0.000254
0.000253
0.000234
0.000276
0.000406
0.000562
0.000270
0.001795
0.000237
0.000251
0.000356
0.000393
0.000507
0.000262
0.000302
0.000324
0.000298
0.000236
0.000224
0.000257
0.000192
0.000056
0.000194
0.000227
0.000243
0.000274
0.000372
0.000552
0.000232
0.000259
0.000250
0.000215
0.000251
0.000265
0.000269
0.000264
0.000246
0.000255
0.000340
0.000456
0.000338
0.000441
0.000231
0.001741
0.000352
0.000551
0.000480
0.000425
0.000308
0.000238
0.000255
0.000267
0.000445
0.000057
0.000212
0.000246
0.000241
0.000398
0.000420
0.000416
0.000322
0.000210
0.000242
0.000286
0.000245
0.000261
0.000254
0.000295
0.000310
0.000232
0.000243
0.000373
0.000559
0.000256
0.000497
0.001831
0.000265
0.000473
0.000490
0.000332
0.000245
0.000240
0.000293
0.000265
0.000196
0.000058
0.000227
0.000348
0.000352
0.000290
0.000404
0.000336
0.000337
0.000213
0.000244
0.000262
0.000274
0.000244
0.000231
0.000264
0.000240
0.000257
0.000317
0.000385
0.000547
0.000306
0.000302
0.000252
0.000248
0.001708
0.000481
0.000532
0.000611
0.000251
0.000256
0.000305
0.000157
0.000057
0.000196
0.000238
0.000322
0.000254
0.000280
0.000379
0.000445
0.000259
0.000241
0.000546
0.000218
0.000240
0.000260
0.000279
0.000272
0.000266
0.000206
0.000414
0.000376
0.000470
0.000264
0.000230
0.000258
0.000259
0.000256
0.000264
0.000241
0.000253
0.000267
0.000283
0.000213
0.000057
0.000395
0.000266
0.000218
0.000251
0.000248
0.000261
0.000236
0.000294
0.000248
0.000239
0.000255
0.000374
0.000428
0.000341
0.000399
0.000252
0.000224
0.000236
0.000259
0.000292
0.000273
0.000254
0.000234
0.000260
0.000277
0.000320
0.000474
0.000297
0.000361
0.000235
0.000179
0.000056
0.000206
0.000224
0.000283
0.000241
0.000242
0.000246
0.000255
0.000258
0.000494
0.000214
0.000262
0.000246
0.000252
0.000263
0.000274
0.000273
0.000279
0.000325
0.000223
0.000249
0.000254
0.000265
0.000255
0.000274
0.000274
0.000279
0.000245
0.000253
0.000539
0.000228
0.000155
0.000059
0.000200
0.000232
0.000253
0.000264
0.000221
0.000245
0.000368
0.000407
0.000236
0.000234
0.000251
0.000258
0.000236
0.000284
0.000468
0.001733
0.000238
0.000265
0.000284
0.000410
0.000366
0.000354
0.000355
0.000452
0.000307
0.000417
0.000240
0.000269
0.000268
0.000275
0.001402
0.000059
0.000438
0.000226
0.000276
0.000218
0.000234
0.000252
0.000233
0.000255
0.000243
0.000272
0.000243
0.000259
0.000256
0.000318
0.000640
0.001497
0.000256
0.000227
0.000243
0.000266
0.000235
0.000275
0.000332
0.000441
0.000260
0.000345
0.000230
0.000267
0.000274
0.000270
0.000193
0.000057
0.001227
0.000594
0.000269
0.000253
0.000240
0.000225
0.000233
0.000237
0.000494
0.000213
0.000243
0.000247
0.000535
0.000371
0.000351
0.000350
0.000244
0.000240
0.000413
0.000278
0.000272
0.000255
0.000266
0.000248
0.000285
0.000591
0.000567
0.000221
0.000245
0.000269
0.000168
0.000057
0.000207
0.000222
0.000237
0.000251
0.001540
0.000221
0.000229
0.000255
0.000235
0.000255
0.000250
0.000257
0.000239
0.000265
0.000275
0.000324
0.000424
0.000673
0.000215
0.001737
0.000271
0.000277
0.000385
0.000443
0.000650
0.000196
0.000253
0.000254
0.000253
0.000271
0.000201
0.000057
0.000207
0.000243
0.000239
0.000390
0.001182
0.000233
0.000258
0.000260
0.000241
0.000233
0.000244
0.000248
0.000274
0.000249
0.000255
0.000355
0.000452
0.000350
0.000348
0.000254
0.000266
0.000270
0.000251
0.000232
0.000291
0.000263
0.000245
0.000271
0.000285
0.000357
0.000523
0.000058
0.000174
0.000250
0.000239
0.000260
0.000260
0.000242
0.000235
0.000265
0.000268
0.000260
0.001424
0.000229
0.000240
0.000253
0.000245
0.000245
0.000281
0.000252
0.000259
0.000268
0.000277
0.000540
0.000419
0.000369
0.000237
0.000269
0.001758
0.000251
0.000287
0.000286
0.000485
0.000058
0.000290
0.000437
0.000461
0.000455
0.000518
0.000540
0.001589
0.000405
0.000543
0.000654
0.000512
0.000594
0.000565
0.000674
0.000531
0.001837
0.000382
0.000400
0.000392
0.000353
0.000221
0.000278
0.000283
0.000259
0.000270
0.000276
0.000290
0.000251
0.000288
0.000302
0.001353
0.000068
0.000227
0.000212
0.000233
0.000236
0.000258
0.000260
0.000233
0.000239
0.000252
0.000253
0.000237
0.000245
0.000255
0.000258
0.000285
0.000263
0.001822
0.000269
0.000235
0.000253
0.000254
0.000257
0.000278
0.000314
0.000350
0.000427
0.000333
0.000243
0.000283
0.000277
0.000196
0.000059
0.000207
0.001378
0.000313
0.000259
0.000254
0.000238
0.000244
0.000238
0.000230
0.000247
0.000215
0.000246
0.000266
0.000484
0.000370
0.000308
0.000269
0.000235
0.001947
0.000207
0.000236
0.000269
0.000253
0.000261
0.000313
0.000257
0.000259
0.000253
0.000268
0.000316
0.000201
0.000060
0.000202
0.000245
0.000249
0.001478
0.000203
0.000240
0.000237
0.000246
0.000236
0.000266
0.000246
0.000248
0.000247
0.000260
0.000260
0.000253
0.000264
0.000267
0.000268
0.000294
0.000227
0.001780
0.000270
0.001799
0.000229
0.000253
0.000255
0.000263
0.000298
0.000244
0.000203
0.000059
0.000232
0.000217
0.001387
0.000186
0.000245
0.000261
0.000248
0.000255
0.000243
0.000247
0.000245
0.000251
0.000265
0.000258
0.000260
0.000267
0.000257
0.000285
0.000296
0.000232
0.001883
0.000239
0.001833
0.000251
0.000238
0.000276
0.000224
0.000271
0.000240
0.000271
0.000190
0.000059
0.001451
0.000202
0.000219
0.000253
0.000234
0.000233
0.000379
0.000263
0.000255
0.000255
0.000246
0.000265
0.000295
0.000327
0.000447
0.000219
0.000238
0.000265
0.000269
0.000247
0.000269
0.000347
0.000221
0.000258
0.000266
0.000293
0.000287
0.000361
0.000663
0.000335
0.000158
0.000082
0.000218
0.000286
0.000249
0.000264
0.000393
0.000276
0.001735
0.000292
0.000256
0.000262
0.000265
0.000282
0.000255
0.000254
0.000287
0.000352
0.000413
0.000469
0.000335
0.000277
0.000306
0.000277
0.000275
0.000261
0.000293
0.000292
0.000229
0.000257
0.000253
0.000392
0.000332
0.000077
0.000212
0.000468
0.000268
0.000262
0.000244
0.000228
0.000230
0.000251
0.000255
0.000317
0.001456
0.000228
0.000225
0.000250
0.000241
0.000294
0.000257
0.000253
0.000264
0.000268
0.000274
0.000552
0.000382
0.000302
0.000249
0.000287
0.000262
0.000259
0.000241
0.000306
0.000165
0.000056
0.000200
0.000229
0.000284
0.000459
0.000368
0.000275
0.000229
0.000243
0.000254
0.000250
0.000231
0.000252
0.000257
0.000268
0.000239
0.000244
0.000527
0.001102
0.000229
0.000243
0.000271
0.000248
0.000352
0.000465
0.000219
0.000429
0.000491
0.000323
0.000372
0.000250
0.000173
0.000057
0.000222
0.000254
0.000258
0.000264
0.000256
0.000280
0.000297
0.000463
0.000363
0.000355
0.000414
0.000370
0.000356
0.000345
0.000243
0.000227
0.000240
0.000277
0.000419
0.001396
0.000295
0.000219
0.000276
0.000277
0.000232
0.000236
0.000267
0.000352
0.000484
0.000320
0.000270
0.000057
0.000185
0.000240
0.000252
0.000241
0.000256
0.000240
0.000236
0.000257
0.000345
0.000307
0.000517
0.000292
0.000249
0.000233
0.000252
0.000264
0.000251
0.000253
0.000266
0.000247
0.000441
0.000322
0.000363
0.000355
0.000319
0.000257
0.000278
0.000265
0.000252
0.000355
0.000140
0.000057
0.000300
0.000314
0.000373
0.000371
0.000350
0.000377
0.000257
0.000244
0.000246
0.000274
0.000254
0.000265
0.000236
0.000252
0.000241
0.000229
0.000298
0.000369
0.000405
0.000400
0.000219
0.000282
0.000245
0.000239
0.000270
0.000288
0.000260
0.000263
0.000280
0.000267
0.000347
0.000057
0.000255
0.000365
0.000235
0.000246
0.000247
0.000245
0.000247
0.000259
0.000259
0.000258
0.000250
0.000236
0.000380
0.000405
0.000510
0.000206
0.000245
0.000248
0.000258
0.000262
0.000256
0.000272
0.000254
0.000268
0.000263
0.000368
0.000385
0.000564
0.000418
0.000252
0.000177
0.000057
0.000373
0.000226
0.000210
0.000247
0.000266
0.000228
0.000240
0.000253
0.000256
0.000259
0.000222
0.000245
0.000270
0.000230
0.000242
0.000265
0.000253
0.000284
0.000255
0.000256
0.000263
0.000261
0.000260
0.000264
0.000263
0.000242
0.000264
0.000289
0.000245
0.000281
0.000197
0.000057
0.000191
0.000240
0.000240
0.000249
0.000229
0.000272
0.000252
0.000236
0.000257
0.000271
0.000235
0.000235
0.000263
0.000393
0.000258
0.000273
0.000283
0.000249
0.000252
0.000283
0.000271
0.000235
0.000246
0.000248
0.000273
0.000274
0.000250
0.000250
0.000277
0.000260
0.000205
0.000056
0.000250
0.000317
0.000398
0.000276
0.000297
0.000251
0.000243
0.000258
0.000222
0.000245
0.000248
0.000266
0.000250
0.000234
0.000278
0.000244
0.000258
0.000270
0.000245
0.000265
0.000274
0.000264
0.000280
0.000253
0.000275
0.000245
0.000267
0.000266
0.000266
0.000260
0.000199
0.000058
0.000205
0.000230
0.000265
0.000261
0.000489
0.000210
0.000213
0.000246
0.000326
0.000442
0.000454
0.000290
0.000218
0.000250
0.000266
0.000271
0.000234
0.000275
0.000257
0.000267
0.000284
0.000241
0.000256
0.000293
0.000532
0.000492
0.000269
0.000296
0.000262
0.000258
0.000191
0.000058
0.000223
0.000222
0.000243
0.000253
0.000356
0.000592
0.000336
0.000381
0.000211
0.000247
0.000254
0.000251
0.000251
0.000250
0.000261
0.000265
0.000255
0.000253
0.000688
0.000356
0.000279
0.000246
0.000257
0.000280
0.000281
0.000257
0.000265
0.000269
0.000274
0.000333
0.000330
0.000056
0.000267
0.000234
0.000237
0.000243
0.000252
0.000250
0.000233
0.000251
0.000242
0.000257
0.000244
0.000255
0.000248
0.000467
0.000620
0.000268
0.000230
0.000262
0.000261
0.000244
0.000264
0.000272
0.000494
0.000218
0.000263
0.000746
0.000290
0.000466
0.000249
0.000250
0.000189
0.000058
0.000192
0.000232
0.000242
0.000244
0.000257
0.000253
0.000319
0.000427
0.000625
0.000378
0.000217
0.000262
0.000274
0.000276
0.000254
0.000248
0.000236
0.000252
0.000281
0.000420
0.000361
0.000579
0.000375
0.000357
0.000426
0.000244
0.000449
0.000236
0.000266
0.000402
0.000373
0.000060
0.000312
0.000193
0.000433
0.000215
0.000235
0.000253
0.000263
0.000259
0.000230
0.000240
0.000257
0.000409
0.000462
0.000250
0.000255
0.000224
0.000263
0.000247
0.000260
0.000280
0.000272
0.000258
0.000243
0.000277
0.000312
0.000473
0.000491
0.000248
0.000272
0.000252
0.000198
0.000058
0.000218
0.000255
0.000249
0.000226
0.000245
0.000325
0.000312
0.000558
0.000256
0.000332
0.000340
0.000219
0.000234
0.000270
0.000257
0.000237
0.000257
0.000258
0.000328
0.000365
0.000486
0.000337
0.000498
0.000347
0.000372
0.000429
0.000337
0.000212
0.000234
0.000328
0.000303
0.000057
0.000308
0.000206
0.000220
0.000279
0.000236
0.000259
0.000246
0.000250
0.000259
0.000255
0.000238
0.000492
0.000481
0.000197
0.000383
0.000221
0.000266
0.000268
0.000263
0.000233
0.000253
0.000252
0.000266
0.000275
0.000322
0.000294
0.000488
0.000469
0.000239
0.000282
0.000214
0.000062
0.000207
0.000233
0.000261
0.000243
0.000260
0.000425
0.000470
0.000431
0.000345
0.000689
0.000263
0.000217
0.000244
0.000259
0.000246
0.000263
0.000284
0.000330
0.000430
0.000412
0.001511
0.000306
0.000257
0.000258
0.000292
0.000268
0.000418
0.000433
0.000270
0.000357
0.000173
0.000057
0.000221
0.000231
0.000246
0.000246
0.000240
0.000252
0.000274
0.000255
0.000328
0.000281
0.000342
0.000372
0.000247
0.000391
0.000351
0.000336
0.000240
0.000240
0.000270
0.000252
0.000248
0.000248
0.000284
0.000246
0.000341
0.000439
0.000423
0.000291
0.000244
0.000266
0.000189
0.000057
0.000230
0.000246
0.000254
0.000255
0.000243
0.000232
0.000473
0.000213
0.000232
0.000256
0.000243
0.000274
0.000245
0.000251
0.000248
0.000269
0.000261
0.000267
0.000274
0.000252
0.000261
0.000285
0.000292
0.000250
0.000264
0.000280
0.000294
0.000265
0.000238
0.000270
0.000177
0.000059
0.000236
0.000238
0.000317
0.000428
0.000349
0.000256
0.000236
0.000247
0.000261
0.000262
0.000233
0.000256
0.000264
0.000265
0.000238
0.000246
0.000246
0.000267
0.000251
0.000418
0.000444
0.000343
0.000233
0.000278
0.000253
0.000251
0.000265
0.000256
0.000271
0.000279
0.000196
0.000057
0.000388
0.000453
0.000363
0.000214
0.000244
0.000260
0.000406
0.000220
0.000235
0.000255
0.000256
0.000359
0.000382
0.000333
0.001878
0.000251
0.000237
0.000254
0.000277
0.000235
0.000402
0.000479
0.000551
0.000269
0.000234
0.000259
0.000280
0.000420
0.000277
0.000278
0.000170
0.000057
0.000230
0.000378
0.000377
0.000263
0.000496
0.000197
0.000245
0.000265
0.000238
0.000238
0.000262
0.000247
0.000262
0.000399
0.000439
0.000380
0.000205
0.000251
0.000253
0.000266
0.000261
0.000319
0.000227
0.000285
0.000279
0.000603
0.000373
0.000640
0.000197
0.000242
0.000199
0.000058
0.000202
0.000235
0.000255
0.000229
0.000246
0.000254
0.000263
0.000274
0.000352
0.000365
0.000469
0.000318
0.000219
0.000254
0.000265
0.000304
0.000281
0.000238
0.000274
0.000275
0.000239
0.000300
0.000510
0.000343
0.000280
0.000249
0.000268
0.000438
0.000423
0.000321
0.000157
0.000057
0.000193
0.000241
0.000335
0.000440
0.000356
0.000204
0.000240
0.000255
0.000263
0.000250
0.000283
0.000233
0.000227
0.000264
0.000254
0.000303
0.000414
0.000330
0.000296
0.000341
0.000500
0.000225
0.000280
0.000296
0.000279
0.000286
0.000256
0.000266
0.000514
0.000468
0.000202
0.000056
0.000192
0.000227
0.000250
0.000249
0.000239
0.000483
0.000208
0.000259
0.000262
0.000313
0.000498
0.000602
0.000212
0.000241
0.000243
0.000251
0.000257
0.000245
0.000264
0.000247
0.000260
0.000266
0.000370
0.000453
0.000308
0.000449
0.000269
0.000343
0.000294
0.000224
0.000186
0.000061
0.000179
0.000237
0.000252
0.000500
0.000321
0.000271
0.000275
0.000215
0.000253
0.000255
0.000256
0.000247
0.000255
0.000259
0.000256
0.000256
0.000248
0.000246
0.000275
0.000378
0.000443
0.000461
0.000224
0.000250
0.000279
0.000274
0.000260
0.000271
0.000251
0.000266
0.000195
0.000057
0.000357
0.000290
0.000477
0.000255
0.000208
0.000252
0.000329
0.000453
0.000294
0.000206
0.000240
0.000271
0.000257
0.000436
0.000437
0.000292
0.000227
0.000248
0.000255
0.000283
0.000254
0.000258
0.000264
0.000274
0.000256
0.000342
0.000400
0.000416
0.000268
0.000247
0.000177
0.000058
0.000208
0.000239
0.000246
0.000255
0.000252
0.000265
0.000227
0.000261
0.000243
0.000249
0.000269
0.000239
0.000262
0.001454
0.000227
0.000263
0.000259
0.000240
0.000278
0.000276
0.000261
0.000239
0.000276
0.000253
0.000268
0.000287
0.000253
0.000270
0.000258
0.000270
0.000193
0.000076
0.000194
0.000228
0.000253
0.000250
0.000239
0.000261
0.000242
0.000258
0.000229
0.000254
0.000243
0.000262
0.000257
0.000254
0.000250
0.000282
0.000228
0.000258
0.000278
0.000255
0.000255
0.000261
0.000254
0.000242
0.001295
0.000269
0.000628
0.000434
0.000285
0.000250
0.000185
0.000058
0.000205
0.000236
0.000242
0.000257
0.000411
0.000237
0.000247
0.000236
0.000274
0.000442
0.000342
0.000343
0.000233
0.000243
0.000262
0.000260
0.000251
0.000269
0.000245
0.000257
0.000263
0.000256
0.000280
0.000464
0.000464
0.000444
0.000214
0.000271
0.001369
0.000240
0.000185
0.000057
0.000414
0.000338
0.000333
0.000253
0.000227
0.000247
0.000221
0.000249
0.000260
0.000258
0.000244
0.000261
0.000272
0.000334
0.000501
0.000396
0.000316
0.000220
0.000256
0.000255
0.000270
0.000258
0.000268
0.000268
0.000269
0.000258
0.000286
0.000611
0.000343
0.000381
0.000155
0.000057
0.000203
0.000238
0.001265
0.000418
0.000385
0.000371
0.000394
0.000479
0.000289
0.000327
0.000218
0.000231
0.000259
0.000252
0.000249
0.000268
0.000433
0.000446
0.000411
0.000312
0.000255
0.000247
0.000254
0.000509
0.000240
0.000261
0.000254
0.000282
0.000307
0.000567
0.000311
0.000059
0.000403
0.000328
0.000207
0.000211
0.001613
0.000423
0.000301
0.000245
0.000239
0.000251
0.000228
0.000241
0.000246
0.000271
0.000249
0.000264
0.000233
0.000330
0.000327
0.000477
0.000389
0.000239
0.000251
0.000258
0.000262
0.000271
0.000271
0.000235
0.000267
0.000276
0.000203
0.000056
0.000429
0.000297
0.000223
0.000241
0.000244
0.000245
0.000249
0.000247
0.000224
0.000234
0.001400
0.000480
0.000267
0.000247
0.000238
0.000255
0.000274
0.000263
0.000234
0.000276
0.000266
0.000251
0.000274
0.000458
0.000341
0.000490
0.000222
0.000268
0.000279
0.000279
0.000172
0.000057
0.000215
0.000418
0.000217
0.000278
0.000297
0.000450
0.000353
0.000342
0.000457
0.000211
0.000231
0.000255
0.000258
0.000265
0.000260
0.001528
0.000242
0.000290
0.000236
0.000270
0.000277
0.000257
0.000252
0.000256
0.000265
0.000267
0.000463
0.000471
0.000250
0.000279
0.000157
0.000060
0.000189
0.000231
0.000255
0.000235
0.000230
0.000261
0.000239
0.000251
0.000302
0.000352
0.000409
0.000309
0.000259
0.000240
0.000247
0.000270
0.000275
0.000259
0.000272
0.000231
0.000253
0.000380
0.001195
0.000253
0.000262
0.000256
0.000240
0.000268
0.000260
0.000262
0.000186
0.000057
0.000316
0.000292
0.000335
0.000344
0.000253
0.000240
0.000255
0.000265
0.000252
0.000255
0.000252
0.000272
0.000240
0.000256
0.000258
0.000259
0.000266
0.000271
0.000264
0.000248
0.000251
0.000272
0.000268
0.000287
0.000284
0.000265
0.000268
0.000253
0.000273
0.000434
0.001364
0.000056
0.000203
0.000251
0.000219
0.000243
0.000254
0.000258
0.000247
0.000229
0.000244
0.000253
0.000274
0.000254
0.000252
0.000240
0.000256
0.000248
0.001716
0.000266
0.000244
0.000259
0.000251
0.000252
0.000275
0.000255
0.000278
0.000257
0.000268
0.000287
0.000260
0.000255
0.000233
0.000056
0.000293
0.000263
0.001315
0.000219
0.000237
0.000266
0.000239
0.000249
0.000260
0.000252
0.000235
0.000336
0.000450
0.000412
0.000275
0.000229
0.000238
0.000256
0.000254
0.000285
0.000228
0.000272
0.000263
0.000282
0.000266
0.000384
0.000385
0.000361
0.000310
0.000243
0.000194
0.000056
0.000209
0.000247
0.000244
0.000249
0.000250
0.000221
0.000243
0.000332
0.000361
0.001339
0.000249
0.000211
0.000248
0.000270
0.000255
0.000269
0.000261
0.000249
0.000303
0.000412
0.000395
0.000269
0.000236
0.000243
0.000279
0.000274
0.000269
0.000299
0.000268
0.000278
0.000189
0.000056
0.000259
0.000431
0.000364
0.000225
0.000230
0.000238
0.000246
0.000300
0.000242
0.000266
0.000210
0.000251
0.000705
0.000426
0.000296
0.001460
0.000244
0.000347
0.000327
0.000296
0.000465
0.000423
0.000582
0.000272
0.000229
0.000266
0.000290
0.000255
0.000259
0.000273
0.000196
0.000057
0.000230
0.000315
0.000443
0.000468
0.000311
0.000256
0.000227
0.000229
0.000251
0.000256
0.000251
0.000261
0.000266
0.000244
0.000266
0.000288
0.000399
0.000407
0.000357
0.001325
0.000269
0.000268
0.000243
0.000270
0.000468
0.000430
0.000376
0.000250
0.000275
0.000271
0.000187
0.000057
0.000209
0.000240
0.000246
0.000270
0.000218
0.000282
0.000444
0.000417
0.000339
0.000221
0.000243
0.000257
0.000274
0.000260
0.000262
0.000262
0.000266
0.000268
0.000252
0.000268
0.000557
0.000334
0.000330
0.001356
0.000403
0.000239
0.000289
0.000424
0.000539
0.000241
0.000319
0.000057
0.000210
0.000233
0.000245
0.000249
0.000257
0.000248
0.001710
0.000206
0.000227
0.000237
0.000258
0.000246
0.000307
0.000335
0.000314
0.000278
0.000247
0.000277
0.000593
0.000369
0.000278
0.000272
0.000248
0.001404
0.000346
0.000450
0.000295
0.000488
0.000393
0.000219
0.000144
0.000058
0.000201
0.000246
0.000252
0.000261
0.000241
0.000259
0.001709
0.000222
0.000257
0.000262
0.000338
0.000473
0.001439
0.000285
0.000394
0.000256
0.000247
0.000237
0.000266
0.000278
0.001532
0.000562
0.000392
0.000293
0.000246
0.000248
0.000264
0.000282
0.000238
0.000260
0.000192
0.000057
0.000200
0.000242
0.000267
0.000241
0.000267
0.000271
0.000279
0.000253
0.000254
0.000251
0.000253
0.000247
0.000266
0.000282
0.001509
0.000307
0.000193
0.000240
0.000264
0.000278
0.000272
0.000350
0.000409
0.001192
0.000270
0.000260
0.000254
0.000272
0.000380
0.000246
0.000198
0.000057
0.000219
0.000244
0.000224
0.000245
0.000239
0.000232
0.000233
0.001694
0.000249
0.000236
0.000246
0.000371
0.000220
0.000228
0.000256
0.001408
0.000218
0.000253
0.000267
0.000248
0.000264
0.000348
0.000276
0.001306
0.000277
0.000257
0.000258
0.000262
0.001375
0.000284
0.000209
0.000056
0.000277
0.000312
0.000205
0.000240
0.000263
0.000230
0.000266
0.000265
0.000267
0.000251
0.000260
0.000267
0.000250
0.000248
0.000298
0.001504
0.000251
0.000274
0.000253
0.000244
0.000286
0.000263
0.000250
0.001507
0.000342
0.000247
0.000260
0.001271
0.000274
0.000249
0.000220
0.000056
0.000206
0.000434
0.000295
0.000219
0.000234
0.000238
0.000263
0.000254
0.000266
0.000276
0.000232
0.000255
0.000259
0.000296
0.000401
0.001215
0.000227
0.000252
0.000265
0.000279
0.000229
0.000245
0.000248
0.000332
0.001265
0.000264
0.000265
0.000237
0.000257
0.001336
0.000398
0.000058
0.000238
0.000246
0.000236
0.000227
0.000241
0.000256
0.000243
0.000246
0.000279
0.000251
0.000251
0.000241
0.000249
0.000354
0.000383
0.001479
0.000207
0.000258
0.000301
0.000525
0.000266
0.000376
0.001366
0.000292
0.000268
0.000248
0.000267
0.001290
0.000330
0.000479
0.000368
0.000057
0.000230
0.000251
0.000259
0.000253
0.000251
0.000252
0.000274
0.000247
0.000263
0.000316
0.000371
0.000424
0.001283
0.000219
0.000264
0.000258
0.000284
0.000224
0.000251
0.000251
0.000339
0.001236
0.000249
0.000249
0.000255
0.000252
0.001484
0.000462
0.000475
0.000215
0.000192
0.000057
0.000206
0.000232
0.000251
0.000234
0.000253
0.000267
0.000234
0.000309
0.000435
0.000433
0.000274
0.001486
0.000212
0.000244
0.000268
0.000253
0.000264
0.000284
0.001691
0.000340
0.000407
0.000269
0.001261
0.000415
0.000242
0.000318
0.000270
0.000256
0.000261
0.000272
0.000188
0.000062
0.000189
0.000236
0.000330
0.000266
0.000377
0.000488
0.000248
0.000302
0.001460
0.000241
0.000386
0.000267
0.000227
0.000331
0.000371
0.001306
0.000268
0.000237
0.000262
0.000243
0.001604
0.000285
0.000297
0.000273
0.000257
0.000254
0.000461
0.000344
0.000215
0.000258
0.000256
0.000056
0.000264
0.000298
0.000342
0.000232
0.000230
0.001520
0.000210
0.000265
0.000265
0.000265
0.000271
0.000241
0.000322
0.001469
0.000255
0.000221
0.000439
0.001188
0.000367
0.000412
0.000406
0.000239
0.000239
0.000256
0.000278
0.000239
0.000458
0.000232
0.000258
0.000278
0.000204
0.000056
0.000197
0.000305
0.000308
0.000467
0.001193
0.000287
0.000307
0.000235
0.000241
0.000252
0.000247
0.000299
0.001512
0.000266
0.000231
0.000242
0.001376
0.000313
0.000439
0.000428
0.000340
0.000238
0.000251
0.000268
0.000252
0.000282
0.000266
0.000256
0.000269
0.000248
0.000194
0.000056
0.000205
0.000554
0.001309
0.000208
0.000274
0.000274
0.000242
0.000248
0.000282
0.000403
0.001359
0.000236
0.000286
0.000227
0.000243
0.001256
0.000741
0.000292
0.000332
0.000396
0.000298
0.000258
0.000232
0.000255
0.000275
0.000285
0.000273
0.000349
0.000455
0.000386
0.001353
0.000057
0.000212
0.000246
0.000240
0.000231
0.000287
0.000376
0.000476
0.001299
0.000247
0.000243
0.000244
0.001472
0.000414
0.000311
0.000225
0.000422
0.000236
0.000232
0.000274
0.000272
0.000250
0.000269
0.000280
0.000251
0.000259
0.000278
0.000450
0.000475
0.001492
0.000236
0.000186
0.000057
0.000193
0.000250
0.000341
0.000568
0.001223
0.000276
0.000274
0.000242
0.000247
0.000252
0.000249
0.000260
0.000367
0.000481
0.000352
0.000232
0.000257
0.000271
0.000253
0.000272
0.000267
0.000254
0.000261
0.000262
0.000259
0.000470
0.000392
0.000369
0.000314
0.001403
0.000167
0.000057
0.000206
0.000241
0.000362
0.000385
0.000321
0.000310
0.000317
0.000331
0.000267
0.000258
0.000259
0.000271
0.000250
0.000307
0.000239
0.000290
0.000563
0.000325
0.000274
0.000393
0.000269
0.000404
0.000221
0.000272
0.000247
0.000262
0.000253
0.000298
0.000509
0.000435
0.000194
0.000056
0.000289
0.001348
0.000296
0.000338
0.000383
0.000393
0.000382
0.000309
0.000193
0.000238
0.000261
0.000247
0.000260
0.000273
0.000260
0.000260
0.000261
0.001234
0.000384
0.000249
0.000258
0.000273
0.000274
0.000279
0.000269
0.000250
0.000281
0.000244
0.000370
0.000340
0.000366
0.000058
0.000231
0.000248
0.000219
0.001497
0.000329
0.000231
0.000234
0.000249
0.000227
0.000252
0.000250
0.000273
0.000248
0.000253
0.000267
0.000255
0.000251
0.000266
0.000269
0.000246
0.001434
0.000239
0.000238
0.000275
0.000257
0.000249
0.000264
0.000260
0.000279
0.000492
0.000346
0.000058
0.000190
0.000235
0.000395
0.000277
0.000252
0.000252
0.001535
0.000466
0.000179
0.000224
0.000251
0.000315
0.000333
0.000229
0.000238
0.000242
0.000246
0.000289
0.000236
0.000259
0.000576
0.000465
0.001062
0.000277
0.000232
0.000262
0.000269
0.000259
0.000273
0.000256
0.000320
0.000058
0.000265
0.000342
0.000211
0.000240
0.000246
0.000242
0.000242
0.000231
0.000292
0.001640
0.000377
0.000253
0.000230
0.000251
0.000260
0.000239
0.000262
0.000274
0.000262
0.000312
0.000304
0.000535
0.000426
0.001341
0.000238
0.000262
0.000275
0.000259
0.000285
0.000281
0.000568
0.000059
0.000185
0.000236
0.000240
0.000242
0.000229
0.000236
0.000263
0.000251
0.000265
0.001742
0.000181
0.000261
0.000265
0.000258
0.000463
0.000322
0.000491
0.000356
0.000299
0.000337
0.000449
0.000538
0.001187
0.000235
0.000250
0.000254
0.001729
0.000448
0.000657
0.000260
0.000148
0.000057
0.000198
0.000232
0.000241
0.000235
0.000256
0.000243
0.000248
0.000645
0.000456
0.000312
0.000285
0.000225
0.000239
0.000264
0.000278
0.000260
0.000239
0.000250
0.000257
0.000268
0.000310
0.000369
0.001359
0.000225
0.000251
0.000273
0.001892
0.000395
0.000367
0.000348
0.000165
0.000057
0.000220
0.000241
0.000245
0.001603
0.000389
0.000211
0.000239
0.000264
0.000251
0.000301
0.000374
0.000367
0.000360
0.000285
0.000431
0.000382
0.000380
0.001197
0.000271
0.000238
0.000251
0.000260
0.000267
0.000522
0.000739
0.000230
0.000249
0.000269
0.000265
0.000282
0.000191
0.000056
0.000210
0.000233
0.000238
0.001535
0.000259
0.000236
0.000240
0.000255
0.000246
0.000244
0.000259
0.000269
0.000288
0.000255
0.000300
0.000321
0.000535
0.000238
0.001411
0.000227
0.000265
0.000259
0.000257
0.000280
0.000336
0.000518
0.000451
0.000271
0.000270
0.000232
0.000443
0.000057
0.000197
0.000244
0.000247
0.001543
0.000296
0.000224
0.000271
0.000244
0.000252
0.000260
0.000253
0.000251
0.000259
0.000261
0.000476
0.000507
0.001319
0.000743
0.000259
0.000335
0.000260
0.000230
0.000246
0.000273
0.001685
0.000791
0.000236
0.000265
0.000281
0.000287
0.000181
0.000056
0.000199
0.000235
0.000270
0.000225
0.000260
0.000242
0.000254
0.000244
0.000243
0.000230
0.000292
0.000283
0.000252
0.000250
0.000259
0.000251
0.000270
0.001605
0.000705
0.000396
0.000289
0.000230
0.000247
0.000282
0.000264
0.000262
0.000277
0.000250
0.001407
0.000406
0.000337
0.000058
0.000202
0.000228
0.000250
0.000255
0.000258
0.000227
0.000258
0.000252
0.000251
0.000264
0.000488
0.000217
0.000432
0.000331
0.000212
0.000246
0.000263
0.001400
0.000681
0.000527
0.000283
0.000281
0.000225
0.000247
0.000272
0.000255
0.000284
0.000241
0.001482
0.000422
0.000201
0.000056
0.000217
0.000228
0.000249
0.000245
0.000248
0.000252
0.000230
0.000254
0.000270
0.000275
0.000405
0.000342
0.000312
0.000222
0.000246
0.000244
0.000265
0.000256
0.001585
0.000664
0.000513
0.000218
0.000230
0.000255
0.000266
0.000258
0.000270
0.000297
0.000251
0.001361
0.000320
0.000056
0.000229
0.000213
0.000238
0.000259
0.000252
0.000244
0.000294
0.000272
0.000412
0.000393
0.000453
0.000357
0.000293
0.000223
0.000241
0.000256
0.000269
0.000262
0.000269
0.001918
0.000347
0.000226
0.000440
0.000249
0.000240
0.000266
0.000279
0.000274
0.000254
0.000272
0.000415
0.000057
0.000307
0.000212
0.000235
0.000244
0.000270
0.000232
0.000229
0.000236
0.000270
0.000249
0.000251
0.000233
0.000365
0.000529
0.000296
0.000452
0.000226
0.000264
0.000248
0.000255
0.000258
0.000335
0.001417
0.001056
0.000223
0.000243
0.000272
0.000271
0.000267
0.000253
0.000201
0.000061
0.000188
0.001332
0.000288
0.000225
0.000227
0.000254
0.000250
0.000240
0.000240
0.000252
0.000254
0.000269
0.000232
0.000395
0.000398
0.000438
0.000260
0.000249
0.000265
0.000269
0.000266
0.000230
0.000257
0.000270
0.001312
0.000699
0.000363
0.000334
0.000431
0.000401
0.000240
0.000056
0.000212
0.000246
0.001408
0.000261
0.000215
0.000254
0.000227
0.000261
0.000254
0.000259
0.000241
0.000254
0.000273
0.000457
0.000448
0.000305
0.000230
0.000283
0.000329
0.000212
0.000247
0.000278
0.000229
0.000275
0.000270
0.001530
0.000744
0.000302
0.000275
0.000276
0.000190
0.000056
0.000211
0.000244
0.000476
0.000330
0.001287
0.000238
0.000245
0.000236
0.000234
0.000248
0.000249
0.000257
0.000224
0.000265
0.000234
0.000255
0.000268
0.000239
0.000256
0.000251
0.000272
0.000263
0.000304
0.000336
0.000217
0.000266
0.000273
0.001456
0.000255
0.000243
0.000179
0.000055
0.000202
0.000228
0.000249
0.000319
0.000363
0.000342
0.000397
0.000241
0.001568
0.000254
0.000249
0.000540
0.000346
0.000226
0.000431
0.000234
0.000242
0.000261
0.000276
0.000267
0.000277
0.000266
0.000258
0.000272
0.000265
0.000435
0.000375
0.000302
0.001593
0.000229
0.000187
0.000057
0.000237
0.000246
0.000238
0.000245
0.000242
0.000244
0.000263
0.000280
0.000434
0.002049
0.000229
0.000242
0.000254
0.000259
0.000257
0.000250
0.000270
0.000264
0.000327
0.000500
0.000213
0.000479
0.001447
0.000248
0.000531
0.000232
0.001765
0.000249
0.000254
0.001527
0.000159
0.000058
0.000338
0.000409
0.000466
0.000243
0.000263
0.000227
0.000258
0.000268
0.000265
0.000230
0.000251
0.000362
0.000416
0.000369
0.000412
0.000211
0.000229
0.001566
0.000239
0.000594
0.001875
0.000273
0.000241
0.001581
0.002001
0.000727
0.000267
0.000266
0.000283
0.000489
0.000268
0.000056
0.000213
0.000243
0.000249
0.000246
0.001425
0.001720
0.001085
0.000218
0.000225
0.001579
0.001983
0.000210
0.000266
0.000428
0.000330
0.000379
0.000330
0.000488
0.000202
0.000245
0.000255
0.000254
0.000275
0.001592
0.001204
0.001431
0.000272
0.000297
0.000254
0.000444
0.000207
0.000056
0.000230
0.000231
0.000237
0.000238
0.000227
0.000246
0.000247
0.000253
0.000256
0.000253
0.000239
0.000347
0.000360
0.000495
0.000288
0.000263
0.000249
0.000270
0.000272
0.000260
0.000261
0.000258
0.001575
0.000422
0.002111
0.000242
0.000258
0.000301
0.000467
0.000389
0.000211
0.000072
0.000195
0.000376
0.000487
0.000284
0.000194
0.000230
0.000258
0.000242
0.000240
0.000242
0.000247
0.000263
0.000262
0.001605
0.001356
0.001224
0.000289
0.000223
0.000254
0.000266
0.000283
0.000278
0.000248
0.000250
0.002223
0.000240
0.000249
0.000293
0.000328
0.000304
0.000222
0.000056
0.000236
0.000389
0.000523
0.000308
0.000237
0.000235
0.000251
0.000262
0.001908
0.001414
0.000256
0.000367
0.000403
0.000343
0.000248
0.000222
0.000255
0.000265
0.000266
0.000265
0.000255
0.000264
0.000467
0.000242
0.000268
0.000267
0.000255
0.000274
0.000281
0.000249
0.000201
0.000057
0.000203
0.000246
0.000268
0.000218
0.000251
0.000270
0.001555
0.001402
0.001328
0.000258
0.000219
0.000240
0.000265
0.000264
0.000247
0.000250
0.000247
0.002110
0.000256
0.000227
0.000267
0.000259
0.000260
0.000268
0.000267
0.000259
0.000263
0.000256
0.000280
0.000248
0.000178
0.000056
0.000201
0.002687
0.001380
0.000245
0.000293
0.000293
0.000232
0.000267
0.000257
0.000240
0.000256
0.000243
0.000233
0.000252
0.000267
0.000255
0.000269
0.000266
0.000255
0.000271
0.000266
0.000283
0.000278
0.000258
0.000251
0.000246
0.000266
0.000271
0.000256
0.000271
0.000370
0.000058
0.001549
0.000245
0.001247
0.000218
0.000234
0.000239
0.000258
0.000253
0.000264
0.000274
0.000461
0.000264
0.000351
0.000205
0.000251
0.002152
0.000245
0.000239
0.000265
0.000561
0.000352
0.000278
0.000224
0.000250
0.000264
0.000249
0.000268
0.000278
0.000265
0.001626
0.001254
0.000058
0.000219
0.000223
0.000294
0.000408
0.000331
0.000286
0.000214
0.000232
0.000249
0.000258
0.000269
0.000244
0.000229
0.000256
0.000260
0.000262
0.000337
0.000577
0.000355
0.000261
0.000222
0.000274
0.000281
0.000250
0.000250
0.000255
0.000261
0.000276
0.000244
0.000318
0.000376
0.000057
0.001120
0.000226
0.000358
0.000479
0.000255
0.000226
0.000229
0.000241
0.000251
0.002345
0.000333
0.000384
0.000211
0.000381
0.000277
0.000260
0.000263
0.000259
0.000269
0.000226
0.000251
0.000294
0.000720
0.000310
0.001879
0.001367
0.000527
0.000478
0.000231
0.000280
0.000192
0.000061
0.000381
0.000225
0.000208
0.000252
0.000241
0.000235
0.000243
0.000250
0.000265
0.000238
0.000258
0.000225
0.000246
0.000259
0.000425
0.000478
0.001860
0.001287
0.000506
0.000384
0.000460
0.000235
0.000248
0.000260
0.002127
0.000561
0.000382
0.000238
0.000275
0.000283
0.000190
0.000056
0.000202
0.000242
0.000254
0.000267
0.000250
0.000280
0.000449
0.000367
0.000237
0.000244
0.000245
0.000245
0.000266
0.002107
0.000423
0.000333
0.000217
0.000255
0.000267
0.000257
0.000248
0.002512
0.000275
0.000226
0.000262
0.000256
0.000259
0.000274
0.000278
0.000280
0.000190
0.000055
0.000228
0.000284
0.000606
0.000338
0.000262
0.000228
0.000225
0.000253
0.000260
0.000252
0.002034
0.000318
0.000334
0.000228
0.000223
0.000267
0.000270
0.000238
0.002214
0.000440
0.000229
0.000262
0.000267
0.000264
0.000262
0.000243
0.000279
0.000255
0.000269
0.000268
0.000175
0.000056
0.000187
0.000261
0.000224
0.000221
0.000247
0.000257
0.000240
0.000240
0.000238
0.002174
0.000234
0.000280
0.000219
0.000422
0.000233
0.000251
0.000278
0.000284
0.000241
0.000265
0.001966
0.000297
0.000381
0.000376
0.000386
0.000403
0.000293
0.000241
0.000251
0.000265
0.000193
0.000076
0.000193
0.000247
0.000232
0.000245
0.000385
0.000191
0.000217
0.002315
0.000234
0.000240
0.000251
0.000260
0.000236
0.000249
0.000305
0.002143
0.000574
0.000217
0.000260
0.000246
0.000274
0.000267
0.000270
0.000260
0.000264
0.000251
0.000292
0.000252
0.000264
0.000262
0.000180
0.000057
0.001834
0.001436
0.000204
0.000229
0.000239
0.000255
0.000249
0.000321
0.000360
0.000367
0.002151
0.000257
0.000241
0.000262
0.000332
0.000486
0.000368
0.000298
0.000238
0.000238
0.000254
0.000261
0.000270
0.000226
0.000261
0.000261
0.000270
0.000266
0.000525
0.000531
0.000233
0.000056
0.000216
0.000257
0.000259
0.000253
0.000251
0.000261
0.000239
0.000241
0.001508
0.002092
0.000578
0.000395
0.000339
0.000639
0.000357
0.000230
0.000257
0.000249
0.000267
0.000258
0.000257
0.000242
0.000248
0.000277
0.001820
0.001473
0.000279
0.000266
0.000285
0.000252
0.000441
0.000056
0.001966
0.000205
0.000225
0.000235
0.000334
0.000305
0.000450
0.000315
0.000275
0.000228
0.000248
0.000248
0.000257
0.000256
0.000277
0.000246
0.000256
0.000267
0.001837
0.000245
0.000233
0.000253
0.000280
0.000272
0.000276
0.000254
0.001458
0.000336
0.000244
0.000269
0.000179
0.000057
0.000214
0.000226
0.000245
0.000260
0.000232
0.000240
0.000367
0.000338
0.000483
0.000198
0.000219
0.000247
0.000265
0.000407
0.000379
0.000284
0.000246
0.000231
0.000258
0.000349
0.000509
0.000441
0.000220
0.000256
0.000257
0.000252
0.000253
0.000274
0.000273
0.000264
0.000204
0.000059
0.001436
0.000448
0.000206
0.001945
0.000283
0.000477
0.000392
0.000287
0.000238
0.000241
0.000269
0.000241
0.000244
0.000249
0.000270
0.000256
0.000453
0.000313
0.000342
0.000401
0.000366
0.000230
0.000250
0.000271
0.000273
0.000268
0.000262
0.000274
0.000395
0.000497
0.001331
0.000074
0.000189
0.000222
0.002123
0.000275
0.000289
0.000260
0.000260
0.000248
0.000259
0.000260
0.000213
0.000255
0.000258
0.000259
0.000289
0.000500
0.000587
0.001712
0.000231
0.000246
0.000257
0.000263
0.000596
0.000271
0.001529
0.000285
0.000363
0.001928
0.000277
0.000237
0.000192
0.000058
0.000216
0.000231
0.000234
0.000243
0.000234
0.000240
0.000258
0.000304
0.000337
0.000340
0.000371
0.000350
0.000310
0.000260
0.000228
0.000266
0.000269
0.000242
0.000264
0.000252
0.000301
0.000291
0.000265
0.000260
0.000270
0.001507
0.000289
0.000456
0.002009
0.000228
0.000171
0.000056
0.000223
0.000236
0.000237
0.000244
0.000488
0.000201
0.000265
0.000331
0.000411
0.000273
0.000298
0.000210
0.000264
0.000262
0.000277
0.000437
0.000387
0.000366
0.000241
0.000394
0.000623
0.000410
0.001518
0.000233
0.000253
0.001982
0.000351
0.000228
0.000246
0.000296
0.000187
0.000058
0.000204
0.000246
0.000224
0.000241
0.000254
0.000270
0.000246
0.000289
0.000241
0.000267
0.001795
0.000369
0.000377
0.000300
0.000407
0.000492
0.000218
0.001500
0.000243
0.000332
0.002106
0.000533
0.000245
0.000245
0.000263
0.000266
0.000505
0.000220
0.000259
0.000277
0.000195
0.000063
0.000245
0.000470
0.000246
0.000292
0.000213
0.000243
0.000255
0.000250
0.000264
0.000295
0.000230
0.000250
0.000259
0.000254
0.000354
0.001510
0.000318
0.000201
0.000286
0.001982
0.000302
0.000273
0.000251
0.000264
0.000245
0.000283
0.000274
0.000254
0.000253
0.000266
0.000203
0.000057
0.000231
0.000448
0.001993
0.000256
0.000262
0.000211
0.000246
0.000309
0.000510
0.000362
0.001315
0.000438
0.000298
0.002054
0.000206
0.000245
0.000275
0.000271
0.000258
0.000237
0.000285
0.000295
0.000271
0.000348
0.000557
0.000304
0.000298
0.002234
0.000580
0.000458
0.000322
0.000058
0.000200
0.000233
0.000243
0.001968
0.000233
0.000222
0.000251
0.000239
0.000242
0.000258
0.000246
0.000260
0.000268
0.000297
0.000384
0.001501
0.000241
0.000259
0.000252
0.000256
0.000239
0.000258
0.000254
0.000291
0.000355
0.000411
0.000458
0.000243
0.001600
0.000277
0.000157
0.000059
0.000193
0.000221
0.000245
0.000233
0.000255
0.000248
0.000251
0.000258
0.000263
0.000334
0.000446
0.001362
0.000237
0.000221
0.000247
0.000263
0.000259
0.000253
0.000494
0.000293
0.000447
0.000399
0.000224
0.001576
0.000228
0.000265
0.000283
0.000277
0.000264
0.000266
0.000190
0.000059
0.000214
0.000225
0.000265
0.000267
0.000246
0.000247
0.000233
0.000251
0.000261
0.000238
0.000247
0.000256
0.000254
0.001487
0.000360
0.000214
0.000246
0.000265
0.000314
0.000353
0.000360
0.000223
0.000229
0.000266
0.000281
0.000246
0.000257
0.001409
0.000282
0.000231
0.000175
0.000057
0.000216
0.000228
0.000259
0.000260
0.000253
0.000238
0.000247
0.000259
0.000222
0.000265
0.000242
0.000261
0.000225
0.000332
0.000362
0.000365
0.000221
0.000258
0.001636
0.000252
0.000228
0.000263
0.000261
0.000325
0.000338
0.000488
0.000356
0.000272
0.000245
0.001607
0.000163
0.000057
0.000324
0.000308
0.000375
0.000311
0.000252
0.000195
0.000246
0.000271
0.000259
0.000232
0.000250
0.000240
0.001463
0.000290
0.000303
0.000246
0.000233
0.000254
0.000274
0.000262
0.000251
0.000234
0.000260
0.000271
0.000258
0.000354
0.000456
0.000354
0.000288
0.000271
0.000175
0.000057
0.000216
0.000231
0.000518
0.000258
0.000404
0.000260
0.000245
0.000250
0.000252
0.000259
0.000240
0.000224
0.000259
0.000239
0.001270
0.000268
0.000258
0.000253
0.000283
0.000247
0.000243
0.000264
0.000254
0.000261
0.000255
0.000259
0.000331
0.000738
0.000383
0.000228
0.000185
0.000058
0.000205
0.001551
0.000262
0.000341
0.000443
0.000369
0.000216
0.000255
0.000272
0.000246
0.000246
0.000256
0.000272
0.000269
0.000260
0.001528
0.000254
0.000283
0.000284
0.000237
0.000259
0.000251
0.000269
0.000261
0.000266
0.000300
0.000468
0.000298
0.000352
0.000238
0.000187
0.000056
0.000200
0.000245
0.000234
0.001640
0.000394
0.000365
0.000211
0.000235
0.000256
0.000267
0.000287
0.000249
0.000244
0.000264
0.000235
0.000276
0.000418
0.001302
0.000243
0.000235
0.001504
0.000366
0.000593
0.000314
0.000349
0.000222
0.000269
0.000464
0.000237
0.000265
0.000177
0.000057
0.000268
0.000215
0.000246
0.000249
0.000245
0.000254
0.000240
0.000273
0.000241
0.000237
0.000252
0.000259
0.000332
0.000547
0.001598
0.001504
0.000380
0.000555
0.000283
0.000227
0.000231
0.000262
0.000249
0.000267
0.000248
0.000282
0.000243
0.000267
0.001522
0.000336
0.000166
0.000056
0.000314
0.000302
0.000352
0.000317
0.000235
0.000206
0.000246
0.000321
0.000493
0.000318
0.002186
0.000321
0.000807
0.000398
0.000464
0.000320
0.000321
0.000370
0.000315
0.000266
0.000416
0.000220
0.001809
0.000276
0.000222
0.000265
0.000255
0.000258
0.000259
0.000286
0.000182
0.000058
0.000226
0.000247
0.000248
0.000257
0.000242
0.001663
0.000875
0.000997
0.000209
0.000236
0.000255
0.000262
0.000261
0.000260
0.000254
0.000245
0.000253
0.000268
0.000277
0.000270
0.001429
0.000316
0.000254
0.000225
0.000235
0.000259
0.000267
0.000278
0.000264
0.000288
0.001893
0.000057
0.000198
0.000225
0.001550
0.000866
0.000383
0.000346
0.000239
0.000230
0.000248
0.000255
0.000248
0.000251
0.000247
0.002034
0.000422
0.000232
0.000238
0.000251
0.000263
0.000261
0.000192
