0.000187
0.009278
0.012298
0.000331
0.000237
0.000298
0.000327
0.000223
0.000328
0.000282
0.000251
0.000334
0.000493
0.000561
0.000427
0.000265
0.000271
0.000336
0.000353
0.000419
0.001834
0.000391
0.000712
0.000270
0.000243
0.000303
0.000313
0.000308
0.000422
0.000416
0.000530
0.000252
0.000058
0.000203
0.000267
0.000273
0.000283
0.000247
0.000250
0.000277
0.000289
0.000272
0.000305
0.000393
0.000428
0.000314
0.000251
0.000377
0.000346
0.000366
0.000245
0.000264
0.001693
0.000313
0.000263
0.000443
0.000256
0.000277
0.000283
0.000280
0.000296
0.000273
0.000363
0.000388
0.000057
0.000251
0.000259
0.000261
0.000266
0.000244
0.000244
0.000265
0.000255
0.000289
0.001670
0.000224
0.000236
0.000272
0.000269
0.000278
0.000252
0.000262
0.000255
0.000357
0.001791
0.000240
0.000280
0.000446
0.000427
0.000386
0.000235
0.000262
0.000491
0.000570
0.000699
0.000177
0.000059
0.000226
0.000242
0.000255
0.000240
0.000295
0.000249
0.000334
0.000547
0.000382
0.000246
0.000248
0.000252
0.000239
0.000254
0.000256
0.000261
0.000242
0.000264
0.000305
0.000330
0.001662
0.000278
0.000245
0.000427
0.000377
0.000668
0.000710
0.000453
0.000327
0.000236
0.000189
0.000056
0.000238
0.000246
0.000295
0.000213
0.000283
0.000231
0.000335
0.000385
0.001480
0.000210
0.000257
0.000239
0.000259
0.000256
0.000263
0.000279
0.000268
0.000824
0.001377
0.000301
0.000241
0.000410
0.000246
0.000246
0.000259
0.000254
0.000274
0.000268
0.000260
0.000270
0.000195
0.000057
0.000214
0.000241
0.000243
0.000262
0.000240
0.000244
0.000238
0.000253
0.000240
0.000257
0.001630
0.000259
0.000229
0.000248
0.000258
0.000241
0.000266
0.000235
0.000257
0.000248
0.000297
0.001642
0.000283
0.000252
0.000439
0.000261
0.000249
0.000258
0.000276
0.000264
0.000189
0.000056
0.000220
0.000232
0.000256
0.000240
0.000241
0.000251
0.000259
0.000233
0.000264
0.000258
0.000264
0.000241
0.000276
0.000257
0.001640
0.000276
0.000286
0.000219
0.000256
0.000277
0.000268
0.000232
0.000244
0.000270
0.001772
0.000414
0.000328
0.000377
0.000234
0.000283
0.000194
0.000056
0.000232
0.000234
0.000245
0.000270
0.000271
0.000246
0.000302
0.000381
0.000387
0.000445
0.000210
0.000242
0.000256
0.000249
0.001561
0.000544
0.000377
0.000338
0.000330
0.000216
0.000269
0.000284
0.000271
0.001775
0.000482
0.000448
0.000260
0.000232
0.000249
0.000266
0.000187
0.000057
0.000203
0.000239
0.000249
0.000287
0.000408
0.000376
0.000358
0.000270
0.000212
0.000252
0.000266
0.000233
0.000253
0.001698
0.000493
0.000305
0.000223
0.000254
0.000263
0.000291
0.000248
0.000253
0.001818
0.000361
0.000289
0.000386
0.000239
0.000265
0.000264
0.000393
0.000329
0.000056
0.000220
0.000448
0.000307
0.000247
0.000260
0.000251
0.000246
0.000258
0.000259
0.000217
0.000237
0.000248
0.001551
0.000383
0.000283
0.000229
0.000258
0.000249
0.000249
0.000306
0.000259
0.000322
0.000242
0.001831
0.000237
0.000490
0.000250
0.000252
0.000258
0.000268
0.000263
0.000055
0.000418
0.000563
0.000555
0.000214
0.000227
0.000273
0.000229
0.000219
0.000260
0.000254
0.000251
0.001700
0.000256
0.000439
0.000371
0.000213
0.000245
0.000228
0.000246
0.000270
0.000249
0.001858
0.000225
0.000469
0.001933
0.000475
0.000335
0.000250
0.000252
0.000261
0.000193
0.000055
0.000219
0.000243
0.000239
0.000243
0.000274
0.001606
0.000255
0.000230
0.000253
0.000252
0.000243
0.000261
0.000227
0.000261
0.000300
0.000377
0.000635
0.000276
0.000217
0.000266
0.000280
0.000235
0.000246
0.000432
0.000436
0.000273
0.000375
0.000629
0.000329
0.000274
0.000196
0.000056
0.000200
0.000246
0.000248
0.000251
0.000243
0.000236
0.000261
0.000340
0.001872
0.000309
0.000226
0.000236
0.000245
0.000243
0.000268
0.000304
0.000388
0.000485
0.000339
0.000248
0.000274
0.000280
0.000282
0.000250
0.000282
0.000437
0.000333
0.000606
0.000476
0.000444
0.000171
0.000056
0.000201
0.000249
0.000248
0.000234
0.000235
0.000239
0.000247
0.000262
0.000230
0.000285
0.000342
0.000545
0.001287
0.000234
0.000243
0.000247
0.000260
0.000248
0.000250
0.000258
0.000282
0.000433
0.000427
0.000262
0.000285
0.000239
0.000255
0.000272
0.000262
0.000264
0.000382
0.000056
0.000217
0.000238
0.000224
0.000281
0.000555
0.000393
0.000250
0.000260
0.000230
0.000258
0.000260
0.000226
0.000298
0.000248
0.000237
0.000471
0.000430
0.001648
0.000278
0.000229
0.000258
0.000265
0.000261
0.000242
0.000317
0.000414
0.000484
0.000294
0.000432
0.000235
0.000194
0.000056
0.000199
0.000437
0.000231
0.000214
0.000288
0.000223
0.000519
0.000387
0.000283
0.000329
0.000221
0.000274
0.000262
0.000237
0.000516
0.000339
0.000230
0.000255
0.000438
0.001606
0.000270
0.000253
0.000504
0.000247
0.000277
0.000275
0.000254
0.000384
0.000514
0.000372
0.000273
0.000057
0.000212
0.000230
0.000237
0.000249
0.000413
0.000306
0.000289
0.000228
0.000360
0.000565
0.000310
0.000268
0.000240
0.000240
0.000255
0.000264
0.000252
0.000256
0.000232
0.000350
0.000289
0.000300
0.001881
0.000235
0.000265
0.000251
0.000281
0.000348
0.000411
0.000851
0.000295
0.000078
0.000204
0.000333
0.000299
0.000419
0.000390
0.000206
0.000277
0.000319
0.000488
0.000456
0.000202
0.000238
0.000237
0.000273
0.000260
0.000233
0.000260
0.000272
0.000268
0.000254
0.000300
0.000389
0.000679
0.001312
0.000316
0.000435
0.000420
0.000232
0.000417
0.000558
0.000198
0.000057
0.000244
0.000381
0.000280
0.000202
0.000237
0.000244
0.000411
0.000239
0.000268
0.000357
0.000380
0.000475
0.000232
0.000256
0.000267
0.000246
0.000347
0.000395
0.000346
0.000252
0.000244
0.000416
0.000665
0.001611
0.000222
0.000435
0.000315
0.000219
0.000271
0.000491
0.000254
0.000055
0.000235
0.000231
0.000243
0.000262
0.000248
0.000235
0.000249
0.000324
0.000460
0.000296
0.000398
0.000421
0.000268
0.000569
0.000251
0.000243
0.000276
0.000255
0.000235
0.000340
0.000231
0.000248
0.000268
0.000468
0.000400
0.001689
0.000264
0.000242
0.000260
0.000262
0.000184
0.000056
0.000404
0.000367
0.000316
0.000217
0.000241
0.000249
0.000259
0.000243
0.000267
0.000237
0.000223
0.000265
0.000425
0.000489
0.000395
0.000292
0.000251
0.000252
0.000338
0.000381
0.000381
0.000338
0.000363
0.000391
0.000243
0.000269
0.000258
0.000278
0.001793
0.000236
0.000216
0.000056
0.000204
0.000217
0.000262
0.000290
0.000326
0.000540
0.000319
0.000219
0.000303
0.000219
0.000250
0.000249
0.000520
0.000448
0.000487
0.000267
0.000262
0.000264
0.000422
0.000466
0.000354
0.000491
0.000498
0.000360
0.000236
0.000248
0.000267
0.000244
0.000266
0.001720
0.000401
0.000056
0.000267
0.000325
0.000208
0.000235
0.000259
0.000246
0.000241
0.000492
0.000380
0.000305
0.000294
0.000335
0.000334
0.000621
0.000322
0.000236
0.000253
0.000254
0.000254
0.000262
0.000275
0.000255
0.000252
0.000259
0.000332
0.000329
0.000428
0.000351
0.000233
0.000261
0.000182
0.000056
0.000497
0.000259
0.000450
0.000252
0.000200
0.000251
0.000249
0.000254
0.000243
0.000225
0.000258
0.000272
0.000293
0.000562
0.000367
0.000447
0.000315
0.000290
0.000381
0.000346
0.000298
0.000240
0.000254
0.000258
0.001738
0.000252
0.001724
0.000949
0.000421
0.000302
0.000162
0.000056
0.000206
0.000235
0.000234
0.000248
0.000270
0.000241
0.000253
0.000248
0.000266
0.000302
0.000359
0.000439
0.000324
0.000369
0.000257
0.000262
0.000243
0.000289
0.000235
0.000248
0.000257
0.000259
0.001806
0.000243
0.000249
0.000269
0.000273
0.000267
0.001873
0.000458
0.000348
0.000056
0.000227
0.000213
0.000247
0.000235
0.000253
0.000254
0.000244
0.000246
0.000269
0.000410
0.000511
0.000311
0.000387
0.000236
0.000239
0.000254
0.000321
0.000436
0.000370
0.000248
0.001791
0.000263
0.000237
0.000246
0.000265
0.000274
0.000241
0.000250
0.000324
0.000333
0.000382
0.000056
0.000261
0.000202
0.000238
0.000271
0.000239
0.000240
0.000255
0.000255
0.000242
0.000257
0.000242
0.000313
0.000337
0.000444
0.000279
0.000298
0.000442
0.000251
0.000244
0.000256
0.000261
0.000261
0.000269
0.000258
0.000283
0.001778
0.000249
0.000246
0.000267
0.000240
0.000201
0.000056
0.000178
0.000366
0.000231
0.000226
0.000256
0.000228
0.000232
0.000257
0.000248
0.000222
0.000230
0.000269
0.000253
0.000421
0.000380
0.000327
0.000292
0.000244
0.000240
0.000256
0.000263
0.000264
0.000245
0.000271
0.000245
0.000275
0.000332
0.001596
0.000276
0.000237
0.000188
0.000056
0.000210
0.000239
0.000252
0.000258
0.000350
0.000371
0.000364
0.000329
0.000231
0.000259
0.000261
0.000232
0.000245
0.000258
0.000257
0.000259
0.000244
0.000258
0.000254
0.000277
0.000251
0.000269
0.000247
0.000231
0.000241
0.000285
0.000272
0.000264
0.000254
0.000265
0.000196
0.000056
0.000190
0.000235
0.000260
0.000280
0.000223
0.000240
0.000241
0.000261
0.000298
0.000223
0.000229
0.000250
0.000254
0.000249
0.000292
0.000237
0.000254
0.000248
0.000302
0.000257
0.000269
0.000321
0.000262
0.000223
0.000309
0.000247
0.000273
0.000246
0.000315
0.000433
0.000630
0.000103
0.000234
0.000208
0.000215
0.000234
0.000236
0.000253
0.000240
0.000246
0.000253
0.000243
0.000267
0.000332
0.000527
0.000510
0.001427
0.000223
0.000502
0.000233
0.000286
0.000449
0.000436
0.000361
0.000222
0.000281
0.000243
0.000267
0.000276
0.000250
0.000312
0.000276
0.000167
0.000057
0.000315
0.000492
0.000303
0.000328
0.000207
0.000277
0.000226
0.000242
0.000233
0.000243
0.000257
0.000252
0.000235
0.000286
0.000373
0.000479
0.000376
0.001789
0.000241
0.000254
0.000361
0.000397
0.000499
0.000249
0.000315
0.000322
0.000298
0.000234
0.000229
0.000252
0.000193
0.000057
0.000188
0.000230
0.000239
0.000291
0.000305
0.000645
0.000192
0.000260
0.000249
0.000213
0.000253
0.000269
0.000262
0.000266
0.000246
0.000256
0.000386
0.000448
0.000335
0.000404
0.000244
0.001723
0.000330
0.000490
0.000511
0.000478
0.000318
0.000264
0.000223
0.000263
0.000448
0.000057
0.000207
0.000272
0.000222
0.000286
0.000437
0.000534
0.000288
0.000219
0.000306
0.000274
0.000192
0.000259
0.000253
0.000295
0.000308
0.000235
0.000241
0.000348
0.000519
0.000315
0.000502
0.001840
0.000260
0.000497
0.000510
0.000281
0.000229
0.000260
0.000305
0.000252
0.000199
0.000057
0.000205
0.000333
0.000363
0.000366
0.000360
0.000325
0.000341
0.000210
0.000247
0.000279
0.000249
0.000228
0.000253
0.000259
0.000244
0.000258
0.000320
0.000451
0.000477
0.000330
0.000289
0.000253
0.000241
0.001707
0.000566
0.000390
0.000665
0.000254
0.000244
0.000334
0.000140
0.000056
0.000198
0.000239
0.000344
0.000235
0.000263
0.000395
0.000367
0.000329
0.000241
0.000546
0.000208
0.000259
0.000257
0.000278
0.000275
0.000265
0.000206
0.000332
0.000470
0.000464
0.000252
0.000241
0.000261
0.000251
0.000255
0.000272
0.000230
0.000259
0.000265
0.000292
0.000215
0.000057
0.000330
0.000323
0.000222
0.000252
0.000251
0.000257
0.000242
0.000313
0.000218
0.000247
0.000275
0.000341
0.000423
0.000405
0.000343
0.000260
0.000232
0.000236
0.000257
0.000271
0.000286
0.000266
0.000232
0.000260
0.000276
0.000351
0.000435
0.000319
0.000354
0.000226
0.000179
0.000056
0.000212
0.000219
0.000286
0.000255
0.000223
0.000269
0.000263
0.000238
0.000495
0.000212
0.000259
0.000259
0.000239
0.000264
0.000273
0.000297
0.000238
0.000348
0.000222
0.000236
0.000259
0.000267
0.000255
0.000269
0.000275
0.000280
0.000241
0.000257
0.000259
0.000489
0.000171
0.000056
0.000209
0.000236
0.000251
0.000289
0.000201
0.000244
0.000364
0.000405
0.000239
0.000233
0.000252
0.000259
0.000234
0.000268
0.000458
0.001761
0.000235
0.000264
0.000287
0.000326
0.000410
0.000366
0.000356
0.000451
0.000331
0.000413
0.000246
0.000266
0.000269
0.000277
0.001411
0.000056
0.000439
0.000282
0.000216
0.000220
0.000235
0.000253
0.000231
0.000256
0.000244
0.000271
0.000244
0.000262
0.000254
0.000297
0.000606
0.001550
0.000245
0.000230
0.000249
0.000261
0.000242
0.000260
0.000390
0.000424
0.000344
0.000245
0.000217
0.000270
0.000277
0.000260
0.000189
0.000056
0.001261
0.000497
0.000312
0.000277
0.000236
0.000225
0.000235
0.000237
0.000493
0.000215
0.000242
0.000246
0.000348
0.000531
0.000393
0.000333
0.000250
0.000235
0.000331
0.000357
0.000276
0.000254
0.000271
0.000246
0.000293
0.000654
0.000507
0.000196
0.000261
0.000267
0.000164
0.000056
0.000201
0.000224
0.000243
0.000252
0.001559
0.000221
0.000209
0.000255
0.000259
0.000233
0.000250
0.000255
0.000241
0.000262
0.000276
0.000324
0.000406
0.000639
0.000267
0.001740
0.000258
0.000285
0.000336
0.000387
0.000562
0.000391
0.000247
0.000259
0.000254
0.000270
0.000203
0.000057
0.000211
0.000243
0.000238
0.000397
0.001174
0.000234
0.000252
0.000266
0.000236
0.000236
0.000240
0.000255
0.000273
0.000247
0.000254
0.000320
0.000484
0.000356
0.000326
0.000271
0.000271
0.000268
0.000249
0.000229
0.000294
0.000261
0.000244
0.000272
0.000296
0.000374
0.000550
0.000060
0.000221
0.000273
0.000213
0.000261
0.000261
0.000239
0.000231
0.000266
0.000271
0.000278
0.001405
0.000226
0.000241
0.000251
0.000259
0.000234
0.000291
0.000249
0.000281
0.000240
0.000267
0.000541
0.000476
0.000321
0.000226
0.000275
0.001761
0.000261
0.000256
0.000298
0.000500
0.000056
0.000222
0.000399
0.000432
0.000504
0.000515
0.000541
0.001502
0.000411
0.000526
0.000651
0.000553
0.000786
0.000414
0.000615
0.000588
0.001911
0.000383
0.000437
0.000378
0.000323
0.000229
0.000293
0.000274
0.000255
0.000263
0.000297
0.000282
0.000290
0.000259
0.000290
0.001362
0.000056
0.000208
0.000223
0.000252
0.000236
0.000261
0.000256
0.000236
0.000238
0.000250
0.000254
0.000239
0.000239
0.000256
0.000264
0.000261
0.000268
0.001802
0.000282
0.000247
0.000238
0.000256
0.000270
0.000264
0.000320
0.000327
0.000459
0.000357
0.000225
0.000262
0.000287
0.000205
0.000056
0.000204
0.001347
0.000341
0.000275
0.000245
0.000236
0.000241
0.000238
0.000229
0.000245
0.000208
0.000254
0.000247
0.000511
0.000362
0.000302
0.000245
0.001816
0.000383
0.000201
0.000251
0.000265
0.000256
0.000267
0.000271
0.000288
0.000266
0.000253
0.000267
0.000315
0.000201
0.000056
0.000210
0.000238
0.000249
0.001445
0.000213
0.000271
0.000233
0.000248
0.000230
0.000274
0.000246
0.000245
0.000246
0.000280
0.000241
0.000249
0.000268
0.000264
0.000270
0.000269
0.000249
0.001767
0.000265
0.001760
0.000270
0.000260
0.000251
0.000276
0.000288
0.000258
0.000202
0.000056
0.000223
0.000221
0.001348
0.000226
0.000280
0.000228
0.000253
0.000252
0.000248
0.000251
0.000254
0.000240
0.000265
0.000254
0.000260
0.000264
0.000261
0.000285
0.000296
0.000225
0.001882
0.000236
0.001827
0.000236
0.000269
0.000273
0.000231
0.000254
0.000248
0.000270
0.000197
0.000056
0.001423
0.000213
0.000252
0.000237
0.000232
0.000236
0.000374
0.000285
0.000235
0.000253
0.000250
0.000262
0.000245
0.000378
0.000364
0.000295
0.000243
0.000279
0.000254
0.000247
0.000270
0.000352
0.000226
0.000251
0.000269
0.000277
0.000274
0.000370
0.000647
0.000342
0.000174
0.000056
0.000224
0.000253
0.000245
0.000305
0.000371
0.000264
0.001696
0.000293
0.000271
0.000276
0.000252
0.000277
0.000259
0.000271
0.000296
0.000310
0.000335
0.000617
0.000341
0.000260
0.000298
0.000269
0.000272
0.000264
0.000335
0.000257
0.000261
0.000263
0.000247
0.000336
0.000386
0.000056
0.000235
0.000474
0.000264
0.000263
0.000245
0.000230
0.000226
0.000245
0.000261
0.000287
0.001487
0.000224
0.000230
0.000242
0.000244
0.000285
0.000279
0.000238
0.000263
0.000268
0.000267
0.000365
0.000519
0.000335
0.000272
0.000287
0.000267
0.000254
0.000236
0.000318
0.000165
0.000055
0.000197
0.000232
0.000294
0.000455
0.000405
0.000234
0.000223
0.000251
0.000249
0.000255
0.000226
0.000256
0.000257
0.000269
0.000241
0.000244
0.000393
0.001204
0.000244
0.000272
0.000257
0.000248
0.000346
0.000430
0.000253
0.000326
0.000565
0.000357
0.000391
0.000232
0.000174
0.000058
0.000211
0.000248
0.000259
0.000261
0.000262
0.000242
0.000327
0.000435
0.000398
0.000312
0.000349
0.000414
0.000398
0.000344
0.000251
0.000241
0.000235
0.000281
0.000424
0.000419
0.001268
0.000223
0.000276
0.000271
0.000242
0.000232
0.000270
0.000436
0.000412
0.000337
0.000241
0.000055
0.000186
0.000236
0.000262
0.000241
0.000242
0.000243
0.000238
0.000263
0.000298
0.000410
0.000397
0.000340
0.000250
0.000238
0.000252
0.000258
0.000244
0.000262
0.000268
0.000270
0.000419
0.000255
0.000427
0.000371
0.000309
0.000256
0.000277
0.000261
0.000250
0.000340
0.000156
0.000056
0.000287
0.000310
0.000366
0.000369
0.000475
0.000286
0.000241
0.000243
0.000247
0.000269
0.000252
0.000263
0.000240
0.000252
0.000238
0.000226
0.000268
0.000401
0.000411
0.000401
0.000216
0.000281
0.000239
0.000246
0.000265
0.000290
0.000259
0.000281
0.000265
0.000265
0.000396
0.000056
0.000304
0.000327
0.000233
0.000274
0.000222
0.000245
0.000246
0.000258
0.000256
0.000260
0.000250
0.000239
0.000440
0.000380
0.000397
0.000290
0.000236
0.000249
0.000255
0.000263
0.000257
0.000270
0.000254
0.000293
0.000247
0.000472
0.000311
0.000540
0.000400
0.000258
0.000179
0.000057
0.000388
0.000193
0.000226
0.000267
0.000235
0.000240
0.000239
0.000248
0.000258
0.000255
0.000228
0.000244
0.000269
0.000225
0.000237
0.000270
0.000254
0.000264
0.000294
0.000250
0.000254
0.000260
0.000260
0.000267
0.000265
0.000240
0.000261
0.000288
0.000245
0.000284
0.000198
0.000056
0.000191
0.000243
0.000240
0.000246
0.000230
0.000261
0.000257
0.000243
0.000257
0.000272
0.000235
0.000233
0.000266
0.000394
0.000252
0.000297
0.000235
0.000268
0.000260
0.000281
0.000269
0.000231
0.000250
0.000249
0.000273
0.000274
0.000252
0.000252
0.000274
0.000261
0.000202
0.000056
0.000209
0.000358
0.000365
0.000283
0.000293
0.000253
0.000277
0.000252
0.000225
0.000247
0.000280
0.000230
0.000251
0.000238
0.000255
0.000280
0.000252
0.000263
0.000244
0.000265
0.000271
0.000265
0.000279
0.000255
0.000291
0.000231
0.000263
0.000264
0.000269
0.000263
0.000201
0.000073
0.000190
0.000227
0.000267
0.000263
0.000251
0.000446
0.000211
0.000269
0.000282
0.000442
0.000539
0.000218
0.000225
0.000252
0.000278
0.000258
0.000236
0.000272
0.000256
0.000273
0.000277
0.000242
0.000258
0.000297
0.000466
0.000555
0.000259
0.000304
0.000262
0.000258
0.000190
0.000056
0.000226
0.000218
0.000246
0.000253
0.000440
0.000533
0.000307
0.000408
0.000184
0.000250
0.000254
0.000254
0.000248
0.000251
0.000258
0.000269
0.000271
0.000244
0.000637
0.000404
0.000269
0.000252
0.000254
0.000282
0.000277
0.000261
0.000263
0.000285
0.000249
0.000306
0.000315
0.000056
0.000277
0.000230
0.000242
0.000239
0.000252
0.000267
0.000216
0.000252
0.000241
0.000254
0.000247
0.000255
0.000241
0.000365
0.000686
0.000302
0.000263
0.000236
0.000262
0.000243
0.000265
0.000289
0.000476
0.000220
0.000259
0.000748
0.000268
0.000483
0.000258
0.000245
0.000188
0.000056
0.000191
0.000230
0.000241
0.000244
0.000256
0.000258
0.000408
0.000333
0.000589
0.000436
0.000201
0.000262
0.000270
0.000281
0.000255
0.000240
0.000239
0.000253
0.000277
0.000329
0.000378
0.000751
0.000290
0.000240
0.000342
0.000375
0.000505
0.000232
0.000270
0.000538
0.000315
0.000056
0.000276
0.000235
0.000438
0.000219
0.000229
0.000256
0.000261
0.000258
0.000231
0.000241
0.000253
0.000414
0.000504
0.000207
0.000221
0.000252
0.000268
0.000247
0.000258
0.000282
0.000275
0.000254
0.000249
0.000275
0.000296
0.000496
0.000484
0.000240
0.000263
0.000268
0.000186
0.000056
0.000225
0.000254
0.000231
0.000244
0.000243
0.000310
0.000372
0.000423
0.000355
0.000268
0.000373
0.000239
0.000244
0.000260
0.000253
0.000239
0.000261
0.000256
0.000284
0.000408
0.000465
0.000347
0.000476
0.000267
0.000379
0.000424
0.000382
0.000250
0.000253
0.000336
0.000306
0.000056
0.000244
0.000268
0.000221
0.000272
0.000242
0.000257
0.000246
0.000248
0.000272
0.000246
0.000234
0.000396
0.000416
0.000364
0.000372
0.000232
0.000268
0.000263
0.000267
0.000231
0.000251
0.000255
0.000271
0.000268
0.000276
0.000313
0.000583
0.000400
0.000236
0.000280
0.000191
0.000056
0.000214
0.000236
0.000273
0.000249
0.000242
0.000346
0.000740
0.000234
0.000348
0.000690
0.000262
0.000214
0.000249
0.000259
0.000245
0.000266
0.000280
0.000278
0.000481
0.000410
0.001512
0.000314
0.000264
0.000283
0.000267
0.000254
0.000376
0.000444
0.000305
0.000348
0.000180
0.000055
0.000218
0.000235
0.000247
0.000263
0.000228
0.000251
0.000303
0.000223
0.000243
0.000323
0.000331
0.000380
0.000270
0.000339
0.000394
0.000348
0.000247
0.000247
0.000270
0.000253
0.000248
0.000249
0.000310
0.000220
0.000327
0.000445
0.000425
0.000274
0.000261
0.000266
0.000190
0.000057
0.000235
0.000247
0.000253
0.000256
0.000242
0.000237
0.000471
0.000215
0.000231
0.000252
0.000251
0.000247
0.000260
0.000263
0.000244
0.000268
0.000262
0.000290
0.000247
0.000251
0.000287
0.000262
0.000295
0.000246
0.000264
0.000275
0.000271
0.000266
0.000266
0.000266
0.000176
0.000055
0.000237
0.000257
0.000284
0.000421
0.000373
0.000249
0.000243
0.000246
0.000259
0.000256
0.000242
0.000258
0.000263
0.000264
0.000235
0.000246
0.000264
0.000260
0.000257
0.000386
0.000551
0.000257
0.000229
0.000272
0.000253
0.000259
0.000264
0.000256
0.000272
0.000277
0.000201
0.000055
0.000425
0.000352
0.000429
0.000209
0.000252
0.000255
0.000412
0.000220
0.000233
0.000255
0.000255
0.000284
0.000463
0.000450
0.001764
0.000243
0.000242
0.000247
0.000284
0.000239
0.000374
0.000488
0.000505
0.000326
0.000232
0.000262
0.000274
0.000429
0.000275
0.000276
0.000168
0.000055
0.000241
0.000358
0.000338
0.000327
0.000495
0.000199
0.000255
0.000250
0.000238
0.000238
0.000260
0.000250
0.000262
0.000347
0.000381
0.000479
0.000221
0.000244
0.000262
0.000259
0.000260
0.000313
0.000237
0.000282
0.000276
0.000493
0.000455
0.000620
0.000246
0.000236
0.000203
0.000057
0.000194
0.000243
0.000255
0.000254
0.000226
0.000253
0.000262
0.000292
0.000377
0.000431
0.000328
0.000345
0.000221
0.000255
0.000266
0.000289
0.000295
0.000239
0.000274
0.000274
0.000236
0.000325
0.000469
0.000368
0.000279
0.000254
0.000259
0.000444
0.000407
0.000314
0.000176
0.000056
0.000197
0.000302
0.000262
0.000451
0.000356
0.000210
0.000235
0.000255
0.000264
0.000262
0.000252
0.000252
0.000246
0.000243
0.000254
0.000346
0.000398
0.000322
0.000287
0.000347
0.000489
0.000220
0.000283
0.000273
0.000298
0.000289
0.000255
0.000266
0.000504
0.000433
0.000245
0.000056
0.000191
0.000228
0.000251
0.000247
0.000246
0.000479
0.000228
0.000238
0.000265
0.000397
0.000448
0.000566
0.000208
0.000240
0.000242
0.000258
0.000254
0.000269
0.000244
0.000244
0.000287
0.000242
0.000365
0.000423
0.000342
0.000427
0.000277
0.000308
0.000318
0.000256
0.000183
0.000055
0.000194
0.000235
0.000265
0.000482
0.000377
0.000234
0.000253
0.000233
0.000246
0.000256
0.000254
0.000262
0.000263
0.000236
0.000257
0.000275
0.000228
0.000245
0.000289
0.000406
0.000425
0.000438
0.000230
0.000245
0.000280
0.000275
0.000259
0.000255
0.000270
0.000266
0.000194
0.000056
0.000307
0.000314
0.000481
0.000257
0.000207
0.000243
0.000313
0.000459
0.000282
0.000217
0.000248
0.000275
0.000283
0.000442
0.000468
0.000237
0.000237
0.000232
0.000257
0.000280
0.000256
0.000260
0.000264
0.000269
0.000274
0.000320
0.000408
0.000384
0.000301
0.000239
0.000190
0.000056
0.000211
0.000240
0.000243
0.000259
0.000251
0.000259
0.000231
0.000272
0.000251
0.000234
0.000268
0.000233
0.000293
0.001434
0.000223
0.000251
0.000259
0.000247
0.000328
0.000231
0.000259
0.000238
0.000273
0.000256
0.000265
0.000303
0.000239
0.000270
0.000260
0.000273
0.000189
0.000058
0.000220
0.000252
0.000233
0.000258
0.000222
0.000259
0.000246
0.000256
0.000228
0.000250
0.000245
0.000265
0.000256
0.000253
0.000257
0.000258
0.000244
0.000281
0.000255
0.000250
0.000257
0.000263
0.000259
0.000238
0.001295
0.000284
0.000610
0.000440
0.000282
0.000246
0.000190
0.000057
0.000208
0.000240
0.000236
0.000254
0.000417
0.000229
0.000250
0.000237
0.000253
0.000434
0.000371
0.000349
0.000226
0.000237
0.000265
0.000258
0.000254
0.000264
0.000245
0.000260
0.000260
0.000255
0.000268
0.000502
0.000513
0.000357
0.000227
0.000265
0.001366
0.000246
0.000187
0.000055
0.000341
0.000422
0.000326
0.000277
0.000218
0.000229
0.000221
0.000249
0.000263
0.000255
0.000245
0.000264
0.000293
0.000322
0.000516
0.000349
0.000337
0.000222
0.000244
0.000265
0.000263
0.000284
0.000247
0.000268
0.000270
0.000261
0.000488
0.000383
0.000387
0.000371
0.000143
0.000057
0.000211
0.000233
0.001263
0.000430
0.000318
0.000446
0.000359
0.000500
0.000259
0.000346
0.000223
0.000228
0.000266
0.000253
0.000251
0.000269
0.000404
0.000419
0.000442
0.000333
0.000258
0.000246
0.000267
0.000499
0.000245
0.000251
0.000255
0.000278
0.000314
0.000574
0.000287
0.000057
0.000373
0.000311
0.000238
0.000229
0.001613
0.000396
0.000337
0.000229
0.000238
0.000252
0.000223
0.000248
0.000251
0.000263
0.000248
0.000265
0.000234
0.000278
0.000390
0.000356
0.000487
0.000249
0.000253
0.000255
0.000260
0.000274
0.000268
0.000241
0.000271
0.000272
0.000199
0.000057
0.000395
0.000338
0.000217
0.000247
0.000242
0.000246
0.000259
0.000239
0.000237
0.000226
0.001394
0.000475
0.000289
0.000233
0.000240
0.000256
0.000273
0.000259
0.000238
0.000303
0.000245
0.000253
0.000261
0.000465
0.000347
0.000469
0.000242
0.000276
0.000267
0.000280
0.000173
0.000056
0.000220
0.000418
0.000215
0.000287
0.000338
0.000434
0.000322
0.000338
0.000455
0.000212
0.000231
0.000247
0.000262
0.000265
0.000260
0.001513
0.000256
0.000293
0.000238
0.000272
0.000303
0.000229
0.000253
0.000248
0.000269
0.000268
0.000475
0.000440
0.000268
0.000270
0.000164
0.000056
0.000200
0.000235
0.000254
0.000235
0.000228
0.000261
0.000241
0.000245
0.000302
0.000352
0.000405
0.000316
0.000245
0.000254
0.000247
0.000286
0.000260
0.000259
0.000264
0.000230
0.000261
0.000335
0.001230
0.000237
0.000267
0.000269
0.000244
0.000269
0.000261
0.000263
0.000181
0.000056
0.000265
0.000393
0.000257
0.000382
0.000235
0.000241
0.000257
0.000289
0.000238
0.000277
0.000225
0.000269
0.000236
0.000254
0.000260
0.000260
0.000267
0.000268
0.000264
0.000249
0.000251
0.000272
0.000268
0.000279
0.000291
0.000270
0.000265
0.000265
0.000259
0.000450
0.001348
0.000056
0.000206
0.000249
0.000223
0.000285
0.000212
0.000257
0.000242
0.000225
0.000249
0.000253
0.000273
0.000259
0.000248
0.000240
0.000278
0.000223
0.001720
0.000273
0.000230
0.000257
0.000252
0.000254
0.000274
0.000258
0.000307
0.000230
0.000265
0.000281
0.000267
0.000258
0.000232
0.000056
0.000277
0.000341
0.001286
0.000228
0.000224
0.000250
0.000253
0.000272
0.000253
0.000240
0.000236
0.000429
0.000419
0.000350
0.000253
0.000235
0.000250
0.000257
0.000257
0.000267
0.000241
0.000305
0.000232
0.000281
0.000275
0.000425
0.000301
0.000400
0.000308
0.000237
0.000196
0.000056
0.000213
0.000245
0.000244
0.000271
0.000252
0.000201
0.000243
0.000315
0.000354
0.001340
0.000269
0.000214
0.000249
0.000267
0.000277
0.000271
0.000237
0.000253
0.000343
0.000438
0.000319
0.000261
0.000250
0.000243
0.000279
0.000281
0.000272
0.000289
0.000293
0.000254
0.000190
0.000057
0.000266
0.000391
0.000405
0.000228
0.000224
0.000236
0.000245
0.000277
0.000264
0.000248
0.000225
0.000279
0.000425
0.000499
0.000474
0.001457
0.000236
0.000270
0.000332
0.000354
0.000469
0.000552
0.000393
0.000353
0.000233
0.000266
0.000284
0.000260
0.000261
0.000275
0.000196
0.000055
0.000234
0.000316
0.000450
0.000487
0.000277
0.000259
0.000232
0.000239
0.000238
0.000273
0.000234
0.000272
0.000271
0.000249
0.000247
0.000281
0.000401
0.000405
0.000367
0.001320
0.000272
0.000257
0.000251
0.000272
0.000443
0.000485
0.000344
0.000250
0.000273
0.000273
0.000189
0.000056
0.000213
0.000240
0.000246
0.000277
0.000214
0.000295
0.000500
0.000406
0.000282
0.000221
0.000239
0.000257
0.000269
0.000294
0.000237
0.000254
0.000265
0.000261
0.000278
0.000236
0.000525
0.000411
0.000299
0.001350
0.000410
0.000242
0.000264
0.000401
0.000568
0.000243
0.000309
0.000056
0.000205
0.000234
0.000246
0.000252
0.000257
0.000248
0.001704
0.000231
0.000201
0.000241
0.000255
0.000246
0.000253
0.000322
0.000328
0.000287
0.000265
0.000317
0.000479
0.000429
0.000302
0.000278
0.000229
0.000266
0.001488
0.000353
0.000399
0.000477
0.000313
0.000298
0.000181
0.000056
0.000197
0.000252
0.000250
0.000260
0.000246
0.000260
0.001704
0.000221
0.000255
0.000265
0.000324
0.000401
0.001492
0.000318
0.000397
0.000241
0.000259
0.000233
0.000258
0.000285
0.001527
0.000556
0.000429
0.000276
0.000230
0.000257
0.000260
0.000287
0.000243
0.000252
0.000193
0.000057
0.000194
0.000242
0.000266
0.000260
0.000253
0.000269
0.000281
0.000252
0.000255
0.000251
0.000255
0.000245
0.000291
0.000257
0.000239
0.001485
0.000299
0.000222
0.000270
0.000274
0.000273
0.000257
0.001433
0.000333
0.000207
0.000236
0.000275
0.000274
0.000376
0.000242
0.000202
0.000056
0.000219
0.000253
0.000218
0.000246
0.000240
0.000229
0.000235
0.001688
0.000261
0.000229
0.000350
0.000267
0.000227
0.000228
0.000250
0.001377
0.000248
0.000262
0.000263
0.000249
0.000268
0.000340
0.000296
0.001301
0.000302
0.000218
0.000252
0.001406
0.000321
0.000198
0.000209
0.000056
0.000267
0.000320
0.000205
0.000238
0.000268
0.000223
0.000289
0.000247
0.000263
0.000248
0.000258
0.000266
0.000251
0.000241
0.000318
0.001521
0.000240
0.000255
0.000253
0.000242
0.000283
0.000258
0.000252
0.001509
0.000347
0.000234
0.000265
0.001282
0.000268
0.000248
0.000230
0.000056
0.000210
0.000448
0.000287
0.000214
0.000236
0.000238
0.000267
0.000255
0.000265
0.000269
0.000238
0.000250
0.000260
0.000302
0.000378
0.001231
0.000232
0.000256
0.000261
0.000276
0.000231
0.000243
0.000248
0.000333
0.001295
0.000224
0.000255
0.000253
0.000284
0.001310
0.000350
0.000058
0.000205
0.000291
0.000223
0.000229
0.000240
0.000255
0.000241
0.000248
0.000300
0.000231
0.000251
0.000248
0.000238
0.000362
0.000381
0.001473
0.000211
0.000258
0.000299
0.000523
0.000269
0.000372
0.001374
0.000330
0.000218
0.000259
0.000263
0.001284
0.000332
0.000490
0.000371
0.000056
0.000234
0.000250
0.000255
0.000255
0.000250
0.000255
0.000271
0.000266
0.000247
0.000260
0.000359
0.000412
0.001338
0.000243
0.000272
0.000263
0.000281
0.000237
0.000226
0.000240
0.000344
0.001242
0.000246
0.000250
0.000252
0.000255
0.001548
0.000378
0.000495
0.000218
0.000184
0.000055
0.000207
0.000233
0.000249
0.000257
0.000233
0.000264
0.000237
0.000315
0.000396
0.000462
0.000276
0.001482
0.000214
0.000245
0.000267
0.000257
0.000257
0.000321
0.001661
0.000246
0.000383
0.000345
0.001345
0.000350
0.000259
0.000332
0.000252
0.000258
0.000257
0.000270
0.000197
0.000056
0.000201
0.000242
0.000328
0.000251
0.000317
0.000557
0.000257
0.000297
0.001466
0.000234
0.000383
0.000267
0.000255
0.000310
0.000389
0.001282
0.000268
0.000238
0.000247
0.000254
0.001515
0.000385
0.000293
0.000270
0.000270
0.000242
0.000461
0.000328
0.000254
0.000248
0.000245
0.000055
0.000391
0.000212
0.000358
0.000237
0.000227
0.001522
0.000206
0.000271
0.000265
0.000268
0.000269
0.000252
0.000331
0.001443
0.000261
0.000226
0.000432
0.001189
0.000451
0.000319
0.000412
0.000238
0.000244
0.000255
0.000297
0.000227
0.000448
0.000231
0.000262
0.000282
0.000201
0.000056
0.000196
0.000281
0.000326
0.000376
0.001289
0.000302
0.000319
0.000222
0.000228
0.000246
0.000250
0.000384
0.001429
0.000257
0.000236
0.000241
0.001376
0.000350
0.000394
0.000410
0.000377
0.000222
0.000254
0.000253
0.000266
0.000287
0.000257
0.000261
0.000269
0.000254
0.000191
0.000056
0.000193
0.000386
0.001474
0.000205
0.000274
0.000303
0.000217
0.000246
0.000264
0.000401
0.001378
0.000208
0.000253
0.000261
0.000281
0.001241
0.000716
0.000277
0.000321
0.000411
0.000304
0.000249
0.000271
0.000259
0.000269
0.000291
0.000275
0.000320
0.000449
0.000386
0.001385
0.000056
0.000216
0.000245
0.000241
0.000225
0.000300
0.000440
0.000423
0.001275
0.000248
0.000239
0.000255
0.001406
0.000552
0.000229
0.000233
0.000417
0.000235
0.000237
0.000266
0.000300
0.000268
0.000235
0.000280
0.000253
0.000253
0.000285
0.000427
0.000494
0.001495
0.000228
0.000193
0.000057
0.000200
0.000250
0.000334
0.000543
0.001245
0.000305
0.000229
0.000261
0.000248
0.000248
0.000255
0.000311
0.000311
0.000530
0.000303
0.000236
0.000256
0.000272
0.000246
0.000318
0.000223
0.000260
0.000254
0.000269
0.000250
0.000352
0.000541
0.000308
0.000334
0.001406
0.000177
0.000059
0.000192
0.000238
0.000407
0.000342
0.000321
0.000308
0.000317
0.000330
0.000295
0.000251
0.000239
0.000264
0.000246
0.000312
0.000231
0.000260
0.000538
0.000367
0.000293
0.000392
0.000269
0.000406
0.000227
0.000243
0.000265
0.000264
0.000249
0.000289
0.000440
0.000430
0.000271
0.000056
0.000207
0.001414
0.000218
0.000340
0.000403
0.000443
0.000427
0.000262
0.000210
0.000248
0.000261
0.000255
0.000276
0.000252
0.000271
0.000250
0.000255
0.001237
0.000386
0.000240
0.000264
0.000271
0.000274
0.000278
0.000271
0.000252
0.000273
0.000245
0.000363
0.000348
0.000371
0.000057
0.000215
0.000246
0.000235
0.001503
0.000328
0.000234
0.000229
0.000251
0.000227
0.000245
0.000255
0.000281
0.000243
0.000252
0.000292
0.000233
0.000246
0.000261
0.000270
0.000242
0.001430
0.000226
0.000263
0.000265
0.000260
0.000253
0.000265
0.000260
0.000278
0.000488
0.000351
0.000056
0.000192
0.000231
0.000395
0.000291
0.000240
0.000254
0.001520
0.000421
0.000229
0.000221
0.000261
0.000315
0.000333
0.000225
0.000233
0.000246
0.000247
0.000285
0.000237
0.000259
0.000542
0.000451
0.001117
0.000264
0.000246
0.000264
0.000264
0.000256
0.000303
0.000234
0.000488
0.000056
0.000276
0.000315
0.000204
0.000253
0.000239
0.000243
0.000241
0.000226
0.000291
0.001680
0.000378
0.000204
0.000241
0.000249
0.000261
0.000240
0.000261
0.000275
0.000258
0.000313
0.000323
0.000478
0.000479
0.001330
0.000233
0.000277
0.000259
0.000261
0.000276
0.000307
0.000548
0.000072
0.000166
0.000265
0.000228
0.000233
0.000221
0.000243
0.000263
0.000280
0.000252
0.001572
0.000359
0.000259
0.000244
0.000258
0.000466
0.000253
0.000540
0.000377
0.000270
0.000264
0.000510
0.000500
0.001246
0.000258
0.000239
0.000256
0.001671
0.000482
0.000744
0.000197
0.000147
0.000056
0.000200
0.000230
0.000241
0.000233
0.000261
0.000239
0.000249
0.000491
0.000626
0.000301
0.000281
0.000222
0.000240
0.000264
0.000286
0.000268
0.000233
0.000244
0.000255
0.000284
0.000264
0.000370
0.001384
0.000221
0.000257
0.000278
0.001962
0.000356
0.000412
0.000286
0.000150
0.000055
0.000219
0.000247
0.000239
0.001661
0.000331
0.000216
0.000234
0.000263
0.000252
0.000274
0.000375
0.000369
0.000371
0.000274
0.000517
0.000315
0.000394
0.001175
0.000270
0.000245
0.000256
0.000261
0.000277
0.000396
0.000703
0.000382
0.000248
0.000270
0.000269
0.000280
0.000192
0.000057
0.000203
0.000239
0.000241
0.001586
0.000218
0.000225
0.000237
0.000257
0.000243
0.000250
0.000263
0.000262
0.000271
0.000272
0.000323
0.000332
0.000466
0.000301
0.001376
0.000224
0.000272
0.000257
0.000260
0.000273
0.000370
0.000596
0.000332
0.000256
0.000290
0.000230
0.000453
0.000056
0.000198
0.000243
0.000268
0.001529
0.000300
0.000220
0.000265
0.000244
0.000251
0.000259
0.000255
0.000281
0.000231
0.000251
0.000423
0.000580
0.001291
0.000753
0.000284
0.000368
0.000207
0.000219
0.000249
0.000276
0.001674
0.000810
0.000231
0.000262
0.000278
0.000283
0.000185
0.000056
0.000205
0.000233
0.000252
0.000242
0.000276
0.000253
0.000216
0.000257
0.000239
0.000233
0.000288
0.000284
0.000250
0.000255
0.000258
0.000247
0.000269
0.001592
0.000713
0.000381
0.000307
0.000236
0.000245
0.000307
0.000249
0.000252
0.000272
0.000253
0.001445
0.000341
0.000324
0.000056
0.000202
0.000224
0.000272
0.000234
0.000260
0.000225
0.000280
0.000229
0.000254
0.000262
0.000273
0.000510
0.000350
0.000332
0.000212
0.000249
0.000265
0.001392
0.000686
0.000491
0.000322
0.000277
0.000228
0.000250
0.000272
0.000258
0.000267
0.000271
0.001463
0.000432
0.000197
0.000057
0.000207
0.000231
0.000247
0.000250
0.000245
0.000250
0.000234
0.000251
0.000268
0.000274
0.000422
0.000346
0.000300
0.000217
0.000245
0.000244
0.000268
0.000252
0.001619
0.000560
0.000534
0.000266
0.000232
0.000255
0.000259
0.000266
0.000266
0.000297
0.000249
0.001512
0.000176
0.000057
0.000226
0.000214
0.000239
0.000257
0.000260
0.000238
0.000254
0.000294
0.000438
0.000437
0.000324
0.000385
0.000334
0.000227
0.000244
0.000249
0.000294
0.000242
0.000267
0.001915
0.000324
0.000244
0.000448
0.000243
0.000242
0.000272
0.000269
0.000259
0.000267
0.000280
0.000347
0.000058
0.000295
0.000216
0.000238
0.000246
0.000275
0.000228
0.000225
0.000237
0.000270
0.000265
0.000232
0.000238
0.000283
0.000565
0.000356
0.000425
0.000236
0.000265
0.000250
0.000254
0.000253
0.000275
0.001474
0.001057
0.000225
0.000255
0.000264
0.000269
0.000268
0.000255
0.000201
0.000056
0.000201
0.001331
0.000290
0.000222
0.000225
0.000253
0.000253
0.000238
0.000238
0.000265
0.000246
0.000263
0.000241
0.000421
0.000338
0.000464
0.000254
0.000248
0.000267
0.000268
0.000276
0.000225
0.000258
0.000266
0.001311
0.000697
0.000296
0.000389
0.000375
0.000403
0.000295
0.000056
0.000213
0.000246
0.000433
0.001237
0.000206
0.000255
0.000235
0.000261
0.000254
0.000256
0.000250
0.000249
0.000308
0.000407
0.000458
0.000314
0.000225
0.000284
0.000328
0.000202
0.000256
0.000273
0.000235
0.000272
0.000276
0.001529
0.000738
0.000323
0.000258
0.000276
0.000187
0.000057
0.000216
0.000361
0.000359
0.000318
0.001295
0.000244
0.000239
0.000237
0.000233
0.000247
0.000251
0.000256
0.000231
0.000259
0.000233
0.000257
0.000266
0.000235
0.000258
0.000253
0.000275
0.000263
0.000304
0.000327
0.000221
0.000270
0.000265
0.001459
0.000258
0.000248
0.000176
0.000056
0.000202
0.000238
0.000247
0.000257
0.000356
0.000369
0.000398
0.000279
0.001578
0.000241
0.000292
0.000513
0.000340
0.000217
0.000435
0.000236
0.000236
0.000269
0.000265
0.000274
0.000276
0.000267
0.000257
0.000272
0.000250
0.000443
0.000386
0.000312
0.001573
0.000232
0.000185
0.000058
0.000230
0.000249
0.000241
0.000255
0.000229
0.000247
0.000261
0.000322
0.000403
0.002025
0.000225
0.000260
0.000255
0.000255
0.000263
0.000323
0.000219
0.000239
0.000310
0.000405
0.000322
0.000476
0.001449
0.000240
0.000288
0.001975
0.000283
0.000243
0.000259
0.001530
0.000153
0.000056
0.000317
0.000478
0.000423
0.000243
0.000276
0.000211
0.000259
0.000265
0.000259
0.000236
0.000252
0.000340
0.000442
0.000385
0.000373
0.000232
0.000232
0.001565
0.000234
0.000591
0.001878
0.000283
0.000232
0.001599
0.001958
0.000745
0.000276
0.000267
0.000264
0.000458
0.000328
0.000056
0.000206
0.000238
0.000277
0.000220
0.002874
0.000275
0.001081
0.000204
0.000233
0.001583
0.001977
0.000216
0.000240
0.000424
0.000342
0.000401
0.000359
0.000455
0.000208
0.000239
0.000254
0.000254
0.000278
0.001587
0.001208
0.001421
0.000297
0.000277
0.000254
0.000304
0.000353
0.000056
0.000255
0.000204
0.000239
0.000241
0.000225
0.000248
0.000246
0.000258
0.000258
0.000243
0.000241
0.000325
0.000424
0.000477
0.000284
0.000240
0.000254
0.000268
0.000266
0.000282
0.000239
0.000264
0.001630
0.000359
0.002115
0.000267
0.000232
0.000455
0.000328
0.000371
0.000189
0.000056
0.000207
0.000415
0.000501
0.000235
0.000195
0.000232
0.000254
0.000235
0.000246
0.000241
0.000249
0.000264
0.000260
0.001607
0.001348
0.001226
0.000284
0.000245
0.000258
0.000249
0.000284
0.000280
0.000238
0.000257
0.002203
0.000254
0.000255
0.000295
0.000320
0.000307
0.000220
0.000056
0.000236
0.000457
0.000460
0.000313
0.000233
0.000227
0.000252
0.000283
0.001883
0.001413
0.000217
0.000332
0.000386
0.000410
0.000267
0.000227
0.000261
0.000267
0.000268
0.000263
0.000254
0.000269
0.000469
0.000239
0.000267
0.000284
0.000237
0.000270
0.000282
0.000249
0.000206
0.000056
0.000202
0.000246
0.000250
0.000242
0.000276
0.000248
0.001537
0.001414
0.001320
0.000242
0.000239
0.000254
0.000254
0.000262
0.000242
0.000253
0.000247
0.002101
0.000257
0.000233
0.000264
0.000259
0.000260
0.000269
0.000266
0.000258
0.000268
0.000255
0.000285
0.000246
0.000175
0.000057
0.000207
0.002674
0.001399
0.000222
0.000305
0.000320
0.000219
0.000283
0.000234
0.000235
0.000259
0.000249
0.000227
0.000245
0.000273
0.000256
0.000270
0.000263
0.000264
0.000261
0.000264
0.000284
0.000277
0.000261
0.000246
0.000250
0.000259
0.000273
0.000264
0.000263
0.000375
0.000056
0.001552
0.000247
0.001236
0.000235
0.000220
0.000243
0.000261
0.000275
0.000222
0.000320
0.000417
0.000286
0.000341
0.000210
0.000253
0.002149
0.000234
0.000268
0.000304
0.000469
0.000348
0.000305
0.000239
0.000249
0.000266
0.000249
0.000266
0.000277
0.000269
0.001663
0.001215
0.000056
0.000190
0.000234
0.000366
0.000389
0.000302
0.000268
0.000217
0.000234
0.000257
0.000257
0.000266
0.000244
0.000224
0.000258
0.000266
0.000244
0.000296
0.000645
0.000355
0.000239
0.000225
0.000278
0.000286
0.000259
0.000243
0.000241
0.000268
0.000275
0.000242
0.000368
0.000353
0.000057
0.001119
0.000239
0.000334
0.000463
0.000289
0.000221
0.000234
0.000238
0.000251
0.002399
0.000259
0.000390
0.000224
0.000382
0.000301
0.000260
0.000240
0.000257
0.000265
0.000229
0.000247
0.000301
0.000656
0.000393
0.001854
0.001332
0.000576
0.000468
0.000229
0.000290
0.000191
0.000056
0.000278
0.000291
0.000253
0.000240
0.000254
0.000219
0.000261
0.000254
0.000269
0.000228
0.000255
0.000223
0.000250
0.000301
0.000378
0.000489
0.001823
0.001352
0.000416
0.000447
0.000460
0.000237
0.000244
0.000258
0.002153
0.000544
0.000372
0.000238
0.000272
0.000283
0.000193
0.000056
0.000205
0.000242
0.000253
0.000260
0.000231
0.000446
0.000320
0.000367
0.000253
0.000221
0.000242
0.000249
0.000262
0.002102
0.000387
0.000374
0.000213
0.000251
0.000288
0.000245
0.000246
0.002509
0.000283
0.000225
0.000260
0.000255
0.000259
0.000268
0.000310
0.000256
0.000185
0.000055
0.000245
0.000271
0.000626
0.000341
0.000231
0.000217
0.000242
0.000252
0.000263
0.000257
0.001989
0.000352
0.000272
0.000286
0.000226
0.000268
0.000271
0.000242
0.002202
0.000458
0.000220
0.000264
0.000271
0.000260
0.000267
0.000237
0.000305
0.000235
0.000266
0.000268
0.000175
0.000055
0.000186
0.000262
0.000233
0.000229
0.000235
0.000263
0.000236
0.000240
0.000236
0.002184
0.000222
0.000276
0.000228
0.000429
0.000225
0.000253
0.000303
0.000262
0.000251
0.000251
0.001966
0.000270
0.000339
0.000364
0.000435
0.000426
0.000287
0.000252
0.000259
0.000258
0.000199
0.000055
0.000211
0.000258
0.000225
0.000249
0.000243
0.000326
0.000209
0.002324
0.000244
0.000229
0.000261
0.000254
0.000235
0.000278
0.000276
0.002125
0.000588
0.000214
0.000262
0.000244
0.000262
0.000263
0.000287
0.000269
0.000260
0.000251
0.000292
0.000251
0.000261
0.000269
0.000193
0.000074
0.001817
0.001433
0.000204
0.000226
0.000241
0.000257
0.000251
0.000269
0.000387
0.000431
0.002107
0.000257
0.000226
0.000274
0.000327
0.000487
0.000380
0.000299
0.000209
0.000263
0.000251
0.000262
0.000266
0.000224
0.000263
0.000260
0.000272
0.000268
0.000410
0.000637
0.000247
0.000056
0.000208
0.000258
0.000243
0.000252
0.000267
0.000246
0.000261
0.000251
0.001450
0.002133
0.000604
0.000248
0.000467
0.000637
0.000353
0.000234
0.000261
0.000249
0.000263
0.000263
0.000257
0.000241
0.000246
0.000277
0.003007
0.000331
0.000241
0.000265
0.000286
0.000251
0.000455
0.000056
0.001933
0.000244
0.000244
0.000211
0.000276
0.000386
0.000442
0.000297
0.000288
0.000220
0.000249
0.000247
0.000259
0.000255
0.000273
0.000245
0.000259
0.000279
0.001824
0.000237
0.000239
0.000257
0.000276
0.000277
0.000272
0.000252
0.001467
0.000335
0.000246
0.000260
0.000177
0.000055
0.000215
0.000225
0.000245
0.000265
0.000225
0.000245
0.000375
0.000298
0.000324
0.000376
0.000227
0.000241
0.000261
0.000326
0.000425
0.000317
0.000232
0.000250
0.000280
0.000328
0.000545
0.000391
0.000237
0.000261
0.000258
0.000252
0.000252
0.000272
0.000273
0.000263
0.000207
0.000055
0.001444
0.000455
0.000206
0.001942
0.000288
0.000537
0.000305
0.000318
0.000226
0.000243
0.000267
0.000246
0.000245
0.000249
0.000263
0.000261
0.000452
0.000294
0.000369
0.000440
0.000311
0.000237
0.000252
0.000269
0.000273
0.000268
0.000266
0.000264
0.000486
0.000335
0.001373
0.000056
0.000204
0.000225
0.002077
0.000311
0.000318
0.000240
0.000257
0.000247
0.000261
0.000261
0.000211
0.000256
0.000257
0.000263
0.000275
0.000337
0.000725
0.001747
0.000229
0.000250
0.000263
0.000259
0.000446
0.000364
0.001579
0.000293
0.000360
0.001929
0.000244
0.000269
0.000195
0.000056
0.000213
0.000237
0.000229
0.000250
0.000223
0.000252
0.000248
0.000284
0.000335
0.000257
0.000400
0.000345
0.000335
0.000307
0.000239
0.000270
0.000260
0.000242
0.000265
0.000250
0.000307
0.000284
0.000271
0.000259
0.000270
0.001499
0.000297
0.000377
0.002077
0.000234
0.000175
0.000056
0.000222
0.000232
0.000241
0.000246
0.000491
0.000202
0.000256
0.000412
0.000309
0.000321
0.000278
0.000205
0.000260
0.000265
0.000273
0.000325
0.000437
0.000424
0.000245
0.000409
0.000522
0.000540
0.001483
0.000234
0.000256
0.001979
0.000353
0.000233
0.000239
0.000295
0.000183
0.000057
0.000211
0.000239
0.000229
0.000242
0.000252
0.000266
0.000254
0.000279
0.000251
0.000274
0.001790
0.000310
0.000382
0.000286
0.000460
0.000430
0.000344
0.001445
0.000236
0.000288
0.002207
0.000480
0.000256
0.000236
0.000264
0.000271
0.000507
0.000217
0.000258
0.000279
0.000196
0.000057
0.000381
0.000329
0.000307
0.000289
0.000208
0.000243
0.000256
0.000250
0.000265
0.000293
0.000227
0.000255
0.000260
0.000250
0.000343
0.000518
0.001270
0.000269
0.000275
0.001964
0.000313
0.000295
0.000233
0.000262
0.000244
0.000284
0.000268
0.000254
0.000263
0.000264
0.000197
0.000055
0.000219
0.000428
0.002022
0.000260
0.000218
0.000254
0.000254
0.000283
0.000487
0.000403
0.001293
0.000368
0.000357
0.002089
0.000201
0.000247
0.000273
0.000274
0.000255
0.000238
0.000287
0.000292
0.000257
0.000438
0.000455
0.000302
0.000331
0.002226
0.000487
0.000534
0.000348
0.000057
0.000213
0.000225
0.000244
0.001962
0.000232
0.000227
0.000246
0.000242
0.000243
0.000259
0.000244
0.000264
0.000254
0.000430
0.000298
0.001449
0.000254
0.000263
0.000250
0.000259
0.000237
0.000258
0.000253
0.000291
0.000292
0.000459
0.000474
0.000254
0.001593
0.000267
0.000168
0.000056
0.000198
0.000221
0.000247
0.000237
0.000260
0.000265
0.000228
0.000256
0.000275
0.000353
0.000460
0.001305
0.000239
0.000221
0.000248
0.000295
0.000232
0.000251
0.000276
0.000537
0.000443
0.000372
0.000226
0.001573
0.000230
0.000266
0.000287
0.000279
0.000260
0.000272
0.000192
0.000057
0.000206
0.000241
0.000259
0.000269
0.000248
0.000248
0.000230
0.000245
0.000278
0.000222
0.000248
0.000256
0.000266
0.001475
0.000363
0.000208
0.000250
0.000270
0.000270
0.000317
0.000363
0.000274
0.000249
0.000268
0.000261
0.000264
0.000259
0.001411
0.000273
0.000238
0.000175
0.000056
0.000206
0.000236
0.000260
0.000259
0.000274
0.000218
0.000247
0.000260
0.000220
0.000266
0.000244
0.000254
0.000226
0.000359
0.000344
0.000348
0.000244
0.000247
0.001633
0.000237
0.000247
0.000258
0.000263
0.000298
0.000397
0.000346
0.000453
0.000273
0.000253
0.001605
0.000162
0.000058
0.000378
0.000268
0.000401
0.000271
0.000235
0.000218
0.000259
0.000259
0.000256
0.000254
0.000229
0.000236
0.001463
0.000289
0.000312
0.000223
0.000245
0.000277
0.000264
0.000256
0.000251
0.000238
0.000257
0.000274
0.000274
0.000335
0.000490
0.000356
0.000257
0.000253
0.000189
0.000064
0.000206
0.000226
0.000414
0.000373
0.000401
0.000252
0.000249
0.000252
0.000271
0.000237
0.000240
0.000231
0.000254
0.000243
0.001255
0.000307
0.000234
0.000248
0.000264
0.000269
0.000254
0.000254
0.000255
0.000257
0.000259
0.000253
0.000281
0.000770
0.000406
0.000229
0.000182
0.000056
0.000208
0.001552
0.000236
0.000354
0.000468
0.000357
0.000218
0.000260
0.000269
0.000246
0.000243
0.000256
0.000273
0.000274
0.000258
0.001527
0.000253
0.000287
0.000263
0.000253
0.000275
0.000239
0.000261
0.000263
0.000268
0.000317
0.000428
0.000339
0.000325
0.000250
0.000189
0.000056
0.000200
0.000256
0.000231
0.001623
0.000411
0.000340
0.000228
0.000245
0.000250
0.000274
0.000280
0.000254
0.000253
0.000256
0.000230
0.000304
0.000424
0.001271
0.000250
0.000224
0.001506
0.000313
0.000563
0.000400
0.000346
0.000224
0.000269
0.000470
0.000233
0.000270
0.000176
0.000057
0.000292
0.000223
0.000241
0.000248
0.000249
0.000252
0.000255
0.000242
0.000258
0.000257
0.000235
0.000258
0.000397
0.000485
0.001594
0.001482
0.000362
0.000602
0.000267
0.000234
0.000226
0.000256
0.000260
0.000260
0.000254
0.000264
0.000257
0.000286
0.001535
0.000304
0.000153
0.000056
0.000219
0.000348
0.000353
0.000332
0.000240
0.000228
0.000243
0.000415
0.000381
0.000355
0.002189
0.000321
0.000787
0.000371
0.000489
0.000256
0.000331
0.000393
0.000331
0.000277
0.000413
0.000257
0.001529
0.000529
0.000212
0.000276
0.000258
0.000252
0.000262
0.000263
0.000195
0.000074
0.000217
0.000246
0.000249
0.000257
0.000242
0.001662
0.000878
0.000998
0.000209
0.000235
0.000260
0.000257
0.000262
0.000263
0.000251
0.000247
0.000253
0.000263
0.000268
0.000278
0.001427
0.000316
0.000248
0.000235
0.000231
0.000265
0.000262
0.000279
0.000266
0.000285
0.001927
0.000057
0.000192
0.000233
0.001538
0.000944
0.000282
0.000383
0.000226
0.000237
0.000248
0.000254
0.000249
0.000253
0.000243
0.002049
0.000415
0.000219
0.000246
0.000249
0.000267
0.000259
0.000190
