0.000099
0.018694
0.003062
0.000273
0.000237
0.000237
0.000299
0.000254
0.000323
0.000292
0.000243
0.000410
0.000478
0.000539
0.000305
0.000339
0.000287
0.000385
0.000391
0.000416
0.000299
0.001857
0.000508
0.000438
0.000270
0.000292
0.000297
0.000410
0.000412
0.000406
0.000549
0.000201
0.000059
0.000190
0.000230
0.000264
0.000262
0.000280
0.000260
0.000266
0.000268
0.000266
0.000281
0.000418
0.000533
0.000257
0.000282
0.000397
0.000363
0.000348
0.000249
0.000229
0.001713
0.000288
0.000268
0.000472
0.000250
0.000246
0.000247
0.000271
0.000300
0.000283
0.000307
0.000535
0.000057
0.000253
0.000219
0.000275
0.000242
0.000254
0.000246
0.000257
0.000258
0.000280
0.001679
0.000241
0.000243
0.000251
0.000260
0.000274
0.000250
0.000277
0.000251
0.000347
0.001801
0.000275
0.000263
0.000424
0.000467
0.000396
0.000239
0.000246
0.000530
0.000389
0.000850
0.000172
0.000057
0.000182
0.000200
0.000261
0.000236
0.000317
0.000267
0.000278
0.000631
0.000377
0.000266
0.000226
0.000219
0.000213
0.000279
0.000231
0.000253
0.000290
0.000226
0.000296
0.000326
0.001743
0.000246
0.000243
0.000451
0.000240
0.000713
0.000697
0.000470
0.000351
0.000255
0.000208
0.000056
0.000220
0.000226
0.000251
0.000253
0.000246
0.000259
0.000246
0.000595
0.001360
0.000244
0.000267
0.000230
0.000224
0.000258
0.000257
0.000285
0.000288
0.000822
0.001355
0.000282
0.000266
0.000424
0.000254
0.000239
0.000242
0.000254
0.000266
0.000279
0.000260
0.000262
0.000226
0.000056
0.000212
0.000206
0.000236
0.000269
0.000229
0.000246
0.000248
0.000248
0.000247
0.000253
0.001688
0.000251
0.000236
0.000234
0.000226
0.000246
0.000238
0.000238
0.000263
0.000250
0.000266
0.001752
0.000246
0.000258
0.000468
0.000232
0.000230
0.000253
0.000256
0.000262
0.000207
0.000057
0.000209
0.000216
0.000235
0.000233
0.000249
0.000241
0.000264
0.000248
0.000255
0.000245
0.000259
0.000259
0.000260
0.000275
0.001630
0.000307
0.000276
0.000256
0.000215
0.000264
0.000269
0.000248
0.000268
0.000249
0.000267
0.001830
0.000398
0.000358
0.000259
0.000270
0.000221
0.000056
0.000229
0.000209
0.000227
0.000268
0.000258
0.000233
0.000301
0.000441
0.000376
0.000436
0.000206
0.000242
0.000245
0.000252
0.001707
0.000497
0.000303
0.000361
0.000293
0.000237
0.000240
0.000282
0.000265
0.001815
0.000485
0.000490
0.000232
0.000233
0.000226
0.000246
0.000200
0.000057
0.000207
0.000224
0.000219
0.000268
0.000346
0.000449
0.000418
0.000263
0.000210
0.000211
0.000259
0.000242
0.000264
0.001698
0.000498
0.000302
0.000221
0.000246
0.000268
0.000274
0.000257
0.000268
0.000259
0.001893
0.000323
0.000385
0.000247
0.000243
0.000317
0.000396
0.000317
0.000057
0.000236
0.000321
0.000376
0.000260
0.000301
0.000211
0.000244
0.000249
0.000247
0.000244
0.000229
0.000243
0.001643
0.000341
0.000287
0.000228
0.000200
0.000250
0.000251
0.000278
0.000276
0.000347
0.001771
0.000360
0.000241
0.000484
0.000228
0.000243
0.000223
0.000269
0.000286
0.000055
0.000397
0.000538
0.000627
0.000218
0.000209
0.000237
0.000240
0.000215
0.000251
0.000265
0.000243
0.001712
0.000279
0.000403
0.000382
0.000224
0.000228
0.000237
0.000244
0.000250
0.000276
0.001842
0.000255
0.000221
0.002268
0.000420
0.000271
0.000246
0.000265
0.000259
0.000198
0.000057
0.000225
0.000207
0.000231
0.000246
0.000255
0.001700
0.000238
0.000189
0.000236
0.000247
0.000246
0.000245
0.000252
0.000255
0.000276
0.000415
0.000645
0.000239
0.000225
0.000267
0.000289
0.000244
0.000252
0.000477
0.000433
0.000264
0.000322
0.000680
0.000342
0.000236
0.000180
0.000056
0.000209
0.000218
0.000251
0.000231
0.000240
0.000241
0.000247
0.000468
0.000463
0.001587
0.000266
0.000223
0.000228
0.000243
0.000256
0.000260
0.000494
0.000492
0.000368
0.000223
0.000235
0.000257
0.000332
0.000266
0.000266
0.000401
0.000426
0.000661
0.000334
0.000506
0.000137
0.000056
0.000197
0.000255
0.000223
0.000216
0.000234
0.000250
0.000246
0.000236
0.000254
0.000369
0.000344
0.001554
0.000280
0.000208
0.000206
0.000238
0.000238
0.000259
0.000256
0.000235
0.000291
0.000430
0.000418
0.000338
0.000230
0.000231
0.000263
0.000254
0.000268
0.000286
0.000414
0.000057
0.000221
0.000200
0.000235
0.000275
0.000527
0.000415
0.000277
0.000230
0.000232
0.000257
0.000250
0.000242
0.000278
0.000268
0.000238
0.000557
0.000403
0.001586
0.000274
0.000245
0.000255
0.000252
0.000262
0.000239
0.000277
0.000442
0.000539
0.000331
0.000359
0.000243
0.000201
0.000057
0.000202
0.000209
0.000403
0.000232
0.000265
0.000243
0.000256
0.000606
0.000337
0.000303
0.000244
0.000260
0.000265
0.000250
0.000599
0.000293
0.000206
0.000259
0.000475
0.001614
0.000236
0.000259
0.000296
0.000408
0.000279
0.000287
0.000245
0.000309
0.000609
0.000360
0.000282
0.000057
0.000199
0.000210
0.000230
0.000259
0.000468
0.000270
0.000281
0.000207
0.000377
0.000604
0.000334
0.000242
0.000225
0.000194
0.000273
0.000248
0.000264
0.000250
0.000228
0.000384
0.000267
0.000293
0.001872
0.000275
0.000226
0.000261
0.000311
0.000352
0.000415
0.000735
0.000426
0.000056
0.000256
0.000314
0.000345
0.000418
0.000303
0.000207
0.000245
0.000375
0.000494
0.000351
0.000334
0.000204
0.000215
0.000263
0.000260
0.000244
0.000235
0.000276
0.000272
0.000264
0.000272
0.000404
0.001759
0.000295
0.000362
0.000421
0.000377
0.000246
0.000406
0.000402
0.000378
0.000056
0.000248
0.000385
0.000285
0.000207
0.000236
0.000214
0.000471
0.000211
0.000238
0.000300
0.000407
0.000454
0.000288
0.000226
0.000263
0.000289
0.000362
0.000437
0.000312
0.000225
0.000210
0.000272
0.000727
0.001698
0.000262
0.000421
0.000338
0.000210
0.000260
0.000431
0.000343
0.000056
0.000233
0.000215
0.000220
0.000248
0.000247
0.000247
0.000249
0.000400
0.000391
0.000273
0.000525
0.000358
0.000288
0.000208
0.000527
0.000262
0.000267
0.000266
0.000242
0.000370
0.000209
0.000226
0.000276
0.000358
0.000600
0.001670
0.000228
0.000232
0.000259
0.000238
0.000205
0.000055
0.000324
0.000447
0.000392
0.000200
0.000245
0.000210
0.000265
0.000237
0.000252
0.000262
0.000218
0.000481
0.000265
0.000519
0.000370
0.000312
0.000225
0.000248
0.000351
0.000355
0.000363
0.000369
0.000382
0.000381
0.000249
0.000223
0.000247
0.000262
0.001787
0.000264
0.000214
0.000057
0.000173
0.000192
0.000250
0.000273
0.000354
0.000538
0.000349
0.000222
0.000230
0.000265
0.000249
0.000246
0.000556
0.000424
0.000468
0.000320
0.000269
0.000241
0.000430
0.000488
0.000366
0.000437
0.000601
0.000308
0.000242
0.000237
0.000238
0.000224
0.000253
0.001778
0.000397
0.000058
0.000170
0.000326
0.000225
0.000191
0.000250
0.000250
0.000285
0.000450
0.000428
0.000306
0.000305
0.000324
0.000346
0.000714
0.000251
0.000204
0.000214
0.000238
0.000251
0.000276
0.000259
0.000276
0.000235
0.000272
0.000305
0.000380
0.000459
0.000359
0.000224
0.000221
0.000176
0.000056
0.000467
0.000270
0.000433
0.000267
0.000232
0.000214
0.000244
0.000254
0.000250
0.000249
0.000217
0.000270
0.000306
0.000352
0.000463
0.000556
0.000309
0.000360
0.000365
0.000394
0.000267
0.000214
0.000223
0.000244
0.001829
0.000227
0.001754
0.000930
0.000383
0.000344
0.000140
0.000056
0.000189
0.000224
0.000217
0.000254
0.000245
0.000245
0.000254
0.000252
0.000262
0.000287
0.000429
0.000401
0.000381
0.000398
0.000234
0.000245
0.000271
0.000281
0.000218
0.000233
0.000254
0.000225
0.001810
0.000266
0.000224
0.000258
0.000276
0.000269
0.001888
0.000562
0.000286
0.000058
0.000230
0.000208
0.000202
0.000248
0.000251
0.000249
0.000251
0.000245
0.000261
0.000349
0.000630
0.000276
0.000391
0.000236
0.000216
0.000288
0.000381
0.000390
0.000373
0.000256
0.001797
0.000240
0.000233
0.000225
0.000250
0.000274
0.000248
0.000271
0.000239
0.000349
0.000443
0.000057
0.000232
0.000227
0.000206
0.000249
0.000247
0.000238
0.000260
0.000260
0.000232
0.000256
0.000245
0.000270
0.000441
0.000374
0.000313
0.000329
0.000465
0.000218
0.000224
0.000235
0.000262
0.000254
0.000284
0.000253
0.000276
0.001790
0.000278
0.000228
0.000260
0.000220
0.000236
0.000056
0.000254
0.000442
0.000174
0.000201
0.000216
0.000237
0.000236
0.000251
0.000254
0.000222
0.000237
0.000276
0.000248
0.000285
0.000511
0.000387
0.000307
0.000211
0.000219
0.000241
0.000255
0.000260
0.000248
0.000266
0.000260
0.000247
0.000310
0.001714
0.000238
0.000213
0.000193
0.000056
0.000201
0.000217
0.000244
0.000256
0.000355
0.000425
0.000396
0.000272
0.000210
0.000246
0.000248
0.000245
0.000242
0.000261
0.000272
0.000247
0.000249
0.000262
0.000241
0.000258
0.000266
0.000269
0.000286
0.000220
0.000221
0.000293
0.000264
0.000267
0.000253
0.000259
0.000212
0.000056
0.000195
0.000214
0.000239
0.000249
0.000255
0.000241
0.000245
0.000259
0.000359
0.000207
0.000207
0.000226
0.000256
0.000250
0.000262
0.000268
0.000252
0.000249
0.000367
0.000226
0.000230
0.000283
0.000281
0.000256
0.000260
0.000297
0.000262
0.000250
0.000261
0.000514
0.000613
0.000057
0.000225
0.000305
0.000227
0.000200
0.000207
0.000251
0.000251
0.000236
0.000251
0.000252
0.000265
0.000294
0.000538
0.000483
0.001541
0.000223
0.000511
0.000201
0.000237
0.000460
0.000512
0.000275
0.000237
0.000270
0.000267
0.000256
0.000276
0.000256
0.000290
0.000267
0.000209
0.000056
0.000327
0.000395
0.000386
0.000319
0.000193
0.000232
0.000275
0.000227
0.000247
0.000227
0.000259
0.000254
0.000250
0.000268
0.000384
0.000452
0.000386
0.001796
0.000278
0.000226
0.000346
0.000406
0.000445
0.000324
0.000361
0.000320
0.000251
0.000228
0.000240
0.000247
0.000194
0.000057
0.000195
0.000193
0.000229
0.000287
0.000414
0.000456
0.000299
0.000238
0.000255
0.000212
0.000245
0.000273
0.000266
0.000267
0.000244
0.000252
0.000306
0.000489
0.000350
0.000439
0.000236
0.001802
0.000291
0.000556
0.000469
0.000450
0.000292
0.000230
0.000246
0.000263
0.000508
0.000057
0.000185
0.000231
0.000234
0.000270
0.000415
0.000552
0.000369
0.000193
0.000211
0.000338
0.000223
0.000219
0.000255
0.000302
0.000352
0.000218
0.000223
0.000378
0.000438
0.000376
0.000541
0.001772
0.000253
0.000497
0.000457
0.000346
0.000235
0.000370
0.000254
0.000220
0.000201
0.000057
0.000222
0.000329
0.000352
0.000299
0.000390
0.000286
0.000408
0.000213
0.000224
0.000252
0.000284
0.000228
0.000232
0.000249
0.000269
0.000244
0.000323
0.000355
0.000542
0.000392
0.000278
0.000231
0.000235
0.001790
0.000514
0.000315
0.000710
0.000299
0.000230
0.000290
0.000183
0.000055
0.000177
0.000222
0.000306
0.000259
0.000246
0.000393
0.000429
0.000311
0.000308
0.000528
0.000205
0.000227
0.000219
0.000278
0.000275
0.000273
0.000236
0.000324
0.000528
0.000373
0.000267
0.000239
0.000247
0.000266
0.000253
0.000268
0.000231
0.000257
0.000264
0.000385
0.000173
0.000057
0.000278
0.000344
0.000247
0.000230
0.000240
0.000256
0.000242
0.000373
0.000207
0.000206
0.000254
0.000340
0.000496
0.000346
0.000352
0.000282
0.000237
0.000232
0.000248
0.000246
0.000260
0.000291
0.000233
0.000259
0.000274
0.000302
0.000539
0.000317
0.000359
0.000217
0.000160
0.000056
0.000207
0.000204
0.000262
0.000243
0.000240
0.000244
0.000253
0.000270
0.000491
0.000232
0.000230
0.000258
0.000250
0.000257
0.000272
0.000269
0.000279
0.000344
0.000255
0.000233
0.000227
0.000276
0.000254
0.000264
0.000275
0.000262
0.000270
0.000261
0.000252
0.000500
0.000182
0.000056
0.000203
0.000208
0.000242
0.000268
0.000242
0.000230
0.000302
0.000454
0.000294
0.000196
0.000246
0.000260
0.000243
0.000279
0.000502
0.001706
0.000255
0.000230
0.000312
0.000378
0.000410
0.000344
0.000381
0.000351
0.000398
0.000367
0.000288
0.000225
0.000268
0.000271
0.001419
0.000056
0.000431
0.000257
0.000313
0.000202
0.000214
0.000217
0.000241
0.000251
0.000243
0.000256
0.000250
0.000261
0.000252
0.000259
0.000608
0.001674
0.000211
0.000220
0.000211
0.000268
0.000247
0.000256
0.000356
0.000433
0.000279
0.000324
0.000241
0.000256
0.000263
0.000260
0.000226
0.000057
0.001355
0.000450
0.000282
0.000302
0.000207
0.000209
0.000219
0.000224
0.000490
0.000227
0.000224
0.000240
0.000371
0.000427
0.000469
0.000334
0.000303
0.000237
0.000323
0.000381
0.000237
0.000223
0.000271
0.000241
0.000276
0.000664
0.000453
0.000296
0.000229
0.000275
0.000190
0.000074
0.000177
0.000223
0.000211
0.000250
0.001519
0.000275
0.000210
0.000237
0.000249
0.000250
0.000250
0.000248
0.000250
0.000256
0.000268
0.000278
0.000480
0.000638
0.000269
0.001812
0.000239
0.000294
0.000323
0.000382
0.000553
0.000373
0.000243
0.000223
0.000255
0.000268
0.000217
0.000057
0.000173
0.000241
0.000220
0.001319
0.000336
0.000216
0.000239
0.000217
0.000232
0.000235
0.000231
0.000252
0.000285
0.000242
0.000249
0.000287
0.000481
0.000470
0.000326
0.000223
0.000234
0.000279
0.000256
0.000226
0.000376
0.000205
0.000219
0.000276
0.000264
0.000384
0.000572
0.000057
0.000207
0.000221
0.000232
0.000262
0.000286
0.000225
0.000253
0.000234
0.000277
0.000248
0.001435
0.000260
0.000215
0.000241
0.000258
0.000239
0.000262
0.000269
0.000257
0.000269
0.000271
0.000487
0.000439
0.000395
0.000246
0.000269
0.001839
0.000226
0.000229
0.000426
0.000342
0.000056
0.000257
0.000424
0.000454
0.000509
0.000528
0.000527
0.001451
0.000445
0.000544
0.000651
0.000561
0.000791
0.000399
0.000625
0.000582
0.001767
0.000438
0.000428
0.000392
0.000312
0.000254
0.000290
0.000285
0.000267
0.000280
0.000270
0.000299
0.000279
0.000252
0.000297
0.001317
0.000056
0.000223
0.000247
0.000227
0.000226
0.000244
0.000259
0.000226
0.000229
0.000271
0.000275
0.000235
0.000258
0.000244
0.000263
0.000263
0.000257
0.001845
0.000255
0.000265
0.000251
0.000253
0.000261
0.000265
0.000311
0.000409
0.000389
0.000323
0.000263
0.000268
0.000276
0.000162
0.000057
0.000202
0.001382
0.000260
0.000262
0.000262
0.000237
0.000251
0.000246
0.000262
0.000232
0.000244
0.000240
0.000265
0.000435
0.000275
0.000357
0.000269
0.000287
0.001906
0.000265
0.000262
0.000256
0.000247
0.000271
0.000271
0.000260
0.000288
0.000246
0.000235
0.000311
0.000234
0.000059
0.000178
0.000231
0.000256
0.001413
0.000263
0.000272
0.000228
0.000223
0.000226
0.000274
0.000261
0.000225
0.000241
0.000271
0.000280
0.000245
0.000249
0.000258
0.000262
0.000268
0.000259
0.001849
0.000259
0.001749
0.000264
0.000260
0.000250
0.000236
0.000256
0.000311
0.000182
0.000057
0.000209
0.000238
0.001366
0.000223
0.000261
0.000238
0.000222
0.000223
0.000264
0.000266
0.000229
0.000255
0.000256
0.000253
0.000261
0.000254
0.000266
0.000270
0.000310
0.000258
0.001861
0.000267
0.001782
0.000287
0.000260
0.000243
0.000254
0.000263
0.000269
0.000255
0.000189
0.000056
0.001421
0.000243
0.000243
0.000222
0.000224
0.000214
0.000278
0.000360
0.000254
0.000245
0.000256
0.000262
0.000263
0.000465
0.000353
0.000264
0.000263
0.000263
0.000237
0.000214
0.000278
0.000338
0.000235
0.000257
0.000275
0.000270
0.000259
0.000323
0.000717
0.000357
0.000180
0.000056
0.000218
0.000285
0.000284
0.000297
0.000350
0.000273
0.001658
0.000298
0.000291
0.000248
0.000271
0.000317
0.000247
0.000264
0.000298
0.000314
0.000445
0.000435
0.000376
0.000268
0.000325
0.000272
0.000260
0.000275
0.000319
0.000262
0.000266
0.000239
0.000239
0.000314
0.000414
0.000057
0.000304
0.000369
0.000256
0.000266
0.000255
0.000227
0.000228
0.000238
0.000263
0.000249
0.001505
0.000267
0.000212
0.000238
0.000248
0.000281
0.000281
0.000236
0.000266
0.000264
0.000270
0.000367
0.000575
0.000377
0.000217
0.000254
0.000270
0.000246
0.000243
0.000237
0.000253
0.000056
0.000198
0.000204
0.000300
0.000456
0.000407
0.000225
0.000203
0.000254
0.000240
0.000269
0.000226
0.000266
0.000242
0.000270
0.000229
0.000254
0.000409
0.001268
0.000213
0.000242
0.000259
0.000230
0.000349
0.000511
0.000211
0.000237
0.000620
0.000335
0.000439
0.000236
0.000153
0.000056
0.000223
0.000204
0.000263
0.000257
0.000322
0.000195
0.000327
0.000538
0.000372
0.000296
0.000369
0.000396
0.000392
0.000353
0.000242
0.000222
0.000230
0.000223
0.000396
0.000542
0.001194
0.000240
0.000247
0.000275
0.000240
0.000226
0.000262
0.000355
0.000399
0.000535
0.000193
0.000056
0.000178
0.000218
0.000247
0.000235
0.000266
0.000229
0.000246
0.000253
0.000260
0.000396
0.000524
0.000366
0.000222
0.000216
0.000231
0.000245
0.000245
0.000259
0.000268
0.000235
0.000514
0.000217
0.000426
0.000370
0.000336
0.000227
0.000246
0.000267
0.000255
0.000281
0.000250
0.000056
0.000289
0.000296
0.000325
0.000434
0.000401
0.000339
0.000239
0.000276
0.000203
0.000266
0.000264
0.000261
0.000238
0.000251
0.000249
0.000222
0.000269
0.000431
0.000466
0.000363
0.000217
0.000268
0.000205
0.000247
0.000267
0.000287
0.000247
0.000276
0.000277
0.000264
0.000288
0.000058
0.000291
0.000315
0.000235
0.000221
0.000249
0.000244
0.000250
0.000252
0.000266
0.000253
0.000261
0.000238
0.000315
0.000530
0.000423
0.000316
0.000218
0.000202
0.000243
0.000259
0.000285
0.000251
0.000248
0.000257
0.000283
0.000332
0.000396
0.000577
0.000514
0.000216
0.000149
0.000056
0.000385
0.000205
0.000198
0.000223
0.000252
0.000252
0.000249
0.000259
0.000255
0.000242
0.000221
0.000245
0.000277
0.000237
0.000241
0.000249
0.000249
0.000272
0.000267
0.000273
0.000252
0.000258
0.000266
0.000262
0.000269
0.000269
0.000236
0.000274
0.000283
0.000252
0.000215
0.000056
0.000203
0.000209
0.000232
0.000253
0.000236
0.000237
0.000263
0.000240
0.000261
0.000289
0.000231
0.000228
0.000253
0.000414
0.000227
0.000293
0.000261
0.000261
0.000251
0.000279
0.000274
0.000250
0.000253
0.000247
0.000262
0.000271
0.000271
0.000237
0.000278
0.000247
0.000222
0.000057
0.000246
0.000377
0.000352
0.000277
0.000301
0.000261
0.000180
0.000256
0.000241
0.000229
0.000251
0.000273
0.000241
0.000227
0.000261
0.000260
0.000266
0.000276
0.000251
0.000256
0.000264
0.000277
0.000266
0.000260
0.000279
0.000278
0.000242
0.000284
0.000234
0.000262
0.000213
0.000056
0.000199
0.000216
0.000242
0.000264
0.000249
0.000460
0.000204
0.000244
0.000291
0.000460
0.000485
0.000317
0.000228
0.000205
0.000258
0.000273
0.000242
0.000262
0.000263
0.000264
0.000269
0.000262
0.000261
0.000264
0.000537
0.000545
0.000268
0.000257
0.000269
0.000259
0.000209
0.000057
0.000208
0.000192
0.000237
0.000248
0.000327
0.000618
0.000435
0.000291
0.000232
0.000225
0.000246
0.000252
0.000263
0.000240
0.000264
0.000264
0.000269
0.000266
0.000608
0.000444
0.000262
0.000231
0.000247
0.000282
0.000284
0.000260
0.000266
0.000263
0.000246
0.000340
0.000342
0.000057
0.000268
0.000233
0.000205
0.000235
0.000250
0.000266
0.000246
0.000224
0.000244
0.000253
0.000252
0.000266
0.000236
0.000512
0.000490
0.000382
0.000236
0.000229
0.000258
0.000272
0.000245
0.000277
0.000467
0.000238
0.000262
0.000789
0.000316
0.000375
0.000285
0.000261
0.000183
0.000057
0.000180
0.000202
0.000237
0.000238
0.000254
0.000263
0.000440
0.000410
0.000505
0.000399
0.000211
0.000258
0.000271
0.000282
0.000292
0.000221
0.000234
0.000238
0.000259
0.000405
0.000385
0.000538
0.000429
0.000266
0.000442
0.000355
0.000486
0.000205
0.000241
0.000359
0.000529
0.000056
0.000250
0.000226
0.000479
0.000199
0.000234
0.000227
0.000241
0.000260
0.000246
0.000230
0.000276
0.000437
0.000386
0.000319
0.000219
0.000224
0.000276
0.000218
0.000264
0.000289
0.000267
0.000262
0.000239
0.000272
0.000317
0.000478
0.000486
0.000253
0.000269
0.000254
0.000222
0.000056
0.000224
0.000214
0.000229
0.000249
0.000243
0.000244
0.000428
0.000432
0.000387
0.000284
0.000343
0.000254
0.000207
0.000271
0.000262
0.000230
0.000263
0.000249
0.000268
0.000455
0.000505
0.000336
0.000409
0.000343
0.000395
0.000394
0.000379
0.000270
0.000214
0.000293
0.000463
0.000056
0.000254
0.000249
0.000209
0.000250
0.000253
0.000265
0.000243
0.000248
0.000255
0.000254
0.000242
0.000400
0.000470
0.000313
0.000365
0.000257
0.000255
0.000245
0.000282
0.000217
0.000262
0.000241
0.000269
0.000270
0.000279
0.000319
0.000543
0.000438
0.000245
0.000275
0.000205
0.000056
0.000219
0.000200
0.000266
0.000252
0.000243
0.000310
0.000737
0.000310
0.000336
0.000726
0.000254
0.000207
0.000213
0.000247
0.000251
0.000264
0.000287
0.000261
0.000489
0.000493
0.001568
0.000243
0.000260
0.000273
0.000286
0.000245
0.000437
0.000345
0.000344
0.000331
0.000167
0.000056
0.000221
0.000200
0.000238
0.000250
0.000232
0.000254
0.000273
0.000262
0.000252
0.000354
0.000369
0.000345
0.000273
0.000386
0.000389
0.000328
0.000234
0.000214
0.000245
0.000265
0.000243
0.000244
0.000278
0.000272
0.000346
0.000540
0.000353
0.000259
0.000244
0.000241
0.000214
0.000056
0.000227
0.000209
0.000257
0.000253
0.000246
0.000233
0.000461
0.000224
0.000231
0.000249
0.000246
0.000257
0.000256
0.000251
0.000255
0.000265
0.000271
0.000252
0.000287
0.000249
0.000260
0.000307
0.000297
0.000225
0.000266
0.000270
0.000274
0.000264
0.000270
0.000259
0.000210
0.000057
0.000219
0.000224
0.000243
0.000549
0.000357
0.000216
0.000216
0.000226
0.000256
0.000256
0.000252
0.000242
0.000273
0.000257
0.000252
0.000229
0.000251
0.000263
0.000270
0.000381
0.000372
0.000437
0.000238
0.000254
0.000277
0.000241
0.000274
0.000264
0.000259
0.000275
0.000221
0.000056
0.000317
0.000335
0.000384
0.000206
0.000249
0.000262
0.000476
0.000202
0.000208
0.000235
0.000286
0.000332
0.000423
0.000382
0.001762
0.000267
0.000253
0.000236
0.000297
0.000227
0.000379
0.000502
0.000459
0.000383
0.000211
0.000257
0.000277
0.000412
0.000288
0.000281
0.000185
0.000056
0.000235
0.000391
0.000332
0.000256
0.000508
0.000204
0.000228
0.000253
0.000252
0.000235
0.000259
0.000243
0.000266
0.000321
0.000400
0.000513
0.000237
0.000219
0.000234
0.000267
0.000259
0.000334
0.000233
0.000270
0.000272
0.000444
0.000525
0.000649
0.000227
0.000230
0.000194
0.000056
0.000205
0.000202
0.000242
0.000229
0.000251
0.000249
0.000272
0.000278
0.000347
0.000370
0.000427
0.000379
0.000217
0.000230
0.000271
0.000265
0.000320
0.000240
0.000261
0.000272
0.000243
0.000267
0.000538
0.000385
0.000236
0.000289
0.000241
0.000540
0.000378
0.000271
0.000169
0.000056
0.000183
0.000207
0.000414
0.000362
0.000361
0.000233
0.000219
0.000249
0.000269
0.000246
0.000266
0.000260
0.000234
0.000243
0.000264
0.000287
0.000447
0.000316
0.000397
0.000273
0.000469
0.000224
0.000267
0.000276
0.000305
0.000285
0.000267
0.000245
0.000520
0.000497
0.000193
0.000057
0.000186
0.000195
0.000252
0.000239
0.000249
0.000490
0.000219
0.000227
0.000269
0.000413
0.000466
0.000535
0.000236
0.000218
0.000243
0.000251
0.000251
0.000256
0.000246
0.000251
0.000262
0.000276
0.000329
0.000493
0.000391
0.000329
0.000339
0.000339
0.000308
0.000223
0.000161
0.000056
0.000195
0.000203
0.000239
0.000498
0.000318
0.000377
0.000248
0.000216
0.000192
0.000256
0.000253
0.000250
0.000253
0.000250
0.000313
0.000210
0.000243
0.000251
0.000245
0.000434
0.000499
0.000407
0.000218
0.000223
0.000277
0.000275
0.000260
0.000258
0.000266
0.000280
0.000198
0.000056
0.000286
0.000389
0.000494
0.000214
0.000209
0.000211
0.000324
0.000495
0.000277
0.000208
0.000217
0.000258
0.000276
0.000408
0.000566
0.000253
0.000207
0.000214
0.000294
0.000207
0.000270
0.000264
0.000255
0.000274
0.000256
0.000282
0.000427
0.000520
0.000275
0.000216
0.000163
0.000056
0.000218
0.000191
0.000247
0.000253
0.000257
0.000262
0.000232
0.000253
0.000255
0.000240
0.000267
0.000242
0.000257
0.001466
0.000256
0.000222
0.000253
0.000246
0.000283
0.000274
0.000261
0.000238
0.000281
0.000257
0.000265
0.000265
0.000281
0.000265
0.000261
0.000259
0.000219
0.000056
0.000221
0.000216
0.000230
0.000241
0.000243
0.000247
0.000256
0.000258
0.000229
0.000249
0.000243
0.000269
0.000254
0.000257
0.000249
0.000258
0.000249
0.000255
0.000281
0.000251
0.000264
0.000253
0.000271
0.000235
0.001353
0.000275
0.000522
0.000510
0.000325
0.000238
0.000153
0.000075
0.000179
0.000202
0.000236
0.000246
0.000501
0.000231
0.000200
0.000204
0.000253
0.000381
0.000515
0.000357
0.000193
0.000215
0.000224
0.000257
0.000254
0.000265
0.000248
0.000275
0.000251
0.000247
0.000273
0.000485
0.000429
0.000455
0.000237
0.000255
0.001363
0.000287
0.000173
0.000056
0.000390
0.000386
0.000353
0.000248
0.000209
0.000213
0.000211
0.000239
0.000263
0.000256
0.000247
0.000257
0.000259
0.000273
0.000625
0.000380
0.000294
0.000238
0.000233
0.000241
0.000267
0.000266
0.000276
0.000264
0.000257
0.000265
0.000282
0.000586
0.000438
0.000372
0.000148
0.000057
0.000213
0.000204
0.001316
0.000348
0.000398
0.000365
0.000377
0.000310
0.000433
0.000399
0.000226
0.000206
0.000234
0.000256
0.000251
0.000259
0.000392
0.000549
0.000368
0.000290
0.000270
0.000249
0.000268
0.000499
0.000250
0.000237
0.000256
0.000287
0.000276
0.000567
0.000325
0.000056
0.000340
0.000384
0.000226
0.000195
0.001514
0.000550
0.000330
0.000205
0.000201
0.000243
0.000232
0.000227
0.000256
0.000261
0.000253
0.000267
0.000227
0.000331
0.000444
0.000342
0.000477
0.000217
0.000220
0.000244
0.000257
0.000271
0.000272
0.000248
0.000258
0.000271
0.000225
0.000056
0.000375
0.000304
0.000255
0.000217
0.000241
0.000244
0.000260
0.000237
0.000260
0.000223
0.001475
0.000450
0.000270
0.000208
0.000206
0.000259
0.000264
0.000269
0.000231
0.000271
0.000278
0.000261
0.000247
0.000425
0.000400
0.000490
0.000219
0.000292
0.000245
0.000280
0.000191
0.000056
0.000210
0.000461
0.000195
0.000217
0.000452
0.000298
0.000391
0.000319
0.000453
0.000225
0.000203
0.000250
0.000266
0.000278
0.000252
0.001404
0.000359
0.000287
0.000250
0.000260
0.000279
0.000261
0.000246
0.000260
0.000255
0.000276
0.000495
0.000387
0.000311
0.000279
0.000158
0.000057
0.000187
0.000221
0.000242
0.000241
0.000246
0.000241
0.000248
0.000239
0.000292
0.000397
0.000463
0.000305
0.000210
0.000214
0.000236
0.000266
0.000277
0.000264
0.000286
0.000216
0.000270
0.000262
0.001360
0.000239
0.000266
0.000217
0.000219
0.000278
0.000253
0.000259
0.000202
0.000056
0.000208
0.000329
0.000422
0.000346
0.000230
0.000213
0.000235
0.000261
0.000256
0.000246
0.000261
0.000263
0.000246
0.000251
0.000260
0.000263
0.000264
0.000277
0.000265
0.000249
0.000243
0.000270
0.000275
0.000273
0.000296
0.000264
0.000292
0.000226
0.000271
0.000518
0.001311
0.000057
0.000196
0.000208
0.000237
0.000234
0.000267
0.000258
0.000246
0.000236
0.000235
0.000245
0.000265
0.000263
0.000257
0.000241
0.000247
0.001715
0.000351
0.000231
0.000217
0.000221
0.000256
0.000243
0.000279
0.000253
0.000273
0.000273
0.000252
0.000289
0.000263
0.000262
0.000240
0.000056
0.000282
0.000295
0.001350
0.000197
0.000232
0.000204
0.000257
0.000250
0.000253
0.000257
0.000233
0.000354
0.000397
0.000515
0.000249
0.000212
0.000228
0.000247
0.000252
0.000265
0.000242
0.000269
0.000270
0.000284
0.000272
0.000378
0.000490
0.000281
0.000282
0.000250
0.000197
0.000056
0.000202
0.000217
0.000242
0.000248
0.000249
0.000235
0.000234
0.000284
0.000397
0.000421
0.001163
0.000250
0.000224
0.000262
0.000256
0.000271
0.000271
0.000246
0.000312
0.000483
0.000325
0.000285
0.000229
0.000229
0.000273
0.000273
0.000267
0.000302
0.000264
0.000283
0.000208
0.000057
0.000214
0.000480
0.000366
0.000224
0.000205
0.000196
0.000239
0.000272
0.000269
0.000257
0.000225
0.000250
0.000541
0.000471
0.000498
0.001446
0.000221
0.000252
0.000363
0.000355
0.000408
0.000426
0.000542
0.000322
0.000232
0.000257
0.000264
0.000282
0.000271
0.000263
0.000217
0.000057
0.000225
0.000209
0.000533
0.000496
0.000289
0.000213
0.000244
0.000235
0.000245
0.000256
0.000253
0.000260
0.000264
0.000240
0.000262
0.000371
0.000367
0.000443
0.000296
0.001312
0.000273
0.000243
0.000254
0.000264
0.000515
0.000444
0.000402
0.000220
0.000233
0.000268
0.000215
0.000056
0.000205
0.000208
0.000237
0.000246
0.000247
0.000276
0.000445
0.000422
0.000384
0.000196
0.000224
0.000248
0.000281
0.000262
0.000257
0.000267
0.000263
0.000250
0.000263
0.000312
0.000537
0.000405
0.000331
0.001345
0.000330
0.000230
0.000314
0.000405
0.000515
0.000287
0.000324
0.000056
0.000188
0.000205
0.000238
0.000252
0.000253
0.000258
0.001686
0.000250
0.000244
0.000218
0.000245
0.000248
0.000325
0.000324
0.000329
0.000283
0.000240
0.000398
0.000403
0.000452
0.000275
0.000275
0.000234
0.000216
0.001428
0.000436
0.000404
0.000489
0.000307
0.000307
0.000154
0.000057
0.000180
0.000218
0.000257
0.000259
0.000242
0.000262
0.001776
0.000220
0.000238
0.000250
0.000388
0.000405
0.001427
0.000381
0.000381
0.000206
0.000215
0.000240
0.000263
0.000259
0.001844
0.000378
0.000358
0.000282
0.000221
0.000222
0.000243
0.000284
0.000248
0.000234
0.000217
0.000056
0.000193
0.000213
0.000264
0.000248
0.000259
0.000274
0.000283
0.000253
0.000253
0.000254
0.000256
0.000247
0.000254
0.000269
0.000262
0.001501
0.000271
0.000231
0.000270
0.000273
0.000274
0.000274
0.000407
0.001283
0.000275
0.000235
0.000259
0.000264
0.000461
0.000219
0.000180
0.000057
0.000210
0.000209
0.000231
0.000243
0.000243
0.000227
0.000236
0.001758
0.000239
0.000220
0.000211
0.000346
0.000237
0.000224
0.001453
0.000250
0.000219
0.000216
0.000270
0.000233
0.000258
0.000334
0.000318
0.001365
0.000273
0.000227
0.000231
0.000253
0.001396
0.000259
0.000224
0.000056
0.000236
0.000353
0.000195
0.000203
0.000257
0.000237
0.000267
0.000269
0.000263
0.000251
0.000267
0.000256
0.000252
0.000252
0.000307
0.001489
0.000259
0.000270
0.000250
0.000252
0.000278
0.000286
0.000242
0.001496
0.000342
0.000266
0.000238
0.001370
0.000209
0.000228
0.000223
0.000055
0.000216
0.000351
0.000375
0.000214
0.000201
0.000240
0.000255
0.000267
0.000259
0.000269
0.000240
0.000253
0.000261
0.000292
0.000471
0.001214
0.000221
0.000209
0.000244
0.000285
0.000251
0.000224
0.000252
0.001301
0.000378
0.000225
0.000232
0.000232
0.000245
0.001376
0.000312
0.000056
0.000255
0.000265
0.000222
0.000194
0.000241
0.000237
0.000252
0.000249
0.000281
0.000242
0.000239
0.000267
0.000239
0.000312
0.000429
0.001480
0.000240
0.000227
0.000288
0.000520
0.000336
0.000357
0.001343
0.000300
0.000236
0.000254
0.001303
0.000354
0.000259
0.000581
0.000230
0.000057
0.000211
0.000226
0.000252
0.000260
0.000247
0.000252
0.000279
0.000244
0.000268
0.000258
0.000287
0.000591
0.001308
0.000221
0.000233
0.000253
0.000285
0.000264
0.000216
0.000230
0.000315
0.001328
0.000242
0.000225
0.000218
0.000247
0.001527
0.000416
0.000471
0.000246
0.000188
0.000056
0.000208
0.000209
0.000240
0.000234
0.000246
0.000266
0.000245
0.000290
0.000410
0.000469
0.000323
0.001440
0.000231
0.000213
0.000272
0.000252
0.000270
0.000279
0.001663
0.000324
0.000346
0.000364
0.001322
0.000372
0.000311
0.000349
0.000221
0.000233
0.000233
0.000266
0.000221
0.000056
0.000196
0.000219
0.000301
0.000263
0.000271
0.000599
0.000265
0.000352
0.001473
0.000285
0.000338
0.000255
0.000217
0.000320
0.000329
0.001389
0.000254
0.000233
0.000208
0.000234
0.000304
0.001598
0.000369
0.000274
0.000237
0.000210
0.000508
0.000320
0.000239
0.000215
0.000267
0.000055
0.000253
0.000380
0.000322
0.000300
0.000201
0.001462
0.000255
0.000239
0.000244
0.000268
0.000267
0.000245
0.000340
0.001449
0.000267
0.000230
0.000422
0.001272
0.000301
0.000444
0.000342
0.000262
0.000233
0.000253
0.000278
0.000240
0.000464
0.000234
0.000246
0.000270
0.000224
0.000073
0.000183
0.000201
0.000367
0.001454
0.000278
0.000199
0.000302
0.000246
0.000246
0.000251
0.000262
0.000280
0.001607
0.000206
0.000233
0.000216
0.001363
0.000328
0.000488
0.000448
0.000322
0.000209
0.000222
0.000244
0.000366
0.000243
0.000227
0.000251
0.000264
0.000252
0.000203
0.000058
0.000209
0.000418
0.001397
0.000244
0.000230
0.000274
0.000256
0.000243
0.000336
0.000362
0.001341
0.000254
0.000297
0.000246
0.000210
0.001362
0.000706
0.000223
0.000310
0.000406
0.000343
0.000235
0.000229
0.000229
0.000267
0.000292
0.000273
0.000337
0.000396
0.000494
0.001359
0.000056
0.000209
0.000249
0.000204
0.000217
0.000256
0.000408
0.001561
0.000287
0.000213
0.000214
0.000243
0.001458
0.000470
0.000276
0.000456
0.000249
0.000214
0.000212
0.000234
0.000279
0.000266
0.000249
0.000283
0.000262
0.000263
0.000281
0.000442
0.000523
0.001464
0.000253
0.000182
0.000057
0.000189
0.000222
0.000337
0.000608
0.001186
0.000287
0.000249
0.000250
0.000255
0.000249
0.000249
0.000306
0.000281
0.000604
0.000295
0.000225
0.000234
0.000279
0.000237
0.000275
0.000261
0.000273
0.000255
0.000261
0.000261
0.000443
0.000458
0.000332
0.000311
0.001506
0.000114
0.000057
0.000224
0.000202
0.000268
0.000492
0.000309
0.000324
0.000298
0.000317
0.000270
0.000270
0.000266
0.000251
0.000248
0.000313
0.000244
0.000255
0.000619
0.000292
0.000286
0.000380
0.000288
0.000464
0.000242
0.000227
0.000220
0.000242
0.000257
0.000280
0.000350
0.000531
0.000298
0.000058
0.000221
0.001406
0.000234
0.000329
0.000358
0.000513
0.000325
0.000317
0.000227
0.000197
0.000257
0.000250
0.000271
0.000256
0.000271
0.000263
0.000249
0.001440
0.000250
0.000219
0.000233
0.000262
0.000277
0.000276
0.000271
0.000248
0.000277
0.000247
0.000287
0.000488
0.000309
0.000057
0.000221
0.000248
0.000238
0.001516
0.000339
0.000210
0.000213
0.000221
0.000226
0.000246
0.000236
0.000275
0.000258
0.000240
0.000264
0.000266
0.000252
0.000262
0.000256
0.000268
0.001453
0.000247
0.000224
0.000338
0.000218
0.000228
0.000243
0.000263
0.000277
0.000496
0.000388
0.000055
0.000188
0.000205
0.000406
0.000287
0.000225
0.000254
0.001534
0.000409
0.000273
0.000210
0.000227
0.000384
0.000291
0.000228
0.000198
0.000257
0.000253
0.000252
0.000262
0.000252
0.000498
0.000551
0.001144
0.000264
0.000211
0.000229
0.000252
0.000262
0.000268
0.000272
0.000332
0.000056
0.000281
0.000349
0.000204
0.000206
0.000233
0.000255
0.000230
0.000235
0.001427
0.000547
0.000382
0.000261
0.000231
0.000226
0.000224
0.000249
0.000248
0.000279
0.000256
0.000312
0.000307
0.000515
0.000415
0.001390
0.000236
0.000243
0.000275
0.000256
0.000273
0.000274
0.000621
0.000055
0.000182
0.000207
0.000240
0.000230
0.000229
0.000245
0.000252
0.000251
0.000268
0.001591
0.000332
0.000256
0.000268
0.000260
0.000475
0.000289
0.000395
0.000475
0.000336
0.000309
0.000434
0.000453
0.001344
0.000222
0.000223
0.000234
0.001746
0.000461
0.000594
0.000307
0.000144
0.000057
0.000185
0.000214
0.000231
0.000227
0.000252
0.000243
0.000355
0.000415
0.000527
0.000398
0.000310
0.000202
0.000210
0.000257
0.000258
0.000268
0.000246
0.000255
0.000248
0.000276
0.000271
0.000453
0.001339
0.000238
0.000215
0.000267
0.001888
0.000413
0.000437
0.000285
0.000177
0.000057
0.000211
0.000212
0.000231
0.001576
0.000390
0.000245
0.000230
0.000264
0.000255
0.000334
0.000363
0.000378
0.000355
0.000306
0.000348
0.000479
0.000332
0.001259
0.000264
0.000210
0.000238
0.000238
0.000365
0.000388
0.000662
0.000406
0.000228
0.000224
0.000260
0.000285
0.000205
0.000057
0.000207
0.000198
0.001461
0.000433
0.000191
0.000202
0.000213
0.000253
0.000249
0.000260
0.000239
0.000275
0.000269
0.000273
0.000241
0.000434
0.000421
0.000333
0.001372
0.000294
0.000199
0.000260
0.000258
0.000267
0.000376
0.000500
0.000444
0.000294
0.000291
0.000248
0.000401
0.000057
0.000179
0.000205
0.000252
0.000256
0.001587
0.000234
0.000249
0.000239
0.000264
0.000251
0.000260
0.000268
0.000246
0.000244
0.000420
0.000489
0.001489
0.000751
0.000199
0.000342
0.000243
0.000238
0.000209
0.000274
0.001760
0.000742
0.000240
0.000240
0.000278
0.000285
0.000207
0.000057
0.000201
0.000199
0.000243
0.000244
0.000257
0.000247
0.000251
0.000242
0.000258
0.000235
0.000270
0.000284
0.000254
0.000251
0.000256
0.000258
0.000265
0.001614
0.000680
0.000422
0.000312
0.000224
0.000214
0.000274
0.000281
0.000260
0.000278
0.000258
0.001452
0.000388
0.000326
0.000055
0.000203
0.000206
0.000228
0.000253
0.000264
0.000228
0.000256
0.000250
0.000251
0.000273
0.000221
0.000467
0.000478
0.000326
0.000214
0.000217
0.000258
0.001470
0.000705
0.000364
0.000362
0.000299
0.000219
0.000232
0.000270
0.000261
0.000239
0.000274
0.001511
0.000423
0.000234
0.000055
0.000227
0.000220
0.000217
0.000248
0.000249
0.000238
0.000250
0.000249
0.000265
0.000258
0.000357
0.000406
0.000317
0.000240
0.000230
0.000236
0.000265
0.000262
0.001567
0.000647
0.000446
0.000353
0.000232
0.000233
0.000253
0.000258
0.000263
0.000288
0.000269
0.001438
0.000298
0.000056
0.000206
0.000219
0.000204
0.000256
0.000257
0.000245
0.000292
0.000353
0.000368
0.000420
0.000502
0.000210
0.000365
0.000235
0.000213
0.000230
0.000275
0.000268
0.001387
0.000895
0.000316
0.000205
0.000474
0.000213
0.000218
0.000241
0.000285
0.000258
0.000259
0.000276
0.000394
0.000056
0.000261
0.000261
0.000201
0.000226
0.000256
0.000254
0.000220
0.000235
0.000263
0.000260
0.000245
0.000237
0.000249
0.000483
0.000461
0.000454
0.000225
0.000254
0.000254
0.000250
0.000255
0.000375
0.001386
0.001057
0.000245
0.000222
0.000261
0.000267
0.000286
0.000252
0.000215
0.000057
0.000189
0.001371
0.000270
0.000204
0.000218
0.000228
0.000257
0.000242
0.000259
0.000224
0.000260
0.000259
0.000243
0.000370
0.000428
0.000397
0.000336
0.000212
0.000254
0.000285
0.000252
0.000244
0.000246
0.000267
0.001400
0.000691
0.000295
0.000395
0.000367
0.000401
0.000266
0.000056
0.000203
0.000221
0.000351
0.001315
0.000236
0.000269
0.000193
0.000251
0.000255
0.000256
0.000292
0.000211
0.000306
0.000317
0.000546
0.000380
0.000205
0.000307
0.000274
0.000224
0.000231
0.000277
0.000222
0.000273
0.000267
0.001528
0.000746
0.000314
0.000277
0.000261
0.000221
0.000056
0.000221
0.000229
0.000439
0.000421
0.001278
0.000250
0.000199
0.000199
0.000233
0.000255
0.000235
0.000258
0.000242
0.000231
0.000255
0.000252
0.000268
0.000242
0.000257
0.000254
0.000267
0.000267
0.000343
0.000293
0.000238
0.000236
0.000282
0.001524
0.000235
0.000234
0.000158
0.000057
0.000199
0.000188
0.000249
0.000341
0.000349
0.000335
0.000407
0.000245
0.001558
0.000247
0.000294
0.000478
0.000385
0.000223
0.000483
0.000230
0.000222
0.000225
0.000252
0.000274
0.000284
0.000275
0.000254
0.000264
0.000246
0.000483
0.000393
0.000335
0.001523
0.000255
0.000178
0.000057
0.000239
0.000208
0.000255
0.000238
0.000251
0.000231
0.000273
0.000337
0.000401
0.002083
0.000208
0.000212
0.000239
0.000263
0.000255
0.000325
0.000263
0.000214
0.000257
0.000430
0.000413
0.000391
0.001520
0.000222
0.000221
0.000513
0.001758
0.000291
0.000263
0.001471
0.000198
0.000056
0.000400
0.000330
0.000450
0.000232
0.000268
0.000227
0.000250
0.000270
0.000267
0.000243
0.000241
0.000336
0.000409
0.000337
0.000452
0.000276
0.000205
0.001559
0.000490
0.001987
0.000300
0.000266
0.001441
0.000333
0.002020
0.000748
0.000274
0.000214
0.000265
0.000485
0.000314
0.000057
0.000205
0.000197
0.000251
0.000255
0.001479
0.001679
0.001070
0.000229
0.000205
0.001592
0.001974
0.000245
0.000306
0.000399
0.000320
0.000384
0.000373
0.000379
0.000254
0.000216
0.000258
0.000248
0.000280
0.001571
0.002464
0.000322
0.000209
0.000236
0.000261
0.000270
0.000390
0.000057
0.000213
0.000227
0.000209
0.000235
0.000225
0.000236
0.000252
0.000256
0.000261
0.000243
0.000249
0.000284
0.000456
0.000518
0.000296
0.000221
0.000218
0.000272
0.000269
0.000268
0.000257
0.001382
0.000460
0.000474
0.002040
0.000274
0.000221
0.000308
0.000530
0.000414
0.000171
0.000056
0.000235
0.000380
0.000393
0.000307
0.000233
0.000219
0.000230
0.000249
0.000244
0.000243
0.000242
0.000267
0.000262
0.001613
0.001424
0.001221
0.000276
0.000227
0.000219
0.000239
0.000281
0.000281
0.000250
0.000248
0.002264
0.000235
0.000224
0.000274
0.000321
0.000300
0.000265
0.000057
0.000213
0.000360
0.000592
0.000340
0.000205
0.000220
0.000206
0.000257
0.001912
0.001425
0.000251
0.000383
0.000393
0.000356
0.000267
0.000213
0.000218
0.000268
0.000267
0.000258
0.000266
0.000261
0.000481
0.000236
0.000256
0.000282
0.000245
0.000280
0.000291
0.000226
0.000230
0.000056
0.000182
0.000218
0.000251
0.000233
0.000250
0.000271
0.001548
0.001496
0.001320
0.000222
0.000215
0.000203
0.000265
0.000261
0.000259
0.000243
0.000262
0.002168
0.000220
0.000210
0.000245
0.000258
0.000269
0.000260
0.000267
0.000263
0.000257
0.000262
0.000278
0.000260
0.000190
0.000057
0.001513
0.000313
0.002390
0.000267
0.000277
0.000300
0.000237
0.000262
0.000264
0.000241
0.000262
0.000240
0.000234
0.000243
0.000265
0.000258
0.000270
0.000269
0.000252
0.000273
0.000256
0.000284
0.000279
0.000270
0.000246
0.000263
0.000242
0.000278
0.000266
0.000257
0.000405
0.000056
0.000200
0.002559
0.000329
0.000207
0.000193
0.000204
0.000252
0.000263
0.000251
0.000276
0.000427
0.000377
0.000294
0.000241
0.000234
0.002198
0.000217
0.000219
0.000240
0.000545
0.000392
0.000277
0.000226
0.000226
0.000262
0.000243
0.000262
0.000285
0.000274
0.001730
0.001175
0.000057
0.000210
0.000207
0.000304
0.000371
0.000395
0.000242
0.000237
0.000203
0.000252
0.000260
0.000259
0.000252
0.000224
0.000255
0.000262
0.000249
0.000277
0.000684
0.000370
0.000250
0.000225
0.000238
0.000262
0.000268
0.000257
0.000239
0.000259
0.000280
0.000268
0.000267
0.000422
0.000060
0.001101
0.000253
0.000381
0.000424
0.000304
0.000209
0.000176
0.000244
0.002258
0.000379
0.000340
0.000360
0.000204
0.000289
0.000335
0.000262
0.000273
0.000257
0.000253
0.000244
0.000245
0.000250
0.000674
0.000485
0.001784
0.001323
0.000539
0.000535
0.000246
0.000254
0.000205
0.000056
0.000327
0.000277
0.000266
0.000210
0.000234
0.000244
0.000246
0.000229
0.000269
0.000244
0.000262
0.000238
0.000245
0.000237
0.000363
0.000566
0.001882
0.001328
0.000418
0.000395
0.000448
0.000245
0.000240
0.000269
0.002192
0.000487
0.000373
0.000242
0.000275
0.000278
0.000215
0.000056
0.000172
0.000226
0.000249
0.000242
0.000251
0.000459
0.000315
0.000279
0.000349
0.000243
0.000218
0.000287
0.000251
0.002067
0.000376
0.000396
0.000221
0.000231
0.000263
0.000270
0.000253
0.002485
0.000337
0.000227
0.000231
0.000255
0.000241
0.000292
0.000258
0.000284
0.000222
0.000056
0.000192
0.000363
0.000555
0.000387
0.000234
0.000204
0.000212
0.000232
0.000264
0.000261
0.002082
0.000336
0.000262
0.000264
0.000212
0.000225
0.000280
0.000240
0.002277
0.000391
0.000206
0.000266
0.000280
0.000248
0.000284
0.000241
0.000263
0.000273
0.000250
0.000268
0.000203
0.000056
0.000197
0.000202
0.000249
0.000215
0.000246
0.000267
0.000256
0.000222
0.000255
0.002159
0.000254
0.000270
0.000204
0.000493
0.000211
0.000216
0.000254
0.000283
0.000264
0.000250
0.002040
0.000248
0.000372
0.000367
0.000493
0.000346
0.000280
0.000252
0.000225
0.000251
0.000205
0.000055
0.000197
0.000276
0.000173
0.000254
0.000333
0.000290
0.000222
0.002311
0.000220
0.000232
0.000229
0.000250
0.000248
0.000238
0.000307
0.002195
0.000529
0.000214
0.000250
0.000261
0.000239
0.000283
0.000268
0.000271
0.000261
0.000255
0.000298
0.000244
0.000257
0.000321
0.000162
0.000056
0.000201
0.002995
0.000248
0.000218
0.000241
0.000251
0.000250
0.000296
0.000367
0.000462
0.002079
0.000265
0.000237
0.000249
0.000294
0.000604
0.000351
0.000293
0.000224
0.000219
0.000232
0.000259
0.000269
0.000245
0.000251
0.000254
0.000269
0.000271
0.000336
0.000644
0.000342
0.000057
0.000201
0.000275
0.000261
0.000218
0.000230
0.000252
0.000244
0.000253
0.001570
0.002104
0.000511
0.000268
0.000431
0.000765
0.000333
0.000205
0.000214
0.000237
0.000274
0.000251
0.000276
0.000228
0.000241
0.000281
0.001835
0.001448
0.000280
0.000282
0.000301
0.000274
0.000457
0.000058
0.001917
0.000235
0.000242
0.000199
0.000256
0.000376
0.000492
0.000329
0.000270
0.000240
0.000222
0.000200
0.000259
0.000249
0.000263
0.000268
0.000250
0.000263
0.001921
0.000212
0.000218
0.000221
0.000273
0.000275
0.000283
0.000256
0.001546
0.000334
0.000221
0.000221
0.000170
0.000056
0.000208
0.000208
0.000229
0.000239
0.000252
0.000236
0.000287
0.000388
0.000376
0.000402
0.000204
0.000213
0.000327
0.000324
0.000379
0.000327
0.000230
0.000224
0.000249
0.000356
0.000545
0.000457
0.000204
0.000215
0.000252
0.000247
0.000258
0.000271
0.000282
0.000254
0.000233
0.000056
0.001443
0.000401
0.000231
0.002010
0.000230
0.000449
0.000371
0.000383
0.000206
0.000213
0.000254
0.000241
0.000248
0.000249
0.000269
0.000279
0.000439
0.000254
0.000484
0.000359
0.000354
0.000208
0.000239
0.000264
0.000340
0.000224
0.000236
0.000285
0.000315
0.000497
0.001425
0.000056
0.000169
0.000217
0.002062
0.000271
0.000337
0.000260
0.000256
0.000256
0.000264
0.000262
0.000233
0.000229
0.000251
0.000267
0.000258
0.000417
0.000695
0.001698
0.000246
0.000250
0.000256
0.000265
0.000465
0.000402
0.001535
0.000268
0.000356
0.002018
0.000218
0.000251
0.000190
0.000056
0.000224
0.000186
0.000229
0.000254
0.000221
0.000257
0.000243
0.000282
0.000340
0.000298
0.000382
0.000370
0.000330
0.000301
0.000229
0.000236
0.000268
0.000243
0.000253
0.000275
0.000273
0.000299
0.000266
0.000268
0.000268
0.001580
0.000287
0.000398
0.001999
0.000263
0.000153
0.000056
0.000205
0.000223
0.000236
0.000243
0.000465
0.000224
0.000256
0.000347
0.000367
0.000372
0.000223
0.000227
0.000247
0.000268
0.000277
0.000323
0.000503
0.000341
0.000274
0.000460
0.000529
0.000388
0.001574
0.000258
0.000240
0.002109
0.000264
0.000220
0.000228
0.000252
0.000208
0.000057
0.000193
0.000218
0.000230
0.000221
0.000249
0.000272
0.000257
0.000262
0.000265
0.000252
0.001888
0.000277
0.000397
0.000326
0.000458
0.000360
0.001532
0.000324
0.000223
0.000307
0.002045
0.000591
0.000263
0.000237
0.000221
0.000267
0.000489
0.000240
0.000238
0.000281
0.000220
0.000057
0.000312
0.000336
0.000387
0.000256
0.000228
0.000206
0.000253
0.000251
0.000268
0.000308
0.000224
0.000242
0.000250
0.000255
0.000316
0.000536
0.001299
0.000255
0.000313
0.002047
0.000274
0.000250
0.000211
0.000244
0.000250
0.000282
0.000265
0.000273
0.000234
0.000273
0.000223
0.000056
0.000240
0.000440
0.002034
0.000216
0.000244
0.000217
0.000217
0.000293
0.000563
0.001406
0.000317
0.000367
0.000340
0.001993
0.000238
0.000227
0.000277
0.000277
0.000247
0.000240
0.000281
0.000289
0.000261
0.000450
0.000443
0.000348
0.000309
0.002197
0.000505
0.000540
0.000379
0.000057
0.000189
0.000223
0.000215
0.002044
0.000195
0.000219
0.000231
0.000272
0.000210
0.000240
0.000241
0.000267
0.000248
0.000376
0.000434
0.000326
0.001308
0.000233
0.000274
0.000260
0.000230
0.000248
0.000273
0.000253
0.000308
0.000501
0.000450
0.000269
0.001664
0.000244
0.000130
0.000056
0.000198
0.000216
0.000220
0.000238
0.000245
0.000256
0.000256
0.000246
0.000281
0.000328
0.000423
0.001446
0.000211
0.000207
0.000226
0.000248
0.000272
0.000246
0.000353
0.000440
0.000403
0.000464
0.000209
0.001561
0.000269
0.000232
0.000274
0.000277
0.000268
0.000271
0.000212
0.000057
0.000206
0.000208
0.000250
0.000268
0.000251
0.000238
0.000243
0.000236
0.000267
0.000236
0.000258
0.000251
0.000255
0.000252
0.001586
0.000237
0.000239
0.000272
0.000327
0.000328
0.000362
0.000269
0.000215
0.000256
0.000228
0.000267
0.001485
0.000291
0.000207
0.000241
0.000157
0.000056
0.000202
0.000225
0.000238
0.000269
0.000273
0.000212
0.000242
0.000270
0.000218
0.000267
0.000242
0.000259
0.000223
0.000366
0.000323
0.000364
0.000284
0.001577
0.000345
0.000210
0.000220
0.000231
0.000263
0.000302
0.000436
0.000426
0.000411
0.000241
0.000228
0.001587
0.000201
0.000057
0.000351
0.000373
0.000421
0.000193
0.000210
0.000208
0.000241
0.000266
0.000262
0.000244
0.000246
0.000241
0.001454
0.000339
0.000285
0.000221
0.000215
0.000258
0.000270
0.000270
0.000252
0.000236
0.000268
0.000262
0.000256
0.000364
0.000555
0.000306
0.000297
0.000216
0.000185
0.000057
0.000206
0.000252
0.000403
0.000411
0.000359
0.000237
0.000212
0.000253
0.000255
0.000255
0.000241
0.000228
0.000249
0.000257
0.001334
0.000278
0.000214
0.000237
0.000239
0.000267
0.000253
0.000256
0.000255
0.000259
0.000261
0.000261
0.000269
0.000802
0.000383
0.000247
0.000178
0.000055
0.000200
0.001533
0.000233
0.000382
0.000445
0.000379
0.000194
0.000244
0.000268
0.000251
0.000237
0.000259
0.000272
0.000272
0.000271
0.001524
0.000248
0.000280
0.000264
0.000254
0.000267
0.000248
0.000263
0.000271
0.000256
0.000262
0.000453
0.000409
0.000343
0.000229
0.000173
0.000056
0.000186
0.000217
0.000243
0.001712
0.000400
0.000337
0.000202
0.000207
0.000238
0.000277
0.000267
0.000262
0.000247
0.000261
0.000245
0.000263
0.000458
0.001336
0.000217
0.000229
0.001534
0.000291
0.000567
0.000425
0.000284
0.000227
0.000261
0.000460
0.000249
0.000243
0.000212
0.000057
0.000278
0.000222
0.000207
0.000252
0.000239
0.000261
0.000241
0.000242
0.000264
0.000235
0.000256
0.000258
0.000317
0.000520
0.001643
0.001493
0.000395
0.000509
0.000375
0.000193
0.000214
0.000271
0.000246
0.000253
0.000251
0.000266
0.000257
0.000271
0.001607
0.000314
0.000135
0.000056
0.000248
0.000326
0.000354
0.000332
0.000262
0.000199
0.000219
0.000305
0.000454
0.001431
0.000352
0.001549
0.000316
0.000553
0.000412
0.000274
0.000326
0.000337
0.000350
0.000276
0.000230
0.000352
0.001576
0.000531
0.000240
0.000230
0.000260
0.000255
0.000249
0.000269
0.000221
0.000057
0.000234
0.000207
0.000263
0.000262
0.000233
0.001635
0.000963
0.000899
0.000246
0.000221
0.000252
0.000270
0.000245
0.000264
0.000251
0.000253
0.000256
0.000261
0.000269
0.000284
0.001514
0.000266
0.000251
0.000215
0.000247
0.000221
0.000270
0.000271
0.000269
0.000275
0.000224
0.000057
0.000187
0.000208
0.001538
0.000959
0.000332
0.000355
0.000218
0.000212
0.000231
0.000258
0.000242
0.000262
0.000239
0.002053
0.000473
0.000210
0.000207
0.000235
0.000260
0.000269
0.000201
