0.000100
0.009157
0.012280
0.000330
0.000262
0.000285
0.000307
0.000247
0.000331
0.000282
0.000247
0.000350
0.000479
0.000506
0.000353
0.000396
0.000270
0.000353
0.000353
0.000407
0.000313
0.001904
0.000720
0.000248
0.000256
0.000304
0.000307
0.000327
0.000432
0.000508
0.000428
0.000236
0.000058
0.000194
0.000268
0.000271
0.000265
0.000267
0.000252
0.000279
0.000276
0.000260
0.000290
0.000435
0.000422
0.000324
0.000261
0.000412
0.000305
0.000360
0.000253
0.000242
0.001696
0.000342
0.000240
0.000453
0.000242
0.000283
0.000272
0.000285
0.000294
0.000280
0.000565
0.000180
0.000056
0.000256
0.000248
0.000261
0.000263
0.000254
0.000246
0.000260
0.000254
0.000288
0.001673
0.000226
0.000232
0.000277
0.000265
0.000277
0.000251
0.000262
0.000257
0.000358
0.001786
0.000249
0.000275
0.000453
0.000462
0.000353
0.000240
0.000249
0.000492
0.000535
0.000703
0.000214
0.000056
0.000223
0.000247
0.000252
0.000241
0.000288
0.000262
0.000285
0.000633
0.000346
0.000249
0.000238
0.000252
0.000237
0.000253
0.000260
0.000260
0.000249
0.000259
0.000296
0.000394
0.001598
0.000274
0.000256
0.000419
0.000673
0.000322
0.000762
0.000449
0.000329
0.000239
0.000192
0.000056
0.000234
0.000248
0.000265
0.000265
0.000236
0.000253
0.000247
0.000566
0.001389
0.000213
0.000250
0.000245
0.000258
0.000252
0.000269
0.000280
0.000254
0.000941
0.001276
0.000275
0.000460
0.000258
0.000206
0.000242
0.000255
0.000259
0.000265
0.000272
0.000259
0.000270
0.000199
0.000057
0.000204
0.000247
0.000242
0.000265
0.000239
0.000242
0.000238
0.000255
0.000246
0.000253
0.001620
0.000273
0.000238
0.000234
0.000244
0.000255
0.000264
0.000234
0.000251
0.000259
0.000269
0.001658
0.000295
0.000251
0.000438
0.000272
0.000239
0.000253
0.000274
0.000261
0.000197
0.000055
0.000218
0.000226
0.000258
0.000242
0.000240
0.000250
0.000260
0.000239
0.000263
0.000265
0.000256
0.000239
0.000281
0.000252
0.001664
0.000253
0.000295
0.000210
0.000259
0.000294
0.000244
0.000245
0.000244
0.000266
0.001778
0.000378
0.000361
0.000349
0.000254
0.000283
0.000197
0.000057
0.000221
0.000245
0.000242
0.000269
0.000257
0.000234
0.000268
0.000470
0.000401
0.000398
0.000211
0.000247
0.000252
0.000244
0.001563
0.000591
0.000246
0.000428
0.000331
0.000212
0.000273
0.000277
0.000270
0.001739
0.000516
0.000455
0.000261
0.000234
0.000243
0.000268
0.000191
0.000056
0.000200
0.000239
0.000253
0.000317
0.000287
0.000426
0.000388
0.000276
0.000225
0.000244
0.000261
0.000239
0.000250
0.001723
0.000482
0.000285
0.000230
0.000258
0.000266
0.000283
0.000251
0.000258
0.000272
0.001947
0.000256
0.000377
0.000258
0.000250
0.000262
0.000410
0.000326
0.000055
0.000200
0.000400
0.000367
0.000289
0.000226
0.000244
0.000249
0.000277
0.000221
0.000235
0.000239
0.000248
0.001553
0.000382
0.000283
0.000223
0.000261
0.000249
0.000250
0.000277
0.000281
0.000331
0.000243
0.001806
0.000246
0.000505
0.000249
0.000253
0.000259
0.000264
0.000269
0.000056
0.000421
0.000498
0.000608
0.000214
0.000230
0.000277
0.000229
0.000217
0.000259
0.000256
0.000252
0.001700
0.000247
0.000440
0.000372
0.000214
0.000252
0.000223
0.000256
0.000265
0.000245
0.001859
0.000235
0.000249
0.002077
0.000515
0.000363
0.000241
0.000259
0.000267
0.000190
0.000057
0.000212
0.000247
0.000247
0.000241
0.000258
0.001621
0.000255
0.000226
0.000257
0.000253
0.000242
0.000263
0.000229
0.000258
0.000287
0.000358
0.000674
0.000242
0.000242
0.000266
0.000266
0.000252
0.000240
0.000429
0.000442
0.000274
0.000306
0.000576
0.000460
0.000276
0.000189
0.000055
0.000202
0.000243
0.000249
0.000249
0.000239
0.000243
0.000250
0.000350
0.000459
0.001730
0.000219
0.000240
0.000236
0.000249
0.000262
0.000294
0.000399
0.000495
0.000370
0.000209
0.000256
0.000298
0.000286
0.000264
0.000270
0.000432
0.000376
0.000669
0.000410
0.000458
0.000133
0.000078
0.000191
0.000250
0.000230
0.000221
0.000248
0.000248
0.000238
0.000245
0.000244
0.000296
0.000338
0.000491
0.001359
0.000223
0.000236
0.000240
0.000261
0.000249
0.000247
0.000246
0.000372
0.000372
0.000420
0.000257
0.000265
0.000254
0.000255
0.000267
0.000269
0.000261
0.000379
0.000057
0.000194
0.000238
0.000228
0.000337
0.000504
0.000400
0.000238
0.000253
0.000237
0.000256
0.000246
0.000244
0.000297
0.000269
0.000214
0.000475
0.001853
0.000307
0.000199
0.000222
0.000262
0.000264
0.000262
0.000238
0.000282
0.000467
0.000486
0.000303
0.000398
0.000237
0.000202
0.000057
0.000198
0.000433
0.000232
0.000222
0.000262
0.000244
0.000296
0.000629
0.000278
0.000314
0.000214
0.000274
0.000266
0.000237
0.000517
0.000365
0.000204
0.000259
0.000416
0.001621
0.000277
0.000270
0.000533
0.000197
0.000279
0.000280
0.000255
0.000365
0.000596
0.000317
0.000266
0.000056
0.000203
0.000238
0.000239
0.000249
0.000405
0.000313
0.000291
0.000221
0.000377
0.000508
0.000380
0.000241
0.000230
0.000247
0.000262
0.000260
0.000256
0.000253
0.000228
0.000354
0.000294
0.000389
0.001788
0.000237
0.000262
0.000246
0.000297
0.000349
0.000457
0.000681
0.000408
0.000057
0.000233
0.000329
0.000284
0.000424
0.000395
0.000224
0.000239
0.000273
0.000544
0.000432
0.000228
0.000244
0.000236
0.000274
0.000258
0.000237
0.000258
0.000268
0.000265
0.000269
0.000270
0.000461
0.000654
0.001288
0.000343
0.000419
0.000421
0.000251
0.000454
0.000489
0.000227
0.000056
0.000255
0.000380
0.000276
0.000202
0.000230
0.000247
0.000413
0.000241
0.000270
0.000367
0.000368
0.000445
0.000257
0.000263
0.000262
0.000246
0.000363
0.000390
0.000355
0.000235
0.000272
0.000459
0.000599
0.001611
0.000232
0.000463
0.000284
0.000226
0.000310
0.000437
0.000213
0.000057
0.000236
0.000226
0.000247
0.000245
0.000248
0.000245
0.000250
0.000319
0.000467
0.000314
0.000422
0.000341
0.000314
0.000562
0.000244
0.000243
0.000266
0.000271
0.000231
0.000355
0.000223
0.000247
0.000282
0.000374
0.000478
0.001696
0.000267
0.000241
0.000258
0.000253
0.000187
0.000057
0.000271
0.000489
0.000309
0.000228
0.000241
0.000251
0.000260
0.000238
0.000259
0.000246
0.000231
0.000244
0.000448
0.000483
0.000411
0.000279
0.000245
0.000254
0.000343
0.000386
0.000380
0.000363
0.000387
0.000333
0.000241
0.000268
0.000263
0.000274
0.001789
0.000247
0.000212
0.000055
0.000194
0.000220
0.000262
0.000268
0.000364
0.000543
0.000309
0.000215
0.000260
0.000257
0.000254
0.000243
0.000532
0.000439
0.000481
0.000287
0.000264
0.000260
0.000425
0.000464
0.000357
0.000434
0.000567
0.000332
0.000242
0.000248
0.000265
0.000253
0.000259
0.001713
0.000358
0.000057
0.000266
0.000330
0.000205
0.000232
0.000261
0.000244
0.000243
0.000504
0.000370
0.000307
0.000297
0.000330
0.000372
0.000620
0.000283
0.000234
0.000251
0.000254
0.000255
0.000266
0.000269
0.000260
0.000248
0.000265
0.000349
0.000314
0.000404
0.000372
0.000235
0.000250
0.000193
0.000056
0.000481
0.000265
0.000457
0.000277
0.000189
0.000243
0.000246
0.000254
0.000241
0.000219
0.000252
0.000283
0.000293
0.000387
0.000472
0.000553
0.000266
0.000318
0.000387
0.000338
0.000290
0.000244
0.000244
0.000260
0.001753
0.000277
0.001689
0.000941
0.000426
0.000301
0.000173
0.000056
0.000210
0.000232
0.000230
0.000245
0.000256
0.000245
0.000258
0.000258
0.000235
0.000301
0.000369
0.000433
0.000348
0.000379
0.000244
0.000260
0.000253
0.000290
0.000230
0.000243
0.000249
0.000264
0.001804
0.000265
0.000239
0.000261
0.000278
0.000265
0.001877
0.000558
0.000234
0.000058
0.000212
0.000203
0.000260
0.000225
0.000253
0.000245
0.000252
0.000246
0.000257
0.000362
0.000650
0.000419
0.000238
0.000203
0.000236
0.000255
0.000328
0.000442
0.000368
0.000258
0.001759
0.000272
0.000242
0.000243
0.000256
0.000275
0.000244
0.000251
0.000381
0.000310
0.000339
0.000057
0.000244
0.000217
0.000240
0.000256
0.000249
0.000244
0.000252
0.000258
0.000240
0.000259
0.000248
0.000257
0.000432
0.000393
0.000296
0.000277
0.000466
0.000248
0.000234
0.000258
0.000255
0.000262
0.000275
0.000253
0.000281
0.001787
0.000256
0.000247
0.000253
0.000236
0.000205
0.000056
0.000343
0.000218
0.000224
0.000220
0.000264
0.000211
0.000238
0.000255
0.000248
0.000226
0.000237
0.000263
0.000252
0.000357
0.000433
0.000339
0.000283
0.000248
0.000241
0.000257
0.000268
0.000255
0.000250
0.000274
0.000246
0.000262
0.000325
0.001612
0.000279
0.000240
0.000182
0.000055
0.000207
0.000238
0.000248
0.000273
0.000327
0.000481
0.000306
0.000294
0.000230
0.000256
0.000245
0.000264
0.000223
0.000256
0.000265
0.000256
0.000248
0.000260
0.000251
0.000254
0.000270
0.000270
0.000249
0.000234
0.000237
0.000285
0.000276
0.000266
0.000251
0.000263
0.000195
0.000056
0.000184
0.000234
0.000260
0.000273
0.000221
0.000251
0.000242
0.000261
0.000296
0.000225
0.000226
0.000249
0.000251
0.000251
0.000268
0.000266
0.000253
0.000253
0.000293
0.000248
0.000280
0.000296
0.000266
0.000249
0.000278
0.000276
0.000271
0.000251
0.000306
0.000389
0.000711
0.000056
0.000216
0.000294
0.000216
0.000237
0.000233
0.000250
0.000239
0.000251
0.000253
0.000241
0.000272
0.000397
0.000381
0.000481
0.001531
0.000233
0.000489
0.000242
0.000327
0.000381
0.000462
0.000359
0.000223
0.000276
0.000245
0.000269
0.000278
0.000248
0.000326
0.000241
0.000185
0.000056
0.000376
0.000401
0.000329
0.000332
0.000198
0.000262
0.000246
0.000242
0.000243
0.000238
0.000256
0.000256
0.000233
0.000285
0.000346
0.000509
0.000376
0.001794
0.000242
0.000247
0.000345
0.000432
0.000439
0.000306
0.000299
0.000320
0.000303
0.000232
0.000230
0.000246
0.000197
0.000055
0.000184
0.000237
0.000234
0.000284
0.000390
0.000484
0.000277
0.000259
0.000250
0.000212
0.000250
0.000274
0.000265
0.000261
0.000262
0.000241
0.000395
0.000402
0.000387
0.000384
0.000238
0.001749
0.000334
0.000510
0.000469
0.000468
0.000336
0.000230
0.000249
0.000291
0.000422
0.000056
0.000199
0.000260
0.000237
0.000369
0.000377
0.000444
0.000372
0.000205
0.000238
0.000282
0.000252
0.000259
0.000253
0.000311
0.000286
0.000249
0.000226
0.000390
0.000511
0.000300
0.000489
0.001846
0.000253
0.000475
0.000509
0.000310
0.000239
0.000250
0.000292
0.000268
0.000197
0.000055
0.000215
0.000335
0.000360
0.000387
0.000334
0.000303
0.000352
0.000222
0.000241
0.000256
0.000276
0.000231
0.000243
0.000260
0.000237
0.000264
0.000321
0.000377
0.000534
0.000340
0.000292
0.000223
0.000269
0.001706
0.000474
0.000461
0.000682
0.000266
0.000244
0.000298
0.000170
0.000055
0.000190
0.000239
0.000325
0.000251
0.000284
0.000385
0.000429
0.000268
0.000241
0.000543
0.000221
0.000239
0.000258
0.000280
0.000272
0.000267
0.000211
0.000411
0.000381
0.000469
0.000258
0.000234
0.000257
0.000251
0.000265
0.000263
0.000241
0.000252
0.000267
0.000289
0.000218
0.000056
0.000354
0.000293
0.000228
0.000251
0.000249
0.000259
0.000240
0.000278
0.000253
0.000248
0.000254
0.000354
0.000456
0.000387
0.000325
0.000271
0.000222
0.000241
0.000257
0.000265
0.000298
0.000255
0.000235
0.000254
0.000282
0.000292
0.000520
0.000294
0.000349
0.000230
0.000181
0.000056
0.000209
0.000222
0.000280
0.000245
0.000236
0.000249
0.000258
0.000260
0.000488
0.000212
0.000266
0.000247
0.000246
0.000264
0.000274
0.000271
0.000265
0.000343
0.000223
0.000257
0.000247
0.000268
0.000253
0.000271
0.000273
0.000280
0.000248
0.000254
0.000517
0.000248
0.000150
0.000057
0.000205
0.000231
0.000251
0.000267
0.000226
0.000246
0.000359
0.000427
0.000222
0.000233
0.000247
0.000256
0.000236
0.000290
0.000439
0.001760
0.000231
0.000271
0.000282
0.000387
0.000367
0.000363
0.000401
0.000346
0.000384
0.000422
0.000238
0.000260
0.000268
0.000273
0.001401
0.000055
0.000409
0.000253
0.000275
0.000218
0.000230
0.000258
0.000235
0.000252
0.000243
0.000272
0.000246
0.000257
0.000251
0.000280
0.000591
0.001592
0.000243
0.000235
0.000237
0.000267
0.000245
0.000260
0.000351
0.000445
0.000245
0.000359
0.000214
0.000270
0.000281
0.000256
0.000202
0.000057
0.001316
0.000415
0.000354
0.000256
0.000241
0.000221
0.000235
0.000234
0.000488
0.000221
0.000244
0.000247
0.000352
0.000563
0.000349
0.000345
0.000243
0.000235
0.000341
0.000341
0.000275
0.000256
0.000271
0.000252
0.000262
0.000554
0.000602
0.000242
0.000250
0.000265
0.000177
0.000055
0.000211
0.000215
0.000261
0.000232
0.001557
0.000204
0.000224
0.000261
0.000237
0.000252
0.000249
0.000256
0.000241
0.000285
0.000251
0.000335
0.000378
0.000717
0.000213
0.001738
0.000269
0.000276
0.000303
0.000695
0.000309
0.000368
0.000253
0.000250
0.000249
0.000272
0.000205
0.000056
0.000210
0.000236
0.000241
0.000309
0.001265
0.000233
0.000250
0.000269
0.000238
0.000236
0.000240
0.000248
0.000274
0.000267
0.000228
0.000383
0.000439
0.000369
0.000322
0.000253
0.000268
0.000270
0.000250
0.000226
0.000294
0.000263
0.000241
0.000273
0.000285
0.000344
0.000536
0.000057
0.000214
0.000254
0.000234
0.000263
0.000262
0.000239
0.000235
0.000261
0.000271
0.000256
0.001432
0.000226
0.000235
0.000258
0.000242
0.000243
0.000268
0.000269
0.000258
0.000265
0.000283
0.000503
0.000520
0.000293
0.000236
0.000273
0.001759
0.000292
0.000223
0.000316
0.000482
0.000056
0.000226
0.000381
0.000454
0.000502
0.000512
0.000558
0.001487
0.000408
0.000515
0.000657
0.000555
0.000717
0.000488
0.000616
0.000585
0.001948
0.000391
0.000385
0.000397
0.000315
0.000228
0.000305
0.000258
0.000261
0.000256
0.000294
0.000292
0.000288
0.000269
0.000279
0.001374
0.000056
0.000212
0.000220
0.000246
0.000236
0.000265
0.000252
0.000234
0.000247
0.000250
0.000245
0.000245
0.000233
0.000257
0.000257
0.000272
0.000266
0.001799
0.000303
0.000237
0.000241
0.000263
0.000261
0.000262
0.000295
0.000346
0.000535
0.000272
0.000240
0.000257
0.000283
0.000212
0.000058
0.000192
0.001359
0.000331
0.000256
0.000263
0.000234
0.000244
0.000239
0.000231
0.000247
0.000205
0.000254
0.000254
0.000498
0.000364
0.000280
0.000262
0.000263
0.001942
0.000207
0.000250
0.000261
0.000255
0.000270
0.000273
0.000282
0.000267
0.000253
0.000265
0.000320
0.000201
0.000056
0.000203
0.000239
0.000249
0.001445
0.000220
0.000249
0.000246
0.000245
0.000240
0.000264
0.000248
0.000247
0.000250
0.000257
0.000251
0.000258
0.000269
0.000262
0.000269
0.000273
0.000245
0.001765
0.000295
0.001734
0.000267
0.000255
0.000264
0.000272
0.000291
0.000247
0.000204
0.000056
0.000218
0.000228
0.001343
0.000221
0.000269
0.000233
0.000263
0.000255
0.000243
0.000253
0.000245
0.000247
0.000268
0.000257
0.000257
0.000265
0.000257
0.000288
0.000295
0.000231
0.001878
0.000237
0.001825
0.000244
0.000257
0.000275
0.000236
0.000257
0.000248
0.000270
0.000198
0.000056
0.001413
0.000220
0.000238
0.000239
0.000242
0.000239
0.000370
0.000267
0.000254
0.000267
0.000231
0.000265
0.000246
0.000380
0.000367
0.000292
0.000245
0.000281
0.000243
0.000251
0.000274
0.000342
0.000223
0.000261
0.000265
0.000283
0.000267
0.000295
0.000748
0.000304
0.000199
0.000055
0.000219
0.000247
0.000257
0.000311
0.000390
0.000238
0.001657
0.000341
0.000280
0.000260
0.000254
0.000274
0.000258
0.000271
0.000299
0.000306
0.000332
0.000610
0.000355
0.000266
0.000287
0.000306
0.000240
0.000263
0.000325
0.000270
0.000279
0.000234
0.000244
0.000308
0.000425
0.000056
0.000224
0.000477
0.000268
0.000261
0.000249
0.000226
0.000226
0.000252
0.000257
0.000283
0.001497
0.000223
0.000219
0.000250
0.000245
0.000291
0.000261
0.000253
0.000264
0.000269
0.000276
0.000349
0.000543
0.000315
0.000274
0.000284
0.000265
0.000256
0.000238
0.000311
0.000173
0.000055
0.000196
0.000233
0.000263
0.000483
0.000394
0.000251
0.000211
0.000251
0.000256
0.000254
0.000226
0.000250
0.000258
0.000265
0.000244
0.000305
0.000437
0.001104
0.000250
0.000262
0.000256
0.000246
0.000360
0.000419
0.000250
0.000448
0.000446
0.000353
0.000380
0.000235
0.000178
0.000057
0.000214
0.000253
0.000254
0.000262
0.000262
0.000242
0.000458
0.000319
0.000379
0.000309
0.000363
0.000390
0.000392
0.000363
0.000253
0.000238
0.000239
0.000299
0.000377
0.000437
0.001278
0.000218
0.000275
0.000274
0.000238
0.000233
0.000270
0.000314
0.000475
0.000384
0.000248
0.000056
0.000177
0.000238
0.000252
0.000240
0.000251
0.000248
0.000234
0.000257
0.000352
0.000369
0.000399
0.000347
0.000256
0.000214
0.000257
0.000263
0.000244
0.000262
0.000268
0.000247
0.000443
0.000243
0.000443
0.000364
0.000306
0.000249
0.000282
0.000265
0.000253
0.000343
0.000155
0.000055
0.000294
0.000319
0.000298
0.000385
0.000463
0.000330
0.000259
0.000244
0.000247
0.000271
0.000256
0.000261
0.000238
0.000249
0.000244
0.000226
0.000278
0.000363
0.000469
0.000369
0.000218
0.000274
0.000248
0.000244
0.000265
0.000287
0.000257
0.000267
0.000280
0.000264
0.000281
0.000056
0.000417
0.000218
0.000232
0.000247
0.000241
0.000250
0.000247
0.000259
0.000257
0.000258
0.000250
0.000236
0.000438
0.000354
0.000492
0.000229
0.000235
0.000243
0.000261
0.000265
0.000254
0.000273
0.000258
0.000252
0.000277
0.000372
0.000343
0.000607
0.000416
0.000244
0.000171
0.000055
0.000369
0.000211
0.000222
0.000247
0.000251
0.000251
0.000238
0.000248
0.000257
0.000258
0.000222
0.000247
0.000270
0.000228
0.000236
0.000270
0.000251
0.000260
0.000273
0.000273
0.000252
0.000264
0.000255
0.000269
0.000267
0.000238
0.000283
0.000268
0.000242
0.000288
0.000185
0.000056
0.000193
0.000233
0.000241
0.000249
0.000234
0.000253
0.000260
0.000245
0.000257
0.000279
0.000245
0.000216
0.000262
0.000397
0.000253
0.000272
0.000266
0.000267
0.000250
0.000284
0.000269
0.000234
0.000254
0.000246
0.000271
0.000296
0.000227
0.000248
0.000279
0.000256
0.000212
0.000055
0.000206
0.000361
0.000364
0.000283
0.000292
0.000256
0.000267
0.000255
0.000228
0.000240
0.000253
0.000267
0.000246
0.000233
0.000264
0.000258
0.000273
0.000261
0.000243
0.000262
0.000273
0.000267
0.000277
0.000271
0.000260
0.000247
0.000253
0.000275
0.000263
0.000263
0.000198
0.000056
0.000206
0.000224
0.000268
0.000263
0.000485
0.000215
0.000227
0.000225
0.000332
0.000417
0.000475
0.000279
0.000232
0.000245
0.000266
0.000269
0.000236
0.000273
0.000260
0.000262
0.000287
0.000243
0.000258
0.000290
0.000531
0.000493
0.000273
0.000295
0.000261
0.000258
0.000192
0.000056
0.000223
0.000217
0.000248
0.000246
0.000424
0.000557
0.000312
0.000379
0.000202
0.000251
0.000254
0.000251
0.000250
0.000256
0.000258
0.000263
0.000282
0.000239
0.000641
0.000377
0.000292
0.000250
0.000253
0.000286
0.000275
0.000260
0.000260
0.000270
0.000269
0.000316
0.000373
0.000057
0.000276
0.000228
0.000240
0.000236
0.000253
0.000252
0.000231
0.000250
0.000246
0.000254
0.000266
0.000232
0.000244
0.000410
0.000607
0.000342
0.000233
0.000263
0.000259
0.000245
0.000264
0.000277
0.000483
0.000228
0.000258
0.000733
0.000303
0.000464
0.000246
0.000252
0.000187
0.000056
0.000188
0.000227
0.000243
0.000247
0.000259
0.000251
0.000448
0.000280
0.000644
0.000379
0.000212
0.000265
0.000273
0.000276
0.000261
0.000240
0.000241
0.000251
0.000257
0.000394
0.000342
0.000651
0.000381
0.000235
0.000360
0.000373
0.000485
0.000245
0.000268
0.000439
0.000388
0.000056
0.000270
0.000229
0.000438
0.000229
0.000229
0.000245
0.000264
0.000260
0.000234
0.000257
0.000259
0.000395
0.000416
0.000284
0.000243
0.000238
0.000263
0.000246
0.000267
0.000275
0.000281
0.000245
0.000257
0.000285
0.000301
0.000480
0.000476
0.000246
0.000259
0.000269
0.000198
0.000055
0.000224
0.000253
0.000231
0.000239
0.000248
0.000312
0.000362
0.000340
0.000444
0.000283
0.000371
0.000224
0.000248
0.000262
0.000254
0.000240
0.000254
0.000264
0.000264
0.000396
0.000507
0.000334
0.000475
0.000277
0.000384
0.000425
0.000383
0.000242
0.000248
0.000348
0.000378
0.000057
0.000263
0.000243
0.000214
0.000269
0.000253
0.000252
0.000251
0.000250
0.000249
0.000260
0.000241
0.000432
0.000522
0.000267
0.000335
0.000218
0.000266
0.000267
0.000267
0.000234
0.000255
0.000247
0.000276
0.000266
0.000280
0.000348
0.000546
0.000403
0.000234
0.000279
0.000192
0.000056
0.000214
0.000237
0.000261
0.000241
0.000258
0.000339
0.000667
0.000308
0.000362
0.000685
0.000266
0.000215
0.000235
0.000264
0.000247
0.000264
0.000284
0.000270
0.000497
0.000405
0.001507
0.000309
0.000257
0.000257
0.000299
0.000271
0.000330
0.000464
0.000352
0.000337
0.000165
0.000056
0.000212
0.000236
0.000243
0.000249
0.000242
0.000253
0.000277
0.000248
0.000242
0.000341
0.000327
0.000385
0.000270
0.000334
0.000391
0.000344
0.000247
0.000239
0.000273
0.000257
0.000244
0.000253
0.000287
0.000260
0.000305
0.000453
0.000413
0.000300
0.000240
0.000272
0.000181
0.000056
0.000226
0.000250
0.000256
0.000252
0.000243
0.000238
0.000467
0.000211
0.000239
0.000253
0.000243
0.000254
0.000259
0.000255
0.000247
0.000270
0.000262
0.000266
0.000276
0.000247
0.000284
0.000268
0.000287
0.000257
0.000260
0.000276
0.000272
0.000267
0.000264
0.000266
0.000171
0.000056
0.000234
0.000239
0.000305
0.000455
0.000343
0.000252
0.000230
0.000246
0.000262
0.000258
0.000235
0.000258
0.000259
0.000268
0.000238
0.000244
0.000247
0.000270
0.000301
0.000358
0.000544
0.000253
0.000230
0.000286
0.000252
0.000245
0.000264
0.000252
0.000274
0.000280
0.000199
0.000056
0.000387
0.000446
0.000368
0.000207
0.000252
0.000259
0.000405
0.000219
0.000234
0.000255
0.000254
0.000300
0.000452
0.000389
0.001803
0.000264
0.000237
0.000250
0.000279
0.000239
0.000369
0.000462
0.000522
0.000348
0.000227
0.000258
0.000274
0.000427
0.000277
0.000282
0.000168
0.000056
0.000236
0.000392
0.000338
0.000289
0.000501
0.000201
0.000250
0.000256
0.000236
0.000235
0.000262
0.000246
0.000262
0.000360
0.000460
0.000392
0.000213
0.000248
0.000260
0.000263
0.000255
0.000330
0.000217
0.000285
0.000281
0.000534
0.000467
0.000568
0.000250
0.000230
0.000202
0.000056
0.000197
0.000235
0.000260
0.000222
0.000254
0.000244
0.000271
0.000274
0.000356
0.000329
0.000468
0.000350
0.000219
0.000255
0.000263
0.000281
0.000305
0.000228
0.000280
0.000270
0.000238
0.000404
0.000334
0.000404
0.000302
0.000244
0.000267
0.000432
0.000414
0.000320
0.000165
0.000056
0.000187
0.000313
0.000257
0.000440
0.000372
0.000206
0.000238
0.000249
0.000261
0.000253
0.000263
0.000256
0.000223
0.000263
0.000258
0.000360
0.000367
0.000327
0.000311
0.000319
0.000495
0.000229
0.000280
0.000274
0.000298
0.000290
0.000257
0.000302
0.000465
0.000465
0.000208
0.000057
0.000178
0.000236
0.000250
0.000246
0.000240
0.000485
0.000209
0.000258
0.000265
0.000381
0.000428
0.000614
0.000191
0.000247
0.000241
0.000250
0.000258
0.000247
0.000260
0.000246
0.000264
0.000265
0.000378
0.000466
0.000298
0.000422
0.000285
0.000304
0.000316
0.000250
0.000178
0.000056
0.000190
0.000233
0.000251
0.000528
0.000301
0.000281
0.000259
0.000240
0.000227
0.000257
0.000259
0.000246
0.000256
0.000252
0.000260
0.000260
0.000241
0.000247
0.000274
0.000476
0.000394
0.000418
0.000223
0.000256
0.000273
0.000271
0.000263
0.000258
0.000259
0.000272
0.000192
0.000056
0.000301
0.000317
0.000478
0.000261
0.000207
0.000246
0.000329
0.000450
0.000283
0.000212
0.000244
0.000271
0.000271
0.000439
0.000433
0.000288
0.000247
0.000221
0.000250
0.000290
0.000249
0.000259
0.000263
0.000275
0.000261
0.000390
0.000312
0.000423
0.000296
0.000248
0.000173
0.000055
0.000208
0.000236
0.000245
0.000257
0.000247
0.000267
0.000229
0.000259
0.000245
0.000252
0.000264
0.000236
0.000261
0.001466
0.000213
0.000257
0.000262
0.000251
0.000273
0.000276
0.000258
0.000242
0.000281
0.000247
0.000267
0.000287
0.000252
0.000273
0.000265
0.000267
0.000190
0.000055
0.000206
0.000225
0.000257
0.000251
0.000234
0.000263
0.000238
0.000260
0.000230
0.000245
0.000250
0.000263
0.000257
0.000251
0.000254
0.000260
0.000242
0.000260
0.000277
0.000253
0.000256
0.000265
0.000257
0.000233
0.001300
0.000269
0.000625
0.000435
0.000285
0.000241
0.000191
0.000056
0.000203
0.000231
0.000269
0.000230
0.000407
0.000251
0.000238
0.000237
0.000254
0.000457
0.000346
0.000343
0.000229
0.000248
0.000258
0.000259
0.000266
0.000259
0.000240
0.000257
0.000264
0.000259
0.000265
0.000390
0.000567
0.000425
0.000219
0.000269
0.001381
0.000238
0.000180
0.000055
0.000340
0.000419
0.000326
0.000260
0.000225
0.000245
0.000221
0.000252
0.000258
0.000253
0.000249
0.000259
0.000271
0.000322
0.000525
0.000383
0.000319
0.000225
0.000246
0.000258
0.000267
0.000288
0.000247
0.000264
0.000269
0.000261
0.000368
0.000541
0.000330
0.000399
0.000137
0.000057
0.000204
0.000236
0.001274
0.000413
0.000415
0.000357
0.000374
0.000483
0.000270
0.000341
0.000233
0.000226
0.000257
0.000251
0.000250
0.000269
0.000339
0.000568
0.000362
0.000330
0.000257
0.000245
0.000258
0.000509
0.000228
0.000271
0.000251
0.000286
0.000326
0.000551
0.000263
0.000057
0.000385
0.000306
0.000230
0.000225
0.001629
0.000414
0.000303
0.000229
0.000244
0.000246
0.000229
0.000244
0.000247
0.000270
0.000266
0.000244
0.000237
0.000295
0.000341
0.000425
0.000456
0.000243
0.000258
0.000249
0.000254
0.000278
0.000269
0.000240
0.000270
0.000278
0.000196
0.000055
0.000384
0.000347
0.000226
0.000231
0.000249
0.000243
0.000248
0.000252
0.000221
0.000231
0.001407
0.000475
0.000282
0.000224
0.000246
0.000252
0.000279
0.000256
0.000242
0.000274
0.000266
0.000253
0.000261
0.000462
0.000409
0.000419
0.000225
0.000285
0.000261
0.000283
0.000167
0.000055
0.000211
0.000413
0.000242
0.000247
0.000431
0.000352
0.000323
0.000346
0.000463
0.000200
0.000235
0.000251
0.000264
0.000258
0.000263
0.001521
0.000252
0.000290
0.000241
0.000269
0.000281
0.000247
0.000256
0.000250
0.000264
0.000271
0.000518
0.000378
0.000288
0.000277
0.000160
0.000056
0.000198
0.000227
0.000260
0.000236
0.000228
0.000261
0.000239
0.000248
0.000291
0.000326
0.000539
0.000215
0.000258
0.000249
0.000240
0.000269
0.000278
0.000261
0.000270
0.000225
0.000255
0.000312
0.001271
0.000253
0.000262
0.000248
0.000245
0.000266
0.000266
0.000255
0.000181
0.000056
0.000219
0.000361
0.000347
0.000360
0.000251
0.000235
0.000258
0.000261
0.000256
0.000249
0.000256
0.000273
0.000237
0.000254
0.000256
0.000264
0.000264
0.000273
0.000265
0.000248
0.000247
0.000275
0.000275
0.000283
0.000280
0.000272
0.000261
0.000253
0.000265
0.000444
0.001373
0.000056
0.000200
0.000233
0.000240
0.000240
0.000254
0.000259
0.000244
0.000226
0.000249
0.000248
0.000276
0.000252
0.000255
0.000240
0.000250
0.000247
0.001729
0.000249
0.000251
0.000256
0.000247
0.000257
0.000270
0.000258
0.000278
0.000257
0.000272
0.000285
0.000259
0.000257
0.000232
0.000056
0.000263
0.000318
0.001319
0.000230
0.000223
0.000248
0.000255
0.000253
0.000255
0.000259
0.000233
0.000337
0.000403
0.000484
0.000250
0.000214
0.000247
0.000256
0.000259
0.000269
0.000241
0.000271
0.000255
0.000290
0.000276
0.000392
0.000339
0.000400
0.000302
0.000243
0.000188
0.000057
0.000205
0.000250
0.000242
0.000249
0.000250
0.000228
0.000241
0.000338
0.000337
0.001344
0.000261
0.000206
0.000251
0.000268
0.000260
0.000267
0.000256
0.000253
0.000306
0.000486
0.000299
0.000278
0.000246
0.000245
0.000272
0.000282
0.000275
0.000286
0.000270
0.000276
0.000190
0.000055
0.000264
0.000418
0.000379
0.000216
0.000226
0.000241
0.000248
0.000275
0.000266
0.000249
0.000227
0.000270
0.000441
0.000584
0.000393
0.001448
0.000247
0.000259
0.000334
0.000354
0.000500
0.000402
0.000471
0.000413
0.000208
0.000268
0.000285
0.000249
0.000270
0.000270
0.000196
0.000056
0.000227
0.000277
0.000533
0.000504
0.000224
0.000255
0.000232
0.000225
0.000249
0.000257
0.000249
0.000266
0.000261
0.000246
0.000267
0.000290
0.000385
0.000441
0.000339
0.001324
0.000266
0.000246
0.000263
0.000261
0.000479
0.000418
0.000373
0.000266
0.000283
0.000258
0.000188
0.000055
0.000201
0.000245
0.000245
0.000245
0.000250
0.000281
0.000581
0.000267
0.000355
0.000216
0.000248
0.000259
0.000267
0.000264
0.000254
0.000265
0.000266
0.000269
0.000253
0.000300
0.000476
0.000410
0.000307
0.001349
0.000406
0.000235
0.000288
0.000387
0.000515
0.000294
0.000314
0.000056
0.000200
0.000249
0.000230
0.000248
0.000254
0.000252
0.001719
0.000211
0.000213
0.000241
0.000255
0.000248
0.000258
0.000325
0.000327
0.000287
0.000276
0.000372
0.000492
0.000382
0.000270
0.000280
0.000229
0.000247
0.001501
0.000492
0.000263
0.000470
0.000327
0.000291
0.000154
0.000056
0.000194
0.000249
0.000257
0.000254
0.000243
0.000257
0.001714
0.000229
0.000244
0.000260
0.000339
0.000406
0.001437
0.000369
0.000386
0.000238
0.000262
0.000233
0.000272
0.000269
0.001537
0.000561
0.000450
0.000239
0.000251
0.000245
0.000262
0.000281
0.000240
0.000267
0.000184
0.000055
0.000188
0.000243
0.000269
0.000245
0.000261
0.000270
0.000282
0.000256
0.000254
0.000251
0.000253
0.000248
0.000263
0.000290
0.000231
0.001496
0.000282
0.000231
0.000264
0.000278
0.000272
0.000252
0.000436
0.001267
0.000278
0.000234
0.000274
0.000272
0.000372
0.000252
0.000195
0.000056
0.000217
0.000248
0.000223
0.000246
0.000238
0.000232
0.000230
0.001698
0.000263
0.000223
0.000241
0.000382
0.000218
0.000232
0.000247
0.001390
0.000228
0.000265
0.000263
0.000247
0.000264
0.000347
0.000275
0.001308
0.000288
0.000255
0.000246
0.000261
0.001395
0.000275
0.000201
0.000058
0.000241
0.000329
0.000212
0.000242
0.000255
0.000233
0.000267
0.000267
0.000263
0.000251
0.000258
0.000264
0.000253
0.000272
0.000277
0.001504
0.000250
0.000269
0.000252
0.000248
0.000280
0.000267
0.000246
0.001504
0.000376
0.000217
0.000260
0.001276
0.000267
0.000247
0.000209
0.000057
0.000246
0.000396
0.000294
0.000220
0.000236
0.000233
0.000261
0.000266
0.000259
0.000276
0.000230
0.000252
0.000265
0.000298
0.000384
0.001224
0.000234
0.000248
0.000266
0.000279
0.000224
0.000246
0.000246
0.000335
0.001277
0.000264
0.000229
0.000260
0.001353
0.000353
0.000184
0.000057
0.000241
0.000250
0.000221
0.000225
0.000241
0.000256
0.000245
0.000250
0.000269
0.000254
0.000252
0.000238
0.000257
0.000335
0.000415
0.001462
0.000210
0.000258
0.000295
0.000532
0.000262
0.000436
0.001308
0.000287
0.000252
0.000269
0.000261
0.001294
0.000314
0.000494
0.000422
0.000056
0.000230
0.000251
0.000255
0.000252
0.000255
0.000253
0.000274
0.000245
0.000265
0.000260
0.000352
0.000478
0.001286
0.000238
0.000266
0.000264
0.000279
0.000221
0.000247
0.000242
0.000349
0.001233
0.000250
0.000249
0.000255
0.000246
0.001509
0.000462
0.000462
0.000215
0.000182
0.000056
0.000202
0.000238
0.000244
0.000235
0.000256
0.000268
0.000229
0.000292
0.000454
0.000457
0.000246
0.001490
0.000211
0.000250
0.000263
0.000256
0.000259
0.000281
0.001699
0.000257
0.000392
0.000338
0.001247
0.000401
0.000294
0.000325
0.000257
0.000262
0.000262
0.000273
0.000185
0.000056
0.000196
0.000238
0.000325
0.000238
0.000390
0.000516
0.000266
0.000277
0.001465
0.000241
0.000386
0.000257
0.000255
0.000323
0.000354
0.001310
0.000272
0.000237
0.000236
0.000261
0.001520
0.000386
0.000287
0.000281
0.000262
0.000249
0.000443
0.000366
0.000221
0.000248
0.000239
0.000055
0.000264
0.000351
0.000325
0.000283
0.000195
0.001529
0.000203
0.000267
0.000262
0.000267
0.000272
0.000244
0.000290
0.001498
0.000249
0.000226
0.000434
0.001198
0.000326
0.000457
0.000396
0.000229
0.000244
0.000255
0.000277
0.000247
0.000453
0.000228
0.000267
0.000270
0.000212
0.000056
0.000196
0.000375
0.000268
0.000345
0.001290
0.000281
0.000305
0.000234
0.000242
0.000245
0.000259
0.000358
0.001449
0.000262
0.000230
0.000243
0.001394
0.000351
0.000374
0.000414
0.000372
0.000235
0.000245
0.000255
0.000263
0.000292
0.000265
0.000256
0.000262
0.000251
0.000196
0.000058
0.000188
0.000446
0.001418
0.000203
0.000277
0.000279
0.000241
0.000246
0.000260
0.000396
0.001386
0.000209
0.000266
0.000253
0.000264
0.001254
0.000726
0.000297
0.000304
0.000412
0.000299
0.000248
0.000264
0.000260
0.000273
0.000279
0.000272
0.000329
0.000420
0.000422
0.001372
0.000056
0.000199
0.000253
0.000243
0.000228
0.000358
0.000427
0.000384
0.001271
0.000244
0.000243
0.000249
0.001394
0.000471
0.000335
0.000218
0.000420
0.000249
0.000228
0.000265
0.000278
0.000242
0.000278
0.000273
0.000257
0.000254
0.000282
0.000515
0.000412
0.001491
0.000233
0.000180
0.000056
0.000194
0.000254
0.000379
0.000509
0.001242
0.000276
0.000256
0.000258
0.000242
0.000254
0.000251
0.000313
0.000312
0.000486
0.000348
0.000232
0.000259
0.000274
0.000242
0.000275
0.000264
0.000259
0.000252
0.000273
0.000251
0.000433
0.000434
0.000381
0.000300
0.001399
0.000179
0.000056
0.000186
0.000248
0.000272
0.000474
0.000318
0.000333
0.000298
0.000330
0.000267
0.000263
0.000255
0.000265
0.000251
0.000309
0.000236
0.000300
0.000578
0.000284
0.000318
0.000366
0.000274
0.000401
0.000226
0.000245
0.000268
0.000263
0.000247
0.000308
0.000438
0.000417
0.000278
0.000057
0.000192
0.001407
0.000228
0.000339
0.000411
0.000409
0.000439
0.000260
0.000217
0.000248
0.000263
0.000244
0.000260
0.000276
0.000260
0.000251
0.000264
0.001362
0.000279
0.000233
0.000252
0.000277
0.000273
0.000273
0.000272
0.000249
0.000278
0.000247
0.000341
0.000389
0.000393
0.000056
0.000220
0.000253
0.000225
0.001496
0.000330
0.000233
0.000230
0.000245
0.000233
0.000235
0.000260
0.000274
0.000249
0.000252
0.000267
0.000254
0.000245
0.000271
0.000268
0.000247
0.001436
0.000230
0.000248
0.000276
0.000241
0.000260
0.000267
0.000260
0.000278
0.000489
0.000348
0.000056
0.000187
0.000230
0.000394
0.000281
0.000250
0.000252
0.001548
0.000412
0.000217
0.000220
0.000254
0.000311
0.000334
0.000235
0.000245
0.000228
0.000246
0.000295
0.000234
0.000261
0.000606
0.000372
0.001130
0.000272
0.000227
0.000266
0.000270
0.000260
0.000273
0.000261
0.000344
0.000055
0.000259
0.000335
0.000204
0.000244
0.000249
0.000238
0.000251
0.000229
0.000288
0.001616
0.000416
0.000234
0.000235
0.000251
0.000257
0.000240
0.000276
0.000260
0.000262
0.000309
0.000308
0.000488
0.000457
0.001362
0.000224
0.000267
0.000275
0.000257
0.000272
0.000273
0.000583
0.000056
0.000178
0.000239
0.000241
0.000242
0.000221
0.000243
0.000260
0.000274
0.000249
0.001632
0.000291
0.000259
0.000265
0.000255
0.000466
0.000261
0.000523
0.000375
0.000300
0.000307
0.000478
0.000445
0.001269
0.000266
0.000229
0.000267
0.001678
0.000556
0.000532
0.000322
0.000142
0.000057
0.000194
0.000230
0.000242
0.000235
0.000262
0.000244
0.000237
0.000509
0.000539
0.000371
0.000292
0.000213
0.000241
0.000263
0.000282
0.000247
0.000243
0.000255
0.000252
0.000273
0.000276
0.000412
0.001354
0.000220
0.000248
0.000273
0.001893
0.000395
0.000374
0.000352
0.000151
0.000056
0.000216
0.000251
0.001564
0.000280
0.000382
0.000217
0.000239
0.000261
0.000249
0.000285
0.000394
0.000353
0.000366
0.000272
0.000307
0.000519
0.000395
0.001190
0.000276
0.000232
0.000250
0.000263
0.000273
0.000420
0.000699
0.000362
0.000247
0.000269
0.000271
0.000278
0.000187
0.000056
0.000201
0.000239
0.000241
0.001533
0.000266
0.000227
0.000237
0.000256
0.000245
0.000254
0.000254
0.000285
0.000258
0.000266
0.000341
0.000383
0.000462
0.000247
0.001365
0.000231
0.000265
0.000272
0.000248
0.000262
0.000428
0.000563
0.000320
0.000270
0.000283
0.000221
0.000458
0.000056
0.000193
0.000246
0.000246
0.001600
0.000239
0.000231
0.000262
0.000237
0.000255
0.000261
0.000254
0.000257
0.000268
0.000234
0.000494
0.000452
0.001355
0.000755
0.000254
0.000344
0.000257
0.000229
0.000239
0.000274
0.001682
0.000802
0.000234
0.000258
0.000281
0.000290
0.000177
0.000055
0.000189
0.000244
0.000250
0.000247
0.000273
0.000229
0.000240
0.000252
0.000244
0.000231
0.000291
0.000284
0.000249
0.000249
0.000263
0.000249
0.000266
0.001610
0.000702
0.000416
0.000272
0.000227
0.000247
0.000285
0.000261
0.000264
0.000270
0.000255
0.001394
0.000386
0.000368
0.000056
0.000196
0.000227
0.000256
0.000248
0.000263
0.000229
0.000257
0.000251
0.000245
0.000266
0.000436
0.000273
0.000425
0.000340
0.000206
0.000246
0.000260
0.001395
0.000691
0.000525
0.000280
0.000274
0.000230
0.000249
0.000273
0.000254
0.000277
0.000243
0.001487
0.000437
0.000195
0.000056
0.000208
0.000230
0.000246
0.000242
0.000246
0.000253
0.000234
0.000248
0.000272
0.000277
0.000433
0.000294
0.000336
0.000219
0.000243
0.000242
0.000260
0.000257
0.001638
0.000547
0.000522
0.000279
0.000228
0.000263
0.000253
0.000267
0.000261
0.000300
0.000250
0.001427
0.000263
0.000056
0.000228
0.000217
0.000232
0.000256
0.000257
0.000240
0.000267
0.000295
0.000364
0.000546
0.000270
0.000353
0.000383
0.000222
0.000245
0.000244
0.000276
0.000263
0.000266
0.001921
0.000335
0.000239
0.000439
0.000242
0.000253
0.000259
0.000274
0.000258
0.000270
0.000276
0.000291
0.000056
0.000269
0.000250
0.000236
0.000255
0.000254
0.000233
0.000229
0.000228
0.000273
0.000252
0.000248
0.000230
0.000306
0.000418
0.000488
0.000437
0.000220
0.000268
0.000247
0.000259
0.000257
0.000282
0.001466
0.001063
0.000213
0.000247
0.000269
0.000266
0.000282
0.000245
0.000196
0.000056
0.000195
0.001332
0.000297
0.000211
0.000249
0.000235
0.000248
0.000243
0.000241
0.000252
0.000253
0.000261
0.000243
0.000395
0.000387
0.000441
0.000260
0.000250
0.000279
0.000253
0.000267
0.000238
0.000248
0.000267
0.001343
0.000669
0.000307
0.000397
0.000364
0.000398
0.000298
0.000056
0.000205
0.000246
0.000353
0.001327
0.000204
0.000281
0.000209
0.000256
0.000255
0.000259
0.000261
0.000238
0.000257
0.000436
0.000490
0.000299
0.000229
0.000292
0.000327
0.000227
0.000231
0.000273
0.000231
0.000272
0.000291
0.001516
0.000740
0.000300
0.000276
0.000281
0.000187
0.000056
0.000210
0.000240
0.000487
0.000310
0.001313
0.000253
0.000241
0.000221
0.000224
0.000251
0.000249
0.000254
0.000229
0.000260
0.000236
0.000254
0.000271
0.000230
0.000259
0.000254
0.000268
0.000268
0.000328
0.000313
0.000206
0.000271
0.000264
0.001463
0.000265
0.000233
0.000170
0.000055
0.000202
0.000250
0.000226
0.000272
0.000355
0.000381
0.000407
0.000250
0.001577
0.000254
0.000277
0.000479
0.000388
0.000207
0.000431
0.000240
0.000236
0.000266
0.000268
0.000270
0.000278
0.000268
0.000259
0.000268
0.000240
0.000463
0.000362
0.000323
0.001583
0.000220
0.000189
0.000057
0.000222
0.000254
0.000236
0.000249
0.000241
0.000246
0.000261
0.000276
0.000435
0.002047
0.000231
0.000245
0.000253
0.000257
0.000259
0.000254
0.000277
0.000258
0.000317
0.000365
0.000357
0.000478
0.001445
0.000256
0.000528
0.000228
0.001772
0.000240
0.000258
0.001530
0.000163
0.000073
0.000322
0.000477
0.000394
0.000243
0.000264
0.000223
0.000261
0.000268
0.000263
0.000233
0.000250
0.000345
0.000416
0.000489
0.000309
0.000214
0.000223
0.001574
0.000237
0.000572
0.001900
0.000277
0.000242
0.001563
0.002000
0.000733
0.000274
0.000258
0.000352
0.000412
0.000294
0.000055
0.000199
0.000245
0.000245
0.000245
0.001415
0.001742
0.001075
0.000200
0.000242
0.001575
0.001993
0.000202
0.000242
0.000422
0.000332
0.000381
0.000338
0.000502
0.000212
0.000234
0.000252
0.000262
0.000275
0.001591
0.001259
0.001380
0.000261
0.000309
0.000253
0.000314
0.000346
0.000056
0.000214
0.000244
0.000238
0.000240
0.000228
0.000243
0.000245
0.000252
0.000258
0.000248
0.000240
0.000334
0.000417
0.000449
0.000306
0.000250
0.000259
0.000265
0.000264
0.000267
0.000253
0.000263
0.001572
0.000417
0.002110
0.000244
0.000297
0.000271
0.000496
0.000359
0.000188
0.000057
0.000228
0.000434
0.000392
0.000294
0.000193
0.000231
0.000256
0.000247
0.000236
0.000246
0.000249
0.000261
0.000262
0.001606
0.001359
0.001222
0.000281
0.000234
0.000259
0.000260
0.000277
0.000284
0.000238
0.000254
0.002209
0.000261
0.000247
0.000287
0.000324
0.000306
0.000219
0.000055
0.000225
0.000364
0.000553
0.000319
0.000231
0.000235
0.000247
0.000263
0.001915
0.001404
0.000224
0.000334
0.000383
0.000412
0.000269
0.000213
0.000256
0.000268
0.000285
0.000251
0.000257
0.000259
0.000467
0.000240
0.000269
0.000266
0.000249
0.000276
0.000279
0.000250
0.000204
0.000056
0.000193
0.000247
0.000250
0.000237
0.000256
0.000269
0.001546
0.001419
0.001319
0.000246
0.000230
0.000235
0.000266
0.000266
0.000248
0.000246
0.000249
0.002107
0.000260
0.000217
0.000270
0.000256
0.000256
0.000277
0.000260
0.000258
0.000272
0.000251
0.000283
0.000251
0.000173
0.000055
0.000206
0.002703
0.001362
0.000228
0.000302
0.000299
0.000228
0.000270
0.000256
0.000238
0.000255
0.000250
0.000230
0.000253
0.000270
0.000253
0.000270
0.000261
0.000256
0.000266
0.000268
0.000283
0.000279
0.000257
0.000254
0.000241
0.000265
0.000268
0.000269
0.000270
0.000366
0.000056
0.001541
0.000257
0.001251
0.000215
0.000222
0.000246
0.000263
0.000249
0.000245
0.000323
0.000393
0.000364
0.000297
0.000198
0.000248
0.002156
0.000236
0.000245
0.000270
0.000578
0.000323
0.000278
0.000235
0.000265
0.000249
0.000254
0.000264
0.000275
0.000273
0.001638
0.002124
0.000059
0.000208
0.000224
0.000435
0.000301
0.000333
0.000267
0.000206
0.000234
0.000252
0.000262
0.000264
0.000243
0.000227
0.000255
0.000262
0.000249
0.000282
0.000645
0.000359
0.000252
0.000225
0.000274
0.000300
0.000234
0.000249
0.000248
0.000266
0.000274
0.000248
0.000334
0.000333
0.000057
0.001107
0.000283
0.000306
0.000490
0.000247
0.000226
0.000228
0.000239
0.000250
0.002292
0.000401
0.000366
0.000214
0.000379
0.000280
0.000261
0.000274
0.000248
0.000258
0.000235
0.000248
0.000277
0.000669
0.000379
0.001877
0.001372
0.000567
0.000433
0.000224
0.000284
0.000197
0.000057
0.000331
0.000227
0.000246
0.000247
0.000244
0.000231
0.000260
0.000250
0.000272
0.000230
0.000257
0.000225
0.000249
0.000256
0.000425
0.000489
0.001848
0.001290
0.000440
0.000450
0.000464
0.000241
0.000237
0.000258
0.002128
0.000563
0.000391
0.000228
0.000270
0.000285
0.000189
0.000055
0.000219
0.000222
0.000255
0.000262
0.000289
0.000308
0.000407
0.000311
0.000280
0.000239
0.000248
0.000248
0.000259
0.002107
0.000398
0.000362
0.000209
0.000253
0.000270
0.000261
0.002282
0.000498
0.000267
0.000221
0.000260
0.000249
0.000259
0.000274
0.000279
0.000280
0.000193
0.000055
0.000233
0.000347
0.000544
0.000328
0.000265
0.000215
0.000238
0.000249
0.000264
0.000253
0.001987
0.000354
0.000278
0.000272
0.000240
0.000265
0.000267
0.000247
0.002198
0.000456
0.000217
0.000265
0.000268
0.000267
0.000261
0.000242
0.000286
0.000252
0.000263
0.000268
0.000172
0.000055
0.000189
0.000237
0.000254
0.000226
0.000232
0.000264
0.000239
0.000243
0.000232
0.002180
0.000232
0.000280
0.000214
0.000428
0.000236
0.000253
0.000272
0.000290
0.000254
0.000251
0.001967
0.000274
0.000342
0.000365
0.000433
0.000425
0.000282
0.000252
0.000249
0.000264
0.000190
0.000056
0.000218
0.000252
0.000217
0.000247
0.000249
0.000331
0.000213
0.002301
0.000243
0.000237
0.000263
0.000257
0.000233
0.000256
0.000305
0.002127
0.000592
0.000214
0.000258
0.000238
0.000268
0.000254
0.000298
0.000279
0.000239
0.000255
0.000290
0.000248
0.000269
0.000264
0.000195
0.000055
0.001829
0.001441
0.000205
0.000228
0.000239
0.000254
0.000248
0.000298
0.000403
0.000355
0.002144
0.000260
0.000231
0.000263
0.000331
0.000495
0.000368
0.000316
0.000203
0.000253
0.000244
0.000268
0.000266
0.000228
0.000258
0.000264
0.000270
0.000262
0.000385
0.000808
0.000109
0.000057
0.000204
0.000248
0.000254
0.000246
0.000272
0.000244
0.000257
0.000241
0.001514
0.002087
0.000588
0.000276
0.000394
0.000693
0.000367
0.000219
0.000265
0.000246
0.000264
0.000257
0.000257
0.000243
0.000247
0.001838
0.000335
0.001389
0.000281
0.000275
0.000283
0.000300
0.000377
0.000057
0.001948
0.000220
0.000224
0.000234
0.000287
0.000378
0.000428
0.000312
0.000295
0.000210
0.000235
0.000259
0.000257
0.000256
0.000279
0.000241
0.000257
0.000270
0.001833
0.000247
0.000233
0.000253
0.000276
0.000277
0.000274
0.000255
0.001469
0.000332
0.000252
0.000246
0.000169
0.000056
0.000206
0.000227
0.000249
0.000260
0.000231
0.000239
0.000329
0.000345
0.000338
0.000377
0.000220
0.000263
0.000241
0.000329
0.000430
0.000310
0.000216
0.000263
0.000260
0.000381
0.000482
0.000437
0.000219
0.000254
0.000257
0.000257
0.000250
0.000273
0.000277
0.000259
0.000204
0.000056
0.001447
0.000443
0.000211
0.001941
0.000284
0.000686
0.000155
0.000320
0.000223
0.000252
0.000247
0.000249
0.000235
0.000253
0.000266
0.000258
0.000449
0.000259
0.000482
0.000363
0.000318
0.000231
0.000254
0.000269
0.000266
0.000279
0.000255
0.000273
0.000380
0.000390
0.001421
0.000056
0.000197
0.000229
0.002077
0.000371
0.000240
0.000259
0.000255
0.000245
0.000267
0.000265
0.000215
0.000253
0.000249
0.000264
0.000270
0.000376
0.000711
0.001733
0.000225
0.000249
0.000259
0.000260
0.000368
0.000484
0.001552
0.000279
0.000365
0.001921
0.000259
0.000259
0.000198
0.000056
0.000216
0.000229
0.000233
0.000248
0.000224
0.000250
0.000251
0.000287
0.000328
0.000278
0.000376
0.000360
0.000335
0.000302
0.000230
0.000273
0.000269
0.000239
0.000264
0.000244
0.000305
0.000297
0.000266
0.000260
0.000267
0.001504
0.000296
0.000388
0.002067
0.000225
0.000180
0.000057
0.000216
0.000235
0.000238
0.000241
0.000522
0.000176
0.000249
0.000420
0.000295
0.000303
0.000308
0.000207
0.000260
0.000265
0.000271
0.000318
0.000394
0.000465
0.000256
0.000404
0.000551
0.000508
0.001492
0.000234
0.000251
0.002076
0.000265
0.000212
0.000254
0.000294
0.000184
0.000056
0.000199
0.000245
0.000228
0.000244
0.000249
0.000270
0.000250
0.000276
0.000248
0.000282
0.001806
0.000314
0.000373
0.000315
0.000427
0.000383
0.000334
0.001502
0.000243
0.000275
0.002269
0.000428
0.000233
0.000243
0.000268
0.000266
0.000502
0.000225
0.000255
0.000279
0.000199
0.000056
0.000377
0.000303
0.000330
0.000292
0.000201
0.000252
0.000255
0.000269
0.000256
0.000289
0.000232
0.000244
0.000269
0.000243
0.000329
0.001532
0.000320
0.000199
0.000296
0.001976
0.000291
0.000282
0.000254
0.000262
0.000243
0.000283
0.000278
0.000250
0.000256
0.000262
0.000197
0.000056
0.000208
0.000464
0.001998
0.000254
0.000251
0.000220
0.000256
0.000514
0.000267
0.000383
0.001308
0.000375
0.002137
0.000297
0.000228
0.000225
0.000270
0.000274
0.000255
0.000236
0.000289
0.000289
0.000261
0.000356
0.000523
0.000321
0.000327
0.002227
0.000537
0.000483
0.000340
0.000055
0.000218
0.000223
0.000248
0.001963
0.000230
0.000221
0.000254
0.000241
0.000239
0.000261
0.000239
0.000264
0.000242
0.000271
0.000447
0.001485
0.000250
0.000255
0.000253
0.000252
0.000235
0.000256
0.000262
0.000303
0.000287
0.000436
0.000489
0.000234
0.001608
0.000290
0.000147
0.000056
0.000196
0.000222
0.000248
0.000235
0.000249
0.000260
0.000263
0.000241
0.000251
0.000328
0.000439
0.001386
0.000244
0.000215
0.000247
0.000258
0.000257
0.000256
0.000496
0.000299
0.000451
0.000385
0.000225
0.001581
0.000223
0.000269
0.000281
0.000279
0.000263
0.000266
0.000190
0.000055
0.000209
0.000236
0.000262
0.000265
0.000243
0.000252
0.000231
0.000256
0.000258
0.000232
0.000253
0.000259
0.000250
0.001486
0.000370
0.000206
0.000246
0.000259
0.000286
0.000315
0.000373
0.000268
0.000238
0.000274
0.000254
0.000267
0.000258
0.001410
0.000288
0.000228
0.000173
0.000056
0.000199
0.000236
0.000257
0.000264
0.000256
0.000232
0.000247
0.000264
0.000217
0.000267
0.000248
0.000257
0.000224
0.000334
0.000382
0.000334
0.000247
0.000247
0.001637
0.000238
0.000245
0.000256
0.000283
0.000282
0.000371
0.000378
0.000458
0.000258
0.000253
0.001607
0.000169
0.000057
0.000304
0.000324
0.000469
0.000204
0.000247
0.000210
0.000244
0.000271
0.000256
0.000236
0.000249
0.000240
0.001463
0.000296
0.000303
0.000213
0.000257
0.000258
0.000269
0.000262
0.000250
0.000234
0.000259
0.000275
0.000279
0.000355
0.000428
0.000434
0.000215
0.000255
0.000187
0.000055
0.000223
0.000225
0.000570
0.000217
0.000435
0.000223
0.000246
0.000251
0.000247
0.000261
0.000244
0.000219
0.000258
0.000243
0.001271
0.000305
0.000226
0.000244
0.000270
0.000262
0.000255
0.000257
0.000253
0.000257
0.000260
0.000255
0.000350
0.000689
0.000417
0.000224
0.000182
0.000055
0.000207
0.001553
0.000245
0.000384
0.000439
0.000349
0.000209
0.000262
0.000264
0.000249
0.000238
0.000265
0.000271
0.000270
0.000259
0.001529
0.000253
0.000285
0.000261
0.000255
0.000262
0.000251
0.000266
0.000262
0.000261
0.000294
0.000438
0.000329
0.000357
0.000231
0.000198
0.000056
0.000194
0.000255
0.000233
0.001614
0.000429
0.000340
0.000227
0.000236
0.000256
0.000272
0.000282
0.000249
0.000243
0.000269
0.000232
0.000305
0.000367
0.001324
0.000243
0.000235
0.001503
0.000282
0.000599
0.000434
0.000306
0.000228
0.000263
0.000462
0.000244
0.000259
0.000185
0.000055
0.000285
0.000229
0.000243
0.000243
0.000249
0.000257
0.000240
0.000255
0.000249
0.000243
0.000255
0.000253
0.000330
0.000520
0.001632
0.001485
0.000379
0.000570
0.000295
0.000221
0.000226
0.000261
0.000253
0.000264
0.000247
0.000262
0.000260
0.000274
0.001534
0.000330
0.000158
0.000056
0.000237
0.000343
0.000355
0.000331
0.000229
0.000229
0.000240
0.000377
0.000434
0.000328
0.002186
0.000320
0.000820
0.000372
0.000471
0.000279
0.000313
0.000401
0.000323
0.000280
0.000411
0.000223
0.001566
0.000527
0.000215
0.000266
0.000255
0.000249
0.000261
0.000269
0.000195
0.000056
0.000227
0.000252
0.000252
0.000257
0.000237
0.001660
0.000878
0.000999
0.000209
0.000230
0.000260
0.000257
0.000268
0.000257
0.000255
0.000243
0.000256
0.000262
0.000269
0.000280
0.001423
0.000318
0.000252
0.000233
0.000228
0.000256
0.000265
0.000286
0.000260
0.000285
0.001903
0.000073
0.000192
0.000211
0.001552
0.000893
0.000323
0.000368
0.000245
0.000251
0.000226
0.000261
0.000244
0.000251
0.000246
0.002015
0.000450
0.000211
0.000255
0.000255
0.000258
0.000260
0.000190
