0.000347
0.017819
0.003585
0.000301
0.000262
0.000296
0.000326
0.000229
0.000336
0.000276
0.000255
0.000332
0.000528
0.000534
0.000418
0.000251
0.000280
0.000337
0.000356
0.000421
0.000313
0.001915
0.000701
0.000273
0.000243
0.000317
0.000308
0.000305
0.000422
0.000399
0.000500
0.000396
0.000060
0.000208
0.000271
0.000269
0.000293
0.000248
0.000248
0.000276
0.000291
0.000264
0.000283
0.000463
0.000377
0.000323
0.000254
0.000367
0.000352
0.000363
0.000258
0.000248
0.001715
0.000295
0.000261
0.000451
0.000261
0.000265
0.000273
0.000292
0.000293
0.000282
0.000453
0.000286
0.000057
0.000229
0.000256
0.000259
0.000263
0.000249
0.000248
0.000263
0.000253
0.000286
0.001670
0.000225
0.000242
0.000261
0.000272
0.000278
0.000252
0.000265
0.000250
0.000354
0.001798
0.000242
0.000281
0.000443
0.000427
0.000382
0.000252
0.000250
0.000463
0.000519
0.000758
0.000200
0.000057
0.000224
0.000243
0.000248
0.000247
0.000282
0.000277
0.000422
0.000412
0.000399
0.000262
0.000237
0.000253
0.000245
0.000252
0.000257
0.000258
0.000239
0.000271
0.000297
0.000325
0.001672
0.000280
0.000242
0.000421
0.000496
0.000525
0.000624
0.000560
0.000336
0.000236
0.000191
0.000057
0.000216
0.000255
0.000295
0.000209
0.000288
0.000226
0.000354
0.000335
0.001505
0.000220
0.000249
0.000244
0.000256
0.000254
0.000262
0.000305
0.000507
0.000591
0.001347
0.000303
0.000242
0.000414
0.000243
0.000243
0.000261
0.000259
0.000267
0.000272
0.000261
0.000270
0.000192
0.000057
0.000211
0.000241
0.000246
0.000265
0.000238
0.000240
0.000243
0.000253
0.000236
0.000258
0.001625
0.000267
0.000270
0.000207
0.000256
0.000247
0.000243
0.000250
0.000252
0.000255
0.000293
0.001643
0.000288
0.000248
0.000429
0.000261
0.000256
0.000260
0.000263
0.000271
0.000198
0.000058
0.000202
0.000244
0.000239
0.000247
0.000246
0.000247
0.000261
0.000236
0.000263
0.000261
0.000244
0.000258
0.000256
0.000277
0.001628
0.000278
0.000299
0.000215
0.000252
0.000274
0.000271
0.000234
0.000245
0.000268
0.001791
0.000401
0.000327
0.000377
0.000233
0.000278
0.000197
0.000057
0.000204
0.000242
0.000242
0.000287
0.000240
0.000260
0.000281
0.000403
0.000428
0.000403
0.000208
0.000245
0.000252
0.000249
0.001565
0.000531
0.000340
0.000390
0.000314
0.000225
0.000276
0.000279
0.000272
0.001738
0.000504
0.000464
0.000251
0.000243
0.000257
0.000260
0.000187
0.000058
0.000217
0.000231
0.000252
0.000263
0.000330
0.000433
0.000457
0.000216
0.000215
0.000247
0.000260
0.000246
0.000246
0.001700
0.000488
0.000306
0.000228
0.000250
0.000266
0.000292
0.000242
0.000258
0.000273
0.001963
0.000235
0.000385
0.000239
0.000273
0.000253
0.000395
0.000322
0.000056
0.000217
0.000380
0.000367
0.000267
0.000261
0.000244
0.000251
0.000256
0.000238
0.000240
0.000237
0.000249
0.001550
0.000394
0.000271
0.000230
0.000255
0.000251
0.000251
0.000302
0.000281
0.000302
0.000245
0.001805
0.000253
0.000503
0.000240
0.000260
0.000252
0.000270
0.000270
0.000057
0.000418
0.000520
0.000612
0.000208
0.000233
0.000273
0.000232
0.000222
0.000260
0.000249
0.000256
0.001696
0.000249
0.000445
0.000369
0.000217
0.000239
0.000230
0.000251
0.000263
0.000248
0.001858
0.000225
0.000467
0.001859
0.000567
0.000323
0.000245
0.000260
0.000266
0.000181
0.000057
0.000198
0.000239
0.000248
0.000243
0.000255
0.001620
0.000242
0.000243
0.000255
0.000252
0.000242
0.000242
0.000250
0.000256
0.000283
0.000433
0.000599
0.000252
0.000237
0.000271
0.000287
0.000223
0.000245
0.000428
0.000442
0.000315
0.000275
0.000806
0.000225
0.000252
0.000205
0.000057
0.000225
0.000234
0.000250
0.000249
0.000246
0.000235
0.000236
0.000356
0.000480
0.001719
0.000218
0.000233
0.000263
0.000233
0.000256
0.000301
0.000386
0.000499
0.000353
0.000235
0.000265
0.000296
0.000282
0.000250
0.000272
0.000430
0.000345
0.000668
0.000409
0.000439
0.000183
0.000058
0.000190
0.000252
0.000243
0.000243
0.000235
0.000236
0.000250
0.000257
0.000233
0.000281
0.000337
0.000437
0.001397
0.000249
0.000236
0.000250
0.000253
0.000263
0.000235
0.000255
0.000318
0.000366
0.000485
0.000237
0.000274
0.000251
0.000258
0.000273
0.000261
0.000265
0.000370
0.000056
0.000211
0.000252
0.000209
0.000314
0.000497
0.000441
0.000218
0.000264
0.000239
0.000259
0.000257
0.000233
0.000317
0.000225
0.000240
0.000489
0.000412
0.001639
0.000295
0.000215
0.000260
0.000263
0.000251
0.000267
0.000248
0.000412
0.000509
0.000322
0.000419
0.000246
0.000200
0.000057
0.000238
0.000430
0.000232
0.000220
0.000290
0.000218
0.000252
0.000605
0.000411
0.000234
0.000236
0.000277
0.000261
0.000238
0.000529
0.000330
0.000224
0.000273
0.000389
0.001631
0.000274
0.000235
0.000516
0.000254
0.000287
0.000273
0.000252
0.000324
0.000569
0.000395
0.000248
0.000057
0.000215
0.000239
0.000233
0.000239
0.000423
0.000306
0.000291
0.000221
0.000382
0.000499
0.000422
0.000204
0.000235
0.000240
0.000258
0.000272
0.000253
0.000253
0.000235
0.000347
0.000284
0.000476
0.001730
0.000222
0.000258
0.000253
0.000278
0.000347
0.000412
0.000694
0.000453
0.000059
0.000213
0.000333
0.000316
0.000410
0.000384
0.000207
0.000255
0.000257
0.000537
0.000468
0.000219
0.000249
0.000228
0.000270
0.000264
0.000230
0.000255
0.000276
0.000267
0.000256
0.000268
0.000400
0.000743
0.001265
0.000323
0.000431
0.000424
0.000241
0.000403
0.000447
0.000341
0.000057
0.000234
0.000365
0.000284
0.000204
0.000229
0.000249
0.000414
0.000234
0.000239
0.000345
0.000483
0.000372
0.000281
0.000272
0.000249
0.000245
0.000354
0.000392
0.000344
0.000255
0.000244
0.000398
0.000623
0.001681
0.000231
0.000420
0.000315
0.000229
0.000241
0.000461
0.000306
0.000058
0.000197
0.000232
0.000246
0.000257
0.000250
0.000231
0.000252
0.000326
0.000458
0.000314
0.000377
0.000376
0.000303
0.000585
0.000250
0.000238
0.000281
0.000259
0.000226
0.000347
0.000226
0.000248
0.000269
0.000413
0.000534
0.001617
0.000267
0.000237
0.000250
0.000269
0.000186
0.000057
0.000352
0.000463
0.000305
0.000213
0.000254
0.000242
0.000255
0.000241
0.000269
0.000238
0.000224
0.000262
0.000408
0.000634
0.000334
0.000228
0.000249
0.000257
0.000331
0.000380
0.000381
0.000335
0.000361
0.000393
0.000251
0.000261
0.000267
0.000274
0.001791
0.000231
0.000213
0.000057
0.000201
0.000224
0.000256
0.000295
0.000329
0.000540
0.000314
0.000228
0.000286
0.000237
0.000248
0.000248
0.000524
0.000445
0.000484
0.000271
0.000265
0.000264
0.000416
0.000473
0.000354
0.000456
0.000428
0.000462
0.000234
0.000251
0.000268
0.000241
0.000267
0.001713
0.000321
0.000057
0.000298
0.000321
0.000224
0.000219
0.000256
0.000250
0.000236
0.000494
0.000376
0.000308
0.000293
0.000298
0.000419
0.000644
0.000248
0.000239
0.000258
0.000247
0.000258
0.000263
0.000291
0.000250
0.000241
0.000261
0.000325
0.000358
0.000389
0.000358
0.000240
0.000258
0.000196
0.000057
0.000450
0.000282
0.000549
0.000184
0.000199
0.000253
0.000244
0.000258
0.000238
0.000221
0.000253
0.000297
0.000283
0.000433
0.000432
0.000501
0.000296
0.000320
0.000368
0.000350
0.000295
0.000247
0.000247
0.000262
0.001740
0.000257
0.001721
0.000951
0.000466
0.000245
0.000175
0.000057
0.000209
0.000240
0.000238
0.000239
0.000271
0.000242
0.000251
0.000250
0.000243
0.000340
0.000351
0.000477
0.000276
0.000390
0.000264
0.000231
0.000244
0.000300
0.000222
0.000256
0.000248
0.000279
0.001796
0.000237
0.000258
0.000265
0.000277
0.000264
0.001874
0.000528
0.000304
0.000057
0.000204
0.000217
0.000234
0.000243
0.000265
0.000239
0.000243
0.000251
0.000253
0.000373
0.000573
0.000316
0.000376
0.000218
0.000257
0.000245
0.000325
0.000433
0.000370
0.000259
0.001772
0.000266
0.000247
0.000255
0.000259
0.000268
0.000243
0.000253
0.000336
0.000284
0.000389
0.000056
0.000263
0.000202
0.000247
0.000271
0.000237
0.000242
0.000257
0.000258
0.000236
0.000261
0.000238
0.000307
0.000361
0.000343
0.000380
0.000271
0.000455
0.000246
0.000247
0.000258
0.000264
0.000259
0.000270
0.000251
0.000301
0.001760
0.000258
0.000243
0.000265
0.000237
0.000200
0.000057
0.000262
0.000369
0.000180
0.000229
0.000239
0.000228
0.000243
0.000260
0.000243
0.000229
0.000231
0.000260
0.000264
0.000370
0.000381
0.000410
0.000265
0.000224
0.000249
0.000257
0.000261
0.000255
0.000254
0.000275
0.000251
0.000262
0.000313
0.001667
0.000225
0.000243
0.000185
0.000057
0.000204
0.000231
0.000246
0.000263
0.000347
0.000342
0.000508
0.000219
0.000230
0.000249
0.000271
0.000231
0.000243
0.000255
0.000262
0.000255
0.000250
0.000257
0.000252
0.000261
0.000268
0.000267
0.000247
0.000237
0.000248
0.000274
0.000281
0.000261
0.000251
0.000264
0.000192
0.000057
0.000237
0.000212
0.000259
0.000275
0.000233
0.000235
0.000242
0.000261
0.000278
0.000241
0.000239
0.000242
0.000253
0.000251
0.000290
0.000239
0.000250
0.000256
0.000305
0.000242
0.000270
0.000322
0.000272
0.000220
0.000309
0.000245
0.000266
0.000255
0.000289
0.000378
0.000678
0.000057
0.000221
0.000286
0.000226
0.000230
0.000240
0.000247
0.000240
0.000248
0.000261
0.000236
0.000273
0.000359
0.000410
0.000545
0.001497
0.000228
0.000478
0.000225
0.000345
0.000444
0.000425
0.000316
0.000228
0.000287
0.000240
0.000264
0.000282
0.000253
0.000330
0.000254
0.000169
0.000056
0.000355
0.000459
0.000288
0.000329
0.000224
0.000278
0.000225
0.000243
0.000233
0.000240
0.000258
0.000257
0.000230
0.000366
0.000272
0.000552
0.000341
0.001784
0.000226
0.000256
0.000389
0.000394
0.000455
0.000266
0.000324
0.000318
0.000298
0.000228
0.000231
0.000253
0.000197
0.000056
0.000217
0.000234
0.000233
0.000309
0.000332
0.000448
0.000353
0.000251
0.000253
0.000213
0.000253
0.000267
0.000266
0.000266
0.000240
0.000266
0.000276
0.000508
0.000357
0.000436
0.000218
0.001744
0.000332
0.000486
0.000701
0.000277
0.000348
0.000216
0.000247
0.000266
0.000447
0.000057
0.000210
0.000275
0.000213
0.000352
0.000311
0.000589
0.000282
0.000261
0.000214
0.000282
0.000246
0.000260
0.000257
0.000293
0.000305
0.000239
0.000233
0.000344
0.000560
0.000295
0.000501
0.001832
0.000253
0.000394
0.000542
0.000365
0.000229
0.000260
0.000294
0.000254
0.000205
0.000057
0.000208
0.000334
0.000362
0.000289
0.000436
0.000317
0.000351
0.000219
0.000233
0.000268
0.000265
0.000232
0.000250
0.000272
0.000226
0.000264
0.000334
0.000348
0.000569
0.000303
0.000307
0.000240
0.000275
0.001691
0.000436
0.000554
0.000627
0.000236
0.000271
0.000305
0.000160
0.000056
0.000191
0.000241
0.000346
0.000232
0.000286
0.000327
0.000434
0.000313
0.000261
0.000508
0.000233
0.000249
0.000256
0.000274
0.000272
0.000271
0.000209
0.000346
0.000542
0.000376
0.000259
0.000225
0.000259
0.000258
0.000258
0.000267
0.000241
0.000253
0.000264
0.000293
0.000231
0.000057
0.000301
0.000357
0.000220
0.000256
0.000251
0.000252
0.000240
0.000287
0.000241
0.000245
0.000281
0.000336
0.000411
0.000452
0.000303
0.000277
0.000227
0.000230
0.000258
0.000268
0.000300
0.000253
0.000229
0.000257
0.000284
0.000305
0.000392
0.000409
0.000357
0.000225
0.000179
0.000057
0.000212
0.000221
0.000285
0.000244
0.000246
0.000262
0.000262
0.000235
0.000491
0.000219
0.000252
0.000259
0.000242
0.000268
0.000266
0.000296
0.000237
0.000359
0.000206
0.000254
0.000254
0.000264
0.000259
0.000264
0.000276
0.000262
0.000266
0.000252
0.000272
0.000475
0.000169
0.000056
0.000215
0.000233
0.000247
0.000295
0.000198
0.000246
0.000370
0.000400
0.000240
0.000233
0.000253
0.000256
0.000234
0.000325
0.000312
0.001849
0.000231
0.000268
0.000287
0.000329
0.000405
0.000363
0.000553
0.000230
0.000535
0.000235
0.000240
0.000274
0.000269
0.000275
0.001382
0.000058
0.000423
0.000291
0.000258
0.000202
0.000243
0.000252
0.000233
0.000252
0.000245
0.000269
0.000248
0.000260
0.000247
0.000339
0.000472
0.001650
0.000246
0.000222
0.000250
0.000268
0.000232
0.000280
0.000372
0.000399
0.000285
0.000331
0.000221
0.000269
0.000272
0.000265
0.000191
0.000056
0.001182
0.000625
0.000221
0.000286
0.000234
0.000234
0.000228
0.000242
0.000493
0.000214
0.000236
0.000293
0.000300
0.000525
0.000405
0.000328
0.000265
0.000230
0.000326
0.000363
0.000271
0.000253
0.000271
0.000240
0.000272
0.000541
0.000542
0.000306
0.000261
0.000266
0.000172
0.000057
0.000210
0.000221
0.000239
0.000247
0.001563
0.000210
0.000218
0.000257
0.000261
0.000230
0.000251
0.000255
0.000241
0.000259
0.000272
0.000272
0.000463
0.000688
0.000222
0.001741
0.000248
0.000287
0.000295
0.000435
0.000594
0.000387
0.000218
0.000252
0.000255
0.000275
0.000196
0.000057
0.000231
0.000241
0.000234
0.000328
0.001235
0.000251
0.000249
0.000258
0.000242
0.000236
0.000236
0.000257
0.000276
0.000263
0.000229
0.000293
0.000609
0.000367
0.000242
0.000255
0.000266
0.000269
0.000245
0.000238
0.000279
0.000271
0.000245
0.000276
0.000271
0.000376
0.000552
0.000057
0.000227
0.000248
0.000231
0.000261
0.000265
0.000242
0.000242
0.000255
0.000286
0.000264
0.001414
0.000218
0.000241
0.000250
0.000247
0.000244
0.000292
0.000244
0.000282
0.000241
0.000267
0.000487
0.000506
0.000344
0.000233
0.000278
0.001752
0.000250
0.000267
0.000374
0.000387
0.000056
0.000183
0.000402
0.000447
0.000505
0.000514
0.000533
0.001510
0.000406
0.000528
0.000652
0.000553
0.000755
0.000496
0.000565
0.000586
0.001882
0.000496
0.000350
0.000399
0.000320
0.000228
0.000260
0.000293
0.000261
0.000262
0.000290
0.000292
0.000288
0.000254
0.000289
0.001363
0.000059
0.000196
0.000238
0.000241
0.000241
0.000253
0.000255
0.000237
0.000241
0.000249
0.000255
0.000233
0.000244
0.000261
0.000256
0.000269
0.000268
0.001803
0.000256
0.000268
0.000246
0.000262
0.000261
0.000260
0.000379
0.000317
0.000434
0.000336
0.000242
0.000256
0.000271
0.000207
0.000057
0.000201
0.001361
0.000332
0.000276
0.000249
0.000235
0.000244
0.000232
0.000234
0.000247
0.000214
0.000244
0.000257
0.000504
0.000359
0.000307
0.000248
0.001816
0.000350
0.000235
0.000246
0.000263
0.000258
0.000269
0.000273
0.000304
0.000251
0.000254
0.000265
0.000344
0.000177
0.000057
0.000215
0.000240
0.000250
0.001444
0.000210
0.000246
0.000260
0.000238
0.000243
0.000267
0.000262
0.000235
0.000244
0.000282
0.000239
0.000252
0.000266
0.000258
0.000276
0.000253
0.000278
0.001765
0.000276
0.001741
0.000272
0.000253
0.000266
0.000267
0.000265
0.000275
0.000199
0.000057
0.000205
0.000232
0.001349
0.000227
0.000260
0.000245
0.000257
0.000257
0.000244
0.000249
0.000254
0.000242
0.000257
0.000271
0.000255
0.000260
0.000260
0.000291
0.000292
0.000227
0.001880
0.000231
0.001848
0.000222
0.000264
0.000278
0.000223
0.000255
0.000254
0.000272
0.000191
0.000056
0.001449
0.000236
0.000219
0.000245
0.000236
0.000237
0.000375
0.000282
0.000248
0.000241
0.000256
0.000259
0.000314
0.000326
0.000339
0.000312
0.000233
0.000274
0.000255
0.000251
0.000276
0.000334
0.000230
0.000252
0.000271
0.000277
0.000273
0.000410
0.000565
0.000372
0.000183
0.000056
0.000199
0.000248
0.000269
0.000301
0.000366
0.000257
0.001705
0.000288
0.000276
0.000274
0.000248
0.000273
0.000274
0.000256
0.000302
0.000320
0.000410
0.000549
0.000326
0.000266
0.000291
0.000276
0.000266
0.000266
0.000326
0.000264
0.000277
0.000244
0.000283
0.000264
0.000448
0.000057
0.000278
0.000461
0.000261
0.000265
0.000251
0.000219
0.000227
0.000247
0.000262
0.000273
0.001551
0.000174
0.000223
0.000252
0.000242
0.000291
0.000284
0.000236
0.000256
0.000266
0.000258
0.000372
0.000514
0.000350
0.000283
0.000266
0.000270
0.000253
0.000233
0.000312
0.000181
0.000057
0.000201
0.000237
0.000373
0.000444
0.000306
0.000263
0.000223
0.000245
0.000253
0.000249
0.000240
0.000248
0.000260
0.000264
0.000241
0.000240
0.000428
0.001183
0.000259
0.000232
0.000279
0.000294
0.000300
0.000422
0.000253
0.000330
0.000591
0.000339
0.000367
0.000244
0.000182
0.000058
0.000198
0.000244
0.000261
0.000263
0.000259
0.000257
0.000345
0.000398
0.000454
0.000261
0.000347
0.000407
0.000382
0.000362
0.000257
0.000243
0.000237
0.000262
0.000444
0.000436
0.001245
0.000220
0.000276
0.000268
0.000238
0.000238
0.000265
0.000314
0.000416
0.000465
0.000215
0.000057
0.000195
0.000246
0.000259
0.000240
0.000239
0.000248
0.000231
0.000268
0.000304
0.000437
0.000299
0.000409
0.000266
0.000218
0.000252
0.000257
0.000253
0.000274
0.000247
0.000276
0.000414
0.000322
0.000334
0.000465
0.000247
0.000251
0.000271
0.000267
0.000253
0.000335
0.000164
0.000058
0.000310
0.000314
0.000284
0.000410
0.000451
0.000354
0.000245
0.000234
0.000257
0.000291
0.000231
0.000262
0.000237
0.000254
0.000244
0.000228
0.000266
0.000349
0.000568
0.000313
0.000215
0.000255
0.000246
0.000245
0.000273
0.000277
0.000270
0.000273
0.000265
0.000269
0.000258
0.000056
0.000383
0.000252
0.000238
0.000269
0.000222
0.000248
0.000245
0.000259
0.000279
0.000237
0.000254
0.000233
0.000294
0.000511
0.000413
0.000306
0.000222
0.000246
0.000260
0.000266
0.000257
0.000255
0.000262
0.000266
0.000271
0.000431
0.000316
0.000590
0.000395
0.000252
0.000173
0.000057
0.000396
0.000196
0.000240
0.000239
0.000252
0.000246
0.000241
0.000251
0.000259
0.000251
0.000224
0.000251
0.000273
0.000213
0.000248
0.000270
0.000249
0.000263
0.000319
0.000220
0.000260
0.000259
0.000266
0.000262
0.000264
0.000240
0.000264
0.000277
0.000262
0.000277
0.000195
0.000058
0.000208
0.000231
0.000251
0.000240
0.000234
0.000261
0.000262
0.000239
0.000257
0.000273
0.000232
0.000237
0.000260
0.000390
0.000260
0.000294
0.000244
0.000283
0.000239
0.000279
0.000268
0.000240
0.000238
0.000255
0.000269
0.000276
0.000250
0.000251
0.000276
0.000262
0.000206
0.000057
0.000211
0.000368
0.000362
0.000277
0.000301
0.000253
0.000272
0.000261
0.000219
0.000252
0.000272
0.000233
0.000249
0.000235
0.000261
0.000297
0.000226
0.000271
0.000241
0.000261
0.000281
0.000258
0.000279
0.000256
0.000288
0.000240
0.000256
0.000266
0.000272
0.000258
0.000197
0.000060
0.000212
0.000231
0.000267
0.000262
0.000248
0.000452
0.000211
0.000268
0.000246
0.000492
0.000457
0.000286
0.000237
0.000236
0.000271
0.000268
0.000236
0.000275
0.000251
0.000274
0.000263
0.000256
0.000261
0.000315
0.000443
0.000602
0.000223
0.000295
0.000265
0.000264
0.000186
0.000057
0.000210
0.000222
0.000244
0.000252
0.000785
0.000162
0.000338
0.000383
0.000207
0.000253
0.000244
0.000260
0.000246
0.000250
0.000260
0.000271
0.000265
0.000241
0.000678
0.000367
0.000298
0.000225
0.000258
0.000283
0.000279
0.000255
0.000265
0.000280
0.000238
0.000323
0.000299
0.000057
0.000316
0.000212
0.000236
0.000240
0.000254
0.000264
0.000212
0.000256
0.000235
0.000263
0.000244
0.000253
0.000250
0.000360
0.000613
0.000370
0.000248
0.000259
0.000258
0.000245
0.000264
0.000289
0.000475
0.000222
0.000265
0.000604
0.000436
0.000463
0.000246
0.000250
0.000189
0.000056
0.000215
0.000237
0.000242
0.000244
0.000257
0.000256
0.000307
0.000439
0.000574
0.000433
0.000216
0.000261
0.000272
0.000276
0.000256
0.000251
0.000238
0.000245
0.000256
0.000336
0.000435
0.000614
0.000369
0.000250
0.000353
0.000389
0.000486
0.000239
0.000263
0.000515
0.000252
0.000057
0.000176
0.000231
0.000437
0.000214
0.000242
0.000252
0.000262
0.000257
0.000236
0.000239
0.000259
0.000411
0.000398
0.000309
0.000230
0.000258
0.000253
0.000249
0.000263
0.000279
0.000290
0.000234
0.000251
0.000274
0.000310
0.000574
0.000399
0.000236
0.000253
0.000277
0.000193
0.000058
0.000204
0.000248
0.000237
0.000244
0.000245
0.000326
0.000340
0.000426
0.000361
0.000266
0.000378
0.000226
0.000254
0.000263
0.000253
0.000247
0.000257
0.000255
0.000345
0.000329
0.000485
0.000338
0.000479
0.000267
0.000379
0.000421
0.000384
0.000250
0.000257
0.000274
0.000460
0.000056
0.000273
0.000271
0.000223
0.000254
0.000286
0.000232
0.000268
0.000228
0.000265
0.000250
0.000231
0.000430
0.000376
0.000506
0.000244
0.000228
0.000263
0.000266
0.000268
0.000235
0.000249
0.000255
0.000259
0.000271
0.000285
0.000357
0.000475
0.000462
0.000242
0.000278
0.000191
0.000059
0.000190
0.000244
0.000275
0.000248
0.000240
0.000338
0.000531
0.000442
0.000497
0.000553
0.000253
0.000225
0.000240
0.000261
0.000249
0.000262
0.000276
0.000273
0.000519
0.000379
0.001518
0.000303
0.000274
0.000258
0.000288
0.000259
0.000370
0.000426
0.000358
0.000312
0.000185
0.000056
0.000211
0.000230
0.000249
0.000262
0.000227
0.000250
0.000301
0.000222
0.000249
0.000320
0.000330
0.000385
0.000269
0.000333
0.000394
0.000369
0.000224
0.000257
0.000265
0.000257
0.000243
0.000245
0.000315
0.000217
0.000326
0.000433
0.000468
0.000251
0.000253
0.000268
0.000190
0.000057
0.000211
0.000241
0.000261
0.000255
0.000239
0.000238
0.000474
0.000207
0.000239
0.000250
0.000247
0.000251
0.000278
0.000243
0.000246
0.000271
0.000259
0.000295
0.000255
0.000247
0.000278
0.000272
0.000287
0.000242
0.000270
0.000275
0.000269
0.000284
0.000247
0.000272
0.000172
0.000057
0.000220
0.000250
0.000311
0.000406
0.000364
0.000258
0.000237
0.000248
0.000262
0.000242
0.000262
0.000251
0.000262
0.000258
0.000239
0.000246
0.000263
0.000248
0.000313
0.000404
0.000390
0.000353
0.000226
0.000269
0.000268
0.000250
0.000269
0.000251
0.000273
0.000280
0.000200
0.000057
0.000346
0.000363
0.000458
0.000207
0.000252
0.000262
0.000410
0.000223
0.000229
0.000257
0.000276
0.000264
0.000349
0.000505
0.001807
0.000251
0.000243
0.000248
0.000290
0.000231
0.000335
0.000506
0.000537
0.000315
0.000236
0.000261
0.000274
0.000430
0.000278
0.000276
0.000161
0.000056
0.000225
0.000361
0.000341
0.000314
0.000493
0.000202
0.000247
0.000238
0.000274
0.000226
0.000260
0.000246
0.000260
0.000305
0.000400
0.000485
0.000233
0.000246
0.000256
0.000265
0.000262
0.000320
0.000235
0.000280
0.000276
0.000447
0.000503
0.000448
0.000411
0.000244
0.000202
0.000057
0.000219
0.000240
0.000258
0.000235
0.000244
0.000253
0.000264
0.000295
0.000327
0.000403
0.000398
0.000345
0.000235
0.000247
0.000265
0.000288
0.000304
0.000229
0.000273
0.000277
0.000236
0.000390
0.000339
0.000421
0.000282
0.000256
0.000265
0.000442
0.000406
0.000302
0.000189
0.000056
0.000193
0.000236
0.000332
0.000446
0.000363
0.000207
0.000231
0.000269
0.000252
0.000267
0.000247
0.000270
0.000215
0.000254
0.000260
0.000302
0.000414
0.000343
0.000295
0.000343
0.000500
0.000217
0.000287
0.000270
0.000319
0.000267
0.000252
0.000277
0.000504
0.000416
0.000249
0.000057
0.000210
0.000224
0.000249
0.000248
0.000239
0.000484
0.000215
0.000251
0.000266
0.000345
0.000463
0.000604
0.000206
0.000245
0.000245
0.000249
0.000254
0.000275
0.000236
0.000249
0.000289
0.000243
0.000440
0.000397
0.000292
0.000407
0.000307
0.000296
0.000321
0.000248
0.000191
0.000056
0.000242
0.000220
0.000307
0.000430
0.000328
0.000288
0.000259
0.000232
0.000246
0.000262
0.000249
0.000259
0.000264
0.000246
0.000245
0.000262
0.000243
0.000252
0.000259
0.000408
0.000529
0.000351
0.000224
0.000251
0.000297
0.000254
0.000268
0.000257
0.000276
0.000257
0.000191
0.000056
0.000256
0.000380
0.000472
0.000249
0.000219
0.000251
0.000314
0.000462
0.000290
0.000207
0.000241
0.000274
0.000288
0.000457
0.000392
0.000291
0.000232
0.000235
0.000253
0.000268
0.000269
0.000261
0.000265
0.000273
0.000268
0.000338
0.000360
0.000489
0.000225
0.000237
0.000197
0.000056
0.000240
0.000236
0.000248
0.000255
0.000249
0.000262
0.000237
0.000267
0.000249
0.000236
0.000267
0.000237
0.000288
0.001435
0.000224
0.000250
0.000264
0.000256
0.000265
0.000276
0.000260
0.000242
0.000274
0.000254
0.000269
0.000264
0.000273
0.000274
0.000270
0.000256
0.000190
0.000056
0.000201
0.000220
0.000255
0.000269
0.000221
0.000243
0.000260
0.000258
0.000228
0.000245
0.000249
0.000268
0.000273
0.000233
0.000253
0.000260
0.000254
0.000254
0.000276
0.000253
0.000252
0.000265
0.000240
0.000257
0.001289
0.000274
0.000610
0.000418
0.000321
0.000241
0.000192
0.000057
0.000208
0.000232
0.000243
0.000252
0.000413
0.000243
0.000239
0.000238
0.000256
0.000354
0.000540
0.000253
0.000232
0.000244
0.000258
0.000259
0.000257
0.000261
0.000248
0.000260
0.000255
0.000257
0.000257
0.000416
0.000527
0.000456
0.000213
0.000267
0.001384
0.000232
0.000182
0.000057
0.000309
0.000400
0.000329
0.000268
0.000233
0.000224
0.000230
0.000250
0.000259
0.000257
0.000245
0.000263
0.000292
0.000295
0.000527
0.000371
0.000333
0.000217
0.000250
0.000257
0.000267
0.000283
0.000252
0.000263
0.000272
0.000259
0.000369
0.000521
0.000378
0.000357
0.000152
0.000057
0.000208
0.000221
0.001278
0.000416
0.000321
0.000442
0.000406
0.000450
0.000263
0.000343
0.000231
0.000227
0.000262
0.000253
0.000247
0.000265
0.000358
0.000604
0.000283
0.000360
0.000266
0.000243
0.000263
0.000498
0.000230
0.000265
0.000258
0.000280
0.000296
0.000715
0.000145
0.000057
0.000368
0.000312
0.000238
0.001411
0.000367
0.000464
0.000309
0.000247
0.000250
0.000252
0.000224
0.000246
0.000240
0.000274
0.000247
0.000257
0.000240
0.000261
0.000399
0.000424
0.000430
0.000241
0.000261
0.000258
0.000256
0.000273
0.000270
0.000239
0.000259
0.000279
0.000241
0.000057
0.000372
0.000342
0.000233
0.000226
0.000250
0.000246
0.000262
0.000233
0.000237
0.000225
0.001399
0.000473
0.000287
0.000232
0.000238
0.000258
0.000275
0.000257
0.000240
0.000299
0.000247
0.000253
0.000266
0.000460
0.000532
0.000296
0.000242
0.000258
0.000269
0.000279
0.000180
0.000057
0.000197
0.000416
0.000218
0.000233
0.000494
0.000400
0.000287
0.000297
0.000465
0.000206
0.000232
0.000253
0.000258
0.000266
0.000260
0.001409
0.000362
0.000300
0.000233
0.000268
0.000291
0.000234
0.000252
0.000253
0.000264
0.000267
0.000491
0.000403
0.000287
0.000270
0.000166
0.000057
0.000223
0.000225
0.000262
0.000238
0.000230
0.000257
0.000242
0.000250
0.000292
0.000341
0.000503
0.000239
0.000242
0.000253
0.000247
0.000273
0.000273
0.000259
0.000266
0.000227
0.000267
0.000308
0.001254
0.000256
0.000266
0.000241
0.000272
0.000252
0.000262
0.000260
0.000191
0.000056
0.000294
0.000311
0.000312
0.000362
0.000248
0.000247
0.000256
0.000284
0.000239
0.000264
0.000238
0.000269
0.000238
0.000272
0.000261
0.000245
0.000264
0.000272
0.000261
0.000247
0.000255
0.000268
0.000270
0.000283
0.000288
0.000263
0.000263
0.000268
0.000256
0.000452
0.001362
0.000056
0.000194
0.000248
0.000220
0.000267
0.000229
0.000261
0.000246
0.000229
0.000245
0.000250
0.000301
0.000233
0.000244
0.000239
0.000278
0.000220
0.001724
0.000265
0.000241
0.000260
0.000246
0.000260
0.000272
0.000262
0.000294
0.000233
0.000273
0.000280
0.000267
0.000261
0.000218
0.000056
0.000307
0.000334
0.001280
0.000219
0.000239
0.000248
0.000259
0.000247
0.000275
0.000244
0.000232
0.000361
0.000420
0.000408
0.000266
0.000235
0.000245
0.000255
0.000260
0.000265
0.000241
0.000283
0.000255
0.000281
0.000261
0.000398
0.000372
0.000351
0.000330
0.000235
0.000195
0.000057
0.000231
0.000246
0.000242
0.000252
0.000276
0.000199
0.000238
0.000267
0.000419
0.001325
0.000267
0.000215
0.000249
0.000274
0.000252
0.000290
0.000235
0.000248
0.000319
0.000450
0.000346
0.000246
0.000253
0.000243
0.000296
0.000265
0.000263
0.000298
0.000270
0.000272
0.000193
0.000056
0.000236
0.000430
0.000393
0.000213
0.000238
0.000234
0.000250
0.000269
0.000268
0.000247
0.000247
0.000238
0.000446
0.000499
0.000467
0.001463
0.000241
0.000278
0.000321
0.000351
0.000470
0.000506
0.000595
0.000191
0.000240
0.000266
0.000265
0.000275
0.000265
0.000271
0.000200
0.000058
0.000200
0.000267
0.000462
0.000575
0.000239
0.000230
0.000249
0.000239
0.000245
0.000270
0.000235
0.000267
0.000283
0.000221
0.000268
0.000333
0.000299
0.000463
0.000355
0.001329
0.000266
0.000257
0.000265
0.000253
0.000422
0.000504
0.000381
0.000230
0.000269
0.000271
0.000188
0.000057
0.000212
0.000239
0.000242
0.000270
0.000244
0.000281
0.000455
0.000441
0.000301
0.000208
0.000243
0.000257
0.000274
0.000286
0.000238
0.000257
0.000264
0.000253
0.000290
0.000324
0.000424
0.000437
0.000280
0.001352
0.000412
0.000240
0.000265
0.000449
0.000479
0.000339
0.000249
0.000056
0.000201
0.000230
0.000240
0.000253
0.000249
0.000250
0.001684
0.000241
0.000219
0.000241
0.000258
0.000248
0.000256
0.000316
0.000328
0.000285
0.000274
0.000337
0.000445
0.000421
0.000313
0.000284
0.000240
0.000247
0.001494
0.000349
0.000411
0.000441
0.000342
0.000299
0.000173
0.000056
0.000213
0.000242
0.000258
0.000256
0.000245
0.000263
0.001704
0.000248
0.000229
0.000268
0.000321
0.000400
0.001453
0.000405
0.000356
0.000237
0.000257
0.000244
0.000264
0.000272
0.001527
0.000611
0.000355
0.000288
0.000242
0.000251
0.000262
0.000282
0.000241
0.000255
0.000198
0.000057
0.000191
0.000247
0.000265
0.000247
0.000264
0.000300
0.000252
0.000262
0.000246
0.000251
0.000259
0.000245
0.000286
0.000242
0.000270
0.001469
0.000289
0.000231
0.000270
0.000273
0.000272
0.000259
0.000418
0.001278
0.000275
0.000238
0.000290
0.000238
0.000398
0.000242
0.000200
0.000056
0.000214
0.000251
0.000215
0.000249
0.000235
0.000234
0.000234
0.001689
0.000252
0.000232
0.000353
0.000284
0.000210
0.000222
0.000255
0.001379
0.000241
0.000267
0.000261
0.000247
0.000271
0.000345
0.000288
0.001297
0.000272
0.000280
0.000227
0.000271
0.001384
0.000284
0.000209
0.000056
0.000285
0.000308
0.000218
0.000235
0.000267
0.000239
0.000275
0.000249
0.000261
0.000246
0.000262
0.000259
0.000262
0.000239
0.000283
0.001546
0.000233
0.000267
0.000250
0.000249
0.000307
0.000240
0.000251
0.001500
0.000349
0.000241
0.000271
0.001266
0.000265
0.000252
0.000238
0.000056
0.000231
0.000371
0.000348
0.000215
0.000236
0.000241
0.000266
0.000251
0.000268
0.000270
0.000236
0.000250
0.000264
0.000260
0.000441
0.001197
0.000250
0.000243
0.000270
0.000267
0.000229
0.000244
0.000252
0.000332
0.001283
0.000246
0.000248
0.000279
0.000227
0.001337
0.000305
0.000057
0.000280
0.000324
0.000200
0.000230
0.000239
0.000259
0.000236
0.000252
0.000298
0.000229
0.000259
0.000234
0.000247
0.000382
0.000379
0.001444
0.000235
0.000243
0.000303
0.000512
0.000362
0.001418
0.000314
0.000241
0.000233
0.000275
0.000237
0.001296
0.000363
0.000450
0.000345
0.000057
0.000197
0.000250
0.000256
0.000262
0.000276
0.000233
0.000266
0.000266
0.000247
0.000258
0.000369
0.000416
0.001328
0.000229
0.000274
0.000265
0.000279
0.000218
0.000253
0.000237
0.000336
0.001256
0.000265
0.000240
0.000246
0.000258
0.001559
0.000365
0.000489
0.000221
0.000194
0.000056
0.000193
0.000238
0.000243
0.000239
0.000252
0.000262
0.000242
0.000374
0.000363
0.000439
0.000260
0.001499
0.000219
0.000240
0.000262
0.000254
0.000261
0.000293
0.001696
0.000235
0.000385
0.000346
0.001331
0.000332
0.000304
0.000312
0.000249
0.000267
0.000265
0.000273
0.000189
0.000057
0.000218
0.000240
0.000325
0.000210
0.000362
0.000513
0.000306
0.000294
0.001474
0.000240
0.000371
0.000275
0.000223
0.000300
0.000435
0.001276
0.000259
0.000238
0.000245
0.000276
0.001545
0.000371
0.000263
0.000287
0.000254
0.000240
0.000450
0.000336
0.000253
0.000234
0.000268
0.000056
0.000254
0.000373
0.000320
0.000268
0.000224
0.001526
0.000223
0.000243
0.000265
0.000269
0.000272
0.000239
0.000360
0.001431
0.000252
0.000230
0.000450
0.001176
0.000363
0.000427
0.000384
0.000267
0.000219
0.000254
0.000294
0.000226
0.000457
0.000223
0.000266
0.000278
0.000199
0.000057
0.000220
0.000244
0.000377
0.000378
0.001284
0.000277
0.000333
0.000227
0.000223
0.000250
0.000248
0.000285
0.001530
0.000257
0.000233
0.000258
0.001376
0.000248
0.000464
0.000390
0.000409
0.000238
0.000253
0.000245
0.000288
0.000268
0.000248
0.000270
0.000269
0.000252
0.000199
0.000056
0.000218
0.000390
0.001460
0.000205
0.000276
0.000304
0.000217
0.000247
0.000265
0.000350
0.001419
0.000221
0.000254
0.000262
0.000259
0.001268
0.000611
0.000404
0.000285
0.000409
0.000305
0.000249
0.000287
0.000243
0.000270
0.000288
0.000279
0.000303
0.000480
0.000379
0.001373
0.000056
0.000208
0.000240
0.000249
0.000222
0.000253
0.000417
0.000508
0.001263
0.000251
0.000233
0.000260
0.001434
0.000457
0.000296
0.000215
0.000422
0.000239
0.000237
0.000278
0.000312
0.000221
0.000254
0.000279
0.000262
0.000254
0.000302
0.000394
0.000497
0.001492
0.000243
0.000185
0.000057
0.000194
0.000255
0.000504
0.000383
0.001241
0.000320
0.000216
0.000272
0.000229
0.000254
0.000250
0.000278
0.000522
0.000364
0.000288
0.000243
0.000254
0.000271
0.000247
0.000300
0.000239
0.000279
0.000238
0.000269
0.000263
0.000466
0.000417
0.000312
0.000328
0.001405
0.000169
0.000057
0.000205
0.000240
0.000380
0.000367
0.000345
0.000286
0.000317
0.000332
0.000292
0.000257
0.000235
0.000261
0.000275
0.000287
0.000236
0.000320
0.000553
0.000371
0.000212
0.000392
0.000271
0.000407
0.000225
0.000241
0.000271
0.000265
0.000243
0.000289
0.000356
0.000528
0.000259
0.000056
0.000198
0.001410
0.000252
0.000310
0.000404
0.000459
0.000397
0.000278
0.000209
0.000241
0.000270
0.000243
0.000287
0.000274
0.000243
0.000265
0.000245
0.001358
0.000253
0.000262
0.000256
0.000272
0.000264
0.000284
0.000266
0.000254
0.000275
0.000253
0.000419
0.000385
0.000352
0.000057
0.000207
0.000229
0.000248
0.001496
0.000322
0.000240
0.000231
0.000246
0.000227
0.000256
0.000244
0.000285
0.000242
0.000245
0.000297
0.000230
0.000248
0.000264
0.000260
0.000269
0.001418
0.000238
0.000236
0.000283
0.000257
0.000245
0.000270
0.000257
0.000279
0.000494
0.000346
0.000056
0.000221
0.000225
0.000396
0.000289
0.000236
0.000263
0.001519
0.000354
0.000289
0.000222
0.000264
0.000316
0.000328
0.000231
0.000227
0.000250
0.000246
0.000259
0.000262
0.000257
0.000536
0.000435
0.001144
0.000273
0.000231
0.000270
0.000266
0.000253
0.000304
0.000228
0.000310
0.000060
0.000270
0.000337
0.000215
0.000245
0.000249
0.000239
0.000245
0.000232
0.000284
0.001598
0.000444
0.000222
0.000243
0.000244
0.000263
0.000245
0.000262
0.000270
0.000278
0.000315
0.000283
0.000483
0.000495
0.001332
0.000229
0.000277
0.000256
0.000256
0.000268
0.000340
0.000448
0.000059
0.000270
0.000266
0.000223
0.000231
0.000218
0.000247
0.000265
0.000277
0.000258
0.001605
0.000326
0.000258
0.000241
0.000257
0.000460
0.000254
0.000550
0.000372
0.000277
0.000269
0.000508
0.000468
0.001267
0.000258
0.000242
0.000257
0.001799
0.000392
0.000598
0.000309
0.000138
0.000057
0.000194
0.000228
0.000239
0.000236
0.000278
0.000225
0.000248
0.000488
0.000498
0.000427
0.000291
0.000209
0.000250
0.000260
0.000278
0.000271
0.000236
0.000242
0.000254
0.000286
0.000253
0.000394
0.001368
0.000228
0.000249
0.000276
0.001918
0.000359
0.000398
0.000337
0.000159
0.000057
0.000246
0.000242
0.000243
0.001668
0.000318
0.000219
0.000237
0.000257
0.000256
0.000275
0.000375
0.000364
0.000370
0.000287
0.000455
0.000340
0.000415
0.001192
0.000284
0.000227
0.000253
0.000262
0.000276
0.000394
0.000711
0.000346
0.000290
0.000256
0.000265
0.000284
0.000187
0.000057
0.000193
0.000237
0.000243
0.001556
0.000245
0.000228
0.000236
0.000256
0.000241
0.000249
0.000258
0.000270
0.000267
0.000287
0.000238
0.000365
0.000510
0.000292
0.001391
0.000223
0.000267
0.000257
0.000266
0.000272
0.000390
0.000440
0.000472
0.000246
0.000297
0.000232
0.000447
0.000057
0.000214
0.000245
0.000266
0.001529
0.000293
0.000220
0.000270
0.000244
0.000255
0.000252
0.000255
0.000271
0.000238
0.000262
0.000319
0.000638
0.001330
0.000761
0.000249
0.000340
0.000237
0.000254
0.000246
0.000273
0.001680
0.000796
0.000237
0.000259
0.000283
0.000286
0.000183
0.000056
0.000202
0.000231
0.000253
0.000246
0.000281
0.000251
0.000210
0.000255
0.000241
0.000244
0.000279
0.000296
0.000238
0.000250
0.000259
0.000248
0.000267
0.001605
0.000707
0.000412
0.000272
0.000237
0.000243
0.000308
0.000251
0.000251
0.000272
0.000264
0.001390
0.000390
0.000336
0.000057
0.000200
0.000228
0.000271
0.000230
0.000261
0.000232
0.000273
0.000233
0.000250
0.000260
0.000288
0.000559
0.000304
0.000321
0.000210
0.000251
0.000257
0.001388
0.000989
0.000187
0.000328
0.000268
0.000240
0.000245
0.000273
0.000261
0.000252
0.000276
0.001467
0.000412
0.000220
0.000057
0.000191
0.000233
0.000244
0.000250
0.000252
0.000246
0.000233
0.000253
0.000270
0.000259
0.000376
0.000393
0.000308
0.000222
0.000248
0.000242
0.000273
0.000246
0.001620
0.000630
0.000520
0.000212
0.000241
0.000253
0.000259
0.000261
0.000262
0.000281
0.000272
0.001486
0.000191
0.000061
0.000202
0.000225
0.000229
0.000256
0.000257
0.000241
0.000251
0.000336
0.000330
0.000431
0.000442
0.000331
0.000353
0.000222
0.000263
0.000233
0.000301
0.000239
0.000265
0.001965
0.000280
0.000236
0.000451
0.000239
0.000251
0.000269
0.000267
0.000258
0.000288
0.000261
0.000476
0.000060
0.000295
0.000223
0.000228
0.000245
0.000254
0.000248
0.000223
0.000244
0.000292
0.000245
0.000227
0.000251
0.000293
0.000396
0.000492
0.000453
0.000220
0.000264
0.000251
0.000244
0.000263
0.000278
0.001462
0.001063
0.000226
0.000250
0.000271
0.000263
0.000266
0.000255
0.000211
0.000057
0.000240
0.001363
0.000258
0.000206
0.000232
0.000250
0.000252
0.000238
0.000240
0.000264
0.000242
0.000265
0.000240
0.000389
0.000384
0.000492
0.000211
0.000258
0.000261
0.000271
0.000277
0.000217
0.000265
0.000265
0.001349
0.000655
0.000303
0.000381
0.000374
0.000401
0.000301
0.000057
0.000203
0.000245
0.000370
0.001297
0.000213
0.000257
0.000227
0.000259
0.000252
0.000260
0.000242
0.000256
0.000292
0.000315
0.000609
0.000271
0.000228
0.000276
0.000327
0.000219
0.000247
0.000270
0.000236
0.000269
0.001573
0.000223
0.000748
0.000325
0.000257
0.000270
0.000190
0.000057
0.000199
0.000229
0.000481
0.000331
0.001298
0.000247
0.000222
0.000240
0.000236
0.000247
0.000250
0.000252
0.000234
0.000239
0.000265
0.000245
0.000265
0.000237
0.000260
0.000250
0.000271
0.000269
0.000374
0.000260
0.000221
0.000265
0.000266
0.001486
0.000242
0.000235
0.000172
0.000058
0.000206
0.000230
0.000250
0.000263
0.000348
0.000373
0.000395
0.000297
0.001557
0.000250
0.000318
0.000452
0.000347
0.000246
0.000440
0.000227
0.000237
0.000263
0.000269
0.000274
0.000278
0.000265
0.000256
0.000268
0.000249
0.000411
0.000418
0.000314
0.001583
0.000221
0.000191
0.000056
0.000194
0.000231
0.000269
0.000226
0.000241
0.000247
0.000260
0.000314
0.000415
0.002022
0.000254
0.000226
0.000257
0.000256
0.000259
0.000257
0.000265
0.000260
0.000260
0.000449
0.000414
0.000391
0.001450
0.000245
0.000241
0.002014
0.000288
0.000236
0.000265
0.001510
0.000167
0.000057
0.000382
0.000455
0.000380
0.000245
0.000277
0.000225
0.000245
0.000293
0.000241
0.000222
0.000255
0.000343
0.000427
0.000386
0.000359
0.000253
0.000236
0.001564
0.000227
0.000646
0.001812
0.000298
0.000236
0.001544
0.002015
0.000739
0.000276
0.000257
0.000274
0.000529
0.000314
0.000057
0.000228
0.000235
0.000285
0.000217
0.001417
0.001727
0.001079
0.000206
0.000251
0.001633
0.001916
0.000214
0.000237
0.000419
0.000291
0.000474
0.000392
0.000404
0.000209
0.000245
0.000247
0.000255
0.000269
0.001593
0.001205
0.001423
0.000289
0.000291
0.000250
0.000294
0.000354
0.000057
0.000215
0.000230
0.000242
0.000241
0.000229
0.000266
0.000227
0.000257
0.000263
0.000236
0.000244
0.000335
0.000402
0.000559
0.000203
0.000252
0.000250
0.000279
0.000261
0.000291
0.000230
0.000263
0.001498
0.000482
0.002118
0.000233
0.000268
0.000319
0.000451
0.000378
0.000194
0.000057
0.000275
0.000425
0.000338
0.000320
0.000212
0.000218
0.000256
0.000240
0.000239
0.000245
0.000244
0.000268
0.000257
0.001606
0.001351
0.001232
0.000274
0.000249
0.000239
0.000270
0.000285
0.000274
0.000243
0.000253
0.002225
0.000248
0.000234
0.000298
0.000323
0.000304
0.000220
0.000056
0.000192
0.000397
0.000513
0.000346
0.000210
0.000236
0.000243
0.000277
0.001889
0.001427
0.000215
0.000331
0.000381
0.000411
0.000262
0.000244
0.000248
0.000269
0.000263
0.000261
0.000255
0.000275
0.000464
0.000230
0.000275
0.000272
0.000245
0.000277
0.000278
0.000250
0.000205
0.000056
0.000210
0.000243
0.000251
0.000241
0.000273
0.000259
0.001530
0.001419
0.001324
0.000239
0.000230
0.000249
0.000258
0.000265
0.000249
0.000265
0.000239
0.002093
0.000262
0.000235
0.000266
0.000256
0.000258
0.000264
0.000267
0.000255
0.000270
0.000260
0.000273
0.000248
0.000183
0.000057
0.000189
0.002673
0.001405
0.000216
0.000319
0.000307
0.000223
0.000277
0.000231
0.000242
0.000255
0.000244
0.000232
0.000253
0.000268
0.000252
0.000275
0.000259
0.000274
0.000250
0.000272
0.000281
0.000272
0.000261
0.000253
0.000242
0.000264
0.000283
0.000254
0.000267
0.000380
0.000056
0.001545
0.000248
0.001242
0.000236
0.000217
0.000258
0.000258
0.000260
0.000223
0.000317
0.000354
0.000343
0.000339
0.000221
0.000255
0.002151
0.000234
0.000247
0.000350
0.000482
0.000392
0.000216
0.000241
0.000251
0.000268
0.000244
0.000266
0.000279
0.000267
0.001670
0.001204
0.000060
0.000206
0.000259
0.000225
0.000480
0.000320
0.000271
0.000214
0.000231
0.000250
0.000261
0.000268
0.000246
0.000226
0.000256
0.000260
0.000242
0.000385
0.000559
0.000352
0.000241
0.000238
0.000269
0.000279
0.000255
0.000245
0.000252
0.000269
0.000273
0.000244
0.000348
0.000378
0.000057
0.001122
0.000251
0.000334
0.000489
0.000241
0.000232
0.000236
0.000234
0.000247
0.002305
0.000396
0.000348
0.000228
0.000382
0.000303
0.000253
0.000241
0.000262
0.000264
0.000228
0.000255
0.000295
0.000571
0.000546
0.001784
0.001371
0.000490
0.000511
0.000226
0.000293
0.000192
0.000056
0.000256
0.000334
0.000248
0.000239
0.000256
0.000223
0.000254
0.000253
0.000251
0.000252
0.000253
0.000231
0.000248
0.000279
0.000395
0.000462
0.001847
0.001329
0.000445
0.000458
0.000445
0.000243
0.000239
0.000259
0.002127
0.000554
0.000389
0.000235
0.000277
0.000281
0.000197
0.000057
0.000208
0.000242
0.000256
0.000247
0.000238
0.000368
0.000397
0.000318
0.000304
0.000225
0.000239
0.000249
0.000264
0.002108
0.000422
0.000337
0.000221
0.000247
0.000281
0.000241
0.000248
0.002485
0.000312
0.000219
0.000261
0.000253
0.000257
0.000269
0.000322
0.000237
0.000197
0.000056
0.000229
0.000269
0.000615
0.000351
0.000264
0.000213
0.000239
0.000253
0.000265
0.000251
0.001965
0.000391
0.000255
0.000279
0.000239
0.000269
0.000270
0.000236
0.002206
0.000444
0.000231
0.000268
0.000268
0.000259
0.000255
0.000253
0.000299
0.000232
0.000279
0.000246
0.000198
0.000057
0.000212
0.000239
0.000266
0.000209
0.000245
0.000257
0.000238
0.000246
0.000237
0.002178
0.000231
0.000270
0.000227
0.000428
0.000226
0.000250
0.000309
0.000256
0.000254
0.000253
0.001972
0.000265
0.000338
0.000360
0.000429
0.000413
0.000315
0.000253
0.000259
0.000248
0.000198
0.000057
0.000207
0.000241
0.000234
0.000254
0.000294
0.000279
0.000230
0.002294
0.000258
0.000223
0.000258
0.000254
0.000232
0.000287
0.000274
0.002129
0.000591
0.000225
0.000247
0.000243
0.000261
0.000260
0.000291
0.000264
0.000264
0.000253
0.000286
0.000256
0.000262
0.000264
0.000201
0.000060
0.001815
0.001442
0.000201
0.000230
0.000245
0.000254
0.000249
0.000277
0.000441
0.000280
0.002199
0.000261
0.000226
0.000271
0.000253
0.000568
0.000365
0.000301
0.000219
0.000253
0.000249
0.000269
0.000262
0.000226
0.000265
0.000263
0.000269
0.000270
0.000335
0.000624
0.000338
0.000058
0.000193
0.000253
0.000250
0.000243
0.000268
0.000245
0.000256
0.000242
0.001486
0.002120
0.000575
0.000269
0.000407
0.000709
0.000343
0.000236
0.000254
0.000249
0.000266
0.000263
0.000248
0.000248
0.000250
0.000274
0.003010
0.000330
0.000258
0.000256
0.000289
0.000299
0.000375
0.000057
0.001929
0.000221
0.000238
0.000229
0.000297
0.000393
0.000421
0.000297
0.000285
0.000223
0.000244
0.000246
0.000258
0.000252
0.000272
0.000252
0.000257
0.000286
0.001815
0.000247
0.000237
0.000254
0.000276
0.000278
0.000269
0.000273
0.001500
0.000282
0.000246
0.000263
0.000177
0.000057
0.000198
0.000233
0.000265
0.000225
0.000264
0.000227
0.000285
0.000399
0.000400
0.000298
0.000223
0.000242
0.000262
0.000325
0.000424
0.000314
0.000236
0.000251
0.000263
0.000341
0.000427
0.000508
0.000240
0.000257
0.000261
0.000256
0.000253
0.000271
0.000273
0.000267
0.000202
0.000057
0.001412
0.000466
0.000209
0.001936
0.000249
0.000519
0.000361
0.000319
0.000231
0.000244
0.000264
0.000243
0.000255
0.000238
0.000265
0.000262
0.000462
0.000295
0.000412
0.000421
0.000285
0.000231
0.000251
0.000271
0.000272
0.000268
0.000264
0.000268
0.000389
0.000454
0.001337
0.000058
0.000201
0.000229
0.002076
0.000334
0.000304
0.000236
0.000282
0.000218
0.000260
0.000263
0.000230
0.000242
0.000263
0.000252
0.000254
0.000363
0.000710
0.001761
0.000227
0.000250
0.000257
0.000264
0.000430
0.000366
0.001587
0.000297
0.000363
0.001925
0.000265
0.000252
0.000192
0.000057
0.000217
0.000226
0.000232
0.000249
0.000228
0.000250
0.000267
0.000268
0.000326
0.000265
0.000376
0.000361
0.000347
0.000293
0.000245
0.000272
0.000262
0.000247
0.000264
0.000246
0.000309
0.000285
0.000266
0.000261
0.000272
0.001492
0.000303
0.000377
0.002080
0.000235
0.000180
0.000057
0.000228
0.000241
0.000236
0.000249
0.000486
0.000207
0.000265
0.000357
0.000323
0.000332
0.000295
0.000208
0.000268
0.000260
0.000271
0.000322
0.000434
0.000428
0.000243
0.000421
0.000588
0.000421
0.001530
0.000234
0.000254
0.001975
0.000350
0.000238
0.000237
0.000302
0.000189
0.000057
0.000212
0.000239
0.000227
0.000242
0.000252
0.000272
0.000254
0.000267
0.000267
0.000240
0.001810
0.000314
0.000386
0.000287
0.000455
0.000364
0.000355
0.001511
0.000238
0.000279
0.002152
0.000522
0.000258
0.000241
0.000268
0.000267
0.000507
0.000219
0.000260
0.000278
0.000198
0.000057
0.000281
0.000364
0.000382
0.000271
0.000210
0.000239
0.000268
0.000244
0.000265
0.000301
0.000219
0.000252
0.000258
0.000264
0.000380
0.000423
0.001325
0.000264
0.000278
0.001898
0.000376
0.000295
0.000235
0.000257
0.000247
0.000283
0.000262
0.000264
0.000245
0.000273
0.000208
0.000057
0.000206
0.000460
0.001975
0.000259
0.000222
0.000254
0.000301
0.000265
0.000382
0.000482
0.001296
0.000368
0.000355
0.002079
0.000216
0.000242
0.000286
0.000265
0.000246
0.000252
0.000273
0.000293
0.000256
0.000329
0.000501
0.000410
0.000272
0.002243
0.000491
0.000525
0.000347
0.000058
0.000210
0.000243
0.000239
0.001963
0.000231
0.000231
0.000240
0.000248
0.000237
0.000260
0.000246
0.000266
0.000253
0.000310
0.000468
0.001408
0.000256
0.000240
0.000268
0.000255
0.000233
0.000257
0.000265
0.000261
0.000308
0.000520
0.000424
0.000242
0.001598
0.000274
0.000156
0.000057
0.000198
0.000224
0.000247
0.000229
0.000261
0.000270
0.000226
0.000243
0.000259
0.000359
0.000374
0.001422
0.000232
0.000229
0.000248
0.000292
0.000224
0.000260
0.000292
0.000512
0.000550
0.000269
0.000233
0.001566
0.000226
0.000265
0.000294
0.000276
0.000264
0.000267
0.000193
0.000057
0.000207
0.000240
0.000285
0.000246
0.000268
0.000225
0.000239
0.000240
0.000276
0.000227
0.000249
0.000260
0.000266
0.001476
0.000357
0.000210
0.000255
0.000266
0.000271
0.000307
0.000370
0.000291
0.000235
0.000261
0.000263
0.000282
0.000240
0.001412
0.000275
0.000237
0.000168
0.000057
0.000202
0.000230
0.000259
0.000264
0.000265
0.000223
0.000247
0.000262
0.000221
0.000265
0.000243
0.000257
0.000227
0.000341
0.000371
0.000355
0.000243
0.000228
0.001634
0.000248
0.000233
0.000262
0.000264
0.000285
0.000384
0.000378
0.000454
0.000275
0.000250
0.001603
0.000157
0.000057
0.000401
0.000274
0.000360
0.000301
0.000233
0.000211
0.000249
0.000271
0.000257
0.000253
0.000235
0.000239
0.001462
0.000289
0.000299
0.000229
0.000266
0.000261
0.000250
0.000265
0.000254
0.000233
0.000262
0.000270
0.000333
0.000309
0.000469
0.000355
0.000247
0.000253
0.000190
0.000058
0.000222
0.000232
0.000396
0.000417
0.000414
0.000210
0.000249
0.000251
0.000249
0.000255
0.000244
0.000226
0.000255
0.000246
0.001263
0.000318
0.000213
0.000257
0.000259
0.000282
0.000225
0.000266
0.000250
0.000263
0.000254
0.000257
0.000339
0.000694
0.000419
0.000232
0.000180
0.000057
0.000207
0.001556
0.000282
0.000304
0.000478
0.000356
0.000213
0.000259
0.000264
0.000260
0.000230
0.000267
0.000269
0.000269
0.000260
0.001552
0.000230
0.000280
0.000264
0.000269
0.000265
0.000236
0.000266
0.000262
0.000267
0.000316
0.000418
0.000313
0.000386
0.000226
0.000192
0.000057
0.000212
0.000249
0.000240
0.001656
0.000370
0.000360
0.000211
0.000245
0.000255
0.000272
0.000279
0.000264
0.000243
0.000258
0.000232
0.000272
0.000434
0.001291
0.000248
0.000235
0.001495
0.000551
0.000334
0.000394
0.000333
0.000245
0.000268
0.000461
0.000236
0.000260
0.000192
0.000058
0.000289
0.000219
0.000252
0.000242
0.000253
0.000266
0.000226
0.000253
0.000274
0.000234
0.000246
0.000254
0.000383
0.000480
0.001614
0.001522
0.000322
0.000582
0.000297
0.000224
0.000236
0.000250
0.000252
0.000272
0.000245
0.000279
0.000247
0.000273
0.001513
0.000345
0.000176
0.000057
0.000211
0.000343
0.000353
0.000331
0.000253
0.000218
0.000246
0.000455
0.000320
0.000362
0.002182
0.000319
0.000694
0.000519
0.000459
0.000254
0.000335
0.000388
0.000331
0.000278
0.000400
0.000270
0.001516
0.000536
0.000217
0.000266
0.000259
0.000249
0.000272
0.000261
0.000194
0.000058
0.000210
0.000247
0.000259
0.000247
0.000241
0.001666
0.000880
0.000990
0.000212
0.000236
0.000276
0.000241
0.000259
0.000261
0.000250
0.000252
0.000253
0.000269
0.000260
0.000293
0.001407
0.000324
0.000249
0.000242
0.000229
0.000258
0.000263
0.000279
0.000267
0.000286
0.001887
0.000058
0.000194
0.000233
0.001551
0.000854
0.000424
0.000315
0.000250
0.000213
0.000246
0.000268
0.000243
0.000247
0.000244
0.002046
0.000412
0.000211
0.000250
0.000260
0.000263
0.000258
0.000198
