0.000114
0.017601
0.003969
0.000285
0.000257
0.000299
0.000322
0.000226
0.000327
0.000287
0.000253
0.000331
0.000499
0.000495
0.000393
0.000361
0.000291
0.000314
0.000355
0.000418
0.001832
0.000387
0.000721
0.000271
0.000238
0.000303
0.000316
0.000314
0.000416
0.000462
0.000415
0.000308
0.000058
0.000210
0.000268
0.000271
0.000283
0.000245
0.000252
0.000281
0.000285
0.000271
0.000291
0.000400
0.000434
0.000311
0.000259
0.000375
0.000346
0.000363
0.000254
0.000253
0.001699
0.000314
0.000283
0.000424
0.000241
0.000281
0.000281
0.000291
0.000290
0.000275
0.000329
0.000382
0.000057
0.000245
0.000257
0.000260
0.000263
0.000251
0.000245
0.000264
0.000256
0.000283
0.001667
0.000232
0.000226
0.000298
0.000252
0.000276
0.000253
0.000260
0.000254
0.000355
0.001788
0.000239
0.000281
0.000452
0.000428
0.000385
0.000242
0.000275
0.000456
0.000528
0.000750
0.000178
0.000058
0.000194
0.000246
0.000252
0.000240
0.000291
0.000254
0.000272
0.000624
0.000355
0.000260
0.000239
0.000255
0.000245
0.000256
0.000252
0.000262
0.000263
0.000247
0.000295
0.000323
0.001684
0.000261
0.000247
0.000433
0.000274
0.000751
0.000628
0.000523
0.000353
0.000240
0.000219
0.000057
0.000221
0.000246
0.000292
0.000214
0.000281
0.000236
0.000306
0.000402
0.001508
0.000195
0.000252
0.000245
0.000253
0.000259
0.000261
0.000282
0.000277
0.000845
0.001341
0.000303
0.000243
0.000416
0.000235
0.000249
0.000259
0.000261
0.000263
0.000273
0.000257
0.000272
0.000196
0.000056
0.000202
0.000226
0.000247
0.000266
0.000234
0.000249
0.000231
0.000260
0.000238
0.000254
0.001626
0.000266
0.000228
0.000243
0.000260
0.000244
0.000248
0.000249
0.000259
0.000248
0.000296
0.001652
0.000271
0.000257
0.000437
0.000257
0.000252
0.000254
0.000263
0.000273
0.000195
0.000056
0.000221
0.000233
0.000251
0.000244
0.000257
0.000230
0.000262
0.000240
0.000258
0.000259
0.000248
0.000259
0.000253
0.000279
0.001638
0.000273
0.000288
0.000227
0.000253
0.000274
0.000266
0.000239
0.000243
0.000268
0.001779
0.000396
0.000343
0.000373
0.000236
0.000278
0.000194
0.000057
0.000222
0.000239
0.000247
0.000265
0.000259
0.000259
0.000268
0.000383
0.000450
0.000397
0.000204
0.000250
0.000255
0.000248
0.001558
0.000526
0.000326
0.000411
0.000313
0.000234
0.000270
0.000281
0.000275
0.001737
0.000517
0.000452
0.000246
0.000256
0.000239
0.000267
0.000191
0.000056
0.000207
0.000235
0.000259
0.000276
0.000348
0.000399
0.000388
0.000281
0.000216
0.000251
0.000287
0.000214
0.000252
0.001790
0.000420
0.000282
0.000226
0.000253
0.000270
0.000292
0.000240
0.000257
0.001804
0.000340
0.000331
0.000381
0.000236
0.000264
0.000275
0.000392
0.000329
0.000056
0.000215
0.000368
0.000377
0.000283
0.000239
0.000250
0.000248
0.000256
0.000241
0.000238
0.000232
0.000254
0.001589
0.000299
0.000328
0.000231
0.000253
0.000252
0.000251
0.000306
0.000253
0.000322
0.000249
0.001815
0.000244
0.000496
0.000254
0.000252
0.000257
0.000267
0.000268
0.000056
0.000403
0.000533
0.000620
0.000205
0.000231
0.000275
0.000230
0.000218
0.000261
0.000253
0.000254
0.001696
0.000247
0.000441
0.000370
0.000224
0.000240
0.000232
0.000252
0.000256
0.000356
0.001756
0.000233
0.000468
0.001856
0.000533
0.000350
0.000264
0.000238
0.000266
0.000189
0.000055
0.000199
0.000242
0.000241
0.000240
0.000277
0.001656
0.000206
0.000227
0.000249
0.000255
0.000244
0.000252
0.000255
0.000246
0.000276
0.000427
0.000609
0.000252
0.000236
0.000270
0.000277
0.000240
0.000254
0.000424
0.000436
0.000234
0.000434
0.000472
0.000459
0.000270
0.000208
0.000056
0.000223
0.000236
0.000255
0.000250
0.000252
0.000230
0.000246
0.000487
0.001774
0.000280
0.000219
0.000240
0.000244
0.000242
0.000259
0.000277
0.000435
0.000474
0.000366
0.000221
0.000258
0.000299
0.000294
0.000239
0.000282
0.000427
0.000343
0.000628
0.000445
0.000448
0.000171
0.000056
0.000211
0.000259
0.000276
0.000201
0.000232
0.000241
0.000247
0.000259
0.000232
0.000286
0.000337
0.000515
0.001339
0.000222
0.000237
0.000249
0.000259
0.000250
0.000253
0.000261
0.000273
0.000434
0.000430
0.000260
0.000264
0.000262
0.000253
0.000271
0.000267
0.000258
0.000381
0.000055
0.000199
0.000232
0.000229
0.000272
0.000523
0.000439
0.000244
0.000258
0.000251
0.000238
0.000261
0.000226
0.000299
0.000250
0.000240
0.000473
0.000506
0.001563
0.000271
0.000238
0.000258
0.000267
0.000252
0.000245
0.000331
0.000378
0.000461
0.000469
0.000321
0.000216
0.000198
0.000056
0.000224
0.000436
0.000229
0.000217
0.000290
0.000226
0.000325
0.000517
0.000334
0.000330
0.000224
0.000278
0.000262
0.000240
0.000512
0.000335
0.000231
0.000249
0.000417
0.001628
0.000276
0.000234
0.000523
0.000250
0.000274
0.000283
0.000251
0.000318
0.000584
0.000377
0.000260
0.000056
0.000204
0.000214
0.000238
0.000252
0.000403
0.000313
0.000288
0.000227
0.000358
0.000535
0.000367
0.000261
0.000223
0.000242
0.000256
0.000261
0.000253
0.000259
0.000232
0.000347
0.000294
0.000297
0.001884
0.000236
0.000257
0.000258
0.000275
0.000346
0.000447
0.000670
0.000433
0.000057
0.000219
0.000326
0.000306
0.000420
0.000382
0.000212
0.000268
0.000306
0.000478
0.000423
0.000263
0.000238
0.000235
0.000274
0.000278
0.000219
0.000259
0.000269
0.000265
0.000258
0.000265
0.000441
0.000682
0.001301
0.000302
0.000434
0.000419
0.000246
0.000456
0.000401
0.000314
0.000056
0.000231
0.000383
0.000278
0.000212
0.000220
0.000251
0.000410
0.000234
0.000241
0.000385
0.000417
0.000442
0.000236
0.000255
0.000263
0.000250
0.000355
0.000387
0.000346
0.000256
0.000241
0.000336
0.000668
0.001703
0.000226
0.000421
0.000322
0.000220
0.000252
0.000463
0.000355
0.000056
0.000228
0.000229
0.000246
0.000255
0.000250
0.000260
0.000224
0.000327
0.000452
0.000269
0.000433
0.000422
0.000257
0.000584
0.000249
0.000235
0.000273
0.000281
0.000214
0.000342
0.000232
0.000245
0.000275
0.000473
0.000395
0.001681
0.000273
0.000243
0.000249
0.000268
0.000186
0.000057
0.000332
0.000472
0.000324
0.000215
0.000251
0.000262
0.000241
0.000236
0.000273
0.000236
0.000221
0.000264
0.000402
0.000522
0.000399
0.000280
0.000256
0.000247
0.000339
0.000384
0.000381
0.000336
0.000361
0.000393
0.000242
0.000269
0.000261
0.000277
0.001798
0.000227
0.000210
0.000056
0.000210
0.000227
0.000251
0.000291
0.000331
0.000543
0.000320
0.000212
0.000286
0.000237
0.000251
0.000248
0.000537
0.000433
0.000484
0.000270
0.000264
0.000264
0.000426
0.000466
0.000349
0.000427
0.000447
0.000475
0.000233
0.000256
0.000264
0.000241
0.000265
0.001732
0.000394
0.000056
0.000253
0.000329
0.000204
0.000239
0.000260
0.000250
0.000232
0.000496
0.000375
0.000307
0.000297
0.000285
0.000402
0.000629
0.000317
0.000213
0.000254
0.000255
0.000252
0.000268
0.000274
0.000259
0.000244
0.000283
0.000326
0.000320
0.000419
0.000342
0.000252
0.000248
0.000188
0.000055
0.000454
0.000282
0.000498
0.000229
0.000201
0.000256
0.000240
0.000258
0.000247
0.000216
0.000250
0.000279
0.000292
0.000477
0.000575
0.000356
0.000264
0.000312
0.000384
0.000342
0.000312
0.000222
0.000249
0.000258
0.001746
0.000248
0.001734
0.000983
0.000390
0.000297
0.000164
0.000056
0.000190
0.000240
0.000235
0.000246
0.000267
0.000242
0.000255
0.000249
0.000252
0.000300
0.000375
0.000415
0.000353
0.000379
0.000243
0.000252
0.000258
0.000291
0.000222
0.000250
0.000256
0.000260
0.001814
0.000237
0.000248
0.000268
0.000277
0.000268
0.001867
0.000565
0.000219
0.000057
0.000234
0.000216
0.000233
0.000241
0.000258
0.000246
0.000247
0.000247
0.000267
0.000331
0.000667
0.000251
0.000367
0.000234
0.000237
0.000264
0.000321
0.000434
0.000369
0.000249
0.001788
0.000253
0.000241
0.000254
0.000260
0.000276
0.000242
0.000254
0.000323
0.000273
0.000465
0.000056
0.000205
0.000228
0.000242
0.000269
0.000237
0.000242
0.000254
0.000259
0.000239
0.000252
0.000242
0.000295
0.000349
0.000441
0.000390
0.000201
0.000444
0.000245
0.000248
0.000255
0.000254
0.000260
0.000279
0.000257
0.000276
0.001785
0.000243
0.000250
0.000266
0.000240
0.000201
0.000070
0.000331
0.000278
0.000240
0.000219
0.000239
0.000246
0.000232
0.000253
0.000247
0.000226
0.000228
0.000265
0.000253
0.000379
0.000408
0.000343
0.000290
0.000239
0.000256
0.000251
0.000270
0.000256
0.000248
0.000264
0.000249
0.000268
0.000331
0.001608
0.000276
0.000232
0.000195
0.000056
0.000209
0.000242
0.000249
0.000262
0.000341
0.000433
0.000327
0.000310
0.000236
0.000247
0.000272
0.000231
0.000245
0.000257
0.000257
0.000261
0.000244
0.000254
0.000255
0.000264
0.000257
0.000273
0.000251
0.000234
0.000240
0.000281
0.000277
0.000262
0.000252
0.000268
0.000187
0.000055
0.000190
0.000242
0.000254
0.000276
0.000231
0.000235
0.000241
0.000259
0.000281
0.000244
0.000239
0.000240
0.000255
0.000249
0.000286
0.000244
0.000255
0.000246
0.000299
0.000260
0.000267
0.000321
0.000267
0.000222
0.000304
0.000257
0.000263
0.000248
0.000286
0.000376
0.000688
0.000056
0.000223
0.000284
0.000227
0.000227
0.000239
0.000252
0.000242
0.000248
0.000250
0.000247
0.000267
0.000335
0.000469
0.000419
0.001573
0.000233
0.000493
0.000228
0.000274
0.000470
0.000411
0.000378
0.000226
0.000280
0.000251
0.000253
0.000282
0.000255
0.000312
0.000272
0.000170
0.000055
0.000364
0.000418
0.000324
0.000336
0.000206
0.000284
0.000225
0.000241
0.000235
0.000242
0.000261
0.000251
0.000234
0.000285
0.000353
0.000467
0.000408
0.001795
0.000233
0.000259
0.000510
0.000255
0.000475
0.000256
0.000317
0.000330
0.000297
0.000231
0.000231
0.000250
0.000203
0.000055
0.000213
0.000230
0.000235
0.000284
0.000409
0.000396
0.000347
0.000259
0.000248
0.000231
0.000235
0.000267
0.000266
0.000264
0.000247
0.000260
0.000297
0.000494
0.000436
0.000334
0.000240
0.001742
0.000322
0.000494
0.000623
0.000364
0.000315
0.000234
0.000256
0.000279
0.000434
0.000055
0.000208
0.000275
0.000215
0.000268
0.000394
0.000475
0.000426
0.000202
0.000272
0.000281
0.000237
0.000240
0.000257
0.000293
0.000311
0.000232
0.000283
0.000429
0.000338
0.000373
0.000502
0.001845
0.000269
0.000510
0.000408
0.000359
0.000226
0.000263
0.000295
0.000261
0.000204
0.000057
0.000211
0.000335
0.000361
0.000392
0.000389
0.000281
0.000335
0.000208
0.000246
0.000254
0.000274
0.000226
0.000258
0.000248
0.000251
0.000264
0.000348
0.000449
0.000395
0.000359
0.000309
0.000240
0.000253
0.001721
0.000373
0.000555
0.000690
0.000224
0.000266
0.000315
0.000159
0.000056
0.000211
0.000218
0.000347
0.000239
0.000259
0.000400
0.000444
0.000249
0.000245
0.000527
0.000219
0.000259
0.000261
0.000296
0.000259
0.000260
0.000209
0.000382
0.000417
0.000469
0.000253
0.000234
0.000259
0.000244
0.000267
0.000268
0.000235
0.000265
0.000260
0.000282
0.000196
0.000057
0.000304
0.000367
0.000200
0.000259
0.000250
0.000256
0.000238
0.000288
0.000249
0.000239
0.000280
0.000332
0.000519
0.000276
0.000380
0.000263
0.000222
0.000237
0.000261
0.000272
0.000286
0.000258
0.000240
0.000267
0.000265
0.000365
0.000377
0.000358
0.000355
0.000245
0.000170
0.000056
0.000205
0.000219
0.000280
0.000247
0.000233
0.000269
0.000267
0.000234
0.000497
0.000209
0.000256
0.000261
0.000234
0.000266
0.000272
0.000298
0.000243
0.000346
0.000215
0.000245
0.000284
0.000235
0.000263
0.000266
0.000275
0.000259
0.000261
0.000259
0.000260
0.000490
0.000163
0.000057
0.000204
0.000236
0.000250
0.000290
0.000197
0.000249
0.000359
0.000405
0.000240
0.000233
0.000255
0.000256
0.000240
0.000218
0.000454
0.001814
0.000229
0.000265
0.000285
0.000321
0.000406
0.000368
0.000366
0.000408
0.000387
0.000397
0.000238
0.000269
0.000273
0.000274
0.001391
0.000055
0.000429
0.000325
0.000213
0.000225
0.000232
0.000253
0.000233
0.000255
0.000239
0.000275
0.000243
0.000263
0.000252
0.000321
0.000552
0.001580
0.000238
0.000234
0.000256
0.000258
0.000236
0.000286
0.000332
0.000404
0.000291
0.000360
0.000220
0.000263
0.000283
0.000261
0.000182
0.000056
0.001233
0.000507
0.000343
0.000292
0.000208
0.000226
0.000231
0.000241
0.000494
0.000213
0.000239
0.000249
0.000426
0.000426
0.000400
0.000355
0.000268
0.000220
0.000320
0.000361
0.000273
0.000258
0.000273
0.000242
0.000270
0.000668
0.000484
0.000240
0.000255
0.000266
0.000172
0.000056
0.000223
0.000214
0.000240
0.000251
0.001494
0.000276
0.000224
0.000254
0.000264
0.000230
0.000253
0.000253
0.000242
0.000261
0.000270
0.000256
0.000619
0.000488
0.000274
0.001753
0.000264
0.000265
0.000315
0.000481
0.000466
0.000412
0.000249
0.000253
0.000256
0.000274
0.000198
0.000056
0.000222
0.000248
0.000235
0.000310
0.001262
0.000235
0.000251
0.000261
0.000256
0.000223
0.000236
0.000257
0.000273
0.000248
0.000246
0.000307
0.000496
0.000365
0.000332
0.000259
0.000271
0.000271
0.000250
0.000231
0.000284
0.000268
0.000246
0.000274
0.000271
0.000343
0.000561
0.000056
0.000222
0.000249
0.000234
0.000258
0.000265
0.000244
0.000230
0.000262
0.000272
0.000275
0.001412
0.000232
0.000232
0.000262
0.000235
0.000247
0.000289
0.000244
0.000285
0.000240
0.000306
0.000467
0.000446
0.000375
0.000241
0.000270
0.001766
0.000252
0.000260
0.000316
0.000427
0.000056
0.000216
0.000397
0.000451
0.000509
0.000512
0.000535
0.001508
0.000412
0.000517
0.000651
0.000556
0.000748
0.000457
0.000612
0.000590
0.001880
0.000442
0.000401
0.000397
0.000327
0.000218
0.000279
0.000283
0.000272
0.000256
0.000287
0.000287
0.000285
0.000264
0.000292
0.001363
0.000056
0.000210
0.000235
0.000262
0.000216
0.000262
0.000259
0.000233
0.000241
0.000250
0.000251
0.000240
0.000240
0.000259
0.000260
0.000257
0.000274
0.001805
0.000268
0.000259
0.000255
0.000243
0.000273
0.000261
0.000311
0.000481
0.000362
0.000298
0.000238
0.000256
0.000286
0.000209
0.000056
0.000203
0.001367
0.000324
0.000273
0.000247
0.000258
0.000226
0.000236
0.000232
0.000237
0.000212
0.000249
0.000250
0.000512
0.000366
0.000305
0.000245
0.001814
0.000352
0.000229
0.000256
0.000263
0.000254
0.000268
0.000274
0.000283
0.000270
0.000259
0.000259
0.000320
0.000203
0.000056
0.000195
0.000240
0.000251
0.001436
0.000220
0.000247
0.000260
0.000242
0.000233
0.000268
0.000245
0.000251
0.000245
0.000284
0.000237
0.000252
0.000267
0.000267
0.000268
0.000252
0.000266
0.001773
0.000268
0.001762
0.000260
0.000261
0.000253
0.000277
0.000270
0.000272
0.000198
0.000056
0.000208
0.000242
0.001345
0.000235
0.000246
0.000243
0.000265
0.000251
0.000247
0.000250
0.000255
0.000256
0.000242
0.000265
0.000256
0.000263
0.000260
0.000283
0.000291
0.000233
0.001876
0.000236
0.001834
0.000235
0.000272
0.000283
0.000219
0.000244
0.000265
0.000263
0.000199
0.000056
0.001440
0.000211
0.000229
0.000250
0.000237
0.000244
0.000363
0.000292
0.000231
0.000255
0.000249
0.000261
0.000262
0.000315
0.000423
0.000279
0.000250
0.000278
0.000250
0.000260
0.000268
0.000345
0.000222
0.000250
0.000274
0.000278
0.000271
0.000331
0.000638
0.000369
0.000205
0.000056
0.000226
0.000237
0.000257
0.000310
0.000368
0.000249
0.001667
0.000334
0.000280
0.000272
0.000249
0.000280
0.000261
0.000280
0.000284
0.000308
0.000334
0.000583
0.000377
0.000259
0.000310
0.000266
0.000259
0.000278
0.000324
0.000266
0.000264
0.000247
0.000261
0.000319
0.000412
0.000057
0.000251
0.000468
0.000266
0.000260
0.000251
0.000226
0.000229
0.000249
0.000255
0.000271
0.001508
0.000216
0.000237
0.000243
0.000243
0.000285
0.000297
0.000220
0.000271
0.000259
0.000260
0.000428
0.000554
0.000247
0.000272
0.000287
0.000267
0.000272
0.000227
0.000303
0.000172
0.000056
0.000184
0.000241
0.000285
0.000454
0.000413
0.000230
0.000228
0.000246
0.000270
0.000233
0.000253
0.000235
0.000253
0.000268
0.000239
0.000234
0.000424
0.001192
0.000233
0.000255
0.000271
0.000253
0.000356
0.000434
0.000241
0.000342
0.000558
0.000343
0.000386
0.000234
0.000176
0.000056
0.000222
0.000242
0.000265
0.000258
0.000252
0.000250
0.000357
0.000394
0.000409
0.000304
0.000358
0.000392
0.000397
0.000364
0.000264
0.000233
0.000239
0.000262
0.000542
0.000340
0.001243
0.000223
0.000280
0.000269
0.000239
0.000234
0.000266
0.000436
0.000288
0.000462
0.000234
0.000055
0.000203
0.000247
0.000259
0.000240
0.000237
0.000249
0.000259
0.000250
0.000296
0.000380
0.000374
0.000394
0.000242
0.000247
0.000250
0.000260
0.000244
0.000263
0.000264
0.000276
0.000420
0.000264
0.000333
0.000477
0.000284
0.000251
0.000273
0.000268
0.000251
0.000343
0.000155
0.000056
0.000316
0.000333
0.000269
0.000425
0.000435
0.000349
0.000245
0.000242
0.000247
0.000271
0.000259
0.000260
0.000234
0.000252
0.000245
0.000255
0.000238
0.000351
0.000468
0.000381
0.000229
0.000273
0.000241
0.000246
0.000266
0.000286
0.000264
0.000283
0.000262
0.000267
0.000297
0.000056
0.000275
0.000316
0.000235
0.000265
0.000230
0.000242
0.000247
0.000257
0.000265
0.000256
0.000248
0.000257
0.000257
0.000556
0.000381
0.000293
0.000239
0.000247
0.000257
0.000268
0.000255
0.000257
0.000264
0.000286
0.000251
0.000301
0.000412
0.000642
0.000378
0.000250
0.000174
0.000055
0.000383
0.000197
0.000222
0.000248
0.000249
0.000250
0.000233
0.000250
0.000257
0.000258
0.000226
0.000241
0.000268
0.000230
0.000244
0.000268
0.000248
0.000262
0.000296
0.000240
0.000266
0.000262
0.000264
0.000262
0.000265
0.000235
0.000268
0.000279
0.000252
0.000278
0.000204
0.000056
0.000198
0.000234
0.000241
0.000253
0.000224
0.000278
0.000241
0.000243
0.000259
0.000276
0.000233
0.000230
0.000264
0.000397
0.000249
0.000296
0.000251
0.000261
0.000256
0.000279
0.000294
0.000212
0.000249
0.000250
0.000277
0.000269
0.000258
0.000248
0.000272
0.000260
0.000204
0.000055
0.000217
0.000358
0.000368
0.000282
0.000292
0.000257
0.000271
0.000259
0.000219
0.000246
0.000279
0.000235
0.000249
0.000235
0.000260
0.000283
0.000241
0.000268
0.000246
0.000260
0.000278
0.000266
0.000274
0.000257
0.000294
0.000226
0.000262
0.000264
0.000274
0.000258
0.000196
0.000055
0.000202
0.000228
0.000264
0.000267
0.000250
0.000438
0.000216
0.000272
0.000248
0.000418
0.000531
0.000289
0.000224
0.000249
0.000276
0.000267
0.000226
0.000269
0.000262
0.000274
0.000259
0.000261
0.000258
0.000308
0.000541
0.000457
0.000268
0.000307
0.000275
0.000244
0.000191
0.000055
0.000230
0.000219
0.000244
0.000251
0.000277
0.000679
0.000419
0.000295
0.000212
0.000247
0.000250
0.000257
0.000249
0.000247
0.000256
0.000268
0.000275
0.000234
0.000683
0.000325
0.000315
0.000244
0.000263
0.000295
0.000267
0.000254
0.000264
0.000286
0.000235
0.000315
0.000357
0.000055
0.000255
0.000227
0.000260
0.000238
0.000242
0.000267
0.000212
0.000252
0.000240
0.000261
0.000248
0.000250
0.000241
0.000461
0.000493
0.000411
0.000232
0.000255
0.000264
0.000242
0.000269
0.000286
0.000482
0.000217
0.000263
0.000614
0.000414
0.000468
0.000255
0.000252
0.000187
0.000056
0.000206
0.000230
0.000241
0.000242
0.000255
0.000254
0.000287
0.000446
0.000590
0.000428
0.000222
0.000257
0.000277
0.000275
0.000270
0.000235
0.000249
0.000237
0.000285
0.000324
0.000370
0.000663
0.000363
0.000257
0.000366
0.000368
0.000490
0.000232
0.000274
0.000351
0.000461
0.000056
0.000276
0.000231
0.000440
0.000220
0.000236
0.000247
0.000259
0.000260
0.000228
0.000244
0.000297
0.000377
0.000356
0.000335
0.000229
0.000255
0.000265
0.000246
0.000270
0.000272
0.000279
0.000248
0.000254
0.000270
0.000400
0.000388
0.000496
0.000232
0.000267
0.000267
0.000221
0.000056
0.000228
0.000256
0.000223
0.000252
0.000248
0.000287
0.000313
0.000384
0.000471
0.000263
0.000380
0.000225
0.000260
0.000261
0.000258
0.000233
0.000261
0.000259
0.000337
0.000353
0.000515
0.000312
0.000463
0.000263
0.000383
0.000421
0.000385
0.000244
0.000260
0.000325
0.000416
0.000056
0.000223
0.000273
0.000225
0.000253
0.000256
0.000260
0.000248
0.000263
0.000258
0.000238
0.000241
0.000389
0.000473
0.000305
0.000386
0.000223
0.000265
0.000265
0.000264
0.000236
0.000253
0.000270
0.000246
0.000276
0.000275
0.000316
0.000499
0.000481
0.000249
0.000268
0.000192
0.000055
0.000220
0.000238
0.000276
0.000249
0.000243
0.000376
0.000462
0.000478
0.000354
0.000689
0.000261
0.000213
0.000245
0.000261
0.000254
0.000264
0.000276
0.000270
0.000489
0.000375
0.001543
0.000324
0.000252
0.000289
0.000267
0.000257
0.000371
0.000435
0.000328
0.000338
0.000183
0.000056
0.000226
0.000230
0.000243
0.000289
0.000204
0.000254
0.000301
0.000221
0.000249
0.000323
0.000326
0.000382
0.000270
0.000339
0.000394
0.000340
0.000252
0.000250
0.000286
0.000236
0.000250
0.000250
0.000308
0.000225
0.000321
0.000436
0.000430
0.000283
0.000257
0.000268
0.000186
0.000056
0.000258
0.000221
0.000258
0.000261
0.000235
0.000240
0.000470
0.000208
0.000236
0.000258
0.000242
0.000251
0.000265
0.000253
0.000253
0.000268
0.000258
0.000288
0.000253
0.000252
0.000284
0.000268
0.000291
0.000244
0.000266
0.000279
0.000270
0.000265
0.000256
0.000273
0.000176
0.000056
0.000237
0.000244
0.000283
0.000435
0.000373
0.000256
0.000230
0.000249
0.000261
0.000252
0.000243
0.000256
0.000267
0.000281
0.000217
0.000246
0.000264
0.000250
0.000285
0.000338
0.000510
0.000325
0.000227
0.000268
0.000264
0.000254
0.000267
0.000276
0.000247
0.000278
0.000201
0.000056
0.000365
0.000380
0.000441
0.000200
0.000260
0.000252
0.000415
0.000217
0.000232
0.000261
0.000251
0.000289
0.000342
0.000466
0.001845
0.000258
0.000241
0.000254
0.000275
0.000240
0.000278
0.000482
0.000606
0.000324
0.000235
0.000258
0.000279
0.000429
0.000273
0.000286
0.000159
0.000056
0.000235
0.000346
0.000317
0.000347
0.000500
0.000197
0.000240
0.000252
0.000252
0.000238
0.000262
0.000261
0.000243
0.000364
0.000390
0.000445
0.000231
0.000249
0.000262
0.000253
0.000265
0.000316
0.000231
0.000285
0.000274
0.000471
0.000471
0.000407
0.000468
0.000234
0.000206
0.000056
0.000200
0.000239
0.000258
0.000231
0.000246
0.000250
0.000265
0.000297
0.000318
0.000442
0.000374
0.000346
0.000211
0.000258
0.000262
0.000294
0.000294
0.000240
0.000274
0.000289
0.000221
0.000345
0.000538
0.000257
0.000303
0.000253
0.000257
0.000438
0.000415
0.000299
0.000192
0.000056
0.000224
0.000315
0.000258
0.000421
0.000378
0.000199
0.000243
0.000256
0.000266
0.000260
0.000255
0.000252
0.000227
0.000258
0.000257
0.000379
0.000322
0.000353
0.000336
0.000308
0.000489
0.000221
0.000282
0.000275
0.000303
0.000280
0.000251
0.000281
0.000518
0.000401
0.000244
0.000057
0.000202
0.000227
0.000247
0.000255
0.000237
0.000486
0.000215
0.000256
0.000262
0.000387
0.000414
0.000607
0.000206
0.000246
0.000239
0.000256
0.000253
0.000265
0.000250
0.000243
0.000289
0.000242
0.000442
0.000343
0.000352
0.000403
0.000292
0.000306
0.000322
0.000248
0.000185
0.000056
0.000206
0.000234
0.000269
0.000467
0.000324
0.000297
0.000261
0.000225
0.000247
0.000259
0.000252
0.000263
0.000261
0.000237
0.000253
0.000259
0.000256
0.000240
0.000260
0.000399
0.000638
0.000248
0.000237
0.000248
0.000280
0.000277
0.000258
0.000258
0.000269
0.000265
0.000192
0.000071
0.000254
0.000368
0.000478
0.000239
0.000215
0.000250
0.000319
0.000457
0.000284
0.000214
0.000254
0.000264
0.000270
0.000432
0.000433
0.000309
0.000212
0.000243
0.000253
0.000267
0.000270
0.000264
0.000259
0.000276
0.000261
0.000348
0.000373
0.000387
0.000314
0.000241
0.000187
0.000055
0.000211
0.000238
0.000252
0.000251
0.000253
0.000262
0.000233
0.000268
0.000251
0.000260
0.000238
0.000240
0.000287
0.001434
0.000224
0.000258
0.000260
0.000244
0.000276
0.000274
0.000265
0.000237
0.000275
0.000254
0.000270
0.000275
0.000265
0.000267
0.000259
0.000274
0.000189
0.000055
0.000214
0.000238
0.000251
0.000266
0.000219
0.000243
0.000260
0.000257
0.000230
0.000251
0.000245
0.000265
0.000257
0.000255
0.000254
0.000251
0.000252
0.000262
0.000273
0.000251
0.000254
0.000265
0.000253
0.000245
0.001300
0.000262
0.000613
0.000345
0.000391
0.000240
0.000192
0.000056
0.000205
0.000234
0.000245
0.000251
0.000414
0.000239
0.000243
0.000239
0.000254
0.000374
0.000471
0.000305
0.000233
0.000232
0.000265
0.000262
0.000255
0.000268
0.000240
0.000264
0.000260
0.000250
0.000347
0.000366
0.000493
0.000434
0.000231
0.000266
0.001375
0.000235
0.000187
0.000055
0.000363
0.000389
0.000329
0.000277
0.000223
0.000226
0.000224
0.000253
0.000258
0.000254
0.000244
0.000260
0.000297
0.000382
0.000434
0.000346
0.000379
0.000207
0.000245
0.000257
0.000269
0.000278
0.000252
0.000265
0.000268
0.000263
0.000407
0.000500
0.000357
0.000380
0.000136
0.000056
0.000207
0.000236
0.001258
0.000447
0.000299
0.000471
0.000342
0.000494
0.000263
0.000344
0.000216
0.000239
0.000262
0.000251
0.000253
0.000266
0.000400
0.000523
0.000375
0.000301
0.000263
0.000241
0.000270
0.000503
0.000223
0.000268
0.000255
0.000273
0.000332
0.000570
0.000250
0.000056
0.000380
0.000308
0.000244
0.000220
0.001678
0.000340
0.000303
0.000259
0.000241
0.000264
0.000212
0.000245
0.000244
0.000269
0.000250
0.000257
0.000240
0.000370
0.000359
0.000331
0.000450
0.000252
0.000253
0.000262
0.000252
0.000275
0.000272
0.000238
0.000262
0.000280
0.000214
0.000057
0.000363
0.000339
0.000217
0.000241
0.000254
0.000245
0.000249
0.000243
0.000244
0.000223
0.001405
0.000457
0.000280
0.000249
0.000234
0.000262
0.000273
0.000262
0.000234
0.000301
0.000243
0.000251
0.000265
0.000457
0.000408
0.000423
0.000229
0.000266
0.000280
0.000296
0.000155
0.000057
0.000212
0.000417
0.000225
0.000228
0.000331
0.000554
0.000278
0.000323
0.000457
0.000206
0.000229
0.000253
0.000259
0.000268
0.000258
0.001454
0.000322
0.000276
0.000250
0.000272
0.000297
0.000251
0.000236
0.000255
0.000258
0.000267
0.000435
0.000456
0.000299
0.000278
0.000154
0.000057
0.000206
0.000237
0.000255
0.000260
0.000208
0.000257
0.000241
0.000245
0.000330
0.000292
0.000453
0.000301
0.000246
0.000258
0.000241
0.000283
0.000268
0.000260
0.000269
0.000232
0.000248
0.000378
0.001194
0.000254
0.000241
0.000268
0.000257
0.000266
0.000260
0.000280
0.000168
0.000056
0.000191
0.000355
0.000371
0.000342
0.000246
0.000247
0.000256
0.000290
0.000236
0.000264
0.000241
0.000261
0.000246
0.000253
0.000254
0.000265
0.000266
0.000269
0.000264
0.000247
0.000251
0.000271
0.000270
0.000279
0.000289
0.000266
0.000267
0.000266
0.000254
0.000454
0.001360
0.000055
0.000227
0.000254
0.000219
0.000265
0.000232
0.000258
0.000258
0.000211
0.000251
0.000251
0.000284
0.000250
0.000247
0.000242
0.000273
0.000237
0.001711
0.000263
0.000235
0.000268
0.000251
0.000251
0.000275
0.000255
0.000307
0.000229
0.000263
0.000278
0.000268
0.000260
0.000216
0.000056
0.000323
0.000334
0.001307
0.000232
0.000220
0.000249
0.000256
0.000249
0.000274
0.000240
0.000234
0.000468
0.000260
0.000456
0.000289
0.000220
0.000247
0.000259
0.000258
0.000267
0.000239
0.000277
0.000258
0.000283
0.000280
0.000396
0.000342
0.000372
0.000315
0.000233
0.000195
0.000056
0.000210
0.000250
0.000246
0.000249
0.000278
0.000195
0.000243
0.000239
0.000427
0.001342
0.000262
0.000221
0.000246
0.000269
0.000263
0.000285
0.000232
0.000253
0.000298
0.000502
0.000361
0.000210
0.000244
0.000239
0.000285
0.000279
0.000264
0.000295
0.000272
0.000271
0.000198
0.000057
0.000233
0.000433
0.000393
0.000213
0.000233
0.000237
0.000247
0.000278
0.000262
0.000244
0.000232
0.000249
0.000447
0.000506
0.000468
0.001461
0.000254
0.000251
0.000332
0.000350
0.000495
0.000407
0.000613
0.000254
0.000239
0.000262
0.000265
0.000283
0.000259
0.000277
0.000191
0.000055
0.000236
0.000235
0.000480
0.000401
0.000401
0.000235
0.000254
0.000236
0.000241
0.000272
0.000235
0.000265
0.000276
0.000232
0.000266
0.000297
0.000352
0.000445
0.000350
0.001329
0.000259
0.000262
0.000256
0.000261
0.000652
0.000285
0.000358
0.000241
0.000270
0.000275
0.000189
0.000056
0.000196
0.000244
0.000240
0.000265
0.000231
0.000302
0.000419
0.000379
0.000383
0.000215
0.000257
0.000247
0.000270
0.000289
0.000238
0.000257
0.000265
0.000255
0.000286
0.000330
0.000410
0.000400
0.000328
0.001349
0.000416
0.000237
0.000266
0.000496
0.000419
0.000295
0.000309
0.000056
0.000194
0.000233
0.000249
0.000247
0.000249
0.000260
0.001698
0.000234
0.000207
0.000238
0.000256
0.000245
0.000252
0.000322
0.000326
0.000291
0.000265
0.000369
0.000439
0.000404
0.000311
0.000287
0.000231
0.000253
0.001493
0.000364
0.000385
0.000451
0.000356
0.000287
0.000177
0.000056
0.000207
0.000249
0.000259
0.000253
0.000242
0.000267
0.001701
0.000231
0.000242
0.000266
0.000325
0.000402
0.001449
0.000377
0.000382
0.000243
0.000260
0.000228
0.000272
0.000275
0.001585
0.000526
0.000383
0.000291
0.000257
0.000229
0.000266
0.000278
0.000246
0.000255
0.000190
0.000056
0.000212
0.000239
0.000266
0.000250
0.000264
0.000270
0.000274
0.000261
0.000257
0.000246
0.000253
0.000249
0.000293
0.000238
0.000254
0.001492
0.000277
0.000240
0.000268
0.000270
0.000273
0.000259
0.001432
0.000335
0.000205
0.000237
0.000268
0.000256
0.000404
0.000252
0.000187
0.000056
0.000217
0.000254
0.000219
0.000245
0.000241
0.000231
0.000235
0.001686
0.000267
0.000214
0.000358
0.000269
0.000223
0.000222
0.000259
0.001381
0.000243
0.000268
0.000259
0.000251
0.000262
0.000340
0.000293
0.001301
0.000286
0.000238
0.000258
0.000265
0.001386
0.000273
0.000186
0.000057
0.000210
0.000362
0.000210
0.000239
0.000264
0.000228
0.000283
0.000249
0.000283
0.000227
0.000260
0.000278
0.000239
0.000239
0.000277
0.001565
0.000223
0.000275
0.000249
0.000243
0.000283
0.000272
0.000237
0.001512
0.000340
0.000244
0.000265
0.001284
0.000263
0.000244
0.000196
0.000056
0.000214
0.000400
0.000337
0.000208
0.000235
0.000243
0.000283
0.000238
0.000262
0.000269
0.000236
0.000255
0.000259
0.000296
0.000401
0.001220
0.000231
0.000246
0.000266
0.000281
0.000221
0.000253
0.000242
0.000404
0.001226
0.000220
0.000260
0.000257
0.000252
0.001342
0.000300
0.000056
0.000347
0.000216
0.000231
0.000235
0.000238
0.000256
0.000248
0.000257
0.000282
0.000236
0.000243
0.000244
0.000306
0.000258
0.000454
0.001451
0.000210
0.000259
0.000294
0.000515
0.000280
0.000368
0.001379
0.000309
0.000233
0.000263
0.000249
0.001311
0.000271
0.000460
0.000412
0.000056
0.000238
0.000249
0.000253
0.000258
0.000251
0.000253
0.000292
0.000248
0.000246
0.000257
0.000375
0.000427
0.001312
0.000245
0.000276
0.000254
0.000297
0.000223
0.000225
0.000255
0.000382
0.001192
0.000249
0.000244
0.000260
0.000250
0.001514
0.000432
0.000473
0.000223
0.000190
0.000056
0.000207
0.000231
0.000243
0.000246
0.000252
0.000262
0.000241
0.000285
0.000486
0.000406
0.000257
0.001496
0.000213
0.000245
0.000269
0.000266
0.000245
0.000292
0.001691
0.000245
0.000390
0.000343
0.001283
0.000343
0.000327
0.000320
0.000259
0.000258
0.000262
0.000275
0.000189
0.000056
0.000211
0.000238
0.000324
0.000255
0.000316
0.000568
0.000253
0.000287
0.001470
0.000237
0.000388
0.000262
0.000235
0.000300
0.000366
0.001330
0.000273
0.000228
0.000257
0.000265
0.001536
0.000364
0.000274
0.000279
0.000279
0.000238
0.000452
0.000329
0.000260
0.000238
0.000254
0.000056
0.000201
0.000374
0.000349
0.000250
0.000225
0.001519
0.000213
0.000259
0.000269
0.000285
0.000252
0.000240
0.000265
0.001519
0.000265
0.000225
0.000433
0.001190
0.000338
0.000441
0.000402
0.000232
0.000245
0.000256
0.000300
0.000220
0.000456
0.000227
0.000259
0.000283
0.000197
0.000056
0.000210
0.000362
0.000294
0.000300
0.001321
0.000281
0.000335
0.000241
0.000209
0.000249
0.000249
0.000314
0.001500
0.000249
0.000237
0.000248
0.001385
0.000268
0.000424
0.000427
0.000393
0.000240
0.000249
0.000251
0.000264
0.000279
0.000259
0.000285
0.000253
0.000250
0.000199
0.000056
0.000200
0.000350
0.001503
0.000204
0.000297
0.000283
0.000219
0.000244
0.000262
0.000354
0.001424
0.000207
0.000267
0.000254
0.000266
0.001278
0.000668
0.000302
0.000316
0.000415
0.000312
0.000240
0.000270
0.000259
0.000270
0.000305
0.000258
0.000320
0.000508
0.000326
0.001389
0.000055
0.000232
0.000249
0.000223
0.000247
0.000240
0.000542
0.000327
0.001309
0.000240
0.000242
0.000252
0.001431
0.000482
0.000283
0.000231
0.000413
0.000245
0.000237
0.000263
0.000294
0.000255
0.000252
0.000278
0.000253
0.000254
0.000301
0.000511
0.000390
0.001500
0.000223
0.000205
0.000056
0.000240
0.000233
0.000340
0.000559
0.001229
0.000300
0.000239
0.000254
0.000244
0.000256
0.000249
0.000284
0.000337
0.000531
0.000297
0.000246
0.000254
0.000275
0.000245
0.000306
0.000236
0.000256
0.000260
0.000268
0.000274
0.000335
0.000506
0.000337
0.000335
0.001409
0.000176
0.000057
0.000204
0.000241
0.000282
0.000475
0.000313
0.000310
0.000323
0.000329
0.000304
0.000237
0.000245
0.000263
0.000253
0.000305
0.000239
0.000300
0.000549
0.000336
0.000272
0.000390
0.000269
0.000409
0.000232
0.000237
0.000264
0.000258
0.000266
0.000282
0.000383
0.000471
0.000292
0.000056
0.000188
0.001410
0.000221
0.000336
0.000408
0.000471
0.000337
0.000323
0.000213
0.000234
0.000268
0.000254
0.000280
0.000250
0.000260
0.000259
0.000259
0.001368
0.000257
0.000244
0.000257
0.000277
0.000268
0.000277
0.000271
0.000255
0.000274
0.000245
0.000380
0.000345
0.000282
0.000057
0.000199
0.000238
0.000242
0.001498
0.000323
0.000248
0.000232
0.000242
0.000226
0.000243
0.000256
0.000281
0.000243
0.000251
0.000297
0.000225
0.000251
0.000268
0.000252
0.000259
0.001427
0.000233
0.000261
0.000259
0.000260
0.000257
0.000259
0.000264
0.000278
0.000491
0.000348
0.000056
0.000196
0.000232
0.000399
0.000285
0.000243
0.000255
0.001571
0.000310
0.000284
0.000228
0.000261
0.000310
0.000331
0.000228
0.000246
0.000238
0.000242
0.000267
0.000259
0.000255
0.000501
0.000521
0.001087
0.000268
0.000243
0.000261
0.000265
0.000260
0.000303
0.000233
0.000387
0.000057
0.000231
0.000365
0.000195
0.000230
0.000250
0.000242
0.000245
0.000225
0.000294
0.001592
0.000395
0.000296
0.000214
0.000257
0.000252
0.000251
0.000253
0.000280
0.000263
0.000309
0.000312
0.000473
0.000451
0.001380
0.000231
0.000273
0.000255
0.000264
0.000270
0.000369
0.000402
0.000055
0.000254
0.000247
0.000238
0.000217
0.000226
0.000244
0.000261
0.000280
0.000253
0.001589
0.000345
0.000255
0.000254
0.000243
0.000468
0.000250
0.000540
0.000374
0.000276
0.000271
0.000486
0.000456
0.001308
0.000253
0.000242
0.000253
0.001734
0.000440
0.000600
0.000326
0.000148
0.000056
0.000202
0.000228
0.000241
0.000231
0.000259
0.000242
0.000247
0.000493
0.000641
0.000290
0.000286
0.000221
0.000237
0.000259
0.000280
0.000275
0.000233
0.000242
0.000252
0.000282
0.000303
0.000382
0.001339
0.000230
0.000266
0.000258
0.001895
0.000385
0.000390
0.000340
0.000148
0.000057
0.000193
0.000234
0.000248
0.001550
0.000439
0.000212
0.000239
0.000265
0.000249
0.000275
0.000374
0.000370
0.000367
0.000280
0.000326
0.000498
0.000371
0.001206
0.000276
0.000228
0.000262
0.000266
0.000270
0.000394
0.000617
0.000466
0.000257
0.000284
0.000250
0.000277
0.000197
0.000056
0.000205
0.000229
0.000242
0.001535
0.000266
0.000233
0.000248
0.000240
0.000239
0.000254
0.000257
0.000269
0.000264
0.000280
0.000271
0.000321
0.000456
0.000349
0.001398
0.000238
0.000255
0.000264
0.000258
0.000264
0.000336
0.000481
0.000492
0.000260
0.000284
0.000245
0.000431
0.000057
0.000205
0.000241
0.000271
0.001528
0.000304
0.000213
0.000270
0.000253
0.000239
0.000261
0.000253
0.000275
0.000240
0.000261
0.000317
0.000613
0.001358
0.000751
0.000263
0.000339
0.000233
0.000243
0.000253
0.000272
0.001679
0.000813
0.000226
0.000260
0.000281
0.000280
0.000191
0.000056
0.000218
0.000233
0.000249
0.000247
0.000265
0.000262
0.000216
0.000255
0.000237
0.000243
0.000286
0.000281
0.000254
0.000245
0.000264
0.000246
0.000270
0.001597
0.000704
0.000396
0.000294
0.000233
0.000242
0.000311
0.000251
0.000250
0.000274
0.000250
0.001399
0.000390
0.000296
0.000057
0.000194
0.000233
0.000266
0.000235
0.000262
0.000233
0.000286
0.000216
0.000259
0.000254
0.000305
0.000398
0.000531
0.000233
0.000206
0.000252
0.000267
0.001388
0.000692
0.000533
0.000270
0.000283
0.000230
0.000247
0.000276
0.000259
0.000247
0.000269
0.001501
0.000402
0.000207
0.000055
0.000225
0.000226
0.000252
0.000248
0.000249
0.000246
0.000245
0.000254
0.000260
0.000284
0.000382
0.000338
0.000335
0.000217
0.000246
0.000242
0.000268
0.000254
0.001577
0.000671
0.000411
0.000313
0.000236
0.000259
0.000263
0.000262
0.000263
0.000283
0.000262
0.001357
0.000328
0.000056
0.000211
0.000222
0.000236
0.000254
0.000262
0.000242
0.000252
0.000300
0.000362
0.000463
0.000355
0.000375
0.000375
0.000208
0.000245
0.000252
0.000302
0.000238
0.000263
0.001957
0.000291
0.000239
0.000450
0.000242
0.000248
0.000267
0.000266
0.000264
0.000264
0.000275
0.000442
0.000057
0.000174
0.000289
0.000233
0.000242
0.000253
0.000246
0.000226
0.000241
0.000272
0.000264
0.000229
0.000234
0.000354
0.000417
0.000435
0.000430
0.000232
0.000268
0.000249
0.000251
0.000254
0.000280
0.001469
0.001061
0.000223
0.000249
0.000272
0.000264
0.000273
0.000250
0.000206
0.000056
0.000208
0.001340
0.000283
0.000216
0.000232
0.000256
0.000251
0.000238
0.000242
0.000260
0.000248
0.000264
0.000238
0.000419
0.000348
0.000334
0.000371
0.000255
0.000268
0.000263
0.000281
0.000220
0.000262
0.000262
0.001315
0.000695
0.000301
0.000382
0.000376
0.000403
0.000298
0.000056
0.000200
0.000233
0.000367
0.001315
0.000206
0.000255
0.000233
0.000261
0.000257
0.000255
0.000253
0.000248
0.000270
0.000404
0.000501
0.000317
0.000218
0.000281
0.000333
0.000205
0.000254
0.000265
0.000237
0.000273
0.000275
0.001524
0.000751
0.000316
0.000258
0.000271
0.000191
0.000055
0.000219
0.000312
0.000405
0.000319
0.001302
0.000248
0.000232
0.000240
0.000230
0.000251
0.000252
0.000255
0.000231
0.000239
0.000253
0.000257
0.000265
0.000258
0.000239
0.000253
0.000265
0.000269
0.000308
0.000335
0.000213
0.000267
0.000266
0.001458
0.000266
0.000239
0.000175
0.000056
0.000200
0.000228
0.000257
0.000274
0.000331
0.000373
0.000398
0.000278
0.001587
0.000233
0.000393
0.000395
0.000358
0.000217
0.000436
0.000237
0.000235
0.000268
0.000266
0.000272
0.000277
0.000268
0.000256
0.000271
0.000283
0.000412
0.000357
0.000340
0.001576
0.000226
0.000190
0.000056
0.000226
0.000248
0.000242
0.000249
0.000241
0.000246
0.000247
0.000314
0.000411
0.002029
0.000244
0.000235
0.000252
0.000278
0.000248
0.000297
0.000222
0.000258
0.000320
0.000425
0.000305
0.000474
0.001455
0.000219
0.000285
0.001978
0.000286
0.000236
0.000265
0.001527
0.000150
0.000057
0.000400
0.000364
0.000449
0.000246
0.000274
0.000211
0.000259
0.000268
0.000267
0.000221
0.000256
0.000332
0.000414
0.000345
0.000426
0.000251
0.000231
0.001568
0.000236
0.000589
0.001862
0.000299
0.000228
0.001531
0.002041
0.000741
0.000267
0.000260
0.000284
0.000440
0.000401
0.000055
0.000198
0.000239
0.000279
0.000223
0.002867
0.000286
0.001079
0.000196
0.000236
0.001588
0.001969
0.000212
0.000241
0.000430
0.000263
0.000400
0.000395
0.000497
0.000208
0.000242
0.000250
0.000257
0.000276
0.001589
0.001209
0.001421
0.000285
0.000286
0.000248
0.000341
0.000309
0.000056
0.000161
0.000243
0.000238
0.000241
0.000228
0.000245
0.000251
0.000255
0.000254
0.000246
0.000259
0.000311
0.000401
0.000458
0.000335
0.000228
0.000250
0.000272
0.000271
0.000280
0.000238
0.000262
0.001575
0.000413
0.002118
0.000240
0.000268
0.000325
0.000445
0.000381
0.000203
0.000055
0.000210
0.000392
0.000453
0.000307
0.000202
0.000225
0.000254
0.000247
0.000240
0.000242
0.000247
0.000262
0.000262
0.001610
0.001347
0.001226
0.000273
0.000229
0.000265
0.000265
0.000302
0.000264
0.000243
0.000254
0.002204
0.000257
0.000243
0.000300
0.000326
0.000305
0.000236
0.000055
0.000222
0.000348
0.000568
0.000314
0.000239
0.000230
0.000247
0.000271
0.001909
0.001401
0.000223
0.000331
0.000378
0.000452
0.000232
0.000229
0.000253
0.000268
0.000264
0.000270
0.000262
0.000254
0.000484
0.000225
0.000272
0.000269
0.000247
0.000278
0.000280
0.000250
0.000202
0.000056
0.000219
0.000245
0.000246
0.000242
0.000280
0.000247
0.001530
0.001430
0.001317
0.000235
0.000241
0.000240
0.000271
0.000259
0.000239
0.000255
0.000244
0.002104
0.000263
0.000234
0.000261
0.000265
0.000258
0.000266
0.000264
0.000267
0.000265
0.000253
0.000276
0.000256
0.000171
0.000056
0.000202
0.002681
0.001397
0.000215
0.000308
0.000322
0.000212
0.000300
0.000218
0.000239
0.000256
0.000247
0.000230
0.000245
0.000274
0.000255
0.000270
0.000265
0.000267
0.000260
0.000279
0.000268
0.000275
0.000265
0.000244
0.000241
0.000272
0.000272
0.000258
0.000269
0.000368
0.000055
0.001571
0.000239
0.001239
0.000226
0.000228
0.000238
0.000258
0.000276
0.000225
0.000253
0.000422
0.000349
0.000338
0.000211
0.000255
0.002145
0.000234
0.000258
0.000258
0.000530
0.000328
0.000316
0.000245
0.000247
0.000265
0.000252
0.000266
0.000277
0.000268
0.001638
0.001237
0.000057
0.000190
0.000235
0.000307
0.000391
0.000329
0.000305
0.000211
0.000241
0.000245
0.000261
0.000265
0.000245
0.000224
0.000258
0.000267
0.000238
0.000329
0.000604
0.000363
0.000254
0.000223
0.000278
0.000281
0.000249
0.000251
0.000248
0.000263
0.000276
0.000241
0.000406
0.000304
0.000057
0.001101
0.000227
0.000388
0.000412
0.000305
0.000222
0.000227
0.000244
0.000253
0.002345
0.000410
0.000285
0.000229
0.000376
0.000306
0.000258
0.000242
0.000250
0.000269
0.000229
0.000251
0.000386
0.000640
0.000295
0.001886
0.001290
0.000545
0.000538
0.000219
0.000294
0.000192
0.000055
0.000307
0.000304
0.000243
0.000239
0.000251
0.000224
0.000256
0.000250
0.000257
0.000248
0.000256
0.000222
0.000251
0.000277
0.000353
0.000506
0.001863
0.001308
0.000479
0.000427
0.000464
0.000224
0.000238
0.000262
0.002148
0.000531
0.000384
0.000252
0.000262
0.000283
0.000193
0.000056
0.000212
0.000242
0.000254
0.000252
0.000242
0.000377
0.000382
0.000360
0.000267
0.000223
0.000241
0.000251
0.000263
0.002097
0.000358
0.000406
0.000220
0.000269
0.000263
0.000242
0.000249
0.002444
0.000344
0.000228
0.000264
0.000254
0.000247
0.000278
0.000306
0.000251
0.000196
0.000056
0.000199
0.000301
0.000590
0.000369
0.000249
0.000221
0.000238
0.000256
0.000260
0.000253
0.001950
0.000389
0.000274
0.000271
0.000253
0.000254
0.000273
0.000245
0.002195
0.000459
0.000220
0.000268
0.000270
0.000263
0.000259
0.000244
0.000302
0.000230
0.000272
0.000255
0.000184
0.000056
0.000215
0.000239
0.000246
0.000222
0.000246
0.000260
0.000237
0.000246
0.000233
0.002175
0.000232
0.000280
0.000223
0.000436
0.000220
0.000245
0.000303
0.000268
0.000251
0.000253
0.001959
0.000275
0.000344
0.000362
0.000433
0.000405
0.000310
0.000254
0.000255
0.000259
0.000196
0.000057
0.000206
0.000236
0.000243
0.000249
0.000250
0.000322
0.000215
0.002311
0.000246
0.000234
0.000258
0.000271
0.000219
0.000274
0.000275
0.002124
0.000596
0.000214
0.000260
0.000244
0.000257
0.000265
0.000287
0.000269
0.000258
0.000255
0.000290
0.000249
0.000268
0.000270
0.000188
0.000055
0.001828
0.001430
0.000201
0.000228
0.000246
0.000260
0.000240
0.000317
0.000343
0.000322
0.002210
0.000262
0.000228
0.000273
0.000262
0.000420
0.000511
0.000296
0.000228
0.000250
0.000243
0.000265
0.000269
0.000224
0.000263
0.000263
0.000267
0.000274
0.000388
0.000569
0.000337
0.000056
0.000211
0.000252
0.000240
0.000252
0.000271
0.000246
0.000250
0.000238
0.001575
0.002021
0.000610
0.000251
0.000453
0.000649
0.000348
0.000242
0.000252
0.000250
0.000265
0.000268
0.000260
0.000228
0.000267
0.000262
0.003003
0.000337
0.000235
0.000266
0.000290
0.000294
0.000407
0.000056
0.001925
0.000251
0.000227
0.000232
0.000250
0.000383
0.000454
0.000310
0.000279
0.000224
0.000247
0.000247
0.000261
0.000262
0.000270
0.000248
0.000252
0.000289
0.001814
0.000237
0.000246
0.000252
0.000272
0.000282
0.000273
0.000252
0.001470
0.000334
0.000246
0.000257
0.000174
0.000056
0.000198
0.000233
0.000242
0.000242
0.000251
0.000244
0.000273
0.000391
0.000448
0.000270
0.000225
0.000238
0.000257
0.000328
0.000419
0.000324
0.000229
0.000252
0.000258
0.000341
0.000506
0.000443
0.000226
0.000264
0.000260
0.000254
0.000253
0.000274
0.000274
0.000264
0.000201
0.000055
0.001453
0.000454
0.000198
0.001942
0.000281
0.000485
0.000365
0.000319
0.000222
0.000252
0.000265
0.000244
0.000246
0.000250
0.000265
0.000260
0.000448
0.000293
0.000499
0.000247
0.000384
0.000227
0.000262
0.000268
0.000269
0.000270
0.000262
0.000262
0.000388
0.000410
0.001408
0.000057
0.000214
0.000223
0.002074
0.000331
0.000309
0.000233
0.000255
0.000253
0.000259
0.000257
0.000222
0.000248
0.000258
0.000259
0.000321
0.000331
0.000674
0.001760
0.000233
0.000248
0.000254
0.000267
0.000496
0.000286
0.001614
0.000284
0.000362
0.001910
0.000265
0.000283
0.000176
0.000056
0.000218
0.000224
0.000228
0.000249
0.000230
0.000247
0.000249
0.000306
0.000314
0.000260
0.000377
0.000364
0.000349
0.000296
0.000236
0.000276
0.000263
0.000234
0.000268
0.000252
0.000308
0.000280
0.000273
0.000258
0.000264
0.001515
0.000280
0.000385
0.002063
0.000251
0.000190
0.000056
0.000179
0.000236
0.000243
0.000246
0.000491
0.000208
0.000250
0.000342
0.000368
0.000295
0.000309
0.000210
0.000281
0.000247
0.000274
0.000325
0.000433
0.000424
0.000245
0.000412
0.000547
0.000442
0.001563
0.000232
0.000254
0.001953
0.000353
0.000261
0.000233
0.000291
0.000183
0.000056
0.000185
0.000242
0.000226
0.000241
0.000252
0.000276
0.000251
0.000270
0.000252
0.000258
0.001819
0.000301
0.000385
0.000279
0.000467
0.000373
0.000351
0.001498
0.000237
0.000283
0.002118
0.000567
0.000251
0.000259
0.000246
0.000272
0.000504
0.000218
0.000263
0.000278
0.000197
0.000056
0.000196
0.000320
0.000418
0.000255
0.000201
0.000245
0.000256
0.000256
0.000261
0.000297
0.000222
0.000255
0.000262
0.000260
0.000419
0.000389
0.001315
0.000266
0.000277
0.002001
0.000279
0.000291
0.000232
0.000263
0.000245
0.000280
0.000267
0.000261
0.000246
0.000269
0.000202
0.000055
0.000228
0.000408
0.002054
0.000248
0.000222
0.000256
0.000245
0.000321
0.000423
0.000451
0.001283
0.000370
0.000352
0.002086
0.000205
0.000247
0.000264
0.000275
0.000259
0.000241
0.000285
0.000291
0.000259
0.000339
0.000502
0.000356
0.000388
0.002163
0.000662
0.000349
0.000360
0.000056
0.000196
0.000226
0.000244
0.001957
0.000240
0.000221
0.000251
0.000244
0.000241
0.000260
0.000256
0.000253
0.000258
0.000322
0.000538
0.001320
0.000260
0.000235
0.000265
0.000264
0.000234
0.000253
0.000259
0.000268
0.000311
0.000580
0.000350
0.000248
0.001604
0.000278
0.000153
0.000057
0.000213
0.000240
0.000228
0.000232
0.000265
0.000262
0.000229
0.000246
0.000257
0.000398
0.000417
0.001335
0.000233
0.000225
0.000253
0.000293
0.000229
0.000254
0.000314
0.000462
0.000426
0.000426
0.000225
0.001578
0.000228
0.000259
0.000288
0.000279
0.000262
0.000269
0.000192
0.000056
0.000194
0.000258
0.000246
0.000268
0.000249
0.000244
0.000237
0.000245
0.000276
0.000223
0.000252
0.000257
0.000261
0.001480
0.000364
0.000208
0.000275
0.000235
0.000275
0.000308
0.000372
0.000270
0.000256
0.000260
0.000263
0.000272
0.000258
0.001405
0.000290
0.000227
0.000170
0.000056
0.000190
0.000232
0.000261
0.000262
0.000269
0.000222
0.000265
0.000239
0.000225
0.000262
0.000244
0.000255
0.000229
0.000281
0.000391
0.000350
0.000289
0.000228
0.001637
0.000234
0.000245
0.000260
0.000267
0.000272
0.000392
0.000376
0.000463
0.000259
0.000257
0.001611
0.000156
0.000057
0.000160
0.000354
0.000386
0.000280
0.000234
0.000219
0.000241
0.000275
0.000255
0.000259
0.000221
0.000239
0.001505
0.000263
0.000296
0.000225
0.000251
0.000273
0.000251
0.000277
0.000241
0.000235
0.000256
0.000272
0.000261
0.000361
0.000384
0.000453
0.000260
0.000253
0.000191
0.000056
0.000195
0.000359
0.000416
0.000339
0.000278
0.000288
0.000248
0.000250
0.000251
0.000261
0.000240
0.000224
0.000256
0.000241
0.001311
0.000255
0.000229
0.000255
0.000265
0.000267
0.000235
0.000270
0.000253
0.000260
0.000257
0.000257
0.000304
0.000766
0.000379
0.000248
0.000167
0.000055
0.000211
0.001553
0.000270
0.000291
0.000471
0.000386
0.000216
0.000253
0.000270
0.000250
0.000237
0.000264
0.000278
0.000267
0.000259
0.001522
0.000255
0.000287
0.000264
0.000256
0.000269
0.000243
0.000257
0.000266
0.000260
0.000265
0.000433
0.000352
0.000370
0.000236
0.000194
0.000055
0.000203
0.000251
0.000257
0.001637
0.000368
0.000345
0.000238
0.000230
0.000258
0.000269
0.000281
0.000253
0.000253
0.000261
0.000243
0.000257
0.000363
0.001365
0.000251
0.000224
0.001507
0.000267
0.000595
0.000412
0.000331
0.000240
0.000271
0.000475
0.000225
0.000263
0.000181
0.000055
0.000259
0.000220
0.000246
0.000248
0.000249
0.000256
0.000239
0.000255
0.000255
0.000254
0.000241
0.000255
0.000316
0.000528
0.001630
0.001486
0.000369
0.000513
0.000362
0.000226
0.000222
0.000261
0.000250
0.000271
0.000249
0.000265
0.000257
0.000268
0.001537
0.000313
0.000172
0.000056
0.000218
0.000350
0.000356
0.000333
0.000237
0.000232
0.000243
0.000366
0.000419
0.000367
0.002173
0.000315
0.000727
0.000444
0.000493
0.000258
0.000337
0.000390
0.000330
0.000277
0.000395
0.000267
0.001535
0.000525
0.000222
0.000264
0.000256
0.000256
0.000263
0.000266
0.000198
0.000056
0.000216
0.000248
0.000253
0.000254
0.000241
0.001661
0.000882
0.001002
0.000202
0.000237
0.000259
0.000266
0.000254
0.000256
0.000258
0.000248
0.000250
0.000266
0.000268
0.000275
0.001452
0.000292
0.000251
0.000230
0.000241
0.000261
0.000259
0.000287
0.000256
0.000293
0.001903
0.000056
0.000190
0.000233
0.001543
0.000964
0.000269
0.000387
0.000218
0.000233
0.000249
0.000255
0.000249
0.000249
0.000248
0.001979
0.000472
0.000232
0.000240
0.000251
0.000266
0.000260
0.000195
