0.000142
0.017474
0.004268
0.000204
0.000266
0.000281
0.000303
0.000248
0.000333
0.000299
0.000237
0.000366
0.000510
0.000506
0.000347
0.000349
0.000279
0.000371
0.000363
0.000361
0.000320
0.001917
0.000711
0.000243
0.000259
0.000306
0.000325
0.000387
0.000445
0.000420
0.000429
0.000208
0.000058
0.000220
0.000263
0.000266
0.000266
0.000275
0.000248
0.000279
0.000276
0.000253
0.000434
0.000302
0.000427
0.000307
0.000303
0.000390
0.000286
0.000358
0.000267
0.000240
0.001706
0.000313
0.000250
0.000456
0.000257
0.000264
0.000275
0.000290
0.000315
0.000260
0.000371
0.000369
0.000058
0.000201
0.000244
0.000264
0.000261
0.000253
0.000248
0.000257
0.000263
0.000280
0.001667
0.000227
0.000232
0.000275
0.000265
0.000281
0.000251
0.000268
0.000256
0.000354
0.001797
0.000235
0.000282
0.000442
0.000532
0.000287
0.000243
0.000305
0.000500
0.000456
0.000732
0.000194
0.000057
0.000222
0.000246
0.000264
0.000233
0.000291
0.000267
0.000312
0.000579
0.000336
0.000274
0.000242
0.000253
0.000240
0.000253
0.000259
0.000256
0.000243
0.000266
0.000304
0.000325
0.001669
0.000280
0.000246
0.000418
0.000262
0.000737
0.000640
0.000550
0.000334
0.000247
0.000190
0.000056
0.000198
0.000249
0.000266
0.000243
0.000254
0.000251
0.000294
0.000539
0.001361
0.000234
0.000237
0.000246
0.000254
0.000259
0.000261
0.000288
0.000382
0.000751
0.001331
0.000281
0.000460
0.000252
0.000237
0.000214
0.000258
0.000260
0.000282
0.000259
0.000255
0.000314
0.000146
0.000056
0.000219
0.000243
0.000246
0.000262
0.000238
0.000247
0.000252
0.000240
0.000239
0.000254
0.001637
0.000258
0.000238
0.000232
0.000260
0.000246
0.000249
0.000249
0.000250
0.000255
0.000273
0.001660
0.000290
0.000245
0.000443
0.000255
0.000256
0.000261
0.000258
0.000271
0.000197
0.000057
0.000200
0.000237
0.000243
0.000245
0.000245
0.000243
0.000263
0.000234
0.000266
0.000241
0.000264
0.000258
0.000258
0.000272
0.001641
0.000269
0.000305
0.000209
0.000253
0.000274
0.000267
0.000238
0.000247
0.000265
0.001782
0.000393
0.000342
0.000348
0.000259
0.000279
0.000216
0.000056
0.000192
0.000243
0.000243
0.000264
0.000258
0.000236
0.000282
0.000412
0.000457
0.000387
0.000201
0.000246
0.000258
0.000249
0.001569
0.000600
0.000228
0.000426
0.000315
0.000232
0.000264
0.000288
0.000267
0.001739
0.000497
0.000468
0.000246
0.000255
0.000248
0.000264
0.000183
0.000060
0.000195
0.000234
0.000256
0.000304
0.000498
0.000294
0.000333
0.000274
0.000214
0.000255
0.000254
0.000237
0.000259
0.001702
0.000488
0.000283
0.000236
0.000251
0.000284
0.000275
0.000243
0.000261
0.000279
0.001862
0.000332
0.000387
0.000279
0.000223
0.000276
0.000416
0.000327
0.000058
0.000282
0.000362
0.000328
0.000245
0.000253
0.000246
0.000253
0.000257
0.000240
0.000235
0.000237
0.000251
0.001618
0.000268
0.000321
0.000241
0.000255
0.000250
0.000250
0.000275
0.000282
0.000326
0.000249
0.001798
0.000266
0.000491
0.000258
0.000244
0.000258
0.000266
0.000276
0.000058
0.000318
0.000595
0.000537
0.000215
0.000230
0.000275
0.000229
0.000225
0.000254
0.000254
0.000257
0.001703
0.000257
0.000443
0.000355
0.000218
0.000241
0.000233
0.000244
0.000262
0.000408
0.001704
0.000234
0.000246
0.002120
0.000477
0.000361
0.000248
0.000256
0.000262
0.000188
0.000057
0.000219
0.000235
0.000249
0.000243
0.000329
0.001552
0.000247
0.000233
0.000253
0.000252
0.000247
0.000237
0.000256
0.000252
0.000298
0.000595
0.000420
0.000255
0.000235
0.000275
0.000284
0.000225
0.000242
0.000433
0.000443
0.000282
0.000442
0.000424
0.000447
0.000272
0.000200
0.000056
0.000210
0.000233
0.000252
0.000254
0.000234
0.000239
0.000272
0.000444
0.000445
0.001651
0.000200
0.000240
0.000240
0.000247
0.000258
0.000316
0.000524
0.000345
0.000345
0.000241
0.000259
0.000312
0.000270
0.000255
0.000274
0.000434
0.000370
0.000675
0.000367
0.000459
0.000163
0.000059
0.000199
0.000261
0.000238
0.000222
0.000244
0.000239
0.000250
0.000248
0.000256
0.000324
0.000293
0.000521
0.001308
0.000244
0.000238
0.000240
0.000269
0.000242
0.000254
0.000270
0.000286
0.000444
0.000387
0.000267
0.000274
0.000254
0.000251
0.000273
0.000266
0.000262
0.000387
0.000056
0.000215
0.000235
0.000254
0.000291
0.000499
0.000441
0.000213
0.000262
0.000233
0.000259
0.000248
0.000235
0.000301
0.000250
0.000240
0.000493
0.000431
0.001613
0.000273
0.000238
0.000260
0.000268
0.000254
0.000241
0.000316
0.000396
0.000526
0.000277
0.000425
0.000242
0.000189
0.000058
0.000238
0.000432
0.000233
0.000216
0.000268
0.000258
0.000563
0.000343
0.000263
0.000326
0.000229
0.000269
0.000270
0.000235
0.000518
0.000350
0.000222
0.000258
0.000466
0.001575
0.000266
0.000231
0.000521
0.000245
0.000282
0.000283
0.000251
0.000465
0.000467
0.000338
0.000269
0.000056
0.000229
0.000233
0.000234
0.000242
0.000417
0.000311
0.000288
0.000222
0.000385
0.000547
0.000332
0.000232
0.000248
0.000241
0.000259
0.000266
0.000254
0.000251
0.000238
0.000347
0.000307
0.000348
0.001820
0.000234
0.000263
0.000251
0.000294
0.000355
0.000420
0.000802
0.000310
0.000057
0.000242
0.000322
0.000279
0.000429
0.000389
0.000205
0.000266
0.000407
0.000474
0.000350
0.000247
0.000246
0.000228
0.000272
0.000264
0.000233
0.000254
0.000273
0.000269
0.000257
0.000341
0.000357
0.000724
0.001247
0.000425
0.000491
0.000312
0.000282
0.000514
0.000322
0.000242
0.000058
0.000265
0.000367
0.000254
0.000202
0.000234
0.000238
0.000411
0.000237
0.000298
0.000330
0.000437
0.000425
0.000229
0.000255
0.000264
0.000250
0.000384
0.000381
0.000349
0.000221
0.000252
0.000571
0.000449
0.001680
0.000228
0.000446
0.000292
0.000229
0.000412
0.000326
0.000314
0.000059
0.000186
0.000229
0.000246
0.000251
0.000254
0.000236
0.000250
0.000322
0.000455
0.000298
0.000414
0.000432
0.000257
0.000556
0.000248
0.000243
0.000270
0.000267
0.000231
0.000353
0.000214
0.000251
0.000293
0.000500
0.000369
0.001675
0.000266
0.000229
0.000253
0.000270
0.000188
0.000057
0.000265
0.000582
0.000215
0.000224
0.000248
0.000248
0.000257
0.000241
0.000261
0.000244
0.000222
0.000251
0.000548
0.000402
0.000394
0.000282
0.000255
0.000240
0.000380
0.000366
0.000383
0.000323
0.000429
0.000350
0.000229
0.000241
0.000267
0.000275
0.001789
0.000240
0.000207
0.000057
0.000211
0.000221
0.000255
0.000275
0.000383
0.000540
0.000282
0.000223
0.000259
0.000261
0.000249
0.000251
0.000517
0.000449
0.000497
0.000277
0.000242
0.000362
0.000373
0.000453
0.000429
0.000396
0.000388
0.000467
0.000239
0.000262
0.000239
0.000247
0.000261
0.001729
0.000327
0.000057
0.000254
0.000342
0.000193
0.000234
0.000260
0.000243
0.000296
0.000467
0.000384
0.000319
0.000310
0.000263
0.000409
0.000586
0.000288
0.000238
0.000252
0.000270
0.000236
0.000264
0.000265
0.000277
0.000240
0.000264
0.000344
0.000344
0.000420
0.000332
0.000230
0.000256
0.000189
0.000058
0.000438
0.000309
0.000442
0.000258
0.000218
0.000240
0.000242
0.000257
0.000252
0.000209
0.000251
0.000290
0.000277
0.000527
0.000449
0.000377
0.000391
0.000291
0.000380
0.000371
0.000255
0.000213
0.000244
0.000259
0.001764
0.000244
0.001711
0.001017
0.000354
0.000300
0.000155
0.000057
0.000209
0.000235
0.000233
0.000242
0.000265
0.000248
0.000264
0.000236
0.000245
0.000389
0.000340
0.000373
0.000345
0.000367
0.000279
0.000245
0.000242
0.000294
0.000252
0.000228
0.000254
0.000264
0.001787
0.000254
0.000261
0.000267
0.000279
0.000260
0.002031
0.000417
0.000182
0.000059
0.000213
0.000212
0.000243
0.000237
0.000256
0.000260
0.000229
0.000254
0.000288
0.000396
0.000587
0.000410
0.000240
0.000206
0.000234
0.000259
0.000394
0.000408
0.000386
0.000214
0.001746
0.000271
0.000243
0.000249
0.000261
0.000270
0.000243
0.000252
0.000323
0.000388
0.000345
0.000057
0.000249
0.000226
0.000233
0.000258
0.000257
0.000232
0.000258
0.000252
0.000258
0.000241
0.000238
0.000321
0.000353
0.000373
0.000358
0.000242
0.000478
0.000243
0.000244
0.000258
0.000257
0.000264
0.000273
0.000255
0.000278
0.001777
0.000253
0.000256
0.000264
0.000238
0.000197
0.000056
0.000328
0.000277
0.000232
0.000222
0.000236
0.000241
0.000230
0.000262
0.000244
0.000234
0.000227
0.000262
0.000264
0.000453
0.000336
0.000365
0.000256
0.000252
0.000237
0.000258
0.000260
0.000256
0.000251
0.000285
0.000231
0.000271
0.000328
0.001601
0.000280
0.000242
0.000177
0.000055
0.000211
0.000239
0.000249
0.000253
0.000356
0.000484
0.000247
0.000336
0.000224
0.000257
0.000251
0.000244
0.000249
0.000252
0.000261
0.000260
0.000246
0.000255
0.000251
0.000261
0.000269
0.000267
0.000245
0.000236
0.000244
0.000280
0.000276
0.000257
0.000257
0.000281
0.000177
0.000076
0.000202
0.000235
0.000256
0.000255
0.000236
0.000250
0.000246
0.000262
0.000277
0.000240
0.000231
0.000253
0.000251
0.000248
0.000271
0.000279
0.000239
0.000248
0.000299
0.000252
0.000275
0.000290
0.000271
0.000247
0.000282
0.000272
0.000270
0.000249
0.000300
0.000436
0.000712
0.000122
0.000296
0.000201
0.000195
0.000211
0.000231
0.000249
0.000243
0.000253
0.000249
0.000245
0.000266
0.000391
0.000402
0.000549
0.001446
0.000244
0.000496
0.000233
0.000255
0.000455
0.000442
0.000370
0.000228
0.000273
0.000256
0.000261
0.000282
0.000254
0.000307
0.000256
0.000186
0.000057
0.000400
0.000320
0.000376
0.000275
0.000226
0.000252
0.000255
0.000236
0.000233
0.000244
0.000259
0.000260
0.000228
0.000277
0.000381
0.000492
0.000377
0.001774
0.000248
0.000259
0.000462
0.000331
0.000392
0.000305
0.000322
0.000320
0.000301
0.000231
0.000230
0.000253
0.000196
0.000058
0.000224
0.000225
0.000248
0.000318
0.000388
0.000454
0.000269
0.000256
0.000252
0.000213
0.000252
0.000268
0.000269
0.000257
0.000248
0.000258
0.000500
0.000344
0.000429
0.000303
0.000231
0.001758
0.000413
0.000548
0.000332
0.000497
0.000314
0.000232
0.000251
0.000267
0.000443
0.000059
0.000218
0.000247
0.000237
0.000378
0.000308
0.000571
0.000311
0.000208
0.000226
0.000288
0.000243
0.000262
0.000250
0.000297
0.000311
0.000232
0.000313
0.000369
0.000471
0.000282
0.000497
0.001829
0.000292
0.000614
0.000369
0.000291
0.000221
0.000263
0.000288
0.000268
0.000197
0.000059
0.000238
0.000353
0.000345
0.000345
0.000414
0.000245
0.000349
0.000220
0.000238
0.000259
0.000275
0.000245
0.000231
0.000256
0.000244
0.000256
0.000339
0.000485
0.000406
0.000360
0.000273
0.000237
0.000264
0.001705
0.000465
0.000563
0.000602
0.000274
0.000221
0.000309
0.000158
0.000057
0.000201
0.000238
0.000320
0.000257
0.000287
0.000422
0.000318
0.000336
0.000261
0.000506
0.000230
0.000252
0.000257
0.000275
0.000276
0.000262
0.000208
0.000615
0.000208
0.000440
0.000262
0.000258
0.000232
0.000255
0.000254
0.000271
0.000246
0.000250
0.000261
0.000288
0.000206
0.000058
0.000354
0.000330
0.000213
0.000251
0.000250
0.000255
0.000237
0.000297
0.000242
0.000239
0.000261
0.000356
0.000463
0.000341
0.000388
0.000246
0.000221
0.000242
0.000256
0.000272
0.000285
0.000258
0.000238
0.000256
0.000283
0.000380
0.000366
0.000360
0.000345
0.000239
0.000172
0.000057
0.000217
0.000221
0.000278
0.000238
0.000242
0.000247
0.000258
0.000258
0.000491
0.000211
0.000260
0.000254
0.000245
0.000265
0.000273
0.000274
0.000262
0.000348
0.000228
0.000239
0.000252
0.000265
0.000255
0.000269
0.000282
0.000261
0.000260
0.000256
0.000521
0.000240
0.000151
0.000058
0.000209
0.000238
0.000259
0.000253
0.000224
0.000245
0.000374
0.000406
0.000236
0.000233
0.000252
0.000254
0.000250
0.000331
0.000354
0.001786
0.000237
0.000266
0.000337
0.000400
0.000406
0.000299
0.000347
0.000387
0.000360
0.000410
0.000239
0.000272
0.000269
0.000274
0.001407
0.000061
0.000417
0.000227
0.000280
0.000215
0.000238
0.000248
0.000234
0.000255
0.000240
0.000275
0.000243
0.000283
0.000227
0.000340
0.000518
0.001601
0.000258
0.000223
0.000243
0.000263
0.000257
0.000329
0.000380
0.000304
0.000269
0.000354
0.000228
0.000273
0.000271
0.000265
0.000193
0.000057
0.001243
0.000501
0.000339
0.000256
0.000252
0.000209
0.000230
0.000244
0.000504
0.000193
0.000253
0.000247
0.000407
0.000572
0.000272
0.000351
0.000242
0.000243
0.000356
0.000344
0.000266
0.000256
0.000268
0.000243
0.000273
0.000622
0.000527
0.000243
0.000254
0.000267
0.000172
0.000056
0.000206
0.000235
0.000236
0.000247
0.001519
0.000245
0.000228
0.000254
0.000240
0.000246
0.000253
0.000252
0.000246
0.000263
0.000268
0.000352
0.000379
0.000641
0.000289
0.001720
0.000278
0.000266
0.000341
0.000482
0.000454
0.000416
0.000242
0.000242
0.000256
0.000274
0.000200
0.000057
0.000223
0.000251
0.000234
0.000362
0.001216
0.000238
0.000253
0.000257
0.000240
0.000242
0.000230
0.000244
0.000282
0.000247
0.000254
0.000284
0.000591
0.000312
0.000311
0.000264
0.000265
0.000269
0.000250
0.000232
0.000289
0.000267
0.000240
0.000276
0.000292
0.000373
0.000531
0.000059
0.000208
0.000247
0.000240
0.000260
0.000282
0.000227
0.000236
0.000258
0.000266
0.000258
0.001439
0.000214
0.000249
0.000249
0.000246
0.000248
0.000262
0.000266
0.000262
0.000266
0.000288
0.000464
0.000512
0.000344
0.000224
0.000278
0.001761
0.000263
0.000288
0.000321
0.000432
0.000060
0.000221
0.000411
0.000426
0.000504
0.000512
0.000575
0.001496
0.000412
0.000516
0.000626
0.000562
0.000686
0.000537
0.000588
0.000581
0.002029
0.000435
0.000256
0.000410
0.000308
0.000251
0.000278
0.000252
0.000270
0.000283
0.000263
0.000277
0.000307
0.000261
0.000294
0.001358
0.000059
0.000227
0.000224
0.000250
0.000235
0.000254
0.000258
0.000238
0.000241
0.000245
0.000252
0.000253
0.000226
0.000277
0.000242
0.000266
0.000269
0.001805
0.000289
0.000258
0.000236
0.000244
0.000276
0.000260
0.000289
0.000478
0.000337
0.000341
0.000253
0.000270
0.000280
0.000195
0.000056
0.000213
0.001370
0.000323
0.000265
0.000258
0.000238
0.000245
0.000233
0.000234
0.000245
0.000223
0.000289
0.000202
0.000498
0.000373
0.000273
0.000266
0.000263
0.001917
0.000242
0.000239
0.000265
0.000255
0.000271
0.000269
0.000285
0.000264
0.000252
0.000267
0.000319
0.000202
0.000057
0.000223
0.000242
0.000255
0.001447
0.000226
0.000249
0.000234
0.000242
0.000236
0.000268
0.000254
0.000244
0.000244
0.000256
0.000264
0.000256
0.000263
0.000278
0.000252
0.000259
0.000260
0.001769
0.000293
0.001750
0.000279
0.000228
0.000271
0.000262
0.000266
0.000277
0.000199
0.000057
0.000210
0.000246
0.001348
0.000213
0.000276
0.000240
0.000247
0.000252
0.000243
0.000254
0.000243
0.000250
0.000264
0.000261
0.000256
0.000263
0.000282
0.000255
0.000311
0.000224
0.001874
0.000263
0.001811
0.000247
0.000251
0.000274
0.000237
0.000243
0.000259
0.000259
0.000200
0.000057
0.001450
0.000204
0.000242
0.000231
0.000240
0.000236
0.000371
0.000262
0.000257
0.000254
0.000251
0.000260
0.000280
0.000324
0.000470
0.000221
0.000259
0.000259
0.000255
0.000249
0.000272
0.000332
0.000233
0.000252
0.000272
0.000275
0.000274
0.000303
0.000715
0.000326
0.000191
0.000057
0.000204
0.000257
0.000249
0.000292
0.000384
0.000283
0.001689
0.000296
0.000258
0.000267
0.000285
0.000251
0.000295
0.000252
0.000336
0.000272
0.000357
0.000556
0.000353
0.000315
0.000271
0.000260
0.000254
0.000291
0.000306
0.000304
0.000241
0.000243
0.000277
0.000374
0.000393
0.000061
0.000247
0.000469
0.000267
0.000267
0.000247
0.000227
0.000240
0.000236
0.000257
0.000332
0.001442
0.000222
0.000228
0.000246
0.000244
0.000292
0.000279
0.000232
0.000264
0.000267
0.000285
0.000548
0.000433
0.000230
0.000265
0.000289
0.000267
0.000259
0.000228
0.000320
0.000161
0.000057
0.000205
0.000243
0.000254
0.000477
0.000458
0.000191
0.000219
0.000247
0.000254
0.000249
0.000231
0.000273
0.000241
0.000266
0.000242
0.000286
0.000410
0.001155
0.000238
0.000251
0.000271
0.000251
0.000355
0.000418
0.000251
0.000382
0.000579
0.000288
0.000389
0.000241
0.000172
0.000058
0.000228
0.000246
0.000263
0.000259
0.000260
0.000247
0.000372
0.000457
0.000322
0.000335
0.000395
0.000348
0.000382
0.000351
0.000262
0.000240
0.000241
0.000316
0.000347
0.001441
0.000278
0.000230
0.000271
0.000271
0.000236
0.000236
0.000267
0.000381
0.000400
0.000482
0.000154
0.000057
0.000229
0.000222
0.000251
0.000249
0.000247
0.000238
0.000236
0.000259
0.000362
0.000343
0.000389
0.000383
0.000230
0.000236
0.000273
0.000233
0.000252
0.000259
0.000267
0.000250
0.000449
0.000281
0.000430
0.000324
0.000319
0.000250
0.000273
0.000269
0.000291
0.000300
0.000154
0.000060
0.000321
0.000313
0.000418
0.000255
0.000443
0.000352
0.000256
0.000242
0.000244
0.000276
0.000253
0.000262
0.000238
0.000250
0.000243
0.000228
0.000277
0.000557
0.000352
0.000300
0.000209
0.000273
0.000244
0.000276
0.000235
0.000279
0.000274
0.000261
0.000277
0.000268
0.000339
0.000056
0.000219
0.000328
0.000225
0.000249
0.000242
0.000274
0.000221
0.000248
0.000286
0.000240
0.000257
0.000229
0.000396
0.000402
0.000431
0.000299
0.000221
0.000247
0.000255
0.000296
0.000227
0.000264
0.000256
0.000267
0.000271
0.000396
0.000376
0.000547
0.000409
0.000253
0.000169
0.000057
0.000398
0.000212
0.000222
0.000244
0.000253
0.000242
0.000241
0.000251
0.000259
0.000256
0.000220
0.000248
0.000272
0.000223
0.000241
0.000269
0.000259
0.000254
0.000272
0.000261
0.000262
0.000262
0.000262
0.000264
0.000265
0.000252
0.000255
0.000279
0.000254
0.000278
0.000203
0.000061
0.000208
0.000227
0.000274
0.000245
0.000237
0.000247
0.000255
0.000237
0.000282
0.000254
0.000207
0.000243
0.000252
0.000401
0.000253
0.000276
0.000262
0.000261
0.000259
0.000279
0.000271
0.000236
0.000242
0.000254
0.000273
0.000273
0.000251
0.000250
0.000276
0.000255
0.000210
0.000059
0.000249
0.000327
0.000372
0.000274
0.000299
0.000257
0.000276
0.000252
0.000223
0.000245
0.000251
0.000261
0.000249
0.000256
0.000259
0.000242
0.000265
0.000269
0.000245
0.000263
0.000276
0.000262
0.000282
0.000255
0.000273
0.000246
0.000262
0.000266
0.000273
0.000265
0.000188
0.000058
0.000209
0.000233
0.000262
0.000261
0.000490
0.000213
0.000205
0.000250
0.000342
0.000426
0.000456
0.000279
0.000237
0.000240
0.000268
0.000268
0.000234
0.000272
0.000258
0.000268
0.000270
0.000255
0.000261
0.000324
0.000551
0.000431
0.000273
0.000298
0.000262
0.000262
0.000189
0.000057
0.000196
0.000216
0.000250
0.000250
0.000311
0.000694
0.000281
0.000383
0.000208
0.000252
0.000249
0.000253
0.000251
0.000249
0.000259
0.000270
0.000257
0.000253
0.000774
0.000244
0.000303
0.000242
0.000264
0.000276
0.000284
0.000253
0.000261
0.000272
0.000263
0.000329
0.000361
0.000061
0.000179
0.000230
0.000239
0.000235
0.000255
0.000251
0.000226
0.000250
0.000243
0.000257
0.000249
0.000250
0.000251
0.000421
0.000616
0.000308
0.000242
0.000257
0.000264
0.000262
0.000252
0.000271
0.000490
0.000222
0.000259
0.000601
0.000416
0.000480
0.000256
0.000251
0.000181
0.000056
0.000219
0.000231
0.000246
0.000237
0.000256
0.000259
0.000364
0.000415
0.000640
0.000327
0.000216
0.000264
0.000278
0.000277
0.000255
0.000249
0.000235
0.000247
0.000299
0.000393
0.000297
0.000654
0.000363
0.000257
0.000424
0.000311
0.000490
0.000243
0.000262
0.000574
0.000243
0.000060
0.000257
0.000228
0.000446
0.000212
0.000234
0.000256
0.000260
0.000257
0.000231
0.000244
0.000413
0.000282
0.000346
0.000339
0.000242
0.000230
0.000266
0.000244
0.000270
0.000275
0.000276
0.000249
0.000254
0.000274
0.000408
0.000417
0.000464
0.000240
0.000248
0.000272
0.000198
0.000057
0.000203
0.000257
0.000225
0.000244
0.000248
0.000324
0.000290
0.000509
0.000357
0.000277
0.000350
0.000228
0.000238
0.000271
0.000251
0.000239
0.000257
0.000265
0.000354
0.000362
0.000482
0.000297
0.000483
0.000297
0.000419
0.000386
0.000369
0.000232
0.000256
0.000264
0.000467
0.000057
0.000219
0.000282
0.000201
0.000249
0.000256
0.000258
0.000250
0.000246
0.000267
0.000245
0.000238
0.000439
0.000455
0.000324
0.000342
0.000235
0.000251
0.000264
0.000268
0.000232
0.000252
0.000254
0.000267
0.000274
0.000279
0.000349
0.000628
0.000314
0.000239
0.000286
0.000188
0.000059
0.000201
0.000247
0.000259
0.000260
0.000236
0.000383
0.000506
0.000480
0.000303
0.000691
0.000260
0.000218
0.000244
0.000264
0.000242
0.000267
0.000279
0.000285
0.000451
0.000520
0.001430
0.000307
0.000255
0.000260
0.000293
0.000269
0.000461
0.000327
0.000460
0.000228
0.000176
0.000059
0.000192
0.000235
0.000244
0.000244
0.000234
0.000262
0.000272
0.000250
0.000296
0.000299
0.000334
0.000379
0.000277
0.000401
0.000368
0.000310
0.000227
0.000238
0.000266
0.000261
0.000249
0.000245
0.000282
0.000250
0.000380
0.000404
0.000452
0.000255
0.000239
0.000269
0.000190
0.000056
0.000213
0.000249
0.000255
0.000253
0.000241
0.000236
0.000474
0.000209
0.000237
0.000254
0.000248
0.000253
0.000260
0.000248
0.000256
0.000266
0.000262
0.000266
0.000269
0.000259
0.000257
0.000290
0.000296
0.000247
0.000260
0.000282
0.000268
0.000265
0.000260
0.000274
0.000171
0.000057
0.000192
0.000248
0.000317
0.000418
0.000389
0.000222
0.000228
0.000272
0.000238
0.000248
0.000256
0.000247
0.000263
0.000265
0.000235
0.000248
0.000242
0.000267
0.000379
0.000362
0.000350
0.000385
0.000215
0.000266
0.000272
0.000249
0.000264
0.000249
0.000274
0.000278
0.000198
0.000056
0.000414
0.000527
0.000210
0.000248
0.000224
0.000251
0.000413
0.000222
0.000231
0.000258
0.000254
0.000339
0.000412
0.000326
0.001879
0.000244
0.000239
0.000258
0.000275
0.000241
0.000385
0.000526
0.000564
0.000225
0.000234
0.000252
0.000274
0.000425
0.000281
0.000277
0.000164
0.000056
0.000197
0.000364
0.000394
0.000256
0.000496
0.000223
0.000221
0.000244
0.000272
0.000225
0.000262
0.000244
0.000263
0.000379
0.000412
0.000420
0.000206
0.000250
0.000263
0.000278
0.000246
0.000315
0.000238
0.000272
0.000281
0.000556
0.000441
0.000353
0.000452
0.000246
0.000206
0.000057
0.000216
0.000236
0.000253
0.000231
0.000252
0.000249
0.000270
0.000278
0.000413
0.000402
0.000323
0.000355
0.000220
0.000251
0.000280
0.000281
0.000293
0.000239
0.000278
0.000271
0.000238
0.000391
0.000409
0.000346
0.000280
0.000260
0.000262
0.000446
0.000420
0.000322
0.000156
0.000057
0.000201
0.000334
0.000366
0.000290
0.000382
0.000208
0.000239
0.000255
0.000258
0.000257
0.000264
0.000251
0.000229
0.000257
0.000258
0.000340
0.000409
0.000303
0.000294
0.000337
0.000497
0.000224
0.000286
0.000274
0.000302
0.000280
0.000258
0.000394
0.000382
0.000500
0.000170
0.000057
0.000217
0.000229
0.000247
0.000251
0.000243
0.000481
0.000210
0.000257
0.000259
0.000348
0.000494
0.000577
0.000211
0.000237
0.000245
0.000252
0.000271
0.000228
0.000266
0.000249
0.000258
0.000269
0.000396
0.000470
0.000287
0.000388
0.000297
0.000348
0.000270
0.000288
0.000154
0.000058
0.000236
0.000212
0.000414
0.000321
0.000391
0.000236
0.000265
0.000217
0.000245
0.000259
0.000254
0.000248
0.000256
0.000261
0.000246
0.000263
0.000247
0.000242
0.000274
0.000431
0.000445
0.000409
0.000232
0.000250
0.000275
0.000295
0.000241
0.000257
0.000266
0.000267
0.000188
0.000057
0.000233
0.000371
0.000467
0.000241
0.000221
0.000249
0.000329
0.000465
0.000269
0.000215
0.000244
0.000272
0.000286
0.000531
0.000308
0.000300
0.000231
0.000239
0.000258
0.000260
0.000271
0.000270
0.000256
0.000273
0.000267
0.000351
0.000409
0.000362
0.000292
0.000251
0.000182
0.000056
0.000218
0.000240
0.000244
0.000265
0.000236
0.000266
0.000239
0.000251
0.000249
0.000247
0.000272
0.000235
0.000263
0.001449
0.000251
0.000246
0.000252
0.000245
0.000280
0.000277
0.000260
0.000239
0.000274
0.000255
0.000270
0.000268
0.000272
0.000271
0.000259
0.000288
0.000174
0.000057
0.000198
0.000230
0.000252
0.000250
0.000237
0.000248
0.000257
0.000259
0.000228
0.000244
0.000252
0.000263
0.000256
0.000254
0.000256
0.000262
0.000239
0.000264
0.000273
0.000255
0.000260
0.000256
0.000247
0.000252
0.001296
0.000290
0.000581
0.000469
0.000275
0.000248
0.000189
0.000057
0.000199
0.000228
0.000248
0.000253
0.000415
0.000232
0.000244
0.000244
0.000253
0.000404
0.000406
0.000337
0.000238
0.000233
0.000263
0.000256
0.000263
0.000259
0.000247
0.000261
0.000256
0.000258
0.000325
0.000441
0.000478
0.000403
0.000222
0.000268
0.001363
0.000251
0.000180
0.000061
0.000298
0.000403
0.000312
0.000260
0.000228
0.000230
0.000231
0.000250
0.000262
0.000254
0.000251
0.000259
0.000305
0.000431
0.000372
0.000372
0.000337
0.000225
0.000249
0.000258
0.000266
0.000265
0.000270
0.000263
0.000270
0.000266
0.000407
0.000459
0.000379
0.000371
0.000149
0.000056
0.000204
0.000234
0.001261
0.000462
0.000305
0.000446
0.000341
0.000511
0.000391
0.000250
0.000202
0.000213
0.000257
0.000254
0.000250
0.000264
0.000432
0.000443
0.000382
0.000347
0.000251
0.000250
0.000254
0.000509
0.000234
0.000263
0.000254
0.000283
0.000522
0.000418
0.000242
0.000057
0.000477
0.000258
0.000208
0.000206
0.001634
0.000452
0.000264
0.000226
0.000246
0.000249
0.000239
0.000225
0.000250
0.000267
0.000251
0.000264
0.000235
0.000370
0.000349
0.000436
0.000365
0.000242
0.000251
0.000257
0.000261
0.000274
0.000267
0.000237
0.000264
0.000278
0.000226
0.000057
0.000362
0.000338
0.000227
0.000228
0.000254
0.000240
0.000271
0.000228
0.000226
0.000232
0.001604
0.000313
0.000230
0.000253
0.000231
0.000257
0.000276
0.000260
0.000238
0.000275
0.000271
0.000250
0.000313
0.000400
0.000385
0.000460
0.000229
0.000266
0.000275
0.000283
0.000172
0.000057
0.000215
0.000414
0.000216
0.000254
0.000365
0.000434
0.000341
0.000321
0.000460
0.000203
0.000232
0.000271
0.000248
0.000263
0.000260
0.001519
0.000253
0.000288
0.000249
0.000263
0.000280
0.000250
0.000252
0.000251
0.000263
0.000283
0.000593
0.000276
0.000298
0.000289
0.000144
0.000057
0.000226
0.000230
0.000251
0.000234
0.000234
0.000261
0.000240
0.000251
0.000306
0.000337
0.000454
0.000271
0.000268
0.000231
0.000248
0.000270
0.000278
0.000258
0.000285
0.000211
0.000258
0.000358
0.001212
0.000280
0.000239
0.000242
0.000271
0.000253
0.000259
0.000262
0.000183
0.000056
0.000243
0.000326
0.000342
0.000375
0.000235
0.000234
0.000267
0.000256
0.000257
0.000248
0.000255
0.000271
0.000240
0.000253
0.000258
0.000269
0.000261
0.000270
0.000263
0.000249
0.000252
0.000288
0.000252
0.000281
0.000295
0.000259
0.000267
0.000258
0.000264
0.000443
0.001360
0.000076
0.000195
0.000229
0.000237
0.000243
0.000251
0.000260
0.000248
0.000225
0.000250
0.000248
0.000274
0.000254
0.000254
0.000241
0.000245
0.000248
0.001722
0.000265
0.000243
0.000259
0.000247
0.000259
0.000268
0.000262
0.000274
0.000277
0.000251
0.000282
0.000271
0.000253
0.000232
0.000057
0.000292
0.000383
0.001222
0.000222
0.000235
0.000243
0.000255
0.000251
0.000258
0.000251
0.000236
0.000352
0.000415
0.000415
0.000285
0.000237
0.000239
0.000253
0.000261
0.000266
0.000243
0.000267
0.000269
0.000283
0.000308
0.000338
0.000377
0.000357
0.000320
0.000246
0.000186
0.000055
0.000231
0.000245
0.000241
0.000254
0.000251
0.000217
0.000245
0.000373
0.000443
0.001229
0.000244
0.000207
0.000245
0.000271
0.000255
0.000268
0.000259
0.000249
0.000316
0.000470
0.000380
0.000221
0.000226
0.000245
0.000278
0.000288
0.000255
0.000296
0.000271
0.000275
0.000191
0.000057
0.000320
0.000430
0.000302
0.000213
0.000236
0.000238
0.000245
0.000278
0.000284
0.000228
0.000231
0.000254
0.000449
0.000558
0.000408
0.001465
0.000252
0.000301
0.000303
0.000350
0.000524
0.000454
0.000409
0.000359
0.000232
0.000268
0.000267
0.000272
0.000266
0.000271
0.000202
0.000058
0.000206
0.000364
0.000402
0.000393
0.000376
0.000236
0.000247
0.000228
0.000255
0.000256
0.000252
0.000261
0.000265
0.000246
0.000265
0.000315
0.000337
0.000478
0.000322
0.001325
0.000274
0.000246
0.000252
0.000269
0.000439
0.000459
0.000374
0.000260
0.000272
0.000275
0.000188
0.000057
0.000192
0.000267
0.000221
0.000241
0.000244
0.000355
0.000545
0.000236
0.000352
0.000221
0.000240
0.000258
0.000272
0.000261
0.000256
0.000290
0.000240
0.000262
0.000278
0.000277
0.000497
0.000390
0.000307
0.001351
0.000429
0.000220
0.000285
0.000428
0.000509
0.000279
0.000328
0.000056
0.000208
0.000230
0.000247
0.000249
0.000251
0.000253
0.001674
0.000237
0.000229
0.000237
0.000258
0.000247
0.000302
0.000329
0.000327
0.000296
0.000250
0.000316
0.000498
0.000404
0.000342
0.000227
0.000204
0.001424
0.000381
0.000372
0.000383
0.000428
0.000331
0.000270
0.000171
0.000056
0.000234
0.000242
0.000257
0.000255
0.000247
0.000252
0.001714
0.000246
0.000232
0.000263
0.000391
0.000444
0.001358
0.000346
0.000394
0.000243
0.000262
0.000233
0.000270
0.000273
0.001741
0.000440
0.000303
0.000289
0.000250
0.000253
0.000261
0.000279
0.000245
0.000253
0.000210
0.000056
0.000225
0.000226
0.000292
0.000219
0.000259
0.000301
0.000254
0.000263
0.000247
0.000251
0.000253
0.000248
0.000263
0.000266
0.001521
0.000301
0.000212
0.000231
0.000266
0.000277
0.000272
0.000285
0.000417
0.001255
0.000278
0.000234
0.000272
0.000255
0.000391
0.000252
0.000198
0.000056
0.000203
0.000250
0.000219
0.000248
0.000239
0.000243
0.000217
0.001704
0.000243
0.000228
0.000256
0.000366
0.000227
0.000226
0.000253
0.001382
0.000240
0.000264
0.000265
0.000246
0.000263
0.000355
0.000270
0.001307
0.000282
0.000253
0.000250
0.000266
0.001382
0.000294
0.000198
0.000056
0.000296
0.000315
0.000228
0.000216
0.000252
0.000239
0.000265
0.000266
0.000267
0.000245
0.000260
0.000264
0.000256
0.000248
0.000398
0.001406
0.000253
0.000267
0.000261
0.000238
0.000281
0.000267
0.000251
0.001552
0.000297
0.000244
0.000267
0.001268
0.000270
0.000249
0.000252
0.000056
0.000206
0.000396
0.000333
0.000219
0.000232
0.000240
0.000261
0.000261
0.000264
0.000271
0.000239
0.000247
0.000265
0.000480
0.000240
0.001190
0.000237
0.000248
0.000264
0.000277
0.000226
0.000242
0.000253
0.000389
0.001207
0.000270
0.000235
0.000258
0.000260
0.001337
0.000316
0.000057
0.000240
0.000223
0.000232
0.000231
0.000242
0.000259
0.000236
0.000253
0.000272
0.000252
0.000242
0.000251
0.000361
0.000298
0.000371
0.001430
0.000217
0.000257
0.000303
0.000509
0.000281
0.000467
0.001274
0.000298
0.000243
0.000271
0.000250
0.001298
0.000357
0.000464
0.000338
0.000057
0.000249
0.000229
0.000253
0.000254
0.000256
0.000252
0.000269
0.000251
0.000263
0.000297
0.000337
0.000419
0.001330
0.000229
0.000266
0.000258
0.000284
0.000243
0.000236
0.000245
0.000403
0.001165
0.000282
0.000220
0.000255
0.000255
0.001432
0.000536
0.000444
0.000220
0.000197
0.000057
0.000211
0.000227
0.000248
0.000232
0.000258
0.000265
0.000239
0.000293
0.000518
0.000415
0.000216
0.001493
0.000218
0.000237
0.000268
0.000250
0.000266
0.000280
0.001694
0.000279
0.000394
0.000310
0.001307
0.000407
0.000232
0.000322
0.000269
0.000254
0.000267
0.000269
0.000186
0.000057
0.000215
0.000237
0.000333
0.000248
0.000386
0.000494
0.000249
0.000293
0.001474
0.000236
0.000382
0.000265
0.000216
0.000352
0.000393
0.001274
0.000270
0.000243
0.000238
0.000259
0.001512
0.000382
0.000296
0.000288
0.000247
0.000247
0.000477
0.000320
0.000232
0.000253
0.000260
0.000056
0.000256
0.000371
0.000322
0.000243
0.000225
0.001536
0.000202
0.000258
0.000266
0.000271
0.000267
0.000250
0.000325
0.001454
0.000258
0.000223
0.000436
0.001192
0.000419
0.000490
0.000275
0.000235
0.000238
0.000254
0.000283
0.000237
0.000458
0.000222
0.000269
0.000271
0.000204
0.000057
0.000205
0.000275
0.000379
0.000341
0.001273
0.000286
0.000305
0.000238
0.000254
0.000234
0.000253
0.000412
0.001422
0.000237
0.000230
0.000258
0.001361
0.000366
0.000367
0.000587
0.000209
0.000229
0.000254
0.000250
0.000265
0.000281
0.000274
0.000255
0.000268
0.000247
0.000229
0.000056
0.000235
0.000515
0.001325
0.000202
0.000279
0.000276
0.000238
0.000252
0.000275
0.000359
0.001401
0.000220
0.000246
0.000275
0.000254
0.001274
0.000660
0.000324
0.000348
0.000397
0.000290
0.000235
0.000274
0.000257
0.000268
0.000291
0.000275
0.000301
0.000519
0.000339
0.001396
0.000060
0.000185
0.000242
0.000244
0.000223
0.000328
0.000335
0.000518
0.001323
0.000186
0.000234
0.000251
0.001599
0.000219
0.000374
0.000224
0.000404
0.000251
0.000259
0.000256
0.000276
0.000246
0.000269
0.000282
0.000253
0.000250
0.000397
0.000425
0.000381
0.001509
0.000217
0.000195
0.000057
0.000201
0.000251
0.000518
0.000389
0.001221
0.000281
0.000249
0.000261
0.000244
0.000251
0.000251
0.000357
0.000294
0.000461
0.000344
0.000236
0.000255
0.000275
0.000261
0.000262
0.000295
0.000276
0.000253
0.000257
0.000258
0.000455
0.000537
0.000335
0.000269
0.001337
0.000153
0.000061
0.000211
0.000243
0.000324
0.000411
0.000344
0.000298
0.000314
0.000330
0.000265
0.000308
0.000214
0.000262
0.000278
0.000284
0.000234
0.000346
0.000543
0.000274
0.000296
0.000385
0.000273
0.000407
0.000247
0.000245
0.000245
0.000268
0.000245
0.000312
0.000417
0.000420
0.000287
0.000058
0.000214
0.001405
0.000316
0.000261
0.000441
0.000422
0.000362
0.000277
0.000224
0.000247
0.000252
0.000250
0.000264
0.000279
0.000253
0.000255
0.000260
0.001392
0.000220
0.000262
0.000252
0.000271
0.000276
0.000279
0.000270
0.000249
0.000276
0.000244
0.000357
0.000381
0.000550
0.000057
0.000281
0.000199
0.000212
0.001536
0.000285
0.000256
0.000219
0.000247
0.000222
0.000246
0.000255
0.000269
0.000250
0.000252
0.000289
0.000232
0.000272
0.000247
0.000255
0.000270
0.001423
0.000238
0.000236
0.000278
0.000258
0.000246
0.000268
0.000285
0.000253
0.000500
0.000336
0.000057
0.000212
0.000235
0.000390
0.000277
0.000246
0.000259
0.001549
0.000410
0.000217
0.000218
0.000282
0.000286
0.000336
0.000232
0.000230
0.000250
0.000246
0.000263
0.000259
0.000269
0.000481
0.000508
0.001110
0.000274
0.000232
0.000259
0.000269
0.000271
0.000262
0.000287
0.000473
0.000059
0.000228
0.000345
0.000206
0.000238
0.000250
0.000240
0.000246
0.000228
0.000287
0.001699
0.000272
0.000288
0.000245
0.000250
0.000258
0.000244
0.000260
0.000277
0.000274
0.000293
0.000390
0.000527
0.000336
0.001358
0.000253
0.000270
0.000265
0.000243
0.000269
0.000323
0.000461
0.000060
0.000274
0.000240
0.000235
0.000240
0.000225
0.000241
0.000263
0.000250
0.000268
0.001562
0.000362
0.000258
0.000262
0.000259
0.000457
0.000278
0.000532
0.000367
0.000297
0.000377
0.000472
0.000417
0.001266
0.000258
0.000207
0.000248
0.001732
0.000438
0.000606
0.000322
0.000144
0.000057
0.000213
0.000236
0.000233
0.000238
0.000254
0.000247
0.000248
0.000557
0.000529
0.000322
0.000292
0.000216
0.000244
0.000261
0.000266
0.000267
0.000248
0.000249
0.000254
0.000273
0.000350
0.000449
0.001235
0.000224
0.000247
0.000276
0.001894
0.000380
0.000377
0.000361
0.000149
0.000057
0.000254
0.000237
0.000246
0.001679
0.000312
0.000214
0.000236
0.000262
0.000253
0.000318
0.000377
0.000363
0.000359
0.000282
0.000356
0.000465
0.000379
0.001182
0.000272
0.000235
0.000251
0.000265
0.000303
0.000504
0.000588
0.000349
0.000259
0.000268
0.000265
0.000283
0.000193
0.000056
0.000189
0.000236
0.000238
0.001551
0.000240
0.000236
0.000237
0.000258
0.000242
0.000250
0.000252
0.000270
0.000271
0.000271
0.000296
0.000465
0.000437
0.000218
0.001385
0.000234
0.000261
0.000258
0.000260
0.000275
0.000329
0.000620
0.000349
0.000331
0.000242
0.000229
0.000424
0.000059
0.000194
0.000243
0.000247
0.001538
0.000303
0.000221
0.000266
0.000245
0.000252
0.000254
0.000254
0.000255
0.000259
0.000278
0.000352
0.000650
0.001336
0.000688
0.000257
0.000333
0.000257
0.000235
0.000242
0.000279
0.001685
0.000789
0.000238
0.000263
0.000275
0.000288
0.000193
0.000057
0.000219
0.000216
0.000252
0.000237
0.000259
0.000246
0.000243
0.000253
0.000240
0.000231
0.000290
0.000280
0.000250
0.000249
0.000267
0.000247
0.001598
0.000307
0.000670
0.000411
0.000280
0.000231
0.000244
0.000286
0.000268
0.000252
0.000278
0.000258
0.001407
0.000379
0.000340
0.000057
0.000199
0.000232
0.000252
0.000249
0.000259
0.000230
0.000254
0.000255
0.000250
0.000264
0.000296
0.000445
0.000385
0.000340
0.000213
0.000247
0.000278
0.001413
0.000667
0.000525
0.000279
0.000265
0.000229
0.000250
0.000287
0.000240
0.000257
0.000266
0.001496
0.000396
0.000218
0.000057
0.000193
0.000229
0.000245
0.000248
0.000247
0.000249
0.000239
0.000248
0.000272
0.000290
0.000444
0.000271
0.000334
0.000215
0.000244
0.000245
0.000266
0.000275
0.001595
0.000590
0.000562
0.000219
0.000222
0.000263
0.000254
0.000281
0.000254
0.000281
0.000267
0.001424
0.000252
0.000057
0.000199
0.000218
0.000234
0.000256
0.000252
0.000310
0.000305
0.000362
0.000391
0.000307
0.000362
0.000320
0.000357
0.000230
0.000243
0.000251
0.000278
0.000256
0.000279
0.001881
0.000349
0.000251
0.000444
0.000243
0.000247
0.000263
0.000273
0.000254
0.000269
0.000271
0.000488
0.000061
0.000249
0.000230
0.000231
0.000243
0.000254
0.000250
0.000225
0.000239
0.000294
0.000225
0.000242
0.000239
0.000422
0.000350
0.000451
0.000418
0.000225
0.000266
0.000249
0.000251
0.000279
0.000378
0.001350
0.001061
0.000226
0.000252
0.000266
0.000263
0.000274
0.000283
0.000173
0.000061
0.000199
0.001338
0.000282
0.000220
0.000239
0.000253
0.000250
0.000237
0.000244
0.000253
0.000250
0.000266
0.000397
0.000293
0.000332
0.000502
0.000193
0.000256
0.000264
0.000267
0.000271
0.000223
0.000262
0.000271
0.001344
0.000672
0.000373
0.000373
0.000396
0.000400
0.000225
0.000060
0.000211
0.000315
0.001334
0.000264
0.000215
0.000256
0.000240
0.000243
0.000258
0.000256
0.000263
0.000234
0.000276
0.000384
0.000528
0.000297
0.000226
0.000278
0.000334
0.000214
0.000249
0.000272
0.000235
0.000271
0.000270
0.001528
0.000748
0.000299
0.000272
0.000276
0.000199
0.000058
0.000223
0.000353
0.000348
0.000312
0.001310
0.000235
0.000241
0.000241
0.000232
0.000247
0.000250
0.000273
0.000209
0.000239
0.000258
0.000257
0.000268
0.000235
0.000256
0.000258
0.000263
0.000268
0.000301
0.000330
0.000219
0.000272
0.000286
0.001439
0.000257
0.000246
0.000174
0.000056
0.000206
0.000229
0.000265
0.000329
0.000369
0.000386
0.000361
0.000232
0.001536
0.000279
0.000254
0.000503
0.000364
0.000217
0.000432
0.000250
0.000228
0.000260
0.000273
0.000268
0.000281
0.000266
0.000256
0.000271
0.000254
0.000429
0.000416
0.000292
0.001579
0.000224
0.000195
0.000060
0.000212
0.000239
0.000272
0.000223
0.000241
0.000246
0.000261
0.000276
0.000438
0.002046
0.000231
0.000242
0.000253
0.000256
0.000264
0.000248
0.000274
0.000255
0.000370
0.000316
0.000405
0.000440
0.001439
0.000251
0.000532
0.000233
0.001765
0.000243
0.000263
0.001517
0.000166
0.000057
0.000294
0.000477
0.000448
0.000223
0.000263
0.000246
0.000242
0.000270
0.000260
0.000228
0.000251
0.000394
0.000386
0.000361
0.000407
0.000231
0.000235
0.001558
0.000240
0.000580
0.001922
0.000268
0.000213
0.001639
0.001922
0.000738
0.000278
0.000316
0.000213
0.000510
0.000336
0.000057
0.000222
0.000241
0.000244
0.000251
0.001420
0.001720
0.001089
0.000205
0.000249
0.001565
0.001981
0.000218
0.000229
0.000427
0.000455
0.000224
0.000409
0.000470
0.000206
0.000247
0.000248
0.000257
0.000300
0.001569
0.001197
0.001438
0.000265
0.000306
0.000249
0.000311
0.000415
0.000057
0.000207
0.000238
0.000239
0.000240
0.000230
0.000243
0.000248
0.000252
0.000258
0.000246
0.000249
0.000376
0.000418
0.000405
0.000280
0.000271
0.000261
0.000260
0.000270
0.000264
0.000254
0.000264
0.001532
0.000467
0.002108
0.000225
0.000293
0.000318
0.000446
0.000400
0.000167
0.000058
0.000249
0.000305
0.000476
0.000315
0.000190
0.000232
0.000257
0.000240
0.000241
0.000243
0.000249
0.000263
0.000290
0.001577
0.001353
0.001233
0.000266
0.000234
0.000255
0.000272
0.000283
0.000281
0.000238
0.000253
0.002210
0.000252
0.000250
0.000295
0.000322
0.000305
0.000218
0.000058
0.000239
0.000344
0.000564
0.000296
0.000235
0.000239
0.000246
0.000268
0.001904
0.001425
0.000219
0.000383
0.000393
0.000348
0.000249
0.000233
0.000253
0.000271
0.000266
0.000258
0.000259
0.000264
0.000474
0.000232
0.000274
0.000267
0.000250
0.000273
0.000280
0.000251
0.000201
0.000057
0.000193
0.000244
0.000245
0.000247
0.000248
0.000272
0.001547
0.001407
0.001342
0.000247
0.000218
0.000237
0.000267
0.000262
0.000260
0.000238
0.000251
0.002101
0.000260
0.000231
0.000263
0.000264
0.000250
0.000269
0.000266
0.000258
0.000268
0.000257
0.000280
0.000244
0.000177
0.000056
0.000212
0.002679
0.001395
0.000217
0.000305
0.000296
0.000238
0.000257
0.000257
0.000244
0.000250
0.000245
0.000235
0.000255
0.000264
0.000259
0.000269
0.000279
0.000245
0.000265
0.000260
0.000293
0.000271
0.000258
0.000253
0.000242
0.000264
0.000271
0.000263
0.000273
0.000371
0.000057
0.001539
0.000260
0.001232
0.000227
0.000228
0.000238
0.000263
0.000253
0.000249
0.000259
0.000454
0.000352
0.000297
0.000212
0.000251
0.002150
0.000248
0.000237
0.000308
0.000478
0.000351
0.000314
0.000221
0.000259
0.000265
0.000247
0.000266
0.000280
0.000274
0.001623
0.001239
0.000059
0.000230
0.000218
0.000318
0.000373
0.000353
0.000273
0.000213
0.000231
0.000248
0.000260
0.000266
0.000247
0.000229
0.000271
0.000249
0.000237
0.000397
0.000625
0.000276
0.000253
0.000223
0.000268
0.000286
0.000253
0.000246
0.000252
0.000263
0.000279
0.000240
0.000401
0.000341
0.000056
0.001131
0.000261
0.000316
0.000494
0.000240
0.000234
0.000224
0.000240
0.000252
0.002316
0.000553
0.000193
0.000214
0.000375
0.000271
0.000267
0.000262
0.000257
0.000269
0.000227
0.000247
0.000423
0.000643
0.000296
0.001844
0.001338
0.000507
0.000529
0.000230
0.000277
0.000199
0.000060
0.000281
0.000294
0.000245
0.000248
0.000239
0.000232
0.000253
0.000254
0.000254
0.000251
0.000254
0.000229
0.000248
0.000392
0.000336
0.000426
0.001843
0.001390
0.000419
0.000390
0.000468
0.000238
0.000241
0.000263
0.002158
0.000526
0.000386
0.000235
0.000274
0.000280
0.000198
0.000056
0.000213
0.000243
0.000253
0.000244
0.000258
0.000378
0.000373
0.000367
0.000232
0.000248
0.000241
0.000249
0.000265
0.002151
0.000364
0.000343
0.000218
0.000252
0.000268
0.000260
0.000245
0.002525
0.000267
0.000242
0.000247
0.000252
0.000253
0.000273
0.000282
0.000279
0.000193
0.000056
0.000265
0.000369
0.000520
0.000312
0.000268
0.000230
0.000220
0.000252
0.000261
0.000255
0.002135
0.000206
0.000310
0.000256
0.000222
0.000262
0.000273
0.000240
0.002209
0.000443
0.000224
0.000272
0.000273
0.000254
0.000250
0.000255
0.000280
0.000257
0.000266
0.000257
0.000187
0.000059
0.000200
0.000241
0.000248
0.000225
0.000247
0.000253
0.000241
0.000241
0.000233
0.002181
0.000226
0.000285
0.000220
0.000423
0.000230
0.000254
0.000274
0.000284
0.000246
0.000264
0.001971
0.000299
0.000383
0.000378
0.000390
0.000372
0.000308
0.000244
0.000250
0.000257
0.000200
0.000059
0.000205
0.000247
0.000224
0.000243
0.000252
0.000321
0.000234
0.002309
0.000220
0.000247
0.000257
0.000255
0.000236
0.000253
0.000300
0.002129
0.000590
0.000229
0.000250
0.000247
0.000254
0.000256
0.000292
0.000265
0.000260
0.000256
0.000283
0.000260
0.000264
0.000268
0.000191
0.000059
0.001812
0.001447
0.000193
0.000228
0.000247
0.000251
0.000248
0.000366
0.000345
0.000287
0.002203
0.000258
0.000247
0.000254
0.000289
0.000530
0.000382
0.000285
0.000229
0.000242
0.000249
0.000268
0.000268
0.000220
0.000262
0.000264
0.000272
0.000267
0.000327
0.000702
0.000261
0.000057
0.000209
0.000250
0.000240
0.000291
0.000233
0.000261
0.000237
0.000246
0.001539
0.002060
0.000580
0.000307
0.000418
0.000789
0.000214
0.000235
0.000250
0.000249
0.000267
0.000264
0.000254
0.000245
0.000251
0.000268
0.001821
0.001465
0.000287
0.000269
0.000305
0.000364
0.000309
0.000058
0.001950
0.000228
0.000223
0.000234
0.000354
0.000340
0.000479
0.000227
0.000286
0.000236
0.000229
0.000250
0.000256
0.000259
0.000260
0.000259
0.000254
0.000266
0.001846
0.000236
0.000236
0.000253
0.000294
0.000262
0.000270
0.000266
0.001447
0.000334
0.000247
0.000263
0.000180
0.000056
0.000195
0.000266
0.000214
0.000244
0.000247
0.000245
0.000346
0.000350
0.000304
0.000377
0.000228
0.000239
0.000261
0.000408
0.000364
0.000300
0.000231
0.000241
0.000286
0.000439
0.000363
0.000461
0.000236
0.000257
0.000254
0.000258
0.000252
0.000272
0.000296
0.000241
0.000203
0.000058
0.001412
0.000427
0.000227
0.001965
0.000280
0.000445
0.000380
0.000314
0.000238
0.000241
0.000267
0.000242
0.000246
0.000248
0.000272
0.000249
0.000465
0.000348
0.000291
0.000474
0.000294
0.000231
0.000255
0.000267
0.000278
0.000269
0.000263
0.000293
0.000364
0.000488
0.001315
0.000057
0.000208
0.000223
0.002141
0.000296
0.000245
0.000264
0.000257
0.000249
0.000260
0.000261
0.000212
0.000256
0.000253
0.000267
0.000339
0.000463
0.000520
0.001759
0.000235
0.000259
0.000243
0.000296
0.000488
0.000386
0.001488
0.000287
0.000363
0.001925
0.000266
0.000251
0.000195
0.000057
0.000189
0.000227
0.000236
0.000242
0.000234
0.000248
0.000253
0.000285
0.000328
0.000287
0.000379
0.000352
0.000335
0.000299
0.000234
0.000270
0.000258
0.000239
0.000267
0.000256
0.000295
0.000304
0.000254
0.000261
0.000265
0.001509
0.000285
0.000517
0.001941
0.000235
0.000173
0.000058
0.000213
0.000236
0.000239
0.000250
0.000481
0.000206
0.000259
0.000449
0.000251
0.000310
0.000304
0.000208
0.000264
0.000266
0.000274
0.000333
0.000420
0.000429
0.000243
0.000400
0.000552
0.000574
0.001426
0.000233
0.000265
0.001978
0.000326
0.000258
0.000236
0.000295
0.000187
0.000056
0.000218
0.000238
0.000225
0.000243
0.000252
0.000283
0.000240
0.000269
0.000263
0.000306
0.001748
0.000352
0.000371
0.000335
0.000462
0.000358
0.000404
0.001385
0.000246
0.000338
0.002131
0.000537
0.000209
0.000242
0.000263
0.000264
0.000505
0.000227
0.000253
0.000297
0.000181
0.000056
0.000226
0.000341
0.000349
0.000296
0.000205
0.000240
0.000261
0.000248
0.000269
0.000292
0.000225
0.000250
0.000265
0.000320
0.000348
0.001446
0.000317
0.000207
0.000283
0.002051
0.000230
0.000278
0.000254
0.000261
0.000247
0.000276
0.000269
0.000264
0.000249
0.000265
0.000207
0.000057
0.000407
0.000193
0.002062
0.000257
0.000273
0.000206
0.000243
0.000358
0.000402
0.000411
0.001306
0.000435
0.000285
0.002082
0.000209
0.000248
0.000267
0.000277
0.000254
0.000249
0.000278
0.000290
0.000260
0.000446
0.000430
0.000335
0.000314
0.002229
0.000581
0.000367
0.000415
0.000057
0.000193
0.000236
0.000245
0.001970
0.000228
0.000228
0.000244
0.000240
0.000244
0.000256
0.000245
0.000259
0.000258
0.000331
0.000492
0.001367
0.000237
0.000276
0.000246
0.000259
0.000234
0.000253
0.000259
0.000329
0.000293
0.000539
0.000358
0.000242
0.001596
0.000281
0.000162
0.000059
0.000207
0.000219
0.000248
0.000228
0.000251
0.000252
0.000252
0.000252
0.000252
0.000453
0.000396
0.001309
0.000235
0.000219
0.000251
0.000262
0.000258
0.000254
0.000498
0.000320
0.000374
0.000439
0.000229
0.001570
0.000235
0.000257
0.000288
0.000276
0.000265
0.000288
0.000175
0.000057
0.000219
0.000223
0.000270
0.000267
0.000248
0.000241
0.000237
0.000242
0.000272
0.000228
0.000262
0.000246
0.000257
0.001480
0.000359
0.000212
0.000254
0.000265
0.000308
0.000337
0.000373
0.000222
0.000240
0.000264
0.000260
0.000264
0.000259
0.001407
0.000281
0.000237
0.000175
0.000056
0.000215
0.000230
0.000265
0.000254
0.000258
0.000236
0.000247
0.000261
0.000219
0.000266
0.000244
0.000261
0.000237
0.000304
0.000399
0.000330
0.000240
0.000261
0.001632
0.000235
0.000245
0.000261
0.000261
0.000289
0.000373
0.000391
0.000452
0.000254
0.000261
0.001604
0.000163
0.000058
0.000366
0.000305
0.000367
0.000297
0.000231
0.000217
0.000245
0.000274
0.000254
0.000234
0.000244
0.000240
0.001498
0.000259
0.000310
0.000222
0.000248
0.000260
0.000266
0.000265
0.000254
0.000237
0.000259
0.000273
0.000273
0.000428
0.000455
0.000348
0.000209
0.000253
0.000189
0.000058
0.000212
0.000342
0.000441
0.000242
0.000362
0.000289
0.000246
0.000249
0.000248
0.000258
0.000241
0.000224
0.000259
0.000238
0.001323
0.000244
0.000233
0.000248
0.000270
0.000266
0.000241
0.000266
0.000252
0.000262
0.000252
0.000259
0.000292
0.000848
0.000306
0.000233
0.000185
0.000058
0.000198
0.001561
0.000257
0.000420
0.000434
0.000303
0.000226
0.000247
0.000264
0.000261
0.000232
0.000262
0.000270
0.000270
0.000265
0.001524
0.000254
0.000284
0.000264
0.000258
0.000257
0.000252
0.000267
0.000264
0.000255
0.000337
0.000362
0.000416
0.000304
0.000242
0.000199
0.000057
0.000205
0.000248
0.000239
0.001606
0.000485
0.000314
0.000206
0.000236
0.000265
0.000257
0.000277
0.000260
0.000240
0.000265
0.000235
0.000271
0.000362
0.001360
0.000245
0.000253
0.001480
0.000394
0.000563
0.000325
0.000326
0.000258
0.000261
0.000464
0.000235
0.000265
0.000182
0.000056
0.000237
0.000191
0.000234
0.000248
0.000250
0.000253
0.000239
0.000258
0.000255
0.000237
0.000254
0.000258
0.000339
0.000513
0.001625
0.001516
0.000525
0.000377
0.000305
0.000225
0.000228
0.000262
0.000247
0.000268
0.000253
0.000271
0.000253
0.000265
0.001529
0.000331
0.000155
0.000056
0.000209
0.000355
0.000355
0.000315
0.000249
0.000211
0.000242
0.000350
0.000526
0.000256
0.002184
0.000320
0.000827
0.000680
0.000172
0.000311
0.000337
0.000372
0.000305
0.000268
0.000393
0.000236
0.001804
0.000278
0.000223
0.000261
0.000254
0.000254
0.000276
0.000263
0.000200
0.000059
0.000207
0.000246
0.000259
0.000250
0.000241
0.001662
0.000879
0.000989
0.000211
0.000241
0.000253
0.000255
0.000265
0.000258
0.000256
0.000247
0.000253
0.000266
0.000265
0.000283
0.001429
0.000317
0.000254
0.000224
0.000239
0.000273
0.000249
0.000294
0.000253
0.000285
0.001886
0.000057
0.000193
0.000234
0.001565
0.000871
0.000355
0.000347
0.000246
0.000225
0.000265
0.000243
0.000244
0.000249
0.000256
0.002000
0.000451
0.000222
0.000244
0.000255
0.000264
0.000256
0.000195
