0.000111
0.018146
0.003589
0.000298
0.000244
0.000299
0.000322
0.000248
0.000316
0.000273
0.000256
0.000337
0.000578
0.000438
0.000418
0.000288
0.000297
0.000330
0.000358
0.000418
0.000317
0.001916
0.000693
0.000277
0.000284
0.000259
0.000322
0.000315
0.000424
0.000468
0.000517
0.000196
0.000058
0.000226
0.000250
0.000270
0.000305
0.000235
0.000256
0.000280
0.000280
0.000271
0.000257
0.000461
0.000479
0.000233
0.000268
0.000368
0.000352
0.000367
0.000251
0.000243
0.001695
0.000320
0.000263
0.000449
0.000274
0.000250
0.000274
0.000292
0.000295
0.000276
0.000331
0.000507
0.000058
0.000251
0.000233
0.000262
0.000260
0.000254
0.000243
0.000271
0.000250
0.000287
0.001669
0.000234
0.000235
0.000257
0.000278
0.000271
0.000253
0.000265
0.000255
0.000344
0.001800
0.000242
0.000281
0.000444
0.000452
0.000378
0.000242
0.000240
0.000460
0.000477
0.000802
0.000205
0.000057
0.000222
0.000245
0.000251
0.000244
0.000284
0.000280
0.000413
0.000443
0.000375
0.000281
0.000228
0.000247
0.000243
0.000255
0.000254
0.000253
0.000251
0.000268
0.000291
0.000376
0.001631
0.000282
0.000230
0.000421
0.000687
0.000338
0.000628
0.000541
0.000349
0.000243
0.000178
0.000057
0.000221
0.000248
0.000298
0.000215
0.000304
0.000202
0.000291
0.000379
0.001525
0.000218
0.000244
0.000250
0.000254
0.000257
0.000261
0.000304
0.000324
0.001884
0.000308
0.000239
0.000233
0.000422
0.000240
0.000245
0.000258
0.000261
0.000265
0.000272
0.000263
0.000267
0.000197
0.000056
0.000212
0.000243
0.000243
0.000263
0.000237
0.000244
0.000245
0.000252
0.000239
0.000253
0.001625
0.000260
0.000277
0.000206
0.000250
0.000253
0.000245
0.000269
0.000234
0.000257
0.000292
0.001678
0.000251
0.000249
0.000430
0.000250
0.000263
0.000263
0.000265
0.000272
0.000199
0.000056
0.000202
0.000245
0.000238
0.000249
0.000246
0.000245
0.000257
0.000234
0.000268
0.000274
0.000233
0.000257
0.000257
0.000275
0.001630
0.000279
0.000295
0.000234
0.000233
0.000274
0.000289
0.000214
0.000250
0.000267
0.001793
0.000462
0.000382
0.000259
0.000232
0.000281
0.000198
0.000057
0.000203
0.000239
0.000241
0.000275
0.000257
0.000262
0.000241
0.000423
0.000383
0.000458
0.000214
0.000248
0.000250
0.000248
0.001559
0.000541
0.000369
0.000377
0.000286
0.000275
0.000231
0.000280
0.000275
0.001773
0.000491
0.000440
0.000245
0.000270
0.000235
0.000261
0.000184
0.000056
0.000212
0.000236
0.000251
0.000289
0.000316
0.000490
0.000404
0.000200
0.000220
0.000244
0.000256
0.000248
0.000250
0.001735
0.000454
0.000301
0.000224
0.000254
0.000271
0.000289
0.000241
0.000264
0.000271
0.001925
0.000269
0.000394
0.000248
0.000255
0.000260
0.000400
0.000324
0.000056
0.000214
0.000402
0.000341
0.000272
0.000257
0.000247
0.000246
0.000259
0.000239
0.000233
0.000241
0.000249
0.001635
0.000321
0.000257
0.000230
0.000259
0.000250
0.000248
0.000306
0.000279
0.000316
0.000229
0.001820
0.000260
0.000485
0.000239
0.000270
0.000246
0.000270
0.000267
0.000057
0.000373
0.000567
0.000605
0.000213
0.000232
0.000279
0.000227
0.000225
0.000259
0.000249
0.000259
0.001697
0.000246
0.000447
0.000368
0.000214
0.000236
0.000237
0.000247
0.000267
0.000247
0.001863
0.000225
0.000460
0.001886
0.000511
0.000357
0.000247
0.000253
0.000268
0.000184
0.000057
0.000204
0.000239
0.000244
0.000241
0.000258
0.001620
0.000244
0.000240
0.000256
0.000250
0.000243
0.000254
0.000261
0.000234
0.000309
0.000393
0.000615
0.000249
0.000238
0.000268
0.000275
0.000237
0.000244
0.000432
0.000464
0.000242
0.000337
0.000693
0.000307
0.000265
0.000210
0.000056
0.000221
0.000244
0.000241
0.000256
0.000237
0.000240
0.000253
0.000336
0.000493
0.001704
0.000227
0.000233
0.000256
0.000233
0.000254
0.000291
0.000378
0.000542
0.000315
0.000239
0.000265
0.000305
0.000285
0.000243
0.000280
0.000425
0.000353
0.000543
0.000556
0.000431
0.000161
0.000057
0.000210
0.000245
0.000243
0.000231
0.000240
0.000238
0.000247
0.000257
0.000228
0.000293
0.000340
0.000447
0.001377
0.000252
0.000237
0.000246
0.000252
0.000258
0.000242
0.000259
0.000271
0.000628
0.000275
0.000233
0.000267
0.000249
0.000258
0.000274
0.000264
0.000265
0.000370
0.000056
0.000231
0.000234
0.000212
0.000325
0.000489
0.000432
0.000237
0.000248
0.000236
0.000256
0.000258
0.000226
0.000324
0.000222
0.000256
0.000500
0.000384
0.001649
0.000292
0.000208
0.000262
0.000265
0.000255
0.000262
0.000245
0.000409
0.000556
0.000285
0.000415
0.000251
0.000195
0.000057
0.000235
0.000432
0.000236
0.000219
0.000286
0.000222
0.000258
0.000602
0.000332
0.000316
0.000231
0.000272
0.000263
0.000240
0.000523
0.000336
0.000244
0.000246
0.000453
0.001570
0.000257
0.000262
0.000512
0.000251
0.000291
0.000267
0.000256
0.000388
0.000512
0.000369
0.000274
0.000056
0.000213
0.000237
0.000237
0.000238
0.000418
0.000310
0.000287
0.000229
0.000593
0.000305
0.000334
0.000275
0.000232
0.000241
0.000259
0.000269
0.000250
0.000255
0.000230
0.000376
0.000266
0.000459
0.001739
0.000237
0.000243
0.000254
0.000283
0.000348
0.000413
0.000690
0.000487
0.000056
0.000228
0.000336
0.000307
0.000461
0.000330
0.000218
0.000264
0.000292
0.000508
0.000451
0.000212
0.000249
0.000229
0.000273
0.000255
0.000241
0.000256
0.000269
0.000267
0.000259
0.000280
0.000428
0.000738
0.001225
0.000334
0.000431
0.000425
0.000231
0.000487
0.000443
0.000269
0.000056
0.000226
0.000375
0.000292
0.000201
0.000221
0.000249
0.000408
0.000235
0.000245
0.000363
0.000480
0.000372
0.000271
0.000248
0.000265
0.000244
0.000354
0.000407
0.000337
0.000244
0.000248
0.000403
0.000640
0.001649
0.000232
0.000437
0.000311
0.000215
0.000286
0.000445
0.000238
0.000057
0.000205
0.000221
0.000243
0.000259
0.000249
0.000234
0.000251
0.000333
0.000443
0.000269
0.000487
0.000331
0.000298
0.000580
0.000246
0.000237
0.000281
0.000259
0.000223
0.000358
0.000221
0.000247
0.000271
0.000369
0.000562
0.001623
0.000275
0.000237
0.000243
0.000275
0.000189
0.000056
0.000295
0.000563
0.000266
0.000225
0.000236
0.000239
0.000258
0.000240
0.000271
0.000233
0.000227
0.000262
0.000393
0.000579
0.000378
0.000252
0.000243
0.000261
0.000325
0.000392
0.000379
0.000336
0.000361
0.000396
0.000264
0.000248
0.000259
0.000277
0.001782
0.000252
0.000207
0.000057
0.000205
0.000220
0.000262
0.000291
0.000332
0.000540
0.000322
0.000219
0.000279
0.000236
0.000250
0.000250
0.000520
0.000446
0.000519
0.000252
0.000260
0.000262
0.000415
0.000469
0.000368
0.000396
0.000578
0.000359
0.000248
0.000234
0.000266
0.000247
0.000267
0.001711
0.000306
0.000057
0.000208
0.000323
0.000229
0.000219
0.000254
0.000250
0.000232
0.000503
0.000373
0.000310
0.000290
0.000298
0.000306
0.000750
0.000258
0.000234
0.000255
0.000255
0.000247
0.000264
0.000278
0.000259
0.000242
0.000270
0.000307
0.000370
0.000416
0.000348
0.000235
0.000246
0.000198
0.000057
0.000445
0.000322
0.000461
0.000235
0.000214
0.000238
0.000245
0.000257
0.000241
0.000217
0.000253
0.000281
0.000301
0.000363
0.000479
0.000551
0.000271
0.000339
0.000354
0.000340
0.000298
0.000245
0.000246
0.000263
0.001748
0.000254
0.001722
0.000970
0.000450
0.000240
0.000175
0.000056
0.000209
0.000263
0.000210
0.000245
0.000270
0.000231
0.000258
0.000252
0.000243
0.000328
0.000412
0.000381
0.000321
0.000417
0.000241
0.000237
0.000243
0.000293
0.000228
0.000244
0.000255
0.000260
0.001823
0.000228
0.000253
0.000274
0.000273
0.001726
0.000417
0.000512
0.000310
0.000056
0.000217
0.000213
0.000223
0.000247
0.000267
0.000234
0.000237
0.000258
0.000255
0.000350
0.000641
0.000277
0.000367
0.000221
0.000248
0.000256
0.000322
0.000437
0.000367
0.000264
0.001778
0.000249
0.000268
0.000237
0.000258
0.000267
0.000241
0.000255
0.000322
0.000346
0.000358
0.000056
0.000273
0.000218
0.000219
0.000271
0.000238
0.000241
0.000256
0.000257
0.000238
0.000255
0.000244
0.000261
0.000403
0.000434
0.000294
0.000276
0.000460
0.000231
0.000270
0.000244
0.000252
0.000263
0.000275
0.000257
0.000278
0.001789
0.000235
0.000254
0.000263
0.000245
0.000203
0.000056
0.000337
0.000284
0.000229
0.000233
0.000243
0.000250
0.000224
0.000259
0.000245
0.000225
0.000231
0.000257
0.000262
0.000410
0.000345
0.000403
0.000278
0.000218
0.000259
0.000246
0.000264
0.000261
0.000251
0.000266
0.000257
0.000267
0.000336
0.001601
0.000265
0.000236
0.000195
0.000057
0.000197
0.000231
0.000247
0.000264
0.000365
0.000355
0.000481
0.000245
0.000200
0.000250
0.000269
0.000225
0.000267
0.000237
0.000258
0.000254
0.000249
0.000261
0.000252
0.000261
0.000267
0.000270
0.000242
0.000236
0.000247
0.000277
0.000281
0.000258
0.000256
0.000265
0.000192
0.000056
0.000238
0.000219
0.000247
0.000276
0.000237
0.000232
0.000240
0.000263
0.000280
0.000250
0.000235
0.000237
0.000255
0.000250
0.000297
0.000235
0.000254
0.000252
0.000296
0.000254
0.000264
0.000326
0.000277
0.000216
0.000307
0.000244
0.000263
0.000262
0.000342
0.000298
0.000728
0.000056
0.000239
0.000278
0.000223
0.000229
0.000232
0.000255
0.000240
0.000247
0.000264
0.000231
0.000269
0.000287
0.000509
0.000543
0.001458
0.000228
0.000487
0.000226
0.000394
0.000335
0.000509
0.000304
0.000226
0.000282
0.000250
0.000256
0.000283
0.000253
0.000325
0.000282
0.000150
0.000056
0.000375
0.000417
0.000315
0.000327
0.000223
0.000279
0.000223
0.000240
0.000238
0.000238
0.000255
0.000258
0.000235
0.000285
0.000349
0.000553
0.000315
0.001810
0.000233
0.000249
0.000281
0.000485
0.000467
0.000274
0.000310
0.000325
0.000299
0.000240
0.000224
0.000249
0.000203
0.000056
0.000220
0.000243
0.000220
0.000306
0.000370
0.000468
0.000303
0.000246
0.000254
0.000214
0.000252
0.000268
0.000263
0.000264
0.000244
0.000272
0.000293
0.000540
0.000407
0.000312
0.000240
0.001744
0.000339
0.000522
0.000594
0.000328
0.000331
0.000232
0.000250
0.000272
0.000449
0.000057
0.000203
0.000273
0.000213
0.000379
0.000280
0.000575
0.000351
0.000201
0.000219
0.000300
0.000237
0.000261
0.000255
0.000293
0.000302
0.000244
0.000263
0.000352
0.000529
0.000283
0.000494
0.001849
0.000250
0.000527
0.000398
0.000377
0.000222
0.000259
0.000291
0.000262
0.000204
0.000056
0.000217
0.000331
0.000362
0.000372
0.000355
0.000289
0.000371
0.000220
0.000238
0.000256
0.000278
0.000229
0.000248
0.000270
0.000230
0.000256
0.000341
0.000368
0.000568
0.000308
0.000278
0.000246
0.000253
0.001715
0.000455
0.000479
0.000686
0.000232
0.000259
0.000301
0.000171
0.000056
0.000201
0.000240
0.000351
0.000228
0.000300
0.000376
0.000413
0.000269
0.000245
0.000529
0.000234
0.000243
0.000259
0.000278
0.000271
0.000260
0.000226
0.000387
0.000566
0.000300
0.000262
0.000228
0.000257
0.000254
0.000264
0.000265
0.000237
0.000254
0.000268
0.000294
0.000232
0.000056
0.000415
0.000245
0.000200
0.000261
0.000250
0.000252
0.000241
0.000308
0.000226
0.000248
0.000277
0.000335
0.000423
0.000478
0.000265
0.000275
0.000234
0.000226
0.000255
0.000269
0.000278
0.000283
0.000219
0.000264
0.000279
0.000332
0.000375
0.000428
0.000314
0.000242
0.000179
0.000058
0.000222
0.000214
0.000281
0.000244
0.000243
0.000264
0.000267
0.000231
0.000482
0.000224
0.000255
0.000261
0.000241
0.000270
0.000264
0.000297
0.000237
0.000353
0.000230
0.000231
0.000255
0.000267
0.000251
0.000270
0.000277
0.000266
0.000266
0.000245
0.000272
0.000485
0.000166
0.000055
0.000215
0.000232
0.000256
0.000285
0.000219
0.000228
0.000372
0.000399
0.000233
0.000241
0.000251
0.000257
0.000233
0.000299
0.000394
0.001806
0.000219
0.000269
0.000288
0.000333
0.000407
0.000367
0.000400
0.000389
0.000353
0.000413
0.000255
0.000252
0.000266
0.000273
0.001403
0.000058
0.000393
0.000349
0.000231
0.000214
0.000238
0.000247
0.000230
0.000258
0.000245
0.000270
0.000248
0.000254
0.000255
0.000340
0.000451
0.001679
0.000234
0.000236
0.000240
0.000267
0.000229
0.000270
0.000365
0.000414
0.000285
0.000339
0.000245
0.000247
0.000266
0.000269
0.000182
0.000057
0.001189
0.000576
0.000280
0.000271
0.000246
0.000218
0.000232
0.000243
0.000483
0.000235
0.000222
0.000268
0.000350
0.000521
0.000383
0.000330
0.000265
0.000239
0.000320
0.000346
0.000277
0.000257
0.000272
0.000250
0.000260
0.000532
0.000663
0.000209
0.000253
0.000259
0.000180
0.000056
0.000216
0.000213
0.000241
0.000267
0.001532
0.000220
0.000218
0.000252
0.000263
0.000229
0.000250
0.000253
0.000248
0.000260
0.000287
0.000250
0.000450
0.000653
0.000271
0.001750
0.000247
0.000292
0.000274
0.000444
0.000661
0.000299
0.000245
0.000244
0.000256
0.000281
0.000194
0.000057
0.000211
0.000255
0.000231
0.000297
0.001277
0.000241
0.000281
0.000225
0.000245
0.000233
0.000239
0.000257
0.000277
0.000267
0.000228
0.000287
0.000540
0.000418
0.000277
0.000236
0.000264
0.000273
0.000244
0.000239
0.000280
0.000271
0.000239
0.000281
0.000267
0.000341
0.000619
0.000056
0.000226
0.000246
0.000235
0.000261
0.000265
0.000239
0.000244
0.000255
0.000285
0.000263
0.001417
0.000226
0.000229
0.000250
0.000256
0.000236
0.000291
0.000240
0.000285
0.000237
0.000292
0.000463
0.000456
0.000398
0.000232
0.000272
0.001762
0.000264
0.000266
0.000301
0.000480
0.000056
0.000188
0.000407
0.000450
0.000498
0.000519
0.000575
0.001465
0.000412
0.000520
0.000655
0.000551
0.000772
0.000441
0.000605
0.000582
0.001882
0.000455
0.000388
0.000398
0.000321
0.000238
0.000260
0.000284
0.000269
0.000260
0.000289
0.000287
0.000292
0.000257
0.000294
0.001361
0.000058
0.000206
0.000233
0.000236
0.000247
0.000254
0.000262
0.000229
0.000244
0.000242
0.000258
0.000239
0.000240
0.000257
0.000257
0.000267
0.000263
0.001811
0.000258
0.000288
0.000228
0.000254
0.000264
0.000268
0.000336
0.000317
0.000490
0.000305
0.000252
0.000252
0.000274
0.000209
0.000057
0.000222
0.001339
0.000330
0.000278
0.000246
0.000236
0.000245
0.000231
0.000233
0.000237
0.000222
0.000245
0.000262
0.000494
0.000364
0.000306
0.000249
0.001814
0.000351
0.000258
0.000222
0.000264
0.000258
0.000268
0.000271
0.000278
0.000275
0.000252
0.000269
0.000342
0.000181
0.000056
0.000215
0.000242
0.000252
0.001453
0.000218
0.000235
0.000245
0.000247
0.000242
0.000266
0.000263
0.000233
0.000245
0.000284
0.000236
0.000252
0.000263
0.000263
0.000269
0.000256
0.000257
0.001777
0.000275
0.001744
0.000278
0.000253
0.000258
0.000271
0.000273
0.000271
0.000192
0.000056
0.000204
0.000268
0.001320
0.000229
0.000258
0.000238
0.000260
0.000257
0.000243
0.000249
0.000258
0.000238
0.000258
0.000271
0.000257
0.000261
0.000258
0.000290
0.000285
0.000244
0.001873
0.000249
0.001807
0.000259
0.000252
0.000274
0.000241
0.000239
0.000241
0.000285
0.000197
0.000057
0.001446
0.000225
0.000247
0.000228
0.000234
0.000237
0.000378
0.000286
0.000241
0.000246
0.000249
0.000262
0.000273
0.000427
0.000296
0.000289
0.000247
0.000271
0.000244
0.000260
0.000276
0.000328
0.000238
0.000253
0.000261
0.000283
0.000276
0.000361
0.000604
0.000392
0.000181
0.000057
0.000206
0.000250
0.000266
0.000301
0.000383
0.000260
0.001678
0.000298
0.000283
0.000273
0.000253
0.000257
0.000275
0.000256
0.000305
0.000310
0.000385
0.000600
0.000302
0.000271
0.000284
0.000285
0.000263
0.000270
0.000336
0.000247
0.000274
0.000257
0.000243
0.000332
0.000410
0.000058
0.000307
0.000425
0.000262
0.000266
0.000254
0.000217
0.000225
0.000250
0.000260
0.000270
0.001490
0.000239
0.000222
0.000252
0.000239
0.000297
0.000280
0.000234
0.000251
0.000270
0.000267
0.000326
0.000585
0.000339
0.000239
0.000292
0.000265
0.000258
0.000234
0.000356
0.000130
0.000057
0.000222
0.000217
0.000299
0.000451
0.000357
0.000283
0.000223
0.000243
0.000252
0.000250
0.000239
0.000249
0.000256
0.000265
0.000243
0.000239
0.000460
0.001150
0.000246
0.000240
0.000278
0.000248
0.000356
0.000418
0.000250
0.000325
0.000635
0.000299
0.000364
0.000247
0.000182
0.000056
0.000233
0.000251
0.000261
0.000260
0.000258
0.000236
0.000408
0.000414
0.000372
0.000280
0.000356
0.000392
0.000395
0.000364
0.000252
0.000229
0.000255
0.000292
0.000494
0.000328
0.001275
0.000228
0.000269
0.000265
0.000235
0.000267
0.000233
0.000302
0.000443
0.000426
0.000247
0.000057
0.000210
0.000230
0.000257
0.000242
0.000237
0.000250
0.000233
0.000271
0.000307
0.000402
0.000336
0.000429
0.000224
0.000238
0.000241
0.000264
0.000247
0.000258
0.000269
0.000271
0.000433
0.000265
0.000321
0.000455
0.000324
0.000234
0.000268
0.000264
0.000259
0.000340
0.000158
0.000056
0.000318
0.000312
0.000293
0.000387
0.000471
0.000376
0.000213
0.000242
0.000248
0.000295
0.000231
0.000260
0.000237
0.000250
0.000247
0.000227
0.000265
0.000414
0.000417
0.000369
0.000248
0.000250
0.000252
0.000243
0.000271
0.000282
0.000266
0.000273
0.000265
0.000272
0.000249
0.000056
0.000290
0.000349
0.000237
0.000268
0.000222
0.000248
0.000241
0.000257
0.000262
0.000258
0.000254
0.000235
0.000275
0.000513
0.000435
0.000289
0.000252
0.000228
0.000253
0.000279
0.000252
0.000256
0.000255
0.000272
0.000270
0.000432
0.000299
0.000601
0.000415
0.000236
0.000175
0.000057
0.000389
0.000221
0.000214
0.000248
0.000244
0.000249
0.000237
0.000255
0.000257
0.000254
0.000222
0.000250
0.000278
0.000220
0.000237
0.000264
0.000254
0.000266
0.000297
0.000240
0.000260
0.000256
0.000266
0.000266
0.000262
0.000237
0.000265
0.000296
0.000241
0.000276
0.000202
0.000057
0.000203
0.000234
0.000245
0.000249
0.000232
0.000256
0.000264
0.000237
0.000259
0.000279
0.000231
0.000234
0.000261
0.000384
0.000265
0.000294
0.000242
0.000269
0.000250
0.000284
0.000265
0.000252
0.000234
0.000254
0.000274
0.000269
0.000264
0.000238
0.000270
0.000264
0.000210
0.000056
0.000216
0.000362
0.000366
0.000281
0.000298
0.000251
0.000263
0.000259
0.000221
0.000257
0.000273
0.000230
0.000249
0.000233
0.000263
0.000280
0.000241
0.000268
0.000248
0.000261
0.000279
0.000259
0.000279
0.000254
0.000311
0.000224
0.000247
0.000268
0.000276
0.000255
0.000201
0.000056
0.000218
0.000234
0.000262
0.000262
0.000252
0.000441
0.000223
0.000285
0.000235
0.000449
0.000493
0.000285
0.000228
0.000244
0.000277
0.000259
0.000239
0.000271
0.000256
0.000269
0.000269
0.000269
0.000244
0.000302
0.000534
0.000440
0.000307
0.000297
0.000256
0.000269
0.000193
0.000058
0.000208
0.000217
0.000251
0.000252
0.000472
0.000514
0.000300
0.000380
0.000212
0.000248
0.000246
0.000257
0.000248
0.000251
0.000255
0.000276
0.000271
0.000238
0.000703
0.000310
0.000319
0.000234
0.000255
0.000288
0.000278
0.000254
0.000263
0.000286
0.000232
0.000335
0.000323
0.000057
0.000294
0.000234
0.000232
0.000241
0.000255
0.000269
0.000214
0.000248
0.000243
0.000258
0.000244
0.000271
0.000239
0.000391
0.000583
0.000408
0.000219
0.000243
0.000259
0.000241
0.000270
0.000290
0.000466
0.000221
0.000269
0.000617
0.000398
0.000469
0.000264
0.000242
0.000198
0.000056
0.000213
0.000234
0.000244
0.000244
0.000255
0.000265
0.000326
0.000719
0.000294
0.000402
0.000216
0.000264
0.000277
0.000276
0.000249
0.000249
0.000238
0.000254
0.000253
0.000344
0.000390
0.000666
0.000366
0.000232
0.000364
0.000384
0.000485
0.000243
0.000262
0.000539
0.000243
0.000056
0.000177
0.000229
0.000434
0.000221
0.000238
0.000251
0.000264
0.000257
0.000229
0.000243
0.000278
0.000415
0.000382
0.000300
0.000236
0.000236
0.000269
0.000247
0.000266
0.000276
0.000292
0.000233
0.000249
0.000273
0.000382
0.000500
0.000404
0.000247
0.000250
0.000266
0.000204
0.000056
0.000212
0.000251
0.000231
0.000242
0.000249
0.000291
0.000351
0.000358
0.000454
0.000274
0.000374
0.000225
0.000248
0.000265
0.000249
0.000245
0.000258
0.000263
0.000302
0.000410
0.000464
0.000326
0.000476
0.000272
0.000381
0.000418
0.000402
0.000230
0.000255
0.000298
0.000527
0.000057
0.000274
0.000270
0.000225
0.000254
0.000287
0.000231
0.000267
0.000230
0.000270
0.000245
0.000230
0.000349
0.000496
0.000342
0.000376
0.000223
0.000259
0.000265
0.000263
0.000239
0.000250
0.000256
0.000266
0.000272
0.000279
0.000367
0.000517
0.000415
0.000238
0.000280
0.000194
0.000057
0.000222
0.000222
0.000277
0.000242
0.000249
0.000335
0.000802
0.000178
0.000519
0.000527
0.000252
0.000230
0.000227
0.000263
0.000251
0.000265
0.000273
0.000276
0.000474
0.000437
0.001492
0.000311
0.000275
0.000260
0.000288
0.000269
0.000489
0.000326
0.000327
0.000323
0.000178
0.000057
0.000209
0.000230
0.000247
0.000258
0.000235
0.000248
0.000303
0.000231
0.000271
0.000311
0.000320
0.000379
0.000268
0.000333
0.000396
0.000349
0.000247
0.000245
0.000267
0.000251
0.000254
0.000244
0.000313
0.000239
0.000421
0.000430
0.000406
0.000231
0.000220
0.000269
0.000193
0.000056
0.000222
0.000246
0.000257
0.000252
0.000249
0.000226
0.000472
0.000216
0.000238
0.000248
0.000248
0.000254
0.000257
0.000258
0.000249
0.000265
0.000262
0.000292
0.000262
0.000239
0.000284
0.000287
0.000273
0.000243
0.000262
0.000278
0.000272
0.000262
0.000263
0.000275
0.000175
0.000055
0.000226
0.000306
0.000285
0.000411
0.000344
0.000243
0.000236
0.000247
0.000262
0.000245
0.000248
0.000257
0.000260
0.000263
0.000240
0.000244
0.000268
0.000245
0.000346
0.000276
0.000445
0.000389
0.000228
0.000268
0.000261
0.000256
0.000265
0.000258
0.000273
0.000274
0.000206
0.000056
0.000343
0.000451
0.000368
0.000211
0.000251
0.000267
0.000399
0.000227
0.000228
0.000279
0.000231
0.000292
0.000352
0.000540
0.001763
0.000247
0.000248
0.000253
0.000282
0.000236
0.000283
0.000498
0.000698
0.000221
0.000230
0.000261
0.000273
0.000429
0.000274
0.000280
0.000168
0.000056
0.000221
0.000353
0.000341
0.000313
0.000491
0.000213
0.000247
0.000238
0.000251
0.000246
0.000261
0.000247
0.000262
0.000380
0.000442
0.000371
0.000241
0.000236
0.000258
0.000264
0.000260
0.000321
0.000235
0.000277
0.000274
0.000443
0.000558
0.000372
0.000455
0.000226
0.000202
0.000057
0.000224
0.000231
0.000256
0.000234
0.000245
0.000251
0.000269
0.000294
0.000333
0.000410
0.000458
0.000268
0.000244
0.000241
0.000267
0.000333
0.000252
0.000232
0.000274
0.000277
0.000233
0.000399
0.000376
0.000397
0.000264
0.000273
0.000248
0.000440
0.000458
0.000288
0.000156
0.000056
0.000201
0.000240
0.000390
0.000413
0.000329
0.000229
0.000218
0.000257
0.000261
0.000267
0.000247
0.000255
0.000232
0.000254
0.000255
0.000286
0.000460
0.000305
0.000320
0.000323
0.000487
0.000230
0.000283
0.000274
0.000297
0.000291
0.000245
0.000278
0.000487
0.000444
0.000236
0.000056
0.000209
0.000222
0.000251
0.000249
0.000239
0.000480
0.000218
0.000253
0.000284
0.000276
0.000519
0.000592
0.000217
0.000239
0.000242
0.000251
0.000253
0.000274
0.000235
0.000252
0.000289
0.000239
0.000364
0.000450
0.000327
0.000404
0.000302
0.000299
0.000322
0.000243
0.000190
0.000057
0.000229
0.000234
0.000276
0.000461
0.000350
0.000266
0.000256
0.000237
0.000261
0.000241
0.000247
0.000260
0.000265
0.000244
0.000246
0.000257
0.000253
0.000239
0.000277
0.000395
0.000546
0.000335
0.000247
0.000240
0.000295
0.000259
0.000260
0.000258
0.000264
0.000265
0.000198
0.000056
0.000249
0.000397
0.000461
0.000247
0.000234
0.000238
0.000319
0.000456
0.000288
0.000211
0.000236
0.000266
0.000264
0.000440
0.000461
0.000271
0.000235
0.000237
0.000251
0.000266
0.000269
0.000260
0.000266
0.000275
0.000262
0.000283
0.000389
0.000475
0.000278
0.000239
0.000188
0.000057
0.000231
0.000242
0.000249
0.000254
0.000250
0.000267
0.000226
0.000273
0.000245
0.000239
0.000263
0.000239
0.000292
0.001440
0.000228
0.000239
0.000267
0.000245
0.000273
0.000275
0.000259
0.000241
0.000278
0.000255
0.000265
0.000268
0.000277
0.000269
0.000268
0.000258
0.000192
0.000056
0.000199
0.000226
0.000249
0.000269
0.000220
0.000252
0.000249
0.000254
0.000230
0.000251
0.000265
0.000250
0.000266
0.000239
0.000253
0.000259
0.000256
0.000252
0.000275
0.000253
0.000250
0.000267
0.000243
0.000253
0.001297
0.000284
0.000568
0.000427
0.000331
0.000248
0.000190
0.000057
0.000203
0.000230
0.000244
0.000251
0.000410
0.000261
0.000219
0.000242
0.000255
0.000376
0.000500
0.000272
0.000240
0.000233
0.000260
0.000254
0.000257
0.000282
0.000232
0.000258
0.000257
0.000258
0.000254
0.000420
0.000526
0.000446
0.000231
0.000254
0.001388
0.000230
0.000180
0.000056
0.000333
0.000385
0.000319
0.000278
0.000223
0.000233
0.000224
0.000244
0.000260
0.000260
0.000244
0.000263
0.000296
0.000339
0.000456
0.000408
0.000323
0.000218
0.000250
0.000252
0.000271
0.000286
0.000270
0.000245
0.000266
0.000267
0.000265
0.000599
0.000405
0.000358
0.000145
0.000056
0.000206
0.000222
0.001279
0.000402
0.000308
0.000453
0.000392
0.000471
0.000273
0.000341
0.000235
0.000219
0.000261
0.000257
0.000241
0.000265
0.000347
0.000483
0.000431
0.000366
0.000246
0.000244
0.000259
0.000497
0.000234
0.000268
0.000255
0.000277
0.000309
0.000568
0.000274
0.000058
0.000377
0.000311
0.000235
0.001423
0.000292
0.000528
0.000311
0.000249
0.000247
0.000244
0.000227
0.000243
0.000244
0.000273
0.000247
0.000261
0.000242
0.000259
0.000403
0.000380
0.000468
0.000245
0.000254
0.000264
0.000255
0.000277
0.000265
0.000243
0.000258
0.000285
0.000207
0.000057
0.000474
0.000245
0.000231
0.000223
0.000253
0.000244
0.000261
0.000236
0.000235
0.000223
0.001422
0.000477
0.000259
0.000233
0.000239
0.000258
0.000274
0.000258
0.000240
0.000304
0.000241
0.000249
0.000282
0.000459
0.000475
0.000342
0.000225
0.000271
0.000269
0.000279
0.000181
0.000057
0.000195
0.000405
0.000235
0.000228
0.000384
0.000427
0.000481
0.000182
0.000454
0.000215
0.000234
0.000253
0.000261
0.000263
0.000256
0.001531
0.000251
0.000298
0.000226
0.000269
0.000296
0.000230
0.000259
0.000248
0.000267
0.000267
0.000502
0.000396
0.000286
0.000269
0.000165
0.000056
0.000220
0.000229
0.000256
0.000239
0.000228
0.000257
0.000242
0.000254
0.000340
0.000294
0.000450
0.000289
0.000240
0.000257
0.000244
0.000273
0.000272
0.000263
0.000269
0.000227
0.000268
0.000395
0.001168
0.000250
0.000272
0.000239
0.000253
0.000273
0.000248
0.000271
0.000186
0.000056
0.000218
0.000371
0.000361
0.000319
0.000280
0.000222
0.000255
0.000286
0.000241
0.000260
0.000241
0.000265
0.000238
0.000273
0.000253
0.000249
0.000260
0.000276
0.000266
0.000244
0.000255
0.000265
0.000269
0.000286
0.000287
0.000265
0.000271
0.000261
0.000268
0.000436
0.001372
0.000057
0.000191
0.000246
0.000223
0.000262
0.000232
0.000256
0.000245
0.000232
0.000248
0.000248
0.000302
0.000231
0.000251
0.000234
0.000281
0.000221
0.001732
0.000263
0.000233
0.000256
0.000243
0.000266
0.000276
0.000257
0.000298
0.000229
0.000273
0.000278
0.000264
0.000259
0.000229
0.000057
0.000252
0.000368
0.001282
0.000230
0.000223
0.000249
0.000254
0.000249
0.000272
0.000242
0.000239
0.000377
0.000402
0.000398
0.000287
0.000219
0.000251
0.000256
0.000260
0.000264
0.000238
0.000277
0.000258
0.000285
0.000262
0.000440
0.000330
0.000362
0.000320
0.000233
0.000194
0.000055
0.000240
0.000237
0.000245
0.000248
0.000276
0.000200
0.000241
0.000297
0.000393
0.001327
0.000262
0.000231
0.000228
0.000277
0.000246
0.000292
0.000233
0.000256
0.000324
0.000422
0.000350
0.000272
0.000246
0.000243
0.000289
0.000267
0.000269
0.000287
0.000275
0.000273
0.000189
0.000056
0.000257
0.000427
0.000380
0.000227
0.000226
0.000232
0.000261
0.000265
0.000261
0.000249
0.000229
0.000253
0.000454
0.000500
0.000469
0.001459
0.000237
0.000288
0.000312
0.000351
0.000496
0.000453
0.000436
0.000383
0.000228
0.000265
0.000266
0.000275
0.000263
0.000270
0.000212
0.000056
0.000214
0.000260
0.000457
0.000413
0.000408
0.000230
0.000270
0.000220
0.000240
0.000272
0.000230
0.000270
0.000281
0.000222
0.000269
0.000317
0.000386
0.000386
0.001401
0.000335
0.000220
0.000249
0.000253
0.000269
0.000462
0.000468
0.000373
0.000237
0.000271
0.000285
0.000175
0.000056
0.000211
0.000240
0.000244
0.000267
0.000228
0.000295
0.000443
0.000435
0.000305
0.000221
0.000242
0.000260
0.000272
0.000287
0.000238
0.000253
0.000261
0.000255
0.000289
0.000330
0.000429
0.000420
0.000291
0.001362
0.000391
0.000248
0.000270
0.000399
0.000552
0.000255
0.000316
0.000056
0.000195
0.000232
0.000262
0.000227
0.000252
0.000255
0.001678
0.000253
0.000222
0.000229
0.000257
0.000245
0.000256
0.000330
0.000323
0.000282
0.000264
0.000391
0.000382
0.000439
0.000314
0.000289
0.000227
0.000250
0.001498
0.000362
0.000388
0.000466
0.000328
0.000298
0.000173
0.000056
0.000205
0.000246
0.000257
0.000259
0.000245
0.000267
0.001698
0.000247
0.000231
0.000258
0.000336
0.000402
0.001469
0.000355
0.000377
0.000246
0.000249
0.000247
0.000259
0.000273
0.001535
0.000563
0.000394
0.000296
0.000248
0.000243
0.000261
0.000279
0.000245
0.000253
0.000199
0.000057
0.000193
0.000240
0.000265
0.000244
0.000268
0.000303
0.000248
0.000262
0.000242
0.000252
0.000253
0.000248
0.000292
0.000242
0.000290
0.001455
0.000284
0.000227
0.000269
0.000276
0.000271
0.000258
0.000427
0.001273
0.000275
0.000243
0.000266
0.000251
0.000403
0.000239
0.000200
0.000057
0.000211
0.000249
0.000217
0.000245
0.000242
0.000230
0.000239
0.001684
0.000251
0.000237
0.000348
0.000289
0.000207
0.000223
0.000259
0.001392
0.000231
0.000256
0.000268
0.000245
0.000270
0.000339
0.000291
0.001304
0.000278
0.000252
0.000247
0.000266
0.001391
0.000296
0.000197
0.000056
0.000283
0.000304
0.000217
0.000235
0.000267
0.000226
0.000288
0.000250
0.000262
0.000250
0.000258
0.000260
0.000267
0.000235
0.000316
0.001519
0.000232
0.000262
0.000248
0.000253
0.000309
0.000239
0.000250
0.001535
0.000320
0.000235
0.000273
0.001279
0.000265
0.000246
0.000218
0.000058
0.000230
0.000433
0.000283
0.000213
0.000230
0.000244
0.000270
0.000247
0.000268
0.000271
0.000238
0.000248
0.000264
0.000288
0.000402
0.001219
0.000232
0.000250
0.000268
0.000268
0.000241
0.000240
0.000244
0.000362
0.001258
0.000246
0.000251
0.000248
0.000256
0.001339
0.000323
0.000076
0.000293
0.000262
0.000200
0.000230
0.000238
0.000256
0.000238
0.000253
0.000301
0.000230
0.000240
0.000247
0.000247
0.000411
0.000359
0.001443
0.000219
0.000254
0.000308
0.000513
0.000281
0.001496
0.000314
0.000240
0.000238
0.000252
0.000255
0.001302
0.000334
0.000387
0.000441
0.000058
0.000201
0.000251
0.000254
0.000256
0.000281
0.000234
0.000269
0.000261
0.000245
0.000268
0.000319
0.000492
0.001294
0.000241
0.000271
0.000268
0.000275
0.000224
0.000240
0.000240
0.000340
0.001248
0.000261
0.000242
0.000249
0.000255
0.001552
0.000441
0.000428
0.000223
0.000193
0.000057
0.000205
0.000223
0.000241
0.000240
0.000256
0.000264
0.000241
0.000354
0.000336
0.000524
0.000241
0.001480
0.000218
0.000237
0.000263
0.000255
0.000264
0.000291
0.001696
0.000240
0.000390
0.000346
0.001262
0.000457
0.000231
0.000337
0.000283
0.000218
0.000265
0.000267
0.000192
0.000056
0.000220
0.000387
0.000170
0.000251
0.000328
0.000517
0.000301
0.000310
0.001454
0.000251
0.000364
0.000260
0.000237
0.000355
0.000367
0.001292
0.000262
0.000243
0.000241
0.000257
0.001543
0.000373
0.000286
0.000287
0.000243
0.000246
0.000447
0.000333
0.000243
0.000256
0.000263
0.000056
0.000296
0.000333
0.000331
0.000264
0.000224
0.001519
0.000215
0.000252
0.000266
0.000269
0.000268
0.000319
0.000261
0.001455
0.000246
0.000245
0.000423
0.001187
0.000329
0.000464
0.000401
0.000235
0.000233
0.000253
0.000294
0.000227
0.000454
0.000229
0.000260
0.000285
0.000195
0.000056
0.000224
0.000248
0.000360
0.000384
0.001288
0.000271
0.000333
0.000225
0.000223
0.000250
0.000247
0.000283
0.001531
0.000266
0.000221
0.000247
0.001385
0.000260
0.000439
0.000422
0.000392
0.000237
0.000255
0.000244
0.000273
0.000281
0.000254
0.000268
0.000269
0.000252
0.000201
0.000057
0.000227
0.000421
0.001421
0.000212
0.000268
0.000302
0.000219
0.000244
0.000268
0.000352
0.001417
0.000215
0.000266
0.000265
0.000250
0.001349
0.000651
0.000268
0.000308
0.000411
0.000304
0.000249
0.000267
0.000261
0.000267
0.000288
0.000272
0.000311
0.000422
0.000428
0.001383
0.000057
0.000215
0.000234
0.000237
0.000231
0.000250
0.000395
0.000567
0.001223
0.000241
0.000244
0.000247
0.001538
0.000428
0.000241
0.000228
0.000414
0.000241
0.000235
0.000274
0.000281
0.000253
0.000256
0.000280
0.000262
0.000255
0.000350
0.000410
0.000451
0.001476
0.000235
0.000191
0.000057
0.000207
0.000252
0.000553
0.001342
0.000300
0.000253
0.000212
0.000255
0.000245
0.000257
0.000250
0.000274
0.000365
0.000562
0.000253
0.000240
0.000254
0.000270
0.000242
0.000308
0.000236
0.000261
0.000258
0.000269
0.000259
0.000478
0.000453
0.000266
0.000358
0.001379
0.000179
0.000056
0.000207
0.000238
0.000345
0.000400
0.000447
0.000182
0.000335
0.000319
0.000296
0.000252
0.000236
0.000259
0.000275
0.000287
0.000235
0.000261
0.000620
0.000338
0.000239
0.000395
0.000267
0.000404
0.000236
0.000240
0.000261
0.000263
0.000249
0.000291
0.000308
0.000613
0.000218
0.000058
0.000198
0.001409
0.000231
0.000337
0.000403
0.000386
0.000529
0.000211
0.000216
0.000237
0.000269
0.000247
0.000273
0.000280
0.000240
0.000255
0.000262
0.001362
0.000263
0.000239
0.000263
0.000278
0.000265
0.000281
0.000266
0.000255
0.000278
0.000252
0.000283
0.000516
0.000365
0.000056
0.000219
0.000218
0.000245
0.001496
0.000325
0.000241
0.000225
0.000247
0.000230
0.000251
0.000251
0.000280
0.000243
0.000246
0.000302
0.000228
0.000245
0.000258
0.000266
0.000254
0.001436
0.000227
0.000245
0.000279
0.000262
0.000246
0.000269
0.000255
0.000280
0.000485
0.000351
0.000056
0.000222
0.000234
0.000439
0.000239
0.000237
0.000259
0.001530
0.000354
0.000287
0.000220
0.000259
0.000362
0.000286
0.000222
0.000228
0.000253
0.000245
0.000261
0.000262
0.000256
0.000496
0.000494
0.001124
0.000274
0.000236
0.000258
0.000270
0.000252
0.000306
0.000229
0.000489
0.000057
0.000328
0.000291
0.000216
0.000241
0.000249
0.000237
0.000248
0.000236
0.000279
0.001610
0.000416
0.000245
0.000244
0.000242
0.000255
0.000240
0.000266
0.000291
0.000265
0.000312
0.000296
0.000469
0.000458
0.001373
0.000229
0.000278
0.000258
0.000259
0.000270
0.000312
0.000460
0.000056
0.000262
0.000266
0.000213
0.000235
0.000223
0.000245
0.000264
0.000278
0.000275
0.001583
0.000331
0.000255
0.000243
0.000255
0.000456
0.000275
0.000592
0.000326
0.000258
0.000278
0.000542
0.000456
0.001249
0.000259
0.000239
0.000245
0.001788
0.000419
0.000583
0.000313
0.000144
0.000057
0.000195
0.000227
0.000242
0.000234
0.000275
0.000231
0.000243
0.000545
0.000468
0.000406
0.000297
0.000207
0.000240
0.000269
0.000270
0.000280
0.000230
0.000240
0.000253
0.000286
0.000276
0.000419
0.001328
0.000227
0.000249
0.000268
0.001913
0.000369
0.000399
0.000337
0.000156
0.000056
0.000248
0.000237
0.000247
0.001626
0.000370
0.000206
0.000234
0.000275
0.000239
0.000277
0.000376
0.000368
0.000367
0.000311
0.000307
0.000487
0.000405
0.001176
0.000285
0.000227
0.000255
0.000257
0.000280
0.000413
0.000601
0.000457
0.000274
0.000256
0.000261
0.000284
0.000194
0.000056
0.000212
0.000216
0.000246
0.001553
0.000247
0.000229
0.000240
0.000251
0.000241
0.000249
0.000257
0.000268
0.000267
0.000284
0.000239
0.000390
0.000559
0.000234
0.001376
0.000233
0.000256
0.000258
0.000267
0.000341
0.000280
0.000522
0.000414
0.000278
0.000283
0.000231
0.000440
0.000056
0.000221
0.000237
0.000265
0.001617
0.000208
0.000220
0.000269
0.000244
0.000253
0.000256
0.000251
0.000282
0.000231
0.000284
0.000544
0.000472
0.001258
0.000748
0.000252
0.000350
0.000243
0.000238
0.000241
0.000279
0.001703
0.000777
0.000228
0.000265
0.000280
0.000289
0.000177
0.000057
0.000196
0.000235
0.000252
0.000244
0.000279
0.000251
0.000214
0.000252
0.000239
0.000249
0.000280
0.000295
0.000232
0.000255
0.000260
0.000247
0.000266
0.001607
0.000732
0.000370
0.000290
0.000235
0.000237
0.000311
0.000251
0.000252
0.000272
0.000251
0.001411
0.000384
0.000395
0.000058
0.000210
0.000217
0.000268
0.000230
0.000258
0.000238
0.000276
0.000225
0.000256
0.000257
0.000268
0.000456
0.000429
0.000320
0.000212
0.000246
0.000266
0.001394
0.000692
0.000457
0.000341
0.000278
0.000233
0.000252
0.000274
0.000255
0.000253
0.000263
0.001484
0.000406
0.000222
0.000058
0.000183
0.000224
0.000248
0.000248
0.000250
0.000247
0.000238
0.000248
0.000271
0.000334
0.000287
0.000418
0.000297
0.000222
0.000244
0.000242
0.000276
0.000248
0.001568
0.000673
0.000438
0.000306
0.000235
0.000244
0.000267
0.000264
0.000259
0.000284
0.000263
0.001348
0.000337
0.000058
0.000203
0.000229
0.000229
0.000252
0.000260
0.000242
0.000248
0.000314
0.000363
0.000432
0.000372
0.000392
0.000354
0.000216
0.000266
0.000235
0.000296
0.000243
0.000263
0.001891
0.000358
0.000230
0.000468
0.000222
0.000257
0.000264
0.000267
0.000259
0.000274
0.000272
0.000311
0.000057
0.000257
0.000266
0.000224
0.000248
0.000254
0.000245
0.000228
0.000241
0.000291
0.000243
0.000230
0.000237
0.000300
0.000407
0.000663
0.000276
0.000220
0.000265
0.000249
0.000249
0.000259
0.000283
0.001485
0.001031
0.000240
0.000239
0.000271
0.000264
0.000269
0.000253
0.000212
0.000057
0.000220
0.001410
0.000225
0.000203
0.000239
0.000268
0.000234
0.000241
0.000241
0.000265
0.000241
0.000268
0.000241
0.000415
0.000378
0.000452
0.000229
0.000257
0.000258
0.000287
0.000268
0.000219
0.000256
0.000267
0.001307
0.000692
0.000313
0.000385
0.000377
0.000398
0.000299
0.000056
0.000210
0.000242
0.000364
0.001307
0.000220
0.000250
0.000229
0.000260
0.000252
0.000259
0.000265
0.000229
0.000263
0.000337
0.000612
0.000270
0.000234
0.000279
0.000324
0.000225
0.000269
0.000241
0.000238
0.000271
0.000267
0.002009
0.000340
0.000254
0.000256
0.000272
0.000193
0.000057
0.000189
0.000258
0.000454
0.000335
0.001292
0.000257
0.000228
0.000228
0.000241
0.000244
0.000247
0.000257
0.000232
0.000238
0.000249
0.000262
0.000266
0.000237
0.000253
0.000259
0.000268
0.000266
0.000310
0.000335
0.000214
0.000266
0.000261
0.001462
0.000254
0.000250
0.000179
0.000056
0.000215
0.000235
0.000267
0.000247
0.000350
0.000373
0.000397
0.000279
0.001568
0.000238
0.000297
0.000530
0.000304
0.000238
0.000438
0.000236
0.000229
0.000269
0.000273
0.000270
0.000278
0.000264
0.000255
0.000269
0.000275
0.000403
0.000411
0.000301
0.001586
0.000229
0.000189
0.000057
0.000178
0.000237
0.000263
0.000234
0.000240
0.000246
0.000259
0.000323
0.000424
0.002014
0.000221
0.000248
0.000257
0.000256
0.000264
0.000261
0.000269
0.000249
0.000257
0.000454
0.000470
0.000329
0.001452
0.000241
0.000247
0.002019
0.000282
0.000260
0.000235
0.001516
0.000173
0.000057
0.000430
0.000406
0.000377
0.000248
0.000278
0.000223
0.000248
0.000293
0.000237
0.000223
0.000256
0.000357
0.000465
0.000304
0.000418
0.000225
0.000235
0.001564
0.000244
0.000563
0.001888
0.000306
0.000220
0.001544
0.002020
0.000730
0.000298
0.000246
0.000302
0.000562
0.000210
0.000057
0.000215
0.000237
0.000285
0.000215
0.001414
0.001739
0.001068
0.000210
0.000251
0.001667
0.001882
0.000216
0.000234
0.000426
0.000278
0.000458
0.000390
0.000422
0.000228
0.000232
0.000246
0.000255
0.000267
0.001612
0.001195
0.001422
0.000292
0.000274
0.000255
0.000361
0.000358
0.000057
0.000243
0.000205
0.000233
0.000258
0.000212
0.000275
0.000224
0.000257
0.000254
0.000242
0.000245
0.000330
0.000380
0.000542
0.000251
0.000250
0.000252
0.000286
0.000253
0.000289
0.000234
0.000259
0.001654
0.000326
0.002131
0.000228
0.000257
0.000370
0.000396
0.000401
0.000197
0.000057
0.000233
0.000365
0.000448
0.000307
0.000218
0.000217
0.000252
0.000237
0.000243
0.000247
0.000244
0.000268
0.000257
0.001611
0.001351
0.001233
0.000273
0.000250
0.000233
0.000273
0.000284
0.000273
0.000243
0.000252
0.002216
0.000246
0.000246
0.000301
0.000322
0.000304
0.000225
0.000056
0.000197
0.000450
0.000511
0.000272
0.000232
0.000232
0.000248
0.000278
0.001893
0.001424
0.000217
0.000322
0.000388
0.000409
0.000263
0.000247
0.000236
0.000268
0.000266
0.000279
0.000237
0.000278
0.000459
0.000238
0.000268
0.000268
0.000253
0.000276
0.000276
0.000255
0.000199
0.000055
0.000208
0.000241
0.000253
0.000235
0.000275
0.000255
0.001539
0.001414
0.001330
0.000235
0.000230
0.000247
0.000260
0.000266
0.000246
0.000269
0.000232
0.002103
0.000252
0.000240
0.000265
0.000265
0.000250
0.000264
0.000268
0.000258
0.000265
0.000256
0.000287
0.000241
0.000186
0.000056
0.000182
0.002679
0.001403
0.000217
0.000303
0.000322
0.000221
0.000274
0.000235
0.000240
0.000253
0.000240
0.000235
0.000257
0.000269
0.000250
0.000274
0.000263
0.000268
0.000252
0.000269
0.000288
0.000268
0.000260
0.000251
0.000247
0.000264
0.000276
0.000254
0.000269
0.000382
0.000057
0.001547
0.000252
0.001241
0.000239
0.000214
0.000262
0.000258
0.000255
0.000226
0.000360
0.000328
0.000354
0.000309
0.000238
0.000237
0.002153
0.000246
0.000241
0.000398
0.000378
0.000412
0.000250
0.000237
0.000248
0.000284
0.000230
0.000265
0.000278
0.000273
0.001646
0.001231
0.000057
0.000207
0.000225
0.000301
0.000411
0.000334
0.000285
0.000220
0.000227
0.000248
0.000260
0.000266
0.000241
0.000229
0.000260
0.000261
0.000244
0.000401
0.000567
0.000332
0.000237
0.000238
0.000269
0.000284
0.000269
0.000226
0.000253
0.000268
0.000272
0.000238
0.000353
0.000346
0.000056
0.001129
0.000228
0.000358
0.000432
0.000290
0.000228
0.000245
0.000228
0.000252
0.002302
0.000384
0.000373
0.000216
0.000385
0.000301
0.000252
0.000241
0.000271
0.000252
0.000229
0.000256
0.000382
0.000599
0.000334
0.001878
0.001304
0.000563
0.000500
0.000236
0.000283
0.000202
0.000056
0.000370
0.000212
0.000246
0.000260
0.000230
0.000228
0.000255
0.000249
0.000256
0.000267
0.000234
0.000230
0.000241
0.000288
0.000397
0.000649
0.001658
0.001378
0.000391
0.000522
0.000382
0.000241
0.000237
0.000261
0.002155
0.000533
0.000384
0.000234
0.000270
0.000284
0.000203
0.000056
0.000202
0.000240
0.000259
0.000244
0.000288
0.000365
0.000339
0.000316
0.000323
0.000221
0.000237
0.000280
0.000237
0.002194
0.000306
0.000363
0.000218
0.000246
0.000288
0.000241
0.000249
0.002466
0.000327
0.000231
0.000255
0.000249
0.000257
0.000267
0.000314
0.000252
0.000196
0.000058
0.000214
0.000330
0.000541
0.000380
0.000258
0.000218
0.000233
0.000256
0.000259
0.000253
0.001951
0.000386
0.000275
0.000278
0.000238
0.000270
0.000268
0.000239
0.002210
0.000445
0.000224
0.000269
0.000264
0.000262
0.000251
0.000256
0.000298
0.000235
0.000270
0.000253
0.000191
0.000056
0.000211
0.000238
0.000248
0.000224
0.000245
0.000262
0.000235
0.000247
0.000230
0.002184
0.000256
0.000250
0.000218
0.000430
0.000215
0.000264
0.000309
0.000260
0.000249
0.000267
0.001955
0.000274
0.000335
0.000360
0.000432
0.000458
0.000259
0.000260
0.000258
0.000250
0.000200
0.000056
0.000214
0.000236
0.000237
0.000251
0.000280
0.000299
0.000225
0.002289
0.000248
0.000238
0.000260
0.000249
0.000239
0.000287
0.000277
0.002122
0.000591
0.000228
0.000245
0.000243
0.000260
0.000262
0.000287
0.000265
0.000280
0.000239
0.000283
0.000256
0.000263
0.000264
0.000200
0.000056
0.001831
0.001437
0.000211
0.000220
0.000260
0.000241
0.000251
0.000266
0.000464
0.000273
0.002187
0.000265
0.000224
0.000274
0.000250
0.000468
0.000470
0.000297
0.000217
0.000256
0.000247
0.000271
0.000259
0.000235
0.000257
0.000263
0.000270
0.000266
0.000365
0.000598
0.000338
0.000058
0.000202
0.000244
0.000239
0.000261
0.000262
0.000243
0.000256
0.000243
0.001492
0.002105
0.000585
0.000274
0.000400
0.000696
0.000359
0.000255
0.000232
0.000249
0.000268
0.000261
0.000250
0.000249
0.000255
0.000265
0.003019
0.000324
0.000239
0.000257
0.000292
0.000346
0.000355
0.000057
0.001917
0.000229
0.000235
0.000237
0.000268
0.000384
0.000441
0.000303
0.000291
0.000244
0.000219
0.000247
0.000259
0.000254
0.000263
0.000259
0.000256
0.000286
0.001815
0.000247
0.000234
0.000258
0.000271
0.000276
0.000274
0.000253
0.001517
0.000286
0.000241
0.000284
0.000152
0.000058
0.000201
0.000229
0.000261
0.000228
0.000245
0.000246
0.000343
0.000357
0.000351
0.000325
0.000231
0.000239
0.000282
0.000311
0.000420
0.000317
0.000236
0.000243
0.000259
0.000346
0.000530
0.000449
0.000203
0.000243
0.000260
0.000255
0.000257
0.000272
0.000270
0.000268
0.000204
0.000056
0.001422
0.000454
0.000207
0.001940
0.000287
0.000434
0.000494
0.000234
0.000230
0.000245
0.000267
0.000240
0.000257
0.000242
0.000262
0.000262
0.000448
0.000380
0.000315
0.000472
0.000255
0.000234
0.000248
0.000270
0.000279
0.000258
0.000261
0.000271
0.000393
0.000483
0.001323
0.000056
0.000200
0.000231
0.002076
0.000362
0.000279
0.000235
0.000269
0.000231
0.000262
0.000259
0.000233
0.000231
0.000266
0.000258
0.000265
0.000347
0.000731
0.001741
0.000228
0.000253
0.000255
0.000264
0.000460
0.000349
0.001581
0.000288
0.000382
0.001906
0.000261
0.000252
0.000196
0.000056
0.000211
0.000231
0.000235
0.000249
0.000234
0.000239
0.000252
0.000285
0.000323
0.000269
0.000377
0.000358
0.000351
0.000295
0.000258
0.000252
0.000254
0.000254
0.000263
0.000246
0.000314
0.000281
0.000265
0.000257
0.000266
0.001509
0.000297
0.000383
0.002072
0.000234
0.000176
0.000057
0.000231
0.000237
0.000238
0.000252
0.000483
0.000211
0.000276
0.000310
0.000378
0.000317
0.000276
0.000216
0.000269
0.000261
0.000268
0.000335
0.000430
0.000423
0.000248
0.000423
0.000538
0.000367
0.001627
0.000230
0.000249
0.001987
0.000325
0.000256
0.000244
0.000295
0.000187
0.000056
0.000210
0.000237
0.000229
0.000243
0.000251
0.000268
0.000258
0.000271
0.000248
0.000257
0.001810
0.000343
0.000366
0.000276
0.000465
0.000364
0.000409
0.001451
0.000247
0.000388
0.002006
0.000570
0.000246
0.000245
0.000257
0.000275
0.000491
0.000224
0.000259
0.000279
0.000198
0.000056
0.000282
0.000328
0.000512
0.000180
0.000215
0.000228
0.000265
0.000243
0.000293
0.000270
0.000224
0.000252
0.000258
0.000287
0.000313
0.000471
0.001322
0.000261
0.000281
0.001911
0.000360
0.000295
0.000232
0.000255
0.000259
0.000279
0.000261
0.000270
0.000250
0.000267
0.000196
0.000056
0.000225
0.000520
0.001918
0.000260
0.000225
0.000261
0.000267
0.000278
0.000452
0.000419
0.001300
0.000375
0.000377
0.002051
0.000227
0.000228
0.000270
0.000274
0.000252
0.000254
0.000270
0.000298
0.000253
0.000410
0.000420
0.000425
0.002214
0.000287
0.000480
0.000583
0.000291
0.000056
0.000215
0.000228
0.000241
0.001969
0.000239
0.000219
0.000241
0.000249
0.000234
0.000263
0.000240
0.000266
0.000259
0.000292
0.000414
0.001481
0.000246
0.000240
0.000266
0.000254
0.000239
0.000257
0.000275
0.000249
0.000345
0.000487
0.000420
0.000239
0.001594
0.000281
0.000160
0.000057
0.000202
0.000219
0.000247
0.000233
0.000266
0.000267
0.000225
0.000246
0.000252
0.000422
0.000341
0.001398
0.000231
0.000231
0.000243
0.000296
0.000225
0.000251
0.000282
0.000506
0.000646
0.000192
0.000234
0.001574
0.000231
0.000260
0.000290
0.000274
0.000264
0.000267
0.000197
0.000057
0.000211
0.000234
0.000291
0.000245
0.000266
0.000228
0.000235
0.000242
0.000279
0.000241
0.000233
0.000259
0.000266
0.001482
0.000357
0.000204
0.000255
0.000263
0.000277
0.000310
0.000373
0.000283
0.000233
0.000261
0.000265
0.000260
0.000264
0.001406
0.000289
0.000233
0.000177
0.000057
0.000195
0.000234
0.000260
0.000262
0.000271
0.000218
0.000249
0.000257
0.000227
0.000257
0.000249
0.000252
0.000231
0.000358
0.000313
0.000370
0.000268
0.000231
0.001630
0.000252
0.000234
0.000258
0.000265
0.000342
0.000343
0.000367
0.000453
0.000275
0.000243
0.001606
0.000161
0.000055
0.000378
0.000438
0.000193
0.000337
0.000219
0.000215
0.000249
0.000269
0.000257
0.000257
0.000228
0.000237
0.001463
0.000288
0.000310
0.000227
0.000239
0.000277
0.000252
0.000265
0.000253
0.000236
0.000262
0.000267
0.000364
0.000400
0.000340
0.000319
0.000299
0.000241
0.000196
0.000056
0.000217
0.000248
0.000488
0.000365
0.000360
0.000209
0.000247
0.000249
0.000251
0.000258
0.000240
0.000228
0.000257
0.000241
0.001259
0.000292
0.000249
0.000241
0.000268
0.000262
0.000243
0.000265
0.000251
0.000263
0.000258
0.000256
0.000310
0.000725
0.000419
0.000236
0.000182
0.000057
0.000209
0.001560
0.000338
0.000357
0.000331
0.000390
0.000215
0.000254
0.000276
0.000254
0.000228
0.000261
0.000267
0.000273
0.000253
0.001539
0.000246
0.000284
0.000265
0.000254
0.000280
0.000232
0.000270
0.000260
0.000258
0.000475
0.000295
0.000299
0.000369
0.000236
0.000187
0.000057
0.000212
0.000248
0.000237
0.001740
0.000352
0.000287
0.000224
0.000240
0.000251
0.000273
0.000280
0.000252
0.000255
0.000253
0.000231
0.000303
0.000590
0.001107
0.000250
0.000231
0.001503
0.000486
0.000376
0.000434
0.000338
0.000216
0.000264
0.000460
0.000242
0.000263
0.000190
0.000056
0.000293
0.000218
0.000247
0.000241
0.000253
0.000269
0.000225
0.000251
0.000255
0.000256
0.000242
0.000258
0.000379
0.000459
0.001636
0.001529
0.000319
0.000589
0.000292
0.000224
0.000246
0.000241
0.000251
0.000262
0.000250
0.000282
0.000245
0.000264
0.001522
0.000329
0.000200
0.000057
0.000204
0.000347
0.000353
0.000331
0.000255
0.000214
0.000245
0.000423
0.000443
0.000276
0.002183
0.000314
0.000788
0.000417
0.000475
0.000247
0.000337
0.000387
0.000328
0.000283
0.000392
0.000269
0.001522
0.000537
0.000228
0.000247
0.000261
0.000253
0.000269
0.000263
0.000194
0.000057
0.000216
0.000248
0.000257
0.000248
0.000240
0.001667
0.000875
0.000997
0.000207
0.000234
0.000278
0.000240
0.000257
0.000263
0.000249
0.000251
0.000254
0.000268
0.000261
0.000281
0.001430
0.000312
0.000258
0.000238
0.000224
0.000263
0.000260
0.000274
0.000272
0.000284
0.001898
0.000057
0.000197
0.000227
0.001562
0.000832
0.000512
0.000230
0.000260
0.000215
0.000262
0.000251
0.000244
0.000245
0.000244
0.002116
0.000343
0.000231
0.000228
0.000264
0.000266
0.000255
0.000195
