0.000105
0.008622
0.013052
0.000301
0.000261
0.000285
0.000303
0.000250
0.000330
0.000285
0.000278
0.000326
0.000541
0.000419
0.000346
0.000418
0.000254
0.000374
0.000343
0.000408
0.000311
0.001986
0.000641
0.000249
0.000253
0.000311
0.000303
0.000333
0.000488
0.000363
0.000443
0.000313
0.000057
0.000210
0.000268
0.000270
0.000265
0.000279
0.000244
0.000277
0.000281
0.000250
0.000327
0.000418
0.000412
0.000319
0.000263
0.000411
0.000295
0.000366
0.000250
0.000249
0.001704
0.000318
0.000252
0.000457
0.000253
0.000269
0.000273
0.000290
0.000290
0.000297
0.000370
0.000340
0.000057
0.000198
0.000248
0.000264
0.000263
0.000252
0.000243
0.000259
0.000257
0.000288
0.001667
0.000246
0.000221
0.000268
0.000267
0.000282
0.000251
0.000265
0.000255
0.000356
0.001797
0.000238
0.000273
0.000448
0.000494
0.000328
0.000237
0.000319
0.000441
0.000567
0.000662
0.000190
0.000057
0.000226
0.000249
0.000255
0.000241
0.000296
0.000249
0.000290
0.000558
0.000400
0.000264
0.000247
0.000253
0.000245
0.000248
0.000256
0.000261
0.000238
0.000274
0.000294
0.000319
0.001678
0.000275
0.000252
0.000420
0.000668
0.000323
0.000749
0.000445
0.000335
0.000252
0.000193
0.000056
0.000208
0.000252
0.000265
0.000257
0.000237
0.000257
0.000282
0.000440
0.001475
0.000220
0.000252
0.000241
0.000254
0.000255
0.000261
0.000292
0.000290
0.000799
0.001373
0.000280
0.000460
0.000261
0.000235
0.000211
0.000263
0.000253
0.000266
0.000268
0.000259
0.000270
0.000190
0.000055
0.000219
0.000241
0.000244
0.000267
0.000233
0.000244
0.000246
0.000255
0.000235
0.000257
0.001626
0.000267
0.000232
0.000239
0.000258
0.000247
0.000258
0.000242
0.000254
0.000253
0.000272
0.001657
0.000290
0.000245
0.000445
0.000273
0.000240
0.000258
0.000259
0.000273
0.000194
0.000056
0.000192
0.000230
0.000247
0.000250
0.000241
0.000250
0.000258
0.000240
0.000260
0.000260
0.000245
0.000264
0.000256
0.000270
0.001640
0.000292
0.000282
0.000222
0.000238
0.000294
0.000245
0.000244
0.000241
0.000270
0.001780
0.000353
0.000392
0.000346
0.000254
0.000279
0.000195
0.000056
0.000208
0.000238
0.000245
0.000268
0.000256
0.000241
0.000305
0.000382
0.000534
0.000308
0.000210
0.000245
0.000260
0.000244
0.001562
0.000515
0.000331
0.000419
0.000330
0.000215
0.000264
0.000287
0.000273
0.001722
0.000483
0.000498
0.000274
0.000220
0.000252
0.000266
0.000186
0.000057
0.000210
0.000233
0.000259
0.000263
0.000315
0.000451
0.000429
0.000229
0.000219
0.000255
0.000262
0.000235
0.000256
0.001801
0.000418
0.000260
0.000236
0.000251
0.000271
0.000280
0.000246
0.000266
0.000271
0.001877
0.000499
0.000266
0.000198
0.000246
0.000275
0.000414
0.000326
0.000056
0.000207
0.000399
0.000311
0.000313
0.000254
0.000248
0.000253
0.000274
0.000222
0.000235
0.000230
0.000253
0.001548
0.000359
0.000310
0.000233
0.000255
0.000249
0.000244
0.000283
0.000366
0.000244
0.000240
0.001814
0.000250
0.000502
0.000241
0.000258
0.000256
0.000264
0.000266
0.000056
0.000336
0.000589
0.000566
0.000220
0.000228
0.000276
0.000228
0.000224
0.000257
0.000257
0.000252
0.001700
0.000249
0.000440
0.000372
0.000219
0.000241
0.000231
0.000248
0.000258
0.000248
0.001869
0.000232
0.000243
0.002075
0.000539
0.000352
0.000242
0.000257
0.000268
0.000176
0.000056
0.000214
0.000244
0.000248
0.000238
0.000257
0.001614
0.000261
0.000229
0.000256
0.000251
0.000248
0.000252
0.000234
0.000255
0.000333
0.000646
0.000330
0.000262
0.000238
0.000267
0.000282
0.000231
0.000241
0.000438
0.000430
0.000255
0.000320
0.000592
0.000440
0.000273
0.000204
0.000055
0.000209
0.000226
0.000253
0.000250
0.000238
0.000237
0.000242
0.000494
0.000338
0.001736
0.000203
0.000239
0.000240
0.000248
0.000263
0.000308
0.000397
0.000481
0.000372
0.000218
0.000260
0.000335
0.000250
0.000245
0.000276
0.000433
0.000359
0.000533
0.000465
0.000507
0.000165
0.000055
0.000202
0.000259
0.000238
0.000229
0.000233
0.000242
0.000250
0.000242
0.000247
0.000337
0.000294
0.000455
0.001368
0.000243
0.000245
0.000235
0.000268
0.000243
0.000252
0.000249
0.000287
0.000535
0.000314
0.000273
0.000264
0.000257
0.000264
0.000263
0.000268
0.000264
0.000381
0.000057
0.000193
0.000234
0.000230
0.000280
0.000545
0.000431
0.000220
0.000257
0.000234
0.000263
0.000240
0.000239
0.000297
0.000268
0.000222
0.000485
0.000436
0.001617
0.000280
0.000235
0.000271
0.000254
0.000253
0.000243
0.000260
0.000549
0.000368
0.000479
0.000286
0.000245
0.000181
0.000055
0.000232
0.000436
0.000239
0.000214
0.000265
0.000241
0.000249
0.000619
0.000318
0.000329
0.000222
0.000268
0.000266
0.000239
0.000516
0.000354
0.000217
0.000260
0.000438
0.001595
0.000264
0.000246
0.000547
0.000220
0.000271
0.000282
0.000256
0.000424
0.000471
0.000396
0.000250
0.000055
0.000222
0.000230
0.000239
0.000241
0.000410
0.000306
0.000296
0.000225
0.000441
0.000499
0.000322
0.000240
0.000242
0.000240
0.000257
0.000266
0.000256
0.000250
0.000236
0.000340
0.000290
0.000332
0.001847
0.000244
0.000259
0.000256
0.000289
0.000358
0.000478
0.000603
0.000444
0.000056
0.000246
0.000331
0.000283
0.000423
0.000391
0.000222
0.000238
0.000313
0.000479
0.000425
0.000265
0.000238
0.000238
0.000270
0.000260
0.000234
0.000257
0.000268
0.000275
0.000263
0.000255
0.000432
0.000647
0.001322
0.000341
0.000514
0.000338
0.000254
0.000473
0.000359
0.000314
0.000056
0.000256
0.000381
0.000267
0.000206
0.000226
0.000249
0.000407
0.000235
0.000237
0.000519
0.000264
0.000382
0.000318
0.000256
0.000266
0.000247
0.000383
0.000383
0.000353
0.000223
0.000262
0.000464
0.000570
0.001644
0.000235
0.000449
0.000294
0.000229
0.000354
0.000360
0.000315
0.000055
0.000198
0.000217
0.000256
0.000236
0.000245
0.000250
0.000249
0.000328
0.000457
0.000331
0.000371
0.000398
0.000278
0.000578
0.000242
0.000248
0.000271
0.000268
0.000230
0.000349
0.000226
0.000243
0.000269
0.000457
0.000477
0.001623
0.000279
0.000230
0.000243
0.000277
0.000180
0.000057
0.000283
0.000497
0.000343
0.000207
0.000249
0.000244
0.000260
0.000236
0.000263
0.000246
0.000222
0.000246
0.000466
0.000474
0.000402
0.000272
0.000258
0.000252
0.000354
0.000385
0.000385
0.000322
0.000427
0.000357
0.000215
0.000254
0.000265
0.000275
0.001780
0.000255
0.000208
0.000056
0.000211
0.000221
0.000254
0.000272
0.000374
0.000539
0.000307
0.000210
0.000258
0.000258
0.000254
0.000249
0.000513
0.000457
0.000480
0.000290
0.000254
0.000276
0.000429
0.000458
0.000406
0.000363
0.000647
0.000272
0.000242
0.000241
0.000266
0.000242
0.000265
0.001718
0.000285
0.000056
0.000259
0.000339
0.000195
0.000235
0.000250
0.000251
0.000252
0.000500
0.000371
0.000301
0.000293
0.000248
0.000390
0.000706
0.000264
0.000233
0.000249
0.000257
0.000247
0.000267
0.000266
0.000276
0.000241
0.000265
0.000344
0.000377
0.000368
0.000352
0.000227
0.000257
0.000193
0.000054
0.000459
0.000312
0.000437
0.000279
0.000192
0.000241
0.000248
0.000254
0.000243
0.000217
0.000252
0.000276
0.000293
0.000380
0.000573
0.000448
0.000281
0.000324
0.000387
0.000334
0.000310
0.000219
0.000241
0.000264
0.001749
0.000271
0.001706
0.000936
0.000387
0.000338
0.000174
0.000055
0.000195
0.000242
0.000233
0.000247
0.000264
0.000244
0.000251
0.000255
0.000238
0.000311
0.000358
0.000446
0.000344
0.000369
0.000266
0.000244
0.000249
0.000292
0.000223
0.000250
0.000255
0.000259
0.001808
0.000260
0.000243
0.000262
0.000280
0.000261
0.001891
0.000509
0.000267
0.000057
0.000176
0.000212
0.000233
0.000243
0.000253
0.000267
0.000221
0.000258
0.000250
0.000420
0.000475
0.000538
0.000239
0.000210
0.000231
0.000254
0.000334
0.000443
0.000362
0.000258
0.001760
0.000256
0.000253
0.000248
0.000260
0.000267
0.000240
0.000259
0.000326
0.000284
0.000410
0.000055
0.000258
0.000219
0.000238
0.000260
0.000246
0.000243
0.000255
0.000256
0.000238
0.000257
0.000241
0.000288
0.000441
0.000283
0.000375
0.000262
0.000473
0.000244
0.000245
0.000259
0.000259
0.000258
0.000278
0.000251
0.000281
0.001793
0.000231
0.000254
0.000270
0.000237
0.000192
0.000054
0.000255
0.000393
0.000226
0.000226
0.000246
0.000219
0.000234
0.000266
0.000241
0.000226
0.000230
0.000265
0.000264
0.000398
0.000356
0.000391
0.000261
0.000256
0.000245
0.000250
0.000257
0.000261
0.000251
0.000270
0.000247
0.000266
0.000369
0.001576
0.000263
0.000245
0.000187
0.000055
0.000206
0.000241
0.000254
0.000260
0.000344
0.000348
0.000431
0.000287
0.000231
0.000255
0.000249
0.000260
0.000228
0.000256
0.000266
0.000260
0.000244
0.000255
0.000256
0.000260
0.000264
0.000272
0.000246
0.000237
0.000246
0.000276
0.000277
0.000260
0.000258
0.000259
0.000189
0.000055
0.000216
0.000237
0.000258
0.000255
0.000235
0.000249
0.000242
0.000264
0.000292
0.000236
0.000219
0.000251
0.000254
0.000248
0.000270
0.000262
0.000253
0.000255
0.000302
0.000245
0.000269
0.000297
0.000275
0.000244
0.000282
0.000270
0.000275
0.000246
0.000257
0.000432
0.000680
0.000056
0.000235
0.000280
0.000210
0.000236
0.000241
0.000252
0.000244
0.000246
0.000255
0.000241
0.000262
0.000309
0.000530
0.000505
0.001461
0.000231
0.000482
0.000239
0.000251
0.000450
0.000410
0.000403
0.000234
0.000278
0.000259
0.000257
0.000277
0.000257
0.000328
0.000234
0.000191
0.000055
0.000314
0.000472
0.000327
0.000310
0.000225
0.000248
0.000246
0.000246
0.000237
0.000244
0.000256
0.000256
0.000230
0.000350
0.000306
0.000459
0.000409
0.001791
0.000227
0.000257
0.000370
0.000551
0.000294
0.000286
0.000322
0.000309
0.000310
0.000231
0.000231
0.000250
0.000195
0.000055
0.000224
0.000231
0.000235
0.000302
0.000420
0.000364
0.000346
0.000256
0.000250
0.000217
0.000250
0.000268
0.000266
0.000261
0.000264
0.000243
0.000328
0.000460
0.000375
0.000409
0.000231
0.001752
0.000332
0.000488
0.000567
0.000409
0.000326
0.000224
0.000247
0.000274
0.000444
0.000055
0.000199
0.000250
0.000233
0.000343
0.000454
0.000380
0.000370
0.000230
0.000257
0.000275
0.000230
0.000263
0.000250
0.000293
0.000308
0.000239
0.000240
0.000367
0.000457
0.000366
0.000492
0.001856
0.000238
0.000469
0.000489
0.000349
0.000230
0.000257
0.000295
0.000259
0.000201
0.000055
0.000223
0.000343
0.000354
0.000367
0.000341
0.000291
0.000367
0.000226
0.000236
0.000263
0.000275
0.000228
0.000246
0.000249
0.000252
0.000256
0.000311
0.000358
0.000534
0.000332
0.000332
0.000230
0.000264
0.001714
0.000534
0.000377
0.000700
0.000247
0.000257
0.000309
0.000152
0.000055
0.000193
0.000237
0.000321
0.000254
0.000264
0.000341
0.000445
0.000317
0.000229
0.000528
0.000241
0.000247
0.000258
0.000272
0.000278
0.000267
0.000206
0.000405
0.000462
0.000391
0.000270
0.000233
0.000264
0.000243
0.000260
0.000267
0.000239
0.000256
0.000262
0.000286
0.000198
0.000055
0.000327
0.000322
0.000210
0.000257
0.000241
0.000264
0.000236
0.000292
0.000243
0.000245
0.000255
0.000364
0.000429
0.000381
0.000351
0.000270
0.000216
0.000244
0.000258
0.000265
0.000293
0.000255
0.000239
0.000258
0.000282
0.000306
0.000414
0.000373
0.000362
0.000231
0.000179
0.000055
0.000209
0.000229
0.000276
0.000244
0.000240
0.000256
0.000250
0.000255
0.000491
0.000212
0.000261
0.000247
0.000253
0.000266
0.000275
0.000269
0.000261
0.000362
0.000221
0.000233
0.000254
0.000264
0.000265
0.000265
0.000272
0.000270
0.000257
0.000253
0.000520
0.000245
0.000152
0.000054
0.000215
0.000236
0.000256
0.000258
0.000218
0.000251
0.000375
0.000419
0.000214
0.000239
0.000249
0.000256
0.000238
0.000228
0.000428
0.001836
0.000229
0.000261
0.000284
0.000399
0.000362
0.000350
0.000357
0.000386
0.000393
0.000417
0.000245
0.000264
0.000281
0.000257
0.001391
0.000055
0.000354
0.000287
0.000282
0.000219
0.000235
0.000250
0.000234
0.000260
0.000239
0.000267
0.000249
0.000255
0.000255
0.000354
0.000520
0.001590
0.000257
0.000219
0.000240
0.000267
0.000236
0.000294
0.000336
0.000428
0.000251
0.000355
0.000224
0.000267
0.000278
0.000261
0.000188
0.000055
0.001208
0.000524
0.000345
0.000262
0.000239
0.000222
0.000232
0.000246
0.000483
0.000225
0.000236
0.000251
0.000456
0.000366
0.000438
0.000349
0.000243
0.000245
0.000334
0.000347
0.000273
0.000255
0.000268
0.000243
0.000273
0.000539
0.000534
0.000327
0.000255
0.000260
0.000165
0.000056
0.000209
0.000231
0.000253
0.000231
0.001450
0.000311
0.000227
0.000255
0.000235
0.000248
0.000257
0.000253
0.000239
0.000277
0.000258
0.000397
0.000328
0.000643
0.000276
0.001741
0.000262
0.000279
0.000295
0.000655
0.000328
0.000411
0.000238
0.000253
0.000258
0.000265
0.000198
0.000055
0.000220
0.000252
0.000231
0.000431
0.001141
0.000233
0.000263
0.000258
0.000239
0.000238
0.000239
0.000247
0.000277
0.000264
0.000235
0.000300
0.000495
0.000376
0.000325
0.000272
0.000262
0.000265
0.000254
0.000231
0.000287
0.000269
0.000239
0.000275
0.000294
0.000422
0.000455
0.000055
0.000217
0.000247
0.000242
0.000260
0.000263
0.000243
0.000237
0.000277
0.000252
0.000250
0.001433
0.000227
0.000243
0.000245
0.000250
0.000245
0.000255
0.000265
0.000273
0.000261
0.000286
0.000553
0.000358
0.000409
0.000225
0.000273
0.001759
0.000270
0.000294
0.000278
0.000394
0.000056
0.000208
0.000419
0.000424
0.000497
0.000518
0.000586
0.001453
0.000415
0.000515
0.000653
0.000552
0.000737
0.000466
0.000617
0.000582
0.001903
0.000366
0.000461
0.000399
0.000317
0.000232
0.000294
0.000258
0.000269
0.000271
0.000265
0.000292
0.000287
0.000272
0.000280
0.001375
0.000055
0.000210
0.000223
0.000248
0.000236
0.000259
0.000251
0.000238
0.000242
0.000252
0.000257
0.000233
0.000242
0.000255
0.000260
0.000262
0.000272
0.001808
0.000284
0.000236
0.000244
0.000257
0.000267
0.000274
0.000262
0.000573
0.000260
0.000350
0.000238
0.000260
0.000280
0.000214
0.000056
0.000196
0.001357
0.000329
0.000264
0.000257
0.000243
0.000243
0.000237
0.000230
0.000235
0.000220
0.000251
0.000249
0.000496
0.000370
0.000282
0.000263
0.000252
0.001942
0.000214
0.000247
0.000273
0.000251
0.000266
0.000276
0.000282
0.000270
0.000250
0.000264
0.000320
0.000197
0.000055
0.000225
0.000240
0.000250
0.001442
0.000210
0.000257
0.000255
0.000242
0.000236
0.000264
0.000252
0.000248
0.000246
0.000259
0.000255
0.000257
0.000263
0.000263
0.000267
0.000256
0.000264
0.001767
0.000310
0.001733
0.000254
0.000249
0.000270
0.000267
0.000268
0.000278
0.000206
0.000055
0.000204
0.000233
0.001346
0.000224
0.000250
0.000252
0.000256
0.000260
0.000241
0.000249
0.000245
0.000252
0.000263
0.000259
0.000260
0.000263
0.000275
0.000269
0.000308
0.000220
0.001884
0.000226
0.001837
0.000240
0.000261
0.000274
0.000229
0.000249
0.000252
0.000275
0.000191
0.000055
0.001426
0.000231
0.000230
0.000234
0.000239
0.000241
0.000367
0.000272
0.000244
0.000273
0.000235
0.000261
0.000272
0.000319
0.000393
0.000308
0.000239
0.000259
0.000278
0.000243
0.000269
0.000345
0.000227
0.000252
0.000271
0.000273
0.000273
0.000500
0.000472
0.000367
0.000194
0.000058
0.000204
0.000263
0.000246
0.000296
0.000403
0.000224
0.001721
0.000282
0.000280
0.000267
0.000251
0.000275
0.000290
0.000259
0.000277
0.000304
0.000451
0.000454
0.000396
0.000266
0.000293
0.000275
0.000272
0.000255
0.000333
0.000288
0.000253
0.000234
0.000254
0.000308
0.000428
0.000056
0.000238
0.000473
0.000276
0.000260
0.000247
0.000230
0.000234
0.000242
0.000257
0.000252
0.001519
0.000227
0.000219
0.000252
0.000240
0.000290
0.000264
0.000260
0.000256
0.000266
0.000267
0.000417
0.000609
0.000202
0.000267
0.000290
0.000265
0.000262
0.000233
0.000311
0.000163
0.000056
0.000203
0.000234
0.000271
0.000498
0.000369
0.000254
0.000217
0.000250
0.000253
0.000248
0.000233
0.000256
0.000255
0.000267
0.000237
0.000257
0.000566
0.001022
0.000245
0.000261
0.000266
0.000250
0.000354
0.000418
0.000255
0.000284
0.000605
0.000360
0.000382
0.000232
0.000180
0.000055
0.000248
0.000237
0.000261
0.000265
0.000252
0.000246
0.000367
0.000381
0.000448
0.000275
0.000370
0.000391
0.000389
0.000355
0.000244
0.000249
0.000248
0.000257
0.000373
0.001468
0.000278
0.000232
0.000273
0.000275
0.000234
0.000232
0.000266
0.000312
0.000480
0.000382
0.000255
0.000056
0.000198
0.000249
0.000246
0.000239
0.000284
0.000213
0.000232
0.000263
0.000336
0.000431
0.000277
0.000412
0.000245
0.000243
0.000250
0.000256
0.000252
0.000262
0.000261
0.000251
0.000444
0.000262
0.000378
0.000404
0.000312
0.000250
0.000274
0.000273
0.000252
0.000337
0.000153
0.000056
0.000311
0.000333
0.000278
0.000404
0.000547
0.000231
0.000254
0.000244
0.000244
0.000277
0.000256
0.000257
0.000241
0.000251
0.000241
0.000227
0.000264
0.000491
0.000364
0.000356
0.000224
0.000264
0.000253
0.000247
0.000262
0.000280
0.000265
0.000267
0.000281
0.000257
0.000282
0.000056
0.000362
0.000274
0.000211
0.000248
0.000248
0.000243
0.000247
0.000247
0.000269
0.000258
0.000251
0.000233
0.000465
0.000319
0.000439
0.000303
0.000228
0.000245
0.000254
0.000262
0.000281
0.000243
0.000260
0.000269
0.000264
0.000351
0.000365
0.000609
0.000413
0.000245
0.000167
0.000056
0.000388
0.000205
0.000238
0.000242
0.000249
0.000247
0.000240
0.000252
0.000257
0.000259
0.000221
0.000248
0.000267
0.000230
0.000241
0.000268
0.000253
0.000264
0.000286
0.000237
0.000267
0.000263
0.000269
0.000251
0.000271
0.000238
0.000280
0.000264
0.000255
0.000282
0.000200
0.000056
0.000228
0.000209
0.000255
0.000246
0.000231
0.000253
0.000265
0.000236
0.000257
0.000276
0.000245
0.000216
0.000265
0.000399
0.000253
0.000277
0.000260
0.000270
0.000249
0.000277
0.000278
0.000237
0.000242
0.000257
0.000268
0.000287
0.000234
0.000254
0.000275
0.000255
0.000205
0.000055
0.000235
0.000331
0.000367
0.000283
0.000294
0.000261
0.000268
0.000258
0.000221
0.000248
0.000251
0.000261
0.000250
0.000235
0.000259
0.000258
0.000262
0.000269
0.000247
0.000262
0.000276
0.000260
0.000281
0.000273
0.000247
0.000254
0.000254
0.000273
0.000270
0.000263
0.000190
0.000055
0.000217
0.000233
0.000262
0.000261
0.000489
0.000211
0.000227
0.000233
0.000283
0.000484
0.000457
0.000272
0.000230
0.000247
0.000274
0.000269
0.000232
0.000268
0.000261
0.000267
0.000275
0.000246
0.000268
0.000264
0.000595
0.000466
0.000249
0.000303
0.000261
0.000259
0.000189
0.000055
0.000208
0.000223
0.000244
0.000251
0.000337
0.000647
0.000301
0.000383
0.000213
0.000243
0.000254
0.000252
0.000253
0.000258
0.000245
0.000275
0.000254
0.000287
0.000590
0.000401
0.000294
0.000246
0.000258
0.000286
0.000279
0.000255
0.000269
0.000268
0.000266
0.000320
0.000375
0.000055
0.000289
0.000234
0.000241
0.000240
0.000252
0.000255
0.000231
0.000244
0.000242
0.000265
0.000259
0.000236
0.000258
0.000391
0.000553
0.000387
0.000250
0.000255
0.000263
0.000248
0.000264
0.000272
0.000484
0.000231
0.000256
0.000634
0.000509
0.000358
0.000247
0.000257
0.000175
0.000056
0.000222
0.000227
0.000252
0.000239
0.000252
0.000255
0.000326
0.000429
0.000566
0.000433
0.000212
0.000265
0.000283
0.000265
0.000262
0.000247
0.000236
0.000251
0.000303
0.000246
0.000422
0.000658
0.000364
0.000262
0.000372
0.000369
0.000486
0.000237
0.000270
0.000466
0.000325
0.000056
0.000276
0.000230
0.000430
0.000227
0.000226
0.000257
0.000263
0.000258
0.000230
0.000259
0.000328
0.000315
0.000359
0.000359
0.000249
0.000244
0.000248
0.000246
0.000262
0.000281
0.000271
0.000257
0.000249
0.000305
0.000284
0.000474
0.000488
0.000272
0.000223
0.000275
0.000198
0.000056
0.000204
0.000250
0.000231
0.000244
0.000245
0.000286
0.000313
0.000369
0.000490
0.000285
0.000365
0.000224
0.000251
0.000267
0.000260
0.000231
0.000258
0.000260
0.000297
0.000375
0.000520
0.000307
0.000478
0.000282
0.000427
0.000387
0.000376
0.000232
0.000256
0.000339
0.000321
0.000056
0.000236
0.000285
0.000220
0.000253
0.000259
0.000259
0.000248
0.000245
0.000254
0.000263
0.000237
0.000497
0.000301
0.000403
0.000356
0.000220
0.000267
0.000261
0.000268
0.000233
0.000248
0.000254
0.000267
0.000272
0.000278
0.000319
0.000542
0.000431
0.000241
0.000282
0.000186
0.000056
0.000205
0.000248
0.000263
0.000258
0.000241
0.000338
0.000525
0.000449
0.000359
0.000687
0.000266
0.000207
0.000248
0.000261
0.000248
0.000264
0.000280
0.000272
0.000480
0.000474
0.001452
0.000300
0.000263
0.000260
0.000295
0.000265
0.000337
0.000457
0.000354
0.000342
0.000164
0.000055
0.000203
0.000226
0.000248
0.000243
0.000241
0.000258
0.000272
0.000250
0.000254
0.000336
0.000330
0.000382
0.000272
0.000358
0.000365
0.000340
0.000243
0.000245
0.000274
0.000264
0.000237
0.000255
0.000276
0.000267
0.000299
0.000433
0.000432
0.000332
0.000222
0.000264
0.000190
0.000055
0.000206
0.000252
0.000255
0.000253
0.000244
0.000236
0.000469
0.000218
0.000230
0.000253
0.000250
0.000251
0.000259
0.000254
0.000254
0.000266
0.000258
0.000265
0.000273
0.000252
0.000278
0.000275
0.000290
0.000247
0.000264
0.000282
0.000266
0.000266
0.000261
0.000280
0.000159
0.000055
0.000219
0.000249
0.000352
0.000346
0.000389
0.000258
0.000230
0.000244
0.000261
0.000253
0.000248
0.000254
0.000266
0.000261
0.000239
0.000245
0.000244
0.000262
0.000311
0.000317
0.000426
0.000411
0.000231
0.000265
0.000265
0.000250
0.000266
0.000252
0.000274
0.000278
0.000197
0.000055
0.000348
0.000444
0.000366
0.000211
0.000256
0.000253
0.000414
0.000212
0.000240
0.000259
0.000251
0.000344
0.000306
0.000465
0.001842
0.000252
0.000235
0.000249
0.000282
0.000243
0.000382
0.000376
0.000663
0.000267
0.000236
0.000262
0.000270
0.000432
0.000275
0.000279
0.000160
0.000055
0.000306
0.000363
0.000316
0.000276
0.000490
0.000207
0.000238
0.000245
0.000259
0.000239
0.000262
0.000248
0.000260
0.000354
0.000332
0.000525
0.000213
0.000249
0.000264
0.000254
0.000264
0.000317
0.000228
0.000287
0.000280
0.000465
0.000486
0.000414
0.000450
0.000228
0.000206
0.000056
0.000225
0.000232
0.000255
0.000225
0.000251
0.000258
0.000267
0.000268
0.000378
0.000369
0.000497
0.000265
0.000206
0.000262
0.000268
0.000279
0.000302
0.000236
0.000276
0.000276
0.000237
0.000270
0.000569
0.000343
0.000299
0.000203
0.000260
0.000437
0.000415
0.000320
0.000167
0.000056
0.000191
0.000265
0.000410
0.000297
0.000412
0.000200
0.000238
0.000249
0.000268
0.000245
0.000266
0.000265
0.000223
0.000253
0.000258
0.000296
0.000388
0.000376
0.000330
0.000290
0.000500
0.000228
0.000281
0.000277
0.000306
0.000278
0.000258
0.000263
0.000482
0.000555
0.000148
0.000058
0.000216
0.000229
0.000249
0.000251
0.000240
0.000478
0.000214
0.000255
0.000266
0.000393
0.000412
0.000625
0.000195
0.000236
0.000242
0.000252
0.000260
0.000240
0.000262
0.000253
0.000261
0.000267
0.000460
0.000301
0.000377
0.000423
0.000286
0.000340
0.000278
0.000257
0.000173
0.000055
0.000222
0.000232
0.000266
0.000481
0.000337
0.000274
0.000272
0.000231
0.000226
0.000262
0.000251
0.000250
0.000249
0.000269
0.000243
0.000263
0.000246
0.000244
0.000297
0.000392
0.000455
0.000430
0.000208
0.000252
0.000280
0.000277
0.000260
0.000258
0.000263
0.000265
0.000190
0.000055
0.000347
0.000326
0.000445
0.000257
0.000203
0.000256
0.000327
0.000453
0.000279
0.000217
0.000239
0.000276
0.000250
0.000475
0.000401
0.000318
0.000221
0.000229
0.000257
0.000260
0.000272
0.000264
0.000263
0.000270
0.000267
0.000338
0.000311
0.000483
0.000281
0.000252
0.000177
0.000055
0.000212
0.000240
0.000245
0.000255
0.000249
0.000263
0.000234
0.000255
0.000247
0.000249
0.000268
0.000237
0.000264
0.001447
0.000237
0.000256
0.000258
0.000245
0.000278
0.000276
0.000263
0.000240
0.000274
0.000253
0.000267
0.000272
0.000267
0.000264
0.000263
0.000274
0.000186
0.000055
0.000194
0.000236
0.000247
0.000251
0.000236
0.000248
0.000258
0.000259
0.000230
0.000250
0.000248
0.000259
0.000255
0.000255
0.000251
0.000263
0.000248
0.000255
0.000277
0.000251
0.000257
0.000260
0.000247
0.000257
0.001291
0.000272
0.000658
0.000322
0.000358
0.000242
0.000193
0.000055
0.000195
0.000239
0.000258
0.000233
0.000416
0.000227
0.000242
0.000247
0.000254
0.000371
0.000454
0.000325
0.000237
0.000237
0.000256
0.000265
0.000257
0.000263
0.000244
0.000262
0.000258
0.000254
0.000261
0.000465
0.000479
0.000444
0.000223
0.000265
0.001365
0.000246
0.000178
0.000056
0.000306
0.000389
0.000365
0.000246
0.000211
0.000231
0.000229
0.000253
0.000262
0.000251
0.000251
0.000261
0.000288
0.000359
0.000454
0.000381
0.000331
0.000225
0.000251
0.000261
0.000260
0.000278
0.000258
0.000266
0.000267
0.000260
0.000442
0.000428
0.000368
0.000395
0.000146
0.000055
0.000191
0.000240
0.001258
0.000428
0.000275
0.000517
0.000336
0.000488
0.000288
0.000335
0.000225
0.000225
0.000259
0.000255
0.000251
0.000263
0.000292
0.000560
0.000382
0.000371
0.000252
0.000249
0.000250
0.000512
0.000229
0.000272
0.000255
0.000280
0.000292
0.000709
0.000139
0.000055
0.000384
0.000335
0.000200
0.000228
0.001572
0.000494
0.000270
0.000236
0.000248
0.000249
0.000231
0.000238
0.000245
0.000269
0.000264
0.000245
0.000239
0.000276
0.000436
0.000354
0.000449
0.000243
0.000253
0.000255
0.000261
0.000275
0.000267
0.000239
0.000262
0.000276
0.000207
0.000056
0.000383
0.000336
0.000222
0.000239
0.000247
0.000241
0.000266
0.000229
0.000234
0.000225
0.001399
0.000506
0.000246
0.000245
0.000241
0.000254
0.000271
0.000260
0.000235
0.000278
0.000274
0.000245
0.000260
0.000410
0.000543
0.000338
0.000234
0.000268
0.000272
0.000287
0.000165
0.000056
0.000208
0.000409
0.000236
0.000225
0.000520
0.000261
0.000395
0.000299
0.000460
0.000207
0.000230
0.000252
0.000262
0.000267
0.000257
0.001477
0.000299
0.000287
0.000244
0.000267
0.000285
0.000245
0.000250
0.000259
0.000260
0.000266
0.000482
0.000458
0.000267
0.000256
0.000159
0.000055
0.000210
0.000234
0.000253
0.000236
0.000229
0.000261
0.000241
0.000259
0.000303
0.000366
0.000418
0.000279
0.000257
0.000242
0.000239
0.000277
0.000278
0.000258
0.000271
0.000223
0.000256
0.000259
0.001315
0.000261
0.000253
0.000249
0.000258
0.000263
0.000258
0.000260
0.000189
0.000055
0.000210
0.000362
0.000366
0.000344
0.000252
0.000240
0.000253
0.000265
0.000251
0.000256
0.000252
0.000274
0.000236
0.000253
0.000259
0.000261
0.000263
0.000268
0.000270
0.000249
0.000248
0.000271
0.000266
0.000282
0.000287
0.000266
0.000271
0.000256
0.000256
0.000448
0.001365
0.000055
0.000210
0.000234
0.000240
0.000242
0.000251
0.000262
0.000250
0.000227
0.000243
0.000253
0.000272
0.000254
0.000253
0.000242
0.000248
0.000249
0.001729
0.000246
0.000255
0.000258
0.000244
0.000263
0.000272
0.000260
0.000269
0.000256
0.000267
0.000277
0.000276
0.000253
0.000232
0.000055
0.000306
0.000305
0.001284
0.000221
0.000233
0.000243
0.000262
0.000250
0.000260
0.000256
0.000230
0.000374
0.000361
0.000455
0.000275
0.000230
0.000250
0.000252
0.000258
0.000262
0.000250
0.000267
0.000270
0.000275
0.000268
0.000354
0.000380
0.000398
0.000302
0.000242
0.000192
0.000057
0.000222
0.000254
0.000240
0.000252
0.000250
0.000219
0.000239
0.000247
0.000482
0.001288
0.000271
0.000208
0.000251
0.000273
0.000253
0.000260
0.000259
0.000254
0.000309
0.000415
0.000478
0.000181
0.000232
0.000249
0.000276
0.000278
0.000280
0.000279
0.000268
0.000276
0.000191
0.000055
0.000369
0.000235
0.000438
0.000225
0.000229
0.000238
0.000243
0.000281
0.000260
0.000250
0.000230
0.000252
0.000456
0.000556
0.000405
0.001465
0.000250
0.000273
0.000328
0.000341
0.000487
0.000440
0.000516
0.000342
0.000215
0.000265
0.000271
0.000274
0.000257
0.000277
0.000198
0.000055
0.000213
0.000288
0.000422
0.000598
0.000226
0.000239
0.000241
0.000227
0.000254
0.000257
0.000249
0.000268
0.000264
0.000238
0.000274
0.000293
0.000342
0.000429
0.000393
0.001321
0.000262
0.000258
0.000262
0.000254
0.000520
0.000387
0.000372
0.000249
0.000301
0.000253
0.000193
0.000056
0.000199
0.000238
0.000243
0.000243
0.000247
0.000277
0.000447
0.000510
0.000262
0.000210
0.000240
0.000265
0.000267
0.000261
0.000258
0.000265
0.000256
0.000263
0.000269
0.000370
0.000362
0.000435
0.000318
0.001405
0.000361
0.000233
0.000275
0.000475
0.000391
0.000348
0.000323
0.000055
0.000209
0.000250
0.000228
0.000246
0.000251
0.000253
0.001683
0.000236
0.000222
0.000238
0.000257
0.000245
0.000262
0.000325
0.000328
0.000282
0.000290
0.000420
0.000473
0.000299
0.000319
0.000277
0.000226
0.001458
0.000302
0.000384
0.000385
0.000446
0.000332
0.000291
0.000158
0.000055
0.000233
0.000240
0.000253
0.000265
0.000239
0.000257
0.001707
0.000244
0.000240
0.000263
0.000327
0.000419
0.001428
0.000367
0.000387
0.000240
0.000263
0.000239
0.000268
0.000272
0.001561
0.000539
0.000412
0.000269
0.000251
0.000240
0.000263
0.000282
0.000247
0.000263
0.000178
0.000056
0.000203
0.000246
0.000271
0.000241
0.000261
0.000302
0.000254
0.000267
0.000242
0.000248
0.000250
0.000250
0.000268
0.000271
0.000243
0.001504
0.000278
0.000227
0.000268
0.000276
0.000277
0.000274
0.000416
0.001259
0.000273
0.000238
0.000280
0.000253
0.000391
0.000244
0.000204
0.000055
0.000191
0.000247
0.000220
0.000248
0.000237
0.000228
0.000232
0.001692
0.000257
0.000228
0.000250
0.000369
0.000226
0.000227
0.000255
0.001376
0.000234
0.000266
0.000273
0.000244
0.000258
0.000351
0.000278
0.001309
0.000282
0.000245
0.000254
0.000266
0.001385
0.000279
0.000291
0.000056
0.000341
0.000265
0.000211
0.000236
0.000248
0.000244
0.000263
0.000266
0.000268
0.000245
0.000262
0.000265
0.000252
0.000264
0.000259
0.001529
0.000244
0.000275
0.000259
0.000244
0.000288
0.000258
0.000248
0.001495
0.000369
0.000229
0.000265
0.001272
0.000274
0.000246
0.000219
0.000056
0.000230
0.000388
0.000342
0.000210
0.000236
0.000242
0.000259
0.000255
0.000264
0.000275
0.000238
0.000257
0.000259
0.000337
0.000417
0.001159
0.000222
0.000255
0.000272
0.000270
0.000233
0.000243
0.000252
0.000326
0.001274
0.000261
0.000235
0.000262
0.000257
0.001341
0.000320
0.000056
0.000267
0.000258
0.000229
0.000234
0.000242
0.000249
0.000245
0.000246
0.000281
0.000248
0.000241
0.000247
0.000258
0.000321
0.000408
0.001481
0.000224
0.000241
0.000306
0.000508
0.000283
0.000411
0.001333
0.000291
0.000239
0.000272
0.000252
0.001312
0.000374
0.000442
0.000295
0.000057
0.000219
0.000254
0.000258
0.000256
0.000252
0.000248
0.000275
0.000246
0.000262
0.000264
0.000341
0.000443
0.001340
0.000238
0.000260
0.000263
0.000277
0.000230
0.000248
0.000235
0.000339
0.001236
0.000259
0.000254
0.000249
0.000266
0.001538
0.000393
0.000477
0.000221
0.000195
0.000055
0.000206
0.000228
0.000253
0.000232
0.000254
0.000266
0.000246
0.000353
0.000370
0.000469
0.000247
0.001492
0.000208
0.000246
0.000264
0.000256
0.000260
0.000305
0.001666
0.000270
0.000405
0.000321
0.001318
0.000343
0.000281
0.000322
0.000262
0.000255
0.000265
0.000269
0.000193
0.000056
0.000209
0.000232
0.000337
0.000231
0.000325
0.000540
0.000363
0.000215
0.001476
0.000228
0.000388
0.000269
0.000212
0.000310
0.000412
0.001290
0.000278
0.000242
0.000242
0.000259
0.001514
0.000416
0.000266
0.000259
0.000265
0.000247
0.000460
0.000337
0.000232
0.000240
0.000266
0.000055
0.000283
0.000376
0.000357
0.000214
0.000219
0.001519
0.000205
0.000247
0.000266
0.000279
0.000267
0.000239
0.000314
0.001464
0.000268
0.000228
0.000430
0.001189
0.000405
0.000377
0.000407
0.000235
0.000236
0.000260
0.000277
0.000239
0.000450
0.000228
0.000266
0.000283
0.000199
0.000056
0.000218
0.000227
0.000380
0.000403
0.001259
0.000275
0.000311
0.000233
0.000258
0.000238
0.000247
0.000298
0.001517
0.000251
0.000242
0.000240
0.001375
0.000302
0.000437
0.000360
0.000424
0.000230
0.000253
0.000252
0.000266
0.000280
0.000269
0.000258
0.000275
0.000247
0.000194
0.000056
0.000223
0.000363
0.001494
0.000215
0.000266
0.000275
0.000235
0.000247
0.000275
0.000356
0.001407
0.000220
0.000255
0.000260
0.000261
0.001309
0.000658
0.000302
0.000330
0.000404
0.000287
0.000247
0.000273
0.000255
0.000267
0.000291
0.000275
0.000358
0.000330
0.000474
0.001390
0.000055
0.000198
0.000245
0.000247
0.000226
0.000248
0.000410
0.000482
0.001304
0.000240
0.000244
0.000247
0.001434
0.000369
0.000392
0.000222
0.000405
0.000254
0.000245
0.000267
0.000276
0.000237
0.000271
0.000285
0.000252
0.000254
0.000265
0.000465
0.000466
0.001505
0.000220
0.000187
0.000055
0.000202
0.000252
0.000337
0.000532
0.001265
0.000276
0.000251
0.000259
0.000244
0.000251
0.000251
0.000317
0.000309
0.000492
0.000343
0.000235
0.000253
0.000280
0.000242
0.000275
0.000255
0.000264
0.000266
0.000265
0.000300
0.000381
0.000477
0.000349
0.000296
0.001403
0.000183
0.000057
0.000205
0.000239
0.000277
0.000456
0.000332
0.000329
0.000297
0.000334
0.000270
0.000276
0.000236
0.000269
0.000252
0.000306
0.000231
0.000284
0.000629
0.000260
0.000306
0.000366
0.000280
0.000402
0.000224
0.000266
0.000245
0.000270
0.000247
0.000299
0.000370
0.000481
0.000289
0.000056
0.000193
0.001399
0.000242
0.000335
0.000410
0.000493
0.000286
0.000321
0.000237
0.000226
0.000264
0.000243
0.000265
0.000269
0.000268
0.000245
0.000262
0.001400
0.000223
0.000257
0.000254
0.000266
0.000269
0.000286
0.000268
0.000258
0.000273
0.000248
0.000360
0.000392
0.000254
0.000055
0.000213
0.000258
0.000220
0.001487
0.000346
0.000225
0.000225
0.000250
0.000231
0.000251
0.000245
0.000274
0.000249
0.000251
0.000272
0.000249
0.000267
0.000249
0.000267
0.000257
0.001473
0.000201
0.000228
0.000292
0.000244
0.000249
0.000270
0.000266
0.000273
0.000490
0.000343
0.000055
0.000206
0.000233
0.000392
0.000278
0.000251
0.000256
0.001536
0.000345
0.000296
0.000219
0.000258
0.000315
0.000332
0.000231
0.000242
0.000243
0.000240
0.000264
0.000266
0.000255
0.000507
0.000458
0.001171
0.000262
0.000216
0.000260
0.000268
0.000256
0.000277
0.000263
0.000325
0.000055
0.000227
0.000344
0.000211
0.000238
0.000249
0.000244
0.000242
0.000229
0.000287
0.001603
0.000366
0.000299
0.000235
0.000255
0.000253
0.000245
0.000279
0.000254
0.000278
0.000291
0.000327
0.000464
0.000453
0.001362
0.000238
0.000264
0.000275
0.000262
0.000273
0.000277
0.000580
0.000055
0.000276
0.000241
0.000231
0.000246
0.000226
0.000237
0.000261
0.000275
0.000247
0.001559
0.000365
0.000257
0.000266
0.000258
0.000449
0.000276
0.000521
0.000376
0.000295
0.000345
0.000430
0.000477
0.001252
0.000258
0.000229
0.000264
0.001755
0.000414
0.000610
0.000316
0.000143
0.000055
0.000210
0.000236
0.000234
0.000240
0.000256
0.000242
0.000243
0.000618
0.000372
0.000430
0.000294
0.000214
0.000236
0.000264
0.000266
0.000260
0.000251
0.000246
0.000254
0.000276
0.000247
0.000426
0.001358
0.000232
0.000247
0.000275
0.001919
0.000362
0.000372
0.000349
0.000157
0.000055
0.000241
0.000244
0.000246
0.001601
0.000397
0.000209
0.000232
0.000260
0.000256
0.000296
0.000397
0.000346
0.000361
0.000274
0.000261
0.000539
0.000402
0.001196
0.000282
0.000222
0.000258
0.000261
0.000273
0.000512
0.000554
0.000430
0.000242
0.000260
0.000273
0.000281
0.000193
0.000055
0.000186
0.000233
0.000246
0.001588
0.000203
0.000228
0.000243
0.000255
0.000238
0.000259
0.000251
0.000284
0.000250
0.000274
0.000235
0.000399
0.000463
0.000313
0.001388
0.000237
0.000261
0.000265
0.000255
0.000265
0.000374
0.000484
0.000439
0.000277
0.000289
0.000211
0.000456
0.000056
0.000199
0.000246
0.000247
0.001525
0.000315
0.000222
0.000263
0.000250
0.000251
0.000253
0.000256
0.000250
0.000279
0.000259
0.000386
0.000490
0.001399
0.000749
0.000278
0.000313
0.000267
0.000226
0.000251
0.000271
0.001676
0.000810
0.000228
0.000262
0.000275
0.000289
0.000190
0.000056
0.000205
0.000231
0.000255
0.000242
0.000259
0.000241
0.000245
0.000255
0.000244
0.000227
0.000290
0.000284
0.000249
0.000252
0.000259
0.000250
0.000272
0.001599
0.000700
0.000360
0.000335
0.000229
0.000242
0.000286
0.000261
0.000286
0.000255
0.000251
0.001383
0.000412
0.000298
0.000055
0.000187
0.000233
0.000252
0.000258
0.000257
0.000229
0.000255
0.000247
0.000255
0.000265
0.000342
0.000374
0.000415
0.000338
0.000214
0.000247
0.000264
0.001388
0.000684
0.000477
0.000364
0.000253
0.000231
0.000248
0.000274
0.000244
0.000263
0.000263
0.001489
0.000450
0.000174
0.000056
0.000184
0.000228
0.000246
0.000243
0.000253
0.000251
0.000239
0.000248
0.000268
0.000260
0.000415
0.000328
0.000341
0.000215
0.000242
0.000244
0.000263
0.000257
0.001587
0.000612
0.000464
0.000324
0.000231
0.000255
0.000261
0.000258
0.000273
0.000279
0.000267
0.001374
0.000313
0.000056
0.000220
0.000218
0.000236
0.000250
0.000257
0.000244
0.000269
0.000295
0.000363
0.000421
0.000406
0.000364
0.000362
0.000215
0.000247
0.000251
0.000277
0.000251
0.000274
0.001931
0.000316
0.000250
0.000427
0.000263
0.000233
0.000261
0.000276
0.000258
0.000272
0.000288
0.000430
0.000057
0.000255
0.000265
0.000235
0.000258
0.000234
0.000250
0.000229
0.000235
0.000271
0.000250
0.000243
0.000235
0.000273
0.000528
0.000388
0.000451
0.000226
0.000273
0.000246
0.000252
0.000262
0.000286
0.001466
0.001048
0.000223
0.000251
0.000276
0.000259
0.000274
0.000251
0.000195
0.000055
0.000196
0.001410
0.000227
0.000216
0.000251
0.000234
0.000255
0.000234
0.000244
0.000246
0.000264
0.000256
0.000240
0.000455
0.000322
0.000472
0.000232
0.000246
0.000286
0.000251
0.000264
0.000233
0.000265
0.000264
0.001328
0.000680
0.000313
0.000390
0.000427
0.000344
0.000290
0.000055
0.000201
0.000244
0.001421
0.000254
0.000208
0.000274
0.000212
0.000253
0.000259
0.000260
0.000243
0.000246
0.000292
0.000321
0.000608
0.000276
0.000227
0.000271
0.000333
0.000236
0.000229
0.000270
0.000231
0.000277
0.000267
0.001538
0.000761
0.000280
0.000272
0.000279
0.000189
0.000056
0.000214
0.000233
0.000477
0.000320
0.001311
0.000234
0.000253
0.000228
0.000232
0.000247
0.000251
0.000254
0.000228
0.000238
0.000261
0.000250
0.000268
0.000238
0.000256
0.000255
0.000264
0.000266
0.000301
0.000335
0.000220
0.000264
0.000261
0.001465
0.000262
0.000246
0.000167
0.000055
0.000191
0.000254
0.000233
0.000305
0.000359
0.000337
0.000389
0.000264
0.001580
0.000215
0.000310
0.000470
0.000381
0.000226
0.000430
0.000237
0.000238
0.000267
0.000274
0.000262
0.000286
0.000263
0.000256
0.000266
0.000251
0.000415
0.000386
0.000339
0.001586
0.000221
0.000189
0.000056
0.000213
0.000245
0.000245
0.000246
0.000245
0.000244
0.000258
0.000281
0.000437
0.002044
0.000229
0.000239
0.000257
0.000262
0.000259
0.000245
0.000272
0.000254
0.000280
0.000430
0.000366
0.000449
0.001449
0.000255
0.000521
0.000232
0.001776
0.000238
0.000266
0.001523
0.000160
0.000072
0.000334
0.000401
0.000464
0.000240
0.000267
0.000225
0.000260
0.000272
0.000260
0.000227
0.000253
0.000343
0.000465
0.000289
0.000427
0.000249
0.000227
0.001575
0.000245
0.000561
0.001880
0.000288
0.000241
0.001580
0.001978
0.000745
0.000277
0.000252
0.000448
0.000298
0.000403
0.000055
0.000205
0.000248
0.000246
0.000246
0.001423
0.001727
0.001081
0.000213
0.000228
0.001583
0.001980
0.000216
0.000229
0.000422
0.000270
0.000522
0.000298
0.000477
0.000208
0.000242
0.000250
0.000247
0.000285
0.001582
0.001216
0.001428
0.000261
0.000301
0.000255
0.000343
0.000320
0.000055
0.000225
0.000217
0.000240
0.000246
0.000229
0.000246
0.000246
0.000250
0.000262
0.000245
0.000246
0.000309
0.000525
0.000368
0.000284
0.000264
0.000265
0.000258
0.000270
0.000264
0.000251
0.000264
0.001496
0.000499
0.002117
0.000223
0.000302
0.000324
0.000411
0.000404
0.000181
0.000056
0.000231
0.000453
0.000358
0.000316
0.000191
0.000232
0.000252
0.000243
0.000240
0.000250
0.000242
0.000263
0.000260
0.001607
0.001360
0.001220
0.000284
0.000228
0.000250
0.000269
0.000285
0.000278
0.000244
0.000252
0.002210
0.000250
0.000238
0.000308
0.000322
0.000305
0.000218
0.000056
0.000222
0.000358
0.000535
0.000331
0.000231
0.000241
0.000247
0.000266
0.001912
0.001416
0.000223
0.000347
0.000373
0.000410
0.000250
0.000228
0.000249
0.000273
0.000275
0.000253
0.000253
0.000264
0.000472
0.000239
0.000268
0.000270
0.000249
0.000276
0.000285
0.000245
0.000204
0.000055
0.000201
0.000252
0.000244
0.000241
0.000252
0.000275
0.001540
0.001418
0.001320
0.000262
0.000217
0.000237
0.000271
0.000256
0.000252
0.000249
0.000249
0.002106
0.000255
0.000226
0.000268
0.000265
0.000257
0.000267
0.000255
0.000261
0.000273
0.000252
0.000280
0.000250
0.000171
0.000056
0.000197
0.002706
0.001370
0.000226
0.000302
0.000300
0.000227
0.000268
0.000257
0.000245
0.000251
0.000246
0.000231
0.000253
0.000268
0.000254
0.000267
0.000277
0.000262
0.000252
0.000267
0.000284
0.000268
0.000267
0.000244
0.000246
0.000269
0.000272
0.000259
0.000262
0.000370
0.000056
0.001542
0.000257
0.001245
0.000229
0.000221
0.000238
0.000264
0.000252
0.000239
0.000275
0.000450
0.000369
0.000284
0.000203
0.000256
0.002144
0.000252
0.000243
0.000261
0.000590
0.000334
0.000264
0.000224
0.000265
0.000251
0.000246
0.000266
0.000277
0.000271
0.001603
0.001271
0.000056
0.000206
0.000226
0.000266
0.000441
0.000357
0.000276
0.000206
0.000238
0.000247
0.000261
0.000261
0.000248
0.000228
0.000253
0.000263
0.000240
0.000339
0.000594
0.000375
0.000240
0.000233
0.000271
0.000297
0.000227
0.000260
0.000242
0.000267
0.000279
0.000270
0.000327
0.000335
0.000057
0.001121
0.000283
0.000319
0.000472
0.000242
0.000226
0.000229
0.000238
0.000247
0.002295
0.000438
0.000322
0.000219
0.000376
0.000284
0.000261
0.000270
0.000242
0.000275
0.000227
0.000253
0.000356
0.000532
0.000510
0.001803
0.001329
0.000515
0.000530
0.000226
0.000283
0.000193
0.000056
0.000237
0.000338
0.000246
0.000245
0.000242
0.000226
0.000258
0.000250
0.000270
0.000234
0.000254
0.000232
0.000242
0.000258
0.000423
0.000472
0.001862
0.001296
0.000468
0.000456
0.000427
0.000240
0.000243
0.000265
0.002175
0.000513
0.000383
0.000242
0.000267
0.000281
0.000192
0.000057
0.000228
0.000219
0.000260
0.000238
0.000242
0.000295
0.000463
0.000381
0.000234
0.000236
0.000246
0.000250
0.000263
0.002108
0.000356
0.000395
0.000221
0.000250
0.000261
0.000267
0.000247
0.002451
0.000349
0.000214
0.000260
0.000258
0.000257
0.000265
0.000286
0.000281
0.000188
0.000055
0.000197
0.000389
0.000501
0.000392
0.000285
0.000190
0.000217
0.000256
0.000261
0.000252
0.001959
0.000384
0.000271
0.000298
0.000221
0.000259
0.000278
0.000239
0.002209
0.000445
0.000225
0.000261
0.000281
0.000251
0.000251
0.000254
0.000282
0.000250
0.000268
0.000259
0.000188
0.000056
0.000223
0.000235
0.000254
0.000217
0.000248
0.000256
0.000243
0.000237
0.000238
0.002178
0.000222
0.000288
0.000217
0.000426
0.000233
0.000245
0.000279
0.000289
0.000250
0.000257
0.001966
0.000305
0.000364
0.000393
0.000383
0.000380
0.000306
0.000250
0.000246
0.000259
0.000202
0.000054
0.000188
0.000244
0.000236
0.000245
0.000253
0.000327
0.000220
0.002308
0.000229
0.000232
0.000263
0.000260
0.000241
0.000244
0.000302
0.002126
0.000592
0.000227
0.000252
0.000248
0.000253
0.000261
0.000287
0.000286
0.000243
0.000257
0.000284
0.000252
0.000266
0.000269
0.000186
0.000055
0.001825
0.001446
0.000204
0.000221
0.000246
0.000256
0.000249
0.000280
0.000427
0.000297
0.002190
0.000261
0.000238
0.000265
0.000289
0.000447
0.000465
0.000294
0.000220
0.000242
0.000251
0.000265
0.000269
0.000221
0.000255
0.000271
0.000270
0.000266
0.000333
0.000715
0.000244
0.000057
0.000196
0.000253
0.000248
0.000267
0.000249
0.000249
0.000256
0.000238
0.001467
0.002128
0.000586
0.000293
0.000392
0.000690
0.000369
0.000222
0.000253
0.000248
0.000268
0.000255
0.000258
0.000239
0.000256
0.000273
0.001823
0.001457
0.000288
0.000324
0.000233
0.000337
0.000412
0.000056
0.001945
0.000223
0.000227
0.000228
0.000306
0.000453
0.000338
0.000308
0.000303
0.000208
0.000243
0.000251
0.000255
0.000261
0.000257
0.000264
0.000248
0.000266
0.001837
0.000245
0.000237
0.000249
0.000274
0.000283
0.000271
0.000260
0.001508
0.000288
0.000261
0.000247
0.000171
0.000056
0.000197
0.000241
0.000237
0.000243
0.000255
0.000235
0.000290
0.000427
0.000464
0.000221
0.000201
0.000262
0.000242
0.000407
0.000363
0.000308
0.000228
0.000241
0.000267
0.000420
0.000408
0.000420
0.000291
0.000230
0.000264
0.000255
0.000253
0.000270
0.000279
0.000262
0.000201
0.000055
0.001448
0.000423
0.000237
0.001927
0.000276
0.000411
0.000448
0.000319
0.000222
0.000249
0.000253
0.000243
0.000248
0.000244
0.000267
0.000261
0.000436
0.000301
0.000445
0.000338
0.000344
0.000234
0.000250
0.000267
0.000277
0.000271
0.000257
0.000280
0.000371
0.000393
0.001423
0.000054
0.000208
0.000225
0.002074
0.000369
0.000243
0.000256
0.000262
0.000247
0.000264
0.000257
0.000216
0.000251
0.000256
0.000264
0.000254
0.000355
0.000716
0.001759
0.000235
0.000246
0.000253
0.000275
0.000365
0.000436
0.001585
0.000282
0.000363
0.001975
0.000221
0.000250
0.000186
0.000055
0.000199
0.000235
0.000234
0.000241
0.000229
0.000251
0.000253
0.000284
0.000327
0.000283
0.000381
0.000353
0.000335
0.000304
0.000231
0.000273
0.000256
0.000244
0.000266
0.000255
0.000301
0.000284
0.000269
0.000259
0.000276
0.001505
0.000284
0.000405
0.002090
0.000203
0.000169
0.000055
0.000222
0.000239
0.000236
0.000249
0.000485
0.000209
0.000252
0.000322
0.000457
0.000240
0.000301
0.000202
0.000268
0.000267
0.000270
0.000331
0.000440
0.000408
0.000256
0.000395
0.000621
0.000347
0.001589
0.000229
0.000259
0.001991
0.000322
0.000246
0.000242
0.000298
0.000182
0.000057
0.000217
0.000240
0.000228
0.000243
0.000249
0.000271
0.000255
0.000269
0.000252
0.000253
0.001829
0.000320
0.000372
0.000318
0.000425
0.000364
0.000353
0.001498
0.000244
0.000322
0.002049
0.000588
0.000258
0.000237
0.000268
0.000262
0.000503
0.000222
0.000263
0.000274
0.000194
0.000056
0.000233
0.000298
0.000423
0.000297
0.000203
0.000234
0.000262
0.000269
0.000251
0.000290
0.000225
0.000254
0.000258
0.000266
0.000369
0.001489
0.000317
0.000208
0.000277
0.001907
0.000368
0.000282
0.000246
0.000271
0.000246
0.000277
0.000268
0.000264
0.000250
0.000268
0.000203
0.000055
0.000295
0.000333
0.002060
0.000250
0.000261
0.000215
0.000238
0.000297
0.000413
0.000464
0.001310
0.000450
0.000278
0.002077
0.000208
0.000247
0.000265
0.000279
0.000255
0.000248
0.000279
0.000295
0.000253
0.000311
0.000516
0.000393
0.000304
0.002234
0.000490
0.000482
0.000389
0.000056
0.000204
0.000225
0.000243
0.001968
0.000233
0.000223
0.000248
0.000240
0.000239
0.000259
0.000243
0.000263
0.000242
0.000300
0.000426
0.001476
0.000244
0.000246
0.000267
0.000260
0.000241
0.000249
0.000262
0.000279
0.000339
0.000407
0.000494
0.000241
0.001595
0.000295
0.000151
0.000055
0.000206
0.000223
0.000244
0.000233
0.000255
0.000247
0.000270
0.000235
0.000255
0.000446
0.000308
0.001399
0.000254
0.000208
0.000246
0.000269
0.000251
0.000253
0.000501
0.000285
0.000452
0.000396
0.000230
0.001570
0.000221
0.000267
0.000282
0.000285
0.000260
0.000271
0.000183
0.000057
0.000218
0.000230
0.000261
0.000267
0.000250
0.000242
0.000237
0.000245
0.000270
0.000228
0.000248
0.000261
0.000251
0.001481
0.000370
0.000207
0.000254
0.000263
0.000327
0.000262
0.000434
0.000215
0.000238
0.000255
0.000270
0.000264
0.000259
0.001414
0.000285
0.000224
0.000167
0.000056
0.000205
0.000227
0.000263
0.000262
0.000251
0.000236
0.000251
0.000261
0.000221
0.000263
0.000245
0.000257
0.000226
0.000286
0.000517
0.000214
0.000275
0.000248
0.001641
0.000238
0.000242
0.000257
0.000283
0.000286
0.000454
0.000293
0.000453
0.000259
0.000272
0.001593
0.000171
0.000056
0.000284
0.000417
0.000341
0.000266
0.000232
0.000215
0.000246
0.000274
0.000252
0.000237
0.000242
0.000243
0.001459
0.000301
0.000297
0.000226
0.000251
0.000255
0.000268
0.000269
0.000246
0.000240
0.000265
0.000268
0.000278
0.000308
0.000492
0.000368
0.000262
0.000255
0.000196
0.000055
0.000264
0.000284
0.000413
0.000259
0.000400
0.000263
0.000247
0.000250
0.000249
0.000259
0.000242
0.000224
0.000256
0.000250
0.001248
0.000300
0.000238
0.000257
0.000263
0.000273
0.000239
0.000263
0.000254
0.000260
0.000257
0.000260
0.000283
0.000699
0.000458
0.000234
0.000188
0.000055
0.001546
0.000217
0.000247
0.000320
0.000458
0.000376
0.000219
0.000258
0.000264
0.000266
0.000235
0.000255
0.000272
0.000268
0.000263
0.001522
0.000256
0.000284
0.000265
0.000256
0.000261
0.000251
0.000265
0.000257
0.000264
0.000258
0.000421
0.000377
0.000366
0.000235
0.000198
0.000056
0.000218
0.000245
0.000232
0.001695
0.000349
0.000339
0.000234
0.000242
0.000251
0.000267
0.000276
0.000255
0.000248
0.000261
0.000235
0.000269
0.000668
0.001051
0.000244
0.000238
0.001551
0.000301
0.000577
0.000385
0.000305
0.000237
0.000271
0.000458
0.000251
0.000246
0.000188
0.000055
0.000282
0.000219
0.000245
0.000251
0.000246
0.000255
0.000238
0.000256
0.000272
0.000222
0.000256
0.000297
0.000338
0.000447
0.001654
0.001544
0.000307
0.000497
0.000378
0.000226
0.000225
0.000259
0.000248
0.000264
0.000251
0.000264
0.000264
0.000266
0.001520
0.000353
0.000146
0.000055
0.000188
0.000359
0.000354
0.000325
0.000227
0.000225
0.000245
0.000397
0.000394
0.000345
0.002181
0.000326
0.000777
0.000405
0.000486
0.000288
0.000315
0.000404
0.000319
0.000275
0.000390
0.000247
0.001820
0.000258
0.000223
0.000257
0.000259
0.000246
0.000282
0.000249
0.000199
0.000055
0.000201
0.000254
0.000250
0.000255
0.000245
0.001655
0.000880
0.000998
0.000211
0.000226
0.000263
0.000258
0.000263
0.000261
0.000250
0.000251
0.000257
0.000260
0.000265
0.000280
0.001433
0.000308
0.000261
0.000228
0.000229
0.000264
0.000261
0.000282
0.000257
0.000288
0.001896
0.000069
0.000177
0.000229
0.001546
0.000883
0.000336
0.000389
0.000227
0.000241
0.000237
0.000257
0.000244
0.000255
0.000247
0.001981
0.000469
0.000226
0.000232
0.000259
0.000269
0.000258
0.000192
