0.000099
0.018480
0.002876
0.000320
0.000233
0.000242
0.000297
0.000250
0.000325
0.000299
0.000233
0.000417
0.000570
0.000468
0.000303
0.000310
0.000296
0.000401
0.000372
0.000414
0.000301
0.001871
0.000495
0.000437
0.000263
0.000292
0.000301
0.000421
0.000413
0.000364
0.000476
0.000307
0.000056
0.000203
0.000225
0.000268
0.000262
0.000278
0.000270
0.000257
0.000257
0.000272
0.000275
0.000432
0.000496
0.000286
0.000288
0.000397
0.000384
0.000330
0.000248
0.000230
0.001769
0.000240
0.000238
0.000499
0.000249
0.000242
0.000244
0.000276
0.000301
0.000278
0.000336
0.000428
0.000056
0.000261
0.000218
0.000258
0.000253
0.000251
0.000248
0.000282
0.000242
0.000281
0.001674
0.000246
0.000237
0.000258
0.000253
0.000279
0.000243
0.000279
0.000253
0.000351
0.001798
0.000274
0.000249
0.000446
0.000497
0.000363
0.000238
0.000511
0.000239
0.000540
0.000720
0.000168
0.000056
0.000239
0.000204
0.000252
0.000240
0.000314
0.000295
0.000325
0.000611
0.000343
0.000248
0.000228
0.000226
0.000205
0.000259
0.000255
0.000250
0.000248
0.000277
0.000290
0.000343
0.001735
0.000251
0.000238
0.000448
0.000313
0.000637
0.000676
0.000480
0.000361
0.000255
0.000211
0.000056
0.000225
0.000224
0.000253
0.000247
0.000254
0.000255
0.000253
0.000402
0.001548
0.000239
0.000269
0.000216
0.000247
0.000242
0.000271
0.000285
0.000268
0.000797
0.001411
0.000273
0.000254
0.000424
0.000259
0.000243
0.000247
0.000248
0.000272
0.000265
0.000272
0.000252
0.000228
0.000056
0.000201
0.000207
0.000237
0.000247
0.000257
0.000240
0.000251
0.000255
0.000236
0.000256
0.001690
0.000247
0.000232
0.000242
0.000215
0.000246
0.000236
0.000268
0.000241
0.000251
0.000262
0.001748
0.000250
0.000259
0.000463
0.000233
0.000256
0.000231
0.000264
0.000257
0.000193
0.000056
0.000210
0.000211
0.000225
0.000253
0.000240
0.000248
0.000254
0.000248
0.000251
0.000249
0.000282
0.000243
0.000256
0.000276
0.001629
0.000285
0.000296
0.000255
0.000214
0.000268
0.000295
0.000219
0.000266
0.000254
0.000265
0.001843
0.000405
0.000337
0.000262
0.000274
0.000213
0.000056
0.000223
0.000222
0.000218
0.000280
0.000250
0.000241
0.000312
0.000360
0.000445
0.000434
0.000205
0.000239
0.000251
0.000248
0.001651
0.000514
0.000358
0.000425
0.000204
0.000255
0.000221
0.000281
0.000272
0.001883
0.000394
0.000518
0.000225
0.000242
0.000219
0.000243
0.000212
0.000056
0.000195
0.000227
0.000219
0.000263
0.000337
0.000518
0.000341
0.000283
0.000210
0.000208
0.000265
0.000240
0.000285
0.001674
0.000485
0.000312
0.000232
0.000238
0.000265
0.000274
0.000264
0.000275
0.000246
0.001903
0.000309
0.000396
0.000254
0.000238
0.000316
0.000393
0.000319
0.000056
0.000220
0.000351
0.000374
0.000243
0.000313
0.000213
0.000240
0.000247
0.000238
0.000261
0.000223
0.000259
0.001606
0.000327
0.000318
0.000217
0.000216
0.000246
0.000241
0.000292
0.000263
0.000356
0.001764
0.000360
0.000224
0.000508
0.000228
0.000238
0.000228
0.000258
0.000303
0.000056
0.000317
0.000542
0.000659
0.000216
0.000209
0.000244
0.000236
0.000219
0.000272
0.000245
0.000239
0.001716
0.000273
0.000407
0.000383
0.000226
0.000226
0.000232
0.000246
0.000253
0.000274
0.001843
0.000252
0.000225
0.002260
0.000426
0.000279
0.000238
0.000271
0.000264
0.000207
0.000055
0.000218
0.000215
0.000221
0.000249
0.000259
0.001692
0.000222
0.000203
0.000232
0.000256
0.000242
0.000268
0.000251
0.000233
0.000262
0.000434
0.000647
0.000230
0.000230
0.000264
0.000270
0.000265
0.000232
0.000504
0.000443
0.000226
0.000356
0.000571
0.000441
0.000232
0.000190
0.000055
0.000211
0.000207
0.000253
0.000257
0.000237
0.000231
0.000262
0.000509
0.000438
0.001559
0.000257
0.000225
0.000260
0.000238
0.000246
0.000275
0.000538
0.000566
0.000242
0.000223
0.000232
0.000258
0.000326
0.000276
0.000264
0.000403
0.000430
0.000539
0.000506
0.000444
0.000141
0.000055
0.000224
0.000245
0.000226
0.000223
0.000230
0.000244
0.000241
0.000250
0.000250
0.000371
0.000339
0.001559
0.000280
0.000211
0.000205
0.000212
0.000258
0.000254
0.000250
0.000251
0.000270
0.000503
0.000352
0.000343
0.000233
0.000222
0.000272
0.000256
0.000261
0.000284
0.000425
0.000055
0.000202
0.000206
0.000227
0.000260
0.000527
0.000435
0.000269
0.000227
0.000234
0.000262
0.000245
0.000241
0.000281
0.000259
0.000251
0.000535
0.000421
0.001581
0.000275
0.000251
0.000243
0.000265
0.000254
0.000264
0.000248
0.000506
0.000428
0.000386
0.000358
0.000234
0.000212
0.000055
0.000230
0.000204
0.000427
0.000213
0.000269
0.000238
0.000324
0.000544
0.000325
0.000319
0.000223
0.000267
0.000266
0.000244
0.000608
0.000287
0.000223
0.000323
0.000335
0.001675
0.000243
0.000229
0.000312
0.000414
0.000271
0.000297
0.000245
0.000307
0.000588
0.000386
0.000281
0.000056
0.000187
0.000209
0.000236
0.000243
0.000484
0.000265
0.000285
0.000213
0.000448
0.000529
0.000354
0.000211
0.000222
0.000213
0.000256
0.000262
0.000262
0.000258
0.000221
0.000403
0.000250
0.000369
0.001801
0.000264
0.000236
0.000258
0.000318
0.000356
0.000476
0.000689
0.000390
0.000055
0.000252
0.000312
0.000342
0.000414
0.000310
0.000205
0.000264
0.000284
0.000493
0.000434
0.000325
0.000200
0.000223
0.000261
0.000255
0.000240
0.000248
0.000268
0.000273
0.000268
0.000267
0.000503
0.001668
0.000294
0.000357
0.000423
0.000381
0.000263
0.000466
0.000302
0.000351
0.000056
0.000227
0.000378
0.000290
0.000210
0.000230
0.000216
0.000474
0.000213
0.000215
0.000480
0.000259
0.000503
0.000231
0.000223
0.000261
0.000290
0.000366
0.000436
0.000316
0.000222
0.000216
0.000352
0.000653
0.001685
0.000272
0.000448
0.000303
0.000206
0.000307
0.000416
0.000315
0.000056
0.000220
0.000204
0.000235
0.000238
0.000246
0.000245
0.000252
0.000388
0.000411
0.000390
0.000429
0.000320
0.000308
0.000200
0.000526
0.000250
0.000276
0.000268
0.000247
0.000351
0.000221
0.000233
0.000267
0.000489
0.000475
0.001672
0.000240
0.000217
0.000236
0.000258
0.000191
0.000073
0.000265
0.000454
0.000392
0.000198
0.000246
0.000208
0.000263
0.000233
0.000262
0.000259
0.000215
0.000490
0.000281
0.000486
0.000389
0.000326
0.000206
0.000243
0.000363
0.000349
0.000368
0.000364
0.000387
0.000381
0.000244
0.000223
0.000234
0.000277
0.001783
0.000260
0.000222
0.000056
0.000199
0.000199
0.000243
0.000273
0.000363
0.000537
0.000350
0.000213
0.000229
0.000270
0.000246
0.000248
0.000525
0.000455
0.000483
0.000304
0.000279
0.000235
0.000437
0.000490
0.000365
0.000457
0.000403
0.000480
0.000237
0.000258
0.000223
0.000220
0.000261
0.001772
0.000266
0.000057
0.000231
0.000332
0.000220
0.000190
0.000252
0.000248
0.000295
0.000444
0.000427
0.000307
0.000301
0.000318
0.000317
0.000710
0.000292
0.000208
0.000220
0.000237
0.000249
0.000269
0.000258
0.000281
0.000231
0.000267
0.000291
0.000446
0.000437
0.000356
0.000203
0.000225
0.000175
0.000056
0.000453
0.000336
0.000373
0.000280
0.000255
0.000188
0.000236
0.000258
0.000242
0.000261
0.000218
0.000267
0.000297
0.000369
0.000571
0.000456
0.000293
0.000375
0.000350
0.000389
0.000271
0.000212
0.000228
0.000240
0.001842
0.000219
0.001766
0.000924
0.000349
0.000360
0.000147
0.000056
0.000223
0.000225
0.000215
0.000232
0.000261
0.000249
0.000253
0.000248
0.000261
0.000288
0.000390
0.000444
0.000416
0.000363
0.000237
0.000246
0.000289
0.000264
0.000226
0.000218
0.000253
0.000228
0.001808
0.000268
0.000232
0.000252
0.000277
0.000264
0.001883
0.000569
0.000272
0.000056
0.000240
0.000203
0.000202
0.000245
0.000250
0.000244
0.000242
0.000257
0.000252
0.000417
0.000517
0.000334
0.000384
0.000237
0.000221
0.000283
0.000384
0.000388
0.000374
0.000257
0.001799
0.000241
0.000230
0.000224
0.000240
0.000273
0.000251
0.000260
0.000250
0.000371
0.000422
0.000056
0.000254
0.000201
0.000192
0.000252
0.000254
0.000244
0.000258
0.000270
0.000222
0.000254
0.000242
0.000282
0.000416
0.000347
0.000339
0.000334
0.000473
0.000211
0.000232
0.000232
0.000264
0.000256
0.000277
0.000264
0.000266
0.001792
0.000284
0.000230
0.000249
0.000230
0.000235
0.000057
0.000250
0.000388
0.000225
0.000204
0.000216
0.000257
0.000213
0.000264
0.000244
0.000232
0.000227
0.000260
0.000261
0.000310
0.000493
0.000356
0.000340
0.000215
0.000210
0.000240
0.000252
0.000264
0.000254
0.000261
0.000258
0.000260
0.000283
0.001733
0.000233
0.000225
0.000179
0.000057
0.000188
0.000220
0.000237
0.000260
0.000363
0.000372
0.000397
0.000315
0.000216
0.000237
0.000250
0.000252
0.000255
0.000238
0.000261
0.000258
0.000253
0.000249
0.000246
0.000264
0.000278
0.000264
0.000257
0.000225
0.000241
0.000283
0.000274
0.000262
0.000254
0.000262
0.000211
0.000056
0.000196
0.000213
0.000234
0.000255
0.000238
0.000259
0.000233
0.000262
0.000365
0.000213
0.000196
0.000225
0.000255
0.000255
0.000260
0.000273
0.000251
0.000258
0.000368
0.000221
0.000216
0.000291
0.000275
0.000260
0.000273
0.000272
0.000276
0.000240
0.000272
0.000442
0.000689
0.000056
0.000229
0.000296
0.000230
0.000199
0.000208
0.000248
0.000244
0.000246
0.000261
0.000230
0.000272
0.000287
0.000632
0.000345
0.001596
0.000222
0.000510
0.000204
0.000228
0.000432
0.000428
0.000391
0.000226
0.000277
0.000261
0.000256
0.000278
0.000263
0.000293
0.000287
0.000181
0.000056
0.000287
0.000461
0.000361
0.000320
0.000202
0.000231
0.000249
0.000246
0.000234
0.000254
0.000250
0.000253
0.000237
0.000279
0.000369
0.000472
0.000395
0.001789
0.000280
0.000209
0.000338
0.000422
0.000432
0.000338
0.000370
0.000309
0.000249
0.000232
0.000229
0.000236
0.000213
0.000056
0.000205
0.000219
0.000224
0.000293
0.000464
0.000366
0.000324
0.000235
0.000254
0.000212
0.000244
0.000270
0.000268
0.000261
0.000248
0.000273
0.000310
0.000480
0.000346
0.000434
0.000241
0.001799
0.000321
0.000531
0.000470
0.000451
0.000285
0.000222
0.000245
0.000275
0.000497
0.000055
0.000217
0.000225
0.000233
0.000242
0.000521
0.000407
0.000402
0.000228
0.000212
0.000329
0.000221
0.000223
0.000250
0.000310
0.000360
0.000218
0.000241
0.000343
0.000401
0.000413
0.000543
0.001782
0.000247
0.000542
0.000401
0.000355
0.000234
0.000379
0.000248
0.000218
0.000208
0.000055
0.000223
0.000332
0.000352
0.000359
0.000328
0.000304
0.000389
0.000206
0.000225
0.000254
0.000287
0.000233
0.000230
0.000245
0.000270
0.000236
0.000324
0.000375
0.000527
0.000358
0.000307
0.000220
0.000257
0.001784
0.000444
0.000395
0.000708
0.000283
0.000247
0.000284
0.000175
0.000056
0.000184
0.000224
0.000303
0.000263
0.000266
0.000424
0.000383
0.000304
0.000315
0.000524
0.000208
0.000213
0.000228
0.000278
0.000277
0.000273
0.000229
0.000378
0.000519
0.000337
0.000255
0.000249
0.000240
0.000256
0.000263
0.000272
0.000236
0.000255
0.000267
0.000361
0.000165
0.000056
0.000256
0.000325
0.000247
0.000232
0.000230
0.000269
0.000229
0.000370
0.000215
0.000209
0.000248
0.000349
0.000465
0.000364
0.000429
0.000226
0.000224
0.000231
0.000244
0.000254
0.000277
0.000267
0.000236
0.000258
0.000278
0.000325
0.000425
0.000396
0.000362
0.000218
0.000170
0.000057
0.000195
0.000204
0.000251
0.000248
0.000237
0.000247
0.000257
0.000262
0.000498
0.000233
0.000238
0.000251
0.000257
0.000243
0.000271
0.000267
0.000276
0.000359
0.000261
0.000213
0.000232
0.000264
0.000257
0.000267
0.000287
0.000255
0.000274
0.000251
0.000252
0.000517
0.000154
0.000056
0.000184
0.000200
0.000245
0.000264
0.000251
0.000226
0.000297
0.000457
0.000313
0.000182
0.000242
0.000260
0.000239
0.000289
0.000353
0.001847
0.000262
0.000230
0.000311
0.000384
0.000405
0.000354
0.000369
0.000389
0.000370
0.000358
0.000277
0.000233
0.000276
0.000271
0.001408
0.000057
0.000376
0.000338
0.000278
0.000206
0.000208
0.000232
0.000229
0.000246
0.000264
0.000246
0.000246
0.000262
0.000251
0.000301
0.000504
0.001744
0.000206
0.000221
0.000212
0.000259
0.000252
0.000251
0.000400
0.000388
0.000278
0.000323
0.000255
0.000250
0.000264
0.000255
0.000216
0.000057
0.001216
0.000558
0.000321
0.000307
0.000199
0.000203
0.000209
0.000229
0.000477
0.000257
0.000220
0.000239
0.000360
0.000582
0.000330
0.000333
0.000308
0.000232
0.000331
0.000382
0.000221
0.000232
0.000274
0.000235
0.000273
0.000618
0.000514
0.000288
0.000225
0.000279
0.000184
0.000056
0.000215
0.000221
0.000214
0.000261
0.001413
0.000363
0.000212
0.000239
0.000245
0.000244
0.000260
0.000249
0.000244
0.000258
0.000283
0.000244
0.000513
0.000626
0.000271
0.001803
0.000243
0.000309
0.000334
0.000366
0.000478
0.000440
0.000235
0.000222
0.000254
0.000274
0.000213
0.000057
0.000208
0.000250
0.000216
0.001325
0.000335
0.000213
0.000242
0.000221
0.000213
0.000245
0.000236
0.000253
0.000277
0.000254
0.000256
0.000350
0.000537
0.000340
0.000321
0.000222
0.000230
0.000277
0.000267
0.000223
0.000359
0.000219
0.000220
0.000269
0.000270
0.000384
0.000578
0.000056
0.000211
0.000223
0.000231
0.000263
0.000262
0.000252
0.000224
0.000267
0.000266
0.000251
0.001438
0.000261
0.000202
0.000254
0.000254
0.000227
0.000275
0.000256
0.000270
0.000261
0.000276
0.000479
0.000475
0.000368
0.000245
0.000261
0.001842
0.000227
0.000241
0.000339
0.000397
0.000057
0.000266
0.000426
0.000454
0.000507
0.000524
0.000597
0.001384
0.000450
0.000544
0.000652
0.000550
0.000741
0.000457
0.000625
0.000579
0.001723
0.000498
0.000414
0.000393
0.000309
0.000259
0.000289
0.000284
0.000269
0.000276
0.000271
0.000296
0.000276
0.000261
0.000297
0.001315
0.000056
0.000235
0.000251
0.000222
0.000233
0.000247
0.000247
0.000232
0.000232
0.000262
0.000285
0.000229
0.000267
0.000229
0.000264
0.000265
0.000258
0.001842
0.000258
0.000264
0.000248
0.000258
0.000258
0.000271
0.000313
0.000400
0.000396
0.000324
0.000244
0.000261
0.000293
0.000166
0.000055
0.000219
0.001380
0.000259
0.000267
0.000265
0.000228
0.000257
0.000250
0.000257
0.000237
0.000242
0.000269
0.000230
0.000428
0.000303
0.000334
0.000270
0.000290
0.001907
0.000285
0.000241
0.000255
0.000257
0.000260
0.000274
0.000258
0.000287
0.000253
0.000232
0.000300
0.000242
0.000056
0.000192
0.000220
0.000256
0.001419
0.000264
0.000273
0.000223
0.000229
0.000221
0.000263
0.000256
0.000250
0.000232
0.000256
0.000300
0.000241
0.000249
0.000245
0.000278
0.000273
0.000249
0.001851
0.000259
0.001766
0.000253
0.000250
0.000251
0.000230
0.000266
0.000291
0.000190
0.000055
0.000211
0.000249
0.001352
0.000228
0.000262
0.000234
0.000221
0.000228
0.000260
0.000248
0.000244
0.000253
0.000255
0.000253
0.000260
0.000260
0.000262
0.000282
0.000289
0.000269
0.001854
0.000273
0.001793
0.000280
0.000258
0.000240
0.000263
0.000259
0.000265
0.000258
0.000190
0.000076
0.001421
0.000239
0.000242
0.000229
0.000217
0.000216
0.000276
0.000351
0.000256
0.000257
0.000270
0.000240
0.000269
0.000354
0.000452
0.000275
0.000257
0.000265
0.000236
0.000224
0.000255
0.000330
0.000251
0.000262
0.000269
0.000281
0.000261
0.000329
0.000701
0.000354
0.000189
0.000055
0.000218
0.000280
0.000268
0.000307
0.000353
0.001701
0.000303
0.000228
0.000282
0.000253
0.000269
0.000301
0.000264
0.000266
0.000316
0.000292
0.000452
0.000376
0.000429
0.000269
0.000319
0.000286
0.000253
0.000267
0.000323
0.000280
0.000251
0.000266
0.000217
0.000298
0.000435
0.000056
0.000308
0.000369
0.000261
0.000265
0.000259
0.000224
0.000225
0.000245
0.000256
0.000273
0.001517
0.000245
0.000205
0.000234
0.000242
0.000284
0.000273
0.000252
0.000258
0.000259
0.000262
0.000408
0.000503
0.000397
0.000220
0.000277
0.000276
0.000232
0.000243
0.000249
0.000240
0.000056
0.000195
0.000212
0.000283
0.000439
0.000415
0.000250
0.000210
0.000243
0.000248
0.000267
0.000233
0.000252
0.000241
0.000280
0.000224
0.000258
0.000453
0.001222
0.000222
0.000234
0.000252
0.000236
0.000346
0.000516
0.000209
0.000295
0.000552
0.000554
0.000221
0.000234
0.000153
0.000056
0.000206
0.000196
0.000266
0.000263
0.000321
0.000194
0.000342
0.000492
0.000444
0.000261
0.000366
0.000399
0.000392
0.000355
0.000242
0.000214
0.000230
0.000221
0.000452
0.000497
0.001194
0.000236
0.000248
0.000275
0.000235
0.000237
0.000259
0.000315
0.000408
0.000546
0.000215
0.000057
0.000199
0.000211
0.000238
0.000247
0.000246
0.000244
0.000239
0.000255
0.000260
0.000403
0.000497
0.000390
0.000226
0.000235
0.000199
0.000259
0.000237
0.000265
0.000266
0.000235
0.000512
0.000216
0.000344
0.000539
0.000259
0.000226
0.000230
0.000269
0.000257
0.000282
0.000243
0.000056
0.000306
0.000293
0.000317
0.000347
0.000517
0.000342
0.000214
0.000268
0.000224
0.000251
0.000270
0.000252
0.000237
0.000260
0.000237
0.000230
0.000260
0.000362
0.000612
0.000309
0.000201
0.000263
0.000235
0.000215
0.000270
0.000271
0.000268
0.000273
0.000276
0.000274
0.000343
0.000056
0.000248
0.000356
0.000224
0.000213
0.000242
0.000246
0.000249
0.000257
0.000254
0.000257
0.000260
0.000248
0.000258
0.000591
0.000450
0.000294
0.000197
0.000212
0.000227
0.000264
0.000292
0.000240
0.000255
0.000267
0.000268
0.000292
0.000413
0.000635
0.000481
0.000222
0.000149
0.000056
0.000377
0.000211
0.000200
0.000231
0.000256
0.000236
0.000243
0.000246
0.000252
0.000265
0.000223
0.000244
0.000277
0.000223
0.000260
0.000238
0.000257
0.000259
0.000275
0.000274
0.000251
0.000257
0.000268
0.000252
0.000279
0.000278
0.000218
0.000293
0.000242
0.000283
0.000225
0.000057
0.000192
0.000209
0.000231
0.000253
0.000243
0.000237
0.000265
0.000234
0.000261
0.000289
0.000230
0.000225
0.000269
0.000396
0.000235
0.000284
0.000260
0.000265
0.000249
0.000287
0.000270
0.000246
0.000246
0.000244
0.000272
0.000267
0.000272
0.000245
0.000262
0.000264
0.000225
0.000057
0.000251
0.000377
0.000351
0.000281
0.000302
0.000237
0.000199
0.000255
0.000235
0.000244
0.000241
0.000259
0.000260
0.000232
0.000256
0.000262
0.000263
0.000268
0.000259
0.000255
0.000269
0.000273
0.000264
0.000265
0.000284
0.000262
0.000251
0.000287
0.000231
0.000269
0.000205
0.000056
0.000170
0.000224
0.000237
0.000260
0.000253
0.000457
0.000210
0.000241
0.000304
0.000426
0.000492
0.000339
0.000217
0.000210
0.000259
0.000270
0.000247
0.000253
0.000273
0.000261
0.000264
0.000276
0.000255
0.000282
0.000628
0.000445
0.000257
0.000251
0.000271
0.000258
0.000207
0.000055
0.000224
0.000190
0.000230
0.000260
0.000262
0.000800
0.000228
0.000379
0.000230
0.000217
0.000250
0.000259
0.000262
0.000241
0.000287
0.000237
0.000266
0.000257
0.000648
0.000445
0.000240
0.000228
0.000245
0.000279
0.000284
0.000256
0.000271
0.000263
0.000251
0.000344
0.000360
0.000056
0.000257
0.000223
0.000209
0.000237
0.000252
0.000261
0.000251
0.000226
0.000236
0.000258
0.000248
0.000268
0.000272
0.000370
0.000541
0.000448
0.000219
0.000224
0.000261
0.000262
0.000254
0.000270
0.000483
0.000237
0.000258
0.000670
0.000376
0.000436
0.000287
0.000251
0.000181
0.000056
0.000206
0.000202
0.000240
0.000238
0.000251
0.000262
0.000318
0.000457
0.000579
0.000397
0.000212
0.000261
0.000276
0.000273
0.000285
0.000224
0.000238
0.000245
0.000264
0.000331
0.000463
0.000522
0.000429
0.000273
0.000446
0.000351
0.000482
0.000209
0.000247
0.000348
0.000458
0.000056
0.000268
0.000215
0.000484
0.000200
0.000234
0.000227
0.000239
0.000263
0.000237
0.000240
0.000270
0.000428
0.000330
0.000398
0.000217
0.000224
0.000273
0.000218
0.000271
0.000271
0.000272
0.000266
0.000241
0.000268
0.000375
0.000453
0.000469
0.000241
0.000268
0.000251
0.000209
0.000057
0.000221
0.000220
0.000231
0.000242
0.000244
0.000250
0.000510
0.000276
0.000474
0.000262
0.000346
0.000264
0.000198
0.000271
0.000262
0.000230
0.000258
0.000260
0.000266
0.000488
0.000560
0.000247
0.000412
0.000345
0.000393
0.000393
0.000380
0.000253
0.000223
0.000280
0.000487
0.000058
0.000230
0.000235
0.000216
0.000248
0.000253
0.000256
0.000247
0.000253
0.000248
0.000267
0.000233
0.000331
0.000492
0.000380
0.000359
0.000251
0.000231
0.000266
0.000280
0.000226
0.000248
0.000251
0.000270
0.000269
0.000278
0.000352
0.000491
0.000444
0.000262
0.000272
0.000207
0.000056
0.000225
0.000204
0.000263
0.000242
0.000249
0.000318
0.000482
0.000576
0.000323
0.000732
0.000248
0.000201
0.000213
0.000254
0.000238
0.000272
0.000284
0.000262
0.000484
0.000563
0.001503
0.000240
0.000264
0.000259
0.000295
0.000255
0.000379
0.000456
0.000275
0.000347
0.000156
0.000055
0.000207
0.000202
0.000239
0.000243
0.000240
0.000257
0.000269
0.000257
0.000250
0.000361
0.000367
0.000350
0.000272
0.000390
0.000384
0.000332
0.000232
0.000217
0.000239
0.000262
0.000238
0.000241
0.000288
0.000266
0.000351
0.000539
0.000372
0.000245
0.000223
0.000259
0.000201
0.000056
0.000231
0.000209
0.000253
0.000254
0.000258
0.000227
0.000464
0.000218
0.000236
0.000253
0.000246
0.000252
0.000252
0.000255
0.000253
0.000268
0.000263
0.000265
0.000278
0.000259
0.000254
0.000325
0.000285
0.000225
0.000255
0.000272
0.000272
0.000264
0.000270
0.000265
0.000211
0.000055
0.000238
0.000210
0.000318
0.000457
0.000390
0.000220
0.000207
0.000229
0.000265
0.000247
0.000248
0.000245
0.000268
0.000261
0.000241
0.000236
0.000250
0.000266
0.000288
0.000371
0.000381
0.000425
0.000227
0.000261
0.000274
0.000246
0.000266
0.000259
0.000265
0.000276
0.000236
0.000056
0.000389
0.000395
0.000395
0.000210
0.000243
0.000260
0.000476
0.000204
0.000211
0.000228
0.000285
0.000330
0.000368
0.000475
0.001734
0.000259
0.000250
0.000246
0.000276
0.000243
0.000323
0.000453
0.000614
0.000330
0.000228
0.000241
0.000279
0.000416
0.000284
0.000275
0.000195
0.000056
0.000258
0.000350
0.000291
0.000318
0.000510
0.000209
0.000227
0.000243
0.000255
0.000235
0.000269
0.000249
0.000251
0.000322
0.000414
0.000496
0.000244
0.000227
0.000228
0.000261
0.000260
0.000309
0.000255
0.000271
0.000273
0.000444
0.000514
0.000437
0.000448
0.000228
0.000204
0.000056
0.000195
0.000201
0.000239
0.000229
0.000253
0.000251
0.000271
0.000264
0.000356
0.000375
0.000565
0.000238
0.000210
0.000224
0.000266
0.000280
0.000322
0.000247
0.000258
0.000272
0.000240
0.000286
0.000564
0.000311
0.000264
0.000289
0.000243
0.000539
0.000388
0.000267
0.000177
0.000056
0.000200
0.000212
0.000352
0.000460
0.000350
0.000210
0.000217
0.000246
0.000261
0.000259
0.000269
0.000261
0.000232
0.000240
0.000254
0.000288
0.000448
0.000350
0.000267
0.000390
0.000452
0.000220
0.000277
0.000273
0.000304
0.000282
0.000264
0.000251
0.000517
0.000399
0.000312
0.000070
0.000182
0.000196
0.000242
0.000253
0.000245
0.000492
0.000214
0.000229
0.000268
0.000319
0.000561
0.000557
0.000235
0.000206
0.000235
0.000250
0.000251
0.000252
0.000255
0.000249
0.000256
0.000272
0.000407
0.000477
0.000340
0.000329
0.000375
0.000304
0.000307
0.000227
0.000148
0.000055
0.000196
0.000207
0.000243
0.000543
0.000258
0.000393
0.000241
0.000212
0.000215
0.000227
0.000254
0.000251
0.000251
0.000251
0.000319
0.000214
0.000244
0.000247
0.000394
0.000376
0.000379
0.000426
0.000233
0.000220
0.000269
0.000283
0.000252
0.000262
0.000277
0.000250
0.000212
0.000056
0.000276
0.000388
0.000482
0.000211
0.000229
0.000198
0.000322
0.000500
0.000276
0.000211
0.000204
0.000274
0.000275
0.000429
0.000460
0.000325
0.000215
0.000232
0.000277
0.000200
0.000273
0.000264
0.000253
0.000277
0.000268
0.000280
0.000565
0.000304
0.000361
0.000206
0.000147
0.000057
0.000191
0.000197
0.000262
0.000232
0.000258
0.000259
0.000233
0.000253
0.000257
0.000243
0.000264
0.000239
0.000262
0.001461
0.000266
0.000219
0.000248
0.000244
0.000282
0.000282
0.000259
0.000235
0.000281
0.000250
0.000265
0.000268
0.000295
0.000247
0.000273
0.000257
0.000213
0.000056
0.000210
0.000209
0.000235
0.000247
0.000244
0.000235
0.000258
0.000261
0.000232
0.000249
0.000252
0.000258
0.000255
0.000257
0.000253
0.000250
0.000254
0.000266
0.000265
0.000252
0.000256
0.000263
0.000253
0.000250
0.001360
0.000278
0.000531
0.000446
0.000376
0.000223
0.000149
0.000056
0.000220
0.000203
0.000240
0.000268
0.000482
0.000232
0.000192
0.000211
0.000247
0.000353
0.000540
0.000345
0.000208
0.000218
0.000220
0.000259
0.000255
0.000278
0.000240
0.000257
0.000263
0.000249
0.000261
0.000419
0.000510
0.000453
0.000242
0.000254
0.001356
0.000292
0.000175
0.000056
0.000365
0.000407
0.000350
0.000248
0.000198
0.000208
0.000225
0.000232
0.000265
0.000257
0.000248
0.000256
0.000261
0.000321
0.000605
0.000342
0.000303
0.000246
0.000238
0.000231
0.000276
0.000255
0.000289
0.000245
0.000267
0.000263
0.000354
0.000573
0.000400
0.000345
0.000163
0.000055
0.000211
0.000225
0.001309
0.000361
0.000347
0.000389
0.000385
0.000327
0.000437
0.000391
0.000219
0.000210
0.000235
0.000252
0.000251
0.000266
0.000484
0.000396
0.000397
0.000317
0.000273
0.000243
0.000250
0.000514
0.000238
0.000255
0.000260
0.000274
0.000288
0.000559
0.000328
0.000057
0.000336
0.000387
0.000227
0.000195
0.001516
0.000553
0.000300
0.000231
0.000201
0.000242
0.000233
0.000230
0.000249
0.000258
0.000257
0.000286
0.000209
0.000345
0.000463
0.000358
0.000430
0.000218
0.000221
0.000248
0.000253
0.000268
0.000279
0.000238
0.000258
0.000275
0.000219
0.000057
0.000366
0.000304
0.000255
0.000211
0.000236
0.000249
0.000251
0.000250
0.000232
0.000256
0.001536
0.000384
0.000273
0.000208
0.000207
0.000255
0.000264
0.000269
0.000237
0.000261
0.000279
0.000255
0.000272
0.000426
0.000376
0.000498
0.000225
0.000284
0.000244
0.000273
0.000196
0.000056
0.000216
0.000455
0.000197
0.000226
0.000380
0.000406
0.000321
0.000345
0.000456
0.000219
0.000208
0.000245
0.000259
0.000265
0.000269
0.001390
0.000383
0.000276
0.000251
0.000264
0.000280
0.000259
0.000251
0.000252
0.000259
0.000267
0.000461
0.000440
0.000313
0.000262
0.000168
0.000056
0.000198
0.000215
0.000239
0.000239
0.000251
0.000243
0.000239
0.000246
0.000281
0.000514
0.000359
0.000313
0.000205
0.000210
0.000234
0.000270
0.000272
0.000263
0.000274
0.000228
0.000253
0.000336
0.001300
0.000253
0.000256
0.000215
0.000230
0.000265
0.000254
0.000263
0.000207
0.000056
0.000314
0.000270
0.000395
0.000326
0.000231
0.000211
0.000240
0.000260
0.000253
0.000252
0.000262
0.000267
0.000239
0.000252
0.000259
0.000266
0.000258
0.000267
0.000275
0.000250
0.000247
0.000270
0.000270
0.000278
0.000287
0.000264
0.000301
0.000231
0.000261
0.000506
0.001320
0.000056
0.000210
0.000205
0.000237
0.000239
0.000257
0.000260
0.000257
0.000222
0.000242
0.000255
0.000259
0.000273
0.000246
0.000244
0.000246
0.001713
0.000357
0.000216
0.000226
0.000222
0.000250
0.000257
0.000277
0.000260
0.000265
0.000256
0.000267
0.000281
0.000272
0.000265
0.000228
0.000056
0.000379
0.000261
0.001354
0.000200
0.000230
0.000215
0.000250
0.000247
0.000256
0.000257
0.000243
0.000435
0.000309
0.000526
0.000234
0.000213
0.000213
0.000253
0.000255
0.000264
0.000258
0.000253
0.000267
0.000287
0.000269
0.000326
0.000458
0.000372
0.000281
0.000253
0.000194
0.000056
0.000206
0.000209
0.000242
0.000248
0.000255
0.000239
0.000218
0.000264
0.000418
0.000465
0.001124
0.000245
0.000225
0.000266
0.000260
0.000265
0.000260
0.000256
0.000324
0.000435
0.000362
0.000301
0.000218
0.000221
0.000297
0.000268
0.000254
0.000291
0.000275
0.000279
0.000209
0.000056
0.000362
0.000353
0.000369
0.000224
0.000206
0.000196
0.000242
0.000268
0.000268
0.000267
0.000217
0.000253
0.000542
0.000482
0.000462
0.001467
0.000211
0.000261
0.000346
0.000361
0.000478
0.000409
0.000415
0.000418
0.000229
0.000235
0.000270
0.000268
0.000281
0.000264
0.000206
0.000056
0.000217
0.000230
0.000440
0.000573
0.000286
0.000203
0.000270
0.000221
0.000235
0.000257
0.000251
0.000265
0.000264
0.000247
0.000258
0.000348
0.000317
0.000498
0.000312
0.001319
0.000267
0.000237
0.000254
0.000265
0.000627
0.000317
0.000417
0.000219
0.000235
0.000286
0.000190
0.000056
0.000209
0.000207
0.000234
0.000241
0.000249
0.000311
0.000415
0.000400
0.000358
0.000242
0.000219
0.000259
0.000269
0.000259
0.000260
0.000268
0.000258
0.000255
0.000268
0.000298
0.000550
0.000406
0.000328
0.001339
0.000353
0.000222
0.000298
0.000468
0.000375
0.000364
0.000334
0.000056
0.000186
0.000203
0.000262
0.000234
0.000252
0.000257
0.001688
0.000254
0.000236
0.000200
0.000260
0.000254
0.000342
0.000308
0.000329
0.000281
0.000239
0.000354
0.000447
0.000446
0.000287
0.000269
0.000227
0.000214
0.001449
0.000468
0.000373
0.000472
0.000317
0.000303
0.000155
0.000056
0.000190
0.000213
0.000260
0.000259
0.000243
0.000257
0.001780
0.000216
0.000236
0.000251
0.000392
0.000422
0.001416
0.000335
0.000421
0.000208
0.000214
0.000225
0.000264
0.000268
0.001629
0.000603
0.000352
0.000278
0.000225
0.000225
0.000237
0.000282
0.000246
0.000251
0.000216
0.000056
0.000190
0.000217
0.000263
0.000244
0.000266
0.000268
0.000287
0.000252
0.000253
0.000253
0.000251
0.000259
0.000246
0.000275
0.000273
0.001496
0.000272
0.000219
0.000270
0.000277
0.000268
0.000259
0.000433
0.001279
0.000268
0.000251
0.000250
0.000251
0.000477
0.000213
0.000176
0.000056
0.000217
0.000213
0.000233
0.000238
0.000249
0.000226
0.000228
0.001764
0.000218
0.000228
0.000224
0.000356
0.000240
0.000222
0.001469
0.000241
0.000210
0.000216
0.000271
0.000249
0.000250
0.000307
0.000341
0.001365
0.000273
0.000238
0.000232
0.000235
0.001386
0.000274
0.000227
0.000057
0.000242
0.000332
0.000201
0.000200
0.000252
0.000282
0.000222
0.000269
0.000263
0.000254
0.000260
0.000258
0.000256
0.000245
0.000321
0.001499
0.000234
0.000271
0.000269
0.000244
0.000266
0.000269
0.000266
0.001477
0.000364
0.000235
0.000265
0.001349
0.000234
0.000234
0.000205
0.000056
0.000209
0.000345
0.000367
0.000207
0.000229
0.000230
0.000258
0.000259
0.000265
0.000272
0.000235
0.000250
0.000267
0.000313
0.000427
0.001237
0.000220
0.000206
0.000247
0.000276
0.000257
0.000223
0.000257
0.001297
0.000375
0.000233
0.000231
0.000225
0.000249
0.001342
0.000312
0.000057
0.000296
0.000257
0.000215
0.000194
0.000233
0.000249
0.000257
0.000244
0.000280
0.000247
0.000242
0.000249
0.000247
0.000337
0.000423
0.001473
0.000238
0.000225
0.000291
0.000513
0.000319
0.000397
0.001316
0.000289
0.000261
0.000254
0.001285
0.000350
0.000259
0.000498
0.000308
0.000056
0.000211
0.000234
0.000255
0.000255
0.000246
0.000259
0.000274
0.000251
0.000260
0.000262
0.000515
0.000328
0.001350
0.000214
0.000232
0.000256
0.000288
0.000264
0.000205
0.000223
0.000393
0.001261
0.000237
0.000230
0.000220
0.000237
0.001542
0.000415
0.000503
0.000215
0.000187
0.000056
0.000192
0.000207
0.000243
0.000232
0.000242
0.000266
0.000252
0.000252
0.000410
0.000520
0.000310
0.001442
0.000229
0.000213
0.000261
0.000260
0.000280
0.000337
0.001596
0.000327
0.000342
0.000366
0.001316
0.000385
0.000353
0.000302
0.000218
0.000227
0.000230
0.000267
0.000214
0.000056
0.000206
0.000212
0.000307
0.000265
0.000279
0.000548
0.000323
0.000338
0.001475
0.000294
0.000323
0.000249
0.000215
0.000330
0.000320
0.001391
0.000255
0.000220
0.000224
0.000232
0.000305
0.001651
0.000315
0.000290
0.000226
0.000210
0.000507
0.000314
0.000229
0.000230
0.000262
0.000055
0.000254
0.000392
0.000331
0.000271
0.000217
0.001451
0.000240
0.000231
0.000256
0.000271
0.000271
0.000245
0.000383
0.001403
0.000267
0.000235
0.000406
0.001282
0.000350
0.000389
0.000367
0.000237
0.000242
0.000240
0.000276
0.000253
0.000460
0.000231
0.000250
0.000273
0.000215
0.000056
0.000214
0.000207
0.000383
0.001444
0.000278
0.000201
0.000296
0.000247
0.000246
0.000245
0.000249
0.000269
0.001632
0.000216
0.000231
0.000210
0.001365
0.000265
0.000529
0.000414
0.000379
0.000209
0.000228
0.000239
0.000373
0.000241
0.000219
0.000252
0.000246
0.000264
0.000203
0.000056
0.000206
0.000387
0.001426
0.000243
0.000232
0.000270
0.000257
0.000243
0.000346
0.000416
0.001278
0.000253
0.000304
0.000248
0.000205
0.001338
0.000644
0.000316
0.000303
0.000408
0.000336
0.000240
0.000224
0.000231
0.000265
0.000298
0.000271
0.000292
0.000471
0.000464
0.001371
0.000056
0.000218
0.000246
0.000207
0.000220
0.000255
0.000588
0.001380
0.000288
0.000224
0.000208
0.000243
0.001523
0.000329
0.000345
0.000460
0.000246
0.000222
0.000215
0.000231
0.000274
0.000305
0.000214
0.000285
0.000257
0.000254
0.000282
0.000452
0.000517
0.001444
0.000266
0.000192
0.000056
0.000225
0.000208
0.000478
0.000465
0.001187
0.000298
0.000244
0.000252
0.000249
0.000244
0.000249
0.000268
0.000324
0.000612
0.000289
0.000237
0.000226
0.000274
0.000241
0.000269
0.000260
0.000271
0.000262
0.000263
0.000259
0.000458
0.000420
0.000345
0.000339
0.001454
0.000143
0.000056
0.000210
0.000199
0.000295
0.000481
0.000293
0.000331
0.000297
0.000317
0.000268
0.000267
0.000264
0.000257
0.000239
0.000316
0.000244
0.000348
0.000503
0.000321
0.000308
0.000359
0.000281
0.000478
0.000235
0.000220
0.000230
0.000240
0.000256
0.000274
0.000421
0.000440
0.000309
0.000055
0.000237
0.001343
0.000276
0.000330
0.000387
0.000478
0.000287
0.000354
0.000234
0.000200
0.000252
0.000250
0.000268
0.000279
0.000248
0.000257
0.000261
0.001402
0.000285
0.000224
0.000228
0.000258
0.000274
0.000280
0.000262
0.000258
0.000276
0.000243
0.000310
0.000447
0.000387
0.000058
0.000223
0.000243
0.000237
0.001525
0.000330
0.000218
0.000212
0.000200
0.000222
0.000243
0.000265
0.000270
0.000247
0.000250
0.000265
0.000264
0.000248
0.000259
0.000262
0.000261
0.001433
0.000271
0.000230
0.000345
0.000206
0.000219
0.000250
0.000273
0.000269
0.000501
0.000377
0.000055
0.000202
0.000209
0.000410
0.000287
0.000216
0.000258
0.001543
0.000353
0.000321
0.000209
0.000232
0.000388
0.000289
0.000222
0.000213
0.000256
0.000238
0.000261
0.000257
0.000256
0.000491
0.000514
0.001180
0.000263
0.000214
0.000231
0.000258
0.000257
0.000267
0.000260
0.000417
0.000055
0.000181
0.000358
0.000199
0.000201
0.000242
0.000244
0.000243
0.000225
0.001436
0.000601
0.000296
0.000289
0.000230
0.000223
0.000222
0.000248
0.000247
0.000300
0.000235
0.000314
0.000307
0.000476
0.000457
0.001382
0.000241
0.000239
0.000283
0.000254
0.000275
0.000275
0.000543
0.000056
0.000236
0.000211
0.000238
0.000230
0.000229
0.000242
0.000258
0.000242
0.000287
0.001586
0.000332
0.000245
0.000274
0.000259
0.000461
0.000299
0.000400
0.000472
0.000334
0.000324
0.000425
0.000475
0.001310
0.000237
0.000224
0.000221
0.001846
0.000358
0.000598
0.000320
0.000129
0.000055
0.000188
0.000211
0.000229
0.000230
0.000250
0.000246
0.000363
0.000434
0.000477
0.000428
0.000299
0.000216
0.000206
0.000249
0.000266
0.000268
0.000247
0.000250
0.000248
0.000273
0.000273
0.000403
0.001376
0.000250
0.000210
0.000270
0.001882
0.000403
0.000452
0.000289
0.000182
0.000056
0.000199
0.000208
0.000234
0.001604
0.000363
0.000245
0.000235
0.000261
0.000256
0.000335
0.000361
0.000382
0.000349
0.000305
0.000274
0.000520
0.000361
0.001256
0.000270
0.000216
0.000232
0.000253
0.000352
0.000432
0.000620
0.000410
0.000225
0.000210
0.000263
0.000281
0.000207
0.000057
0.000196
0.000198
0.001470
0.000407
0.000199
0.000211
0.000218
0.000248
0.000247
0.000254
0.000246
0.000282
0.000271
0.000264
0.000267
0.000394
0.000388
0.000364
0.001386
0.000295
0.000190
0.000260
0.000284
0.000244
0.000400
0.000474
0.000448
0.000295
0.000298
0.000245
0.000398
0.000055
0.000220
0.000203
0.000251
0.000263
0.001589
0.000232
0.000245
0.000242
0.000252
0.000258
0.000255
0.000275
0.000250
0.000255
0.000468
0.000396
0.001521
0.000729
0.000219
0.000337
0.000247
0.000243
0.000217
0.000259
0.001760
0.000735
0.000251
0.000239
0.000268
0.000287
0.000218
0.000056
0.000219
0.000192
0.000244
0.000247
0.000256
0.000244
0.000244
0.000254
0.000247
0.000224
0.000291
0.000278
0.000253
0.000253
0.000263
0.000253
0.000261
0.001615
0.000673
0.000428
0.000329
0.000217
0.000209
0.000275
0.000296
0.000240
0.000274
0.000248
0.001467
0.000517
0.000152
0.000057
0.000189
0.000202
0.000240
0.000251
0.000256
0.000233
0.000255
0.000252
0.000248
0.000273
0.000239
0.000491
0.000395
0.000375
0.000207
0.000223
0.000271
0.001456
0.000684
0.000406
0.000340
0.000310
0.000216
0.000222
0.000273
0.000252
0.000255
0.000271
0.001483
0.000454
0.000226
0.000056
0.000201
0.000204
0.000221
0.000250
0.000247
0.000252
0.000238
0.000249
0.000268
0.000266
0.000385
0.000377
0.000310
0.000235
0.000235
0.000238
0.000271
0.000249
0.001578
0.000606
0.000484
0.000352
0.000229
0.000235
0.000248
0.000260
0.000268
0.000280
0.000265
0.001439
0.000312
0.000056
0.000219
0.000218
0.000209
0.000252
0.000259
0.000245
0.000290
0.000354
0.000365
0.000521
0.000281
0.000349
0.000345
0.000234
0.000223
0.000222
0.000274
0.000263
0.001396
0.000886
0.000323
0.000208
0.000470
0.000213
0.000226
0.000237
0.000274
0.000272
0.000265
0.000263
0.000366
0.000056
0.000261
0.000250
0.000205
0.000229
0.000250
0.000263
0.000225
0.000235
0.000251
0.000265
0.000251
0.000235
0.000297
0.000430
0.000537
0.000392
0.000210
0.000258
0.000261
0.000245
0.000253
0.000396
0.001357
0.001058
0.000245
0.000222
0.000271
0.000264
0.000281
0.000250
0.000216
0.000056
0.000194
0.001385
0.000282
0.000199
0.000199
0.000263
0.000229
0.000243
0.000257
0.000226
0.000255
0.000263
0.000241
0.000401
0.000356
0.000391
0.000387
0.000208
0.000250
0.000287
0.000251
0.000241
0.000252
0.000258
0.001417
0.000674
0.000307
0.000410
0.000368
0.000395
0.000263
0.000056
0.000185
0.000224
0.000339
0.001325
0.000234
0.000267
0.000197
0.000246
0.000259
0.000262
0.000286
0.000205
0.000282
0.000362
0.000523
0.000377
0.000214
0.000300
0.000276
0.000230
0.000238
0.000262
0.000229
0.000269
0.000264
0.001537
0.000756
0.000283
0.000291
0.000268
0.000205
0.000055
0.000221
0.000241
0.000431
0.000406
0.001292
0.000244
0.000207
0.000194
0.000230
0.000254
0.000238
0.000260
0.000232
0.000239
0.000251
0.000254
0.000267
0.000239
0.000253
0.000256
0.000265
0.000270
0.000347
0.000298
0.000225
0.000244
0.000274
0.001537
0.000236
0.000225
0.000165
0.000056
0.000198
0.000199
0.000269
0.000319
0.000346
0.000336
0.000404
0.000253
0.001549
0.000258
0.000319
0.000491
0.000359
0.000206
0.000479
0.000234
0.000218
0.000224
0.000261
0.000270
0.000280
0.000267
0.000256
0.000267
0.000247
0.000439
0.000444
0.000328
0.001524
0.000250
0.000174
0.000056
0.000206
0.000217
0.000241
0.000234
0.000251
0.000245
0.000269
0.000338
0.000404
0.002082
0.000203
0.000207
0.000242
0.000260
0.000257
0.000335
0.000259
0.000207
0.000245
0.000437
0.000399
0.000416
0.001520
0.000224
0.000222
0.000507
0.001766
0.000280
0.000265
0.001478
0.000193
0.000057
0.000287
0.000398
0.000499
0.000230
0.000267
0.000223
0.000258
0.000260
0.000266
0.000240
0.000244
0.000321
0.000421
0.000342
0.000505
0.000221
0.000213
0.001552
0.000486
0.002000
0.000291
0.000266
0.001415
0.000370
0.002014
0.000741
0.000277
0.000215
0.000245
0.000465
0.000439
0.000056
0.000177
0.000204
0.000243
0.000257
0.001489
0.001674
0.001070
0.000235
0.000202
0.001585
0.001981
0.000231
0.000319
0.000407
0.000263
0.000382
0.000382
0.000416
0.000254
0.000221
0.000251
0.000258
0.000269
0.001560
0.002509
0.000306
0.000200
0.000225
0.000267
0.000277
0.000406
0.000055
0.000221
0.000238
0.000206
0.000243
0.000223
0.000233
0.000250
0.000256
0.000249
0.000260
0.000242
0.000318
0.000473
0.000493
0.000279
0.000213
0.000227
0.000285
0.000247
0.000259
0.000258
0.001375
0.000581
0.000345
0.002131
0.000197
0.000227
0.000421
0.000406
0.000422
0.000164
0.000056
0.000198
0.000305
0.000486
0.000318
0.000228
0.000202
0.000235
0.000266
0.000232
0.000247
0.000242
0.000267
0.000261
0.001612
0.001420
0.001239
0.000268
0.000218
0.000222
0.000235
0.000284
0.000281
0.000244
0.000271
0.002259
0.000218
0.000225
0.000274
0.000328
0.000298
0.000248
0.000056
0.000208
0.000381
0.000597
0.000323
0.000201
0.000221
0.000204
0.000275
0.001887
0.001446
0.000240
0.000382
0.000391
0.000360
0.000265
0.000213
0.000219
0.000262
0.000261
0.000298
0.000235
0.000259
0.000487
0.000234
0.000252
0.000291
0.000237
0.000283
0.000271
0.000244
0.000223
0.000055
0.000199
0.000225
0.000256
0.000234
0.000245
0.000273
0.001544
0.001489
0.001333
0.000212
0.000222
0.000204
0.000260
0.000265
0.000251
0.000240
0.000251
0.002233
0.000177
0.000207
0.000239
0.000264
0.000267
0.000265
0.000270
0.000256
0.000256
0.000261
0.000275
0.000269
0.000179
0.000056
0.001511
0.000315
0.002396
0.000255
0.000281
0.000295
0.000240
0.000264
0.000265
0.000234
0.000259
0.000246
0.000239
0.000236
0.000268
0.000256
0.000281
0.000268
0.000244
0.000276
0.000256
0.000286
0.000264
0.000279
0.000238
0.000258
0.000248
0.000280
0.000255
0.000277
0.000390
0.000057
0.000201
0.002556
0.000332
0.000207
0.000202
0.000205
0.000244
0.000254
0.000257
0.000291
0.000458
0.000281
0.000335
0.000257
0.000214
0.002226
0.000210
0.000229
0.000218
0.000538
0.000352
0.000328
0.000221
0.000239
0.000276
0.000224
0.000273
0.000272
0.000273
0.001692
0.001215
0.000056
0.000198
0.000216
0.000215
0.000443
0.000380
0.000282
0.000219
0.000205
0.000257
0.000258
0.000260
0.000243
0.000232
0.000250
0.000270
0.000258
0.000251
0.000651
0.000420
0.000250
0.000220
0.000234
0.000290
0.000283
0.000224
0.000239
0.000261
0.000279
0.000233
0.000316
0.000383
0.000055
0.001127
0.000241
0.000314
0.000450
0.000349
0.000194
0.000199
0.000238
0.002271
0.000507
0.000200
0.000366
0.000199
0.000289
0.000328
0.000263
0.000270
0.000266
0.000258
0.000240
0.000237
0.000256
0.000624
0.000534
0.001796
0.001310
0.000509
0.000567
0.000250
0.000232
0.000217
0.000057
0.000227
0.000354
0.000269
0.000206
0.000242
0.000244
0.000237
0.000237
0.000268
0.000261
0.000242
0.000247
0.000247
0.000230
0.000409
0.000510
0.001892
0.001354
0.000394
0.000389
0.000451
0.000240
0.000245
0.000261
0.002212
0.000471
0.000377
0.000240
0.000271
0.000281
0.000225
0.000056
0.000194
0.000233
0.000242
0.000237
0.000251
0.000338
0.000480
0.000308
0.000280
0.000255
0.000204
0.000282
0.000241
0.002119
0.000340
0.000397
0.000215
0.000236
0.000264
0.000268
0.000246
0.002466
0.000370
0.000218
0.000218
0.000264
0.000247
0.000269
0.000279
0.000293
0.000215
0.000056
0.000199
0.000378
0.000541
0.000384
0.000232
0.000208
0.000205
0.000234
0.000263
0.000262
0.002135
0.000292
0.000266
0.000250
0.000206
0.000232
0.000275
0.000249
0.002278
0.000376
0.000220
0.000266
0.000261
0.000257
0.000273
0.000249
0.000270
0.000255
0.000277
0.000259
0.000203
0.000056
0.000170
0.000218
0.000243
0.000226
0.000244
0.000252
0.000243
0.000243
0.000247
0.002181
0.000232
0.000279
0.000204
0.000485
0.000213
0.000225
0.000247
0.000284
0.000264
0.000268
0.002020
0.000255
0.000371
0.000367
0.000485
0.000348
0.000287
0.000247
0.000232
0.000249
0.000193
0.000057
0.000182
0.000217
0.000225
0.000249
0.000242
0.000385
0.000210
0.002339
0.000210
0.000233
0.000216
0.000254
0.000241
0.000247
0.000300
0.002209
0.000517
0.000216
0.000253
0.000263
0.000246
0.000264
0.000274
0.000277
0.000277
0.000231
0.000296
0.000254
0.000262
0.000307
0.000162
0.000055
0.000188
0.003009
0.000237
0.000215
0.000238
0.000254
0.000249
0.000295
0.000374
0.000425
0.002114
0.000259
0.000238
0.000251
0.000283
0.000527
0.000432
0.000303
0.000238
0.000204
0.000225
0.000264
0.000271
0.000230
0.000244
0.000277
0.000272
0.000253
0.000277
0.000751
0.000300
0.000056
0.000204
0.000282
0.000254
0.000211
0.000241
0.000245
0.000249
0.000250
0.001551
0.002127
0.000503
0.000276
0.000402
0.000773
0.000354
0.000222
0.000204
0.000232
0.000259
0.000265
0.000254
0.000242
0.000247
0.000277
0.001828
0.001447
0.000289
0.000272
0.000281
0.000353
0.000444
0.000056
0.001937
0.000228
0.000235
0.000199
0.000258
0.000375
0.000570
0.000222
0.000311
0.000249
0.000206
0.000203
0.000254
0.000252
0.000262
0.000267
0.000248
0.000276
0.001907
0.000219
0.000217
0.000218
0.000277
0.000278
0.000274
0.000255
0.001540
0.000367
0.000192
0.000250
0.000143
0.000056
0.000195
0.000196
0.000229
0.000241
0.000256
0.000237
0.000343
0.000348
0.000362
0.000395
0.000204
0.000212
0.000330
0.000323
0.000379
0.000332
0.000228
0.000211
0.000249
0.000348
0.000634
0.000360
0.000227
0.000210
0.000255
0.000260
0.000250
0.000267
0.000276
0.000261
0.000231
0.000056
0.001440
0.000402
0.000231
0.002015
0.000248
0.000431
0.000367
0.000384
0.000194
0.000219
0.000257
0.000246
0.000245
0.000260
0.000256
0.000281
0.000438
0.000257
0.000546
0.000249
0.000389
0.000210
0.000248
0.000261
0.000344
0.000224
0.000240
0.000257
0.000327
0.000497
0.001428
0.000055
0.000209
0.000195
0.002059
0.000280
0.000322
0.000263
0.000259
0.000257
0.000259
0.000257
0.000242
0.000230
0.000255
0.000260
0.000253
0.000362
0.000714
0.001742
0.000256
0.000241
0.000263
0.000255
0.000469
0.000423
0.001502
0.000265
0.000383
0.002001
0.000225
0.000246
0.000188
0.000056
0.000215
0.000206
0.000218
0.000261
0.000239
0.000233
0.000244
0.000285
0.000335
0.000303
0.000381
0.000363
0.000337
0.000297
0.000222
0.000255
0.000254
0.000236
0.000264
0.000275
0.000277
0.000307
0.000257
0.000251
0.000270
0.001587
0.000290
0.000420
0.001973
0.000257
0.000154
0.000056
0.000194
0.000224
0.000224
0.000247
0.000471
0.000229
0.000245
0.000370
0.000350
0.000373
0.000224
0.000221
0.000249
0.000275
0.000271
0.000329
0.000504
0.000344
0.000266
0.000474
0.000633
0.000249
0.001589
0.000258
0.000243
0.002024
0.000345
0.000232
0.000223
0.000249
0.000204
0.000055
0.000189
0.000225
0.000243
0.000212
0.000253
0.000263
0.000258
0.000271
0.000249
0.000268
0.001872
0.000284
0.000394
0.000329
0.000458
0.000362
0.001508
0.000344
0.000228
0.000316
0.002011
0.000636
0.000236
0.000220
0.000243
0.000256
0.000499
0.000233
0.000239
0.000286
0.000210
0.000056
0.000357
0.000273
0.000390
0.000260
0.000226
0.000201
0.000262
0.000265
0.000291
0.000282
0.000199
0.000245
0.000260
0.000252
0.000331
0.000462
0.001347
0.000274
0.000315
0.002012
0.000291
0.000259
0.000209
0.000254
0.000245
0.000269
0.000267
0.000271
0.000243
0.000276
0.000218
0.000056
0.000240
0.000453
0.002041
0.000220
0.000237
0.000235
0.000205
0.000297
0.000430
0.001521
0.000328
0.000375
0.000339
0.001991
0.000237
0.000227
0.000262
0.000279
0.000258
0.000237
0.000287
0.000296
0.000253
0.000322
0.000548
0.000352
0.000380
0.002156
0.000602
0.000444
0.000366
0.000054
0.000202
0.000224
0.000218
0.002039
0.000194
0.000226
0.000232
0.000264
0.000198
0.000259
0.000239
0.000266
0.000255
0.000285
0.000537
0.000394
0.001226
0.000238
0.000270
0.000262
0.000234
0.000249
0.000273
0.000251
0.000550
0.000256
0.000487
0.000234
0.001658
0.000238
0.000145
0.000056
0.000205
0.000209
0.000220
0.000231
0.000252
0.000252
0.000254
0.000249
0.000286
0.000337
0.000362
0.001502
0.000206
0.000210
0.000211
0.000263
0.000261
0.000257
0.000305
0.000500
0.000437
0.000421
0.000221
0.001545
0.000269
0.000238
0.000270
0.000285
0.000261
0.000265
0.000206
0.000056
0.000199
0.000215
0.000250
0.000267
0.000250
0.000251
0.000232
0.000235
0.000260
0.000259
0.000241
0.000249
0.000261
0.000252
0.001581
0.000239
0.000229
0.000278
0.000340
0.000324
0.000360
0.000262
0.000217
0.000249
0.000231
0.000271
0.001480
0.000293
0.000211
0.000239
0.000152
0.000056
0.000194
0.000218
0.000235
0.000265
0.000279
0.000212
0.000248
0.000262
0.000218
0.000267
0.000245
0.000258
0.000220
0.000394
0.000323
0.000307
0.000318
0.001567
0.000349
0.000215
0.000219
0.000226
0.000250
0.000355
0.000436
0.000381
0.000415
0.000228
0.000245
0.001581
0.000204
0.000055
0.000320
0.000378
0.000373
0.000270
0.000207
0.000207
0.000245
0.000258
0.000260
0.000240
0.000237
0.000244
0.001464
0.000325
0.000299
0.000230
0.000220
0.000250
0.000265
0.000268
0.000247
0.000247
0.000260
0.000267
0.000246
0.000469
0.000382
0.000384
0.000293
0.000215
0.000192
0.000056
0.000220
0.000239
0.000495
0.000315
0.000365
0.000250
0.000208
0.000253
0.000253
0.000257
0.000241
0.000229
0.000250
0.000251
0.001335
0.000278
0.000227
0.000208
0.000256
0.000272
0.000258
0.000242
0.000253
0.000265
0.000255
0.000256
0.000302
0.000737
0.000427
0.000244
0.000184
0.000056
0.000207
0.001528
0.000279
0.000275
0.000615
0.000273
0.000207
0.000227
0.000265
0.000252
0.000236
0.000273
0.000264
0.000271
0.000268
0.001527
0.000258
0.000271
0.000265
0.000260
0.000252
0.000252
0.000277
0.000259
0.000262
0.000265
0.000441
0.000411
0.000354
0.000226
0.000163
0.000056
0.000183
0.000211
0.000247
0.001710
0.000406
0.000336
0.000198
0.000207
0.000234
0.000275
0.000270
0.000263
0.000250
0.000263
0.000231
0.000271
0.000411
0.001378
0.000236
0.000218
0.001534
0.000268
0.000627
0.000391
0.000299
0.000216
0.000252
0.000467
0.000242
0.000243
0.000203
0.000056
0.000302
0.000212
0.000213
0.000241
0.000241
0.000260
0.000238
0.000246
0.000271
0.000231
0.000255
0.000261
0.000399
0.000394
0.001683
0.001495
0.000381
0.000571
0.000265
0.000240
0.000239
0.000256
0.000239
0.000266
0.000250
0.000256
0.000267
0.000271
0.001611
0.000313
0.000140
0.000057
0.000233
0.000333
0.000351
0.000332
0.000263
0.000199
0.000227
0.000303
0.000497
0.001379
0.000359
0.001545
0.000449
0.000357
0.000478
0.000275
0.000333
0.000335
0.000345
0.000277
0.000233
0.000345
0.001574
0.000538
0.000237
0.000232
0.000260
0.000249
0.000256
0.000267
0.000210
0.000057
0.000210
0.000217
0.000251
0.000261
0.000235
0.001656
0.000959
0.000900
0.000241
0.000222
0.000258
0.000260
0.000254
0.000257
0.000258
0.000258
0.000246
0.000265
0.000270
0.000275
0.001513
0.000270
0.000256
0.000213
0.000241
0.000228
0.000260
0.000277
0.000267
0.000283
0.000259
0.000056
0.000190
0.000217
0.001527
0.001016
0.000280
0.000362
0.000210
0.000217
0.000247
0.000237
0.000239
0.000264
0.000238
0.002052
0.000470
0.000216
0.000230
0.000224
0.000247
0.000267
0.000220
