0.000166
0.009608
0.012100
0.000257
0.000261
0.000284
0.000306
0.000244
0.000333
0.000284
0.000247
0.000346
0.000481
0.000520
0.000370
0.000348
0.000287
0.000351
0.000352
0.000414
0.000316
0.001900
0.000721
0.000242
0.000258
0.000303
0.000306
0.000333
0.000435
0.000496
0.000490
0.000212
0.000060
0.000189
0.000269
0.000272
0.000260
0.000270
0.000248
0.000282
0.000276
0.000258
0.000331
0.000492
0.000368
0.000283
0.000260
0.000415
0.000300
0.000367
0.000247
0.000250
0.001718
0.000324
0.000230
0.000459
0.000235
0.000267
0.000294
0.000277
0.000298
0.000278
0.000330
0.000457
0.000057
0.000256
0.000248
0.000259
0.000265
0.000251
0.000247
0.000261
0.000258
0.000285
0.001677
0.000224
0.000234
0.000263
0.000278
0.000275
0.000249
0.000263
0.000263
0.000355
0.001800
0.000234
0.000272
0.000454
0.000465
0.000354
0.000230
0.000253
0.000533
0.000442
0.000756
0.000205
0.000056
0.000225
0.000244
0.000252
0.000242
0.000300
0.000248
0.000286
0.000682
0.000306
0.000241
0.000238
0.000245
0.000244
0.000254
0.000255
0.000263
0.000244
0.000259
0.000313
0.000318
0.001679
0.000261
0.000258
0.000420
0.000312
0.000683
0.000757
0.000464
0.000317
0.000231
0.000188
0.000056
0.000229
0.000251
0.000264
0.000244
0.000258
0.000254
0.000275
0.000697
0.001233
0.000210
0.000245
0.000246
0.000256
0.000253
0.000269
0.000280
0.000260
0.000838
0.001377
0.000275
0.000465
0.000259
0.000207
0.000237
0.000252
0.000257
0.000268
0.000276
0.000261
0.000265
0.000199
0.000056
0.000209
0.000238
0.000243
0.000266
0.000239
0.000242
0.000243
0.000256
0.000240
0.000251
0.001634
0.000264
0.000235
0.000231
0.000257
0.000247
0.000246
0.000249
0.000254
0.000257
0.000271
0.001667
0.000294
0.000246
0.000435
0.000252
0.000265
0.000253
0.000264
0.000261
0.000195
0.000057
0.000210
0.000229
0.000254
0.000254
0.000238
0.000250
0.000255
0.000238
0.000264
0.000242
0.000279
0.000235
0.000282
0.000253
0.001649
0.000275
0.000285
0.000215
0.000254
0.000275
0.000267
0.000243
0.000244
0.000265
0.001786
0.000455
0.000277
0.000353
0.000256
0.000278
0.000191
0.000056
0.000217
0.000246
0.000266
0.000248
0.000253
0.000238
0.000304
0.000420
0.000381
0.000434
0.000201
0.000250
0.000254
0.000250
0.001714
0.000470
0.000329
0.000309
0.000320
0.000225
0.000272
0.000281
0.000268
0.001746
0.000519
0.000452
0.000244
0.000243
0.000250
0.000268
0.000181
0.000057
0.000191
0.000232
0.000258
0.000289
0.000358
0.000389
0.000386
0.000279
0.000211
0.000246
0.000265
0.000235
0.000258
0.001698
0.000501
0.000288
0.000227
0.000254
0.000273
0.000281
0.000248
0.000257
0.000276
0.001929
0.000275
0.000375
0.000257
0.000244
0.000271
0.000412
0.000327
0.000058
0.000185
0.000495
0.000287
0.000243
0.000252
0.000247
0.000248
0.000262
0.000239
0.000236
0.000236
0.000247
0.001657
0.000280
0.000286
0.000233
0.000249
0.000247
0.000256
0.000277
0.000277
0.000336
0.000238
0.001814
0.000240
0.000514
0.000241
0.000252
0.000263
0.000263
0.000270
0.000056
0.000428
0.000535
0.000577
0.000222
0.000225
0.000274
0.000231
0.000223
0.000254
0.000256
0.000251
0.001708
0.000245
0.000441
0.000369
0.000212
0.000252
0.000229
0.000245
0.000275
0.000243
0.001862
0.000229
0.000243
0.002146
0.000469
0.000347
0.000244
0.000255
0.000273
0.000178
0.000057
0.000211
0.000249
0.000243
0.000246
0.000253
0.001633
0.000248
0.000221
0.000259
0.000254
0.000243
0.000246
0.000246
0.000256
0.000265
0.000477
0.000603
0.000236
0.000232
0.000262
0.000261
0.000252
0.000244
0.000431
0.000442
0.000272
0.000374
0.000606
0.000363
0.000249
0.000202
0.000057
0.000195
0.000247
0.000245
0.000252
0.000231
0.000257
0.000246
0.000455
0.000349
0.001736
0.000215
0.000235
0.000243
0.000247
0.000259
0.000314
0.000361
0.000566
0.000320
0.000238
0.000225
0.000302
0.000287
0.000265
0.000267
0.000434
0.000345
0.000623
0.000473
0.000422
0.000175
0.000059
0.000184
0.000271
0.000231
0.000225
0.000243
0.000235
0.000252
0.000241
0.000246
0.000296
0.000346
0.000428
0.001386
0.000259
0.000228
0.000238
0.000260
0.000245
0.000254
0.000251
0.000360
0.000446
0.000351
0.000263
0.000255
0.000262
0.000256
0.000271
0.000263
0.000262
0.000385
0.000056
0.000216
0.000236
0.000230
0.000278
0.000625
0.000332
0.000237
0.000252
0.000235
0.000256
0.000250
0.000238
0.000295
0.000248
0.000242
0.000463
0.000463
0.001630
0.000274
0.000224
0.000255
0.000265
0.000268
0.000231
0.000267
0.000539
0.000447
0.000288
0.000411
0.000222
0.000206
0.000057
0.000202
0.000435
0.000236
0.000213
0.000261
0.000270
0.000330
0.000638
0.000224
0.000307
0.000207
0.000275
0.000268
0.000233
0.000546
0.000327
0.000216
0.000259
0.000556
0.001490
0.000260
0.000280
0.000485
0.000239
0.000282
0.000276
0.000257
0.000491
0.000413
0.000378
0.000269
0.000056
0.000210
0.000229
0.000235
0.000244
0.000418
0.000306
0.000292
0.000219
0.000387
0.000644
0.000222
0.000258
0.000232
0.000243
0.000258
0.000267
0.000255
0.000257
0.000221
0.000357
0.000294
0.000347
0.001837
0.000238
0.000259
0.000242
0.000307
0.000342
0.000439
0.000835
0.000263
0.000057
0.000257
0.000308
0.000281
0.000425
0.000397
0.000204
0.000249
0.000366
0.000433
0.000496
0.000190
0.000238
0.000238
0.000271
0.000262
0.000234
0.000266
0.000263
0.000269
0.000257
0.000275
0.000443
0.000636
0.001326
0.000344
0.000421
0.000415
0.000262
0.000431
0.000506
0.000234
0.000057
0.000229
0.000386
0.000276
0.000205
0.000215
0.000255
0.000411
0.000235
0.000266
0.000376
0.000379
0.000479
0.000229
0.000236
0.000262
0.000251
0.000363
0.000389
0.000355
0.000230
0.000246
0.000437
0.000607
0.001662
0.000229
0.000456
0.000284
0.000233
0.000281
0.000454
0.000250
0.000057
0.000237
0.000220
0.000244
0.000248
0.000249
0.000245
0.000249
0.000323
0.000469
0.000336
0.000419
0.000335
0.000289
0.000569
0.000247
0.000238
0.000276
0.000262
0.000236
0.000360
0.000221
0.000235
0.000280
0.000481
0.000384
0.001696
0.000262
0.000243
0.000251
0.000256
0.000184
0.000056
0.000221
0.000522
0.000299
0.000228
0.000241
0.000247
0.000260
0.000238
0.000263
0.000250
0.000223
0.000246
0.000432
0.000522
0.000391
0.000270
0.000253
0.000274
0.000323
0.000385
0.000386
0.000358
0.000392
0.000333
0.000243
0.000249
0.000272
0.000271
0.001804
0.000241
0.000212
0.000056
0.000196
0.000218
0.000257
0.000275
0.000369
0.000540
0.000329
0.000193
0.000257
0.000265
0.000246
0.000248
0.000524
0.000448
0.000479
0.000285
0.000269
0.000260
0.000418
0.000472
0.000354
0.000501
0.000522
0.000306
0.000253
0.000235
0.000271
0.000250
0.000255
0.001728
0.000325
0.000056
0.000260
0.000333
0.000210
0.000234
0.000254
0.000247
0.000244
0.000509
0.000367
0.000307
0.000297
0.000305
0.000384
0.000595
0.000325
0.000232
0.000246
0.000254
0.000251
0.000283
0.000254
0.000266
0.000246
0.000261
0.000344
0.000321
0.000400
0.000380
0.000234
0.000250
0.000189
0.000056
0.000481
0.000257
0.000458
0.000258
0.000205
0.000240
0.000247
0.000255
0.000246
0.000218
0.000268
0.000266
0.000291
0.000441
0.000528
0.000393
0.000319
0.000314
0.000390
0.000335
0.000293
0.000243
0.000249
0.000252
0.001756
0.000256
0.001716
0.000943
0.000378
0.000343
0.000164
0.000058
0.000203
0.000231
0.000230
0.000252
0.000255
0.000245
0.000255
0.000254
0.000240
0.000366
0.000307
0.000478
0.000304
0.000375
0.000241
0.000264
0.000250
0.000291
0.000225
0.000248
0.000273
0.000241
0.001810
0.000238
0.000258
0.000263
0.000278
0.000261
0.002026
0.000384
0.000282
0.000056
0.000232
0.000199
0.000258
0.000227
0.000253
0.000247
0.000247
0.000251
0.000290
0.000365
0.000633
0.000400
0.000236
0.000206
0.000230
0.000253
0.000333
0.000440
0.000377
0.000253
0.001761
0.000255
0.000255
0.000237
0.000265
0.000269
0.000242
0.000255
0.000324
0.000372
0.000418
0.000056
0.000259
0.000199
0.000236
0.000259
0.000250
0.000242
0.000252
0.000259
0.000236
0.000257
0.000247
0.000298
0.000383
0.000412
0.000293
0.000275
0.000470
0.000245
0.000233
0.000261
0.000258
0.000258
0.000277
0.000273
0.000263
0.001794
0.000248
0.000245
0.000251
0.000241
0.000203
0.000056
0.000239
0.000302
0.000242
0.000216
0.000238
0.000238
0.000239
0.000248
0.000250
0.000229
0.000231
0.000267
0.000258
0.000345
0.000469
0.000332
0.000268
0.000232
0.000250
0.000257
0.000262
0.000262
0.000253
0.000265
0.000247
0.000274
0.000318
0.001625
0.000271
0.000226
0.000185
0.000056
0.000207
0.000230
0.000253
0.000295
0.000320
0.000392
0.000353
0.000324
0.000228
0.000254
0.000246
0.000245
0.000243
0.000255
0.000266
0.000256
0.000242
0.000260
0.000249
0.000262
0.000265
0.000272
0.000250
0.000237
0.000235
0.000286
0.000272
0.000266
0.000255
0.000259
0.000195
0.000055
0.000189
0.000252
0.000235
0.000256
0.000237
0.000254
0.000242
0.000261
0.000302
0.000212
0.000231
0.000252
0.000252
0.000250
0.000269
0.000264
0.000251
0.000261
0.000291
0.000244
0.000278
0.000294
0.000276
0.000242
0.000282
0.000275
0.000274
0.000245
0.000286
0.000451
0.000645
0.000057
0.000222
0.000293
0.000219
0.000232
0.000231
0.000257
0.000238
0.000250
0.000254
0.000245
0.000264
0.000355
0.000529
0.000433
0.001485
0.000230
0.000474
0.000242
0.000316
0.000403
0.000453
0.000363
0.000220
0.000278
0.000257
0.000256
0.000277
0.000258
0.000323
0.000241
0.000189
0.000056
0.000378
0.000411
0.000451
0.000186
0.000201
0.000257
0.000248
0.000242
0.000236
0.000248
0.000253
0.000258
0.000227
0.000297
0.000313
0.000633
0.000272
0.001803
0.000234
0.000244
0.000332
0.000451
0.000394
0.000348
0.000303
0.000312
0.000306
0.000237
0.000220
0.000252
0.000195
0.000056
0.000186
0.000231
0.000239
0.000288
0.000400
0.000485
0.000258
0.000256
0.000254
0.000212
0.000248
0.000272
0.000267
0.000261
0.000244
0.000259
0.000368
0.000480
0.000284
0.000444
0.000235
0.001747
0.000331
0.000484
0.000485
0.000513
0.000302
0.000236
0.000242
0.000272
0.000442
0.000057
0.000197
0.000260
0.000231
0.000345
0.000321
0.000520
0.000383
0.000202
0.000236
0.000287
0.000244
0.000262
0.000254
0.000339
0.000272
0.000221
0.000237
0.000378
0.000493
0.000326
0.000532
0.001813
0.000241
0.000528
0.000433
0.000344
0.000254
0.000238
0.000279
0.000261
0.000206
0.000058
0.000219
0.000335
0.000359
0.000271
0.000444
0.000309
0.000360
0.000214
0.000234
0.000261
0.000286
0.000226
0.000240
0.000251
0.000253
0.000261
0.000324
0.000366
0.000570
0.000305
0.000303
0.000243
0.000251
0.001709
0.000427
0.001021
0.000160
0.000267
0.000248
0.000304
0.000155
0.000056
0.000190
0.000234
0.000329
0.000256
0.000248
0.000506
0.000262
0.000351
0.000236
0.000545
0.000221
0.000240
0.000255
0.000280
0.000274
0.000265
0.000211
0.000437
0.000384
0.000444
0.000252
0.000237
0.000253
0.000260
0.000260
0.000265
0.000239
0.000254
0.000265
0.000290
0.000211
0.000057
0.000377
0.000281
0.000220
0.000245
0.000249
0.000263
0.000233
0.000296
0.000241
0.000245
0.000261
0.000369
0.000410
0.000416
0.000324
0.000274
0.000220
0.000238
0.000258
0.000288
0.000276
0.000253
0.000236
0.000251
0.000282
0.000305
0.000592
0.000223
0.000339
0.000233
0.000174
0.000056
0.000203
0.000219
0.000288
0.000243
0.000237
0.000245
0.000259
0.000253
0.000495
0.000216
0.000255
0.000249
0.000248
0.000263
0.000279
0.000275
0.000278
0.000327
0.000226
0.000244
0.000249
0.000269
0.000251
0.000276
0.000274
0.000280
0.000244
0.000254
0.000521
0.000249
0.000151
0.000058
0.000194
0.000228
0.000257
0.000265
0.000226
0.000240
0.000362
0.000407
0.000239
0.000234
0.000248
0.000260
0.000232
0.000273
0.000495
0.001730
0.000224
0.000269
0.000283
0.000390
0.000365
0.000381
0.000334
0.000395
0.000380
0.000420
0.000244
0.000259
0.000268
0.000278
0.001412
0.000057
0.000417
0.000259
0.000260
0.000223
0.000226
0.000255
0.000238
0.000251
0.000244
0.000267
0.000249
0.000256
0.000248
0.000250
0.000623
0.001594
0.000237
0.000235
0.000237
0.000263
0.000244
0.000256
0.000460
0.000334
0.000259
0.000357
0.000213
0.000271
0.000273
0.000260
0.000201
0.000056
0.001303
0.000471
0.000303
0.000266
0.000236
0.000215
0.000245
0.000234
0.000490
0.000224
0.000239
0.000246
0.000333
0.000626
0.000314
0.000347
0.000242
0.000223
0.000352
0.000344
0.000266
0.000262
0.000268
0.000239
0.000290
0.000736
0.000420
0.000224
0.000248
0.000265
0.000170
0.000056
0.000219
0.000210
0.000242
0.000249
0.001558
0.000211
0.000223
0.000258
0.000231
0.000254
0.000255
0.000252
0.000243
0.000261
0.000272
0.000355
0.000428
0.000608
0.000257
0.001740
0.000268
0.000276
0.000327
0.000395
0.000711
0.000242
0.000254
0.000246
0.000250
0.000276
0.000192
0.000057
0.000207
0.000241
0.000238
0.000356
0.001219
0.000230
0.000257
0.000266
0.000229
0.000243
0.000236
0.000247
0.000279
0.000252
0.000250
0.000377
0.000432
0.000385
0.000305
0.000259
0.000267
0.000271
0.000253
0.000232
0.000291
0.000255
0.000249
0.000278
0.000278
0.000295
0.000668
0.000057
0.000172
0.000246
0.000238
0.000262
0.000264
0.000243
0.000229
0.000268
0.000269
0.000253
0.001434
0.000224
0.000238
0.000258
0.000245
0.000241
0.000264
0.000264
0.000264
0.000268
0.000286
0.000467
0.000489
0.000364
0.000231
0.000266
0.001763
0.000259
0.000267
0.000343
0.000398
0.000057
0.000225
0.000385
0.000451
0.000502
0.000516
0.000538
0.001511
0.000398
0.000520
0.000651
0.000554
0.000761
0.000442
0.000619
0.000579
0.001914
0.000441
0.000371
0.000394
0.000314
0.000229
0.000308
0.000258
0.000254
0.000270
0.000294
0.000281
0.000293
0.000251
0.000298
0.001364
0.000056
0.000210
0.000220
0.000242
0.000238
0.000260
0.000253
0.000238
0.000240
0.000253
0.000247
0.000231
0.000248
0.000260
0.000253
0.000276
0.000255
0.001812
0.000300
0.000225
0.000261
0.000242
0.000273
0.000262
0.000291
0.000499
0.000309
0.000355
0.000224
0.000265
0.000287
0.000201
0.000057
0.000210
0.001360
0.000318
0.000264
0.000259
0.000236
0.000244
0.000248
0.000222
0.000244
0.000214
0.000255
0.000248
0.000499
0.000363
0.000284
0.000261
0.000264
0.001950
0.000207
0.000242
0.000261
0.000269
0.000265
0.000263
0.000289
0.000262
0.000264
0.000257
0.000320
0.000201
0.000056
0.000199
0.000240
0.000246
0.001470
0.000198
0.000249
0.000244
0.000244
0.000237
0.000275
0.000244
0.000246
0.000249
0.000265
0.000248
0.000256
0.000259
0.000270
0.000269
0.000280
0.000244
0.001772
0.000272
0.001757
0.000274
0.000243
0.000259
0.000272
0.000289
0.000251
0.000199
0.000055
0.000199
0.000243
0.001362
0.000209
0.000265
0.000241
0.000255
0.000254
0.000238
0.000252
0.000247
0.000250
0.000261
0.000263
0.000260
0.000265
0.000256
0.000283
0.000292
0.000232
0.001885
0.000235
0.001826
0.000248
0.000242
0.000282
0.000235
0.000251
0.000252
0.000269
0.000200
0.000055
0.001427
0.000219
0.000235
0.000232
0.000240
0.000238
0.000376
0.000268
0.000247
0.000257
0.000247
0.000265
0.000286
0.000404
0.000300
0.000296
0.000251
0.000272
0.000262
0.000238
0.000269
0.000347
0.000225
0.000252
0.000269
0.000278
0.000273
0.000523
0.000508
0.000317
0.000195
0.000058
0.000222
0.000239
0.000270
0.000305
0.000369
0.000257
0.001714
0.000291
0.000279
0.000250
0.000260
0.000278
0.000262
0.000268
0.000297
0.000309
0.000434
0.000509
0.000344
0.000276
0.000289
0.000275
0.000263
0.000263
0.000333
0.000261
0.000263
0.000258
0.000245
0.000320
0.000402
0.000073
0.000204
0.000473
0.000269
0.000265
0.000246
0.000227
0.000225
0.000251
0.000255
0.000297
0.001486
0.000227
0.000213
0.000251
0.000244
0.000291
0.000262
0.000249
0.000270
0.000265
0.000272
0.000421
0.000548
0.000262
0.000251
0.000293
0.000264
0.000251
0.000240
0.000316
0.000164
0.000057
0.000201
0.000220
0.000265
0.000559
0.000319
0.000256
0.000209
0.000252
0.000251
0.000255
0.000227
0.000255
0.000254
0.000265
0.000240
0.000238
0.000365
0.001266
0.000229
0.000238
0.000287
0.000246
0.000355
0.000427
0.000236
0.000444
0.000458
0.000361
0.000377
0.000237
0.000171
0.000057
0.000213
0.000248
0.000261
0.000261
0.000257
0.000247
0.000363
0.000398
0.000402
0.000304
0.000365
0.000392
0.000388
0.000363
0.000259
0.000242
0.000227
0.000299
0.000342
0.000477
0.001281
0.000221
0.000267
0.000277
0.000227
0.000239
0.000266
0.000348
0.000505
0.000323
0.000255
0.000056
0.000179
0.000240
0.000253
0.000240
0.000256
0.000242
0.000235
0.000260
0.000382
0.000335
0.000411
0.000334
0.000252
0.000227
0.000256
0.000256
0.000260
0.000248
0.000265
0.000250
0.000441
0.000349
0.000294
0.000423
0.000292
0.000252
0.000275
0.000270
0.000249
0.000369
0.000134
0.000056
0.000288
0.000322
0.000392
0.000357
0.000388
0.000349
0.000246
0.000238
0.000250
0.000276
0.000253
0.000265
0.000238
0.000249
0.000240
0.000228
0.000287
0.000428
0.000375
0.000397
0.000212
0.000274
0.000246
0.000243
0.000263
0.000291
0.000254
0.000271
0.000276
0.000263
0.000299
0.000056
0.000379
0.000237
0.000233
0.000247
0.000241
0.000249
0.000255
0.000256
0.000257
0.000255
0.000252
0.000242
0.000437
0.000459
0.000316
0.000296
0.000237
0.000240
0.000260
0.000262
0.000261
0.000260
0.000258
0.000260
0.000282
0.000421
0.000317
0.000587
0.000412
0.000242
0.000175
0.000055
0.000376
0.000226
0.000200
0.000246
0.000252
0.000248
0.000238
0.000252
0.000256
0.000264
0.000216
0.000242
0.000279
0.000225
0.000237
0.000269
0.000250
0.000278
0.000260
0.000259
0.000263
0.000260
0.000258
0.000267
0.000274
0.000230
0.000272
0.000291
0.000239
0.000286
0.000188
0.000056
0.000185
0.000236
0.000246
0.000250
0.000232
0.000256
0.000255
0.000249
0.000256
0.000279
0.000222
0.000239
0.000260
0.000394
0.000255
0.000277
0.000281
0.000250
0.000254
0.000276
0.000270
0.000240
0.000251
0.000243
0.000269
0.000278
0.000267
0.000234
0.000268
0.000267
0.000205
0.000056
0.000209
0.000356
0.000367
0.000286
0.000292
0.000253
0.000263
0.000259
0.000226
0.000242
0.000251
0.000262
0.000248
0.000234
0.000276
0.000246
0.000261
0.000273
0.000241
0.000263
0.000282
0.000261
0.000282
0.000252
0.000274
0.000241
0.000258
0.000279
0.000271
0.000254
0.000190
0.000057
0.000202
0.000228
0.000267
0.000265
0.000487
0.000211
0.000210
0.000244
0.000350
0.000385
0.000494
0.000277
0.000231
0.000243
0.000266
0.000271
0.000238
0.000270
0.000260
0.000265
0.000286
0.000241
0.000255
0.000285
0.000506
0.000531
0.000271
0.000291
0.000262
0.000257
0.000190
0.000056
0.000211
0.000226
0.000249
0.000250
0.000394
0.000607
0.000294
0.000386
0.000204
0.000238
0.000255
0.000257
0.000248
0.000254
0.000256
0.000264
0.000285
0.000235
0.000636
0.000391
0.000289
0.000240
0.000258
0.000284
0.000281
0.000256
0.000261
0.000275
0.000240
0.000345
0.000329
0.000057
0.000263
0.000231
0.000241
0.000237
0.000255
0.000252
0.000233
0.000246
0.000238
0.000262
0.000244
0.000262
0.000243
0.000370
0.000629
0.000371
0.000217
0.000260
0.000261
0.000246
0.000262
0.000272
0.000493
0.000225
0.000257
0.000681
0.000338
0.000491
0.000246
0.000245
0.000187
0.000056
0.000182
0.000230
0.000243
0.000250
0.000253
0.000255
0.000342
0.000399
0.000629
0.000375
0.000222
0.000262
0.000276
0.000272
0.000259
0.000246
0.000234
0.000251
0.000284
0.000366
0.000396
0.000599
0.000363
0.000253
0.000363
0.000370
0.000484
0.000242
0.000270
0.000391
0.000493
0.000056
0.000284
0.000212
0.000436
0.000230
0.000220
0.000256
0.000265
0.000260
0.000228
0.000241
0.000260
0.000414
0.000443
0.000308
0.000221
0.000218
0.000255
0.000249
0.000264
0.000276
0.000271
0.000253
0.000253
0.000281
0.000302
0.000476
0.000485
0.000246
0.000255
0.000273
0.000197
0.000056
0.000214
0.000257
0.000237
0.000232
0.000246
0.000252
0.000422
0.000472
0.000311
0.000284
0.000374
0.000220
0.000242
0.000267
0.000253
0.000241
0.000255
0.000259
0.000283
0.000447
0.000428
0.000346
0.000491
0.000261
0.000387
0.000423
0.000382
0.000238
0.000248
0.000291
0.000374
0.000056
0.000258
0.000255
0.000218
0.000271
0.000246
0.000249
0.000252
0.000247
0.000251
0.000266
0.000238
0.000391
0.000463
0.000329
0.000373
0.000219
0.000267
0.000266
0.000263
0.000238
0.000250
0.000249
0.000265
0.000276
0.000304
0.000356
0.000445
0.000474
0.000233
0.000279
0.000207
0.000056
0.000204
0.000234
0.000266
0.000239
0.000263
0.000371
0.000490
0.000485
0.000330
0.000681
0.000266
0.000219
0.000233
0.000265
0.000241
0.000274
0.000275
0.000309
0.000443
0.000486
0.001445
0.000311
0.000255
0.000260
0.000291
0.000262
0.000395
0.000412
0.000346
0.000347
0.000162
0.000056
0.000221
0.000225
0.000240
0.000252
0.000240
0.000254
0.000274
0.000247
0.000249
0.000342
0.000326
0.000391
0.000266
0.000335
0.000409
0.000326
0.000245
0.000234
0.000277
0.000257
0.000249
0.000249
0.000284
0.000238
0.000331
0.000456
0.000413
0.000302
0.000240
0.000269
0.000183
0.000056
0.000225
0.000245
0.000254
0.000256
0.000244
0.000234
0.000468
0.000216
0.000233
0.000256
0.000242
0.000271
0.000245
0.000254
0.000245
0.000269
0.000266
0.000265
0.000274
0.000255
0.000263
0.000283
0.000291
0.000246
0.000264
0.000278
0.000288
0.000250
0.000264
0.000268
0.000172
0.000055
0.000238
0.000236
0.000331
0.000450
0.000320
0.000251
0.000239
0.000242
0.000263
0.000251
0.000237
0.000260
0.000265
0.000261
0.000239
0.000244
0.000251
0.000274
0.000243
0.000523
0.000358
0.000334
0.000223
0.000280
0.000246
0.000254
0.000270
0.000248
0.000271
0.000282
0.000197
0.000055
0.000461
0.000293
0.000453
0.000203
0.000250
0.000257
0.000405
0.000226
0.000230
0.000256
0.000258
0.000297
0.000476
0.000350
0.001827
0.000253
0.000242
0.000249
0.000275
0.000241
0.000383
0.000540
0.000408
0.000373
0.000222
0.000265
0.000273
0.000421
0.000283
0.000283
0.000164
0.000055
0.000224
0.000370
0.000381
0.000272
0.000494
0.000203
0.000243
0.000262
0.000238
0.000238
0.000261
0.000243
0.000264
0.000308
0.000482
0.000410
0.000229
0.000242
0.000264
0.000257
0.000256
0.000333
0.000215
0.000287
0.000279
0.000491
0.000497
0.000386
0.000452
0.000223
0.000204
0.000056
0.000193
0.000239
0.000260
0.000223
0.000255
0.000247
0.000266
0.000273
0.000363
0.000468
0.000325
0.000349
0.000221
0.000249
0.000260
0.000305
0.000294
0.000231
0.000266
0.000278
0.000236
0.000344
0.000407
0.000394
0.000302
0.000244
0.000263
0.000429
0.000420
0.000314
0.000170
0.000058
0.000181
0.000328
0.000300
0.000400
0.000354
0.000207
0.000235
0.000249
0.000265
0.000248
0.000284
0.000234
0.000228
0.000261
0.000260
0.000306
0.000468
0.000286
0.000287
0.000339
0.000492
0.000229
0.000282
0.000291
0.000281
0.000287
0.000256
0.000263
0.000545
0.000484
0.000155
0.000056
0.000184
0.000234
0.000251
0.000244
0.000247
0.000476
0.000217
0.000258
0.000256
0.000421
0.000417
0.000583
0.000200
0.000240
0.000251
0.000252
0.000252
0.000242
0.000267
0.000248
0.000259
0.000267
0.000375
0.000421
0.000357
0.000410
0.000286
0.000305
0.000323
0.000244
0.000177
0.000058
0.000178
0.000231
0.000254
0.000501
0.000326
0.000284
0.000265
0.000216
0.000242
0.000261
0.000255
0.000248
0.000251
0.000258
0.000258
0.000250
0.000257
0.000242
0.000306
0.000374
0.000483
0.000391
0.000226
0.000252
0.000279
0.000277
0.000251
0.000279
0.000248
0.000268
0.000189
0.000057
0.000291
0.000422
0.000456
0.000217
0.000202
0.000244
0.000332
0.000451
0.000302
0.000193
0.000245
0.000273
0.000248
0.000480
0.000405
0.000295
0.000233
0.000234
0.000249
0.000285
0.000255
0.000262
0.000266
0.000273
0.000255
0.000300
0.000406
0.000411
0.000314
0.000249
0.000171
0.000058
0.000203
0.000236
0.000247
0.000259
0.000249
0.000264
0.000229
0.000258
0.000245
0.000251
0.000266
0.000235
0.000263
0.001463
0.000217
0.000254
0.000268
0.000243
0.000273
0.000279
0.000256
0.000245
0.000275
0.000251
0.000266
0.000288
0.000253
0.000273
0.000259
0.000271
0.000191
0.000073
0.000190
0.000229
0.000257
0.000253
0.000237
0.000254
0.000242
0.000263
0.000224
0.000248
0.000247
0.000260
0.000260
0.000256
0.000248
0.000282
0.000226
0.000259
0.000276
0.000255
0.000254
0.000265
0.000259
0.000239
0.001297
0.000270
0.000626
0.000361
0.000353
0.000248
0.000186
0.000056
0.000207
0.000227
0.000247
0.000255
0.000410
0.000249
0.000223
0.000247
0.000271
0.000421
0.000366
0.000342
0.000237
0.000236
0.000259
0.000264
0.000255
0.000265
0.000245
0.000258
0.000262
0.000256
0.000289
0.000424
0.000502
0.000438
0.000209
0.000268
0.001387
0.000234
0.000176
0.000056
0.000424
0.000330
0.000328
0.000261
0.000222
0.000246
0.000216
0.000252
0.000260
0.000255
0.000249
0.000260
0.000271
0.000334
0.000508
0.000423
0.000287
0.000226
0.000238
0.000261
0.000266
0.000262
0.000268
0.000267
0.000267
0.000265
0.000289
0.000615
0.000344
0.000393
0.000135
0.000056
0.000203
0.000234
0.001269
0.000416
0.000542
0.000231
0.000411
0.000441
0.000280
0.000338
0.000235
0.000215
0.000261
0.000251
0.000248
0.000274
0.000624
0.000242
0.000437
0.000298
0.000250
0.000253
0.000251
0.000511
0.000245
0.000254
0.000257
0.000283
0.000412
0.000480
0.000252
0.000057
0.000387
0.000306
0.000228
0.000222
0.001554
0.000577
0.000224
0.000231
0.000241
0.000248
0.000231
0.000237
0.000244
0.000272
0.000250
0.000264
0.000232
0.000299
0.000379
0.000371
0.000481
0.000228
0.000264
0.000249
0.000256
0.000275
0.000268
0.000235
0.000273
0.000279
0.000194
0.000056
0.000381
0.000349
0.000225
0.000232
0.000242
0.000239
0.000254
0.000251
0.000223
0.000236
0.001400
0.000480
0.000278
0.000230
0.000246
0.000250
0.000275
0.000263
0.000238
0.000272
0.000266
0.000258
0.000257
0.000471
0.000411
0.000428
0.000211
0.000270
0.000277
0.000288
0.000167
0.000055
0.000210
0.000412
0.000227
0.000273
0.000348
0.000404
0.000345
0.000347
0.000456
0.000209
0.000231
0.000248
0.000267
0.000263
0.000258
0.001450
0.000325
0.000284
0.000234
0.000278
0.000279
0.000247
0.000257
0.000252
0.000262
0.000280
0.000450
0.000457
0.000268
0.000284
0.000151
0.000056
0.000186
0.000235
0.000251
0.000237
0.000228
0.000261
0.000242
0.000246
0.000321
0.000326
0.000444
0.000289
0.000256
0.000240
0.000240
0.000281
0.000269
0.000262
0.000269
0.000229
0.000252
0.000356
0.001228
0.000256
0.000257
0.000248
0.000244
0.000265
0.000260
0.000258
0.000187
0.000056
0.000218
0.000424
0.000315
0.000331
0.000242
0.000241
0.000259
0.000263
0.000254
0.000248
0.000258
0.000269
0.000240
0.000252
0.000259
0.000263
0.000263
0.000271
0.000265
0.000244
0.000259
0.000268
0.000266
0.000288
0.000291
0.000267
0.000263
0.000253
0.000263
0.000445
0.001378
0.000056
0.000197
0.000247
0.000222
0.000242
0.000259
0.000254
0.000248
0.000225
0.000245
0.000248
0.000281
0.000249
0.000260
0.000236
0.000254
0.000244
0.001737
0.000249
0.000240
0.000261
0.000247
0.000258
0.000269
0.000260
0.000275
0.000258
0.000267
0.000286
0.000260
0.000261
0.000224
0.000056
0.000289
0.000258
0.001317
0.000216
0.000238
0.000262
0.000239
0.000252
0.000257
0.000257
0.000233
0.000335
0.000453
0.000402
0.000283
0.000220
0.000247
0.000252
0.000255
0.000270
0.000239
0.000272
0.000265
0.000284
0.000269
0.000391
0.000547
0.000180
0.000316
0.000243
0.000190
0.000056
0.000204
0.000253
0.000238
0.000246
0.000254
0.000227
0.000234
0.000342
0.000350
0.001336
0.000262
0.000206
0.000244
0.000271
0.000253
0.000268
0.000268
0.000247
0.000316
0.000529
0.000273
0.000250
0.000243
0.000240
0.000284
0.000274
0.000275
0.000292
0.000267
0.000278
0.000198
0.000057
0.000304
0.000401
0.000356
0.000210
0.000233
0.000234
0.000252
0.000275
0.000264
0.000268
0.000207
0.000253
0.000458
0.000568
0.000406
0.001456
0.000249
0.000258
0.000334
0.000348
0.000481
0.000444
0.000450
0.000389
0.000228
0.000265
0.000285
0.000251
0.000270
0.000272
0.000193
0.000056
0.000228
0.000323
0.000425
0.000514
0.000271
0.000254
0.000232
0.000225
0.000252
0.000256
0.000251
0.000267
0.000262
0.000245
0.000260
0.000316
0.000383
0.000416
0.000349
0.001321
0.000265
0.000268
0.000244
0.000268
0.000469
0.000433
0.000387
0.000235
0.000275
0.000271
0.000189
0.000057
0.000196
0.000246
0.000246
0.000277
0.000218
0.000299
0.000540
0.000330
0.000317
0.000215
0.000240
0.000265
0.000263
0.000262
0.000257
0.000266
0.000264
0.000271
0.000253
0.000272
0.000536
0.000382
0.000311
0.001343
0.000400
0.000241
0.000277
0.000594
0.000282
0.000332
0.000312
0.000056
0.000205
0.000226
0.000249
0.000250
0.000253
0.000251
0.001720
0.000210
0.000203
0.000250
0.000256
0.000243
0.000261
0.000326
0.000327
0.000287
0.000278
0.000285
0.000554
0.000364
0.000316
0.000278
0.000227
0.000250
0.001502
0.000359
0.000398
0.000469
0.000322
0.000290
0.000158
0.000057
0.000192
0.000247
0.000258
0.000255
0.000241
0.000257
0.001716
0.000229
0.000236
0.000265
0.000344
0.000404
0.001484
0.000318
0.000393
0.000244
0.000255
0.000230
0.000268
0.000276
0.001650
0.000422
0.000427
0.000287
0.000238
0.000251
0.000262
0.000282
0.000244
0.000250
0.000197
0.000055
0.000197
0.000233
0.000275
0.000239
0.000270
0.000267
0.000280
0.000251
0.000251
0.000254
0.000254
0.000249
0.000264
0.000288
0.000232
0.001498
0.000280
0.000228
0.000261
0.000280
0.000272
0.000252
0.000439
0.001266
0.000279
0.000250
0.000256
0.000255
0.000394
0.000245
0.000196
0.000055
0.000211
0.000251
0.000221
0.000246
0.000245
0.000224
0.000233
0.001706
0.000256
0.000222
0.000239
0.000379
0.000223
0.000224
0.000250
0.001397
0.000220
0.000269
0.000265
0.000252
0.000256
0.000353
0.000275
0.001318
0.000281
0.000250
0.000252
0.000258
0.001390
0.000283
0.000206
0.000055
0.000273
0.000315
0.000210
0.000235
0.000258
0.000235
0.000264
0.000265
0.000266
0.000249
0.000260
0.000260
0.000258
0.000241
0.000363
0.001452
0.000245
0.000273
0.000250
0.000244
0.000287
0.000261
0.000253
0.001505
0.000370
0.000218
0.000262
0.001278
0.000269
0.000247
0.000220
0.000057
0.000209
0.000485
0.000243
0.000209
0.000229
0.000243
0.000263
0.000261
0.000263
0.000271
0.000237
0.000253
0.000262
0.000288
0.000396
0.001228
0.000233
0.000244
0.000267
0.000281
0.000218
0.000249
0.000253
0.000364
0.001249
0.000252
0.000250
0.000249
0.001347
0.000356
0.000205
0.000057
0.000234
0.000255
0.000228
0.000227
0.000238
0.000259
0.000245
0.000245
0.000274
0.000248
0.000247
0.000247
0.000254
0.000363
0.000386
0.001472
0.000203
0.000257
0.000299
0.000530
0.000266
0.000375
0.001366
0.000286
0.000268
0.000249
0.000266
0.001297
0.000277
0.000538
0.000401
0.000056
0.000225
0.000254
0.000257
0.000254
0.000248
0.000253
0.000277
0.000243
0.000266
0.000287
0.000264
0.000616
0.001233
0.000225
0.000262
0.000266
0.000280
0.000222
0.000245
0.000240
0.000346
0.001236
0.000246
0.000252
0.000254
0.000244
0.001488
0.000514
0.000426
0.000226
0.000177
0.000056
0.000198
0.000232
0.000248
0.000236
0.000255
0.000268
0.000240
0.000288
0.000514
0.000375
0.000267
0.001492
0.000202
0.000246
0.000267
0.000256
0.000311
0.000232
0.001709
0.000251
0.000409
0.000321
0.001356
0.000301
0.000271
0.000339
0.000252
0.000263
0.000259
0.000270
0.000192
0.000057
0.000192
0.000231
0.000334
0.000270
0.000459
0.000404
0.000253
0.000291
0.001475
0.000233
0.000383
0.000261
0.000257
0.000315
0.000382
0.001306
0.000273
0.000232
0.000240
0.000248
0.001537
0.000368
0.000287
0.000287
0.000257
0.000233
0.000459
0.000364
0.000223
0.000230
0.000264
0.000056
0.000197
0.000370
0.000310
0.000266
0.000224
0.001532
0.000201
0.000255
0.000265
0.000267
0.000270
0.000239
0.000336
0.001462
0.000256
0.000221
0.000433
0.001196
0.000571
0.000219
0.000390
0.000230
0.000244
0.000261
0.000275
0.000236
0.000460
0.000223
0.000271
0.000272
0.000193
0.000055
0.000197
0.000329
0.000306
0.000337
0.001311
0.000272
0.000313
0.000229
0.000241
0.000247
0.000255
0.000347
0.001464
0.000254
0.000238
0.000240
0.001390
0.000399
0.000339
0.000412
0.000371
0.000232
0.000242
0.000268
0.000248
0.000284
0.000276
0.000253
0.000260
0.000255
0.000191
0.000057
0.000218
0.000475
0.001377
0.000198
0.000282
0.000270
0.000239
0.000250
0.000260
0.000403
0.001382
0.000213
0.000259
0.000258
0.000247
0.001276
0.000723
0.000287
0.000306
0.000411
0.000296
0.000265
0.000247
0.000255
0.000272
0.000282
0.000274
0.000354
0.000487
0.000329
0.001382
0.000057
0.000203
0.000244
0.000244
0.000228
0.000259
0.000439
0.000468
0.001271
0.000251
0.000242
0.000245
0.001489
0.000315
0.000399
0.000214
0.000419
0.000254
0.000225
0.000266
0.000278
0.000244
0.000274
0.000281
0.000247
0.000261
0.000287
0.000493
0.000435
0.001492
0.000218
0.000185
0.000056
0.000183
0.000255
0.000344
0.000560
0.001231
0.000274
0.000272
0.000239
0.000246
0.000252
0.000249
0.000280
0.000359
0.000513
0.000311
0.000231
0.000257
0.000274
0.000247
0.000274
0.000269
0.000259
0.000255
0.000265
0.000253
0.000438
0.000436
0.000360
0.000322
0.001400
0.000174
0.000056
0.000196
0.000248
0.000273
0.000468
0.000351
0.000288
0.000309
0.000335
0.000267
0.000263
0.000256
0.000263
0.000255
0.000305
0.000245
0.000267
0.000606
0.000289
0.000294
0.000379
0.000276
0.000401
0.000225
0.000247
0.000269
0.000257
0.000253
0.000296
0.000637
0.000214
0.000295
0.000057
0.000214
0.001424
0.000209
0.000341
0.000430
0.000420
0.000343
0.000327
0.000211
0.000245
0.000263
0.000241
0.000267
0.000274
0.000262
0.000252
0.000264
0.001279
0.000354
0.000237
0.000256
0.000275
0.000267
0.000280
0.000271
0.000256
0.000277
0.000243
0.000338
0.000379
0.000540
0.000057
0.000222
0.000253
0.000221
0.001501
0.000328
0.000239
0.000223
0.000245
0.000239
0.000246
0.000249
0.000267
0.000258
0.000250
0.000265
0.000251
0.000253
0.000270
0.000269
0.000242
0.001431
0.000235
0.000239
0.000285
0.000256
0.000237
0.000272
0.000264
0.000278
0.000485
0.000350
0.000055
0.000194
0.000230
0.000395
0.000279
0.000250
0.000250
0.001539
0.000342
0.000304
0.000223
0.000247
0.000311
0.000337
0.000234
0.000224
0.000250
0.000246
0.000288
0.000241
0.000256
0.000570
0.000445
0.001095
0.000274
0.000231
0.000260
0.000280
0.000249
0.000275
0.000258
0.000332
0.000056
0.000264
0.000342
0.000204
0.000243
0.000246
0.000237
0.000252
0.000226
0.000292
0.001643
0.000418
0.000210
0.000225
0.000252
0.000260
0.000239
0.000259
0.000278
0.000260
0.000310
0.000305
0.000564
0.000427
0.001320
0.000227
0.000263
0.000275
0.000255
0.000283
0.000266
0.000707
0.000058
0.000182
0.000237
0.000241
0.000242
0.000218
0.000246
0.000256
0.000261
0.000263
0.001635
0.000290
0.000257
0.000264
0.000258
0.000465
0.000263
0.000522
0.000381
0.000296
0.000307
0.000496
0.000498
0.001200
0.000275
0.000212
0.000268
0.001692
0.000486
0.000595
0.000314
0.000146
0.000056
0.000198
0.000226
0.000241
0.000239
0.000255
0.000236
0.000244
0.000574
0.000434
0.000465
0.000244
0.000212
0.000242
0.000262
0.000281
0.000252
0.000242
0.000251
0.000256
0.000275
0.000277
0.000458
0.001301
0.000222
0.000245
0.000277
0.001895
0.000392
0.000374
0.000357
0.000155
0.000057
0.000217
0.000246
0.001528
0.000336
0.000364
0.000214
0.000237
0.000255
0.000255
0.000288
0.000381
0.000366
0.000366
0.000269
0.000356
0.000455
0.000419
0.001177
0.000296
0.000213
0.000256
0.000262
0.000268
0.000413
0.000746
0.000325
0.000242
0.000272
0.000271
0.000279
0.000190
0.000056
0.000207
0.000229
0.000241
0.001540
0.000267
0.000218
0.000242
0.000255
0.000232
0.000257
0.000265
0.000265
0.000278
0.000259
0.000281
0.000371
0.000517
0.000241
0.001386
0.000240
0.000264
0.000284
0.000232
0.000274
0.000409
0.000422
0.000473
0.000273
0.000287
0.000229
0.000436
0.000055
0.000200
0.000234
0.000251
0.001539
0.000307
0.000224
0.000261
0.000240
0.000256
0.000260
0.000252
0.000261
0.000256
0.000253
0.000516
0.000388
0.001403
0.000743
0.000261
0.000339
0.000257
0.000219
0.000245
0.000272
0.001690
0.000804
0.000226
0.000264
0.000273
0.000289
0.000180
0.000055
0.000195
0.000234
0.000269
0.000228
0.000257
0.000246
0.000240
0.000255
0.000243
0.000226
0.000296
0.000282
0.000246
0.000255
0.000261
0.000246
0.000274
0.001611
0.000722
0.000385
0.000283
0.000231
0.000241
0.000281
0.000265
0.000264
0.000272
0.000247
0.001425
0.000407
0.000362
0.000056
0.000196
0.000227
0.000259
0.000243
0.000266
0.000225
0.000257
0.000251
0.000255
0.000258
0.000284
0.000503
0.000349
0.000341
0.000205
0.000242
0.000266
0.001405
0.000700
0.000524
0.000266
0.000281
0.000218
0.000250
0.000276
0.000251
0.000280
0.000246
0.001520
0.000401
0.000188
0.000057
0.000221
0.000226
0.000245
0.000242
0.000251
0.000254
0.000231
0.000252
0.000270
0.000291
0.000418
0.000376
0.000255
0.000220
0.000242
0.000241
0.000268
0.000256
0.001575
0.000626
0.000465
0.000319
0.000220
0.000264
0.000262
0.000261
0.000268
0.000301
0.000242
0.001411
0.000284
0.000056
0.000228
0.000205
0.000239
0.000260
0.000255
0.000248
0.000282
0.000276
0.000362
0.000449
0.000388
0.000376
0.000345
0.000214
0.000244
0.000249
0.000279
0.000259
0.000266
0.001884
0.000379
0.000226
0.000439
0.000253
0.000246
0.000263
0.000269
0.000282
0.000254
0.000273
0.000354
0.000057
0.000285
0.000235
0.000229
0.000242
0.000268
0.000239
0.000229
0.000229
0.000271
0.000251
0.000253
0.000233
0.000299
0.000461
0.000434
0.000450
0.000219
0.000264
0.000247
0.000254
0.000252
0.000295
0.001506
0.001017
0.000216
0.000247
0.000269
0.000270
0.000271
0.000253
0.000197
0.000057
0.000189
0.001340
0.000292
0.000201
0.000240
0.000249
0.000254
0.000243
0.000239
0.000246
0.000257
0.000265
0.000238
0.000472
0.000388
0.000409
0.000221
0.000243
0.000264
0.000266
0.000264
0.000236
0.000258
0.000268
0.001333
0.000669
0.000314
0.000385
0.000379
0.000397
0.000297
0.000056
0.000211
0.000247
0.000378
0.001299
0.000203
0.000259
0.000226
0.000255
0.000254
0.000262
0.000262
0.000233
0.000275
0.000341
0.000570
0.000298
0.000231
0.000316
0.000303
0.000205
0.000248
0.000277
0.000231
0.000270
0.000276
0.001533
0.000739
0.000299
0.000275
0.000281
0.000178
0.000056
0.000207
0.000236
0.000494
0.000303
0.001316
0.000246
0.000229
0.000230
0.000232
0.000249
0.000251
0.000253
0.000231
0.000261
0.000237
0.000251
0.000268
0.000234
0.000255
0.000257
0.000267
0.000269
0.000329
0.000309
0.000212
0.000270
0.000269
0.001473
0.000263
0.000219
0.000172
0.000056
0.000194
0.000232
0.000247
0.000269
0.000358
0.000381
0.000411
0.000246
0.001579
0.000248
0.000293
0.000499
0.000350
0.000210
0.000433
0.000242
0.000230
0.000257
0.000280
0.000268
0.000282
0.000265
0.000255
0.000269
0.000260
0.000405
0.000393
0.000346
0.001581
0.000209
0.000192
0.000056
0.000228
0.000258
0.000234
0.000243
0.000239
0.000248
0.000262
0.000280
0.000436
0.002046
0.000229
0.000238
0.000259
0.000256
0.000263
0.000253
0.000275
0.000251
0.000368
0.000352
0.000341
0.000463
0.001454
0.000249
0.000523
0.000231
0.001774
0.000233
0.000261
0.001535
0.000159
0.000056
0.000330
0.000466
0.000413
0.000243
0.000267
0.000220
0.000256
0.000271
0.000264
0.000230
0.000251
0.000344
0.000467
0.000350
0.000409
0.000206
0.000227
0.001573
0.000234
0.000638
0.001834
0.000280
0.000219
0.001585
0.002004
0.000727
0.000270
0.000255
0.000274
0.000574
0.000197
0.000055
0.000206
0.000244
0.000245
0.000247
0.001428
0.001728
0.001079
0.000202
0.000240
0.001577
0.001986
0.000207
0.000241
0.000426
0.000361
0.000311
0.000406
0.000468
0.000212
0.000240
0.000252
0.000253
0.000279
0.001595
0.001202
0.001427
0.000276
0.000296
0.000256
0.000331
0.000355
0.000056
0.000217
0.000233
0.000242
0.000241
0.000229
0.000248
0.000242
0.000250
0.000262
0.000247
0.000239
0.000355
0.000360
0.000534
0.000257
0.000250
0.000244
0.000275
0.000271
0.000262
0.000258
0.000256
0.001638
0.000362
0.002106
0.000239
0.000261
0.000330
0.000462
0.000371
0.000186
0.000070
0.000198
0.000429
0.000396
0.000321
0.000193
0.000229
0.000254
0.000242
0.000241
0.000247
0.000245
0.000265
0.000258
0.001610
0.001355
0.001222
0.000299
0.000217
0.000244
0.000271
0.000283
0.000278
0.000252
0.000246
0.002231
0.000233
0.000252
0.000287
0.000325
0.000306
0.000219
0.000056
0.000239
0.000395
0.000545
0.000282
0.000231
0.000236
0.000246
0.000266
0.001900
0.001419
0.000237
0.000322
0.000383
0.000413
0.000271
0.000211
0.000257
0.000269
0.000263
0.000265
0.000249
0.000269
0.000469
0.000242
0.000265
0.000268
0.000257
0.000274
0.000281
0.000245
0.000203
0.000055
0.000198
0.000244
0.000250
0.000237
0.000257
0.000266
0.001552
0.001415
0.001320
0.000256
0.000215
0.000238
0.000270
0.000261
0.000245
0.000255
0.000250
0.002106
0.000260
0.000219
0.000269
0.000259
0.000257
0.000268
0.000274
0.000251
0.000277
0.000249
0.000273
0.000256
0.000178
0.000055
0.000195
0.002695
0.001378
0.000225
0.000305
0.000297
0.000227
0.000270
0.000257
0.000242
0.000253
0.000242
0.000233
0.000254
0.000265
0.000253
0.000273
0.000261
0.000255
0.000273
0.000263
0.000284
0.000278
0.000262
0.000250
0.000242
0.000265
0.000270
0.000268
0.000264
0.000371
0.000057
0.001549
0.000243
0.001252
0.000224
0.000217
0.000242
0.000261
0.000254
0.000246
0.000327
0.000433
0.000261
0.000350
0.000210
0.000242
0.002156
0.000236
0.000245
0.000266
0.000603
0.000261
0.000334
0.000223
0.000239
0.000274
0.000247
0.000269
0.000278
0.000264
0.001614
0.002182
0.000057
0.000211
0.000220
0.000367
0.000393
0.000293
0.000278
0.000219
0.000226
0.000246
0.000265
0.000261
0.000245
0.000227
0.000252
0.000261
0.000252
0.000386
0.000553
0.000378
0.000231
0.000220
0.000273
0.000280
0.000249
0.000250
0.000247
0.000270
0.000274
0.000245
0.000307
0.000371
0.000055
0.001117
0.000346
0.000229
0.000482
0.000266
0.000222
0.000228
0.000242
0.000250
0.002298
0.000365
0.000392
0.000214
0.000384
0.000278
0.000259
0.000260
0.000258
0.000265
0.000233
0.000246
0.000300
0.000701
0.000323
0.001884
0.001326
0.000587
0.000462
0.000223
0.000279
0.000196
0.000055
0.000213
0.000345
0.000243
0.000253
0.000239
0.000228
0.000254
0.000255
0.000254
0.000250
0.000258
0.000221
0.000251
0.000258
0.000403
0.000510
0.001830
0.001313
0.000505
0.000385
0.000468
0.000230
0.000239
0.000267
0.002199
0.000492
0.000389
0.000226
0.000270
0.000282
0.000194
0.000056
0.000197
0.000243
0.000257
0.000263
0.000232
0.000318
0.000448
0.000329
0.000266
0.000236
0.000241
0.000249
0.000273
0.002109
0.000433
0.000319
0.000211
0.000252
0.000272
0.000261
0.002399
0.000385
0.000265
0.000213
0.000263
0.000256
0.000249
0.000270
0.000285
0.000279
0.000200
0.000056
0.000206
0.000338
0.000573
0.000361
0.000237
0.000215
0.000236
0.000252
0.000266
0.000247
0.002065
0.000286
0.000277
0.000268
0.000237
0.000266
0.000269
0.000247
0.002222
0.000438
0.000211
0.000266
0.000272
0.000260
0.000267
0.000248
0.000279
0.000253
0.000266
0.000271
0.000171
0.000055
0.000191
0.000251
0.000230
0.000218
0.000247
0.000262
0.000236
0.000244
0.000238
0.002177
0.000235
0.000278
0.000211
0.000427
0.000237
0.000249
0.000274
0.000283
0.000243
0.000267
0.001966
0.000281
0.000338
0.000377
0.000433
0.000412
0.000292
0.000237
0.000257
0.000254
0.000206
0.000075
0.000196
0.000237
0.000233
0.000252
0.000243
0.000341
0.000206
0.002313
0.000233
0.000241
0.000254
0.000257
0.000235
0.000254
0.000304
0.002143
0.000577
0.000220
0.000250
0.000238
0.000270
0.000261
0.000289
0.000263
0.000260
0.000255
0.000289
0.000249
0.000267
0.000260
0.000203
0.000056
0.001828
0.001443
0.000201
0.000220
0.000245
0.000253
0.000251
0.000344
0.000337
0.000371
0.002153
0.000254
0.000235
0.000262
0.000412
0.000507
0.000272
0.000301
0.000215
0.000255
0.000246
0.000273
0.000262
0.000224
0.000256
0.000268
0.000267
0.000263
0.000357
0.000685
0.000268
0.000056
0.000211
0.000249
0.000242
0.000257
0.000271
0.000261
0.000242
0.000240
0.001572
0.002029
0.000587
0.000279
0.000737
0.000354
0.000366
0.000226
0.000250
0.000248
0.000267
0.000253
0.000266
0.000237
0.000247
0.001850
0.000329
0.001401
0.000266
0.000268
0.000292
0.000250
0.000457
0.000057
0.001969
0.000207
0.000221
0.000227
0.000333
0.000411
0.000354
0.000320
0.000279
0.000223
0.000236
0.000252
0.000256
0.000259
0.000280
0.000241
0.000257
0.000268
0.001835
0.000248
0.000226
0.000260
0.000273
0.000277
0.000275
0.000252
0.001469
0.000340
0.000236
0.000257
0.000178
0.000056
0.000202
0.000230
0.000250
0.000257
0.000229
0.000239
0.000337
0.000362
0.000292
0.000403
0.000220
0.000235
0.000264
0.000339
0.000424
0.000317
0.000232
0.000231
0.000258
0.000356
0.000490
0.000420
0.000263
0.000254
0.000255
0.000254
0.000254
0.000275
0.000273
0.000264
0.000206
0.000057
0.001442
0.000422
0.000223
0.001982
0.000277
0.000439
0.000413
0.000285
0.000215
0.000258
0.000263
0.000244
0.000245
0.000249
0.000261
0.000262
0.000450
0.000334
0.000402
0.000355
0.000319
0.000239
0.000257
0.000264
0.000273
0.000270
0.000263
0.000265
0.000386
0.000533
0.001283
0.000057
0.000204
0.000222
0.002073
0.000334
0.000278
0.000259
0.000259
0.000248
0.000260
0.000263
0.000214
0.000251
0.000254
0.000267
0.000253
0.000366
0.000742
0.001727
0.000225
0.000249
0.000260
0.000263
0.000507
0.000367
0.001530
0.000275
0.000363
0.001924
0.000273
0.000239
0.000200
0.000056
0.000213
0.000230
0.000233
0.000248
0.000226
0.000245
0.000257
0.000287
0.000330
0.000277
0.000376
0.000357
0.000336
0.000302
0.000231
0.000268
0.000267
0.000237
0.000266
0.000257
0.000300
0.000287
0.000272
0.000256
0.000268
0.001512
0.000289
0.000391
0.002067
0.000225
0.000178
0.000056
0.000218
0.000235
0.000238
0.000241
0.000486
0.000223
0.000240
0.000322
0.000421
0.000280
0.000307
0.000204
0.000261
0.000263
0.000272
0.000323
0.000392
0.000467
0.000260
0.000394
0.000570
0.000435
0.001547
0.000230
0.000255
0.002037
0.000302
0.000223
0.000244
0.000291
0.000185
0.000056
0.000196
0.000247
0.000225
0.000247
0.000246
0.000274
0.000248
0.000285
0.000249
0.000324
0.001730
0.000341
0.000375
0.000316
0.000428
0.000400
0.000331
0.001484
0.000241
0.000278
0.002240
0.000464
0.000233
0.000240
0.000255
0.000273
0.000501
0.000224
0.000255
0.000281
0.000193
0.000056
0.000262
0.000563
0.000172
0.000288
0.000202
0.000249
0.000256
0.000251
0.000271
0.000291
0.000225
0.000251
0.000270
0.000244
0.000408
0.001455
0.000321
0.000199
0.000290
0.002054
0.000221
0.000281
0.000253
0.000264
0.000244
0.000281
0.000278
0.000248
0.000250
0.000267
0.000199
0.000055
0.000233
0.000422
0.002014
0.000253
0.000258
0.000217
0.000249
0.000353
0.000468
0.000352
0.001307
0.000375
0.002137
0.000308
0.000201
0.000234
0.000276
0.000271
0.000253
0.000241
0.000287
0.000294
0.000250
0.000372
0.000542
0.000300
0.000315
0.002229
0.000501
0.000532
0.000335
0.000056
0.000215
0.000216
0.000246
0.001969
0.000230
0.000216
0.000250
0.000249
0.000237
0.000258
0.000240
0.000267
0.000240
0.000274
0.000541
0.001396
0.000243
0.000247
0.000258
0.000256
0.000233
0.000259
0.000256
0.000299
0.000325
0.000410
0.000498
0.000229
0.001607
0.000285
0.000153
0.000058
0.000186
0.000219
0.000250
0.000236
0.000248
0.000255
0.000249
0.000261
0.000244
0.000439
0.000334
0.001385
0.000246
0.000208
0.000250
0.000262
0.000254
0.000256
0.000493
0.000302
0.000459
0.000385
0.000220
0.001581
0.000220
0.000270
0.000279
0.000278
0.000265
0.000260
0.000194
0.000057
0.000212
0.000226
0.000261
0.000268
0.000245
0.000248
0.000237
0.000246
0.000266
0.000227
0.000252
0.000260
0.000258
0.001488
0.000367
0.000206
0.000242
0.000262
0.000288
0.000314
0.000375
0.000265
0.000237
0.000261
0.000282
0.000253
0.000251
0.001418
0.000286
0.000230
0.000166
0.000057
0.000206
0.000234
0.000256
0.000262
0.000254
0.000233
0.000246
0.000264
0.000217
0.000263
0.000246
0.000264
0.000223
0.000346
0.000387
0.000298
0.000272
0.000231
0.001640
0.000231
0.000252
0.000254
0.000261
0.000302
0.000551
0.000202
0.000455
0.000260
0.000249
0.001612
0.000157
0.000056
0.000346
0.000324
0.000390
0.000246
0.000255
0.000205
0.000241
0.000270
0.000255
0.000238
0.000252
0.000236
0.001468
0.000316
0.000284
0.000233
0.000229
0.000257
0.000277
0.000255
0.000253
0.000234
0.000264
0.000269
0.000264
0.000464
0.000430
0.000305
0.000271
0.000246
0.000172
0.000056
0.000216
0.000238
0.000512
0.000280
0.000351
0.000292
0.000244
0.000250
0.000251
0.000255
0.000240
0.000224
0.000258
0.000239
0.001278
0.000294
0.000227
0.000244
0.000285
0.000257
0.000238
0.000264
0.000253
0.000261
0.000255
0.000254
0.000306
0.000706
0.000452
0.000228
0.000177
0.000058
0.000203
0.001554
0.000267
0.000340
0.000506
0.000299
0.000215
0.000254
0.000272
0.000248
0.000240
0.000261
0.000269
0.000273
0.000261
0.001533
0.000250
0.000281
0.000281
0.000245
0.000252
0.000253
0.000266
0.000265
0.000259
0.000281
0.000502
0.000306
0.000332
0.000230
0.000195
0.000056
0.000190
0.000253
0.000230
0.001632
0.000418
0.000339
0.000225
0.000235
0.000254
0.000270
0.000288
0.000248
0.000250
0.000262
0.000227
0.000279
0.000453
0.001269
0.000238
0.000236
0.001509
0.000274
0.000675
0.000345
0.000337
0.000218
0.000265
0.000458
0.000245
0.000258
0.000186
0.000056
0.000263
0.000220
0.000241
0.000243
0.000247
0.000254
0.000244
0.000268
0.000240
0.000240
0.000256
0.000252
0.000329
0.000545
0.001608
0.001510
0.000351
0.000572
0.000298
0.000222
0.000226
0.000259
0.000250
0.000262
0.000254
0.000276
0.000250
0.000264
0.001540
0.000319
0.000167
0.000058
0.000243
0.000338
0.000357
0.000329
0.000229
0.000226
0.000240
0.000424
0.000396
0.000321
0.002187
0.000321
0.000743
0.000458
0.000464
0.000267
0.000328
0.000399
0.000324
0.000279
0.000404
0.000220
0.001570
0.000522
0.000224
0.000255
0.000258
0.000247
0.000271
0.000275
0.000179
0.000056
0.000219
0.000254
0.000248
0.000252
0.000247
0.001666
0.000872
0.000999
0.000209
0.000230
0.000263
0.000260
0.000255
0.000260
0.000255
0.000243
0.000257
0.000265
0.000284
0.000267
0.001424
0.000314
0.000256
0.000226
0.000234
0.000263
0.000259
0.000287
0.000261
0.000282
0.001906
0.000056
0.000191
0.000225
0.001556
0.000884
0.000336
0.000364
0.000239
0.000231
0.000248
0.000260
0.000251
0.000250
0.000243
0.001984
0.000483
0.000215
0.000248
0.000250
0.000263
0.000258
0.000188
