0.000530
0.019910
0.001383
0.000304
0.000242
0.000301
0.000324
0.000246
0.000317
0.000275
0.000255
0.000343
0.000554
0.000447
0.000385
0.000413
0.000212
0.000331
0.000357
0.000424
0.000311
0.001914
0.000700
0.000271
0.000268
0.000289
0.000310
0.000315
0.000419
0.000503
0.000462
0.000212
0.000058
0.000232
0.000248
0.000270
0.000300
0.000236
0.000258
0.000281
0.000290
0.000262
0.000254
0.000462
0.000414
0.000303
0.000262
0.000372
0.000353
0.000366
0.000254
0.000242
0.001690
0.000328
0.000257
0.000449
0.000293
0.000234
0.000272
0.000293
0.000291
0.000277
0.000326
0.000404
0.000057
0.000273
0.000231
0.000261
0.000266
0.000248
0.000246
0.000264
0.000256
0.000288
0.001668
0.000230
0.000235
0.000255
0.000280
0.000274
0.000253
0.000263
0.000258
0.000344
0.001792
0.000252
0.000281
0.000441
0.000435
0.000392
0.000253
0.000259
0.000430
0.000561
0.000719
0.000208
0.000058
0.000224
0.000244
0.000251
0.000240
0.000288
0.000280
0.000352
0.000504
0.000380
0.000276
0.000227
0.000252
0.000240
0.000258
0.000250
0.000254
0.000245
0.000267
0.000325
0.000302
0.001672
0.000286
0.000235
0.000424
0.000678
0.000403
0.000595
0.000538
0.000322
0.000247
0.000186
0.000056
0.000216
0.000251
0.000298
0.000210
0.000285
0.000224
0.000287
0.000417
0.001493
0.000216
0.000253
0.000244
0.000263
0.000247
0.000261
0.000303
0.000394
0.001806
0.000315
0.000240
0.000235
0.000418
0.000245
0.000245
0.000251
0.000270
0.000262
0.000274
0.000259
0.000263
0.000205
0.000057
0.000211
0.000245
0.000239
0.000264
0.000240
0.000244
0.000241
0.000255
0.000239
0.000256
0.001620
0.000265
0.000248
0.000232
0.000255
0.000244
0.000256
0.000246
0.000249
0.000280
0.000276
0.001667
0.000263
0.000249
0.000432
0.000248
0.000256
0.000264
0.000278
0.000263
0.000195
0.000057
0.000198
0.000231
0.000250
0.000244
0.000247
0.000245
0.000264
0.000230
0.000269
0.000277
0.000231
0.000255
0.000276
0.000256
0.001631
0.000281
0.000296
0.000232
0.000237
0.000269
0.000274
0.000228
0.000267
0.000249
0.001790
0.000398
0.000455
0.000256
0.000229
0.000285
0.000196
0.000058
0.000194
0.000240
0.000242
0.000273
0.000259
0.000262
0.000264
0.000408
0.000399
0.000435
0.000214
0.000247
0.000252
0.000249
0.001604
0.000499
0.000346
0.000395
0.000286
0.000240
0.000269
0.000301
0.000253
0.001736
0.000513
0.000458
0.000244
0.000251
0.000255
0.000269
0.000171
0.000057
0.000213
0.000243
0.000242
0.000282
0.000340
0.000475
0.000315
0.000286
0.000219
0.000243
0.000256
0.000246
0.000253
0.001716
0.000474
0.000299
0.000223
0.000254
0.000272
0.000289
0.000246
0.000259
0.000271
0.001886
0.000309
0.000389
0.000248
0.000252
0.000264
0.000404
0.000324
0.000057
0.000253
0.000364
0.000341
0.000273
0.000254
0.000249
0.000254
0.000256
0.000239
0.000230
0.000246
0.000248
0.001604
0.000321
0.000280
0.000238
0.000253
0.000253
0.000246
0.000307
0.000294
0.000296
0.000234
0.001814
0.000257
0.000490
0.000240
0.000261
0.000256
0.000267
0.000269
0.000057
0.000311
0.000598
0.000579
0.000212
0.000228
0.000282
0.000224
0.000224
0.000259
0.000249
0.000259
0.001698
0.000246
0.000451
0.000365
0.000214
0.000235
0.000238
0.000246
0.000268
0.000254
0.001852
0.000233
0.000461
0.001884
0.000513
0.000354
0.000246
0.000253
0.000267
0.000182
0.000057
0.000210
0.000237
0.000246
0.000240
0.000260
0.001614
0.000244
0.000245
0.000252
0.000253
0.000238
0.000257
0.000239
0.000256
0.000311
0.000450
0.000555
0.000249
0.000236
0.000270
0.000278
0.000234
0.000248
0.000433
0.000436
0.000256
0.000342
0.000659
0.000348
0.000270
0.000207
0.000056
0.000221
0.000236
0.000251
0.000254
0.000237
0.000239
0.000238
0.000389
0.000430
0.001729
0.000225
0.000236
0.000262
0.000228
0.000258
0.000281
0.000468
0.000446
0.000329
0.000241
0.000262
0.000305
0.000278
0.000255
0.000274
0.000433
0.000344
0.000594
0.000468
0.000473
0.000175
0.000057
0.000205
0.000243
0.000245
0.000237
0.000233
0.000240
0.000244
0.000266
0.000224
0.000292
0.000365
0.000420
0.001383
0.000246
0.000239
0.000244
0.000257
0.000244
0.000254
0.000260
0.000271
0.000490
0.000361
0.000281
0.000269
0.000252
0.000253
0.000273
0.000265
0.000262
0.000376
0.000057
0.000215
0.000235
0.000230
0.000297
0.000536
0.000400
0.000251
0.000251
0.000227
0.000260
0.000258
0.000226
0.000327
0.000222
0.000238
0.000467
0.000475
0.001596
0.000293
0.000219
0.000276
0.000253
0.000253
0.000243
0.000268
0.000415
0.000510
0.000323
0.000416
0.000250
0.000192
0.000056
0.000235
0.000439
0.000229
0.000219
0.000288
0.000218
0.000252
0.000698
0.000297
0.000262
0.000232
0.000275
0.000264
0.000233
0.000527
0.000338
0.000226
0.000249
0.000433
0.001601
0.000260
0.000255
0.000521
0.000252
0.000290
0.000261
0.000255
0.000367
0.000537
0.000370
0.000272
0.000056
0.000208
0.000234
0.000238
0.000240
0.000422
0.000309
0.000287
0.000265
0.000428
0.000429
0.000341
0.000264
0.000238
0.000244
0.000253
0.000269
0.000251
0.000254
0.000235
0.000353
0.000277
0.000539
0.001663
0.000237
0.000247
0.000251
0.000281
0.000346
0.000412
0.000693
0.000443
0.000058
0.000243
0.000332
0.000306
0.000461
0.000333
0.000215
0.000248
0.000287
0.000534
0.000424
0.000239
0.000234
0.000240
0.000271
0.000257
0.000233
0.000262
0.000266
0.000275
0.000257
0.000262
0.000481
0.000669
0.001258
0.000335
0.000432
0.000429
0.000230
0.000490
0.000389
0.000312
0.000058
0.000246
0.000374
0.000287
0.000204
0.000221
0.000248
0.000414
0.000236
0.000237
0.000391
0.000418
0.000422
0.000254
0.000252
0.000262
0.000243
0.000359
0.000404
0.000334
0.000245
0.000248
0.000401
0.000626
0.001664
0.000242
0.000430
0.000311
0.000218
0.000260
0.000462
0.000244
0.000056
0.000201
0.000223
0.000244
0.000261
0.000248
0.000232
0.000253
0.000334
0.000443
0.000269
0.000491
0.000383
0.000244
0.000575
0.000245
0.000244
0.000277
0.000260
0.000221
0.000359
0.000231
0.000237
0.000273
0.000348
0.000577
0.001628
0.000280
0.000236
0.000241
0.000278
0.000184
0.000058
0.000244
0.000510
0.000316
0.000226
0.000242
0.000238
0.000251
0.000247
0.000272
0.000229
0.000228
0.000263
0.000393
0.000545
0.000411
0.000261
0.000233
0.000260
0.000333
0.000394
0.000378
0.000337
0.000360
0.000394
0.000265
0.000238
0.000269
0.000272
0.001784
0.000248
0.000213
0.000057
0.000203
0.000219
0.000258
0.000293
0.000351
0.000520
0.000321
0.000218
0.000278
0.000241
0.000250
0.000249
0.000517
0.000444
0.000503
0.000272
0.000261
0.000256
0.000417
0.000465
0.000377
0.000387
0.000585
0.000354
0.000251
0.000230
0.000256
0.000259
0.000264
0.001708
0.000305
0.000057
0.000293
0.000324
0.000228
0.000220
0.000273
0.000235
0.000232
0.000499
0.000375
0.000308
0.000294
0.000302
0.000329
0.000720
0.000258
0.000231
0.000255
0.000257
0.000248
0.000268
0.000278
0.000257
0.000244
0.000268
0.000346
0.000335
0.000384
0.000371
0.000237
0.000244
0.000201
0.000056
0.000447
0.000304
0.000488
0.000226
0.000211
0.000243
0.000245
0.000258
0.000235
0.000223
0.000254
0.000278
0.000302
0.000359
0.000476
0.000552
0.000281
0.000323
0.000367
0.000346
0.000294
0.000239
0.000251
0.000261
0.001745
0.000265
0.001710
0.000935
0.000390
0.000343
0.000175
0.000058
0.000195
0.000239
0.000232
0.000260
0.000258
0.000233
0.000255
0.000255
0.000242
0.000323
0.000339
0.000457
0.000322
0.000411
0.000244
0.000236
0.000242
0.000296
0.000224
0.000247
0.000255
0.000264
0.001813
0.000237
0.000251
0.000272
0.000293
0.001778
0.000388
0.000485
0.000274
0.000056
0.000214
0.000214
0.000251
0.000227
0.000269
0.000233
0.000240
0.000255
0.000257
0.000350
0.000536
0.000378
0.000373
0.000220
0.000250
0.000256
0.000324
0.000436
0.000384
0.000241
0.001774
0.000252
0.000254
0.000250
0.000266
0.000259
0.000244
0.000252
0.000321
0.000428
0.000306
0.000057
0.000274
0.000221
0.000218
0.000272
0.000239
0.000239
0.000256
0.000255
0.000237
0.000262
0.000239
0.000398
0.000260
0.000395
0.000333
0.000276
0.000466
0.000229
0.000253
0.000255
0.000269
0.000256
0.000271
0.000256
0.000277
0.001782
0.000243
0.000254
0.000265
0.000239
0.000205
0.000056
0.000246
0.000324
0.000230
0.000229
0.000246
0.000228
0.000240
0.000275
0.000229
0.000224
0.000238
0.000257
0.000261
0.000415
0.000390
0.000351
0.000276
0.000231
0.000251
0.000248
0.000266
0.000256
0.000254
0.000267
0.000255
0.000266
0.000312
0.001622
0.000268
0.000239
0.000191
0.000056
0.000210
0.000234
0.000250
0.000257
0.000341
0.000342
0.000472
0.000265
0.000227
0.000246
0.000270
0.000231
0.000247
0.000255
0.000277
0.000234
0.000252
0.000259
0.000252
0.000260
0.000272
0.000269
0.000237
0.000239
0.000245
0.000286
0.000276
0.000259
0.000255
0.000266
0.000194
0.000058
0.000235
0.000219
0.000242
0.000280
0.000232
0.000234
0.000243
0.000260
0.000280
0.000248
0.000225
0.000248
0.000262
0.000246
0.000298
0.000248
0.000241
0.000246
0.000297
0.000257
0.000272
0.000324
0.000264
0.000223
0.000306
0.000243
0.000265
0.000256
0.000306
0.000423
0.000645
0.000056
0.000238
0.000276
0.000223
0.000231
0.000236
0.000254
0.000236
0.000249
0.000248
0.000252
0.000268
0.000301
0.000495
0.000542
0.001451
0.000235
0.000491
0.000221
0.000284
0.000426
0.000509
0.000326
0.000221
0.000282
0.000247
0.000264
0.000284
0.000249
0.000328
0.000263
0.000163
0.000073
0.000343
0.000407
0.000327
0.000312
0.000226
0.000278
0.000223
0.000240
0.000241
0.000237
0.000259
0.000256
0.000235
0.000271
0.000403
0.000513
0.000315
0.001800
0.000242
0.000246
0.000351
0.000419
0.000445
0.000289
0.000312
0.000331
0.000298
0.000235
0.000224
0.000252
0.000203
0.000057
0.000221
0.000223
0.000245
0.000304
0.000389
0.000441
0.000297
0.000254
0.000257
0.000211
0.000259
0.000266
0.000263
0.000266
0.000243
0.000253
0.000299
0.000540
0.000382
0.000352
0.000234
0.001742
0.000342
0.000524
0.000529
0.000392
0.000327
0.000235
0.000258
0.000264
0.000446
0.000056
0.000218
0.000274
0.000212
0.000379
0.000298
0.000562
0.000336
0.000213
0.000218
0.000296
0.000243
0.000257
0.000253
0.000298
0.000301
0.000243
0.000225
0.000441
0.000475
0.000285
0.000493
0.001844
0.000255
0.000429
0.000524
0.000350
0.000225
0.000253
0.000299
0.000261
0.000199
0.000057
0.000217
0.000333
0.000361
0.000351
0.000382
0.000317
0.000336
0.000218
0.000240
0.000251
0.000281
0.000224
0.000249
0.000252
0.000250
0.000275
0.000323
0.000349
0.000544
0.000359
0.000285
0.000236
0.000253
0.001704
0.000472
0.000438
0.000717
0.000231
0.000267
0.000299
0.000173
0.000056
0.000204
0.000234
0.000352
0.000247
0.000275
0.000359
0.000396
0.000311
0.000241
0.000529
0.000230
0.000247
0.000262
0.000276
0.000275
0.000258
0.000226
0.000328
0.000518
0.000407
0.000262
0.000233
0.000256
0.000251
0.000260
0.000268
0.000234
0.000253
0.000274
0.000290
0.000194
0.000057
0.000272
0.000359
0.000223
0.000241
0.000251
0.000254
0.000241
0.000311
0.000222
0.000249
0.000275
0.000339
0.000405
0.000480
0.000282
0.000270
0.000236
0.000224
0.000254
0.000269
0.000278
0.000281
0.000222
0.000260
0.000286
0.000321
0.000366
0.000441
0.000320
0.000237
0.000180
0.000057
0.000218
0.000212
0.000285
0.000243
0.000244
0.000265
0.000259
0.000236
0.000483
0.000221
0.000258
0.000263
0.000236
0.000268
0.000272
0.000297
0.000236
0.000350
0.000228
0.000233
0.000255
0.000263
0.000253
0.000275
0.000276
0.000262
0.000261
0.000249
0.000280
0.000480
0.000170
0.000059
0.000208
0.000239
0.000246
0.000285
0.000221
0.000228
0.000375
0.000395
0.000231
0.000243
0.000250
0.000254
0.000234
0.000259
0.000473
0.001765
0.000220
0.000274
0.000285
0.000333
0.000405
0.000371
0.000423
0.000369
0.000343
0.000417
0.000255
0.000250
0.000266
0.000275
0.001404
0.000057
0.000456
0.000232
0.000282
0.000216
0.000237
0.000250
0.000233
0.000254
0.000245
0.000269
0.000248
0.000258
0.000256
0.000250
0.000599
0.001613
0.000234
0.000234
0.000243
0.000263
0.000229
0.000268
0.000448
0.000314
0.000286
0.000358
0.000241
0.000249
0.000273
0.000261
0.000185
0.000058
0.001226
0.000547
0.000288
0.000264
0.000247
0.000217
0.000232
0.000244
0.000482
0.000235
0.000223
0.000263
0.000354
0.000488
0.000399
0.000348
0.000263
0.000239
0.000323
0.000348
0.000275
0.000257
0.000268
0.000253
0.000298
0.000575
0.000581
0.000207
0.000252
0.000262
0.000174
0.000056
0.000242
0.000196
0.000246
0.000248
0.001538
0.000231
0.000217
0.000253
0.000260
0.000228
0.000254
0.000252
0.000247
0.000262
0.000273
0.000253
0.000472
0.000638
0.000271
0.001748
0.000248
0.000294
0.000275
0.000426
0.000602
0.000366
0.000253
0.000244
0.000257
0.000277
0.000197
0.000058
0.000229
0.000252
0.000228
0.000324
0.001256
0.000225
0.000297
0.000224
0.000244
0.000230
0.000244
0.000254
0.000276
0.000269
0.000227
0.000288
0.000492
0.000407
0.000333
0.000238
0.000264
0.000274
0.000245
0.000238
0.000284
0.000273
0.000237
0.000277
0.000265
0.000338
0.000564
0.000058
0.000228
0.000241
0.000242
0.000261
0.000265
0.000234
0.000247
0.000260
0.000279
0.000264
0.001421
0.000222
0.000235
0.000249
0.000252
0.000236
0.000292
0.000239
0.000290
0.000234
0.000277
0.000651
0.000283
0.000397
0.000237
0.000270
0.001752
0.000273
0.000246
0.000318
0.000483
0.000058
0.000189
0.000401
0.000449
0.000503
0.000535
0.000515
0.001512
0.000413
0.000524
0.000647
0.000554
0.000759
0.000443
0.000617
0.000585
0.001915
0.000347
0.000457
0.000398
0.000317
0.000242
0.000261
0.000280
0.000276
0.000248
0.000297
0.000287
0.000286
0.000259
0.000288
0.001370
0.000056
0.000207
0.000221
0.000244
0.000245
0.000258
0.000258
0.000231
0.000241
0.000243
0.000252
0.000246
0.000244
0.000255
0.000259
0.000263
0.000266
0.001808
0.000260
0.000267
0.000249
0.000265
0.000255
0.000282
0.000305
0.000421
0.000397
0.000310
0.000241
0.000250
0.000300
0.000193
0.000058
0.000202
0.001367
0.000325
0.000277
0.000249
0.000235
0.000243
0.000231
0.000239
0.000237
0.000222
0.000247
0.000252
0.000502
0.000364
0.000309
0.000247
0.001810
0.000354
0.000243
0.000239
0.000282
0.000248
0.000262
0.000275
0.000270
0.000276
0.000251
0.000270
0.000348
0.000176
0.000057
0.000215
0.000240
0.000251
0.001457
0.000215
0.000235
0.000244
0.000248
0.000239
0.000269
0.000250
0.000249
0.000246
0.000279
0.000234
0.000259
0.000259
0.000287
0.000251
0.000257
0.000256
0.001769
0.000277
0.001745
0.000281
0.000252
0.000263
0.000266
0.000268
0.000273
0.000199
0.000057
0.000197
0.000234
0.001348
0.000230
0.000255
0.000244
0.000256
0.000255
0.000243
0.000245
0.000263
0.000234
0.000262
0.000261
0.000262
0.000263
0.000259
0.000291
0.000284
0.000242
0.001868
0.000253
0.001802
0.000262
0.000253
0.000275
0.000243
0.000232
0.000253
0.000279
0.000191
0.000056
0.001458
0.000219
0.000243
0.000230
0.000236
0.000237
0.000374
0.000294
0.000235
0.000244
0.000253
0.000258
0.000276
0.000360
0.000362
0.000293
0.000242
0.000275
0.000242
0.000261
0.000270
0.000334
0.000234
0.000250
0.000267
0.000283
0.000298
0.000314
0.000641
0.000358
0.000198
0.000059
0.000208
0.000246
0.000266
0.000299
0.000385
0.000234
0.001704
0.000295
0.000281
0.000266
0.000259
0.000270
0.000274
0.000251
0.000309
0.000321
0.000353
0.000541
0.000397
0.000255
0.000287
0.000284
0.000255
0.000274
0.000334
0.000251
0.000273
0.000239
0.000255
0.000328
0.000408
0.000058
0.000308
0.000425
0.000260
0.000266
0.000250
0.000220
0.000251
0.000223
0.000263
0.000270
0.001489
0.000244
0.000216
0.000255
0.000241
0.000292
0.000283
0.000237
0.000248
0.000271
0.000270
0.000325
0.000562
0.000361
0.000235
0.000296
0.000266
0.000257
0.000232
0.000355
0.000131
0.000056
0.000212
0.000213
0.000308
0.000435
0.000365
0.000281
0.000230
0.000237
0.000252
0.000249
0.000237
0.000255
0.000257
0.000262
0.000236
0.000243
0.000436
0.001179
0.000241
0.000240
0.000284
0.000244
0.000357
0.000414
0.000252
0.000389
0.000547
0.000365
0.000328
0.000241
0.000188
0.000057
0.000225
0.000246
0.000261
0.000259
0.000262
0.000247
0.000392
0.000344
0.000437
0.000288
0.000364
0.000393
0.000392
0.000365
0.000255
0.000220
0.000253
0.000258
0.000400
0.000485
0.001250
0.000228
0.000263
0.000266
0.000240
0.000246
0.000254
0.000341
0.000395
0.000427
0.000254
0.000058
0.000212
0.000234
0.000258
0.000242
0.000239
0.000249
0.000235
0.000268
0.000310
0.000394
0.000389
0.000377
0.000232
0.000236
0.000240
0.000260
0.000247
0.000259
0.000266
0.000271
0.000436
0.000270
0.000318
0.000443
0.000321
0.000249
0.000286
0.000246
0.000257
0.000340
0.000160
0.000057
0.000308
0.000311
0.000404
0.000290
0.000449
0.000366
0.000227
0.000240
0.000249
0.000300
0.000227
0.000262
0.000234
0.000249
0.000247
0.000225
0.000280
0.000402
0.000428
0.000361
0.000244
0.000255
0.000247
0.000244
0.000273
0.000279
0.000265
0.000276
0.000262
0.000284
0.000241
0.000057
0.000256
0.000326
0.000238
0.000264
0.000223
0.000250
0.000242
0.000251
0.000262
0.000262
0.000249
0.000236
0.000277
0.000522
0.000425
0.000284
0.000259
0.000230
0.000259
0.000271
0.000248
0.000263
0.000254
0.000269
0.000274
0.000469
0.000296
0.000559
0.000404
0.000251
0.000176
0.000055
0.000376
0.000221
0.000212
0.000246
0.000249
0.000254
0.000231
0.000253
0.000255
0.000256
0.000223
0.000250
0.000269
0.000225
0.000260
0.000244
0.000256
0.000264
0.000297
0.000239
0.000259
0.000259
0.000264
0.000263
0.000267
0.000238
0.000262
0.000281
0.000255
0.000300
0.000180
0.000057
0.000201
0.000229
0.000251
0.000249
0.000233
0.000254
0.000264
0.000237
0.000259
0.000279
0.000228
0.000229
0.000267
0.000389
0.000259
0.000320
0.000217
0.000268
0.000256
0.000282
0.000267
0.000247
0.000234
0.000249
0.000277
0.000270
0.000249
0.000255
0.000293
0.000241
0.000209
0.000056
0.000209
0.000358
0.000369
0.000280
0.000298
0.000253
0.000268
0.000254
0.000224
0.000244
0.000284
0.000238
0.000239
0.000248
0.000244
0.000281
0.000243
0.000271
0.000241
0.000271
0.000273
0.000262
0.000278
0.000256
0.000297
0.000221
0.000282
0.000252
0.000273
0.000255
0.000201
0.000057
0.000212
0.000230
0.000265
0.000260
0.000253
0.000441
0.000222
0.000262
0.000257
0.000452
0.000490
0.000278
0.000235
0.000250
0.000275
0.000261
0.000235
0.000271
0.000257
0.000272
0.000264
0.000258
0.000254
0.000296
0.000558
0.000489
0.000243
0.000299
0.000257
0.000269
0.000190
0.000056
0.000213
0.000213
0.000254
0.000244
0.000470
0.000472
0.000347
0.000380
0.000209
0.000248
0.000246
0.000256
0.000252
0.000246
0.000261
0.000271
0.000274
0.000252
0.000638
0.000380
0.000296
0.000235
0.000255
0.000288
0.000283
0.000250
0.000265
0.000281
0.000234
0.000327
0.000312
0.000057
0.000311
0.000234
0.000232
0.000242
0.000252
0.000271
0.000212
0.000252
0.000236
0.000262
0.000252
0.000243
0.000252
0.000533
0.000426
0.000423
0.000224
0.000245
0.000255
0.000245
0.000269
0.000289
0.000466
0.000222
0.000267
0.000578
0.000467
0.000441
0.000263
0.000247
0.000196
0.000057
0.000207
0.000236
0.000254
0.000230
0.000256
0.000257
0.000336
0.000722
0.000288
0.000401
0.000222
0.000261
0.000273
0.000278
0.000251
0.000248
0.000237
0.000255
0.000258
0.000304
0.000430
0.000669
0.000359
0.000235
0.000359
0.000382
0.000480
0.000244
0.000272
0.000498
0.000405
0.000057
0.000275
0.000231
0.000437
0.000221
0.000235
0.000251
0.000266
0.000259
0.000227
0.000243
0.000260
0.000429
0.000419
0.000270
0.000233
0.000239
0.000268
0.000256
0.000256
0.000274
0.000296
0.000230
0.000247
0.000277
0.000328
0.000467
0.000490
0.000250
0.000280
0.000239
0.000200
0.000058
0.000206
0.000254
0.000232
0.000245
0.000246
0.000285
0.000333
0.000461
0.000376
0.000277
0.000374
0.000227
0.000244
0.000270
0.000247
0.000241
0.000256
0.000269
0.000275
0.000403
0.000517
0.000307
0.000477
0.000271
0.000384
0.000418
0.000381
0.000252
0.000245
0.000321
0.000421
0.000057
0.000271
0.000267
0.000243
0.000234
0.000284
0.000231
0.000270
0.000225
0.000271
0.000243
0.000243
0.000420
0.000386
0.000376
0.000373
0.000221
0.000264
0.000266
0.000263
0.000238
0.000248
0.000257
0.000266
0.000272
0.000294
0.000323
0.000488
0.000470
0.000237
0.000279
0.000200
0.000056
0.000211
0.000230
0.000269
0.000243
0.000247
0.000339
0.000699
0.000321
0.000481
0.000527
0.000259
0.000217
0.000239
0.000260
0.000243
0.000272
0.000268
0.000324
0.000473
0.000377
0.001510
0.000308
0.000271
0.000265
0.000286
0.000267
0.000408
0.000370
0.000349
0.000331
0.000190
0.000057
0.000207
0.000232
0.000245
0.000255
0.000238
0.000247
0.000304
0.000231
0.000272
0.000309
0.000322
0.000374
0.000284
0.000318
0.000396
0.000348
0.000242
0.000252
0.000271
0.000249
0.000250
0.000249
0.000311
0.000236
0.000371
0.000434
0.000450
0.000235
0.000225
0.000266
0.000200
0.000058
0.000223
0.000251
0.000250
0.000255
0.000251
0.000227
0.000468
0.000213
0.000255
0.000235
0.000245
0.000254
0.000258
0.000253
0.000253
0.000265
0.000264
0.000316
0.000237
0.000238
0.000285
0.000273
0.000289
0.000260
0.000247
0.000278
0.000273
0.000261
0.000263
0.000276
0.000173
0.000056
0.000224
0.000250
0.000308
0.000429
0.000358
0.000244
0.000232
0.000251
0.000262
0.000247
0.000248
0.000253
0.000264
0.000263
0.000235
0.000246
0.000268
0.000248
0.000324
0.000324
0.000427
0.000382
0.000234
0.000263
0.000256
0.000262
0.000266
0.000258
0.000270
0.000274
0.000206
0.000055
0.000270
0.000421
0.000397
0.000208
0.000255
0.000259
0.000404
0.000229
0.000230
0.000258
0.000252
0.000288
0.000350
0.000524
0.001792
0.000240
0.000241
0.000259
0.000276
0.000240
0.000374
0.000408
0.000706
0.000212
0.000230
0.000256
0.000276
0.000421
0.000281
0.000271
0.000174
0.000056
0.000196
0.000356
0.000331
0.000316
0.000498
0.000209
0.000245
0.000241
0.000245
0.000250
0.000255
0.000248
0.000263
0.000365
0.000344
0.000483
0.000234
0.000242
0.000263
0.000258
0.000260
0.000323
0.000229
0.000279
0.000273
0.000469
0.000545
0.000352
0.000460
0.000229
0.000208
0.000056
0.000222
0.000224
0.000260
0.000235
0.000241
0.000253
0.000270
0.000290
0.000330
0.000412
0.000453
0.000273
0.000237
0.000252
0.000263
0.000334
0.000253
0.000234
0.000274
0.000276
0.000235
0.000261
0.000521
0.000375
0.000275
0.000273
0.000250
0.000447
0.000456
0.000284
0.000156
0.000057
0.000216
0.000281
0.000342
0.000393
0.000349
0.000230
0.000221
0.000263
0.000252
0.000266
0.000247
0.000254
0.000230
0.000258
0.000258
0.000287
0.000401
0.000364
0.000297
0.000344
0.000492
0.000225
0.000282
0.000272
0.000301
0.000285
0.000246
0.000285
0.000562
0.000346
0.000258
0.000056
0.000215
0.000225
0.000249
0.000246
0.000240
0.000479
0.000217
0.000254
0.000263
0.000296
0.000544
0.000566
0.000222
0.000236
0.000235
0.000262
0.000249
0.000274
0.000235
0.000252
0.000290
0.000237
0.000352
0.000481
0.000307
0.000406
0.000297
0.000300
0.000327
0.000248
0.000186
0.000055
0.000225
0.000233
0.000252
0.000597
0.000240
0.000265
0.000259
0.000233
0.000244
0.000259
0.000265
0.000243
0.000265
0.000246
0.000243
0.000259
0.000244
0.000245
0.000279
0.000397
0.000543
0.000336
0.000233
0.000252
0.000294
0.000256
0.000260
0.000260
0.000263
0.000271
0.000194
0.000056
0.000235
0.000415
0.000450
0.000243
0.000216
0.000253
0.000341
0.000452
0.000269
0.000219
0.000235
0.000267
0.000308
0.000392
0.000492
0.000247
0.000227
0.000243
0.000250
0.000281
0.000253
0.000266
0.000264
0.000268
0.000270
0.000278
0.000404
0.000460
0.000270
0.000252
0.000185
0.000056
0.000235
0.000236
0.000252
0.000256
0.000250
0.000261
0.000230
0.000270
0.000248
0.000240
0.000264
0.000239
0.000290
0.001441
0.000227
0.000240
0.000268
0.000246
0.000271
0.000278
0.000254
0.000244
0.000277
0.000254
0.000270
0.000264
0.000272
0.000270
0.000271
0.000261
0.000194
0.000057
0.000196
0.000222
0.000256
0.000265
0.000219
0.000248
0.000258
0.000255
0.000229
0.000248
0.000250
0.000266
0.000271
0.000236
0.000257
0.000256
0.000254
0.000255
0.000275
0.000248
0.000254
0.000263
0.000248
0.000255
0.001296
0.000276
0.000577
0.000423
0.000339
0.000243
0.000190
0.000057
0.000215
0.000233
0.000244
0.000247
0.000411
0.000266
0.000214
0.000248
0.000253
0.000359
0.000484
0.000302
0.000240
0.000233
0.000266
0.000251
0.000258
0.000265
0.000246
0.000277
0.000244
0.000255
0.000275
0.000466
0.000451
0.000455
0.000231
0.000254
0.001379
0.000240
0.000185
0.000057
0.000272
0.000417
0.000292
0.000274
0.000224
0.000233
0.000220
0.000250
0.000260
0.000254
0.000249
0.000263
0.000298
0.000335
0.000446
0.000395
0.000347
0.000210
0.000252
0.000261
0.000262
0.000291
0.000248
0.000266
0.000288
0.000243
0.000270
0.000619
0.000398
0.000337
0.000151
0.000055
0.000211
0.000242
0.001255
0.000405
0.000342
0.000433
0.000382
0.000473
0.000271
0.000344
0.000234
0.000219
0.000261
0.000256
0.000246
0.000265
0.000341
0.000486
0.000432
0.000369
0.000238
0.000237
0.000266
0.000498
0.000231
0.000266
0.000257
0.000280
0.000302
0.000568
0.000276
0.000057
0.000374
0.000312
0.000231
0.001404
0.000335
0.000561
0.000250
0.000257
0.000241
0.000245
0.000232
0.000239
0.000253
0.000271
0.000247
0.000262
0.000237
0.000277
0.000444
0.000327
0.000467
0.000235
0.000257
0.000265
0.000254
0.000274
0.000267
0.000245
0.000257
0.000277
0.000214
0.000058
0.000371
0.000341
0.000235
0.000224
0.000249
0.000245
0.000257
0.000242
0.000230
0.000227
0.001400
0.000497
0.000257
0.000235
0.000246
0.000254
0.000272
0.000260
0.000238
0.000307
0.000243
0.000244
0.000266
0.000527
0.000429
0.000336
0.000230
0.000269
0.000276
0.000276
0.000179
0.000056
0.000190
0.000410
0.000236
0.000225
0.000331
0.000463
0.000497
0.000182
0.000452
0.000216
0.000237
0.000251
0.000261
0.000266
0.000252
0.001554
0.000230
0.000296
0.000227
0.000272
0.000290
0.000235
0.000253
0.000250
0.000269
0.000266
0.000495
0.000399
0.000293
0.000269
0.000169
0.000056
0.000220
0.000236
0.000259
0.000236
0.000231
0.000256
0.000245
0.000249
0.000337
0.000275
0.000486
0.000276
0.000239
0.000256
0.000247
0.000271
0.000272
0.000262
0.000268
0.000228
0.000262
0.000308
0.001263
0.000243
0.000276
0.000236
0.000257
0.000269
0.000253
0.000273
0.000180
0.000056
0.000330
0.000289
0.000329
0.000343
0.000272
0.000199
0.000256
0.000290
0.000240
0.000262
0.000240
0.000263
0.000238
0.000255
0.000273
0.000256
0.000255
0.000269
0.000265
0.000241
0.000265
0.000258
0.000268
0.000285
0.000287
0.000269
0.000261
0.000265
0.000257
0.000451
0.001371
0.000058
0.000187
0.000247
0.000218
0.000266
0.000233
0.000258
0.000239
0.000232
0.000249
0.000259
0.000293
0.000230
0.000248
0.000238
0.000278
0.000224
0.001729
0.000265
0.000229
0.000263
0.000237
0.000265
0.000277
0.000255
0.000300
0.000230
0.000270
0.000281
0.000260
0.000266
0.000223
0.000056
0.000280
0.000362
0.001288
0.000225
0.000227
0.000246
0.000252
0.000252
0.000270
0.000244
0.000237
0.000425
0.000341
0.000413
0.000270
0.000237
0.000265
0.000238
0.000262
0.000265
0.000241
0.000279
0.000255
0.000286
0.000271
0.000400
0.000363
0.000358
0.000326
0.000234
0.000197
0.000057
0.000226
0.000241
0.000239
0.000250
0.000272
0.000206
0.000236
0.000293
0.000428
0.001315
0.000247
0.000229
0.000234
0.000276
0.000242
0.000295
0.000232
0.000254
0.000382
0.000351
0.000369
0.000267
0.000243
0.000247
0.000290
0.000268
0.000268
0.000287
0.000270
0.000280
0.000187
0.000057
0.000307
0.000332
0.000417
0.000226
0.000226
0.000234
0.000265
0.000259
0.000262
0.000248
0.000228
0.000256
0.000445
0.000503
0.000461
0.001467
0.000231
0.000293
0.000317
0.000353
0.000510
0.000382
0.000562
0.000311
0.000232
0.000261
0.000287
0.000252
0.000267
0.000273
0.000212
0.000056
0.000197
0.000265
0.000568
0.000466
0.000234
0.000234
0.000253
0.000238
0.000258
0.000254
0.000232
0.000272
0.000274
0.000227
0.000263
0.000322
0.000362
0.000431
0.001393
0.000317
0.000219
0.000253
0.000250
0.000269
0.000449
0.000449
0.000402
0.000245
0.000265
0.000269
0.000191
0.000057
0.000212
0.000241
0.000244
0.000263
0.000226
0.000299
0.000431
0.000422
0.000332
0.000226
0.000237
0.000258
0.000273
0.000293
0.000236
0.000247
0.000270
0.000251
0.000286
0.000354
0.000419
0.000393
0.000308
0.001372
0.000376
0.000251
0.000270
0.000391
0.000512
0.000381
0.000229
0.000057
0.000198
0.000231
0.000244
0.000251
0.000271
0.000236
0.001735
0.000195
0.000220
0.000237
0.000250
0.000247
0.000258
0.000328
0.000329
0.000276
0.000265
0.000471
0.000290
0.000453
0.000313
0.000287
0.000232
0.000247
0.001500
0.000358
0.000388
0.000471
0.000322
0.000293
0.000171
0.000058
0.000213
0.000253
0.000258
0.000257
0.000246
0.000266
0.001700
0.000246
0.000232
0.000256
0.000335
0.000403
0.001499
0.000327
0.000375
0.000241
0.000253
0.000240
0.000266
0.000277
0.001569
0.000471
0.000446
0.000301
0.000248
0.000239
0.000263
0.000279
0.000248
0.000247
0.000202
0.000057
0.000209
0.000243
0.000265
0.000259
0.000249
0.000300
0.000250
0.000265
0.000243
0.000256
0.000250
0.000245
0.000296
0.000236
0.000274
0.001477
0.000281
0.000232
0.000267
0.000274
0.000273
0.000256
0.000427
0.001271
0.000288
0.000230
0.000268
0.000252
0.000395
0.000243
0.000206
0.000057
0.000212
0.000250
0.000217
0.000247
0.000239
0.000232
0.000241
0.001684
0.000253
0.000230
0.000355
0.000285
0.000205
0.000226
0.000254
0.001388
0.000229
0.000266
0.000262
0.000249
0.000257
0.000351
0.000291
0.001299
0.000279
0.000255
0.000242
0.000274
0.001389
0.000272
0.000224
0.000056
0.000281
0.000323
0.000216
0.000246
0.000257
0.000222
0.000290
0.000248
0.000263
0.000250
0.000259
0.000265
0.000259
0.000291
0.000265
0.001518
0.000227
0.000265
0.000248
0.000252
0.000308
0.000237
0.000256
0.001508
0.000345
0.000234
0.000267
0.001287
0.000263
0.000243
0.000221
0.000056
0.000239
0.000391
0.000333
0.000217
0.000242
0.000228
0.000271
0.000252
0.000261
0.000277
0.000236
0.000251
0.000265
0.000334
0.000355
0.001215
0.000232
0.000253
0.000264
0.000270
0.000237
0.000238
0.000249
0.000362
0.001253
0.000264
0.000237
0.000246
0.000259
0.001338
0.000332
0.000056
0.000349
0.000261
0.000195
0.000240
0.000236
0.000260
0.000238
0.000253
0.000297
0.000233
0.000238
0.000252
0.000283
0.000330
0.000374
0.001471
0.000217
0.000252
0.000311
0.000512
0.000298
0.001468
0.000320
0.000240
0.000240
0.000255
0.000252
0.001305
0.000339
0.000381
0.000442
0.000056
0.000199
0.000254
0.000250
0.000256
0.000278
0.000235
0.000266
0.000263
0.000245
0.000282
0.000308
0.000490
0.001298
0.000239
0.000268
0.000268
0.000276
0.000223
0.000239
0.000242
0.000335
0.001250
0.000265
0.000242
0.000249
0.000250
0.001566
0.000401
0.000452
0.000223
0.000198
0.000057
0.000219
0.000223
0.000245
0.000236
0.000254
0.000262
0.000241
0.000316
0.000373
0.000486
0.000266
0.001501
0.000215
0.000235
0.000268
0.000250
0.000291
0.000264
0.001696
0.000239
0.000389
0.000341
0.001268
0.000418
0.000265
0.000328
0.000295
0.000238
0.000241
0.000272
0.000190
0.000056
0.000206
0.000388
0.000169
0.000246
0.000334
0.000537
0.000276
0.000295
0.001468
0.000256
0.000362
0.000260
0.000236
0.000476
0.000251
0.001291
0.000259
0.000241
0.000244
0.000258
0.001545
0.000354
0.000299
0.000276
0.000255
0.000248
0.000444
0.000335
0.000245
0.000255
0.000263
0.000056
0.000238
0.000386
0.000322
0.000267
0.000229
0.001519
0.000212
0.000249
0.000267
0.000266
0.000271
0.000241
0.000296
0.001496
0.000241
0.000253
0.000425
0.001188
0.000485
0.000303
0.000386
0.000251
0.000249
0.000240
0.000293
0.000225
0.000451
0.000234
0.000264
0.000278
0.000200
0.000057
0.000272
0.000208
0.000364
0.000335
0.001333
0.000270
0.000333
0.000229
0.000220
0.000253
0.000244
0.000422
0.001394
0.000265
0.000227
0.000240
0.001391
0.000296
0.000412
0.000407
0.000395
0.000236
0.000254
0.000246
0.000269
0.000284
0.000253
0.000272
0.000265
0.000250
0.000211
0.000056
0.000211
0.000429
0.001423
0.000209
0.000273
0.000306
0.000216
0.000246
0.000264
0.000358
0.001411
0.000216
0.000262
0.000260
0.000256
0.001290
0.000710
0.000257
0.000325
0.000406
0.000307
0.000251
0.000254
0.000264
0.000272
0.000288
0.000272
0.000314
0.000411
0.000439
0.001381
0.000057
0.000209
0.000234
0.000235
0.000227
0.000269
0.000380
0.000525
0.001264
0.000253
0.000234
0.000248
0.001436
0.000530
0.000239
0.000222
0.000433
0.000224
0.000235
0.000273
0.000283
0.000257
0.000254
0.000279
0.000248
0.000260
0.000287
0.000415
0.000493
0.001501
0.000237
0.000184
0.000058
0.000215
0.000256
0.000461
0.001431
0.000301
0.000260
0.000204
0.000257
0.000246
0.000255
0.000246
0.000278
0.000384
0.000503
0.000296
0.000239
0.000248
0.000276
0.000235
0.000315
0.000228
0.000263
0.000256
0.000272
0.000262
0.000473
0.000451
0.000266
0.000334
0.001404
0.000176
0.000058
0.000198
0.000234
0.000411
0.000336
0.000448
0.000179
0.000324
0.000332
0.000296
0.000248
0.000243
0.000258
0.000253
0.000310
0.000232
0.000260
0.000613
0.000295
0.000290
0.000395
0.000267
0.000399
0.000237
0.000241
0.000264
0.000256
0.000255
0.000292
0.000301
0.000587
0.000249
0.000057
0.000197
0.001411
0.000223
0.000336
0.000406
0.000434
0.000400
0.000294
0.000220
0.000234
0.000266
0.000245
0.000282
0.000275
0.000239
0.000275
0.000239
0.001368
0.000257
0.000237
0.000265
0.000277
0.000268
0.000278
0.000261
0.000261
0.000272
0.000247
0.000343
0.000430
0.000291
0.000058
0.000206
0.000235
0.000237
0.001503
0.000328
0.000239
0.000220
0.000252
0.000230
0.000252
0.000247
0.000282
0.000242
0.000249
0.000300
0.000225
0.000248
0.000261
0.000260
0.000254
0.001441
0.000229
0.000242
0.000282
0.000258
0.000246
0.000270
0.000259
0.000277
0.000495
0.000341
0.000057
0.000212
0.000230
0.000442
0.000238
0.000235
0.000261
0.001529
0.000439
0.000200
0.000220
0.000258
0.000366
0.000287
0.000220
0.000231
0.000247
0.000250
0.000279
0.000238
0.000262
0.000560
0.000408
0.001148
0.000278
0.000234
0.000254
0.000269
0.000253
0.000309
0.000230
0.000477
0.000057
0.000287
0.000322
0.000219
0.000236
0.000253
0.000238
0.000243
0.000236
0.000283
0.001625
0.000398
0.000243
0.000252
0.000240
0.000253
0.000237
0.000270
0.000273
0.000281
0.000299
0.000325
0.000460
0.000472
0.001353
0.000226
0.000282
0.000255
0.000261
0.000286
0.000395
0.000340
0.000057
0.000272
0.000259
0.000216
0.000238
0.000226
0.000239
0.000265
0.000281
0.000253
0.001608
0.000329
0.000255
0.000242
0.000254
0.000459
0.000275
0.000576
0.000341
0.000256
0.000270
0.000520
0.000480
0.001252
0.000261
0.000236
0.000244
0.001943
0.000232
0.000614
0.000310
0.000145
0.000056
0.000202
0.000231
0.000241
0.000235
0.000277
0.000224
0.000245
0.000501
0.000489
0.000434
0.000287
0.000206
0.000246
0.000263
0.000278
0.000275
0.000235
0.000254
0.000237
0.000286
0.000232
0.000443
0.001347
0.000220
0.000252
0.000273
0.001934
0.000345
0.000403
0.000333
0.000155
0.000057
0.000245
0.000237
0.000242
0.001623
0.000368
0.000214
0.000236
0.000259
0.000255
0.000277
0.000374
0.000364
0.000371
0.000310
0.000269
0.000612
0.000320
0.001174
0.000281
0.000227
0.000255
0.000252
0.000287
0.000400
0.000594
0.000471
0.000282
0.000249
0.000264
0.000282
0.000194
0.000056
0.000207
0.000222
0.000247
0.001538
0.000260
0.000224
0.000241
0.000258
0.000236
0.000250
0.000260
0.000265
0.000272
0.000272
0.000311
0.000328
0.000438
0.000347
0.001384
0.000249
0.000235
0.000268
0.000249
0.000302
0.000335
0.000512
0.000415
0.000282
0.000284
0.000225
0.000438
0.000057
0.000228
0.000230
0.000272
0.001538
0.000290
0.000220
0.000269
0.000243
0.000249
0.000258
0.000251
0.000282
0.000231
0.000265
0.000568
0.000373
0.001350
0.000750
0.000253
0.000350
0.000245
0.000232
0.000240
0.000285
0.001700
0.000782
0.000228
0.000260
0.000281
0.000287
0.000179
0.000057
0.000192
0.000233
0.000249
0.000247
0.000280
0.000250
0.000213
0.000257
0.000238
0.000244
0.000285
0.000290
0.000239
0.000249
0.000259
0.000245
0.000273
0.001604
0.000772
0.000332
0.000290
0.000233
0.000240
0.000315
0.000248
0.000246
0.000297
0.000233
0.001382
0.000409
0.000354
0.000056
0.000234
0.000196
0.000269
0.000231
0.000261
0.000233
0.000274
0.000229
0.000257
0.000256
0.000277
0.000442
0.000448
0.000300
0.000213
0.000250
0.000267
0.001393
0.000692
0.000490
0.000305
0.000277
0.000245
0.000244
0.000273
0.000259
0.000248
0.000265
0.001476
0.000418
0.000212
0.000056
0.000215
0.000251
0.000224
0.000251
0.000245
0.000252
0.000232
0.000251
0.000270
0.000271
0.000406
0.000329
0.000334
0.000217
0.000241
0.000248
0.000270
0.000251
0.001568
0.000711
0.000408
0.000295
0.000235
0.000246
0.000267
0.000271
0.000255
0.000283
0.000262
0.001375
0.000309
0.000057
0.000216
0.000217
0.000238
0.000257
0.000255
0.000243
0.000248
0.000308
0.000362
0.000547
0.000313
0.000337
0.000355
0.000224
0.000246
0.000251
0.000301
0.000242
0.000262
0.001940
0.000310
0.000224
0.000451
0.000242
0.000262
0.000259
0.000279
0.000250
0.000266
0.000273
0.000268
0.000057
0.000254
0.000265
0.000230
0.000242
0.000261
0.000239
0.000229
0.000241
0.000291
0.000243
0.000232
0.000236
0.000299
0.000416
0.000608
0.000323
0.000218
0.000266
0.000242
0.000248
0.000264
0.000284
0.001466
0.001051
0.000222
0.000260
0.000265
0.000266
0.000271
0.000252
0.000205
0.000056
0.000208
0.001332
0.000291
0.000216
0.000236
0.000253
0.000246
0.000259
0.000222
0.000268
0.000242
0.000265
0.000244
0.000393
0.000353
0.000492
0.000231
0.000250
0.000264
0.000272
0.000280
0.000237
0.000241
0.000265
0.001310
0.000685
0.000316
0.000384
0.000372
0.000422
0.000282
0.000057
0.000200
0.000243
0.000381
0.001289
0.000214
0.000252
0.000232
0.000260
0.000251
0.000261
0.000263
0.000235
0.000293
0.000305
0.000620
0.000259
0.000231
0.000286
0.000319
0.000230
0.000238
0.000270
0.000251
0.000258
0.000268
0.002010
0.000341
0.000248
0.000254
0.000275
0.000199
0.000057
0.000192
0.000258
0.000453
0.000405
0.001220
0.000257
0.000229
0.000230
0.000236
0.000247
0.000244
0.000260
0.000243
0.000225
0.000251
0.000259
0.000268
0.000231
0.000259
0.000256
0.000265
0.000270
0.000310
0.000331
0.000212
0.000277
0.000260
0.001456
0.000257
0.000246
0.000182
0.000056
0.000204
0.000235
0.000248
0.000263
0.000353
0.000372
0.000396
0.000282
0.001566
0.000244
0.000288
0.000473
0.000369
0.000238
0.000434
0.000237
0.000227
0.000275
0.000269
0.000272
0.000276
0.000267
0.000259
0.000269
0.000259
0.000428
0.000393
0.000305
0.001587
0.000230
0.000188
0.000057
0.000232
0.000236
0.000249
0.000247
0.000240
0.000244
0.000263
0.000318
0.000426
0.002011
0.000226
0.000245
0.000258
0.000256
0.000264
0.000262
0.000263
0.000253
0.000271
0.000527
0.000389
0.000330
0.001443
0.000244
0.000248
0.002018
0.000284
0.000257
0.000237
0.001515
0.000170
0.000056
0.000209
0.000501
0.000375
0.000244
0.000279
0.000207
0.000262
0.000292
0.000239
0.000222
0.000254
0.000357
0.000406
0.000382
0.000416
0.000208
0.000236
0.001563
0.000247
0.000596
0.001850
0.000303
0.000223
0.001578
0.001991
0.000726
0.000301
0.000245
0.000303
0.000526
0.000223
0.000057
0.000233
0.000252
0.000265
0.000217
0.001412
0.001740
0.001067
0.000212
0.000234
0.001582
0.001987
0.000212
0.000236
0.000431
0.000271
0.000353
0.000426
0.000496
0.000227
0.000223
0.000252
0.000258
0.000269
0.001603
0.001201
0.001422
0.000289
0.000274
0.000255
0.000330
0.000352
0.000057
0.000247
0.000205
0.000235
0.000241
0.000229
0.000298
0.000201
0.000256
0.000256
0.000244
0.000245
0.000340
0.000438
0.000409
0.000339
0.000222
0.000254
0.000271
0.000266
0.000293
0.000227
0.000262
0.001494
0.000488
0.002130
0.000227
0.000299
0.000445
0.000296
0.000384
0.000194
0.000057
0.000234
0.000451
0.000359
0.000305
0.000221
0.000214
0.000251
0.000241
0.000240
0.000241
0.000248
0.000271
0.000254
0.001610
0.001351
0.001229
0.000276
0.000249
0.000229
0.000273
0.000284
0.000278
0.000241
0.000249
0.002214
0.000247
0.000245
0.000304
0.000323
0.000303
0.000223
0.000056
0.000206
0.000359
0.000543
0.000330
0.000253
0.000215
0.000246
0.000276
0.001893
0.001424
0.000219
0.000319
0.000388
0.000410
0.000268
0.000241
0.000238
0.000264
0.000267
0.000259
0.000254
0.000277
0.000461
0.000242
0.000267
0.000265
0.000254
0.000276
0.000291
0.000239
0.000203
0.000056
0.000210
0.000246
0.000250
0.000239
0.000280
0.000250
0.001538
0.001417
0.001329
0.000244
0.000226
0.000243
0.000260
0.000264
0.000245
0.000271
0.000229
0.002106
0.000248
0.000242
0.000265
0.000268
0.000245
0.000272
0.000263
0.000273
0.000255
0.000253
0.000283
0.000251
0.000177
0.000057
0.000193
0.002682
0.001403
0.000217
0.000304
0.000325
0.000217
0.000277
0.000234
0.000242
0.000252
0.000239
0.000238
0.000253
0.000264
0.000260
0.000265
0.000267
0.000266
0.000270
0.000256
0.000283
0.000270
0.000260
0.000248
0.000247
0.000262
0.000272
0.000262
0.000273
0.000376
0.000057
0.001542
0.000251
0.001237
0.000247
0.000211
0.000252
0.000268
0.000256
0.000226
0.000291
0.000393
0.000355
0.000314
0.000238
0.000237
0.002153
0.000242
0.000237
0.000297
0.000481
0.000419
0.000246
0.000237
0.000252
0.000266
0.000248
0.000280
0.000274
0.000259
0.001604
0.001270
0.000057
0.000205
0.000226
0.000294
0.000457
0.000291
0.000289
0.000214
0.000229
0.000251
0.000261
0.000266
0.000243
0.000231
0.000255
0.000260
0.000244
0.000353
0.000584
0.000394
0.000208
0.000237
0.000260
0.000288
0.000253
0.000244
0.000274
0.000243
0.000277
0.000241
0.000287
0.000392
0.000055
0.001126
0.000230
0.000358
0.000467
0.000258
0.000237
0.000219
0.000244
0.000267
0.002396
0.000449
0.000193
0.000223
0.000378
0.000307
0.000252
0.000241
0.000258
0.000266
0.000239
0.000240
0.000328
0.000600
0.000436
0.001839
0.001287
0.000519
0.000555
0.000240
0.000279
0.000201
0.000057
0.000240
0.000341
0.000249
0.000238
0.000250
0.000225
0.000261
0.000251
0.000253
0.000252
0.000253
0.000246
0.000226
0.000304
0.000370
0.000656
0.001662
0.001320
0.000449
0.000457
0.000447
0.000242
0.000237
0.000259
0.002136
0.000557
0.000383
0.000230
0.000275
0.000282
0.000198
0.000057
0.000217
0.000242
0.000258
0.000242
0.000226
0.000412
0.000350
0.000267
0.000361
0.000222
0.000234
0.000277
0.000242
0.002111
0.000435
0.000313
0.000228
0.000241
0.000287
0.000240
0.000250
0.002478
0.000314
0.000234
0.000254
0.000246
0.000260
0.000269
0.000313
0.000254
0.000193
0.000056
0.000218
0.000387
0.000485
0.000377
0.000259
0.000221
0.000228
0.000258
0.000260
0.000253
0.002005
0.000333
0.000281
0.000271
0.000241
0.000268
0.000271
0.000236
0.002213
0.000443
0.000225
0.000265
0.000271
0.000256
0.000253
0.000255
0.000298
0.000239
0.000266
0.000252
0.000192
0.000056
0.000223
0.000240
0.000244
0.000224
0.000247
0.000267
0.000231
0.000245
0.000234
0.002186
0.000257
0.000245
0.000219
0.000430
0.000219
0.000256
0.000311
0.000261
0.000251
0.000248
0.001972
0.000274
0.000335
0.000361
0.000434
0.000457
0.000253
0.000259
0.000263
0.000250
0.000201
0.000057
0.000207
0.000243
0.000236
0.000249
0.000279
0.000300
0.000222
0.002292
0.000244
0.000246
0.000255
0.000250
0.000239
0.000282
0.000277
0.002125
0.000589
0.000226
0.000251
0.000241
0.000258
0.000259
0.000291
0.000270
0.000257
0.000254
0.000303
0.000235
0.000267
0.000270
0.000196
0.000057
0.001822
0.001436
0.000211
0.000222
0.000256
0.000242
0.000253
0.000264
0.000436
0.000345
0.002147
0.000260
0.000232
0.000269
0.000260
0.000442
0.000487
0.000293
0.000224
0.000251
0.000246
0.000271
0.000262
0.000234
0.000253
0.000267
0.000269
0.000267
0.000359
0.000666
0.000273
0.000056
0.000203
0.000248
0.000244
0.000251
0.000268
0.000237
0.000255
0.000244
0.001501
0.002099
0.000583
0.000274
0.000429
0.000691
0.000333
0.000237
0.000248
0.000267
0.000247
0.000264
0.000252
0.000249
0.000253
0.000266
0.003015
0.000326
0.000243
0.000256
0.000297
0.000344
0.000350
0.000058
0.001929
0.000233
0.000232
0.000232
0.000266
0.000386
0.000443
0.000311
0.000283
0.000226
0.000232
0.000269
0.000244
0.000253
0.000269
0.000256
0.000253
0.000287
0.001813
0.000250
0.000230
0.000260
0.000272
0.000283
0.000265
0.000244
0.001475
0.000340
0.000240
0.000263
0.000171
0.000075
0.000189
0.000229
0.000267
0.000216
0.000251
0.000242
0.000343
0.000355
0.000307
0.000366
0.000238
0.000239
0.000262
0.000329
0.000420
0.000323
0.000227
0.000242
0.000268
0.000424
0.000454
0.000446
0.000203
0.000248
0.000255
0.000260
0.000257
0.000274
0.000267
0.000271
0.000201
0.000056
0.001427
0.000441
0.000221
0.001943
0.000290
0.000434
0.000401
0.000322
0.000231
0.000240
0.000268
0.000244
0.000248
0.000245
0.000265
0.000255
0.000459
0.000280
0.000381
0.000386
0.000372
0.000224
0.000258
0.000273
0.000273
0.000259
0.000264
0.000265
0.000403
0.000493
0.001303
0.000056
0.000198
0.000225
0.002082
0.000361
0.000274
0.000236
0.000268
0.000237
0.000256
0.000266
0.000212
0.000252
0.000271
0.000256
0.000282
0.000404
0.000633
0.001761
0.000230
0.000250
0.000254
0.000267
0.000419
0.000451
0.001529
0.000284
0.000364
0.001921
0.000266
0.000256
0.000192
0.000057
0.000212
0.000229
0.000235
0.000245
0.000228
0.000251
0.000261
0.000275
0.000323
0.000272
0.000376
0.000362
0.000344
0.000291
0.000243
0.000276
0.000251
0.000252
0.000262
0.000246
0.000315
0.000274
0.000270
0.000259
0.000268
0.001509
0.000291
0.000387
0.002075
0.000230
0.000177
0.000056
0.000233
0.000236
0.000237
0.000249
0.000479
0.000217
0.000267
0.000322
0.000346
0.000348
0.000274
0.000215
0.000269
0.000262
0.000267
0.000334
0.000430
0.000424
0.000250
0.000422
0.000503
0.000370
0.001663
0.000227
0.000250
0.001988
0.000329
0.000254
0.000239
0.000295
0.000190
0.000057
0.000213
0.000235
0.000232
0.000240
0.000258
0.000267
0.000252
0.000274
0.000245
0.000317
0.001752
0.000329
0.000378
0.000277
0.000466
0.000391
0.000307
0.001526
0.000246
0.000352
0.002052
0.000560
0.000229
0.000259
0.000257
0.000271
0.000495
0.000225
0.000262
0.000278
0.000200
0.000057
0.000283
0.000371
0.000354
0.000295
0.000220
0.000229
0.000258
0.000252
0.000270
0.000296
0.000236
0.000232
0.000256
0.000258
0.000411
0.000460
0.001265
0.000266
0.000287
0.002050
0.000217
0.000292
0.000233
0.000256
0.000256
0.000279
0.000260
0.000270
0.000252
0.000274
0.000183
0.000056
0.000254
0.000439
0.001983
0.000255
0.000229
0.000258
0.000277
0.000311
0.000467
0.000359
0.001317
0.000359
0.000357
0.002073
0.000231
0.000229
0.000267
0.000279
0.000249
0.000255
0.000275
0.000294
0.000255
0.000368
0.000510
0.000384
0.002206
0.000279
0.000491
0.000623
0.000271
0.000056
0.000221
0.000227
0.000242
0.001964
0.000240
0.000225
0.000234
0.000247
0.000241
0.000259
0.000245
0.000261
0.000284
0.000305
0.000412
0.001445
0.000250
0.000238
0.000267
0.000267
0.000223
0.000256
0.000260
0.000270
0.000341
0.000431
0.000474
0.000242
0.001599
0.000274
0.000164
0.000056
0.000206
0.000221
0.000245
0.000232
0.000262
0.000268
0.000222
0.000250
0.000254
0.000411
0.000355
0.001391
0.000233
0.000228
0.000242
0.000294
0.000224
0.000251
0.000276
0.000531
0.000573
0.000262
0.000216
0.001598
0.000211
0.000260
0.000289
0.000273
0.000267
0.000268
0.000196
0.000058
0.000218
0.000231
0.000288
0.000245
0.000246
0.000244
0.000233
0.000247
0.000280
0.000220
0.000252
0.000273
0.000250
0.001483
0.000357
0.000206
0.000252
0.000265
0.000277
0.000315
0.000366
0.000285
0.000232
0.000271
0.000257
0.000262
0.000259
0.001419
0.000277
0.000231
0.000177
0.000056
0.000228
0.000213
0.000260
0.000261
0.000271
0.000215
0.000253
0.000253
0.000225
0.000265
0.000244
0.000255
0.000230
0.000303
0.000412
0.000328
0.000263
0.000233
0.001635
0.000244
0.000235
0.000261
0.000267
0.000305
0.000373
0.000372
0.000453
0.000276
0.000236
0.001616
0.000161
0.000056
0.000323
0.000503
0.000179
0.000332
0.000221
0.000220
0.000246
0.000274
0.000252
0.000258
0.000229
0.000240
0.001477
0.000279
0.000301
0.000226
0.000243
0.000280
0.000249
0.000269
0.000253
0.000235
0.000260
0.000268
0.000260
0.000470
0.000347
0.000339
0.000301
0.000241
0.000198
0.000055
0.000218
0.000247
0.000419
0.000364
0.000358
0.000287
0.000248
0.000249
0.000246
0.000260
0.000239
0.000228
0.000256
0.000247
0.001253
0.000294
0.000254
0.000246
0.000259
0.000261
0.000241
0.000268
0.000254
0.000261
0.000257
0.000257
0.000383
0.000599
0.000471
0.000225
0.000195
0.000055
0.000198
0.001569
0.000240
0.000320
0.000512
0.000333
0.000214
0.000257
0.000270
0.000256
0.000229
0.000266
0.000263
0.000273
0.000252
0.001552
0.000235
0.000283
0.000262
0.000258
0.000276
0.000238
0.000266
0.000263
0.000257
0.000311
0.000486
0.000254
0.000382
0.000238
0.000188
0.000056
0.000210
0.000247
0.000234
0.001782
0.000309
0.000288
0.000223
0.000246
0.000252
0.000268
0.000281
0.000251
0.000257
0.000252
0.000237
0.000279
0.000458
0.001252
0.000256
0.000230
0.001499
0.000492
0.000443
0.000366
0.000317
0.000233
0.000282
0.000445
0.000241
0.000267
0.000188
0.000056
0.000285
0.000220
0.000241
0.000245
0.000255
0.000271
0.000220
0.000256
0.000250
0.000259
0.000240
0.000275
0.000313
0.000510
0.001631
0.001500
0.000349
0.000551
0.000334
0.000219
0.000227
0.000262
0.000260
0.000249
0.000257
0.000265
0.000257
0.000262
0.001526
0.000330
0.000197
0.000056
0.000206
0.000357
0.000349
0.000334
0.000233
0.000235
0.000243
0.000424
0.000346
0.000365
0.002192
0.000315
0.000735
0.000449
0.000496
0.000244
0.000336
0.000403
0.000311
0.000283
0.000394
0.000271
0.001525
0.000531
0.000220
0.000276
0.000250
0.000253
0.000261
0.000263
0.000200
0.000057
0.000203
0.000247
0.000259
0.000247
0.000244
0.001666
0.000874
0.000994
0.000208
0.000238
0.000272
0.000240
0.000259
0.000264
0.000250
0.000251
0.000255
0.000264
0.000265
0.000276
0.001428
0.000317
0.000255
0.000243
0.000221
0.000259
0.000267
0.000281
0.000267
0.000283
0.001896
0.000056
0.000201
0.000227
0.001545
0.000864
0.000384
0.000345
0.000260
0.000213
0.000252
0.000258
0.000267
0.000229
0.000246
0.002104
0.000349
0.000233
0.000226
0.000267
0.000264
0.000257
0.000195
