0.000109
0.017194
0.004314
0.000285
0.000242
0.000227
0.000300
0.000247
0.000338
0.000289
0.000240
0.000402
0.000629
0.000375
0.000341
0.000337
0.000274
0.000411
0.000368
0.000415
0.000302
0.001892
0.000470
0.000442
0.000246
0.000293
0.000311
0.000415
0.000417
0.000408
0.000450
0.000295
0.000056
0.000218
0.000227
0.000263
0.000260
0.000283
0.000260
0.000264
0.000262
0.000276
0.000351
0.000376
0.000504
0.000251
0.000288
0.000397
0.000368
0.000350
0.000247
0.000207
0.001740
0.000297
0.000208
0.000521
0.000263
0.000224
0.000245
0.000281
0.000296
0.000281
0.000397
0.000385
0.000057
0.000196
0.000208
0.000262
0.000256
0.000249
0.000257
0.000260
0.000253
0.000281
0.001686
0.000277
0.000208
0.000233
0.000266
0.000276
0.000248
0.000289
0.000267
0.000331
0.001804
0.000260
0.000247
0.000461
0.000456
0.000395
0.000236
0.000312
0.000473
0.000454
0.000768
0.000173
0.000056
0.000212
0.000205
0.000266
0.000230
0.000326
0.000249
0.000425
0.000432
0.000446
0.000267
0.000212
0.000221
0.000215
0.000259
0.000253
0.000267
0.000240
0.000265
0.000303
0.000346
0.001723
0.000252
0.000238
0.000454
0.000248
0.000723
0.000627
0.000516
0.000340
0.000268
0.000196
0.000057
0.000179
0.000224
0.000256
0.000256
0.000246
0.000254
0.000295
0.000583
0.001341
0.000234
0.000259
0.000224
0.000231
0.000251
0.000272
0.000283
0.000331
0.000828
0.001305
0.000288
0.000256
0.000425
0.000272
0.000229
0.000239
0.000261
0.000265
0.000266
0.000257
0.000311
0.000178
0.000056
0.000216
0.000226
0.000221
0.000247
0.000257
0.000245
0.000259
0.000239
0.000242
0.000255
0.001707
0.000241
0.000226
0.000234
0.000225
0.000236
0.000248
0.000238
0.000260
0.000260
0.000259
0.001746
0.000247
0.000261
0.000474
0.000235
0.000237
0.000233
0.000266
0.000256
0.000219
0.000056
0.000193
0.000239
0.000214
0.000247
0.000239
0.000249
0.000252
0.000242
0.000260
0.000250
0.000259
0.000262
0.000257
0.000269
0.001645
0.000278
0.000285
0.000235
0.000243
0.000262
0.000268
0.000245
0.000270
0.000245
0.000273
0.001868
0.000362
0.000348
0.000261
0.000279
0.000219
0.000056
0.000185
0.000199
0.000240
0.000275
0.000259
0.000229
0.000347
0.000342
0.000497
0.000370
0.000221
0.000224
0.000251
0.000251
0.001743
0.000422
0.000325
0.000391
0.000287
0.000229
0.000241
0.000278
0.000273
0.001813
0.000479
0.000491
0.000234
0.000219
0.000226
0.000257
0.000212
0.000056
0.000201
0.000226
0.000238
0.000277
0.000349
0.000492
0.000311
0.000290
0.000213
0.000214
0.000259
0.000244
0.000260
0.001759
0.000421
0.000320
0.000218
0.000239
0.000266
0.000289
0.000251
0.000271
0.000262
0.001905
0.000303
0.000390
0.000263
0.000229
0.000309
0.000404
0.000317
0.000055
0.000227
0.000377
0.000345
0.000262
0.000273
0.000207
0.000243
0.000261
0.000238
0.000260
0.000217
0.000244
0.001691
0.000266
0.000320
0.000209
0.000218
0.000248
0.000253
0.000271
0.000297
0.000328
0.001767
0.000356
0.000221
0.000515
0.000220
0.000245
0.000228
0.000261
0.000295
0.000055
0.000272
0.000643
0.000554
0.000212
0.000194
0.000262
0.000234
0.000218
0.000253
0.000260
0.000245
0.001715
0.000290
0.000388
0.000380
0.000238
0.000211
0.000241
0.000231
0.000272
0.000353
0.001749
0.000253
0.000228
0.002308
0.000375
0.000274
0.000254
0.000256
0.000258
0.000199
0.000056
0.000224
0.000203
0.000228
0.000248
0.000300
0.001661
0.000206
0.000216
0.000237
0.000243
0.000249
0.000238
0.000266
0.000241
0.000328
0.000439
0.000595
0.000207
0.000239
0.000264
0.000281
0.000255
0.000221
0.000508
0.000433
0.000275
0.000541
0.000443
0.000375
0.000202
0.000192
0.000057
0.000195
0.000204
0.000264
0.000239
0.000243
0.000240
0.000241
0.000577
0.000419
0.001529
0.000248
0.000232
0.000241
0.000247
0.000254
0.000337
0.000430
0.000484
0.000371
0.000252
0.000207
0.000304
0.000282
0.000261
0.000278
0.000405
0.000470
0.000608
0.000438
0.000394
0.000147
0.000056
0.000203
0.000237
0.000225
0.000229
0.000225
0.000242
0.000247
0.000241
0.000249
0.000375
0.000375
0.001530
0.000270
0.000215
0.000205
0.000210
0.000260
0.000251
0.000261
0.000243
0.000278
0.000539
0.000323
0.000340
0.000234
0.000222
0.000268
0.000250
0.000274
0.000257
0.000445
0.000056
0.000204
0.000221
0.000239
0.000265
0.000535
0.000430
0.000244
0.000237
0.000229
0.000256
0.000254
0.000242
0.000278
0.000269
0.000246
0.000580
0.000367
0.001586
0.000268
0.000247
0.000258
0.000257
0.000273
0.000239
0.000256
0.000574
0.000483
0.000338
0.000293
0.000218
0.000215
0.000056
0.000239
0.000213
0.000404
0.000235
0.000253
0.000246
0.000416
0.000571
0.000197
0.000323
0.000228
0.000271
0.000293
0.000234
0.000605
0.000271
0.000220
0.000254
0.000418
0.001681
0.000221
0.000231
0.000320
0.000401
0.000288
0.000284
0.000256
0.000442
0.000518
0.000392
0.000210
0.000056
0.000216
0.000205
0.000236
0.000239
0.000487
0.000267
0.000285
0.000211
0.000396
0.000647
0.000294
0.000219
0.000207
0.000214
0.000251
0.000270
0.000252
0.000256
0.000233
0.000378
0.000264
0.000447
0.001733
0.000263
0.000234
0.000252
0.000320
0.000354
0.000452
0.000850
0.000295
0.000058
0.000248
0.000314
0.000334
0.000416
0.000318
0.000210
0.000250
0.000342
0.000683
0.000276
0.000237
0.000211
0.000198
0.000279
0.000262
0.000247
0.000234
0.000278
0.000266
0.000260
0.000282
0.000460
0.001715
0.000277
0.000356
0.000423
0.000382
0.000281
0.000512
0.000260
0.000330
0.000056
0.000231
0.000376
0.000285
0.000206
0.000241
0.000209
0.000472
0.000208
0.000322
0.000322
0.000362
0.000400
0.000293
0.000217
0.000264
0.000292
0.000361
0.000460
0.000297
0.000218
0.000215
0.000412
0.000591
0.001700
0.000260
0.000384
0.000329
0.000246
0.000382
0.000300
0.000376
0.000056
0.000188
0.000208
0.000245
0.000227
0.000249
0.000243
0.000262
0.000362
0.000434
0.000306
0.000527
0.000307
0.000292
0.000205
0.000541
0.000241
0.000273
0.000271
0.000239
0.000362
0.000215
0.000231
0.000276
0.000508
0.000492
0.001640
0.000229
0.000228
0.000223
0.000264
0.000207
0.000057
0.000277
0.000472
0.000337
0.000197
0.000236
0.000221
0.000265
0.000244
0.000249
0.000258
0.000223
0.000482
0.000400
0.000383
0.000354
0.000321
0.000222
0.000249
0.000362
0.000355
0.000364
0.000360
0.000385
0.000379
0.000253
0.000221
0.000243
0.000267
0.001791
0.000267
0.000207
0.000057
0.000200
0.000204
0.000234
0.000270
0.000391
0.000514
0.000345
0.000218
0.000234
0.000261
0.000252
0.000241
0.000531
0.000459
0.000464
0.000315
0.000269
0.000240
0.000440
0.000484
0.000365
0.000464
0.000483
0.000400
0.000232
0.000260
0.000222
0.000223
0.000249
0.001847
0.000253
0.000058
0.000235
0.000332
0.000207
0.000209
0.000259
0.000241
0.000297
0.000446
0.000427
0.000304
0.000303
0.000310
0.000402
0.000582
0.000337
0.000201
0.000226
0.000242
0.000247
0.000266
0.000279
0.000250
0.000248
0.000266
0.000353
0.000324
0.000509
0.000342
0.000198
0.000223
0.000183
0.000056
0.000452
0.000308
0.000394
0.000285
0.000199
0.000234
0.000244
0.000249
0.000252
0.000247
0.000216
0.000290
0.000278
0.000446
0.000530
0.000376
0.000336
0.000367
0.000362
0.000391
0.000269
0.000207
0.000228
0.000267
0.001799
0.000220
0.001767
0.000950
0.000362
0.000333
0.000145
0.000058
0.000208
0.000206
0.000224
0.000232
0.000262
0.000262
0.000237
0.000257
0.000259
0.000358
0.000347
0.000412
0.000378
0.000402
0.000248
0.000233
0.000272
0.000285
0.000214
0.000229
0.000257
0.000246
0.001784
0.000279
0.000238
0.000240
0.000277
0.000264
0.001896
0.000563
0.000227
0.000057
0.000209
0.000211
0.000207
0.000242
0.000255
0.000241
0.000245
0.000255
0.000260
0.000413
0.000557
0.000285
0.000379
0.000270
0.000194
0.000291
0.000383
0.000389
0.000378
0.000261
0.001786
0.000247
0.000217
0.000235
0.000248
0.000270
0.000248
0.000266
0.000254
0.000460
0.000414
0.000058
0.000254
0.000216
0.000200
0.000258
0.000242
0.000242
0.000257
0.000263
0.000231
0.000264
0.000239
0.000300
0.000423
0.000361
0.000311
0.000321
0.000470
0.000209
0.000214
0.000258
0.000258
0.000259
0.000278
0.000257
0.000277
0.001790
0.000284
0.000229
0.000243
0.000244
0.000205
0.000057
0.000314
0.000281
0.000238
0.000200
0.000220
0.000239
0.000236
0.000251
0.000248
0.000244
0.000214
0.000270
0.000271
0.000385
0.000430
0.000336
0.000329
0.000212
0.000204
0.000252
0.000252
0.000261
0.000251
0.000266
0.000266
0.000246
0.000334
0.001681
0.000238
0.000250
0.000153
0.000057
0.000191
0.000221
0.000242
0.000264
0.000370
0.000422
0.000379
0.000275
0.000209
0.000243
0.000248
0.000242
0.000247
0.000260
0.000255
0.000264
0.000244
0.000254
0.000257
0.000256
0.000265
0.000268
0.000263
0.000233
0.000227
0.000292
0.000269
0.000263
0.000255
0.000257
0.000216
0.000056
0.000210
0.000219
0.000233
0.000254
0.000248
0.000244
0.000243
0.000264
0.000372
0.000201
0.000190
0.000237
0.000261
0.000247
0.000263
0.000275
0.000249
0.000250
0.000370
0.000209
0.000240
0.000283
0.000280
0.000252
0.000267
0.000286
0.000262
0.000256
0.000265
0.000460
0.000687
0.000056
0.000222
0.000308
0.000239
0.000189
0.000203
0.000247
0.000246
0.000246
0.000244
0.000258
0.000259
0.000359
0.000580
0.000392
0.001534
0.000209
0.000517
0.000206
0.000239
0.000413
0.000534
0.000290
0.000232
0.000276
0.000264
0.000256
0.000272
0.000256
0.000299
0.000269
0.000198
0.000055
0.000280
0.000416
0.000388
0.000287
0.000196
0.000239
0.000246
0.000249
0.000243
0.000234
0.000256
0.000255
0.000231
0.000284
0.000475
0.000403
0.000350
0.001793
0.000289
0.000207
0.000468
0.000419
0.000357
0.000285
0.000393
0.000303
0.000267
0.000236
0.000231
0.000237
0.000175
0.000077
0.000206
0.000227
0.000209
0.000402
0.000268
0.000509
0.000286
0.000205
0.000248
0.000233
0.000235
0.000268
0.000267
0.000264
0.000252
0.000254
0.000457
0.000360
0.000408
0.000358
0.000239
0.001802
0.000291
0.000580
0.000522
0.000375
0.000307
0.000238
0.000236
0.000264
0.000478
0.000078
0.000193
0.000238
0.000239
0.000320
0.000330
0.000477
0.000387
0.000294
0.000181
0.000327
0.000227
0.000218
0.000250
0.000305
0.000358
0.000218
0.000270
0.000391
0.000325
0.000398
0.000567
0.001795
0.000238
0.000657
0.000296
0.000357
0.000217
0.000398
0.000228
0.000215
0.000211
0.000059
0.000213
0.000334
0.000354
0.000398
0.000314
0.000271
0.000383
0.000218
0.000229
0.000252
0.000279
0.000235
0.000232
0.000263
0.000253
0.000245
0.000350
0.000429
0.000472
0.000394
0.000254
0.000215
0.000265
0.001769
0.000515
0.000363
0.000667
0.000283
0.000247
0.000295
0.000159
0.000056
0.000186
0.000221
0.000310
0.000255
0.000248
0.000571
0.000281
0.000277
0.000308
0.000526
0.000223
0.000209
0.000223
0.000278
0.000278
0.000268
0.000242
0.000463
0.000402
0.000374
0.000242
0.000255
0.000235
0.000260
0.000263
0.000260
0.000239
0.000253
0.000262
0.000369
0.000169
0.000056
0.000441
0.000209
0.000226
0.000237
0.000243
0.000252
0.000239
0.000367
0.000218
0.000197
0.000259
0.000343
0.000508
0.000348
0.000451
0.000189
0.000197
0.000242
0.000247
0.000263
0.000244
0.000295
0.000238
0.000255
0.000281
0.000442
0.000394
0.000306
0.000365
0.000220
0.000171
0.000056
0.000208
0.000198
0.000264
0.000251
0.000238
0.000251
0.000247
0.000268
0.000494
0.000232
0.000235
0.000257
0.000250
0.000248
0.000272
0.000276
0.000272
0.000364
0.000246
0.000217
0.000233
0.000263
0.000265
0.000262
0.000281
0.000263
0.000268
0.000260
0.000242
0.000523
0.000156
0.000056
0.000203
0.000226
0.000227
0.000260
0.000257
0.000219
0.000298
0.000464
0.000285
0.000202
0.000242
0.000260
0.000241
0.000296
0.000499
0.001693
0.000264
0.000226
0.000314
0.000375
0.000407
0.000345
0.000402
0.000331
0.000408
0.000360
0.000261
0.000242
0.000276
0.000279
0.001448
0.000058
0.000385
0.000320
0.000245
0.000198
0.000199
0.000229
0.000232
0.000254
0.000249
0.000262
0.000259
0.000249
0.000255
0.000276
0.000601
0.001657
0.000222
0.000211
0.000208
0.000271
0.000245
0.000285
0.000442
0.000379
0.000213
0.000331
0.000246
0.000246
0.000263
0.000261
0.000222
0.000057
0.001211
0.000555
0.000320
0.000289
0.000219
0.000205
0.000202
0.000247
0.000471
0.000231
0.000227
0.000249
0.000364
0.000506
0.000403
0.000332
0.000294
0.000255
0.000314
0.000390
0.000216
0.000229
0.000273
0.000243
0.000282
0.000747
0.000408
0.000254
0.000227
0.000274
0.000187
0.000056
0.000196
0.000227
0.000207
0.000244
0.001476
0.000336
0.000196
0.000237
0.000250
0.000243
0.000254
0.000249
0.000241
0.000260
0.000269
0.000342
0.000444
0.000623
0.000285
0.001775
0.000253
0.000292
0.000338
0.000603
0.000310
0.000394
0.000227
0.000227
0.000255
0.000269
0.000219
0.000056
0.000207
0.000254
0.000206
0.001336
0.000327
0.000203
0.000257
0.000217
0.000230
0.000230
0.000233
0.000250
0.000277
0.000252
0.000257
0.000328
0.000566
0.000371
0.000292
0.000229
0.000223
0.000277
0.000250
0.000240
0.000355
0.000220
0.000220
0.000273
0.000262
0.000391
0.000639
0.000057
0.000199
0.000226
0.000232
0.000259
0.000259
0.000251
0.000230
0.000256
0.000269
0.000256
0.001455
0.000241
0.000213
0.000246
0.000246
0.000244
0.000259
0.000264
0.000261
0.000285
0.000322
0.000514
0.000447
0.000301
0.000248
0.000278
0.001810
0.000240
0.000236
0.000335
0.000387
0.000056
0.000245
0.000432
0.000448
0.000506
0.000519
0.000552
0.001448
0.000435
0.000543
0.000654
0.000654
0.000643
0.000450
0.000629
0.000582
0.001766
0.000478
0.000388
0.000404
0.000294
0.000261
0.000288
0.000282
0.000265
0.000283
0.000267
0.000299
0.000274
0.000261
0.000296
0.001321
0.000057
0.000226
0.000256
0.000210
0.000235
0.000245
0.000247
0.000240
0.000228
0.000269
0.000266
0.000251
0.000246
0.000245
0.000263
0.000264
0.000260
0.001836
0.000263
0.000260
0.000253
0.000251
0.000261
0.000268
0.000336
0.000344
0.000438
0.000331
0.000227
0.000268
0.000291
0.000165
0.000058
0.000218
0.001381
0.000265
0.000257
0.000274
0.000220
0.000263
0.000237
0.000265
0.000236
0.000234
0.000267
0.000240
0.000433
0.000285
0.000352
0.000266
0.000286
0.001898
0.000280
0.000253
0.000254
0.000263
0.000259
0.000271
0.000265
0.000282
0.000238
0.000242
0.000318
0.000233
0.000057
0.000209
0.000225
0.000261
0.001426
0.000260
0.000263
0.000228
0.000222
0.000230
0.000259
0.000252
0.000268
0.000225
0.000246
0.000297
0.000242
0.000252
0.000261
0.000261
0.000276
0.000274
0.001827
0.000259
0.001753
0.000268
0.000270
0.000234
0.000225
0.000266
0.000292
0.000194
0.000056
0.000210
0.000245
0.001367
0.000260
0.000226
0.000233
0.000227
0.000223
0.000253
0.000258
0.000248
0.000252
0.000250
0.000256
0.000258
0.000265
0.000253
0.000275
0.000300
0.000278
0.001842
0.000280
0.001802
0.000266
0.000255
0.000248
0.000252
0.000265
0.000260
0.000261
0.000193
0.000056
0.001430
0.000248
0.000225
0.000227
0.000213
0.000219
0.000272
0.000352
0.000260
0.000250
0.000267
0.000252
0.000295
0.000382
0.000406
0.000268
0.000257
0.000263
0.000236
0.000213
0.000259
0.000338
0.000257
0.000250
0.000277
0.000272
0.000249
0.000320
0.000740
0.000340
0.000191
0.000057
0.000200
0.000276
0.000272
0.000312
0.000346
0.000271
0.001679
0.000282
0.000280
0.000259
0.000270
0.000303
0.000258
0.000269
0.000308
0.000358
0.000300
0.000496
0.000397
0.000273
0.000318
0.000281
0.000266
0.000260
0.000328
0.000258
0.000266
0.000240
0.000247
0.000375
0.000444
0.000057
0.000338
0.000349
0.000257
0.000268
0.000253
0.000227
0.000221
0.000250
0.000251
0.000256
0.001565
0.000212
0.000215
0.000231
0.000243
0.000291
0.000254
0.000265
0.000258
0.000260
0.000272
0.000582
0.000398
0.000311
0.000244
0.000261
0.000272
0.000233
0.000251
0.000233
0.000248
0.000057
0.000208
0.000208
0.000283
0.000454
0.000395
0.000257
0.000207
0.000239
0.000258
0.000280
0.000202
0.000270
0.000246
0.000266
0.000235
0.000239
0.000492
0.001188
0.000227
0.000231
0.000248
0.000242
0.000388
0.000463
0.000222
0.000573
0.000280
0.000456
0.000323
0.000206
0.000181
0.000057
0.000201
0.000252
0.000250
0.000241
0.000319
0.000201
0.000411
0.000408
0.000415
0.000299
0.000368
0.000402
0.000390
0.000360
0.000236
0.000218
0.000213
0.000247
0.000374
0.000573
0.001176
0.000241
0.000253
0.000267
0.000237
0.000237
0.000261
0.000383
0.000363
0.000606
0.000134
0.000056
0.000214
0.000198
0.000241
0.000261
0.000232
0.000247
0.000246
0.000262
0.000240
0.000473
0.000507
0.000341
0.000198
0.000210
0.000230
0.000251
0.000240
0.000277
0.000248
0.000240
0.000519
0.000215
0.000477
0.000311
0.000337
0.000217
0.000248
0.000275
0.000258
0.000284
0.000230
0.000056
0.000300
0.000289
0.000351
0.000349
0.000481
0.000326
0.000233
0.000270
0.000210
0.000271
0.000253
0.000260
0.000249
0.000243
0.000250
0.000227
0.000262
0.000466
0.000495
0.000330
0.000193
0.000269
0.000199
0.000244
0.000270
0.000268
0.000296
0.000256
0.000273
0.000257
0.000469
0.000057
0.000232
0.000313
0.000200
0.000231
0.000249
0.000250
0.000241
0.000255
0.000278
0.000241
0.000257
0.000237
0.000381
0.000504
0.000401
0.000308
0.000208
0.000221
0.000221
0.000258
0.000283
0.000244
0.000273
0.000244
0.000273
0.000354
0.000485
0.000484
0.000502
0.000219
0.000135
0.000058
0.000401
0.000199
0.000201
0.000236
0.000242
0.000251
0.000239
0.000250
0.000259
0.000255
0.000221
0.000245
0.000289
0.000217
0.000257
0.000244
0.000251
0.000259
0.000276
0.000279
0.000245
0.000258
0.000288
0.000239
0.000273
0.000280
0.000230
0.000269
0.000253
0.000286
0.000226
0.000056
0.000194
0.000201
0.000265
0.000231
0.000237
0.000243
0.000268
0.000232
0.000259
0.000290
0.000215
0.000236
0.000260
0.000407
0.000236
0.000282
0.000283
0.000260
0.000246
0.000274
0.000277
0.000235
0.000244
0.000255
0.000269
0.000278
0.000254
0.000255
0.000257
0.000261
0.000232
0.000056
0.000268
0.000376
0.000350
0.000279
0.000304
0.000230
0.000206
0.000253
0.000236
0.000239
0.000237
0.000266
0.000255
0.000243
0.000249
0.000254
0.000273
0.000271
0.000256
0.000252
0.000268
0.000267
0.000274
0.000262
0.000278
0.000278
0.000237
0.000284
0.000241
0.000275
0.000196
0.000058
0.000191
0.000224
0.000242
0.000260
0.000242
0.000463
0.000206
0.000242
0.000305
0.000475
0.000448
0.000337
0.000217
0.000208
0.000259
0.000271
0.000241
0.000265
0.000264
0.000266
0.000271
0.000255
0.000262
0.000282
0.000692
0.000426
0.000215
0.000255
0.000272
0.000260
0.000210
0.000057
0.000185
0.000186
0.000255
0.000240
0.000299
0.000703
0.000282
0.000388
0.000235
0.000229
0.000238
0.000261
0.000252
0.000250
0.000253
0.000267
0.000265
0.000303
0.000735
0.000298
0.000275
0.000210
0.000247
0.000281
0.000287
0.000261
0.000263
0.000261
0.000270
0.000320
0.000367
0.000056
0.000183
0.000223
0.000212
0.000229
0.000263
0.000251
0.000256
0.000216
0.000242
0.000256
0.000253
0.000249
0.000261
0.000361
0.000655
0.000393
0.000196
0.000232
0.000258
0.000258
0.000264
0.000263
0.000483
0.000236
0.000252
0.000776
0.000318
0.000414
0.000270
0.000253
0.000187
0.000055
0.000212
0.000202
0.000245
0.000241
0.000250
0.000252
0.000376
0.000448
0.000580
0.000359
0.000219
0.000249
0.000278
0.000275
0.000286
0.000219
0.000237
0.000250
0.000260
0.000303
0.000564
0.000456
0.000429
0.000268
0.000441
0.000354
0.000478
0.000214
0.000243
0.000459
0.000369
0.000055
0.000252
0.000207
0.000485
0.000200
0.000238
0.000224
0.000240
0.000262
0.000236
0.000236
0.000357
0.000348
0.000552
0.000175
0.000228
0.000199
0.000283
0.000223
0.000269
0.000269
0.000272
0.000260
0.000252
0.000266
0.000358
0.000471
0.000477
0.000233
0.000244
0.000288
0.000206
0.000057
0.000174
0.000237
0.000236
0.000239
0.000251
0.000299
0.000390
0.000550
0.000250
0.000280
0.000347
0.000251
0.000214
0.000265
0.000261
0.000241
0.000246
0.000256
0.000384
0.000359
0.000521
0.000291
0.000416
0.000363
0.000390
0.000380
0.000383
0.000254
0.000221
0.000255
0.000430
0.000056
0.000219
0.000237
0.000212
0.000239
0.000292
0.000226
0.000245
0.000246
0.000258
0.000257
0.000235
0.000408
0.000437
0.000376
0.000329
0.000263
0.000228
0.000261
0.000291
0.000222
0.000245
0.000252
0.000268
0.000276
0.000288
0.000309
0.000625
0.000356
0.000251
0.000264
0.000210
0.000058
0.000189
0.000205
0.000249
0.000252
0.000249
0.000315
0.000541
0.000555
0.000289
0.000666
0.000314
0.000209
0.000206
0.000253
0.000242
0.000266
0.000278
0.000268
0.000477
0.000736
0.001326
0.000248
0.000255
0.000259
0.000299
0.000247
0.000460
0.000314
0.000435
0.000255
0.000172
0.000057
0.000185
0.000207
0.000240
0.000247
0.000240
0.000254
0.000265
0.000254
0.000264
0.000353
0.000352
0.000366
0.000272
0.000393
0.000381
0.000339
0.000227
0.000216
0.000233
0.000271
0.000239
0.000245
0.000280
0.000272
0.000342
0.000546
0.000344
0.000264
0.000232
0.000264
0.000188
0.000057
0.000202
0.000221
0.000250
0.000251
0.000250
0.000232
0.000473
0.000211
0.000236
0.000259
0.000238
0.000255
0.000254
0.000260
0.000244
0.000273
0.000261
0.000262
0.000273
0.000271
0.000238
0.000292
0.000318
0.000232
0.000256
0.000275
0.000272
0.000268
0.000259
0.000274
0.000186
0.000056
0.000184
0.000213
0.000352
0.000509
0.000320
0.000203
0.000200
0.000240
0.000258
0.000257
0.000260
0.000237
0.000259
0.000265
0.000243
0.000234
0.000257
0.000262
0.000285
0.000325
0.000611
0.000236
0.000227
0.000263
0.000285
0.000241
0.000267
0.000260
0.000266
0.000274
0.000224
0.000056
0.000434
0.000373
0.000325
0.000215
0.000230
0.000261
0.000482
0.000203
0.000195
0.000235
0.000287
0.000335
0.000550
0.000262
0.001766
0.000261
0.000247
0.000242
0.000283
0.000239
0.000369
0.000560
0.000559
0.000234
0.000226
0.000239
0.000277
0.000416
0.000280
0.000287
0.000186
0.000057
0.000222
0.000370
0.000257
0.000318
0.000507
0.000198
0.000230
0.000243
0.000279
0.000225
0.000249
0.000256
0.000263
0.000462
0.000409
0.000386
0.000204
0.000204
0.000256
0.000267
0.000258
0.000323
0.000254
0.000258
0.000277
0.000476
0.000520
0.000351
0.000493
0.000237
0.000196
0.000056
0.000222
0.000201
0.000241
0.000238
0.000243
0.000255
0.000263
0.000276
0.000341
0.000469
0.000343
0.000381
0.000231
0.000198
0.000270
0.000280
0.000335
0.000224
0.000260
0.000274
0.000254
0.000294
0.000610
0.000252
0.000253
0.000290
0.000241
0.000535
0.000385
0.000269
0.000164
0.000058
0.000183
0.000238
0.000394
0.000333
0.000376
0.000242
0.000203
0.000250
0.000265
0.000259
0.000256
0.000263
0.000231
0.000245
0.000259
0.000363
0.000388
0.000373
0.000250
0.000350
0.000461
0.000235
0.000270
0.000270
0.000323
0.000265
0.000256
0.000284
0.000531
0.000496
0.000161
0.000056
0.000217
0.000197
0.000243
0.000247
0.000249
0.000483
0.000222
0.000231
0.000266
0.000384
0.000596
0.000431
0.000227
0.000230
0.000235
0.000253
0.000249
0.000252
0.000260
0.000272
0.000233
0.000274
0.000347
0.000636
0.000241
0.000320
0.000346
0.000339
0.000307
0.000237
0.000145
0.000056
0.000245
0.000182
0.000239
0.000556
0.000272
0.000360
0.000252
0.000208
0.000204
0.000237
0.000258
0.000250
0.000258
0.000245
0.000320
0.000214
0.000235
0.000249
0.000273
0.000405
0.000640
0.000262
0.000242
0.000205
0.000279
0.000276
0.000258
0.000260
0.000278
0.000252
0.000222
0.000057
0.000450
0.000288
0.000389
0.000204
0.000199
0.000212
0.000330
0.000508
0.000271
0.000216
0.000198
0.000264
0.000328
0.000542
0.000335
0.000290
0.000200
0.000234
0.000293
0.000208
0.000255
0.000266
0.000262
0.000270
0.000270
0.000317
0.000590
0.000238
0.000347
0.000224
0.000145
0.000056
0.000216
0.000199
0.000240
0.000253
0.000258
0.000259
0.000259
0.000229
0.000260
0.000241
0.000267
0.000248
0.000245
0.001462
0.000258
0.000219
0.000259
0.000280
0.000244
0.000285
0.000258
0.000251
0.000264
0.000257
0.000260
0.000272
0.000270
0.000278
0.000264
0.000256
0.000215
0.000056
0.000199
0.000213
0.000233
0.000243
0.000248
0.000238
0.000253
0.000264
0.000228
0.000242
0.000249
0.000259
0.000260
0.000260
0.000257
0.000255
0.000250
0.000260
0.000273
0.000253
0.000256
0.000262
0.000255
0.000235
0.001369
0.000273
0.000635
0.000442
0.000283
0.000215
0.000154
0.000057
0.000180
0.000214
0.000238
0.000250
0.000505
0.000226
0.000190
0.000219
0.000246
0.000399
0.000494
0.000340
0.000210
0.000215
0.000221
0.000263
0.000256
0.000270
0.000247
0.000255
0.000260
0.000250
0.000333
0.000423
0.000539
0.000348
0.000264
0.000237
0.001353
0.000289
0.000172
0.000056
0.000327
0.000383
0.000358
0.000245
0.000198
0.000203
0.000231
0.000234
0.000259
0.000262
0.000247
0.000256
0.000266
0.000442
0.000518
0.000315
0.000285
0.000249
0.000237
0.000227
0.000271
0.000259
0.000285
0.000257
0.000265
0.000261
0.000406
0.000505
0.000379
0.000392
0.000138
0.000056
0.000190
0.000225
0.001321
0.000370
0.000390
0.000359
0.000369
0.000314
0.000436
0.000390
0.000231
0.000197
0.000240
0.000250
0.000258
0.000258
0.000319
0.000546
0.000406
0.000340
0.000263
0.000239
0.000254
0.000520
0.000227
0.000258
0.000258
0.000277
0.000289
0.000689
0.000194
0.000056
0.000324
0.000386
0.000227
0.000202
0.001586
0.000485
0.000305
0.000216
0.000201
0.000241
0.000231
0.000233
0.000247
0.000269
0.000253
0.000275
0.000228
0.000316
0.000408
0.000621
0.000252
0.000212
0.000237
0.000227
0.000253
0.000274
0.000268
0.000244
0.000255
0.000276
0.000286
0.000056
0.000355
0.000308
0.000307
0.000171
0.000226
0.000238
0.000255
0.000245
0.000233
0.000261
0.001677
0.000258
0.000251
0.000218
0.000211
0.000249
0.000263
0.000268
0.000229
0.000271
0.000277
0.000256
0.000257
0.000459
0.000473
0.000386
0.000209
0.000288
0.000250
0.000281
0.000182
0.000055
0.000187
0.000470
0.000202
0.000208
0.000384
0.000395
0.000408
0.000292
0.000445
0.000201
0.000226
0.000246
0.000264
0.000260
0.000273
0.001497
0.000267
0.000285
0.000261
0.000248
0.000280
0.000258
0.000257
0.000255
0.000250
0.000279
0.000512
0.000405
0.000291
0.000278
0.000153
0.000055
0.000218
0.000208
0.000239
0.000239
0.000247
0.000247
0.000239
0.000250
0.000279
0.000424
0.000446
0.000312
0.000204
0.000207
0.000238
0.000276
0.000268
0.000270
0.000272
0.000231
0.000243
0.000310
0.001341
0.000223
0.000268
0.000221
0.000248
0.000263
0.000255
0.000249
0.000199
0.000057
0.000244
0.000367
0.000371
0.000314
0.000225
0.000212
0.000256
0.000245
0.000251
0.000255
0.000266
0.000258
0.000245
0.000252
0.000257
0.000263
0.000259
0.000268
0.000271
0.000253
0.000243
0.000276
0.000273
0.000279
0.000292
0.000262
0.000277
0.000233
0.000273
0.000518
0.001310
0.000056
0.000197
0.000202
0.000235
0.000243
0.000253
0.000262
0.000249
0.000221
0.000248
0.000248
0.000267
0.000265
0.000258
0.000237
0.000245
0.001726
0.000360
0.000215
0.000208
0.000223
0.000247
0.000261
0.000271
0.000264
0.000257
0.000277
0.000280
0.000261
0.000285
0.000262
0.000253
0.000056
0.000287
0.000322
0.001316
0.000195
0.000222
0.000212
0.000256
0.000256
0.000256
0.000252
0.000231
0.000435
0.000399
0.000442
0.000241
0.000214
0.000209
0.000246
0.000278
0.000252
0.000251
0.000255
0.000278
0.000278
0.000283
0.000445
0.000335
0.000368
0.000279
0.000259
0.000191
0.000055
0.000218
0.000211
0.000246
0.000251
0.000247
0.000242
0.000225
0.000290
0.000435
0.000494
0.001056
0.000249
0.000222
0.000259
0.000261
0.000263
0.000275
0.000243
0.000329
0.000481
0.000357
0.000239
0.000227
0.000216
0.000287
0.000267
0.000268
0.000303
0.000264
0.000276
0.000212
0.000056
0.000222
0.000451
0.000400
0.000220
0.000214
0.000198
0.000242
0.000265
0.000273
0.000257
0.000222
0.000259
0.000536
0.000470
0.000511
0.001427
0.000222
0.000278
0.000319
0.000357
0.000453
0.000494
0.000358
0.000419
0.000218
0.000262
0.000258
0.000276
0.000287
0.000264
0.000206
0.000057
0.000195
0.000302
0.000378
0.000650
0.000201
0.000209
0.000243
0.000227
0.000251
0.000254
0.000261
0.000255
0.000264
0.000248
0.000258
0.000363
0.000367
0.000451
0.000300
0.001318
0.000269
0.000235
0.000256
0.000266
0.000575
0.000376
0.000396
0.000221
0.000244
0.000265
0.000224
0.000056
0.000175
0.000227
0.000240
0.000239
0.000245
0.000293
0.000549
0.000277
0.000370
0.000232
0.000223
0.000262
0.000268
0.000259
0.000257
0.000271
0.000259
0.000265
0.000281
0.000250
0.000626
0.000351
0.000329
0.001339
0.000341
0.000242
0.000318
0.000468
0.000521
0.000203
0.000328
0.000055
0.000185
0.000211
0.000247
0.000244
0.000250
0.000259
0.001725
0.000240
0.000214
0.000205
0.000253
0.000268
0.000322
0.000323
0.000331
0.000275
0.000271
0.000332
0.000509
0.000373
0.000285
0.000275
0.000217
0.000223
0.001444
0.000602
0.000260
0.000462
0.000317
0.000297
0.000152
0.000056
0.000212
0.000210
0.000259
0.000262
0.000243
0.000262
0.001789
0.000216
0.000228
0.000252
0.000390
0.000413
0.001427
0.000406
0.000349
0.000205
0.000201
0.000238
0.000261
0.000274
0.001663
0.000637
0.000285
0.000282
0.000209
0.000234
0.000242
0.000276
0.000242
0.000253
0.000221
0.000058
0.000217
0.000206
0.000243
0.000251
0.000263
0.000288
0.000267
0.000251
0.000258
0.000250
0.000249
0.000250
0.000255
0.000267
0.000266
0.001504
0.000279
0.000229
0.000265
0.000273
0.000272
0.000260
0.000429
0.001275
0.000268
0.000249
0.000263
0.000249
0.000470
0.000205
0.000188
0.000056
0.000186
0.000222
0.000229
0.000250
0.000230
0.000230
0.000236
0.001779
0.000203
0.000209
0.000232
0.000367
0.000232
0.000229
0.001463
0.000239
0.000212
0.000225
0.000259
0.000241
0.000259
0.000311
0.000335
0.001360
0.000272
0.000231
0.000232
0.000242
0.001405
0.000278
0.000248
0.000056
0.000278
0.000329
0.000209
0.000197
0.000275
0.000230
0.000245
0.000270
0.000264
0.000245
0.000265
0.000261
0.000256
0.000240
0.000339
0.001477
0.000243
0.000266
0.000260
0.000246
0.000280
0.000261
0.000261
0.001532
0.000310
0.000240
0.000283
0.001333
0.000231
0.000241
0.000225
0.000056
0.000225
0.000371
0.000317
0.000213
0.000226
0.000247
0.000248
0.000262
0.000262
0.000268
0.000233
0.000255
0.000263
0.000299
0.000538
0.001140
0.000220
0.000221
0.000238
0.000279
0.000241
0.000230
0.000250
0.001479
0.000205
0.000228
0.000240
0.000222
0.000254
0.001350
0.000322
0.000057
0.000220
0.000254
0.000220
0.000211
0.000219
0.000251
0.000259
0.000243
0.000276
0.000248
0.000243
0.000244
0.000283
0.000289
0.000484
0.001415
0.000247
0.000217
0.000311
0.000495
0.000321
0.000337
0.001427
0.000261
0.000234
0.000259
0.001292
0.000355
0.000374
0.000392
0.000387
0.000056
0.000196
0.000236
0.000250
0.000276
0.000229
0.000269
0.000267
0.000242
0.000274
0.000257
0.000381
0.000428
0.001384
0.000208
0.000225
0.000251
0.000285
0.000266
0.000221
0.000216
0.000398
0.001250
0.000246
0.000221
0.000214
0.000263
0.001550
0.000409
0.000454
0.000234
0.000200
0.000057
0.000196
0.000207
0.000244
0.000239
0.000250
0.000260
0.000244
0.000307
0.000494
0.000373
0.000322
0.001443
0.000235
0.000212
0.000264
0.000267
0.000250
0.000386
0.001563
0.000339
0.000325
0.000379
0.001468
0.000263
0.000309
0.000300
0.000229
0.000213
0.000236
0.000272
0.000212
0.000056
0.000216
0.000211
0.000312
0.000291
0.000326
0.000462
0.000315
0.000354
0.001480
0.000277
0.000336
0.000253
0.000215
0.000330
0.000323
0.001390
0.000261
0.000209
0.000255
0.000213
0.000298
0.001592
0.000385
0.000266
0.000237
0.000205
0.000516
0.000313
0.000244
0.000229
0.000238
0.000055
0.000265
0.000364
0.000313
0.000292
0.000233
0.001450
0.000262
0.000199
0.000256
0.000269
0.000273
0.000249
0.000354
0.001429
0.000268
0.000224
0.000435
0.001273
0.000274
0.000509
0.000296
0.000255
0.000235
0.000239
0.000275
0.000263
0.000458
0.000236
0.000251
0.000268
0.000220
0.000056
0.000208
0.000233
0.000344
0.001471
0.000284
0.000183
0.000294
0.000251
0.000234
0.000252
0.000254
0.000287
0.001614
0.000206
0.000224
0.000233
0.001359
0.000337
0.000548
0.000393
0.000302
0.000225
0.000211
0.000235
0.000400
0.000220
0.000225
0.000253
0.000246
0.000253
0.000210
0.000057
0.000307
0.000354
0.001380
0.000226
0.000240
0.000276
0.000252
0.000238
0.000334
0.000384
0.001328
0.000257
0.000298
0.000245
0.000217
0.001435
0.000619
0.000232
0.000308
0.000406
0.000334
0.000239
0.000249
0.000207
0.000275
0.000283
0.000275
0.000297
0.000516
0.000414
0.001382
0.000056
0.000192
0.000237
0.000213
0.000222
0.000261
0.000721
0.001235
0.000312
0.000210
0.000199
0.000256
0.001414
0.000522
0.000253
0.000445
0.000248
0.000225
0.000221
0.000224
0.000278
0.000280
0.000250
0.000265
0.000262
0.000249
0.000402
0.000353
0.000509
0.001450
0.000272
0.000184
0.000057
0.000181
0.000231
0.000346
0.000646
0.001128
0.000284
0.000257
0.000252
0.000232
0.000248
0.000251
0.000290
0.000392
0.000530
0.000284
0.000234
0.000227
0.000269
0.000250
0.000264
0.000268
0.000281
0.000240
0.000261
0.000265
0.000445
0.000528
0.000252
0.000306
0.001489
0.000140
0.000056
0.000203
0.000207
0.000252
0.000501
0.000344
0.000301
0.000289
0.000320
0.000279
0.000256
0.000266
0.000258
0.000264
0.000294
0.000257
0.000289
0.000567
0.000304
0.000280
0.000380
0.000297
0.000463
0.000245
0.000210
0.000213
0.000265
0.000254
0.000293
0.000455
0.000404
0.000298
0.000056
0.000220
0.001359
0.000287
0.000314
0.000386
0.000490
0.000286
0.000352
0.000227
0.000205
0.000247
0.000262
0.000258
0.000260
0.000268
0.000261
0.000271
0.001363
0.000309
0.000216
0.000228
0.000271
0.000269
0.000281
0.000269
0.000255
0.000269
0.000255
0.000278
0.000460
0.000308
0.000056
0.000227
0.000250
0.000226
0.001535
0.000321
0.000220
0.000212
0.000195
0.000223
0.000254
0.000253
0.000273
0.000248
0.000245
0.000268
0.000266
0.000243
0.000262
0.000259
0.000281
0.001416
0.000273
0.000234
0.000341
0.000210
0.000218
0.000248
0.000258
0.000282
0.000522
0.000362
0.000057
0.000199
0.000215
0.000377
0.000312
0.000221
0.000259
0.001585
0.000391
0.000237
0.000217
0.000224
0.000367
0.000303
0.000225
0.000209
0.000292
0.000208
0.000257
0.000264
0.000268
0.000499
0.000540
0.001130
0.000267
0.000215
0.000222
0.000263
0.000252
0.000278
0.000260
0.000449
0.000058
0.000285
0.000299
0.000197
0.000193
0.000247
0.000244
0.000243
0.000229
0.001517
0.000460
0.000381
0.000267
0.000225
0.000224
0.000228
0.000247
0.000247
0.000282
0.000258
0.000308
0.000350
0.000550
0.000403
0.001318
0.000237
0.000250
0.000280
0.000260
0.000267
0.000284
0.000529
0.000057
0.000273
0.000225
0.000214
0.000235
0.000236
0.000223
0.000264
0.000248
0.000295
0.001559
0.000344
0.000254
0.000266
0.000262
0.000464
0.000303
0.000396
0.000472
0.000337
0.000307
0.000470
0.000439
0.001302
0.000241
0.000235
0.000209
0.001814
0.000395
0.000592
0.000325
0.000139
0.000057
0.000202
0.000200
0.000238
0.000237
0.000254
0.000240
0.000362
0.000488
0.000505
0.000360
0.000291
0.000204
0.000211
0.000253
0.000261
0.000255
0.000260
0.000255
0.000243
0.000274
0.000354
0.000450
0.001273
0.000226
0.000222
0.000260
0.001948
0.000326
0.000454
0.000299
0.000169
0.000056
0.000237
0.000206
0.000248
0.001696
0.000272
0.000242
0.000233
0.000271
0.000254
0.000328
0.000364
0.000376
0.000355
0.000307
0.000396
0.000443
0.001345
0.000306
0.000194
0.000196
0.000249
0.000234
0.000366
0.000414
0.000734
0.000320
0.000228
0.000224
0.000248
0.000281
0.000211
0.000056
0.000185
0.000206
0.001533
0.000338
0.000202
0.000206
0.000213
0.000258
0.000245
0.000255
0.000249
0.000274
0.000265
0.000269
0.000284
0.000439
0.000430
0.000293
0.001421
0.000225
0.000208
0.000265
0.000250
0.000263
0.000327
0.000678
0.000335
0.000279
0.000294
0.000248
0.000400
0.000056
0.000187
0.000206
0.000245
0.000263
0.001608
0.000208
0.000257
0.000244
0.000260
0.000247
0.000261
0.000268
0.000253
0.000239
0.000393
0.000585
0.001423
0.000735
0.000214
0.000342
0.000246
0.000226
0.000222
0.000261
0.001769
0.000726
0.000243
0.000243
0.000276
0.000292
0.000216
0.000055
0.000193
0.000205
0.000241
0.000243
0.000249
0.000254
0.000256
0.000242
0.000248
0.000229
0.000284
0.000274
0.000261
0.000248
0.000265
0.000261
0.000260
0.001613
0.000733
0.000508
0.000187
0.000205
0.000230
0.000265
0.000272
0.000262
0.000273
0.000275
0.001558
0.000318
0.000335
0.000056
0.000202
0.000202
0.000236
0.000251
0.000258
0.000238
0.000248
0.000254
0.000250
0.000273
0.000291
0.000413
0.000422
0.000372
0.000204
0.000227
0.000256
0.001476
0.000736
0.000362
0.000333
0.000294
0.000227
0.000219
0.000266
0.000266
0.000244
0.000290
0.001486
0.000455
0.000218
0.000056
0.000190
0.000199
0.000247
0.000236
0.000253
0.000243
0.000248
0.000255
0.000260
0.000278
0.000378
0.000366
0.000322
0.000226
0.000232
0.000251
0.000258
0.000257
0.001668
0.000575
0.000419
0.000359
0.000222
0.000231
0.000256
0.000261
0.000263
0.000275
0.000299
0.001497
0.000226
0.000056
0.000188
0.000214
0.000204
0.000268
0.000249
0.000249
0.000282
0.000358
0.000366
0.000559
0.000242
0.000351
0.000353
0.000231
0.000208
0.000239
0.000271
0.000261
0.001525
0.000776
0.000306
0.000196
0.000478
0.000214
0.000217
0.000242
0.000269
0.000281
0.000253
0.000276
0.000406
0.000056
0.000187
0.000282
0.000216
0.000226
0.000252
0.000251
0.000224
0.000240
0.000259
0.000268
0.000253
0.000250
0.000319
0.000454
0.000456
0.000387
0.000236
0.000241
0.000261
0.000252
0.000256
0.000371
0.001383
0.001053
0.000254
0.000216
0.000277
0.000253
0.000281
0.000254
0.000214
0.000057
0.000212
0.001364
0.000270
0.000210
0.000202
0.000238
0.000251
0.000247
0.000229
0.000262
0.000242
0.000264
0.000264
0.000503
0.000318
0.000410
0.000278
0.000210
0.000262
0.000266
0.000265
0.000246
0.000249
0.000262
0.001479
0.000597
0.000320
0.000394
0.000368
0.000396
0.000267
0.000056
0.000204
0.000235
0.000494
0.001160
0.000233
0.000267
0.000193
0.000255
0.000258
0.000245
0.000277
0.000236
0.000278
0.000362
0.000531
0.000376
0.000222
0.000283
0.000272
0.000224
0.000236
0.000272
0.000235
0.000266
0.000273
0.001533
0.000729
0.000307
0.000277
0.000270
0.000225
0.000057
0.000196
0.000367
0.000321
0.000405
0.001294
0.000250
0.000193
0.000207
0.000232
0.000238
0.000252
0.000255
0.000247
0.000225
0.000273
0.000243
0.000267
0.000233
0.000250
0.000255
0.000268
0.000290
0.000347
0.000278
0.000236
0.000236
0.000270
0.001546
0.000229
0.000225
0.000155
0.000056
0.000204
0.000199
0.000251
0.000339
0.000348
0.000334
0.000412
0.000269
0.001531
0.000261
0.000307
0.000456
0.000366
0.000230
0.000481
0.000234
0.000221
0.000225
0.000256
0.000280
0.000271
0.000270
0.000255
0.000270
0.000274
0.000419
0.000565
0.000193
0.001529
0.000255
0.000166
0.000056
0.000233
0.000201
0.000273
0.000221
0.000244
0.000238
0.000268
0.000340
0.000406
0.002078
0.000219
0.000201
0.000233
0.000260
0.000274
0.000324
0.000249
0.000219
0.000341
0.000343
0.000386
0.000438
0.001513
0.000220
0.000243
0.000486
0.001761
0.000285
0.000263
0.001492
0.000187
0.000056
0.000300
0.000382
0.000498
0.000220
0.000263
0.000248
0.000239
0.000257
0.000278
0.000226
0.000244
0.000389
0.000384
0.000358
0.000468
0.000210
0.000223
0.001556
0.000475
0.002002
0.000291
0.000271
0.001543
0.000336
0.001936
0.000722
0.000285
0.000209
0.000277
0.000439
0.000412
0.000056
0.000198
0.000212
0.000246
0.000252
0.001494
0.001666
0.001079
0.000227
0.000220
0.001571
0.001983
0.000235
0.000310
0.000406
0.000361
0.000332
0.000399
0.000358
0.000246
0.000221
0.000255
0.000252
0.000274
0.001579
0.001298
0.001423
0.000269
0.000242
0.000256
0.000316
0.000436
0.000057
0.000215
0.000234
0.000207
0.000231
0.000238
0.000226
0.000254
0.000256
0.000246
0.000250
0.000255
0.000310
0.000551
0.000396
0.000314
0.000213
0.000208
0.000277
0.000254
0.000266
0.000257
0.001405
0.000447
0.000455
0.002066
0.000255
0.000254
0.000343
0.000497
0.000419
0.000134
0.000056
0.000266
0.000334
0.000389
0.000312
0.000232
0.000202
0.000242
0.000253
0.000237
0.000245
0.000243
0.000266
0.000262
0.001618
0.001415
0.001224
0.000280
0.000237
0.000210
0.000230
0.000283
0.000284
0.000251
0.000245
0.002274
0.000245
0.000194
0.000292
0.000312
0.000304
0.000246
0.000057
0.000204
0.000364
0.000617
0.000311
0.000203
0.000206
0.000224
0.000259
0.001895
0.001431
0.000266
0.000375
0.000389
0.000363
0.000259
0.000212
0.000216
0.000273
0.000268
0.000256
0.000259
0.000266
0.000485
0.000243
0.000249
0.000290
0.000235
0.000272
0.000286
0.000246
0.000221
0.000057
0.000170
0.000232
0.000235
0.000261
0.000232
0.000274
0.001544
0.001501
0.001315
0.000222
0.000205
0.000214
0.000267
0.000264
0.000247
0.000250
0.000251
0.002172
0.000220
0.000220
0.000240
0.000265
0.000255
0.000263
0.000273
0.000249
0.000264
0.000262
0.000277
0.000265
0.000190
0.000056
0.001509
0.000314
0.002390
0.000250
0.000300
0.000300
0.000233
0.000263
0.000264
0.000239
0.000264
0.000239
0.000236
0.000237
0.000270
0.000258
0.000266
0.000268
0.000258
0.000269
0.000264
0.000275
0.000275
0.000274
0.000251
0.000249
0.000255
0.000261
0.000272
0.000272
0.000392
0.000056
0.000190
0.002562
0.000330
0.000201
0.000193
0.000208
0.000255
0.000256
0.000242
0.000293
0.000484
0.000290
0.000324
0.000244
0.000207
0.002226
0.000212
0.000223
0.000256
0.000502
0.000383
0.000305
0.000222
0.000221
0.000273
0.000243
0.000260
0.000289
0.000271
0.001698
0.001200
0.000056
0.000210
0.000210
0.000294
0.000416
0.000350
0.000250
0.000216
0.000222
0.000255
0.000260
0.000259
0.000248
0.000230
0.000252
0.000269
0.000247
0.000397
0.000573
0.000362
0.000244
0.000216
0.000234
0.000283
0.000265
0.000255
0.000247
0.000248
0.000283
0.000249
0.000379
0.000340
0.000057
0.001124
0.000243
0.000335
0.000455
0.000322
0.000195
0.000207
0.000222
0.002323
0.000383
0.000275
0.000367
0.000205
0.000284
0.000327
0.000274
0.000269
0.000247
0.000266
0.000244
0.000241
0.000331
0.000745
0.000325
0.001800
0.001323
0.000631
0.000442
0.000236
0.000244
0.000215
0.000056
0.000245
0.000334
0.000258
0.000219
0.000238
0.000239
0.000240
0.000237
0.000257
0.000259
0.000246
0.000254
0.000253
0.000233
0.000419
0.000506
0.001866
0.001380
0.000414
0.000404
0.000404
0.000258
0.000222
0.000261
0.002240
0.000453
0.000371
0.000242
0.000267
0.000285
0.000218
0.000057
0.000193
0.000229
0.000239
0.000241
0.000250
0.000520
0.000303
0.000332
0.000245
0.000249
0.000214
0.000291
0.000228
0.002136
0.000363
0.000372
0.000215
0.000247
0.000254
0.000257
0.000254
0.002541
0.000271
0.000226
0.000229
0.000260
0.000245
0.000266
0.000286
0.000285
0.000209
0.000056
0.000254
0.000451
0.000504
0.000297
0.000234
0.000212
0.000184
0.000255
0.000267
0.000259
0.002126
0.000319
0.000246
0.000252
0.000213
0.000228
0.000270
0.000251
0.002278
0.000375
0.000233
0.000255
0.000263
0.000262
0.000260
0.000257
0.000268
0.000265
0.000265
0.000257
0.000200
0.000056
0.000203
0.000224
0.000237
0.000225
0.000248
0.000260
0.000234
0.000249
0.000227
0.002189
0.000246
0.000285
0.000208
0.000480
0.000204
0.000225
0.000252
0.000280
0.000257
0.000264
0.002036
0.000237
0.000381
0.000367
0.000492
0.000341
0.000285
0.000251
0.000232
0.000241
0.000208
0.000056
0.000192
0.000228
0.000217
0.000256
0.000244
0.000388
0.000207
0.002332
0.000228
0.000216
0.000223
0.000251
0.000239
0.000262
0.000286
0.002216
0.000523
0.000225
0.000232
0.000252
0.000255
0.000255
0.000284
0.000269
0.000259
0.000262
0.000281
0.000255
0.000270
0.000313
0.000161
0.000065
0.000178
0.002999
0.000246
0.000208
0.000254
0.000245
0.000250
0.000341
0.000335
0.000547
0.001983
0.000278
0.000220
0.000257
0.000304
0.000562
0.000370
0.000302
0.000225
0.000202
0.000244
0.000259
0.000269
0.000232
0.000249
0.000280
0.000259
0.000273
0.000393
0.000673
0.000256
0.000056
0.000197
0.000278
0.000254
0.000219
0.000230
0.000250
0.000251
0.000245
0.001708
0.001971
0.000519
0.000264
0.000698
0.000555
0.000280
0.000209
0.000196
0.000241
0.000266
0.000262
0.000264
0.000236
0.000260
0.000270
0.001843
0.001426
0.000297
0.000276
0.000285
0.000372
0.000534
0.000056
0.001937
0.000240
0.000226
0.000210
0.000265
0.000411
0.000401
0.000336
0.000312
0.000238
0.000214
0.000215
0.000254
0.000250
0.000270
0.000258
0.000254
0.001946
0.000262
0.000194
0.000200
0.000228
0.000274
0.000282
0.000284
0.000264
0.001542
0.000332
0.000213
0.000224
0.000183
0.000056
0.000198
0.000206
0.000229
0.000242
0.000267
0.000225
0.000405
0.000269
0.000557
0.000216
0.000199
0.000213
0.000332
0.000327
0.000376
0.000332
0.000226
0.000222
0.000240
0.000406
0.000494
0.000441
0.000234
0.000216
0.000258
0.000255
0.000247
0.000268
0.000278
0.000268
0.000212
0.000058
0.001396
0.000406
0.000238
0.002008
0.000245
0.000545
0.000269
0.000364
0.000211
0.000205
0.000257
0.000246
0.000263
0.000230
0.000273
0.000273
0.000461
0.000325
0.000405
0.000362
0.000334
0.000210
0.000239
0.000265
0.000343
0.000230
0.000234
0.000266
0.000324
0.000615
0.001306
0.000058
0.000198
0.000198
0.002074
0.000314
0.000289
0.000268
0.000250
0.000257
0.000261
0.000248
0.000229
0.000242
0.000258
0.000256
0.000264
0.000432
0.000634
0.001746
0.000254
0.000244
0.000263
0.000254
0.000473
0.000430
0.001492
0.000271
0.000362
0.002008
0.000238
0.000233
0.000202
0.000056
0.000176
0.000203
0.000232
0.000258
0.000219
0.000253
0.000249
0.000273
0.000344
0.000301
0.000385
0.000368
0.000330
0.000294
0.000223
0.000249
0.000263
0.000239
0.000259
0.000274
0.000273
0.000323
0.000239
0.000268
0.000284
0.001568
0.000292
0.000413
0.001974
0.000255
0.000170
0.000056
0.000194
0.000217
0.000232
0.000256
0.000464
0.000233
0.000245
0.000373
0.000361
0.000378
0.000211
0.000204
0.000258
0.000275
0.000274
0.000327
0.000503
0.000341
0.000270
0.000368
0.000602
0.000549
0.001420
0.000268
0.000239
0.002018
0.000354
0.000217
0.000223
0.000256
0.000205
0.000057
0.000203
0.000224
0.000231
0.000227
0.000246
0.000271
0.000256
0.000263
0.000277
0.000257
0.001861
0.000287
0.000398
0.000321
0.000463
0.000388
0.001480
0.000347
0.000229
0.000297
0.002230
0.000429
0.000242
0.000229
0.000221
0.000276
0.000492
0.000230
0.000243
0.000283
0.000210
0.000057
0.000305
0.000346
0.000330
0.000265
0.000221
0.000200
0.000255
0.000254
0.000268
0.000301
0.000220
0.000246
0.000284
0.000238
0.000438
0.000454
0.001250
0.000259
0.000315
0.002043
0.000257
0.000264
0.000227
0.000239
0.000244
0.000278
0.000266
0.000268
0.000242
0.000278
0.000209
0.000056
0.000238
0.000387
0.002070
0.000218
0.000250
0.000225
0.000230
0.000316
0.000509
0.001406
0.000327
0.000369
0.000338
0.002010
0.000222
0.000231
0.000260
0.000272
0.000262
0.000237
0.000292
0.000279
0.000268
0.000480
0.000386
0.000404
0.000317
0.002159
0.000549
0.000433
0.000462
0.000057
0.000196
0.000223
0.002053
0.000238
0.000174
0.000199
0.000237
0.000265
0.000196
0.000257
0.000241
0.000263
0.000255
0.000325
0.000549
0.000271
0.001306
0.000241
0.000263
0.000267
0.000233
0.000243
0.000255
0.000271
0.000350
0.000555
0.000365
0.000241
0.001681
0.000223
0.000148
0.000057
0.000208
0.000200
0.000222
0.000238
0.000240
0.000256
0.000255
0.000253
0.000268
0.000393
0.000382
0.001437
0.000216
0.000196
0.000220
0.000254
0.000267
0.000252
0.000348
0.000462
0.000415
0.000439
0.000226
0.001543
0.000261
0.000239
0.000274
0.000273
0.000271
0.000266
0.000210
0.000056
0.000206
0.000213
0.000261
0.000259
0.000255
0.000243
0.000239
0.000227
0.000257
0.000247
0.000253
0.000261
0.000248
0.000257
0.001589
0.000232
0.000232
0.000269
0.000345
0.000323
0.000356
0.000268
0.000210
0.000248
0.000243
0.000281
0.001459
0.000300
0.000206
0.000228
0.000168
0.000056
0.000204
0.000220
0.000238
0.000262
0.000286
0.000215
0.000241
0.000268
0.000218
0.000262
0.000243
0.000260
0.000236
0.000320
0.000448
0.000233
0.000332
0.001570
0.000346
0.000208
0.000221
0.000235
0.000249
0.000319
0.000356
0.000550
0.000360
0.000248
0.000213
0.001588
0.000193
0.000057
0.000368
0.000352
0.000382
0.000238
0.000207
0.000203
0.000232
0.000270
0.000257
0.000241
0.000241
0.000239
0.001484
0.000310
0.000301
0.000226
0.000211
0.000260
0.000262
0.000265
0.000266
0.000232
0.000257
0.000273
0.000264
0.000389
0.000436
0.000415
0.000259
0.000220
0.000200
0.000056
0.000210
0.000330
0.000473
0.000271
0.000353
0.000240
0.000217
0.000252
0.000252
0.000255
0.000244
0.000225
0.000256
0.000250
0.001368
0.000242
0.000224
0.000212
0.000261
0.000263
0.000247
0.000258
0.000256
0.000257
0.000261
0.000257
0.000300
0.000902
0.000293
0.000210
0.000189
0.000056
0.000190
0.001533
0.000275
0.000326
0.000445
0.000398
0.000202
0.000244
0.000256
0.000268
0.000221
0.000265
0.000275
0.000270
0.000272
0.001520
0.000251
0.000280
0.000258
0.000259
0.000256
0.000260
0.000258
0.000276
0.000258
0.000259
0.000488
0.000439
0.000277
0.000227
0.000169
0.000056
0.000199
0.000209
0.000258
0.001703
0.000436
0.000303
0.000203
0.000206
0.000232
0.000276
0.000272
0.000281
0.000239
0.000252
0.000240
0.000261
0.000436
0.001359
0.000219
0.000228
0.001529
0.000388
0.000539
0.000356
0.000295
0.000226
0.000258
0.000475
0.000238
0.000243
0.000211
0.000056
0.000198
0.000229
0.000213
0.000236
0.000238
0.000254
0.000238
0.000261
0.000250
0.000246
0.000258
0.000245
0.000370
0.000529
0.001584
0.001510
0.000382
0.000572
0.000253
0.000241
0.000218
0.000264
0.000245
0.000256
0.000253
0.000266
0.000266
0.000273
0.001602
0.000316
0.000151
0.000056
0.000203
0.000341
0.000350
0.000331
0.000263
0.000203
0.000219
0.000338
0.000478
0.001372
0.000357
0.001540
0.000396
0.000476
0.000414
0.000263
0.000342
0.000335
0.000349
0.000274
0.000241
0.000353
0.001552
0.000534
0.000269
0.000234
0.000241
0.000237
0.000281
0.000250
0.000215
0.000057
0.000192
0.000221
0.000251
0.000260
0.000243
0.001648
0.000974
0.000883
0.000240
0.000239
0.000250
0.000262
0.000248
0.000261
0.000262
0.000249
0.000256
0.000255
0.000269
0.000309
0.001531
0.000278
0.000230
0.000216
0.000214
0.000228
0.000272
0.000264
0.000268
0.000284
0.000274
0.000057
0.000197
0.000199
0.001548
0.000954
0.000338
0.000336
0.000233
0.000194
0.000270
0.000236
0.000240
0.000258
0.000260
0.002032
0.000479
0.000207
0.000214
0.000229
0.000267
0.000259
0.000205
