0.000415
0.009097
0.012282
0.000363
0.000265
0.000281
0.000305
0.000245
0.000335
0.000282
0.000249
0.000352
0.000521
0.000533
0.000322
0.000345
0.000264
0.000369
0.000349
0.000407
0.000310
0.001923
0.000700
0.000248
0.000255
0.000308
0.000306
0.000330
0.000484
0.000364
0.000518
0.000223
0.000058
0.000198
0.000270
0.000274
0.000259
0.000274
0.000247
0.000276
0.000280
0.000255
0.000336
0.000399
0.000439
0.000298
0.000268
0.000411
0.000294
0.000364
0.000252
0.000252
0.001696
0.000324
0.000248
0.000455
0.000241
0.000283
0.000278
0.000284
0.000295
0.000276
0.000389
0.000437
0.000057
0.000252
0.000251
0.000267
0.000260
0.000251
0.000245
0.000258
0.000258
0.000287
0.001672
0.000224
0.000239
0.000262
0.000274
0.000281
0.000249
0.000263
0.000258
0.000355
0.001794
0.000241
0.000276
0.000448
0.000494
0.000327
0.000236
0.000249
0.000519
0.000559
0.000667
0.000196
0.000056
0.000224
0.000243
0.000256
0.000243
0.000295
0.000252
0.000289
0.000670
0.000299
0.000246
0.000250
0.000251
0.000240
0.000250
0.000257
0.000261
0.000248
0.000262
0.000301
0.000321
0.001667
0.000282
0.000252
0.000420
0.000675
0.000316
0.000776
0.000436
0.000323
0.000242
0.000193
0.000056
0.000234
0.000251
0.000263
0.000246
0.000251
0.000256
0.000263
0.000487
0.001450
0.000213
0.000251
0.000240
0.000258
0.000254
0.000263
0.000284
0.000287
0.000831
0.001349
0.000284
0.000460
0.000257
0.000228
0.000217
0.000256
0.000260
0.000268
0.000270
0.000263
0.000267
0.000194
0.000056
0.000207
0.000240
0.000248
0.000263
0.000237
0.000242
0.000241
0.000258
0.000242
0.000255
0.001626
0.000264
0.000231
0.000244
0.000254
0.000249
0.000264
0.000237
0.000251
0.000254
0.000268
0.001657
0.000297
0.000245
0.000446
0.000253
0.000254
0.000257
0.000266
0.000266
0.000194
0.000057
0.000218
0.000230
0.000251
0.000245
0.000242
0.000251
0.000260
0.000238
0.000261
0.000244
0.000273
0.000247
0.000274
0.000256
0.001647
0.000282
0.000281
0.000219
0.000249
0.000278
0.000260
0.000242
0.000246
0.000269
0.001776
0.000394
0.000346
0.000351
0.000251
0.000281
0.000197
0.000056
0.000231
0.000234
0.000246
0.000267
0.000261
0.000237
0.000272
0.000449
0.000367
0.000447
0.000205
0.000250
0.000252
0.000250
0.001611
0.000495
0.000344
0.000378
0.000322
0.000218
0.000269
0.000283
0.000271
0.001735
0.000548
0.000423
0.000257
0.000244
0.000246
0.000267
0.000183
0.000056
0.000199
0.000240
0.000249
0.000334
0.000342
0.000414
0.000353
0.000252
0.000215
0.000254
0.000265
0.000240
0.000249
0.001701
0.000506
0.000275
0.000235
0.000257
0.000272
0.000274
0.000251
0.000260
0.000271
0.001946
0.000431
0.000263
0.000197
0.000251
0.000272
0.000407
0.000327
0.000056
0.000216
0.000427
0.000317
0.000262
0.000247
0.000258
0.000246
0.000259
0.000241
0.000230
0.000240
0.000245
0.001556
0.000407
0.000251
0.000235
0.000262
0.000246
0.000250
0.000278
0.000278
0.000331
0.000240
0.001814
0.000257
0.000495
0.000237
0.000261
0.000264
0.000266
0.000255
0.000056
0.000477
0.000492
0.000558
0.000220
0.000229
0.000273
0.000230
0.000222
0.000257
0.000254
0.000255
0.001705
0.000244
0.000441
0.000373
0.000210
0.000247
0.000228
0.000250
0.000267
0.000253
0.001851
0.000240
0.000243
0.002077
0.000540
0.000338
0.000244
0.000258
0.000266
0.000184
0.000057
0.000209
0.000248
0.000248
0.000241
0.000258
0.001619
0.000256
0.000229
0.000255
0.000254
0.000244
0.000259
0.000233
0.000254
0.000270
0.000700
0.000336
0.000285
0.000216
0.000264
0.000268
0.000246
0.000247
0.000429
0.000441
0.000272
0.000362
0.000765
0.000207
0.000281
0.000187
0.000056
0.000192
0.000250
0.000254
0.000246
0.000233
0.000246
0.000300
0.000328
0.000435
0.001721
0.000228
0.000235
0.000243
0.000243
0.000262
0.000311
0.000377
0.000500
0.000340
0.000244
0.000284
0.000283
0.000277
0.000246
0.000283
0.000434
0.000350
0.000692
0.000361
0.000466
0.000161
0.000056
0.000203
0.000256
0.000239
0.000229
0.000230
0.000244
0.000246
0.000251
0.000241
0.000338
0.000302
0.000413
0.001400
0.000244
0.000249
0.000243
0.000260
0.000250
0.000250
0.000246
0.000292
0.000417
0.000444
0.000260
0.000287
0.000236
0.000256
0.000264
0.000268
0.000266
0.000382
0.000055
0.000220
0.000236
0.000226
0.000281
0.000525
0.000429
0.000238
0.000260
0.000230
0.000261
0.000256
0.000230
0.000297
0.000248
0.000237
0.000467
0.000437
0.001646
0.000281
0.000226
0.000258
0.000266
0.000258
0.000242
0.000291
0.000531
0.000351
0.000334
0.000438
0.000234
0.000194
0.000056
0.000198
0.000434
0.000235
0.000219
0.000262
0.000240
0.000393
0.000503
0.000289
0.000342
0.000214
0.000266
0.000270
0.000233
0.000514
0.000349
0.000225
0.000263
0.000411
0.001629
0.000262
0.000295
0.000467
0.000241
0.000282
0.000280
0.000254
0.000499
0.000400
0.000408
0.000234
0.000057
0.000212
0.000229
0.000237
0.000253
0.000411
0.000302
0.000298
0.000216
0.000389
0.000581
0.000272
0.000266
0.000239
0.000237
0.000260
0.000263
0.000251
0.000256
0.000234
0.000347
0.000292
0.000483
0.001697
0.000234
0.000265
0.000249
0.000296
0.000351
0.000413
0.000846
0.000278
0.000078
0.000218
0.000330
0.000282
0.000424
0.000390
0.000206
0.000258
0.000306
0.000529
0.000388
0.000264
0.000232
0.000240
0.000270
0.000264
0.000232
0.000257
0.000273
0.000267
0.000257
0.000276
0.000419
0.000723
0.001258
0.000352
0.000503
0.000334
0.000248
0.000433
0.000479
0.000311
0.000056
0.000264
0.000381
0.000264
0.000212
0.000223
0.000242
0.000415
0.000234
0.000275
0.000330
0.000451
0.000438
0.000220
0.000262
0.000265
0.000245
0.000382
0.000368
0.000365
0.000221
0.000247
0.000425
0.000604
0.001670
0.000228
0.000455
0.000292
0.000230
0.000318
0.000416
0.000299
0.000056
0.000229
0.000232
0.000243
0.000246
0.000249
0.000249
0.000249
0.000326
0.000456
0.000314
0.000405
0.000374
0.000283
0.000576
0.000242
0.000253
0.000270
0.000261
0.000232
0.000361
0.000214
0.000249
0.000267
0.000488
0.000396
0.001678
0.000266
0.000236
0.000260
0.000261
0.000186
0.000056
0.000337
0.000468
0.000290
0.000207
0.000245
0.000250
0.000256
0.000240
0.000260
0.000245
0.000229
0.000242
0.000420
0.000537
0.000371
0.000292
0.000252
0.000250
0.000349
0.000389
0.000385
0.000325
0.000426
0.000356
0.000211
0.000261
0.000262
0.000274
0.001789
0.000244
0.000212
0.000056
0.000204
0.000211
0.000264
0.000271
0.000371
0.000539
0.000303
0.000211
0.000280
0.000239
0.000252
0.000251
0.000519
0.000449
0.000478
0.000293
0.000251
0.000271
0.000424
0.000461
0.000412
0.000371
0.000406
0.000497
0.000240
0.000245
0.000274
0.000248
0.000265
0.001711
0.000399
0.000057
0.000269
0.000340
0.000197
0.000230
0.000258
0.000248
0.000250
0.000503
0.000371
0.000298
0.000296
0.000298
0.000422
0.000585
0.000300
0.000234
0.000256
0.000252
0.000250
0.000266
0.000271
0.000263
0.000248
0.000258
0.000332
0.000334
0.000427
0.000341
0.000242
0.000255
0.000188
0.000057
0.000453
0.000275
0.000478
0.000255
0.000203
0.000250
0.000246
0.000257
0.000235
0.000227
0.000268
0.000258
0.000294
0.000460
0.000387
0.000557
0.000275
0.000316
0.000392
0.000336
0.000312
0.000215
0.000250
0.000257
0.001749
0.000250
0.001719
0.000959
0.000490
0.000214
0.000166
0.000057
0.000206
0.000233
0.000234
0.000250
0.000258
0.000246
0.000251
0.000249
0.000266
0.000305
0.000353
0.000430
0.000344
0.000372
0.000261
0.000244
0.000253
0.000293
0.000228
0.000245
0.000257
0.000261
0.001797
0.000251
0.000258
0.000261
0.000279
0.000265
0.001876
0.000474
0.000353
0.000057
0.000226
0.000217
0.000245
0.000231
0.000254
0.000248
0.000241
0.000255
0.000259
0.000417
0.000437
0.000573
0.000238
0.000204
0.000233
0.000259
0.000334
0.000444
0.000367
0.000249
0.001763
0.000261
0.000249
0.000244
0.000261
0.000273
0.000240
0.000255
0.000323
0.000362
0.000323
0.000056
0.000245
0.000218
0.000241
0.000258
0.000244
0.000245
0.000256
0.000257
0.000237
0.000262
0.000244
0.000295
0.000405
0.000305
0.000377
0.000272
0.000464
0.000250
0.000239
0.000254
0.000261
0.000259
0.000273
0.000261
0.000277
0.001784
0.000253
0.000245
0.000262
0.000236
0.000203
0.000056
0.000324
0.000251
0.000204
0.000224
0.000260
0.000218
0.000236
0.000257
0.000244
0.000225
0.000236
0.000265
0.000258
0.000350
0.000406
0.000390
0.000283
0.000246
0.000226
0.000254
0.000269
0.000255
0.000252
0.000267
0.000244
0.000271
0.000311
0.001627
0.000265
0.000237
0.000185
0.000056
0.000206
0.000239
0.000251
0.000263
0.000334
0.000492
0.000255
0.000326
0.000231
0.000257
0.000247
0.000244
0.000251
0.000253
0.000264
0.000258
0.000240
0.000261
0.000254
0.000275
0.000252
0.000271
0.000249
0.000238
0.000240
0.000278
0.000273
0.000265
0.000256
0.000265
0.000191
0.000057
0.000185
0.000235
0.000262
0.000276
0.000215
0.000252
0.000240
0.000265
0.000300
0.000216
0.000230
0.000252
0.000254
0.000247
0.000270
0.000261
0.000254
0.000251
0.000298
0.000251
0.000271
0.000300
0.000266
0.000252
0.000275
0.000280
0.000270
0.000246
0.000302
0.000477
0.000605
0.000056
0.000205
0.000284
0.000211
0.000245
0.000234
0.000253
0.000239
0.000247
0.000256
0.000242
0.000265
0.000309
0.000576
0.000416
0.001497
0.000228
0.000489
0.000237
0.000259
0.000461
0.000425
0.000392
0.000222
0.000274
0.000248
0.000271
0.000280
0.000245
0.000324
0.000243
0.000184
0.000056
0.000264
0.000495
0.000399
0.000278
0.000203
0.000260
0.000243
0.000242
0.000242
0.000242
0.000255
0.000254
0.000233
0.000269
0.000538
0.000325
0.000381
0.001795
0.000238
0.000255
0.000370
0.000424
0.000462
0.000256
0.000302
0.000321
0.000300
0.000238
0.000223
0.000257
0.000186
0.000055
0.000190
0.000229
0.000239
0.000279
0.000428
0.000492
0.000231
0.000258
0.000253
0.000213
0.000247
0.000269
0.000269
0.000262
0.000245
0.000262
0.000313
0.000468
0.000353
0.000435
0.000245
0.001733
0.000343
0.000478
0.000483
0.000493
0.000314
0.000237
0.000251
0.000276
0.000438
0.000056
0.000212
0.000248
0.000233
0.000417
0.000376
0.000375
0.000392
0.000210
0.000245
0.000286
0.000237
0.000265
0.000254
0.000293
0.000308
0.000232
0.000236
0.000408
0.000536
0.000258
0.000487
0.001851
0.000242
0.000602
0.000434
0.000268
0.000229
0.000259
0.000312
0.000246
0.000195
0.000056
0.000219
0.000343
0.000354
0.000326
0.000382
0.000290
0.000367
0.000216
0.000250
0.000278
0.000255
0.000227
0.000249
0.000257
0.000240
0.000261
0.000339
0.000358
0.000507
0.000382
0.000282
0.000242
0.000247
0.001716
0.000450
0.000510
0.000650
0.000263
0.000248
0.000323
0.000139
0.000055
0.000198
0.000233
0.000325
0.000253
0.000252
0.000427
0.000409
0.000278
0.000231
0.000549
0.000218
0.000245
0.000262
0.000279
0.000269
0.000268
0.000209
0.000412
0.000378
0.000465
0.000268
0.000230
0.000256
0.000259
0.000258
0.000270
0.000237
0.000251
0.000269
0.000286
0.000229
0.000055
0.000330
0.000337
0.000214
0.000245
0.000252
0.000260
0.000240
0.000312
0.000219
0.000250
0.000254
0.000375
0.000411
0.000406
0.000326
0.000275
0.000224
0.000240
0.000254
0.000266
0.000291
0.000261
0.000237
0.000256
0.000279
0.000299
0.000519
0.000296
0.000342
0.000230
0.000181
0.000056
0.000207
0.000225
0.000284
0.000261
0.000220
0.000254
0.000251
0.000257
0.000491
0.000213
0.000261
0.000248
0.000251
0.000264
0.000275
0.000270
0.000263
0.000347
0.000222
0.000239
0.000262
0.000264
0.000257
0.000270
0.000273
0.000281
0.000246
0.000250
0.000518
0.000245
0.000157
0.000055
0.000211
0.000237
0.000250
0.000261
0.000220
0.000248
0.000392
0.000395
0.000228
0.000233
0.000251
0.000258
0.000236
0.000293
0.000388
0.001806
0.000232
0.000271
0.000281
0.000398
0.000364
0.000349
0.000371
0.000459
0.000300
0.000424
0.000288
0.000219
0.000262
0.000279
0.001396
0.000056
0.000404
0.000256
0.000287
0.000219
0.000227
0.000255
0.000229
0.000255
0.000244
0.000267
0.000246
0.000259
0.000249
0.000299
0.000582
0.001580
0.000256
0.000224
0.000243
0.000265
0.000237
0.000379
0.000336
0.000333
0.000263
0.000348
0.000222
0.000270
0.000276
0.000261
0.000195
0.000056
0.001311
0.000442
0.000326
0.000270
0.000234
0.000227
0.000233
0.000237
0.000487
0.000223
0.000241
0.000251
0.000336
0.000566
0.000368
0.000336
0.000247
0.000228
0.000352
0.000346
0.000268
0.000258
0.000267
0.000242
0.000272
0.000685
0.000514
0.000200
0.000248
0.000267
0.000168
0.000056
0.000196
0.000228
0.000238
0.000254
0.001425
0.000331
0.000228
0.000256
0.000235
0.000253
0.000254
0.000251
0.000242
0.000265
0.000273
0.000354
0.000426
0.000642
0.000219
0.001734
0.000273
0.000268
0.000344
0.000359
0.000570
0.000407
0.000250
0.000259
0.000254
0.000265
0.000200
0.000056
0.000209
0.000241
0.000241
0.000355
0.001219
0.000227
0.000262
0.000262
0.000237
0.000235
0.000237
0.000252
0.000275
0.000251
0.000255
0.000300
0.000462
0.000417
0.000310
0.000267
0.000267
0.000269
0.000249
0.000235
0.000289
0.000263
0.000243
0.000273
0.000277
0.000344
0.000548
0.000058
0.000221
0.000265
0.000221
0.000257
0.000264
0.000242
0.000234
0.000262
0.000268
0.000258
0.001428
0.000225
0.000242
0.000252
0.000249
0.000242
0.000270
0.000257
0.000265
0.000263
0.000273
0.000490
0.000456
0.000392
0.000228
0.000271
0.001758
0.000253
0.000265
0.000314
0.000498
0.000057
0.000224
0.000427
0.000405
0.000504
0.000512
0.000538
0.001504
0.000413
0.000528
0.000648
0.000553
0.000830
0.000386
0.000606
0.000581
0.001874
0.000405
0.000447
0.000392
0.000317
0.000233
0.000312
0.000248
0.000262
0.000261
0.000285
0.000283
0.000294
0.000259
0.000284
0.001378
0.000056
0.000213
0.000220
0.000247
0.000240
0.000257
0.000257
0.000236
0.000239
0.000253
0.000251
0.000242
0.000235
0.000257
0.000262
0.000266
0.000270
0.001798
0.000300
0.000222
0.000247
0.000255
0.000265
0.000267
0.000274
0.000502
0.000327
0.000359
0.000232
0.000260
0.000273
0.000212
0.000057
0.000200
0.001353
0.000339
0.000259
0.000256
0.000243
0.000240
0.000232
0.000235
0.000246
0.000215
0.000248
0.000246
0.000501
0.000364
0.000280
0.000264
0.000276
0.001934
0.000208
0.000244
0.000266
0.000259
0.000265
0.000272
0.000282
0.000272
0.000246
0.000272
0.000318
0.000199
0.000055
0.000209
0.000237
0.000250
0.001442
0.000213
0.000275
0.000229
0.000251
0.000231
0.000268
0.000251
0.000249
0.000247
0.000256
0.000252
0.000265
0.000259
0.000268
0.000266
0.000270
0.000249
0.001765
0.000290
0.001741
0.000269
0.000249
0.000262
0.000273
0.000288
0.000257
0.000194
0.000056
0.000223
0.000223
0.001348
0.000213
0.000290
0.000217
0.000262
0.000255
0.000244
0.000252
0.000246
0.000251
0.000266
0.000251
0.000266
0.000263
0.000254
0.000285
0.000295
0.000228
0.001885
0.000237
0.001823
0.000246
0.000257
0.000281
0.000227
0.000250
0.000254
0.000269
0.000194
0.000056
0.001416
0.000229
0.000255
0.000226
0.000231
0.000237
0.000370
0.000266
0.000255
0.000250
0.000255
0.000262
0.000303
0.000322
0.000371
0.000290
0.000247
0.000268
0.000255
0.000252
0.000270
0.000344
0.000226
0.000258
0.000263
0.000281
0.000276
0.000400
0.000580
0.000379
0.000174
0.000057
0.000220
0.000251
0.000252
0.000307
0.000371
0.000258
0.001702
0.000295
0.000279
0.000268
0.000250
0.000275
0.000288
0.000259
0.000276
0.000307
0.000332
0.000608
0.000349
0.000272
0.000297
0.000279
0.000257
0.000262
0.000337
0.000294
0.000226
0.000249
0.000262
0.000315
0.000432
0.000056
0.000227
0.000472
0.000270
0.000262
0.000247
0.000228
0.000229
0.000249
0.000257
0.000293
0.001484
0.000243
0.000206
0.000250
0.000242
0.000288
0.000259
0.000245
0.000270
0.000271
0.000278
0.000336
0.000565
0.000304
0.000274
0.000286
0.000267
0.000256
0.000245
0.000308
0.000160
0.000056
0.000206
0.000221
0.000266
0.000480
0.000401
0.000250
0.000219
0.000247
0.000254
0.000250
0.000231
0.000251
0.000257
0.000269
0.000242
0.000242
0.000440
0.001215
0.000210
0.000246
0.000260
0.000245
0.000354
0.000426
0.000248
0.000306
0.000592
0.000356
0.000383
0.000228
0.000181
0.000056
0.000210
0.000247
0.000263
0.000261
0.000256
0.000265
0.000328
0.000445
0.000358
0.000314
0.000370
0.000392
0.000398
0.000347
0.000255
0.000243
0.000235
0.000279
0.000372
0.001522
0.000246
0.000200
0.000266
0.000277
0.000237
0.000233
0.000272
0.000349
0.000444
0.000368
0.000261
0.000057
0.000183
0.000235
0.000256
0.000233
0.000253
0.000248
0.000233
0.000261
0.000337
0.000366
0.000436
0.000341
0.000228
0.000231
0.000255
0.000260
0.000242
0.000260
0.000270
0.000244
0.000440
0.000282
0.000383
0.000413
0.000289
0.000253
0.000272
0.000275
0.000249
0.000342
0.000153
0.000057
0.000282
0.000324
0.000461
0.000280
0.000387
0.000342
0.000256
0.000250
0.000243
0.000274
0.000257
0.000257
0.000240
0.000254
0.000245
0.000223
0.000270
0.000436
0.000368
0.000408
0.000212
0.000279
0.000244
0.000245
0.000266
0.000278
0.000268
0.000266
0.000278
0.000260
0.000345
0.000056
0.000281
0.000353
0.000232
0.000246
0.000242
0.000251
0.000248
0.000257
0.000260
0.000258
0.000246
0.000238
0.000358
0.000560
0.000313
0.000279
0.000242
0.000240
0.000260
0.000265
0.000257
0.000266
0.000257
0.000268
0.000295
0.000401
0.000298
0.000600
0.000408
0.000243
0.000180
0.000056
0.000372
0.000196
0.000242
0.000258
0.000238
0.000246
0.000242
0.000248
0.000257
0.000256
0.000222
0.000249
0.000266
0.000230
0.000241
0.000268
0.000249
0.000261
0.000274
0.000272
0.000255
0.000262
0.000258
0.000265
0.000270
0.000234
0.000270
0.000287
0.000247
0.000279
0.000193
0.000056
0.000191
0.000237
0.000244
0.000253
0.000230
0.000256
0.000260
0.000242
0.000260
0.000274
0.000224
0.000231
0.000266
0.000400
0.000253
0.000276
0.000258
0.000270
0.000254
0.000281
0.000274
0.000232
0.000249
0.000250
0.000275
0.000273
0.000247
0.000255
0.000274
0.000259
0.000204
0.000055
0.000235
0.000334
0.000364
0.000282
0.000294
0.000256
0.000272
0.000255
0.000222
0.000248
0.000247
0.000264
0.000250
0.000238
0.000261
0.000255
0.000275
0.000259
0.000246
0.000262
0.000272
0.000267
0.000281
0.000255
0.000271
0.000251
0.000255
0.000276
0.000262
0.000262
0.000197
0.000073
0.000184
0.000235
0.000263
0.000259
0.000491
0.000209
0.000213
0.000247
0.000327
0.000377
0.000521
0.000275
0.000227
0.000249
0.000267
0.000272
0.000238
0.000273
0.000257
0.000268
0.000285
0.000242
0.000257
0.000250
0.000527
0.000542
0.000268
0.000295
0.000262
0.000261
0.000182
0.000055
0.000216
0.000228
0.000246
0.000251
0.000326
0.000629
0.000353
0.000376
0.000194
0.000247
0.000250
0.000254
0.000250
0.000253
0.000257
0.000267
0.000258
0.000252
0.000654
0.000363
0.000296
0.000253
0.000260
0.000279
0.000283
0.000256
0.000262
0.000267
0.000266
0.000324
0.000309
0.000056
0.000273
0.000231
0.000240
0.000240
0.000248
0.000257
0.000231
0.000252
0.000241
0.000254
0.000248
0.000251
0.000246
0.000526
0.000646
0.000182
0.000253
0.000244
0.000265
0.000240
0.000268
0.000276
0.000480
0.000228
0.000261
0.000738
0.000289
0.000474
0.000251
0.000255
0.000179
0.000056
0.000192
0.000225
0.000245
0.000245
0.000257
0.000254
0.000389
0.000345
0.000664
0.000364
0.000204
0.000263
0.000271
0.000277
0.000258
0.000250
0.000234
0.000250
0.000272
0.000366
0.000378
0.000620
0.000384
0.000249
0.000358
0.000368
0.000485
0.000243
0.000270
0.000527
0.000292
0.000056
0.000277
0.000226
0.000438
0.000220
0.000232
0.000250
0.000264
0.000261
0.000228
0.000241
0.000257
0.000421
0.000350
0.000348
0.000239
0.000239
0.000269
0.000244
0.000261
0.000281
0.000277
0.000253
0.000249
0.000274
0.000296
0.000492
0.000483
0.000247
0.000255
0.000268
0.000197
0.000055
0.000220
0.000256
0.000229
0.000246
0.000246
0.000275
0.000345
0.000528
0.000310
0.000311
0.000343
0.000236
0.000228
0.000270
0.000253
0.000236
0.000258
0.000256
0.000275
0.000391
0.000494
0.000340
0.000477
0.000281
0.000433
0.000385
0.000378
0.000233
0.000252
0.000410
0.000210
0.000056
0.000242
0.000268
0.000223
0.000272
0.000241
0.000254
0.000249
0.000247
0.000262
0.000255
0.000239
0.000463
0.000429
0.000280
0.000383
0.000219
0.000262
0.000270
0.000264
0.000235
0.000252
0.000252
0.000271
0.000270
0.000280
0.000345
0.000503
0.000449
0.000228
0.000284
0.000189
0.000056
0.000215
0.000233
0.000265
0.000238
0.000261
0.000337
0.000696
0.000281
0.000357
0.000686
0.000265
0.000209
0.000245
0.000267
0.000247
0.000265
0.000279
0.000287
0.000495
0.000362
0.001534
0.000311
0.000254
0.000263
0.000296
0.000252
0.000421
0.000387
0.000363
0.000332
0.000163
0.000056
0.000219
0.000234
0.000243
0.000246
0.000238
0.000259
0.000273
0.000248
0.000249
0.000342
0.000326
0.000384
0.000268
0.000357
0.000368
0.000340
0.000252
0.000239
0.000272
0.000256
0.000245
0.000251
0.000284
0.000241
0.000324
0.000452
0.000416
0.000304
0.000240
0.000268
0.000187
0.000056
0.000229
0.000251
0.000255
0.000255
0.000240
0.000236
0.000467
0.000218
0.000237
0.000250
0.000246
0.000251
0.000260
0.000262
0.000238
0.000271
0.000260
0.000265
0.000274
0.000256
0.000264
0.000282
0.000292
0.000254
0.000260
0.000283
0.000263
0.000268
0.000267
0.000267
0.000166
0.000056
0.000235
0.000240
0.000286
0.000512
0.000300
0.000256
0.000234
0.000249
0.000254
0.000256
0.000241
0.000259
0.000262
0.000266
0.000235
0.000248
0.000246
0.000268
0.000305
0.000367
0.000516
0.000267
0.000235
0.000273
0.000257
0.000254
0.000266
0.000252
0.000274
0.000277
0.000195
0.000055
0.000388
0.000443
0.000383
0.000204
0.000249
0.000256
0.000413
0.000216
0.000231
0.000258
0.000256
0.000337
0.000309
0.000433
0.001869
0.000261
0.000240
0.000245
0.000282
0.000234
0.000372
0.000536
0.000575
0.000216
0.000228
0.000263
0.000273
0.000429
0.000279
0.000276
0.000167
0.000055
0.000283
0.000334
0.000325
0.000321
0.000492
0.000201
0.000252
0.000256
0.000241
0.000237
0.000259
0.000246
0.000263
0.000392
0.000398
0.000425
0.000208
0.000247
0.000255
0.000267
0.000262
0.000320
0.000226
0.000285
0.000278
0.000495
0.000529
0.000353
0.000441
0.000231
0.000204
0.000055
0.000206
0.000229
0.000257
0.000247
0.000233
0.000249
0.000268
0.000274
0.000353
0.000441
0.000361
0.000350
0.000217
0.000256
0.000262
0.000279
0.000310
0.000235
0.000273
0.000274
0.000237
0.000344
0.000435
0.000397
0.000258
0.000249
0.000270
0.000436
0.000410
0.000333
0.000154
0.000055
0.000187
0.000289
0.000301
0.000387
0.000400
0.000208
0.000238
0.000255
0.000255
0.000258
0.000261
0.000254
0.000247
0.000242
0.000255
0.000350
0.000443
0.000267
0.000278
0.000342
0.000500
0.000227
0.000281
0.000273
0.000303
0.000287
0.000255
0.000279
0.000480
0.000503
0.000182
0.000056
0.000190
0.000227
0.000252
0.000250
0.000241
0.000478
0.000223
0.000242
0.000275
0.000335
0.000497
0.000570
0.000212
0.000237
0.000244
0.000252
0.000258
0.000241
0.000266
0.000245
0.000262
0.000269
0.000319
0.000521
0.000294
0.000427
0.000288
0.000336
0.000279
0.000249
0.000177
0.000055
0.000186
0.000243
0.000263
0.000488
0.000309
0.000296
0.000266
0.000215
0.000243
0.000263
0.000256
0.000247
0.000253
0.000259
0.000258
0.000253
0.000251
0.000246
0.000257
0.000437
0.000392
0.000470
0.000230
0.000247
0.000277
0.000271
0.000264
0.000259
0.000259
0.000274
0.000186
0.000056
0.000308
0.000339
0.000479
0.000222
0.000199
0.000264
0.000331
0.000451
0.000278
0.000217
0.000240
0.000275
0.000279
0.000425
0.000423
0.000318
0.000210
0.000239
0.000254
0.000288
0.000253
0.000258
0.000268
0.000268
0.000275
0.000300
0.000400
0.000485
0.000225
0.000245
0.000175
0.000057
0.000211
0.000236
0.000247
0.000254
0.000249
0.000266
0.000228
0.000262
0.000248
0.000246
0.000271
0.000236
0.000264
0.001451
0.000231
0.000262
0.000256
0.000245
0.000274
0.000278
0.000260
0.000242
0.000277
0.000250
0.000270
0.000284
0.000255
0.000265
0.000261
0.000280
0.000181
0.000056
0.000218
0.000244
0.000239
0.000249
0.000236
0.000261
0.000243
0.000260
0.000227
0.000253
0.000245
0.000264
0.000258
0.000251
0.000253
0.000259
0.000246
0.000276
0.000259
0.000254
0.000259
0.000258
0.000258
0.000241
0.001293
0.000273
0.000652
0.000342
0.000349
0.000244
0.000192
0.000055
0.000205
0.000234
0.000246
0.000250
0.000411
0.000233
0.000246
0.000244
0.000253
0.000362
0.000462
0.000328
0.000237
0.000225
0.000269
0.000261
0.000254
0.000267
0.000242
0.000259
0.000261
0.000251
0.000271
0.000388
0.000583
0.000405
0.000223
0.000264
0.001373
0.000242
0.000181
0.000056
0.000374
0.000386
0.000328
0.000246
0.000234
0.000244
0.000224
0.000245
0.000260
0.000253
0.000252
0.000257
0.000270
0.000333
0.000571
0.000301
0.000342
0.000224
0.000252
0.000264
0.000264
0.000259
0.000268
0.000266
0.000273
0.000265
0.000378
0.000554
0.000301
0.000399
0.000141
0.000055
0.000205
0.000237
0.001264
0.000418
0.000416
0.000343
0.000392
0.000476
0.000282
0.000336
0.000227
0.000222
0.000262
0.000250
0.000248
0.000273
0.000357
0.000445
0.000462
0.000323
0.000257
0.000243
0.000258
0.000506
0.000242
0.000265
0.000253
0.000281
0.000394
0.000456
0.000314
0.000056
0.000394
0.000333
0.000195
0.000227
0.001581
0.000460
0.000284
0.000252
0.000244
0.000249
0.000228
0.000241
0.000245
0.000272
0.000251
0.000257
0.000239
0.000294
0.000341
0.000425
0.000465
0.000241
0.000250
0.000255
0.000256
0.000278
0.000269
0.000238
0.000267
0.000273
0.000200
0.000056
0.000401
0.000333
0.000227
0.000239
0.000243
0.000244
0.000251
0.000246
0.000226
0.000233
0.001381
0.000580
0.000200
0.000227
0.000242
0.000254
0.000274
0.000262
0.000233
0.000281
0.000271
0.000247
0.000304
0.000459
0.000316
0.000470
0.000234
0.000284
0.000261
0.000286
0.000172
0.000056
0.000218
0.000417
0.000217
0.000251
0.000326
0.000445
0.000367
0.000327
0.000465
0.000199
0.000240
0.000251
0.000257
0.000265
0.000261
0.001505
0.000263
0.000294
0.000235
0.000279
0.000274
0.000254
0.000251
0.000258
0.000260
0.000270
0.000478
0.000420
0.000285
0.000280
0.000157
0.000056
0.000195
0.000241
0.000247
0.000238
0.000230
0.000263
0.000239
0.000246
0.000325
0.000319
0.000444
0.000282
0.000256
0.000249
0.000246
0.000289
0.000257
0.000258
0.000273
0.000228
0.000257
0.000375
0.001196
0.000256
0.000260
0.000250
0.000247
0.000267
0.000261
0.000262
0.000178
0.000056
0.000229
0.000350
0.000342
0.000369
0.000243
0.000242
0.000256
0.000266
0.000252
0.000249
0.000256
0.000271
0.000238
0.000258
0.000253
0.000262
0.000263
0.000277
0.000260
0.000249
0.000254
0.000268
0.000273
0.000285
0.000285
0.000268
0.000266
0.000247
0.000272
0.000437
0.001365
0.000056
0.000202
0.000233
0.000234
0.000265
0.000233
0.000258
0.000249
0.000228
0.000247
0.000251
0.000271
0.000256
0.000250
0.000242
0.000252
0.000246
0.001735
0.000244
0.000249
0.000260
0.000248
0.000255
0.000274
0.000260
0.000275
0.000251
0.000268
0.000290
0.000259
0.000257
0.000233
0.000056
0.000285
0.000345
0.001266
0.000219
0.000233
0.000246
0.000256
0.000272
0.000238
0.000258
0.000230
0.000339
0.000443
0.000423
0.000271
0.000216
0.000255
0.000249
0.000256
0.000269
0.000244
0.000286
0.000245
0.000282
0.000275
0.000440
0.000307
0.000384
0.000306
0.000237
0.000189
0.000056
0.000210
0.000245
0.000246
0.000270
0.000226
0.000223
0.000245
0.000295
0.000392
0.001329
0.000264
0.000211
0.000249
0.000268
0.000273
0.000254
0.000262
0.000251
0.000313
0.000398
0.000389
0.000272
0.000240
0.000242
0.000280
0.000275
0.000278
0.000289
0.000286
0.000259
0.000188
0.000055
0.000229
0.000441
0.000384
0.000224
0.000229
0.000241
0.000245
0.000274
0.000268
0.000246
0.000229
0.000270
0.000432
0.000549
0.000421
0.001465
0.000247
0.000267
0.000338
0.000344
0.000478
0.000489
0.000423
0.000371
0.000229
0.000263
0.000289
0.000256
0.000259
0.000276
0.000186
0.000055
0.000225
0.000354
0.000479
0.000477
0.000227
0.000261
0.000221
0.000233
0.000247
0.000259
0.000252
0.000263
0.000261
0.000264
0.000253
0.000297
0.000436
0.000377
0.000341
0.001320
0.000271
0.000248
0.000259
0.000271
0.000475
0.000424
0.000375
0.000247
0.000279
0.000269
0.000191
0.000057
0.000208
0.000240
0.000241
0.000248
0.000247
0.000279
0.000450
0.000403
0.000349
0.000217
0.000246
0.000263
0.000270
0.000261
0.000260
0.000262
0.000265
0.000266
0.000257
0.000265
0.000494
0.000419
0.000308
0.001355
0.000407
0.000239
0.000280
0.000435
0.000522
0.000248
0.000319
0.000056
0.000203
0.000249
0.000234
0.000250
0.000251
0.000250
0.001714
0.000202
0.000228
0.000235
0.000260
0.000245
0.000258
0.000329
0.000326
0.000285
0.000268
0.000278
0.000625
0.000303
0.000320
0.000275
0.000227
0.001427
0.000334
0.000368
0.000385
0.000470
0.000326
0.000291
0.000156
0.000056
0.000202
0.000245
0.000254
0.000258
0.000244
0.000254
0.001711
0.000226
0.000254
0.000263
0.000335
0.000413
0.001444
0.000342
0.000400
0.000236
0.000263
0.000236
0.000267
0.000272
0.001586
0.000531
0.000393
0.000278
0.000248
0.000244
0.000263
0.000285
0.000238
0.000247
0.000197
0.000056
0.000193
0.000240
0.000269
0.000246
0.000264
0.000269
0.000283
0.000254
0.000254
0.000253
0.000254
0.000246
0.000262
0.000290
0.000234
0.001493
0.000296
0.000219
0.000261
0.000278
0.000274
0.000276
0.000416
0.001251
0.000282
0.000238
0.000271
0.000275
0.000369
0.000252
0.000201
0.000055
0.000218
0.000254
0.000222
0.000241
0.000241
0.000227
0.000238
0.001695
0.000255
0.000229
0.000247
0.000371
0.000221
0.000230
0.000251
0.001385
0.000240
0.000262
0.000265
0.000245
0.000265
0.000349
0.000278
0.001300
0.000273
0.000268
0.000250
0.000292
0.001357
0.000279
0.000199
0.000056
0.000219
0.000366
0.000206
0.000240
0.000251
0.000233
0.000273
0.000264
0.000268
0.000250
0.000260
0.000264
0.000252
0.000243
0.000313
0.001496
0.000270
0.000250
0.000257
0.000245
0.000288
0.000251
0.000255
0.001522
0.000333
0.000241
0.000260
0.001279
0.000265
0.000248
0.000209
0.000056
0.000209
0.000445
0.000293
0.000209
0.000238
0.000237
0.000261
0.000256
0.000268
0.000272
0.000236
0.000250
0.000260
0.000334
0.000356
0.001225
0.000229
0.000250
0.000266
0.000278
0.000230
0.000244
0.000249
0.000329
0.001270
0.000285
0.000227
0.000250
0.000274
0.001322
0.000307
0.000056
0.000264
0.000224
0.000232
0.000224
0.000245
0.000253
0.000244
0.000246
0.000275
0.000250
0.000256
0.000235
0.000268
0.000291
0.000432
0.001485
0.000203
0.000259
0.000300
0.000527
0.000265
0.000413
0.001327
0.000312
0.000252
0.000244
0.000268
0.001295
0.000369
0.000452
0.000365
0.000055
0.000227
0.000254
0.000255
0.000254
0.000253
0.000248
0.000276
0.000246
0.000265
0.000258
0.000337
0.000497
0.001288
0.000237
0.000265
0.000256
0.000282
0.000231
0.000242
0.000239
0.000357
0.001222
0.000252
0.000252
0.000255
0.000249
0.001516
0.000666
0.000241
0.000218
0.000185
0.000056
0.000211
0.000224
0.000252
0.000234
0.000234
0.000271
0.000240
0.000286
0.000423
0.000471
0.000268
0.001489
0.000203
0.000248
0.000273
0.000250
0.000265
0.000347
0.001623
0.000268
0.000399
0.000322
0.001405
0.000233
0.000309
0.000315
0.000263
0.000266
0.000260
0.000268
0.000193
0.000055
0.000200
0.000245
0.000324
0.000244
0.000316
0.000566
0.000259
0.000292
0.001466
0.000238
0.000384
0.000265
0.000231
0.000311
0.000420
0.001272
0.000271
0.000240
0.000247
0.000257
0.001514
0.000388
0.000289
0.000270
0.000259
0.000246
0.000460
0.000341
0.000221
0.000261
0.000254
0.000056
0.000317
0.000296
0.000394
0.000201
0.000222
0.001525
0.000211
0.000254
0.000266
0.000269
0.000272
0.000238
0.000279
0.001503
0.000267
0.000224
0.000432
0.001192
0.000341
0.000467
0.000380
0.000226
0.000247
0.000255
0.000273
0.000240
0.000454
0.000224
0.000272
0.000280
0.000199
0.000056
0.000200
0.000275
0.000341
0.000346
0.001315
0.000300
0.000290
0.000232
0.000240
0.000249
0.000253
0.000396
0.001416
0.000254
0.000240
0.000236
0.001387
0.000309
0.000431
0.000449
0.000339
0.000224
0.000254
0.000252
0.000260
0.000296
0.000263
0.000252
0.000272
0.000246
0.000186
0.000055
0.000195
0.000394
0.001464
0.000208
0.000273
0.000277
0.000243
0.000249
0.000275
0.000384
0.001376
0.000216
0.000261
0.000254
0.000275
0.001255
0.000661
0.000344
0.000326
0.000405
0.000289
0.000242
0.000273
0.000256
0.000268
0.000287
0.000272
0.000307
0.000509
0.000348
0.001382
0.000057
0.000214
0.000247
0.000243
0.000226
0.000308
0.000480
0.000349
0.001298
0.000248
0.000244
0.000259
0.001435
0.000456
0.000292
0.000222
0.000418
0.000241
0.000235
0.000267
0.000278
0.000245
0.000274
0.000279
0.000255
0.000256
0.000324
0.000435
0.000449
0.001494
0.000246
0.000161
0.000056
0.000198
0.000313
0.000316
0.000532
0.001217
0.000283
0.000254
0.000259
0.000247
0.000247
0.000252
0.000265
0.000358
0.000485
0.000350
0.000231
0.000258
0.000278
0.000244
0.000275
0.000264
0.000263
0.000253
0.000271
0.000253
0.000424
0.000468
0.000334
0.000319
0.001403
0.000171
0.000056
0.000186
0.000242
0.000282
0.000478
0.000308
0.000314
0.000315
0.000333
0.000269
0.000258
0.000256
0.000270
0.000248
0.000309
0.000235
0.000259
0.000558
0.000351
0.000291
0.000383
0.000272
0.000403
0.000230
0.000268
0.000248
0.000259
0.000253
0.000299
0.000472
0.000384
0.000275
0.000056
0.000218
0.001401
0.000240
0.000335
0.000402
0.000429
0.000465
0.000219
0.000216
0.000246
0.000262
0.000246
0.000264
0.000269
0.000262
0.000256
0.000261
0.001237
0.000375
0.000260
0.000256
0.000273
0.000271
0.000280
0.000272
0.000247
0.000279
0.000244
0.000469
0.000244
0.000459
0.000056
0.000221
0.000261
0.000217
0.001489
0.000334
0.000231
0.000225
0.000257
0.000231
0.000238
0.000256
0.000274
0.000248
0.000252
0.000265
0.000256
0.000251
0.000267
0.000270
0.000244
0.001439
0.000229
0.000245
0.000265
0.000271
0.000244
0.000265
0.000260
0.000281
0.000484
0.000349
0.000056
0.000185
0.000235
0.000396
0.000278
0.000252
0.000256
0.001528
0.000461
0.000183
0.000221
0.000257
0.000312
0.000336
0.000230
0.000229
0.000248
0.000245
0.000286
0.000239
0.000254
0.000650
0.000346
0.001114
0.000270
0.000239
0.000264
0.000270
0.000253
0.000276
0.000259
0.000402
0.000058
0.000250
0.000340
0.000203
0.000245
0.000248
0.000241
0.000246
0.000229
0.000290
0.001587
0.000441
0.000233
0.000240
0.000250
0.000265
0.000237
0.000259
0.000276
0.000260
0.000310
0.000312
0.000497
0.000509
0.001289
0.000233
0.000268
0.000273
0.000264
0.000271
0.000270
0.000588
0.000073
0.000170
0.000235
0.000240
0.000244
0.000221
0.000241
0.000261
0.000255
0.000264
0.001596
0.000330
0.000258
0.000260
0.000265
0.000464
0.000267
0.000523
0.000375
0.000303
0.000328
0.000463
0.000464
0.001239
0.000263
0.000232
0.000262
0.001734
0.000445
0.000597
0.000316
0.000136
0.000056
0.000205
0.000227
0.000240
0.000233
0.000260
0.000244
0.000246
0.000584
0.000480
0.000341
0.000294
0.000216
0.000246
0.000258
0.000296
0.000240
0.000241
0.000251
0.000260
0.000270
0.000262
0.000487
0.001282
0.000242
0.000239
0.000277
0.001889
0.000388
0.000371
0.000353
0.000165
0.000056
0.000216
0.000243
0.000246
0.001597
0.000401
0.000211
0.000232
0.000266
0.000251
0.000291
0.000379
0.000368
0.000357
0.000270
0.000386
0.000450
0.000375
0.001199
0.000274
0.000234
0.000247
0.000264
0.000273
0.000458
0.000658
0.000367
0.000254
0.000263
0.000266
0.000285
0.000185
0.000057
0.000207
0.000234
0.000245
0.001583
0.000201
0.000235
0.000246
0.000251
0.000241
0.000251
0.000261
0.000267
0.000275
0.000268
0.000282
0.000334
0.000542
0.000243
0.001399
0.000226
0.000267
0.000258
0.000255
0.000266
0.000403
0.000551
0.000352
0.000280
0.000279
0.000220
0.000449
0.000055
0.000199
0.000238
0.000250
0.001523
0.000318
0.000224
0.000263
0.000245
0.000258
0.000254
0.000254
0.000249
0.000264
0.000290
0.000437
0.000445
0.001380
0.000747
0.000264
0.000330
0.000256
0.000231
0.000244
0.000276
0.001686
0.000800
0.000235
0.000264
0.000272
0.000290
0.000178
0.000056
0.000200
0.000235
0.000250
0.000245
0.000275
0.000226
0.000242
0.000253
0.000245
0.000232
0.000287
0.000284
0.000247
0.000250
0.000264
0.000250
0.000267
0.001605
0.000709
0.000397
0.000293
0.000227
0.000242
0.000283
0.000264
0.000263
0.000272
0.000255
0.001409
0.000382
0.000361
0.000055
0.000201
0.000227
0.000251
0.000252
0.000260
0.000231
0.000258
0.000248
0.000251
0.000267
0.000334
0.000351
0.000444
0.000344
0.000205
0.000248
0.000262
0.001395
0.000688
0.000556
0.000278
0.000257
0.000227
0.000245
0.000278
0.000251
0.000268
0.000256
0.001498
0.000416
0.000197
0.000055
0.000205
0.000232
0.000249
0.000247
0.000243
0.000252
0.000233
0.000254
0.000272
0.000275
0.000390
0.000340
0.000332
0.000216
0.000243
0.000249
0.000261
0.000257
0.001679
0.000502
0.000529
0.000277
0.000229
0.000256
0.000266
0.000261
0.000265
0.000293
0.000254
0.001405
0.000280
0.000056
0.000229
0.000216
0.000236
0.000253
0.000257
0.000246
0.000265
0.000295
0.000368
0.000503
0.000321
0.000345
0.000378
0.000227
0.000241
0.000247
0.000278
0.000257
0.000267
0.001920
0.000339
0.000236
0.000435
0.000251
0.000249
0.000264
0.000266
0.000265
0.000268
0.000278
0.000511
0.000057
0.000234
0.000283
0.000234
0.000244
0.000270
0.000236
0.000223
0.000238
0.000267
0.000251
0.000246
0.000240
0.000323
0.000432
0.000433
0.000446
0.000230
0.000263
0.000251
0.000255
0.000258
0.000287
0.001470
0.001051
0.000215
0.000249
0.000272
0.000274
0.000263
0.000256
0.000197
0.000055
0.000182
0.001346
0.000297
0.000215
0.000229
0.000253
0.000252
0.000235
0.000244
0.000247
0.000256
0.000262
0.000238
0.000334
0.000434
0.000410
0.000308
0.000251
0.000262
0.000267
0.000270
0.000227
0.000261
0.000264
0.001397
0.000610
0.000311
0.000382
0.000428
0.000355
0.000292
0.000056
0.000212
0.000244
0.001415
0.000260
0.000210
0.000249
0.000235
0.000257
0.000254
0.000256
0.000246
0.000249
0.000270
0.000381
0.000542
0.000296
0.000228
0.000281
0.000329
0.000212
0.000253
0.000272
0.000228
0.000277
0.000287
0.001525
0.000730
0.000304
0.000274
0.000276
0.000186
0.000056
0.000212
0.000275
0.000448
0.000360
0.001262
0.000241
0.000235
0.000243
0.000229
0.000244
0.000252
0.000253
0.000231
0.000255
0.000240
0.000257
0.000268
0.000232
0.000258
0.000256
0.000264
0.000268
0.000301
0.000341
0.000214
0.000261
0.000266
0.001464
0.000264
0.000233
0.000171
0.000056
0.000207
0.000229
0.000250
0.000311
0.000363
0.000338
0.000400
0.000251
0.001576
0.000251
0.000310
0.000476
0.000347
0.000222
0.000425
0.000232
0.000245
0.000262
0.000276
0.000266
0.000279
0.000268
0.000257
0.000274
0.000238
0.000443
0.000394
0.000307
0.001590
0.000226
0.000183
0.000056
0.000227
0.000251
0.000239
0.000245
0.000239
0.000249
0.000261
0.000293
0.000416
0.002043
0.000234
0.000247
0.000252
0.000258
0.000260
0.000250
0.000273
0.000259
0.000278
0.000420
0.000356
0.000460
0.001453
0.000251
0.000526
0.000231
0.001768
0.000245
0.000259
0.001531
0.000159
0.000057
0.000387
0.000401
0.000423
0.000243
0.000269
0.000219
0.000262
0.000266
0.000263
0.000231
0.000249
0.000376
0.000400
0.000351
0.000434
0.000213
0.000232
0.001561
0.000247
0.000647
0.001814
0.000278
0.000231
0.001557
0.002015
0.000740
0.000274
0.000260
0.000266
0.000509
0.000290
0.000056
0.000204
0.000243
0.000250
0.000244
0.001426
0.001722
0.001083
0.000210
0.000226
0.001585
0.001980
0.000210
0.000234
0.000429
0.000312
0.000381
0.000423
0.000431
0.000214
0.000237
0.000261
0.000253
0.000274
0.001628
0.001162
0.001437
0.000268
0.000299
0.000257
0.000317
0.000333
0.000056
0.000237
0.000215
0.000243
0.000237
0.000233
0.000242
0.000247
0.000254
0.000258
0.000248
0.000238
0.000310
0.000553
0.000335
0.000289
0.000268
0.000258
0.000264
0.000267
0.000267
0.000252
0.000264
0.001534
0.000465
0.002108
0.000228
0.000259
0.000406
0.000379
0.000393
0.000178
0.000056
0.000233
0.000455
0.000350
0.000317
0.000195
0.000231
0.000255
0.000240
0.000242
0.000244
0.000247
0.000263
0.000257
0.001608
0.001357
0.001289
0.000229
0.000216
0.000272
0.000248
0.000285
0.000281
0.000240
0.000252
0.002213
0.000244
0.000255
0.000290
0.000326
0.000304
0.000221
0.000056
0.000235
0.000379
0.000542
0.000301
0.000235
0.000239
0.000249
0.000280
0.001892
0.001462
0.000188
0.000323
0.000390
0.000405
0.000256
0.000229
0.000247
0.000274
0.000264
0.000262
0.000259
0.000265
0.000465
0.000244
0.000266
0.000284
0.000239
0.000273
0.000281
0.000248
0.000203
0.000055
0.000202
0.000246
0.000251
0.000238
0.000252
0.000271
0.001551
0.001405
0.001360
0.000224
0.000222
0.000256
0.000249
0.000263
0.000247
0.000252
0.000249
0.002105
0.000259
0.000225
0.000268
0.000258
0.000257
0.000269
0.000265
0.000261
0.000267
0.000258
0.000271
0.000252
0.000173
0.000056
0.000202
0.002688
0.001381
0.000229
0.000306
0.000294
0.000227
0.000272
0.000258
0.000241
0.000252
0.000249
0.000235
0.000249
0.000267
0.000257
0.000267
0.000265
0.000259
0.000264
0.000268
0.000282
0.000275
0.000259
0.000247
0.000247
0.000264
0.000270
0.000261
0.000266
0.000377
0.000056
0.001544
0.000251
0.001244
0.000225
0.000223
0.000244
0.000260
0.000252
0.000244
0.000271
0.000387
0.000390
0.000333
0.000195
0.000255
0.002199
0.000207
0.000243
0.000292
0.000490
0.000365
0.000295
0.000226
0.000251
0.000265
0.000248
0.000270
0.000276
0.000266
0.001631
0.001246
0.000056
0.000194
0.000231
0.000361
0.000355
0.000293
0.000327
0.000243
0.000199
0.000256
0.000254
0.000268
0.000247
0.000225
0.000256
0.000260
0.000257
0.000295
0.000622
0.000365
0.000252
0.000227
0.000269
0.000285
0.000254
0.000250
0.000245
0.000263
0.000277
0.000243
0.000287
0.000418
0.000056
0.001118
0.000356
0.000223
0.000438
0.000312
0.000224
0.000227
0.000234
0.000254
0.002421
0.000305
0.000323
0.000224
0.000377
0.000279
0.000260
0.000261
0.000262
0.000267
0.000228
0.000250
0.000294
0.000670
0.000428
0.001809
0.001350
0.000532
0.000495
0.000226
0.000287
0.000186
0.000055
0.000271
0.000301
0.000241
0.000248
0.000246
0.000224
0.000256
0.000259
0.000270
0.000231
0.000254
0.000224
0.000254
0.000254
0.000422
0.000499
0.001819
0.001307
0.000446
0.000454
0.000459
0.000232
0.000244
0.000267
0.002123
0.000579
0.000370
0.000229
0.000278
0.000284
0.000187
0.000056
0.000214
0.000230
0.000257
0.000262
0.000227
0.000319
0.000435
0.000265
0.000343
0.000242
0.000242
0.000250
0.000264
0.002137
0.000362
0.000371
0.000216
0.000246
0.000271
0.000257
0.000250
0.002508
0.000289
0.000221
0.000260
0.000252
0.000256
0.000270
0.000286
0.000277
0.000190
0.000055
0.000205
0.000337
0.000603
0.000321
0.000251
0.000230
0.000218
0.000255
0.000261
0.000259
0.001992
0.000346
0.000275
0.000295
0.000220
0.000266
0.000266
0.000246
0.002204
0.000455
0.000223
0.000262
0.000260
0.000267
0.000261
0.000243
0.000283
0.000250
0.000271
0.000269
0.000163
0.000056
0.000187
0.000241
0.000251
0.000231
0.000235
0.000259
0.000238
0.000240
0.000236
0.002177
0.000231
0.000295
0.000203
0.000424
0.000231
0.000257
0.000275
0.000286
0.000238
0.000266
0.001969
0.000292
0.000372
0.000382
0.000385
0.000406
0.000285
0.000252
0.000258
0.000256
0.000198
0.000055
0.000213
0.000254
0.000223
0.000249
0.000246
0.000335
0.000217
0.002306
0.000233
0.000242
0.000258
0.000257
0.000239
0.000251
0.000301
0.002127
0.000593
0.000216
0.000259
0.000247
0.000258
0.000261
0.000292
0.000260
0.000263
0.000252
0.000287
0.000250
0.000270
0.000267
0.000186
0.000072
0.001807
0.001442
0.000206
0.000229
0.000243
0.000253
0.000251
0.000309
0.000406
0.000350
0.002131
0.000255
0.000242
0.000268
0.000288
0.000522
0.000378
0.000295
0.000226
0.000248
0.000254
0.000265
0.000271
0.000215
0.000262
0.000269
0.000268
0.000265
0.000358
0.000616
0.000324
0.000055
0.000207
0.000255
0.000242
0.000266
0.000263
0.000244
0.000254
0.000256
0.001477
0.002106
0.000590
0.000288
0.000556
0.000554
0.000322
0.000236
0.000258
0.000248
0.000261
0.000261
0.000257
0.000242
0.000249
0.000278
0.001817
0.001461
0.000286
0.000329
0.000233
0.000253
0.000451
0.000056
0.001944
0.000232
0.000240
0.000211
0.000323
0.000425
0.000346
0.000321
0.000280
0.000217
0.000242
0.000250
0.000262
0.000256
0.000277
0.000244
0.000257
0.000265
0.001831
0.000249
0.000234
0.000257
0.000278
0.000274
0.000274
0.000254
0.001522
0.000276
0.000242
0.000270
0.000171
0.000055
0.000215
0.000222
0.000248
0.000259
0.000233
0.000241
0.000396
0.000297
0.000319
0.000375
0.000218
0.000243
0.000266
0.000380
0.000382
0.000306
0.000230
0.000250
0.000278
0.000328
0.000514
0.000390
0.000273
0.000254
0.000257
0.000258
0.000249
0.000275
0.000271
0.000266
0.000205
0.000056
0.001447
0.000430
0.000224
0.001951
0.000275
0.000470
0.000438
0.000258
0.000226
0.000247
0.000268
0.000237
0.000252
0.000251
0.000263
0.000257
0.000452
0.000298
0.000416
0.000428
0.000278
0.000231
0.000254
0.000267
0.000270
0.000275
0.000265
0.000268
0.000376
0.000393
0.001421
0.000056
0.000202
0.000222
0.002093
0.000349
0.000244
0.000266
0.000253
0.000250
0.000264
0.000256
0.000213
0.000256
0.000254
0.000257
0.000274
0.000400
0.000673
0.001745
0.000230
0.000247
0.000259
0.000265
0.000398
0.000476
0.001517
0.000291
0.000360
0.001931
0.000277
0.000233
0.000192
0.000056
0.000216
0.000230
0.000235
0.000241
0.000225
0.000250
0.000260
0.000280
0.000333
0.000277
0.000399
0.000343
0.000333
0.000303
0.000233
0.000266
0.000265
0.000244
0.000263
0.000249
0.000295
0.000296
0.000268
0.000257
0.000277
0.001503
0.000291
0.000406
0.002056
0.000238
0.000159
0.000055
0.000220
0.000236
0.000241
0.000243
0.000483
0.000214
0.000251
0.000323
0.000415
0.000276
0.000306
0.000206
0.000270
0.000258
0.000273
0.000326
0.000413
0.000438
0.000256
0.000400
0.000544
0.000483
0.001528
0.000222
0.000262
0.002039
0.000294
0.000227
0.000247
0.000293
0.000187
0.000055
0.000204
0.000246
0.000230
0.000242
0.000250
0.000266
0.000254
0.000279
0.000242
0.000270
0.001792
0.000348
0.000366
0.000318
0.000424
0.000389
0.000313
0.001510
0.000246
0.000323
0.002218
0.000429
0.000248
0.000232
0.000273
0.000262
0.000505
0.000223
0.000259
0.000279
0.000190
0.000055
0.000286
0.000404
0.000325
0.000291
0.000207
0.000240
0.000259
0.000255
0.000266
0.000293
0.000223
0.000253
0.000253
0.000261
0.000334
0.001525
0.000319
0.000208
0.000278
0.002013
0.000253
0.000288
0.000255
0.000262
0.000246
0.000281
0.000277
0.000253
0.000248
0.000271
0.000198
0.000055
0.000313
0.000351
0.002008
0.000261
0.000257
0.000215
0.000293
0.000265
0.000475
0.000388
0.001305
0.000430
0.000294
0.002082
0.000209
0.000242
0.000275
0.000275
0.000253
0.000238
0.000286
0.000291
0.000259
0.000377
0.000504
0.000314
0.000325
0.002232
0.000496
0.000528
0.000344
0.000056
0.000204
0.000235
0.000244
0.001969
0.000226
0.000227
0.000245
0.000244
0.000242
0.000257
0.000244
0.000263
0.000240
0.000349
0.000397
0.001456
0.000248
0.000262
0.000249
0.000257
0.000243
0.000249
0.000258
0.000310
0.000287
0.000463
0.000460
0.000259
0.001587
0.000266
0.000170
0.000056
0.000194
0.000223
0.000247
0.000230
0.000254
0.000254
0.000249
0.000259
0.000250
0.000373
0.000414
0.001363
0.000246
0.000217
0.000246
0.000264
0.000257
0.000250
0.000495
0.000296
0.000431
0.000412
0.000221
0.001583
0.000229
0.000262
0.000279
0.000284
0.000260
0.000271
0.000193
0.000056
0.000230
0.000215
0.000266
0.000265
0.000245
0.000250
0.000239
0.000239
0.000265
0.000229
0.000252
0.000258
0.000254
0.001483
0.000364
0.000209
0.000247
0.000267
0.000310
0.000286
0.000426
0.000217
0.000240
0.000265
0.000256
0.000269
0.000253
0.001418
0.000283
0.000235
0.000159
0.000055
0.000209
0.000230
0.000258
0.000266
0.000253
0.000234
0.000247
0.000263
0.000219
0.000266
0.000242
0.000260
0.000230
0.000319
0.000387
0.000347
0.000230
0.000255
0.001635
0.000241
0.000240
0.000258
0.000265
0.000291
0.000399
0.000356
0.000456
0.000260
0.000256
0.001608
0.000162
0.000057
0.000313
0.000328
0.000426
0.000246
0.000235
0.000221
0.000259
0.000261
0.000256
0.000236
0.000245
0.000243
0.001458
0.000295
0.000308
0.000216
0.000255
0.000263
0.000262
0.000269
0.000251
0.000235
0.000262
0.000270
0.000274
0.000393
0.000408
0.000374
0.000258
0.000257
0.000180
0.000057
0.000216
0.000237
0.000477
0.000291
0.000387
0.000279
0.000244
0.000249
0.000270
0.000238
0.000246
0.000223
0.000255
0.000244
0.001257
0.000307
0.000238
0.000241
0.000272
0.000263
0.000256
0.000247
0.000256
0.000260
0.000256
0.000256
0.000330
0.000709
0.000409
0.000231
0.000186
0.000056
0.000200
0.001564
0.000234
0.000402
0.000458
0.000312
0.000218
0.000262
0.000266
0.000242
0.000248
0.000256
0.000272
0.000271
0.000261
0.001524
0.000255
0.000282
0.000268
0.000254
0.000264
0.000246
0.000265
0.000261
0.000266
0.000303
0.000455
0.000302
0.000355
0.000245
0.000185
0.000056
0.000200
0.000253
0.000232
0.001648
0.000458
0.000272
0.000230
0.000237
0.000256
0.000271
0.000280
0.000253
0.000243
0.000267
0.000236
0.000265
0.000422
0.001301
0.000238
0.000247
0.001499
0.000342
0.000527
0.000420
0.000331
0.000232
0.000266
0.000461
0.000240
0.000258
0.000181
0.000057
0.000288
0.000225
0.000241
0.000248
0.000248
0.000258
0.000254
0.000238
0.000260
0.000255
0.000229
0.000262
0.000583
0.000289
0.001604
0.001521
0.000336
0.000510
0.000360
0.000224
0.000239
0.000251
0.000255
0.000258
0.000250
0.000267
0.000264
0.000280
0.001545
0.000308
0.000157
0.000058
0.000246
0.000341
0.000354
0.000324
0.000227
0.000228
0.000243
0.000376
0.000414
0.000353
0.002170
0.000345
0.000689
0.000508
0.000457
0.000264
0.000328
0.000407
0.000315
0.000276
0.000403
0.000230
0.001929
0.000196
0.000192
0.000255
0.000257
0.000261
0.000261
0.000259
0.000196
0.000095
0.000199
0.000245
0.000251
0.000256
0.000244
0.001660
0.000877
0.000993
0.000211
0.000233
0.000261
0.000259
0.000262
0.000259
0.000256
0.000243
0.000259
0.000260
0.000272
0.000279
0.001433
0.000312
0.000250
0.000228
0.000235
0.000263
0.000261
0.000280
0.000260
0.000289
0.001891
0.000058
0.000191
0.000225
0.001549
0.000938
0.000347
0.000320
0.000226
0.000235
0.000248
0.000256
0.000240
0.000253
0.000247
0.001982
0.000489
0.000221
0.000241
0.000251
0.000263
0.000261
0.000191
