0.000329
0.019342
0.002091
0.000302
0.000255
0.000304
0.000323
0.000229
0.000328
0.000291
0.000243
0.000332
0.000584
0.000424
0.000403
0.000319
0.000287
0.000338
0.000355
0.000424
0.000310
0.001932
0.000691
0.000268
0.000240
0.000317
0.000307
0.000310
0.000423
0.000655
0.000277
0.000241
0.000058
0.000212
0.000268
0.000269
0.000295
0.000247
0.000246
0.000286
0.000288
0.000259
0.000380
0.000338
0.000409
0.000323
0.000252
0.000375
0.000353
0.000365
0.000245
0.000250
0.001696
0.000316
0.000262
0.000446
0.000258
0.000270
0.000272
0.000291
0.000314
0.000262
0.000449
0.000280
0.000058
0.000197
0.000245
0.000262
0.000256
0.000259
0.000245
0.000263
0.000261
0.000279
0.001670
0.000227
0.000233
0.000281
0.000258
0.000279
0.000252
0.000263
0.000255
0.000354
0.001786
0.000245
0.000285
0.000445
0.000430
0.000382
0.000233
0.000353
0.000496
0.000422
0.000733
0.000201
0.000056
0.000222
0.000249
0.000256
0.000236
0.000292
0.000276
0.000319
0.000577
0.000336
0.000271
0.000231
0.000254
0.000236
0.000253
0.000258
0.000255
0.000241
0.000272
0.000306
0.000327
0.001657
0.000281
0.000241
0.000428
0.000303
0.000723
0.000665
0.000510
0.000337
0.000237
0.000189
0.000057
0.000196
0.000247
0.000292
0.000214
0.000290
0.000225
0.000325
0.000440
0.001434
0.000224
0.000240
0.000244
0.000254
0.000255
0.000263
0.000301
0.000312
0.000783
0.001356
0.000304
0.000236
0.000412
0.000250
0.000241
0.000257
0.000266
0.000259
0.000277
0.000257
0.000313
0.000149
0.000058
0.000224
0.000243
0.000236
0.000268
0.000240
0.000247
0.000236
0.000252
0.000232
0.000265
0.001629
0.000260
0.000242
0.000240
0.000251
0.000244
0.000252
0.000249
0.000250
0.000251
0.000298
0.001635
0.000290
0.000262
0.000428
0.000245
0.000266
0.000260
0.000258
0.000277
0.000199
0.000056
0.000204
0.000239
0.000237
0.000246
0.000245
0.000247
0.000259
0.000236
0.000266
0.000259
0.000248
0.000254
0.000259
0.000276
0.001634
0.000285
0.000295
0.000215
0.000249
0.000268
0.000277
0.000228
0.000246
0.000268
0.001776
0.000431
0.000315
0.000369
0.000238
0.000279
0.000213
0.000056
0.000187
0.000239
0.000250
0.000284
0.000243
0.000259
0.000299
0.000401
0.000458
0.000352
0.000206
0.000249
0.000254
0.000249
0.001569
0.000533
0.000330
0.000390
0.000320
0.000229
0.000268
0.000282
0.000270
0.001971
0.000291
0.000450
0.000244
0.000241
0.000256
0.000262
0.000184
0.000056
0.000203
0.000234
0.000253
0.000317
0.000456
0.000311
0.000335
0.000281
0.000217
0.000245
0.000256
0.000239
0.000261
0.001733
0.000463
0.000291
0.000226
0.000255
0.000270
0.000286
0.000245
0.000256
0.000275
0.001879
0.000321
0.000387
0.000246
0.000252
0.000259
0.000405
0.000325
0.000056
0.000283
0.000427
0.000250
0.000265
0.000256
0.000248
0.000249
0.000255
0.000238
0.000240
0.000236
0.000255
0.001580
0.000296
0.000333
0.000233
0.000254
0.000248
0.000251
0.000307
0.000282
0.000298
0.000250
0.001798
0.000263
0.000497
0.000240
0.000259
0.000253
0.000272
0.000266
0.000055
0.000442
0.000418
0.000593
0.000213
0.000226
0.000277
0.000233
0.000224
0.000259
0.000253
0.000252
0.001703
0.000257
0.000433
0.000369
0.000216
0.000260
0.000209
0.000250
0.000270
0.000385
0.001711
0.000236
0.000469
0.001866
0.000542
0.000339
0.000243
0.000256
0.000264
0.000184
0.000056
0.000215
0.000238
0.000249
0.000239
0.000352
0.001537
0.000245
0.000231
0.000256
0.000249
0.000245
0.000240
0.000254
0.000257
0.000341
0.000366
0.000630
0.000227
0.000232
0.000274
0.000290
0.000219
0.000253
0.000429
0.000431
0.000287
0.000395
0.000480
0.000432
0.000283
0.000202
0.000057
0.000212
0.000236
0.000254
0.000251
0.000238
0.000235
0.000253
0.000440
0.000476
0.001641
0.000199
0.000242
0.000241
0.000244
0.000262
0.000294
0.000552
0.000333
0.000356
0.000234
0.000264
0.000302
0.000271
0.000256
0.000269
0.000440
0.000343
0.000676
0.000365
0.000477
0.000178
0.000057
0.000195
0.000253
0.000242
0.000241
0.000233
0.000239
0.000244
0.000263
0.000228
0.000287
0.000346
0.000553
0.001277
0.000242
0.000233
0.000248
0.000260
0.000247
0.000252
0.000267
0.000272
0.000506
0.000344
0.000267
0.000267
0.000257
0.000255
0.000274
0.000258
0.000270
0.000385
0.000056
0.000218
0.000237
0.000244
0.000288
0.000536
0.000411
0.000216
0.000257
0.000236
0.000261
0.000258
0.000229
0.000323
0.000227
0.000238
0.000482
0.000427
0.001628
0.000277
0.000235
0.000262
0.000263
0.000260
0.000241
0.000275
0.000423
0.000551
0.000267
0.000416
0.000252
0.000193
0.000055
0.000242
0.000431
0.000230
0.000217
0.000284
0.000237
0.000639
0.000262
0.000279
0.000312
0.000234
0.000273
0.000262
0.000239
0.000527
0.000333
0.000224
0.000266
0.000496
0.001536
0.000264
0.000239
0.000525
0.000245
0.000291
0.000271
0.000251
0.000550
0.000362
0.000378
0.000250
0.000056
0.000232
0.000228
0.000234
0.000242
0.000423
0.000310
0.000284
0.000220
0.000399
0.000510
0.000375
0.000230
0.000222
0.000249
0.000271
0.000255
0.000250
0.000260
0.000233
0.000351
0.000286
0.000409
0.001796
0.000214
0.000259
0.000251
0.000283
0.000344
0.000435
0.000831
0.000333
0.000058
0.000218
0.000336
0.000318
0.000403
0.000386
0.000206
0.000258
0.000414
0.000495
0.000365
0.000211
0.000243
0.000230
0.000270
0.000260
0.000238
0.000246
0.000275
0.000273
0.000259
0.000334
0.000301
0.000741
0.001292
0.000326
0.000432
0.000423
0.000253
0.000545
0.000298
0.000312
0.000056
0.000230
0.000376
0.000277
0.000206
0.000222
0.000251
0.000420
0.000233
0.000365
0.000335
0.000368
0.000409
0.000239
0.000274
0.000246
0.000244
0.000351
0.000416
0.000319
0.000251
0.000250
0.000510
0.000502
0.001695
0.000221
0.000424
0.000313
0.000234
0.000322
0.000410
0.000317
0.000056
0.000195
0.000227
0.000258
0.000248
0.000248
0.000234
0.000252
0.000324
0.000461
0.000321
0.000388
0.000368
0.000304
0.000567
0.000260
0.000237
0.000274
0.000266
0.000220
0.000363
0.000202
0.000259
0.000277
0.000505
0.000417
0.001643
0.000263
0.000223
0.000263
0.000262
0.000198
0.000057
0.000308
0.000483
0.000287
0.000205
0.000257
0.000242
0.000255
0.000245
0.000268
0.000234
0.000223
0.000266
0.000464
0.000453
0.000439
0.000246
0.000247
0.000251
0.000349
0.000376
0.000384
0.000337
0.000359
0.000391
0.000248
0.000259
0.000267
0.000270
0.001796
0.000236
0.000214
0.000056
0.000207
0.000219
0.000262
0.000296
0.000330
0.000542
0.000315
0.000220
0.000284
0.000235
0.000250
0.000250
0.000515
0.000451
0.000489
0.000265
0.000271
0.000256
0.000424
0.000469
0.000359
0.000515
0.000485
0.000343
0.000236
0.000248
0.000265
0.000247
0.000262
0.001723
0.000333
0.000057
0.000258
0.000338
0.000197
0.000231
0.000255
0.000251
0.000239
0.000498
0.000377
0.000306
0.000292
0.000282
0.000443
0.000537
0.000349
0.000235
0.000247
0.000258
0.000248
0.000270
0.000292
0.000248
0.000238
0.000266
0.000343
0.000321
0.000443
0.000331
0.000232
0.000253
0.000195
0.000057
0.000439
0.000348
0.000409
0.000257
0.000217
0.000243
0.000241
0.000259
0.000243
0.000221
0.000248
0.000294
0.000286
0.000591
0.000329
0.000450
0.000305
0.000317
0.000371
0.000345
0.000293
0.000247
0.000237
0.000262
0.001742
0.000255
0.001719
0.001069
0.000261
0.000347
0.000155
0.000057
0.000210
0.000236
0.000235
0.000239
0.000271
0.000236
0.000254
0.000252
0.000240
0.000394
0.000394
0.000334
0.000329
0.000376
0.000270
0.000246
0.000238
0.000286
0.000240
0.000251
0.000248
0.000276
0.001788
0.000246
0.000258
0.000263
0.000279
0.000263
0.001897
0.000574
0.000190
0.000056
0.000207
0.000221
0.000235
0.000242
0.000264
0.000237
0.000242
0.000258
0.000336
0.000309
0.000522
0.000349
0.000361
0.000237
0.000248
0.000246
0.000333
0.000433
0.000367
0.000257
0.001770
0.000258
0.000249
0.000252
0.000261
0.000269
0.000240
0.000258
0.000339
0.000390
0.000312
0.000056
0.000250
0.000213
0.000244
0.000272
0.000251
0.000228
0.000257
0.000258
0.000236
0.000257
0.000243
0.000314
0.000370
0.000390
0.000357
0.000229
0.000467
0.000236
0.000245
0.000261
0.000256
0.000263
0.000270
0.000260
0.000296
0.001759
0.000258
0.000244
0.000266
0.000237
0.000206
0.000058
0.000392
0.000210
0.000222
0.000235
0.000237
0.000235
0.000237
0.000261
0.000240
0.000233
0.000229
0.000260
0.000266
0.000465
0.000306
0.000351
0.000303
0.000223
0.000255
0.000248
0.000265
0.000261
0.000243
0.000270
0.000255
0.000264
0.000375
0.001554
0.000275
0.000259
0.000174
0.000057
0.000208
0.000239
0.000247
0.000273
0.000343
0.000339
0.000400
0.000327
0.000224
0.000252
0.000270
0.000231
0.000243
0.000255
0.000261
0.000262
0.000241
0.000261
0.000248
0.000261
0.000269
0.000267
0.000246
0.000239
0.000248
0.000270
0.000281
0.000264
0.000254
0.000281
0.000174
0.000056
0.000241
0.000214
0.000260
0.000274
0.000231
0.000233
0.000246
0.000259
0.000284
0.000237
0.000230
0.000260
0.000246
0.000249
0.000293
0.000238
0.000255
0.000249
0.000309
0.000242
0.000278
0.000316
0.000268
0.000224
0.000306
0.000246
0.000270
0.000249
0.000297
0.000406
0.000701
0.000056
0.000217
0.000298
0.000231
0.000224
0.000228
0.000255
0.000241
0.000248
0.000252
0.000241
0.000271
0.000489
0.000297
0.000553
0.001460
0.000237
0.000489
0.000226
0.000297
0.000493
0.000414
0.000332
0.000225
0.000282
0.000249
0.000259
0.000281
0.000253
0.000328
0.000256
0.000167
0.000056
0.000333
0.000389
0.000352
0.000298
0.000228
0.000277
0.000229
0.000233
0.000240
0.000241
0.000257
0.000256
0.000229
0.000293
0.000373
0.000464
0.000402
0.001776
0.000243
0.000256
0.000479
0.000326
0.000397
0.000303
0.000316
0.000314
0.000304
0.000231
0.000230
0.000243
0.000204
0.000056
0.000223
0.000226
0.000246
0.000299
0.000473
0.000341
0.000318
0.000256
0.000251
0.000211
0.000254
0.000268
0.000265
0.000264
0.000242
0.000261
0.000411
0.000403
0.000330
0.000421
0.000231
0.001745
0.000330
0.000639
0.000378
0.000456
0.000342
0.000212
0.000253
0.000261
0.000446
0.000056
0.000216
0.000270
0.000216
0.000397
0.000265
0.000518
0.000357
0.000255
0.000212
0.000285
0.000249
0.000259
0.000251
0.000297
0.000307
0.000233
0.000294
0.000368
0.000466
0.000310
0.000494
0.001831
0.000291
0.000544
0.000378
0.000341
0.000232
0.000259
0.000301
0.000257
0.000197
0.000056
0.000209
0.000337
0.000362
0.000366
0.000394
0.000268
0.000359
0.000219
0.000239
0.000259
0.000275
0.000227
0.000247
0.000267
0.000238
0.000261
0.000413
0.000334
0.000495
0.000343
0.000278
0.000237
0.000290
0.001683
0.000646
0.000298
0.000674
0.000237
0.000259
0.000315
0.000159
0.000056
0.000198
0.000239
0.000350
0.000232
0.000282
0.000444
0.000329
0.000308
0.000257
0.000509
0.000244
0.000235
0.000258
0.000276
0.000275
0.000258
0.000231
0.000368
0.000449
0.000432
0.000254
0.000252
0.000243
0.000253
0.000258
0.000266
0.000241
0.000252
0.000265
0.000294
0.000225
0.000056
0.000420
0.000254
0.000216
0.000261
0.000248
0.000256
0.000239
0.000297
0.000233
0.000249
0.000293
0.000319
0.000489
0.000346
0.000420
0.000188
0.000221
0.000231
0.000257
0.000270
0.000316
0.000267
0.000221
0.000257
0.000284
0.000412
0.000355
0.000363
0.000326
0.000212
0.000175
0.000057
0.000210
0.000226
0.000280
0.000246
0.000237
0.000269
0.000259
0.000236
0.000490
0.000218
0.000252
0.000264
0.000236
0.000264
0.000273
0.000299
0.000239
0.000360
0.000209
0.000239
0.000259
0.000265
0.000256
0.000274
0.000275
0.000258
0.000262
0.000256
0.000258
0.000496
0.000166
0.000056
0.000211
0.000239
0.000257
0.000280
0.000197
0.000250
0.000370
0.000404
0.000228
0.000236
0.000256
0.000253
0.000245
0.000298
0.000379
0.001804
0.000236
0.000259
0.000288
0.000331
0.000405
0.000367
0.000410
0.000403
0.000418
0.000320
0.000240
0.000272
0.000271
0.000276
0.001413
0.000057
0.000382
0.000365
0.000187
0.000195
0.000240
0.000253
0.000232
0.000255
0.000243
0.000277
0.000240
0.000274
0.000238
0.000297
0.000550
0.001624
0.000235
0.000223
0.000246
0.000267
0.000232
0.000309
0.000504
0.000215
0.000404
0.000238
0.000219
0.000272
0.000271
0.000265
0.000206
0.000057
0.001459
0.000293
0.000337
0.000250
0.000241
0.000224
0.000224
0.000243
0.000511
0.000196
0.000241
0.000252
0.000365
0.000450
0.000439
0.000348
0.000257
0.000241
0.000323
0.000357
0.000272
0.000254
0.000271
0.000242
0.000273
0.000578
0.000586
0.000220
0.000268
0.000265
0.000168
0.000057
0.000216
0.000221
0.000239
0.000242
0.001459
0.000319
0.000220
0.000250
0.000260
0.000229
0.000254
0.000250
0.000245
0.000262
0.000269
0.000313
0.000406
0.000653
0.000291
0.001723
0.000254
0.000295
0.000308
0.000421
0.000530
0.000429
0.000233
0.000244
0.000261
0.000270
0.000200
0.000057
0.000218
0.000257
0.000231
0.000431
0.001140
0.000239
0.000256
0.000259
0.000238
0.000238
0.000235
0.000256
0.000278
0.000262
0.000235
0.000286
0.000594
0.000307
0.000314
0.000263
0.000262
0.000269
0.000247
0.000237
0.000287
0.000265
0.000237
0.000280
0.000294
0.000370
0.000570
0.000055
0.000210
0.000253
0.000232
0.000262
0.000285
0.000215
0.000238
0.000262
0.000290
0.000259
0.001424
0.000204
0.000249
0.000250
0.000241
0.000247
0.000294
0.000241
0.000285
0.000238
0.000334
0.000421
0.000551
0.000298
0.000231
0.000274
0.001754
0.000260
0.000300
0.000338
0.000382
0.000056
0.000196
0.000405
0.000448
0.000501
0.000514
0.000549
0.001500
0.000412
0.000516
0.000653
0.000552
0.000722
0.000482
0.000622
0.000584
0.001970
0.000422
0.000315
0.000416
0.000314
0.000223
0.000281
0.000280
0.000266
0.000260
0.000287
0.000296
0.000284
0.000255
0.000289
0.001365
0.000057
0.000216
0.000227
0.000250
0.000241
0.000254
0.000254
0.000235
0.000239
0.000246
0.000258
0.000236
0.000246
0.000257
0.000251
0.000271
0.000265
0.001804
0.000272
0.000259
0.000248
0.000252
0.000260
0.000271
0.000276
0.000454
0.000436
0.000288
0.000231
0.000270
0.000273
0.000210
0.000057
0.000209
0.001367
0.000330
0.000274
0.000248
0.000237
0.000247
0.000223
0.000245
0.000239
0.000220
0.000266
0.000230
0.000506
0.000367
0.000302
0.000240
0.001814
0.000362
0.000237
0.000238
0.000269
0.000259
0.000258
0.000282
0.000304
0.000254
0.000242
0.000265
0.000347
0.000174
0.000057
0.000220
0.000238
0.000248
0.001451
0.000211
0.000243
0.000260
0.000239
0.000239
0.000272
0.000251
0.000246
0.000242
0.000282
0.000238
0.000249
0.000270
0.000263
0.000267
0.000256
0.000277
0.001757
0.000283
0.001745
0.000269
0.000243
0.000271
0.000274
0.000264
0.000276
0.000197
0.000057
0.000205
0.000243
0.001340
0.000231
0.000253
0.000247
0.000265
0.000252
0.000244
0.000254
0.000257
0.000233
0.000260
0.000267
0.000258
0.000260
0.000259
0.000284
0.000306
0.000221
0.001876
0.000235
0.001846
0.000236
0.000258
0.000274
0.000232
0.000254
0.000247
0.000273
0.000196
0.000056
0.001422
0.000242
0.000214
0.000244
0.000237
0.000234
0.000376
0.000284
0.000245
0.000247
0.000251
0.000256
0.000284
0.000319
0.000393
0.000290
0.000247
0.000270
0.000264
0.000237
0.000284
0.000335
0.000228
0.000252
0.000266
0.000280
0.000271
0.000411
0.000604
0.000337
0.000186
0.000057
0.000195
0.000248
0.000267
0.000304
0.000364
0.000248
0.001702
0.000304
0.000271
0.000274
0.000257
0.000274
0.000260
0.000268
0.000301
0.000312
0.000344
0.000565
0.000381
0.000263
0.000291
0.000280
0.000263
0.000266
0.000332
0.000260
0.000274
0.000237
0.000254
0.000428
0.000392
0.000057
0.000358
0.000383
0.000252
0.000262
0.000247
0.000225
0.000225
0.000248
0.000263
0.000273
0.001484
0.000245
0.000219
0.000249
0.000244
0.000291
0.000283
0.000237
0.000254
0.000271
0.000275
0.000445
0.000496
0.000276
0.000283
0.000273
0.000264
0.000260
0.000232
0.000315
0.000167
0.000057
0.000206
0.000251
0.000271
0.000452
0.000387
0.000263
0.000212
0.000253
0.000252
0.000249
0.000235
0.000268
0.000239
0.000268
0.000243
0.000275
0.000424
0.001150
0.000258
0.000228
0.000280
0.000250
0.000346
0.000427
0.000246
0.000522
0.000416
0.000313
0.000394
0.000229
0.000181
0.000057
0.000220
0.000244
0.000261
0.000260
0.000256
0.000249
0.000415
0.000321
0.000427
0.000308
0.000355
0.000411
0.000381
0.000363
0.000257
0.000235
0.000237
0.000295
0.000379
0.000554
0.001159
0.000230
0.000268
0.000271
0.000236
0.000239
0.000260
0.000345
0.000458
0.000414
0.000200
0.000057
0.000223
0.000235
0.000252
0.000244
0.000234
0.000250
0.000232
0.000273
0.000347
0.000383
0.000320
0.000429
0.000219
0.000238
0.000244
0.000262
0.000249
0.000275
0.000252
0.000271
0.000425
0.000275
0.000387
0.000401
0.000297
0.000247
0.000276
0.000265
0.000254
0.000338
0.000157
0.000057
0.000313
0.000320
0.000339
0.000379
0.000393
0.000376
0.000241
0.000245
0.000238
0.000303
0.000229
0.000266
0.000235
0.000250
0.000243
0.000228
0.000269
0.000365
0.000535
0.000338
0.000205
0.000256
0.000244
0.000246
0.000262
0.000283
0.000272
0.000276
0.000269
0.000262
0.000276
0.000057
0.000282
0.000276
0.000216
0.000271
0.000221
0.000247
0.000246
0.000255
0.000275
0.000246
0.000250
0.000236
0.000428
0.000426
0.000371
0.000305
0.000214
0.000248
0.000257
0.000286
0.000237
0.000266
0.000250
0.000264
0.000280
0.000454
0.000307
0.000564
0.000402
0.000255
0.000169
0.000055
0.000392
0.000200
0.000231
0.000243
0.000254
0.000244
0.000239
0.000251
0.000257
0.000259
0.000223
0.000264
0.000249
0.000223
0.000251
0.000264
0.000252
0.000260
0.000316
0.000223
0.000260
0.000261
0.000263
0.000262
0.000264
0.000239
0.000267
0.000278
0.000254
0.000278
0.000203
0.000057
0.000193
0.000234
0.000258
0.000236
0.000231
0.000265
0.000255
0.000240
0.000258
0.000282
0.000229
0.000257
0.000235
0.000393
0.000255
0.000300
0.000240
0.000278
0.000245
0.000275
0.000273
0.000239
0.000237
0.000258
0.000270
0.000270
0.000255
0.000246
0.000277
0.000258
0.000209
0.000056
0.000227
0.000365
0.000365
0.000281
0.000294
0.000254
0.000273
0.000249
0.000223
0.000247
0.000280
0.000231
0.000247
0.000244
0.000273
0.000280
0.000225
0.000273
0.000244
0.000263
0.000273
0.000262
0.000277
0.000256
0.000297
0.000224
0.000252
0.000272
0.000270
0.000266
0.000194
0.000056
0.000205
0.000228
0.000264
0.000263
0.000251
0.000451
0.000206
0.000270
0.000310
0.000428
0.000453
0.000300
0.000225
0.000244
0.000271
0.000261
0.000235
0.000271
0.000257
0.000274
0.000261
0.000257
0.000261
0.000293
0.000658
0.000369
0.000261
0.000291
0.000267
0.000262
0.000190
0.000056
0.000197
0.000214
0.000247
0.000250
0.000393
0.000621
0.000306
0.000357
0.000206
0.000245
0.000251
0.000252
0.000251
0.000249
0.000260
0.000271
0.000269
0.000260
0.000716
0.000283
0.000338
0.000208
0.000262
0.000275
0.000286
0.000252
0.000263
0.000283
0.000232
0.000329
0.000352
0.000057
0.000181
0.000236
0.000242
0.000230
0.000258
0.000264
0.000217
0.000247
0.000238
0.000262
0.000247
0.000255
0.000242
0.000405
0.000668
0.000327
0.000191
0.000260
0.000259
0.000264
0.000249
0.000289
0.000473
0.000221
0.000262
0.000682
0.000365
0.000460
0.000243
0.000250
0.000192
0.000056
0.000222
0.000228
0.000247
0.000236
0.000257
0.000254
0.000415
0.000442
0.000530
0.000362
0.000218
0.000261
0.000273
0.000276
0.000258
0.000249
0.000233
0.000251
0.000294
0.000285
0.000455
0.000612
0.000363
0.000251
0.000360
0.000378
0.000490
0.000240
0.000264
0.000576
0.000240
0.000055
0.000247
0.000235
0.000439
0.000212
0.000240
0.000259
0.000256
0.000259
0.000231
0.000239
0.000384
0.000360
0.000421
0.000217
0.000226
0.000271
0.000241
0.000248
0.000265
0.000276
0.000292
0.000235
0.000248
0.000282
0.000394
0.000421
0.000459
0.000238
0.000258
0.000274
0.000200
0.000056
0.000202
0.000254
0.000228
0.000245
0.000249
0.000298
0.000299
0.000534
0.000321
0.000271
0.000381
0.000224
0.000251
0.000266
0.000254
0.000240
0.000252
0.000263
0.000348
0.000371
0.000495
0.000285
0.000480
0.000270
0.000389
0.000420
0.000377
0.000245
0.000261
0.000336
0.000316
0.000056
0.000207
0.000269
0.000222
0.000248
0.000289
0.000233
0.000267
0.000228
0.000268
0.000240
0.000235
0.000436
0.000502
0.000272
0.000343
0.000244
0.000251
0.000267
0.000268
0.000233
0.000245
0.000264
0.000262
0.000271
0.000278
0.000317
0.000707
0.000268
0.000237
0.000285
0.000191
0.000102
0.000179
0.000214
0.000273
0.000250
0.000237
0.000373
0.000462
0.000531
0.000434
0.000556
0.000261
0.000224
0.000239
0.000263
0.000241
0.000267
0.000278
0.000312
0.000479
0.000570
0.001318
0.000315
0.000267
0.000266
0.000279
0.000262
0.000471
0.000326
0.000389
0.000283
0.000187
0.000056
0.000196
0.000231
0.000244
0.000267
0.000229
0.000253
0.000298
0.000227
0.000243
0.000325
0.000332
0.000379
0.000271
0.000338
0.000394
0.000362
0.000232
0.000243
0.000272
0.000258
0.000243
0.000248
0.000310
0.000221
0.000326
0.000434
0.000479
0.000233
0.000258
0.000265
0.000191
0.000057
0.000214
0.000244
0.000260
0.000253
0.000241
0.000232
0.000475
0.000211
0.000235
0.000252
0.000248
0.000250
0.000264
0.000250
0.000251
0.000272
0.000259
0.000290
0.000263
0.000237
0.000287
0.000267
0.000293
0.000246
0.000263
0.000274
0.000272
0.000281
0.000247
0.000273
0.000172
0.000056
0.000193
0.000240
0.000328
0.000447
0.000338
0.000229
0.000238
0.000252
0.000256
0.000252
0.000260
0.000246
0.000262
0.000261
0.000237
0.000242
0.000268
0.000248
0.000343
0.000315
0.000609
0.000195
0.000228
0.000263
0.000269
0.000245
0.000275
0.000247
0.000275
0.000279
0.000199
0.000056
0.000397
0.000460
0.000306
0.000220
0.000243
0.000255
0.000412
0.000220
0.000229
0.000252
0.000255
0.000290
0.000399
0.000399
0.001870
0.000247
0.000239
0.000254
0.000280
0.000238
0.000388
0.000560
0.000509
0.000232
0.000234
0.000264
0.000277
0.000428
0.000277
0.000274
0.000171
0.000057
0.000247
0.000324
0.000328
0.000312
0.000494
0.000205
0.000239
0.000243
0.000276
0.000217
0.000265
0.000242
0.000263
0.000351
0.000439
0.000420
0.000215
0.000249
0.000256
0.000260
0.000262
0.000318
0.000237
0.000279
0.000273
0.000563
0.000511
0.000501
0.000243
0.000233
0.000207
0.000056
0.000218
0.000229
0.000258
0.000235
0.000245
0.000250
0.000266
0.000330
0.000363
0.000334
0.000410
0.000333
0.000224
0.000247
0.000275
0.000282
0.000308
0.000226
0.000277
0.000274
0.000233
0.000392
0.000470
0.000289
0.000282
0.000261
0.000255
0.000443
0.000414
0.000299
0.000187
0.000056
0.000194
0.000256
0.000352
0.000377
0.000385
0.000211
0.000237
0.000252
0.000263
0.000265
0.000253
0.000272
0.000207
0.000264
0.000256
0.000410
0.000368
0.000272
0.000295
0.000344
0.000492
0.000224
0.000285
0.000277
0.000313
0.000270
0.000250
0.000299
0.000477
0.000494
0.000182
0.000055
0.000217
0.000228
0.000246
0.000251
0.000237
0.000483
0.000215
0.000251
0.000268
0.000301
0.000603
0.000494
0.000223
0.000241
0.000238
0.000251
0.000258
0.000267
0.000241
0.000248
0.000287
0.000243
0.000317
0.000549
0.000270
0.000399
0.000304
0.000301
0.000324
0.000272
0.000163
0.000055
0.000237
0.000213
0.000329
0.000504
0.000231
0.000298
0.000277
0.000212
0.000237
0.000266
0.000254
0.000258
0.000265
0.000246
0.000243
0.000262
0.000242
0.000246
0.000353
0.000384
0.000544
0.000275
0.000240
0.000241
0.000276
0.000276
0.000259
0.000259
0.000282
0.000249
0.000192
0.000055
0.000306
0.000338
0.000430
0.000243
0.000224
0.000246
0.000317
0.000468
0.000281
0.000207
0.000243
0.000274
0.000316
0.000439
0.000382
0.000284
0.000248
0.000227
0.000256
0.000264
0.000271
0.000261
0.000266
0.000271
0.000260
0.000343
0.000419
0.000474
0.000190
0.000235
0.000199
0.000057
0.000212
0.000244
0.000244
0.000256
0.000249
0.000263
0.000232
0.000269
0.000253
0.000234
0.000266
0.000233
0.000290
0.001430
0.000225
0.000255
0.000262
0.000261
0.000264
0.000275
0.000264
0.000236
0.000276
0.000256
0.000265
0.000269
0.000269
0.000269
0.000267
0.000270
0.000193
0.000056
0.000202
0.000229
0.000254
0.000268
0.000221
0.000242
0.000259
0.000255
0.000230
0.000244
0.000249
0.000268
0.000259
0.000244
0.000258
0.000264
0.000250
0.000251
0.000273
0.000258
0.000259
0.000257
0.000242
0.000255
0.001291
0.000276
0.000672
0.000396
0.000275
0.000240
0.000197
0.000055
0.000199
0.000228
0.000245
0.000254
0.000421
0.000235
0.000238
0.000238
0.000263
0.000413
0.000419
0.000310
0.000232
0.000230
0.000272
0.000252
0.000260
0.000263
0.000248
0.000260
0.000260
0.000255
0.000342
0.000440
0.000425
0.000441
0.000222
0.000265
0.001354
0.000258
0.000183
0.000056
0.000377
0.000330
0.000314
0.000266
0.000230
0.000219
0.000236
0.000248
0.000263
0.000251
0.000250
0.000263
0.000295
0.000453
0.000361
0.000381
0.000325
0.000223
0.000249
0.000259
0.000269
0.000278
0.000255
0.000261
0.000273
0.000265
0.000484
0.000465
0.000313
0.000361
0.000148
0.000057
0.000205
0.000233
0.001309
0.000413
0.000373
0.000363
0.000360
0.000507
0.000249
0.000343
0.000229
0.000228
0.000259
0.000254
0.000249
0.000269
0.000335
0.000515
0.000381
0.000370
0.000258
0.000245
0.000267
0.000498
0.000231
0.000264
0.000257
0.000281
0.000277
0.000656
0.000310
0.000057
0.000369
0.000311
0.000238
0.001475
0.000341
0.000431
0.000329
0.000222
0.000247
0.000247
0.000230
0.000240
0.000242
0.000275
0.000245
0.000265
0.000235
0.000395
0.000358
0.000402
0.000363
0.000240
0.000255
0.000256
0.000263
0.000276
0.000271
0.000227
0.000268
0.000280
0.000198
0.000056
0.000352
0.000345
0.000239
0.000226
0.000248
0.000239
0.000272
0.000229
0.000234
0.000227
0.001681
0.000247
0.000228
0.000239
0.000236
0.000253
0.000272
0.000258
0.000239
0.000301
0.000249
0.000246
0.000289
0.000504
0.000413
0.000349
0.000234
0.000254
0.000271
0.000283
0.000174
0.000056
0.000211
0.000414
0.000224
0.000258
0.000478
0.000286
0.000387
0.000296
0.000465
0.000205
0.000226
0.000257
0.000259
0.000268
0.000261
0.001528
0.000245
0.000301
0.000230
0.000267
0.000295
0.000231
0.000253
0.000250
0.000267
0.000278
0.000537
0.000360
0.000277
0.000273
0.000160
0.000056
0.000225
0.000226
0.000255
0.000241
0.000226
0.000259
0.000238
0.000255
0.000318
0.000315
0.000450
0.000292
0.000236
0.000260
0.000245
0.000271
0.000276
0.000261
0.000269
0.000226
0.000248
0.000328
0.001249
0.000256
0.000266
0.000234
0.000279
0.000252
0.000261
0.000255
0.000193
0.000056
0.000230
0.000327
0.000367
0.000346
0.000234
0.000249
0.000260
0.000286
0.000236
0.000264
0.000236
0.000276
0.000234
0.000254
0.000276
0.000241
0.000270
0.000268
0.000266
0.000247
0.000254
0.000270
0.000271
0.000280
0.000285
0.000265
0.000262
0.000269
0.000254
0.000455
0.001350
0.000056
0.000207
0.000249
0.000219
0.000269
0.000233
0.000258
0.000249
0.000221
0.000247
0.000252
0.000299
0.000238
0.000245
0.000239
0.000273
0.000219
0.001732
0.000271
0.000228
0.000258
0.000246
0.000259
0.000274
0.000261
0.000295
0.000232
0.000272
0.000281
0.000268
0.000257
0.000226
0.000056
0.000291
0.000300
0.001306
0.000218
0.000234
0.000251
0.000257
0.000263
0.000256
0.000246
0.000235
0.000371
0.000381
0.000443
0.000260
0.000231
0.000250
0.000251
0.000267
0.000261
0.000240
0.000286
0.000256
0.000281
0.000272
0.000404
0.000337
0.000367
0.000315
0.000243
0.000194
0.000057
0.000227
0.000251
0.000242
0.000247
0.000278
0.000198
0.000238
0.000340
0.000350
0.001323
0.000271
0.000231
0.000227
0.000276
0.000246
0.000296
0.000233
0.000254
0.000332
0.000488
0.000303
0.000248
0.000240
0.000246
0.000289
0.000271
0.000262
0.000291
0.000269
0.000275
0.000189
0.000055
0.000306
0.000367
0.000380
0.000215
0.000237
0.000236
0.000248
0.000279
0.000263
0.000246
0.000227
0.000257
0.000443
0.000504
0.000498
0.001426
0.000236
0.000299
0.000309
0.000350
0.000476
0.000544
0.000359
0.000385
0.000235
0.000265
0.000269
0.000279
0.000261
0.000272
0.000190
0.000057
0.000200
0.000314
0.000544
0.000346
0.000330
0.000239
0.000251
0.000238
0.000239
0.000273
0.000233
0.000270
0.000273
0.000226
0.000267
0.000309
0.000386
0.000382
0.000376
0.001330
0.000265
0.000254
0.000268
0.000252
0.000455
0.000438
0.000372
0.000276
0.000267
0.000271
0.000184
0.000056
0.000196
0.000241
0.000245
0.000267
0.000242
0.000322
0.000533
0.000234
0.000379
0.000213
0.000243
0.000262
0.000272
0.000287
0.000238
0.000255
0.000261
0.000257
0.000293
0.000440
0.000321
0.000383
0.000325
0.001346
0.000424
0.000224
0.000268
0.000455
0.000452
0.000301
0.000312
0.000056
0.000203
0.000235
0.000245
0.000249
0.000244
0.000259
0.001712
0.000215
0.000214
0.000241
0.000254
0.000243
0.000256
0.000328
0.000326
0.000285
0.000279
0.000345
0.000487
0.000359
0.000311
0.000287
0.000229
0.000250
0.001518
0.000470
0.000313
0.000426
0.000318
0.000295
0.000174
0.000057
0.000229
0.000238
0.000261
0.000256
0.000247
0.000264
0.001708
0.000240
0.000234
0.000259
0.000335
0.000402
0.001457
0.000375
0.000370
0.000238
0.000254
0.000241
0.000261
0.000280
0.001530
0.000570
0.000388
0.000299
0.000237
0.000253
0.000258
0.000282
0.000244
0.000252
0.000216
0.000056
0.000218
0.000221
0.000274
0.000246
0.000264
0.000301
0.000253
0.000261
0.000245
0.000252
0.000252
0.000250
0.000290
0.000241
0.000269
0.001478
0.000291
0.000215
0.000273
0.000276
0.000275
0.000250
0.000430
0.001276
0.000274
0.000239
0.000288
0.000231
0.000402
0.000242
0.000198
0.000056
0.000206
0.000247
0.000221
0.000248
0.000239
0.000228
0.000236
0.001694
0.000257
0.000215
0.000362
0.000283
0.000208
0.000223
0.000255
0.001386
0.000232
0.000262
0.000265
0.000251
0.000260
0.000353
0.000292
0.001291
0.000277
0.000258
0.000244
0.000273
0.001387
0.000283
0.000227
0.000056
0.000278
0.000331
0.000210
0.000234
0.000266
0.000242
0.000270
0.000252
0.000257
0.000251
0.000257
0.000262
0.000264
0.000241
0.000374
0.001457
0.000227
0.000267
0.000253
0.000247
0.000303
0.000246
0.000250
0.001503
0.000343
0.000242
0.000271
0.001264
0.000263
0.000259
0.000259
0.000056
0.000251
0.000376
0.000312
0.000217
0.000227
0.000243
0.000269
0.000252
0.000266
0.000271
0.000235
0.000251
0.000261
0.000278
0.000401
0.001225
0.000241
0.000249
0.000259
0.000278
0.000234
0.000236
0.000257
0.000389
0.001220
0.000253
0.000240
0.000256
0.000257
0.001341
0.000321
0.000057
0.000264
0.000204
0.000230
0.000224
0.000247
0.000253
0.000241
0.000253
0.000298
0.000231
0.000243
0.000251
0.000298
0.000333
0.000383
0.001444
0.000227
0.000246
0.000299
0.000512
0.000286
0.001474
0.000333
0.000241
0.000236
0.000274
0.000240
0.001330
0.000335
0.000458
0.000346
0.000056
0.000223
0.000253
0.000255
0.000261
0.000273
0.000231
0.000269
0.000264
0.000245
0.000278
0.000322
0.000434
0.001338
0.000243
0.000269
0.000263
0.000277
0.000237
0.000231
0.000247
0.000409
0.001177
0.000264
0.000233
0.000252
0.000251
0.001458
0.000531
0.000429
0.000223
0.000190
0.000056
0.000206
0.000230
0.000249
0.000240
0.000248
0.000267
0.000240
0.000300
0.000536
0.000386
0.000221
0.001499
0.000217
0.000232
0.000266
0.000252
0.000264
0.000297
0.001681
0.000264
0.000370
0.000343
0.001315
0.000382
0.000247
0.000349
0.000229
0.000269
0.000259
0.000270
0.000193
0.000057
0.000210
0.000241
0.000328
0.000261
0.000506
0.000377
0.000239
0.000294
0.001476
0.000248
0.000391
0.000243
0.000244
0.000327
0.000357
0.001307
0.000267
0.000236
0.000243
0.000275
0.001544
0.000348
0.000293
0.000279
0.000244
0.000244
0.000458
0.000332
0.000256
0.000242
0.000258
0.000056
0.000235
0.000373
0.000343
0.000242
0.000274
0.001484
0.000225
0.000234
0.000265
0.000271
0.000266
0.000249
0.000329
0.001455
0.000254
0.000226
0.000454
0.001169
0.000329
0.000553
0.000293
0.000244
0.000244
0.000251
0.000299
0.000226
0.000452
0.000230
0.000266
0.000269
0.000202
0.000056
0.000204
0.000270
0.000346
0.000432
0.001235
0.000276
0.000330
0.000228
0.000236
0.000238
0.000246
0.000332
0.001504
0.000238
0.000232
0.000259
0.001363
0.000345
0.000493
0.000351
0.000333
0.000234
0.000255
0.000245
0.000284
0.000282
0.000239
0.000267
0.000268
0.000249
0.000229
0.000056
0.000250
0.000396
0.001427
0.000211
0.000270
0.000301
0.000218
0.000248
0.000268
0.000402
0.001365
0.000215
0.000258
0.000259
0.000264
0.001304
0.000635
0.000300
0.000333
0.000409
0.000299
0.000249
0.000286
0.000242
0.000267
0.000290
0.000277
0.000336
0.000424
0.000399
0.001388
0.000056
0.000189
0.000246
0.000240
0.000228
0.000339
0.000436
0.000413
0.001250
0.000249
0.000238
0.000262
0.001366
0.000605
0.000219
0.000210
0.000423
0.000239
0.000248
0.000259
0.000291
0.000249
0.000252
0.000276
0.000258
0.000248
0.000329
0.000486
0.000444
0.001452
0.000232
0.000177
0.000057
0.000199
0.000254
0.000394
0.000535
0.001199
0.000305
0.000231
0.000274
0.000224
0.000252
0.000256
0.000315
0.000368
0.000481
0.000290
0.000243
0.000251
0.000268
0.000244
0.000307
0.000236
0.000282
0.000234
0.000266
0.000257
0.000404
0.000613
0.000186
0.000334
0.001411
0.000173
0.000057
0.000212
0.000239
0.000297
0.000442
0.000329
0.000303
0.000323
0.000334
0.000292
0.000263
0.000226
0.000262
0.000270
0.000289
0.000271
0.000276
0.000629
0.000221
0.000300
0.000388
0.000271
0.000407
0.000231
0.000237
0.000264
0.000263
0.000252
0.000299
0.000477
0.000430
0.000231
0.000056
0.000204
0.001410
0.000248
0.000310
0.000443
0.000455
0.000310
0.000329
0.000202
0.000253
0.000255
0.000245
0.000286
0.000278
0.000234
0.000255
0.000262
0.001397
0.000215
0.000258
0.000261
0.000269
0.000270
0.000278
0.000268
0.000254
0.000277
0.000246
0.000375
0.000434
0.000210
0.000056
0.000208
0.000242
0.000240
0.001503
0.000322
0.000239
0.000228
0.000256
0.000220
0.000249
0.000254
0.000282
0.000243
0.000247
0.000300
0.000223
0.000247
0.000267
0.000258
0.000268
0.001418
0.000240
0.000234
0.000288
0.000257
0.000244
0.000266
0.000259
0.000282
0.000500
0.000336
0.000055
0.000224
0.000221
0.000398
0.000290
0.000235
0.000276
0.001541
0.000392
0.000222
0.000220
0.000278
0.000300
0.000330
0.000230
0.000230
0.000266
0.000229
0.000263
0.000259
0.000259
0.000525
0.000500
0.001087
0.000270
0.000239
0.000256
0.000270
0.000260
0.000304
0.000244
0.000436
0.000059
0.000225
0.000328
0.000229
0.000228
0.000250
0.000235
0.000247
0.000229
0.000291
0.001605
0.000383
0.000278
0.000237
0.000245
0.000263
0.000244
0.000260
0.000274
0.000260
0.000311
0.000338
0.000555
0.000365
0.001353
0.000237
0.000276
0.000259
0.000254
0.000269
0.000356
0.000423
0.000058
0.000273
0.000262
0.000224
0.000235
0.000214
0.000246
0.000258
0.000284
0.000255
0.001547
0.000387
0.000256
0.000239
0.000260
0.000460
0.000256
0.000551
0.000370
0.000271
0.000267
0.000518
0.000449
0.001281
0.000251
0.000244
0.000255
0.001749
0.000467
0.000611
0.000273
0.000144
0.000057
0.000210
0.000237
0.000233
0.000236
0.000277
0.000225
0.000246
0.000519
0.000494
0.000403
0.000294
0.000210
0.000243
0.000262
0.000280
0.000275
0.000234
0.000240
0.000251
0.000285
0.000286
0.000499
0.001233
0.000229
0.000246
0.000279
0.001953
0.000325
0.000392
0.000333
0.000161
0.000056
0.000251
0.000238
0.000245
0.001765
0.000225
0.000215
0.000238
0.000257
0.000255
0.000276
0.000382
0.000370
0.000369
0.000294
0.000335
0.000504
0.000400
0.001190
0.000237
0.000230
0.000248
0.000266
0.000271
0.000399
0.000693
0.000386
0.000264
0.000259
0.000266
0.000280
0.000195
0.000056
0.000190
0.000233
0.000240
0.001584
0.000219
0.000226
0.000238
0.000255
0.000242
0.000253
0.000254
0.000268
0.000271
0.000272
0.000296
0.000405
0.000410
0.000304
0.001383
0.000234
0.000260
0.000257
0.000254
0.000283
0.000389
0.000492
0.000425
0.000260
0.000277
0.000234
0.000445
0.000056
0.000194
0.000238
0.000271
0.001603
0.000226
0.000219
0.000267
0.000243
0.000252
0.000254
0.000256
0.000272
0.000237
0.000275
0.000362
0.000652
0.001265
0.000755
0.000252
0.000333
0.000242
0.000250
0.000244
0.000279
0.001677
0.000806
0.000232
0.000258
0.000279
0.000285
0.000191
0.000056
0.000205
0.000226
0.000253
0.000243
0.000280
0.000254
0.000212
0.000251
0.000242
0.000233
0.000292
0.000294
0.000239
0.000251
0.000263
0.000249
0.000269
0.001600
0.000722
0.000415
0.000246
0.000241
0.000244
0.000308
0.000249
0.000252
0.000271
0.000256
0.001430
0.000462
0.000229
0.000057
0.000198
0.000233
0.000266
0.000235
0.000264
0.000226
0.000276
0.000231
0.000251
0.000267
0.000299
0.000455
0.000369
0.000343
0.000205
0.000252
0.000271
0.001380
0.000728
0.000481
0.000309
0.000254
0.000237
0.000246
0.000270
0.000262
0.000246
0.000284
0.001481
0.000425
0.000189
0.000056
0.000189
0.000234
0.000244
0.000246
0.000252
0.000242
0.000243
0.000247
0.000273
0.000285
0.000388
0.000392
0.000274
0.000212
0.000248
0.000242
0.000262
0.000261
0.001627
0.000585
0.000451
0.000321
0.000228
0.000250
0.000269
0.000255
0.000269
0.000279
0.000276
0.001485
0.000202
0.000055
0.000196
0.000218
0.000238
0.000254
0.000256
0.000243
0.000251
0.000319
0.000341
0.000470
0.000379
0.000346
0.000360
0.000227
0.000245
0.000252
0.000300
0.000238
0.000269
0.001887
0.000358
0.000226
0.000459
0.000238
0.000255
0.000258
0.000270
0.000255
0.000286
0.000260
0.000414
0.000056
0.000219
0.000259
0.000230
0.000240
0.000256
0.000249
0.000226
0.000245
0.000296
0.000239
0.000230
0.000248
0.000369
0.000443
0.000368
0.000447
0.000222
0.000269
0.000247
0.000253
0.000253
0.000283
0.001468
0.001055
0.000232
0.000256
0.000264
0.000258
0.000282
0.000248
0.000203
0.000055
0.000225
0.001324
0.000295
0.000205
0.000234
0.000255
0.000253
0.000235
0.000244
0.000262
0.000246
0.000262
0.000283
0.000327
0.000377
0.000453
0.000278
0.000257
0.000259
0.000272
0.000279
0.000215
0.000260
0.000270
0.001305
0.000691
0.000312
0.000379
0.000375
0.000403
0.000301
0.000056
0.000212
0.000271
0.000475
0.001170
0.000214
0.000255
0.000240
0.000247
0.000259
0.000251
0.000265
0.000231
0.000268
0.000739
0.000213
0.000270
0.000229
0.000273
0.000328
0.000221
0.000243
0.000272
0.000236
0.000266
0.001576
0.000224
0.000748
0.000321
0.000257
0.000270
0.000200
0.000057
0.000209
0.000315
0.000404
0.000316
0.001305
0.000250
0.000224
0.000242
0.000230
0.000249
0.000247
0.000257
0.000235
0.000234
0.000266
0.000243
0.000264
0.000237
0.000259
0.000255
0.000265
0.000294
0.000382
0.000256
0.000187
0.000270
0.000269
0.001475
0.000253
0.000232
0.000178
0.000057
0.000208
0.000231
0.000249
0.000259
0.000354
0.000375
0.000395
0.000302
0.001556
0.000278
0.000264
0.000459
0.000383
0.000222
0.000441
0.000218
0.000245
0.000259
0.000272
0.000273
0.000280
0.000264
0.000257
0.000268
0.000259
0.000420
0.000443
0.000268
0.001584
0.000222
0.000196
0.000056
0.000242
0.000236
0.000266
0.000233
0.000237
0.000244
0.000257
0.000317
0.000414
0.002025
0.000251
0.000227
0.000251
0.000261
0.000262
0.000253
0.000266
0.000256
0.000344
0.000366
0.000440
0.000371
0.001445
0.000256
0.000228
0.002013
0.000288
0.000240
0.000258
0.001520
0.000179
0.000056
0.000297
0.000506
0.000420
0.000220
0.000281
0.000234
0.000238
0.000289
0.000242
0.000222
0.000258
0.000430
0.000335
0.000376
0.000400
0.000216
0.000246
0.001563
0.000229
0.000596
0.001863
0.000304
0.000225
0.001721
0.001845
0.000737
0.000278
0.000302
0.000256
0.000435
0.000379
0.000056
0.000218
0.000231
0.000284
0.000220
0.001419
0.001733
0.001070
0.000206
0.000252
0.001571
0.001976
0.000227
0.000228
0.000422
0.000356
0.000310
0.000393
0.000497
0.000204
0.000247
0.000270
0.000234
0.000277
0.001643
0.001148
0.001422
0.000300
0.000283
0.000255
0.000372
0.000322
0.000058
0.000231
0.000220
0.000232
0.000240
0.000227
0.000269
0.000229
0.000257
0.000261
0.000239
0.000246
0.000440
0.000325
0.000423
0.000311
0.000247
0.000255
0.000270
0.000263
0.000285
0.000238
0.000264
0.001544
0.000440
0.002119
0.000231
0.000277
0.000387
0.000432
0.000359
0.000160
0.000056
0.000270
0.000331
0.000436
0.000310
0.000210
0.000218
0.000255
0.000239
0.000239
0.000243
0.000246
0.000265
0.000263
0.001609
0.001397
0.001187
0.000273
0.000243
0.000232
0.000279
0.000282
0.000277
0.000241
0.000258
0.002202
0.000259
0.000248
0.000294
0.000324
0.000310
0.000216
0.000056
0.000226
0.000540
0.000386
0.000324
0.000213
0.000233
0.000243
0.000276
0.001948
0.001371
0.000220
0.000322
0.000382
0.000411
0.000267
0.000237
0.000245
0.000269
0.000264
0.000259
0.000260
0.000265
0.000471
0.000236
0.000275
0.000262
0.000250
0.000281
0.000278
0.000249
0.000204
0.000056
0.000193
0.000244
0.000244
0.000241
0.000280
0.000256
0.001535
0.001451
0.001288
0.000249
0.000224
0.000245
0.000262
0.000265
0.000252
0.000259
0.000234
0.002091
0.000252
0.000250
0.000261
0.000261
0.000252
0.000268
0.000271
0.000250
0.000273
0.000260
0.000269
0.000253
0.000180
0.000055
0.000211
0.002676
0.001403
0.000218
0.000319
0.000311
0.000214
0.000280
0.000232
0.000240
0.000248
0.000246
0.000237
0.000250
0.000269
0.000260
0.000263
0.000279
0.000258
0.000249
0.000266
0.000285
0.000276
0.000257
0.000258
0.000242
0.000263
0.000277
0.000275
0.000252
0.000365
0.000056
0.001541
0.000267
0.001221
0.000239
0.000214
0.000245
0.000275
0.000259
0.000227
0.000339
0.000388
0.000307
0.000330
0.000208
0.000253
0.002144
0.000239
0.000245
0.000261
0.000549
0.000394
0.000242
0.000235
0.000255
0.000257
0.000253
0.000263
0.000282
0.000265
0.001654
0.001221
0.000057
0.000213
0.000261
0.000321
0.000375
0.000318
0.000277
0.000211
0.000239
0.000249
0.000256
0.000267
0.000245
0.000225
0.000255
0.000266
0.000242
0.000380
0.000608
0.000315
0.000236
0.000230
0.000273
0.000288
0.000249
0.000251
0.000247
0.000266
0.000278
0.000238
0.000355
0.000397
0.000057
0.001122
0.000386
0.000287
0.000381
0.000266
0.000219
0.000237
0.000242
0.000253
0.002343
0.000313
0.000391
0.000229
0.000375
0.000306
0.000252
0.000243
0.000253
0.000270
0.000225
0.000251
0.000441
0.000584
0.000293
0.001881
0.001314
0.000573
0.000486
0.000230
0.000283
0.000200
0.000055
0.000224
0.000357
0.000251
0.000243
0.000250
0.000223
0.000257
0.000253
0.000254
0.000246
0.000257
0.000229
0.000247
0.000325
0.000367
0.000453
0.001834
0.001413
0.000410
0.000509
0.000355
0.000234
0.000235
0.000256
0.002158
0.000581
0.000332
0.000237
0.000278
0.000283
0.000196
0.000056
0.000214
0.000240
0.000261
0.000246
0.000241
0.000361
0.000399
0.000369
0.000254
0.000223
0.000241
0.000252
0.000269
0.002172
0.000448
0.000237
0.000209
0.000258
0.000285
0.000240
0.000247
0.002513
0.000282
0.000231
0.000250
0.000254
0.000255
0.000272
0.000309
0.000254
0.000191
0.000056
0.000224
0.000418
0.000517
0.000313
0.000263
0.000222
0.000225
0.000255
0.000265
0.000250
0.002024
0.000343
0.000253
0.000267
0.000250
0.000262
0.000272
0.000237
0.002476
0.000205
0.000200
0.000262
0.000276
0.000258
0.000250
0.000253
0.000305
0.000236
0.000264
0.000270
0.000181
0.000055
0.000219
0.000239
0.000266
0.000202
0.000249
0.000258
0.000237
0.000243
0.000232
0.002189
0.000226
0.000279
0.000218
0.000429
0.000218
0.000262
0.000300
0.000270
0.000243
0.000259
0.001998
0.000236
0.000338
0.000362
0.000445
0.000401
0.000299
0.000260
0.000252
0.000256
0.000206
0.000056
0.000202
0.000257
0.000220
0.000253
0.000249
0.000329
0.000222
0.002301
0.000254
0.000219
0.000262
0.000252
0.000243
0.000276
0.000273
0.002130
0.000588
0.000228
0.000251
0.000241
0.000257
0.000257
0.000295
0.000265
0.000260
0.000257
0.000285
0.000255
0.000265
0.000268
0.000192
0.000056
0.001814
0.001441
0.000204
0.000223
0.000246
0.000251
0.000255
0.000328
0.000369
0.000340
0.002159
0.000266
0.000222
0.000274
0.000353
0.000480
0.000349
0.000310
0.000225
0.000238
0.000257
0.000265
0.000263
0.000224
0.000266
0.000262
0.000272
0.000267
0.000682
0.000299
0.000321
0.000057
0.000206
0.000257
0.000239
0.000255
0.000266
0.000256
0.000242
0.000245
0.001567
0.002030
0.000585
0.000272
0.000460
0.000714
0.000281
0.000241
0.000246
0.000250
0.000260
0.000266
0.000255
0.000244
0.000246
0.000273
0.003009
0.000337
0.000253
0.000248
0.000303
0.000314
0.000437
0.000056
0.001948
0.000216
0.000227
0.000244
0.000290
0.000401
0.000412
0.000297
0.000291
0.000219
0.000240
0.000247
0.000260
0.000258
0.000262
0.000256
0.000261
0.000283
0.001825
0.000240
0.000231
0.000256
0.000276
0.000274
0.000273
0.000267
0.001444
0.000347
0.000253
0.000247
0.000176
0.000056
0.000203
0.000235
0.000240
0.000238
0.000275
0.000216
0.000374
0.000292
0.000319
0.000390
0.000236
0.000234
0.000262
0.000321
0.000424
0.000323
0.000223
0.000251
0.000285
0.000539
0.000344
0.000360
0.000254
0.000262
0.000253
0.000252
0.000260
0.000271
0.000276
0.000261
0.000203
0.000057
0.001391
0.000445
0.000223
0.001941
0.000310
0.000525
0.000308
0.000307
0.000233
0.000242
0.000262
0.000245
0.000251
0.000243
0.000270
0.000253
0.000465
0.000322
0.000362
0.000357
0.000365
0.000233
0.000255
0.000268
0.000270
0.000277
0.000254
0.000271
0.000391
0.000494
0.001303
0.000057
0.000206
0.000224
0.002077
0.000335
0.000301
0.000236
0.000256
0.000246
0.000262
0.000267
0.000214
0.000253
0.000251
0.000263
0.000317
0.000436
0.000573
0.001764
0.000230
0.000257
0.000240
0.000290
0.000463
0.000375
0.001525
0.000297
0.000363
0.001922
0.000268
0.000244
0.000203
0.000056
0.000191
0.000228
0.000233
0.000245
0.000226
0.000249
0.000256
0.000282
0.000328
0.000268
0.000387
0.000352
0.000344
0.000287
0.000246
0.000268
0.000261
0.000251
0.000256
0.000254
0.000311
0.000290
0.000257
0.000257
0.000272
0.001545
0.000301
0.000350
0.002056
0.000232
0.000183
0.000056
0.000205
0.000241
0.000241
0.000248
0.000487
0.000208
0.000253
0.000347
0.000374
0.000305
0.000295
0.000205
0.000267
0.000261
0.000272
0.000325
0.000426
0.000426
0.000254
0.000405
0.000532
0.000525
0.001504
0.000220
0.000262
0.002024
0.000272
0.000259
0.000236
0.000295
0.000192
0.000056
0.000214
0.000238
0.000228
0.000244
0.000250
0.000277
0.000250
0.000270
0.000276
0.000288
0.001755
0.000312
0.000387
0.000289
0.000456
0.000398
0.000395
0.001451
0.000213
0.000285
0.002222
0.000470
0.000245
0.000234
0.000271
0.000267
0.000506
0.000218
0.000262
0.000272
0.000203
0.000056
0.000293
0.000332
0.000343
0.000296
0.000207
0.000238
0.000262
0.000249
0.000265
0.000283
0.000236
0.000255
0.000256
0.000360
0.000303
0.000468
0.001255
0.000269
0.000275
0.001991
0.000289
0.000295
0.000232
0.000262
0.000248
0.000276
0.000263
0.000267
0.000254
0.000262
0.000209
0.000057
0.000223
0.000481
0.001956
0.000256
0.000220
0.000256
0.000249
0.000379
0.000392
0.000392
0.001293
0.000371
0.000358
0.002079
0.000220
0.000240
0.000264
0.000277
0.000248
0.000249
0.000281
0.000294
0.000261
0.000382
0.000523
0.000321
0.000273
0.002252
0.000539
0.000416
0.000412
0.000056
0.000193
0.000236
0.000247
0.001962
0.000230
0.000233
0.000244
0.000237
0.000246
0.000259
0.000240
0.000261
0.000296
0.000326
0.000440
0.001377
0.000255
0.000241
0.000271
0.000259
0.000231
0.000252
0.000260
0.000340
0.000282
0.000589
0.000320
0.000229
0.001595
0.000270
0.000175
0.000057
0.000208
0.000216
0.000247
0.000235
0.000261
0.000267
0.000228
0.000247
0.000255
0.000436
0.000367
0.001351
0.000223
0.000238
0.000248
0.000287
0.000229
0.000254
0.000322
0.000489
0.000467
0.000355
0.000231
0.001562
0.000233
0.000261
0.000284
0.000283
0.000260
0.000277
0.000195
0.000055
0.000205
0.000240
0.000293
0.000241
0.000254
0.000239
0.000237
0.000243
0.000276
0.000225
0.000264
0.000238
0.000272
0.001475
0.000356
0.000215
0.000245
0.000269
0.000273
0.000316
0.000361
0.000285
0.000243
0.000257
0.000260
0.000284
0.000245
0.001409
0.000284
0.000231
0.000176
0.000056
0.000215
0.000229
0.000263
0.000261
0.000267
0.000220
0.000246
0.000262
0.000221
0.000263
0.000245
0.000256
0.000246
0.000318
0.000414
0.000290
0.000261
0.000234
0.001637
0.000247
0.000233
0.000264
0.000266
0.000332
0.000338
0.000366
0.000458
0.000285
0.000238
0.001600
0.000163
0.000056
0.000361
0.000319
0.000432
0.000215
0.000238
0.000217
0.000244
0.000271
0.000255
0.000257
0.000227
0.000238
0.001493
0.000303
0.000258
0.000232
0.000267
0.000262
0.000245
0.000266
0.000254
0.000235
0.000256
0.000269
0.000266
0.000442
0.000467
0.000281
0.000265
0.000243
0.000198
0.000055
0.000209
0.000278
0.000510
0.000255
0.000366
0.000274
0.000248
0.000249
0.000251
0.000256
0.000248
0.000222
0.000254
0.000247
0.001297
0.000269
0.000224
0.000256
0.000265
0.000283
0.000220
0.000267
0.000253
0.000263
0.000249
0.000266
0.000343
0.000736
0.000371
0.000231
0.000181
0.000056
0.000202
0.001555
0.000255
0.000424
0.000424
0.000318
0.000215
0.000256
0.000267
0.000262
0.000231
0.000261
0.000269
0.000267
0.000265
0.001528
0.000253
0.000274
0.000265
0.000272
0.000259
0.000242
0.000267
0.000258
0.000259
0.000303
0.000375
0.000429
0.000332
0.000224
0.000195
0.000056
0.000212
0.000249
0.000242
0.001599
0.000456
0.000327
0.000218
0.000239
0.000256
0.000271
0.000277
0.000265
0.000244
0.000257
0.000235
0.000261
0.000444
0.001288
0.000244
0.000238
0.001493
0.000391
0.000567
0.000320
0.000340
0.000237
0.000272
0.000468
0.000229
0.000265
0.000189
0.000057
0.000190
0.000239
0.000233
0.000245
0.000247
0.000274
0.000220
0.000256
0.000275
0.000235
0.000241
0.000256
0.000441
0.000429
0.001611
0.001538
0.000303
0.000563
0.000317
0.000223
0.000231
0.000255
0.000251
0.000271
0.000253
0.000265
0.000259
0.000267
0.001520
0.000339
0.000178
0.000056
0.000198
0.000343
0.000350
0.000335
0.000250
0.000221
0.000238
0.000370
0.000488
0.000300
0.002164
0.000315
0.000788
0.000591
0.000304
0.000245
0.000335
0.000392
0.000327
0.000282
0.000396
0.000270
0.001522
0.000537
0.000217
0.000259
0.000261
0.000252
0.000273
0.000266
0.000202
0.000057
0.000207
0.000247
0.000263
0.000243
0.000245
0.001658
0.000886
0.000987
0.000213
0.000242
0.000265
0.000244
0.000258
0.000262
0.000252
0.000246
0.000255
0.000265
0.000268
0.000295
0.001411
0.000324
0.000250
0.000230
0.000232
0.000269
0.000255
0.000288
0.000259
0.000285
0.001887
0.000056
0.000193
0.000235
0.001559
0.000883
0.000349
0.000411
0.000196
0.000205
0.000267
0.000245
0.000251
0.000247
0.000245
0.002035
0.000420
0.000223
0.000242
0.000254
0.000268
0.000260
0.000193
