0.000121
0.019779
0.001928
0.000299
0.000264
0.000295
0.000323
0.000232
0.000326
0.000285
0.000252
0.000333
0.000522
0.000466
0.000420
0.000324
0.000281
0.000341
0.000353
0.000425
0.000314
0.001926
0.000691
0.000268
0.000257
0.000290
0.000322
0.000305
0.000422
0.000462
0.000431
0.000285
0.000058
0.000212
0.000270
0.000269
0.000292
0.000248
0.000252
0.000275
0.000295
0.000259
0.000292
0.000403
0.000430
0.000321
0.000253
0.000376
0.000351
0.000365
0.000241
0.000252
0.001704
0.000311
0.000260
0.000449
0.000272
0.000253
0.000271
0.000298
0.000292
0.000277
0.000381
0.000355
0.000058
0.000197
0.000246
0.000264
0.000253
0.000261
0.000245
0.000265
0.000257
0.000281
0.001671
0.000224
0.000233
0.000281
0.000259
0.000281
0.000252
0.000258
0.000264
0.000349
0.001795
0.000240
0.000276
0.000448
0.000431
0.000383
0.000234
0.000335
0.000430
0.000506
0.000738
0.000193
0.000056
0.000232
0.000247
0.000258
0.000232
0.000315
0.000253
0.000298
0.000569
0.000362
0.000288
0.000222
0.000250
0.000237
0.000253
0.000257
0.000256
0.000245
0.000270
0.000302
0.000330
0.001660
0.000272
0.000249
0.000423
0.000305
0.000726
0.000640
0.000511
0.000356
0.000250
0.000175
0.000056
0.000192
0.000248
0.000290
0.000214
0.000288
0.000228
0.000255
0.000451
0.001494
0.000224
0.000237
0.000246
0.000254
0.000250
0.000265
0.000299
0.000296
0.000779
0.001384
0.000302
0.000239
0.000407
0.000247
0.000245
0.000257
0.000264
0.000257
0.000277
0.000261
0.000270
0.000194
0.000056
0.000194
0.000239
0.000238
0.000274
0.000240
0.000273
0.000209
0.000254
0.000231
0.000259
0.001633
0.000260
0.000240
0.000239
0.000254
0.000245
0.000252
0.000242
0.000262
0.000247
0.000297
0.001642
0.000284
0.000262
0.000427
0.000250
0.000261
0.000255
0.000262
0.000278
0.000191
0.000056
0.000196
0.000230
0.000248
0.000270
0.000223
0.000246
0.000260
0.000238
0.000263
0.000263
0.000246
0.000256
0.000259
0.000273
0.001637
0.000279
0.000297
0.000216
0.000244
0.000277
0.000271
0.000232
0.000244
0.000269
0.001785
0.000406
0.000333
0.000368
0.000238
0.000279
0.000218
0.000056
0.000201
0.000237
0.000249
0.000264
0.000263
0.000283
0.000248
0.000426
0.000459
0.000349
0.000206
0.000250
0.000257
0.000243
0.001588
0.000518
0.000341
0.000378
0.000320
0.000230
0.000266
0.000286
0.000268
0.001759
0.000485
0.000470
0.000243
0.000241
0.000259
0.000260
0.000185
0.000056
0.000203
0.000227
0.000255
0.000311
0.000278
0.000446
0.000391
0.000276
0.000213
0.000251
0.000253
0.000242
0.000255
0.001697
0.000491
0.000303
0.000224
0.000254
0.000274
0.000284
0.000244
0.000257
0.000274
0.001880
0.000319
0.000384
0.000253
0.000250
0.000258
0.000405
0.000326
0.000055
0.000211
0.000390
0.000357
0.000266
0.000257
0.000251
0.000247
0.000260
0.000237
0.000236
0.000238
0.000249
0.001559
0.000319
0.000343
0.000223
0.000255
0.000251
0.000252
0.000307
0.000283
0.000297
0.000246
0.001802
0.000255
0.000504
0.000253
0.000245
0.000256
0.000269
0.000264
0.000056
0.000371
0.000553
0.000590
0.000209
0.000231
0.000279
0.000230
0.000225
0.000257
0.000257
0.000252
0.001701
0.000244
0.000444
0.000364
0.000222
0.000241
0.000224
0.000252
0.000264
0.000390
0.001717
0.000227
0.000476
0.001858
0.000550
0.000353
0.000231
0.000255
0.000266
0.000179
0.000056
0.000216
0.000235
0.000249
0.000240
0.000259
0.001630
0.000245
0.000233
0.000253
0.000251
0.000247
0.000238
0.000254
0.000258
0.000278
0.000410
0.000635
0.000241
0.000231
0.000275
0.000293
0.000220
0.000243
0.000434
0.000431
0.000277
0.000388
0.000490
0.000442
0.000284
0.000199
0.000057
0.000196
0.000239
0.000252
0.000252
0.000235
0.000257
0.000221
0.000366
0.000487
0.001717
0.000200
0.000236
0.000246
0.000244
0.000278
0.000260
0.000532
0.000373
0.000353
0.000234
0.000263
0.000323
0.000259
0.000255
0.000266
0.000438
0.000341
0.000603
0.000479
0.000434
0.000180
0.000056
0.000201
0.000270
0.000227
0.000239
0.000232
0.000239
0.000247
0.000263
0.000228
0.000290
0.000344
0.000469
0.001360
0.000240
0.000233
0.000251
0.000261
0.000248
0.000256
0.000253
0.000273
0.000455
0.000401
0.000274
0.000262
0.000257
0.000259
0.000273
0.000256
0.000268
0.000382
0.000056
0.000208
0.000237
0.000231
0.000302
0.000501
0.000452
0.000215
0.000287
0.000206
0.000265
0.000258
0.000225
0.000324
0.000226
0.000234
0.000482
0.000455
0.001605
0.000279
0.000232
0.000264
0.000260
0.000260
0.000243
0.000273
0.000494
0.000398
0.000353
0.000413
0.000253
0.000191
0.000056
0.000235
0.000434
0.000233
0.000213
0.000289
0.000224
0.000292
0.000560
0.000340
0.000314
0.000232
0.000260
0.000260
0.000240
0.000522
0.000333
0.000229
0.000263
0.000458
0.001574
0.000262
0.000241
0.000523
0.000250
0.000288
0.000273
0.000252
0.000348
0.000550
0.000373
0.000266
0.000056
0.000202
0.000226
0.000232
0.000247
0.000420
0.000308
0.000287
0.000221
0.000361
0.000476
0.000428
0.000246
0.000222
0.000251
0.000257
0.000267
0.000254
0.000257
0.000231
0.000351
0.000283
0.000396
0.001811
0.000217
0.000257
0.000252
0.000283
0.000360
0.000397
0.000731
0.000458
0.000055
0.000225
0.000337
0.000320
0.000402
0.000386
0.000204
0.000259
0.000372
0.000496
0.000350
0.000264
0.000237
0.000237
0.000279
0.000250
0.000235
0.000253
0.000274
0.000269
0.000257
0.000287
0.000357
0.000725
0.001306
0.000318
0.000433
0.000426
0.000238
0.000430
0.000423
0.000312
0.000055
0.000231
0.000379
0.000279
0.000208
0.000227
0.000248
0.000419
0.000233
0.000260
0.000441
0.000354
0.000420
0.000239
0.000256
0.000265
0.000264
0.000335
0.000412
0.000323
0.000251
0.000248
0.000418
0.000587
0.001698
0.000222
0.000427
0.000314
0.000229
0.000262
0.000461
0.000321
0.000055
0.000201
0.000224
0.000248
0.000258
0.000254
0.000231
0.000248
0.000329
0.000460
0.000285
0.000424
0.000364
0.000305
0.000574
0.000245
0.000244
0.000275
0.000267
0.000223
0.000354
0.000204
0.000261
0.000269
0.000413
0.000455
0.001699
0.000268
0.000230
0.000252
0.000267
0.000190
0.000056
0.000352
0.000428
0.000344
0.000206
0.000256
0.000244
0.000254
0.000246
0.000268
0.000233
0.000227
0.000260
0.000407
0.000507
0.000430
0.000268
0.000237
0.000256
0.000343
0.000380
0.000384
0.000335
0.000361
0.000396
0.000263
0.000241
0.000268
0.000268
0.001798
0.000236
0.000208
0.000055
0.000211
0.000217
0.000272
0.000289
0.000332
0.000538
0.000322
0.000217
0.000283
0.000237
0.000249
0.000246
0.000520
0.000450
0.000488
0.000264
0.000275
0.000257
0.000421
0.000467
0.000355
0.000416
0.000490
0.000438
0.000242
0.000247
0.000264
0.000247
0.000258
0.001725
0.000317
0.000056
0.000297
0.000336
0.000197
0.000231
0.000255
0.000251
0.000235
0.000500
0.000376
0.000309
0.000290
0.000268
0.000400
0.000594
0.000354
0.000226
0.000255
0.000262
0.000250
0.000266
0.000280
0.000255
0.000260
0.000251
0.000339
0.000326
0.000404
0.000366
0.000226
0.000257
0.000198
0.000057
0.000439
0.000296
0.000460
0.000253
0.000207
0.000254
0.000242
0.000261
0.000242
0.000223
0.000245
0.000276
0.000306
0.000388
0.000488
0.000492
0.000303
0.000319
0.000371
0.000346
0.000293
0.000246
0.000240
0.000260
0.001747
0.000251
0.001726
0.000972
0.000352
0.000344
0.000165
0.000056
0.000204
0.000242
0.000236
0.000239
0.000273
0.000236
0.000252
0.000256
0.000236
0.000321
0.000380
0.000401
0.000346
0.000381
0.000271
0.000237
0.000243
0.000290
0.000235
0.000250
0.000248
0.000261
0.001809
0.000245
0.000253
0.000263
0.000276
0.000267
0.001879
0.000589
0.000194
0.000056
0.000213
0.000219
0.000238
0.000238
0.000267
0.000237
0.000240
0.000261
0.000262
0.000366
0.000534
0.000353
0.000360
0.000243
0.000239
0.000247
0.000333
0.000433
0.000371
0.000251
0.001775
0.000257
0.000253
0.000248
0.000259
0.000270
0.000245
0.000253
0.000325
0.000355
0.000322
0.000057
0.000252
0.000214
0.000244
0.000273
0.000238
0.000239
0.000257
0.000255
0.000235
0.000259
0.000241
0.000314
0.000350
0.000412
0.000354
0.000232
0.000462
0.000240
0.000246
0.000257
0.000262
0.000261
0.000272
0.000260
0.000274
0.001783
0.000253
0.000243
0.000270
0.000236
0.000207
0.000056
0.000395
0.000212
0.000222
0.000232
0.000239
0.000235
0.000236
0.000263
0.000242
0.000221
0.000239
0.000263
0.000259
0.000369
0.000395
0.000366
0.000306
0.000220
0.000251
0.000253
0.000259
0.000269
0.000245
0.000261
0.000260
0.000264
0.000320
0.001614
0.000265
0.000241
0.000195
0.000056
0.000209
0.000235
0.000248
0.000271
0.000342
0.000332
0.000408
0.000329
0.000225
0.000252
0.000270
0.000232
0.000238
0.000261
0.000262
0.000257
0.000245
0.000254
0.000253
0.000261
0.000270
0.000265
0.000249
0.000239
0.000242
0.000276
0.000280
0.000259
0.000257
0.000283
0.000166
0.000056
0.000242
0.000213
0.000257
0.000279
0.000228
0.000233
0.000247
0.000260
0.000280
0.000247
0.000225
0.000261
0.000243
0.000248
0.000297
0.000235
0.000256
0.000249
0.000305
0.000244
0.000279
0.000315
0.000269
0.000225
0.000305
0.000246
0.000270
0.000247
0.000287
0.000401
0.000716
0.000055
0.000216
0.000296
0.000226
0.000224
0.000232
0.000256
0.000238
0.000252
0.000252
0.000240
0.000271
0.000300
0.000474
0.000561
0.001461
0.000236
0.000485
0.000232
0.000278
0.000485
0.000420
0.000346
0.000225
0.000283
0.000246
0.000259
0.000280
0.000256
0.000326
0.000257
0.000166
0.000055
0.000289
0.000452
0.000327
0.000317
0.000251
0.000256
0.000220
0.000244
0.000236
0.000240
0.000258
0.000257
0.000230
0.000282
0.000385
0.000451
0.000397
0.001798
0.000255
0.000237
0.000332
0.000441
0.000392
0.000335
0.000320
0.000317
0.000302
0.000232
0.000231
0.000242
0.000201
0.000056
0.000226
0.000227
0.000237
0.000304
0.000354
0.000430
0.000349
0.000256
0.000260
0.000203
0.000251
0.000271
0.000269
0.000264
0.000242
0.000262
0.000308
0.000480
0.000338
0.000441
0.000228
0.001747
0.000329
0.000503
0.000511
0.000457
0.000326
0.000227
0.000271
0.000248
0.000447
0.000057
0.000210
0.000270
0.000215
0.000373
0.000295
0.000479
0.000391
0.000244
0.000223
0.000308
0.000227
0.000258
0.000252
0.000296
0.000307
0.000247
0.000254
0.000384
0.000438
0.000342
0.000494
0.001844
0.000276
0.000428
0.000485
0.000362
0.000232
0.000257
0.000305
0.000265
0.000188
0.000056
0.000215
0.000331
0.000364
0.000430
0.000336
0.000245
0.000379
0.000219
0.000237
0.000257
0.000275
0.000230
0.000249
0.000256
0.000248
0.000256
0.000417
0.000304
0.000480
0.000377
0.000285
0.000240
0.000259
0.001708
0.000594
0.000338
0.000688
0.000241
0.000259
0.000308
0.000162
0.000056
0.000190
0.000238
0.000350
0.000228
0.000286
0.000359
0.000413
0.000311
0.000253
0.000507
0.000233
0.000251
0.000274
0.000262
0.000276
0.000259
0.000220
0.000368
0.000456
0.000436
0.000254
0.000228
0.000260
0.000253
0.000258
0.000269
0.000241
0.000250
0.000266
0.000291
0.000198
0.000056
0.000360
0.000314
0.000217
0.000262
0.000247
0.000255
0.000241
0.000290
0.000240
0.000249
0.000275
0.000335
0.000488
0.000337
0.000387
0.000229
0.000225
0.000234
0.000258
0.000268
0.000288
0.000271
0.000245
0.000239
0.000278
0.000367
0.000337
0.000401
0.000360
0.000230
0.000177
0.000056
0.000216
0.000225
0.000282
0.000244
0.000237
0.000273
0.000263
0.000235
0.000487
0.000216
0.000255
0.000261
0.000236
0.000262
0.000272
0.000299
0.000241
0.000355
0.000208
0.000257
0.000244
0.000268
0.000254
0.000275
0.000273
0.000259
0.000258
0.000261
0.000261
0.000492
0.000165
0.000056
0.000206
0.000241
0.000260
0.000280
0.000195
0.000245
0.000373
0.000406
0.000228
0.000236
0.000252
0.000255
0.000238
0.000253
0.000401
0.001836
0.000232
0.000259
0.000292
0.000325
0.000408
0.000363
0.000367
0.000452
0.000339
0.000396
0.000243
0.000269
0.000272
0.000277
0.001391
0.000056
0.000378
0.000374
0.000190
0.000196
0.000242
0.000246
0.000236
0.000256
0.000242
0.000276
0.000243
0.000258
0.000252
0.000298
0.000542
0.001624
0.000232
0.000230
0.000243
0.000268
0.000237
0.000283
0.000403
0.000321
0.000427
0.000235
0.000222
0.000265
0.000274
0.000264
0.000208
0.000056
0.001319
0.000435
0.000353
0.000231
0.000244
0.000223
0.000228
0.000242
0.000514
0.000193
0.000239
0.000251
0.000356
0.000412
0.000482
0.000367
0.000240
0.000242
0.000321
0.000362
0.000267
0.000260
0.000267
0.000252
0.000256
0.000577
0.000528
0.000285
0.000267
0.000267
0.000170
0.000057
0.000202
0.000225
0.000241
0.000242
0.001456
0.000315
0.000222
0.000254
0.000260
0.000228
0.000251
0.000253
0.000243
0.000263
0.000271
0.000302
0.000390
0.000675
0.000274
0.001746
0.000253
0.000286
0.000297
0.000395
0.000570
0.000417
0.000241
0.000267
0.000249
0.000267
0.000194
0.000056
0.000216
0.000259
0.000230
0.000349
0.001223
0.000229
0.000261
0.000266
0.000237
0.000234
0.000236
0.000257
0.000274
0.000264
0.000235
0.000280
0.000522
0.000372
0.000328
0.000258
0.000268
0.000268
0.000248
0.000241
0.000279
0.000269
0.000239
0.000280
0.000278
0.000377
0.000608
0.000056
0.000213
0.000246
0.000236
0.000263
0.000275
0.000224
0.000234
0.000260
0.000293
0.000257
0.001423
0.000210
0.000245
0.000249
0.000249
0.000237
0.000298
0.000241
0.000284
0.000240
0.000326
0.000429
0.000452
0.000398
0.000232
0.000272
0.001762
0.000257
0.000257
0.000347
0.000411
0.000057
0.000195
0.000405
0.000452
0.000499
0.000515
0.000553
0.001492
0.000415
0.000515
0.000649
0.000555
0.000699
0.000502
0.000623
0.000583
0.001878
0.000406
0.000426
0.000418
0.000317
0.000222
0.000272
0.000287
0.000266
0.000262
0.000288
0.000291
0.000287
0.000259
0.000286
0.001367
0.000055
0.000216
0.000245
0.000236
0.000239
0.000254
0.000256
0.000239
0.000235
0.000247
0.000261
0.000238
0.000242
0.000256
0.000255
0.000261
0.000272
0.001805
0.000269
0.000261
0.000249
0.000249
0.000271
0.000265
0.000272
0.000437
0.000402
0.000335
0.000239
0.000266
0.000275
0.000209
0.000057
0.000211
0.001363
0.000327
0.000277
0.000245
0.000243
0.000241
0.000227
0.000242
0.000237
0.000227
0.000239
0.000249
0.000511
0.000364
0.000302
0.000242
0.001820
0.000357
0.000226
0.000250
0.000262
0.000257
0.000265
0.000278
0.000282
0.000268
0.000269
0.000247
0.000345
0.000177
0.000056
0.000224
0.000235
0.000251
0.001446
0.000214
0.000241
0.000260
0.000238
0.000239
0.000271
0.000249
0.000247
0.000242
0.000289
0.000234
0.000250
0.000263
0.000267
0.000266
0.000259
0.000257
0.001783
0.000273
0.001754
0.000266
0.000250
0.000272
0.000265
0.000265
0.000276
0.000202
0.000056
0.000207
0.000244
0.001344
0.000230
0.000247
0.000248
0.000261
0.000256
0.000241
0.000253
0.000257
0.000233
0.000258
0.000268
0.000259
0.000260
0.000262
0.000281
0.000307
0.000219
0.001881
0.000243
0.001817
0.000249
0.000270
0.000262
0.000228
0.000249
0.000259
0.000269
0.000196
0.000055
0.001434
0.000220
0.000231
0.000247
0.000237
0.000235
0.000374
0.000289
0.000241
0.000251
0.000247
0.000257
0.000257
0.000362
0.000377
0.000294
0.000241
0.000267
0.000272
0.000235
0.000282
0.000338
0.000225
0.000251
0.000267
0.000278
0.000274
0.000328
0.000667
0.000354
0.000190
0.000057
0.000185
0.000245
0.000265
0.000308
0.000364
0.000252
0.001670
0.000325
0.000284
0.000270
0.000258
0.000268
0.000268
0.000261
0.000306
0.000303
0.000328
0.000578
0.000390
0.000259
0.000292
0.000284
0.000260
0.000267
0.000335
0.000251
0.000274
0.000243
0.000255
0.000295
0.000418
0.000057
0.000362
0.000383
0.000254
0.000262
0.000250
0.000222
0.000227
0.000249
0.000261
0.000271
0.001487
0.000239
0.000221
0.000251
0.000245
0.000289
0.000281
0.000241
0.000253
0.000272
0.000258
0.000464
0.000409
0.000364
0.000262
0.000284
0.000281
0.000244
0.000239
0.000311
0.000168
0.000056
0.000210
0.000227
0.000292
0.000455
0.000358
0.000293
0.000217
0.000249
0.000253
0.000242
0.000244
0.000250
0.000255
0.000266
0.000242
0.000235
0.000459
0.001152
0.000249
0.000235
0.000298
0.000233
0.000350
0.000425
0.000249
0.000330
0.000560
0.000361
0.000393
0.000231
0.000178
0.000056
0.000245
0.000230
0.000261
0.000260
0.000255
0.000248
0.000337
0.000389
0.000437
0.000310
0.000353
0.000395
0.000394
0.000362
0.000259
0.000242
0.000235
0.000265
0.000390
0.000549
0.001184
0.000221
0.000276
0.000269
0.000236
0.000237
0.000261
0.000312
0.000417
0.000437
0.000247
0.000056
0.000219
0.000237
0.000251
0.000245
0.000237
0.000267
0.000212
0.000274
0.000299
0.000390
0.000349
0.000415
0.000252
0.000218
0.000255
0.000258
0.000249
0.000259
0.000267
0.000278
0.000414
0.000274
0.000323
0.000498
0.000264
0.000258
0.000270
0.000263
0.000254
0.000337
0.000161
0.000056
0.000341
0.000305
0.000277
0.000405
0.000426
0.000379
0.000244
0.000239
0.000243
0.000300
0.000229
0.000264
0.000234
0.000249
0.000252
0.000221
0.000265
0.000403
0.000487
0.000319
0.000238
0.000263
0.000243
0.000246
0.000260
0.000281
0.000270
0.000278
0.000268
0.000265
0.000251
0.000056
0.000370
0.000274
0.000215
0.000268
0.000226
0.000247
0.000245
0.000256
0.000261
0.000260
0.000262
0.000223
0.000298
0.000471
0.000443
0.000312
0.000221
0.000255
0.000251
0.000267
0.000254
0.000264
0.000252
0.000267
0.000279
0.000355
0.000408
0.000561
0.000405
0.000253
0.000176
0.000056
0.000395
0.000208
0.000220
0.000248
0.000255
0.000242
0.000237
0.000251
0.000254
0.000262
0.000221
0.000263
0.000253
0.000220
0.000255
0.000259
0.000252
0.000275
0.000287
0.000237
0.000275
0.000245
0.000268
0.000257
0.000265
0.000246
0.000263
0.000276
0.000256
0.000273
0.000204
0.000055
0.000193
0.000234
0.000250
0.000247
0.000246
0.000247
0.000257
0.000241
0.000256
0.000283
0.000227
0.000235
0.000256
0.000395
0.000256
0.000296
0.000245
0.000261
0.000259
0.000298
0.000255
0.000233
0.000247
0.000255
0.000269
0.000271
0.000253
0.000250
0.000274
0.000257
0.000205
0.000056
0.000228
0.000360
0.000367
0.000279
0.000294
0.000261
0.000273
0.000247
0.000229
0.000240
0.000277
0.000236
0.000244
0.000247
0.000274
0.000264
0.000240
0.000286
0.000222
0.000267
0.000278
0.000261
0.000276
0.000256
0.000302
0.000222
0.000253
0.000273
0.000269
0.000263
0.000191
0.000056
0.000219
0.000230
0.000263
0.000261
0.000256
0.000444
0.000210
0.000273
0.000270
0.000454
0.000466
0.000295
0.000222
0.000251
0.000274
0.000258
0.000241
0.000266
0.000255
0.000276
0.000261
0.000255
0.000264
0.000240
0.000668
0.000396
0.000273
0.000317
0.000243
0.000263
0.000192
0.000056
0.000184
0.000216
0.000248
0.000251
0.000392
0.000622
0.000303
0.000357
0.000204
0.000249
0.000251
0.000252
0.000250
0.000248
0.000261
0.000269
0.000272
0.000253
0.000665
0.000368
0.000275
0.000243
0.000271
0.000264
0.000280
0.000259
0.000263
0.000287
0.000231
0.000326
0.000342
0.000056
0.000212
0.000232
0.000243
0.000234
0.000260
0.000261
0.000217
0.000245
0.000241
0.000262
0.000249
0.000252
0.000242
0.000381
0.000614
0.000394
0.000201
0.000261
0.000263
0.000247
0.000264
0.000289
0.000476
0.000218
0.000264
0.000645
0.000398
0.000446
0.000257
0.000263
0.000181
0.000056
0.000222
0.000230
0.000241
0.000239
0.000257
0.000256
0.000344
0.000512
0.000472
0.000422
0.000217
0.000264
0.000273
0.000272
0.000255
0.000250
0.000237
0.000254
0.000272
0.000323
0.000433
0.000605
0.000366
0.000255
0.000359
0.000376
0.000494
0.000246
0.000260
0.000499
0.000318
0.000056
0.000266
0.000234
0.000441
0.000214
0.000242
0.000252
0.000260
0.000259
0.000232
0.000240
0.000376
0.000368
0.000313
0.000321
0.000225
0.000253
0.000262
0.000263
0.000247
0.000273
0.000295
0.000237
0.000245
0.000275
0.000417
0.000382
0.000484
0.000239
0.000260
0.000270
0.000200
0.000057
0.000187
0.000257
0.000227
0.000244
0.000250
0.000283
0.000321
0.000501
0.000349
0.000272
0.000378
0.000227
0.000253
0.000267
0.000251
0.000239
0.000254
0.000263
0.000284
0.000400
0.000529
0.000286
0.000494
0.000253
0.000391
0.000423
0.000374
0.000244
0.000260
0.000338
0.000307
0.000056
0.000193
0.000273
0.000223
0.000250
0.000283
0.000239
0.000287
0.000207
0.000273
0.000236
0.000242
0.000391
0.000492
0.000296
0.000366
0.000236
0.000260
0.000264
0.000268
0.000236
0.000241
0.000260
0.000272
0.000266
0.000277
0.000315
0.000517
0.000464
0.000237
0.000284
0.000192
0.000056
0.000241
0.000213
0.000259
0.000250
0.000238
0.000332
0.000501
0.000485
0.000482
0.000557
0.000263
0.000218
0.000238
0.000266
0.000241
0.000271
0.000278
0.000309
0.000451
0.000462
0.001455
0.000310
0.000271
0.000262
0.000283
0.000264
0.000378
0.000552
0.000233
0.000305
0.000183
0.000055
0.000197
0.000230
0.000246
0.000263
0.000232
0.000251
0.000298
0.000227
0.000243
0.000326
0.000332
0.000380
0.000267
0.000339
0.000395
0.000347
0.000246
0.000274
0.000240
0.000263
0.000240
0.000248
0.000310
0.000224
0.000323
0.000435
0.000467
0.000250
0.000258
0.000262
0.000194
0.000057
0.000179
0.000247
0.000258
0.000254
0.000241
0.000231
0.000476
0.000215
0.000231
0.000252
0.000252
0.000256
0.000254
0.000250
0.000253
0.000267
0.000263
0.000287
0.000264
0.000235
0.000289
0.000265
0.000292
0.000245
0.000268
0.000276
0.000272
0.000261
0.000263
0.000292
0.000151
0.000056
0.000194
0.000239
0.000299
0.000416
0.000373
0.000258
0.000236
0.000250
0.000256
0.000254
0.000245
0.000259
0.000277
0.000247
0.000236
0.000241
0.000267
0.000248
0.000288
0.000349
0.000553
0.000272
0.000227
0.000264
0.000261
0.000257
0.000274
0.000248
0.000273
0.000280
0.000198
0.000055
0.000344
0.000438
0.000381
0.000210
0.000253
0.000256
0.000414
0.000225
0.000221
0.000257
0.000251
0.000294
0.000351
0.000463
0.001849
0.000250
0.000240
0.000251
0.000280
0.000239
0.000390
0.000452
0.000621
0.000237
0.000228
0.000257
0.000280
0.000426
0.000279
0.000274
0.000165
0.000056
0.000190
0.000360
0.000324
0.000337
0.000497
0.000202
0.000239
0.000248
0.000251
0.000242
0.000282
0.000225
0.000263
0.000302
0.000460
0.000445
0.000217
0.000247
0.000261
0.000258
0.000266
0.000315
0.000233
0.000284
0.000273
0.000561
0.000396
0.000619
0.000244
0.000227
0.000206
0.000056
0.000218
0.000242
0.000251
0.000239
0.000241
0.000251
0.000266
0.000297
0.000334
0.000335
0.000468
0.000339
0.000219
0.000247
0.000274
0.000285
0.000294
0.000243
0.000294
0.000254
0.000234
0.000294
0.000526
0.000335
0.000280
0.000278
0.000238
0.000446
0.000408
0.000299
0.000186
0.000056
0.000197
0.000233
0.000333
0.000415
0.000390
0.000200
0.000246
0.000253
0.000261
0.000265
0.000257
0.000248
0.000226
0.000264
0.000256
0.000340
0.000362
0.000357
0.000294
0.000339
0.000497
0.000219
0.000285
0.000279
0.000295
0.000286
0.000267
0.000302
0.000445
0.000482
0.000210
0.000055
0.000203
0.000229
0.000248
0.000250
0.000241
0.000482
0.000214
0.000253
0.000272
0.000274
0.000513
0.000607
0.000217
0.000246
0.000238
0.000254
0.000255
0.000266
0.000244
0.000248
0.000293
0.000239
0.000315
0.000493
0.000329
0.000399
0.000301
0.000301
0.000323
0.000253
0.000181
0.000055
0.000207
0.000236
0.000277
0.000478
0.000308
0.000334
0.000237
0.000216
0.000241
0.000258
0.000253
0.000262
0.000265
0.000243
0.000242
0.000261
0.000246
0.000241
0.000263
0.000382
0.000556
0.000372
0.000214
0.000247
0.000285
0.000276
0.000257
0.000259
0.000264
0.000269
0.000207
0.000056
0.000302
0.000380
0.000436
0.000238
0.000226
0.000250
0.000319
0.000464
0.000288
0.000205
0.000245
0.000273
0.000261
0.000463
0.000413
0.000283
0.000250
0.000224
0.000257
0.000267
0.000268
0.000259
0.000266
0.000276
0.000261
0.000326
0.000398
0.000361
0.000332
0.000237
0.000197
0.000055
0.000206
0.000243
0.000246
0.000257
0.000247
0.000267
0.000225
0.000274
0.000257
0.000226
0.000267
0.000236
0.000290
0.001430
0.000225
0.000253
0.000258
0.000251
0.000278
0.000276
0.000262
0.000238
0.000273
0.000258
0.000265
0.000270
0.000270
0.000270
0.000269
0.000266
0.000194
0.000056
0.000203
0.000234
0.000249
0.000282
0.000210
0.000240
0.000258
0.000259
0.000228
0.000245
0.000252
0.000268
0.000254
0.000249
0.000257
0.000264
0.000247
0.000254
0.000274
0.000252
0.000256
0.000258
0.000246
0.000253
0.001296
0.000263
0.000592
0.000451
0.000311
0.000241
0.000195
0.000056
0.000199
0.000231
0.000241
0.000252
0.000422
0.000238
0.000234
0.000239
0.000268
0.000407
0.000435
0.000303
0.000231
0.000229
0.000270
0.000254
0.000264
0.000261
0.000244
0.000264
0.000257
0.000254
0.000349
0.000412
0.000440
0.000452
0.000220
0.000267
0.001356
0.000252
0.000185
0.000056
0.000375
0.000326
0.000326
0.000265
0.000224
0.000223
0.000235
0.000246
0.000263
0.000253
0.000248
0.000264
0.000294
0.000427
0.000382
0.000405
0.000306
0.000228
0.000251
0.000252
0.000267
0.000279
0.000255
0.000264
0.000269
0.000266
0.000405
0.000520
0.000336
0.000366
0.000141
0.000057
0.000210
0.000226
0.001313
0.000382
0.000390
0.000379
0.000362
0.000471
0.000269
0.000342
0.000223
0.000230
0.000260
0.000257
0.000247
0.000268
0.000274
0.000601
0.000350
0.000378
0.000261
0.000242
0.000266
0.000500
0.000230
0.000269
0.000250
0.000280
0.000273
0.000599
0.000279
0.000057
0.000363
0.000308
0.000239
0.001474
0.000344
0.000428
0.000313
0.000243
0.000247
0.000244
0.000234
0.000238
0.000238
0.000275
0.000246
0.000261
0.000242
0.000282
0.000447
0.000324
0.000464
0.000239
0.000261
0.000253
0.000258
0.000277
0.000272
0.000232
0.000266
0.000280
0.000197
0.000056
0.000362
0.000347
0.000219
0.000241
0.000266
0.000228
0.000269
0.000230
0.000234
0.000226
0.001427
0.000459
0.000269
0.000236
0.000241
0.000253
0.000273
0.000261
0.000236
0.000302
0.000244
0.000252
0.000263
0.000462
0.000465
0.000367
0.000231
0.000265
0.000288
0.000269
0.000175
0.000056
0.000212
0.000413
0.000221
0.000236
0.000421
0.000360
0.000397
0.000294
0.000465
0.000209
0.000226
0.000254
0.000262
0.000265
0.000260
0.001435
0.000342
0.000296
0.000230
0.000270
0.000296
0.000232
0.000251
0.000254
0.000261
0.000267
0.000456
0.000441
0.000295
0.000269
0.000162
0.000056
0.000212
0.000234
0.000270
0.000225
0.000227
0.000261
0.000237
0.000254
0.000332
0.000299
0.000442
0.000306
0.000237
0.000253
0.000247
0.000273
0.000274
0.000258
0.000273
0.000224
0.000250
0.000301
0.001274
0.000258
0.000264
0.000236
0.000266
0.000261
0.000271
0.000252
0.000185
0.000055
0.000228
0.000324
0.000368
0.000345
0.000236
0.000249
0.000260
0.000288
0.000236
0.000262
0.000240
0.000264
0.000242
0.000255
0.000269
0.000246
0.000266
0.000269
0.000262
0.000250
0.000252
0.000269
0.000265
0.000288
0.000286
0.000264
0.000269
0.000267
0.000251
0.000453
0.001356
0.000055
0.000207
0.000257
0.000217
0.000265
0.000234
0.000258
0.000248
0.000225
0.000243
0.000253
0.000300
0.000239
0.000244
0.000241
0.000271
0.000218
0.001729
0.000274
0.000233
0.000258
0.000243
0.000262
0.000274
0.000259
0.000296
0.000236
0.000267
0.000278
0.000271
0.000255
0.000229
0.000056
0.000282
0.000331
0.001304
0.000221
0.000228
0.000269
0.000242
0.000249
0.000270
0.000246
0.000234
0.000350
0.000375
0.000469
0.000259
0.000231
0.000249
0.000251
0.000266
0.000258
0.000246
0.000285
0.000255
0.000282
0.000276
0.000393
0.000352
0.000367
0.000309
0.000245
0.000192
0.000055
0.000224
0.000253
0.000242
0.000247
0.000283
0.000193
0.000241
0.000260
0.000414
0.001343
0.000266
0.000229
0.000230
0.000277
0.000245
0.000296
0.000235
0.000250
0.000335
0.000480
0.000312
0.000236
0.000246
0.000260
0.000282
0.000266
0.000266
0.000287
0.000270
0.000273
0.000192
0.000056
0.000216
0.000399
0.000408
0.000215
0.000239
0.000236
0.000245
0.000281
0.000261
0.000246
0.000230
0.000255
0.000443
0.000505
0.000465
0.001459
0.000232
0.000301
0.000310
0.000351
0.000478
0.000423
0.000630
0.000239
0.000229
0.000265
0.000270
0.000275
0.000262
0.000273
0.000192
0.000056
0.000210
0.000271
0.000586
0.000348
0.000333
0.000237
0.000256
0.000232
0.000239
0.000275
0.000232
0.000269
0.000273
0.000230
0.000262
0.000291
0.000390
0.000396
0.000375
0.001334
0.000262
0.000251
0.000254
0.000269
0.000453
0.000443
0.000371
0.000277
0.000264
0.000271
0.000185
0.000055
0.000191
0.000242
0.000245
0.000266
0.000225
0.000296
0.000529
0.000275
0.000383
0.000215
0.000244
0.000259
0.000272
0.000290
0.000240
0.000252
0.000260
0.000259
0.000279
0.000292
0.000427
0.000429
0.000329
0.001350
0.000406
0.000241
0.000270
0.000405
0.000447
0.000358
0.000308
0.000057
0.000202
0.000237
0.000244
0.000243
0.000251
0.000258
0.001683
0.000243
0.000215
0.000240
0.000257
0.000244
0.000257
0.000328
0.000327
0.000284
0.000262
0.000338
0.000506
0.000369
0.000307
0.000290
0.000232
0.000248
0.001502
0.000389
0.000409
0.000436
0.000302
0.000294
0.000181
0.000057
0.000225
0.000243
0.000260
0.000253
0.000247
0.000260
0.001707
0.000247
0.000227
0.000265
0.000332
0.000405
0.001449
0.000362
0.000392
0.000236
0.000256
0.000235
0.000269
0.000279
0.001530
0.000577
0.000380
0.000312
0.000224
0.000248
0.000265
0.000282
0.000248
0.000247
0.000197
0.000056
0.000218
0.000221
0.000275
0.000243
0.000267
0.000298
0.000254
0.000265
0.000241
0.000251
0.000254
0.000248
0.000291
0.000240
0.000271
0.001476
0.000278
0.000228
0.000277
0.000272
0.000273
0.000256
0.000429
0.001275
0.000276
0.000240
0.000269
0.000250
0.000411
0.000234
0.000195
0.000055
0.000207
0.000243
0.000223
0.000247
0.000238
0.000240
0.000222
0.001694
0.000262
0.000215
0.000361
0.000284
0.000208
0.000224
0.000252
0.001385
0.000233
0.000264
0.000268
0.000242
0.000265
0.000353
0.000294
0.001289
0.000280
0.000257
0.000242
0.000269
0.001390
0.000271
0.000224
0.000057
0.000273
0.000329
0.000208
0.000239
0.000264
0.000226
0.000287
0.000265
0.000245
0.000246
0.000261
0.000260
0.000264
0.000242
0.000294
0.001539
0.000222
0.000270
0.000254
0.000247
0.000307
0.000241
0.000257
0.001501
0.000337
0.000244
0.000272
0.001265
0.000264
0.000255
0.000232
0.000057
0.000188
0.000386
0.000340
0.000215
0.000230
0.000238
0.000273
0.000255
0.000260
0.000271
0.000236
0.000252
0.000262
0.000284
0.000397
0.001222
0.000227
0.000260
0.000273
0.000267
0.000231
0.000239
0.000253
0.000367
0.001257
0.000244
0.000235
0.000259
0.000257
0.001334
0.000329
0.000056
0.000289
0.000239
0.000228
0.000232
0.000242
0.000251
0.000243
0.000252
0.000298
0.000231
0.000245
0.000246
0.000274
0.000319
0.000404
0.001462
0.000225
0.000244
0.000300
0.000511
0.000283
0.001480
0.000333
0.000241
0.000233
0.000262
0.000256
0.001332
0.000326
0.000466
0.000306
0.000055
0.000225
0.000248
0.000255
0.000257
0.000280
0.000252
0.000250
0.000265
0.000242
0.000260
0.000301
0.000462
0.001347
0.000239
0.000279
0.000275
0.000265
0.000230
0.000232
0.000241
0.000344
0.001250
0.000256
0.000245
0.000247
0.000251
0.001451
0.000519
0.000443
0.000225
0.000193
0.000056
0.000209
0.000230
0.000250
0.000233
0.000253
0.000268
0.000240
0.000297
0.000498
0.000375
0.000273
0.001494
0.000216
0.000234
0.000270
0.000247
0.000261
0.000345
0.001638
0.000260
0.000376
0.000341
0.001265
0.000415
0.000265
0.000351
0.000226
0.000271
0.000258
0.000270
0.000193
0.000056
0.000208
0.000241
0.000330
0.000258
0.000364
0.000495
0.000266
0.000294
0.001474
0.000249
0.000395
0.000239
0.000227
0.000326
0.000355
0.001332
0.000264
0.000240
0.000248
0.000253
0.001525
0.000383
0.000296
0.000275
0.000247
0.000250
0.000449
0.000339
0.000235
0.000256
0.000268
0.000056
0.000247
0.000350
0.000374
0.000245
0.000243
0.001510
0.000208
0.000255
0.000281
0.000253
0.000268
0.000241
0.000322
0.001469
0.000255
0.000224
0.000434
0.001196
0.000344
0.000456
0.000373
0.000249
0.000238
0.000253
0.000301
0.000224
0.000446
0.000231
0.000270
0.000271
0.000201
0.000056
0.000193
0.000272
0.000352
0.000367
0.001296
0.000274
0.000346
0.000216
0.000232
0.000240
0.000247
0.000276
0.001539
0.000262
0.000224
0.000248
0.001379
0.000307
0.000427
0.000375
0.000407
0.000241
0.000249
0.000265
0.000247
0.000294
0.000267
0.000246
0.000265
0.000250
0.000200
0.000056
0.000265
0.000377
0.001444
0.000207
0.000275
0.000304
0.000214
0.000248
0.000263
0.000366
0.001408
0.000216
0.000259
0.000255
0.000260
0.001313
0.000640
0.000292
0.000331
0.000410
0.000301
0.000256
0.000263
0.000256
0.000285
0.000275
0.000271
0.000323
0.000383
0.000464
0.001379
0.000057
0.000199
0.000245
0.000244
0.000220
0.000260
0.000395
0.000507
0.001284
0.000244
0.000242
0.000244
0.001379
0.000589
0.000241
0.000211
0.000419
0.000246
0.000247
0.000258
0.000293
0.000249
0.000252
0.000281
0.000253
0.000249
0.000296
0.000439
0.000476
0.001497
0.000227
0.000181
0.000057
0.000190
0.000254
0.000339
0.000591
0.001201
0.000303
0.000227
0.000259
0.000246
0.000269
0.000236
0.000273
0.000357
0.000531
0.000295
0.000239
0.000250
0.000275
0.000239
0.000312
0.000237
0.000260
0.000256
0.000280
0.000243
0.000369
0.000501
0.000329
0.000336
0.001405
0.000176
0.000056
0.000204
0.000241
0.000294
0.000441
0.000328
0.000313
0.000320
0.000331
0.000292
0.000265
0.000227
0.000260
0.000254
0.000307
0.000253
0.000294
0.000583
0.000268
0.000297
0.000386
0.000272
0.000410
0.000230
0.000238
0.000264
0.000258
0.000257
0.000296
0.000357
0.000553
0.000229
0.000055
0.000204
0.001413
0.000236
0.000322
0.000414
0.000378
0.000403
0.000339
0.000208
0.000242
0.000262
0.000247
0.000284
0.000280
0.000236
0.000254
0.000263
0.001395
0.000212
0.000261
0.000257
0.000276
0.000265
0.000277
0.000267
0.000254
0.000277
0.000248
0.000314
0.000486
0.000201
0.000058
0.000209
0.000257
0.000225
0.001503
0.000321
0.000255
0.000214
0.000243
0.000230
0.000250
0.000255
0.000277
0.000244
0.000248
0.000301
0.000222
0.000247
0.000268
0.000263
0.000254
0.001430
0.000238
0.000235
0.000286
0.000257
0.000245
0.000267
0.000263
0.000277
0.000499
0.000338
0.000057
0.000207
0.000225
0.000394
0.000289
0.000234
0.000280
0.001537
0.000327
0.000302
0.000206
0.000259
0.000320
0.000328
0.000226
0.000228
0.000253
0.000252
0.000257
0.000261
0.000259
0.000493
0.000489
0.001128
0.000277
0.000233
0.000257
0.000269
0.000267
0.000296
0.000230
0.000364
0.000056
0.000281
0.000283
0.000236
0.000226
0.000248
0.000240
0.000248
0.000226
0.000290
0.001628
0.000376
0.000261
0.000239
0.000247
0.000257
0.000246
0.000260
0.000280
0.000259
0.000313
0.000322
0.000537
0.000383
0.001369
0.000234
0.000277
0.000256
0.000259
0.000270
0.000353
0.000410
0.000056
0.000277
0.000266
0.000217
0.000235
0.000222
0.000241
0.000265
0.000280
0.000252
0.001548
0.000385
0.000268
0.000229
0.000257
0.000458
0.000257
0.000548
0.000371
0.000274
0.000269
0.000488
0.000496
0.001262
0.000252
0.000238
0.000263
0.001677
0.000523
0.000584
0.000309
0.000146
0.000055
0.000216
0.000236
0.000230
0.000238
0.000275
0.000225
0.000248
0.000491
0.000507
0.000416
0.000292
0.000211
0.000244
0.000260
0.000281
0.000275
0.000230
0.000243
0.000248
0.000291
0.000286
0.000383
0.001346
0.000231
0.000246
0.000277
0.001935
0.000361
0.000377
0.000328
0.000164
0.000056
0.000251
0.000242
0.000238
0.001578
0.000407
0.000221
0.000238
0.000256
0.000257
0.000274
0.000379
0.000369
0.000369
0.000294
0.000280
0.000495
0.000422
0.001233
0.000234
0.000233
0.000253
0.000262
0.000268
0.000400
0.000598
0.000475
0.000292
0.000240
0.000263
0.000284
0.000192
0.000056
0.000192
0.000233
0.000242
0.001584
0.000215
0.000248
0.000220
0.000254
0.000240
0.000253
0.000257
0.000265
0.000273
0.000272
0.000270
0.000398
0.000443
0.000291
0.001399
0.000229
0.000263
0.000257
0.000259
0.000270
0.000427
0.000433
0.000440
0.000282
0.000285
0.000227
0.000437
0.000056
0.000200
0.000237
0.000275
0.001543
0.000287
0.000220
0.000289
0.000221
0.000251
0.000257
0.000254
0.000275
0.000234
0.000258
0.000406
0.000723
0.001174
0.000749
0.000253
0.000334
0.000243
0.000244
0.000244
0.000279
0.001679
0.000807
0.000228
0.000262
0.000280
0.000285
0.000193
0.000055
0.000199
0.000226
0.000257
0.000243
0.000276
0.000275
0.000192
0.000248
0.000244
0.000232
0.000294
0.000291
0.000240
0.000252
0.000263
0.000246
0.000275
0.001596
0.000726
0.000395
0.000268
0.000238
0.000246
0.000307
0.000250
0.000249
0.000273
0.000254
0.001387
0.000448
0.000245
0.000055
0.000197
0.000230
0.000269
0.000236
0.000259
0.000230
0.000280
0.000225
0.000251
0.000265
0.000286
0.000429
0.000412
0.000341
0.000207
0.000252
0.000257
0.001401
0.000689
0.000453
0.000370
0.000258
0.000231
0.000248
0.000271
0.000263
0.000248
0.000263
0.001482
0.000517
0.000134
0.000055
0.000189
0.000235
0.000247
0.000246
0.000253
0.000248
0.000236
0.000248
0.000274
0.000272
0.000339
0.000369
0.000360
0.000217
0.000240
0.000243
0.000261
0.000264
0.001574
0.000635
0.000453
0.000316
0.000232
0.000251
0.000268
0.000254
0.000273
0.000275
0.000268
0.001353
0.000344
0.000056
0.000205
0.000221
0.000236
0.000256
0.000254
0.000246
0.000250
0.000305
0.000358
0.000439
0.000389
0.000367
0.000362
0.000223
0.000246
0.000252
0.000296
0.000245
0.000267
0.001887
0.000356
0.000225
0.000462
0.000237
0.000253
0.000266
0.000265
0.000275
0.000250
0.000277
0.000420
0.000056
0.000178
0.000294
0.000232
0.000241
0.000263
0.000240
0.000224
0.000245
0.000293
0.000243
0.000230
0.000234
0.000339
0.000448
0.000408
0.000446
0.000224
0.000265
0.000247
0.000254
0.000253
0.000286
0.001470
0.001051
0.000230
0.000256
0.000264
0.000268
0.000269
0.000252
0.000204
0.000056
0.000217
0.001344
0.000294
0.000207
0.000232
0.000254
0.000255
0.000231
0.000245
0.000263
0.000245
0.000263
0.000244
0.000355
0.000389
0.000455
0.000279
0.000254
0.000255
0.000271
0.000277
0.000219
0.000259
0.000267
0.001308
0.000692
0.000314
0.000375
0.000376
0.000402
0.000302
0.000056
0.000210
0.000243
0.000417
0.001256
0.000216
0.000256
0.000225
0.000261
0.000254
0.000255
0.000249
0.000247
0.000269
0.000607
0.000348
0.000271
0.000222
0.000278
0.000326
0.000220
0.000244
0.000277
0.000232
0.000270
0.001494
0.000301
0.000751
0.000318
0.000258
0.000272
0.000199
0.000056
0.000201
0.000303
0.000416
0.000317
0.001310
0.000249
0.000218
0.000244
0.000230
0.000248
0.000251
0.000256
0.000236
0.000232
0.000251
0.000258
0.000286
0.000218
0.000261
0.000251
0.000266
0.000297
0.000383
0.000255
0.000186
0.000265
0.000271
0.001472
0.000265
0.000226
0.000175
0.000056
0.000200
0.000234
0.000255
0.000257
0.000350
0.000373
0.000399
0.000280
0.001582
0.000228
0.000303
0.000464
0.000364
0.000241
0.000444
0.000218
0.000242
0.000261
0.000271
0.000270
0.000280
0.000269
0.000255
0.000268
0.000259
0.000420
0.000398
0.000317
0.001581
0.000222
0.000193
0.000056
0.000234
0.000238
0.000249
0.000246
0.000255
0.000234
0.000258
0.000315
0.000414
0.002025
0.000237
0.000238
0.000269
0.000248
0.000260
0.000254
0.000264
0.000259
0.000315
0.000397
0.000423
0.000382
0.001450
0.000251
0.000228
0.002017
0.000289
0.000240
0.000257
0.001525
0.000157
0.000056
0.000305
0.000445
0.000486
0.000227
0.000277
0.000229
0.000243
0.000295
0.000234
0.000227
0.000252
0.000350
0.000418
0.000374
0.000401
0.000222
0.000232
0.001575
0.000226
0.000593
0.001865
0.000302
0.000226
0.001565
0.002017
0.000722
0.000282
0.000255
0.000271
0.000518
0.000325
0.000056
0.000226
0.000236
0.000281
0.000221
0.001420
0.001735
0.001068
0.000207
0.000236
0.001588
0.001977
0.000222
0.000229
0.000442
0.000306
0.000343
0.000389
0.000497
0.000205
0.000247
0.000274
0.000230
0.000278
0.001585
0.001205
0.001421
0.000296
0.000278
0.000260
0.000371
0.000305
0.000057
0.000228
0.000224
0.000234
0.000237
0.000230
0.000268
0.000228
0.000258
0.000259
0.000240
0.000242
0.000304
0.000469
0.000452
0.000282
0.000245
0.000256
0.000271
0.000265
0.000281
0.000239
0.000265
0.001488
0.000498
0.002119
0.000228
0.000262
0.000331
0.000453
0.000410
0.000164
0.000056
0.000243
0.000286
0.000501
0.000310
0.000211
0.000220
0.000251
0.000242
0.000242
0.000240
0.000247
0.000267
0.000260
0.001609
0.001401
0.001184
0.000279
0.000221
0.000254
0.000284
0.000298
0.000254
0.000236
0.000261
0.002196
0.000246
0.000260
0.000309
0.000314
0.000310
0.000216
0.000056
0.000218
0.000364
0.000550
0.000339
0.000212
0.000231
0.000245
0.000273
0.001955
0.001365
0.000225
0.000317
0.000385
0.000411
0.000263
0.000245
0.000247
0.000263
0.000268
0.000260
0.000252
0.000267
0.000475
0.000241
0.000268
0.000260
0.000252
0.000277
0.000279
0.000249
0.000204
0.000056
0.000204
0.000261
0.000224
0.000243
0.000282
0.000258
0.001537
0.001445
0.001286
0.000248
0.000228
0.000242
0.000263
0.000264
0.000241
0.000275
0.000230
0.002095
0.000258
0.000240
0.000263
0.000268
0.000248
0.000271
0.000265
0.000255
0.000273
0.000256
0.000274
0.000253
0.000178
0.000056
0.000207
0.002676
0.001397
0.000221
0.000305
0.000326
0.000229
0.000266
0.000228
0.000239
0.000252
0.000246
0.000232
0.000256
0.000267
0.000262
0.000261
0.000276
0.000257
0.000252
0.000268
0.000286
0.000275
0.000260
0.000250
0.000246
0.000263
0.000275
0.000255
0.000268
0.000369
0.000056
0.001549
0.000255
0.001234
0.000237
0.000214
0.000240
0.000276
0.000260
0.000226
0.000275
0.000422
0.000320
0.000342
0.000212
0.000252
0.002144
0.000245
0.000239
0.000260
0.000533
0.000410
0.000246
0.000236
0.000252
0.000264
0.000249
0.000261
0.000281
0.000265
0.001619
0.001259
0.000056
0.000206
0.000246
0.000313
0.000402
0.000318
0.000278
0.000214
0.000235
0.000250
0.000256
0.000264
0.000245
0.000227
0.000254
0.000266
0.000241
0.000352
0.000576
0.000375
0.000235
0.000236
0.000275
0.000280
0.000248
0.000252
0.000244
0.000266
0.000281
0.000235
0.000315
0.000380
0.000057
0.001119
0.000365
0.000267
0.000388
0.000304
0.000225
0.000227
0.000242
0.000254
0.002308
0.000348
0.000394
0.000223
0.000375
0.000308
0.000252
0.000242
0.000256
0.000268
0.000225
0.000251
0.000351
0.000627
0.000341
0.001882
0.001260
0.000624
0.000494
0.000225
0.000281
0.000198
0.000056
0.000211
0.000371
0.000253
0.000245
0.000247
0.000230
0.000251
0.000251
0.000256
0.000247
0.000256
0.000228
0.000245
0.000279
0.000419
0.000432
0.001859
0.001376
0.000443
0.000507
0.000357
0.000232
0.000240
0.000254
0.002124
0.000558
0.000389
0.000235
0.000275
0.000283
0.000199
0.000056
0.000211
0.000240
0.000258
0.000249
0.000241
0.000355
0.000407
0.000371
0.000254
0.000226
0.000235
0.000253
0.000264
0.002127
0.000373
0.000362
0.000223
0.000250
0.000275
0.000244
0.000247
0.002493
0.000302
0.000233
0.000246
0.000261
0.000252
0.000271
0.000308
0.000260
0.000186
0.000055
0.000209
0.000423
0.000490
0.000349
0.000261
0.000222
0.000229
0.000252
0.000263
0.000251
0.001946
0.000401
0.000266
0.000287
0.000234
0.000260
0.000274
0.000242
0.002459
0.000222
0.000195
0.000267
0.000268
0.000261
0.000253
0.000253
0.000305
0.000233
0.000266
0.000256
0.000190
0.000055
0.000220
0.000239
0.000251
0.000214
0.000249
0.000260
0.000238
0.000243
0.000230
0.002192
0.000226
0.000282
0.000212
0.000432
0.000219
0.000258
0.000300
0.000273
0.000242
0.000253
0.002001
0.000242
0.000337
0.000362
0.000445
0.000402
0.000299
0.000257
0.000250
0.000257
0.000207
0.000056
0.000189
0.000257
0.000225
0.000246
0.000251
0.000327
0.000221
0.002305
0.000235
0.000241
0.000269
0.000243
0.000236
0.000278
0.000278
0.002144
0.000571
0.000238
0.000238
0.000243
0.000257
0.000258
0.000295
0.000264
0.000259
0.000256
0.000285
0.000260
0.000259
0.000267
0.000197
0.000055
0.001833
0.001434
0.000205
0.000226
0.000243
0.000251
0.000259
0.000288
0.000403
0.000336
0.002166
0.000264
0.000225
0.000277
0.000274
0.000553
0.000350
0.000303
0.000218
0.000250
0.000257
0.000265
0.000265
0.000222
0.000263
0.000263
0.000273
0.000266
0.000633
0.000337
0.000323
0.000056
0.000203
0.000255
0.000242
0.000255
0.000263
0.000263
0.000237
0.000242
0.001464
0.002137
0.000580
0.000276
0.000458
0.000648
0.000344
0.000241
0.000249
0.000253
0.000259
0.000260
0.000258
0.000242
0.000248
0.000277
0.003007
0.000335
0.000238
0.000263
0.000300
0.000374
0.000378
0.000055
0.001952
0.000208
0.000235
0.000238
0.000294
0.000398
0.000411
0.000300
0.000288
0.000217
0.000240
0.000250
0.000260
0.000260
0.000259
0.000256
0.000256
0.000290
0.001822
0.000236
0.000236
0.000258
0.000272
0.000275
0.000274
0.000250
0.001479
0.000329
0.000250
0.000250
0.000176
0.000056
0.000203
0.000236
0.000245
0.000230
0.000251
0.000248
0.000267
0.000396
0.000323
0.000391
0.000234
0.000236
0.000259
0.000321
0.000423
0.000321
0.000223
0.000254
0.000265
0.000385
0.000463
0.000412
0.000259
0.000260
0.000257
0.000247
0.000258
0.000272
0.000275
0.000264
0.000206
0.000056
0.001410
0.000443
0.000226
0.001932
0.000267
0.000443
0.000429
0.000316
0.000228
0.000246
0.000263
0.000243
0.000248
0.000244
0.000270
0.000256
0.000445
0.000284
0.000411
0.000366
0.000359
0.000240
0.000253
0.000267
0.000276
0.000269
0.000256
0.000269
0.000390
0.000492
0.001311
0.000056
0.000206
0.000227
0.002070
0.000335
0.000311
0.000231
0.000257
0.000246
0.000263
0.000271
0.000210
0.000248
0.000256
0.000262
0.000303
0.000311
0.000729
0.001751
0.000227
0.000258
0.000239
0.000273
0.000388
0.000415
0.001579
0.000295
0.000366
0.001915
0.000291
0.000231
0.000198
0.000055
0.000193
0.000229
0.000234
0.000256
0.000214
0.000250
0.000256
0.000283
0.000330
0.000272
0.000382
0.000365
0.000328
0.000289
0.000246
0.000268
0.000263
0.000245
0.000265
0.000251
0.000313
0.000284
0.000259
0.000257
0.000269
0.001556
0.000299
0.000328
0.002067
0.000239
0.000181
0.000057
0.000191
0.000242
0.000239
0.000249
0.000489
0.000205
0.000251
0.000343
0.000350
0.000332
0.000293
0.000227
0.000248
0.000261
0.000272
0.000322
0.000429
0.000426
0.000255
0.000407
0.000530
0.000466
0.001565
0.000222
0.000256
0.001999
0.000315
0.000248
0.000231
0.000295
0.000194
0.000056
0.000215
0.000243
0.000227
0.000246
0.000248
0.000270
0.000259
0.000266
0.000250
0.000254
0.001822
0.000309
0.000388
0.000285
0.000454
0.000379
0.000338
0.001531
0.000214
0.000281
0.002150
0.000533
0.000256
0.000232
0.000271
0.000265
0.000507
0.000218
0.000260
0.000276
0.000197
0.000056
0.000260
0.000478
0.000236
0.000295
0.000203
0.000240
0.000261
0.000252
0.000261
0.000287
0.000231
0.000252
0.000260
0.000280
0.000373
0.000487
0.001247
0.000288
0.000257
0.001989
0.000291
0.000296
0.000228
0.000262
0.000249
0.000273
0.000269
0.000265
0.000247
0.000271
0.000203
0.000055
0.000240
0.000475
0.001967
0.000251
0.000220
0.000260
0.000246
0.000309
0.000444
0.000424
0.001292
0.000373
0.000360
0.002075
0.000221
0.000241
0.000261
0.000279
0.000252
0.000245
0.000283
0.000295
0.000258
0.000332
0.000515
0.000359
0.000299
0.002247
0.000539
0.000403
0.000421
0.000056
0.000188
0.000228
0.000246
0.001961
0.000240
0.000227
0.000244
0.000234
0.000248
0.000258
0.000238
0.000263
0.000266
0.000358
0.000344
0.001478
0.000251
0.000239
0.000266
0.000260
0.000237
0.000252
0.000256
0.000299
0.000321
0.000537
0.000377
0.000229
0.001592
0.000274
0.000166
0.000055
0.000206
0.000227
0.000244
0.000230
0.000263
0.000270
0.000229
0.000249
0.000248
0.000515
0.000219
0.001423
0.000223
0.000237
0.000245
0.000292
0.000227
0.000256
0.000314
0.000472
0.000480
0.000365
0.000226
0.001571
0.000226
0.000270
0.000285
0.000279
0.000263
0.000270
0.000195
0.000056
0.000205
0.000242
0.000288
0.000247
0.000250
0.000241
0.000237
0.000240
0.000275
0.000225
0.000250
0.000254
0.000271
0.001480
0.000353
0.000213
0.000246
0.000261
0.000276
0.000321
0.000362
0.000282
0.000244
0.000257
0.000264
0.000267
0.000260
0.001411
0.000280
0.000236
0.000173
0.000056
0.000203
0.000229
0.000263
0.000260
0.000269
0.000220
0.000248
0.000265
0.000220
0.000261
0.000245
0.000258
0.000228
0.000312
0.000440
0.000284
0.000263
0.000234
0.001639
0.000240
0.000237
0.000265
0.000265
0.000325
0.000368
0.000346
0.000456
0.000288
0.000233
0.001607
0.000167
0.000057
0.000325
0.000347
0.000403
0.000243
0.000246
0.000217
0.000243
0.000274
0.000254
0.000258
0.000220
0.000239
0.001495
0.000285
0.000274
0.000238
0.000243
0.000277
0.000262
0.000256
0.000253
0.000236
0.000257
0.000269
0.000264
0.000420
0.000452
0.000316
0.000262
0.000248
0.000195
0.000057
0.000200
0.000258
0.000531
0.000253
0.000365
0.000268
0.000253
0.000250
0.000249
0.000258
0.000244
0.000222
0.000257
0.000246
0.001297
0.000270
0.000220
0.000260
0.000265
0.000267
0.000238
0.000276
0.000243
0.000263
0.000247
0.000262
0.000346
0.000645
0.000462
0.000230
0.000182
0.000056
0.000203
0.001559
0.000248
0.000359
0.000495
0.000316
0.000215
0.000255
0.000268
0.000262
0.000231
0.000262
0.000267
0.000269
0.000264
0.001534
0.000250
0.000277
0.000264
0.000259
0.000271
0.000263
0.000247
0.000257
0.000263
0.000272
0.000446
0.000357
0.000363
0.000222
0.000192
0.000057
0.000222
0.000248
0.000244
0.001597
0.000462
0.000319
0.000218
0.000241
0.000256
0.000269
0.000280
0.000251
0.000257
0.000268
0.000222
0.000262
0.000385
0.001346
0.000245
0.000238
0.001492
0.000370
0.000581
0.000319
0.000345
0.000234
0.000270
0.000468
0.000234
0.000265
0.000184
0.000056
0.000288
0.000224
0.000244
0.000242
0.000248
0.000276
0.000219
0.000258
0.000256
0.000249
0.000243
0.000256
0.000328
0.000522
0.001627
0.001496
0.000373
0.000472
0.000379
0.000227
0.000231
0.000254
0.000248
0.000274
0.000249
0.000266
0.000258
0.000271
0.001518
0.000339
0.000174
0.000056
0.000187
0.000342
0.000352
0.000336
0.000247
0.000220
0.000258
0.000355
0.000426
0.000362
0.002167
0.000312
0.000768
0.000475
0.000436
0.000249
0.000340
0.000389
0.000329
0.000282
0.000386
0.000272
0.001526
0.000537
0.000214
0.000260
0.000261
0.000250
0.000270
0.000275
0.000191
0.000055
0.000212
0.000251
0.000250
0.000252
0.000246
0.001659
0.000873
0.000998
0.000211
0.000238
0.000270
0.000241
0.000258
0.000262
0.000256
0.000243
0.000264
0.000260
0.000266
0.000282
0.001426
0.000320
0.000249
0.000230
0.000233
0.000274
0.000250
0.000283
0.000262
0.000289
0.001893
0.000057
0.000197
0.000228
0.001543
0.000904
0.000347
0.000411
0.000199
0.000202
0.000254
0.000258
0.000251
0.000250
0.000246
0.002029
0.000421
0.000218
0.000250
0.000252
0.000273
0.000258
0.000192
