0.000092
0.009504
0.011865
0.000425
0.000250
0.000303
0.000322
0.000245
0.000317
0.000276
0.000251
0.000341
0.000485
0.000496
0.000409
0.000347
0.000273
0.000341
0.000356
0.000421
0.000314
0.001905
0.000707
0.000275
0.000252
0.000286
0.000322
0.000314
0.000420
0.000480
0.000490
0.000212
0.000056
0.000219
0.000247
0.000272
0.000292
0.000242
0.000255
0.000284
0.000289
0.000257
0.000299
0.000391
0.000446
0.000304
0.000260
0.000373
0.000350
0.000365
0.000253
0.000239
0.001697
0.000319
0.000255
0.000454
0.000243
0.000287
0.000278
0.000281
0.000294
0.000279
0.000413
0.000332
0.000056
0.000263
0.000240
0.000262
0.000263
0.000251
0.000242
0.000268
0.000253
0.000291
0.001672
0.000228
0.000229
0.000274
0.000269
0.000272
0.000252
0.000261
0.000259
0.000353
0.001791
0.000245
0.000282
0.000445
0.000434
0.000385
0.000246
0.000306
0.000538
0.000481
0.000652
0.000211
0.000057
0.000224
0.000246
0.000256
0.000238
0.000298
0.000268
0.000303
0.000573
0.000363
0.000260
0.000239
0.000250
0.000239
0.000257
0.000253
0.000254
0.000262
0.000253
0.000304
0.000323
0.001665
0.000285
0.000244
0.000418
0.000451
0.000566
0.000768
0.000412
0.000347
0.000231
0.000191
0.000056
0.000233
0.000252
0.000295
0.000207
0.000286
0.000230
0.000249
0.000537
0.001410
0.000216
0.000252
0.000245
0.000255
0.000253
0.000261
0.000304
0.000288
0.000784
0.001383
0.000303
0.000232
0.000416
0.000248
0.000240
0.000258
0.000259
0.000269
0.000269
0.000256
0.000272
0.000201
0.000057
0.000212
0.000239
0.000246
0.000263
0.000237
0.000243
0.000238
0.000256
0.000242
0.000250
0.001628
0.000265
0.000234
0.000242
0.000248
0.000245
0.000267
0.000238
0.000248
0.000254
0.000297
0.001639
0.000288
0.000254
0.000428
0.000275
0.000235
0.000263
0.000271
0.000266
0.000196
0.000056
0.000215
0.000232
0.000252
0.000241
0.000244
0.000252
0.000259
0.000234
0.000265
0.000283
0.000233
0.000245
0.000276
0.000256
0.001637
0.000271
0.000306
0.000222
0.000244
0.000274
0.000262
0.000230
0.000253
0.000264
0.001787
0.000406
0.000457
0.000248
0.000235
0.000279
0.000197
0.000056
0.000223
0.000242
0.000245
0.000269
0.000264
0.000254
0.000265
0.000404
0.000381
0.000459
0.000211
0.000245
0.000250
0.000249
0.001562
0.000532
0.000337
0.000380
0.000344
0.000216
0.000267
0.000289
0.000264
0.001726
0.000535
0.000455
0.000261
0.000221
0.000247
0.000272
0.000187
0.000057
0.000200
0.000241
0.000254
0.000322
0.000356
0.000403
0.000369
0.000248
0.000214
0.000248
0.000256
0.000242
0.000253
0.001698
0.000493
0.000310
0.000214
0.000255
0.000268
0.000284
0.000243
0.000261
0.000272
0.001937
0.000257
0.000396
0.000247
0.000254
0.000264
0.000401
0.000326
0.000056
0.000202
0.000488
0.000281
0.000251
0.000251
0.000252
0.000245
0.000259
0.000245
0.000233
0.000231
0.000252
0.001570
0.000395
0.000255
0.000227
0.000260
0.000246
0.000246
0.000312
0.000353
0.000238
0.000230
0.001815
0.000237
0.000513
0.000241
0.000254
0.000260
0.000260
0.000271
0.000056
0.000268
0.000744
0.000523
0.000207
0.000234
0.000274
0.000230
0.000221
0.000262
0.000251
0.000255
0.001705
0.000243
0.000445
0.000369
0.000213
0.000236
0.000234
0.000249
0.000269
0.000248
0.001861
0.000223
0.000471
0.001863
0.000537
0.000346
0.000246
0.000250
0.000266
0.000191
0.000055
0.000214
0.000245
0.000246
0.000243
0.000259
0.001620
0.000253
0.000233
0.000253
0.000253
0.000242
0.000260
0.000232
0.000256
0.000308
0.000665
0.000348
0.000274
0.000212
0.000270
0.000280
0.000234
0.000239
0.000438
0.000432
0.000278
0.000320
0.000637
0.000360
0.000299
0.000192
0.000057
0.000199
0.000244
0.000244
0.000254
0.000237
0.000244
0.000256
0.000330
0.000492
0.001711
0.000219
0.000238
0.000246
0.000243
0.000262
0.000299
0.000372
0.000512
0.000361
0.000222
0.000276
0.000284
0.000282
0.000254
0.000270
0.000446
0.000338
0.000685
0.000339
0.000487
0.000184
0.000057
0.000204
0.000243
0.000249
0.000235
0.000235
0.000235
0.000250
0.000260
0.000232
0.000293
0.000346
0.000473
0.001349
0.000244
0.000229
0.000254
0.000252
0.000247
0.000256
0.000256
0.000373
0.000317
0.000456
0.000254
0.000290
0.000238
0.000251
0.000267
0.000269
0.000267
0.000384
0.000055
0.000219
0.000235
0.000226
0.000397
0.000443
0.000395
0.000234
0.000268
0.000229
0.000260
0.000258
0.000232
0.000318
0.000223
0.000240
0.000465
0.000440
0.001641
0.000279
0.000223
0.000267
0.000260
0.000262
0.000240
0.000311
0.000428
0.000451
0.000331
0.000420
0.000239
0.000196
0.000056
0.000199
0.000436
0.000233
0.000214
0.000286
0.000220
0.000383
0.000545
0.000286
0.000306
0.000220
0.000279
0.000265
0.000233
0.000522
0.000335
0.000230
0.000268
0.000512
0.001520
0.000261
0.000256
0.000505
0.000250
0.000288
0.000264
0.000256
0.000372
0.000529
0.000371
0.000274
0.000056
0.000212
0.000231
0.000235
0.000247
0.000416
0.000310
0.000284
0.000226
0.000353
0.000579
0.000309
0.000267
0.000233
0.000244
0.000255
0.000269
0.000250
0.000254
0.000229
0.000361
0.000282
0.000331
0.001875
0.000216
0.000262
0.000252
0.000287
0.000344
0.000452
0.000674
0.000424
0.000088
0.000206
0.000330
0.000308
0.000456
0.000340
0.000203
0.000258
0.000287
0.000562
0.000427
0.000215
0.000230
0.000238
0.000273
0.000259
0.000235
0.000259
0.000269
0.000266
0.000261
0.000269
0.000352
0.000764
0.001292
0.000324
0.000433
0.000425
0.000224
0.000369
0.000480
0.000388
0.000057
0.000250
0.000381
0.000280
0.000208
0.000225
0.000251
0.000413
0.000232
0.000275
0.000422
0.000356
0.000429
0.000242
0.000251
0.000260
0.000245
0.000361
0.000395
0.000345
0.000238
0.000246
0.000445
0.000577
0.001679
0.000225
0.000442
0.000311
0.000223
0.000302
0.000464
0.000275
0.000054
0.000241
0.000224
0.000242
0.000261
0.000249
0.000232
0.000251
0.000366
0.000423
0.000347
0.000356
0.000397
0.000278
0.000575
0.000244
0.000250
0.000270
0.000258
0.000234
0.000352
0.000220
0.000241
0.000295
0.000501
0.000352
0.001683
0.000260
0.000240
0.000268
0.000257
0.000189
0.000056
0.000294
0.000520
0.000279
0.000226
0.000229
0.000247
0.000258
0.000241
0.000273
0.000236
0.000226
0.000256
0.000398
0.000515
0.000444
0.000270
0.000228
0.000251
0.000336
0.000390
0.000382
0.000334
0.000361
0.000395
0.000248
0.000255
0.000260
0.000276
0.001794
0.000237
0.000213
0.000056
0.000189
0.000227
0.000259
0.000297
0.000330
0.000541
0.000323
0.000212
0.000302
0.000216
0.000250
0.000250
0.000525
0.000441
0.000490
0.000278
0.000261
0.000259
0.000418
0.000465
0.000364
0.000422
0.000574
0.000347
0.000235
0.000238
0.000278
0.000244
0.000261
0.001715
0.000389
0.000056
0.000260
0.000325
0.000232
0.000221
0.000256
0.000247
0.000238
0.000500
0.000381
0.000308
0.000292
0.000296
0.000428
0.000593
0.000291
0.000231
0.000255
0.000249
0.000257
0.000265
0.000278
0.000249
0.000252
0.000264
0.000308
0.000364
0.000465
0.000290
0.000246
0.000247
0.000198
0.000056
0.000443
0.000285
0.000478
0.000249
0.000204
0.000256
0.000242
0.000252
0.000243
0.000222
0.000254
0.000280
0.000304
0.000581
0.000230
0.000559
0.000305
0.000302
0.000384
0.000342
0.000295
0.000239
0.000249
0.000262
0.001751
0.000258
0.001708
0.000946
0.000433
0.000293
0.000162
0.000056
0.000211
0.000234
0.000231
0.000246
0.000268
0.000234
0.000258
0.000245
0.000243
0.000302
0.000361
0.000563
0.000255
0.000353
0.000269
0.000251
0.000256
0.000297
0.000200
0.000246
0.000251
0.000261
0.001816
0.000241
0.000245
0.000268
0.000277
0.001739
0.000398
0.000499
0.000283
0.000057
0.000228
0.000213
0.000252
0.000224
0.000271
0.000235
0.000245
0.000247
0.000261
0.000416
0.000541
0.000299
0.000367
0.000227
0.000250
0.000258
0.000323
0.000437
0.000364
0.000257
0.001775
0.000259
0.000243
0.000254
0.000260
0.000272
0.000239
0.000252
0.000327
0.000405
0.000305
0.000055
0.000247
0.000232
0.000226
0.000269
0.000239
0.000240
0.000255
0.000255
0.000241
0.000254
0.000245
0.000302
0.000370
0.000391
0.000323
0.000272
0.000458
0.000245
0.000251
0.000259
0.000255
0.000256
0.000275
0.000259
0.000278
0.001782
0.000243
0.000253
0.000267
0.000239
0.000210
0.000056
0.000184
0.000366
0.000218
0.000234
0.000257
0.000218
0.000241
0.000251
0.000249
0.000223
0.000234
0.000268
0.000254
0.000372
0.000407
0.000344
0.000312
0.000232
0.000240
0.000249
0.000271
0.000258
0.000245
0.000267
0.000248
0.000279
0.000311
0.001620
0.000264
0.000239
0.000194
0.000055
0.000209
0.000237
0.000252
0.000261
0.000345
0.000428
0.000347
0.000302
0.000220
0.000252
0.000269
0.000227
0.000252
0.000251
0.000262
0.000253
0.000251
0.000256
0.000259
0.000270
0.000253
0.000270
0.000239
0.000238
0.000247
0.000280
0.000270
0.000269
0.000255
0.000260
0.000200
0.000055
0.000216
0.000210
0.000258
0.000278
0.000230
0.000236
0.000237
0.000264
0.000296
0.000226
0.000226
0.000249
0.000260
0.000244
0.000292
0.000241
0.000251
0.000255
0.000300
0.000252
0.000274
0.000318
0.000269
0.000222
0.000302
0.000248
0.000274
0.000247
0.000274
0.000581
0.000545
0.000056
0.000200
0.000287
0.000228
0.000227
0.000238
0.000251
0.000240
0.000248
0.000252
0.000246
0.000267
0.000287
0.000530
0.000482
0.001499
0.000229
0.000491
0.000225
0.000267
0.000481
0.000388
0.000406
0.000223
0.000284
0.000241
0.000266
0.000279
0.000256
0.000322
0.000260
0.000169
0.000056
0.000336
0.000437
0.000342
0.000322
0.000208
0.000280
0.000218
0.000240
0.000241
0.000243
0.000254
0.000256
0.000229
0.000291
0.000408
0.000460
0.000354
0.001796
0.000240
0.000254
0.000337
0.000442
0.000459
0.000269
0.000311
0.000325
0.000300
0.000236
0.000224
0.000249
0.000197
0.000056
0.000188
0.000225
0.000242
0.000312
0.000339
0.000593
0.000187
0.000260
0.000244
0.000221
0.000249
0.000266
0.000269
0.000265
0.000240
0.000264
0.000300
0.000496
0.000385
0.000387
0.000247
0.001730
0.000341
0.000516
0.000448
0.000494
0.000324
0.000229
0.000258
0.000271
0.000437
0.000056
0.000212
0.000270
0.000215
0.000328
0.000366
0.000537
0.000327
0.000218
0.000231
0.000285
0.000246
0.000261
0.000254
0.000294
0.000310
0.000226
0.000243
0.000428
0.000495
0.000311
0.000455
0.001841
0.000260
0.000423
0.000574
0.000301
0.000227
0.000253
0.000300
0.000261
0.000196
0.000055
0.000207
0.000337
0.000361
0.000338
0.000386
0.000324
0.000339
0.000216
0.000241
0.000255
0.000282
0.000220
0.000254
0.000258
0.000234
0.000267
0.000326
0.000385
0.000530
0.000379
0.000240
0.000257
0.000240
0.001706
0.000415
0.000622
0.000592
0.000254
0.000241
0.000331
0.000147
0.000056
0.000199
0.000232
0.000352
0.000227
0.000418
0.000252
0.000360
0.000332
0.000240
0.000535
0.000218
0.000250
0.000257
0.000281
0.000273
0.000265
0.000228
0.000406
0.000445
0.000395
0.000253
0.000234
0.000261
0.000259
0.000250
0.000273
0.000233
0.000258
0.000267
0.000321
0.000217
0.000056
0.000372
0.000281
0.000221
0.000252
0.000250
0.000257
0.000246
0.000313
0.000217
0.000245
0.000272
0.000332
0.000427
0.000422
0.000318
0.000279
0.000218
0.000242
0.000258
0.000267
0.000281
0.000269
0.000234
0.000258
0.000279
0.000310
0.000538
0.000251
0.000361
0.000230
0.000182
0.000056
0.000211
0.000222
0.000283
0.000259
0.000219
0.000270
0.000262
0.000232
0.000493
0.000206
0.000266
0.000257
0.000234
0.000263
0.000279
0.000296
0.000236
0.000348
0.000216
0.000255
0.000252
0.000264
0.000262
0.000266
0.000272
0.000279
0.000248
0.000250
0.000260
0.000498
0.000166
0.000055
0.000209
0.000237
0.000252
0.000285
0.000216
0.000233
0.000370
0.000404
0.000230
0.000235
0.000254
0.000256
0.000229
0.000314
0.000369
0.001816
0.000222
0.000274
0.000285
0.000334
0.000406
0.000371
0.000362
0.000471
0.000300
0.000414
0.000259
0.000248
0.000265
0.000283
0.001389
0.000055
0.000451
0.000212
0.000277
0.000218
0.000237
0.000250
0.000241
0.000248
0.000246
0.000272
0.000244
0.000257
0.000254
0.000284
0.000570
0.001609
0.000239
0.000225
0.000250
0.000266
0.000235
0.000264
0.000518
0.000266
0.000266
0.000351
0.000218
0.000270
0.000272
0.000270
0.000189
0.000056
0.001251
0.000508
0.000327
0.000278
0.000224
0.000217
0.000241
0.000236
0.000492
0.000227
0.000230
0.000249
0.000323
0.000572
0.000388
0.000323
0.000258
0.000239
0.000327
0.000343
0.000277
0.000256
0.000271
0.000247
0.000264
0.000738
0.000412
0.000243
0.000257
0.000264
0.000169
0.000055
0.000212
0.000213
0.000237
0.000250
0.001504
0.000265
0.000220
0.000256
0.000263
0.000230
0.000247
0.000259
0.000240
0.000262
0.000270
0.000319
0.000410
0.000668
0.000241
0.001752
0.000248
0.000294
0.000295
0.000485
0.000523
0.000367
0.000250
0.000251
0.000253
0.000271
0.000204
0.000056
0.000218
0.000232
0.000243
0.000344
0.001228
0.000229
0.000291
0.000228
0.000238
0.000237
0.000238
0.000259
0.000276
0.000261
0.000236
0.000262
0.000571
0.000365
0.000321
0.000231
0.000281
0.000264
0.000247
0.000234
0.000294
0.000261
0.000242
0.000279
0.000274
0.000340
0.000551
0.000057
0.000227
0.000262
0.000212
0.000263
0.000266
0.000233
0.000237
0.000266
0.000287
0.000261
0.001409
0.000224
0.000243
0.000248
0.000248
0.000242
0.000294
0.000240
0.000288
0.000238
0.000287
0.000468
0.000531
0.000320
0.000232
0.000267
0.001762
0.000258
0.000254
0.000353
0.000420
0.000056
0.000223
0.000404
0.000437
0.000501
0.000515
0.000551
0.001482
0.000421
0.000526
0.000652
0.000556
0.000700
0.000500
0.000617
0.000587
0.001940
0.000332
0.000437
0.000392
0.000324
0.000234
0.000295
0.000267
0.000272
0.000254
0.000288
0.000292
0.000285
0.000258
0.000287
0.001358
0.000056
0.000210
0.000226
0.000245
0.000244
0.000258
0.000253
0.000236
0.000238
0.000252
0.000246
0.000244
0.000245
0.000248
0.000263
0.000273
0.000260
0.001808
0.000283
0.000249
0.000245
0.000258
0.000263
0.000268
0.000258
0.000494
0.000342
0.000344
0.000243
0.000267
0.000276
0.000209
0.000056
0.000205
0.001347
0.000339
0.000273
0.000246
0.000241
0.000241
0.000232
0.000234
0.000238
0.000219
0.000253
0.000250
0.000501
0.000364
0.000312
0.000238
0.001817
0.000383
0.000213
0.000241
0.000262
0.000252
0.000273
0.000277
0.000280
0.000275
0.000247
0.000264
0.000352
0.000173
0.000055
0.000211
0.000235
0.000249
0.001442
0.000213
0.000279
0.000226
0.000250
0.000233
0.000272
0.000246
0.000247
0.000250
0.000278
0.000234
0.000259
0.000263
0.000266
0.000271
0.000271
0.000244
0.001771
0.000275
0.001746
0.000280
0.000254
0.000257
0.000267
0.000329
0.000211
0.000200
0.000056
0.000224
0.000227
0.001338
0.000227
0.000286
0.000214
0.000264
0.000254
0.000242
0.000247
0.000253
0.000240
0.000263
0.000264
0.000259
0.000267
0.000255
0.000288
0.000287
0.000232
0.001887
0.000236
0.001820
0.000246
0.000267
0.000275
0.000226
0.000260
0.000247
0.000268
0.000200
0.000055
0.001405
0.000229
0.000263
0.000221
0.000240
0.000235
0.000374
0.000287
0.000241
0.000244
0.000251
0.000262
0.000255
0.000500
0.000269
0.000251
0.000257
0.000278
0.000248
0.000265
0.000249
0.000348
0.000218
0.000255
0.000273
0.000276
0.000272
0.000367
0.000616
0.000384
0.000178
0.000057
0.000218
0.000253
0.000271
0.000295
0.000361
0.000265
0.001708
0.000281
0.000280
0.000266
0.000259
0.000270
0.000265
0.000271
0.000297
0.000312
0.000453
0.000565
0.000271
0.000266
0.000294
0.000277
0.000256
0.000276
0.000319
0.000265
0.000267
0.000261
0.000234
0.000317
0.000420
0.000057
0.000243
0.000466
0.000264
0.000263
0.000245
0.000226
0.000229
0.000245
0.000261
0.001609
0.000179
0.000222
0.000213
0.000253
0.000245
0.000290
0.000274
0.000245
0.000257
0.000265
0.000281
0.000314
0.000647
0.000265
0.000246
0.000291
0.000270
0.000255
0.000233
0.000319
0.000168
0.000055
0.000191
0.000239
0.000290
0.000450
0.000404
0.000246
0.000218
0.000250
0.000251
0.000248
0.000234
0.000255
0.000256
0.000266
0.000239
0.000266
0.000381
0.001245
0.000216
0.000311
0.000223
0.000226
0.000350
0.000436
0.000239
0.000460
0.000436
0.000373
0.000355
0.000248
0.000175
0.000057
0.000211
0.000249
0.000261
0.000260
0.000260
0.000244
0.000325
0.000438
0.000423
0.000275
0.000365
0.000394
0.000396
0.000360
0.000260
0.000221
0.000244
0.000292
0.000405
0.000424
0.001275
0.000219
0.000270
0.000277
0.000236
0.000232
0.000266
0.000342
0.000484
0.000335
0.000261
0.000056
0.000192
0.000230
0.000262
0.000243
0.000240
0.000242
0.000238
0.000268
0.000306
0.000391
0.000384
0.000366
0.000254
0.000233
0.000246
0.000255
0.000252
0.000260
0.000266
0.000270
0.000441
0.000243
0.000369
0.000424
0.000317
0.000244
0.000271
0.000256
0.000264
0.000340
0.000161
0.000058
0.000288
0.000310
0.000448
0.000253
0.000469
0.000328
0.000238
0.000244
0.000246
0.000298
0.000229
0.000264
0.000233
0.000256
0.000239
0.000229
0.000293
0.000349
0.000456
0.000370
0.000247
0.000247
0.000251
0.000246
0.000272
0.000283
0.000257
0.000283
0.000263
0.000260
0.000313
0.000056
0.000341
0.000285
0.000244
0.000268
0.000220
0.000245
0.000250
0.000256
0.000263
0.000256
0.000248
0.000237
0.000372
0.000393
0.000454
0.000293
0.000249
0.000240
0.000253
0.000265
0.000255
0.000264
0.000257
0.000269
0.000271
0.000352
0.000410
0.000562
0.000405
0.000261
0.000171
0.000056
0.000378
0.000220
0.000214
0.000262
0.000236
0.000246
0.000236
0.000253
0.000254
0.000257
0.000229
0.000240
0.000270
0.000228
0.000238
0.000264
0.000258
0.000266
0.000294
0.000246
0.000253
0.000262
0.000259
0.000268
0.000264
0.000235
0.000263
0.000288
0.000245
0.000285
0.000200
0.000056
0.000192
0.000237
0.000240
0.000255
0.000230
0.000256
0.000259
0.000246
0.000254
0.000281
0.000226
0.000234
0.000265
0.000391
0.000259
0.000295
0.000240
0.000268
0.000255
0.000283
0.000273
0.000227
0.000252
0.000252
0.000271
0.000275
0.000244
0.000256
0.000273
0.000261
0.000211
0.000057
0.000212
0.000359
0.000368
0.000283
0.000295
0.000255
0.000266
0.000256
0.000217
0.000249
0.000285
0.000228
0.000242
0.000243
0.000262
0.000278
0.000253
0.000260
0.000245
0.000265
0.000271
0.000265
0.000283
0.000251
0.000295
0.000228
0.000251
0.000269
0.000273
0.000265
0.000200
0.000074
0.000183
0.000234
0.000265
0.000263
0.000248
0.000449
0.000211
0.000271
0.000274
0.000412
0.000511
0.000277
0.000231
0.000253
0.000269
0.000266
0.000236
0.000270
0.000259
0.000265
0.000284
0.000242
0.000254
0.000257
0.000664
0.000406
0.000261
0.000296
0.000259
0.000266
0.000192
0.000055
0.000214
0.000230
0.000244
0.000254
0.000364
0.000620
0.000327
0.000376
0.000188
0.000246
0.000254
0.000250
0.000255
0.000249
0.000258
0.000267
0.000275
0.000229
0.000710
0.000362
0.000262
0.000239
0.000255
0.000287
0.000283
0.000252
0.000262
0.000284
0.000231
0.000333
0.000312
0.000056
0.000274
0.000232
0.000236
0.000239
0.000259
0.000264
0.000216
0.000252
0.000243
0.000252
0.000250
0.000253
0.000248
0.000365
0.000701
0.000285
0.000251
0.000246
0.000261
0.000242
0.000271
0.000287
0.000470
0.000222
0.000261
0.000759
0.000253
0.000478
0.000264
0.000244
0.000188
0.000056
0.000191
0.000231
0.000238
0.000247
0.000253
0.000255
0.000360
0.000356
0.000612
0.000439
0.000206
0.000262
0.000269
0.000276
0.000255
0.000246
0.000237
0.000254
0.000265
0.000387
0.000380
0.000612
0.000385
0.000230
0.000355
0.000380
0.000488
0.000243
0.000262
0.000335
0.000540
0.000055
0.000279
0.000227
0.000441
0.000218
0.000232
0.000249
0.000269
0.000255
0.000231
0.000242
0.000269
0.000410
0.000412
0.000280
0.000241
0.000244
0.000265
0.000239
0.000264
0.000281
0.000297
0.000231
0.000244
0.000284
0.000284
0.000507
0.000484
0.000268
0.000235
0.000297
0.000171
0.000056
0.000225
0.000250
0.000227
0.000247
0.000245
0.000314
0.000341
0.000450
0.000358
0.000274
0.000374
0.000240
0.000233
0.000263
0.000255
0.000237
0.000257
0.000261
0.000273
0.000418
0.000514
0.000299
0.000478
0.000269
0.000386
0.000416
0.000386
0.000251
0.000246
0.000346
0.000353
0.000057
0.000272
0.000230
0.000224
0.000271
0.000270
0.000232
0.000272
0.000228
0.000272
0.000243
0.000235
0.000477
0.000421
0.000281
0.000368
0.000228
0.000267
0.000264
0.000262
0.000237
0.000254
0.000251
0.000265
0.000273
0.000280
0.000339
0.000580
0.000371
0.000242
0.000277
0.000194
0.000056
0.000212
0.000237
0.000276
0.000244
0.000244
0.000338
0.000595
0.000379
0.000560
0.000508
0.000243
0.000228
0.000232
0.000261
0.000240
0.000269
0.000279
0.000269
0.000480
0.000485
0.001445
0.000311
0.000270
0.000265
0.000282
0.000252
0.000428
0.000408
0.000337
0.000298
0.000192
0.000056
0.000219
0.000235
0.000239
0.000266
0.000224
0.000252
0.000308
0.000228
0.000243
0.000326
0.000330
0.000379
0.000265
0.000344
0.000396
0.000345
0.000244
0.000243
0.000270
0.000254
0.000252
0.000246
0.000312
0.000220
0.000326
0.000444
0.000461
0.000235
0.000252
0.000273
0.000192
0.000056
0.000228
0.000252
0.000253
0.000258
0.000236
0.000236
0.000474
0.000215
0.000229
0.000259
0.000242
0.000251
0.000260
0.000269
0.000237
0.000274
0.000256
0.000292
0.000263
0.000245
0.000278
0.000270
0.000280
0.000257
0.000261
0.000275
0.000267
0.000273
0.000266
0.000264
0.000180
0.000055
0.000237
0.000240
0.000363
0.000425
0.000300
0.000255
0.000239
0.000249
0.000257
0.000257
0.000244
0.000253
0.000264
0.000262
0.000237
0.000248
0.000264
0.000251
0.000259
0.000435
0.000460
0.000309
0.000224
0.000271
0.000254
0.000260
0.000258
0.000257
0.000274
0.000275
0.000203
0.000056
0.000435
0.000362
0.000416
0.000201
0.000250
0.000263
0.000411
0.000212
0.000237
0.000255
0.000252
0.000291
0.000402
0.000385
0.001872
0.000244
0.000233
0.000256
0.000276
0.000240
0.000342
0.000483
0.000590
0.000275
0.000233
0.000264
0.000273
0.000429
0.000277
0.000279
0.000170
0.000056
0.000239
0.000378
0.000385
0.000262
0.000490
0.000204
0.000251
0.000253
0.000231
0.000249
0.000260
0.000247
0.000264
0.000301
0.000451
0.000452
0.000223
0.000237
0.000267
0.000253
0.000265
0.000324
0.000236
0.000280
0.000269
0.000616
0.000352
0.000378
0.000480
0.000229
0.000205
0.000055
0.000194
0.000231
0.000257
0.000255
0.000225
0.000249
0.000268
0.000294
0.000343
0.000344
0.000449
0.000341
0.000227
0.000252
0.000264
0.000287
0.000297
0.000238
0.000276
0.000274
0.000233
0.000306
0.000470
0.000400
0.000316
0.000196
0.000266
0.000440
0.000414
0.000315
0.000166
0.000056
0.000188
0.000301
0.000267
0.000487
0.000314
0.000228
0.000227
0.000248
0.000261
0.000272
0.000246
0.000254
0.000243
0.000245
0.000257
0.000422
0.000271
0.000370
0.000289
0.000351
0.000482
0.000225
0.000289
0.000270
0.000294
0.000291
0.000251
0.000285
0.000493
0.000488
0.000186
0.000055
0.000191
0.000223
0.000255
0.000247
0.000243
0.000484
0.000234
0.000236
0.000263
0.000390
0.000432
0.000586
0.000213
0.000241
0.000232
0.000256
0.000257
0.000270
0.000238
0.000248
0.000290
0.000237
0.000385
0.000388
0.000369
0.000418
0.000298
0.000296
0.000326
0.000238
0.000191
0.000056
0.000196
0.000238
0.000263
0.000495
0.000359
0.000232
0.000258
0.000252
0.000227
0.000252
0.000258
0.000255
0.000268
0.000236
0.000258
0.000252
0.000248
0.000245
0.000270
0.000442
0.000488
0.000355
0.000226
0.000251
0.000276
0.000275
0.000258
0.000261
0.000265
0.000267
0.000199
0.000056
0.000300
0.000332
0.000469
0.000251
0.000214
0.000246
0.000313
0.000455
0.000285
0.000234
0.000229
0.000275
0.000335
0.000382
0.000421
0.000295
0.000225
0.000237
0.000261
0.000276
0.000257
0.000255
0.000270
0.000269
0.000277
0.000309
0.000390
0.000413
0.000307
0.000220
0.000196
0.000056
0.000209
0.000237
0.000247
0.000256
0.000253
0.000266
0.000222
0.000276
0.000250
0.000238
0.000264
0.000236
0.000292
0.001432
0.000222
0.000255
0.000259
0.000252
0.000276
0.000275
0.000255
0.000242
0.000280
0.000248
0.000273
0.000279
0.000257
0.000273
0.000261
0.000269
0.000193
0.000056
0.000215
0.000249
0.000237
0.000266
0.000214
0.000266
0.000243
0.000256
0.000229
0.000251
0.000249
0.000266
0.000253
0.000251
0.000255
0.000259
0.000256
0.000264
0.000262
0.000248
0.000261
0.000256
0.000257
0.000245
0.001289
0.000266
0.000652
0.000433
0.000270
0.000240
0.000198
0.000057
0.000209
0.000230
0.000245
0.000252
0.000408
0.000248
0.000237
0.000241
0.000253
0.000445
0.000367
0.000345
0.000226
0.000239
0.000264
0.000251
0.000261
0.000263
0.000246
0.000257
0.000259
0.000258
0.000307
0.000459
0.000470
0.000418
0.000226
0.000256
0.001367
0.000241
0.000191
0.000056
0.000346
0.000441
0.000292
0.000271
0.000228
0.000236
0.000222
0.000247
0.000260
0.000252
0.000251
0.000263
0.000295
0.000306
0.000598
0.000291
0.000328
0.000216
0.000251
0.000256
0.000269
0.000287
0.000245
0.000265
0.000270
0.000264
0.000302
0.000593
0.000370
0.000373
0.000142
0.000057
0.000210
0.000231
0.001261
0.000432
0.000294
0.000488
0.000350
0.000493
0.000266
0.000351
0.000213
0.000239
0.000260
0.000249
0.000249
0.000269
0.000336
0.000516
0.000412
0.000337
0.000270
0.000235
0.000263
0.000498
0.000243
0.000257
0.000252
0.000282
0.000290
0.000587
0.000287
0.000058
0.000377
0.000312
0.000234
0.001386
0.000455
0.000413
0.000354
0.000196
0.000241
0.000244
0.000235
0.000237
0.000250
0.000267
0.000248
0.000268
0.000226
0.000322
0.000405
0.000375
0.000418
0.000240
0.000256
0.000262
0.000261
0.000271
0.000266
0.000242
0.000268
0.000273
0.000202
0.000055
0.000393
0.000342
0.000218
0.000241
0.000248
0.000244
0.000256
0.000244
0.000229
0.000224
0.001386
0.000534
0.000228
0.000250
0.000233
0.000255
0.000275
0.000261
0.000239
0.000302
0.000242
0.000248
0.000268
0.000447
0.000354
0.000488
0.000228
0.000280
0.000262
0.000286
0.000174
0.000055
0.000215
0.000422
0.000212
0.000276
0.000305
0.000492
0.000378
0.000268
0.000457
0.000208
0.000233
0.000251
0.000262
0.000265
0.000254
0.001527
0.000256
0.000295
0.000224
0.000277
0.000291
0.000236
0.000254
0.000247
0.000273
0.000265
0.000468
0.000496
0.000218
0.000274
0.000168
0.000056
0.000191
0.000239
0.000258
0.000239
0.000229
0.000254
0.000239
0.000247
0.000344
0.000298
0.000464
0.000304
0.000207
0.000259
0.000246
0.000288
0.000254
0.000266
0.000264
0.000232
0.000251
0.000316
0.001256
0.000240
0.000287
0.000245
0.000245
0.000274
0.000257
0.000267
0.000184
0.000057
0.000232
0.000415
0.000309
0.000333
0.000267
0.000219
0.000257
0.000289
0.000239
0.000276
0.000220
0.000273
0.000238
0.000252
0.000277
0.000246
0.000264
0.000273
0.000261
0.000238
0.000264
0.000268
0.000272
0.000285
0.000281
0.000273
0.000261
0.000263
0.000265
0.000442
0.001354
0.000055
0.000201
0.000248
0.000221
0.000283
0.000215
0.000259
0.000244
0.000230
0.000245
0.000250
0.000305
0.000229
0.000247
0.000238
0.000276
0.000222
0.001734
0.000252
0.000244
0.000258
0.000246
0.000256
0.000277
0.000256
0.000306
0.000225
0.000266
0.000291
0.000261
0.000256
0.000229
0.000056
0.000342
0.000220
0.001327
0.000223
0.000236
0.000248
0.000259
0.000265
0.000255
0.000242
0.000234
0.000372
0.000394
0.000437
0.000260
0.000229
0.000250
0.000250
0.000259
0.000263
0.000243
0.000304
0.000234
0.000286
0.000263
0.000404
0.000349
0.000398
0.000295
0.000234
0.000198
0.000056
0.000217
0.000240
0.000240
0.000268
0.000254
0.000202
0.000241
0.000279
0.000393
0.001335
0.000272
0.000216
0.000248
0.000261
0.000272
0.000278
0.000240
0.000251
0.000314
0.000458
0.000321
0.000268
0.000249
0.000244
0.000290
0.000266
0.000278
0.000286
0.000302
0.000243
0.000187
0.000056
0.000291
0.000392
0.000379
0.000214
0.000225
0.000242
0.000251
0.000276
0.000262
0.000249
0.000231
0.000276
0.000432
0.000495
0.000469
0.001461
0.000250
0.000259
0.000347
0.000346
0.000463
0.000513
0.000382
0.000402
0.000229
0.000260
0.000292
0.000256
0.000261
0.000272
0.000191
0.000055
0.000226
0.000291
0.000464
0.000420
0.000368
0.000252
0.000232
0.000241
0.000238
0.000272
0.000234
0.000273
0.000275
0.000245
0.000245
0.000303
0.000347
0.000425
0.001421
0.000336
0.000214
0.000251
0.000253
0.000281
0.000486
0.000432
0.000338
0.000268
0.000268
0.000269
0.000192
0.000055
0.000204
0.000247
0.000241
0.000282
0.000216
0.000307
0.000455
0.000412
0.000311
0.000221
0.000240
0.000259
0.000269
0.000294
0.000238
0.000249
0.000267
0.000264
0.000277
0.000245
0.000541
0.000386
0.000299
0.001386
0.000368
0.000246
0.000273
0.000418
0.000469
0.000321
0.000310
0.000056
0.000201
0.000234
0.000247
0.000250
0.000252
0.000251
0.001678
0.000256
0.000217
0.000230
0.000255
0.000248
0.000258
0.000324
0.000327
0.000290
0.000253
0.000376
0.000438
0.000447
0.000268
0.000288
0.000232
0.000245
0.001498
0.000374
0.000384
0.000473
0.000315
0.000304
0.000158
0.000055
0.000197
0.000245
0.000254
0.000259
0.000241
0.000271
0.001703
0.000223
0.000255
0.000258
0.000338
0.000396
0.001502
0.000321
0.000383
0.000238
0.000248
0.000242
0.000259
0.000285
0.001614
0.000515
0.000375
0.000284
0.000230
0.000256
0.000261
0.000284
0.000237
0.000256
0.000204
0.000055
0.000197
0.000241
0.000268
0.000250
0.000260
0.000274
0.000277
0.000252
0.000257
0.000252
0.000252
0.000248
0.000292
0.000257
0.000248
0.001480
0.000301
0.000212
0.000268
0.000274
0.000272
0.000258
0.000427
0.001270
0.000277
0.000235
0.000271
0.000271
0.000380
0.000242
0.000206
0.000055
0.000217
0.000253
0.000218
0.000248
0.000242
0.000225
0.000234
0.001692
0.000259
0.000229
0.000353
0.000285
0.000204
0.000229
0.000249
0.001394
0.000223
0.000269
0.000260
0.000254
0.000277
0.000332
0.000295
0.001302
0.000293
0.000247
0.000228
0.000290
0.001367
0.000276
0.000217
0.000056
0.000258
0.000321
0.000213
0.000240
0.000264
0.000224
0.000289
0.000248
0.000264
0.000251
0.000258
0.000262
0.000260
0.000233
0.000318
0.001521
0.000245
0.000249
0.000248
0.000249
0.000309
0.000236
0.000248
0.001519
0.000343
0.000233
0.000272
0.001273
0.000266
0.000245
0.000230
0.000056
0.000214
0.000499
0.000229
0.000217
0.000236
0.000238
0.000271
0.000250
0.000266
0.000272
0.000234
0.000253
0.000262
0.000315
0.000371
0.001225
0.000223
0.000253
0.000265
0.000277
0.000233
0.000244
0.000248
0.000362
0.001251
0.000248
0.000253
0.000245
0.000276
0.001323
0.000303
0.000056
0.000269
0.000224
0.000225
0.000227
0.000243
0.000256
0.000239
0.000253
0.000297
0.000231
0.000246
0.000247
0.000245
0.000310
0.000438
0.001468
0.000214
0.000253
0.000308
0.000523
0.000259
0.001491
0.000328
0.000261
0.000214
0.000262
0.000275
0.001279
0.000373
0.000466
0.000366
0.000056
0.000232
0.000253
0.000255
0.000252
0.000278
0.000234
0.000267
0.000263
0.000246
0.000261
0.000315
0.000466
0.001333
0.000243
0.000268
0.000266
0.000279
0.000222
0.000234
0.000238
0.000384
0.001210
0.000253
0.000247
0.000255
0.000241
0.001551
0.000384
0.000499
0.000216
0.000186
0.000056
0.000206
0.000227
0.000252
0.000257
0.000235
0.000267
0.000235
0.000370
0.000311
0.000494
0.000276
0.001488
0.000219
0.000232
0.000268
0.000261
0.000252
0.000289
0.001698
0.000245
0.000388
0.000346
0.001377
0.000316
0.000259
0.000317
0.000264
0.000248
0.000266
0.000268
0.000201
0.000055
0.000202
0.000234
0.000322
0.000321
0.000309
0.000540
0.000220
0.000307
0.001455
0.000230
0.000392
0.000257
0.000343
0.000223
0.000379
0.001302
0.000261
0.000247
0.000247
0.000257
0.001513
0.000391
0.000284
0.000280
0.000262
0.000239
0.000457
0.000325
0.000242
0.000270
0.000248
0.000055
0.000254
0.000341
0.000335
0.000277
0.000225
0.001518
0.000222
0.000253
0.000263
0.000267
0.000271
0.000238
0.000267
0.001524
0.000259
0.000224
0.000431
0.001190
0.000336
0.000466
0.000379
0.000246
0.000234
0.000258
0.000296
0.000223
0.000453
0.000228
0.000265
0.000272
0.000222
0.000057
0.000209
0.000347
0.000250
0.000352
0.001326
0.000291
0.000315
0.000226
0.000221
0.000247
0.000254
0.000431
0.001375
0.000269
0.000236
0.000235
0.001382
0.000279
0.000466
0.000495
0.000281
0.000227
0.000252
0.000252
0.000268
0.000300
0.000246
0.000264
0.000258
0.000258
0.000198
0.000056
0.000218
0.000424
0.001405
0.000213
0.000272
0.000305
0.000217
0.000246
0.000274
0.000390
0.001371
0.000215
0.000265
0.000260
0.000268
0.001237
0.000761
0.000246
0.000322
0.000409
0.000305
0.000249
0.000263
0.000257
0.000277
0.000283
0.000272
0.000348
0.000383
0.000439
0.001367
0.000055
0.000216
0.000245
0.000236
0.000231
0.000312
0.000408
0.000405
0.001305
0.000251
0.000252
0.000240
0.001505
0.000393
0.000293
0.000228
0.000421
0.000242
0.000235
0.000268
0.000291
0.000270
0.000235
0.000280
0.000256
0.000254
0.000283
0.000487
0.000435
0.001482
0.000238
0.000193
0.000057
0.000193
0.000258
0.000600
0.001283
0.000311
0.000240
0.000221
0.000264
0.000245
0.000253
0.000249
0.000306
0.000325
0.000531
0.000290
0.000245
0.000250
0.000272
0.000241
0.000321
0.000222
0.000263
0.000259
0.000265
0.000268
0.000357
0.000520
0.000324
0.000324
0.001401
0.000182
0.000056
0.000192
0.000234
0.000305
0.000444
0.000327
0.000303
0.000323
0.000330
0.000297
0.000251
0.000233
0.000268
0.000250
0.000315
0.000227
0.000291
0.000600
0.000279
0.000288
0.000395
0.000265
0.000404
0.000244
0.000244
0.000253
0.000258
0.000252
0.000296
0.000451
0.000421
0.000258
0.000056
0.000209
0.001410
0.000228
0.000337
0.000405
0.000463
0.000377
0.000287
0.000219
0.000236
0.000262
0.000244
0.000284
0.000273
0.000253
0.000242
0.000260
0.001256
0.000360
0.000253
0.000260
0.000271
0.000270
0.000274
0.000267
0.000259
0.000273
0.000247
0.000352
0.000405
0.000281
0.000056
0.000221
0.000240
0.000233
0.001508
0.000326
0.000234
0.000225
0.000247
0.000234
0.000238
0.000260
0.000285
0.000240
0.000250
0.000297
0.000225
0.000250
0.000265
0.000268
0.000243
0.001440
0.000227
0.000243
0.000280
0.000254
0.000244
0.000275
0.000257
0.000282
0.000491
0.000348
0.000056
0.000201
0.000229
0.000408
0.000276
0.000233
0.000259
0.001570
0.000371
0.000230
0.000221
0.000258
0.000334
0.000320
0.000218
0.000232
0.000250
0.000242
0.000288
0.000236
0.000264
0.000516
0.000470
0.001127
0.000276
0.000228
0.000263
0.000271
0.000252
0.000307
0.000228
0.000390
0.000056
0.000257
0.000317
0.000227
0.000239
0.000251
0.000237
0.000244
0.000227
0.000288
0.001663
0.000372
0.000240
0.000240
0.000242
0.000255
0.000243
0.000264
0.000272
0.000267
0.000314
0.000345
0.000516
0.000402
0.001344
0.000230
0.000278
0.000257
0.000254
0.000273
0.000273
0.000583
0.000072
0.000174
0.000260
0.000222
0.000231
0.000223
0.000245
0.000261
0.000281
0.000251
0.001621
0.000315
0.000257
0.000243
0.000254
0.000474
0.000246
0.000551
0.000371
0.000271
0.000267
0.000514
0.000482
0.001257
0.000262
0.000223
0.000263
0.001742
0.000411
0.000624
0.000315
0.000149
0.000056
0.000200
0.000225
0.000243
0.000236
0.000282
0.000220
0.000250
0.000494
0.000521
0.000400
0.000285
0.000216
0.000247
0.000260
0.000290
0.000262
0.000233
0.000243
0.000256
0.000286
0.000251
0.000393
0.001377
0.000226
0.000248
0.000278
0.001909
0.000370
0.000394
0.000339
0.000147
0.000057
0.000228
0.000236
0.000240
0.001595
0.000397
0.000218
0.000233
0.000267
0.000252
0.000275
0.000378
0.000368
0.000370
0.000269
0.000429
0.000397
0.000408
0.001176
0.000280
0.000235
0.000247
0.000260
0.000280
0.000432
0.000700
0.000347
0.000248
0.000271
0.000270
0.000276
0.000195
0.000057
0.000202
0.000234
0.000246
0.001577
0.000218
0.000229
0.000242
0.000255
0.000247
0.000245
0.000258
0.000266
0.000282
0.000258
0.000322
0.000385
0.000399
0.000305
0.001398
0.000221
0.000267
0.000258
0.000256
0.000263
0.000503
0.000296
0.000505
0.000274
0.000292
0.000230
0.000435
0.000056
0.000204
0.000231
0.000271
0.001614
0.000215
0.000223
0.000263
0.000244
0.000255
0.000256
0.000253
0.000275
0.000239
0.000283
0.000338
0.000677
0.001258
0.000751
0.000253
0.000337
0.000242
0.000240
0.000250
0.000271
0.001688
0.000808
0.000225
0.000259
0.000280
0.000288
0.000181
0.000056
0.000200
0.000236
0.000251
0.000243
0.000285
0.000247
0.000210
0.000257
0.000234
0.000237
0.000289
0.000296
0.000239
0.000248
0.000263
0.000251
0.000268
0.001604
0.000731
0.000389
0.000268
0.000237
0.000246
0.000311
0.000246
0.000252
0.000276
0.000249
0.001480
0.000330
0.000317
0.000056
0.000214
0.000217
0.000267
0.000232
0.000261
0.000227
0.000279
0.000230
0.000252
0.000261
0.000401
0.000310
0.000423
0.000330
0.000215
0.000247
0.000263
0.001396
0.000711
0.000488
0.000315
0.000258
0.000228
0.000249
0.000274
0.000254
0.000268
0.000249
0.001486
0.000434
0.000200
0.000055
0.000211
0.000232
0.000244
0.000249
0.000246
0.000250
0.000237
0.000250
0.000269
0.000274
0.000450
0.000341
0.000275
0.000219
0.000241
0.000243
0.000270
0.000252
0.001585
0.000644
0.000541
0.000216
0.000237
0.000250
0.000264
0.000256
0.000272
0.000295
0.000245
0.001521
0.000163
0.000057
0.000220
0.000221
0.000239
0.000257
0.000253
0.000244
0.000249
0.000308
0.000367
0.000517
0.000281
0.000391
0.000364
0.000221
0.000241
0.000252
0.000301
0.000234
0.000265
0.001904
0.000352
0.000230
0.000450
0.000238
0.000255
0.000262
0.000265
0.000266
0.000266
0.000277
0.000445
0.000056
0.000265
0.000257
0.000232
0.000243
0.000276
0.000225
0.000232
0.000235
0.000293
0.000246
0.000232
0.000234
0.000311
0.000393
0.000501
0.000438
0.000221
0.000265
0.000245
0.000255
0.000254
0.000288
0.001468
0.001048
0.000219
0.000265
0.000257
0.000268
0.000274
0.000252
0.000204
0.000056
0.000191
0.001342
0.000286
0.000216
0.000233
0.000254
0.000255
0.000236
0.000242
0.000261
0.000246
0.000262
0.000236
0.000336
0.000474
0.000423
0.000248
0.000249
0.000266
0.000268
0.000278
0.000224
0.000251
0.000270
0.001331
0.000670
0.000315
0.000388
0.000376
0.000405
0.000289
0.000055
0.000216
0.000243
0.000362
0.001313
0.000209
0.000251
0.000233
0.000260
0.000252
0.000257
0.000270
0.000232
0.000262
0.000379
0.000529
0.000309
0.000232
0.000282
0.000322
0.000219
0.000246
0.000271
0.000242
0.000266
0.000271
0.001536
0.000743
0.000321
0.000254
0.000277
0.000193
0.000057
0.000219
0.000276
0.000443
0.000315
0.001302
0.000263
0.000208
0.000244
0.000230
0.000256
0.000244
0.000259
0.000231
0.000257
0.000227
0.000260
0.000267
0.000245
0.000252
0.000257
0.000263
0.000271
0.000312
0.000327
0.000215
0.000265
0.000268
0.001459
0.000258
0.000239
0.000184
0.000056
0.000201
0.000231
0.000248
0.000270
0.000354
0.000372
0.000397
0.000281
0.001571
0.000241
0.000339
0.000436
0.000355
0.000236
0.000433
0.000234
0.000236
0.000261
0.000279
0.000264
0.000279
0.000267
0.000256
0.000274
0.000241
0.000519
0.000383
0.000236
0.001588
0.000233
0.000187
0.000055
0.000239
0.000240
0.000243
0.000251
0.000234
0.000247
0.000264
0.000314
0.000421
0.002019
0.000221
0.000254
0.000255
0.000256
0.000261
0.000261
0.000263
0.000255
0.000315
0.000442
0.000317
0.000444
0.001444
0.000244
0.000243
0.002013
0.000307
0.000221
0.000257
0.001523
0.000165
0.000056
0.000369
0.000424
0.000422
0.000239
0.000283
0.000207
0.000264
0.000292
0.000236
0.000226
0.000252
0.000346
0.000471
0.000291
0.000428
0.000237
0.000233
0.001564
0.000241
0.000638
0.001832
0.000277
0.000226
0.001544
0.002020
0.000747
0.000270
0.000263
0.000317
0.000560
0.000219
0.000055
0.000213
0.000235
0.000276
0.000221
0.001413
0.001740
0.001076
0.000202
0.000237
0.001586
0.001977
0.000212
0.000242
0.000427
0.000308
0.000382
0.000444
0.000412
0.000222
0.000226
0.000257
0.000253
0.000278
0.001665
0.001128
0.001475
0.000244
0.000279
0.000254
0.000308
0.000372
0.000056
0.000224
0.000230
0.000246
0.000240
0.000226
0.000268
0.000226
0.000256
0.000259
0.000241
0.000241
0.000326
0.000400
0.000474
0.000294
0.000255
0.000257
0.000267
0.000266
0.000280
0.000241
0.000266
0.001528
0.000450
0.002174
0.000188
0.000264
0.000434
0.000312
0.000406
0.000197
0.000056
0.000208
0.000407
0.000422
0.000315
0.000218
0.000214
0.000255
0.000239
0.000241
0.000242
0.000252
0.000260
0.000261
0.001610
0.001348
0.001284
0.000267
0.000187
0.000266
0.000254
0.000285
0.000276
0.000251
0.000245
0.002205
0.000246
0.000262
0.000290
0.000327
0.000304
0.000224
0.000056
0.000251
0.000328
0.000543
0.000355
0.000233
0.000218
0.000251
0.000293
0.001873
0.001419
0.000223
0.000322
0.000388
0.000410
0.000267
0.000243
0.000236
0.000268
0.000267
0.000261
0.000262
0.000258
0.000470
0.000241
0.000269
0.000284
0.000236
0.000273
0.000280
0.000249
0.000201
0.000055
0.000202
0.000245
0.000247
0.000244
0.000277
0.000247
0.001548
0.001406
0.001330
0.000235
0.000237
0.000256
0.000247
0.000265
0.000243
0.000273
0.000226
0.002162
0.000194
0.000234
0.000267
0.000266
0.000258
0.000271
0.000260
0.000259
0.000268
0.000249
0.000282
0.000246
0.000188
0.000055
0.000202
0.002672
0.001407
0.000222
0.000301
0.000324
0.000218
0.000283
0.000228
0.000241
0.000254
0.000251
0.000227
0.000249
0.000271
0.000256
0.000262
0.000268
0.000267
0.000259
0.000265
0.000280
0.000278
0.000256
0.000254
0.000249
0.000261
0.000267
0.000272
0.000265
0.000370
0.000055
0.001552
0.000250
0.001233
0.000244
0.000208
0.000246
0.000283
0.000253
0.000224
0.000279
0.000481
0.000263
0.000352
0.000215
0.000234
0.002202
0.000201
0.000251
0.000261
0.000516
0.000366
0.000279
0.000239
0.000250
0.000265
0.000251
0.000260
0.000282
0.000266
0.001631
0.001245
0.000056
0.000199
0.000226
0.000372
0.000327
0.000419
0.000216
0.000215
0.000226
0.000258
0.000254
0.000261
0.000246
0.000227
0.000258
0.000261
0.000248
0.000302
0.000653
0.000342
0.000235
0.000246
0.000258
0.000287
0.000244
0.000255
0.000252
0.000260
0.000274
0.000247
0.000307
0.000396
0.000055
0.001120
0.000335
0.000234
0.000508
0.000247
0.000222
0.000233
0.000238
0.000250
0.002359
0.000372
0.000325
0.000214
0.000385
0.000301
0.000256
0.000240
0.000257
0.000263
0.000232
0.000247
0.000291
0.000676
0.000376
0.001852
0.001307
0.000577
0.000502
0.000224
0.000282
0.000201
0.000056
0.000306
0.000263
0.000247
0.000241
0.000255
0.000220
0.000261
0.000247
0.000275
0.000229
0.000258
0.000218
0.000256
0.000279
0.000408
0.000486
0.001814
0.001323
0.000495
0.000422
0.000441
0.000234
0.000239
0.000262
0.002171
0.000532
0.000376
0.000221
0.000278
0.000287
0.000193
0.000055
0.000205
0.000240
0.000256
0.000263
0.000221
0.000354
0.000416
0.000269
0.000356
0.000214
0.000242
0.000249
0.000262
0.002117
0.000393
0.000362
0.000219
0.000241
0.000292
0.000241
0.000250
0.002492
0.000302
0.000217
0.000264
0.000255
0.000252
0.000274
0.000310
0.000257
0.000190
0.000055
0.000243
0.000415
0.000512
0.000307
0.000253
0.000209
0.000231
0.000253
0.000262
0.000256
0.002048
0.000296
0.000273
0.000268
0.000237
0.000268
0.000278
0.000239
0.002208
0.000454
0.000209
0.000273
0.000269
0.000258
0.000262
0.000245
0.000303
0.000237
0.000263
0.000272
0.000176
0.000056
0.000188
0.000245
0.000241
0.000237
0.000233
0.000261
0.000237
0.000242
0.000234
0.002184
0.000229
0.000292
0.000209
0.000422
0.000221
0.000262
0.000308
0.000259
0.000248
0.000249
0.001971
0.000269
0.000345
0.000364
0.000431
0.000431
0.000283
0.000252
0.000253
0.000262
0.000199
0.000055
0.000208
0.000268
0.000214
0.000249
0.000260
0.000323
0.000209
0.002310
0.000232
0.000248
0.000254
0.000253
0.000240
0.000282
0.000282
0.002123
0.000584
0.000220
0.000256
0.000244
0.000264
0.000256
0.000286
0.000267
0.000267
0.000246
0.000293
0.000249
0.000261
0.000275
0.000194
0.000070
0.001817
0.001428
0.000217
0.000222
0.000240
0.000258
0.000248
0.000266
0.000400
0.000350
0.002183
0.000258
0.000232
0.000269
0.000306
0.000529
0.000350
0.000301
0.000224
0.000253
0.000241
0.000271
0.000264
0.000227
0.000261
0.000262
0.000272
0.000270
0.000397
0.000565
0.000335
0.000057
0.000207
0.000259
0.000242
0.000253
0.000272
0.000241
0.000251
0.000263
0.001475
0.002109
0.000576
0.000278
0.000635
0.000463
0.000353
0.000236
0.000255
0.000252
0.000259
0.000264
0.000259
0.000236
0.000249
0.000271
0.003008
0.000332
0.000242
0.000267
0.000283
0.000320
0.000374
0.000057
0.001931
0.000229
0.000246
0.000219
0.000286
0.000413
0.000410
0.000298
0.000294
0.000215
0.000241
0.000253
0.000255
0.000261
0.000273
0.000240
0.000264
0.000282
0.001826
0.000239
0.000226
0.000261
0.000277
0.000276
0.000269
0.000255
0.001462
0.000338
0.000248
0.000263
0.000176
0.000056
0.000215
0.000228
0.000252
0.000254
0.000224
0.000244
0.000390
0.000282
0.000397
0.000305
0.000232
0.000243
0.000261
0.000329
0.000421
0.000317
0.000231
0.000241
0.000285
0.000397
0.000496
0.000350
0.000266
0.000250
0.000256
0.000254
0.000256
0.000267
0.000277
0.000262
0.000210
0.000056
0.001434
0.000461
0.000208
0.001944
0.000305
0.000480
0.000349
0.000313
0.000221
0.000251
0.000268
0.000239
0.000245
0.000254
0.000259
0.000258
0.000455
0.000388
0.000288
0.000466
0.000281
0.000231
0.000251
0.000266
0.000272
0.000270
0.000263
0.000265
0.000390
0.000446
0.001357
0.000056
0.000223
0.000203
0.002087
0.000330
0.000299
0.000231
0.000260
0.000248
0.000261
0.000265
0.000207
0.000256
0.000261
0.000259
0.000257
0.000463
0.000616
0.001752
0.000225
0.000251
0.000256
0.000263
0.000373
0.000523
0.001495
0.000295
0.000365
0.001926
0.000256
0.000245
0.000208
0.000055
0.000217
0.000228
0.000234
0.000249
0.000228
0.000241
0.000253
0.000289
0.000328
0.000270
0.000387
0.000353
0.000344
0.000289
0.000240
0.000273
0.000258
0.000245
0.000269
0.000245
0.000317
0.000278
0.000268
0.000255
0.000263
0.001521
0.000287
0.000388
0.002076
0.000230
0.000178
0.000056
0.000217
0.000234
0.000239
0.000249
0.000485
0.000210
0.000250
0.000341
0.000381
0.000309
0.000287
0.000210
0.000265
0.000266
0.000269
0.000328
0.000429
0.000427
0.000259
0.000429
0.000494
0.000419
0.001614
0.000223
0.000250
0.002046
0.000274
0.000239
0.000246
0.000294
0.000197
0.000056
0.000201
0.000247
0.000223
0.000249
0.000250
0.000266
0.000255
0.000277
0.000247
0.000254
0.001811
0.000323
0.000379
0.000285
0.000466
0.000382
0.000333
0.001500
0.000258
0.000264
0.002203
0.000481
0.000266
0.000234
0.000259
0.000260
0.000505
0.000224
0.000257
0.000276
0.000200
0.000056
0.000291
0.000445
0.000281
0.000287
0.000204
0.000245
0.000261
0.000252
0.000263
0.000283
0.000236
0.000248
0.000259
0.000257
0.000433
0.000415
0.001284
0.000265
0.000284
0.002041
0.000237
0.000288
0.000232
0.000258
0.000250
0.000283
0.000276
0.000252
0.000247
0.000273
0.000195
0.000056
0.000221
0.000474
0.001972
0.000259
0.000225
0.000245
0.000254
0.000351
0.000451
0.000375
0.001289
0.000384
0.000357
0.002078
0.000224
0.000229
0.000276
0.000271
0.000252
0.000239
0.000288
0.000299
0.000246
0.000307
0.000567
0.000330
0.000308
0.002245
0.000597
0.000433
0.000343
0.000057
0.000213
0.000222
0.000247
0.001968
0.000234
0.000215
0.000248
0.000238
0.000246
0.000255
0.000245
0.000265
0.000298
0.000215
0.000451
0.001470
0.000255
0.000261
0.000250
0.000256
0.000230
0.000266
0.000248
0.000287
0.000314
0.000461
0.000466
0.000253
0.001581
0.000274
0.000157
0.000056
0.000187
0.000232
0.000244
0.000239
0.000261
0.000265
0.000227
0.000249
0.000252
0.000369
0.000402
0.001377
0.000238
0.000232
0.000248
0.000291
0.000231
0.000250
0.000261
0.000582
0.000379
0.000411
0.000218
0.001572
0.000241
0.000266
0.000278
0.000278
0.000265
0.000265
0.000198
0.000055
0.000207
0.000238
0.000284
0.000246
0.000247
0.000246
0.000231
0.000247
0.000277
0.000223
0.000246
0.000259
0.000263
0.001479
0.000363
0.000214
0.000245
0.000271
0.000282
0.000312
0.000365
0.000271
0.000242
0.000267
0.000258
0.000265
0.000265
0.001407
0.000278
0.000234
0.000176
0.000056
0.000206
0.000233
0.000261
0.000257
0.000277
0.000219
0.000245
0.000258
0.000220
0.000271
0.000243
0.000256
0.000231
0.000335
0.000337
0.000412
0.000214
0.000241
0.001621
0.000258
0.000231
0.000260
0.000262
0.000316
0.000357
0.000373
0.000458
0.000265
0.000258
0.001612
0.000159
0.000057
0.000318
0.000319
0.000436
0.000245
0.000226
0.000222
0.000262
0.000259
0.000253
0.000258
0.000222
0.000243
0.001462
0.000330
0.000273
0.000221
0.000243
0.000277
0.000253
0.000264
0.000252
0.000235
0.000266
0.000270
0.000264
0.000397
0.000518
0.000264
0.000268
0.000252
0.000197
0.000057
0.000218
0.000250
0.000473
0.000306
0.000348
0.000290
0.000248
0.000248
0.000267
0.000242
0.000248
0.000224
0.000255
0.000240
0.001266
0.000297
0.000232
0.000249
0.000272
0.000260
0.000257
0.000256
0.000250
0.000260
0.000256
0.000262
0.000318
0.000670
0.000466
0.000231
0.000183
0.000056
0.000206
0.001558
0.000277
0.000328
0.000453
0.000360
0.000212
0.000253
0.000274
0.000240
0.000247
0.000262
0.000267
0.000277
0.000253
0.001533
0.000250
0.000285
0.000262
0.000259
0.000274
0.000235
0.000265
0.000264
0.000267
0.000311
0.000409
0.000352
0.000354
0.000235
0.000182
0.000057
0.000196
0.000255
0.000233
0.001786
0.000266
0.000331
0.000223
0.000239
0.000253
0.000275
0.000279
0.000249
0.000259
0.000253
0.000229
0.000296
0.000417
0.001282
0.000253
0.000224
0.001510
0.000309
0.000582
0.000383
0.000346
0.000220
0.000272
0.000466
0.000241
0.000264
0.000183
0.000107
0.000247
0.000209
0.000233
0.000251
0.000246
0.000272
0.000240
0.000237
0.000254
0.000276
0.000225
0.000256
0.000347
0.000472
0.001652
0.001498
0.000361
0.000521
0.000340
0.000234
0.000231
0.000252
0.000256
0.000266
0.000252
0.000261
0.000263
0.000279
0.001543
0.000299
0.000188
0.000056
0.000215
0.000356
0.000353
0.000334
0.000235
0.000231
0.000240
0.000446
0.000353
0.000397
0.002128
0.000335
0.000796
0.000540
0.000317
0.000261
0.000329
0.000393
0.000329
0.000280
0.000406
0.000260
0.001528
0.000530
0.000216
0.000262
0.000259
0.000259
0.000263
0.000268
0.000193
0.000080
0.000211
0.000248
0.000252
0.000251
0.000246
0.001661
0.000872
0.001003
0.000213
0.000227
0.000275
0.000241
0.000262
0.000261
0.000254
0.000248
0.000257
0.000263
0.000267
0.000278
0.001430
0.000317
0.000250
0.000235
0.000230
0.000257
0.000261
0.000283
0.000265
0.000286
0.001896
0.000056
0.000195
0.000229
0.001541
0.000936
0.000303
0.000356
0.000256
0.000214
0.000250
0.000260
0.000253
0.000241
0.000249
0.002010
0.000457
0.000214
0.000231
0.000266
0.000265
0.000260
0.000191
