0.000134
0.017575
0.004151
0.000273
0.000249
0.000297
0.000329
0.000231
0.000326
0.000279
0.000255
0.000327
0.000539
0.000447
0.000384
0.000381
0.000259
0.000344
0.000354
0.000422
0.001838
0.000395
0.000697
0.000273
0.000246
0.000303
0.000313
0.000312
0.000425
0.000411
0.000474
0.000293
0.000059
0.000212
0.000268
0.000271
0.000285
0.000264
0.000234
0.000284
0.000286
0.000261
0.000299
0.000399
0.000436
0.000308
0.000258
0.000373
0.000350
0.000368
0.000246
0.000251
0.001702
0.000310
0.000261
0.000453
0.000255
0.000260
0.000281
0.000289
0.000296
0.000279
0.000319
0.000451
0.000059
0.000192
0.000250
0.000263
0.000260
0.000249
0.000251
0.000259
0.000259
0.000286
0.001663
0.000227
0.000240
0.000270
0.000266
0.000279
0.000250
0.000265
0.000253
0.000354
0.001796
0.000238
0.000277
0.000480
0.000402
0.000381
0.000235
0.000272
0.000497
0.000452
0.000785
0.000199
0.000058
0.000229
0.000248
0.000255
0.000248
0.000286
0.000248
0.000317
0.000541
0.000411
0.000249
0.000241
0.000240
0.000248
0.000258
0.000262
0.000251
0.000240
0.000268
0.000299
0.000335
0.001670
0.000268
0.000250
0.000451
0.000271
0.000719
0.000670
0.000494
0.000357
0.000232
0.000190
0.000057
0.000201
0.000246
0.000299
0.000214
0.000278
0.000234
0.000242
0.001713
0.000242
0.000220
0.000240
0.000244
0.000256
0.000252
0.000264
0.000286
0.000280
0.000825
0.001366
0.000297
0.000239
0.000412
0.000234
0.000256
0.000266
0.000257
0.000270
0.000263
0.000258
0.000272
0.000195
0.000059
0.000210
0.000252
0.000238
0.000265
0.000237
0.000251
0.000234
0.000257
0.000233
0.000257
0.001631
0.000267
0.000228
0.000246
0.000253
0.000248
0.000244
0.000248
0.000252
0.000260
0.000292
0.001642
0.000277
0.000264
0.000429
0.000255
0.000253
0.000262
0.000270
0.000267
0.000195
0.000057
0.000198
0.000229
0.000255
0.000240
0.000249
0.000247
0.000257
0.000238
0.000263
0.000261
0.000247
0.000258
0.000256
0.000276
0.001629
0.000281
0.000295
0.000210
0.000261
0.000276
0.000266
0.000230
0.000247
0.000265
0.001790
0.000394
0.000342
0.000368
0.000238
0.000280
0.000195
0.000056
0.000200
0.000243
0.000245
0.000280
0.000270
0.000237
0.000253
0.000442
0.000399
0.000418
0.000212
0.000242
0.000257
0.000245
0.001565
0.000528
0.000316
0.000432
0.000303
0.000223
0.000270
0.000285
0.000272
0.001727
0.000489
0.000496
0.000250
0.000243
0.000246
0.000268
0.000184
0.000056
0.000199
0.000230
0.000259
0.000271
0.000305
0.000567
0.000262
0.000292
0.000214
0.000247
0.000263
0.000234
0.000258
0.001702
0.000489
0.000303
0.000222
0.000249
0.000270
0.000294
0.000243
0.000258
0.001802
0.000341
0.000330
0.000390
0.000243
0.000253
0.000263
0.000393
0.000333
0.000056
0.000206
0.000394
0.000351
0.000284
0.000252
0.000249
0.000251
0.000257
0.000241
0.000232
0.000236
0.000249
0.001556
0.000329
0.000329
0.000233
0.000256
0.000249
0.000251
0.000301
0.000255
0.000324
0.000251
0.001813
0.000246
0.000505
0.000237
0.000259
0.000254
0.000269
0.000291
0.000057
0.000341
0.000583
0.000595
0.000215
0.000232
0.000271
0.000231
0.000220
0.000260
0.000252
0.000256
0.001701
0.000250
0.000445
0.000369
0.000213
0.000246
0.000227
0.000251
0.000260
0.000253
0.001861
0.000227
0.000467
0.001856
0.000544
0.000342
0.000252
0.000250
0.000271
0.000188
0.000056
0.000219
0.000241
0.000243
0.000240
0.000258
0.001623
0.000251
0.000228
0.000256
0.000248
0.000245
0.000263
0.000229
0.000257
0.000281
0.000379
0.000657
0.000277
0.000205
0.000276
0.000293
0.000222
0.000243
0.000437
0.000432
0.000259
0.000376
0.000615
0.000346
0.000290
0.000189
0.000058
0.000184
0.000232
0.000256
0.000249
0.000244
0.000240
0.000236
0.000439
0.001802
0.000331
0.000197
0.000238
0.000246
0.000244
0.000259
0.000266
0.000409
0.000495
0.000357
0.000259
0.000267
0.000277
0.000283
0.000255
0.000268
0.000440
0.000338
0.000605
0.000432
0.000480
0.000167
0.000057
0.000225
0.000217
0.000242
0.000237
0.000237
0.000240
0.000247
0.000260
0.000229
0.000285
0.000342
0.000397
0.001435
0.000260
0.000221
0.000247
0.000261
0.000245
0.000250
0.000250
0.000278
0.000430
0.000431
0.000271
0.000269
0.000258
0.000248
0.000275
0.000267
0.000256
0.000391
0.000056
0.000214
0.000241
0.000225
0.000380
0.000425
0.000449
0.000217
0.000259
0.000237
0.000261
0.000257
0.000226
0.000298
0.000250
0.000243
0.000492
0.000450
0.001598
0.000274
0.000232
0.000274
0.000254
0.000253
0.000243
0.000265
0.000363
0.000550
0.000337
0.000427
0.000246
0.000186
0.000057
0.000219
0.000438
0.000233
0.000212
0.000283
0.000267
0.000274
0.000546
0.000361
0.000318
0.000200
0.000279
0.000258
0.000240
0.000521
0.000335
0.000233
0.000255
0.000411
0.001624
0.000270
0.000233
0.000530
0.000243
0.000279
0.000280
0.000250
0.000441
0.000452
0.000377
0.000271
0.000057
0.000217
0.000233
0.000236
0.000241
0.000422
0.000306
0.000289
0.000222
0.000347
0.000551
0.000365
0.000269
0.000217
0.000239
0.000256
0.000268
0.000256
0.000252
0.000232
0.000354
0.000287
0.000341
0.001840
0.000238
0.000258
0.000251
0.000283
0.000351
0.000412
0.000695
0.000446
0.000075
0.000217
0.000333
0.000297
0.000415
0.000387
0.000212
0.000257
0.000283
0.000593
0.000345
0.000259
0.000244
0.000239
0.000265
0.000264
0.000235
0.000256
0.000272
0.000268
0.000256
0.000269
0.000446
0.000626
0.001328
0.000328
0.000430
0.000422
0.000235
0.000416
0.000433
0.000328
0.000057
0.000235
0.000381
0.000280
0.000207
0.000233
0.000244
0.000409
0.000241
0.000242
0.000518
0.000273
0.000382
0.000298
0.000260
0.000267
0.000246
0.000378
0.000425
0.000284
0.000248
0.000244
0.000396
0.000607
0.001689
0.000232
0.000426
0.000316
0.000226
0.000247
0.000474
0.000331
0.000055
0.000204
0.000218
0.000257
0.000247
0.000244
0.000237
0.000252
0.000325
0.000458
0.000327
0.000432
0.000337
0.000293
0.000567
0.000248
0.000244
0.000271
0.000265
0.000231
0.000342
0.000218
0.000254
0.000268
0.000411
0.000478
0.001672
0.000274
0.000234
0.000255
0.000265
0.000183
0.000057
0.000354
0.000435
0.000327
0.000211
0.000261
0.000239
0.000260
0.000238
0.000273
0.000231
0.000223
0.000269
0.000410
0.000500
0.000411
0.000290
0.000244
0.000245
0.000343
0.000380
0.000382
0.000334
0.000362
0.000391
0.000256
0.000253
0.000270
0.000270
0.001794
0.000247
0.000207
0.000057
0.000210
0.000220
0.000257
0.000289
0.000339
0.000575
0.000301
0.000198
0.000299
0.000223
0.000245
0.000246
0.000527
0.000445
0.000487
0.000270
0.000266
0.000260
0.000418
0.000466
0.000360
0.000400
0.000500
0.000441
0.000237
0.000248
0.000262
0.000249
0.000265
0.001717
0.000362
0.000060
0.000303
0.000319
0.000217
0.000230
0.000254
0.000252
0.000234
0.000500
0.000382
0.000299
0.000291
0.000296
0.000335
0.000716
0.000266
0.000232
0.000260
0.000252
0.000251
0.000267
0.000277
0.000267
0.000239
0.000260
0.000312
0.000367
0.000398
0.000352
0.000249
0.000252
0.000190
0.000059
0.000447
0.000313
0.000445
0.000254
0.000202
0.000252
0.000245
0.000256
0.000245
0.000214
0.000256
0.000278
0.000293
0.000461
0.000441
0.000486
0.000284
0.000315
0.000379
0.000349
0.000293
0.000244
0.000248
0.000261
0.001742
0.000255
0.001720
0.000946
0.000377
0.000349
0.000157
0.000056
0.000200
0.000239
0.000237
0.000242
0.000271
0.000234
0.000256
0.000253
0.000239
0.000326
0.000339
0.000443
0.000349
0.000374
0.000241
0.000263
0.000246
0.000288
0.000233
0.000253
0.000250
0.000261
0.001807
0.000244
0.000254
0.000266
0.000279
0.000262
0.001870
0.000515
0.000275
0.000057
0.000212
0.000214
0.000234
0.000239
0.000255
0.000265
0.000222
0.000257
0.000253
0.000395
0.000618
0.000235
0.000392
0.000227
0.000242
0.000254
0.000320
0.000438
0.000368
0.000257
0.001786
0.000251
0.000244
0.000250
0.000264
0.000270
0.000244
0.000257
0.000325
0.000287
0.000397
0.000057
0.000246
0.000218
0.000238
0.000275
0.000238
0.000238
0.000255
0.000259
0.000234
0.000261
0.000235
0.000302
0.000432
0.000321
0.000339
0.000259
0.000479
0.000237
0.000249
0.000252
0.000255
0.000268
0.000273
0.000252
0.000281
0.001790
0.000248
0.000249
0.000262
0.000240
0.000193
0.000058
0.000248
0.000377
0.000231
0.000230
0.000234
0.000231
0.000240
0.000262
0.000240
0.000230
0.000230
0.000263
0.000262
0.000368
0.000391
0.000357
0.000297
0.000245
0.000243
0.000258
0.000261
0.000259
0.000253
0.000272
0.000253
0.000257
0.000320
0.001616
0.000272
0.000233
0.000198
0.000057
0.000207
0.000239
0.000248
0.000258
0.000376
0.000405
0.000372
0.000265
0.000224
0.000256
0.000270
0.000229
0.000243
0.000260
0.000258
0.000257
0.000245
0.000261
0.000251
0.000261
0.000271
0.000263
0.000248
0.000234
0.000246
0.000277
0.000281
0.000259
0.000254
0.000265
0.000189
0.000058
0.000218
0.000234
0.000256
0.000299
0.000206
0.000238
0.000240
0.000262
0.000298
0.000231
0.000223
0.000251
0.000255
0.000251
0.000292
0.000237
0.000250
0.000252
0.000312
0.000235
0.000279
0.000312
0.000267
0.000227
0.000306
0.000249
0.000272
0.000241
0.000264
0.000408
0.000611
0.000078
0.000205
0.000285
0.000220
0.000233
0.000235
0.000255
0.000245
0.000247
0.000247
0.000247
0.000266
0.000321
0.000470
0.000547
0.001451
0.000228
0.000504
0.000233
0.000248
0.000463
0.000447
0.000392
0.000203
0.000282
0.000246
0.000262
0.000282
0.000252
0.000307
0.000276
0.000167
0.000057
0.000325
0.000454
0.000359
0.000308
0.000199
0.000276
0.000229
0.000241
0.000233
0.000244
0.000258
0.000257
0.000231
0.000255
0.000350
0.000523
0.000402
0.001769
0.000237
0.000260
0.000349
0.000408
0.000425
0.000318
0.000321
0.000320
0.000301
0.000234
0.000226
0.000256
0.000200
0.000057
0.000220
0.000226
0.000239
0.000280
0.000458
0.000345
0.000371
0.000240
0.000250
0.000217
0.000249
0.000268
0.000262
0.000265
0.000246
0.000258
0.000310
0.000495
0.000409
0.000363
0.000229
0.001792
0.000272
0.000494
0.000599
0.000386
0.000323
0.000247
0.000237
0.000268
0.000448
0.000056
0.000201
0.000268
0.000222
0.000285
0.000410
0.000463
0.000401
0.000223
0.000263
0.000278
0.000225
0.000253
0.000251
0.000293
0.000314
0.000236
0.000226
0.000364
0.000445
0.000392
0.000527
0.001851
0.000210
0.000497
0.000441
0.000371
0.000226
0.000254
0.000314
0.000246
0.000197
0.000056
0.000206
0.000340
0.000359
0.000341
0.000481
0.000187
0.000377
0.000211
0.000246
0.000257
0.000273
0.000223
0.000256
0.000250
0.000253
0.000258
0.000327
0.000342
0.000530
0.000475
0.000190
0.000241
0.000258
0.001732
0.000439
0.000500
0.000661
0.000228
0.000265
0.000328
0.000141
0.000056
0.000180
0.000237
0.000348
0.000234
0.000302
0.000411
0.000308
0.000341
0.000257
0.000518
0.000215
0.000264
0.000253
0.000272
0.000278
0.000264
0.000205
0.000350
0.000490
0.000429
0.000265
0.000227
0.000253
0.000257
0.000258
0.000273
0.000241
0.000249
0.000267
0.000293
0.000189
0.000057
0.000394
0.000282
0.000214
0.000261
0.000249
0.000258
0.000243
0.000304
0.000221
0.000252
0.000274
0.000332
0.000419
0.000372
0.000371
0.000277
0.000226
0.000240
0.000258
0.000266
0.000281
0.000281
0.000223
0.000255
0.000282
0.000318
0.000485
0.000292
0.000354
0.000239
0.000175
0.000057
0.000208
0.000227
0.000280
0.000263
0.000217
0.000268
0.000263
0.000233
0.000497
0.000208
0.000259
0.000263
0.000237
0.000265
0.000271
0.000295
0.000240
0.000360
0.000211
0.000241
0.000253
0.000263
0.000262
0.000265
0.000280
0.000258
0.000270
0.000257
0.000253
0.000501
0.000159
0.000058
0.000204
0.000238
0.000256
0.000280
0.000206
0.000239
0.000364
0.000411
0.000232
0.000233
0.000256
0.000256
0.000235
0.000222
0.000456
0.001809
0.000236
0.000263
0.000284
0.000332
0.000410
0.000358
0.000387
0.000358
0.000400
0.000411
0.000239
0.000275
0.000267
0.000277
0.001390
0.000057
0.000398
0.000293
0.000281
0.000209
0.000240
0.000248
0.000239
0.000253
0.000240
0.000273
0.000247
0.000259
0.000253
0.000295
0.000552
0.001619
0.000239
0.000227
0.000245
0.000267
0.000234
0.000270
0.000433
0.000330
0.000276
0.000351
0.000225
0.000271
0.000281
0.000259
0.000204
0.000057
0.001214
0.000511
0.000348
0.000265
0.000242
0.000224
0.000229
0.000240
0.000492
0.000209
0.000248
0.000245
0.000347
0.000493
0.000431
0.000331
0.000265
0.000224
0.000330
0.000357
0.000280
0.000246
0.000276
0.000247
0.000265
0.000566
0.000651
0.000181
0.000251
0.000265
0.000173
0.000056
0.000206
0.000217
0.000244
0.000246
0.001434
0.000336
0.000225
0.000256
0.000257
0.000228
0.000251
0.000256
0.000245
0.000259
0.000270
0.000325
0.000546
0.000522
0.000243
0.001752
0.000251
0.000289
0.000272
0.000477
0.000516
0.000424
0.000242
0.000242
0.000253
0.000271
0.000192
0.000056
0.000219
0.000256
0.000231
0.000322
0.001257
0.000232
0.000253
0.000259
0.000242
0.000230
0.000241
0.000253
0.000281
0.000241
0.000248
0.000283
0.000392
0.000499
0.000333
0.000259
0.000265
0.000269
0.000249
0.000230
0.000295
0.000257
0.000243
0.000276
0.000278
0.000275
0.000620
0.000057
0.000226
0.000263
0.000217
0.000262
0.000264
0.000240
0.000230
0.000269
0.000267
0.000278
0.001416
0.000218
0.000245
0.000244
0.000256
0.000239
0.000285
0.000248
0.000285
0.000238
0.000302
0.000453
0.000452
0.000398
0.000232
0.000271
0.001765
0.000259
0.000316
0.000248
0.000441
0.000056
0.000167
0.000400
0.000451
0.000501
0.000517
0.000536
0.001495
0.000426
0.000523
0.000645
0.000552
0.000850
0.000356
0.000613
0.000603
0.001899
0.000441
0.000372
0.000386
0.000326
0.000218
0.000296
0.000275
0.000263
0.000255
0.000296
0.000285
0.000291
0.000258
0.000286
0.001364
0.000057
0.000202
0.000228
0.000242
0.000237
0.000264
0.000258
0.000232
0.000238
0.000252
0.000256
0.000238
0.000240
0.000253
0.000265
0.000259
0.000267
0.001811
0.000262
0.000268
0.000244
0.000254
0.000261
0.000263
0.000323
0.000369
0.000414
0.000352
0.000227
0.000272
0.000285
0.000201
0.000057
0.000196
0.001363
0.000335
0.000271
0.000251
0.000240
0.000240
0.000229
0.000236
0.000242
0.000217
0.000250
0.000247
0.000512
0.000359
0.000306
0.000241
0.001820
0.000360
0.000235
0.000241
0.000265
0.000258
0.000270
0.000264
0.000289
0.000286
0.000235
0.000266
0.000315
0.000207
0.000056
0.000223
0.000241
0.000251
0.001443
0.000225
0.000236
0.000236
0.000244
0.000240
0.000266
0.000250
0.000246
0.000241
0.000285
0.000239
0.000254
0.000266
0.000261
0.000272
0.000256
0.000258
0.001765
0.000275
0.001764
0.000260
0.000251
0.000271
0.000268
0.000262
0.000276
0.000205
0.000056
0.000199
0.000244
0.001345
0.000229
0.000275
0.000216
0.000267
0.000253
0.000247
0.000251
0.000253
0.000242
0.000259
0.000263
0.000257
0.000264
0.000284
0.000264
0.000299
0.000241
0.001855
0.000238
0.001829
0.000255
0.000253
0.000271
0.000230
0.000256
0.000249
0.000278
0.000188
0.000057
0.001442
0.000236
0.000225
0.000225
0.000244
0.000236
0.000376
0.000281
0.000233
0.000260
0.000249
0.000258
0.000337
0.000282
0.000379
0.000288
0.000246
0.000267
0.000269
0.000239
0.000270
0.000345
0.000229
0.000249
0.000272
0.000274
0.000276
0.000335
0.000636
0.000362
0.000187
0.000056
0.000189
0.000253
0.000258
0.000304
0.000363
0.000250
0.001690
0.000314
0.000281
0.000263
0.000256
0.000270
0.000274
0.000266
0.000302
0.000339
0.000300
0.000562
0.000400
0.000262
0.000287
0.000284
0.000262
0.000266
0.000334
0.000249
0.000273
0.000245
0.000267
0.000297
0.000451
0.000056
0.000283
0.000442
0.000271
0.000260
0.000249
0.000225
0.000238
0.000240
0.000260
0.000274
0.001487
0.000224
0.000236
0.000249
0.000243
0.000289
0.000285
0.000232
0.000260
0.000269
0.000261
0.000344
0.000535
0.000347
0.000274
0.000289
0.000261
0.000255
0.000236
0.000313
0.000165
0.000056
0.000197
0.000240
0.000291
0.000634
0.000172
0.000293
0.000219
0.000251
0.000251
0.000253
0.000232
0.000254
0.000255
0.000263
0.000247
0.000231
0.000423
0.001194
0.000253
0.000252
0.000270
0.000235
0.000353
0.000418
0.000250
0.000332
0.000571
0.000348
0.000394
0.000228
0.000177
0.000059
0.000175
0.000250
0.000254
0.000258
0.000257
0.000243
0.000342
0.000430
0.000443
0.000261
0.000354
0.000390
0.000398
0.000361
0.000250
0.000247
0.000245
0.000251
0.000391
0.000465
0.001272
0.000224
0.000278
0.000270
0.000231
0.000239
0.000268
0.000341
0.000381
0.000463
0.000231
0.000057
0.000215
0.000247
0.000250
0.000255
0.000229
0.000248
0.000234
0.000270
0.000299
0.000333
0.000410
0.000404
0.000247
0.000234
0.000276
0.000237
0.000245
0.000261
0.000271
0.000265
0.000422
0.000263
0.000391
0.000403
0.000304
0.000251
0.000267
0.000276
0.000247
0.000344
0.000157
0.000074
0.000290
0.000310
0.000347
0.000311
0.000505
0.000346
0.000230
0.000246
0.000249
0.000268
0.000275
0.000244
0.000236
0.000252
0.000241
0.000233
0.000267
0.000358
0.000441
0.000407
0.000216
0.000275
0.000247
0.000251
0.000265
0.000280
0.000271
0.000273
0.000267
0.000261
0.000373
0.000057
0.000246
0.000367
0.000234
0.000265
0.000226
0.000248
0.000243
0.000260
0.000261
0.000258
0.000250
0.000236
0.000294
0.000494
0.000432
0.000297
0.000225
0.000251
0.000258
0.000262
0.000256
0.000265
0.000257
0.000266
0.000273
0.000446
0.000342
0.000539
0.000393
0.000255
0.000182
0.000056
0.000414
0.000197
0.000224
0.000270
0.000225
0.000244
0.000237
0.000254
0.000259
0.000257
0.000220
0.000250
0.000271
0.000228
0.000241
0.000264
0.000251
0.000268
0.000293
0.000266
0.000233
0.000263
0.000265
0.000259
0.000265
0.000241
0.000261
0.000281
0.000257
0.000277
0.000202
0.000057
0.000194
0.000228
0.000248
0.000251
0.000228
0.000261
0.000260
0.000242
0.000257
0.000273
0.000236
0.000231
0.000263
0.000397
0.000250
0.000293
0.000249
0.000264
0.000262
0.000272
0.000274
0.000240
0.000239
0.000249
0.000272
0.000273
0.000250
0.000261
0.000269
0.000259
0.000210
0.000056
0.000217
0.000385
0.000346
0.000279
0.000297
0.000254
0.000268
0.000262
0.000220
0.000247
0.000274
0.000237
0.000248
0.000235
0.000263
0.000290
0.000252
0.000248
0.000243
0.000264
0.000280
0.000256
0.000282
0.000253
0.000289
0.000233
0.000264
0.000261
0.000272
0.000260
0.000195
0.000077
0.000188
0.000230
0.000268
0.000257
0.000255
0.000447
0.000207
0.000275
0.000282
0.000391
0.000520
0.000286
0.000226
0.000256
0.000269
0.000264
0.000235
0.000270
0.000258
0.000273
0.000262
0.000254
0.000261
0.000268
0.000577
0.000485
0.000273
0.000273
0.000266
0.000263
0.000188
0.000056
0.000197
0.000220
0.000250
0.000251
0.000526
0.000418
0.000369
0.000374
0.000191
0.000251
0.000244
0.000260
0.000246
0.000259
0.000243
0.000277
0.000272
0.000237
0.000628
0.000431
0.000262
0.000256
0.000249
0.000283
0.000277
0.000254
0.000267
0.000284
0.000234
0.000321
0.000350
0.000055
0.000292
0.000233
0.000244
0.000236
0.000256
0.000260
0.000218
0.000248
0.000238
0.000260
0.000247
0.000254
0.000243
0.000375
0.000588
0.000404
0.000243
0.000237
0.000265
0.000247
0.000266
0.000286
0.000478
0.000218
0.000266
0.000565
0.000422
0.000511
0.000271
0.000235
0.000184
0.000057
0.000227
0.000230
0.000258
0.000223
0.000258
0.000258
0.000285
0.000768
0.000289
0.000428
0.000200
0.000257
0.000279
0.000274
0.000258
0.000244
0.000242
0.000247
0.000265
0.000368
0.000340
0.000668
0.000385
0.000233
0.000356
0.000380
0.000488
0.000242
0.000263
0.000439
0.000325
0.000056
0.000275
0.000229
0.000439
0.000224
0.000225
0.000258
0.000258
0.000261
0.000232
0.000239
0.000256
0.000423
0.000383
0.000303
0.000241
0.000267
0.000261
0.000229
0.000267
0.000275
0.000274
0.000252
0.000251
0.000270
0.000309
0.000487
0.000493
0.000245
0.000249
0.000270
0.000194
0.000057
0.000188
0.000252
0.000233
0.000242
0.000246
0.000317
0.000328
0.000503
0.000316
0.000260
0.000377
0.000224
0.000251
0.000271
0.000257
0.000235
0.000254
0.000266
0.000280
0.000405
0.000587
0.000227
0.000480
0.000265
0.000386
0.000419
0.000381
0.000246
0.000257
0.000295
0.000415
0.000056
0.000249
0.000275
0.000225
0.000252
0.000256
0.000261
0.000243
0.000249
0.000268
0.000243
0.000236
0.000309
0.000499
0.000375
0.000378
0.000223
0.000264
0.000263
0.000271
0.000230
0.000253
0.000254
0.000263
0.000271
0.000275
0.000340
0.000479
0.000478
0.000242
0.000282
0.000191
0.000055
0.000225
0.000221
0.000274
0.000256
0.000229
0.000341
0.000504
0.000472
0.000354
0.000690
0.000263
0.000214
0.000249
0.000260
0.000246
0.000264
0.000278
0.000302
0.000445
0.000454
0.001484
0.000303
0.000271
0.000281
0.000264
0.000273
0.000334
0.000456
0.000346
0.000321
0.000187
0.000056
0.000204
0.000227
0.000248
0.000263
0.000230
0.000246
0.000298
0.000229
0.000248
0.000335
0.000331
0.000378
0.000290
0.000309
0.000391
0.000350
0.000266
0.000242
0.000252
0.000260
0.000242
0.000252
0.000304
0.000225
0.000322
0.000435
0.000430
0.000289
0.000254
0.000267
0.000189
0.000057
0.000190
0.000245
0.000256
0.000254
0.000243
0.000234
0.000476
0.000212
0.000232
0.000255
0.000247
0.000253
0.000280
0.000256
0.000227
0.000272
0.000259
0.000291
0.000246
0.000258
0.000281
0.000266
0.000289
0.000245
0.000267
0.000280
0.000269
0.000263
0.000282
0.000257
0.000171
0.000056
0.000204
0.000253
0.000293
0.000400
0.000391
0.000246
0.000241
0.000251
0.000259
0.000246
0.000247
0.000261
0.000259
0.000261
0.000239
0.000243
0.000268
0.000247
0.000262
0.000349
0.000474
0.000380
0.000223
0.000264
0.000264
0.000255
0.000269
0.000250
0.000271
0.000281
0.000204
0.000057
0.000345
0.000371
0.000443
0.000213
0.000249
0.000255
0.000439
0.000205
0.000225
0.000256
0.000251
0.000289
0.000348
0.000442
0.001875
0.000251
0.000241
0.000255
0.000277
0.000242
0.000323
0.000442
0.000601
0.000326
0.000231
0.000262
0.000281
0.000421
0.000271
0.000279
0.000166
0.000056
0.000247
0.000351
0.000322
0.000343
0.000494
0.000201
0.000239
0.000248
0.000250
0.000250
0.000254
0.000249
0.000259
0.000344
0.000419
0.000454
0.000217
0.000243
0.000257
0.000266
0.000254
0.000315
0.000243
0.000281
0.000276
0.000450
0.000542
0.000379
0.000436
0.000238
0.000212
0.000057
0.000220
0.000235
0.000260
0.000230
0.000251
0.000247
0.000269
0.000294
0.000324
0.000486
0.000315
0.000343
0.000217
0.000261
0.000273
0.000293
0.000290
0.000244
0.000267
0.000278
0.000237
0.000277
0.000465
0.000408
0.000275
0.000263
0.000263
0.000437
0.000420
0.000333
0.000148
0.000057
0.000182
0.000237
0.000343
0.000395
0.000401
0.000202
0.000243
0.000255
0.000265
0.000264
0.000250
0.000261
0.000243
0.000236
0.000258
0.000299
0.000440
0.000307
0.000305
0.000342
0.000484
0.000229
0.000280
0.000280
0.000298
0.000289
0.000251
0.000256
0.000470
0.000544
0.000176
0.000056
0.000216
0.000234
0.000247
0.000295
0.000199
0.000481
0.000210
0.000255
0.000267
0.000289
0.000538
0.000586
0.000202
0.000245
0.000246
0.000246
0.000256
0.000268
0.000239
0.000266
0.000269
0.000241
0.000300
0.000477
0.000360
0.000417
0.000283
0.000303
0.000323
0.000255
0.000184
0.000057
0.000221
0.000253
0.000245
0.000478
0.000320
0.000316
0.000232
0.000237
0.000241
0.000256
0.000254
0.000262
0.000262
0.000243
0.000249
0.000262
0.000247
0.000244
0.000261
0.000443
0.000493
0.000362
0.000222
0.000252
0.000278
0.000268
0.000265
0.000259
0.000263
0.000276
0.000185
0.000057
0.000334
0.000326
0.000466
0.000253
0.000201
0.000251
0.000313
0.000458
0.000285
0.000215
0.000247
0.000276
0.000258
0.000456
0.000422
0.000288
0.000239
0.000234
0.000251
0.000261
0.000273
0.000265
0.000261
0.000276
0.000282
0.000315
0.000353
0.000464
0.000265
0.000235
0.000197
0.000056
0.000219
0.000243
0.000243
0.000260
0.000247
0.000264
0.000229
0.000275
0.000243
0.000238
0.000267
0.000237
0.000287
0.001429
0.000237
0.000250
0.000258
0.000243
0.000280
0.000276
0.000263
0.000239
0.000276
0.000254
0.000268
0.000267
0.000272
0.000271
0.000258
0.000271
0.000188
0.000056
0.000193
0.000235
0.000252
0.000267
0.000221
0.000245
0.000258
0.000259
0.000227
0.000247
0.000246
0.000267
0.000254
0.000257
0.000256
0.000257
0.000250
0.000276
0.000253
0.000256
0.000256
0.000260
0.000244
0.000254
0.001289
0.000286
0.000623
0.000371
0.000343
0.000245
0.000190
0.000056
0.000178
0.000233
0.000241
0.000256
0.000417
0.000235
0.000241
0.000239
0.000252
0.000365
0.000483
0.000309
0.000239
0.000220
0.000269
0.000258
0.000258
0.000254
0.000255
0.000255
0.000266
0.000253
0.000288
0.000386
0.000529
0.000436
0.000231
0.000269
0.001364
0.000248
0.000182
0.000055
0.000329
0.000388
0.000342
0.000246
0.000226
0.000225
0.000226
0.000254
0.000260
0.000253
0.000249
0.000261
0.000296
0.000346
0.000444
0.000378
0.000359
0.000219
0.000247
0.000255
0.000266
0.000285
0.000255
0.000258
0.000276
0.000259
0.000456
0.000423
0.000383
0.000363
0.000149
0.000057
0.000197
0.000234
0.001258
0.000442
0.000285
0.000454
0.000392
0.000487
0.000259
0.000344
0.000217
0.000243
0.000255
0.000259
0.000244
0.000267
0.000542
0.000307
0.000435
0.000317
0.000266
0.000240
0.000266
0.000499
0.000230
0.000268
0.000257
0.000274
0.000305
0.000547
0.000296
0.000057
0.000350
0.000317
0.000234
0.000231
0.001625
0.000385
0.000339
0.000225
0.000241
0.000253
0.000225
0.000246
0.000245
0.000268
0.000249
0.000262
0.000238
0.000258
0.000438
0.000331
0.000507
0.000225
0.000256
0.000247
0.000266
0.000278
0.000269
0.000235
0.000266
0.000281
0.000195
0.000057
0.000421
0.000302
0.000222
0.000263
0.000216
0.000251
0.000264
0.000228
0.000240
0.000219
0.001418
0.000476
0.000251
0.000251
0.000238
0.000257
0.000270
0.000262
0.000242
0.000299
0.000247
0.000247
0.000301
0.000365
0.000658
0.000235
0.000246
0.000266
0.000259
0.000280
0.000170
0.000057
0.000204
0.000421
0.000216
0.000238
0.000323
0.000455
0.000383
0.000307
0.000475
0.000192
0.000233
0.000261
0.000258
0.000264
0.000260
0.001381
0.000395
0.000285
0.000237
0.000272
0.000297
0.000233
0.000254
0.000259
0.000253
0.000267
0.000477
0.000421
0.000296
0.000265
0.000168
0.000057
0.000203
0.000235
0.000251
0.000237
0.000232
0.000260
0.000237
0.000254
0.000321
0.000411
0.000360
0.000286
0.000236
0.000258
0.000247
0.000271
0.000274
0.000261
0.000266
0.000231
0.000254
0.000306
0.001259
0.000251
0.000257
0.000258
0.000261
0.000264
0.000256
0.000262
0.000192
0.000058
0.000198
0.000369
0.000344
0.000363
0.000249
0.000246
0.000256
0.000286
0.000239
0.000261
0.000236
0.000274
0.000236
0.000253
0.000256
0.000267
0.000265
0.000269
0.000265
0.000248
0.000251
0.000300
0.000240
0.000277
0.000292
0.000266
0.000262
0.000270
0.000253
0.000455
0.001352
0.000057
0.000205
0.000256
0.000222
0.000278
0.000218
0.000258
0.000244
0.000229
0.000244
0.000254
0.000268
0.000265
0.000246
0.000244
0.000272
0.000220
0.001729
0.000257
0.000241
0.000264
0.000241
0.000264
0.000277
0.000257
0.000288
0.000241
0.000273
0.000270
0.000274
0.000258
0.000219
0.000057
0.000282
0.000322
0.001286
0.000238
0.000225
0.000242
0.000262
0.000268
0.000252
0.000243
0.000232
0.000349
0.000383
0.000450
0.000276
0.000229
0.000248
0.000256
0.000263
0.000264
0.000238
0.000303
0.000244
0.000275
0.000264
0.000344
0.000463
0.000439
0.000189
0.000245
0.000195
0.000057
0.000228
0.000247
0.000245
0.000246
0.000276
0.000201
0.000235
0.000247
0.000450
0.001313
0.000276
0.000206
0.000254
0.000277
0.000247
0.000294
0.000235
0.000258
0.000297
0.000398
0.000409
0.000260
0.000243
0.000246
0.000278
0.000279
0.000263
0.000295
0.000291
0.000253
0.000193
0.000056
0.000242
0.000399
0.000398
0.000214
0.000237
0.000233
0.000246
0.000278
0.000266
0.000243
0.000244
0.000265
0.000422
0.000500
0.000464
0.001458
0.000242
0.000294
0.000311
0.000358
0.000468
0.000426
0.000487
0.000385
0.000229
0.000265
0.000266
0.000274
0.000267
0.000271
0.000194
0.000059
0.000201
0.000274
0.000432
0.000471
0.000357
0.000239
0.000250
0.000237
0.000242
0.000270
0.000234
0.000271
0.000274
0.000228
0.000264
0.000345
0.000287
0.000473
0.000342
0.001334
0.000261
0.000256
0.000262
0.000280
0.000426
0.000440
0.000403
0.000229
0.000282
0.000274
0.000189
0.000055
0.000202
0.000261
0.000222
0.000263
0.000231
0.000286
0.000433
0.000462
0.000303
0.000214
0.000245
0.000256
0.000273
0.000287
0.000244
0.000274
0.000243
0.000253
0.000290
0.000324
0.000419
0.000401
0.000332
0.001344
0.000413
0.000231
0.000270
0.000427
0.000428
0.000367
0.000304
0.000057
0.000200
0.000233
0.000252
0.000245
0.000249
0.000255
0.001680
0.000244
0.000218
0.000246
0.000252
0.000246
0.000258
0.000319
0.000326
0.000287
0.000256
0.000314
0.000514
0.000407
0.000305
0.000280
0.000229
0.000249
0.001509
0.000374
0.000391
0.000428
0.000346
0.000294
0.000166
0.000057
0.000223
0.000251
0.000252
0.000261
0.000244
0.000264
0.001697
0.000243
0.000243
0.000260
0.000327
0.000406
0.001443
0.000384
0.000378
0.000245
0.000249
0.000234
0.000275
0.000274
0.001521
0.000579
0.000428
0.000257
0.000242
0.000249
0.000260
0.000283
0.000239
0.000260
0.000190
0.000057
0.000212
0.000243
0.000265
0.000250
0.000261
0.000299
0.000257
0.000260
0.000244
0.000252
0.000252
0.000247
0.000295
0.000239
0.000248
0.001491
0.000282
0.000233
0.000271
0.000278
0.000275
0.000273
0.000402
0.001277
0.000275
0.000236
0.000272
0.000273
0.000386
0.000238
0.000202
0.000057
0.000194
0.000247
0.000219
0.000247
0.000238
0.000233
0.000232
0.001699
0.000244
0.000233
0.000348
0.000271
0.000224
0.000228
0.000252
0.001387
0.000237
0.000260
0.000268
0.000247
0.000261
0.000345
0.000298
0.001302
0.000268
0.000262
0.000247
0.000259
0.001394
0.000270
0.000190
0.000057
0.000274
0.000323
0.000220
0.000233
0.000267
0.000223
0.000290
0.000248
0.000262
0.000246
0.000259
0.000268
0.000249
0.000245
0.000277
0.001557
0.000226
0.000269
0.000257
0.000247
0.000282
0.000263
0.000251
0.001513
0.000335
0.000244
0.000272
0.001268
0.000274
0.000241
0.000248
0.000058
0.000225
0.000400
0.000343
0.000216
0.000232
0.000237
0.000268
0.000256
0.000262
0.000271
0.000234
0.000256
0.000263
0.000249
0.000433
0.001222
0.000240
0.000249
0.000263
0.000276
0.000227
0.000244
0.000255
0.000320
0.001303
0.000220
0.000259
0.000254
0.000275
0.001325
0.000328
0.000057
0.000278
0.000248
0.000223
0.000234
0.000240
0.000253
0.000244
0.000246
0.000295
0.000233
0.000243
0.000251
0.000265
0.000328
0.000414
0.001453
0.000227
0.000245
0.000306
0.000506
0.000283
0.000420
0.001326
0.000308
0.000234
0.000267
0.000286
0.001260
0.000356
0.000494
0.000309
0.000057
0.000227
0.000251
0.000252
0.000257
0.000252
0.000257
0.000268
0.000265
0.000247
0.000259
0.000352
0.000433
0.001326
0.000239
0.000289
0.000248
0.000283
0.000215
0.000251
0.000236
0.000336
0.001247
0.000260
0.000242
0.000255
0.000273
0.001536
0.000381
0.000485
0.000218
0.000194
0.000056
0.000207
0.000227
0.000252
0.000236
0.000255
0.000262
0.000243
0.000272
0.000410
0.000495
0.000262
0.001490
0.000225
0.000232
0.000270
0.000251
0.000261
0.000287
0.001687
0.000249
0.000389
0.000340
0.001246
0.000392
0.000310
0.000325
0.000256
0.000267
0.000267
0.000266
0.000191
0.000057
0.000194
0.000242
0.000325
0.000244
0.000373
0.000468
0.000298
0.000304
0.001462
0.000240
0.000382
0.000264
0.000229
0.000307
0.000371
0.001324
0.000277
0.000241
0.000245
0.000265
0.001505
0.000387
0.000297
0.000253
0.000291
0.000235
0.000453
0.000332
0.000264
0.000249
0.000245
0.000057
0.000238
0.000373
0.000336
0.000270
0.000231
0.001507
0.000217
0.000260
0.000266
0.000269
0.000266
0.000242
0.000312
0.001474
0.000255
0.000235
0.000435
0.001181
0.000330
0.000466
0.000384
0.000247
0.000244
0.000252
0.000294
0.000224
0.000455
0.000231
0.000262
0.000277
0.000192
0.000056
0.000219
0.000234
0.000406
0.000321
0.001301
0.000316
0.000310
0.000227
0.000234
0.000241
0.000248
0.000279
0.001535
0.000261
0.000224
0.000250
0.001381
0.000302
0.000389
0.000395
0.000430
0.000238
0.000252
0.000245
0.000270
0.000296
0.000240
0.000268
0.000270
0.000248
0.000196
0.000055
0.000237
0.000335
0.001512
0.000216
0.000266
0.000295
0.000220
0.000252
0.000262
0.000348
0.001421
0.000217
0.000260
0.000265
0.000256
0.001260
0.000688
0.000299
0.000324
0.000409
0.000307
0.000246
0.000273
0.000276
0.000246
0.000292
0.000277
0.000289
0.000429
0.000448
0.001376
0.000057
0.000197
0.000249
0.000246
0.000222
0.000254
0.000481
0.000456
0.001252
0.000245
0.000236
0.000251
0.001409
0.000468
0.000346
0.000200
0.000417
0.000233
0.000244
0.000270
0.000290
0.000248
0.000255
0.000279
0.000254
0.000251
0.000298
0.000409
0.000496
0.001496
0.000227
0.000193
0.000059
0.000178
0.000254
0.000395
0.000516
0.001215
0.000305
0.000234
0.000263
0.000254
0.000237
0.000253
0.000279
0.000345
0.000537
0.000295
0.000235
0.000257
0.000272
0.000246
0.000303
0.000235
0.000262
0.000260
0.000259
0.000261
0.000386
0.000477
0.000334
0.000333
0.001404
0.000193
0.000060
0.000177
0.000232
0.000305
0.000445
0.000325
0.000309
0.000316
0.000334
0.000293
0.000270
0.000221
0.000266
0.000250
0.000307
0.000243
0.000289
0.000550
0.000317
0.000289
0.000396
0.000272
0.000411
0.000226
0.000238
0.000270
0.000268
0.000246
0.000300
0.000343
0.000517
0.000279
0.000057
0.000200
0.001403
0.000227
0.000341
0.000416
0.000388
0.000404
0.000320
0.000206
0.000247
0.000269
0.000244
0.000284
0.000252
0.000258
0.000255
0.000263
0.001341
0.000276
0.000256
0.000250
0.000280
0.000267
0.000279
0.000271
0.000247
0.000280
0.000250
0.000360
0.000462
0.000291
0.000056
0.000207
0.000235
0.000243
0.001505
0.000344
0.000221
0.000226
0.000249
0.000226
0.000249
0.000251
0.000280
0.000246
0.000247
0.000299
0.000229
0.000263
0.000245
0.000264
0.000249
0.001435
0.000244
0.000235
0.000279
0.000261
0.000244
0.000269
0.000262
0.000276
0.000497
0.000347
0.000059
0.000195
0.000234
0.000396
0.000284
0.000240
0.000260
0.001522
0.000373
0.000283
0.000216
0.000260
0.000310
0.000331
0.000227
0.000232
0.000253
0.000247
0.000261
0.000263
0.000256
0.000519
0.000472
0.001117
0.000280
0.000229
0.000262
0.000268
0.000262
0.000300
0.000231
0.000386
0.000059
0.000236
0.000316
0.000208
0.000245
0.000251
0.000240
0.000242
0.000229
0.000289
0.001648
0.000351
0.000262
0.000237
0.000251
0.000261
0.000242
0.000267
0.000274
0.000258
0.000312
0.000306
0.000490
0.000439
0.001373
0.000238
0.000273
0.000260
0.000257
0.000273
0.000282
0.000457
0.000056
0.000279
0.000259
0.000225
0.000230
0.000217
0.000253
0.000256
0.000283
0.000254
0.001538
0.000394
0.000257
0.000242
0.000258
0.000459
0.000257
0.000547
0.000373
0.000268
0.000274
0.000487
0.000524
0.001238
0.000264
0.000232
0.000250
0.001740
0.000433
0.000622
0.000306
0.000145
0.000057
0.000195
0.000234
0.000237
0.000240
0.000258
0.000247
0.000243
0.000490
0.000523
0.000406
0.000280
0.000222
0.000238
0.000264
0.000279
0.000270
0.000236
0.000244
0.000253
0.000285
0.000239
0.000431
0.001350
0.000225
0.000251
0.000273
0.001902
0.000372
0.000393
0.000339
0.000156
0.000056
0.000248
0.000244
0.000244
0.001600
0.000394
0.000211
0.000234
0.000265
0.000249
0.000272
0.000380
0.000369
0.000368
0.000277
0.000252
0.000554
0.000417
0.001187
0.000278
0.000226
0.000261
0.000261
0.000273
0.000396
0.000666
0.000439
0.000231
0.000267
0.000270
0.000281
0.000192
0.000058
0.000186
0.000237
0.000237
0.001591
0.000203
0.000229
0.000240
0.000257
0.000243
0.000256
0.000253
0.000263
0.000269
0.000273
0.000237
0.000417
0.000467
0.000281
0.001403
0.000230
0.000259
0.000267
0.000258
0.000262
0.000423
0.000509
0.000374
0.000259
0.000300
0.000226
0.000436
0.000056
0.000200
0.000238
0.000273
0.001533
0.000318
0.000196
0.000269
0.000243
0.000248
0.000259
0.000253
0.000274
0.000239
0.000250
0.000413
0.000538
0.001348
0.000750
0.000280
0.000319
0.000242
0.000240
0.000247
0.000276
0.001681
0.000800
0.000233
0.000260
0.000282
0.000283
0.000191
0.000056
0.000210
0.000228
0.000252
0.000247
0.000281
0.000250
0.000213
0.000251
0.000242
0.000230
0.000292
0.000279
0.000258
0.000248
0.000259
0.000246
0.000274
0.001590
0.000706
0.000366
0.000334
0.000229
0.000239
0.000311
0.000254
0.000249
0.000270
0.000264
0.001381
0.000436
0.000269
0.000056
0.000200
0.000227
0.000271
0.000241
0.000252
0.000231
0.000273
0.000233
0.000253
0.000261
0.000262
0.000566
0.000308
0.000320
0.000223
0.000244
0.000269
0.001388
0.000683
0.000494
0.000340
0.000255
0.000238
0.000242
0.000301
0.000236
0.000255
0.000259
0.001481
0.000398
0.000231
0.000057
0.000197
0.000226
0.000249
0.000250
0.000252
0.000245
0.000236
0.000249
0.000274
0.000260
0.000346
0.000453
0.000269
0.000225
0.000243
0.000248
0.000265
0.000256
0.001563
0.000630
0.000466
0.000333
0.000220
0.000256
0.000253
0.000267
0.000265
0.000283
0.000269
0.001348
0.000333
0.000057
0.000219
0.000215
0.000234
0.000260
0.000257
0.000242
0.000253
0.000300
0.000361
0.000508
0.000299
0.000374
0.000373
0.000229
0.000245
0.000249
0.000300
0.000242
0.000261
0.001912
0.000335
0.000242
0.000451
0.000229
0.000260
0.000272
0.000256
0.000262
0.000282
0.000277
0.000301
0.000057
0.000229
0.000276
0.000240
0.000243
0.000254
0.000253
0.000226
0.000242
0.000272
0.000261
0.000230
0.000236
0.000355
0.000348
0.000493
0.000441
0.000227
0.000267
0.000249
0.000250
0.000254
0.000282
0.001467
0.001059
0.000221
0.000258
0.000268
0.000263
0.000279
0.000254
0.000196
0.000056
0.000200
0.001337
0.000288
0.000232
0.000224
0.000253
0.000253
0.000237
0.000245
0.000260
0.000244
0.000265
0.000245
0.000379
0.000364
0.000445
0.000285
0.000253
0.000264
0.000269
0.000278
0.000220
0.000261
0.000270
0.001317
0.000682
0.000307
0.000380
0.000371
0.000403
0.000304
0.000056
0.000192
0.000236
0.000373
0.001304
0.000212
0.000253
0.000234
0.000258
0.000256
0.000257
0.000256
0.000243
0.000260
0.000384
0.000558
0.000291
0.000217
0.000277
0.000337
0.000212
0.000246
0.000271
0.000236
0.000272
0.000269
0.001536
0.000741
0.000317
0.000256
0.000274
0.000194
0.000057
0.000219
0.000261
0.000463
0.000304
0.001339
0.000229
0.000215
0.000234
0.000233
0.000250
0.000248
0.000259
0.000235
0.000237
0.000251
0.000258
0.000266
0.000235
0.000255
0.000258
0.000267
0.000266
0.000307
0.000327
0.000221
0.000266
0.000265
0.001453
0.000269
0.000235
0.000178
0.000055
0.000196
0.000231
0.000249
0.000265
0.000350
0.000376
0.000393
0.000284
0.001590
0.000215
0.000317
0.000454
0.000367
0.000237
0.000439
0.000235
0.000235
0.000262
0.000270
0.000269
0.000283
0.000264
0.000257
0.000269
0.000277
0.000405
0.000364
0.000346
0.001575
0.000236
0.000188
0.000057
0.000222
0.000239
0.000250
0.000250
0.000236
0.000242
0.000265
0.000310
0.000412
0.002039
0.000228
0.000241
0.000258
0.000253
0.000268
0.000295
0.000227
0.000253
0.000264
0.000445
0.000396
0.000407
0.001503
0.000215
0.000233
0.002012
0.000269
0.000244
0.000273
0.001512
0.000153
0.000058
0.000323
0.000410
0.000483
0.000243
0.000275
0.000212
0.000274
0.000255
0.000259
0.000228
0.000255
0.000336
0.000422
0.000332
0.000457
0.000227
0.001580
0.000255
0.000192
0.000560
0.001899
0.000289
0.000239
0.001529
0.002022
0.000745
0.000283
0.000255
0.000275
0.000465
0.000342
0.000056
0.000211
0.000240
0.000281
0.000223
0.001453
0.001697
0.001075
0.000203
0.000238
0.001582
0.001979
0.000216
0.000244
0.000421
0.000313
0.000317
0.000424
0.000497
0.000210
0.000248
0.000242
0.000260
0.000277
0.001589
0.001204
0.001421
0.000294
0.000285
0.000256
0.000310
0.000352
0.000057
0.000209
0.000237
0.000238
0.000242
0.000226
0.000245
0.000252
0.000252
0.000263
0.000236
0.000243
0.000301
0.000477
0.000419
0.000312
0.000250
0.000266
0.000255
0.000267
0.000283
0.000239
0.000259
0.001496
0.000494
0.002123
0.000240
0.000257
0.000309
0.000444
0.000402
0.000191
0.000057
0.000220
0.000338
0.000488
0.000310
0.000194
0.000233
0.000252
0.000243
0.000238
0.000246
0.000245
0.000265
0.000274
0.001594
0.001357
0.001230
0.000272
0.000239
0.000262
0.000254
0.000286
0.000268
0.000247
0.000254
0.002209
0.000253
0.000263
0.000282
0.000319
0.000308
0.000221
0.000058
0.000217
0.000346
0.000544
0.000340
0.000245
0.000222
0.000246
0.000286
0.001880
0.001433
0.000206
0.000329
0.000389
0.000408
0.000265
0.000232
0.000256
0.000267
0.000274
0.000249
0.000260
0.000265
0.000478
0.000230
0.000271
0.000285
0.000232
0.000276
0.000279
0.000248
0.000205
0.000057
0.000202
0.000248
0.000244
0.000246
0.000274
0.000250
0.001538
0.001416
0.001332
0.000250
0.000218
0.000256
0.000253
0.000258
0.000243
0.000254
0.000252
0.002097
0.000246
0.000258
0.000250
0.000268
0.000253
0.000269
0.000263
0.000252
0.000277
0.000257
0.000274
0.000253
0.000179
0.000056
0.000210
0.002669
0.001417
0.000209
0.000301
0.000329
0.000212
0.000284
0.000231
0.000248
0.000252
0.000241
0.000231
0.000255
0.000269
0.000260
0.000265
0.000275
0.000258
0.000255
0.000267
0.000286
0.000276
0.000258
0.000247
0.000244
0.000269
0.000276
0.000257
0.000264
0.000376
0.000057
0.001548
0.000255
0.001229
0.000235
0.000226
0.000234
0.000261
0.000280
0.000222
0.000260
0.000371
0.000424
0.000310
0.000209
0.000253
0.002151
0.000233
0.000252
0.000262
0.000509
0.000346
0.000319
0.000236
0.000259
0.000263
0.000248
0.000259
0.000283
0.000265
0.001622
0.001251
0.000059
0.000195
0.000238
0.000309
0.000403
0.000348
0.000267
0.000211
0.000237
0.000253
0.000255
0.000266
0.000245
0.000221
0.000269
0.000257
0.000242
0.000363
0.000610
0.000328
0.000237
0.000235
0.000269
0.000287
0.000249
0.000253
0.000246
0.000266
0.000276
0.000238
0.000301
0.000376
0.000058
0.001131
0.000233
0.000366
0.000425
0.000289
0.000227
0.000223
0.000245
0.000251
0.002307
0.000358
0.000383
0.000230
0.000375
0.000304
0.000255
0.000240
0.000258
0.000266
0.000229
0.000248
0.000290
0.000625
0.000429
0.001853
0.001291
0.000537
0.000547
0.000228
0.000288
0.000200
0.000056
0.000262
0.000324
0.000240
0.000244
0.000259
0.000215
0.000262
0.000244
0.000261
0.000247
0.000254
0.000228
0.000246
0.000275
0.000354
0.000532
0.001829
0.001377
0.000401
0.000437
0.000456
0.000237
0.000236
0.000265
0.002131
0.000574
0.000363
0.000233
0.000280
0.000277
0.000197
0.000056
0.000204
0.000243
0.000258
0.000246
0.000237
0.000338
0.000418
0.000381
0.000250
0.000230
0.000238
0.000247
0.000271
0.002102
0.000390
0.000370
0.000207
0.000259
0.000281
0.000244
0.000248
0.002454
0.000340
0.000228
0.000251
0.000254
0.000256
0.000271
0.000310
0.000254
0.000193
0.000057
0.000186
0.000380
0.000552
0.000337
0.000257
0.000219
0.000236
0.000254
0.000262
0.000254
0.001952
0.000392
0.000270
0.000273
0.000239
0.000266
0.000275
0.000241
0.002206
0.000465
0.000200
0.000271
0.000273
0.000257
0.000254
0.000251
0.000303
0.000237
0.000268
0.000255
0.000193
0.000057
0.000219
0.000240
0.000249
0.000243
0.000227
0.000259
0.000238
0.000242
0.000235
0.002188
0.000213
0.000283
0.000224
0.000434
0.000224
0.000250
0.000303
0.000264
0.000248
0.000255
0.001969
0.000268
0.000337
0.000364
0.000430
0.000409
0.000311
0.000253
0.000256
0.000256
0.000200
0.000058
0.000191
0.000235
0.000222
0.000254
0.000246
0.000324
0.000211
0.002322
0.000243
0.000249
0.000240
0.000253
0.000237
0.000280
0.000279
0.002121
0.000595
0.000227
0.000252
0.000244
0.000251
0.000260
0.000288
0.000270
0.000261
0.000258
0.000285
0.000253
0.000264
0.000264
0.000198
0.000057
0.001808
0.001444
0.000199
0.000227
0.000242
0.000254
0.000250
0.000293
0.000391
0.000322
0.002184
0.000265
0.000226
0.000276
0.000277
0.000582
0.000335
0.000291
0.000226
0.000247
0.000256
0.000261
0.000262
0.000231
0.000257
0.000274
0.000264
0.000268
0.000275
0.000756
0.000260
0.000058
0.000186
0.000262
0.000248
0.000250
0.000266
0.000246
0.000258
0.000257
0.001444
0.002347
0.000394
0.000252
0.000461
0.000639
0.000352
0.000243
0.000250
0.000244
0.000271
0.000259
0.000256
0.000247
0.000249
0.000273
0.003012
0.000328
0.000236
0.000279
0.000273
0.000341
0.000372
0.000056
0.001930
0.000229
0.000249
0.000218
0.000285
0.000350
0.000459
0.000307
0.000286
0.000213
0.000253
0.000247
0.000252
0.000258
0.000265
0.000258
0.000252
0.000288
0.001819
0.000241
0.000228
0.000260
0.000294
0.000264
0.000267
0.000257
0.001459
0.000339
0.000247
0.000257
0.000181
0.000057
0.000201
0.000230
0.000238
0.000242
0.000252
0.000249
0.000290
0.000369
0.000312
0.000419
0.000196
0.000247
0.000260
0.000330
0.000421
0.000319
0.000238
0.000242
0.000281
0.000339
0.000536
0.000362
0.000269
0.000249
0.000263
0.000253
0.000250
0.000274
0.000275
0.000265
0.000205
0.000056
0.001430
0.000441
0.000222
0.001940
0.000359
0.000327
0.000448
0.000309
0.000238
0.000237
0.000273
0.000244
0.000238
0.000255
0.000264
0.000254
0.000457
0.000266
0.000420
0.000372
0.000357
0.000224
0.000266
0.000266
0.000272
0.000270
0.000255
0.000278
0.000379
0.000395
0.001417
0.000057
0.000205
0.000225
0.002076
0.000394
0.000245
0.000232
0.000254
0.000253
0.000257
0.000265
0.000215
0.000250
0.000254
0.000264
0.000257
0.000353
0.000717
0.001752
0.000231
0.000258
0.000252
0.000270
0.000431
0.000366
0.001590
0.000288
0.000366
0.001922
0.000254
0.000264
0.000186
0.000055
0.000202
0.000229
0.000230
0.000245
0.000233
0.000250
0.000248
0.000285
0.000330
0.000260
0.000379
0.000368
0.000339
0.000297
0.000247
0.000266
0.000262
0.000247
0.000257
0.000261
0.000303
0.000288
0.000263
0.000258
0.000270
0.001508
0.000293
0.000382
0.002074
0.000237
0.000171
0.000058
0.000211
0.000236
0.000240
0.000247
0.000490
0.000202
0.000257
0.000319
0.000373
0.000322
0.000303
0.000205
0.000264
0.000265
0.000270
0.000331
0.000432
0.000425
0.000239
0.000413
0.000518
0.000408
0.001627
0.000227
0.000252
0.001991
0.000321
0.000255
0.000245
0.000295
0.000183
0.000056
0.000214
0.000246
0.000224
0.000242
0.000251
0.000283
0.000240
0.000271
0.000252
0.000299
0.001766
0.000328
0.000376
0.000279
0.000460
0.000366
0.000381
0.001478
0.000231
0.000286
0.002095
0.000590
0.000266
0.000221
0.000273
0.000267
0.000503
0.000217
0.000265
0.000278
0.000192
0.000057
0.000304
0.000300
0.000414
0.000295
0.000201
0.000247
0.000262
0.000245
0.000264
0.000294
0.000231
0.000251
0.000259
0.000271
0.000453
0.000320
0.001340
0.000265
0.000278
0.001929
0.000352
0.000292
0.000237
0.000258
0.000249
0.000282
0.000269
0.000262
0.000250
0.000263
0.000205
0.000057
0.000347
0.000299
0.002030
0.000256
0.000221
0.000250
0.000252
0.000294
0.000412
0.000477
0.001296
0.000368
0.000357
0.002093
0.000199
0.000247
0.000264
0.000281
0.000246
0.000251
0.000285
0.000288
0.000258
0.000384
0.000436
0.000396
0.000317
0.002223
0.000564
0.000466
0.000335
0.000058
0.000207
0.000225
0.000246
0.001976
0.000215
0.000224
0.000248
0.000243
0.000239
0.000256
0.000251
0.000262
0.000256
0.000281
0.000434
0.001462
0.000258
0.000238
0.000272
0.000263
0.000232
0.000251
0.000261
0.000301
0.000365
0.000373
0.000484
0.000259
0.001589
0.000263
0.000156
0.000059
0.000194
0.000218
0.000246
0.000234
0.000265
0.000265
0.000229
0.000245
0.000255
0.000355
0.000370
0.001424
0.000239
0.000219
0.000251
0.000296
0.000227
0.000257
0.000299
0.000492
0.000450
0.000387
0.000235
0.001568
0.000229
0.000258
0.000290
0.000282
0.000261
0.000266
0.000195
0.000056
0.000204
0.000236
0.000267
0.000270
0.000248
0.000245
0.000235
0.000242
0.000277
0.000222
0.000254
0.000253
0.000267
0.001475
0.000358
0.000215
0.000247
0.000263
0.000275
0.000312
0.000373
0.000269
0.000257
0.000254
0.000265
0.000264
0.000263
0.001400
0.000278
0.000238
0.000174
0.000057
0.000213
0.000232
0.000264
0.000260
0.000266
0.000221
0.000249
0.000262
0.000217
0.000265
0.000247
0.000254
0.000227
0.000279
0.000397
0.000362
0.000278
0.000227
0.001635
0.000236
0.000242
0.000267
0.000262
0.000267
0.000429
0.000345
0.000452
0.000263
0.000274
0.001598
0.000156
0.000057
0.000381
0.000293
0.000386
0.000270
0.000237
0.000215
0.000268
0.000257
0.000250
0.000254
0.000231
0.000239
0.001457
0.000299
0.000309
0.000214
0.000260
0.000279
0.000243
0.000257
0.000256
0.000239
0.000259
0.000272
0.000264
0.000399
0.000431
0.000372
0.000251
0.000246
0.000193
0.000059
0.000207
0.000248
0.000484
0.000282
0.000401
0.000255
0.000251
0.000249
0.000250
0.000257
0.000245
0.000227
0.000254
0.000249
0.001247
0.000326
0.000226
0.000239
0.000271
0.000271
0.000246
0.000251
0.000249
0.000264
0.000253
0.000267
0.000319
0.000681
0.000445
0.000232
0.000189
0.000057
0.000192
0.001562
0.000238
0.000335
0.000460
0.000384
0.000217
0.000255
0.000263
0.000267
0.000233
0.000256
0.000267
0.000271
0.000266
0.001521
0.000254
0.000283
0.000264
0.000259
0.000282
0.000229
0.000262
0.000265
0.000253
0.000267
0.000429
0.000363
0.000367
0.000240
0.000200
0.000056
0.000214
0.000247
0.000241
0.001602
0.000427
0.000353
0.000222
0.000238
0.000250
0.000272
0.000281
0.000249
0.000261
0.000253
0.000232
0.000271
0.000401
0.001321
0.000256
0.000232
0.001490
0.000432
0.000448
0.000400
0.000335
0.000237
0.000275
0.000466
0.000234
0.000264
0.000185
0.000060
0.000284
0.000217
0.000245
0.000249
0.000250
0.000251
0.000237
0.000260
0.000272
0.000253
0.000225
0.000253
0.000371
0.000554
0.001558
0.001487
0.000362
0.000491
0.000392
0.000213
0.000229
0.000259
0.000248
0.000277
0.000245
0.000266
0.000260
0.000284
0.001513
0.000321
0.000163
0.000056
0.000190
0.000342
0.000353
0.000334
0.000234
0.000240
0.000239
0.000344
0.000451
0.000355
0.002174
0.000330
0.000739
0.000475
0.000443
0.000257
0.000334
0.000390
0.000331
0.000280
0.000398
0.000264
0.001532
0.000530
0.000222
0.000257
0.000260
0.000256
0.000269
0.000252
0.000223
0.000074
0.000177
0.000255
0.000247
0.000254
0.000244
0.001661
0.000878
0.000997
0.000208
0.000238
0.000259
0.000252
0.000257
0.000268
0.000253
0.000243
0.000255
0.000268
0.000269
0.000280
0.001426
0.000317
0.000256
0.000216
0.000245
0.000260
0.000263
0.000274
0.000266
0.000289
0.001892
0.000058
0.000190
0.000233
0.001537
0.000861
0.000373
0.000368
0.000230
0.000235
0.000248
0.000261
0.000245
0.000248
0.000246
0.001986
0.000474
0.000217
0.000235
0.000263
0.000267
0.000260
0.000196
