0.000120
0.020026
0.001671
0.000267
0.000272
0.000283
0.000304
0.000252
0.000327
0.000283
0.000250
0.000350
0.000534
0.000441
0.000418
0.000340
0.000274
0.000368
0.000327
0.000410
0.000312
0.001920
0.000699
0.000275
0.000237
0.000319
0.000284
0.000329
0.000436
0.000360
0.000513
0.000296
0.000058
0.000192
0.000268
0.000291
0.000241
0.000277
0.000245
0.000280
0.000265
0.000268
0.000318
0.000411
0.000517
0.000228
0.000259
0.000410
0.000305
0.000361
0.000254
0.000242
0.001699
0.000325
0.000247
0.000458
0.000243
0.000286
0.000271
0.000285
0.000298
0.000277
0.000320
0.000411
0.000056
0.000241
0.000261
0.000263
0.000262
0.000250
0.000261
0.000245
0.000257
0.000284
0.001669
0.000229
0.000238
0.000267
0.000273
0.000273
0.000272
0.000246
0.000256
0.000353
0.001793
0.000242
0.000275
0.000445
0.000468
0.000360
0.000234
0.000260
0.000572
0.000422
0.000740
0.000194
0.000056
0.000221
0.000254
0.000243
0.000249
0.000297
0.000255
0.000287
0.000564
0.000406
0.000263
0.000231
0.000246
0.000263
0.000234
0.000257
0.000260
0.000259
0.000251
0.000300
0.000326
0.001665
0.000283
0.000257
0.000406
0.000303
0.000695
0.000660
0.000540
0.000346
0.000236
0.000188
0.000056
0.000228
0.000256
0.000263
0.000241
0.000262
0.000251
0.000279
0.000452
0.001462
0.000214
0.000273
0.000221
0.000264
0.000251
0.000282
0.000264
0.000259
0.000851
0.001361
0.000279
0.000458
0.000257
0.000222
0.000226
0.000258
0.000259
0.000264
0.000267
0.000263
0.000266
0.000193
0.000056
0.000195
0.000248
0.000255
0.000259
0.000238
0.000240
0.000264
0.000235
0.000236
0.000263
0.001676
0.000225
0.000224
0.000234
0.000262
0.000244
0.000247
0.000254
0.000250
0.000257
0.000271
0.001662
0.000283
0.000249
0.000436
0.000271
0.000250
0.000256
0.000257
0.000273
0.000198
0.000056
0.000210
0.000231
0.000253
0.000244
0.000246
0.000247
0.000263
0.000236
0.000263
0.000278
0.000244
0.000238
0.000262
0.001682
0.000310
0.000197
0.000296
0.000214
0.000245
0.000275
0.000268
0.000240
0.000245
0.000267
0.001787
0.000417
0.000323
0.000344
0.000277
0.000257
0.000197
0.000057
0.000222
0.000245
0.000244
0.000267
0.000253
0.000241
0.000269
0.000417
0.000411
0.000442
0.000207
0.000226
0.000261
0.000241
0.001560
0.000537
0.000330
0.000400
0.000321
0.000227
0.000268
0.000280
0.000272
0.001837
0.000392
0.000483
0.000247
0.000242
0.000247
0.000265
0.000190
0.000056
0.000182
0.000237
0.000258
0.000259
0.000343
0.000471
0.000395
0.000230
0.000216
0.000262
0.000247
0.000235
0.000252
0.001690
0.000502
0.000294
0.000226
0.000258
0.000287
0.000265
0.000257
0.000252
0.000278
0.001878
0.000319
0.000387
0.000259
0.000241
0.000261
0.000408
0.000329
0.000056
0.000210
0.000389
0.000376
0.000254
0.000249
0.000255
0.000248
0.000259
0.000251
0.000220
0.000241
0.000249
0.001556
0.000391
0.000280
0.000225
0.000258
0.000249
0.000258
0.000266
0.000397
0.000211
0.000239
0.001820
0.000244
0.000503
0.000242
0.000254
0.000262
0.000262
0.000260
0.000056
0.000429
0.000515
0.000598
0.000212
0.000227
0.000281
0.000233
0.000234
0.000243
0.000251
0.000255
0.001700
0.000253
0.000442
0.000368
0.000214
0.000263
0.000206
0.000249
0.000266
0.000248
0.001867
0.000236
0.000235
0.002090
0.000517
0.000357
0.000248
0.000256
0.000262
0.000185
0.000056
0.000221
0.000259
0.000224
0.000244
0.000252
0.001625
0.000248
0.000236
0.000267
0.000241
0.000240
0.000268
0.000226
0.000257
0.000264
0.000420
0.000644
0.000243
0.000236
0.000263
0.000267
0.000246
0.000247
0.000428
0.000442
0.000265
0.000415
0.000674
0.000266
0.000252
0.000195
0.000055
0.000214
0.000246
0.000251
0.000251
0.000233
0.000245
0.000237
0.000384
0.000423
0.001744
0.000218
0.000242
0.000235
0.000252
0.000260
0.000307
0.000459
0.000433
0.000355
0.000221
0.000252
0.000301
0.000287
0.000256
0.000273
0.000431
0.000343
0.000596
0.000523
0.000398
0.000171
0.000056
0.000201
0.000287
0.000226
0.000218
0.000249
0.000234
0.000250
0.000245
0.000260
0.000280
0.000340
0.000453
0.001366
0.000247
0.000231
0.000248
0.000264
0.000249
0.000250
0.000246
0.000280
0.000461
0.000419
0.000264
0.000250
0.000262
0.000256
0.000271
0.000271
0.000257
0.000387
0.000056
0.000216
0.000237
0.000225
0.000266
0.000542
0.000432
0.000232
0.000258
0.000237
0.000256
0.000254
0.000230
0.000298
0.000247
0.000244
0.000464
0.000457
0.001618
0.000291
0.000231
0.000253
0.000262
0.000259
0.000235
0.000260
0.000477
0.000412
0.000383
0.000412
0.000228
0.000202
0.000056
0.000211
0.000425
0.000239
0.000213
0.000266
0.000242
0.000245
0.000618
0.000311
0.000345
0.000214
0.000276
0.000264
0.000243
0.000515
0.000350
0.000225
0.000244
0.000427
0.001616
0.000278
0.000262
0.000487
0.000251
0.000278
0.000281
0.000253
0.000477
0.000415
0.000378
0.000272
0.000056
0.000212
0.000231
0.000249
0.000230
0.000407
0.000312
0.000290
0.000226
0.000433
0.000473
0.000337
0.000270
0.000230
0.000242
0.000263
0.000261
0.000260
0.000253
0.000223
0.000352
0.000296
0.000287
0.001885
0.000242
0.000259
0.000254
0.000295
0.000344
0.000435
0.000684
0.000423
0.000056
0.000236
0.000333
0.000280
0.000423
0.000393
0.000201
0.000267
0.000239
0.000602
0.000371
0.000264
0.000246
0.000234
0.000273
0.000257
0.000234
0.000264
0.000268
0.000263
0.000265
0.000265
0.000457
0.000645
0.001296
0.000336
0.000441
0.000412
0.000268
0.000382
0.000428
0.000388
0.000055
0.000251
0.000382
0.000272
0.000213
0.000221
0.000242
0.000416
0.000241
0.000250
0.000474
0.000282
0.000478
0.000224
0.000260
0.000265
0.000247
0.000366
0.000390
0.000347
0.000242
0.000239
0.000419
0.000605
0.001673
0.000234
0.000477
0.000266
0.000232
0.000291
0.000427
0.000328
0.000058
0.000226
0.000232
0.000243
0.000246
0.000244
0.000253
0.000245
0.000328
0.000457
0.000321
0.000394
0.000398
0.000271
0.000574
0.000246
0.000242
0.000270
0.000268
0.000234
0.000353
0.000224
0.000239
0.000270
0.000410
0.000500
0.001649
0.000273
0.000259
0.000227
0.000268
0.000186
0.000075
0.000302
0.000489
0.000325
0.000223
0.000249
0.000249
0.000255
0.000239
0.000261
0.000249
0.000241
0.000230
0.000407
0.000549
0.000416
0.000253
0.000249
0.000238
0.000361
0.000378
0.000381
0.000371
0.000383
0.000335
0.000239
0.000260
0.000261
0.000281
0.001783
0.000253
0.000209
0.000056
0.000202
0.000220
0.000257
0.000270
0.000363
0.000546
0.000309
0.000211
0.000265
0.000256
0.000250
0.000255
0.000525
0.000442
0.000475
0.000290
0.000260
0.000269
0.000417
0.000467
0.000358
0.000403
0.000594
0.000341
0.000239
0.000268
0.000248
0.000244
0.000260
0.001710
0.000352
0.000055
0.000258
0.000332
0.000206
0.000234
0.000258
0.000248
0.000234
0.000503
0.000371
0.000309
0.000298
0.000312
0.000300
0.000747
0.000256
0.000229
0.000247
0.000254
0.000252
0.000267
0.000268
0.000263
0.000247
0.000269
0.000292
0.000436
0.000348
0.000374
0.000224
0.000250
0.000183
0.000056
0.000464
0.000260
0.000555
0.000189
0.000224
0.000227
0.000248
0.000251
0.000239
0.000230
0.000247
0.000280
0.000292
0.000421
0.000424
0.000598
0.000232
0.000318
0.000391
0.000334
0.000291
0.000242
0.000243
0.000258
0.001756
0.000256
0.001716
0.000930
0.000453
0.000280
0.000168
0.000056
0.000210
0.000239
0.000230
0.000247
0.000261
0.000242
0.000253
0.000248
0.000253
0.000344
0.000314
0.000479
0.000303
0.000383
0.000244
0.000269
0.000241
0.000290
0.000227
0.000248
0.000256
0.000261
0.001815
0.000243
0.000253
0.000263
0.000275
0.000267
0.001868
0.000531
0.000310
0.000057
0.000225
0.000201
0.000250
0.000234
0.000257
0.000246
0.000245
0.000252
0.000259
0.000382
0.000555
0.000493
0.000235
0.000202
0.000236
0.000255
0.000334
0.000438
0.000374
0.000246
0.001768
0.000251
0.000258
0.000243
0.000263
0.000274
0.000240
0.000245
0.000337
0.000326
0.000346
0.000057
0.000240
0.000226
0.000231
0.000257
0.000270
0.000231
0.000248
0.000255
0.000240
0.000256
0.000239
0.000286
0.000378
0.000380
0.000347
0.000279
0.000458
0.000236
0.000251
0.000257
0.000255
0.000259
0.000277
0.000254
0.000280
0.001792
0.000243
0.000263
0.000250
0.000235
0.000198
0.000055
0.000257
0.000395
0.000221
0.000211
0.000242
0.000235
0.000239
0.000258
0.000246
0.000219
0.000236
0.000271
0.000252
0.000462
0.000314
0.000402
0.000240
0.000242
0.000248
0.000264
0.000254
0.000257
0.000250
0.000271
0.000251
0.000263
0.000306
0.001638
0.000263
0.000256
0.000168
0.000055
0.000188
0.000241
0.000255
0.000262
0.000346
0.000382
0.000415
0.000274
0.000220
0.000259
0.000248
0.000246
0.000244
0.000259
0.000261
0.000250
0.000251
0.000255
0.000257
0.000259
0.000269
0.000266
0.000249
0.000234
0.000248
0.000280
0.000273
0.000279
0.000237
0.000259
0.000189
0.000056
0.000190
0.000241
0.000252
0.000260
0.000237
0.000252
0.000240
0.000261
0.000282
0.000234
0.000230
0.000254
0.000257
0.000245
0.000268
0.000269
0.000247
0.000254
0.000302
0.000248
0.000269
0.000300
0.000267
0.000259
0.000267
0.000274
0.000288
0.000237
0.000254
0.000485
0.000578
0.000056
0.000225
0.000284
0.000228
0.000224
0.000234
0.000260
0.000239
0.000247
0.000254
0.000240
0.000272
0.000281
0.000530
0.000460
0.001517
0.000234
0.000493
0.000234
0.000388
0.000333
0.000467
0.000343
0.000223
0.000280
0.000247
0.000266
0.000282
0.000244
0.000311
0.000261
0.000186
0.000056
0.000294
0.000470
0.000334
0.000328
0.000195
0.000269
0.000245
0.000239
0.000241
0.000246
0.000249
0.000257
0.000232
0.000297
0.000313
0.000519
0.000386
0.001797
0.000233
0.000266
0.000391
0.000518
0.000283
0.000299
0.000322
0.000312
0.000303
0.000236
0.000227
0.000259
0.000185
0.000055
0.000200
0.000234
0.000235
0.000290
0.000409
0.000380
0.000354
0.000259
0.000248
0.000212
0.000245
0.000273
0.000268
0.000261
0.000243
0.000271
0.000275
0.000567
0.000303
0.000419
0.000230
0.001748
0.000344
0.000475
0.000483
0.000490
0.000327
0.000233
0.000248
0.000268
0.000443
0.000056
0.000219
0.000258
0.000229
0.000306
0.000414
0.000444
0.000385
0.000222
0.000237
0.000288
0.000242
0.000262
0.000253
0.000300
0.000303
0.000246
0.000226
0.000342
0.000582
0.000288
0.000476
0.001844
0.000253
0.000485
0.000452
0.000371
0.000226
0.000256
0.000279
0.000267
0.000210
0.000055
0.000216
0.000342
0.000358
0.000272
0.000440
0.000305
0.000360
0.000221
0.000236
0.000265
0.000273
0.000238
0.000235
0.000249
0.000255
0.000255
0.000317
0.000364
0.000523
0.000392
0.000273
0.000220
0.000274
0.001716
0.000442
0.000468
0.000707
0.000233
0.000263
0.000305
0.000158
0.000056
0.000190
0.000238
0.000339
0.000240
0.000260
0.000386
0.000404
0.000321
0.000232
0.000541
0.000220
0.000244
0.000259
0.000279
0.000273
0.000264
0.000216
0.000396
0.000407
0.000460
0.000262
0.000225
0.000259
0.000254
0.000260
0.000271
0.000232
0.000251
0.000269
0.000297
0.000181
0.000055
0.000325
0.000342
0.000213
0.000245
0.000247
0.000262
0.000237
0.000294
0.000239
0.000250
0.000255
0.000358
0.000418
0.000399
0.000343
0.000285
0.000213
0.000235
0.000260
0.000268
0.000299
0.000255
0.000229
0.000257
0.000283
0.000286
0.000467
0.000351
0.000349
0.000237
0.000175
0.000055
0.000196
0.000229
0.000281
0.000242
0.000241
0.000245
0.000264
0.000254
0.000486
0.000220
0.000259
0.000250
0.000251
0.000258
0.000276
0.000271
0.000267
0.000342
0.000229
0.000243
0.000251
0.000270
0.000251
0.000270
0.000269
0.000278
0.000251
0.000254
0.000520
0.000247
0.000149
0.000056
0.000212
0.000233
0.000251
0.000268
0.000222
0.000247
0.000358
0.000408
0.000245
0.000237
0.000243
0.000255
0.000240
0.000262
0.000370
0.001853
0.000229
0.000284
0.000273
0.000386
0.000367
0.000360
0.000356
0.000374
0.000396
0.000441
0.000221
0.000270
0.000264
0.000275
0.001383
0.000057
0.000395
0.000340
0.000227
0.000234
0.000222
0.000250
0.000231
0.000267
0.000226
0.000271
0.000249
0.000256
0.000253
0.000355
0.000432
0.001689
0.000249
0.000212
0.000241
0.000268
0.000248
0.000259
0.000390
0.000361
0.000294
0.000349
0.000225
0.000279
0.000264
0.000255
0.000209
0.000057
0.001183
0.000524
0.000359
0.000251
0.000236
0.000226
0.000234
0.000240
0.000487
0.000223
0.000239
0.000249
0.000344
0.000448
0.000470
0.000350
0.000241
0.000231
0.000343
0.000347
0.000275
0.000272
0.000256
0.000249
0.000279
0.000605
0.000475
0.000308
0.000248
0.000262
0.000168
0.000055
0.000187
0.000212
0.000246
0.000247
0.001547
0.000219
0.000230
0.000249
0.000238
0.000253
0.000249
0.000256
0.000239
0.000261
0.000276
0.000339
0.000437
0.000586
0.000270
0.001756
0.000269
0.000274
0.000306
0.000391
0.000558
0.000410
0.000252
0.000251
0.000254
0.000268
0.000207
0.000056
0.000193
0.000255
0.000252
0.000291
0.001267
0.000226
0.000260
0.000264
0.000244
0.000233
0.000231
0.000251
0.000281
0.000247
0.000259
0.000312
0.000533
0.000423
0.000213
0.000263
0.000270
0.000273
0.000248
0.000232
0.000292
0.000265
0.000234
0.000278
0.000282
0.000310
0.000669
0.000055
0.000228
0.000243
0.000239
0.000262
0.000261
0.000242
0.000239
0.000262
0.000272
0.000264
0.001414
0.000234
0.000237
0.000251
0.000246
0.000240
0.000271
0.000268
0.000254
0.000272
0.000272
0.000459
0.000443
0.000415
0.000228
0.000272
0.001763
0.000259
0.000258
0.000340
0.000443
0.000055
0.000216
0.000390
0.000451
0.000504
0.000514
0.000556
0.001474
0.000422
0.000525
0.000650
0.000556
0.000714
0.000491
0.000613
0.000583
0.001883
0.000377
0.000465
0.000397
0.000319
0.000221
0.000306
0.000259
0.000264
0.000256
0.000299
0.000282
0.000295
0.000254
0.000292
0.001357
0.000056
0.000219
0.000220
0.000242
0.000242
0.000264
0.000253
0.000242
0.000235
0.000278
0.000219
0.000245
0.000237
0.000259
0.000256
0.000270
0.000262
0.001817
0.000272
0.000255
0.000242
0.000252
0.000271
0.000266
0.000261
0.000388
0.000435
0.000355
0.000229
0.000270
0.000291
0.000194
0.000055
0.000225
0.001355
0.000326
0.000265
0.000257
0.000245
0.000243
0.000231
0.000237
0.000246
0.000211
0.000264
0.000237
0.000498
0.000360
0.000284
0.000265
0.000260
0.001925
0.000228
0.000247
0.000257
0.000272
0.000260
0.000266
0.000277
0.000274
0.000251
0.000272
0.000321
0.000201
0.000055
0.000205
0.000240
0.000274
0.001413
0.000228
0.000249
0.000247
0.000242
0.000235
0.000267
0.000257
0.000241
0.000243
0.000260
0.000254
0.000267
0.000255
0.000261
0.000276
0.000251
0.000266
0.001770
0.000272
0.001755
0.000273
0.000251
0.000265
0.000270
0.000277
0.000262
0.000207
0.000056
0.000187
0.000248
0.001339
0.000231
0.000259
0.000242
0.000260
0.000254
0.000241
0.000254
0.000244
0.000247
0.000262
0.000265
0.000258
0.000257
0.000260
0.000284
0.000295
0.000227
0.001890
0.000229
0.001833
0.000234
0.000258
0.000283
0.000227
0.000262
0.000250
0.000258
0.000204
0.000056
0.001404
0.000233
0.000229
0.000240
0.000241
0.000235
0.000373
0.000266
0.000248
0.000256
0.000255
0.000257
0.000287
0.000347
0.000372
0.000288
0.000238
0.000278
0.000255
0.000245
0.000266
0.000341
0.000232
0.000261
0.000280
0.000252
0.000277
0.000373
0.000599
0.000378
0.000192
0.000056
0.000223
0.000246
0.000271
0.000295
0.000369
0.000269
0.001649
0.000342
0.000277
0.000261
0.000260
0.000269
0.000263
0.000266
0.000322
0.000283
0.000395
0.000556
0.000343
0.000262
0.000294
0.000280
0.000259
0.000266
0.000323
0.000275
0.000256
0.000265
0.000242
0.000341
0.000437
0.000056
0.000222
0.000470
0.000275
0.000261
0.000243
0.000230
0.000222
0.000257
0.000254
0.000257
0.001520
0.000227
0.000219
0.000250
0.000246
0.000291
0.000257
0.000259
0.000261
0.000286
0.000252
0.000321
0.000619
0.000280
0.000270
0.000290
0.000261
0.000262
0.000225
0.000310
0.000174
0.000056
0.000199
0.000243
0.000245
0.000500
0.000352
0.000283
0.000220
0.000244
0.000250
0.000256
0.000231
0.000254
0.000259
0.000263
0.000238
0.000239
0.000439
0.001172
0.000250
0.000241
0.000292
0.000230
0.000361
0.000422
0.000240
0.000294
0.000617
0.000472
0.000252
0.000242
0.000180
0.000054
0.000223
0.000253
0.000258
0.000262
0.000259
0.000254
0.000387
0.000400
0.000397
0.000273
0.000362
0.000393
0.000392
0.000363
0.000257
0.000255
0.000217
0.000265
0.000374
0.000481
0.001274
0.000223
0.000270
0.000278
0.000236
0.000229
0.000272
0.000291
0.000430
0.000474
0.000232
0.000057
0.000186
0.000241
0.000253
0.000237
0.000253
0.000244
0.000240
0.000253
0.000316
0.000331
0.000420
0.000412
0.000236
0.000227
0.000255
0.000273
0.000233
0.000259
0.000268
0.000242
0.000446
0.000248
0.000425
0.000378
0.000317
0.000249
0.000265
0.000276
0.000247
0.000340
0.000153
0.000057
0.000300
0.000315
0.000303
0.000422
0.000473
0.000296
0.000245
0.000242
0.000251
0.000272
0.000254
0.000264
0.000235
0.000254
0.000240
0.000226
0.000272
0.000386
0.000424
0.000407
0.000210
0.000273
0.000244
0.000250
0.000266
0.000279
0.000262
0.000274
0.000273
0.000265
0.000304
0.000055
0.000268
0.000369
0.000223
0.000246
0.000250
0.000242
0.000255
0.000244
0.000268
0.000256
0.000255
0.000231
0.000331
0.000513
0.000373
0.000312
0.000249
0.000219
0.000257
0.000264
0.000252
0.000273
0.000253
0.000263
0.000330
0.000249
0.000485
0.000531
0.000422
0.000237
0.000173
0.000055
0.000353
0.000206
0.000226
0.000246
0.000249
0.000249
0.000242
0.000245
0.000256
0.000259
0.000221
0.000248
0.000271
0.000223
0.000241
0.000267
0.000254
0.000259
0.000279
0.000254
0.000265
0.000262
0.000257
0.000271
0.000271
0.000231
0.000265
0.000293
0.000242
0.000281
0.000189
0.000057
0.000181
0.000243
0.000247
0.000251
0.000233
0.000251
0.000263
0.000242
0.000257
0.000277
0.000225
0.000250
0.000253
0.000392
0.000252
0.000285
0.000258
0.000268
0.000252
0.000278
0.000272
0.000240
0.000243
0.000250
0.000270
0.000276
0.000256
0.000242
0.000273
0.000261
0.000210
0.000055
0.000198
0.000358
0.000371
0.000286
0.000286
0.000257
0.000269
0.000253
0.000224
0.000244
0.000253
0.000262
0.000249
0.000237
0.000257
0.000255
0.000265
0.000271
0.000242
0.000265
0.000273
0.000267
0.000284
0.000248
0.000270
0.000257
0.000254
0.000275
0.000272
0.000255
0.000191
0.000056
0.000205
0.000224
0.000268
0.000265
0.000481
0.000217
0.000211
0.000248
0.000287
0.000471
0.000462
0.000280
0.000228
0.000250
0.000271
0.000267
0.000238
0.000271
0.000253
0.000272
0.000269
0.000258
0.000262
0.000308
0.000516
0.000498
0.000252
0.000303
0.000271
0.000258
0.000181
0.000055
0.000209
0.000224
0.000267
0.000235
0.000429
0.000535
0.000330
0.000378
0.000204
0.000247
0.000256
0.000249
0.000262
0.000241
0.000256
0.000272
0.000254
0.000325
0.000547
0.000416
0.000290
0.000246
0.000251
0.000287
0.000280
0.000256
0.000262
0.000272
0.000243
0.000339
0.000317
0.000057
0.000268
0.000231
0.000238
0.000237
0.000258
0.000252
0.000233
0.000240
0.000249
0.000258
0.000246
0.000249
0.000242
0.000439
0.000526
0.000390
0.000238
0.000266
0.000259
0.000241
0.000268
0.000276
0.000484
0.000244
0.000239
0.000590
0.000415
0.000498
0.000249
0.000256
0.000178
0.000055
0.000198
0.000230
0.000242
0.000246
0.000252
0.000260
0.000376
0.000478
0.000471
0.000421
0.000213
0.000268
0.000273
0.000275
0.000259
0.000246
0.000240
0.000247
0.000259
0.000317
0.000426
0.000639
0.000366
0.000250
0.000365
0.000380
0.000474
0.000249
0.000271
0.000379
0.000380
0.000056
0.000263
0.000238
0.000433
0.000228
0.000235
0.000248
0.000275
0.000244
0.000235
0.000236
0.000281
0.000395
0.000375
0.000349
0.000216
0.000242
0.000266
0.000241
0.000268
0.000274
0.000275
0.000255
0.000251
0.000274
0.000313
0.000467
0.000497
0.000230
0.000266
0.000270
0.000193
0.000056
0.000219
0.000263
0.000222
0.000246
0.000250
0.000281
0.000342
0.000347
0.000490
0.000281
0.000367
0.000228
0.000248
0.000262
0.000253
0.000243
0.000257
0.000259
0.000319
0.000383
0.000482
0.000312
0.000479
0.000281
0.000384
0.000424
0.000380
0.000246
0.000247
0.000291
0.000354
0.000057
0.000234
0.000281
0.000219
0.000257
0.000260
0.000254
0.000256
0.000248
0.000245
0.000263
0.000247
0.000335
0.000463
0.000377
0.000376
0.000220
0.000263
0.000267
0.000261
0.000235
0.000254
0.000251
0.000271
0.000272
0.000277
0.000335
0.000480
0.000489
0.000233
0.000282
0.000187
0.000054
0.000213
0.000249
0.000265
0.000237
0.000279
0.000319
0.000642
0.000327
0.000365
0.000681
0.000268
0.000215
0.000245
0.000261
0.000245
0.000266
0.000297
0.000261
0.000479
0.000468
0.001464
0.000301
0.000262
0.000260
0.000292
0.000273
0.000390
0.000436
0.000315
0.000346
0.000156
0.000055
0.000208
0.000232
0.000244
0.000248
0.000235
0.000261
0.000279
0.000254
0.000240
0.000331
0.000345
0.000365
0.000267
0.000339
0.000389
0.000344
0.000253
0.000238
0.000273
0.000258
0.000245
0.000250
0.000283
0.000247
0.000313
0.000436
0.000432
0.000307
0.000242
0.000267
0.000186
0.000055
0.000227
0.000250
0.000259
0.000252
0.000239
0.000242
0.000466
0.000216
0.000230
0.000261
0.000240
0.000253
0.000253
0.000259
0.000249
0.000276
0.000255
0.000268
0.000272
0.000255
0.000276
0.000325
0.000248
0.000238
0.000265
0.000276
0.000266
0.000272
0.000261
0.000273
0.000169
0.000056
0.000229
0.000243
0.000272
0.000457
0.000371
0.000272
0.000213
0.000245
0.000264
0.000242
0.000244
0.000261
0.000265
0.000259
0.000238
0.000247
0.000247
0.000266
0.000258
0.000343
0.000450
0.000417
0.000229
0.000270
0.000248
0.000254
0.000273
0.000249
0.000277
0.000293
0.000176
0.000055
0.000400
0.000418
0.000389
0.000202
0.000252
0.000261
0.000403
0.000220
0.000237
0.000252
0.000260
0.000297
0.000344
0.000472
0.001830
0.000249
0.000247
0.000251
0.000281
0.000243
0.000307
0.000452
0.000660
0.000278
0.000222
0.000262
0.000275
0.000427
0.000277
0.000282
0.000170
0.000055
0.000242
0.000353
0.000351
0.000310
0.000492
0.000209
0.000238
0.000264
0.000247
0.000232
0.000263
0.000241
0.000266
0.000315
0.000506
0.000398
0.000207
0.000246
0.000258
0.000261
0.000262
0.000322
0.000220
0.000293
0.000276
0.000456
0.000543
0.000341
0.000479
0.000227
0.000200
0.000057
0.000194
0.000230
0.000258
0.000221
0.000259
0.000247
0.000271
0.000271
0.000368
0.000349
0.000442
0.000346
0.000212
0.000254
0.000264
0.000286
0.000302
0.000237
0.000275
0.000275
0.000235
0.000314
0.000494
0.000338
0.000297
0.000247
0.000256
0.000442
0.000411
0.000318
0.000173
0.000057
0.000210
0.000233
0.000340
0.000462
0.000354
0.000195
0.000240
0.000250
0.000257
0.000252
0.000265
0.000253
0.000227
0.000257
0.000271
0.000279
0.000394
0.000364
0.000347
0.000302
0.000484
0.000233
0.000276
0.000269
0.000306
0.000285
0.000252
0.000280
0.000500
0.000448
0.000223
0.000076
0.000182
0.000232
0.000247
0.000249
0.000246
0.000482
0.000209
0.000256
0.000265
0.000307
0.000495
0.000614
0.000217
0.000226
0.000247
0.000254
0.000256
0.000243
0.000260
0.000250
0.000260
0.000265
0.000376
0.000396
0.000385
0.000395
0.000309
0.000293
0.000315
0.000252
0.000179
0.000055
0.000203
0.000236
0.000260
0.000522
0.000295
0.000280
0.000272
0.000223
0.000239
0.000260
0.000257
0.000240
0.000257
0.000258
0.000248
0.000265
0.000257
0.000241
0.000259
0.000400
0.000507
0.000391
0.000225
0.000239
0.000283
0.000275
0.000259
0.000259
0.000268
0.000257
0.000197
0.000055
0.000260
0.000405
0.000449
0.000251
0.000214
0.000247
0.000322
0.000455
0.000283
0.000216
0.000238
0.000274
0.000316
0.000422
0.000404
0.000294
0.000228
0.000240
0.000256
0.000259
0.000272
0.000264
0.000258
0.000280
0.000255
0.000277
0.000421
0.000485
0.000249
0.000245
0.000175
0.000058
0.000190
0.000236
0.000246
0.000256
0.000252
0.000264
0.000229
0.000256
0.000245
0.000255
0.000264
0.000242
0.000260
0.001459
0.000213
0.000260
0.000268
0.000242
0.000276
0.000277
0.000265
0.000238
0.000281
0.000248
0.000267
0.000284
0.000253
0.000271
0.000260
0.000271
0.000194
0.000057
0.000213
0.000226
0.000256
0.000250
0.000231
0.000266
0.000243
0.000254
0.000233
0.000248
0.000247
0.000258
0.000259
0.000254
0.000257
0.000257
0.000245
0.000266
0.000272
0.000253
0.000252
0.000280
0.000232
0.000251
0.001300
0.000267
0.000606
0.000412
0.000324
0.000244
0.000189
0.000055
0.000199
0.000242
0.000244
0.000249
0.000418
0.000240
0.000229
0.000242
0.000254
0.000425
0.000387
0.000339
0.000244
0.000233
0.000253
0.000265
0.000256
0.000265
0.000243
0.000260
0.000259
0.000260
0.000256
0.000416
0.000529
0.000446
0.000224
0.000268
0.001362
0.000248
0.000178
0.000055
0.000355
0.000411
0.000324
0.000269
0.000237
0.000222
0.000225
0.000252
0.000276
0.000239
0.000249
0.000254
0.000271
0.000298
0.000541
0.000381
0.000337
0.000226
0.000243
0.000254
0.000271
0.000260
0.000270
0.000264
0.000274
0.000258
0.000349
0.000527
0.000356
0.000396
0.000149
0.000055
0.000206
0.000233
0.001276
0.000411
0.000303
0.000513
0.000320
0.000492
0.000290
0.000329
0.000226
0.000224
0.000273
0.000238
0.000257
0.000258
0.000279
0.000607
0.000380
0.000341
0.000254
0.000245
0.000263
0.000505
0.000236
0.000260
0.000252
0.000288
0.000289
0.000594
0.000259
0.000056
0.000386
0.000309
0.000227
0.000228
0.001613
0.000487
0.000235
0.000241
0.000247
0.000246
0.000229
0.000241
0.000248
0.000266
0.000249
0.000269
0.000229
0.000268
0.000374
0.000402
0.000471
0.000252
0.000248
0.000253
0.000263
0.000294
0.000251
0.000240
0.000261
0.000277
0.000201
0.000055
0.000371
0.000328
0.000226
0.000226
0.000254
0.000243
0.000253
0.000246
0.000227
0.000234
0.001462
0.000437
0.000252
0.000236
0.000244
0.000255
0.000272
0.000259
0.000241
0.000276
0.000265
0.000258
0.000261
0.000404
0.000374
0.000512
0.000231
0.000264
0.000277
0.000285
0.000168
0.000056
0.000201
0.000415
0.000223
0.000249
0.000344
0.000436
0.000358
0.000333
0.000459
0.000206
0.000234
0.000252
0.000264
0.000265
0.000256
0.001434
0.000341
0.000287
0.000242
0.000270
0.000278
0.000252
0.000254
0.000254
0.000256
0.000274
0.000468
0.000426
0.000294
0.000276
0.000156
0.000056
0.000195
0.000226
0.000258
0.000236
0.000228
0.000266
0.000233
0.000248
0.000310
0.000325
0.000483
0.000267
0.000250
0.000246
0.000240
0.000276
0.000272
0.000263
0.000270
0.000228
0.000246
0.000337
0.001247
0.000285
0.000222
0.000244
0.000259
0.000264
0.000261
0.000265
0.000180
0.000056
0.000221
0.000354
0.000418
0.000300
0.000238
0.000241
0.000264
0.000264
0.000255
0.000244
0.000263
0.000269
0.000239
0.000256
0.000255
0.000262
0.000266
0.000269
0.000265
0.000247
0.000250
0.000272
0.000273
0.000280
0.000286
0.000269
0.000269
0.000251
0.000264
0.000440
0.001362
0.000056
0.000217
0.000233
0.000240
0.000242
0.000253
0.000260
0.000245
0.000225
0.000249
0.000250
0.000276
0.000251
0.000254
0.000237
0.000254
0.000249
0.001733
0.000247
0.000240
0.000264
0.000243
0.000264
0.000267
0.000266
0.000269
0.000256
0.000266
0.000285
0.000262
0.000261
0.000216
0.000056
0.000312
0.000311
0.001290
0.000236
0.000217
0.000249
0.000254
0.000255
0.000260
0.000259
0.000226
0.000341
0.000404
0.000434
0.000295
0.000218
0.000246
0.000259
0.000252
0.000268
0.000242
0.000269
0.000267
0.000281
0.000266
0.000401
0.000439
0.000286
0.000316
0.000242
0.000188
0.000056
0.000197
0.000250
0.000245
0.000245
0.000253
0.000223
0.000238
0.000279
0.000405
0.001335
0.000266
0.000206
0.000250
0.000273
0.000249
0.000272
0.000261
0.000253
0.000293
0.000427
0.000379
0.000279
0.000236
0.000237
0.000288
0.000274
0.000259
0.000304
0.000268
0.000277
0.000196
0.000056
0.000268
0.000456
0.000336
0.000218
0.000227
0.000246
0.000242
0.000277
0.000264
0.000249
0.000227
0.000253
0.000449
0.000552
0.000519
0.001359
0.000255
0.000274
0.000322
0.000356
0.000483
0.000412
0.000610
0.000257
0.000242
0.000251
0.000266
0.000272
0.000264
0.000276
0.000182
0.000056
0.000214
0.000267
0.000459
0.000441
0.000370
0.000239
0.000252
0.000226
0.000251
0.000258
0.000250
0.000262
0.000266
0.000241
0.000267
0.000306
0.000346
0.000419
0.000387
0.001314
0.000272
0.000258
0.000254
0.000261
0.000507
0.000393
0.000385
0.000246
0.000279
0.000274
0.000182
0.000056
0.000194
0.000243
0.000246
0.000244
0.000247
0.000271
0.000456
0.000414
0.000343
0.000216
0.000242
0.000263
0.000270
0.000258
0.000260
0.000265
0.000262
0.000261
0.000263
0.000288
0.000451
0.000422
0.000335
0.001350
0.000403
0.000237
0.000281
0.000416
0.000502
0.000284
0.000314
0.000055
0.000198
0.000238
0.000245
0.000247
0.000251
0.000254
0.001678
0.000249
0.000218
0.000240
0.000256
0.000241
0.000273
0.000315
0.000327
0.000286
0.000294
0.000256
0.000561
0.000426
0.000254
0.000281
0.000236
0.000240
0.001503
0.000348
0.000408
0.000462
0.000333
0.000298
0.000151
0.000057
0.000194
0.000244
0.000270
0.000242
0.000246
0.000258
0.001704
0.000237
0.000245
0.000264
0.000330
0.000423
0.001422
0.000358
0.000403
0.000237
0.000262
0.000231
0.000271
0.000263
0.001660
0.000426
0.000450
0.000269
0.000232
0.000248
0.000264
0.000281
0.000248
0.000246
0.000215
0.000056
0.000194
0.000247
0.000269
0.000243
0.000262
0.000276
0.000280
0.000251
0.000257
0.000252
0.000255
0.000246
0.000262
0.000270
0.000254
0.001495
0.000284
0.000228
0.000265
0.000278
0.000271
0.000261
0.000425
0.001271
0.000277
0.000228
0.000275
0.000262
0.000389
0.000242
0.000205
0.000055
0.000200
0.000251
0.000223
0.000255
0.000229
0.000231
0.000225
0.001696
0.000256
0.000233
0.000248
0.000368
0.000227
0.000242
0.000238
0.001395
0.000211
0.000276
0.000265
0.000247
0.000260
0.000349
0.000279
0.001311
0.000273
0.000262
0.000251
0.000262
0.001389
0.000276
0.000222
0.000056
0.000213
0.000367
0.000217
0.000242
0.000247
0.000245
0.000262
0.000268
0.000266
0.000248
0.000265
0.000263
0.000250
0.000249
0.000316
0.001484
0.000252
0.000271
0.000252
0.000253
0.000279
0.000265
0.000247
0.001513
0.000349
0.000235
0.000257
0.001283
0.000272
0.000245
0.000182
0.000056
0.000228
0.000366
0.000365
0.000206
0.000230
0.000237
0.000265
0.000260
0.000263
0.000274
0.000259
0.000224
0.000267
0.000258
0.000421
0.001218
0.000238
0.000249
0.000277
0.000275
0.000224
0.000247
0.000242
0.000348
0.001252
0.000270
0.000231
0.000268
0.001348
0.000319
0.000216
0.000057
0.000298
0.000247
0.000218
0.000234
0.000235
0.000260
0.000243
0.000246
0.000277
0.000252
0.000241
0.000254
0.000236
0.000326
0.000443
0.001455
0.000213
0.000253
0.000297
0.000533
0.000265
0.000412
0.001333
0.000288
0.000248
0.000273
0.000250
0.001303
0.000252
0.000523
0.000373
0.000056
0.000225
0.000250
0.000256
0.000251
0.000259
0.000248
0.000272
0.000246
0.000266
0.000258
0.000345
0.000498
0.001272
0.000248
0.000261
0.000263
0.000279
0.000217
0.000246
0.000240
0.000340
0.001240
0.000263
0.000249
0.000248
0.000252
0.001480
0.000454
0.000484
0.000216
0.000191
0.000055
0.000203
0.000233
0.000249
0.000235
0.000253
0.000268
0.000233
0.000255
0.000447
0.000479
0.000272
0.001482
0.000216
0.000238
0.000266
0.000262
0.000259
0.000385
0.001589
0.000259
0.000391
0.000338
0.001287
0.000361
0.000340
0.000298
0.000243
0.000257
0.000262
0.000269
0.000189
0.000056
0.000187
0.000241
0.000326
0.000235
0.000345
0.000560
0.000242
0.000310
0.001454
0.000242
0.000388
0.000255
0.000223
0.000325
0.000391
0.001299
0.000274
0.000241
0.000244
0.000251
0.001522
0.000381
0.000276
0.000318
0.000236
0.000238
0.000466
0.000360
0.000222
0.000236
0.000260
0.000056
0.000279
0.000352
0.000314
0.000273
0.000234
0.001496
0.000219
0.000257
0.000267
0.000265
0.000272
0.000242
0.000315
0.001467
0.000260
0.000233
0.000429
0.001194
0.000338
0.000451
0.000395
0.000234
0.000238
0.000256
0.000276
0.000239
0.000459
0.000224
0.000267
0.000281
0.000194
0.000055
0.000188
0.000229
0.000412
0.000320
0.001313
0.000278
0.000310
0.000236
0.000244
0.000245
0.000251
0.000361
0.001449
0.000272
0.000217
0.000245
0.001394
0.000292
0.000390
0.000420
0.000411
0.000228
0.000249
0.000256
0.000267
0.000280
0.000270
0.000251
0.000276
0.000252
0.000187
0.000057
0.000217
0.000374
0.001477
0.000205
0.000284
0.000278
0.000243
0.000244
0.000278
0.000422
0.001341
0.000208
0.000269
0.000259
0.000251
0.001322
0.000671
0.000284
0.000314
0.000407
0.000297
0.000244
0.000268
0.000253
0.000273
0.000287
0.000275
0.000288
0.000457
0.000442
0.001391
0.000066
0.000194
0.000250
0.000245
0.000218
0.000248
0.000431
0.000479
0.001294
0.000245
0.000235
0.000249
0.001579
0.000290
0.000327
0.000219
0.000402
0.000252
0.000242
0.000270
0.000275
0.000241
0.000277
0.000282
0.000252
0.000247
0.000438
0.000297
0.001804
0.000219
0.000193
0.000167
0.000057
0.000202
0.000254
0.000399
0.000535
0.001208
0.000272
0.000247
0.000256
0.000242
0.000252
0.000255
0.000262
0.000376
0.000471
0.000369
0.000216
0.000252
0.000274
0.000246
0.000277
0.000248
0.000275
0.000254
0.000267
0.000265
0.000461
0.000412
0.000346
0.000324
0.001424
0.000138
0.000060
0.000211
0.000249
0.000450
0.000307
0.000313
0.000308
0.000311
0.000334
0.000269
0.000261
0.000256
0.000262
0.000253
0.000302
0.000238
0.000258
0.000628
0.000281
0.000293
0.000383
0.000277
0.000403
0.000233
0.000262
0.000244
0.000265
0.000250
0.000289
0.000349
0.000512
0.000285
0.000056
0.000203
0.001400
0.000236
0.000341
0.000555
0.000221
0.000459
0.000281
0.000218
0.000264
0.000244
0.000241
0.000264
0.000276
0.000268
0.000251
0.000257
0.001368
0.000253
0.000244
0.000277
0.000259
0.000268
0.000279
0.000271
0.000249
0.000279
0.000248
0.000339
0.000389
0.000364
0.000059
0.000208
0.000257
0.000224
0.001504
0.000315
0.000244
0.000222
0.000249
0.000230
0.000243
0.000252
0.000276
0.000267
0.000235
0.000266
0.000251
0.000254
0.000263
0.000272
0.000247
0.001440
0.000223
0.000253
0.000282
0.000247
0.000245
0.000258
0.000268
0.000278
0.000489
0.000345
0.000057
0.000196
0.000277
0.000372
0.000263
0.000252
0.000272
0.001509
0.000357
0.000295
0.000212
0.000258
0.000312
0.000340
0.000231
0.000227
0.000246
0.000247
0.000266
0.000257
0.000259
0.000551
0.000425
0.001142
0.000277
0.000228
0.000278
0.000247
0.000253
0.000277
0.000259
0.000506
0.000057
0.000413
0.000207
0.000207
0.000241
0.000251
0.000235
0.000248
0.000244
0.000272
0.001569
0.000506
0.000192
0.000233
0.000249
0.000265
0.000244
0.000262
0.000272
0.000258
0.000312
0.000304
0.000511
0.000452
0.001354
0.000220
0.000266
0.000282
0.000251
0.000271
0.000273
0.000467
0.000055
0.000232
0.000238
0.000239
0.000242
0.000218
0.000244
0.000260
0.000252
0.000273
0.001585
0.000337
0.000253
0.000264
0.000260
0.000454
0.000269
0.000537
0.000363
0.000303
0.000306
0.000452
0.000480
0.001264
0.000268
0.000221
0.000283
0.001749
0.000393
0.000620
0.000309
0.000145
0.000057
0.000190
0.000233
0.000243
0.000231
0.000257
0.000243
0.000241
0.000508
0.000480
0.000438
0.000280
0.000226
0.000238
0.000263
0.000266
0.000267
0.000242
0.000257
0.000250
0.000273
0.000302
0.000419
0.001323
0.000216
0.000252
0.000274
0.001900
0.000366
0.000382
0.000344
0.000158
0.000057
0.000209
0.000241
0.000243
0.001569
0.000433
0.000200
0.000240
0.000273
0.000239
0.000282
0.000385
0.000365
0.000365
0.000268
0.000346
0.000467
0.000391
0.001210
0.000270
0.000232
0.000272
0.000248
0.000273
0.000414
0.000613
0.000456
0.000244
0.000270
0.000268
0.000283
0.000186
0.000055
0.000193
0.000258
0.000224
0.001538
0.000247
0.000235
0.000244
0.000252
0.000247
0.000248
0.000255
0.000267
0.000281
0.000263
0.000239
0.000403
0.000488
0.000280
0.001399
0.000221
0.000263
0.000261
0.000258
0.000258
0.000435
0.000387
0.000492
0.000274
0.000285
0.000227
0.000442
0.000055
0.000192
0.000246
0.000253
0.001520
0.000332
0.000215
0.000268
0.000243
0.000255
0.000261
0.000252
0.000251
0.000265
0.000260
0.000292
0.000621
0.001375
0.000752
0.000256
0.000338
0.000273
0.000213
0.000245
0.000277
0.001674
0.000808
0.000224
0.000263
0.000300
0.000267
0.000178
0.000054
0.000212
0.000231
0.000254
0.000249
0.000254
0.000248
0.000238
0.000252
0.000244
0.000232
0.000290
0.000282
0.000276
0.000225
0.000263
0.000244
0.000272
0.001604
0.000706
0.000361
0.000361
0.000196
0.000246
0.000283
0.000262
0.000261
0.000282
0.000244
0.001386
0.000404
0.000387
0.000056
0.000178
0.000233
0.000252
0.000250
0.000261
0.000231
0.000254
0.000256
0.000247
0.000265
0.000260
0.000553
0.000367
0.000289
0.000206
0.000248
0.000263
0.001400
0.000686
0.000509
0.000302
0.000270
0.000234
0.000245
0.000276
0.000255
0.000248
0.000269
0.001484
0.000441
0.000184
0.000057
0.000213
0.000222
0.000252
0.000241
0.000252
0.000247
0.000238
0.000249
0.000270
0.000260
0.000341
0.000460
0.000273
0.000220
0.000251
0.000239
0.000264
0.000254
0.001572
0.000635
0.000456
0.000340
0.000210
0.000265
0.000258
0.000260
0.000269
0.000295
0.000252
0.001348
0.000329
0.000055
0.000228
0.000190
0.000239
0.000256
0.000257
0.000248
0.000263
0.000296
0.000363
0.000446
0.000368
0.000420
0.000319
0.000222
0.000241
0.000252
0.000270
0.000262
0.000268
0.001889
0.000368
0.000234
0.000437
0.000250
0.000250
0.000258
0.000269
0.000262
0.000273
0.000277
0.000406
0.000056
0.000314
0.000204
0.000234
0.000239
0.000275
0.000229
0.000232
0.000231
0.000268
0.000254
0.000247
0.000235
0.000272
0.000435
0.000513
0.000435
0.000216
0.000261
0.000253
0.000252
0.000256
0.000282
0.001471
0.001064
0.000215
0.000266
0.000250
0.000263
0.000279
0.000255
0.000193
0.000056
0.000188
0.001342
0.000296
0.000207
0.000237
0.000252
0.000255
0.000240
0.000242
0.000246
0.000260
0.000261
0.000239
0.000349
0.000400
0.000526
0.000219
0.000236
0.000268
0.000268
0.000265
0.000229
0.000257
0.000265
0.001345
0.000672
0.000300
0.000385
0.000377
0.000398
0.000297
0.000055
0.000200
0.000237
0.000364
0.001318
0.000208
0.000257
0.000257
0.000233
0.000263
0.000249
0.000247
0.000251
0.000265
0.000337
0.000582
0.000301
0.000225
0.000324
0.000287
0.000209
0.000255
0.000272
0.000236
0.000271
0.000287
0.001514
0.000748
0.000297
0.000303
0.000250
0.000181
0.000055
0.000225
0.000230
0.000478
0.000418
0.001207
0.000267
0.000211
0.000249
0.000219
0.000250
0.000248
0.000256
0.000230
0.000241
0.000256
0.000254
0.000272
0.000226
0.000265
0.000254
0.000265
0.000265
0.000311
0.000328
0.000220
0.000265
0.000265
0.001456
0.000254
0.000252
0.000168
0.000056
0.000192
0.000227
0.000253
0.000263
0.000352
0.000381
0.000391
0.000267
0.001575
0.000234
0.000326
0.000526
0.000303
0.000221
0.000431
0.000245
0.000225
0.000260
0.000280
0.000269
0.000278
0.000266
0.000265
0.000264
0.000278
0.000406
0.000371
0.000346
0.001569
0.000221
0.000192
0.000058
0.000230
0.000254
0.000241
0.000242
0.000243
0.000244
0.000264
0.000279
0.000435
0.002042
0.000234
0.000235
0.000256
0.000260
0.000262
0.000255
0.000278
0.000243
0.000262
0.000433
0.000358
0.000470
0.001443
0.000261
0.000528
0.000226
0.001770
0.000244
0.000257
0.001532
0.000149
0.000056
0.000310
0.000428
0.000475
0.000239
0.000269
0.000222
0.000258
0.000276
0.000256
0.000227
0.000257
0.000332
0.000418
0.000345
0.000471
0.000206
0.000231
0.001560
0.000227
0.000608
0.001861
0.000297
0.000219
0.001542
0.002031
0.000744
0.000267
0.000258
0.000279
0.000555
0.000237
0.000057
0.000201
0.000247
0.000241
0.000252
0.001421
0.002551
0.000255
0.000199
0.000240
0.001575
0.001985
0.000206
0.000246
0.000431
0.000298
0.000353
0.000393
0.000507
0.000228
0.000219
0.000251
0.000251
0.000280
0.001598
0.001201
0.001431
0.000288
0.000284
0.000254
0.000312
0.000345
0.000056
0.000203
0.000243
0.000234
0.000244
0.000230
0.000243
0.000247
0.000254
0.000255
0.000251
0.000239
0.000305
0.000427
0.000555
0.000219
0.000253
0.000243
0.000278
0.000264
0.000271
0.000252
0.000261
0.001555
0.000436
0.002104
0.000250
0.000251
0.000361
0.000408
0.000401
0.000190
0.000057
0.000210
0.000336
0.000494
0.000320
0.000195
0.000223
0.000259
0.000244
0.000256
0.000227
0.000243
0.000267
0.000262
0.001599
0.001355
0.001238
0.000270
0.000229
0.000243
0.000287
0.000276
0.000284
0.000238
0.000256
0.002201
0.000255
0.000255
0.000289
0.000323
0.000307
0.000222
0.000057
0.000224
0.000353
0.000568
0.000320
0.000224
0.000236
0.000252
0.000260
0.001899
0.001426
0.000221
0.000338
0.000380
0.000412
0.000265
0.000214
0.000258
0.000266
0.000266
0.000260
0.000259
0.000268
0.000477
0.000233
0.000264
0.000273
0.000250
0.000275
0.000283
0.000245
0.000205
0.000056
0.000191
0.000244
0.000256
0.000236
0.000254
0.000268
0.001549
0.001409
0.001333
0.000244
0.000215
0.000246
0.000270
0.000260
0.000248
0.000250
0.000249
0.002103
0.000252
0.000229
0.000272
0.000260
0.000258
0.000268
0.000267
0.000255
0.000275
0.000250
0.000278
0.000256
0.000174
0.000057
0.000198
0.002686
0.001395
0.000220
0.000303
0.000298
0.000230
0.000263
0.000262
0.000240
0.000255
0.000247
0.000231
0.000267
0.000254
0.000254
0.000270
0.000262
0.000260
0.000264
0.000263
0.000286
0.000274
0.000264
0.000246
0.000243
0.000267
0.000275
0.000278
0.000248
0.000369
0.000055
0.001530
0.000252
0.001239
0.000228
0.000221
0.000244
0.000264
0.000248
0.000241
0.000248
0.000465
0.000305
0.000362
0.000208
0.000236
0.002162
0.000241
0.000239
0.000429
0.000348
0.000418
0.000253
0.000232
0.000251
0.000272
0.000239
0.000269
0.000275
0.000277
0.001617
0.001259
0.000055
0.000194
0.000235
0.000302
0.000383
0.000379
0.000264
0.000212
0.000238
0.000252
0.000266
0.000252
0.000248
0.000220
0.000256
0.000264
0.000241
0.000309
0.000708
0.000284
0.000256
0.000222
0.000276
0.000274
0.000251
0.000251
0.000245
0.000268
0.000272
0.000246
0.000348
0.000330
0.000073
0.001102
0.000211
0.000367
0.000515
0.000224
0.000228
0.000227
0.000242
0.000247
0.002307
0.000369
0.000381
0.000213
0.000386
0.000274
0.000261
0.000258
0.000266
0.000259
0.000222
0.000259
0.000319
0.000557
0.000472
0.001876
0.001307
0.000548
0.000495
0.000232
0.000277
0.000197
0.000057
0.000334
0.000251
0.000252
0.000238
0.000252
0.000224
0.000258
0.000256
0.000254
0.000246
0.000260
0.000223
0.000243
0.000263
0.000441
0.000468
0.001818
0.001321
0.000493
0.000399
0.000458
0.000245
0.000240
0.000256
0.002141
0.000548
0.000392
0.000225
0.000278
0.000296
0.000176
0.000055
0.000187
0.000244
0.000252
0.000244
0.000250
0.000343
0.000412
0.000339
0.000265
0.000242
0.000245
0.000252
0.000257
0.002110
0.000355
0.000401
0.000214
0.000248
0.000267
0.000269
0.000246
0.002466
0.000324
0.000227
0.000260
0.000253
0.000260
0.000262
0.000288
0.000278
0.000190
0.000057
0.000180
0.000325
0.000662
0.000273
0.000265
0.000217
0.000227
0.000255
0.000281
0.000240
0.001960
0.000378
0.000273
0.000278
0.000240
0.000270
0.000262
0.000250
0.002199
0.000453
0.000215
0.000272
0.000261
0.000294
0.000225
0.000252
0.000280
0.000276
0.000242
0.000278
0.000161
0.000056
0.000207
0.000238
0.000250
0.000218
0.000244
0.000262
0.000239
0.000246
0.000230
0.002178
0.000228
0.000286
0.000214
0.000425
0.000243
0.000240
0.000280
0.000286
0.000246
0.000259
0.001969
0.000275
0.000342
0.000372
0.000431
0.000401
0.000312
0.000244
0.000250
0.000266
0.000195
0.000056
0.000210
0.000235
0.000241
0.000245
0.000249
0.000348
0.000198
0.002299
0.000250
0.000238
0.000261
0.000261
0.000226
0.000260
0.000300
0.002124
0.000594
0.000215
0.000261
0.000241
0.000273
0.000246
0.000289
0.000266
0.000264
0.000252
0.000289
0.000248
0.000267
0.000265
0.000191
0.000056
0.001833
0.001440
0.000199
0.000228
0.000240
0.000252
0.000250
0.000268
0.000409
0.000378
0.002146
0.000260
0.000233
0.000267
0.000272
0.000558
0.000359
0.000295
0.000232
0.000244
0.000250
0.000263
0.000269
0.000221
0.000268
0.000257
0.000265
0.000266
0.000320
0.000679
0.000302
0.000073
0.000167
0.000253
0.000259
0.000246
0.000272
0.000245
0.000255
0.000241
0.001484
0.002119
0.000576
0.000282
0.000395
0.000746
0.000302
0.000243
0.000250
0.000249
0.000263
0.000254
0.000274
0.000232
0.000255
0.001825
0.000357
0.001365
0.000289
0.000268
0.000283
0.000256
0.000502
0.000055
0.001929
0.000228
0.000223
0.000234
0.000286
0.000360
0.000523
0.000235
0.000295
0.000216
0.000239
0.000248
0.000259
0.000258
0.000278
0.000243
0.000255
0.000265
0.001864
0.000224
0.000232
0.000250
0.000274
0.000283
0.000271
0.000254
0.001467
0.000328
0.000239
0.000267
0.000180
0.000055
0.000211
0.000220
0.000250
0.000249
0.000239
0.000242
0.000309
0.000384
0.000309
0.000380
0.000225
0.000240
0.000263
0.000330
0.000425
0.000320
0.000222
0.000247
0.000265
0.000339
0.000439
0.000499
0.000247
0.000259
0.000269
0.000234
0.000256
0.000265
0.000283
0.000257
0.000203
0.000056
0.001448
0.000438
0.000208
0.001941
0.000263
0.000446
0.000439
0.000301
0.000229
0.000246
0.000268
0.000243
0.000241
0.000252
0.000266
0.000263
0.000448
0.000292
0.000379
0.000419
0.000337
0.000224
0.000254
0.000268
0.000271
0.000270
0.000270
0.000261
0.000380
0.000419
0.001400
0.000056
0.000191
0.000221
0.002079
0.000313
0.000298
0.000261
0.000257
0.000248
0.000262
0.000268
0.000214
0.000249
0.000248
0.000266
0.000258
0.000366
0.000713
0.001769
0.000210
0.000250
0.000261
0.000260
0.000296
0.000492
0.001606
0.000279
0.000364
0.001935
0.000259
0.000244
0.000198
0.000057
0.000206
0.000237
0.000234
0.000245
0.000230
0.000250
0.000249
0.000287
0.000328
0.000278
0.000372
0.000366
0.000330
0.000308
0.000236
0.000269
0.000258
0.000239
0.000268
0.000251
0.000303
0.000289
0.000266
0.000262
0.000273
0.001504
0.000289
0.000397
0.002067
0.000226
0.000175
0.000057
0.000221
0.000238
0.000239
0.000243
0.000487
0.000209
0.000254
0.000323
0.000370
0.000322
0.000306
0.000208
0.000261
0.000268
0.000267
0.000322
0.000393
0.000467
0.000258
0.000393
0.000562
0.000367
0.001635
0.000228
0.000256
0.002007
0.000332
0.000227
0.000240
0.000288
0.000187
0.000055
0.000187
0.000271
0.000198
0.000247
0.000245
0.000269
0.000265
0.000262
0.000250
0.000261
0.001805
0.000334
0.000373
0.000314
0.000431
0.000362
0.000369
0.001489
0.000247
0.000284
0.002100
0.000555
0.000280
0.000232
0.000258
0.000272
0.000499
0.000233
0.000253
0.000277
0.000199
0.000056
0.000289
0.000354
0.000384
0.000287
0.000210
0.000241
0.000252
0.000256
0.000280
0.000283
0.000223
0.000252
0.000253
0.000264
0.000496
0.001360
0.000318
0.000206
0.000408
0.001791
0.000379
0.000264
0.000248
0.000280
0.000237
0.000276
0.000272
0.000261
0.000243
0.000270
0.000202
0.000056
0.000246
0.000474
0.001977
0.000253
0.000254
0.000219
0.000250
0.000331
0.000442
0.000398
0.001311
0.000377
0.002067
0.000367
0.000205
0.000245
0.000272
0.000271
0.000254
0.000241
0.000304
0.000274
0.000261
0.000291
0.000532
0.000367
0.000334
0.002228
0.000485
0.000474
0.000397
0.000056
0.000206
0.000231
0.000258
0.001954
0.000231
0.000227
0.000235
0.000247
0.000241
0.000258
0.000242
0.000264
0.000243
0.000275
0.000424
0.001502
0.000247
0.000244
0.000272
0.000248
0.000234
0.000258
0.000262
0.000287
0.000359
0.000386
0.000496
0.000227
0.001595
0.000288
0.000170
0.000056
0.000194
0.000225
0.000241
0.000235
0.000249
0.000256
0.000248
0.000262
0.000241
0.000357
0.000375
0.001429
0.000240
0.000212
0.000246
0.000266
0.000254
0.000255
0.000493
0.000282
0.000502
0.000354
0.000227
0.001579
0.000224
0.000258
0.000289
0.000279
0.000259
0.000273
0.000190
0.000056
0.000209
0.000225
0.000266
0.000268
0.000245
0.000250
0.000234
0.000239
0.000257
0.000247
0.000253
0.000255
0.000253
0.001487
0.000370
0.000202
0.000250
0.000257
0.000289
0.000310
0.000379
0.000258
0.000252
0.000281
0.000239
0.000268
0.000261
0.001401
0.000286
0.000239
0.000168
0.000056
0.000178
0.000242
0.000261
0.000260
0.000251
0.000237
0.000253
0.000256
0.000218
0.000267
0.000268
0.000239
0.000224
0.000337
0.000337
0.000412
0.000228
0.000228
0.001628
0.000245
0.000243
0.000260
0.000263
0.000304
0.000402
0.000343
0.000450
0.000267
0.000256
0.001601
0.000178
0.000055
0.000389
0.000236
0.000359
0.000306
0.000234
0.000221
0.000241
0.000271
0.000255
0.000238
0.000249
0.000236
0.001460
0.000288
0.000319
0.000207
0.000262
0.000257
0.000261
0.000267
0.000255
0.000255
0.000245
0.000269
0.000298
0.000376
0.000344
0.000391
0.000304
0.000254
0.000186
0.000055
0.000205
0.000240
0.000420
0.000346
0.000401
0.000264
0.000243
0.000250
0.000251
0.000259
0.000240
0.000221
0.000260
0.000251
0.001251
0.000312
0.000228
0.000253
0.000260
0.000268
0.000238
0.000266
0.000253
0.000263
0.000263
0.000248
0.000324
0.000721
0.000409
0.000228
0.000182
0.000054
0.000192
0.001574
0.000278
0.000468
0.000287
0.000387
0.000209
0.000259
0.000261
0.000252
0.000240
0.000262
0.000269
0.000274
0.000272
0.001513
0.000251
0.000286
0.000260
0.000254
0.000259
0.000249
0.000269
0.000264
0.000269
0.000257
0.000469
0.000314
0.000371
0.000250
0.000181
0.000056
0.000203
0.000253
0.000239
0.001672
0.000359
0.000353
0.000217
0.000241
0.000254
0.000272
0.000278
0.000253
0.000245
0.000266
0.000225
0.000277
0.000414
0.001309
0.000244
0.000242
0.001498
0.000315
0.000592
0.000370
0.000351
0.000222
0.000271
0.000458
0.000238
0.000260
0.000186
0.000056
0.000250
0.000224
0.000243
0.000244
0.000249
0.000258
0.000236
0.000255
0.000257
0.000238
0.000256
0.000258
0.000354
0.000482
0.001644
0.001492
0.000475
0.000391
0.000368
0.000214
0.000244
0.000252
0.000250
0.000266
0.000247
0.000267
0.000257
0.000273
0.001521
0.000327
0.000189
0.000056
0.000246
0.000330
0.000358
0.000327
0.000232
0.000227
0.000244
0.000380
0.000454
0.000318
0.002169
0.000322
0.000705
0.000492
0.000469
0.000266
0.000329
0.000402
0.000320
0.000281
0.000398
0.000233
0.001562
0.000529
0.000212
0.000260
0.000257
0.000252
0.000266
0.000265
0.000199
0.000056
0.000228
0.000249
0.000253
0.000255
0.000246
0.001657
0.000876
0.001007
0.000204
0.000231
0.000259
0.000262
0.000259
0.000260
0.000253
0.000248
0.000256
0.000265
0.000268
0.000276
0.001433
0.000317
0.000254
0.000244
0.000211
0.000261
0.000263
0.000279
0.000264
0.000283
0.001899
0.000057
0.000202
0.000215
0.001555
0.000848
0.000375
0.000361
0.000243
0.000234
0.000247
0.000259
0.000247
0.000248
0.000244
0.002010
0.000457
0.000221
0.000257
0.000232
0.000270
0.000262
0.000188
