0.000491
0.019491
0.001793
0.000355
0.000265
0.000282
0.000307
0.000246
0.000333
0.000284
0.000248
0.000355
0.000519
0.000448
0.000422
0.000333
0.000266
0.000362
0.000348
0.000405
0.000311
0.001923
0.000699
0.000252
0.000256
0.000328
0.000282
0.000357
0.000461
0.000318
0.000520
0.000268
0.000058
0.000210
0.000265
0.000273
0.000259
0.000279
0.000246
0.000277
0.000262
0.000270
0.000302
0.000420
0.000441
0.000312
0.000260
0.000422
0.000282
0.000367
0.000249
0.000263
0.001694
0.000315
0.000258
0.000454
0.000238
0.000286
0.000278
0.000278
0.000300
0.000281
0.000337
0.000479
0.000058
0.000249
0.000257
0.000261
0.000262
0.000252
0.000246
0.000255
0.000253
0.000293
0.001668
0.000222
0.000246
0.000261
0.000276
0.000279
0.000254
0.000261
0.000258
0.000352
0.001801
0.000236
0.000273
0.000450
0.000488
0.000331
0.000239
0.000246
0.000467
0.000520
0.000756
0.000189
0.000056
0.000225
0.000248
0.000252
0.000245
0.000293
0.000252
0.000328
0.000572
0.000354
0.000248
0.000258
0.000244
0.000258
0.000237
0.000255
0.000261
0.000253
0.000258
0.000297
0.000321
0.001671
0.000280
0.000250
0.000418
0.000691
0.000300
0.000739
0.000464
0.000327
0.000249
0.000193
0.000056
0.000233
0.000251
0.000263
0.000243
0.000252
0.000260
0.000243
0.000541
0.001412
0.000221
0.000243
0.000243
0.000261
0.000253
0.000262
0.000284
0.000283
0.000803
0.001378
0.000282
0.000458
0.000259
0.000226
0.000223
0.000258
0.000273
0.000250
0.000269
0.000259
0.000273
0.000192
0.000056
0.000208
0.000241
0.000250
0.000262
0.000237
0.000241
0.000246
0.000253
0.000239
0.000254
0.001631
0.000267
0.000228
0.000244
0.000252
0.000247
0.000249
0.000252
0.000250
0.000254
0.000272
0.001660
0.000289
0.000245
0.000445
0.000255
0.000267
0.000247
0.000263
0.000270
0.000200
0.000056
0.000215
0.000228
0.000255
0.000242
0.000244
0.000248
0.000264
0.000235
0.000263
0.000245
0.000273
0.000246
0.000257
0.000273
0.001644
0.000285
0.000279
0.000216
0.000254
0.000278
0.000266
0.000237
0.000241
0.000275
0.001779
0.000405
0.000337
0.000348
0.000252
0.000281
0.000195
0.000056
0.000233
0.000253
0.000228
0.000265
0.000257
0.000241
0.000271
0.000423
0.000379
0.000461
0.000213
0.000244
0.000252
0.000249
0.001587
0.000501
0.000329
0.000414
0.000307
0.000230
0.000268
0.000288
0.000264
0.001775
0.000487
0.000443
0.000254
0.000251
0.000243
0.000270
0.000184
0.000072
0.000177
0.000238
0.000256
0.000259
0.000334
0.000489
0.000349
0.000251
0.000220
0.000256
0.000261
0.000243
0.000252
0.001696
0.000502
0.000275
0.000245
0.000255
0.000265
0.000277
0.000254
0.000255
0.000276
0.001944
0.000429
0.000265
0.000200
0.000250
0.000269
0.000412
0.000332
0.000056
0.000215
0.000370
0.000387
0.000261
0.000245
0.000257
0.000250
0.000258
0.000240
0.000234
0.000232
0.000251
0.001555
0.000406
0.000251
0.000243
0.000252
0.000245
0.000252
0.000280
0.000276
0.000330
0.000239
0.001820
0.000253
0.000489
0.000237
0.000265
0.000258
0.000268
0.000258
0.000058
0.000424
0.000510
0.000602
0.000217
0.000231
0.000275
0.000230
0.000222
0.000253
0.000257
0.000252
0.001706
0.000246
0.000442
0.000368
0.000212
0.000250
0.000227
0.000248
0.000264
0.000253
0.001862
0.000233
0.000241
0.002082
0.000519
0.000356
0.000248
0.000257
0.000269
0.000181
0.000057
0.000214
0.000242
0.000248
0.000242
0.000258
0.001621
0.000251
0.000233
0.000267
0.000240
0.000243
0.000255
0.000243
0.000251
0.000270
0.000706
0.000334
0.000261
0.000237
0.000262
0.000270
0.000247
0.000246
0.000428
0.000443
0.000270
0.000349
0.000784
0.000198
0.000271
0.000204
0.000056
0.000207
0.000255
0.000250
0.000245
0.000235
0.000249
0.000236
0.000417
0.000417
0.001715
0.000224
0.000240
0.000241
0.000243
0.000263
0.000296
0.000460
0.000433
0.000342
0.000238
0.000273
0.000300
0.000277
0.000242
0.000285
0.000429
0.000356
0.000683
0.000407
0.000426
0.000156
0.000057
0.000205
0.000263
0.000237
0.000232
0.000228
0.000244
0.000250
0.000246
0.000245
0.000335
0.000299
0.000448
0.001368
0.000249
0.000241
0.000246
0.000258
0.000253
0.000252
0.000243
0.000273
0.000479
0.000398
0.000265
0.000265
0.000252
0.000258
0.000268
0.000268
0.000265
0.000379
0.000055
0.000219
0.000233
0.000231
0.000284
0.000544
0.000405
0.000237
0.000258
0.000234
0.000260
0.000249
0.000232
0.000297
0.000251
0.000237
0.000467
0.000456
0.001622
0.000282
0.000240
0.000250
0.000264
0.000260
0.000237
0.000269
0.000493
0.000407
0.000343
0.000434
0.000235
0.000189
0.000056
0.000213
0.000434
0.000241
0.000219
0.000267
0.000235
0.000389
0.000480
0.000313
0.000338
0.000218
0.000268
0.000268
0.000240
0.000510
0.000349
0.000234
0.000311
0.000409
0.001570
0.000277
0.000281
0.000462
0.000248
0.000279
0.000278
0.000257
0.000370
0.000526
0.000380
0.000264
0.000056
0.000217
0.000229
0.000236
0.000242
0.000414
0.000305
0.000295
0.000220
0.000366
0.000497
0.000389
0.000258
0.000237
0.000239
0.000261
0.000263
0.000253
0.000251
0.000238
0.000339
0.000296
0.000374
0.001808
0.000239
0.000259
0.000253
0.000294
0.000347
0.000439
0.000657
0.000434
0.000058
0.000231
0.000333
0.000280
0.000426
0.000387
0.000211
0.000259
0.000299
0.000505
0.000407
0.000269
0.000240
0.000237
0.000269
0.000263
0.000232
0.000256
0.000276
0.000264
0.000259
0.000262
0.000505
0.000601
0.001299
0.000336
0.000523
0.000331
0.000250
0.000473
0.000360
0.000397
0.000057
0.000259
0.000381
0.000267
0.000205
0.000220
0.000270
0.000392
0.000238
0.000235
0.000470
0.000310
0.000483
0.000215
0.000259
0.000264
0.000248
0.000385
0.000366
0.000366
0.000222
0.000247
0.000427
0.000622
0.001645
0.000224
0.000465
0.000287
0.000230
0.000301
0.000414
0.000323
0.000055
0.000231
0.000235
0.000244
0.000248
0.000245
0.000249
0.000253
0.000329
0.000448
0.000378
0.000348
0.000397
0.000256
0.000581
0.000240
0.000247
0.000271
0.000265
0.000234
0.000347
0.000228
0.000243
0.000270
0.000495
0.000440
0.001621
0.000267
0.000236
0.000247
0.000272
0.000189
0.000055
0.000287
0.000490
0.000361
0.000190
0.000251
0.000240
0.000257
0.000243
0.000257
0.000246
0.000247
0.000224
0.000414
0.000525
0.000396
0.000285
0.000275
0.000228
0.000348
0.000386
0.000387
0.000325
0.000422
0.000359
0.000214
0.000257
0.000266
0.000271
0.001791
0.000243
0.000209
0.000057
0.000211
0.000214
0.000258
0.000274
0.000371
0.000538
0.000307
0.000213
0.000263
0.000254
0.000252
0.000252
0.000523
0.000448
0.000472
0.000292
0.000263
0.000271
0.000424
0.000461
0.000406
0.000335
0.000445
0.000495
0.000248
0.000245
0.000267
0.000256
0.000251
0.001715
0.000401
0.000057
0.000262
0.000339
0.000194
0.000235
0.000252
0.000251
0.000264
0.000485
0.000370
0.000303
0.000293
0.000300
0.000321
0.000738
0.000249
0.000234
0.000254
0.000254
0.000258
0.000255
0.000281
0.000255
0.000248
0.000262
0.000310
0.000454
0.000316
0.000354
0.000239
0.000255
0.000181
0.000056
0.000454
0.000310
0.000473
0.000218
0.000207
0.000253
0.000242
0.000254
0.000238
0.000229
0.000246
0.000281
0.000295
0.000391
0.000434
0.000578
0.000273
0.000319
0.000395
0.000330
0.000311
0.000220
0.000245
0.000264
0.001747
0.000258
0.001733
0.000925
0.000415
0.000299
0.000169
0.000057
0.000214
0.000235
0.000228
0.000249
0.000260
0.000245
0.000253
0.000248
0.000244
0.000331
0.000345
0.000433
0.000339
0.000373
0.000263
0.000253
0.000247
0.000290
0.000232
0.000241
0.000261
0.000260
0.001804
0.000242
0.000258
0.000263
0.000275
0.000264
0.001879
0.000503
0.000323
0.000056
0.000224
0.000211
0.000236
0.000239
0.000255
0.000246
0.000241
0.000257
0.000253
0.000515
0.000406
0.000510
0.000257
0.000184
0.000233
0.000259
0.000344
0.000435
0.000369
0.000242
0.001771
0.000258
0.000239
0.000252
0.000262
0.000275
0.000258
0.000238
0.000322
0.000287
0.000393
0.000056
0.000239
0.000223
0.000240
0.000256
0.000245
0.000248
0.000256
0.000252
0.000238
0.000263
0.000238
0.000273
0.000474
0.000349
0.000289
0.000265
0.000468
0.000252
0.000242
0.000256
0.000258
0.000260
0.000292
0.000236
0.000280
0.001793
0.000244
0.000241
0.000269
0.000236
0.000201
0.000056
0.000398
0.000260
0.000208
0.000220
0.000239
0.000234
0.000241
0.000255
0.000247
0.000219
0.000240
0.000266
0.000258
0.000337
0.000416
0.000406
0.000267
0.000239
0.000236
0.000252
0.000271
0.000257
0.000241
0.000271
0.000252
0.000265
0.000370
0.001576
0.000262
0.000234
0.000190
0.000056
0.000204
0.000236
0.000268
0.000245
0.000500
0.000291
0.000291
0.000327
0.000232
0.000253
0.000252
0.000240
0.000248
0.000262
0.000257
0.000259
0.000246
0.000254
0.000258
0.000261
0.000267
0.000269
0.000247
0.000237
0.000246
0.000275
0.000275
0.000259
0.000263
0.000260
0.000188
0.000056
0.000210
0.000220
0.000257
0.000259
0.000235
0.000252
0.000241
0.000262
0.000289
0.000235
0.000227
0.000247
0.000259
0.000242
0.000268
0.000262
0.000262
0.000245
0.000299
0.000249
0.000269
0.000298
0.000269
0.000256
0.000269
0.000276
0.000270
0.000250
0.000295
0.000409
0.000655
0.000056
0.000226
0.000282
0.000222
0.000230
0.000240
0.000258
0.000231
0.000253
0.000256
0.000236
0.000266
0.000276
0.000517
0.000496
0.001516
0.000225
0.000483
0.000238
0.000336
0.000391
0.000499
0.000290
0.000239
0.000279
0.000257
0.000257
0.000282
0.000249
0.000313
0.000253
0.000185
0.000056
0.000243
0.000522
0.000323
0.000338
0.000205
0.000257
0.000247
0.000238
0.000243
0.000243
0.000255
0.000255
0.000232
0.000291
0.000318
0.000534
0.000370
0.001806
0.000225
0.000261
0.000394
0.000382
0.000459
0.000272
0.000313
0.000320
0.000301
0.000236
0.000222
0.000257
0.000187
0.000056
0.000199
0.000233
0.000236
0.000281
0.000432
0.000447
0.000271
0.000258
0.000254
0.000214
0.000248
0.000266
0.000269
0.000263
0.000242
0.000279
0.000281
0.000509
0.000337
0.000426
0.000233
0.001752
0.000332
0.000489
0.000473
0.000501
0.000317
0.000227
0.000255
0.000275
0.000442
0.000056
0.000220
0.000258
0.000223
0.000339
0.000443
0.000386
0.000381
0.000220
0.000234
0.000297
0.000237
0.000265
0.000254
0.000291
0.000307
0.000233
0.000235
0.000424
0.000526
0.000249
0.000488
0.001858
0.000242
0.000538
0.000399
0.000388
0.000205
0.000260
0.000287
0.000268
0.000203
0.000056
0.000227
0.000341
0.000355
0.000334
0.000369
0.000492
0.000195
0.000192
0.000251
0.000259
0.000274
0.000230
0.000249
0.000245
0.000255
0.000253
0.000317
0.000356
0.000531
0.000386
0.000275
0.000231
0.000271
0.001716
0.000384
0.000607
0.000615
0.000248
0.000257
0.000309
0.000157
0.000056
0.000200
0.000235
0.000336
0.000239
0.000253
0.000371
0.000465
0.000281
0.000232
0.000541
0.000231
0.000242
0.000255
0.000280
0.000271
0.000268
0.000212
0.000531
0.000346
0.000371
0.000271
0.000227
0.000258
0.000257
0.000259
0.000270
0.000242
0.000249
0.000265
0.000289
0.000228
0.000057
0.000329
0.000338
0.000211
0.000249
0.000249
0.000263
0.000236
0.000301
0.000226
0.000255
0.000255
0.000373
0.000417
0.000383
0.000347
0.000269
0.000233
0.000232
0.000277
0.000250
0.000290
0.000261
0.000237
0.000256
0.000277
0.000285
0.000445
0.000380
0.000351
0.000224
0.000183
0.000056
0.000224
0.000203
0.000281
0.000243
0.000238
0.000255
0.000252
0.000258
0.000489
0.000212
0.000262
0.000252
0.000243
0.000270
0.000272
0.000281
0.000256
0.000353
0.000212
0.000247
0.000254
0.000270
0.000252
0.000269
0.000276
0.000279
0.000250
0.000249
0.000516
0.000259
0.000138
0.000057
0.000215
0.000238
0.000250
0.000267
0.000217
0.000246
0.000414
0.000371
0.000233
0.000231
0.000252
0.000254
0.000236
0.000289
0.000391
0.001814
0.000224
0.000270
0.000284
0.000395
0.000364
0.000354
0.000345
0.000418
0.000368
0.000433
0.000284
0.000211
0.000264
0.000274
0.001382
0.000056
0.000395
0.000280
0.000283
0.000229
0.000229
0.000250
0.000229
0.000259
0.000242
0.000270
0.000247
0.000258
0.000249
0.000336
0.000536
0.001594
0.000250
0.000225
0.000241
0.000267
0.000240
0.000323
0.000364
0.000327
0.000301
0.000342
0.000234
0.000272
0.000266
0.000262
0.000213
0.000056
0.001182
0.000579
0.000284
0.000272
0.000235
0.000228
0.000236
0.000236
0.000489
0.000220
0.000239
0.000253
0.000373
0.000499
0.000383
0.000353
0.000250
0.000227
0.000351
0.000346
0.000269
0.000261
0.000267
0.000237
0.000276
0.000549
0.000631
0.000218
0.000250
0.000264
0.000167
0.000056
0.000186
0.000224
0.000240
0.000251
0.001538
0.000222
0.000231
0.000252
0.000239
0.000248
0.000255
0.000256
0.000242
0.000261
0.000275
0.000410
0.000416
0.000592
0.000219
0.001742
0.000261
0.000273
0.000320
0.000382
0.000572
0.000397
0.000257
0.000256
0.000259
0.000263
0.000210
0.000056
0.000204
0.000244
0.000236
0.000294
0.001279
0.000230
0.000260
0.000264
0.000239
0.000234
0.000233
0.000253
0.000277
0.000248
0.000256
0.000327
0.000425
0.000449
0.000288
0.000265
0.000268
0.000272
0.000247
0.000235
0.000292
0.000258
0.000243
0.000277
0.000285
0.000416
0.000527
0.000056
0.000229
0.000243
0.000242
0.000256
0.000266
0.000240
0.000238
0.000265
0.000265
0.000254
0.001430
0.000228
0.000239
0.000251
0.000246
0.000246
0.000265
0.000263
0.000263
0.000263
0.000301
0.000460
0.000432
0.000416
0.000222
0.000274
0.001762
0.000245
0.000271
0.000382
0.000409
0.000057
0.000212
0.000418
0.000416
0.000505
0.000514
0.000541
0.001497
0.000414
0.000521
0.000655
0.000552
0.000766
0.000429
0.000616
0.000583
0.001885
0.000456
0.000391
0.000401
0.000318
0.000231
0.000295
0.000258
0.000269
0.000254
0.000284
0.000286
0.000292
0.000262
0.000284
0.001375
0.000056
0.000207
0.000227
0.000246
0.000240
0.000259
0.000250
0.000245
0.000238
0.000250
0.000250
0.000237
0.000247
0.000249
0.000269
0.000260
0.000270
0.001808
0.000275
0.000252
0.000234
0.000256
0.000268
0.000279
0.000264
0.000489
0.000376
0.000305
0.000243
0.000270
0.000267
0.000211
0.000056
0.000225
0.001352
0.000329
0.000261
0.000260
0.000243
0.000242
0.000234
0.000233
0.000247
0.000212
0.000244
0.000252
0.000497
0.000368
0.000281
0.000262
0.000259
0.001927
0.000230
0.000247
0.000260
0.000257
0.000265
0.000279
0.000284
0.000264
0.000254
0.000267
0.000320
0.000198
0.000056
0.000204
0.000241
0.000248
0.001440
0.000217
0.000254
0.000245
0.000251
0.000231
0.000268
0.000251
0.000250
0.000247
0.000256
0.000252
0.000264
0.000258
0.000273
0.000268
0.000249
0.000261
0.001772
0.000287
0.001750
0.000259
0.000242
0.000272
0.000271
0.000279
0.000264
0.000201
0.000056
0.000199
0.000233
0.001350
0.000223
0.000255
0.000240
0.000268
0.000253
0.000244
0.000251
0.000248
0.000247
0.000260
0.000260
0.000259
0.000264
0.000260
0.000284
0.000295
0.000229
0.001886
0.000230
0.001830
0.000243
0.000262
0.000272
0.000228
0.000253
0.000253
0.000272
0.000193
0.000056
0.001432
0.000229
0.000231
0.000251
0.000233
0.000241
0.000365
0.000269
0.000251
0.000255
0.000254
0.000257
0.000236
0.000391
0.000360
0.000305
0.000243
0.000267
0.000257
0.000253
0.000268
0.000343
0.000221
0.000260
0.000267
0.000281
0.000270
0.000349
0.000632
0.000361
0.000193
0.000056
0.000233
0.000245
0.000263
0.000298
0.000376
0.000255
0.001658
0.000340
0.000274
0.000275
0.000260
0.000268
0.000283
0.000258
0.000279
0.000307
0.000321
0.000617
0.000345
0.000283
0.000291
0.000278
0.000254
0.000272
0.000334
0.000289
0.000229
0.000257
0.000252
0.000317
0.000454
0.000056
0.000226
0.000470
0.000274
0.000264
0.000247
0.000226
0.000226
0.000252
0.000260
0.000252
0.001520
0.000228
0.000220
0.000251
0.000246
0.000285
0.000261
0.000244
0.000271
0.000271
0.000277
0.000469
0.000453
0.000290
0.000274
0.000282
0.000265
0.000260
0.000235
0.000305
0.000169
0.000056
0.000198
0.000228
0.000329
0.000416
0.000361
0.000291
0.000219
0.000244
0.000252
0.000254
0.000231
0.000252
0.000280
0.000243
0.000240
0.000240
0.000469
0.001190
0.000230
0.000220
0.000269
0.000248
0.000348
0.000424
0.000261
0.000292
0.000594
0.000368
0.000391
0.000218
0.000171
0.000057
0.000221
0.000245
0.000264
0.000262
0.000260
0.000244
0.000351
0.000425
0.000419
0.000269
0.000367
0.000390
0.000402
0.000342
0.000255
0.000250
0.000236
0.000260
0.000378
0.001535
0.000243
0.000194
0.000273
0.000274
0.000232
0.000236
0.000269
0.000312
0.000417
0.000437
0.000261
0.000056
0.000194
0.000239
0.000250
0.000239
0.000247
0.000251
0.000232
0.000261
0.000311
0.000377
0.000383
0.000412
0.000222
0.000239
0.000250
0.000271
0.000233
0.000266
0.000267
0.000244
0.000437
0.000249
0.000375
0.000504
0.000240
0.000254
0.000268
0.000273
0.000252
0.000339
0.000158
0.000055
0.000306
0.000326
0.000282
0.000410
0.000492
0.000285
0.000260
0.000243
0.000247
0.000270
0.000257
0.000258
0.000238
0.000254
0.000245
0.000223
0.000288
0.000410
0.000391
0.000385
0.000222
0.000277
0.000247
0.000246
0.000266
0.000273
0.000271
0.000266
0.000276
0.000262
0.000283
0.000056
0.000288
0.000356
0.000228
0.000246
0.000246
0.000245
0.000255
0.000242
0.000269
0.000257
0.000255
0.000233
0.000315
0.000443
0.000453
0.000307
0.000238
0.000241
0.000255
0.000264
0.000256
0.000268
0.000254
0.000268
0.000293
0.000280
0.000504
0.000513
0.000417
0.000246
0.000169
0.000055
0.000367
0.000198
0.000233
0.000243
0.000252
0.000245
0.000243
0.000246
0.000259
0.000259
0.000220
0.000247
0.000270
0.000225
0.000245
0.000267
0.000275
0.000237
0.000278
0.000259
0.000262
0.000258
0.000262
0.000258
0.000272
0.000238
0.000268
0.000291
0.000245
0.000276
0.000191
0.000055
0.000199
0.000230
0.000252
0.000249
0.000234
0.000255
0.000259
0.000244
0.000257
0.000275
0.000229
0.000228
0.000269
0.000397
0.000254
0.000292
0.000241
0.000270
0.000257
0.000275
0.000276
0.000232
0.000252
0.000249
0.000275
0.000271
0.000248
0.000254
0.000272
0.000261
0.000204
0.000056
0.000216
0.000331
0.000366
0.000282
0.000295
0.000263
0.000264
0.000258
0.000225
0.000245
0.000244
0.000267
0.000250
0.000257
0.000238
0.000258
0.000260
0.000271
0.000242
0.000262
0.000278
0.000268
0.000278
0.000252
0.000271
0.000255
0.000251
0.000276
0.000294
0.000234
0.000196
0.000056
0.000204
0.000233
0.000258
0.000266
0.000479
0.000214
0.000209
0.000253
0.000296
0.000451
0.000473
0.000288
0.000221
0.000249
0.000268
0.000269
0.000237
0.000270
0.000258
0.000266
0.000284
0.000246
0.000257
0.000269
0.000574
0.000481
0.000250
0.000309
0.000260
0.000263
0.000183
0.000055
0.000213
0.000230
0.000243
0.000256
0.000438
0.000558
0.000294
0.000370
0.000208
0.000249
0.000255
0.000254
0.000252
0.000249
0.000255
0.000267
0.000257
0.000261
0.000668
0.000343
0.000301
0.000245
0.000254
0.000284
0.000281
0.000259
0.000261
0.000271
0.000247
0.000342
0.000316
0.000055
0.000270
0.000232
0.000239
0.000239
0.000253
0.000257
0.000225
0.000251
0.000244
0.000260
0.000246
0.000255
0.000239
0.000408
0.000608
0.000332
0.000246
0.000262
0.000262
0.000243
0.000262
0.000277
0.000486
0.000223
0.000264
0.000694
0.000316
0.000491
0.000244
0.000260
0.000177
0.000056
0.000202
0.000229
0.000246
0.000242
0.000253
0.000257
0.000347
0.000452
0.000549
0.000402
0.000223
0.000260
0.000278
0.000266
0.000261
0.000247
0.000237
0.000251
0.000282
0.000281
0.000451
0.000617
0.000364
0.000269
0.000361
0.000370
0.000484
0.000245
0.000268
0.000368
0.000390
0.000080
0.000252
0.000228
0.000433
0.000220
0.000235
0.000255
0.000281
0.000241
0.000229
0.000240
0.000292
0.000379
0.000341
0.000368
0.000231
0.000243
0.000269
0.000245
0.000263
0.000281
0.000268
0.000257
0.000246
0.000274
0.000300
0.000495
0.000479
0.000248
0.000254
0.000269
0.000198
0.000055
0.000229
0.000253
0.000233
0.000243
0.000242
0.000267
0.000341
0.000432
0.000418
0.000293
0.000361
0.000222
0.000254
0.000263
0.000256
0.000236
0.000255
0.000257
0.000273
0.000398
0.000490
0.000338
0.000476
0.000286
0.000427
0.000386
0.000377
0.000247
0.000243
0.000294
0.000357
0.000055
0.000254
0.000268
0.000233
0.000248
0.000255
0.000255
0.000254
0.000246
0.000260
0.000258
0.000237
0.000396
0.000399
0.000378
0.000378
0.000222
0.000263
0.000271
0.000260
0.000235
0.000255
0.000251
0.000269
0.000274
0.000277
0.000346
0.000512
0.000440
0.000233
0.000284
0.000188
0.000055
0.000214
0.000246
0.000265
0.000243
0.000258
0.000338
0.000508
0.000515
0.000305
0.000693
0.000271
0.000210
0.000242
0.000260
0.000247
0.000267
0.000298
0.000253
0.000471
0.000478
0.001460
0.000303
0.000258
0.000260
0.000296
0.000255
0.000417
0.000386
0.000375
0.000325
0.000162
0.000070
0.000201
0.000231
0.000241
0.000246
0.000239
0.000257
0.000279
0.000262
0.000242
0.000332
0.000350
0.000362
0.000268
0.000358
0.000366
0.000340
0.000249
0.000250
0.000266
0.000258
0.000247
0.000249
0.000284
0.000237
0.000323
0.000431
0.000437
0.000308
0.000236
0.000274
0.000180
0.000057
0.000226
0.000249
0.000259
0.000250
0.000243
0.000238
0.000466
0.000217
0.000233
0.000254
0.000269
0.000233
0.000253
0.000254
0.000251
0.000271
0.000259
0.000266
0.000277
0.000253
0.000275
0.000270
0.000295
0.000245
0.000266
0.000301
0.000247
0.000264
0.000262
0.000273
0.000174
0.000056
0.000232
0.000244
0.000280
0.000442
0.000377
0.000251
0.000236
0.000245
0.000257
0.000252
0.000247
0.000254
0.000264
0.000265
0.000236
0.000250
0.000239
0.000264
0.000293
0.000430
0.000370
0.000368
0.000235
0.000271
0.000257
0.000254
0.000269
0.000249
0.000276
0.000298
0.000173
0.000057
0.000384
0.000444
0.000374
0.000208
0.000253
0.000251
0.000406
0.000220
0.000236
0.000257
0.000253
0.000340
0.000309
0.000431
0.001873
0.000249
0.000244
0.000247
0.000280
0.000273
0.000275
0.000471
0.000707
0.000204
0.000231
0.000272
0.000266
0.000430
0.000275
0.000279
0.000169
0.000057
0.000259
0.000340
0.000371
0.000298
0.000494
0.000198
0.000243
0.000262
0.000246
0.000236
0.000258
0.000248
0.000260
0.000330
0.000474
0.000404
0.000220
0.000242
0.000259
0.000267
0.000263
0.000314
0.000226
0.000286
0.000277
0.000444
0.000555
0.000370
0.000450
0.000229
0.000203
0.000055
0.000220
0.000209
0.000257
0.000227
0.000252
0.000254
0.000264
0.000271
0.000346
0.000450
0.000361
0.000355
0.000208
0.000257
0.000289
0.000254
0.000310
0.000234
0.000274
0.000272
0.000241
0.000313
0.000486
0.000361
0.000273
0.000251
0.000268
0.000449
0.000400
0.000316
0.000167
0.000057
0.000207
0.000241
0.000349
0.000404
0.000386
0.000206
0.000235
0.000257
0.000265
0.000266
0.000244
0.000257
0.000228
0.000259
0.000262
0.000280
0.000407
0.000366
0.000279
0.000342
0.000498
0.000228
0.000299
0.000252
0.000310
0.000280
0.000260
0.000269
0.000464
0.000509
0.000203
0.000056
0.000206
0.000230
0.000250
0.000247
0.000261
0.000464
0.000209
0.000257
0.000265
0.000299
0.000508
0.000607
0.000211
0.000235
0.000243
0.000256
0.000253
0.000246
0.000262
0.000248
0.000263
0.000262
0.000373
0.000450
0.000324
0.000408
0.000304
0.000334
0.000276
0.000247
0.000180
0.000057
0.000204
0.000235
0.000263
0.000482
0.000321
0.000293
0.000270
0.000214
0.000247
0.000254
0.000257
0.000249
0.000253
0.000260
0.000256
0.000247
0.000255
0.000250
0.000259
0.000412
0.000424
0.000463
0.000225
0.000243
0.000280
0.000275
0.000264
0.000254
0.000261
0.000269
0.000186
0.000056
0.000267
0.000405
0.000476
0.000211
0.000211
0.000258
0.000330
0.000453
0.000275
0.000218
0.000244
0.000276
0.000275
0.000436
0.000415
0.000317
0.000210
0.000237
0.000259
0.000265
0.000270
0.000262
0.000261
0.000276
0.000259
0.000302
0.000378
0.000455
0.000283
0.000252
0.000179
0.000056
0.000200
0.000233
0.000248
0.000255
0.000248
0.000268
0.000229
0.000259
0.000246
0.000246
0.000268
0.000241
0.000261
0.001452
0.000231
0.000261
0.000257
0.000240
0.000282
0.000276
0.000263
0.000240
0.000274
0.000252
0.000271
0.000282
0.000253
0.000265
0.000265
0.000270
0.000205
0.000056
0.000204
0.000235
0.000249
0.000254
0.000230
0.000260
0.000247
0.000257
0.000230
0.000250
0.000250
0.000261
0.000259
0.000250
0.000267
0.000250
0.000240
0.000261
0.000275
0.000260
0.000245
0.000268
0.000242
0.000255
0.001301
0.000261
0.000637
0.000328
0.000380
0.000246
0.000189
0.000057
0.000192
0.000241
0.000240
0.000250
0.000419
0.000221
0.000249
0.000263
0.000233
0.000319
0.000490
0.000345
0.000236
0.000232
0.000264
0.000257
0.000257
0.000266
0.000242
0.000261
0.000259
0.000269
0.000265
0.000374
0.000556
0.000437
0.000224
0.000263
0.001367
0.000251
0.000176
0.000056
0.000358
0.000411
0.000328
0.000249
0.000243
0.000223
0.000234
0.000248
0.000258
0.000255
0.000250
0.000260
0.000270
0.000349
0.000480
0.000376
0.000339
0.000224
0.000255
0.000257
0.000263
0.000261
0.000272
0.000262
0.000271
0.000266
0.000324
0.000548
0.000359
0.000395
0.000146
0.000055
0.000214
0.000232
0.001270
0.000417
0.000270
0.000484
0.000392
0.000477
0.000296
0.000327
0.000221
0.000221
0.000265
0.000250
0.000260
0.000257
0.000379
0.000474
0.000424
0.000324
0.000256
0.000241
0.000262
0.000498
0.000238
0.000269
0.000252
0.000284
0.000331
0.000514
0.000305
0.000056
0.000397
0.000333
0.000198
0.000223
0.001544
0.000554
0.000228
0.000249
0.000248
0.000246
0.000233
0.000239
0.000241
0.000274
0.000252
0.000258
0.000240
0.000329
0.000331
0.000382
0.000498
0.000226
0.000247
0.000256
0.000261
0.000293
0.000246
0.000243
0.000264
0.000278
0.000196
0.000056
0.000406
0.000297
0.000227
0.000234
0.000245
0.000244
0.000254
0.000244
0.000227
0.000237
0.001419
0.000452
0.000276
0.000233
0.000247
0.000251
0.000277
0.000261
0.000251
0.000259
0.000271
0.000253
0.000262
0.000407
0.000366
0.000512
0.000231
0.000267
0.000282
0.000286
0.000168
0.000056
0.000214
0.000420
0.000218
0.000253
0.000329
0.000482
0.000332
0.000317
0.000464
0.000210
0.000233
0.000249
0.000257
0.000266
0.000258
0.001429
0.000344
0.000291
0.000233
0.000279
0.000282
0.000245
0.000254
0.000257
0.000259
0.000271
0.000485
0.000417
0.000278
0.000281
0.000162
0.000056
0.000192
0.000234
0.000251
0.000236
0.000225
0.000269
0.000241
0.000244
0.000325
0.000367
0.000385
0.000296
0.000262
0.000241
0.000241
0.000275
0.000275
0.000257
0.000273
0.000230
0.000256
0.000337
0.001240
0.000288
0.000224
0.000238
0.000258
0.000265
0.000263
0.000258
0.000180
0.000055
0.000220
0.000364
0.000344
0.000368
0.000244
0.000240
0.000263
0.000264
0.000250
0.000249
0.000253
0.000274
0.000242
0.000253
0.000258
0.000257
0.000265
0.000273
0.000260
0.000256
0.000249
0.000271
0.000269
0.000281
0.000286
0.000266
0.000268
0.000250
0.000268
0.000439
0.001369
0.000055
0.000233
0.000221
0.000236
0.000246
0.000248
0.000263
0.000247
0.000223
0.000250
0.000250
0.000275
0.000251
0.000255
0.000242
0.000250
0.000246
0.001731
0.000254
0.000247
0.000259
0.000247
0.000263
0.000269
0.000256
0.000278
0.000254
0.000263
0.000283
0.000271
0.000258
0.000217
0.000056
0.000346
0.000329
0.001247
0.000221
0.000241
0.000235
0.000254
0.000250
0.000263
0.000255
0.000232
0.000339
0.000410
0.000429
0.000287
0.000224
0.000249
0.000257
0.000274
0.000246
0.000244
0.000270
0.000266
0.000284
0.000259
0.000411
0.000375
0.000345
0.000315
0.000239
0.000183
0.000055
0.000223
0.000234
0.000243
0.000251
0.000248
0.000223
0.000248
0.000239
0.000446
0.001325
0.000265
0.000210
0.000251
0.000266
0.000256
0.000266
0.000258
0.000255
0.000314
0.000403
0.000400
0.000259
0.000242
0.000242
0.000279
0.000274
0.000263
0.000301
0.000270
0.000277
0.000188
0.000055
0.000243
0.000428
0.000386
0.000223
0.000230
0.000238
0.000244
0.000278
0.000270
0.000244
0.000231
0.000250
0.000454
0.000548
0.000422
0.001457
0.000252
0.000259
0.000339
0.000342
0.000486
0.000433
0.000446
0.000404
0.000231
0.000264
0.000268
0.000275
0.000261
0.000276
0.000184
0.000055
0.000223
0.000266
0.000469
0.000404
0.000401
0.000234
0.000247
0.000233
0.000248
0.000261
0.000248
0.000265
0.000266
0.000241
0.000271
0.000316
0.000368
0.000382
0.000387
0.001320
0.000286
0.000237
0.000256
0.000261
0.000644
0.000287
0.000350
0.000248
0.000278
0.000271
0.000188
0.000056
0.000206
0.000238
0.000247
0.000245
0.000246
0.000279
0.000471
0.000385
0.000346
0.000222
0.000244
0.000264
0.000269
0.000255
0.000262
0.000262
0.000264
0.000265
0.000271
0.000262
0.000461
0.000445
0.000306
0.001355
0.000410
0.000238
0.000272
0.000548
0.000338
0.000325
0.000321
0.000055
0.000206
0.000233
0.000249
0.000247
0.000248
0.000255
0.001693
0.000222
0.000238
0.000224
0.000260
0.000246
0.000258
0.000327
0.000329
0.000284
0.000290
0.000319
0.000465
0.000405
0.000318
0.000280
0.000220
0.001431
0.000332
0.000345
0.000402
0.000465
0.000336
0.000294
0.000160
0.000055
0.000204
0.000243
0.000257
0.000257
0.000243
0.000256
0.001710
0.000230
0.000250
0.000261
0.000331
0.000412
0.001472
0.000313
0.000402
0.000242
0.000261
0.000231
0.000271
0.000267
0.001545
0.000583
0.000369
0.000296
0.000245
0.000244
0.000260
0.000284
0.000245
0.000248
0.000192
0.000056
0.000202
0.000242
0.000268
0.000245
0.000263
0.000273
0.000282
0.000254
0.000253
0.000251
0.000254
0.000247
0.000262
0.000265
0.000257
0.001493
0.000285
0.000233
0.000264
0.000277
0.000271
0.000275
0.000418
0.001251
0.000299
0.000220
0.000278
0.000258
0.000389
0.000249
0.000199
0.000056
0.000212
0.000248
0.000225
0.000239
0.000239
0.000231
0.000232
0.001700
0.000254
0.000225
0.000251
0.000365
0.000231
0.000225
0.000253
0.001388
0.000231
0.000260
0.000275
0.000240
0.000260
0.000349
0.000279
0.001305
0.000277
0.000264
0.000243
0.000273
0.001380
0.000280
0.000198
0.000056
0.000225
0.000371
0.000204
0.000244
0.000248
0.000241
0.000269
0.000263
0.000269
0.000247
0.000267
0.000260
0.000253
0.000244
0.000305
0.001497
0.000253
0.000271
0.000259
0.000238
0.000288
0.000257
0.000252
0.001516
0.000345
0.000232
0.000263
0.001275
0.000273
0.000249
0.000199
0.000055
0.000246
0.000363
0.000343
0.000194
0.000233
0.000244
0.000258
0.000256
0.000267
0.000277
0.000248
0.000237
0.000262
0.000242
0.000435
0.001233
0.000230
0.000248
0.000270
0.000275
0.000230
0.000247
0.000247
0.000328
0.001285
0.000293
0.000207
0.000249
0.000257
0.001339
0.000308
0.000056
0.000327
0.000219
0.000229
0.000231
0.000256
0.000243
0.000243
0.000244
0.000277
0.000251
0.000241
0.000260
0.000243
0.000309
0.000428
0.001483
0.000207
0.000256
0.000297
0.000528
0.000268
0.000374
0.001364
0.000314
0.000226
0.000268
0.000253
0.001309
0.000304
0.000509
0.000311
0.000056
0.000227
0.000249
0.000259
0.000250
0.000257
0.000248
0.000277
0.000244
0.000262
0.000264
0.000328
0.000506
0.001287
0.000243
0.000254
0.000265
0.000286
0.000219
0.000245
0.000246
0.000335
0.001241
0.000259
0.000251
0.000250
0.000264
0.001459
0.000446
0.000500
0.000222
0.000182
0.000055
0.000229
0.000208
0.000245
0.000238
0.000253
0.000267
0.000235
0.000263
0.000425
0.000494
0.000271
0.001484
0.000205
0.000248
0.000268
0.000257
0.000270
0.000281
0.001681
0.000268
0.000400
0.000326
0.001320
0.000335
0.000287
0.000328
0.000249
0.000268
0.000259
0.000268
0.000201
0.000056
0.000190
0.000238
0.000330
0.000248
0.000310
0.000532
0.000296
0.000297
0.001465
0.000229
0.000387
0.000264
0.000211
0.000320
0.000419
0.001284
0.000272
0.000260
0.000222
0.000262
0.001514
0.000419
0.000245
0.000282
0.000259
0.000258
0.000469
0.000326
0.000216
0.000246
0.000272
0.000056
0.000281
0.000379
0.000302
0.000255
0.000221
0.001522
0.000217
0.000256
0.000260
0.000268
0.000272
0.000249
0.000311
0.001463
0.000267
0.000221
0.000436
0.001191
0.000336
0.000473
0.000380
0.000223
0.000248
0.000260
0.000286
0.000224
0.000458
0.000221
0.000271
0.000284
0.000189
0.000056
0.000199
0.000225
0.000446
0.000282
0.001317
0.000275
0.000313
0.000229
0.000245
0.000247
0.000253
0.000290
0.001521
0.000254
0.000238
0.000240
0.001383
0.000261
0.000443
0.000389
0.000430
0.000230
0.000269
0.000235
0.000265
0.000283
0.000269
0.000256
0.000270
0.000251
0.000187
0.000056
0.000214
0.000381
0.001479
0.000210
0.000272
0.000275
0.000244
0.000243
0.000283
0.000444
0.001312
0.000215
0.000260
0.000255
0.000266
0.001405
0.000517
0.000352
0.000327
0.000405
0.000308
0.000223
0.000272
0.000253
0.000271
0.000289
0.000273
0.000372
0.000398
0.000397
0.001381
0.000056
0.000209
0.000251
0.000245
0.000224
0.000248
0.000442
0.000446
0.001299
0.000247
0.000240
0.000248
0.001467
0.000340
0.000393
0.000224
0.000399
0.000259
0.000231
0.000271
0.000272
0.000244
0.000277
0.000279
0.000250
0.000260
0.000292
0.000545
0.000370
0.001493
0.000228
0.000181
0.000056
0.000205
0.000254
0.000380
0.000537
0.001215
0.000287
0.000246
0.000255
0.000246
0.000252
0.000251
0.000258
0.000383
0.000470
0.000351
0.000233
0.000255
0.000274
0.000245
0.000278
0.000247
0.000277
0.000252
0.000272
0.000276
0.000479
0.000389
0.000338
0.000322
0.001396
0.000172
0.000057
0.000224
0.000241
0.000392
0.000356
0.000315
0.000314
0.000315
0.000329
0.000271
0.000263
0.000253
0.000269
0.000250
0.000303
0.000237
0.000332
0.000492
0.000339
0.000294
0.000382
0.000275
0.000411
0.000225
0.000272
0.000242
0.000267
0.000250
0.000290
0.000485
0.000383
0.000277
0.000056
0.000215
0.001400
0.000240
0.000339
0.000467
0.000359
0.000466
0.000222
0.000218
0.000240
0.000265
0.000247
0.000260
0.000270
0.000271
0.000247
0.000265
0.001235
0.000381
0.000251
0.000260
0.000272
0.000272
0.000282
0.000268
0.000251
0.000279
0.000250
0.000373
0.000443
0.000181
0.000056
0.000211
0.000256
0.000218
0.001492
0.000327
0.000245
0.000226
0.000253
0.000228
0.000240
0.000259
0.000273
0.000246
0.000253
0.000269
0.000251
0.000254
0.000283
0.000254
0.000247
0.001434
0.000231
0.000247
0.000261
0.000267
0.000250
0.000266
0.000262
0.000278
0.000482
0.000348
0.000055
0.000200
0.000240
0.000396
0.000277
0.000251
0.000250
0.001532
0.000357
0.000288
0.000219
0.000256
0.000321
0.000331
0.000230
0.000230
0.000245
0.000250
0.000256
0.000263
0.000255
0.000482
0.000514
0.001112
0.000272
0.000234
0.000266
0.000267
0.000258
0.000273
0.000264
0.000396
0.000056
0.000275
0.000347
0.000198
0.000246
0.000249
0.000240
0.000243
0.000232
0.000291
0.001565
0.000462
0.000233
0.000240
0.000250
0.000264
0.000239
0.000263
0.000271
0.000259
0.000311
0.000306
0.000499
0.000439
0.001363
0.000234
0.000263
0.000273
0.000268
0.000264
0.000277
0.000563
0.000057
0.000236
0.000235
0.000235
0.000245
0.000218
0.000244
0.000260
0.000253
0.000265
0.001564
0.000363
0.000255
0.000260
0.000264
0.000458
0.000266
0.000524
0.000374
0.000304
0.000339
0.000440
0.000465
0.001256
0.000257
0.000234
0.000261
0.001778
0.000392
0.000598
0.000325
0.000142
0.000057
0.000197
0.000224
0.000241
0.000235
0.000259
0.000239
0.000262
0.000657
0.000310
0.000430
0.000294
0.000214
0.000246
0.000261
0.000263
0.000267
0.000242
0.000255
0.000258
0.000284
0.000256
0.000441
0.001318
0.000241
0.000244
0.000272
0.001894
0.000386
0.000374
0.000346
0.000165
0.000057
0.000212
0.000243
0.000250
0.001565
0.000428
0.000210
0.000236
0.000273
0.000242
0.000292
0.000380
0.000369
0.000356
0.000270
0.000263
0.000546
0.000400
0.001200
0.000269
0.000238
0.000247
0.000270
0.000266
0.000433
0.000659
0.000394
0.000252
0.000261
0.000270
0.000281
0.000191
0.000056
0.000197
0.000231
0.000244
0.001529
0.000254
0.000238
0.000244
0.000252
0.000245
0.000251
0.000254
0.000271
0.000271
0.000268
0.000241
0.000435
0.000431
0.000295
0.001396
0.000232
0.000264
0.000260
0.000252
0.000285
0.000379
0.000510
0.000395
0.000285
0.000282
0.000219
0.000444
0.000056
0.000210
0.000241
0.000248
0.001527
0.000317
0.000219
0.000267
0.000246
0.000255
0.000254
0.000257
0.000249
0.000262
0.000283
0.000386
0.000478
0.001404
0.000749
0.000262
0.000329
0.000255
0.000239
0.000241
0.000276
0.001683
0.000802
0.000232
0.000265
0.000273
0.000287
0.000180
0.000055
0.000211
0.000255
0.000233
0.000243
0.000258
0.000239
0.000246
0.000255
0.000244
0.000231
0.000289
0.000286
0.000245
0.000252
0.000259
0.000251
0.000268
0.001606
0.000694
0.000352
0.000363
0.000215
0.000242
0.000284
0.000263
0.000260
0.000279
0.000251
0.001392
0.000394
0.000364
0.000056
0.000186
0.000241
0.000243
0.000245
0.000266
0.000230
0.000258
0.000248
0.000253
0.000264
0.000270
0.000476
0.000387
0.000343
0.000208
0.000243
0.000262
0.001400
0.000681
0.000508
0.000330
0.000259
0.000221
0.000250
0.000277
0.000255
0.000253
0.000268
0.001484
0.000436
0.000192
0.000055
0.000216
0.000227
0.000246
0.000246
0.000246
0.000252
0.000233
0.000253
0.000270
0.000257
0.000365
0.000386
0.000331
0.000215
0.000247
0.000242
0.000268
0.000255
0.001596
0.000584
0.000535
0.000267
0.000226
0.000266
0.000260
0.000260
0.000273
0.000287
0.000259
0.001432
0.000251
0.000056
0.000210
0.000222
0.000231
0.000252
0.000255
0.000262
0.000253
0.000294
0.000367
0.000437
0.000385
0.000331
0.000395
0.000216
0.000247
0.000249
0.000271
0.000261
0.000281
0.001904
0.000338
0.000234
0.000442
0.000257
0.000241
0.000260
0.000285
0.000247
0.000267
0.000278
0.000507
0.000057
0.000288
0.000229
0.000236
0.000237
0.000273
0.000229
0.000225
0.000241
0.000266
0.000251
0.000248
0.000236
0.000325
0.000385
0.000481
0.000447
0.000233
0.000255
0.000253
0.000254
0.000260
0.000287
0.001471
0.001050
0.000221
0.000246
0.000269
0.000271
0.000271
0.000254
0.000195
0.000057
0.000186
0.001345
0.000294
0.000213
0.000230
0.000255
0.000249
0.000245
0.000238
0.000248
0.000258
0.000260
0.000240
0.000339
0.000419
0.000448
0.000282
0.000245
0.000262
0.000269
0.000269
0.000224
0.000262
0.000268
0.001328
0.000682
0.000307
0.000382
0.000430
0.000355
0.000290
0.000057
0.000188
0.000233
0.001427
0.000259
0.000207
0.000253
0.000229
0.000255
0.000267
0.000251
0.000246
0.000248
0.000278
0.000327
0.000578
0.000305
0.000240
0.000267
0.000324
0.000216
0.000255
0.000269
0.000235
0.000275
0.000307
0.001501
0.000734
0.000301
0.000277
0.000275
0.000190
0.000056
0.000213
0.000285
0.000439
0.000363
0.001262
0.000235
0.000241
0.000233
0.000234
0.000245
0.000252
0.000256
0.000230
0.000239
0.000260
0.000249
0.000271
0.000233
0.000256
0.000256
0.000266
0.000269
0.000298
0.000341
0.000214
0.000266
0.000264
0.001471
0.000253
0.000237
0.000175
0.000057
0.000194
0.000231
0.000254
0.000305
0.000359
0.000339
0.000385
0.000272
0.001576
0.000216
0.000278
0.000539
0.000351
0.000223
0.000432
0.000235
0.000235
0.000261
0.000279
0.000267
0.000278
0.000267
0.000254
0.000270
0.000271
0.000415
0.000376
0.000355
0.001562
0.000218
0.000187
0.000055
0.000236
0.000250
0.000239
0.000244
0.000245
0.000244
0.000262
0.000289
0.000421
0.002046
0.000233
0.000245
0.000253
0.000260
0.000260
0.000247
0.000273
0.000258
0.000257
0.000438
0.000362
0.000458
0.001457
0.000252
0.000520
0.000235
0.001773
0.000240
0.000253
0.001534
0.000157
0.000056
0.000336
0.000398
0.000481
0.000249
0.000265
0.000218
0.000263
0.000268
0.000262
0.000230
0.000251
0.000380
0.000417
0.000303
0.000459
0.000211
0.000234
0.001565
0.000244
0.000565
0.001880
0.000293
0.000236
0.001545
0.002024
0.000740
0.000273
0.000253
0.000291
0.000478
0.000308
0.000056
0.000213
0.000240
0.000249
0.000247
0.001426
0.001721
0.001088
0.000207
0.000232
0.001581
0.001981
0.000209
0.000234
0.000423
0.000318
0.000380
0.000346
0.000512
0.000208
0.000248
0.000252
0.000249
0.000282
0.001593
0.001198
0.001438
0.000263
0.000298
0.000257
0.000315
0.000351
0.000056
0.000200
0.000215
0.000242
0.000243
0.000227
0.000245
0.000247
0.000254
0.000260
0.000248
0.000238
0.000309
0.000606
0.000286
0.000292
0.000270
0.000242
0.000269
0.000266
0.000269
0.000256
0.000275
0.001516
0.000466
0.002117
0.000223
0.000273
0.000294
0.000486
0.000380
0.000187
0.000055
0.000240
0.000472
0.000335
0.000314
0.000198
0.000225
0.000256
0.000244
0.000236
0.000248
0.000244
0.000265
0.000261
0.001605
0.001356
0.001277
0.000238
0.000223
0.000253
0.000267
0.000284
0.000278
0.000240
0.000255
0.002208
0.000245
0.000255
0.000291
0.000325
0.000306
0.000221
0.000056
0.000234
0.000379
0.000548
0.000301
0.000259
0.000211
0.000249
0.000264
0.001901
0.001469
0.000182
0.000344
0.000375
0.000408
0.000252
0.000225
0.000252
0.000269
0.000267
0.000259
0.000264
0.000264
0.000466
0.000241
0.000265
0.000275
0.000252
0.000272
0.000284
0.000246
0.000202
0.000056
0.000199
0.000246
0.000251
0.000238
0.000250
0.000271
0.001555
0.001405
0.001356
0.000222
0.000222
0.000239
0.000267
0.000261
0.000249
0.000251
0.000246
0.002108
0.000258
0.000223
0.000267
0.000262
0.000258
0.000267
0.000267
0.000258
0.000269
0.000251
0.000277
0.000253
0.000176
0.000056
0.000207
0.002688
0.001395
0.000214
0.000307
0.000291
0.000229
0.000273
0.000256
0.000243
0.000250
0.000251
0.000235
0.000246
0.000273
0.000255
0.000266
0.000264
0.000254
0.000270
0.000264
0.000290
0.000269
0.000263
0.000247
0.000244
0.000269
0.000274
0.000254
0.000271
0.000361
0.000056
0.001534
0.000260
0.001238
0.000223
0.000225
0.000240
0.000262
0.000266
0.000227
0.000269
0.000405
0.000356
0.000356
0.000209
0.000232
0.002204
0.000210
0.000232
0.000328
0.000444
0.000436
0.000241
0.000225
0.000251
0.000268
0.000247
0.000266
0.000277
0.000285
0.001610
0.001253
0.000057
0.000176
0.000233
0.000303
0.000372
0.000331
0.000323
0.000243
0.000202
0.000253
0.000257
0.000265
0.000248
0.000225
0.000259
0.000258
0.000242
0.000303
0.000687
0.000305
0.000255
0.000218
0.000280
0.000281
0.000246
0.000253
0.000246
0.000262
0.000296
0.000225
0.000323
0.000371
0.000055
0.001117
0.000366
0.000231
0.000432
0.000294
0.000230
0.000227
0.000243
0.000241
0.002333
0.000399
0.000317
0.000227
0.000377
0.000282
0.000262
0.000256
0.000264
0.000262
0.000231
0.000248
0.000305
0.000558
0.000482
0.001878
0.001418
0.000418
0.000521
0.000229
0.000280
0.000188
0.000057
0.000346
0.000240
0.000248
0.000246
0.000247
0.000217
0.000257
0.000261
0.000255
0.000247
0.000260
0.000223
0.000246
0.000260
0.000420
0.000473
0.001850
0.001326
0.000491
0.000382
0.000458
0.000237
0.000244
0.000267
0.002189
0.000498
0.000384
0.000233
0.000273
0.000299
0.000180
0.000056
0.000195
0.000238
0.000254
0.000242
0.000244
0.000377
0.000377
0.000299
0.000306
0.000247
0.000243
0.000252
0.000255
0.002188
0.000285
0.000392
0.000217
0.000252
0.000267
0.000259
0.000247
0.002472
0.000335
0.000220
0.000254
0.000254
0.000260
0.000265
0.000286
0.000276
0.000193
0.000056
0.000200
0.000300
0.000599
0.000346
0.000268
0.000232
0.000216
0.000256
0.000275
0.000236
0.001983
0.000366
0.000266
0.000297
0.000223
0.000264
0.000270
0.000244
0.002206
0.000451
0.000223
0.000269
0.000263
0.000260
0.000254
0.000256
0.000278
0.000258
0.000272
0.000262
0.000172
0.000056
0.000213
0.000240
0.000248
0.000219
0.000243
0.000258
0.000237
0.000243
0.000235
0.002176
0.000237
0.000280
0.000223
0.000418
0.000235
0.000255
0.000269
0.000290
0.000238
0.000264
0.001966
0.000298
0.000371
0.000387
0.000382
0.000388
0.000309
0.000244
0.000253
0.000264
0.000216
0.000056
0.000199
0.000241
0.000242
0.000247
0.000246
0.000327
0.000227
0.002304
0.000232
0.000240
0.000261
0.000256
0.000237
0.000250
0.000302
0.002125
0.000592
0.000218
0.000258
0.000248
0.000277
0.000244
0.000283
0.000271
0.000265
0.000253
0.000286
0.000249
0.000284
0.000250
0.000188
0.000056
0.001823
0.001455
0.000191
0.000226
0.000244
0.000251
0.000252
0.000308
0.000365
0.000341
0.002182
0.000256
0.000242
0.000265
0.000284
0.000528
0.000384
0.000287
0.000226
0.000250
0.000247
0.000272
0.000265
0.000219
0.000256
0.000274
0.000269
0.000265
0.000281
0.000686
0.000327
0.000055
0.000202
0.000249
0.000263
0.000251
0.000272
0.000228
0.000256
0.000244
0.001491
0.002104
0.000582
0.000290
0.000392
0.000691
0.000350
0.000245
0.000252
0.000248
0.000268
0.000254
0.000261
0.000239
0.000253
0.000273
0.001824
0.001460
0.000287
0.000323
0.000232
0.000261
0.000506
0.000055
0.001922
0.000224
0.000234
0.000223
0.000307
0.000448
0.000431
0.000224
0.000291
0.000219
0.000239
0.000249
0.000260
0.000256
0.000278
0.000241
0.000255
0.000266
0.001834
0.000245
0.000253
0.000240
0.000275
0.000281
0.000269
0.000256
0.001500
0.000293
0.000246
0.000263
0.000167
0.000056
0.000210
0.000225
0.000250
0.000253
0.000243
0.000234
0.000395
0.000285
0.000330
0.000379
0.000218
0.000240
0.000263
0.000382
0.000386
0.000321
0.000213
0.000245
0.000263
0.000356
0.000467
0.000446
0.000252
0.000256
0.000255
0.000257
0.000252
0.000275
0.000273
0.000263
0.000207
0.000056
0.001439
0.000425
0.000225
0.001945
0.000257
0.000462
0.000469
0.000255
0.000227
0.000250
0.000267
0.000239
0.000250
0.000247
0.000265
0.000258
0.000465
0.000310
0.000405
0.000412
0.000277
0.000234
0.000255
0.000268
0.000273
0.000272
0.000260
0.000268
0.000373
0.000395
0.001427
0.000056
0.000198
0.000218
0.002079
0.000323
0.000285
0.000259
0.000257
0.000251
0.000262
0.000255
0.000216
0.000259
0.000255
0.000257
0.000277
0.000339
0.000725
0.001749
0.000228
0.000250
0.000258
0.000264
0.000416
0.000383
0.001593
0.000284
0.000366
0.001930
0.000279
0.000241
0.000183
0.000055
0.000216
0.000236
0.000234
0.000246
0.000223
0.000252
0.000252
0.000288
0.000336
0.000272
0.000380
0.000356
0.000337
0.000303
0.000239
0.000264
0.000263
0.000239
0.000267
0.000253
0.000306
0.000283
0.000264
0.000262
0.000273
0.001504
0.000292
0.000394
0.002065
0.000242
0.000158
0.000055
0.000226
0.000236
0.000237
0.000242
0.000482
0.000211
0.000259
0.000326
0.000384
0.000304
0.000302
0.000210
0.000265
0.000263
0.000271
0.000328
0.000413
0.000437
0.000259
0.000398
0.000661
0.000247
0.001652
0.000224
0.000260
0.002001
0.000312
0.000248
0.000239
0.000292
0.000185
0.000055
0.000198
0.000243
0.000228
0.000247
0.000245
0.000272
0.000262
0.000260
0.000249
0.000269
0.001798
0.000340
0.000367
0.000315
0.000429
0.000362
0.000334
0.001517
0.000246
0.000315
0.002055
0.000596
0.000255
0.000233
0.000267
0.000265
0.000504
0.000231
0.000245
0.000288
0.000190
0.000058
0.000295
0.000373
0.000359
0.000290
0.000212
0.000238
0.000257
0.000253
0.000269
0.000294
0.000225
0.000255
0.000251
0.000262
0.000375
0.001487
0.000318
0.000209
0.000279
0.001940
0.000362
0.000261
0.000248
0.000280
0.000229
0.000279
0.000274
0.000258
0.000246
0.000270
0.000196
0.000056
0.000238
0.000440
0.002023
0.000258
0.000253
0.000216
0.000241
0.000382
0.000326
0.000469
0.001310
0.000432
0.000297
0.002079
0.000199
0.000249
0.000269
0.000276
0.000254
0.000243
0.000281
0.000299
0.000256
0.000367
0.000465
0.000354
0.000380
0.002186
0.000493
0.000534
0.000339
0.000056
0.000201
0.000235
0.000248
0.001965
0.000233
0.000222
0.000244
0.000241
0.000247
0.000256
0.000241
0.000264
0.000241
0.000334
0.000390
0.001479
0.000247
0.000245
0.000267
0.000255
0.000236
0.000254
0.000260
0.000272
0.000294
0.000504
0.000451
0.000245
0.001594
0.000279
0.000159
0.000058
0.000198
0.000215
0.000247
0.000231
0.000254
0.000252
0.000251
0.000263
0.000280
0.000345
0.000352
0.001425
0.000239
0.000215
0.000247
0.000262
0.000260
0.000252
0.000491
0.000281
0.000467
0.000392
0.000225
0.001576
0.000230
0.000253
0.000291
0.000282
0.000265
0.000269
0.000193
0.000056
0.000212
0.000227
0.000267
0.000266
0.000245
0.000251
0.000233
0.000243
0.000257
0.000240
0.000253
0.000253
0.000258
0.001485
0.000364
0.000207
0.000249
0.000263
0.000317
0.000279
0.000432
0.000211
0.000241
0.000299
0.000229
0.000263
0.000260
0.001408
0.000290
0.000231
0.000165
0.000056
0.000205
0.000230
0.000254
0.000266
0.000251
0.000235
0.000246
0.000260
0.000222
0.000268
0.000266
0.000238
0.000226
0.000301
0.000369
0.000433
0.000185
0.000268
0.001617
0.000248
0.000236
0.000254
0.000265
0.000315
0.000366
0.000367
0.000460
0.000256
0.000255
0.001610
0.000168
0.000056
0.000284
0.000367
0.000382
0.000282
0.000217
0.000221
0.000241
0.000276
0.000255
0.000237
0.000240
0.000241
0.001462
0.000292
0.000317
0.000210
0.000252
0.000259
0.000262
0.000274
0.000247
0.000253
0.000246
0.000269
0.000331
0.000325
0.000421
0.000368
0.000268
0.000254
0.000187
0.000055
0.000213
0.000237
0.000548
0.000258
0.000373
0.000269
0.000231
0.000250
0.000253
0.000255
0.000242
0.000227
0.000253
0.000253
0.001246
0.000304
0.000235
0.000267
0.000255
0.000260
0.000244
0.000263
0.000257
0.000263
0.000260
0.000252
0.000295
0.000694
0.000457
0.000236
0.000175
0.000056
0.000210
0.001556
0.000250
0.000332
0.000543
0.000285
0.000220
0.000255
0.000266
0.000245
0.000247
0.000259
0.000272
0.000272
0.000278
0.001506
0.000257
0.000296
0.000255
0.000254
0.000259
0.000252
0.000265
0.000258
0.000273
0.000271
0.000489
0.000271
0.000375
0.000243
0.000183
0.000073
0.000196
0.000253
0.000231
0.001655
0.000380
0.000345
0.000233
0.000233
0.000255
0.000273
0.000273
0.000257
0.000247
0.000261
0.000236
0.000268
0.000408
0.001312
0.000235
0.000255
0.001488
0.000321
0.000551
0.000427
0.000333
0.000227
0.000270
0.000466
0.000234
0.000260
0.000182
0.000056
0.000250
0.000217
0.000245
0.000246
0.000247
0.000256
0.000258
0.000234
0.000262
0.000232
0.000253
0.000261
0.000318
0.000493
0.001665
0.001501
0.000355
0.000508
0.000365
0.000223
0.000231
0.000257
0.000252
0.000263
0.000265
0.000248
0.000265
0.000262
0.001525
0.000338
0.000164
0.000056
0.000249
0.000342
0.000357
0.000322
0.000248
0.000203
0.000248
0.000362
0.000450
0.000346
0.002161
0.000322
0.000714
0.000499
0.000457
0.000268
0.000333
0.000409
0.000314
0.000293
0.000377
0.000238
0.001863
0.000253
0.000195
0.000257
0.000249
0.000265
0.000275
0.000248
0.000195
0.000056
0.000234
0.000247
0.000252
0.000254
0.000245
0.001658
0.000881
0.000991
0.000214
0.000234
0.000258
0.000257
0.000267
0.000256
0.000257
0.000242
0.000256
0.000264
0.000265
0.000277
0.001430
0.000312
0.000257
0.000230
0.000235
0.000256
0.000264
0.000280
0.000261
0.000286
0.001894
0.000056
0.000190
0.000226
0.001553
0.000960
0.000285
0.000355
0.000230
0.000232
0.000248
0.000256
0.000247
0.000247
0.000252
0.002077
0.000376
0.000230
0.000244
0.000251
0.000266
0.000260
0.000191
