0.000115
0.019993
0.001267
0.000381
0.000241
0.000233
0.000311
0.000251
0.000352
0.000261
0.000261
0.000360
0.000535
0.000489
0.000351
0.000299
0.000303
0.000382
0.000403
0.000407
0.000299
0.001867
0.000483
0.000450
0.000263
0.000292
0.000311
0.000409
0.000416
0.000377
0.000529
0.000235
0.000058
0.000221
0.000225
0.000269
0.000264
0.000269
0.000269
0.000263
0.000263
0.000273
0.000317
0.000418
0.000469
0.000285
0.000279
0.000400
0.000362
0.000346
0.000245
0.000220
0.001730
0.000294
0.000240
0.000488
0.000246
0.000258
0.000227
0.000298
0.000291
0.000283
0.000386
0.000373
0.000057
0.000244
0.000224
0.000263
0.000262
0.000255
0.000246
0.000261
0.000258
0.000282
0.001667
0.000234
0.000241
0.000251
0.000274
0.000283
0.000248
0.000274
0.000248
0.000346
0.001795
0.000263
0.000261
0.000457
0.000474
0.000367
0.000261
0.000228
0.000511
0.000556
0.000703
0.000173
0.000056
0.000224
0.000212
0.000252
0.000236
0.000318
0.000270
0.000322
0.000544
0.000447
0.000235
0.000208
0.000236
0.000216
0.000263
0.000249
0.000260
0.000239
0.000275
0.000288
0.000346
0.001721
0.000249
0.000246
0.000458
0.000249
0.000710
0.000686
0.000481
0.000329
0.000253
0.000197
0.000058
0.000213
0.000219
0.000261
0.000249
0.000251
0.000253
0.000284
0.000450
0.001470
0.000243
0.000232
0.000237
0.000253
0.000252
0.000260
0.000288
0.000364
0.000692
0.001399
0.000292
0.000261
0.000415
0.000255
0.000247
0.000241
0.000276
0.000258
0.000260
0.000262
0.000269
0.000212
0.000056
0.000204
0.000231
0.000229
0.000242
0.000258
0.000246
0.000246
0.000252
0.000241
0.000248
0.001705
0.000234
0.000236
0.000231
0.000221
0.000251
0.000233
0.000262
0.000256
0.000271
0.000247
0.001735
0.000249
0.000246
0.000478
0.000231
0.000246
0.000237
0.000262
0.000254
0.000204
0.000057
0.000197
0.000209
0.000240
0.000249
0.000239
0.000248
0.000259
0.000241
0.000262
0.000244
0.000272
0.000243
0.000267
0.000272
0.001634
0.000284
0.000272
0.000242
0.000248
0.000268
0.000273
0.000241
0.000261
0.000253
0.000266
0.001822
0.000425
0.000353
0.000257
0.000270
0.000218
0.000059
0.000195
0.000204
0.000240
0.000272
0.000260
0.000229
0.000319
0.000367
0.000458
0.000404
0.000220
0.000228
0.000258
0.000267
0.001648
0.000477
0.000326
0.000390
0.000302
0.000213
0.000260
0.000296
0.000260
0.001791
0.000478
0.000542
0.000197
0.000232
0.000226
0.000265
0.000192
0.000058
0.000210
0.000223
0.000228
0.000287
0.000302
0.000436
0.000428
0.000278
0.000211
0.000220
0.000270
0.000230
0.000265
0.001731
0.000468
0.000297
0.000222
0.000248
0.000263
0.000278
0.000260
0.000256
0.000268
0.001930
0.000273
0.000415
0.000235
0.000236
0.000320
0.000399
0.000327
0.000056
0.000216
0.000366
0.000356
0.000269
0.000283
0.000215
0.000243
0.000258
0.000243
0.000243
0.000242
0.000235
0.001647
0.000348
0.000268
0.000214
0.000222
0.000249
0.000251
0.000279
0.000273
0.000334
0.001788
0.000352
0.000228
0.000497
0.000216
0.000234
0.000248
0.000271
0.000280
0.000058
0.000433
0.000571
0.000494
0.000209
0.000201
0.000267
0.000232
0.000215
0.000258
0.000251
0.000255
0.001698
0.000286
0.000397
0.000379
0.000218
0.000246
0.000229
0.000238
0.000269
0.000248
0.001858
0.000242
0.000242
0.002234
0.000439
0.000265
0.000267
0.000259
0.000261
0.000204
0.000056
0.000197
0.000219
0.000242
0.000251
0.000251
0.001683
0.000229
0.000205
0.000240
0.000254
0.000244
0.000243
0.000249
0.000256
0.000290
0.000470
0.000569
0.000235
0.000235
0.000261
0.000278
0.000255
0.000234
0.000497
0.000433
0.000243
0.000469
0.000593
0.000302
0.000236
0.000187
0.000056
0.000204
0.000217
0.000255
0.000252
0.000241
0.000233
0.000237
0.000479
0.000411
0.001632
0.000262
0.000230
0.000237
0.000250
0.000249
0.000271
0.000440
0.000605
0.000295
0.000224
0.000230
0.000272
0.000305
0.000275
0.000284
0.000405
0.000450
0.000556
0.000443
0.000466
0.000134
0.000056
0.000181
0.000258
0.000221
0.000229
0.000237
0.000242
0.000246
0.000245
0.000248
0.000376
0.000358
0.001533
0.000277
0.000215
0.000217
0.000208
0.000257
0.000256
0.000241
0.000262
0.000286
0.000432
0.000414
0.000335
0.000218
0.000233
0.000269
0.000260
0.000261
0.000268
0.000419
0.000056
0.000199
0.000223
0.000231
0.000267
0.000590
0.000403
0.000211
0.000260
0.000224
0.000264
0.000246
0.000242
0.000287
0.000260
0.000239
0.000619
0.000391
0.001525
0.000271
0.000242
0.000268
0.000260
0.000260
0.000251
0.000261
0.000451
0.000517
0.000334
0.000362
0.000240
0.000208
0.000056
0.000226
0.000224
0.000397
0.000242
0.000263
0.000252
0.000277
0.000629
0.000338
0.000242
0.000244
0.000266
0.000271
0.000247
0.000580
0.000297
0.000219
0.000254
0.000422
0.001665
0.000236
0.000229
0.000316
0.000413
0.000283
0.000294
0.000256
0.000385
0.000498
0.000444
0.000219
0.000055
0.000203
0.000213
0.000229
0.000244
0.000473
0.000267
0.000279
0.000221
0.000435
0.000546
0.000328
0.000242
0.000224
0.000204
0.000259
0.000267
0.000256
0.000257
0.000224
0.000370
0.000277
0.000661
0.001511
0.000268
0.000236
0.000249
0.000311
0.000364
0.000544
0.000613
0.000396
0.000057
0.000270
0.000321
0.000310
0.000422
0.000317
0.000217
0.000254
0.000298
0.000490
0.000428
0.000317
0.000217
0.000202
0.000269
0.000268
0.000237
0.000243
0.000279
0.000268
0.000261
0.000266
0.000358
0.001805
0.000316
0.000349
0.000424
0.000373
0.000230
0.000367
0.000510
0.000340
0.000056
0.000248
0.000383
0.000275
0.000205
0.000238
0.000214
0.000470
0.000213
0.000215
0.000419
0.000416
0.000388
0.000244
0.000248
0.000260
0.000292
0.000368
0.000443
0.000289
0.000231
0.000217
0.000447
0.000646
0.001594
0.000262
0.000422
0.000320
0.000222
0.000262
0.000446
0.000384
0.000057
0.000190
0.000200
0.000241
0.000250
0.000244
0.000247
0.000252
0.000351
0.000432
0.000248
0.000585
0.000351
0.000257
0.000211
0.000527
0.000263
0.000276
0.000266
0.000240
0.000338
0.000237
0.000231
0.000273
0.000418
0.000742
0.001458
0.000239
0.000220
0.000245
0.000260
0.000206
0.000057
0.000254
0.000492
0.000330
0.000221
0.000221
0.000230
0.000263
0.000230
0.000259
0.000254
0.000217
0.000490
0.000260
0.000536
0.000349
0.000311
0.000226
0.000236
0.000366
0.000358
0.000363
0.000371
0.000385
0.000372
0.000239
0.000230
0.000242
0.000276
0.001774
0.000281
0.000195
0.000057
0.000192
0.000206
0.000252
0.000261
0.000364
0.000532
0.000336
0.000233
0.000228
0.000269
0.000252
0.000243
0.000547
0.000432
0.000471
0.000304
0.000268
0.000249
0.000439
0.000494
0.000367
0.000437
0.000533
0.000379
0.000219
0.000236
0.000247
0.000219
0.000274
0.001770
0.000269
0.000057
0.000358
0.000251
0.000199
0.000227
0.000273
0.000226
0.000318
0.000422
0.000424
0.000299
0.000308
0.000299
0.000521
0.000517
0.000279
0.000207
0.000244
0.000222
0.000262
0.000259
0.000263
0.000271
0.000245
0.000268
0.000354
0.000310
0.000478
0.000355
0.000231
0.000215
0.000199
0.000057
0.000446
0.000363
0.000348
0.000282
0.000208
0.000238
0.000246
0.000255
0.000245
0.000222
0.000245
0.000272
0.000295
0.000366
0.000541
0.000465
0.000305
0.000371
0.000371
0.000397
0.000251
0.000220
0.000224
0.000248
0.001809
0.000237
0.001747
0.000946
0.000376
0.000331
0.000153
0.000057
0.000196
0.000205
0.000246
0.000247
0.000241
0.000248
0.000255
0.000262
0.000244
0.000306
0.000423
0.000379
0.000544
0.000282
0.000203
0.000236
0.000265
0.000294
0.000212
0.000227
0.000253
0.000229
0.001804
0.000278
0.000222
0.000266
0.000290
0.000256
0.001900
0.000480
0.000294
0.000056
0.000218
0.000201
0.000208
0.000240
0.000254
0.000243
0.000246
0.000253
0.000261
0.000374
0.000619
0.000257
0.000384
0.000243
0.000228
0.000286
0.000379
0.000393
0.000388
0.000231
0.001805
0.000236
0.000222
0.000232
0.000270
0.000259
0.000244
0.000266
0.000248
0.000374
0.000412
0.000056
0.000280
0.000200
0.000202
0.000261
0.000247
0.000235
0.000258
0.000265
0.000232
0.000260
0.000249
0.000244
0.000446
0.000448
0.000239
0.000308
0.000485
0.000219
0.000217
0.000255
0.000281
0.000239
0.000276
0.000261
0.000274
0.001784
0.000267
0.000240
0.000254
0.000238
0.000218
0.000056
0.000231
0.000356
0.000234
0.000192
0.000228
0.000238
0.000236
0.000253
0.000249
0.000239
0.000237
0.000241
0.000256
0.000315
0.000483
0.000337
0.000355
0.000216
0.000219
0.000243
0.000259
0.000260
0.000252
0.000268
0.000252
0.000256
0.000283
0.001723
0.000245
0.000221
0.000189
0.000057
0.000207
0.000209
0.000245
0.000257
0.000400
0.000347
0.000474
0.000217
0.000221
0.000240
0.000245
0.000247
0.000246
0.000255
0.000275
0.000248
0.000243
0.000264
0.000247
0.000256
0.000270
0.000264
0.000266
0.000224
0.000238
0.000291
0.000273
0.000257
0.000260
0.000259
0.000210
0.000057
0.000205
0.000238
0.000222
0.000256
0.000242
0.000248
0.000248
0.000258
0.000363
0.000198
0.000200
0.000235
0.000261
0.000246
0.000289
0.000269
0.000234
0.000242
0.000358
0.000227
0.000241
0.000282
0.000281
0.000253
0.000264
0.000284
0.000269
0.000245
0.000268
0.000374
0.000646
0.000057
0.000239
0.000301
0.000218
0.000212
0.000208
0.000252
0.000244
0.000247
0.000245
0.000244
0.000282
0.000325
0.000438
0.000487
0.001593
0.000208
0.000519
0.000216
0.000226
0.000462
0.000525
0.000260
0.000236
0.000276
0.000261
0.000250
0.000285
0.000244
0.000312
0.000261
0.000207
0.000073
0.000255
0.000451
0.000354
0.000326
0.000206
0.000239
0.000245
0.000246
0.000237
0.000245
0.000258
0.000253
0.000235
0.000294
0.000488
0.000366
0.000349
0.001796
0.000268
0.000231
0.000394
0.000368
0.000471
0.000279
0.000366
0.000274
0.000307
0.000228
0.000231
0.000235
0.000225
0.000057
0.000214
0.000201
0.000245
0.000317
0.000320
0.000524
0.000268
0.000255
0.000249
0.000223
0.000242
0.000269
0.000267
0.000262
0.000251
0.000260
0.000295
0.000545
0.000310
0.000413
0.000240
0.001811
0.000301
0.000557
0.000501
0.000411
0.000278
0.000233
0.000250
0.000266
0.000498
0.000056
0.000211
0.000229
0.000243
0.000356
0.000346
0.000495
0.000334
0.000256
0.000225
0.000326
0.000223
0.000232
0.000253
0.000304
0.000355
0.000218
0.000220
0.000456
0.000354
0.000386
0.000534
0.001778
0.000258
0.000425
0.000539
0.000327
0.000241
0.000370
0.000235
0.000228
0.000221
0.000056
0.000230
0.000340
0.000339
0.000343
0.000339
0.000380
0.000309
0.000212
0.000248
0.000240
0.000268
0.000247
0.000230
0.000261
0.000251
0.000252
0.000307
0.000559
0.000384
0.000341
0.000298
0.000214
0.000258
0.001786
0.000297
0.000542
0.000691
0.000289
0.000234
0.000290
0.000187
0.000055
0.000193
0.000248
0.000282
0.000259
0.000271
0.000456
0.000339
0.000302
0.000305
0.000533
0.000205
0.000224
0.000229
0.000280
0.000276
0.000275
0.000217
0.000458
0.000430
0.000343
0.000267
0.000236
0.000261
0.000253
0.000259
0.000266
0.000241
0.000254
0.000263
0.000382
0.000148
0.000056
0.000266
0.000354
0.000221
0.000222
0.000248
0.000258
0.000246
0.000350
0.000218
0.000208
0.000253
0.000342
0.000457
0.000374
0.000385
0.000265
0.000234
0.000207
0.000253
0.000257
0.000262
0.000299
0.000229
0.000258
0.000284
0.000286
0.000442
0.000544
0.000228
0.000222
0.000171
0.000056
0.000209
0.000200
0.000265
0.000248
0.000238
0.000253
0.000251
0.000271
0.000496
0.000226
0.000232
0.000251
0.000250
0.000297
0.000234
0.000282
0.000257
0.000357
0.000233
0.000230
0.000259
0.000258
0.000259
0.000261
0.000281
0.000260
0.000265
0.000261
0.000270
0.000475
0.000183
0.000056
0.000210
0.000210
0.000237
0.000262
0.000248
0.000235
0.000301
0.000456
0.000255
0.000227
0.000253
0.000255
0.000242
0.000285
0.000414
0.001813
0.000218
0.000249
0.000314
0.000379
0.000411
0.000341
0.000370
0.000360
0.000404
0.000360
0.000252
0.000268
0.000268
0.000270
0.001424
0.000060
0.000466
0.000226
0.000312
0.000207
0.000192
0.000241
0.000227
0.000258
0.000243
0.000257
0.000257
0.000254
0.000258
0.000264
0.002032
0.000232
0.000227
0.000208
0.000213
0.000265
0.000249
0.000250
0.000335
0.000489
0.000255
0.000312
0.000247
0.000252
0.000269
0.000260
0.000207
0.000057
0.001212
0.000601
0.000266
0.000303
0.000199
0.000209
0.000221
0.000231
0.000480
0.000226
0.000235
0.000264
0.000299
0.000526
0.000420
0.000326
0.000300
0.000245
0.000356
0.000345
0.000228
0.000239
0.000270
0.000243
0.000270
0.000631
0.000528
0.000243
0.000248
0.000275
0.000175
0.000057
0.000229
0.000201
0.000220
0.000239
0.001512
0.000281
0.000212
0.000240
0.000240
0.000252
0.000253
0.000247
0.000245
0.000263
0.000264
0.000277
0.000448
0.000661
0.000265
0.001803
0.000257
0.000293
0.000282
0.000397
0.000534
0.000413
0.000238
0.000244
0.000254
0.000263
0.000218
0.000055
0.000229
0.000234
0.000217
0.001326
0.000331
0.000205
0.000251
0.000215
0.000237
0.000241
0.000227
0.000256
0.000273
0.000253
0.000243
0.000271
0.000615
0.000356
0.000335
0.000205
0.000239
0.000274
0.000259
0.000233
0.000338
0.000248
0.000205
0.000276
0.000265
0.000317
0.000626
0.000056
0.000222
0.000214
0.000244
0.000258
0.000259
0.000254
0.000230
0.000261
0.000265
0.000250
0.001447
0.000236
0.000231
0.000242
0.000247
0.000239
0.000262
0.000272
0.000258
0.000272
0.000257
0.000491
0.000487
0.000352
0.000246
0.000267
0.001832
0.000224
0.000249
0.000324
0.000463
0.000056
0.000234
0.000430
0.000457
0.000504
0.000526
0.000526
0.001494
0.000413
0.000545
0.000642
0.000580
0.000683
0.000529
0.000585
0.000585
0.001739
0.000581
0.000314
0.000382
0.000333
0.000230
0.000289
0.000288
0.000266
0.000275
0.000276
0.000320
0.000270
0.000245
0.000294
0.001323
0.000056
0.000210
0.000245
0.000226
0.000226
0.000244
0.000251
0.000242
0.000236
0.000260
0.000262
0.000247
0.000272
0.000225
0.000272
0.000276
0.000240
0.001833
0.000268
0.000258
0.000255
0.000250
0.000265
0.000267
0.000328
0.000477
0.000302
0.000323
0.000253
0.000258
0.000283
0.000192
0.000056
0.000195
0.001403
0.000260
0.000271
0.000260
0.000234
0.000249
0.000247
0.000258
0.000244
0.000235
0.000234
0.000265
0.000442
0.000277
0.000366
0.000258
0.000276
0.001915
0.000267
0.000255
0.000275
0.000237
0.000255
0.000277
0.000261
0.000290
0.000243
0.000247
0.000307
0.000242
0.000057
0.000201
0.000233
0.000254
0.001439
0.000245
0.000265
0.000228
0.000229
0.000221
0.000275
0.000243
0.000259
0.000233
0.000254
0.000285
0.000243
0.000255
0.000276
0.000253
0.000259
0.000262
0.001842
0.000263
0.001760
0.000258
0.000252
0.000255
0.000225
0.000263
0.000293
0.000203
0.000057
0.000194
0.000240
0.001383
0.000215
0.000288
0.000210
0.000219
0.000242
0.000249
0.000245
0.000259
0.000246
0.000247
0.000266
0.000257
0.000266
0.000260
0.000290
0.000279
0.000257
0.001856
0.000277
0.001788
0.000286
0.000243
0.000248
0.000261
0.000259
0.000265
0.000263
0.000176
0.000057
0.001461
0.000225
0.000238
0.000231
0.000208
0.000227
0.000272
0.000362
0.000251
0.000261
0.000249
0.000262
0.000257
0.000428
0.000398
0.000254
0.000260
0.000262
0.000228
0.000224
0.000261
0.000334
0.000250
0.000259
0.000270
0.000273
0.000262
0.000355
0.000719
0.000326
0.000180
0.000057
0.000204
0.000288
0.000271
0.000309
0.000376
0.000241
0.001680
0.000281
0.000280
0.000255
0.000269
0.000309
0.000257
0.000267
0.000292
0.000320
0.000327
0.000524
0.000381
0.000285
0.000326
0.000273
0.000263
0.000263
0.000331
0.000259
0.000262
0.000240
0.000248
0.000291
0.000410
0.000057
0.000315
0.000371
0.000273
0.000268
0.000254
0.000227
0.000212
0.000254
0.000259
0.000256
0.001543
0.000220
0.000203
0.000249
0.000245
0.000287
0.000264
0.000268
0.000245
0.000261
0.000270
0.000522
0.000521
0.000233
0.000225
0.000298
0.000266
0.000239
0.000240
0.000238
0.000257
0.000057
0.000191
0.000202
0.000284
0.000466
0.000375
0.000272
0.000213
0.000248
0.000249
0.000252
0.000234
0.000262
0.000247
0.000267
0.000238
0.000235
0.000458
0.001231
0.000207
0.000256
0.000219
0.000263
0.000339
0.000500
0.000227
0.000339
0.000526
0.000399
0.000363
0.000225
0.000176
0.000056
0.000208
0.000226
0.000259
0.000264
0.000311
0.000205
0.000350
0.000473
0.000405
0.000305
0.000371
0.000401
0.000385
0.000356
0.000238
0.000211
0.000217
0.000250
0.000418
0.000543
0.001155
0.000250
0.000254
0.000272
0.000242
0.000231
0.000263
0.000359
0.000353
0.000549
0.000232
0.000058
0.000203
0.000210
0.000248
0.000235
0.000250
0.000251
0.000237
0.000260
0.000255
0.000391
0.000544
0.000335
0.000231
0.000213
0.000220
0.000259
0.000252
0.000257
0.000266
0.000544
0.000206
0.000273
0.000361
0.000398
0.000298
0.000241
0.000266
0.000262
0.000250
0.000278
0.000235
0.000057
0.000281
0.000294
0.000307
0.000484
0.000433
0.000315
0.000219
0.000267
0.000211
0.000261
0.000267
0.000256
0.000243
0.000248
0.000249
0.000227
0.000261
0.000439
0.000445
0.000368
0.000227
0.000253
0.000233
0.000232
0.000277
0.000268
0.000267
0.000268
0.000276
0.000269
0.000308
0.000056
0.000259
0.000338
0.000206
0.000221
0.000255
0.000250
0.000239
0.000254
0.000259
0.000260
0.000256
0.000237
0.000290
0.000580
0.000392
0.000320
0.000220
0.000209
0.000230
0.000271
0.000278
0.000243
0.000264
0.000262
0.000271
0.000366
0.000444
0.000498
0.000508
0.000214
0.000157
0.000056
0.000378
0.000208
0.000205
0.000228
0.000250
0.000251
0.000240
0.000244
0.000259
0.000260
0.000220
0.000252
0.000270
0.000222
0.000259
0.000248
0.000253
0.000259
0.000277
0.000262
0.000262
0.000259
0.000263
0.000264
0.000268
0.000260
0.000251
0.000276
0.000250
0.000296
0.000199
0.000056
0.000199
0.000205
0.000240
0.000256
0.000225
0.000253
0.000265
0.000238
0.000260
0.000275
0.000230
0.000237
0.000261
0.000404
0.000237
0.000291
0.000251
0.000262
0.000264
0.000279
0.000273
0.000235
0.000243
0.000255
0.000272
0.000269
0.000248
0.000255
0.000286
0.000249
0.000217
0.000055
0.000252
0.000380
0.000345
0.000278
0.000330
0.000203
0.000216
0.000248
0.000232
0.000244
0.000243
0.000274
0.000254
0.000223
0.000261
0.000254
0.000266
0.000269
0.000246
0.000264
0.000270
0.000270
0.000275
0.000259
0.000277
0.000285
0.000248
0.000268
0.000240
0.000267
0.000206
0.000055
0.000216
0.000210
0.000248
0.000260
0.000252
0.000450
0.000207
0.000249
0.000256
0.000477
0.000480
0.000342
0.000212
0.000213
0.000268
0.000275
0.000237
0.000265
0.000262
0.000266
0.000268
0.000258
0.000261
0.000352
0.000499
0.000490
0.000256
0.000273
0.000275
0.000258
0.000204
0.000056
0.000199
0.000210
0.000235
0.000247
0.000341
0.000617
0.000319
0.000374
0.000241
0.000245
0.000242
0.000250
0.000261
0.000249
0.000254
0.000267
0.000260
0.000258
0.000601
0.000440
0.000297
0.000221
0.000251
0.000279
0.000283
0.000256
0.000271
0.000261
0.000251
0.000335
0.000374
0.000056
0.000301
0.000235
0.000208
0.000240
0.000256
0.000254
0.000232
0.000239
0.000247
0.000257
0.000245
0.000260
0.000242
0.000423
0.000538
0.000445
0.000218
0.000227
0.000260
0.000252
0.000260
0.000269
0.000467
0.000259
0.000249
0.000659
0.000485
0.000361
0.000259
0.000238
0.000200
0.000055
0.000212
0.000201
0.000238
0.000245
0.000254
0.000259
0.000300
0.000461
0.000596
0.000387
0.000249
0.000235
0.000269
0.000285
0.000264
0.000235
0.000240
0.000246
0.000256
0.000364
0.000428
0.000521
0.000429
0.000279
0.000441
0.000339
0.000493
0.000213
0.000241
0.000400
0.000472
0.000056
0.000275
0.000208
0.000492
0.000196
0.000232
0.000221
0.000255
0.000257
0.000236
0.000237
0.000258
0.000424
0.000458
0.000270
0.000233
0.000220
0.000267
0.000236
0.000267
0.000273
0.000268
0.000260
0.000255
0.000264
0.000328
0.000502
0.000459
0.000240
0.000255
0.000273
0.000214
0.000056
0.000186
0.000244
0.000228
0.000250
0.000243
0.000244
0.000466
0.000480
0.000293
0.000284
0.000340
0.000232
0.000237
0.000264
0.000264
0.000233
0.000252
0.000270
0.000282
0.000435
0.000527
0.000257
0.000450
0.000356
0.000398
0.000386
0.000376
0.000240
0.000244
0.000305
0.000371
0.000055
0.000247
0.000268
0.000213
0.000251
0.000254
0.000257
0.000247
0.000250
0.000251
0.000265
0.000237
0.000491
0.000332
0.000348
0.000373
0.000251
0.000251
0.000257
0.000276
0.000231
0.000251
0.000260
0.000257
0.000275
0.000279
0.000318
0.000496
0.000480
0.000246
0.000281
0.000200
0.000056
0.000181
0.000230
0.000251
0.000251
0.000243
0.000350
0.000643
0.000335
0.000365
0.000667
0.000311
0.000203
0.000219
0.000257
0.000240
0.000271
0.000280
0.000271
0.000458
0.000517
0.001554
0.000251
0.000260
0.000255
0.000305
0.000233
0.000454
0.000322
0.000425
0.000279
0.000161
0.000056
0.000203
0.000207
0.000239
0.000246
0.000242
0.000252
0.000271
0.000253
0.000251
0.000363
0.000358
0.000360
0.000280
0.000377
0.000390
0.000320
0.000233
0.000231
0.000236
0.000260
0.000236
0.000251
0.000282
0.000267
0.000329
0.000540
0.000358
0.000276
0.000219
0.000268
0.000196
0.000057
0.000212
0.000227
0.000254
0.000251
0.000250
0.000236
0.000474
0.000213
0.000245
0.000234
0.000249
0.000246
0.000260
0.000248
0.000257
0.000267
0.000264
0.000265
0.000275
0.000252
0.000258
0.000287
0.000301
0.000262
0.000247
0.000268
0.000276
0.000268
0.000261
0.000289
0.000177
0.000056
0.000214
0.000222
0.000335
0.000434
0.000370
0.000225
0.000228
0.000233
0.000259
0.000253
0.000252
0.000244
0.000268
0.000264
0.000235
0.000240
0.000255
0.000260
0.000263
0.000402
0.000407
0.000377
0.000245
0.000259
0.000269
0.000253
0.000273
0.000251
0.000267
0.000283
0.000215
0.000056
0.000251
0.000416
0.000378
0.000227
0.000242
0.000255
0.000472
0.000212
0.000200
0.000242
0.000281
0.000332
0.000360
0.000510
0.001711
0.000261
0.000244
0.000242
0.000284
0.000236
0.000385
0.000427
0.000486
0.000407
0.000247
0.000244
0.000270
0.000411
0.000292
0.000284
0.000180
0.000056
0.000202
0.000349
0.000301
0.000305
0.000514
0.000206
0.000233
0.000238
0.000261
0.000239
0.000259
0.000247
0.000264
0.000393
0.000318
0.000497
0.000249
0.000208
0.000290
0.000236
0.000265
0.000310
0.000240
0.000273
0.000284
0.000503
0.000489
0.000636
0.000206
0.000221
0.000207
0.000057
0.000226
0.000192
0.000251
0.000233
0.000247
0.000250
0.000266
0.000270
0.000339
0.000485
0.000317
0.000395
0.000219
0.000224
0.000267
0.000267
0.000328
0.000232
0.000269
0.000276
0.000243
0.000262
0.000526
0.000381
0.000251
0.000287
0.000238
0.000527
0.000391
0.000271
0.000167
0.000056
0.000205
0.000231
0.000309
0.000503
0.000301
0.000223
0.000226
0.000273
0.000240
0.000291
0.000227
0.000258
0.000222
0.000259
0.000262
0.000276
0.000488
0.000274
0.000302
0.000366
0.000478
0.000226
0.000268
0.000276
0.000304
0.000288
0.000280
0.000252
0.000436
0.000510
0.000249
0.000057
0.000203
0.000206
0.000265
0.000229
0.000249
0.000474
0.000220
0.000240
0.000267
0.000368
0.000495
0.000567
0.000206
0.000231
0.000243
0.000249
0.000256
0.000251
0.000247
0.000259
0.000250
0.000281
0.000350
0.000522
0.000334
0.000354
0.000317
0.000345
0.000297
0.000216
0.000181
0.000056
0.000217
0.000220
0.000237
0.000506
0.000290
0.000398
0.000236
0.000206
0.000219
0.000241
0.000268
0.000232
0.000254
0.000255
0.000295
0.000218
0.000253
0.000256
0.000251
0.000386
0.000525
0.000411
0.000232
0.000221
0.000291
0.000260
0.000266
0.000253
0.000260
0.000263
0.000216
0.000056
0.000235
0.000441
0.000465
0.000208
0.000216
0.000207
0.000328
0.000510
0.000261
0.000212
0.000214
0.000267
0.000366
0.000353
0.000454
0.000312
0.000213
0.000249
0.000265
0.000212
0.000268
0.000269
0.000251
0.000295
0.000247
0.000342
0.000365
0.000558
0.000213
0.000228
0.000152
0.000057
0.000221
0.000223
0.000240
0.000258
0.000258
0.000255
0.000232
0.000251
0.000256
0.000243
0.000268
0.000244
0.000253
0.001464
0.000235
0.000246
0.000253
0.000248
0.000276
0.000276
0.000267
0.000243
0.000274
0.000255
0.000270
0.000265
0.000269
0.000270
0.000284
0.000246
0.000211
0.000058
0.000187
0.000211
0.000243
0.000245
0.000257
0.000225
0.000259
0.000258
0.000226
0.000254
0.000245
0.000259
0.000274
0.000243
0.000261
0.000255
0.000249
0.000255
0.000273
0.000255
0.000255
0.000257
0.000254
0.000246
0.001366
0.000273
0.000560
0.000351
0.000447
0.000212
0.000155
0.000056
0.000209
0.000205
0.000245
0.000249
0.000497
0.000224
0.000211
0.000207
0.000245
0.000299
0.000620
0.000306
0.000223
0.000211
0.000224
0.000261
0.000250
0.000270
0.000262
0.000260
0.000245
0.000249
0.000270
0.000399
0.000658
0.000309
0.000250
0.000250
0.001372
0.000259
0.000191
0.000057
0.000238
0.000437
0.000351
0.000245
0.000206
0.000206
0.000218
0.000248
0.000259
0.000252
0.000249
0.000257
0.000265
0.000307
0.000532
0.000415
0.000306
0.000235
0.000245
0.000255
0.000258
0.000259
0.000270
0.000267
0.000281
0.000247
0.000355
0.000530
0.000403
0.000381
0.000141
0.000055
0.000189
0.000225
0.001327
0.000338
0.000304
0.000485
0.000340
0.000331
0.000434
0.000376
0.000227
0.000207
0.000252
0.000250
0.000259
0.000257
0.000383
0.000520
0.000329
0.000373
0.000263
0.000241
0.000259
0.000514
0.000233
0.000253
0.000259
0.000282
0.000363
0.000464
0.000377
0.000055
0.000377
0.000349
0.000211
0.000208
0.001532
0.000593
0.000238
0.000223
0.000220
0.000238
0.000227
0.000233
0.000248
0.000269
0.000254
0.000264
0.000235
0.000338
0.000454
0.000346
0.000451
0.000211
0.000224
0.000247
0.000252
0.000276
0.000269
0.000240
0.000262
0.000273
0.000216
0.000057
0.000353
0.000320
0.000261
0.000197
0.000251
0.000240
0.000252
0.000248
0.000236
0.000240
0.001477
0.000458
0.000269
0.000201
0.000214
0.000256
0.000275
0.000266
0.000226
0.000275
0.000274
0.000254
0.000256
0.000464
0.000503
0.000342
0.000210
0.000263
0.000280
0.000282
0.000196
0.000056
0.000190
0.000456
0.000211
0.000212
0.000407
0.000404
0.000393
0.000242
0.000455
0.000224
0.000209
0.000254
0.000265
0.000261
0.000271
0.001418
0.000339
0.000288
0.000251
0.000268
0.000274
0.000245
0.000262
0.000255
0.000266
0.000273
0.000460
0.000438
0.000303
0.000281
0.000145
0.000057
0.000213
0.000216
0.000255
0.000237
0.000227
0.000261
0.000243
0.000258
0.000263
0.000411
0.000476
0.000286
0.000221
0.000207
0.000241
0.000268
0.000273
0.000261
0.000276
0.000226
0.000256
0.000306
0.001330
0.000217
0.000281
0.000216
0.000236
0.000263
0.000261
0.000263
0.000203
0.000056
0.000246
0.000380
0.000327
0.000351
0.000248
0.000201
0.000231
0.000266
0.000259
0.000247
0.000258
0.000265
0.000246
0.000252
0.000252
0.000267
0.000262
0.000277
0.000261
0.000254
0.000276
0.000241
0.000274
0.000278
0.000287
0.000270
0.000289
0.000228
0.000271
0.000507
0.001324
0.000057
0.000185
0.000205
0.000236
0.000249
0.000247
0.000261
0.000249
0.000218
0.000246
0.000250
0.000269
0.000256
0.000261
0.000242
0.000265
0.001682
0.000377
0.000206
0.000216
0.000238
0.000249
0.000257
0.000267
0.000261
0.000263
0.000278
0.000262
0.000272
0.000271
0.000264
0.000242
0.000055
0.000278
0.000333
0.001354
0.000186
0.000211
0.000224
0.000257
0.000257
0.000252
0.000259
0.000234
0.000357
0.000409
0.000506
0.000233
0.000204
0.000239
0.000242
0.000260
0.000258
0.000246
0.000266
0.000274
0.000281
0.000274
0.000479
0.000328
0.000338
0.000282
0.000255
0.000253
0.000059
0.000217
0.000210
0.000248
0.000239
0.000251
0.000243
0.000228
0.000279
0.000449
0.000376
0.001166
0.000236
0.000234
0.000267
0.000257
0.000263
0.000265
0.000249
0.000315
0.000381
0.000420
0.000281
0.000232
0.000229
0.000280
0.000267
0.000271
0.000299
0.000264
0.000283
0.000208
0.000056
0.000263
0.000403
0.000402
0.000233
0.000203
0.000210
0.000264
0.000244
0.000274
0.000257
0.000222
0.000534
0.000300
0.000436
0.000463
0.001470
0.000221
0.000268
0.000330
0.000356
0.000418
0.000428
0.000459
0.000420
0.000222
0.000260
0.000264
0.000277
0.000265
0.000270
0.000228
0.000056
0.000194
0.000211
0.000468
0.000428
0.000423
0.000214
0.000243
0.000242
0.000253
0.000242
0.000251
0.000262
0.000258
0.000247
0.000272
0.000316
0.000382
0.000468
0.000294
0.001324
0.000264
0.000248
0.000250
0.000524
0.000270
0.000416
0.000405
0.000227
0.000236
0.000273
0.000208
0.000057
0.000207
0.000211
0.000246
0.000242
0.000250
0.000276
0.000457
0.000387
0.000374
0.000220
0.000231
0.000253
0.000283
0.000248
0.000261
0.000271
0.000261
0.000255
0.000266
0.000261
0.000630
0.000342
0.000334
0.001367
0.000318
0.000241
0.000286
0.000401
0.000465
0.000347
0.000342
0.000056
0.000183
0.000208
0.000246
0.000254
0.000247
0.000239
0.001682
0.000257
0.000233
0.000210
0.000259
0.000255
0.000322
0.000324
0.000334
0.000275
0.000229
0.000306
0.000512
0.000456
0.000274
0.000259
0.000222
0.000242
0.001427
0.000438
0.000406
0.000482
0.000312
0.000296
0.000160
0.000056
0.000208
0.000224
0.000253
0.000259
0.000248
0.000253
0.001789
0.000205
0.000235
0.000259
0.000390
0.000415
0.001432
0.000321
0.000412
0.000219
0.000209
0.000240
0.000261
0.000272
0.001614
0.000583
0.000383
0.000283
0.000215
0.000217
0.000248
0.000281
0.000252
0.000249
0.000211
0.000056
0.000202
0.000240
0.000235
0.000249
0.000257
0.000273
0.000284
0.000259
0.000250
0.000255
0.000252
0.000250
0.000255
0.000269
0.000260
0.001489
0.000275
0.000248
0.000267
0.000272
0.000274
0.000253
0.000431
0.001267
0.000260
0.000260
0.000264
0.000258
0.000451
0.000221
0.000193
0.000056
0.000200
0.000225
0.000227
0.000241
0.000243
0.000229
0.000243
0.001751
0.000211
0.000216
0.000233
0.000373
0.000235
0.000218
0.001457
0.000243
0.000214
0.000221
0.000272
0.000245
0.000254
0.000308
0.000335
0.001362
0.000281
0.000220
0.000236
0.000250
0.001387
0.000272
0.000215
0.000056
0.000309
0.000299
0.000209
0.000201
0.000250
0.000243
0.000264
0.000268
0.000264
0.000241
0.000271
0.000262
0.000256
0.000259
0.000393
0.001394
0.000263
0.000258
0.000254
0.000249
0.000279
0.000265
0.000256
0.001544
0.000296
0.000251
0.000256
0.001362
0.000228
0.000221
0.000360
0.000057
0.000222
0.000443
0.000280
0.000213
0.000226
0.000234
0.000266
0.000259
0.000262
0.000269
0.000241
0.000251
0.000261
0.000272
0.000495
0.001208
0.000211
0.000222
0.000252
0.000278
0.000231
0.000234
0.000256
0.001300
0.000379
0.000227
0.000225
0.000235
0.000248
0.001342
0.000369
0.000056
0.000347
0.000258
0.000204
0.000207
0.000231
0.000251
0.000253
0.000241
0.000276
0.000254
0.000239
0.000253
0.000252
0.000342
0.000379
0.001490
0.000236
0.000231
0.000299
0.000501
0.000300
0.000488
0.001257
0.000291
0.000246
0.000258
0.001285
0.000355
0.000319
0.000439
0.000339
0.000058
0.000177
0.000237
0.000252
0.000259
0.000247
0.000259
0.000272
0.000250
0.000263
0.000261
0.000492
0.000388
0.001320
0.000202
0.000224
0.000258
0.000286
0.000259
0.000223
0.000271
0.000279
0.001319
0.000237
0.000221
0.000228
0.000256
0.001454
0.000562
0.000397
0.000250
0.000195
0.000056
0.000216
0.000195
0.000242
0.000239
0.000250
0.000270
0.000240
0.000307
0.000404
0.000527
0.000243
0.001454
0.000225
0.000226
0.000264
0.000262
0.000256
0.000282
0.001654
0.000319
0.000355
0.000349
0.001368
0.000395
0.000258
0.000335
0.000232
0.000241
0.000248
0.000249
0.000205
0.000056
0.000207
0.000213
0.000320
0.000207
0.000323
0.000640
0.000232
0.000339
0.001479
0.000285
0.000330
0.000257
0.000209
0.000308
0.000358
0.001378
0.000261
0.000208
0.000226
0.000244
0.000310
0.001654
0.000293
0.000282
0.000229
0.000237
0.000499
0.000313
0.000229
0.000230
0.000250
0.000056
0.000256
0.000403
0.000289
0.000303
0.000200
0.001473
0.000249
0.000225
0.000260
0.000267
0.000266
0.000250
0.000304
0.001480
0.000248
0.000243
0.000415
0.001284
0.000291
0.000444
0.000372
0.000223
0.000270
0.000227
0.000279
0.000257
0.000450
0.000234
0.000248
0.000282
0.000206
0.000056
0.000250
0.000267
0.000325
0.001425
0.000254
0.000209
0.000310
0.000250
0.000246
0.000246
0.000247
0.000284
0.001615
0.000209
0.000221
0.000218
0.001380
0.000335
0.000491
0.000356
0.000393
0.000204
0.000236
0.000239
0.000370
0.000238
0.000228
0.000259
0.000247
0.000252
0.000211
0.000056
0.000212
0.000371
0.001452
0.000225
0.000249
0.000271
0.000261
0.000231
0.000334
0.000488
0.001221
0.000254
0.000295
0.000236
0.000227
0.001411
0.000582
0.000295
0.000316
0.000414
0.000323
0.000228
0.000229
0.000242
0.000272
0.000293
0.000272
0.000289
0.000482
0.000441
0.001385
0.000055
0.000193
0.000246
0.000214
0.000223
0.000247
0.000402
0.000532
0.001318
0.000214
0.000223
0.000236
0.001417
0.000418
0.000372
0.000453
0.000259
0.000212
0.000201
0.000244
0.000293
0.000240
0.000260
0.000286
0.000259
0.000250
0.000285
0.000432
0.000522
0.001466
0.000261
0.000185
0.000057
0.000207
0.000224
0.000329
0.000573
0.001220
0.000291
0.000250
0.000256
0.000253
0.000247
0.000249
0.000266
0.000362
0.000545
0.000316
0.000216
0.000243
0.000300
0.000219
0.000274
0.000257
0.000270
0.000258
0.000264
0.000262
0.000432
0.000462
0.000330
0.000296
0.001493
0.000144
0.000058
0.000195
0.000205
0.000246
0.000476
0.000336
0.000334
0.000284
0.000335
0.000283
0.000254
0.000261
0.000262
0.000242
0.000314
0.000248
0.000337
0.000519
0.000292
0.000307
0.000372
0.000286
0.000474
0.000215
0.000243
0.000221
0.000256
0.000252
0.000286
0.000400
0.000468
0.000306
0.000056
0.000215
0.001365
0.000265
0.000336
0.000437
0.000425
0.000385
0.000259
0.000217
0.000214
0.000260
0.000247
0.000271
0.000260
0.000272
0.000258
0.000264
0.001421
0.000251
0.000217
0.000229
0.000279
0.000268
0.000278
0.000271
0.000254
0.000268
0.000256
0.000333
0.000463
0.000281
0.000057
0.000224
0.000235
0.001451
0.000347
0.000287
0.000224
0.000209
0.000215
0.000235
0.000236
0.000255
0.000272
0.000247
0.000250
0.000265
0.000272
0.000238
0.000263
0.000253
0.000269
0.001424
0.000278
0.000224
0.000331
0.000225
0.000224
0.000251
0.000259
0.000282
0.000498
0.000380
0.000057
0.000202
0.000204
0.000379
0.000299
0.000247
0.000246
0.001536
0.000335
0.000349
0.000196
0.000235
0.000353
0.000318
0.000218
0.000221
0.000252
0.000248
0.000254
0.000269
0.000250
0.000637
0.000353
0.001186
0.000254
0.000227
0.000228
0.000273
0.000253
0.000266
0.000268
0.000346
0.000057
0.000280
0.000352
0.000199
0.000207
0.000242
0.000244
0.000240
0.000230
0.001416
0.000539
0.000401
0.000273
0.000211
0.000212
0.000246
0.000251
0.000253
0.000277
0.000257
0.000317
0.000312
0.000546
0.000372
0.001376
0.000239
0.000249
0.000278
0.000263
0.000268
0.000313
0.000469
0.000055
0.000262
0.000222
0.000237
0.000236
0.000225
0.000231
0.000266
0.000245
0.000280
0.001546
0.000371
0.000259
0.000264
0.000258
0.000468
0.000295
0.000402
0.000461
0.000336
0.000313
0.000486
0.000441
0.001293
0.000234
0.000229
0.000225
0.001780
0.000436
0.000571
0.000319
0.000152
0.000056
0.000204
0.000195
0.000244
0.000233
0.000265
0.000232
0.000359
0.000412
0.000543
0.000366
0.000312
0.000216
0.000206
0.000254
0.000268
0.000261
0.000271
0.000254
0.000235
0.000272
0.000260
0.000433
0.001338
0.000245
0.000244
0.000262
0.001894
0.000398
0.000358
0.000372
0.000160
0.000057
0.000235
0.000212
0.000240
0.001563
0.000400
0.000247
0.000235
0.000269
0.000250
0.000335
0.000363
0.000375
0.000352
0.000326
0.000242
0.000553
0.000322
0.001280
0.000260
0.000203
0.000227
0.000261
0.000389
0.000365
0.000660
0.000412
0.000232
0.000222
0.000256
0.000278
0.000210
0.000056
0.000196
0.000203
0.001459
0.000400
0.000211
0.000207
0.000225
0.000256
0.000252
0.000241
0.000246
0.000278
0.000270
0.000275
0.000301
0.000322
0.000436
0.000341
0.001399
0.000250
0.000245
0.000255
0.000262
0.000263
0.000385
0.000485
0.000451
0.000287
0.000287
0.000252
0.000406
0.000056
0.000218
0.000204
0.000257
0.000259
0.001572
0.000240
0.000259
0.000244
0.000255
0.000256
0.000253
0.000260
0.000254
0.000256
0.000304
0.000624
0.001458
0.000735
0.000233
0.000307
0.000250
0.000226
0.000230
0.000275
0.001760
0.000719
0.000267
0.000233
0.000278
0.000290
0.000202
0.000057
0.000182
0.000207
0.000252
0.000241
0.000249
0.000250
0.000249
0.000251
0.000248
0.000229
0.000286
0.000279
0.000255
0.000255
0.000257
0.000258
0.000260
0.001600
0.000734
0.000354
0.000340
0.000217
0.000228
0.000281
0.000269
0.000265
0.000268
0.000257
0.001526
0.000311
0.000381
0.000056
0.000214
0.000200
0.000233
0.000253
0.000254
0.000236
0.000260
0.000244
0.000256
0.000266
0.000243
0.000452
0.000419
0.000362
0.000221
0.000229
0.000263
0.001457
0.000692
0.000419
0.000306
0.000314
0.000212
0.000246
0.000271
0.000263
0.000243
0.000269
0.001480
0.000450
0.000224
0.000055
0.000209
0.000222
0.000223
0.000245
0.000248
0.000257
0.000235
0.000245
0.000268
0.000257
0.000455
0.000369
0.000260
0.000227
0.000243
0.000238
0.000282
0.000236
0.001589
0.000672
0.000387
0.000352
0.000232
0.000241
0.000263
0.000280
0.000247
0.000277
0.000268
0.001456
0.000273
0.000056
0.000217
0.000205
0.000218
0.000255
0.000253
0.000246
0.000290
0.000352
0.000375
0.000478
0.000335
0.000363
0.000311
0.000209
0.000232
0.000243
0.000297
0.000238
0.001423
0.000864
0.000309
0.000201
0.000476
0.000227
0.000234
0.000221
0.000277
0.000262
0.000262
0.000272
0.000436
0.000055
0.000300
0.000220
0.000202
0.000241
0.000253
0.000253
0.000230
0.000233
0.000257
0.000256
0.000258
0.000233
0.000262
0.000527
0.000529
0.000316
0.000230
0.000259
0.000258
0.000250
0.000263
0.000364
0.001378
0.001055
0.000244
0.000223
0.000279
0.000256
0.000278
0.000251
0.000224
0.000055
0.000211
0.001370
0.000261
0.000216
0.000196
0.000252
0.000249
0.000240
0.000236
0.000252
0.000259
0.000263
0.000239
0.000460
0.000280
0.000508
0.000266
0.000214
0.000262
0.000271
0.000269
0.000257
0.000232
0.000263
0.001458
0.000630
0.000306
0.000402
0.000369
0.000403
0.000254
0.000056
0.000195
0.000278
0.000308
0.001293
0.000239
0.000265
0.000217
0.000237
0.000251
0.000259
0.000253
0.000256
0.000266
0.000523
0.000412
0.000325
0.000222
0.000302
0.000269
0.000225
0.000233
0.000275
0.000243
0.000258
0.000267
0.001531
0.000759
0.000288
0.000273
0.000281
0.000204
0.000057
0.000181
0.000221
0.000463
0.000541
0.001150
0.000243
0.000207
0.000219
0.000224
0.000246
0.000245
0.000257
0.000234
0.000231
0.000257
0.000260
0.000269
0.000234
0.000251
0.000266
0.000263
0.000270
0.000323
0.000312
0.000235
0.000258
0.000252
0.001542
0.000224
0.000231
0.000159
0.000056
0.000202
0.000199
0.000248
0.000350
0.000344
0.000341
0.000399
0.000241
0.001559
0.000267
0.000280
0.000463
0.000404
0.000209
0.000484
0.000223
0.000218
0.000239
0.000262
0.000270
0.000278
0.000269
0.000261
0.000268
0.000271
0.000411
0.000495
0.000267
0.001521
0.000265
0.000164
0.000057
0.000223
0.000211
0.000245
0.000249
0.000247
0.000241
0.000263
0.000307
0.000437
0.002071
0.000213
0.000206
0.000249
0.000257
0.000261
0.000314
0.000265
0.000212
0.000288
0.000404
0.000423
0.000382
0.001527
0.000219
0.000251
0.000475
0.001770
0.000276
0.000262
0.001486
0.000196
0.000055
0.000261
0.000323
0.000465
0.000247
0.000261
0.000234
0.000251
0.000265
0.000266
0.000237
0.000246
0.000334
0.000495
0.000280
0.000415
0.000280
0.000215
0.001552
0.000492
0.001999
0.000321
0.000227
0.000217
0.001609
0.001991
0.000724
0.000275
0.000216
0.000282
0.000596
0.000198
0.000056
0.000221
0.000230
0.000231
0.000250
0.001486
0.001665
0.001081
0.000232
0.000210
0.001605
0.001951
0.000221
0.000337
0.000397
0.000284
0.000387
0.000473
0.000303
0.000253
0.000230
0.000249
0.000265
0.000261
0.001559
0.001312
0.001420
0.000262
0.000237
0.000270
0.000297
0.000373
0.000057
0.000215
0.000240
0.000198
0.000242
0.000237
0.000252
0.000237
0.000253
0.000250
0.000246
0.000248
0.000312
0.000407
0.000554
0.000304
0.000203
0.000222
0.000267
0.000270
0.000281
0.000240
0.001368
0.000591
0.000336
0.002072
0.000256
0.000241
0.000389
0.000424
0.000444
0.000142
0.000057
0.000215
0.000361
0.000427
0.000311
0.000220
0.000236
0.000224
0.000256
0.000233
0.000246
0.000250
0.000275
0.000242
0.001638
0.002375
0.000315
0.000200
0.000232
0.000217
0.000242
0.000284
0.000278
0.000247
0.000256
0.002273
0.000214
0.000218
0.000285
0.000323
0.000303
0.000237
0.000055
0.000184
0.000376
0.000598
0.000315
0.000232
0.000189
0.000226
0.000260
0.001892
0.001428
0.000262
0.000385
0.000397
0.000348
0.000252
0.000219
0.000227
0.000273
0.000257
0.000262
0.000283
0.000265
0.000453
0.000249
0.000251
0.000279
0.000247
0.000277
0.000280
0.000253
0.000215
0.000056
0.000198
0.000220
0.000255
0.000244
0.000259
0.000250
0.001550
0.001494
0.001314
0.000228
0.000199
0.000223
0.000263
0.000262
0.000251
0.000247
0.000251
0.002176
0.000219
0.000210
0.000249
0.000265
0.000249
0.000274
0.000266
0.000256
0.000262
0.000265
0.000268
0.000263
0.000193
0.000057
0.001490
0.000319
0.002393
0.000255
0.000296
0.000296
0.000251
0.000247
0.000263
0.000249
0.000249
0.000259
0.000235
0.000229
0.000274
0.000252
0.000272
0.000265
0.000252
0.000274
0.000261
0.000280
0.000274
0.000276
0.000237
0.000249
0.000267
0.000265
0.000261
0.000271
0.000393
0.000057
0.000191
0.002549
0.000344
0.000196
0.000222
0.000206
0.000237
0.000259
0.000254
0.000281
0.000461
0.000352
0.000277
0.000224
0.000223
0.002226
0.000216
0.000223
0.000227
0.000503
0.000414
0.000310
0.000207
0.000245
0.000261
0.000252
0.000283
0.000259
0.000271
0.001708
0.001182
0.000058
0.000197
0.000207
0.000304
0.000417
0.000355
0.000253
0.000228
0.000211
0.000246
0.000262
0.000265
0.000251
0.000234
0.000248
0.000262
0.000237
0.000369
0.000561
0.000395
0.000235
0.000243
0.000237
0.000284
0.000264
0.000250
0.000259
0.000244
0.000281
0.000242
0.000281
0.000407
0.000056
0.001115
0.000234
0.000311
0.000472
0.000328
0.000203
0.000213
0.000229
0.002266
0.000437
0.000267
0.000367
0.000216
0.000283
0.000336
0.000262
0.000267
0.000257
0.000262
0.000254
0.000238
0.000310
0.000611
0.000477
0.001788
0.001368
0.000672
0.000379
0.000215
0.000254
0.000213
0.000057
0.000310
0.000272
0.000233
0.000238
0.000235
0.000248
0.000254
0.000228
0.000258
0.000253
0.000256
0.000252
0.000240
0.000240
0.000363
0.000558
0.001879
0.001330
0.000394
0.000432
0.000427
0.000257
0.000247
0.000251
0.002196
0.000492
0.000374
0.000243
0.000277
0.000289
0.000206
0.000056
0.000198
0.000229
0.000254
0.000241
0.000245
0.000357
0.000417
0.000367
0.000293
0.000206
0.000222
0.000287
0.000236
0.002081
0.000384
0.000375
0.000250
0.000216
0.000272
0.000257
0.000255
0.002432
0.000366
0.000223
0.000255
0.000258
0.000244
0.000277
0.000271
0.000287
0.000212
0.000056
0.000246
0.000351
0.000505
0.000411
0.000225
0.000201
0.000202
0.000259
0.000259
0.000259
0.002116
0.000298
0.000268
0.000249
0.000205
0.000249
0.000270
0.000256
0.002268
0.000384
0.000219
0.000266
0.000263
0.000271
0.000250
0.000253
0.000278
0.000263
0.000265
0.000251
0.000206
0.000056
0.000220
0.000209
0.000256
0.000219
0.000241
0.000271
0.000231
0.000243
0.000234
0.002177
0.000242
0.000274
0.000216
0.000490
0.000204
0.000220
0.000260
0.000284
0.000264
0.000258
0.002033
0.000243
0.000378
0.000363
0.000494
0.000331
0.000289
0.000244
0.000233
0.000257
0.000208
0.000056
0.000199
0.000221
0.000227
0.000251
0.000252
0.000388
0.000199
0.002335
0.000212
0.000218
0.000232
0.000261
0.000238
0.000246
0.000299
0.002209
0.000517
0.000230
0.000244
0.000238
0.000263
0.000259
0.000289
0.000266
0.000260
0.000256
0.000301
0.000241
0.000259
0.000316
0.000163
0.000056
0.000190
0.003008
0.000241
0.000243
0.000223
0.000244
0.000249
0.000265
0.000419
0.000438
0.002082
0.000253
0.000251
0.000252
0.000284
0.000541
0.000412
0.000296
0.000219
0.000219
0.000243
0.000257
0.000269
0.000244
0.000239
0.000275
0.000264
0.000265
0.000372
0.000630
0.000330
0.000056
0.000190
0.000269
0.000275
0.000201
0.000244
0.000245
0.000249
0.000246
0.001619
0.002050
0.000517
0.000273
0.000444
0.000724
0.000346
0.000215
0.000211
0.000244
0.000270
0.000251
0.000262
0.000241
0.000249
0.000276
0.001825
0.001447
0.000296
0.000352
0.000230
0.000342
0.000362
0.000056
0.001936
0.000231
0.000228
0.000208
0.000264
0.000399
0.000437
0.000313
0.000321
0.000229
0.000210
0.000221
0.000254
0.000257
0.000260
0.000267
0.000250
0.000264
0.001908
0.000213
0.000217
0.000240
0.000264
0.000281
0.000274
0.000260
0.001521
0.000351
0.000222
0.000234
0.000168
0.000072
0.000199
0.000201
0.000229
0.000241
0.000254
0.000242
0.000315
0.000353
0.000386
0.000395
0.000194
0.000216
0.000335
0.000321
0.000376
0.000321
0.000219
0.000221
0.000265
0.000362
0.000542
0.000408
0.000235
0.000233
0.000261
0.000251
0.000253
0.000269
0.000272
0.000267
0.000213
0.000056
0.001427
0.000405
0.000229
0.002014
0.000238
0.000437
0.000363
0.000392
0.000206
0.000207
0.000263
0.000250
0.000245
0.000249
0.000260
0.000262
0.000458
0.000257
0.000463
0.000351
0.000358
0.000235
0.000233
0.000267
0.000332
0.000222
0.000251
0.000267
0.000316
0.000571
0.001356
0.000056
0.000187
0.000207
0.002076
0.000295
0.000307
0.000265
0.000257
0.000269
0.000251
0.000246
0.000224
0.000254
0.000267
0.000249
0.000272
0.000322
0.000718
0.001741
0.000265
0.000251
0.000261
0.000254
0.000327
0.000556
0.001507
0.000274
0.000365
0.002011
0.000229
0.000241
0.000189
0.000056
0.000206
0.000216
0.000218
0.000251
0.000230
0.000246
0.000264
0.000257
0.000345
0.000307
0.000383
0.000367
0.000326
0.000290
0.000219
0.000275
0.000255
0.000234
0.000260
0.000264
0.000278
0.000308
0.000263
0.000258
0.000272
0.001590
0.000284
0.000399
0.001982
0.000256
0.000177
0.000056
0.000217
0.000234
0.000226
0.000248
0.000463
0.000222
0.000256
0.000351
0.000366
0.000368
0.000225
0.000229
0.000255
0.000262
0.000278
0.000326
0.000438
0.000416
0.000266
0.000363
0.000592
0.000494
0.001495
0.000260
0.000235
0.002038
0.000337
0.000223
0.000219
0.000262
0.000209
0.000055
0.000191
0.000224
0.000230
0.000244
0.000258
0.000255
0.000261
0.000263
0.000257
0.000246
0.001891
0.000287
0.000396
0.000329
0.000454
0.000397
0.001474
0.000342
0.000206
0.000309
0.002105
0.000540
0.000271
0.000227
0.000223
0.000269
0.000496
0.000239
0.000263
0.000261
0.000217
0.000055
0.000308
0.000315
0.000397
0.000278
0.000206
0.000217
0.000256
0.000249
0.000273
0.000294
0.000223
0.000249
0.000252
0.000255
0.000353
0.000512
0.001271
0.000258
0.000430
0.001930
0.000284
0.000244
0.000213
0.000252
0.000248
0.000280
0.000263
0.000266
0.000253
0.000269
0.000209
0.000056
0.000357
0.000283
0.002076
0.000230
0.000240
0.000232
0.000241
0.000280
0.000561
0.001364
0.000337
0.000374
0.000329
0.001993
0.000235
0.000238
0.000263
0.000273
0.000266
0.000226
0.000294
0.000286
0.000265
0.000304
0.000576
0.000402
0.000261
0.002203
0.000506
0.000492
0.000418
0.000055
0.000212
0.000219
0.000221
0.002034
0.000204
0.000226
0.000210
0.000250
0.000229
0.000271
0.000230
0.000266
0.000251
0.000279
0.000526
0.000343
0.001289
0.000245
0.000269
0.000263
0.000233
0.000244
0.000272
0.000262
0.000377
0.000521
0.000342
0.000251
0.001692
0.000219
0.000147
0.000057
0.000195
0.000204
0.000232
0.000233
0.000250
0.000263
0.000246
0.000250
0.000250
0.000393
0.000376
0.001459
0.000204
0.000218
0.000216
0.000262
0.000260
0.000254
0.000270
0.000500
0.000582
0.000292
0.000228
0.001551
0.000271
0.000222
0.000287
0.000280
0.000273
0.000256
0.000214
0.000056
0.000218
0.000198
0.000266
0.000266
0.000254
0.000241
0.000239
0.000236
0.000260
0.000243
0.000252
0.000268
0.000243
0.000258
0.001575
0.000228
0.000263
0.000249
0.000342
0.000322
0.000364
0.000252
0.000209
0.000256
0.000255
0.000264
0.001465
0.000295
0.000211
0.000241
0.000158
0.000055
0.000218
0.000203
0.000247
0.000255
0.000273
0.000223
0.000247
0.000267
0.000221
0.000266
0.000237
0.000260
0.000230
0.000289
0.000381
0.000376
0.000284
0.001585
0.000334
0.000212
0.000221
0.000226
0.000260
0.000374
0.000353
0.000453
0.000407
0.000237
0.000223
0.001603
0.000181
0.000055
0.000378
0.000358
0.000299
0.000300
0.000211
0.000210
0.000242
0.000268
0.000257
0.000236
0.000243
0.000236
0.001485
0.000349
0.000258
0.000210
0.000227
0.000263
0.000263
0.000266
0.000259
0.000232
0.000269
0.000268
0.000273
0.000315
0.000566
0.000340
0.000263
0.000222
0.000197
0.000055
0.000213
0.000220
0.000420
0.000445
0.000339
0.000248
0.000219
0.000251
0.000251
0.000256
0.000247
0.000244
0.000229
0.000251
0.001358
0.000244
0.000225
0.000216
0.000266
0.000269
0.000235
0.000267
0.000262
0.000254
0.000252
0.000259
0.000329
0.000683
0.000454
0.000234
0.000187
0.000056
0.000182
0.001533
0.000274
0.000297
0.000585
0.000291
0.000205
0.000236
0.000263
0.000254
0.000245
0.000257
0.000272
0.000273
0.000272
0.001531
0.000232
0.000287
0.000262
0.000255
0.000264
0.000257
0.000262
0.000265
0.000263
0.000319
0.000416
0.000357
0.000375
0.000238
0.000158
0.000056
0.000201
0.000219
0.000238
0.001700
0.000461
0.000284
0.000196
0.000222
0.000243
0.000266
0.000270
0.000261
0.000249
0.000268
0.000234
0.000265
0.000456
0.001336
0.000209
0.000250
0.001517
0.000444
0.000426
0.000414
0.000282
0.000231
0.000278
0.000449
0.000242
0.000254
0.000202
0.000055
0.000281
0.000219
0.000227
0.000232
0.000252
0.000254
0.000237
0.000257
0.000263
0.000229
0.000261
0.000252
0.000433
0.000458
0.001589
0.001484
0.000388
0.000555
0.000284
0.000242
0.000228
0.000265
0.000266
0.000233
0.000258
0.000265
0.000262
0.000272
0.001589
0.000318
0.000142
0.000056
0.000231
0.000342
0.000346
0.000333
0.000254
0.000212
0.000206
0.000427
0.000344
0.001429
0.000352
0.001535
0.000406
0.000428
0.000454
0.000265
0.000348
0.000348
0.000330
0.000272
0.000248
0.000352
0.001552
0.000529
0.000246
0.000249
0.000276
0.000242
0.000249
0.000265
0.000217
0.000056
0.000188
0.000228
0.000255
0.000252
0.000249
0.001655
0.000951
0.000895
0.000261
0.000224
0.000260
0.000249
0.000250
0.000263
0.000256
0.000252
0.000252
0.000266
0.000264
0.000282
0.001497
0.000272
0.000254
0.000222
0.000226
0.000250
0.000263
0.000281
0.000266
0.000279
0.000202
0.000056
0.000199
0.000207
0.001530
0.001012
0.000291
0.000360
0.000207
0.000207
0.000248
0.000253
0.000258
0.000241
0.000246
0.002096
0.000426
0.000208
0.000210
0.000246
0.000257
0.000260
0.000200
