0.000164
0.017572
0.004092
0.000282
0.000219
0.000248
0.000304
0.000252
0.000325
0.000293
0.000243
0.000384
0.000497
0.000525
0.000413
0.000256
0.000289
0.000380
0.000394
0.000415
0.000311
0.001809
0.000535
0.000454
0.000249
0.000287
0.000318
0.000415
0.000416
0.000376
0.000490
0.000373
0.000058
0.000205
0.000231
0.000267
0.000263
0.000292
0.000239
0.000289
0.000240
0.000274
0.000290
0.000412
0.000489
0.000299
0.000288
0.000396
0.000363
0.000349
0.000248
0.000229
0.001726
0.000290
0.000205
0.000526
0.000241
0.000246
0.000242
0.000283
0.000296
0.000280
0.000333
0.000459
0.000056
0.000191
0.000214
0.000258
0.000259
0.000256
0.000245
0.000262
0.000262
0.000278
0.001680
0.000229
0.000239
0.000251
0.000274
0.000272
0.000254
0.000272
0.000258
0.000347
0.001799
0.000263
0.000247
0.000465
0.000465
0.000376
0.000247
0.000294
0.000447
0.000484
0.000782
0.000172
0.000056
0.000224
0.000214
0.000253
0.000240
0.000315
0.000260
0.000325
0.000516
0.000456
0.000267
0.000206
0.000210
0.000244
0.000251
0.000257
0.000250
0.000242
0.000273
0.000294
0.000345
0.001720
0.000243
0.000242
0.000470
0.000278
0.000689
0.000642
0.000494
0.000354
0.000235
0.000221
0.000057
0.000186
0.000226
0.000257
0.000249
0.000251
0.000259
0.000253
0.000469
0.001487
0.000243
0.000225
0.000234
0.000251
0.000256
0.000263
0.000282
0.000278
0.000857
0.001329
0.000289
0.000259
0.000420
0.000259
0.000243
0.000245
0.000259
0.000281
0.000253
0.000259
0.000271
0.000217
0.000055
0.000236
0.000207
0.000221
0.000243
0.000260
0.000244
0.000241
0.000256
0.000239
0.000252
0.001711
0.000233
0.000227
0.000228
0.000235
0.000246
0.000236
0.000250
0.000260
0.000260
0.000256
0.001754
0.000236
0.000260
0.000464
0.000244
0.000224
0.000245
0.000258
0.000260
0.000220
0.000057
0.000196
0.000203
0.000247
0.000239
0.000239
0.000246
0.000265
0.000233
0.000267
0.000240
0.000272
0.000249
0.000268
0.000271
0.001637
0.000270
0.000295
0.000238
0.000234
0.000272
0.000267
0.000239
0.000264
0.000252
0.000268
0.001828
0.000410
0.000344
0.000276
0.000270
0.000218
0.000056
0.000221
0.000185
0.000237
0.000277
0.000254
0.000225
0.000349
0.000356
0.000443
0.000405
0.000214
0.000234
0.000254
0.000247
0.001697
0.000462
0.000325
0.000400
0.000280
0.000210
0.000267
0.000276
0.000271
0.001855
0.000410
0.000521
0.000235
0.000204
0.000237
0.000268
0.000201
0.000056
0.000186
0.000223
0.000253
0.000244
0.000324
0.000459
0.000408
0.000277
0.000202
0.000218
0.000260
0.000243
0.000266
0.001687
0.000513
0.000297
0.000217
0.000244
0.000264
0.000280
0.000254
0.000259
0.000281
0.001882
0.000317
0.000394
0.000250
0.000234
0.000320
0.000400
0.000321
0.000056
0.000195
0.000380
0.000389
0.000270
0.000255
0.000211
0.000242
0.000251
0.000244
0.000249
0.000228
0.000245
0.001626
0.000352
0.000290
0.000219
0.000221
0.000250
0.000243
0.000281
0.000271
0.000332
0.001802
0.000347
0.000226
0.000505
0.000213
0.000228
0.000248
0.000264
0.000302
0.000057
0.000382
0.000635
0.000516
0.000204
0.000201
0.000266
0.000227
0.000223
0.000257
0.000254
0.000247
0.001711
0.000282
0.000394
0.000385
0.000221
0.000240
0.000220
0.000246
0.000259
0.000277
0.001846
0.000243
0.000225
0.002251
0.000450
0.000250
0.000270
0.000252
0.000261
0.000203
0.000056
0.000203
0.000211
0.000249
0.000251
0.000247
0.001702
0.000204
0.000211
0.000239
0.000254
0.000239
0.000252
0.000258
0.000246
0.000256
0.000493
0.000627
0.000204
0.000217
0.000271
0.000273
0.000261
0.000227
0.000504
0.000431
0.000237
0.000376
0.000534
0.000471
0.000213
0.000202
0.000056
0.000172
0.000204
0.000257
0.000245
0.000247
0.000234
0.000238
0.000515
0.000429
0.001588
0.000258
0.000217
0.000241
0.000251
0.000279
0.000241
0.000413
0.000560
0.000373
0.000239
0.000201
0.000276
0.000306
0.000284
0.000286
0.000404
0.000428
0.000597
0.000408
0.000478
0.000146
0.000057
0.000191
0.000230
0.000222
0.000241
0.000234
0.000237
0.000251
0.000237
0.000264
0.000363
0.000339
0.001560
0.000280
0.000210
0.000201
0.000215
0.000272
0.000245
0.000248
0.000246
0.000324
0.000397
0.000414
0.000347
0.000216
0.000238
0.000248
0.000266
0.000274
0.000264
0.000428
0.000056
0.000201
0.000219
0.000228
0.000364
0.000455
0.000412
0.000260
0.000233
0.000239
0.000261
0.000243
0.000242
0.000285
0.000261
0.000237
0.000564
0.000417
0.001567
0.000262
0.000257
0.000248
0.000262
0.000260
0.000247
0.000265
0.000458
0.000494
0.000488
0.000243
0.000227
0.000208
0.000056
0.000215
0.000225
0.000401
0.000230
0.000263
0.000239
0.000302
0.000593
0.000315
0.000294
0.000243
0.000263
0.000262
0.000257
0.000584
0.000291
0.000221
0.000246
0.000455
0.001642
0.000260
0.000208
0.000316
0.000404
0.000274
0.000295
0.000265
0.000325
0.000572
0.000392
0.000267
0.000056
0.000202
0.000218
0.000235
0.000236
0.000486
0.000251
0.000290
0.000221
0.000371
0.000547
0.000389
0.000255
0.000199
0.000218
0.000245
0.000269
0.000259
0.000255
0.000223
0.000375
0.000278
0.000615
0.001555
0.000273
0.000230
0.000249
0.000316
0.000365
0.000574
0.000573
0.000409
0.000056
0.000270
0.000308
0.000311
0.000422
0.000325
0.000206
0.000251
0.000272
0.000661
0.000303
0.000317
0.000199
0.000214
0.000266
0.000271
0.000237
0.000241
0.000275
0.000267
0.000260
0.000269
0.000391
0.001779
0.000314
0.000348
0.000419
0.000380
0.000247
0.000395
0.000390
0.000350
0.000057
0.000240
0.000382
0.000286
0.000209
0.000230
0.000217
0.000467
0.000219
0.000216
0.000395
0.000364
0.000381
0.000313
0.000272
0.000237
0.000294
0.000366
0.000458
0.000290
0.000217
0.000212
0.000382
0.000623
0.001689
0.000273
0.000391
0.000320
0.000246
0.000241
0.000476
0.000292
0.000058
0.000193
0.000189
0.000244
0.000247
0.000242
0.000254
0.000245
0.000349
0.000470
0.000268
0.000508
0.000346
0.000302
0.000197
0.000535
0.000264
0.000265
0.000269
0.000241
0.000352
0.000226
0.000231
0.000273
0.000334
0.000684
0.001601
0.000241
0.000239
0.000238
0.000242
0.000204
0.000057
0.000317
0.000431
0.000379
0.000204
0.000249
0.000225
0.000250
0.000244
0.000249
0.000252
0.000234
0.000494
0.000269
0.000556
0.000328
0.000286
0.000226
0.000238
0.000368
0.000365
0.000357
0.000381
0.000368
0.000373
0.000250
0.000211
0.000255
0.000269
0.001789
0.000274
0.000199
0.000056
0.000187
0.000206
0.000247
0.000265
0.000369
0.000538
0.000332
0.000230
0.000227
0.000274
0.000248
0.000238
0.000535
0.000457
0.000460
0.000308
0.000270
0.000258
0.000434
0.000485
0.000375
0.000423
0.000563
0.000342
0.000239
0.000246
0.000237
0.000226
0.000259
0.001792
0.000289
0.000055
0.000291
0.000318
0.000206
0.000221
0.000256
0.000236
0.000300
0.000446
0.000429
0.000337
0.000272
0.000259
0.000392
0.000607
0.000369
0.000204
0.000220
0.000249
0.000236
0.000272
0.000263
0.000285
0.000229
0.000263
0.000334
0.000366
0.000472
0.000343
0.000216
0.000211
0.000196
0.000056
0.000456
0.000288
0.000442
0.000262
0.000206
0.000229
0.000242
0.000256
0.000282
0.000181
0.000244
0.000277
0.000296
0.000314
0.000587
0.000464
0.000317
0.000371
0.000365
0.000393
0.000266
0.000212
0.000217
0.000255
0.001820
0.000226
0.001766
0.000960
0.000307
0.000382
0.000140
0.000056
0.000199
0.000208
0.000232
0.000231
0.000260
0.000252
0.000253
0.000253
0.000266
0.000308
0.000362
0.000531
0.000291
0.000401
0.000245
0.000225
0.000266
0.000294
0.000227
0.000220
0.000246
0.000230
0.001813
0.000269
0.000222
0.000270
0.000276
0.000266
0.001885
0.000474
0.000325
0.000056
0.000200
0.000218
0.000210
0.000242
0.000255
0.000241
0.000240
0.000258
0.000252
0.000352
0.000547
0.000343
0.000409
0.000243
0.000210
0.000292
0.000382
0.000388
0.000374
0.000254
0.001805
0.000229
0.000223
0.000229
0.000255
0.000269
0.000255
0.000249
0.000264
0.000359
0.000434
0.000056
0.000239
0.000219
0.000205
0.000259
0.000247
0.000240
0.000264
0.000250
0.000255
0.000248
0.000239
0.000364
0.000236
0.000428
0.000356
0.000319
0.000488
0.000204
0.000213
0.000252
0.000267
0.000255
0.000273
0.000262
0.000292
0.001771
0.000287
0.000226
0.000242
0.000247
0.000215
0.000056
0.000256
0.000361
0.000247
0.000195
0.000231
0.000229
0.000240
0.000256
0.000250
0.000245
0.000217
0.000251
0.000259
0.000290
0.000504
0.000388
0.000322
0.000205
0.000221
0.000239
0.000255
0.000261
0.000251
0.000280
0.000252
0.000250
0.000295
0.001716
0.000238
0.000230
0.000184
0.000056
0.000195
0.000216
0.000238
0.000265
0.000354
0.000496
0.000280
0.000314
0.000208
0.000246
0.000246
0.000242
0.000248
0.000258
0.000263
0.000242
0.000267
0.000247
0.000254
0.000260
0.000266
0.000264
0.000267
0.000221
0.000241
0.000290
0.000265
0.000259
0.000265
0.000257
0.000224
0.000056
0.000198
0.000203
0.000247
0.000243
0.000250
0.000248
0.000243
0.000259
0.000369
0.000201
0.000194
0.000241
0.000253
0.000253
0.000261
0.000289
0.000226
0.000260
0.000369
0.000204
0.000241
0.000279
0.000288
0.000256
0.000265
0.000289
0.000259
0.000249
0.000266
0.000438
0.000674
0.000056
0.000234
0.000302
0.000225
0.000189
0.000217
0.000248
0.000241
0.000255
0.000244
0.000243
0.000264
0.000265
0.000521
0.000485
0.001600
0.000208
0.000509
0.000212
0.000221
0.000428
0.000455
0.000400
0.000217
0.000256
0.000270
0.000252
0.000281
0.000252
0.000316
0.000259
0.000200
0.000056
0.000275
0.000450
0.000417
0.000286
0.000189
0.000235
0.000250
0.000246
0.000240
0.000244
0.000252
0.000263
0.000223
0.000319
0.000353
0.000478
0.000349
0.001804
0.000266
0.000229
0.000281
0.000483
0.000455
0.000306
0.000369
0.000254
0.000303
0.000231
0.000231
0.000242
0.000216
0.000056
0.000212
0.000196
0.000247
0.000285
0.000377
0.000426
0.000339
0.000263
0.000253
0.000218
0.000239
0.000268
0.000263
0.000263
0.000252
0.000257
0.000306
0.000479
0.000479
0.000324
0.000218
0.001819
0.000289
0.000600
0.000439
0.000437
0.000290
0.000226
0.000243
0.000266
0.000501
0.000055
0.000197
0.000228
0.000240
0.000301
0.000384
0.000514
0.000334
0.000264
0.000212
0.000320
0.000230
0.000232
0.000247
0.000368
0.000297
0.000217
0.000267
0.000349
0.000365
0.000415
0.000551
0.001780
0.000245
0.000515
0.000445
0.000349
0.000243
0.000369
0.000254
0.000199
0.000220
0.000056
0.000226
0.000328
0.000349
0.000323
0.000359
0.000293
0.000404
0.000203
0.000220
0.000263
0.000282
0.000239
0.000234
0.000251
0.000243
0.000259
0.000316
0.000359
0.000543
0.000369
0.000317
0.000212
0.000253
0.001779
0.000471
0.000357
0.000710
0.000290
0.000238
0.000301
0.000165
0.000056
0.000171
0.000211
0.000315
0.000262
0.000255
0.000409
0.000395
0.000330
0.000602
0.000218
0.000204
0.000240
0.000209
0.000277
0.000274
0.000275
0.000236
0.000308
0.000568
0.000383
0.000235
0.000243
0.000243
0.000250
0.000268
0.000268
0.000232
0.000257
0.000259
0.000367
0.000158
0.000056
0.000393
0.000250
0.000234
0.000225
0.000255
0.000256
0.000241
0.000360
0.000211
0.000211
0.000256
0.000348
0.000431
0.000432
0.000320
0.000276
0.000218
0.000259
0.000248
0.000241
0.000264
0.000316
0.000219
0.000251
0.000276
0.000324
0.000405
0.000413
0.000369
0.000227
0.000160
0.000074
0.000178
0.000206
0.000271
0.000244
0.000244
0.000248
0.000253
0.000262
0.000491
0.000253
0.000220
0.000258
0.000241
0.000251
0.000277
0.000270
0.000269
0.000374
0.000242
0.000206
0.000240
0.000271
0.000255
0.000270
0.000273
0.000265
0.000266
0.000261
0.000253
0.000510
0.000159
0.000056
0.000199
0.000218
0.000228
0.000264
0.000246
0.000229
0.000298
0.000453
0.000264
0.000228
0.000254
0.000251
0.000249
0.000281
0.000419
0.001776
0.000239
0.000263
0.000310
0.000380
0.000414
0.000342
0.000383
0.000320
0.000430
0.000365
0.000245
0.000263
0.000266
0.000277
0.001426
0.000055
0.000397
0.000292
0.000313
0.000205
0.000193
0.000240
0.000231
0.000251
0.000252
0.000256
0.000263
0.000256
0.000248
0.000245
0.000586
0.001704
0.000217
0.000200
0.000228
0.000272
0.000256
0.000226
0.000335
0.000490
0.000248
0.000336
0.000250
0.000247
0.000311
0.000211
0.000219
0.000056
0.001238
0.000527
0.000327
0.000291
0.000209
0.000205
0.000204
0.000256
0.000462
0.000246
0.000223
0.000246
0.000331
0.000572
0.000371
0.000324
0.000300
0.000243
0.000358
0.000352
0.000221
0.000231
0.000273
0.000237
0.000284
0.000552
0.000583
0.000276
0.000229
0.000273
0.000183
0.000056
0.000203
0.000202
0.000221
0.000241
0.001433
0.000369
0.000213
0.000237
0.000241
0.000249
0.000250
0.000253
0.000243
0.000266
0.000263
0.000275
0.000462
0.000648
0.000266
0.001814
0.000245
0.000296
0.000293
0.000423
0.000476
0.000438
0.000233
0.000233
0.000260
0.000269
0.000207
0.000057
0.000208
0.000239
0.000224
0.001321
0.000334
0.000196
0.000259
0.000215
0.000236
0.000236
0.000240
0.000248
0.000272
0.000250
0.000247
0.000346
0.000418
0.000515
0.000289
0.000218
0.000232
0.000285
0.000256
0.000223
0.000359
0.000216
0.000218
0.000280
0.000265
0.000329
0.000629
0.000056
0.000228
0.000208
0.000229
0.000262
0.000280
0.000231
0.000229
0.000263
0.000272
0.000249
0.001444
0.000236
0.000217
0.000256
0.000245
0.000250
0.000261
0.000263
0.000258
0.000282
0.000255
0.000499
0.000554
0.000273
0.000244
0.000260
0.001840
0.000229
0.000230
0.000338
0.000444
0.000056
0.000219
0.000430
0.000455
0.000507
0.000522
0.000529
0.001485
0.000416
0.000542
0.000650
0.000558
0.000684
0.000551
0.000585
0.000586
0.001714
0.000420
0.000494
0.000392
0.000306
0.000263
0.000279
0.000294
0.000265
0.000279
0.000269
0.000300
0.000290
0.000246
0.000293
0.001316
0.000056
0.000208
0.000240
0.000215
0.000246
0.000245
0.000248
0.000243
0.000230
0.000264
0.000265
0.000242
0.000273
0.000237
0.000247
0.000264
0.000259
0.001835
0.000265
0.000261
0.000253
0.000254
0.000282
0.000247
0.000310
0.000401
0.000404
0.000320
0.000244
0.000262
0.000291
0.000173
0.000056
0.000194
0.001397
0.000260
0.000265
0.000258
0.000232
0.000256
0.000243
0.000260
0.000241
0.000236
0.000244
0.000288
0.000401
0.000295
0.000351
0.000261
0.000294
0.001909
0.000259
0.000253
0.000262
0.000258
0.000265
0.000272
0.000258
0.000282
0.000249
0.000246
0.000296
0.000242
0.000056
0.000212
0.000224
0.000256
0.001425
0.000259
0.000271
0.000226
0.000224
0.000223
0.000260
0.000257
0.000266
0.000222
0.000252
0.000294
0.000243
0.000254
0.000280
0.000241
0.000274
0.000259
0.001839
0.000264
0.001767
0.000252
0.000247
0.000258
0.000220
0.000274
0.000282
0.000217
0.000056
0.000206
0.000242
0.001376
0.000239
0.000263
0.000216
0.000219
0.000228
0.000253
0.000256
0.000249
0.000248
0.000248
0.000264
0.000249
0.000271
0.000274
0.000252
0.000304
0.000245
0.001866
0.000281
0.001788
0.000291
0.000248
0.000244
0.000250
0.000264
0.000266
0.000258
0.000191
0.000056
0.001437
0.000237
0.000236
0.000225
0.000218
0.000217
0.000284
0.000350
0.000252
0.000259
0.000253
0.000264
0.000249
0.000332
0.000495
0.000268
0.000258
0.000266
0.000229
0.000224
0.000255
0.000347
0.000266
0.000229
0.000275
0.000278
0.000259
0.000301
0.000748
0.000345
0.000183
0.000056
0.000192
0.000289
0.000269
0.000306
0.000349
0.000276
0.001655
0.000301
0.000279
0.000258
0.000274
0.000300
0.000257
0.000270
0.000298
0.000311
0.000348
0.000505
0.000393
0.000281
0.000312
0.000283
0.000260
0.000265
0.000323
0.000268
0.000262
0.000242
0.000233
0.000290
0.000451
0.000056
0.000308
0.000374
0.000268
0.000262
0.000255
0.000224
0.000224
0.000253
0.000253
0.000252
0.001510
0.000258
0.000209
0.000248
0.000257
0.000274
0.000258
0.000266
0.000251
0.000264
0.000271
0.000381
0.000558
0.000354
0.000237
0.000285
0.000249
0.000233
0.000251
0.000239
0.000249
0.000056
0.000218
0.000195
0.000268
0.000452
0.000426
0.000254
0.000201
0.000253
0.000237
0.000287
0.000213
0.000242
0.000259
0.000274
0.000229
0.000239
0.000389
0.001298
0.000228
0.000240
0.000232
0.000246
0.000378
0.000479
0.000215
0.000233
0.000635
0.000322
0.000438
0.000222
0.000161
0.000057
0.000220
0.000219
0.000265
0.000263
0.000316
0.000192
0.000322
0.000499
0.000417
0.000302
0.000368
0.000416
0.000379
0.000358
0.000234
0.000211
0.000222
0.000237
0.000359
0.000578
0.001196
0.000247
0.000249
0.000271
0.000231
0.000237
0.000263
0.000259
0.000463
0.000550
0.000209
0.000056
0.000210
0.000208
0.000244
0.000244
0.000252
0.000245
0.000236
0.000262
0.000251
0.000449
0.000407
0.000437
0.000225
0.000201
0.000239
0.000239
0.000246
0.000268
0.000280
0.000529
0.000215
0.000209
0.000410
0.000398
0.000317
0.000236
0.000236
0.000275
0.000254
0.000290
0.000234
0.000056
0.000279
0.000300
0.000352
0.000327
0.000508
0.000322
0.000242
0.000266
0.000210
0.000274
0.000255
0.000262
0.000248
0.000252
0.000236
0.000230
0.000273
0.000492
0.000412
0.000347
0.000224
0.000255
0.000208
0.000259
0.000257
0.000269
0.000272
0.000268
0.000274
0.000274
0.000279
0.000056
0.000419
0.000177
0.000230
0.000232
0.000247
0.000261
0.000231
0.000250
0.000265
0.000263
0.000252
0.000231
0.000271
0.000568
0.000433
0.000316
0.000208
0.000201
0.000250
0.000260
0.000289
0.000238
0.000258
0.000262
0.000270
0.000280
0.000496
0.000550
0.000500
0.000216
0.000149
0.000056
0.000392
0.000216
0.000192
0.000242
0.000241
0.000256
0.000234
0.000249
0.000261
0.000254
0.000229
0.000239
0.000272
0.000226
0.000247
0.000256
0.000254
0.000260
0.000275
0.000269
0.000255
0.000261
0.000260
0.000263
0.000272
0.000273
0.000227
0.000285
0.000246
0.000289
0.000228
0.000057
0.000186
0.000197
0.000246
0.000264
0.000230
0.000239
0.000264
0.000248
0.000254
0.000279
0.000228
0.000240
0.000252
0.000403
0.000241
0.000282
0.000257
0.000288
0.000238
0.000278
0.000276
0.000237
0.000249
0.000248
0.000261
0.000278
0.000252
0.000261
0.000266
0.000268
0.000218
0.000057
0.000263
0.000377
0.000351
0.000281
0.000333
0.000201
0.000204
0.000253
0.000231
0.000242
0.000241
0.000265
0.000253
0.000244
0.000250
0.000261
0.000257
0.000276
0.000248
0.000262
0.000272
0.000260
0.000280
0.000259
0.000277
0.000277
0.000244
0.000281
0.000239
0.000272
0.000201
0.000056
0.000203
0.000216
0.000242
0.000265
0.000251
0.000459
0.000206
0.000240
0.000281
0.000372
0.000581
0.000329
0.000197
0.000242
0.000246
0.000270
0.000240
0.000267
0.000267
0.000259
0.000266
0.000260
0.000281
0.000235
0.000614
0.000488
0.000243
0.000273
0.000269
0.000265
0.000203
0.000056
0.000186
0.000195
0.000240
0.000256
0.000275
0.000677
0.000345
0.000364
0.000239
0.000231
0.000240
0.000260
0.000259
0.000247
0.000253
0.000270
0.000261
0.000243
0.000625
0.000410
0.000324
0.000211
0.000251
0.000283
0.000282
0.000266
0.000258
0.000265
0.000255
0.000342
0.000333
0.000056
0.000282
0.000226
0.000220
0.000231
0.000255
0.000254
0.000238
0.000238
0.000248
0.000252
0.000247
0.000251
0.000265
0.000411
0.000525
0.000453
0.000221
0.000225
0.000252
0.000261
0.000259
0.000268
0.000473
0.000253
0.000253
0.000653
0.000390
0.000455
0.000271
0.000253
0.000189
0.000056
0.000211
0.000205
0.000251
0.000243
0.000244
0.000257
0.000302
0.000572
0.000508
0.000359
0.000250
0.000237
0.000273
0.000283
0.000288
0.000225
0.000229
0.000248
0.000261
0.000290
0.000529
0.000497
0.000432
0.000275
0.000447
0.000345
0.000476
0.000219
0.000241
0.000427
0.000332
0.000057
0.000261
0.000211
0.000483
0.000207
0.000235
0.000223
0.000245
0.000256
0.000235
0.000241
0.000259
0.000434
0.000395
0.000331
0.000240
0.000194
0.000276
0.000236
0.000266
0.000271
0.000270
0.000262
0.000257
0.000258
0.000291
0.000515
0.000479
0.000257
0.000240
0.000280
0.000213
0.000057
0.000174
0.000232
0.000236
0.000237
0.000247
0.000256
0.000444
0.000360
0.000451
0.000260
0.000347
0.000247
0.000216
0.000265
0.000260
0.000245
0.000241
0.000262
0.000289
0.000437
0.000525
0.000281
0.000431
0.000360
0.000389
0.000388
0.000382
0.000253
0.000226
0.000259
0.000379
0.000056
0.000226
0.000287
0.000202
0.000242
0.000271
0.000244
0.000246
0.000250
0.000254
0.000264
0.000243
0.000358
0.000508
0.000311
0.000373
0.000252
0.000242
0.000253
0.000285
0.000222
0.000252
0.000254
0.000258
0.000276
0.000273
0.000333
0.000484
0.000489
0.000259
0.000257
0.000210
0.000055
0.000190
0.000220
0.000257
0.000250
0.000247
0.000348
0.000469
0.000534
0.000352
0.000660
0.000285
0.000228
0.000214
0.000262
0.000235
0.000273
0.000279
0.000266
0.000482
0.000581
0.001482
0.000252
0.000261
0.000259
0.000299
0.000216
0.000381
0.000403
0.000407
0.000304
0.000157
0.000057
0.000188
0.000213
0.000237
0.000248
0.000236
0.000257
0.000264
0.000260
0.000248
0.000367
0.000352
0.000363
0.000276
0.000385
0.000385
0.000332
0.000224
0.000215
0.000247
0.000261
0.000238
0.000249
0.000283
0.000263
0.000332
0.000536
0.000360
0.000279
0.000222
0.000251
0.000208
0.000055
0.000172
0.000224
0.000256
0.000256
0.000245
0.000231
0.000458
0.000238
0.000229
0.000252
0.000246
0.000244
0.000263
0.000256
0.000250
0.000273
0.000261
0.000257
0.000274
0.000269
0.000248
0.000330
0.000256
0.000257
0.000244
0.000279
0.000268
0.000267
0.000267
0.000266
0.000200
0.000056
0.000199
0.000220
0.000318
0.000472
0.000393
0.000199
0.000200
0.000250
0.000252
0.000248
0.000243
0.000266
0.000253
0.000260
0.000243
0.000241
0.000246
0.000276
0.000245
0.000404
0.000405
0.000422
0.000214
0.000256
0.000265
0.000257
0.000268
0.000254
0.000267
0.000283
0.000212
0.000056
0.000336
0.000429
0.000358
0.000239
0.000220
0.000258
0.000481
0.000190
0.000226
0.000228
0.000279
0.000335
0.000390
0.000425
0.001762
0.000262
0.000258
0.000236
0.000270
0.000250
0.000297
0.000583
0.000513
0.000323
0.000232
0.000234
0.000272
0.000428
0.000274
0.000286
0.000181
0.000056
0.000245
0.000363
0.000278
0.000322
0.000511
0.000229
0.000205
0.000246
0.000261
0.000238
0.000254
0.000249
0.000266
0.000353
0.000361
0.000512
0.000251
0.000201
0.000251
0.000304
0.000215
0.000323
0.000237
0.000284
0.000270
0.000441
0.000518
0.000410
0.000474
0.000230
0.000195
0.000074
0.000209
0.000201
0.000244
0.000232
0.000249
0.000244
0.000269
0.000269
0.000369
0.000459
0.000325
0.000377
0.000214
0.000233
0.000262
0.000269
0.000340
0.000229
0.000263
0.000274
0.000249
0.000329
0.000455
0.000354
0.000276
0.000287
0.000242
0.000519
0.000398
0.000270
0.000168
0.000056
0.000169
0.000241
0.000319
0.000452
0.000340
0.000228
0.000220
0.000247
0.000262
0.000258
0.000260
0.000258
0.000229
0.000259
0.000255
0.000278
0.000526
0.000268
0.000266
0.000374
0.000466
0.000234
0.000274
0.000267
0.000310
0.000282
0.000278
0.000239
0.000483
0.000528
0.000201
0.000055
0.000202
0.000220
0.000237
0.000265
0.000249
0.000459
0.000225
0.000236
0.000267
0.000329
0.000544
0.000531
0.000242
0.000226
0.000242
0.000255
0.000267
0.000232
0.000248
0.000262
0.000247
0.000277
0.000372
0.000468
0.000381
0.000320
0.000350
0.000341
0.000302
0.000223
0.000166
0.000056
0.000205
0.000223
0.000239
0.000488
0.000325
0.000372
0.000257
0.000212
0.000199
0.000245
0.000258
0.000245
0.000255
0.000250
0.000314
0.000213
0.000242
0.000250
0.000244
0.000453
0.000586
0.000299
0.000212
0.000238
0.000264
0.000297
0.000240
0.000269
0.000262
0.000262
0.000220
0.000055
0.000234
0.000435
0.000493
0.000216
0.000207
0.000212
0.000309
0.000529
0.000261
0.000200
0.000220
0.000269
0.000266
0.000412
0.000482
0.000336
0.000211
0.000209
0.000299
0.000204
0.000263
0.000265
0.000259
0.000273
0.000269
0.000291
0.000446
0.000470
0.000282
0.000223
0.000160
0.000056
0.000201
0.000218
0.000244
0.000277
0.000232
0.000256
0.000239
0.000255
0.000251
0.000246
0.000267
0.000244
0.000250
0.001466
0.000252
0.000226
0.000257
0.000249
0.000275
0.000275
0.000261
0.000239
0.000285
0.000254
0.000262
0.000265
0.000275
0.000270
0.000265
0.000280
0.000200
0.000056
0.000186
0.000225
0.000228
0.000247
0.000243
0.000243
0.000251
0.000258
0.000235
0.000246
0.000245
0.000266
0.000255
0.000253
0.000263
0.000251
0.000258
0.000252
0.000274
0.000254
0.000261
0.000249
0.000255
0.000252
0.001359
0.000279
0.000513
0.000472
0.000361
0.000215
0.000155
0.000056
0.000179
0.000197
0.000240
0.000541
0.000211
0.000228
0.000210
0.000200
0.000243
0.000315
0.000569
0.000350
0.000224
0.000199
0.000232
0.000259
0.000252
0.000263
0.000256
0.000257
0.000258
0.000258
0.000265
0.000419
0.000566
0.000386
0.000245
0.000250
0.001361
0.000280
0.000179
0.000057
0.000310
0.000419
0.000372
0.000225
0.000195
0.000205
0.000231
0.000243
0.000254
0.000262
0.000246
0.000259
0.000277
0.000271
0.000594
0.000390
0.000299
0.000245
0.000239
0.000254
0.000251
0.000263
0.000267
0.000268
0.000257
0.000262
0.000301
0.000605
0.000392
0.000370
0.000161
0.000056
0.000183
0.000228
0.001315
0.000351
0.000320
0.000467
0.000367
0.000305
0.000436
0.000369
0.000239
0.000208
0.000234
0.000258
0.000252
0.000260
0.000328
0.000621
0.000345
0.000309
0.000281
0.000223
0.000256
0.000513
0.000243
0.000253
0.000258
0.000277
0.000303
0.000563
0.000390
0.000057
0.000317
0.000386
0.000227
0.000199
0.001513
0.000556
0.000297
0.000231
0.000198
0.000251
0.000225
0.000238
0.000251
0.000260
0.000254
0.000265
0.000237
0.000315
0.000447
0.000424
0.000404
0.000214
0.000229
0.000242
0.000247
0.000278
0.000276
0.000239
0.000261
0.000274
0.000215
0.000056
0.000366
0.000321
0.000250
0.000219
0.000235
0.000243
0.000249
0.000245
0.000234
0.000258
0.001562
0.000363
0.000258
0.000209
0.000220
0.000256
0.000268
0.000260
0.000234
0.000267
0.000275
0.000259
0.000256
0.000437
0.000431
0.000448
0.000209
0.000260
0.000277
0.000283
0.000187
0.000057
0.000186
0.000466
0.000193
0.000205
0.000327
0.000451
0.000367
0.000343
0.000448
0.000213
0.000217
0.000245
0.000262
0.000265
0.000269
0.001484
0.000290
0.000277
0.000250
0.000270
0.000277
0.000247
0.000262
0.000246
0.000258
0.000284
0.000453
0.000431
0.000307
0.000300
0.000139
0.000056
0.000182
0.000210
0.000256
0.000247
0.000224
0.000268
0.000239
0.000242
0.000293
0.000396
0.000453
0.000341
0.000178
0.000231
0.000226
0.000267
0.000278
0.000265
0.000268
0.000232
0.000239
0.000281
0.001376
0.000221
0.000260
0.000216
0.000246
0.000267
0.000263
0.000254
0.000213
0.000056
0.000213
0.000336
0.000413
0.000348
0.000226
0.000218
0.000230
0.000259
0.000265
0.000246
0.000267
0.000257
0.000241
0.000254
0.000257
0.000262
0.000271
0.000266
0.000273
0.000238
0.000248
0.000293
0.000256
0.000276
0.000285
0.000267
0.000292
0.000236
0.000267
0.000507
0.001319
0.000055
0.000174
0.000219
0.000232
0.000238
0.000256
0.000260
0.000251
0.000220
0.000244
0.000253
0.000263
0.000262
0.000262
0.000241
0.000240
0.001719
0.000371
0.000206
0.000203
0.000238
0.000245
0.000258
0.000269
0.000265
0.000251
0.000295
0.000268
0.000262
0.000261
0.000282
0.000231
0.000055
0.000270
0.000309
0.001342
0.000220
0.000187
0.000220
0.000258
0.000251
0.000261
0.000252
0.000238
0.000395
0.000380
0.000476
0.000259
0.000210
0.000223
0.000247
0.000264
0.000260
0.000246
0.000265
0.000268
0.000284
0.000266
0.000411
0.000443
0.000302
0.000283
0.000249
0.000210
0.000071
0.000202
0.000222
0.000236
0.000249
0.000247
0.000247
0.000221
0.000243
0.000476
0.000392
0.001167
0.000236
0.000227
0.000266
0.000294
0.000229
0.000278
0.000240
0.000367
0.000342
0.000447
0.000240
0.000230
0.000237
0.000279
0.000269
0.000268
0.000293
0.000272
0.000272
0.000221
0.000056
0.000226
0.000502
0.000325
0.000229
0.000212
0.000196
0.000243
0.000265
0.000270
0.000257
0.000218
0.000545
0.000252
0.000476
0.000467
0.001459
0.000235
0.000264
0.000352
0.000337
0.000431
0.000427
0.000610
0.000242
0.000240
0.000255
0.000266
0.000270
0.000279
0.000263
0.000209
0.000056
0.000193
0.000240
0.000431
0.000507
0.000355
0.000219
0.000233
0.000248
0.000234
0.000256
0.000255
0.000262
0.000267
0.000243
0.000264
0.000306
0.000358
0.000498
0.000307
0.001337
0.000239
0.000253
0.000262
0.000464
0.000365
0.000409
0.000372
0.000214
0.000241
0.000272
0.000209
0.000055
0.000181
0.000241
0.000228
0.000233
0.000251
0.000263
0.000458
0.000402
0.000356
0.000249
0.000214
0.000255
0.000266
0.000264
0.000256
0.000295
0.000239
0.000254
0.000266
0.000504
0.000334
0.000410
0.000335
0.001334
0.000345
0.000230
0.000289
0.000456
0.000460
0.000308
0.000336
0.000056
0.000184
0.000210
0.000244
0.000251
0.000250
0.000252
0.001693
0.000271
0.000218
0.000204
0.000258
0.000260
0.000319
0.000326
0.000334
0.000294
0.000261
0.000323
0.000448
0.000431
0.000294
0.000266
0.000212
0.000239
0.001451
0.000394
0.000452
0.000453
0.000323
0.000294
0.000163
0.000056
0.000205
0.000225
0.000256
0.000260
0.000240
0.000259
0.001791
0.000208
0.000231
0.000262
0.000389
0.000413
0.001420
0.000332
0.000419
0.000214
0.000209
0.000232
0.000267
0.000265
0.001611
0.000628
0.000352
0.000278
0.000215
0.000216
0.000264
0.000264
0.000256
0.000252
0.000209
0.000055
0.000210
0.000216
0.000270
0.000236
0.000257
0.000272
0.000280
0.000258
0.000252
0.000255
0.000252
0.000248
0.000254
0.000268
0.000257
0.001504
0.000283
0.000228
0.000270
0.000268
0.000272
0.000262
0.000433
0.001274
0.000276
0.000228
0.000264
0.000254
0.000465
0.000220
0.000187
0.000055
0.000177
0.000222
0.000223
0.000249
0.000236
0.000232
0.000243
0.001759
0.000214
0.000209
0.000229
0.000369
0.000237
0.000215
0.001473
0.000243
0.000206
0.000220
0.000270
0.000240
0.000258
0.000308
0.000340
0.001365
0.000277
0.000221
0.000226
0.000253
0.001399
0.000278
0.000217
0.000055
0.000269
0.000334
0.000210
0.000200
0.000250
0.000251
0.000251
0.000267
0.000266
0.000246
0.000274
0.000254
0.000252
0.000253
0.000346
0.001458
0.000265
0.000249
0.000263
0.000244
0.000283
0.000256
0.000264
0.001533
0.000311
0.000248
0.000257
0.001356
0.000237
0.000219
0.000211
0.000055
0.000221
0.000409
0.000315
0.000226
0.000210
0.000233
0.000265
0.000257
0.000267
0.000267
0.000241
0.000246
0.000263
0.000281
0.000476
0.001226
0.000201
0.000228
0.000248
0.000274
0.000232
0.000243
0.000254
0.001284
0.000414
0.000210
0.000219
0.000237
0.000250
0.001359
0.000471
0.000056
0.000318
0.000218
0.000214
0.000206
0.000229
0.000249
0.000256
0.000242
0.000270
0.000257
0.000242
0.000259
0.000257
0.000344
0.000436
0.001427
0.000237
0.000226
0.000298
0.000500
0.000298
0.000373
0.001370
0.000305
0.000236
0.000264
0.001285
0.000353
0.000364
0.000404
0.000296
0.000056
0.000208
0.000227
0.000248
0.000264
0.000244
0.000270
0.000263
0.000249
0.000268
0.000258
0.000547
0.000273
0.001371
0.000204
0.000242
0.000262
0.000281
0.000261
0.000213
0.000219
0.000359
0.001290
0.000237
0.000231
0.000232
0.000234
0.001488
0.000463
0.000487
0.000233
0.000192
0.000073
0.000174
0.000213
0.000248
0.000229
0.000252
0.000263
0.000243
0.000242
0.000440
0.000505
0.000301
0.001449
0.000227
0.000220
0.000262
0.000257
0.000267
0.000280
0.001651
0.000324
0.000351
0.000358
0.001327
0.000381
0.000307
0.000338
0.000231
0.000210
0.000259
0.000270
0.000199
0.000057
0.000191
0.000209
0.000313
0.000277
0.000326
0.000485
0.000320
0.000333
0.001489
0.000296
0.000336
0.000234
0.000255
0.000263
0.000401
0.001331
0.000276
0.000206
0.000216
0.000240
0.000343
0.001562
0.000373
0.000274
0.000220
0.000222
0.000529
0.000305
0.000238
0.000211
0.000269
0.000055
0.000258
0.000352
0.000346
0.000306
0.000206
0.001458
0.000251
0.000244
0.000232
0.000269
0.000268
0.000258
0.000276
0.001501
0.000267
0.000231
0.000413
0.001293
0.000292
0.000423
0.000370
0.000240
0.000240
0.000256
0.000267
0.000264
0.000444
0.000238
0.000261
0.000261
0.000219
0.000056
0.000210
0.000277
0.000304
0.001462
0.000265
0.000208
0.000301
0.000250
0.000236
0.000257
0.000243
0.000252
0.001659
0.000200
0.000223
0.000235
0.001360
0.000271
0.000507
0.000419
0.000386
0.000226
0.000214
0.000243
0.000366
0.000247
0.000223
0.000246
0.000246
0.000253
0.000213
0.000056
0.000225
0.000382
0.001447
0.000222
0.000253
0.000270
0.000246
0.000246
0.000330
0.000377
0.001327
0.000260
0.000307
0.000240
0.000211
0.001520
0.000505
0.000278
0.000302
0.000406
0.000331
0.000239
0.000230
0.000232
0.000265
0.000291
0.000273
0.000347
0.000447
0.000427
0.001388
0.000055
0.000196
0.000240
0.000218
0.000225
0.000248
0.000468
0.000442
0.001340
0.000221
0.000216
0.000239
0.001409
0.000502
0.000291
0.000453
0.000263
0.000205
0.000214
0.000242
0.000272
0.000269
0.000256
0.000274
0.000266
0.000245
0.000285
0.000421
0.000532
0.001459
0.000273
0.000189
0.000056
0.000170
0.000231
0.000329
0.000631
0.001186
0.000260
0.000251
0.000266
0.000244
0.000248
0.000249
0.000266
0.000329
0.000583
0.000310
0.000227
0.000239
0.000275
0.000257
0.000252
0.000273
0.000255
0.000259
0.000267
0.000279
0.000373
0.000481
0.000351
0.000315
0.001472
0.000159
0.000056
0.000182
0.000214
0.000339
0.000410
0.000321
0.000314
0.000295
0.000333
0.000277
0.000278
0.000244
0.000265
0.000240
0.000310
0.000255
0.000254
0.000582
0.000313
0.000321
0.000347
0.000290
0.000471
0.000220
0.000249
0.000207
0.000270
0.000246
0.000279
0.000357
0.000501
0.000326
0.000055
0.000219
0.001354
0.000257
0.000352
0.000383
0.000465
0.000309
0.000358
0.000217
0.000205
0.000263
0.000247
0.000261
0.000277
0.000254
0.000263
0.000267
0.001419
0.000255
0.000215
0.000222
0.000272
0.000273
0.000282
0.000270
0.000254
0.000271
0.000262
0.000257
0.000520
0.000249
0.000057
0.000228
0.000241
0.001436
0.000318
0.000339
0.000213
0.000212
0.000205
0.000227
0.000252
0.000248
0.000270
0.000254
0.000245
0.000261
0.000277
0.000248
0.000252
0.000264
0.000258
0.001434
0.000267
0.000240
0.000323
0.000219
0.000223
0.000254
0.000270
0.000266
0.000495
0.000388
0.000056
0.000185
0.000207
0.000381
0.000295
0.000244
0.000256
0.001532
0.000354
0.000336
0.000205
0.000224
0.000349
0.000322
0.000218
0.000214
0.000256
0.000253
0.000249
0.000270
0.000248
0.000490
0.000561
0.001138
0.000263
0.000206
0.000221
0.000275
0.000255
0.000269
0.000276
0.000344
0.000056
0.000222
0.000358
0.000194
0.000210
0.000241
0.000238
0.000245
0.000230
0.001423
0.000545
0.000412
0.000238
0.000220
0.000208
0.000258
0.000241
0.000255
0.000284
0.000248
0.000308
0.000325
0.000466
0.000540
0.001292
0.000261
0.000234
0.000262
0.000264
0.000273
0.000282
0.000620
0.000057
0.000268
0.000203
0.000259
0.000232
0.000214
0.000237
0.000267
0.000246
0.000269
0.001567
0.000363
0.000261
0.000258
0.000260
0.000457
0.000311
0.000400
0.000459
0.000330
0.000332
0.000453
0.000471
0.001287
0.000235
0.000230
0.000223
0.001758
0.000434
0.000608
0.000321
0.000133
0.000056
0.000183
0.000211
0.000238
0.000237
0.000243
0.000251
0.000364
0.000405
0.000498
0.000418
0.000313
0.000210
0.000213
0.000256
0.000266
0.000270
0.000238
0.000251
0.000250
0.000273
0.000277
0.000398
0.001362
0.000253
0.000229
0.000264
0.001900
0.000381
0.000386
0.000358
0.000175
0.000056
0.000234
0.000219
0.000240
0.001530
0.000433
0.000252
0.000224
0.000270
0.000243
0.000342
0.000365
0.000375
0.000350
0.000311
0.000275
0.000571
0.000280
0.001288
0.000263
0.000206
0.000224
0.000264
0.000365
0.000414
0.000554
0.000502
0.000222
0.000205
0.000270
0.000274
0.000214
0.000057
0.000171
0.000217
0.001459
0.000412
0.000193
0.000222
0.000210
0.000254
0.000246
0.000255
0.000248
0.000271
0.000276
0.000269
0.000239
0.000393
0.000482
0.000322
0.001366
0.000256
0.000238
0.000259
0.000259
0.000262
0.000441
0.000498
0.000378
0.000306
0.000288
0.000244
0.000398
0.000056
0.000197
0.000204
0.000251
0.000264
0.001583
0.000242
0.000242
0.000247
0.000257
0.000253
0.000252
0.000278
0.000249
0.000247
0.000335
0.000589
0.001458
0.000733
0.000217
0.000352
0.000243
0.000210
0.000231
0.000274
0.001771
0.000720
0.000270
0.000227
0.000271
0.000284
0.000210
0.000056
0.000207
0.000192
0.000251
0.000244
0.000247
0.000246
0.000258
0.000249
0.000242
0.000224
0.000288
0.000283
0.000254
0.000252
0.000261
0.000262
0.000288
0.001576
0.000735
0.000342
0.000352
0.000221
0.000211
0.000270
0.000292
0.000250
0.000276
0.000264
0.001467
0.000358
0.000349
0.000056
0.000191
0.000213
0.000233
0.000254
0.000258
0.000252
0.000237
0.000249
0.000251
0.000275
0.000223
0.000456
0.000443
0.000354
0.000224
0.000220
0.000277
0.001448
0.000682
0.000414
0.000317
0.000321
0.000205
0.000239
0.000292
0.000247
0.000242
0.000275
0.001490
0.000440
0.000221
0.000055
0.000176
0.000203
0.000243
0.000255
0.000253
0.000230
0.000243
0.000252
0.000264
0.000261
0.000395
0.000357
0.000333
0.000221
0.000244
0.000239
0.000265
0.000271
0.001560
0.000605
0.000479
0.000349
0.000230
0.000254
0.000238
0.000286
0.000247
0.000273
0.000276
0.001428
0.000308
0.000056
0.000203
0.000218
0.000213
0.000256
0.000278
0.000217
0.000295
0.000351
0.000367
0.000415
0.000418
0.000332
0.000326
0.000227
0.000212
0.000252
0.000275
0.000262
0.001421
0.000886
0.000289
0.000208
0.000460
0.000224
0.000214
0.000256
0.000272
0.000268
0.000256
0.000277
0.000399
0.000056
0.000255
0.000253
0.000214
0.000232
0.000250
0.000253
0.000230
0.000234
0.000274
0.000248
0.000252
0.000232
0.000258
0.000490
0.000436
0.000452
0.000229
0.000261
0.000252
0.000260
0.000242
0.000385
0.001361
0.001059
0.000252
0.000230
0.000269
0.000256
0.000285
0.000276
0.000190
0.000056
0.000201
0.001379
0.000267
0.000197
0.000213
0.000248
0.000244
0.000249
0.000226
0.000266
0.000243
0.000264
0.000239
0.000422
0.000338
0.000527
0.000236
0.000221
0.000254
0.000266
0.000271
0.000232
0.000263
0.000267
0.001413
0.000659
0.000317
0.000395
0.000370
0.000398
0.000281
0.000057
0.000185
0.000228
0.000384
0.001275
0.000225
0.000253
0.000216
0.000258
0.000253
0.000259
0.000264
0.000242
0.000275
0.000374
0.000539
0.000355
0.000197
0.000331
0.000252
0.000225
0.000239
0.000265
0.000233
0.000275
0.000264
0.001552
0.000720
0.000308
0.000269
0.000278
0.000212
0.000057
0.000217
0.000221
0.000440
0.000419
0.001283
0.000247
0.000209
0.000205
0.000223
0.000259
0.000235
0.000278
0.000220
0.000228
0.000263
0.000251
0.000266
0.000236
0.000252
0.000260
0.000263
0.000267
0.000364
0.000285
0.000215
0.000250
0.000293
0.001511
0.000246
0.000226
0.000163
0.000057
0.000186
0.000209
0.000250
0.000343
0.000348
0.000338
0.000404
0.000245
0.001556
0.000269
0.000248
0.000560
0.000300
0.000264
0.000464
0.000234
0.000222
0.000219
0.000262
0.000270
0.000281
0.000268
0.000263
0.000259
0.000255
0.000475
0.000541
0.000197
0.001508
0.000269
0.000163
0.000056
0.000217
0.000206
0.000249
0.000261
0.000230
0.000237
0.000263
0.000313
0.000449
0.002065
0.000198
0.000212
0.000246
0.000260
0.000261
0.000332
0.000256
0.000217
0.000239
0.000423
0.000395
0.000431
0.001518
0.000232
0.000228
0.000484
0.001780
0.000269
0.000272
0.001477
0.000199
0.000056
0.000320
0.000369
0.000501
0.000231
0.000262
0.000227
0.000255
0.000265
0.000272
0.000232
0.000247
0.000316
0.000420
0.000351
0.000474
0.000241
0.000207
0.001564
0.000489
0.002012
0.000309
0.000242
0.000215
0.001590
0.002003
0.000716
0.000279
0.000217
0.000251
0.000578
0.000325
0.000056
0.000204
0.000212
0.000246
0.000257
0.001487
0.001667
0.001079
0.000220
0.000219
0.001586
0.001975
0.000231
0.000319
0.000403
0.000288
0.000332
0.000394
0.000444
0.000253
0.000213
0.000250
0.000254
0.000297
0.001541
0.001306
0.001423
0.000264
0.000243
0.000264
0.000341
0.000333
0.000055
0.000212
0.000242
0.000195
0.000247
0.000227
0.000232
0.000258
0.000249
0.000253
0.000250
0.000246
0.000310
0.000415
0.000546
0.000299
0.000203
0.000228
0.000271
0.000270
0.000260
0.000255
0.001361
0.000529
0.000412
0.002071
0.000252
0.000239
0.000333
0.000494
0.000421
0.000146
0.000057
0.000201
0.000376
0.000419
0.000318
0.000227
0.000205
0.000244
0.000254
0.000235
0.000241
0.000251
0.000266
0.000277
0.001589
0.001425
0.001228
0.000274
0.000228
0.000216
0.000239
0.000287
0.000281
0.000244
0.000254
0.002273
0.000221
0.000214
0.000278
0.000326
0.000299
0.000249
0.000057
0.000190
0.000396
0.000568
0.000363
0.000185
0.000201
0.000217
0.000263
0.001896
0.001439
0.000251
0.000390
0.000388
0.000355
0.000265
0.000209
0.000221
0.000272
0.000265
0.000258
0.000266
0.000259
0.000478
0.000251
0.000257
0.000281
0.000243
0.000260
0.000281
0.000245
0.000231
0.000056
0.000187
0.000226
0.000247
0.000249
0.000236
0.000268
0.001543
0.001504
0.001331
0.000215
0.000202
0.000224
0.000258
0.000263
0.000251
0.000240
0.000260
0.002174
0.000212
0.000235
0.000228
0.000265
0.000262
0.000265
0.000267
0.000252
0.000264
0.000259
0.000276
0.000260
0.000195
0.000056
0.001506
0.000320
0.002401
0.000248
0.000286
0.000294
0.000253
0.000252
0.000263
0.000237
0.000259
0.000253
0.000223
0.000247
0.000268
0.000254
0.000263
0.000269
0.000262
0.000270
0.000266
0.000275
0.000273
0.000272
0.000247
0.000254
0.000254
0.000274
0.000262
0.000270
0.000386
0.000071
0.000181
0.002547
0.000343
0.000201
0.000186
0.000215
0.000258
0.000254
0.000252
0.000269
0.000350
0.000439
0.000343
0.000210
0.000209
0.002252
0.000196
0.000223
0.000311
0.000428
0.000380
0.000346
0.000211
0.000234
0.000251
0.000251
0.000267
0.000266
0.000280
0.001682
0.001213
0.000056
0.000189
0.000211
0.000282
0.000396
0.000374
0.000281
0.000201
0.000234
0.000239
0.000257
0.000263
0.000253
0.000230
0.000260
0.000253
0.000248
0.000320
0.000598
0.000416
0.000243
0.000212
0.000238
0.000284
0.000274
0.000252
0.000230
0.000262
0.000279
0.000241
0.000300
0.000394
0.000056
0.001124
0.000284
0.000296
0.000434
0.000329
0.000204
0.000201
0.000231
0.002206
0.000452
0.000324
0.000364
0.000209
0.000285
0.000328
0.000272
0.000263
0.000253
0.000269
0.000238
0.000250
0.000262
0.000595
0.000548
0.001780
0.001265
0.000796
0.000346
0.000233
0.000249
0.000217
0.000056
0.000219
0.000361
0.000241
0.000234
0.000245
0.000243
0.000235
0.000240
0.000259
0.000254
0.000250
0.000247
0.000253
0.000240
0.000403
0.000524
0.001861
0.001338
0.000385
0.000420
0.000451
0.000257
0.000235
0.000256
0.002244
0.000450
0.000377
0.000229
0.000284
0.000284
0.000207
0.000056
0.000184
0.000227
0.000251
0.000240
0.000240
0.000315
0.000478
0.000282
0.000358
0.000229
0.000216
0.000290
0.000230
0.002088
0.000373
0.000388
0.000223
0.000238
0.000268
0.000261
0.000244
0.002454
0.000346
0.000228
0.000248
0.000263
0.000242
0.000269
0.000283
0.000278
0.000220
0.000055
0.000198
0.000358
0.000579
0.000367
0.000235
0.000203
0.000198
0.000248
0.000269
0.000255
0.002025
0.000393
0.000268
0.000258
0.000203
0.000239
0.000271
0.000244
0.002280
0.000384
0.000219
0.000261
0.000263
0.000263
0.000259
0.000259
0.000264
0.000260
0.000270
0.000263
0.000207
0.000058
0.000197
0.000216
0.000279
0.000199
0.000246
0.000249
0.000242
0.000243
0.000232
0.002186
0.000250
0.000270
0.000212
0.000484
0.000226
0.000206
0.000255
0.000275
0.000261
0.000273
0.002030
0.000244
0.000376
0.000363
0.000496
0.000325
0.000291
0.000256
0.000234
0.000260
0.000193
0.000056
0.000179
0.000220
0.000233
0.000250
0.000237
0.000399
0.000192
0.002347
0.000214
0.000219
0.000226
0.000250
0.000240
0.000251
0.000300
0.002212
0.000518
0.000238
0.000231
0.000238
0.000265
0.000260
0.000282
0.000270
0.000261
0.000255
0.000286
0.000257
0.000261
0.000307
0.000178
0.000056
0.000193
0.003002
0.000254
0.000205
0.000248
0.000243
0.000253
0.000263
0.000443
0.000363
0.002131
0.000262
0.000242
0.000253
0.000272
0.000603
0.000363
0.000310
0.000217
0.000206
0.000243
0.000265
0.000269
0.000242
0.000235
0.000271
0.000270
0.000261
0.000305
0.000713
0.000315
0.000057
0.000177
0.000295
0.000247
0.000236
0.000218
0.000249
0.000248
0.000246
0.001554
0.002124
0.000517
0.000275
0.000389
0.000766
0.000368
0.000196
0.000210
0.000243
0.000266
0.000259
0.000278
0.000235
0.000243
0.000277
0.001818
0.001453
0.000296
0.000324
0.000258
0.000276
0.000448
0.000058
0.001932
0.000231
0.000227
0.000204
0.000257
0.000409
0.000416
0.000340
0.000308
0.000234
0.000219
0.000206
0.000262
0.000242
0.000296
0.000244
0.000251
0.000254
0.001909
0.000216
0.000214
0.000237
0.000290
0.000264
0.000274
0.000255
0.001546
0.000340
0.000212
0.000216
0.000179
0.000056
0.000193
0.000216
0.000224
0.000236
0.000258
0.000234
0.000291
0.000402
0.000353
0.000407
0.000194
0.000221
0.000333
0.000322
0.000381
0.000324
0.000230
0.000203
0.000260
0.000336
0.000563
0.000435
0.000234
0.000219
0.000253
0.000256
0.000250
0.000269
0.000292
0.000247
0.000227
0.000056
0.001435
0.000397
0.000245
0.001992
0.000233
0.000454
0.000366
0.000380
0.000204
0.000215
0.000254
0.000246
0.000248
0.000250
0.000269
0.000274
0.000434
0.000273
0.000484
0.000293
0.000379
0.000224
0.000249
0.000263
0.000346
0.000226
0.000237
0.000277
0.000303
0.000573
0.001370
0.000057
0.000184
0.000209
0.002077
0.000288
0.000313
0.000274
0.000254
0.000253
0.000263
0.000247
0.000223
0.000248
0.000263
0.000250
0.000265
0.000353
0.000717
0.001730
0.000260
0.000254
0.000260
0.000275
0.000381
0.000457
0.001539
0.000270
0.000357
0.002017
0.000232
0.000238
0.000195
0.000056
0.000192
0.000213
0.000222
0.000255
0.000216
0.000252
0.000252
0.000274
0.000343
0.000302
0.000383
0.000369
0.000333
0.000290
0.000217
0.000257
0.000266
0.000243
0.000254
0.000271
0.000264
0.000336
0.000237
0.000268
0.000284
0.001559
0.000300
0.000402
0.001982
0.000265
0.000163
0.000057
0.000206
0.000219
0.000225
0.000258
0.000457
0.000239
0.000240
0.000367
0.000350
0.000376
0.000236
0.000209
0.000251
0.000272
0.000270
0.000329
0.000444
0.000412
0.000265
0.000357
0.000591
0.000395
0.001601
0.000260
0.000235
0.002025
0.000349
0.000228
0.000211
0.000267
0.000205
0.000056
0.000211
0.000205
0.000229
0.000246
0.000251
0.000281
0.000236
0.000266
0.000262
0.000245
0.001893
0.000282
0.000399
0.000329
0.000457
0.000362
0.001506
0.000341
0.000210
0.000305
0.002016
0.000675
0.000221
0.000230
0.000236
0.000265
0.000485
0.000250
0.000239
0.000294
0.000201
0.000056
0.000289
0.000319
0.000419
0.000279
0.000204
0.000203
0.000259
0.000246
0.000281
0.000298
0.000225
0.000238
0.000260
0.000258
0.000345
0.000444
0.001352
0.000255
0.000437
0.001815
0.000371
0.000259
0.000221
0.000256
0.000240
0.000277
0.000263
0.000269
0.000247
0.000262
0.000219
0.000056
0.000238
0.000401
0.002066
0.000212
0.000262
0.000224
0.000214
0.000293
0.000721
0.001234
0.000332
0.000367
0.000337
0.001991
0.000243
0.000223
0.000270
0.000270
0.000260
0.000232
0.000287
0.000290
0.000269
0.000344
0.000505
0.000415
0.000341
0.002143
0.000497
0.000454
0.000459
0.000057
0.000209
0.000221
0.000221
0.002027
0.000198
0.000225
0.000221
0.000241
0.000234
0.000257
0.000242
0.000267
0.000250
0.000291
0.000501
0.000349
0.001303
0.000236
0.000269
0.000264
0.000224
0.000255
0.000268
0.000261
0.000399
0.000510
0.000346
0.001590
0.000346
0.000219
0.000165
0.000055
0.000183
0.000208
0.000241
0.000227
0.000249
0.000251
0.000251
0.000249
0.000278
0.000337
0.000376
0.001489
0.000224
0.000194
0.000222
0.000264
0.000253
0.000254
0.000276
0.000500
0.000463
0.000414
0.000213
0.001564
0.000256
0.000235
0.000283
0.000284
0.000258
0.000302
0.000179
0.000056
0.000204
0.000208
0.000258
0.000266
0.000259
0.000234
0.000237
0.000237
0.000257
0.000254
0.000257
0.000244
0.000254
0.000253
0.001586
0.000242
0.000240
0.000264
0.000336
0.000326
0.000364
0.000263
0.000219
0.000234
0.000248
0.000290
0.001440
0.000300
0.000214
0.000228
0.000180
0.000056
0.000199
0.000220
0.000249
0.000260
0.000283
0.000211
0.000239
0.000275
0.000213
0.000265
0.000240
0.000267
0.000224
0.000332
0.000371
0.000366
0.000292
0.001550
0.000340
0.000216
0.000213
0.000231
0.000259
0.000294
0.000444
0.000462
0.000390
0.000235
0.000217
0.001592
0.000196
0.000056
0.000314
0.000421
0.000325
0.000284
0.000199
0.000209
0.000239
0.000269
0.000253
0.000247
0.000238
0.000240
0.001468
0.000334
0.000296
0.000220
0.000220
0.000256
0.000269
0.000266
0.000253
0.000243
0.000258
0.000264
0.000248
0.000397
0.000487
0.000412
0.000219
0.000222
0.000203
0.000056
0.000215
0.000287
0.000466
0.000325
0.000352
0.000233
0.000215
0.000255
0.000258
0.000248
0.000245
0.000228
0.000251
0.000251
0.001329
0.000307
0.000216
0.000191
0.000263
0.000269
0.000236
0.000268
0.000249
0.000261
0.000257
0.000255
0.000263
0.000786
0.000414
0.000264
0.000168
0.000056
0.000189
0.001533
0.000237
0.000342
0.000451
0.000409
0.000213
0.000228
0.000269
0.000247
0.000249
0.000252
0.000267
0.000279
0.000260
0.001527
0.000263
0.000274
0.000260
0.000255
0.000263
0.000259
0.000262
0.000268
0.000255
0.000260
0.000431
0.000429
0.000360
0.000231
0.000162
0.000057
0.000188
0.000224
0.000252
0.001720
0.000392
0.000327
0.000196
0.000208
0.000258
0.000253
0.000275
0.000260
0.000261
0.000256
0.000232
0.000266
0.000354
0.001448
0.000214
0.000240
0.001515
0.000339
0.000554
0.000391
0.000290
0.000233
0.000257
0.000457
0.000245
0.000250
0.000219
0.000055
0.000290
0.000218
0.000210
0.000252
0.000237
0.000258
0.000222
0.000260
0.000261
0.000234
0.000253
0.000258
0.000344
0.000521
0.001608
0.001501
0.000383
0.000513
0.000325
0.000241
0.000219
0.000265
0.000244
0.000264
0.000243
0.000271
0.000259
0.000271
0.001611
0.000306
0.000148
0.000056
0.000204
0.000341
0.000351
0.000327
0.000258
0.000208
0.000210
0.000372
0.000430
0.001387
0.000354
0.001541
0.000457
0.000343
0.000497
0.000264
0.000340
0.000334
0.000363
0.000260
0.000245
0.000339
0.001561
0.000545
0.000241
0.000233
0.000276
0.000233
0.000268
0.000255
0.000213
0.000056
0.000188
0.000224
0.000250
0.000257
0.000242
0.001652
0.000968
0.000899
0.000234
0.000230
0.000260
0.000263
0.000245
0.000263
0.000257
0.000254
0.000262
0.000247
0.000270
0.000294
0.001485
0.000266
0.000263
0.000223
0.000219
0.000251
0.000258
0.000302
0.000243
0.000279
0.000222
0.000056
0.000195
0.000201
0.001529
0.000938
0.000356
0.000354
0.000215
0.000207
0.000244
0.000256
0.000250
0.000260
0.000236
0.002053
0.000467
0.000215
0.000210
0.000237
0.000260
0.000257
0.000208
