0.000221
0.002231
0.019184
0.000365
0.000328
0.000300
0.000274
0.000216
0.000282
0.000273
0.000289
0.000315
0.000489
0.000487
0.000405
0.000388
0.000337
0.000264
0.000332
0.000407
0.000336
0.001911
0.000752
0.000265
0.000308
0.000294
0.000307
0.000239
0.000416
0.000363
0.000490
0.000302
0.000068
0.000249
0.000272
0.000265
0.000274
0.000261
0.000265
0.000268
0.000274
0.000266
0.000292
0.000406
0.000410
0.000299
0.000291
0.000387
0.000342
0.000341
0.000260
0.000260
0.001667
0.000315
0.000298
0.000450
0.000259
0.000285
0.000276
0.000254
0.000267
0.000286
0.000309
0.000390
0.000067
0.000253
0.000246
0.000255
0.000260
0.000295
0.000277
0.000251
0.000285
0.000268
0.001604
0.000242
0.000251
0.000272
0.000260
0.000297
0.000222
0.000259
0.000273
0.000316
0.001784
0.000265
0.000263
0.000447
0.000464
0.000366
0.000240
0.000269
0.000444
0.000544
0.000730
0.000195
0.000067
0.000266
0.000277
0.000206
0.000253
0.000263
0.000268
0.000280
0.000564
0.000389
0.000287
0.000258
0.000245
0.000241
0.000242
0.000258
0.000257
0.000255
0.000273
0.000291
0.000301
0.001663
0.000287
0.000262
0.000414
0.000444
0.000558
0.000687
0.000481
0.000360
0.000261
0.000150
0.000074
0.000236
0.000243
0.000289
0.000273
0.000264
0.000226
0.000261
0.000658
0.001236
0.000261
0.000243
0.000252
0.000269
0.000268
0.000255
0.000264
0.000254
0.001914
0.000317
0.000244
0.000248
0.000463
0.000249
0.000245
0.000253
0.000246
0.000265
0.000274
0.000273
0.000275
0.000125
0.000069
0.000223
0.000256
0.000241
0.000247
0.000245
0.000256
0.000232
0.000247
0.000258
0.000225
0.001610
0.000260
0.000244
0.000235
0.000268
0.000250
0.000280
0.000266
0.000213
0.000237
0.000292
0.001645
0.000276
0.000265
0.000434
0.000287
0.000265
0.000261
0.000273
0.000266
0.000153
0.000105
0.000190
0.000244
0.000256
0.000256
0.000240
0.000224
0.000251
0.000249
0.000268
0.000291
0.000255
0.000264
0.000257
0.000226
0.001614
0.000272
0.000289
0.000260
0.000238
0.000299
0.000234
0.000248
0.000274
0.000242
0.001753
0.000405
0.000455
0.000291
0.000262
0.000260
0.000145
0.000098
0.000209
0.000255
0.000254
0.000268
0.000258
0.000251
0.000251
0.000372
0.000423
0.000462
0.000226
0.000260
0.000236
0.000257
0.001514
0.000523
0.000348
0.000397
0.000351
0.000273
0.000274
0.000266
0.000263
0.001669
0.000519
0.000477
0.000265
0.000207
0.000269
0.000271
0.000148
0.000077
0.000228
0.000247
0.000252
0.000228
0.000366
0.000395
0.000390
0.000276
0.000275
0.000258
0.000230
0.000236
0.000235
0.001721
0.000455
0.000306
0.000255
0.000287
0.000273
0.000245
0.000254
0.000272
0.000262
0.001802
0.000344
0.000418
0.000278
0.000264
0.000276
0.000348
0.000305
0.000068
0.000233
0.000373
0.000372
0.000273
0.000239
0.000259
0.000251
0.000249
0.000248
0.000251
0.000249
0.000238
0.001521
0.000325
0.000338
0.000241
0.000263
0.000288
0.000263
0.000257
0.000261
0.000314
0.000267
0.001775
0.000260
0.000526
0.000229
0.000269
0.000259
0.000272
0.000233
0.000125
0.000287
0.000585
0.000608
0.000231
0.000238
0.000273
0.000231
0.000253
0.000254
0.000258
0.000258
0.001649
0.000265
0.000433
0.000354
0.000253
0.000226
0.000233
0.000272
0.000249
0.000253
0.001820
0.000238
0.000464
0.001876
0.000514
0.000344
0.000263
0.000281
0.000255
0.000161
0.000066
0.000244
0.000247
0.000242
0.000253
0.000253
0.001570
0.000253
0.000234
0.000252
0.000276
0.000223
0.000292
0.000254
0.000261
0.000273
0.000345
0.000665
0.000258
0.000262
0.000269
0.000235
0.000245
0.000255
0.000439
0.000388
0.000276
0.000347
0.000546
0.000444
0.000266
0.000204
0.000066
0.000233
0.000246
0.000230
0.000256
0.000265
0.000257
0.000248
0.000420
0.000367
0.001699
0.000242
0.000237
0.000258
0.000285
0.000241
0.000334
0.000372
0.000431
0.000352
0.000254
0.000268
0.000262
0.000286
0.000274
0.000248
0.000444
0.000373
0.000657
0.000398
0.000433
0.000169
0.000090
0.000213
0.000255
0.000248
0.000231
0.000246
0.000249
0.000251
0.000258
0.000209
0.000264
0.000337
0.000515
0.001311
0.000266
0.000240
0.000228
0.000267
0.000289
0.000265
0.000248
0.000226
0.000442
0.000410
0.000301
0.000273
0.000270
0.000236
0.000271
0.000268
0.000263
0.000350
0.000068
0.000237
0.000228
0.000243
0.000366
0.000522
0.000298
0.000244
0.000247
0.000240
0.000262
0.000249
0.000239
0.000318
0.000269
0.000258
0.000427
0.000429
0.001623
0.000272
0.000257
0.000264
0.000295
0.000232
0.000232
0.000261
0.000458
0.000469
0.000298
0.000429
0.000261
0.000178
0.000067
0.000262
0.000396
0.000276
0.000246
0.000248
0.000209
0.000288
0.000558
0.000337
0.000311
0.000254
0.000252
0.000252
0.000260
0.000498
0.000335
0.000252
0.000253
0.000402
0.001604
0.000299
0.000241
0.000502
0.000272
0.000303
0.000277
0.000273
0.000297
0.000548
0.000350
0.000277
0.000069
0.000233
0.000230
0.000240
0.000237
0.000383
0.000309
0.000275
0.000240
0.000397
0.000462
0.000381
0.000265
0.000235
0.000255
0.000240
0.000271
0.000244
0.000263
0.000288
0.000334
0.000239
0.000349
0.001856
0.000259
0.000250
0.000259
0.000279
0.000324
0.000405
0.000688
0.000450
0.000065
0.000229
0.000363
0.000350
0.000390
0.000322
0.000264
0.000258
0.000285
0.000488
0.000397
0.000291
0.000231
0.000251
0.000254
0.000262
0.000252
0.000256
0.000261
0.000240
0.000285
0.000252
0.000411
0.000667
0.001314
0.000332
0.000435
0.000462
0.000267
0.000331
0.000453
0.000309
0.000067
0.000231
0.000377
0.000276
0.000230
0.000238
0.000241
0.000395
0.000255
0.000244
0.000346
0.000459
0.000375
0.000267
0.000255
0.000263
0.000248
0.000342
0.000397
0.000346
0.000255
0.000281
0.000463
0.000542
0.001651
0.000253
0.000415
0.000303
0.000281
0.000238
0.000427
0.000322
0.000105
0.000208
0.000243
0.000249
0.000247
0.000260
0.000252
0.000218
0.000309
0.000450
0.000319
0.000395
0.000350
0.000325
0.000564
0.000245
0.000265
0.000258
0.000257
0.000259
0.000326
0.000251
0.000290
0.000255
0.000289
0.000521
0.001683
0.000270
0.000246
0.000256
0.000269
0.000191
0.000093
0.000290
0.000485
0.000327
0.000236
0.000251
0.000256
0.000241
0.000245
0.000250
0.000243
0.000243
0.000260
0.000373
0.000508
0.000391
0.000321
0.000252
0.000267
0.000286
0.000403
0.000404
0.000338
0.000359
0.000389
0.000272
0.000258
0.000236
0.000255
0.001783
0.000258
0.000196
0.000068
0.000230
0.000278
0.000214
0.000269
0.000322
0.000533
0.000322
0.000256
0.000269
0.000259
0.000225
0.000236
0.000501
0.000450
0.000526
0.000276
0.000265
0.000269
0.000375
0.000473
0.000358
0.000394
0.000531
0.000420
0.000265
0.000232
0.000263
0.000254
0.000262
0.001685
0.000383
0.000066
0.000319
0.000285
0.000244
0.000200
0.000234
0.000252
0.000250
0.000485
0.000375
0.000311
0.000287
0.000307
0.000313
0.000637
0.000371
0.000256
0.000256
0.000259
0.000253
0.000265
0.000266
0.000253
0.000268
0.000240
0.000298
0.000381
0.000417
0.000333
0.000278
0.000277
0.000135
0.000069
0.000477
0.000244
0.000477
0.000257
0.000242
0.000261
0.000236
0.000231
0.000239
0.000242
0.000268
0.000262
0.000280
0.000422
0.000373
0.000538
0.000340
0.000333
0.000352
0.000345
0.000294
0.000256
0.000257
0.000260
0.001717
0.000269
0.001722
0.000914
0.000386
0.000345
0.000171
0.000095
0.000233
0.000249
0.000256
0.000261
0.000248
0.000208
0.000250
0.000233
0.000260
0.000308
0.000360
0.000456
0.000279
0.000456
0.000213
0.000237
0.000260
0.000257
0.000252
0.000251
0.000268
0.000277
0.001766
0.000297
0.000261
0.000221
0.000252
0.001722
0.000527
0.000346
0.000330
0.000078
0.000245
0.000228
0.000247
0.000252
0.000254
0.000240
0.000253
0.000257
0.000275
0.000320
0.000602
0.000286
0.000388
0.000258
0.000258
0.000262
0.000268
0.000407
0.000371
0.000258
0.001776
0.000291
0.000233
0.000261
0.000263
0.000246
0.000264
0.000251
0.000301
0.000334
0.000428
0.000067
0.000232
0.000249
0.000257
0.000278
0.000250
0.000217
0.000224
0.000251
0.000252
0.000243
0.000239
0.000290
0.000327
0.000422
0.000334
0.000289
0.000484
0.000237
0.000266
0.000247
0.000260
0.000260
0.000273
0.000271
0.000263
0.001747
0.000269
0.000275
0.000269
0.000277
0.000136
0.000072
0.000250
0.000372
0.000256
0.000227
0.000243
0.000239
0.000244
0.000238
0.000259
0.000218
0.000258
0.000247
0.000275
0.000275
0.000438
0.000389
0.000276
0.000253
0.000292
0.000265
0.000236
0.000229
0.000254
0.000259
0.000254
0.000291
0.000274
0.001616
0.000297
0.000247
0.000148
0.000068
0.000228
0.000242
0.000256
0.000255
0.000317
0.000388
0.000416
0.000275
0.000232
0.000266
0.000252
0.000263
0.000255
0.000262
0.000263
0.000213
0.000245
0.000264
0.000263
0.000253
0.000264
0.000254
0.000250
0.000246
0.000262
0.000260
0.000317
0.000235
0.000261
0.000263
0.000165
0.000066
0.000232
0.000246
0.000251
0.000236
0.000259
0.000250
0.000224
0.000231
0.000283
0.000257
0.000280
0.000251
0.000244
0.000210
0.000275
0.000243
0.000256
0.000255
0.000293
0.000248
0.000265
0.000314
0.000272
0.000253
0.000288
0.000295
0.000238
0.000248
0.000274
0.000400
0.000611
0.000066
0.000239
0.000267
0.000231
0.000240
0.000239
0.000249
0.000289
0.000248
0.000252
0.000257
0.000258
0.000235
0.000478
0.000439
0.001576
0.000279
0.000464
0.000253
0.000257
0.000395
0.000445
0.000388
0.000264
0.000241
0.000245
0.000268
0.000276
0.000260
0.000349
0.000276
0.000130
0.000069
0.000260
0.000516
0.000321
0.000342
0.000256
0.000229
0.000250
0.000239
0.000247
0.000244
0.000286
0.000231
0.000240
0.000330
0.000316
0.000411
0.000435
0.001774
0.000281
0.000260
0.000439
0.000290
0.000427
0.000289
0.000329
0.000309
0.000297
0.000242
0.000254
0.000263
0.000157
0.000095
0.000214
0.000236
0.000237
0.000259
0.000327
0.000460
0.000352
0.000269
0.000249
0.000209
0.000269
0.000246
0.000254
0.000281
0.000269
0.000262
0.000254
0.000515
0.000395
0.000364
0.000276
0.001711
0.000330
0.000487
0.000538
0.000442
0.000314
0.000250
0.000241
0.000257
0.000458
0.000066
0.000240
0.000270
0.000252
0.000255
0.000409
0.000401
0.000404
0.000254
0.000247
0.000282
0.000270
0.000255
0.000252
0.000262
0.000301
0.000250
0.000237
0.000377
0.000409
0.000386
0.000494
0.001846
0.000322
0.000405
0.000446
0.000378
0.000255
0.000264
0.000284
0.000272
0.000170
0.000066
0.000220
0.000335
0.000365
0.000315
0.000401
0.000294
0.000362
0.000246
0.000260
0.000258
0.000236
0.000217
0.000255
0.000256
0.000242
0.000271
0.000364
0.000338
0.000517
0.000316
0.000320
0.000261
0.000257
0.001695
0.000401
0.000511
0.000709
0.000259
0.000271
0.000277
0.000162
0.000066
0.000200
0.000240
0.000345
0.000247
0.000291
0.000349
0.000444
0.000254
0.000249
0.000529
0.000240
0.000256
0.000259
0.000249
0.000269
0.000263
0.000254
0.000451
0.000352
0.000424
0.000270
0.000243
0.000262
0.000263
0.000266
0.000247
0.000218
0.000246
0.000287
0.000281
0.000193
0.000093
0.000236
0.000296
0.000246
0.000242
0.000212
0.000255
0.000256
0.000282
0.000257
0.000233
0.000259
0.000333
0.000410
0.000402
0.000365
0.000257
0.000251
0.000245
0.000254
0.000267
0.000269
0.000282
0.000241
0.000222
0.000278
0.000327
0.000406
0.000400
0.000346
0.000237
0.000156
0.000066
0.000218
0.000251
0.000228
0.000263
0.000253
0.000244
0.000262
0.000238
0.000474
0.000299
0.000231
0.000236
0.000247
0.000258
0.000292
0.000267
0.000268
0.000293
0.000225
0.000238
0.000251
0.000276
0.000252
0.000294
0.000246
0.000293
0.000272
0.000273
0.000271
0.000443
0.000154
0.000067
0.000228
0.000248
0.000222
0.000262
0.000237
0.000241
0.000358
0.000386
0.000252
0.000254
0.000249
0.000229
0.000250
0.000243
0.000395
0.001826
0.000293
0.000285
0.000247
0.000296
0.000402
0.000371
0.000364
0.000391
0.000374
0.000418
0.000273
0.000258
0.000284
0.000273
0.001354
0.000157
0.000311
0.000291
0.000261
0.000230
0.000235
0.000256
0.000261
0.000253
0.000258
0.000257
0.000253
0.000248
0.000228
0.000358
0.000462
0.001651
0.000241
0.000251
0.000263
0.000234
0.000239
0.000266
0.000343
0.000404
0.000326
0.000293
0.000248
0.000256
0.000279
0.000312
0.000156
0.000092
0.001168
0.000558
0.000321
0.000247
0.000252
0.000234
0.000240
0.000255
0.000447
0.000255
0.000237
0.000251
0.000317
0.000564
0.000329
0.000348
0.000253
0.000253
0.000320
0.000400
0.000288
0.000263
0.000273
0.000266
0.000245
0.000434
0.000629
0.000271
0.000260
0.000259
0.000159
0.000067
0.000243
0.000239
0.000265
0.000246
0.001366
0.000360
0.000253
0.000251
0.000229
0.000237
0.000246
0.000285
0.000237
0.000293
0.000270
0.000298
0.000317
0.000679
0.000281
0.001748
0.000278
0.000261
0.000337
0.000423
0.000488
0.000418
0.000259
0.000230
0.000260
0.000276
0.000201
0.000066
0.000255
0.000249
0.000259
0.000274
0.001242
0.000252
0.000266
0.000243
0.000241
0.000250
0.000247
0.000250
0.000299
0.000269
0.000210
0.000282
0.000490
0.000360
0.000367
0.000262
0.000274
0.000266
0.000226
0.000250
0.000252
0.000284
0.000322
0.000270
0.000240
0.000379
0.000458
0.000069
0.000260
0.000238
0.000252
0.000230
0.000253
0.000241
0.000258
0.000296
0.000256
0.000261
0.001377
0.000254
0.000257
0.000227
0.000231
0.000237
0.000289
0.000245
0.000290
0.000294
0.000258
0.000467
0.000432
0.000389
0.000256
0.000280
0.001733
0.000267
0.000257
0.000334
0.000412
0.000087
0.000217
0.000383
0.000450
0.000498
0.000529
0.000549
0.001492
0.000420
0.000512
0.000655
0.000560
0.000727
0.000466
0.000621
0.000581
0.001891
0.000406
0.000432
0.000395
0.000302
0.000253
0.000268
0.000272
0.000275
0.000268
0.000281
0.000275
0.000292
0.000282
0.000282
0.001341
0.000097
0.000215
0.000221
0.000218
0.000254
0.000251
0.000255
0.000253
0.000273
0.000254
0.000234
0.000229
0.000250
0.000252
0.000264
0.000259
0.000277
0.001778
0.000284
0.000256
0.000249
0.000266
0.000257
0.000272
0.000251
0.000389
0.000431
0.000336
0.000269
0.000261
0.000275
0.000190
0.000094
0.000224
0.001315
0.000318
0.000283
0.000242
0.000249
0.000226
0.000234
0.000242
0.000248
0.000247
0.000232
0.000256
0.000482
0.000357
0.000321
0.000259
0.001793
0.000372
0.000271
0.000221
0.000273
0.000243
0.000270
0.000273
0.000277
0.000266
0.000270
0.000263
0.000306
0.000174
0.000066
0.000244
0.000253
0.000245
0.001378
0.000247
0.000252
0.000237
0.000229
0.000239
0.000267
0.000247
0.000260
0.000301
0.000253
0.000277
0.000266
0.000265
0.000233
0.000260
0.000245
0.000251
0.001763
0.000319
0.001705
0.000273
0.000264
0.000252
0.000248
0.000268
0.000279
0.000195
0.000065
0.000265
0.000248
0.001274
0.000254
0.000255
0.000252
0.000247
0.000249
0.000258
0.000235
0.000264
0.000302
0.000238
0.000250
0.000260
0.000261
0.000261
0.000292
0.000255
0.000251
0.001874
0.000279
0.001762
0.000241
0.000259
0.000265
0.000260
0.000234
0.000272
0.000275
0.000175
0.000069
0.001428
0.000238
0.000243
0.000246
0.000227
0.000230
0.000426
0.000274
0.000238
0.000276
0.000255
0.000225
0.000244
0.000351
0.000385
0.000269
0.000260
0.000274
0.000244
0.000255
0.000269
0.000327
0.000262
0.000285
0.000253
0.000282
0.000272
0.000357
0.000587
0.000361
0.000179
0.000080
0.000202
0.000253
0.000264
0.000469
0.000250
0.000257
0.001644
0.000318
0.000313
0.000243
0.000248
0.000265
0.000266
0.000329
0.000236
0.000301
0.000320
0.000584
0.000383
0.000265
0.000298
0.000274
0.000256
0.000287
0.000297
0.000298
0.000285
0.000264
0.000237
0.000282
0.000404
0.000067
0.000294
0.000419
0.000262
0.000262
0.000244
0.000251
0.000251
0.000288
0.000243
0.000270
0.001434
0.000249
0.000253
0.000213
0.000269
0.000264
0.000281
0.000267
0.000299
0.000268
0.000256
0.000307
0.000530
0.000336
0.000246
0.000280
0.000271
0.000265
0.000256
0.000290
0.000156
0.000066
0.000227
0.000221
0.000289
0.000423
0.000393
0.000277
0.000247
0.000255
0.000262
0.000210
0.000212
0.000264
0.000245
0.000270
0.000252
0.000299
0.000378
0.001161
0.000259
0.000250
0.000270
0.000253
0.000337
0.000438
0.000259
0.000400
0.000492
0.000346
0.000357
0.000261
0.000169
0.000066
0.000211
0.000246
0.000260
0.000257
0.000253
0.000285
0.000355
0.000447
0.000383
0.000264
0.000352
0.000403
0.000396
0.000354
0.000263
0.000238
0.000252
0.000265
0.000427
0.000399
0.001268
0.000287
0.000276
0.000237
0.000216
0.000262
0.000258
0.000296
0.000437
0.000411
0.000254
0.000068
0.000227
0.000251
0.000240
0.000238
0.000248
0.000244
0.000256
0.000250
0.000280
0.000362
0.000408
0.000370
0.000256
0.000251
0.000257
0.000254
0.000265
0.000265
0.000235
0.000248
0.000445
0.000251
0.000347
0.000555
0.000262
0.000276
0.000271
0.000204
0.000259
0.000308
0.000156
0.000066
0.000307
0.000311
0.000354
0.000310
0.000472
0.000361
0.000249
0.000257
0.000264
0.000268
0.000251
0.000249
0.000251
0.000242
0.000238
0.000268
0.000226
0.000473
0.000365
0.000372
0.000250
0.000247
0.000243
0.000263
0.000278
0.000272
0.000259
0.000275
0.000247
0.000345
0.000173
0.000066
0.000352
0.000242
0.000251
0.000258
0.000244
0.000249
0.000246
0.000271
0.000262
0.000251
0.000212
0.000244
0.000332
0.000443
0.000455
0.000296
0.000263
0.000267
0.000267
0.000230
0.000231
0.000273
0.000251
0.000272
0.000270
0.000267
0.000419
0.000646
0.000358
0.000275
0.000162
0.000066
0.000378
0.000235
0.000246
0.000238
0.000253
0.000206
0.000235
0.000256
0.000257
0.000265
0.000292
0.000254
0.000247
0.000195
0.000244
0.000247
0.000274
0.000270
0.000266
0.000261
0.000268
0.000250
0.000258
0.000270
0.000247
0.000271
0.000280
0.000259
0.000257
0.000277
0.000167
0.000065
0.000233
0.000240
0.000248
0.000216
0.000236
0.000232
0.000260
0.000240
0.000258
0.000291
0.000257
0.000257
0.000257
0.000386
0.000276
0.000259
0.000252
0.000262
0.000247
0.000271
0.000252
0.000252
0.000223
0.000268
0.000283
0.000264
0.000243
0.000281
0.000252
0.000292
0.000159
0.000075
0.000228
0.000334
0.000370
0.000280
0.000294
0.000264
0.000261
0.000283
0.000256
0.000245
0.000225
0.000234
0.000265
0.000255
0.000261
0.000256
0.000248
0.000268
0.000271
0.000257
0.000237
0.000280
0.000269
0.000281
0.000261
0.000247
0.000269
0.000282
0.000257
0.000270
0.000169
0.000066
0.000207
0.000217
0.000251
0.000262
0.000253
0.000449
0.000259
0.000264
0.000282
0.000371
0.000507
0.000283
0.000252
0.000256
0.000253
0.000257
0.000242
0.000252
0.000285
0.000253
0.000281
0.000252
0.000273
0.000260
0.000501
0.000537
0.000251
0.000298
0.000258
0.000278
0.000180
0.000070
0.000239
0.000268
0.000250
0.000228
0.000249
0.000672
0.000317
0.000379
0.000245
0.000258
0.000257
0.000233
0.000243
0.000270
0.000295
0.000246
0.000238
0.000262
0.000625
0.000346
0.000305
0.000243
0.000263
0.000271
0.000286
0.000251
0.000263
0.000284
0.000281
0.000333
0.000258
0.000069
0.000287
0.000232
0.000256
0.000255
0.000224
0.000245
0.000213
0.000255
0.000266
0.000242
0.000255
0.000243
0.000254
0.000353
0.000581
0.000406
0.000244
0.000253
0.000244
0.000250
0.000267
0.000294
0.000506
0.000261
0.000246
0.000511
0.000452
0.000482
0.000265
0.000279
0.000161
0.000066
0.000221
0.000246
0.000249
0.000279
0.000235
0.000243
0.000246
0.000432
0.000601
0.000427
0.000233
0.000241
0.000273
0.000280
0.000257
0.000256
0.000289
0.000260
0.000264
0.000350
0.000333
0.000709
0.000305
0.000275
0.000314
0.000379
0.000501
0.000293
0.000217
0.000409
0.000356
0.000067
0.000262
0.000279
0.000387
0.000221
0.000235
0.000254
0.000263
0.000279
0.000236
0.000291
0.000263
0.000333
0.000333
0.000388
0.000248
0.000247
0.000263
0.000258
0.000266
0.000282
0.000258
0.000256
0.000266
0.000280
0.000259
0.000473
0.000500
0.000261
0.000250
0.000259
0.000185
0.000080
0.000207
0.000253
0.000229
0.000250
0.000246
0.000287
0.000381
0.000343
0.000457
0.000263
0.000371
0.000250
0.000264
0.000251
0.000226
0.000271
0.000254
0.000258
0.000321
0.000364
0.000496
0.000425
0.000361
0.000280
0.000377
0.000427
0.000375
0.000248
0.000276
0.000321
0.000307
0.000069
0.000260
0.000230
0.000249
0.000249
0.000263
0.000252
0.000238
0.000254
0.000273
0.000251
0.000240
0.000384
0.000386
0.000365
0.000374
0.000268
0.000258
0.000266
0.000244
0.000253
0.000229
0.000241
0.000280
0.000257
0.000278
0.000384
0.000471
0.000471
0.000246
0.000267
0.000175
0.000074
0.000233
0.000240
0.000257
0.000237
0.000249
0.000343
0.000531
0.000445
0.000513
0.000525
0.000258
0.000244
0.000237
0.000240
0.000244
0.000325
0.000239
0.000264
0.000506
0.000432
0.001456
0.000330
0.000265
0.000266
0.000284
0.000253
0.000341
0.000450
0.000321
0.000354
0.000178
0.000084
0.000216
0.000235
0.000241
0.000248
0.000221
0.000251
0.000308
0.000237
0.000284
0.000324
0.000314
0.000373
0.000270
0.000323
0.000387
0.000347
0.000258
0.000270
0.000236
0.000266
0.000249
0.000237
0.000305
0.000238
0.000306
0.000438
0.000475
0.000266
0.000272
0.000267
0.000138
0.000075
0.000216
0.000250
0.000252
0.000256
0.000252
0.000314
0.000424
0.000210
0.000234
0.000242
0.000257
0.000256
0.000256
0.000249
0.000266
0.000265
0.000247
0.000273
0.000274
0.000267
0.000319
0.000278
0.000232
0.000257
0.000266
0.000260
0.000265
0.000269
0.000269
0.000243
0.000169
0.000073
0.000227
0.000238
0.000326
0.000445
0.000414
0.000196
0.000235
0.000252
0.000242
0.000258
0.000247
0.000262
0.000250
0.000245
0.000256
0.000255
0.000252
0.000264
0.000285
0.000358
0.000325
0.000463
0.000261
0.000269
0.000262
0.000238
0.000249
0.000243
0.000287
0.000261
0.000204
0.000205
0.000267
0.000399
0.000433
0.000254
0.000209
0.000264
0.000371
0.000251
0.000260
0.000240
0.000246
0.000258
0.000351
0.000446
0.001908
0.000235
0.000213
0.000247
0.000276
0.000245
0.000410
0.000466
0.000533
0.000287
0.000244
0.000268
0.000273
0.000410
0.000277
0.000276
0.000166
0.000137
0.000184
0.000431
0.000243
0.000325
0.000497
0.000224
0.000258
0.000242
0.000252
0.000255
0.000250
0.000212
0.000261
0.000317
0.000529
0.000382
0.000261
0.000271
0.000248
0.000223
0.000243
0.000307
0.000267
0.000257
0.000274
0.000456
0.000470
0.000439
0.000455
0.000256
0.000177
0.000066
0.000229
0.000252
0.000232
0.000243
0.000250
0.000221
0.000260
0.000301
0.000340
0.000300
0.000518
0.000321
0.000241
0.000231
0.000266
0.000337
0.000271
0.000238
0.000261
0.000264
0.000246
0.000241
0.000637
0.000279
0.000292
0.000279
0.000255
0.000385
0.000473
0.000283
0.000154
0.000066
0.000217
0.000231
0.000349
0.000407
0.000412
0.000255
0.000251
0.000255
0.000225
0.000230
0.000257
0.000244
0.000245
0.000260
0.000264
0.000267
0.000348
0.000395
0.000314
0.000346
0.000465
0.000270
0.000251
0.000269
0.000335
0.000258
0.000264
0.000236
0.000471
0.000520
0.000212
0.000094
0.000226
0.000190
0.000236
0.000248
0.000243
0.000463
0.000236
0.000259
0.000235
0.000330
0.000475
0.000615
0.000213
0.000246
0.000265
0.000250
0.000238
0.000255
0.000265
0.000243
0.000266
0.000232
0.000342
0.000438
0.000379
0.000426
0.000346
0.000281
0.000272
0.000258
0.000171
0.000068
0.000222
0.000245
0.000289
0.000411
0.000316
0.000329
0.000243
0.000259
0.000259
0.000250
0.000250
0.000251
0.000249
0.000260
0.000244
0.000247
0.000254
0.000225
0.000257
0.000392
0.000483
0.000429
0.000244
0.000270
0.000237
0.000256
0.000259
0.000260
0.000278
0.000256
0.000200
0.000081
0.000239
0.000381
0.000490
0.000243
0.000238
0.000273
0.000288
0.000457
0.000273
0.000251
0.000251
0.000247
0.000308
0.000331
0.000469
0.000296
0.000283
0.000267
0.000269
0.000271
0.000266
0.000207
0.000264
0.000270
0.000262
0.000299
0.000366
0.000382
0.000343
0.000286
0.000157
0.000067
0.000245
0.000247
0.000245
0.000230
0.000270
0.000232
0.000257
0.000242
0.000238
0.000240
0.000263
0.000240
0.000292
0.001444
0.000233
0.000271
0.000237
0.000251
0.000258
0.000274
0.000265
0.000238
0.000275
0.000267
0.000257
0.000283
0.000308
0.000242
0.000266
0.000278
0.000155
0.000095
0.000201
0.000241
0.000230
0.000263
0.000217
0.000240
0.000258
0.000261
0.000272
0.000265
0.000257
0.000256
0.000254
0.000211
0.000260
0.000257
0.000254
0.000263
0.000259
0.000268
0.000250
0.000261
0.000243
0.000276
0.001253
0.000285
0.000557
0.000432
0.000333
0.000258
0.000183
0.000067
0.000255
0.000231
0.000259
0.000252
0.000376
0.000245
0.000243
0.000254
0.000238
0.000322
0.000477
0.000327
0.000249
0.000249
0.000271
0.000244
0.000276
0.000272
0.000245
0.000265
0.000230
0.000268
0.000256
0.000371
0.000529
0.000457
0.000253
0.000244
0.001403
0.000226
0.000166
0.000068
0.000239
0.000396
0.000334
0.000271
0.000229
0.000236
0.000245
0.000280
0.000244
0.000244
0.000248
0.000258
0.000275
0.000323
0.000461
0.000352
0.000359
0.000257
0.000251
0.000264
0.000260
0.000313
0.000266
0.000225
0.000231
0.000263
0.000436
0.000439
0.000448
0.000308
0.000139
0.000068
0.000210
0.000243
0.001242
0.000440
0.000311
0.000418
0.000404
0.000470
0.000276
0.000339
0.000248
0.000280
0.000265
0.000253
0.000268
0.000209
0.000417
0.000413
0.000371
0.000384
0.000258
0.000257
0.000249
0.000519
0.000245
0.000269
0.000253
0.000276
0.000254
0.000601
0.000239
0.000065
0.000379
0.000312
0.000258
0.001389
0.000495
0.000405
0.000257
0.000250
0.000263
0.000235
0.000223
0.000235
0.000245
0.000263
0.000264
0.000238
0.000263
0.000288
0.000401
0.000327
0.000480
0.000254
0.000234
0.000263
0.000263
0.000274
0.000272
0.000291
0.000288
0.000272
0.000175
0.000097
0.000390
0.000304
0.000234
0.000239
0.000252
0.000265
0.000226
0.000241
0.000214
0.000257
0.001353
0.000495
0.000267
0.000253
0.000252
0.000259
0.000233
0.000266
0.000244
0.000301
0.000265
0.000281
0.000335
0.000277
0.000395
0.000500
0.000251
0.000268
0.000274
0.000251
0.000173
0.000086
0.000247
0.000370
0.000228
0.000266
0.000283
0.000470
0.000332
0.000344
0.000446
0.000238
0.000211
0.000250
0.000265
0.000263
0.000255
0.001461
0.000322
0.000305
0.000259
0.000258
0.000269
0.000263
0.000245
0.000251
0.000283
0.000312
0.000403
0.000402
0.000295
0.000282
0.000148
0.000066
0.000225
0.000246
0.000222
0.000239
0.000237
0.000245
0.000250
0.000258
0.000303
0.000346
0.000416
0.000315
0.000265
0.000265
0.000218
0.000258
0.000266
0.000258
0.000263
0.000245
0.000264
0.000357
0.001202
0.000253
0.000275
0.000263
0.000267
0.000245
0.000227
0.000266
0.000188
0.000067
0.000227
0.000336
0.000380
0.000396
0.000255
0.000241
0.000218
0.000264
0.000247
0.000267
0.000265
0.000256
0.000263
0.000232
0.000249
0.000266
0.000306
0.000235
0.000241
0.000254
0.000270
0.000269
0.000262
0.000298
0.000248
0.000292
0.000257
0.000240
0.000261
0.000444
0.001363
0.000079
0.000232
0.000245
0.000246
0.000234
0.000262
0.000222
0.000236
0.000235
0.000249
0.000271
0.000308
0.000208
0.000262
0.000245
0.000261
0.000253
0.001685
0.000261
0.000250
0.000266
0.000295
0.000273
0.000263
0.000273
0.000234
0.000247
0.000283
0.000268
0.000266
0.000261
0.000192
0.000124
0.000296
0.000344
0.001291
0.000235
0.000247
0.000249
0.000226
0.000270
0.000249
0.000244
0.000226
0.000438
0.000298
0.000508
0.000255
0.000226
0.000236
0.000258
0.000277
0.000257
0.000259
0.000266
0.000272
0.000238
0.000262
0.000414
0.000352
0.000366
0.000338
0.000253
0.000160
0.000065
0.000235
0.000232
0.000255
0.000247
0.000251
0.000195
0.000243
0.000265
0.000418
0.001369
0.000262
0.000215
0.000264
0.000262
0.000255
0.000261
0.000265
0.000255
0.000287
0.000386
0.000397
0.000279
0.000236
0.000280
0.000266
0.000245
0.000292
0.000262
0.000302
0.000259
0.000170
0.000094
0.000206
0.000480
0.000375
0.000250
0.000250
0.000190
0.000232
0.000258
0.000264
0.000258
0.000239
0.000254
0.000441
0.000501
0.000485
0.001446
0.000253
0.000269
0.000318
0.000347
0.000465
0.000414
0.000481
0.000426
0.000274
0.000280
0.000275
0.000226
0.000234
0.000273
0.000169
0.000068
0.000237
0.000249
0.000452
0.000557
0.000247
0.000260
0.000251
0.000241
0.000262
0.000251
0.000243
0.000258
0.000255
0.000257
0.000255
0.000312
0.000320
0.000443
0.001399
0.000325
0.000254
0.000251
0.000267
0.000256
0.000413
0.000441
0.000390
0.000288
0.000287
0.000233
0.000183
0.000067
0.000238
0.000226
0.000260
0.000234
0.000258
0.000276
0.000399
0.000388
0.000381
0.000259
0.000300
0.000271
0.000254
0.000259
0.000262
0.000218
0.000260
0.000263
0.000239
0.000297
0.000436
0.000406
0.000338
0.001354
0.000414
0.000265
0.000251
0.000427
0.000416
0.000352
0.000302
0.000066
0.000214
0.000261
0.000244
0.000229
0.000224
0.000253
0.001679
0.000250
0.000236
0.000251
0.000245
0.000265
0.000233
0.000308
0.000320
0.000289
0.000291
0.000362
0.000374
0.000506
0.000258
0.000285
0.000245
0.000270
0.001478
0.000402
0.000346
0.000446
0.000348
0.000295
0.000160
0.000067
0.000249
0.000259
0.000260
0.000234
0.000252
0.000260
0.001659
0.000249
0.000236
0.000251
0.000346
0.000432
0.001429
0.000351
0.000391
0.000255
0.000242
0.000246
0.000261
0.000271
0.001524
0.000562
0.000388
0.000298
0.000253
0.000246
0.000257
0.000280
0.000266
0.000303
0.000149
0.000095
0.000231
0.000253
0.000217
0.000243
0.000272
0.000289
0.000276
0.000244
0.000257
0.000239
0.000243
0.000271
0.000259
0.000264
0.000241
0.001473
0.000270
0.000253
0.000262
0.000258
0.000271
0.000257
0.000428
0.001272
0.000298
0.000263
0.000267
0.000261
0.000362
0.000238
0.000191
0.000077
0.000222
0.000242
0.000239
0.000232
0.000245
0.000254
0.000234
0.001647
0.000267
0.000241
0.000333
0.000290
0.000250
0.000260
0.000260
0.001306
0.000256
0.000263
0.000266
0.000268
0.000230
0.000322
0.000310
0.001292
0.000280
0.000262
0.000252
0.000264
0.001367
0.000291
0.000204
0.000096
0.000176
0.000353
0.000225
0.000251
0.000249
0.000258
0.000267
0.000248
0.000256
0.000294
0.000215
0.000296
0.000248
0.000300
0.000202
0.001536
0.000260
0.000231
0.000252
0.000244
0.000313
0.000247
0.000274
0.001490
0.000346
0.000276
0.000247
0.001242
0.000281
0.000257
0.000207
0.000066
0.000268
0.000313
0.000357
0.000244
0.000221
0.000243
0.000254
0.000243
0.000260
0.000275
0.000234
0.000267
0.000276
0.000304
0.000367
0.001217
0.000245
0.000255
0.000261
0.000257
0.000240
0.000245
0.000264
0.000364
0.001225
0.000255
0.000275
0.000248
0.000236
0.001326
0.000291
0.000098
0.000304
0.000246
0.000213
0.000240
0.000253
0.000258
0.000249
0.000261
0.000262
0.000240
0.000244
0.000245
0.000265
0.000337
0.000363
0.001469
0.000239
0.000266
0.000506
0.000332
0.000235
0.001493
0.000334
0.000238
0.000244
0.000262
0.000259
0.001253
0.000280
0.000546
0.000311
0.000095
0.000208
0.000252
0.000248
0.000264
0.000280
0.000239
0.000256
0.000257
0.000251
0.000261
0.000407
0.000427
0.001296
0.000246
0.000253
0.000257
0.000280
0.000238
0.000256
0.000252
0.000299
0.001260
0.000252
0.000261
0.000259
0.000251
0.001453
0.000481
0.000487
0.000217
0.000160
0.000067
0.000232
0.000232
0.000258
0.000236
0.000259
0.000251
0.000256
0.000212
0.000423
0.000485
0.000263
0.001495
0.000246
0.000241
0.000259
0.000241
0.000260
0.000278
0.001703
0.000237
0.000389
0.000357
0.001277
0.000388
0.000333
0.000289
0.000264
0.000262
0.000275
0.000251
0.000162
0.000065
0.000226
0.000246
0.000290
0.000270
0.000319
0.000516
0.000355
0.000259
0.001447
0.000254
0.000363
0.000268
0.000243
0.000289
0.000381
0.001324
0.000268
0.000265
0.000256
0.000260
0.001472
0.000385
0.000333
0.000278
0.000270
0.000269
0.000371
0.000324
0.000254
0.000260
0.000251
0.000067
0.000259
0.000331
0.000351
0.000266
0.000244
0.001498
0.000242
0.000242
0.000247
0.000267
0.000266
0.000243
0.000316
0.001484
0.000242
0.000264
0.000403
0.001184
0.000332
0.000473
0.000379
0.000268
0.000256
0.000244
0.000265
0.000263
0.000415
0.000245
0.000250
0.000272
0.000196
0.000065
0.000244
0.000236
0.000373
0.000349
0.001330
0.000315
0.000272
0.000221
0.000250
0.000250
0.000237
0.000304
0.001484
0.000261
0.000259
0.000242
0.001354
0.000327
0.000395
0.000396
0.000406
0.000254
0.000256
0.000264
0.000283
0.000261
0.000276
0.000272
0.000234
0.000273
0.000154
0.000066
0.000236
0.000293
0.001511
0.000231
0.000252
0.000300
0.000216
0.000245
0.000267
0.000448
0.001342
0.000225
0.000268
0.000255
0.000265
0.001224
0.000774
0.000251
0.000297
0.000401
0.000305
0.000272
0.000255
0.000260
0.000255
0.000289
0.000273
0.000286
0.000417
0.000489
0.001359
0.000084
0.000210
0.000245
0.000252
0.000248
0.000212
0.000402
0.000496
0.001275
0.000255
0.000271
0.000263
0.001430
0.000367
0.000382
0.000268
0.000365
0.000228
0.000263
0.000268
0.000259
0.000257
0.000268
0.000257
0.000267
0.000266
0.000250
0.000514
0.000430
0.001477
0.000240
0.000172
0.000066
0.000215
0.000251
0.000413
0.001497
0.000293
0.000257
0.000249
0.000250
0.000249
0.000262
0.000251
0.000246
0.000340
0.000640
0.000213
0.000239
0.000263
0.000243
0.000273
0.000282
0.000253
0.000263
0.000248
0.000260
0.000230
0.000433
0.000430
0.000386
0.000325
0.001385
0.000169
0.000069
0.000237
0.000219
0.000263
0.000474
0.000325
0.000342
0.000290
0.000321
0.000301
0.000258
0.000250
0.000231
0.000302
0.000267
0.000259
0.000263
0.000527
0.000342
0.000327
0.000400
0.000233
0.000409
0.000240
0.000261
0.000271
0.000258
0.000281
0.000276
0.000289
0.000531
0.000266
0.000067
0.000236
0.001364
0.000303
0.000326
0.000444
0.000341
0.000374
0.000309
0.000268
0.000263
0.000258
0.000263
0.000203
0.000282
0.000255
0.000268
0.000251
0.001235
0.000377
0.000274
0.000261
0.000270
0.000283
0.000264
0.000243
0.000271
0.000253
0.000266
0.000338
0.000380
0.000251
0.000065
0.000231
0.000240
0.000266
0.001457
0.000322
0.000246
0.000262
0.000239
0.000222
0.000241
0.000280
0.000268
0.000227
0.000255
0.000261
0.000248
0.000267
0.000251
0.000267
0.000255
0.001390
0.000261
0.000283
0.000269
0.000269
0.000267
0.000267
0.000222
0.000268
0.000455
0.000362
0.000067
0.000232
0.000249
0.000406
0.000259
0.000258
0.000259
0.001479
0.000392
0.000258
0.000241
0.000233
0.000369
0.000280
0.000261
0.000248
0.000260
0.000241
0.000230
0.000238
0.000265
0.000537
0.000443
0.001113
0.000286
0.000281
0.000228
0.000264
0.000273
0.000273
0.000262
0.000333
0.000065
0.000206
0.000339
0.000229
0.000231
0.000236
0.000255
0.000277
0.000257
0.000254
0.001558
0.000392
0.000273
0.000283
0.000234
0.000241
0.000264
0.000262
0.000271
0.000295
0.000272
0.000295
0.000492
0.000428
0.001367
0.000272
0.000287
0.000270
0.000253
0.000231
0.000255
0.000456
0.000067
0.000267
0.000253
0.000247
0.000211
0.000237
0.000240
0.000243
0.000299
0.000244
0.001561
0.000360
0.000257
0.000224
0.000267
0.000460
0.000269
0.000578
0.000369
0.000270
0.000238
0.000491
0.000514
0.001230
0.000281
0.000271
0.000259
0.001717
0.000410
0.000595
0.000320
0.000140
0.000066
0.000234
0.000244
0.000256
0.000209
0.000239
0.000239
0.000258
0.000543
0.000440
0.000410
0.000277
0.000230
0.000263
0.000267
0.000263
0.000258
0.000251
0.000261
0.000256
0.000255
0.000267
0.000352
0.001376
0.000258
0.000297
0.000289
0.001829
0.000379
0.000463
0.000266
0.000148
0.000066
0.000253
0.000227
0.000249
0.001545
0.000404
0.000232
0.000246
0.000257
0.000252
0.000263
0.000386
0.000371
0.000346
0.000300
0.000248
0.000541
0.000464
0.001108
0.000291
0.000265
0.000248
0.000255
0.000271
0.000389
0.000604
0.000473
0.000252
0.000265
0.000266
0.000275
0.000194
0.000064
0.000252
0.000257
0.000249
0.001472
0.000265
0.000251
0.000238
0.000233
0.000243
0.000248
0.000285
0.000292
0.000253
0.000247
0.000251
0.000392
0.000383
0.000336
0.001399
0.000263
0.000275
0.000266
0.000264
0.000215
0.000414
0.000474
0.000407
0.000270
0.000295
0.000264
0.000394
0.000066
0.000250
0.000270
0.000229
0.001516
0.000287
0.000251
0.000241
0.000247
0.000248
0.000259
0.000258
0.000315
0.000265
0.000260
0.000370
0.000456
0.001402
0.000748
0.000333
0.000302
0.000242
0.000227
0.000264
0.000274
0.001641
0.000801
0.000268
0.000314
0.000278
0.000253
0.000128
0.000098
0.000211
0.000247
0.000239
0.000267
0.000240
0.000251
0.000259
0.000251
0.000203
0.000247
0.000273
0.000322
0.000215
0.000256
0.000261
0.000265
0.000233
0.001591
0.000738
0.000401
0.000287
0.000272
0.000276
0.000265
0.000224
0.000266
0.000260
0.000256
0.001362
0.000393
0.000310
0.000067
0.000228
0.000242
0.000247
0.000244
0.000227
0.000264
0.000249
0.000233
0.000252
0.000253
0.000263
0.000441
0.000460
0.000316
0.000227
0.000239
0.000255
0.001383
0.000679
0.000547
0.000274
0.000279
0.000249
0.000268
0.000245
0.000267
0.000270
0.000253
0.001481
0.000373
0.000238
0.000097
0.000233
0.000240
0.000216
0.000252
0.000250
0.000255
0.000239
0.000257
0.000223
0.000275
0.000350
0.000360
0.000386
0.000236
0.000233
0.000241
0.000264
0.000263
0.001528
0.000632
0.000456
0.000350
0.000273
0.000260
0.000213
0.000279
0.000268
0.000269
0.000251
0.001347
0.000314
0.000072
0.000205
0.000232
0.000242
0.000274
0.000217
0.000277
0.000237
0.000281
0.000362
0.000449
0.000336
0.000501
0.000292
0.000252
0.000255
0.000271
0.000269
0.000235
0.000249
0.001908
0.000306
0.000286
0.000413
0.000252
0.000262
0.000266
0.000264
0.000265
0.000258
0.000270
0.000302
0.000067
0.000268
0.000274
0.000244
0.000289
0.000250
0.000219
0.000208
0.000236
0.000270
0.000239
0.000251
0.000243
0.000342
0.000337
0.000504
0.000430
0.000276
0.000242
0.000235
0.000256
0.000270
0.000274
0.001581
0.000913
0.000299
0.000269
0.000265
0.000275
0.000214
0.000258
0.000166
0.000066
0.000224
0.001322
0.000292
0.000238
0.000240
0.000252
0.000233
0.000253
0.000255
0.000239
0.000258
0.000230
0.000271
0.000350
0.000357
0.000522
0.000273
0.000242
0.000306
0.000261
0.000219
0.000244
0.000220
0.000265
0.001314
0.000677
0.000321
0.000409
0.000372
0.000385
0.000285
0.000067
0.000227
0.000305
0.000257
0.001316
0.000236
0.000284
0.000255
0.000261
0.000258
0.000254
0.000205
0.000255
0.000255
0.000336
0.000530
0.000323
0.000247
0.000270
0.000307
0.000251
0.000253
0.000250
0.000265
0.000271
0.000258
0.001973
0.000354
0.000295
0.000276
0.000252
0.000149
0.000093
0.000187
0.000333
0.000372
0.000398
0.001232
0.000256
0.000243
0.000238
0.000248
0.000253
0.000250
0.000219
0.000247
0.000256
0.000263
0.000245
0.000250
0.000239
0.000265
0.000251
0.000241
0.000273
0.000335
0.000318
0.000272
0.000246
0.000235
0.001431
0.000268
0.000255
0.000155
0.000066
0.000226
0.000231
0.000247
0.000255
0.000350
0.000370
0.000388
0.000273
0.001578
0.000263
0.000276
0.000601
0.000245
0.000259
0.000404
0.000249
0.000258
0.000263
0.000271
0.000266
0.000241
0.000264
0.000258
0.000305
0.000264
0.000372
0.000376
0.000336
0.001582
0.000248
0.000170
0.000077
0.000227
0.000250
0.000245
0.000249
0.000250
0.000207
0.000300
0.000289
0.000434
0.001987
0.000230
0.000251
0.000279
0.000251
0.000258
0.000258
0.000264
0.000253
0.000298
0.000416
0.000339
0.000437
0.001457
0.000251
0.000237
0.002038
0.000273
0.000266
0.000256
0.001509
0.000175
0.000185
0.000238
0.000396
0.000455
0.000276
0.000244
0.000250
0.000253
0.000257
0.000234
0.000251
0.000269
0.000323
0.000383
0.000349
0.000415
0.000264
0.000252
0.001540
0.000251
0.000606
0.001841
0.000296
0.000256
0.001535
0.002009
0.000724
0.000301
0.000246
0.000289
0.000434
0.000410
0.000098
0.000227
0.000249
0.000212
0.000231
0.001388
0.001734
0.001068
0.000241
0.000236
0.001560
0.001983
0.000249
0.000241
0.000381
0.000340
0.000289
0.000390
0.000543
0.000222
0.000250
0.000251
0.000270
0.000232
0.001591
0.001231
0.001411
0.000293
0.000253
0.000263
0.000329
0.000370
0.000068
0.000235
0.000267
0.000212
0.000231
0.000228
0.000257
0.000250
0.000248
0.000251
0.000255
0.000229
0.000312
0.000484
0.000384
0.000349
0.000239
0.000280
0.000266
0.000219
0.000262
0.000252
0.000263
0.001491
0.000498
0.002117
0.000261
0.000263
0.000289
0.000449
0.000396
0.000180
0.000074
0.000217
0.000433
0.000367
0.000310
0.000233
0.000236
0.000278
0.000239
0.000237
0.000231
0.000255
0.000261
0.000240
0.001580
0.001386
0.001214
0.000265
0.000251
0.000243
0.000283
0.000263
0.000264
0.000247
0.000260
0.002212
0.000260
0.000261
0.000268
0.000323
0.000309
0.000218
0.000070
0.000267
0.000345
0.000525
0.000323
0.000241
0.000252
0.000242
0.000255
0.001889
0.001423
0.000245
0.000284
0.000388
0.000415
0.000264
0.000250
0.000270
0.000254
0.000306
0.000267
0.000212
0.000255
0.000460
0.000271
0.000273
0.000266
0.000278
0.000278
0.000240
0.000243
0.000172
0.000067
0.000279
0.000246
0.000230
0.000221
0.000264
0.000278
0.001486
0.001447
0.001322
0.000239
0.000240
0.000250
0.000252
0.000237
0.000276
0.000253
0.000246
0.002089
0.000239
0.000260
0.000271
0.000260
0.000250
0.000275
0.000250
0.000281
0.000296
0.000271
0.000268
0.000221
0.000152
0.000075
0.000216
0.002667
0.001392
0.000243
0.000276
0.000324
0.000229
0.000275
0.000235
0.000257
0.000232
0.000263
0.000276
0.000267
0.000265
0.000273
0.000201
0.000239
0.000271
0.000263
0.000250
0.000288
0.000271
0.000254
0.000256
0.000254
0.000281
0.000287
0.000237
0.000258
0.000364
0.000075
0.001543
0.000250
0.001264
0.000256
0.000206
0.000235
0.000262
0.000250
0.000252
0.000267
0.000376
0.000355
0.000325
0.000245
0.000249
0.002151
0.000251
0.000256
0.000302
0.000439
0.000347
0.000318
0.000271
0.000282
0.000268
0.000266
0.000274
0.000252
0.000229
0.001585
0.001251
0.000068
0.000219
0.000240
0.000251
0.000462
0.000347
0.000241
0.000238
0.000252
0.000276
0.000279
0.000255
0.000191
0.000212
0.000263
0.000261
0.000260
0.000266
0.000614
0.000382
0.000250
0.000247
0.000291
0.000260
0.000258
0.000250
0.000262
0.000243
0.000267
0.000267
0.000343
0.000317
0.000095
0.001087
0.000249
0.000333
0.000500
0.000225
0.000245
0.000238
0.000236
0.000246
0.002323
0.000322
0.000401
0.000240
0.000399
0.000295
0.000236
0.000298
0.000272
0.000210
0.000223
0.000233
0.000300
0.000572
0.000445
0.001874
0.001226
0.000590
0.000553
0.000247
0.000269
0.000195
0.000077
0.000288
0.000309
0.000257
0.000226
0.000243
0.000235
0.000254
0.000249
0.000258
0.000240
0.000241
0.000251
0.000269
0.000244
0.000361
0.000541
0.001819
0.001313
0.000432
0.000455
0.000443
0.000275
0.000232
0.000249
0.002128
0.000540
0.000390
0.000254
0.000256
0.000283
0.000188
0.000066
0.000267
0.000259
0.000256
0.000245
0.000198
0.000330
0.000393
0.000306
0.000339
0.000226
0.000250
0.000241
0.000246
0.002113
0.000387
0.000357
0.000246
0.000266
0.000266
0.000253
0.000273
0.002406
0.000329
0.000270
0.000269
0.000226
0.000266
0.000264
0.000321
0.000224
0.000182
0.000068
0.000227
0.000304
0.000568
0.000362
0.000260
0.000247
0.000253
0.000235
0.000257
0.000257
0.001937
0.000386
0.000287
0.000266
0.000240
0.000293
0.000244
0.000249
0.002187
0.000442
0.000249
0.000263
0.000245
0.000273
0.000257
0.000300
0.000294
0.000268
0.000243
0.000229
0.000150
0.000067
0.000251
0.000238
0.000226
0.000245
0.000261
0.000253
0.000252
0.000208
0.000225
0.002178
0.000238
0.000259
0.000249
0.000398
0.000236
0.000238
0.000310
0.000262
0.000304
0.000273
0.001898
0.000273
0.000367
0.000334
0.000440
0.000451
0.000251
0.000261
0.000274
0.000262
0.000183
0.000066
0.000210
0.000236
0.000247
0.000247
0.000232
0.000326
0.000237
0.002307
0.000228
0.000246
0.000259
0.000255
0.000254
0.000250
0.000274
0.002128
0.000581
0.000243
0.000256
0.000243
0.000255
0.000261
0.000271
0.000293
0.000279
0.000278
0.000275
0.000233
0.000257
0.000261
0.000170
0.000067
0.001822
0.001421
0.000231
0.000227
0.000246
0.000239
0.000253
0.000319
0.000324
0.000361
0.002182
0.000252
0.000261
0.000260
0.000268
0.000564
0.000346
0.000305
0.000219
0.000269
0.000268
0.000244
0.000255
0.000245
0.000276
0.000245
0.000273
0.000265
0.000267
0.000762
0.000251
0.000094
0.000234
0.000253
0.000232
0.000263
0.000253
0.000239
0.000246
0.000256
0.001426
0.002129
0.000570
0.000280
0.000399
0.000701
0.000391
0.000264
0.000223
0.000220
0.000264
0.000253
0.000264
0.000273
0.000259
0.000283
0.002993
0.000297
0.000263
0.000265
0.000265
0.000278
0.000384
0.000066
0.001930
0.000233
0.000246
0.000250
0.000223
0.000371
0.000462
0.000349
0.000249
0.000235
0.000253
0.000261
0.000255
0.000248
0.000257
0.000226
0.000289
0.000262
0.001845
0.000260
0.000197
0.000262
0.000310
0.000274
0.000263
0.000237
0.001445
0.000339
0.000258
0.000266
0.000158
0.000066
0.000223
0.000245
0.000236
0.000249
0.000242
0.000248
0.000316
0.000307
0.000463
0.000276
0.000216
0.000300
0.000253
0.000297
0.000392
0.000313
0.000239
0.000263
0.000284
0.000333
0.000509
0.000370
0.000296
0.000273
0.000246
0.000228
0.000279
0.000286
0.000243
0.000293
0.000156
0.000071
0.001426
0.000502
0.000252
0.001868
0.000250
0.000433
0.000475
0.000285
0.000249
0.000285
0.000206
0.000265
0.000248
0.000260
0.000237
0.000279
0.000403
0.000362
0.000368
0.000336
0.000370
0.000265
0.000306
0.000275
0.000268
0.000267
0.000262
0.000215
0.000441
0.000442
0.001277
0.000067
0.000253
0.000217
0.002038
0.000335
0.000297
0.000233
0.000263
0.000271
0.000275
0.000260
0.000263
0.000188
0.000234
0.000258
0.000255
0.000362
0.000727
0.001751
0.000248
0.000273
0.000246
0.000243
0.000295
0.000475
0.001611
0.000323
0.000361
0.001897
0.000269
0.000239
0.000189
0.000067
0.000219
0.000244
0.000273
0.000206
0.000230
0.000245
0.000257
0.000272
0.000316
0.000269
0.000384
0.000373
0.000386
0.000264
0.000235
0.000268
0.000296
0.000278
0.000262
0.000195
0.000343
0.000258
0.000269
0.000265
0.000264
0.001484
0.000268
0.000398
0.002063
0.000245
0.000163
0.000066
0.000242
0.000241
0.000227
0.000292
0.000443
0.000262
0.000251
0.000256
0.000347
0.000339
0.000275
0.000266
0.000218
0.000287
0.000243
0.000328
0.000443
0.000415
0.000252
0.000421
0.000506
0.000405
0.001629
0.000284
0.000267
0.001917
0.000317
0.000278
0.000278
0.000282
0.000158
0.000067
0.000232
0.000211
0.000242
0.000251
0.000261
0.000240
0.000285
0.000232
0.000262
0.000250
0.001820
0.000325
0.000376
0.000262
0.000465
0.000362
0.000336
0.001516
0.000273
0.000249
0.002116
0.000559
0.000264
0.000231
0.000282
0.000347
0.000452
0.000208
0.000245
0.000273
0.000184
0.000074
0.000307
0.000361
0.000413
0.000240
0.000234
0.000250
0.000250
0.000313
0.000280
0.000226
0.000239
0.000254
0.000240
0.000272
0.000300
0.000456
0.001327
0.000366
0.000337
0.001858
0.000265
0.000286
0.000248
0.000247
0.000274
0.000307
0.000224
0.000260
0.000260
0.000290
0.000174
0.000077
0.000233
0.000451
0.002031
0.000259
0.000261
0.000258
0.000260
0.000220
0.000389
0.000492
0.001284
0.000389
0.000343
0.002076
0.000239
0.000242
0.000242
0.000277
0.000258
0.000317
0.000266
0.000251
0.000260
0.000398
0.000402
0.000383
0.002281
0.000278
0.000470
0.000511
0.000370
0.000068
0.000233
0.000274
0.000255
0.001894
0.000247
0.000256
0.000246
0.000220
0.000243
0.000269
0.000279
0.000227
0.000232
0.000258
0.000410
0.001491
0.000265
0.000234
0.000267
0.000278
0.000272
0.000271
0.000262
0.000246
0.000335
0.000383
0.000506
0.000252
0.001556
0.000299
0.000139
0.000068
0.000219
0.000245
0.000241
0.000241
0.000247
0.000269
0.000276
0.000255
0.000272
0.000278
0.000350
0.001422
0.000249
0.000242
0.000251
0.000262
0.000287
0.000212
0.000306
0.000447
0.000487
0.000361
0.000264
0.001542
0.000241
0.000316
0.000272
0.000228
0.000264
0.000277
0.000178
0.000066
0.000241
0.000253
0.000220
0.000248
0.000250
0.000239
0.000260
0.000288
0.000229
0.000244
0.000247
0.000258
0.000255
0.001451
0.000356
0.000239
0.000235
0.000260
0.000306
0.000304
0.000376
0.000273
0.000230
0.000273
0.000272
0.000265
0.000253
0.001375
0.000325
0.000215
0.000151
0.000067
0.000228
0.000253
0.000210
0.000298
0.000240
0.000235
0.000238
0.000250
0.000244
0.000241
0.000253
0.000261
0.000242
0.000353
0.000302
0.000355
0.000270
0.000264
0.001591
0.000258
0.000255
0.000268
0.000286
0.000277
0.000353
0.000375
0.000456
0.000266
0.000262
0.001587
0.000153
0.000092
0.000328
0.000331
0.000375
0.000271
0.000244
0.000249
0.000236
0.000262
0.000261
0.000260
0.000228
0.000245
0.001421
0.000283
0.000316
0.000256
0.000248
0.000260
0.000258
0.000238
0.000262
0.000254
0.000236
0.000271
0.000297
0.000364
0.000419
0.000301
0.000338
0.000269
0.000166
0.000075
0.000234
0.000261
0.000478
0.000288
0.000358
0.000292
0.000250
0.000226
0.000239
0.000276
0.000237
0.000247
0.000255
0.000225
0.001290
0.000285
0.000261
0.000230
0.000260
0.000259
0.000252
0.000271
0.000271
0.000262
0.000233
0.000256
0.000308
0.000618
0.000493
0.000270
0.000144
0.000069
0.000218
0.001552
0.000237
0.000559
0.000239
0.000388
0.000250
0.000244
0.000281
0.000237
0.000242
0.000249
0.000240
0.000272
0.000255
0.001534
0.000260
0.000276
0.000261
0.000278
0.000255
0.000256
0.000251
0.000267
0.000265
0.000246
0.000466
0.000367
0.000372
0.000275
0.000133
0.000068
0.000242
0.000256
0.000239
0.001561
0.000425
0.000350
0.000245
0.000254
0.000260
0.000234
0.000274
0.000261
0.000265
0.000241
0.000251
0.000267
0.000380
0.001332
0.000243
0.000254
0.001467
0.000304
0.000709
0.000310
0.000306
0.000269
0.000266
0.000428
0.000243
0.000251
0.000181
0.000067
0.000335
0.000252
0.000248
0.000246
0.000256
0.000187
0.000248
0.000253
0.000253
0.000262
0.000260
0.000261
0.000268
0.000468
0.001680
0.001482
0.000367
0.000487
0.000407
0.000263
0.000255
0.000205
0.000251
0.000255
0.000249
0.000271
0.000268
0.000268
0.001505
0.000333
0.000177
0.000066
0.000237
0.000324
0.000348
0.000332
0.000239
0.000257
0.000242
0.000275
0.000484
0.000355
0.002198
0.000310
0.000689
0.000500
0.000497
0.000264
0.000344
0.000369
0.000329
0.000274
0.000381
0.000281
0.001527
0.000560
0.000266
0.000215
0.000254
0.000257
0.000262
0.000272
0.000165
0.000067
0.000240
0.000215
0.000248
0.000253
0.000244
0.001705
0.000832
0.000992
0.000236
0.000249
0.000275
0.000302
0.000253
0.000261
0.000250
0.000251
0.000204
0.000260
0.000262
0.000265
0.001417
0.000312
0.000267
0.000233
0.000254
0.000266
0.000271
0.000242
0.000296
0.000261
0.001876
0.000090
0.000227
0.000244
0.001461
0.000900
0.000419
0.000306
0.000238
0.000241
0.000251
0.000254
0.000250
0.000248
0.000233
0.001963
0.000474
0.000282
0.000261
0.000274
0.000261
0.000248
0.000124
