0.000116
0.018665
0.002926
0.000394
0.000261
0.000297
0.000327
0.000232
0.000324
0.000282
0.000248
0.000342
0.000482
0.000548
0.000374
0.000319
0.000290
0.000344
0.000356
0.000418
0.000308
0.001937
0.000686
0.000268
0.000249
0.000294
0.000322
0.000308
0.000421
0.000425
0.000531
0.000226
0.000059
0.000193
0.000266
0.000275
0.000288
0.000248
0.000252
0.000271
0.000292
0.000265
0.000261
0.000443
0.000423
0.000320
0.000256
0.000375
0.000348
0.000365
0.000256
0.000240
0.001713
0.000308
0.000271
0.000435
0.000256
0.000255
0.000287
0.000288
0.000294
0.000277
0.000318
0.000437
0.000056
0.000258
0.000251
0.000263
0.000259
0.000251
0.000245
0.000261
0.000255
0.000286
0.001677
0.000244
0.000214
0.000291
0.000252
0.000269
0.000253
0.000267
0.000256
0.000353
0.001795
0.000292
0.000232
0.000448
0.000432
0.000387
0.000229
0.000260
0.000482
0.000528
0.000731
0.000201
0.000057
0.000192
0.000238
0.000252
0.000243
0.000290
0.000274
0.000296
0.000560
0.000396
0.000242
0.000244
0.000249
0.000236
0.000257
0.000260
0.000255
0.000242
0.000269
0.000297
0.000326
0.001671
0.000323
0.000205
0.000419
0.000257
0.000767
0.000762
0.000396
0.000354
0.000235
0.000191
0.000058
0.000224
0.000249
0.000294
0.000211
0.000284
0.000232
0.000269
0.000474
0.001458
0.000210
0.000257
0.000242
0.000252
0.000252
0.000263
0.000304
0.000339
0.000740
0.001373
0.000303
0.000236
0.000418
0.000245
0.000236
0.000260
0.000263
0.000261
0.000278
0.000259
0.000266
0.000200
0.000056
0.000205
0.000245
0.000245
0.000264
0.000237
0.000245
0.000238
0.000256
0.000239
0.000252
0.001632
0.000285
0.000223
0.000226
0.000257
0.000245
0.000248
0.000256
0.000246
0.000255
0.000299
0.001638
0.000289
0.000260
0.000424
0.000259
0.000244
0.000267
0.000260
0.000271
0.000202
0.000056
0.000209
0.000227
0.000251
0.000246
0.000244
0.000252
0.000259
0.000236
0.000261
0.000259
0.000264
0.000238
0.000275
0.000257
0.001643
0.000280
0.000288
0.000222
0.000244
0.000274
0.000271
0.000235
0.000242
0.000260
0.001810
0.000384
0.000334
0.000375
0.000235
0.000278
0.000199
0.000056
0.000228
0.000236
0.000242
0.000271
0.000258
0.000260
0.000255
0.000409
0.000410
0.000437
0.000208
0.000243
0.000257
0.000247
0.001564
0.000552
0.000306
0.000403
0.000320
0.000229
0.000269
0.000282
0.000269
0.001741
0.000502
0.000465
0.000247
0.000238
0.000254
0.000266
0.000186
0.000057
0.000204
0.000232
0.000259
0.000310
0.000311
0.000476
0.000365
0.000238
0.000211
0.000249
0.000254
0.000245
0.000252
0.001699
0.000508
0.000288
0.000215
0.000264
0.000271
0.000282
0.000249
0.000255
0.000274
0.001924
0.000276
0.000384
0.000251
0.000246
0.000273
0.000403
0.000328
0.000055
0.000214
0.000366
0.000348
0.000293
0.000255
0.000249
0.000247
0.000258
0.000238
0.000243
0.000232
0.000245
0.001623
0.000313
0.000290
0.000222
0.000261
0.000246
0.000251
0.000308
0.000278
0.000301
0.000249
0.001808
0.000245
0.000499
0.000245
0.000260
0.000260
0.000264
0.000267
0.000056
0.000283
0.000676
0.000592
0.000210
0.000232
0.000275
0.000225
0.000224
0.000257
0.000254
0.000250
0.001703
0.000255
0.000439
0.000368
0.000217
0.000239
0.000227
0.000249
0.000271
0.000250
0.001856
0.000221
0.000471
0.001869
0.000545
0.000335
0.000248
0.000246
0.000270
0.000182
0.000056
0.000209
0.000245
0.000246
0.000240
0.000262
0.001614
0.000270
0.000216
0.000254
0.000254
0.000239
0.000296
0.000226
0.000227
0.000284
0.000397
0.000643
0.000251
0.000225
0.000272
0.000283
0.000234
0.000249
0.000428
0.000442
0.000271
0.000304
0.000638
0.000380
0.000272
0.000211
0.000056
0.000216
0.000239
0.000247
0.000250
0.000240
0.000244
0.000250
0.000359
0.000432
0.001742
0.000220
0.000234
0.000248
0.000244
0.000260
0.000284
0.000385
0.000581
0.000294
0.000222
0.000266
0.000313
0.000267
0.000245
0.000288
0.000426
0.000347
0.000509
0.000532
0.000479
0.000183
0.000055
0.000202
0.000255
0.000246
0.000234
0.000233
0.000235
0.000249
0.000262
0.000224
0.000299
0.000346
0.000436
0.001382
0.000245
0.000229
0.000251
0.000258
0.000246
0.000252
0.000251
0.000285
0.000462
0.000407
0.000262
0.000258
0.000261
0.000257
0.000291
0.000246
0.000267
0.000375
0.000056
0.000219
0.000234
0.000226
0.000391
0.000418
0.000426
0.000240
0.000256
0.000236
0.000261
0.000259
0.000228
0.000318
0.000224
0.000234
0.000484
0.000433
0.001645
0.000269
0.000224
0.000257
0.000266
0.000263
0.000235
0.000271
0.000564
0.000357
0.000336
0.000421
0.000227
0.000205
0.000056
0.000209
0.000422
0.000232
0.000211
0.000291
0.000220
0.000287
0.000570
0.000328
0.000338
0.000212
0.000284
0.000260
0.000261
0.000601
0.000267
0.000200
0.000249
0.000448
0.001584
0.000282
0.000300
0.000446
0.000255
0.000283
0.000266
0.000254
0.000304
0.000640
0.000337
0.000271
0.000056
0.000206
0.000235
0.000236
0.000251
0.000411
0.000309
0.000287
0.000223
0.000414
0.000491
0.000336
0.000262
0.000242
0.000238
0.000260
0.000262
0.000256
0.000252
0.000231
0.000359
0.000279
0.000241
0.001968
0.000215
0.000262
0.000250
0.000286
0.000345
0.000444
0.000700
0.000410
0.000056
0.000235
0.000334
0.000315
0.000415
0.000372
0.000202
0.000256
0.000270
0.000571
0.000396
0.000244
0.000237
0.000238
0.000272
0.000264
0.000233
0.000252
0.000274
0.000267
0.000265
0.000256
0.000338
0.000772
0.001302
0.000355
0.000411
0.000420
0.000242
0.000414
0.000448
0.000337
0.000055
0.000251
0.000383
0.000276
0.000233
0.000201
0.000247
0.000414
0.000232
0.000243
0.000401
0.000382
0.000491
0.000197
0.000256
0.000259
0.000248
0.000378
0.000384
0.000342
0.000236
0.000254
0.000380
0.000634
0.001686
0.000237
0.000420
0.000317
0.000212
0.000254
0.000474
0.000300
0.000056
0.000239
0.000224
0.000247
0.000257
0.000250
0.000237
0.000245
0.000335
0.000455
0.000254
0.000447
0.000407
0.000270
0.000576
0.000246
0.000240
0.000276
0.000261
0.000231
0.000356
0.000204
0.000251
0.000271
0.000498
0.000415
0.001651
0.000273
0.000238
0.000265
0.000246
0.000190
0.000057
0.000366
0.000455
0.000342
0.000203
0.000245
0.000249
0.000258
0.000240
0.000291
0.000224
0.000221
0.000259
0.000401
0.000519
0.000435
0.000250
0.000244
0.000259
0.000347
0.000393
0.000391
0.000314
0.000356
0.000396
0.000258
0.000244
0.000258
0.000280
0.001791
0.000246
0.000206
0.000056
0.000188
0.000214
0.000260
0.000294
0.000334
0.000540
0.000330
0.000208
0.000282
0.000232
0.000248
0.000276
0.000502
0.000446
0.000487
0.000272
0.000265
0.000259
0.000422
0.000465
0.000356
0.000428
0.000434
0.000481
0.000239
0.000240
0.000262
0.000248
0.000264
0.001720
0.000331
0.000056
0.000186
0.000324
0.000212
0.000231
0.000253
0.000249
0.000236
0.000503
0.000379
0.000313
0.000302
0.000257
0.000445
0.000619
0.000273
0.000225
0.000257
0.000254
0.000254
0.000265
0.000278
0.000258
0.000240
0.000265
0.000311
0.000372
0.000387
0.000365
0.000240
0.000250
0.000192
0.000055
0.000460
0.000260
0.000498
0.000245
0.000200
0.000248
0.000246
0.000257
0.000243
0.000224
0.000248
0.000281
0.000300
0.000412
0.000483
0.000458
0.000322
0.000304
0.000385
0.000346
0.000302
0.000244
0.000232
0.000262
0.001753
0.000269
0.001699
0.000945
0.000404
0.000321
0.000162
0.000055
0.000195
0.000238
0.000231
0.000250
0.000267
0.000237
0.000255
0.000252
0.000235
0.000285
0.000400
0.000443
0.000329
0.000382
0.000261
0.000226
0.000259
0.000293
0.000230
0.000245
0.000248
0.000266
0.001822
0.000235
0.000247
0.000264
0.000276
0.000266
0.001877
0.000529
0.000242
0.000056
0.000229
0.000218
0.000244
0.000226
0.000269
0.000247
0.000234
0.000252
0.000254
0.000458
0.000531
0.000269
0.000373
0.000228
0.000242
0.000262
0.000328
0.000439
0.000364
0.000255
0.001778
0.000252
0.000240
0.000255
0.000261
0.000274
0.000241
0.000248
0.000331
0.000354
0.000318
0.000057
0.000229
0.000227
0.000234
0.000269
0.000236
0.000248
0.000249
0.000254
0.000242
0.000257
0.000243
0.000253
0.000468
0.000313
0.000359
0.000274
0.000453
0.000243
0.000247
0.000254
0.000262
0.000261
0.000273
0.000256
0.000278
0.001793
0.000246
0.000233
0.000272
0.000240
0.000204
0.000056
0.000416
0.000211
0.000234
0.000223
0.000246
0.000228
0.000237
0.000258
0.000244
0.000221
0.000237
0.000268
0.000253
0.000423
0.000370
0.000348
0.000298
0.000215
0.000249
0.000253
0.000267
0.000264
0.000246
0.000263
0.000250
0.000276
0.000302
0.001639
0.000268
0.000233
0.000187
0.000056
0.000211
0.000236
0.000248
0.000274
0.000333
0.000505
0.000251
0.000317
0.000229
0.000257
0.000265
0.000227
0.000246
0.000253
0.000267
0.000254
0.000245
0.000258
0.000257
0.000255
0.000265
0.000269
0.000262
0.000222
0.000244
0.000285
0.000268
0.000259
0.000261
0.000262
0.000199
0.000055
0.000216
0.000213
0.000255
0.000274
0.000231
0.000241
0.000252
0.000251
0.000295
0.000223
0.000231
0.000242
0.000259
0.000252
0.000288
0.000243
0.000252
0.000248
0.000304
0.000247
0.000275
0.000340
0.000251
0.000224
0.000297
0.000253
0.000264
0.000250
0.000291
0.000377
0.000715
0.000056
0.000225
0.000289
0.000231
0.000216
0.000235
0.000258
0.000237
0.000246
0.000254
0.000245
0.000271
0.000287
0.000611
0.000383
0.001516
0.000238
0.000480
0.000229
0.000296
0.000437
0.000510
0.000278
0.000235
0.000286
0.000245
0.000265
0.000272
0.000263
0.000302
0.000281
0.000171
0.000056
0.000244
0.000528
0.000335
0.000330
0.000205
0.000277
0.000225
0.000242
0.000238
0.000242
0.000255
0.000260
0.000227
0.000263
0.000374
0.000510
0.000366
0.001810
0.000222
0.000247
0.000358
0.000402
0.000483
0.000272
0.000312
0.000322
0.000300
0.000244
0.000222
0.000243
0.000201
0.000057
0.000186
0.000228
0.000236
0.000313
0.000405
0.000408
0.000311
0.000254
0.000251
0.000214
0.000250
0.000269
0.000267
0.000266
0.000243
0.000262
0.000328
0.000466
0.000369
0.000396
0.000236
0.001758
0.000323
0.000487
0.000486
0.000494
0.000322
0.000240
0.000241
0.000268
0.000449
0.000056
0.000197
0.000268
0.000217
0.000323
0.000420
0.000419
0.000394
0.000216
0.000238
0.000286
0.000241
0.000265
0.000250
0.000296
0.000309
0.000235
0.000234
0.000360
0.000499
0.000336
0.000491
0.001857
0.000242
0.000492
0.000492
0.000316
0.000229
0.000258
0.000293
0.000264
0.000197
0.000057
0.000208
0.000336
0.000363
0.000292
0.000430
0.000306
0.000364
0.000216
0.000235
0.000262
0.000277
0.000222
0.000263
0.000247
0.000234
0.000262
0.000343
0.000370
0.000495
0.000366
0.000295
0.000238
0.000258
0.001718
0.000323
0.000678
0.000603
0.000262
0.000239
0.000312
0.000157
0.000055
0.000186
0.000240
0.000356
0.000225
0.000291
0.000382
0.000402
0.000290
0.000260
0.000518
0.000215
0.000250
0.000258
0.000277
0.000276
0.000264
0.000216
0.000410
0.000489
0.000360
0.000257
0.000230
0.000261
0.000259
0.000248
0.000279
0.000230
0.000275
0.000247
0.000295
0.000192
0.000056
0.000363
0.000291
0.000220
0.000255
0.000248
0.000256
0.000236
0.000290
0.000244
0.000246
0.000279
0.000328
0.000418
0.000402
0.000364
0.000267
0.000214
0.000246
0.000254
0.000262
0.000291
0.000259
0.000242
0.000259
0.000274
0.000284
0.000544
0.000292
0.000338
0.000233
0.000177
0.000056
0.000202
0.000226
0.000288
0.000240
0.000236
0.000270
0.000270
0.000226
0.000499
0.000204
0.000256
0.000270
0.000235
0.000257
0.000280
0.000298
0.000242
0.000343
0.000219
0.000242
0.000263
0.000263
0.000255
0.000272
0.000272
0.000281
0.000247
0.000248
0.000261
0.000503
0.000157
0.000056
0.000207
0.000240
0.000247
0.000309
0.000183
0.000248
0.000363
0.000403
0.000233
0.000236
0.000251
0.000259
0.000235
0.000243
0.000556
0.001700
0.000225
0.000267
0.000284
0.000333
0.000404
0.000375
0.000354
0.000421
0.000356
0.000414
0.000247
0.000259
0.000270
0.000279
0.001380
0.000055
0.000384
0.000303
0.000288
0.000222
0.000221
0.000248
0.000232
0.000251
0.000244
0.000275
0.000245
0.000259
0.000249
0.000420
0.000426
0.001624
0.000233
0.000223
0.000249
0.000270
0.000238
0.000261
0.000412
0.000353
0.000281
0.000391
0.000187
0.000262
0.000278
0.000262
0.000207
0.000055
0.001198
0.000625
0.000259
0.000255
0.000242
0.000219
0.000238
0.000235
0.000492
0.000209
0.000243
0.000247
0.000356
0.000443
0.000464
0.000349
0.000256
0.000234
0.000331
0.000345
0.000273
0.000259
0.000270
0.000244
0.000289
0.000661
0.000469
0.000240
0.000265
0.000275
0.000164
0.000056
0.000208
0.000221
0.000234
0.000252
0.001556
0.000226
0.000211
0.000252
0.000278
0.000209
0.000250
0.000252
0.000244
0.000265
0.000271
0.000312
0.000848
0.000274
0.000207
0.001749
0.000248
0.000292
0.000360
0.000422
0.000578
0.000312
0.000247
0.000247
0.000261
0.000273
0.000198
0.000056
0.000202
0.000238
0.000232
0.000311
0.001260
0.000235
0.000257
0.000258
0.000239
0.000236
0.000239
0.000257
0.000272
0.000270
0.000226
0.000289
0.000557
0.000352
0.000331
0.000230
0.000280
0.000263
0.000263
0.000226
0.000281
0.000260
0.000244
0.000281
0.000278
0.000340
0.000566
0.000056
0.000225
0.000248
0.000230
0.000261
0.000268
0.000231
0.000238
0.000266
0.000282
0.000265
0.001409
0.000223
0.000244
0.000249
0.000253
0.000255
0.000276
0.000243
0.000280
0.000245
0.000268
0.000494
0.000451
0.000397
0.000218
0.000278
0.001760
0.000251
0.000253
0.000322
0.000430
0.000055
0.000221
0.000387
0.000455
0.000501
0.000513
0.000541
0.001501
0.000415
0.000519
0.000655
0.000556
0.000713
0.000518
0.000589
0.000581
0.001879
0.000389
0.000455
0.000394
0.000324
0.000226
0.000276
0.000286
0.000270
0.000254
0.000288
0.000297
0.000284
0.000261
0.000282
0.001366
0.000056
0.000206
0.000231
0.000244
0.000246
0.000258
0.000251
0.000235
0.000243
0.000245
0.000255
0.000242
0.000241
0.000253
0.000255
0.000280
0.000262
0.001811
0.000266
0.000258
0.000254
0.000253
0.000266
0.000263
0.000259
0.000400
0.000447
0.000362
0.000227
0.000249
0.000285
0.000210
0.000057
0.000202
0.001356
0.000325
0.000276
0.000243
0.000238
0.000244
0.000233
0.000237
0.000233
0.000226
0.000246
0.000252
0.000508
0.000358
0.000315
0.000237
0.001824
0.000355
0.000228
0.000248
0.000261
0.000252
0.000266
0.000280
0.000282
0.000268
0.000256
0.000263
0.000351
0.000172
0.000056
0.000202
0.000228
0.000252
0.001446
0.000215
0.000253
0.000245
0.000243
0.000267
0.000244
0.000249
0.000244
0.000246
0.000285
0.000234
0.000258
0.000259
0.000263
0.000267
0.000258
0.000258
0.001787
0.000271
0.001748
0.000268
0.000258
0.000260
0.000295
0.000263
0.000248
0.000209
0.000055
0.000202
0.000239
0.001349
0.000228
0.000255
0.000238
0.000258
0.000259
0.000243
0.000253
0.000252
0.000238
0.000261
0.000264
0.000263
0.000259
0.000259
0.000285
0.000294
0.000229
0.001891
0.000225
0.001826
0.000244
0.000256
0.000280
0.000234
0.000256
0.000251
0.000260
0.000206
0.000055
0.001422
0.000232
0.000228
0.000239
0.000244
0.000261
0.000350
0.000287
0.000241
0.000244
0.000251
0.000265
0.000310
0.000382
0.000307
0.000287
0.000246
0.000275
0.000244
0.000272
0.000250
0.000366
0.000203
0.000260
0.000264
0.000274
0.000275
0.000381
0.000620
0.000349
0.000194
0.000057
0.000236
0.000245
0.000262
0.000294
0.000356
0.000277
0.001707
0.000277
0.000284
0.000289
0.000243
0.000264
0.000264
0.000269
0.000298
0.000311
0.000319
0.000619
0.000349
0.000265
0.000295
0.000273
0.000271
0.000265
0.000319
0.000270
0.000266
0.000260
0.000237
0.000329
0.000429
0.000056
0.000253
0.000460
0.000263
0.000268
0.000244
0.000225
0.000227
0.000245
0.000265
0.000269
0.001495
0.000234
0.000218
0.000258
0.000252
0.000279
0.000277
0.000240
0.000255
0.000271
0.000264
0.000367
0.000571
0.000290
0.000264
0.000286
0.000269
0.000253
0.000235
0.000319
0.000167
0.000055
0.000198
0.000234
0.000303
0.000452
0.000372
0.000263
0.000213
0.000252
0.000249
0.000248
0.000231
0.000257
0.000258
0.000272
0.000237
0.000244
0.000531
0.001071
0.000254
0.000233
0.000287
0.000246
0.000349
0.000427
0.000248
0.000354
0.000557
0.000344
0.000384
0.000234
0.000172
0.000056
0.000219
0.000243
0.000263
0.000266
0.000248
0.000248
0.000406
0.000342
0.000428
0.000292
0.000367
0.000391
0.000408
0.000350
0.000256
0.000239
0.000241
0.000259
0.000411
0.000466
0.001241
0.000224
0.000271
0.000273
0.000255
0.000217
0.000268
0.000344
0.000389
0.000436
0.000264
0.000055
0.000190
0.000241
0.000263
0.000243
0.000240
0.000241
0.000238
0.000271
0.000303
0.000401
0.000363
0.000379
0.000244
0.000240
0.000253
0.000252
0.000253
0.000269
0.000257
0.000270
0.000428
0.000238
0.000355
0.000449
0.000316
0.000254
0.000272
0.000268
0.000248
0.000341
0.000163
0.000056
0.000304
0.000308
0.000351
0.000439
0.000312
0.000395
0.000240
0.000237
0.000248
0.000300
0.000242
0.000252
0.000235
0.000252
0.000245
0.000225
0.000273
0.000345
0.000490
0.000361
0.000248
0.000260
0.000241
0.000248
0.000257
0.000294
0.000253
0.000281
0.000264
0.000282
0.000356
0.000057
0.000379
0.000252
0.000227
0.000272
0.000224
0.000244
0.000249
0.000252
0.000265
0.000258
0.000246
0.000236
0.000329
0.000447
0.000443
0.000294
0.000230
0.000250
0.000259
0.000265
0.000258
0.000268
0.000250
0.000265
0.000269
0.000337
0.000400
0.000594
0.000411
0.000248
0.000166
0.000056
0.000377
0.000201
0.000228
0.000246
0.000255
0.000242
0.000260
0.000268
0.000219
0.000258
0.000222
0.000243
0.000267
0.000231
0.000236
0.000268
0.000256
0.000261
0.000303
0.000239
0.000258
0.000261
0.000258
0.000266
0.000269
0.000241
0.000260
0.000289
0.000244
0.000284
0.000196
0.000056
0.000198
0.000235
0.000245
0.000245
0.000234
0.000253
0.000267
0.000239
0.000257
0.000284
0.000226
0.000233
0.000264
0.000390
0.000256
0.000299
0.000240
0.000266
0.000254
0.000283
0.000273
0.000234
0.000248
0.000247
0.000276
0.000272
0.000245
0.000259
0.000270
0.000261
0.000208
0.000055
0.000209
0.000356
0.000369
0.000302
0.000278
0.000250
0.000268
0.000253
0.000223
0.000246
0.000280
0.000236
0.000242
0.000240
0.000257
0.000285
0.000241
0.000269
0.000240
0.000265
0.000275
0.000267
0.000280
0.000255
0.000287
0.000232
0.000261
0.000266
0.000265
0.000268
0.000200
0.000056
0.000206
0.000225
0.000283
0.000249
0.000244
0.000450
0.000211
0.000271
0.000320
0.000393
0.000481
0.000283
0.000231
0.000252
0.000272
0.000262
0.000235
0.000272
0.000257
0.000268
0.000277
0.000244
0.000255
0.000306
0.000534
0.000488
0.000256
0.000298
0.000262
0.000263
0.000195
0.000056
0.000212
0.000219
0.000251
0.000252
0.000302
0.000647
0.000331
0.000395
0.000201
0.000249
0.000263
0.000250
0.000235
0.000252
0.000261
0.000264
0.000274
0.000256
0.000675
0.000317
0.000314
0.000243
0.000252
0.000290
0.000280
0.000254
0.000266
0.000285
0.000237
0.000324
0.000298
0.000057
0.000270
0.000231
0.000242
0.000238
0.000253
0.000285
0.000200
0.000242
0.000246
0.000259
0.000249
0.000250
0.000256
0.000449
0.000601
0.000285
0.000255
0.000254
0.000260
0.000243
0.000267
0.000289
0.000476
0.000219
0.000262
0.000754
0.000261
0.000487
0.000249
0.000250
0.000188
0.000056
0.000175
0.000235
0.000239
0.000242
0.000261
0.000250
0.000314
0.000512
0.000511
0.000412
0.000216
0.000263
0.000288
0.000257
0.000258
0.000248
0.000235
0.000250
0.000254
0.000420
0.000313
0.000663
0.000364
0.000247
0.000365
0.000378
0.000485
0.000237
0.000268
0.000372
0.000424
0.000056
0.000257
0.000236
0.000440
0.000207
0.000244
0.000247
0.000269
0.000255
0.000236
0.000238
0.000254
0.000409
0.000385
0.000331
0.000238
0.000237
0.000263
0.000247
0.000266
0.000276
0.000296
0.000232
0.000250
0.000275
0.000322
0.000471
0.000488
0.000252
0.000248
0.000271
0.000202
0.000055
0.000224
0.000258
0.000226
0.000249
0.000245
0.000249
0.000431
0.000362
0.000416
0.000276
0.000374
0.000224
0.000248
0.000265
0.000264
0.000230
0.000253
0.000262
0.000266
0.000415
0.000481
0.000344
0.000478
0.000267
0.000386
0.000419
0.000383
0.000243
0.000254
0.000321
0.000326
0.000056
0.000248
0.000276
0.000225
0.000249
0.000287
0.000230
0.000273
0.000222
0.000277
0.000238
0.000240
0.000376
0.000488
0.000316
0.000371
0.000220
0.000270
0.000264
0.000257
0.000243
0.000251
0.000269
0.000265
0.000261
0.000276
0.000328
0.000557
0.000414
0.000234
0.000283
0.000192
0.000055
0.000209
0.000243
0.000280
0.000249
0.000238
0.000336
0.000522
0.000462
0.000485
0.000557
0.000258
0.000204
0.000255
0.000257
0.000246
0.000271
0.000279
0.000278
0.000476
0.000465
0.001466
0.000306
0.000273
0.000277
0.000269
0.000254
0.000377
0.000442
0.000327
0.000324
0.000186
0.000055
0.000221
0.000231
0.000244
0.000266
0.000233
0.000246
0.000295
0.000217
0.000254
0.000324
0.000330
0.000380
0.000264
0.000348
0.000394
0.000345
0.000245
0.000237
0.000275
0.000253
0.000248
0.000251
0.000311
0.000219
0.000328
0.000436
0.000472
0.000239
0.000253
0.000269
0.000191
0.000055
0.000225
0.000249
0.000257
0.000258
0.000235
0.000235
0.000474
0.000213
0.000234
0.000253
0.000240
0.000249
0.000265
0.000252
0.000251
0.000273
0.000262
0.000287
0.000264
0.000245
0.000275
0.000273
0.000287
0.000245
0.000263
0.000276
0.000270
0.000268
0.000263
0.000272
0.000173
0.000056
0.000220
0.000241
0.000293
0.000433
0.000362
0.000254
0.000240
0.000246
0.000258
0.000254
0.000249
0.000247
0.000263
0.000263
0.000241
0.000247
0.000263
0.000252
0.000253
0.000436
0.000390
0.000378
0.000232
0.000274
0.000246
0.000256
0.000267
0.000249
0.000276
0.000279
0.000201
0.000056
0.000251
0.000427
0.000404
0.000198
0.000253
0.000260
0.000405
0.000222
0.000230
0.000274
0.000238
0.000296
0.000346
0.000438
0.001859
0.000261
0.000238
0.000271
0.000264
0.000235
0.000307
0.000536
0.000649
0.000211
0.000219
0.000269
0.000276
0.000427
0.000278
0.000296
0.000153
0.000056
0.000234
0.000364
0.000369
0.000289
0.000497
0.000197
0.000245
0.000263
0.000235
0.000240
0.000259
0.000248
0.000266
0.000295
0.000489
0.000418
0.000216
0.000248
0.000263
0.000258
0.000262
0.000324
0.000232
0.000276
0.000279
0.000544
0.000478
0.000350
0.000447
0.000230
0.000203
0.000055
0.000196
0.000226
0.000260
0.000232
0.000250
0.000246
0.000287
0.000280
0.000374
0.000310
0.000451
0.000341
0.000223
0.000247
0.000266
0.000286
0.000303
0.000236
0.000274
0.000272
0.000235
0.000370
0.000522
0.000245
0.000303
0.000254
0.000256
0.000438
0.000415
0.000302
0.000184
0.000056
0.000204
0.000231
0.000324
0.000493
0.000321
0.000199
0.000242
0.000253
0.000261
0.000268
0.000250
0.000252
0.000227
0.000256
0.000264
0.000312
0.000392
0.000352
0.000295
0.000347
0.000494
0.000216
0.000281
0.000270
0.000303
0.000287
0.000246
0.000368
0.000403
0.000440
0.000249
0.000055
0.000188
0.000226
0.000252
0.000247
0.000242
0.000484
0.000212
0.000256
0.000262
0.000353
0.000467
0.000592
0.000210
0.000238
0.000243
0.000254
0.000251
0.000272
0.000246
0.000238
0.000290
0.000238
0.000417
0.000376
0.000353
0.000400
0.000317
0.000287
0.000326
0.000242
0.000184
0.000055
0.000191
0.000247
0.000253
0.000489
0.000382
0.000225
0.000259
0.000229
0.000241
0.000256
0.000258
0.000256
0.000267
0.000239
0.000256
0.000251
0.000252
0.000240
0.000285
0.000361
0.000475
0.000440
0.000230
0.000242
0.000279
0.000277
0.000262
0.000255
0.000265
0.000273
0.000194
0.000055
0.000288
0.000381
0.000457
0.000255
0.000205
0.000244
0.000320
0.000464
0.000283
0.000213
0.000235
0.000274
0.000293
0.000414
0.000437
0.000282
0.000232
0.000240
0.000250
0.000278
0.000260
0.000258
0.000263
0.000280
0.000258
0.000286
0.000444
0.000396
0.000318
0.000216
0.000191
0.000055
0.000211
0.000239
0.000245
0.000255
0.000247
0.000269
0.000228
0.000274
0.000247
0.000234
0.000265
0.000241
0.000291
0.001428
0.000228
0.000249
0.000264
0.000245
0.000278
0.000274
0.000260
0.000243
0.000273
0.000255
0.000267
0.000279
0.000255
0.000270
0.000262
0.000276
0.000195
0.000055
0.000223
0.000224
0.000259
0.000265
0.000235
0.000249
0.000237
0.000256
0.000227
0.000249
0.000250
0.000271
0.000250
0.000254
0.000253
0.000259
0.000250
0.000255
0.000277
0.000252
0.000254
0.000265
0.000257
0.000238
0.001294
0.000263
0.000604
0.000413
0.000332
0.000257
0.000196
0.000055
0.000196
0.000236
0.000240
0.000257
0.000415
0.000239
0.000229
0.000243
0.000255
0.000381
0.000534
0.000258
0.000220
0.000232
0.000266
0.000250
0.000257
0.000274
0.000237
0.000259
0.000265
0.000252
0.000263
0.000414
0.000524
0.000456
0.000211
0.000266
0.001371
0.000243
0.000186
0.000056
0.000355
0.000417
0.000325
0.000261
0.000228
0.000237
0.000213
0.000249
0.000266
0.000258
0.000245
0.000258
0.000296
0.000309
0.000545
0.000359
0.000304
0.000231
0.000242
0.000260
0.000270
0.000280
0.000251
0.000263
0.000266
0.000271
0.000302
0.000573
0.000387
0.000373
0.000139
0.000056
0.000192
0.000235
0.001263
0.000427
0.000426
0.000327
0.000399
0.000482
0.000261
0.000345
0.000221
0.000229
0.000262
0.000250
0.000253
0.000264
0.000283
0.000618
0.000320
0.000379
0.000277
0.000229
0.000265
0.000498
0.000230
0.000268
0.000253
0.000287
0.000285
0.000570
0.000282
0.000055
0.000391
0.000304
0.000242
0.001379
0.000377
0.000474
0.000318
0.000238
0.000245
0.000248
0.000233
0.000243
0.000239
0.000268
0.000252
0.000268
0.000229
0.000266
0.000459
0.000323
0.000477
0.000234
0.000253
0.000262
0.000262
0.000275
0.000269
0.000238
0.000262
0.000277
0.000199
0.000056
0.000381
0.000344
0.000217
0.000235
0.000248
0.000247
0.000258
0.000244
0.000247
0.000209
0.001398
0.000469
0.000294
0.000230
0.000238
0.000255
0.000288
0.000242
0.000238
0.000308
0.000238
0.000253
0.000293
0.000412
0.000375
0.000475
0.000229
0.000264
0.000274
0.000294
0.000157
0.000055
0.000210
0.000422
0.000219
0.000256
0.000315
0.000473
0.000334
0.000340
0.000472
0.000192
0.000232
0.000254
0.000262
0.000266
0.000255
0.001401
0.000381
0.000294
0.000232
0.000265
0.000295
0.000248
0.000242
0.000254
0.000254
0.000274
0.000419
0.000478
0.000291
0.000269
0.000168
0.000056
0.000195
0.000234
0.000258
0.000240
0.000224
0.000261
0.000243
0.000248
0.000320
0.000331
0.000390
0.000344
0.000229
0.000263
0.000242
0.000275
0.000270
0.000266
0.000266
0.000225
0.000253
0.000321
0.001256
0.000263
0.000262
0.000226
0.000261
0.000267
0.000254
0.000271
0.000182
0.000055
0.000200
0.000402
0.000461
0.000210
0.000242
0.000243
0.000263
0.000290
0.000235
0.000262
0.000238
0.000273
0.000257
0.000237
0.000269
0.000249
0.000262
0.000276
0.000257
0.000247
0.000263
0.000265
0.000271
0.000282
0.000291
0.000262
0.000262
0.000280
0.000253
0.000442
0.001359
0.000056
0.000200
0.000252
0.000225
0.000264
0.000230
0.000259
0.000253
0.000223
0.000246
0.000247
0.000301
0.000240
0.000243
0.000238
0.000274
0.000225
0.001742
0.000259
0.000226
0.000259
0.000241
0.000261
0.000277
0.000256
0.000309
0.000224
0.000268
0.000287
0.000260
0.000260
0.000236
0.000057
0.000278
0.000294
0.001323
0.000220
0.000230
0.000253
0.000252
0.000252
0.000274
0.000242
0.000243
0.000330
0.000411
0.000444
0.000276
0.000218
0.000247
0.000257
0.000263
0.000255
0.000251
0.000282
0.000254
0.000279
0.000277
0.000482
0.000273
0.000369
0.000298
0.000247
0.000199
0.000056
0.000213
0.000246
0.000241
0.000248
0.000275
0.000201
0.000265
0.000233
0.000446
0.001308
0.000268
0.000210
0.000246
0.000272
0.000254
0.000294
0.000229
0.000273
0.000303
0.000482
0.000313
0.000253
0.000241
0.000241
0.000295
0.000267
0.000270
0.000290
0.000272
0.000275
0.000192
0.000056
0.000244
0.000376
0.000415
0.000214
0.000235
0.000234
0.000250
0.000277
0.000261
0.000245
0.000231
0.000252
0.000457
0.000499
0.000472
0.001448
0.000265
0.000255
0.000332
0.000351
0.000475
0.000425
0.000560
0.000299
0.000233
0.000262
0.000284
0.000265
0.000258
0.000276
0.000191
0.000055
0.000226
0.000337
0.000499
0.000401
0.000308
0.000245
0.000238
0.000235
0.000245
0.000269
0.000231
0.000268
0.000277
0.000227
0.000264
0.000295
0.000385
0.000412
0.000365
0.001319
0.000268
0.000250
0.000257
0.000260
0.000444
0.000473
0.000361
0.000268
0.000267
0.000267
0.000192
0.000054
0.000210
0.000240
0.000242
0.000267
0.000225
0.000299
0.000434
0.000454
0.000312
0.000210
0.000238
0.000263
0.000267
0.000291
0.000237
0.000254
0.000266
0.000265
0.000269
0.000239
0.000484
0.000436
0.000317
0.001347
0.000407
0.000245
0.000284
0.000404
0.000500
0.000294
0.000314
0.000056
0.000192
0.000243
0.000241
0.000245
0.000256
0.000249
0.001689
0.000241
0.000211
0.000243
0.000256
0.000248
0.000259
0.000330
0.000325
0.000285
0.000261
0.000300
0.000533
0.000375
0.000314
0.000284
0.000227
0.000247
0.001502
0.000390
0.000356
0.000499
0.000296
0.000303
0.000169
0.000056
0.000197
0.000245
0.000253
0.000260
0.000243
0.000266
0.001708
0.000241
0.000231
0.000267
0.000335
0.000400
0.001446
0.000358
0.000411
0.000217
0.000271
0.000229
0.000260
0.000281
0.001577
0.000537
0.000378
0.000296
0.000222
0.000261
0.000262
0.000282
0.000244
0.000249
0.000200
0.000055
0.000206
0.000236
0.000272
0.000245
0.000267
0.000273
0.000278
0.000251
0.000250
0.000256
0.000254
0.000241
0.000295
0.000244
0.000265
0.001483
0.000284
0.000218
0.000273
0.000284
0.000266
0.000253
0.000432
0.001263
0.000280
0.000238
0.000269
0.000255
0.000402
0.000254
0.000185
0.000055
0.000212
0.000251
0.000226
0.000243
0.000238
0.000230
0.000230
0.001698
0.000261
0.000223
0.000357
0.000279
0.000205
0.000226
0.000248
0.001400
0.000224
0.000265
0.000263
0.000266
0.000259
0.000338
0.000288
0.001288
0.000274
0.000265
0.000244
0.000274
0.001391
0.000275
0.000217
0.000055
0.000225
0.000367
0.000206
0.000239
0.000260
0.000229
0.000289
0.000242
0.000266
0.000251
0.000258
0.000258
0.000262
0.000237
0.000323
0.001514
0.000226
0.000266
0.000248
0.000257
0.000300
0.000258
0.000225
0.001513
0.000371
0.000211
0.000262
0.001284
0.000263
0.000249
0.000233
0.000055
0.000202
0.000432
0.000314
0.000206
0.000234
0.000238
0.000271
0.000256
0.000279
0.000265
0.000222
0.000252
0.000263
0.000306
0.000389
0.001215
0.000229
0.000251
0.000269
0.000273
0.000235
0.000238
0.000252
0.000333
0.001286
0.000240
0.000240
0.000261
0.000257
0.001339
0.000335
0.000055
0.000251
0.000257
0.000236
0.000218
0.000239
0.000258
0.000240
0.000250
0.000301
0.000248
0.000237
0.000235
0.000252
0.000331
0.000410
0.001470
0.000210
0.000255
0.000307
0.000525
0.000260
0.001499
0.000328
0.000236
0.000226
0.000275
0.000253
0.001294
0.000272
0.000546
0.000338
0.000055
0.000228
0.000252
0.000258
0.000252
0.000281
0.000236
0.000266
0.000262
0.000249
0.000258
0.000299
0.000504
0.001313
0.000236
0.000272
0.000269
0.000276
0.000215
0.000240
0.000249
0.000338
0.001249
0.000261
0.000229
0.000256
0.000247
0.001624
0.000304
0.000501
0.000214
0.000185
0.000055
0.000196
0.000234
0.000246
0.000238
0.000250
0.000264
0.000261
0.000256
0.000406
0.000496
0.000271
0.001488
0.000220
0.000232
0.000268
0.000250
0.000270
0.000307
0.001669
0.000251
0.000390
0.000345
0.001259
0.000380
0.000305
0.000330
0.000252
0.000258
0.000260
0.000267
0.000205
0.000055
0.000193
0.000242
0.000331
0.000263
0.000324
0.000488
0.000333
0.000279
0.001463
0.000236
0.000394
0.000255
0.000244
0.000401
0.000345
0.001251
0.000265
0.000241
0.000242
0.000259
0.001531
0.000380
0.000284
0.000291
0.000243
0.000242
0.000450
0.000335
0.000247
0.000244
0.000263
0.000055
0.000320
0.000372
0.000264
0.000260
0.000216
0.001535
0.000204
0.000255
0.000266
0.000272
0.000269
0.000237
0.000325
0.001470
0.000259
0.000238
0.000417
0.001195
0.000299
0.000475
0.000404
0.000235
0.000244
0.000256
0.000298
0.000221
0.000453
0.000231
0.000264
0.000295
0.000200
0.000055
0.000181
0.000296
0.000357
0.000314
0.001314
0.000272
0.000338
0.000225
0.000226
0.000245
0.000250
0.000348
0.001467
0.000288
0.000220
0.000222
0.001393
0.000341
0.000360
0.000434
0.000381
0.000232
0.000244
0.000249
0.000265
0.000294
0.000243
0.000268
0.000269
0.000258
0.000193
0.000055
0.000213
0.000399
0.001458
0.000199
0.000273
0.000307
0.000235
0.000245
0.000262
0.000442
0.001317
0.000216
0.000261
0.000256
0.000260
0.001263
0.000728
0.000262
0.000327
0.000409
0.000306
0.000249
0.000255
0.000257
0.000275
0.000289
0.000271
0.000389
0.000306
0.000482
0.001372
0.000055
0.000210
0.000242
0.000243
0.000224
0.000261
0.000442
0.000419
0.001312
0.000256
0.000235
0.000250
0.001474
0.000363
0.000359
0.000224
0.000420
0.000244
0.000233
0.000268
0.000292
0.000252
0.000254
0.000274
0.000264
0.000244
0.000287
0.000430
0.000495
0.001487
0.000242
0.000178
0.000056
0.000209
0.000255
0.000344
0.000497
0.001281
0.000305
0.000229
0.000255
0.000247
0.000251
0.000250
0.000350
0.000482
0.000413
0.000246
0.000207
0.000250
0.000271
0.000243
0.000313
0.000230
0.000264
0.000251
0.000268
0.000261
0.000382
0.000545
0.000276
0.000335
0.001398
0.000185
0.000055
0.000214
0.000240
0.000306
0.000455
0.000309
0.000312
0.000319
0.000330
0.000295
0.000260
0.000230
0.000266
0.000250
0.000309
0.000235
0.000260
0.000565
0.000345
0.000291
0.000391
0.000265
0.000405
0.000222
0.000272
0.000243
0.000257
0.000262
0.000286
0.000396
0.000487
0.000261
0.000055
0.000209
0.001413
0.000225
0.000334
0.000419
0.000446
0.000335
0.000336
0.000204
0.000245
0.000264
0.000243
0.000284
0.000274
0.000255
0.000245
0.000256
0.001399
0.000217
0.000255
0.000255
0.000274
0.000271
0.000278
0.000266
0.000259
0.000270
0.000252
0.000308
0.000527
0.000254
0.000057
0.000209
0.000242
0.000239
0.001504
0.000345
0.000223
0.000213
0.000260
0.000230
0.000236
0.000261
0.000283
0.000238
0.000250
0.000296
0.000232
0.000240
0.000268
0.000272
0.000244
0.001449
0.000224
0.000231
0.000287
0.000244
0.000261
0.000258
0.000267
0.000280
0.000493
0.000342
0.000055
0.000222
0.000206
0.000400
0.000283
0.000238
0.000257
0.001521
0.000405
0.000250
0.000214
0.000262
0.000319
0.000332
0.000218
0.000229
0.000257
0.000238
0.000271
0.000256
0.000260
0.000556
0.000486
0.001079
0.000249
0.000248
0.000256
0.000269
0.000256
0.000303
0.000235
0.000319
0.000057
0.000279
0.000343
0.000202
0.000241
0.000248
0.000242
0.000243
0.000229
0.000290
0.001609
0.000435
0.000229
0.000236
0.000238
0.000262
0.000241
0.000265
0.000274
0.000267
0.000309
0.000305
0.000479
0.000454
0.001370
0.000231
0.000282
0.000257
0.000253
0.000272
0.000272
0.000586
0.000056
0.000180
0.000263
0.000225
0.000230
0.000224
0.000243
0.000258
0.000280
0.000256
0.001578
0.000357
0.000257
0.000241
0.000258
0.000462
0.000257
0.000544
0.000374
0.000274
0.000271
0.000506
0.000484
0.001267
0.000248
0.000239
0.000253
0.001711
0.000450
0.000618
0.000320
0.000142
0.000055
0.000186
0.000225
0.000244
0.000237
0.000277
0.000223
0.000249
0.000492
0.000488
0.000483
0.000253
0.000200
0.000237
0.000263
0.000281
0.000277
0.000233
0.000238
0.000257
0.000285
0.000252
0.000423
0.001355
0.000210
0.000249
0.000285
0.001949
0.000329
0.000412
0.000319
0.000155
0.000054
0.000213
0.000240
0.000244
0.001622
0.000370
0.000219
0.000252
0.000254
0.000241
0.000282
0.000376
0.000369
0.000367
0.000278
0.000265
0.000543
0.000391
0.001205
0.000269
0.000232
0.000257
0.000262
0.000282
0.000407
0.000603
0.000465
0.000264
0.000255
0.000268
0.000277
0.000193
0.000056
0.000210
0.000226
0.000247
0.001551
0.000251
0.000222
0.000236
0.000259
0.000239
0.000255
0.000254
0.000273
0.000279
0.000256
0.000249
0.000500
0.000382
0.000277
0.001407
0.000220
0.000263
0.000258
0.000256
0.000263
0.000381
0.000396
0.000531
0.000272
0.000294
0.000229
0.000437
0.000056
0.000184
0.000243
0.000270
0.001529
0.000297
0.000223
0.000270
0.000239
0.000250
0.000258
0.000251
0.000277
0.000239
0.000250
0.000450
0.000487
0.001364
0.000756
0.000255
0.000335
0.000248
0.000231
0.000250
0.000272
0.001687
0.000820
0.000212
0.000261
0.000281
0.000292
0.000172
0.000055
0.000209
0.000231
0.000253
0.000245
0.000281
0.000251
0.000210
0.000258
0.000237
0.000230
0.000293
0.000297
0.000242
0.000248
0.000259
0.000247
0.000271
0.001622
0.000689
0.000359
0.000334
0.000225
0.000240
0.000314
0.000246
0.000251
0.000275
0.000250
0.001390
0.000420
0.000354
0.000055
0.000186
0.000239
0.000272
0.000230
0.000260
0.000227
0.000281
0.000233
0.000246
0.000268
0.000272
0.000429
0.000473
0.000297
0.000203
0.000250
0.000261
0.001397
0.000694
0.000491
0.000318
0.000266
0.000228
0.000248
0.000282
0.000252
0.000250
0.000264
0.001490
0.000417
0.000212
0.000056
0.000226
0.000231
0.000239
0.000252
0.000249
0.000246
0.000234
0.000255
0.000274
0.000280
0.000310
0.000407
0.000341
0.000221
0.000234
0.000242
0.000267
0.000253
0.001572
0.000640
0.000527
0.000252
0.000223
0.000259
0.000264
0.000257
0.000266
0.000301
0.000245
0.001358
0.000336
0.000056
0.000212
0.000217
0.000238
0.000259
0.000254
0.000246
0.000246
0.000312
0.000367
0.000446
0.000375
0.000346
0.000382
0.000222
0.000241
0.000248
0.000303
0.000236
0.000268
0.001893
0.000358
0.000236
0.000449
0.000237
0.000253
0.000265
0.000268
0.000256
0.000270
0.000275
0.000320
0.000057
0.000216
0.000295
0.000229
0.000238
0.000269
0.000236
0.000231
0.000235
0.000292
0.000248
0.000228
0.000235
0.000306
0.000497
0.000394
0.000439
0.000229
0.000264
0.000246
0.000253
0.000259
0.000286
0.001493
0.001027
0.000225
0.000242
0.000275
0.000260
0.000280
0.000245
0.000207
0.000055
0.000194
0.001345
0.000296
0.000203
0.000228
0.000252
0.000250
0.000243
0.000237
0.000267
0.000241
0.000264
0.000242
0.000464
0.000346
0.000404
0.000265
0.000248
0.000264
0.000271
0.000280
0.000221
0.000255
0.000268
0.001313
0.000687
0.000313
0.000384
0.000371
0.000405
0.000296
0.000056
0.000210
0.000297
0.000304
0.001322
0.000209
0.000250
0.000228
0.000257
0.000256
0.000261
0.000245
0.000246
0.000301
0.000352
0.000526
0.000313
0.000225
0.000280
0.000322
0.000221
0.000246
0.000276
0.000232
0.000271
0.000287
0.001540
0.000718
0.000325
0.000254
0.000269
0.000196
0.000055
0.000225
0.000231
0.000487
0.000315
0.001311
0.000249
0.000221
0.000228
0.000234
0.000250
0.000251
0.000255
0.000233
0.000253
0.000231
0.000263
0.000263
0.000237
0.000260
0.000256
0.000264
0.000272
0.000317
0.000323
0.000216
0.000266
0.000264
0.001464
0.000274
0.000223
0.000176
0.000056
0.000191
0.000234
0.000250
0.000267
0.000350
0.000374
0.000396
0.000282
0.001579
0.000212
0.000304
0.000538
0.000340
0.000202
0.000438
0.000235
0.000224
0.000267
0.000276
0.000288
0.000262
0.000267
0.000257
0.000273
0.000247
0.000406
0.000401
0.000338
0.001584
0.000221
0.000182
0.000055
0.000250
0.000247
0.000236
0.000257
0.000234
0.000244
0.000262
0.000312
0.000414
0.002024
0.000235
0.000242
0.000255
0.000260
0.000263
0.000260
0.000267
0.000248
0.000322
0.000395
0.000331
0.000482
0.001447
0.000244
0.000236
0.002008
0.000311
0.000222
0.000252
0.001532
0.000163
0.000055
0.000343
0.000476
0.000395
0.000240
0.000280
0.000213
0.000258
0.000294
0.000234
0.000231
0.000251
0.000345
0.000447
0.000351
0.000378
0.000237
0.000242
0.001586
0.000225
0.000635
0.001834
0.000278
0.000220
0.001562
0.002012
0.000737
0.000275
0.000265
0.000356
0.000431
0.000250
0.000056
0.000204
0.000244
0.000276
0.000222
0.001421
0.001733
0.001074
0.000206
0.000228
0.001594
0.001975
0.000212
0.000239
0.000429
0.000301
0.000353
0.000459
0.000432
0.000212
0.000238
0.000252
0.000254
0.000280
0.001609
0.001191
0.001415
0.000285
0.000283
0.000263
0.000307
0.000354
0.000055
0.000236
0.000217
0.000237
0.000239
0.000228
0.000272
0.000228
0.000257
0.000256
0.000243
0.000243
0.000302
0.000514
0.000382
0.000303
0.000245
0.000251
0.000276
0.000265
0.000278
0.000247
0.000259
0.001574
0.000407
0.002115
0.000247
0.000263
0.000344
0.000490
0.000316
0.000213
0.000054
0.000252
0.000345
0.000453
0.000313
0.000210
0.000219
0.000249
0.000239
0.000243
0.000246
0.000251
0.000265
0.000257
0.001622
0.001333
0.001231
0.000278
0.000229
0.000247
0.000277
0.000284
0.000281
0.000234
0.000258
0.002211
0.000254
0.000253
0.000288
0.000335
0.000293
0.000239
0.000056
0.000228
0.000450
0.000441
0.000368
0.000204
0.000235
0.000247
0.000271
0.001903
0.001403
0.000230
0.000331
0.000386
0.000410
0.000251
0.000239
0.000240
0.000267
0.000271
0.000253
0.000260
0.000269
0.000468
0.000237
0.000267
0.000262
0.000259
0.000271
0.000285
0.000242
0.000205
0.000055
0.000196
0.000248
0.000245
0.000242
0.000280
0.000248
0.001537
0.001424
0.001310
0.000240
0.000239
0.000243
0.000267
0.000258
0.000246
0.000276
0.000235
0.002089
0.000261
0.000226
0.000270
0.000256
0.000275
0.000252
0.000269
0.000254
0.000274
0.000251
0.000281
0.000249
0.000183
0.000055
0.000210
0.002683
0.001381
0.000232
0.000305
0.000319
0.000219
0.000282
0.000232
0.000236
0.000256
0.000240
0.000234
0.000248
0.000275
0.000254
0.000265
0.000270
0.000272
0.000250
0.000263
0.000282
0.000274
0.000267
0.000246
0.000244
0.000265
0.000262
0.000272
0.000266
0.000370
0.000055
0.001548
0.000254
0.001239
0.000235
0.000213
0.000243
0.000279
0.000259
0.000222
0.000260
0.000455
0.000311
0.000350
0.000206
0.000246
0.002144
0.000240
0.000245
0.000302
0.000492
0.000316
0.000340
0.000232
0.000250
0.000263
0.000252
0.000267
0.000278
0.000265
0.001648
0.001238
0.000056
0.000204
0.000223
0.000307
0.000380
0.000337
0.000307
0.000217
0.000228
0.000257
0.000252
0.000270
0.000243
0.000229
0.000254
0.000263
0.000241
0.000304
0.000632
0.000372
0.000229
0.000259
0.000255
0.000278
0.000247
0.000253
0.000251
0.000261
0.000276
0.000245
0.000300
0.000377
0.000056
0.001141
0.000295
0.000261
0.000434
0.000292
0.000245
0.000213
0.000244
0.000246
0.002318
0.000344
0.000403
0.000223
0.000370
0.000300
0.000253
0.000240
0.000263
0.000263
0.000231
0.000245
0.000277
0.000661
0.000393
0.002858
0.000319
0.000603
0.000467
0.000244
0.000269
0.000197
0.000055
0.000402
0.000200
0.000248
0.000256
0.000238
0.000220
0.000256
0.000252
0.000251
0.000252
0.000259
0.000229
0.000246
0.000279
0.000405
0.000470
0.001837
0.001349
0.000477
0.000395
0.000455
0.000232
0.000238
0.000263
0.002130
0.000593
0.000353
0.000227
0.000276
0.000288
0.000192
0.000055
0.000194
0.000237
0.000256
0.000254
0.000240
0.000383
0.000372
0.000256
0.000374
0.000220
0.000263
0.000228
0.000265
0.002102
0.000384
0.000379
0.000219
0.000240
0.000295
0.000258
0.000228
0.002490
0.000309
0.000215
0.000259
0.000255
0.000257
0.000267
0.000311
0.000259
0.000185
0.000054
0.000198
0.000329
0.000551
0.000374
0.000257
0.000223
0.000249
0.000236
0.000265
0.000251
0.001963
0.000384
0.000302
0.000248
0.000230
0.000269
0.000270
0.000242
0.002251
0.000404
0.000218
0.000268
0.000274
0.000250
0.000278
0.000242
0.000296
0.000238
0.000265
0.000269
0.000174
0.000055
0.000197
0.000241
0.000245
0.000237
0.000229
0.000263
0.000240
0.000243
0.000234
0.002175
0.000235
0.000279
0.000212
0.000432
0.000225
0.000251
0.000308
0.000263
0.000248
0.000250
0.001970
0.000270
0.000352
0.000356
0.000432
0.000427
0.000284
0.000260
0.000241
0.000264
0.000205
0.000055
0.000203
0.000260
0.000220
0.000246
0.000268
0.000317
0.000208
0.002304
0.000233
0.000248
0.000259
0.000258
0.000230
0.000283
0.000279
0.002160
0.000559
0.000212
0.000259
0.000243
0.000267
0.000256
0.000283
0.000271
0.000257
0.000253
0.000292
0.000248
0.000272
0.000262
0.000195
0.000055
0.001833
0.001429
0.000211
0.000222
0.000245
0.000249
0.000255
0.000339
0.000330
0.000409
0.002119
0.000264
0.000230
0.000264
0.000290
0.000538
0.000375
0.000279
0.000226
0.000245
0.000250
0.000276
0.000267
0.000218
0.000268
0.000263
0.000268
0.000266
0.000337
0.000649
0.000315
0.000055
0.000210
0.000252
0.000248
0.000252
0.000264
0.000241
0.000255
0.000243
0.001500
0.002102
0.000584
0.000269
0.000454
0.000656
0.000351
0.000228
0.000253
0.000256
0.000259
0.000257
0.000260
0.000243
0.000247
0.000274
0.003004
0.000332
0.000248
0.000260
0.000293
0.000233
0.000488
0.000056
0.001917
0.000239
0.000235
0.000224
0.000368
0.000277
0.000460
0.000305
0.000288
0.000218
0.000241
0.000247
0.000260
0.000257
0.000280
0.000239
0.000257
0.000285
0.001828
0.000228
0.000241
0.000253
0.000278
0.000270
0.000280
0.000245
0.001477
0.000336
0.000252
0.000248
0.000179
0.000055
0.000217
0.000227
0.000243
0.000262
0.000226
0.000242
0.000341
0.000350
0.000323
0.000370
0.000232
0.000233
0.000267
0.000326
0.000417
0.000323
0.000233
0.000236
0.000267
0.000426
0.000472
0.000428
0.000207
0.000248
0.000259
0.000245
0.000253
0.000276
0.000274
0.000262
0.000209
0.000055
0.001443
0.000453
0.000215
0.001927
0.000273
0.000533
0.000330
0.000324
0.000224
0.000244
0.000266
0.000245
0.000244
0.000252
0.000259
0.000258
0.000452
0.000293
0.000410
0.000526
0.000192
0.000234
0.000253
0.000268
0.000268
0.000271
0.000266
0.000266
0.000392
0.000410
0.001399
0.000056
0.000183
0.000222
0.002086
0.000313
0.000326
0.000233
0.000250
0.000250
0.000257
0.000264
0.000209
0.000258
0.000255
0.000261
0.000255
0.000364
0.000706
0.001769
0.000224
0.000252
0.000252
0.000263
0.000379
0.000470
0.001542
0.000292
0.000363
0.001924
0.000264
0.000239
0.000205
0.000056
0.000214
0.000226
0.000237
0.000249
0.000225
0.000243
0.000254
0.000286
0.000327
0.000266
0.000376
0.000367
0.000361
0.000278
0.000234
0.000268
0.000267
0.000244
0.000266
0.000252
0.000305
0.000283
0.000264
0.000266
0.000266
0.001505
0.000293
0.000387
0.002067
0.000234
0.000179
0.000056
0.000213
0.000233
0.000241
0.000248
0.000485
0.000204
0.000260
0.000343
0.000346
0.000324
0.000305
0.000203
0.000266
0.000263
0.000270
0.000327
0.000434
0.000424
0.000259
0.000405
0.000571
0.000342
0.001638
0.000225
0.000247
0.001971
0.000348
0.000255
0.000244
0.000284
0.000196
0.000055
0.000203
0.000233
0.000227
0.000246
0.000249
0.000270
0.000253
0.000272
0.000251
0.000258
0.001819
0.000314
0.000379
0.000289
0.000458
0.000362
0.000361
0.001496
0.000237
0.000282
0.002155
0.000529
0.000251
0.000234
0.000264
0.000269
0.000506
0.000221
0.000254
0.000281
0.000199
0.000056
0.000298
0.000435
0.000305
0.000285
0.000202
0.000242
0.000258
0.000256
0.000262
0.000289
0.000226
0.000253
0.000254
0.000260
0.000427
0.000425
0.001288
0.000263
0.000277
0.002000
0.000270
0.000309
0.000214
0.000263
0.000254
0.000283
0.000276
0.000249
0.000246
0.000274
0.000198
0.000054
0.000297
0.000385
0.001988
0.000249
0.000228
0.000247
0.000255
0.000295
0.000475
0.000407
0.001297
0.000378
0.000356
0.002070
0.000214
0.000257
0.000263
0.000270
0.000249
0.000243
0.000288
0.000296
0.000255
0.000350
0.000532
0.000311
0.000312
0.002242
0.000490
0.000542
0.000340
0.000056
0.000183
0.000235
0.000250
0.001963
0.000226
0.000229
0.000255
0.000232
0.000239
0.000260
0.000246
0.000262
0.000257
0.000365
0.000453
0.001369
0.000266
0.000246
0.000246
0.000258
0.000236
0.000255
0.000260
0.000291
0.000305
0.000490
0.000431
0.000231
0.001610
0.000274
0.002025
0.000056
0.000194
0.000230
0.000242
0.000239
0.000260
0.000266
0.000225
0.000248
0.000258
0.000377
0.000346
0.001427
0.000239
0.000222
0.000244
0.000296
0.000228
0.000251
0.000262
0.000536
0.000460
0.000376
0.000228
0.001574
0.000232
0.000251
0.000291
0.000282
0.000263
0.000264
0.000196
0.000055
0.000196
0.000244
0.000283
0.000263
0.000236
0.000245
0.000230
0.000244
0.000278
0.000227
0.000247
0.000254
0.000265
0.001486
0.000363
0.000203
0.000265
0.000249
0.000290
0.000304
0.000362
0.000277
0.000241
0.000264
0.000260
0.000267
0.000262
0.001404
0.000290
0.000230
0.000175
0.000056
0.000208
0.000229
0.000260
0.000265
0.000267
0.000219
0.000247
0.000260
0.000240
0.000245
0.000246
0.000258
0.000226
0.000347
0.000325
0.000393
0.000235
0.000236
0.001641
0.000235
0.000246
0.000255
0.000265
0.000368
0.000427
0.000249
0.000458
0.000272
0.000238
0.001619
0.000156
0.000055
0.000322
0.000362
0.000345
0.000308
0.000225
0.000227
0.000242
0.000266
0.000259
0.000265
0.000221
0.000238
0.001463
0.000339
0.000251
0.000233
0.000243
0.000276
0.000256
0.000257
0.000256
0.000235
0.000258
0.000272
0.000272
0.000337
0.000433
0.000394
0.000275
0.000253
0.000201
0.000056
0.000203
0.000227
0.000405
0.000426
0.000340
0.000272
0.000245
0.000249
0.000251
0.000256
0.000242
0.000242
0.000246
0.000239
0.001295
0.000253
0.000251
0.000245
0.000271
0.000260
0.000240
0.000268
0.000253
0.000261
0.000254
0.000255
0.000285
0.000685
0.000490
0.000227
0.000181
0.000056
0.000207
0.001558
0.000248
0.000324
0.000528
0.000310
0.000217
0.000257
0.000272
0.000247
0.000242
0.000257
0.000272
0.000271
0.000257
0.001533
0.000258
0.000278
0.000262
0.000255
0.000277
0.000233
0.000271
0.000255
0.000261
0.000257
0.000517
0.000285
0.000384
0.000225
0.000188
0.000055
0.000204
0.000251
0.000235
0.001649
0.000387
0.000345
0.000216
0.000254
0.000249
0.000268
0.000278
0.000256
0.000250
0.000255
0.000232
0.000273
0.000447
0.001277
0.000251
0.000227
0.001502
0.000285
0.000645
0.000346
0.000355
0.000218
0.000273
0.000472
0.000231
0.000263
0.000185
0.000056
0.000285
0.000220
0.000244
0.000244
0.000248
0.000273
0.000223
0.000258
0.000256
0.000243
0.000247
0.000257
0.000320
0.000539
0.001619
0.001499
0.000354
0.000591
0.000283
0.000215
0.000235
0.000258
0.000246
0.000268
0.000255
0.000268
0.000253
0.000269
0.001538
0.000330
0.000172
0.000056
0.000222
0.000354
0.000351
0.000334
0.000236
0.000229
0.000240
0.000401
0.000394
0.000361
0.002171
0.000317
0.000707
0.000559
0.000405
0.000262
0.000331
0.000391
0.000332
0.000280
0.000402
0.000256
0.001527
0.000532
0.000218
0.000270
0.000252
0.000263
0.000255
0.000267
0.000199
0.000055
0.000236
0.000248
0.000268
0.000236
0.000241
0.001661
0.000878
0.001000
0.000215
0.000227
0.000273
0.000236
0.000268
0.000259
0.000258
0.000239
0.000256
0.000268
0.000270
0.000270
0.001452
0.000303
0.000245
0.000239
0.000227
0.000256
0.000264
0.000284
0.000265
0.000286
0.001900
0.000056
0.000191
0.000224
0.001547
0.000956
0.000270
0.000374
0.000251
0.000219
0.000246
0.000261
0.000252
0.000246
0.000244
0.001979
0.000476
0.000225
0.000242
0.000254
0.000267
0.000260
0.000192
