0.000143
0.019233
0.002062
0.000269
0.000252
0.000301
0.000324
0.000232
0.000324
0.000290
0.000245
0.000333
0.000489
0.000497
0.000431
0.000329
0.000265
0.000347
0.000359
0.000420
0.001931
0.000309
0.000685
0.000278
0.000235
0.000319
0.000303
0.000333
0.000408
0.000383
0.000493
0.000298
0.000059
0.000209
0.000261
0.000271
0.000284
0.000252
0.000247
0.000277
0.000293
0.000267
0.000262
0.000436
0.000455
0.000293
0.000251
0.000373
0.000355
0.000364
0.000258
0.000237
0.001739
0.000282
0.000256
0.000447
0.000253
0.000275
0.000282
0.000290
0.000291
0.000278
0.000320
0.000417
0.000057
0.000243
0.000258
0.000263
0.000261
0.000252
0.000249
0.000263
0.000253
0.000288
0.001664
0.000227
0.000237
0.000261
0.000283
0.000277
0.000249
0.000259
0.000260
0.000348
0.001796
0.000241
0.000275
0.000454
0.000429
0.000391
0.000244
0.000284
0.000471
0.000484
0.000751
0.000190
0.000056
0.000232
0.000241
0.000250
0.000235
0.000305
0.000248
0.000389
0.000462
0.000410
0.000259
0.000238
0.000240
0.000253
0.000246
0.000262
0.000250
0.000295
0.000219
0.000295
0.000331
0.001665
0.000275
0.000249
0.000427
0.000278
0.000740
0.000680
0.000498
0.000343
0.000232
0.000191
0.000056
0.000231
0.000251
0.000294
0.000216
0.000276
0.000237
0.000266
0.000557
0.001376
0.000208
0.000248
0.000244
0.000263
0.000254
0.000265
0.000282
0.000302
0.000790
0.001373
0.000303
0.000239
0.000415
0.000238
0.000251
0.000256
0.000279
0.000254
0.000267
0.000255
0.000271
0.000199
0.000057
0.000198
0.000246
0.000249
0.000262
0.000245
0.000232
0.000248
0.000247
0.000241
0.000256
0.001632
0.000256
0.000237
0.000243
0.000255
0.000245
0.000250
0.000249
0.000252
0.000252
0.000298
0.001645
0.000272
0.000252
0.000444
0.000258
0.000243
0.000273
0.000258
0.000272
0.000193
0.000057
0.000209
0.000228
0.000255
0.000247
0.000241
0.000243
0.000259
0.000240
0.000266
0.000287
0.000233
0.000240
0.000258
0.000272
0.001643
0.000272
0.000294
0.000219
0.000251
0.000275
0.000277
0.000233
0.000243
0.000259
0.001797
0.000387
0.000345
0.000366
0.000234
0.000282
0.000197
0.000055
0.000227
0.000262
0.000221
0.000267
0.000256
0.000264
0.000266
0.000398
0.000478
0.000368
0.000207
0.000244
0.000256
0.000247
0.001568
0.000525
0.000401
0.000382
0.000264
0.000232
0.000269
0.000289
0.000264
0.001761
0.000479
0.000472
0.000236
0.000248
0.000251
0.000266
0.000186
0.000073
0.000174
0.000232
0.000261
0.000260
0.000318
0.000444
0.000431
0.000236
0.000217
0.000249
0.000264
0.000235
0.000253
0.001719
0.000474
0.000310
0.000212
0.000251
0.000280
0.000290
0.000241
0.000257
0.001842
0.000350
0.000279
0.000387
0.000241
0.000257
0.000269
0.000405
0.000330
0.000059
0.000229
0.000352
0.000380
0.000270
0.000248
0.000253
0.000244
0.000261
0.000261
0.000212
0.000238
0.000246
0.001557
0.000393
0.000264
0.000225
0.000266
0.000253
0.000243
0.000302
0.000259
0.000326
0.000244
0.001833
0.000231
0.000495
0.000241
0.000251
0.000270
0.000264
0.000264
0.000061
0.000368
0.000557
0.000612
0.000213
0.000229
0.000271
0.000229
0.000221
0.000259
0.000252
0.000254
0.001701
0.000249
0.000451
0.000364
0.000216
0.000236
0.000229
0.000250
0.000265
0.000256
0.001867
0.000216
0.000465
0.001873
0.000514
0.000356
0.000252
0.000253
0.000269
0.000181
0.000058
0.000211
0.000246
0.000241
0.000245
0.000254
0.001624
0.000253
0.000225
0.000273
0.000236
0.000245
0.000269
0.000222
0.000258
0.000278
0.000383
0.000655
0.000261
0.000226
0.000269
0.000280
0.000238
0.000240
0.000438
0.000438
0.000249
0.000330
0.000671
0.000349
0.000268
0.000208
0.000057
0.000220
0.000238
0.000257
0.000246
0.000239
0.000236
0.000242
0.000387
0.001839
0.000316
0.000219
0.000244
0.000248
0.000243
0.000255
0.000307
0.000373
0.000509
0.000329
0.000255
0.000259
0.000300
0.000281
0.000248
0.000287
0.000429
0.000342
0.000561
0.000524
0.000428
0.000177
0.000058
0.000200
0.000257
0.000246
0.000230
0.000237
0.000236
0.000249
0.000259
0.000231
0.000292
0.000342
0.000473
0.001353
0.000253
0.000216
0.000258
0.000256
0.000250
0.000250
0.000248
0.000290
0.000495
0.000369
0.000268
0.000252
0.000265
0.000250
0.000265
0.000268
0.000267
0.000383
0.000055
0.000209
0.000241
0.000231
0.000307
0.000496
0.000427
0.000241
0.000252
0.000235
0.000262
0.000257
0.000230
0.000294
0.000255
0.000232
0.000474
0.000428
0.001644
0.000291
0.000229
0.000248
0.000265
0.000251
0.000250
0.000258
0.000473
0.000400
0.000386
0.000423
0.000236
0.000193
0.000056
0.000214
0.000432
0.000233
0.000216
0.000286
0.000224
0.000252
0.000605
0.000331
0.000329
0.000221
0.000278
0.000263
0.000233
0.000522
0.000336
0.000229
0.000368
0.000358
0.001567
0.000274
0.000275
0.000481
0.000252
0.000276
0.000281
0.000250
0.000456
0.000440
0.000379
0.000271
0.000056
0.000212
0.000233
0.000233
0.000240
0.000418
0.000304
0.000289
0.000226
0.000466
0.000424
0.000354
0.000272
0.000222
0.000251
0.000253
0.000267
0.000255
0.000257
0.000229
0.000347
0.000296
0.000612
0.001566
0.000237
0.000257
0.000255
0.000289
0.000350
0.000465
0.000641
0.000439
0.000058
0.000221
0.000334
0.000292
0.000419
0.000381
0.000213
0.000273
0.000272
0.000533
0.000404
0.000258
0.000239
0.000233
0.000277
0.000263
0.000235
0.000253
0.000271
0.000266
0.000257
0.000271
0.000445
0.000702
0.001254
0.000331
0.000433
0.000420
0.000232
0.000479
0.000383
0.000384
0.000057
0.000243
0.000378
0.000282
0.000197
0.000232
0.000273
0.000390
0.000225
0.000244
0.000494
0.000296
0.000457
0.000236
0.000258
0.000265
0.000245
0.000369
0.000416
0.000310
0.000240
0.000255
0.000522
0.000519
0.001647
0.000237
0.000431
0.000315
0.000219
0.000259
0.000460
0.000305
0.000057
0.000238
0.000222
0.000249
0.000256
0.000250
0.000236
0.000252
0.000329
0.000455
0.000331
0.000371
0.000400
0.000277
0.000581
0.000240
0.000238
0.000277
0.000263
0.000233
0.000343
0.000234
0.000231
0.000274
0.000368
0.000516
0.001722
0.000228
0.000255
0.000225
0.000270
0.000190
0.000056
0.000362
0.000429
0.000333
0.000206
0.000231
0.000253
0.000254
0.000238
0.000273
0.000242
0.000226
0.000257
0.000399
0.000519
0.000392
0.000299
0.000264
0.000231
0.000338
0.000385
0.000382
0.000335
0.000357
0.000399
0.000244
0.000265
0.000254
0.000278
0.001800
0.000239
0.000206
0.000056
0.000206
0.000218
0.000260
0.000296
0.000329
0.000547
0.000329
0.000196
0.000289
0.000235
0.000251
0.000243
0.000535
0.000443
0.000476
0.000278
0.000275
0.000257
0.000420
0.000469
0.000352
0.000411
0.000657
0.000277
0.000244
0.000228
0.000285
0.000237
0.000264
0.001749
0.000329
0.000057
0.000254
0.000328
0.000204
0.000234
0.000256
0.000254
0.000232
0.000500
0.000378
0.000306
0.000293
0.000286
0.000345
0.000679
0.000302
0.000232
0.000252
0.000256
0.000253
0.000268
0.000274
0.000259
0.000246
0.000266
0.000322
0.000413
0.000398
0.000306
0.000239
0.000246
0.000194
0.000057
0.000466
0.000261
0.000503
0.000225
0.000203
0.000246
0.000247
0.000255
0.000240
0.000229
0.000246
0.000283
0.000287
0.000383
0.000439
0.000540
0.000312
0.000311
0.000402
0.000328
0.000298
0.000235
0.000248
0.000256
0.001755
0.000250
0.001731
0.000926
0.000402
0.000331
0.000169
0.000056
0.000207
0.000244
0.000225
0.000250
0.000265
0.000246
0.000250
0.000255
0.000232
0.000295
0.000390
0.000460
0.000320
0.000370
0.000239
0.000265
0.000255
0.000288
0.000226
0.000245
0.000255
0.000263
0.001820
0.000227
0.000264
0.000262
0.000273
0.000266
0.001881
0.000566
0.000255
0.000056
0.000213
0.000211
0.000244
0.000240
0.000253
0.000251
0.000240
0.000257
0.000253
0.000450
0.000425
0.000369
0.000394
0.000227
0.000238
0.000253
0.000339
0.000439
0.000355
0.000256
0.001784
0.000255
0.000234
0.000251
0.000269
0.000266
0.000256
0.000244
0.000328
0.000300
0.000407
0.000055
0.000252
0.000209
0.000235
0.000271
0.000237
0.000244
0.000253
0.000257
0.000239
0.000252
0.000245
0.000324
0.000345
0.000389
0.000330
0.000266
0.000474
0.000239
0.000239
0.000259
0.000258
0.000261
0.000290
0.000239
0.000277
0.001802
0.000237
0.000243
0.000268
0.000236
0.000208
0.000056
0.000276
0.000370
0.000215
0.000224
0.000240
0.000233
0.000240
0.000258
0.000246
0.000217
0.000236
0.000267
0.000258
0.000368
0.000393
0.000392
0.000262
0.000237
0.000247
0.000256
0.000280
0.000247
0.000246
0.000268
0.000253
0.000267
0.000317
0.001620
0.000270
0.000230
0.000198
0.000055
0.000206
0.000234
0.000269
0.000242
0.000342
0.000430
0.000368
0.000273
0.000233
0.000243
0.000271
0.000228
0.000244
0.000257
0.000265
0.000252
0.000248
0.000260
0.000251
0.000256
0.000264
0.000276
0.000242
0.000237
0.000249
0.000272
0.000277
0.000261
0.000258
0.000259
0.000196
0.000056
0.000212
0.000224
0.000253
0.000274
0.000231
0.000242
0.000235
0.000260
0.000278
0.000251
0.000223
0.000246
0.000253
0.000255
0.000288
0.000239
0.000258
0.000246
0.000299
0.000247
0.000279
0.000320
0.000267
0.000237
0.000288
0.000251
0.000266
0.000253
0.000271
0.000512
0.000593
0.000057
0.000229
0.000275
0.000229
0.000222
0.000235
0.000255
0.000242
0.000247
0.000255
0.000243
0.000266
0.000311
0.000565
0.000403
0.001511
0.000242
0.000497
0.000220
0.000404
0.000327
0.000443
0.000358
0.000229
0.000279
0.000249
0.000258
0.000279
0.000255
0.000308
0.000276
0.000172
0.000058
0.000282
0.000510
0.000291
0.000335
0.000217
0.000275
0.000226
0.000236
0.000239
0.000242
0.000256
0.000256
0.000234
0.000315
0.000341
0.000508
0.000351
0.001797
0.000228
0.000261
0.000303
0.000447
0.000462
0.000290
0.000355
0.000283
0.000300
0.000231
0.000224
0.000263
0.000188
0.000057
0.000196
0.000231
0.000237
0.000278
0.000355
0.000484
0.000320
0.000250
0.000254
0.000214
0.000255
0.000263
0.000267
0.000262
0.000249
0.000276
0.000293
0.000488
0.000354
0.000412
0.000239
0.001739
0.000329
0.000502
0.000481
0.000491
0.000353
0.000198
0.000256
0.000262
0.000456
0.000057
0.000211
0.000273
0.000219
0.000330
0.000535
0.000299
0.000389
0.000217
0.000277
0.000278
0.000213
0.000261
0.000256
0.000290
0.000311
0.000240
0.000230
0.000382
0.000522
0.000287
0.000501
0.001847
0.000247
0.000443
0.000492
0.000384
0.000207
0.000261
0.000312
0.000234
0.000209
0.000055
0.000213
0.000330
0.000368
0.000342
0.000376
0.000341
0.000341
0.000200
0.000241
0.000253
0.000279
0.000224
0.000251
0.000248
0.000254
0.000258
0.000331
0.000362
0.000511
0.000347
0.000318
0.000236
0.000262
0.001714
0.000433
0.000488
0.000693
0.000240
0.000261
0.000306
0.000158
0.000057
0.000193
0.000233
0.000354
0.000235
0.000271
0.000327
0.000560
0.000201
0.000235
0.000544
0.000211
0.000251
0.000261
0.000276
0.000276
0.000263
0.000216
0.000565
0.000323
0.000364
0.000271
0.000227
0.000258
0.000258
0.000250
0.000271
0.000241
0.000249
0.000272
0.000287
0.000211
0.000056
0.000319
0.000347
0.000208
0.000251
0.000251
0.000253
0.000241
0.000287
0.000245
0.000248
0.000284
0.000324
0.000422
0.000413
0.000336
0.000276
0.000223
0.000234
0.000276
0.000253
0.000286
0.000260
0.000234
0.000264
0.000279
0.000302
0.000454
0.000368
0.000349
0.000216
0.000180
0.000056
0.000221
0.000205
0.000282
0.000244
0.000238
0.000268
0.000265
0.000230
0.000496
0.000210
0.000261
0.000259
0.000237
0.000264
0.000276
0.000295
0.000242
0.000348
0.000221
0.000234
0.000260
0.000267
0.000258
0.000265
0.000279
0.000262
0.000255
0.000260
0.000254
0.000524
0.000139
0.000056
0.000208
0.000236
0.000250
0.000295
0.000199
0.000247
0.000354
0.000408
0.000240
0.000233
0.000254
0.000257
0.000229
0.000288
0.000425
0.001783
0.000228
0.000267
0.000286
0.000333
0.000411
0.000370
0.000511
0.000236
0.000410
0.000406
0.000221
0.000270
0.000270
0.000275
0.001394
0.000056
0.000385
0.000328
0.000245
0.000224
0.000225
0.000254
0.000237
0.000257
0.000239
0.000279
0.000238
0.000262
0.000252
0.000275
0.000565
0.001631
0.000221
0.000243
0.000241
0.000265
0.000234
0.000267
0.000425
0.000352
0.000291
0.000331
0.000224
0.000280
0.000258
0.000265
0.000228
0.000055
0.001191
0.000522
0.000358
0.000246
0.000238
0.000220
0.000237
0.000240
0.000492
0.000217
0.000245
0.000241
0.000470
0.000344
0.000448
0.000351
0.000249
0.000233
0.000336
0.000349
0.000277
0.000258
0.000270
0.000239
0.000270
0.000581
0.000519
0.000284
0.000267
0.000259
0.000178
0.000055
0.000188
0.000212
0.000242
0.000251
0.001568
0.000200
0.000230
0.000252
0.000259
0.000233
0.000248
0.000252
0.000242
0.000261
0.000272
0.000369
0.000679
0.000385
0.000204
0.001751
0.000255
0.000286
0.000366
0.000333
0.000629
0.000345
0.000247
0.000251
0.000262
0.000266
0.000214
0.000057
0.000197
0.000251
0.000236
0.000348
0.001225
0.000232
0.000252
0.000262
0.000242
0.000237
0.000238
0.000257
0.000267
0.000252
0.000256
0.000405
0.000328
0.000514
0.000237
0.000261
0.000276
0.000269
0.000252
0.000226
0.000301
0.000252
0.000242
0.000276
0.000294
0.000398
0.000487
0.000057
0.000230
0.000242
0.000236
0.000259
0.000264
0.000243
0.000227
0.000272
0.000266
0.000276
0.001414
0.000228
0.000232
0.000253
0.000249
0.000247
0.000286
0.000245
0.000281
0.000246
0.000273
0.000478
0.000449
0.000401
0.000223
0.000277
0.001767
0.000261
0.000244
0.000319
0.000491
0.000058
0.000205
0.000397
0.000448
0.000503
0.000512
0.000580
0.001452
0.000424
0.000517
0.000655
0.000552
0.000750
0.000450
0.000609
0.000590
0.001883
0.000440
0.000404
0.000388
0.000322
0.000222
0.000282
0.000289
0.000269
0.000256
0.000287
0.000300
0.000279
0.000256
0.000291
0.001356
0.000055
0.000204
0.000222
0.000245
0.000241
0.000265
0.000257
0.000235
0.000233
0.000255
0.000247
0.000248
0.000233
0.000259
0.000266
0.000263
0.000265
0.001809
0.000265
0.000261
0.000254
0.000249
0.000271
0.000284
0.000239
0.000497
0.000375
0.000310
0.000232
0.000275
0.000281
0.000205
0.000056
0.000213
0.001360
0.000330
0.000277
0.000248
0.000239
0.000240
0.000232
0.000230
0.000253
0.000208
0.000243
0.000267
0.000503
0.000362
0.000299
0.000246
0.001820
0.000358
0.000226
0.000243
0.000277
0.000248
0.000268
0.000277
0.000275
0.000275
0.000260
0.000260
0.000317
0.000204
0.000056
0.000196
0.000245
0.000250
0.001448
0.000216
0.000249
0.000238
0.000248
0.000239
0.000271
0.000251
0.000240
0.000249
0.000285
0.000225
0.000262
0.000269
0.000258
0.000287
0.000237
0.000265
0.001767
0.000280
0.001780
0.000240
0.000248
0.000260
0.000278
0.000277
0.000268
0.000196
0.000056
0.000192
0.000237
0.001349
0.000229
0.000251
0.000237
0.000269
0.000254
0.000243
0.000253
0.000257
0.000233
0.000260
0.000264
0.000255
0.000269
0.000257
0.000287
0.000284
0.000229
0.001888
0.000230
0.001837
0.000238
0.000254
0.000285
0.000233
0.000262
0.000238
0.000277
0.000199
0.000056
0.001442
0.000211
0.000234
0.000242
0.000242
0.000241
0.000371
0.000283
0.000232
0.000251
0.000261
0.000257
0.000247
0.000426
0.000333
0.000286
0.000243
0.000271
0.000247
0.000250
0.000277
0.000335
0.000237
0.000251
0.000257
0.000283
0.000275
0.000359
0.000644
0.000342
0.000206
0.000060
0.000224
0.000247
0.000274
0.000295
0.000355
0.000281
0.001683
0.000297
0.000275
0.000272
0.000267
0.000265
0.000266
0.000261
0.000302
0.000307
0.000356
0.000585
0.000349
0.000268
0.000286
0.000282
0.000258
0.000270
0.000324
0.000265
0.000268
0.000268
0.000242
0.000333
0.000396
0.000071
0.000221
0.000459
0.000269
0.000261
0.000246
0.000231
0.000220
0.000255
0.000256
0.000277
0.001503
0.000212
0.000231
0.000249
0.000254
0.000281
0.000278
0.000240
0.000254
0.000277
0.000258
0.000311
0.000644
0.000268
0.000283
0.000273
0.000268
0.000256
0.000241
0.000304
0.000172
0.000056
0.000192
0.000236
0.000327
0.000416
0.000400
0.000248
0.000214
0.000252
0.000253
0.000250
0.000233
0.000251
0.000257
0.000267
0.000243
0.000242
0.000511
0.001088
0.000268
0.000230
0.000267
0.000255
0.000353
0.000421
0.000248
0.000295
0.000626
0.000343
0.000395
0.000215
0.000174
0.000056
0.000217
0.000249
0.000259
0.000270
0.000245
0.000247
0.000332
0.000498
0.000400
0.000237
0.000364
0.000391
0.000396
0.000361
0.000259
0.000231
0.000238
0.000271
0.000411
0.000446
0.001265
0.000227
0.000266
0.000280
0.000230
0.000239
0.000257
0.000330
0.000404
0.000458
0.000244
0.000056
0.000188
0.000242
0.000262
0.000241
0.000236
0.000249
0.000237
0.000265
0.000302
0.000369
0.000368
0.000408
0.000254
0.000225
0.000251
0.000279
0.000231
0.000262
0.000264
0.000275
0.000422
0.000233
0.000375
0.000440
0.000312
0.000248
0.000272
0.000272
0.000251
0.000338
0.000163
0.000058
0.000304
0.000311
0.000290
0.000407
0.000521
0.000280
0.000243
0.000242
0.000244
0.000273
0.000258
0.000261
0.000236
0.000252
0.000239
0.000232
0.000266
0.000352
0.000477
0.000382
0.000214
0.000272
0.000246
0.000248
0.000267
0.000280
0.000264
0.000286
0.000262
0.000263
0.000282
0.000056
0.000351
0.000284
0.000237
0.000266
0.000229
0.000241
0.000255
0.000247
0.000264
0.000258
0.000252
0.000231
0.000327
0.000455
0.000441
0.000293
0.000231
0.000249
0.000254
0.000272
0.000252
0.000269
0.000255
0.000265
0.000293
0.000282
0.000410
0.000616
0.000410
0.000247
0.000173
0.000056
0.000376
0.000196
0.000226
0.000239
0.000251
0.000248
0.000236
0.000252
0.000265
0.000254
0.000219
0.000241
0.000277
0.000226
0.000235
0.000271
0.000272
0.000244
0.000291
0.000244
0.000260
0.000260
0.000264
0.000263
0.000268
0.000232
0.000266
0.000294
0.000244
0.000284
0.000193
0.000057
0.000187
0.000242
0.000249
0.000244
0.000229
0.000260
0.000261
0.000241
0.000257
0.000276
0.000233
0.000231
0.000264
0.000396
0.000254
0.000299
0.000245
0.000268
0.000254
0.000275
0.000268
0.000239
0.000250
0.000249
0.000270
0.000275
0.000250
0.000244
0.000278
0.000264
0.000207
0.000056
0.000196
0.000351
0.000371
0.000285
0.000290
0.000260
0.000259
0.000261
0.000222
0.000245
0.000276
0.000239
0.000251
0.000256
0.000233
0.000282
0.000241
0.000268
0.000247
0.000263
0.000278
0.000262
0.000275
0.000253
0.000292
0.000236
0.000250
0.000269
0.000297
0.000236
0.000202
0.000056
0.000192
0.000236
0.000267
0.000266
0.000250
0.000439
0.000213
0.000276
0.000281
0.000467
0.000450
0.000292
0.000222
0.000245
0.000281
0.000257
0.000236
0.000266
0.000260
0.000274
0.000256
0.000264
0.000258
0.000273
0.000600
0.000448
0.000258
0.000301
0.000262
0.000264
0.000189
0.000057
0.000215
0.000217
0.000252
0.000249
0.000413
0.000625
0.000246
0.000379
0.000205
0.000250
0.000256
0.000252
0.000258
0.000244
0.000250
0.000278
0.000267
0.000242
0.000682
0.000345
0.000301
0.000236
0.000258
0.000283
0.000278
0.000256
0.000264
0.000289
0.000229
0.000333
0.000360
0.000056
0.000264
0.000237
0.000236
0.000242
0.000254
0.000262
0.000217
0.000248
0.000241
0.000264
0.000242
0.000249
0.000246
0.000452
0.000514
0.000389
0.000248
0.000254
0.000258
0.000247
0.000265
0.000287
0.000480
0.000217
0.000262
0.000565
0.000449
0.000487
0.000245
0.000251
0.000192
0.000057
0.000191
0.000234
0.000245
0.000242
0.000257
0.000260
0.000300
0.000524
0.000502
0.000430
0.000217
0.000257
0.000279
0.000270
0.000251
0.000246
0.000238
0.000253
0.000261
0.000379
0.000360
0.000644
0.000362
0.000252
0.000362
0.000382
0.000481
0.000237
0.000268
0.000384
0.000383
0.000078
0.000250
0.000228
0.000437
0.000218
0.000233
0.000251
0.000284
0.000244
0.000228
0.000242
0.000317
0.000385
0.000367
0.000318
0.000214
0.000248
0.000259
0.000258
0.000263
0.000278
0.000283
0.000244
0.000248
0.000269
0.000318
0.000481
0.000492
0.000230
0.000261
0.000272
0.000197
0.000055
0.000227
0.000255
0.000224
0.000251
0.000244
0.000297
0.000377
0.000311
0.000478
0.000267
0.000377
0.000225
0.000249
0.000264
0.000254
0.000245
0.000255
0.000257
0.000312
0.000427
0.000422
0.000344
0.000475
0.000271
0.000382
0.000420
0.000384
0.000254
0.000248
0.000276
0.000384
0.000055
0.000245
0.000275
0.000226
0.000253
0.000252
0.000256
0.000255
0.000244
0.000276
0.000240
0.000241
0.000334
0.000472
0.000375
0.000379
0.000217
0.000270
0.000261
0.000263
0.000233
0.000256
0.000250
0.000270
0.000274
0.000273
0.000333
0.000500
0.000468
0.000233
0.000286
0.000189
0.000056
0.000217
0.000239
0.000279
0.000248
0.000265
0.000317
0.000497
0.000485
0.000347
0.000692
0.000258
0.000219
0.000237
0.000263
0.000247
0.000264
0.000299
0.000252
0.000526
0.000391
0.001500
0.000304
0.000261
0.000281
0.000271
0.000271
0.000328
0.000450
0.000353
0.000330
0.000182
0.000074
0.000193
0.000231
0.000243
0.000265
0.000224
0.000254
0.000303
0.000231
0.000239
0.000328
0.000349
0.000364
0.000286
0.000317
0.000395
0.000343
0.000241
0.000250
0.000274
0.000255
0.000249
0.000247
0.000306
0.000218
0.000326
0.000435
0.000434
0.000284
0.000260
0.000264
0.000190
0.000056
0.000231
0.000240
0.000261
0.000255
0.000240
0.000232
0.000478
0.000215
0.000228
0.000255
0.000262
0.000235
0.000259
0.000254
0.000247
0.000271
0.000264
0.000287
0.000251
0.000256
0.000280
0.000269
0.000291
0.000242
0.000263
0.000300
0.000244
0.000272
0.000260
0.000272
0.000180
0.000055
0.000233
0.000239
0.000315
0.000492
0.000291
0.000251
0.000239
0.000244
0.000262
0.000246
0.000248
0.000255
0.000262
0.000265
0.000235
0.000241
0.000269
0.000251
0.000337
0.000314
0.000420
0.000383
0.000233
0.000273
0.000253
0.000253
0.000274
0.000250
0.000272
0.000295
0.000180
0.000055
0.000375
0.000403
0.000426
0.000199
0.000253
0.000259
0.000408
0.000221
0.000232
0.000252
0.000250
0.000300
0.000406
0.000468
0.001776
0.000255
0.000247
0.000250
0.000280
0.000242
0.000347
0.000519
0.000529
0.000291
0.000233
0.000268
0.000269
0.000425
0.000282
0.000277
0.000168
0.000056
0.000261
0.000352
0.000348
0.000307
0.000494
0.000202
0.000237
0.000264
0.000239
0.000235
0.000268
0.000245
0.000259
0.000304
0.000481
0.000422
0.000222
0.000243
0.000257
0.000259
0.000268
0.000318
0.000232
0.000281
0.000270
0.000445
0.000487
0.000399
0.000484
0.000232
0.000205
0.000055
0.000208
0.000216
0.000257
0.000232
0.000250
0.000246
0.000266
0.000338
0.000294
0.000369
0.000431
0.000343
0.000214
0.000255
0.000280
0.000281
0.000299
0.000231
0.000276
0.000272
0.000236
0.000278
0.000497
0.000376
0.000292
0.000255
0.000256
0.000460
0.000393
0.000321
0.000159
0.000055
0.000207
0.000245
0.000328
0.000453
0.000357
0.000216
0.000223
0.000259
0.000258
0.000290
0.000228
0.000253
0.000227
0.000255
0.000263
0.000293
0.000377
0.000378
0.000301
0.000338
0.000497
0.000224
0.000295
0.000260
0.000301
0.000284
0.000252
0.000258
0.000482
0.000526
0.000181
0.000056
0.000199
0.000232
0.000250
0.000251
0.000259
0.000470
0.000207
0.000256
0.000263
0.000283
0.000535
0.000595
0.000207
0.000238
0.000244
0.000254
0.000260
0.000261
0.000245
0.000246
0.000287
0.000240
0.000394
0.000380
0.000366
0.000410
0.000289
0.000311
0.000327
0.000232
0.000188
0.000055
0.000196
0.000240
0.000269
0.000495
0.000318
0.000279
0.000255
0.000231
0.000244
0.000258
0.000251
0.000262
0.000265
0.000238
0.000248
0.000262
0.000250
0.000244
0.000274
0.000364
0.000571
0.000342
0.000227
0.000251
0.000285
0.000269
0.000270
0.000254
0.000257
0.000271
0.000200
0.000056
0.000298
0.000330
0.000492
0.000240
0.000216
0.000253
0.000315
0.000454
0.000294
0.000208
0.000241
0.000275
0.000255
0.000464
0.000416
0.000294
0.000239
0.000239
0.000245
0.000261
0.000277
0.000261
0.000258
0.000281
0.000256
0.000318
0.000387
0.000452
0.000267
0.000247
0.000179
0.000055
0.000191
0.000237
0.000251
0.000256
0.000256
0.000266
0.000224
0.000268
0.000253
0.000237
0.000264
0.000241
0.000289
0.001435
0.000219
0.000257
0.000262
0.000240
0.000277
0.000279
0.000261
0.000238
0.000279
0.000249
0.000272
0.000284
0.000258
0.000272
0.000262
0.000273
0.000190
0.000056
0.000205
0.000231
0.000255
0.000262
0.000220
0.000257
0.000252
0.000255
0.000227
0.000249
0.000245
0.000262
0.000258
0.000259
0.000273
0.000239
0.000240
0.000264
0.000275
0.000254
0.000253
0.000267
0.000238
0.000258
0.001298
0.000270
0.000624
0.000412
0.000328
0.000214
0.000198
0.000055
0.000192
0.000243
0.000233
0.000265
0.000410
0.000240
0.000228
0.000261
0.000238
0.000469
0.000340
0.000351
0.000226
0.000228
0.000261
0.000261
0.000258
0.000260
0.000247
0.000266
0.000260
0.000267
0.000276
0.000377
0.000569
0.000401
0.000234
0.000258
0.001383
0.000241
0.000178
0.000056
0.000373
0.000391
0.000332
0.000259
0.000240
0.000213
0.000230
0.000255
0.000260
0.000256
0.000247
0.000260
0.000295
0.000290
0.000581
0.000327
0.000336
0.000218
0.000241
0.000263
0.000266
0.000285
0.000250
0.000262
0.000273
0.000257
0.000320
0.000549
0.000416
0.000335
0.000159
0.000056
0.000211
0.000235
0.001269
0.000424
0.000282
0.000518
0.000338
0.000482
0.000267
0.000353
0.000214
0.000222
0.000266
0.000251
0.000264
0.000255
0.000418
0.000456
0.000347
0.000382
0.000263
0.000239
0.000269
0.000497
0.000230
0.000268
0.000250
0.000278
0.000301
0.000554
0.000299
0.000056
0.000378
0.000314
0.000235
0.000218
0.001699
0.000414
0.000223
0.000247
0.000234
0.000249
0.000237
0.000240
0.000245
0.000269
0.000247
0.000266
0.000237
0.000259
0.000409
0.000373
0.000488
0.000217
0.000261
0.000257
0.000256
0.000299
0.000252
0.000234
0.000266
0.000278
0.000203
0.000056
0.000387
0.000315
0.000222
0.000228
0.000255
0.000241
0.000262
0.000241
0.000236
0.000224
0.001490
0.000446
0.000211
0.000246
0.000242
0.000256
0.000269
0.000264
0.000251
0.000285
0.000244
0.000252
0.000327
0.000343
0.000420
0.000464
0.000229
0.000263
0.000279
0.000284
0.000171
0.000056
0.000207
0.000425
0.000220
0.000245
0.000337
0.000429
0.000385
0.000317
0.000454
0.000207
0.000231
0.000252
0.000267
0.000264
0.000259
0.001414
0.000361
0.000282
0.000243
0.000270
0.000297
0.000237
0.000252
0.000255
0.000257
0.000271
0.000489
0.000404
0.000301
0.000264
0.000163
0.000057
0.000187
0.000234
0.000253
0.000238
0.000226
0.000268
0.000239
0.000239
0.000274
0.000398
0.000410
0.000302
0.000237
0.000259
0.000248
0.000271
0.000271
0.000265
0.000264
0.000229
0.000257
0.000296
0.001283
0.000286
0.000207
0.000256
0.000254
0.000272
0.000264
0.000254
0.000190
0.000056
0.000214
0.000376
0.000498
0.000203
0.000242
0.000240
0.000263
0.000289
0.000237
0.000261
0.000235
0.000270
0.000245
0.000245
0.000260
0.000263
0.000266
0.000268
0.000265
0.000246
0.000250
0.000274
0.000276
0.000270
0.000292
0.000265
0.000268
0.000260
0.000259
0.000450
0.001361
0.000056
0.000233
0.000234
0.000224
0.000262
0.000235
0.000258
0.000244
0.000224
0.000245
0.000254
0.000271
0.000263
0.000246
0.000240
0.000274
0.000228
0.001733
0.000249
0.000241
0.000261
0.000246
0.000260
0.000275
0.000261
0.000297
0.000233
0.000267
0.000281
0.000262
0.000253
0.000225
0.000056
0.000301
0.000324
0.001298
0.000237
0.000245
0.000214
0.000252
0.000254
0.000273
0.000245
0.000230
0.000339
0.000394
0.000452
0.000276
0.000221
0.000253
0.000255
0.000279
0.000245
0.000246
0.000276
0.000255
0.000284
0.000265
0.000358
0.000406
0.000400
0.000274
0.000242
0.000194
0.000057
0.000202
0.000250
0.000242
0.000247
0.000279
0.000198
0.000250
0.000275
0.000393
0.001340
0.000264
0.000211
0.000245
0.000274
0.000254
0.000292
0.000235
0.000252
0.000300
0.000427
0.000399
0.000241
0.000251
0.000233
0.000286
0.000276
0.000273
0.000285
0.000268
0.000277
0.000191
0.000057
0.000273
0.000400
0.000390
0.000210
0.000234
0.000235
0.000249
0.000279
0.000267
0.000241
0.000234
0.000251
0.000453
0.000499
0.000489
0.001437
0.000254
0.000257
0.000361
0.000348
0.000451
0.000447
0.000489
0.000355
0.000232
0.000259
0.000272
0.000278
0.000259
0.000276
0.000192
0.000056
0.000223
0.000284
0.000425
0.000429
0.000391
0.000242
0.000248
0.000242
0.000239
0.000275
0.000233
0.000264
0.000283
0.000222
0.000264
0.000366
0.000335
0.000381
0.000368
0.001326
0.000289
0.000237
0.000251
0.000267
0.000516
0.000393
0.000394
0.000233
0.000269
0.000281
0.000173
0.000056
0.000205
0.000240
0.000246
0.000262
0.000227
0.000286
0.000438
0.000401
0.000364
0.000215
0.000242
0.000263
0.000268
0.000287
0.000240
0.000255
0.000266
0.000262
0.000278
0.000269
0.000451
0.000473
0.000280
0.001348
0.000410
0.000238
0.000275
0.000434
0.000473
0.000302
0.000311
0.000056
0.000197
0.000233
0.000250
0.000246
0.000252
0.000254
0.001688
0.000235
0.000233
0.000223
0.000255
0.000248
0.000256
0.000329
0.000324
0.000291
0.000266
0.000330
0.000470
0.000405
0.000316
0.000283
0.000230
0.000255
0.001491
0.000363
0.000510
0.000334
0.000336
0.000300
0.000167
0.000055
0.000196
0.000248
0.000256
0.000256
0.000243
0.000262
0.001706
0.000226
0.000256
0.000258
0.000329
0.000405
0.001453
0.000353
0.000393
0.000245
0.000257
0.000230
0.000269
0.000275
0.001541
0.000518
0.000438
0.000300
0.000223
0.000256
0.000261
0.000287
0.000247
0.000247
0.000191
0.000056
0.000197
0.000242
0.000271
0.000251
0.000257
0.000276
0.000277
0.000252
0.000253
0.000249
0.000257
0.000247
0.000287
0.000243
0.000253
0.001497
0.000277
0.000231
0.000265
0.000278
0.000272
0.000257
0.000426
0.001276
0.000288
0.000226
0.000269
0.000255
0.000399
0.000239
0.000198
0.000055
0.000208
0.000247
0.000221
0.000245
0.000242
0.000229
0.000228
0.001701
0.000253
0.000226
0.000354
0.000263
0.000232
0.000218
0.000251
0.001404
0.000223
0.000262
0.000266
0.000247
0.000275
0.000333
0.000297
0.001307
0.000271
0.000252
0.000256
0.000256
0.001391
0.000276
0.000227
0.000056
0.000217
0.000375
0.000205
0.000246
0.000263
0.000227
0.000287
0.000248
0.000266
0.000243
0.000264
0.000263
0.000248
0.000256
0.000324
0.001501
0.000232
0.000267
0.000250
0.000244
0.000285
0.000260
0.000248
0.001518
0.000346
0.000231
0.000266
0.001286
0.000273
0.000233
0.000213
0.000055
0.000219
0.000384
0.000369
0.000192
0.000237
0.000237
0.000270
0.000251
0.000265
0.000271
0.000248
0.000241
0.000261
0.000266
0.000423
0.001221
0.000235
0.000244
0.000267
0.000278
0.000229
0.000240
0.000252
0.000327
0.001307
0.000241
0.000230
0.000255
0.000256
0.001346
0.000289
0.000055
0.000260
0.000287
0.000226
0.000226
0.000244
0.000252
0.000246
0.000246
0.000299
0.000230
0.000242
0.000263
0.000233
0.000333
0.000408
0.001483
0.000212
0.000253
0.000296
0.000527
0.000264
0.000385
0.001367
0.000314
0.000222
0.000267
0.000254
0.001308
0.000268
0.000541
0.000317
0.000056
0.000221
0.000257
0.000256
0.000248
0.000258
0.000254
0.000274
0.000261
0.000249
0.000262
0.000307
0.000528
0.001278
0.000239
0.000270
0.000264
0.000278
0.000225
0.000240
0.000234
0.000345
0.001243
0.000258
0.000242
0.000251
0.000272
0.001493
0.000424
0.000492
0.000213
0.000182
0.000056
0.000220
0.000214
0.000251
0.000237
0.000251
0.000267
0.000233
0.000250
0.000429
0.000509
0.000261
0.001491
0.000208
0.000241
0.000268
0.000257
0.000269
0.000305
0.001664
0.000257
0.000386
0.000345
0.001278
0.000334
0.000325
0.000330
0.000263
0.000254
0.000259
0.000267
0.000203
0.000057
0.000176
0.000246
0.000329
0.000240
0.000356
0.000553
0.000237
0.000319
0.001450
0.000233
0.000380
0.000256
0.000230
0.000339
0.000397
0.001276
0.000267
0.000265
0.000227
0.000255
0.001516
0.000440
0.000227
0.000274
0.000269
0.000252
0.000468
0.000315
0.000258
0.000224
0.000271
0.000055
0.000266
0.000363
0.000316
0.000275
0.000218
0.001515
0.000208
0.000274
0.000259
0.000271
0.000266
0.000272
0.000242
0.001520
0.000250
0.000230
0.000435
0.001185
0.000321
0.000474
0.000395
0.000235
0.000236
0.000254
0.000320
0.000206
0.000458
0.000213
0.000272
0.000283
0.000191
0.000056
0.000182
0.000253
0.000392
0.000387
0.001246
0.000283
0.000338
0.000227
0.000222
0.000250
0.000247
0.000296
0.001520
0.000282
0.000204
0.000243
0.001394
0.000279
0.000410
0.000409
0.000413
0.000234
0.000268
0.000234
0.000268
0.000280
0.000272
0.000256
0.000261
0.000257
0.000206
0.000057
0.000211
0.000358
0.001502
0.000204
0.000279
0.000303
0.000216
0.000247
0.000277
0.000509
0.001250
0.000211
0.000271
0.000259
0.000249
0.001266
0.000742
0.000253
0.000319
0.000415
0.000319
0.000228
0.000265
0.000260
0.000269
0.000289
0.000298
0.000263
0.000420
0.000459
0.001379
0.000056
0.000208
0.000247
0.000243
0.000221
0.000249
0.000398
0.000493
0.001295
0.000257
0.000232
0.000248
0.001398
0.000466
0.000335
0.000227
0.000409
0.000243
0.000238
0.000269
0.000293
0.000251
0.000254
0.000279
0.000255
0.000249
0.000269
0.000538
0.000397
0.001496
0.000231
0.000185
0.000057
0.000203
0.000254
0.000338
0.000534
0.001255
0.000303
0.000230
0.000257
0.000244
0.000256
0.000245
0.000315
0.000325
0.000521
0.000296
0.000243
0.000248
0.000277
0.000247
0.000304
0.000236
0.000257
0.000254
0.000272
0.000281
0.000427
0.000448
0.000306
0.000343
0.001388
0.000175
0.000058
0.000220
0.000241
0.000359
0.000430
0.000327
0.000262
0.000315
0.000335
0.000297
0.000253
0.000250
0.000252
0.000247
0.000311
0.000234
0.000292
0.000612
0.000283
0.000267
0.000393
0.000273
0.000407
0.000225
0.000250
0.000256
0.000263
0.000254
0.000292
0.000351
0.000510
0.000283
0.000057
0.000204
0.001408
0.000222
0.000342
0.000472
0.000375
0.000359
0.000319
0.000205
0.000253
0.000261
0.000249
0.000282
0.000253
0.000267
0.000248
0.000261
0.001379
0.000242
0.000250
0.000253
0.000279
0.000268
0.000279
0.000271
0.000249
0.000280
0.000244
0.000395
0.000477
0.000148
0.000056
0.000202
0.000243
0.000231
0.001510
0.000324
0.000240
0.000220
0.000256
0.000227
0.000237
0.000257
0.000287
0.000239
0.000252
0.000291
0.000235
0.000245
0.000261
0.000266
0.000253
0.001428
0.000243
0.000245
0.000258
0.000268
0.000250
0.000264
0.000263
0.000281
0.000486
0.000350
0.000056
0.000197
0.000234
0.000406
0.000279
0.000242
0.000254
0.001524
0.000362
0.000288
0.000218
0.000260
0.000316
0.000334
0.000232
0.000221
0.000250
0.000246
0.000268
0.000254
0.000258
0.000504
0.000487
0.001124
0.000272
0.000237
0.000263
0.000267
0.000254
0.000304
0.000231
0.000325
0.000055
0.000272
0.000347
0.000201
0.000248
0.000244
0.000247
0.000242
0.000220
0.000295
0.001630
0.000401
0.000239
0.000231
0.000252
0.000262
0.000247
0.000257
0.000272
0.000267
0.000303
0.000327
0.000483
0.000437
0.001369
0.000233
0.000273
0.000257
0.000262
0.000274
0.000271
0.000533
0.000056
0.000233
0.000258
0.000224
0.000236
0.000221
0.000241
0.000263
0.000278
0.000258
0.001591
0.000340
0.000258
0.000243
0.000257
0.000458
0.000252
0.000542
0.000375
0.000281
0.000277
0.000487
0.000561
0.001198
0.000265
0.000229
0.000260
0.001776
0.000376
0.000625
0.000314
0.000145
0.000056
0.000182
0.000235
0.000237
0.000240
0.000254
0.000241
0.000268
0.000537
0.000466
0.000414
0.000272
0.000209
0.000248
0.000263
0.000282
0.000268
0.000239
0.000237
0.000252
0.000310
0.000231
0.000454
0.001320
0.000222
0.000253
0.000269
0.001917
0.000361
0.000395
0.000347
0.000151
0.000056
0.000217
0.000237
0.000245
0.001674
0.000323
0.000211
0.000235
0.000270
0.000243
0.000276
0.000380
0.000368
0.000367
0.000279
0.000359
0.000449
0.000392
0.001207
0.000269
0.000240
0.000248
0.000266
0.000278
0.000402
0.000695
0.000383
0.000250
0.000271
0.000267
0.000279
0.000192
0.000055
0.000185
0.000237
0.000246
0.001542
0.000244
0.000236
0.000244
0.000253
0.000245
0.000248
0.000256
0.000270
0.000274
0.000268
0.000252
0.000355
0.000542
0.000254
0.001397
0.000229
0.000259
0.000259
0.000260
0.000290
0.000398
0.000462
0.000418
0.000272
0.000289
0.000228
0.000440
0.000055
0.000201
0.000244
0.000276
0.001524
0.000301
0.000218
0.000266
0.000242
0.000252
0.000263
0.000251
0.000272
0.000242
0.000302
0.000321
0.000586
0.001346
0.000745
0.000264
0.000339
0.000241
0.000232
0.000249
0.000278
0.001684
0.000807
0.000219
0.000264
0.000283
0.000280
0.000185
0.000057
0.000207
0.000258
0.000230
0.000245
0.000265
0.000264
0.000218
0.000252
0.000242
0.000234
0.000288
0.000283
0.000248
0.000256
0.000256
0.000250
0.000265
0.001613
0.000703
0.000375
0.000329
0.000215
0.000237
0.000313
0.000243
0.000252
0.000273
0.000249
0.001397
0.000398
0.000335
0.000056
0.000186
0.000237
0.000262
0.000234
0.000260
0.000231
0.000275
0.000232
0.000257
0.000260
0.000215
0.000525
0.000397
0.000323
0.000224
0.000235
0.000269
0.001396
0.000682
0.000475
0.000329
0.000289
0.000228
0.000242
0.000279
0.000262
0.000248
0.000259
0.001494
0.000429
0.000188
0.000055
0.000210
0.000233
0.000243
0.000245
0.000255
0.000244
0.000231
0.000253
0.000274
0.000252
0.000360
0.000384
0.000340
0.000222
0.000240
0.000241
0.000269
0.000252
0.001624
0.000647
0.000453
0.000289
0.000210
0.000255
0.000259
0.000257
0.000279
0.000287
0.000252
0.001370
0.000322
0.000055
0.000206
0.000223
0.000231
0.000257
0.000255
0.000265
0.000226
0.000314
0.000361
0.000449
0.000364
0.000355
0.000386
0.000223
0.000241
0.000247
0.000303
0.000240
0.000278
0.001878
0.000366
0.000227
0.000449
0.000236
0.000251
0.000262
0.000288
0.000244
0.000270
0.000276
0.000307
0.000056
0.000306
0.000195
0.000244
0.000247
0.000274
0.000226
0.000224
0.000243
0.000269
0.000267
0.000229
0.000238
0.000255
0.000430
0.000517
0.000435
0.000221
0.000266
0.000253
0.000254
0.000256
0.000282
0.001477
0.001052
0.000225
0.000242
0.000264
0.000271
0.000276
0.000246
0.000212
0.000056
0.000184
0.001347
0.000290
0.000217
0.000225
0.000256
0.000254
0.000237
0.000239
0.000266
0.000250
0.000261
0.000235
0.000352
0.000396
0.000515
0.000217
0.000246
0.000268
0.000271
0.000274
0.000225
0.000259
0.000263
0.001393
0.000616
0.000298
0.000390
0.000373
0.000402
0.000297
0.000056
0.000181
0.000235
0.000363
0.001315
0.000206
0.000255
0.000238
0.000256
0.000263
0.000251
0.000254
0.000244
0.000288
0.000314
0.000579
0.000304
0.000222
0.000280
0.000331
0.000209
0.000256
0.000276
0.000234
0.000268
0.000305
0.001511
0.000732
0.000317
0.000258
0.000266
0.000199
0.000055
0.000219
0.000244
0.000470
0.000321
0.001298
0.000264
0.000210
0.000240
0.000236
0.000253
0.000247
0.000258
0.000232
0.000238
0.000252
0.000249
0.000274
0.000230
0.000261
0.000254
0.000267
0.000274
0.000307
0.000332
0.000214
0.000268
0.000262
0.001465
0.000252
0.000243
0.000178
0.000057
0.000190
0.000231
0.000250
0.000265
0.000349
0.000371
0.000398
0.000282
0.001577
0.000215
0.000331
0.000518
0.000305
0.000229
0.000444
0.000236
0.000226
0.000263
0.000274
0.000269
0.000278
0.000269
0.000256
0.000273
0.000245
0.000447
0.000352
0.000386
0.001539
0.000226
0.000187
0.000056
0.000235
0.000250
0.000235
0.000250
0.000239
0.000245
0.000261
0.000313
0.000411
0.002038
0.000232
0.000234
0.000255
0.000258
0.000260
0.000308
0.000219
0.000255
0.000264
0.000461
0.000334
0.000455
0.001455
0.000243
0.000253
0.002008
0.000282
0.000241
0.000252
0.001537
0.000151
0.000056
0.000333
0.000413
0.000471
0.000244
0.000274
0.000212
0.000260
0.000268
0.000262
0.000227
0.000255
0.000329
0.000437
0.000334
0.000432
0.000239
0.000229
0.001570
0.000227
0.000624
0.001856
0.000284
0.000226
0.001546
0.002015
0.000739
0.000277
0.000256
0.000278
0.000497
0.000317
0.000055
0.000207
0.000244
0.000273
0.000224
0.001422
0.001738
0.001075
0.000204
0.000225
0.001588
0.001977
0.000207
0.000249
0.000423
0.000273
0.000389
0.000430
0.000453
0.000213
0.000238
0.000253
0.000253
0.000279
0.001598
0.001210
0.001420
0.000283
0.000281
0.000258
0.000286
0.000400
0.000055
0.000185
0.000228
0.000240
0.000242
0.000231
0.000242
0.000250
0.000256
0.000254
0.000247
0.000238
0.000311
0.000583
0.000353
0.000259
0.000253
0.000241
0.000274
0.000272
0.000280
0.000237
0.000277
0.001587
0.000384
0.002126
0.000244
0.000260
0.000316
0.000441
0.000397
0.000180
0.000056
0.000221
0.000404
0.000420
0.000310
0.000198
0.000233
0.000247
0.000242
0.000242
0.000248
0.000240
0.000267
0.000264
0.001611
0.001356
0.001238
0.000263
0.000228
0.000246
0.000282
0.000280
0.000278
0.000246
0.000244
0.002214
0.000252
0.000250
0.000297
0.000320
0.000306
0.000225
0.000056
0.000230
0.000349
0.000613
0.000273
0.000254
0.000213
0.000244
0.000268
0.001911
0.001410
0.000218
0.000351
0.000369
0.000409
0.000265
0.000224
0.000258
0.000265
0.000263
0.000264
0.000255
0.000265
0.000478
0.000218
0.000266
0.000269
0.000251
0.000272
0.000285
0.000247
0.000202
0.000057
0.000194
0.000246
0.000249
0.000242
0.000276
0.000248
0.001542
0.001422
0.001335
0.000217
0.000236
0.000241
0.000271
0.000261
0.000240
0.000250
0.000250
0.002110
0.000249
0.000228
0.000269
0.000265
0.000255
0.000270
0.000300
0.000217
0.000274
0.000251
0.000281
0.000262
0.000172
0.000056
0.000202
0.002682
0.001414
0.000203
0.000306
0.000322
0.000213
0.000285
0.000231
0.000241
0.000257
0.000244
0.000235
0.000245
0.000269
0.000255
0.000270
0.000265
0.000270
0.000260
0.000256
0.000289
0.000275
0.000261
0.000247
0.000244
0.000265
0.000275
0.000265
0.000265
0.000372
0.000056
0.001539
0.000249
0.001236
0.000228
0.000227
0.000241
0.000259
0.000293
0.000209
0.000252
0.000423
0.000350
0.000341
0.000208
0.000249
0.002156
0.000233
0.000257
0.000417
0.000367
0.000372
0.000282
0.000230
0.000249
0.000270
0.000247
0.000262
0.000280
0.000289
0.001627
0.001244
0.000057
0.000171
0.000233
0.000299
0.000393
0.000356
0.000279
0.000217
0.000235
0.000254
0.000252
0.000268
0.000249
0.000223
0.000257
0.000265
0.000237
0.000303
0.000695
0.000299
0.000250
0.000225
0.000281
0.000276
0.000258
0.000246
0.000244
0.000268
0.000276
0.000239
0.000361
0.000329
0.000055
0.001115
0.000277
0.000345
0.000403
0.000300
0.000217
0.000234
0.000243
0.000247
0.002318
0.000346
0.000399
0.000211
0.000377
0.000301
0.000263
0.000236
0.000260
0.000266
0.000219
0.000260
0.000276
0.000619
0.000433
0.001891
0.001282
0.000585
0.000491
0.000227
0.000280
0.000202
0.000056
0.000367
0.000220
0.000245
0.000244
0.000261
0.000211
0.000259
0.000254
0.000256
0.000247
0.000259
0.000222
0.000247
0.000278
0.000419
0.000458
0.001846
0.001329
0.000590
0.000295
0.000444
0.000251
0.000239
0.000258
0.002179
0.000511
0.000387
0.000228
0.000274
0.000300
0.000175
0.000056
0.000178
0.000249
0.000252
0.000253
0.000235
0.000447
0.000305
0.000354
0.000286
0.000219
0.000239
0.000254
0.000258
0.002175
0.000303
0.000385
0.000210
0.000259
0.000287
0.000241
0.000250
0.002474
0.000325
0.000219
0.000255
0.000263
0.000247
0.000277
0.000303
0.000259
0.000190
0.000055
0.000173
0.000372
0.000563
0.000339
0.000254
0.000223
0.000238
0.000249
0.000277
0.000238
0.001963
0.000408
0.000250
0.000269
0.000237
0.000267
0.000275
0.000238
0.002206
0.000454
0.000217
0.000273
0.000267
0.000254
0.000258
0.000260
0.000295
0.000240
0.000259
0.000274
0.000168
0.000055
0.000213
0.000235
0.000248
0.000219
0.000244
0.000266
0.000232
0.000243
0.000239
0.002187
0.000214
0.000292
0.000207
0.000435
0.000232
0.000243
0.000309
0.000259
0.000252
0.000250
0.001970
0.000271
0.000347
0.000366
0.000424
0.000407
0.000311
0.000247
0.000253
0.000266
0.000210
0.000056
0.000194
0.000241
0.000244
0.000250
0.000243
0.000328
0.000211
0.002318
0.000250
0.000222
0.000261
0.000263
0.000225
0.000281
0.000280
0.002120
0.000594
0.000212
0.000263
0.000238
0.000277
0.000249
0.000283
0.000273
0.000264
0.000246
0.000287
0.000253
0.000289
0.000245
0.000193
0.000056
0.001828
0.001446
0.000193
0.000225
0.000244
0.000253
0.000249
0.000306
0.000371
0.000382
0.002136
0.000260
0.000231
0.000271
0.000390
0.000418
0.000391
0.000294
0.000214
0.000255
0.000244
0.000268
0.000271
0.000225
0.000262
0.000261
0.000272
0.000261
0.000305
0.000680
0.000313
0.000055
0.000201
0.000252
0.000254
0.000244
0.000281
0.000228
0.000255
0.000241
0.001497
0.002095
0.000610
0.000248
0.000399
0.000702
0.000355
0.000237
0.000250
0.000255
0.000267
0.000251
0.000262
0.000242
0.000247
0.000274
0.003022
0.000323
0.000237
0.000262
0.000289
0.000255
0.000491
0.000057
0.001913
0.000233
0.000235
0.000223
0.000297
0.000347
0.000591
0.000173
0.000291
0.000213
0.000244
0.000246
0.000260
0.000260
0.000279
0.000238
0.000257
0.000286
0.001827
0.000231
0.000250
0.000243
0.000273
0.000280
0.000274
0.000249
0.001476
0.000336
0.000237
0.000264
0.000171
0.000056
0.000207
0.000227
0.000248
0.000247
0.000240
0.000240
0.000306
0.000368
0.000374
0.000330
0.000229
0.000236
0.000265
0.000333
0.000420
0.000337
0.000207
0.000251
0.000259
0.000357
0.000478
0.000429
0.000257
0.000261
0.000259
0.000252
0.000252
0.000268
0.000280
0.000262
0.000204
0.000056
0.001433
0.000452
0.000202
0.001947
0.000250
0.000457
0.000435
0.000299
0.000231
0.000244
0.000269
0.000242
0.000249
0.000246
0.000267
0.000259
0.000468
0.000274
0.000409
0.000372
0.000353
0.000217
0.000262
0.000271
0.000270
0.000277
0.000253
0.000266
0.000387
0.000471
0.001353
0.000056
0.000194
0.000220
0.002124
0.000279
0.000315
0.000233
0.000256
0.000248
0.000262
0.000266
0.000209
0.000260
0.000247
0.000265
0.000275
0.000336
0.000748
0.001731
0.000229
0.000244
0.000257
0.000267
0.000363
0.000420
0.001613
0.000278
0.000367
0.001926
0.000248
0.000272
0.000190
0.000056
0.000215
0.000227
0.000234
0.000246
0.000226
0.000249
0.000248
0.000295
0.000324
0.000270
0.000372
0.000360
0.000343
0.000303
0.000244
0.000260
0.000260
0.000247
0.000267
0.000249
0.000332
0.000265
0.000268
0.000260
0.000269
0.001507
0.000291
0.000378
0.002072
0.000241
0.000169
0.000056
0.000218
0.000237
0.000242
0.000241
0.000497
0.000202
0.000253
0.000355
0.000336
0.000316
0.000311
0.000213
0.000260
0.000265
0.000267
0.000337
0.000427
0.000425
0.000254
0.000409
0.000573
0.000367
0.001611
0.000222
0.000252
0.002014
0.000299
0.000251
0.000244
0.000290
0.000187
0.000056
0.000195
0.000248
0.000221
0.000244
0.000251
0.000273
0.000267
0.000256
0.000249
0.000265
0.001807
0.000318
0.000384
0.000281
0.000463
0.000362
0.000370
0.001490
0.000235
0.000279
0.002102
0.000606
0.000243
0.000230
0.000262
0.000274
0.000505
0.000223
0.000256
0.000280
0.000193
0.000056
0.000285
0.000355
0.000388
0.000295
0.000196
0.000245
0.000258
0.000255
0.000260
0.000298
0.000220
0.000254
0.000256
0.000259
0.000440
0.000348
0.001344
0.000266
0.000275
0.001963
0.000314
0.000292
0.000235
0.000280
0.000231
0.000278
0.000276
0.000250
0.000250
0.000263
0.000208
0.000056
0.000249
0.000562
0.001885
0.000252
0.000221
0.000249
0.000253
0.000313
0.000448
0.000423
0.001290
0.000382
0.000361
0.002078
0.000204
0.000240
0.000271
0.000273
0.000260
0.000236
0.000290
0.000293
0.000253
0.000339
0.000482
0.000375
0.000333
0.002223
0.000520
0.000510
0.000336
0.000056
0.000208
0.000218
0.000253
0.001963
0.000232
0.000216
0.000249
0.000242
0.000244
0.000254
0.000250
0.000259
0.000258
0.000324
0.000378
0.001486
0.000247
0.000247
0.000270
0.000255
0.000232
0.000250
0.000262
0.000275
0.000306
0.000540
0.000398
0.000242
0.001603
0.000276
0.000151
0.000057
0.000198
0.000218
0.000246
0.000234
0.000256
0.000268
0.000228
0.000261
0.000243
0.000403
0.000334
0.001419
0.000226
0.000222
0.000250
0.000299
0.000223
0.000259
0.000302
0.000470
0.000479
0.000375
0.000224
0.001580
0.000230
0.000259
0.000287
0.000281
0.000260
0.000266
0.000199
0.000057
0.000215
0.000220
0.000268
0.000265
0.000247
0.000253
0.000230
0.000244
0.000274
0.000230
0.000244
0.000256
0.000268
0.001486
0.000361
0.000204
0.000243
0.000268
0.000283
0.000310
0.000369
0.000271
0.000244
0.000297
0.000229
0.000265
0.000261
0.001410
0.000284
0.000232
0.000168
0.000055
0.000199
0.000235
0.000263
0.000256
0.000268
0.000225
0.000246
0.000261
0.000218
0.000264
0.000266
0.000237
0.000229
0.000340
0.000339
0.000394
0.000238
0.000244
0.001621
0.000241
0.000238
0.000256
0.000268
0.000347
0.000334
0.000362
0.000459
0.000261
0.000255
0.001615
0.000166
0.000055
0.000293
0.000337
0.000380
0.000296
0.000220
0.000220
0.000245
0.000271
0.000252
0.000263
0.000227
0.000236
0.001460
0.000296
0.000318
0.000207
0.000254
0.000272
0.000256
0.000263
0.000250
0.000256
0.000243
0.000273
0.000316
0.000321
0.000431
0.000333
0.000326
0.000243
0.000191
0.000056
0.000207
0.000232
0.000413
0.000422
0.000323
0.000274
0.000237
0.000252
0.000252
0.000257
0.000239
0.000229
0.000255
0.000247
0.001250
0.000307
0.000239
0.000264
0.000252
0.000263
0.000238
0.000270
0.000252
0.000265
0.000266
0.000239
0.000348
0.000723
0.000384
0.000243
0.000178
0.000056
0.000202
0.001559
0.000267
0.000315
0.000458
0.000379
0.000207
0.000260
0.000268
0.000252
0.000240
0.000259
0.000269
0.000275
0.000273
0.001514
0.000252
0.000296
0.000250
0.000253
0.000274
0.000238
0.000271
0.000256
0.000271
0.000254
0.000484
0.000309
0.000361
0.000242
0.000189
0.000072
0.000188
0.000259
0.000234
0.001696
0.000374
0.000315
0.000220
0.000235
0.000256
0.000277
0.000275
0.000254
0.000252
0.000254
0.000231
0.000273
0.000443
0.001281
0.000253
0.000225
0.001502
0.000285
0.000670
0.000320
0.000358
0.000212
0.000274
0.000463
0.000238
0.000261
0.000182
0.000055
0.000246
0.000215
0.000249
0.000247
0.000245
0.000259
0.000285
0.000211
0.000255
0.000248
0.000245
0.000258
0.000318
0.000443
0.001715
0.001525
0.000321
0.000556
0.000321
0.000226
0.000232
0.000250
0.000255
0.000267
0.000263
0.000254
0.000255
0.000268
0.001531
0.000320
0.000167
0.000056
0.000235
0.000336
0.000369
0.000317
0.000250
0.000210
0.000251
0.000398
0.000393
0.000392
0.002142
0.000315
0.000693
0.000532
0.000446
0.000255
0.000332
0.000398
0.000327
0.000298
0.000378
0.000259
0.001535
0.000534
0.000218
0.000256
0.000254
0.000264
0.000270
0.000259
0.000191
0.000056
0.000231
0.000251
0.000251
0.000260
0.000238
0.001664
0.000882
0.000995
0.000206
0.000235
0.000257
0.000259
0.000264
0.000257
0.000255
0.000247
0.000248
0.000273
0.000263
0.000275
0.001434
0.000313
0.000252
0.000226
0.000232
0.000259
0.000266
0.000284
0.000264
0.000280
0.001907
0.000056
0.000188
0.000229
0.001546
0.000851
0.000441
0.000306
0.000231
0.000239
0.000246
0.000258
0.000247
0.000253
0.000240
0.001991
0.000466
0.000229
0.000238
0.000252
0.000272
0.000260
0.000191
