0.000122
0.006136
0.015526
0.000342
0.000254
0.000231
0.000303
0.000285
0.000296
0.000288
0.000241
0.000400
0.000490
0.000504
0.000349
0.000310
0.000305
0.000407
0.000408
0.000372
0.000298
0.001859
0.000532
0.000440
0.000244
0.000348
0.000290
0.000401
0.000481
0.000325
0.000397
0.000329
0.000077
0.000204
0.000239
0.000267
0.000253
0.000319
0.000225
0.000262
0.000250
0.000291
0.000279
0.000405
0.000493
0.000298
0.000363
0.000359
0.000404
0.000308
0.000232
0.000196
0.001724
0.000290
0.000232
0.000501
0.000266
0.000225
0.000270
0.000259
0.000295
0.000282
0.000339
0.000418
0.000064
0.000190
0.000227
0.000251
0.000256
0.000258
0.000253
0.000254
0.000303
0.000236
0.001669
0.000234
0.000238
0.000255
0.000291
0.000273
0.000239
0.000272
0.000280
0.000319
0.001815
0.000254
0.000295
0.000406
0.000492
0.000382
0.000226
0.000237
0.000586
0.000424
0.000765
0.000173
0.000099
0.000191
0.000225
0.000276
0.000211
0.000325
0.000295
0.000335
0.000434
0.000466
0.000283
0.000205
0.000222
0.000225
0.000260
0.000262
0.000244
0.000256
0.000258
0.000301
0.000346
0.001720
0.000238
0.000250
0.000453
0.000275
0.000691
0.000670
0.000466
0.000350
0.000265
0.000204
0.000066
0.000183
0.000219
0.000259
0.000261
0.000252
0.000263
0.000312
0.000392
0.001469
0.000244
0.000246
0.000234
0.000255
0.000264
0.000264
0.000271
0.000331
0.000761
0.001381
0.000282
0.000249
0.000413
0.000287
0.000224
0.000265
0.000247
0.000252
0.000278
0.000248
0.000272
0.000213
0.000065
0.000204
0.000229
0.000229
0.000267
0.000250
0.000246
0.000249
0.000243
0.000265
0.000231
0.001691
0.000239
0.000229
0.000234
0.000222
0.000251
0.000238
0.000252
0.000262
0.000249
0.000263
0.001745
0.000239
0.000248
0.000474
0.000242
0.000240
0.000237
0.000266
0.000257
0.000210
0.000065
0.000187
0.000210
0.000242
0.000243
0.000244
0.000245
0.000257
0.000249
0.000256
0.000246
0.000261
0.000263
0.000252
0.000271
0.001631
0.000276
0.000296
0.000235
0.000252
0.000272
0.000270
0.000246
0.000248
0.000255
0.000266
0.001855
0.000370
0.000362
0.000280
0.000264
0.000227
0.000064
0.000174
0.000213
0.000270
0.000246
0.000258
0.000228
0.000292
0.000384
0.000432
0.000428
0.000231
0.000234
0.000273
0.000231
0.001687
0.000454
0.000301
0.000471
0.000228
0.000231
0.000246
0.000291
0.000275
0.001791
0.000455
0.000525
0.000213
0.000250
0.000224
0.000253
0.000215
0.000064
0.000190
0.000224
0.000236
0.000287
0.000275
0.000584
0.000344
0.000229
0.000214
0.000235
0.000255
0.000257
0.000289
0.001677
0.000452
0.000305
0.000237
0.000243
0.000266
0.000303
0.000237
0.000252
0.000276
0.001907
0.000285
0.000390
0.000250
0.000259
0.000340
0.000381
0.000325
0.000065
0.000258
0.000341
0.000328
0.000289
0.000277
0.000219
0.000239
0.000254
0.000247
0.000241
0.000257
0.000228
0.001612
0.000333
0.000305
0.000210
0.000253
0.000233
0.000260
0.000273
0.000280
0.000333
0.001775
0.000344
0.000232
0.000502
0.000240
0.000232
0.000247
0.000248
0.000274
0.000064
0.000410
0.000429
0.000672
0.000199
0.000216
0.000256
0.000236
0.000231
0.000250
0.000276
0.000224
0.001702
0.000295
0.000440
0.000342
0.000233
0.000232
0.000222
0.000261
0.000240
0.000364
0.001738
0.000249
0.000231
0.002252
0.000424
0.000268
0.000264
0.000263
0.000259
0.000203
0.000064
0.000212
0.000210
0.000246
0.000259
0.000234
0.001691
0.000222
0.000221
0.000224
0.000255
0.000242
0.000244
0.000253
0.000257
0.000285
0.000452
0.000588
0.000245
0.000228
0.000271
0.000267
0.000254
0.000253
0.000484
0.000433
0.000258
0.000391
0.000522
0.000447
0.000224
0.000188
0.000064
0.000191
0.000221
0.000252
0.000268
0.000218
0.000237
0.000275
0.000471
0.000471
0.001538
0.000259
0.000233
0.000244
0.000255
0.000261
0.000270
0.000398
0.000542
0.000379
0.000247
0.000221
0.000262
0.000299
0.000281
0.000287
0.000405
0.000510
0.000487
0.000448
0.000465
0.000138
0.000065
0.000203
0.000233
0.000226
0.000230
0.000228
0.000246
0.000253
0.000253
0.000243
0.000368
0.000335
0.001561
0.000272
0.000219
0.000208
0.000219
0.000258
0.000245
0.000260
0.000260
0.000294
0.000400
0.000444
0.000314
0.000232
0.000239
0.000268
0.000244
0.000265
0.000268
0.000420
0.000065
0.000195
0.000219
0.000240
0.000387
0.000396
0.000422
0.000268
0.000245
0.000233
0.000257
0.000242
0.000245
0.000285
0.000259
0.000250
0.000571
0.000365
0.001590
0.000267
0.000245
0.000271
0.000270
0.000255
0.000244
0.000247
0.000612
0.000315
0.000393
0.000367
0.000250
0.000194
0.000098
0.000199
0.000234
0.000385
0.000258
0.000254
0.000261
0.000386
0.000455
0.000322
0.000302
0.000238
0.000271
0.000277
0.000239
0.000583
0.000293
0.000233
0.000247
0.000443
0.001638
0.000237
0.000231
0.000317
0.000412
0.000280
0.000289
0.000276
0.000363
0.000591
0.000335
0.000240
0.000065
0.000215
0.000212
0.000226
0.000265
0.000460
0.000265
0.000280
0.000237
0.000373
0.000562
0.000356
0.000243
0.000228
0.000204
0.000260
0.000258
0.000249
0.000263
0.000228
0.000379
0.000264
0.000598
0.001574
0.000270
0.000234
0.000264
0.000303
0.000363
0.000718
0.000428
0.000404
0.000065
0.000250
0.000324
0.000315
0.000416
0.000308
0.000223
0.000265
0.000309
0.000461
0.000432
0.000318
0.000216
0.000225
0.000247
0.000270
0.000231
0.000263
0.000270
0.000267
0.000261
0.000269
0.000388
0.001770
0.000355
0.000443
0.000418
0.000289
0.000224
0.000451
0.000336
0.000315
0.000065
0.000313
0.000361
0.000239
0.000186
0.000263
0.000190
0.000456
0.000216
0.000238
0.000339
0.000384
0.000425
0.000314
0.000227
0.000263
0.000287
0.000385
0.000434
0.000282
0.000224
0.000228
0.000437
0.000563
0.001689
0.000252
0.000416
0.000315
0.000234
0.000282
0.000413
0.000351
0.000064
0.000191
0.000210
0.000238
0.000249
0.000244
0.000253
0.000259
0.000337
0.000419
0.000298
0.000565
0.000290
0.000288
0.000207
0.000552
0.000247
0.000275
0.000268
0.000234
0.000379
0.000204
0.000233
0.000271
0.000420
0.000567
0.001635
0.000234
0.000223
0.000233
0.000267
0.000204
0.000064
0.000289
0.000447
0.000384
0.000223
0.000226
0.000239
0.000256
0.000241
0.000241
0.000256
0.000220
0.000481
0.000325
0.000446
0.000378
0.000308
0.000236
0.000263
0.000341
0.000389
0.000381
0.000354
0.000360
0.000353
0.000248
0.000233
0.000270
0.000244
0.001781
0.000275
0.000191
0.000077
0.000192
0.000206
0.000252
0.000259
0.000388
0.000507
0.000321
0.000236
0.000230
0.000267
0.000263
0.000240
0.000520
0.000451
0.000486
0.000291
0.000273
0.000316
0.000415
0.000531
0.000368
0.000441
0.000441
0.000407
0.000231
0.000236
0.000233
0.000232
0.000249
0.001765
0.000277
0.000165
0.000180
0.000305
0.000219
0.000215
0.000262
0.000245
0.000319
0.000499
0.000354
0.000330
0.000324
0.000241
0.000341
0.000736
0.000247
0.000230
0.000223
0.000230
0.000246
0.000270
0.000262
0.000266
0.000252
0.000253
0.000325
0.000329
0.000578
0.000272
0.000224
0.000245
0.000175
0.000065
0.000446
0.000284
0.000450
0.000254
0.000226
0.000239
0.000243
0.000244
0.000242
0.000217
0.000239
0.000297
0.000290
0.000405
0.000526
0.000423
0.000370
0.000388
0.000379
0.000364
0.000217
0.000223
0.000201
0.000276
0.001780
0.000233
0.001762
0.000995
0.000288
0.000359
0.000148
0.000065
0.000211
0.000234
0.000215
0.000231
0.000252
0.000251
0.000252
0.000259
0.000241
0.000315
0.000371
0.000455
0.000509
0.000286
0.000222
0.000216
0.000274
0.000284
0.000224
0.000219
0.000257
0.000248
0.001779
0.000278
0.000233
0.000253
0.000280
0.000267
0.001858
0.000582
0.000218
0.000064
0.000228
0.000197
0.000218
0.000234
0.000258
0.000235
0.000247
0.000258
0.000257
0.000344
0.000551
0.000338
0.000390
0.000272
0.000214
0.000347
0.000330
0.000404
0.000397
0.000222
0.001772
0.000244
0.000223
0.000241
0.000256
0.000272
0.000229
0.000269
0.000250
0.000342
0.000435
0.000081
0.000255
0.000203
0.000214
0.000246
0.000250
0.000247
0.000278
0.000232
0.000246
0.000244
0.000242
0.000288
0.000475
0.000311
0.000303
0.000322
0.000478
0.000212
0.000230
0.000248
0.000266
0.000252
0.000277
0.000254
0.000279
0.001773
0.000286
0.000240
0.000253
0.000299
0.000151
0.000066
0.000232
0.000357
0.000240
0.000211
0.000235
0.000235
0.000237
0.000255
0.000253
0.000236
0.000207
0.000265
0.000254
0.000323
0.000488
0.000316
0.000352
0.000220
0.000217
0.000262
0.000261
0.000273
0.000231
0.000260
0.000262
0.000267
0.000322
0.001656
0.000237
0.000242
0.000182
0.000067
0.000170
0.000201
0.000250
0.000258
0.000357
0.000348
0.000398
0.000342
0.000213
0.000245
0.000250
0.000245
0.000259
0.000241
0.000281
0.000243
0.000246
0.000252
0.000250
0.000260
0.000269
0.000269
0.000261
0.000227
0.000249
0.000280
0.000275
0.000262
0.000254
0.000296
0.000170
0.000080
0.000209
0.000236
0.000217
0.000254
0.000243
0.000259
0.000227
0.000257
0.000356
0.000210
0.000212
0.000266
0.000225
0.000267
0.000241
0.000263
0.000250
0.000257
0.000361
0.000216
0.000241
0.000279
0.000285
0.000264
0.000269
0.000282
0.000286
0.000237
0.000300
0.000394
0.000730
0.000065
0.000331
0.000254
0.000196
0.000187
0.000196
0.000249
0.000250
0.000253
0.000262
0.000230
0.000259
0.000279
0.000579
0.000464
0.001536
0.000207
0.000525
0.000229
0.000219
0.000415
0.000560
0.000275
0.000228
0.000267
0.000257
0.000258
0.000279
0.000259
0.000303
0.000271
0.000194
0.000077
0.000281
0.000385
0.000381
0.000306
0.000212
0.000240
0.000258
0.000243
0.000231
0.000248
0.000254
0.000270
0.000222
0.000341
0.000565
0.000389
0.000284
0.001701
0.000258
0.000251
0.000399
0.000346
0.000457
0.000306
0.000369
0.000271
0.000287
0.000233
0.000226
0.000246
0.000209
0.000086
0.000193
0.000211
0.000236
0.000295
0.000387
0.000417
0.000337
0.000254
0.000250
0.000225
0.000228
0.000268
0.000266
0.000271
0.000245
0.000260
0.000388
0.000391
0.000374
0.000415
0.000239
0.001803
0.000411
0.000546
0.000367
0.000456
0.000275
0.000246
0.000236
0.000266
0.000497
0.000070
0.000203
0.000219
0.000264
0.000333
0.000336
0.000547
0.000300
0.000270
0.000232
0.000296
0.000222
0.000241
0.000248
0.000309
0.000345
0.000219
0.000244
0.000406
0.000373
0.000356
0.000570
0.001772
0.000259
0.000601
0.000333
0.000357
0.000236
0.000380
0.000239
0.000220
0.000241
0.000065
0.000281
0.000301
0.000322
0.000338
0.000384
0.000260
0.000388
0.000207
0.000235
0.000262
0.000264
0.000266
0.000213
0.000255
0.000250
0.000249
0.000317
0.000535
0.000415
0.000330
0.000293
0.000240
0.000241
0.001777
0.000407
0.000555
0.000575
0.000335
0.000207
0.000285
0.000170
0.000066
0.000172
0.000219
0.000312
0.000266
0.000272
0.000401
0.000372
0.000315
0.000317
0.000522
0.000207
0.000226
0.000233
0.000274
0.000278
0.000273
0.000221
0.000391
0.000451
0.000412
0.000241
0.000251
0.000246
0.000253
0.000275
0.000254
0.000259
0.000233
0.000262
0.000351
0.000179
0.000068
0.000313
0.000317
0.000243
0.000233
0.000246
0.000255
0.000248
0.000348
0.000221
0.000217
0.000248
0.000340
0.000499
0.000322
0.000399
0.000286
0.000191
0.000237
0.000240
0.000281
0.000240
0.000301
0.000229
0.000258
0.000274
0.000393
0.000407
0.000329
0.000381
0.000246
0.000140
0.000067
0.000202
0.000224
0.000273
0.000231
0.000245
0.000242
0.000258
0.000257
0.000491
0.000231
0.000238
0.000249
0.000242
0.000261
0.000274
0.000268
0.000273
0.000356
0.000238
0.000225
0.000245
0.000272
0.000254
0.000259
0.000284
0.000263
0.000264
0.000259
0.000259
0.000499
0.000175
0.000064
0.000195
0.000219
0.000230
0.000264
0.000247
0.000246
0.000288
0.000466
0.000253
0.000231
0.000258
0.000248
0.000246
0.000315
0.000440
0.001705
0.000243
0.000288
0.000428
0.000358
0.000372
0.000323
0.000310
0.000344
0.000521
0.000249
0.000249
0.000277
0.000274
0.000268
0.001416
0.000066
0.000393
0.000237
0.000317
0.000205
0.000192
0.000240
0.000234
0.000250
0.000246
0.000314
0.000207
0.000253
0.000255
0.000261
0.001998
0.000269
0.000216
0.000215
0.000254
0.000242
0.000245
0.000244
0.000418
0.000373
0.000283
0.000308
0.000255
0.000249
0.000281
0.000253
0.000215
0.000065
0.001259
0.000522
0.000295
0.000293
0.000213
0.000211
0.000219
0.000231
0.000511
0.000198
0.000237
0.000242
0.000407
0.000410
0.000443
0.000326
0.000293
0.000252
0.000354
0.000355
0.000226
0.000253
0.000266
0.000267
0.000253
0.000539
0.000554
0.000297
0.000240
0.000273
0.000178
0.000065
0.000215
0.000207
0.000234
0.000240
0.001554
0.000236
0.000206
0.000249
0.000246
0.000253
0.000248
0.000252
0.000243
0.000258
0.000271
0.000297
0.000440
0.000639
0.000266
0.001794
0.000259
0.000293
0.000298
0.000418
0.000504
0.000424
0.000247
0.000209
0.000257
0.000278
0.000207
0.000089
0.000181
0.000252
0.000229
0.001307
0.000329
0.000220
0.000245
0.000207
0.000246
0.000236
0.000236
0.000251
0.000272
0.000247
0.000266
0.000341
0.000402
0.000517
0.000285
0.000222
0.000261
0.000264
0.000249
0.000237
0.000337
0.000224
0.000233
0.000266
0.000265
0.000449
0.000512
0.000066
0.000187
0.000234
0.000230
0.000265
0.000250
0.000255
0.000226
0.000267
0.000264
0.000273
0.001426
0.000227
0.000235
0.000253
0.000260
0.000222
0.000261
0.000271
0.000257
0.000277
0.000299
0.000431
0.000581
0.000269
0.000257
0.000273
0.001820
0.000249
0.000248
0.000336
0.000421
0.000066
0.000277
0.000410
0.000451
0.000508
0.000527
0.000527
0.001501
0.000443
0.000620
0.000593
0.000582
0.000710
0.000464
0.000561
0.000626
0.001690
0.000535
0.000402
0.000345
0.000331
0.000249
0.000302
0.000261
0.000254
0.000277
0.000293
0.000300
0.000276
0.000300
0.000255
0.001311
0.000065
0.000236
0.000251
0.000213
0.000248
0.000242
0.000239
0.000253
0.000243
0.000252
0.000253
0.000259
0.000250
0.000248
0.000241
0.000276
0.000275
0.001811
0.000306
0.000244
0.000273
0.000222
0.000257
0.000257
0.000288
0.000443
0.000378
0.000315
0.000282
0.000241
0.000281
0.000173
0.000073
0.000217
0.001373
0.000287
0.000251
0.000267
0.000230
0.000257
0.000255
0.000242
0.000254
0.000235
0.000265
0.000242
0.000429
0.000321
0.000312
0.000285
0.000279
0.001896
0.000273
0.000257
0.000234
0.000267
0.000263
0.000301
0.000235
0.000294
0.000244
0.000240
0.000304
0.000232
0.000085
0.000217
0.000226
0.000241
0.001433
0.000264
0.000274
0.000216
0.000225
0.000226
0.000262
0.000236
0.000279
0.000236
0.000249
0.000262
0.000297
0.000226
0.000258
0.000265
0.000264
0.000263
0.001830
0.000284
0.001754
0.000272
0.000226
0.000241
0.000240
0.000282
0.000263
0.000210
0.000065
0.000236
0.000240
0.001355
0.000248
0.000262
0.000218
0.000219
0.000231
0.000255
0.000248
0.000281
0.000231
0.000263
0.000245
0.000286
0.000237
0.000260
0.000274
0.000302
0.000255
0.001846
0.000294
0.001781
0.000283
0.000236
0.000248
0.000275
0.000270
0.000252
0.000273
0.000159
0.000064
0.001446
0.000248
0.000248
0.000213
0.000220
0.000218
0.000256
0.000368
0.000257
0.000261
0.000255
0.000259
0.000315
0.000341
0.000412
0.000262
0.000298
0.000244
0.000224
0.000226
0.000258
0.000314
0.000268
0.000253
0.000266
0.000287
0.000263
0.000423
0.000609
0.000348
0.000178
0.000063
0.000214
0.000276
0.000265
0.000308
0.000374
0.000266
0.001636
0.000313
0.000269
0.000258
0.000291
0.000278
0.000293
0.000272
0.000300
0.000282
0.000357
0.000512
0.000367
0.000323
0.000278
0.000271
0.000269
0.000263
0.000318
0.000312
0.000244
0.000241
0.000240
0.000289
0.000398
0.000072
0.000307
0.000377
0.000257
0.000268
0.000254
0.000231
0.000235
0.000235
0.000263
0.000255
0.001522
0.000236
0.000204
0.000260
0.000246
0.000289
0.000261
0.000258
0.000254
0.000270
0.000252
0.000461
0.000463
0.000355
0.000230
0.000287
0.000264
0.000246
0.000252
0.000238
0.000238
0.000065
0.000201
0.000213
0.000291
0.000448
0.000394
0.000254
0.000209
0.000250
0.000255
0.000262
0.000214
0.000250
0.000256
0.000279
0.000236
0.000257
0.000380
0.001277
0.000212
0.000256
0.000222
0.000254
0.000359
0.000485
0.000235
0.000307
0.000556
0.000330
0.000430
0.000224
0.000171
0.000065
0.000210
0.000213
0.000282
0.000244
0.000307
0.000221
0.000315
0.000572
0.000328
0.000321
0.000367
0.000430
0.000353
0.000353
0.000233
0.000241
0.000199
0.000262
0.000346
0.000558
0.001202
0.000248
0.000246
0.000277
0.000238
0.000228
0.000267
0.000346
0.000355
0.000571
0.000201
0.000067
0.000198
0.000217
0.000248
0.000240
0.000243
0.000257
0.000233
0.000256
0.000254
0.000445
0.000394
0.000444
0.000222
0.000200
0.000228
0.000252
0.000250
0.000264
0.000263
0.000536
0.000217
0.000297
0.000326
0.000336
0.000380
0.000219
0.000261
0.000269
0.000259
0.000277
0.000260
0.000071
0.000304
0.000299
0.000400
0.000293
0.000465
0.000384
0.000199
0.000262
0.000216
0.000287
0.000246
0.000262
0.000239
0.000256
0.000239
0.000233
0.000258
0.000353
0.000552
0.000351
0.000233
0.000244
0.000227
0.000248
0.000269
0.000257
0.000285
0.000255
0.000283
0.000263
0.000265
0.000064
0.000352
0.000266
0.000217
0.000250
0.000234
0.000240
0.000250
0.000259
0.000266
0.000256
0.000257
0.000234
0.000285
0.000531
0.000431
0.000319
0.000220
0.000234
0.000216
0.000257
0.000325
0.000223
0.000254
0.000252
0.000278
0.000312
0.000430
0.000549
0.000509
0.000234
0.000133
0.000068
0.000389
0.000219
0.000211
0.000226
0.000250
0.000248
0.000234
0.000245
0.000256
0.000259
0.000235
0.000238
0.000275
0.000226
0.000248
0.000261
0.000262
0.000259
0.000273
0.000252
0.000259
0.000259
0.000281
0.000254
0.000272
0.000251
0.000242
0.000279
0.000270
0.000270
0.000204
0.000066
0.000176
0.000226
0.000242
0.000249
0.000233
0.000244
0.000257
0.000241
0.000260
0.000294
0.000210
0.000233
0.000272
0.000407
0.000261
0.000248
0.000269
0.000270
0.000243
0.000279
0.000281
0.000231
0.000261
0.000236
0.000270
0.000273
0.000254
0.000259
0.000276
0.000253
0.000218
0.000072
0.000271
0.000381
0.000330
0.000280
0.000331
0.000203
0.000223
0.000235
0.000254
0.000226
0.000258
0.000257
0.000251
0.000243
0.000291
0.000229
0.000268
0.000250
0.000254
0.000267
0.000268
0.000273
0.000278
0.000251
0.000268
0.000274
0.000246
0.000284
0.000246
0.000262
0.000200
0.000064
0.000206
0.000220
0.000241
0.000260
0.000252
0.000442
0.000222
0.000255
0.000316
0.000383
0.000535
0.000304
0.000213
0.000216
0.000272
0.000273
0.000254
0.000245
0.000266
0.000265
0.000267
0.000264
0.000258
0.000300
0.000528
0.000494
0.000283
0.000259
0.000279
0.000259
0.000196
0.000065
0.000181
0.000198
0.000248
0.000249
0.000317
0.000619
0.000342
0.000367
0.000240
0.000255
0.000224
0.000268
0.000245
0.000256
0.000251
0.000268
0.000265
0.000318
0.000573
0.000413
0.000284
0.000238
0.000234
0.000277
0.000284
0.000267
0.000259
0.000263
0.000268
0.000326
0.000495
0.000065
0.000207
0.000224
0.000223
0.000239
0.000253
0.000249
0.000226
0.000245
0.000256
0.000263
0.000234
0.000248
0.000245
0.000439
0.000497
0.000465
0.000217
0.000227
0.000262
0.000252
0.000268
0.000262
0.000477
0.000267
0.000244
0.000639
0.000409
0.000439
0.000317
0.000213
0.000175
0.000094
0.000182
0.000217
0.000239
0.000239
0.000259
0.000259
0.000303
0.000513
0.000620
0.000298
0.000239
0.000241
0.000268
0.000286
0.000268
0.000232
0.000242
0.000254
0.000252
0.000446
0.000336
0.000527
0.000427
0.000301
0.000435
0.000331
0.000487
0.000213
0.000240
0.000393
0.000424
0.000066
0.000260
0.000200
0.000493
0.000217
0.000259
0.000204
0.000225
0.000259
0.000235
0.000251
0.000292
0.000391
0.000443
0.000270
0.000241
0.000239
0.000261
0.000223
0.000274
0.000265
0.000267
0.000279
0.000235
0.000279
0.000289
0.000538
0.000437
0.000258
0.000251
0.000264
0.000216
0.000064
0.000176
0.000236
0.000229
0.000248
0.000245
0.000243
0.000409
0.000434
0.000410
0.000277
0.000338
0.000244
0.000228
0.000261
0.000260
0.000243
0.000247
0.000274
0.000319
0.000456
0.000463
0.000267
0.000467
0.000345
0.000394
0.000381
0.000373
0.000240
0.000247
0.000267
0.000442
0.000068
0.000234
0.000229
0.000217
0.000234
0.000255
0.000253
0.000254
0.000240
0.000257
0.000247
0.000245
0.000337
0.000459
0.000412
0.000336
0.000270
0.000245
0.000259
0.000264
0.000235
0.000257
0.000237
0.000271
0.000269
0.000276
0.000317
0.000494
0.000497
0.000233
0.000283
0.000202
0.000066
0.000216
0.000198
0.000252
0.000252
0.000259
0.000337
0.000457
0.000562
0.000344
0.000675
0.000264
0.000222
0.000221
0.000279
0.000223
0.000260
0.000303
0.000247
0.000452
0.000552
0.001535
0.000247
0.000263
0.000247
0.000302
0.000232
0.000461
0.000324
0.000477
0.000229
0.000154
0.000071
0.000185
0.000201
0.000249
0.000238
0.000264
0.000230
0.000267
0.000265
0.000241
0.000371
0.000357
0.000394
0.000303
0.000339
0.000435
0.000292
0.000215
0.000206
0.000235
0.000271
0.000239
0.000253
0.000270
0.000276
0.000397
0.000490
0.000368
0.000242
0.000228
0.000273
0.000178
0.000064
0.000179
0.000205
0.000264
0.000252
0.000247
0.000239
0.000469
0.000262
0.000201
0.000246
0.000248
0.000249
0.000262
0.000256
0.000243
0.000273
0.000272
0.000253
0.000279
0.000251
0.000245
0.000286
0.000306
0.000253
0.000252
0.000287
0.000289
0.000247
0.000261
0.000267
0.000189
0.000065
0.000210
0.000195
0.000294
0.000526
0.000316
0.000259
0.000214
0.000230
0.000264
0.000245
0.000258
0.000228
0.000280
0.000256
0.000237
0.000252
0.000239
0.000261
0.000274
0.000368
0.000416
0.000388
0.000249
0.000268
0.000255
0.000265
0.000260
0.000248
0.000274
0.000277
0.000215
0.000141
0.000234
0.000503
0.000306
0.000230
0.000246
0.000254
0.000460
0.000199
0.000210
0.000247
0.000277
0.000335
0.000355
0.000458
0.001795
0.000240
0.000242
0.000236
0.000280
0.000241
0.000293
0.000577
0.000570
0.000292
0.000213
0.000242
0.000275
0.000423
0.000279
0.000287
0.000176
0.000065
0.000227
0.000324
0.000260
0.000342
0.000522
0.000218
0.000227
0.000249
0.000255
0.000237
0.000254
0.000254
0.000256
0.000285
0.000482
0.000449
0.000250
0.000244
0.000223
0.000267
0.000259
0.000306
0.000256
0.000261
0.000283
0.000463
0.000477
0.000423
0.000457
0.000270
0.000175
0.000074
0.000216
0.000222
0.000251
0.000229
0.000250
0.000239
0.000260
0.000273
0.000333
0.000385
0.000445
0.000401
0.000218
0.000194
0.000265
0.000274
0.000318
0.000244
0.000270
0.000267
0.000239
0.000319
0.000458
0.000380
0.000242
0.000326
0.000235
0.000529
0.000385
0.000289
0.000144
0.000066
0.000184
0.000235
0.000321
0.000421
0.000376
0.000231
0.000220
0.000263
0.000250
0.000255
0.000277
0.000254
0.000231
0.000235
0.000264
0.000302
0.000399
0.000335
0.000379
0.000293
0.000467
0.000235
0.000284
0.000295
0.000286
0.000277
0.000258
0.000256
0.000458
0.000574
0.000166
0.000069
0.000204
0.000238
0.000251
0.000203
0.000241
0.000488
0.000219
0.000233
0.000262
0.000338
0.000524
0.000540
0.000238
0.000237
0.000271
0.000222
0.000279
0.000221
0.000251
0.000257
0.000259
0.000273
0.000361
0.000483
0.000362
0.000360
0.000303
0.000355
0.000288
0.000229
0.000170
0.000064
0.000189
0.000226
0.000236
0.000475
0.000323
0.000374
0.000254
0.000207
0.000225
0.000232
0.000256
0.000251
0.000261
0.000250
0.000320
0.000201
0.000248
0.000247
0.000242
0.000376
0.000531
0.000435
0.000215
0.000227
0.000277
0.000269
0.000262
0.000261
0.000257
0.000276
0.000203
0.000065
0.000283
0.000368
0.000503
0.000218
0.000209
0.000224
0.000304
0.000522
0.000254
0.000221
0.000223
0.000265
0.000261
0.000434
0.000458
0.000318
0.000213
0.000291
0.000244
0.000209
0.000249
0.000277
0.000258
0.000279
0.000268
0.000278
0.000450
0.000369
0.000363
0.000227
0.000158
0.000065
0.000207
0.000225
0.000239
0.000276
0.000230
0.000267
0.000230
0.000246
0.000283
0.000209
0.000264
0.000241
0.000256
0.001462
0.000234
0.000254
0.000268
0.000254
0.000253
0.000274
0.000263
0.000242
0.000275
0.000257
0.000269
0.000267
0.000273
0.000291
0.000264
0.000242
0.000211
0.000065
0.000202
0.000220
0.000223
0.000242
0.000253
0.000253
0.000234
0.000257
0.000237
0.000249
0.000248
0.000280
0.000237
0.000258
0.000253
0.000260
0.000264
0.000238
0.000272
0.000258
0.000255
0.000269
0.000245
0.000259
0.001341
0.000278
0.000571
0.000390
0.000393
0.000217
0.000163
0.000065
0.000186
0.000229
0.000224
0.000257
0.000498
0.000210
0.000207
0.000220
0.000252
0.000356
0.000512
0.000346
0.000218
0.000211
0.000239
0.000266
0.000261
0.000240
0.000251
0.000259
0.000261
0.000258
0.000305
0.000369
0.000527
0.000426
0.000250
0.000246
0.001365
0.000269
0.000191
0.000064
0.000289
0.000420
0.000352
0.000247
0.000206
0.000209
0.000239
0.000239
0.000278
0.000235
0.000264
0.000238
0.000264
0.000399
0.000501
0.000342
0.000299
0.000238
0.000259
0.000254
0.000251
0.000274
0.000257
0.000266
0.000269
0.000264
0.000311
0.000636
0.000333
0.000368
0.000162
0.000064
0.000181
0.000234
0.001311
0.000358
0.000293
0.000503
0.000399
0.000370
0.000428
0.000320
0.000201
0.000200
0.000252
0.000250
0.000270
0.000240
0.000410
0.000492
0.000343
0.000345
0.000268
0.000247
0.000256
0.000517
0.000238
0.000261
0.000271
0.000263
0.000277
0.000554
0.000329
0.000065
0.000456
0.000297
0.000183
0.000202
0.001502
0.000554
0.000337
0.000205
0.000198
0.000254
0.000223
0.000225
0.000251
0.000266
0.000258
0.000280
0.000213
0.000326
0.000409
0.000442
0.000409
0.000215
0.000233
0.000239
0.000251
0.000277
0.000272
0.000251
0.000260
0.000283
0.000214
0.000067
0.000346
0.000311
0.000258
0.000209
0.000243
0.000258
0.000245
0.000242
0.000231
0.000269
0.001456
0.000450
0.000265
0.000215
0.000218
0.000249
0.000264
0.000265
0.000231
0.000271
0.000303
0.000224
0.000275
0.000424
0.000447
0.000425
0.000229
0.000258
0.000264
0.000282
0.000192
0.000064
0.000205
0.000451
0.000209
0.000203
0.000319
0.000517
0.000363
0.000257
0.000458
0.000226
0.000211
0.000248
0.000261
0.000267
0.000268
0.001359
0.000407
0.000284
0.000263
0.000249
0.000289
0.000239
0.000263
0.000254
0.000263
0.000276
0.000431
0.000455
0.000305
0.000286
0.000141
0.000065
0.000202
0.000213
0.000255
0.000243
0.000219
0.000261
0.000236
0.000255
0.000294
0.000422
0.000448
0.000272
0.000231
0.000209
0.000242
0.000262
0.000276
0.000269
0.000267
0.000228
0.000249
0.000329
0.001301
0.000221
0.000286
0.000219
0.000235
0.000275
0.000250
0.000256
0.000203
0.000065
0.000229
0.000358
0.000366
0.000332
0.000234
0.000221
0.000245
0.000250
0.000253
0.000266
0.000255
0.000251
0.000261
0.000252
0.000246
0.000266
0.000256
0.000267
0.000269
0.000273
0.000244
0.000260
0.000273
0.000283
0.000288
0.000265
0.000283
0.000234
0.000260
0.000506
0.001322
0.000066
0.000183
0.000220
0.000240
0.000240
0.000247
0.000257
0.000254
0.000221
0.000244
0.000257
0.000255
0.000262
0.000258
0.000264
0.000230
0.001695
0.000379
0.000208
0.000202
0.000262
0.000247
0.000256
0.000266
0.000279
0.000241
0.000271
0.000272
0.000272
0.000262
0.000274
0.000245
0.000075
0.000295
0.000285
0.001364
0.000200
0.000217
0.000230
0.000258
0.000251
0.000259
0.000258
0.000228
0.000355
0.000371
0.000513
0.000250
0.000209
0.000235
0.000250
0.000258
0.000268
0.000243
0.000270
0.000268
0.000279
0.000281
0.000468
0.000350
0.000315
0.000284
0.000288
0.000171
0.000071
0.000214
0.000231
0.000242
0.000249
0.000250
0.000229
0.000223
0.000301
0.000442
0.000504
0.001059
0.000215
0.000222
0.000273
0.000268
0.000265
0.000246
0.000267
0.000307
0.000466
0.000363
0.000245
0.000222
0.000268
0.000250
0.000279
0.000266
0.000302
0.000264
0.000277
0.000199
0.000070
0.000230
0.000407
0.000415
0.000231
0.000211
0.000234
0.000220
0.000260
0.000270
0.000262
0.000214
0.000533
0.000310
0.000459
0.000426
0.001470
0.000226
0.000277
0.000327
0.000357
0.000463
0.000445
0.000616
0.000193
0.000233
0.000262
0.000259
0.000298
0.000257
0.000264
0.000214
0.000064
0.000214
0.000250
0.000444
0.000435
0.000397
0.000210
0.000244
0.000249
0.000232
0.000254
0.000260
0.000266
0.000260
0.000242
0.000273
0.000299
0.000372
0.000461
0.000317
0.001326
0.000266
0.000264
0.000237
0.000466
0.000393
0.000342
0.000403
0.000232
0.000232
0.000278
0.000206
0.000065
0.000173
0.000224
0.000252
0.000243
0.000241
0.000305
0.000399
0.000397
0.000355
0.000253
0.000236
0.000249
0.000266
0.000279
0.000254
0.000253
0.000281
0.000237
0.000276
0.000265
0.000557
0.000404
0.000333
0.001346
0.000350
0.000239
0.000326
0.000488
0.000308
0.000451
0.000275
0.000064
0.000189
0.000215
0.000255
0.000238
0.000248
0.000253
0.001678
0.000280
0.000214
0.000223
0.000256
0.000249
0.000322
0.000321
0.000331
0.000276
0.000261
0.000313
0.000485
0.000464
0.000326
0.000212
0.000208
0.000227
0.001495
0.000475
0.000356
0.000432
0.000311
0.000284
0.000167
0.000072
0.000202
0.000237
0.000245
0.000267
0.000251
0.000238
0.001777
0.000212
0.000223
0.000343
0.000381
0.000380
0.001410
0.000309
0.000416
0.000218
0.000206
0.000240
0.000278
0.000253
0.001670
0.000604
0.000304
0.000306
0.000199
0.000218
0.000247
0.000279
0.000251
0.000258
0.000204
0.000065
0.000222
0.000206
0.000248
0.000254
0.000273
0.000255
0.000282
0.000272
0.000233
0.000253
0.000255
0.000258
0.000255
0.000277
0.000252
0.001479
0.000293
0.000230
0.000267
0.000268
0.000274
0.000261
0.000475
0.001223
0.000261
0.000256
0.000260
0.000261
0.000463
0.000203
0.000189
0.000064
0.000196
0.000215
0.000232
0.000239
0.000243
0.000261
0.000221
0.001739
0.000218
0.000237
0.000246
0.000331
0.000241
0.000229
0.001434
0.000249
0.000229
0.000221
0.000261
0.000251
0.000251
0.000334
0.000312
0.001354
0.000275
0.000227
0.000228
0.000254
0.001385
0.000264
0.000204
0.000071
0.000272
0.000315
0.000206
0.000220
0.000250
0.000255
0.000242
0.000269
0.000270
0.000241
0.000283
0.000260
0.000257
0.000244
0.000302
0.001480
0.000265
0.000265
0.000255
0.000248
0.000282
0.000257
0.000287
0.001498
0.000304
0.000270
0.000260
0.001336
0.000237
0.000217
0.000250
0.000062
0.000169
0.000362
0.000353
0.000213
0.000227
0.000245
0.000253
0.000262
0.000260
0.000270
0.000237
0.000254
0.000259
0.000279
0.000464
0.001226
0.000221
0.000232
0.000235
0.000279
0.000235
0.000242
0.000246
0.001382
0.000295
0.000224
0.000221
0.000247
0.000255
0.001338
0.000334
0.000071
0.000283
0.000234
0.000223
0.000211
0.000240
0.000252
0.000242
0.000240
0.000284
0.000246
0.000248
0.000244
0.000281
0.000278
0.000426
0.001483
0.000236
0.000244
0.000286
0.000501
0.000305
0.000388
0.001351
0.000294
0.000256
0.000249
0.001278
0.000352
0.000330
0.000437
0.000383
0.000066
0.000199
0.000235
0.000254
0.000250
0.000252
0.000259
0.000271
0.000244
0.000267
0.000260
0.000487
0.000360
0.001339
0.000207
0.000233
0.000257
0.000281
0.000269
0.000230
0.000228
0.000310
0.001323
0.000231
0.000230
0.000238
0.000253
0.001404
0.000535
0.000458
0.000280
0.000177
0.000065
0.000213
0.000203
0.000295
0.000192
0.000235
0.000263
0.000244
0.000308
0.000363
0.000514
0.000302
0.001449
0.000222
0.000243
0.000258
0.000256
0.000262
0.000289
0.001638
0.000345
0.000336
0.000339
0.001350
0.000385
0.000291
0.000341
0.000227
0.000221
0.000259
0.000262
0.000200
0.000065
0.000191
0.000220
0.000310
0.000271
0.000254
0.000622
0.000251
0.000344
0.001476
0.000299
0.000331
0.000248
0.000215
0.000316
0.000335
0.001388
0.000256
0.000216
0.000244
0.000231
0.000307
0.001572
0.000382
0.000258
0.000258
0.000197
0.000525
0.000307
0.000226
0.000232
0.000253
0.000065
0.000390
0.000242
0.000369
0.000244
0.000207
0.001468
0.000244
0.000237
0.000252
0.000268
0.000266
0.000250
0.000301
0.001486
0.000275
0.000221
0.000411
0.001300
0.000273
0.000446
0.000354
0.000246
0.000255
0.000257
0.000275
0.000252
0.000441
0.000233
0.000261
0.000270
0.000211
0.000070
0.000196
0.000230
0.000379
0.001435
0.000262
0.000217
0.000301
0.000254
0.000258
0.000240
0.000251
0.000252
0.001636
0.000209
0.000219
0.000229
0.001364
0.000305
0.000470
0.000410
0.000393
0.000224
0.000221
0.000251
0.000364
0.000230
0.000244
0.000281
0.000214
0.000247
0.000207
0.000065
0.000211
0.000383
0.001449
0.000212
0.000262
0.000269
0.000257
0.000237
0.000334
0.000392
0.001315
0.000253
0.000323
0.000207
0.000225
0.001378
0.000631
0.000288
0.000328
0.000404
0.000313
0.000227
0.000236
0.000241
0.000266
0.000293
0.000271
0.000304
0.000490
0.000410
0.001396
0.000065
0.000212
0.000221
0.000233
0.000217
0.000248
0.000523
0.000376
0.001340
0.000230
0.000206
0.000249
0.001425
0.000493
0.000264
0.000472
0.000252
0.000210
0.000206
0.000256
0.000285
0.000265
0.000240
0.000277
0.000262
0.000247
0.000323
0.000391
0.000521
0.001467
0.000265
0.000190
0.000064
0.000176
0.000227
0.000330
0.000631
0.001169
0.000295
0.000251
0.000255
0.000237
0.000248
0.000253
0.000264
0.000330
0.000640
0.000251
0.000218
0.000271
0.000258
0.000249
0.000268
0.000266
0.000259
0.000260
0.000259
0.000252
0.000407
0.000448
0.000385
0.000322
0.001455
0.000145
0.000065
0.000197
0.000214
0.000374
0.000362
0.000321
0.000337
0.000301
0.000349
0.000244
0.000273
0.000254
0.000261
0.000244
0.000320
0.000246
0.000291
0.000500
0.000340
0.000293
0.000386
0.000308
0.000449
0.000236
0.000228
0.000220
0.000262
0.000244
0.000296
0.000329
0.000514
0.000307
0.000064
0.000220
0.001356
0.000313
0.000299
0.000407
0.000419
0.000387
0.000288
0.000212
0.000230
0.000265
0.000248
0.000253
0.000269
0.000275
0.000251
0.000268
0.001396
0.000262
0.000223
0.000240
0.000261
0.000278
0.000273
0.000280
0.000249
0.000281
0.000244
0.000296
0.000429
0.000339
0.000065
0.000300
0.000188
0.001415
0.000386
0.000278
0.000224
0.000217
0.000179
0.000250
0.000231
0.000272
0.000262
0.000257
0.000235
0.000285
0.000253
0.000243
0.000271
0.000248
0.000259
0.001427
0.000270
0.000225
0.000337
0.000227
0.000235
0.000245
0.000262
0.000280
0.000491
0.000378
0.000064
0.000200
0.000232
0.000366
0.000284
0.000242
0.000257
0.001546
0.000380
0.000282
0.000214
0.000225
0.000354
0.000316
0.000218
0.000237
0.000237
0.000257
0.000251
0.000263
0.000259
0.000483
0.000504
0.001181
0.000258
0.000222
0.000240
0.000257
0.000282
0.000241
0.000293
0.000400
0.000064
0.000226
0.000348
0.000208
0.000208
0.000242
0.000255
0.000236
0.000236
0.001414
0.000557
0.000370
0.000269
0.000212
0.000217
0.000258
0.000246
0.000257
0.000274
0.000257
0.000312
0.000302
0.000569
0.000351
0.001373
0.000254
0.000246
0.000267
0.000264
0.000275
0.000294
0.000532
0.000141
0.000188
0.000240
0.000223
0.000235
0.000230
0.000232
0.000259
0.000247
0.000273
0.001568
0.000354
0.000263
0.000260
0.000250
0.000461
0.000310
0.000399
0.000467
0.000328
0.000416
0.000392
0.000474
0.001260
0.000246
0.000204
0.000238
0.001747
0.000445
0.000587
0.000305
0.000156
0.000076
0.000191
0.000232
0.000214
0.000229
0.000246
0.000279
0.000334
0.000583
0.000385
0.000347
0.000309
0.000213
0.000220
0.000267
0.000260
0.000260
0.000274
0.000244
0.000249
0.000263
0.000301
0.000447
0.001276
0.000245
0.000240
0.000289
0.001875
0.000372
0.000382
0.000360
0.000173
0.000088
0.000222
0.000221
0.000239
0.001638
0.000306
0.000260
0.000222
0.000271
0.000253
0.000345
0.000375
0.000427
0.000350
0.000260
0.000275
0.000509
0.000359
0.001248
0.000250
0.000211
0.000233
0.000321
0.000405
0.000378
0.000534
0.000444
0.000228
0.000214
0.000265
0.000280
0.000210
0.000064
0.000187
0.000221
0.001450
0.000389
0.000230
0.000185
0.000255
0.000240
0.000237
0.000265
0.000233
0.000270
0.000269
0.000277
0.000265
0.000382
0.000481
0.000298
0.001367
0.000247
0.000250
0.000258
0.000256
0.000265
0.000347
0.000516
0.000453
0.000363
0.000281
0.000216
0.000379
0.000064
0.000205
0.000206
0.000278
0.000233
0.001573
0.000228
0.000258
0.000240
0.000259
0.000256
0.000252
0.000277
0.000250
0.000248
0.000390
0.000606
0.001433
0.000687
0.000238
0.000307
0.000248
0.000230
0.000256
0.000263
0.001746
0.000716
0.000271
0.000248
0.000266
0.000286
0.000221
0.000066
0.000187
0.000211
0.000248
0.000236
0.000248
0.000249
0.000255
0.000243
0.000247
0.000239
0.000289
0.000279
0.000250
0.000253
0.000283
0.000228
0.000301
0.001602
0.000628
0.000422
0.000343
0.000201
0.000292
0.000219
0.000275
0.000264
0.000270
0.000259
0.001482
0.000345
0.000288
0.000080
0.000177
0.000227
0.000259
0.000229
0.000259
0.000226
0.000258
0.000254
0.000238
0.000267
0.000266
0.000439
0.000473
0.000299
0.000227
0.000232
0.000255
0.001459
0.000679
0.000401
0.000353
0.000292
0.000250
0.000216
0.000271
0.000273
0.000228
0.000283
0.001471
0.000468
0.000219
0.000064
0.000187
0.000216
0.000243
0.000233
0.000252
0.000247
0.000241
0.000249
0.000268
0.000263
0.000390
0.000383
0.000283
0.000268
0.000220
0.000271
0.000248
0.000241
0.001577
0.000595
0.000489
0.000343
0.000226
0.000263
0.000251
0.000250
0.000268
0.000273
0.000267
0.001435
0.000302
0.000064
0.000190
0.000220
0.000246
0.000232
0.000251
0.000269
0.000352
0.000343
0.000412
0.000325
0.000315
0.000374
0.000345
0.000232
0.000230
0.000230
0.000276
0.000273
0.001378
0.000920
0.000275
0.000204
0.000488
0.000237
0.000192
0.000247
0.000307
0.000266
0.000238
0.000273
0.000499
0.000063
0.000228
0.000239
0.000217
0.000240
0.000241
0.000253
0.000245
0.000226
0.000252
0.000280
0.000237
0.000245
0.000266
0.000516
0.000602
0.000245
0.000225
0.000252
0.000266
0.000276
0.000400
0.000389
0.001233
0.001007
0.000245
0.000251
0.000250
0.000310
0.000232
0.000250
0.000208
0.000075
0.000206
0.001373
0.000252
0.000215
0.000206
0.000256
0.000243
0.000247
0.000228
0.000279
0.000242
0.000262
0.000245
0.000429
0.000354
0.000311
0.000412
0.000212
0.000267
0.000261
0.000267
0.000251
0.000243
0.000263
0.001398
0.000695
0.000370
0.000393
0.000389
0.000402
0.000170
0.000066
0.000216
0.000211
0.000360
0.001289
0.000249
0.000262
0.000214
0.000244
0.000274
0.000253
0.000268
0.000215
0.000276
0.000311
0.000603
0.000333
0.000226
0.000303
0.000265
0.000240
0.000222
0.000270
0.000270
0.000239
0.000266
0.001515
0.000756
0.000301
0.000279
0.000273
0.000227
0.000067
0.000185
0.000267
0.000411
0.000409
0.001283
0.000241
0.000207
0.000217
0.000228
0.000281
0.000224
0.000282
0.000208
0.000230
0.000261
0.000254
0.000273
0.000225
0.000250
0.000258
0.000261
0.000283
0.000328
0.000298
0.000253
0.000247
0.000250
0.001533
0.000216
0.000237
0.000163
0.000065
0.000198
0.000206
0.000300
0.000386
0.000317
0.000374
0.000355
0.000217
0.001524
0.000288
0.000232
0.000524
0.000376
0.000241
0.000467
0.000244
0.000202
0.000223
0.000255
0.000272
0.000282
0.000267
0.000254
0.000268
0.000264
0.000502
0.000348
0.000332
0.001514
0.000264
0.000177
0.000071
0.000223
0.000227
0.000227
0.000244
0.000248
0.000248
0.000255
0.000307
0.000441
0.002075
0.000203
0.000214
0.000241
0.000257
0.000261
0.000309
0.000257
0.000218
0.000275
0.000409
0.000397
0.000422
0.001525
0.000218
0.000256
0.000468
0.001775
0.000282
0.000257
0.001481
0.000190
0.000065
0.000284
0.000415
0.000466
0.000241
0.000269
0.000233
0.000233
0.000276
0.000257
0.000236
0.000255
0.000344
0.000390
0.000339
0.000508
0.000214
0.000240
0.001524
0.000514
0.001982
0.000362
0.000209
0.000206
0.001568
0.002027
0.000712
0.000273
0.000212
0.000334
0.000417
0.000356
0.000065
0.000207
0.000243
0.000224
0.000267
0.001463
0.001661
0.001080
0.000223
0.000235
0.001566
0.001974
0.000242
0.000337
0.000377
0.000332
0.000410
0.000370
0.000333
0.000262
0.000240
0.000278
0.000220
0.000303
0.001576
0.001243
0.001423
0.000268
0.000241
0.000272
0.000301
0.000375
0.000064
0.000203
0.000238
0.000215
0.000232
0.000242
0.000227
0.000260
0.000249
0.000260
0.000258
0.000226
0.000333
0.000568
0.000343
0.000313
0.000220
0.000219
0.000272
0.000265
0.000266
0.000255
0.001372
0.000484
0.000439
0.002071
0.000252
0.000251
0.000320
0.000482
0.000435
0.000154
0.000066
0.000201
0.000308
0.000459
0.000323
0.000216
0.000238
0.000231
0.000252
0.000248
0.000248
0.000269
0.000225
0.000261
0.001611
0.001413
0.001229
0.000275
0.000224
0.000220
0.000240
0.000285
0.000281
0.000251
0.000244
0.002273
0.000219
0.000215
0.000288
0.000330
0.000300
0.000244
0.000065
0.000196
0.000330
0.000645
0.000309
0.000232
0.000215
0.000225
0.000235
0.001893
0.001429
0.000262
0.000393
0.000397
0.000339
0.000247
0.000239
0.000228
0.000261
0.000264
0.000263
0.000271
0.000250
0.000478
0.000239
0.000264
0.000266
0.000257
0.000272
0.000280
0.000247
0.000226
0.000064
0.000178
0.000246
0.000238
0.000262
0.000230
0.000275
0.001523
0.001498
0.001318
0.000222
0.000210
0.000225
0.000254
0.000268
0.000251
0.000259
0.000253
0.002149
0.000217
0.000226
0.000259
0.000260
0.000242
0.000265
0.000273
0.000253
0.000279
0.000257
0.000264
0.000279
0.000173
0.000065
0.001482
0.000314
0.002398
0.000250
0.000300
0.000293
0.000254
0.000245
0.000264
0.000245
0.000252
0.000248
0.000238
0.000255
0.000264
0.000266
0.000252
0.000267
0.000250
0.000290
0.000245
0.000276
0.000276
0.000275
0.000240
0.000253
0.000260
0.000266
0.000273
0.000257
0.000406
0.000065
0.000196
0.002527
0.000343
0.000204
0.000236
0.000189
0.000247
0.000255
0.000248
0.000265
0.000444
0.000306
0.000356
0.000242
0.000218
0.002232
0.000211
0.000226
0.000228
0.000530
0.000342
0.000329
0.000227
0.000243
0.000265
0.000240
0.000260
0.000275
0.000281
0.001667
0.001220
0.000066
0.000231
0.000204
0.000328
0.000364
0.000329
0.000278
0.000223
0.000225
0.000257
0.000253
0.000265
0.000270
0.000217
0.000239
0.000282
0.000230
0.000338
0.000623
0.000361
0.000229
0.000248
0.000251
0.000286
0.000254
0.000244
0.000241
0.000268
0.000280
0.000247
0.000280
0.000416
0.000067
0.001113
0.000212
0.000458
0.000341
0.000329
0.000205
0.000211
0.000234
0.002196
0.000501
0.000457
0.000194
0.000203
0.000275
0.000353
0.000257
0.000272
0.000243
0.000272
0.000247
0.000234
0.000292
0.000657
0.000448
0.001800
0.001342
0.000508
0.000560
0.000210
0.000262
0.000214
0.000066
0.000273
0.000306
0.000254
0.000244
0.000228
0.000233
0.000240
0.000250
0.000252
0.000252
0.000255
0.000260
0.000243
0.000268
0.000326
0.000539
0.001885
0.001325
0.000444
0.000368
0.000452
0.000268
0.000233
0.000252
0.002221
0.000458
0.000372
0.000255
0.000274
0.000283
0.000210
0.000073
0.000183
0.000241
0.000245
0.000246
0.000234
0.000348
0.000427
0.000380
0.000253
0.000229
0.000225
0.000281
0.000231
0.002090
0.000400
0.000358
0.000231
0.000252
0.000249
0.000262
0.000263
0.002450
0.000334
0.000256
0.000237
0.000248
0.000266
0.000269
0.000270
0.000289
0.000199
0.000083
0.000201
0.000654
0.000273
0.000358
0.000231
0.000211
0.000199
0.000249
0.000260
0.000253
0.002044
0.000379
0.000267
0.000245
0.000219
0.000243
0.000270
0.000253
0.002271
0.000371
0.000230
0.000262
0.000275
0.000249
0.000261
0.000276
0.000265
0.000256
0.000260
0.000266
0.000199
0.000069
0.000198
0.000228
0.000257
0.000222
0.000234
0.000249
0.000250
0.000234
0.000233
0.002178
0.000243
0.000274
0.000226
0.000472
0.000212
0.000210
0.000266
0.000294
0.000257
0.000259
0.002022
0.000311
0.000345
0.000355
0.000467
0.000389
0.000269
0.000234
0.000252
0.000219
0.000206
0.000065
0.000188
0.000240
0.000230
0.000228
0.000234
0.000383
0.000203
0.002342
0.000230
0.000225
0.000208
0.000259
0.000248
0.000242
0.000295
0.002213
0.000502
0.000239
0.000244
0.000253
0.000286
0.000227
0.000280
0.000274
0.000272
0.000243
0.000284
0.000269
0.000267
0.000321
0.000139
0.000064
0.000196
0.003002
0.000253
0.000230
0.000234
0.000250
0.000257
0.000273
0.000384
0.000404
0.002122
0.000258
0.000292
0.000252
0.000253
0.000467
0.000470
0.000299
0.000221
0.000217
0.000258
0.000255
0.000278
0.000222
0.000247
0.000272
0.000265
0.000265
0.000468
0.000588
0.000249
0.000064
0.000195
0.000297
0.000248
0.000250
0.000194
0.000248
0.000249
0.001499
0.000276
0.002145
0.000512
0.000281
0.000434
0.000728
0.000354
0.000211
0.000211
0.000245
0.000267
0.000256
0.000263
0.000243
0.000252
0.000280
0.001809
0.001465
0.000294
0.000337
0.000231
0.000306
0.000418
0.000070
0.001933
0.000227
0.000219
0.000212
0.000293
0.000426
0.000372
0.000446
0.000198
0.000255
0.000225
0.000196
0.000252
0.000275
0.000244
0.000272
0.000244
0.000266
0.001897
0.000210
0.000239
0.000216
0.000272
0.000276
0.000280
0.000269
0.001506
0.000348
0.000223
0.000245
0.000160
0.000065
0.000207
0.000197
0.000237
0.000245
0.000246
0.000236
0.000280
0.000371
0.000392
0.000387
0.000207
0.000224
0.000333
0.000342
0.000357
0.000313
0.000244
0.000209
0.000249
0.000376
0.000476
0.000483
0.000217
0.000235
0.000264
0.000241
0.000277
0.000248
0.000304
0.000245
0.000210
0.000063
0.001399
0.000406
0.000250
0.001999
0.000272
0.000394
0.000390
0.000371
0.000207
0.000223
0.000264
0.000246
0.000270
0.000219
0.000291
0.000236
0.000446
0.000274
0.000463
0.000374
0.000320
0.000241
0.000247
0.000288
0.000328
0.000226
0.000205
0.000281
0.000309
0.000511
0.001419
0.000070
0.000187
0.000236
0.002039
0.000265
0.000336
0.000264
0.000260
0.000254
0.000258
0.000247
0.000234
0.000251
0.000255
0.000257
0.000259
0.000367
0.000688
0.001747
0.000271
0.000279
0.000225
0.000284
0.000373
0.000487
0.001494
0.000274
0.000366
0.002006
0.000236
0.000240
0.000195
0.000065
0.000170
0.000217
0.000241
0.000254
0.000210
0.000245
0.000256
0.000286
0.000366
0.000284
0.000378
0.000354
0.000329
0.000297
0.000223
0.000253
0.000267
0.000235
0.000260
0.000287
0.000274
0.000327
0.000233
0.000263
0.000264
0.001567
0.000373
0.000427
0.001880
0.000250
0.000179
0.000065
0.000189
0.000233
0.000235
0.000247
0.000455
0.000256
0.000233
0.000311
0.000437
0.000320
0.000246
0.000210
0.000280
0.000244
0.000279
0.000328
0.000436
0.000417
0.000292
0.000369
0.000569
0.000378
0.001593
0.000259
0.000232
0.002020
0.000377
0.000210
0.000225
0.000251
0.000204
0.000070
0.000203
0.000226
0.000228
0.000276
0.000223
0.000257
0.000258
0.000262
0.000259
0.000253
0.001868
0.000298
0.000394
0.000399
0.000403
0.000349
0.001498
0.000332
0.000207
0.000382
0.001970
0.000599
0.000273
0.000223
0.000232
0.000264
0.000501
0.000254
0.000245
0.000269
0.000210
0.000064
0.000245
0.000287
0.000409
0.000272
0.000224
0.000211
0.000256
0.000245
0.000265
0.000298
0.000230
0.000247
0.000278
0.000240
0.000377
0.000498
0.001245
0.000262
0.000434
0.001919
0.000314
0.000222
0.000220
0.000251
0.000241
0.000276
0.000265
0.000268
0.000246
0.000267
0.000224
0.000063
0.000217
0.000382
0.002073
0.000222
0.000299
0.000190
0.000193
0.000346
0.000480
0.001413
0.000347
0.000374
0.000315
0.002009
0.000234
0.000224
0.000268
0.000279
0.000256
0.000241
0.000282
0.000299
0.000268
0.000358
0.000439
0.000429
0.000298
0.002206
0.000530
0.000416
0.000477
0.000065
0.000185
0.000216
0.000231
0.002028
0.000196
0.000229
0.000221
0.000243
0.000240
0.000262
0.000244
0.000257
0.000253
0.000348
0.000427
0.000341
0.001312
0.000252
0.000257
0.000273
0.000230
0.000262
0.000265
0.000248
0.000336
0.000438
0.000477
0.000249
0.001684
0.000224
0.000149
0.000066
0.000195
0.000202
0.000231
0.000237
0.000242
0.000256
0.000255
0.000244
0.000269
0.000407
0.000332
0.001475
0.000203
0.000212
0.000219
0.000269
0.000252
0.000278
0.000287
0.000518
0.000364
0.000456
0.000235
0.001547
0.000262
0.000227
0.000290
0.000290
0.000311
0.000220
0.000202
0.000065
0.000212
0.000212
0.000247
0.000260
0.000257
0.000235
0.000241
0.000235
0.000260
0.000248
0.000251
0.000255
0.000254
0.000254
0.001578
0.000248
0.000227
0.000271
0.000331
0.000332
0.000382
0.000222
0.000237
0.000229
0.000270
0.000270
0.001446
0.000293
0.000227
0.000214
0.000181
0.000088
0.000181
0.000212
0.000259
0.000255
0.000283
0.000212
0.000237
0.000265
0.000215
0.000265
0.000240
0.000255
0.000243
0.000307
0.000426
0.000298
0.000283
0.001591
0.000330
0.000212
0.000223
0.000224
0.000263
0.000318
0.000439
0.000435
0.000400
0.000229
0.000223
0.001592
0.000195
0.000065
0.000328
0.000356
0.000425
0.000220
0.000213
0.000220
0.000235
0.000256
0.000261
0.000238
0.000242
0.000235
0.001479
0.000322
0.000298
0.000223
0.000230
0.000257
0.000267
0.000251
0.000254
0.000250
0.000247
0.000271
0.000255
0.000387
0.000531
0.000358
0.000239
0.000222
0.000187
0.000065
0.000195
0.000283
0.000507
0.000299
0.000338
0.000244
0.000231
0.000254
0.000252
0.000255
0.000249
0.000212
0.000256
0.000243
0.001355
0.000247
0.000224
0.000228
0.000268
0.000270
0.000247
0.000241
0.000255
0.000276
0.000241
0.000275
0.000295
0.000711
0.000439
0.000243
0.000177
0.000064
0.000198
0.001515
0.000290
0.000320
0.000467
0.000370
0.000209
0.000235
0.000284
0.000243
0.000256
0.000246
0.000264
0.000276
0.000268
0.001525
0.000242
0.000286
0.000261
0.000261
0.000255
0.000256
0.000264
0.000267
0.000266
0.000278
0.000450
0.000386
0.000373
0.000212
0.000159
0.000067
0.000204
0.000242
0.000222
0.001697
0.000505
0.000245
0.000219
0.000194
0.000246
0.000266
0.000279
0.000263
0.000244
0.000260
0.000231
0.000262
0.000524
0.001275
0.000218
0.000217
0.001536
0.000332
0.000581
0.000368
0.000283
0.000237
0.000256
0.000484
0.000229
0.000251
0.000203
0.000064
0.000317
0.000202
0.000207
0.000250
0.000239
0.000252
0.000253
0.000254
0.000261
0.000243
0.000236
0.000267
0.000307
0.000500
0.001651
0.001494
0.000439
0.000542
0.000240
0.000241
0.000237
0.000254
0.000252
0.000268
0.000246
0.000259
0.000273
0.000272
0.001614
0.000285
0.000133
0.000064
0.000216
0.000336
0.000345
0.000328
0.000256
0.000218
0.000200
0.000393
0.000405
0.001408
0.000338
0.001535
0.000330
0.000515
0.000447
0.000334
0.000341
0.000343
0.000284
0.000290
0.000231
0.000338
0.001560
0.000527
0.000245
0.000245
0.000264
0.000259
0.000259
0.000260
0.000210
0.000064
0.000193
0.000225
0.000256
0.000251
0.000246
0.001659
0.000948
0.000895
0.000246
0.000235
0.000267
0.000252
0.000252
0.000257
0.000274
0.000238
0.000261
0.000268
0.000265
0.000300
0.001469
0.000271
0.000255
0.000219
0.000234
0.000278
0.000231
0.000300
0.000241
0.000287
0.000193
0.000066
0.000205
0.000201
0.001525
0.000968
0.000318
0.000355
0.000216
0.000221
0.000240
0.000257
0.000248
0.000259
0.000251
0.002025
0.000473
0.000218
0.000218
0.000244
0.000250
0.000262
0.000202
