0.000175
0.018468
0.003038
0.000395
0.000259
0.000288
0.000304
0.000247
0.000327
0.000286
0.000250
0.000350
0.000475
0.000529
0.000331
0.000400
0.000272
0.000351
0.000348
0.000413
0.000311
0.001927
0.000695
0.000243
0.000257
0.000308
0.000300
0.000334
0.000432
0.000373
0.000496
0.000299
0.000057
0.000185
0.000266
0.000271
0.000265
0.000275
0.000240
0.000286
0.000279
0.000254
0.000291
0.000428
0.000448
0.000304
0.000266
0.000414
0.000304
0.000359
0.000254
0.000245
0.001752
0.000275
0.000238
0.000464
0.000233
0.000274
0.000291
0.000279
0.000296
0.000281
0.000344
0.000411
0.000056
0.000249
0.000257
0.000259
0.000259
0.000251
0.000243
0.000262
0.000257
0.000286
0.001667
0.000233
0.000238
0.000284
0.000249
0.000274
0.000252
0.000268
0.000259
0.000361
0.001832
0.000198
0.000268
0.000452
0.000465
0.000358
0.000234
0.000337
0.000453
0.000451
0.000744
0.000202
0.000056
0.000185
0.000240
0.000254
0.000240
0.000291
0.000265
0.000257
0.000628
0.000377
0.000247
0.000242
0.000251
0.000232
0.000256
0.000259
0.000251
0.000245
0.000265
0.000299
0.000328
0.001667
0.000285
0.000251
0.000409
0.000328
0.000672
0.000764
0.000443
0.000338
0.000230
0.000182
0.000059
0.000212
0.000251
0.000266
0.000238
0.000257
0.000255
0.000249
0.000508
0.001444
0.000215
0.000251
0.000245
0.000255
0.000249
0.000267
0.000284
0.000295
0.000798
0.001377
0.000276
0.000468
0.000256
0.000208
0.000237
0.000257
0.000254
0.000270
0.000270
0.000262
0.000270
0.000197
0.000056
0.000194
0.000250
0.000247
0.000264
0.000239
0.000239
0.000243
0.000251
0.000239
0.000256
0.001628
0.000285
0.000220
0.000232
0.000261
0.000244
0.000247
0.000246
0.000254
0.000258
0.000269
0.001669
0.000289
0.000244
0.000438
0.000259
0.000244
0.000263
0.000260
0.000273
0.000191
0.000056
0.000199
0.000232
0.000254
0.000245
0.000245
0.000246
0.000258
0.000238
0.000266
0.000242
0.000279
0.000242
0.000278
0.000251
0.001647
0.000277
0.000295
0.000217
0.000246
0.000275
0.000259
0.000252
0.000240
0.000259
0.001809
0.000359
0.000361
0.000346
0.000257
0.000279
0.000194
0.000056
0.000221
0.000239
0.000249
0.000261
0.000256
0.000238
0.000287
0.000431
0.000380
0.000433
0.000211
0.000255
0.000251
0.000246
0.001560
0.000538
0.000344
0.000376
0.000317
0.000235
0.000268
0.000280
0.000269
0.001752
0.000501
0.000464
0.000237
0.000249
0.000250
0.000265
0.000185
0.000056
0.000198
0.000235
0.000254
0.000301
0.000292
0.000474
0.000369
0.000264
0.000209
0.000253
0.000262
0.000239
0.000253
0.001692
0.000512
0.000285
0.000221
0.000260
0.000274
0.000275
0.000254
0.000253
0.000277
0.001917
0.000280
0.000387
0.000263
0.000237
0.000268
0.000411
0.000328
0.000056
0.000219
0.000369
0.000365
0.000272
0.000254
0.000240
0.000254
0.000256
0.000246
0.000233
0.000234
0.000248
0.001555
0.000394
0.000264
0.000237
0.000252
0.000249
0.000243
0.000294
0.000274
0.000329
0.000247
0.001817
0.000248
0.000496
0.000234
0.000263
0.000258
0.000262
0.000270
0.000057
0.000332
0.000604
0.000604
0.000218
0.000229
0.000276
0.000232
0.000212
0.000262
0.000252
0.000259
0.001699
0.000253
0.000435
0.000369
0.000217
0.000239
0.000235
0.000247
0.000274
0.000247
0.001865
0.000231
0.000239
0.002090
0.000515
0.000353
0.000245
0.000259
0.000267
0.000182
0.000055
0.000209
0.000242
0.000251
0.000239
0.000255
0.001626
0.000256
0.000222
0.000263
0.000243
0.000242
0.000251
0.000245
0.000256
0.000269
0.000413
0.000632
0.000259
0.000230
0.000270
0.000265
0.000249
0.000238
0.000433
0.000441
0.000270
0.000349
0.000548
0.000449
0.000254
0.000197
0.000056
0.000202
0.000244
0.000248
0.000253
0.000231
0.000251
0.000236
0.000416
0.000404
0.001736
0.000218
0.000229
0.000246
0.000250
0.000255
0.000274
0.000577
0.000402
0.000287
0.000232
0.000257
0.000303
0.000289
0.000270
0.000264
0.000429
0.000346
0.000640
0.000406
0.000467
0.000176
0.000055
0.000193
0.000281
0.000225
0.000217
0.000247
0.000239
0.000247
0.000241
0.000247
0.000302
0.000341
0.000466
0.001347
0.000252
0.000233
0.000240
0.000261
0.000247
0.000254
0.000248
0.000285
0.000443
0.000433
0.000261
0.000252
0.000259
0.000259
0.000288
0.000245
0.000261
0.000390
0.000055
0.000208
0.000245
0.000240
0.000298
0.000494
0.000432
0.000233
0.000256
0.000239
0.000261
0.000243
0.000235
0.000298
0.000248
0.000236
0.000472
0.000661
0.001434
0.000262
0.000227
0.000254
0.000269
0.000254
0.000240
0.000293
0.000462
0.000366
0.000411
0.000416
0.000222
0.000206
0.000056
0.000192
0.000434
0.000239
0.000210
0.000267
0.000242
0.000382
0.000481
0.000328
0.000331
0.000207
0.000278
0.000268
0.000231
0.000522
0.000348
0.000217
0.000264
0.000426
0.001612
0.000284
0.000242
0.000502
0.000246
0.000281
0.000268
0.000261
0.000293
0.000615
0.000370
0.000271
0.000056
0.000208
0.000227
0.000236
0.000254
0.000408
0.000306
0.000294
0.000224
0.000474
0.000446
0.000319
0.000277
0.000213
0.000251
0.000262
0.000264
0.000256
0.000249
0.000232
0.000349
0.000295
0.000311
0.001861
0.000241
0.000261
0.000251
0.000295
0.000349
0.000473
0.000638
0.000443
0.000056
0.000236
0.000332
0.000285
0.000442
0.000370
0.000201
0.000258
0.000284
0.000562
0.000382
0.000259
0.000233
0.000240
0.000271
0.000261
0.000233
0.000263
0.000262
0.000272
0.000256
0.000271
0.000407
0.000666
0.001328
0.000358
0.000416
0.000416
0.000252
0.000356
0.000471
0.000379
0.000055
0.000260
0.000383
0.000274
0.000218
0.000204
0.000247
0.000416
0.000233
0.000248
0.000367
0.000434
0.000434
0.000229
0.000263
0.000258
0.000254
0.000384
0.000371
0.000354
0.000236
0.000245
0.000400
0.000663
0.001630
0.000238
0.000464
0.000278
0.000228
0.000276
0.000531
0.000194
0.000055
0.000237
0.000225
0.000239
0.000249
0.000248
0.000244
0.000250
0.000325
0.000460
0.000264
0.000489
0.000344
0.000284
0.000579
0.000241
0.000243
0.000268
0.000268
0.000231
0.000363
0.000215
0.000240
0.000273
0.000531
0.000347
0.001684
0.000270
0.000240
0.000261
0.000249
0.000182
0.000055
0.000438
0.000384
0.000317
0.000227
0.000239
0.000246
0.000260
0.000240
0.000275
0.000239
0.000215
0.000253
0.000425
0.000506
0.000409
0.000284
0.000249
0.000239
0.000368
0.000377
0.000395
0.000363
0.000379
0.000325
0.000252
0.000252
0.000256
0.000281
0.001783
0.000258
0.000209
0.000055
0.000180
0.000224
0.000255
0.000277
0.000361
0.000543
0.000316
0.000206
0.000256
0.000260
0.000248
0.000272
0.000504
0.000447
0.000475
0.000291
0.000263
0.000266
0.000419
0.000466
0.000360
0.000390
0.000518
0.000424
0.000238
0.000239
0.000262
0.000250
0.000266
0.001763
0.000321
0.000056
0.000178
0.000331
0.000211
0.000227
0.000260
0.000246
0.000247
0.000501
0.000370
0.000307
0.000317
0.000284
0.000336
0.000715
0.000255
0.000229
0.000249
0.000255
0.000252
0.000271
0.000261
0.000265
0.000242
0.000267
0.000336
0.000352
0.000400
0.000347
0.000248
0.000243
0.000187
0.000055
0.000465
0.000272
0.000500
0.000226
0.000200
0.000247
0.000248
0.000252
0.000242
0.000221
0.000252
0.000282
0.000293
0.000413
0.000416
0.000575
0.000280
0.000315
0.000391
0.000334
0.000298
0.000252
0.000227
0.000259
0.001755
0.000252
0.001716
0.000936
0.000389
0.000346
0.000167
0.000055
0.000198
0.000234
0.000228
0.000251
0.000254
0.000242
0.000256
0.000258
0.000237
0.000301
0.000377
0.000491
0.000282
0.000384
0.000236
0.000264
0.000251
0.000288
0.000226
0.000253
0.000250
0.000263
0.001819
0.000237
0.000243
0.000267
0.000273
0.000266
0.001897
0.000465
0.000327
0.000055
0.000232
0.000206
0.000252
0.000227
0.000254
0.000258
0.000238
0.000247
0.000254
0.000434
0.000552
0.000452
0.000235
0.000202
0.000234
0.000258
0.000330
0.000443
0.000376
0.000251
0.001765
0.000253
0.000251
0.000240
0.000266
0.000270
0.000238
0.000250
0.000335
0.000273
0.000392
0.000058
0.000239
0.000203
0.000237
0.000258
0.000248
0.000242
0.000257
0.000253
0.000244
0.000250
0.000241
0.000314
0.000345
0.000454
0.000283
0.000272
0.000464
0.000236
0.000240
0.000263
0.000257
0.000260
0.000275
0.000259
0.000274
0.001804
0.000239
0.000238
0.000263
0.000243
0.000202
0.000055
0.000345
0.000282
0.000233
0.000218
0.000244
0.000233
0.000237
0.000252
0.000247
0.000223
0.000241
0.000264
0.000253
0.000373
0.000391
0.000360
0.000292
0.000238
0.000249
0.000254
0.000265
0.000263
0.000248
0.000267
0.000249
0.000268
0.000314
0.001633
0.000264
0.000229
0.000191
0.000055
0.000202
0.000237
0.000253
0.000264
0.000339
0.000400
0.000349
0.000325
0.000223
0.000260
0.000245
0.000248
0.000243
0.000258
0.000262
0.000257
0.000247
0.000255
0.000253
0.000260
0.000268
0.000267
0.000268
0.000222
0.000242
0.000283
0.000268
0.000261
0.000257
0.000262
0.000196
0.000056
0.000188
0.000234
0.000257
0.000256
0.000234
0.000255
0.000259
0.000243
0.000296
0.000220
0.000227
0.000252
0.000255
0.000249
0.000267
0.000264
0.000254
0.000251
0.000298
0.000247
0.000276
0.000312
0.000254
0.000244
0.000279
0.000281
0.000268
0.000245
0.000280
0.000390
0.000701
0.000056
0.000223
0.000289
0.000234
0.000205
0.000245
0.000256
0.000234
0.000250
0.000253
0.000243
0.000265
0.000293
0.000548
0.000431
0.001528
0.000232
0.000474
0.000240
0.000337
0.000381
0.000423
0.000393
0.000226
0.000278
0.000252
0.000259
0.000281
0.000254
0.000311
0.000256
0.000179
0.000056
0.000330
0.000461
0.000309
0.000333
0.000199
0.000258
0.000253
0.000237
0.000239
0.000244
0.000256
0.000256
0.000227
0.000294
0.000380
0.000607
0.000236
0.001806
0.000220
0.000256
0.000342
0.000415
0.000430
0.000336
0.000304
0.000316
0.000304
0.000243
0.000215
0.000250
0.000193
0.000056
0.000183
0.000229
0.000234
0.000288
0.000389
0.000484
0.000278
0.000258
0.000254
0.000210
0.000248
0.000271
0.000267
0.000259
0.000247
0.000258
0.000270
0.000598
0.000271
0.000435
0.000232
0.001755
0.000330
0.000638
0.000362
0.000450
0.000328
0.000235
0.000246
0.000267
0.000448
0.000056
0.000193
0.000251
0.000238
0.000365
0.000416
0.000405
0.000369
0.000205
0.000239
0.000290
0.000245
0.000262
0.000251
0.000310
0.000291
0.000241
0.000227
0.000427
0.000448
0.000321
0.000492
0.001853
0.000242
0.000480
0.000465
0.000363
0.000228
0.000260
0.000309
0.000231
0.000208
0.000057
0.000214
0.000333
0.000364
0.000341
0.000374
0.000345
0.000318
0.000217
0.000232
0.000264
0.000279
0.000228
0.000253
0.000242
0.000241
0.000261
0.000327
0.000396
0.000475
0.000344
0.000336
0.000214
0.000271
0.001716
0.000329
0.000594
0.000696
0.000255
0.000361
0.000200
0.000140
0.000056
0.000186
0.000237
0.000325
0.000255
0.000249
0.000388
0.000471
0.000255
0.000235
0.000552
0.000222
0.000228
0.000262
0.000281
0.000275
0.000264
0.000211
0.000385
0.000445
0.000427
0.000267
0.000220
0.000260
0.000255
0.000263
0.000264
0.000239
0.000273
0.000245
0.000293
0.000182
0.000056
0.000324
0.000313
0.000240
0.000241
0.000255
0.000258
0.000234
0.000306
0.000227
0.000246
0.000273
0.000352
0.000415
0.000374
0.000372
0.000274
0.000214
0.000236
0.000260
0.000263
0.000308
0.000253
0.000223
0.000265
0.000278
0.000315
0.000426
0.000362
0.000352
0.000230
0.000181
0.000055
0.000198
0.000227
0.000280
0.000247
0.000236
0.000247
0.000281
0.000232
0.000496
0.000212
0.000255
0.000251
0.000250
0.000263
0.000275
0.000271
0.000267
0.000342
0.000224
0.000241
0.000251
0.000274
0.000249
0.000277
0.000268
0.000273
0.000254
0.000251
0.000527
0.000246
0.000146
0.000056
0.000202
0.000235
0.000253
0.000270
0.000217
0.000250
0.000361
0.000407
0.000240
0.000233
0.000245
0.000262
0.000236
0.000288
0.000441
0.001761
0.000223
0.000271
0.000285
0.000390
0.000368
0.000360
0.000355
0.000449
0.000326
0.000424
0.000242
0.000254
0.000271
0.000275
0.001393
0.000056
0.000387
0.000291
0.000282
0.000223
0.000233
0.000249
0.000232
0.000251
0.000243
0.000269
0.000249
0.000257
0.000254
0.000254
0.000651
0.001566
0.000230
0.000234
0.000238
0.000262
0.000245
0.000260
0.000349
0.000424
0.000285
0.000375
0.000196
0.000261
0.000295
0.000238
0.000202
0.000057
0.001501
0.000281
0.000297
0.000252
0.000247
0.000215
0.000234
0.000235
0.000495
0.000218
0.000240
0.000248
0.000379
0.000459
0.000431
0.000349
0.000241
0.000236
0.000339
0.000336
0.000279
0.000254
0.000273
0.000243
0.000269
0.000740
0.000436
0.000230
0.000243
0.000284
0.000153
0.000057
0.000196
0.000218
0.000243
0.000250
0.001525
0.000242
0.000223
0.000259
0.000232
0.000255
0.000251
0.000250
0.000246
0.000262
0.000269
0.000310
0.000468
0.000591
0.000280
0.001746
0.000269
0.000268
0.000311
0.000407
0.000557
0.000394
0.000246
0.000256
0.000247
0.000273
0.000195
0.000056
0.000183
0.000250
0.000233
0.000296
0.001283
0.000223
0.000261
0.000258
0.000245
0.000238
0.000231
0.000250
0.000279
0.000249
0.000246
0.000301
0.000446
0.000478
0.000276
0.000260
0.000270
0.000270
0.000268
0.000213
0.000295
0.000255
0.000246
0.000276
0.000281
0.000331
0.000558
0.000056
0.000221
0.000242
0.000237
0.000255
0.000272
0.000235
0.000241
0.000258
0.000270
0.000255
0.001435
0.000228
0.000235
0.000250
0.000241
0.000265
0.000248
0.000266
0.000262
0.000263
0.000271
0.000481
0.000442
0.000412
0.000228
0.000274
0.001768
0.000248
0.000256
0.000438
0.000370
0.000057
0.000221
0.000386
0.000455
0.000504
0.000515
0.000538
0.001499
0.000412
0.000522
0.000649
0.000560
0.000813
0.000385
0.000618
0.000586
0.001875
0.000401
0.000447
0.000395
0.000321
0.000221
0.000310
0.000255
0.000267
0.000256
0.000288
0.000299
0.000277
0.000254
0.000291
0.001370
0.000056
0.000218
0.000229
0.000229
0.000244
0.000259
0.000255
0.000239
0.000237
0.000252
0.000248
0.000234
0.000248
0.000251
0.000259
0.000277
0.000257
0.001820
0.000289
0.000232
0.000255
0.000253
0.000268
0.000265
0.000255
0.000506
0.000356
0.000342
0.000217
0.000264
0.000289
0.000196
0.000056
0.000198
0.001362
0.000319
0.000264
0.000260
0.000235
0.000248
0.000230
0.000238
0.000241
0.000208
0.000257
0.000253
0.000494
0.000360
0.000289
0.000259
0.000263
0.001925
0.000230
0.000246
0.000259
0.000258
0.000269
0.000269
0.000279
0.000270
0.000257
0.000266
0.000323
0.000202
0.000056
0.000189
0.000238
0.000250
0.001448
0.000223
0.000248
0.000232
0.000251
0.000254
0.000252
0.000250
0.000245
0.000244
0.000265
0.000253
0.000266
0.000254
0.000265
0.000268
0.000259
0.000262
0.001773
0.000281
0.001808
0.000223
0.000241
0.000257
0.000293
0.000258
0.000260
0.000200
0.000056
0.000193
0.000249
0.001341
0.000225
0.000264
0.000233
0.000260
0.000257
0.000242
0.000253
0.000246
0.000244
0.000262
0.000262
0.000261
0.000263
0.000260
0.000280
0.000299
0.000232
0.001883
0.001828
0.000276
0.000200
0.000251
0.000274
0.000238
0.000248
0.000270
0.000250
0.000198
0.000056
0.001422
0.000232
0.000229
0.000231
0.000239
0.000257
0.000355
0.000271
0.000249
0.000252
0.000253
0.000261
0.000294
0.000350
0.000359
0.000287
0.000244
0.000281
0.000241
0.000274
0.000251
0.000342
0.000223
0.000251
0.000274
0.000271
0.000277
0.000304
0.000683
0.000363
0.000195
0.000057
0.000247
0.000229
0.000264
0.000297
0.000362
0.000264
0.001663
0.000336
0.000279
0.000280
0.000249
0.000261
0.000267
0.000256
0.000308
0.000304
0.000328
0.000607
0.000358
0.000264
0.000294
0.000280
0.000264
0.000267
0.000310
0.000277
0.000265
0.000261
0.000236
0.000346
0.000379
0.000056
0.000232
0.000467
0.000269
0.000268
0.000241
0.000229
0.000221
0.000251
0.000262
0.000250
0.001527
0.000225
0.000220
0.000245
0.000260
0.000279
0.000253
0.000247
0.000266
0.000270
0.000271
0.000512
0.000399
0.000315
0.000263
0.000286
0.000275
0.000250
0.000233
0.000315
0.000173
0.000055
0.000202
0.000221
0.000321
0.000472
0.000347
0.000258
0.000211
0.000253
0.000249
0.000247
0.000233
0.000252
0.000264
0.000261
0.000241
0.000246
0.000499
0.001105
0.000251
0.000235
0.000285
0.000240
0.000365
0.000421
0.000240
0.000315
0.000624
0.000321
0.000382
0.000236
0.000167
0.000055
0.000214
0.000250
0.000261
0.000266
0.000251
0.000251
0.000332
0.000400
0.000432
0.000306
0.000366
0.000390
0.000392
0.000363
0.000256
0.000231
0.000240
0.000270
0.000473
0.000374
0.001276
0.000218
0.000270
0.000273
0.000248
0.000224
0.000266
0.000304
0.000459
0.000415
0.000253
0.000056
0.000182
0.000240
0.000257
0.000235
0.000253
0.000241
0.000240
0.000258
0.000321
0.000394
0.000368
0.000388
0.000245
0.000221
0.000259
0.000259
0.000245
0.000263
0.000266
0.000247
0.000452
0.000236
0.000382
0.000446
0.000294
0.000247
0.000271
0.000268
0.000246
0.000351
0.000155
0.000056
0.000292
0.000313
0.000384
0.000335
0.000436
0.000322
0.000264
0.000238
0.000248
0.000279
0.000264
0.000253
0.000233
0.000258
0.000233
0.000229
0.000274
0.000387
0.000441
0.000384
0.000219
0.000270
0.000234
0.000248
0.000266
0.000283
0.000265
0.000269
0.000273
0.000287
0.000247
0.000056
0.000411
0.000214
0.000232
0.000246
0.000244
0.000245
0.000252
0.000251
0.000267
0.000255
0.000251
0.000234
0.000296
0.000495
0.000424
0.000296
0.000238
0.000244
0.000258
0.000266
0.000255
0.000272
0.000251
0.000264
0.000274
0.000309
0.000431
0.000585
0.000418
0.000245
0.000157
0.000055
0.000370
0.000213
0.000212
0.000255
0.000249
0.000248
0.000259
0.000231
0.000254
0.000261
0.000216
0.000246
0.000276
0.000221
0.000240
0.000265
0.000254
0.000259
0.000275
0.000259
0.000266
0.000258
0.000265
0.000263
0.000271
0.000233
0.000269
0.000289
0.000241
0.000281
0.000193
0.000056
0.000197
0.000229
0.000251
0.000251
0.000232
0.000251
0.000260
0.000245
0.000255
0.000282
0.000221
0.000232
0.000263
0.000395
0.000256
0.000275
0.000265
0.000267
0.000251
0.000280
0.000273
0.000232
0.000248
0.000254
0.000271
0.000273
0.000251
0.000247
0.000280
0.000251
0.000212
0.000056
0.000208
0.000354
0.000371
0.000303
0.000274
0.000249
0.000265
0.000252
0.000227
0.000243
0.000255
0.000264
0.000244
0.000237
0.000261
0.000256
0.000266
0.000269
0.000242
0.000266
0.000271
0.000263
0.000277
0.000257
0.000276
0.000248
0.000251
0.000276
0.000270
0.000257
0.000194
0.000055
0.000209
0.000217
0.000289
0.000250
0.000482
0.000211
0.000210
0.000244
0.000301
0.000436
0.000490
0.000273
0.000239
0.000246
0.000268
0.000261
0.000238
0.000270
0.000258
0.000269
0.000283
0.000237
0.000262
0.000288
0.000592
0.000440
0.000273
0.000287
0.000261
0.000268
0.000184
0.000056
0.000202
0.000223
0.000245
0.000251
0.000324
0.000633
0.000342
0.000373
0.000205
0.000247
0.000265
0.000273
0.000218
0.000249
0.000261
0.000265
0.000255
0.000290
0.000608
0.000394
0.000287
0.000242
0.000253
0.000285
0.000281
0.000257
0.000262
0.000272
0.000243
0.000345
0.000297
0.000057
0.000272
0.000228
0.000237
0.000240
0.000261
0.000264
0.000216
0.000242
0.000248
0.000249
0.000253
0.000251
0.000253
0.000384
0.000576
0.000400
0.000231
0.000252
0.000261
0.000250
0.000260
0.000269
0.000493
0.000225
0.000256
0.000720
0.000275
0.000510
0.000249
0.000249
0.000181
0.000057
0.000175
0.000226
0.000242
0.000245
0.000255
0.000258
0.000400
0.000397
0.000526
0.000419
0.000220
0.000267
0.000289
0.000258
0.000260
0.000245
0.000236
0.000250
0.000255
0.000422
0.000294
0.000678
0.000364
0.000242
0.000370
0.000376
0.000473
0.000249
0.000269
0.000339
0.000488
0.000056
0.000253
0.000238
0.000431
0.000229
0.000234
0.000250
0.000260
0.000261
0.000229
0.000244
0.000271
0.000414
0.000369
0.000327
0.000223
0.000244
0.000269
0.000243
0.000267
0.000275
0.000282
0.000244
0.000255
0.000267
0.000300
0.000493
0.000488
0.000240
0.000260
0.000269
0.000199
0.000057
0.000221
0.000257
0.000221
0.000248
0.000251
0.000268
0.000400
0.000374
0.000416
0.000302
0.000350
0.000223
0.000238
0.000272
0.000265
0.000228
0.000250
0.000258
0.000273
0.000424
0.000495
0.000316
0.000477
0.000278
0.000390
0.000425
0.000382
0.000244
0.000241
0.000330
0.000317
0.000055
0.000242
0.000279
0.000220
0.000258
0.000261
0.000249
0.000254
0.000245
0.000252
0.000261
0.000241
0.000355
0.000486
0.000342
0.000378
0.000213
0.000267
0.000266
0.000262
0.000235
0.000255
0.000263
0.000254
0.000280
0.000275
0.000324
0.000506
0.000472
0.000233
0.000275
0.000190
0.000056
0.000206
0.000242
0.000264
0.000243
0.000261
0.000338
0.000630
0.000379
0.000327
0.000679
0.000268
0.000212
0.000242
0.000264
0.000241
0.000268
0.000283
0.000310
0.000445
0.000428
0.001494
0.000309
0.000263
0.000275
0.000284
0.000247
0.000394
0.000420
0.000342
0.000352
0.000158
0.000055
0.000219
0.000228
0.000246
0.000249
0.000238
0.000256
0.000302
0.000224
0.000250
0.000337
0.000324
0.000388
0.000266
0.000337
0.000393
0.000336
0.000244
0.000253
0.000269
0.000257
0.000246
0.000246
0.000283
0.000242
0.000326
0.000434
0.000432
0.000302
0.000243
0.000269
0.000185
0.000056
0.000223
0.000249
0.000254
0.000258
0.000241
0.000237
0.000465
0.000220
0.000231
0.000256
0.000241
0.000250
0.000264
0.000253
0.000244
0.000275
0.000261
0.000272
0.000269
0.000251
0.000265
0.000286
0.000286
0.000250
0.000262
0.000280
0.000267
0.000274
0.000256
0.000270
0.000176
0.000057
0.000213
0.000240
0.000280
0.000445
0.000378
0.000251
0.000231
0.000244
0.000263
0.000250
0.000245
0.000259
0.000259
0.000263
0.000239
0.000243
0.000246
0.000267
0.000256
0.000406
0.000389
0.000416
0.000220
0.000280
0.000249
0.000255
0.000268
0.000248
0.000274
0.000281
0.000203
0.000055
0.000252
0.000413
0.000415
0.000199
0.000249
0.000258
0.000408
0.000225
0.000230
0.000276
0.000236
0.000301
0.000352
0.000478
0.001812
0.000252
0.000244
0.000269
0.000269
0.000234
0.000392
0.000474
0.000561
0.000276
0.000215
0.000268
0.000272
0.000427
0.000282
0.000289
0.000157
0.000056
0.000242
0.000350
0.000415
0.000251
0.000496
0.000202
0.000232
0.000272
0.000234
0.000237
0.000265
0.000247
0.000260
0.000360
0.000432
0.000427
0.000213
0.000237
0.000263
0.000259
0.000261
0.000328
0.000216
0.000288
0.000280
0.000537
0.000475
0.000333
0.000477
0.000220
0.000200
0.000056
0.000186
0.000231
0.000263
0.000219
0.000258
0.000245
0.000288
0.000255
0.000361
0.000383
0.000418
0.000342
0.000213
0.000252
0.000267
0.000285
0.000310
0.000230
0.000273
0.000277
0.000236
0.000355
0.000406
0.000382
0.000300
0.000250
0.000263
0.000432
0.000415
0.000314
0.000176
0.000055
0.000205
0.000233
0.000318
0.000447
0.000370
0.000195
0.000249
0.000246
0.000258
0.000254
0.000265
0.000255
0.000226
0.000259
0.000259
0.000286
0.000405
0.000361
0.000308
0.000337
0.000482
0.000226
0.000279
0.000275
0.000303
0.000286
0.000254
0.000262
0.000513
0.000537
0.000137
0.000055
0.000192
0.000219
0.000252
0.000247
0.000241
0.000484
0.000215
0.000252
0.000267
0.000291
0.000552
0.000570
0.000203
0.000246
0.000243
0.000249
0.000257
0.000240
0.000269
0.000242
0.000264
0.000268
0.000401
0.000383
0.000390
0.000386
0.000290
0.000302
0.000321
0.000241
0.000179
0.000056
0.000188
0.000236
0.000280
0.000470
0.000325
0.000281
0.000284
0.000213
0.000240
0.000256
0.000255
0.000246
0.000258
0.000257
0.000246
0.000264
0.000248
0.000247
0.000288
0.000351
0.000457
0.000463
0.000231
0.000238
0.000275
0.000277
0.000260
0.000255
0.000266
0.000263
0.000198
0.000055
0.000299
0.000375
0.000510
0.000196
0.000204
0.000243
0.000328
0.000453
0.000287
0.000211
0.000235
0.000273
0.000268
0.000410
0.000462
0.000301
0.000218
0.000240
0.000247
0.000278
0.000262
0.000261
0.000262
0.000267
0.000265
0.000317
0.000443
0.000383
0.000283
0.000243
0.000178
0.000056
0.000205
0.000236
0.000247
0.000257
0.000250
0.000266
0.000228
0.000257
0.000249
0.000252
0.000263
0.000241
0.000266
0.001459
0.000214
0.000256
0.000263
0.000245
0.000277
0.000275
0.000260
0.000245
0.000274
0.000250
0.000275
0.000277
0.000258
0.000270
0.000258
0.000271
0.000189
0.000056
0.000218
0.000224
0.000253
0.000253
0.000249
0.000249
0.000236
0.000263
0.000224
0.000248
0.000248
0.000265
0.000254
0.000252
0.000252
0.000264
0.000242
0.000262
0.000278
0.000249
0.000259
0.000265
0.000252
0.000240
0.001294
0.000273
0.000635
0.000375
0.000333
0.000260
0.000192
0.000056
0.000191
0.000232
0.000244
0.000255
0.000409
0.000246
0.000225
0.000246
0.000254
0.000405
0.000404
0.000353
0.000224
0.000246
0.000250
0.000256
0.000259
0.000264
0.000245
0.000262
0.000262
0.000259
0.000250
0.000482
0.000480
0.000434
0.000216
0.000267
0.001380
0.000233
0.000177
0.000055
0.000347
0.000417
0.000321
0.000270
0.000217
0.000249
0.000213
0.000247
0.000265
0.000254
0.000247
0.000260
0.000270
0.000306
0.000542
0.000379
0.000324
0.000223
0.000241
0.000261
0.000267
0.000267
0.000265
0.000265
0.000267
0.000261
0.000358
0.000580
0.000375
0.000329
0.000141
0.000056
0.000189
0.000236
0.001267
0.000415
0.000303
0.000487
0.000349
0.000495
0.000275
0.000340
0.000228
0.000214
0.000267
0.000249
0.000250
0.000274
0.000333
0.000639
0.000255
0.000369
0.000261
0.000241
0.000250
0.000512
0.000247
0.000251
0.000257
0.000280
0.000320
0.000536
0.000292
0.000056
0.000391
0.000307
0.000229
0.000217
0.001572
0.000452
0.000307
0.000255
0.000237
0.000247
0.000236
0.000234
0.000246
0.000272
0.000246
0.000267
0.000232
0.000257
0.000415
0.000381
0.000474
0.000230
0.000260
0.000250
0.000258
0.000282
0.000268
0.000243
0.000259
0.000274
0.000228
0.000056
0.000373
0.000348
0.000230
0.000227
0.000246
0.000245
0.000258
0.000240
0.000242
0.000213
0.001424
0.000477
0.000266
0.000229
0.000243
0.000249
0.000284
0.000249
0.000228
0.000289
0.000264
0.000256
0.000262
0.000476
0.000314
0.000503
0.000224
0.000263
0.000279
0.000292
0.000161
0.000056
0.000209
0.000420
0.000214
0.000245
0.000372
0.000412
0.000369
0.000317
0.000475
0.000189
0.000233
0.000258
0.000260
0.000259
0.000257
0.001446
0.000333
0.000283
0.000241
0.000271
0.000284
0.000244
0.000261
0.000248
0.000265
0.000269
0.000475
0.000420
0.000292
0.000274
0.000156
0.000056
0.000198
0.000229
0.000256
0.000237
0.000226
0.000261
0.000242
0.000247
0.000297
0.000414
0.000405
0.000267
0.000246
0.000243
0.000244
0.000280
0.000265
0.000262
0.000279
0.000226
0.000254
0.000300
0.001276
0.000258
0.000250
0.000243
0.000262
0.000259
0.000265
0.000262
0.000177
0.000057
0.000215
0.000351
0.000345
0.000360
0.000242
0.000238
0.000266
0.000263
0.000255
0.000247
0.000259
0.000264
0.000257
0.000259
0.000239
0.000261
0.000265
0.000272
0.000255
0.000255
0.000247
0.000273
0.000270
0.000282
0.000296
0.000257
0.000264
0.000269
0.000265
0.000435
0.001364
0.000057
0.000197
0.000239
0.000238
0.000245
0.000251
0.000263
0.000254
0.000213
0.000244
0.000250
0.000278
0.000256
0.000251
0.000241
0.000248
0.000249
0.001744
0.000251
0.000227
0.000267
0.000240
0.000261
0.000269
0.000263
0.000272
0.000259
0.000262
0.000286
0.000270
0.000255
0.000229
0.000057
0.000295
0.000282
0.001315
0.000224
0.000232
0.000246
0.000254
0.000255
0.000255
0.000261
0.000242
0.000331
0.000400
0.000435
0.000302
0.000213
0.000243
0.000256
0.000262
0.000265
0.000241
0.000275
0.000256
0.000291
0.000283
0.000346
0.000409
0.000354
0.000310
0.000243
0.000188
0.000055
0.000199
0.000260
0.000237
0.000250
0.000248
0.000225
0.000263
0.000217
0.000459
0.001324
0.000264
0.000208
0.000243
0.000266
0.000261
0.000266
0.000263
0.000263
0.000358
0.000358
0.000402
0.000239
0.000237
0.000248
0.000275
0.000278
0.000288
0.000279
0.000262
0.000281
0.000189
0.000058
0.000234
0.000463
0.000330
0.000213
0.000235
0.000234
0.000248
0.000276
0.000265
0.000246
0.000230
0.000250
0.000462
0.000579
0.000393
0.001453
0.000254
0.000268
0.000327
0.000351
0.000483
0.000417
0.000567
0.000293
0.000229
0.000258
0.000275
0.000273
0.000266
0.000273
0.000186
0.000056
0.000220
0.000332
0.000426
0.000490
0.000293
0.000260
0.000223
0.000224
0.000251
0.000260
0.000248
0.000266
0.000262
0.000240
0.000267
0.000297
0.000382
0.000405
0.000378
0.001324
0.000258
0.000253
0.000253
0.000265
0.000475
0.000454
0.000366
0.000244
0.000273
0.000270
0.000189
0.000056
0.000205
0.000235
0.000246
0.000246
0.000243
0.000274
0.000460
0.000415
0.000353
0.000207
0.000236
0.000260
0.000272
0.000258
0.000261
0.000259
0.000266
0.000270
0.000257
0.000306
0.000442
0.000432
0.000313
0.001349
0.000403
0.000237
0.000285
0.000383
0.000496
0.000323
0.000315
0.000056
0.000188
0.000239
0.000247
0.000247
0.000266
0.000235
0.001688
0.000244
0.000204
0.000247
0.000252
0.000247
0.000261
0.000334
0.000332
0.000281
0.000277
0.000278
0.000549
0.000430
0.000254
0.000281
0.000228
0.000242
0.001507
0.000409
0.000367
0.000474
0.000300
0.000300
0.000139
0.000056
0.000193
0.000247
0.000258
0.000257
0.000243
0.000258
0.001712
0.000237
0.000230
0.000270
0.000340
0.000406
0.001434
0.000364
0.000389
0.000241
0.000269
0.000228
0.000260
0.000274
0.001539
0.000538
0.000428
0.000288
0.000233
0.000254
0.000266
0.000278
0.000244
0.000250
0.000200
0.000056
0.000197
0.000239
0.000272
0.000242
0.000262
0.000278
0.000278
0.000255
0.000248
0.000259
0.000250
0.000245
0.000266
0.000271
0.000252
0.001497
0.000272
0.000234
0.000263
0.000301
0.000251
0.000273
0.000416
0.001268
0.000279
0.000224
0.000280
0.000251
0.000393
0.000260
0.000191
0.000056
0.000205
0.000250
0.000230
0.000243
0.000240
0.000227
0.000230
0.001698
0.000263
0.000220
0.000243
0.000374
0.000227
0.000223
0.000256
0.001400
0.000219
0.000263
0.000267
0.000261
0.000243
0.000360
0.000271
0.001314
0.000277
0.000255
0.000248
0.000261
0.001397
0.000277
0.000224
0.000057
0.000205
0.000377
0.000200
0.000248
0.000250
0.000241
0.000266
0.000262
0.000269
0.000243
0.000266
0.000263
0.000252
0.000244
0.000302
0.001513
0.000245
0.000269
0.000250
0.000269
0.000268
0.000281
0.000225
0.001513
0.000381
0.000201
0.000263
0.001286
0.000270
0.000238
0.000190
0.000055
0.000199
0.000436
0.000317
0.000205
0.000232
0.000235
0.000264
0.000260
0.000278
0.000263
0.000227
0.000256
0.000264
0.000267
0.000415
0.001226
0.000237
0.000242
0.000272
0.000295
0.000201
0.000247
0.000245
0.000336
0.001275
0.000261
0.000236
0.000265
0.001351
0.000341
0.000190
0.000056
0.000299
0.000208
0.000229
0.000227
0.000236
0.000252
0.000246
0.000246
0.000305
0.000244
0.000240
0.000233
0.000246
0.000321
0.000431
0.001476
0.000205
0.000254
0.000299
0.000538
0.000255
0.000385
0.001365
0.000293
0.000242
0.000269
0.000259
0.001309
0.000307
0.000474
0.000333
0.000055
0.000222
0.000252
0.000255
0.000256
0.000254
0.000248
0.000276
0.000248
0.000262
0.000260
0.000378
0.000405
0.001341
0.000241
0.000265
0.000263
0.000280
0.000221
0.000240
0.000244
0.000339
0.001238
0.000262
0.000252
0.000245
0.000252
0.001516
0.000407
0.000500
0.000210
0.000188
0.000056
0.000193
0.000230
0.000251
0.000234
0.000255
0.000265
0.000251
0.000262
0.000410
0.000499
0.000264
0.001494
0.000203
0.000244
0.000268
0.000262
0.000255
0.000284
0.001701
0.000257
0.000392
0.000336
0.001248
0.000407
0.000283
0.000321
0.000254
0.000267
0.000262
0.000267
0.000192
0.000056
0.000197
0.000233
0.000330
0.000257
0.000316
0.000569
0.000246
0.000292
0.001468
0.000247
0.000424
0.000213
0.000237
0.000323
0.000405
0.001276
0.000270
0.000245
0.000236
0.000258
0.001548
0.000356
0.000293
0.000275
0.000263
0.000237
0.000513
0.000312
0.000227
0.000237
0.000255
0.000055
0.000265
0.000330
0.000367
0.000258
0.000210
0.001524
0.000214
0.000252
0.000265
0.000271
0.000266
0.000241
0.000280
0.001509
0.000253
0.000244
0.000415
0.001202
0.000331
0.000456
0.000388
0.000241
0.000232
0.000251
0.000283
0.000242
0.000458
0.000236
0.000255
0.000291
0.000195
0.000056
0.000177
0.000279
0.000372
0.000318
0.001314
0.000271
0.000313
0.000236
0.000242
0.000245
0.000254
0.000324
0.001485
0.000254
0.000236
0.000248
0.001398
0.000325
0.000378
0.000422
0.000384
0.000229
0.000246
0.000251
0.000268
0.000300
0.000257
0.000248
0.000265
0.000258
0.000188
0.000056
0.000301
0.000279
0.001482
0.000195
0.000280
0.000279
0.000264
0.000222
0.000267
0.000379
0.001404
0.000203
0.000266
0.000257
0.000248
0.001332
0.000651
0.000303
0.000314
0.000407
0.000297
0.000249
0.000256
0.000252
0.000273
0.000287
0.000276
0.000300
0.000468
0.000406
0.001369
0.000056
0.000207
0.000239
0.000246
0.000226
0.000250
0.000407
0.000513
0.001270
0.000282
0.000250
0.000251
0.001391
0.000385
0.000378
0.000210
0.000423
0.000234
0.000252
0.000252
0.000282
0.000245
0.000278
0.000277
0.000268
0.000242
0.000301
0.000419
0.000489
0.001497
0.000221
0.000187
0.000056
0.000198
0.000259
0.000394
0.000516
0.001212
0.000277
0.000255
0.000262
0.000243
0.000250
0.000251
0.000295
0.000335
0.000527
0.000307
0.000224
0.000260
0.000273
0.000241
0.000282
0.000252
0.000274
0.000251
0.000269
0.000253
0.000355
0.000509
0.000370
0.000319
0.001395
0.000179
0.000056
0.000211
0.000246
0.000267
0.000487
0.000314
0.000306
0.000317
0.000336
0.000265
0.000259
0.000259
0.000264
0.000254
0.000303
0.000236
0.000317
0.000537
0.000318
0.000291
0.000383
0.000274
0.000399
0.000238
0.000262
0.000239
0.000263
0.000252
0.000294
0.000345
0.000557
0.000243
0.000056
0.000210
0.001402
0.000233
0.000344
0.000406
0.000431
0.000362
0.000315
0.000220
0.000235
0.000264
0.000243
0.000264
0.000275
0.000259
0.000260
0.000259
0.001246
0.000371
0.000254
0.000254
0.000276
0.000268
0.000278
0.000271
0.000247
0.000278
0.000251
0.000312
0.000386
0.000416
0.000057
0.000213
0.000262
0.000215
0.001499
0.000346
0.000216
0.000221
0.000250
0.000233
0.000237
0.000259
0.000270
0.000258
0.000248
0.000265
0.000252
0.000246
0.000274
0.000273
0.000238
0.001453
0.000222
0.000239
0.000275
0.000249
0.000257
0.000262
0.000268
0.000273
0.000491
0.000344
0.000055
0.000200
0.000222
0.000398
0.000280
0.000248
0.000250
0.001532
0.000357
0.000299
0.000207
0.000260
0.000315
0.000335
0.000232
0.000224
0.000248
0.000252
0.000259
0.000262
0.000249
0.000487
0.000594
0.001066
0.000254
0.000222
0.000257
0.000268
0.000259
0.000273
0.000266
0.000355
0.000055
0.000280
0.000341
0.000204
0.000248
0.000242
0.000238
0.000244
0.000230
0.000290
0.001574
0.000437
0.000262
0.000226
0.000250
0.000260
0.000241
0.000258
0.000279
0.000262
0.000310
0.000305
0.000556
0.000386
0.001372
0.000225
0.000259
0.000274
0.000261
0.000267
0.000271
0.000590
0.000056
0.000183
0.000230
0.000240
0.000245
0.000216
0.000246
0.000259
0.000253
0.000272
0.001578
0.000344
0.000254
0.000262
0.000264
0.000468
0.000262
0.000513
0.000382
0.000308
0.000302
0.000444
0.000466
0.001327
0.000227
0.000223
0.000257
0.001729
0.000418
0.000633
0.000316
0.000143
0.000057
0.000178
0.000228
0.000244
0.000232
0.000257
0.000244
0.000240
0.000515
0.000612
0.000298
0.000302
0.000203
0.000238
0.000262
0.000262
0.000270
0.000246
0.000251
0.000247
0.000276
0.000267
0.000386
0.001404
0.000205
0.000245
0.000279
0.001902
0.000382
0.000400
0.000330
0.000149
0.000056
0.000208
0.000247
0.000239
0.001572
0.000430
0.000211
0.000241
0.000254
0.000247
0.000287
0.000386
0.000363
0.000364
0.000271
0.000381
0.000428
0.000452
0.001150
0.000266
0.000232
0.000255
0.000256
0.000287
0.000435
0.000559
0.000483
0.000252
0.000262
0.000269
0.000288
0.000184
0.000056
0.000201
0.000231
0.000246
0.001543
0.000241
0.000243
0.000236
0.000253
0.000246
0.000249
0.000258
0.000266
0.000292
0.000248
0.000283
0.000368
0.000448
0.000303
0.001405
0.000227
0.000260
0.000259
0.000258
0.000262
0.000446
0.000444
0.000425
0.000274
0.000285
0.000227
0.000437
0.000056
0.000182
0.000235
0.000253
0.001523
0.000326
0.000217
0.000266
0.000243
0.000254
0.000259
0.000250
0.000263
0.000251
0.000248
0.000498
0.000448
0.001363
0.000750
0.000251
0.000347
0.000260
0.000212
0.000249
0.000272
0.001688
0.000818
0.000218
0.000261
0.000275
0.000285
0.000184
0.000056
0.000200
0.000230
0.000256
0.000246
0.000261
0.000245
0.000235
0.000259
0.000237
0.000226
0.000292
0.000280
0.000252
0.000254
0.000258
0.000248
0.000273
0.001622
0.000685
0.000422
0.000277
0.000220
0.000248
0.000279
0.000261
0.000272
0.000268
0.000251
0.001402
0.000395
0.000314
0.000055
0.000191
0.000228
0.000251
0.000253
0.000266
0.000222
0.000256
0.000250
0.000250
0.000268
0.000306
0.000394
0.000439
0.000337
0.000202
0.000245
0.000263
0.001405
0.000684
0.000479
0.000325
0.000279
0.000221
0.000252
0.000274
0.000247
0.000265
0.000266
0.001494
0.000413
0.000201
0.000055
0.000225
0.000231
0.000238
0.000245
0.000252
0.000249
0.000236
0.000250
0.000271
0.000278
0.000374
0.000343
0.000343
0.000219
0.000247
0.000240
0.000268
0.000251
0.001578
0.000620
0.000480
0.000314
0.000218
0.000264
0.000255
0.000263
0.000271
0.000302
0.000246
0.001356
0.000341
0.000056
0.000217
0.000212
0.000237
0.000257
0.000254
0.000246
0.000272
0.000292
0.000366
0.000445
0.000384
0.000381
0.000342
0.000217
0.000243
0.000251
0.000273
0.000257
0.000269
0.001893
0.000366
0.000226
0.000447
0.000245
0.000255
0.000256
0.000273
0.000256
0.000272
0.000271
0.000523
0.000058
0.000239
0.000267
0.000229
0.000240
0.000268
0.000241
0.000222
0.000240
0.000270
0.000248
0.000251
0.000237
0.000298
0.000395
0.000508
0.000443
0.000216
0.000264
0.000248
0.000257
0.000258
0.000291
0.001476
0.001059
0.000209
0.000243
0.000267
0.000265
0.000273
0.000257
0.000200
0.000055
0.000182
0.001349
0.000292
0.000214
0.000231
0.000248
0.000256
0.000238
0.000239
0.000249
0.000259
0.000260
0.000243
0.000366
0.000416
0.000462
0.000233
0.000248
0.000266
0.000270
0.000268
0.000229
0.000256
0.000271
0.001351
0.000654
0.000311
0.000382
0.000381
0.000401
0.000293
0.000055
0.000201
0.000241
0.000356
0.001330
0.000199
0.000259
0.000227
0.000259
0.000254
0.000255
0.000246
0.000251
0.000263
0.000374
0.000555
0.000304
0.000220
0.000336
0.000272
0.000216
0.000249
0.000272
0.000234
0.000272
0.000281
0.001546
0.000716
0.000306
0.000274
0.000267
0.000188
0.000056
0.000211
0.000245
0.000484
0.000319
0.001307
0.000245
0.000219
0.000236
0.000236
0.000245
0.000246
0.000263
0.000228
0.000239
0.000253
0.000253
0.000274
0.000233
0.000252
0.000261
0.000266
0.000268
0.000314
0.000329
0.000215
0.000257
0.000273
0.001460
0.000264
0.000229
0.000176
0.000056
0.000200
0.000218
0.000252
0.000272
0.000356
0.000381
0.000392
0.000274
0.001573
0.000228
0.000273
0.000541
0.000356
0.000200
0.000433
0.000240
0.000230
0.000254
0.000282
0.000286
0.000258
0.000271
0.000253
0.000275
0.000240
0.000417
0.000411
0.000318
0.001590
0.000211
0.000186
0.000055
0.000232
0.000255
0.000239
0.000250
0.000233
0.000249
0.000266
0.000320
0.000395
0.002044
0.000232
0.000233
0.000255
0.000261
0.000260
0.000256
0.000275
0.000243
0.000311
0.000380
0.000389
0.000447
0.001451
0.000248
0.000533
0.000232
0.001765
0.000236
0.000254
0.001544
0.000140
0.000056
0.000314
0.000460
0.000427
0.000249
0.000262
0.000220
0.000260
0.000272
0.000258
0.000229
0.000253
0.000348
0.000406
0.000358
0.000425
0.000244
0.000224
0.001587
0.000206
0.000686
0.001804
0.000278
0.000227
0.001574
0.001987
0.000735
0.000290
0.000247
0.000299
0.000494
0.000266
0.000056
0.000207
0.000243
0.000242
0.000251
0.001415
0.002559
0.000254
0.000203
0.000237
0.001584
0.001980
0.000206
0.000248
0.000427
0.000310
0.000431
0.000334
0.000475
0.000204
0.000240
0.000252
0.000255
0.000272
0.001618
0.001192
0.001425
0.000277
0.000296
0.000256
0.000284
0.000371
0.000057
0.000223
0.000226
0.000236
0.000242
0.000230
0.000244
0.000250
0.000258
0.000248
0.000248
0.000240
0.000332
0.000439
0.000433
0.000308
0.000243
0.000252
0.000273
0.000265
0.000264
0.000260
0.000257
0.001541
0.000459
0.002095
0.000246
0.000259
0.000295
0.000481
0.000397
0.000196
0.000056
0.000232
0.000340
0.000480
0.000308
0.000195
0.000223
0.000254
0.000243
0.000241
0.000237
0.000254
0.000265
0.000256
0.001623
0.001346
0.001223
0.000275
0.000228
0.000245
0.000274
0.000288
0.000281
0.000234
0.000259
0.002209
0.000253
0.000256
0.000285
0.000336
0.000295
0.000216
0.000055
0.000219
0.000358
0.000581
0.000299
0.000235
0.000227
0.000248
0.000268
0.001909
0.001409
0.000229
0.000334
0.000386
0.000424
0.000254
0.000210
0.000257
0.000268
0.000264
0.000272
0.000250
0.000259
0.000475
0.000238
0.000267
0.000264
0.000256
0.000278
0.000284
0.000244
0.000199
0.000056
0.000192
0.000246
0.000248
0.000240
0.000254
0.000270
0.001551
0.001417
0.001323
0.000246
0.000215
0.000247
0.000266
0.000264
0.000244
0.000254
0.000249
0.002102
0.000264
0.000218
0.000273
0.000255
0.000258
0.000268
0.000269
0.000258
0.000272
0.000245
0.000284
0.000258
0.000172
0.000056
0.000198
0.002696
0.001382
0.000226
0.000303
0.000297
0.000225
0.000270
0.000259
0.000239
0.000259
0.000244
0.000231
0.000243
0.000268
0.000257
0.000272
0.000263
0.000249
0.000277
0.000259
0.000286
0.000275
0.000275
0.000232
0.000256
0.000257
0.000272
0.000263
0.000264
0.000371
0.000056
0.001546
0.000253
0.001245
0.000224
0.000213
0.000248
0.000257
0.000256
0.000239
0.000273
0.000443
0.000322
0.000345
0.000195
0.000256
0.002152
0.000241
0.000236
0.000261
0.000536
0.000318
0.000350
0.000224
0.000240
0.000276
0.000243
0.000266
0.000278
0.000272
0.001613
0.001267
0.000056
0.000199
0.000226
0.000318
0.000400
0.000346
0.000277
0.000208
0.000234
0.000247
0.000264
0.000262
0.000245
0.000229
0.000255
0.000260
0.000238
0.000309
0.000624
0.000373
0.000253
0.000219
0.000273
0.000277
0.000253
0.000251
0.000246
0.000267
0.000272
0.000250
0.000369
0.000321
0.000056
0.001105
0.000235
0.000516
0.000292
0.000272
0.000249
0.000210
0.000240
0.000245
0.002296
0.000454
0.000313
0.000230
0.000359
0.000278
0.000262
0.000263
0.000261
0.000263
0.000235
0.000243
0.000293
0.000658
0.000408
0.001853
0.001355
0.000547
0.000466
0.000237
0.000266
0.000192
0.000055
0.000348
0.000243
0.000246
0.000262
0.000229
0.000228
0.000253
0.000257
0.000254
0.000249
0.000260
0.000219
0.000244
0.000262
0.000444
0.000464
0.001835
0.001341
0.000436
0.000434
0.000451
0.000243
0.000240
0.000261
0.002136
0.000554
0.000388
0.000223
0.000274
0.000284
0.000192
0.000055
0.000182
0.000245
0.000255
0.000247
0.000244
0.000460
0.000343
0.000266
0.000291
0.000245
0.000262
0.000234
0.000264
0.002105
0.000386
0.000371
0.000212
0.000248
0.000269
0.000266
0.000251
0.002488
0.000302
0.000218
0.000261
0.000255
0.000254
0.000273
0.000287
0.000277
0.000189
0.000056
0.000186
0.000309
0.000618
0.000339
0.000267
0.000216
0.000243
0.000237
0.000268
0.000249
0.001986
0.000389
0.000247
0.000272
0.000231
0.000264
0.000267
0.000250
0.002226
0.000437
0.000212
0.000261
0.000275
0.000257
0.000273
0.000237
0.000282
0.000257
0.000264
0.000276
0.000163
0.000055
0.000197
0.000234
0.000251
0.000236
0.000230
0.000260
0.000240
0.000240
0.000235
0.002176
0.000229
0.000292
0.000205
0.000428
0.000234
0.000251
0.000278
0.000283
0.000244
0.000261
0.001966
0.000285
0.000345
0.000363
0.000436
0.000420
0.000281
0.000243
0.000260
0.000254
0.000197
0.000056
0.000197
0.000264
0.000215
0.000246
0.000265
0.000331
0.000196
0.002299
0.000246
0.000243
0.000260
0.000257
0.000235
0.000254
0.000304
0.002120
0.000602
0.000208
0.000263
0.000241
0.000260
0.000261
0.000290
0.000270
0.000257
0.000251
0.000293
0.000246
0.000273
0.000266
0.000190
0.000056
0.001833
0.001430
0.000211
0.000218
0.000247
0.000251
0.000247
0.000305
0.000373
0.000368
0.002154
0.000265
0.000233
0.000257
0.000370
0.000446
0.000392
0.000286
0.000218
0.000253
0.000242
0.000274
0.000270
0.000213
0.000260
0.000270
0.000267
0.000264
0.000465
0.000536
0.000304
0.000056
0.000195
0.000253
0.000255
0.000248
0.000270
0.000245
0.000252
0.000242
0.001491
0.002111
0.000586
0.000281
0.000461
0.000621
0.000352
0.000244
0.000245
0.000257
0.000260
0.000255
0.000269
0.000234
0.000249
0.001837
0.000341
0.001379
0.000284
0.000273
0.000289
0.000418
0.000285
0.000057
0.001927
0.000230
0.000228
0.000223
0.000303
0.000351
0.000505
0.000257
0.000284
0.000220
0.000227
0.000261
0.000257
0.000259
0.000279
0.000237
0.000256
0.000268
0.001845
0.000239
0.000230
0.000252
0.000277
0.000276
0.000275
0.000252
0.001481
0.000329
0.000234
0.000262
0.000170
0.000055
0.000205
0.000229
0.000241
0.000256
0.000234
0.000245
0.000347
0.000363
0.000276
0.000406
0.000221
0.000235
0.000269
0.000330
0.000430
0.000314
0.000216
0.000249
0.000258
0.000336
0.000532
0.000399
0.000255
0.000258
0.000258
0.000253
0.000251
0.000275
0.000278
0.000261
0.000206
0.000055
0.001461
0.000410
0.000229
0.001939
0.000296
0.000492
0.000341
0.000320
0.000222
0.000246
0.000271
0.000243
0.000248
0.000247
0.000266
0.000258
0.000449
0.000336
0.000376
0.000348
0.000360
0.000228
0.000257
0.000267
0.000271
0.000282
0.000253
0.000267
0.000385
0.000401
0.001423
0.000056
0.000177
0.000225
0.002079
0.000303
0.000327
0.000243
0.000252
0.000246
0.000264
0.000261
0.000213
0.000257
0.000249
0.000270
0.000251
0.000368
0.000723
0.001752
0.000222
0.000247
0.000254
0.000267
0.000354
0.000507
0.001542
0.000272
0.000361
0.001931
0.000269
0.000239
0.000200
0.000056
0.000213
0.000226
0.000233
0.000253
0.000229
0.000237
0.000256
0.000286
0.000327
0.000281
0.000379
0.000367
0.000347
0.000282
0.000229
0.000271
0.000265
0.000240
0.000266
0.000250
0.000300
0.000288
0.000266
0.000264
0.000261
0.001519
0.000289
0.000387
0.002066
0.000229
0.000180
0.000056
0.000203
0.000243
0.000239
0.000244
0.000482
0.000211
0.000259
0.000315
0.000394
0.000315
0.000294
0.000202
0.000263
0.000267
0.000273
0.000321
0.000393
0.000469
0.000257
0.000393
0.000522
0.000485
0.001557
0.000226
0.000249
0.002005
0.000309
0.000264
0.000237
0.000282
0.000186
0.000055
0.000191
0.000240
0.000228
0.000246
0.000251
0.000263
0.000256
0.000268
0.000259
0.000265
0.001804
0.000331
0.000378
0.000306
0.000433
0.000365
0.000333
0.001523
0.000241
0.000273
0.002140
0.000545
0.000258
0.000221
0.000272
0.000268
0.000505
0.000223
0.000254
0.000282
0.000193
0.000056
0.000278
0.000405
0.000341
0.000291
0.000199
0.000244
0.000258
0.000251
0.000276
0.000284
0.000222
0.000248
0.000257
0.000262
0.000338
0.001534
0.000312
0.000201
0.000297
0.002014
0.000295
0.000247
0.000239
0.000267
0.000242
0.000279
0.000282
0.000248
0.000247
0.000267
0.000201
0.000056
0.000246
0.000380
0.002044
0.000250
0.000257
0.000213
0.000244
0.000397
0.000329
0.000450
0.001312
0.000376
0.002113
0.000319
0.000210
0.000250
0.000256
0.000274
0.000255
0.000236
0.000289
0.000291
0.000257
0.000315
0.000575
0.000310
0.000333
0.002221
0.000489
0.000507
0.000363
0.000057
0.000188
0.000227
0.000242
0.001972
0.000232
0.000217
0.000259
0.000227
0.000246
0.000258
0.000237
0.000266
0.000244
0.000299
0.000448
0.001461
0.000261
0.000233
0.000259
0.000252
0.000235
0.000259
0.000258
0.000302
0.000284
0.000458
0.000482
0.000226
0.001607
0.000282
0.000160
0.000056
0.000196
0.000224
0.000245
0.000236
0.000253
0.000252
0.000246
0.000252
0.000254
0.000336
0.000421
0.001400
0.000249
0.000205
0.000248
0.000263
0.000257
0.000253
0.000499
0.000296
0.000420
0.000424
0.000214
0.001589
0.000222
0.000260
0.000289
0.000280
0.000261
0.000262
0.000199
0.000056
0.000207
0.000227
0.000263
0.000291
0.000227
0.000247
0.000233
0.000246
0.000264
0.000227
0.000259
0.000252
0.000259
0.001488
0.000371
0.000197
0.000269
0.000241
0.000289
0.000315
0.000372
0.000272
0.000232
0.000265
0.000259
0.000272
0.000255
0.001407
0.000291
0.000229
0.000166
0.000056
0.000203
0.000227
0.000262
0.000261
0.000255
0.000235
0.000245
0.000263
0.000217
0.000268
0.000245
0.000260
0.000227
0.000321
0.000364
0.000339
0.000274
0.000240
0.001639
0.000235
0.000232
0.000268
0.000272
0.000307
0.000399
0.000347
0.000454
0.000273
0.000231
0.001614
0.000165
0.000056
0.000322
0.000341
0.000359
0.000310
0.000228
0.000224
0.000241
0.000272
0.000252
0.000259
0.000231
0.000236
0.001468
0.000292
0.000312
0.000207
0.000258
0.000251
0.000271
0.000262
0.000256
0.000233
0.000259
0.000275
0.000261
0.000425
0.000438
0.000343
0.000248
0.000243
0.000195
0.000056
0.000203
0.000234
0.000433
0.000345
0.000416
0.000236
0.000249
0.000251
0.000251
0.000257
0.000240
0.000237
0.000254
0.000233
0.001261
0.000305
0.000230
0.000247
0.000271
0.000269
0.000236
0.000267
0.000249
0.000260
0.000262
0.000257
0.000338
0.000648
0.000467
0.000230
0.000183
0.000056
0.000197
0.001565
0.000247
0.000323
0.000467
0.000381
0.000207
0.000263
0.000264
0.000249
0.000240
0.000260
0.000272
0.000275
0.000256
0.001526
0.000251
0.000284
0.000266
0.000254
0.000258
0.000257
0.000259
0.000264
0.000265
0.000281
0.000450
0.000338
0.000351
0.000233
0.000195
0.000056
0.000195
0.000253
0.000236
0.001672
0.000370
0.000350
0.000213
0.000241
0.000253
0.000273
0.000282
0.000254
0.000249
0.000262
0.000229
0.000272
0.000454
0.001268
0.000243
0.000230
0.001515
0.000280
0.000658
0.000331
0.000360
0.000219
0.000262
0.000465
0.000250
0.000244
0.000195
0.000057
0.000285
0.000213
0.000243
0.000244
0.000250
0.000255
0.000237
0.000256
0.000258
0.000230
0.000260
0.000256
0.000322
0.000525
0.001638
0.001490
0.000364
0.000540
0.000328
0.000210
0.000239
0.000256
0.000259
0.000254
0.000255
0.000262
0.000261
0.000270
0.001523
0.000334
0.000166
0.000055
0.000247
0.000334
0.000354
0.000331
0.000231
0.000226
0.000239
0.000398
0.000392
0.000358
0.002182
0.000322
0.000726
0.000686
0.000251
0.000266
0.000330
0.000400
0.000322
0.000284
0.000401
0.000222
0.001572
0.000523
0.000211
0.000272
0.000245
0.000252
0.000267
0.000262
0.000197
0.000056
0.000224
0.000253
0.000276
0.000228
0.000248
0.001656
0.000882
0.001002
0.000204
0.000230
0.000258
0.000259
0.000257
0.000262
0.000253
0.000252
0.000256
0.000266
0.000262
0.000278
0.001436
0.000313
0.000252
0.000223
0.000232
0.000263
0.000262
0.000283
0.000266
0.000283
0.001905
0.000058
0.000181
0.000231
0.001559
0.000856
0.000392
0.000337
0.000241
0.000227
0.000250
0.000258
0.000244
0.000255
0.000244
0.001992
0.000474
0.000217
0.000241
0.000253
0.000269
0.000260
0.000187
