0.001831
0.001178
0.001244
0.000307
0.000282
0.000470
0.000331
0.000301
0.000340
0.000325
0.000285
0.000261
0.000491
0.000282
0.000283
0.000445
0.000335
0.000353
0.000285
0.000280
0.000295
0.000300
0.000453
0.000364
0.000278
0.000264
0.000302
0.000511
0.000341
0.000294
0.000289
0.000373
0.000272
0.000261
0.000273
0.000373
0.000351
0.000405
0.000380
0.000265
0.000313
0.000267
0.000264
0.000262
0.000245
0.000272
0.000272
0.000273
0.000302
0.000634
0.000265
0.000274
0.000376
0.000332
0.000326
0.000269
0.000291
0.000296
0.000264
0.000301
0.000390
0.000381
0.000304
0.000386
0.000284
0.000252
0.000312
0.000277
0.000265
0.000259
0.000257
0.000254
0.000282
0.000370
0.000347
0.000259
0.000324
0.000291
0.000288
0.000264
0.000298
0.000276
0.000264
0.000449
0.000366
0.000312
0.000349
0.000361
0.000319
0.000346
0.000282
0.000446
0.000247
0.000271
0.000246
0.000378
0.000243
0.000257
0.000359
0.000300
0.000399
0.000264
0.000279
0.000270
0.000269
0.000342
0.000291
0.000267
0.000305
0.000288
0.000283
0.000288
0.000560
0.000310
0.000277
0.000303
0.000290
0.000263
0.000278
0.000332
0.000305
0.000268
0.000406
0.000350
0.000374
0.000330
0.000282
0.000267
0.000269
0.000550
0.000270
0.000331
0.000304
0.000306
0.000261
0.000278
0.000502
0.000318
0.000359
0.000287
0.000300
0.000432
0.000291
0.000270
0.000539
0.000326
0.000367
0.000308
0.000494
0.000333
0.000233
0.000272
0.000340
0.000375
0.000293
0.000324
0.000249
0.000271
0.000322
0.000452
0.000382
0.000335
0.000348
0.000385
0.000379
0.000290
0.000261
0.000325
0.000264
0.000359
0.000376
0.000479
0.000277
0.000252
0.000292
0.000356
0.000351
0.000394
0.000289
0.000278
0.000254
0.000282
0.000313
0.000283
0.000338
0.000259
0.000345
0.000283
0.000273
0.000354
0.000257
0.000265
0.000278
0.000283
0.000276
0.000251
0.000406
0.000292
0.000352
0.000356
0.000284
0.000357
0.000282
0.000317
0.000274
0.000274
0.000280
0.000276
0.000263
0.000491
0.000271
0.000255
0.000265
0.000280
0.000252
0.000254
0.000250
0.000301
0.000250
0.000253
0.000253
0.000279
0.000393
0.000336
0.000320
0.000315
0.000253
0.000363
0.000284
0.000279
0.000288
0.000257
0.000274
0.000296
0.000309
0.000396
0.000386
0.000382
0.000280
0.000315
0.000265
0.000280
0.000284
0.000246
0.000403
0.000267
0.000265
0.000302
0.000287
0.000297
0.000308
0.000267
0.000266
0.000272
0.000280
0.000334
0.000272
0.000356
0.000290
0.000266
0.000275
0.000273
0.000286
0.000284
0.000472
0.000330
0.000266
0.000293
0.000271
0.000285
0.000252
0.000256
0.000291
0.000278
0.000301
0.000257
0.000383
0.000384
0.000350
0.000258
0.000271
0.000244
0.000257
0.000253
0.000301
0.000277
0.000255
0.000292
0.000309
0.000381
0.000313
0.000295
0.000328
0.000280
0.000280
0.000515
0.000269
0.000305
0.000297
0.000287
0.000277
0.000283
0.000258
0.000343
0.000291
0.000258
0.000271
0.000280
0.000247
0.000267
0.000308
0.000232
0.000383
0.000270
0.000290
0.000299
0.000430
0.000285
0.000489
0.000267
0.000268
0.000281
0.000291
0.000278
0.000297
0.000298
0.000293
0.000283
0.000339
0.000333
0.000303
0.000265
0.000272
0.000266
0.000241
0.000256
0.000306
0.000252
0.000267
0.000292
0.000311
0.000270
0.000279
0.000310
0.000278
0.000372
0.000272
0.000282
0.000248
0.000284
0.000298
0.000268
0.000293
0.000285
0.000297
0.000321
0.000348
0.000274
0.000333
0.000345
0.000276
0.000232
0.000256
0.000451
0.000271
0.000264
0.000306
0.000263
0.000271
0.000402
0.000269
0.000409
0.000325
0.000254
0.000247
0.000273
0.000382
0.000304
0.000256
0.000323
0.000280
0.000275
0.000385
0.000293
0.000561
0.000304
0.000276
0.000307
0.000384
0.000281
0.000279
0.000335
0.000251
0.000281
0.000263
0.000325
0.000285
0.000265
0.000264
0.000262
0.000270
0.000279
0.000264
0.000302
0.000292
0.000267
0.000324
0.000287
0.000263
0.000262
0.000286
0.000381
0.000278
0.000258
0.000431
0.000284
0.000255
0.000310
0.000316
0.000296
0.000255
0.000241
0.000243
0.000258
0.000327
0.000297
0.000269
0.000290
0.000490
0.000275
0.000283
0.000288
0.000291
0.000260
0.000274
0.000286
0.000276
0.000282
0.000282
0.000280
0.000275
0.000374
0.000276
0.000268
0.000296
0.000285
0.000296
0.000357
0.000269
0.000390
0.000310
0.000256
0.000261
0.000259
0.000283
0.000258
0.000372
0.000237
0.000271
0.000308
0.000500
0.000262
0.000265
0.000272
0.000315
0.000262
0.000280
0.000377
0.000278
0.000255
0.000291
0.000293
0.000304
0.000274
0.000277
0.000282
0.000289
0.000268
0.000314
0.000256
0.000297
0.000251
0.000237
0.000274
0.000288
0.000374
0.000247
0.000289
0.000252
0.000253
0.000262
0.000270
0.000282
0.000261
0.000301
0.000276
0.000303
0.000343
0.000327
0.000282
0.000372
0.000264
0.000320
0.000263
0.000284
0.000281
0.000271
0.000272
0.000294
0.000279
0.000276
0.000297
0.000267
0.000272
0.000283
0.000234
0.000291
0.000292
0.000251
0.000370
0.000290
0.000279
0.000258
0.000288
0.000266
0.000545
0.000387
0.000293
0.000320
0.000254
0.000276
0.000271
0.000270
0.000287
0.000283
0.000280
0.000262
0.000295
0.000295
0.000295
0.000279
0.000260
0.000280
0.000252
0.000260
0.000271
0.000328
0.000267
0.000289
0.000273
0.000319
0.000364
0.000276
0.000263
0.000256
0.000274
0.000323
0.000307
0.000259
0.000311
0.000279
0.000278
0.000286
0.000276
0.000289
0.000328
0.000333
0.000280
0.000262
0.000342
0.000346
0.000252
0.000253
0.000247
0.000277
0.000262
0.000267
0.000275
0.000267
0.000299
0.000273
0.000335
0.000281
0.000444
0.000404
0.000266
0.000252
0.000302
0.000256
0.000282
0.000263
0.000306
0.000309
0.000308
0.000307
0.000282
0.000270
0.000292
0.000361
0.000334
0.000293
0.000250
0.000255
0.000361
0.000296
0.000259
0.000278
0.000264
0.000236
0.000264
0.000264
0.000331
0.000355
0.000276
0.000274
0.000279
0.000271
0.000292
0.000353
0.000278
0.000271
0.000302
0.000605
0.000290
0.000410
0.000254
0.000283
0.000297
0.000271
0.000276
0.000297
0.000287
0.000284
0.000261
0.000245
0.000272
0.000276
0.000337
0.000267
0.000252
0.000266
0.000263
0.000264
0.000248
0.000292
0.000319
0.000342
0.000263
0.000272
0.000301
0.000278
0.000464
0.000264
0.000273
0.000285
0.000273
0.000281
0.000395
0.000287
0.000299
0.000277
0.000227
0.000375
0.000315
0.000422
0.000253
0.000298
0.000258
0.000272
0.000287
0.000304
0.000411
0.000269
0.000276
0.000256
0.000387
0.000344
0.000391
0.000275
0.000264
0.000279
0.000270
0.000324
0.000328
0.000273
0.000319
0.000268
0.000252
0.000304
0.000288
0.000267
0.000231
0.000262
0.000264
0.000258
0.000272
0.000269
0.000283
0.000384
0.000274
0.000271
0.000292
0.000276
0.000271
0.000291
0.000261
0.000276
0.000272
0.000270
0.000331
0.000264
0.000328
0.000270
0.000273
0.000268
0.000396
0.000293
0.000273
0.000356
0.000261
0.000251
0.000269
0.000327
0.000278
0.000274
0.000268
0.000275
0.000243
0.000263
0.000282
0.000266
0.000271
0.000331
0.000285
0.000265
0.000268
0.000277
0.000263
0.000318
0.000273
0.000411
0.000420
0.000273
0.000286
0.000275
0.000286
0.000279
0.000271
0.000284
0.000260
0.000262
0.000305
0.000280
0.000269
0.000295
0.000291
0.000264
0.000263
0.000257
0.000273
0.000252
0.000256
0.000267
0.000283
0.000286
0.000284
0.000327
0.000308
0.000279
0.000273
0.000295
0.000269
0.000286
0.000316
0.000289
0.000282
0.000274
0.000253
0.000386
0.000309
0.000271
0.000250
0.000232
0.000292
0.000254
0.000259
0.000346
0.000240
0.000290
0.000258
0.000261
0.000256
0.000268
0.000324
0.000263
0.000275
0.000264
0.000311
0.000305
0.000282
0.000270
0.000369
0.000264
0.000281
0.000283
0.000252
0.000362
0.000301
0.000281
0.000281
0.000329
0.000245
0.000259
0.000256
0.000293
0.000259
0.000263
0.000258
0.000245
0.000290
0.000281
0.000317
0.000264
0.000303
0.000267
0.000251
0.000273
0.000282
0.000316
0.000251
0.000292
0.000280
0.000276
0.000273
0.000286
0.000332
0.000325
0.000289
0.000280
0.000274
0.000261
0.000250
0.000241
0.000259
0.000268
0.000265
0.000252
0.000317
0.000292
0.000258
0.000273
0.000268
0.000242
0.000310
0.000263
0.000271
0.000263
0.000265
0.000302
0.000273
0.000250
0.000282
0.000284
0.000309
0.000292
0.000258
0.000326
0.000285
0.000285
0.000278
0.000253
0.000283
0.000245
0.000243
0.000375
0.000382
0.000292
0.000257
0.000269
0.000270
0.000282
0.000304
0.000253
0.000274
0.000358
0.000263
0.000277
0.000273
0.000274
0.000286
0.000304
0.000274
0.000279
0.000246
0.000320
0.000311
0.000284
0.000287
0.000256
0.000283
0.000265
0.000358
0.000376
0.000274
0.000288
0.000265
0.000240
0.000267
0.000259
0.000266
0.000267
0.000276
0.000285
0.000271
0.000260
0.000266
0.000349
0.000328
0.000260
0.000283
0.000295
0.000290
0.000253
0.000289
0.000281
0.000289
0.000304
0.000279
0.000284
0.000429
0.000322
0.000278
0.000340
0.000273
0.000280
0.000273
0.000264
0.000268
0.000269
0.000252
0.000265
0.000264
0.000397
0.000348
0.000294
0.000282
0.000260
0.000314
0.000260
0.000280
0.000271
0.000269
0.000279
0.000307
0.000268
0.000276
0.000354
0.000292
0.000308
0.000300
0.000274
0.000290
0.000254
0.000253
0.000250
0.000273
0.000246
0.000269
0.000276
0.000269
0.000349
0.000311
0.000287
0.000272
0.000236
0.000277
0.000275
0.000294
0.000265
0.000266
0.000281
0.000270
0.000273
0.000290
0.000289
0.000299
0.000319
0.000298
0.000275
0.000268
0.000293
0.000246
0.000268
0.000315
0.000284
0.000257
0.000261
0.000272
0.000260
0.000311
0.000268
0.000278
0.000262
0.000278
0.000263
0.000274
0.000274
0.000272
0.000338
0.000270
0.000274
0.000347
0.000433
0.000301
0.000299
0.000287
0.000248
0.000290
0.000286
0.000266
0.000269
0.000258
0.000260
0.000255
0.000380
0.000264
0.000309
0.000287
0.000283
0.000239
0.000283
0.000305
0.000267
0.000264
0.000367
0.000283
0.000275
0.000265
0.000276
0.000282
0.000305
0.000319
0.000286
0.000280
0.000282
0.000307
0.000269
0.000275
0.000274
0.000290
0.000270
0.000380
0.000258
0.000367
0.000284
0.000281
0.000235
0.000295
0.000263
0.000264
0.000260
0.000270
0.000276
0.000254
0.000271
0.000277
0.000277
0.000306
0.000298
0.000284
0.000285
0.000245
0.000312
0.000308
0.000272
0.000382
0.000290
0.000275
0.000273
0.000260
0.000291
0.000271
0.000266
0.000259
0.000282
0.000296
0.000279
0.000270
0.000257
0.000253
0.000268
0.000269
0.000284
0.000286
0.000272
0.000374
0.000303
0.000272
0.000255
0.000280
0.000291
0.000278
0.000277
0.000277
0.000285
0.000284
0.000269
0.000289
0.000276
0.000319
0.000276
0.000262
0.000306
0.000261
0.000273
0.000255
0.000376
0.000299
0.000348
0.000259
0.000264
0.000383
0.000284
0.000257
0.000323
0.000246
0.000359
0.000271
0.000263
0.000273
0.000268
0.000320
0.000368
0.000272
0.000281
0.000316
0.000269
0.000281
0.000284
0.000313
0.000260
0.000275
0.000285
0.000254
0.000259
0.000346
0.000243
0.000276
0.000290
0.000280
0.000269
0.000268
0.000267
0.000274
0.000269
0.000272
0.000294
0.000256
0.000267
0.000274
0.000266
0.000276
0.000295
0.000332
0.000270
0.000274
0.000275
0.000312
0.000272
0.000290
0.000263
0.000248
0.000294
0.000260
0.000283
0.000288
0.000267
0.000285
0.000297
0.000428
0.000265
0.000267
0.000269
0.000265
0.000277
0.000260
0.000284
0.000275
0.000265
0.000275
0.000293
0.000300
0.000302
0.000295
0.000272
0.000292
0.000281
0.000279
0.000278
0.000269
0.000290
0.000253
0.000313
0.000357
0.000290
0.000264
0.000280
0.000220
0.000302
0.000264
0.000280
0.000264
0.000263
0.000275
0.000266
0.000250
0.000280
0.000291
0.000280
0.000293
0.000274
0.000256
0.000278
0.000292
0.000282
0.000279
0.000274
0.000262
0.000262
0.000324
0.000268
0.000289
0.000298
0.000261
0.000284
0.000241
0.000273
0.000293
0.000268
0.000268
0.000304
0.000252
0.000287
0.000263
0.000258
0.000288
0.000308
0.000286
0.000305
0.000284
0.000261
0.000290
0.000279
0.000301
0.000266
0.000273
0.000316
0.000277
0.000276
0.000294
0.000279
0.000286
0.000261
0.000244
0.000285
0.000284
0.000266
0.000265
0.000259
0.000239
0.000300
0.000269
0.000256
0.000294
0.000358
0.000285
0.000274
0.000241
0.000276
0.000298
0.000276
0.000261
0.000277
0.000284
0.000289
0.000296
0.000263
0.000277
0.000297
0.000314
0.000257
0.000259
0.000249
0.000273
0.000254
0.000255
0.000306
0.000286
0.000271
0.000261
0.000326
0.000262
0.000297
0.000277
0.000280
0.000308
0.000300
0.000275
0.000293
0.000273
0.000279
0.000268
0.000279
0.000277
0.000271
0.000274
0.000310
0.000280
0.000287
0.000289
0.000291
0.000274
0.000259
0.000256
0.000244
0.000299
0.000256
0.000255
0.000270
0.000278
0.000289
0.000267
0.000268
0.000265
0.000264
0.000284
0.000307
0.000271
0.000264
0.000258
0.000267
0.000281
0.000277
0.000273
0.000293
0.000303
0.000270
0.000269
0.000256
0.000296
0.000283
0.000261
0.000255
0.000348
0.000269
0.000255
0.000268
0.000253
0.000365
0.000469
0.000255
0.000263
0.000295
0.000272
0.000266
0.000295
0.000256
0.000272
0.000282
0.000268
0.000278
0.000366
0.000300
0.000293
0.000259
0.000275
0.000300
0.000274
0.000276
0.000294
0.000265
0.000261
0.000260
0.000343
0.000311
0.000288
0.000262
0.000278
0.000261
0.000255
0.000288
0.000265
0.000267
0.000280
0.000240
0.000263
0.000281
0.000269
0.000287
0.000279
0.000419
0.000273
0.000272
0.000264
0.000289
0.000302
0.000276
0.000274
0.000268
0.000286
0.000263
0.000264
0.000272
0.000362
0.000264
0.000254
0.000254
0.000287
0.000301
0.000261
0.000258
0.000319
0.000320
0.000278
0.000263
0.000271
0.000288
0.000312
0.000270
0.000268
0.000247
0.000278
0.000286
0.000263
0.000278
0.000267
0.000270
0.000300
0.000275
0.000334
0.000291
0.000367
0.000252
0.000273
0.000264
0.000280
0.000267
0.000273
0.000305
0.000249
0.000436
0.000269
0.000264
0.000372
0.000282
0.000279
0.000280
0.000250
0.000393
0.000271
0.000280
0.000278
0.000284
0.000292
0.000277
0.000280
0.000259
0.000280
0.000352
0.000273
0.000228
0.000264
0.000260
0.000270
0.000260
0.000260
0.000261
0.000268
0.000270
0.000263
0.000254
0.000386
0.000371
0.000377
0.000271
0.000261
0.000302
0.000278
0.000276
0.000270
0.000259
0.000290
0.000276
0.000256
0.000301
0.000336
0.000278
0.000270
0.000274
0.000283
0.000262
0.000264
0.000298
0.000262
0.000273
0.000260
0.000261
0.000244
0.000266
0.000298
0.000269
0.000291
0.000266
0.000241
0.000293
0.000267
0.000289
0.000261
0.000276
0.000396
0.000280
0.000275
0.000273
0.000484
0.000264
0.000275
0.000253
0.000308
0.000281
0.000287
0.000255
0.000245
0.000267
0.000257
0.000277
0.000277
0.000263
0.000335
0.000256
0.000253
0.000261
0.000299
0.000261
0.000274
0.000266
0.000291
0.000279
0.000274
0.000271
0.000263
0.000587
0.000313
0.000283
0.000246
0.000277
0.000286
0.000406
0.000277
0.000275
0.000279
0.000258
0.000275
0.000253
0.000284
0.000379
0.000257
0.000260
0.000257
0.000288
0.000260
0.000265
0.000274
0.000254
0.000261
0.000259
0.000277
0.000269
0.000291
0.000308
0.000277
0.000296
0.000268
0.000309
0.000281
0.000296
0.000311
0.000269
0.000312
0.000276
0.000295
0.000295
0.000280
0.000268
0.000269
0.000247
0.000274
0.000263
0.000274
0.000264
0.000266
0.000261
0.000263
0.000250
0.000282
0.000296
0.000267
0.000384
0.000265
0.000301
0.000253
0.000294
0.000306
0.000281
0.000270
0.000278
0.000288
0.000275
0.000260
0.000303
0.000309
0.000316
0.000279
0.000267
0.000286
0.000260
0.000273
0.000279
0.000247
0.000279
0.000263
0.000264
0.000315
0.000262
0.000302
0.000278
0.000276
0.000251
0.000268
0.000296
0.000296
0.000278
0.000263
0.000294
0.000273
0.000280
0.000284
0.000313
0.000426
0.000271
0.000265
0.000263
0.000449
0.000256
0.000266
0.000247
0.000269
0.000270
0.000256
0.000271
0.000322
0.000327
0.000268
0.000269
0.000249
0.000288
0.000343
0.000268
0.000258
0.000284
0.000263
0.000278
0.000276
0.000283
0.000429
0.000296
0.000284
0.000265
0.000267
0.000281
0.000374
0.000264
0.000263
0.000260
0.000269
0.000302
0.000268
0.000264
0.000259
0.000430
0.000261
0.000259
0.000279
0.000265
0.000277
0.000267
0.000272
0.000257
0.000291
0.000271
0.000252
0.000293
0.000285
0.000289
0.000295
0.000308
0.000243
0.000289
0.000297
0.000276
0.000281
0.000299
0.000265
0.000268
0.000238
0.000271
0.000292
0.000279
0.000318
0.000260
0.000419
0.000261
0.000282
0.000270
0.000310
0.000286
0.000275
0.000288
0.000273
0.000273
0.000294
0.000304
0.000278
0.000258
0.000289
0.000282
0.000278
0.000282
0.000277
0.000279
0.000287
0.000264
0.000255
0.000269
0.000282
0.000264
0.000261
0.000256
0.000311
0.000260
0.000269
0.000271
0.000255
0.000275
0.000258
0.000268
0.000296
0.000270
0.000318
0.000313
0.000274
0.000258
0.000298
0.000289
0.000278
0.000275
0.000265
0.000283
0.000277
0.000290
0.000320
0.000306
0.000275
0.000254
0.000257
0.000273
0.000281
0.000249
0.000260
0.000311
0.000253
0.000271
0.000267
0.000258
0.000262
0.000275
0.000297
0.000303
0.000272
0.000252
0.000284
0.000291
0.000278
0.000286
0.000263
0.000273
0.000286
0.000275
0.000308
0.000275
0.000321
0.000261
0.000287
0.000268
0.000270
0.000264
0.000268
0.000270
0.000401
0.000281
0.000277
0.000262
0.000273
0.000281
0.000277
0.000288
0.000255
0.000283
0.000285
0.000274
0.000271
0.000293
0.000256
0.000291
0.000280
0.000274
0.000271
0.000323
0.000308
0.000299
0.000287
0.000293
0.000253
0.000271
0.000256
0.000255
0.000248
0.000262
0.000245
0.000279
0.000324
0.000282
0.000280
0.000268
0.000285
0.000261
0.000257
0.000285
0.000279
0.000277
0.000252
0.000280
0.000284
0.000281
0.000284
0.000304
0.000313
0.000289
0.000282
0.000267
0.000285
0.000266
0.000285
0.000247
0.000252
0.000283
0.000263
0.000268
0.000273
0.000332
0.000290
0.000256
0.000268
0.000274
0.000268
0.000278
0.000268
0.000260
0.000254
0.000292
0.000286
0.000275
0.000370
0.000278
0.000313
0.000277
0.000281
0.000244
0.000285
0.000297
0.000272
0.000277
0.000316
0.000259
0.000267
0.000264
0.000279
0.000277
0.000271
0.000273
0.000298
0.000238
0.000301
0.000287
0.000262
0.000269
0.000261
0.000288
0.000284
0.000259
0.000289
0.000278
0.000322
0.000281
0.000274
0.000259
0.000310
0.000297
0.000270
0.000285
0.000375
0.000353
0.000262
0.000247
0.000261
0.000310
0.000285
0.000277
0.000261
0.000277
0.000308
0.000253
0.000266
0.000264
0.000258
0.000293
0.000266
0.000367
0.000299
0.000306
0.000291
0.000270
0.000266
0.000310
0.000278
0.000263
0.000276
0.000274
0.000289
0.000286
0.000280
0.000274
0.000291
0.000311
0.000266
0.000268
0.000246
0.000286
0.000278
0.000259
0.000253
0.000255
0.000275
0.000330
0.000258
0.000261
0.000300
0.000307
0.000302
0.000271
0.000264
0.000289
0.000287
0.000270
0.000275
0.000278
0.000318
0.000293
0.000269
0.000285
0.000284
0.000286
0.000255
0.000253
0.000266
0.000262
0.000257
0.000279
0.000284
0.000263
0.000298
0.000273
0.000260
0.000361
0.000279
0.000298
0.000280
0.000276
0.000257
0.000299
0.000290
0.000279
0.000277
0.000307
0.000263
0.000272
0.000291
0.000279
0.000284
0.000304
0.000274
0.000296
0.000263
0.000278
0.000253
0.000256
0.000297
0.000256
0.000268
0.000259
0.000324
0.000245
0.000287
0.000298
0.000261
0.000243
0.000285
0.000291
0.000269
0.000274
0.000265
0.000294
0.000277
0.000276
0.000267
0.000280
0.000283
0.000314
0.000280
0.000275
0.000284
0.000288
0.000267
0.000255
0.000275
0.000246
0.000270
0.000266
0.000261
0.000255
0.000274
0.000296
0.000283
0.000268
0.000256
0.000274
0.000276
0.000260
0.000266
0.000335
0.000294
0.000294
0.000267
0.000266
0.000294
0.000319
0.000271
0.000278
0.000305
0.000268
0.000281
0.000265
0.000245
0.000256
0.000268
0.000259
0.000257
0.000255
0.000319
0.000281
0.000333
0.000264
0.000275
0.000296
0.000264
0.000258
0.000272
0.000275
0.000275
0.000290
0.000267
0.000283
0.000286
0.000301
0.000275
0.000270
0.000283
0.000312
0.000307
0.000297
0.000311
0.000254
0.000263
0.000302
0.000361
0.000272
0.000299
0.000253
0.000261
0.000267
0.000261
0.000280
0.000261
0.000272
0.000285
0.000241
0.000296
0.000271
0.000400
0.000375
0.000329
0.000274
0.000263
0.000333
0.000300
0.000277
0.000274
0.000274
0.000266
0.000277
0.000292
0.000360
0.000264
0.000299
0.000280
0.000256
0.000248
0.000295
0.000252
0.000272
0.000264
0.000274
0.000247
0.000304
0.000280
0.000275
0.000329
0.000318
0.000276
0.000264
0.000267
0.000280
0.000297
0.000272
0.000276
0.000271
0.000255
0.000297
0.000287
0.000259
0.000310
0.000288
0.000289
0.000260
0.000284
0.000313
0.000259
0.000259
0.000259
0.000256
0.000395
0.000258
0.000264
0.000261
0.000274
0.000321
0.000278
0.000264
0.000325
0.000462
0.000269
0.000271
0.000263
0.000337
0.000288
0.000283
0.000273
0.000279
0.000420
0.000286
0.000297
0.000460
0.000262
0.000271
0.000259
0.000266
0.000370
0.000257
0.000255
0.000241
0.000474
0.000245
0.000295
0.000375
0.000377
0.000279
0.000274
0.000258
0.000269
0.000285
0.000279
0.000277
0.000268
0.000311
0.000394
0.000331
0.000295
0.000336
0.000279
0.000283
0.000282
0.000251
0.000260
0.000392
0.000243
0.000275
0.000305
0.000276
0.000261
0.000258
0.000245
0.000292
0.000317
0.000270
0.000268
0.000344
0.000271
0.000274
0.000273
0.000272
0.000325
0.000411
0.000296
0.000262
0.000322
0.000275
0.000272
0.000277
0.000320
0.000278
0.000362
0.000438
0.000264
0.000282
0.000285
0.000257
0.000244
0.000264
0.000395
0.000272
0.000251
0.000262
0.000325
0.000343
0.000277
0.000276
0.000440
0.000265
0.000303
0.000261
0.000309
0.000282
0.000285
0.000277
0.000269
0.000292
0.000395
0.000289
0.000311
0.000290
0.000304
0.000263
0.000248
0.000282
0.000258
0.000337
0.000246
0.000262
0.000295
0.000318
0.000274
0.000368
0.000272
0.000286
0.000334
0.000294
0.000281
0.000296
0.000264
0.000340
0.000283
0.000255
0.000277
0.000360
0.000335
0.000289
0.000323
0.000295
0.000276
0.000253
0.000298
0.000269
0.000352
0.000256
0.000278
0.000262
0.000254
0.000238
0.000288
0.000302
0.000276
0.000256
0.000263
0.000262
0.000299
0.000262
0.000286
0.000269
0.000294
0.000266
0.000265
0.000270
0.000289
0.000353
0.000302
0.000280
0.000263
0.000284
0.000320
0.000274
0.000291
0.000253
0.000255
0.000254
0.000244
0.000300
0.000342
0.000301
0.000257
0.000276
0.000256
0.000301
0.000297
0.000290
0.000256
0.000269
0.000267
0.000291
0.000289
0.000349
0.000291
0.000310
0.000301
0.000273
0.000261
0.000298
0.000266
0.000299
0.000274
0.000274
0.000277
0.000265
0.000256
0.000252
0.000292
0.000290
0.000262
0.000260
0.000255
0.000295
0.000260
0.000293
0.000261
0.000299
0.000269
0.000309
0.000275
0.000275
0.000406
0.000286
0.000303
0.000272
0.000285
0.000294
0.000405
0.000279
0.000278
0.000251
0.000291
0.000277
0.000343
0.000274
0.000286
0.000265
0.000266
0.000274
0.000283
0.000257
0.000256
0.000260
0.000257
0.000254
0.000253
0.000257
0.000261
0.000306
0.000281
0.000312
0.000287
0.000284
0.000268
0.000265
0.000283
0.000280
0.000271
0.000258
0.000324
0.000286
0.000294
0.000283
0.000312
0.000260
0.000273
0.000260
0.000295
0.000260
0.000267
0.000250
0.000256
0.000241
0.000280
0.000274
0.000240
0.000434
0.000293
0.000371
0.000266
0.000293
0.000282
0.000269
0.000280
0.000427
0.000266
0.000287
0.000389
0.000289
0.000292
0.000310
0.000452
0.000264
0.000299
0.000273
0.000263
0.000249
0.000295
0.000272
0.000273
0.000264
0.000278
0.000278
0.000295
0.000285
0.000274
0.000237
0.000353
0.000261
0.000298
0.000270
0.000278
0.000251
0.000282
0.000286
0.000251
0.000352
0.000320
0.000293
0.000286
0.000260
0.000307
0.000393
0.000291
0.000287
0.000257
0.000250
0.000265
0.000403
0.000285
0.000374
0.000272
0.000270
0.000253
0.000293
0.000281
0.000266
0.000271
0.000254
0.000297
0.000276
0.000270
0.000243
0.000280
0.000297
0.000294
0.000279
0.000252
0.000283
0.000282
0.000349
0.000278
0.000271
0.000303
0.000300
0.000244
0.000267
0.000273
0.000282
0.000265
0.000269
0.000264
0.000294
0.000263
0.000282
0.000269
0.000257
0.000280
0.000315
0.000272
0.000274
0.000282
0.000317
0.000335
0.000367
0.000251
0.000304
0.000270
0.000281
0.000279
0.000271
0.000278
0.000273
0.000284
0.000286
0.000263
0.000285
0.000262
0.000237
0.000385
0.000277
0.000260
0.000260
0.000268
0.000401
0.000269
0.000268
0.000293
0.000298
0.000287
0.000268
0.000348
0.000280
0.000290
0.000277
0.000269
0.000278
0.000249
0.000435
0.000271
0.000297
0.000297
0.000329
0.000276
0.000289
0.000317
0.000284
0.000292
0.000253
0.000258
0.000247
0.000403
0.000269
0.000268
0.000274
0.000281
0.000272
0.000277
0.000255
0.000255
0.000299
0.000272
0.000264
0.000326
0.000262
0.000295
0.000279
0.000256
0.000344
0.000328
0.000257
0.000286
0.000301
0.000351
0.000377
0.000258
0.000234
0.000278
0.000373
0.000258
0.000248
0.000256
0.000319
0.000268
0.000272
0.000252
0.000271
0.000267
0.000286
0.000282
0.000281
0.000247
0.000287
0.000299
0.000280
0.000290
0.000318
0.000283
0.000308
0.000262
0.000278
0.000294
0.000274
0.000290
0.000264
0.000351
0.000265
0.000249
0.000353
0.000284
0.000411
0.000255
0.000255
0.000264
0.000294
0.000267
0.000275
0.000265
0.000279
0.000281
0.000276
0.000269
0.000288
0.000282
0.000311
0.000286
0.000275
0.000273
0.000288
0.000273
0.000276
0.000267
0.000268
0.000283
0.000308
0.000270
0.000263
0.000303
0.000263
0.000247
0.000270
0.000268
0.000276
0.000259
0.000275
0.000304
0.000267
0.000277
0.000261
0.000280
0.000271
0.000290
0.000341
0.000296
0.000274
0.000258
0.000294
0.000282
0.000283
0.000286
0.000257
0.000284
0.000317
0.000273
0.000280
0.000406
0.000281
0.000262
0.000254
0.000261
0.000275
0.000264
0.000247
0.000273
0.000256
0.000286
0.000314
0.000307
0.000288
0.000383
0.000272
0.000283
0.000271
0.000283
0.000273
0.000271
0.000267
0.000264
0.000291
0.000336
0.000379
0.000284
0.000382
0.000283
0.000289
0.000244
0.000264
0.000269
0.000277
0.000282
0.000259
0.000270
0.000274
0.000247
0.000266
0.000280
0.000302
0.000287
0.000265
0.000261
0.000280
0.000266
0.000290
0.000267
0.000281
0.000250
0.000294
0.000270
0.000279
0.000300
0.000403
0.000287
0.000275
0.000317
0.000262
0.000259
0.000246
0.000265
0.000260
0.000262
0.000293
0.000259
0.000271
0.000295
0.000323
0.000263
0.000266
0.000332
0.000264
0.000276
0.000274
0.000257
0.000338
0.000282
0.000288
0.000270
0.000258
0.000287
0.000424
0.000320
0.000282
0.000273
0.000288
0.000281
0.000281
0.000252
0.000277
0.000316
0.000252
0.000268
0.000260
0.000297
0.000266
0.000269
0.000254
0.000263
0.000278
0.000272
0.000267
0.000272
0.000272
0.000299
0.000316
0.000267
0.000289
0.000362
0.000280
0.000274
0.000336
0.000258
0.000274
0.000287
0.000277
0.000274
0.000257
0.000264
0.000252
0.000373
0.000393
0.000266
0.000297
0.000271
0.000264
0.000248
0.000250
0.000281
0.000262
0.000280
0.000396
0.000301
0.000287
0.000272
0.000341
0.000288
0.000279
0.000397
0.000282
0.000277
0.000294
0.000272
0.000277
0.000291
0.000277
0.000278
0.000251
0.000285
0.000270
0.000275
0.000328
0.000367
0.000285
0.000263
0.000258
0.000263
0.000272
0.000393
0.000283
0.000246
0.000277
0.000314
0.000307
0.000279
0.000264
0.000278
0.000301
0.000277
0.000279
0.000292
0.000302
0.000289
0.000286
0.000274
0.000438
0.000262
0.000418
0.000273
0.000260
0.000278
0.000256
0.000266
0.000250
0.000263
0.000269
0.000270
0.000303
0.000272
0.000307
0.000269
0.000261
0.000251
0.000261
0.000273
0.000280
0.000285
0.000281
0.000280
0.000370
0.000277
0.000256
0.000281
0.000315
0.000304
0.000280
0.000329
0.000272
0.000260
0.000266
0.000327
0.000277
0.000446
0.000275
0.000284
0.000251
0.000299
0.000266
0.000274
0.000357
0.000293
0.000266
0.000263
0.000264
0.000266
0.000289
0.000303
0.000263
0.000298
0.000296
0.000302
0.000287
0.000307
0.000453
0.000295
0.000292
0.000268
0.000262
0.000268
0.000258
0.000259
0.000366
0.000317
0.000257
0.000292
0.000291
0.000234
0.000270
0.000263
0.000263
0.000285
0.000248
0.000276
0.000294
0.000271
0.000267
0.000293
0.000296
0.000341
0.000264
0.000620
0.000282
0.000264
0.000277
0.000254
0.000268
0.000272
0.000268
0.000259
0.000301
0.000251
0.000270
0.000340
0.000273
0.000258
0.000275
0.000261
0.000315
0.000274
0.000280
0.000257
0.000278
0.000269
0.000327
0.000291
0.000275
0.000265
0.000359
0.000277
0.000279
0.000269
0.000279
0.000278
0.000314
0.000277
0.000292
0.000288
0.000316
0.000260
0.000258
0.000271
0.000267
0.000253
0.000274
0.000281
0.000263
0.000323
0.000264
0.000262
0.000325
0.000279
0.000302
0.000285
0.000279
0.000288
0.000311
0.000278
0.000292
0.000277
0.000265
0.000402
0.000280
0.000306
0.000390
0.000309
0.000279
0.000284
0.000253
0.000282
0.000257
0.000264
0.000281
0.000356
0.000282
0.000262
0.000260
0.000583
0.000300
0.000284
0.000253
0.000230
0.000352
0.000269
0.000267
0.000310
0.000328
0.000280
0.000268
0.000289
0.000357
0.000497
0.000297
0.000248
0.000279
0.000294
0.000296
0.000285
0.000253
0.000329
0.000273
0.000255
0.000320
0.000392
0.000296
0.000274
0.000364
0.000284
0.000305
0.000263
0.000276
0.000259
0.000269
0.000278
0.000270
0.000263
0.000303
0.000317
0.000271
0.000294
0.000339
0.000301
0.000274
0.000270
0.000276
0.000273
0.000407
0.000283
0.000397
0.000348
0.000348
0.000266
0.000289
0.000273
0.000324
0.000276
0.000259
0.000255
0.000331
0.000269
0.000262
0.000259
0.000441
0.000434
0.000284
0.000308
0.000317
0.000265
0.000280
0.000266
0.000282
0.000253
0.000326
0.000275
0.000279
0.000370
0.000472
0.000371
0.000277
0.000253
0.000254
0.000268
0.000304
0.000240
0.000460
0.000267
0.000253
0.000466
0.000439
0.000268
0.000280
0.000281
0.000289
0.000336
0.000272
0.000277
0.000292
0.000308
0.000281
0.000399
0.000544
0.000311
0.000264
0.000311
0.000314
0.000282
0.000322
0.000312
0.000264
0.000259
0.000261
0.000441
0.000290
0.000279
0.000270
0.000281
0.000355
0.000260
0.000267
0.000269
0.000273
0.000303
0.000280
0.000278
0.000379
0.000272
0.000312
0.000349
0.000300
0.000325
0.000373
0.000323
0.000273
0.000276
0.000503
0.000295
0.000284
0.000261
0.000400
0.000258
0.000451
0.000271
0.000489
0.000272
0.000297
0.000246
0.000327
0.000275
0.000264
0.000307
0.000310
0.000291
0.000312
0.000287
0.000277
0.000359
0.000283
0.000394
0.000265
0.000419
0.000278
0.000249
0.000338
0.000326
0.000320
0.000290
0.000259
0.000312
0.000418
0.000257
0.000257
0.000334
0.000318
0.000258
0.000293
0.000422
0.000283
0.000275
0.000270
0.000289
0.000307
0.000320
0.000283
0.000326
0.000330
0.000278
0.000264
0.000275
0.000319
0.000346
0.000280
0.000261
0.000274
0.000299
0.000388
0.000273
0.000357
0.000385
0.000258
0.000278
0.000261
0.000408
0.000354
0.000266
0.000240
0.000326
0.000357
0.000265
0.000428
0.000272
0.000267
0.000261
0.000267
0.000326
0.000371
0.000369
0.000279
0.000276
0.000381
0.000288
0.000330
0.000470
0.000278
0.000282
0.000282
0.000279
0.000483
0.000461
0.000262
0.000278
0.000262
0.000252
0.000250
0.000348
0.000269
0.000266
0.000259
0.000331
0.000491
0.000313
0.000279
0.000269
0.000317
0.000262
0.000292
0.000332
0.000341
0.000366
0.000270
0.000269
0.000440
0.000441
0.000312
0.000266
0.000314
0.000298
0.000287
0.000292
0.000259
0.000297
0.000287
0.000426
0.000295
0.000284
0.000266
0.000264
0.000413
0.000258
0.000270
0.000280
0.000286
0.000282
0.000282
0.000274
0.000416
0.000273
0.000304
0.000320
0.000271
0.000245
0.000283
0.000285
0.000402
0.000588
0.000257
0.000288
0.000299
0.000385
0.000283
0.000254
0.000273
0.001133
0.000333
0.000236
0.000280
0.000266
0.000276
0.000291
0.000283
0.000379
0.000282
0.000256
0.000316
0.000272
0.000270
0.000269
0.000338
0.000282
0.000279
0.000275
0.000282
0.000337
0.000377
0.000484
0.000354
0.000376
0.000278
0.000276
0.000244
0.000251
0.000304
0.000257
0.000265
0.000321
0.000347
0.000365
0.000237
0.000309
0.000272
0.000288
0.000269
0.000402
0.000246
0.000294
0.000272
0.000262
0.000371
0.000432
0.000277
0.000327
0.000271
0.000286
0.000282
0.000263
0.000290
0.000272
0.000283
0.000284
0.000244
0.000320
0.000362
0.000559
0.000279
0.000352
0.000295
0.000253
0.000287
0.000262
0.000260
0.000285
0.000271
0.000455
0.000512
0.000261
0.000326
0.000248
0.000265
0.000291
0.000276
0.000307
0.000255
0.000272
0.000275
0.000278
0.000349
0.000330
0.000356
0.000384
0.000292
0.000255
0.000354
0.000269
0.000251
0.000262
0.000269
0.000262
0.000281
0.000327
0.000301
0.000271
0.000273
0.000275
0.000258
0.000281
0.000266
0.000277
0.000266
0.000429
0.000300
0.000274
0.000302
0.000415
0.000300
0.000304
0.000296
0.000285
0.000314
0.000322
0.000265
0.000239
0.000331
0.000262
0.000252
0.000333
0.000301
0.000339
0.000523
0.000271
0.000269
0.000322
0.000263
0.000261
0.000242
0.000383
0.000274
0.000269
0.000263
0.000534
0.000313
0.000345
0.000274
0.000302
0.000288
0.000278
0.000268
0.000259
0.000301
0.000301
0.000314
0.000393
0.000376
0.000310
0.000348
0.000279
0.000315
0.000253
0.000351
0.000258
0.000304
0.000318
0.000260
0.000348
0.000463
0.000279
0.000272
0.000291
0.000318
0.000419
0.000269
0.000288
0.000340
0.000276
0.000287
0.000332
0.000289
0.000442
0.000333
0.000285
0.000276
0.000318
0.000249
0.000274
0.000258
0.000339
0.000268
0.000262
0.000361
0.000389
0.000333
0.000266
0.000291
0.000298
0.000365
0.000270
0.000304
0.000332
0.000278
0.000274
0.000278
0.000286
0.000484
0.000272
0.000301
0.000259
0.000337
0.000354
0.000272
0.000265
0.000293
0.000270
0.000260
0.000420
0.000396
0.000258
0.000301
0.000359
0.000262
0.000362
0.000262
0.000286
0.000253
0.000273
0.000278
0.000267
0.000300
0.000297
0.000290
0.000343
0.000370
0.000285
0.000268
0.000295
0.000268
0.000304
0.000280
0.000256
0.000279
0.000299
0.000550
0.000259
0.000251
0.000246
0.000294
0.000277
0.000279
0.000259
0.000293
0.000262
0.000263
0.000266
0.000238
0.000285
0.000344
0.000310
0.000265
0.000312
0.000308
0.000305
0.000326
0.000276
0.000274
0.000283
0.000283
0.000378
0.000279
0.000504
0.000400
0.000298
0.000290
0.000317
0.000253
0.000261
0.000321
0.000273
0.000346
0.000250
0.000311
0.000395
0.000316
0.000283
0.000262
0.000272
0.000260
0.000261
0.000280
0.000275
0.000330
0.000280
0.000277
0.000256
0.000291
0.000307
0.000289
0.000288
0.000491
0.000338
0.000283
0.000273
0.000253
0.000252
0.000268
0.000268
0.000264
0.000276
0.000296
0.000260
0.000310
0.000324
0.000303
0.000269
0.000260
0.000258
0.000260
0.000266
0.000270
0.000274
0.000317
0.000283
0.000300
0.000304
0.000287
0.000427
0.000353
0.000290
0.000295
0.000485
0.000295
0.000309
0.000257
0.000273
0.000289
0.000242
0.000305
0.000342
0.000288
0.000258
0.000263
0.000258
0.000252
0.000274
0.000285
0.000274
0.000352
0.000300
0.000278
0.000296
0.000436
0.000263
0.000327
0.000315
0.000270
0.000259
0.000272
0.000286
0.000271
0.000281
0.000288
0.000313
0.000342
0.000298
0.000279
0.000354
0.000259
0.000262
0.000263
0.000234
0.000264
0.000307
0.000260
0.000275
0.000284
0.000290
0.000277
0.000327
0.000265
0.000283
0.000360
0.000272
0.000278
0.000269
0.000281
0.000331
0.000270
0.000274
0.000314
0.000283
0.000346
0.000301
0.000295
0.000349
0.000245
0.000304
0.000239
0.000429
0.000263
0.000254
0.000264
0.000327
0.000262
0.000256
0.000293
0.000302
0.000363
0.000266
0.000289
0.000266
0.000273
0.000346
0.000285
0.000282
0.000282
0.000294
0.000287
0.000344
0.000258
0.000440
0.000295
0.000289
0.000258
0.000372
0.000239
0.000441
0.000278
0.000278
0.000282
0.000260
0.000251
0.000320
0.000253
0.000271
0.000252
0.000271
0.000282
0.000271
0.000276
0.000279
0.000415
0.000296
0.000325
0.000289
0.000250
0.000313
0.000272
0.000417
0.000355
0.000271
0.000396
0.000284
0.000292
0.000277
0.000275
0.000265
0.000243
0.000267
0.000278
0.000254
0.000289
0.000270
0.000280
0.000296
0.000479
0.000280
0.000292
0.000307
0.000310
0.000263
0.000281
0.000328
0.000278
0.000270
0.000357
0.000250
0.000294
0.000353
0.000310
0.000269
0.000317
0.000334
0.000353
0.000280
0.000253
0.000324
0.000264
0.000243
0.000279
0.000264
0.000323
0.000317
0.000264
0.000313
0.000272
0.000272
0.000381
0.000281
0.000284
0.000272
0.000269
0.000271
0.000307
0.000335
0.000273
0.000317
0.000284
0.000295
0.000316
0.000258
0.000291
0.000293
0.000263
0.000261
0.000254
0.000248
0.000265
0.000304
0.000244
0.000324
0.000287
0.000381
0.000273
0.000233
0.000288
0.000287
0.000284
0.000282
0.000259
0.000282
0.000280
0.000276
0.000376
0.000299
0.000298
0.000342
0.000345
0.000273
0.000404
0.000285
0.000288
0.000300
0.000273
0.000244
0.000357
0.000320
0.000324
0.000260
0.000269
0.000255
0.000414
0.000299
0.000264
0.000276
0.000263
0.000283
0.000274
0.000285
0.000255
0.000292
0.000490
0.000368
0.000266
0.000379
0.000277
0.000272
0.000270
0.000278
0.000284
0.000270
0.000271
0.000260
0.000320
0.000265
0.000257
0.000251
0.000259
0.000263
0.000265
0.000238
0.000269
0.000275
0.000278
0.000262
0.000299
0.000314
0.000372
0.000296
0.000289
0.000271
0.000249
0.000274
0.000270
0.000289
0.000255
0.000289
0.000287
0.000278
0.000277
0.000297
0.000284
0.000403
0.000266
0.000236
0.000328
0.000247
0.000368
0.000238
0.000253
0.000274
0.000264
0.000260
0.000267
0.000311
0.000493
0.000292
0.000268
0.000265
0.000460
0.000404
0.000265
0.000268
0.000280
0.000300
0.000275
0.000261
0.000317
0.000294
0.000300
0.000363
0.000244
0.000271
0.000316
0.000247
0.000246
0.000311
0.000255
0.000271
0.000314
0.000261
0.000301
0.000269
0.000253
0.000268
0.000268
0.000267
0.000294
0.000321
0.000326
0.000288
0.000281
0.000274
0.000298
0.000267
0.000328
0.000278
0.000290
0.000485
0.000366
0.000349
0.000383
0.000269
0.000258
0.000254
0.000272
0.000262
0.000285
0.000266
0.000286
0.000252
0.000263
0.000259
0.000290
0.000297
0.000258
0.000251
0.000260
0.000269
0.000272
0.000274
0.000302
0.000297
0.000305
0.000286
0.000237
0.000279
0.000268
0.000293
0.000357
0.000262
0.000287
0.000284
0.000253
0.000332
0.000271
0.000264
0.000255
0.000280
0.000257
0.000328
0.000365
0.000445
0.000252
0.000274
0.000260
0.000273
0.000286
0.000377
0.000336
0.000279
0.000277
0.000265
0.000373
0.000353
0.000360
0.000273
0.000286
0.000275
0.000256
0.000326
0.000343
0.000311
0.000250
0.000265
0.000258
0.000270
0.000275
0.000258
0.000253
0.000268
0.000274
0.000261
0.000275
0.000263
0.000310
0.000367
0.000281
0.000247
0.000268
0.000330
0.000277
0.000275
0.000272
0.000290
0.000282
0.000268
0.000305
0.000276
0.000297
0.000305
0.000285
0.000248
0.000429
0.000263
0.000353
0.000245
0.000269
0.000271
0.000258
0.000313
0.000277
0.000307
0.000271
0.000267
0.000252
0.000264
0.000261
0.000280
0.000376
0.000270
0.000278
0.000346
0.000274
0.000271
0.000285
0.000293
0.000305
0.000381
0.000312
0.000262
0.000300
0.000376
0.000272
0.000260
0.000253
0.000248
0.000261
0.000308
0.000275
0.000284
0.000264
0.000270
0.000297
0.000271
0.000267
0.000256
0.000256
0.000286
0.000282
0.000276
0.000267
0.000267
0.000322
0.000273
0.000334
0.000279
0.000270
0.000310
0.000283
0.000268
0.000278
0.000277
0.000259
0.000299
0.000240
0.000323
0.000295
0.000256
0.000263
0.000255
0.000280
0.000252
0.000262
0.000307
0.000250
0.000267
0.000266
0.000267
0.000268
0.000346
0.000319
0.000264
0.000313
0.000241
0.000279
0.000287
0.000274
0.000264
0.000289
0.000274
0.000305
0.000275
0.000241
0.000365
0.000282
0.000275
0.000264
0.000253
0.000313
0.000261
0.000265
0.000251
0.000248
0.000276
0.000269
0.000260
0.000301
0.000282
0.000295
0.000282
0.000277
0.000275
0.000263
0.000297
0.000284
0.000278
0.000307
0.000271
0.000287
0.000267
0.000252
0.000309
0.000322
0.000276
0.000258
0.000266
0.000256
0.000360
0.000260
0.000252
0.000259
0.000269
0.000298
0.000274
0.000249
0.000362
0.000276
0.000302
0.000253
0.000247
0.000270
0.000296
0.000276
0.000474
0.000299
0.000277
0.000278
0.000290
0.000311
0.000291
0.000286
0.000290
0.000260
0.000250
0.000287
0.000260
0.000254
0.000261
0.000303
0.000265
0.000257
0.000313
0.000368
0.000298
0.000266
0.000276
0.000248
0.000260
0.000335
0.000276
0.000263
0.000349
0.000303
0.000281
0.000289
0.000296
0.000293
0.000294
0.000278
0.000264
0.000269
0.000387
0.000282
0.000288
0.000246
0.000275
0.000266
0.000259
0.000272
0.000376
0.000303
0.000273
0.000266
0.000235
0.000344
0.000295
0.000273
0.000266
0.000291
0.000279
0.000278
0.000269
0.000295
0.000471
0.000289
0.000306
0.000269
0.000307
0.000263
0.000275
0.000288
0.000275
0.000329
0.000261
0.000260
0.000427
0.000277
0.000331
0.000344
0.000264
0.000263
0.000270
0.000258
0.000259
0.000295
0.000257
0.000275
0.000276
0.000437
0.000314
0.000303
0.000328
0.000270
0.000274
0.000291
0.000288
0.000274
0.000302
0.000301
0.000300
0.000282
0.000263
0.000281
0.000290
0.000262
0.000322
0.000272
0.000287
0.000282
0.000256
0.000268
0.000261
0.000247
0.000275
0.000273
0.000290
0.000559
0.000309
0.000341
0.000253
0.000292
0.000285
0.000267
0.000283
0.000282
0.000281
0.000297
0.000399
0.000244
0.000284
0.000306
0.000303
0.000251
0.000260
0.000290
0.000255
0.000263
0.000270
0.000320
0.000314
0.000254
0.000273
0.000265
0.000265
0.000320
0.000361
0.000295
0.000263
0.000282
0.000260
0.000282
0.000281
0.000298
0.000283
0.000399
0.000530
0.000324
0.000278
0.000273
0.000257
0.000257
0.000272
0.000363
0.000259
0.000289
0.000258
0.000260
0.000240
0.000306
0.000306
0.000291
0.000273
0.000360
0.000285
0.000255
0.000272
0.000282
0.000277
0.000256
0.000293
0.000275
0.000267
0.000380
0.000303
0.000296
0.000299
0.000253
0.000294
0.000293
0.000281
0.000388
0.000236
0.000268
0.000266
0.000284
0.000253
0.000269
0.000290
0.000257
0.000270
0.000313
0.000303
0.000258
0.000267
0.000277
0.000253
0.000275
0.000272
0.000273
0.000264
0.000423
0.000300
0.000269
0.000261
0.000272
0.000303
0.000261
0.000317
0.000331
0.000271
0.000410
0.000280
0.000282
0.000261
0.000287
0.000251
0.000273
0.000256
0.000283
0.000291
0.000304
0.000272
0.000254
0.000264
0.000352
0.000274
0.000286
0.000316
0.000320
0.000269
0.000269
0.000277
0.000382
0.000307
0.000273
0.000268
0.000262
0.000290
0.000280
0.000281
0.000264
0.000341
0.000396
0.000237
0.000360
0.000253
0.000259
0.000257
0.000392
0.000282
0.000407
0.000327
0.000379
0.000304
0.000269
0.000263
0.000255
0.000262
0.000300
0.000382
0.000263
0.000294
0.000284
0.000370
0.000278
0.000260
0.000278
0.000320
0.000370
0.000275
0.000274
0.000294
0.000260
0.000270
0.000249
0.000256
0.000300
0.000332
0.000251
0.000282
0.000297
0.000277
0.000264
0.000281
0.000242
0.000291
0.000345
0.000295
0.000265
0.000269
0.000279
0.000274
0.000273
0.000268
0.000353
0.000264
0.000291
0.000281
0.000317
0.000277
0.000282
0.000281
0.000239
0.000278
0.000275
0.000481
0.000293
0.000310
0.000264
0.000270
0.000296
0.000277
0.000265
0.000277
0.000268
0.000264
0.000280
0.000277
0.000279
0.000292
0.000265
0.000310
0.000277
0.000265
0.000312
0.000274
0.000293
0.000271
0.000274
0.000263
0.000320
0.000281
0.000262
0.000309
0.000340
0.000292
0.000273
0.000261
0.000271
0.000270
0.000266
0.000253
0.000268
0.000275
0.000246
0.000293
0.000264
0.000279
0.000285
0.000293
0.000291
0.000269
0.000258
0.000254
0.000300
0.000277
0.000320
0.000286
0.000259
0.000291
0.000275
0.000313
0.000322
0.000268
0.000257
0.000267
0.000233
0.000266
0.000255
0.000256
0.000268
0.000306
0.000278
0.000266
0.000267
0.000247
0.000282
0.000299
0.000304
0.000284
0.000252
0.000294
0.000271
0.000299
0.000272
0.000257
0.000261
0.000296
0.000279
0.000287
0.000279
0.000329
0.000277
0.000257
0.000281
0.000252
0.000262
0.000258
0.000258
0.000269
0.000346
0.000263
0.000257
0.000270
0.000306
0.000278
0.000260
0.000297
0.000269
0.000275
0.000265
0.000278
0.000267
0.000267
0.000253
0.000287
0.000292
0.000275
0.000275
0.000299
0.000290
0.000291
0.000243
0.000281
0.000256
0.000266
0.000249
0.000292
0.000270
0.000248
0.000280
0.000306
0.000269
0.000296
0.000290
0.000270
0.000263
0.000284
0.000304
0.000267
0.000270
0.000271
0.000269
0.000266
0.000263
0.000277
0.000308
0.000274
0.000314
0.000294
0.000295
0.000287
0.000328
0.000254
0.000266
0.000268
0.000263
0.000261
0.000253
0.000256
0.000271
0.000286
0.000307
0.000265
0.000262
0.000243
0.000297
0.000321
0.000269
0.000264
0.000270
0.000282
0.000269
0.000292
0.000297
0.000285
0.000306
0.000284
0.000276
0.000295
0.000304
0.000282
0.000262
0.000369
0.000260
0.000265
0.000263
0.000256
0.000249
0.000382
0.000278
0.000261
0.000270
0.000284
0.000265
0.000260
0.000269
0.000375
0.000282
0.000278
0.000268
0.000281
0.000287
0.000305
0.000301
0.000267
0.000258
0.000284
0.000294
0.000273
0.000281
0.000265
0.000285
0.000274
0.000368
0.000277
0.000291
0.000285
0.000270
0.000286
0.000255
0.000296
0.000271
0.000265
0.000274
0.000246
0.000286
0.000267
0.000277
0.000257
0.000277
0.000319
0.000276
0.000255
0.000276
0.000316
0.000288
0.000284
0.000282
0.000267
0.000266
0.000273
0.000271
0.000274
0.000289
0.000290
0.000275
0.000266
0.000272
0.000328
0.000262
0.000269
0.000319
0.000282
0.000266
0.000267
0.000256
0.000262
0.000287
0.000310
0.000275
0.000275
0.000274
0.000295
0.000274
0.000268
0.000290
0.000256
0.000275
0.000279
0.000419
0.000295
0.000359
0.000258
0.000282
0.000246
0.000261
0.000268
0.000298
0.000279
0.000253
0.000403
0.000258
0.000271
0.000371
0.000294
0.000277
0.000266
0.000276
0.000271
0.000292
0.000271
0.000269
0.000278
0.000259
0.000295
0.000279
0.000285
0.000284
0.000348
0.000281
0.000274
0.000255
0.000269
0.000252
0.000260
0.000260
0.000279
0.000252
0.000270
0.000263
0.000282
0.000273
0.000339
0.000285
0.000307
0.000241
0.000298
0.000445
0.000269
0.000281
0.000273
0.000277
0.000274
0.000276
0.000252
0.000289
0.000303
0.000275
0.000270
0.000289
0.000541
0.000303
0.000248
0.000238
0.000274
0.000255
0.000255
0.000281
0.000271
0.000295
0.000269
0.000263
0.000251
0.000310
0.000268
0.000274
0.000271
0.000276
0.000280
0.000324
0.000269
0.000295
0.000335
0.000357
0.000260
0.000280
0.000275
0.000286
0.000282
0.000282
0.000278
0.000269
0.000255
0.000259
0.000232
0.000296
0.000269
0.000300
0.000258
0.000256
0.000279
0.000289
0.000255
0.000259
0.000262
0.000312
0.000286
0.000271
0.000272
0.000260
0.000345
0.000325
0.000278
0.000271
0.000264
0.000275
0.000305
0.000284
0.000269
0.000280
0.000285
0.000265
0.000240
0.000249
0.000287
0.000292
0.000287
0.000252
0.000242
0.000296
0.000269
0.000261
0.000262
0.000265
0.000261
0.000267
0.000277
0.000259
0.000268
0.000327
0.000273
0.000276
0.000252
0.000277
0.000289
0.000271
0.000289
0.000284
0.000256
0.000280
0.000279
0.000269
0.000269
0.000299
0.000282
0.000274
0.000271
0.000234
0.000284
0.000260
0.000261
0.000261
0.000247
0.000269
0.000274
0.000270
0.000272
0.000276
0.000321
0.000263
0.000268
0.000269
0.000300
0.000302
0.000272
0.000267
0.000267
0.000287
0.000280
0.000274
0.000288
0.000471
0.000310
0.000253
0.000249
0.000284
0.000270
0.000255
0.000256
0.000263
0.000250
0.000279
0.000265
0.000284
0.000270
0.000292
0.000301
0.000304
0.000252
0.000278
0.000298
