nct
4021823882.02
johnsonsu
4117568871.97
t
4265477367.69
cauchy
4336542893.28
genextreme
4605527201.28
dweibull
4737101991.86
invgamma
4815115595.14
powerlognorm
5031727368.84
laplace
5122095796.93
lognorm
5186571739.53
genlogistic
5195122190.36
gumbel_r
5199888750.72
johnsonb
5201596217.75
invgauss
5449617043.44
fatiguelife
5516565642.2
recipinvgauss
5555918685.45
hypsecant
5786768358.29
mielke
5833405435.43
dgamma
5868837852.8
gengamma
6036276476.08
kstwobign
6112512086.76
pearson3
6243506970.73
beta
6272590468.67
logistic
6560386682.21
rice
8278587848.74
rayleigh
8279185427.27
frechet_r
8457484885.94
weibull_min
8457484885.94
nakagami
8502477063.82
chi
8502854408.48
maxwell
8557600872.17
wald
9433148609.14
genexpon
9604514542.46
alpha
9937978937.52
norm
9976241771.97
gilbrat
10671231177.7
gompertz
10939554664.7
foldnorm
10996055519.3
halfnorm
11039828063.2
genhalflogistic
11376540670.4
halflogistic
11449817395.0
loggamma
11923515891.3
exponweib
11931118522.6
triang
11966485175.4
tukeylambda
12485501838.4
foldcauchy
12939251005.9
halfcauchy
12940332849.8
truncexpon
13194995864.7
genpareto
13313238064.6
expon
13531263271.1
lomax
14652395123.5
cosine
14662894177.7
anglit
15540456732.5
bradford
15630748790.7
semicircular
16194799333.9
uniform
16273130320.7
rdist
16315318755.1
gumbel_l
16320000382.5
ksone
18452716132.5
ncf
18483546022.6
pareto
19208251656.8
invweibull
19208251656.8
truncnorm
19208251656.8
levy_l
19208251656.8
levy
19208251656.8
reciprocal
19208251656.8
weibull_max
34437017858.0
frechet_l
34437017858.0
exponpow
5.38046144724e+16
ncx2
3.16729262372e+17
gausshyper
1.40346727856e+21
powerlaw
2.61972156671e+21
arcsine
8.94257174663e+21
chi2
1.26696454837e+22
f
2.13904906301e+29
fisk
2.2437963375e+31
loglaplace
3.6317786043e+32
betaprime
9.14462871765e+32
burr
1.99421069576e+33
erlang
4.42267469498e+33
gamma
7.00921727752e+34
vonmises
8.1583234632e+71
powernorm
nan
wrapcauchy
nan
